<svg xmlns="http://www.w3.org/2000/svg" width="32" height="32" version="1">
 <circle style="opacity:0.2" cx="16" cy="17" r="14"/>
 <circle style="fill:#00796b" cx="16" cy="16" r="14"/>
 <path style="opacity:0.2" d="M 17.972031,7.0003502 C 17.625868,6.9924681 17.372807,7.1167453 17.145902,7.3753379 16.951795,7.5965905 16.734129,7.9935743 16.663505,8.2581212 16.404435,9.2286386 15.193672,9.8527515 14.124576,9.5647186 13.600004,9.4233899 13.352652,9.2015497 12.503567,8.1155478 12.117099,7.6212369 11.785657,7.6318144 10.837638,8.1721865 9.936934,8.6856922 9.8274783,9.0176629 10.234154,10.029547 c 0.16804,0.418264 0.31114,0.954585 0.314437,1.191367 0.0083,0.585423 -0.510306,1.511426 -1.0311965,1.845642 -0.4269475,0.27394 -1.321935,0.337178 -2.037003,0.144527 -0.6799756,-0.183198 -1.0273293,0.139581 -1.3143846,1.216756 -0.2235203,0.83876 -0.2235015,0.962463 0.011718,1.230428 0.1437138,0.163837 0.6123514,0.449375 1.0390083,0.632792 0.4266796,0.183424 0.896166,0.469231 1.0448673,0.638651 0.3139463,0.357725 0.5153349,1.391641 0.3749805,1.933529 -0.1015876,0.393468 -0.5884671,1.006181 -0.9823707,1.23824 -0.429324,0.252925 -0.842922,0.811677 -0.8300347,1.121057 0.016514,0.39635 0.580905,1.387878 0.939404,1.650336 0.2053284,0.150355 0.3767407,0.168768 0.6405916,0.07031 0.7733365,-0.288457 2.0192958,-0.491674 2.3944068,-0.390612 0.565525,0.152362 1.371067,0.904546 1.46672,1.373002 0.04501,0.220628 0.04425,0.70577 0,1.078089 -0.107369,0.902978 -0.0199,1.365853 0.291001,1.525341 0.141388,0.07234 0.368518,0.191492 0.503879,0.263663 0.135121,0.07308 0.459115,0.161517 0.720666,0.195305 0.682094,0.08848 1.165857,-0.308703 1.540935,-1.271442 0.342957,-0.880262 0.465532,-1.00561 1.244075,-1.253864 0.790581,-0.252102 1.340131,-0.194704 1.794829,0.187494 0.376997,0.316917 0.523386,0.46909 1.103458,1.132774 0.424991,0.48635 0.762943,0.516099 1.507733,0.126949 1.119879,-0.5852 1.231647,-0.942983 0.6777,-2.105398 -0.527331,-1.106341 -0.238618,-2.216134 0.742148,-2.863188 0.375575,-0.247757 0.663112,-0.289061 1.564372,-0.23046 1.360762,0.0885 1.629308,-0.06615 1.913963,-1.119104 0.284365,-1.051652 0.163902,-1.269342 -0.997995,-1.78705 -1.105556,-0.492583 -1.407658,-0.854749 -1.568277,-1.882751 -0.133548,-0.854749 0.07909,-1.277687 1.078067,-2.132742 0.512269,-0.438428 0.80103,-0.780083 0.802694,-0.957 0.0036,-0.394849 -0.898784,-1.819775 -1.205016,-1.90228 -0.141813,-0.03821 -0.571134,0.06617 -0.956981,0.228508 -1.064368,0.447977 -1.634133,0.460924 -2.333863,0.05469 C 19.866478,10.735891 19.65208,10.274491 19.718034,9.127233 19.793775,7.8096488 19.686426,7.5409182 18.977839,7.2601073 18.741798,7.1663579 18.535614,7.0974554 18.350917,7.0550359 l 0.002,-0.00195 c -0.138568,-0.03182 -0.265498,-0.050108 -0.380886,-0.052736 z"/>
 <path style="fill:#18c28c" d="M 17.972031,6.0006612 C 17.625868,5.9927791 17.372807,6.1170563 17.145902,6.3756489 16.951795,6.5969015 16.734129,6.9938853 16.663505,7.2584322 16.404435,8.2289496 15.193672,8.8530625 14.124576,8.5650296 13.600004,8.4237009 13.352652,8.2018607 12.503567,7.1158588 12.117099,6.6215479 11.785657,6.6321254 10.837638,7.1724975 9.936934,7.6860032 9.8274783,8.0179739 10.234154,9.029858 c 0.16804,0.4182642 0.31114,0.9545848 0.314437,1.191367 0.0083,0.585423 -0.510306,1.511426 -1.0311965,1.845642 -0.4269475,0.27394 -1.321935,0.337178 -2.037003,0.144527 -0.6799756,-0.183198 -1.0273293,0.139581 -1.3143846,1.216756 -0.2235203,0.83876 -0.2235015,0.962463 0.011718,1.230428 0.1437138,0.163837 0.6123514,0.449375 1.0390083,0.632792 0.4266796,0.183424 0.896166,0.469231 1.0448673,0.638651 0.3139463,0.357725 0.5153349,1.391641 0.3749805,1.933529 -0.1015876,0.393468 -0.5884671,1.006181 -0.9823707,1.23824 -0.429324,0.252925 -0.842922,0.811677 -0.8300347,1.121057 0.016514,0.39635 0.580905,1.387878 0.939404,1.650336 0.2053284,0.150355 0.3767407,0.168768 0.6405916,0.07031 0.7733365,-0.288457 2.0192958,-0.491674 2.3944068,-0.390612 0.565525,0.152362 1.371067,0.904546 1.46672,1.373002 0.04501,0.220628 0.04425,0.70577 0,1.078089 -0.107369,0.902978 -0.0199,1.365853 0.291001,1.525341 0.141388,0.07234 0.368518,0.191492 0.503879,0.263663 0.135121,0.07308 0.459115,0.161517 0.720666,0.195305 0.682094,0.08848 1.165857,-0.308703 1.540935,-1.271442 0.342957,-0.880262 0.465532,-1.00561 1.244075,-1.253864 0.790581,-0.252102 1.340131,-0.194704 1.794829,0.187494 0.376997,0.316917 0.523386,0.46909 1.103458,1.132774 0.424991,0.48635 0.762943,0.516099 1.507733,0.126949 1.119879,-0.5852 1.231647,-0.942983 0.6777,-2.105398 -0.527331,-1.106341 -0.238618,-2.216134 0.742148,-2.863188 0.375575,-0.247757 0.663112,-0.289061 1.564372,-0.23046 1.360762,0.0885 1.629308,-0.06615 1.913963,-1.119104 0.284365,-1.051652 0.163902,-1.269342 -0.997995,-1.78705 -1.105556,-0.492583 -1.407658,-0.854749 -1.568277,-1.882751 -0.133548,-0.854749 0.07909,-1.277687 1.078067,-2.132742 0.512269,-0.438428 0.80103,-0.780083 0.802694,-0.957 0.0036,-0.394849 -0.898784,-1.819775 -1.205016,-1.9022802 -0.141813,-0.038212 -0.571134,0.066171 -0.956981,0.2285082 -1.064368,0.447977 -1.634133,0.460924 -2.333863,0.05469 C 19.866478,9.7362018 19.65208,9.2748018 19.718034,8.127544 19.793775,6.8099598 19.686426,6.5412292 18.977839,6.2604183 18.741798,6.1666689 18.535614,6.0977664 18.350917,6.0553469 l 0.002,-0.00195 c -0.138568,-0.03182 -0.265498,-0.050108 -0.380886,-0.052736 z"/>
 <path style="fill:#8b9cbe;opacity:0.1" d="M 16 2 A 14 14 0 0 0 2 16 A 14 14 0 0 0 2.0214844 16.585938 A 14 14 0 0 1 16 3 A 14 14 0 0 1 29.978516 16.414062 A 14 14 0 0 0 30 16 A 14 14 0 0 0 16 2 z"/>
 <circle style="opacity:0.2" cx="16" cy="17" r="4"/>
 <circle style="fill:#8b9cbe" cx="16" cy="16" r="4"/>
 <path style="opacity:0.2;fill:#8b9cbe" d="M 17.972656 6 C 17.626493 5.9921179 17.373389 6.1164074 17.146484 6.375 C 16.952377 6.5962526 16.734686 6.9932656 16.664062 7.2578125 C 16.404992 8.2283299 15.194096 8.852486 14.125 8.5644531 C 13.600428 8.4231244 13.352991 8.2012363 12.503906 7.1152344 C 12.117438 6.6209235 11.78591 6.6315029 10.837891 7.171875 C 10.041649 7.625825 9.8882688 7.9651181 10.138672 8.7304688 C 10.267064 8.5389824 10.493399 8.3682753 10.837891 8.171875 C 11.78591 7.6315029 12.117438 7.6209235 12.503906 8.1152344 C 13.352991 9.2012363 13.600428 9.4231244 14.125 9.5644531 C 15.194096 9.852486 16.404992 9.2283299 16.664062 8.2578125 C 16.734686 7.9932656 16.952377 7.5962526 17.146484 7.375 C 17.373389 7.1164074 17.626493 6.9921179 17.972656 7 C 18.088044 7.0026277 18.214948 7.0209144 18.353516 7.0527344 L 18.351562 7.0546875 C 18.536259 7.097107 18.742475 7.1660162 18.978516 7.2597656 C 19.482378 7.4594448 19.674511 7.6693625 19.720703 8.2382812 C 19.722368 8.1972513 19.716283 8.1698655 19.71875 8.1269531 C 19.794491 6.8093689 19.687103 6.5405765 18.978516 6.2597656 C 18.742475 6.1660162 18.536259 6.097107 18.351562 6.0546875 L 18.353516 6.0527344 C 18.214948 6.0209144 18.088044 6.0026277 17.972656 6 z M 19.724609 8.7753906 C 19.72124 8.8951799 19.726982 8.9837448 19.71875 9.1269531 C 19.652796 10.274211 19.867245 10.735676 20.689453 11.212891 C 21.389183 11.619125 21.95907 11.60618 23.023438 11.158203 C 23.409284 10.995865 23.838656 10.891478 23.980469 10.929688 C 24.191476 10.986537 24.671357 11.675057 24.957031 12.230469 C 25.101519 12.061233 25.182737 11.923152 25.183594 11.832031 C 25.187194 11.437182 24.286701 10.012193 23.980469 9.9296875 C 23.838656 9.8914755 23.409284 9.9958659 23.023438 10.158203 C 21.95907 10.60618 21.389183 10.619125 20.689453 10.212891 C 20.046359 9.8396341 19.780715 9.4650453 19.724609 8.7753906 z M 10.458984 10.722656 C 10.289875 11.242254 9.9049 11.817891 9.5175781 12.066406 C 9.0906306 12.340346 8.1955367 12.403588 7.4804688 12.210938 C 6.8004932 12.027739 6.4530709 12.350559 6.1660156 13.427734 C 5.9639752 14.185891 5.9551011 14.361613 6.1269531 14.585938 C 6.1416465 14.528871 6.1486038 14.493072 6.1660156 14.427734 C 6.4530709 13.350559 6.8004932 13.027739 7.4804688 13.210938 C 8.1955367 13.403588 9.0906306 13.340346 9.5175781 13.066406 C 10.038469 12.73219 10.557128 11.806126 10.548828 11.220703 C 10.547272 11.108911 10.510779 10.924039 10.458984 10.722656 z M 23.347656 15.099609 C 23.276561 15.344851 23.254467 15.600448 23.304688 15.921875 C 23.465307 16.949877 23.765538 17.312105 24.871094 17.804688 C 25.429758 18.053612 25.744684 18.234446 25.892578 18.470703 C 26.126504 17.53958 25.978956 17.298319 24.871094 16.804688 C 23.840244 16.34539 23.518069 15.97763 23.347656 15.099609 z M 8.625 17.888672 C 8.510729 18.282628 8.04045 18.87407 7.6542969 19.101562 C 7.2249729 19.354488 6.8113314 19.913276 6.8242188 20.222656 C 6.8296257 20.352428 6.9055361 20.550819 7.0019531 20.761719 C 7.1596498 20.510855 7.3979889 20.25256 7.6542969 20.101562 C 8.0482005 19.869503 8.5351311 19.256749 8.6367188 18.863281 C 8.7030726 18.607099 8.68719 18.241356 8.625 17.888672 z M 21.453125 22.214844 C 21.328767 22.708035 21.389085 23.256469 21.650391 23.804688 C 21.738878 23.990372 21.778913 24.126563 21.832031 24.275391 C 22.074956 23.929015 21.99121 23.519871 21.650391 22.804688 C 21.556086 22.606836 21.495942 22.41025 21.453125 22.214844 z M 12.267578 23.960938 C 12.266096 23.974633 12.26722 23.990486 12.265625 24.003906 C 12.210211 24.469944 12.209403 24.814082 12.261719 25.064453 C 12.264194 25.042087 12.262898 25.026838 12.265625 25.003906 C 12.308264 24.645141 12.307741 24.19161 12.267578 23.960938 z"/>
</svg>
