<svg xmlns="http://www.w3.org/2000/svg" width="32" height="32" version="1">
 <path style="opacity:0.2" d="M 27,28.65 V 4.35 C 27,3.6021 26.358876,3 25.5625,3 H 5.4375 C 4.641125,3 4,3.6021 4,4.35 v 24.3 C 4,29.3979 4.641125,30 5.4375,30 h 20.125 C 26.358876,30 27,29.3979 27,28.65 Z"/>
 <path style="fill:#ce3f39" d="M 27,27.65 V 3.35 C 27,2.6021 26.358876,2 25.5625,2 H 5.4375 C 4.641125,2 4,2.6021 4,3.35 v 24.3 C 4,28.3979 4.641125,29 5.4375,29 h 20.125 C 26.358876,29 27,28.3979 27,27.65 Z"/>
 <path style="opacity:0.3" d="m 6,16 v 1 h 19 v -1 z"/>
 <path style="opacity:0.3" d="m 6,20 v 1 h 19 v -1 z"/>
 <path style="opacity:0.3" d="m 6,24 v 1 h 19 v -1 z"/>
 <path style="opacity:0.3" d="M 7.5000003,4 C 6.6690001,4 6,4.6690001 6,5.5000002 v 6.0000008 c 0,0.831 0.6690001,1.5 1.5000003,1.5 H 13.5 c 0.831001,0 1.5,-0.669 1.5,-1.5 V 5.5000002 C 15,4.6690001 14.331001,4 13.5,4 Z"/>
 <path style="opacity:0.3" d="m 17,4 v 1 h 8 V 4 Z"/>
 <circle style="opacity:0.2" cx="24.5" cy="24.5" r="7.5"/>
 <circle style="fill:#5b5b5b" cx="24.5" cy="23.5" r="7.5"/>
 <path style="fill:#8b9cbe;fill-rule:evenodd" d="m 24.5,20.000139 c -1.066175,0.01057 -2.139568,0.258608 -3.068243,0.794498 -0.370157,0.245489 -0.814551,0.56256 -1.149431,0.881997 -0.526962,0.525404 -0.97797,1.138406 -1.282326,1.824194 0.835244,1.876064 2.671557,3.251138 4.691637,3.454208 1.325088,0.152718 2.711775,-0.08041 3.876606,-0.748017 0.370144,-0.24549 0.814551,-0.56256 1.149431,-0.881997 C 29.244643,24.79961 29.695644,24.186545 30,23.500828 29.164688,21.624834 27.328512,20.249479 25.308363,20.04655 25.04032,20.0147 24.769851,20 24.5,20 Z m 0,1.400276 c 1.104813,-0.02492 2.083331,0.981466 2.0625,2.100483 0.03539,1.236755 -1.174938,2.304112 -2.371325,2.073113 -1.208349,-0.144459 -2.057069,-1.524736 -1.659694,-2.693942 0.253805,-0.860716 1.083363,-1.490294 1.968519,-1.479654 z m 0,1.400275 a 0.68749995,0.70013766 0 0 0 -0.6875,0.700138 0.68749995,0.70013766 0 0 0 0.6875,0.700137 0.68749995,0.70013766 0 0 0 0.687493,-0.700137 0.68749995,0.70013766 0 0 0 -0.6875,-0.699298 z"/>
 <path style="opacity:0.3" d="m 17,12 v 1 h 8 v -1 z"/>
 <path style="opacity:0.3" d="m 17,8 v 1 h 8 V 8 Z"/>
 <path style="fill:#8b9cbe;opacity:0.2" d="M 5.4375 2 C 4.641125 2 4 2.6017094 4 3.3496094 L 4 4.3496094 C 4 3.6017094 4.641125 3 5.4375 3 L 25.5625 3 C 26.358876 3 27 3.6017094 27 4.3496094 L 27 3.3496094 C 27 2.6017094 26.358876 2 25.5625 2 L 5.4375 2 z"/>
</svg>
