<svg xmlns="http://www.w3.org/2000/svg" width="32" height="32" version="1">
 <rect style="opacity:0.2" width="28" height="25" x="2" y="4" rx="2.1" ry="2.083"/>
 <rect style="fill:#4f4f4f" width="28" height="25" x="2" y="3" rx="2.1" ry="2.083"/>
 <rect style="opacity:0.2" width="8" height="3" x="13" y="15" rx=".667" ry=".75"/>
 <rect style="fill:#33c839" width="8" height="3" x="13" y="14" rx=".667" ry=".75"/>
 <rect style="opacity:0.2" width="8.382" height="2.794" x="-8.61" y="15.1" rx=".698" ry=".698" transform="matrix(0.72400602,-0.68979366,0.72400602,0.68979366,0,0)"/>
 <rect style="fill:#24873b" width="8.382" height="2.794" x="-7.88" y="14.38" rx=".698" ry=".698" transform="matrix(0.72400602,-0.68979366,0.72400602,0.68979366,0,0)"/>
 <rect style="opacity:0.2" width="8.382" height="2.794" x="9.52" y="-3.02" rx=".698" ry=".698" transform="matrix(0.72400602,0.68979366,0.72400602,-0.68979366,0,0)"/>
 <rect style="fill:#33c839" width="8.382" height="2.794" x="8.79" y="-2.29" rx=".698" ry=".698" transform="matrix(0.72400602,0.68979366,0.72400602,-0.68979366,0,0)"/>
 <path style="fill:#8b9cbe;opacity:0.1" d="M 4.0996094 3 C 2.9362094 3 2 3.9298178 2 5.0839844 L 2 6.0839844 C 2 4.9298178 2.9362094 4 4.0996094 4 L 27.900391 4 C 29.063791 4 30 4.9298178 30 6.0839844 L 30 5.0839844 C 30 3.9298178 29.063791 3 27.900391 3 L 4.0996094 3 z"/>
 <path style="fill:#8b9cbe;opacity:0.2" d="M 13.667969 14 C 13.298451 14 13 14.3345 13 14.75 L 13 15.75 C 13 15.3345 13.298451 15 13.667969 15 L 20.332031 15 C 20.701549 15 21 15.3345 21 15.75 L 21 14.75 C 21 14.3345 20.701549 14 20.332031 14 L 13.667969 14 z"/>
 <path style="fill:#8b9cbe;opacity:0.2" d="M 6.7285156 5.9960938 C 6.5458294 5.9960938 6.3626399 6.0638968 6.2226562 6.1972656 L 5.2109375 7.1621094 C 4.9309702 7.4288471 4.9309702 7.8582623 5.2109375 8.125 L 5.2304688 8.1425781 L 6.2226562 7.1972656 C 6.5026236 6.9305279 6.9544077 6.9305279 7.234375 7.1972656 L 12.273438 11.996094 L 12.292969 11.978516 C 12.572936 11.711778 12.572936 11.282363 12.292969 11.015625 L 7.234375 6.1972656 C 7.0943913 6.0638968 6.9112019 5.9960938 6.7285156 5.9960938 z"/>
</svg>
