<svg xmlns="http://www.w3.org/2000/svg" width="32" height="32" version="1">
 <path opacity=".2" d="m2 26.5v1c0 0.831 0.669 1.5 1.5 1.5h25c0.831 0 1.5-0.669 1.5-1.5v-1c0 0.831-0.669 1.5-1.5 1.5h-25c-0.831 0-1.5-0.669-1.5-1.5z"/>
 <path fill="#ff766a" d="m3.5 4c-0.831 0-1.5 0.669-1.5 1.5v16.5h28v-16.5c0-0.831-0.669-1.5-1.5-1.5h-25zm26.094 23.5c-0.25305 0.25267-0.6122 0.40475-1 0.40625l-25.094 0.094h25c0.43994 0 0.8198-0.20022 1.0938-0.5z"/>
 <path fill="#fff" opacity=".2" d="m3.5 4c-0.831 0-1.5 0.669-1.5 1.5v1c0-0.831 0.669-1.5 1.5-1.5h25c0.831 0 1.5 0.669 1.5 1.5v-1c0-0.831-0.669-1.5-1.5-1.5h-25z"/>
 <path fill-rule="evenodd" opacity=".2" d="m22 10c2.2091 0 4 1.7909 4 4s-1.7909 4-4 4-4-1.7909-4-4 1.7909-4 4-4z"/>
 <path fill="#fffee4" fill-rule="evenodd" d="m22 9c2.2091 0 4 1.7909 4 4s-1.7909 4-4 4-4-1.7909-4-4 1.7909-4 4-4z"/>
 <path fill="#d22f7a" d="m2 22v4.5s0 1.506 1.5 1.5l25.1-0.1c0.776-0.003 1.4-0.624 1.4-1.4v-4.5z"/>
 <path style="fill:#17191e" d="m 2,21.999964 v -1.042419 c 0,0 2.0192793,-1.73732 2.5869016,-1.888862 0.5677023,-0.151568 1.2381487,-0.02828 1.9271757,0.141248 0.6890171,0.168871 1.7176675,0.897475 2.0386801,0.911756 0.3210526,0.01459 0.9020155,-0.03648 1.5770616,-0.08965 0.675027,-0.05212 1.792671,-0.100072 2.141285,-0.09486 0.348623,0 1.218947,0.06255 2.146584,0.136336 0.927706,0.07401 2.201886,0.197655 2.490998,0.232251 0.289111,0.0344 0.628934,0.09799 1.01464,0.167321 0.385645,0.0688 1.053341,0.172715 1.28945,0.201291 0.236179,0.02801 0.783751,0.126263 1.419056,0.202437 0.635325,0.0761 1.652065,0.102157 1.945676,0.07401 0.293622,-0.02828 0.909066,-0.211227 1.594963,-0.472352 0.685847,-0.261022 1.442157,-0.500048 2.017379,-0.440943 C 26.763873,20.097468 30,20.957698 30,20.957698 v 1.042418 H 5.3990335 Z"/>
 <rect style="opacity:0.1;fill:#8b9cbe" width="28" height="1" x="2" y="22"/>
</svg>
