<svg xmlns="http://www.w3.org/2000/svg" width="32" height="32" version="1.1">
 <path style="opacity:.2" d="m12.055338 30.865176c-0.04746-0.07662 0.361851-0.736349 0.90958-1.466081 1.402975-1.869161 2.164694-3.039656 1.540847-3.762696-0.256074-0.296793-0.605765-0.636399-2.693187-0.636399-4.5193084 0-6.371317-0.876006-7.773137-2.393282-1.92794-2.08673-2.568832-6.335633-1.578157-9.877452 1.162056-4.154554 5.6060905-7.22811 12.217913-8.45009 4.308759-0.564034 9.460115-0.527943 12.676335 2.575108 2.850897 2.844305 3.482395 8.102093 1.47504 12.281005-1.313417 2.734267-3.704484 5.097691-6.686127 5.890007-1.046003 0.277961-1.177638 0.375281-2.775465 2.051986-1.707013 1.791284-4.000724 2.892179-5.596318 3.574548-0.855225 0.365743-1.568063 0.454301-1.717324 0.213346z"/>
 <path style="fill:#ffc933" d="m12.055338 29.865176c-0.04746-0.07662 0.361851-0.736349 0.90958-1.466081 1.402975-1.869161 2.164694-3.039656 1.540847-3.762696-0.256074-0.296793-0.605765-0.636399-2.693187-0.636399-4.5193084 0-6.371317-0.876006-7.773137-2.393282-1.92794-2.08673-2.568832-6.335633-1.578157-9.877452 1.162056-4.1545541 5.6060905-7.2281101 12.217913-8.4500901 4.308759-0.564034 9.460115-0.527943 12.676335 2.575108 2.850897 2.844305 3.482395 8.1020931 1.47504 12.2810051-1.313417 2.734267-3.704484 5.097691-6.686127 5.890007-1.046003 0.277961-1.177638 0.375281-2.775465 2.051986-1.707013 1.791284-4.000724 2.892179-5.596318 3.574548-0.855225 0.365743-1.568063 0.454301-1.717324 0.213346z"/>
 <path style="opacity:.2;fill:#8b9cbe" d="m18.025391 3.0078125c-1.139113 0.0274486-2.268514 0.1304759-3.345703 0.2714844-6.611823 1.22198-11.0566945 4.2946646-12.2187505 8.4492191-0.3727609 1.332679-0.5122829 2.766439-0.4414063 4.146484 0.0243099-1.062301 0.1578587-2.132757 0.4414063-3.146484 1.162056-4.1545544 5.6069275-7.2272391 12.2187505-8.4492191 4.308759-0.564034 9.459561-0.5288323 12.675781 2.5742187 1.619 1.6152563 2.520195 4.0106224 2.630859 6.5429684 0.1113-2.892937-0.799676-5.7160196-2.630859-7.5429684-2.412165-2.3272882-5.912741-2.9280488-9.330078-2.8457031zm-3.421875 22.7968755c-0.236035 0.663679-0.823224 1.507341-1.638672 2.59375-0.547729 0.729731-0.957616 1.390176-0.910156 1.466796 0.065873 0.106341 0.254701 0.138615 0.503906 0.121094 0.13086-0.192554 0.241834-0.368842 0.40625-0.58789 1.302367-1.735124 2.036868-2.861788 1.638672-3.59375z"/>
</svg>
