<svg xmlns="http://www.w3.org/2000/svg" width="32" height="32" version="1">
 <rect style="opacity:0.2" width="28" height="28" x="2" y="3" rx="1.4" ry="1.4"/>
 <rect style="fill:#7139d2" width="28" height="28" x="2" y="2" rx="1.4" ry="1.4"/>
 <rect style="opacity:0.2" width="16" height="11" x="8" y="8" rx=".667" ry=".688"/>
 <rect style="fill:#8b9cbe" width="16" height="11" x="8" y="7" rx=".667" ry=".688"/>
 <path style="fill:#a766fa" d="m 10,9 h 12 v 1.85625 L 16,13.95 10,10.85625 Z"/>
 <path style="opacity:0.2" d="m 9.0529458,21.918586 c -3.45e-5,7.9e-5 -1.193e-4,1.59e-4 -1.611e-4,2.4e-4 -1.983e-4,-4e-5 -3.601e-4,-1.21e-4 -5.444e-4,-1.61e-4 l 3.183e-4,6.39e-4 C 8.8786368,22.24309 8.2395263,23.287536 7.8323931,23.956985 7.4193327,23.272813 6.9303573,22.483183 6.6118323,21.918677 l -0.00212,7.29e-4 0.00139,-7.29e-4 c -0.2526508,0.05387 -0.358313,0.0573 -0.6104426,0 l 0.00139,0.0015 c -6.614e-4,-5.2e-4 -0.00139,-9.47e-4 -0.00206,-0.0015 0.5003637,0.753993 1.3021967,2.190111 1.5749648,2.661569 l -0.036622,1.9655 0.00206,-9.47e-4 -0.00139,9.47e-4 c 0,0 0.1759535,-0.02955 0.2935618,-0.02955 0.1303579,0 0.2924736,0.02955 0.2924736,0.02955 L 8.1244,26.545109 8.12579,26.545746 8.089168,24.580089 8.087778,24.57962 C 8.5962215,23.68757 9.43474,22.233557 9.6664985,21.919775 l 0.00139,-0.0012 c -1.2e-4,2.4e-5 -2.049e-4,4e-5 -3.243e-4,8e-5 2.79e-5,-3.9e-5 4.18e-5,-1.2e-4 8.43e-5,-1.6e-4 -8.43e-5,8e-5 -2.049e-4,8e-5 -3.25e-4,1.6e-4 -0.219199,0.04965 -0.4169408,0.05138 -0.6132502,2.4e-4 z m 16.6273912,0.04818 c -0.146551,0 -0.291846,0.08594 -0.291846,0.305687 -0.08691,1.102343 -0.177401,2.207767 -0.326174,3.259649 l -6.38e-4,7.29e-4 c 2.4e-4,-4.4e-5 4.65e-4,-3.6e-5 6.38e-4,-8e-5 -1.4e-5,7.6e-5 6e-6,1.61e-4 0,2.37e-4 l 0.0021,-4.69e-4 c 0.08924,-0.01496 0.158604,0.0083 0.226002,0.03551 l -3.25e-4,-4.68e-4 c 0.169002,-1.068437 0.570386,-2.669009 0.673156,-3.122016 0.01476,-0.06367 0.03676,-0.138955 0.03676,-0.192453 0,-0.161641 -0.102417,-0.255565 -0.255798,-0.281209 l -1.56e-4,1.6e-4 c 0,0 -0.03789,-0.0052 -0.06357,-0.0052 z m -3.316816,0.170164 c -1.289653,0 -2.275406,0.732288 -2.275406,2.09383 0,1.12179 0.655798,2.109 2.286279,2.109 1.38032,0 2.281586,-0.758864 2.281586,-2.089215 0,-1.254558 -0.840732,-2.113615 -2.292219,-2.113615 z m -4.470742,0.220606 c -1.295021,0 -1.974421,0.821087 -1.974421,1.885502 0,1.16505 0.741725,1.875648 1.972545,1.875648 1.330647,0 1.980511,-0.800837 1.980511,-1.863449 0,-1.18475 -0.776053,-1.897701 -1.978557,-1.897701 z m 4.472309,0.0072 c 0.968458,0 1.681791,0.588314 1.681791,1.885893 0,1.41055 -0.862932,1.867985 -1.680304,1.867985 -0.873288,0 -1.668807,-0.512482 -1.668807,-1.895825 0,-1.433811 0.881798,-1.858053 1.66732,-1.858053 z m -12.013691,0.04067 c -0.4916074,1.233759 -1.0580202,2.625982 -1.5673801,3.664259 v 8e-5 l -8.42e-5,4.01e-4 0.00206,-8.62e-4 c -5.291e-4,1.21e-4 -6.378e-4,2e-4 -0.00139,3.2e-4 l 0.00358,-0.0012 -0.00206,9.28e-4 c 0.23295,-0.05783 0.4552895,-0.04001 0.6022994,-2.42e-4 -7.294e-4,-3.2e-4 -0.00139,-7.29e-4 -0.00206,-10e-4 l 0.00206,7.29e-4 c 0.1299555,-0.328449 0.2773892,-0.699894 0.425415,-1.074146 l 6.379e-4,6.39e-4 c 0.500258,-0.01427 1.000494,-0.01619 1.50075,0 0.142333,0.357993 0.284898,0.716367 0.424082,1.074872 3.25e-4,-1.6e-4 5.66e-4,-3.19e-4 6.39e-4,-4.68e-4 l -1.57e-4,4e-4 c 0.223053,-0.05825 0.445053,-0.04243 0.609026,-10e-4 l -6.38e-4,-2.38e-4 6.38e-4,2.38e-4 c -0.366921,-0.68531 -1.103593,-2.478499 -1.571704,-3.66321 l -0.0036,0.0015 0.0028,-0.0017 c -0.152056,0.0531 -0.276006,0.05004 -0.425331,8e-5 z m 2.21754,0.0015 v 7.9e-5 c 0.05313,1.222963 0.04855,2.443683 0,3.662618 0.198221,-0.04775 0.401185,-0.04981 0.609574,8.2e-5 l -0.0014,-8.62e-4 0.0021,8.62e-4 c -0.03007,-0.56833 -0.04522,-1.136114 -0.04714,-1.70345 0.682179,-0.0095 1.364453,-0.0099 2.046674,-7.29e-4 -0.0021,0.567597 -0.01715,1.135641 -0.0472,1.704232 l 0.0021,-7.3e-4 -0.0014,7.3e-4 c 0.208338,-0.04987 0.411323,-0.0478 0.609497,-8.1e-5 7.6e-5,2e-5 1.62e-4,4e-5 2.39e-4,8.1e-5 l -7.7e-5,-8.1e-5 c -0.04855,-1.218936 -0.05314,-2.439656 0,-3.662618 l 7.7e-5,-7.9e-5 c -2.1e-5,4e-6 -3.5e-5,-6e-6 -7.7e-5,0 h -8.5e-5 c -0.207084,0.04956 -0.410393,0.04822 -0.610273,0 l 3.17e-4,3.99e-4 -4.66e-4,-3.2e-4 c 0.02956,0.56929 0.04501,1.139092 0.04714,1.709316 -0.68283,0.01589 -1.365137,0.01717 -2.046597,0 0.0021,-0.570224 0.01757,-1.140026 0.04714,-1.709316 l -4.74e-4,3.2e-4 3.25e-4,-3.99e-4 c -0.199887,0.04822 -0.403273,0.04956 -0.610358,0 z m 5.29217,0.172591 h 7.7e-5 c 0.01128,-2.42e-4 0.02265,0 0.03394,0 0.791935,0 1.373525,0.539405 1.373525,1.666537 0,1.125715 -0.580871,1.665055 -1.372036,1.665055 -0.863235,0 -1.370471,-0.618631 -1.370471,-1.662004 0,-1.180025 0.624977,-1.655056 1.334966,-1.669588 z m -7.297398,0.459193 c 0.202209,0.563545 0.424654,1.131435 0.650555,1.700949 l -2.39e-4,-7.9e-5 c -0.432924,0.01499 -0.865761,0.01522 -1.2986837,0 l -6.379e-4,3.91e-4 C 10.179279,24.06888 10.431203,23.420577 10.563925,23.03869 Z m 14.479606,2.936367 c -0.192046,0 -0.28786,0.146518 -0.28786,0.304047 0,0.18572 0.148393,0.280896 0.331804,0.280896 0.132659,0 0.277383,-0.08066 0.277383,-0.299432 0,-0.175585 -0.13752,-0.285511 -0.321327,-0.285511 z"/>
 <path style="fill:#8b9cbe" d="m 9.0529458,20.918586 c -3.45e-5,7.9e-5 -1.193e-4,1.59e-4 -1.611e-4,2.4e-4 -1.983e-4,-4e-5 -3.601e-4,-1.21e-4 -5.444e-4,-1.61e-4 l 3.183e-4,6.39e-4 C 8.8786368,21.24309 8.2395263,22.287536 7.8323931,22.956985 7.4193327,22.272813 6.9303573,21.483183 6.6118323,20.918677 l -0.00212,7.29e-4 0.00139,-7.29e-4 c -0.2526508,0.05387 -0.358313,0.0573 -0.6104426,0 l 0.00139,0.0015 c -6.614e-4,-5.2e-4 -0.00139,-9.47e-4 -0.00206,-0.0015 0.5003637,0.753993 1.3021967,2.190111 1.5749648,2.661569 l -0.036622,1.9655 0.00206,-9.47e-4 -0.00139,9.47e-4 c 0,0 0.1759535,-0.02955 0.2935618,-0.02955 0.1303579,0 0.2924736,0.02955 0.2924736,0.02955 L 8.1244,25.545109 8.12579,25.545746 8.089168,23.580089 8.087778,23.57962 C 8.5962215,22.68757 9.43474,21.233557 9.6664985,20.919775 l 0.00139,-0.0012 c -1.2e-4,2.4e-5 -2.049e-4,4e-5 -3.243e-4,8e-5 2.79e-5,-3.9e-5 4.18e-5,-1.2e-4 8.43e-5,-1.6e-4 -8.43e-5,8e-5 -2.049e-4,8e-5 -3.25e-4,1.6e-4 -0.219199,0.04965 -0.4169408,0.05138 -0.6132502,2.4e-4 z m 16.6273912,0.04818 c -0.146551,0 -0.291846,0.08594 -0.291846,0.305687 -0.08691,1.102343 -0.177401,2.207767 -0.326174,3.259649 l -6.38e-4,7.29e-4 c 2.4e-4,-4.4e-5 4.65e-4,-3.6e-5 6.38e-4,-8e-5 -1.4e-5,7.6e-5 6e-6,1.61e-4 0,2.37e-4 l 0.0021,-4.69e-4 c 0.08924,-0.01496 0.158604,0.0083 0.226002,0.03551 l -3.25e-4,-4.68e-4 c 0.169002,-1.068437 0.570386,-2.669009 0.673156,-3.122016 0.01476,-0.06367 0.03676,-0.138955 0.03676,-0.192453 0,-0.161641 -0.102417,-0.255565 -0.255798,-0.281209 l -1.56e-4,1.6e-4 c 0,0 -0.03789,-0.0052 -0.06357,-0.0052 z m -3.316816,0.170164 c -1.289653,0 -2.275406,0.732288 -2.275406,2.09383 0,1.12179 0.655798,2.109 2.286279,2.109 1.38032,0 2.281586,-0.758864 2.281586,-2.089215 0,-1.254558 -0.840732,-2.113615 -2.292219,-2.113615 z m -4.470742,0.220606 c -1.295021,0 -1.974421,0.821087 -1.974421,1.885502 0,1.16505 0.741725,1.875648 1.972545,1.875648 1.330647,0 1.980511,-0.800837 1.980511,-1.863449 0,-1.18475 -0.776053,-1.897701 -1.978557,-1.897701 z m 4.472309,0.0072 c 0.968458,0 1.681791,0.588314 1.681791,1.885893 0,1.41055 -0.862932,1.867985 -1.680304,1.867985 -0.873288,0 -1.668807,-0.512482 -1.668807,-1.895825 0,-1.433811 0.881798,-1.858053 1.66732,-1.858053 z m -12.013691,0.04067 c -0.4916074,1.233759 -1.0580202,2.625982 -1.5673801,3.664259 v 8e-5 l -8.42e-5,4.01e-4 0.00206,-8.62e-4 c -5.291e-4,1.21e-4 -6.378e-4,2e-4 -0.00139,3.2e-4 l 0.00358,-0.0012 -0.00206,9.28e-4 c 0.23295,-0.05783 0.4552895,-0.04001 0.6022994,-2.42e-4 -7.294e-4,-3.2e-4 -0.00139,-7.29e-4 -0.00206,-10e-4 l 0.00206,7.29e-4 c 0.1299555,-0.328449 0.2773892,-0.699894 0.425415,-1.074146 l 6.379e-4,6.39e-4 c 0.500258,-0.01427 1.000494,-0.01619 1.50075,0 0.142333,0.357993 0.284898,0.716367 0.424082,1.074872 3.25e-4,-1.6e-4 5.66e-4,-3.19e-4 6.39e-4,-4.68e-4 l -1.57e-4,4e-4 c 0.223053,-0.05825 0.445053,-0.04243 0.609026,-10e-4 l -6.38e-4,-2.38e-4 6.38e-4,2.38e-4 c -0.366921,-0.68531 -1.103593,-2.478499 -1.571704,-3.66321 l -0.0036,0.0015 0.0028,-0.0017 c -0.152056,0.0531 -0.276006,0.05004 -0.425331,8e-5 z m 2.21754,0.0015 v 7.9e-5 c 0.05313,1.222963 0.04855,2.443683 0,3.662618 0.198221,-0.04775 0.401185,-0.04981 0.609574,8.2e-5 l -0.0014,-8.62e-4 0.0021,8.62e-4 c -0.03007,-0.56833 -0.04522,-1.136114 -0.04714,-1.70345 0.682179,-0.0095 1.364453,-0.0099 2.046674,-7.29e-4 -0.0021,0.567597 -0.01715,1.135641 -0.0472,1.704232 l 0.0021,-7.3e-4 -0.0014,7.3e-4 c 0.208338,-0.04987 0.411323,-0.0478 0.609497,-8.1e-5 7.6e-5,2e-5 1.62e-4,4e-5 2.39e-4,8.1e-5 l -7.7e-5,-8.1e-5 c -0.04855,-1.218936 -0.05314,-2.439656 0,-3.662618 l 7.7e-5,-7.9e-5 c -2.1e-5,4e-6 -3.5e-5,-6e-6 -7.7e-5,0 h -8.5e-5 c -0.207084,0.04956 -0.410393,0.04822 -0.610273,0 l 3.17e-4,3.99e-4 -4.66e-4,-3.2e-4 c 0.02956,0.56929 0.04501,1.139092 0.04714,1.709316 -0.68283,0.01589 -1.365137,0.01717 -2.046597,0 0.0021,-0.570224 0.01757,-1.140026 0.04714,-1.709316 l -4.74e-4,3.2e-4 3.25e-4,-3.99e-4 c -0.199887,0.04822 -0.403273,0.04956 -0.610358,0 z m 5.29217,0.172591 h 7.7e-5 c 0.01128,-2.42e-4 0.02265,0 0.03394,0 0.791935,0 1.373525,0.539405 1.373525,1.666537 0,1.125715 -0.580871,1.665055 -1.372036,1.665055 -0.863235,0 -1.370471,-0.618631 -1.370471,-1.662004 0,-1.180025 0.624977,-1.655056 1.334966,-1.669588 z m -7.297398,0.459193 c 0.202209,0.563545 0.424654,1.131435 0.650555,1.700949 l -2.39e-4,-7.9e-5 c -0.432924,0.01499 -0.865761,0.01522 -1.2986837,0 l -6.379e-4,3.91e-4 C 10.179279,23.06888 10.431203,22.420577 10.563925,22.03869 Z m 14.479606,2.936367 c -0.192046,0 -0.28786,0.146518 -0.28786,0.304047 0,0.18572 0.148393,0.280896 0.331804,0.280896 0.132659,0 0.277383,-0.08066 0.277383,-0.299432 0,-0.175585 -0.13752,-0.285511 -0.321327,-0.285511 z"/>
 <path style="fill:#8b9cbe;opacity:0.1" d="M 3.4003906 2 C 2.6247906 2 2 2.6247906 2 3.4003906 L 2 4.4003906 C 2 3.6247906 2.6247906 3 3.4003906 3 L 28.599609 3 C 29.375209 3 30 3.6247906 30 4.4003906 L 30 3.4003906 C 30 2.6247906 29.375209 2 28.599609 2 L 3.4003906 2 z"/>
</svg>
