<svg xmlns="http://www.w3.org/2000/svg" width="32" height="32" version="1">
 <path style="fill:#6eaa36" d="M 15.99993,2.0001405 C 8.2684687,2.0001405 2,8.2679092 2,16.000071 2,23.732232 8.2684687,30 15.99993,30 c 7.730761,0 13.99993,-6.267768 13.99993,-13.999929 0,-7.7321618 -6.269169,-13.9999305 -13.99993,-13.9999305 z"/>
 <path style="opacity:0.2" d="m 16.087279,6.2015514 c -4.295038,0 -6.7496462,1.7585312 -8.3510982,3.7400813 1.2273459,0.3366423 2.0850096,0.6169493 2.3613682,0.7084103 0.0033,-0.185583 0.03301,-1.8573706 0.03301,-1.8573706 l 0.02412,-0.05332 0.06221,-0.019045 c 0.377649,0.054601 8.430338,1.2454338 11.821961,3.2220836 0.4199,0.247001 0.626133,0.504768 0.88614,0.770612 0.937309,0.96916 2.182449,5.003435 2.314328,5.837411 l -0.05333,0.08634 c -0.04837,0.01789 -0.166782,0.100295 -0.321201,0.205673 -0.791248,0.553347 -2.641507,1.848411 -5.013375,1.637712 -2.133169,-0.190189 -4.916215,-1.413713 -8.273678,-3.624582 0.147811,0.348598 0.845679,2.00563 0.962313,2.283948 l 0.04824,0.05713 c 0.486203,0.251159 5.150714,2.629327 7.464902,2.581027 1.867591,-0.03711 3.861321,-0.948495 4.659177,-1.427013 l 0.253903,-0.04824 c 0.07091,0.05566 0.05993,0.163996 0.03809,0.264067 -0.04904,0.228633 -0.158647,0.648141 -0.234862,0.842978 l -0.0622,0.162497 c -0.09079,0.241233 -0.179465,0.474024 -0.34913,0.613197 -0.470538,0.42809 -1.223776,0.76665 -2.399448,1.28224 -1.818311,0.794566 -4.764736,1.294363 -7.502983,1.278431 C 13.476581,24.722019 12.527246,24.61422 11.69425,24.51902 9.9560187,24.321621 8.5438458,24.162022 7.70021,24.817219 9.7518997,27.135607 12.749285,28.6 16.088968,28.6 c 6.185449,0 11.204984,-5.014075 11.204984,-11.199944 0,-6.185029 -5.019255,-11.199944 -11.204984,-11.199944 l -0.0013,0 z m 2.960565,5.9275696 c -0.857299,0.01287 -1.664031,0.333367 -2.294028,0.924234 -0.674629,0.624915 -1.063127,1.479652 -1.095621,2.399448 -0.06161,1.89601 1.430793,3.496482 3.327504,3.567462 0.923855,0.02983 1.797871,-0.299067 2.470567,-0.929301 0.670695,-0.626931 1.058003,-1.475873 1.091813,-2.394408 0.06493,-1.898671 -1.427433,-3.499143 -3.327504,-3.567463 -0.05754,-0.0019 -0.115513,-8.45e-4 -0.172661,0 z m -0.0914,1.015639 c 0.07906,-0.0048 0.154671,-0.003 0.234863,0 1.324785,0.04641 2.366408,1.157052 2.322028,2.484568 -0.01989,0.638887 -0.291927,1.237678 -0.760462,1.677051 -0.469824,0.43607 -1.080543,0.661007 -1.724092,0.641127 -1.324127,-0.04907 -2.361928,-1.16415 -2.318248,-2.489607 0.02054,-0.641491 0.295832,-1.234598 0.761722,-1.672012 0.408798,-0.383304 0.930743,-0.607471 1.484133,-0.641127 z m 0.631397,1.202174 c -0.590462,0 -1.067691,0.319829 -1.067691,0.713493 0,0.391004 0.477201,0.713492 1.067691,0.713492 0.588529,0 1.062608,-0.321816 1.062608,-0.713492 0,-0.39365 -0.474107,-0.713493 -1.062608,-0.713493 z"/>
 <path style="fill:#8b9cbe" d="m 16.087069,5.2011292 c -4.295038,0 -6.7496462,1.7585312 -8.3510982,3.7400813 1.2273459,0.3366423 2.0850096,0.6169489 2.3613682,0.7084105 0.0033,-0.1855831 0.03301,-1.8573708 0.03301,-1.8573708 l 0.02412,-0.05332 0.06221,-0.019045 c 0.377649,0.054601 8.430338,1.2454338 11.821961,3.2220848 0.4199,0.247001 0.626133,0.504767 0.88614,0.770612 0.937309,0.969159 2.182449,5.003435 2.314328,5.837411 l -0.05333,0.08634 c -0.04837,0.01789 -0.166782,0.100296 -0.321201,0.205673 -0.791248,0.553348 -2.641507,1.848411 -5.013375,1.637712 -2.133169,-0.190189 -4.916215,-1.413713 -8.273678,-3.624582 0.147811,0.348598 0.845679,2.00563 0.962313,2.283949 l 0.04824,0.05713 c 0.486203,0.251158 5.150714,2.629326 7.464902,2.581027 1.867591,-0.03711 3.861321,-0.948496 4.659177,-1.427013 l 0.253903,-0.04824 c 0.07091,0.05566 0.05993,0.163995 0.03809,0.264067 -0.04904,0.228633 -0.158647,0.64814 -0.234862,0.842977 l -0.0622,0.162498 c -0.09079,0.241232 -0.179465,0.474023 -0.34913,0.613197 -0.470538,0.428089 -1.223776,0.76665 -2.399448,1.282239 -1.818311,0.794566 -4.764736,1.294364 -7.502983,1.278432 -0.979155,-0.0238 -1.92849,-0.1316 -2.761486,-0.226799 C 9.9558087,23.321201 8.5436358,23.161602 7.7,23.816798 9.7516897,26.135607 12.749075,27.6 16.089178,27.6 c 6.185449,0 11.204984,-5.014075 11.204984,-11.199944 0,-6.18503 -5.019255,-11.1999452 -11.204984,-11.1999452 l -0.0013,0 z M 19.047634,11.1287 c -0.857299,0.01287 -1.664031,0.333366 -2.294028,0.924233 -0.674629,0.624915 -1.063127,1.479653 -1.095621,2.399448 -0.06161,1.896011 1.430793,3.496483 3.327504,3.567462 0.923855,0.02983 1.797871,-0.299066 2.470567,-0.929301 0.670695,-0.626931 1.058003,-1.475873 1.091813,-2.394408 0.06493,-1.89867 -1.427433,-3.499142 -3.327504,-3.567462 -0.05754,-0.0019 -0.115513,-8.45e-4 -0.172661,0 z m -0.0914,1.015639 c 0.07906,-0.0048 0.154671,-0.003 0.234863,0 1.324785,0.04641 2.366408,1.157052 2.322028,2.484567 -0.01989,0.638887 -0.291927,1.237678 -0.760462,1.677052 -0.469824,0.43607 -1.080543,0.661007 -1.724092,0.641127 -1.324127,-0.04907 -2.361928,-1.16415 -2.318248,-2.489608 0.02054,-0.641491 0.295832,-1.234598 0.761722,-1.672011 0.408798,-0.383305 0.930743,-0.607471 1.484133,-0.641127 z m 0.631397,1.202174 c -0.590462,0 -1.067691,0.319828 -1.067691,0.713492 0,0.391004 0.477201,0.713493 1.067691,0.713493 0.588529,0 1.062608,-0.321817 1.062608,-0.713493 0,-0.39365 -0.474107,-0.713492 -1.062608,-0.713492 z"/>
 <path style="opacity:0.2" d="M 2.0215,16.414 A 14,14 0 0 0 2,17 14,14 0 0 0 16,31 14,14 0 0 0 30,17 14,14 0 0 0 29.979,16.586 14,14 0 0 1 16,30 14,14 0 0 1 2.022,16.414 Z"/>
 <path style="opacity:0.2;fill:#8b9cbe" d="M 16.00025,2 A 14.00025,14 0 0 0 2,16 14.00025,14 0 0 0 2.021501,16.414 14.00025,14 0 0 1 15.99975,3 14.00025,14 0 0 1 29.978999,16.586 14.00025,14 0 0 0 29.999999,16 14.00025,14 0 0 0 15.999749,2 Z"/>
</svg>
