<svg xmlns="http://www.w3.org/2000/svg" width="32" height="32" version="1">
 <path style="opacity:0.2" d="m 16.094651,2.0000033 c -0.256453,-2.076e-4 -0.519941,0.011039 -0.798022,0.031755 -1.906173,0.1419789 -2.843263,0.5402016 -7.0829186,3.0100158 -3.5363923,2.0601276 -4.819949,3.2541425 -5.6196675,5.2274169 -0.4488919,1.107623 -0.5013218,1.63758 -0.5701974,5.765577 -0.062574,3.750437 -0.013164,4.761061 0.2829766,5.776022 0.4498064,1.541635 1.4040625,3.033758 2.6015269,4.06795 1.195848,1.032796 7.470649,4.539422 8.773994,4.903185 1.415651,0.395107 4.255999,0.231897 5.515303,-0.316712 1.866404,-0.81309 7.354707,-4.135482 8.189798,-4.957919 C 29.47947,23.446965 30,21.669387 30,16.588805 30,12.411688 29.80068,11.160586 28.852817,9.3896683 27.923743,7.6538558 26.668645,6.6386224 22.810593,4.501526 19.327088,2.5719054 17.889838,2.0014516 16.094651,2.0000033 Z"/>
 <path style="fill:#3b3a76" d="M 16.094651,1.0000031 C 15.838198,0.99979557 15.57471,1.0110419 15.296629,1.0317581 13.390456,1.173737 12.453366,1.5719597 8.2137104,4.0417739 4.6773181,6.1019015 3.3937614,7.2959164 2.5940429,9.269191 c -0.4488919,1.107623 -0.5013218,1.63758 -0.5701974,5.765577 -0.062574,3.750437 -0.013164,4.761061 0.2829766,5.776022 0.4498064,1.541635 1.4040625,3.033758 2.6015269,4.06795 1.195848,1.032796 7.470649,4.539422 8.773994,4.903185 1.415651,0.395107 4.255999,0.231897 5.515303,-0.316712 1.866404,-0.81309 7.354707,-4.135482 8.189798,-4.957919 C 29.47947,22.446965 30,20.669387 30,15.588805 30,11.411688 29.80068,10.160586 28.852817,8.3896681 27.923743,6.6538556 26.668645,5.6386222 22.810593,3.5015258 19.327088,1.5719052 17.889838,1.0014514 16.094651,1.0000031 Z"/>
 <path style="opacity:0.2" d="m 16.033203,7.0045488 c -0.273794,0.016373 -0.558048,0.09705 -0.837891,0.2578126 -0.248224,0.1425989 -0.780603,0.74536 -1.18164,1.3398437 -1.073254,1.5909489 -2.105927,2.1655599 -4.2226564,2.3437499 -1.3848622,0.116578 -1.8422422,0.242619 -2.2695312,0.626954 -0.7119161,0.640346 -0.6948936,1.577657 0.052734,2.955078 0.4624969,0.852105 0.5878906,1.369933 0.5878906,2.43164 0,1.061711 -0.1253937,1.577583 -0.5878906,2.429688 -0.123606,0.227731 -0.2195427,0.436657 -0.3027344,0.636719 -0.096172,0.140249 -0.1722299,0.292782 -0.21875,0.455078 -0.05188,0.180981 -0.061389,0.372585 -0.041016,0.564453 -0.018785,0.479849 0.1489471,0.869298 0.5078124,1.21289 0.7149485,0.566508 1.3849294,0.446255 2.1523438,0.53711 1.954774,0.116837 2.932521,0.682048 4.1875,2.421875 1.721132,2.386077 2.715461,2.378398 4.353516,-0.0332 1.080729,-1.591091 2.070072,-2.472916 4,-2.605469 1.80632,-0.124063 2.483465,-0.47997 2.722656,-1.425781 0.226549,-0.895796 -0.150484,-1.559654 -1.083985,-1.900391 -0.922547,-0.336733 -1.716678,0.110605 -2.585937,1.457031 -0.822267,1.273641 -1.712133,2.303375 -2.763672,2.572266 -1.051629,0.268913 -4.408807,0.219924 -5.181641,-0.07617 C 12.24345,22.793138 11.205368,21.912823 10.621094,20.918612 10.229774,20.417555 9.9732111,19.840906 9.7304688,19.330721 8.6215825,17.271046 8.7529116,16.078808 10.369141,13.52994 c 1.487396,-2.345689 2.878069,-3.208985 5.171875,-3.208985 0.906019,0 1.948518,-0.4572124 2.142578,-0.9414062 0.516491,-1.288682 -0.463952,-2.4459593 -1.650391,-2.375 z m 6.431641,3.9960942 A 1.5,1.5 0 0 0 21.75,11.201815 1.5,1.5 0 0 0 21.201172,13.250643 1.5,1.5 0 0 0 23.25,13.799471 a 1.5,1.5 0 0 0 0.548828,-2.048828 1.5,1.5 0 0 0 -1.333984,-0.75 z"/>
 <path style="fill:#b1e71e" d="m 16.033417,6.0030957 c -0.273794,0.016373 -0.558799,0.097807 -0.838642,0.25857 -0.248224,0.142599 -0.780109,0.7458875 -1.181146,1.3403712 C 12.940375,9.1929854 11.90755,9.7663515 9.7908211,9.9445413 8.4059589,10.061119 7.9488432,10.187763 7.5215542,10.572098 c -0.7119161,0.640346 -0.6954739,1.578663 0.052154,2.956084 0.462497,0.852105 0.5877539,1.368851 0.5877539,2.430558 0,1.061711 -0.1252569,1.578453 -0.5877539,2.430558 -0.1236059,0.227731 -0.2184378,0.43588 -0.3016295,0.635942 -0.096172,0.140249 -0.1719493,0.293348 -0.2184694,0.455644 -0.05188,0.180981 -0.062655,0.371395 -0.042282,0.563263 -0.018785,0.479849 0.1485483,0.869589 0.5074137,1.213182 0.7149485,0.566508 1.3862744,0.44725 2.1536888,0.538105 1.9547742,0.116837 2.9311832,0.682346 4.1861622,2.422173 1.721132,2.386077 2.715835,2.378061 4.35389,-0.03354 1.080729,-1.591091 2.070504,-2.474166 4.000432,-2.606719 1.80632,-0.124063 2.483928,-0.479819 2.723119,-1.42563 0.226549,-0.895796 -0.1518,-1.558704 -1.085301,-1.899441 -0.922547,-0.336733 -1.715731,0.109952 -2.58499,1.456378 -0.822267,1.273641 -1.711368,2.304285 -2.762907,2.573176 -1.051629,0.268913 -4.409832,0.219226 -5.182665,-0.07687 -1.076863,-0.412583 -2.114885,-1.292386 -2.699159,-2.286597 -0.39132,-0.501057 -0.6480499,-1.078977 -0.8907923,-1.589162 -1.1088862,-2.059675 -0.9777327,-3.25009 0.6384963,-5.798958 1.487396,-2.345689 2.878993,-3.2090628 5.172799,-3.2090628 0.906019,0 1.948353,-0.4578395 2.142413,-0.9420333 C 18.200418,7.0904659 17.219862,5.93214 16.033423,6.0030994 Z"/>
 <circle style="fill:#b1e71e" cx="21.209" cy="-13.736" r="1.5" transform="rotate(60)"/>
 <path style="fill:#8b9cbe;opacity:0.2" d="M 16.033203 6.0039062 C 15.759409 6.0202792 15.475156 6.1009558 15.195312 6.2617188 C 14.947089 6.4043177 14.414709 7.0070788 14.013672 7.6015625 C 12.940418 9.192511 11.907745 9.7671227 9.7910156 9.9453125 C 8.4061534 10.06189 7.9487734 10.187931 7.5214844 10.572266 C 7.0503885 10.996001 6.9044945 11.554009 7.0722656 12.279297 C 7.1514245 12.012239 7.2959249 11.775149 7.5214844 11.572266 C 7.9487734 11.187931 8.4061534 11.061891 9.7910156 10.945312 C 10.873824 10.85416 11.669937 10.656999 12.335938 10.275391 C 12.483312 10.166532 12.63316 10.06315 12.787109 9.9746094 C 13.227318 9.633473 13.618572 9.187243 14.013672 8.6015625 C 14.414709 8.0070788 14.947088 7.4043177 15.195312 7.2617188 C 15.475156 7.1009561 15.759409 7.0202792 16.033203 7.0039062 C 16.823171 6.9566594 17.510072 7.4597177 17.736328 8.1777344 C 18.078882 6.9733186 17.156864 5.9367016 16.033203 6.0039062 z M 22.464844 10 A 1.5 1.5 0 0 0 21.75 10.201172 A 1.5 1.5 0 0 0 21.085938 12.001953 A 1.5 1.5 0 0 1 21.75 11.201172 A 1.5 1.5 0 0 1 22.464844 11 A 1.5 1.5 0 0 1 23.798828 11.75 A 1.5 1.5 0 0 1 23.914062 12 A 1.5 1.5 0 0 0 23.798828 10.75 A 1.5 1.5 0 0 0 22.464844 10 z M 8.1425781 16.458984 C 8.1006308 17.1968 7.954947 17.687218 7.5742188 18.388672 C 7.4506128 18.616403 7.3546761 18.825329 7.2714844 19.025391 C 7.1753124 19.16564 7.0992545 19.318173 7.0527344 19.480469 C 7.0008544 19.66145 6.9913457 19.853054 7.0117188 20.044922 C 7.0057704 20.196867 7.0250386 20.337425 7.0566406 20.472656 C 7.1033575 20.3135 7.1769758 20.163214 7.2714844 20.025391 C 7.3546761 19.825329 7.4506128 19.616403 7.5742188 19.388672 C 8.0367156 18.536567 8.1621094 18.020695 8.1621094 16.958984 C 8.1621094 16.771276 8.1515871 16.617545 8.1425781 16.458984 z M 9.0566406 16.470703 C 8.917115 17.398883 9.1465997 18.245584 9.7304688 19.330078 C 9.9732111 19.840263 10.229774 20.416912 10.621094 20.917969 C 10.912347 21.41357 11.315873 21.882175 11.78125 22.277344 C 12.107749 22.435839 12.413104 22.642108 12.707031 22.902344 C 12.909421 23.014589 13.112017 23.125272 13.320312 23.205078 C 14.093147 23.501172 17.450324 23.550163 18.501953 23.28125 C 18.71606 23.2265 18.921551 23.133004 19.123047 23.019531 C 19.432374 22.687888 19.762695 22.416243 20.125 22.197266 C 20.523115 21.774182 20.902071 21.272108 21.265625 20.708984 C 22.134884 19.362558 22.929015 18.91522 23.851562 19.251953 C 24.414326 19.457367 24.770003 19.782824 24.917969 20.203125 C 24.92294 20.185231 24.93091 20.170679 24.935547 20.152344 C 25.162096 19.256548 24.785064 18.59269 23.851562 18.251953 C 22.929015 17.91522 22.134884 18.362558 21.265625 19.708984 C 20.443358 20.982625 19.553492 22.012359 18.501953 22.28125 C 17.450324 22.550163 14.093147 22.501174 13.320312 22.205078 C 12.24345 21.792495 11.205368 20.91218 10.621094 19.917969 C 10.229774 19.416912 9.9732111 18.840263 9.7304688 18.330078 C 9.3590487 17.640193 9.1405847 17.049528 9.0566406 16.470703 z"/>
 <path style="fill:#8b9cbe;opacity:0.1" d="M 16.09375 1 C 15.837297 0.99979247 15.574956 1.0105338 15.296875 1.03125 C 13.390702 1.1732289 12.452546 1.5712014 8.2128906 4.0410156 C 4.6764983 6.1011432 3.3934685 7.2962567 2.59375 9.2695312 C 2.1448581 10.377154 2.0923131 10.907159 2.0234375 15.035156 C 2.0044711 16.171925 2.0004972 17.001175 2.0058594 17.710938 C 2.0091142 17.199649 2.012243 16.706109 2.0234375 16.035156 C 2.0923131 11.907159 2.1448581 11.377154 2.59375 10.269531 C 3.3934685 8.2962568 4.6764983 7.1011432 8.2128906 5.0410156 C 12.452546 2.5712014 13.390702 2.1732289 15.296875 2.03125 C 15.574956 2.010534 15.837297 1.9997924 16.09375 2 C 17.888937 2.0014483 19.327042 2.5723325 22.810547 4.5019531 C 26.668599 6.6390495 27.924442 7.6548125 28.853516 9.390625 C 29.759428 11.083165 29.974297 12.369937 29.992188 16.121094 C 29.993741 15.937759 30 15.780527 30 15.587891 C 30 11.410774 29.801379 10.161543 28.853516 8.390625 C 27.924442 6.6548125 26.668599 5.6390495 22.810547 3.5019531 C 19.327042 1.5723325 17.888937 1.0014483 16.09375 1 z"/>
</svg>
