<svg xmlns="http://www.w3.org/2000/svg" width="32" height="32" version="1.1">
 <path style="opacity:.2" d="m16 3a14 14 0 0 0 -14 14 14 14 0 0 0 14 14 14 14 0 0 0 14 -14 14 14 0 0 0 -14 -14z"/>
 <path style="fill:#9aca3c" d="m16 2a14 14 0 0 0 -14 14 14 14 0 0 0 14 14 14 14 0 0 0 14 -14 14 14 0 0 0 -14 -14z"/>
 <path style="opacity:.2;stroke-linejoin:round;stroke:#000000;stroke-linecap:round;stroke-width:3;fill:none" d="m11.5 10.500035 5.2 6.50002"/>
 <path style="opacity:.2;stroke-linejoin:round;stroke:#000000;stroke-linecap:round;stroke-width:3;fill:none" d="m12.5 23.500035 10-13"/>
 <path style="stroke-linejoin:round;stroke:#8b9cbe;stroke-linecap:round;fill:none;stroke-width:3" d="m12.5 22.5 10-13"/>
 <path style="stroke-linejoin:round;stroke:#8b9cbe;stroke-linecap:round;fill:none;stroke-width:3" d="m11.5 9.5 5.2 6.50002"/>
 <path style="opacity:.2;fill:#8b9cbe" d="m16 2a14 14 0 0 0 -14 14 14 14 0 0 0 0.0214844 0.414062 14 14 0 0 1 13.978516 -13.414062 14 14 0 0 1 13.978516 13.585938 14 14 0 0 0 0.021484 -0.585938 14 14 0 0 0 -14 -14z"/>
 <circle style="opacity:.2" cx="24" cy="24" r="8"/>
 <circle style="fill:#d939a1" cx="24" cy="23" r="8"/>
 <path style="fill:#8b9cbe" d="m22.96439 19.00006-0.0882 1.0536a3.1429 3.1429 0 0 0 -0.91852 0.53126l-0.95759-0.4509-1 1.7321 0.86941 0.6038a3.1429 3.1429 0 0 0 -0.048 0.53013 3.1429 3.1429 0 0 0 0.0457 0.53237l-0.86719 0.60156 1 1.7321 0.95536-0.44978a3.1429 3.1429 0 0 0 0.92075 0.5279l0.0882 1.0558h2l0.0882-1.0536a3.1429 3.1429 0 0 0 0.91854 -0.53126l0.95758 0.4509 1-1.7321-0.86942-0.6038a3.1429 3.1429 0 0 0 0.048 -0.53013 3.1429 3.1429 0 0 0 -0.0457 -0.53237l0.86719-0.60156-1-1.7321-0.95536 0.44978a3.1429 3.1429 0 0 0 -0.921 -0.528l-0.088-1.056h-2zm1 2.8572a1.1429 1.1429 0 0 1 1.143 1.143 1.1429 1.1429 0 0 1 -1.143 1.143 1.1429 1.1429 0 0 1 -1.143 -1.143 1.1429 1.1429 0 0 1 1.143 -1.143z"/>
</svg>
