<svg xmlns="http://www.w3.org/2000/svg" width="32" height="32" version="1">
 <rect style="opacity:0.2" width="28" height="28" x="2" y="3" rx="1.4" ry="1.4"/>
 <rect style="fill:#00c8c8" width="28" height="28" x="2" y="2" rx="1.4" ry="1.4"/>
 <path style="opacity:0.1" d="M 9.7735593,25.88503 C 8.7309883,25.578161 8.4763348,24.274503 8.8942626,23.381382 9.5264402,21.77028 10.89552,20.629822 12.261078,19.645176 11.421253,19.361262 11.617654,18.364546 11.825006,18.149542 11.957356,18.012308 11.327588,17.81558 11.070951,17.705657 8.6179756,16.2399 6.3350037,14.174165 5.2880795,11.453887 4.8132181,10.141175 4.8240653,8.3601938 6.1024939,7.501404 7.5916433,6.5121387 9.5068389,7.1994084 10.881554,8.0745471 c 1.774078,1.1307769 3.128451,2.7947229 4.236369,4.5604479 0.494491,-0.651439 1.5616,-0.469039 1.810957,0.0184 1.492428,-2.398983 3.591813,-4.8109446 6.423405,-5.5423265 1.337335,-0.362547 3.0242,0.1614233 3.472477,1.5872763 0.598641,1.8923292 -0.438766,3.8241432 -1.567388,5.2920352 -1.355598,1.720372 -3.124158,3.085423 -5.051963,4.108141 0.526998,0.58147 0.151686,1.319027 -0.423578,1.518721 1.465111,1.083623 3.157987,2.518643 3.496251,4.413262 0.290379,1.302279 -1.157794,2.350814 -2.33915,1.835638 -2.114661,-0.730723 -3.580085,-2.623708 -4.673116,-4.489332 -0.170755,-0.486913 -0.342536,-0.496601 -0.515391,-0.0051 -1.093758,1.864051 -2.53843,3.749909 -4.641705,4.494843 -0.431191,0.123046 -0.903974,0.163907 -1.3351627,0.01841 z m 1.7819757,-1.802402 c 1.357964,-0.786426 2.244351,-2.206676 2.784526,-3.647549 -1.384182,0.346778 -2.660117,1.212654 -3.54695,2.332894 -0.724308,0.796108 -0.486559,2.055251 0.762424,1.314655 z m 9.973751,0.0466 c 0.448518,-0.947986 -0.750532,-1.981486 -1.416159,-2.554517 -0.616365,-0.530617 -2.384274,-1.159 -2.384274,-1.159 0.611814,1.466433 1.511281,3.122244 3.002133,3.811102 0.255647,0.09632 0.668229,0.177332 0.7983,-0.09759 z M 11.78745,13.878673 c -1.9832007,1.259991 2.909704,3.68746 3.033867,3.231918 0.248436,0.08286 -1.412194,-4.26222 -3.033867,-3.231918 z m 6.587159,2.973788 c 1.006171,-0.3982 2.241942,-1.167403 2.24,-2.382906 -0.41705,-1.238937 -1.96487,-0.275749 -2.4119,0.469531 -0.343016,0.537852 -1.011693,1.85545 -0.852584,2.183479 0.326961,-0.05543 0.712445,-0.16004 1.024484,-0.270104 z m -6.273013,-4.425777 c -0.747227,-0.608987 -1.728093,-1.526502 -2.6799521,-1.136418 -0.9366933,0.383866 0.1718825,2.063925 0.5863151,2.745019 0.322791,-1.686899 1.653754,-1.531524 2.093637,-1.608601 z m 9.802151,-1.122582 c -0.652433,0.114533 -1.935229,0.863872 -2.005212,1.21227 0.847723,-0.104962 1.942814,0.1295 2.185373,1.530586 0,0 2.046926,-3.196947 -0.180161,-2.742856 z M 7.569193,10.982319 C 7.8980428,10.005879 8.9349289,9.5386871 9.909465,9.598265 10.642526,9.6343243 9.2796174,9.1287086 9.1571537,9.0084976 8.4000237,8.6245801 6.8935964,8.3074369 6.6932679,9.4837853 6.5561776,10.233362 6.95571,11.571799 7.3956234,11.833769 c 0.025795,-0.289004 0.075313,-0.577615 0.1735696,-0.85145 z m 16.88605,-2.3067191 c -0.976742,-0.093875 -1.860003,0.4185144 -2.664472,0.9067072 2.024728,-0.2928206 2.921473,1.1509289 2.906481,2.3177709 1.049247,-1.9130458 0.744502,-3.040877 -0.242009,-3.2244781 z"/>
 <path style="fill:#17191e" d="M 9.7735593,24.88503 C 8.7309883,24.578161 8.4763348,23.274503 8.8942626,22.381382 9.5264402,20.77028 10.89552,19.629822 12.261078,18.645176 11.421253,18.361262 11.617654,17.364546 11.825006,17.149542 11.957356,17.012308 11.327588,16.81558 11.070951,16.705657 8.6179756,15.2399 6.3350037,13.174165 5.2880795,10.453887 4.8132181,9.141175 4.8240653,7.3601938 6.1024939,6.501404 7.5916433,5.5121387 9.5068389,6.1994084 10.881554,7.0745471 c 1.774078,1.1307769 3.128451,2.7947229 4.236369,4.5604479 0.494491,-0.651439 1.5616,-0.469039 1.810957,0.0184 1.492428,-2.398983 3.591813,-4.8109446 6.423405,-5.5423265 1.337335,-0.362547 3.0242,0.1614233 3.472477,1.5872763 0.598641,1.8923292 -0.438766,3.8241432 -1.567388,5.2920352 -1.355598,1.720372 -3.124158,3.085423 -5.051963,4.108141 0.526998,0.58147 0.151686,1.319027 -0.423578,1.518721 1.465111,1.083623 3.157987,2.518643 3.496251,4.413262 0.290379,1.302279 -1.157794,2.350814 -2.33915,1.835638 -2.114661,-0.730723 -3.580085,-2.623708 -4.673116,-4.489332 -0.170755,-0.486913 -0.342536,-0.496601 -0.515391,-0.0051 -1.093758,1.864051 -2.53843,3.749909 -4.641705,4.494843 -0.431191,0.123046 -0.903974,0.163907 -1.3351627,0.01841 z m 1.7819757,-1.802402 c 1.357964,-0.786426 2.244351,-2.206676 2.784526,-3.647549 -1.384182,0.346778 -2.660117,1.212654 -3.54695,2.332894 -0.724308,0.796108 -0.486559,2.055251 0.762424,1.314655 z m 9.973751,0.0466 c 0.448518,-0.947986 -0.750532,-1.981486 -1.416159,-2.554517 -0.616365,-0.530617 -2.384274,-1.159 -2.384274,-1.159 0.611814,1.466433 1.511281,3.122244 3.002133,3.811102 0.255647,0.09632 0.668229,0.177332 0.7983,-0.09759 z M 11.78745,12.878673 c -1.9832007,1.259991 2.909704,3.68746 3.033867,3.231918 0.248436,0.08286 -1.412194,-4.26222 -3.033867,-3.231918 z m 6.587159,2.973788 c 1.006171,-0.3982 2.241942,-1.167403 2.24,-2.382906 -0.41705,-1.238937 -1.96487,-0.275749 -2.4119,0.469531 -0.343016,0.537852 -1.011693,1.85545 -0.852584,2.183479 0.326961,-0.05543 0.712445,-0.16004 1.024484,-0.270104 z m -6.273013,-4.425777 c -0.747227,-0.608987 -1.728093,-1.526502 -2.6799521,-1.136418 -0.9366933,0.383866 0.1718825,2.063925 0.5863151,2.745019 0.322791,-1.686899 1.653754,-1.531524 2.093637,-1.608601 z m 9.802151,-1.122582 c -0.652433,0.114533 -1.935229,0.863872 -2.005212,1.21227 0.847723,-0.104962 1.942814,0.1295 2.185373,1.530586 0,0 2.046926,-3.196947 -0.180161,-2.742856 z M 7.569193,9.982319 C 7.8980428,9.005879 8.9349289,8.5386871 9.909465,8.598265 10.642526,8.6343243 9.2796174,8.1287086 9.1571537,8.0084976 8.4000237,7.6245801 6.8935964,7.3074369 6.6932679,8.4837853 6.5561776,9.233362 6.95571,10.571799 7.3956234,10.833769 7.4214184,10.544765 7.4709364,10.256154 7.569193,9.982319 Z M 24.455243,7.6755999 C 23.478501,7.5817249 22.59524,8.0941143 21.790771,8.5823071 23.815499,8.2894865 24.712244,9.733236 24.697252,10.900078 25.746499,8.9870322 25.441754,7.859201 24.455243,7.6755999 Z"/>
 <path style="fill:#8b9cbe;opacity:0.2" d="M 3.4003906 2 C 2.6247906 2 2 2.6247906 2 3.4003906 L 2 4.4003906 C 2 3.6247906 2.6247906 3 3.4003906 3 L 28.599609 3 C 29.375209 3 30 3.6247906 30 4.4003906 L 30 3.4003906 C 30 2.6247906 29.375209 2 28.599609 2 L 3.4003906 2 z"/>
</svg>
