<svg xmlns="http://www.w3.org/2000/svg" width="48" height="48" version="1.1">
 <circle style="fill:#455a64" cx="24" cy="24" r="20"/>
 <g transform="matrix(0,-1,1,0,0,48)">
  <path style="fill:#8b9cbe" d="m 18,16 a 8,8 0 0 0 -8,8 8,8 0 0 0 8,8 8,8 0 0 0 8,-8 8,8 0 0 0 -8,-8 z m 0,4 a 4,4 0 0 1 4,4 4,4 0 0 1 -4,4 4,4 0 0 1 -4,-4 4,4 0 0 1 4,-4 z"/>
  <rect style="fill:#8b9cbe" width="16" height="4" x="22" y="22"/>
  <rect style="fill:#8b9cbe" width="4" height="4" x="31" y="26"/>
 </g>
</svg>
