<svg xmlns="http://www.w3.org/2000/svg" width="48" height="48" version="1.1">
 <circle style="fill:#455a64" cx="24" cy="24" r="20"/>
 <g style="fill:#8b9cbe" transform="matrix(0.70710678,-0.70710678,0.70710678,0.70710678,-9.9411255,24)">
  <rect style="fill:#8b9cbe" width="6" height="28" x="21" y="10"/>
  <rect style="fill:#8b9cbe" width="6" height="28" x="21" y="-38" transform="matrix(0,1,-1,0,0,0)"/>
 </g>
</svg>
