<svg xmlns="http://www.w3.org/2000/svg" width="48" height="48" version="1.1">
 <circle style="fill:#455a64" cx="24" cy="24" r="20"/>
 <path style="fill:#8b9cbe" d="m 28.81102,13.147437 a 4,4 0 0 0 -3.2754,1.9961 4,4 0 0 0 -0.38672,3.0684 l -5.2949,3.0586 a 4,4 0 0 0 -2.854,-1.199 4,4 0 0 0 -4,4 4,4 0 0 0 4,4 4,4 0 0 0 2.8516,-1.1992 l 5.2949,3.0586 a 4,4 0 0 0 0.388,3.068 4,4 0 0 0 5.465,1.465 4,4 0 0 0 1.465,-5.465 4,4 0 0 0 -5.465,-1.463 4,4 0 0 0 -0.854,0.662 l -5.296,-3.057 a 4,4 0 0 0 0.15,-1.07 4,4 0 0 0 -0.146,-1.07 l 5.2949,-3.0566 a 4,4 0 0 0 0.851,0.662 4,4 0 0 0 5.465,-1.463 4,4 0 0 0 -1.465,-5.465 4,4 0 0 0 -2.189,-0.531 z"/>
</svg>
