<svg xmlns="http://www.w3.org/2000/svg" width="48" height="48" version="1">
 <circle style="fill:#455a64" cx="24" cy="24" r="20"/>
 <path style="fill:#8b9cbe" d="m 15,14 h 18 v 4 H 15 Z"/>
 <path style="fill:#8b9cbe" d="m 15,22 h 18 v 4 H 15 Z"/>
 <path style="fill:#8b9cbe" d="m 15,30 h 18 v 4 H 15 Z"/>
</svg>
