<svg xmlns="http://www.w3.org/2000/svg" width="48" height="48" version="1.1">
 <circle style="fill:#1b8d71" cx="24" cy="24" r="20"/>
 <rect style="fill:#8b9cbe" width="6" height="28" x="21" y="-38" transform="rotate(90)"/>
</svg>
