<svg xmlns="http://www.w3.org/2000/svg" width="48" height="48" version="1.1">
 <circle style="fill:#992067" cx="24" cy="24" r="20"/>
 <path style="fill:#8b9cbe" d="M 21,10 V 28 H 27 V 10 Z M 21,32 V 38 H 27 V 32 Z"/>
</svg>
