<svg xmlns="http://www.w3.org/2000/svg" width="48" height="48" version="1">
 <path style="opacity:0.2" d="M 14,5 8,11 V 43 C 8,44.108 8.892,45 10,45 H 38 C 39.108,45 40,44.108 40,43 V 7 C 40,5.892 39.108,5 38,5 Z"/>
 <path style="fill:#4f4f4f" d="M 14 4 L 8 10 L 8 42 C 8 43.108 8.892 44 10 44 L 38 44 C 39.108 44 40 43.108 40 42 L 40 6 C 40 4.892 39.108 4 38 4 L 14 4 z"/>
 <rect style="opacity:0.4" width="24" height="16" x="12" y="-39" rx="2" ry="2" transform="scale(1,-1)"/>
 <g style="fill:#f8c44e">
  <rect width="2" height="6" x="23" y="7"/>
  <rect width="2" height="6" x="26" y="7"/>
  <rect width="2" height="6" x="29" y="7"/>
  <rect width="2" height="6" x="32" y="7"/>
  <rect width="2" height="6" x="35" y="7"/>
  <rect width="2" height="3" x="11" y="10"/>
  <rect width="2" height="6" x="17" y="7"/>
  <rect width="2" height="6" x="20" y="7"/>
  <rect width="2" height="6" x="14" y="7"/>
 </g>
 <path style="opacity:0.1;fill:#f4f4f7" d="M 14 4 L 8 10 L 8 11 L 14 5 L 38 5 C 39.108 5 40 5.892 40 7 L 40 6 C 40 4.892 39.108 4 38 4 L 14 4 z"/>
</svg>
