<svg xmlns="http://www.w3.org/2000/svg" width="22" height="22" version="1">
 <g>
  <rect style="fill:#324090" width="20" height="14" x="-21" y="-18" rx="7" ry="7" transform="matrix(0,-1,-1,0,0,0)"/>
  <path style="fill:none;stroke:#8b9cbe;stroke-linecap:square" d="m 7.7066,7.7929 7,6.5 -3.2066,3.5 0,-13.5 3.2066,3.5 -7,6.5"/>
  <path style="opacity:0.1;fill:#8b9cbe" d="M 11,1 C 7.122,1 4,4.122 4,8 l 0,0.5 c 0,-3.878 3.122,-7 7,-7 3.878,0 7,3.122 7,7 L 18,8 C 18,4.122 14.878,1 11,1 Z"/>
  <path style="opacity:0.2" d="m 4,14 0,0.5 c 0,3.878 3.122,7 7,7 3.878,0 7,-3.122 7,-7 L 18,14 c 0,3.878 -3.122,7 -7,7 -3.878,0 -7,-3.122 -7,-7 z"/>
 </g>
</svg>
