<svg xmlns="http://www.w3.org/2000/svg" width="22" height="22" version="1">
 <rect style="opacity:0.2" width="16" height="20" x="-20.5" y="-21" rx="1" ry="1" transform="matrix(0,-1,-1,0,0,0)"/>
 <rect style="fill:#4f4f4f" width="3.5" height="2" x="3" y="3" rx=".5" ry=".5"/>
 <rect style="fill:#4f4f4f" width="16" height="20" x="-20" y="-21" rx="1" ry="1" transform="matrix(0,-1,-1,0,0,0)"/>
 <circle style="opacity:0.40" cx="11" cy="12" r="7"/>
 <circle style="opacity:0.2" cx="11" cy="-12.5" r="5" transform="scale(1,-1)"/>
 <circle style="fill:#009587" cx="11" cy="-12" r="5" transform="scale(1,-1)"/>
 <circle style="opacity:0.40" cx="18.5" cy="7" r="1"/>
 <circle style="opacity:0.2" cx="11" cy="12.5" r="3"/>
 <circle style="fill:#66bfb7" cx="11" cy="12" r="3"/>
 <path style="opacity:0.1;fill:#8b9cbe" d="m 20,4 c 0.554,0 1,0.446 1,1 v 0.5 c 0,-0.554 -0.446,-1 -1,-1 H 2 c -0.554,0 -1,0.446 -1,1 V 5 C 1,4.446 1.446,4 2,4 Z"/>
</svg>
