<svg xmlns="http://www.w3.org/2000/svg" width="22" height="22" version="1">
 <path style="opacity:0.2" d="M 6,1.5 3,4.5 V 20.5 C 3,21.05 3.446,21.5 4,21.5 H 18 C 18.554,21.5 19,21.05 19,20.5 V 2.5 C 19,1.95 18.554,1.5 18,1.5 Z"/>
 <path style="fill:#4f4f4f" d="M 6,1 3,4 V 20 C 3,20.55 3.446,21 4,21 H 18 C 18.554,21 19,20.55 19,20 V 2 C 19,1.45 18.554,1 18,1 Z"/>
 <rect style="opacity:0.4" width="12" height="8" x="5" y="-18" rx="1" ry="1" transform="scale(1,-1)"/>
 <g style="fill:#f8c44e">
  <rect width="1" height="3" x="9" y="3"/>
  <rect width="1" height="3" x="11" y="3"/>
  <rect width="1" height="3" x="13" y="3"/>
  <rect width="1" height="3" x="15" y="3"/>
  <rect width="1" height="3" x="17" y="3"/>
  <rect width="1" height="2" x="5" y="4"/>
  <rect width="1" height="3" x="7" y="3"/>
 </g>
 <path style="opacity:0.1;fill:#8b9cbe" d="M 6,1 3,4 V 4.5 L 6,1.5 H 18 C 18.554,1.5 19,1.95 19,2.5 V 2 C 19,1.45 18.554,1 18,1 Z"/>
</svg>
