<svg xmlns="http://www.w3.org/2000/svg" width="22" height="22" version="1">
 <g transform="matrix(0.5,0,0,0.5,-1,-1)">
  <rect style="opacity:0.2" width="40" height="32" x="-45" y="-40" rx="2" ry="2" transform="matrix(0,-1,-1,0,0,0)"/>
  <rect style="fill:#8e8e8e" width="40" height="32" x="-44" y="-40" rx="2" ry="2" transform="matrix(0,-1,-1,0,0,0)"/>
  <path style="opacity:0.5" d="M 34,4 V 26 C 34,31.54 29.54,36 24,36 18.46,36 14,31.54 14,26 V 4 Z"/>
  <circle style="opacity:0.2" cx="24" cy="27" r="4"/>
  <circle style="fill:#8e8e8e" cx="24" cy="26" r="4"/>
  <circle style="opacity:0.2" cx="24" cy="17" r="2"/>
  <circle style="fill:#ff6e40" cx="24" cy="16" r="2"/>
  <circle style="opacity:0.2" cx="24" cy="11" r="2"/>
  <circle style="fill:#76ff03" cx="24" cy="10" r="2"/>
  <rect style="opacity:0.5" width="24" height="4" x="12" y="40"/>
  <path style="opacity:0.2;fill:#8b9cbe" d="M 10,4 C 8.892,4 8,4.892 8,6 V 7 C 8,5.892 8.892,5 10,5 H 38 C 39.108,5 40,5.892 40,7 V 6 C 40,4.892 39.108,4 38,4 Z"/>
  <path style="opacity:0.5" d="M 37,22 C 36.446,22 36,22.446 36,23 36,23.554 36.446,24 37,24 H 40 V 22 Z M 37,26 C 36.446,26 36,26.446 36,27 36,27.554 36.446,28 37,28 H 40 V 26 Z M 37,30 C 36.446,30 36,30.446 36,31 36,31.554 36.446,32 37,32 H 40 V 30 Z"/>
  <path style="opacity:0.5" d="M 8,22 V 24 H 11 C 11.554,24 12,23.554 12,23 12,22.446 11.554,22 11,22 Z M 8,26 V 28 H 11 C 11.554,28 12,27.554 12,27 12,26.446 11.554,26 11,26 Z M 8,30 V 32 H 11 C 11.554,32 12,31.554 12,31 12,30.446 11.554,30 11,30 Z"/>
 </g>
</svg>
