<svg xmlns="http://www.w3.org/2000/svg" width="16" height="16" version="1.1">
 <circle style="fill:#455a64" cx="8" cy="8" r="7"/>
 <path style="fill:#f4f4f7" d="m 3.2270295,8.53033 2.12132,2.12132 L 6.40901,11.71231 12.772971,5.34835 11.71231,4.2876895 6.40901,9.5909905 4.2876893,7.46967 Z"/>
</svg>
