<svg xmlns="http://www.w3.org/2000/svg" width="16" height="16" version="1.1">
 <circle style="fill:#35be50" cx="8" cy="8" r="7"/>
 <path style="fill:#f4f4f7" d="M 8,3 A 5,5 0 0 0 3,8 5,5 0 0 0 8,13 5,5 0 0 0 13,8 5,5 0 0 0 12.692,6.293 L 12.703,6.2852 12.676,6.2481 A 5,5 0 0 0 8.0004,3 Z M 8,3.5 A 4.5,4.5 0 0 1 11.994,5.9307 L 8.8741,8.1602 3.5509,8.6436 A 4.5,4.5 0 0 1 3.5001,8 4.5,4.5 0 0 1 8.0001,3.5 Z M 12.27,6.5947 A 4.5,4.5 0 0 1 12.5,8 4.5,4.5 0 0 1 11.196,11.163 L 9.479,8.5879 Z M 8.8242,8.8672 10.661,11.622 A 4.5,4.5 0 0 1 7.9991,12.5 4.5,4.5 0 0 1 3.7061,9.3331 L 8.8233,8.8673 Z"/>
 <circle style="fill:#f4f4f7" cx="3.5" cy="9" r="1"/>
 <circle style="fill:#f4f4f7" cx="11" cy="11.5" r="1"/>
 <circle style="fill:#f4f4f7" cx="12.5" cy="6" r="1"/>
 <circle style="fill:#f4f4f7" cx="9" cy="8.5" r="1"/>
</svg>
