<svg xmlns="http://www.w3.org/2000/svg" width="16" height="16" version="1.1">
 <circle style="fill:#455a64" cx="8" cy="8" r="7"/>
 <circle style="fill:#f4f4f7" cx="8" cy="11" r="1"/>
 <path style="fill:#f4f4f7;fill-rule:evenodd" d="M 7,9 H 9 V 4 H 7 Z"/>
</svg>
