<svg xmlns="http://www.w3.org/2000/svg" width="16" height="16" version="1">
 <circle style="fill:#455a64" cx="8" cy="8" r="7"/>
 <path style="fill:#f4f4f7" d="m 5,5 h 6 V 6 H 5 Z"/>
 <path style="fill:#f4f4f7" d="m 5,7 h 6 V 8 H 5 Z"/>
 <path style="fill:#f4f4f7" d="m 5,9 h 6 v 1 H 5 Z"/>
</svg>
