<svg xmlns="http://www.w3.org/2000/svg" width="16" height="16" version="1">
 <circle style="fill:#455a64" cx="8" cy="8" r="7"/>
 <path style="fill:#f4f4f7" d="m 8.125,12 h -1.25 v -1.25 h 1.25 z M 9.419,6.9563 8.8562,7.5313 C 8.4062,7.9875 8.125,8.3625 8.125,9.3 H 6.875 V 8.9875 C 6.875,8.3 7.1562,7.675 7.6063,7.2188 L 8.3812,6.4313 C 8.6125,6.2063 8.75,5.8938 8.75,5.55 8.75,4.8625 8.1875,4.3 7.5,4.3 6.8125,4.3 6.25,5 6.25,6 H 5 C 5,4 6.1188,3.05 7.5,3.05 8.8812,3.05 10,4.1688 10,5.55 10,6.1 9.775,6.6 9.419,6.9563 Z"/>
</svg>
