<svg xmlns="http://www.w3.org/2000/svg" width="16" height="16" version="1.1">
 <circle style="fill:#455a64" cx="8" cy="8" r="7"/>
 <path style="fill:#f4f4f7;fill-rule:evenodd" d="m 8,4 0,2.0182125 -1.6201145,0 c -1.028884,5.6e-5 -1.9795893,0.5087855 -2.4940313,1.3345745 -0.5144721,0.825838 -0.5144721,1.9933175 0,2.819155 C 4.3755879,10.95549 5.2605675,11.455494 6.236445,11.5 5.500317,11.431705 4.9999332,10.857574 5,10.171942 5,9.434877 5.584634,8.990796 6.3798855,9 L 8,9 8,11 12,7.5 Z"/>
</svg>
