<svg xmlns="http://www.w3.org/2000/svg" width="16" height="16" version="1.1">
 <g transform="matrix(1,0,0,-1,0,16)">
  <circle style="fill:#455a64" cx="8" cy="8" r="7"/>
  <circle style="fill:#f4f4f7" cx="8" cy="12" r="1"/>
  <path style="fill:#f4f4f7;fill-rule:evenodd" d="M 7,10 9,10 9,3 7,3 Z"/>
 </g>
</svg>
