<svg xmlns="http://www.w3.org/2000/svg" width="16" height="16" version="1.1">
 <g>
  <circle style="fill:#4caf50" cx="8" cy="8" r="7"/>
  <path style="fill:#f4f4f7" d="M 11.535,4.4 7.2928,8.6 4.4647,5.8 3.0506,7.2 5.8787,10.1 7.2928,11.5 12.949,5.8 Z"/>
 </g>
</svg>
