<svg xmlns="http://www.w3.org/2000/svg" width="22" height="22" viewBox="0 0 22 22">
 <defs>
  <style id="current-color-scheme" type="text/css">
   .ColorScheme-Text { color:#323a41; } .ColorScheme-Highlight { color:#4285f4; } .ColorScheme-NeutralText { color:#ff9800; } .ColorScheme-PositiveText { color:#4caf50; } .ColorScheme-NegativeText { color:#f44336; }
  </style>
 </defs>
 <path style="fill:currentColor" class="ColorScheme-Text" d="M 1 0 L 1 2 L 3 2 L 3 0 L 1 0 z M 3 2 L 3 16 L 5 16 L 5 15 L 15 15 L 15 11 L 5 11 L 5 7 L 15 7 L 15 3 L 5 3 L 5 2 L 3 2 z" transform="translate(3 3)"/>
</svg>
