<svg xmlns="http://www.w3.org/2000/svg" width="22" height="22" version="1.1">
 <defs>
  <style id="current-color-scheme" type="text/css">
   .ColorScheme-Text { color:#323a41; } .ColorScheme-Highlight { color:#4285f4; } .ColorScheme-NeutralText { color:#ff9800; } .ColorScheme-PositiveText { color:#4caf50; } .ColorScheme-NegativeText { color:#f44336; }
  </style>
 </defs>
 <g transform="translate(3,3)">
  <path style="fill:currentColor" class="ColorScheme-Text" d="M 5,0 C 2.23,0 0,2.23 0,5 0,7.77 2.23,10 5,10 H 7 V 8 H 5 C 3.338,8 2,6.662 2,5 2,3.338 3.338,2 5,2 H 7 V 0 Z M 9,0 V 2 H 11 C 12.662,2 14,3.338 14,5 14,6.662 12.662,8 11,8 H 9 V 10 H 11 C 13.77,10 16,7.77 16,5 16,2.23 13.77,0 11,0 Z M 5,4 V 6 H 11 V 4 Z M 5,12 8,16 11,12 Z"/>
 </g>
</svg>
