<svg xmlns="http://www.w3.org/2000/svg" width="22" height="22" version="1.1">
 <defs>
  <style id="current-color-scheme" type="text/css">
   .ColorScheme-Text { color:#323a41; } .ColorScheme-Highlight { color:#4285f4; } .ColorScheme-NeutralText { color:#ff9800; } .ColorScheme-PositiveText { color:#4caf50; } .ColorScheme-NegativeText { color:#f44336; }
  </style>
 </defs>
 <path style="fill:currentColor" class="ColorScheme-Text" d="M 9,3 C 8,3 8,4 8,4 H 5 C 5,4 4,4 4,5 V 6 H 18 V 5 C 18,4 17,4 17,4 H 14 C 14,4 14,3 13,3 Z M 5,7 V 18 C 5,18.52 5.48,19 6,19 H 16 C 16.52,19 17,18.52 17,18 V 7 Z M 8,10 H 9 C 9.28,10 9.5407,10.1 9.7207,10.281 L 11,11.559 12.279,10.281 C 12.459,10.1 12.72,10 13,10 H 14 V 11 C 14,11.276 13.901,11.538 13.721,11.719 L 12.44,13 13.721,14.281 C 13.901,14.462 14,14.724 14,15 V 16 H 13 C 12.72,16 12.459,15.9 12.279,15.719 L 11,14.434 9.7207,15.719 C 9.5407,15.9 9.28,16 9,16 H 8 V 15 C 8,14.724 8.0993,14.462 8.2793,14.281 L 9.5605,13 8.2793,11.719 C 8.0993,11.538 8,11.276 8,11 Z"/>
</svg>
