<svg xmlns="http://www.w3.org/2000/svg" width="22" height="22" version="1.1">
 <defs>
  <style id="current-color-scheme" type="text/css">
   .ColorScheme-Text { color:#323a41; } .ColorScheme-Highlight { color:#4285f4; } .ColorScheme-NeutralText { color:#ff9800; } .ColorScheme-PositiveText { color:#4caf50; } .ColorScheme-NegativeText { color:#f44336; }
  </style>
 </defs>
 <path style="fill:currentColor" class="ColorScheme-Text" d="M 11,3 A 8,8 0 0 0 4.4433594,6.4433594 L 3,5 V 9 H 3.2597656 5.3515625 7 L 5.8828125,7.882813 A 6,6 0 0 1 11,5 6,6 0 0 1 17,11 6,6 0 0 1 11,17 6,6 0 0 1 5.3496094,13 H 3.265625 A 8,8 0 0 0 11,19 8,8 0 0 0 19,11 8,8 0 0 0 11,3 Z M 8,8 V 9 C 8,9.276 8.099297,9.53765 8.2792969,9.71875 L 9.5605469,11 8.2792969,12.28125 C 8.0992969,12.46225 8,12.7239 8,13 v 1 h 1 c 0.28,0 0.5407031,-0.10025 0.7207031,-0.28125 L 11,12.433594 12.279297,13.71875 C 12.459297,13.89975 12.72,14 13,14 h 1 v -1 c 0,-0.2761 -0.0993,-0.53785 -0.279297,-0.71875 L 12.439453,11 13.720703,9.71875 C 13.900703,9.53765 14,9.276 14,9 V 8 H 13 C 12.72,8 12.459297,8.10025 12.279297,8.28125 L 11,9.558594 9.7207031,8.28125 C 9.5407031,8.10025 9.28,8 9,8 Z"/>
</svg>
