<svg xmlns="http://www.w3.org/2000/svg" width="22" height="22" version="1.1">
 <defs>
  <style id="current-color-scheme" type="text/css">
   .ColorScheme-Text { color:#323a41; } .ColorScheme-Highlight { color:#4285f4; } .ColorScheme-NeutralText { color:#ff9800; } .ColorScheme-PositiveText { color:#4caf50; } .ColorScheme-NegativeText { color:#f44336; }
  </style>
 </defs>
 <g transform="translate(3,3)">
  <path style="fill:currentColor" class="ColorScheme-Text" d="M 13.5,5 C 13.5,5 14.465,4.035 13.715,3.285 12.965,2.535 12,3.5 12,3.5 L 6,10.5 4,8.5 C 4,8.5 3.035,7.535 2.285,8.285 1.535,9.035 2.5,10 2.5,10 L 6,13.5 Z"/>
 </g>
</svg>
