<svg xmlns="http://www.w3.org/2000/svg" width="22" height="22" viewBox="0 0 22 22">
 <defs>
  <style id="current-color-scheme" type="text/css">
   .ColorScheme-Text { color:#323a41; } .ColorScheme-Highlight { color:#4285f4; } .ColorScheme-NeutralText { color:#ff9800; } .ColorScheme-PositiveText { color:#4caf50; } .ColorScheme-NegativeText { color:#f44336; }
  </style>
 </defs>
 <path style="fill:currentColor" class="ColorScheme-Text" d="M 12 1 L 12 2 L 12 2.0527344 A 12 12 0 0 0 5.0957031 5 L 3 5 L 3 7.4140625 A 12 12 0 0 0 1.0585938 13 L 1 13 L 0 13 L 0 16 L 3 16 L 3 13 L 2.0507812 13 A 11 11 0 0 1 3.796875 8 L 6 8 L 6 5.5429688 A 11 11 0 0 1 12 3.0566406 L 12 4 L 15 4 L 15 1 L 12 1 z" transform="translate(3 3)"/>
</svg>
