<svg xmlns="http://www.w3.org/2000/svg" width="22" height="22" version="1.1">
 <defs>
  <style id="current-color-scheme" type="text/css">
   .ColorScheme-Text { color:#323a41; } .ColorScheme-Highlight { color:#4285f4; } .ColorScheme-NeutralText { color:#ff9800; } .ColorScheme-PositiveText { color:#4caf50; } .ColorScheme-NegativeText { color:#f44336; }
  </style>
 </defs>
 <g transform="translate(3,3)">
  <path style="fill:currentColor" class="ColorScheme-Text" d="M 12.145,1.0117 C 12.027,1.0352 11.902,1.0977 11.777,1.2227 L 10,3 13,6 14.777,4.2227 C 15.277,3.7227 14.777,3.2227 14.777,3.2227 L 12.777,1.2227 C 12.777,1.2227 12.496,0.94141 12.145,1.0117 Z M 9,4 1,12 V 15 H 15 V 13 H 6 L 12,7 Z"/>
 </g>
</svg>
