<svg xmlns="http://www.w3.org/2000/svg" width="22" height="22" version="1.1">
 <defs>
  <style id="current-color-scheme" type="text/css">
   .ColorScheme-Text { color:#323a41; } .ColorScheme-Highlight { color:#4285f4; } .ColorScheme-NeutralText { color:#ff9800; } .ColorScheme-PositiveText { color:#4caf50; } .ColorScheme-NegativeText { color:#f44336; }
  </style>
 </defs>
 <g transform="translate(3,3)">
  <path style="fill:currentColor" class="ColorScheme-Text" d="M 8,2 C 6,2 5,3 5,5 V 7 H 4 C 3,7 3,8 3,8 3,8 3,9 4,9 H 5 V 14 C 5,15 6,15 6,15 6,15 7,15 7,14 V 9 H 8 C 9,9 9,8 9,8 9,8 9,7 8,7 H 7 V 5 C 7,5 7,4 8,4 9,4 9,3 9,3 9,3 9,2 8,2 Z M 8.707,11 H 8 V 11.707 L 9.2931,13 8,14.293 V 15 H 8.707 L 10,13.707 11.293,15 H 12 V 14.293 L 10.707,13 12,11.707 V 11 H 11.293 L 10,12.293 Z"/>
 </g>
</svg>
