<svg xmlns="http://www.w3.org/2000/svg" width="22" height="22" viewBox="0 0 22 22">
 <defs>
  <style id="current-color-scheme" type="text/css">
   .ColorScheme-Text { color:#323a41; } .ColorScheme-Highlight { color:#4285f4; } .ColorScheme-NeutralText { color:#ff9800; } .ColorScheme-PositiveText { color:#4caf50; } .ColorScheme-NegativeText { color:#f44336; }
  </style>
 </defs>
 <path style="fill:currentColor" class="ColorScheme-NegativeText" d="M 7.9980469 0.99804688 L 3.9980469 5.0898438 L 1.0898438 5.0898438 L 1.0898438 10.908203 L 3.9980469 10.908203 L 7.9980469 14.998047 L 7.9980469 0.99804688 z" transform="translate(3 3)"/>
</svg>
