<svg xmlns="http://www.w3.org/2000/svg" width="22" height="22" version="1.1">
 <defs>
  <style id="current-color-scheme" type="text/css">
   .ColorScheme-Text { color:#323a41; } .ColorScheme-Highlight { color:#4285f4; } .ColorScheme-NeutralText { color:#ff9800; } .ColorScheme-PositiveText { color:#4caf50; } .ColorScheme-NegativeText { color:#f44336; }
  </style>
 </defs>
 <path style="fill:currentColor" class="ColorScheme-Text" d="M 4,5.000002 V 6.5273458 6.5351558 9.9999996 11 12 14 14.0078 18 h 13 v -1.998047 -0.002 -1.132812 l -0.04102,-0.03906 -2.828125,-2.828125 -0.0039,0.0039 -0.0059,-0.0039 -2.123047,2.123047 L 8.875,11.000002 H 7.4609375 6 v -3 -1.4648438 -0.00781 -1.5273438 z m 8,0 -4.0019531,4.001953 H 6.0019531 v 1 H 8.4121094 L 12.001953,6.4121114 14.125,8.535158 l 0.0059,-0.0039 0.0039,0.0039 2.828125,-2.8281248 c 0.003,0.005 -0.707066,-0.7070312 -0.707066,-0.7070312 l -2.125,2.125 -2.126953,-2.125 -0.002,0.00195 z m -6,7 h 2.4609375 l 3.5351565,3.535156 0.002,-0.002 0.002,0.002 2.126953,-2.125 2.125,2.125 0.482428,0.464844 H 6 v -1 -0.992188 -0.0078 -1 z"/>
 <path style="opacity:0.5;fill:currentColor" class="ColorScheme-Text" d="m 16.46,5.220002 -2.451,2.779 -2,-3 -4,4 h -2 v 7 h 11 v -10.258 z"/>
</svg>
