<svg xmlns="http://www.w3.org/2000/svg" width="22" height="22" version="1.1">
 <defs>
  <style id="current-color-scheme" type="text/css">
   .ColorScheme-Text { color:#323a41; } .ColorScheme-Highlight { color:#4285f4; } .ColorScheme-NeutralText { color:#ff9800; } .ColorScheme-PositiveText { color:#4caf50; } .ColorScheme-NegativeText { color:#f44336; }
  </style>
 </defs>
 <g transform="translate(3,3)">
  <path style="fill:currentColor" class="ColorScheme-Text" d="M 8 1 A 7 7 0 0 0 1 8 A 7 7 0 0 0 8 15 A 7 7 0 0 0 15 8 A 7 7 0 0 0 8 1 z M 5 5 A 1 1 0 0 1 6 6 A 1 1 0 0 1 5 7 A 1 1 0 0 1 4 6 A 1 1 0 0 1 5 5 z M 11 5 A 1 1 0 0 1 12 6 A 1 1 0 0 1 11 7 A 1 1 0 0 1 10 6 A 1 1 0 0 1 11 5 z M 4 10 L 12 10 C 12 10 11 12 8 12 C 5 12 4 10 4 10 z"/>
 </g>
</svg>
