<svg xmlns="http://www.w3.org/2000/svg" width="16" height="16" version="1.1">
 <rect style="fill:#8fb633" width="16" height="16" x="0" y="0" rx=".8" ry=".8"/>
 <path style="fill:#f4f4f7" d="M 3,3 V 13 H 7 V 11 H 5 V 5 H 11 V 9 H 9 L 12,13 15,9 H 13 V 3 Z"/>
</svg>
