<svg xmlns="http://www.w3.org/2000/svg" width="16" height="16" version="1.1">
 <path style="fill:#323a41" d="M 2,3 C 1,3 1,4 1,4 V 12 C 1,13 2,13 2,13 H 14 C 15,13 15,12 15,12 V 4 C 15,3 14,3 14,3 Z M 4,6 H 12 L 8,10 Z"/>
</svg>
