<svg xmlns="http://www.w3.org/2000/svg" width="16" height="16" version="1.1">
 <path style="opacity:0.3;fill:#323a41" d="M 8,0 10.12,5.88 16,6.2 11.43,9.91 12.94,16 8,12.4 3.06,16 4.57,9.91 0,6.2 5.88,5.88 Z"/>
 <path d="M 8,0 10.12,5.88 16,6.2 11.43,9.91 12.94,16 8,12.4 Z" style="fill:#323a41"/>
</svg>
