<svg xmlns="http://www.w3.org/2000/svg" width="16" height="16" version="1.1">
 <path style="fill:#323a41" d="M 10,8 C 8.69,8 7.6,8.86 7.19,10.03 5.96,10.19 5,11.23 5,12.5 5,13.88 6.12,15 7.5,15 H 12.5 C 13.88,15 15,13.88 15,12.5 15,11.23 14.04,10.19 12.81,10.03 12.41,8.86 11.31,8 10,8 Z"/>
 <path style="fill:#323a41" d="M 8,0 C 5.93,0 4.1702,1.2705 3.4102,3.0605 1.4802,3.3505 0,4.99 0,7 0,9.21 1.79,11 4,11 H 4.3945 C 4.8388,10.204 5.6169,9.6129 6.5234,9.3223 7.1696,8.0017 8.4228,7 10,7 11.573,7 12.83,7.9972 13.473,9.3203 13.983,9.4834 14.453,9.7437 14.848,10.08 15.551,9.4395 16,8.5242 16,7.5 16,5.7 14.65,4.2293 12.91,4.0293 12.45,1.7393 10.43,0 8,0 Z"/>
</svg>
