<svg xmlns="http://www.w3.org/2000/svg" width="24" height="24" version="1.1">
 <defs>
  <style id="current-color-scheme" type="text/css">
   .ColorScheme-Text { color:#323a41; } .ColorScheme-Highlight { color:#4285f4; } .ColorScheme-NeutralText { color:#ff9800; } .ColorScheme-PositiveText { color:#4caf50; } .ColorScheme-NegativeText { color:#f44336; }
  </style>
 </defs>
 <g transform="translate(-200 -548.36)">
  <path style="fill:currentColor" class="ColorScheme-Text" d="m 210.5,553.36 c -0.79399,9.7e-4 -0.78072,0.0333 -0.53125,1.0312 l 1.625,4.9688 -4.5,0 -1.2188,-1.7812 c -0.13926,-0.20883 -0.1227,-0.21873 -0.34375,-0.21875 l -0.21875,0 c -0.42773,0 -0.29245,0.4375 -0.29245,0.4375 l 0.29245,2.5625 -0.29245,2.5625 c 0,0 -0.12866,0.43749 0.2612,0.4375 l 0.25,0 c 0.21159,0 0.20422,-0.009 0.34375,-0.21875 l 1.2188,-1.7812 4.5,0 -1.625,4.9375 c -0.26171,1.0469 -0.2647,1.0625 0.53125,1.0625 0.43199,0 0.43388,-0.0117 0.71875,-0.5 l 3.6875,-5.5 3.0938,0 c 0.554,0 1,-0.446 1,-1 0,-0.554 -0.446,-1 -1,-1 l -3.0938,0 -3.6875,-5.5 c -0.2665,-0.45685 -0.2833,-0.49822 -0.65625,-0.5 l -0.0625,0 z"/>
 </g>
</svg>
