<svg xmlns="http://www.w3.org/2000/svg" width="24" height="24" version="1.1">
 <defs>
  <style id="current-color-scheme" type="text/css">
   .ColorScheme-Text { color:#323a41; } .ColorScheme-Highlight { color:#4285f4; } .ColorScheme-NeutralText { color:#ff9800; } .ColorScheme-PositiveText { color:#4caf50; } .ColorScheme-NegativeText { color:#f44336; }
  </style>
 </defs>
 <g transform="translate(1,1)">
  <path style="fill:currentColor" class="ColorScheme-Text" d="M 11,5 C 9.34,5 8,6.34 8,8 8,9.24 8.74,10.3 9.82,10.76 L 8,17 H 14 L 12.18,10.76 C 13.26,10.3 14,9.24 14,8 14,6.34 12.66,5 11,5 Z"/>
 </g>
</svg>
