<svg xmlns="http://www.w3.org/2000/svg" width="24" height="24" version="1.1">
 <defs>
  <style id="current-color-scheme" type="text/css">
   .ColorScheme-Text { color:#323a41; } .ColorScheme-Highlight { color:#4285f4; } .ColorScheme-NeutralText { color:#ff9800; } .ColorScheme-PositiveText { color:#4caf50; } .ColorScheme-NegativeText { color:#f44336; }
  </style>
 </defs>
 <path style="fill:currentColor" class="ColorScheme-Text" d="M 12.779,6.0011 C 12.728,5.9956 12.676,6.011 12.637,6.0461 12.597,6.0811 12.573,6.1317 12.568,6.1867 L 12.342,8.673 C 12.331,8.7874 12.411,8.8905 12.518,8.9015 13.136,8.9657 13.731,9.1445 14.289,9.4328 14.38,9.4853 14.488,9.4406 14.549,9.3351 L 15.561,7.0851 C 15.607,6.9816 15.567,6.8577 15.471,6.8078 14.623,6.37 13.717,6.0986 12.779,6.0011 Z M 10.916,6.0382 C 9.9825,6.174 9.0878,6.4831 8.2559,6.9562 8.1611,7.0101 8.1256,7.1359 8.1758,7.2375 L 9.2676,9.4445 C 9.3025,9.515 9.3699,9.5539 9.4395,9.5539 9.4702,9.5539 9.5003,9.5469 9.5293,9.5304 10.077,9.2188 10.667,9.0163 11.281,8.9269 11.388,8.9115 11.462,8.8065 11.447,8.6925 L 11.135,6.216 C 11.12,6.1021 11.022,6.0229 10.916,6.0382 Z M 16.902,7.8351 C 16.851,7.8408 16.804,7.8685 16.771,7.9113 L 15.301,9.8488 C 15.268,9.8916 15.254,9.9462 15.26,10.002 15.265,10.056 15.29,10.107 15.33,10.142 15.813,10.563 16.218,11.065 16.537,11.636 16.574,11.701 16.639,11.738 16.705,11.738 16.739,11.738 16.774,11.729 16.805,11.709 L 18.805,10.427 C 18.898,10.368 18.922,10.23 18.871,10.142 18.389,9.2775 17.775,8.5163 17.045,7.88 17.005,7.8452 16.954,7.8296 16.902,7.8351 Z M 6.8613,8.0421 C 6.8097,8.0386 6.7594,8.0565 6.7207,8.0929 6.0139,8.759 5.427,9.5438 4.9766,10.427 4.9519,10.476 4.9465,10.535 4.9609,10.587 4.9754,10.64 5.0075,10.684 5.0527,10.711 L 7.0977,11.91 C 7.1893,11.963 7.3022,11.928 7.3613,11.826 7.659,11.242 8.048,10.723 8.5156,10.283 8.5544,10.246 8.5768,10.195 8.5801,10.14 8.5834,10.085 8.5672,10.029 8.5332,9.9875 L 6.9941,8.1125 C 6.9602,8.071 6.9128,8.0457 6.8613,8.0421 Z M 19.393,11.834 17.168,12.58 C 17.066,12.614 17.009,12.732 17.041,12.841 17.201,13.388 17.294,13.958 17.281,14.537 L 17.275,14.802 C 17.272,14.888 17.346,15.021 17.461,15.021 L 19.797,15.136 C 19.9,15.136 19.985,15.049 19.99,14.937 19.996,14.798 20,14.537 20,14.537 20,13.662 19.877,12.799 19.635,11.97 19.603,11.861 19.495,11.799 19.393,11.834 Z M 11.893,14.097 8.7382,12.103 C 8.7382,12.103 8.6554,12.069 8.6132,12.074 8.6132,12.074 8.5304,12.099 8.4981,12.132 8.4333,12.199 8.4187,12.304 8.4609,12.388 L 10.182,15.845 C 10.182,15.845 10.172,15.981 10.172,16.048 10.172,16.57 10.361,17.059 10.705,17.427 11.049,17.796 11.506,18 11.992,18 12.479,18 12.937,17.796 13.281,17.427 13.625,17.059 13.814,16.57 13.814,16.048 13.814,15.527 13.625,15.036 13.281,14.668 12.938,14.299 12.48,14.096 11.994,14.095 Z M 4.5176,12.14 C 4.4679,12.126 4.4138,12.132 4.3691,12.16 4.3245,12.187 4.2928,12.233 4.2793,12.287 4.0945,13.017 4,13.774 4,14.537 4,14.667 4.0098,14.937 4.0098,14.937 4.0146,15.049 4.1,15.136 4.2032,15.136 L 6.5391,15.021 C 6.6374,15.017 6.7247,14.927 6.7247,14.802 6.7207,14.709 6.7188,14.537 6.7188,14.537 6.7188,14.032 6.7804,13.532 6.9024,13.05 6.9304,12.939 6.8691,12.825 6.7657,12.795 Z"/>
</svg>
