<svg xmlns="http://www.w3.org/2000/svg" width="24" height="24" version="1.1">
 <defs>
  <style id="current-color-scheme" type="text/css">
   .ColorScheme-Text { color:#323a41; } .ColorScheme-Highlight { color:#4285f4; } .ColorScheme-NeutralText { color:#ff9800; } .ColorScheme-PositiveText { color:#4caf50; } .ColorScheme-NegativeText { color:#f44336; }
  </style>
 </defs>
 <path d="m 3.9999999,7.9999998 c 2.0806,-1.9268 4.9494,-3 8.0000001,-3 3.051,0 5.919,1.0731 8,3 L 12,19 Z" style="fill:currentColor" class="ColorScheme-Text"/>
</svg>
