<svg xmlns="http://www.w3.org/2000/svg" width="24" height="24" version="1.1">
 <defs>
  <style id="current-color-scheme" type="text/css">
   .ColorScheme-Text { color:#323a41; } .ColorScheme-Highlight { color:#4285f4; } .ColorScheme-NeutralText { color:#ff9800; } .ColorScheme-PositiveText { color:#4caf50; } .ColorScheme-NegativeText { color:#f44336; }
  </style>
 </defs>
 <g transform="translate(0 -1028.4)">
  <path style="fill:currentColor" class="ColorScheme-Text" d="m13.007 1035.1-6.0353 6.0353c0.93684 0.3669 1.8137 0.9408 2.5577 1.6849a1.0001 1.0001 0 0 0 0.00141 0c0.74275 0.7446 1.3158 1.6211 1.6821 2.5577l6.0366-6.0366-4.2426-4.2427z"/>
  <path style="fill:currentColor" class="ColorScheme-Text" d="m7.4083 1032.2-1.4142 1.4142 1.4142 1.4143 1.4142-1.4143-1.4142-1.4142zm2.1213 2.1213-1.4142 1.4143 1.4142 1.4142 1.4142-1.4142-1.4142-1.4143zm-4.2426 0-1.4142 1.4143 1.4142 1.4142 1.4142-1.4142-1.4142-1.4143zm2.1213 2.1214-1.4142 1.4142 1.4142 1.4142 1.4142-1.4142-1.4142-1.4142z"/>
  <path style="fill:currentColor" class="ColorScheme-Text" d="m16.601 1041.4-1.4142 1.4142 1.4142 1.4142 1.4142-1.4142-1.4142-1.4142zm2.1213 2.1213-1.4142 1.4142 1.4142 1.4143 1.4142-1.4143-1.4142-1.4142zm-4.2426 0-1.4142 1.4142 1.4142 1.4143 1.4142-1.4143-1.4142-1.4142zm2.1213 2.1214-1.4142 1.4142 1.4142 1.4142 1.4142-1.4142-1.4142-1.4142z"/>
  <path style="fill:currentColor" class="ColorScheme-Text" d="m8.8225 1043.5c-1.3626-1.3626-3.2092-2.0601-4.9069-1.7857a0.50005 0.50005 0 0 0 -0.27347 0.848l6.1154 6.1154a0.50005 0.50005 0 0 0 0.848 -0.2735c0.2742-1.6964-0.4231-3.5409-1.783-4.9042z"/>
  <path fill-rule="evenodd" style="fill:currentColor" class="ColorScheme-Text" d="m16.295 6.6445l-0.826 0.8262 1.062 1.0605 0.826-0.8261c-0.453-0.2381-0.823-0.6072-1.062-1.0606z" transform="translate(0 1028.4)"/>
  <circle style="fill:currentColor" class="ColorScheme-Text" cx="18.5" cy="1033.9" r="1.5"/>
 </g>
</svg>
