<svg xmlns="http://www.w3.org/2000/svg" width="24" height="24" version="1.1">
 <defs>
  <style id="current-color-scheme" type="text/css">
   .ColorScheme-Text { color:#323a41; } .ColorScheme-Highlight { color:#4285f4; } .ColorScheme-NeutralText { color:#ff9800; } .ColorScheme-PositiveText { color:#4caf50; } .ColorScheme-NegativeText { color:#f44336; }
  </style>
 </defs>
 <g transform="translate(1,1)">
  <path style="fill:currentColor" class="ColorScheme-Text" d="m5 8v9c0.00005 0.52358 0.47642 0.99995 1 1h8 1c0.52358-0.00005 0.99995-0.47642 1-1v-9z"/>
  <path style="fill:currentColor" class="ColorScheme-Text" d="m4 6v1l13-0.003v-1c0-1-0.9998-1.0034-0.9998-1.0034h-3s0-1-1-1h-3c-1 0-1 1-1 1h-3c0.0002 0-1 0.003-1 1.0034z"/>
 </g>
</svg>
