<svg xmlns="http://www.w3.org/2000/svg" width="24" height="24" version="1.1">
 <defs>
  <style id="current-color-scheme" type="text/css">
   .ColorScheme-Text { color:#323a41; } .ColorScheme-Highlight { color:#4285f4; } .ColorScheme-NeutralText { color:#ff9800; } .ColorScheme-PositiveText { color:#4caf50; } .ColorScheme-NegativeText { color:#f44336; }
  </style>
 </defs>
 <g transform="translate(1,1)">
  <rect style="opacity:0" width="22" height="22" x="0" y="0"/>
  <path style="fill:none;stroke:currentColor;stroke-width:1.99999976;stroke-linecap:round" class="ColorScheme-Text" d="m 9.00315,14.999823 -2.0000011,-3 m -2.0000012,-1.000003 1.9999823,-3e-6 c 0.4238362,-1e-6 0.7290481,4.54e-4 1.00001,4.54e-4 0.999999,0 0.999999,0 0.999999,-1 0,-0.2567202 1.5e-5,-0.5997724 1.1e-5,-1.0004476 l -1.1e-5,-0.9995519 c 0,-1 0,-1 -0.999999,-1 -0.2245039,0 -0.5441121,0.00944 -0.8745184,0.00719 -1.1254903,-0.00765 -2.1254739,-0.00756 -2.1254739,-0.00756 M 5.003246,15 l 0,-8.0000002"/>
  <path style="fill:none;stroke:currentColor;stroke-width:1.99999976;stroke-linecap:round;stroke-linejoin:bevel" class="ColorScheme-Text" d="m 15.002904,6.9994202 c 2.399679,0 2.000001,2.000001 2.000001,3.9999988 0,2.000001 0.355578,4.061102 -2.000001,4.000003 -2.348587,0 -1.999997,-2.000002 -1.999997,-4.000003 0,-1.9999978 -0.435451,-3.9999988 1.999997,-3.9999988"/>
 </g>
</svg>
