<svg xmlns="http://www.w3.org/2000/svg" width="24" height="24" version="1.1">
 <defs>
  <style id="current-color-scheme" type="text/css">
   .ColorScheme-Text { color:#323a41; } .ColorScheme-Highlight { color:#4285f4; } .ColorScheme-NeutralText { color:#ff9800; } .ColorScheme-PositiveText { color:#4caf50; } .ColorScheme-NegativeText { color:#f44336; }
  </style>
 </defs>
 <g transform="translate(1,1)">
  <path style="fill:currentColor" class="ColorScheme-Text" d="m11.018 3c-3.8932 0-7.1297 2.5954-7.8344 6.0273-0.1202 0.5179-0.182 1.0467-0.1836 1.5767 0.0025 1.8923 0.77364 3.6911 2.1172 5.0625a3 3 0 0 1 1.8828 -0.666 3 3 0 0 1 3 3 3 3 0 0 1 -0.00195 0.03711c0.32607 0.03968 0.65412 0.06614 0.98438 0.06641 3.8345-0.0024 7.124-2.5669 7.8359-6.1074 0.117-0.506 0.182-1.03 0.182-1.568 0-4.103-3.574-7.428-7.982-7.428zm-1.018 4 2 3.5 5-2.5-6 6-1.5-3.5-4.5 2.5 5-6z"/>
  <circle style="fill:currentColor" class="ColorScheme-Highlight" cx="7" cy="18" r="2"/>
 </g>
</svg>
