<svg xmlns="http://www.w3.org/2000/svg" width="24" height="24" version="1.1">
 <defs>
  <style id="current-color-scheme" type="text/css">
   .ColorScheme-Text { color:#323a41; } .ColorScheme-Highlight { color:#4285f4; } .ColorScheme-NeutralText { color:#ff9800; } .ColorScheme-PositiveText { color:#4caf50; } .ColorScheme-NegativeText { color:#f44336; }
  </style>
 </defs>
 <g transform="translate(-32 -548.36)">
  <path style="fill:currentColor" class="ColorScheme-Text" d="m38 554.36s-1 0-1 1v9c0 1 1 1 1 1h2l1 1h6l1-1h2s1 0.12994 1-1v-9c0-1-1-1-1-1zm1 2h10v7h-2l-1 1h-4l-1-1h-2z"/>
 </g>
</svg>
