<svg xmlns="http://www.w3.org/2000/svg" width="24" height="24" version="1.1">
 <defs>
  <style id="current-color-scheme" type="text/css">
   .ColorScheme-Text { color:#323a41; } .ColorScheme-Highlight { color:#4285f4; } .ColorScheme-NeutralText { color:#ff9800; } .ColorScheme-PositiveText { color:#4caf50; } .ColorScheme-NegativeText { color:#f44336; }
  </style>
 </defs>
 <g transform="translate(1 .99938)">
  <path style="fill:currentColor" class="ColorScheme-Text" d="m10.5 3c-2.9648 0-5.368 2.3858-5.4648 5.3281-1.7615 0.6233-3.0326 2.2419-3.0352 4.1719 0 2.104 1.4964 3.8041 3.457 4.2891-0.0776 0.609-0.13091 1.217-0.38281 1.832a1.0001 1.0001 0 0 0 1.1602 1.352c2.1096-0.51 3.7836-1.588 5.1386-2.973h3.627c2.75 0 5-2.25 5-5 0-1.737-0.92506-3.2173-2.2891-4.0879a3 3 0 0 1 -0.711 0.0879 3 3 0 0 1 -3 -3 3 3 0 0 1 0.061 -0.5996c-0.95-0.8628-2.184-1.3988-3.559-1.4004a1.0001 1.0001 0 0 0 -0.002 0zm1.5 9h3c0.554 0 1 0.446 1 1s-0.446 1-1 1h-3c-0.554 0-1-0.446-1-1s0.446-1 1-1z"/>
  <path style="fill:currentColor" class="ColorScheme-Highlight" d="m19 4.9995a2 2 0 0 1 -4 0 2 2 0 1 1 4 0z"/>
 </g>
</svg>
