<svg xmlns="http://www.w3.org/2000/svg" width="24" height="24" version="1.1">
 <defs>
  <style id="current-color-scheme" type="text/css">
   .ColorScheme-Text { color:#323a41; } .ColorScheme-Highlight { color:#4285f4; } .ColorScheme-NeutralText { color:#ff9800; } .ColorScheme-PositiveText { color:#4caf50; } .ColorScheme-NegativeText { color:#f44336; }
  </style>
 </defs>
 <path style="fill:currentColor" class="ColorScheme-Text" d="M 17.261719,3 A 0.26473917,0.26473917 0 0 0 17,3.265625 V 4 H 9 C 8,4 6.8707529,3.9464595 5.8027344,4.4804688 4.7347158,5.0144779 4,6.2777778 4,8 v 9 H 6 V 8 C 6,6.7222222 6.2652842,6.4855221 6.6972656,6.2695312 7.1292471,6.0535406 8,6 9,6 h 9 1.736328 A 0.26473917,0.26473917 0 0 0 19.921875,5.5488281 L 17.451172,3.078125 A 0.26473917,0.26473917 0 0 0 17.261719,3 Z M 18,7 v 9 c 0,1.277778 -0.265284,1.514478 -0.697266,1.730469 C 16.870753,17.946459 16,18 15,18 H 6.7539062 6.734375 6 4.2636719 A 0.26473917,0.26473917 0 0 0 4.078125,18.451172 l 2.4707031,2.470703 A 0.26473917,0.26473917 0 0 0 6.7382812,21 0.26473917,0.26473917 0 0 0 7,20.734375 V 20 h 8 c 1,0 2.129247,0.05354 3.197266,-0.480469 C 19.265284,18.985522 20,17.722222 20,16 V 7 Z m -8,3 c -0.554,0 -1,0.446 -1,1 v 1 c 0,0.554 0.446,1 1,1 0.554,0 1,-0.446 1,-1 v -1 c 0,-0.554 -0.446,-1 -1,-1 z m 4,0 c -0.554,0 -1,0.446 -1,1 v 1 c 0,0.554 0.446,1 1,1 0.554,0 1,-0.446 1,-1 v -1 c 0,-0.554 -0.446,-1 -1,-1 z"/>
</svg>
