<svg xmlns="http://www.w3.org/2000/svg" width="24" height="24" version="1.1">
 <defs>
  <style id="current-color-scheme" type="text/css">
   .ColorScheme-Text { color:#323a41; } .ColorScheme-Highlight { color:#4285f4; } .ColorScheme-NeutralText { color:#ff9800; } .ColorScheme-PositiveText { color:#4caf50; } .ColorScheme-NegativeText { color:#f44336; }
  </style>
 </defs>
 <g transform="translate(-473 -1003.4)">
  <path style="fill:currentColor" class="ColorScheme-Text" d="m479 1007.4c-2 0-2 2-2 2v12c0 2 2 2 2 2h12s2 0 2-2v-12c0-2-2-2-2-2h-12zm0 1.9981h12v12h-12v-12zm1 4v7h10v-7h-10z"/>
 </g>
</svg>
