<svg xmlns="http://www.w3.org/2000/svg" width="24" height="24" version="1.1">
 <defs>
  <style id="current-color-scheme" type="text/css">
   .ColorScheme-Text { color:#323a41; } .ColorScheme-Highlight { color:#4285f4; } .ColorScheme-NeutralText { color:#ff9800; } .ColorScheme-PositiveText { color:#4caf50; } .ColorScheme-NegativeText { color:#f44336; }
  </style>
 </defs>
 <path style="fill:currentColor" class="ColorScheme-Text" d="m11.998 5s-3.7785 0.0005531-6.2969 0.18945c-0.35178 0.044-1.1182 0.048016-1.8027 0.79102-0.53956 0.5664-0.71484 1.8516-0.71484 1.8516s-0.17709 1.511-0.17969 3.0215l-0.00391 2.2871c-0.0026 1.5106 0.17969 3.0215 0.17969 3.0215s0.17528 1.2851 0.71484 1.8516c0.68457 0.7435 1.5839 0.72093 1.9844 0.79883 1.4397 0.143 6.1191 0.187 6.1191 0.187s1.2112-0.01504 2.4082-0.03906c-0.26005-0.60369-0.40625-1.2648-0.40625-1.9609 0-2.7495 2.2504-5 5-5 0.71006 0 1.3847 0.15382 1.998 0.42383l0.002-1.5703c0.0026-1.5105-0.17969-3.0215-0.17969-3.0215s-0.17524-1.2852-0.71484-1.8516c-0.684-0.7439-1.452-0.7479-1.804-0.7914-2.519-0.1889-6.295-0.1895-6.295-0.1895h-0.0078zm-2.998 3 6 4.014-6 3.986v-8z"/>
 <path style="fill:currentColor" class="ColorScheme-Text" d="m19 13c-2.2091 0-4 1.7909-4 4s1.7909 4 4 4 4-1.7909 4-4-1.7909-4-4-4zm0 1a3 3 0 0 1 3 3h-1a2 2 0 0 0 -2 -2v-1zm-3 3h1a2 2 0 0 0 2 2v1a3 3 0 0 1 -3 -3z"/>
</svg>
