<svg xmlns="http://www.w3.org/2000/svg" width="64" height="64" version="1.1">
 <path style="opacity:0.2" d="m 29.916302,5 c 0.314496,0.1568024 0.674324,0.2744042 0.957682,0.4894474 0.54541,0.4186062 1.076654,0.865773 1.565396,1.3479402 0.536908,0.5289278 1.092234,0.8288124 1.875642,0.9898148 1.882724,0.3816458 2.994698,0.804172 4.754176,1.5422636 3.912782,1.646704 6.502414,4.748591 8.348306,8.479647 1.637645,3.316649 1.667395,6.911903 1.532814,10.523957 -0.277663,7.452032 -4.717012,12.892514 -7.091314,18.627 H 41.244178 C 42.170666,47.00007 43,47.62308 43,48.39729 v 2.805364 c 0,0.77421 -0.829334,1.79673 -1.755822,1.79673 h 1.31989 C 43.775302,52.999384 45,53.934598 45,55.096616 v 3.806152 C 45,60.064786 43.775302,61 42.564068,61 H 23.252 C 22.040766,61 21,60.064786 21,58.902768 v -3.806152 c 0,-1.162018 1.040766,-2.097232 2.252,-2.097232 h 1.319822 C 23.645334,52.999384 23,51.976864 23,51.202654 V 48.39729 c 0,-0.77421 0.645334,-1.39722 1.571822,-1.39722 h -0.25783 C 23.713334,46.442862 23.739622,45.444646 23.20413,44.874838 20.777412,42.3072 20.343916,38.662944 22.048144,35.542298 22.881132,34.019076 24.0527,32.782856 25.404182,31.72584 26.925662,30.536104 28.498142,29.414686 30.0324,28.242868 30.471562,27.906864 30.41634,27.526408 31,27 c -1.446398,0.305204 -2.157614,0.68286 -3.322096,0.741662 -2.010224,0.098 -3.744202,0.965916 -5.353514,2.136334 -0.621908,0.452206 -1.3444,0.814812 -2.072556,1.066816 -0.94632,0.324526 -1.416648,0.0924 -1.980474,-0.763012 -0.14874,-0.226802 -0.237998,-0.485806 -0.379662,-0.782612 -1.120568,0.028 -1.73681,-0.831514 -2.044222,-1.86753 -0.10484,-0.354206 -0.28333,-0.68181 -0.412246,-1.026216 -0.871238,-2.307234 -0.423576,-4.349864 1.245234,-6.130692 0.372578,-0.407406 0.815988,-0.74621 1.205568,-1.136816 1.300482,-1.29922 2.60805,-2.591439 3.875948,-3.921459 0.920822,-0.967415 1.749562,-2.020231 2.678882,-2.980085 0.46041,-0.472927 0.848572,-0.946414 1.062486,-1.580624 C 25.826344,9.805432 26.43267,9.073781 27.31524,8.5792936 27.62832,8.402891 28.726318,8.199888 28.95298,8.0542858 29.31706,6.99363 28.454322,5.66669 29.916302,5 Z"/>
 <path style="fill:#b2bfd9" d="m 29.916302,4 c 0.314496,0.1568024 0.674324,0.2744042 0.957682,0.4894474 0.54541,0.4186062 1.076654,0.865773 1.565396,1.3479402 0.536908,0.5289278 1.092234,0.8288124 1.875642,0.9898148 1.882724,0.3816458 2.994698,0.804172 4.754176,1.5422632 3.912782,1.6467044 6.502414,4.7485914 8.348306,8.4796474 1.637645,3.316649 1.667395,6.911903 1.532814,10.523957 -0.277663,7.452032 -4.717012,12.892514 -7.091314,18.627 H 41.244178 C 42.170666,46.00007 43,46.62308 43,47.39729 v 2.805364 c 0,0.77421 -0.829334,1.79673 -1.755822,1.79673 h 1.31989 C 43.775302,51.999384 45,52.934598 45,54.096616 v 3.806152 C 45,59.064786 43.775302,60 42.564068,60 H 23.252 C 22.040766,60 21,59.064786 21,57.902768 v -3.806152 c 0,-1.162018 1.040766,-2.097232 2.252,-2.097232 h 1.319822 C 23.645334,51.999384 23,50.976864 23,50.202654 V 47.39729 c 0,-0.77421 0.645334,-1.39722 1.571822,-1.39722 h -0.25783 C 23.713334,45.442862 23.739622,44.444646 23.20413,43.874838 20.777412,41.3072 20.343916,37.662944 22.048144,34.542298 22.881132,33.019076 24.0527,31.782856 25.404182,30.72584 26.925662,29.536104 28.498142,28.414686 30.0324,27.242868 30.471562,26.906864 30.41634,26.526408 31,26 c -1.446398,0.305204 -2.157614,0.68286 -3.322096,0.741662 -2.010224,0.098 -3.744202,0.965916 -5.353514,2.136334 -0.621908,0.452206 -1.3444,0.814812 -2.072556,1.066816 -0.94632,0.324526 -1.416648,0.0924 -1.980474,-0.763012 -0.14874,-0.226802 -0.237998,-0.485806 -0.379662,-0.782612 -1.120568,0.028 -1.73681,-0.831514 -2.044222,-1.86753 -0.10484,-0.354206 -0.28333,-0.68181 -0.412246,-1.026216 -0.871238,-2.307234 -0.423576,-4.349864 1.245234,-6.130691 0.372578,-0.407406 0.815988,-0.746212 1.205568,-1.136817 1.300482,-1.29922 2.60805,-2.591439 3.875948,-3.921459 0.920822,-0.967415 1.749562,-2.020231 2.678882,-2.980085 0.46041,-0.472927 0.848572,-0.946414 1.062486,-1.5806236 C 25.826344,8.805432 26.43267,8.0737812 27.31524,7.5792936 27.62832,7.402891 28.726318,7.199888 28.95298,7.0542858 29.31706,5.99363 28.454322,4.66669 29.916302,4 Z"/>
 <path style="opacity:0.2;fill:#8b9cbe" d="m 29.916016,4 c 0.314496,0.1568024 0.673673,0.2751912 0.957031,0.4902344 0.54541,0.4186062 1.077664,0.865489 1.566406,1.3476562 0.536908,0.5289278 1.091592,0.829232 1.875,0.9902344 1.882724,0.3816458 2.994428,0.8029244 4.753906,1.5410156 3.912782,1.6467044 6.503718,4.7494124 8.34961,8.4804684 1.325037,2.68354 1.583928,5.551291 1.568359,8.460938 -0.05358,-2.565531 -0.395253,-5.085098 -1.568359,-7.460938 C 45.572077,14.118553 42.981141,11.015845 39.068359,9.3691406 37.308881,8.6310494 36.197177,8.2097708 34.314453,7.828125 33.531045,7.6671226 32.976361,7.3668184 32.439453,6.8378906 31.950711,6.3557234 31.418457,5.9088406 30.873047,5.4902344 30.589689,5.2751912 30.230512,5.1568024 29.916016,5 29.295242,5.2830841 29.103221,5.6884396 29.048828,6.1386719 29.018356,5.3141778 28.8559,4.4834323 29.916016,4 Z m -0.882813,2.6757812 c 0.01811,0.4626304 0.06994,0.9418783 -0.08008,1.3789063 -0.226662,0.1456022 -1.325592,0.348988 -1.638672,0.5253906 -0.88257,0.4944876 -1.487551,1.2254473 -1.810547,2.1757809 -0.213914,0.63421 -0.60209,1.107151 -1.0625,1.580079 -0.92932,0.959853 -1.758865,2.013053 -2.679687,2.980468 -1.267898,1.33002 -2.574518,2.622655 -3.875,3.921875 -0.38958,0.390605 -0.834454,0.729313 -1.207031,1.136719 -0.993349,1.060026 -1.543001,2.214799 -1.650391,3.460938 -0.167248,-1.635876 0.395834,-3.122171 1.650391,-4.460938 0.372577,-0.407406 0.817451,-0.746114 1.207031,-1.136719 1.300482,-1.29922 2.607102,-2.591855 3.875,-3.921875 0.920822,-0.967415 1.750367,-2.020615 2.679687,-2.980468 0.46041,-0.472928 0.848586,-0.945869 1.0625,-1.5800786 0.322998,-0.9503344 0.927979,-1.6812937 1.810549,-2.1757813 0.31308,-0.1764026 1.41201,-0.3797884 1.638672,-0.5253906 0.04225,-0.1230867 0.06532,-0.2500954 0.08008,-0.3789063 z M 31,27 c -0.58366,0.526408 -0.527635,0.906183 -0.966797,1.242188 -1.534258,1.171817 -3.107426,2.294639 -4.628906,3.484374 -1.351482,1.057017 -2.522481,2.293185 -3.355469,3.816407 -0.593565,1.086889 -0.911154,2.236498 -0.992187,3.382812 -0.0858,-1.470665 0.225211,-2.978387 0.992187,-4.382812 0.832988,-1.523222 2.003987,-2.759391 3.355469,-3.816407 1.52148,-1.189735 3.094648,-2.312557 4.628906,-3.484374 0.0033,-0.0025 0.0045,-0.0053 0.0078,-0.0078 C 30.327838,27.155603 30.640641,27.075828 31,27 Z M 23.822266,46.164062 C 23.938471,46.474863 24.072458,46.77551 24.314453,47 h 0.257813 C 23.645778,47 23,47.622274 23,48.396484 v -1 c 0,-0.53967 0.318487,-0.999485 0.822266,-1.232422 z m 18.384765,0.07422 C 42.676194,46.48885 43,46.912603 43,47.396484 v 1 C 43,47.622274 42.170629,47 41.244141,47 h 0.615234 c 0.105653,-0.255177 0.234373,-0.507503 0.347656,-0.761718 z M 23.205078,52.003907 C 23.464021,52.539225 23.951952,53 24.572266,53 H 23.251953 C 22.040719,53 21,53.933685 21,55.095703 v -1 c 0,-1.14674 1.014341,-2.06765 2.205078,-2.091796 z m 19.53711,0.01172 C 43.892201,52.101539 45,52.99089 45,54.095703 v 1 C 45,53.933685 43.775687,53 42.564453,53 h -1.320312 c 0.615889,0 1.183105,-0.453984 1.498047,-0.984375 z"/>
</svg>
