<svg width="64" height="64" version="1.1" xmlns="http://www.w3.org/2000/svg">
 <rect x="4" y="5" width="56" height="56" rx="2" ry="2" style="opacity:.2"/>
 <rect x="4" y="4" width="56" height="56" rx="2" ry="2" style="fill:#595552"/>
 <path d="m10 10 5 9h22l-5 6 3-2-1 2 3-2-7 6v-1l-1 2 1 2-7 8-3 3v3l2 2-3 2h2l-2 3 7-7-7 11 9-8 1-3v-2l3-3v1l4-1 4-4-1-1-2 2v-2l3-3.047619v-2.952381l14-20z" style="opacity:.2"/>
 <path d="m10 9 5 9h22l-5 6 3-2-1 2 3-2-7 6v-1l-1 2 1 2-7 8-3 3v3l2 2-3 2h2l-2 3 7-7-7 11 9-8 1-3v-2l3-3v1l4-1 4-4-1-1-2 2v-2l3-3.047619v-2.952381l14-20z" style="fill:#c6241d"/>
 <path d="m6 4c-1.108 0-2 0.892-2 2v1c0-1.108 0.892-2 2-2h52c1.108 0 2 0.892 2 2v-1c0-1.108-0.892-2-2-2h-52z" style="fill:#8b9cbe;opacity:.1"/>
 <path d="m10 9 0.554688 1h42.746093l0.699219-1h-44zm26.166016 10-4.166016 5 1.875-1.25 3.125-3.75h-0.833984zm-1.166016 4-0.75 0.5-0.25 0.5 0.75-0.5 0.25-0.5zm2 0-3 2 0.375-0.75-4.375 3.75v1l7-6zm-7 5v-1l-1 2 0.25 0.5 0.75-1.5zm-0.318359 3.363281-6.681641 7.636719-3 3v1l3-3 7-8-0.318359-0.636719zm9.318359 3.636719-2 2v1l2-2 0.5 0.5 0.5-0.5-1-1zm-13 11-1.75 1.75-5.25 8.25 1.464844-1.302734 5.535156-8.697266zm-4.599609 1.400391-2.400391 1.599609h1.5l1.5-1-0.599609-0.599609zm-1.066407 2.599609-1.333984 2 2-2h-0.666016z" style="fill:#8b9cbe;opacity:.2"/>
</svg>
