<svg xmlns="http://www.w3.org/2000/svg" height="64" width="64" version="1.1">
 <circle cx="32" cy="33" r="28" style="opacity:.2"/>
 <circle cx="32" cy="32" r="28" style="fill:#4f4f4f"/>
 <path d="m32 4a28 28 0 0 0 -28 28 28 28 0 0 0 0.0215 0.586 28 28 0 0 1 27.9785 -27.586 28 28 0 0 1 27.979 27.414 28 28 0 0 0 0.021 -0.414 28 28 0 0 0 -28 -28z" style="opacity:.1;fill:#8b9cbe"/>
 <path style="opacity:.2" d="m32 5a28 28 0 0 0 -2 0.072266v14.142578l-12.464844 13.423828a2.0002 2.0002 0 0 0 0.05078 2.77539l12.414064 12.414063v13.070313a28 28 0 0 0 2 0.101562 28 28 0 0 0 2 -0.07227v-13.037105l7.927734-7.134766 1.658204 1.658203a2.0002 2.0002 0 1 0 2.828124 -2.828124l-3-3a2.0002 2.0002 0 0 0 -2.751953 -0.07227l-8.589843 7.730469-10.294922-10.294922 10.27539-11.06836 8.533204 8.533203a2.0002 2.0002 0 0 0 2.828124 0l3-3a2.0002 2.0002 0 1 0 -2.828124 -2.82812l-1.585938 1.585937-8-8v-14.070312a28 28 0 0 0 -2 -0.101563zm0 26a3 3 0 0 0 -3 3 3 3 0 0 0 3 3 3 3 0 0 0 3 -3 3 3 0 0 0 -3 -3z"/>
 <path style="fill:#bedbd9" d="m32 4a28 28 0 0 0 -2 0.0722656v14.142578l-12.464844 13.423828a2.0002 2.0002 0 0 0 0.050782 2.77539l12.414062 12.414063v13.070313a28 28 0 0 0 2 0.101562 28 28 0 0 0 2 -0.072266v-13.037109l7.927734-7.134766 1.658204 1.658203a2.0002 2.0002 0 1 0 2.828124 -2.828124l-3-3a2.0002 2.0002 0 0 0 -2.751953 -0.072266l-8.589843 7.730469-10.294922-10.294922 10.27539-11.06836 8.533204 8.533203a2.0002 2.0002 0 0 0 2.828124 0l3-3a2.0002 2.0002 0 1 0 -2.828124 -2.828124l-1.585938 1.585937-8-8v-14.070312a28 28 0 0 0 -2 -0.101563zm0 26a3 3 0 0 0 -3 3 3 3 0 0 0 3 3 3 3 0 0 0 3 -3 3 3 0 0 0 -3 -3z"/>
 <path style="fill:#8b9cbe;opacity:.2" d="m32 4a28 28 0 0 0 -2 0.0722656v1a28 28 0 0 1 2 -0.0722656 28 28 0 0 1 2 0.1015625v-1a28 28 0 0 0 -2 -0.1015625zm2 14.171875v1l8 8 1.585938-1.585937a2.0002 2.0002 0 0 1 3.376953 0.882812 2.0002 2.0002 0 0 0 -3.376953 -1.882812l-1.585938 1.585937-8-8zm-4 0.042969l-12.464844 13.423828a2.0002 2.0002 0 0 0 -0.470703 1.863281 2.0002 2.0002 0 0 1 0.470703 -0.863281l12.464844-13.423828v-1zm2 11.785156a3 3 0 0 0 -3 3 3 3 0 0 0 0.042969 0.486328 3 3 0 0 1 2.957031 -2.486328 3 3 0 0 1 2.957031 2.513672 3 3 0 0 0 0.042969 -0.513672 3 3 0 0 0 -3 -3zm-9.742188 3.429688l-0.480468 0.519531 10.294922 10.294922 8.589843-7.730469a2.0002 2.0002 0 0 1 2.751953 0.072266l3 3a2.0002 2.0002 0 0 1 0.548829 0.945312 2.0002 2.0002 0 0 0 -0.548829 -1.945312l-3-3a2.0002 2.0002 0 0 0 -2.751953 -0.072266l-8.589843 7.730469-9.814454-9.814453z"/>
</svg>
