<svg width="64" height="64" version="1.1" xmlns="http://www.w3.org/2000/svg">
 <path d="m8.1740194 27.004047c-2.9002112-0.12456-4.9632426 2.78453-3.886558 5.48047l7.9996696 20c0.67538 1.68932 2.405565 2.710138 4.210761 2.484374l15.503265-1.9375 15.503264 1.9375c1.805199 0.225766 3.535384-0.795056 4.210764-2.484374l7.999669-20c1.081507-2.705696-0.999747-5.622896-3.909994-5.48047-0.797411 0.03982-1.564666 0.317342-2.203035 0.796876l-21.600668 16.199218-21.600668-16.199218c-0.6448931-0.483944-1.4209689-0.761708-2.2264696-0.796876z" style="opacity:.2"/>
 <path d="m8.1740194 26.003906c-2.9002112-0.12456-4.9632426 2.78453-3.886558 5.48047l7.9996696 20c0.67538 1.68932 2.405565 2.710138 4.210761 2.484374l15.999338-2c3.566705-0.44913 4.776894-5.009268 1.902265-7.167968l-23.999006-18c-0.6448931-0.483944-1.4209689-0.761708-2.2264696-0.796876z" style="fill:#2d77b5"/>
 <path d="m55.80486 26.003906c-0.797411 0.03982-1.564666 0.317342-2.203035 0.796876l-23.999007 18c-2.874629 2.1587-1.664439 6.718838 1.902265 7.167968l15.999338 2c1.805199 0.225766 3.535384-0.795054 4.210764-2.484374l7.999669-20c1.081507-2.705694-0.999747-5.622896-3.909994-5.48047z" style="fill:#2d77b5"/>
 <path d="m8.1738281 26.001953c-2.546055-0.109349-4.4447583 2.12031-4.1425781 4.490235 0.2523822-1.959201 1.9595277-3.583994 4.1425781-3.490235 0.8055007 0.035168 1.5816694 0.312931 2.2265629 0.796875l21.601562 16.199219 21.599609-16.199219c0.63837-0.479534 1.405715-0.757055 2.203126-0.796875 2.193462-0.107347 3.913617 1.523931 4.166015 3.492188 0.305811-2.380027-1.609034-4.617325-4.166015-4.492188-0.797411 0.03982-1.564756 0.317341-2.203126 0.796875l-21.599609 16.199219-21.601562-16.199219c-0.6448935-0.483944-1.4210622-0.761707-2.2265629-0.796875z" style="fill:#8b9cbe;opacity:.2"/>
 <path d="m31.887879 9.0048696c-1.567677 0.044-2.965039 1.0000444-3.57407 2.4453124l-15.999337 37.999999c-1.192067 2.836494 1.130435 5.900762 4.18342 5.519532l15.503265-1.9375 15.503264 1.9375c3.052988 0.38123 5.37549-2.683038 4.183421-5.519532l-15.999338-37.999999c-0.641013-1.5212364-2.150583-2.4924884-3.800625-2.4453124z" style="opacity:.2"/>
 <path d="m31.887879 8.003905c-1.567677 0.044-2.965039 1.000044-3.57407 2.445312l-15.999337 38.000001c-1.192067 2.836494 1.130435 5.900762 4.18342 5.519532l15.503265-1.9375 15.503264 1.9375c3.052988 0.38123 5.37549-2.683038 4.183421-5.519532l-15.999338-38.000001c-0.641013-1.521234-2.150583-2.492488-3.800625-2.445312z" style="fill:#40d435"/>
 <path d="m18.782954 33.085938-6.468482 15.36328c-0.442862 1.05378-0.39625 2.1381-0.0118 3.066406 0.0146 0.03546 0.03532 0.0667 0.05078 0.10156 0.113356 0.253026 0.252302 0.49082 0.414047 0.714844 0.0318 0.04408 0.0603 0.09024 0.09374 0.13282 0.186753 0.23792 0.397016 0.457114 0.632786 0.648438 0.03574 0.02876 0.07662 0.05064 0.113276 0.07812 0.193852 0.14658 0.405105 0.273004 0.624974 0.382812 0.08456 0.04188 0.166453 0.08522 0.253895 0.1211 0.257805 0.10624 0.52903 0.1846 0.812467 0.234376 0.07468 0.0134 0.150833 0.0182 0.226552 0.02734 0.314405 0.03654 0.636837 0.05364 0.972617 0.0118l15.503263-1.937584 15.503264 1.9375c0.33578 0.04194 0.658213 0.02482 0.972616-0.0118 0.07572-0.0092 0.151874-0.014 0.226553-0.02734 0.283438-0.04978 0.554663-0.12812 0.812466-0.234376 0.08746-0.03586 0.169333-0.07922 0.253897-0.1211 0.219867-0.1098 0.431125-0.236234 0.624975-0.382812 0.03668-0.0275 0.07754-0.04936 0.113275-0.07812 0.235772-0.19132 0.446029-0.410518 0.632786-0.648438 0.03346-0.04258 0.06194-0.08874 0.09376-0.13282 0.161753-0.224024 0.300691-0.461818 0.414045-0.714844 0.0154-0.03486 0.03624-0.0661 0.05078-0.10156 0.384532-0.928306 0.431146-2.012626-0.0118-3.066406l-6.46842-15.363196-13.218203 9.914062z" style="fill:#257859"/>
 <path d="m31.888672 8.0019531c-1.567677 0.044-2.965188 1.0000441-3.574219 2.4453129l-16 38c-0.289308 0.688402-0.368118 1.390009-0.283203 2.052734 0.0454-0.349361 0.136401-0.703422 0.283203-1.052734l16-38c0.609031-1.445269 2.006542-2.4013129 3.574219-2.4453129 1.650042-0.047176 3.159768 0.9240749 3.800781 2.4453129l15.998047 38c0.146803 0.349312 0.237803 0.703373 0.283203 1.052734 0.084915-0.662725 0.006106-1.364332-0.283203-2.052734l-15.998047-38c-0.641013-1.5212374-2.150739-2.4924889-3.800781-2.4453129z" style="fill:#8b9cbe;opacity:.2"/>
</svg>
