<svg xmlns="http://www.w3.org/2000/svg" width="64" height="64" version="1">
 <path style="opacity:0.2" d="m 14.041016,5.0191978 a 2.0835416,2.0835416 0 0 0 -1.654297,3.2929688 l 5.919922,8.5566414 a 2.0835416,2.0835416 0 1 0 3.425781,-2.371094 L 15.814453,5.9410728 a 2.0835416,2.0835416 0 0 0 -1.773437,-0.921875 z m 35.855468,0 a 2.0835416,2.0835416 0 0 0 -1.710937,0.921875 l -5.917969,8.5566412 a 2.0835416,2.0835416 0 1 0 3.425781,2.371094 L 51.613281,8.3121666 A 2.0835416,2.0835416 0 0 0 49.896484,5.0191978 Z"/>
 <path style="opacity:0.2" d="M 57,33 V 56.8 C 57,59.1268 55.141667,61 52.833333,61 H 11.166667 C 8.8583331,61 6.9999998,59.1268 6.9999998,56.8 V 33 Z"/>
 <path style="fill:none;stroke:#1ebb68;stroke-width:4.16666651;stroke-linecap:round" d="M 49.899695,6.1273335 43.980499,14.683228"/>
 <path style="fill:none;stroke:#1ebb68;stroke-width:4.16666651;stroke-linecap:round" d="m 14.100305,6.1273335 5.919196,8.5558945"/>
 <path style="fill:#1ebb68" d="M 57,32 V 55.8 C 57,58.1268 55.141667,60 52.833333,60 H 11.166667 C 8.8583331,60 6.9999998,58.1268 6.9999998,55.8 V 32 Z"/>
 <path style="fill:#30dd81" d="M 32,6.9999998 A 25,25 0 0 0 6.9999998,32 H 57 A 25,25 0 0 0 32,6.9999998 Z"/>
 <path style="opacity:0.2" d="M 21.5,21 A 3.5,3.5 0 0 0 18,24.5 3.5,3.5 0 0 0 21.5,28 3.5,3.5 0 0 0 25,24.5 3.5,3.5 0 0 0 21.5,21 Z m 21,0 A 3.5,3.5 0 0 0 39,24.5 3.5,3.5 0 0 0 42.5,28 3.5,3.5 0 0 0 46,24.5 3.5,3.5 0 0 0 42.5,21 Z"/>
 <circle style="fill:#8b9cbe" cx="21.5" cy="23.5" r="3.5"/>
 <path style="opacity:0.2" d="M 22,39.384615 V 54.615384 C 22,54.615384 22,56 23.428572,56 H 40.571428 C 40.571428,56 42,56 42,54.615384 V 42.354308 C 42,40.969693 40.571428,41 40.571428,41 H 33.428572 L 30.571428,38 H 23.428572 C 23.428572,38 22,38 22,39.384615 Z"/>
 <path style="fill:#ffe963" d="M 22,38.384615 V 53.615384 C 22,53.615384 22,55 23.428572,55 H 40.571428 C 40.571428,55 42,55 42,53.615384 V 41.354308 C 42,39.969693 40.571428,40 40.571428,40 H 33.428572 L 30.571428,37 H 23.428572 C 23.428572,37 22,37 22,38.384615 Z"/>
 <circle style="fill:#8b9cbe" cx="-42.5" cy="23.5" r="3.5" transform="scale(-1,1)"/>
 <rect style="opacity:0.2" width="50" height="1" x="7" y="32"/>
 <path style="opacity:0.2;fill:#8b9cbe" d="M 32 7 A 25 25 0 0 0 7 32 L 7.0351562 32 A 25 25 0 0 1 32 8 A 25 25 0 0 1 56.949219 32 L 57 32 A 25 25 0 0 0 32 7 z"/>
 <path style="fill:#8b9cbe;opacity:0.2" d="M 23.427734 37 C 23.427734 37 22 37.000151 22 38.384766 L 22 39.384766 C 22 38.000151 23.427734 38 23.427734 38 L 30.572266 38 L 33.427734 41 L 40.572266 41 C 40.572266 41 42 40.968901 42 42.353516 L 42 41.353516 C 42 39.968901 40.572266 40 40.572266 40 L 33.427734 40 L 30.572266 37 L 23.427734 37 z"/>
</svg>
