<svg xmlns="http://www.w3.org/2000/svg" width="64" height="64" version="1.1">
 <circle style="opacity:.2" cx="32" cy="33" r="28"/>
 <circle style="fill:#248afd" cx="32" cy="32" r="28"/>
 <path style="opacity:.2" d="m32.092 6.0078c-1.747 0.1085-3.499 1.4462-4.701 2.6895-5.497 5.6647-8.845 13.059-12.125 20.198-2.74 6.049-4.796 12.386-6.4242 18.835a28 28 0 0 0 4.7362 5.309c-0.493-1.436 0.351-3.858 0.707-5.193 2.528-8.392 6.447-16.249 10.174-24.127 1.476-2.489 2.523-5.919 5.498-6.877 2.89-0.33 4.788 2.543 6.285 4.638 5.99 9.429 11.648 19.099 16.639 29.124a28 28 0 0 0 1.404 -1.692c-3.385-11.942-7.768-23.612-13.998-34.303-1.8-2.721-3.438-5.6736-5.867-7.8629-0.74-0.5838-1.534-0.7876-2.328-0.7383zm12.199 36.728c-9.251 4.701-18.772 9.111-28.881 11.461-0.188-0.001-0.357-0.02-0.514-0.049a28 28 0 0 0 5.36 3.233c4.605-1.74 9.033-4.007 13.289-6.483 3.846-2.321 7.546-4.957 10.746-8.162z"/>
 <path style="fill:#8b9cbe" d="m44.291 41.736c-9.2515 4.7004-18.773 9.1115-28.882 11.462-3.2583-0.0163-1.6507-4.3759-1.1244-6.3515 2.5275-8.392 6.4466-16.249 10.174-24.127 1.4757-2.4891 2.5224-5.9196 5.4977-6.8773 2.89-0.33002 4.7889 2.5423 6.2858 4.6378 6.1211 9.6345 11.902 19.521 16.971 29.781 1.284 2.6741 2.542 5.3612 3.7866 8.0548-3.701-15.527-8.682-30.927-16.713-44.707-1.8-2.721-3.439-5.6742-5.868-7.8635-2.367-1.8681-5.278 0.1431-7.028 1.9515-5.496 5.665-8.844 13.058-12.125 20.196-3.826 8.447-6.336 17.452-8.1788 26.548-0.64606 3.0633 2.4198 5.2868 5.1444 4.3363 7.5467-1.6131 14.639-4.9967 21.313-8.8797 3.8465-2.3213 7.5459-4.9572 10.746-8.1623z"/>
 <path style="opacity:.2;fill:#8b9cbe" d="m32 4a28 28 0 0 0 -28 28 28 28 0 0 0 0.0215 0.586 28 28 0 0 1 27.978 -27.586 28 28 0 0 1 27.979 27.414 28 28 0 0 0 0.021 -0.414 28 28 0 0 0 -28 -28z"/>
</svg>
