<svg xmlns="http://www.w3.org/2000/svg" width="64" height="64" version="1">
 <path style="opacity:0.2" d="m 22,37 0,2 c 0,1.662 1.338,3 3,3 l 32,0 c 1.662,0 3,-1.338 3,-3 l 0,-2 c 0,1.662 -1.338,3 -3,3 l -32,0 c -1.662,0 -3,-1.338 -3,-3 z"/>
 <path style="opacity:0.2" d="m 4,55 0,2 c 0,1.662 1.338,3 3,3 l 32,0 c 1.662,0 3,-1.338 3,-3 l 0,-2 c 0,1.662 -1.338,3 -3,3 L 7,58 C 5.338,58 4,56.662 4,55 Z"/>
 <rect style="fill:#4f4f4f" width="38" height="38" x="4" y="-60" rx="3" ry="3" transform="matrix(0,1,-1,0,0,0)"/>
 <path style="opacity:0.2" d="m 40,16.99966 0,3 3,0 0,-3 -3,0 z m 6,0 0,3 3,0 0,-3 -3,0 z m -1.251953,5.078125 c -2.3802,0 -4.274261,0.764762 -5.681641,2.294922 -1.39784,1.5208 -2.09767,3.779353 -2.097656,6.376953 0,2.5126 0.737437,4.604625 2.210938,6.078125 1.482998,1.47344 3.490084,2.210937 6.021484,2.210937 1.01076,0 2.007874,-0.1047 2.990234,-0.3125 C 49.173766,38.518423 50.06488,38.216693 51,37.819972 l 0,-2.265624 c -0.92576,0.491179 -1.793761,0.859888 -2.738281,1.105468 -0.93502,0.24558 -1.903097,0.369141 -2.904297,0.369141 -1.7286,0 -3.079855,-0.467224 -4.052734,-1.402344 -0.96346,-0.9446 -1.501835,-2.832313 -1.615235,-4.626953 l 11.986328,0 0,-1.058594 c 0,-2.3614 -0.624313,-4.425322 -1.871093,-5.794922 -1.237401,-1.37906 -2.922041,-2.068345 -5.056641,-2.068359 z m 0.02734,2.208984 c 1.2845,2e-5 2.315303,0.425311 3.089843,1.275391 0.78394,0.8502 1.184125,2.003428 1.203125,3.429688 l -9.294921,0.01562 c 0.13224,-1.49236 0.632953,-2.666501 1.501953,-3.488281 0.8784,-0.82176 2.04538,-1.232408 3.5,-1.232422 z"/>
 <path style="fill:#8b9cbe" d="m 40,16 0,3 3,0 0,-3 -3,0 z m 6,0 0,3 3,0 0,-3 -3,0 z m -1.251953,5.078125 c -2.3802,0 -4.274261,0.764762 -5.681641,2.294922 -1.39784,1.5208 -2.09767,3.779353 -2.097656,6.376953 0,2.5126 0.737437,4.604625 2.210938,6.078125 1.482998,1.47344 3.490084,2.210937 6.021484,2.210937 1.01076,0 2.007874,-0.1047 2.990234,-0.3125 C 49.173766,37.518763 50.06488,37.217033 51,36.820312 l 0,-2.265624 c -0.92576,0.491179 -1.793761,0.859888 -2.738281,1.105468 -0.93502,0.24558 -1.903097,0.369141 -2.904297,0.369141 -1.7286,0 -3.079855,-0.467224 -4.052734,-1.402344 C 40.341228,33.682353 39.802853,31.79464 39.689453,30 l 11.986328,0 0,-1.058594 c 0,-2.3614 -0.624313,-4.425322 -1.871093,-5.794922 -1.237401,-1.37906 -2.922041,-2.068345 -5.056641,-2.068359 z m 0.02734,2.208984 c 1.2845,2e-5 2.315303,0.425311 3.089843,1.275391 0.78394,0.8502 1.184125,2.003428 1.203125,3.429688 l -9.294921,0.01562 c 0.13224,-1.49236 0.632953,-2.666501 1.501953,-3.488281 0.8784,-0.82176 2.04538,-1.232408 3.5,-1.232422 z"/>
 <rect style="fill:#b2bfd9" width="38" height="38" x="21" y="-42" rx="3" ry="3" transform="matrix(0,1,-1,0,0,0)"/>
 <path style="opacity:0.1;fill:#8b9cbe" d="M 25 4 C 23.338 4 22 5.338 22 7 L 22 8 C 22 6.338 23.338 5 25 5 L 57 5 C 58.662 5 60 6.338 60 8 L 60 7 C 60 5.338 58.662 4 57 4 L 25 4 z"/>
 <path style="opacity:0.1;fill:#8b9cbe" d="m 7,21 c -1.662,0 -3,1.338 -3,3 l 0,1 c 0,-1.662 1.338,-3 3,-3 l 32,0 c 1.662,0 3,1.338 3,3 l 0,-1 c 0,-1.662 -1.338,-3 -3,-3 L 7,21 Z"/>
 <path style="opacity:0.2" d="m 28.568,47.17613 c -2.2002,2.2e-5 -3.7244,0.24476 -4.573,0.73426 -0.8485,0.48952 -1.27274,1.62407 -1.27274,2.80473 0,0.94062 0.31572,1.68928 0.94716,2.246 0.64128,0.5471 1.5095,0.82064 2.6046,0.82064 1.5095,0 2.718,-0.5183 3.6258,-1.55488 0.91752,-1.0462 1.17602,-2.73273 1.17604,-4.46033 l 0,-0.59028 -2.50792,0 m 5.432,-1.094 0,9.91739 -2.99994,0 0,-2.86566 c -0.62,0.98 -1.11906,1.704 -2.04506,2.174 -0.928,0.462 -2.062,0.692 -3.404,0.692 -1.698,0 -3.048,-0.46 -4.056,-1.382 -0.996,-0.932 -1.494,-2.174 -1.494,-3.728 0,-1.81404 0.62156,-3.48133 1.8647,-4.40273 1.253,-0.9214 3.118449,-1.446956 5.594,-1.38212 l 3.61792,0 0,-0.25916 C 31.077538,43.62705 30.66318,42.98592 29.83444,42.32372 27.292359,40.824471 23.487299,41.137872 21,42.34093 l 0,-2.14807 c 0.99648,-0.37432 2.17786,-0.65264 3.11512,-0.83504 0.93728,-0.19194 1.8499,-0.28792 2.7378,-0.28794 2.3974,2e-5 4.1882,0.6047 5.372,1.81404 1.18392,1.20938 1.77588,2.74307 1.7759,5.20027 m -9.174,-14.08483 4.1734,5.0003 -2.2642,0 -4.824,-4.9997 2.9154,0"/>
 <path style="fill:#17191e" d="m 28.568,46.17647 c -2.2002,2.2e-5 -3.7244,0.24476 -4.573,0.73426 -0.8485,0.48952 -1.27274,1.62407 -1.27274,2.80473 0,0.94062 0.31572,1.68928 0.94716,2.246 0.64128,0.5471 1.5095,0.82064 2.6046,0.82064 1.5095,0 2.718,-0.5183 3.6258,-1.55488 0.91752,-1.0462 1.17602,-2.73273 1.17604,-4.46033 l 0,-0.59028 -2.50792,0 m 5.432,-1.094 0,9.91739 L 31,55 31,52.13434 c -0.62,0.98 -1.11906,1.704 -2.04506,2.174 -0.928,0.462 -2.062,0.692 -3.404,0.692 -1.698,0 -3.048,-0.46 -4.056,-1.382 -0.996,-0.932 -1.494,-2.174 -1.494,-3.728 0,-1.81404 0.62156,-3.48133 1.8647,-4.40273 1.253,-0.9214 3.118449,-1.446956 5.594,-1.38212 l 3.61792,0 0,-0.25916 C 31.077538,42.62739 30.66318,41.98626 29.83444,41.32406 27.292359,39.824811 23.487299,40.138212 21,41.34127 l 0,-2.14807 c 0.99648,-0.37432 2.17786,-0.65264 3.11512,-0.83504 0.93728,-0.19194 1.8499,-0.28792 2.7378,-0.28794 2.3974,2e-5 4.1882,0.6047 5.372,1.81404 1.18392,1.20938 1.77588,2.74307 1.7759,5.20027 m -9.174,-14.08483 4.1734,5.0003 -2.2642,0 -4.824,-4.9997 2.9154,0"/>
</svg>
