<svg xmlns="http://www.w3.org/2000/svg" width="64" height="64" version="1">
 <circle style="opacity:0.2" cx="32" cy="33" r="28"/>
 <path style="fill:#3591ac" d="m 32,32 v 28 a 28.018802,28 0 0 0 24.078658,-13.745704 28.018802,28 0 0 0 0.15596,-0.270702 z"/>
 <path style="fill:#2cba66" d="M 32,32 V 60 A 28.018802,28 0 0 1 7.9213438,46.254296 28.018802,28 0 0 1 7.76538,45.983594 Z"/>
 <path style="fill:#ff482e" d="M 32,32 V 4.0000008 a 28.018802,28 0 0 1 24.078658,13.7457022 28.018802,28 0 0 1 0.15596,0.270704 z"/>
 <path style="fill:#ff8201" d="M 32,32 V 4.0000008 A 28.018802,28 0 0 0 7.9213438,17.745703 28.018802,28 0 0 0 7.76538,18.016407 Z"/>
 <path style="fill:#ffc825" d="M 32,32 7.7350076,46 a 28.018802,28 0 0 1 -0.1272078,-27.711587 28.018802,28 0 0 1 0.156612,-0.27033 z"/>
 <path style="fill:#9e56d6" d="M 32,32 56.264994,18 a 28.018802,28 0 0 1 0.1272,27.711588 28.018802,28 0 0 1 -0.15662,0.27033 z"/>
 <circle style="opacity:0.2" cx="32" cy="33" r="22"/>
 <circle style="fill:#8b9cbe" cx="32" cy="32" r="22"/>
 <path style="opacity:0.1" transform="matrix(2.311111,0,0,2.7712812,-17.911109,-20.569219)" d="m 26.5,19.330128 -3.75,2.165063 -3.75,2.165064 0,-4.330127 0,-4.330127 3.75,2.165063 z"/>
 <path style="fill:#33c0e8" transform="matrix(2.311111,0,0,2.7712812,-17.911109,-21.56922)" d="m 26.5,19.330128 -3.75,2.165063 -3.75,2.165064 0,-4.330127 0,-4.330127 3.75,2.165063 z"/>
 <path style="opacity:0.2;fill:#8b9cbe" d="M 32 4 A 28 28 0 0 0 4 32 A 28 28 0 0 0 4.0175781 32.492188 A 28 28 0 0 1 32 5 A 28 28 0 0 1 59.974609 32.492188 A 28 28 0 0 0 60 32 A 28 28 0 0 0 32 4 z"/>
</svg>
