<svg width="64" height="64" version="1" xmlns="http://www.w3.org/2000/svg">
 <rect x="4" y="5" width="56" height="56" rx="2.8" ry="2.8" style="opacity:.2"/>
 <rect x="4" y="4" width="56" height="56" rx="2.8" ry="2.8" style="fill:#3a6688"/>
 <path d="m6.8007812 4c-1.5512 0-2.8007812 1.2495812-2.8007812 2.8007812v1c0-1.5511999 1.2495812-2.8007812 2.8007812-2.8007812h50.398438c1.5512 0 2.800781 1.2495812 2.800781 2.8007812v-1c0-1.5511999-1.249581-2.8007812-2.800781-2.8007812h-50.398438z" style="fill:#8b9cbe;opacity:.1"/>
 <path d="m44.970703 22.970703c-1.104573 0.016172-1.986891 0.924724-1.970703 2.029297v16c1.1e-4 1.104524 0.895476 1.99989 2 2h8c2.704645 0.03825 2.704645-4.03825 0-4h-6v-14c0.01653-1.127524-0.901773-2.045822-2.029297-2.029297zm-15.714844 2e-3c-0.270046 0.0045-0.423828 0.01953-0.423828 0.01953-1.03618 0.087427-1.832539 0.954233-1.832031 1.994095v16c4.83e-4 1.03913 0.79658 1.904822 1.832031 1.992188 0 0 2.456588 0.242531 5-0.921875 2.543413-1.164406 5.167969-4.118019 5.167969-9.070313 0-4.952293-2.624556-7.907858-5.167969-9.072266-1.907559-0.873304-3.766034-0.955036-4.576172-0.941406zm-12.255859 0.056594c-2.666667 0-4.55055 1.628441-5.289062 3.105469-0.738515 1.477027-0.710938 2.894531-0.710938 2.894531-0.0198 4.039109 0 7.973572 0 12-0.03825 2.704645 4.03825 2.704645 4 0v-4h4v4c-0.03825 2.704645 4.03825 2.704645 4 0 0.01981-4.039114 0-7.973596 0-12 0 0 0.02758-1.417504-0.710938-2.894531-0.738513-1.477028-2.622395-3.105469-5.289062-3.105469zm0 4c1.333333 0 1.449451 0.371559 1.710938 0.894531 0.261486 0.522972 0.289062 1.105469 0.289062 1.105469v4h-4v-4s0.02758-0.582497 0.289062-1.105469c0.261488-0.522972 0.377605-0.894531 1.710938-0.894531zm14 0.216797c0.391721 0.0862 0.752456 0.11446 1.167969 0.304687 1.456587 0.666844 2.832031 1.712841 2.832031 5.435547 0 3.722707-1.375444 4.76675-2.832031 5.433594-0.415586 0.19026-0.77619 0.220444-1.167969 0.30664z" style="opacity:.2"/>
 <path d="m44.970703 21.970703c-1.104573 0.016172-1.986891 0.924724-1.970703 2.029297v16c1.1e-4 1.104524 0.895476 1.99989 2 2h8c2.704645 0.03825 2.704645-4.03825 0-4h-6v-14c0.01653-1.127524-0.901773-2.045822-2.029297-2.029297zm-15.714844 2e-3c-0.270046 0.0045-0.423828 0.01953-0.423828 0.01953-1.03618 0.087427-1.832539 0.954233-1.832031 1.994095v16c4.83e-4 1.03913 0.79658 1.904822 1.832031 1.992188 0 0 2.456588 0.242531 5-0.921875 2.543413-1.164406 5.167969-4.118019 5.167969-9.070313 0-4.952293-2.624556-7.907858-5.167969-9.072266-1.907559-0.873304-3.766034-0.955036-4.576172-0.941406zm-12.255859 0.056594c-2.666667 0-4.55055 1.628441-5.289062 3.105469-0.738515 1.477027-0.710938 2.894531-0.710938 2.894531-0.0198 4.039109 0 7.973572 0 12-0.03825 2.704645 4.03825 2.704645 4 0v-4h4v4c-0.03825 2.704645 4.03825 2.704645 4 0 0.01981-4.039114 0-7.973596 0-12 0 0 0.02758-1.417504-0.710938-2.894531-0.738513-1.477028-2.622395-3.105469-5.289062-3.105469zm0 4c1.333333 0 1.449451 0.371559 1.710938 0.894531 0.261486 0.522972 0.289062 1.105469 0.289062 1.105469v4h-4v-4s0.02758-0.582497 0.289062-1.105469c0.261488-0.522972 0.377605-0.894531 1.710938-0.894531zm14 0.216797c0.391721 0.0862 0.752456 0.11446 1.167969 0.304687 1.456587 0.666844 2.832031 1.712841 2.832031 5.435547 0 3.722707-1.375444 4.76675-2.832031 5.433594-0.415586 0.19026-0.77619 0.220444-1.167969 0.30664z" style="fill:#a1eae9"/>
</svg>
