<svg xmlns="http://www.w3.org/2000/svg" width="64" height="64" version="1.1">
 <path style="opacity:0.2" d="m 10,56.00009 0,1.999964 C 10,59.662024 11.337976,61 12.999946,61 l 37.999312,0 c 1.66197,0 2.999946,-1.337976 2.999946,-2.999946 l 0,-1.999964 c 0,1.66197 -1.337976,2.999946 -2.999946,2.999946 l -37.999312,0 C 11.337976,59.000036 10,57.66206 10,56.00009 Z"/>
 <path style="fill:#745145" d="M 12.999946,4.0010498 C 11.337976,4.0010498 10,5.3390256 10,7.0009955 L 10,57.00009 c 0,1.66197 1.337976,2.999946 2.999946,2.999946 l 37.999312,0 c 1.66197,0 2.999946,-1.337976 2.999946,-2.999946 l 0,-49.9990945 c 0,-1.6619699 -1.337976,-2.9999457 -2.999946,-2.9999457 l -37.999312,0 z"/>
 <path style="fill:#ff3434" d="m 48.411305,24.000688 c 0.486051,0.02966 1.009182,0 1.582071,0.397113 5.115708,2.20156 1.68479,8.24105 -4.836112,12.834967 -0.0392,-0.866264 -0.399233,-2.75235 -0.390753,-3.582535 5.563699,-3.814531 8.81784,-7.527264 5.272504,-8.999237 -3.738132,-1.551432 -4.898711,2.684551 -4.96431,8.83404 -0.348393,0.361114 -2.76075,1.963365 -3.127143,2.21656 0.135557,-5.607298 3.116543,-11.331195 5.980892,-11.659589 0.153537,-0.02964 0.320874,-0.02964 0.482871,-0.02964 m -5.207906,9.756423 1.163779,-0.453252 0.964703,0.650228 0.194856,2.045963 -1.218838,0.935083 -0.506171,0.678828 c -3.752932,2.489755 -6.949874,4.40752 -11.156998,5.991692 l -2.622952,0.389713 -1.726089,0 c -1.591591,-0.938263 -0.642788,-1.299377 -6.424684,-2.020564 l 6.515682,0.505151 c 5.025709,-1.948545 10.155217,-4.747514 14.820932,-7.800459 m -11.468392,8.162653 c -0.753967,0 -6.63328,-0.510431 -8.972438,-0.726467 -2.314758,-0.361114 -5.158107,-0.469132 -4.620116,2.237559 -0.612069,-1.443414 0.783626,-3.893929 2.76815,-4.325921 3.068744,-0.686228 7.937856,1.194538 9.688224,1.771687 m -2.820949,0.749767 c 0.912804,0.361113 2.997946,0.621629 3.982728,0.946743 -1.395695,0.722227 -8.405848,3.31034 -11.299995,2.76815 -0.462752,0 -2.416557,-1.405275 -2.464156,-2.416557 0.150358,1.840527 8.719443,0.469132 9.781423,-1.335395 m -1.906105,0.03284 c 0.750786,-0.361114 4.267523,-0.343114 5.042709,-0.631149 4.40312,1.540832 10.326813,5.157307 14.565736,7.596063 l 1.228378,0.361113 c 0.237195,1.68485 1.274977,2.265159 2.221759,3.35594 l -1.434874,1.443393 -1.122479,-1.840526 C 41.413932,49.84632 31.602909,45.006608 25.879613,42.68325 m 20.497629,10.157816 c 0.606789,0.361113 1.186018,0.722227 1.735608,1.0823 1.272857,3.612135 2.75635,6.044691 4.173325,5.939893 -2.188761,1.046281 -6.903275,-4.109926 -8.492647,-8.960238 m 8.492647,8.960238 c 3.338939,-1.984544 -3.728533,-5.602099 -5.315904,-6.65148 -0.356874,-1.010282 0.619489,-2.684551 0.300735,-3.87593 4.984509,3.103944 7.930456,7.593063 6.258286,9.722624 -0.402392,0.505131 -0.829145,0.758247 -1.251677,0.794246 m -4.849912,-7.561263 c -0.231916,-0.929803 -3.31034,-3.045745 -3.86613,-3.370739 -0.744447,-5.863694 -0.780446,-6.442884 -1.412635,-11.000801 0.378033,-0.361114 2.706751,-2.176161 3.066745,-2.428356 0.446872,4.871312 1.287676,11.473192 2.476955,15.882712"/>
 <path style="opacity:0.2" d="M 12.999946,4.0010498 C 11.337976,4.0010498 10,5.3390256 10,7.0009955 L 10,57.00009 c 0,1.66197 1.337976,2.999946 2.999946,2.999946 l 4.999909,0 0,-55.9989862 z"/>
 <path style="opacity:0.2" d="m 17.999855,5.0010136 0,27.9994934 3.999928,-3.999928 3.999928,3.999928 0,-27.9994934 -7.999856,0 z"/>
 <path style="fill:#ff3434" d="m 17.999855,4.0010498 0,27.9994932 3.999928,-3.999928 3.999928,3.999928 0,-27.9994932 -7.999856,0 z"/>
 <path style="opacity:0.1;fill:#8b9cbe" d="M 13 4.0019531 C 11.33803 4.0019531 10 5.3399832 10 7.0019531 L 10 8 C 10 6.3380301 11.33803 5 13 5 L 51 5 C 52.66197 5 54 6.3380301 54 8 L 54 7.0019531 C 54 5.3399832 52.66197 4.0019531 51 4.0019531 L 13 4.0019531 z"/>
</svg>
