<svg xmlns="http://www.w3.org/2000/svg" height="64" width="64" version="1.1">
 <path style="opacity:.2" d="m4 56v2c0 1.662 1.338 3 3 3h50c1.662 0 3-1.338 3-3v-2c0 1.662-1.338 3-3 3h-50c-1.662 0-3-1.338-3-3z"/>
 <rect style="fill:#c2352a" rx="3" ry="3" height="56" width="56" y="4" x="4"/>
 <path style="opacity:.1;fill:#8b9cbe" d="m7 4c-1.662 0-3 1.338-3 3v1c0-1.662 1.338-3 3-3h50c1.662 0 3 1.338 3 3v-1c0-1.662-1.338-3-3-3z"/>
 <path style="opacity:.2" d="m37.220703 14.841797c-3.923828 0.095703-6.220703 3.158203-6.220703 3.158203s-2 7-5 10-9 5-9 5-3 1-3 5c0 6 4 7 7 7s5-1 9 0c5.901146 1.475287 11 6 11 6s7 2 9-4c1-3-3-8-3-8s-4-3.90098-4-9c0-3 2-5 2-9 0-2-1-5-6-6-0.625-0.125-1.21875-0.171875-1.779297-0.158203zm-3.220703 13.158203c3.865993 0 7 3.134007 7 7s-3.134007 7-7 7-7-3.134007-7-7 3.134007-7 7-7z"/>
 <path style="fill:#8b9cbe" d="m37.220703 13.841797c-3.923828 0.095703-6.220703 3.158203-6.220703 3.158203s-2 7-5 10-9 5-9 5-3 1-3 5c0 6 4 7 7 7s5-1 9 0c5.901146 1.475287 11 6 11 6s7 2 9-4c1-3-3-8-3-8s-4-3.90098-4-9c0-3 2-5 2-9 0-2-1-5-6-6-0.625-0.125-1.21875-0.171875-1.779297-0.158203zm-3.220703 13.158203c3.865993 0 7 3.134007 7 7s-3.134007 7-7 7-7-3.134007-7-7 3.134007-7 7-7z"/>
</svg>
