<svg width="64" height="64" version="1.1" xmlns="http://www.w3.org/2000/svg">
 <rect x="4" y="5" width="55.999199" height="56" rx="2.7999599" ry="2.8" style="opacity:.2"/>
 <rect x="4.0006604" y="3.9992146" width="55.999199" height="56" rx="2.7999599" ry="2.8" style="fill:#2e298a"/>
 <path d="m14.000514 15v36h35.999486v-4h-3.999943v-4h-3.999943v-4h-3.999942v-4h-3.999943v-4h-3.999943v-4h-3.999943v-4h-3.999943v-4h-3.999943v-4zm7.999886 4h3.999943v-4h-3.999943zm3.999943 0v4h3.999943v-4zm3.999943 4v4h3.999943v-4zm3.999943 0h3.999943v-4h-3.999943zm0 4v4h3.999943v-4zm3.999943 4v4h3.999942v-4zm3.999942 0h3.999943v-4h-3.999943zm3.999943 0v4h3.999943v-4zm0 4h-3.999943v4h3.999943zm0 4v4h3.999943v-4zm-3.999943-20v4h3.999943v-4z" style="opacity:.2"/>
 <path d="m14.000057 14v36h35.999486v-4h-3.999943v-4h-3.999943v-4h-3.999942v-4h-3.999943v-4h-3.999943v-4h-3.999943v-4h-3.999943v-4h-3.999943v-4zm7.999886 4h3.999943v-4h-3.999943zm3.999943 0v4h3.999943v-4zm3.999943 4v4h3.999943v-4zm3.999943 0h3.999943v-4h-3.999943zm0 4v4h3.999943v-4zm3.999943 4v4h3.999942v-4zm3.999942 0h3.999943v-4h-3.999943zm3.999943 0v4h3.999943v-4zm0 4h-3.999943v4h3.999943zm0 4v4h3.999943v-4zm-3.999943-20v4h3.999943v-4z" style="fill:#a2a5f5"/>
 <path d="M 6.8007812 4 C 5.2496035 4 4 5.2476282 4 6.7988281 L 4 7.8007812 C 4 6.2495813 5.2496035 5 6.8007812 5 L 57.199219 5 C 58.750397 5 60 6.2495813 60 7.8007812 L 60 6.7988281 C 60 5.2476282 58.750397 4 57.199219 4 L 6.8007812 4 z " style="fill:#8b9cbe;opacity:.1"/>
</svg>
