<svg width="64" height="64" version="1.1" xmlns="http://www.w3.org/2000/svg">
 <path d="m4.0000004 56.200069v1.999971c0 1.549978 1.2495821 2.79996 2.80076 2.79996h50.39928c1.549977 0 2.79996-1.249982 2.79996-2.79996v-1.999971c0 1.549977-1.249983 2.79996-2.79996 2.79996h-50.39928c-1.5503779 0-2.79996-1.249983-2.79996-2.79996z" style="opacity:.2"/>
 <rect x="4" y="4" width="56" height="56" rx="2.8" ry="2.8" style="fill:#237d5e"/>
 <path d="M 6.8007812,4 C 5.2496034,4 4,5.2496034 4,6.8007812 V 7.8027344 C 4,6.2515566 5.2496034,5.0019531 6.8007812,5.0019531 H 57.199219 C 58.749196,5.0019531 60,6.2515566 60,7.8027344 V 6.8007812 C 60,5.2496035 58.749196,4 57.199219,4 Z" style="fill:#8b9cbe;opacity:.1"/>
 <path d="m43 25c-5 0-7 2-7 2v20h4v-18h4c2 0 2 2 2 2v16h4v-17c0-2-2-5-7-5z" style="opacity:.2"/>
 <path d="m43 24c-5 0-7 2-7 2v20h4v-18h4c2 0 2 2 2 2v16h4v-17c0-2-2-5-7-5z" style="fill:#99ecd0"/>
 <path d="m14 19v28h8s10 0 10-14-10-14-10-14h-2zm6 4h2s4 0 4 10-4 10-4 10h-2z" style="opacity:.2"/>
 <path d="m14 18v28h6 2s10 0 10-14-10-14-10-14h-2-6zm6 4h2s4 0 4 10-4 10-4 10h-2v-20z" style="fill:#99ecd0"/>
</svg>
