<svg xmlns="http://www.w3.org/2000/svg" height="64" width="64" version="1.1">
 <path style="opacity:.2" d="m4.0000004 56.200069v1.999971c0 1.549978 1.2495821 2.79996 2.80076 2.79996h50.39928c1.549977 0 2.79996-1.249982 2.79996-2.79996v-1.999971c0 1.549977-1.249983 2.79996-2.79996 2.79996h-50.39928c-1.5503779 0-2.79996-1.249983-2.79996-2.79996z"/>
 <rect style="fill:#62400c" rx="2.8" ry="2.8" height="56" width="56" y="4" x="4"/>
 <g style="opacity:.2" transform="matrix(.21419694 0 0 .23307667 1.2675195 -.70580261)">
  <path d="m162.15 178.93c5.109 3.135 14.876 8.5808 23.094 8.5808 8.396 0 14.252-4.7723 14.252-9.3853 0-4.619-1.5608-10.288-11.968-13.796-18.439-6.279-25.559-13.795-25.375-24.315 0-16.991 14.238-29.731 36.328-29.731 10.352 0 24.357 8.5808 24.357 8.5808v17.162c-4.019-2.218-15.777-8.5808-23.443-8.5808-6.758 0-13.479 4.9994-13.479 9.6124 0 5.9349 6.3605 6.464 17.313 10.344 16.976 5.908 24.096 14.584 24.277 27.879 0 16.805-12.954 30.168-38.701 29.357-8.835-0.278-19.901-4.8568-26.656-8.5458-0.00019-6.7093-0.00014-10.452 0.001-17.162z"/>
 </g>
 <g style="fill:#219fd1" transform="matrix(.21419694 0 0 .23307667 1.2675195 -1.704789)">
  <path style="fill:#f29517" d="m162.15 178.93c5.109 3.135 14.876 8.5808 23.094 8.5808 8.396 0 14.252-4.7723 14.252-9.3853 0-4.619-1.5608-10.288-11.968-13.796-18.439-6.279-25.559-13.795-25.375-24.315 0-16.991 14.238-29.731 36.328-29.731 10.352 0 24.357 8.5808 24.357 8.5808v17.162c-4.019-2.218-15.777-8.5808-23.443-8.5808-6.758 0-13.479 4.9994-13.479 9.6124 0 5.9349 6.3605 6.464 17.313 10.344 16.976 5.908 24.096 14.584 24.277 27.879 0 16.805-12.954 30.168-38.701 29.357-8.835-0.278-19.901-4.8568-26.656-8.5458-0.00019-6.7093-0.00014-10.452 0.001-17.162z"/>
 </g>
 <path style="opacity:.1;fill:#8b9cbe" d="m6.8007812 4c-1.5511778 0-2.8007812 1.2496034-2.8007812 2.8007812v1.0019532c0-1.5511778 1.2496034-2.8007813 2.8007812-2.8007813h50.398438c1.549977 0 2.800781 1.2496035 2.800781 2.8007813v-1.0019532c0-1.5511777-1.250804-2.8007812-2.800781-2.8007812z"/>
 <path style="opacity:.2" d="m14 19v28h6v-8h10v-4h-10v-12h12l-1-4h-11z"/>
 <path style="fill:#f29517" d="m14 18v28h6v-8h10v-4h-10v-12h12l-1-4h-11z"/>
</svg>
