<svg xmlns="http://www.w3.org/2000/svg" width="64" height="64" version="1">
 <rect style="opacity:0.2" width="58" height="58" x="3" y="4" rx="29" ry="29"/>
 <rect style="fill:#277cc5" width="58" height="58" x="3" y="3" rx="29" ry="29"/>
 <path style="opacity:0.3" d="m 32.150098,4.45 -3.35879,0.3823242 -4.146094,1.1384766 -0.784472,0.7618164 2.574316,1.7756836 V 9.522168 l -1.68506,1.013867 2.024904,2.664941 0.894922,-0.506933 1.121484,-1.775684 C 30.52242,10.383308 32.07365,9.7760488 33.719044,9.0152344 l 1.180954,-3.4239258 z m -7.952344,0.2548828 -1.447168,0.2067384 -0.68535,0.6796874 -1.124318,0.164258 -1.002538,0.4701172 -0.48711,0.2350586 -0.297364,0.3993164 1.455664,0.2520508 0.560742,-0.5069336 1.121486,-0.2520508 c 0.76766,-0.3732416 1.538882,-0.6258932 2.353416,-0.889258 z m -6.612793,3.0416016 -0.22373,0.5069336 0.110446,1.26875 -0.894922,0.761816 -0.560743,1.39336 h 1.121485 l 0.560743,-1.265918 c 0.483251,-0.341649 0.96347,-0.6878402 1.455664,-1.0166996 l 1.121482,0.3823244 c 0.746708,0.5071602 1.492814,1.0144132 2.240138,1.5208002 L 23.63701,10.283984 22.402242,9.7770508 21.841502,8.6357422 19.711814,8.3808594 19.601368,7.7464844 18.593164,8.0013672 18.145702,8.887793 Z m 28.699803,1.013867 -2.124022,0.5097658 -1.350878,0.8864258 v 0.761816 l -2.124024,1.39336 0.444628,2.030567 1.237598,-0.889259 0.78164,0.889259 0.894924,0.506933 0.56074,-1.520801 L 44.271192,12.439161 44.60537,11.804786 45.837306,10.25 h 0.560742 l -0.560742,1.682226 v 1.14131 c 0.514864,-0.140084 1.044882,-0.186556 1.571776,-0.252051 l -1.458496,1.013866 -0.11044,0.634375 -1.679394,1.39336 -1.68506,-0.379492 v -1.013868 l -0.784472,0.506935 0.339844,1.176289 h -1.234766 l -0.67119,0.851444 -0.843948,0.948731 -1.509472,0.320019 0.894922,0.883594 0.226562,0.886426 h -1.121484 l -1.421684,0.761817 v 2.285449 h 0.637212 l 0.61455,0.69668 1.401856,-0.69668 0.55791,-1.396192 1.011034,-0.634374 0.223732,-0.506934 1.679394,-0.376661 0.897754,1.011037 1.008202,0.506932 -0.56074,1.14131 0.897752,-0.254884 0.447462,-1.135644 -1.121484,-1.268751 h 0.450294 l 1.121484,0.883595 0.22373,1.26875 1.00537,1.141308 0.22373,-1.651074 0.563576,-0.25205 c 0.554018,0.574964 0.989042,1.256038 1.455664,1.903124 l 1.679394,0.12744 1.011036,0.631542 -0.450294,0.634376 -1.008202,0.889256 h -1.455666 l -1.905956,-0.634374 -1.008202,0.12462 -0.725,0.826954 -2.07588,-2.092872 -1.458496,-0.379492 -2.129688,0.25205 -1.905956,0.506936 c -1.068884,1.211414 -1.978646,2.417866 -2.990324,3.675976 l -1.231932,2.919824 0.560742,0.631542 -1.008204,1.520802 1.121486,2.66494 c 0.952806,1.077498 1.758528,2.153078 2.70995,3.231348 l 1.404688,-1.203612 0.61455,0.69951 1.509472,-0.951562 0.506934,0.569238 h 1.515138 l 0.866602,0.982714 -0.535256,1.744532 1.067676,1.203614 -0.05664,2.092872 0.784472,1.523632 -0.838286,1.265918 c -0.05582,0.932948 -0.05664,1.859272 -0.05664,2.792382 0.459208,1.264116 0.697042,2.524548 1.13066,3.797754 l 0.33418,2.030566 v 1.0167 h 1.219924 l 1.234766,-0.761816 h 1.062012 c 0.396094,-0.275838 0.77708,-0.5718 1.158302,-0.866602 l 1.418848,-1.605762 -0.27754,-0.82412 1.458496,-1.271582 -1.067676,-1.200782 1.291406,-1.076172 1.087508,-0.764648 0.560742,-0.628712 -0.337012,-1.401854 v -3.545704 l 1.152628,-2.158008 1.231936,-1.393358 1.345214,-3.296486 v -0.889258 c -0.662604,0.08344 -1.30879,0.1512 -1.956934,0.19824 l 1.339552,-1.339552 1.849314,-1.26875 1.011036,-1.138478 v -1.26875 c -0.224284,-0.422862 -0.448204,-0.845886 -0.674024,-1.26875 L 58.27559,29.808012 57.604398,29.049028 56.596196,28.287212 V 26.63897 l 1.178124,1.331054 1.288574,-0.18974 c 0.587004,0.53274 1.16453,1.041686 1.679394,1.648242 l 0.12744,-0.14444 C 60.249938,22.555 57.338996,16.520244 52.934376,11.926562 52.691102,11.677335 52.434368,11.409057 52.234864,11.212891 51.899996,10.886928 51.548692,10.579347 51.19834,10.269824 l -0.317188,0.521094 -1.121484,1.26875 L 48.304004,10.25 h 1.455664 l 0.674024,-0.4729492 -2.69043,-0.5069336 z m -31.676268,0.04248 c -0.164032,0.12296 -0.331479,0.2418254 -0.492773,0.368164 l 0.220898,0.9855466 c 0,0 -1.024813,0.112508 -1.61709,0.189746 C 6.7685468,15.644921 3.0073968,23.344742 3,31.974512 3.2334006,32.358794 3.4644532,32.725 3.4644532,32.725 l 2.353418,1.39336 2.35625,0.637206 1.005371,1.26875 1.5689448,1.138478 0.897754,-0.12462 0.671191,0.303028 v 0.203906 l -0.894921,2.407226 -0.674024,1.0167 0.223731,0.506934 -0.722169,1.900292 2.177833,3.678808 1.439057,1.772854 0.894922,1.265918 -0.110446,2.66494 1.251373,1.5208 -0.370997,1.608594 c 1.293067,0.891114 2.671778,1.661746 4.106445,2.336428 l 0.523926,-0.521096 0.33418,-0.886426 1.458496,-0.509764 1.34521,-2.789552 -0.560738,-0.758984 0.781642,-1.576974 1.682226,-0.382324 0.99687,-1.592068 -0.322846,-2.531836 1.632016,-1.903126 0.226562,-1.903124 C 25.896098,41.957342 23.780708,41.01874 21.954788,40.079782 L 21.057034,38.304098 19.37764,37.924608 18.482717,36.242824 16.24258,36.494876 14.336623,34.9 12.317385,36.148922 v 0.280372 c -0.610442,-0.176138 -1.359602,-0.19832 -1.903127,-0.53242 L 9.9639648,34.628126 V 33.231934 L 8.61875,33.359374 c 0.112222,-0.88795 0.2268544,-1.774312 0.3398438,-2.66211 H 8.1741212 L 7.3896486,31.711132 6.6051758,32.090626 5.4836914,31.459082 5.3704102,30.06289 5.5941406,28.54209 7.2763672,27.27334 H 8.61875 l 0.2237306,-0.761816 1.6822264,0.37949 1.086661,1.523634 0.226563,-2.5375 2.274959,-1.77285 0.784473,-1.903126 1.566113,-0.05474 0.897755,-1.263083 2.016405,-0.385156 1.008204,-1.517969 h -3.024609 l 1.905957,-0.889259 h 1.342382 l 1.905956,-1.214013 0.223732,-0.758983 -0.674022,-0.634375 -0.784474,-0.254883 0.226562,-0.758985 -0.560742,-1.141308 -1.345214,0.504101 0.22373,-1.013867 -1.568946,-0.886426 -1.229101,2.155176 0.110446,0.761817 -1.234765,0.506933 -0.784473,1.648242 -0.33418,-1.5208 -2.129688,-0.889258 -0.337011,-1.141309 2.800879,-1.648241 1.234765,-1.14131 L 16.46347,9.2701172 15.79228,8.887793 Z m 21.294332,1.3190476 -1.623042,0.506933 -0.733994,-0.127441 h -0.0028 l -0.11328,0.761816 1.076668,0.506934 2.067674,-0.889258 -0.671192,-0.758985 z m -15.516988,0.541598 -0.894922,0.634375 1.118652,0.761816 h 0.897754 V 11.17041 Z m 17.703028,2.916992 v 0.761817 l 0.450292,0.506933 v 1.141308 l -0.226562,1.5208 1.234766,-0.25205 0.894922,-0.889258 -0.784474,-0.758983 C 39.394374,14.909705 39.09261,14.253134 38.76289,13.580469 Z m -0.44463,1.5208 -0.787304,0.254883 0.226562,1.39336 1.005372,-0.504101 z m -15.46289,2.28545 0.334178,1.770019 0.671192,-1.011036 z m 29.257714,9.886621 1.291406,1.458496 1.512306,3.231348 0.89492,1.016698 -0.450292,1.138478 0.852442,0.965722 c -0.391396,0.02644 -0.781342,0.0538 -1.183788,0.0538 -0.71356,-1.498974 -1.249284,-2.999898 -1.792676,-4.568066 l -1.24383,-1.076172 -0.504102,-1.84082 z"/>
 <g style="opacity:0.2" transform="matrix(3,0,0,-3,-1627,-1008)">
  <path d="m 552,-354 v 10 h 2 v -10 z m 0,12 v 2 h 2 v -2 z"/>
 </g>
 <g style="fill:#8b9cbe" transform="matrix(3,0,0,-3,-1627,-1009)">
  <path d="m 552,-354 v 10 h 2 v -10 z m 0,12 v 2 h 2 v -2 z"/>
 </g>
 <path style="opacity:0.2;fill:#8b9cbe" d="M 32 3 C 15.934 3 3 15.934 3 32 C 3 32.110857 3.0114705 32.218895 3.0175781 32.328125 C 3.3736217 16.576183 16.159477 4 32 4 C 47.840523 4 60.626378 16.576183 60.982422 32.328125 C 60.98853 32.218895 61 32.110857 61 32 C 61 15.934 48.066 3 32 3 z"/>
</svg>
