<svg xmlns="http://www.w3.org/2000/svg" width="64" height="64" version="1">
 <path style="opacity:0.2" d="M 3.5938,33.356 C 3.5642,33.406 3.5288,33.45 3.5,33.5 3.5,49.24 16.2598,62 32,62 47.7402,62 60.5,49.2402 60.5,33.5 c -0.03054,-0.012 -0.0708,-0.02318 -0.10156,-0.03516 -1.014,14.82 -13.322,26.536 -28.398,26.536 -15.1138,0 -27.446,-11.774 -28.406,-26.644 z"/>
 <path style="fill:#cddff0" d="M 57.5,33 A 25.5,25.5 0 0 1 32,58.5 25.5,25.5 0 0 1 6.5,33 25.5,25.5 0 0 1 32,7.5 25.5,25.5 0 0 1 57.5,33 Z"/>
 <path style="opacity:0.2;fill:#8b9cbe" d="M 32 7.5 A 25.5 25.5 0 0 0 6.5 33 A 25.5 25.5 0 0 0 6.5175781 33.498047 A 25.5 25.5 0 0 1 32 8.5 A 25.5 25.5 0 0 1 57.474609 33.501953 A 25.5 25.5 0 0 0 57.5 33 A 25.5 25.5 0 0 0 32 7.5 z"/>
 <path style="fill:#62b4e7" d="M 47.754,56.176 C 34.124,64.048 16.694,59.376 8.822,45.746 0.953,32.114 5.6234,14.684 19.2548,6.814 c 16.0612,-0.0742 26.26,34.632 28.5,49.362 z"/>
 <path style="fill:#357dc5" d="M 60.5,32.5 C 60.5,48.24 47.74,61 32,61 16.2598,61 3.5,48.24 3.5,32.5 c 7.967,-13.9468 43.124,-5.426 57,0 z"/>
</svg>
