<svg xmlns="http://www.w3.org/2000/svg" width="64" height="64" version="1">
 <rect style="opacity:0.2" width="56" height="56" x="4" y="5" rx="2.8" ry="2.8"/>
 <rect style="fill:#4f4f4f" width="56" height="56" x="4" y="4" rx="2.8" ry="2.8"/>
 <path style="opacity:0.2" d="m 54.022072,35.470519 c -6.070372,7.604588 -0.18964,0.332307 -5.991499,7.643784 -2.019703,1.208456 -5.7228,2.121343 -7.396977,1.7738 -2.346853,-0.353986 -4.918619,-2.982759 -6.80486,-5.5858 -2.386233,-3.294104 -4.134316,-7.895929 -6.552699,-10.723312 -2.243977,-2.623332 -5.433925,-4.236565 -8.464738,-2.10701 -1.498129,1.054069 -2.960892,2.950266 -4.094936,4.979487 -1.811576,3.238864 -0.763986,7.449706 3.979549,8.368492 3.732938,0.321551 5.622712,-0.180112 10.57452,-2.38731 6.383501,-2.991969 10.931878,-6.903719 23.085098,-16.129362 -6.788693,7.049912 -0.354294,0.181245 -7.010757,7.189103 -3.380388,3.558839 -10.148803,7.626961 -17.249749,11.767029 -3.36524,1.93013 -6.322835,3.158823 -10.648437,4.213003 -2.58877,0.631314 -6.400796,1.216293 -7.235856,-1.530935 -0.8696224,-2.863457 1.205575,-7.278257 1.637973,-8.23526 3.263088,-7.21614 8.13602,-14.708478 16.656216,-13.595791 8.12557,1.061962 8.508861,13.738893 14.573703,17.070199 2.98653,1.640176 5.214119,0.287625 10.943449,-2.710117 z"/>
 <path style="fill:#00dada" d="m 54.022072,34.470519 c -6.070372,7.604588 -0.18964,0.332307 -5.991499,7.643784 -2.019703,1.208456 -5.7228,2.121343 -7.396977,1.7738 -2.346853,-0.353986 -4.918619,-2.982759 -6.80486,-5.5858 -2.386233,-3.294104 -4.134316,-7.895929 -6.552699,-10.723312 -2.243977,-2.623332 -5.433925,-4.236565 -8.464738,-2.10701 -1.498129,1.054069 -2.960892,2.950266 -4.094936,4.979487 -1.811576,3.238864 -0.763986,7.449706 3.979549,8.368492 3.732938,0.321551 5.622712,-0.180112 10.57452,-2.38731 6.383501,-2.991969 10.931878,-6.903719 23.085098,-16.129362 -6.788693,7.049912 -0.354294,0.181245 -7.010757,7.189103 -3.380388,3.558839 -10.148803,7.626961 -17.249749,11.767029 -3.36524,1.93013 -6.322835,3.158823 -10.648437,4.213003 -2.58877,0.631314 -6.400796,1.216293 -7.235856,-1.530935 -0.8696224,-2.863457 1.205575,-7.278257 1.637973,-8.23526 3.263088,-7.21614 8.13602,-14.708478 16.656216,-13.595791 8.12557,1.061962 8.508861,13.738893 14.573703,17.070199 2.98653,1.640176 5.214119,0.287625 10.943449,-2.710117 z"/>
 <path style="fill:#8b9cbe;opacity:0.1" d="M 6.8007812 4 C 5.2495813 4 4 5.2495813 4 6.8007812 L 4 7.8007812 C 4 6.2495813 5.2495813 5 6.8007812 5 L 57.199219 5 C 58.750419 5 60 6.2495813 60 7.8007812 L 60 6.8007812 C 60 5.2495813 58.750419 4 57.199219 4 L 6.8007812 4 z"/>
 <path style="fill:#8b9cbe;opacity:0.2" d="M 26.949219 20 C 19.381487 19.932733 14.908754 26.9419 11.849609 33.707031 C 11.468088 34.551431 9.8095929 38.085585 10.021484 40.873047 C 10.182138 38.297614 11.512568 35.452987 11.849609 34.707031 C 15.112697 27.490891 19.985663 19.998641 28.505859 21.111328 C 33.749477 21.796637 35.771114 27.312775 38.173828 32.039062 C 40.841956 30.123918 44.206267 27.54131 48.275391 24.423828 C 49.609936 23.049889 47.253506 25.601013 52.355469 20.302734 C 45.987388 25.136814 41.724035 28.490774 38.173828 31.039062 C 35.771114 26.312775 33.749477 20.796637 28.505859 20.111328 C 27.973347 20.041785 27.453734 20.004484 26.949219 20 z M 39.400391 33.283203 C 39.264759 33.37614 39.12818 33.469204 38.990234 33.5625 C 40.10211 35.531281 41.35895 37.235376 43.078125 38.179688 C 45.797129 39.672941 48.01728 38.609229 52.693359 36.158203 C 53.12889 35.605319 52.71897 36.102413 54.021484 34.470703 C 48.292154 37.468445 46.064655 38.819863 43.078125 37.179688 C 41.569762 36.351172 40.4124 34.945411 39.400391 33.283203 z M 13.90625 33.996094 C 13.658979 36.589857 15.137661 39.131223 18.695312 39.820312 C 22.428251 40.141863 24.317723 39.640792 29.269531 37.433594 C 30.157614 37.017346 31.009098 36.575012 31.851562 36.111328 C 31.709496 35.857214 31.569896 35.600492 31.429688 35.34375 C 30.723414 35.722698 30.010492 36.086303 29.269531 36.433594 C 24.317723 38.640792 22.428251 39.141863 18.695312 38.820312 C 15.598215 38.220429 14.085156 36.215917 13.90625 33.996094 z"/>
</svg>
