<svg width="64" height="64" version="1.1" xmlns="http://www.w3.org/2000/svg">
 <path d="m31.924401 5.000003c-9.692307 0-21.000001 17.111109-21.000001 31.111109 0 10.292298 8.076925 24.888888 21.000001 24.888888 12.923077 0 21-14.59659 21-24.888888 0-12.444444-11.307693-31.111109-21-31.111109z" style="opacity:.2"/>
 <path d="m31.924401 4.0000028c-9.692307 0-21.000001 17.111109-21.000001 31.111109 0 10.292298 8.076925 24.888888 21.000001 24.888888 12.923077 0 21-14.59659 21-24.888888 0-12.444444-11.307693-31.111109-21-31.111109z" style="fill:#7a9a76;font-variant-east_asian:normal"/>
 <path d="m32.185937 4.0164066a14.567297 29.393965 8.4915283 0 0-13.745703 25.91914 14.567297 29.393965 8.4915283 0 0 4.022266 27.130469c2.75 1.808359 5.914009 2.933984 9.460937 2.933984 0.806758 0 1.594302-0.05762 2.3625-0.166797a14.567297 29.393965 8.4915283 0 0 0.0028 0 14.567297 29.393965 8.4915283 0 0 12.95-25.489844 14.567297 29.393965 8.4915283 0 0-0.300846-18.005859c-4.067548-6.8093634-9.612449-12.144826-14.751954-12.321093z" style="opacity:.2"/>
 <path d="m17 34 8 11 2 12s0.052706 1.207853 0.638672 2.435547c1.361437 0.362081 2.788747 0.564453 4.285156 0.564453 0.91297 0 1.798653-0.079713 2.66211-0.21875 0.970198-1.710369 1.414062-3.78125 1.414062-3.78125l8-8 1-6-4 6-8 6-6-13-10-7z" style="opacity:.2"/>
 <path d="m17 33 8 11 2 12s0.194459 5 4.735 5c3.027027 0 4.265-6 4.265-6l8-8 1-6-4 6-8 6-6-13z" style="fill:#ecff50"/>
 <path d="m31.923828 4c-9.692307 0-21 17.111328-21 31.111328 0 0.112608 0.013696 0.23209 0.015625 0.345703 0.341744-13.873288 11.442161-30.457031 20.984375-30.457031 9.527866 0 20.608892 18.034931 20.982422 30.46875 0.002063-0.117521 0.017578-0.240975 0.017578-0.357422 0-12.444444-11.307693-31.111328-21-31.111328z" style="fill:#8b9cbe;opacity:.2"/>
</svg>
