<svg xmlns="http://www.w3.org/2000/svg" width="64" height="64" x="0" y="0" version="1.1" xml:space="preserve">
 <path style="opacity:0.2" d="M 43.026118,52.267014 C 30.185392,59.746298 14.849942,58.075894 5.197675,49.268382 4.9108388,49.006698 4.7149012,48.664316 4.6337422,48.282964 1.9022886,35.460094 8.1199956,21.21993 20.973876,13.732986 33.8146,6.2537012 49.15005,7.9241068 58.802318,16.731621 c 0.286844,0.261679 0.482776,0.604063 0.563934,0.985414 2.731452,12.822867 -3.486148,27.062971 -16.340134,34.549979 z"/>
 <path style="fill:#ff5555" d="M 43.026118,51.267014 C 30.185392,58.746298 14.849942,57.075894 5.197675,48.268382 4.9108388,48.006698 4.7149012,47.664316 4.6337422,47.282964 3.9931423,44.275653 3.8447727,41.190388 4.1587967,38.132563 5.1837394,28.152132 19.105593,29.126565 28.94489,23.395512 41.785616,15.91623 45.94094,10.340255 55.593208,19.147769 c 0.286844,0.261679 3.691886,-2.812086 3.773044,-2.430734 2.731452,12.822867 -3.486148,27.062971 -16.340134,34.549979 z"/>
 <path style="opacity:0.2" d="M 38.574219,9.0019285 C 32.68621,8.9400339 26.592426,10.46021 20.974609,13.732397 10.905266,19.597444 4.9317425,29.608243 4.1191406,39.833959 c 0.1029834,1.157071 0.270751,2.308821 0.5136719,3.449219 0.081159,0.381352 0.2776169,0.722691 0.5644531,0.984375 9.6522674,8.807512 24.9873994,10.479284 37.8281254,3 10.069426,-5.865097 16.04289,-15.875861 16.855468,-26.101562 -0.102984,-1.15707 -0.270751,-2.308822 -0.513671,-3.449219 -0.08116,-0.381352 -0.27761,-0.722696 -0.564454,-0.984375 C 53.373334,11.77817 46.144516,9.0815073 38.574219,9.0019285 Z"/>
 <path style="fill:#b2bfd9" d="M 38.574219 8.0019531 C 32.68621 7.9400585 26.592426 9.4602346 20.974609 12.732422 C 10.905266 18.597469 4.9317425 28.608268 4.1191406 38.833984 C 4.222124 39.991055 4.3898916 41.142805 4.6328125 42.283203 C 4.7139715 42.664555 4.9104294 43.005894 5.1972656 43.267578 C 14.849533 52.07509 30.184665 53.746862 43.025391 46.267578 C 53.094817 40.402481 59.068281 30.391717 59.880859 20.166016 C 59.777875 19.008946 59.610108 17.857194 59.367188 16.716797 C 59.286029 16.335445 59.089578 15.994101 58.802734 15.732422 C 53.373334 10.778195 46.144516 8.0815319 38.574219 8.0019531 z"/>
 <circle style="opacity:0.1" cx="11.213" cy="44.579" r="17" transform="rotate(-30)"/>
 <circle style="fill:#1c93e1" cx="11.713" cy="43.713" r="17" transform="rotate(-30)"/>
 <circle style="opacity:0.95700001;fill:#17191e" cx="11.713" cy="43.713" r="8" transform="rotate(-30)"/>
 <path style="opacity:0.2;fill:#8b9cbe" d="M 38.574219 8 C 32.686211 7.9381054 26.590472 9.4621878 20.972656 12.734375 C 10.112841 19.059846 4.0124519 30.205114 4.0214844 41.244141 C 4.371129 30.537145 10.441364 19.868492 20.972656 13.734375 C 26.590472 10.462188 32.686211 8.9381054 38.574219 9 C 46.144517 9.0795788 53.371379 11.776242 58.800781 16.730469 C 59.087625 16.992148 59.286029 17.337398 59.367188 17.71875 C 59.772821 19.623036 59.956311 21.558109 59.970703 23.498047 C 59.971238 23.510434 59.972136 23.522768 59.972656 23.535156 C 60.030256 21.248656 59.845076 18.962242 59.367188 16.71875 C 59.286029 16.337398 59.087625 15.992148 58.800781 15.730469 C 53.371379 10.776242 46.144517 8.0795788 38.574219 8 z"/>
</svg>
