<svg xmlns="http://www.w3.org/2000/svg" width="64" height="64" x="0" y="0" version="1.1" xml:space="preserve">
 <path style="opacity:0.2" d="M 43.026118,52.267014 C 30.185392,59.746298 14.849942,58.075894 5.197675,49.268382 4.9108388,49.006698 4.7149012,48.664316 4.6337422,48.282964 1.9022886,35.460094 8.1199956,21.21993 20.973876,13.732986 33.8146,6.2537012 49.15005,7.9241068 58.802318,16.731621 c 0.286844,0.261679 0.482776,0.604063 0.563934,0.985414 2.731452,12.822867 -3.486148,27.062971 -16.340134,34.549979 z"/>
 <path style="fill:#4b4e30" d="M 43.026118,51.267014 C 30.185392,58.746298 14.849942,57.075894 5.197675,48.268382 4.9108388,48.006698 4.7149012,47.664316 4.6337422,47.282964 1.9022886,34.460094 8.1199956,20.21993 20.973876,12.732986 33.8146,5.2537008 49.15005,6.9241064 58.802318,15.73162 c 0.286844,0.261679 0.482776,0.604063 0.563934,0.985415 2.731452,12.822867 -3.486148,27.062971 -16.340134,34.549979 z"/>
 <circle style="opacity:0.2" cx="11.213" cy="44.579" r="17" transform="rotate(-30)"/>
 <circle style="fill:#97c800" cx="11.713" cy="43.713" r="17" transform="rotate(-30)"/>
 <circle style="opacity:0.95700001;fill:#17191e" cx="11.713" cy="43.713" r="8" transform="rotate(-30)"/>
 <path style="opacity:0.1;fill:#8b9cbe" d="M 38.574219 8 C 32.686211 7.9381054 26.590472 9.4621878 20.972656 12.734375 C 10.112841 19.059846 4.0124519 30.205114 4.0214844 41.244141 C 4.371129 30.537145 10.441364 19.868492 20.972656 13.734375 C 26.590472 10.462188 32.686211 8.9381054 38.574219 9 C 46.144517 9.0795788 53.371379 11.776242 58.800781 16.730469 C 59.087625 16.992148 59.286029 17.337398 59.367188 17.71875 C 59.772821 19.623036 59.956311 21.558109 59.970703 23.498047 C 59.971238 23.510434 59.972136 23.522768 59.972656 23.535156 C 60.030256 21.248656 59.845076 18.962242 59.367188 16.71875 C 59.286029 16.337398 59.087625 15.992148 58.800781 15.730469 C 53.371379 10.776242 46.144517 8.0795788 38.574219 8 z"/>
 <path style="opacity:0.2;fill:#8b9cbe" d="M 31.599609 15.003906 A 17 17 0 0 0 23.5 17.277344 A 17 17 0 0 0 15.023438 32.664062 A 17 17 0 0 1 23.5 18.277344 A 17 17 0 0 1 46.722656 24.5 A 17 17 0 0 1 48.976562 32.335938 A 17 17 0 0 0 46.722656 23.5 A 17 17 0 0 0 31.599609 15.003906 z"/>
</svg>
