<svg width="64" height="64" version="1.1" xmlns="http://www.w3.org/2000/svg">
 <path d="m32 5c-8.372605 0-11.870946 3.5301478-13.224609 15.091797-0.336258-0.055486-0.678794-0.091797-1.03125-0.091797h-0.488282c-3.465878 0-6.255859 2.789981-6.255859 6.255859v19.488282c0 3.465878 2.789981 6.255859 6.255859 6.255859h0.488282c0.55737 0 1.093794-0.07932 1.607421-0.214844 0.716096 3.544626 1.449219 6.044922 1.449219 6.044922s0.599219 3.169922 6.199219 3.169922c7 0 8-3 8-3v-3c-0.094-1.387062 1.340033-1 2-1 1 0 1 3 1 3s0.999219 0.830078 5.199219 0.830078c5.6 0 7-2.78125 7-2.78125s1.800781-4.487852 1.800781-10.048828c0-6.288486-0.778454-11.744913-1.861328-17.798828 1.149304-1.133136 1.861328-2.708073 1.861328-4.457031v-0.488282c0-2.858286-1.900438-5.250711-4.509766-6.003906-1.76378-5.993265-4.001065-11.251953-15.490234-11.251953z" style="opacity:.2"/>
 <rect x="11" y="19" width="13" height="32" ry="6.2560978" style="fill:#a20109"/>
 <path d="m17.255859 19c-3.465878 0-6.255859 2.789981-6.255859 6.255859v1c0-3.465878 2.789981-6.255859 6.255859-6.255859h0.488282c3.465878 0 6.255859 2.789981 6.255859 6.255859v-1c0-3.465878-2.789981-6.255859-6.255859-6.255859h-0.488282z" style="fill:#8b9cbe;opacity:.1"/>
 <path d="m18 39c0 8.341463 2.8 17.829268 2.8 17.829268s0.6 3.170732 6.2 3.170732c7 0 8-3 8-3v-3c-0.094-1.387062 1.340033-1 2-1 1 0 1 3 1 3s1 0.829268 5.2 0.829268c5.6 0 7-2.780488 7-2.780488s1.8-4.487804 1.8-10.04878c0-9.37198-1.2-17.268293-4-27-1.923048-6.683764-3.4-13-16-13-12 0-14 7.195122-14 35z" style="fill:#d6000a"/>
 <path d="m32 4c-12 0-14 7.195122-14 35 0 0.067916 0.003538 0.137016 0.003906 0.205078 0.04034-27.120952 2.115941-34.205078 13.996094-34.205078 12.6 0 14.076952 6.316236 16 13 2.72889 9.484558 3.928627 17.23583 3.988281 26.298828 0.001198-0.101616 0.011719-0.196464 0.011719-0.298828 0-9.37198-1.2-17.268293-4-27-1.923048-6.683764-3.4-13-16-13z" style="fill:#8b9cbe;opacity:.2"/>
 <path d="m34.255859 16c-3.465878 0-6.255859 2.789981-6.255859 6.255859v0.488282c0 3.465878 2.789981 6.255859 6.255859 6.255859h11.488282c1.79849 0 3.409672-0.755704 4.548828-1.962891-0.545516-3.233164-1.285489-6.535503-2.292969-10.037109-0.062499-0.217223-0.125546-0.428289-0.1875-0.644531-0.647977-0.225978-1.341426-0.355469-2.068359-0.355469h-11.488282z" style="opacity:.2"/>
 <rect x="28" y="15" width="24" height="13" ry="6.2560978" style="fill:#84ddd1"/>
 <path d="m34.255859 15c-3.465878 0-6.255859 2.789981-6.255859 6.255859v0.488282c0 0.086502 0.008275 0.170231 0.011719 0.255859 0.134517-3.345207 2.864765-6 6.24414-6h11.488282c3.379375 0 6.109623 2.654793 6.24414 6 0.003444-0.085628 0.011719-0.169357 0.011719-0.255859v-0.488282c0-3.465878-2.789981-6.255859-6.255859-6.255859h-11.488282z" style="fill:#8b9cbe;opacity:.2"/>
</svg>
