<svg xmlns="http://www.w3.org/2000/svg" width="64" height="64" version="1">
 <path style="fill:#2aa2ee" d="m26.748 59.976c-6.277-0.642-10.648-2.438-13.878-5.7-1.306-1.318-2.192-2.53-2.9289-4.004-1.5593-3.118-2.0481-6.625-1.2848-9.219 0.75898-2.5799 2.4857-5.4238 4.916-8.0997 1.3496-1.484 2.0323-2.4479 2.6567-3.6599 0.75298-1.46 0.83417-2.4379 0.77078-3.7939-0.0614-1.316-0.34379-1.8819-1.0654-2.4819-0.68398-0.56598-0.96597-0.87997-3.0825-0.77798-2.0659 0.098-3.0791-0.028-4.0659-0.50398-0.7652-0.37-1.0364-0.788-0.7998-1.234 1.2303-0.959 1.6619-2.009 3.0138-2.498-1.9787-1.687-3.9324-3.453-3.9998-5.974 0.139-1.35 1.3884-1.025 1.3884-1.025 1.959 0.39681 3.9837 0.79588 5.8286 0.85823 0.53056-0.07196 1.0899-0.21343 1.243-0.31439s0.5703-0.6993 0.92715-1.3297c1.3908-2.4567 2.8635-4.0429 4.5135-4.8606 1.9012-0.94241 4.5911-1.4465 7.1442-1.3389 3.0695 0.1294 5.6766 1.1907 7.8055 3.1777 1.4635 1.3658 2.4319 1.7074 3.8239 1.3485 0.97919-0.25247 1.0013-0.25123 1.0013 0.055918 0 0.40363-0.32211 0.92663-0.81649 1.3258l-0.45544 0.36771 0.45912 0.27263c0.63272 0.37571 0.55778 0.67786-0.19497 0.78622-0.627 0.09028-1.0969 0.29821-1.0969 0.4854 0 0.0661 0.08998 0.63884 0.19999 1.2728 0.26985 1.5553 0.17371 4.5689-0.19319 6.056-0.56798 2.3063-1.43 3.9303-2.8999 5.4722-1.144 1.04-4.3759 3.1739-4.6778 3.3639 0.1415 0 1.3796-0.07268 2.2085 0.000784 3.0337 0.26891 5.1464 0.78022 8.1929 2.1999 2.8775 1.3409 4.1003 1.4855 5.6928 0.67314 1.0162-0.51836 2.4709-1.6243 3.5579-3.0893 0.92997-1.252 1.484-1.7839 2.3479-1.7839 0.84599 0 1.4537 0.55758 2.0941 1.535 0.90679 1.3841 1.4014 2.3725 1.7533 4.7834 0.25149 1.723 0.18083 5.7674-0.13078 7.4852-1.8623 10.266-8.4139 17.177-18.416 19.428-2.6995 0.60734-3.7871 0.71652-7.528 0.75562-1.9407 0.02028-3.7513 0.014-4.0237-0.0138z"/>
 <path style="opacity:.2;fill:#8b9cbe" d="m27.082 4.0059c-2.251 0.0372-4.518 0.5269-6.182 1.3515-1.65 0.8178-3.123 2.4046-4.513 4.8616-0.357 0.63-0.773 1.227-0.926 1.328s-0.714 0.242-1.244 0.314c-1.845-0.062-3.869-0.46-5.8283-0.857 0 0-1.2497-0.325-1.3887 1.025 0.0061 0.228 0.0427 0.443 0.0781 0.659 0.3024-0.936 1.3106-0.684 1.3106-0.684 1.9593 0.397 3.9833 0.795 5.8283 0.857 0.53-0.072 1.091-0.213 1.244-0.314s0.569-0.7 0.926-1.33c1.39-2.4569 2.863-4.0418 4.513-4.8596 1.902-0.9424 4.592-1.4475 7.145-1.3398 3.069 0.1294 5.676 1.1908 7.805 3.1777 1.463 1.3658 2.432 1.7085 3.824 1.3496 0.38-0.0981 0.529-0.1242 0.676-0.1426 0.199-0.2756 0.326-0.5605 0.326-0.8027 0-0.3071-0.023-0.3071-1.002-0.0547-1.392 0.3589-2.361 0.0162-3.824-1.3496-2.129-1.9869-4.736-3.0483-7.805-3.1777-0.319-0.0135-0.641-0.0171-0.963-0.0117zm12.988 6.7211c-0.068 0.067-0.133 0.136-0.211 0.199l-0.455 0.367 0.143 0.084c0.042-0.007 0.077-0.017 0.121-0.023 0.639-0.092 0.758-0.33 0.402-0.627zm-1.369 1.941c-0.076 0.056-0.131 0.114-0.131 0.17 0 0.066 0.091 0.639 0.201 1.273 0.097 0.559 0.132 1.321 0.139 2.118 0.04-1.156-0.001-2.325-0.139-3.118-0.038-0.22-0.039-0.256-0.07-0.443zm-28.416 5.699c-0.8379 0.55-1.3169 1.369-2.2987 2.135-0.1527 0.288-0.0714 0.561 0.1953 0.82 1.0693-0.909 1.5492-1.861 2.8184-2.32-0.244-0.208-0.475-0.423-0.715-0.635zm42.715 7.637c-0.864 0-1.418 0.531-2.348 1.783-1.087 1.465-2.542 2.572-3.558 3.09-1.593 0.812-2.814 0.667-5.692-0.674-3.046-1.42-5.159-1.93-8.193-2.199-0.215-0.019-0.463-0.011-0.707-0.014-0.663 0.451-1.39 0.941-1.502 1.012 0.141 0 1.38-0.072 2.209 0.002 3.034 0.269 5.147 0.779 8.193 2.199 2.878 1.341 4.099 1.486 5.692 0.674 1.016-0.518 2.471-1.625 3.558-3.09 0.93-1.252 1.484-1.783 2.348-1.783 0.846 0 1.453 0.558 2.094 1.535 0.907 1.384 1.402 2.372 1.754 4.783 0.1 0.689 0.136 1.774 0.138 2.908 0.032-1.496-0.008-3.012-0.138-3.908-0.352-2.411-0.847-3.399-1.754-4.783-0.641-0.977-1.248-1.535-2.094-1.535zm-36 0.562c-0.042 0.873-0.229 1.676-0.771 2.727-0.625 1.212-1.307 2.176-2.657 3.66-2.43 2.676-4.1568 5.52-4.9158 8.1-0.2746 0.933-0.3808 1.986-0.3398 3.095 0.0372-0.742 0.149-1.447 0.3398-2.095 0.759-2.58 2.4858-5.424 4.9158-8.1 1.35-1.484 2.032-2.448 2.657-3.66 0.739-1.434 0.828-2.408 0.771-3.727z"/>
 <path style="opacity:.2" d="m40.543 9.3631c-0.02875-0.00161-0.15287 0.035628-0.19531 0.041016-0.1327 0.18264-0.29165 0.36272-0.48828 0.52148l-0.45508 0.36719 0.45898 0.27344c0.09565 0.05679 0.14362 0.10714 0.20703 0.16016 0.36826-0.3643 0.60547-0.78658 0.60547-1.127 0-0.15358-0.0049-0.22918-0.13281-0.23633zm-0.99805 2.0137c-0.56059 0.09871-0.97461 0.28698-0.97461 0.46094 0 0.04308 0.07377 0.47985 0.13086 0.83008 0.17783-0.13089 0.52829-0.25131 0.9668-0.31445 0.75276-0.10836 0.82803-0.4114 0.19531-0.78711zm-32.467 1.31c-0.0332 0.103-0.0643 0.209-0.0781 0.342 0.059093 2.2105 1.5804 3.8324 3.2852 5.3379 0.212-0.139 0.442-0.267 0.715-0.365-1.7999-1.535-3.5642-3.141-3.9219-5.315zm31.832 3.541c-0.03851 1.1111-0.15217 2.2085-0.33203 2.9375-0.56798 2.3063-1.4304 3.9307-2.9004 5.4727-1.144 1.04-4.376 3.174-4.678 3.364 0.10501 0 0.8084-0.02305 1.5059-0.01367 1.1224-0.76353 2.4537-1.6967 3.1719-2.3496 1.47-1.542 2.3324-3.1663 2.9004-5.4727 0.23514-0.95309 0.34438-2.5162 0.33203-3.9375zm-30.728 5.096c-0.069644 0.05919-0.12009 0.11907-0.19531 0.17773-0.23659 0.44599 0.035406 0.86243 0.80078 1.2324 0.98677 0.47598 1.9985 0.60386 4.0645 0.50586 2.1165-0.102 2.3981 0.21136 3.082 0.77734 0.72158 0.59998 1.005 1.1665 1.0664 2.4824 0.0011 0.02347-0.001 0.04316 0 0.06641 0.01647-0.33918 0.01775-0.68881 0-1.0684-0.0614-1.316-0.34483-1.8805-1.0664-2.4805-0.68398-0.56598-0.9655-0.88129-3.082-0.7793-2.0659 0.098-3.0777-0.02792-4.0645-0.50391-0.2707-0.131-0.459-0.268-0.6055-0.41zm48.804 14.906c-0.02949 1.3837-0.11985 2.7511-0.26953 3.5762-1.8623 10.266-8.4137 17.177-18.416 19.428-2.6995 0.60734-3.7865 0.71676-7.5273 0.75586-1.9407 0.02028-3.753 0.01413-4.0254-0.01367v-0.002c-6.276-0.642-10.649-2.437-13.879-5.699-1.305-1.318-2.191-2.53-2.9276-4.004-0.9746-1.948-1.5311-4.049-1.625-5.984-0.082255 2.1948 0.47923 4.6934 1.625 6.9844 0.73678 1.474 1.6226 2.686 2.9277 4.0039 3.2301 3.2619 7.6027 5.0592 13.879 5.7012 0.27239 0.0278 2.0847 0.03395 4.0254 0.01367 3.7409-0.0391 4.8278-0.14852 7.5273-0.75586 10.002-2.2503 16.554-9.1619 18.416-19.428 0.18697-1.0306 0.27359-2.8743 0.26953-4.5762z"/>
</svg>
