<svg xmlns="http://www.w3.org/2000/svg" width="64" height="64" version="1">
 <rect style="opacity:0.2" width="55.999" height="55.999" x="4" y="5" rx="28" ry="28"/>
 <rect style="fill:#295f6e" width="55.999" height="55.999" x="4" y="4" rx="28" ry="28"/>
 <path style="opacity:0.1;fill:#8b9cbe" d="M 32 4 C 16.488222 4 4 16.488222 4 32 C 4 32.113554 4.0112846 32.224034 4.0175781 32.335938 C 4.3691163 17.134398 16.710946 5 32 5 C 47.289054 5 59.630884 17.134398 59.982422 32.335938 C 59.988797 32.224034 60 32.113554 60 32 C 60 16.488222 47.511778 4 32 4 z"/>
 <path style="opacity:0.2" d="m 19.315969,22.918513 a 1.3334449,1.3334449 0 0 0 -1.062484,2.035126 l 2.679649,4.460875 c -2.726811,2.582987 -4.551231,6.102774 -4.929617,10.046732 -0.0735,1.53992 1.55076,1.53904 1.55076,1.53904 h 28.851149 c 0,0 1.670878,-3.38e-4 1.589821,-1.617165 -0.394804,-3.915966 -2.217052,-7.40607 -4.929617,-9.972513 l 2.675743,-4.456969 a 1.3334449,1.3334449 0 0 0 -1.09764,-2.035126 1.3334449,1.3334449 0 0 0 -1.187483,0.664054 l -2.496058,4.152285 c -2.56161,-1.717556 -5.635748,-2.734337 -8.956904,-2.734337 -3.323947,0 -6.401789,1.017809 -8.964716,2.738243 L 20.542514,23.582567 A 1.3334449,1.3334449 0 0 0 19.315969,22.918513 Z M 23.999496,33.0004 a 1.9999673,1.9999673 0 0 1 1.999972,1.999972 1.9999673,1.9999673 0 0 1 -1.999972,1.999971 1.9999673,1.9999673 0 0 1 -1.999971,-1.999971 1.9999673,1.9999673 0 0 1 1.999971,-1.999972 z m 15.999772,0 a 1.9999673,1.9999673 0 0 1 1.999971,1.999972 1.9999673,1.9999673 0 0 1 -1.999971,1.999971 1.9999673,1.9999673 0 0 1 -1.999972,-1.999971 1.9999673,1.9999673 0 0 1 1.999972,-1.999972 z"/>
 <path style="fill:none;stroke:#30dd81;stroke-width:2.66662312;stroke-linecap:round" d="M 22.598674,28.600844 19.398728,23.267598"/>
 <path style="fill:none;stroke:#30dd81;stroke-width:2.66662312;stroke-linecap:round" d="m 41.398414,28.600844 3.199948,-5.333246"/>
 <path style="fill:#30dd81" d="m 32.003288,24.000543 c -8.355749,0 -15.221312,6.346784 -15.999771,14.460732 -0.0735,1.53992 1.55076,1.53904 1.55076,1.53904 h 28.851149 c 0,0 1.670878,-3.38e-4 1.589821,-1.617165 C 47.180921,30.306045 40.332619,24.000543 32.003288,24.000543 Z"/>
 <path style="opacity:0.2" d="m 23.999714,33.0004 a 1.9999673,1.9999673 0 0 0 -1.999971,1.999972 1.9999673,1.9999673 0 0 0 1.999971,1.999971 1.9999673,1.9999673 0 0 0 1.999972,-1.999971 1.9999673,1.9999673 0 0 0 -1.999972,-1.999972 z m 15.999772,0 a 1.9999673,1.9999673 0 0 0 -1.999972,1.999972 1.9999673,1.9999673 0 0 0 1.999972,1.999971 1.9999673,1.9999673 0 0 0 1.999971,-1.999971 1.9999673,1.9999673 0 0 0 -1.999971,-1.999972 z"/>
 <path style="fill:#8b9cbe" d="M 23.999496,32.000429 A 1.9999673,1.9999673 0 0 1 25.999468,34.0004 1.9999673,1.9999673 0 0 1 23.999496,36.000372 1.9999673,1.9999673 0 0 1 21.999525,34.0004 1.9999673,1.9999673 0 0 1 23.999496,32.000429 Z"/>
 <path style="fill:#8b9cbe" d="M 39.999268,32.000429 A 1.9999673,1.9999673 0 0 1 41.999239,34.0004 1.9999673,1.9999673 0 0 1 39.999268,36.000372 1.9999673,1.9999673 0 0 1 37.999296,34.0004 1.9999673,1.9999673 0 0 1 39.999268,32.000429 Z"/>
</svg>
