<svg xmlns="http://www.w3.org/2000/svg" width="64" height="64" version="1">
 <path style="fill:#0088d1" d="m26.508 4.5951a5.9112 5.7568 0 0 0 -4.335 4.4509l-2.514 12.285-11.813 4.95a5.9112 5.7568 0 0 0 -0.5537 10.307l11.217 6.1233 1.1798 12.472a5.9112 5.7568 0 0 0 9.8962 3.7026l9.4502-8.4996 12.543 2.7605a5.9112 5.7568 0 0 0 6.6693 -8.0255l-5.38-11.376 6.575-10.766a5.9112 5.7568 0 0 0 -5.772 -8.656l-12.777 1.467-8.48-9.4165a5.9112 5.7568 0 0 0 -5.906 -1.7784z"/>
 <path style="fill:#b2bfd9" d="m27.676 4.4242a5.9112 5.7568 0 0 0 -1.172 0.17179 5.9112 5.7568 0 0 0 -4.3318 4.4492l-2.515 12.289-11.812 4.949a5.9112 5.7568 0 0 0 -0.5546 10.308l11.218 6.1197 1.1798 12.473a5.9112 5.7568 0 0 0 9.8936 3.7018l9.4536-8.4996 12.541 2.7619a5.9112 5.7568 0 0 0 6.6677 -8.0257l-5.378-11.375 6.574-10.765a5.9112 5.7568 0 0 0 -5.7738 -8.6594l-12.776 1.468-8.481-9.4177a5.9112 5.7568 0 0 0 -4.734 -1.9491zm0.28199 5.9686 0.008 0.0078c0 0.0004-0.01 0.0118-0.008 0.0116 0.018 0.0014 0.034 0.018-0.00002-0.01939zm0.05 0.0546 8.4257 9.359a6.0004 6.0004 0 0 0 5.1438 1.9453l12.457-1.434-6.29 10.301a6.0004 6.0004 0 0 0 -0.30399 5.6938l5.168 10.918-12.286-2.702a6.0004 6.0004 0 0 0 -5.3038 1.3979l-9.381 8.441-1.158-12.219a6.0004 6.0004 0 0 0 -3.096 -4.702l-10.711-5.848 11.301-4.734a6.0004 6.0004 0 0 0 3.5619 -4.3278l2.4719-12.09z"/>
 <path style="opacity:.2;fill:#8b9cbe" d="m26.504 4.5963a5.9112 5.7568 0 0 0 -2.5339 1.3422 5.9112 5.7568 0 0 0 -0.02853 0.0218 5.9112 5.7568 0 0 0 -0.0019 0.0005054 5.9112 5.7568 0 0 0 -0.0014 0.00239 5.9112 5.7568 0 0 0 -0.40815 0.40862 5.9112 5.7568 0 0 0 -0.0033 0.0029 5.9112 5.7568 0 0 0 -0.36482 0.44959 5.9112 5.7568 0 0 0 -0.0033 0.0029 5.9112 5.7568 0 0 0 -0.31597 0.48098 5.9112 5.7568 0 0 0 -0.27038 0.51527 5.9112 5.7568 0 0 0 -0.21274 0.5342 5.9112 5.7568 0 0 0 -0.0014 0.00239 5.9112 5.7568 0 0 0 -0.1556 0.55124 5.9112 5.7568 0 0 0 -0.0014 0.00239 5.9112 5.7568 0 0 0 -0.02953 0.13126 5.9112 5.7568 0 0 0 0.000506 0.00189l-2.5137 12.284-0.0019 0.000506-11.811 4.9501a5.9112 5.7568 0 0 0 -1.0329 0.55984 5.9112 5.7568 0 0 0 -0.46647 0.34944 5.9112 5.7568 0 0 0 -0.00138 0.0024 5.9112 5.7568 0 0 0 -0.4288 0.39191 5.9112 5.7568 0 0 0 -0.00138 0.0024 5.9112 5.7568 0 0 0 -0.38547 0.43288 5.9112 5.7568 0 0 0 -0.00138 0.0024 5.9112 5.7568 0 0 0 -0.33989 0.46717 5.9112 5.7568 0 0 0 -0.00138 0.0024 5.9112 5.7568 0 0 0 -0.28864 0.49994 5.9112 5.7568 0 0 0 -0.00138 0.0024 5.9112 5.7568 0 0 0 -0.23565 0.52416 5.9112 5.7568 0 0 0 -0.00138 0.0024 5.9112 5.7568 0 0 0 -0.18178 0.5441 5.9112 5.7568 0 0 0 -0.00138 0.0024 5.9112 5.7568 0 0 0 -0.059439 0.26868 5.9112 5.7568 0 0 0 -0.065198 0.29246 5.9112 5.7568 0 0 0 0.0005055 0.0019 5.9112 5.7568 0 0 0 0.27168 2.8854 5.9112 5.7568 0 0 1 -0.082944 -1.1849 5.9112 5.7568 0 0 1 0.00295 -0.16255 5.9112 5.7568 0 0 0 -0.0005057 -0.0019 5.9112 5.7568 0 0 1 0.067633 -0.57013 5.9112 5.7568 0 0 0 -0.0005055 -0.0019 5.9112 5.7568 0 0 1 0.065198 -0.29246 5.9112 5.7568 0 0 1 0.059439 -0.26868 5.9112 5.7568 0 0 0 0.00138 -0.0024 5.9112 5.7568 0 0 1 0.18178 -0.5441 5.9112 5.7568 0 0 0 0.00138 -0.0024 5.9112 5.7568 0 0 1 0.23565 -0.52416 5.9112 5.7568 0 0 0 0.00138 -0.0024 5.9112 5.7568 0 0 1 0.28915 -0.49806 5.9112 5.7568 0 0 0 0.00138 -0.0024 5.9112 5.7568 0 0 1 0.33938 -0.46906 5.9112 5.7568 0 0 0 0.00138 -0.0024 5.9112 5.7568 0 0 1 0.38547 -0.43288 5.9112 5.7568 0 0 0 0.00138 -0.0024 5.9112 5.7568 0 0 1 0.4288 -0.39191 5.9112 5.7568 0 0 0 0.00138 -0.0024 5.9112 5.7568 0 0 1 0.46647 -0.34944 5.9112 5.7568 0 0 1 1.0329 -0.55984l11.811-4.9501 0.0019-0.000506 2.5137-12.284a5.9112 5.7568 0 0 0 -0.000506 -0.0019 5.9112 5.7568 0 0 1 0.02691 -0.11842 5.9112 5.7568 0 0 1 0.0031 -0.01095 5.9112 5.7568 0 0 1 0.000876 -0.00428 5.9112 5.7568 0 0 1 0.05011 -0.17519 5.9112 5.7568 0 0 1 0.10548 -0.37605 5.9112 5.7568 0 0 0 0.0014 -0.00239 5.9112 5.7568 0 0 1 0.21274 -0.5342 5.9112 5.7568 0 0 1 0.27038 -0.51527 5.9112 5.7568 0 0 1 0.31597 -0.48098 5.9112 5.7568 0 0 1 0.0033 -0.0029 5.9112 5.7568 0 0 1 0.36532 -0.4477 5.9112 5.7568 0 0 1 0.0033 -0.0029 5.9112 5.7568 0 0 1 0.40764 -0.41051 5.9112 5.7568 0 0 0 0.0014 -0.00239 5.9112 5.7568 0 0 0 0.0019 -0.0005055 5.9112 5.7568 0 0 1 0.02853 -0.021799 5.9112 5.7568 0 0 1 2.5339 -1.3422 5.9112 5.7568 0 0 1 0.0038 -0.00101 5.9112 5.7568 0 0 1 0.58036 -0.11304 5.9112 5.7568 0 0 0 0.0019 -0.0005055 5.9112 5.7568 0 0 1 0.58697 -0.058199 5.9112 5.7568 0 0 1 0.58654 0.000556 5.9112 5.7568 0 0 1 0.0043 0.0008757 5.9112 5.7568 0 0 1 0.58321 0.056043 5.9112 5.7568 0 0 1 1.6933 0.50877 5.9112 5.7568 0 0 1 0.5144 0.27466 5.9112 5.7568 0 0 1 1.3552 1.1109l8.4797 9.4152 12.774-1.4675a5.9112 5.7568 0 0 1 6.2682 3.8183 5.9112 5.7568 0 0 0 -6.5276 -4.7861l-12.775 1.47-8.48-9.4175a5.9112 5.7568 0 0 0 -1.354 -1.1091 5.9112 5.7568 0 0 0 -0.515 -0.2746 5.9112 5.7568 0 0 0 -0.0043 -0.0008756 5.9112 5.7568 0 0 0 -0.54101 -0.22305 5.9112 5.7568 0 0 0 -1.148 -0.28485 5.9112 5.7568 0 0 0 -0.14332 -0.014171 5.9112 5.7568 0 0 0 -0.44417 -0.042748 5.9112 5.7568 0 0 0 -0.58654 -0.0005561 5.9112 5.7568 0 0 0 -1.1692 0.17175 5.9112 5.7568 0 0 0 -0.0038 0.00101zm-7.914 38.986 1.099 11.601a5.9112 5.7568 0 0 0 0.32236 1.3917 5.9112 5.7568 0 0 1 -0.06354 -0.4258l-1.18-12.471zm34.646-9.0529-0.11062 0.18332 5.3815 11.376a5.9112 5.7568 0 0 1 0.19382 0.48188 5.9112 5.7568 0 0 0 -0.45264 -1.4478z"/>
 <path style="opacity:.2" d="m4.6246 33.518a5.9112 5.7568 0 0 0 2.9243 4.039l7.4196 4.0477 3.6216 1.9777-0.08144-0.86989-3.799-2.0737-7.4196-4.0477a5.9112 5.7568 0 0 1 -2.6657 -3.073zm55.57-14.411a5.9112 5.7568 0 0 1 0.02029 1.7133 5.9112 5.7568 0 0 0 0.000517 0.0019 5.9112 5.7568 0 0 1 -0.10803 0.56276 5.9112 5.7568 0 0 1 -0.06467 0.21144 5.9112 5.7568 0 0 1 -0.10276 0.34095 5.9112 5.7568 0 0 1 -0.22268 0.53484 5.9112 5.7568 0 0 1 -0.27429 0.50823l-6.5763 10.766 0.36944 0.78261 6.4638-10.582 0.0019-0.000518a5.9112 5.7568 0 0 0 0.27429 -0.50823 5.9112 5.7568 0 0 0 -0.000518 -0.0019 5.9112 5.7568 0 0 0 0.22369 -0.53107 5.9112 5.7568 0 0 0 -0.000517 -0.0019 5.9112 5.7568 0 0 0 0.10276 -0.34095 5.9112 5.7568 0 0 0 0.06467 -0.21144 5.9112 5.7568 0 0 0 0.10803 -0.56276 5.9112 5.7568 0 0 0 -0.000517 -0.0019 5.9112 5.7568 0 0 0 -0.27911 -2.6792zm-21.158 31.28-9.4504 8.4992a5.9112 5.7568 0 0 1 -5.0613 1.433 5.9112 5.7568 0 0 0 -0.0019 0.000518 5.9112 5.7568 0 0 1 -2.1798 -0.84549 5.9112 5.7568 0 0 1 -1.3203 -1.1466 5.9112 5.7568 0 0 1 -0.35358 -0.45929 5.9112 5.7568 0 0 0 -0.000517 -0.0019 5.9112 5.7568 0 0 1 -0.30392 -0.49282 5.9112 5.7568 0 0 1 -0.25224 -0.5188 5.9112 5.7568 0 0 0 -0.000517 -0.0019 5.9112 5.7568 0 0 1 -0.10086 -0.2783 5.9112 5.7568 0 0 0 0.35968 1.2442 5.9112 5.7568 0 0 0 0.000517 0.0019 5.9112 5.7568 0 0 0 0.25224 0.5188 5.9112 5.7568 0 0 0 0.30392 0.49282 5.9112 5.7568 0 0 0 0.35408 0.46118 5.9112 5.7568 0 0 0 1.8288 1.437 5.9112 5.7568 0 0 0 0.537 0.23827 5.9112 5.7568 0 0 0 0.55744 0.18629 5.9112 5.7568 0 0 0 0.0019 -0.000518 5.9112 5.7568 0 0 0 0.57499 0.13104 5.9112 5.7568 0 0 0 0.0019 -0.000517 5.9112 5.7568 0 0 0 5.0613 -1.433l9.4499-8.5011 12.541 2.7624 0.0019-0.000518a5.9112 5.7568 0 0 0 0.58062 0.0992 5.9112 5.7568 0 0 0 0.0019 -0.000518 5.9112 5.7568 0 0 0 0.58721 0.04082 5.9112 5.7568 0 0 0 0.0019 -0.000518 5.9112 5.7568 0 0 0 1.1754 -0.08847 5.9112 5.7568 0 0 0 0.0019 -0.000517 5.9112 5.7568 0 0 0 0.57581 -0.13002 5.9112 5.7568 0 0 0 0.55876 -0.18612 5.9112 5.7568 0 0 0 1.0471 -0.52929 5.9112 5.7568 0 0 0 2.3325 -6.7497 5.9112 5.7568 0 0 1 -1.2722 4.6397 5.9112 5.7568 0 0 0 -0.0019 0.000517 5.9112 5.7568 0 0 1 -1.826 1.4335 5.9112 5.7568 0 0 1 -0.53844 0.23931 5.9112 5.7568 0 0 1 -0.55876 0.18612 5.9112 5.7568 0 0 1 -0.57581 0.13002 5.9112 5.7568 0 0 0 -0.0019 0.000517 5.9112 5.7568 0 0 1 -0.58292 0.07329 5.9112 5.7568 0 0 1 -0.0038 0.001 5.9112 5.7568 0 0 1 -1.1778 -0.02614 5.9112 5.7568 0 0 0 -0.0019 0.000518 5.9112 5.7568 0 0 1 -0.58062 -0.0992l-0.0019 0.000518-4.2826-0.94324z"/>
</svg>
