<svg xmlns="http://www.w3.org/2000/svg" height="64" width="64" version="1.1">
 <g transform="matrix(1.4375001 0 0 1.4 -.5000008 -1.2)">
  <path style="opacity:.2" d="m13.787299 42.286213s15.082265-2.143357 19.95183-0.000499l1.391305-2.142858 2.086956 0.714286 1.827022-17.006443-7.749897-12.495625h-14.589347l-5.835739 17.493875v10.621806z"/>
  <path style="fill:#4a2803" d="m13.787298 41.571928s15.082266-2.143357 19.951831-0.000499l1.391304-2.142858 2.086956 0.714286 1.827023-17.006443-7.749898-12.495625h-14.589347l-5.835739 17.493875v10.621806z"/>
  <path style="opacity:.2" d="m34.212383 28.850875s0 2.499125 2.91787 2.499125c2.917869 0 1.582573-2.499125 1.582573-2.499125s1.335296-2.499125-1.582573-2.499125c-2.91787 0-2.91787 2.499125-2.91787 2.499125z"/>
  <path style="fill:#d3aa7b" d="m34.212383 28.136632s0 2.499125 2.91787 2.499125c2.917869 0 1.582573-2.499125 1.582573-2.499125s1.335296-2.499125-1.582573-2.499125c-2.91787 0-2.91787 2.499125-2.91787 2.499125z"/>
  <path style="opacity:.2" d="m24.695651 36.571429c-8.753606 0-12.702799-12.720479-12.702799-12.720479s1.809867-12.495626 13.481343-12.495626c11.671479 0 11.671479 14.994751 11.671479 14.994751s-3.696413 10.221354-12.450023 10.221354z"/>
  <path style="fill:#debf9c" d="m24.680231 35.858861c-8.753607 0-12.7028-12.720479-12.7028-12.720479s1.809867-12.495626 13.481343-12.495626c11.671479 0 11.671479 14.994751 11.671479 14.994751s-3.696413 10.221354-12.450022 10.221354z"/>
  <path style="opacity:.2" d="m25.409318 3.7144387c-7.245209-0.017044-10.409319 3.9998474-11.262989 4.8603744-0.264237-1.289098-1.276765-2.71767-4.059373-2.71767l3.033561 3.684129c-0.307783 0.322462-0.613231 0.6015859-0.946605 1.3158709h-2.7826085s0.7000265 0.754175 1.8827485 1.129561c-1.5825155 2.476819-3.2730385 5.626017-3.2730385 11.670511 0 15.947807 1.39029 17.914214 1.39029 17.914214l1.3913055 0.714286v-2.142858l3.478259 4.285715v-12.857143s0.130434-3.428572 4.869565-0.714286c-2.652174-4.857143-4.173913-10-4.173913-10s2.782609-1.428571 2.782609-5.714286c4.173914 13.571429 18.04893 11.400807 19.458411 12.841236 1.4455 1.47724 0.01985 8.587336 0.01985 8.587336s-1.087353 6.844406 0.07935 4.905577c1.508393-2.506627 2.700612-16.365408 2.701926-23.445579 0.0013-7.174284-5.786284-11.447-5.786284-11.447s-2.917869-2.8561434-8.803064-2.8699884z"/>
  <path style="fill:#723f05" d="m25.409319 3.000153c-7.24521-0.0170445-10.409319 3.999847-11.262989 4.8603739-0.264237-1.2890983-1.276765-2.7176698-4.059374-2.7176698l3.033562 3.6841284c-0.307783 0.3224622-0.613231 0.6015859-0.946605 1.3158715h-2.7826087s0.7000257 0.754175 1.8827477 1.129561c-1.5825151 2.476819-3.2730377 5.626017-3.2730377 11.670511 0 15.947807 1.39029 17.914214 1.39029 17.914214l1.3913047 0.714286v-2.142858l3.47826 4.285715v-12.857143s0.130434-3.428572 4.869565-0.714286c-2.652174-4.857143-4.173913-10-4.173913-10s2.782609-1.428571 2.782609-5.714286c4.173913 13.571429 18.04893 11.400807 19.45841 12.841236 1.445501 1.47724 0.01985 8.587336 0.01985 8.587336s-1.087352 6.844406 0.07935 4.905577c1.508393-2.506627 2.700612-16.365408 2.701926-23.445579 0.0013-7.174284-5.786284-11.447-5.786284-11.447s-2.917869-2.856143-8.803064-2.869988z"/>
  <path style="fill:#302100" d="m18.116249 20.631616c1.709837-0.488759 2.405489 0.225527 2.405489 0.225527s-0.903613-0.396513-2.06618 0.0043c-0.992728 0.342213-1.455558 2.138557-1.455558 2.138557s0.04348-2.142857 1.116249-2.368384z"/>
  <path style="stroke-linejoin:round;stroke:#302100;stroke-linecap:round;stroke-width:.56392588;fill:none" d="m24.695651 33s1.246045-0.564412 2.353493-0.654895c0.613851-0.05017 1.124768 0.284137 1.124768 0.284137"/>
  <path style="stroke-linejoin:round;stroke:#302100;stroke-linecap:round;stroke-width:.56392588;fill:none" d="m25 30s0.51953 0.728944 2.384651 0.728944c1.458352 0 1.615349-1.728944 1.615349-1.728944"/>
  <path style="fill:#ff8080" d="m52.6875 31l-1.509766 5.365234c0.859008 0.154016 1.490618 0.33181 1.775391 0.601563l-0.265625-5.966797z" transform="matrix(.69565213 0 0 .71428571 .34782662 .85714286)"/>
  <path style="fill:#302100" d="m20.530076 22.996853c-1.208621 0-2.097555 1.282886-2.097555 2.86029s0.890237 2.858578 2.098858 2.858578 2.068114-1.272614 2.068114-2.850018-0.860796-2.86885-2.069417-2.86885zm-0.0083 0.717433c0.703198-0.000225 1.390996 0.95333 1.391305 2.142857-0.000309 1.189527-0.688107 2.143082-1.391305 2.142857-0.703198 0.000226-1.390995-0.95333-1.391304-2.142857 0.000309-1.189527 0.688106-2.143083 1.391304-2.142857z"/>
  <ellipse style="opacity:.2" rx="2.7826085" ry="2.8571436" cy="28" cx="14.260869"/>
  <ellipse style="fill:#debf9c" rx="2.7826085" ry="2.8571436" cy="27.285715" cx="14.260869"/>
  <path style="opacity:.1;fill:#8b9cbe" d="m36.025391 3c-10.414989-0.0238623-14.962303 5.5999497-16.189453 6.8046875-0.379841-1.8047376-1.835937-3.8046875-5.835938-3.8046875l0.894531 1.0585938c3.307131 0.2841071 4.592281 2.087295 4.941407 3.7460942 1.22715-1.2047383 5.774464-6.8285503 16.189453-6.804688 8.459968 0.019383 12.654297 4.0175781 12.654297 4.0175781s8.155558 5.8792369 8.304687 15.75586c0.001708-0.228588 0.01363-0.508965 0.013672-0.728516 0.001869-10.043998-8.318359-16.027344-8.318359-16.027344 0 1e-7 -4.194329-3.998195-12.654297-4.017578zm-18.107422 8.632812c-0.297296 0.324001-0.597809 0.69911-0.917969 1.367188h-4s0.5124 0.512146 1.380859 1h2.619141c0.479225-1 0.91889-1.39035 1.361328-1.841797l-0.443359-0.525391zm-2.726563 3.763672c-2.11138 3.353691-4.189453 7.69927-4.189453 15.523438 0 0.226388 0.007406 0.385041 0.007813 0.607422 0.075604-8.200972 2.458667-12.533049 4.697265-15.945313-0.180901-0.055919-0.350811-0.119531-0.515625-0.185547zm6.078125 12.429688c-0.082602 0.048768-0.269531 0.173828-0.269531 0.173828s1.922635 6.267108 5.273438 12.628906c0.238827 0.119744 0.469167 0.22752 0.726562 0.371094-3.172386-5.658288-5.132437-11.340294-5.730469-13.173828zm32.625 13.779297c-0.081639 3.441944-0.894531 7.394531-0.894531 7.394531s-0.730546 4.539687-0.632812 6.460938c0.104447-2.178083 0.632812-5.460938 0.632812-5.460938s0.98016-4.771982 0.894531-8.394531z" transform="matrix(.69565213 0 0 .71428571 .34782662 .85714286)"/>
 </g>
</svg>
