<svg xmlns="http://www.w3.org/2000/svg" height="64" width="64" version="1.1">
 <rect style="opacity:.2" rx="3" ry="3" height="56" width="56" y="5" x="4"/>
 <rect style="fill:#6c4ac4" rx="3" ry="3" height="56" width="56" y="4" x="4"/>
 <path d="m13 13-3 36s0 3 3 3h38c3 0 3-3 3-3l-3-36z" style="opacity:.2"/>
 <path d="m13 12-3 36s0 3 3 3h38c3 0 3-3 3-3l-3-36z" style="fill:#b2bfd9"/>
 <path style="opacity:.2" d="m22.5 20a3.5 3.5 0 0 0 -3.5 3.5 3.5 3.5 0 0 0 3.5 3.5 3.5 3.5 0 0 0 3.5 -3.5 3.5 3.5 0 0 0 -3.5 -3.5zm19 0a3.5 3.5 0 0 0 -3.5 3.5 3.5 3.5 0 0 0 3.5 3.5 3.5 3.5 0 0 0 3.5 -3.5 3.5 3.5 0 0 0 -3.5 -3.5z"/>
 <path style="fill:#cccccc" d="m22.5 19a3.5 3.5 0 0 0 -3.5 3.5 3.5 3.5 0 0 0 3.5 3.5 3.5 3.5 0 0 0 3.5 -3.5 3.5 3.5 0 0 0 -3.5 -3.5zm19 0a3.5 3.5 0 0 0 -3.5 3.5 3.5 3.5 0 0 0 3.5 3.5 3.5 3.5 0 0 0 3.5 -3.5 3.5 3.5 0 0 0 -3.5 -3.5z"/>
 <path style="opacity:.2" d="m22.499174 22.021755a1.4997884 1.4961014 0 0 0 -1.491829 1.643988s0.275427 3.423658 1.704668 6.920725c0.71462 1.748534 1.721646 3.551143 3.227737 4.976767 1.506091 1.425623 3.57278 2.436765 6.059086 2.436765s4.552995-1.011142 6.059086-2.436765c1.506091-1.425624 2.513117-3.228233 3.227737-4.976767 1.429241-3.497067 1.704668-6.920725 1.704668-6.920725a1.4997884 1.4961014 0 1 0 -2.987562 -0.253221s-0.27366 3.0588-1.49378 6.044191c-0.61006 1.492695-1.452978 2.931315-2.515018 3.936612-1.062041 1.005299-2.282449 1.614771-3.995131 1.614771s-2.93309-0.609472-3.995131-1.614771c-1.06204-1.005297-1.904958-2.443917-2.515018-3.936612-1.22012-2.985391-1.49378-6.044191-1.49378-6.044191a1.4997884 1.4961014 0 0 0 -1.495733 -1.390767z"/>
 <path style="fill:#6c4ac4" d="m22.499174 21.021755a1.4997884 1.4961014 0 0 0 -1.491829 1.643988s0.275427 3.423658 1.704668 6.920725c0.71462 1.748534 1.721646 3.551143 3.227737 4.976767 1.506091 1.425623 3.57278 2.436765 6.059086 2.436765s4.552995-1.011142 6.059086-2.436765c1.506091-1.425624 2.513117-3.228233 3.227737-4.976767 1.429241-3.497067 1.704668-6.920725 1.704668-6.920725a1.4997884 1.4961014 0 1 0 -2.987562 -0.253221s-0.27366 3.0588-1.49378 6.044191c-0.61006 1.492695-1.452978 2.931315-2.515018 3.936612-1.062041 1.005299-2.282449 1.614771-3.995131 1.614771s-2.93309-0.609472-3.995131-1.614771c-1.06204-1.005297-1.904958-2.443917-2.515018-3.936612-1.22012-2.985391-1.49378-6.044191-1.49378-6.044191a1.4997884 1.4961014 0 0 0 -1.495733 -1.390767z"/>
 <path style="opacity:.2;fill:#8b9cbe" d="m7 4c-1.662 0-3 1.338-3 3v1c0-1.662 1.338-3 3-3h50c1.662 0 3 1.338 3 3v-1c0-1.662-1.338-3-3-3h-50z"/>
 <path style="opacity:.2;fill:#8b9cbe" d="m13 12l-3 36s0.002046 0.187475 0.044922 0.455078l2.955078-35.455078h38l2.955078 35.455078c0.042876-0.267603 0.044922-0.455078 0.044922-0.455078l-3-36h-38z"/>
</svg>
