<svg xmlns="http://www.w3.org/2000/svg" width="64" height="64" version="1.1">
 <circle style="opacity:0.2" cx="32" cy="33" r="28"/>
 <circle style="fill:#2f6663" cx="32" cy="32" r="28"/>
 <circle style="opacity:0.1" cx="32" cy="33" r="22"/>
 <path style="fill:#73d216" d="M 20.98926,12.983643 A 22,22 0 0 0 10,32 h 22 z"/>
 <path style="fill:#ffe721" d="M 10,32 A 22,22 0 0 0 20.98926,51.021728 L 32,32 Z"/>
 <path style="fill:#f57900" d="M 32,32 20.98926,51.021728 A 22,22 0 0 0 32,54 22,22 0 0 0 43.01074,51.016358 Z"/>
 <path style="fill:#ef298c" d="M 32,32 43.01074,51.016358 A 22,22 0 0 0 54,32 Z"/>
 <path style="fill:#8c398d" d="M 43.01074,12.978272 32,32 H 54 A 22,22 0 0 0 43.01074,12.978272 Z"/>
 <path style="fill:#0874ff" d="M 32,10 A 22,22 0 0 0 20.991944,12.983643 L 32,32 43.013428,12.978272 A 22,22 0 0 0 32,10 Z"/>
 <path style="opacity:0.1" d="m 31.449218,19.089844 c -2.575654,0.0028 -5.405252,0.856658 -7.64453,2.960938 -2.810422,2.640986 -3.996706,6.00599 -3.41797,8.910156 0.57874,2.904164 2.323446,5.047938 4.003906,6.996094 1.680462,1.948154 3.415808,3.73057 4.460938,5.277344 0.985816,1.458978 1.193548,2.368682 1.007814,3.320312 -0.292782,0.586428 -1.184848,1.44898 -2.832032,2.078124 -1.742804,0.665668 -3.973266,1.003304 -5.507812,0.988282 -0.694356,-0.0068 -6.258575,-0.90002 -7.027344,-1.207032 l -1.308594,3.277344 a 28,28 0 0 0 5.074218,3.6875 c 1.198105,0.15132 2.316748,0.23351 3.203126,0.242188 2.351262,0.02302 5.097492,-0.386094 7.70703,-1.382812 2.609538,-0.99672 5.305154,-2.621124 6.464844,-5.671876 a 3.0003,3.0003 0 0 0 0.10156,-0.324218 c 0.813726,-3.17918 -0.39852,-6.130002 -1.910158,-8.367188 -1.511638,-2.237186 -3.395698,-4.1074 -4.886718,-5.835938 -1.49102,-1.728536 -2.471582,-3.28411 -2.664062,-4.25 -0.19248,-0.965888 -0.19298,-1.644138 1.640624,-3.367186 1.078032,-1.013042 2.141764,-1.330526 3.54297,-1.332032 1.401206,-0.0015 3.080268,0.443858 4.660156,1.117188 3.159772,1.346658 5.71875,3.433594 5.71875,3.433592 l 3.828124,-4.621092 c 0,0 -3.067436,-2.572778 -7.195312,-4.332032 -2.063938,-0.879628 -4.443878,-1.600426 -7.019532,-1.597656 z"/>
 <path style="fill:#2f6663" d="m 31.449218,18.089844 c -2.575654,0.0028 -5.405252,0.85666 -7.64453,2.960938 -2.810422,2.640986 -3.996707,6.00599 -3.41797,8.910156 0.57874,2.904164 2.323446,5.047938 4.003906,6.996094 1.680462,1.948154 3.415808,3.730572 4.460938,5.277344 0.985816,1.458978 1.193548,2.368682 1.007814,3.320312 -0.292782,0.586428 -1.184848,1.44898 -2.832032,2.078124 -1.742804,0.665668 -3.973266,1.003304 -5.507812,0.988282 -0.694356,-0.0068 -6.258575,-0.90002 -7.027344,-1.207032 l -1.890626,4.734376 a 28,28 0 0 0 1.609376,1.453124 c 2.552352,0.694638 5.39517,1.001372 7.25,1.019532 2.351262,0.02302 5.097492,-0.386094 7.70703,-1.382812 2.609538,-0.99672 5.305154,-2.621124 6.464844,-5.671876 a 3.0003,3.0003 0 0 0 0.10156,-0.324218 c 0.813726,-3.17918 -0.39852,-6.130002 -1.910158,-8.367188 -1.511638,-2.237186 -3.395698,-4.1074 -4.886718,-5.835938 -1.49102,-1.728536 -2.471582,-3.28411 -2.664062,-4.25 -0.19248,-0.965888 -0.19298,-1.644138 1.640624,-3.367186 1.078032,-1.013042 2.141764,-1.330526 3.54297,-1.332032 1.401206,-0.0015 3.080268,0.443858 4.660156,1.117188 3.159772,1.346658 5.71875,3.433594 5.71875,3.433592 l 3.828124,-4.621092 c 0,0 -3.067436,-2.572778 -7.195312,-4.332032 -2.063934,-0.879627 -4.443874,-1.600425 -7.019528,-1.597656 z"/>
 <path style="opacity:0.1;fill:#8b9cbe" d="M 32 4 A 28 28 0 0 0 4 32 A 28 28 0 0 0 4.0175781 32.492188 A 28 28 0 0 1 32 5 A 28 28 0 0 1 59.974609 32.492188 A 28 28 0 0 0 60 32 A 28 28 0 0 0 32 4 z"/>
 <path style="opacity:0.2;fill:#8b9cbe" d="M 32 10 A 22 22 0 0 0 10 32 A 22 22 0 0 0 10.017578 32.490234 A 22 22 0 0 1 32 11 A 22 22 0 0 1 53.974609 32.490234 A 22 22 0 0 0 54 32 A 22 22 0 0 0 32 10 z"/>
</svg>
