<svg xmlns="http://www.w3.org/2000/svg" id="Layer_1" width="64" height="64" x="0" y="0" version="1.1" xml:space="preserve">
 <path style="opacity:0.2" d="m 32,41.679279 c -1.93075,0.0898 -4,1.640736 -4,3.73884 v 4.963728 c -2.732636,0.693924 -4.955744,2.170664 -6.972134,4.260602 -1.331286,1.379688 -1.409138,3.934984 0,5.290178 0.77853,0.74291 1.773912,1.112044 2.747074,1.06306 0.825242,-0.04082 1.643344,-0.385462 2.297308,-1.06306 0.256912,-0.269404 0.522012,-0.522176 0.794496,-0.758928 0.11678,-0.08164 0.233336,-0.17226 0.350118,-0.253906 0.467116,-0.326554 0.948288,-0.603506 1.454332,-0.856586 0.685106,-0.269404 1.39523,-0.472064 2.111476,-0.602678 0.420406,-0.04084 0.796926,-0.05838 1.21733,-0.05022 0.420406,-0.0082 0.796926,0.0094 1.21733,0.05022 0.716248,0.13062 1.42637,0.333274 2.111476,0.602678 0.506044,0.25308 0.987216,0.530032 1.454334,0.856586 0.11678,0.08164 0.233336,0.17226 0.350116,0.253906 0.272486,0.236752 0.537584,0.489524 0.794498,0.758928 0.653964,0.677598 1.472068,1.02224 2.297308,1.06306 0.97316,0.04898 1.968544,-0.32015 2.747072,-1.06306 1.40914,-1.355194 1.331286,-3.91049 0,-5.290178 C 40.955744,52.552511 38.732638,51.075771 36,50.381847 v -4.963728 c 0,-2.098104 -2.069246,-3.649038 -4,-3.73884 z"/>
 <path style="fill:#6841ac" d="m 32,40.67928 c -1.93075,0.0898 -4,1.640736 -4,3.73884 v 4.963728 c -2.732636,0.693924 -4.955744,2.170664 -6.972134,4.260602 -1.331286,1.379688 -1.409138,3.934984 0,5.290178 0.77853,0.74291 1.773912,1.112044 2.747074,1.06306 0.825242,-0.04082 1.643344,-0.385462 2.297308,-1.06306 0.256912,-0.269404 0.522012,-0.522176 0.794496,-0.758928 0.11678,-0.08164 0.233336,-0.17226 0.350118,-0.253906 0.467116,-0.326554 0.948288,-0.603506 1.454332,-0.856586 0.685106,-0.269404 1.39523,-0.472064 2.111476,-0.602678 0.420406,-0.04084 0.796926,-0.05838 1.21733,-0.05022 0.420406,-0.0082 0.796926,0.0094 1.21733,0.05022 0.716248,0.13062 1.42637,0.333274 2.111476,0.602678 0.506044,0.25308 0.987216,0.530032 1.454334,0.856586 0.11678,0.08164 0.233336,0.17226 0.350116,0.253906 0.272486,0.236752 0.537584,0.489524 0.794498,0.758928 0.653964,0.677598 1.472068,1.02224 2.297308,1.06306 0.97316,0.04898 1.968544,-0.32015 2.747072,-1.06306 1.40914,-1.355194 1.331286,-3.91049 0,-5.290178 C 40.955744,51.552512 38.732638,50.075772 36,49.381848 V 44.41812 c 0,-2.098104 -2.069246,-3.649038 -4,-3.73884 z"/>
 <path style="fill:#d3b7ff" d="M 58,34.821572 C 58,40.535198 53.455384,45.16129 47.842382,45.16129 H 16.157622 C 10.544618,45.16129 6,40.535198 6,34.821572 V 18.597792 C 6,12.884164 10.544618,8.2580732 16.157622,8.2580732 h 31.676786 c 5.613002,0 10.15762,4.6260908 10.15762,10.3397188 v 16.22378 z"/>
 <path style="opacity:0.4;fill:#666699" d="m 28.124928,31.132236 -3.34e-4,9.749606 -8.00668,-4.22e-4 c -0.782363,-4.2e-5 -1.572793,0.02432 -2.371287,0.03246 h -0.322623 -0.0484 c -0.564592,0 -1.129185,-0.0162 -1.68571,-0.0649 v 0 c -0.572659,-0.10545 -1.129185,-0.259564 -1.677646,-0.45423 -0.41941,-0.202778 -1.430186,-0.429892 -1.8254,-0.689448 -0.08066,-0.05677 -0.161313,-0.113562 -0.241969,-0.170334 -0.217765,-0.186554 -0.427471,-0.381222 -0.629111,-0.57589 -0.20164,-0.20278 -0.387148,-0.41367 -0.572657,-0.62456 -0.05646,-0.08111 -0.112919,-0.170334 -0.169378,-0.251446 C 10.315634,37.693738 10.097863,37.28818 9.8962226,36.87451 9.6945826,36.314842 9.5413362,35.74706 9.428418,35.163058 v -0.0082 C 9.363894,34.50602 9.339696,33.840904 9.33163,33.1839 V 33.1757 C 9.31549,31.804914 9.38809,30.426018 9.38809,29.087676 h 0.895282 c 0.217771,0 0.387148,0.924674 0.387148,2.068344 v 3.763576 c 0,-0.83545 0.177444,-1.516822 0.395215,-1.516786 l 2.506273,4.22e-4 c 0.217772,3.6e-5 0.387149,0.681336 0.387149,1.516784 V 23.175068 c 0,-2.09268 0.177442,-3.787908 0.395214,-3.787908 h 1.621186 c 0.217772,0 0.395214,1.695228 0.395214,3.787908 v 7.965152 c 0,-1.143674 0.177442,-2.068346 0.387149,-2.068346 h 1.621186 c 0.217771,0 0.387148,0.924672 0.387148,2.068346 v 7.072924 c 0,-0.56778 0.177442,-1.030118 0.387149,-1.030118 h 1.621187 c 0.217772,0 0.387148,0.462338 0.387148,1.030118 v -8.346376 c 0,-1.241006 0.17744,-2.246788 0.395214,-2.246788 h 1.422122 c 0.14518,0 0.266164,0.446112 0.33069,1.103116 v -2.628012 c 0,-1.549232 0.17744,-2.798348 0.395214,-2.798348 h 1.621186 c 0.217772,0 0.395214,1.257228 0.395214,2.798348 v 5.037024 c 0,-1.143672 0.17744,-2.068344 0.387148,-2.068344 h 1.621188 c 0.217772,0.0082 0.395214,0.932782 0.395214,2.068344 z"/>
 <path style="opacity:0.4;fill:#666699" d="m 55.629138,33.378604 c -0.07424,0.28389 -0.11548,0.575892 -0.11548,0.892228 0,0.300112 -0.0164,0.592114 -0.04124,0.892226 -0.11548,0.575892 -0.263966,1.13556 -0.47019,1.687118 -0.20622,0.421782 -0.437192,0.827338 -0.701156,1.224786 -0.05774,0.08112 -0.11548,0.17034 -0.17322,0.251444 -0.18972,0.21089 -0.379452,0.429892 -0.585672,0.632672 -0.206222,0.202778 -0.420696,0.381224 -0.635166,0.56778 -0.08248,0.05678 -0.17322,0.12166 -0.263968,0.17844 -0.404194,0.259556 -0.824892,0.486668 -1.253836,0.689446 -0.560926,0.19468 -1.130102,0.34878 -1.707526,0.454226 v 0 c -0.494936,0.04056 -0.798698,0.05678 -1.293638,0.05678 h -0.395944 c -0.651666,0 -1.295084,-0.0162 -1.930252,-0.0162 H 29.942 V 19.34631 c 0,-2.092676 0.18148,-3.787908 0.395946,-3.787908 h 1.658034 c 0.22272,0 0.39595,1.695232 0.39595,3.787908 v 13.797072 c 0,-0.98145 0.18148,-1.768232 0.404196,-1.768232 h 1.658032 c 0.222722,0 0.395948,0.794892 0.395948,1.768232 v 3.187682 c 0,-0.721892 0.18148,-1.305896 0.404198,-1.305896 h 1.658034 c 0.222722,0 0.603616,0.584004 0.603616,1.305896 v 2.384678 c 0,-0.527224 0.18148,-0.957114 0.395946,-0.957114 h 1.658032 c 0.222722,0 0.395952,0.42989 0.395952,0.957114 v -13.95118 c 0,-2.092678 0.18148,-3.78791 0.395946,-3.78791 h 1.658036 c 0.22272,0 0.395946,1.695232 0.395946,3.78791 v 6.367252 c 0,-1.14367 0.18148,-2.068342 0.4042,-2.068342 h 1.65803 c 0.222726,0 0.404198,0.924672 0.404198,2.068342 v 7.072926 c 0,-0.56778 0.18148,-1.030116 0.395948,-1.030116 h 1.658034 c 0.22272,0 0.404198,0.462336 0.404198,1.030116 v -8.338264 c 0,-1.241006 0.18148,-2.246788 0.395946,-2.246788 h 1.458616 c 0.14848,0 0.272212,0.446112 0.338202,1.103116 V 26.09479 c 0,-1.54923 0.18148,-2.798348 0.395952,-2.798348 h 1.658032 c 0.22272,0 0.395946,1.25723 0.395946,2.798348 v 5.037024 c 0,-1.14367 0.18148,-2.068342 0.4042,-2.068342 h 1.65803 c 0.22272,0 0.39595,0.924672 0.39595,2.068342 v 2.336012 c 0.04124,-0.05678 0.09072,-0.09732 0.14024,-0.09732 h 1.047606 z"/>
 <path style="opacity:0.2" d="m 61.98387,34.813484 c 0,0.1208 0,0.249636 -0.008,0.378478 -0.07258,2.254758 -0.669446,4.684318 -1.766368,6.657232 -0.596854,1.087116 -1.346954,2.069546 -2.201908,2.931188 -0.427478,0.434844 -0.87915,0.837478 -1.355022,1.199852 -2.298696,1.7877 -5.153916,2.850658 -8.122058,2.995606 C 48.199824,48.99184 47.8772,49 47.54651,49 H 47.175492 C 46.65123,49 46.126966,48.984 45.610766,48.984 H 17.574674 c -1.669579,0 -3.290764,-0.016 -4.944213,-0.402634 C 10.662455,48.122254 8.863826,47.212296 7.3313618,45.980234 6.8393602,45.58565 6.3634898,45.150806 5.9279474,44.6918 4.4761394,43.169838 3.3550208,41.33382 2.6775104,39.328696 2.0645248,37.540996 2.0080656,35.696926 2,33.83675 V 32.73353 25.631042 19.816986 19.180822 C 2,15.323574 3.4840704,11.522696 6.3231618,8.85725 9.0090066,6.3448054 12.493345,5.000003 16.17126,5.000003 h 3.774701 27.455303 c 2.758436,0 5.476542,0.5556368 7.86396,2.013177 4.145718,2.544656 6.694448,7.310967 6.734776,12.16675 0,0.08858 0,0.18522 -0.008,0.273792 -0.12904,1.916544 -1.766366,3.309664 -3.653716,3.414348 h -0.03226 -0.17744 c -0.05646,0 -0.10486,0 -0.16132,-0.0082 v 0 C 56.48897,22.679402 55.618004,21.738436 55.04954,20.48844 54.71281,18.910353 54.055468,17.586418 53.438486,16.295117 52.36824,14.295361 50.974104,13.612796 48.901466,13.13268 48.349428,13.004804 47.772282,13.06826 47.20769,13.06021 c -0.565052,-0.0081 -0.247346,0 -0.371018,0 -0.790428,0 -1.580858,0.03221 -2.363222,0.03221 H 19.425781 c -0.621052,0 -1.258234,-0.0161 -1.887352,-0.0161 h -0.008 -0.282295 c -0.524265,0 -1.048527,0.0161 -1.564726,0.05637 -0.572659,0.104692 -1.13725,0.257692 -1.68571,0.45901 -0.419412,0.201317 -0.822692,0.426793 -1.20984,0.684481 -0.08066,0.05636 -0.161312,0.11274 -0.241969,0.169106 -0.217771,0.185213 -0.427477,0.370424 -0.629117,0.579794 -0.20164,0.201318 -0.387149,0.418741 -0.580723,0.628111 -0.05646,0.08054 -0.112918,0.161054 -0.169378,0.241581 -0.250034,0.38653 -0.47587,0.781114 -0.67751,1.199855 -0.20164,0.547584 -0.354887,1.10322 -0.467805,1.674963 -0.024198,0.273793 -0.032264,0.555637 -0.040328,0.829429 v 0.04832 c -0.00808,0.314056 -0.00808,0.62811 0,0.942166 v 0.04026 0.959974 7.301426 c 0,1.336748 -0.07259,2.982226 -0.056458,4.343132 v 0.0082 c 0.00808,0.660322 0.032262,1.31259 0.096788,1.956808 v 0.0082 c 0.112918,0.579796 0.266165,1.143484 0.467805,1.699122 0.20164,0.410686 0.419411,0.813322 0.67751,1.199854 0.05646,0.08858 0.112918,0.1691 0.169378,0.249634 0.18551,0.209368 0.371018,0.41874 0.572658,0.620058 0.20164,0.201318 0.419411,0.386528 0.629117,0.571742 0.08066,0.05636 0.161312,0.11272 0.241968,0.1691 0.395214,0.25769 0.80656,0.483166 1.22597,0.684484 0.548462,0.19326 1.104987,0.346266 1.677646,0.45095 v 0 c 0.556526,0.0483 2.250301,0.06442 1.68571,0.06442 h 0.0484 0.322623 c 0.798494,0 1.588924,-0.03222 2.371287,-0.03222 h 25.031538 c 0.62105,0 1.250168,0.016 1.88735,0.016 h 0.387148 c 0.492002,0 0.975938,-0.016 1.459874,-0.05636 v 0 c 2.047984,-0.300222 2.971938,-0.910746 4.108242,-2.427248 0.3101,-0.413858 0.717112,-1.277266 0.840756,-1.725342 0.344124,-1.247056 0.580296,-2.382956 1.129214,-3.650566 0.630534,-1.227344 1.88771,-1.753906 3.140764,-1.92367 0.04032,0 0.08872,-0.0082 0.12906,-0.0082 v 0 h 0.04032 c 0.10486,-0.0082 0.217772,0 0.322624,0 1.871222,0.1369 3.41175,1.884334 3.39562,3.704246 z"/>
 <path style="fill:#6841ac" d="m 61.98387,33.813484 c 0,0.1208 0,0.249636 -0.008,0.378478 -0.07258,2.254758 -0.669446,4.684318 -1.766368,6.657232 -0.596854,1.087116 -1.346954,2.069546 -2.201908,2.931188 -0.427478,0.434844 -0.87915,0.837478 -1.355022,1.199852 -2.298696,1.7877 -5.153916,2.850658 -8.122058,2.995606 C 48.199824,47.99184 47.8772,48 47.54651,48 H 47.175492 C 46.65123,48 46.126966,47.984 45.610766,47.984 H 17.574674 c -1.669579,0 -3.290764,-0.016 -4.944213,-0.402634 C 10.662455,47.122254 8.863826,46.212296 7.3313618,44.980234 6.8393602,44.58565 6.3634898,44.150806 5.9279474,43.6918 4.4761394,42.169838 3.3550208,40.33382 2.6775104,38.328696 2.0645248,36.540996 2.0080656,34.696926 2,32.83675 V 31.73353 24.631042 18.816986 18.180823 C 2,14.323575 3.4840704,10.522697 6.3231618,7.857251 9.0090066,5.3448064 12.493345,4.000004 16.17126,4.000004 h 3.774701 27.455303 c 2.758436,0 5.476542,0.5556368 7.86396,2.013177 4.145718,2.5446558 6.694448,7.310967 6.734776,12.166749 0,0.08858 0,0.185214 -0.008,0.273792 -0.12904,1.916544 -1.766366,3.309664 -3.653716,3.414348 h -0.03226 -0.17744 c -0.05646,0 -0.10486,0 -0.16132,-0.0082 v 0 c -1.478294,-0.180468 -2.34926,-1.121434 -2.917724,-2.37143 -0.33673,-1.578086 -0.994072,-2.902021 -1.611054,-4.193322 -1.070246,-1.999756 -2.464382,-2.682321 -4.53702,-3.162437 -0.552038,-0.127876 -1.129184,-0.06442 -1.693776,-0.07247 -0.565052,-0.0081 -0.247346,0 -0.371018,0 -0.790428,0 -1.580858,0.03221 -2.363222,0.03221 H 19.425781 c -0.621052,0 -1.258234,-0.0161 -1.887352,-0.0161 h -0.008 -0.282295 c -0.524265,0 -1.048527,0.0161 -1.564726,0.05637 -0.572659,0.104692 -1.13725,0.257692 -1.68571,0.45901 -0.419412,0.201317 -0.822692,0.426793 -1.20984,0.684481 -0.08066,0.05636 -0.161312,0.11274 -0.241969,0.169106 -0.217771,0.185213 -0.427477,0.370424 -0.629117,0.579794 -0.20164,0.201318 -0.387149,0.418741 -0.580723,0.628111 -0.05646,0.08054 -0.112918,0.161054 -0.169378,0.241581 -0.250034,0.38653 -0.47587,0.781114 -0.67751,1.199855 -0.20164,0.547584 -0.354887,1.10322 -0.467805,1.674963 -0.024198,0.273792 -0.032264,0.555637 -0.040328,0.829429 v 0.04831 c -0.00808,0.314055 -0.00808,0.62811 0,0.942167 v 0.04025 0.959972 7.301426 c 0,1.336748 -0.07259,2.982226 -0.056458,4.343132 v 0.0082 c 0.00808,0.660322 0.032262,1.31259 0.096788,1.956808 v 0.0082 c 0.112918,0.579796 0.266165,1.143484 0.467805,1.699122 0.20164,0.410686 0.419411,0.813322 0.67751,1.199854 0.05646,0.08858 0.112918,0.1691 0.169378,0.249634 0.18551,0.209368 0.371018,0.41874 0.572658,0.620058 0.20164,0.201318 0.419411,0.386528 0.629117,0.571742 0.08066,0.05636 0.161312,0.11272 0.241968,0.1691 0.395214,0.25769 0.80656,0.483166 1.22597,0.684484 0.548462,0.19326 1.104987,0.346266 1.677646,0.45095 v 0 c 0.556526,0.0483 2.250301,0.06442 1.68571,0.06442 h 0.0484 0.322623 c 0.798494,0 1.588924,-0.03222 2.371287,-0.03222 h 25.031538 c 0.62105,0 1.250168,0.016 1.88735,0.016 h 0.387148 c 0.492002,0 0.975938,-0.016 1.459874,-0.05636 v 0 c 2.047984,-0.300222 2.971938,-0.910746 4.108242,-2.427248 0.3101,-0.413858 0.717112,-1.277266 0.840756,-1.725342 0.344124,-1.247056 0.580296,-2.382956 1.129214,-3.650566 0.630534,-1.227344 1.88771,-1.753906 3.140764,-1.92367 0.04032,0 0.08872,-0.0082 0.12906,-0.0082 v 0 h 0.04032 c 0.10486,-0.0082 0.217772,0 0.322624,0 1.871222,0.1369 3.41175,1.884334 3.39562,3.704246 z"/>
 <path style="opacity:0.1;fill:#8b9cbe" d="M 16.171875 4 C 12.493961 4 9.0100636 5.3430242 6.3242188 7.8554688 C 3.4851274 10.520915 2 14.322439 2 18.179688 L 2 18.816406 L 2 19.179688 C 2 15.322439 3.4851273 11.520915 6.3242188 8.8554688 C 9.0100635 6.3430241 12.493961 5 16.171875 5 L 19.945312 5 L 47.402344 5 C 50.16078 5 52.878207 5.5541786 55.265625 7.0117188 C 59.234149 9.4476109 61.732367 13.921311 61.974609 18.558594 C 61.979143 18.52292 61.989726 18.489652 61.992188 18.453125 C 62.00018 18.364547 62 18.268269 62 18.179688 C 61.959672 13.323905 59.411345 8.5563745 55.265625 6.0117188 C 52.878207 4.5541786 50.16078 4 47.402344 4 L 19.945312 4 L 16.171875 4 z M 58.226562 30.109375 C 58.186222 30.109375 58.137976 30.117188 58.097656 30.117188 C 56.844602 30.286948 55.587565 30.815625 54.957031 32.042969 C 54.408113 33.310579 54.172251 34.44435 53.828125 35.691406 C 53.704485 36.139482 53.294473 37.004111 52.984375 37.417969 C 51.848069 38.934471 50.92689 39.543528 48.878906 39.84375 C 48.39497 39.88411 47.909971 39.902344 47.417969 39.902344 L 47.03125 39.902344 C 46.394068 39.902344 45.765581 39.882812 45.144531 39.882812 L 20.113281 39.882812 C 19.330917 39.882812 18.536776 39.917969 17.738281 39.917969 L 17.417969 39.917969 L 17.367188 39.917969 C 17.931779 39.917969 16.240119 39.899763 15.683594 39.851562 C 15.110935 39.746943 14.552368 39.595604 14.003906 39.402344 C 13.584496 39.201026 13.176464 38.97644 12.78125 38.71875 C 12.70059 38.66237 12.619719 38.603233 12.539062 38.546875 C 12.329358 38.361659 12.111796 38.177881 11.910156 37.976562 C 11.708516 37.775244 11.521447 37.564837 11.335938 37.355469 C 11.279478 37.274929 11.224427 37.194049 11.167969 37.105469 C 10.909869 36.718937 10.689921 36.316936 10.488281 35.90625 C 10.286641 35.350612 10.132449 34.786827 10.019531 34.207031 L 10.019531 34.199219 C 9.9686572 33.691299 9.9579105 33.174182 9.9453125 32.65625 C 9.9354925 33.19735 9.9199292 33.739945 9.9257812 34.234375 L 9.9257812 34.242188 C 9.9271038 34.350272 9.9314382 34.456791 9.9335938 34.564453 C 9.9378754 34.261526 9.9396611 33.967652 9.9453125 33.65625 C 9.9579105 34.174182 9.9686572 34.691299 10.019531 35.199219 L 10.019531 35.207031 C 10.132449 35.786827 10.286641 36.350612 10.488281 36.90625 C 10.689921 37.316936 10.909869 37.718937 11.167969 38.105469 C 11.224427 38.194049 11.279478 38.274929 11.335938 38.355469 C 11.521447 38.564837 11.708516 38.775244 11.910156 38.976562 C 12.111796 39.17788 12.329358 39.361659 12.539062 39.546875 C 12.619719 39.603233 12.70059 39.66237 12.78125 39.71875 C 13.176464 39.97644 13.584496 40.201026 14.003906 40.402344 C 14.552368 40.595604 15.110935 40.746943 15.683594 40.851562 C 16.240119 40.899763 17.931779 40.917969 17.367188 40.917969 L 17.417969 40.917969 L 17.738281 40.917969 C 18.536776 40.917969 19.330917 40.882812 20.113281 40.882812 L 45.144531 40.882812 C 45.765581 40.882812 46.394068 40.902344 47.03125 40.902344 L 47.417969 40.902344 C 47.909971 40.902344 48.39497 40.88411 48.878906 40.84375 C 50.92689 40.543528 51.848069 39.934471 52.984375 38.417969 C 53.294473 38.004111 53.704485 37.139482 53.828125 36.691406 C 54.172251 35.44435 54.408113 34.310579 54.957031 33.042969 C 55.587565 31.815625 56.844602 31.286948 58.097656 31.117188 C 58.137976 31.117188 58.186222 31.109375 58.226562 31.109375 L 58.265625 31.109375 C 58.370487 31.101175 58.484984 31.109373 58.589844 31.109375 C 60.342743 31.237618 61.786628 32.780342 61.951172 34.470703 C 61.959235 34.377666 61.973607 34.283231 61.976562 34.191406 C 61.984563 34.062566 61.984375 33.9333 61.984375 33.8125 C 62.000575 31.992588 60.461066 30.246275 58.589844 30.109375 C 58.484984 30.109373 58.370487 30.101175 58.265625 30.109375 L 58.226562 30.109375 z"/>
</svg>
