<svg xmlns="http://www.w3.org/2000/svg" width="64" height="64" version="1.1">
 <rect style="opacity:0.2" width="56" height="56" x="1" y="5" rx="2.8" ry="2.8"/>
 <path style="fill:#eb643d" d="M 3.8,4 H 54.2 C 55.7512,4 57,5.2488 57,6.8 v 33.54675 l -3.343654,13.261918 c -0.379228,1.50413 -1.868076,2.196688 -3.419194,2.180806 L 13.954799,55.417956 c -1.551119,-0.0158 -3.789398,-0.016 -4.4099074,-1.43777 L 1,34.402476 V 6.8 C 1,5.2488 2.2488,4 3.8,4 Z"/>
 <path style="fill:#7cc42e" d="M 3.8,4 C 3.5741954,4 3.3573654,4.029436 3.1492186,4.082032 c -0.01334,0.00316 -0.025016,0.01032 -0.038282,0.01368 -0.2009008,0.05394 -0.3947864,0.12597 -0.576953,0.21875 L 38.141016,51.13789 48.520702,46.161328 15.147657,4 Z M 28.384766,4 57,41.830078 V 22.060548 L 41.151564,4 Z"/>
 <path style="fill:#2be0de" d="M 11.80625,27.045314 1,33.88125 V 57.2 C 1,58.7512 2.2488,60 3.8,60 H 54.2 C 55.7512,60 57,58.7512 57,57.2 V 38.2188 Z"/>
 <path style="opacity:0.2" d="m 17.386719,24.38595 a 5.5030486,6.515336 27.901115 0 0 -5.730469,4.179688 5.5030486,6.515336 27.901115 0 0 2.414062,8.0625 5.5030486,6.515336 27.901115 0 0 7.242188,-2.867188 6.9237028,8.053442 56.175379 0 0 3.492188,8.8125 6.9237028,8.053442 56.175379 0 0 9.308594,-2.777342 6.9237028,8.0534418 22.173138 0 0 0.04296,1.085936 6.9237028,8.0534418 22.173138 0 0 7.90625,5.914064 6.9237028,8.0534418 22.173138 0 0 5.792968,-5.777344 5.3467336,6.4723616 23.444494 0 0 2.796876,3.609374 5.3467336,6.4723616 23.444494 0 0 7.480468,-3.808594 5.3467336,6.4723616 23.444494 0 0 -2.328124,-8.066406 5.3467336,6.4723616 23.444494 0 0 -7.48047,3.8125 5.3467336,6.4723616 23.444494 0 0 -0.14062,0.347656 6.9237028,8.0534418 22.173138 0 0 -7.847656,-5.515624 6.9237028,8.0534418 22.173138 0 0 -4.242188,2.847656 6.9237028,8.053442 56.175379 0 0 -4.109374,-5.402344 6.9237028,8.053442 56.175379 0 0 -10.117188,3.871094 5.5030486,6.515336 27.901115 0 0 -2.460938,-7.960938 5.5030486,6.515336 27.901115 0 0 -2.019531,-0.367188 z"/>
 <ellipse style="fill:#8b9cbe" cx="27.448" cy="20.933" rx="5.51" ry="6.51" transform="matrix(0.92245449,0.38610584,-0.40983581,0.91215931,0,0)"/>
 <ellipse style="fill:#8b9cbe" cx="41.629" cy="23.262" rx="7.265" ry="7.747" transform="matrix(0.94096018,0.33851726,-0.46326751,0.88621849,0,0)"/>
 <ellipse style="fill:#8b9cbe" cx="37.036" cy="47.489" rx="7.265" ry="7.747" transform="matrix(0.9693782,-0.24557261,0.11153977,0.99375997,0,0)"/>
 <ellipse style="fill:#8b9cbe" cx="63.831" cy="13.403" rx="5.347" ry="6.472" transform="rotate(23.444494)"/>
 <path style="fill:#ffd520" d="M 37.959368,12 C 24.93464,15.598499 25.841574,20.16247 14.4041,20.013016 11.889193,20.013294 9.6476042,21.127374 8.1877452,22.866982 6.50499,24.723114 7.0407424,28.057994 7.242,29.850876 c 0.621784,0.2551 2.5271158,-1.843942 3.159216,-1.60358 C 20.535466,32.100918 36.203822,36.743874 48.155924,38 52.1619,38.421014 55.45256,37.65987 58.303126,36.919716 61.407608,36.56425 62.959974,33.75241 63,31.110958 63.000486,26.903828 59.43244,23.892488 55.030532,23.892 48.807588,22.776208 47.529942,12.409347 37.959368,12 Z"/>
 <path style="fill:#5e5e5e" d="m 29.471876,20.500043 c -0.342668,0.004 -0.61682,0.286558 -0.611478,0.630178 0.2079,2.90676 -1.264674,2.719452 -2.709352,2.719452 -0.02094,-0.0011 -0.0419,-0.0011 -0.06284,0 -0.824972,0.04202 -0.762132,1.282974 0.06284,1.240964 1.434462,0 2.709352,0.02932 2.709352,2.780045 -0.0118,0.83909 1.24929,0.83909 1.237458,0 -0.213338,-2.97416 1.311446,-2.780045 2.77461,-2.780045 0.836718,0.0118 0.836718,-1.25283 0,-1.240964 -2.0977,0 -2.77461,0.04882 -2.77461,-2.719452 0.0056,-0.349316 -0.277632,-0.634276 -0.62598,-0.630178 z"/>
 <path style="fill:#5e5e5e" d="m 42.471876,20.500043 c -0.342668,0.004 -0.61682,0.286558 -0.611478,0.630178 0.2079,2.90676 -1.264674,2.719452 -2.709352,2.719452 -0.02094,-0.0011 -0.0419,-0.0011 -0.06284,0 -0.824972,0.04202 -0.762132,1.282974 0.06284,1.240964 1.434462,0 2.709352,0.02932 2.709352,2.780045 -0.0118,0.83909 1.24929,0.83909 1.237458,0 -0.213338,-2.97416 1.311446,-2.780045 2.77461,-2.780045 0.836718,0.0118 0.836718,-1.25283 0,-1.240964 -2.0977,0 -2.77461,0.04882 -2.77461,-2.719452 0.0056,-0.349316 -0.277632,-0.634276 -0.62598,-0.630178 z"/>
 <path style="opacity:0.1" d="M 14.330078,38.264452 A 2.80028,2.80028 0 0 0 12.202734,42.87461 L 26.295702,60 h 7.251564 L 16.525782,39.314452 a 2.80028,2.80028 0 0 0 -2.195704,-1.05 z m 34.521486,7.669922 a 2.80028,2.80028 0 0 0 -2.127346,4.610158 l 7.757422,9.428124 C 55.897708,59.830462 57,58.65476 57,57.2 V 54.222266 L 51.047266,46.98711 A 2.80028,2.80028 0 0 0 48.851564,45.934374 Z M 7.0839844,47.000782 A 2.80028,2.80028 0 0 0 4.9566406,51.610936 L 11.858203,60 H 19.1125 L 9.2824218,48.053516 A 2.80028,2.80028 0 0 0 7.0839844,47.000782 Z m 28.5550796,0 a 2.80028,2.80028 0 0 0 -2.127346,4.610154 L 40.413282,60 h 7.251562 L 37.834766,48.053516 a 2.80028,2.80028 0 0 0 -2.195702,-1.052734 z"/>
 <path style="opacity:0.2;fill:#8b9cbe" d="M 37.960938 12 C 24.936209 15.598499 25.839818 20.161173 14.402344 20.011719 C 11.887437 20.011997 9.647359 21.127579 8.1875 22.867188 C 7.1630251 23.997216 6.9880452 25.657351 7.0351562 27.199219 C 7.1002554 25.971527 7.3839694 24.753507 8.1875 23.867188 C 9.647359 22.127579 11.887437 21.011997 14.402344 21.011719 C 25.839818 21.161173 24.936209 16.598499 37.960938 13 C 47.531511 13.409347 48.808308 23.774835 55.03125 24.890625 C 59.238624 24.891093 62.67486 27.645722 62.970703 31.5625 C 62.986076 31.412703 63.000017 31.263115 63 31.109375 C 63.000486 26.902245 59.433158 23.891115 55.03125 23.890625 C 48.808308 22.774835 47.531511 12.409347 37.960938 12 z"/>
 <path style="opacity:0.2;fill:#8b9cbe" d="M 3.8007812 4 C 2.2495813 4 1 5.2495812 1 6.8007812 L 1 7.8007812 C 1 6.2495813 2.2495813 5 3.8007812 5 L 54.199219 5 C 55.750419 5 57 6.2495812 57 7.8007812 L 57 6.8007812 C 57 5.2495813 55.750419 4 54.199219 4 L 3.8007812 4 z"/>
</svg>
