<svg xmlns="http://www.w3.org/2000/svg" width="64" height="64" version="1">
 <circle style="opacity:0.2" cx="32" cy="33" r="28"/>
 <circle style="fill:#1da1f2" cx="32" cy="32" r="28"/>
 <g style="opacity:0.2" transform="matrix(0.26562501,0,0,0.26562501,136.13321,763.08768)">
  <path d="m -339.32503,-2801.2712 c -55.10161,0 -105.41176,50.3102 -105.41176,105.4118 0,0 7.18716,-19.166 23.95721,-31.1444 16.77003,-11.9786 50.78911,-7.1534 60.3722,-28.7149 -16.77027,0 -26.83207,-3.8767 -26.83207,-3.8767 19.16575,0 47.91442,-13.7257 47.91442,-41.6758 z"/>
 </g>
 <g transform="matrix(0.26562501,0,0,0.26562501,136.13321,762.08768)">
  <path style="fill:#8b9cbe" d="m -339.32503,-2801.2712 c -55.10161,0 -105.41176,50.3102 -105.41176,105.4118 0,0 7.18716,-19.166 23.95721,-31.1444 16.77003,-11.9786 50.78911,-7.1534 60.3722,-28.7149 -16.77027,0 -26.83207,-3.8767 -26.83207,-3.8767 19.16575,0 47.91442,-13.7257 47.91442,-41.6758 z"/>
 </g>
 <path style="opacity:0.2;fill:#8b9cbe" d="M 31.748047 4.0019531 A 28 28 0 0 0 4.953125 24.753906 A 28 28 0 0 0 4.0253906 32.660156 A 28 28 0 0 1 4.953125 25.753906 A 28 28 0 0 1 39.246094 5.953125 A 28 28 0 0 1 59.974609 32.339844 A 28 28 0 0 0 39.246094 4.953125 A 28 28 0 0 0 31.748047 4.0019531 z"/>
</svg>
