<svg xmlns="http://www.w3.org/2000/svg" width="64" height="64" version="1">
 <circle style="opacity:0.2" cx="32" cy="33" r="28"/>
 <circle style="fill:#623bb2" cx="32" cy="32" r="28"/>
 <path style="opacity:0.2" d="m 27.389844,6.889454 -7.642578,29.38086 C 17.545685,24.06589 15.648018,17.582511 13.061718,12.412891 a 28,28 0 0 0 -5.7121086,7.325391 c 1.8257986,4.689216 3.5837956,10.995886 5.9417976,20.948046 2.538173,10.83362 6.648434,14.744112 16.045311,16.597656 l 6.732032,1.602344 7.639844,-29.383594 c 2.27091,12.588788 4.222808,19.091318 6.937108,24.341406 a 28,28 0 0 0 5.728516,-7.101172 C 54.450664,41.993488 52.637142,35.525612 50.164452,25.089452 47.626294,14.255821 43.516028,10.345342 34.11914,8.4917976 Z m 6.42578,7.820313 c 4.764164,1.271867 6.58121,3.591737 8.05,8.337107 h -3.229296 l -8.99336,28.019142 c -4.764164,-1.271872 -6.581196,-3.59174 -8.05,-8.33711 h 3.229298 z"/>
 <path style="fill:#8b9cbe" d="m 27.389844,5.889454 -7.642578,29.38086 C 17.545685,23.06589 15.648018,16.582511 13.061718,11.412891 a 28,28 0 0 0 -5.7121086,7.325391 c 1.8257986,4.689216 3.5837956,10.995886 5.9417976,20.948046 2.538173,10.83362 6.648434,14.744112 16.045311,16.597656 l 6.732032,1.602344 7.639844,-29.383594 c 2.27091,12.588788 4.222808,19.091318 6.937108,24.341406 a 28,28 0 0 0 5.728516,-7.101172 C 54.450664,40.993488 52.637142,34.525612 50.164452,24.089452 47.626294,13.255821 43.516028,9.3453416 34.11914,7.4917976 Z m 6.42578,7.820313 c 4.764164,1.271867 6.58121,3.591737 8.05,8.337107 h -3.229296 l -8.99336,28.019142 c -4.764164,-1.271872 -6.581196,-3.59174 -8.05,-8.33711 h 3.229298 z"/>
 <path style="opacity:0.1;fill:#8b9cbe" d="M 32 4 A 28 28 0 0 0 4 32 A 28 28 0 0 0 4.0175781 32.492188 A 28 28 0 0 1 32 5 A 28 28 0 0 1 59.974609 32.492188 A 28 28 0 0 0 60 32 A 28 28 0 0 0 32 4 z"/>
</svg>
