<svg xmlns="http://www.w3.org/2000/svg" width="64" height="64" version="1.1">
 <path style="opacity:0.2" d="M 23.922209,9.000341 C 15.31363,9.048051 9.089622,13.74482 5.7706092,18.753965 c -2.9073451,4.387846 -3.5565335,8.76742 -3.5701657,8.860192 -0.128204,0.76012 -0.197972,1.530956 -0.19921,2.301856 a 10.000589,9.9887104 0 0 0 0,0.0156 v 12.88649 c -0.054639,3.858882 1.7152947,8.07007 4.5427822,10.608065 2.8274871,2.538 6.2146903,3.57373 9.4566423,3.57373 2.761625,0 5.564837,-0.971096 8.101229,-2.762228 1.971726,1.404508 4.177012,2.49575 6.710661,2.711508 a 10.000589,9.9887104 0 0 0 0.05468,0.004 c 0.453436,0.03598 0.90845,0.04728 1.363224,0.03902 2.872732,-0.04722 5.403244,-1.204578 7.624687,-2.781736 C 42.402015,56.02337 45.222237,57 47.999337,57 c 3.241953,0 6.629155,-1.03573 9.456643,-3.57373 2.827493,-2.538085 4.597429,-6.749273 4.542789,-10.608129 V 29.759987 a 10.000589,9.9887104 0 0 0 0,-0.0078 c -4.86e-4,-0.77804 -0.0694,-1.554268 -0.19922,-2.321364 -0.0102,-0.06854 -0.671296,-4.4991 -3.640475,-8.895305 -3.39246,-5.02295 -9.67006,-9.582647 -18.237523,-9.535155 -2.871765,0.01592 -5.475299,0.670124 -7.827805,1.599594 C 29.65225,9.625872 26.920357,8.983721 23.922209,9.000341 Z"/>
 <path style="fill:#f540ae" d="M 23.922209,8.0003408 C 15.31363,8.0480556 9.089622,12.74482 5.7706092,17.753965 c -2.9073451,4.387847 -3.5565335,8.76742 -3.5701657,8.860192 -0.128204,0.76012 -0.197972,1.530956 -0.19921,2.301856 a 10.000589,9.9887104 0 0 0 0,0.0156 v 12.886491 c -0.054639,3.858881 1.7152947,8.070069 4.5427822,10.608065 2.8274871,2.537999 6.2146903,3.573729 9.4566423,3.573729 2.761625,0 5.564837,-0.971096 8.101229,-2.762228 1.971726,1.404508 4.177012,2.49575 6.710661,2.711508 a 10.000589,9.9887104 0 0 0 0.05468,0.004 c 0.453436,0.03598 0.90845,0.04728 1.363224,0.03902 2.872732,-0.04722 5.403244,-1.204578 7.624687,-2.781736 C 42.402015,55.02337 45.222237,56 47.999337,56 c 3.241953,0 6.629155,-1.03573 9.456643,-3.573729 2.827493,-2.538086 4.597429,-6.749274 4.542789,-10.608129 V 28.759987 a 10.000589,9.9887104 0 0 0 0,-0.0078 c -4.86e-4,-0.77804 -0.0694,-1.554268 -0.19922,-2.321364 -0.0102,-0.06854 -0.671296,-4.499099 -3.640475,-8.895305 -3.39246,-5.02295 -9.67006,-9.5826468 -18.237523,-9.5351552 -2.871765,0.01592 -5.475299,0.6701239 -7.827805,1.5995942 C 29.65225,8.6258721 26.920357,7.9837212 23.922209,8.0003408 Z"/>
 <path style="opacity:0.2" d="m 23.976563,18.999034 c -4.76049,0.02642 -8.2184,2.793802 -9.867186,5.285155 -1.648786,2.491354 -2.050781,4.996094 -2.050781,4.996094 a 4.0003996,4.0003996 0 0 0 -0.05859,0.675782 v 13.042966 a 4.0003996,4.0003996 0 1 0 7.999999,0 v -12.50781 c 0.02612,-0.1209 0.1766,-0.885232 0.777344,-1.79297 0.646468,-0.976828 1.188404,-1.6878 3.246094,-1.699218 2.073328,-0.0116 2.586356,0.679744 3.21875,1.617188 0.587028,0.870194 0.731862,1.60108 0.757812,1.71875 v 12.66406 a 4.0003996,4.0003996 0 0 0 3.660155,4.042968 4.0003996,4.0003996 0 0 0 0.398438,0.0118 A 4.0003996,4.0003996 0 0 0 36,42.999031 v -12.50781 c 0.02612,-0.1209 0.1766,-0.885232 0.777344,-1.79297 0.646468,-0.976828 1.188402,-1.6878 3.246093,-1.699218 2.073328,-0.0116 2.586356,0.679744 3.21875,1.617188 0.587028,0.870194 0.731862,1.60108 0.757812,1.71875 v 12.66406 a 4.0003996,4.0003996 0 1 0 7.999999,0 V 29.784189 a 4.0003996,4.0003996 0 0 0 -0.0586,-0.679688 c 0,0 -0.407252,-2.499568 -2.070312,-4.964844 -1.663053,-2.465273 -5.149677,-5.166956 -9.894531,-5.140623 -3.354947,0.01862 -6.045949,1.404544 -7.929685,3.089843 -1.900908,-1.705125 -4.650857,-3.108821 -8.070313,-3.089843 z"/>
 <path style="fill:none;stroke:#8b9cbe;stroke-width:7.99999905;stroke-linecap:round;stroke-linejoin:round" d="M 16.000402,42.000002 V 28.955285 c 0,0 1.181418,-6.917445 7.999599,-6.955281 C 30.818182,21.962164 32,28.786519 32,28.786519 v 13.213483 0"/>
 <path style="fill:none;stroke:#8b9cbe;stroke-width:7.99999905;stroke-linecap:round;stroke-linejoin:round" d="M 32.0004,42.000002 V 28.955285 c 0,0 1.181418,-6.917445 7.999599,-6.955281 6.818182,-0.03784 8,6.786515 8,6.786515 v 13.213483 0"/>
 <path style="opacity:0.2;fill:#8b9cbe" d="M 23.921875 8 C 15.313295 8.047715 9.0885441 12.744761 5.7695312 17.753906 C 2.8621861 22.141754 2.212851 26.520509 2.1992188 26.613281 C 2.0710147 27.373401 2.001238 28.143163 2 28.914062 A 10.000589 9.9887104 0 0 0 2 28.929688 L 2 29.914062 C 2.001238 29.143162 2.0710147 28.373401 2.1992188 27.613281 C 2.212851 27.520509 2.8621861 23.141754 5.7695312 18.753906 C 9.0885441 13.744761 15.313295 9.047715 23.921875 9 C 26.920021 8.9833804 29.652254 9.6274778 32.09375 10.601562 C 34.446256 9.6720924 37.050108 9.01592 39.921875 9 C 48.489336 8.9525084 54.767696 13.512194 58.160156 18.535156 C 61.129335 22.931362 61.790581 27.361148 61.800781 27.429688 C 61.930601 28.196784 61.999514 28.975866 62 29.753906 L 62 28.761719 A 10.000589 9.9887104 0 0 0 62 28.753906 C 61.999514 27.975866 61.930601 27.196783 61.800781 26.429688 C 61.790581 26.361148 61.129335 21.931362 58.160156 17.535156 C 54.767696 12.512194 48.489336 7.9525084 39.921875 8 C 37.050108 8.01592 34.446256 8.6720922 32.09375 9.6015625 C 29.652254 8.6274776 26.920021 7.9833804 23.921875 8 z"/>
</svg>
