<svg xmlns="http://www.w3.org/2000/svg" width="64" height="64" version="1">
 <path style="opacity:0.2" d="M 23.091406,5 4,24.088672 V 58.2 C 4,59.7512 5.2488,61 6.8,61 H 32 40.908594 L 60,41.911328 V 7.8 C 60,6.2488 58.7512,5 57.2,5 H 32 Z"/>
 <path style="fill:#0ca9e3" d="M 23.091406,4 4,23.088672 V 57.2 C 4,58.7512 5.2488,60 6.8,60 H 32 40.908594 L 60,40.911328 V 6.8 C 60,5.2488 58.7512,4 57.2,4 H 32 Z"/>
 <path style="opacity:0.2" d="M 29.636364,17 C 22.081818,17 16,23.081818 16,30.636364 v 2.727272 C 16,40.918182 22.081818,47 29.636364,47 H 44 V 39 H 29.636364 C 26.473024,39 24,36.526976 24,33.363636 V 30.636364 C 24,27.473024 26.473024,25 29.636364,25 H 44 v -8 z"/>
 <path style="fill:#8b9cbe" d="M 29.636364,16 C 22.081818,16 16,22.081818 16,29.636364 v 2.727272 C 16,39.918182 22.081818,46 29.636364,46 H 44 V 38 H 29.636364 C 26.473024,38 24,35.526976 24,32.363636 V 29.636364 C 24,26.473024 26.473024,24 29.636364,24 H 44 v -8 z"/>
 <path style="opacity:0.2;fill:#8b9cbe" d="M 23.089844 4 L 4 23.089844 L 4 24.089844 L 23.089844 5 L 32 5 L 57.199219 5 C 58.750419 5 60 6.2495813 60 7.8007812 L 60 6.8007812 C 60 5.2495813 58.750419 4 57.199219 4 L 32 4 L 23.089844 4 z"/>
</svg>
