<svg xmlns="http://www.w3.org/2000/svg" width="64" height="64" version="1">
 <path style="opacity:0.2" d="m 4.0507997,32.000415 c -0.0118,0.333995 -0.050799,0.66199 -0.050799,0.999985 C 4.0000004,48.512179 16.487822,61 31.9996,61 47.511378,61 59.9992,48.512179 59.9992,33.0004 c 0,-0.337995 -0.04,-0.66599 -0.05,-0.999985 C 59.421208,47.0422 47.173383,59.000029 31.9996,59.000029 16.825417,59.000029 4.5779921,47.0422 4.0499997,32.000415 Z"/>
 <rect style="fill:#2095f2" width="56" height="56" x="4" y="4" rx="28" ry="28"/>
 <path style="opacity:0.2;fill:#8b9cbe" d="M 31.962891 4 C 25.572777 4.00825 19.700244 6.1400397 15.001953 9.7246094 C 15.068242 25.180333 27.729017 38 43.199219 38 C 49.521128 38 55.321514 35.500338 59.998047 31.992188 C 59.997547 30.055952 59.802932 28.167279 59.431641 26.34375 C 59.43123 26.341735 59.430098 26.339906 59.429688 26.337891 C 59.15092 24.970296 58.77389 23.639557 58.304688 22.353516 C 58.304189 22.352149 58.303233 22.350976 58.302734 22.349609 C 57.676218 20.633212 56.886555 18.995795 55.953125 17.457031 C 52.919784 12.456552 48.36325 8.4908242 42.917969 6.1953125 C 42.917411 6.1950775 42.916573 6.1955475 42.916016 6.1953125 C 42.497649 6.0189777 42.075057 5.8516504 41.646484 5.6953125 C 41.645907 5.6951017 41.645109 5.6955232 41.644531 5.6953125 C 38.640437 4.5996784 35.392326 4.0039063 32 4.0039062 C 31.988309 4.0039062 31.97463 4.0000667 31.962891 4 z"/>
 <path style="opacity:0.2" d="m 29.139641,13.001572 c -0.789989,0 -1.12967,0.687248 -1.139641,1.538978 l 0,24.460307 -6.000257,0 L 31.9996,53 41.999457,39.000857 36,39.000857 36,14.54055 c 0,-0.853188 -0.354452,-1.539978 -1.144441,-1.539978 l -5.715918,0 z"/>
 <path style="fill:#8b9cbe" d="m 29.139641,12.000715 c -0.789989,0 -1.12967,0.687248 -1.139641,1.538978 L 28,38 21.999743,38 31.9996,51.999143 41.999457,38 36,38 36,13.539693 c 0,-0.853188 -0.354452,-1.539978 -1.144441,-1.539978 l -5.715918,0 z"/>
 <path style="opacity:0.2;fill:#8b9cbe" d="M 32 4 C 16.488222 4 4 16.488222 4 32 C 4 32.113554 4.0112846 32.224034 4.0175781 32.335938 C 4.3691163 17.134398 16.710946 5 32 5 C 47.289054 5 59.630884 17.134398 59.982422 32.335938 C 59.988797 32.224034 60 32.113554 60 32 C 60 16.488222 47.511778 4 32 4 z"/>
</svg>
