<svg xmlns="http://www.w3.org/2000/svg" width="64" height="64" version="1">
 <path style="opacity:0.2" d="M 31 5 A 28 28 0 0 0 3 33 A 28 28 0 0 0 31 61 A 28 28 0 0 0 50.587891 53 L 59 53 L 60.400391 50 L 53.205078 50 A 28 28 0 0 0 56.259766 45 L 59 45 L 60.400391 42 L 57.484375 42 A 28 28 0 0 0 59 33 A 28 28 0 0 0 31 5 z"/>
 <path style="fill:#b94bee" d="m 31,4 c 8.01956,0 15.230868,3.337785 20.326176,8.70561 4.760398,5.015003 3.405532,10.606828 3.405532,18.099268 0,15.512 -8.731904,25.609756 -24.243904,25.609756 -7.538426,0 -13.850478,0.636068 -18.874336,-4.17632 C 6.2996146,47.148136 3,39.973572 3,32 3,16.488 15.488,4 31,4 Z"/>
 <path style="fill:#693f86" d="M 30.680078,7.2757814 32.90586,13.964063 31.8764,17.0368 30.305468,15.867187 29.296484,33.38086 11.030859,51.646484 C 16.103877,56.802934 23.161448,60 31,60 c 4.676216,-0.264048 9.164908,-1.318546 12.70664,-3.177344 2.514288,-1.299546 4.857464,-2.985498 6.945312,-5.042188 l 0.820314,-0.809374 h 0.11212 c 0.55304,-0.600088 1.081212,-1.220482 1.580468,-1.867578 -9.34e-4,-0.0015 -0.0186,-0.0011 -0.0192,-0.0028 -0.02022,-0.0527 0.1445,-0.332354 0.410156,-0.697266 0.791434,-1.087104 1.612562,-2.44562 2.261328,-3.691406 C 57.83584,40.64207 58.9656,35.8004 59,32 59,24.161448 55.802934,17.103877 50.646484,12.030859 l -7.380078,7.380078 z"/>
 <path style="opacity:0.2" d="M 30.679688 7.2753906 L 31.169922 8.7480469 L 43.265625 20.410156 L 50.646484 13.03125 C 50.960232 13.339921 51.265492 13.657374 51.564453 13.980469 C 51.482063 13.889079 51.412549 13.796075 51.326172 13.705078 C 50.944211 13.302688 50.545817 12.916127 50.140625 12.537109 L 43.265625 19.410156 L 30.679688 7.2753906 z M 32.740234 14.462891 L 31.876953 17.037109 L 30.304688 15.867188 L 29.296875 33.380859 L 11.03125 51.646484 C 11.19656 51.814513 11.368918 51.975465 11.539062 52.138672 L 29.296875 34.380859 L 30.304688 16.867188 L 31.876953 18.037109 L 32.90625 14.964844 L 32.740234 14.462891 z M 3.0136719 32.494141 C 3.0106962 32.663073 3 32.830332 3 33 C 3 40.973572 6.299428 48.148103 11.613281 53.238281 C 11.716359 53.337021 11.823573 53.419468 11.927734 53.513672 C 11.623295 53.230498 11.322808 52.942837 11.03125 52.646484 L 11.527344 52.150391 C 6.3753787 47.171764 3.1466387 40.224756 3.0136719 32.494141 z"/>
 <path style="opacity:0.2" d="M 38.300902,57.781668 C 36.966538,55.490172 35.522198,53.26177 34.247998,50.936 c 2.758196,-2.264734 5.675506,-4.331474 8.42268,-6.610076 -3.96146,-12.028254 -7.958836,-24.0451 -11.99137,-36.0497144 -0.04516,1.5279434 0.284274,3.5325754 0.399994,5.2497554 0.878524,9.457905 1.745728,18.916859 2.61645,28.375485 -0.784614,1.393886 -1.498442,2.831802 -2.369634,4.173796 -0.958346,-1.29726 -1.713402,-2.738048 -2.568356,-4.106854 0.518808,-8.366858 1.082348,-16.7312 1.547318,-25.101197 -0.606784,0.746665 -1.342692,3.250065 -1.99753,4.694141 -3.014154,7.636922 -6.091728,15.255056 -9.061312,22.905698 3.008362,2.2725 6.200884,4.365594 9.251822,6.608386 -0.552964,1.716498 -1.739008,3.276658 -2.52842,4.930376 -0.493194,0.864084 -1.598648,2.686948 -8.94e-4,1.196562 1.809218,-1.35921 3.58661,-2.760762 5.408358,-4.103182 2.343612,1.595132 4.629712,3.273498 6.974562,4.866824 l -0.05078,-0.18434 z"/>
 <path style="fill:#693f86" d="M 47.8,49 H 60.4 L 59,52 H 47.8 Z"/>
 <path style="fill:#693f86" d="m 50.6,41 h 9.8 L 59,44 h -8.4 z"/>
 <path style="fill:#8b9cbe" d="m 38.300902,56.78249 c -1.334364,-2.291496 -2.778704,-4.519898 -4.052904,-6.845668 2.758196,-2.264734 5.675506,-4.331474 8.42268,-6.610076 -3.96146,-12.028254 -7.958836,-24.045099 -11.99137,-36.0497144 -0.04516,1.527943 0.284274,3.5325754 0.399994,5.2497554 0.878524,9.457905 1.745728,18.916859 2.61645,28.375485 -0.784614,1.393886 -1.498442,2.831802 -2.369634,4.173796 -0.958346,-1.29726 -1.713402,-2.738048 -2.568356,-4.106854 0.518808,-8.366858 1.082348,-16.7312 1.547318,-25.101197 -0.606784,0.746665 -1.342692,3.250065 -1.99753,4.694141 -3.014154,7.636922 -6.091728,15.255056 -9.061312,22.905698 3.008362,2.2725 6.200884,4.365594 9.251822,6.608386 -0.552964,1.716498 -1.739008,3.276658 -2.52842,4.930376 -0.493194,0.864084 -1.598648,2.686948 -8.94e-4,1.196562 1.809218,-1.35921 3.58661,-2.760762 5.408358,-4.103182 2.343612,1.595132 4.629712,3.273498 6.974562,4.866824 l -0.05078,-0.18434 z"/>
 <path style="opacity:0.1;fill:#8b9cbe" d="M 31 4 A 28 28 0 0 0 3 32 A 28 28 0 0 0 3.0175781 32.492188 A 28 28 0 0 1 31 5 A 28 28 0 0 1 58.974609 32.492188 A 28 28 0 0 0 59 32 A 28 28 0 0 0 31 4 z"/>
</svg>
