<svg xmlns="http://www.w3.org/2000/svg" width="64" height="64" version="1.1">
 <path style="opacity:.2" d="m4 53v1c0 1.662 1.338 3 3 3h50c1.662 0 3-1.338 3-3v-1c0 1.662-1.338 3-3 3h-50c-1.662 0-3-1.338-3-3z"/>
 <rect style="fill:#4f4f4f" width="56" height="48" x="4" y="8" rx="3" ry="3"/>
 <path style="fill:#8b9cbe;opacity:.1" d="m7 8c-1.662 0-3 1.338-3 3v1c0-1.662 1.338-3 3-3h50c1.662 0 3 1.338 3 3v-1c0-1.662-1.338-3-3-3z"/>
 <path style="opacity:.2" d="m9 13v2h6v-2zm6 2v2h2v-2zm-6 0h-2l0.183594 10h1.816406zm0 10v2h6v-2zm6 0h2v-2h-2zm4-12v14h2v-4h6v-2h-6v-6h6v-2zm8 2v6h2v-6zm0 8v4h2v-4zm4-10v2h4v12h2v-12h4v-2h-6zm-24 16v14h10v-14z"/>
 <path style="fill:#ffc105" d="m9 12v2h6v-2zm6 2v2h2v-2zm-6 0h-2l0.183594 10h1.816406zm0 10v2h6v-2zm6 0h2v-2h-2zm4-12v14h2v-4h6v-2h-6v-6h6v-2zm8 2v6h2v-6zm0 8v4h2v-4zm4-10v2h4v12h2v-12h4v-2h-6zm-24 16v14h10v-14z"/>
</svg>
