<svg xmlns="http://www.w3.org/2000/svg" width="64" height="64" version="1">
 <rect style="opacity:0.2" width="56" height="56" x="4" y="5" rx="2.8" ry="2.8"/>
 <rect style="fill:#52575f" width="56" height="56" x="4" y="4" rx="2.8" ry="2.8"/>
 <path style="opacity:0.2" d="M 14,12 V 54 H 24 V 12 Z m 14,0 V 22 H 50 V 12 Z m 0,14 V 36 H 38 V 26 Z"/>
 <path style="fill:#8b9cbe" d="M 14 11 L 14 53 L 24 53 L 24 11 L 14 11 z M 28 11 L 28 21 L 50 21 L 50 11 L 28 11 z M 28 25 L 28 35 L 38 35 L 38 25 L 28 25 z"/>
 <path style="opacity:0.1;fill:#8b9cbe" d="M 6.8007812 4 C 5.2495812 4 4 5.2495812 4 6.8007812 L 4 7.8007812 C 4 6.2495813 5.2495812 5 6.8007812 5 L 57.199219 5 C 58.750419 5 60 6.2495812 60 7.8007812 L 60 6.8007812 C 60 5.2495813 58.750419 4 57.199219 4 L 6.8007812 4 z"/>
</svg>
