<svg xmlns="http://www.w3.org/2000/svg" width="64" height="64" version="1">
 <path style="opacity:0.2" d="m 32.2156,60.99986 0.0028,-0.0054 C 47.6282,60.87694 60,48.43906 60,33 60,17.488 47.512,5 32,5 17.048,5 4.9086,16.6046 4.0518,31.3354 L 4,31.3844 V 55.4 C 4,58.5024 6.4976,61 9.6,61 h 22.6156 z"/>
 <path style="fill:#3d3b67" d="m 32.2156,59.99986 0.0028,-0.0054 C 47.6282,59.87694 60,47.43906 60,32 60,16.488 47.512,4 32,4 17.048,4 4.9086,15.6046 4.0518,30.3354 L 4,30.3844 V 54.4 C 4,57.5024 6.4976,60 9.6,60 h 22.6156 z"/>
 <path style="opacity:0.2" d="M 17.300781,17.101124 28.5,35.300344 23.601562,54.898 l 7.69922,-5.597656 -0.69922,-3.5 11.19922,-7.69922 1.355468,-4.164062 4.242188,0.664062 -2.63672,-5.601562 h -8.210936 l -5.25,-9.101562 z"/>
 <path style="fill:#8b9cbe" d="m 36.4884,28 h 8.273754 L 41.8,37.1 Z"/>
 <path style="fill:#3a88d6" d="M 44.762154,28 47.4,33.6 43.075356,32.9252 Z"/>
 <path style="fill:#8b9cbe" d="m 28.5,34.3 13.3,2.8 -11.197716,7.7 z"/>
 <path style="fill:#3a88d6" d="m 28.5,34.3 2.8,14 -7.7,5.6 z"/>
 <path style="fill:#0365db" d="m 17.3,16.1 14,2.8 10.5,18.2 -13.3,-2.8 z"/>
 <path style="opacity:0.1;fill:#8b9cbe" d="M 32 4 C 17.048 4 4.9075812 15.605138 4.0507812 30.335938 L 4 30.382812 L 4 31.382812 L 4.0507812 31.335938 C 4.9075812 16.605137 17.048 5 32 5 C 47.288618 5 59.629866 17.133142 59.982422 32.333984 C 59.988709 32.222835 60 32.112874 60 32 C 60 16.488 47.512 4 32 4 z"/>
</svg>
