<svg xmlns="http://www.w3.org/2000/svg" width="64" height="64" version="1">
 <circle style="opacity:0.2" cx="32" cy="33" r="28"/>
 <circle style="fill:#3f3bbd" cx="32" cy="32" r="28"/>
 <path style="opacity:0.2" d="M 50.464232,34.272726 46.79791,30.604742 39.400942,23.395256 36.956726,20.992094 c -2.701504,-2.656126 -7.139684,-2.656126 -9.905506,0 l -2.444214,2.403162 -7.396968,7.209486 -3.666323,3.604744 c -2.058286,2.023718 -2.058286,5.24901 0,7.272726 v 0 c 2.058287,2.023718 5.338681,2.023718 7.396969,0 l 3.666322,-3.604742 3.666322,3.604742 c 2.058286,2.023718 5.33868,2.023718 7.396968,0 2.058288,-2.023716 2.058288,-5.249008 0,-7.272726 l 3.666324,3.604744 3.666324,3.604744 c 2.058286,2.023714 5.33868,2.023714 7.396968,0 v 0 c 2.122606,-1.897236 2.122606,-5.18577 0.06432,-7.146248 z"/>
 <path style="fill:#8b9cbe" d="M 50.464232,33.272726 46.79791,29.604742 39.400942,22.395256 36.956726,19.992094 c -2.701504,-2.656126 -7.139684,-2.656126 -9.905506,0 l -2.444214,2.403162 -7.396968,7.209486 -3.666323,3.604744 c -2.058286,2.023718 -2.058286,5.24901 0,7.272726 v 0 c 2.058287,2.023718 5.338681,2.023718 7.396969,0 l 3.666322,-3.604742 3.666322,3.604742 c 2.058286,2.023718 5.33868,2.023718 7.396968,0 2.058288,-2.023716 2.058288,-5.249008 0,-7.272726 l 3.666324,3.604744 3.666324,3.604744 c 2.058286,2.023714 5.33868,2.023714 7.396968,0 v 0 c 2.122606,-1.897236 2.122606,-5.18577 0.06432,-7.146248 z"/>
 <path style="opacity:0.1;fill:#8b9cbe" d="M 32 4 A 28 28 0 0 0 4 32 A 28 28 0 0 0 4.0175781 32.492188 A 28 28 0 0 1 32 5 A 28 28 0 0 1 59.974609 32.492188 A 28 28 0 0 0 60 32 A 28 28 0 0 0 32 4 z"/>
</svg>
