<svg xmlns="http://www.w3.org/2000/svg" width="64" height="64" version="1.1">
 <circle style="opacity:0.2" cx="32" cy="33" r="28"/>
 <circle style="fill:#b2bfd9" cx="32" cy="32" r="28"/>
 <path style="opacity:0.1" d="m 30.824218,12.99979 c -0.333488,0.0023 -0.780732,0.04203 -1.351562,0.117188 -5.237796,0.689644 -9.864592,3.279496 -13.15625,7.367188 -2.15904,2.681168 -3.630166,6.091798 -4.167968,9.660156 -0.143422,0.951406 -0.197794,3.49701 -0.09766,4.5625 0.347669,3.700766 1.65737,7.11447 3.871093,10.097656 2.240589,1.088934 4.522353,-1.128828 5.226563,-2.972656 C 19.114981,39.337216 18.003107,36.218174 18,32.99979 c 0.0036,-7.226188 5.488848,-13.197326 12.563786,-13.91986 1.759286,-0.117576 1.447474,-1.447695 1.354182,-3.013734 -0.0343,-2.63492 -0.04252,-2.709041 -0.433592,-2.964843 -0.10776,-0.07027 -0.32667,-0.103906 -0.660158,-0.101563 z m 15.128906,6.195312 c -1.438446,0.1916 -2.777616,2.979698 -2.746092,5.4375 1.80828,2.41524 2.787914,5.350032 2.792968,8.367188 -0.0036,7.290476 -5.586904,13.30316 -12.752524,13.937756 -1.35788,0.16256 -1.137686,0.992296 -1.18107,2.210682 0,2.42916 0.05378,3.245408 0.23047,3.507812 0.07826,0.1162 0.247434,0.249468 0.375,0.292968 0.234146,0.07972 0.42186,0.07018 1.636718,-0.0586 2.697112,-0.286006 5.579084,-1.256544 8.007812,-2.703124 5.153128,-3.069276 8.6227,-8.285514 9.535156,-14.339844 0.14342,-0.95142 0.19778,-3.504822 0.09766,-4.570312 C 51.714572,28.77951 51.073292,26.504434 50,24.34354 c -1.034936,-2.083644 -2.490024,-4.121414 -3.667968,-5.136718 -0.13024,-0.0239 -0.255208,-0.02814 -0.378908,-0.0118 z"/>
 <path style="fill:#3c79e5" d="m 30.824218,12 c -0.333488,0.0023 -0.780732,0.04203 -1.351562,0.117188 -5.237796,0.689644 -9.864592,3.279496 -13.15625,7.367187 -2.15904,2.681169 -3.630166,6.091799 -4.167968,9.660157 -0.143422,0.951406 -0.197794,3.49701 -0.09766,4.5625 0.347669,3.700766 1.65737,7.11447 3.871093,10.097656 2.240589,1.088934 4.522353,-1.128828 5.226563,-2.972656 C 19.114981,38.337426 18.003107,35.218384 18,32 c 0.0036,-7.226188 5.488848,-13.197326 12.563786,-13.91986 1.759286,-0.117575 1.447474,-1.447695 1.354182,-3.013734 -0.0343,-2.634921 -0.04253,-2.709041 -0.433592,-2.964844 C 31.376616,12.031291 31.157706,11.997656 30.824218,12 Z m 15.128906,6.195312 c -1.438446,0.191592 -2.777616,2.979698 -2.746092,5.4375 C 45.015312,26.048052 45.994946,28.982844 46,32 c -0.0036,7.290476 -5.586904,13.30316 -12.752524,13.937756 -1.35788,0.16256 -1.137686,0.992296 -1.18107,2.210682 0,2.42916 0.05378,3.245408 0.23047,3.507812 0.07826,0.1162 0.247434,0.249468 0.375,0.292968 0.234146,0.07972 0.42186,0.07018 1.636718,-0.0586 2.697112,-0.286006 5.579084,-1.256544 8.007812,-2.703124 5.153128,-3.069276 8.6227,-8.285514 9.535156,-14.339844 0.14342,-0.95142 0.19778,-3.504822 0.09766,-4.570312 C 51.714572,27.77972 51.073292,25.504644 50,23.34375 c -1.034936,-2.083644 -2.490024,-4.121413 -3.667968,-5.136719 -0.13024,-0.0239 -0.255208,-0.02814 -0.378908,-0.01172 z"/>
 <path style="opacity:0.1" d="m 43.715406,18.11999 c -0.799744,-0.04929 -1.633984,0.122016 -2.36596,0.499454 -0.71218,0.367217 -1.523718,1.206152 -1.930712,1.995018 -0.519934,1.007748 -3.336896,8.067894 -3.336896,8.362342 2.86e-4,0.28974 0.18354,0.631336 0.421298,0.786844 0.19392,0.12684 4.06049,1.69257 4.416644,1.788544 0.288316,0.07774 0.747024,-0.05666 0.948614,-0.279024 0.06296,-0.06944 0.526638,-1.142782 1.029528,-2.385652 1.213462,-2.272276 1.816662,-6.283154 4.21576,-6.794228 0.575094,-0.09938 1.176888,-0.0092 1.768888,0.265072 -0.25247,-0.393608 -0.521502,-0.780676 -0.803532,-1.160738 -1.35575,-1.826988 -2.325246,-2.626788 -3.57963,-2.954861 -0.253438,-0.06629 -0.517422,-0.106345 -0.784002,-0.122774 z M 23.080222,34.448456 c -0.288314,-0.07774 -0.747024,0.05666 -0.948614,0.279024 -0.06296,0.06942 -0.526636,1.142782 -1.029526,2.385652 -1.213464,2.272274 -1.816664,6.283154 -4.215762,6.794228 -0.575094,0.09938 -1.176887,0.0092 -1.768889,-0.265072 0.252471,0.393608 0.521503,0.780676 0.803534,1.160738 1.35575,1.82699 2.325245,2.626788 3.579629,2.954862 1.013752,0.265142 2.173994,0.12656 3.149962,-0.376684 0.712182,-0.367218 1.523718,-1.206152 1.930714,-1.995018 0.519932,-1.007748 3.336894,-8.067894 3.336894,-8.362342 -2.86e-4,-0.28974 -0.18354,-0.631336 -0.421298,-0.786846 -0.19392,-0.12684 -4.06049,-1.692568 -4.416644,-1.788542 z"/>
 <path style="fill:#759ef8" d="m 43.715406,17.1202 c -0.799744,-0.04929 -1.633984,0.122016 -2.36596,0.499453 -0.71218,0.367218 -1.523718,1.206153 -1.930712,1.995019 -0.519934,1.007748 -3.336896,8.067894 -3.336896,8.362342 2.86e-4,0.28974 0.18354,0.631336 0.421298,0.786844 0.19392,0.12684 4.06049,1.69257 4.416644,1.788544 0.288316,0.07774 0.747024,-0.05666 0.948614,-0.279024 0.06296,-0.06944 0.526638,-1.142782 1.029528,-2.385652 1.213462,-2.272276 1.816662,-6.283154 4.21576,-6.794228 0.575094,-0.09938 1.176888,-0.0092 1.768888,0.265072 -0.25247,-0.393608 -0.521502,-0.780676 -0.803532,-1.160738 -1.35575,-1.826989 -2.325246,-2.626788 -3.57963,-2.954861 -0.253438,-0.06629 -0.517422,-0.106345 -0.784002,-0.122774 z M 23.080222,33.448666 c -0.288314,-0.07774 -0.747024,0.05666 -0.948614,0.279024 -0.06296,0.06942 -0.526636,1.142782 -1.029526,2.385652 -1.213464,2.272274 -1.816664,6.283154 -4.215762,6.794228 -0.575094,0.09938 -1.176887,0.0092 -1.768889,-0.265072 0.252471,0.393608 0.521503,0.780676 0.803534,1.160738 1.35575,1.82699 2.325245,2.626788 3.579629,2.954862 1.013752,0.265142 2.173994,0.12656 3.149962,-0.376684 0.712182,-0.367218 1.523718,-1.206152 1.930714,-1.995018 0.519932,-1.007748 3.336894,-8.067894 3.336894,-8.362342 -2.86e-4,-0.28974 -0.18354,-0.631336 -0.421298,-0.786846 -0.19392,-0.12684 -4.06049,-1.692568 -4.416644,-1.788542 z"/>
 <path style="opacity:0.2;fill:#8b9cbe" d="M 32 4 A 28 28 0 0 0 4 32 A 28 28 0 0 0 4.0175781 32.492188 A 28 28 0 0 1 32 5 A 28 28 0 0 1 59.974609 32.492188 A 28 28 0 0 0 60 32 A 28 28 0 0 0 32 4 z"/>
</svg>
