<svg xmlns="http://www.w3.org/2000/svg" width="64" height="64" version="1.1">
 <path style="fill:#b2bfd9" d="M 32,4 C 16.536027,4 4,16.536027 4,32 4.00517,40.370933 7.7553534,48.300486 14.222656,53.615234 12.783393,51.709853 12.00323,49.387875 12,47 12,40.924868 16.924868,36 23,36 29.075132,36 34,40.924868 34,47 34,53.075132 29.075132,58 23,58 22.416148,57.9955 21.833578,57.94459 21.257812,57.847656 24.661879,59.265463 28.312476,59.99691 32,60 47.463973,60 60,47.463973 60,32 60,16.536027 47.463973,4 32,4 Z"/>
 <path style="fill:#263547" d="M 32,8 C 45.302213,8 56,18.697787 56,32 56,44.217387 46.941862,54.13047 35.164062,55.683594 36.930991,53.223277 38,50.235962 38,47 38,38.763107 31.236893,32 23,32 17.163579,32 12.121315,35.428448 9.6464844,40.337891 8.655327,37.686328 8.0020273,34.899322 8,32 v -0.002 C 8.0010663,18.696804 18.69845,8 32,8 Z"/>
 <path style="opacity:0.2;fill:#8b9cbe" d="M 32 4 C 16.536027 4 4 16.536027 4 32 C 4.0000976 32.158066 4.0109105 32.314919 4.0136719 32.472656 C 4.2958014 17.252909 16.712826 5 32 5 C 47.296335 5 59.718596 17.267575 59.986328 32.5 C 59.989262 32.333062 60 32.167638 60 32 C 60 16.536027 47.463973 4 32 4 z M 23 32 C 17.163579 32 12.121315 35.428448 9.6464844 40.337891 C 8.7085533 37.82872 8.0809269 35.19699 8.0136719 32.464844 C 8.0098036 32.642866 8.0000143 32.819062 8 32.998047 L 8 33 C 8.0020273 35.899322 8.655327 38.686328 9.6464844 41.337891 C 12.121315 36.428448 17.163579 33 23 33 C 31.087251 33 37.737006 39.523681 37.976562 47.556641 C 37.983665 47.370904 38 47.18746 38 47 C 38 38.763107 31.236893 32 23 32 z M 55.988281 32.53125 C 55.734746 44.252674 47.139351 53.743844 35.886719 55.572266 C 35.660021 55.952321 35.421551 56.32506 35.164062 56.683594 C 46.941864 55.13047 56 45.217387 56 33 C 56 32.84264 55.991262 32.687867 55.988281 32.53125 z M 33.974609 47.5 C 33.711432 53.341413 28.906375 58 23 58 C 22.416148 57.9955 21.833578 57.94459 21.257812 57.847656 C 22.260425 58.265248 23.286142 58.614674 24.326172 58.912109 C 29.774777 58.256135 34 53.62544 34 48 C 34 47.831243 33.982129 47.666901 33.974609 47.5 z M 12.023438 47.546875 C 12.017255 47.6983 12 47.847056 12 48 C 12.002135 49.578464 12.350963 51.125346 12.998047 52.544922 C 13.395168 52.911867 13.802294 53.269786 14.222656 53.615234 C 12.893627 51.855787 12.135678 49.740641 12.023438 47.546875 z"/>
 <path style="opacity:0.2" d="M 32,8 C 18.69845,8 8.0010663,18.696898 8,31.998047 V 32 c 1.089e-4,0.155697 0.00986,0.309798 0.013672,0.464844 C 8.2972718,19.413226 18.877441,9 32,9 45.144853,9 55.739294,19.448405 55.988281,32.53125 55.992113,32.354123 56,32.178126 56,32 56,18.697787 45.302213,8 32,8 Z M 4.0136719,32.472656 C 4.010409,32.648676 4,32.823201 4,33 4.00517,41.370933 7.7553538,49.300486 14.222656,54.615234 13.734793,53.969373 13.329861,53.272858 12.998047,52.544922 7.4007924,47.372989 4.1476414,40.125448 4.0136719,32.472656 Z M 59.986328,32.5 C 59.718596,47.732425 47.296335,60 32,60 29.398576,59.99782 26.817249,59.624526 24.326172,58.912109 23.890616,58.964547 23.449692,59 23,59 22.416148,58.9955 21.833578,58.94459 21.257812,58.847656 24.661879,60.265463 28.312476,60.99691 32,61 47.463973,61 60,48.463973 60,33 c 0,-0.167638 -0.01074,-0.333062 -0.01367,-0.5 z M 23,36 c -6.075132,0 -11,4.924868 -11,11 2.47e-4,0.182889 0.01413,0.364917 0.02344,0.546875 C 12.262833,41.683477 17.077812,37 23,37 28.906375,37 33.711432,41.658587 33.974609,47.5 33.982129,47.333099 34,47.168757 34,47 34,40.924868 29.075132,36 23,36 Z m 14.976562,11.556641 c -0.115507,3.020482 -1.147929,5.809163 -2.8125,8.126953 0.242709,-0.03201 0.482313,-0.07227 0.722657,-0.111328 C 37.215659,53.34432 38,50.764396 38,48 c 0,-0.149642 -0.019,-0.294721 -0.02344,-0.443359 z"/>
</svg>
