<svg xmlns="http://www.w3.org/2000/svg" width="64" height="64" version="1">
 <path style="opacity:0.2" d="M 31.999,3.0001 C 30.428,3.0001 28.855,3.5858 27.68,4.7605 L 3.7604,28.683 C 1.411,31.033 1.4143,34.964 3.7639,37.314 L 27.684,61.236 C 30.033,63.586 33.969,63.589 36.318,61.24 L 60.238,37.317 C 62.587,34.968 62.587,31.033 60.238,28.683 L 36.318,4.7605 C 35.143,3.5858 33.571,3.0001 31.999,3.0001 Z"/>
 <path style="fill:#a42a2a" d="M 31.999,2 C 30.428,2 28.855,2.5858 27.68,3.7605 L 3.7604,27.683 C 1.411,30.032 1.4143,33.964 3.7639,36.314 L 27.684,60.236 C 30.033,62.586 33.969,62.589 36.318,60.24 L 60.238,36.317 C 62.587,33.968 62.587,30.033 60.238,27.683 L 36.318,3.7605 C 35.143,2.5858 33.571,2 31.999,2 Z"/>
 <path style="opacity:0.2;fill:#8b9cbe" d="M 32,2 C 30.429,2 28.854,2.5851 27.68,3.7598 L 3.7598,27.684 C 2.4601,28.983 1.8843,30.766 2.0234,32.498 2.1343,31.099 2.7099,29.733 3.7598,28.684 L 27.68,4.7598 C 28.854,3.5851 30.429,3 32,3 33.572,3 35.144,3.5851 36.318,4.7598 L 60.238,28.684 C 61.288,29.733 61.865,31.1 61.977,32.5 62.115,30.767 61.538,28.983 60.238,27.684 L 36.318,3.7598 C 35.144,2.5851 33.572,2 32,2 Z"/>
 <path style="opacity:0.2" d="M 9,11 C 7.338,11 6,12.338 6,14 6,15.662 7.338,17 9,17 H 10 V 51 A 6.0006,6.0006 0 0 0 20.193,55.291 L 59.418,16.959 C 60.879,16.755 62,15.519 62,14 62,12.338 60.662,11 59,11 H 45 C 43.338,11 42,12.338 42,14 42,14.889 42.39,15.676 43,16.225 L 22,36.748 V 17 H 23 C 24.662,17 26,15.662 26,14 26,12.338 24.662,11 23,11 Z"/>
 <path style="fill:#b2bfd9" d="M 9,10 C 7.338,10 6,11.338 6,13 6,14.662 7.338,16 9,16 H 10 V 50 A 6.0006,6.0006 0 0 0 20.193,54.291 L 59.418,15.959 C 60.879,15.755 62,14.519 62,13 62,11.338 60.662,10 59,10 H 45 C 43.338,10 42,11.338 42,13 42,13.889 42.39,14.676 43,15.225 L 22,35.748 V 16 H 23 C 24.662,16 26,14.662 26,13 26,11.338 24.662,10 23,10 Z"/>
 <path style="fill:#8b9cbe;opacity:0.1" d="M 9 10 C 7.338 10 6 11.338 6 13 C 6 13.172 6.0234 13.336 6.0508 13.5 C 6.2888 12.079 7.5096 11 9 11 L 23 11 C 24.49 11 25.711 12.079 25.949 13.5 C 25.977 13.336 26 13.172 26 13 C 26 11.338 24.662 10 23 10 L 9 10 z M 45 10 C 43.338 10 42 11.338 42 13 C 42 13.165 42.027 13.321 42.053 13.479 C 42.299 12.068 43.517 11 45 11 L 59 11 C 60.498 11 61.724 12.09 61.953 13.521 C 61.983 13.352 62 13.178 62 13 C 62 11.338 60.662 10 59 10 L 45 10 z M 42.533 15.682 L 22 35.748 L 22 36.748 L 43 16.225 C 42.822 16.064 42.67 15.879 42.533 15.682 z"/>
</svg>
