<svg xmlns="http://www.w3.org/2000/svg" width="64" height="64" version="1.1">
 <circle style="opacity:0.2" cx="32" cy="33" r="28"/>
 <circle style="fill:#1a73e8" cx="32" cy="32" r="28"/>
 <path style="opacity:0.2" d="m 15.773438,21 a 1.7715796,1.5633251 0 0 0 -1.535157,2.34375 L 18,29.09375 V 39.351562 C 18,42.480034 20.54913,45 23.714844,45 H 42.285156 C 45.45087,45 48,42.480034 48,39.351562 V 26.648438 C 48,23.519966 45.45087,21 42.285156,21 h -10.453124 -8.03125 -0.08594 z"/>
 <rect style="fill:#8b9cbe" width="30" height="24" x="18" y="20" rx="5.714" ry="5.647"/>
 <path style="fill:#8b9cbe" d="m 15.773333,20.000002 a 1.7715796,1.5633251 0 0 0 -1.536139,2.344754 l 4.016796,6.13666 4.013334,6.136656 a 1.7715796,1.5633251 0 0 0 3.068814,0 l 4.013334,-6.136656 4.013334,-6.13666 a 1.7715796,1.5633251 0 0 0 -1.532678,-2.344754 h -8.030126 z"/>
 <rect style="fill:#8ab4f8" width="22" height="3" x="22" y="24" rx="1.5" ry="1.5"/>
 <rect style="fill:#8ab4f8" width="16" height="3" x="22.2" y="36" rx="1.5" ry="1.5"/>
 <rect style="fill:#8ab4f8" width="22" height="3" x="22" y="30" rx="1.5" ry="1.5"/>
 <path style="opacity:0.2;fill:#8b9cbe" d="M 32 4 A 28 28 0 0 0 4 32 A 28 28 0 0 0 4.0175781 32.492188 A 28 28 0 0 1 32 5 A 28 28 0 0 1 59.974609 32.492188 A 28 28 0 0 0 60 32 A 28 28 0 0 0 32 4 z"/>
</svg>
