<svg xmlns="http://www.w3.org/2000/svg" width="64" height="64" version="1.1">
 <circle style="opacity:0.2" cx="32" cy="33" r="28"/>
 <circle style="fill:#b2bfd9" cx="32" cy="32" r="28"/>
 <path style="opacity:0.1" d="m 25.915796,52.71057 c -0.7823,-0.996548 -1.452756,-3.043374 -1.758854,-5.369544 -0.16836,-1.27955 -0.207644,-3.789922 -0.0867,-4.851354 0.11588,-1.898546 1.284888,-3.129228 2.284402,-4.681742 0.03096,-0.0013 0.18238,0.13088 0.33651,0.2937 0.15416,0.16286 0.394544,0.36998 0.534202,0.460312 0.785392,0.507988 2.550084,0.518164 3.376872,0.02426 0.447112,-0.26709 1.041482,-1.212146 1.251544,-1.989946 0.1517,-0.56172 0.13936,-1.093982 -0.02524,-1.682458 -0.352068,-1.258804 -1.34239,-2.599502 -2.329504,-3.272846 -0.606284,-0.413564 -1.683236,-0.574088 -2.866402,-0.729498 -0.32865,-0.0432 -0.339032,-0.04986 -0.407836,-0.264238 -0.15976,-0.497716 -0.205472,-1.539114 -0.13594,-3.096352 0.04206,-0.9421 0.06816,-3.89335 0.07024,-7.947175 0.0019,-3.546707 0.02226,-6.497682 0.0453,-6.557725 0.0352,-0.09147 0.07034,-0.05799 0.216754,0.206471 0.260952,0.471318 0.4349,0.919112 0.897392,2.31016 0.230604,0.693576 0.516044,1.472078 0.634322,1.730001 0.298842,0.651696 0.833482,1.430634 2.055556,2.994857 1.584206,2.027731 2.493576,3.481015 2.064458,3.299247 -0.833794,-0.353182 -1.806184,-0.202536 -2.252108,0.348928 -0.583478,0.721562 -0.757182,1.561784 -0.519082,2.510792 0.221886,0.88435 0.76048,1.727176 1.6764,2.62332 0.53878,0.527134 2.39503,1.425772 2.567516,1.42514 0.12354,-4.16e-4 0.705764,-0.507718 0.873764,-0.761258 0.461962,-0.697182 0.468126,-1.476833 0.0192,-3.105607 -0.0908,-0.32958 -0.15054,-0.62325 -0.13268,-0.6526 0.07062,-0.11644 0.308258,-0.03812 0.8986,0.296168 0.832864,0.471632 1.240226,0.776382 1.656196,1.239002 0.76038,0.845666 1.182216,1.947191 1.182216,3.627343 0,0.308206 -0.02074,0.560372 -0.04614,0.560372 -0.02536,0 -0.16034,-0.1115 -0.299896,-0.247812 -0.272478,-0.26614 -0.669346,-0.423086 -0.912532,-0.360866 -0.16646,0.04262 -0.46254,0.287636 -0.550878,0.455888 -0.361312,0.688186 0.595892,1.875249 1.429076,2.308539 0.521592,0.271248 1.22104,0.19434 2.019878,-0.222098 2.134236,-1.112592 2.293656,-3.281343 2.171132,-5.745593 -0.0186,-0.381442 -0.12574,-1.233898 -0.237284,-1.89435 -0.290678,-1.721124 -0.29669,-1.762738 -0.266168,-1.843822 0.0902,-0.23961 0.305534,0.04138 0.949748,1.23951 1.035536,1.925876 1.622488,3.877552 1.69099,5.622756 0.0519,1.322322 -0.11648,2.327508 -0.69573,4.152768 -0.200604,0.63216 -0.401064,1.207418 -0.445456,1.278348 -0.05658,0.0905 -0.13534,0.12896 -0.263706,0.12896 -0.232578,0 -0.393798,0.11538 -0.509978,0.364936 -0.1412,0.30339 -0.122,0.43738 0.06294,0.438432 0.284632,0.0013 0.320134,0.06502 0.215768,0.385334 -0.05112,0.15674 -0.16742,0.404824 -0.258516,0.55126 -0.15644,0.251466 -0.17952,0.266258 -0.415328,0.266258 -0.368232,0 -0.414916,0.0346 -0.62727,0.46439 -0.279738,0.566242 -0.254602,0.682018 0.14806,0.682018 0.206584,0 0.20639,0.0672 -0.0013,0.33295 -0.09082,0.11638 -0.322538,0.521126 -0.514976,0.899444 -0.41593,0.817692 -0.697716,1.236598 -1.349466,2.006142 -1.101474,1.300558 -2.599282,2.602722 -4.465888,3.88259 -0.432636,0.296644 -0.99264,0.685602 -1.244466,0.86436 -0.89287,0.633816 -1.71763,0.91526 -1.196638,0.408356 0.408934,-0.397884 1.154956,-1.91437 1.415504,-2.889466 0.209456,-1.014812 0.15732,-1.3903 -0.158,-2.053622 -0.636578,-1.2288 -1.453496,-1.273616 -2.354264,-1.01582 -2.20819,0.631976 -4.067246,3.399878 -4.671632,6.37088 -0.20306,0.998192 -0.309042,1.98301 -0.353424,3.284152 -0.02374,0.695786 -0.06274,1.176924 -0.09616,1.186474 -0.03096,0.0086 -0.164,-0.12118 -0.295724,-0.289024 z"/>
 <path style="fill:#167de5" d="m 25.915796,51.71057 c -0.7823,-0.996548 -1.452756,-3.043374 -1.758854,-5.369544 -0.16836,-1.27955 -0.207644,-3.789922 -0.0867,-4.851354 0.11588,-1.898546 1.284888,-3.129228 2.284402,-4.681742 0.03096,-0.0013 0.18238,0.13088 0.33651,0.2937 0.15416,0.16286 0.394544,0.36998 0.534202,0.460312 0.785392,0.507988 2.550084,0.518164 3.376872,0.02426 0.447112,-0.26709 1.041482,-1.212146 1.251544,-1.989946 0.1517,-0.56172 0.13936,-1.093982 -0.02524,-1.682458 -0.352068,-1.258804 -1.34239,-2.599502 -2.329504,-3.272846 -0.606284,-0.413564 -1.683236,-0.574088 -2.866402,-0.729498 -0.32865,-0.0432 -0.339032,-0.04986 -0.407836,-0.264238 -0.15976,-0.497716 -0.205472,-1.539114 -0.13594,-3.096352 0.04206,-0.9421 0.06816,-3.89335 0.07024,-7.947175 0.0019,-3.546707 0.02226,-6.497682 0.0453,-6.557725 0.0352,-0.09147 0.07034,-0.05799 0.216754,0.206471 0.260952,0.471318 0.4349,0.919112 0.897392,2.31016 0.230604,0.693576 0.516044,1.472078 0.634322,1.730001 0.298842,0.651696 0.833482,1.430634 2.055556,2.994857 1.584206,2.027731 2.493576,3.481015 2.064458,3.299247 -0.833794,-0.353182 -1.806184,-0.202536 -2.252108,0.348928 -0.583478,0.721562 -0.757182,1.561784 -0.519082,2.510792 0.221886,0.88435 0.76048,1.727176 1.6764,2.62332 0.53878,0.527134 2.39503,1.425772 2.567516,1.42514 0.12354,-4.16e-4 0.705764,-0.507718 0.873764,-0.761258 0.461962,-0.697182 0.468126,-1.476833 0.0192,-3.105607 -0.0908,-0.32958 -0.15054,-0.62325 -0.13268,-0.6526 0.07062,-0.11644 0.308258,-0.03812 0.8986,0.296168 0.832864,0.471632 1.240226,0.776382 1.656196,1.239002 0.76038,0.845666 1.182216,1.947191 1.182216,3.627343 0,0.308206 -0.02074,0.560372 -0.04614,0.560372 -0.02536,0 -0.16034,-0.1115 -0.299896,-0.247812 -0.272478,-0.26614 -0.669346,-0.423086 -0.912532,-0.360866 -0.16646,0.04262 -0.46254,0.287636 -0.550878,0.455888 -0.361312,0.688186 0.595892,1.875249 1.429076,2.308539 0.521592,0.271248 1.22104,0.19434 2.019878,-0.222098 2.134236,-1.112592 2.293656,-3.281343 2.171132,-5.745593 -0.0186,-0.381442 -0.12574,-1.233898 -0.237284,-1.89435 -0.290678,-1.721124 -0.29669,-1.762738 -0.266168,-1.843822 0.0902,-0.23961 0.305534,0.04138 0.949748,1.23951 1.035536,1.925876 1.622488,3.877552 1.69099,5.622756 0.0519,1.322322 -0.11648,2.327508 -0.69573,4.152768 -0.200604,0.63216 -0.401064,1.207418 -0.445456,1.278348 -0.05658,0.0905 -0.13534,0.12896 -0.263706,0.12896 -0.232578,0 -0.393798,0.11538 -0.509978,0.364936 -0.1412,0.30339 -0.122,0.43738 0.06294,0.438432 0.284632,0.0013 0.320134,0.06502 0.215768,0.385334 -0.05112,0.15674 -0.16742,0.404824 -0.258516,0.55126 -0.15644,0.251466 -0.17952,0.266258 -0.415328,0.266258 -0.368232,0 -0.414916,0.0346 -0.62727,0.46439 -0.279738,0.566242 -0.254602,0.682018 0.14806,0.682018 0.206584,0 0.20639,0.0672 -0.0013,0.33295 -0.09082,0.11638 -0.322538,0.521126 -0.514976,0.899444 -0.41593,0.817692 -0.697716,1.236598 -1.349466,2.006142 -1.101474,1.300558 -2.599282,2.602722 -4.465888,3.88259 -0.432636,0.296644 -0.99264,0.685602 -1.244466,0.86436 -0.89287,0.633816 -1.71763,0.91526 -1.196638,0.408356 0.408934,-0.397884 1.154956,-1.91437 1.415504,-2.889466 0.209456,-1.014812 0.15732,-1.3903 -0.158,-2.053622 -0.636578,-1.2288 -1.453496,-1.273616 -2.354264,-1.01582 -2.20819,0.631976 -4.067246,3.399878 -4.671632,6.37088 -0.20306,0.998192 -0.309042,1.98301 -0.353424,3.284152 -0.02374,0.695786 -0.06274,1.176924 -0.09616,1.186474 -0.03096,0.0086 -0.164,-0.12118 -0.295724,-0.289024 z"/>
 <path style="opacity:0.2;fill:#8b9cbe" d="M 32 4 A 28 28 0 0 0 4 32 A 28 28 0 0 0 4.0175781 32.492188 A 28 28 0 0 1 32 5 A 28 28 0 0 1 59.974609 32.492188 A 28 28 0 0 0 60 32 A 28 28 0 0 0 32 4 z"/>
</svg>
