<svg xmlns="http://www.w3.org/2000/svg" width="64" height="64" version="1">
 <path style="fill:#4f4f4f" d="M 8.1056275,11.263231 19.98949,7.0000795 h 26.278316 l 4.469336,7.1052525 4.263151,11.139985 v 15.766989 l -2.8421,12.882439 -4.172191,4.263151 H 9.5792346 L 6.6845771,55.315795 3.8424761,52.433266 V 15.239343 Z"/>
 <path style="opacity:0.2" d="m 45.273438,4.0066138 c -0.8854,0.066679 -1.774305,0.6709439 -2.066407,1.4550781 -0.12904,0.3447439 -0.130859,0.4072399 -0.130859,4.1328125 0,2.9333576 -0.01755,4.2281666 -0.07617,4.3046876 -0.06833,0.08923 -0.138338,0.101263 -4.484375,0.126953 -2.664321,0.01567 -4.583037,0.05733 -5.001953,0.09375 -3.313259,0.287594 -5.460452,0.654434 -7.583984,1.189453 -4.630975,1.166775 -8.490449,3.377085 -10.828126,6.199218 -2.315339,2.79517 -3.498542,5.660253 -3.992187,10.175782 -0.1081,0.989236 -0.14881,4.285553 -0.0625,5.082031 0.166901,1.539996 0.550448,3.205006 1.179687,5.125 0.726682,2.217287 1.665723,4.219683 3.40625,7.259766 1.026173,1.792348 1.610105,2.60912 1.980469,2.771484 0.238158,0.1039 0.710499,0.105453 0.957031,0.002 0.282001,-0.118326 0.571637,-0.433637 0.654297,-0.710937 0.05894,-0.197728 0.0423,-0.494583 -0.08984,-1.712891 -0.293669,-2.712195 -0.380194,-4.728893 -0.283204,-6.607422 0.356433,-6.907613 2.562664,-10.819751 7.365235,-12.898437 2.329226,-1.008154 4.771818,-1.586939 8.566406,-1.878907 1.274941,-0.09812 8.102706,-0.149487 8.191406,-0.06055 0.05314,0.05337 0.0792,1.563962 0.101563,4.455078 l 0.03125,3.90039 0.15625,0.333985 c 0.419606,0.888712 1.567515,1.470902 2.541016,1.289062 0.20245,-0.03784 0.49555,-0.128452 0.65039,-0.201172 0.219546,-0.103092 2.883592,-1.979709 8.695313,-7.8125 7.150618,-7.176556 7.45955,-7.496275 7.65039,-7.904297 C 62.979601,21.733731 63,21.63478 63,21.143332 63,20.651868 62.979573,20.554871 62.800781,20.172629 62.610011,19.764777 62.298285,19.440994 55.179688,12.29177 48.324774,5.4073668 46.767433,4.4005223 46.412109,4.2331763 46.189713,4.1285165 45.868165,4.0359091 45.650391,4.0124732 45.525776,3.9990695 45.399923,3.9970882 45.273438,4.0066138 Z m -29.34961,4.0371094 c -4.422325,-1e-7 -5.440865,0.018172 -5.800781,0.082031 -2.3677934,0.419719 -4.2164414,1.3700144 -5.8691408,3.0156246 -1.9111874,1.90298 -2.9309561,4.025001 -3.1855468,6.628906 -0.0891908,0.915543 -0.0914311,33.467974 -0.00195,34.416016 0.1366913,1.449254 0.4443266,2.536869 1.0703126,3.792969 0.5479737,1.099568 1.0702785,1.806798 2.0800781,2.816406 1.0098136,1.009609 1.7166314,1.532214 2.8164062,2.080078 1.2256687,0.610572 2.3594174,0.939579 3.6718749,1.064453 v -0.002 c 0.823803,0.07854 33.650346,0.08396 34.478516,0.0059 1.697821,-0.160062 3.187951,-0.63949 4.498047,-1.449218 2.235313,-1.38157 3.964742,-3.512606 4.740234,-5.839844 0.54197,-1.626551 0.599259,-2.010931 0.574219,-8.349609 -0.01708,-4.350468 -0.02809,-4.727484 -0.126953,-4.908204 -1.477688,-0.957372 -2.550786,-0.09304 -4.285157,0.791016 -0.650766,0.35559 -0.960235,0.589951 -1.109375,0.84375 -0.12252,0.208544 -0.124343,-0.391112 -0.158203,4.246094 -0.03418,4.683042 -0.03769,4.265596 -0.173828,4.74414 -0.699508,2.290141 -3.313184,4.524177 -6.152344,4.248047 -5.366087,0.03272 -9.700802,0.181641 -15.207031,0.181641 -12.131675,0.01368 -15.793987,2.59e-4 -16.123047,-0.05078 C 10.899214,56.282941 9.9958637,55.921474 9.3222656,55.465598 8.9199877,55.19334 8.0639785,54.348426 7.7617188,53.924582 7.2749707,53.242045 6.8967583,52.348096 6.7539062,51.54177 c -0.043958,-0.247982 -0.063425,-4.866304 -0.0625,-16.089844 0.00128,-16.022398 0.00377,-16.450748 0.1191407,-16.972656 0.5324115,-2.407322 2.6583286,-4.330846 5.1132811,-4.628907 0.310567,-0.03769 0.431932,-0.06629 1.767578,-0.06641 l 2.369141,-0.002 0.570312,-0.308594 c 1.530232,-0.830279 2.87083,-1.96059 4.480469,-2.986327 1.35984,-0.9341555 1.557159,-2.4419798 -1.11914,-2.4433598 z"/>
 <path style="fill:#ef3e51" d="M 10.705145,60.938736 C 9.3926874,60.813862 8.2580734,60.485182 7.0324047,59.87461 5.9326299,59.326746 5.2258156,58.804924 4.216002,57.795315 3.2062024,56.785707 2.6842609,56.079049 2.1362871,54.979481 1.5103012,53.723381 1.2032902,52.63434 1.0665989,51.185086 0.97712096,50.237044 0.97882908,17.685487 1.0680199,16.769944 1.3226106,14.166039 2.3426524,12.043337 4.2538398,10.140357 5.9065391,8.4947464 7.7554767,7.5449422 10.12327,7.1252232 c 0.359916,-0.063859 1.377751,-0.081352 5.800076,-0.081352 h 4.069225 c 2.676299,0.00138 2.479221,1.5081263 1.119381,2.4422813 -1.609639,1.025738 -2.951488,2.157065 -4.48172,2.987344 l -0.568972,0.308727 -2.369213,1.85e-4 c -1.335646,1.14e-4 -1.457462,0.0293 -1.768029,0.06699 -2.4549526,0.298061 -4.5801746,2.222658 -5.1125861,4.62998 -0.11537,0.521908 -0.118498,0.949207 -0.119776,16.971605 -9.246e-4,11.22354 0.01906,15.841423 0.063018,16.089405 0.142852,0.806326 0.5208463,1.700194 1.0075944,2.382731 0.3022598,0.423844 1.1579138,1.269242 1.5601917,1.5415 0.6735981,0.455876 1.575941,0.816982 2.336883,0.935186 0.32906,0.05104 3.991948,0.06472 16.123623,0.05104 5.506229,0 9.840208,-0.14844 15.206295,-0.18116 2.83916,0.27613 5.454243,-1.958644 6.153751,-4.248785 0.13614,-0.478544 0.13826,-0.06027 0.17244,-4.743312 0.03386,-4.637206 0.0374,-4.037803 0.15992,-4.246347 0.14914,-0.253799 0.457842,-0.488982 1.108608,-0.844572 1.734371,-0.884051 2.808145,-1.747628 4.285833,-0.790256 0.09886,0.18072 0.10852,0.557662 0.1256,4.908129 0.02504,6.338679 -0.03144,6.723402 -0.57341,8.349953 -0.775492,2.327238 -2.504738,4.457349 -4.740051,5.838919 -1.310096,0.809728 -2.801266,1.290502 -4.499087,1.450564 -0.82817,0.0781 -33.654357,0.07294 -34.47816,-0.0056 z"/>
 <path style="fill:#ef3e51" d="m 17.612747,50.921056 c -0.370364,-0.162364 -0.953609,-0.978704 -1.979781,-2.771052 -1.740528,-3.040083 -2.680278,-5.042599 -3.406959,-7.259886 -0.62924,-1.919994 -1.012031,-3.583569 -1.178932,-5.123565 -0.08631,-0.796478 -0.04597,-4.093569 0.06213,-5.082805 0.493645,-4.515529 1.676271,-7.380899 3.99161,-10.176068 2.337677,-2.822134 6.198121,-5.031867 10.829096,-6.198642 2.123532,-0.535019 4.269538,-0.902196 7.582797,-1.18979 0.418916,-0.03642 2.33873,-0.07835 5.003051,-0.09402 4.346037,-0.02569 4.416471,-0.03798 4.484805,-0.127214 0.05862,-0.07652 0.07562,-1.371454 0.07562,-4.3048121 0,-3.7255726 0.0014,-3.788442 0.13044,-4.1331859 0.33383,-0.8961534 1.446524,-1.5558091 2.443444,-1.4485797 0.217774,0.023436 0.539051,0.1170419 0.761447,0.2217017 0.355324,0.167346 1.91369,1.1740618 8.768603,8.058465 7.118598,7.149224 7.430484,7.47169 7.621254,7.879542 0.178792,0.382242 0.198916,0.480577 0.198916,0.972041 0,0.491448 -0.02008,0.589783 -0.1989,0.97204 -0.19084,0.408022 -0.50087,0.728314 -7.651488,7.90487 -5.811721,5.832791 -8.476105,7.709587 -8.695651,7.812679 -0.15484,0.07272 -0.447198,0.16314 -0.649649,0.200976 -0.9735,0.18184 -2.120762,-0.400302 -2.540368,-1.289014 l -0.15776,-0.334142 -0.03022,-3.900331 c -0.02236,-2.891116 -0.04878,-4.401861 -0.10192,-4.455229 -0.0887,-0.08894 -6.916327,-0.03712 -8.191268,0.061 -3.794588,0.291968 -6.237639,0.870259 -8.566865,1.878413 -4.802571,2.078686 -7.008434,5.990489 -7.364867,12.898102 -0.09699,1.878529 -0.0098,3.895235 0.283869,6.60743 0.13214,1.218308 0.1475,1.515332 0.08856,1.71306 -0.08266,0.2773 -0.372401,0.591562 -0.654401,0.709888 -0.246533,0.1035 -0.718305,0.1025 -0.956463,-0.0014 z"/>
 <path style="fill:#8b9cbe;opacity:0.2" d="M 45.273438 3.0058594 C 44.388038 3.0725384 43.499133 3.6768033 43.207031 4.4609375 C 43.077991 4.8056814 43.076172 4.8681774 43.076172 8.59375 C 43.076172 11.527108 43.05862 12.821917 43 12.898438 C 42.931666 12.987671 42.861662 12.999701 38.515625 13.025391 C 35.851304 13.041061 33.932588 13.082721 33.513672 13.119141 C 30.200413 13.406735 28.05322 13.773575 25.929688 14.308594 C 21.298713 15.475369 17.439239 17.685679 15.101562 20.507812 C 12.786224 23.302982 11.60302 26.168065 11.109375 30.683594 C 11.037047 31.34548 10.999988 33.009174 11.005859 34.296875 C 11.018761 33.249581 11.055325 32.178212 11.109375 31.683594 C 11.60302 27.168065 12.786224 24.302982 15.101562 21.507812 C 17.439239 18.685679 21.298713 16.475369 25.929688 15.308594 C 28.053219 14.773575 30.200413 14.406735 33.513672 14.119141 C 33.932588 14.082721 35.851304 14.041061 38.515625 14.025391 C 42.861662 13.999701 42.93167 13.987668 43 13.898438 C 43.05862 13.821916 43.076172 12.527108 43.076172 9.59375 C 43.076172 5.8681774 43.077991 5.8056814 43.207031 5.4609375 C 43.499133 4.6768033 44.388038 4.0725384 45.273438 4.0058594 C 45.399923 3.9963338 45.525776 3.998315 45.650391 4.0117188 C 45.868165 4.0351546 46.189713 4.1277621 46.412109 4.2324219 C 46.767433 4.3997679 48.324773 5.4066124 55.179688 12.291016 C 62.298285 19.44024 62.610011 19.764023 62.800781 20.171875 C 62.894815 20.372911 62.94226 20.500461 62.96875 20.642578 C 62.992623 20.514018 63 20.375554 63 20.142578 C 63 19.651114 62.979573 19.554117 62.800781 19.171875 C 62.610011 18.764023 62.298285 18.44024 55.179688 11.291016 C 48.324773 4.406612 46.767433 3.3997679 46.412109 3.2324219 C 46.189713 3.1277621 45.868165 3.0351547 45.650391 3.0117188 C 45.525776 2.998315 45.399923 2.9963338 45.273438 3.0058594 z M 15.923828 7.0429688 C 11.501503 7.0429687 10.482963 7.061141 10.123047 7.125 C 7.7552535 7.544719 5.9066056 8.4950144 4.2539062 10.140625 C 2.3427188 12.043605 1.3229501 14.165626 1.0683594 16.769531 C 1.0227441 17.237772 0.99949099 25.935685 1 34.494141 C 1.0014034 26.296816 1.0246715 18.217987 1.0683594 17.769531 C 1.3229501 15.165626 2.3427188 13.043605 4.2539062 11.140625 C 5.9066057 9.4950148 7.7552535 8.544719 10.123047 8.125 C 10.482963 8.061141 11.501503 8.0429687 15.923828 8.0429688 L 19.992188 8.0429688 C 21.055135 8.0435168 21.65832 8.2834137 21.921875 8.6289062 C 22.34996 7.8370994 21.932118 7.0439691 19.992188 7.0429688 L 15.923828 7.0429688 z M 6.6914062 34.972656 C 6.6913836 35.232095 6.6914277 35.183075 6.6914062 35.451172 C 6.6904813 46.674712 6.7099483 51.293034 6.7539062 51.541016 C 6.8967583 52.347342 7.2749707 53.241291 7.7617188 53.923828 C 8.0639785 54.347672 8.9199877 55.192586 9.3222656 55.464844 C 9.9958637 55.92072 10.899211 56.282192 11.660156 56.400391 C 11.989216 56.45143 15.651528 56.464852 27.783203 56.451172 C 33.289432 56.451172 37.624147 56.302251 42.990234 56.269531 C 45.829394 56.545661 48.44307 54.311625 49.142578 52.021484 C 49.278716 51.54294 49.282226 51.960386 49.316406 47.277344 C 49.350266 42.640138 49.352089 43.239794 49.474609 43.03125 C 49.623749 42.777451 49.933218 42.54309 50.583984 42.1875 C 52.318355 41.303454 53.391453 40.439112 54.869141 41.396484 C 54.966634 41.574701 54.979398 42.011021 54.996094 46.193359 C 54.995272 45.858128 54.997577 45.680221 54.996094 45.304688 C 54.979014 40.95422 54.968001 40.577204 54.869141 40.396484 C 53.391453 39.439112 52.318355 40.303449 50.583984 41.1875 C 49.933218 41.54309 49.623749 41.777451 49.474609 42.03125 C 49.352089 42.239794 49.350266 41.640138 49.316406 46.277344 C 49.282226 50.960386 49.278718 50.54294 49.142578 51.021484 C 48.44307 53.311625 45.829394 55.545661 42.990234 55.269531 C 37.624147 55.302251 33.289432 55.451172 27.783203 55.451172 C 15.651528 55.464852 11.989216 55.451431 11.660156 55.400391 C 10.899214 55.282187 9.9958637 54.92072 9.3222656 54.464844 C 8.9199877 54.192586 8.0639785 53.347672 7.7617188 52.923828 C 7.2749707 52.241291 6.8967583 51.347342 6.7539062 50.541016 C 6.7108908 50.298351 6.691359 45.679355 6.6914062 34.972656 z M 18.826172 43.896484 C 18.79936 45.501987 18.89216 47.259406 19.134766 49.5 C 19.174986 49.870825 19.185133 50.030629 19.205078 50.253906 C 19.21008 50.240204 19.220571 50.226438 19.224609 50.212891 C 19.283549 50.015163 19.266906 49.718308 19.134766 48.5 C 18.941119 46.711564 18.846455 45.239891 18.826172 43.896484 z"/>
</svg>
