<svg xmlns="http://www.w3.org/2000/svg" width="64" height="64" version="1">
 <path style="opacity:0.2" d="M 32.09869,5.9433002 A 2.5266782,2.5611488 0 0 0 31.15868,6.0858504 L 9.684064,13.768529 a 2.5266782,2.5611488 0 0 0 -1.675238,2.628416 l 2.526426,30.73071 a 2.5266782,2.5611488 0 0 0 1.216336,1.983192 L 30.69978,60.634863 a 2.5266782,2.5611488 0 0 0 2.600442,0 l 18.94819,-11.524016 a 2.5266782,2.5611488 0 0 0 1.216338,-1.983192 l 2.526424,-30.73071 A 2.5266782,2.5611488 0 0 0 54.315936,13.768529 L 32.84132,6.0858498 A 2.5266782,2.5611488 0 0 0 32.09869,5.9433002 Z"/>
 <path style="fill:#f44336" d="M 32.09869,4.943299 A 2.5266782,2.5611488 0 0 0 31.15868,5.0858492 L 9.684064,12.768527 a 2.5266782,2.5611488 0 0 0 -1.675238,2.628417 l 2.526426,30.73071 a 2.5266782,2.5611488 0 0 0 1.216336,1.983192 L 30.69978,59.634862 a 2.5266782,2.5611488 0 0 0 2.600442,0 l 18.94819,-11.524016 a 2.5266782,2.5611488 0 0 0 1.216338,-1.983192 l 2.526424,-30.73071 A 2.5266782,2.5611488 0 0 0 54.315936,12.768527 L 32.84132,5.0858486 A 2.5266782,2.5611488 0 0 0 32.09869,4.943299 Z"/>
 <path style="fill:#d32f2f" d="m 54.524816,12.857537 a 2.5266782,2.5611488 0 0 1 0.15992,0.08272 2.5266782,2.5611488 0 0 0 -0.15992,-0.08272 z m 0.228862,0.121328 a 2.5266782,2.5611488 0 0 1 0.12408,0.07996 2.5266782,2.5611488 0 0 0 -0.12408,-0.07996 z m 0.223346,0.151654 a 2.5266782,2.5611488 0 0 1 0.09376,0.07446 2.5266782,2.5611488 0 0 0 -0.09376,-0.07446 z m 0.19026,0.15717 a 2.5266782,2.5611488 0 0 1 0.10754,0.107534 2.5266782,2.5611488 0 0 0 -0.10754,-0.107534 z m 0.1682,0.168198 a 2.5266782,2.5611488 0 0 1 0.11306,0.135106 2.5266782,2.5611488 0 0 0 -0.11306,-0.135106 z m 0.16544,0.204044 a 2.5266782,2.5611488 0 0 1 0.08548,0.1296 2.5266782,2.5611488 0 0 0 -0.08548,-0.1296 z m 0.12132,0.184744 L 32,23.294118 V 59.997244 A 2.5266782,2.5611488 0 0 0 33.30147,59.63603 L 52.247244,48.110294 a 2.5266782,2.5611488 0 0 0 1.218748,-1.982536 L 55.991728,15.397059 A 2.5266782,2.5611488 0 0 0 55.622244,13.84467 Z"/>
 <path style="fill:#f66156" d="m 32.099264,4.9439342 a 2.5266782,2.5611488 0 0 0 -0.940256,0.140624 L 9.6847426,12.769302 A 2.5266782,2.5611488 0 0 0 8.375,13.84467 L 32,23.294118 55.625,13.84467 A 2.5266782,2.5611488 0 0 0 54.315258,12.769302 L 32.840992,5.0845592 a 2.5266782,2.5611488 0 0 0 -0.741728,-0.140625 z"/>
 <path style="opacity:0.2;fill:#8b9cbe" d="M 32.099609 4.9433594 A 2.5266782 2.5611488 0 0 0 31.158203 5.0839844 L 9.6855469 12.769531 A 2.5266782 2.5611488 0 0 0 8.375 13.84375 L 9.046875 14.113281 A 2.5266782 2.5611488 0 0 1 9.6855469 13.769531 L 31.158203 6.0839844 A 2.5266782 2.5611488 0 0 1 32.099609 5.9433594 A 2.5266782 2.5611488 0 0 1 32.841797 6.0839844 L 54.314453 13.769531 A 2.5266782 2.5611488 0 0 1 54.955078 14.111328 L 55.625 13.84375 A 2.5266782 2.5611488 0 0 0 54.314453 12.769531 L 32.841797 5.0839844 A 2.5266782 2.5611488 0 0 0 32.099609 4.9433594 z"/>
 <ellipse id="ellipse854" style="fill:#d32f2f" cx="32" cy="13.143" rx="10" ry="2.857"/>
 <rect style="fill:#d32f2f" width="20" height="6" x="22" y="7"/>
 <ellipse style="fill:#f66156" cx="32" cy="7" rx="10" ry="3"/>
 <path style="opacity:0.1" d="M 54.955078 14.111328 L 32 23.294922 L 9.046875 14.113281 A 2.5266782 2.5611488 0 0 0 8.375 14.84375 L 32 24.294922 L 55.625 14.84375 A 2.5266782 2.5611488 0 0 0 54.955078 14.111328 z"/>
 <path id="ellipse919" style="opacity:0.1" d="M 41.853516 7.4882812 A 10 3 0 0 1 32 10 A 10 3 0 0 1 22.146484 7.5117188 A 10 3 0 0 0 22 8 A 10 3 0 0 0 32 11 A 10 3 0 0 0 42 8 A 10 3 0 0 0 41.853516 7.4882812 z"/>
 <path id="ellipse929" style="opacity:0.2;fill:#8b9cbe" d="M 32 4 A 10 3 0 0 0 22 7 A 10 3 0 0 0 22.146484 7.5117188 A 10 3 0 0 1 32 5 A 10 3 0 0 1 41.853516 7.4882812 A 10 3 0 0 0 42 7 A 10 3 0 0 0 32 4 z"/>
</svg>
