<svg width="64" height="64" version="1" xmlns="http://www.w3.org/2000/svg">
 <rect x="4" y="5" width="56" height="56" rx="14" ry="14" style="opacity:.2"/>
 <rect x="4" y="4" width="56" height="56" rx="14" ry="14" style="fill:#ea8ab2"/>
 <path d="m18 4c-7.756 0-14 6.244-14 14v1c0-7.756 6.244-14 14-14h28c7.756 0 14 6.244 14 14v-1c0-7.756-6.244-14-14-14h-28z" style="fill:#8b9cbe;opacity:.2"/>
 <path d="m37.599609 11c-12.6 0-29.599609 8-29.599609 22 0 7 9 11 9 11s-6-5.4-6-11c0-8.4 14.000391-15 22.400391-15 4.2 0 12.599609 1.103235 12.599609-3.199219 0-2.799999-5.269907-3.800782-8.400391-3.800781zm13.400391 12s2 3.000391 2 11.400391-15.42884 16.021482-23.800781 13.138671c-5.806169-1.999307-12.199219-2.341515-12.199219 1.960938 0 2.799999 4.962966 3.861838 8 4.621094 16.8 4.2 31-5.720703 31-19.720703 0-7-5-11.400391-5-11.400391zm-19 6a6 4 0 0 0-6 4 6 4 0 0 0 6 4 6 4 0 0 0 6-4 6 4 0 0 0-6-4z" style="opacity:.2"/>
 <path d="m37.599609 10c-12.6 0-29.599609 8-29.599609 22 0 7 9 11 9 11s-6-5.4-6-11c0-8.4 14.000391-15 22.400391-15 4.2 0 12.599609 1.103235 12.599609-3.199219 0-2.799999-5.269907-3.800782-8.400391-3.800781zm13.400391 12s2 3.000391 2 11.400391-15.42884 16.021482-23.800781 13.138671c-5.806169-1.999307-12.199219-2.341515-12.199219 1.960938 0 2.799999 4.962966 3.861838 8 4.621094 16.8 4.2 31-5.720703 31-19.720703 0-7-5-11.400391-5-11.400391zm-19 6a6 4 0 0 0-6 4 6 4 0 0 0 6 4 6 4 0 0 0 6-4 6 4 0 0 0-6-4z" style="fill:#8b9cbe"/>
</svg>
