<svg xmlns="http://www.w3.org/2000/svg" width="64" height="64" version="1.1">
 <path style="opacity:0.2" d="m 13,27.70526 h 5.999999 v 7.455379 l 10.401834,4.473226 v 7.455378 L 13,38.142789 Z"/>
 <path style="fill:none;stroke:#b8b8b8;stroke-width:4.47322702" d="M 48.260226,23.72311 37.822696,49.071395"/>
 <rect style="opacity:0.2" width="10" height="17.893" x="43" y="12.11" rx="5" ry="4.473"/>
 <rect style="fill:#e98300" width="14.911" height="16.402" x="12.9" y="24.48" transform="rotate(-36.715873)"/>
 <path style="fill:#e98300" d="m 13,26.70526 h 5.999999 v 7.455379 l 10.401834,4.473226 v 7.455378 L 13,37.142789 Z"/>
 <rect style="opacity:0.2" width="10" height="26.839" x="-30" y="7" rx="5" ry="4.473" transform="rotate(-90)"/>
 <rect style="fill:#e9a400" width="10" height="26.839" x="-29" y="7" rx="5" ry="4.473" transform="rotate(-90)"/>
 <path style="opacity:0.2;fill:#8b9cbe" d="M 11.472656 19 C 8.9944885 19 7 21.23 7 24 C 7 24.169146 7.0295556 24.329245 7.0449219 24.494141 C 7.2735163 21.967204 9.1496713 20 11.472656 20 L 29.367188 20 C 31.690173 20 33.566328 21.967204 33.794922 24.494141 C 33.810287 24.329245 33.839844 24.169146 33.839844 24 C 33.839844 21.23 31.845356 19 29.367188 19 L 11.472656 19 z"/>
 <rect style="fill:#e9a400" width="10" height="17.893" x="43" y="11.11" rx="5" ry="4.473"/>
 <rect style="fill:#e98300" width="9.387" height="18.773" x="48.47" y="15.11" rx="4.693" ry="4.693" transform="rotate(21.358618)"/>
 <circle style="opacity:0.3" cx="48" cy="24" r="3"/>
 <path style="opacity:0.2" d="m 48.92578,6.0000028 c -13.956177,0 -25.493367,10.6415592 -27.617187,23.9999992 h 14.28125 a 13.999999,13.999999 0 0 1 13.410155,-10 13.999999,13.999999 0 0 1 7.910156,2.449218 L 54.53906,6.6015652 C 52.693214,6.2124888 50.812158,6.0109442 48.92578,6.0000028 Z M 20.999999,36.000001 C 21.770805,50.774729 33.959155,62 48.92578,62 c 1.837308,-0.0014 3.671044,-0.18256 5.472656,-0.542968 l 2.367186,-15.820313 a 13.999999,13.999999 0 0 1 -7.765624,2.363282 13.999999,13.999999 0 0 1 -13.843749,-12 z"/>
 <path style="fill:#f5c700" d="m 48.92578,5.0000029 c -13.956177,0 -25.493367,10.6415591 -27.617187,23.9999991 h 14.28125 a 13.999999,13.999999 0 0 1 13.410155,-10 13.999999,13.999999 0 0 1 7.910156,2.449218 L 54.53906,5.6015653 C 52.693214,5.2124889 50.812158,5.0109443 48.92578,5.0000029 Z M 20.999999,35.000001 C 21.770805,49.774729 33.959155,61 48.92578,61 c 1.837308,-0.0014 3.671044,-0.18256 5.472656,-0.542968 l 2.367186,-15.820313 a 13.999999,13.999999 0 0 1 -7.765624,2.363282 13.999999,13.999999 0 0 1 -13.843749,-12 z"/>
 <path style="opacity:0.3" d="m 31.000001,17.000002 a 5.0000001,5.0000001 0 0 0 -5.000002,5 5.0000001,5.0000001 0 0 0 5.000002,5 5.0000001,5.0000001 0 0 0 4.999998,-5 5.0000001,5.0000001 0 0 0 -4.999998,-5 z m 0,1.428572 a 3.5714286,3.5714286 0 0 1 3.571428,3.571428 3.5714286,3.5714286 0 0 1 -3.571428,3.57143 3.5714286,3.5714286 0 0 1 -3.57143,-3.57143 3.5714286,3.5714286 0 0 1 3.57143,-3.571428 z"/>
 <circle style="opacity:0.3" cx="12" cy="24" r="3"/>
 <circle style="opacity:0.3" cx="38" cy="50" r="3"/>
 <path style="opacity:0.2;fill:#8b9cbe" d="M 48.925781 5 C 34.969604 5 23.432414 15.64156 21.308594 29 L 21.490234 29 C 24.017383 16.114985 35.320123 6 48.925781 6 C 50.812159 6.0109414 52.693216 6.2124861 54.539062 6.6015625 L 56.746094 21.347656 A 13.999999 13.999999 0 0 1 56.910156 21.449219 L 54.539062 5.6015625 C 52.693216 5.2124861 50.812159 5.0109414 48.925781 5 z M 21 35 C 21.017518 35.335776 21.046962 35.667981 21.076172 36 L 35.15625 36 A 13.999999 13.999999 0 0 0 49 48 A 13.999999 13.999999 0 0 0 56.601562 45.734375 L 56.765625 44.636719 A 13.999999 13.999999 0 0 1 49 47 A 13.999999 13.999999 0 0 1 35.15625 35 L 21 35 z"/>
</svg>
