<svg xmlns="http://www.w3.org/2000/svg" width="64" height="64" version="1.1">
 <circle style="opacity:0.2" cx="32" cy="33" r="28"/>
 <path style="fill:#42a5f5" d="m 60.005468,32.002734 c 0,9.131856 -4.371126,17.24278 -11.1352,22.354594 C 44.178874,57.902754 39.723694,50.93446 33.390066,50.93446 18.842161,50.93446 5.5348588,48.457132 4.1336388,34.68249 4.0452598,33.813684 4,32.920312 4,32.002734 4,16.537251 16.537251,4 32.002734,4 47.468218,4 60.005468,16.537251 60.005468,32.002734 Z"/>
 <path style="opacity:0.2;fill:#8b9cbe" d="M 32 4 A 28 28 0 0 0 4 32 A 28 28 0 0 0 4.0175781 32.492188 A 28 28 0 0 1 32 5 A 28 28 0 0 1 59.974609 32.492188 A 28 28 0 0 0 60 32 A 28 28 0 0 0 32 4 z"/>
 <path style="opacity:0.1;fill-rule:evenodd" d="m 30.532038,13.03118 c -0.904074,0.0099 -1.848038,0.07832 -2.840696,0.223972 -7.177962,1.053153 -11.776657,4.988479 -17.668563,12.099182 -2.3938626,2.889054 -4.5094718,6.371214 -6.0227786,9.044258 0.052554,0.986922 0.156512,1.970346 0.3114376,2.946172 4.1347206,-5.721896 15.64599,-14.041408 18.237616,-10.311646 2.967232,4.27032 -5.580442,9.764756 -4.433039,11.378048 1.229453,1.728658 6.614155,-0.714454 11.611495,-1.073348 5.579128,-0.400674 8.543224,1.325646 12.269962,4.190182 -0.938566,-1.77099 -1.55411,-3.064528 -1.911158,-4.334506 -0.742158,-2.639822 1.238698,-5.65442 1.979518,-7.099104 1.177016,-2.295286 2.168254,-5.493064 3.918032,-7.219262 3.06246,-3.021198 8.408882,-4.584842 13.13266,-6.152344 1.478326,-0.490556 2.788752,-0.386668 4.330594,-0.724443 -1.430946,-0.798714 -3.217026,-1.094573 -4.675896,-1.116182 -7.77687,-0.11519 -12.516284,1.063263 -15.654748,0.721405 -3.980562,-0.433585 -7.702438,-2.626193 -12.584436,-2.572384 z"/>
 <path style="fill:#b2bfd9;fill-rule:evenodd" d="M 21.304814,23.673014 C 16.719137,23.28391 8.1692616,29.58964 4.2761988,35.678094 A 28.002734,28.002734 0 0 0 31.871472,60 c 0.70347,-0.004 1.40872,-0.02234 2.111142,-0.06562 a 28.002734,28.002734 0 0 0 0.0164,-0.0028 28.002734,28.002734 0 0 0 15.166324,-5.819318 C 48.552388,50.107376 46.473322,45.67668 41.997852,40.529348 36.36063,33.943112 27.698218,24.739592 21.304814,23.673014 Z"/>
 <path style="fill:#424242;fill-rule:evenodd" d="m 30.532038,12.032014 c -0.904074,0.0099 -1.848038,0.07832 -2.840696,0.223972 -7.177962,1.053153 -11.776657,4.988479 -17.668563,12.099182 -2.3938626,2.889054 -4.5094718,6.371214 -6.0227786,9.044258 0.052554,0.986922 0.156512,1.970346 0.3114376,2.946172 4.1347206,-5.721896 15.64599,-14.041408 18.237616,-10.311646 2.967232,4.27032 -5.580442,9.764756 -4.433039,11.378048 1.229453,1.728658 6.614155,-0.714454 11.611495,-1.073348 5.579128,-0.400674 8.543224,1.325646 12.269962,4.190182 -0.938566,-1.77099 -1.55411,-3.064528 -1.911158,-4.334506 -0.742158,-2.639822 1.238698,-5.65442 1.979518,-7.099104 1.177016,-2.295286 2.168254,-5.493064 3.918032,-7.219262 3.06246,-3.021199 8.408882,-4.584842 13.13266,-6.152344 1.478326,-0.490556 2.788752,-0.386668 4.330594,-0.724443 -1.430946,-0.798714 -3.217026,-1.094573 -4.675896,-1.116182 -7.77687,-0.11519 -12.516284,1.063263 -15.654748,0.721405 -3.980562,-0.433585 -7.702438,-2.626193 -12.584436,-2.572384 z"/>
 <ellipse style="opacity:0.4;fill:#8b9cbe" cx="35.1" cy="12.258" rx="2.001" ry="1.999" transform="matrix(0.98003409,0.19882953,-0.19571032,0.98066175,0,0)"/>
 <path style="fill:#424242;fill-rule:evenodd" d="m 11.351562,40.0625 c -1.188858,-0.02112 -3.806581,1.11511 -5.5117182,1.890624 a 28,28 0 0 0 2.71875,5.343752 C 9.6719036,43.726746 12.472359,41.232188 11.890625,40.273438 11.80511,40.132504 11.616998,40.067212 11.351562,40.0625 Z"/>
 <path style="opacity:0.1;fill-rule:evenodd" d="m 47.105598,18.093255 c 3.346804,-0.93265 9.120878,-3.210029 13.331386,-3.741379 -0.7753,-0.144688 -2.17842,0.09359 -2.95382,0.176194 -4.157948,0.823217 -8.216468,2.481157 -10.377566,3.565189 z"/>
 <path style="fill:#ffc107;fill-rule:evenodd" d="m 39.05837,21.123332 c 1.648666,-0.855 2.445344,-1.565909 6.29594,-2.52793 3.73794,-0.933875 8.38789,-3.191197 12.128854,-4.067336 -6.40035,0.771221 -14.12264,2.385749 -18.424794,6.595266 z"/>
 <path style="opacity:0.1" d="m 30.066406,19.494423 a 2.0034474,1.9965469 45.000294 0 0 -0.02734,0.107421 2.0034474,1.9965469 45.000294 0 0 1.570313,2.359376 2.0034474,1.9965469 45.000294 0 0 2.351563,-1.5625 2.0034474,1.9965469 45.000294 0 0 -0.02734,-0.888672 2.0034474,1.9965469 45.000294 0 1 -2.324219,1.451172 2.0034474,1.9965469 45.000294 0 1 -1.542969,-1.466797 z"/>
</svg>
