<svg xmlns="http://www.w3.org/2000/svg" width="64" height="64" version="1.1">
 <path style="fill:#840010" d="M 8.2,4 H 55.8 C 58.1268,4 60,5.8732 60,8.2 v 37.797352 l -1.192052,9.272846 c -0.296678,2.307808 -1.60831,3.530852 -3.9351,3.53775 l -44.686093,0.13245 C 8.2968016,58.945998 4.719345,58.764132 4.1886806,57.053156 4.0660248,56.657688 4,56.236838 4,55.8 V 8.2 C 4,5.8732 5.8732,4 8.2,4 Z"/>
 <path style="opacity:0.2" d="m 40.698048,21.975 c -0.09844,0.011 -0.0665,0.15796 0.14492,0.4375 0.255836,0.33826 0.236922,1.010706 -0.03554,1.24961 -0.901222,0.790188 -2.53726,0.95828 -9.816406,1.441014 -4.15184,0.27534 -6.260946,0.693608 -7.661912,1.635158 -0.679786,0.456868 -1.183984,1.126454 -1.183984,1.569532 0,0.727962 1.151934,1.444742 4.59375,2.860154 4.369218,1.7968 6.512754,2.847748 7.839646,4.126172 0.889966,0.857454 1.258136,1.444166 1.503906,2.403516 0.395836,1.545124 -0.23074,3.167382 -1.867578,4.83711 -2.952852,3.012218 -8.30221,5.841768 -20.360157,10.770702 -3.8835718,1.587484 -6.0242038,2.40825 -8.5339838,3.273048 -0.2021886,0.06966 -0.8023628,0.323862 -1.290625,0.525 C 4.187525,59.284682 5.9773338,61 8.2,61 H 55.8 C 58.1268,61 60,59.1268 60,56.8 V 46.442186 L 59.53789,45.307422 C 57.933294,40.343912 55.181954,37.04652 50.828906,34.873048 47.275552,33.098858 43.296602,31.89445 34.77539,30.019532 c -5.293708,-1.164774 -6.600394,-1.597876 -6.762108,-2.242188 -0.243656,-0.970816 1.91038,-1.443198 6.559766,-1.780078 4.822944,-0.349456 6.637428,-0.903634 7.175,-2.190234 0.23681,-0.566768 0.11922,-0.979636 -0.415626,-1.449218 C 41.02618,22.08894 40.79649,21.963932 40.698048,21.975 Z"/>
 <path style="fill:#8b9cbe" d="m 40.698048,20.975 c -0.09844,0.011 -0.0665,0.15796 0.14492,0.4375 0.255836,0.33826 0.236922,1.010706 -0.03554,1.24961 -0.901222,0.790188 -2.53726,0.95828 -9.816406,1.441014 -4.15184,0.27534 -6.260946,0.693608 -7.661912,1.635158 -0.679786,0.456868 -1.183984,1.126454 -1.183984,1.569532 0,0.727962 1.151934,1.444742 4.59375,2.860154 4.369218,1.7968 6.512754,2.847748 7.839646,4.126172 0.889966,0.857454 1.258136,1.444166 1.503906,2.403516 0.395836,1.545124 -0.23074,3.167382 -1.867578,4.83711 -2.952852,3.012218 -8.30221,5.841768 -20.360157,10.770702 -3.8835718,1.587484 -6.0242038,2.40825 -8.5339838,3.273048 -0.2021886,0.06966 -0.8023628,0.323862 -1.290625,0.525 C 4.187525,58.284682 5.9773338,60 8.2,60 H 55.8 C 58.1268,60 60,58.1268 60,55.8 V 45.442186 L 59.53789,44.307422 C 57.933294,39.343912 55.181954,36.04652 50.828906,33.873048 47.275552,32.098858 43.296602,30.89445 34.77539,29.019532 c -5.293708,-1.164774 -6.600394,-1.597876 -6.762108,-2.242188 -0.243656,-0.970816 1.91038,-1.443198 6.559766,-1.780078 4.822944,-0.349456 6.637428,-0.903634 7.175,-2.190234 0.23681,-0.566768 0.11922,-0.979636 -0.415626,-1.449218 C 41.02618,21.08894 40.79649,20.963932 40.698048,20.975 Z"/>
 <path style="opacity:0.1;fill:#8b9cbe" d="M 8.1992188 4 C 5.8724187 4 4 5.8724187 4 8.1992188 L 4 9.1992188 C 4 6.8724188 5.8724187 5 8.1992188 5 L 55.800781 5 C 58.127581 5 60 6.8724188 60 9.1992188 L 60 8.1992188 C 60 5.8724187 58.127581 4 55.800781 4 L 8.1992188 4 z"/>
</svg>
