<svg xmlns="http://www.w3.org/2000/svg" width="64" height="64" version="1">
 <rect style="opacity:0.2" width="46" height="46" x="9" y="15" rx="14.375" ry="14.375"/>
 <path style="fill:#df3d6b" d="m 22,3.0507812 c 0,0 -7,7.0015628 -7,12.6015628 V 20 h 34 v -4.347656 c 0,-5.6 -7,-12.6015628 -7,-12.6015628 0,0 -7,7.0015628 -7,12.6015628 h -6 c 0,-5.6 -7,-12.6015628 -7,-12.6015628 z"/>
 <path style="opacity:0.3" d="m 22,8.6523438 c 0,0 -4.199219,4.1985942 -4.199219,7.5585942 h 8.398437 C 26.19922,12.850938 22,8.6523438 22,8.6523438 Z m 20,0 c 0,0 -4.199218,4.1985942 -4.199218,7.5585942 h 8.398436 C 46.19922,12.850938 42,8.6523438 42,8.6523438 Z"/>
 <path style="opacity:0.1;fill:#8b9cbe" d="M 22 3.0507812 C 22 3.0507812 15 10.052344 15 15.652344 L 15.074219 15.652344 C 15.802579 10.253511 22 4.0507812 22 4.0507812 C 22 4.0507813 28.197421 10.253511 28.925781 15.652344 L 29 15.652344 C 29 10.052344 22 3.0507813 22 3.0507812 z M 42 3.0507812 C 42 3.0507812 35 10.052344 35 15.652344 L 35.074219 15.652344 C 35.802579 10.253511 42 4.0507812 42 4.0507812 C 42 4.0507813 48.197421 10.253511 48.925781 15.652344 L 49 15.652344 C 49 10.052344 42 3.0507813 42 3.0507812 z"/>
 <rect style="fill:#f45884" width="46" height="46" x="9" y="14" rx="14.375" ry="14.375"/>
 <path style="opacity:0.1;isolation:isolate" d="M 25.625,21 C 19.751002,21 15,25.751004 15,31.625 v 12.75 C 15,50.248998 19.751002,55 25.625,55 h 12.75 C 44.248996,55 49,50.248998 49,44.375 V 31.625 C 49,25.751004 44.248996,21 38.375,21 Z m 0.238281,2 H 38.136719 C 43.059379,23 47,26.940623 47,31.863281 V 44.136719 C 47,49.059377 43.059379,53 38.136719,53 H 25.863281 C 20.940623,53 17,49.059377 17,44.136719 V 31.863281 C 17,26.940623 20.940623,23 25.863281,23 Z M 25,28 V 48 L 42,38 Z"/>
 <path style="isolation:isolate;fill:#464646" d="M 25.625 20 C 19.751002 20 15 24.751004 15 30.625 L 15 43.375 C 15 49.248998 19.751002 54 25.625 54 L 38.375 54 C 44.248996 54 49 49.248998 49 43.375 L 49 30.625 C 49 24.751004 44.248996 20 38.375 20 L 25.625 20 z M 25.863281 22 L 38.136719 22 C 43.059379 22 47 25.940623 47 30.863281 L 47 43.136719 C 47 48.059377 43.059379 52 38.136719 52 L 25.863281 52 C 20.940623 52 17 48.059377 17 43.136719 L 17 30.863281 C 17 25.940623 20.940623 22 25.863281 22 z M 25 27 L 25 47 L 42 37 L 25 27 z"/>
 <path style="opacity:0.2;fill:#8b9cbe" d="M 23.375 14 C 15.41125 14 9 20.41125 9 28.375 L 9 29.375 C 9 21.41125 15.41125 15 23.375 15 L 40.625 15 C 48.58875 15 55 21.41125 55 29.375 L 55 28.375 C 55 20.41125 48.58875 14 40.625 14 L 23.375 14 z"/>
</svg>
