<svg xmlns="http://www.w3.org/2000/svg" width="64" height="64" version="1">
 <rect style="opacity:0.2" width="58" height="58" x="3" y="4" rx="2.9" ry="2.9"/>
 <rect style="fill:#569a40" width="58" height="58" x="3" y="3" rx="2.9" ry="2.9"/>
 <path style="opacity:0.5;fill:#8b9cbe" d="m 6,6 v 42 h 4 V 10 H 54 V 54 H 16 v 4 H 58 V 6 Z m 0,46 v 6 h 6 v -6 z"/>
 <g style="font-size:34.2857132px;line-height:1.25;letter-spacing:0px;word-spacing:0px;opacity:0.2" transform="matrix(1.4927822,0,0,1.4166667,-52.305376,-25.811268)">
  <path transform="matrix(0.96761902,0,0,1,33.25248,17.513836)" d="M 21.945312,12 C 20.88232,12 19.713091,12.04529 18.4375,12.136719 17.185532,12.20529 16.039371,12.35346 15,12.582031 V 15 36 h 4.464844 1.073617 v -8.389817 h 1.158805 c 1.795275,0 3.389502,-0.14817 4.783203,-0.445313 1.3937,-0.297143 2.574464,-0.755904 3.542969,-1.373047 0.968503,-0.64 1.701202,-1.450736 2.197265,-2.433594 C 32.740388,22.352516 33,21.152905 33,19.75862 33,17.084334 32.044245,15.141908 30.130859,13.884766 28.241096,12.627623 25.512242,12 21.945312,12 Z m 0.31836,3.736328 c 0.850394,0 1.642716,0.06989 2.375,0.207031 0.755906,0.114286 1.403959,0.320045 1.947266,0.617188 0.543307,0.297143 0.968304,0.708661 1.27539,1.234375 0.307087,0.525715 0.460938,1.151399 0.460938,1.928542 0,1.622857 -0.578848,2.731886 -1.736328,3.326172 -1.157481,0.571428 -2.809379,0.857422 -4.958985,0.857422 h -1.088492 v -8.100417 c 0.642915,-0.04232 0.834464,-0.07031 1.725211,-0.07031 z"/>
 </g>
 <g style="font-size:34.2857132px;line-height:1.25;letter-spacing:0px;word-spacing:0px" transform="matrix(1.4927822,0,0,1.4166667,-52.305376,-26.811268)">
  <path style="fill:#8b9cbe" transform="matrix(0.96761902,0,0,1,33.25248,17.513836)" d="M 21.945312,12 C 20.88232,12 19.713091,12.04529 18.4375,12.136719 17.185532,12.20529 16.039371,12.35346 15,12.582031 V 15 36 h 4.464844 1.073617 v -8.389817 h 1.158805 c 1.795275,0 3.389502,-0.14817 4.783203,-0.445313 1.3937,-0.297143 2.574464,-0.755904 3.542969,-1.373047 0.968503,-0.64 1.701202,-1.450736 2.197265,-2.433594 C 32.740388,22.352516 33,21.152905 33,19.75862 33,17.084334 32.044245,15.141908 30.130859,13.884766 28.241096,12.627623 25.512242,12 21.945312,12 Z m 0.31836,3.736328 c 0.850394,0 1.642716,0.06989 2.375,0.207031 0.755906,0.114286 1.403959,0.320045 1.947266,0.617188 0.543307,0.297143 0.968304,0.708661 1.27539,1.234375 0.307087,0.525715 0.460938,1.151399 0.460938,1.928542 0,1.622857 -0.578848,2.731886 -1.736328,3.326172 -1.157481,0.571428 -2.809379,0.857422 -4.958985,0.857422 h -1.088492 v -8.100417 c 0.642915,-0.04232 0.834464,-0.07031 1.725211,-0.07031 z"/>
 </g>
 <path style="opacity:0.2;fill:#8b9cbe" d="M 5.8984375 3 C 4.2918373 3 3 4.2918373 3 5.8984375 L 3 6.8984375 C 3 5.2918373 4.2918373 4 5.8984375 4 L 58.101562 4 C 59.708163 4 61 5.2918373 61 6.8984375 L 61 5.8984375 C 61 4.2918373 59.708163 3 58.101562 3 L 5.8984375 3 z"/>
</svg>
