<svg xmlns="http://www.w3.org/2000/svg" width="64" height="64" version="1">
 <rect style="opacity:0.2" width="56" height="56" x="4" y="5" rx="16.8" ry="16.8"/>
 <rect style="fill:#c33131" width="56" height="56" x="4" y="4" rx="16.8" ry="16.8"/>
 <path style="opacity:0.2" d="m 29.769632,13.000686 c -0.981986,0 -1.769975,1.095785 -1.769975,2.456965 l 0,2.062371 a 15.999771,15.999771 0 0 0 -4.113941,1.710575 L 22.421737,17.766218 C 21.459751,16.803632 20.12777,16.588435 19.43338,17.281825 l -3.152355,3.152755 c -0.69353,0.69353 -0.478213,2.025571 0.484373,2.988157 l 1.464819,1.464819 a 15.999771,15.999771 0 0 0 -1.699176,4.113942 l -2.07417,0 c -1.361181,0 -2.456965,0.787988 -2.456965,1.769974 l 0,4.460936 c 0,0.979986 1.095784,1.767975 2.456965,1.767975 l 2.06237,0 a 15.999771,15.999771 0 0 0 1.710916,4.113141 l -1.464819,1.464819 c -0.962586,0.962587 -1.177903,2.294768 -0.484373,2.988158 l 3.152355,3.152355 c 0.69353,0.69353 2.025571,0.478213 2.988157,-0.484373 l 1.464819,-1.46482 a 15.999771,15.999771 0 0 0 4.113941,1.697976 l 0,2.074171 c 0,1.36198 0.787989,2.457964 1.769975,2.457964 l 4.460936,0 c 0.979986,0 1.767975,-1.095984 1.767975,-2.457964 l 0,-2.062371 a 15.999771,15.999771 0 0 0 4.113141,-1.710915 l 1.464819,1.464819 c 0.962586,0.962586 2.294767,1.177903 2.988157,0.484373 l 3.152355,-3.152355 c 0.69353,-0.69353 0.478213,-2.025571 -0.484373,-2.988158 l -1.463979,-1.463979 a 15.999771,15.999771 0 0 0 1.697976,-4.113941 l 2.07417,0 c 1.361981,0 2.457965,-0.787989 2.457965,-1.769974 l 0,-4.460937 c 0,-0.979986 -1.095984,-1.767974 -2.457965,-1.767974 l -2.06237,0 a 15.999771,15.999771 0 0 0 -1.710916,-4.113142 l 1.464819,-1.464819 c 0.962586,-0.962586 1.177903,-2.294767 0.484373,-2.988157 L 44.56534,17.281525 c -0.69399,-0.69339 -2.025971,-0.478193 -2.987957,0.484393 l -1.463979,1.464379 a 15.999771,15.999771 0 0 0 -4.113941,-1.698775 l 0,-2.074171 c 0,-1.36118 -0.787989,-2.456965 -1.769975,-2.456965 l -4.459936,0 z M 31.9996,25.000515 A 7.9998856,7.9998856 0 0 1 39.999486,33.0004 7.9998856,7.9998856 0 0 1 31.9996,41.000286 7.9998856,7.9998856 0 0 1 23.999714,33.0004 7.9998856,7.9998856 0 0 1 31.9996,25.000515 Z"/>
 <path style="fill:#ffaa56" d="m 29.769632,12.000715 c -0.981986,0 -1.769975,1.095784 -1.769975,2.456965 l 0,2.06257 a 15.999771,15.999771 0 0 0 -4.113941,1.710776 L 22.421737,16.766247 C 21.459751,15.803661 20.12777,15.588464 19.43338,16.281854 l -3.152355,3.152355 c -0.69339,0.69439 -0.478193,2.026371 0.484393,2.988357 l 1.464779,1.463979 a 15.999771,15.999771 0 0 0 -1.699176,4.113941 l -2.07417,0 c -1.361181,0 -2.456965,0.787989 -2.456965,1.769975 l 0,4.459936 c 0,0.981986 1.095784,1.769975 2.456965,1.769975 l 2.06257,0 a 15.999771,15.999771 0 0 0 1.710776,4.113941 l -1.464779,1.463979 c -0.962586,0.961986 -1.177783,2.293967 -0.484393,2.987957 l 3.152355,3.151955 c 0.69439,0.69399 2.026371,0.477993 2.988357,-0.483993 l 1.463979,-1.463979 a 15.999771,15.999771 0 0 0 4.113941,1.697976 l 0,2.07397 c 0,1.361981 0.787989,2.457965 1.769975,2.457965 l 4.459936,0 c 0.981986,0 1.769975,-1.095984 1.769975,-2.457965 l 0,-2.06197 a 15.999771,15.999771 0 0 0 4.113941,-1.709976 l 1.463979,1.463979 c 0.961986,0.961986 2.293967,1.177983 2.987957,0.483993 l 3.151955,-3.151955 c 0.69399,-0.69399 0.477993,-2.025971 -0.483993,-2.987957 l -1.463979,-1.463979 a 15.999771,15.999771 0 0 0 1.697976,-4.113941 l 2.07397,0 c 1.361981,0 2.457965,-0.787989 2.457965,-1.769975 l 0,-4.459936 c 0,-0.981986 -1.095984,-1.769975 -2.457965,-1.769975 l -2.06197,0 a 15.999771,15.999771 0 0 0 -1.709976,-4.113941 l 1.463979,-1.463979 c 0.961986,-0.961986 1.177983,-2.293967 0.483993,-2.988357 L 44.56542,16.281854 c -0.69399,-0.69339 -2.025971,-0.478193 -2.987957,0.484393 l -1.463979,1.464779 A 15.999771,15.999771 0 0 0 35.999543,16.53185 l 0,-2.07417 c 0,-1.361181 -0.787989,-2.456965 -1.769975,-2.456965 l -4.459936,0 z M 31.9996,24.000543 a 7.9998856,7.9998856 0 0 1 7.999886,7.999886 7.9998856,7.9998856 0 0 1 -7.999886,7.999886 7.9998856,7.9998856 0 0 1 -7.999886,-7.999886 7.9998856,7.9998856 0 0 1 7.999886,-7.999886 z"/>
 <path style="fill:#8b9cbe;opacity:0.1" d="M 20.800781 4.0019531 C 11.493582 4.0019531 4.0019531 11.493582 4.0019531 20.800781 L 4.0019531 21.800781 C 4.0019531 12.493582 11.493582 5.0019531 20.800781 5.0019531 L 43.199219 5.0019531 C 52.506418 5.0019531 60 12.493582 60 21.800781 L 60 20.800781 C 60 11.493582 52.506418 4.0019531 43.199219 4.0019531 L 20.800781 4.0019531 z"/>
</svg>
