<svg xmlns="http://www.w3.org/2000/svg" width="64" height="64" version="1">
 <path style="opacity:0.2" d="m 26,43 0,2 2,0 0,-2 -2,0 z m 6,4 0,2 2,0 0,-2 -2,0 z m -12,4 0,2 2,0 0,-2 -2,0 z m 18,0 0,2 2,0 0,-2 -2,0 z m -24,4 0,2 2,0 0,-2 -2,0 z m 30,0 0,2 2,0 0,-2 -2,0 z m 6,2 0,2 2,0 0,-2 -2,0 z m 2,2 0,2 8,0 -1,-2 -7,0 z m -2,0 -4,0 0,2 4,0 0,-2 z m -45,0 -1,2 10,0 0,-2 -9,0 z m 11,0 0,2 4,0 0,-2 -4,0 z m 6,0 0,2 4,0 0,-2 -4,0 z m 6,0 0,2 4,0 0,-2 -4,0 z m 6,0 0,2 4,0 0,-2 -4,0 z m 6,0 0,2 4,0 0,-2 -4,0 z"/>
 <path style="fill:#c2352a" d="M 32,4 18,32 4,60 l 10,0 0,-4 2,0 0,4 4,0 0,-8 2,0 0,8 4,0 0,-16 2,0 0,16 4,0 0,-12 2,0 0,12 4,0 0,-8 2,0 0,8 4,0 0,-4 2,0 0,4 4,0 0,-2 2,0 0,2 8,0 L 46,32 32,4 Z"/>
 <path style="opacity:0.2;fill:#8b9cbe" d="M 32 4 L 18 32 L 4 60 L 4.5 60 L 18 33 L 32 5 L 46 33 L 59.5 60 L 60 60 L 46 32 L 32 4 z"/>
</svg>
