<svg xmlns="http://www.w3.org/2000/svg" width="64" height="64" version="1">
 <circle style="opacity:0.2" cx="32.5" cy="32.5" r="28.5"/>
 <circle style="fill:#b2bfd9" cx="32.5" cy="31.5" r="28.5"/>
 <path style="opacity:0.1" d="M 47 18 C 43.204545 18 40.071253 20.005313 37.574219 22.449219 C 35.077184 24.893125 32.991634 27.888615 30.9375 30.751953 C 28.883366 33.615291 26.862206 36.342872 24.851562 38.205078 C 22.840919 40.067285 21.041667 41 19 41 C 13.958333 41 12.280756 39.009145 11.160156 36.861328 C 10.039557 34.713512 10 32.5 10 32.5 L 4 32.5 C 4 32.5 3.960443 36.036487 5.8398438 39.638672 C 7.719244 43.240856 12.041667 47 19 47 C 22.958333 47 26.284081 45.057715 28.929688 42.607422 C 31.575294 40.157128 33.741634 37.134709 35.8125 34.248047 C 37.883366 31.361385 39.860316 28.606875 41.769531 26.738281 C 43.678747 24.869687 45.295455 24 47 24 C 51.454546 24 52.87884 25.872199 53.917969 28.044922 C 54.957097 30.217645 55 32.5 55 32.5 L 61 32.5 C 61 32.5 61.0429 29.032354 59.332031 25.455078 C 57.62116 21.877802 53.545454 18 47 18 z M 46.476562 26.978516 A 1.50015 1.50015 0 0 0 45 28.5 L 45 31 L 42.474609 31 A 1.50015 1.50015 0 1 0 42.474609 34 L 45 34 L 45 36.5 A 1.50015 1.50015 0 1 0 48 36.5 L 48 34 L 50.5 34 A 1.50015 1.50015 0 1 0 50.5 31 L 48 31 L 48 28.5 A 1.50015 1.50015 0 0 0 46.476562 26.978516 z M 14.5 31 A 1.50015 1.50015 0 1 0 14.5 34 L 22.5 34 A 1.50015 1.50015 0 1 0 22.5 31 L 14.5 31 z"/>
 <path style="fill:none;stroke:#00797d;stroke-width:3;stroke-linecap:round;stroke-linejoin:round" d="m 14.5,31.500002 h 8"/>
 <path style="fill:none;stroke:#00797d;stroke-width:6" d="M 7,31.5 C 7,31.5 7,43 19,43 31,43 36,20 47,20 58,20 58,31.5 58,31.5 v 0 0"/>
 <path style="fill:none;stroke:#009da2;stroke-width:3;stroke-linecap:round;stroke-linejoin:round" d="m 46.5,27.5 v 8 M 42.474974,31.500002 H 50.5"/>
 <path style="opacity:0.1" d="M 19 18 C 12.041667 18 7.7192439 21.759144 5.8398438 25.361328 C 4.5443491 27.84436 4.1836832 30.216183 4.0703125 31.5 L 10.109375 31.5 C 10.230397 30.655535 10.494417 29.414677 11.160156 28.138672 C 12.280756 25.990855 13.958333 24 19 24 C 21.041667 24 22.840919 24.932715 24.851562 26.794922 C 26.862206 28.657128 28.883366 31.384709 30.9375 34.248047 C 32.991634 37.111385 35.077184 40.106875 37.574219 42.550781 C 40.071253 44.994687 43.204545 47 47 47 C 53.545454 47 57.62116 43.122198 59.332031 39.544922 C 61.042903 35.967646 61 32.5 61 32.5 L 55 32.5 C 55 32.5 54.9571 34.782355 53.917969 36.955078 C 52.87884 39.127801 51.454546 41 47 41 C 45.295455 41 43.678747 40.130313 41.769531 38.261719 C 39.860316 36.393125 37.883366 33.638615 35.8125 30.751953 C 33.741634 27.865291 31.575294 24.842872 28.929688 22.392578 C 26.284081 19.942285 22.958333 18 19 18 z"/>
 <path style="fill:none;stroke:#009da2;stroke-width:6" d="M 7,31.500002 C 7,31.500002 7,20 19,20 31,20 36,43 47,43 58,43 58,31.500002 58,31.500002 v 0 0"/>
 <path style="opacity:0.2;fill:#8b9cbe" d="M 32.5 3 A 28.499929 28.499929 0 0 0 4 31.5 A 28.499929 28.499929 0 0 0 4.0214844 32.082031 A 28.499929 28.499929 0 0 1 32.5 4 A 28.499929 28.499929 0 0 1 60.978516 31.917969 A 28.499929 28.499929 0 0 0 61 31.5 A 28.499929 28.499929 0 0 0 32.5 3 z"/>
</svg>
