<svg xmlns="http://www.w3.org/2000/svg" height="64" width="64" version="1.1" xmlns:xlink="http://www.w3.org/1999/xlink">
 <path style="opacity:.2" d="m32 5s-24.500221 0-24.500221 17.499303c0 5.948619 3.500221 13.500697 3.500221 17.500697s-4 6-4 10 3 8 3 8v-8c0 5 4 11 4 11s-1-5 1-11c3 8 6 11 6 11s0-5 3-8c3 3 3 8 3 8l5-10 5 10s0-5 3-8c3 3 3 8 3 8s3-2 6-11c2 6 1 11 1 11s5-4 5-11v8s2-4 2-8-4-6-4-10 3.500218-11.552078 3.500218-17.500697c0-17.499303-24.500218-17.499303-24.500218-17.499303z"/>
 <path style="fill:#00969b" d="m32 4s-24.500221 0-24.500221 17.499303c0 5.948619 3.500221 13.500697 3.500221 17.500697s-4 6-4 10 3 8 3 8v-8c0 5 4 11 4 11s-1-5 1-11c3 8 6 11 6 11s0-5 3-8c3 3 3 8 3 8l5-10 5 10s0-5 3-8c3 3 3 8 3 8s3-2 6-11c2 6 1 11 1 11s5-4 5-11v8s2-4 2-8-4-6-4-10 3.500218-11.552078 3.500218-17.500697c0-17.499303-24.500218-17.499303-24.500218-17.499303z"/>
 <path style="opacity:.2" d="m15 28c0 22 8 30 17 30s17-8 17-31c0-6-2.999874-11-17-11s-17 6-17 12z"/>
 <path style="fill:#fbcaa6" d="m15 27c0 22 8 30 17 30s17-8 17-31c0-6-2.999874-11-17-11s-17 6-17 12z"/>
 <path style="stroke-linejoin:round;opacity:.1;stroke:#000000;stroke-linecap:round;stroke-width:3;fill:none" d="m27.5 45.5s0.999968 3 4.5 3 4.5-3 4.5-3"/>
 <path style="fill:#4135e2" d="m38 34v3l4 4 0.761719 10.675781c0.641213-0.805054 1.24569-1.71063 1.80664-2.722656l-0.568359-7.953125-4-4v-3h-2zm4 0v3l4 4 0.292969 4.107422c0.495381-1.369301 0.934997-2.865155 1.304687-4.509766l-3.597656-3.597656v-3h-2z"/>
 <path style="opacity:.2" d="m10 25c0 13 5 14 5 14 12 0 11-3 17-3s6 3 17 3c0 0 5-1 5-14 0-3-10-6-22-6s-22 3-22 6z"/>
 <path style="fill:#008918" d="m10 24c0 13 5 14 5 14 12 0 11-3 17-3s6 3 17 3c0 0 5-1 5-14 0-3-10-6-22-6s-22 3-22 6z"/>
 <path style="opacity:.2" d="m32 5c-21.000189 0-25 8-25 14s0 8 2 14l3-11c0 6 3 11 3 11l6-14c0 6-3 11-3 11s7.038742-5.400637 8.400022-8.200547c0 5.599819-1.600307 8.399728-1.600307 8.399728s6.200285-8.199181 7.200285-11.199181c1 3 5 6 5 6s-1-3 2-6c2 7 7 14 7 14s-3-8-3-14l6 14s6-5 6-11l-1 11c3-5 3-7 3-14 0-6-3.999811-14-25-14z"/>
 <path style="fill:#41dbe0" d="m32 4c-21.000189 0-25 8-25 14s0 8 2 14l3-11c0 6 3 11 3 11l6-14c0 6-3 11-3 11s7.038742-5.400637 8.400022-8.200547c0 5.599819-1.600307 8.399728-1.600307 8.399728s6.200285-8.199181 7.200285-11.199181c1 3 5 6 5 6s-1-3 2-6c2 7 7 14 7 14s-3-8-3-14l6 14s6-5 6-11l-1 11c3-5 3-7 3-14 0-6-3.999811-14-25-14z"/>
 <path style="opacity:.2;fill:#8b9cbe" d="m32 4c-21.000189 0-25 8-25 14 0 0.327366 0.0055345 0.540853 0.0058594 0.845703 0.0676152-5.982198 4.1705436-13.845703 24.994141-13.845703 20.939837 0 24.975016 7.953129 24.998047 13.947266 0.000357-0.321199 0.001953-0.602806 0.001953-0.947266 0-6-3.999811-14-25-14zm-11 15l-0.03125 0.074219c-0.319509 5.511158-2.96875 9.925781-2.96875 9.925781s0.429699-0.337843 0.839844-0.664062c0.887877-1.95037 2.160156-5.414367 2.160156-9.335938zm22 0c0 4.168725 1.434349 9.246489 2.318359 11.992188 0.365392 0.550176 0.681641 1.007812 0.681641 1.007812s-2.657829-7.090482-2.96875-12.927734l-0.03125-0.072266zm-16.599609 2.798828c-0.009894 0.02035-0.026621 0.043832-0.03711 0.064453-0.188061 4.868474-1.564453 7.335938-1.564453 7.335938s0.382032-0.514609 0.789063-1.066407c0.403696-1.399837 0.8125-3.508508 0.8125-6.333984zm10.470703 1.4375c-0.020458 0.227589-0.033577 0.445907-0.029297 0.636719 0.028779 0.022112 0.158203 0.126953 0.158203 0.126953s-0.084277-0.298023-0.128906-0.763672zm17.990234 0.28125c-0.04653 0.286474-0.098628 0.570176-0.167969 0.84961l-0.693359 7.632812c0.040934-0.068224 0.067597-0.124279 0.107422-0.191406l0.753906-8.291016z"/>
 <path style="stroke-linejoin:round;stroke:#17191e;stroke-linecap:round;stroke-width:3;fill:none" d="m27.5 44.5s0.999968 3 4.5 3 4.5-3 4.5-3"/>
 <path style="fill:none" d="m21.499905 42.498466h21.000187l-10.500092 6.99972z"/>
 <path style="opacity:.2" d="m54.955078 5.0000004c-0.263701 0.00399-0.525725 0.042739-0.779297 0.1152344l-7 2c-1.287891 0.3681009-2.175774 1.5453021-2.175781 2.8847652v7c0.000166 1.656786 1.343214 2.999834 3 3h7c1.339464-0.000007 2.516665-0.887889 2.884766-2.175781l2-7c0.299069-1.047606 0.0068-2.1750082-0.763672-2.9453124l-2-2c-0.573496-0.5737453-1.354881-0.8908089-2.166016-0.8789062z"/>
 <path style="fill:#8b9cbe" d="m54.955078 4c-0.263701 0.00399-0.525725 0.042739-0.779297 0.1152344l-7 2c-1.287891 0.3681009-2.175774 1.5453021-2.175781 2.8847656v7c0.000166 1.656786 1.343214 2.999834 3 3h7c1.339464-0.000007 2.516665-0.887889 2.884766-2.175781l2-7.0000002c0.299069-1.0476062 0.0068-2.1750084-0.763672-2.9453126l-2-2c-0.573496-0.5737453-1.354881-0.8908089-2.166016-0.8789062z"/>
 <path style="opacity:.2" d="m9.0450277 5.0000004c0.263701 0.00399 0.525725 0.042739 0.779297 0.1152344l7.0000003 2c1.287891 0.3681009 2.175774 1.5453021 2.175781 2.8847652v7c-0.000166 1.656786-1.343214 2.999834-3 3h-7.0000003c-1.339464-0.000007-2.516665-0.887889-2.884766-2.175781l-2-7c-0.299069-1.047606-0.0068-2.1750082 0.763672-2.9453124l2-2c0.573496-0.5737453 1.354881-0.8908089 2.166016-0.8789062z"/>
 <circle style="fill:#35b046" cx="-51" transform="scale(-1,1)" cy="13" r="3"/>
 <path style="fill:#8b9cbe" d="m9.0450277 4c0.263701 0.00399 0.525725 0.042739 0.779297 0.1152344l7.0000003 2c1.287891 0.3681009 2.175774 1.5453021 2.175781 2.8847656v7c-0.000166 1.656786-1.343214 2.999834-3 3h-7.0000003c-1.339464-0.000007-2.516665-0.887889-2.884766-2.175781l-2-7.0000002c-0.299069-1.0476062-0.0068-2.1750084 0.763672-2.9453126l2-2c0.573496-0.5737453 1.354881-0.8908089 2.166016-0.8789062z"/>
 <circle r="3" style="fill:#35b046" cx="13.000107" cy="13"/>
</svg>
