<svg xmlns="http://www.w3.org/2000/svg" width="64" height="64" version="1">
 <path style="opacity:0.2" d="m 26.088446,60.905181 c -0.0836,-0.0826 -0.667528,-0.247693 -1.766394,-0.366878 -2.203741,-0.239019 -2.958288,-0.698188 -3.241578,-1.972604 -0.2517,-1.132293 0.28578,-2.519609 1.571974,-4.057492 0.607806,-0.726747 0.827497,-1.278066 0.827497,-1.395453 0,-0.40119 -0.861746,-0.201792 -1.565532,0.342143 -0.386576,0.298772 -1.109589,0.546001 -1.606698,0.549399 -1.160272,0.008 -1.610063,-0.760935 -1.386777,-2.370534 0.140213,-1.010731 0.351131,-1.382938 -0.181959,-1.744087 -0.342967,-0.232345 -2.430023,-0.856672 -3.001673,-1.387385 -0.975798,-0.90592 -1.02261,-1.024915 -0.765339,-1.945543 0.306804,-1.097885 0.663787,-3.559055 -0.404513,-6.392998 C 13.97976,38.604731 13.89552,38.519523 12.44916,38.021067 11.620718,37.735561 10.513706,37.178512 9.9891331,36.78318 9.0854009,36.1021 9.0354217,35.974059 9.0364085,34.34235 l 0.00112,-1.722039 1.8326995,-0.936353 c 2.107273,-1.076628 3.134987,-2.497191 2.455801,-2.872746 -0.231138,-0.127803 -1.285726,-0.08932 -2.361188,0.08616 -2.0906872,0.341145 -3.1898073,0.07687 -3.8144685,-0.91714 -0.4105967,-0.653378 0.057915,-1.834688 1.0035109,-2.530248 l 0.759091,-0.558375 1.5853786,0.599446 c 2.325543,0.879308 3.642234,0.80352 4.854715,-0.922285 1.149755,-1.636519 0.87243,-2.221505 0.19611,-3.513749 -0.242617,-0.463558 -0.464019,-1.352922 -0.492007,-1.976366 -0.04646,-1.034778 0.05632,-1.215174 1.179816,-2.070687 0.676889,-0.515437 1.7839,-1.083349 2.460025,-1.262025 1.372606,-0.362732 2.501821,-0.987093 1.683304,-2.015241 -0.675215,-0.848147 -1.690233,-1.158449 -1.133082,-2.736608 0.744457,-2.1087331 1.420307,-2.3506623 4.170872,-1.2067898 0.930021,0.3867648 1.212617,0.8297728 1.36035,0.7395578 0.147737,-0.09021 0.268606,-0.7106578 0.268606,-1.3787638 0,-1.0424594 0.124138,-1.3020729 0.875249,-1.830527 0.481382,-0.3386833 1.246974,-0.8802346 1.456264,-1.3751538 L 27.759101,5.0425647 29.66622,5.725118 c 1.048917,0.375404 2.168304,0.9239254 2.487532,1.2189358 0.774788,0.7160151 0.940919,0.1330133 3.093797,-0.9954729 2.331286,-1.2220037 3.396759,-1.2550439 4.479023,-0.1388952 0.810731,0.836118 2.168374,2.0929494 2.530312,1.5143132 0.341055,-0.5452479 1.987088,-0.3024938 2.645686,0.3901809 0.349309,0.3673833 1.052265,0.5459261 1.562121,0.6404329 0.509855,0.094508 1.446912,-0.1558928 2.082349,0.2989196 1.40582,1.0062089 3.075638,0.022364 3.921814,-0.8675914 1.107136,-1.1644177 2.530313,-0.784643 2.530313,0.6752135 0,0.3866457 -0.280136,1.3708018 -0.622527,2.1870136 -0.567033,1.351732 -2.740435,2.34962 -2.361286,3.017053 0.275936,0.485748 0.418711,0.852545 1.242204,1.088121 0.683236,0.195452 1.343443,0.512871 1.467125,0.705374 0.420777,0.654904 0.217757,2.291609 -0.409112,3.298237 -0.569909,0.915152 -0.60822,1.221522 -0.434219,3.472358 0.370284,4.789937 2.179173,8.745636 2.484801,9.539902 0.169997,0.441811 0.298816,1.314067 0.286242,1.938347 -0.0124,0.624279 0.06184,1.484794 0.165357,1.912257 0.138137,0.57043 0.05818,0.87115 -0.300534,1.130313 -0.460911,0.333003 -0.654285,0.418623 -0.09414,1.503487 0.747579,1.447875 0.771002,3.318185 0.05596,4.189771 -0.455377,0.555075 -0.746849,0.642069 -1.897736,0.566404 -3.715038,-0.244233 -3.61378,-1.060992 -3.557781,-0.238377 0.0281,0.412926 0.792124,0.943709 1.189248,1.521149 0.806813,1.173153 0.905057,1.972206 0.343875,3.298689 -0.68739,1.624811 -1.045151,1.743605 -3.499295,1.161953 -1.191944,-0.282499 -2.366906,-0.677141 -2.611027,-0.876981 -0.643137,-0.526473 -1.15666,1.021248 -1.940265,2.247733 -0.665038,1.040907 -0.794121,1.111221 -2.041832,1.112193 -1.607699,0.0014 -2.843982,1.26008 -3.682211,2.600163 -0.412958,0.660201 -0.887234,1.022295 -1.496796,1.142753 -1.263894,0.249759 -2.814674,-0.07874 -4.425594,-0.749091 l -1.37646,-0.572772 -1.997297,0.676666 -2.797511,-0.323845 0.03546,1.111155 c 0.0196,0.611136 0.130918,1.818817 0.247611,2.683737 0.116698,0.864921 0.133458,1.882424 0.03726,2.261116 -0.169257,0.666291 -0.609578,1.146003 -0.920146,0.839141 z"/>
 <path style="fill:#e53935" d="m 26.088446,59.905227 c -0.0836,-0.0826 -0.667528,-0.247693 -1.766394,-0.366879 -2.203741,-0.239019 -2.958288,-0.698187 -3.241578,-1.972603 -0.2517,-1.132293 0.28578,-2.519609 1.571974,-4.057492 0.607806,-0.726747 0.827497,-1.278066 0.827497,-1.395453 0,-0.40119 -0.861746,-0.201792 -1.565532,0.342143 -0.386576,0.298772 -1.109589,0.546001 -1.606698,0.549398 -1.160272,0.008 -1.610063,-0.760934 -1.386777,-2.370533 0.140213,-1.010732 0.351131,-1.382938 -0.181959,-1.744087 -0.342967,-0.232345 -2.430023,-0.856672 -3.001673,-1.387386 -0.975798,-0.905919 -1.02261,-1.024915 -0.765339,-1.945542 0.306804,-1.097886 0.663787,-3.559056 -0.404513,-6.392998 C 13.97976,37.604777 13.89552,37.519569 12.44916,37.021113 11.620718,36.735607 10.513706,36.178558 9.9891331,35.783226 9.0854009,35.102146 9.0354217,34.974104 9.0364085,33.342396 l 0.00112,-1.722039 1.8326995,-0.936353 c 2.107273,-1.076628 3.134987,-2.497192 2.455801,-2.872746 -0.231138,-0.127803 -1.285726,-0.08932 -2.361188,0.08615 -2.0906872,0.341145 -3.1898073,0.07687 -3.8144685,-0.917139 -0.4105967,-0.653379 0.057915,-1.834689 1.0035109,-2.530248 l 0.759091,-0.558375 1.5853786,0.599446 c 2.325543,0.879308 3.642234,0.803519 4.854715,-0.922286 1.149755,-1.636518 0.87243,-2.221504 0.19611,-3.513748 -0.242617,-0.463559 -0.464019,-1.352923 -0.492007,-1.976366 -0.04646,-1.034779 0.05632,-1.215175 1.179816,-2.070688 0.676889,-0.515437 1.7839,-1.083348 2.460025,-1.262025 1.372606,-0.362731 2.501821,-0.987092 1.683304,-2.015241 -0.675215,-0.848146 -1.690233,-1.158448 -1.133082,-2.7366081 0.744457,-2.1087329 1.420307,-2.3506621 4.170872,-1.2067896 0.930021,0.3867647 1.212617,0.8297727 1.36035,0.7395583 0.147737,-0.090214 0.268606,-0.7106585 0.268606,-1.3787647 0,-1.042459 0.124138,-1.3020725 0.875249,-1.8305266 C 26.403698,5.978928 27.16929,5.4373767 27.37858,4.9424575 l 0.380526,-0.8998527 1.907119,0.6825533 c 1.048917,0.375404 2.168304,0.9239254 2.487532,1.2189358 0.774788,0.7160151 0.940919,0.1330133 3.093797,-0.9954729 2.331286,-1.2220037 3.396759,-1.2550439 4.479023,-0.1388952 0.810731,0.836118 2.168374,2.0929494 2.530312,1.5143132 0.341055,-0.5452479 1.987088,-0.3024938 2.645686,0.3901809 0.349309,0.3673833 1.052265,0.5459261 1.562121,0.6404329 0.509855,0.094508 1.446912,-0.1558928 2.082349,0.2989196 1.40582,1.0062087 3.075638,0.022363 3.921814,-0.8675914 1.107136,-1.1644177 2.530313,-0.784643 2.530313,0.6752135 0,0.3866457 -0.280136,1.3708019 -0.622527,2.1870141 -0.567033,1.3517324 -2.740435,2.3496204 -2.361286,3.0170524 0.275936,0.485748 0.418711,0.852545 1.242204,1.088121 0.683236,0.195452 1.343443,0.512871 1.467125,0.705374 0.420777,0.654904 0.217757,2.291609 -0.409112,3.298238 -0.569909,0.915153 -0.60822,1.221521 -0.434219,3.472358 0.370284,4.789937 2.179173,8.745636 2.484801,9.539902 0.169997,0.441811 0.298816,1.314067 0.286242,1.938346 -0.0124,0.62428 0.06184,1.484794 0.165357,1.912258 0.138137,0.57043 0.05818,0.87115 -0.300534,1.130313 -0.460911,0.333003 -0.654285,0.418623 -0.09414,1.503487 0.747579,1.447875 0.771002,3.318184 0.05596,4.189771 -0.455377,0.555074 -0.746849,0.642069 -1.897736,0.566404 -3.715038,-0.244233 -3.61378,-1.060992 -3.557781,-0.238377 0.0281,0.412926 0.792124,0.943709 1.189248,1.521149 0.806813,1.173152 0.905057,1.972206 0.343875,3.298689 -0.68739,1.624811 -1.045151,1.743604 -3.499295,1.161952 -1.191944,-0.282498 -2.366906,-0.67714 -2.611027,-0.87698 -0.643137,-0.526473 -1.15666,1.021247 -1.940265,2.247732 -0.665038,1.040907 -0.794121,1.111222 -2.041832,1.112194 -1.607699,0.0014 -2.843982,1.26008 -3.682211,2.600163 -0.412958,0.6602 -0.887234,1.022295 -1.496796,1.142753 -1.263894,0.249759 -2.814674,-0.07874 -4.425594,-0.749091 l -1.37646,-0.572772 -1.997297,0.676666 -2.797511,-0.323846 0.03546,1.111156 c 0.0196,0.611135 0.130918,1.818817 0.247611,2.683737 0.116698,0.86492 0.133458,1.882424 0.03726,2.261116 -0.169257,0.666291 -0.609578,1.146003 -0.920146,0.839141 z"/>
 <path style="fill:#8b9cbe" d="m 33.063662,12.426017 -13.772036,9.92932 v 0.0112 L 21.18594,39.003692 36.852291,45.717158 50.624319,35.78784 48.730003,19.150468 v -0.01106 z"/>
 <path style="fill:#c8c8c8" d="M 49.065835,18.869386 35.001679,29.011928 36.935592,46.000334 51.000071,35.8606 Z"/>
 <path style="fill:#8b9cbe" d="m 33.0652,12.001027 -14.064477,10.139737 0.0013,0.0112 15.999678,6.859939 14.064156,-10.142545 -0.0013,-0.0112 z"/>
 <path style="fill:#b2bfd9" d="m 19.002003,22.152011 1.934235,16.991215 15.999354,6.857108 -1.933913,-16.988406 z"/>
 <path style="opacity:0.1" d="M 48.205078 19.490234 L 35.001953 29.011719 L 19.861328 22.519531 L 19 23.140625 L 19.001953 23.152344 L 35.001953 30.011719 L 49.066406 19.869141 L 49.064453 19.857422 L 48.205078 19.490234 z"/>
 <path style="opacity:0.2" d="M 19.103516 23.066406 L 19 23.140625 L 19 23.152344 L 20.9375 40.144531 L 36.933594 47 L 51 36.859375 L 50.894531 35.935547 L 36.933594 46 L 20.9375 39.144531 L 19.103516 23.066406 z"/>
 <path style="fill:#8b9cbe;opacity:0.2" d="M 37.955078 4.0019531 C 37.262016 4.023445 36.41369 4.3382169 35.248047 4.9492188 C 33.095169 6.077705 32.929085 6.6593745 32.154297 5.9433594 C 31.835069 5.648349 30.714933 5.1000134 29.666016 4.7246094 L 27.759766 4.0429688 L 27.378906 4.9433594 C 27.169616 5.4382786 26.403262 5.9796801 25.921875 6.3183594 C 25.170764 6.8468135 25.046875 7.1059785 25.046875 8.1484375 C 25.046875 8.8165437 24.927034 9.4371298 24.779297 9.5273438 C 24.631564 9.6175582 24.34799 9.1738741 23.417969 8.7871094 C 20.667404 7.6432369 19.992504 7.8854077 19.248047 9.9941406 C 19.048153 10.560351 19.055323 10.960003 19.171875 11.283203 C 19.195749 11.187637 19.210422 11.100715 19.248047 10.994141 C 19.992504 8.8854078 20.667404 8.6432369 23.417969 9.7871094 C 24.34799 10.173874 24.631564 10.617558 24.779297 10.527344 C 24.927034 10.437134 25.046875 9.8165437 25.046875 9.1484375 C 25.046875 8.1059785 25.170764 7.8468135 25.921875 7.3183594 C 26.403262 6.9796801 27.169616 6.4382786 27.378906 5.9433594 L 27.759766 5.0429688 L 29.666016 5.7246094 C 30.714933 6.1000134 31.835069 6.648349 32.154297 6.9433594 C 32.929085 7.6593745 33.095169 7.0777049 35.248047 5.9492188 C 37.579333 4.727215 38.644298 4.6943982 39.726562 5.8105469 C 40.537293 6.6466649 41.895875 7.902855 42.257812 7.3242188 C 42.598867 6.7789709 44.243746 7.022169 44.902344 7.7148438 C 45.251653 8.0822271 45.954988 8.2609619 46.464844 8.3554688 C 46.974699 8.4499767 47.911438 8.1994845 48.546875 8.6542969 C 49.952695 9.6605056 51.622574 8.6751107 52.46875 7.7851562 C 53.430415 6.773736 54.627009 6.9307708 54.925781 7.9453125 C 54.968459 7.7484929 55 7.5743095 55 7.4609375 C 55 6.001081 53.575886 5.6207386 52.46875 6.7851562 C 51.622574 7.6751107 49.952695 8.6605056 48.546875 7.6542969 C 47.911438 7.1994845 46.974699 7.4499768 46.464844 7.3554688 C 45.954988 7.2609619 45.251653 7.0822271 44.902344 6.7148438 C 44.243746 6.0221691 42.598867 5.7789709 42.257812 6.3242188 C 41.895875 6.9028549 40.537293 5.6466649 39.726562 4.8105469 C 39.18543 4.2524725 38.64814 3.9804612 37.955078 4.0019531 z M 52.220703 13.019531 C 52.015902 13.260143 51.908954 13.478239 52.015625 13.666016 C 52.291561 14.151764 52.43432 14.51833 53.257812 14.753906 C 53.941049 14.949358 54.600927 15.266481 54.724609 15.458984 C 54.815041 15.599734 54.871459 15.792366 54.90625 16.007812 C 54.988463 15.379249 54.938499 14.791885 54.724609 14.458984 C 54.600927 14.266481 53.941049 13.949358 53.257812 13.753906 C 52.648707 13.57966 52.41432 13.332394 52.220703 13.019531 z M 20.458984 13.861328 C 20.142252 14.253465 19.465858 14.542982 18.697266 14.746094 C 18.021141 14.924771 16.913217 15.492375 16.236328 16.007812 C 15.112832 16.863325 15.010181 17.043346 15.056641 18.078125 C 15.060219 18.157833 15.074443 18.250935 15.083984 18.337891 C 15.169738 17.877877 15.451597 17.605365 16.236328 17.007812 C 16.913217 16.492376 18.021141 15.924771 18.697266 15.746094 C 20.008691 15.399531 21.078361 14.809528 20.458984 13.861328 z M 53.814453 20.181641 C 53.779367 20.63838 53.803299 21.225213 53.880859 22.228516 C 54.251143 27.018453 56.059606 30.975265 56.365234 31.769531 C 56.535231 32.211342 56.664918 33.082752 56.652344 33.707031 C 56.641277 34.264175 56.704843 34.971976 56.791016 35.429688 C 56.893171 35.227066 56.905639 34.979559 56.818359 34.619141 C 56.714842 34.191677 56.639944 33.331311 56.652344 32.707031 C 56.664918 32.082752 56.535231 31.211342 56.365234 30.769531 C 56.059606 29.975265 54.251143 26.018453 53.880859 21.228516 C 53.847454 20.796396 53.829949 20.488492 53.814453 20.181641 z M 16.058594 22.210938 C 15.95581 22.590697 15.740676 23.017289 15.353516 23.568359 C 14.141035 25.294164 12.82359 25.369542 10.498047 24.490234 L 8.9121094 23.892578 L 8.1542969 24.449219 C 7.2585698 25.108095 6.8013485 26.19819 7.1035156 26.867188 C 7.2683678 26.359939 7.6348197 25.831334 8.1542969 25.449219 L 8.9121094 24.892578 L 10.498047 25.490234 C 12.82359 26.369542 14.141035 26.294164 15.353516 24.568359 C 16.106553 23.496514 16.241049 22.874778 16.058594 22.210938 z M 13.267578 28.798828 C 12.875181 29.373778 12.052113 30.080198 10.871094 30.683594 L 9.0371094 31.621094 L 9.0371094 32.621094 L 10.871094 31.683594 C 12.978367 30.606966 14.005358 29.186101 13.326172 28.810547 C 13.315415 28.804599 13.281821 28.804059 13.267578 28.798828 z M 56.28125 36.931641 C 56.017558 37.157603 55.978079 37.3906 56.423828 38.253906 C 56.7288 38.84456 56.905777 39.503898 56.96875 40.138672 C 57.076497 39.246307 56.895014 38.166476 56.423828 37.253906 C 56.354065 37.118792 56.328576 37.038164 56.28125 36.931641 z M 51.144531 42.421875 C 50.974623 42.385925 51.002438 42.463004 51.023438 42.771484 C 51.051538 43.18441 51.815767 43.715529 52.212891 44.292969 C 52.558144 44.794987 52.765868 45.228408 52.855469 45.664062 C 53.020167 44.833134 52.813667 44.166532 52.212891 43.292969 C 52.027979 43.024098 51.765876 42.766843 51.533203 42.525391 C 51.374762 42.478102 51.216558 42.437115 51.144531 42.421875 z M 15.265625 43.59375 C 15.223801 44.427058 15.097699 45.109181 14.972656 45.556641 C 14.829242 46.069837 14.803216 46.33874 14.957031 46.628906 C 14.964609 46.601079 14.964437 46.586052 14.972656 46.556641 C 15.144502 45.941696 15.321571 44.890045 15.265625 43.59375 z M 19 50.158203 C 18.974513 50.304713 18.947642 50.449021 18.921875 50.634766 C 18.857023 51.102265 18.854674 51.489179 18.904297 51.816406 C 18.911148 51.753726 18.912795 51.698269 18.921875 51.632812 C 19.028641 50.863187 19.170939 50.464406 19 50.158203 z M 23.333984 52.919922 C 23.272478 52.900338 23.174757 52.916451 23.083984 52.925781 C 22.968054 53.102665 22.831195 53.293963 22.652344 53.507812 C 21.391314 55.015608 20.853797 56.378162 21.070312 57.498047 C 21.218352 56.5998 21.745157 55.592522 22.652344 54.507812 C 23.26015 53.781065 23.480469 53.230668 23.480469 53.113281 C 23.480469 53.012984 23.42577 52.949147 23.333984 52.919922 z M 26.6875 54.009766 L 26.724609 55.121094 C 26.744209 55.732229 26.85401 56.939768 26.970703 57.804688 C 27.014377 58.128381 27.029925 58.462157 27.044922 58.787109 C 27.091322 58.30954 27.066649 57.515802 26.970703 56.804688 C 26.85401 55.939768 26.744209 54.732229 26.724609 54.121094 L 26.720703 54.013672 L 26.6875 54.009766 z"/>
</svg>
