<svg xmlns="http://www.w3.org/2000/svg" width="64" height="64" version="1.1">
 <path style="opacity:0.2" d="m 12.3125,10.999747 c -0.527979,5.83e-4 -1.030154,0.217159 -1.394531,0.601563 L 3.5351562,19.382559 C 3.319371,19.610405 3.187246,19.893973 3.1015624,20.191153 l -0.01562,-0.0078 C 3.0350876,20.358847 2.99996,20.540375 3,20.726309 v 29.734376 c 0,1.945044 1.2538042,3.455584 2.359375,4.011718 1.105571,0.556134 2.1523438,0.527344 2.1523438,0.527344 H 51.683594 c 0.52798,-5.84e-4 1.03406,-0.221066 1.398438,-0.605468 l 7.386718,-7.777344 c 0.02134,-0.02252 0.02688,-0.05468 0.04688,-0.07812 0.1561,-0.18172 0.279538,-0.386438 0.359376,-0.609374 0.0026,-0.0072 0.0092,-0.0124 0.0118,-0.0196 l -0.0078,-0.004 C 60.948898,45.702801 61.000048,45.492097 61,45.273185 V 15.53881 c 0,-1.945046 -1.253804,-3.45168 -2.359376,-4.007813 -1.10557,-0.556134 -2.152342,-0.53125 -2.152342,-0.53125 z"/>
 <path style="fill:#4cdb5d" d="m 12.314237,10.000208 c -0.527979,5.83e-4 -1.032758,0.218357 -1.397136,0.602761 L 3.5336804,18.383146 C 3.1909954,18.744984 2.999892,19.225638 3,19.725426 l 5.6834292,14.805753 c 0.6974302,1.816856 -2.979144,14.530044 -1.8735732,15.086178 1.105571,0.556132 5.856811,-2.492356 5.856811,-2.492356 l 35.904761,1.375 c 0.52798,-5.84e-4 2.397528,-0.990596 2.761906,-1.375 L 60.46632,45.616625 C 60.809004,45.254787 61.000108,44.774129 61,44.274341 V 14.538644 C 61,12.593599 59.746804,11.085657 58.641232,10.529523 57.535662,9.973389 56.48889,10.000208 56.48889,10.000208 Z"/>
 <path style="fill:#31ae3e" d="m 3.0849616,19.182627 c -0.05085,0.175506 -0.085,0.357489 -0.08496,0.543425 v 29.734219 c 0,1.945044 1.2527388,3.455104 2.3583096,4.011238 1.105571,0.556134 2.1523438,0.52826 2.1523438,0.52826 h 44.174537 c 0.52798,-5.84e-4 1.033616,-0.219684 1.397994,-0.604086 l 7.383876,-7.779832 c 0.19234,-0.203082 0.329828,-0.444872 0.419656,-0.705188 z"/>
 <path style="opacity:0.1" d="M 3.0859375 19.183594 C 3.0350875 19.3591 2.99996 19.540627 3 19.726562 L 3 20.726562 C 2.99996 20.540627 3.0350875 20.3591 3.0859375 20.183594 L 60.396484 45.691406 L 60.46875 45.617188 C 60.66109 45.414105 60.796891 45.170472 60.886719 44.910156 L 3.0859375 19.183594 z"/>
 <path style="opacity:0.2" d="m 28.889189,21.000001 -6.889189,24 h 4.308104 l 1.529734,-6 h 8.324322 l 1.529731,6 H 42 l -6.889189,-24 z M 32,25.166667 l 3.013513,9.833334 h -6.027026 z"/>
 <path style="fill:#8b9cbe" d="m 28.889189,20.000001 -6.889189,24 h 4.308104 l 1.529734,-6 h 8.324322 l 1.529731,6 H 42 l -6.889189,-24 z M 32,24.166667 l 3.013513,9.833334 h -6.027026 z"/>
 <path style="opacity:0.2;fill:#8b9cbe" d="M 12.3125 10 C 11.784521 10.000582 11.282346 10.217159 10.917969 10.601562 L 3.5351562 18.382812 C 3.1924713 18.744651 2.999892 19.226775 3 19.726562 L 3.125 20.050781 C 3.2158992 19.80446 3.3520811 19.57612 3.5351562 19.382812 L 10.917969 11.601562 C 11.282346 11.217159 11.784521 11.000582 12.3125 11 L 56.488281 11 C 56.488281 11 57.535055 10.975115 58.640625 11.53125 C 59.746197 12.087383 61 13.594017 61 15.539062 L 61 14.539062 C 61 12.594017 59.746197 11.087383 58.640625 10.53125 C 57.535055 9.9751152 56.488281 10 56.488281 10 L 12.3125 10 z"/>
</svg>
