<svg width="64" height="64" version="1.1" xmlns="http://www.w3.org/2000/svg">
 <rect x="4" y="5" width="56" height="56" ry="12.599999" style="opacity:.2"/>
 <rect x="4" y="4" width="56" height="56" ry="12.599999" style="fill:#e0b833"/>
 <path d="M 16.599609 4 C 9.6192097 4 4 9.6192097 4 16.599609 L 4 17.599609 C 4 10.61921 9.6192097 5 16.599609 5 L 47.400391 5 C 54.38079 5 60 10.61921 60 17.599609 L 60 16.599609 C 60 9.6192097 54.38079 4 47.400391 4 L 16.599609 4 z " style="fill:#8b9cbe;opacity:.2"/>
 <path d="m26.693359 4c-0.772655 1.9320088-1.592748 4.5691448-1.652343 7.220703-0.06764 3.006886 1.009765 6.84375 1.009765 6.84375l4.949219-1.064453s-1.942747-2.11434-2.025391-6.082031c-0.050244-2.4122296 0.867694-4.993211 1.751953-6.917969h-4.033203zm33.152344 10.722656c-2.466472 0.16669-5.734069 0.467504-7.808594 1.03125-6.613805 1.797295-15.009765 4.226563-15.009765 4.226563l3.425781 3.019531s6.549129-2.408556 11.986328-3.466797c2.158857-0.420181 5.17389-0.62836 7.560547-0.755859v-2.177735c0-0.640162-0.063055-1.262965-0.154297-1.876953zm-55.845703 3.324219v3.824219c1.7803895 0.324909 4.1936722 0.7563 7.136719 1.246094 2.63371 0.438309 7.958984 0.906249 7.958984 0.90625l0.90625-4.023438s-4.92951 0.0757-7.353515-0.302734c-3.5963808-0.561453-6.660807-1.211704-8.648438-1.650391zm33.03125 9.984375-3.660156 3.455078s4.428195 0.482694 14.841797 11.742188c4.621668 4.997089 7.368671 9.012094 9.005859 12.076172 1.554846-1.931723 2.542008-4.335546 2.734375-6.96875-2.302931-3.250599-5.541226-7.017739-10.126953-11.146485-6.693664-6.026609-12.794922-9.158203-12.794922-9.158203zm-16.173828 0.955078c-6.627714-0.0083-10.898438 4.511719-10.898438 4.511719l3.7988276 3.488281s1.900066-3.010637 7.003907-3c6.237881 0.013 5.238281 6.013672 5.238281 6.013672s-17.999312-1.000453-17.945312 8.382812c0.024754 4.301381 2.9015485 8.699219 9.9062505 8.699219 5.603777 0 8.007812-4.5 8.007812-4.5l0.03125 4.417969h6v-17s-4.58e-4 -10.999672-11.142578-11.013672zm4.142578 15.013672v2.798828c0 1.399669-1.000373 5.171355-4.238281 5.183594-4.762119 0.018-5.761719-1.982422-5.761719-3.982422 0-4 10-4 10-4z" style="opacity:.2"/>
 <path d="m26.324219 4c-0.643266 1.7995302-1.233266 3.9988857-1.283203 6.220703-0.06764 3.006887 1.009765 6.84375 1.009765 6.84375l4.949219-1.064453s-1.942747-2.114341-2.025391-6.0820312c-0.042006-2.0167728 0.599757-4.1429938 1.326172-5.9179688h-3.976562zm33.33789 9.736328c-2.44728 0.170153-5.605957 0.468909-7.625 1.017578-6.613805 1.797296-15.009765 4.226563-15.009765 4.226563l3.425781 3.019531s6.549129-2.408556 11.986328-3.466797c2.158857-0.420181 5.17389-0.62836 7.560547-0.755859v-1.177735c0-0.9875-0.125017-1.942306-0.337891-2.863281zm-55.662109 3.310547v3.824219c1.7803896 0.324909 4.1936722 0.7563 7.136719 1.246094 2.63371 0.438309 7.958984 0.906248 7.958984 0.90625l0.90625-4.023438s-4.92951 0.075701-7.353515-0.302734c-3.5963808-0.561453-6.660807-1.211704-8.648438-1.650391zm33.03125 9.984375-3.660156 3.455078s4.428195 0.482693 14.841797 11.742188c4.934717 5.335567 7.718216 9.538512 9.308593 12.671875 1.551477-2.094234 2.478516-4.682033 2.478516-7.5-2.305487-3.264696-5.558681-7.055703-10.173828-11.210938-6.693664-6.026609-12.794922-9.158203-12.794922-9.158203zm-16.173828 0.955078c-6.627714-0.0083-10.898438 4.511719-10.898438 4.511719l3.7988276 3.488281s1.900066-3.010637 7.003907-3c6.237881 0.013 5.238281 6.013672 5.238281 6.013672s-17.999312-1.000453-17.945312 8.382812c0.024754 4.301381 2.9015485 8.697266 9.9062505 8.697266 5.603777 0 8.007812-4.498047 8.007812-4.498047l0.03125 4.417969h6v-17s-4.58e-4 -10.999672-11.142578-11.013672zm4.142578 15.013672v2.798828c0 1.399669-1.000373 5.171355-4.238281 5.183594-4.762119 0.018-5.761719-1.982422-5.761719-3.982422 0-4 10-4 10-4z" style="fill:#8b9cbe"/>
</svg>
