<svg xmlns="http://www.w3.org/2000/svg" height="64" width="64" version="1.1">
 <g>
  <rect style="opacity:.2" rx="3" ry="3" height="47" width="56" y="10" x="4"/>
  <rect style="fill:#5bc621" rx="3" ry="3" height="47" width="56" y="9" x="4"/>
  <path style="opacity:.2;fill:#8b9cbe" d="m7 9c-1.662 0-3 1.338-3 3v1c0-1.662 1.338-3 3-3h50c1.662 0 3 1.338 3 3v-1c0-1.662-1.338-3-3-3z"/>
  <path d="m15 10v11h-11v3h11v8l-11 0.076923v2.923077h11v8h-11v3h11v11h3v-11h12v11h3v-11h13v11h3v-11l11-0.07692v-2.92308h-11v-8h11v-3h-11v-8h11v-3h-11v-11h-3v11h-13v-11h-3v11h-12v-11zm3 14h28v19h-28z" style="opacity:.2"/>
  <path d="m15 9v11h-11v3h11v8l-11 0.076923v2.923077h11v8h-11v3h11v11h3v-11h12v11h3v-11h13v11h3v-11l11-0.07692v-2.92308h-11v-8h11v-3h-11v-8h11v-3h-11v-11h-3v11h-13v-11h-3v11h-12v-11zm3 14h28v19h-28z" style="fill:#8b9cbe"/>
 </g>
 <circle style="opacity:.2" cx="48" r="16" cy="48"/>
 <circle style="fill:#ff9d04" cx="48" r="16" cy="47"/>
 <path style="fill:#8b9cbe" d="m40 50.436v3.564h3.5638l9.0008-9.0008-3.5638-3.5638zm15.7172-8.5782c0.37696-0.37694 0.37696-0.9709 0-1.34786l-2.2274-2.2274c-0.37696-0.37696-0.97092-0.37696-1.34786 0l-1.862 1.874 3.564 3.564z"/>
</svg>
