<svg xmlns="http://www.w3.org/2000/svg" width="64" height="64" version="1">
 <path style="opacity:0.2" d="m 4.050798,32.000828 c -0.0118,0.33399 -0.050799,0.661981 -0.050799,0.999971 C 3.9999994,48.512357 16.487643,61 31.9992,61 47.510757,61 59.998401,48.512357 59.998401,33.000799 c 0,-0.33767 -0.03904,-0.665261 -0.05078,-0.999971 -0.527985,15.041571 -12.775635,26.999229 -27.949202,26.999229 -15.173967,0 -27.4212171,-11.957658 -27.949202,-26.999229 z"/>
 <rect style="fill:#7c30b0" width="56" height="56" x="4" y="4" rx="27.999" ry="27.999"/>
 <path style="opacity:0.2" d="M 33,9.5 32.537109,10.486328 31.5,10.646484 32.25,11.416016 32.074219,12.5 33,11.986328 33.925781,12.5 33.75,11.416016 34.5,10.646484 33.462891,10.486328 Z m -8.160156,5.501953 c -0.456104,-0.01272 -0.884451,0.02815 -1.169922,0.123047 -1.400477,0.473796 -2.279333,1.493206 -2.765625,3.195312 -0.42013,1.483388 -0.409299,4.153935 0.0293,6.478516 0.07695,0.403896 0.155378,0.770858 0.173828,0.830078 0.02309,0.08352 -0.125374,0.136357 -0.78711,0.285156 -3.234988,0.728794 -5.596722,1.814475 -7.015624,3.226563 -0.637106,0.628615 -0.990641,1.179153 -1.195313,1.873047 -0.14466,0.481336 -0.14466,1.4349 0,1.910156 0.397101,1.30579 1.514544,2.53351 3.28125,3.619141 1.226535,0.747054 1.593193,0.829237 1.990234,0.4375 0.18621,-0.183718 0.228516,-0.270076 0.228516,-0.490235 0,-0.426656 -0.133834,-0.599324 -0.710937,-0.925781 -3.618044,-2.010184 -4.253947,-4.026673 -1.837891,-5.818359 1.226575,-0.907952 2.939629,-1.626358 5.248047,-2.183594 1.011078,-0.242938 1.238281,-0.273157 1.238281,-0.142578 0,0.177599 0.744169,2.526743 1.128906,3.541016 l 0.398438,1.0625 -0.523438,0.99414 c -2.091462,3.985567 -3.434114,8.050109 -3.595703,11.021484 -0.132347,2.289581 0.288684,3.927135 1.310547,4.941407 1.117316,1.103871 2.693512,1.339973 4.71875,0.699219 0.763189,-0.242939 2.278756,-1.002029 3.162109,-1.595704 0.637126,-0.420597 0.77668,-0.545467 0.861328,-0.765625 0.08465,-0.220158 0.08465,-0.290685 0,-0.521484 -0.126204,-0.344677 -0.391846,-0.535156 -0.751953,-0.535156 -0.233923,0 -0.39438,0.07071 -0.996093,0.474609 -1.365024,0.914072 -2.645588,1.484451 -3.708985,1.66211 -1.472701,0.249057 -2.417176,-0.391769 -2.849609,-1.910157 -0.186227,-0.658995 -0.175376,-2.769617 0.0293,-3.861328 0.312411,-1.736985 0.858848,-3.541489 1.640625,-5.439453 0.463204,-1.126591 1.346754,-3.01222 1.466797,-3.136719 0.06,-0.06528 0.13936,0.04123 0.33789,0.492188 1.011099,2.240982 2.556298,4.975318 4.064453,7.1875 3.601279,5.274757 7.543743,8.709216 10.580078,9.201172 l -0.0332,0.0059 c 1.334253,0.212578 2.459049,-0.115216 3.330079,-0.974609 0.709431,-0.712195 1.178665,-1.713553 1.443359,-3.107422 0.161597,-0.871593 0.161597,-3.310023 0,-4.501953 -0.492576,-3.552971 -1.802361,-7.626427 -3.767578,-11.683594 -0.306248,-0.634675 -0.479912,-0.789063 -0.876953,-0.789063 -0.444757,-0.0061 -0.806641,0.331157 -0.806641,0.757813 0,0.148799 0.151907,0.551683 0.404297,1.080078 2.422197,5.094159 3.720239,10.02272 3.58789,13.587891 -0.08155,2.124182 -0.619065,3.400622 -1.634765,3.892578 -0.53405,0.259658 -1.20814,0.254208 -2.097656,-0.03125 C 34.286232,47.80438 28.755589,40.98315 25.191406,32.916016 l -0.355468,-0.804688 0.517578,-0.873047 c 0.583186,-0.989992 2.055715,-3.201383 2.734375,-4.109375 l 0.457031,-0.603515 h 1.203125 c 7.30533,0 14.536095,1.629173 18.371094,4.126953 0.781777,0.510156 1.724652,1.443185 2.007812,1.988281 0.204689,0.379597 0.224609,0.480279 0.224609,0.984375 0,0.493476 -0.01976,0.611905 -0.1875,0.914062 -0.469467,0.889714 -1.707976,1.813683 -3.300781,2.472657 -0.738681,0.308238 -0.9375,0.511043 -0.9375,0.93164 0,0.355297 0.235878,0.651534 0.589844,0.757813 0.229301,0.0653 0.307432,0.05397 0.716797,-0.105469 2.573153,-1.003592 4.335204,-2.563038 4.695312,-4.140625 0.101619,-0.426657 0.09376,-1.228061 -0.0078,-1.642578 -0.192368,-0.813873 -0.876123,-1.856667 -1.664063,-2.556641 -3.510263,-3.108174 -10.958348,-5.112294 -19.794921,-5.320312 l -0.63086,-0.01953 0.738281,-0.81836 c 0.397041,-0.457036 1.105485,-1.215296 1.591797,-1.701172 2.513152,-2.520579 4.847163,-4.169588 6.884766,-4.857422 0.64943,-0.224727 0.779066,-0.25 1.453125,-0.25 0.626342,0 0.776019,0.01959 1.046875,0.15625 0.36781,0.171579 0.781352,0.592418 0.992187,0.990235 0.413985,0.812393 0.554,2.235518 0.355469,3.753906 -0.06618,0.522316 -0.121094,1.125967 -0.121094,1.333985 0,0.350756 0.01212,0.404593 0.216797,0.576171 0.167739,0.154879 0.283002,0.195313 0.5,0.195313 0.349343,0 0.672583,-0.182623 0.769531,-0.431641 0.287781,-0.734994 0.43816,-3.339708 0.251954,-4.4375 -0.289363,-1.685426 -1.02294,-2.823825 -2.189454,-3.375 -2.062128,-0.983992 -5.055389,-0.02314 -8.548828,2.740235 -1.826788,1.446988 -4.231657,3.90197 -5.890625,6.001953 l -0.162109,0.189453 -0.980469,0.05469 c -0.82319,0.04708 -2.163291,0.177609 -3.720703,0.361329 l -0.335937,0.04102 -0.144532,-0.8125 c -0.281618,-1.618687 -0.30664,-1.861409 -0.30664,-3.410156 0,-1.358929 0.01804,-1.620921 0.15039,-2.166016 0.324715,-1.375689 0.968446,-2.230552 1.816407,-2.408203 1.166574,-0.242858 2.615165,0.332305 4.646484,1.820313 0.64943,0.481316 1.438757,0.07169 1.341797,-0.6875 -0.04155,-0.330997 -0.348646,-0.617073 -1.382813,-1.298829 -0.866447,-0.575453 -1.838731,-1.05045 -2.632812,-1.28125 -0.390899,-0.115394 -0.873974,-0.180643 -1.330078,-0.193359 z M 17,18.5 16.537109,19.486328 15.5,19.646484 16.25,20.416016 16.074219,21.5 17,20.986328 17.925781,21.5 17.75,20.416016 18.5,19.646484 17.462891,19.486328 Z m 33,4 -0.462891,0.986328 L 48.5,23.646484 49.25,24.416016 49.074219,25.5 50,24.986328 50.925781,25.5 50.75,24.416016 51.5,23.646484 50.462891,23.486328 Z m -24.107422,4.179688 c 0.29673,-0.01884 0.494141,-0.02239 0.494141,0 0,0.03038 -0.27596,0.451182 -0.619141,0.949218 -0.343182,0.491956 -0.829641,1.215044 -1.082031,1.625 -0.246227,0.397817 -0.487436,0.75936 -0.535156,0.8125 -0.06616,0.06984 -0.163088,-0.120229 -0.457032,-1.044922 C 23.273209,27.746135 23.092624,27.05922 23.146484,27 c 0.06689,-0.06718 1.855904,-0.2638 2.746094,-0.320312 z M 32,31 c -1.104004,0 -2,0.89942 -2,2.001953 C 30,34.104505 30.896014,35 32,35 33.104003,35 34,34.104488 34,33.001953 34,31.899473 33.103986,31 32,31 Z M 13.5,39.5 12.880859,40.816406 11.5,41.027344 l 1,1.02539 L 12.261719,43.5 13.5,42.816406 14.738281,43.5 14.5,42.052734 l 1,-1.02539 -1.380859,-0.210938 z m 36,1 -0.925781,1.974609 L 46.5,42.791016 48,44.328125 47.646484,46.5 49.5,45.474609 51.353516,46.5 51,44.328125 52.5,42.791016 50.425781,42.474609 Z M 31,50.5 30.537109,51.486328 29.5,51.646484 30.25,52.416016 30.074219,53.5 31,52.986328 31.925781,53.5 31.75,52.416016 32.5,51.646484 31.462891,51.486328 Z"/>
 <path style="fill:#8b9cbe" d="M 33 8.5 L 32.537109 9.4863281 L 31.5 9.6464844 L 32.25 10.416016 L 32.074219 11.5 L 33 10.986328 L 33.925781 11.5 L 33.75 10.416016 L 34.5 9.6464844 L 33.462891 9.4863281 L 33 8.5 z M 24.839844 14.001953 C 24.38374 13.989237 23.955393 14.030102 23.669922 14.125 C 22.269445 14.598796 21.390589 15.618206 20.904297 17.320312 C 20.484167 18.8037 20.494998 21.474247 20.933594 23.798828 C 21.010545 24.202724 21.088972 24.569686 21.107422 24.628906 C 21.130511 24.712425 20.982048 24.765263 20.320312 24.914062 C 17.085324 25.642856 14.72359 26.728537 13.304688 28.140625 C 12.667582 28.76924 12.314047 29.319778 12.109375 30.013672 C 11.964715 30.495008 11.964715 31.448572 12.109375 31.923828 C 12.506476 33.229618 13.623919 34.457338 15.390625 35.542969 C 16.61716 36.290023 16.983818 36.372206 17.380859 35.980469 C 17.567069 35.796751 17.609375 35.710393 17.609375 35.490234 C 17.609375 35.063578 17.475541 34.89091 16.898438 34.564453 C 13.280394 32.554269 12.644491 30.53778 15.060547 28.746094 C 16.287122 27.838142 18.000176 27.119736 20.308594 26.5625 C 21.319672 26.319562 21.546875 26.289343 21.546875 26.419922 C 21.546875 26.597521 22.291044 28.946665 22.675781 29.960938 L 23.074219 31.023438 L 22.550781 32.017578 C 20.459319 36.003145 19.116667 40.067687 18.955078 43.039062 C 18.822731 45.328643 19.243762 46.966197 20.265625 47.980469 C 21.382941 49.08434 22.959137 49.320442 24.984375 48.679688 C 25.747564 48.436749 27.263131 47.677659 28.146484 47.083984 C 28.78361 46.663387 28.923164 46.538517 29.007812 46.318359 C 29.092463 46.098201 29.092463 46.027674 29.007812 45.796875 C 28.881608 45.452198 28.615966 45.261719 28.255859 45.261719 C 28.021936 45.261719 27.861479 45.332431 27.259766 45.736328 C 25.894742 46.6504 24.614178 47.220779 23.550781 47.398438 C 22.07808 47.647495 21.133605 47.006669 20.701172 45.488281 C 20.514945 44.829286 20.525796 42.718664 20.730469 41.626953 C 21.04288 39.889968 21.589317 38.085464 22.371094 36.1875 C 22.834298 35.060909 23.717848 33.17528 23.837891 33.050781 C 23.897892 32.985502 23.977251 33.092013 24.175781 33.542969 C 25.18688 35.783951 26.732079 38.518287 28.240234 40.730469 C 31.841513 46.005226 35.783977 49.439685 38.820312 49.931641 L 38.787109 49.9375 C 40.121362 50.150078 41.246158 49.822284 42.117188 48.962891 C 42.826619 48.250696 43.295853 47.249338 43.560547 45.855469 C 43.722144 44.983876 43.722144 42.545446 43.560547 41.353516 C 43.067971 37.800545 41.758186 33.727089 39.792969 29.669922 C 39.486721 29.035247 39.313057 28.880859 38.916016 28.880859 C 38.471259 28.874799 38.109375 29.212016 38.109375 29.638672 C 38.109375 29.787471 38.261282 30.190355 38.513672 30.71875 C 40.935869 35.812909 42.233911 40.74147 42.101562 44.306641 C 42.020013 46.430823 41.482497 47.707263 40.466797 48.199219 C 39.932747 48.458877 39.258657 48.453427 38.369141 48.167969 C 34.286232 46.80438 28.755589 39.98315 25.191406 31.916016 L 24.835938 31.111328 L 25.353516 30.238281 C 25.936702 29.248289 27.409231 27.036898 28.087891 26.128906 L 28.544922 25.525391 L 29.748047 25.525391 C 37.053377 25.525391 44.284142 27.154564 48.119141 29.652344 C 48.900918 30.1625 49.843793 31.095529 50.126953 31.640625 C 50.331642 32.020222 50.351562 32.120904 50.351562 32.625 C 50.351562 33.118476 50.331801 33.236905 50.164062 33.539062 C 49.694595 34.428776 48.456086 35.352745 46.863281 36.011719 C 46.1246 36.319957 45.925781 36.522762 45.925781 36.943359 C 45.925781 37.298656 46.161659 37.594893 46.515625 37.701172 C 46.744926 37.766472 46.823057 37.755142 47.232422 37.595703 C 49.805575 36.592111 51.567626 35.032665 51.927734 33.455078 C 52.029353 33.028421 52.021499 32.227017 51.919922 31.8125 C 51.727554 30.998627 51.043799 29.955833 50.255859 29.255859 C 46.745596 26.147685 39.297511 24.143565 30.460938 23.935547 L 29.830078 23.916016 L 30.568359 23.097656 C 30.9654 22.64062 31.673844 21.88236 32.160156 21.396484 C 34.673308 18.875905 37.007319 17.226896 39.044922 16.539062 C 39.694352 16.314335 39.823988 16.289062 40.498047 16.289062 C 41.124389 16.289062 41.274066 16.308657 41.544922 16.445312 C 41.912732 16.616891 42.326274 17.03773 42.537109 17.435547 C 42.951094 18.24794 43.091109 19.671065 42.892578 21.189453 C 42.826396 21.711769 42.771484 22.31542 42.771484 22.523438 C 42.771484 22.874194 42.783608 22.928031 42.988281 23.099609 C 43.15602 23.254488 43.271283 23.294922 43.488281 23.294922 C 43.837624 23.294922 44.160864 23.112299 44.257812 22.863281 C 44.545593 22.128287 44.695972 19.523573 44.509766 18.425781 C 44.220403 16.740355 43.486826 15.601956 42.320312 15.050781 C 40.258184 14.066789 37.264923 15.027638 33.771484 17.791016 C 31.944696 19.238004 29.539827 21.692986 27.880859 23.792969 L 27.71875 23.982422 L 26.738281 24.037109 C 25.915091 24.084188 24.57499 24.214718 23.017578 24.398438 L 22.681641 24.439453 L 22.537109 23.626953 C 22.255491 22.008266 22.230469 21.765544 22.230469 20.216797 C 22.230469 18.857868 22.248512 18.595876 22.380859 18.050781 C 22.705574 16.675092 23.349305 15.820229 24.197266 15.642578 C 25.36384 15.39972 26.812431 15.974883 28.84375 17.462891 C 29.49318 17.944207 30.282507 17.534585 30.185547 16.775391 C 30.143992 16.444394 29.836901 16.158318 28.802734 15.476562 C 27.936287 14.901109 26.964003 14.426112 26.169922 14.195312 C 25.779023 14.079918 25.295948 14.014669 24.839844 14.001953 z M 17 17.5 L 16.537109 18.486328 L 15.5 18.646484 L 16.25 19.416016 L 16.074219 20.5 L 17 19.986328 L 17.925781 20.5 L 17.75 19.416016 L 18.5 18.646484 L 17.462891 18.486328 L 17 17.5 z M 50 21.5 L 49.537109 22.486328 L 48.5 22.646484 L 49.25 23.416016 L 49.074219 24.5 L 50 23.986328 L 50.925781 24.5 L 50.75 23.416016 L 51.5 22.646484 L 50.462891 22.486328 L 50 21.5 z M 25.892578 25.679688 C 26.189308 25.66085 26.386719 25.657293 26.386719 25.679688 C 26.386719 25.710068 26.110759 26.13087 25.767578 26.628906 C 25.424396 27.120862 24.937937 27.84395 24.685547 28.253906 C 24.43932 28.651723 24.198111 29.013266 24.150391 29.066406 C 24.084227 29.136245 23.987303 28.946177 23.693359 28.021484 C 23.273209 26.746135 23.092624 26.05922 23.146484 26 C 23.213378 25.932815 25.002388 25.7362 25.892578 25.679688 z M 32 30 C 30.895996 30 30 30.89942 30 32.001953 C 30 33.104505 30.896014 34 32 34 C 33.104003 34 34 33.104488 34 32.001953 C 34 30.899473 33.103986 30 32 30 z M 13.5 38.5 L 12.880859 39.816406 L 11.5 40.027344 L 12.5 41.052734 L 12.261719 42.5 L 13.5 41.816406 L 14.738281 42.5 L 14.5 41.052734 L 15.5 40.027344 L 14.119141 39.816406 L 13.5 38.5 z M 49.5 39.5 L 48.574219 41.474609 L 46.5 41.791016 L 48 43.328125 L 47.646484 45.5 L 49.5 44.474609 L 51.353516 45.5 L 51 43.328125 L 52.5 41.791016 L 50.425781 41.474609 L 49.5 39.5 z M 31 49.5 L 30.537109 50.486328 L 29.5 50.646484 L 30.25 51.416016 L 30.074219 52.5 L 31 51.986328 L 31.925781 52.5 L 31.75 51.416016 L 32.5 50.646484 L 31.462891 50.486328 L 31 49.5 z"/>
 <path style="opacity:0.2;fill:#8b9cbe" d="M 32 4.0019531 C 16.488443 4.0019531 4 16.488443 4 32 C 4 32.113553 4.0112846 32.224036 4.0175781 32.335938 C 4.3691113 17.134615 16.711164 5 32 5 C 47.288836 5 59.630889 17.134615 59.982422 32.335938 C 59.988693 32.224116 60 32.113445 60 32 C 60 16.488443 47.511557 4.0019531 32 4.0019531 z"/>
</svg>
