<svg xmlns="http://www.w3.org/2000/svg" width="64" height="64" version="1.1">
 <circle style="opacity:0.2" cx="32" cy="33" r="28"/>
 <circle style="fill:#666f7f" cx="32" cy="32" r="28"/>
 <path style="opacity:0.2" d="m 25.654297,13.970703 c -0.02188,-2.38e-4 -0.04462,0.0019 -0.06641,0.0039 -0.401312,0.03188 -0.674049,0.421222 -0.564453,0.808594 2.25734,7.978914 7.969527,23.816337 8.255859,24.609375 A 8.5,7 0 0 0 30.5,39 8.5,7 0 0 0 22,46 8.5,7 0 0 0 30.5,53 8.5,7 0 0 0 39,46 8.5,7 0 0 0 38.335938,43.306641 c -0.432511,-1.195125 -3.980031,-11.019112 -6.105469,-18.140625 1.599118,0.670982 2.995984,0.44097 4.574219,1.146484 2.028725,0.906902 3.616548,2.040551 4.890624,6.255859 0.213172,0.689591 1.227565,0.551575 1.248047,-0.169921 0.0017,-0.0813 -0.0301,-0.117153 -0.0293,-0.197266 h 0.002 c -7e-4,-0.0022 -0.0011,-0.0036 -0.002,-0.0059 0.04388,-4.591608 -0.918963,-6.891309 -2.902343,-8.625 -2.018887,-1.764728 -4.632172,-2.571677 -7.195313,-3.828124 -2.378271,-1.165822 -4.823137,-3.078306 -6.669922,-5.517579 -0.116956,-0.155464 -0.297715,-0.248653 -0.492187,-0.253906 z"/>
 <path style="fill:#48cc41" d="m 25.653339,12.971127 c -0.02188,-2.38e-4 -0.04376,6.51e-4 -0.06555,0.0027 -0.401312,0.03188 -0.673276,0.422755 -0.56368,0.810127 2.314781,8.181947 8.352075,24.880602 8.352075,24.880602 0.02633,0.07995 0.06821,0.153907 0.123228,0.217608 l 4.02277,4.810949 c 0.45659,0.522011 1.300855,0.0439 1.088034,-0.61616 0,0 -4.122176,-11.349573 -6.378857,-18.910829 1.599118,0.670982 2.995391,0.440578 4.573625,1.146092 2.028725,0.906902 3.615706,2.04038 4.889783,6.255688 0.213171,0.689591 1.227485,0.551082 1.247967,-0.170415 0.0017,-0.0813 -0.02964,-0.116522 -0.02884,-0.196635 h 0.0027 c -7e-4,-0.0022 -0.0018,-0.0029 -0.0027,-0.0052 0.04388,-4.591608 -0.919102,-6.892074 -2.902482,-8.625765 -2.018887,-1.764728 -4.631006,-2.571346 -7.194147,-3.827793 -2.378271,-1.165822 -4.824257,-3.07731 -6.671042,-5.516583 -0.116956,-0.155464 -0.298414,-0.249113 -0.492886,-0.254366 z"/>
 <ellipse style="fill:#48cc41" cx="30.5" cy="45" rx="8.5" ry="7"/>
 <path style="opacity:0.2;fill:#8b9cbe" d="M 25.654297 12.970703 C 25.632417 12.970465 25.609681 12.97256 25.587891 12.974609 C 25.186579 13.006489 24.913842 13.395831 25.023438 13.783203 C 25.059812 13.911776 25.112259 14.07838 25.150391 14.210938 C 25.25583 14.083059 25.405973 13.989061 25.587891 13.974609 C 25.609681 13.972609 25.632417 13.970465 25.654297 13.970703 C 25.848769 13.975956 26.029528 14.069145 26.146484 14.224609 C 27.993269 16.663882 30.438135 18.576366 32.816406 19.742188 C 35.379547 20.998634 37.992832 21.805584 40.011719 23.570312 C 41.902876 25.223391 42.854887 27.41531 42.902344 31.59375 C 42.922772 31.533124 42.941295 31.471174 42.943359 31.398438 C 42.945059 31.317138 42.913264 31.281285 42.914062 31.201172 L 42.916016 31.201172 C 42.915316 31.198972 42.914962 31.197612 42.914062 31.195312 C 42.957943 26.603704 41.995099 24.304003 40.011719 22.570312 C 37.992832 20.805584 35.379547 19.998635 32.816406 18.742188 C 30.438135 17.576366 27.993269 15.663882 26.146484 13.224609 C 26.029528 13.069145 25.848769 12.975956 25.654297 12.970703 z M 32.230469 25.166016 C 34.355907 32.287529 37.903427 42.111516 38.335938 43.306641 A 8.5 7 0 0 1 38.970703 45.546875 A 8.5 7 0 0 0 39 45 A 8.5 7 0 0 0 38.335938 42.306641 C 37.924951 41.170993 34.729422 32.290953 32.585938 25.294922 C 32.467882 25.253894 32.350645 25.216441 32.230469 25.166016 z M 30.5 38 A 8.5 7 0 0 0 22 45 A 8.5 7 0 0 0 22.027344 45.458984 A 8.5 7 0 0 1 30.5 39 A 8.5 7 0 0 1 33.279297 39.392578 C 33.253662 39.321579 32.994914 38.592611 32.888672 38.296875 A 8.5 7 0 0 0 30.5 38 z"/>
 <path style="fill:#8b9cbe;opacity:0.1" d="M 32 4 A 28 28 0 0 0 4 32 A 28 28 0 0 0 4.0214844 32.585938 A 28 28 0 0 1 32 5 A 28 28 0 0 1 59.978516 32.414062 A 28 28 0 0 0 60 32 A 28 28 0 0 0 32 4 z"/>
</svg>
