<svg width="64" height="64" version="1.1" xmlns="http://www.w3.org/2000/svg">
 <rect x="12" y="5" width="40" height="50" rx="3" ry="3" style="opacity:.2"/>
 <rect x="12" y="4" width="40" height="50" rx="3" ry="3" style="fill:#4f4f4f"/>
 <path d="m15.107422 5.0000633c-1.697802-0.0606566-3.107229 1.2991617-3.107422 2.9980469v44c-1.64e-4 1.387691 0.951334 2.594429 2.300781 2.917969l25 6c1.886424 0.451874 3.699355-0.978179 3.699219-2.917969v-44c1.64e-4 -1.387691-0.951334-2.594429-2.300781-2.917969l-25-5.9999996c-0.194112-0.0463074-0.392359-0.0731329-0.591797-0.0800781z" style="opacity:.2"/>
 <path d="m15.107422 4.0000632c-1.697802-0.0606566-3.107229 1.2991617-3.107422 2.9980469v44c-1.64e-4 1.387691 0.951334 2.594429 2.300781 2.917969l25 6c1.886424 0.451874 3.699355-0.978179 3.699219-2.917969v-44c1.64e-4 -1.387691-0.951334-2.594429-2.300781-2.917969l-25-5.9999997c-0.194112-0.0463074-0.392359-0.0731329-0.591797-0.0800781z" style="fill:#1f8ac9"/>
 <circle cx="35" cy="36" r="3" style="opacity:.2"/>
 <circle cx="35" cy="35" r="3" style="fill:#8b9cbe"/>
 <path d="m15.107422 4c-1.697802-0.0606566-3.107229 1.2991617-3.107422 2.9980469v1c1.93e-4 -1.6988852 1.40962-3.0587035 3.107422-2.9980469 0.199438 0.0069452 0.397685 0.0337707 0.591797 0.0800781l25 5.9999999c1.349447 0.32354 2.300945 1.530278 2.300781 2.917969v-1c1.64e-4 -1.387691-0.951334-2.594429-2.300781-2.917969l-25-5.9999999c-0.194112-0.0463074-0.392359-0.0731329-0.591797-0.0800781z" style="fill:#8b9cbe;opacity:.2"/>
</svg>
