<svg width="64" height="64" version="1.1" xmlns="http://www.w3.org/2000/svg">
 <path d="m41 5s-2.208752-0.013788-4.447266 1.1054688c-0.526355 0.2631777-0.977813 0.5247898-1.396484 0.7832031-1.015245-0.3149148-2.070493-0.4882813-3.15625-0.4882813-8.4 0-15 8.7996094-15 18.599609 0 6.730361 11 15.000391 11 16.400391 0 0.327656-0.0022 0.672953 0 1.02539-3.025574-0.869191-5.161504-2.425781-8.599609-2.425781-2.98728 0-4.316911 1.59312-4.914063 3.080078-0.662655-1.391468-1.919209-2.080078-3.486328-2.080078-2.3268 0-4 1.664033-4 4.599609v14c0 0.7756 0.6247906 1.400391 1.4003906 1.400391h5.1992184c0.345813 0 0.655813-0.129532 0.898438-0.335938 0.243827 0.206585 0.556278 0.335938 0.902344 0.335938h33.199218c0.345071 0 0.657762-0.128461 0.902344-0.333984 0.243553 0.205337 0.553616 0.333984 0.898438 0.333984h5.199218c0.7756 0 1.391158-0.624846 1.400391-1.400391v-14c0-3.120606-1.6732-4.599609-4-4.599609-1.552956 0-2.801219 0.755291-3.46875 2.121094-0.588917-1.498613-1.916637-3.121094-4.931641-3.121094-3.438105 0-5.574035 1.55659-8.599609 2.425781 0.0022-0.352437 0-0.697734 0-1.02539 0-1.4 11-9.67003 11-16.400391 0-6.466098-3.918529-13.979751-9.550781-17.105469 1.760958-0.879932 3.550781-0.8945312 3.550781-0.8945312a1.0001 1.0001 0 1 0 0-2z" style="opacity:.2"/>
 <path d="m11 40c-2.3268 0-4 1.664033-4 4.599609v5.400391 8.599609c0 0.7756 0.6247906 1.400391 1.4003906 1.400391h2.5996094 2.599609c0.7756 0 1.391158-0.624846 1.400391-1.400391v-8.599609-5.400391c0-3.120606-1.6732-4.599609-4-4.599609zm42 0c-2.3268 0-4 1.664033-4 4.599609v5.400391 8.599609c0 0.7756 0.624791 1.400391 1.400391 1.400391h2.599609 2.599609c0.7756 0 1.391158-0.624846 1.400391-1.400391v-8.599609-5.400391c0-3.120606-1.6732-4.599609-4-4.599609z" style="fill:#14d014"/>
 <path d="m11 40c-2.3268 0-4 1.664033-4 4.599609v1c0-2.935576 1.6732-4.599609 4-4.599609s4 1.479003 4 4.599609v-1c0-3.120606-1.6732-4.599609-4-4.599609zm42 0c-2.3268 0-4 1.664033-4 4.599609v1c0-2.935576 1.6732-4.599609 4-4.599609s4 1.479003 4 4.599609v-1c0-3.120606-1.6732-4.599609-4-4.599609z" style="fill:#8b9cbe;opacity:.1"/>
 <path d="m32 5.4c-8.4 0-15 8.8-15 18.6 0 6.730361 11 15 11 16.4 0 2.72111-0.2 6.6 4 6.6s4-3.87889 4-6.6c0-1.4 11-9.669639 11-16.4 0-8.4-6.6-18.6-15-18.6z" style="fill:#d2b575"/>
 <path d="m19.4 39c-5.6 0-5.4 5.6-5.4 5.6v14c0 0.7756 0.6244 1.4 1.4 1.4h33.2c0.7756 0 1.407914-0.62444 1.4-1.4v-14s0.2-5.6-5.4-5.6c-4.759084 0-7 3-12.6 3s-7.840916-3-12.6-3z" style="fill:#37e137"/>
 <path d="m36.226562 6.2832031c-1.397567 0.7339643-2.387094 1.4639799-3.02539 2.0390625-0.689688 0.621385-1.035156 1.126953-1.035156 1.1269532a1.0001 1.0001 0 1 0 1.667968 1.1015622s0.147777-0.240076 0.705078-0.7421872c0.557305-0.5021109 1.481374-1.2006478 2.908204-1.9140626 0.330382-0.1651909 0.658054-0.2925194 0.978515-0.4023437-0.705719-0.4720479-1.435619-0.8874107-2.199219-1.2089844zm-12.226562 26.716797s5.2 5 8 5 8-5 8-5-3.8 2-8 2-8-2-8-2z" style="opacity:.1"/>
 <path d="m41 4s-2.208752-0.013788-4.447266 1.1054688c-1.585203 0.7926017-2.661874 1.5954118-3.351562 2.2167968s-1.035156 1.1269532-1.035156 1.1269532a1.0001 1.0001 0 1 0 1.667968 1.1015624s0.147775-0.2400766 0.705078-0.7421874c0.557304-0.5021109 1.481374-1.2006479 2.908204-1.9140626 1.761486-0.880743 3.552734-0.8945312 3.552734-0.8945312a1.0001 1.0001 0 1 0 0-2z" style="fill:#684322"/>
 <path d="m25 15a4 4 0 0 0-4 4 4 4 0 0 0 4 4 4 4 0 0 0 4-4 4 4 0 0 0-4-4zm14 0a4 4 0 0 0-4 4 4 4 0 0 0 4 4 4 4 0 0 0 4-4 4 4 0 0 0-4-4zm-7 4s-3 7.000781-3 9.800781c0 1.319933 0.2 3.199219 3 3.199219s3-1.879286 3-3.199219c0-2.8-3-9.800781-3-9.800781z" style="opacity:.2"/>
 <path d="m32 18s3 7 3 9.8c0 1.319933-0.2 3.2-3 3.2s-3-1.880067-3-3.2c0-2.8 3-9.8 3-9.8z" style="fill:#e7cf9c"/>
 <path d="m25 14a4 4 0 0 0-4 4 4 4 0 0 0 4 4 4 4 0 0 0 4-4 4 4 0 0 0-4-4zm14 0a4 4 0 0 0-4 4 4 4 0 0 0 4 4 4 4 0 0 0 4-4 4 4 0 0 0-4-4z" style="fill-opacity:.98974359;fill:#8b9cbe"/>
 <path d="m32 34c-4.2 0-8-2-8-2s5.2 5 8 5 8-5 8-5-3.8 2-8 2z" style="fill:#e43a31"/>
 <circle cx="25" cy="18" r="2" style="fill-opacity:.98974358;fill:#8b9cbe"/>
 <circle cx="39" cy="18" r="2" style="fill-opacity:.98974358;fill:#8b9cbe"/>
 <path d="m19.400391 39c-5.6 0-5.400391 5.599609-5.400391 5.599609v1s-0.199609-5.599609 5.400391-5.599609c4.759084 0 6.999609 3 12.599609 3s7.840525-3 12.599609-3c5.6 0 5.400391 5.599609 5.400391 5.599609v-1s0.199609-5.599609-5.400391-5.599609c-4.759084 0-6.999609 3-12.599609 3s-7.840525-3-12.599609-3z" style="fill:#8b9cbe;opacity:.2"/>
</svg>
