<svg xmlns="http://www.w3.org/2000/svg" width="64" height="64" version="1">
 <path style="opacity:0.2" d="m 10.94837,12.999988 c -4.3895821,4.42e-4 -7.9479317,3.581905 -7.9483707,8.000001 v 14.999997 8.999999 c 4.39e-4,4.418096 3.5587886,7.99956 7.9483707,8 h 5.961278 c 0.595909,-0.0034 1.189557,-0.07408 1.769755,-0.210936 0.400143,0.0304 0.777603,0.209332 1.179835,0.210936 0.0104,2e-5 0.0207,2e-5 0.03106,0 4.23459,0 8.033528,-1.755172 11.018276,-4.40625 3.351492,2.59119 7.33232,4.40625 11.833279,4.40625 h 0.0118 c 7.076304,-0.0102 13.64322,-3.831924 17.181367,-9.999999 1.886538,-3.29986 1.201504,-7.480676 -1.637879,-9.996092 2.844623,-2.515458 3.531545,-6.701348 1.641603,-10.003905 -3.539295,-6.17007 -10.110531,-9.992043 -17.189129,-10.000001 h -0.0078 c -6.325553,0 -11.754923,3.252078 -15.407691,7.964843 -0.817016,-0.417374 -1.662222,-0.6729 -2.545964,-0.953124 -0.495294,-4.001614 -3.871992,-7.006809 -7.878512,-7.011719 z"/>
 <path style="fill:#4f4f4f" d="m 10.94837,12.000003 c -4.3895821,4.42e-4 -7.9479317,3.581905 -7.9483707,8 v 14.999999 8.999999 c 4.39e-4,4.418096 3.5587886,7.999558 7.9483707,8 h 5.961278 c 0.595909,-0.0034 1.189557,-0.07408 1.769755,-0.210938 0.400143,0.0304 0.777603,0.209334 1.179835,0.210938 0.0104,2e-5 0.0207,2e-5 0.03106,0 4.23459,0 8.033528,-1.755174 11.018276,-4.40625 3.351492,2.59119 7.33232,4.40625 11.833279,4.40625 h 0.0118 c 7.076304,-0.0102 13.64322,-3.831924 17.181367,-9.999999 1.886538,-3.299862 1.201504,-7.480678 -1.637879,-9.996094 2.844623,-2.515458 3.531545,-6.701348 1.641603,-10.003905 -3.539295,-6.170069 -10.110531,-9.992042 -17.189129,-10 h -0.0078 c -6.325553,0 -11.754923,3.252078 -15.407691,7.964844 -0.817016,-0.417375 -1.662222,-0.672902 -2.545964,-0.953125 -0.495294,-4.001614 -3.871992,-7.006809 -7.878512,-7.011719 z"/>
 <path style="opacity:0.2" d="m 10.999999,21.000003 v 23.999998 h 6 v -0.527344 a 8.9999996,8.9999996 0 0 0 2.999999,0.527344 8.9999996,8.9999996 0 0 0 9,-8.999999 8.9999996,8.9999996 0 0 0 -9,-9 8.9999996,8.9999996 0 0 0 -2.999999,0.527344 v -6.527343 z m 31.999998,0 a 11.999999,11.999999 0 0 0 -11.999999,11.999999 11.999999,11.999999 0 0 0 11.999999,11.999999 11.999999,11.999999 0 0 0 10.375,-5.999999 h -10.375 a 5.9999997,5.9999997 0 0 1 -5.999999,-6 5.9999997,5.9999997 0 0 1 5.999999,-6 H 53.378903 A 11.999999,11.999999 0 0 0 42.999997,21.000003 Z M 19.999998,33.000002 a 2.9999998,2.9999998 0 0 1 3,3 2.9999998,2.9999998 0 0 1 -3,3 2.9999998,2.9999998 0 0 1 -2.999999,-3 2.9999998,2.9999998 0 0 1 2.999999,-3 z"/>
 <path style="fill:#74bed2" d="m 10.999999,20.000003 v 14.999999 8.999999 h 6 v -0.527343 a 8.9999996,8.9999996 0 0 0 2.999999,0.527343 8.9999996,8.9999996 0 0 0 9,-8.999999 8.9999996,8.9999996 0 0 0 -9,-9 8.9999996,8.9999996 0 0 0 -2.999999,0.527344 v -6.527343 z m 31.999998,0 a 11.999999,11.999999 0 0 0 -11.999999,11.999999 11.999999,11.999999 0 0 0 11.999999,11.999999 11.999999,11.999999 0 0 0 10.375,-5.999999 h -10.375 a 5.9999997,5.9999997 0 0 1 -5.999999,-6 5.9999997,5.9999997 0 0 1 5.999999,-6 H 53.378903 A 11.999999,11.999999 0 0 0 42.999997,20.000003 Z M 19.999998,32.000002 a 2.9999998,2.9999998 0 0 1 3,3 2.9999998,2.9999998 0 0 1 -3,3 2.9999998,2.9999998 0 0 1 -2.999999,-3 2.9999998,2.9999998 0 0 1 2.999999,-3 z"/>
 <path style="opacity:0.1;fill:#8b9cbe" d="M 10.949219 12 C 6.5596366 12.000442 3.000439 15.581905 3 20 L 3 21 C 3.000439 16.581905 6.5596366 13.000442 10.949219 13 L 16.910156 13 C 20.916676 13.00491 24.293768 16.010105 24.789062 20.011719 C 25.672804 20.291942 26.516968 20.547469 27.333984 20.964844 C 30.986752 16.252078 36.416635 13 42.742188 13 L 42.75 13 C 49.828598 13.007958 56.400158 16.829931 59.939453 23 C 60.569656 24.10124 60.905812 25.300916 60.978516 26.503906 C 61.076142 24.974036 60.744459 23.406698 59.939453 22 C 56.400158 15.829931 49.828598 12.007958 42.75 12 L 42.742188 12 C 36.416635 12 30.986752 15.252078 27.333984 19.964844 C 26.516968 19.547469 25.672804 19.291942 24.789062 19.011719 C 24.293768 15.010105 20.916676 12.00491 16.910156 12 L 10.949219 12 z M 58.8125 32.503906 C 58.649101 32.676802 58.477848 32.843875 58.296875 33.003906 C 59.926427 34.44753 60.841142 36.440639 60.972656 38.5 C 61.10406 36.326909 60.358135 34.142071 58.8125 32.503906 z"/>
</svg>
