<svg xmlns="http://www.w3.org/2000/svg" width="64" height="64" version="1.1">
 <circle style="opacity:0.2" cx="32" cy="33" r="28"/>
 <path style="fill:#fff55d" d="M 60,32 C 60,47.463972 47.463972,60 32,60 24.04778,60 16.86984,56.684916 11.772766,51.361336 6.958015,46.332624 7.7275542,41.332188 7.7275542,33.820434 7.7275542,18.356461 16.362652,8.3343652 31.826626,8.3343652 47.290598,8.3343652 60,16.536027 60,32 Z"/>
 <path style="opacity:0.1" d="m 32,5.000844 c -15.463973,0 -28,12.536027 -28,28 0.00692,7.423412 2.9622358,14.539472 8.214844,19.785156 L 32,33.000844 h 28 c 0,-15.463973 -12.536028,-28 -28,-28 z"/>
 <path style="fill:#4098fe" d="M 60,32 H 32 V 4 c 15.463972,0 28,12.536027 28,28 z"/>
 <path style="fill:#24db65" d="M 32,4 C 16.536027,4 4,16.536027 4,32 4.00692,39.423412 6.9614544,46.540252 12.214062,51.785936 L 32,32 Z"/>
 <path style="fill:#25a068" d="M 32,27.8 12.214062,47.585936 C 7.455747,42.818652 4.575396,36.495858 4.1011718,29.776952 4.0380028,30.516334 4.0042522,31.257936 4,32 4.00692,39.423412 6.9614544,46.540252 12.214062,51.785936 L 32,32 Z"/>
 <path style="fill:#2379e0" d="m 32,26 v 6 h 28 c 0,-2.060914 -0.237584,-4.065838 -0.660156,-6 z"/>
 <path style="opacity:0.2;fill:#8b9cbe" d="M 32 4 A 28 28 0 0 0 4 32 A 28 28 0 0 0 4.0175781 32.492188 A 28 28 0 0 1 32 5 A 28 28 0 0 1 59.974609 32.492188 A 28 28 0 0 0 60 32 A 28 28 0 0 0 32 4 z"/>
</svg>
