<svg xmlns="http://www.w3.org/2000/svg" width="64" height="64" version="1">
 <circle style="opacity:0.2" cx="32" cy="33" r="28"/>
 <path style="fill:#4f4f4f" d="M 60,32 C 60,16.488 47.512,4 32,4 29.224014,4 27.893386,7.2195518 25.365332,7.9651858 15.898145,10.757475 7.2012668,15.578169 4.82029,25.21793 4.2842642,27.388118 4,29.65964 4,32 4,47.512 16.488,60 32,60 33.425028,60 35.069716,57.44277 36.436366,57.239326 46.720528,55.708384 54.89885,51.07679 58.335064,41.5675 59.41286,38.584832 60,35.363504 60,32 Z"/>
 <path style="opacity:0.1;fill:#8b9cbe" d="M 32 4 A 28 28 0 0 0 4 32 A 28 28 0 0 0 4.0175781 32.492188 A 28 28 0 0 1 32 5 A 28 28 0 0 1 59.974609 32.492188 A 28 28 0 0 0 60 32 A 28 28 0 0 0 32 4 z"/>
 <circle style="opacity:0.2" cx="32" cy="33" r="16"/>
 <circle style="fill:#f4d6b6" cx="32" cy="32" r="16"/>
 <path style="opacity:0.2" d="M 32,5 C 23.347648,5 15.620519,8.9315936 10.484375,15.097656 L 6.8789062,11.492188 A 1.6877149,1.6877149 0 0 0 5.6640624,11 1.6877149,1.6877149 0 0 0 4,12.6875 v 14.625 A 1.6877149,1.6877149 0 0 0 5.6875,29 h 14.625 a 1.6877149,1.6877149 0 0 0 1.195312,-2.878906 L 19.050781,23.664062 C 21.956784,19.640396 26.657422,17 32,17 Z"/>
 <path style="fill:#fb4848" d="M 5.6633756,9.9995078 A 1.6877149,1.6877149 0 0 0 4,11.687054 v 14.6254 A 1.6877149,1.6877149 0 0 0 5.6875462,28 H 20.312946 a 1.6877149,1.6877149 0 0 0 1.193148,-2.880694 l -14.6254,-14.6254 A 1.6877149,1.6877149 0 0 0 5.6633756,9.9995078 Z"/>
 <path style="fill:#486afb" d="M 58.336624,53.999834 A 1.6877149,1.6877149 0 0 0 60,52.312288 v -14.6254 A 1.6877149,1.6877149 0 0 0 58.312454,35.999342 H 43.687052 a 1.6877149,1.6877149 0 0 0 -1.193148,2.880694 l 14.6254,14.625402 a 1.6877149,1.6877149 0 0 0 1.21732,0.494396 z"/>
 <circle style="opacity:0.2" cx="32" cy="33" r="6"/>
 <circle style="fill:#8b9cbe" cx="32" cy="32" r="6"/>
 <path style="fill:#486afb" d="M 58.330884,41.545234 C 54.427888,52.309532 44.112046,60 32,60 V 48 c 6.037422,0 11.293824,-3.343942 14.018134,-8.280754 z"/>
 <path style="opacity:0.2;fill:#8b9cbe" d="M 43.6875 36 A 1.6877149 1.6877149 0 0 0 42.082031 38.189453 A 1.6877149 1.6877149 0 0 1 43.6875 37 L 58.3125 37 A 1.6877149 1.6877149 0 0 1 60 38.6875 L 60 37.6875 A 1.6877149 1.6877149 0 0 0 58.3125 36 L 43.6875 36 z"/>
 <path style="fill:#fb4848" d="M 32,4 C 21.083236,4 11.625652,10.24749 7.0075468,19.36217 L 17.069729,26.2359 C 19.383175,20.247584 25.19555,16 32,16 Z"/>
 <path style="opacity:0.2;fill:#8b9cbe" d="M 32,4 C 23.347789,4 15.622473,7.93372 10.486328,14.099609 L 6.8808594,10.494141 C 6.5586103,10.171901 6.1197413,9.9936763 5.6640625,10 4.7412969,10.012933 4.0000269,10.764644 4,11.6875 v 1 C 4.0000269,11.764644 4.7412969,11.012933 5.6640625,11 c 0.4556788,-0.0063 0.8945478,0.171901 1.2167969,0.494141 l 3.6054686,3.605468 C 15.622473,8.93372 23.347789,5 32,5 Z"/>
</svg>
