<svg width="64" height="64" version="1.1" xmlns="http://www.w3.org/2000/svg">
 <circle cx="32" cy="33" r="28" style="opacity:.2"/>
 <circle cx="32" cy="32" r="28" style="fill:#fecd38"/>
 <path d="M 32,4 A 28,28 0 0 0 4,32 28,28 0 0 0 4.0215,32.586 28,28 0 0 1 32,5 28,28 0 0 1 59.979,32.414 28,28 0 0 0 60,32 28,28 0 0 0 32,4 Z" style="fill:#8b9cbe;opacity:.2"/>
 <path d="m32 8a25 25 0 0 0-25 25 25 25 0 0 0 25 25 25 25 0 0 0 25-25 25 25 0 0 0-25-25zm0 2.777344a22.222222 22.222222 0 0 1 22.222656 22.222656 22.222222 22.222222 0 0 1-22.222656 22.222656 22.222222 22.222222 0 0 1-22.222656-22.222656 22.222222 22.222222 0 0 1 22.222656-22.222656zm-10 15.123047c-7.142857 0-10 1.144531-10 1.144531v4.332031s1.427734 8.69e-4 1.427734 1.445313c0 1.444445 1.430246 5.777343 7.144532 5.777343 8.571429 0 7.14174-1.44401 8.570312-5.777343 0.638877-1.937925 1.428851-2.888672 2.857422-2.888672s2.218545 0.950747 2.857422 2.888672c1.428571 4.333333-0.0011 5.777343 8.570312 5.777343 5.714286 0 7.144532-4.332898 7.144532-5.777343 0-1.444444 1.427734-1.445313 1.427734-1.445313v-4.332031s-1.763617-0.567235-5.900391-0.955078l-1.099609 0.910156 1 2-7 4 3-4-2-2 2-1.099609c-4.285714 0-7.142857 1.144531-10 1.144531-2.857142 0-5.714286-1.144531-10-1.144531zm18.234375 16.123047s-0.634215 0.946711-1.574219 1.886718c-0.940007 0.940004-2.159375 1.089844-2.859375 1.089844h-2.800781v3h2.800781c2.1 0 3.677898-0.949379 4.837891-2.109375 1.159996-1.159993 1.925781-2.314454 1.925781-2.314453z" style="opacity:.1"/>
 <path d="m32 7a25 25 0 0 0-25 25 25 25 0 0 0 25 25 25 25 0 0 0 25-25 25 25 0 0 0-25-25zm0 2.7773438a22.222222 22.222222 0 0 1 22.222656 22.222656 22.222222 22.222222 0 0 1-22.222656 22.222656 22.222222 22.222222 0 0 1-22.222656-22.222656 22.222222 22.222222 0 0 1 22.222656-22.222656zm-10 15.123047c-7.142857 0-10 1.144531-10 1.144531v4.332031s1.427734 8.69e-4 1.427734 1.445313c0 1.444445 1.430246 5.777343 7.144532 5.777343 8.571429 0 7.14174-1.44401 8.570312-5.777343 0.638877-1.937925 1.428851-2.888672 2.857422-2.888672s2.218545 0.950747 2.857422 2.888672c1.428571 4.333333-0.001116 5.777343 8.570312 5.777343 5.714286 0 7.144532-4.332898 7.144532-5.777343 0-1.444444 1.427734-1.445313 1.427734-1.445313v-4.332031s-1.763617-0.567235-5.900391-0.955078l-1.099609 0.910156 1 2-7 4 3-4-2-2 2-1.099609c-4.285714 0-7.142857 1.144531-10 1.144531-2.857142 0-5.714286-1.144531-10-1.144531zm18.234375 16.123047s-0.634215 0.946711-1.574219 1.886718c-0.940007 0.940004-2.159375 1.089844-2.859375 1.089844h-2.800781v3h2.800781c2.1 0 3.677898-0.949379 4.837891-2.109375 1.159996-1.159993 1.925781-2.314454 1.925781-2.314453l-2.330078-1.552734z" style="fill:#4f4f4f"/>
</svg>
