<svg xmlns="http://www.w3.org/2000/svg" width="64" height="64" version="1.1">
 <g transform="translate(0,-988.3622)">
  <path style="opacity:0.2" d="m 32,992.3622 -2.666666,3.2 -3.333334,-1.2 -1.583334,3.0418 c -6.141866,1.2638 -10.481626,4.2322 -14.078119,8.9244 C 4.0479734,1014.5354 4,1028.6956 4,1036.6956 c 0,7.9998 14.666666,10.6666 28,10.6666 13.333334,0 28,-2.6668 28,-10.6666 0,-8 -0.048,-22.1602 -6.338546,-30.3672 -3.596494,-4.6924 -7.936254,-7.6606 -14.07812,-8.9246 L 38,994.3622 l -3.333334,1.2 z"/>
  <path style="fill:#3a99e7" d="m 32,991.3622 -2.666666,3.2 -3.333334,-1.2 -1.583334,3.0418 c -6.141866,1.2638 -10.481626,4.2322 -14.078119,8.9244 C 4.0479734,1013.5354 4,1027.6956 4,1035.6956 c 0,7.9998 14.666666,10.6666 28,10.6666 13.333334,0 28,-2.6668 28,-10.6666 0,-8 -0.048,-22.1602 -6.338546,-30.3672 -3.596494,-4.6924 -7.936254,-7.6606 -14.07812,-8.9246 L 38,993.3622 l -3.333334,1.2 z"/>
  <path style="fill:#86572f" d="m 25.388962,1034.539 c 1.36395,2.3624 3.883152,3.8192 6.611038,3.8232 2.727886,0 5.247088,-1.4608 6.611038,-3.8232 l -6.611038,0 z"/>
  <path style="opacity:0.2" d="m 32.000002,1026.3622 c -0.30634,2e-4 -0.602058,0.1276 -0.818968,0.3566 l -6.804868,6.3734 c -0.728164,0.77 -0.345204,3.0472 0.684954,3.0479 l 6.938882,1.2221 6.93888,-1.2221 c 1.030146,-7e-4 1.41312,-2.2779 0.684954,-3.0479 l -6.80487,-6.3734 c -0.21691,-0.2294 -0.512626,-0.3564 -0.818964,-0.3566 z"/>
  <path style="fill:#ffc12e" d="m 32.000002,1025.3622 c -0.30634,2e-4 -0.602058,0.1276 -0.818968,0.3566 l -6.804868,6.3734 c -0.728164,0.77 -0.345204,3.0472 0.684954,3.0479 l 6.938882,1.2221 6.93888,-1.2221 c 1.030146,-7e-4 1.41312,-2.2779 0.684954,-3.0479 l -6.80487,-6.3734 c -0.21691,-0.2294 -0.512626,-0.3564 -0.818964,-0.3566 z"/>
  <ellipse style="opacity:0.6" cx="143.801" cy="998.101" rx="6.109" ry="5.889" transform="matrix(-0.97032493,0.24180473,0.15783338,0.98746576,0,0)"/>
  <ellipse style="opacity:0.76381908;fill:#8b9cbe" cx="804.209" cy="529.168" rx="1.563" ry="2.357" transform="matrix(0.52938519,0.84838159,-0.7724122,0.63512155,0,0)"/>
  <ellipse style="opacity:0.6" cx="207.232" cy="982.568" rx="6.109" ry="5.889" transform="matrix(0.97032493,0.24180473,-0.15783338,0.98746576,0,0)"/>
  <ellipse style="opacity:0.76381908;fill:#8b9cbe" cx="822.144" cy="505.211" rx="1.563" ry="2.357" transform="matrix(0.52938519,0.84838159,-0.7724122,0.63512155,0,0)"/>
  <path style="opacity:0.2;fill:#8b9cbe" transform="translate(0,988.3622)" d="M 32 3 L 29.333984 6.1992188 L 26 5 L 24.416016 8.0410156 C 18.27415 9.3048156 13.934384 12.274597 10.337891 16.966797 C 4.047317 25.173797 4 39.333984 4 47.333984 C 4 47.356591 4.0036724 47.37787 4.0039062 47.400391 C 4.0148405 39.276648 4.2721147 25.880514 10.337891 17.966797 C 13.934384 13.274597 18.27415 10.304816 24.416016 9.0410156 L 26 6 L 29.333984 7.1992188 L 32 4 L 34.666016 7.1992188 L 38 6 L 39.583984 9.0410156 C 45.72585 10.305016 50.065615 13.274397 53.662109 17.966797 C 59.727859 25.880514 59.985158 39.276648 59.996094 47.400391 C 59.996328 47.37787 60 47.356591 60 47.333984 C 60 39.333984 59.952655 25.173797 53.662109 16.966797 C 50.065615 12.274397 45.72585 9.3050156 39.583984 8.0410156 L 38 5 L 34.666016 6.1992188 L 32 3 z"/>
  <path style="opacity:0.2;fill:#8b9cbe" transform="translate(0,988.3622)" d="M 32 37 C 31.69366 37.0002 31.398551 37.128422 31.181641 37.357422 L 24.376953 43.730469 C 24.027186 44.100331 23.937278 44.816863 24.048828 45.462891 C 24.104158 45.170716 24.208704 44.908385 24.376953 44.730469 L 31.181641 38.357422 C 31.398551 38.128422 31.69366 38.0002 32 38 C 32.306338 38.0002 32.601449 38.128022 32.818359 38.357422 L 39.623047 44.730469 C 39.791297 44.908385 39.895843 45.170716 39.951172 45.462891 C 40.062724 44.816863 39.972815 44.100331 39.623047 43.730469 L 32.818359 37.357422 C 32.601449 37.128022 32.306338 37.0002 32 37 z"/>
 </g>
</svg>
