<svg xmlns="http://www.w3.org/2000/svg" width="64" height="64" version="1.1">
 <circle style="opacity:0.2" cx="32" cy="33" r="28"/>
 <circle style="fill:#17191e" cx="32" cy="32" r="28"/>
 <path style="opacity:0.1;fill:#8b9cbe" d="M 32,4 A 28,28 0 0 0 20,6.7226562 V 57.238282 A 28,28 0 0 0 32,60 28,28 0 0 0 60,32 28,28 0 0 0 32,4 Z"/>
 <path style="opacity:0.2" d="M 21.608832,17.000434 A 1.5719892,1.5797435 0 0 0 20,18.578977 v 14.422749 14.420498 a 1.5719892,1.5797435 0 0 0 2.356188,1.36717 l 12.42762,-7.209126 12.429858,-7.211372 a 1.5719892,1.5797435 0 0 0 0,-2.73659 L 34.783808,24.423182 22.356188,17.211808 a 1.5719892,1.5797435 0 0 0 -0.747356,-0.211374 z"/>
 <path style="fill:#ffa119" d="M 21.608832,16.000434 A 1.5719892,1.5797435 0 0 0 20,17.578977 v 14.422749 14.420498 a 1.5719892,1.5797435 0 0 0 2.356188,1.36717 l 12.42762,-7.209126 12.429858,-7.211372 a 1.5719892,1.5797435 0 0 0 0,-2.73659 L 34.783808,23.423182 22.356188,16.211808 a 1.5719892,1.5797435 0 0 0 -0.747356,-0.211374 z"/>
 <rect style="fill:#313131" width="6" height="6" x="24" y="11" rx="1.5" ry="1.5"/>
 <rect style="fill:#313131" width="6" height="6" x="24" y="29" rx="1.5" ry="1.5"/>
 <rect style="fill:#313131" width="6" height="6" x="24" y="38" rx="1.5" ry="1.5"/>
 <rect style="fill:#313131" width="6" height="6" x="24" y="47" rx="1.5" ry="1.5"/>
 <path style="opacity:0.2;fill:#8b9cbe" d="M 21.609375 16 A 1.5719892 1.5797435 0 0 0 20 17.578125 L 20 18.578125 A 1.5719892 1.5797435 0 0 1 21.609375 17 A 1.5719892 1.5797435 0 0 1 22.355469 17.210938 L 34.785156 24.421875 L 47.214844 31.632812 A 1.5719892 1.5797435 0 0 1 47.916016 32.498047 A 1.5719892 1.5797435 0 0 0 47.214844 30.632812 L 34.785156 23.421875 L 22.355469 16.210938 A 1.5719892 1.5797435 0 0 0 21.609375 16 z"/>
 <rect style="fill:#313131" width="6" height="6" x="24" y="20" rx="1.5" ry="1.5"/>
 <path style="opacity:0.1;fill:#8b9cbe" d="M 32 4 A 28 28 0 0 0 4 32 A 28 28 0 0 0 4.0175781 32.492188 A 28 28 0 0 1 32 5 A 28 28 0 0 1 59.974609 32.492188 A 28 28 0 0 0 60 32 A 28 28 0 0 0 32 4 z"/>
</svg>
