<svg xmlns="http://www.w3.org/2000/svg" width="64" height="64" version="1.1">
 <rect style="opacity:0.2" width="56" height="56" x="4" y="5" rx="4.2" ry="4.2"/>
 <rect style="fill:#6f6f6f" width="56" height="56" x="4" y="4" rx="4.2" ry="4.2"/>
 <path style="fill:#17191e" d="m 23.320284,59.885078 c 1.255046,-3.301044 2.640248,-6.755838 2.103338,-10.363606 -0.172094,-2.02824 -6.247899,-4.017128 -8.297634,-3.834842 2.781946,-2.720512 1.611447,-12.81127 0.340025,-18.798892 -0.749441,-2.694582 1.420839,-4.549372 2.504402,-7.035318 -0.08196,-2.150131 2.664679,-3.062759 3.097881,-1.467567 1.648154,-1.105671 3.832554,-3.828696 5.699844,-1.593273 1.992462,1.111284 3.717902,1.77912 5.994734,1.273099 2.28165,-1.063286 4.731222,-2.208829 6.690106,-3.861424 2.026284,-1.644425 4.11137,-3.265141 5.73929,-5.3346516 1.063534,-0.6237328 1.797866,-2.9586872 2.544034,-3.0678588 -0.375066,2.3200768 -1.178962,4.5881384 -2.080892,6.7499524 -1.300034,2.432379 -4.067386,3.001866 -6.018566,4.745192 -0.218004,2.062878 2.606152,-1.278307 3.825472,-0.871353 2.197558,-0.550117 3.761832,-2.283869 5.798916,-3.37497 C 52.9409,11.145067 55.36104,10.032305 56.677112,7.7839842 58.079716,6.2211596 56.230884,9.847244 56.1011,10.51393 c -1.064528,2.046934 -1.950316,3.805286 -3.329344,5.661912 -1.048762,2.113945 -3.377448,3.65355 -5.734612,3.783561 -1.26235,0.240069 -3.52469,0.149982 -4.14057,1.075517 2.292034,0.683336 4.622056,-0.09082 6.858406,-0.625358 2.051918,-0.746592 3.86486,1.075874 1.863628,2.74768 -0.739072,3.073364 -4.019628,2.03006 -6.324612,2.394372 -2.659368,0.328646 0.832822,2.704736 2.46444,2.068874 3.525794,-1.029176 0.39859,3.224646 -1.546348,2.161104 -3.037606,-1.95332 -2.014812,2.42307 -2.12481,4.111548 0.332844,1.738326 -1.061412,6.673678 1.99462,6.073316 1.195582,-0.334938 4.527538,0.17918 1.954824,1.408038 -1.389018,0.634844 -1.411734,3.28577 -3.276772,1.776916 -2.46833,-0.503912 1.04649,2.205866 -1.246654,2.718134 -3.27152,1.549758 -2.098212,4.294042 -3.36479,7.577374 -0.45826,2.253212 -1.978514,4.235586 -2.08257,6.545154 -4.914254,-0.03514 -9.836704,0.0914 -14.745652,-0.10698 z"/>
 <path style="opacity:0.2" d="M 49.736328 5.8007812 C 48.99016 5.9099528 48.25494 8.2454078 47.191406 8.8691406 C 45.563486 10.938651 43.479409 12.5587 41.453125 14.203125 C 39.494241 15.85572 37.045322 17.001167 34.763672 18.064453 C 32.48684 18.570474 30.76004 17.9023 28.767578 16.791016 C 26.900288 14.555593 24.716513 17.279095 23.068359 18.384766 C 22.635157 16.789574 19.888743 17.701431 19.970703 19.851562 C 18.970062 22.147267 17.048529 23.907524 17.349609 26.285156 C 17.588534 24.385793 19.115343 22.813958 19.970703 20.851562 C 19.888743 18.701431 22.635157 17.789574 23.068359 19.384766 C 24.716513 18.279095 26.900288 15.555593 28.767578 17.791016 C 30.76004 18.9023 32.48684 19.570474 34.763672 19.064453 C 37.045322 18.001167 39.494241 16.85572 41.453125 15.203125 C 43.479409 13.5587 45.563486 11.938651 47.191406 9.8691406 C 48.145153 9.3097951 48.83565 7.3864352 49.505859 6.9140625 C 49.587111 6.543397 49.675933 6.1743706 49.736328 5.8007812 z M 57.15625 7.3984375 C 57.089114 7.3803339 56.940723 7.4901735 56.677734 7.7832031 C 55.361662 10.031524 52.941385 11.144329 51.261719 13.048828 C 49.224635 14.139929 47.660449 15.873711 45.462891 16.423828 C 44.591225 16.132905 42.91385 17.73329 42.099609 17.929688 C 41.943753 18.04938 41.784232 18.163123 41.636719 18.294922 C 41.418715 20.3578 44.243571 17.016874 45.462891 17.423828 C 47.660449 16.873711 49.224635 15.139929 51.261719 14.048828 C 52.941385 12.144329 55.361662 11.031524 56.677734 8.7832031 C 56.74666 8.706404 56.774313 8.6952832 56.828125 8.6425781 C 57.086447 8.0014292 57.291348 7.4348674 57.15625 7.3984375 z M 50.861328 20.242188 C 50.516963 20.219464 50.140594 20.27017 49.755859 20.410156 C 48.031187 20.822392 46.250316 21.370215 44.474609 21.289062 C 43.779511 21.417189 43.171225 21.622281 42.896484 22.035156 C 45.188518 22.718492 47.519509 21.944694 49.755859 21.410156 C 50.944761 20.977573 52.045898 21.408542 52.378906 22.171875 C 52.770362 21.171656 51.991458 20.31676 50.861328 20.242188 z M 44.679688 26.714844 C 43.34122 27.337325 46.292264 29.192237 47.757812 28.621094 C 48.467208 28.414022 48.898253 28.426226 49.132812 28.560547 C 49.592944 27.815062 49.406961 27.139709 47.757812 27.621094 C 46.832048 27.981876 45.339903 27.369194 44.679688 26.714844 z M 44.027344 31.943359 C 43.984126 32.948815 44.135392 34.163431 44.087891 34.892578 C 44.11221 35.019588 44.110852 35.193825 44.119141 35.351562 C 44.144587 34.782996 44.158034 34.25891 44.087891 33.892578 C 44.120138 33.39758 44.058965 32.673173 44.027344 31.943359 z M 44.0625 37.664062 C 43.997103 39.506451 44.146351 41.347064 46.082031 40.966797 C 46.696195 40.794741 47.863961 40.849584 48.515625 41.107422 C 50.102362 40.073927 47.186326 39.657433 46.082031 39.966797 C 44.503129 40.276975 44.117502 39.104841 44.0625 37.664062 z M 18.822266 39.095703 C 18.772413 42.035213 18.309758 44.530815 17.126953 45.6875 C 17.311646 45.671075 17.55993 45.691713 17.802734 45.708984 C 18.584714 44.192352 18.85767 41.788743 18.822266 39.095703 z M 44.064453 44.113281 C 43.587153 44.232813 43.975359 44.849259 44.199219 45.478516 C 44.458757 45.107676 44.260258 44.581145 44.064453 44.113281 z M 25.515625 51.603516 C 25.409297 54.463133 24.331754 57.224456 23.320312 59.884766 C 23.443298 59.889736 23.566451 59.889961 23.689453 59.894531 C 24.698828 57.227275 25.652765 54.467387 25.515625 51.603516 z"/>
 <ellipse id="ellipse865" style="opacity:0.2" cx="25.03" cy="30" rx="2.97" ry="4"/>
 <ellipse style="fill:#456ef0" cx="25.03" cy="29" rx="2.97" ry="4"/>
 <path style="opacity:0.5979996;fill:#113ecd" d="M 22.677038,26.567708 A 2.9704102,3.9999996 0 0 0 22.059168,29 a 2.9704102,3.9999996 0 0 0 1.395282,3.38802 3.7130128,3.333333 0 0 0 1.57513,-2.721354 3.7130128,3.333333 0 0 0 -2.352542,-3.098958 z"/>
 <path id="ellipse1023" style="fill:#8b9cbe" d="m 25.02958,25 a 2.9704102,3.9999996 0 0 0 -1.644748,0.674478 2.9704102,3.9999996 0 0 1 0.15956,-0.0078 2.9704102,3.9999996 0 0 1 2.97041,4 A 2.9704102,3.9999996 0 0 1 25.18914,32.9922 2.9704102,3.9999996 0 0 0 28,29.000002 a 2.9704102,3.9999996 0 0 0 -2.97041,-4 z"/>
 <path style="opacity:0.2" d="M 17.695488,25 C 8.8549706,29.370138 3.8996448,41.879706 6.857657,51.23116 7.1222214,51.888174 7.456001,52.508082 8.0637884,53 9.620853,52.057918 10.241387,50.397816 11.545323,49.27829 c 0.636114,-0.539972 1.379343,-0.933492 2.282869,-0.886788 2.602549,-0.15922 4.550651,-0.997234 6.440928,-1.645886 1.08338,-0.575088 2.255722,-0.982464 3.346992,-1.618822 2.016342,-0.933998 3.405226,-3.54162 1.42393,-4.16406 -0.456634,-0.1242 -1.035598,-0.03916 -1.503286,-0.225468 -2.317392,-1.451184 -4.034637,-5.108726 -4.631485,-7.574448 -0.645165,-2.654898 -1.881181,-5.53399 -1.371907,-7.93693 z"/>
 <path style="fill:#2e2e2e" d="m 22.046388,28.303392 c -0.112,0.424832 0.0142,0.789548 0.0128,1.240358 0.0013,0.450808 0.05914,0.898082 0.17114,1.322916 0.748382,-0.07794 1.3132,-0.646564 1.314068,-1.322916 -8.68e-4,-0.676354 -0.749612,-1.16242 -1.497988,-1.240358 z"/>
 <path style="fill:#eba420" d="M 17.695488,24 C 8.8549706,28.370138 3.8996448,40.879706 6.857657,50.23116 7.1222214,50.888174 7.456001,51.508082 8.0637884,52 9.620853,51.057918 10.241387,49.397816 11.545323,48.27829 c 0.636114,-0.539972 1.379343,-0.933492 2.282869,-0.886788 2.602549,-0.15922 4.550651,-0.997234 6.440928,-1.645886 1.08338,-0.575088 2.255722,-0.982464 3.346992,-1.618822 2.016342,-0.933998 3.405226,-3.54162 1.42393,-4.16406 -0.456634,-0.1242 -1.035598,-0.03916 -1.503286,-0.225468 -2.317392,-1.451184 -4.034637,-5.108726 -4.631485,-7.574448 -0.645165,-2.654898 -1.881181,-5.53399 -1.371907,-7.93693 z"/>
 <path style="opacity:0.1;fill:#8b9cbe" d="M 8.1992188 4 C 5.8724187 4 4 5.8724187 4 8.1992188 L 4 9.1992188 C 4 6.8724188 5.8724187 5 8.1992188 5 L 55.800781 5 C 58.127581 5 60 6.8724188 60 9.1992188 L 60 8.1992188 C 60 5.8724187 58.127581 4 55.800781 4 L 8.1992188 4 z"/>
 <path style="opacity:0.3" d="m 16.545251,30.650478 c -0.606335,0.606334 -2.770608,1.787546 -3.376943,1.181214 -0.606333,-0.606336 0.57488,-2.770608 1.181214,-3.376942 0.606334,-0.606334 1.589394,-0.606334 2.195729,0 0.606332,0.606334 0.606332,1.589394 0,2.195728 z"/>
 <path style="opacity:0.2" d="M 15.447266 28 C 15.049917 28 14.652776 28.151911 14.349609 28.455078 C 13.771604 29.033084 12.673963 31.024076 13.097656 31.734375 C 13.332694 30.882723 13.958206 29.846482 14.349609 29.455078 C 14.955943 28.848744 15.938587 28.848744 16.544922 29.455078 C 16.718734 29.628891 16.837948 29.834756 16.912109 30.052734 C 17.096656 29.510308 16.977442 28.8876 16.544922 28.455078 C 16.241754 28.151911 15.844614 28 15.447266 28 z"/>
 <path style="fill:#8b9cbe;opacity:0.2" d="M 17.695312 24 C 10.411056 27.600831 5.7769686 36.725657 6.0214844 45.058594 C 6.1561348 37.114254 10.583786 28.69059 17.419922 25.146484 C 17.43367 24.833285 17.469677 24.526303 17.533203 24.226562 L 17.695312 24 z M 17.439453 25.994141 C 17.285968 28.229005 18.326274 30.783504 18.904297 33.162109 C 19.501145 35.627831 21.219717 39.285144 23.537109 40.736328 C 24.004797 40.922636 24.584382 40.838691 25.041016 40.962891 C 25.496113 41.105863 25.765727 41.355952 25.898438 41.664062 C 26.11438 40.919498 25.926459 40.24106 25.041016 39.962891 C 24.584382 39.838691 24.004797 39.922636 23.537109 39.736328 C 21.219717 38.285144 19.501145 34.627831 18.904297 32.162109 C 18.411043 30.132336 17.579441 27.973029 17.439453 25.994141 z"/>
 <path style="opacity:0.1;fill:#8b9cbe" d="M 49.736328 6.8007812 C 49.659302 6.8120509 49.583008 6.8596868 49.505859 6.9140625 C 49.082518 8.8453162 48.412947 10.737072 47.65625 12.550781 C 46.356216 14.98316 43.587899 15.551596 41.636719 17.294922 C 41.574561 17.883092 41.774859 18.008018 42.099609 17.929688 C 44.00529 16.466187 46.454501 15.799267 47.65625 13.550781 C 48.55818 11.388967 49.361262 9.1208582 49.736328 6.8007812 z M 57.15625 8.3984375 C 57.106709 8.3850786 56.979634 8.4941852 56.828125 8.6425781 C 56.530173 9.3820891 56.158045 10.223535 56.101562 10.513672 C 55.037034 12.560606 54.150512 14.319155 52.771484 16.175781 C 51.722722 18.289726 49.394273 19.828973 47.037109 19.958984 C 45.774759 20.199053 43.512364 20.109621 42.896484 21.035156 C 43.420903 21.191504 43.947791 21.264986 44.474609 21.289062 C 45.337699 21.12997 46.337886 21.09196 47.037109 20.958984 C 49.394273 20.828973 51.722722 19.289726 52.771484 17.175781 C 54.150512 15.319155 55.037035 13.560606 56.101562 11.513672 C 56.207012 10.971989 57.447173 8.4768863 57.15625 8.3984375 z M 52.378906 22.171875 C 52.253476 22.492366 52.013715 22.82858 51.619141 23.158203 C 50.880069 26.231567 47.599906 25.186469 45.294922 25.550781 C 44.144454 25.692957 44.176302 26.215931 44.679688 26.714844 C 44.831356 26.644307 45.024247 26.584231 45.294922 26.550781 C 47.599906 26.186469 50.880069 27.231567 51.619141 24.158203 C 52.460839 23.455058 52.620635 22.725973 52.378906 22.171875 z M 17.349609 26.285156 C 17.285866 26.791891 17.308961 27.321181 17.466797 27.888672 C 18.137346 31.046549 18.772869 35.338353 18.822266 39.095703 C 18.889666 35.121515 18.197646 30.330526 17.466797 26.888672 C 17.409445 26.682464 17.374559 26.482187 17.349609 26.285156 z M 49.132812 28.560547 C 48.609206 29.408869 47.248107 30.347333 46.212891 29.78125 C 44.065796 28.400569 43.951103 30.183718 44.027344 31.943359 C 44.084205 30.620493 44.487036 29.671446 46.212891 30.78125 C 47.766504 31.630806 50.064048 29.093821 49.132812 28.560547 z M 44.119141 35.351562 C 44.086224 36.087058 44.033478 36.903838 44.0625 37.664062 C 44.092807 36.810232 44.152441 35.985281 44.119141 35.351562 z M 48.515625 41.107422 C 48.384457 41.192856 48.233546 41.281172 48.037109 41.375 C 46.648091 42.009844 46.624804 44.661198 44.759766 43.152344 C 43.535703 42.90245 43.783707 43.442454 44.064453 44.113281 C 44.208565 44.077191 44.425769 44.084158 44.759766 44.152344 C 46.624804 45.661198 46.648091 43.009844 48.037109 42.375 C 49.288235 41.777399 49.132544 41.351513 48.515625 41.107422 z M 44.199219 45.478516 C 44.080486 45.648166 43.876506 45.788087 43.513672 45.869141 C 40.242152 47.418899 41.415016 50.163934 40.148438 53.447266 C 39.690176 55.700478 38.170462 57.682619 38.066406 59.992188 C 33.275271 59.957928 28.476062 60.072366 23.689453 59.894531 C 23.676188 59.929584 23.663569 59.964847 23.650391 60 L 38.201172 60 C 38.59828 58.099011 39.757192 56.370972 40.148438 54.447266 C 41.415014 51.163934 40.242152 48.418899 43.513672 46.869141 C 44.468835 46.655766 44.407281 46.063364 44.199219 45.478516 z M 17.802734 45.708984 C 17.607057 46.088496 17.390098 46.430166 17.126953 46.6875 C 19.176688 46.505214 25.251734 48.493244 25.423828 50.521484 C 25.477788 50.884069 25.49841 51.244022 25.515625 51.603516 C 25.541234 50.914779 25.528043 50.221754 25.423828 49.521484 C 25.267241 47.676 20.254589 45.883389 17.802734 45.708984 z"/>
</svg>
