<svg xmlns="http://www.w3.org/2000/svg" width="64" height="64" version="1">
 <rect style="opacity:0.2" width="56" height="50" x="3" y="6" rx="4.2" ry="4.167"/>
 <rect style="fill:#635d4c" width="56" height="50" x="3" y="5" rx="4.2" ry="4.167"/>
 <path style="opacity:0.2" d="m 55.015624,30.007812 c -0.458832,-0.04278 -0.699218,0.09374 -0.699218,0.09374 l -4.242188,3.09375 -4.277342,3.140626 L 27.804688,49.808584 24.800782,56.296866 23,60 l 4.121094,-0.625 6.855468,-1.230468 18.179688,-13.359376 4.265626,-3.15625 4.242186,-3.09375 c 0,0 1.42696,-1.329078 -1.601562,-5.359374 0,0 -0.004,-0.004 -0.004,-0.004 -0.002,-0.0028 -0.0056,-0.0048 -0.0078,-0.0078 -1.896528,-2.516124 -3.270436,-3.084942 -4.035158,-3.15625 z"/>
 <path style="opacity:0.2" d="m 9.75,14 c -0.174808,0.0031 -0.3443388,0.06231 -0.4765624,0.164062 -0.01012,0.0073 -0.021574,0.01176 -0.03125,0.01954 -0.00868,0.0074 -0.01516,0.0157 -0.023438,0.02344 0,0 -0.0039,0.0039 -0.0039,0.0039 -0.01632,0.01444 -0.032112,0.03116 -0.046874,0.04687 0,0 0,0.0039 0,0.0039 -0.134806,0.147956 -0.19123,0.339461 -0.15625,0.527344 v 6.54688 C 9.0130044,21.70366 9.3482912,22.001074 9.7617188,22 H 14.25 c 0.413435,0.0011 0.748724,-0.296334 0.75,-0.664062 v -6.65625 C 15.0011,14.310491 14.665084,14.01064 14.25,14.011719 H 9.8789062 C 9.8355302,14.004499 9.794126,14.00032 9.75,14 Z m 10,0 c -0.1748,0.0031 -0.344338,0.06231 -0.476562,0.164062 -0.0102,0.0073 -0.02156,0.01176 -0.03126,0.01954 -0.0086,0.0074 -0.0152,0.0157 -0.02344,0.02344 0,0 -0.004,0.0039 -0.004,0.0039 -0.0164,0.01444 -0.03212,0.03116 -0.04688,0.04687 0,0 0,0.0039 0,0.0039 -0.1348,0.147956 -0.191232,0.339461 -0.15626,0.527344 v 6.546876 c 0.0013,0.367722 0.336574,0.665136 0.75,0.664062 H 24.25 c 0.413436,0.0011 0.748726,-0.296334 0.75,-0.664062 v -6.656246 c 0.001,-0.369197 -0.334916,-0.669048 -0.75,-0.667969 H 19.878906 C 19.835526,14.004499 19.79412,14.00032 19.75,14 Z m 10.234376,0 A 1.0001,0.99636488 0 0 0 29,15.011719 v 5.976563 a 1.0001,0.99636488 0 1 0 2,0 V 15.011719 A 1.0001,0.99636488 0 0 0 29.984376,14 Z M 35.75,14 c -0.1748,0.0031 -0.344338,0.06231 -0.476562,0.164062 -0.0102,0.0073 -0.02156,0.01176 -0.03126,0.01954 -0.0086,0.0074 -0.0152,0.0157 -0.02344,0.02344 0,0 -0.004,0.0039 -0.004,0.0039 -0.0164,0.01444 -0.03212,0.03116 -0.04688,0.04687 0,0 0,0.0039 0,0.0039 -0.1348,0.147956 -0.19124,0.339461 -0.15626,0.527344 v 6.546876 c 0.0013,0.367722 0.336574,0.665138 0.75,0.664062 H 40.25 c 0.413436,0.0011 0.748724,-0.296334 0.75,-0.664062 v -6.656246 c 10e-4,-0.369197 -0.334916,-0.669048 -0.75,-0.667969 H 35.878906 C 35.835526,14.004499 35.79412,14.00032 35.75,14 Z m 10.234376,0 A 1.0001,0.99636488 0 0 0 45,15.011719 v 5.976563 a 1.0001,0.99636488 0 1 0 2,0 V 15.011719 A 1.0001,0.99636488 0 0 0 45.984376,14 Z M 11,16 h 2 v 4 h -2 z m 10,0 h 2 v 4 h -2 z m 16,0 h 2 v 4 H 37 Z M 9.75,26 c -0.1748,0.003 -0.3443384,0.06232 -0.4765624,0.16406 -0.0102,0.0074 -0.02157,0.0118 -0.03125,0.0196 -0.0086,0.0074 -0.01518,0.0156 -0.023438,0.02344 0,0 -0.0039,0.004 -0.0039,0.004 -0.0164,0.0144 -0.032116,0.03116 -0.046874,0.04688 0,0 0,0.004 0,0.004 -0.1348,0.14796 -0.191232,0.33946 -0.15625,0.527344 V 33.3362 c 0.00129,0.367722 0.336574,0.665136 0.75,0.664062 H 14.25 c 0.413436,8.12e-4 0.748726,-0.296596 0.75,-0.664324 v -6.65625 c 10e-4,-0.369198 -0.334916,-0.66905 -0.75,-0.66797 H 9.8789062 C 9.8355262,26.004518 9.79412,26.0004 9.75,26 Z m 10.234376,0 A 1.0001,0.99636488 0 0 0 19,27.011718 v 5.976564 a 1.0001,0.99636488 0 1 0 2,0 V 27.011718 A 1.0001,0.99636488 0 0 0 19.984376,26 Z M 25.75,26 c -0.1748,0.003 -0.344338,0.06232 -0.476562,0.16406 -0.0102,0.0074 -0.02156,0.0118 -0.03126,0.0196 -0.0086,0.0074 -0.0152,0.0156 -0.02344,0.02344 0,0 -0.004,0.004 -0.004,0.004 -0.0164,0.0144 -0.03212,0.03116 -0.04688,0.04688 0,0 0,0.004 0,0.004 -0.1348,0.14796 -0.19122,0.33946 -0.15626,0.527344 V 33.3362 c 0.0013,0.367722 0.336574,0.665136 0.75,0.664062 H 30.25 c 0.413436,0.0011 0.748726,-0.296334 0.75,-0.664062 V 26.67995 C 31.0011,26.310752 30.665084,26.0109 30.25,26.01198 H 25.878906 C 25.835526,26.004518 25.79412,26.0004 25.75,26 Z m 10,0 c -0.1748,0.003 -0.344338,0.06232 -0.476562,0.16406 -0.0102,0.0074 -0.02156,0.0118 -0.03126,0.0196 -0.0086,0.0074 -0.0152,0.0156 -0.02344,0.02344 0,0 -0.004,0.004 -0.004,0.004 -0.0164,0.0144 -0.03212,0.03116 -0.04688,0.04688 0,0 0,0.004 0,0.004 -0.1348,0.14796 -0.19124,0.33946 -0.15626,0.527344 V 33.3362 c 0.0013,0.367722 0.336574,0.665136 0.75,0.664062 H 40.25 c 0.413436,0.0011 0.748726,-0.296334 0.75,-0.664062 V 26.67995 C 41.001,26.310752 40.665084,26.0109 40.25,26.01198 H 35.878906 C 35.835526,26.004518 35.79412,26.0004 35.75,26 Z m 10,0 c -0.1748,0.003 -0.344338,0.06232 -0.476562,0.16406 -0.0102,0.0074 -0.02156,0.0118 -0.03126,0.0196 -0.0086,0.0074 -0.0152,0.0156 -0.02344,0.02344 0,0 -0.004,0.004 -0.004,0.004 -0.0164,0.0144 -0.03212,0.03116 -0.04688,0.04688 0,0 0,0.004 0,0.004 -0.1348,0.14796 -0.19124,0.33946 -0.15626,0.527344 V 33.3362 c 0.0013,0.367722 0.336574,0.665136 0.75,0.664062 H 50.25 c 0.413436,0.0011 0.748726,-0.296334 0.75,-0.664062 V 26.67995 C 51.0011,26.310752 50.665084,26.0109 50.25,26.01198 H 45.878906 C 45.835526,26.004518 45.79412,26.0004 45.75,26 Z M 11,28 h 2 v 4 h -2 z m 16,0 h 2 v 4 h -2 z m 10,0 h 2 v 4 h -2 z m 10,0 h 2 v 4 H 47 Z M 9.75,38 c -0.1748,0.003 -0.3443384,0.06232 -0.4765624,0.16406 -0.0102,0.0074 -0.02157,0.0118 -0.03125,0.0196 -0.0086,0.0074 -0.01518,0.0156 -0.023438,0.02344 0,0 -0.0039,0.004 -0.0039,0.004 -0.0164,0.0144 -0.032116,0.03116 -0.046874,0.04688 0,0 0,0.004 0,0.004 -0.1348,0.14796 -0.191232,0.33946 -0.15625,0.527344 V 45.3362 c 0.00129,0.367722 0.336574,0.665136 0.75,0.664062 H 14.25 c 0.413436,8.12e-4 0.748726,-0.296596 0.75,-0.664324 v -6.65625 c 10e-4,-0.369198 -0.334916,-0.66905 -0.75,-0.66797 H 9.8789062 C 9.8355262,38.004518 9.79412,38.0004 9.75,38 Z m 10.234376,0 A 1.0001,0.99636488 0 0 0 19,39.011718 v 5.976564 a 1.0001,0.99636488 0 1 0 2,0 V 39.011718 A 1.0001,0.99636488 0 0 0 19.984376,38 Z m 6,0 A 1.0001,0.99636488 0 0 0 25,39.011718 v 5.976564 a 1.0001,0.99636488 0 1 0 2,0 V 39.011718 A 1.0001,0.99636488 0 0 0 25.984376,38 Z M 31.75,38 c -0.1748,0.003 -0.344338,0.06232 -0.476562,0.16406 -0.0102,0.0074 -0.02156,0.0118 -0.03126,0.0196 -0.0086,0.0074 -0.0152,0.0156 -0.02344,0.02344 0,0 -0.004,0.004 -0.004,0.004 -0.0164,0.0144 -0.03212,0.03116 -0.04688,0.04688 0,0 0,0.004 0,0.004 -0.1348,0.14796 -0.19124,0.33946 -0.15626,0.527344 V 45.3362 c 0.0013,0.367722 0.336574,0.665136 0.75,0.664062 H 36.25 c 0.413436,0.0011 0.748726,-0.296334 0.75,-0.664062 V 38.67995 C 37.001,38.310752 36.665084,38.0109 36.25,38.01198 H 31.878906 C 31.835526,38.004518 31.79412,38.0004 31.75,38 Z m 10.234376,0 A 1.0001,0.99636488 0 0 0 41,39.011718 v 5.976564 a 1.0001,0.99636488 0 1 0 2,0 V 39.011718 A 1.0001,0.99636488 0 0 0 41.984376,38 Z M 11,40 h 2 v 4 h -2 z m 22,0 h 2 v 4 h -2 z"/>
 <path style="fill:#8b9cbe" d="m 9.75,13 c -0.174808,0.0031 -0.3443388,0.06231 -0.4765624,0.164062 -0.01012,0.0073 -0.021574,0.01176 -0.03125,0.01954 -0.00868,0.0074 -0.01516,0.0157 -0.023438,0.02344 0,0 -0.0039,0.0039 -0.0039,0.0039 -0.01632,0.01444 -0.032112,0.03116 -0.046874,0.04687 0,0 0,0.0039 0,0.0039 -0.134806,0.147956 -0.19123,0.339461 -0.15625,0.527344 v 6.54688 C 9.0130044,20.70366 9.3482912,21.001074 9.7617188,21 H 14.25 c 0.413435,0.0011 0.748724,-0.296333 0.75,-0.664062 v -6.65625 C 15.0011,13.310491 14.665084,13.01064 14.25,13.011719 H 9.8789062 C 9.8355302,13.004499 9.794126,13.00032 9.75,13 Z m 10,0 c -0.1748,0.0031 -0.344338,0.06231 -0.476562,0.164062 -0.0102,0.0073 -0.02156,0.01176 -0.03126,0.01954 -0.0086,0.0074 -0.0152,0.0157 -0.02344,0.02344 0,0 -0.004,0.0039 -0.004,0.0039 -0.0164,0.01444 -0.03212,0.03116 -0.04688,0.04687 0,0 0,0.0039 0,0.0039 -0.1348,0.147956 -0.191232,0.339461 -0.15626,0.527344 v 6.54688 c 0.0014,0.367722 0.336694,0.665136 0.75012,0.664062 H 24.25 c 0.413436,0.0011 0.748726,-0.296334 0.75,-0.664062 v -6.65625 c 0.001,-0.369197 -0.334916,-0.669048 -0.75,-0.667969 H 19.878906 C 19.835526,13.004499 19.79412,13.00032 19.75,13 Z m 10.234376,0 A 1.0001,0.99636488 0 0 0 29,14.011719 v 5.976562 a 1.0001,0.99636488 0 1 0 2,0 V 14.011719 A 1.0001,0.99636488 0 0 0 29.984376,13 Z M 35.75,13 c -0.1748,0.0031 -0.344338,0.06231 -0.476562,0.164062 -0.0102,0.0073 -0.02156,0.01176 -0.03126,0.01954 -0.0086,0.0074 -0.0152,0.0157 -0.02344,0.02344 0,0 -0.004,0.0039 -0.004,0.0039 -0.0164,0.01444 -0.03212,0.03116 -0.04688,0.04687 0,0 0,0.0039 0,0.0039 -0.1348,0.147956 -0.19124,0.339461 -0.15626,0.527344 v 6.54688 c 0.0014,0.367722 0.336694,0.665138 0.75012,0.664062 H 40.25 c 0.413436,0.0011 0.748724,-0.296334 0.75,-0.664062 v -6.65625 c 10e-4,-0.369197 -0.334916,-0.669048 -0.75,-0.667969 H 35.878906 C 35.835526,13.004499 35.79412,13.00032 35.75,13 Z m 10.234376,0 A 1.0001,0.99636488 0 0 0 45,14.011719 v 5.976562 a 1.0001,0.99636488 0 1 0 2,0 V 14.011719 A 1.0001,0.99636488 0 0 0 45.984376,13 Z M 11,15 h 2 v 4 h -2 z m 10,0 h 2 v 4 h -2 z m 16,0 h 2 v 4 H 37 Z M 9.75,25 c -0.1748,0.003 -0.3443384,0.06232 -0.4765624,0.16406 -0.0102,0.0074 -0.02157,0.0118 -0.03125,0.0196 -0.0086,0.0074 -0.01518,0.0156 -0.023438,0.02344 0,0 -0.0039,0.004 -0.0039,0.004 -0.0164,0.0144 -0.032116,0.03116 -0.046874,0.04688 0,0 0,0.004 0,0.004 -0.1348,0.14796 -0.191232,0.33946 -0.15625,0.527344 V 32.3362 c 0.00129,0.367722 0.336574,0.665136 0.75,0.664062 H 14.25 c 0.413436,8.12e-4 0.748726,-0.296596 0.75,-0.664324 v -6.65625 c 10e-4,-0.369198 -0.334916,-0.66905 -0.75,-0.66797 H 9.8789062 C 9.8355262,25.004518 9.79412,25.0004 9.75,25 Z m 10.234376,0 A 1.0001,0.99636488 0 0 0 19,26.011718 v 5.976564 a 1.0001,0.99636488 0 1 0 2,0 V 26.011718 A 1.0001,0.99636488 0 0 0 19.984376,25 Z M 25.75,25 c -0.1748,0.003 -0.344338,0.06232 -0.476562,0.16406 -0.0102,0.0074 -0.02156,0.0118 -0.03126,0.0196 -0.0086,0.0074 -0.0152,0.0156 -0.02344,0.02344 0,0 -0.004,0.004 -0.004,0.004 -0.0164,0.0144 -0.03212,0.03116 -0.04688,0.04688 0,0 0,0.004 0,0.004 -0.1348,0.14796 -0.19122,0.33946 -0.15626,0.527344 V 32.3362 c 0.0013,0.367722 0.336574,0.665136 0.75,0.664062 H 30.25 c 0.413436,0.0011 0.748726,-0.296334 0.75,-0.664062 V 25.67995 C 31.0011,25.310752 30.665084,25.0109 30.25,25.01198 H 25.878906 C 25.835526,25.004518 25.79412,25.0004 25.75,25 Z m 10,0 c -0.1748,0.003 -0.344338,0.06232 -0.476562,0.16406 -0.0102,0.0074 -0.02156,0.0118 -0.03126,0.0196 -0.0086,0.0074 -0.0152,0.0156 -0.02344,0.02344 0,0 -0.004,0.004 -0.004,0.004 -0.0164,0.0144 -0.03212,0.03116 -0.04688,0.04688 0,0 0,0.004 0,0.004 -0.1348,0.14796 -0.19124,0.33946 -0.15626,0.527344 V 32.3362 c 0.0013,0.367722 0.336574,0.665136 0.75,0.664062 H 40.25 c 0.413436,0.0011 0.748726,-0.296334 0.75,-0.664062 V 25.67995 C 41.001,25.310752 40.665084,25.0109 40.25,25.01198 H 35.878906 C 35.835526,25.004518 35.79412,25.0004 35.75,25 Z m 10,0 c -0.1748,0.003 -0.344338,0.06232 -0.476562,0.16406 -0.0102,0.0074 -0.02156,0.0118 -0.03126,0.0196 -0.0086,0.0074 -0.0152,0.0156 -0.02344,0.02344 0,0 -0.004,0.004 -0.004,0.004 -0.0164,0.0144 -0.03212,0.03116 -0.04688,0.04688 0,0 0,0.004 0,0.004 -0.1348,0.14796 -0.19124,0.33946 -0.15626,0.527344 V 32.3362 c 0.0013,0.367722 0.336574,0.665136 0.75,0.664062 H 50.25 c 0.413436,0.0011 0.748726,-0.296334 0.75,-0.664062 V 25.67995 C 51.0011,25.310752 50.665084,25.0109 50.25,25.01198 H 45.878906 C 45.835526,25.004518 45.79412,25.0004 45.75,25 Z M 11,27 h 2 v 4 h -2 z m 16,0 h 2 v 4 h -2 z m 10,0 h 2 v 4 h -2 z m 10,0 h 2 v 4 H 47 Z M 9.75,37 c -0.1748,0.003 -0.3443384,0.06232 -0.4765624,0.16406 -0.0102,0.0074 -0.02157,0.0118 -0.03125,0.0196 -0.0086,0.0074 -0.01518,0.0156 -0.023438,0.02344 0,0 -0.0039,0.004 -0.0039,0.004 -0.0164,0.0144 -0.032116,0.03116 -0.046874,0.04688 0,0 0,0.004 0,0.004 -0.1348,0.14796 -0.191232,0.33946 -0.15625,0.527344 V 44.3362 c 0.00129,0.367722 0.336574,0.665136 0.75,0.664062 H 14.25 c 0.413436,8.12e-4 0.748726,-0.296596 0.75,-0.664324 v -6.65625 c 10e-4,-0.369198 -0.334916,-0.66905 -0.75,-0.66797 H 9.8789062 C 9.8355262,37.004518 9.79412,37.0004 9.75,37 Z m 10.234376,0 A 1.0001,0.99636488 0 0 0 19,38.011718 v 5.976564 a 1.0001,0.99636488 0 1 0 2,0 V 38.011718 A 1.0001,0.99636488 0 0 0 19.984376,37 Z m 6,0 A 1.0001,0.99636488 0 0 0 25,38.011718 v 5.976564 a 1.0001,0.99636488 0 1 0 2,0 V 38.011718 A 1.0001,0.99636488 0 0 0 25.984376,37 Z M 31.75,37 c -0.1748,0.003 -0.344338,0.06232 -0.476562,0.16406 -0.0102,0.0074 -0.02156,0.0118 -0.03126,0.0196 -0.0086,0.0074 -0.0152,0.0156 -0.02344,0.02344 0,0 -0.004,0.004 -0.004,0.004 -0.0164,0.0144 -0.03212,0.03116 -0.04688,0.04688 0,0 0,0.004 0,0.004 -0.1348,0.14796 -0.19124,0.33946 -0.15626,0.527344 V 44.3362 c 0.0013,0.367722 0.336574,0.665136 0.75,0.664062 H 36.25 c 0.413436,0.0011 0.748726,-0.296334 0.75,-0.664062 V 37.67995 C 37.001,37.310752 36.665084,37.0109 36.25,37.01198 H 31.878906 C 31.835526,37.004518 31.79412,37.0004 31.75,37 Z m 10.234376,0 A 1.0001,0.99636488 0 0 0 41,38.011718 v 5.976564 a 1.0001,0.99636488 0 1 0 2,0 V 38.011718 A 1.0001,0.99636488 0 0 0 41.984376,37 Z M 11,39 h 2 v 4 h -2 z m 22,0 h 2 v 4 h -2 z"/>
 <path style="fill:#ea5a67" d="m 50.073578,32.194506 4.244382,-3.093334 c 0,0 1.699914,-0.96434 4.734356,3.061458 l 7.8e-5,-7.6e-5 c 0.0022,0.003 0.0042,0.0056 0.0062,0.0084 8.36e-4,0.0011 0.0016,0.002 0.0024,0.0032 v 0 c 3.028522,4.030296 1.604468,5.361208 1.604468,5.361208 l -4.244666,3.09277 z"/>
 <path style="fill:#9e9e9e" d="m 50.073578,32.194506 -4.276422,3.142402 6.359686,8.450176 4.263928,-3.159082 z"/>
 <path style="fill:#ffb505" d="M 45.797158,35.33691 52.156844,43.787086 33.975462,57.146062 34.48795,53.85319 30.962262,53.075064 31.336976,49.531586 27.80294,48.809832 Z"/>
 <path style="fill:#fbe289" d="m 27.80294,48.809832 3.534036,0.721754 -0.374714,3.543478 3.525688,0.778126 -0.512488,3.292872 -6.85534,1.230236 -2.318014,-3.079974 z"/>
 <path style="fill:#17191e" d="M 27.120122,58.376298 24.802108,55.296324 23,59 Z"/>
 <path style="opacity:0.1;fill:#8b9cbe" d="M 7.1992188 5 C 4.8724185 5 3 6.8596351 3 9.1679688 L 3 10.167969 C 3 7.859635 4.8724185 6 7.1992188 6 L 54.800781 6 C 57.127581 6 59 7.859635 59 10.167969 L 59 9.1679688 C 59 6.8596351 57.127581 5 54.800781 5 L 7.1992188 5 z"/>
 <path style="opacity:0.2;fill:#8b9cbe" d="m 55.015624,29.007812 c -0.458832,-0.04278 -0.699218,0.09374 -0.699218,0.09374 l -4.242188,3.09375 -4.277342,3.140626 L 27.804688,48.808584 24.800782,55.296866 23,59 l 1.050782,-0.16016 0.75,-1.542968 3.003906,-6.488282 17.992188,-13.472656 4.277342,-3.140626 4.242188,-3.09375 c 0,0 0.240386,-0.13654 0.699218,-0.09374 0.764722,0.0713 2.13863,0.640126 4.035158,3.15625 0.0022,0.003 0.0058,0.005 0.0078,0.0078 l 0.004,0.004 c 1.00871,1.342372 1.496856,2.362502 1.734376,3.15625 0.26695,-0.44628 0.723118,-1.885866 -1.734376,-5.15625 l -0.004,-0.004 c -0.002,-0.0028 -0.0056,-0.0048 -0.0078,-0.0078 -1.896528,-2.516124 -3.270434,-3.084942 -4.035158,-3.15625 z"/>
</svg>
