<svg xmlns="http://www.w3.org/2000/svg" width="64" height="64" version="1.1">
 <circle style="opacity:0.2" cx="32" cy="33" r="28"/>
 <circle style="fill:#1d93d8" cx="32" cy="32" r="28"/>
 <path style="opacity:0.2" d="m 51.360816,19.0001 c -0.457758,0.004 -1.849622,0.10498 -6.361194,0.415658 -1.693528,0.1166 -4.308124,0.296474 -5.810208,0.399754 -1.502086,0.10328 -3.947996,0.271442 -5.435356,0.373714 -1.48736,0.10228 -3.969416,0.2716 -5.515682,0.376224 -5.28538,0.357622 -4.960732,0.328624 -5.208604,0.465548 -0.309334,0.17088 -0.504652,0.509032 -0.597734,1.034848 -0.04154,0.234736 -0.09836,0.48699 -0.12624,0.560624 -0.02788,0.07362 -0.0681,0.275362 -0.08932,0.44829 -0.02122,0.17292 -0.07056,0.404962 -0.1096,0.515646 -0.03904,0.11068 -0.08864,0.34206 -0.11014,0.514076 -0.02148,0.17202 -0.0689,0.385798 -0.10534,0.475066 -0.0364,0.08926 -0.08324,0.303708 -0.10406,0.476634 -0.02086,0.17292 -0.06896,0.402414 -0.1069,0.509892 -0.03794,0.10748 -0.08698,0.326916 -0.10906,0.48772 -0.02212,0.16082 -0.07032,0.377694 -0.1071,0.481968 -0.03678,0.10426 -0.08498,0.321164 -0.1071,0.481968 -0.02212,0.16082 -0.07032,0.377692 -0.10712,0.48197 -0.03678,0.10426 -0.08498,0.321162 -0.1071,0.481966 -0.02212,0.16082 -0.07032,0.377692 -0.10712,0.481966 -0.0368,0.10426 -0.08498,0.321164 -0.10712,0.48197 -0.0221,0.16082 -0.07032,0.377692 -0.10712,0.481966 -0.0368,0.10426 -0.08498,0.321162 -0.10712,0.481968 -0.02212,0.16082 -0.07032,0.377694 -0.10712,0.481968 -0.0368,0.10426 -0.08502,0.32172 -0.10712,0.483118 -0.02208,0.1614 -0.06322,0.353632 -0.0914,0.427266 -0.02818,0.07362 -0.08544,0.326668 -0.12728,0.562296 -0.07088,0.399126 -0.06938,0.43757 0.02122,0.562296 0.19126,0.263276 0.422158,0.322914 2.087728,0.539286 0.874752,0.11364 2.241144,0.292628 3.036368,0.397666 0.795222,0.10504 2.174812,0.286606 3.065756,0.403522 0.890942,0.11692 2.360896,0.309958 3.266568,0.428938 0.905668,0.11898 2.28526,0.29894 3.065754,0.399966 1.696548,0.219596 4.433148,0.578034 5.529072,0.72421 1.79683,0.239654 2.440226,0.325078 3.842234,0.51031 0.809946,0.10702 2.063022,0.273694 2.784616,0.370368 1.64785,0.220762 1.689806,0.222338 1.786924,0.0681 0.07516,-0.11936 0.18036,-0.591456 0.408534,-1.834158 0.0649,-0.353442 0.17348,-0.931802 0.241394,-1.285246 0.0679,-0.353442 0.17572,-0.919754 0.239512,-1.258472 0.06378,-0.338716 0.1608,-0.820684 0.215558,-1.07104 0.05476,-0.250354 0.11522,-0.551584 0.1344,-0.6694 0.03566,-0.219 0.1271,-0.696924 0.36868,-1.92787 0.07516,-0.382898 0.18592,-0.955058 0.246206,-1.271546 0.06028,-0.316486 0.15908,-0.834604 0.219432,-1.151366 0.06038,-0.316764 0.16632,-0.86518 0.235432,-1.218622 0.0691,-0.353444 0.1763,-0.907706 0.238362,-1.231694 0.10246,-0.535012 0.17662,-0.91489 0.486036,-2.490168 0.231242,-1.17735 0.242174,-1.306096 0.12686,-1.503534 -0.05764,-0.09872 -0.1838,-0.225622 -0.2803,-0.281984 -0.0742,-0.04334 -0.0126,-0.07597 -0.287208,-0.07362 z M 19.000738,33.682024 c -0.219615,-0.0024 -0.428563,0.0136 -0.642395,0.04664 -0.294525,0.04566 -2.59585,0.374916 -5.114053,0.731632 -2.518204,0.356716 -4.6830742,0.686422 -4.8107436,0.73268 -0.541474,0.1962 -0.5863666,0.878408 -0.074678,1.134734 0.109842,0.05502 0.3443538,0.14202 0.5210696,0.1934 0.176714,0.05138 0.3815464,0.11234 0.4551778,0.13534 0.073632,0.02304 0.2302664,0.06802 0.348077,0.1001 0.3359422,0.09146 1.2057012,0.336078 1.5395722,0.433018 0.09573,0.02778 0.270428,0.07736 0.388239,0.11014 0.11781,0.03278 0.286494,0.0804 0.374852,0.10586 0.260956,0.07516 1.32309,0.37497 1.526184,0.43082 0.103084,0.02836 0.350085,0.09992 0.548891,0.15908 0.198804,0.05916 0.524124,0.156 0.722928,0.21515 0.198806,0.05916 0.457857,0.1342 0.575667,0.16684 0.117808,0.03262 0.274445,0.0778 0.348077,0.10042 0.07363,0.02262 0.230266,0.06694 0.348077,0.0984 0.50205,0.1341 0.873143,0.239408 2.088461,0.59273 0.706864,0.205504 1.502086,0.431822 1.76716,0.502992 0.794399,0.213292 4.459891,1.26248 5.006955,1.433144 0.279798,0.0873 0.605118,0.18596 0.722928,0.21933 0.11782,0.03338 0.321924,0.09478 0.45361,0.1366 0.13166,0.0418 0.384706,0.11222 0.562278,0.15646 0.17758,0.04424 0.395164,0.10164 0.483522,0.1275 0.08836,0.02586 0.244992,0.07046 0.348076,0.09916 0.1031,0.0287 0.44045,0.12844 0.749706,0.221634 0.80553,0.242788 1.16792,0.34576 1.526182,0.433436 0.11782,0.02882 0.370836,0.09924 0.562278,0.15648 0.19144,0.05722 0.613152,0.17856 0.93713,0.269746 0.32398,0.0912 0.692878,0.200386 0.81989,0.242658 0.127,0.04228 0.428224,0.12668 0.669378,0.18764 0.241148,0.06094 0.920498,0.252702 1.50955,0.426116 1.556346,0.45817 1.6427,0.47961 1.834728,0.45498 0.09608,-0.0124 2.65026,-1.270922 5.67602,-2.796936 5.949536,-3.000606 5.742954,-2.881542 5.742954,-3.311544 0,-0.293382 0.236196,-0.235758 -2.757842,-0.672954 -0.795222,-0.11612 -1.771174,-0.258216 -2.168786,-0.315874 -0.39761,-0.05766 -0.963904,-0.14194 -1.258434,-0.18722 -0.294526,-0.04528 -1.198186,-0.17824 -2.008132,-0.295476 -0.809952,-0.11722 -2.135322,-0.310094 -2.94527,-0.428626 -0.809948,-0.11852 -1.966636,-0.28696 -2.570414,-0.374236 -1.393638,-0.20145 -4.35832,-0.636076 -6.02441,-0.88319 -0.706864,-0.10484 -1.77921,-0.261866 -2.38299,-0.348922 -3.691402,-0.532246 -4.830876,-0.70334 -5.14083,-0.771796 -0.496989,-0.10978 -0.892614,-0.16422 -1.25864,-0.16808 z m -3.11188,5.984328 c -0.09633,0.02044 -2.055515,4.226714 -2.055515,4.413122 0,0.211446 0.152394,0.45128 0.33814,0.532066 0.216588,0.09422 0.258448,0.0945 0.504126,0.004 0.111046,-0.04096 0.454989,-0.15158 0.764243,-0.245796 0.309253,-0.09424 0.748784,-0.230062 0.97677,-0.301858 0.397707,-0.12526 0.666994,-0.207604 1.727519,-0.528616 0.877284,-0.265546 1.427296,-0.454532 1.571368,-0.540018 0.287267,-0.17044 0.594015,-0.73101 0.921127,-1.683016 0.09464,-0.275464 0.09536,-0.298892 0.0108,-0.362522 -0.04968,-0.0374 -0.18752,-0.09234 -0.306246,-0.12204 -0.423691,-0.106154 -1.629656,-0.429714 -2.991329,-0.802758 -0.760805,-0.208432 -1.418263,-0.371582 -1.461023,-0.362524 z m 24.998374,3.323464 c -0.05626,0.0015 -0.12618,0.02482 -0.205838,0.07102 -0.09748,0.05656 -0.388724,0.220426 -0.647202,0.36409 -0.415038,0.230682 -1.234812,0.710782 -1.781908,1.043532 -0.1031,0.06268 -0.307916,0.17522 -0.45518,0.250082 -0.14726,0.07486 -0.400286,0.218324 -0.562278,0.318906 -0.7922,0.491894 -1.116254,0.594528 -1.456732,0.461154 -0.06766,-0.0265 -0.419182,-0.12708 -0.781188,-0.223516 -0.566274,-0.15082 -0.667986,-0.16464 -0.728262,-0.09904 -0.0651,0.07084 -0.14098,0.256476 -0.414074,1.013306 -0.05846,0.16198 -0.15546,0.415028 -0.21556,0.562294 -0.0601,0.14728 -0.12968,0.340054 -0.15446,0.428414 -0.0248,0.08836 -0.12078,0.365496 -0.213366,0.615852 -0.0926,0.250354 -0.18852,0.515436 -0.21326,0.58907 -0.02472,0.07362 -0.12058,0.338716 -0.212946,0.589072 -0.15726,0.426256 -0.43206,1.406644 -0.427772,1.526126 0.0044,0.11872 0.260646,0.359174 0.457892,0.429462 0.27466,0.09786 0.294532,0.0972 0.65307,-0.02446 0.475304,-0.16132 3.488902,-1.705222 4.295734,-2.200756 0.397612,-0.244198 0.981316,-0.582892 1.297236,-0.752654 0.31592,-0.16976 0.625586,-0.344464 0.6881,-0.388252 0.218618,-0.15312 0.374632,-0.46209 0.484256,-0.959332 0.06002,-0.272302 0.14424,-0.651788 0.18722,-0.843236 0.04296,-0.19144 0.0999,-0.456532 0.12656,-0.589074 0.02664,-0.13254 0.13426,-0.609894 0.23909,-1.060892 0.1048,-0.450996 0.19056,-0.879596 0.19056,-0.952326 0,-0.11354 -0.0559,-0.17138 -0.14968,-0.1688 z"/>
 <path style="fill:#8b9cbe" d="m 51.360816,18.000101 c -0.457758,0.0039 -1.849622,0.104988 -6.361194,0.415656 -1.693528,0.116606 -4.308124,0.296475 -5.810208,0.399756 -1.502086,0.103276 -3.947996,0.271441 -5.435356,0.373714 -1.48736,0.102276 -3.969416,0.2716 -5.515682,0.376223 -5.28538,0.357622 -4.960732,0.328625 -5.208604,0.465548 -0.309334,0.17088 -0.504652,0.509032 -0.597734,1.034848 -0.04154,0.234736 -0.09836,0.48699 -0.12624,0.560624 -0.02788,0.07362 -0.0681,0.275362 -0.08932,0.44829 -0.02122,0.17292 -0.07056,0.404962 -0.1096,0.515646 -0.03904,0.11068 -0.08864,0.34206 -0.11014,0.514076 -0.02148,0.17202 -0.0689,0.385798 -0.10534,0.475066 -0.0364,0.08926 -0.08324,0.303708 -0.10406,0.476634 -0.02086,0.17292 -0.06896,0.402414 -0.1069,0.509892 -0.03794,0.10748 -0.08698,0.326916 -0.10906,0.48772 -0.02212,0.16082 -0.07032,0.377694 -0.1071,0.481968 -0.03678,0.10426 -0.08498,0.321164 -0.1071,0.481968 -0.02212,0.16082 -0.07032,0.377692 -0.10712,0.48197 -0.03678,0.10426 -0.08498,0.321162 -0.1071,0.481966 -0.02212,0.16082 -0.07032,0.377692 -0.10712,0.481966 -0.0368,0.10426 -0.08498,0.321164 -0.10712,0.48197 -0.0221,0.16082 -0.07032,0.377692 -0.10712,0.481966 -0.0368,0.10426 -0.08498,0.321162 -0.10712,0.481968 -0.02212,0.16082 -0.07032,0.377694 -0.10712,0.481968 -0.0368,0.10426 -0.08502,0.32172 -0.10712,0.483118 -0.02208,0.1614 -0.06322,0.353632 -0.0914,0.427266 -0.02818,0.07362 -0.08544,0.326668 -0.12728,0.562296 -0.07088,0.399126 -0.06938,0.43757 0.02122,0.562296 0.19126,0.263276 0.422158,0.322914 2.087728,0.539286 0.874752,0.11364 2.241144,0.292628 3.036368,0.397666 0.795222,0.10504 2.174812,0.286606 3.065756,0.403522 0.890942,0.11692 2.360896,0.309958 3.266568,0.428938 0.905668,0.11898 2.28526,0.29894 3.065754,0.399966 1.696548,0.219596 4.433148,0.578034 5.529072,0.72421 1.79683,0.239654 2.440226,0.325078 3.842234,0.51031 0.809946,0.10702 2.063022,0.273694 2.784616,0.370368 1.64785,0.220762 1.689806,0.222338 1.786924,0.0681 0.07516,-0.11936 0.18036,-0.591456 0.408534,-1.834158 0.0649,-0.353442 0.17348,-0.931802 0.241394,-1.285246 0.0679,-0.353442 0.17572,-0.919754 0.239512,-1.258472 0.06378,-0.338716 0.1608,-0.820684 0.215558,-1.07104 0.05476,-0.250354 0.11522,-0.551584 0.1344,-0.6694 0.03566,-0.219 0.1271,-0.696924 0.36868,-1.92787 0.07516,-0.382898 0.18592,-0.955058 0.246206,-1.271546 0.06028,-0.316486 0.15908,-0.834604 0.219432,-1.151366 0.06038,-0.316764 0.16632,-0.86518 0.235432,-1.218622 0.0691,-0.353444 0.1763,-0.907706 0.238362,-1.231694 0.10246,-0.535012 0.17662,-0.91489 0.486036,-2.490169 0.231242,-1.177349 0.242174,-1.306094 0.12686,-1.503533 -0.05764,-0.09871 -0.1838,-0.225621 -0.2803,-0.281984 -0.0742,-0.04334 -0.0126,-0.07597 -0.287208,-0.07363 z M 19.000738,32.682024 c -0.219615,-0.0024 -0.428563,0.0136 -0.642395,0.04664 -0.294525,0.04566 -2.59585,0.374916 -5.114053,0.731632 -2.518204,0.356716 -4.6830742,0.686422 -4.8107436,0.73268 -0.541474,0.1962 -0.5863666,0.878408 -0.074678,1.134734 0.109842,0.05502 0.3443538,0.14202 0.5210696,0.1934 0.176714,0.05138 0.3815464,0.11234 0.4551778,0.13534 0.073632,0.02304 0.2302664,0.06802 0.348077,0.1001 0.3359422,0.09146 1.2057012,0.336078 1.5395722,0.433018 0.09573,0.02778 0.270428,0.07736 0.388239,0.11014 0.11781,0.03278 0.286494,0.0804 0.374852,0.10586 0.260956,0.07516 1.32309,0.37497 1.526184,0.43082 0.103084,0.02836 0.350085,0.09992 0.548891,0.15908 0.198804,0.05916 0.524124,0.156 0.722928,0.21515 0.198806,0.05916 0.457857,0.1342 0.575667,0.16684 0.117808,0.03262 0.274445,0.0778 0.348077,0.10042 0.07363,0.02262 0.230266,0.06694 0.348077,0.0984 0.50205,0.1341 0.873143,0.239408 2.088461,0.59273 0.706864,0.205504 1.502086,0.431822 1.76716,0.502992 0.794399,0.213292 4.459891,1.26248 5.006955,1.433144 0.279798,0.0873 0.605118,0.18596 0.722928,0.21933 0.11782,0.03338 0.321924,0.09478 0.45361,0.1366 0.13166,0.0418 0.384706,0.11222 0.562278,0.15646 0.17758,0.04424 0.395164,0.10164 0.483522,0.1275 0.08836,0.02586 0.244992,0.07046 0.348076,0.09916 0.1031,0.0287 0.44045,0.12844 0.749706,0.221634 0.80553,0.242788 1.16792,0.34576 1.526182,0.433436 0.11782,0.02882 0.370836,0.09924 0.562278,0.15648 0.19144,0.05722 0.613152,0.17856 0.93713,0.269746 0.32398,0.0912 0.692878,0.200386 0.81989,0.242658 0.127,0.04228 0.428224,0.12668 0.669378,0.18764 0.241148,0.06094 0.920498,0.252702 1.50955,0.426116 1.556346,0.45817 1.6427,0.47961 1.834728,0.45498 0.09608,-0.0124 2.65026,-1.270922 5.67602,-2.796936 5.949536,-3.000606 5.742954,-2.881542 5.742954,-3.311544 0,-0.293382 0.236196,-0.235758 -2.757842,-0.672954 -0.795222,-0.11612 -1.771174,-0.258216 -2.168786,-0.315874 -0.39761,-0.05766 -0.963904,-0.14194 -1.258434,-0.18722 -0.294526,-0.04528 -1.198186,-0.17824 -2.008132,-0.295476 -0.809952,-0.11722 -2.135322,-0.310094 -2.94527,-0.428626 -0.809948,-0.11852 -1.966636,-0.28696 -2.570414,-0.374236 -1.393638,-0.20145 -4.35832,-0.636076 -6.02441,-0.88319 -0.706864,-0.10484 -1.77921,-0.261866 -2.38299,-0.348922 -3.691402,-0.532246 -4.830876,-0.70334 -5.14083,-0.771796 -0.496989,-0.10978 -0.892614,-0.16422 -1.25864,-0.16808 z m -3.11188,5.984328 c -0.09633,0.02044 -2.055515,4.226714 -2.055515,4.413122 0,0.211446 0.152394,0.45128 0.33814,0.532066 0.216588,0.09422 0.258448,0.0945 0.504126,0.004 0.111046,-0.04096 0.454989,-0.15158 0.764243,-0.245796 0.309253,-0.09424 0.748784,-0.230062 0.97677,-0.301858 0.397707,-0.12526 0.666994,-0.207604 1.727519,-0.528616 0.877284,-0.265546 1.427296,-0.454532 1.571368,-0.540018 0.287267,-0.17044 0.594015,-0.73101 0.921127,-1.683016 0.09464,-0.275464 0.09536,-0.298892 0.0108,-0.362522 -0.04968,-0.0374 -0.18752,-0.09234 -0.306246,-0.12204 -0.423691,-0.106154 -1.629656,-0.429714 -2.991329,-0.802758 -0.760805,-0.208432 -1.418263,-0.371582 -1.461023,-0.362524 z m 24.998374,3.323464 c -0.05626,0.0015 -0.12618,0.02482 -0.205838,0.07102 -0.09748,0.05656 -0.388724,0.220426 -0.647202,0.36409 -0.415038,0.230682 -1.234812,0.710782 -1.781908,1.043532 -0.1031,0.06268 -0.307916,0.17522 -0.45518,0.250082 -0.14726,0.07486 -0.400286,0.218324 -0.562278,0.318906 -0.7922,0.491894 -1.116254,0.594528 -1.456732,0.461154 -0.06766,-0.0265 -0.419182,-0.12708 -0.781188,-0.223516 -0.566274,-0.15082 -0.667986,-0.16464 -0.728262,-0.09904 -0.0651,0.07084 -0.14098,0.256476 -0.414074,1.013306 -0.05846,0.16198 -0.15546,0.415028 -0.21556,0.562294 -0.0601,0.14728 -0.12968,0.340054 -0.15446,0.428414 -0.0248,0.08836 -0.12078,0.365496 -0.213366,0.615852 -0.0926,0.250354 -0.18852,0.515436 -0.21326,0.58907 -0.02472,0.07362 -0.12058,0.338716 -0.212946,0.589072 -0.15726,0.426256 -0.43206,1.406644 -0.427772,1.526126 0.0044,0.11872 0.260646,0.359174 0.457892,0.429462 0.27466,0.09786 0.294532,0.0972 0.65307,-0.02446 0.475304,-0.16132 3.488902,-1.705222 4.295734,-2.200756 0.397612,-0.244198 0.981316,-0.582892 1.297236,-0.752654 0.31592,-0.16976 0.625586,-0.344464 0.6881,-0.388252 0.218618,-0.15312 0.374632,-0.46209 0.484256,-0.959332 0.06002,-0.272302 0.14424,-0.651788 0.18722,-0.843236 0.04296,-0.19144 0.0999,-0.456532 0.12656,-0.589074 0.02664,-0.13254 0.13426,-0.609894 0.23909,-1.060892 0.1048,-0.450996 0.19056,-0.879596 0.19056,-0.952326 0,-0.11354 -0.0559,-0.17138 -0.14968,-0.1688 z"/>
 <path style="opacity:0.2;fill:#8b9cbe" d="M 32 4 A 28 28 0 0 0 4 32 A 28 28 0 0 0 4.0175781 32.492188 A 28 28 0 0 1 32 5 A 28 28 0 0 1 59.974609 32.492188 A 28 28 0 0 0 60 32 A 28 28 0 0 0 32 4 z"/>
</svg>
