<svg xmlns="http://www.w3.org/2000/svg" width="64" height="64" version="1">
 <path style="opacity:0.2" d="M 32.156435,4.0019286 A 6.5948651,6.5944 0 0 0 28.702711,4.8816362 L 9.2977221,16.084243 A 6.5948651,6.5944 0 0 0 6.0000006,21.795746 V 44.20241 a 6.5948651,6.5944 0 0 0 3.2974325,5.710922 L 28.702421,61.116518 a 6.5948651,6.5944 0 0 0 6.594866,0 L 54.702276,49.913332 A 6.5948651,6.5944 0 0 0 57.999998,44.20183 V 21.795166 A 6.5948651,6.5944 0 0 0 54.702276,16.083663 L 35.297287,4.8810563 A 6.5948651,6.5944 0 0 0 32.155569,4.0013487 Z"/>
 <path style="opacity:0.2;fill:#8b9cbe" d="M 32.154119,3.0049354 A 6.5946453,6.5942028 0 0 0 28.701953,3.8827318 L 9.2976121,15.085873 A 6.5946453,6.5942028 0 0 0 6.0000006,20.797205 V 22.24715 A 6.5946453,6.5942028 0 0 1 9.2979011,16.535818 L 28.702243,5.3326764 a 6.5946453,6.5942028 0 0 1 3.45303,-0.8778979 6.5946453,6.5942028 0 0 1 3.142772,0.8778979 L 54.702386,16.535818 a 6.5946453,6.5942028 0 0 1 3.297612,5.711332 V 20.797205 A 6.5946453,6.5942028 0 0 0 54.702386,15.085873 L 35.298045,3.8827318 a 6.5946453,6.5942028 0 0 0 -3.14306,-0.8777964 z"/>
 <path style="fill:#ee5c37" d="m 6.9479174,17.394365 c -0.6197806,1.027486 -0.9475196,2.204606 -0.9479168,3.404571 v 22.410117 c 0.0033,1.190775 0.3289218,2.358442 0.9422744,3.379079 l 12.892794,-7.500251 12.16493,-7.083887 -12.16493,-7.089551 z"/>
 <path style="fill:#ffbd4b" d="M 19.835069,39.087881 6.942275,46.588132 c 0.5740303,0.964883 1.3848585,1.767242 2.3556855,2.331081 l 19.4040785,11.20506 c 1.023384,0.587629 2.185686,0.889879 3.365668,0.875218 V 46.542813 l -0.06771,-14.538819 z"/>
 <path style="fill:#5dc940" d="m 57.04644,17.397197 -12.881511,7.517246 -12.16493,7.089551 12.16493,7.083887 12.898437,7.503084 c 0.611868,-1.02203 0.935536,-2.190705 0.936632,-3.381912 V 20.798936 C 57.997398,19.5994 57.667702,18.42329 57.04644,17.397197 Z"/>
 <path style="fill:#d5f389" d="m 44.164929,39.087881 -12.16493,-7.083887 0.0677,14.538819 v 14.456678 c 1.134088,-0.0092 2.246664,-0.310558 3.23025,-0.875218 l 19.404079,-11.20506 c 0.972894,-0.563075 1.785728,-1.365498 2.361328,-2.331081 z"/>
 <path style="fill:#7bb7ff" d="M 32.067707,3.0056647 C 30.887725,2.9910021 29.725423,3.2932519 28.702039,3.880883 L 9.2979605,15.085941 c -0.9739264,0.562694 -1.7877646,1.365148 -2.3641491,2.331083 l 12.9012576,7.503083 12.16493,7.083887 0.06771,-14.538819 z"/>
 <path style="fill:#3683f0" d="m 32.155165,2.9999999 v 0.00282 c -0.02916,7.51e-4 -0.05832,0.0017 -0.08746,0.00282 V 17.465174 l -0.06771,14.538819 12.16493,-7.083887 12.895615,-7.50025 c -0.57443,-0.96627 -1.386292,-1.76967 -2.358502,-2.333915 L 35.297959,3.880883 C 34.340711,3.3285431 33.260017,3.0256388 32.155165,2.9999999 Z"/>
 <path style="opacity:0.1" d="m 32,16 c -2.638678,0 -4.822114,2.185551 -4.822114,4.82467 0,0.375303 0.139344,0.709354 0.222206,1.062499 -0.858395,-1.358319 -2.304226,-2.31911 -4.009917,-2.31911 -2.638172,0 -4.82467,2.182928 -4.824671,4.822117 0,1.706033 0.962664,3.151545 2.321666,4.009913 -0.354075,-0.08321 -0.689075,-0.222203 -1.065055,-0.222203 C 17.18391,28.177886 15,30.361978 15,33.000001 c 0,2.63822 2.184469,4.822115 4.822115,4.822115 0.375678,0 0.711037,-0.139249 1.065055,-0.222205 -1.35901,0.858638 -2.321666,2.306173 -2.321666,4.012469 0,2.637819 2.182644,4.822116 4.822117,4.822117 1.707998,0 3.154626,-0.963816 4.012471,-2.32422 -0.08351,0.35482 -0.222206,0.690564 -0.222206,1.067609 C 27.177886,47.816888 29.362065,50 32,50 c 2.637531,0 4.822114,-2.183301 4.822114,-4.822114 0,-0.376197 -0.139154,-0.711101 -0.222205,-1.065055 0.858007,1.359025 2.302973,2.321665 4.009917,2.321666 2.639375,0 4.822115,-2.184112 4.822115,-4.822117 0,-1.706729 -0.962301,-3.153954 -2.321664,-4.012469 0.35524,0.0836 0.693126,0.222205 1.070163,0.222205 2.637344,0 4.81956,-2.183519 4.81956,-4.822115 0,-2.638394 -2.181656,-4.822115 -4.81956,-4.822115 -0.376869,0 -0.713127,0.138852 -1.067607,0.222203 1.358883,-0.858327 2.321661,-2.303759 2.321663,-4.009913 0,-2.638259 -2.184097,-4.822117 -4.822116,-4.822117 -1.707641,0 -3.154535,0.963256 -4.012471,2.324217 0.08358,-0.354613 0.222205,-0.690473 0.222205,-1.067606 C 36.822114,18.184606 34.637531,16 32,16 Z"/>
 <path style="fill:#17191e" d="m 32,15 c -2.638678,0 -4.822114,2.185551 -4.822114,4.82467 0,0.375303 0.139344,0.709354 0.222206,1.062499 -0.858395,-1.358319 -2.304226,-2.31911 -4.009917,-2.31911 -2.638172,0 -4.82467,2.182928 -4.824671,4.822117 0,1.706033 0.962664,3.151545 2.321666,4.009913 -0.354075,-0.08321 -0.689075,-0.222203 -1.065055,-0.222203 C 17.18391,27.177886 15,29.361978 15,32.000001 c 0,2.63822 2.184469,4.822115 4.822115,4.822115 0.375678,0 0.711037,-0.139249 1.065055,-0.222205 -1.35901,0.858638 -2.321666,2.306173 -2.321666,4.012469 0,2.637819 2.182644,4.822116 4.822117,4.822117 1.707998,0 3.154626,-0.963816 4.012471,-2.32422 -0.08351,0.35482 -0.222206,0.690564 -0.222206,1.067609 C 27.177886,46.816888 29.362065,49 32,49 c 2.637531,0 4.822114,-2.183301 4.822114,-4.822114 0,-0.376197 -0.139154,-0.711101 -0.222205,-1.065055 0.858007,1.359025 2.302973,2.321665 4.009917,2.321666 2.639375,0 4.822115,-2.184112 4.822115,-4.822117 0,-1.706729 -0.962301,-3.153954 -2.321664,-4.012469 0.35524,0.0836 0.693126,0.222205 1.070163,0.222205 2.637344,0 4.81956,-2.183519 4.81956,-4.822115 0,-2.638394 -2.181656,-4.822115 -4.81956,-4.822115 -0.376869,0 -0.713127,0.138852 -1.067607,0.222203 1.358883,-0.858327 2.321661,-2.303759 2.321663,-4.009913 0,-2.638259 -2.184097,-4.822117 -4.822116,-4.822117 -1.707641,0 -3.154535,0.963256 -4.012471,2.324217 0.08358,-0.354613 0.222205,-0.690473 0.222205,-1.067606 C 36.822114,17.184606 34.637531,15 32,15 Z"/>
 <path style="opacity:0.2" d="m 36.292213,34.778132 h 5.297372 c 0.465776,0.48487 1.120508,0.785882 1.84761,0.785882 1.414898,0 2.562806,-1.147169 2.562806,-2.563985 0,-1.41606 -1.147908,-2.563799 -2.562806,-2.563799 -0.72559,0 -1.381834,0.302524 -1.84761,0.786825 h -5.297372 l 3.745102,-3.746681 c 0.017,0 0.03288,0.0014 0.05008,0.0014 1.416032,0 2.56375,-1.147927 2.56375,-2.563986 0,-1.416249 -1.147718,-2.563796 -2.56375,-2.563796 -1.416226,0 -2.563942,1.147549 -2.563942,2.563796 0,0.0158 9.46e-4,0.03288 9.46e-4,0.04894 l -3.745292,3.745925 v -5.296344 c 0.483728,-0.466914 0.785868,-1.121282 0.785868,-1.846696 0,-1.418138 -1.14904,-2.565497 -2.56394,-2.565497 -1.41641,0 -2.564696,1.148114 -2.564696,2.565497 0,0.725414 0.301954,1.379782 0.786054,1.846696 v 5.296336 L 26.476728,24.96269 c 0,-0.016 7.6e-4,-0.03306 7.6e-4,-0.04894 0,-1.416249 -1.147152,-2.563796 -2.563752,-2.563796 -1.4166,0 -2.565264,1.147551 -2.565264,2.563796 0,1.416061 1.147528,2.563986 2.56413,2.563986 0.0162,0 0.0329,-0.0014 0.04876,-0.0014 l 3.746616,3.746681 h -5.29756 C 21.944074,30.737798 21.28915,30.43622 20.563562,30.43622 19.147528,30.43622 18,31.583959 18,33.000019 c 0,1.416816 1.147528,2.563985 2.563562,2.563985 0.725588,0 1.381454,-0.301012 1.846854,-0.785882 h 5.29756 l -3.746614,3.745739 c -0.0158,0 -0.03248,-0.0014 -0.04876,-0.0014 -1.4166,0 -2.564128,1.147548 -2.564128,2.565121 0,1.415304 1.147528,2.564174 2.564128,2.564174 1.416414,0 2.56413,-1.14887 2.56413,-2.564174 0,-0.0172 -0.0014,-0.03308 -0.0014,-0.04988 l 3.745477,-3.746301 v 5.298034 c -0.483724,0.465786 -0.785488,1.120152 -0.785488,1.847079 0,1.416245 1.148474,2.563606 2.564886,2.563606 1.414898,0 2.563182,-1.147361 2.563182,-2.563606 0,-0.725795 -0.30195,-1.381293 -0.785488,-1.847079 v -5.298034 l 3.74548,3.746301 c 0,0.0168 -0.0011,0.03174 -0.0011,0.04988 0,1.415304 1.14734,2.564174 2.56375,2.564174 1.416226,0 2.563942,-1.14887 2.563942,-2.564174 0,-1.417571 -1.147716,-2.565121 -2.563942,-2.565121 -0.0172,0 -0.03248,0.0014 -0.0497,0.0014 z"/>
 <path style="fill:#8b9cbe" d="m 36.292213,33.778191 h 5.297372 c 0.465776,0.484871 1.120508,0.785883 1.84761,0.785883 1.414898,0 2.562806,-1.147169 2.562806,-2.563985 0,-1.41606 -1.147908,-2.563799 -2.562806,-2.563799 -0.72559,0 -1.381834,0.302524 -1.84761,0.786825 h -5.297372 l 3.745102,-3.746681 c 0.017,0 0.03288,0.0014 0.05008,0.0014 1.416032,0 2.56375,-1.147927 2.56375,-2.563986 0,-1.416249 -1.147718,-2.563796 -2.56375,-2.563796 -1.416226,0 -2.563942,1.147549 -2.563942,2.563796 0,0.0158 9.46e-4,0.03288 9.46e-4,0.04894 l -3.745292,3.745925 v -5.296344 c 0.483728,-0.466914 0.785868,-1.121282 0.785868,-1.846697 0,-1.418137 -1.14904,-2.565496 -2.56394,-2.565496 -1.41641,0 -2.564696,1.148114 -2.564696,2.565496 0,0.725415 0.301954,1.379783 0.786054,1.846697 v 5.296336 L 26.476728,23.96275 c 0,-0.016 7.6e-4,-0.03306 7.6e-4,-0.04894 0,-1.416249 -1.147152,-2.563796 -2.563752,-2.563796 -1.4166,0 -2.565264,1.147551 -2.565264,2.563796 0,1.416061 1.147528,2.563986 2.56413,2.563986 0.0162,0 0.0329,-0.0014 0.04876,-0.0014 l 3.746616,3.746681 h -5.29756 C 21.944074,29.737858 21.28915,29.43628 20.563562,29.43628 19.147528,29.43628 18,30.584019 18,32.000079 c 0,1.416816 1.147528,2.563985 2.563562,2.563985 0.725588,0 1.381454,-0.301012 1.846854,-0.785883 h 5.29756 l -3.746614,3.745739 c -0.0158,0 -0.03248,-0.0014 -0.04876,-0.0014 -1.4166,0 -2.564128,1.147549 -2.564128,2.565122 0,1.415303 1.147528,2.564174 2.564128,2.564174 1.416414,0 2.56413,-1.148871 2.56413,-2.564174 0,-0.0172 -0.0014,-0.03308 -0.0014,-0.04988 l 3.745477,-3.746301 v 5.298034 c -0.483724,0.465786 -0.785488,1.120152 -0.785488,1.847079 0,1.416245 1.148474,2.563606 2.564886,2.563606 1.414898,0 2.563182,-1.147361 2.563182,-2.563606 0,-0.725795 -0.30195,-1.381293 -0.785488,-1.847079 v -5.298034 l 3.74548,3.746301 c 0,0.0168 -0.0011,0.03174 -0.0011,0.04988 0,1.415303 1.14734,2.564174 2.56375,2.564174 1.416226,0 2.563942,-1.148871 2.563942,-2.564174 0,-1.417571 -1.147716,-2.565122 -2.563942,-2.565122 -0.0172,0 -0.03248,0.0014 -0.0497,0.0014 z"/>
 <path style="opacity:0.2;fill:#8b9cbe" d="M 32.15625 3.0019531 A 6.5948651 6.5942028 0 0 0 28.703125 3.8847656 L 9.296875 15.087891 A 6.5948651 6.5942028 0 0 0 6 20.798828 L 6 21.798828 A 6.5948651 6.5942028 0 0 1 9.296875 16.087891 L 28.703125 4.8847656 A 6.5948651 6.5942028 0 0 1 32.15625 4.0019531 A 6.5948651 6.5942028 0 0 1 35.296875 4.8847656 L 54.703125 16.083984 A 6.5948651 6.5942028 0 0 1 58 21.798828 L 58 20.798828 A 6.5948651 6.5942028 0 0 0 54.703125 15.083984 L 35.296875 3.8847656 A 6.5948651 6.5942028 0 0 0 32.15625 3.0019531 z"/>
</svg>
