<svg xmlns="http://www.w3.org/2000/svg" width="64" height="64" version="1">
 <path style="opacity:0.2" d="m 31.999992,4.0000004 c -1.112545,0 -2.224255,0.4262261 -3.076745,1.2790548 l -5.307125,5.7086998 h -9.129388 c -2.480955,0 -4.478773,1.998611 -4.478773,4.480553 v 9.13297 l -5.7063835,5.309235 c -1.7656291,1.642746 -1.7049797,4.450277 0,6.155936 l 5.7063835,5.309235 v 9.133065 c 0,2.48194 1.997818,4.480553 4.478773,4.480553 h 9.129388 l 5.307125,5.708605 c 1.642101,1.766324 4.448509,1.705658 6.15349,0 l 5.307125,-5.708605 h 9.129103 c 2.480955,0 4.478773,-1.998613 4.478773,-4.480553 v -9.133065 l 5.706669,-5.309235 c 1.76567,-1.642703 1.70498,-4.450277 0,-6.155936 l -5.706669,-5.309235 v -9.13297 c 0,-2.481942 -1.997818,-4.480553 -4.478773,-4.480553 H 40.383862 L 35.076737,5.2790552 C 34.255694,4.3958865 33.112537,4.0000004 31.999992,4.0000004 Z"/>
 <path style="fill:#546e7a" d="m 31.999992,3 c -1.112545,0 -2.224255,0.4262261 -3.076745,1.2790548 l -5.307125,5.7086995 h -9.129388 c -2.480955,0 -4.478773,1.9986117 -4.478773,4.4805537 v 9.13297 l -5.7063835,5.309235 c -1.7656291,1.642746 -1.7049797,4.450277 0,6.155936 l 5.7063835,5.309235 v 9.133065 c 0,2.48194 1.997818,4.480553 4.478773,4.480553 h 9.129388 l 5.307125,5.708605 c 1.642101,1.766324 4.448509,1.705658 6.15349,0 l 5.307125,-5.708605 h 9.129103 c 2.480955,0 4.478773,-1.998613 4.478773,-4.480553 v -9.133065 l 5.706669,-5.309235 c 1.76567,-1.642703 1.70498,-4.450277 0,-6.155936 l -5.706669,-5.309235 v -9.13297 c 0,-2.481942 -1.997818,-4.4805537 -4.478773,-4.4805537 H 40.383862 L 35.076737,4.2790548 C 34.255694,3.3958861 33.112537,3 31.999992,3 Z"/>
 <path style="opacity:0.2" d="M 32,18 C 23.501041,18 17,24.500995 17,32.999954 17,41.498914 23.501041,48 32,48 Z"/>
 <path style="fill:#8b9cbe" d="M 32,17 C 23.501041,17 17,23.500995 17,31.999954 17,40.498914 23.501041,47 32,47 Z"/>
 <path style="opacity:0.1;fill:#8b9cbe" d="M 32 3 C 30.887455 3 29.776318 3.4264682 28.923828 4.2792969 L 23.615234 9.9882812 L 14.486328 9.9882812 C 12.005373 9.9882812 10.007813 11.986808 10.007812 14.46875 L 10.007812 15.46875 C 10.007813 12.986808 12.005373 10.988281 14.486328 10.988281 L 23.615234 10.988281 L 28.923828 5.2792969 C 29.776318 4.4264682 30.887455 4 32 4 C 33.112545 4 34.255129 4.3961282 35.076172 5.2792969 L 40.384766 10.988281 L 49.513672 10.988281 C 51.994627 10.988281 53.992188 12.986808 53.992188 15.46875 L 53.992188 14.46875 C 53.992188 11.986808 51.994627 9.9882813 49.513672 9.9882812 L 40.384766 9.9882812 L 35.076172 4.2792969 C 34.255129 3.3961282 33.112545 3 32 3 z M 10.007812 23.601562 L 4.3007812 28.910156 C 3.2939669 29.846899 2.901706 31.161593 3.0488281 32.435547 C 3.1587628 31.501004 3.5580502 30.601195 4.3007812 29.910156 L 10.007812 24.601562 L 10.007812 23.601562 z M 53.992188 23.601562 L 53.992188 24.601562 L 59.699219 29.910156 C 60.431968 30.643198 60.840284 31.580858 60.951172 32.541016 C 61.102572 31.253948 60.68698 29.898311 59.699219 28.910156 L 53.992188 23.601562 z"/>
</svg>
