<svg width="64" height="64" version="1.1" xmlns="http://www.w3.org/2000/svg">
 <ellipse cx="32" cy="33" rx="28" ry="25" style="opacity:.2"/>
 <ellipse cx="32" cy="32" rx="28" ry="25" style="fill:#356376"/>
 <path d="M 32 7 A 28 25 0 0 0 4 32 A 28 25 0 0 0 4.0234375 32.585938 A 28 25 0 0 1 32 8 A 28 25 0 0 1 59.976562 32.414062 A 28 25 0 0 0 60 32 A 28 25 0 0 0 32 7 z " style="fill:#8b9cbe;opacity:.1"/>
 <ellipse cx="32" cy="32" rx="17" ry="14" style="opacity:.2"/>
 <ellipse cx="32" cy="31" rx="17" ry="14" style="fill:#3786a6"/>
 <path d="m32 7-6 12h-22l16 13-10 21 22-11 22 11-10-21 16-13h-22z" style="opacity:.2"/>
 <path d="m32 6-6 12h-22l16 13-10 21 22-11 22 11-10-21 16-13h-22z" style="fill:#4da2c4"/>
 <path d="m10 52 22-28 22 28-22-11z" style="fill:#b04f08;opacity:.5"/>
 <path d="m32 24-28-6 16 13z" style="fill:#b04f08;opacity:.5"/>
 <path d="m32 24 28-6-16 13z" style="fill:#b04f08;opacity:.5"/>
 <path d="m32 24v-18l-6 12z" style="fill:#b3d1ca"/>
 <path d="m32 6-6 12h-22l1.2304688 1h20.769531l6-12 6 12h20.769531l1.230469-1h-22l-6-12zm-12.34375 25.720703-9.65625 20.279297 0.625-0.3125 9.375-19.6875-0.34375-0.279297zm24.6875 0-0.34375 0.279297 9.375 19.6875 0.625 0.3125-9.65625-20.279297z" style="fill:#8b9cbe;opacity:.2"/>
</svg>
