<svg width="64" height="64" version="1.1" xmlns="http://www.w3.org/2000/svg">
 <rect x="4" y="5" width="56" height="56" ry="20" style="opacity:.2"/>
 <rect x="4" y="4" width="56" height="56" ry="20" style="fill:#971212"/>
 <path d="m 10,22 c 0,0 3.799999,6.799999 17.799998,6.799999 C 27.799998,14.799999 21,11 21,11 h 22 c 0,0 -6.800003,3.799999 -6.800003,17.799999 C 50.199996,28.799999 54,22 54,22 V 44 C 54,44 50.199996,37.199999 36.199997,37.199999 36.199997,51.199999 43,55 43,55 H 21 c 0,0 6.799998,-3.800001 6.799998,-17.800001 C 13.799999,37.199999 10,44 10,44 Z" style="opacity:.2"/>
 <path d="m 10,21 c 0,0 3.799999,6.799999 17.799998,6.799999 C 27.799998,13.799999 21,10 21,10 h 22 c 0,0 -6.800003,3.799999 -6.800003,17.799999 C 50.199996,27.799999 54,21 54,21 V 43 C 54,43 50.199996,36.199999 36.199997,36.199999 36.199997,50.199999 43,54 43,54 H 21 c 0,0 6.799998,-3.800001 6.799998,-17.800001 C 13.799999,36.199999 10,43 10,43 Z" style="fill:#f55500"/>
 <path d="m24 4c-11.08 0-20 8.92-20 20v1c0-11.08 8.92-20 20-20h16c11.08 0 20 8.92 20 20v-1c0-11.08-8.92-20-20-20h-16z" style="fill:#8b9cbe;opacity:.1"/>
 <path d="m21 10s0.516465 0.300163 1.255859 1h19.486329c0.73973-0.700265 1.257812-1 1.257812-1h-22zm-11 11v1s3.800782 6.800781 17.800781 6.800781c0-0.34891-0.023013-0.663661-0.03125-1-13.97325-0.010565-17.769531-6.800781-17.769531-6.800781zm44 0s-3.796281 6.790216-17.769531 6.800781c-0.008237 0.336347-0.03125 0.651081-0.03125 1 13.999999 0 17.800781-6.800781 17.800781-6.800781v-1zm-26.230469 16.199219c-0.322258 13.159223-6.769531 16.800781-6.769531 16.800781h1.255859c1.963342-1.858304 5.544922-6.630799 5.544922-16.800781-0.010893 0-0.020369-8e-6 -0.03125 0zm8.429688 0c0 10.168912 3.57949 14.942056 5.542969 16.800781h1.257812s-6.447266-3.641577-6.769531-16.800781c-0.010881-8e-6 -0.020357 0-0.03125 0z" style="fill:#8b9cbe;opacity:.2"/>
</svg>
