<svg xmlns="http://www.w3.org/2000/svg" width="64" height="64" version="1">
 <path style="opacity:0.2" d="m 31.958984,5.9999542 a 2.545709,2.5241095 0 0 0 -0.464843,0.046875 L 6.0585938,10.960892 A 2.545709,2.5241095 0 0 0 4,13.439407 v 38.162109 a 2.545709,2.5241095 0 0 0 2.0644531,2.478516 L 31.496094,58.953079 A 2.545709,2.5241095 0 0 0 32,58.999954 c 0.155138,-0.0014 0.310599,-0.01752 0.462891,-0.04687 L 57.935547,54.080032 C 59.134055,53.851256 60.00016,52.811677 60,51.601516 V 13.439407 c 6.65e-4,-1.208476 -0.862261,-2.247462 -2.058594,-2.478515 L 32.466797,6.0468292 C 32.312624,6.0180466 32.156881,6.0021195 32,6.0019073 a 2.545709,2.5241095 0 0 0 -0.04102,-0.00195 z"/>
 <path style="fill:#ff6633" d="M 32,5.0027236 V 57.999941 c 0.155138,-0.0014 0.309817,-0.01695 0.462109,-0.0463 L 57.935547,53.08023 C 59.134055,52.851454 60.00016,51.811466 60,50.601305 v -38.16181 c 6.65e-4,-1.208476 -0.862651,-2.24787 -2.058984,-2.4789233 L 32.467578,5.046309 C 32.313405,5.0175264 32.156881,5.0029358 32,5.0027236 Z"/>
 <path style="opacity:0.2;fill:none;stroke:#000000;stroke-width:3" d="m 46.5,13 v 6.947352 L 38.02,28.5 h 8.48 v 7 h 7.9 l -7.9,9.552588 V 51"/>
 <path style="fill:none;stroke:#fdfdfd;stroke-width:3" d="m 46.5,12 v 6.947352 L 38.02,27.5 h 8.48 v 7 h 7.9 l -7.9,9.552588 V 50"/>
 <path style="fill:#404041" d="m 31.958984,4.9999995 a 2.545709,2.5241095 0 0 0 -0.464843,0.046309 L 6.0589843,9.9605717 A 2.545709,2.5241095 0 0 0 4,12.439495 v 38.16181 A 2.545709,2.5241095 0 0 0 6.0644532,53.08023 L 31.496875,57.953632 A 2.545709,2.5241095 0 0 0 32,57.999941 V 5.0027236 a 2.545709,2.5241095 0 0 0 -0.04102,-0.00272 z"/>
 <path style="opacity:0.2;fill:#8b9cbe" d="M 32 5.0019531 L 32 6.0019531 C 32.156881 6.0021653 32.312624 6.0180924 32.466797 6.046875 L 57.941406 10.960938 C 59.137739 11.191991 60.000665 12.230977 60 13.439453 L 60 12.439453 C 60.000665 11.230977 59.137739 10.191991 57.941406 9.9609375 L 32.466797 5.046875 C 32.312624 5.0180924 32.156881 5.0021653 32 5.0019531 z"/>
 <path style="opacity:0.1;fill:#8b9cbe" d="M 31.958984 5 A 2.545709 2.5241095 0 0 0 31.494141 5.046875 L 6.0585938 9.9609375 A 2.545709 2.5241095 0 0 0 4 12.439453 L 4 13.439453 A 2.545709 2.5241095 0 0 1 6.0585938 10.960938 L 31.494141 6.046875 A 2.545709 2.5241095 0 0 1 31.958984 6 A 2.545709 2.5241095 0 0 1 32 6.0019531 L 32 5.0019531 A 2.545709 2.5241095 0 0 0 31.958984 5 z"/>
</svg>
