<svg xmlns="http://www.w3.org/2000/svg" width="64" height="64" version="1">
 <path style="opacity:0.2" d="m 60,40 c 0,12 -8,20 -20,20 l -8,0 C 20,60 12.9608,53.73724 12.164,44 L 10,44 C 4,44 4,38 4,38 l 0,-4 c 0,-6 6,-6 6,-6 l 2,0 48,0 z M 10,32 C 8,31.8708 7.9376,34.125 7.9376,34.125 l 0,4 C 7.9376,40 10,40 10,40 l 2,0 -0.04,-7.93752 z"/>
 <path style="fill:#b2bfd9" d="m 60,39 c 0,12 -8,20 -20,20 l -8,0 C 20,59 12.9608,52.73724 12.164,43 L 10,43 C 4,43 4,37 4,37 l 0,-4 c 0,-6 6,-6 6,-6 l 2,0 48,0 z M 10,31 C 8,30.8708 7.9376,33.125 7.9376,33.125 l 0,4 C 7.9376,39 10,39 10,39 l 2,0 -0.04,-7.93752 z"/>
 <path style="opacity:0.2;fill:#8b9cbe" d="m 60,27 0,1 -48,0 -2,0 c 0,0 -6,0 -6,6 l 0,-1 c 0,-6 6,-6 6,-6 l 2,0 48,0 z M 7.9375,37.125 C 7.9375,39 10,39 10,39 l 1.994141,0 0.0059,1 -2,0 c 0,0 -2.0625,0 -2.0625,-1.875 l 0,-1 z"/>
 <path style="opacity:0.2" d="m 24.774555,6 c -4.3928,4.614067 -5.713307,6.887319 -4.128907,9.824219 1.4364,2.662233 5.151556,4.019014 3.285157,10.175781 3.065599,-2.999734 5.50095,-6.809646 3.09375,-9.882813 -2.4488,-3.125666 -3.79,-5.023854 -2.25,-10.117187 z m 12,0 c -4.3928,4.614067 -5.713306,6.887319 -4.128906,9.824219 1.4364,2.662233 5.151556,4.019014 3.285156,10.175781 3.0656,-2.999734 5.50095,-6.809646 3.09375,-9.882813 -2.4488,-3.125666 -3.79,-5.023854 -2.25,-10.117187 z m 12,0 c -4.3928,4.614067 -5.713306,6.887319 -4.128906,9.824219 1.4364,2.662233 5.151556,4.019014 3.285156,10.175781 3.0656,-2.999734 5.50095,-6.809646 3.09375,-9.882813 -2.4488,-3.125666 -3.79,-5.023854 -2.25,-10.117187 z"/>
 <path style="fill:#956b5f" d="m 24.774555,5 c -4.3928,4.6140666 -5.713307,6.887319 -4.128907,9.824219 1.4364,2.662233 5.151556,4.019014 3.285157,10.175781 3.065599,-2.999734 5.50095,-6.809646 3.09375,-9.882813 -2.4488,-3.125666 -3.79,-5.023854 -2.25,-10.117187 z m 12,0 c -4.3928,4.6140666 -5.713306,6.887319 -4.128906,9.824219 1.4364,2.662233 5.151556,4.019014 3.285156,10.175781 3.0656,-2.999734 5.50095,-6.809646 3.09375,-9.882813 -2.4488,-3.125666 -3.79,-5.023854 -2.25,-10.117187 z m 12,0 c -4.3928,4.6140666 -5.713306,6.887319 -4.128906,9.824219 1.4364,2.662233 5.151556,4.019014 3.285156,10.175781 3.0656,-2.999734 5.50095,-6.809646 3.09375,-9.882813 -2.4488,-3.125666 -3.79,-5.023854 -2.25,-10.117187 z"/>
 <path style="opacity:0.1;fill:#8b9cbe" d="M 24.774555,5 C 21.310906,8.6381136 19.765758,10.821165 20.040179,13.021484 20.266776,11.210371 21.727187,9.2469315 24.428851,6.375 24.525691,5.93654 24.624982,5.4946891 24.774555,5 Z m 12,0 C 33.310906,8.6381136 31.765758,10.821165 32.040179,13.021484 32.266776,11.210371 33.727188,9.2469315 36.428851,6.375 36.525691,5.93654 36.624982,5.4946891 36.774555,5 Z m 12,0 C 45.310906,8.6381136 43.765758,10.821165 44.040179,13.021484 44.266776,11.210371 45.727188,9.2469315 48.428851,6.375 48.525691,5.93654 48.624982,5.4946891 48.774555,5 Z M 24.137836,9.2304688 c -0.17719,2.8638722 1.037867,4.5268312 2.886719,6.8867192 0.564401,0.720547 0.85318,1.48206 0.939453,2.263671 0.11823,-1.13151 -0.136582,-2.23868 -0.939453,-3.263671 -1.622417,-2.070865 -2.752473,-3.60727 -2.886719,-5.8867192 z m 12,0 c -0.17719,2.8638722 1.037867,4.5268312 2.886719,6.8867192 0.564401,0.720547 0.85318,1.48206 0.939453,2.263671 0.11823,-1.13151 -0.136582,-2.23868 -0.939453,-3.263671 -1.622417,-2.070865 -2.752473,-3.60727 -2.886719,-5.8867192 z m 12,0 c -0.17719,2.8638722 1.037867,4.5268312 2.886719,6.8867192 0.564401,0.720547 0.85318,1.48206 0.939453,2.263671 0.11823,-1.13151 -0.136582,-2.23868 -0.939453,-3.263671 -1.622417,-2.070865 -2.752473,-3.60727 -2.886719,-5.8867192 z M 24.417133,22.40625 c -0.0456,0.762538 -0.188646,1.611772 -0.486328,2.59375 0.113013,-0.110585 0.217035,-0.229087 0.328124,-0.341797 0.162736,-0.847177 0.206332,-1.591032 0.158204,-2.251953 z m 12,0 c -0.0456,0.762538 -0.188646,1.611772 -0.486328,2.59375 0.113013,-0.110585 0.217035,-0.229087 0.328124,-0.341797 0.162736,-0.847177 0.206332,-1.591032 0.158204,-2.251953 z m 12,0 c -0.0456,0.762538 -0.188646,1.611772 -0.486328,2.59375 0.113013,-0.110585 0.217035,-0.229087 0.328124,-0.341797 0.162736,-0.847177 0.206332,-1.591032 0.158204,-2.251953 z"/>
</svg>
