<svg xmlns="http://www.w3.org/2000/svg" width="64" height="64" version="1">
 <path style="opacity:0.2" d="m 4,50 0,2 c 0,1.662 1.338,3 3,3 l 50,0 c 1.662,0 3,-1.338 3,-3 l 0,-2 c 0,1.662 -1.338,3 -3,3 L 7,53 C 5.338,53 4,51.662 4,50 Z"/>
 <rect style="fill:#325f78" width="44" height="56" x="-54" y="-60" rx="3" ry="3" transform="matrix(0,-1,-1,0,0,0)"/>
 <rect style="opacity:0.2" width="36" height="48" x="-50" y="-56" rx="0" ry="0" transform="matrix(0,-1,-1,0,0,0)"/>
 <path style="opacity:0.1;fill:#8b9cbe" d="M 7 9.9980469 C 5.338 9.9980469 4 11.336047 4 12.998047 L 4 14 C 4 12.338 5.338 11 7 11 L 57 11 C 58.662 11 60 12.338 60 14 L 60 12.998047 C 60 11.336047 58.662 9.9980469 57 9.9980469 L 7 9.9980469 z"/>
 <path style="opacity:0.2" d="M 14.333984,41 C 13.595314,41 13,41.595314 13,42.333984 l 0,5.332032 C 13,48.404686 13.595314,49 14.333984,49 l 5.332032,0 C 20.404686,49 21,48.404686 21,47.666016 l 0,-5.332032 C 21,41.595314 20.404686,41 19.666016,41 l -5.332032,0 z m 10,0 C 23.595314,41 23,41.595314 23,42.333984 l 0,5.332032 C 23,48.404686 23.595314,49 24.333984,49 l 5.332032,0 C 30.404686,49 31,48.404686 31,47.666016 l 0,-5.332032 C 31,41.595314 30.404686,41 29.666016,41 l -5.332032,0 z m 10,0 C 33.595314,41 33,41.595314 33,42.333984 l 0,5.332032 C 33,48.404686 33.595314,49 34.333984,49 l 5.332032,0 C 40.404686,49 41,48.404686 41,47.666016 l 0,-5.332032 C 41,41.595314 40.404686,41 39.666016,41 l -5.332032,0 z m 10,0 C 43.595314,41 43,41.595314 43,42.333984 l 0,5.332032 C 43,48.404686 43.595314,49 44.333984,49 l 5.332032,0 C 50.404686,49 51,48.404686 51,47.666016 l 0,-5.332032 C 51,41.595314 50.404686,41 49.666016,41 l -5.332032,0 z"/>
 <path style="fill:#8b9cbe" d="M 14.333984,40 C 13.595314,40 13,40.595314 13,41.333984 l 0,5.332032 C 13,47.404686 13.595314,48 14.333984,48 l 5.332032,0 C 20.404686,48 21,47.404686 21,46.666016 l 0,-5.332032 C 21,40.595314 20.404686,40 19.666016,40 l -5.332032,0 z m 10,0 C 23.595314,40 23,40.595314 23,41.333984 l 0,5.332032 C 23,47.404686 23.595314,48 24.333984,48 l 5.332032,0 C 30.404686,48 31,47.404686 31,46.666016 l 0,-5.332032 C 31,40.595314 30.404686,40 29.666016,40 l -5.332032,0 z m 10,0 C 33.595314,40 33,40.595314 33,41.333984 l 0,5.332032 C 33,47.404686 33.595314,48 34.333984,48 l 5.332032,0 C 40.404686,48 41,47.404686 41,46.666016 l 0,-5.332032 C 41,40.595314 40.404686,40 39.666016,40 l -5.332032,0 z m 10,0 C 43.595314,40 43,40.595314 43,41.333984 l 0,5.332032 C 43,47.404686 43.595314,48 44.333984,48 l 5.332032,0 C 50.404686,48 51,47.404686 51,46.666016 l 0,-5.332032 C 51,40.595314 50.404686,40 49.666016,40 l -5.332032,0 z"/>
</svg>
