<svg xmlns="http://www.w3.org/2000/svg" width="64" height="64" version="1">
 <path style="opacity:0.2" d="m 4,56 0,2 c 0,1.662 1.338,3 3,3 l 50,0 c 1.662,0 3,-1.338 3,-3 l 0,-2 c 0,1.662 -1.338,3 -3,3 L 7,59 C 5.338,59 4,57.662 4,56 Z"/>
 <rect style="fill:#b2bfd9" width="56" height="56" x="4" y="4" rx="3" ry="3"/>
 <path style="opacity:0.1;fill:#8b9cbe" d="M 7 4 C 5.338 4 4 5.338 4 7 L 4 8 C 4 6.338 5.338 5 7 5 L 57 5 C 58.662 5 60 6.338 60 8 L 60 7 C 60 5.338 58.662 4 57 4 L 7 4 z"/>
 <path style="opacity:0.5;fill:#ff0000" d="M 23.000562,24.999438 C 20.238722,24.999438 18,27.23816 18,30 c 0,2.761465 2.238535,5 5,5 2.761465,0 5,-2.238535 5,-5 l -5,0 z"/>
 <path style="opacity:0.5" d="m 31,26 0,2 14,0 0,-2 z"/>
 <path style="opacity:0.5" d="m 31,32 0,2 14,0 0,-2 z"/>
 <path style="opacity:0.5" d="m 19,38 0,2 20,0 0,-2 z"/>
</svg>
