<svg xmlns="http://www.w3.org/2000/svg" width="64" height="64" version="1">
 <circle style="opacity:0.2;stroke:#000000;stroke-width:0;stroke-linecap:round;stroke-linejoin:round" cx="32" cy="33" r="28"/>
 <ellipse style="fill:#8b9cbe;stroke:#000000;stroke-width:0;stroke-linecap:round;stroke-linejoin:round" cx="31.988" cy="32.017" rx="27.307" ry="27.312"/>
 <path style="fill:#e040fb;stroke:#000000;stroke-width:0;stroke-linecap:round;stroke-linejoin:round" d="M 56.243074,18.010753 A 28.007206,28.012162 0 0 0 17.98452,7.7575896 28.007206,28.012162 0 0 0 7.7002714,18.134306 L 31.988122,32.016834 Z"/>
 <path style="fill:#fdfd4b;stroke:#000000;stroke-width:0;stroke-linecap:round;stroke-linejoin:round" d="m 56.243074,18.010753 -24.254952,14.006081 -0.12444,27.98262 a 28.007206,28.012162 0 0 0 14.128042,-3.723376 28.007206,28.012162 0 0 0 10.25135,-38.265325 z"/>
 <path style="fill:#18ffff;stroke:#000000;stroke-width:0;stroke-linecap:round;stroke-linejoin:round" d="M 31.988122,32.016834 7.7002714,18.134306 a 28.007206,28.012162 0 0 0 0.0329,27.88861 28.007206,28.012162 0 0 0 24.1305186,13.976538 z"/>
 <path style="opacity:0.2;fill:#8b9cbe;stroke:#000000;stroke-width:0;stroke-linecap:round;stroke-linejoin:round" d="M 32 4 A 27.999998 27.999998 0 0 0 4 32 A 27.999998 27.999998 0 0 0 4.0175781 32.492188 A 27.999998 27.999998 0 0 1 32 5 A 27.999998 27.999998 0 0 1 59.974609 32.492188 A 27.999998 27.999998 0 0 0 60 32 A 27.999998 27.999998 0 0 0 32 4 z"/>
 <path style="opacity:0.1" d="M 37.516384,35.73192 C 33.191824,39.714544 24.87193,33.397296 21.360204,29.429762 17.748284,25.349012 4.2614698,11.585746 3.275685,10.693119 2.2899472,9.8005245 1.5048836,8.6982115 2.3765278,7.6014826 3.283934,6.5333968 4.5387736,7.064057 5.627094,7.8318234 6.715485,8.5996175 23.14344,18.783972 27.934444,21.429988 c 4.65805,2.572612 12.637862,9.303718 9.58194,14.301932 z"/>
 <path style="fill:#4f4f4f" d="M 37.516384,34.73192 C 33.191824,38.714544 24.87193,32.397296 21.360204,28.429762 17.748284,24.349012 4.2614698,10.585746 3.275685,9.6931192 2.2899472,8.8005258 1.5048836,7.698213 2.3765278,6.601484 3.283934,5.5333982 4.5387736,6.0640584 5.627094,6.8318248 6.715485,7.5996192 23.14344,17.783972 27.934444,20.429988 c 4.65805,2.572612 12.637862,9.303718 9.58194,14.301932 z"/>
 <path style="opacity:0.1" d="M 43.8,38.679568 C 28,52.44542 13.540881,40.150366 11.443855,35.332328 c 1.24008,8.362752 6.972087,15.846426 15.631347,18.726502 6.539872,2.175122 20.001364,0.73345 21.014166,-5.935946 z"/>
 <path style="fill:#4883f7" d="M 43.8,37.679568 C 28,51.44542 13.540881,39.150366 11.443855,34.332328 c 1.24008,8.362752 6.972087,15.846426 15.631347,18.726502 6.539872,2.175122 20.001364,0.73345 21.014166,-5.935946 z"/>
 <path style="opacity:0.1" d="m 43.554412,40.642458 c -1.351708,0.608608 -1.205528,1.0485 -2.405724,0.85874 -0.827794,-0.13088 -7.998968,-5.474892 -7.998968,-5.474892 -0.363482,-0.857552 0.07254,-2.036452 0.891568,-2.969516 0.759638,-0.980408 1.843016,-1.643106 2.771546,-1.470434 0,0 6.798724,5.79544 7.099822,6.564718 0.43655,1.115372 -0.03144,1.065532 -0.358244,2.491384 z"/>
 <path style="fill:#9b9b9b" d="m 43.554412,39.642458 c -1.351708,0.608608 -1.205528,1.0485 -2.405724,0.85874 -0.827794,-0.13088 -7.998968,-5.474892 -7.998968,-5.474892 -0.363482,-0.857552 0.07254,-2.036452 0.891568,-2.969516 0.759638,-0.980408 1.843016,-1.643106 2.771546,-1.470434 0,0 6.798724,5.79544 7.099822,6.564718 0.43655,1.115372 -0.03144,1.065532 -0.358244,2.491384 z"/>
 <path style="opacity:0.1" d="m 44.886558,52.367922 c 5.083304,-2.859306 6.278442,-8.011695 4.271252,-11.65594 -1.559778,-2.831911 -4.120846,-3.367326 -5.889766,-1.998014 -1.754804,1.358387 -1.9095,2.977027 -1.386052,4.584618 1.067492,3.27876 5.645154,5.687737 3.004566,9.069336 z"/>
 <path style="fill:#17191e" d="m 44.886558,51.367922 c 5.083304,-2.859306 6.278442,-8.011695 4.271252,-11.65594 -1.559778,-2.831911 -4.120846,-3.367326 -5.889766,-1.998014 -1.754804,1.358387 -1.9095,2.977027 -1.386052,4.584618 1.067492,3.27876 5.645154,5.687737 3.004566,9.069336 z"/>
</svg>
