<svg width="64" height="64" version="1.1" xmlns="http://www.w3.org/2000/svg">
 <circle cx="32" cy="33" r="28" style="opacity:.2"/>
 <circle cx="32" cy="32" r="28" style="fill:#2577ff"/>
 <path d="M 32,4 A 28,28 0 0 0 4,32 28,28 0 0 0 4.0215,32.586 28,28 0 0 1 32,5 28,28 0 0 1 59.979,32.414 28,28 0 0 0 60,32 28,28 0 0 0 32,4 Z" style="fill:#8b9cbe;opacity:.2"/>
 <path d="m32 10a23 23 0 0 0-23 23 23 23 0 0 0 23 23 23 23 0 0 0 23-23 23 23 0 0 0-23-23zm0 6a17 17 0 0 1 16.726562 14h-9.314453a8 8 0 0 0-7.412109-5 8 8 0 0 0-8 8 8 8 0 0 0 8 8 8 8 0 0 0 7.410156-5h9.306641a17 17 0 0 1-16.716797 14 17 17 0 0 1-17-17 17 17 0 0 1 17-17z" style="opacity:.2"/>
 <path d="m32 9a23 23 0 0 0-23 23 23 23 0 0 0 23 23 23 23 0 0 0 23-23 23 23 0 0 0-23-23zm0 6a17 17 0 0 1 16.726562 14h-9.314453a8 8 0 0 0-7.412109-5 8 8 0 0 0-8 8 8 8 0 0 0 8 8 8 8 0 0 0 7.410156-5h9.306641a17 17 0 0 1-16.716797 14 17 17 0 0 1-17-17 17 17 0 0 1 17-17z" style="fill:#8b9cbe"/>
</svg>
