<svg xmlns="http://www.w3.org/2000/svg" width="64" height="64" version="1">
 <path style="opacity:0.2" transform="matrix(0,-1,-1,0,0,0)" d="M -56.066161,-57.499417 -45.68028,-61 H -6.9000001 C -5.2934,-61 -4,-59.7066 -4,-58.1 V -5.9000001 C -4,-4.2934 -5.2934,-3 -6.9000001,-3 H -59.1 C -60.7066,-3 -62,-4.2934 -62,-5.9000001 V -49.24154 l 2.567095,-3.840957 c 0.892735,-1.335735 1.844296,-3.903775 3.366744,-4.41692 z"/>
 <path style="fill:#752828" transform="matrix(0,-1,-1,0,0,0)" d="M -55.766278,-56.915986 -46.030338,-61 -5.9000001,-61 C -4.2934,-61 -3,-59.7066 -3,-58.1 V -5.9000001 C -3,-4.2934 -4.2934,-3 -5.9000001,-3 H -58.1 C -59.7066,-3 -61,-4.2934 -61,-5.9000001 V -48.541424 l 2.217036,-5.24119 c 0.625902,-1.479665 1.535154,-2.511902 3.016686,-3.133372 z"/>
 <path style="opacity:0.2;fill:none;stroke:#000000;stroke-width:3" d="m 19,33 c 10.609502,0 15.3905,20 26,20"/>
 <path style="fill:none;stroke:#6c7f94;stroke-width:3" d="m 19,32 c 10.609502,0 15.3905,20 26,20"/>
 <path style="opacity:0.2;fill:none;stroke:#000000;stroke-width:3" d="m 19,13 c 10.609502,0 15.3905,20 26,20"/>
 <path style="opacity:0.2;fill-rule:evenodd" d="M 15.02412,30 14.975882,30.05496 12,33.000368 15.024119,36 H 21 v -6 z"/>
 <path style="fill:#4c66cc;fill-rule:evenodd" d="M 15.02412,29 14.975882,29.05496 12,32.000368 15.024119,35 H 21 v -6 z"/>
 <path style="opacity:0.2;fill-rule:evenodd" d="m 43,50 v 6 h 6.034086 L 52,53 49.034086,50 h -0.0682 z"/>
 <path style="fill:#4c66cc;fill-rule:evenodd" d="m 43,49 v 6 h 6.034086 L 52,52 49.034086,49 h -0.0682 z"/>
 <path style="fill:none;stroke:#6c7f94;stroke-width:3" d="m 19,12 c 10.609502,0 15.3905,20 26,20"/>
 <path style="opacity:0.2;fill-rule:evenodd" d="M 15.02412,10 14.975882,10.05496 12,13.000368 15.024119,16 H 21 v -6 z"/>
 <path style="fill:#4c66cc;fill-rule:evenodd" d="M 15.02412,9 14.975882,9.05496 12,12.000368 15.024119,15 H 21 V 9 Z"/>
 <path style="opacity:0.2;fill-rule:evenodd" d="m 43,30 v 6 h 6.034086 L 52,33 49.034086,30 h -0.0682 z"/>
 <path style="fill:#4c66cc;fill-rule:evenodd" d="m 43,29 v 6 h 6.034086 L 52,32 49.034086,29 h -0.0682 z"/>
 <path style="opacity:0.1;fill:#8b9cbe" d="M 5.8984375 3 C 4.2918373 3 3 4.2918373 3 5.8984375 L 3 6.8984375 C 3 5.2918373 4.2918373 4 5.8984375 4 L 58.101562 4 C 59.708163 4 61 5.2918373 61 6.8984375 L 61 5.8984375 C 61 4.2918373 59.708163 3 58.101562 3 L 5.8984375 3 z"/>
 <circle style="fill:#17191e" cx="48" cy="47" r="16"/>
 <path style="fill:#8b9cbe" d="m 45.02724,54.747563 c 0,-0.415154 0.0596,-0.765906 0.1788,-1.053215 0.1192,-0.28637 0.28444,-0.517978 0.4968,-0.694784 0.2114,-0.176806 0.46124,-0.30463 0.74856,-0.384393 0.28636,-0.0788 0.5929,-0.119204 0.91962,-0.119204 0.30942,0 0.60348,0.0404 0.8812,0.119204 0.2777,0.0798 0.52274,0.207567 0.7351,0.384393 0.21142,0.176806 0.37862,0.408414 0.50258,0.694784 0.124,0.287309 0.1854,0.638061 0.1854,1.053215 0,0.397834 -0.0614,0.738026 -0.1854,1.020555 -0.124,0.28157 -0.29116,0.516998 -0.50258,0.702464 -0.21236,0.184606 -0.4574,0.319051 -0.7351,0.403614 C 47.9745,56.957796 47.68044,57 47.37102,57 47.0443,57 46.73776,56.9578 46.4514,56.874196 c -0.28732,-0.0846 -0.53716,-0.219108 -0.74856,-0.403614 -0.21236,-0.185406 -0.37766,-0.420894 -0.4968,-0.702464 -0.118,-0.282009 -0.178,-0.622021 -0.178,-1.020035 m 0.43724,-4.529954 v -0.979233 c 0,-0.450695 0.0462,-0.859109 0.1392,-1.225242 0.0922,-0.367072 0.23352,-0.714944 0.42378,-1.046495 0.1894,-0.330571 0.43434,-0.653442 0.73416,-0.966733 0.30076,-0.313291 0.66304,-0.638102 1.08682,-0.973473 0.37092,-0.29117 0.6842,-0.551599 0.9398,-0.782227 0.25656,-0.228707 0.46316,-0.456475 0.6227,-0.682283 0.1586,-0.224868 0.27386,-0.460316 0.344,-0.707284 0.0712,-0.247928 0.1068,-0.535278 0.1068,-0.861029 0,-0.503557 -0.171,-0.919651 -0.51028,-1.245423 -0.34018,-0.326731 -0.85908,-0.490096 -1.5567,-0.490096 -0.6083,0 -1.2646,0.127804 -1.96706,0.383433 -0.70052,0.256569 -1.42796,0.569839 -2.1784,0.940792 L 42.3,38.655736 c 0.37862,-0.221027 0.79182,-0.430514 1.23768,-0.628461 0.44686,-0.199007 0.91002,-0.375753 1.3905,-0.530458 0.48142,-0.153805 0.96958,-0.275809 1.4635,-0.364212 C 46.88658,37.044205 47.37184,37 47.84944,37 c 0.9004,0 1.7124,0.108604 2.436,0.324811 0.72456,0.216207 1.3386,0.531398 1.84116,0.946552 0.5045,0.415134 0.88984,0.919651 1.1589,1.510652 0.27002,0.59196 0.40456,1.266563 0.40456,2.025668 0,0.556399 -0.0626,1.053236 -0.1854,1.490471 -0.123,0.437255 -0.3075,0.843729 -0.5487,1.218502 -0.24408,0.375752 -0.5487,0.738025 -0.91482,1.085916 -0.36612,0.348832 -0.79278,0.717845 -1.27806,1.106078 -0.37092,0.29117 -0.6736,0.545819 -0.90808,0.762046 -0.23352,0.216227 -0.41706,0.421874 -0.5487,0.615021 -0.1326,0.195007 -0.22292,0.395933 -0.27194,0.6035 -0.0482,0.206607 -0.073,0.451656 -0.073,0.734185 v 0.794727 h -3.496 z"/>
 <path style="opacity:0.2" d="M 32.025391,47.501953 A 16,16 0 0 0 32,48 16,16 0 0 0 48,64 16,16 0 0 0 64,48 16,16 0 0 0 63.982422,47.507812 16,16 0 0 1 48,63 16,16 0 0 1 32.025391,47.501953 Z"/>
</svg>
