<svg xmlns="http://www.w3.org/2000/svg" width="64" height="64" version="1">
 <rect style="opacity:0.2" width="58" height="58" x="-62" y="-61" rx="2.9" ry="2.9" transform="matrix(0,-1,-1,0,0,0)"/>
 <rect style="fill:#752828" width="58" height="58" x="-61" y="-61" rx="2.9" ry="2.9" transform="matrix(0,-1,-1,0,0,0)"/>
 <path style="opacity:0.2;fill:none;stroke:#000000;stroke-width:3" d="m 19,33 c 10.609502,0 15.3905,20 26,20"/>
 <path style="fill:none;stroke:#6c7f94;stroke-width:3" d="m 19,32 c 10.609502,0 15.3905,20 26,20"/>
 <path style="opacity:0.2;fill:none;stroke:#000000;stroke-width:3" d="m 19,13 c 10.609502,0 15.3905,20 26,20"/>
 <path style="opacity:0.2;fill-rule:evenodd" d="M 15.02412,30 14.975882,30.05496 12,33.000368 15.024119,36 H 21 v -6 z"/>
 <path style="fill:#4c66cc;fill-rule:evenodd" d="M 15.02412,29 14.975882,29.05496 12,32.000368 15.024119,35 H 21 v -6 z"/>
 <path style="opacity:0.2;fill-rule:evenodd" d="m 43,50 v 6 h 6.034086 L 52,53 49.034086,50 h -0.0682 z"/>
 <path style="fill:#4c66cc;fill-rule:evenodd" d="m 43,49 v 6 h 6.034086 L 52,52 49.034086,49 h -0.0682 z"/>
 <path style="fill:none;stroke:#6c7f94;stroke-width:3" d="m 19,12 c 10.609502,0 15.3905,20 26,20"/>
 <path style="opacity:0.2;fill-rule:evenodd" d="M 15.02412,10 14.975882,10.05496 12,13.000368 15.024119,16 H 21 v -6 z"/>
 <path style="fill:#4c66cc;fill-rule:evenodd" d="M 15.02412,9 14.975882,9.05496 12,12.000368 15.024119,15 H 21 V 9 Z"/>
 <path style="opacity:0.2;fill-rule:evenodd" d="m 43,30 v 6 h 6.034086 L 52,33 49.034086,30 h -0.0682 z"/>
 <path style="fill:#4c66cc;fill-rule:evenodd" d="m 43,29 v 6 h 6.034086 L 52,32 49.034086,29 h -0.0682 z"/>
 <path style="opacity:0.1;fill:#8b9cbe" d="M 5.8984375 3 C 4.2918373 3 3 4.2918373 3 5.8984375 L 3 6.8984375 C 3 5.2918373 4.2918373 4 5.8984375 4 L 58.101562 4 C 59.708163 4 61 5.2918373 61 6.8984375 L 61 5.8984375 C 61 4.2918373 59.708163 3 58.101562 3 L 5.8984375 3 z"/>
</svg>
