<svg xmlns="http://www.w3.org/2000/svg" width="64" height="64" version="1">
 <path style="opacity:0.2" d="m 4.0000004,56.200069 0,1.999971 c 0,1.549978 1.2495821,2.79996 2.80076,2.79996 L 57.20004,61 C 58.750017,61 60,59.750018 60,58.20004 l 0,-1.999971 c 0,1.549977 -1.249983,2.79996 -2.79996,2.79996 l -50.3992796,0 c -1.5503779,0 -2.79996,-1.249983 -2.79996,-2.79996 z"/>
 <rect style="fill:#4f4f4f" width="56" height="56" x="4" y="4" rx="2.8" ry="2.8"/>
 <path style="opacity:0.1;fill:#8b9cbe" d="M 6.8007812 4 C 5.2496034 4 4 5.2496034 4 6.8007812 L 4 7.8027344 C 4 6.2515566 5.2496034 5.0019531 6.8007812 5.0019531 L 57.199219 5.0019531 C 58.749196 5.0019531 60 6.2515566 60 7.8027344 L 60 6.8007812 C 60 5.2496035 58.749196 4 57.199219 4 L 6.8007812 4 z"/>
 <g style="opacity:0.2" transform="matrix(1.9999714,0,0,1.9999714,5.760572e-5,1.0007722)">
  <rect width="10" height="6" x="5" y="5" rx="1.25" ry="1.2"/>
  <rect width="10" height="6" x="17" y="5" rx="1.25" ry="1.2"/>
  <rect width="10" height="6" x="11" y="13" rx="1.25" ry="1.2"/>
  <rect width="4" height="6" x="23" y="13" rx=".5" ry=".5"/>
  <rect width="10" height="6" x="5" y="21" rx="1.25" ry="1.2"/>
  <rect width="10" height="6" x="17" y="21" rx="1.25" ry="1.2"/>
 </g>
 <g style="fill:#ff6363" transform="matrix(1.9999714,0,0,1.9999714,5.760572e-5,8.866e-4)">
  <rect width="10" height="6" x="5" y="5" rx="1.25" ry="1.2"/>
  <rect width="10" height="6" x="17" y="5" rx="1.25" ry="1.2"/>
  <rect width="10" height="6" x="11" y="13" rx="1.25" ry="1.2"/>
  <rect width="4" height="6" x="23" y="13" rx=".5" ry=".5"/>
  <rect width="10" height="6" x="5" y="21" rx="1.25" ry="1.2"/>
  <rect width="10" height="6" x="17" y="21" rx="1.25" ry="1.2"/>
 </g>
</svg>
