<svg xmlns="http://www.w3.org/2000/svg" width="64" height="64" version="1">
 <circle style="opacity:0.2" class="cls-1" cx="32" cy="33" r="28"/>
 <circle style="fill:#314d7a" class="cls-1" cx="32" cy="32" r="28"/>
 <path style="opacity:0.2" d="m 30.949219,12.999513 c -0.02494,1.211119 0.655173,4.094058 -0.900391,1.787109 -0.686116,-0.833214 -1.253544,-1.327359 -0.473579,0.01256 0.43668,1.588082 2.529213,3.535024 2.257353,0.819929 -0.123555,-0.8764 -0.621859,-1.757226 -0.883383,-2.619598 z m 2.009765,0.130859 c -0.43817,1.100104 -1.087776,2.23224 -0.715353,3.443887 0.524951,1.948765 2.841603,-2.922298 2.258423,-2.475713 -0.803979,0.961791 -2.095891,2.60465 -1.596078,0.261849 0.0075,-0.410609 0.09344,-0.818421 0.05301,-1.230023 z m 3.279297,2.083985 c -1.428413,0.215539 -5.183675,2.854336 -1.876953,2.703125 0.328894,-0.142318 3.315018,-0.914524 2.132782,-0.877193 -1.096572,0.02937 -3.297665,0.433846 -1.370741,-0.830449 0.340411,-0.360813 0.790906,-0.625538 1.114912,-0.995483 z m -8.484375,0.02539 c 0.617992,0.752741 3.173221,2.350654 0.795707,1.858314 -1.256722,-0.126696 -1.901118,-3.19e-4 -0.338675,0.420983 1.201373,0.802407 4.245769,0.336217 1.87837,-1.146549 -0.740058,-0.447921 -1.53818,-0.80033 -2.335402,-1.132748 z m -13.095703,0.355469 c -1.390929,-0.256415 -0.463646,0.43443 0.104257,0.978426 5.536711,5.449436 11.062049,10.910569 16.620352,16.33798 -2.305442,2.249241 -4.583269,4.527402 -6.921874,6.742188 -2.564294,-1.664628 1.395442,-3.039396 0.439131,-5.324145 -0.199973,-0.0862 -0.618688,3.612979 -2.101951,2.951734 -1.807932,-3.035172 -1.38378,-6.892452 -3.480117,-9.809861 -0.748431,-1.609186 -2.707652,-2.249872 -3.411901,-3.786265 -0.08305,-1.388762 -2.996915,-3.146406 -3.349459,-2.365448 1.465848,-0.3101 4.149739,3.605235 1.540313,2.073802 -1.730646,-0.517177 -3.80268,-1.17736 -5.5149228,-0.632395 0.8608652,0.5904 4.2018688,-0.192355 3.9570308,1.095703 -0.351783,1.096875 -4.0847616,2.526706 -1.138671,1.582031 1.286962,-0.813848 2.067906,-2.618888 3.684214,-1.035541 2.046474,1.129679 5.295285,4.239861 4.432154,6.320022 -2.537198,0.569837 -4.331427,-1.797769 -5.8234,-3.399715 0.722891,1.635559 2.138637,2.999264 3.75,3.785156 -0.805121,0.544076 -4.256004,-0.165647 -1.746919,0.588264 1.668587,0.458981 5.049961,-1.865272 4.830019,1.158128 0.551601,2.378325 -3.493754,1.833985 -4.884475,1.247373 -1.4248,-0.300934 -3.306423,-2.203962 -4.026923,-2.370431 2.216406,2.451677 5.788368,4.181028 9.080251,2.948932 1.871126,2.442595 -2.43833,2.980224 -4.108809,2.646162 -0.918297,0.01764 -4.111775,-2.022692 -1.903165,-0.370125 1.095131,1.151499 5.152317,0.261819 2.848428,2.489464 -0.790207,0.569569 -1.331208,1.615345 -0.01907,0.582255 1.046166,-1.361365 2.504195,-3.349302 4.236207,-2.809412 0.708282,1.719279 3.03004,3.335441 0.473454,4.654987 -2.758593,2.825171 -5.645697,5.524001 -8.402041,8.349637 2.222119,0.587209 3.284499,-1.841667 4.776093,-2.978417 4.560956,-4.47778 9.104901,-8.972843 13.659454,-13.45713 5.537698,5.485207 11.094134,10.951454 16.642579,16.425782 0.957816,0.0576 2.548949,0.217056 0.953632,-0.856836 -3.037822,-2.959688 -6.052593,-5.942904 -9.076679,-8.916602 0.860726,-1.089384 1.502957,-2.333415 2.294921,-3.458984 2.28674,0.14459 2.765651,2.274352 4.439404,3.33884 0.251926,-0.345367 -2.743265,-2.89499 -0.254086,-2.4853 1.053486,-0.01184 3.419671,-1.051124 3.269241,-1.552829 -2.109961,1.446551 -5.20068,1.534243 -7.266928,-0.0086 -0.0088,-3.0832 3.464759,-0.135365 5.251434,-1.544187 1.141905,-0.39175 3.77358,-1.834435 3.621839,-2.459922 -2.248657,1.724493 -5.392929,3.18575 -8.135755,1.707544 -0.233699,-1.476346 0.135404,-3.341525 1.969332,-2.318683 2.198062,0.0205 4.105197,-1.507853 5.398488,-3.153466 -0.773161,0.09951 -3.640879,3.716359 -3.491176,1.302794 0.05506,-1.07112 1.791997,-3.415149 0.02243,-1.355528 -0.605416,1.503342 -0.533357,3.622638 -2.789062,2.455078 -1.248583,-1.442049 1.395726,-4.001992 2.518657,-5.237953 0.905962,-1.036143 1.81774,-1.402585 2.655139,-0.153764 0.81913,0.800389 3.384214,0.873989 3.601594,0.14953 -1.445273,1.011487 -5.824303,-1.41137 -2.679544,-2.015736 1.361495,-0.786436 3.720394,-0.355392 4.74204,-1.022258 -1.168902,-0.419504 -3.283674,0.480928 -3.904024,0.05013 0.391356,-1.050808 3.911997,-2.705763 1.078756,-1.571343 -1.572668,2.012864 -3.921754,2.68293 -5.932149,4.203267 -2.669117,2.128377 -3.657074,5.520055 -4.198866,8.747266 -0.168207,2.137616 -1.965471,5.043551 -3.012463,1.528599 -0.96146,-1.567176 0.01891,2.108367 0.958985,2.236328 0.655428,0.897489 -1.332762,2.590796 -1.944605,0.826628 C 37.011022,36.760109 35.077181,34.826411 33.125,32.911622 38.99522,27.143893 44.860951,21.371599 50.722656,15.595216 49.963262,15.722359 48.95739,15.250426 48.470641,16.040244 43.087668,21.363866 37.723089,26.706954 32.277344,31.96631 26.633286,26.578555 21.118291,21.056329 15.544922,15.595216 c -0.295573,0 -0.591146,0 -0.886719,0 z m 20.009766,2.578125 c -0.466503,0.223527 -2.197877,-0.06793 -1.694212,0.558381 0.334719,0.989417 3.258592,2.27011 2.970472,1.814884 -0.74914,-0.683511 -2.745009,-2.051716 -0.536026,-1.595921 1.181002,0.169446 1.799563,-0.02656 0.294509,-0.420173 -0.344914,-0.119057 -0.689829,-0.238114 -1.034743,-0.357171 z m -5.339844,0.0078 c -0.915411,0.311 -3.437573,1.076057 -1.131643,0.798887 1.448112,-0.242581 1.939382,-0.03897 0.662922,0.828814 -0.965265,0.813471 -1.558902,1.413302 -0.159485,0.617806 0.73277,-0.17279 2.97755,-1.669576 2.136934,-2.046112 -0.502629,-0.06858 -1.005725,-0.133629 -1.508728,-0.199395 z m 2.283203,0.671875 c -1.254648,0.296834 -2.506275,3.159498 -2.15667,3.093046 0.671959,-0.692232 2.005464,-2.675668 1.601309,-0.574094 -0.142053,1.163056 -0.117933,2.237515 0.37958,0.447844 0.521941,-0.980548 0.398664,-1.904026 0.175781,-2.966796 z m 0.732422,0 c -0.191563,0.961256 -0.35947,1.935102 0.136347,2.830727 0.395769,1.453826 0.623858,1.281495 0.447637,-0.09635 -0.811372,-3.041547 1.761261,0.859361 1.864561,0.505617 -0.628876,-1.230303 -1.079211,-2.623497 -2.448545,-3.239981 z m -21.259766,9.103515 c -0.751834,0.8327 -0.81758,1.190398 -1.7356606,0.245439 -1.1133926,0.2753 -0.7084847,1.357439 -0.4948078,1.848311 -1.7439721,0.537401 -0.2054687,2.106905 0.8925782,1.511242 -0.3256166,1.680979 2.0864012,1.459353 1.6088922,-0.200602 1.73695,0.716553 2.127937,-1.832979 0.344021,-1.57676 0.69711,-1.358469 0.130084,-1.246779 -0.615023,-1.82763 z m 42.806641,0.638672 c -1.470319,-4.99e-4 -2.01747,0.995259 -0.461333,1.430472 0.504082,-0.0064 0.902725,-1.256767 0.461333,-1.430472 z m 0.564453,0.05078 c -1.236582,1.267849 0.808709,2.087109 1.291616,1.068585 -0.401235,-0.385195 -0.769775,-0.844965 -1.291616,-1.068585 z M 10.25,29.321779 c 0.224862,0.6411 0.980409,0.149989 0.663674,0.816047 0.577248,-0.177227 0.02471,0.386287 0.310326,0.382005 -0.99515,-0.362475 0.628184,0.8875 -0.5365,0.07148 0.437156,0.662018 -0.335235,-0.04836 -0.253906,0.429687 C 10.129753,30.885769 9.7795299,30.981239 9.9668841,30.565552 9.2563727,30.778606 9.7279787,29.823193 9.956857,29.849511 9.8498485,29.114295 10.318497,30.237098 10.25,29.321779 Z m 41.953125,0.171875 c -0.722883,0.722769 -0.53595,2.564996 0.865234,1.308593 0.394563,-0.628249 -0.475544,-1.007479 -0.865234,-1.308593 z m 3.695313,0.55664 c -1.646941,-0.167326 -1.486795,1.868509 -0.206579,1.658961 0.195462,-0.526384 0.259142,-1.101007 0.206579,-1.658961 z m -2.060547,0.296875 c -1.309203,1.03904 1.399232,0.627967 0,0 z m -29.576172,0.298828 c -1.119771,0.262529 0.09107,1.691694 -1.364062,1.326882 -1.16044,0.702255 0.724827,1.164848 0.528124,1.555931 -0.605058,1.271558 1.089413,1.234546 1.438778,0.271246 0.620299,1.37482 2.164709,-0.245339 0.804319,-0.938378 1.727749,-0.670651 0.101472,-2.034815 -0.692316,-1.266462 -0.04777,-0.39533 -0.283102,-0.870944 -0.714843,-0.949219 z m 15.332031,0.181641 c -1.99313,0.05496 1.137145,2.364265 0.896484,0.08789 -0.290123,-0.09511 -0.596372,-0.08459 -0.896484,-0.08789 z m -1.056641,0.257813 c -1.352686,0.58793 -0.850097,2.264556 0.460938,1.349609 0.269166,-0.431904 -0.265705,-0.988001 -0.460938,-1.349609 z m 14.591797,0.0078 c -2.642154,-0.217282 0.905045,3.110281 0.433472,0.581642 0.113647,-0.301855 -0.167726,-0.533443 -0.433472,-0.581642 z m -12.263672,0.02344 c -1.514642,0.85979 0.311615,2.300162 0.833169,1.403433 -0.201338,-0.478975 -0.36859,-1.120579 -0.833169,-1.403433 z m 13.408204,0.228515 c -1.414831,0.890927 -0.314106,2.064092 0.899292,0.953703 0.763522,-0.135939 -0.697349,-0.917234 -0.899292,-0.953703 z m -29.855469,0.646485 c 0.386937,0.290089 0.97366,0.11951 0.679687,0.78125 0.199999,0.436576 -0.449978,0.475278 -0.59205,0.690078 -0.308756,-0.384822 -0.653128,-0.356254 -0.607168,-0.89711 0.232638,-0.406083 0.468585,-0.278578 0.519531,-0.574218 z m 15.226562,0.453124 c -1.326857,0.810857 1.221912,0.707774 0,0 z m -2.154297,0.410157 c 0.05707,1.693105 1.892274,1.823563 1.312619,0.09002 -0.429567,-0.08923 -0.876315,-0.05974 -1.312619,-0.09002 z m 3.53125,0.105469 c -1.84156,-0.175233 0.105926,2.773135 0.493103,0.588644 0.389802,-0.545927 0.07452,-0.660529 -0.493103,-0.588644 z m -1.416015,0.582031 c -1.917654,0.756863 0.07133,1.837539 0.833464,1.029869 -0.254245,-0.338283 -0.346491,-0.977936 -0.833464,-1.029869 z m -23.957031,5.238291 c -0.710147,1.198145 -0.8632,0.737607 -1.921876,0.193359 -0.335527,0.657209 -1.08081,0.999261 -0.103515,1.81836 -1.705231,0.170912 -0.788418,2.372359 0.704459,1.551382 -0.178528,2.091858 1.943896,1.04056 1.90101,-0.154898 1.547977,0.489004 1.844584,-1.891805 0.07602,-1.582916 0.661125,-1.267792 0.277383,-1.3268 -0.656096,-1.825287 z m 33.910156,0.582031 c -2.359556,-0.13077 0.16241,2.110155 0.240234,0 h -0.126476 z m 0.447265,0.08398 c -1.305391,1.636203 2.216772,1.50752 0.283203,0.203125 -0.0944,-0.06771 -0.188802,-0.135417 -0.283203,-0.203125 z m -1.884765,0.398437 c -1.032757,1.018846 0.132906,2.107935 0.640735,0.72468 -0.172721,-0.277085 -0.4199,-0.489521 -0.640735,-0.72468 z m -32.869141,0.410156 c 0.01295,0.543717 0.534617,0.114154 0.517578,0.666016 0.543089,0.0083 -0.82358,0.235249 0.177493,0.428135 -0.880433,-0.1337 0.131011,0.514732 -0.611086,0.405849 -0.31004,0.638772 -0.452456,-0.390914 -0.894532,0.103516 -0.103274,-0.600389 -0.07232,-0.568193 -0.136718,-0.904297 -0.0017,-0.197963 0.452485,-0.627561 0.576847,-0.403472 -0.183984,-0.799858 0.109048,0.366883 0.370418,-0.295747 z m -0.917969,0.308594 c 0.50553,0.06916 -0.176156,0.31939 0,0 z m 34.990235,0.195313 c -0.910941,0.668487 1.012474,0.616042 0,0 z m 1.671875,0.07617 c -1.993302,-0.418546 -0.210141,2.613957 0.01365,0.40163 l 0.06252,-0.290302 z m -2.240235,0.490234 c -2.650833,-0.36882 1.111739,2.797113 0,0 z m 0.830079,0.265625 c -1.61363,0.846144 0.356728,1.525126 0.737682,0.681894 -0.224643,-0.245587 -0.398636,-0.578785 -0.737682,-0.681894 z m -17.369141,3.423828 c -4.094305,-0.257408 -7.816833,3.676458 -7.16025,7.759195 0.09382,1.134608 0.368148,1.833925 0.727744,0.414955 1.907755,-4.229627 8.265284,-5.119718 11.293199,-1.618386 1.029697,0.654514 1.678206,4.100996 1.872152,1.223852 0.592803,-3.949569 -2.753033,-7.761959 -6.732845,-7.779616 z"/>
 <path style="fill:#8b9cbe" d="m 30.949219,12 c -0.02494,1.211119 0.655173,4.094058 -0.900391,1.787109 -0.686116,-0.833214 -1.253544,-1.327359 -0.473579,0.01256 0.43668,1.588082 2.529213,3.535024 2.257353,0.819929 C 31.709047,13.743198 31.210743,12.862372 30.949219,12 Z m 2.009765,0.130859 c -0.43817,1.100104 -1.087776,2.23224 -0.715353,3.443887 0.524951,1.948765 2.841603,-2.922298 2.258423,-2.475713 -0.803979,0.961791 -2.095891,2.60465 -1.596078,0.261849 0.0075,-0.410609 0.09344,-0.818421 0.05301,-1.230023 z m 3.279297,2.083985 c -1.428413,0.215539 -5.183675,2.854336 -1.876953,2.703125 0.328894,-0.142318 3.315018,-0.914524 2.132782,-0.877193 -1.096572,0.02937 -3.297665,0.433846 -1.370741,-0.830449 0.340411,-0.360813 0.790906,-0.625538 1.114912,-0.995483 z m -8.484375,0.02539 c 0.617992,0.752741 3.173221,2.350654 0.795707,1.858314 -1.256722,-0.126696 -1.901118,-3.19e-4 -0.338675,0.420983 1.201373,0.802407 4.245769,0.336217 1.87837,-1.146549 -0.740058,-0.447921 -1.53818,-0.80033 -2.335402,-1.132748 z m -13.095703,0.355469 c -1.390929,-0.256415 -0.463646,0.43443 0.104257,0.978426 5.536711,5.449436 11.062049,10.910569 16.620352,16.33798 -2.305442,2.249241 -4.583269,4.527402 -6.921874,6.742188 -2.564294,-1.664628 1.395442,-3.039396 0.439131,-5.324145 -0.199973,-0.0862 -0.618688,3.612979 -2.101951,2.951734 -1.807932,-3.035172 -1.38378,-6.892452 -3.480117,-9.809861 -0.748431,-1.609186 -2.707652,-2.249872 -3.411901,-3.786265 -0.08305,-1.388762 -2.996915,-3.146406 -3.349459,-2.365448 1.465848,-0.3101 4.149739,3.605235 1.540313,2.073802 -1.730646,-0.517177 -3.80268,-1.17736 -5.5149228,-0.632395 0.8608652,0.5904 4.2018688,-0.192355 3.9570308,1.095703 -0.351783,1.096875 -4.0847616,2.526706 -1.138671,1.582031 1.286962,-0.813848 2.067906,-2.618888 3.684214,-1.035541 2.046474,1.129679 5.295285,4.239861 4.432154,6.320022 -2.537198,0.569837 -4.331427,-1.797769 -5.8234,-3.399715 0.722891,1.635559 2.138637,2.999264 3.75,3.785156 -0.805121,0.544076 -4.256004,-0.165647 -1.746919,0.588264 1.668587,0.458981 5.049961,-1.865272 4.830019,1.158128 0.551601,2.378325 -3.493754,1.833985 -4.884475,1.247373 -1.4248,-0.300934 -3.306423,-2.203962 -4.026923,-2.370431 2.216406,2.451677 5.788368,4.181028 9.080251,2.948932 1.871126,2.442595 -2.43833,2.980224 -4.108809,2.646162 -0.918297,0.01764 -4.111775,-2.022692 -1.903165,-0.370125 1.095131,1.151499 5.152317,0.261819 2.848428,2.489464 -0.790207,0.569569 -1.331208,1.615345 -0.01907,0.582255 1.046166,-1.361365 2.504195,-3.349302 4.236207,-2.809412 0.708282,1.719279 3.03004,3.335441 0.473454,4.654987 -2.758593,2.825171 -5.645697,5.524001 -8.402041,8.349637 2.222119,0.587209 3.284499,-1.841667 4.776093,-2.978417 4.560956,-4.47778 9.104901,-8.972843 13.659454,-13.45713 5.537698,5.485207 11.094134,10.951454 16.642579,16.425782 0.957816,0.0576 2.548949,0.217056 0.953632,-0.856836 -3.037822,-2.959688 -6.052593,-5.942904 -9.076679,-8.916602 0.860726,-1.089384 1.502957,-2.333415 2.294921,-3.458984 2.28674,0.14459 2.765651,2.274352 4.439404,3.33884 0.251926,-0.345367 -2.743265,-2.89499 -0.254086,-2.4853 1.053486,-0.01184 3.419671,-1.051124 3.269241,-1.552829 -2.109961,1.446551 -5.20068,1.534243 -7.266928,-0.0086 -0.0088,-3.0832 3.464759,-0.135365 5.251434,-1.544187 1.141905,-0.39175 3.77358,-1.834435 3.621839,-2.459922 -2.248657,1.724493 -5.392929,3.18575 -8.135755,1.707544 -0.233699,-1.476346 0.135404,-3.341525 1.969332,-2.318683 2.198062,0.0205 4.105197,-1.507853 5.398488,-3.153466 -0.773161,0.09951 -3.640879,3.716359 -3.491176,1.302794 0.05506,-1.07112 1.791997,-3.415149 0.02243,-1.355528 -0.605416,1.503342 -0.533357,3.622638 -2.789062,2.455078 -1.248583,-1.442049 1.395726,-4.001992 2.518657,-5.237953 0.905962,-1.036143 1.81774,-1.402585 2.655139,-0.153764 0.81913,0.800389 3.384214,0.873989 3.601594,0.14953 -1.445273,1.011487 -5.824303,-1.41137 -2.679544,-2.015736 1.361495,-0.786436 3.720394,-0.355392 4.74204,-1.022258 -1.168902,-0.419504 -3.283674,0.480928 -3.904024,0.05013 0.391356,-1.050808 3.911997,-2.705763 1.078756,-1.571343 -1.572668,2.012864 -3.921754,2.68293 -5.932149,4.203267 -2.669117,2.128377 -3.657074,5.520055 -4.198866,8.747266 -0.168207,2.137616 -1.965471,5.043551 -3.012463,1.528599 -0.96146,-1.567176 0.01891,2.108367 0.958985,2.236328 0.655428,0.897489 -1.332762,2.590796 -1.944605,0.826628 C 37.011022,35.760596 35.077181,33.826898 33.125,31.912109 38.99522,26.14438 44.860951,20.372086 50.722656,14.595703 49.963262,14.722846 48.95739,14.250913 48.470641,15.040731 43.087668,20.364353 37.723089,25.707441 32.277344,30.966797 26.633286,25.579042 21.118291,20.056816 15.544922,14.595703 c -0.295573,0 -0.591146,0 -0.886719,0 z m 20.009766,2.578125 c -0.466503,0.223527 -2.197877,-0.06793 -1.694212,0.558381 0.334719,0.989417 3.258592,2.27011 2.970472,1.814884 -0.74914,-0.683511 -2.745009,-2.051716 -0.536026,-1.595921 1.181002,0.169446 1.799563,-0.02656 0.294509,-0.420173 -0.344914,-0.119057 -0.689829,-0.238114 -1.034743,-0.357171 z m -5.339844,0.0078 c -0.915411,0.311 -3.437573,1.076057 -1.131643,0.798887 1.448112,-0.242581 1.939382,-0.03897 0.662922,0.828814 -0.965265,0.813471 -1.558902,1.413302 -0.159485,0.617806 0.73277,-0.17279 2.97755,-1.669576 2.136934,-2.046112 -0.502629,-0.06858 -1.005725,-0.133629 -1.508728,-0.199395 z m 2.283203,0.671875 c -1.254648,0.296834 -2.506275,3.159498 -2.15667,3.093046 0.671959,-0.692232 2.005464,-2.675668 1.601309,-0.574094 -0.142053,1.163056 -0.117933,2.237515 0.37958,0.447844 0.521941,-0.980548 0.398664,-1.904026 0.175781,-2.966796 z m 0.732422,0 c -0.191563,0.961256 -0.35947,1.935102 0.136347,2.830727 0.395769,1.453826 0.623858,1.281495 0.447637,-0.09635 -0.811372,-3.041547 1.761261,0.859361 1.864561,0.505617 C 34.163419,19.863194 33.713084,18.47 32.34375,17.853516 Z m -21.259766,9.103515 c -0.751834,0.8327 -0.81758,1.190398 -1.7356606,0.245439 -1.1133926,0.2753 -0.7084847,1.357439 -0.4948078,1.848311 -1.7439721,0.537401 -0.2054687,2.106905 0.8925782,1.511242 -0.3256166,1.680979 2.0864012,1.459353 1.6088922,-0.200602 1.73695,0.716553 2.127937,-1.832979 0.344021,-1.57676 0.69711,-1.358469 0.130084,-1.246779 -0.615023,-1.82763 z m 42.806641,0.638672 c -1.470319,-4.99e-4 -2.01747,0.995259 -0.461333,1.430472 0.504082,-0.0064 0.902725,-1.256767 0.461333,-1.430472 z m 0.564453,0.05078 c -1.236582,1.267849 0.808709,2.087109 1.291616,1.068585 -0.401235,-0.385195 -0.769775,-0.844965 -1.291616,-1.068585 z M 10.25,28.322266 c 0.224862,0.6411 0.980409,0.149989 0.663674,0.816047 0.577248,-0.177227 0.02471,0.386287 0.310326,0.382005 -0.99515,-0.362475 0.628184,0.8875 -0.5365,0.07148 0.437156,0.662018 -0.335235,-0.04836 -0.253906,0.429687 C 10.129753,29.886256 9.7795299,29.981726 9.9668841,29.566039 9.2563727,29.779093 9.7279787,28.82368 9.956857,28.849998 9.8498485,28.114782 10.318497,29.237585 10.25,28.322266 Z m 41.953125,0.171875 c -0.722883,0.722769 -0.53595,2.564996 0.865234,1.308593 0.394563,-0.628249 -0.475544,-1.007479 -0.865234,-1.308593 z m 3.695313,0.55664 c -1.646941,-0.167326 -1.486795,1.868509 -0.206579,1.658961 0.195462,-0.526384 0.259142,-1.101007 0.206579,-1.658961 z m -2.060547,0.296875 c -1.309203,1.03904 1.399232,0.627967 0,0 z m -29.576172,0.298828 c -1.119771,0.262529 0.09107,1.691694 -1.364062,1.326882 -1.16044,0.702255 0.724827,1.164848 0.528124,1.555931 -0.605058,1.271558 1.089413,1.234546 1.438778,0.271246 0.620299,1.37482 2.164709,-0.245339 0.804319,-0.938378 1.727749,-0.670651 0.101472,-2.034815 -0.692316,-1.266462 -0.04777,-0.39533 -0.283102,-0.870944 -0.714843,-0.949219 z m 15.332031,0.181641 c -1.99313,0.05496 1.137145,2.364265 0.896484,0.08789 -0.290123,-0.09511 -0.596372,-0.08459 -0.896484,-0.08789 z m -1.056641,0.257813 c -1.352686,0.58793 -0.850097,2.264556 0.460938,1.349609 0.269166,-0.431904 -0.265705,-0.988001 -0.460938,-1.349609 z m 14.591797,0.0078 c -2.642154,-0.217282 0.905045,3.110281 0.433472,0.581642 0.113647,-0.301855 -0.167726,-0.533443 -0.433472,-0.581642 z m -12.263672,0.02344 c -1.514642,0.85979 0.311615,2.300162 0.833169,1.403433 -0.201338,-0.478975 -0.36859,-1.120579 -0.833169,-1.403433 z m 13.408204,0.228515 c -1.414831,0.890927 -0.314106,2.064092 0.899292,0.953703 0.763522,-0.135939 -0.697349,-0.917234 -0.899292,-0.953703 z m -29.855469,0.646485 c 0.386937,0.290089 0.97366,0.11951 0.679687,0.78125 0.199999,0.436576 -0.449978,0.475278 -0.59205,0.690078 -0.308756,-0.384822 -0.653128,-0.356254 -0.607168,-0.89711 0.232638,-0.406083 0.468585,-0.278578 0.519531,-0.574218 z m 15.226562,0.453124 c -1.326857,0.810857 1.221912,0.707774 0,0 z m -2.154297,0.410157 c 0.05707,1.693105 1.892274,1.823563 1.312619,0.09002 -0.429567,-0.08923 -0.876315,-0.05974 -1.312619,-0.09002 z m 3.53125,0.105469 c -1.84156,-0.175233 0.105926,2.773135 0.493103,0.588644 0.389802,-0.545927 0.07452,-0.660529 -0.493103,-0.588644 z m -1.416015,0.582031 c -1.917654,0.756863 0.07133,1.837539 0.833464,1.029869 -0.254245,-0.338283 -0.346491,-0.977936 -0.833464,-1.029869 z M 15.648438,37.78125 c -0.710147,1.198145 -0.8632,0.737607 -1.921876,0.193359 -0.335527,0.657209 -1.08081,0.999261 -0.103515,1.81836 -1.705231,0.170912 -0.788418,2.372359 0.704459,1.551382 -0.178528,2.091858 1.943896,1.04056 1.90101,-0.154898 1.547977,0.489004 1.844584,-1.891805 0.07602,-1.582916 0.661125,-1.267792 0.277383,-1.3268 -0.656096,-1.825287 z m 33.910156,0.582031 c -2.359556,-0.13077 0.16241,2.110155 0.240234,0 h -0.126476 z m 0.447265,0.08398 c -1.305391,1.636203 2.216772,1.50752 0.283203,0.203125 -0.0944,-0.06771 -0.188802,-0.135417 -0.283203,-0.203125 z m -1.884765,0.398437 c -1.032757,1.018846 0.132906,2.107935 0.640735,0.72468 -0.172721,-0.277085 -0.4199,-0.489521 -0.640735,-0.72468 z m -32.869141,0.410156 c 0.01295,0.543717 0.534617,0.114154 0.517578,0.666016 0.543089,0.0083 -0.82358,0.235249 0.177493,0.428135 -0.880433,-0.1337 0.131011,0.514732 -0.611086,0.405849 -0.31004,0.638772 -0.452456,-0.390914 -0.894532,0.103516 -0.103274,-0.600389 -0.07232,-0.568193 -0.136718,-0.904297 -0.0017,-0.197963 0.452485,-0.627561 0.576847,-0.403472 -0.183984,-0.799858 0.109048,0.366883 0.370418,-0.295747 z m -0.917969,0.308594 c 0.50553,0.06916 -0.176156,0.31939 0,0 z m 34.990235,0.195313 c -0.910941,0.668487 1.012474,0.616042 0,0 z m 1.671875,0.07617 c -1.993302,-0.418546 -0.210141,2.613957 0.01365,0.40163 l 0.06252,-0.290302 z m -2.240235,0.490234 c -2.650833,-0.36882 1.111739,2.797113 0,0 z m 0.830079,0.265625 c -1.61363,0.846144 0.356728,1.525126 0.737682,0.681894 -0.224643,-0.245587 -0.398636,-0.578785 -0.737682,-0.681894 z m -17.369141,3.423828 c -4.094305,-0.257408 -7.816833,3.676458 -7.16025,7.759195 0.09382,1.134608 0.368148,1.833925 0.727744,0.414955 1.907755,-4.229627 8.265284,-5.119718 11.293199,-1.618386 1.029697,0.654514 1.678206,4.100996 1.872152,1.223852 0.592803,-3.949569 -2.753033,-7.761959 -6.732845,-7.779616 z"/>
 <path style="opacity:0.1;fill:#8b9cbe" d="M 32,4 A 28,28 0 0 0 4,32 28,28 0 0 0 4.0429688,33.171876 28,28 0 0 1 32,6 28,28 0 0 1 59.957032,32.828124 28,28 0 0 0 60,32 28,28 0 0 0 32,4 Z"/>
</svg>
