<svg xmlns="http://www.w3.org/2000/svg" width="64" height="64" version="1">
 <rect style="opacity:.2" width="57" height="57" x="-61" y="-61" rx="2.85" ry="2.85" transform="matrix(0,-1,-1,0,0,0)"/>
 <rect style="fill:#0081cc" width="57" height="57" x="-60" y="-61" rx="2.85" ry="2.85" transform="matrix(0,-1,-1,0,0,0)"/>
 <rect style="opacity:.2" width="19" height="38" x="10" y="10" rx="4" ry="4"/>
 <rect style="fill:#8b9cbe" width="19" height="38" x="10" y="9" rx="4" ry="4"/>
 <rect style="opacity:.2" width="20" height="20" x="35" y="10" rx="4" ry="4"/>
 <rect style="fill:#8b9cbe" width="20" height="20" x="35" y="9" rx="4" ry="4"/>
 <path style="opacity:.2;fill:#8b9cbe" d="m6.8496094 3c-1.5789 0-2.8496094 1.2707094-2.8496094 2.8496094v1c0-1.5789 1.2707094-2.8496094 2.8496094-2.8496094h51.300782c1.5789 0 2.849609 1.2707094 2.849609 2.8496094v-1c0-1.5789-1.270709-2.8496094-2.849609-2.8496094h-51.300782z"/>
</svg>
