<svg xmlns="http://www.w3.org/2000/svg" width="64" height="64" version="1">
 <defs>
  <linearGradient id="linearGradient8505" x1="168" x2="160" y1="266" y2="270" gradientTransform="matrix(0.79874,0,0,0.79956,-95.82,-175.89)" gradientUnits="userSpaceOnUse">
   <stop offset="0"/>
   <stop offset="1" stop-opacity="0"/>
  </linearGradient>
 </defs>
 <path style="opacity:0.2" d="m 4,50 0,2 c 0,1.662 1.338,3 3,3 l 50,0 c 1.662,0 3,-1.338 3,-3 l 0,-2 c 0,1.662 -1.338,3 -3,3 L 7,53 C 5.338,53 4,51.662 4,50 Z"/>
 <rect style="fill:#325f78" width="44" height="56" x="-54" y="-60" rx="3" ry="3" transform="matrix(0,-1,-1,0,0,0)"/>
 <rect style="opacity:0.2" width="36" height="48" x="-50" y="-56" rx="0" ry="0" transform="matrix(0,-1,-1,0,0,0)"/>
 <path style="opacity:0.2" d="m 31.976,16.999864 c -5.6042,0 -10.506,2.8752 -13.3554,7.2226 l 7.039,12.1914 c -0.55256,-1.0194 -0.8711,-2.1762 -0.8711,-3.4218 0,-3.9866 3.2298,-5.1544 7.1876,-5.5976 l 3.9102,-0.4375 c 3.224,2.0662 4.2938,6.2826 2.3594,9.6368 l -7.1368,12.379 c 5.834,0.34208 11.6146,-2.5506 14.746,-7.9804 l 0,-0.004 c 2.8022,-4.8584 2.766,-10.5398 0.42968,-15.1836 l -0.42578,-0.82032 -0.08594,0 c -2.758,-4.77 -7.874,-7.984 -13.798,-7.984 z m -13.3476,7.2578 c -3.213,4.8866 -3.6004,11.3468 -0.46876,16.7774 l -0.0039,0 c 2.8024,4.858 7.7404,7.668 12.9264,7.964 l 7.0312,-12.1992 c -0.60624,0.98848 -1.44952,1.8458 -2.5274,2.4688 -3.4488,1.9933 -7.829,0.81974 -9.8204,-2.6328 l -7.137,-12.378 z"/>
 <path style="opacity:0.1;fill:#8b9cbe" d="M 7 9.9980469 C 5.338 9.9980469 4 11.336047 4 12.998047 L 4 14 C 4 12.338 5.338 11 7 11 L 57 11 C 58.662 11 60 12.338 60 14 L 60 12.998047 C 60 11.336047 58.662 9.9980469 57 9.9980469 L 7 9.9980469 z"/>
 <path style="opacity:0.1" d="m 31.976,47.982 c -8.85,0 -15.975,-7.1322 -15.975,-15.9914 0,-0.1341 -0.0034,-0.2665 0,-0.39978 0.21122,8.6722 7.2586,15.5914 15.975,15.5914 8.716,0 15.7638,-6.919 15.975,-15.5914 0.0034,0.13328 0,0.26568 0,0.39978 0,8.8592 -7.1248,15.9914 -15.975,15.9914 z"/>
 <path style="fill:#dd4d3e" d="m 31.976,16.001 c -5.6042,0 -10.5044,2.8736 -13.3538,7.221 l 7.0394,12.1928 c -0.55256,-1.0194 -0.87416,-2.177 -0.87416,-3.4228 0,-3.9866 3.2308,-5.1536 7.1886,-5.597 l 14.2774,-1.59994 c -2.622,-5.2274 -8.014,-8.794 -14.278,-8.794 z"/>
 <path style="fill:#109f5b" d="M 18.1582,40.034 C 20.96,44.892 25.896,47.704 31.082,48 l 7.0292,-12.1984 c -0.60624,0.98848 -1.4468,1.846 -2.5246,2.469 -3.4488,1.9933 -7.8286,0.81858 -9.8198,-2.634 l -7.139,-12.378 c -3.213,4.8866 -3.602,11.345 -0.47026,16.7754 z"/>
 <path style="fill:#ffce41" d="m 45.856,39.99 c 2.8022,-4.8584 2.7662,-10.5432 0.4298,-15.187 l -0.42468,-0.82008 -13.8594,0.0178 c 1.1583,0.03132 2.5372,1.13948 3.6148,1.76234 3.4488,1.9933 4.6224,6.3774 2.6312,9.83 l -7.1386,12.3778 c 5.834,0.34208 11.6162,-2.5498 14.7476,-7.9798 z"/>
 <path style="opacity:0.2;fill:url(#linearGradient8505)" d="M 38.202,35.59 31.976,31.992 31.042,47.99 Z"/>
 <rect style="opacity:0.2" width="16" height="16" x="-41" y="-40" rx="8" ry="8" transform="matrix(0,-1,-1,0,0,0)"/>
 <rect style="fill:#8b9cbe" width="16" height="16" x="-40" y="-40" rx="8" ry="8" transform="matrix(0,-1,-1,0,0,0)"/>
 <rect style="fill:#4587f3" width="12" height="12" x="-38" y="-38" rx="6" ry="6" transform="matrix(0,-1,-1,0,0,0)"/>
</svg>
