<svg xmlns="http://www.w3.org/2000/svg" width="64" height="64" version="1">
 <path style="opacity:0.2" d="m 24,10 0,2 16,0 0,-2 -16,0 z M 4,53 4,55 c 0,1.662 1.338,3 3,3 l 50,0 c 1.662,0 3,-1.338 3,-3 l 0,-2 c 0,1.662 -1.338,3 -3,3 L 7,56 C 5.338,56 4,54.662 4,53 Z"/>
 <path style="fill:#b2bfd9" d="m 24,7 -4,4 0,6 -16,0 0,37 c 0,1.662 1.338,3 3,3 l 50,0 c 1.662,0 3,-1.338 3,-3 l 0,-37 -16,0 0,-6 -4,-4 z m 0,4 16,0 0,6 -16,0 z"/>
 <path style="fill:#dd4d3e" d="m 31.957032,29 0,0.004 c -9.807514,0 -18.38072,5.029006 -23.3671882,12.636718 L 17.460938,57 l 1.917968,0 c -3e-6,-0.004 0,-0.0078 0,-0.0118 0,-6.97635 5.652132,-9.021126 12.578126,-9.796876 l 24.98828,-2.800782 C 52.358218,35.240812 42.917314,29 31.957032,29 Z"/>
 <path style="fill:#109f5b" d="M 8.6015624,41.703124 C 6.0209114,45.62797 4.4939418,50.133484 4.1132812,54.777344 4.4559556,56.057278 5.60905,57 7,57 L 17.421875,57 8.6015624,41.703124 Z"/>
 <path style="fill:#ffce41" d="M 56.253906,42.972656 32,43.003906 c 2.027034,0.0548 4.442144,1.992062 6.328124,3.082032 C 42.376888,48.425874 44.621912,52.649724 44.617188,57 L 57,57 c 1.403632,0 2.563896,-0.959952 2.894532,-2.257812 C 59.599132,51.146446 58.623128,47.63222 57,44.40625 l -0.746094,-1.433594 z"/>
 <path style="fill:#8b9cbe" d="m 32,43 c -7.756,0 -14,6.244 -14,14 l 28,0 C 46,49.244 39.756,43 32,43 Z"/>
 <path style="fill:#4587f3" d="m 32,45 c -6.648,0 -12,5.352 -12,12 l 24,0 C 44,50.352 38.648,45 32,45 Z"/>
</svg>
