<svg xmlns="http://www.w3.org/2000/svg" width="64" height="64" version="1">
 <rect style="opacity:0.2" width="56" height="56" x="4" y="5" rx="16.8" ry="16.8"/>
 <rect style="fill:#b2bfd9" width="56" height="56" x="4" y="4" rx="16.8" ry="16.8"/>
 <path style="opacity:0.1" d="M 42.869141,9.9999001 A 0.88246388,0.88246388 0 0 0 42,10.882713 V 13.9999 H 20.568359 l -0.228515,0.03516 c 0,0 -2.024206,0.291826 -4.052735,1.585938 C 14.258581,16.915101 12,19.664185 12,23.4999 v 19.5 h 6 v -19.5 c 0,-1.764286 0.6422,-2.264352 1.513672,-2.820312 0.828585,-0.528601 1.580286,-0.664282 1.660156,-0.679688 h 23.425781 6.517579 a 0.88246388,0.88246388 0 0 0 0.625,-1.505859 L 43.505859,10.257713 A 0.88246388,0.88246388 0 0 0 42.869141,9.9999001 Z M 46,22.9999 v 19.5 c 0,1.764286 -0.6422,2.264353 -1.513672,2.820312 -0.828585,0.528602 -1.580286,0.664282 -1.660156,0.679688 H 21.117188 19.400391 12.882812 a 0.88246388,0.88246388 0 0 0 -0.625,1.505859 l 8.236329,8.236329 A 0.88246388,0.88246388 0 0 0 21.130859,55.9999 0.88246388,0.88246388 0 0 0 22,55.117088 V 51.9999 h 21.431641 l 0.228515,-0.03516 c 0,0 2.024206,-0.291826 4.052735,-1.585938 C 49.741419,49.084699 52,46.335614 52,42.4999 v -19.5 z m -19.333984,6 C 25.189052,28.9999 24,30.188952 24,31.665916 v 2.667968 c 0,1.476964 1.189052,2.666016 2.666016,2.666016 h 0.667968 C 28.810948,36.9999 30,35.810848 30,34.333884 V 31.665916 C 30,30.188952 28.810948,28.9999 27.333984,28.9999 Z m 10,0 C 35.189052,28.9999 34,30.188952 34,31.665916 v 2.667968 c 0,1.476964 1.189052,2.666016 2.666016,2.666016 h 0.667968 C 38.810948,36.9999 40,35.810848 40,34.333884 V 31.665916 C 40,30.188952 38.810948,28.9999 37.333984,28.9999 Z"/>
 <path style="fill:none;stroke:#ff2d55;stroke-width:6" d="M 15,42.000171 V 22.500318 c 0,-5.600001 5.8,-6.500145 5.8,-6.500145 h 23.8"/>
 <path style="fill:#ff2d55" d="M 42.869734,8.9999145 A 0.88246388,0.88246388 0 0 0 42,9.8822915 v 8.2355065 a 0.88246388,0.88246388 0 0 0 0.882374,0.882375 h 8.235508 a 0.88246388,0.88246388 0 0 0 0.623866,-1.506244 L 43.506242,9.2584241 A 0.88246388,0.88246388 0 0 0 42.869734,8.9999145 Z"/>
 <rect style="fill:#ff2d55" width="6" height="9" x="24" y="27" ry="2.999"/>
 <path style="fill:none;stroke:#ff2d55;stroke-width:6" d="m 49,22.000171 v 19.499512 c 0,5.6 -5.8,6.500144 -5.8,6.500144 H 19.4"/>
 <path style="fill:#ff2d55" d="M 21.130266,55.000085 A 0.88246388,0.88246388 0 0 0 22,54.11771 v -8.235506 a 0.88246388,0.88246388 0 0 0 -0.882374,-0.882376 h -8.235508 a 0.88246388,0.88246388 0 0 0 -0.623866,1.506243 l 8.235506,8.235504 a 0.88246388,0.88246388 0 0 0 0.636508,0.25851 z"/>
 <rect style="fill:#ff2d55" width="6" height="9" x="34" y="27" ry="2.999"/>
 <path style="opacity:0.2;fill:#8b9cbe" d="M 20.800781 4 C 11.493581 4 4 11.493581 4 20.800781 L 4 21.800781 C 4 12.493581 11.493581 5 20.800781 5 L 43.199219 5 C 52.506419 5 60 12.493581 60 21.800781 L 60 20.800781 C 60 11.493581 52.506419 4 43.199219 4 L 20.800781 4 z"/>
</svg>
