<svg xmlns="http://www.w3.org/2000/svg" width="64" height="64" version="1">
 <rect style="opacity:.2" width="56" height="56" x="-59" y="-60" rx="28" ry="28" transform="matrix(0,-1,-1,0,0,0)"/>
 <rect style="fill:#2071c5" width="56" height="56" x="-58" y="-60" rx="28" ry="28" transform="matrix(0,-1,-1,0,0,0)"/>
 <path style="opacity:.2" d="m32 11a2 2 0 0 0 -0.1914 0.01172c-10.933224 0.104539-19.8086 9.03097-19.8086 19.98828 0 11.022006 8.977994 20 20 20 10.954678 0 19.879524-8.87118 19.988282-19.800782a2 2 0 0 0 0.011718 -0.199218 2 2 0 0 0 -2 -2 2 2 0 0 0 -2 2c0 8.860246-7.139754 16-16 16s-16-7.139754-16-16 7.139754-16 16-16a2 2 0 0 0 2 -2 2 2 0 0 0 -2 -2zm0 8a2 2 0 0 0 -0.1914 0.0078c-6.515374 0.104126-11.8086 5.453052-11.8086 11.9922 0 6.603728 5.396272 12 12 12 6.536452 0 11.87988-5.289112 11.988282-11.800782a2 2 0 0 0 0.011718 -0.199218 2 2 0 0 0 -2 -2 2 2 0 0 0 -2 2c0 4.441968-3.558032 8-8 8s-8-3.558032-8-8 3.558032-8 8-8a2 2 0 0 0 2 -2 2 2 0 0 0 -2 -2zm0 8a4 4 0 0 0 -4 4 4 4 0 0 0 4 4 4 4 0 0 0 4 -4 4 4 0 0 0 -4 -4z"/>
 <path style="fill:#8b9cbe" d="m32 10a2 2 0 0 0 -0.1914 0.01172c-10.933224 0.104539-19.8086 9.03097-19.8086 19.98828 0 11.022006 8.977994 20 20 20 10.954678 0 19.879524-8.87118 19.988282-19.800782a2 2 0 0 0 0.011718 -0.199218 2 2 0 0 0 -2 -2 2 2 0 0 0 -2 2c0 8.860246-7.139754 16-16 16s-16-7.139754-16-16 7.139754-16 16-16a2 2 0 0 0 2 -2 2 2 0 0 0 -2 -2zm0 8a2 2 0 0 0 -0.1914 0.0078c-6.515374 0.104126-11.8086 5.453052-11.8086 11.9922 0 6.603728 5.396272 12 12 12 6.536452 0 11.87988-5.289112 11.988282-11.800782a2 2 0 0 0 0.011718 -0.199218 2 2 0 0 0 -2 -2 2 2 0 0 0 -2 2c0 4.441968-3.558032 8-8 8s-8-3.558032-8-8 3.558032-8 8-8a2 2 0 0 0 2 -2 2 2 0 0 0 -2 -2zm0 8a4 4 0 0 0 -4 4 4 4 0 0 0 4 4 4 4 0 0 0 4 -4 4 4 0 0 0 -4 -4z"/>
 <path style="opacity:.1;fill:#8b9cbe" d="m32 2c-15.512 0-28 12.488-28 28 0 0.11345 0.0112805 0.224113 0.0175781 0.335938 0.3515432-15.201757 12.6931499-27.335938 27.9824219-27.335938s27.630879 12.134181 27.982422 27.335938c0.006298-0.111825 0.017578-0.222488 0.017578-0.335938 0-15.512-12.488-28-28-28z"/>
</svg>
