<svg xmlns="http://www.w3.org/2000/svg" width="64" height="64" version="1.1">
 <path style="opacity:0.2" d="m 62.999996,32.999999 a 1.3319989,1.332 0 0 1 -0.667967,1.152344 v 0.004 l -0.02344,0.0118 -0.0078,0.004 -21.675781,12.351561 a 2.9934377,2.9934399 0 0 1 -2.921876,0.17968 l 0.0156,0.02344 -22.01953,-12.546873 v -0.0196 h -0.01954 l -0.05859,-0.03906 a 1.301359,1.30136 0 0 1 -0.621069,-1.086136 v 24.964842 a 2.9959979,2.9960001 0 0 0 3,3 h 41.999998 a 3.0052774,3.0052798 0 0 0 0.738282,-0.10156 1.273859,1.27386 0 0 0 0.36328,-0.11718 0.28353977,0.28354001 0 0 0 0.11718,-0.04296 2.0950383,2.0950399 0 0 0 0.460938,-0.257814 c 0.04,-0.02 0.06204,-0.0186 0.08204,-0.0586 v 0.0078 A 2.9951177,2.9951199 0 0 0 63,57.999997 Z"/>
 <path style="fill:#0364b8" d="M 56.191075,4.000002 H 21.807999 c -1.550872,8e-7 -2.808076,1.2572702 -2.808,2.8081399 v 3.1918601 l 1.428572,27.600001 h 18.571427 l 18.571427,-1.4 1.427788,-26.200001 V 6.8080019 C 58.999159,5.2571552 57.741925,3.9999808 56.191075,4.000002 Z"/>
 <path style="fill:#0a2767" d="M 62.299801,34.810963 C 62.592819,33.890133 62.826697,32.951521 63,32.000861 c -8.3e-5,-0.476026 -0.254225,-0.915816 -0.666619,-1.153578 v -9.62e-4 l -0.02564,-0.0146 -0.008,-0.0046 -21.675461,-12.34812 c -0.09372,-0.06054 -0.19076,-0.115798 -0.29064,-0.16552 v -1.19e-4 c -0.840044,-0.416665 -1.826574,-0.416665 -2.666618,0 l -1.2e-4,1.19e-4 c -0.09986,0.0497 -0.19686,0.104956 -0.290542,0.16552 l -21.675581,12.34828 -0.008,0.0046 -0.0255,0.0146 v 9.6e-4 c -0.412372,0.237788 -0.666505,0.677564 -0.66662,1.153582 0.173314,0.950622 0.407184,1.889198 0.700181,2.809998 L 38.684206,51.62102 Z"/>
 <path style="fill:#0078d4" d="M 18.999999,10.000002 H 32.999998 V 22.000001 H 18.999999 Z"/>
 <path style="fill:#28a8ea" d="M 32.999998,10.000002 H 46 V 22.000001 H 32.999998 Z"/>
 <path style="fill:#50d9ff" d="M 46,10.000002 H 58.999997 V 22.000001 H 46 Z"/>
 <path style="fill:#0364b8" d="m 18.999999,22.000001 h 13.999999 v 12 H 18.999999 Z"/>
 <path style="fill:#0078d4" d="M 32.999998,22.000001 H 46 v 12 H 32.999998 Z"/>
 <path style="fill:#28a8ea" d="m 46,22.000001 h 12.999997 v 12 H 46 Z"/>
 <path style="fill:#064a8c" d="M 18.999999,34.000003 H 32.999998 V 47.400004 H 18.999999 Z"/>
 <path style="fill:#0364b8" d="M 32.999998,34.000003 H 46 V 47.400004 H 32.999998 Z"/>
 <path style="fill:#0078d4" d="M 46,34.000003 H 58.999997 V 47.400004 H 46 Z"/>
 <rect style="opacity:0.1" width="40" height="1" x="19" y="34"/>
 <path style="fill:#1490df" d="m 62.333381,33.153561 v 9.8e-4 l -0.0265,0.0152 -0.0068,0.0038 L 40.6241,45.52194 a 2.9934377,2.9934399 0 0 1 -2.920898,0.18236 l 7.549355,10.12178 16.508088,3.593999 -6.02e-4,0.009 A 2.9951177,2.9951199 0 0 0 62.999945,57 V 32.000121 a 1.3319989,1.332 0 0 1 -0.66662,1.15344 z"/>
 <path style="fill:#28a8ea" d="m 15.700039,33.180001 v -0.02 h -0.01998 l -0.06,-0.04 a 1.301359,1.30136 0 0 1 -0.620008,-1.12 v 25.000001 a 2.9959979,2.9960001 0 0 0 3,2.999999 h 41.99996 a 3.0052774,3.0052798 0 0 0 0.74,-0.1 1.273859,1.27386 0 0 0 0.36,-0.12 0.28353977,0.28354001 0 0 0 0.12,-0.04 2.0950383,2.0950399 0 0 0 0.46,-0.26 c 0.04,-0.02 0.06,-0.02 0.07998,-0.06 z"/>
 <path style="opacity:0.1" d="M 2.6666851,16.999702 H 29.333332 a 2.6666647,2.6666647 0 0 1 2.666666,2.666665 V 46.333294 A 2.6666849,2.6666849 0 0 1 29.333312,49 H 2.6666647 A 2.6666647,2.6666647 0 0 1 0,46.333314 V 19.666387 a 2.6666849,2.6666849 0 0 1 2.6666851,-2.666685 z"/>
 <rect style="opacity:0.1" width="40" height="1" x="19" y="22"/>
 <path style="fill:#0087f0" d="M 2.6666851,15.999852 H 29.333332 a 2.6666647,2.6666647 0 0 1 2.666666,2.666666 V 45.333444 A 2.6666849,2.6666849 0 0 1 29.333312,48.00015 H 2.6666647 A 2.6666647,2.6666647 0 0 1 0,45.333464 V 18.666537 a 2.6666849,2.6666849 0 0 1 2.6666851,-2.666685 z"/>
 <path style="fill:#8b9cbe" d="m 7.18814,26.938431 a 8.9138968,8.3600086 0 0 1 3.500223,-3.626572 10.584749,9.9270377 0 0 1 5.563004,-1.307756 9.8422687,9.2306937 0 0 1 5.146134,1.2403 8.8235944,8.2753172 0 0 1 3.406787,3.464826 11.931484,11.19009 0 0 1 1.193098,5.096054 12.580442,11.798724 0 0 1 -1.229042,5.331976 A 9.0366451,8.4751296 0 0 1 21.260897,40.7233 10.230808,9.5950901 0 0 1 15.920771,41.997328 10.080453,9.4540779 0 0 1 10.659649,40.743534 8.9625018,8.4055934 0 0 1 7.209712,37.272015 11.637212,10.914103 0 0 1 6.0022281,32.236637 12.908439,12.10634 0 0 1 7.18814,26.938431 Z m 3.730221,8.513636 a 5.7905091,5.4307005 0 0 0 1.969322,2.386234 5.1406339,4.821207 0 0 0 3.07617,0.869563 5.3998165,5.0642847 0 0 0 3.284636,-0.896575 5.5487005,5.2039175 0 0 0 1.911832,-2.392988 9.8609859,9.2482477 0 0 0 0.610928,-3.329952 10.792619,10.121991 0 0 0 -0.574988,-3.37042 5.6890999,5.3355927 0 0 0 -1.847152,-2.48062 5.0892149,4.7729832 0 0 0 -3.255854,-0.94368 5.3145449,4.9843118 0 0 0 -3.148054,0.876304 5.8432281,5.4801437 0 0 0 -2.012408,2.406464 10.181031,9.5484059 0 0 0 -0.0146,6.87567 z"/>
 <path style="opacity:0.1;fill:#8b9cbe" d="M 21.808594 4 C 20.257722 4.0000008 18.999924 5.257724 19 6.8085938 L 19 7.8085938 C 18.999924 6.2577241 20.257722 5.0000008 21.808594 5 L 56.191406 5 C 57.742256 4.9999788 58.999946 6.257747 59 7.8085938 L 59 6.8085938 C 58.999946 5.257747 57.742256 3.9999788 56.191406 4 L 21.808594 4 z"/>
</svg>
