<svg xmlns="http://www.w3.org/2000/svg" width="64" height="64" version="1">
 <path style="opacity:0.2" d="m32.27 19.002c-4.6737 0-11.57 0.2862-13.637 0.35309-2.2469 0.20066-3.0758 0.31576-4.3016 1.361-1.887 1.6581-2.3315 4.9153-2.3315 9.9036v4.7457c0 5.6868 0.75666 8.5799 2.0193 9.6361 1.4426 1.2335 2.3976 1.3299 3.3527 1.4761 0.372 0.054 3.016 0.522 14.724 0.522 7.299 0 13.571-0.34687 14.22-0.42464 1.0458-0.13377 2.5299-0.32198 3.6772-1.5741 1.6763-1.8961 2.007-5.0428 2.007-9.6065v-5.5234c0-2.9523-0.16148-7.1209-2.007-8.8708-1.3995-1.179-1.9101-1.5072-4.7998-1.6535-0.81664-0.03577-7.9418-0.34687-12.922-0.34687m-4.2714 7.9999 9.9999 5.9993-9.9999 6.0008"/>
 <rect style="fill:#c2352a" width="56" height="56" x="4" y="4" rx="3" ry="3"/>
 <path style="opacity:0.1;fill:#8b9cbe" d="m7 4c-1.662 0-3 1.338-3 3v1c0-1.662 1.338-3 3-3h50c1.662 0 3 1.338 3 3v-1c0-1.662-1.338-3-3-3h-50z"/>
 <path style="opacity:0.2" d="m4 57v1c0 1.662 1.338 3 3 3h50c1.662 0 3-1.338 3-3v-1c0 1.662-1.338 3-3 3h-50c-1.662 0-3-1.338-3-3z"/>
 <path style="fill:#f9f9f9" d="m32.27 18.002c-4.6737 0-11.57 0.2862-13.637 0.35309-2.2469 0.20066-3.0758 0.31576-4.3016 1.361-1.887 1.6581-2.3315 4.9153-2.3315 9.9036v4.7457c0 5.6868 0.75666 8.5799 2.0193 9.6361 1.4426 1.2335 2.3976 1.3299 3.3527 1.4761 0.37218 0.05444 3.0159 0.52264 14.724 0.52264 7.299 0 13.571-0.34687 14.22-0.42464 1.0458-0.13377 2.5299-0.32198 3.6772-1.5741 1.6763-1.8961 2.007-5.0428 2.007-9.6065v-5.5234c0-2.9523-0.16148-7.1209-2.007-8.8708-1.3995-1.179-1.9101-1.5072-4.7998-1.6535-0.81664-0.03578-7.9418-0.34687-12.922-0.34687m-4.2714 7.9999 9.9999 5.9993-9.9999 6.0008"/>
 <g>
  <path style="opacity:0.2" d="M 63.958,45.894 A 15,15 0 0 1 49,60 15,15 0 0 1 34.042,46.106 15,15 0 0 0 34,47 15,15 0 0 0 49,62 15,15 0 0 0 64,47 15,15 0 0 0 63.958,45.894 Z"/>
  <circle style="fill:#03a9f4" cx="49" cy="46" r="15"/>
  <path style="fill:#8b9cbe" d="m 53,38 5,5 h -2 l -4.5,4.5 c 2.5,2.5 0,4 0,4 l -3,-3 L 43,54 h -1 v -1 l 5.5,-5.5 -3,-3 c 0,0 1.5,-2.5 4,0 L 53,40 Z"/>
 </g>
</svg>
