<svg xmlns="http://www.w3.org/2000/svg" width="64" height="64" version="1.1">
 <path style="opacity:0.2" d="M 4.042999,29.828556 A 27.9995,25.999536 0 0 0 4,31.000535 27.9995,25.999536 0 0 0 13.999821,50.91418 l 0,-1.999964 A 27.9995,25.999536 0 0 1 4.042999,29.828556 Z M 59.958001,30.17255 A 27.9995,25.999536 0 0 1 32.0005,55.000107 27.9995,25.999536 0 0 1 21.442688,53.066142 l -7.441867,5.933894 0,1.999964 7.441867,-5.933894 A 27.9995,25.999536 0 0 0 32.0005,57.000071 27.9995,25.999536 0 0 0 60,31.000535 27.9995,25.999536 0 0 0 59.958,30.17255 Z"/>
 <path style="fill:#009eff" d="M 31.9995,4.0010353 A 27.9995,25.999536 0 0 0 3.9999998,30.000571 27.9995,25.999536 0 0 0 13.999821,49.914216 l 0,10.08582 7.441867,-5.933894 A 27.9995,25.999536 0 0 0 31.9995,56.000107 27.9995,25.999536 0 0 0 59.999,30.000571 27.9995,25.999536 0 0 0 31.9995,4.0010353 Z"/>
 <path style="opacity:0.2" d="m 33.999464,39.000393 -7.999857,-8.99984 -13.99975,8.99984 15.999714,-17.999679 7.999858,9.999821 15.999714,-9.999821 z"/>
 <path style="fill:#8b9cbe" d="M 33.999464,38.000428 25.999607,29.000589 11.999857,38.000428 27.999571,20.00075 35.999429,30.000571 51.999143,20.00075 Z"/>
 <path style="opacity:0.2;fill:#8b9cbe" d="M 31.998047 4.0019531 A 27.9995 25.999536 0 0 0 4 30 A 27.9995 25.999536 0 0 0 4.0214844 30.425781 A 27.9995 25.999536 0 0 1 31.998047 5.0019531 L 32 5.0019531 A 27.9995 25.999536 0 0 1 59.976562 30.597656 A 27.9995 25.999536 0 0 0 59.998047 30 A 27.9995 25.999536 0 0 0 32 4.0019531 L 31.998047 4.0019531 z"/>
</svg>
