<svg xmlns="http://www.w3.org/2000/svg" width="64" height="64" version="1.1">
 <rect style="fill:#e79d67" width="56" height="56" x="4" y="4" rx="2.8" ry="2.8"/>
 <path style="opacity:0.2" d="m 10.679323,11.0004 c -0.376405,0 -0.6794088,0.303002 -0.6794088,0.679403 l 0,42.640194 C 9.9999142,54.697998 10.302918,55 10.679323,55 l 42.640582,0 c 0.378005,0 0.680009,-0.302002 0.680009,-0.680003 l 0,-42.640194 C 53.999914,11.303002 53.69791,11 53.319905,11 Z"/>
 <path style="fill:#8b9cbe" d="M 10.67941,10.001161 C 10.303004,10.001161 10,10.304162 10,10.680564 l 0,42.640193 c 0,0.376742 0.303044,0.679244 0.67939,0.679244 l 42.642601,0 C 53.697995,54.000001 54,53.697999 54,53.319997 l 0,-42.640193 c 0,-0.376802 -0.302005,-0.679803 -0.680009,-0.679803 z"/>
 <path style="fill:#e84228" d="m 17.9998,10.000086 0,46 13.999799,-8 13.9998,8 0,-46 z"/>
 <path style="opacity:0.2;fill:#8b9cbe" d="M 6.8007812,4 C 5.2496034,4 4,5.2495827 4,6.8002055 L 4,7.8 C 4,6.2493772 5.2496034,4.9997945 6.8007812,4.9997945 l 50.3984378,0 C 58.749197,4.9997945 60,6.2493772 60,7.8 L 60,6.8002055 C 60,5.2495828 58.749197,4 57.199219,4 L 6.8007812,4 Z"/>
 <path style="opacity:0.2" d="m 4,57.2 0,0.999795 C 4,59.749454 5.2496034,61 6.8007812,61 L 57.199219,61 C 58.749197,61 60,59.749454 60,58.199795 L 60,57.2 c 0,1.54966 -1.250803,2.800205 -2.800781,2.800205 l -50.3984378,0 C 5.2496034,60.000205 4,58.74966 4,57.2 Z"/>
 <path style="opacity:0.2" d="m 31.999599,21.000571 2.999958,6.9999 6.999899,0.999986 -4.999928,4.999928 0.999986,6.9999 -5.999915,-2.999957 -5.999914,2.999957 0.999986,-6.9999 -4.999929,-4.999928 6.9999,-0.999986 z"/>
 <path style="fill:#8b9cbe" d="m 31.999822,20.000601 3.00019,6.9999 7.000381,0.999985 -4.999049,4.999929 1.000571,6.9999 -6.001522,-2.999957 -5.99962,2.999957 1.000571,-6.9999 -5.000951,-4.999929 7.000191,-0.999985 z"/>
 <path style="fill:#8b9cbe" d="m 31.999822,20.000601 3.00019,6.9999 7.000381,0.999985 -4.999049,4.999929 1.000571,6.9999 -6.001522,-2.999957 -5.99962,2.999957 1.000571,-6.9999 -5.000951,-4.999929 7.000191,-0.999985 z"/>
</svg>
