<svg xmlns="http://www.w3.org/2000/svg" width="64" height="64" version="1">
 <path style="opacity:0.2" d="m 4.0000004,56.200069 0,1.999971 c 0,1.549978 1.2495821,2.79996 2.80076,2.79996 L 57.20004,61 C 58.750017,61 60,59.750018 60,58.20004 l 0,-1.999971 c 0,1.549977 -1.249983,2.79996 -2.79996,2.79996 l -50.3992796,0 c -1.5503779,0 -2.79996,-1.249983 -2.79996,-2.79996 z"/>
 <rect style="fill:#feb625" width="56" height="56" x="4" y="4" rx="2.8" ry="2.8"/>
 <g style="opacity:0.1" transform="matrix(1.3560406,0,0,1.4294596,-1.5999195,-0.2298844)">
  <path d="m 35.102,33.902 c -2.3831,1.2029 -5.0074,1.9266 -7.4951,1.9372 -4.0429,0 -7.2458,-1.1272 -9.6086,-3.3817 -2.3629,-2.2653 -3.5443,-5.3327 -3.5443,-9.2022 0,-3.8803 1.1814,-6.9477 3.5443,-9.2022 2.3629,-2.2653 5.5657,-3.398 9.6086,-3.398 2.7053,0.0287 5.3054,0.81356 7.4951,1.9372 l 0,5.1713 c -2.1476,-1.2295 -4.6739,-1.9886 -6.9911,-2.0017 -2.2328,0 -4.4898,0.71536 -5.7688,2.1461 -1.279,1.43074 -1.9185,2.8326 -1.9185,5.3472 0,2.5038 0.63949,3.9002 1.9185,5.331 1.279,1.4307 3.536,2.1461 5.7688,2.1461 2.4915,-0.13391 5.1892,-0.80033 6.9911,-2.0017 z"/>
 </g>
 <g style="fill:#424242" transform="matrix(1.3560406,0,0,1.4294596,-1.5999195,-1.2298558)">
  <path d="m 35.102,33.902 c -2.3831,1.2029 -5.0074,1.9266 -7.4951,1.9372 -4.0429,0 -7.2458,-1.1272 -9.6086,-3.3817 -2.3629,-2.2653 -3.5443,-5.3327 -3.5443,-9.2022 0,-3.8803 1.1814,-6.9477 3.5443,-9.2022 2.3629,-2.2653 5.5657,-3.398 9.6086,-3.398 2.7053,0.0287 5.3054,0.81356 7.4951,1.9372 l 0,5.1713 c -2.1476,-1.2295 -4.6739,-1.9886 -6.9911,-2.0017 -2.2328,0 -4.4898,0.71536 -5.7688,2.1461 -1.279,1.43074 -1.9185,2.8326 -1.9185,5.3472 0,2.5038 0.63949,3.9002 1.9185,5.331 1.279,1.4307 3.536,2.1461 5.7688,2.1461 2.4915,-0.13391 5.1892,-0.80033 6.9911,-2.0017 z"/>
 </g>
 <path style="opacity:0.2;fill:#8b9cbe" d="M 6.8007812 4 C 5.2496034 4 4 5.2496034 4 6.8007812 L 4 7.8027344 C 4 6.2515566 5.2496034 5.0019531 6.8007812 5.0019531 L 57.199219 5.0019531 C 58.749196 5.0019531 60 6.2515566 60 7.8027344 L 60 6.8007812 C 60 5.2496035 58.749196 4 57.199219 4 L 6.8007812 4 z"/>
</svg>
