<svg xmlns="http://www.w3.org/2000/svg" width="64" height="64" version="1.1">
 <path style="opacity:0.2" d="M 53.910156,10.916213 A 6.0006,6.0006 0 0 0 48,17.000197 v 32 a 6.0006,6.0006 0 1 0 12,0 v -32 a 6.0006,6.0006 0 0 0 -6.089844,-6.083984 z m -15.896484,0.0059 a 6.0006,6.0006 0 0 0 -5.511719,3.675781 l -8.488281,19.431641 -8.517578,-19.4375 A 6.0006,6.0006 0 0 0 9.796875,10.924025 6.0006,6.0006 0 0 0 4.5039062,19.4084 L 18.199219,50.660353 a 6.0006,6.0006 0 0 0 4.164062,4.189453 6.0006,6.0006 0 0 0 0.308594,0.07813 6.0006,6.0006 0 0 0 0.185547,0.04102 6.0006,6.0006 0 0 0 7.023437,-4.394531 L 43.498047,19.402541 a 6.0006,6.0006 0 0 0 -5.484375,-8.480469 z"/>
 <path style="fill:none;stroke:#c0562a;stroke-width:12;stroke-linecap:round;stroke-linejoin:round" d="M 10,16 24.022016,48"/>
 <path style="opacity:0.1;fill:#8b9cbe" d="M 9.796875 9.9238281 A 6.0006 6.0006 0 0 0 3.9921875 16.429688 A 6.0006 6.0006 0 0 1 9.796875 10.923828 A 6.0006 6.0006 0 0 1 15.496094 14.591797 L 29.517578 46.591797 A 6.0006 6.0006 0 0 1 30.037109 48.59375 A 6.0006 6.0006 0 0 0 29.517578 45.591797 L 15.496094 13.591797 A 6.0006 6.0006 0 0 0 9.796875 9.9238281 z"/>
 <path style="fill:none;stroke:#c0562a;stroke-width:12;stroke-linecap:round;stroke-linejoin:round" d="M 54,16 V 48"/>
 <path style="fill:none;stroke:#ea8c46;stroke-width:12;stroke-linecap:round;stroke-linejoin:round" d="M 38,16 24.022016,48"/>
 <path style="opacity:0.1;fill:#8b9cbe" d="M 53.910156 9.9160156 A 6.0006 6.0006 0 0 0 48 16 L 48 17 A 6.0006 6.0006 0 0 1 53.910156 10.916016 A 6.0006 6.0006 0 0 1 60 17 L 60 16 A 6.0006 6.0006 0 0 0 53.910156 9.9160156 z"/>
 <path style="opacity:0.2;fill:#8b9cbe" d="M 38.013672 9.921875 A 6.0006 6.0006 0 0 0 32.501953 13.597656 L 18.523438 45.597656 A 6.0006 6.0006 0 0 0 18.011719 48.603516 A 6.0006 6.0006 0 0 1 18.523438 46.597656 L 32.501953 14.597656 A 6.0006 6.0006 0 0 1 38.013672 10.921875 A 6.0006 6.0006 0 0 1 44.007812 16.402344 A 6.0006 6.0006 0 0 0 38.013672 9.921875 z"/>
</svg>
