<svg xmlns="http://www.w3.org/2000/svg" width="64" height="64" version="1">
 <path style="fill:#e03c3b" d="m51.708 4.0002a20 20.514 0 0 1 -6.458 11.977c-3.794-2.509-8.342-3.977-13.25-3.977-4.91 0-9.464 1.469-13.258 3.9804a20 20.514 0 0 1 -6.449 -11.847 20 20.514 0 0 0 -0.293 3.3516 20 20.514 0 0 0 3.305 11.269c-4.5014 4.358-7.3046 10.456-7.3046 17.246 0 13.296 10.704 24 24 24s24-10.704 24-24c0-6.788-2.802-12.884-7.3-17.242a20 20.514 0 0 0 3.3 -11.273 20 20.514 0 0 0 -0.292 -3.4848z"/>
 <g style="opacity:.2" transform="matrix(2 0 0 2 .0000328 .99935)">
  <path d="m15 21c-1.184 1.913-3.806 2.568-5.8559 1.463-2.0503-1.104-2.7528-3.55-1.5691-5.463z"/>
  <path d="m17 21c1.1838 1.913 3.8055 2.5684 5.8559 1.4639 2.05-1.105 2.753-3.551 1.569-5.464z"/>
 </g>
 <path style="fill:#8b9cbe" d="m30 42c-2.368 3.826-7.612 5.136-11.712 2.926-4.1-2.208-5.505-7.1-3.138-10.926z"/>
 <path style="fill:#2c2c2c" d="m22.109 37.75v0.25c-0.4318 2.2051 0.41881 4.8404 2.6113 7.7422 0.02519-0.0061 0.05105-0.0093 0.07617-0.01563-1.0703-2.0429-0.8954-4.3203 0.14648-6.4512l-2.834-1.525z"/>
 <path style="fill:#8b9cbe" d="m34 42c2.368 3.826 7.612 5.136 11.712 2.926 4.1006-2.208 5.5056-7.1 3.1382-10.926z"/>
 <path style="fill:#2c2c2c" d="m41.891 37.75v0.25c0.4318 2.2051-0.41881 4.8404-2.6113 7.7422-0.02519-0.0061-0.05105-0.0093-0.07617-0.01563 1.0703-2.0429 0.8954-4.3203-0.14648-6.4512l2.834-1.5254z"/>
 <path style="opacity:.2;fill:#8b9cbe" d="m51.707 4a20 20.514 0 0 1 -6.457 11.977c-3.794-2.509-8.342-3.977-13.25-3.977-4.91 0-9.464 1.469-13.258 3.98a20 20.514 0 0 1 -6.449 -11.847 20 20.514 0 0 0 -0.293 3.3514 20 20.514 0 0 0 0.021 0.4375 20 20.514 0 0 1 0.272 -2.7891 20 20.514 0 0 0 6.449 11.847c3.794-2.511 8.348-3.98 13.258-3.98 4.908 0 9.456 1.468 13.25 3.977a20 20.514 0 0 0 6.457 -11.977 20 20.514 0 0 1 0.272 3.0332 20 20.514 0 0 0 0.021 -0.5488 20 20.514 0 0 0 -0.293 -3.4844zm-36.769 15.127c-4.284 4.33-6.938 10.272-6.938 16.873 0 0.171 0.0101 0.34 0.0137 0.51 0.1318-6.593 2.8983-12.504 7.2913-16.756a20 20.514 0 0 1 -0.367 -0.627zm34.124 0a20 20.514 0 0 1 -0.363 0.631c4.389 4.252 7.155 10.162 7.287 16.752 0.004-0.17 0.014-0.339 0.014-0.51 0-6.601-2.655-12.543-6.938-16.873z"/>
 <path style="opacity:.2" d="m12.021 7.9219a20 20.514 0 0 0 -0.021 0.5625 20 20.514 0 0 0 2.938 10.643c0.12264-0.12398 0.24189-0.25174 0.36719-0.37305a20 20.514 0 0 1 -3.284 -10.832zm39.958 0.1113a20 20.514 0 0 1 -3.28 10.725c0.12388 0.12003 0.242 0.2465 0.36328 0.36914a20 20.514 0 0 0 2.938 -10.643 20 20.514 0 0 0 -0.021 -0.4508zm-43.965 28.477c-0.0033 0.164-0.0137 0.325-0.0137 0.49 0 13.296 10.704 24 24 24s24-10.704 24-24c0-0.165-0.01-0.326-0.014-0.49-0.27 13.057-10.861 23.49-23.986 23.49s-23.716-10.433-23.986-23.49z"/>
</svg>
