<svg xmlns="http://www.w3.org/2000/svg" width="64" height="64" version="1">
 <rect style="opacity:0.2" width="58" height="58" x="3" y="4" rx="2.9" ry="2.9"/>
 <rect style="fill:#ffa023" width="58" height="58" x="3" y="3" rx="2.9" ry="2.9"/>
 <path style="fill:#17191e" d="M 9,9 V 55 H 55 V 9 Z"/>
 <path style="opacity:0.2" d="m 39.322782,47.601628 c 1.231744,-0.323918 2.62188,-0.468612 3.643646,-1.279146 0.17606,-1.586508 -0.373498,-2.572294 -0.875572,-4.056782 -0.297664,-1.577594 -1.963902,-0.639654 -2.971028,-0.464882 -2.883388,0.767964 -6.27727,0.17588 -8.299714,-2.190516 -2.17762,-3.077536 -3.054728,-8.492544 -1.225878,-11.52266 1.045694,-2.192606 3.200016,-3.798332 5.612804,-3.963286 2.023648,-0.268186 4.294642,0.353296 6.293862,0.530096 1.019782,-0.53711 0.976262,-1.9024 1.279262,-2.984036 0.251736,-1.1132 0.298612,-2.352799 -1.16264,-2.849926 -3.097532,-0.945117 -6.69533,-0.959802 -9.887496,-0.612268 -4.0572,0.522748 -7.569712,3.445002 -9.216912,7.204458 -1.544314,3.239462 -1.691506,6.961104 -1.378888,10.4878 0.585692,5.008182 3.985616,9.641986 8.723462,11.291022 2.965754,1.126144 6.215274,0.875408 9.288212,0.444866 z"/>
 <path style="fill:#ffa023" d="m 39.322782,46.601628 c 1.231744,-0.323918 2.62188,-0.468612 3.643646,-1.279146 0.17606,-1.586508 -0.373498,-2.572294 -0.875572,-4.056782 -0.297664,-1.577594 -1.963902,-0.639654 -2.971028,-0.464882 -2.883388,0.767964 -6.27727,0.17588 -8.299714,-2.190516 -2.17762,-3.077536 -3.054728,-8.492544 -1.225878,-11.52266 1.045694,-2.192606 3.200016,-3.798332 5.612804,-3.963286 2.023648,-0.268186 4.294642,0.353296 6.293862,0.530096 1.019782,-0.53711 0.976262,-1.9024 1.279262,-2.984036 0.251736,-1.1132 0.298612,-2.352799 -1.16264,-2.849926 -3.097532,-0.945117 -6.69533,-0.959802 -9.887496,-0.612268 -4.0572,0.522748 -7.569712,3.445003 -9.216912,7.204458 -1.544314,3.239462 -1.691506,6.961104 -1.378888,10.4878 0.585692,5.008182 3.985616,9.641986 8.723462,11.291022 2.965754,1.126144 6.215274,0.875408 9.288212,0.444866 z"/>
 <path style="opacity:0.2;fill:#8b9cbe" d="M 5.8984375 3 C 4.2918373 3 3 4.2918373 3 5.8984375 L 3 6.8984375 C 3 5.2918373 4.2918373 4 5.8984375 4 L 58.101562 4 C 59.708163 4 61 5.2918373 61 6.8984375 L 61 5.8984375 C 61 4.2918373 59.708163 3 58.101562 3 L 5.8984375 3 z"/>
 <path style="opacity:0.2;fill:#8b9cbe" d="M 36.078125 17.007812 C 35.445724 16.993086 34.813443 16.998892 34.1875 17.023438 C 33.35291 17.056168 32.528511 17.120147 31.730469 17.207031 C 27.673269 17.729779 24.158919 20.654607 22.511719 24.414062 C 21.398099 26.750071 21.053069 29.333428 21.046875 31.916016 C 21.138992 29.670547 21.541982 27.44825 22.511719 25.414062 C 24.158919 21.654607 27.673269 18.729779 31.730469 18.207031 C 32.528511 18.120147 33.35291 18.056168 34.1875 18.023438 C 36.691272 17.925254 39.294041 18.111474 41.617188 18.820312 C 42.404566 19.088183 42.747386 19.575149 42.863281 20.138672 C 42.993315 19.185227 42.848066 18.239065 41.617188 17.820312 C 39.874828 17.288684 37.975329 17.051993 36.078125 17.007812 z M 28.667969 32.292969 C 28.625534 32.781015 28.627253 33.284905 28.648438 33.792969 C 28.655344 33.626276 28.653725 33.456786 28.667969 33.292969 C 28.859045 35.585243 29.638504 37.939175 30.820312 39.609375 C 32.842757 41.975781 36.237706 42.568745 39.121094 41.800781 C 40.12822 41.626009 41.79218 40.688033 42.089844 42.265625 C 42.465381 43.375982 42.86571 44.20778 42.970703 45.220703 C 43.110888 43.696402 42.580489 42.716322 42.089844 41.265625 C 41.79218 39.688033 40.12822 40.626009 39.121094 40.800781 C 36.237706 41.568745 32.842757 40.975781 30.820312 38.609375 C 29.638504 36.939175 28.859045 34.585243 28.667969 32.292969 z"/>
 <rect style="opacity:0.2" width="46" height="1" x="9" y="9"/>
 <rect style="opacity:0.2;fill:#8b9cbe" width="46" height="1" x="9" y="55"/>
</svg>
