<svg xmlns="http://www.w3.org/2000/svg" width="64" height="64" version="1">
 <rect style="opacity:0.2" width="56" height="56" x="4" y="5" rx="2.8" ry="2.8"/>
 <rect style="fill:#4f4f4f" width="56" height="56" x="4" y="4" rx="2.8" ry="2.8"/>
 <path style="opacity:0.2" d="m 32,12 c -7.731986,0 -14,6.267748 -14,14 v 4 h -1.714844 c -0.75715,0 -1.456232,0.209869 -2.072265,0.550781 l 13.371093,13.333985 c 2.188666,2.183062 3.94979,2.056443 5.482422,1.546875 1.532634,-0.50957 2.597656,-1.546875 2.597656,-1.546875 L 49.283203,30.302734 C 48.796793,30.112382 48.270532,30 47.714844,30 H 46 V 26 C 46,18.267748 39.731986,12 32,12 Z m 0,4 c 5.570151,0 10,4.429434 10,10 v 2 0.08984 V 30 H 22 V 28.253906 28 26 c 0,-5.570566 4.429849,-10 10,-10 z m 19.435547,16.185547 -11.113281,11.083984 9.164062,8.341797 C 50.968752,50.940144 52,49.459741 52,47.724609 V 34.275391 c 0,-0.764122 -0.215125,-1.470386 -0.564453,-2.089844 z m -39.125,0.5 C 12.11378,33.177135 12,33.712125 12,34.275391 v 13.449218 c 0,1.659356 0.947646,3.076149 2.326172,3.785157 l 8.828125,-8.00586 z m 25.992187,12.599609 -0.61914,0.617188 c 0,0 -1.457451,1.482534 -3.712891,2.232422 -2.25544,0.749892 -5.546105,0.62236 -8.408203,-2.232422 L 25.175781,45.517578 18.275391,52 h 27.160156 z"/>
 <path style="fill:#11a88b" d="M 32 11 C 24.268014 11 18 17.267748 18 25 L 18 31.285156 L 46 31.056641 L 46 25 C 46 17.267748 39.731986 11 32 11 z M 32 15 C 37.570151 15 42 19.429434 42 25 L 42 27 L 42 27.089844 L 42 29 L 22 29 L 22 27.253906 L 22 27 L 22 25 C 22 19.429434 26.429849 15 32 15 z"/>
 <path style="fill:#11a88b" d="m 16.285714,29.000002 c -0.75715,0 -1.45707,0.21013 -2.073103,0.551042 l 13.370535,13.333562 c 2.188666,2.183062 3.95007,2.05694 5.482702,1.547372 1.532634,-0.50957 2.597656,-1.547372 2.597656,-1.547372 L 49.282366,29.303354 C 48.795956,29.113002 48.269974,29 47.714286,29 Z m 35.15067,2.184688 -11.113282,11.08486 9.162946,8.340822 C 50.968472,49.939188 52,48.460378 52,46.725246 V 33.274756 C 52,32.510634 51.785712,31.804148 51.436384,31.18469 Z M 12.30971,31.685638 C 12.112943,32.177226 12,32.71149 12,33.274756 v 13.45049 c 0,1.659356 0.948483,3.07593 2.327009,3.784938 l 8.828125,-8.006856 z m 25.993302,12.598834 -0.619418,0.617836 c 0,0 -1.458288,1.482114 -3.713728,2.232002 -2.25544,0.749892 -5.544708,0.62278 -8.406806,-2.232002 L 25.175222,44.518252 18.276,51 h 27.16 z"/>
 <path style="opacity:0.1;fill:#8b9cbe" d="M 6.8007812 4 C 5.2495812 4 4 5.2495812 4 6.8007812 L 4 7.8007812 C 4 6.2495813 5.2495812 5 6.8007812 5 L 57.199219 5 C 58.750419 5 60 6.2495812 60 7.8007812 L 60 6.8007812 C 60 5.2495813 58.750419 4 57.199219 4 L 6.8007812 4 z"/>
 <path style="opacity:0.2;fill:#8b9cbe" d="M 32 11 C 24.268014 11 18 17.267748 18 25 L 18 26 C 18 18.267748 24.268014 12 32 12 C 39.731986 12 46 18.267748 46 26 L 46 25 C 46 17.267748 39.731986 11 32 11 z M 16.285156 29 C 15.528006 29 14.828924 29.209869 14.212891 29.550781 L 14.910156 30.246094 C 15.341216 30.094373 15.799791 30 16.285156 30 L 18 30 L 18 29 L 16.285156 29 z M 22 29 L 22 30 L 42 30 L 42 29 L 22 29 z M 46 29 L 46 30 L 47.714844 30 C 47.985992 30 48.249935 30.028608 48.505859 30.078125 L 49.283203 29.302734 C 48.796793 29.112382 48.270532 29 47.714844 29 L 46 29 z M 51.435547 31.185547 L 40.322266 42.269531 L 40.845703 42.746094 L 51.435547 32.185547 C 51.784875 32.805005 52 33.511269 52 34.275391 L 52 33.275391 C 52 32.511269 51.784875 31.805005 51.435547 31.185547 z M 12.310547 31.685547 C 12.11378 32.177135 12 32.712125 12 33.275391 L 12 34.275391 C 12 33.712125 12.11378 33.177135 12.310547 32.685547 L 22.628906 42.980469 L 23.154297 42.503906 L 12.310547 31.685547 z M 38.302734 44.285156 L 37.683594 44.902344 C 37.683594 44.902344 36.226143 46.384878 33.970703 47.134766 C 31.715263 47.884658 28.424598 47.757126 25.5625 44.902344 L 25.175781 44.517578 L 18.275391 51 L 19.339844 51 L 25.175781 45.517578 L 25.5625 45.902344 C 28.424598 48.757126 31.715263 48.884658 33.970703 48.134766 C 36.226143 47.384878 37.683594 45.902344 37.683594 45.902344 L 38.302734 45.285156 L 44.373047 51 L 45.435547 51 L 38.302734 44.285156 z"/>
</svg>
