<svg xmlns="http://www.w3.org/2000/svg" width="64" height="64" version="1">
 <rect style="opacity:0.2" width="41" height="57" x="12" y="4" rx="4.393" ry="4.275"/>
 <rect style="fill:#868686" width="41" height="57" x="12" y="3" rx="4.393" ry="4.275"/>
 <circle style="fill:#555761" cx="32.5" cy="28.5" r="14.5"/>
 <path style="opacity:0.2" d="m 28.117195,19.000006 c -2.191832,0.0019 -4.21752,1.174507 -5.314457,3.076173 l -0.662109,1.14551 -0.0117,0.0205 c -0.06454,0.111886 -0.02989,0.252194 0.07617,0.313476 l 7.73731,4.473636 c -1.630495,-0.504639 -3.396617,-0.308285 -4.875003,0.541993 -1.900225,1.096632 -3.069628,3.124941 -3.067402,5.320319 0.0014,2.194066 1.172964,4.22207 3.073243,5.320316 l 1.14551,0.66211 0.0205,0.0117 c 0.111765,0.06457 0.252252,0.02997 0.313477,-0.07617 l 4.43848,-7.696293 c -0.480588,1.61515 -0.278296,3.356336 0.55957,4.816409 1.094923,1.900596 3.119533,3.070919 5.311525,3.070315 2.19288,-9.28e-4 4.219928,-1.1736 5.317387,-3.076174 l 0.66211,-1.14551 0.0117,-0.0205 c 0.06454,-0.111885 0.02986,-0.252205 -0.07617,-0.313475 l -7.482423,-4.324223 c 1.566818,0.416063 3.233839,0.19597 4.637699,-0.612305 1.8993,-1.096108 3.068564,-3.123057 3.067385,-5.317386 -0.0014,-2.194067 -1.172964,-4.222072 -3.073245,-5.320316 l -1.145508,-0.66211 -0.0205,-0.0117 c -0.111766,-0.06457 -0.252253,-0.02997 -0.313477,0.07617 l -4.514652,7.8252 c 0.560415,-1.67102 0.377981,-3.501767 -0.50096,-5.027351 -1.095446,-1.901506 -3.121415,-3.071967 -5.314458,-3.070314 z"/>
 <path style="fill:#9ab4c0" d="m 28.117195,18.000002 c -2.191832,0.0019 -4.21752,1.174507 -5.314457,3.076173 l -0.662109,1.14551 -0.0117,0.0205 c -0.06454,0.111886 -0.02989,0.252194 0.07617,0.313476 l 7.73731,4.473636 c -1.630495,-0.504639 -3.396617,-0.308285 -4.875003,0.541993 -1.900225,1.096632 -3.069628,3.124941 -3.067402,5.320319 0.0014,2.194066 1.172964,4.22207 3.073243,5.320316 l 1.14551,0.66211 0.0205,0.0117 c 0.111765,0.06457 0.252252,0.02997 0.313477,-0.07617 l 4.43848,-7.696293 c -0.480588,1.61515 -0.278296,3.356336 0.55957,4.816409 1.094923,1.900596 3.119533,3.070919 5.311525,3.070315 2.19288,-9.28e-4 4.219928,-1.1736 5.317387,-3.076174 l 0.66211,-1.14551 0.0117,-0.0205 c 0.06454,-0.111885 0.02986,-0.252205 -0.07617,-0.313475 l -7.482423,-4.324223 c 1.566818,0.416063 3.233839,0.19597 4.637699,-0.612305 1.8993,-1.096108 3.068564,-3.123057 3.067385,-5.317386 -0.0014,-2.194067 -1.172964,-4.222072 -3.073245,-5.320316 l -1.145508,-0.66211 -0.0205,-0.0117 c -0.111766,-0.06457 -0.252253,-0.02997 -0.313477,0.07617 l -4.514652,7.8252 C 34.49303,24.426647 34.310596,22.5959 33.431655,21.070316 32.336209,19.16881 30.31024,17.998349 28.117197,18.000002 Z"/>
 <circle style="opacity:0.2" cx="42.896" cy="9.297" r="2.5" transform="matrix(0.86602251,0.50000502,-0.49999502,0.86602828,0,0)"/>
 <circle style="fill:#8b9cbe" cx="42.396" cy="8.431" r="2.5" transform="matrix(0.86602251,0.50000502,-0.49999502,0.86602828,0,0)"/>
 <circle style="opacity:0.2" cx="32.5" cy="9.5" r="2.5"/>
 <circle style="fill:#87d22b" cx="32.5" cy="8.5" r="2.5"/>
 <path style="fill:#555761" d="M 16 46 L 16 50 L 22 50 L 22 46 L 16 46 z M 25 46 L 25 53 L 31 53 L 31 46 L 25 46 z M 34 46 L 34 49 L 40 49 L 40 46 L 34 46 z"/>
 <path style="fill:#87d22b" d="M 43 46 L 43 56 L 49 56 L 49 46 L 43 46 z M 34 49 L 34 56 L 40 56 L 40 49 L 34 49 z M 16 50 L 16 56 L 22 56 L 22 50 L 16 50 z M 25 53 L 25 56 L 31 56 L 31 53 L 25 53 z"/>
 <path style="fill:#8b9cbe;opacity:0.2" d="M 16.392578 3 C 13.958936 3 12 4.9070408 12 7.2753906 L 12 8.2753906 C 12 5.9070408 13.958936 4 16.392578 4 L 48.607422 4 C 51.041064 4 53 5.9070408 53 8.2753906 L 53 7.2753906 C 53 4.9070408 51.041064 3 48.607422 3 L 16.392578 3 z"/>
 <path style="opacity:0.2" d="m 16,46 v 1 h 6 v -1 z m 9,0 v 1 h 6 v -1 z m 9,0 v 1 h 6 v -1 z"/>
 <path style="opacity:0.2" d="m 16,56 v 1 h 6 v -1 z m 9,0 v 1 h 6 v -1 z m 9,0 v 1 h 6 v -1 z m 9,0 v 1 h 6 v -1 z"/>
 <path style="opacity:0.2;fill:#8b9cbe" d="M 43 46 L 43 47 L 49 47 L 49 46 L 43 46 z M 34 49 L 34 50 L 40 50 L 40 49 L 34 49 z M 16 50 L 16 51 L 22 51 L 22 50 L 16 50 z M 25 53 L 25 54 L 31 54 L 31 53 L 25 53 z"/>
 <path style="fill:#8b9cbe;opacity:0.2" d="M 32.5 6 A 2.5 2.5 0 0 0 30 8.5 A 2.5 2.5 0 0 0 30.052734 8.9960938 A 2.5 2.5 0 0 1 32.5 7 A 2.5 2.5 0 0 1 34.947266 9.0039062 A 2.5 2.5 0 0 0 35 8.5 A 2.5 2.5 0 0 0 32.5 6 z"/>
 <path style="opacity:0.2" d="M 32.5 14 A 14.5 14.5 0 0 0 18 28.5 A 14.5 14.5 0 0 0 18.021484 29.080078 A 14.5 14.5 0 0 1 32.5 15 A 14.5 14.5 0 0 1 46.978516 28.919922 A 14.5 14.5 0 0 0 47 28.5 A 14.5 14.5 0 0 0 32.5 14 z"/>
</svg>
