<svg xmlns="http://www.w3.org/2000/svg" width="64" height="64" version="1.1">
 <rect style="opacity:0.2" width="56" height="56" x="4" y="5" rx="2.8" ry="2.8"/>
 <rect style="fill:#4f4f4f" width="56" height="56" x="4" y="4" rx="2.8" ry="2.8"/>
 <path style="opacity:0.1;fill:#8b9cbe" d="M 6.8008 4 C 5.2496 4 4 5.2496 4 6.8008 L 4 7.8008 C 4 6.2496 5.2496 5 6.8008 5 L 57.199 5 C 58.75 5 60 6.2496 60 7.8008 L 60 6.8008 C 60 5.2496 58.75 4 57.199 4 L 6.8008 4 z"/>
 <rect style="opacity:0.2" width="48" height="36" x="8" y="21"/>
 <rect style="fill:#ff8e20" width="48" height="36" x="8" y="20"/>
 <circle style="opacity:0.2" cx="52" cy="13" r="3"/>
 <circle style="fill:#ed333b" cx="52" cy="12" r="3"/>
 <g style="opacity:0.2;fill:none;stroke:#000000;stroke-width:3;stroke-linecap:round" transform="translate(0,1)">
  <path d="M 14.5,42.5 V 49.5 H 21.5"/>
  <path d="M 49.5,42.5 V 49.5 H 42.5"/>
  <path d="M 49.5,33.5 V 26.5 H 42.5"/>
  <path d="M 14.5,33.5 V 26.5 H 21.5"/>
 </g>
 <g style="fill:none;stroke:#8b9cbe;stroke-width:3;stroke-linecap:round">
  <path d="M 14.5,42.5 V 49.5 H 21.5"/>
  <path d="M 49.5,42.5 V 49.5 H 42.5"/>
  <path d="M 49.5,33.5 V 26.5 H 42.5"/>
  <path d="M 14.5,33.5 V 26.5 H 21.5"/>
 </g>
 <rect style="opacity:0.2" width="16" height="3" x="24" y="12" rx="1.4" ry="1.4"/>
 <rect style="fill:#b2bfd9" width="16" height="3" x="24" y="11" rx="1.4" ry="1.4"/>
</svg>
