<svg xmlns="http://www.w3.org/2000/svg" width="64" height="64" version="1.1">
 <circle style="opacity:0.2" cx="32" cy="33" r="28"/>
 <circle style="fill:#2876d8" cx="32" cy="32" r="28"/>
 <g style="opacity:0.2" transform="matrix(0.5598998,0,0,0.56864492,-3.8044535,-5.6151324)">
  <path d="m 67.485968,38.020363 c -4.026059,-0.123553 -8.39142,1.070326 -13.663367,3.37679 5.588289,0 8.436615,-0.526851 13.392306,4.428878 2.530532,2.530543 2.213728,6.327018 -0.211337,8.752088 l -0.01838,0.05054 -32.398811,36.262591 c -1.265266,1.265273 -1.366314,3.374619 -0.101074,4.534548 l 1.474761,1.479355 c 1.265263,1.265273 3.26928,1.159581 4.534548,-0.105668 l 32.504477,-36.37745 c 0.821158,0.612305 1.758031,0.941893 2.862232,1.111816 2.003309,0.210822 2.424336,-0.313856 3.900537,1.162349 0.421757,0.421757 0.421757,1.158671 0,1.58043 -0.421754,0.421754 -0.421754,1.053009 0,1.474761 l 3.477865,3.588128 c 0.843512,0.843513 2.11061,0.843513 2.954117,0 l 7.48407,-7.488665 c 0.843507,-0.843511 0.843507,-2.106009 0,-2.949522 L 89.98871,55.207538 c -0.421747,-0.421755 -1.053002,-0.421755 -1.474761,0 -0.421757,0.421759 -1.053002,0.421759 -1.474761,0 -1.37073,-1.476213 -0.846083,-1.897219 -1.16235,-3.90054 -0.210935,-1.265263 -0.842808,-2.528875 -1.791767,-3.477862 l -3.794864,-3.79487 C 78.18143,41.92547 77.123639,40.870857 74.487641,39.711055 72.194323,38.64345 69.901603,38.094494 67.485968,38.020363 Z"/>
 </g>
 <g style="fill:#8b9cbe" transform="matrix(0.5598998,0,0,0.56864492,-3.8044535,-6.6151324)">
  <path style="fill:#8b9cbe" d="m 67.485968,38.020363 c -4.026059,-0.123553 -8.39142,1.070326 -13.663367,3.37679 5.588289,0 8.436615,-0.526851 13.392306,4.428878 2.530532,2.530543 2.213728,6.327018 -0.211337,8.752088 l -0.01838,0.05054 -32.398811,36.262591 c -1.265266,1.265273 -1.366314,3.374619 -0.101074,4.534548 l 1.474761,1.479355 c 1.265263,1.265273 3.26928,1.159581 4.534548,-0.105668 l 32.504477,-36.37745 c 0.821158,0.612305 1.758031,0.941893 2.862232,1.111816 2.003309,0.210822 2.424336,-0.313856 3.900537,1.162349 0.421757,0.421757 0.421757,1.158671 0,1.58043 -0.421754,0.421754 -0.421754,1.053009 0,1.474761 l 3.477865,3.588128 c 0.843512,0.843513 2.11061,0.843513 2.954117,0 l 7.48407,-7.488665 c 0.843507,-0.843511 0.843507,-2.106009 0,-2.949522 L 89.98871,55.207538 c -0.421747,-0.421755 -1.053002,-0.421755 -1.474761,0 -0.421757,0.421759 -1.053002,0.421759 -1.474761,0 -1.37073,-1.476213 -0.846083,-1.897219 -1.16235,-3.90054 -0.210935,-1.265263 -0.842808,-2.528875 -1.791767,-3.477862 l -3.794864,-3.79487 C 78.18143,41.92547 77.123639,40.870857 74.487641,39.711055 72.194323,38.64345 69.901603,38.094494 67.485968,38.020363 Z"/>
 </g>
 <path style="opacity:0.1;fill:#8b9cbe" d="M 32 4 A 28 28 0 0 0 4 32 A 28 28 0 0 0 4.0175781 32.492188 A 28 28 0 0 1 32 5 A 28 28 0 0 1 59.974609 32.492188 A 28 28 0 0 0 60 32 A 28 28 0 0 0 32 4 z"/>
</svg>
