<svg xmlns="http://www.w3.org/2000/svg" width="64" height="64" version="1.1">
 <rect style="opacity:0.2" width="57" height="57" x="-61" y="-61" rx="2.85" ry="2.85" transform="matrix(0,-1,-1,0,0,0)"/>
 <rect style="fill:#4f4f4f" width="57" height="57" x="-60" y="-61" rx="2.85" ry="2.85" transform="matrix(0,-1,-1,0,0,0)"/>
 <path style="opacity:0.2" d="M 30,10.169922 V 23 h 4 v -8.216797 l 1.5,-0.996094 z m -6.912109,5.640625 -0.240235,4.191406 -5.269531,-0.0039 L 20.527344,19 H 1.3632812 L 12.058594,20 8.3398438,23 H 27 v -5.472656 z m 17.824218,0 L 37,17.527344 V 23 h 18.660156 l -3.71875,-3 10.695313,-1 H 43.472656 l 2.949219,0.998047 -5.269531,0.0039 z M 18.761719,25 23,28.369141 v 26.453125 l 7,-4.269532 v 4.302735 L 41,46.728516 V 28.458984 L 45.300781,25 H 37 V 44.894531 L 34.041016,46.966797 33.958984,25 H 30 V 44.9375 L 27.046875,46.964844 26.953125,25 Z"/>
 <path style="fill:#dc4043" d="M 30 9.1699219 L 30 22 L 34 22 L 34 13.783203 L 35.5 12.787109 L 30 9.1699219 z M 23.087891 14.810547 L 22.847656 19.001953 L 17.578125 18.998047 L 20.527344 18 L 1.3632812 18 L 12.058594 19 L 8.3398438 22 L 27 22 L 27 16.527344 L 23.087891 14.810547 z M 40.912109 14.810547 L 37 16.527344 L 37 22 L 55.660156 22 L 51.941406 19 L 62.636719 18 L 43.472656 18 L 46.421875 18.998047 L 41.152344 19.001953 L 40.912109 14.810547 z M 18.761719 24 L 23 27.369141 L 23 53.822266 L 30 49.552734 L 30 53.855469 L 41 45.728516 L 41 27.458984 L 45.300781 24 L 37 24 L 37 43.894531 L 34.041016 45.966797 L 33.958984 24 L 30 24 L 30 43.9375 L 27.046875 45.964844 L 26.953125 24 L 18.761719 24 z"/>
 <path style="fill:#8b9cbe;opacity:0.1" d="M 6.8496094 3 C 5.2707094 3 4 4.2707094 4 5.8496094 L 4 6.8496094 C 4 5.2707094 5.2707094 4 6.8496094 4 L 58.150391 4 C 59.729291 4 61 5.2707094 61 6.8496094 L 61 5.8496094 C 61 4.2707094 59.729291 3 58.150391 3 L 6.8496094 3 z"/>
</svg>
