<svg xmlns="http://www.w3.org/2000/svg" width="64" height="64" version="1">
 <rect style="opacity:0.2" width="58" height="58" x="3" y="4" rx="2.9" ry="2.9"/>
 <rect style="fill:#46b146" width="58" height="58" x="3" y="3" rx="2.9" ry="2.9"/>
 <path style="opacity:0.2;fill:none;stroke:#000000;stroke-width:6;stroke-linecap:round;stroke-linejoin:round" d="M 18.020652,48.9997 H 37.82065 c 0,0 8.2,-0.05 8.2,-8.025 0,-7.975 -8.2,-7.964748 -8.2,-7.964748 H 29.410298 M 45.979348,16.9997 h -19.8 c 0,0 -8.2,0.02949 -8.2,8.004494 0,7.975 8.2,7.985254 8.2,7.985254 h 8.12035"/>
 <path style="fill:none;stroke:#8b9cbe;stroke-width:6;stroke-linecap:round;stroke-linejoin:round" d="M 18.020652,48 H 37.82065 c 0,0 8.2,-0.05 8.2,-8.025 0,-7.975 -8.2,-7.964748 -8.2,-7.964748 H 29.410298 M 45.979348,16 h -19.8 c 0,0 -8.2,0.02949 -8.2,8.004494 0,7.975 8.2,7.985254 8.2,7.985254 h 8.12035"/>
 <path style="opacity:0.2;fill:#8b9cbe" d="M 5.8984375 3 C 4.2918373 3 3 4.2918373 3 5.8984375 L 3 6.8984375 C 3 5.2918373 4.2918373 4 5.8984375 4 L 58.101562 4 C 59.708163 4 61 5.2918373 61 6.8984375 L 61 5.8984375 C 61 4.2918373 59.708163 3 58.101562 3 L 5.8984375 3 z"/>
</svg>
