<svg xmlns="http://www.w3.org/2000/svg" width="64" height="64" version="1.1">
 <circle style="opacity:0.2" cx="32.5" cy="32.5" r="28.5"/>
 <circle style="fill:#acacac" cx="32.5" cy="31.5" r="28.5"/>
 <path style="opacity:0.2;fill:#8b9cbe" d="M 32.5 3 A 28.5 28.5 0 0 0 4 31.5 A 28.5 28.5 0 0 0 4.0214844 32.082031 A 28.5 28.5 0 0 1 32.5 4 A 28.5 28.5 0 0 1 60.978516 31.917969 A 28.5 28.5 0 0 0 61 31.5 A 28.5 28.5 0 0 0 32.5 3 z"/>
 <path style="opacity:0.1" d="m 23,10.169453 v 5.830078 4 h -1 -2 v -3 -3 H 17 1 l 3,3 h 13 v 3 H 5 l 3,3 h 15 3 1 v -8.216797 l 1.5,-0.996094 z m 18,0 -5.5,3.617187 1.5,0.996094 v 8.216797 h 1 3 15 l 3,-3 H 47 v -3 h 13 l 3,-3 H 47 44 v 3 3 h -2 -1 v -4 z m -9,8.830078 c -1.104569,0 -2,0.895431 -2,2 0,1.104569 0.895431,2 2,2 1.104569,0 2,-0.895431 2,-2 0,-1.104569 -0.895431,-2 -2,-2 z m -23,6 3,3 h 11 v 26.822266 l 7,-4.269532 V 54.855 L 41,46.728047 V 27.999531 h 11 l 3,-3 H 37 v 19.894531 l -2.958984,2.072266 -0.08203,-21.966797 H 30 v 19.9375 l -2.953125,2.027344 -0.09375,-21.964844 H 25 18.761719 Z"/>
 <path style="fill:#be3539" d="M 23,9.1699219 V 15 19 H 22 20 V 16 13 H 17 1 l 3,3 h 13 v 3 H 5 l 3,3 h 15 3 1 v -8.216797 l 1.5,-0.996094 z m 18,0 -5.5,3.6171871 1.5,0.996094 V 22 h 1 3 15 l 3,-3 H 47 v -3 h 13 l 3,-3 H 47 44 v 3 3 H 42 41 V 15 Z M 32,18 c -1.104569,0 -2,0.895431 -2,2 0,1.104569 0.895431,2 2,2 1.104569,0 2,-0.895431 2,-2 0,-1.104569 -0.895431,-2 -2,-2 z m -23,6 3,3 h 11 v 26.822266 l 7,-4.269532 v 4.302735 L 41,45.728516 V 27 h 11 l 3,-3 H 37 V 43.894531 L 34.041016,45.966797 33.958984,24 H 30 V 43.9375 L 27.046875,45.964844 26.953125,24 H 25 18.761719 Z"/>
</svg>
