<svg xmlns="http://www.w3.org/2000/svg" width="64" height="64" version="1">
 <path style="opacity:0.2" d="M 61.96,31.828 A 30,30 0 0 1 32,61 30,30 0 0 1 2.04,32.172 30,30 0 0 0 2,33 30,30 0 0 0 32,63 30,30 0 0 0 62,33 30,30 0 0 0 61.96,31.828 Z"/>
 <path style="fill:#4f4f4f" d="M 62,32 A 30,30 0 0 1 32,62 30,30 0 0 1 2,32 30,30 0 0 1 32,2 30,30 0 0 1 62,32 Z"/>
 <g style="opacity:0.2;enable-background:new" transform="matrix(2,0,0,2,-832,-103)">
  <path d="m 429.86,74.54 c 0.95103,-0.29175 2.0921,-1.0927 2.627,-1.8438 l 0.17655,-0.24794 -0.22099,-0.66864 c -0.80723,-2.4424 0.65844,-4.9052 3.1714,-5.3291 1.8265,-0.30808 3.7428,0.80916 4.4035,2.5673 0.15729,0.41853 0.16209,0.42293 0.11092,0.1016 -0.15135,-0.95045 -0.62189,-1.8267 -1.3869,-2.5829 -0.79829,-0.78902 -1.7254,-1.2364 -2.8836,-1.3915 -0.35549,-0.04761 -0.39237,-0.03413 -0.52608,0.19223 -0.20615,0.34898 -0.80584,0.93281 -1.249,1.2159 -1.1936,0.76262 -3.0336,0.76294 -4.2301,8.35e-4 -1.3517,-0.86102 -2.1162,-2.51 -1.8681,-4.0291 0.13545,-0.82926 0.50057,-1.565 1.0826,-2.1814 0.42178,-0.44671 0.45033,-0.49596 0.20658,-0.35638 -0.41039,0.235 -1.371,1.2788 -1.6437,1.786 -0.31429,0.58457 -0.5695,1.6191 -0.56796,2.3024 0.001,0.58786 0.15523,1.3684 0.38118,1.9331 0.13171,0.32916 0.14843,0.33954 0.6363,0.39473 0.27556,0.03117 0.71106,0.12895 0.96777,0.21727 2.2699,0.78096 3.3409,3.3988 2.2782,5.5687 -0.72433,1.479 -2.4012,2.4314 -3.9686,2.2538 -0.63795,-0.07228 -0.5703,0.01414 0.13702,0.17502 0.62683,0.14258 1.7698,0.10488 2.366,-0.07804 z"/>
  <path d="m 432,58 c -5.5165,0 -10,4.4835 -10,10 0,5.5165 4.4835,10 10,10 5.5165,0 10,-4.4835 10,-10 0,-5.5165 -4.4835,-10 -10,-10 z m 0,1.0742 c 4.9363,0 8.9258,3.9895 8.9258,8.9258 0,4.9363 -3.9895,8.9258 -8.9258,8.9258 -4.9363,0 -8.9258,-3.9895 -8.9258,-8.9258 0,-4.9363 3.9895,-8.9258 8.9258,-8.9258 z"/>
 </g>
 <path style="opacity:0.1;fill:#8b9cbe" d="M 31.998047 2 A 30 30 0 0 0 2 32 A 30 30 0 0 0 2.0175781 32.511719 A 30 30 0 0 1 31.998047 3 L 32 3 A 30 30 0 0 1 61.974609 32.511719 A 30 30 0 0 0 61.998047 32 A 30 30 0 0 0 32 2 L 31.998047 2 z"/>
 <g style="fill:#8b9cbe;enable-background:new" transform="matrix(2,0,0,2,-832,-104)">
  <path d="m 429.86,74.54 c 0.95103,-0.29175 2.0921,-1.0927 2.627,-1.8438 l 0.17655,-0.24794 -0.22099,-0.66864 c -0.80723,-2.4424 0.65844,-4.9052 3.1714,-5.3291 1.8265,-0.30808 3.7428,0.80916 4.4035,2.5673 0.15729,0.41853 0.16209,0.42293 0.11092,0.1016 -0.15135,-0.95045 -0.62189,-1.8267 -1.3869,-2.5829 -0.79829,-0.78902 -1.7254,-1.2364 -2.8836,-1.3915 -0.35549,-0.04761 -0.39237,-0.03413 -0.52608,0.19223 -0.20615,0.34898 -0.80584,0.93281 -1.249,1.2159 -1.1936,0.76262 -3.0336,0.76294 -4.2301,8.35e-4 -1.3517,-0.86102 -2.1162,-2.51 -1.8681,-4.0291 0.13545,-0.82926 0.50057,-1.565 1.0826,-2.1814 0.42178,-0.44671 0.45033,-0.49596 0.20658,-0.35638 -0.41039,0.235 -1.371,1.2788 -1.6437,1.786 -0.31429,0.58457 -0.5695,1.6191 -0.56796,2.3024 0.001,0.58786 0.15523,1.3684 0.38118,1.9331 0.13171,0.32916 0.14843,0.33954 0.6363,0.39473 0.27556,0.03117 0.71106,0.12895 0.96777,0.21727 2.2699,0.78096 3.3409,3.3988 2.2782,5.5687 -0.72433,1.479 -2.4012,2.4314 -3.9686,2.2538 -0.63795,-0.07228 -0.5703,0.01414 0.13702,0.17502 0.62683,0.14258 1.7698,0.10488 2.366,-0.07804 z"/>
  <path d="m 432,58 c -5.5165,0 -10,4.4835 -10,10 0,5.5165 4.4835,10 10,10 5.5165,0 10,-4.4835 10,-10 0,-5.5165 -4.4835,-10 -10,-10 z m 0,1.0742 c 4.9363,0 8.9258,3.9895 8.9258,8.9258 0,4.9363 -3.9895,8.9258 -8.9258,8.9258 -4.9363,0 -8.9258,-3.9895 -8.9258,-8.9258 0,-4.9363 3.9895,-8.9258 8.9258,-8.9258 z"/>
 </g>
</svg>
