<svg xmlns="http://www.w3.org/2000/svg" width="64" height="64" version="1">
 <ellipse style="opacity:0.2" cx="32" cy="53.3" rx="25" ry="8.7"/>
 <ellipse style="fill:#4f4f4f" cx="32" cy="52.3" rx="25" ry="8.7"/>
 <ellipse style="fill:#17191e" cx="32" cy="48" rx="17" ry="5"/>
 <path style="opacity:0.2" d="M 8.7999991,9.800001 H 55.200001 L 39.000001,49 H 25 Z"/>
 <path style="fill:#008bad" d="M 8.7999991,8.7999992 H 55.200001 L 39.000001,48 H 25 Z"/>
 <path style="opacity:0.2;fill:none;stroke:#000000;stroke-width:6.00000048;stroke-linecap:square;stroke-linejoin:bevel" d="M 46.000001,35.65 C 46.000001,38.052438 40.008129,40 32,40 23.991872,40 18,38.052438 18,35.65 c 0,-2.402438 5.991872,-4.650001 14,-4.650001 8.008129,0 14.000001,2.247563 14.000001,4.650001 z"/>
 <path style="fill:none;stroke:#61fff7;stroke-width:6.00000048;stroke-linecap:square;stroke-linejoin:bevel" d="m 46.000001,34.649999 c 0,2.402438 -5.991872,4.35 -14.000001,4.35 -8.008128,0 -14,-1.947562 -14,-4.35 0,-2.402439 5.991872,-4.65 14,-4.65 8.008129,0 14.000001,2.247561 14.000001,4.65 z"/>
 <path style="opacity:0.2;fill:none;stroke:#000000;stroke-width:6.00000048;stroke-linecap:square;stroke-linejoin:bevel" d="M 52.000001,24.300274 C 52.000001,27.503374 43.211381,31 32,31 20.788619,31 11.999998,27.503374 11.999999,24.300274 c 0,-3.2031 8.78862,-5.300273 20.000001,-5.300273 11.211381,0 20.000001,2.097173 20.000001,5.300273 z"/>
 <path style="fill:none;stroke:#61fff7;stroke-width:6.00000048;stroke-linecap:square;stroke-linejoin:bevel" d="m 52.000001,23.300273 c 0,3.2031 -8.78862,6.699726 -20.000001,6.699726 -11.211381,0 -20.000002,-3.496626 -20.000001,-6.699726 C 11.999999,20.097174 20.788619,18 32,18 c 11.211381,0 20.000001,2.097174 20.000001,5.300273 z"/>
 <path style="opacity:0.2;fill:none;stroke:#000000;stroke-width:6.00000048;stroke-linecap:square;stroke-linejoin:bevel" d="M 58.100002,12.7 C 58.100002,15.903252 46.414633,19.000001 32,19.000001 17.585368,19.000001 5.8999989,15.903252 5.8999989,12.7 5.8999989,9.496749 17.585368,7.0000002 32,7.0000002 c 14.414633,0 26.100002,2.4967488 26.100002,5.6999998 z"/>
 <path style="fill:none;stroke:#61fff7;stroke-width:6.00000048;stroke-linecap:square;stroke-linejoin:bevel" d="M 58.100002,11.699999 C 58.100002,14.903251 46.414633,18 32,18 17.585368,18 5.8999989,14.903251 5.8999989,11.699999 5.8999989,8.4967476 17.585368,5.9999991 32,5.9999991 c 14.414633,0 26.100002,2.4967485 26.100002,5.6999999 z"/>
 <path style="opacity:0.2;fill:#8b9cbe" d="M 32 3 C 24.619475 3 17.944103 3.6243633 12.908203 4.7167969 C 10.390253 5.2630136 8.2917749 5.9026983 6.5703125 6.7949219 C 5.7095813 7.2410337 4.9264475 7.7457533 4.2304688 8.4960938 C 3.5344899 9.246434 2.9003906 10.386819 2.9003906 11.699219 C 2.9003906 11.871572 2.9117311 12.039948 2.9316406 12.205078 C 3.0647179 11.101596 3.6233234 10.150662 4.2304688 9.4960938 C 4.9264475 8.7457533 5.7095813 8.2410337 6.5703125 7.7949219 C 8.2917749 6.9026983 10.390253 6.2630136 12.908203 5.7167969 C 17.944103 4.6243633 24.619475 4 32 4 C 39.380526 4 46.055897 4.6243633 51.091797 5.7167969 C 53.609747 6.2630136 55.708225 6.9026983 57.429688 7.7949219 C 58.290418 8.2410337 59.073552 8.7457534 59.769531 9.4960938 C 60.376677 10.150662 60.935282 11.101596 61.068359 12.205078 C 61.088269 12.039948 61.099609 11.871572 61.099609 11.699219 C 61.099609 10.386819 60.46551 9.246434 59.769531 8.4960938 C 59.073552 7.7457534 58.290418 7.2410337 57.429688 6.7949219 C 55.708225 5.9026983 53.609747 5.2630136 51.091797 4.7167969 C 46.055897 3.6243633 39.380526 3 32 3 z M 11.671875 12.300781 C 11.22979 12.459598 10.802409 12.61967 10.419922 12.775391 C 11.407886 13.224743 12.524164 13.70706 14.267578 14.140625 C 18.662385 15.233559 25.007518 16 32 16 C 38.992483 16 45.337615 15.233559 49.732422 14.140625 C 51.475836 13.70706 52.592114 13.224743 53.580078 12.775391 C 53.197591 12.61967 52.77021 12.459598 52.328125 12.300781 C 51.611589 12.586921 50.810779 12.872451 49.732422 13.140625 C 45.337615 14.233559 38.992483 15 32 15 C 25.007518 15 18.662385 14.233559 14.267578 13.140625 C 13.189221 12.872451 12.388411 12.586921 11.671875 12.300781 z"/>
</svg>
