<svg xmlns="http://www.w3.org/2000/svg" width="64" height="64" version="1.1">
 <g transform="translate(0,-1058.5197)">
  <path style="opacity:0.2" d="m 32.00161,1067.1672 -22.9999641,11.5 v 1.8514 23.8555 l 19.9999691,10 v 0.144 h 0.289061 l 2.710934,1.3556 2.710934,-1.3556 h 0.289062 v -0.144 l 19.999969,-10 v -25.7069 z m -2.999995,8.207 v 11.8476 l -10.773421,-6.461 z m 5.999991,0 10.769515,5.3866 -10.769515,6.461 z m -19.999969,10.4452 10.769515,6.461 -10.769515,5.3868 z m 33.999947,0 v 11.8478 l -10.769515,-5.3868 z m -19.999969,11.5548 v 10.2929 l -10.292953,-5.1486 z m 5.999991,0 10.292952,5.1443 -10.292952,5.1486 z"/>
  <path style="fill:none;stroke:#364451;stroke-width:5.99999046" d="m 32.001498,1069.5204 v 22"/>
  <path style="fill:none;stroke:#364451;stroke-width:5.99999046" d="m 12.00153,1101.5204 19.999968,-10 19.999969,10"/>
  <path style="fill:none;stroke:#7e8f99;stroke-width:5.99999046" d="m 12.00153,1079.5204 19.999968,12 19.999969,-12"/>
  <path style="fill:none;stroke:#7e8f99;stroke-width:5.99999046" d="m 32.001498,1113.5203 v -21.9999"/>
  <path style="fill:none;stroke:#53626c;stroke-width:5.99999046" d="m 12.00153,1079.5204 19.999968,-10 19.999819,9.9998 v 22 l -19.999819,10.0001 -19.999968,-9.9999 z"/>
  <path style="opacity:0.2" d="m 32.00161,1063.5198 c -3.865988,0 -6.999991,3.134 -6.999989,7 -2e-6,3.866 3.134001,7 6.999989,7 3.865988,0 6.999991,-3.134 6.999989,-7 2e-6,-3.866 -3.134001,-7 -6.999989,-7 z m 19.835908,10.004 c -1.172635,0.026 -2.319737,0.3478 -3.335933,0.9336 -3.348301,1.9328 -4.495595,6.2142 -2.562496,9.5624 1.932853,3.3484 6.21426,4.4958 9.562485,2.5626 3.348421,-1.9328 4.495733,-6.2144 2.562496,-9.5626 -1.280374,-2.216 -3.668006,-3.5566 -6.226552,-3.496 z m -40.167907,0 c -2.3807809,0.114 -4.5400918,1.431 -5.7304604,3.496 -1.9333214,3.3482 -0.7859929,7.6298 2.5624961,9.5626 3.3482133,1.9332 7.6296853,0.7858 9.5624853,-2.5626 1.933185,-3.3482 0.785873,-7.6296 -2.562496,-9.5624 -1.161849,-0.6708 -2.491975,-0.9934 -3.832025,-0.9298 z m 20.331999,11.996 c -3.865988,0 -6.999991,3.134 -6.999989,7 -2e-6,3.866 3.134001,7 6.999989,7 3.865988,0 6.999991,-3.134 6.999989,-7 2e-6,-3.866 -3.134001,-7 -6.999989,-7 z m -20.164031,10.004 c -1.172634,0.026 -2.3197353,0.3478 -3.3359323,0.9336 -3.3482934,1.9328 -4.4955869,6.2141 -2.5624961,9.5623 1.9328579,3.3484 6.2142594,4.4958 9.5624854,2.5626 3.348413,-1.9328 4.495723,-6.2144 2.562496,-9.5625 -1.280377,-2.216 -3.668008,-3.5566 -6.226553,-3.496 z m 39.831969,0 c -2.380009,0.112 -4.539141,1.4288 -5.730459,3.4922 -1.933237,3.3481 -0.785925,7.6297 2.562496,9.5625 3.348224,1.9332 7.629632,0.7858 9.562485,-2.5626 1.933099,-3.3482 0.785805,-7.6295 -2.562496,-9.5623 -1.161852,-0.6708 -2.491976,-0.9934 -3.832026,-0.9298 z m -19.667938,9.9959 c -3.865988,0 -6.999989,3.134 -6.999989,7 0,3.866 3.134001,7 6.999989,7 3.865988,0 6.999989,-3.134 6.999989,-7 0,-3.866 -3.134001,-7 -6.999989,-7 z"/>
  <circle style="fill:#9bdb4d" cx="32.001" cy="1069.52" r="7"/>
  <circle style="fill:#9bdb4d" cx="32.001" cy="1111.52" r="7"/>
  <circle style="fill:#9bdb4d" cx="960.893" cy="494.725" r="7" transform="rotate(59.999999)"/>
  <circle style="fill:#9bdb4d" cx="959.945" cy="540.366" r="7" transform="rotate(59.999999)"/>
  <circle style="fill:#9bdb4d" cx="927.944" cy="-595.795" r="7" transform="rotate(120)"/>
  <circle style="fill:#9bdb4d" cx="928.891" cy="-550.154" r="7" transform="rotate(120)"/>
  <circle style="fill:#9bdb4d" cx="32.001" cy="1091.52" r="7"/>
  <path style="opacity:0.2;fill:#8b9cbe" transform="translate(0,1058.5197)" d="M 32.001953 4 C 28.135965 4 25.001951 7.134 25.001953 11 C 25.00296 11.128162 25.025144 11.254952 25.033203 11.382812 C 25.346586 7.8068033 28.344595 5 32.001953 5 C 35.665923 5 38.666501 7.8170821 38.970703 11.402344 C 38.979074 11.267997 39.001345 11.1347 39.001953 11 C 39.001955 7.134 35.867941 4 32.001953 4 z M 12.166016 13.998047 L 12.166016 14 C 12.000612 14 11.835142 13.999066 11.669922 14.009766 C 9.2899064 14.122666 7.1307551 15.438453 5.9394531 17.501953 C 5.2463043 18.707059 4.9550451 20.087662 5.0488281 21.466797 C 5.1272419 20.43003 5.4146638 19.41435 5.9394531 18.501953 C 7.1307551 16.438453 9.2899064 15.122666 11.669922 15.009766 C 11.835142 14.999066 12.000612 15 12.166016 15 L 12.166016 14.998047 C 13.338992 15.026047 14.486121 15.348347 15.501953 15.935547 C 17.534446 17.111287 18.792303 19.208255 18.958984 21.486328 C 19.146103 18.833769 17.829641 16.28205 15.501953 14.935547 C 14.486121 14.348347 13.338992 14.026047 12.166016 13.998047 z M 51.837891 14 C 50.665256 14.027 49.518151 14.347794 48.501953 14.933594 C 46.176404 16.279148 44.859292 18.828585 45.044922 21.480469 C 45.212669 19.203356 46.471362 17.108486 48.501953 15.933594 C 49.518151 15.347794 50.665256 15.027 51.837891 15 C 54.396455 14.9395 56.784103 16.280094 58.064453 18.496094 C 58.592957 19.411722 58.882579 20.43144 58.960938 21.472656 C 59.055537 20.089099 58.761781 18.704208 58.064453 17.496094 C 56.784103 15.280094 54.396455 13.9395 51.837891 14 z M 32.001953 25.996094 C 28.135965 25.996094 25.001951 29.130094 25.001953 32.996094 C 25.00296 33.124294 25.025144 33.251049 25.033203 33.378906 C 25.346586 29.802897 28.344595 26.996094 32.001953 26.996094 C 35.665923 26.996094 38.666501 29.813176 38.970703 33.398438 C 38.979074 33.264091 39.001349 33.130794 39.001953 32.996094 C 39.001955 29.130094 35.867941 25.996094 32.001953 25.996094 z M 11.837891 35.996094 C 10.665258 36.023094 9.5181507 36.343987 8.5019531 36.929688 C 6.1764079 38.275336 4.8592945 40.824605 5.0449219 43.476562 C 5.2126709 41.199415 6.4713654 39.104662 8.5019531 37.929688 C 9.5181507 37.343987 10.665258 37.023094 11.837891 36.996094 C 14.396455 36.935494 16.7841 38.276188 18.064453 40.492188 C 18.592957 41.407816 18.882579 42.427504 18.960938 43.46875 C 19.055537 42.085175 18.76178 40.700302 18.064453 39.492188 C 16.7841 37.276188 14.396455 35.935494 11.837891 35.996094 z M 52.166016 35.996094 C 52.000616 35.996094 51.835142 35.995259 51.669922 36.005859 C 49.289915 36.118859 47.130775 37.434547 45.939453 39.498047 C 45.246253 40.703712 44.954566 42.085261 45.048828 43.464844 C 45.12696 42.427643 45.414589 41.410928 45.939453 40.498047 C 47.130775 38.434547 49.289915 37.118859 51.669922 37.005859 C 51.835142 36.995259 52.000616 36.996094 52.166016 36.996094 L 52.166016 36.998047 C 53.33899 37.026047 54.486118 37.348447 55.501953 37.935547 C 57.534421 39.111369 58.792284 41.208308 58.958984 43.486328 C 59.14607 40.833852 57.829613 38.282143 55.501953 36.935547 C 54.486118 36.348447 53.33899 36.026047 52.166016 35.998047 L 52.166016 35.996094 z M 32.001953 45.992188 C 28.135965 45.992188 25.001953 49.126188 25.001953 52.992188 C 25.00296 53.120388 25.025144 53.247143 25.033203 53.375 C 25.346588 49.798991 28.344595 46.992188 32.001953 46.992188 C 35.665923 46.992188 38.6665 49.80927 38.970703 53.394531 C 38.979074 53.260185 39.001345 53.126888 39.001953 52.992188 C 39.001953 49.126188 35.867941 45.992188 32.001953 45.992188 z"/>
 </g>
</svg>
