<svg xmlns="http://www.w3.org/2000/svg" width="64" height="64" version="1">
 <path style="opacity:0.2" d="m 10,56 0,2 c 0,1.662 1.338,3 3,3 l 38,0 c 1.662,0 3,-1.338 3,-3 l 0,-2 c 0,1.662 -1.338,3 -3,3 l -38,0 c -1.662,0 -3,-1.338 -3,-3 z"/>
 <path style="fill:#009587" d="m 13,4 c -1.662,0 -3,1.338 -3,3 l 0,50 c 0,1.662 1.338,3 3,3 l 38,0 c 1.662,0 3,-1.338 3,-3 L 54,7 C 54,5.338 52.662,4 51,4 L 13,4 Z"/>
 <path style="opacity:0.2" d="m 13,4 c -1.662,0 -3,1.338 -3,3 l 0,50 c 0,1.662 1.338,3 3,3 l 5,0 0,-56 z"/>
 <path style="opacity:0.2" d="m 38,5 0,28 4,-4 4,4 0,-28 -8,0 z"/>
 <path style="fill:#d8d8d8" d="m 38,4 0,28 4,-4 4,4 0,-28 -8,0 z"/>
 <path style="opacity:0.2;fill:#8b9cbe" d="M 13 4 C 11.338 4 10 5.338 10 7 L 10 8 C 10 6.338 11.338 5 13 5 L 51 5 C 52.662 5 54 6.338 54 8 L 54 7 C 54 5.338 52.662 4 51 4 L 13 4 z"/>
 <path style="opacity:0.2;fill-rule:evenodd" d="M 63.958,45.848 A 16,16 0 0 1 48,61 16,16 0 0 1 32.042,46.152 16,16 0 0 0 32,47 16,16 0 0 0 48,63 16,16 0 0 0 64,47 16,16 0 0 0 63.958,45.848 Z"/>
 <circle style="fill:#c03630" cx="48" cy="46" r="16"/>
 <path style="fill:#8b9cbe;fill-rule:evenodd" d="M 48 39 C 46.06146 39.02128 44.110475 39.518117 42.421875 40.589844 C 41.748855 41.080788 40.940891 41.714655 40.332031 42.353516 C 39.374031 43.403987 38.554 44.628949 38 46.001953 C 39.51868 49.753859 42.856497 52.503854 46.529297 52.910156 C 48.938497 53.215576 51.460325 52.749147 53.578125 51.414062 C 54.251125 50.923119 55.059109 50.289252 55.667969 49.650391 C 56.625969 48.59768 57.446 47.372717 58 46.001953 C 56.482 42.250271 53.142703 39.499156 49.470703 39.09375 C 48.982703 39.0288 48.49 39 48 39 z M 48.003906 42 C 50.143607 41.95259 52.03831 43.867621 51.998047 45.996094 C 52.066617 48.348542 49.723408 50.378753 47.40625 49.939453 C 45.066085 49.664667 43.421718 47.038434 44.191406 44.814453 C 44.683511 43.178265 46.290945 41.982778 48.005859 42.001953 L 48.003906 42 z M 48 44 A 1.9999991 1.9988488 0 0 0 46 46.001953 A 1.9999991 1.9988488 0 0 0 48 48 A 1.9999991 1.9988488 0 0 0 50 46.001953 A 1.9999991 1.9988488 0 0 0 48 44.003906 L 48 44 z"/>
</svg>
