<svg xmlns="http://www.w3.org/2000/svg" width="64" height="64" version="1.1">
 <circle style="opacity:0.2" cx="32" cy="33" r="28"/>
 <circle style="fill:#2fbd8c" cx="32" cy="32" r="28"/>
 <path style="opacity:0.3;fill:#8b9cbe;fill-rule:evenodd" d="M 51.6,50.2 25.745297,36.991953 37.341851,27.144764 Z"/>
 <path style="opacity:0.3;fill-rule:evenodd" d="M 12.4,13.8 37.329083,27.213966 25.644808,36.923358 Z"/>
 <path style="opacity:0.2;fill-rule:evenodd" d="m 18.147264,43 c -0.604983,-2.819578 -1.121015,-5.624483 -1.147171,-8.259411 -0.02647,-5.862581 5.586571,-11.945161 11.832812,-12.624767 7.831239,-0.852058 16.572957,3.151749 22.467856,6.934449 0.911104,0.53598 0.801285,1.176482 0.405461,1.801118 -2.504612,3.381867 -6.204971,6.835844 -9.376045,8.640762 -7.244939,4.089216 -13.047846,1.565067 -20.005312,2.801698 C 21.620028,42.419121 18.849944,42.792611 18.147264,43 Z"/>
 <path style="fill:#8b9cbe;fill-rule:evenodd" d="m 18.147264,42 c -0.604983,-2.819578 -1.121015,-5.624483 -1.147171,-8.259411 -0.02647,-5.862581 5.586571,-11.945161 11.832812,-12.624767 7.831239,-0.852058 16.572957,3.151749 22.467856,6.934449 0.911104,0.53598 0.801285,1.176482 0.405461,1.801118 -2.504612,3.381867 -6.204971,6.835844 -9.376045,8.640762 -7.244939,4.089216 -13.047846,1.565067 -20.005312,2.801698 C 21.620028,41.419121 18.849944,41.792611 18.147264,42 Z"/>
 <circle style="fill:#f7785b" cx="28" cy="32" r="7"/>
 <circle style="fill:#17191e" cx="28" cy="32" r="4"/>
 <path style="fill:#8b9cbe;opacity:0.2" d="M 32 4 A 28 28 0 0 0 4 32 A 28 28 0 0 0 4.0214844 32.585938 A 28 28 0 0 1 32 5 A 28 28 0 0 1 59.978516 32.414062 A 28 28 0 0 0 60 32 A 28 28 0 0 0 32 4 z"/>
</svg>
