<svg xmlns="http://www.w3.org/2000/svg" width="64" height="64" version="1.1">
 <path style="opacity:0.2" d="M 56.781818,10 H 7.2181822 C 4.8885331,10 3.0000004,11.918768 3.0000004,14.285714 V 50.714286 C 3.0000004,53.081072 4.8885331,55 7.2181822,55 H 56.781818 C 59.111309,55 61,53.081072 61,50.714286 V 14.285714 C 61,11.918768 59.111309,10 56.781818,10 Z"/>
 <path style="fill:#b2bfd9" d="M 56.781818,9 H 7.2181822 C 4.8885331,9 3.0000004,10.918768 3.0000004,13.285714 V 49.714286 C 3.0000004,52.081072 4.8885331,54 7.2181822,54 H 56.781818 C 59.111309,54 61,52.081072 61,49.714286 V 13.285714 C 61,10.918768 59.111309,9 56.781818,9 Z"/>
 <path style="fill:#4c4854" d="M 7,13 H 57 V 50 H 7 Z"/>
 <path style="fill:#33d17a" d="M 9,37.390909 V 50 h 3 V 37.390909 Z"/>
 <path style="opacity:0.2" d="m 10,18 v 0.663542 h 0.545548 V 18 Z m 0.601114,0 v 0.658608 h 0.550599 V 18 Z m 0.606164,0 v 0.658608 h 0.548074 V 18 Z m 0.60364,0 v 0.658608 h 0.550599 V 18 Z m 1.608862,0 v 0.663542 h 0.545549 V 18 Z m 2.417084,0 v 0.658608 h 0.550598 V 18 Z m 1.002697,0 v 0.658608 h 0.54555 V 18 Z m 0.601115,0 v 0.658608 h 0.5506 V 18 Z m 0.606164,0 v 0.658608 h 0.548075 V 18 Z m 0.603638,0 v 0.658608 H 19.20108 V 18 Z m 0.606166,0 v 0.658608 h 0.550601 V 18 Z m 4.419954,0 v 0.658608 h 0.548074 V 18 Z m 2.417083,0 v 0.658608 h 0.553125 V 18 Z m 1.606337,0 v 0.658608 h 0.550598 V 18 Z m 0.606164,0 v 0.658608 h 0.545549 V 18 Z m 0.601114,0 v 0.658608 h 0.550599 V 18 Z m 6.235923,0 v 0.658608 h 0.548074 V 18 Z m 3.41978,0 v 0.658608 h 0.548074 V 18 Z m 4.02342,0 v 0.658608 h 0.5506 V 18 Z m 5.629758,0 v 0.658608 h 0.550599 V 18 Z m 0.606166,0 v 0.658608 H 49.36789 V 18 Z m 0.601111,0 v 0.658608 h 0.550602 V 18 Z m 2.209978,0 v 0.658608 h 0.550599 V 18 Z m 0.606165,0 v 0.658608 H 52.78767 V 18 Z m 0.603639,0 v 0.658608 h 0.550601 V 18 Z m -31.980254,0.720276 v 0.663542 h 0.548074 v -0.663542 z m 0.603639,0 v 0.663542 h 0.5506 V 18.720276 Z M 10,18.725076 v 0.658608 h 0.545548 v -0.658608 z m 2.417082,0 v 0.658608 h 0.5506 v -0.658608 z m 1.002698,0 v 0.658608 h 0.545549 v -0.658608 z m 2.417084,0 v 0.658608 h 0.550598 v -0.658608 z m 2.209976,0 v 0.658608 h 0.548075 v -0.658608 z m 5.629758,0 v 0.658608 h 0.548074 v -0.658608 z m 2.417083,0 v 0.658608 h 0.553125 v -0.658608 z m 1.002697,0 v 0.658608 h 0.545547 v -0.658608 z m 2.417083,0 v 0.658608 h 0.550601 v -0.658608 z m 5.023593,0 v 0.658608 h 0.550599 v -0.658608 z m 0.606165,0 v 0.658608 h 0.548074 v -0.658608 z m 0.603639,0 v 0.658608 h 0.550599 v -0.658608 z m 0.606165,0 v 0.658608 h 0.550599 v -0.658608 z m 1.608863,0 v 0.658608 h 0.545548 v -0.658608 z m 0.601113,0 v 0.658608 h 0.548074 v -0.658608 z m 3.419781,0 v 0.658608 h 0.545548 v -0.658608 z m 0.603639,0 v 0.658608 h 0.5506 v -0.658608 z m 5.026119,0 v 0.658608 h 0.545548 v -0.658608 z m 2.417082,0 v 0.658608 h 0.5506 v -0.658608 z m 1.002698,0 v 0.658608 h 0.545549 v -0.658608 z m 2.417084,0 v 0.658608 H 54 v -0.65855 z m -41.03232,0.720335 v 0.658608 h 0.5506 v -0.658608 z m 3.419782,0 v 0.658608 h 0.550598 v -0.658608 z m 5.629757,0 v 0.658608 h 0.5506 v -0.658608 z m 4.62706,0 v 0.658608 h 0.553125 v -0.658608 z m 23.935939,0 v 0.658608 h 0.5506 v -0.658608 z m 3.419782,0 v 0.658608 H 54 V 19.445411 Z M 10,19.450211 v 0.653675 h 0.545548 v -0.653675 z m 3.41978,0 v 0.653675 h 0.545549 v -0.653675 z m 4.62706,0 v 0.653675 h 0.548075 v -0.653675 z m 2.816142,0 v 0.653675 h 0.548074 v -0.653675 z m 2.813616,0 v 0.653675 h 0.548074 v -0.653675 z m 3.41978,0 v 0.653675 h 0.545547 v -0.653675 z m 6.839563,0 v 0.653675 h 0.545547 v -0.653675 z m 1.207278,0 v 0.653675 h 0.548074 v -0.653675 z m 3.41978,0 v 0.653675 h 0.548074 v -0.653675 z m 2.813615,0 v 0.653675 h 0.550602 v -0.653675 z m 1.209805,0 v 0.653675 h 0.5506 v -0.653675 z m 5.026119,0 v 0.658609 h 0.545548 v -0.658551 z m 1.810916,0 v 0.653675 h 0.550602 v -0.653675 z m 1.608864,0 v 0.658609 h 0.545549 v -0.658551 z m 1.810918,0 v 0.653675 h 0.550601 v -0.65354 z M 10,20.173162 v 0.65861 h 0.545548 v -0.65861 z m 0.601114,0 v 0.65861 h 0.550599 v -0.65861 z m 0.606164,0 v 0.65861 h 0.548074 v -0.65861 z m 0.60364,0 v 0.65861 h 0.550599 v -0.65861 z m 1.608862,0 v 0.65861 h 0.545549 v -0.65861 z m 0.601114,0 v 0.65861 h 0.550601 v -0.65861 z m 0.606165,0 v 0.65861 h 0.548073 v -0.65861 z m 0.603639,0 v 0.65861 H 15.7813 v -0.65861 z m 0.606166,0 v 0.65861 h 0.550598 v -0.65861 z m 2.209976,0 v 0.65861 h 0.548075 v -0.65861 z m 5.629758,0 v 0.65861 h 0.548074 v -0.65861 z m 2.417083,0 v 0.65861 h 0.553125 v -0.65861 z m 1.606337,0 v 0.65861 h 0.550598 v -0.65861 z m 0.606164,0 v 0.65861 h 0.545549 v -0.65861 z m 0.601114,0 v 0.65861 h 0.550599 v -0.65861 z m 5.629758,0 v 0.65861 h 0.550599 v -0.65861 z m 0.606165,0 v 0.65861 h 0.548074 v -0.65861 z m 0.603639,0 v 0.65861 h 0.550599 v -0.65861 z m 2.816141,0 v 0.65861 h 0.550599 v -0.65861 z m 2.209976,0 v 0.65861 h 0.548075 v -0.65861 z m 1.813444,0 v 0.65861 h 0.5506 v -0.65861 z m 5.026119,0 v 0.65861 h 0.545548 v -0.65861 z m 1.209805,0 v 0.65861 h 0.545547 v -0.65861 z m 1.207277,0 v 0.65861 h 0.5506 v -0.65861 z m 1.002698,0 v 0.65861 h 0.545549 v -0.65861 z m 1.207279,0 v 0.65861 h 0.548073 v -0.65861 z m 1.209805,0 v 0.65861 H 54 v -0.65861 z m -42.242124,0.720276 v 0.658609 h 0.548074 v -0.658609 z m 4.629586,0 v 0.658609 h 0.550598 v -0.658609 z m 2.209976,0 v 0.658609 h 0.550601 v -0.658609 z m 2.816142,0 v 0.658609 h 0.548074 v -0.658609 z m 0.603639,0 v 0.658609 h 0.5506 v -0.658609 z m 4.62706,0 v 0.658609 h 0.553125 v -0.658609 z m 3.41978,0 v 0.658609 h 0.550601 v -0.658609 z m 5.629758,0 v 0.658609 h 0.548074 v -0.658609 z m 1.209804,0 v 0.658609 h 0.550599 v -0.658609 z m 2.209976,0 v 0.658609 h 0.550599 v -0.658609 z m 4.02342,0 v 0.658609 h 0.5506 v -0.658609 z m 0.606165,0 v 0.658609 h 0.550599 v -0.658609 z m 6.837036,0 v 0.658609 h 0.5506 v -0.658609 z m 3.419782,0 v 0.658609 H 54 V 20.893438 Z M 10,20.898238 v 0.658609 h 0.545548 v -0.658609 z m 3.41978,0 v 0.658609 h 0.545549 v -0.658609 z m 10.256818,0 v 0.658609 h 0.548074 v -0.658609 z m 17.096377,0 v 0.653675 h 0.548075 v -0.653675 z m 0.603639,0 v 0.653675 h 0.550602 v -0.653675 z m 0.606166,0 v 0.653675 h 0.545548 v -0.653675 z m 5.629758,0 v 0.658609 h 0.545548 v -0.658609 z m 0.603639,0 v 0.658609 h 0.550599 v -0.658609 z m 2.816141,0 v 0.658609 h 0.545549 v -0.658609 z m 0.601114,0 v 0.658609 h 0.550599 V 20.898313 Z M 10,21.618589 v 0.658609 h 0.545548 v -0.658609 z m 1.810918,0 v 0.658609 h 0.550599 v -0.658609 z m 1.608862,0 v 0.658609 h 0.545549 v -0.658609 z m 2.417084,0 v 0.658609 h 0.550598 v -0.658609 z m 2.209976,0 v 0.658609 h 0.550601 v -0.658609 z m 2.816142,0 v 0.658609 h 0.548074 v -0.658609 z m 0.603639,0 v 0.658609 h 0.5506 v -0.658609 z m 2.209977,0 v 0.658609 h 0.548074 v -0.658609 z m 2.417083,0 v 0.658609 h 0.553125 v -0.658609 z m 1.002697,0 v 0.658609 h 0.545547 v -0.658609 z m 2.417083,0 v 0.658609 h 0.550601 v -0.658609 z m 5.023593,0 v 0.658609 h 0.550599 v -0.658609 z m 0.606165,0 v 0.658609 h 0.548074 v -0.658609 z m 0.603639,0 v 0.658609 h 0.550599 v -0.658609 z m 2.816141,0 v 0.658609 h 0.550599 v -0.658609 z m 4.02342,0 v 0.658609 h 0.5506 v -0.658609 z m 2.212504,0 v 0.658609 h 0.548073 v -0.658609 z m 0.603637,0 v 0.658609 h 0.550602 v -0.658609 z m 4.62706,0 v 0.658609 h 0.5506 v -0.658609 z m 3.419782,0 v 0.658609 H 54 v -0.658609 z m -19.513461,0.0048 v 0.653675 h 0.545547 v -0.653675 z m 13.676597,0 v 0.653675 h 0.545548 v -0.653675 z m 3.41978,0 v 0.653675 h 0.545549 V 21.623582 Z M 10,22.343859 V 23 h 0.545548 v -0.656141 z m 2.417082,0 V 23 h 0.5506 v -0.656141 z m 1.002698,0 V 23 h 0.545549 v -0.656141 z m 2.417084,0 V 23 h 0.550598 v -0.656141 z m 2.209976,0 V 23 h 0.550601 v -0.656141 z m 6.233397,0 V 23 h 0.550599 v -0.656141 z m 0.606165,0 V 23 h 0.545548 v -0.656141 z m 0.601114,0 V 23 h 0.550599 v -0.656141 z m 2.212502,0 V 23 h 0.550598 v -0.656141 z m 0.606164,0 V 23 h 0.545549 v -0.656141 z m 0.601114,0 V 23 h 0.550599 v -0.656141 z m 6.235923,0 V 23 h 0.548074 v -0.656141 z m 2.818667,0 V 23 h 0.545548 v -0.656141 z m 0.601113,0 V 23 h 0.550599 v -0.656141 z m 0.606165,0 V 23 h 0.548073 v -0.656141 z m 3.417255,0 V 23 h 0.5506 v -0.656141 z m 2.212504,0 V 23 h 0.548073 v -0.656141 z m 0.603637,0 V 23 h 0.550602 v -0.656141 z m 2.813617,0 V 23 h 0.550599 v -0.656141 z m 0.606166,0 V 23 h 0.545547 v -0.656141 z m 0.601111,0 V 23 h 0.550602 v -0.656141 z m 2.209978,0 V 23 h 0.550599 v -0.656141 z m 0.606165,0 V 23 h 0.548073 v -0.656141 z m 0.603639,0 V 23 h 0.550601 v -0.656141 z"/>
 <path style="fill:#f9f06b" d="m 10,17 v 0.663542 h 0.545548 V 17 Z m 0.601114,0 v 0.658608 h 0.550599 V 17 Z m 0.606164,0 v 0.658608 h 0.548074 V 17 Z m 0.60364,0 v 0.658608 h 0.550599 V 17 Z m 1.608862,0 v 0.663542 h 0.545549 V 17 Z m 2.417084,0 v 0.658608 h 0.550598 V 17 Z m 1.002697,0 v 0.658608 h 0.54555 V 17 Z m 0.601115,0 v 0.658608 h 0.5506 V 17 Z m 0.606164,0 v 0.658608 h 0.548075 V 17 Z m 0.603638,0 v 0.658608 H 19.20108 V 17 Z m 0.606166,0 v 0.658608 h 0.550601 V 17 Z m 4.419954,0 v 0.658608 h 0.548074 V 17 Z m 2.417083,0 v 0.658608 h 0.553125 V 17 Z m 1.606337,0 v 0.658608 h 0.550598 V 17 Z m 0.606164,0 v 0.658608 h 0.545549 V 17 Z m 0.601114,0 v 0.658608 h 0.550599 V 17 Z m 6.235923,0 v 0.658608 h 0.548074 V 17 Z m 3.41978,0 v 0.658608 h 0.548074 V 17 Z m 4.02342,0 v 0.658608 h 0.5506 V 17 Z m 5.629758,0 v 0.658608 h 0.550599 V 17 Z m 0.606166,0 v 0.658608 H 49.36789 V 17 Z m 0.601111,0 v 0.658608 h 0.550602 V 17 Z m 2.209978,0 v 0.658608 h 0.550599 V 17 Z m 0.606165,0 v 0.658608 H 52.78767 V 17 Z m 0.603639,0 v 0.658608 h 0.550601 V 17 Z m -31.980254,0.720276 v 0.663542 h 0.548074 v -0.663542 z m 0.603639,0 v 0.663542 h 0.5506 V 17.720276 Z M 10,17.725076 v 0.658608 h 0.545548 v -0.658608 z m 2.417082,0 v 0.658608 h 0.5506 v -0.658608 z m 1.002698,0 v 0.658608 h 0.545549 v -0.658608 z m 2.417084,0 v 0.658608 h 0.550598 v -0.658608 z m 2.209976,0 v 0.658608 h 0.548075 v -0.658608 z m 5.629758,0 v 0.658608 h 0.548074 v -0.658608 z m 2.417083,0 v 0.658608 h 0.553125 v -0.658608 z m 1.002697,0 v 0.658608 h 0.545547 v -0.658608 z m 2.417083,0 v 0.658608 h 0.550601 v -0.658608 z m 5.023593,0 v 0.658608 h 0.550599 v -0.658608 z m 0.606165,0 v 0.658608 h 0.548074 v -0.658608 z m 0.603639,0 v 0.658608 h 0.550599 v -0.658608 z m 0.606165,0 v 0.658608 h 0.550599 v -0.658608 z m 1.608863,0 v 0.658608 h 0.545548 v -0.658608 z m 0.601113,0 v 0.658608 h 0.548074 v -0.658608 z m 3.419781,0 v 0.658608 h 0.545548 v -0.658608 z m 0.603639,0 v 0.658608 h 0.5506 v -0.658608 z m 5.026119,0 v 0.658608 h 0.545548 v -0.658608 z m 2.417082,0 v 0.658608 h 0.5506 v -0.658608 z m 1.002698,0 v 0.658608 h 0.545549 v -0.658608 z m 2.417084,0 v 0.658608 H 54 v -0.65855 z m -41.03232,0.720335 v 0.658608 h 0.5506 v -0.658608 z m 3.419782,0 v 0.658608 h 0.550598 v -0.658608 z m 5.629757,0 v 0.658608 h 0.5506 v -0.658608 z m 4.62706,0 v 0.658608 h 0.553125 v -0.658608 z m 23.935939,0 v 0.658608 h 0.5506 v -0.658608 z m 3.419782,0 v 0.658608 H 54 V 18.445411 Z M 10,18.450211 v 0.653675 h 0.545548 v -0.653675 z m 3.41978,0 v 0.653675 h 0.545549 v -0.653675 z m 4.62706,0 v 0.653675 h 0.548075 v -0.653675 z m 2.816142,0 v 0.653675 h 0.548074 v -0.653675 z m 2.813616,0 v 0.653675 h 0.548074 v -0.653675 z m 3.41978,0 v 0.653675 h 0.545547 v -0.653675 z m 6.839563,0 v 0.653675 h 0.545547 v -0.653675 z m 1.207278,0 v 0.653675 h 0.548074 v -0.653675 z m 3.41978,0 v 0.653675 h 0.548074 v -0.653675 z m 2.813615,0 v 0.653675 h 0.550602 v -0.653675 z m 1.209805,0 v 0.653675 h 0.5506 v -0.653675 z m 5.026119,0 v 0.658609 h 0.545548 v -0.658551 z m 1.810916,0 v 0.653675 h 0.550602 v -0.653675 z m 1.608864,0 v 0.658609 h 0.545549 v -0.658551 z m 1.810918,0 v 0.653675 h 0.550601 v -0.65354 z M 10,19.173162 v 0.65861 h 0.545548 v -0.65861 z m 0.601114,0 v 0.65861 h 0.550599 v -0.65861 z m 0.606164,0 v 0.65861 h 0.548074 v -0.65861 z m 0.60364,0 v 0.65861 h 0.550599 v -0.65861 z m 1.608862,0 v 0.65861 h 0.545549 v -0.65861 z m 0.601114,0 v 0.65861 h 0.550601 v -0.65861 z m 0.606165,0 v 0.65861 h 0.548073 v -0.65861 z m 0.603639,0 v 0.65861 H 15.7813 v -0.65861 z m 0.606166,0 v 0.65861 h 0.550598 v -0.65861 z m 2.209976,0 v 0.65861 h 0.548075 v -0.65861 z m 5.629758,0 v 0.65861 h 0.548074 v -0.65861 z m 2.417083,0 v 0.65861 h 0.553125 v -0.65861 z m 1.606337,0 v 0.65861 h 0.550598 v -0.65861 z m 0.606164,0 v 0.65861 h 0.545549 v -0.65861 z m 0.601114,0 v 0.65861 h 0.550599 v -0.65861 z m 5.629758,0 v 0.65861 h 0.550599 v -0.65861 z m 0.606165,0 v 0.65861 h 0.548074 v -0.65861 z m 0.603639,0 v 0.65861 h 0.550599 v -0.65861 z m 2.816141,0 v 0.65861 h 0.550599 v -0.65861 z m 2.209976,0 v 0.65861 h 0.548075 v -0.65861 z m 1.813444,0 v 0.65861 h 0.5506 v -0.65861 z m 5.026119,0 v 0.65861 h 0.545548 v -0.65861 z m 1.209805,0 v 0.65861 h 0.545547 v -0.65861 z m 1.207277,0 v 0.65861 h 0.5506 v -0.65861 z m 1.002698,0 v 0.65861 h 0.545549 v -0.65861 z m 1.207279,0 v 0.65861 h 0.548073 v -0.65861 z m 1.209805,0 v 0.65861 H 54 v -0.65861 z m -42.242124,0.720276 v 0.658609 h 0.548074 v -0.658609 z m 4.629586,0 v 0.658609 h 0.550598 v -0.658609 z m 2.209976,0 v 0.658609 h 0.550601 v -0.658609 z m 2.816142,0 v 0.658609 h 0.548074 v -0.658609 z m 0.603639,0 v 0.658609 h 0.5506 v -0.658609 z m 4.62706,0 v 0.658609 h 0.553125 v -0.658609 z m 3.41978,0 v 0.658609 h 0.550601 v -0.658609 z m 5.629758,0 v 0.658609 h 0.548074 v -0.658609 z m 1.209804,0 v 0.658609 h 0.550599 v -0.658609 z m 2.209976,0 v 0.658609 h 0.550599 v -0.658609 z m 4.02342,0 v 0.658609 h 0.5506 v -0.658609 z m 0.606165,0 v 0.658609 h 0.550599 v -0.658609 z m 6.837036,0 v 0.658609 h 0.5506 v -0.658609 z m 3.419782,0 v 0.658609 H 54 V 19.893438 Z M 10,19.898238 v 0.658609 h 0.545548 v -0.658609 z m 3.41978,0 v 0.658609 h 0.545549 v -0.658609 z m 10.256818,0 v 0.658609 h 0.548074 v -0.658609 z m 17.096377,0 v 0.653675 h 0.548075 v -0.653675 z m 0.603639,0 v 0.653675 h 0.550602 v -0.653675 z m 0.606166,0 v 0.653675 h 0.545548 v -0.653675 z m 5.629758,0 v 0.658609 h 0.545548 v -0.658609 z m 0.603639,0 v 0.658609 h 0.550599 v -0.658609 z m 2.816141,0 v 0.658609 h 0.545549 v -0.658609 z m 0.601114,0 v 0.658609 h 0.550599 V 19.898313 Z M 10,20.618589 v 0.658609 h 0.545548 v -0.658609 z m 1.810918,0 v 0.658609 h 0.550599 v -0.658609 z m 1.608862,0 v 0.658609 h 0.545549 v -0.658609 z m 2.417084,0 v 0.658609 h 0.550598 v -0.658609 z m 2.209976,0 v 0.658609 h 0.550601 v -0.658609 z m 2.816142,0 v 0.658609 h 0.548074 v -0.658609 z m 0.603639,0 v 0.658609 h 0.5506 v -0.658609 z m 2.209977,0 v 0.658609 h 0.548074 v -0.658609 z m 2.417083,0 v 0.658609 h 0.553125 v -0.658609 z m 1.002697,0 v 0.658609 h 0.545547 v -0.658609 z m 2.417083,0 v 0.658609 h 0.550601 v -0.658609 z m 5.023593,0 v 0.658609 h 0.550599 v -0.658609 z m 0.606165,0 v 0.658609 h 0.548074 v -0.658609 z m 0.603639,0 v 0.658609 h 0.550599 v -0.658609 z m 2.816141,0 v 0.658609 h 0.550599 v -0.658609 z m 4.02342,0 v 0.658609 h 0.5506 v -0.658609 z m 2.212504,0 v 0.658609 h 0.548073 v -0.658609 z m 0.603637,0 v 0.658609 h 0.550602 v -0.658609 z m 4.62706,0 v 0.658609 h 0.5506 v -0.658609 z m 3.419782,0 v 0.658609 H 54 v -0.658609 z m -19.513461,0.0048 v 0.653675 h 0.545547 v -0.653675 z m 13.676597,0 v 0.653675 h 0.545548 v -0.653675 z m 3.41978,0 v 0.653675 h 0.545549 V 20.623582 Z M 10,21.343859 V 22 h 0.545548 v -0.656141 z m 2.417082,0 V 22 h 0.5506 v -0.656141 z m 1.002698,0 V 22 h 0.545549 v -0.656141 z m 2.417084,0 V 22 h 0.550598 v -0.656141 z m 2.209976,0 V 22 h 0.550601 v -0.656141 z m 6.233397,0 V 22 h 0.550599 v -0.656141 z m 0.606165,0 V 22 h 0.545548 v -0.656141 z m 0.601114,0 V 22 h 0.550599 v -0.656141 z m 2.212502,0 V 22 h 0.550598 v -0.656141 z m 0.606164,0 V 22 h 0.545549 v -0.656141 z m 0.601114,0 V 22 h 0.550599 v -0.656141 z m 6.235923,0 V 22 h 0.548074 v -0.656141 z m 2.818667,0 V 22 h 0.545548 v -0.656141 z m 0.601113,0 V 22 h 0.550599 v -0.656141 z m 0.606165,0 V 22 h 0.548073 v -0.656141 z m 3.417255,0 V 22 h 0.5506 v -0.656141 z m 2.212504,0 V 22 h 0.548073 v -0.656141 z m 0.603637,0 V 22 h 0.550602 v -0.656141 z m 2.813617,0 V 22 h 0.550599 v -0.656141 z m 0.606166,0 V 22 h 0.545547 v -0.656141 z m 0.601111,0 V 22 h 0.550602 v -0.656141 z m 2.209978,0 V 22 h 0.550599 v -0.656141 z m 0.606165,0 V 22 h 0.548073 v -0.656141 z m 0.603639,0 V 22 h 0.550601 v -0.656141 z"/>
 <path style="fill:#33d17a" d="M 15,35.891 V 50 h 3 V 35.891 Z"/>
 <path style="fill:#33d17a" d="M 21,37.390909 V 50 h 3 V 37.390909 Z"/>
 <path style="fill:#33d17a" d="M 27,39.191 V 50 h 3 V 39.191 Z"/>
 <path style="fill:#33d17a" d="M 33,33.891 V 50 h 3 V 32.891 Z"/>
 <path style="fill:#33d17a" d="M 39,31.691 V 50 h 3 V 31.691 Z"/>
 <path style="fill:#33d17a" d="M 45,35.091 V 50 h 3 V 35.091 Z"/>
 <path style="fill:#33d17a" d="M 51,31.691 V 50 h 3 V 30.391 Z"/>
 <path style="opacity:0.2" d="m 54.980469,28.990364 a 1.0001,1.0001 0 0 0 -0.6875,0.302735 l -6.447266,6.447265 -9.332031,-5.597656 a 1.0001,1.0001 0 0 0 -1.220703,0.150391 l -9.509766,9.509765 -10.369141,-4.71289 a 1.0001,1.0001 0 0 0 -0.765624,-0.02539 l -8.0000005,3 a 1.0001,1.0001 0 1 0 0.703125,1.871094 l 7.6113285,-2.853516 10.623047,4.828125 a 1.0001,1.0001 0 0 0 1.121093,-0.203125 l 9.447266,-9.447265 9.332031,5.597656 a 1.0001,1.0001 0 0 0 1.220703,-0.150391 l 7,-7 a 1.0001,1.0001 0 0 0 -0.726562,-1.716798 z"/>
 <path style="fill:none;stroke:#ed333b;stroke-width:2;stroke-linecap:round;stroke-linejoin:round" d="m 9,38 8,-3 11,5 10,-10 10,6 7,-7"/>
 <path style="fill:#8b9cbe;opacity:0.2" d="M 7.21875 9 C 4.8891009 9 3 10.91821 3 13.285156 L 3 14.285156 C 3 11.91821 4.8891009 10 7.21875 10 L 56.78125 10 C 59.110741 10 61 11.91821 61 14.285156 L 61 13.285156 C 61 10.91821 59.110741 9 56.78125 9 L 7.21875 9 z"/>
 <rect style="opacity:0.2" width="50" height="1" x="7" y="13"/>
</svg>
