<svg xmlns="http://www.w3.org/2000/svg" width="64" height="64" version="1">
 <rect style="opacity:0.2" width="56" height="56" x="4" y="5" rx="16.8" ry="16.8"/>
 <rect style="fill:#b2bfd9" width="56" height="56" x="4" y="4" rx="16.8" ry="16.8"/>
 <circle style="fill:#304f58" cx="32" cy="32" r="22"/>
 <path style="opacity:0.2" d="m 23.882812,15.828123 c -4.452448,2.098728 -7.936353,5.863636 -9.667968,10.51172 2.309357,2.014672 7.896338,6.889584 8.394532,7.328124 0.223572,0.1968 0.66377,0.581374 0.976562,0.85547 l 0.570312,0.5 0.398438,-0.02344 c 0.220342,-0.0122 0.95038,-0.06052 1.621094,-0.10938 0.67072,-0.04888 1.513844,-0.10732 1.875,-0.1289 0.361154,-0.02156 0.726508,-0.04678 0.8125,-0.0586 0.086,-0.0118 0.451342,-0.04142 0.8125,-0.0625 0.361154,-0.0211 1.01146,-0.06552 1.441406,-0.09766 0.429946,-0.03214 1.24497,-0.08766 1.8125,-0.125 1.448452,-0.09526 1.291424,0.0042 1.23828,-0.792968 -0.1117,-1.675522 -0.238,-3.521026 -0.45703,-6.644532 -0.04944,-0.705114 -0.106,-1.594302 -0.1289,-1.972656 l -0.04296,-0.6875 -0.292968,-0.285156 c -0.15904,-0.15592 -0.481886,-0.454548 -0.722656,-0.664062 -0.24077,-0.209514 -0.918798,-0.796962 -1.503906,-1.308594 -0.585106,-0.511632 -1.175288,-1.027394 -1.3125,-1.144532 -0.1372,-0.11714 -0.446732,-0.384696 -0.6875,-0.597656 -0.240786,-0.212954 -1.256444,-1.102038 -2.253924,-1.972649 -0.89292,-0.779353 -2.074484,-1.811392 -2.882812,-2.519531 z"/>
 <path style="fill:#b0b0b0" d="m 23.882812,14.828125 c -4.452448,2.098728 -7.936353,5.863635 -9.667968,10.511719 2.309357,2.014672 7.896338,6.889584 8.394532,7.328124 0.223572,0.1968 0.66377,0.581374 0.976562,0.85547 l 0.570312,0.5 L 24.554688,34 c 0.220342,-0.0122 0.95038,-0.06052 1.621094,-0.10938 0.67072,-0.04888 1.513844,-0.10732 1.875,-0.1289 0.361154,-0.02156 0.726508,-0.04678 0.8125,-0.0586 0.086,-0.0118 0.451342,-0.04142 0.8125,-0.0625 0.361154,-0.0211 1.01146,-0.06552 1.441406,-0.09766 0.429946,-0.03214 1.24497,-0.08766 1.8125,-0.125 1.448452,-0.09526 1.291424,0.0042 1.23828,-0.792968 -0.1117,-1.675522 -0.238,-3.521026 -0.45703,-6.644532 -0.04944,-0.705114 -0.106,-1.594302 -0.1289,-1.972656 l -0.04296,-0.6875 -0.292968,-0.285156 c -0.15906,-0.15592 -0.481902,-0.45454 -0.722672,-0.664054 -0.24077,-0.209514 -0.918798,-0.796962 -1.503906,-1.308594 -0.585106,-0.511632 -1.175288,-1.027394 -1.3125,-1.144531 -0.137198,-0.117136 -0.446732,-0.384697 -0.6875,-0.597657 -0.24077,-0.212961 -1.256428,-1.102044 -2.253908,-1.972656 -0.89292,-0.779354 -2.074484,-1.811392 -2.882812,-2.519531 z"/>
 <path style="opacity:0.2" d="m 36.346454,38.894589 c -0.48896,-0.1619 -1.0195,-0.695934 -1.222368,-1.23041 -0.36702,-0.966948 0.10564,-2.062896 1.081196,-2.50697 0.329946,-0.15018 0.463956,-0.17268 0.88912,-0.1493 0.803818,0.04426 1.369644,0.415682 1.723986,1.131688 0.24915,0.503446 0.241064,1.246656 -0.0188,1.741336 -0.479702,0.912674 -1.493162,1.331462 -2.452994,1.013646 z"/>
 <path style="fill:#b0b0b0" d="m 36.346454,37.89459 c -0.48896,-0.1619 -1.0195,-0.695934 -1.222368,-1.23041 -0.36702,-0.966948 0.10564,-2.062896 1.081196,-2.50697 0.329946,-0.15018 0.463956,-0.17268 0.88912,-0.1493 0.803818,0.04426 1.369644,0.415682 1.723986,1.131688 0.24915,0.503446 0.241064,1.246656 -0.0188,1.741336 -0.479702,0.912674 -1.493162,1.331462 -2.452994,1.013646 z"/>
 <path style="opacity:0.2;fill:#8b9cbe" d="M 20.800781 4 C 11.493581 4 4 11.493581 4 20.800781 L 4 21.800781 C 4 12.493581 11.493581 5 20.800781 5 L 43.199219 5 C 52.506419 5 60 12.493581 60 21.800781 L 60 20.800781 C 60 11.493581 52.506419 4 43.199219 4 L 20.800781 4 z"/>
 <path style="opacity:0.2" d="M 32 10 A 22 22 0 0 0 10 32 A 22 22 0 0 0 10.017578 32.490234 A 22 22 0 0 1 32 11 A 22 22 0 0 1 53.974609 32.490234 A 22 22 0 0 0 54 32 A 22 22 0 0 0 32 10 z"/>
 <path style="opacity:0.2;fill:#8b9cbe" d="M 53.957031 32.828125 A 22 22 0 0 1 32 54 A 22 22 0 0 1 10.042969 33.171875 A 22 22 0 0 0 10 34 A 22 22 0 0 0 10.025391 34.509766 A 22 22 0 0 1 10.042969 34.171875 A 22 22 0 0 0 32 55 A 22 22 0 0 0 53.957031 33.828125 A 22 22 0 0 1 53.982422 34.509766 A 22 22 0 0 0 54 34 A 22 22 0 0 0 53.957031 32.828125 z"/>
 <path style="opacity:0.2;fill:#8b9cbe" d="M 23.882812 14.828125 C 19.430366 16.926853 15.946459 20.69176 14.214844 25.339844 C 14.3009 25.414924 14.41824 25.517696 14.527344 25.613281 C 16.341596 21.305136 19.66836 17.814671 23.882812 15.828125 C 24.69114 16.536264 25.872705 17.568302 26.765625 18.347656 C 27.763105 19.218268 28.778761 20.107352 29.019531 20.320312 C 29.260299 20.533273 29.569833 20.800833 29.707031 20.917969 C 29.844243 21.035106 30.434425 21.550868 31.019531 22.0625 C 31.604639 22.574132 32.282668 23.16158 32.523438 23.371094 C 32.764208 23.580608 33.08706 23.879232 33.246094 24.035156 L 33.539062 24.320312 L 33.582031 25.007812 C 33.604931 25.386167 33.661498 26.275355 33.710938 26.980469 C 33.91709 29.920332 34.033622 31.634946 34.140625 33.234375 C 34.21723 33.137004 34.190733 32.966379 34.167969 32.625 C 34.056269 30.949478 33.929968 29.103975 33.710938 25.980469 C 33.661498 25.275355 33.604931 24.386167 33.582031 24.007812 L 33.539062 23.320312 L 33.246094 23.035156 C 33.08706 22.879232 32.764208 22.580608 32.523438 22.371094 C 32.282668 22.16158 31.604639 21.574132 31.019531 21.0625 C 30.434425 20.550868 29.844243 20.035106 29.707031 19.917969 C 29.569833 19.800833 29.260299 19.533274 29.019531 19.320312 C 28.778761 19.107352 27.763105 18.218268 26.765625 17.347656 C 25.872705 16.568302 24.69114 15.536264 23.882812 14.828125 z"/>
 <path style="opacity:0.2;fill:#8b9cbe" d="m 37.09375,34.007812 c -0.425164,-0.02338 -0.556773,-0.0017 -0.886719,0.148438 -0.914665,0.416357 -1.377833,1.405285 -1.130859,2.324219 0.153336,-0.562227 0.549828,-1.059733 1.130859,-1.324219 0.329946,-0.15014 0.461555,-0.171818 0.886719,-0.148438 0.803818,0.04426 1.37222,0.416809 1.726562,1.132813 0.05373,0.108593 0.08934,0.231356 0.119141,0.357422 0.108553,-0.447618 0.07155,-0.971989 -0.119141,-1.357422 -0.354342,-0.716004 -0.922744,-1.088552 -1.726562,-1.132813 z"/>
</svg>
