<svg xmlns="http://www.w3.org/2000/svg" width="64" height="64" version="1.1">
 <path style="opacity:0.2" d="M 12.8125,5 C 11.254375,5 10,6.2495813 10,7.8007812 V 58.199219 C 10,59.750419 11.254375,61 12.8125,61 H 17.867188 18 52.1875 C 53.745625,61 55,59.750419 55,58.199219 V 7.8007812 C 55,6.2495813 53.745625,5 52.1875,5 H 18 17.867188 Z"/>
 <path style="fill:#23a5dc" d="M 17.867,4 V 60 H 52.1875 C 53.745625,60 55,58.7512 55,57.2 V 6.8 C 55,5.2488 53.745625,4 52.1875,4 Z"/>
 <path style="fill:#6b3f3f" d="M 12.8125,4 C 11.254375,4 10,5.2488 10,6.8 v 50.4 c 0,1.5512 1.254375,2.8 2.8125,2.8 H 18 V 4 h -5.186797 z"/>
 <path style="opacity:0.2" transform="matrix(1.420823,0,0,1.4,-1.8335121,-3.4611547)" d="m 34.149935,26.043682 -6.928204,4 -6.928202,4 0,-8 0,-8 6.928203,4 z"/>
 <path style="fill:#8b9cbe" transform="matrix(1.420823,0,0,1.4,-1.8335121,-4.4611549)" d="m 34.149935,26.043682 -6.928204,4 -6.928202,4 0,-8 0,-8 6.928203,4 z"/>
 <path style="fill:#8b9cbe;opacity:0.2" d="M 12.8125 4 C 11.254375 4 10 5.2495813 10 6.8007812 L 10 7.8007812 C 10 6.2495813 11.254375 5 12.8125 5 L 17.867188 5 L 18 5 L 52.1875 5 C 53.745625 5 55 6.2495813 55 7.8007812 L 55 6.8007812 C 55 5.2495813 53.745625 4 52.1875 4 L 18 4 L 17.867188 4 L 12.8125 4 z"/>
</svg>
