<svg xmlns="http://www.w3.org/2000/svg" width="64" height="64" version="1">
 <rect style="opacity:0.2" width="56" height="56" x="4" y="5" rx="2.8" ry="2.8"/>
 <rect style="fill:#b2bfd9" width="56" height="56" x="4" y="4" rx="2.8" ry="2.8"/>
 <path style="opacity:0.2;fill:#8b9cbe" d="M 6.8007812 4 C 5.2495812 4 4 5.2495812 4 6.8007812 L 4 7.8007812 C 4 6.2495813 5.2495812 5 6.8007812 5 L 57.199219 5 C 58.750419 5 60 6.2495812 60 7.8007812 L 60 6.8007812 C 60 5.2495813 58.750419 4 57.199219 4 L 6.8007812 4 z"/>
 <path style="opacity:0.2" d="m 8,9 0,16 16,0 0,-16 z m 20,0 0,8 4,0 0,-4 4,0 0,-4 -4,0 z m 4,8 0,8 4,0 0,-8 z m 0,8 -4,0 0,4 4,0 z m 0,4 0,4 4,0 0,-4 z m 4,4 0,4 8,0 0,-8 -4,0 0,4 z m 8,4 0,4 4,0 0,4 4,0 0,-8 z m 8,0 4,0 0,-4 0,-4 -8,0 0,4 4,0 z m -8,4 -4,0 0,4 4,0 z m -4,4 -4,0 0,4 4,0 z m 0,4 0,4 4,0 0,-4 z m 4,4 0,4 4,0 0,-4 z m 4,0 8,0 0,-4 -8,0 z m -12,-4 -8,0 0,4 4,0 0,4 4,0 0,-4 z m 0,-4 0,-8 -8,0 0,4 4,0 0,4 z m -8,-8 0,-8 -4,0 0,4 -4,0 0,4 z m -8,-4 0,-4 -4,0 -8,0 0,8 8,0 0,-4 z M 40,9 40,25 56,25 56,9 Z m -28,4 8,0 0,8 -8,0 z m 32,0 8,0 0,8 -8,0 z m -30,2 0,4 4,0 0,-4 z m 32,0 0,4 4,0 0,-4 z M 8,41 8,57 24,57 24,41 Z m 4,4 8,0 0,8 -8,0 z m 2,2 0,4 4,0 0,-4 z"/>
 <path style="fill:#17191e" d="M 8,8 V 24 H 24 V 8 Z m 20,0 v 8 h 4 v -4 h 4 V 8 h -4 z m 4,8 v 8 h 4 v -8 z m 0,8 h -4 v 4 h 4 z m 0,4 v 4 h 4 v -4 z m 4,4 v 4 h 8 v -8 h -4 v 4 z m 8,4 v 4 h 4 v 4 h 4 v -8 z m 8,0 h 4 v -4 -4 h -8 v 4 h 4 z m -8,4 h -4 v 4 h 4 z m -4,4 h -4 v 4 h 4 z m 0,4 v 4 h 4 v -4 z m 4,4 v 4 h 4 v -4 z m 4,0 h 8 V 48 H 48 Z M 36,48 h -8 v 4 h 4 v 4 h 4 v -4 z m 0,-4 v -8 h -8 v 4 h 4 v 4 z m -8,-8 v -8 h -4 v 4 h -4 v 4 z M 20,32 V 28 H 16 8 v 8 h 8 V 32 Z M 40,8 V 24 H 56 V 8 Z m -28,4 h 8 v 8 h -8 z m 32,0 h 8 v 8 h -8 z m -30,2 v 4 h 4 v -4 z m 32,0 v 4 h 4 V 14 Z M 8,40 V 56 H 24 V 40 Z m 4,4 h 8 v 8 h -8 z m 2,2 v 4 h 4 v -4 z"/>
</svg>
