<svg xmlns="http://www.w3.org/2000/svg" width="64" height="64" version="1">
 <rect style="opacity:0.2" width="56" height="56" x="4" y="5" rx="2.8" ry="2.8"/>
 <rect style="fill:#783535" width="56" height="56" x="4" y="4" rx="2.8" ry="2.8"/>
 <path style="opacity:0.2" d="m 16.025481,13.000014 c -0.19494,2.283269 0.795258,7.999692 0.712873,8.762004 0.05944,1.043114 1.010759,1.321114 1.010759,1.321114 l 1.169639,0.02628 c 0.3431,-1.61682 0.837884,-2.551443 1.766474,-3.109413 h 5.314768 v 29.034639 l -2.850452,-0.06928 -0.09298,-2.943289 -1.9609,-0.04414 L 20.285714,52.99998 38.24932,53 40.257242,51.057188 C 38.906968,50.607494 36.57192,50.205738 35.999984,47.554854 V 16.999998 h 9.414378 c 0.305094,0.319271 -1.387386,1.837016 -1.087068,2.122602 1.343902,1.277998 2.514726,2.16041 3.672706,2.130796 v -8.253403 z"/>
 <path style="fill:#f1e9de" d="m 16.025481,12.000016 c -0.19494,2.283269 0.795258,7.999692 0.712873,8.762004 0.05944,1.043114 1.010759,1.321114 1.010759,1.321114 l 1.169639,0.02628 c 0.3431,-1.61682 0.837884,-2.551442 1.766474,-3.109413 h 5.314768 V 48.03464 l -2.850452,-0.06928 -0.09298,-2.943289 -1.9609,-0.04414 -0.809948,7.022051 17.963606,2e-5 2.007922,-1.942812 C 38.906968,49.607496 36.57192,49.20574 35.999984,46.554856 V 16 h 9.414378 c 0.305094,0.319271 -1.387386,1.837016 -1.087068,2.122602 C 45.671196,19.4006 46.84202,20.283012 48,20.253398 v -8.253403 z"/>
 <path style="opacity:0.1;fill:#8b9cbe" d="M 6.8007812 4 C 5.2495812 4 4 5.2495812 4 6.8007812 L 4 7.8007812 C 4 6.2495813 5.2495812 5 6.8007812 5 L 57.199219 5 C 58.750419 5 60 6.2495812 60 7.8007812 L 60 6.8007812 C 60 5.2495813 58.750419 4 57.199219 4 L 6.8007812 4 z"/>
</svg>
