<svg xmlns="http://www.w3.org/2000/svg" width="64" height="64" version="1">
 <rect style="opacity:0.2" width="56" height="56" x="4" y="5" rx="16.8" ry="16.8"/>
 <rect style="fill:#384fae" width="56" height="56" x="4" y="4" rx="16.8" ry="16.8"/>
 <circle style="opacity:0.2" cx="-32" cy="33" r="19" transform="scale(-1,1)"/>
 <circle style="fill:#fae8a2" cx="-32" cy="32" r="19" transform="scale(-1,1)"/>
 <path style="opacity:0.2" d="m 33.79455,13.10203 a 19,19 0 0 1 6.8761,1.99462 c -0.09595,0.304095 0.01615,0.64714 0.36575,0.95 0.23655,0.20501 0.43035,0.524305 0.43035,0.710695 0,0.569715 -0.5149,1.444475 -0.92625,1.571585 -0.54625,0.1691 -0.3629,0.75202 0.3401,1.07407 0.3249,0.14915 0.72485,0.57855 0.88825,0.9538 0.16435,0.3762 0.40565,0.7467 0.53675,0.82365 0.13015,0.0779 0.2375,0.37145 0.2375,0.6536 0,0.39425 -0.1805,0.5852 -0.77235,0.82175 -0.4237,0.17005 -0.931,0.29355 -1.12765,0.27455 -1.13145,-0.1064 -1.2103,0.5529 -0.22135,1.8411 0.52535,0.684 0.77805,0.85595 1.1362,0.7695 0.33345,-0.0798 0.51585,0.01425 0.66785,0.34485 0.1596,0.35055 0.4218,0.4693 1.12575,0.51775 0.69255,0.04845 1.00225,0.18905 1.2616,0.5681 0.19,0.27645 0.4636,0.50065 0.60895,0.50065 0.14573,0 0.48792,0.1862 0.76076,0.4123 0.55518,0.46075 0.77197,0.5073 0.966625,0.20615 0.25726,-0.399 0.812345,-0.1976 1.63837,0.59375 0.73055,0.6992 0.818995,0.88635 0.708795,1.4934 -0.19608,1.08015 -0.781945,2.0387 -1.450935,2.3731 -0.583775,0.29165 -0.595175,0.323 -0.241205,0.6973 0.203585,0.21565 0.5529,0.4465 0.77558,0.51395 0.64315,0.1957 0.281105,0.4408 -0.866495,0.5871 -1.17458,0.14915 -1.53957,0.57475 -0.99085,1.1552 0.305995,0.32395 0.2888,0.38475 -0.202255,0.69255 -0.9595,0.6023 -1.72254,0.2337 -0.82194,-0.3971 0.578835,-0.40565 0.17404,-0.57095 -0.67545,-0.27645 -0.67735,0.23465 -0.8113,0.22135 -1.21125,-0.12635 -0.82175,-0.71155 -1.71475,0.34105 -0.9633,1.13525 0.47785,0.50635 0.33345,1.11625 -0.28595,1.2008 -0.2736,0.03705 -0.8417,0.29165 -1.2635,0.5662 -0.4218,0.2736 -0.8816,0.49875 -1.0203,0.49875 -0.1387,0 -0.5301,0.27835 -0.8702,0.61845 -0.6897,0.68875 -1.07255,0.77615 -1.2673,0.2907 -0.2337,-0.5833 -0.13965,-0.88445 0.4902,-1.5713 0.50065,-0.5472 1.3148,-2.0007 1.3148,-2.34935 0,-0.2147 -0.82745,-0.0323 -1.29105,0.28405 -0.28975,0.19855 -0.75905,0.4541 -1.0431,0.57 -0.3021,0.1235 -0.6156,0.5073 -0.75905,0.9272 -0.22325,0.6593 -0.3116,0.7163 -1.102,0.7163 H 34.6923 L 34.56215,39.828 c -0.1558,1.85725 -0.30495,2.23345 -0.9424,2.3864 -0.4693,0.11305 -0.96995,0.8398 -0.96995,1.4079 0,0.15105 0.33725,0.52155 0.74955,0.8227 0.5111,0.37335 0.7315,0.69065 0.6973,1.0013 -0.04275,0.38855 0.0456,0.44935 0.59565,0.4085 0.35435,-0.0266 0.96995,0.09785 1.36515,0.27645 0.46835,0.2109 0.97565,0.27835 1.4516,0.19285 0.5472,-0.09785 0.73245,-0.05985 0.73245,0.1539 0,0.1577 0.1919,0.4522 0.4256,0.6555 0.5776,0.50065 0.33915,0.7657 -0.54815,0.6061 -0.551,-0.0988 -0.7657,-0.0551 -0.8607,0.1824 -0.20235,0.50445 0.31065,1.22645 0.7866,1.1077 0.3021,-0.076 0.4465,0.02755 0.54055,0.3838 0.0323,0.12635 0.09215,0.2337 0.1634,0.3249 a 19,19 0 0 1 -3.00675,0.88825 c 0.095,-0.18145 0.2033,-0.34675 0.30875,-0.42085 0.48925,-0.3458 0.1615,-1.2445 -0.51205,-1.406 -0.68685,-0.1653 -0.57855,-0.61085 0.16815,-0.69635 0.65455,-0.0741 1.3509,-0.7372 1.1324,-1.07635 -0.14725,-0.22705 -0.7733,-0.1938 -2.03965,0.1064 -0.5719,0.1349 -0.96235,-0.1368 -2.2876,-1.5865 -0.76665,-0.8398 -1.3566,-1.1894 -2.00355,-1.1894 -0.247,0 -1.12765,-0.22705 -1.95795,-0.50445 -1.5675,-0.52535 -2.18025,-0.50635 -2.1223,0.0665 0.1197,1.1913 -0.64695,1.1514 -1.8962,-0.0969 -0.5206,-0.51965 -0.99655,-0.89585 -1.0583,-0.83695 -0.23845,0.22895 0.19095,1.3433 0.69255,1.79455 0.63555,0.5719 0.6669,0.9329 0.10735,1.21885 -0.3059,0.1577 -0.43605,0.47595 -0.4845,1.1913 l -0.0646,0.9766 h -0.7942 c -0.27835,0 -0.5092,0.038 -0.6954,0.10925 a 19,19 0 0 1 -9.2055,-15.6807 c 0.2907,-0.6213 0.2698,-0.99655 0,-1.4193 a 19,19 0 0 1 0.0855,-1.06495 c 0.1729,-0.0085 0.3496,-0.01615 0.5529,-0.0076 0.9576,0.0399 1.77745,-0.33725 1.77745,-0.81795 0,-0.10165 0.3401,-0.5206 0.75525,-0.93005 0.4712,-0.4636 0.7125,-0.874 0.6422,-1.0868 -0.0646,-0.1938 0.0741,-0.50635 0.3192,-0.7182 0.23845,-0.2071 0.43415,-0.5396 0.43415,-0.7391 0,-0.31825 0.20235,-0.35815 1.6663,-0.323 l 1.6663,0.04085 -0.0285,1.64255 c -0.0494,2.8766 -0.47785,3.6233 -1.7993,3.14165 -0.60515,-0.22135 -2.0919,-0.05415 -2.51465,0.2812 -0.15295,0.1216 -0.3743,0.5624 -0.49115,0.9804 -0.1178,0.41705 -0.5529,1.14 -0.969,1.60455 -0.8417,0.9424 -0.90725,1.31005 -0.42465,2.41585 0.42085,0.9652 0.87495,0.85405 0.7847,-0.19285 l -0.0665,-0.779 0.7125,0.133 c 0.39425,0.07505 0.88825,0.36575 1.1096,0.6536 0.3154,0.40945 0.46265,0.4693 0.6992,0.28215 0.1653,-0.1311 0.29925,-0.40755 0.29925,-0.61275 0,-0.2052 0.2033,-0.4332 0.4503,-0.50825 0.24795,-0.07505 0.5871,-0.4484 0.75335,-0.83125 0.26695,-0.6118 0.2603,-0.79895 -0.05035,-1.54185 -0.31445,-0.75335 -0.3173,-0.8778 -0.02755,-1.15615 0.266,-0.2546 0.40375,-0.26315 0.75335,-0.0532 0.3515,0.20995 0.51775,0.19475 0.93575,-0.0855 0.27835,-0.18715 0.7657,-0.342 1.0811,-0.342 0.64125,0 0.83505,-0.3116 0.83505,-1.3433 0,-0.95285 0.5681,-1.29865 1.9209,-1.1742 0.9386,0.08645 1.1457,0.0247 1.90285,-0.5586 0.46835,-0.36005 1.20745,-1.22645 1.64445,-1.92755 0.437,-0.7011 0.90725,-1.43355 1.045,-1.62735 0.1976,-0.28025 0.14915,-0.5491 -0.2375,-1.31195 l -0.4883,-0.9595 1.0317,0.13965 c 1.8354,0.24795 2.20685,0.48545 1.4174,0.90915 -0.3078,0.16435 -0.3211,0.2489 -0.0836,0.52345 0.1558,0.1786 0.22895,0.46265 0.1615,0.6308 -0.06745,0.1672 0.01805,0.5624 0.18905,0.87685 0.17195,0.3154 0.3154,0.75715 0.3211,0.9842 0.01805,0.70775 1.23025,1.2711 2.58115,1.19605 2.0463,-0.11305 2.21255,-0.08075 2.9393,0.59375 0.9082,0.8436 1.02505,1.23595 0.6023,2.01875 -0.40945,0.76 -1.13715,1.06305 -2.39685,1.00035 -1.1267,-0.05605 -1.254,0.0437 -0.99655,0.7885 0.21945,0.6327 0.95475,0.8759 1.4535,0.4807 0.3838,-0.30495 1.70715,-0.06935 2.1128,0.37715 0.17005,0.1862 0.42275,0.6764 0.5605,1.0868 0.2375,0.7087 0.30685,0.7524 1.37085,0.855 1.0621,0.10355 1.1647,0.06935 1.9285,-0.6346 0.85215,-0.7847 0.99655,-1.3851 0.58615,-2.4187 -0.1824,-0.4579 -0.3173,-0.53295 -0.8037,-0.44365 -0.9633,0.17575 -1.3433,-0.15865 -1.3433,-1.1875 0,-0.49875 0.0969,-0.9652 0.21565,-1.0355 0.1178,-0.0703 0.2147,-0.3344 0.2147,-0.58805 0,-0.25365 0.1216,-0.58045 0.26885,-0.7239 0.21565,-0.209 0.1843,-0.3211 -0.1596,-0.5643 -0.2356,-0.16625 -0.6232,-0.27835 -0.8607,-0.24985 -0.23655,0.0285 -0.8911,-0.0741 -1.45445,-0.22705 -0.81415,-0.21945 -1.05355,-0.3857 -1.16375,-0.81415 -0.209,-0.8132 -0.71915,-1.46585 -1.14665,-1.46585 -0.67545,0 -0.6897,-1.5884 -0.03325,-3.8988 0.0969,-0.34105 0.36385,-0.55765 0.83505,-0.6745 0.3819,-0.095 0.79705,-0.3553 0.92245,-0.57931 0.12445,-0.22401 0.3534,-0.40641 0.50825,-0.40641 0.15485,0 0.4579,-0.18544 0.67165,-0.41192 0.21565,-0.228 0.6612,-0.41192 1.00035,-0.41192 0.80275,0 0.81605,-0.55271 0.01995,-0.84417 -0.84075,-0.30818 -2.14985,0.09576 -2.4662,0.760665 -0.42845,0.901645 -0.9044,0.525445 -1.05735,-0.83676 -0.18905,-1.684825 -0.77045,-2.16904 -2.603,-2.16904 H 32.7847 l 0.5776,-0.57703 c 0.17955,-0.18012 0.3287,-0.400235 0.43225,-0.616075 z m -6.8305,0.597455 c 0.03705,0.03344 0.07315,0.0608 0.10925,0.09833 0.4408,0.44992 0.6479,0.514045 1.32905,0.410115 1.1894,-0.181355 1.03645,0.29754 -0.28025,0.875805 -0.71155,0.312645 -1.16945,0.669085 -1.32525,1.029705 -0.7505,1.74002 -1.2673,2.676815 -1.52665,2.771815 -0.5244,0.19285 -0.83695,-0.19418 -0.9538,-1.18351 -0.13395,-1.13506 -0.51775,-1.375695 -1.20745,-0.755155 -0.2679,0.240825 -0.6422,0.437855 -0.83125,0.437855 -0.58995,0 -1.026,0.236835 -1.026,0.5567 0,0.16853 -0.1995,0.574655 -0.44365,0.90326 -0.36005,0.48355 -0.6042,0.59945 -1.2768,0.59945 -0.82555,0 -1.3319,0.15485 -2.3655,0.7258 -0.01615,0.0085 -0.0323,0.0114 -0.04845,0.01995 a 19,19 0 0 1 9.84675,-6.490115 z m 24.03215,18.2191 a 19,19 0 0 1 0.0037,0.0817 19,19 0 0 1 -0.37107,3.6499 c -0.68837,0.28025 -0.87856,0.1691 -0.95,-0.4712 -0.03695,-0.33155 -0.210045,-0.7068 -0.385985,-0.83695 -0.271795,-0.20045 -0.222775,-0.30305 0.33402,-0.68305 0.36043,-0.24605 0.715635,-0.67545 0.788595,-0.9538 0.07068,-0.2698 0.3097,-0.5643 0.580735,-0.7866 z m -5.980345,6.28045 c 0.17765,-0.01805 0.391685,0.07695 0.629185,0.30495 0.502455,0.4807 0.42655,1.44685 -0.14288,1.82875 -0.652555,0.43795 -0.904305,0.31065 -0.986955,-0.49685 -0.10165,-0.9956 0.11115,-1.596 0.50065,-1.63685 z m -3.2243,2.8728 c 0.1938,0.0067 0.40755,0.14535 0.6213,0.43795 0.22705,0.3097 0.2888,0.70965 0.20235,1.3167 -0.10735,0.7467 -0.0608,0.9063 0.32965,1.10675 0.50255,0.2565 0.6099,1.0203 0.19855,1.4136 -0.4085,0.3914 -0.798,0.2888 -0.9386,-0.247 -0.1995,-0.7638 -1.31765,-0.8531 -2.08145,-0.1672 -0.32585,0.2926 -0.59185,0.4408 -0.59185,0.3287 0,-0.1121 0.33915,-0.51965 0.75335,-0.90345 0.63365,-0.589 0.75145,-0.8398 0.75145,-1.5979 0,-1.0697 0.32775,-1.70145 0.75525,-1.68815 z m 5.295205,2.4529 a 19,19 0 0 1 -0.439755,0.5548 c 0.129485,-0.20045 0.277305,-0.39235 0.439755,-0.5548 z m -6.402905,2.9165 c 0.09595,0.03325 0.1368,0.1539 0.1368,0.36575 0,0.2147 0.1368,0.43985 0.304,0.50065 0.2223,0.0817 0.2736,0.33915 0.1881,0.9538 -0.01615,0.11495 -0.0209,0.2071 -0.0266,0.30305 a 19,19 0 0 1 -0.7904,0.40565 c 0.0133,-0.3287 -0.04655,-0.71535 -0.2185,-1.19985 -0.29165,-0.8227 -0.3021,-1.02885 -0.0646,-1.17325 0.2223,-0.1349 0.3743,-0.18905 0.4712,-0.1558 z"/>
 <path style="fill:#8b9cbe;opacity:0.1" d="M 20.800781 4 C 11.493582 4 4 11.493582 4 20.800781 L 4 21.800781 C 4 12.493582 11.493582 5 20.800781 5 L 43.199219 5 C 52.506418 5 60 12.493582 60 21.800781 L 60 20.800781 C 60 11.493582 52.506418 4 43.199219 4 L 20.800781 4 z"/>
 <path style="fill:#8b9cbe;opacity:0.2" d="M 32 13 A 19 19 0 0 0 13 32 A 19 19 0 0 0 13.021484 32.408203 A 19 19 0 0 1 32 14 A 19 19 0 0 1 50.978516 32.591797 A 19 19 0 0 0 51 32 A 19 19 0 0 0 32 13 z"/>
</svg>
