<svg xmlns="http://www.w3.org/2000/svg" width="64" height="64" version="1.1">
 <rect style="opacity:0.2" width="50" height="56" x="7" y="5" rx="4.545" ry="4.308"/>
 <rect style="fill:#c29875" width="50" height="56" x="7" y="4" rx="4.545" ry="4.308"/>
 <rect style="fill:#885e3d" width="41.999" height="13.444" x="11" y="8" rx="0" ry="0"/>
 <rect style="fill:#bd916c" width="41.999" height="12.222" x="11" y="17.78" rx="0" ry="0"/>
 <path style="fill:#ff7800" d="M 43.451626,10.999974 C 42.64215,11.010385 41.999552,11.281969 42,11.612874 v 18.387008 h 3 V 11.612874 c 0,-0.338505 -0.671548,-0.6129 -1.5,-0.6129 -0.0158,-1.23e-4 -0.03224,-1.23e-4 -0.048,0 z"/>
 <path style="fill:#f9f06b" d="m 40.45174,10.999974 c -0.809474,0.0104 -1.452074,0.281995 -1.451622,0.6129 v 18.387008 h 3 V 11.612874 c 0,-0.338505 -0.671552,-0.6129 -1.5,-0.6129 -0.0158,-1.23e-4 -0.03224,-1.23e-4 -0.048,0 z"/>
 <rect style="fill:#1a5fb4" width="2" height="21" x="-39" y="9" transform="scale(-1,1)"/>
 <rect style="fill:#3584e4" width="4" height="20" x="-49" y="10" transform="scale(-1,1)"/>
 <rect style="fill:#1a5fb4" width="4" height="4" x="45" y="12"/>
 <rect style="fill:#1a5fb4" width="4" height="1" x="45" y="28"/>
 <rect style="fill:#1a5fb4" width="4" height="1" x="45" y="25"/>
 <rect style="fill:#8b9cbe" width="4" height="18" x="-53" y="12" transform="scale(-1,1)"/>
 <rect style="fill:#ff7800" width="4" height="7" x="-53" y="23" transform="scale(-1,1)"/>
 <rect style="fill:#ff7800" width="4" height="1" x="-53" y="21" transform="scale(-1,1)"/>
 <path style="fill:#ed333b" d="m 33.000002,9.999884 c -0.6906,0 -1.381198,0.027516 -2,0.081678 -1.236622,0.108176 -1.998864,0.30803 -2,0.524382 v 19.39394 H 37 V 10.605945 c -0.0011,-0.216352 -0.763378,-0.416206 -1.999998,-0.524382 -0.618802,-0.05412 -1.309402,-0.081678 -2,-0.081679 z"/>
 <circle style="fill:#c01c28" cx="-33" cy="23.333" r="1.333" transform="scale(-1,1)"/>
 <path style="fill:#c01c28" d="m 33,14.036117 c -0.690598,0 -1.381198,0.02752 -2,0.08168 -1.23662,0.108174 -1.998864,0.308029 -2,0.524381 v 4.848486 c 0.0011,-0.216354 0.76338,-0.416209 2,-0.524383 0.618802,-0.05419 1.309402,-0.08167 2,-0.08167 0.690598,0 1.381198,0.02752 2.000002,0.08167 C 36.23662,19.074454 36.998858,19.27431 37,19.490663 V 14.642181 C 36.998858,14.425829 36.23662,14.225975 35.000002,14.117799 34.381198,14.063677 33.690598,14.036117 33,14.036117 Z"/>
 <path style="fill:#c01c28" d="m 33,26.97 c -0.690598,0 -1.381198,0.026 -2,0.07714 -1.23662,0.102222 -1.998864,0.291064 -2,0.4955 V 28.688 c 0.0011,-0.204435 0.76338,-0.393282 2,-0.495499 0.618802,-0.05118 1.309402,-0.07716 2,-0.07716 0.690598,0 1.381198,0.026 2.000002,0.07716 C 36.23662,28.294722 36.998858,28.483565 37,28.688 V 27.542671 C 36.998858,27.338236 36.23662,27.149388 35.000002,27.047172 34.381198,26.996029 33.690598,26.970002 33,26.97 Z"/>
 <rect style="fill:#e01b24" width="2" height="16" x="21" y="14"/>
 <rect style="fill:#1a5fb4" width="2" height="18" x="11" y="12"/>
 <rect style="fill:#ff7800" width="4" height="20" x="13" y="10"/>
 <circle style="fill:#c64600" cx="15" cy="28" r="1"/>
 <path style="fill:#2ec27e" d="m 19.000002,8.9998814 c 0.345266,0 0.690598,0.027 1,0.08088 0.618264,0.1071 0.9994,0.3049802 0.999998,0.51912 V 29.999882 H 17 V 9.5998816 c 5.35e-4,-0.2141398 0.381667,-0.41202 1.000002,-0.51912 0.309398,-0.053398 0.654666,-0.08088 1,-0.08088 z"/>
 <path style="fill:#26a269" d="m 19.000002,14.000222 c -0.345334,0 -0.690602,0.028 -1,0.08387 C 17.381667,14.195157 17.000535,14.400373 17,14.622445 V 24.578 c 5.35e-4,-0.22207 0.381667,-0.427282 1.000002,-0.538348 0.309398,-0.05536 0.654666,-0.08388 1,-0.08388 0.345266,0 0.690598,0.02802 1,0.08388 0.618264,0.11106 0.9994,0.316278 0.999998,0.538348 v -9.955555 c -5.98e-4,-0.222072 -0.381734,-0.427281 -0.999998,-0.538349 -0.309402,-0.05537 -0.654734,-0.08387 -1,-0.08387 z"/>
 <rect style="fill:#5e5c64" width="1.12" height="6.21" x="24.44" y="16.34"/>
 <path style="fill:#deddda" d="m 26,10.999882 c -1.656854,0 -3,0.274403 -3,0.612903 v 18.387097 h 6 V 11.612785 c 0,-0.3385 -1.343148,-0.612903 -3,-0.612903 z"/>
 <path style="fill:#5e5c64" d="M 25.999998,13.031289 C 24.343142,13.031289 23,13.305697 23,13.644192 V 14.87 c 0,-0.338495 1.343142,-0.612903 2.999998,-0.612903 1.656854,0 3,0.274408 3,0.612903 v -1.225808 c 0,-0.338495 -1.343146,-0.612903 -3,-0.612903 z"/>
 <path style="fill:#5e5c64" d="M 25.999998,25.91084 C 24.343142,25.91084 23,26.18525 23,26.523742 v 2.451614 c 0,-0.338496 1.343142,-0.6129 2.999998,-0.6129 1.656854,0 3,0.274404 3,0.6129 v -2.451614 c 0,-0.338492 -1.343146,-0.612902 -3,-0.612902 z"/>
 <rect style="fill:#9a9996" width="2" height="6" x="25" y="17"/>
 <rect style="fill:#885e3d" width="41.999" height="12.222" x="11" y="34" rx="0" ry="0"/>
 <rect style="fill:#bd916c" width="41.999" height="12.222" x="11" y="43.78" rx="0" ry="0"/>
 <path style="fill:#3d3846" d="m 27.999998,34.999932 c -0.34533,0 -0.690598,0.02862 -0.999998,0.08578 -0.618334,0.11358 -0.999468,0.323462 -1,0.550582 v 20.363638 h 4 V 35.636296 c -5.34e-4,-0.227118 -0.381732,-0.436988 -1,-0.550584 -0.3094,-0.05662 -0.654736,-0.08578 -1.000002,-0.08578 z"/>
 <rect style="fill:#f6d32d" width="6" height="19" x="-36" y="37" transform="scale(-1,1)"/>
 <rect style="fill:#77767b" width="6" height="1" x="-36" y="52" transform="scale(-1,1)"/>
 <rect style="fill:#77767b" width="6" height=".6" x="-36" y="54" transform="scale(-1,1)"/>
 <rect style="fill:#3584e4" width="7" height="20" x="-26" y="36" transform="scale(-1,1)"/>
 <rect style="fill:#1a5fb4" width="5" height="2" x="-25" y="39" transform="scale(-1,1)"/>
 <rect style="fill:#ed333b" width="4" height="20" x="11" y="36"/>
 <rect style="fill:#5e5c64" width="4" height="3" x="-15" y="39" transform="scale(-1,1)"/>
 <rect style="fill:#5e5c64" width="4" height="1" x="-15" y="54" transform="scale(-1,1)"/>
 <rect style="fill:#5e5c64" width="4" height="1" x="-15" y="51" transform="scale(-1,1)"/>
 <rect style="fill:#8b9cbe" width="4" height="18" x="15" y="38"/>
 <rect style="fill:#c061cb" width="4" height="6" x="15" y="50"/>
 <rect style="fill:#c061cb" width="4" height="1" x="15" y="47"/>
 <rect style="fill:#3584e4" width="3" height="20" x="40" y="36"/>
 <rect style="fill:#1a5fb4" width="3" height="3" x="40" y="38"/>
 <rect style="fill:#1a5fb4" width="3" height="2" x="40" y="42"/>
 <path style="fill:#57e389" d="m 46,37 c -0.517982,0 -1.0359,0.02848 -1.500002,0.08538 C 43.57252,37.19844 43.000842,37.407304 43,37.63334 v 18.366654 h 6 V 37.633328 c -5.98e-4,-0.22604 -0.572582,-0.43491 -1.500002,-0.54796 C 47.0359,37.029008 46.51792,36.999988 46,36.999988 Z"/>
 <path style="fill:#8c3ea6" d="m 51,35.99994 c -0.345334,0 -0.690598,0.02728 -1,0.0817 -0.618334,0.10818 -0.999466,0.30806 -1,0.524364 v 19.393934 h 4 V 36.606006 c -5.36e-4,-0.216304 -0.381736,-0.416182 -1,-0.524364 -0.3094,-0.05392 -0.654732,-0.0817 -1,-0.0817 z"/>
 <rect style="fill:#613583" width="2" height="14" x="50" y="39"/>
 <rect style="fill:#ed333b" width="4" height="18" x="36" y="38"/>
 <rect style="fill:#a51d2d" width="2" height="6" x="37" y="46"/>
 <rect style="fill:#a51d2d" width="4" height="2" x="36" y="42"/>
 <path style="opacity:0.2;fill:#8b9cbe" d="M 11.546875 4 C 9.0287086 4 7 5.9221319 7 8.3085938 L 7 9.3085938 C 7 6.922132 9.0287086 5 11.546875 5 L 52.453125 5 C 54.971293 5 57 6.9221319 57 9.3085938 L 57 8.3085938 C 57 5.9221319 54.971293 4 52.453125 4 L 11.546875 4 z"/>
 <rect style="opacity:0.2" width="42" height="1" x="11" y="8"/>
 <rect style="opacity:0.2;fill:#8b9cbe" width="42" height="1" x="11" y="30"/>
 <rect style="opacity:0.2" width="42" height="1" x="11" y="34"/>
</svg>
