<svg xmlns="http://www.w3.org/2000/svg" width="64" height="64" version="1.1">
 <path style="opacity:0.2" d="m 23.357082,8.0082511 c -0.27899,0.0169 -0.561222,0.060992 -0.842148,0.1357201 -2.247409,0.5978276 -3.571583,2.8774358 -2.96939,5.1085588 l 1.632344,6.053181 c -1.416071,0.837041 -2.728678,1.798204 -3.950984,2.836583 l -4.650953,-4.818207 c -1.610063,-1.667963 -4.2962985,-1.633296 -5.9415171,0 -1.6452183,1.633296 -1.6104079,4.228114 0,5.895746 l 4.6974341,4.864349 c -2.0764027,2.310445 -3.9812375,4.473007 -5.8704255,5.890314 -1.9485898,1.42035 -1.94859,4.972134 0,6.392485 C 13.800279,45.517853 19.399849,58.036112 31.9973,57.999922 l 0.0054,0 c 12.597451,0.0362 18.197021,-12.482069 26.535857,-17.632941 1.94859,-1.420351 1.94859,-4.972135 0,-6.392485 -1.888434,-1.416725 -3.792294,-3.578243 -5.867692,-5.887602 l 4.700169,-4.867061 c 1.610428,-1.667612 1.645218,-4.26245 0,-5.895746 -1.64522,-1.633296 -4.32869,-1.667934 -5.938784,0 l -4.656359,4.823635 c -1.215115,-1.032609 -2.517137,-1.991678 -3.923634,-2.825723 l 1.637812,-6.069468 C 45.092259,11.021408 43.768088,8.7418002 41.520678,8.1439726 39.273269,7.5461452 36.979753,8.863436 36.377562,11.094559 l -1.460089,5.21183 c -0.934325,-0.127388 -1.904494,-0.200744 -2.917439,-0.200868 l -0.0028,0 c -1.000153,1.2e-4 -1.95569,0.07386 -2.879161,0.198154 L 27.658051,11.094558 C 27.131132,9.1423267 25.310007,7.8899355 23.357082,8.0082511 Z"/>
 <path style="fill:#ef9202" d="m 23.357082,7.0082497 c -0.27899,0.0169 -0.561222,0.060992 -0.842148,0.1357201 -2.247409,0.5978276 -3.571583,2.8774352 -2.96939,5.1085582 l 1.632344,6.053181 c -1.416071,0.837041 -2.728678,1.798203 -3.950984,2.836583 l -4.650953,-4.818207 c -1.610063,-1.667962 -4.2962985,-1.633296 -5.9415171,0 -1.6452183,1.633297 -1.6104079,4.228114 0,5.895746 l 4.6974341,4.864349 c -2.0764027,2.310445 -3.9812375,4.473007 -5.8704255,5.890314 -1.9485898,1.42035 -1.94859,4.972134 0,6.392485 C 13.800279,44.51785 19.399849,57.03611 31.9973,56.99992 l 0.0054,0 c 12.597451,0.0362 18.197021,-12.48207 26.535857,-17.632941 1.94859,-1.420351 1.94859,-4.972135 0,-6.392485 -1.888434,-1.416725 -3.792294,-3.578243 -5.867692,-5.887602 l 4.700169,-4.867061 c 1.610428,-1.667612 1.645218,-4.262449 0,-5.895746 -1.64522,-1.633296 -4.32869,-1.667934 -5.938784,0 L 46.775891,21.14772 C 45.560776,20.11511 44.258754,19.156043 42.852257,18.321998 L 44.490069,12.25253 C 45.092259,10.021407 43.768088,7.7417988 41.520678,7.1439712 39.273269,6.5461438 36.979753,7.8634346 36.377562,10.094557 l -1.460089,5.211831 C 33.983148,15.178999 33.012979,15.105643 32.000034,15.10552 l -0.0028,0 c -1.000153,1.19e-4 -1.95569,0.07386 -2.879161,0.198154 L 27.658051,10.094556 C 27.131132,8.1423248 25.310007,6.8899341 23.357082,7.0082497 Z"/>
 <circle style="opacity:0.2" cx="32" cy="37" r="16"/>
 <circle style="fill:#8b9cbe" cx="32" cy="36" r="16"/>
 <circle style="fill:#ff5a2e" cx="32" cy="36" r="10"/>
 <path style="opacity:0.2;fill:#8b9cbe" d="M 23.357422 7.0078125 C 23.078432 7.0247125 22.796551 7.0698031 22.515625 7.1445312 C 20.48546 7.6845703 19.223425 9.5961529 19.439453 11.605469 C 19.660529 9.9918065 20.82739 8.5936143 22.515625 8.1445312 C 22.796551 8.0698031 23.078432 8.0247125 23.357422 8.0078125 C 25.310347 7.8894969 27.131284 9.1415185 27.658203 11.09375 L 29.117188 16.302734 C 30.040659 16.17844 30.997894 16.105588 31.998047 16.105469 L 32 16.105469 C 33.012945 16.105592 33.983644 16.179252 34.917969 16.306641 L 36.376953 11.09375 C 36.979144 8.8626273 39.274075 7.5467039 41.521484 8.1445312 C 43.20972 8.5936143 44.374627 9.9918063 44.595703 11.605469 C 44.811729 9.5961529 43.55165 7.6845703 41.521484 7.1445312 C 39.274075 6.5467039 36.979144 7.8626276 36.376953 10.09375 L 34.917969 15.306641 C 33.983644 15.179252 33.012945 15.105592 32 15.105469 L 31.998047 15.105469 C 30.997894 15.105588 30.040659 15.17844 29.117188 15.302734 L 27.658203 10.09375 C 27.131284 8.1415188 25.310347 6.8894969 23.357422 7.0078125 z M 9.6191406 15.085938 C 8.5406716 15.090271 7.4573749 15.507571 6.6347656 16.324219 C 5.6875611 17.26456 5.3143227 18.522902 5.4609375 19.740234 C 5.569061 18.859208 5.9468831 18.007117 6.6347656 17.324219 C 8.2799842 15.690923 10.966109 15.656257 12.576172 17.324219 L 17.226562 22.142578 C 18.448868 21.104198 19.761663 20.143682 21.177734 19.306641 L 20.947266 18.451172 C 19.620399 19.25471 18.381181 20.161701 17.226562 21.142578 L 12.576172 16.324219 C 11.77114 15.490238 10.69761 15.081604 9.6191406 15.085938 z M 54.388672 15.085938 C 53.31089 15.081608 52.236688 15.490252 51.431641 16.324219 L 46.775391 21.148438 C 45.627839 20.173243 44.399403 19.267447 43.082031 18.466797 L 42.851562 19.322266 C 44.25806 20.156311 45.560276 21.115828 46.775391 22.148438 L 51.431641 17.324219 C 53.041735 15.656285 55.725874 15.690923 57.371094 17.324219 C 58.057423 18.005575 58.433798 18.855471 58.542969 19.734375 C 58.687671 18.518819 58.316814 17.263086 57.371094 16.324219 C 56.548484 15.507571 55.466454 15.090267 54.388672 15.085938 z M 10.865234 27.601562 C 8.9707507 29.711501 7.2058642 31.66553 5.4609375 32.974609 C 4.3548363 33.78086 3.8991906 35.269797 4.0488281 36.669922 C 4.1628032 35.603483 4.6184489 34.588709 5.4609375 33.974609 C 7.3501255 32.557302 9.2556286 30.394429 11.332031 28.083984 L 10.865234 27.601562 z M 53.136719 27.603516 L 52.669922 28.085938 C 54.74532 30.395297 56.650629 32.557884 58.539062 33.974609 C 59.381551 34.588709 59.837197 35.603483 59.951172 36.669922 C 60.100809 35.269797 59.645164 33.78086 58.539062 32.974609 C 56.794832 31.666068 55.03028 29.712459 53.136719 27.603516 z"/>
</svg>
