<svg xmlns="http://www.w3.org/2000/svg" width="64" height="64" version="1">
 <rect style="opacity:0.2" width="56" height="56" x="4" y="5" rx="28" ry="28"/>
 <rect style="fill:#614eff" width="56" height="56" x="4" y="4" rx="28" ry="28"/>
 <path style="opacity:0.2" d="M 32,15 A 18,18 0 0 0 14,33 18,18 0 0 0 32,51 18,18 0 0 0 50,33 18,18 0 0 0 47.203124,23.40625 c -0.0126,-0.08246 -0.0178,-0.0964 -0.03124,-0.1875 -0.08148,-0.548702 -0.09942,-1.029828 -0.08594,-2.222656 0.0094,-0.837866 0.02374,-1.78317 0.02734,-2.101563 0.0058,-0.514719 -0.013,-0.612374 -0.15626,-0.886719 -0.09534,-0.182498 -0.236294,-0.365294 -0.402344,-0.523437 -0.1882,-0.220486 -0.411786,-0.324084 -0.63672,-0.382813 -0.72458,-0.19312 -1.518202,-0.03377 -2.171874,0.03125 -1.021414,0.09683 -2.080884,0.182922 -2.878906,0.226563 A 18,18 0 0 0 32,15 Z m 0,6 A 12,12 0 0 1 44,33 12,12 0 0 1 32,45 12,12 0 0 1 20,33 12,12 0 0 1 32,21 Z"/>
 <path style="fill:#8b9cbe" d="M 32,14 A 18,18 0 0 0 14,32 18,18 0 0 0 32,50 18,18 0 0 0 50,32 18,18 0 0 0 32,14 Z m 0,6 A 12,12 0 0 1 44,32 12,12 0 0 1 32,44 12,12 0 0 1 20,32 12,12 0 0 1 32,20 Z"/>
 <path style="fill:#8b9cbe" d="m 37.14,15.437652 c 2.388852,0.946075 3.35697,4.714592 5.271036,6.498864 2.605184,2.428522 5.854602,3.175874 6.560936,6.600896 -0.06836,-0.361916 -0.14092,-0.772494 -0.1839,-0.954626 -0.19612,-0.831044 -0.69403,-2.280334 -1.014122,-2.95042 -0.305902,-0.640382 -0.380142,-0.929162 -0.600362,-2.412262 -0.08148,-0.548702 -0.10002,-1.030128 -0.08654,-2.222956 0.0094,-0.837867 0.02074,-1.785572 0.02434,-2.103966 0.0058,-0.51472 -0.0108,-0.612674 -0.15414,-0.887019 -0.09534,-0.182498 -0.235136,-0.361814 -0.401186,-0.519957 -0.1882,-0.220486 -0.412982,-0.32512 -0.637916,-0.383848 -0.72458,-0.19312 -1.517994,-0.03356 -2.171666,0.03146 -1.069948,0.101436 -2.210712,0.195868 -3.017158,0.236827 H 39.55294 L 39.039118,16.121848 C 38.49193,15.857189 37.679708,15.636335 37.14,15.437652 Z m 11.86172,13.24309 c 0.0804,0.4266 0.14534,0.855964 0.19472,1.287258 -0.02492,-0.276438 -0.05476,-0.520614 -0.119,-0.892426 -0.02448,-0.14178 -0.04778,-0.243756 -0.07572,-0.394832 z"/>
 <path style="opacity:0.1;fill:#8b9cbe" d="M 32 4 C 16.488 4 4 16.488 4 32 C 4 32.11345 4.0112805 32.224113 4.0175781 32.335938 C 4.3691213 17.134181 16.710728 5 32 5 C 47.289272 5 59.630879 17.134181 59.982422 32.335938 C 59.98872 32.224113 60 32.11345 60 32 C 60 16.488 47.512 4 32 4 z"/>
</svg>
