<svg xmlns="http://www.w3.org/2000/svg" width="64" height="64" version="1">
 <rect style="opacity:0.2" width="56" height="56" x="4" y="5" rx="2.8" ry="2.8"/>
 <rect style="fill:#4f4f4f" width="56" height="56" x="4" y="4" rx="2.8" ry="2.8"/>
 <path style="opacity:0.2" d="m 36.812232,52.898202 c -0.26452,0 -0.488374,-0.13676 -0.67451,-0.211932 -0.350518,-0.315804 -0.14368,-0.15536 0.23284,-0.298578 -0.214116,0.03688 0.04974,0.02076 0.27564,-0.12464 0.07864,0 0.232092,-0.03844 0.341008,-0.08538 0.10892,-0.04646 0.234304,-0.09384 0.278658,-0.10428 0.04436,-0.0104 0.24404,-0.08098 0.443748,-0.15674 0.1997,-0.07612 0.45647,-0.17228 0.570586,-0.214528 0.19488,-0.07208 0.549006,-0.252546 0.955228,-0.486956 0.1756,-0.10128 0.276378,-0.17556 0.48355,-0.356226 0.05902,-0.05126 0.13098,-0.09366 0.15988,-0.09366 0.02892,0 0.03984,-0.0128 0.02432,-0.0292 -0.0156,-0.0158 0.06224,-0.12622 0.17292,-0.245018 0.11064,-0.11874 0.2004,-0.244078 0.19944,-0.278432 -0.0052,-0.18738 -0.369692,-0.433856 -1.658168,-1.121228 -0.328092,-0.17504 -0.64257,-0.351424 -0.698844,-0.391942 -0.05628,-0.04084 -0.14186,-0.07372 -0.1902,-0.07372 -0.04834,0 -0.09566,-0.0194 -0.10518,-0.04168 -1.934972,-0.92688 -3.173558,-1.584278 -5.052868,-2.36563 -0.02002,0 -0.14756,-0.0705 -0.28345,-0.15678 -0.352176,-0.200998 -0.540822,-0.245246 -0.853708,-0.497728 -0.02852,-0.02336 -0.14084,-0.11262 -0.24955,-0.19876 -0.437036,-0.346168 -0.597614,-0.685264 -0.538776,-1.137608 0.0168,-0.12868 0.31973,-0.820768 0.735516,-1.680042 0.38888,-0.803606 0.703744,-1.477256 0.6997,-1.49685 -0.004,-0.0194 0.0142,-0.05044 0.0406,-0.0681 0.09154,-0.06248 0.945798,-1.88957 0.911988,-1.950524 -0.0186,-0.03354 -0.015,-0.04324 0.008,-0.02238 0.04196,0.03928 0.50416,-0.835398 0.508394,-0.961946 0.0013,-0.03686 0.02558,-0.06652 0.05412,-0.06652 0.02854,0 0.03848,-0.0138 0.02212,-0.0305 -0.0375,-0.03844 -0.350632,0.12528 -0.350632,0.1836 0,0.02434 -0.03264,0.04324 -0.07254,0.04324 -1.651968,0.664794 -3.508776,1.688702 -4.96348,2.370236 -0.387602,0.18216 -0.763658,0.38328 -0.835686,0.447024 -0.07726,0.06816 -0.18916,0.285764 -0.272926,0.530006 -0.07808,0.227634 -0.1856,0.471162 -0.238952,0.54107 -0.05336,0.06976 -0.08566,0.13884 -0.0718,0.15308 0.014,0.0146 -0.229414,0.541134 -0.540584,1.170668 -0.759578,1.536718 -0.802682,1.61996 -0.862594,1.665278 -0.02854,0.02174 -0.03074,0.04008 -0.005,0.04008 0.02582,0 0.013,0.04324 -0.02862,0.09448 -0.04156,0.05126 -0.1413,0.23795 -0.221626,0.414456 -0.08034,0.17654 -0.205902,0.403294 -0.27905,0.504022 -0.07314,0.10058 -0.09958,0.16222 -0.05874,0.1368 0.06364,-0.03922 0.06402,-0.03358 0.0024,0.04488 -0.786788,1.58541 -1.775766,3.06069 -2.451478,4.674814 -0.203858,0.374746 -0.32549,0.727174 -0.506016,1.192042 h 0.243744 c 0.820744,0.1006 -0.1315,0.201356 -0.404652,0.232044 -0.990718,0.11022 -4.789125,0.03526 -4.917555,-0.09738 -0.130174,-0.13426 0.504646,-0.19442 2.181195,-0.206678 0.677508,-0.0084 1.231886,-0.011 1.231952,-0.0146 5.4e-5,0 -0.1422,-0.1208 -0.316162,-0.26179 -0.17404,-0.14086 -0.366616,-0.30754 -0.428027,-0.370184 -0.06141,-0.06248 -0.1852,-0.16164 -0.275092,-0.219716 -0.08989,-0.0585 -0.311642,-0.232594 -0.49278,-0.387754 -0.18114,-0.15526 -0.359387,-0.307502 -0.396107,-0.33832 -0.03672,-0.03114 -0.211789,-0.17816 -0.389038,-0.327224 -0.373991,-0.314636 -0.733531,-0.7021 -0.842098,-0.90764 -0.07123,-0.13482 -0.06873,-0.14614 0.04041,-0.1841 0.186594,-0.06488 0.407079,-0.0084 1.100186,0.292448 0.1132,0.04888 0.218234,0.09088 0.23342,0.09334 0.03455,0.0084 0.188202,0.06732 0.390721,0.15484 0.08559,0.03688 0.272325,0.11104 0.414973,0.16398 0.142648,0.05284 0.282703,0.1128 0.311232,0.13312 0.06316,0.04488 0.348332,0.126 0.401432,0.11412 0.02108,-0.0084 0.12612,0.0266 0.233424,0.06812 0.355626,0.14022 0.942016,0.19152 1.454334,0.12716 0.45369,-0.358496 0.773666,-0.924284 0.971244,-1.3813 0.05164,-0.05926 0.07276,-0.10736 0.04696,-0.10774 -0.02582,0 -0.02098,-0.0194 0.0108,-0.04006 0.304524,-0.607602 0.63756,-1.282162 0.89914,-1.85794 0.323372,-0.698014 0.485716,-1.069518 0.50018,-1.14468 0.0078,-0.04168 0.04514,-0.09502 0.0827,-0.1195 0.03756,-0.02464 0.0503,-0.0449 0.02832,-0.0449 -0.02198,0 0.0046,-0.09106 0.05904,-0.201422 0.05446,-0.11032 0.12864,-0.302958 0.16488,-0.427948 0.03622,-0.12504 0.08162,-0.22731 0.10088,-0.22731 0.0192,0 0.03532,-0.02952 0.03566,-0.06652 2.7e-4,-0.03682 0.11176,-0.355738 0.247534,-0.708654 0.279894,-0.72776 0.556432,-1.465936 0.711392,-1.899076 0.05788,-0.16172 0.12508,-0.342274 0.14932,-0.401088 0.02422,-0.05926 0.09408,-0.239442 0.15526,-0.401124 0.06118,-0.1619 0.15704,-0.402548 0.213058,-0.534936 0.05602,-0.13246 0.10512,-0.264842 0.10912,-0.294328 0.004,-0.0292 0.02642,-0.0777 0.0498,-0.10692 0.890748,-1.34383 2.465274,-2.264966 3.56021,-3.267886 0.02404,0.0148 0.18162,-0.09762 0.35013,-0.25089 0.16854,-0.15338 0.329752,-0.297086 0.358282,-0.319504 0.14978,-0.11746 0.783448,-0.6411 1.115932,-0.922264 0.208798,-0.17646 0.498304,-0.41476 0.643346,-0.529498 0.14504,-0.1147 0.27539,-0.224204 0.289654,-0.243268 0.0142,-0.0192 0.17764,-0.15382 0.363078,-0.29951 0.18542,-0.1457 0.375368,-0.304302 0.422088,-0.352526 0.395116,-0.44675 1.012074,-0.793278 1.78249,-1.45462 0.05704,-0.05528 0.15606,-0.13676 0.220006,-0.18104 0.06394,-0.04406 0.10304,-0.10254 0.08692,-0.12944 -0.0162,-0.02744 -0.007,-0.04246 0.02014,-0.03446 0.0776,0.02322 0.379726,-0.225344 0.344856,-0.28357 0.17066,-0.08898 0.328234,-0.233904 0.516696,-0.396116 0.1023,-0.10254 0.186,-0.17294 0.186,-0.15666 0,0.017 0.03008,0 0.06684,-0.04088 0.0855,-0.09042 0.278104,-0.557208 0.316048,-0.76611 0.016,-0.08822 0.06402,-0.30457 0.10664,-0.480878 0.13906,-0.574978 0.229196,-1.580864 0.26129,-2.91579 0.0174,-0.720776 0.04352,-1.430826 0.05822,-1.577898 l 0.02672,-0.26755 -0.344158,0.37449 c -0.323608,0.35206 -0.525702,0.646846 -0.502906,0.733514 0.0056,0.02082 -0.0229,0.02562 -0.06316,0.0096 -0.12694,0.03202 -0.1628,0.13224 -0.231576,0.246886 -0.0172,0.0144 -0.06616,0.0737 -0.10896,0.13058 -0.06136,0.08186 -0.06242,0.09436 -0.005,0.05848 0.04944,-0.03042 0.06096,-0.02562 0.03584,0.0168 -0.02036,0.03446 -0.06106,0.06168 -0.09048,0.06168 -0.07104,0 -0.35496,0.278446 -0.328666,0.322264 0.0112,0.0192 -0.0124,0.03446 -0.05264,0.03446 -0.04028,0 -0.0586,-0.02652 -0.04068,-0.05848 0.018,-0.03202 -0.0122,-0.0192 -0.06712,0.02882 -0.05482,0.04808 -0.15784,0.10568 -0.228918,0.12802 -0.07108,0.02228 -0.26948,0.10718 -0.440912,0.18824 -0.17142,0.08116 -0.650146,0.295894 -1.063824,0.477354 -0.413674,0.18144 -0.88052,0.386742 -1.037434,0.456176 -0.15692,0.06972 -0.4124,0.17766 -0.567754,0.240472 -0.15536,0.06252 -0.61053,0.264988 -1.0115,0.449488 -0.40097,0.18448 -0.827608,0.378794 -0.94808,0.43208 -0.12046,0.05288 -0.206268,0.1179 -0.19066,0.14392 0.0156,0.02652 0.0092,0.04408 -0.0142,0.04008 -0.12068,-0.02172 -0.1793,0.02258 -0.272426,0.205558 -0.14516,0.28523 -0.473602,0.616882 -0.835016,0.843252 -0.17982,0.11272 -0.296448,0.219172 -0.276506,0.25249 0.0194,0.03206 0.0104,0.04244 -0.02068,0.02228 -0.03034,-0.0192 -0.17982,0 -0.332214,0.03844 -0.244444,0.0657 -0.282474,0.06408 -0.323204,-0.0088 -0.02866,-0.05128 -0.02358,-0.11962 0.0134,-0.18064 0.07146,-0.11798 0.0546,-0.1204 -0.16938,-0.02412 -0.200782,0.08652 -0.263484,0.05928 -0.339108,-0.14546 -0.03478,-0.09438 -0.03596,-0.13692 -0.0032,-0.11616 0.02844,0.0182 0.05172,0.0096 0.05172,-0.0202 0,-0.02892 -0.05252,-0.06006 -0.1167,-0.06972 -0.1526,-0.02232 -0.19736,-0.289236 -0.0549,-0.327282 0.08602,-0.02322 0.08628,-0.0256 0.003,-0.03124 -0.06528,-0.0082 -0.09078,-0.05208 -0.09078,-0.1692 0,-0.12808 0.03144,-0.17694 0.14632,-0.227334 0.08048,-0.03524 0.222884,-0.15454 0.316456,-0.264746 0.09358,-0.11022 0.18778,-0.1891 0.209338,-0.17548 0.02156,0.0136 0.200116,-0.02412 0.39678,-0.08346 0.227214,-0.0689 0.480488,-0.1047 0.694736,-0.09798 0.68473,0.0208 0.749486,0.012 1.14118,-0.17502 0.213972,-0.10182 0.540764,-0.251528 0.726206,-0.332768 0.983488,-0.430632 1.326262,-0.59275 1.35946,-0.643234 0.02018,-0.03042 0.0671,-0.05608 0.10424,-0.05688 0.14352,0 0.813884,-0.312794 0.783064,-0.364302 -0.0178,-0.02952 -0.007,-0.03766 0.02368,-0.0182 0.500784,-0.17254 0.83065,-0.337704 1.299334,-0.550392 0.667262,-0.27115 0.92468,-0.42455 1.055886,-0.628978 0.07196,-0.11222 0.13694,-0.227976 0.1444,-0.257376 0.0074,-0.02882 0.05494,-0.11376 0.10552,-0.1873 0.416154,-0.760668 0.815022,-1.423534 1.197076,-2.138146 0.637642,-1.158146 0.726858,-1.379476 0.826998,-2.052274 0.1215,-0.81618 0.17402,-1.067068 0.347052,-1.65848 l 0.13828,-0.473012 -0.210316,-0.19554 c -0.689234,-0.641167 -0.858034,-0.756119 -1.13971,-0.776222 -0.06146,-0.008 -0.10094,-0.02647 -0.08772,-0.04807 0.04234,-0.07049 -0.362306,-0.04165 -0.630472,0.04487 -0.35724,0.115426 -0.535366,0.142904 -0.681844,0.105014 -0.13764,-0.03524 -0.468066,-0.370803 -0.514606,-0.522039 -0.0162,-0.05207 -0.0513,-0.09589 -0.0779,-0.09589 -0.0266,0 -0.04838,-0.04325 -0.04838,-0.09556 0,-0.05207 -0.07142,-0.1389 -0.1587,-0.19201 -0.19724,-0.120214 -0.271428,-0.311827 -0.229466,-0.592674 0.03184,-0.213078 0.19994,-1.186908 0.258946,-1.500198 0.13152,-0.69803 0.14276,-0.828037 0.07846,-0.907982 -0.03612,-0.04485 -0.08714,-0.08163 -0.1134,-0.08163 -0.02624,0 -0.0759,-0.02404 -0.11036,-0.05287 -0.03448,-0.02965 -0.11632,-0.09572 -0.18192,-0.147148 -0.0656,-0.05207 -0.1418,-0.189926 -0.16934,-0.307522 -0.10578,-0.452113 -0.13704,-0.66527 -0.0935,-0.637476 0.02472,0.01602 0.04496,0 0.04496,-0.02721 0,-0.101014 0.335108,-0.527485 0.44091,-0.561292 0.249254,-0.07931 1.282132,-0.19177 1.761766,-0.19177 0.534534,0 0.670128,0.04245 0.844918,0.264987 0.05628,0.07209 0.06096,0.06809 0.035,-0.02404 -0.02998,-0.107014 -0.02998,-0.107014 0.03478,0 0.03562,0.05928 0.11182,0.141624 0.16936,0.184 0.13518,0.09941 0.230698,0.203545 0.422122,0.459876 0.08558,0.114626 0.200162,0.255214 0.25461,0.312327 0.09414,0.09869 0.09602,0.14203 0.03838,0.884276 -0.07378,0.950274 -0.07344,1.557391 10e-4,1.877088 0.03082,0.132414 0.059,0.373126 0.06258,0.535015 0.006,0.271076 0.02384,0.312006 0.227276,0.521465 0.12142,0.12504 0.233106,0.227333 0.248198,0.227333 0.703902,0.706922 1.854376,1.518062 2.203202,2.342096 0.236442,0.442576 0.498832,0.969826 0.646518,1.415922 0.06216,0.19874 0.12284,0.351584 0.13488,0.339726 0.012,-0.0112 0.02816,0.14692 0.03584,0.352858 0.0078,0.205948 0.03456,0.41422 0.05974,0.462682 0.10754,0.20715 0.564624,0.749618 0.602166,0.714694 0.02256,-0.02082 0.0251,-0.0096 0.0056,0.02562 -0.0196,0.03524 0.04024,0.15452 0.13424,0.267388 0.534884,0.518038 0.405706,0.524604 0.826898,0.893726 0.03738,-0.02404 0.04494,-0.0138 0.02048,0.02722 -0.0245,0.04086 0.13002,0.241356 0.419924,0.544952 0.252258,0.264186 0.475148,0.521636 0.495312,0.572104 0.04772,0.11952 0.23134,1.034386 0.56068,2.793238 0.14598,0.779572 0.34855,1.802596 0.45013,2.273354 0.10158,0.470696 0.196,0.909432 0.209834,0.974798 0.02592,0.12258 0.0979,0.208932 0.48068,0.57643 0.1226,0.11768 0.26709,0.310258 0.321116,0.427916 0.05402,0.1177 0.14746,0.298156 0.207668,0.401178 0.08842,0.15124 0.11038,0.279716 0.11438,0.668632 0.0048,0.46693 0.0013,0.481266 -0.11178,0.475 -0.1039,-0.0082 -0.11672,0.0192 -0.11672,0.223658 0,0.266106 -0.18218,0.60616 -0.326674,0.609596 -0.13648,0 -0.334132,-0.241104 -0.537508,-0.66487 -0.213706,-0.44521 -0.204158,-0.433762 -0.295098,-0.355898 -0.09674,0.08284 -0.223254,0.02712 -0.264262,-0.11736 -0.0182,-0.06408 -0.04736,-0.352226 -0.06464,-0.640016 -0.02544,-0.424094 -0.0132,-0.585826 0.06482,-0.851294 l 0.09622,-0.327706 -0.13824,-0.701222 c -0.07604,-0.38563 -0.279992,-1.3025 -0.453232,-2.037372 -0.17326,-0.734814 -0.3656,-1.552584 -0.427454,-1.817422 -0.06184,-0.264808 -0.13132,-0.489522 -0.15438,-0.499434 -0.02302,-0.0096 -0.03156,-0.03446 -0.019,-0.05608 0.04514,-0.07532 -0.17338,-0.940264 -0.252632,-0.999936 -0.0445,-0.03366 -0.0814,-0.08242 -0.08208,-0.10864 -6.5e-4,-0.02646 -0.13052,-0.1921 -0.288596,-0.368562 -0.15808,-0.17656 -0.35192,-0.393154 -0.430762,-0.481426 -0.322604,-0.361112 -0.742464,-0.721746 -0.80042,-0.687618 -0.03362,0.02002 -0.04422,0.0168 -0.02354,-0.008 0.035,-0.04006 -0.255984,-0.34605 -0.33073,-0.347894 -0.04792,0 -0.08372,0.394596 -0.200752,2.21905 -0.13886,2.164834 -0.23017,3.071378 -0.436426,4.332698 -0.10096,0.617514 -0.398968,1.728738 -0.55015,2.051474 -0.05578,0.119 -0.10838,0.26345 -0.1169,0.320982 -0.0086,0.05766 -0.04078,0.13696 -0.07176,0.1766 -0.1808,0.715016 -0.512894,0.851506 -0.76504,1.496042 0.0234,0.03926 0.016,0.04968 -0.019,0.02712 -0.03432,-0.02172 -0.16712,0.14044 -0.332212,0.40614 -0.15128,0.243332 -0.35073,0.550844 -0.443224,0.68336 -0.0925,0.13248 -0.253008,0.373288 -0.356694,0.535016 -0.1037,0.16194 -0.337294,0.503988 -0.519128,0.76046 -0.18184,0.25631 -0.330606,0.492474 -0.330606,0.524622 0,0.03212 -0.0196,0.04572 -0.0435,0.0305 -0.02394,-0.0152 -0.09296,0.06172 -0.15336,0.1707 -0.06042,0.10908 -0.19184,0.292222 -0.292034,0.406866 -0.1002,0.11456 -0.16748,0.234962 -0.14954,0.267402 0.018,0.03286 0.0138,0.04166 -0.0092,0.0194 -0.02302,-0.02076 -0.16096,0.12502 -0.306576,0.325472 -0.411334,0.566274 -1.13936,1.488256 -1.632306,2.067344 -0.07518,0.08832 -0.322132,0.383118 -0.548772,0.655256 -0.226636,0.272044 -0.43088,0.494712 -0.453874,0.494712 -0.023,0 -0.0418,0.02692 -0.0418,0.06008 0,0.03354 -0.05262,0.1116 -0.11688,0.17376 -0.06428,0.06172 -0.18338,0.19734 -0.264634,0.300396 -0.08126,0.10294 -0.13012,0.15336 -0.10854,0.11212 0.02596,-0.04964 0.019,-0.06246 -0.02068,-0.03682 -0.03294,0.02076 -0.05988,0.06732 -0.05988,0.1039 0,0.03604 -0.221034,0.305552 -0.491192,0.598584 -0.270154,0.293064 -0.491906,0.561246 -0.492778,0.595924 -8.12e-4,0.03522 -0.075,0.12222 -0.16472,0.19458 l -0.16312,0.13168 0.1761,0.03848 c 0.298452,0.0657 0.79651,0.253356 0.836668,0.315446 0.02096,0.03288 0.03848,0.03762 0.03892,0.012 5.52e-4,-0.02562 0.0334,-0.0194 0.07332,0.0152 0.03988,0.0346 0.11668,0.07052 0.17066,0.08148 0.05398,0.011 0.221334,0.09444 0.3719,0.18602 0.15058,0.09154 0.259956,0.1434 0.243086,0.11526 -0.0378,-0.06326 0.452114,0.211768 0.496302,0.278466 0.0176,0.02658 0.04728,0.04406 0.06622,0.04002 1.95734,0.862876 3.157428,1.918476 4.88173,2.80834 0.11412,0.05842 0.219156,0.12058 0.233422,0.13884 0.0142,0.0184 0.14702,0.09822 0.295014,0.17768 0.148,0.07932 0.29674,0.17888 0.330552,0.220852 0.0338,0.04246 0.09078,0.07612 0.12658,0.07612 0.0358,0 0.09394,0.03522 0.1292,0.07932 0.03526,0.04324 0.08234,0.06726 0.10464,0.05366 0.02232,-0.0146 0.05452,0.012 0.07156,0.05768 0.0172,0.04568 0.05294,0.06892 0.07972,0.05208 0.0573,-0.03604 0.84202,0.76974 0.806648,0.828716 -0.0132,0.02206 0.0052,0.05202 0.04048,0.06726 0.03548,0.0146 0.11008,0.11938 0.16572,0.232856 0.05566,0.1136 0.13512,0.248686 0.17662,0.300136 0.0415,0.0513 0.05856,0.09358 0.03792,0.09358 -0.02062,0 0.006,0.06652 0.05932,0.14714 0.264914,0.402354 0.285892,0.654122 0.06784,0.814182 -0.16776,0.12318 -0.59016,0.285084 -0.896796,0.343638 -0.10698,0.02012 -0.19452,0.06412 -0.19452,0.09708 0,0.03286 0.0154,0.04406 0.03414,0.02464 0.0186,-0.0194 0.06678,-0.0084 0.10666,0.02692 0.03988,0.0346 0.06848,0.0401 0.06346,0.0128 -0.02264,-0.12282 0.0096,-0.14132 0.08004,-0.04568 0.06194,0.0838 0.0858,0.08982 0.1232,0.03114 0.02764,-0.04324 0.05906,-0.0513 0.07778,-0.02012 0.0174,0.0292 0.13294,0.05446 0.25702,0.05686 0.249178,0.0084 0.502622,0.08662 0.502622,0.16158 0,0.17952 -0.34198,0.225978 -1.801822,0.244792 -0.626908,0.0084 -1.164946,0.0305 -1.195638,0.05044 -0.03068,0.02012 -0.07118,0.0106 -0.08994,-0.02076 -0.02354,-0.03926 -0.05812,-0.03604 -0.11128,0.0098 -0.04596,0.03926 -0.09126,0.04564 -0.1121,0.0158 -0.78488,0.06404 -1.319672,-0.03852 -2.125348,-0.08302 z"/>
 <path style="fill:#8b9cbe" d="m 36.812232,51.898202 c -0.26452,0 -0.488374,-0.13676 -0.67451,-0.211932 -0.350518,-0.315804 -0.14368,-0.15536 0.23284,-0.298578 -0.214116,0.03688 0.04974,0.02076 0.27564,-0.12464 0.07864,0 0.232092,-0.03844 0.341008,-0.08538 0.10892,-0.04646 0.234304,-0.09384 0.278658,-0.10428 0.04436,-0.0104 0.24404,-0.08098 0.443748,-0.15674 0.1997,-0.07612 0.45647,-0.17228 0.570586,-0.214528 0.19488,-0.07208 0.549006,-0.252546 0.955228,-0.486956 0.1756,-0.10128 0.276378,-0.17556 0.48355,-0.356226 0.05902,-0.05126 0.13098,-0.09366 0.15988,-0.09366 0.02892,0 0.03984,-0.0128 0.02432,-0.0292 -0.0156,-0.0158 0.06224,-0.12622 0.17292,-0.245018 0.11064,-0.11874 0.2004,-0.244078 0.19944,-0.278432 -0.0052,-0.18738 -0.369692,-0.433856 -1.658168,-1.121228 -0.328092,-0.17504 -0.64257,-0.351424 -0.698844,-0.391942 -0.05628,-0.04084 -0.14186,-0.07372 -0.1902,-0.07372 -0.04834,0 -0.09566,-0.0194 -0.10518,-0.04168 -1.934972,-0.92688 -3.173558,-1.584278 -5.052868,-2.36563 -0.02002,0 -0.14756,-0.0705 -0.28345,-0.15678 -0.352176,-0.200998 -0.540822,-0.245246 -0.853708,-0.497728 -0.02852,-0.02336 -0.14084,-0.11262 -0.24955,-0.19876 -0.437036,-0.346168 -0.597614,-0.685264 -0.538776,-1.137608 0.0168,-0.12868 0.31973,-0.820768 0.735516,-1.680042 0.38888,-0.803606 0.703744,-1.477256 0.6997,-1.49685 -0.004,-0.0194 0.0142,-0.05044 0.0406,-0.0681 0.09154,-0.06248 0.945798,-1.88957 0.911988,-1.950524 -0.0186,-0.03354 -0.015,-0.04324 0.008,-0.02238 0.04196,0.03928 0.50416,-0.835398 0.508394,-0.961946 0.0013,-0.03686 0.02558,-0.06652 0.05412,-0.06652 0.02854,0 0.03848,-0.0138 0.02212,-0.0305 -0.0375,-0.03844 -0.350632,0.12528 -0.350632,0.1836 0,0.02434 -0.03264,0.04324 -0.07254,0.04324 -1.651968,0.664794 -3.508776,1.688702 -4.96348,2.370236 -0.387602,0.18216 -0.763658,0.38328 -0.835686,0.447024 -0.07726,0.06816 -0.18916,0.285764 -0.272926,0.530006 -0.07808,0.227634 -0.1856,0.471162 -0.238952,0.54107 -0.05336,0.06976 -0.08566,0.13884 -0.0718,0.15308 0.014,0.0146 -0.229414,0.541134 -0.540584,1.170668 -0.759578,1.536718 -0.802682,1.61996 -0.862594,1.665278 -0.02854,0.02174 -0.03074,0.04008 -0.005,0.04008 0.02582,0 0.013,0.04324 -0.02862,0.09448 -0.04156,0.05126 -0.1413,0.23795 -0.221626,0.414456 -0.08034,0.17654 -0.205902,0.403294 -0.27905,0.504022 -0.07314,0.10058 -0.09958,0.16222 -0.05874,0.1368 0.06364,-0.03922 0.06402,-0.03358 0.0024,0.04488 -0.786788,1.58541 -1.775766,3.06069 -2.451478,4.674814 -0.203858,0.374746 -0.32549,0.727174 -0.506016,1.192042 h 0.243744 c 0.820744,0.1006 -0.1315,0.201356 -0.404652,0.232044 -0.990718,0.11022 -4.789125,0.03526 -4.917555,-0.09738 -0.130174,-0.13426 0.504646,-0.19442 2.181195,-0.206678 0.677508,-0.0084 1.231886,-0.011 1.231952,-0.0146 5.4e-5,0 -0.1422,-0.1208 -0.316162,-0.26179 -0.17404,-0.14086 -0.366616,-0.30754 -0.428027,-0.370184 -0.06141,-0.06248 -0.1852,-0.16164 -0.275092,-0.219716 -0.08989,-0.0585 -0.311642,-0.232594 -0.49278,-0.387754 -0.18114,-0.15526 -0.359387,-0.307502 -0.396107,-0.33832 -0.03672,-0.03114 -0.211789,-0.17816 -0.389038,-0.327224 -0.373991,-0.314636 -0.733531,-0.7021 -0.842098,-0.90764 -0.07123,-0.13482 -0.06873,-0.14614 0.04041,-0.1841 0.186594,-0.06488 0.407079,-0.0084 1.100186,0.292448 0.1132,0.04888 0.218234,0.09088 0.23342,0.09334 0.03455,0.0084 0.188202,0.06732 0.390721,0.15484 0.08559,0.03688 0.272325,0.11104 0.414973,0.16398 0.142648,0.05284 0.282703,0.1128 0.311232,0.13312 0.06316,0.04488 0.348332,0.126 0.401432,0.11412 0.02108,-0.0084 0.12612,0.0266 0.233424,0.06812 0.355626,0.14022 0.942016,0.19152 1.454334,0.12716 0.45369,-0.358496 0.773666,-0.924284 0.971244,-1.3813 0.05164,-0.05926 0.07276,-0.10736 0.04696,-0.10774 -0.02582,0 -0.02098,-0.0194 0.0108,-0.04006 0.304524,-0.607602 0.63756,-1.282162 0.89914,-1.85794 0.323372,-0.698014 0.485716,-1.069518 0.50018,-1.14468 0.0078,-0.04168 0.04514,-0.09502 0.0827,-0.1195 0.03756,-0.02464 0.0503,-0.0449 0.02832,-0.0449 -0.02198,0 0.0046,-0.09106 0.05904,-0.201422 0.05446,-0.11032 0.12864,-0.302958 0.16488,-0.427948 0.03622,-0.12504 0.08162,-0.22731 0.10088,-0.22731 0.0192,0 0.03532,-0.02952 0.03566,-0.06652 2.7e-4,-0.03682 0.11176,-0.355738 0.247534,-0.708654 0.279894,-0.72776 0.556432,-1.465936 0.711392,-1.899076 0.05788,-0.16172 0.12508,-0.342274 0.14932,-0.401088 0.02422,-0.05926 0.09408,-0.239442 0.15526,-0.401124 0.06118,-0.1619 0.15704,-0.402548 0.213058,-0.534936 0.05602,-0.13246 0.10512,-0.264842 0.10912,-0.294328 0.004,-0.0292 0.02642,-0.0777 0.0498,-0.10692 0.890748,-1.34383 2.465274,-2.264966 3.56021,-3.267886 0.02404,0.0148 0.18162,-0.09762 0.35013,-0.25089 0.16854,-0.15338 0.329752,-0.297086 0.358282,-0.319504 0.14978,-0.11746 0.783448,-0.6411 1.115932,-0.922264 0.208798,-0.17646 0.498304,-0.41476 0.643346,-0.529498 0.14504,-0.1147 0.27539,-0.224204 0.289654,-0.243268 0.0142,-0.0192 0.17764,-0.15382 0.363078,-0.29951 0.18542,-0.1457 0.375368,-0.304302 0.422088,-0.352526 0.395116,-0.44675 1.012074,-0.793278 1.78249,-1.45462 0.05704,-0.05528 0.15606,-0.13676 0.220006,-0.18104 0.06394,-0.04406 0.10304,-0.10254 0.08692,-0.12944 -0.0162,-0.02744 -0.007,-0.04246 0.02014,-0.03446 0.0776,0.02322 0.379726,-0.225344 0.344856,-0.28357 0.17066,-0.08898 0.328234,-0.233904 0.516696,-0.396116 0.1023,-0.10254 0.186,-0.17294 0.186,-0.15666 0,0.017 0.03008,0 0.06684,-0.04088 0.0855,-0.09042 0.278104,-0.557208 0.316048,-0.76611 0.016,-0.08822 0.06402,-0.30457 0.10664,-0.480878 0.13906,-0.574978 0.229196,-1.580864 0.26129,-2.91579 0.0174,-0.720776 0.04352,-1.430826 0.05822,-1.577898 l 0.02672,-0.26755 -0.344158,0.37449 c -0.323608,0.35206 -0.525702,0.646846 -0.502906,0.733514 0.0056,0.02082 -0.0229,0.02562 -0.06316,0.0096 -0.12694,0.03202 -0.1628,0.13224 -0.231576,0.246886 -0.0172,0.0144 -0.06616,0.0737 -0.10896,0.13058 -0.06136,0.08186 -0.06242,0.09436 -0.005,0.05848 0.04944,-0.03042 0.06096,-0.02562 0.03584,0.0168 -0.02036,0.03446 -0.06106,0.06168 -0.09048,0.06168 -0.07104,0 -0.35496,0.278446 -0.328666,0.322264 0.0112,0.0192 -0.0124,0.03446 -0.05264,0.03446 -0.04028,0 -0.0586,-0.02652 -0.04068,-0.05848 0.018,-0.03202 -0.0122,-0.0192 -0.06712,0.02882 -0.05482,0.04808 -0.15784,0.10568 -0.228918,0.12802 -0.07108,0.02228 -0.26948,0.10718 -0.440912,0.18824 -0.17142,0.08116 -0.650146,0.295894 -1.063824,0.477354 -0.413674,0.18144 -0.88052,0.386742 -1.037434,0.456176 -0.15692,0.06972 -0.4124,0.17766 -0.567754,0.240472 -0.15536,0.06252 -0.61053,0.264988 -1.0115,0.449488 -0.40097,0.18448 -0.827608,0.378794 -0.94808,0.43208 -0.12046,0.05288 -0.206268,0.1179 -0.19066,0.14392 0.0156,0.02652 0.0092,0.04408 -0.0142,0.04008 -0.12068,-0.02172 -0.1793,0.02258 -0.272426,0.205558 -0.14516,0.28523 -0.473602,0.616882 -0.835016,0.843252 -0.17982,0.11272 -0.296448,0.219172 -0.276506,0.25249 0.0194,0.03206 0.0104,0.04244 -0.02068,0.02228 -0.03034,-0.0192 -0.17982,0 -0.332214,0.03844 -0.244444,0.0657 -0.282474,0.06408 -0.323204,-0.0088 -0.02866,-0.05128 -0.02358,-0.11962 0.0134,-0.18064 0.07146,-0.11798 0.0546,-0.1204 -0.16938,-0.02412 -0.200782,0.08652 -0.263484,0.05928 -0.339108,-0.14546 -0.03478,-0.09438 -0.03596,-0.13692 -0.0032,-0.11616 0.02844,0.0182 0.05172,0.0096 0.05172,-0.0202 0,-0.02892 -0.05252,-0.06006 -0.1167,-0.06972 -0.1526,-0.02232 -0.19736,-0.289236 -0.0549,-0.327282 0.08602,-0.02322 0.08628,-0.0256 0.003,-0.03124 -0.06528,-0.0082 -0.09078,-0.05208 -0.09078,-0.1692 0,-0.12808 0.03144,-0.17694 0.14632,-0.227334 0.08048,-0.03524 0.222884,-0.15454 0.316456,-0.264746 0.09358,-0.11022 0.18778,-0.1891 0.209338,-0.17548 0.02156,0.0136 0.200116,-0.02412 0.39678,-0.08346 0.227214,-0.0689 0.480488,-0.1047 0.694736,-0.09798 0.68473,0.0208 0.749486,0.012 1.14118,-0.17502 0.213972,-0.10182 0.540764,-0.251528 0.726206,-0.332768 0.983488,-0.430632 1.326262,-0.59275 1.35946,-0.643234 0.02018,-0.03042 0.0671,-0.05608 0.10424,-0.05688 0.14352,0 0.813884,-0.312794 0.783064,-0.364302 -0.0178,-0.02952 -0.007,-0.03766 0.02368,-0.0182 0.500784,-0.17254 0.83065,-0.337704 1.299334,-0.550392 0.667262,-0.27115 0.92468,-0.42455 1.055886,-0.628978 0.07196,-0.11222 0.13694,-0.227976 0.1444,-0.257376 0.0074,-0.02882 0.05494,-0.11376 0.10552,-0.1873 0.416154,-0.760668 0.815022,-1.423534 1.197076,-2.138146 0.637642,-1.158146 0.726858,-1.379476 0.826998,-2.052274 0.1215,-0.81618 0.17402,-1.067068 0.347052,-1.65848 l 0.13828,-0.473012 -0.210316,-0.195536 c -0.689234,-0.641171 -0.858034,-0.756123 -1.13971,-0.776226 -0.06146,-0.008 -0.10094,-0.02647 -0.08772,-0.04807 0.04234,-0.07049 -0.362306,-0.04165 -0.630472,0.04487 -0.35724,0.115426 -0.535366,0.142904 -0.681844,0.105014 -0.13764,-0.03524 -0.468066,-0.370803 -0.514606,-0.522039 -0.0162,-0.05207 -0.0513,-0.09589 -0.0779,-0.09589 -0.0266,0 -0.04838,-0.04325 -0.04838,-0.09556 0,-0.05207 -0.07142,-0.1389 -0.1587,-0.19201 -0.19724,-0.120214 -0.271428,-0.311827 -0.229466,-0.592674 0.03184,-0.213078 0.19994,-1.186908 0.258946,-1.500198 0.13152,-0.69803 0.14276,-0.828037 0.07846,-0.907982 -0.03612,-0.04485 -0.08714,-0.08163 -0.1134,-0.08163 -0.02624,0 -0.0759,-0.02404 -0.11036,-0.05287 -0.03448,-0.02965 -0.11632,-0.09572 -0.18192,-0.147148 -0.0656,-0.05207 -0.1418,-0.189926 -0.16934,-0.307522 -0.10578,-0.452113 -0.13704,-0.66527 -0.0935,-0.637476 0.02472,0.01602 0.04496,0 0.04496,-0.02721 0,-0.101014 0.335108,-0.527485 0.44091,-0.561292 0.249254,-0.07931 1.282132,-0.19177 1.761766,-0.19177 0.534534,0 0.670128,0.04245 0.844918,0.264987 0.05628,0.07209 0.06096,0.06809 0.035,-0.02404 -0.02998,-0.107014 -0.02998,-0.107014 0.03478,0 0.03562,0.05928 0.11182,0.141624 0.16936,0.184 0.13518,0.09941 0.230698,0.203545 0.422122,0.459876 0.08558,0.114626 0.200162,0.255214 0.25461,0.312327 0.09414,0.09869 0.09602,0.14203 0.03838,0.884276 -0.07378,0.950274 -0.07344,1.557391 10e-4,1.877088 0.03082,0.132414 0.059,0.373126 0.06258,0.535015 0.006,0.271076 0.02384,0.312006 0.227276,0.521465 0.12142,0.12504 0.233106,0.227333 0.248198,0.227333 0.703902,0.706922 1.854376,1.518061 2.203202,2.342096 0.236442,0.442576 0.498832,0.969826 0.646518,1.415922 0.06216,0.19874 0.12284,0.351584 0.13488,0.339726 0.012,-0.0112 0.02816,0.14692 0.03584,0.352858 0.0078,0.205948 0.03456,0.41422 0.05974,0.462682 0.10754,0.20715 0.564624,0.749618 0.602166,0.714694 0.02256,-0.02082 0.0251,-0.0096 0.0056,0.02562 -0.0196,0.03524 0.04024,0.15452 0.13424,0.267388 0.534884,0.518038 0.405706,0.524604 0.826898,0.893726 0.03738,-0.02404 0.04494,-0.0138 0.02048,0.02722 -0.0245,0.04086 0.13002,0.241356 0.419924,0.544952 0.252258,0.264186 0.475148,0.521636 0.495312,0.572104 0.04772,0.11952 0.23134,1.034386 0.56068,2.793238 0.14598,0.779572 0.34855,1.802596 0.45013,2.273354 0.10158,0.470696 0.196,0.909432 0.209834,0.974798 0.02592,0.12258 0.0979,0.208932 0.48068,0.57643 0.1226,0.11768 0.26709,0.310258 0.321116,0.427916 0.05402,0.1177 0.14746,0.298156 0.207668,0.401178 0.08842,0.15124 0.11038,0.279716 0.11438,0.668632 0.0048,0.46693 0.0013,0.481266 -0.11178,0.475 -0.1039,-0.0082 -0.11672,0.0192 -0.11672,0.223658 0,0.266106 -0.18218,0.60616 -0.326674,0.609596 -0.13648,0 -0.334132,-0.241104 -0.537508,-0.66487 -0.213706,-0.44521 -0.204158,-0.433762 -0.295098,-0.355898 -0.09674,0.08284 -0.223254,0.02712 -0.264262,-0.11736 -0.0182,-0.06408 -0.04736,-0.352226 -0.06464,-0.640016 -0.02544,-0.424094 -0.0132,-0.585826 0.06482,-0.851294 l 0.09622,-0.327706 -0.13824,-0.701222 c -0.07604,-0.38563 -0.279992,-1.3025 -0.453232,-2.037372 -0.17326,-0.734814 -0.3656,-1.552584 -0.427454,-1.817422 -0.06184,-0.264808 -0.13132,-0.489522 -0.15438,-0.499434 -0.02302,-0.0096 -0.03156,-0.03446 -0.019,-0.05608 0.04514,-0.07532 -0.17338,-0.940264 -0.252632,-0.999936 -0.0445,-0.03366 -0.0814,-0.08242 -0.08208,-0.10864 -6.5e-4,-0.02646 -0.13052,-0.1921 -0.288596,-0.368562 -0.15808,-0.17656 -0.35192,-0.393154 -0.430762,-0.481426 -0.322604,-0.361112 -0.742464,-0.721746 -0.80042,-0.687618 -0.03362,0.02002 -0.04422,0.0168 -0.02354,-0.008 0.035,-0.04006 -0.255984,-0.34605 -0.33073,-0.347894 -0.04792,0 -0.08372,0.394596 -0.200752,2.21905 -0.13886,2.164834 -0.23017,3.071378 -0.436426,4.332698 -0.10096,0.617514 -0.398968,1.728738 -0.55015,2.051474 -0.05578,0.119 -0.10838,0.26345 -0.1169,0.320982 -0.0086,0.05766 -0.04078,0.13696 -0.07176,0.1766 -0.1808,0.715016 -0.512894,0.851506 -0.76504,1.496042 0.0234,0.03926 0.016,0.04968 -0.019,0.02712 -0.03432,-0.02172 -0.16712,0.14044 -0.332212,0.40614 -0.15128,0.243332 -0.35073,0.550844 -0.443224,0.68336 -0.0925,0.13248 -0.253008,0.373288 -0.356694,0.535016 -0.1037,0.16194 -0.337294,0.503988 -0.519128,0.76046 -0.18184,0.25631 -0.330606,0.492474 -0.330606,0.524622 0,0.03212 -0.0196,0.04572 -0.0435,0.0305 -0.02394,-0.0152 -0.09296,0.06172 -0.15336,0.1707 -0.06042,0.10908 -0.19184,0.292222 -0.292034,0.406866 -0.1002,0.11456 -0.16748,0.234962 -0.14954,0.267402 0.018,0.03286 0.0138,0.04166 -0.0092,0.0194 -0.02302,-0.02076 -0.16096,0.12502 -0.306576,0.325472 -0.411334,0.566274 -1.13936,1.488256 -1.632306,2.067344 -0.07518,0.08832 -0.322132,0.383118 -0.548772,0.655256 -0.226636,0.272044 -0.43088,0.494712 -0.453874,0.494712 -0.023,0 -0.0418,0.02692 -0.0418,0.06008 0,0.03354 -0.05262,0.1116 -0.11688,0.17376 -0.06428,0.06172 -0.18338,0.19734 -0.264634,0.300396 -0.08126,0.10294 -0.13012,0.15336 -0.10854,0.11212 0.02596,-0.04964 0.019,-0.06246 -0.02068,-0.03682 -0.03294,0.02076 -0.05988,0.06732 -0.05988,0.1039 0,0.03604 -0.221034,0.305552 -0.491192,0.598584 -0.270154,0.293064 -0.491906,0.561246 -0.492778,0.595924 -8.12e-4,0.03522 -0.075,0.12222 -0.16472,0.19458 l -0.16312,0.13168 0.1761,0.03848 c 0.298452,0.0657 0.79651,0.253356 0.836668,0.315446 0.02096,0.03288 0.03848,0.03762 0.03892,0.012 5.52e-4,-0.02562 0.0334,-0.0194 0.07332,0.0152 0.03988,0.0346 0.11668,0.07052 0.17066,0.08148 0.05398,0.011 0.221334,0.09444 0.3719,0.18602 0.15058,0.09154 0.259956,0.1434 0.243086,0.11526 -0.0378,-0.06326 0.452114,0.211768 0.496302,0.278466 0.0176,0.02658 0.04728,0.04406 0.06622,0.04002 1.95734,0.862876 3.157428,1.918476 4.88173,2.80834 0.11412,0.05842 0.219156,0.12058 0.233422,0.13884 0.0142,0.0184 0.14702,0.09822 0.295014,0.17768 0.148,0.07932 0.29674,0.17888 0.330552,0.220852 0.0338,0.04246 0.09078,0.07612 0.12658,0.07612 0.0358,0 0.09394,0.03522 0.1292,0.07932 0.03526,0.04324 0.08234,0.06726 0.10464,0.05366 0.02232,-0.0146 0.05452,0.012 0.07156,0.05768 0.0172,0.04568 0.05294,0.06892 0.07972,0.05208 0.0573,-0.03604 0.84202,0.76974 0.806648,0.828716 -0.0132,0.02206 0.0052,0.05202 0.04048,0.06726 0.03548,0.0146 0.11008,0.11938 0.16572,0.232856 0.05566,0.1136 0.13512,0.248686 0.17662,0.300136 0.0415,0.0513 0.05856,0.09358 0.03792,0.09358 -0.02062,0 0.006,0.06652 0.05932,0.14714 0.264914,0.402354 0.285892,0.654122 0.06784,0.814182 -0.16776,0.12318 -0.59016,0.285084 -0.896796,0.343638 -0.10698,0.02012 -0.19452,0.06412 -0.19452,0.09708 0,0.03286 0.0154,0.04406 0.03414,0.02464 0.0186,-0.0194 0.06678,-0.0084 0.10666,0.02692 0.03988,0.0346 0.06848,0.0401 0.06346,0.0128 -0.02264,-0.12282 0.0096,-0.14132 0.08004,-0.04568 0.06194,0.0838 0.0858,0.08982 0.1232,0.03114 0.02764,-0.04324 0.05906,-0.0513 0.07778,-0.02012 0.0174,0.0292 0.13294,0.05446 0.25702,0.05686 0.249178,0.0084 0.502622,0.08662 0.502622,0.16158 0,0.17952 -0.34198,0.225978 -1.801822,0.244792 -0.626908,0.0084 -1.164946,0.0305 -1.195638,0.05044 -0.03068,0.02012 -0.07118,0.0106 -0.08994,-0.02076 -0.02354,-0.03926 -0.05812,-0.03604 -0.11128,0.0098 -0.04596,0.03926 -0.09126,0.04564 -0.1121,0.0158 -0.78488,0.06404 -1.319672,-0.03852 -2.125348,-0.08302 z"/>
 <path style="opacity:0.1;fill:#8b9cbe" d="M 6.8007812 4 C 5.2495812 4 4 5.2495812 4 6.8007812 L 4 7.8007812 C 4 6.2495813 5.2495812 5 6.8007812 5 L 57.199219 5 C 58.750419 5 60 6.2495812 60 7.8007812 L 60 6.8007812 C 60 5.2495813 58.750419 4 57.199219 4 L 6.8007812 4 z"/>
</svg>
