<svg xmlns="http://www.w3.org/2000/svg" width="64" height="64" version="1">
 <path style="opacity:.2" d="m8.5999998 7.0000002h46.8c1.4404 0 2.6 1.1527948 2.6 2.5847418v46.830516c0 1.431948-1.1596 2.584742-2.6 2.584742h-46.8c-1.4404 0-2.6-1.152794-2.6-2.584742v-46.830516c0-1.431947 1.1596-2.5847418 2.6-2.5847418z"/>
 <path style="fill:#4f4f4f" d="m8.5999998 6.0000002h46.8c1.4404 0 2.6 1.152795 2.6 2.584742v46.830516c0 1.431948-1.1596 2.584742-2.6 2.584742h-46.8c-1.4404 0-2.6-1.152794-2.6-2.584742v-46.830516c0-1.431947 1.1596-2.584742 2.6-2.584742z"/>
 <path style="opacity:.2;stroke-linejoin:round;stroke:#000000;stroke-linecap:round;stroke-width:6;fill:none" d="m5 33.000686h18l6.263214-14 5.473572 28 6.263214-14h18"/>
 <path style="stroke-linejoin:round;stroke:#659fff;stroke-linecap:round;stroke-width:6;fill:none" d="m5 32h18l6.263214-14 5.473572 28 6.263214-14h18"/>
 <path style="opacity:.1;fill:#8b9cbe" d="m8.6015625 6c-1.4404 0-2.6015625 1.1539903-2.6015625 2.5859375v1c0-1.4319472 1.1611625-2.5859375 2.6015625-2.5859375h46.796876c1.4404 0 2.601562 1.1539905 2.601562 2.5859375v-1c0-1.431947-1.161162-2.5859375-2.601562-2.5859375h-46.796876z"/>
</svg>
