<svg xmlns="http://www.w3.org/2000/svg" width="64" height="64" version="1.1">
 <path style="opacity:0.2" d="M 18.316406,7.7304688 6,14.917969 v 14.218749 l 5.992188,3.5625 v -14.218749 -0.0078 l 0.01562,0.0078 11.882812,-7.507813 z M 40,9.125 32,13.738281 18,21.84375 V 38 47.28125 L 40,60 62,47.28125 v -25.4375 z"/>
 <path style="fill:#ff7857" d="m 40,33.562502 11,6.349232 11,6.369518 V 20.843754 Z"/>
 <path style="fill:#d04134" d="M 51,39.911734 40,33.562502 V 59 L 62,46.281252 Z"/>
 <path style="fill:#ffb99f" d="m 32,12.74 v 16.2 L 40,33.562502 62,20.843754 40,8.1250046 Z"/>
 <path style="fill:#ff7857" d="M 18,46.281252 40,59 V 33.562502 L 32,28.94 18,37 Z"/>
 <path style="fill:#ff7857" d="M 32,28.94 V 12.74 L 18,20.843752 Z"/>
 <path style="fill:#d04134" d="M 32,28.94 18,20.843754 V 37 Z"/>
 <path style="fill:#ff7857" d="M 6,13.919158 12.008648,17.482245 23.89,9.97362 18.315135,6.731919 Z"/>
 <path style="fill:#d04134" d="M 6,28.136904 11.991352,31.7 v -14.217755 -0.0173 L 6,13.919158 Z"/>
 <path style="fill:#822826" d="M 11.991352,31.7 6,13.919158 v 14.217746 z"/>
 <path style="opacity:0.2;fill:#8b9cbe" d="M 18.316406 6.7304688 L 6 13.917969 L 6 14.917969 L 18.316406 7.7304688 L 23.066406 10.494141 L 23.890625 9.9726562 L 18.316406 6.7304688 z M 40 8.125 L 32 12.738281 L 18 20.84375 L 18 21.84375 L 32 13.738281 L 40 9.125 L 62 21.84375 L 62 20.84375 L 40 8.125 z"/>
 <path style="opacity:0.2" d="M 12.007812,17.482422 6.8496094,14.423828 6,14.919922 l 6.007812,3.5625 c 0,0 -0.01646,-1.017477 0,-1 z m 6.855469,3.861328 -0.863281,0.5 14,8.095703 8,4.623047 11,6.349609 11,6.369141 v -1 L 51,39.912109 40,33.5625 32,28.939453 Z"/>
</svg>
