<svg xmlns="http://www.w3.org/2000/svg" width="64" height="64" version="1">
 <rect style="opacity:0.2" width="56" height="56" x="4" y="5" rx="2.8" ry="2.8"/>
 <rect style="fill:#876e5b" width="56" height="56" x="4" y="4" rx="2.8" ry="2.8"/>
 <path style="opacity:0.6;fill:none;stroke:#8b9cbe;stroke-width:2" d="m 32,23 v 8"/>
 <path style="opacity:0.6;fill:none;stroke:#8b9cbe;stroke-width:2" d="m 38,39 4.846409,7.100324"/>
 <path style="opacity:0.6;fill:none;stroke:#8b9cbe;stroke-width:2" d="m 26,39 -4.846409,7.100324"/>
 <path style="opacity:0.6;fill:none;stroke:#8b9cbe;stroke-width:2" d="m 13.8,46 c 0,0 1.258741,-12.756131 4.09967,-18.338568 C 19.845182,23.838494 26.4,18 26.4,18"/>
 <path style="opacity:0.6;fill:none;stroke:#8b9cbe;stroke-width:2" d="M 50.2,46 C 50.2,46 48.941259,33.243869 46.10033,27.661432 44.154818,23.838494 37.6,18 37.6,18"/>
 <path style="opacity:0.2" d="m 32,9 c -4.406136,0 -8,3.593864 -8,8 0,4.406136 3.593864,8 8,8 4.406136,0 8,-3.593864 8,-8 0,-4.406136 -3.593864,-8 -8,-8 z"/>
 <path style="fill:#8b9cbe" d="m 32,8 c -4.406136,0 -8,3.593864 -8,8 0,4.406136 3.593864,8 8,8 4.406136,0 8,-3.593864 8,-8 0,-4.406136 -3.593864,-8 -8,-8 z"/>
 <path style="opacity:0.2" d="M 23.139187,30 A 1.139558,1.1254601 0 0 0 22,31.125093 v 8.749813 A 1.139558,1.1254601 0 0 0 23.139187,41 H 40.860813 A 1.139558,1.1254601 0 0 0 42,39.874906 V 31.125093 A 1.139558,1.1254601 0 0 0 40.860813,30 Z"/>
 <path style="fill:#8b9cbe" d="M 23.139187,29 A 1.139558,1.1254601 0 0 0 22,30.125093 v 8.749813 A 1.139558,1.1254601 0 0 0 23.139187,40 H 40.860813 A 1.139558,1.1254601 0 0 0 42,38.874906 V 30.125093 A 1.139558,1.1254601 0 0 0 40.860813,29 Z"/>
 <path style="opacity:0.2" d="M 9.139187,46 A 1.139558,1.1254601 0 0 0 8,47.125093 v 8.749813 A 1.139558,1.1254601 0 0 0 9.139187,57 H 26.860813 A 1.139558,1.1254601 0 0 0 28,55.874906 V 47.125093 A 1.139558,1.1254601 0 0 0 26.860813,46 Z"/>
 <path style="fill:#8b9cbe" d="M 9.139187,45 A 1.139558,1.1254601 0 0 0 8,46.125093 v 8.749813 A 1.139558,1.1254601 0 0 0 9.139187,56 H 26.860813 A 1.139558,1.1254601 0 0 0 28,54.874906 V 46.125093 A 1.139558,1.1254601 0 0 0 26.860813,45 Z"/>
 <path style="opacity:0.2" d="M 37.139187,46 A 1.139558,1.1254601 0 0 0 36,47.125093 v 8.749813 A 1.139558,1.1254601 0 0 0 37.139187,57 H 54.860813 A 1.139558,1.1254601 0 0 0 56,55.874906 V 47.125093 A 1.139558,1.1254601 0 0 0 54.860813,46 Z"/>
 <path style="fill:#8b9cbe" d="M 37.139187,45 A 1.139558,1.1254601 0 0 0 36,46.125093 v 8.749813 A 1.139558,1.1254601 0 0 0 37.139187,56 H 54.860813 A 1.139558,1.1254601 0 0 0 56,54.874906 V 46.125093 A 1.139558,1.1254601 0 0 0 54.860813,45 Z"/>
 <path style="fill:#8b9cbe;opacity:0.1" d="M 6.8007812 4 C 5.2495813 4 4 5.2495813 4 6.8007812 L 4 7.8007812 C 4 6.2495813 5.2495813 5 6.8007812 5 L 57.199219 5 C 58.750419 5 60 6.2495813 60 7.8007812 L 60 6.8007812 C 60 5.2495813 58.750419 4 57.199219 4 L 6.8007812 4 z"/>
</svg>
