<svg xmlns="http://www.w3.org/2000/svg" width="64" height="64" version="1.1">
 <circle style="opacity:0.2" cx="32" cy="33" r="28"/>
 <circle style="fill:#35c9ec" cx="32" cy="32" r="28"/>
 <path style="fill:#414141" d="m 46.840906,42 c -1.80303,0 -3.37121,-0.336068 -4.704544,-1.008206 -1.333334,-0.687768 -2.35606,-1.656896 -3.06818,-2.907386 C 38.356062,36.83392 38,35.380228 38,33.72333 c 0,-2.297772 0.416666,-4.337632 1.249998,-6.119578 0.848486,-1.781948 1.992424,-3.157484 3.431816,-4.126612 C 44.121208,22.49238 45.43589,22 47.193464,22 c 1.636366,0 2.878788,0.437672 3.727274,1.313012 0.848486,0.85971 1.272724,2.000782 1.272724,3.423214 -0.0613,1.458624 -0.823034,2.215042 -1.886364,2.451392 -0.424238,0 -0.757572,-0.1016 -0.999996,-0.304808 -0.242424,-0.203204 -0.363638,-0.500196 -0.363638,-0.890972 0.294444,-0.928404 0.13396,-1.730264 -0.11694,-2.538336 -0.351266,-0.52039 -0.971374,-0.780584 -1.860318,-0.780584 -1,0 -1.670744,0.33607 -2.579834,1.008208 -0.90909,0.672136 -1.64394,1.664712 -2.204544,2.977726 -0.560606,1.29738 -0.84091,2.84486 -0.84091,4.642438 0,1.875732 0.507576,3.329426 1.522726,4.361078 1.015152,1.016022 2.515152,1.524034 4.499998,1.524034 0.984848,0 1.977272,-0.12504 2.977272,-0.375148 1.015152,-0.265728 2.136364,-0.664322 3.363636,-1.195778 0.22727,-0.09378 0.416664,-0.14068 0.568182,-0.14068 0.242422,0 0.42424,0.09378 0.545454,0.281358 0.1212,0.18758 0.18182,0.429858 0.18182,0.726848 0,0.953496 -0.5,1.656896 -1.5,2.110198 -1.075758,0.484564 -2.196968,0.84408 -3.363634,1.078548 C 48.98485,41.890584 47.886366,42 46.840914,42 Z"/>
 <path style="opacity:0.2" d="m 14.867188,23 c -0.921467,0 -1.701517,0.016 -2.34375,0.04688 -1.368238,0.07742 -2.050782,0.642274 -2.050782,1.695312 0,0.325196 0.08803,0.579796 0.269532,0.765624 0.195462,0.17034 0.544256,0.257812 1.046874,0.257812 l 1.761719,-0.02344 c -0.223385,1.904758 -0.474674,3.754408 -0.753906,5.55078 l -0.460937,3.04297 c -0.153578,1.022068 -0.399297,2.772252 -0.734376,5.25 l -0.0625,0.511718 -0.984374,0.02344 C 9.744914,40.136588 9.1186464,40.29966 8.671875,40.609376 8.2251036,40.919088 8,41.352664 8,41.910156 c 0,0.356178 0.103076,0.626672 0.3125,0.8125 C 8.5219238,42.908486 8.7826886,43 9.0898438,43 c 0.195462,0 0.5236418,-0.03978 0.9843752,-0.11718 1.04712,-0.17034 2.011043,-0.253906 2.890625,-0.253906 0.223386,0 0.680827,0.016 1.378906,0.04688 0.753928,0.03096 1.30721,0.04688 1.65625,0.04688 0.516581,0 0.91608,-0.13922 1.195312,-0.417968 0.293193,-0.278746 0.4375,-0.620808 0.4375,-1.023438 0,-0.43361 -0.133166,-0.759764 -0.398437,-0.976562 -0.26527,-0.216798 -0.767847,-0.32422 -1.507813,-0.32422 -0.502616,0 -0.898211,0.008 -1.191406,0.02344 0.1815,-1.53311 0.423312,-3.438422 0.730469,-5.714844 l 0.441406,-3.042968 c 0.05585,-0.371662 0.209628,-1.38599 0.460938,-3.04297 0.223387,-1.486646 0.34708,-2.32198 0.375,-2.507812 0.418849,-0.0154 1.033976,-0.02344 1.84375,-0.02344 0.516578,0 0.91608,-0.14716 1.195312,-0.441408 C 19.861262,24.920756 20,24.518982 20,24.023438 c 0,-0.278748 -0.127599,-0.513388 -0.378906,-0.69922 -0.251309,-0.201314 -0.554966,-0.30078 -0.917969,-0.30078 z m 8.296874,8 c -0.629402,0 -1.123236,0.11768 -1.480468,0.355468 -0.340218,0.220804 -0.585182,0.577742 -0.738282,1.070314 C 20.315908,34.413048 20,36.510692 20,38.71875 c 0,1.494696 0.12766,2.582324 0.382812,3.261718 C 20.65499,42.65988 21.115302,43 21.761718,43 c 0.52734,0 0.910286,-0.13448 1.148438,-0.40625 0.255164,-0.28875 0.476942,-0.834524 0.664062,-1.632812 0.221144,-0.917198 0.50996,-1.849606 0.867188,-2.800782 0.37424,-0.951164 0.757184,-1.732288 1.148438,-2.34375 0.39125,-0.611466 0.713584,-0.917968 0.96875,-0.917968 0.18712,0 0.28125,0.13448 0.28125,0.40625 0,0.339698 -0.07094,1.053572 -0.207032,2.140624 -0.1701,1.22293 -0.253906,2.159258 -0.253906,2.804688 0,0.764326 0.13798,1.417404 0.410156,1.960938 C 27.078248,42.737472 27.501138,43 28.0625,43 c 0.54435,0 0.937626,-0.13448 1.175782,-0.40625 0.255162,-0.271754 0.473036,-0.817528 0.660156,-1.632812 0.255162,-1.036092 0.58783,-2.01893 0.996094,-2.953126 0.40826,-0.93418 0.818296,-1.681686 1.226562,-2.242188 0.408262,-0.577498 0.720264,-0.867186 0.941406,-0.867186 0.18712,0 0.28125,0.13448 0.28125,0.40625 0,0.407644 -0.11088,1.148694 -0.332032,2.21875 -0.238152,1.222928 -0.355468,2.071286 -0.355468,2.546874 0,0.951162 0.221778,1.681852 0.664062,2.191406 C 33.762596,42.754288 34.417598,43 35.285156,43 c 1.071688,0 2.021932,-0.289688 2.855468,-0.867188 0.850548,-0.577484 1.643532,-1.314628 2.375,-2.214844 C 40.838834,39.544292 41,39.015334 41,38.335938 c 0,-0.356694 -0.06704,-0.636022 -0.203124,-0.839844 -0.11908,-0.203824 -0.290578,-0.304688 -0.51172,-0.304688 -0.255164,0 -0.48337,0.11768 -0.6875,0.35547 -0.782504,0.934192 -1.41432,1.614434 -1.890624,2.039062 -0.459296,0.407642 -0.859,0.61328 -1.19922,0.61328 -0.493316,0 -0.73828,-0.340122 -0.73828,-1.01953 0,-0.475588 0.16116,-1.45199 0.484374,-2.929688 0.374242,-1.732484 0.5625,-2.931336 0.5625,-3.59375 C 36.816406,31.552216 36.26196,31 35.15625,31 c -0.90158,0 -1.872488,0.47462 -2.910156,1.425782 -1.037666,0.951162 -1.981484,2.47332 -2.832032,4.5625 0.05104,-0.305734 0.14516,-0.763536 0.28125,-1.375 0.323206,-1.426752 0.484376,-2.413512 0.484376,-2.957032 0,-0.560514 -0.12764,-0.978246 -0.382812,-1.25 C 29.55872,31.134484 29.142258,31 28.546876,31 c -0.595382,0 -1.233626,0.228914 -1.914064,0.6875 -0.663428,0.441622 -1.318428,1.121866 -1.964844,2.039062 -0.629404,0.917196 -1.173518,2.038456 -1.632812,3.363282 0.06804,-0.747342 0.15574,-1.366804 0.257812,-1.859376 0.10206,-0.509552 0.23614,-1.10576 0.40625,-1.785156 0.255164,-0.95116 0.382814,-1.560262 0.382814,-1.83203 0,-0.237796 -0.06704,-0.399456 -0.203126,-0.484376 C 23.74282,31.044 23.504282,31 23.164062,31 Z"/>
 <path style="fill:#8b9cbe" d="m 18.701571,22.02322 q 0.544505,0 0.921468,0.301972 Q 20,22.603938 20,23.022058 q 0,0.743318 -0.418847,1.207888 -0.418849,0.441362 -1.193716,0.441362 -1.21466,0 -1.842934,0.02322 -0.04188,0.278746 -0.376961,2.508716 -0.376966,2.48547 -0.460735,3.042962 l -0.439789,3.042982 q -0.460735,3.414632 -0.732986,5.714298 0.439792,-0.02322 1.193718,-0.02322 1.109948,0 1.507853,0.325196 0.397907,0.325198 0.397907,0.975612 0,0.603944 -0.439789,1.022062 -0.418849,0.418118 -1.193719,0.418118 -0.52356,0 -1.654452,-0.04644 -1.047119,-0.04646 -1.382199,-0.04646 -1.319372,0 -2.890052,0.255522 Q 9.382199,42 9.089005,42 8.6282722,42 8.3141364,41.721254 8,41.442512 8,40.908246 8,40.072008 8.670157,39.607438 9.3403142,39.142866 10.554974,39.119624 l 0.984294,-0.02322 0.06283,-0.511022 q 0.502618,-3.716622 0.732985,-5.249726 l 0.460733,-3.042962 q 0.418848,-2.69456 0.753927,-5.551698 l -1.759162,0.02322 q -0.753928,0 -1.047121,-0.255522 -0.272252,-0.278744 -0.272252,-0.76654 0,-1.579556 2.052357,-1.695702 Q 13.486911,22 14.869111,22 Z"/>
 <path style="fill:#8b9cbe" d="M 21.760632,42 Q 20.791008,42 20.382742,40.980884 20,39.961792 20,37.719748 q 0,-3.312086 0.944106,-6.292986 0.229648,-0.738858 0.739974,-1.070062 0.535848,-0.35668 1.479952,-0.35668 0.51033,0 0.71446,0.12736 0.20413,0.12738 0.20413,0.484072 0,0.407654 -0.382744,1.834396 -0.255166,1.019094 -0.408266,1.783424 -0.1531,0.738856 -0.255162,1.85987 0.688942,-1.98724 1.63305,-3.363034 0.969622,-1.375796 1.964764,-2.03823 Q 27.65492,30 28.547992,30 q 0.893074,0 1.250306,0.407648 0.382744,0.407632 0.382744,1.248404 0,0.81528 -0.484808,2.955406 -0.20413,0.917196 -0.280684,1.375796 1.275822,-3.133768 2.832322,-4.560512 Q 33.804374,30 35.156744,30 q 1.658566,0 1.658566,1.656052 0,0.99362 -0.561362,3.592346 -0.484812,2.216548 -0.484812,2.92993 0,1.019114 0.739976,1.019114 0.510328,0 1.199272,-0.611464 0.714458,-0.63694 1.888214,-2.03823 0.306196,-0.356682 0.688942,-0.356682 0.331712,0 0.510328,0.305736 0.20413,0.305732 0.20413,0.840772 0,1.019094 -0.484814,1.57961 -1.097204,1.350322 -2.373026,2.216548 -1.250304,0.866248 -2.857836,0.866248 -1.301338,0 -1.964764,-0.738854 -0.663426,-0.764332 -0.663426,-2.191074 0,-0.713384 0.35723,-2.547778 0.331712,-1.605082 0.331712,-2.216548 0,-0.40765 -0.28068,-0.40765 -0.331714,0 -0.944106,0.866248 -0.612398,0.840752 -1.22479,2.242022 -0.612396,1.401292 -0.99514,2.955428 -0.28068,1.222928 -0.663424,1.630558 -0.357232,0.407648 -1.173756,0.407648 -0.842042,0 -1.27582,-0.789802 -0.408262,-0.8153 -0.408262,-1.961788 0,-0.968144 0.255164,-2.802538 0.204128,-1.630578 0.204128,-2.140126 0,-0.40765 -0.280678,-0.40765 -0.382748,0 -0.969624,0.917198 -0.58688,0.917194 -1.14824,2.34394 -0.535842,1.426764 -0.867556,2.80256 -0.280682,1.197432 -0.663428,1.630558 -0.357228,0.407648 -1.148236,0.407648 z"/>
 <path style="opacity:0.2;fill:#8b9cbe" d="M 32 4 A 28 28 0 0 0 4 32 A 28 28 0 0 0 4.0175781 32.492188 A 28 28 0 0 1 32 5 A 28 28 0 0 1 59.974609 32.492188 A 28 28 0 0 0 60 32 A 28 28 0 0 0 32 4 z"/>
</svg>
