<svg xmlns="http://www.w3.org/2000/svg" width="64" height="64" version="1">
 <rect style="opacity:0.2" width="52" height="52" x="1" y="7" rx="6.118" ry="6.118"/>
 <path style="opacity:0.2" d="M 53,18.857142 63,10.999999 V 55 L 53,47.142858 Z"/>
 <rect style="fill:#1c6bdd" width="52" height="52" x="1" y="6" rx="6.118" ry="6.118"/>
 <rect style="fill:none" width="49.6" height="49.6" x="7.2" y="6.83"/>
 <path style="fill:#1f56a8" d="M 53,17.857143 63,10 V 54 L 53,46.142858 Z"/>
 <path style="opacity:0.2" d="m 13,16 v 14 6 14 H 31.667968 C 36.822626,50 41,45.098012 41,40 41,37.405878 39.909948,34.872574 38.167968,33 39.909948,31.127426 41,28.594122 41,26 41,20.901988 36.822626,16 31.667968,16 Z m 6,6 H 31.667968 C 33.459888,22 35,24.227772 35,26 c 0,1.772228 -1.540244,4.021762 -3.332032,4 H 19 Z m 0,14 H 31.667968 C 33.459888,36 35,38.227772 35,40 c 0,1.772228 -1.540244,4.021762 -3.332032,4 H 19 Z"/>
 <path style="fill:#8b9cbe" d="M 13,29 V 49 H 31.666666 C 36.821324,49 41,44.098012 41,39 41,33.901988 36.821324,29 31.666666,29 Z m 6,6 H 31.666666 C 33.458586,35 35,37.227772 35,39 c 0,1.772228 -1.541546,4.021762 -3.333334,4 H 19 Z"/>
 <path style="fill:#8b9cbe" d="M 13,15 V 35 H 31.666666 C 36.821324,35 41,30.098012 41,25 41,19.901988 36.821324,15 31.666666,15 Z m 6,6 H 31.666666 C 33.458586,21 35,23.227772 35,25 c 0,1.772228 -1.541546,4.021762 -3.333334,4 H 19 Z"/>
 <path style="opacity:0.1;fill:#8b9cbe" d="M 7.1171875 6 C 3.7280111 6 1 8.7280107 1 12.117188 L 1 13.117188 C 1 9.7280107 3.7280111 7 7.1171875 7 L 46.882812 7 C 50.271988 7 53 9.7280107 53 13.117188 L 53 12.117188 C 53 8.7280107 50.271988 6 46.882812 6 L 7.1171875 6 z"/>
 <path style="opacity:0.1;fill:#8b9cbe" d="M 63 10.001953 L 53 17.857422 L 53 18.857422 L 63 11.001953 L 63 10.001953 z"/>
</svg>
