<svg xmlns="http://www.w3.org/2000/svg" width="64" height="64" version="1">
 <path style="opacity:0.2" d="M 23.577846,36.390185 5.5233878,42.024141 c -0.377797,0.098 -0.7317942,0.038 -1.0585916,-0.175999 C 4.1555986,41.618144 4.0003998,41.326147 3.9999998,40.964149 l 0,1.999985 c 4e-4,0.361997 0.1555988,0.653995 0.4647964,0.883993 0.3267974,0.213998 0.6807946,0.273998 1.0585916,0.175998 L 23.577846,38.39017 25.991827,49.738081 26.377824,49.566082 23.577846,36.390185 Z m 16.843868,0 -2.855978,13.175897 0.393997,0.175999 2.461981,-11.351911 18.057858,5.633955 c 0.377997,0.098 0.731994,0.038 1.059992,-0.175998 0.307997,-0.229998 0.459996,-0.521996 0.459996,-0.883993 l 0,-1.999985 c 0,0.361998 -0.151999,0.653995 -0.459996,0.883993 -0.327998,0.213999 -0.681995,0.273998 -1.059992,0.175999 L 40.421714,36.390185 Z M 19.019882,55.016039 c -0.106199,0.165999 -0.179799,0.341997 -0.179799,0.537996 L 19.383079,60 32.00018,58.000016 44.618081,60 45.160077,55.554035 c 0,-0.195999 -0.074,-0.371997 -0.179999,-0.537996 L 44.616081,58.000016 31.99818,56.000031 19.381479,58.000016 19.018282,55.016039 Z"/>
 <circle style="fill:#535353" cx="32" cy="7" r="2"/>
 <path style="fill:#fead00" d="m 31.97178,7.0004239 c -0.155039,0 -0.299957,0.030546 -0.450716,0.043918 -0.182819,0.0164 -0.368737,0.021438 -0.546316,0.054898 -0.04872,0.0097 -0.0938,0.03009 -0.142039,0.041174 -4.712963,1.017772 -7.108344,7.9501372 -6.822146,14.5590862 -0.0048,0.193358 -0.03002,0.400736 -0.03,0.590155 L 4.5689153,34.732356 c -0.3608571,0.180299 -0.5511156,0.493516 -0.5681555,0.936013 l 0,6.29675 c 4.512e-4,0.360658 0.1551208,0.654475 0.4643564,0.883873 0.3266574,0.213459 0.6791946,0.271118 1.0571117,0.172939 l 18.0582581,-5.632556 2.797178,13.178297 -7.175744,3.200575 c -0.240578,0.229638 -0.360657,0.492416 -0.360577,0.787774 l 0.543196,4.445965 12.615701,-1.999985 12.615701,1.999985 0.543576,-4.443965 c 9e-5,-0.295358 -0.119999,-0.558136 -0.360557,-0.787794 l -7.233144,-3.200575 2.854378,-13.178297 18.061058,5.632556 c 0.377917,0.09818 0.730454,0.0405 1.057112,-0.172939 C 59.847601,42.621594 59.99954,42.327777 60,41.967099 l 0,-6.29675 C 59.983,35.227852 59.795422,34.914615 59.434565,34.734336 L 40.020717,22.290434 c 8e-6,-0.189439 -0.0152,-0.396797 -0.02,-0.590155 0.286238,-6.608949 -2.119383,-13.5412942 -6.832146,-14.5590862 -0.04824,-0.01108 -0.09332,-0.031486 -0.142039,-0.041174 -0.177559,-0.03346 -0.363497,-0.0385 -0.546316,-0.054898 -0.150739,-0.01338 -0.295657,-0.043918 -0.450696,-0.043918 -0.0104,0 -0.0198,0.00268 -0.03004,0.00274 -0.0094,-4.04e-5 -0.018,-0.00274 -0.02732,-0.00274 z"/>
 <path style="fill:#fe5600" d="M 18 26.123047 L 14 28.6875 L 14 40.376953 L 18 39.128906 L 18 26.123047 z M 46 26.123047 L 46 39.130859 L 50 40.378906 L 50 28.6875 L 46 26.123047 z M 12 29.96875 L 8 32.533203 L 8 42.248047 L 12 41 L 12 29.96875 z M 52 29.96875 L 52 41.001953 L 56 42.25 L 56 32.533203 L 52 29.96875 z"/>
 <path style="fill:#8b9cbe;opacity:0.2" d="M 31.972656 7 C 31.817617 7 31.672243 7.0315499 31.521484 7.0449219 C 31.338665 7.0613219 31.152188 7.0661494 30.974609 7.0996094 C 30.925889 7.1093094 30.88027 7.129541 30.832031 7.140625 C 26.260548 8.1278443 23.87824 14.67958 24 21.103516 C 24.13078 15.014599 26.497594 9.0747006 30.832031 8.1386719 C 30.88027 8.1275879 30.925889 8.1073563 30.974609 8.0976562 C 31.152188 8.0641963 31.338665 8.0593688 31.521484 8.0429688 C 31.672243 8.0295967 31.817617 7.9980469 31.972656 7.9980469 L 31.972656 8 C 31.981976 8 31.9906 8.0019127 32 8.0019531 C 32.01024 8.0018931 32.018897 8 32.029297 8 C 32.184336 8 32.32973 8.0295888 32.480469 8.0429688 C 32.663288 8.0593668 32.849785 8.0641963 33.027344 8.0976562 C 33.076063 8.1073442 33.119729 8.1275919 33.167969 8.1386719 C 37.499909 9.0742196 39.87725 15.008247 40.011719 21.09375 C 40.130047 14.673271 37.736699 8.1273109 33.167969 7.140625 C 33.119729 7.129545 33.076063 7.1092974 33.027344 7.0996094 C 32.849785 7.0661494 32.663288 7.0613199 32.480469 7.0449219 C 32.32973 7.0315419 32.184336 7.0019531 32.029297 7.0019531 C 32.018897 7.0019531 32.01024 7.0038462 32 7.0039062 C 31.9906 7.0038659 31.981976 7.0019531 31.972656 7.0019531 L 31.972656 7 z M 23.996094 21.957031 C 23.988255 22.069321 23.980457 22.18245 23.980469 22.289062 L 4.5683594 34.732422 C 4.2075023 34.912721 4.0170399 35.225472 4 35.667969 L 4 36.666016 C 4.0170399 36.223519 4.2075023 35.910768 4.5683594 35.730469 L 23.980469 23.287109 C 23.980449 23.09769 24.004966 22.890624 24.009766 22.697266 C 23.999089 22.450726 23.999326 22.204147 23.996094 21.957031 z M 40.011719 22.041016 C 40.00813 22.260363 40.009479 22.480354 40 22.699219 C 40.0048 22.892577 40.021492 23.099623 40.021484 23.289062 L 59.433594 35.732422 C 59.794451 35.912701 59.983 36.225472 60 36.667969 L 60 35.669922 C 59.983 35.227425 59.794451 34.914654 59.433594 34.734375 L 40.021484 22.291016 C 40.021488 22.210716 40.015232 22.125324 40.011719 22.041016 z M 26.183594 50.654297 L 19.201172 53.767578 C 18.960594 53.997216 18.841717 54.261283 18.841797 54.556641 L 18.919922 55.191406 C 18.978902 55.03989 19.064681 54.895909 19.201172 54.765625 L 26.376953 51.566406 L 26.183594 50.654297 z M 37.763672 50.658203 L 37.566406 51.568359 L 44.798828 54.767578 C 44.935307 54.897873 45.023052 55.041841 45.082031 55.193359 L 45.160156 54.558594 C 45.160246 54.263236 45.039386 53.999189 44.798828 53.769531 L 37.763672 50.658203 z"/>
 <rect style="fill:#292929" width="20" height="2" x="22" y="7" rx="1.25" ry="2"/>
 <path style="fill:#292929" d="m 39.999717,29.666246 c 0,5.155959 -3.581972,9.333927 -7.999937,9.333927 -4.417965,0 -7.999937,-4.177968 -7.999937,-9.333927 0,-5.15396 3.581972,-6.665948 7.999937,-6.665948 4.418165,0 7.999937,1.511988 7.999937,6.666548 z"/>
</svg>
