<svg xmlns="http://www.w3.org/2000/svg" width="64" height="64" version="1">
 <rect style="opacity:.2" width="56" height="56" x="4" y="5" rx="3" ry="3"/>
 <rect style="fill:#4f4f4f" width="56" height="56" x="4" y="4" rx="3" ry="3"/>
 <path style="fill:#8b9cbe;opacity:.1" d="m7 4c-1.662 0-3 1.338-3 3v1c0-1.662 1.338-3 3-3h50c1.662 0 3 1.338 3 3v-1c0-1.662-1.338-3-3-3h-50z"/>
 <path style="opacity:.3" d="m15 16c-1.662 0-3 1.338-3 3v30c0 1.662 1.338 3 3 3s3-1.338 3-3v-30c0-1.662-1.338-3-3-3z"/>
 <path style="fill:#00ab43" d="m15 28c-1.662 0-3 1.338-3 3v18c0 1.662 1.338 3 3 3s3-1.338 3-3v-18c0-1.662-1.338-3-3-3z"/>
 <path style="opacity:.2" d="m21 27a6 6 0 0 1-6 6 6 6 0 0 1-6-6 6 6 0 0 1 6-6 6 6 0 0 1 6 6z"/>
 <path style="fill:#828282" d="m21 26a6 6 0 0 1-6 6 6 6 0 0 1-6-6 6 6 0 0 1 6-6 6 6 0 0 1 6 6z"/>
 <path style="opacity:.3" d="m47 16c-1.662 0-3 1.338-3 3v30c0 1.662 1.338 3 3 3s3-1.338 3-3v-30c0-1.662-1.338-3-3-3z"/>
 <path style="fill:#00ab43" d="m47 34.196c-1.662 0-3 1.338-3 3v11.804c0 1.662 1.338 3 3 3s3-1.338 3-3v-11.804c0-1.662-1.338-3-3-3z"/>
 <path style="opacity:.2" d="m53 33a6 6 0 0 1-6 6 6 6 0 0 1-6-6 6 6 0 0 1 6-6 6 6 0 0 1 6 6z"/>
 <path style="fill:#828282" d="m53 32a6 6 0 0 1-6 6 6 6 0 0 1-6-6 6 6 0 0 1 6-6 6 6 0 0 1 6 6z"/>
 <path style="opacity:.3" d="m31 16c-1.662 0-3 1.338-3 3v30c0 1.662 1.338 3 3 3s3-1.338 3-3v-30c0-1.662-1.338-3-3-3z"/>
 <path style="fill:#00ab43" d="m31 42c-1.662 0-3 1.338-3 3v4c0 1.662 1.338 3 3 3s3-1.338 3-3v-4c0-1.662-1.338-3-3-3z"/>
 <path style="opacity:.2" d="m37 41a6 6 0 0 1-6 6 6 6 0 0 1-6-6 6 6 0 0 1 6-6 6 6 0 0 1 6 6z"/>
 <path style="fill:#828282" d="m37 40a6 6 0 0 1-6 6 6 6 0 0 1-6-6 6 6 0 0 1 6-6 6 6 0 0 1 6 6z"/>
</svg>
