<svg xmlns="http://www.w3.org/2000/svg" xmlns:xlink="http://www.w3.org/1999/xlink" width="64" height="64" preserveAspectRatio="xMidYMid meet" version="1.1">
 <defs>
  <path id="b1Uu1ewGb" d="m 490.72,139.23 c 4.1,0 7.42,3.32 7.42,7.42 0,13.65 0,47.18 0,60.83 0,4.1 -3.32,7.42 -7.42,7.42 -27.3,0 -101.77,0 -129.07,0 -4.1,0 -7.43,-3.32 -7.43,-7.42 0,-13.65 0,-47.18 0,-60.83 0,-4.1 3.33,-7.42 7.43,-7.42 27.3,0 101.77,0 129.07,0 z"/>
  <path id="b24bcEG6b5" d="m 297.34,214.9 c 5.52,0 10,4.48 10,10 0,13.14 0,42.55 0,55.68 0,5.52 -4.48,10 -10,10 -36.79,0 -137.14,0 -173.92,0 -5.52,0 -10,-4.48 -10,-10 0,-13.13 0,-42.54 0,-55.68 0,-5.52 4.48,-10 10,-10 36.78,0 137.13,0 173.92,0 z"/>
  <path id="d4HHCachsN" d="m 490.72,290.58 c 4.1,0 7.42,3.32 7.42,7.42 0,13.65 0,47.18 0,60.83 0,4.1 -3.32,7.43 -7.42,7.43 -27.3,0 -101.77,0 -129.07,0 -4.1,0 -7.43,-3.33 -7.43,-7.43 0,-13.65 0,-47.18 0,-60.83 0,-4.1 3.33,-7.42 7.43,-7.42 27.3,0 101.77,0 129.07,0 z"/>
 </defs>
 <path style="opacity:0.2" d="M 26,5 A 14,14 0 0 0 12.464844,15.494141 13,13 0 0 0 3,28 13,13 0 0 0 16,41 13,13 0 0 0 17.814453,40.857422 14,14 0 0 0 30,48 14,14 0 0 0 40.8125,42.882812 10.5,10.5 0 0 0 45.5,44 10.5,10.5 0 0 0 56,33.5 10.5,10.5 0 0 0 55.998047,33.4375 10.5,10.5 0 0 0 61,24.5 10.5,10.5 0 0 0 51.251953,14.037109 8.5,8.5 0 0 0 43.5,9 8.5,8.5 0 0 0 37.6875,11.304688 14,14 0 0 0 26,5 Z m 14,43 a 5,5 0 0 0 -5,5 5,5 0 0 0 5,5 5,5 0 0 0 5,-5 5,5 0 0 0 -5,-5 z m -15,5 a 4,4 0 0 0 -4,4 4,4 0 0 0 4,4 4,4 0 0 0 4,-4 4,4 0 0 0 -4,-4 z"/>
 <ellipse style="fill:#b2bfd9" cx="36.614" cy="21.114" rx="7.25" ry="7.25"/>
 <circle style="fill:#b2bfd9" cx="26" cy="18" r="14"/>
 <circle style="fill:#b2bfd9" cx="43.5" cy="16.5" r="8.5"/>
 <circle style="fill:#b2bfd9" cx="16" cy="27" r="13"/>
 <circle style="fill:#b2bfd9" cx="50.5" cy="23.5" r="10.5"/>
 <circle style="fill:#b2bfd9" cx="45.5" cy="32.5" r="10.5"/>
 <circle style="fill:#b2bfd9" cx="30" cy="33" r="14"/>
 <use style="opacity:0.1" width="100%" height="100%" x="0" y="0" transform="matrix(0.09032796,0,0,0.10572221,3.0040302,1.2802971)" xlink:href="#b1Uu1ewGb"/>
 <path style="fill:none;stroke:#17191e;stroke-width:2.63636351" d="m 26.727273,25.463637 9.227271,-7.645455"/>
 <use style="fill:#68b723" width="100%" height="100%" x="0" y="0" transform="matrix(0.09032796,0,0,0.10572221,3.0040302,0.28029707)" xlink:href="#b1Uu1ewGb"/>
 <path style="fill:none;stroke:#17191e;stroke-width:2.63636351" d="m 26.727273,28.534973 9.227271,7.645454"/>
 <use style="opacity:0.1" width="100%" height="100%" x="0" y="0" transform="matrix(0.09797855,0,0,0.10570825,-0.11272714,1.2832989)" xlink:href="#b24bcEG6b5"/>
 <use style="fill:#c6262e" width="100%" height="100%" x="0" y="0" transform="matrix(0.09797855,0,0,0.10570825,-0.11272714,0.2832989)" xlink:href="#b24bcEG6b5"/>
 <use style="opacity:0.1" width="100%" height="100%" x="0" y="0" transform="matrix(0.09032796,0,0,0.10570825,3.00403,1.2832964)" xlink:href="#d4HHCachsN"/>
 <use style="fill:#3689e6" width="100%" height="100%" x="0" y="0" transform="matrix(0.09032796,0,0,0.10570825,3.00403,0.28329635)" xlink:href="#d4HHCachsN"/>
 <circle style="fill:#b2bfd9" cx="40" cy="52" r="5"/>
 <circle style="fill:#b2bfd9" cx="25" cy="56" r="4"/>
 <path style="opacity:0.2;fill:#8b9cbe" d="M 26 4 A 14 14 0 0 0 12.464844 14.494141 A 13 13 0 0 0 3 27 A 13 13 0 0 0 3.0234375 27.488281 A 13 13 0 0 1 12.464844 15.494141 A 14 14 0 0 1 26 5 A 14 14 0 0 1 37.6875 11.304688 A 8.5 8.5 0 0 1 43.5 9 A 8.5 8.5 0 0 1 51.251953 14.037109 A 10.5 10.5 0 0 1 60.976562 24.019531 A 10.5 10.5 0 0 0 61 23.5 A 10.5 10.5 0 0 0 51.251953 13.037109 A 8.5 8.5 0 0 0 43.5 8 A 8.5 8.5 0 0 0 37.6875 10.304688 A 14 14 0 0 0 26 4 z M 40 47 A 5 5 0 0 0 35 52 A 5 5 0 0 0 35.027344 52.515625 A 5 5 0 0 1 40 48 A 5 5 0 0 1 44.972656 52.484375 A 5 5 0 0 0 45 52 A 5 5 0 0 0 40 47 z M 25 52 A 4 4 0 0 0 21 56 A 4 4 0 0 0 21.035156 56.505859 A 4 4 0 0 1 25 53 A 4 4 0 0 1 28.964844 56.494141 A 4 4 0 0 0 29 56 A 4 4 0 0 0 25 52 z"/>
</svg>
