<svg xmlns="http://www.w3.org/2000/svg" width="64" height="64" version="1.1">
 <circle style="opacity:0.2" cx="32" cy="33" r="28"/>
 <g transform="matrix(1.4,0,0,1.4,-1.6,-1.6)">
  <circle style="fill:#6d37ae" cx="24" cy="24" r="20"/>
  <circle style="opacity:0.1;fill:none;stroke:#000000;stroke-width:1.33979905;stroke-linecap:round;stroke-linejoin:round;stroke-dasharray:10.71839171, 5.35919586;stroke-dashoffset:40.00289154" cx="10.87" cy="32.69" r="12.187" transform="rotate(-25.767261)"/>
  <circle style="fill:none;stroke:#07e6d2;stroke-width:1.33979905;stroke-linecap:round;stroke-linejoin:round;stroke-dasharray:10.71839171, 5.35919586;stroke-dashoffset:40.00289154" cx="11.18" cy="32.047" r="12.187" transform="rotate(-25.767261)"/>
  <circle style="opacity:0.1;fill:none;stroke:#000000;stroke-width:1.40961289;stroke-linecap:round;stroke-linejoin:round;stroke-dasharray:11.27690352, 5.63845176;stroke-dashoffset:40" cx="31.648" cy="-13.608" r="16.436" transform="rotate(69.107061)"/>
  <circle style="fill:none;stroke:#07a8e6;stroke-width:1.40961289;stroke-linecap:round;stroke-linejoin:round;stroke-dasharray:11.27690352, 5.63845176;stroke-dashoffset:40" cx="30.981" cy="-13.863" r="16.436" transform="rotate(69.107061)"/>
  <circle style="opacity:0.1;fill:none;stroke:#000000;stroke-width:1.29438245;stroke-linecap:round;stroke-linejoin:round;stroke-dasharray:10.35505959, 5.1775298;stroke-dashoffset:13.45409966" cx="22.737" cy="25.881" r="7.924" transform="rotate(-2.8607949)"/>
  <circle style="fill:none;stroke:#07e690;stroke-width:1.29438245;stroke-linecap:round;stroke-linejoin:round;stroke-dasharray:10.35505959, 5.1775298;stroke-dashoffset:13.45409966" cx="22.772" cy="25.168" r="7.924" transform="rotate(-2.8607949)"/>
  <g style="fill:#9bdb4d" transform="matrix(0.28153679,0,0,0.28153679,6.6099078,5.9816368)">
   <path style="opacity:0.2" d="m 51.695333,48.778157 a 2.4973435,2.4570409 0 0 0 -2.556914,2.454292 l -0.02772,15.298426 -0.02772,15.305239 a 2.4973435,2.4570409 0 0 0 3.741823,2.133874 l 13.484433,-7.62876 13.484428,-7.62876 a 2.4973435,2.4570409 0 0 0 0.0069,-4.260924 L 66.343884,56.781878 52.887172,49.105396 a 2.4973435,2.4570409 0 0 0 -1.191839,-0.327239 z"/>
   <path style="fill:#9bdb4d" d="m 51.695333,46.241062 a 2.4973435,2.4570409 0 0 0 -2.556914,2.454292 l -0.02772,15.298426 -0.02772,15.305239 a 2.4973435,2.4570409 0 0 0 3.741823,2.133874 l 13.484433,-7.62876 13.484428,-7.62876 a 2.4973435,2.4570409 0 0 0 0.0069,-4.260924 L 66.343884,54.244783 52.887172,46.568301 a 2.4973435,2.4570409 0 0 0 -1.191839,-0.327239 z"/>
   <path style="opacity:0.2;fill:#8b9cbe" transform="matrix(2.5370955,0,0,2.5370955,-19.418601,-17.187024)" d="M 28.029297 25 A 0.9843317 0.96844637 0 0 0 27.021484 25.966797 L 27.011719 31.998047 L 27 38.029297 A 0.9843317 0.96844637 0 0 0 27.001953 38.076172 L 27.011719 32.998047 L 27.021484 26.966797 A 0.9843317 0.96844637 0 0 1 28.029297 26 A 0.9843317 0.96844637 0 0 1 28.5 26.128906 L 33.802734 29.154297 L 39.107422 32.177734 A 0.9843317 0.96844637 0 0 1 39.458984 32.517578 A 0.9843317 0.96844637 0 0 0 39.107422 31.177734 L 33.802734 28.154297 L 28.5 25.128906 A 0.9843317 0.96844637 0 0 0 28.029297 25 z"/>
  </g>
 </g>
 <path style="opacity:0.1;fill:#8b9cbe" d="M 32 4 A 28 28 0 0 0 4 32 A 28 28 0 0 0 4.0214844 32.585938 A 28 28 0 0 1 32 5 A 28 28 0 0 1 59.978516 32.414062 A 28 28 0 0 0 60 32 A 28 28 0 0 0 32 4 z"/>
</svg>
