<svg xmlns="http://www.w3.org/2000/svg" width="64" height="64" version="1">
 <rect style="opacity:0.2" width="54" height="54" x="-60" y="-59" rx="2.7" ry="2.7" transform="matrix(0,-1,-1,0,0,0)"/>
 <rect style="fill:#44bb23" width="54" height="54" x="-59" y="-59" rx="2.7" ry="2.7" transform="matrix(0,-1,-1,0,0,0)"/>
 <path style="opacity:0.2" d="M 41,5.0000002 V 59 H 56.300502 C 57.796302,59 59,57.796302 59,56.300502 V 7.699498 c 0,-1.4958 -1.203698,-2.6994978 -2.699498,-2.6994978 z"/>
 <rect style="opacity:0.1" width="18" height="54" x="23" y="5"/>
 <path style="opacity:0.2" d="M 59,41 H 5 V 56.300502 C 5,57.796302 6.2036972,59 7.6994972,59 H 56.300502 C 57.796302,59 59,57.796302 59,56.300502 Z"/>
 <rect style="opacity:0.1" width="18" height="54" x="23" y="-59" transform="rotate(90)"/>
 <path style="opacity:0.1" d="m 32,10 a 5,5 0 0 0 -5,5 5,5 0 0 0 5,5 5,5 0 0 0 5,-5 5,5 0 0 0 -5,-5 z m 18,0 a 5,5 0 0 0 -5,5 5,5 0 0 0 5,5 5,5 0 0 0 5,-5 5,5 0 0 0 -5,-5 z M 13.859375,10.277344 A 4.8611112,4.8611112 0 0 0 9,15.140625 4.8611112,4.8611112 0 0 0 13.859375,20 4.8611112,4.8611112 0 0 0 18.722656,15.140625 4.8611112,4.8611112 0 0 0 13.859375,10.277344 Z M 14,28 a 5,5 0 0 0 -5,5 5,5 0 0 0 5,5 5,5 0 0 0 5,-5 5,5 0 0 0 -5,-5 z m 18,0 a 5,5 0 0 0 -5,5 5,5 0 0 0 5,5 5,5 0 0 0 5,-5 5,5 0 0 0 -5,-5 z m 18,0 a 5,5 0 0 0 -5,5 5,5 0 0 0 5,5 5,5 0 0 0 5,-5 5,5 0 0 0 -5,-5 z M 14,46 a 5,5 0 0 0 -5,5 5,5 0 0 0 5,5 5,5 0 0 0 5,-5 5,5 0 0 0 -5,-5 z m 18,0 a 5,5 0 0 0 -5,5 5,5 0 0 0 5,5 5,5 0 0 0 5,-5 5,5 0 0 0 -5,-5 z m 18,0 a 5,5 0 0 0 -5,5 5,5 0 0 0 5,5 5,5 0 0 0 5,-5 5,5 0 0 0 -5,-5 z"/>
 <circle style="fill:#8b9cbe" cx="32" cy="32" r="5"/>
 <circle style="fill:#8b9cbe" cx="14" cy="32" r="5"/>
 <circle style="fill:#17191e" cx="50" cy="32" r="5"/>
 <circle style="fill:#8b9cbe" cx="32" cy="14" r="5"/>
 <circle style="fill:#8b9cbe" cx="13.861" cy="14.139" r="4.861"/>
 <circle style="fill:#8b9cbe" cx="50" cy="14" r="5"/>
 <circle style="fill:#17191e" cx="32" cy="50" r="5"/>
 <circle style="fill:#17191e" cx="14" cy="50" r="5"/>
 <circle style="fill:#8b9cbe" cx="50" cy="50" r="5"/>
 <path style="opacity:0.2;fill:#8b9cbe" d="M 7.6992188 5 C 6.2034187 5 5 6.2034188 5 7.6992188 L 5 8.6992188 C 5 7.2034187 6.2034187 6 7.6992188 6 L 56.300781 6 C 57.796581 6 59 7.2034187 59 8.6992188 L 59 7.6992188 C 59 6.2034187 57.796581 5 56.300781 5 L 7.6992188 5 z"/>
 <rect style="opacity:0.1" width="54" height="1" x="5" y="23"/>
 <rect style="opacity:0.1" width="54" height="1" x="5" y="41"/>
</svg>
