<svg xmlns="http://www.w3.org/2000/svg" width="64" height="64" version="1">
 <path style="opacity:0.2" d="m 3.000001,20.74375 v 18.629297 9.766845 1.95337 C 3.000001,53.257727 4.7521443,55 6.9285724,55 H 53.82845 c 2.176431,0 3.928572,-1.742272 3.928572,-3.906738 v -0.607544 c 0.15402,-0.419549 0.242979,-0.871973 0.242979,-1.345826 V 20.74375 Z"/>
 <path style="fill:#b2bfd9" d="m 3.000001,19.74375 v 18.629297 9.766845 1.95337 C 3.000001,52.257727 4.7521443,54 6.9285724,54 H 53.82845 c 2.176431,0 3.928572,-1.742272 3.928572,-3.906738 v -0.607544 c 0.15402,-0.419549 0.242979,-0.871973 0.242979,-1.345826 V 19.74375 Z"/>
 <path style="fill:#565064" d="M 6.9285722,12 C 4.7521437,12 3.0000008,13.742512 3.0000008,15.906977 V 20 H 57.999999 V 15.906977 C 57.999999,13.742512 56.247856,12 54.071428,12 Z"/>
 <path style="opacity:0.1;fill:#8b9cbe" d="M 6.9277344 12 C 4.7513059 12 3 13.741785 3 15.90625 L 3 16.90625 C 3 14.741785 4.7513059 13 6.9277344 13 L 54.072266 13 C 56.248694 13 58 14.741785 58 16.90625 L 58 15.90625 C 58 13.741785 56.248694 12 54.072266 12 L 6.9277344 12 z"/>
 <path style="fill:none;stroke:#ff4e4a;stroke-width:2.63636351;stroke-linecap:round" d="m 11.309,27.336 c 6.577455,2.232297 -4.0409632,9.56243 5.545967,10.175842 5.634159,0.360498 5.118066,8.179158 5.118066,8.179158"/>
 <path style="opacity:0.1" d="M 54.501953,8.0039062 C 54.079614,7.9742701 53.588683,8.125414 53.097656,8.6835938 L 23.908203,37.833984 24.634766,38.560547 21,46.546875 22.455078,48 l 7.998047,-3.630859 0.726563,0.726562 29.234374,-29.197265 c 1.431942,-1.430099 -0.210937,-2.816407 -0.210937,-2.816407 L 55.716797,8.6035156 c 0,0 -0.510945,-0.5502157 -1.214844,-0.5996094 z"/>
 <path style="fill:#ff4e4a" d="M 31.179534,44.095305 23.908437,36.833574 53.096818,7.6828001 c 1.309404,-1.4884792 2.620877,-0.079483 2.620877,-0.079483 l 4.484892,4.4791119 c 0,0 1.643509,1.385827 0.211567,2.815925 z"/>
 <rect style="fill:#3d3846" width="10.276" height="2.055" x="-53.23" y="25.77" transform="matrix(-0.70756248,-0.70665079,0.70756248,-0.70665079,0,0)"/>
 <rect style="fill:#3d3846" width="10.276" height="2.055" x="-53.23" y="-3" transform="matrix(-0.70756248,-0.70665079,0.70756248,-0.70665079,0,0)"/>
 <path style="fill:#c02924" d="M 30.452428,43.369135 24.635549,37.55975 21,45.547653 22.45422,47 Z"/>
 <path style="fill:#3d3846" d="m 35.542205,25.215151 a 2.5690631,5.1381334 45.06156 0 0 5.453324,-1.815432 2.5690631,5.1381334 45.06156 0 0 1.817774,-5.446297 z"/>
</svg>
