<svg xmlns="http://www.w3.org/2000/svg" width="64" height="64" version="1">
 <path style="opacity:0.2" d="M 46.816406,29.074218 V 43.890624 H 32 V 57 H 44.804688 C 52.10047,52.633798 57,44.675832 57,35.554688 v -6.48047 z"/>
 <path style="opacity:0.2" d="m 7,31 v 3.411352 C 7,41.462438 9.6331014,48.226908 14.32241,53.212284 19.00991,58.19958 25.370226,61 32,61 H 57 L 55.61111,59.52285 57,58.045698 55.61111,56.568566 57,55 H 32 V 43.274242 H 17.185185 V 27.518 Z"/>
 <path style="opacity:0.2" d="m 32.000002,18.692541 c -6.381,0 -11.555556,5.174559 -11.555556,11.555555 0,1.727582 0.387782,3.432614 1.132576,4.989904 0.66272,-5.252536 5.129418,-9.191922 10.42298,-9.191922 5.293558,0 9.760256,3.939386 10.422978,9.191922 0.744792,-1.559354 1.132574,-3.262322 1.132574,-4.989904 0,-6.380996 -5.174558,-11.555555 -11.555552,-11.555555 z m 0,0"/>
 <path style="fill:#8c8c8c" d="m 46.814814,28.074514 v 14.81482 H 32 V 59.556 c 13.807508,0 25,-11.192486 25,-25 v -6.481486 z m 0,0"/>
 <path style="fill:#adaca9" d="m 7,30 v 3.411352 C 7,40.462438 9.6331014,47.226908 14.32241,52.212284 19.00991,57.19958 25.370226,60 32,60 H 57 L 55.61111,58.52285 57,57.045698 55.61111,55.568566 57,54 H 32 V 42.274242 H 17.185185 V 26.518 Z"/>
 <path style="fill:#b2bfd9" d="M 31.922236,4.0004448 C 18.145472,4.0420392 7,15.223681 7,29.000444 c 0,13.807514 11.192492,25 25,25 13.807508,0 25,-11.192486 25,-25 C 57,15.192936 45.807508,4.0004448 32,4.0004448 c -0.02532,0 -0.05064,0 -0.07776,0 z M 32,18.81526 c 5.624276,0 10.185184,4.560908 10.185184,10.185184 0,5.624278 -4.560908,10.185182 -10.185184,10.185182 -5.624276,0 -10.185184,-4.560904 -10.185184,-10.185182 0,-5.624276 4.560908,-10.185184 10.185184,-10.185184 z m 0,0"/>
 <path style="fill:#9b7656" d="m 32.000002,17.692541 c -6.381,0 -11.555556,5.174559 -11.555556,11.555555 0,1.727582 0.387782,3.432614 1.132576,4.989904 0.66272,-5.252536 5.129418,-9.191922 10.42298,-9.191922 5.293558,0 9.760256,3.939386 10.422978,9.191922 0.744792,-1.559354 1.132574,-3.262322 1.132574,-4.989904 0,-6.380996 -5.174558,-11.555555 -11.555552,-11.555555 z m 0,0"/>
 <path style="fill:none;stroke:#ccab8f;stroke-width:2.99999976;stroke-linecap:round;stroke-linejoin:round" d="M 43.5,28.999998 C 43.5,35.351552 38.351562,40.5 32.000002,40.5 25.64844,40.5 20.5,35.351552 20.5,28.999998 c 0,-6.351564 5.14844,-11.5 11.500002,-11.5 6.35156,0 11.499998,5.148436 11.499998,11.5 z m 0,0"/>
 <path style="opacity:0.2;fill:#8b9cbe" d="M 31.921875 4 C 18.145109 4.0415944 7 15.223237 7 29 C 7 29.114148 7.0113948 29.225404 7.0175781 29.337891 C 7.369028 15.867801 18.367255 5.0409237 31.921875 5 L 32 5 C 45.584887 5 56.629517 15.83621 56.982422 29.335938 C 56.988548 29.224093 57 29.11349 57 29 C 57 15.192492 45.807508 4 32 4 L 31.921875 4 z"/>
</svg>
