<svg xmlns="http://www.w3.org/2000/svg" width="64" height="64" version="1.1">
 <path style="opacity:0.2" d="M 25.630878,43.941672 39.307992,19.486304 56.770936,31.919378 33.99,50.95119 Z"/>
 <circle style="opacity:0.2" cx="31" cy="46" r="9"/>
 <circle style="opacity:0.2" cx="11" cy="30" r="9"/>
 <path style="fill:#2d4461" d="M 25.630878,42.941672 39.307992,18.486304 56.770936,30.919378 33.99,49.95119 Z"/>
 <circle style="opacity:0.2" cx="48" cy="25" r="14"/>
 <circle style="fill:#3b597f" cx="48" cy="24" r="14"/>
 <circle style="fill:#3b597f" cx="31" cy="45" r="9"/>
 <circle style="fill:#3b597f" cx="11" cy="29" r="9"/>
 <path style="opacity:0.1;fill:#8b9cbe" d="M 31 36 A 9 9 0 0 0 22 45 A 9 9 0 0 0 22.023438 45.363281 A 9 9 0 0 1 31 37 A 9 9 0 0 1 39.972656 45.46875 A 9 9 0 0 0 40 45 A 9 9 0 0 0 31 36 z"/>
 <path style="opacity:0.2;fill:none;stroke:#000000;stroke-width:10;stroke-linecap:round" d="m 11,29.999326 20,16"/>
 <path style="fill:none;stroke:#3db8ff;stroke-width:10;stroke-linecap:round" d="M 11,29 31,45"/>
 <circle style="opacity:0.2" cx="48" cy="25" r="8"/>
 <circle style="fill:#3db8ff" cx="48" cy="24" r="8"/>
 <path style="opacity:0.1;fill:#8b9cbe" d="M 48 10 A 14 14 0 0 0 34 24 A 14 14 0 0 0 34.019531 24.451172 A 14 14 0 0 1 48 11 A 14 14 0 0 1 61.974609 24.496094 A 14 14 0 0 0 62 24 A 14 14 0 0 0 48 10 z"/>
 <path style="opacity:0.1;fill:#8b9cbe" d="M 11 20 A 9 9 0 0 0 2 29 A 9 9 0 0 0 2.0234375 29.363281 A 9 9 0 0 1 11 21 A 9 9 0 0 1 19.972656 29.46875 A 9 9 0 0 0 20 29 A 9 9 0 0 0 11 20 z"/>
 <path style="opacity:0.2;fill:#8b9cbe" d="M 48 16 A 8 8 0 0 0 40 24 A 8 8 0 0 0 40.023438 24.400391 A 8 8 0 0 1 48 17 A 8 8 0 0 1 55.974609 24.476562 A 8 8 0 0 0 56 24 A 8 8 0 0 0 48 16 z"/>
 <path style="opacity:0.2;fill:#8b9cbe" d="M 10.890625 23.957031 A 5.0005 5.0005 0 0 0 5.9804688 29.460938 A 5.0005 5.0005 0 0 1 10.890625 24.957031 A 5.0005 5.0005 0 0 1 14.125 26.09375 L 34.125 42.09375 A 5.0024408 5.0024408 0 0 1 35.970703 45.5 A 5.0024408 5.0024408 0 0 0 34.125 41.09375 L 14.125 25.09375 A 5.0005 5.0005 0 0 0 10.890625 23.957031 z"/>
</svg>
