<svg xmlns="http://www.w3.org/2000/svg" width="64" height="64" version="1.1">
 <path style="opacity:0.2" d="M 8.3076924,6 H 55.692308 C 58.071214,6 60,7.9342968 60,10.32 V 55.68 C 60,58.065704 58.071214,60 55.692308,60 H 8.3076924 C 5.9287862,60 4.0000002,58.065704 4.0000002,55.68 V 10.32 c 0,-2.3857032 1.928786,-4.32 4.3076922,-4.32 z m 0,0"/>
 <path style="fill:#ff7800" d="M 8.3076924,5 H 55.692308 C 58.071214,5 60,6.9342968 60,9.32 V 54.68 C 60,57.065704 58.071214,59 55.692308,59 H 8.3076924 C 5.9287862,59 4.0000002,57.065704 4.0000002,54.68 V 9.32 c 0,-2.3857032 1.928786,-4.32 4.3076922,-4.32 z m 0,0"/>
 <path style="opacity:0.2" d="m 30.019758,17.322552 -5.999216,17.046152 c -0.04566,0.16648 -0.0096,0.341294 0.05326,0.439104 0.07988,0.09784 0.15216,0.21435 0.365204,0.235162 l 4.207436,-0.0208 c 0.14264,0 0.268196,0.06866 0.321456,0.214346 0.03424,0.12696 0.04372,0.253892 0,0.43078 l -3.64632,14.725398 c -0.02664,0.11656 -0.06278,0.378754 0.18638,0.555642 0.16168,0.10612 0.483134,0.04786 0.679048,-0.16648 L 39.922058,32.200544 c 0.08942,-0.15608 0.09892,-0.428698 0.04372,-0.555644 -0.05324,-0.12696 -0.1693,-0.303834 -0.435578,-0.332968 l -6.410066,-0.262214 c -0.1864,-0.03954 -0.249176,-0.13734 -0.302436,-0.214348 -0.07038,-0.11862 -0.0894,-0.283026 -0.0172,-0.459916 L 38.05029,17.545241 c 0.07038,-0.164402 0.07038,-0.280942 0.02664,-0.37043 -0.03614,-0.077 -0.15214,-0.174808 -0.355684,-0.174808 h -7.157592 c -0.09892,0 -0.437484,0.03954 -0.544002,0.322565 z"/>
 <path style="fill:#8b9cbe" d="m 30.019758,16.322552 -5.999216,17.046152 c -0.04566,0.16648 -0.0096,0.341294 0.05326,0.439104 0.07988,0.09784 0.15216,0.21435 0.365204,0.235162 l 4.207436,-0.0208 c 0.14264,0 0.268196,0.06866 0.321456,0.214346 0.03424,0.12696 0.04372,0.253892 0,0.43078 l -3.64632,14.725398 c -0.02664,0.11656 -0.06278,0.378754 0.18638,0.555642 0.16168,0.10612 0.483134,0.04786 0.679048,-0.16648 L 39.922058,31.200544 c 0.08942,-0.15608 0.09892,-0.428698 0.04372,-0.555644 -0.05324,-0.12696 -0.1693,-0.303834 -0.435578,-0.332968 l -6.410066,-0.262214 c -0.1864,-0.03954 -0.249176,-0.13734 -0.302436,-0.214348 -0.07038,-0.11862 -0.0894,-0.283026 -0.0172,-0.459916 L 38.05029,16.545241 c 0.07038,-0.164402 0.07038,-0.280942 0.02664,-0.37043 -0.03614,-0.077 -0.15214,-0.174808 -0.355684,-0.174808 h -7.157592 c -0.09892,0 -0.437484,0.03954 -0.544002,0.322565 z"/>
 <path style="opacity:0.2;fill:#8b9cbe" d="M 8.3085938 5 C 5.9296875 5 4 6.9346093 4 9.3203125 L 4 10.320312 C 4 7.9346097 5.9296875 6 8.3085938 6 L 55.691406 6 C 58.070312 6 60 7.9346097 60 10.320312 L 60 9.3203125 C 60 6.9346093 58.070312 5 55.691406 5 L 8.3085938 5 z"/>
</svg>
