<svg xmlns="http://www.w3.org/2000/svg" width="64" height="64" version="1.1">
 <circle style="opacity:0.2" cx="32" cy="33" r="28"/>
 <circle style="fill:#f6ac43" cx="32" cy="32" r="28"/>
 <path style="opacity:0.2;fill:#8b9cbe" d="M 32,4 A 28,28 0 0 0 4,32 28,28 0 0 0 4.0215,32.586 28,28 0 0 1 32,5 28,28 0 0 1 59.979,32.414 28,28 0 0 0 60,32 28,28 0 0 0 32,4 Z"/>
 <circle style="opacity:0.2" cx="32" cy="33" r="20"/>
 <circle style="fill:#8b9cbe" cx="32" cy="32" r="20"/>
 <rect style="opacity:0.6" width="8" height="26" x="28" y="19" rx="3" ry="3"/>
</svg>
