<svg xmlns="http://www.w3.org/2000/svg" width="64" height="64" version="1.1">
 <path style="opacity:0.2" d="M 32,5 A 28,28 0 0 0 4,33 28,28 0 0 0 6.2851562,44 28,28 0 0 0 32,61 28,28 0 0 0 57.742188,44 28,28 0 0 0 60,33 28,28 0 0 0 32,5 Z"/>
 <path style="fill:#a9ca4b" d="M 32 4 A 28 28 0 0 0 4 32 A 28 28 0 0 0 6.2851562 43 L 57.742188 43 A 28 28 0 0 0 60 32 A 28 28 0 0 0 32 4 z"/>
 <path style="opacity:0.2;fill:#8b9cbe" d="M 32 4 A 28 28 0 0 0 4 32 A 28 28 0 0 0 4.0214844 32.400391 A 28 28 0 0 1 32 5 A 28 28 0 0 1 59.976562 32.535156 A 28 28 0 0 0 60 32 A 28 28 0 0 0 32 4 z"/>
 <path style="fill:#5a8730" d="M 6.2851562 43 A 28 28 0 0 0 32 60 A 28 28 0 0 0 57.742188 43 L 6.2851562 43 z"/>
 <g style="opacity:0.2" transform="matrix(-9.0033058,7.0203771,7.7789292,8.1253604,1473.4311,-3671.1279)">
  <g transform="matrix(-0.820668,0.571405,0.571405,0.820668,471.332,-148.098)">
   <path transform="matrix(0.11574468,0.0121224,-0.0121224,0.11574468,312.34126,179.67933)" d="m 11.072266,32 c 0.581474,0.780169 3.27267,4.270739 4.849609,3.984375 C 17.144083,35.762586 16.845865,32.833951 16.738281,32 Z"/>
  </g>
 </g>
 <g transform="matrix(-9.0033058,7.0203771,7.7789292,8.1253604,1473.4311,-3672.1279)">
  <g transform="matrix(-0.820668,0.571405,0.571405,0.820668,471.332,-148.098)">
   <path style="fill:#8b9cbe" transform="matrix(0.11574468,0.0121224,-0.0121224,0.11574468,312.34126,179.67933)" d="m 11.072266,32 c 0.581474,0.780169 3.27267,4.270739 4.849609,3.984375 C 17.144083,35.762586 16.845865,32.833951 16.738281,32 Z"/>
  </g>
 </g>
 <g style="opacity:0.1" transform="matrix(1.5999999,0,0,1.5999999,-23.197073,15.324754)">
  <g transform="matrix(0.300126,0,0,0.1287939,-28.672113,-2.6773104)">
   <ellipse cx="172.5" cy="115" rx="8.5" ry="17" transform="matrix(0.9799806,0,0,1.1418151,8.1132233,-19.895539)"/>
  </g>
 </g>
 <g style="fill:#17191e" transform="matrix(1.5999999,0,0,1.5999999,-23.197073,14.324754)">
  <g style="fill:#17191e" transform="matrix(0.300126,0,0,0.1287939,-28.672113,-2.6773104)">
   <ellipse style="fill:#17191e" cx="172.5" cy="115" rx="8.5" ry="17" transform="matrix(0.9799806,0,0,1.1418151,8.1132233,-19.895539)"/>
  </g>
 </g>
 <g style="opacity:0.1" transform="matrix(-4.6303789,2.295816,2.3426817,4.5377475,1086.3181,-1491.0254)">
  <path d="m 317.56868,170.64923 c -0.50716,0.60775 0.94601,1.4143 1.34518,0.64672 0.44663,-0.85884 -0.0474,-2.02942 -0.56597,-2.54579 -0.11396,-0.11371 -0.36282,0.013 -0.33031,0.15591 0.1368,0.60141 -0.11676,1.34518 -0.4489,1.74316 z"/>
 </g>
 <g style="fill:#4f4f4f" transform="matrix(-4.6303789,2.295816,2.3426817,4.5377475,1086.3181,-1492.0254)">
  <path style="fill:#4f4f4f" d="m 317.56868,170.64923 c -0.50716,0.60775 0.94601,1.4143 1.34518,0.64672 0.44663,-0.85884 -0.0474,-2.02942 -0.56597,-2.54579 -0.11396,-0.11371 -0.36282,0.013 -0.33031,0.15591 0.1368,0.60141 -0.11676,1.34518 -0.4489,1.74316 z"/>
 </g>
 <g style="opacity:0.1" transform="matrix(4.6303789,2.295816,-2.3426817,4.5377475,-1022.3181,-1491.0254)">
  <path d="m 317.56868,170.64923 c -0.50716,0.60775 0.94601,1.4143 1.34518,0.64672 0.44663,-0.85884 -0.0474,-2.02942 -0.56597,-2.54579 -0.11396,-0.11371 -0.36282,0.013 -0.33031,0.15591 0.1368,0.60141 -0.11676,1.34518 -0.4489,1.74316 z"/>
 </g>
 <g style="fill:#4f4f4f" transform="matrix(4.6303789,2.295816,-2.3426817,4.5377475,-1022.3181,-1492.0254)">
  <path style="fill:#4f4f4f" d="m 317.56868,170.64923 c -0.50716,0.60775 0.94601,1.4143 1.34518,0.64672 0.44663,-0.85884 -0.0474,-2.02942 -0.56597,-2.54579 -0.11396,-0.11371 -0.36282,0.013 -0.33031,0.15591 0.1368,0.60141 -0.11676,1.34518 -0.4489,1.74316 z"/>
 </g>
 <g style="opacity:0.2" transform="matrix(9.0033058,7.0203771,-7.7789292,8.1253604,-1409.4309,-3671.1279)">
  <g transform="matrix(-0.820668,0.571405,0.571405,0.820668,471.332,-148.098)">
   <path transform="matrix(0.11574468,0.0121224,-0.0121224,0.11574468,312.34126,179.67933)" d="m 11.072266,32 c 0.581474,0.780169 3.27267,4.270739 4.849609,3.984375 C 17.144083,35.762586 16.845865,32.833951 16.738281,32 Z"/>
  </g>
 </g>
 <g transform="matrix(9.0033058,7.0203771,-7.7789292,8.1253604,-1409.4309,-3672.1279)">
  <g transform="matrix(-0.820668,0.571405,0.571405,0.820668,471.332,-148.098)">
   <path style="fill:#8b9cbe" transform="matrix(0.11574468,0.0121224,-0.0121224,0.11574468,312.34126,179.67933)" d="m 11.072266,32 c 0.581474,0.780169 3.27267,4.270739 4.849609,3.984375 C 17.144083,35.762586 16.845865,32.833951 16.738281,32 Z"/>
  </g>
 </g>
 <g style="opacity:0.1" transform="matrix(-1.5999999,0,0,1.5999999,87.197073,15.324754)">
  <g transform="matrix(0.300126,0,0,0.1287939,-28.672113,-2.6773104)">
   <ellipse cx="172.5" cy="115" rx="8.5" ry="17" transform="matrix(0.9799806,0,0,1.1418151,8.1132233,-19.895539)"/>
  </g>
 </g>
 <g style="fill:#17191e" transform="matrix(-1.5999999,0,0,1.5999999,87.197073,14.324754)">
  <g style="fill:#17191e" transform="matrix(0.300126,0,0,0.1287939,-28.672113,-2.6773104)">
   <ellipse style="fill:#17191e" cx="172.5" cy="115" rx="8.5" ry="17" transform="matrix(0.9799806,0,0,1.1418151,8.1132233,-19.895539)"/>
  </g>
 </g>
 <path style="opacity:0.2" d="M 6.2851562 43 A 28 28 0 0 0 6.7734375 44 L 57.275391 44 A 28 28 0 0 0 57.742188 43 L 6.2851562 43 z"/>
 <g style="fill:#8b9cbe;opacity:0.1" transform="matrix(-4.6303789,2.295816,2.3426817,4.5377475,1086.3181,-1492.0254)">
  <path style="fill:#8b9cbe" transform="matrix(-0.17195044,0.08699615,0.08877205,0.17546056,319.24303,167.28611)" d="M 8.5507812 4 C 8.1327981 4.0059012 7.7048646 4.1990814 7.5742188 4.5878906 C 7.168708 5.7905515 6.9617439 7.3334553 7.015625 8.9550781 C 7.0589265 7.7070185 7.2531926 6.5399879 7.5742188 5.5878906 C 7.8355104 4.8102722 9.284491 4.8139829 9.46875 5.5371094 C 10.244226 8.5802237 13.160585 11.372615 15.630859 12.416016 C 16.429412 12.753352 16.825604 13.339924 16.945312 14.019531 C 17.142243 12.929831 16.80322 11.911262 15.630859 11.416016 C 13.160585 10.372615 10.244226 7.5802237 9.46875 4.5371094 C 9.3766205 4.1755461 8.9687644 3.9940988 8.5507812 4 z"/>
 </g>
 <g style="fill:#8b9cbe;opacity:0.1" transform="matrix(4.6303789,2.295816,-2.3426817,4.5377475,-1022.3181,-1492.0254)">
  <path style="fill:#8b9cbe" transform="matrix(0.17195044,-0.08699615,0.08877205,0.17546056,308.23821,172.85387)" d="M 55.449219 4 C 55.031236 3.9940988 54.62338 4.1755461 54.53125 4.5371094 C 53.755774 7.5802237 50.839415 10.372615 48.369141 11.416016 C 47.19678 11.911262 46.857757 12.929831 47.054688 14.019531 C 47.174396 13.339924 47.570588 12.753352 48.369141 12.416016 C 50.839415 11.372615 53.755774 8.5802237 54.53125 5.5371094 C 54.715509 4.8139829 56.16449 4.8102722 56.425781 5.5878906 C 56.746807 6.5399879 56.941074 7.7070185 56.984375 8.9550781 C 57.038256 7.3334553 56.831292 5.7905515 56.425781 4.5878906 C 56.295135 4.1990814 55.867202 4.0059012 55.449219 4 z"/>
 </g>
</svg>
