<svg xmlns="http://www.w3.org/2000/svg" width="64" height="64" version="1">
 <path style="fill:#fed24c" d="m29.248 30.132-3.4134 3.943-2.6318 2.595-2.93 1.9906-3.5234 1.8785-4.082 1.5367-2.5564 0.604-0.1102 0.336 0.1477 0.90234 0.5935 1.5039 1.2595 2.48 1.2246 1.8375 2.374 2.5184 1.0742 1.0883 0.96412 0.3418 4.3748-0.04102-2.5942 1.802-0.03759 0.4539 1.5576 1.2387 2.1136 1.2387c2.7324 1.543 5.1938-1.5066 5.1938-1.5066s-1.3248 2.3116-1.2434 3.1254h2.597l1.3723-0.22422 1.5576-0.79024-0.521 0.82578 2.8226 0.03554c2.9784-0.07104 4.9474-1.8138 6.7112-3.6804l1.853-2.2176 1.4475-2.2148 1.0742-2.029 1.708-4.0196 1.2971-3.2676 0.6311-1.7309h-0.615l-4.689-0.5496c-3.7654-1.0803-5.7944-3.895-9.284-6.0484l-2.8924-1.8047-2.2988-1.3891-0.333-0.48946-0.06714-0.1914-0.12622-0.08202z"/>
 <path style="fill:#c2352a" d="m50.3 5.4653-2.7268 5.2074-2.3582 5.3118-2.8854 5.7936-1.9936 4.7656-2.2156-0.9435-3.1906-1.3932h-0.7808l-0.66586 0.1887-1.0741 1.4293-3.1152 4.1674 0.14666 0.41354 0.33294 0.48982 2.2988 1.3892 2.8934 1.8027c3.4896 2.1536 5.5176 4.9682 9.283 6.0484l4.6882 0.5522h0.78872l0.05152-0.20878 0.68172-4.2518 0.55884-3.4368 0.05546-0.73472-0.40824-0.77086-2.7466-1.2767-1.5933-0.69458-0.97502-0.63436-0.11098-0.04818 0.13078-0.2128 1.629-4.0912 1.4665-3.6134 1.8351-4.8862 1.4189-3.4568 1.2049-3.0794 0.9897-2.9842c0.592-2.2294-2.012-3.435-3.614-0.8426z"/>
 <path style="opacity:.2;fill:#8b9cbe" d="m29.248 30.131v0.002l-3.4141 3.9414-2.6309 2.5957-2.9297 1.9902-3.523 1.879-4.082 1.537-2.557 0.604-0.111 0.336 0.10938 0.66797 0.002-0.0039 2.5566-0.60352 4.082-1.5371 3.5234-1.8789 2.9297-1.9902 2.6309-2.5957 3.4141-3.9414v-0.002l0.12695 0.08203 0.06641 0.19141 0.33398 0.49023 2.2988 1.3887 2.8926 1.8047c3.4896 2.1534 5.5178 4.9685 9.2832 6.0488l4.6895 0.54883h0.25l0.36524-1h-0.616l-4.689-0.549c-3.765-1.081-5.794-3.896-9.283-6.049l-2.893-1.805-2.299-1.388-0.334-0.491-0.066-0.191zm-7.2344 24.516-1.459 0.01367-1.1348 0.78906-0.03906 0.45312 0.38477 0.30664zm6.2324 3.2266s-0.34091 0.42301-0.9082 0.87305c-0.201 0.49-0.363 0.967-0.334 1.253h0.22852c0.3584-0.96671 1.0137-2.127 1.0137-2.127zm24.057-53.87c-0.66118 0.050258-1.4032 0.48879-2.0039 1.4609h0.002l-2.7285 5.207-2.3574 5.3125-2.8848 5.793-1.9941 4.7656-2.2148-0.94336-3.1914-1.3926h-0.78125l-0.66602 0.18945-1.0742 1.4277-3.1152 4.168 0.14844 0.41406 0.13672 0.20312 2.8301-3.7852 1.0742-1.4297 0.66602-0.1875h0.78125l3.1914 1.3926 2.2148 0.94336 1.9941-4.7656 2.8848-5.793 2.3574-5.3125 2.7285-5.207h-0.002c1.302-2.1075 3.267-1.7065 3.64-0.2863 0.283-1.3246-0.568-2.2569-1.635-2.1758zm-6.7051 24.838-0.22852 0.57617-0.13086 0.21289 0.11133 0.04883 0.97461 0.63476 1.5938 0.69336 2.7461 1.2773 0.33398 0.63086 0.01953-0.125 0.05469-0.73438-0.4082-0.77148-2.7461-1.2773-1.5938-0.69336z"/>
 <path style="opacity:.2" d="m49.189 41.686-0.26758 0.73047-1.2969 3.2676-1.707 4.0195-1.0742 2.0293-1.4473 2.2148-1.8535 2.2188c-1.7638 1.8666-3.7325 3.6086-6.7109 3.6797l-2.8223-0.03516 0.51953-0.82617-1.5566 0.79102-1.373 0.22266h-2.367c-0.147 0.396-0.252 0.764-0.228 1.001h2.5957l1.373-0.22461 1.5566-0.79102-0.51953 0.82617 2.8223 0.03516c2.9784-0.07104 4.9471-1.8131 6.7109-3.6797l1.8535-2.2188 1.4473-2.2148 1.0742-2.0293 1.707-4.0195 1.2969-3.2676 0.63281-1.7305zm-39.08 1.998-0.109 0.332l0.14844 0.90234 0.59375 1.5039 1.2598 2.4805 1.2246 1.8379 2.373 2.5176 1.0742 1.0879 0.96484 0.3418 2.916-0.02734 1.459-1.0137-4.375 0.04102-0.96484-0.3418-1.0742-1.0879-2.373-2.5176-1.2246-1.8379-1.2598-2.4805-0.59375-1.5039zm9.6562 12.525-0.3457 0.24024-0.03906 0.45312 1.5586 1.2383 2.1133 1.2402c1.7171 0.96964 3.3257 0.12637 4.2852-0.63476 0.36948-0.90512 0.9082-1.873 0.9082-1.873s-2.461 3.0508-5.1934 1.5078l-2.113-1.239zm34.173-50.029c-0.0092 0.042952-0.01182 0.083192-0.02344 0.12695l-0.99023 2.9844-1.2051 3.0801-1.418 3.457-1.8359 4.8848-1.4668 3.6152-1.6289 4.0898-0.13086 0.21289 0.11133 0.04883 0.24805 0.16211 1.4004-3.5137 1.4668-3.6133 1.8359-4.8867 1.418-3.457 1.2051-3.0801 0.99023-2.9844c0.111-0.41801 0.10948-0.79921 0.02344-1.127zm-24.359 24.43-0.28516 0.38281 0.14844 0.41406 0.33203 0.49023 2.2988 1.3887 2.8926 1.8027c3.4896 2.1536 5.5178 4.9686 9.2832 6.0488l4.689 0.55h0.78711l0.05273-0.20703 0.68164-4.252 0.55859-3.4375 0.05469-0.73438-0.07422-0.14062-0.53906 3.3105-0.68164 4.252-0.053 0.209h-0.787l-4.6895-0.55078c-3.7654-1.0802-5.7936-3.8952-9.2832-6.0488l-2.8926-1.8027-2.2988-1.3887z"/>
</svg>
