<svg xmlns="http://www.w3.org/2000/svg" width="64" height="64" version="1">
 <circle style="opacity:.2" cx="32" cy="33" r="28"/>
 <circle style="fill:#f9548f" cx="32" cy="32" r="28"/>
 <path style="opacity:.2" d="m16.078 26.484c0.21174-0.66066 0.24966-1.057 0.33048-1.4399-0.58374 0.76042-0.26908 0.92272-0.33048 1.4399m1.0784-4.586c0.10518 0.9903-0.73138 1.3751 0.18509 0.72134 0.4921-1.1282-0.19142-0.31126-0.18509-0.72134m16.015-8.67c0.45552-0.16964 1.1205-0.09332 1.6054-0.20504-0.63114 0.0538-1.2592 0.08598-1.879 0.16643l0.27358 0.03862m14.656 18.494-0.09888 0.25378c-0.18148 1.3139-0.57472 2.614-1.1761 3.82 0.66456-1.2721 1.093-2.6638 1.275-4.0738m-18.547 4.106c-0.2359-0.26454-0.37268-0.58238-0.52928-0.90024 0.14898 0.55676 0.45418 1.0353 0.73724 1.5227l-0.208-0.621m-1.048 0.041-0.095 0.481c0.4438 0.61376 0.79594 1.2786 1.3616 1.7567-0.40722-0.8087-0.70924-1.1429-1.2664-2.238m5.524-22.109-0.25326 0.0538 0.23612-0.02207 0.0172-0.03173m-0.718-0.203c0.36028 0.06529 0.77834 0.11587 0.71828 0.20366 0.39548-0.08874 0.48442-0.16873-0.71828-0.20366m7.514 16.908c0.08216-1.2372-0.23884-0.84548-0.34674-0.37424 0.12552 0.06712 0.22528 0.8726 0.34674 0.37424m-1.336 3.542c0.40316-0.56504 0.6957-1.1829 0.79908-1.822-0.09076 0.45516-0.33228 0.84824-0.56162 1.2638-1.261 0.8087-0.1192-0.47996-0.000902-0.97052-1.3553 1.7392-0.18692 1.0427-0.23658 1.5287m-3.62 0.918c-0.6745 0.009 0.12686 0.35308 1.0077 0.49148 0.24424-0.194 0.46366-0.38894 0.6605-0.57928-0.547 0.137-1.105 0.14-1.668 0.088m-19.516-8.442c0.21174-0.66068 0.24966-1.057 0.33047-1.44-0.58374 0.76044-0.26907 0.92274-0.33047 1.44m1.0781-4.5856c0.10519 0.99032-0.73137 1.3751 0.1851 0.72136 0.49209-1.1283-0.19142-0.31126-0.1851-0.72136m16.014-8.672c0.45552-0.16965 1.1205-0.09333 1.6054-0.20505-0.63114 0.05379-1.2591 0.08597-1.879 0.16643l0.27358 0.03862m14.657 18.496-0.09887 0.25379c-0.18149 1.314-0.57471 2.6142-1.1761 3.8201 0.66455-1.2722 1.093-2.6638 1.2749-4.0739m-18.548 4.1057c-0.23476-0.26482-0.37291-0.58298-0.52911-0.89929 0.14898 0.55677 0.45417 1.0354 0.73724 1.5227l-0.20812-0.62344m-1.0478 0.04138-0.09526 0.48137c0.44378 0.61378 0.79592 1.2786 1.3616 1.7567-0.40722-0.80872-0.70924-1.143-1.2663-2.2381m5.5234-22.109-0.25327 0.05379 0.23611-0.02207 0.01715-0.03172m10.06 17.22c0.0372 1.0388-0.29142 1.5435-0.58864 2.4362l-0.53448 0.27646c-0.43694 0.88314 0.04338 0.56068-0.26952 1.2628-0.68288 0.63076-2.0694 1.9731-2.5132 2.096-0.3245-0.0076 0.2195-0.39814 0.2906-0.55078-0.91314 0.65182-0.7329 0.9786-2.1296 1.3754l-0.0405-0.09504c-3.4434 1.6855-8.227-1.6541-8.1642-6.2098-0.03638 0.28894-0.10458 0.2167-0.18066 0.3328-0.17776-2.3438 1.0409-4.6978 3.096-5.6604 2.0104-1.0345 4.367-0.61054 5.8058 0.7864-0.79036-1.0775-2.365-2.2198-4.2296-2.1142-1.8275 0.03096-3.5378 1.2387-4.108 2.5504-0.93588 0.6127-1.045 2.3632-1.4526 2.6838-0.54938 4.1964 1.0322 6.0086 3.708 8.1418 0.41998 0.29494 0.11822 0.3401 0.17444 0.56454-0.88876-0.43254-1.7023-1.0861-2.3718-1.8862 0.3555 0.54046 0.73868 1.0659 1.2343 1.4786-0.83874-0.29454-1.9586-2.1124-2.2846-2.1864 1.4447 2.6906 5.8608 4.7188 8.1744 3.7122-1.0706 0.04126-2.4302 0.02278-3.6322-0.43942-0.50638-0.27044-1.1922-0.82984-1.0694-0.9343 3.1566 1.2258 6.4164 0.92786 9.147-1.3488 0.6953-0.56326 1.4542-1.5208 1.6737-1.5337-0.33028 0.5168 0.05662 0.24852-0.19718 0.70472 0.69116-1.1613-0.30136-0.47296 0.71514-2.0054l0.37534 0.53746c-0.14054-0.96484 1.1512-2.135 1.0198-3.6598 0.29638-0.46606 0.33028 0.5022 0.016 1.5745 0.4361-1.1897 0.11534-1.381 0.22694-2.3632 0.1203 0.3302 0.28026 0.68062 0.3617 1.0293-0.2844-1.1501 0.2906-1.9361 0.43362-2.6048-0.14136-0.0645-0.43858 0.50822-0.5072-0.8496 0.0106-0.58992 0.15834-0.30914 0.21494-0.45446-0.1108-0.06664-0.40304-0.51896-0.58038-1.3862 0.12772-0.20424 0.34392 0.52842 0.5192 0.55808-0.11286-0.68924-0.30672-1.2151-0.315-1.7443-0.51258-1.1136-0.18146 0.14878-0.5965-0.47812-0.54564-1.7689 0.45224-0.41062 0.52002-1.2138 0.82592 1.2447 1.2967 3.1754 1.5138 3.9744-0.16534-0.9747-0.43198-1.9193-0.75814-2.833 0.25174 0.1105-0.40468-2.005 0.32696-0.60408-0.784-2.9858-3.342-5.776-5.696-7.085 0.288 0.274 0.652 0.6178 0.522 0.672-1.172-0.7244-0.966-0.7816-1.134-1.0878-0.954-0.4036-1.016 0.0332-1.648 0.001-1.798-0.9924-2.144-0.887-3.798-1.508l0.07526 0.36634c-1.1909-0.41276-1.3877 0.15565-2.6746 0.000861-0.07812-0.06317 0.41256-0.23044 0.81682-0.29108-1.1517 0.15823-1.0979-0.23646-2.2248 0.04343 0.27738-0.20252 0.5717-0.3371 0.86766-0.50906-0.93876 0.05932-2.242 0.56842-1.8399 0.10491-1.5315 0.71114-4.252 1.7091-5.7786 3.198l-0.04796-0.33366c-0.69942 0.87324-3.0502 2.6082-3.2376 3.7404l-0.18726 0.04514c-0.36334 0.64106-0.59938 1.3673-0.88792 2.0264-0.47578 0.844-0.69778 0.32506-0.62998 0.45748-0.93628 1.9744-1.4021 3.6332-1.8035 4.9944 0.28606 0.445 0.0071 2.6796 0.11492 4.4678-0.46958 8.8332 5.96 17.409 12.988 19.388 1.0301 0.38396 2.5616 0.3702 3.8646 0.40802-1.5369-0.45748-1.7353-0.24208-3.2334-0.7851-1.0801-0.52972-1.3166-1.1338-2.082-1.8248l0.303 0.5568c-1.5005-0.55248-0.87264-0.68362-2.0938-1.0856l0.32368-0.43898c-0.484-0.038-1.286-0.852-1.506-1.304l-0.53242 0.02194c-0.63908-0.81952-0.9801-1.4116-0.9549-1.8703l-0.17198 0.31904c-0.19468-0.34784-2.3524-3.0776-1.2331-2.442-0.20792-0.19692-0.48446-0.32118-0.78416-0.88828l0.22778-0.27044c-0.5378-0.72104-0.99126-1.645-0.95652-1.9529 0.28728 0.40328 0.48654 0.47898 0.68414 0.5482-1.3604-3.5102-1.4369-0.19306-2.4666-3.573l0.21742-0.018c-0.1666-0.26272-0.26868-0.54606-0.40262-0.8251l0.09507-0.98246c-0.9786-1.178-0.2734-5.008-0.1316-7.108 0.097-0.854 0.8172-1.764 1.3632-3.19l-0.33318-0.05932c0.6374-1.1557 3.6384-4.6432 5.029-4.4642 0.67338-0.8797-0.13394-0.0034-0.2658-0.22444 1.4795-1.5922 1.9445-1.1248 2.9428-1.4116 1.076-0.66428-0.92388 0.25968-0.41378-0.25326 1.8614-0.49402 1.3186-1.1239 3.7464-1.3746 0.25628 0.15134-0.59402 0.2339-0.80732 0.4304 1.5501-0.7894 4.9064-0.60926 7.0874 0.4377 2.5284 1.2301 5.3714 4.8646 5.4838 8.2842l0.12772 0.03568c-0.06448 1.3595 0.20008 2.9318-0.25918 4.3756l0.31044-0.68406m-10.777-17.42c0.36026 0.06529 0.77832 0.11586 0.71827 0.20367 0.39548-0.08873 0.48442-0.16873-0.71827-0.20367m7.5159 16.91c0.08217-1.2372-0.23882-0.8455-0.34672-0.37424 0.12551 0.06713 0.22528 0.87262 0.34672 0.37424m-1.3377 3.542c0.40315-0.56505 0.6957-1.183 0.79908-1.822-0.09074 0.45516-0.33227 0.84826-0.56162 1.2639-1.2609 0.80872-0.11918-0.47999-0.000903-0.97055-1.3553 1.7393-0.1869 1.0427-0.23656 1.5287m-3.6194 0.91906c-0.67448 0.0092 0.12686 0.3531 1.0077 0.49148 0.24424-0.19402 0.46365-0.38896 0.66049-0.5793-0.54762 0.13655-1.1056 0.13977-1.6681 0.08781"/>
 <path style="fill:#8b9cbe" d="m16.078 25.484c0.21174-0.66066 0.24966-1.057 0.33048-1.4399-0.583 0.76-0.268 0.923-0.33 1.44m1.0784-4.586c0.10518 0.9903-0.73138 1.3751 0.18509 0.72134 0.4921-1.1282-0.19142-0.31126-0.18509-0.72134m16.015-8.67c0.45552-0.16964 1.1205-0.09332 1.6054-0.20504-0.63114 0.0538-1.2592 0.08598-1.879 0.16643l0.27358 0.03862m14.657 18.494-0.099 0.254c-0.18148 1.3139-0.57472 2.614-1.1761 3.82 0.66456-1.2721 1.093-2.6638 1.275-4.0738m-18.548 4.106c-0.2359-0.26454-0.37268-0.58238-0.52928-0.90024 0.14898 0.55676 0.45418 1.0353 0.73724 1.5227l-0.208-0.621m-1.048 0.041-0.095 0.481c0.4438 0.61376 0.79594 1.2786 1.3616 1.7567-0.40722-0.8087-0.70924-1.1429-1.2664-2.238m5.524-22.109-0.253 0.054 0.236-0.022 0.017-0.032m-0.718-0.203c0.36028 0.06529 0.77834 0.11587 0.71828 0.20366 0.39548-0.08874 0.48442-0.16873-0.71828-0.20366m7.514 16.908c0.08216-1.2372-0.23884-0.84548-0.34674-0.37424 0.12552 0.06712 0.22528 0.8726 0.34674 0.37424m-1.336 3.542c0.40316-0.56504 0.6957-1.1829 0.79908-1.822-0.09076 0.45516-0.33228 0.84824-0.56162 1.2638-1.261 0.8087-0.1192-0.47996-0.000902-0.97052-1.3553 1.7392-0.18692 1.0427-0.23658 1.5287m-3.62 0.918c-0.6745 0.009 0.12686 0.35308 1.0077 0.49148 0.24424-0.194 0.46366-0.38894 0.6605-0.57928-0.54762 0.13656-1.1056 0.13976-1.6682 0.08782m-19.516-8.442c0.21174-0.66068 0.24966-1.057 0.33047-1.44-0.58374 0.76044-0.26907 0.92274-0.33047 1.44m1.0781-4.5856c0.10519 0.99032-0.73137 1.3751 0.1851 0.72136 0.49209-1.1283-0.19142-0.31126-0.1851-0.72136m16.014-8.672c0.45552-0.16965 1.1205-0.09333 1.6054-0.20505-0.63114 0.05379-1.2591 0.08597-1.879 0.16643l0.27358 0.03862m14.657 18.496-0.09887 0.25379c-0.18149 1.314-0.57471 2.6142-1.1761 3.8201 0.66455-1.2722 1.093-2.6638 1.2749-4.0739m-18.548 4.1057c-0.23476-0.26482-0.37291-0.58298-0.52911-0.89929 0.14898 0.55677 0.45417 1.0354 0.73724 1.5227l-0.20812-0.62344m-1.0478 0.04138-0.09526 0.48137c0.44378 0.61378 0.79592 1.2786 1.3616 1.7567-0.40722-0.80872-0.70924-1.143-1.2663-2.2381m5.5234-22.109-0.25327 0.05379 0.23611-0.02207 0.01715-0.03172m10.06 17.22c0.0372 1.0388-0.29142 1.5435-0.58864 2.4362l-0.53448 0.27646c-0.43694 0.88314 0.04338 0.56068-0.26952 1.2628-0.68288 0.63076-2.0694 1.9731-2.5132 2.096-0.3245-0.0076 0.2195-0.39814 0.2906-0.55078-0.91314 0.65182-0.7329 0.9786-2.1296 1.3754l-0.0405-0.09504c-3.4434 1.6855-8.227-1.6541-8.1642-6.2098-0.03638 0.28894-0.10458 0.2167-0.18066 0.3328-0.17776-2.3438 1.0409-4.6978 3.096-5.6604 2.0104-1.0345 4.367-0.61054 5.8058 0.7864-0.79036-1.0775-2.365-2.2198-4.2296-2.1142-1.8275 0.03096-3.5378 1.2387-4.108 2.5504-0.93588 0.6127-1.045 2.3632-1.4526 2.6838-0.54938 4.1964 1.0322 6.0086 3.708 8.1418 0.41998 0.29494 0.11822 0.3401 0.17444 0.56454-0.88876-0.43254-1.7023-1.0861-2.3718-1.8862 0.3555 0.54046 0.73868 1.0659 1.2343 1.4786-0.83874-0.29454-1.9586-2.1124-2.2846-2.1864 1.4447 2.6906 5.8608 4.7188 8.1744 3.7122-1.0706 0.04126-2.4302 0.02278-3.6322-0.43942-0.50638-0.27044-1.1922-0.82984-1.0694-0.9343 3.1566 1.2258 6.4164 0.92786 9.147-1.3488 0.6953-0.56326 1.4542-1.5208 1.6737-1.5337-0.33028 0.5168 0.05662 0.24852-0.19718 0.70472 0.69116-1.1613-0.30136-0.47296 0.71514-2.0054l0.37534 0.53746c-0.14054-0.96484 1.1512-2.135 1.0198-3.6598 0.29638-0.46606 0.33028 0.5022 0.016 1.5745 0.4361-1.1897 0.11534-1.381 0.22694-2.3632 0.1203 0.3302 0.28026 0.68062 0.3617 1.0293-0.2844-1.1501 0.2906-1.9361 0.43362-2.6048-0.14136-0.0645-0.43858 0.50822-0.5072-0.8496 0.0106-0.58992 0.15834-0.30914 0.21494-0.45446-0.1108-0.06664-0.40304-0.51896-0.58038-1.3862 0.12772-0.20424 0.34392 0.52842 0.5192 0.55808-0.11286-0.68924-0.30672-1.2151-0.315-1.7443-0.51258-1.1136-0.18146 0.14878-0.5965-0.47812-0.54564-1.7689 0.45224-0.41062 0.52002-1.2138 0.82592 1.2447 1.2967 3.1754 1.5138 3.9744-0.16534-0.9747-0.43198-1.9193-0.75814-2.833 0.25174 0.1105-0.40468-2.005 0.32696-0.60408-0.784-2.9858-3.342-5.776-5.696-7.085 0.288 0.274 0.652 0.6178 0.522 0.672-1.172-0.7244-0.966-0.7816-1.134-1.0878-0.954-0.4036-1.016 0.0332-1.648 0.001-1.798-0.9924-2.144-0.887-3.798-1.508l0.07526 0.36634c-1.1909-0.41276-1.3877 0.15565-2.6746 0.000861-0.07812-0.06317 0.41256-0.23044 0.81682-0.29108-1.1517 0.15823-1.0979-0.23646-2.2248 0.04343 0.27738-0.20252 0.5717-0.3371 0.86766-0.50906-0.93876 0.05932-2.242 0.56842-1.8399 0.10491-1.5315 0.71114-4.252 1.7091-5.7786 3.198l-0.04796-0.33366c-0.69942 0.87324-3.0502 2.6082-3.2376 3.7404l-0.18726 0.04514c-0.36334 0.64106-0.59938 1.3673-0.88792 2.0264-0.47578 0.844-0.69778 0.32506-0.62998 0.45748-0.93628 1.9744-1.4021 3.6332-1.8035 4.9944 0.28606 0.445 0.0071 2.6796 0.11492 4.4678-0.46958 8.8332 5.96 17.409 12.988 19.388 1.0301 0.38396 2.5616 0.3702 3.8646 0.40802-1.5369-0.45748-1.7353-0.24208-3.2334-0.7851-1.0801-0.52972-1.3166-1.1338-2.082-1.8248l0.303 0.5568c-1.5005-0.55248-0.87264-0.68362-2.0938-1.0856l0.32368-0.43898c-0.484-0.038-1.286-0.852-1.506-1.304l-0.53242 0.02194c-0.63908-0.81952-0.9801-1.4116-0.9549-1.8703l-0.17198 0.31904c-0.19468-0.34784-2.3524-3.0776-1.2331-2.442-0.20792-0.19692-0.48446-0.32118-0.78416-0.88828l0.22778-0.27044c-0.5378-0.72104-0.99126-1.645-0.95652-1.9529 0.28728 0.40328 0.48654 0.47898 0.68414 0.5482-1.3604-3.5102-1.4369-0.19306-2.4666-3.573l0.21742-0.018c-0.1666-0.26272-0.26868-0.54606-0.40262-0.8251l0.09507-0.98246c-0.9786-1.178-0.2734-5.008-0.1316-7.108 0.097-0.854 0.8172-1.764 1.3632-3.19l-0.33318-0.05932c0.6374-1.1557 3.6384-4.6432 5.029-4.4642 0.67338-0.8797-0.13394-0.0034-0.2658-0.22444 1.4795-1.5922 1.9445-1.1248 2.9428-1.4116 1.076-0.66428-0.92388 0.25968-0.41378-0.25326 1.8614-0.49402 1.3186-1.1239 3.7464-1.3746 0.25628 0.15134-0.59402 0.2339-0.80732 0.4304 1.5501-0.7894 4.9064-0.60926 7.0874 0.4377 2.5284 1.2301 5.3714 4.8646 5.4838 8.2842l0.12772 0.03568c-0.06448 1.3595 0.20008 2.9318-0.25918 4.3756l0.31044-0.68406m-10.777-17.42c0.36026 0.06529 0.77832 0.11586 0.71827 0.20367 0.39548-0.08873 0.48442-0.16873-0.71827-0.20367m7.5159 16.91c0.08217-1.2372-0.23882-0.8455-0.34672-0.37424 0.12551 0.06713 0.22528 0.87262 0.34672 0.37424m-1.3377 3.542c0.40315-0.56505 0.6957-1.183 0.79908-1.822-0.09074 0.45516-0.33227 0.84826-0.56162 1.2639-1.2609 0.80872-0.11918-0.47999-0.000903-0.97055-1.3553 1.7393-0.1869 1.0427-0.23656 1.5287m-3.6194 0.91906c-0.67448 0.0092 0.12686 0.3531 1.0077 0.49148 0.24424-0.19402 0.46365-0.38896 0.66049-0.5793-0.54762 0.13655-1.1056 0.13977-1.6681 0.08781"/>
 <path style="opacity:.2;fill:#8b9cbe" d="m31.998 4a28 28 0 0 0 -27.998 28 28 28 0 0 0 0.0176 0.492 28 28 0 0 1 27.98 -27.492h0.002a28 28 0 0 1 27.973 27.5 28 28 0 0 0 0.025 -0.5 28 28 0 0 0 -27.998 -28h-0.002z"/>
</svg>
