<svg xmlns="http://www.w3.org/2000/svg" width="64" height="64" version="1">
 <ellipse style="fill:#4f4f4f" cx="32" cy="32.001" rx="23.999" ry="19.999"/>
 <g transform="matrix(1.399957,0,0,1.399957,-5.7992395,-0.59936796)">
  <path style="opacity:0.2" transform="matrix(1.4286,0,0,1.4286,4.1429,1.1429)" d="M 20.09,5.4805 14,8.6992 l 0,1 L 21,6 20.09,5.4805 Z M 14,6.5996 c -4.6392,0 -8.5,3.7614 -8.5,8.4004 0,0.165 0.018,0.326 0.0273,0.488 C 5.7999,11.089 9.5335,7.5996 14,7.5996 l 0,-1 z m 9.086,1.25 c -0.148,0.6809 -0.029,1.416 0.6,1.875 1.613,1.4364 2.654,3.4894 2.787,5.7874 0.01,-0.17 0.027,-0.339 0.027,-0.512 0,-2.495 -1.087,-4.737 -2.814,-6.2754 -0.32,-0.2335 -0.507,-0.5412 -0.6,-0.875 z M 2.027,15.461 C 2.0188,15.641 1.9997,15.818 1.9997,16 c 0,3.95 1.926,7.451 4.8887,9.615 C 8.0019,26.337 9.281,24.529 8.9196,23.168 8.678,24.24 7.7379,25.166 6.8884,24.615 4.0427,22.536 2.1718,19.22 2.027,15.461 Z m 27.946,0.078 C 29.684,21.859 24.39,26.9 18,26.9 l 0,1 c 6.572,0 12,-5.328 12,-11.9 0,-0.156 -0.021,-0.306 -0.027,-0.461 z M 11.91,25.52 11,26 l 7,4 0,-1 -6.09,-3.48 z"/>
 </g>
 <g style="fill:#9ccd44" transform="matrix(1.399957,0,0,1.399957,-5.7992395,-1.5980475)">
  <path transform="translate(2,0)" d="m 22.143,4 0,3 C 12.754,7 5,14.611 5,24 c 0,5.6431 2.75,10.644 6.9824,13.736 1.9893,1.2887 4.3615,-3.0761 2.0391,-4.7715 -2.468,-2.197 -4.022,-5.399 -4.022,-8.964 0,-6.627 5.515,-12 12.143,-12 l 0,3 10,-5.2857 z"/>
 </g>
 <g style="fill:#5db43e" transform="matrix(-1.399957,0,0,-1.399957,69.79844,65.599889)">
  <path transform="matrix(-1,0,0,-1,52,48)" d="m 37.264,10.029 c -1.7552,-0.0047 -3.3173,3.5224 -1.2852,5.0059 2.467,2.198 4.021,5.4 4.021,8.965 0,6.627 -5.515,12 -12.143,12 l 0,-3 -10,5.2857 10,5.7143 0,-3 c 9.389,0 17.143,-7.611 17.143,-17 0,-5.643 -2.75,-10.644 -6.982,-13.736 -0.249,-0.161 -0.504,-0.234 -0.754,-0.235 z"/>
 </g>
 <g style="fill:#8b9cbe" transform="matrix(1.399957,0,0,1.399957,-5.7992395,-1.5980475)">
  <path style="opacity:0.1;fill:#8b9cbe" transform="matrix(0.71430765,0,0,0.71430765,4.1424412,1.1414976)" d="M 28 4.0019531 L 28 5.0019531 L 41.089844 12.482422 L 42 12.001953 L 28 4.0019531 z M 28 8.2011719 C 14.855742 8.2011719 4 18.856542 4 32 C 4 32.101791 4.0110319 32.200782 4.0175781 32.300781 C 4.3958111 19.481953 15.090551 9.2011719 28 9.2011719 L 28 8.2011719 z M 49.167969 12.443359 C 47.385563 12.43874 45.757546 15.032607 46.080078 17.251953 C 46.26463 15.322321 47.649727 13.439372 49.167969 13.443359 C 49.519964 13.444359 49.874659 13.545893 50.222656 13.771484 C 55.991193 17.985263 59.782501 24.734543 59.980469 32.376953 C 59.987189 32.252077 60 32.128569 60 32.001953 C 60 24.102039 56.148593 17.100238 50.222656 12.771484 C 49.874659 12.545888 49.519964 12.444359 49.167969 12.443359 z"/>
 </g>
</svg>
