<svg xmlns="http://www.w3.org/2000/svg" width="64" height="64" version="1.1">
 <g style="opacity:.2" transform="matrix(.16011 0 0 .15726 3.3693 11.546)">
  <path transform="matrix(12.491,0,0,12.718,-21.043,-67.063)" d="m27 5-0.436 0.6699-2.564 9.8301-2.992-1.281-0.508 0.781 2.625 1.125 0.924 0.186 2.951-11.311zm-18.5 8-4.9531 0.762-1.5469 1.238 6.5-1 4 13 2.5-1.5 15 1.5-0.555-1.055-14.445-1.445-2.5 1.5-4-13z"/>
  <path transform="matrix(12.491,0,0,12.718,-21.043,-67.063)" d="m20.771 16.416-6.271 3.584-1.162-2.711-0.338 0.211l1.5 3.5 7-4-0.72852-0.58398z"/>
 </g>
 <g transform="matrix(.16011 0 0 .15726 3.3693 10.546)">
  <path style="fill:#1ba9cb" d="m135.1 276.33-49.968-165.34-81.192 12.72 62.455-50.873 37.475 12.718 49.96 127.18 106.17-63.6l31.228 6.3591 62.455 120.82-187.37-19.077zm99.92-152.62 81.2-127.18-37.48 146.26z"/>
  <path style="fill:#e65902" d="m160.08 200.02-18.737-44.514 49.964-31.795h24.982l31.228 25.436z"/>
  <path style="opacity:.2;fill:#8b9cbe" transform="matrix(6.2455 0 0 6.359 -21.043 -67.066)" d="m54 10l-13 20 0.508 0.219 12.056-18.549 0.436-1.67zm-40 12l-10 8 1.5469-0.238 8.4531-6.762 6 2 8 20 16.998-10 5.002 1 9.443 17.945 0.555 0.055-9.998-19-5.002-1-16.998 10-8-20-6-2zm20 8l-8 5 0.338 0.789 7.662-4.789h4l4.271 3.416 0.729-0.416-5-4h-4z"/>
 </g>
</svg>
