<svg xmlns="http://www.w3.org/2000/svg" width="64" height="64" version="1.1">
 <path style="fill:#789c56" d="m45.999 8.0024a14 14 0 0 1 10.09 4.3163c0.06588 0.064 0.12906 0.118 0.19532 0.184 1.4611 1.4612 2.3075 2.8599 2.6757 4.2303a14 14 0 0 1 1.038 5.2 14 14 0 0 1 -14 14 14 14 0 0 1 -5.578 -1.18c-0.14356-0.058-0.29057-0.128-0.43749-0.196a14 14 0 0 1 -0.53905 -0.26559c-0.07534-0.04-0.1464-0.066-0.22266-0.11-14.194 19.2-35.221 21.8-35.221 21.8l28.785-29.379c-0.322-0.734-0.486-1.416-0.54-2.062a14 14 0 0 1 -0.246 -2.6 14 14 0 0 1 14 -14z"/>
 <path style="opacity:.2" d="m59.975 22.414a14 14 0 0 1 -13.977 13.519 14 14 0 0 1 -5.578 -1.18c-0.14356-0.058-0.29058-0.12927-0.4375-0.19726a14 14 0 0 1 -0.53906 -0.26562c-0.07534-0.04-0.1464-0.06538-0.22266-0.10938-12.225 16.538-29.488 20.751-34.048 21.604l-1.172 1.195s21.027-2.5993 35.221-21.799c0.07626 0.044 0.14732 0.06938 0.22266 0.10938a14 14 0 0 0 0.53906 0.26562c0.14692 0.068 0.29394 0.13926 0.4375 0.19726a14 14 0 0 0 5.5781 1.1777 14 14 0 0 0 14 -13.998 14 14 0 0 0 -0.02344 -0.51953zm-27.951 0.05469a14 14 0 0 0 -0.024 0.47 14 14 0 0 0 0.24609 2.5996c0.03527 0.42192 0.13876 0.86712 0.28125 1.3242l0.25781-0.26172c-0.32199-0.73398-0.48506-1.4165-0.53906-2.0625a14 14 0 0 1 -0.22266 -2.0703z"/>
 <path style="opacity:.2;fill:#8b9cbe" d="m45.998 7.9395a14 14 0 0 0 -13.998 14 14 14 0 0 0 0.023 0.529 14 14 0 0 1 13.975 -13.53l0.002 0.063a14 14 0 0 1 10.09 4.316c0.066 0.064 0.129 0.118 0.195 0.184 1.461 1.461 2.308 2.86 2.676 4.23a14 14 0 0 1 1.014 4.682 14 14 0 0 0 0.023 -0.48 14 14 0 0 0 -1.037 -5.202c-0.368-1.37-1.215-2.769-2.676-4.23-0.066-0.066-0.129-0.12-0.195-0.184a14 14 0 0 0 -10.09 -4.316l-0.002-0.0625zm-13.471 18.924l-28.527 29.117s0.4379-0.058 1.1719-0.195l27.613-28.183c-0.112-0.255-0.182-0.496-0.258-0.739z"/>
 <path style="fill:#33d198" d="m18 8.0024a14 14 0 0 0 -10.089 4.3166c-0.065884 0.064-0.12905 0.118-0.19531 0.184-1.4611 1.4612-2.3075 2.8599-2.6757 4.2303a14 14 0 0 0 -1.0394 5.2 14 14 0 0 0 13.999 14 14 14 0 0 0 5.578 -1.18c0.14356-0.058 0.29057-0.128 0.43749-0.196a14 14 0 0 0 0.53905 -0.26559c0.07534-0.04 0.1464-0.066 0.22265-0.11 14.194 19.2 35.221 21.799 35.221 21.799l-28.785-29.378c0.32171-0.73358 0.48625-1.415 0.53905-2.0623a14 14 0 0 0 0.246 -2.601 14 14 0 0 0 -13.999 -13.999z"/>
 <circle style="opacity:.2" cx="18" cy="23.002" r="6"/>
 <circle style="opacity:.2" cx="32" cy="35.002" r="2"/>
 <circle style="opacity:.2" cx="45.999" cy="23.002" r="6"/>
 <circle style="fill:#f9f9f9" cx="18" cy="22.002" r="6"/>
 <circle style="fill:#f9f9f9" cx="32" cy="34.002" r="2"/>
 <circle style="fill:#f9f9f9" cx="45.999" cy="22.002" r="6"/>
 <path style="opacity:.2;fill:#8b9cbe" d="m17.998 7.9395l0.002 0.0625a14 14 0 0 0 -10.09 4.316c-0.0657 0.064-0.1289 0.118-0.1952 0.184-1.461 1.461-2.3075 2.86-2.6757 4.23a14 14 0 0 0 -1.0391 5.202 14 14 0 0 0 0.0254 0.488 14 14 0 0 1 1.0137 -4.69c0.3682-1.37 1.2147-2.769 2.6757-4.23 0.0663-0.066 0.1295-0.12 0.1954-0.184a14 14 0 0 1 10.09 -4.316l-0.002-0.0625a14 14 0 0 1 13.977 13.538 14 14 0 0 0 0.023 -0.539 14 14 0 0 0 -14 -14zm13.473 18.926c-0.076 0.243-0.147 0.482-0.258 0.737l27.613 28.183c0.734 0.137 1.172 0.195 1.172 0.195l-28.527-29.115z"/>
 <path style="opacity:.2" d="m4.0254 22.421a14 14 0 0 0 -0.0254 0.512 14 14 0 0 0 14 13.998 14 14 0 0 0 5.578 -1.178c0.14356-0.058 0.29058-0.12927 0.4375-0.19726a14 14 0 0 0 0.53906 -0.26562c0.07534-0.04 0.1464-0.06538 0.22266-0.10938 14.193 19.2 35.22 21.799 35.22 21.799l-1.1719-1.1953c-4.5605-0.85265-21.823-5.0655-34.049-21.604-0.07626 0.044-0.14732 0.06938-0.22266 0.10938a14 14 0 0 1 -0.53906 0.26562c-0.14692 0.068-0.29394 0.13926-0.4375 0.19726a14 14 0 0 1 -5.578 1.18 14 14 0 0 1 -13.975 -13.512zm27.949 0.05469a14 14 0 0 1 -0.22266 2.0625c-0.0528 0.64738-0.21735 1.3289-0.53906 2.0625l0.25781 0.26172c0.14248-0.45692 0.24676-0.90138 0.28125-1.3242a14 14 0 0 0 0.24609 -2.5996 14 14 0 0 0 -0.02344 -0.46289z"/>
</svg>
