<svg xmlns="http://www.w3.org/2000/svg" width="64" height="64" version="1">
 <path style="opacity:0.2" d="M 5.9804688,5.0147885 A 3.0003,3.0003 0 0 0 5.8046876,11.006976 c 2.9186644,0.232733 4.6983674,0.726212 5.6445314,1.230469 0.946164,0.504257 1.229836,0.881433 1.621093,1.847656 0.782515,1.932446 0.928287,6.392831 2.480469,12.601563 A 3.0018523,3.0018523 0 1 0 21.375,25.229632 C 19.991961,19.697476 20.192855,15.68768 18.632812,11.835101 17.852791,9.9088117 16.368669,8.0632085 14.269531,6.9444759 12.170394,5.8257435 9.6300366,5.2935373 6.28125,5.0265073 A 3.0003,3.0003 0 0 0 5.9804688,5.0147885 Z"/>
 <circle style="opacity:0.2" cx="54" cy="27" r="7"/>
 <circle style="opacity:0.2" cx="10" cy="27" r="7"/>
 <path style="opacity:0.2" d="M 11.3,15 C 10.0258,15 9,15.9366 9,17.1 V 35.999998 A 23,21 0 0 0 32,57 23,21 0 0 0 55,35.999998 V 17.1 C 55,15.9366 53.9742,15 52.7,15 H 32 Z"/>
 <circle style="fill:#17191e" cx="10" cy="26" r="7"/>
 <circle style="fill:#17191e" cx="54" cy="26" r="7"/>
 <path style="fill:none;stroke:#ffb500;stroke-width:6;stroke-linecap:round" d="M 6.0425932,7.018285 C 18.577495,8.0178096 15.527546,13.217652 18.462768,24.95854"/>
 <path style="opacity:0.2;fill:#8b9cbe" d="M 5.9804688 4.015625 A 3.0003 3.0003 0 0 0 3.0683594 7.5117188 A 3.0003 3.0003 0 0 1 5.9804688 5.015625 A 3.0003 3.0003 0 0 1 6.28125 5.0273438 C 9.6300366 5.2943737 12.170394 5.8265803 14.269531 6.9453125 C 16.368669 8.0640451 17.852792 9.9096477 18.632812 11.835938 C 20.192856 15.688516 19.991967 19.698314 21.375 25.230469 A 3.0018522 3.0018522 0 0 1 21.419922 25.443359 A 3.0018522 3.0018522 0 0 0 21.375 24.230469 C 19.991967 18.698314 20.192856 14.688515 18.632812 10.835938 C 17.852792 8.9096477 16.368669 7.0640451 14.269531 5.9453125 C 12.170394 4.8265803 9.6300366 4.2943738 6.28125 4.0273438 A 3.0003 3.0003 0 0 0 5.9804688 4.015625 z"/>
 <path style="fill:#4f4f4f" d="M 11.3,14 C 10.0258,14 9,14.9366 9,16.1 V 34.999998 A 23,21 0 0 0 32,56 23,21 0 0 0 55,34.999998 V 16.1 C 55,14.9366 53.9742,14 52.7,14 H 32 Z"/>
 <path style="opacity:0.2" d="m 37.838236,41.046234 c 0.81808,5.337592 -1.486338,12.077718 -4.18593,12.81747 -4.776966,1.204094 -0.359044,-8.354316 -8.526942,-9.966944 2.280504,3.870242 -0.717416,5.231162 -4.898499,5.733882 -1.490807,0.1686 -2.646774,-0.629386 -1.96481,-2.72509 -0.130468,-0.429078 -0.619423,-1.13614 -1.380031,-1.396818 -0.739218,-0.31025 -1.437448,0.0134 -2.137674,-0.10264 -0.007,0.06018 -0.07674,0.13848 -0.01126,0.17912 1.433359,1.472878 1.096124,2.633764 -0.279518,3.318316 -0.468506,0.14124 -0.900098,0.1037 -1.268634,-0.08668 -0.498971,-0.257722 -0.585498,-0.557482 -0.426641,-0.86673 0.112796,-0.219482 0.32385,-0.431154 0.446423,-0.650034 0.03347,-0.05968 -0.09108,-0.13444 -0.144098,-0.202242 -0.154986,0.03014 -0.378025,0.0422 -0.454899,0.09242 -4.3811852,2.575372 1.360682,8.290898 3.506585,9.703198 4.422886,2.669272 9.478272,4.096254 14.64986,4.106538 12.060404,-0.528662 23.593008,-6.743588 19.186384,-13.461798 0.12232,2.178666 -1.79851,4.820846 -6.064926,3.338734 1.500418,-4.232994 -6.474248,-10.475218 -6.04538,-9.830748 z"/>
 <path style="fill:#f67c01" d="m 37.838236,40.046192 c 0.81808,5.337592 -1.486338,12.077718 -4.18593,12.81747 -4.776966,1.204094 -0.359044,-8.354316 -8.526942,-9.966944 2.280504,3.870242 -0.717416,5.231162 -4.898499,5.733882 -1.490807,0.1686 -2.646774,-0.629386 -1.96481,-2.72509 -0.130468,-0.429078 -0.619423,-1.13614 -1.380031,-1.396818 -0.739218,-0.31025 -1.437448,0.0134 -2.137674,-0.10264 -0.007,0.06018 -0.07674,0.13848 -0.01126,0.17912 1.433359,1.472878 1.096124,2.633764 -0.279518,3.318316 -0.468506,0.14124 -0.900098,0.1037 -1.268634,-0.08668 -0.498971,-0.257722 -0.585498,-0.557482 -0.426641,-0.86673 0.112796,-0.219482 0.32385,-0.431154 0.446423,-0.650034 0.03347,-0.05968 -0.09108,-0.13444 -0.144098,-0.202242 -0.154986,0.03014 -0.378025,0.0422 -0.454899,0.09242 -4.3811852,2.575372 1.360682,8.290898 3.506585,9.703198 4.422886,2.669272 9.478272,4.096254 14.64986,4.106538 12.060404,-0.528662 23.593008,-6.743588 19.186384,-13.461798 0.12232,2.178666 -1.79851,4.820846 -6.064926,3.338734 1.500418,-4.232994 -6.474248,-10.475218 -6.04538,-9.830748 z"/>
 <path style="opacity:0.1;fill:#8b9cbe" d="M 11.300781 14 C 10.026581 14 9 14.938162 9 16.101562 L 9 17.101562 C 9 15.938163 10.026581 15 11.300781 15 L 32 15 L 52.699219 15 C 53.973419 15 55 15.938163 55 17.101562 L 55 16.101562 C 55 14.938162 53.973419 14 52.699219 14 L 32 14 L 11.300781 14 z"/>
 <path style="fill:#8b9cbe;opacity:0.2" d="M 37.851562 40.003906 C 37.817079 39.992555 37.811086 40.006596 37.837891 40.046875 C 37.889021 40.380474 37.927677 40.719751 37.955078 41.0625 C 38.761873 41.538237 43.577638 45.636971 44.037109 49.210938 C 44.547788 45.297631 38.340539 40.164865 37.851562 40.003906 z M 37.992188 42.837891 C 37.859728 47.491702 35.895722 52.248543 33.652344 52.863281 C 28.875378 54.067375 33.292898 44.509112 25.125 42.896484 C 25.363105 43.300572 25.53052 43.67218 25.658203 44.023438 C 33.089751 45.944007 28.984347 55.039908 33.652344 53.863281 C 36.05706 53.204332 38.142266 47.786711 37.992188 42.837891 z M 16.333984 44.378906 C 15.792927 44.333607 15.26931 44.49328 14.744141 44.40625 C 14.737141 44.46643 14.666942 44.545298 14.732422 44.585938 C 15.016805 44.878161 15.214528 45.153544 15.365234 45.419922 C 15.86056 45.384683 16.361815 45.28915 16.882812 45.507812 C 17.463294 45.706757 17.880032 46.165557 18.105469 46.5625 C 18.137741 46.357998 18.1845 46.143547 18.261719 45.90625 C 18.131251 45.477172 17.64342 44.768491 16.882812 44.507812 C 16.698008 44.43025 16.514337 44.394006 16.333984 44.378906 z M 25.857422 45.728516 C 25.504476 47.497746 23.161112 48.278019 20.226562 48.630859 C 19.195464 48.74747 18.342351 48.386454 18.128906 47.46875 C 17.822333 49.1366 18.880381 49.783103 20.226562 49.630859 C 23.664608 49.21748 26.29631 48.220457 25.857422 45.728516 z M 13.060547 46.097656 C 12.905561 46.127796 12.682343 46.139233 12.605469 46.189453 C 11.227465 46.999479 10.852759 48.120595 11.050781 49.320312 C 11.169008 48.509559 11.621611 47.76779 12.605469 47.189453 C 12.622082 47.1786 12.663302 47.173872 12.691406 47.166016 C 12.699442 47.094739 12.720441 47.021969 12.757812 46.949219 C 12.870608 46.729737 13.082505 46.519661 13.205078 46.300781 C 13.238548 46.241101 13.113565 46.165458 13.060547 46.097656 z M 49.949219 46.539062 C 50.069841 48.68749 48.19774 51.277252 44.054688 49.927734 C 44.038619 50.25196 43.991465 50.570422 43.882812 50.876953 C 48.149228 52.359065 50.071539 49.717728 49.949219 47.539062 C 50.486042 48.357487 50.783409 49.166821 50.875 49.960938 C 50.989299 48.853006 50.713538 47.704321 49.949219 46.539062 z M 15.554688 46.841797 C 15.387436 47.265607 15.011482 47.626445 14.453125 47.904297 C 13.984619 48.045537 13.554083 48.006786 13.185547 47.816406 C 13.089936 47.767022 13.021577 47.714351 12.955078 47.662109 C 12.882917 47.757412 12.807693 47.85216 12.757812 47.949219 C 12.598956 48.258467 12.686576 48.558684 13.185547 48.816406 C 13.554083 49.006786 13.984619 49.045537 14.453125 48.904297 C 15.407453 48.429401 15.844312 47.72031 15.554688 46.841797 z"/>
</svg>
