<svg xmlns="http://www.w3.org/2000/svg" width="64" height="64" version="1.1">
 <path style="opacity:0.2;fill-rule:evenodd" d="M 31.999998,4 C 23.666668,6.61446 15.333332,9.237843 7,11.858999 7.6104178,31.318 12.272917,55.053386 31.999998,62 51.9375,55.263076 56.154168,31.108306 57,11.858999 48.666666,9.235614 40.333332,6.61223 31.999998,4 Z"/>
 <path style="fill:#e6e6e6;fill-rule:evenodd" d="m 31.999998,8.044699 c -7.052082,2.160234 -14.102083,4.327 -21.154166,6.491591 0.516667,16.073276 4.4625,35.67871 21.154166,41.41901 C 48.870832,50.39139 52.437498,30.437532 53.154166,14.53629 46.102082,12.369522 39.052082,10.202755 31.999998,8.044699"/>
 <path style="fill:#ff9744;fill-rule:evenodd" d="M 31.999998,3 C 23.666668,5.61446 15.333332,8.237843 7,10.858999 7.6104178,30.318 12.272917,54.053386 31.999998,61 51.9375,54.263076 56.154168,30.108306 57,10.858999 48.666666,8.235614 40.333332,5.61223 31.999998,3 Z"/>
 <path style="fill:#ffd764;fill-rule:evenodd" d="M 31.999998,3 C 23.666668,5.61446 15.333332,8.237843 7,10.858999 7.6104178,30.318 12.272917,54.053386 31.999998,61 Z"/>
 <path style="opacity:0.2;fill-rule:evenodd" d="m 31.999998,9.793527 c 6.345864,1.99032 12.694594,3.986769 19.04297,5.985026 C 50.457126,23.949842 49.287442,32.48609 46.485676,39.61077 43.47963,47.254914 39.034812,52.862006 32.035264,55.888208 25.06234,52.783716 20.538594,47.165964 17.489907,39.57301 14.641626,32.47918 13.453036,23.97813 12.932615,15.786644 19.289831,13.786722 25.6453,11.788092 31.999998,9.793527 Z"/>
 <path style="fill:#8b9cbe;fill-rule:evenodd" d="m 31.999998,8.793527 c 6.345864,1.99032 12.694594,3.986769 19.04297,5.985026 C 50.457126,22.949842 49.287442,31.48609 46.485676,38.61077 43.47963,46.254914 39.034812,51.862006 32.035264,54.888208 25.06234,51.783716 20.538594,46.165964 17.489907,38.57301 14.641626,31.47918 13.453036,22.97813 12.932615,14.786644 19.289831,12.786722 25.6453,10.788092 31.999998,8.793527 Z"/>
 <path style="fill:#ec3e3e" d="M 32 8.7929688 C 29.95856 9.4337207 27.91663 10.077251 25.875 10.71875 L 29 14.046875 L 29 24 L 18.300781 24 L 17.417969 24 L 13.398438 20.296875 C 13.814172 24.245438 14.442263 28.168333 15.375 31.894531 L 17.417969 30 L 18.300781 30 L 29 30 L 29 49.953125 L 27.148438 52.015625 C 27.153637 52.019525 27.158903 52.023424 27.164062 52.027344 C 27.759512 52.475192 28.392536 52.87992 29.035156 53.277344 C 29.193744 53.375234 29.338432 53.487279 29.5 53.582031 C 30.307086 54.056277 31.150586 54.492891 32.035156 54.886719 C 32.928216 54.500611 33.778436 54.071586 34.589844 53.601562 C 35.398718 53.133007 36.168436 52.625813 36.902344 52.078125 C 36.904644 52.076425 36.907856 52.075919 36.910156 52.074219 L 35 49.953125 L 35 30 L 45.660156 30 L 46.582031 30 L 48.582031 31.849609 C 49.489117 28.151268 50.111209 24.26477 50.539062 20.361328 L 46.582031 24 L 45.660156 24 L 35 24 L 35 14.046875 L 38.125 10.71875 C 36.083286 10.077414 34.041228 9.4331808 32 8.7929688 z"/>
 <path style="opacity:0.2;fill:#8b9cbe;fill-rule:evenodd" d="M 32 3 C 23.66667 5.61446 15.333332 8.238219 7 10.859375 C 7.0101935 11.184323 7.0277623 11.516107 7.0429688 11.845703 C 15.361962 9.2290482 23.681009 6.6099615 32 4 C 40.311141 6.6052731 48.622453 9.2214903 56.933594 11.837891 C 56.958837 11.508826 56.986031 11.177285 57 10.859375 C 48.666666 8.23599 40.333334 5.61223 32 3 z"/>
</svg>
