<svg width="64" height="64" version="1.1" xmlns="http://www.w3.org/2000/svg">
 <g>
  <path d="m59.99864 31.000729-0.036 0.695983c-0.369991 15.183631-12.685691 27.303337-27.96332 27.303337-15.177831 0-27.427334-11.96571-27.949321-27.011344-0.0112 0.337992-0.049999 0.669984-0.049999 1.011975 2e-7 15.511623 12.487697 27.99932 27.99932 27.99932 15.277629 0 27.593329-12.119705 27.96332-27.303337l0.036-0.695983z" style="opacity:.2"/>
  <path d="m31.707327 4.0014094-0.02344 0.01562c-15.363426 0.1703955-27.683327 12.578894-27.683327 27.98332 0 15.511623 12.487697 27.99932 27.99932 27.99932 15.276829 0 27.593329-12.119506 27.96332-27.303337 0 0 0.0242-0.478448 0.03516-0.695303v-21.999465c0-3.3239196-2.675935-5.9998546-5.999855-5.9998546h-21.999465z" style="fill:#e2e536"/>
  <circle cx="31.999001" cy="33.000999" r="20" style="opacity:.2"/>
  <path d="m 31.707031,4.0019531 -0.02344,0.015625 C 16.320168,4.1879736 4,16.595574 4,32 4,32.112878 4.011179,32.222773 4.017578,32.333984 4.3677172,17.240427 16.542914,5.1855031 31.683594,5.0175781 L 31.707031,5.0019531 31.708984,5 H 54 c 3.32392,0 6,2.6760804 6,6 V 10 C 60,6.6760804 57.32392,4.0019531 54,4.0019531 H 31.708984 Z" style="fill:#8b9cbe;opacity:.2"/>
  <circle cx="31.999001" cy="32.000999" r="20" style="fill:#353535"/>
  <path d="m34.749253 24.324891c-0.09592 1.128453-0.849459 0.649464-1.665319 1.265189-0.220095-0.0337-0.471129-0.0337-0.815861-0.0337-0.0623-0.752481 0.189156-0.889218 0.313353-1.025895 0.502508-0.41067 0.849459-0.205095 0.849459-0.205095 0.376111-0.06928 0.720403 0.0337 1.318348-5.42e-4zm1.882754-1.847295h-1.097813v-0.307632h-0.595765v0.170435c-0.06452 0.0337-0.126837 0.103018-0.189156 0.136737h-0.0623c-1.038655-0.889218-1.100454 0.923878-1.792137 0.513208-0.0623-0.376491-0.03096-0.718783-0.03096-1.163172 1.193731-0.0347 0.753542-0.376471 0.40925-0.82084-0.124177-0.171396-0.189155-0.444849-0.220095-0.615765-0.282413-1.128473-1.445244-1.812576-3.138923-1.094314-1.100454 0.44437-0.81586 2.052351-0.722603 3.146724-0.0623 0.102077-0.189155 0.06838-0.282413 0.06838-1.193731 0.0684-1.727238 1.435605-1.978672 2.530539 0.0623 0.992196-0.0623 2.086549-0.220094 3.043526-0.157797 0.957577-0.471129 1.710098-0.502508 2.633336-0.0623 0.82084 0.220094 1.778417 0.157796 2.530938-0.660304 2.120749-1.131913 3.522715-1.476164 5.78026-0.251034 0.512727-1.129193 1.607061-1.476164 1.846835-0.09324 0.170436 0.0623 0.547387-0.09324 0.786201-0.282413 0.444369-0.722603 0.684123-0.973656 1.163172 0.0623 0.102077-0.377871 0.205095-0.344292 0.37647 0.03096 0.170436 0.251034 0.614806 0.344292 0.717823 0.03096 0.0684 0.344291-0.103017 0.344291 0 0.126837 0.40971 0.40927 1.265189 0.722603 1.470324 1.382886 0.170416 1.382886 0.170416 1.947292 0 0.313353-0.992196-1.066914-0.547386-0.942737-1.881454 1.885394-0.40971 2.48074-0.991736 3.234322-3.146124 0.344291-1.573361 0.81586-3.111924 1.538062-4.616887 0.124177-0.102078 0.09326-0.375991 0.313353-0.479029 0.846799 1.538663 2.387542 2.633936 3.138923 4.241497 0.189156 2.08595 0.567027 3.214522 1.224731 3.590913 0.157796 0.06838 0 0.717823 0.126857 0.854539 0 0.205095 0.0623 0.444369-0.03096 0.684104-0.06452 0.171395-0.03094 0.37647-0.03094 0.547386v0.205095c0.03094 0.309073 0.09326 0.309073 0.375671 0.547387 0.81586 0.581086 1.916393 1.504963 3.014127 0.82084 0.502507-0.890178-0.564387-2.017751-1.317888-2.599337-0.251034-0.205095-0.691224-0.717822-0.629365-1.060154 0.40927-0.444849 0.691223-2.394142 0.533447-3.899105-0.0623-0.341332-0.124177-0.684124-0.251034-0.957577-0.375671-0.786181-1.22245-1.880994-1.944673-2.667135 0.09326-0.102078 0.220095-0.239754 0.375671-0.308113 0-0.752001-0.282413-0.991736-0.657644-1.538642-0.315992-0.547387-1.035915-1.607061-1.572062-1.949313 0 0 0-0.0347-0.533447-0.0347-0.03096-0.375991 0.06452-0.684103 0.157797-1.094313 0-0.307633 0.220094-0.136257 0.282413-0.820841 0.157796-0.581085 0.09326-0.239274 0.220094-0.82038 0.124177-0.273453 0.189156-0.547386 0.189156-0.992195 0.468928 0.171395 1.411165 0.136736 1.820396 0l0.09326 0.0684c0.126837 0.0347 0.157776-0.170436 0.251034-0.204615 0.722603-0.41115 0.973656-1.128933 1.569422-1.197331 0 0 0.315992-0.171396 0.784481 0 0.189155 0 0.346952 0.0337 0.346952-0.171396 0.03096-0.307632 0.03096-0.546427 0.189155-0.752482 0.124177 0.82084 0.468929 1.744718 1.097813 2.633936l0.627225-0.477848c-0.595766-0.786181-0.971016-1.675379-1.035915-2.701934 0.03092 0.06838 0.06454 0.136716 0.126857 0.205095 0.220095 0 0.344292-0.513228 0.595766-0.479049 0.03094-0.06838 0.09592-0.376471 0.157776-0.615745h2.353943l0.845979-0.201995v-0.479028l-0.626705-0.06838v-0.547386h-0.157776v-0.615745h-0.375671v0.581566l-0.973656-0.06838v-0.376471h-0.375671v0.341812l-1.004556-0.102077v-0.513208h-0.37787v0.479028l-1.476165-0.102077v-0.169936h0.0011z" style="fill-rule:evenodd;opacity:.2"/>
  <path d="m34.749253 23.32494c-0.09592 1.128452-0.849459 0.649464-1.665319 1.265189-0.220095-0.0337-0.471129-0.0337-0.815861-0.0337-0.0623-0.752482 0.189156-0.889218 0.313353-1.025895 0.502508-0.41067 0.849459-0.205095 0.849459-0.205095 0.376111-0.06928 0.720403 0.0337 1.318348-5.42e-4zm1.882754-1.847295h-1.097813v-0.307633h-0.595765v0.170436c-0.06452 0.0337-0.126837 0.103018-0.189156 0.136737h-0.0623c-1.038655-0.889219-1.100454 0.923877-1.792137 0.513207-0.0623-0.376491-0.03096-0.718782-0.03096-1.163171 1.193731-0.0347 0.753542-0.376471 0.40925-0.820841-0.124177-0.171395-0.189155-0.444849-0.220095-0.615765-0.281993-1.126972-1.443965-1.810956-3.137923-1.092773-1.100454 0.444369-0.815861 2.05235-0.722603 3.146724-0.0623 0.102077-0.189155 0.06838-0.282413 0.06838-1.193731 0.0684-1.727238 1.435605-1.978672 2.530538 0.0623 0.992196-0.0623 2.08655-0.220094 3.043526-0.157797 0.957577-0.471129 1.710099-0.502508 2.633336-0.0623 0.82084 0.220094 1.778417 0.157796 2.530939-0.660304 2.120748-1.131913 3.522714-1.476164 5.780259-0.251034 0.512728-1.129193 1.607061-1.476164 1.846836-0.09324 0.170435 0.0623 0.547386-0.09324 0.7862-0.282413 0.44437-0.722603 0.684124-0.973656 1.163172 0.0623 0.102078-0.377871 0.205095-0.344292 0.376471 0.03096 0.170436 0.251034 0.614805 0.344292 0.717823 0.03096 0.0684 0.344291-0.103018 0.344291 0 0.126837 0.40971 0.40927 1.265189 0.722603 1.470324 1.382886 0.170416 1.382886 0.170416 1.947292 0 0.313353-0.992196-1.066914-0.547387-0.942737-1.881454 1.885394-0.40971 2.48074-0.991736 3.234322-3.146124 0.344291-1.573362 0.81586-3.111924 1.538062-4.616888 0.124177-0.102077 0.09326-0.375991 0.313353-0.479028 0.846799 1.538662 2.387542 2.633936 3.138923 4.241497 0.189156 2.085949 0.567027 3.214522 1.224731 3.590913 0.157796 0.06838 0 0.717822 0.126857 0.854539 0 0.205095 0.0623 0.444369-0.03096 0.684103-0.06452 0.171396-0.03094 0.376471-0.03094 0.547387v0.205095c0.03094 0.309072 0.09326 0.309072 0.375671 0.547387 0.81586 0.581085 1.916393 1.504963 3.014127 0.82084 0.502507-0.890179-0.564387-2.017751-1.317888-2.599337-0.251034-0.205095-0.691224-0.717823-0.629365-1.060154 0.40927-0.44485 0.691223-2.394142 0.533447-3.899106-0.0623-0.341331-0.124177-0.684123-0.251034-0.957576-0.375671-0.786181-1.22245-1.880995-1.944673-2.667136 0.09326-0.102077 0.220095-0.239754 0.375671-0.308112 0-0.752002-0.282413-0.991736-0.657644-1.538643-0.315992-0.547386-1.035915-1.607061-1.572062-1.949312 0 0 0-0.0347-0.533447-0.0347-0.03096-0.37599 0.06452-0.684103 0.157797-1.094313 0-0.307632 0.220094-0.136257 0.282413-0.82084 0.157796-0.581086 0.09326-0.239274 0.220094-0.82038 0.124177-0.273453 0.189156-0.547387 0.189156-0.992196 0.468928 0.171396 1.411165 0.136737 1.820395 0l0.09326 0.0684c0.126837 0.0347 0.157776-0.170435 0.251034-0.204615 0.722603-0.41115 0.973656-1.128932 1.569422-1.197331 0 0 0.315992-0.171395 0.784481 0 0.189155 0 0.346952 0.0337 0.346952-0.171395 0.03096-0.307633 0.03096-0.546427 0.189155-0.752482 0.124177 0.82084 0.468929 1.744718 1.097813 2.633936l0.627225-0.477848c-0.595766-0.786181-0.971016-1.67538-1.035915-2.701935 0.03092 0.06838 0.06454 0.136717 0.126857 0.205095 0.220095 0 0.344292-0.513227 0.595766-0.479048 0.03094-0.06838 0.09592-0.376471 0.157776-0.615745h2.353943l0.845979-0.203995v-0.479029l-0.626705-0.06838v-0.547387h-0.157776v-0.615745h-0.375671v0.581566l-0.973656-0.06838v-0.376471h-0.375671v0.341812l-1.004556-0.102078v-0.513207h-0.37787v0.479028l-1.476165-0.102078v-0.169935h0.0011z" style="fill-rule:evenodd;fill:#e2e536"/>
 </g>
</svg>
