<svg xmlns="http://www.w3.org/2000/svg" width="64" height="64" version="1">
 <circle style="opacity:0.2" cx="35" cy="33" r="28"/>
 <circle style="fill:#ffb310" cx="35" cy="32" r="28"/>
 <path style="opacity:0.2;fill:#8b9cbe" d="M 35 4 A 28 28 0 0 0 7 32 A 28 28 0 0 0 7.0175781 32.492188 A 28 28 0 0 1 35 5 A 28 28 0 0 1 62.974609 32.492188 A 28 28 0 0 0 63 32 A 28 28 0 0 0 35 4 z"/>
 <path style="opacity:0.2" d="m 17.446,9.027343 c -0.234357,-0.0093 -0.469064,-0.0038 -0.702734,0.01641 L 3.3976996,10.184569 c 0,0 -2.63948244,2.964569 -2.3797099,6.002195 0.2536233,3.14955 2.7496121,5.206654 2.7496121,5.206654 L 13.341703,20.574608 17.05225,31.4 27.645218,27.766016 22.518266,12.80625 C 21.768718,10.621037 19.75432,9.120284 17.446,9.027343 Z"/>
 <path style="fill:#8b9cbe" d="m 17.446,8.0273434 c -0.234357,-0.00925 -0.469064,-0.00377 -0.702734,0.016407 L 3.3976996,9.1845694 c 0,0 -2.63948244,2.9645686 -2.3797099,6.0021946 0.2536233,3.149551 2.7496121,5.206654 2.7496121,5.206654 L 13.341703,19.574609 17.05225,30.4 27.645218,26.766016 22.518266,11.80625 C 21.768718,9.6210372 19.75432,8.1202836 17.446,8.0273434 Z"/>
 <path style="fill:#df4418" d="M 13.043657,8.3609372 6.1940474,8.9460934 c -0.6923212,1.9110136 -1.3077308,3.9842276 -1.304297,5.3894536 0.00394,1.607368 0.8033606,3.910276 1.6078126,5.824219 l 6.84414,-0.585157 1.397266,4.074219 h 0.792969 c 0,0 -0.360469,-0.628174 -0.839454,-1.503908 1.380076,-1.42028 3.763984,-3.707924 5.392189,-4.205468 1.169985,-0.35752 3.021105,-0.130956 4.599219,0.188672 l -1.67344,-4.886327 c -1.768046,-0.118566 -3.884193,-0.151512 -5.110545,0.23789 -1.834385,0.582435 -4.410476,2.935752 -5.471484,3.95664 -0.609034,-1.509876 -1.078236,-3.003824 -1.069141,-4.082421 0.01192,-1.41319 0.800492,-3.296063 1.684375,-4.9929688 z"/>
 <path style="opacity:0.2" d="m 35.398438,19 c -13.7726,0 -24.96472,4.06452 -25.4531256,8.21875 A 11.333334,11.333334 0 0 0 3,37.667968 11.333334,11.333334 0 0 0 14.332031,49 11.333334,11.333334 0 0 0 19.765625,47.613282 C 24.085916,50.976386 29.49939,53 35.398438,53 c 14.08326,0 25.5,-11.416742 25.5,-25.5 0,-7.083334 -11.41674,-8.5 -25.5,-8.5 z M 10.769531,34.003906 c 0.732031,2.778014 1.892398,5.381298 3.453125,7.703126 a 4.2500002,4.2500002 0 0 1 -1.304687,0.210936 4.2500002,4.2500002 0 0 1 -4.2500002,-4.25 4.2500002,4.2500002 0 0 1 2.1015622,-3.664062 z"/>
 <path style="fill:#b2bfd9" d="m 60.900002,26.5 c 0,14.083258 -11.41674,25.5 -25.5,25.5 C 21.316742,52 9.9000004,40.583258 9.9000004,26.5 c 0,-4.250002 11.4167416,-8.500001 25.5000016,-8.500001 14.08326,0 25.5,1.416666 25.5,8.500001 z"/>
 <path style="opacity:0.2" d="m 47.988282,19.632812 c -0.905464,2.297134 -1.40789,5.690636 -1.410158,8.089844 C 46.578556,33.951362 50.409606,38.99978 54.4375,39 c 1.884244,-0.0022 3.683324,-1.149276 5.039062,-3.164062 0.360466,-1.04082 0.681756,-2.098234 0.90625,-3.195314 0.16802,-0.821054 0.29579,-1.660076 0.382812,-2.507812 9.12e-4,-0.0092 0.003,-0.0182 0.004,-0.02734 3.9e-4,-0.0038 -3.9e-4,-0.0078 0,-0.0118 0.08304,-0.821382 0.1218,-1.653566 0.125,-2.496094 -0.0019,-0.15506 -0.0172,-0.307692 -0.03126,-0.460938 -0.008,-0.13456 -0.02644,-0.264208 -0.04296,-0.39453 -0.12808,-0.79953 -0.416068,-1.57417 -0.851562,-2.304688 -0.12786,-0.214486 -0.312752,-0.410022 -0.464844,-0.617188 -2.022816,-2.304406 -6.185652,-3.542472 -11.515624,-4.1875 z"/>
 <path style="fill:#8b9cbe" d="m 47.988282,18.632812 c -0.905464,2.297134 -1.40789,5.690636 -1.410158,8.089844 C 46.578556,32.951362 50.409606,37.99978 54.4375,38 c 1.884244,-0.0022 3.683324,-1.149276 5.039062,-3.164062 0.360466,-1.04082 0.681756,-2.098234 0.90625,-3.195314 0.16802,-0.821054 0.29579,-1.660076 0.382812,-2.507812 9.12e-4,-0.0092 0.003,-0.0182 0.004,-0.02734 3.9e-4,-0.0038 -3.9e-4,-0.0078 0,-0.0118 0.08304,-0.821382 0.1218,-1.653566 0.125,-2.496094 -0.0019,-0.15506 -0.0172,-0.307692 -0.03126,-0.460938 -0.008,-0.13456 -0.02644,-0.264208 -0.04296,-0.39453 -0.12808,-0.79953 -0.416068,-1.57417 -0.851562,-2.304688 C 59.840982,23.222936 59.65609,23.0274 59.503998,22.820234 57.48109,20.515906 53.318254,19.27784 47.988282,18.632812 Z"/>
 <path style="fill:#b2bfd9" d="M 14.333334,25.333332 A 11.333334,11.333334 0 0 0 3,36.666666 11.333334,11.333334 0 0 0 14.333334,48 11.333334,11.333334 0 0 0 25.666668,36.666666 11.333334,11.333334 0 0 0 14.333334,25.333332 Z m -1.416667,7.083334 a 4.2500002,4.2500002 0 0 1 4.25,4.25 4.2500002,4.2500002 0 0 1 -4.25,4.25 4.2500002,4.2500002 0 0 1 -4.2500002,-4.25 4.2500002,4.2500002 0 0 1 4.2500002,-4.25 z"/>
 <path style="opacity:0.2" d="M 35.398438,19 C 29.341432,19 23.854884,19.816614 19.480469,21.050782 19.169432,22.676312 19.00265,24.87895 19,26.125 18.999999,34.340236 25.659764,41 33.875,41 42.090236,41 48.75,34.340236 48.75,26.125 48.746,24.404776 48.425248,21.534722 47.839844,19.617188 44.145426,19.179656 39.9416,19 35.398438,19 Z"/>
 <path style="fill:#17191e" d="m 42.761412,46.485874 c -0.94212,3.198992 -6.421534,4.453668 -12.394506,2.756176 -5.972972,-1.697494 -10.174693,-5.703438 -9.23554,-8.903342 1.5793,-5.381026 5.221196,-0.02332 11.194166,1.67419 5.972974,1.697488 11.952626,-0.67717 10.43588,4.472976 z"/>
 <path style="fill:#df4418" d="m 23.277342,41.520834 c -0.824402,0.04676 -1.54447,0.277884 -2.140854,0.72396 0.73293,2.74426 4.401778,5.625036 9.2307,6.997394 1.509494,0.42899 2.986466,0.666212 4.367648,0.734374 0.607078,-2.903814 -1.57127,-5.005652 -4.931298,-6.640622 0.1661,0.886588 0.322556,1.7747 0.513098,2.65625 L 27.715762,42.4375 c -1.640936,-0.620912 -3.162544,-0.989042 -4.43842,-0.916666 z"/>
 <path style="fill:#17191e" d="M 51.06642,22.351214 A 4.0946354,6.8243922 0 0 0 46.971784,29.175608 4.0946354,6.8243922 0 0 0 51.06642,36 4.0946354,6.8243922 0 0 0 54.971784,31.214928 l -3.212264,-2.700434 2.94302,-2.476508 a 4.0946354,6.8243922 0 0 0 -3.63612,-3.686772 z"/>
 <path style="fill:#8b9cbe" d="M 35.398438,18 C 29.341432,18 23.854884,18.816613 19.480469,20.050782 19.169432,21.676312 19.00265,23.87895 19,25.125 18.999999,33.340236 25.659764,40 33.875,40 42.090236,40 48.75,33.340236 48.75,25.125 48.746032,23.404776 48.425248,20.534722 47.839844,18.617188 44.145426,18.179656 39.9416,18 35.398438,18 Z"/>
 <path style="fill:#17191e" d="M 33.094636,22 A 4.0946356,6.9999996 0 0 0 29,29 4.0946356,6.9999996 0 0 0 33.094636,36 4.0946356,6.9999996 0 0 0 37,31.091798 l -3.212264,-2.769924 2.94302,-2.540234 A 4.0946356,6.9999996 0 0 0 33.094636,22 Z"/>
 <ellipse style="opacity:0.1" cx="49" cy="36" rx="4" ry="3"/>
 <ellipse style="fill:#df4418" cx="49" cy="35" rx="4" ry="3"/>
 <path style="opacity:0.2" d="M 23.222656 38 C 22.31808 38.02358 21.626344 38.658274 21.132812 40.339844 C 20.997093 40.802271 20.972411 41.281172 21.042969 41.767578 C 21.064208 41.623811 21.091435 41.480828 21.132812 41.339844 C 21.626344 39.658274 22.31808 39.02358 23.222656 39 C 25.212722 38.948118 28.217735 41.844681 32.324219 43.011719 C 37.37674 44.447618 42.412093 42.99358 42.929688 45.625 C 43.487065 41.652823 37.917459 43.601288 32.324219 42.011719 C 28.217735 40.844681 25.212722 37.948118 23.222656 38 z"/>
</svg>
