<svg xmlns="http://www.w3.org/2000/svg" width="64" height="64" version="1">
 <path style="opacity:0.2" d="m 58.999998,26 c 0,11.597979 -11.864454,35 -26.499999,35 C 17.864454,61 6,37.597979 6,26 6,14.402021 12.904508,5 32.499999,5 52.095491,5 58.999998,14.402021 58.999998,26 Z"/>
 <path style="fill:#2c5771" d="m 58.999998,25 c 0,11.597979 -11.864454,35 -26.499999,35 C 17.864454,60 6,36.597979 6,25 6,13.402021 12.904508,4 32.499999,4 52.095491,4 58.999998,13.402021 58.999998,25 Z"/>
 <path style="opacity:0.2" d="M 29.144657,52.302793 C 28.973855,51.91933 28.741009,51.196354 28.627219,50.696185 28.247893,49.028858 28.411247,49.19177 27.026418,49.099706 24.491394,48.931165 22.688435,47.91109 21.361689,45.894696 19.53735,43.122056 19.450465,39.155349 21.108633,34.340961 c 0.334076,-0.969982 0.587435,-1.783436 0.563022,-1.807676 -0.02445,-0.02425 -0.50265,-0.167385 -1.062747,-0.318099 -2.727671,-0.733964 -5.084069,-2.426926 -6.364581,-4.57263 -0.931117,-1.560239 -1.411756,-3.878346 -1.191332,-5.745795 0.262564,-2.224446 1.02108,-3.745022 2.690741,-5.394026 1.383527,-1.366414 2.639206,-2.154136 4.373686,-2.743735 3.335869,-1.133962 7.123237,-0.992229 10.451735,0.391127 1.848005,0.76805 4.103051,2.319594 5.179597,3.563731 0.289202,0.334223 0.606122,0.607677 0.704266,0.607677 0.09816,0 0.775287,-0.297177 1.504745,-0.660395 3.74024,-1.86237 7.862903,-3.098461 10.334122,-3.098461 0.87514,0 2.054737,0.324727 2.612826,0.719268 0.891418,0.630202 1.306943,2.066374 0.989294,3.419303 -0.228869,0.974782 -1.022686,2.403679 -1.907005,3.432678 -3.302193,3.842433 -11.328201,8.088472 -18.244715,9.652099 -1.393997,0.315143 -4.325262,0.790317 -5.373633,0.871094 -0.394261,0.03039 -0.457939,0.09413 -0.820069,0.821086 -0.565054,1.134299 -1.33168,3.537503 -1.691853,5.303587 -0.556248,2.727524 -0.528072,5.147945 0.07868,6.757969 0.325626,0.864088 1.275461,1.899936 2.104722,2.29533 0.740461,0.353054 1.88425,0.585437 1.996218,0.405572 0.04097,-0.0658 0.06387,-1.009168 0.05096,-2.096412 -0.05416,-4.564904 1.212568,-7.860443 4.062633,-10.569159 1.675519,-1.592427 3.367832,-2.288088 5.332344,-2.191984 2.204662,0.107871 3.565884,1.302762 3.908288,3.430779 0.407569,2.533004 -0.839516,5.261339 -3.639284,7.961932 -2.286028,2.205053 -4.824443,3.580139 -7.596681,4.115212 -0.436617,0.08429 -0.868327,0.208975 -0.959373,0.277118 -0.22094,0.165379 -0.100161,1.218219 0.295074,2.572353 C 29.836356,52.926057 29.844069,53 29.621729,53 c -0.0916,0 -0.306264,-0.313743 -0.477068,-0.697207 z m 1.904872,-4.326464 c 2.301799,-0.579718 4.297096,-1.724066 6.211448,-3.562414 2.308357,-2.216705 3.396652,-4.305787 3.396652,-6.520193 0,-1.402771 -0.467105,-2.366271 -1.40447,-2.897014 -0.65022,-0.368159 -1.120737,-0.440437 -1.97535,-0.303447 -1.1524,0.184722 -2.3527,0.852336 -3.442778,1.914889 -2.04679,1.995103 -3.709202,4.99629 -4.461187,8.053858 -0.313798,1.275914 -0.532005,3.242767 -0.385818,3.47761 0.129481,0.208017 0.797216,0.155122 2.061503,-0.163294 z m 1.364458,-18.190455 c 6.190893,-0.93286 12.624816,-3.787882 16.187855,-7.183278 1.936233,-1.845138 2.806809,-3.343072 2.800368,-4.818395 -0.0046,-1.13445 -0.778924,-2.206465 -1.795363,-2.486709 -1.152801,-0.317843 -3.092085,-0.09272 -5.213951,0.605286 -2.00605,0.6599 -6.910595,3.235085 -6.910595,3.628482 0,0.06972 0.4048,0.794562 0.899552,1.610765 1.221391,2.014957 1.570141,2.723767 1.479568,3.007107 -0.04137,0.129286 -0.121526,0.235072 -0.17818,0.235072 -0.185575,0 -0.660229,-0.653691 -1.528628,-2.105225 C 37.684758,21.4936 37.144456,20.663272 36.95395,20.433808 l -0.346383,-0.417209 -0.386989,0.268229 c -2.064834,1.43115 -5.55011,4.712254 -6.920255,6.514844 -0.85201,1.120924 -2.076768,3.007682 -2.076768,3.199293 0,0.169221 3.646791,0.01951 5.190439,-0.213091 z M 24.518531,28.396 c 2.897212,-3.718821 5.964825,-6.381119 10.865239,-9.429646 0.364053,-0.226479 0.319457,-0.280234 -1.283133,-1.546575 -2.116661,-1.672551 -3.845909,-2.562641 -6.038911,-3.108398 -1.443344,-0.359195 -4.397445,-0.452678 -5.9303,-0.187674 -3.609482,0.624024 -6.572799,2.767303 -7.560196,5.468057 -1.24646,3.40936 0.446403,7.077253 4.103359,8.890664 1.252191,0.620935 3.533039,1.32929 4.343824,1.349044 0.337789,0.0082 0.485472,-0.133085 1.500118,-1.435472 z"/>
 <path style="fill:#8b9cbe" d="M 29.144657,51.302793 C 28.973855,50.91933 28.741009,50.196354 28.627219,49.696185 28.247893,48.028858 28.411247,48.19177 27.026418,48.099706 24.491394,47.931165 22.688435,46.91109 21.361689,44.894696 19.53735,42.122056 19.450465,38.155349 21.108633,33.340961 c 0.334076,-0.969982 0.587435,-1.783436 0.563022,-1.807676 -0.02445,-0.02425 -0.50265,-0.167385 -1.062747,-0.318099 -2.727671,-0.733964 -5.084069,-2.426926 -6.364581,-4.57263 -0.931117,-1.560239 -1.411756,-3.878346 -1.191332,-5.745795 0.262564,-2.224446 1.02108,-3.745022 2.690741,-5.394026 1.383527,-1.366414 2.639206,-2.154136 4.373686,-2.743735 3.335869,-1.133962 7.123237,-0.992229 10.451735,0.391127 1.848005,0.76805 4.103051,2.319594 5.179597,3.563731 0.289202,0.334223 0.606122,0.607677 0.704266,0.607677 0.09816,0 0.775287,-0.297177 1.504745,-0.660395 3.74024,-1.86237 7.862903,-3.098461 10.334122,-3.098461 0.87514,0 2.054737,0.324727 2.612826,0.719268 0.891418,0.630202 1.306943,2.066374 0.989294,3.419303 -0.228869,0.974782 -1.022686,2.403679 -1.907005,3.432678 -3.302193,3.842433 -11.328201,8.088472 -18.244715,9.652099 -1.393997,0.315143 -4.325262,0.790317 -5.373633,0.871094 -0.394261,0.03039 -0.457939,0.09413 -0.820069,0.821086 -0.565054,1.134299 -1.33168,3.537503 -1.691853,5.303587 -0.556248,2.727524 -0.528072,5.147945 0.07868,6.757969 0.325626,0.864088 1.275461,1.899936 2.104722,2.29533 0.740461,0.353054 1.88425,0.585437 1.996218,0.405572 0.04097,-0.0658 0.06387,-1.009168 0.05096,-2.096412 -0.05416,-4.564904 1.212568,-7.860443 4.062633,-10.569159 1.675519,-1.592427 3.367832,-2.288088 5.332344,-2.191984 2.204662,0.107871 3.565884,1.302762 3.908288,3.430779 0.407569,2.533004 -0.839516,5.261339 -3.639284,7.961932 -2.286028,2.205053 -4.824443,3.580139 -7.596681,4.115212 -0.436617,0.08429 -0.868327,0.208975 -0.959373,0.277118 -0.22094,0.165379 -0.100161,1.218219 0.295074,2.572353 C 29.836356,51.926057 29.844069,52 29.621729,52 c -0.0916,0 -0.306264,-0.313743 -0.477068,-0.697207 z m 1.904872,-4.326464 c 2.301799,-0.579718 4.297096,-1.724066 6.211448,-3.562414 2.308357,-2.216705 3.396652,-4.305787 3.396652,-6.520193 0,-1.402771 -0.467105,-2.366271 -1.40447,-2.897014 -0.65022,-0.368159 -1.120737,-0.440437 -1.97535,-0.303447 -1.1524,0.184722 -2.3527,0.852336 -3.442778,1.914889 -2.04679,1.995103 -3.709202,4.99629 -4.461187,8.053858 -0.313798,1.275914 -0.532005,3.242767 -0.385818,3.47761 0.129481,0.208017 0.797216,0.155122 2.061503,-0.163294 z m 1.364458,-18.190455 c 6.190893,-0.93286 12.624816,-3.787882 16.187855,-7.183278 1.936233,-1.845138 2.806809,-3.343072 2.800368,-4.818395 -0.0046,-1.13445 -0.778924,-2.206465 -1.795363,-2.486709 -1.152801,-0.317843 -3.092085,-0.09272 -5.213951,0.605286 -2.00605,0.6599 -6.910595,3.235085 -6.910595,3.628482 0,0.06972 0.4048,0.794562 0.899552,1.610765 1.221391,2.014957 1.570141,2.723767 1.479568,3.007107 -0.04137,0.129286 -0.121526,0.235072 -0.17818,0.235072 -0.185575,0 -0.660229,-0.653691 -1.528628,-2.105225 C 37.684758,20.4936 37.144456,19.663272 36.95395,19.433808 l -0.346383,-0.417209 -0.386989,0.268229 c -2.064834,1.43115 -5.55011,4.712254 -6.920255,6.514844 -0.85201,1.120924 -2.076768,3.007682 -2.076768,3.199293 0,0.169221 3.646791,0.01951 5.190439,-0.213091 z M 24.518531,27.396 c 2.897212,-3.718821 5.964825,-6.381119 10.865239,-9.429646 0.364053,-0.226479 0.319457,-0.280234 -1.283133,-1.546575 -2.116661,-1.672551 -3.845909,-2.562641 -6.038911,-3.108398 -1.443344,-0.359195 -4.397445,-0.452678 -5.9303,-0.187674 -3.609482,0.624024 -6.572799,2.767303 -7.560196,5.468057 -1.24646,3.40936 0.446403,7.077253 4.103359,8.890664 1.252191,0.620935 3.533039,1.32929 4.343824,1.349044 0.337789,0.0082 0.485472,-0.133085 1.500118,-1.435472 z"/>
 <path style="opacity:0.1;fill:#8b9cbe" d="M 32.5 4 C 12.904509 4 6 13.402021 6 25 C 6 25.177434 6.012057 25.365995 6.0175781 25.548828 C 6.1975938 14.161383 13.161941 5 32.5 5 C 51.83806 5 58.802406 14.161383 58.982422 25.548828 C 58.987943 25.365995 59 25.177434 59 25 C 59 13.402021 52.095492 4 32.5 4 z"/>
</svg>
