<svg width="64" height="64" version="1.1" xmlns="http://www.w3.org/2000/svg">
 <ellipse cx="32" cy="34" rx="28" ry="25" style="opacity:.2"/>
 <circle cx="17" cy="15" r="9" style="fill:#c9c9c9"/>
 <path d="M 17 6 A 9 9 0 0 0 8 15 A 9 9 0 0 0 8.0214844 15.576172 A 9 9 0 0 1 17 7 A 9 9 0 0 1 25.978516 15.423828 A 9 9 0 0 0 26 15 A 9 9 0 0 0 17 6 z " style="fill:#8b9cbe;opacity:.1"/>
 <circle cx="48" cy="15" r="9" style="fill:#17191e"/>
 <path d="M 48 6 A 9 9 0 0 0 39 15 A 9 9 0 0 0 39.021484 15.576172 A 9 9 0 0 1 48 7 A 9 9 0 0 1 56.978516 15.423828 A 9 9 0 0 0 57 15 A 9 9 0 0 0 48 6 z " style="fill:#8b9cbe;opacity:.1"/>
 <path d="m32 8v50a28 25 0 0 0 28-25 28 25 0 0 0-28-25z" style="fill:#4f4f4f"/>
 <path d="m32 8a28 25 0 0 0-28 25 28 25 0 0 0 28 25v-50z" style="fill:#b2bfd9"/>
 <circle cx="22.5" cy="28.5" r="2.5" style="opacity:.1"/>
 <circle cx="22.5" cy="27.5" r="2.5" style="fill:#17191e"/>
 <path d="m42 25-6 5s4-2 6-2c1 0 1 4 1 4s2-3 4-3 1 3 1 3l5-9s-5 5-9 5c-1 0-2-3-2-3z" style="opacity:.2"/>
 <path d="m42 24-6 5s4-2 6-2c1 0 1 4 1 4s2-3 4-3 1 3 1 3l5-9s-5 5-9 5c-1 0-2-3-2-3z" style="fill:#f00e0e"/>
 <path d="m32 38v7c17 0 23-14 23-14s-9 7-23 7z" style="fill:#8b9cbe"/>
 <rect x="27" y="37" width="5" height="8" style="fill:#17191e"/>
 <path d="m23 40s0 9 8 9c6 0 9-4.155803 9-4.155803s-4 0.155803-8 0.155803c-3 0-5-5-5-5z" style="opacity:.1"/>
 <path d="m23 39s0 9 8 9c6 0 9-4.155803 9-4.155803s-4 0.155803-8 0.155803c-3 0-5-5-5-5z" style="fill:#b3b3b3"/>
 <path d="m32 39s3 3 5 3c3 0 6-2 6-5s-4-7-11-7c-6 0-11 4-11 7s3 5 6 5c2 0 5-3 5-3z" style="opacity:.2"/>
 <path d="m32 38s3 3 5 3c3 0 6-2 6-5s-4-7-11-7c-6 0-11 4-11 7s3 5 6 5c2 0 5-3 5-3z" style="fill:#b3b3b3"/>
 <path d="m32 36 4-4h-8z" style="opacity:.1"/>
 <path d="m32 35 4-4h-8z" style="fill:#17191e"/>
 <path d="m32 8v1a28 25 0 0 1 27.976562 24.585938 28 25 0 0 0 0.023438-0.585938 28 25 0 0 0-28-25z" style="fill:#8b9cbe;opacity:.1"/>
 <path d="M 32 8 A 28 25 0 0 0 4 33 A 28 25 0 0 0 4.0234375 33.414062 A 28 25 0 0 1 32 9 L 32 8 z " style="fill:#8b9cbe;opacity:.2"/>
</svg>
