<svg width="64" height="64" version="1" xmlns="http://www.w3.org/2000/svg">
 <rect transform="matrix(0,-1,-1,0,0,0)" x="-61" y="-54" width="56" height="44" rx="2.8" ry="2.75" style="opacity:.2"/>
 <rect transform="matrix(0,-1,-1,0,0,0)" x="-60" y="-54" width="56" height="44" rx="2.8" ry="2.75" style="fill:#3bbd53"/>
 <path d="m44.439453 10.980469a1.50015 1.50015 0 0 0-1.332031 0.957031c-2.719916-0.03741-7.65737 0.131024-9.732422 1.761719-1.953904 1.535489-1.954761 4.80301-4.125 6-2.054922 1.133387-4.25-0.699219-4.25-0.699219s2.069475 7.676753 5.625 8.099609c2.276191 0.270705 3.305768-3.096809 5.375-4.099609 1.092287-0.529349 3.01533-0.854624 4.3125-1.033203l-5.291016 19.048828c-0.174382-0.004041-0.345328-0.015625-0.521484-0.015625-6.90356 0-12.5 3.134006-12.5 7s5.59644 7 12.5 7c6.903559 0 12.5-3.134006 12.5-7 0-3.173068-3.772895-5.850229-8.941406-6.708984l7.886718-28.388672a1.50015 1.50015 0 0 0-1.505859-1.921875zm-25.439453 14.019531 3 13-8-1 7 9-3-6 7 1-3-11 7 7 4.5-4 1.5 4v-8l-6 5zm15.189453 19.013672-1.134765 4.083984a1.5002691 1.5002691 0 1 0 2.890624 0.804688l1.302735-4.6875c3.381992 0.509755 5.751953 1.936716 5.751953 3.785156 0 2.319596-3.705862 4-8.5 4-4.79414 0-8.5-1.680404-8.5-4 0-2.267911 3.550822-3.913618 8.189453-3.986328z" style="opacity:.2"/>
 <path d="m12.75 4c-1.523587 0-2.75 1.2495827-2.75 2.8002055v0.9997945c0-1.5506228 1.226413-2.8002055 2.75-2.8002055h38.5c1.523986 0 2.75 1.2495828 2.75 2.8002055v-0.9997945c0-1.5506227-1.226014-2.8002055-2.75-2.8002055h-38.5z" style="fill:#8b9cbe;opacity:.2"/>
 <path d="M 53.97525,6.55122 54,19.9306 V 6.8 C 54,6.714782 53.98307,6.634408 53.97583,6.551178 Z" style="fill:#8b9cbe"/>
 <path d="m34.5 40c-6.90356 0-12.5 3.134006-12.5 7s5.59644 7 12.5 7c6.903559 0 12.5-3.134006 12.5-7s-5.596441-7-12.5-7zm0 3c4.794138 0 8.5 1.680404 8.5 4s-3.705862 4-8.5 4c-4.79414 0-8.5-1.680404-8.5-4s3.70586-4 8.5-4z" style="fill:#8b9cbe"/>
 <path d="m45 11s-8.699765-0.598817-11.625 1.7c-1.953904 1.535489-1.954761 4.80301-4.125 6-2.054922 1.133387-4.25-0.7-4.25-0.7s2.069475 7.677144 5.625 8.1c2.276191 0.270705 3.305768-3.0972 5.375-4.1 1.706332-0.826931 5.625-1.2 5.625-1.2z" style="fill:#e33f32"/>
 <path d="m44.439453 9.9804688a1.50015 1.50015 0 0 0-1.384765 1.1171872l-10 36a1.5002691 1.5002691 0 1 0 2.890624 0.804688l10-36a1.50015 1.50015 0 0 0-1.505859-1.9218752z" style="fill:#8b9cbe"/>
 <path d="m21 45-7-9 8 1-3-13 10 9 6-5v8l-1.5-4-4.5 4-7-7 3 11-7-1z" style="fill:#8b9cbe"/>
</svg>
