<svg xmlns="http://www.w3.org/2000/svg" width="64" height="64" version="1.1">
 <path style="opacity:0.2" d="m 32.85624,61 -1.66012,0 c -0.07699,-0.028 -0.15427,-0.03501 -0.231979,-0.03501 -0.886341,-0.042 -1.76624,-0.11339 -2.63844,-0.231981 -1.63156,-0.21111 -3.235821,-0.569929 -4.797381,-1.06875 -2.680019,-0.85764 -5.1772,-2.088379 -7.49154,-3.692219 -2.14606,-1.49128 -4.0446,-3.249261 -5.698,-5.274221 C 8.38956,48.320619 6.8707,45.69716 5.79396,42.814419 4.82992,40.25452 4.25326,37.60376 4.077,34.867739 4.077,34.72004 4.049,34.572339 4,34.42464 L 4,31.5342 c 0.049,-0.1274 0.07,-0.2604 0.077,-0.393821 0.035,-0.654219 0.105,-1.30844 0.1904,-1.95496 0.42238,-3.12228 1.3503,-6.083699 2.77858,-8.889859 0.98476,-1.93424 2.18078,-3.7338 3.58708,-5.39448 1.393,-1.64528 2.9547,-3.1157 4.68468,-4.4023 2.821,-2.09608 5.923401,-3.60794 9.313641,-4.53572 1.64584,-0.44954 3.327659,-0.74494 5.02936,-0.88606 0.30212,-0.028 0.61936,0 0.92148,-0.077 l 2.841859,0 c 0.21784,0.063 0.44324,0.028 0.660939,0.049 1.12616,0.098 2.24448,0.23954 3.35524,0.45724 3.49636,0.68922 6.73876,1.99766 9.736021,3.93064 2.32876,1.49786 4.382699,3.30512 6.17624,5.40778 1.442419,1.68798 2.665739,3.52366 3.66492,5.50606 1.181739,2.342339 2.02552,4.79612 2.50488,7.37688 0.25284,1.36416 0.44324,2.7426 0.44968,4.135179 0,0.0924 0.02101,0.1904 0.028,0.28112 l 0,1.659842 c -0.028,0.10499 -0.028,0.217699 -0.03501,0.330259 0,0.266979 0,0.53508 -0.02099,0.80192 -0.12741,1.702261 -0.39396,3.38268 -0.816341,5.04224 -0.808779,3.115699 -2.11092,6.006141 -3.918739,8.67104 -1.343861,1.983379 -2.912,3.76992 -4.71324,5.351779 -1.793541,1.575421 -3.75676,2.90472 -5.8884,3.980061 -2.4556,1.23732 -5.037059,2.09608 -7.745501,2.56648 -1.040758,0.182695 -2.08908,0.301981 -3.143979,0.3654 -0.277899,0.03219 -0.57344,0.0252 -0.862259,0.0868 z"/>
 <path style="fill:#4f4f4f" d="m 32.85624,60 -1.66012,0 c -0.07699,-0.028 -0.15427,-0.03501 -0.231979,-0.03501 -0.886341,-0.042 -1.76624,-0.11339 -2.63844,-0.231981 -1.63156,-0.21111 -3.235821,-0.569929 -4.797381,-1.06875 -2.680019,-0.85764 -5.1772,-2.088379 -7.49154,-3.692219 -2.14606,-1.49128 -4.0446,-3.249261 -5.698,-5.274221 C 8.38956,47.320619 6.8707,44.69716 5.79396,41.814419 4.82992,39.25452 4.25326,36.60376 4.077,33.867739 4.077,33.72004 4.049,33.572339 4,33.42464 L 4,30.5342 c 0.049,-0.1274 0.07,-0.2604 0.077,-0.393821 0.035,-0.654219 0.105,-1.30844 0.1904,-1.95496 0.42238,-3.12228 1.3503,-6.083699 2.77858,-8.889859 0.98476,-1.93424 2.18078,-3.7338 3.58708,-5.39448 1.393,-1.64528 2.9547,-3.1157 4.68468,-4.4023 2.821,-2.09608 5.923401,-3.60794 9.313641,-4.53572 1.64584,-0.44954 3.327659,-0.74494 5.02936,-0.88606 0.30212,-0.028 0.61936,0 0.92148,-0.077 l 2.841859,0 c 0.21784,0.063 0.44324,0.028 0.660939,0.049 1.12616,0.098 2.24448,0.23954 3.35524,0.45724 3.49636,0.68922 6.73876,1.99766 9.736021,3.93064 2.32876,1.49786 4.382699,3.30512 6.17624,5.40778 1.442419,1.68798 2.665739,3.52366 3.66492,5.50606 1.181739,2.342339 2.02552,4.79612 2.50488,7.37688 0.25284,1.36416 0.44324,2.7426 0.44968,4.135179 0,0.0924 0.02101,0.1904 0.028,0.28112 l 0,1.659842 c -0.028,0.10499 -0.028,0.217699 -0.03501,0.330259 0,0.266979 0,0.53508 -0.02099,0.80192 -0.12741,1.702261 -0.39396,3.38268 -0.816341,5.04224 -0.808779,3.115699 -2.11092,6.006141 -3.918739,8.67104 -1.343861,1.983379 -2.912,3.76992 -4.71324,5.351779 -1.793541,1.575421 -3.75676,2.90472 -5.8884,3.980061 -2.4556,1.23732 -5.037059,2.09608 -7.745501,2.56648 -1.040758,0.182695 -2.08908,0.301981 -3.143979,0.3654 -0.277899,0.03219 -0.57344,0.0252 -0.862259,0.0868 z"/>
 <path style="opacity:0.2" d="m 42.894854,46.998033 c -0.435154,0.0132 -0.92375,-0.04062 -1.412214,-0.14436 -1.445174,-0.316356 -2.672642,-0.973434 -3.615956,-2.138388 -0.573684,-0.710394 -1.055976,-1.480258 -1.471696,-2.289948 -0.488728,-0.954048 -0.897096,-1.94805 -1.253202,-2.954234 -0.435154,-1.21709 -0.804654,-2.46077 -1.089068,-3.717812 -0.15796,-0.704236 0.0196,-1.145432 0.798484,-1.388038 0.989404,-0.309152 1.98616,-0.585556 3.00222,-0.80969 1.682184,-0.368624 3.377764,-0.605072 5.107218,-0.54678 0.488596,0.0196 0.976142,0.07204 1.458436,0.15758 1.398952,0.243786 2.58637,0.888682 3.55621,1.908228 1.656576,1.737144 2.31548,3.8099 1.90698,6.172554 -0.587076,3.376042 -3.582994,5.77747 -6.987412,5.750878 z"/>
 <path style="opacity:0.2" d="m 21.105156,46.998033 c 0.435154,0.0132 0.92375,-0.04062 1.412216,-0.14436 1.445174,-0.316356 2.67264,-0.973434 3.615954,-2.138388 0.573684,-0.710394 1.055978,-1.480258 1.471698,-2.289948 0.488728,-0.954048 0.897094,-1.94805 1.253202,-2.954234 0.435154,-1.21709 0.804652,-2.46077 1.089066,-3.717812 0.15796,-0.704236 -0.0196,-1.145432 -0.798484,-1.388038 -0.989404,-0.309152 -1.986162,-0.585556 -3.002218,-0.80969 -1.682186,-0.368624 -3.377764,-0.605072 -5.107218,-0.54678 -0.488596,0.0196 -0.976144,0.07204 -1.458436,0.15758 -1.398954,0.243786 -2.586371,0.888682 -3.55621,1.908228 -1.656578,1.737144 -2.315481,3.8099 -1.906982,6.172554 0.587077,3.376042 3.582994,5.77747 6.987412,5.750878 z"/>
 <path style="fill:#e9ff61" d="m 21.105156,45.998033 c 0.435154,0.0132 0.92375,-0.04062 1.412216,-0.14436 1.445174,-0.316356 2.67264,-0.973434 3.615954,-2.138388 0.573684,-0.710394 1.055978,-1.480258 1.471698,-2.289948 0.488728,-0.954048 0.897094,-1.94805 1.253202,-2.954234 0.435154,-1.21709 0.804652,-2.46077 1.089066,-3.717812 0.15796,-0.704236 -0.0196,-1.145432 -0.798484,-1.388038 -0.989404,-0.309152 -1.986162,-0.585556 -3.002218,-0.80969 -1.682186,-0.368624 -3.377764,-0.605072 -5.107218,-0.54678 -0.488596,0.0196 -0.976144,0.07204 -1.458436,0.15758 -1.398954,0.243786 -2.586371,0.888682 -3.55621,1.908228 -1.656578,1.737144 -2.315481,3.8099 -1.906982,6.172554 0.587077,3.376042 3.582994,5.77747 6.987412,5.750878 z"/>
 <path style="opacity:0.2" d="m 25.002653,21.382103 c -0.0196,0.514484 0.0718,1.076908 0.223374,1.639464 0.28878,1.070354 0.76738,2.051108 1.331754,2.977508 1.28567,2.106696 2.906202,3.910326 4.664468,5.584894 0.144,0.13766 0.315414,0.253896 0.498968,0.342532 0.18382,0.0956 0.367372,0.0956 0.557324,0.0136 0.18356,-0.08194 0.347788,-0.19858 0.485652,-0.350044 0.610196,-0.63085 1.213344,-1.262652 1.790902,-1.914668 0.813336,-0.9264 1.587896,-1.879432 2.28987,-2.901844 0.63683,-0.926264 1.20721,-1.900738 1.62667,-2.957296 0.419462,-1.050136 0.623384,-2.133326 0.485652,-3.272238 -0.22964,-1.879324 -0.99689,-3.471671 -2.368332,-4.720254 -1.621578,-1.473935 -3.510396,-2.064083 -5.636032,-1.735343 -3.45726,0.53579 -5.963586,3.719255 -5.95027,7.293465 z"/>
 <path style="fill:#10b7d6" d="m 25.002653,20.382103 c -0.0196,0.514484 0.0718,1.076908 0.223374,1.639464 0.28878,1.070354 0.76738,2.051108 1.331754,2.977508 1.28567,2.106696 2.906202,3.910326 4.664468,5.584894 0.144,0.13766 0.315414,0.253896 0.498968,0.342532 0.18382,0.0956 0.367372,0.0956 0.557324,0.0136 0.18356,-0.08194 0.347788,-0.19858 0.485652,-0.350044 0.610196,-0.63085 1.213344,-1.262652 1.790902,-1.914668 0.813336,-0.9264 1.587896,-1.879432 2.28987,-2.901844 0.63683,-0.926264 1.20721,-1.900738 1.62667,-2.957296 0.419462,-1.050136 0.623384,-2.133326 0.485652,-3.272238 -0.22964,-1.879324 -0.99689,-3.471671 -2.368332,-4.720254 -1.621578,-1.473935 -3.510396,-2.064083 -5.636032,-1.735343 -3.45726,0.53579 -5.963586,3.719255 -5.95027,7.293465 z"/>
 <path style="fill:#ff5e5e" d="m 42.894854,45.998033 c -0.435154,0.0132 -0.92375,-0.04062 -1.412214,-0.14436 -1.445174,-0.316356 -2.672642,-0.973434 -3.615956,-2.138388 -0.573684,-0.710394 -1.055976,-1.480258 -1.471696,-2.289948 -0.488728,-0.954048 -0.897096,-1.94805 -1.253202,-2.954234 -0.435154,-1.21709 -0.804654,-2.46077 -1.089068,-3.717812 -0.15796,-0.704236 0.0196,-1.145432 0.798484,-1.388038 0.989404,-0.309152 1.98616,-0.585556 3.00222,-0.80969 1.682184,-0.368624 3.377764,-0.605072 5.107218,-0.54678 0.488596,0.0196 0.976142,0.07204 1.458436,0.15758 1.398952,0.243786 2.58637,0.888682 3.55621,1.908228 1.656576,1.737144 2.31548,3.8099 1.90698,6.172554 -0.587076,3.376042 -3.582994,5.77747 -6.987412,5.750878 z"/>
 <path style="fill:#8b9cbe;opacity:0.1" d="M 30.582031 4 C 30.279911 4.077 29.962276 4.0481719 29.660156 4.0761719 C 27.958455 4.2172919 26.276699 4.5133506 24.630859 4.9628906 C 21.240619 5.8906706 18.139359 7.4019669 15.318359 9.4980469 C 13.588379 10.784647 12.025813 12.255111 10.632812 13.900391 C 9.2265125 15.561071 8.031635 17.360682 7.046875 19.294922 C 5.618595 22.101082 4.6899581 25.063267 4.2675781 28.185547 C 4.1821781 28.832067 4.1111719 29.486406 4.0761719 30.140625 C 4.0691719 30.274046 4.049 30.407756 4 30.535156 L 4 31.535156 C 4.049 31.407756 4.0691719 31.274046 4.0761719 31.140625 C 4.1111719 30.486406 4.1821781 29.832067 4.2675781 29.185547 C 4.6899581 26.063267 5.618595 23.101082 7.046875 20.294922 C 8.031635 18.360682 9.2265125 16.561071 10.632812 14.900391 C 12.025813 13.255111 13.588379 11.784647 15.318359 10.498047 C 18.139359 8.4019669 21.240619 6.8906706 24.630859 5.9628906 C 26.276699 5.5133506 27.958455 5.2172919 29.660156 5.0761719 C 29.962276 5.0481719 30.279911 5.077 30.582031 5 L 33.423828 5 C 33.641668 5.063 33.868239 5.0278281 34.085938 5.0488281 C 35.212097 5.1468281 36.328693 5.2881594 37.439453 5.5058594 C 40.935813 6.1950794 44.17852 7.50452 47.175781 9.4375 C 49.504541 10.93536 51.558021 12.74109 53.351562 14.84375 C 54.793982 16.53173 56.018397 18.369162 57.017578 20.351562 C 58.199317 22.693901 59.042124 25.147756 59.521484 27.728516 C 59.774324 29.092676 59.966216 30.470702 59.972656 31.863281 C 59.972656 31.955681 59.99301 32.053811 60 32.144531 L 60 31.144531 C 59.99301 31.053811 59.972656 30.955681 59.972656 30.863281 C 59.966216 29.470702 59.774324 28.092676 59.521484 26.728516 C 59.042124 24.147756 58.199317 21.693901 57.017578 19.351562 C 56.018397 17.369162 54.793982 15.53173 53.351562 13.84375 C 51.558021 11.74109 49.504541 9.93536 47.175781 8.4375 C 44.17852 6.50452 40.935813 5.1950794 37.439453 4.5058594 C 36.328693 4.2881594 35.212097 4.1468281 34.085938 4.0488281 C 33.868239 4.0278281 33.641668 4.063 33.423828 4 L 30.582031 4 z"/>
 <path style="opacity:0.1;fill:#8b9cbe" d="m 21.039067,32.007812 c -0.488596,0.0196 -0.976692,0.07266 -1.458984,0.158204 -1.398954,0.243786 -2.584848,0.888657 -3.554687,1.908203 -1.463884,1.535078 -2.146286,3.333643 -2.003907,5.361328 0.111128,-1.622849 0.785329,-3.083487 2.003907,-4.361328 0.969839,-1.019546 2.155733,-1.664417 3.554687,-1.908203 0.482292,-0.08554 0.970388,-0.138604 1.458984,-0.158204 1.729455,-0.05829 3.425236,0.178252 5.107422,0.546876 1.016056,0.224134 2.012549,0.501394 3.001954,0.810546 0.403303,0.125621 0.640053,0.307771 0.757812,0.548828 0.01245,-0.05363 0.02887,-0.106474 0.04102,-0.160156 0.15796,-0.704236 -0.01994,-1.146066 -0.798828,-1.388672 -0.989405,-0.309152 -1.985898,-0.586413 -3.001954,-0.810546 -1.682186,-0.368625 -3.377967,-0.605167 -5.107422,-0.546876 z"/>
 <path style="fill:#8b9cbe;opacity:0.1" d="M 31.738281 13.007812 C 31.480037 13.020258 31.218829 13.046798 30.953125 13.087891 C 27.495865 13.623681 24.988637 16.808602 25.001953 20.382812 C 24.997029 20.512078 25.01906 20.650597 25.027344 20.785156 C 25.276908 17.459494 27.689777 14.593629 30.953125 14.087891 C 33.078761 13.759151 34.968266 14.350284 36.589844 15.824219 C 37.961286 17.072802 38.727391 18.665598 38.957031 20.544922 C 38.964923 20.610178 38.961125 20.673387 38.966797 20.738281 C 38.998685 20.345891 39.006069 19.950416 38.957031 19.544922 C 38.727391 17.665598 37.961286 16.072802 36.589844 14.824219 C 35.170963 13.534526 33.545993 12.920692 31.738281 13.007812 z"/>
 <path style="opacity:0.1;fill:#8b9cbe" d="m 42.960943,32.007812 c -1.729455,-0.05829 -3.425238,0.178251 -5.107422,0.546876 -1.01606,0.224133 -2.012549,0.501394 -3.001954,0.810546 -0.778884,0.242606 -0.956788,0.684436 -0.798828,1.388672 0.01215,0.05368 0.02856,0.106524 0.04102,0.160156 0.117759,-0.241057 0.354509,-0.423207 0.757812,-0.548828 0.989405,-0.309152 1.985894,-0.586412 3.001954,-0.810546 1.682184,-0.368624 3.377967,-0.605167 5.107422,-0.546876 0.488596,0.0196 0.97669,0.07266 1.458984,0.158204 1.398952,0.243786 2.584847,0.888657 3.554687,1.908203 1.218576,1.277841 1.892779,2.738479 2.003907,4.361328 0.142379,-2.027685 -0.540024,-3.82625 -2.003907,-5.361328 -0.96984,-1.019546 -2.155735,-1.664417 -3.554687,-1.908203 -0.482294,-0.08554 -0.970388,-0.138603 -1.458984,-0.158204 z"/>
</svg>
