<svg xmlns="http://www.w3.org/2000/svg" width="64" height="64" version="1">
 <rect style="opacity:0.2" width="56" height="39" x="4" y="22" rx="2.8" ry="2.8"/>
 <rect style="fill:#00caff" width="38" height="34" x="13" y="3" rx="2.125" ry="2.125"/>
 <rect style="fill:#89e058" width="44" height="34" x="10" y="9" rx="2.125" ry="2.125"/>
 <rect style="fill:#ffcd54" width="50" height="34" x="7" y="15" rx="2.125" ry="2.125"/>
 <rect style="fill:#8e8e8e" width="56" height="39" x="4" y="21" rx="2.8" ry="2.8"/>
 <rect style="opacity:0.2" width="20" height="5" x="22" y="38" rx="1.429" ry="1.25"/>
 <rect style="fill:#ececec" width="20" height="5" x="22" y="37" rx="1.429" ry="1.25"/>
 <path style="fill:#8b9cbe;opacity:0.1" d="M 15.125 3 C 13.94775 3 13 3.94775 13 5.125 L 13 6.125 C 13 4.94775 13.94775 4 15.125 4 L 48.875 4 C 50.05225 4 51 4.94775 51 6.125 L 51 5.125 C 51 3.94775 50.05225 3 48.875 3 L 15.125 3 z"/>
 <path style="fill:#8b9cbe;opacity:0.1" d="M 12.125 9 C 10.94775 9 10 9.94775 10 11.125 L 10 12.125 C 10 10.94775 10.94775 10 12.125 10 L 51.875 10 C 53.05225 10 54 10.94775 54 12.125 L 54 11.125 C 54 9.94775 53.05225 9 51.875 9 L 12.125 9 z"/>
 <path style="fill:#8b9cbe;opacity:0.1" d="M 9.125 15 C 7.94775 15 7 15.94775 7 17.125 L 7 18.125 C 7 16.94775 7.94775 16 9.125 16 L 54.875 16 C 56.05225 16 57 16.94775 57 18.125 L 57 17.125 C 57 15.94775 56.05225 15 54.875 15 L 9.125 15 z"/>
 <path style="opacity:0.1" d="M 12.125,8 C 10.94775,8 10,8.94775 10,10.125 v 1 C 10,9.94775 10.94775,9 12.125,9 h 39.75 C 53.05225,9 54,9.94775 54,11.125 v -1 C 54,8.94775 53.05225,8 51.875,8 Z"/>
 <path style="opacity:0.1" d="M 9.125,14 C 7.94775,14 7,14.94775 7,16.125 v 1 C 7,15.94775 7.94775,15 9.125,15 h 45.75 C 56.05225,15 57,15.94775 57,17.125 v -1 C 57,14.94775 56.05225,14 54.875,14 Z"/>
</svg>
