<svg xmlns="http://www.w3.org/2000/svg" width="64" height="64" version="1.1">
 <circle style="opacity:0.2" cx="32" cy="33" r="28"/>
 <circle style="fill:#00d8d1" cx="32" cy="32" r="28"/>
 <path style="opacity:0.2;fill-rule:evenodd" d="m 23.480469,16.999688 c -2.93818,0 -5.875432,1.142143 -8.117188,3.425781 -4.48351,4.567277 -4.48351,11.971786 0,16.539063 l 0.529297,0.539062 -0.0332,0.03516 14.322266,14.587891 c 0.923232,0.940478 2.418567,0.94048 3.341797,0 l 0.0293,-0.03125 5.6875,-5.792969 7.208985,-7.34375 2.238281,-2.279296 c 4.41631,-4.49882 4.416309,-11.792199 0,-16.291016 -4.41631,-4.49882 -11.575879,-4.49882 -15.992188,0 l -0.566406,0.576172 -0.529297,-0.539063 c -2.241755,-2.283638 -5.180961,-3.425781 -8.11914,-3.425781 z"/>
 <path style="fill:#4f4f4f;fill-rule:evenodd" d="m 48.687769,19.388975 v 0 c 4.416309,4.498817 4.416309,11.792843 -1e-6,16.291662 L 33.52398,51.127728 c -0.92323,0.94048 -2.420083,0.94048 -3.343315,2e-6 L 15.859453,36.538954 32.694899,19.388975 c 4.416308,-4.49882 11.57656,-4.49882 15.99287,0 z"/>
 <path style="fill:#8b9cbe;fill-rule:evenodd" d="m 31.598861,19.425458 14.851096,15.128556 c 0.923229,0.940479 0.923229,2.465298 0,3.405777 L 33.557042,51.093583 c -0.923232,0.940479 -2.420085,0.940479 -3.343315,0 L 15.362632,35.965028 c -4.48351,-4.567277 -4.48351,-11.972293 0,-16.53957 v 0 c 4.483511,-4.567277 11.752719,-4.567277 16.236229,0 z"/>
 <rect style="fill:#606060" width="13.693" height="1.704" x="46.12" y="-3.71" transform="matrix(0.70053251,0.71362049,-0.70053251,0.71362049,0,0)"/>
 <rect style="fill:none;stroke:#4f4f4f;stroke-width:1.67107272" width="12.023" height="1.193" x="46.96" y="-2.87" transform="matrix(0.70053251,0.71362049,-0.70053251,0.71362049,0,0)"/>
 <rect style="fill:#606060" width="13.693" height="1.704" x="46.14" y="1.39" transform="matrix(0.70053251,0.71362049,-0.70053251,0.71362049,0,0)"/>
 <rect style="fill:none;stroke:#4f4f4f;stroke-width:1.67107272" width="12.023" height="1.193" x="46.98" y="2.22" transform="matrix(0.70053251,0.71362049,-0.70053251,0.71362049,0,0)"/>
 <path style="fill:#4f4f4f;fill-rule:evenodd" d="m 24.984439,32.829171 v 0 c 1.373964,1.399632 1.373964,3.668884 0,5.068517 l -3.839574,3.911309 -4.97556,-5.068518 3.839574,-3.911308 c 1.373963,-1.399633 3.601598,-1.399633 4.97556,0 z"/>
 <path style="fill:#4f4f4f;fill-rule:evenodd" d="m 28.656875,36.59922 v 0 c 1.308538,1.332984 1.308538,3.494175 0,4.827158 l -3.95804,4.031989 -4.738627,-4.827159 3.958041,-4.031988 c 1.308536,-1.332984 3.430093,-1.332984 4.738626,0 z"/>
 <path style="fill:#4f4f4f;fill-rule:evenodd" d="m 32.210849,40.247653 v 0 c 1.308536,1.332985 1.308536,3.494177 0,4.82716 l -3.958041,4.031989 -4.738629,-4.827161 3.958041,-4.031986 c 1.308537,-1.332985 3.430093,-1.332985 4.738629,-2e-6 z"/>
 <path style="fill:#4f4f4f;fill-rule:evenodd" d="m 35.883285,44.017702 v 0 c 1.373961,1.399633 1.373962,3.668886 0,5.068518 l -2.167918,2.208421 c -0.923231,0.940479 -2.420084,0.940479 -3.343314,0 l -3.303903,-3.365629 3.839574,-3.91131 c 1.373963,-1.399632 3.601597,-1.399632 4.975561,0 z"/>
 <path style="fill:#4f4f4f;fill-rule:evenodd" d="m 36.850367,23.559155 -4.605043,4.691077 c -2.472647,2.518844 -6.333486,2.669726 -8.623423,0.337007 l 9.082166,-9.251849"/>
 <path style="fill:#8b9cbe;fill-rule:evenodd;opacity:0.2" d="M 32 4 A 28 28 0 0 0 4 32 A 28 28 0 0 0 4.0214844 32.585938 A 28 28 0 0 1 32 5 A 28 28 0 0 1 59.978516 32.414062 A 28 28 0 0 0 60 32 A 28 28 0 0 0 32 4 z"/>
</svg>
