<svg xmlns="http://www.w3.org/2000/svg" width="64" height="64" version="1">
 <rect style="fill:#4c636b" width="56" height="44" x="-60" y="10" rx="2.8" ry="2.75" transform="scale(-1,1)"/>
 <circle style="opacity:0.2" cx="22" cy="32" r="14"/>
 <path style="fill:#ee5858" d="m 12.100133,22.099863 a 13.99604,14.000213 0 0 0 -1.30335,1.524723 l 4.315978,4.317265 a 7.9977365,8.0001213 0 0 0 1.228812,9.714548 7.9977365,8.0001213 0 0 0 9.708854,1.226419 l 4.315978,4.317265 a 13.99604,14.000213 0 0 0 1.527027,-1.300979 13.99604,14.000213 0 0 0 1.303351,-1.524724 L 28.880005,36.058315 A 7.9977365,8.0001213 0 0 0 27.650354,26.344167 7.9977365,8.0001213 0 0 0 17.9423,25.116149 l -4.315979,-4.316066 a 13.99604,14.000213 0 0 0 -1.527767,1.30202 z"/>
 <circle style="opacity:0.2" cx="22" cy="33" r="4"/>
 <circle style="fill:#f3c4c4" cx="22" cy="32" r="4"/>
 <rect style="opacity:0.2" width="16" height="4" x="40" y="20" rx="2" ry="2"/>
 <circle style="opacity:0.2" cx="53" cy="48" r="3"/>
 <circle style="fill:#58c4ee" cx="53" cy="47" r="3"/>
 <circle style="opacity:0.2" cx="44.999" cy="48" r="3"/>
 <circle style="fill:#58c4ee" cx="44.999" cy="47" r="3"/>
 <rect style="opacity:0.2" width="16" height="4" x="40" y="26" rx="2" ry="2"/>
 <rect style="opacity:0.2" width="16" height="4" x="40" y="32" rx="2" ry="2"/>
 <rect style="opacity:0.2" width="16" height="4" x="40" y="38" rx="2" ry="2"/>
 <path style="opacity:0.1;fill:#8b9cbe" d="M 6.8007812,10 C 5.2496034,10 4,11.225784 4,12.748569 L 4,13.75 c 0,-1.522785 1.2496034,-2.748569 2.8007812,-2.748569 l 50.3984378,0 C 58.749197,11.001431 60,12.227215 60,13.75 l 0,-1.001431 C 60,11.225784 58.749197,10 57.199219,10 L 6.8007812,10 Z"/>
 <path style="opacity:0.2" d="m 4,51.25 0,1 C 4,53.773979 5.2496034,55 6.8007812,55 L 57.199219,55 C 58.749197,55 60,53.773979 60,52.25 l 0,-1 C 60,52.773979 58.749197,54 57.199219,54 L 6.8007812,54 C 5.2496034,54 4,52.773979 4,51.25 Z"/>
</svg>
