<svg xmlns="http://www.w3.org/2000/svg" width="64" height="64" version="1.0">
 <circle style="opacity:0.2" cx="32" cy="-33" r="28" transform="scale(1,-1)"/>
 <circle style="fill:#b2bfd9" cx="32" cy="-32" r="28" transform="scale(1,-1)"/>
 <circle style="fill:#077272" cx="32" cy="32" r="22"/>
 <path style="opacity:0.1" d="M 32,17 A 16,16 0 0 0 16,33 16,16 0 0 0 32,49 16,16 0 0 0 48,33 16,16 0 0 0 32,17 Z m 0,7 a 9.0000004,9.0000004 0 0 1 9,9 9.0000004,9.0000004 0 0 1 -9,9 9.0000004,9.0000004 0 0 1 -9,-9 9.0000004,9.0000004 0 0 1 9,-9 z"/>
 <path style="fill:#248989" d="M 32 16 A 16 16 0 0 0 16 32 A 16 16 0 0 0 32 48 A 16 16 0 0 0 48 32 A 16 16 0 0 0 32 16 z M 32 23 A 9.0000004 9.0000004 0 0 1 41 32 A 9.0000004 9.0000004 0 0 1 32 41 A 9.0000004 9.0000004 0 0 1 23 32 A 9.0000004 9.0000004 0 0 1 32 23 z"/>
 <path style="opacity:0.1;fill:#8b9cbe" d="M 32 16 A 16 16 0 0 0 16 32 A 16 16 0 0 0 16.021484 32.419922 A 16 16 0 0 1 32 17 A 16 16 0 0 1 47.978516 32.580078 A 16 16 0 0 0 48 32 A 16 16 0 0 0 32 16 z M 40.978516 32.423828 A 9.0000004 9.0000004 0 0 1 32 41 A 9.0000004 9.0000004 0 0 1 23.021484 32.576172 A 9.0000004 9.0000004 0 0 0 23 33 A 9.0000004 9.0000004 0 0 0 32 42 A 9.0000004 9.0000004 0 0 0 41 33 A 9.0000004 9.0000004 0 0 0 40.978516 32.423828 z"/>
 <path style="opacity:0.2" transform="matrix(1.2124356,0,0,1.3125,3.1926203,0.56507206)" d="m 35.306931,24.712326 -8.660254,5 -8.660254,4.999999 0,-9.999999 0,-9.999999 8.660254,4.999999 z"/>
 <path style="fill:#8b9cbe" transform="matrix(1.2124356,0,0,1.3125,3.1926203,-0.43492794)" d="m 35.306931,24.712326 -8.660254,5 -8.660254,4.999999 0,-9.999999 0,-9.999999 8.660254,4.999999 z"/>
 <path style="fill:#8b9cbe;opacity:0.2" d="M 32 4 A 28 28 0 0 0 4 32 A 28 28 0 0 0 4.0214844 32.414062 A 28 28 0 0 1 32 5 A 28 28 0 0 1 59.978516 32.585938 A 28 28 0 0 0 60 32 A 28 28 0 0 0 32 4 z"/>
 <path style="opacity:0.1" d="M 53.978516 31.414062 A 22 22 0 0 1 32 53 A 22 22 0 0 1 10.021484 31.585938 A 22 22 0 0 0 10 32 A 22 22 0 0 0 32 54 A 22 22 0 0 0 54 32 A 22 22 0 0 0 53.978516 31.414062 z"/>
</svg>
