<svg xmlns="http://www.w3.org/2000/svg" width="64" height="64" version="1">
 <rect style="opacity:0.2" width="56" height="56" x="4" y="5" rx="2.8" ry="2.8"/>
 <rect style="fill:#b2bfd9" width="56" height="56" x="4" y="4" rx="2.8" ry="2.8"/>
 <path style="opacity:0.1" d="m 34.168698,54.865005 c -1.129543,-0.795528 -2.470645,-1.07329 -2.177073,-2.888418 -1.434214,-1.478691 -0.622775,-3.672253 -0.917742,-5.6315 -0.685693,-2.552553 -1.284536,-5.136052 -1.827239,-7.724508 -1.532423,-1.298188 1.062724,-4.532743 -0.785901,-4.921453 0.142558,-0.853785 -0.418285,-1.271523 0.04205,-2.336977 -0.58928,-0.823968 0.515268,-1.072527 -0.548493,-1.713937 -0.259981,-1.376187 -2.512521,0.301668 -2.842489,-0.544179 -0.862489,0.401144 -1.732816,-0.09323 -2.662567,0.464712 -1.107268,-0.325889 -2.18912,-0.315651 -3.437002,-0.316799 -0.818379,0.147388 -1.548671,1.500864 -1.963837,0.995304 -1.037233,1.344625 -2.010305,0.599479 -3.326653,0.410804 -1.943186,-1.177494 0.618694,-2.263665 0.927178,-3.484006 2.065523,-1.468102 4.758693,-1.04522 7.115356,-0.654308 1.741825,0.349246 4.060159,1.134176 5.557937,0.775033 -1.019502,-0.468834 -2.768477,-0.730318 -3.92941,-1.556521 -0.799013,-0.21085 -1.257048,-0.41436 -1.355684,-1.069052 -0.91154,0.385692 -2.727523,0.696744 -1.291493,-0.704336 0.185707,-0.934737 -1.397708,1.284524 -2.050906,1.358345 -0.568245,0.910216 -0.550199,-1.409821 -1.239237,0.313963 -1.238539,0.638479 1.574082,-2.047808 -0.397015,-1.591138 -0.807324,0.584268 -0.720202,-0.62937 -1.48452,-0.183143 -0.900661,-2.089365 2.184921,-2.765677 2.959931,-3.014041 0.594179,-1.244421 3.151586,-0.297182 4.420247,-0.456586 1.056561,-0.477008 0.101186,-1.971843 1.442249,-0.96808 0.671244,-0.417037 -2.592957,-3.990637 -0.488718,-2.206744 0.181807,0.504227 1.723487,2.555315 1.233809,1.451571 -1.205662,-0.727375 1.070637,-1.41405 -0.83535,-1.767698 -0.525401,-0.738011 -2.078083,-2.025879 -0.134475,-1.754266 1.797465,-0.138441 3.909237,0.197805 5.423604,1.274887 0.803437,0.638425 1.623324,1.28042 2.273992,0.843026 -0.791264,0.538574 -1.82062,2.355183 -0.106246,1.419447 0.778094,-0.337194 1.559126,-1.040215 1.935116,-0.755078 0.496931,-0.447079 1.151233,1.454746 2.20846,0.359116 0.939966,-0.336848 3.433576,-0.761177 3.635045,-0.191366 -1.267031,-0.138414 -1.759635,1.200567 -0.534386,0.599927 1.041277,-0.32547 2.484443,-0.111788 1.713288,0.672148 1.193619,-0.342905 2.243827,-0.685837 3.280824,0.06805 -0.04596,0.901637 3.272262,2.023412 0.803055,1.87013 -1.853505,-0.583317 -3.400296,0.0011 -5.061398,0.869611 -0.709501,0.616008 -0.281308,3.136571 1.373676,2.098892 1.639322,-0.633923 4.154384,-0.262576 4.578966,1.171034 2.159385,-0.62045 2.271744,4.866764 0.432997,1.939086 0.56716,0.98153 0.243343,1.853897 -0.705272,0.768009 -1.141587,-0.619285 -2.849326,-0.209128 -4.138797,-0.955384 -0.67057,0.567511 -1.397915,0.0205 -1.889424,0.237676 -0.471887,-0.415 0.437658,1.724931 -0.566262,0.09995 -0.752737,0.844639 -1.604258,0.969227 -2.349866,0.560133 -0.535249,0.671766 -2.421007,0.615282 -2.797863,0.09966 -0.601388,0.424266 -2.70181,-0.277409 -2.030807,1.257167 1.807769,1.934085 -1.582243,3.223044 -0.999947,5.560835 0.02637,1.412341 1.507478,2.797826 0.241468,3.795071 0.215767,1.042306 0.759378,2.189574 -0.470388,1.95555 -0.268855,1.18703 0.401249,0.749963 0.821978,0.880274 0.476895,0.147706 0.65202,0.229748 -0.416189,0.527355 -0.573832,1.467754 1.644985,-0.628802 1.315127,1.296655 0.494764,0.879615 1.424895,3.05647 1.622449,0.645475 -0.581199,-2.174643 0.273364,-4.271945 0.347583,-6.400308 -0.902077,0.420521 -1.906733,0.514066 -0.848182,-0.655007 0.352108,-0.499164 0.565931,-0.940625 0.993946,-1.435683 0.189403,-0.219066 0.540498,-0.204495 0.771381,-0.412355 0.202928,-0.182694 0.381293,-0.862309 0.555549,-1.068727 1.710416,-0.92883 1.73448,5.339849 2.352621,7.288016 0.344015,1.222996 -0.273501,1.937452 -0.528756,0.378815 -0.04624,-0.838417 -0.477166,-3.398646 -1.002062,-3.170398 -0.28552,1.855506 1.37196,3.846878 0.336086,5.500836 0.721807,2.044468 -0.127778,4.112667 -0.319215,6.138125 -0.530194,1.200845 -1.323425,2.287499 -1.241908,3.605456 -0.995703,-0.237207 0.225767,1.622339 -1.013191,0.98185 z M 35.9023,47.416068 c 0.629659,-0.737622 -0.167435,-3.708429 -0.692806,-3.794075 -0.210844,0.93034 -1.063807,2.262643 -1.220351,2.969285 -0.07948,0.358824 0.637879,0.783841 1.144994,1.40713 0.233997,-0.127888 0.482755,-0.459233 0.76816,-0.58234 z m -4.289764,-4.434726 c -0.269934,-0.405503 -0.236218,0.391779 0,0 z m 5.64204,-18.052849 c 0.96361,-0.0804 2.882631,-0.596993 1.176314,-0.85015 -0.844888,-1.393403 -3.729469,1.843865 -1.176314,0.85015 z M 24.670801,21.27274 c 0.845418,0.73982 0.441959,-1.488275 -0.315999,-4.67e-4 -0.05793,0.691726 -0.06518,1.182342 0.315999,4.67e-4 z m 3.997207,-1.185049 c -0.547674,-0.54228 0.0815,0.873838 -2e-6,0 z m 12.070304,-0.244043 c 0.980936,-0.907558 -2.14438,0.950482 0,4e-6 z M 25.295301,19.686112 c -0.621188,-0.392689 0.352967,0.507081 0,0 z m 2.82439,-0.820139 c -0.110688,-0.833471 -1.209711,-1.909817 -0.331027,-0.496221 0.145312,0.41067 0.790897,1.590436 0.331027,0.496221 z m 9.707827,-0.206569 c -0.546378,-0.529328 -0.399239,1.213082 0,0 z m 11.213108,1.287236 c 0.50017,-1.017366 -3.206722,-1.883658 -0.665598,-1.766057 0.46103,0.269221 0.960539,0.52106 1.375339,0.722911 0.19313,0.03067 0.460048,-0.164817 0.642293,-0.131423 0.568612,0.104184 1.036672,0.257327 1.107327,0.682725 -1.023067,-0.229405 -1.289485,0.249507 -1.528818,0.722008 -0.317415,-0.03667 -0.675438,0.01375 -0.930543,-0.23016 z M 18.02405,16.376415 c -2.836002,-1.738405 2.277864,0.642702 0,0 z m -1.422701,-0.06718 c -0.526254,-0.545312 -1.517525,-0.441344 -0.119308,-0.688851 0.926767,-0.362933 1.370253,0.810019 0.119308,0.688851 z m 4.31039,-2.170942 c 0.05419,-0.883935 -2.821677,-1.902393 -0.720284,-1.246019 1.001151,1.204175 4.08138,-1.930571 2.136109,0.04644 -0.582451,0.400413 -0.410549,1.625412 -1.415825,1.199585 z m 12.956233,-1.395126 c -0.623183,-0.09203 -1.297578,-0.154958 -1.822306,-0.233646 -0.267378,-0.04009 0.165052,-0.04597 -0.121625,-0.473812 -0.05367,-0.0801 -0.26176,-0.177706 -0.375993,-0.271567 -0.333757,-0.186185 -0.668588,-0.564992 -0.652946,-0.738908 -0.274008,-0.148777 0.905967,0.387821 2.137609,0.888385 0.988338,0.401681 2.182141,0.694571 2.558634,0.909151 -0.514949,0.03517 -1.223359,0.05336 -1.723435,-0.0796 z m -12.130305,0.648691 c 0.4709,-0.768975 3.056147,-2.362051 1.277605,-0.805196 -0.41276,0.258216 -0.804893,0.696265 -1.277605,0.805196 z"/>
 <path style="fill:#ca1010" d="m 34.168698,53.865005 c -1.129543,-0.795528 -2.470645,-1.07329 -2.177073,-2.888418 -1.434214,-1.478691 -0.622775,-3.672253 -0.917742,-5.6315 -0.685693,-2.552553 -1.284536,-5.136052 -1.827239,-7.724508 -1.532423,-1.298188 1.062724,-4.532743 -0.785901,-4.921453 0.142558,-0.853785 -0.418285,-1.271523 0.04205,-2.336977 -0.58928,-0.823968 0.515268,-1.072527 -0.548493,-1.713937 -0.259981,-1.376187 -2.512521,0.301668 -2.842489,-0.544179 -0.862489,0.401144 -1.732816,-0.09323 -2.662567,0.464712 -1.107268,-0.325889 -2.18912,-0.315651 -3.437002,-0.316799 -0.818379,0.147388 -1.548671,1.500864 -1.963837,0.995304 -1.037233,1.344625 -2.010305,0.599479 -3.326653,0.410804 -1.943186,-1.177494 0.618694,-2.263665 0.927178,-3.484006 2.065523,-1.468102 4.758693,-1.04522 7.115356,-0.654308 1.741825,0.349246 4.060159,1.134176 5.557937,0.775033 -1.019502,-0.468834 -2.768477,-0.730318 -3.92941,-1.556521 -0.799013,-0.21085 -1.257048,-0.41436 -1.355684,-1.069052 -0.91154,0.385692 -2.727523,0.696744 -1.291493,-0.704336 0.185707,-0.934737 -1.397708,1.284524 -2.050906,1.358345 -0.568245,0.910216 -0.550199,-1.409821 -1.239237,0.313963 -1.238539,0.638479 1.574082,-2.047808 -0.397015,-1.591138 -0.807324,0.584268 -0.720202,-0.62937 -1.48452,-0.183143 -0.900661,-2.089365 2.184921,-2.765677 2.959931,-3.014041 0.594179,-1.244421 3.151586,-0.297182 4.420247,-0.456586 1.056561,-0.477008 0.101186,-1.971843 1.442249,-0.96808 0.671244,-0.417037 -2.592957,-3.990637 -0.488718,-2.206744 0.181807,0.504227 1.723487,2.555315 1.233809,1.451571 -1.205662,-0.727375 1.070637,-1.41405 -0.83535,-1.767698 -0.525401,-0.738011 -2.078083,-2.025879 -0.134475,-1.754266 1.797465,-0.138441 3.909237,0.197805 5.423604,1.274887 0.803437,0.638425 1.623324,1.28042 2.273992,0.843026 -0.791264,0.538574 -1.82062,2.355183 -0.106246,1.419447 0.778094,-0.337194 1.559126,-1.040215 1.935116,-0.755078 0.496931,-0.447079 1.151233,1.454746 2.20846,0.359116 0.939966,-0.336848 3.433576,-0.761177 3.635045,-0.191366 -1.267031,-0.138414 -1.759635,1.200567 -0.534386,0.599927 1.041277,-0.32547 2.484443,-0.111788 1.713288,0.672148 1.193619,-0.342905 2.243827,-0.685837 3.280824,0.06805 -0.04596,0.901637 3.272262,2.023412 0.803055,1.87013 -1.853505,-0.583317 -3.400296,0.0011 -5.061398,0.869611 -0.709501,0.616008 -0.281308,3.136571 1.373676,2.098892 1.639322,-0.633923 4.154384,-0.262576 4.578966,1.171034 2.159385,-0.62045 2.271744,4.866764 0.432997,1.939086 0.56716,0.98153 0.243343,1.853897 -0.705272,0.768009 -1.141587,-0.619285 -2.849326,-0.209128 -4.138797,-0.955384 -0.67057,0.567511 -1.397915,0.0205 -1.889424,0.237676 -0.471887,-0.415 0.437658,1.724931 -0.566262,0.09995 -0.752737,0.844639 -1.604258,0.969227 -2.349866,0.560133 -0.535249,0.671766 -2.421007,0.615282 -2.797863,0.09966 -0.601388,0.424266 -2.70181,-0.277409 -2.030807,1.257167 1.807769,1.934085 -1.582243,3.223044 -0.999947,5.560835 0.02637,1.412341 1.507478,2.797826 0.241468,3.795071 0.215767,1.042306 0.759378,2.189574 -0.470388,1.95555 -0.268855,1.18703 0.401249,0.749963 0.821978,0.880274 0.476895,0.147706 0.65202,0.229748 -0.416189,0.527355 -0.573832,1.467754 1.644985,-0.628802 1.315127,1.296655 0.494764,0.879615 1.424895,3.05647 1.622449,0.645475 -0.581199,-2.174643 0.273364,-4.271945 0.347583,-6.400308 -0.902077,0.420521 -1.906733,0.514066 -0.848182,-0.655007 0.352108,-0.499164 0.565931,-0.940625 0.993946,-1.435683 0.189403,-0.219066 0.540498,-0.204495 0.771381,-0.412355 0.202928,-0.182694 0.381293,-0.862309 0.555549,-1.068727 1.710416,-0.92883 1.73448,5.339849 2.352621,7.288016 0.344015,1.222996 -0.273501,1.937452 -0.528756,0.378815 -0.04624,-0.838417 -0.477166,-3.398646 -1.002062,-3.170398 -0.28552,1.855506 1.37196,3.846878 0.336086,5.500836 0.721807,2.044468 -0.127778,4.112667 -0.319215,6.138125 -0.530194,1.200845 -1.323425,2.287499 -1.241908,3.605456 -0.995703,-0.237207 0.225767,1.622339 -1.013191,0.98185 z M 35.9023,46.416068 c 0.629659,-0.737622 -0.167435,-3.708429 -0.692806,-3.794075 -0.210844,0.93034 -1.063807,2.262643 -1.220351,2.969285 -0.07948,0.358824 0.637879,0.783841 1.144994,1.40713 0.233997,-0.127888 0.482755,-0.459233 0.76816,-0.58234 z m -4.289764,-4.434726 c -0.269934,-0.405503 -0.236218,0.391779 0,0 z m 5.64204,-18.052849 c 0.96361,-0.0804 2.882631,-0.596993 1.176314,-0.85015 -0.844888,-1.393403 -3.729469,1.843865 -1.176314,0.85015 z M 24.670801,20.27274 c 0.845418,0.73982 0.441959,-1.488275 -0.315999,-4.67e-4 -0.05793,0.691726 -0.06518,1.182342 0.315999,4.67e-4 z m 3.997207,-1.185049 c -0.547674,-0.54228 0.0815,0.873838 -2e-6,0 z m 12.070304,-0.244043 c 0.980936,-0.907558 -2.14438,0.950482 0,4e-6 z M 25.295301,18.686112 c -0.621188,-0.392689 0.352967,0.507081 0,0 z m 2.82439,-0.820139 c -0.110688,-0.833471 -1.209711,-1.909817 -0.331027,-0.496221 0.145312,0.41067 0.790897,1.590436 0.331027,0.496221 z m 9.707827,-0.206569 c -0.546378,-0.529328 -0.399239,1.213082 0,0 z m 11.213108,1.287236 c 0.50017,-1.017366 -3.206722,-1.883658 -0.665598,-1.766057 0.46103,0.269221 0.960539,0.52106 1.375339,0.722911 0.19313,0.03067 0.460048,-0.164817 0.642293,-0.131423 0.568612,0.104184 1.036672,0.257327 1.107327,0.682725 -1.023067,-0.229405 -1.289485,0.249507 -1.528818,0.722008 -0.317415,-0.03667 -0.675438,0.01375 -0.930543,-0.23016 z M 18.02405,15.376415 c -2.836002,-1.738405 2.277864,0.642702 0,0 z m -1.422701,-0.06718 c -0.526254,-0.545312 -1.517525,-0.441344 -0.119308,-0.688851 0.926767,-0.362933 1.370253,0.810019 0.119308,0.688851 z m 4.31039,-2.170942 c 0.05419,-0.883935 -2.821677,-1.902393 -0.720284,-1.246019 1.001151,1.204175 4.08138,-1.9305705 2.136109,0.04644 -0.582451,0.400413 -0.410549,1.625412 -1.415825,1.199585 z m 12.956233,-1.395126 c -0.623183,-0.09203 -1.297578,-0.154958 -1.822306,-0.233646 -0.267378,-0.04009 0.165052,-0.04597 -0.121625,-0.473812 -0.05367,-0.0801 -0.26176,-0.177706 -0.375993,-0.271567 -0.333757,-0.186185 -0.668588,-0.564992 -0.652946,-0.738908 -0.274008,-0.1487765 0.905967,0.387821 2.137609,0.888385 0.988338,0.401681 2.182141,0.694571 2.558634,0.909151 -0.514949,0.03517 -1.223359,0.05336 -1.723435,-0.0796 z m -12.130305,0.648691 c 0.4709,-0.768975 3.056147,-2.362051 1.277605,-0.805196 -0.41276,0.258216 -0.804893,0.696265 -1.277605,0.805196 z"/>
 <path style="fill:#8b9cbe;opacity:0.2" d="M 6.8007812 4 C 5.2495813 4 4 5.2495813 4 6.8007812 L 4 7.8007812 C 4 6.2495813 5.2495813 5 6.8007812 5 L 57.199219 5 C 58.750419 5 60 6.2495813 60 7.8007812 L 60 6.8007812 C 60 5.2495813 58.750419 4 57.199219 4 L 6.8007812 4 z"/>
</svg>
