<svg xmlns="http://www.w3.org/2000/svg" width="64" height="64" version="1.1">
 <path style="opacity:0.2" d="m 10,56 0,2 c 0,1.662 1.338,3 3,3 l 38,0 c 1.662,0 3,-1.338 3,-3 l 0,-2 c 0,1.662 -1.338,3 -3,3 l -38,0 c -1.662,0 -3,-1.338 -3,-3 z"/>
 <path style="fill:#009587" d="m 13,4 c -1.662,0 -3,1.338 -3,3 l 0,50 c 0,1.662 1.338,3 3,3 l 38,0 c 1.662,0 3,-1.338 3,-3 L 54,7 C 54,5.338 52.662,4 51,4 L 13,4 Z"/>
 <path style="opacity:0.2" d="m 13,4 c -1.662,0 -3,1.338 -3,3 l 0,50 c 0,1.662 1.338,3 3,3 l 5,0 0,-56 z"/>
 <path style="opacity:0.2;fill:#8b9cbe" d="M 13 4 C 11.338 4 10 5.338 10 7 L 10 8 C 10 6.338 11.338 5 13 5 L 51 5 C 52.662 5 54 6.338 54 8 L 54 7 C 54 5.338 52.662 4 51 4 L 13 4 z"/>
 <path style="opacity:0.2" d="m 46.003988,32.994489 a 10.001968,10.001968 0 0 0 -6.001181,-9.161963 v 0.738423 8.423538 H 32.001181 V 24.574872 23.840347 A 10.001968,10.001968 0 0 0 26,32.994489 10.001968,10.001968 0 0 0 32.001181,42.148631 V 61 h 8.001626 V 42.156453 a 10.001968,10.001968 0 0 0 6.001181,-9.161964 z"/>
 <path style="fill:#8b9cbe" d="m 46.003988,31.994489 a 10.001968,10.001968 0 0 0 -6.001181,-9.161963 v 0.738423 8.423538 H 32.001181 V 23.574872 22.840347 A 10.001968,10.001968 0 0 0 26,31.994489 10.001968,10.001968 0 0 0 32.001181,41.148631 V 60 h 8.001626 V 41.156453 a 10.001968,10.001968 0 0 0 6.001181,-9.161964 z"/>
</svg>
