<svg xmlns="http://www.w3.org/2000/svg" width="64" height="64" version="1">
 <rect style="opacity:0.2" width="56" height="56" x="4" y="5" rx="2.8" ry="2.8"/>
 <rect style="fill:#8f8f8f" width="56" height="56" x="4" y="4" rx="2.8" ry="2.8"/>
 <path style="opacity:0.6;fill:#8b9cbe" d="m 41.842771,18.00728 c -2.781028,0.148873 -4.920168,2.570415 -4.774418,5.411053 0.0022,0.04346 0.0076,0.08623 0.01092,0.129363 -0.01078,0.294515 0.0038,0.5885 0.04102,0.880741 0.09915,0.778474 -0.144503,1.563139 -0.659012,2.146807 l -2.704407,3.071584 -11.523141,13.079006 c -0.142435,-0.0036 -0.250346,-0.0038 -0.32267,0 -1.694027,0.09067 -2.995705,1.563803 -2.906763,3.297275 0.08894,1.733471 1.532335,3.063346 3.229433,2.972501 1.697094,-0.09085 2.995703,-1.563804 2.906763,-3.297275 -0.0038,-0.07462 -0.01404,-0.184621 -0.03282,-0.330278 L 36.598002,32.327585 39.335228,29.22022 c 0.513687,-0.583623 1.255236,-0.91302 2.023522,-0.894503 0.228844,0.0057 0.458853,1.29e-4 0.686358,-0.02477 0.108014,0.0012 0.216027,-0.0024 0.325402,-0.0084 2.269929,-0.121514 4.108952,-1.757805 4.629493,-3.900033 l -2.846601,0.55876 c -1.380094,0.27041 -2.715065,-0.640052 -2.983327,-2.03121 l -0.0055,-0.02477 c -0.268265,-1.391156 0.635224,-2.740618 2.015318,-3.011033 l 2.398148,-0.470647 c -0.968328,-0.939556 -2.29621,-1.48347 -3.735313,-1.406434 z m -20.22702,26.314894 1.643429,0.371562 0.48127,1.623866 -1.159424,1.252304 -1.640694,-0.371563 -0.484005,-1.623866 z"/>
 <path style="opacity:0.2" d="m 33.21881,32.303144 13.094897,13.097064 c 0.891663,0.891812 0.914726,2.376562 0.06762,3.303468 -0.259832,0.24248 -0.901412,0.784297 -0.901412,0.784297 -0.980975,0.79202 -2.445655,0.647684 -3.261116,-0.311677 L 30.237393,35.080601 c -0.137684,-0.161984 -0.220058,-0.356438 -0.248532,-0.55772 -0.359572,-0.451855 -1.751703,-2.141343 -4.625217,-4.971382 -3.394367,-3.343009 -3.97473,-1.655758 -4.601631,-1.100278 -0.626903,0.555478 -0.563408,1.070547 -0.563408,1.070547 -0.05462,0.316966 -0.27455,0.74137 -0.520828,0.947238 L 18.6768,31.305735 c -0.09312,0.0455 -1.834654,-1.813782 -2.387031,-2.429042 -0.474544,-0.52857 -1.231712,-1.586613 -1.231712,-1.586613 -0.08657,-0.119098 -0.07446,-0.300292 0.02387,-0.408169 0,0 0.927296,-1.052729 1.270026,-1.073313 1.005886,-0.06041 1.47151,-0.154501 1.965191,-0.906416 0.493682,-0.751914 0.494083,-1.344085 0.768603,-1.779209 0.182514,-0.289293 1.706188,-2.16734 3.934686,-3.483446 4.274754,-2.524582 7.591289,-2.680582 8.279206,-2.633157 l 3.217961,0.22184 -1.666573,1.64441 c -0.138059,0.0496 -0.363708,0.118421 -0.503786,0.153629 0,0 -2.03401,0.451853 -3.647992,1.625325 -1.613981,1.173473 -2.053723,3.190062 -0.820496,5.56173 0.72354,1.391473 1.196085,1.871787 2.186263,2.994815 1.157903,1.313259 2.184664,2.360993 2.630698,2.807683 0.192482,0.04311 0.374825,0.139054 0.523091,0.287342 z"/>
 <path style="fill:#8b9cbe" d="m 33.21881,31.303144 13.094897,13.097064 c 0.891663,0.891812 0.914726,2.376562 0.06762,3.303468 -0.259832,0.24248 -0.901412,0.784297 -0.901412,0.784297 -0.980975,0.79202 -2.445655,0.647684 -3.261116,-0.311677 L 30.237393,34.080601 c -0.137684,-0.161984 -0.220058,-0.356438 -0.248532,-0.55772 -0.359572,-0.451855 -1.751703,-2.141343 -4.625217,-4.971382 -3.394367,-3.343009 -3.97473,-1.655758 -4.601631,-1.100278 -0.626903,0.555478 -0.563408,1.070547 -0.563408,1.070547 -0.05462,0.316966 -0.27455,0.74137 -0.520828,0.947238 L 18.6768,30.305735 c -0.09312,0.0455 -1.834654,-1.813782 -2.387031,-2.429042 -0.474544,-0.52857 -1.231712,-1.586613 -1.231712,-1.586613 -0.08657,-0.119098 -0.07446,-0.300292 0.02387,-0.408169 0,0 0.927296,-1.052729 1.270026,-1.073313 1.005886,-0.06041 1.47151,-0.154501 1.965191,-0.906416 0.493682,-0.751914 0.494083,-1.344085 0.768603,-1.779209 0.182514,-0.289293 1.706188,-2.16734 3.934686,-3.483446 4.274754,-2.524582 7.591289,-2.680582 8.279206,-2.633157 l 3.217961,0.22184 -1.666573,1.64441 c -0.138059,0.0496 -0.363708,0.118421 -0.503786,0.153629 0,0 -2.03401,0.451853 -3.647992,1.625325 -1.613981,1.173473 -2.053723,3.190062 -0.820496,5.56173 0.72354,1.391473 1.196085,1.871787 2.186263,2.994815 1.157903,1.313259 2.184664,2.360993 2.630698,2.807683 0.192482,0.04311 0.374825,0.139054 0.523091,0.287342 z"/>
 <path style="fill:#8b9cbe;opacity:0.1" d="M 6.8007812 4 C 5.2495813 4 4 5.2495813 4 6.8007812 L 4 7.8007812 C 4 6.2495813 5.2495813 5 6.8007812 5 L 57.199219 5 C 58.750419 5 60 6.2495813 60 7.8007812 L 60 6.8007812 C 60 5.2495813 58.750419 4 57.199219 4 L 6.8007812 4 z"/>
</svg>
