<svg xmlns="http://www.w3.org/2000/svg" width="64" height="64" version="1">
 <circle style="opacity:0.2" cx="31.5" cy="32.5" r="28.5"/>
 <circle style="fill:#249eff" cx="31.5" cy="31.5" r="28.5"/>
 <rect style="fill:#8b9cbe" width="11" height="11" x="33" y="19" rx="2.75" ry="2.75"/>
 <path style="fill:#8b9cbe;opacity:0.2" d="M 31.5 3 A 28.5 28.5 0 0 0 3 31.5 A 28.5 28.5 0 0 0 3.0214844 32.082031 A 28.5 28.5 0 0 1 31.5 4 A 28.5 28.5 0 0 1 59.978516 31.917969 A 28.5 28.5 0 0 0 60 31.5 A 28.5 28.5 0 0 0 31.5 3 z"/>
 <rect style="opacity:0.6;fill:#8b9cbe" width="11" height="11" x="19" y="19" rx="2.75" ry="2.75"/>
 <rect style="opacity:0.6;fill:#8b9cbe" width="11" height="11" x="33" y="33" rx="2.75" ry="2.75"/>
 <rect style="fill:#8b9cbe" width="11" height="11" x="19" y="33" rx="2.75" ry="2.75"/>
 <path style="opacity:0.2" d="M 19 27.25 L 19 28.25 C 19 29.7735 20.2265 31 21.75 31 L 27.25 31 C 28.7735 31 30 29.7735 30 28.25 L 30 27.25 C 30 28.7735 28.7735 30 27.25 30 L 21.75 30 C 20.2265 30 19 28.7735 19 27.25 z M 33 27.25 L 33 28.25 C 33 29.7735 34.2265 31 35.75 31 L 41.25 31 C 42.7735 31 44 29.7735 44 28.25 L 44 27.25 C 44 28.7735 42.7735 30 41.25 30 L 35.75 30 C 34.2265 30 33 28.7735 33 27.25 z M 19 41.25 L 19 42.25 C 19 43.7735 20.2265 45 21.75 45 L 27.25 45 C 28.7735 45 30 43.7735 30 42.25 L 30 41.25 C 30 42.7735 28.7735 44 27.25 44 L 21.75 44 C 20.2265 44 19 42.7735 19 41.25 z M 33 41.25 L 33 42.25 C 33 43.7735 34.2265 45 35.75 45 L 41.25 45 C 42.7735 45 44 43.7735 44 42.25 L 44 41.25 C 44 42.7735 42.7735 44 41.25 44 L 35.75 44 C 34.2265 44 33 42.7735 33 41.25 z"/>
</svg>
