<svg xmlns="http://www.w3.org/2000/svg" width="64" height="64" version="1.1">
 <path style="opacity:0.2" d="m 31.207031,5.0017114 c -3.589136,0.075437 -7.195569,0.6479523 -10.330078,1.6621094 -3.207807,1.0378725 -6.157357,2.5351516 -8.972656,4.5546872 -1.15156,0.826062 -2.039882,1.809738 -2.4843751,2.751953 -0.3944117,0.836063 -0.9778678,4.463816 -1.2304688,7.640625 -0.7902584,9.938407 0.9174499,20.045476 4.4492189,26.341797 0.439945,0.784315 2.151566,3.486346 2.808594,4.431641 2.56757,3.694089 6.008385,6.292243 10.042968,7.582031 1.653938,0.528737 3.20645,0.820549 5.445313,1.025391 0.180769,0.01654 0.644838,0.0037 1.064453,-0.0039 0.776179,-0.014 1.662491,-0.04692 2.154297,-0.105469 5.756898,-0.685335 10.14132,-3.070419 13.558594,-7.376953 0.62791,-0.791307 1.020843,-1.364363 2.210937,-3.21875 1.5667,-2.441205 2.220305,-3.686486 3.052734,-5.810547 2.968125,-7.573585 3.82618,-18.215924 2.238282,-27.732421 -0.395353,-2.369406 -0.520946,-2.757891 -1.191406,-3.66211 C 53.349835,12.173331 52.692205,11.606858 50.998047,10.476321 46.266256,7.3187219 40.942781,5.5540583 34.771484,5.0954614 33.857347,5.0275307 32.929123,5.0034472 32,5.0036645 c -0.264938,6.2e-5 -0.527517,-0.00754 -0.792969,-0.00195 z"/>
 <path style="fill:#b2bfd9" d="m 31.206328,4.0019167 c -3.589136,0.075437 -7.194685,0.6487681 -10.329194,1.6629252 -3.207807,1.0378725 -6.157258,2.5343632 -8.972557,4.5538991 -1.15156,0.826062 -2.0399177,1.809269 -2.4844108,2.751484 -0.3944117,0.836063 -0.9771963,4.46499 -1.2297973,7.641799 -0.7902584,9.938407 0.9159052,20.04518 4.4476741,26.341501 0.439945,0.784315 2.152757,3.485526 2.809785,4.430821 2.56757,3.694089 6.007842,6.291838 10.042425,7.581626 1.653938,0.528737 3.206988,0.820811 5.445851,1.025653 0.180769,0.01654 0.644738,0.0048 1.064353,-0.0028 V 4.0046517 c -0.264938,6.2e-5 -0.528677,-0.00832 -0.794129,-0.00273 z m 0.794129,0.00274 c 0.929123,-2.173e-4 1.857044,0.022327 2.771181,0.090257 -0.914137,-0.067931 -1.842058,-0.090475 -2.771181,-0.090257 z m 0,55.9842383 c 0.776179,-0.014 1.661719,-0.04812 2.153525,-0.106666 -0.491806,0.05855 -1.377346,0.09266 -2.153525,0.106666 z M 54.437364,12.702188 c 0.336645,0.601838 0.48107,1.264349 0.777584,3.041403 -0.296514,-1.777054 -0.440562,-2.439565 -0.777584,-3.041403 z m 1.260128,6.654436 c 0.245375,2.433171 0.339444,4.903512 0.289526,7.34641 0.05005,-2.442898 -0.04422,-4.913239 -0.289526,-7.34641 z M 45.688155,54.688316 c -0.71622,0.67993 -1.456671,1.31539 -2.250032,1.862585 0.793893,-0.547555 1.533383,-1.18212 2.250032,-1.862585 z"/>
 <path style="opacity:0.1" d="m 18.142689,29.003177 c -0.985759,0.02441 -1.763159,0.192419 -2.254241,0.564351 -0.316251,0.239523 -0.539827,0.650631 -0.74483,1.372972 -0.250507,0.882644 -0.180172,1.543252 0.265205,2.437095 0.683005,1.370765 2.224792,2.350549 4.062711,2.585903 0.05235,0.0067 0.136478,0.02591 0.189028,0.0365 h 7.995643 c 0.189828,-0.05309 0.272058,-0.134918 0.32163,-0.28358 0.08427,-0.252734 -0.06915,-0.719293 -0.505016,-1.538627 -0.561124,-1.054778 -1.10175,-1.81511 -1.907219,-2.672942 -1.307249,-1.392233 -2.350155,-1.978717 -3.927287,-2.21248 -1.318161,-0.195376 -2.509864,-0.313613 -3.495624,-0.289194 z"/>
 <path style="fill:#9c9c9c" d="M 32.000457,4.0046517 V 59.98889 c 0.776179,-0.014 1.661719,-0.04812 2.153525,-0.106666 5.756898,-0.685335 10.140826,-3.069961 13.5581,-7.376495 0.62791,-0.791307 1.021335,-1.364796 2.211429,-3.219183 1.5667,-2.441205 2.220005,-3.685238 3.052435,-5.809298 2.968124,-7.573586 3.8269,-18.217157 2.239002,-27.733654 C 54.819595,13.374188 54.694215,12.985548 54.023754,12.081329 53.350151,11.172871 52.693052,10.608073 50.998894,9.4775356 46.267103,6.3199367 40.942935,4.553506 34.771638,4.0949091 33.857501,4.0269784 32.92958,4.0044344 32.000457,4.0046517 Z"/>
 <path style="opacity:0.1" d="m 31.355921,53.927318 c -0.872926,-0.119369 -1.90155,-0.507425 -2.813493,-1.061417 -0.498,-0.30253 -0.602102,-0.450176 -0.514426,-0.729594 0.05026,-0.160177 0.08992,-0.181407 0.338827,-0.181407 0.155047,0 0.884456,0.08109 1.620908,0.180172 2.746002,0.369498 3.904341,0.220118 6.988554,-0.901245 0.813367,-0.295726 0.954692,-0.304441 1.021121,-0.06295 0.06865,0.249511 -1.242787,1.467611 -2.227824,2.069276 -1.020223,0.62316 -2.825928,0.904299 -4.413667,0.687188 z"/>
 <path style="fill:#17191e" d="m 31.355921,52.92732 c -0.872926,-0.119369 -1.90155,-0.507425 -2.813493,-1.061417 -0.498,-0.30253 -0.602102,-0.450176 -0.514426,-0.729594 0.05026,-0.160177 0.08992,-0.181407 0.338827,-0.181407 0.155047,0 0.884456,0.08109 1.620908,0.180172 2.746002,0.369498 3.904341,0.220118 6.988554,-0.901245 0.813367,-0.295726 0.954692,-0.304441 1.021121,-0.06295 0.06865,0.249511 -1.242787,1.467611 -2.227824,2.069276 -1.020223,0.62316 -2.825928,0.904299 -4.413667,0.687188 z"/>
 <path style="opacity:0.1" d="m 30.836433,41.008407 c -0.05543,-0.0229 -0.09141,0.0026 -0.155337,0.05706 -0.472459,0.402678 -1.556961,2.348013 -1.655955,2.970266 -0.105611,0.663836 0.12996,1.498817 0.548075,1.931126 0.204095,0.211021 1.431664,0.834401 1.878706,0.955049 0.197039,0.05317 0.372817,0.07518 0.548076,0.07809 0.17526,-0.0029 0.351039,-0.02492 0.548078,-0.07809 0.447042,-0.120645 1.674611,-0.744028 1.878706,-0.955049 0.418122,-0.432309 0.65369,-1.26729 0.548075,-1.931126 -0.099,-0.622253 -1.183496,-2.567588 -1.655955,-2.970266 -0.06393,-0.05445 -0.09992,-0.07998 -0.155337,-0.05706 -0.05543,0.02292 -0.130575,0.09161 -0.272574,0.231256 -0.291381,0.286509 -0.53958,0.388195 -0.890993,0.369405 -0.351411,0.0188 -0.59961,-0.08289 -0.890991,-0.369405 -0.142005,-0.139635 -0.21715,-0.208339 -0.272574,-0.231256 z"/>
 <path style="fill:#17191e" d="m 30.836433,40.008409 c -0.05543,-0.0229 -0.09141,0.0026 -0.155337,0.05706 -0.472459,0.402678 -1.556961,2.348013 -1.655955,2.970266 -0.105611,0.663836 0.12996,1.498817 0.548075,1.931126 0.204095,0.211021 1.431664,0.834401 1.878706,0.955049 0.197039,0.05317 0.372817,0.07518 0.548076,0.07809 0.17526,-0.0029 0.351039,-0.02492 0.548078,-0.07809 0.447042,-0.120645 1.674611,-0.744028 1.878706,-0.955049 0.418122,-0.432309 0.65369,-1.26729 0.548075,-1.931126 -0.099,-0.622253 -1.183496,-2.567588 -1.655955,-2.970266 -0.06393,-0.05445 -0.09992,-0.07998 -0.155337,-0.05706 -0.05543,0.02292 -0.130575,0.09161 -0.272574,0.231256 -0.291381,0.286509 -0.53958,0.388195 -0.890993,0.369405 -0.351411,0.0188 -0.59961,-0.08289 -0.890991,-0.369405 -0.142005,-0.139635 -0.21715,-0.208339 -0.272574,-0.231256 z"/>
 <path style="fill:#17191e" d="m 18.142689,28.003179 c -0.985759,0.02441 -1.763159,0.192419 -2.254241,0.564351 -0.316251,0.239523 -0.539827,0.650631 -0.74483,1.372972 -0.250507,0.882644 -0.180172,1.543252 0.265205,2.437095 0.683005,1.370765 2.224792,2.350549 4.062711,2.585903 0.05235,0.0067 0.136478,0.02591 0.189028,0.0365 h 7.995643 c 0.189828,-0.05309 0.272058,-0.134918 0.32163,-0.28358 0.08427,-0.252734 -0.06915,-0.719293 -0.505016,-1.538627 -0.561124,-1.054778 -1.10175,-1.81511 -1.907219,-2.672942 -1.307249,-1.392233 -2.350155,-1.978717 -3.927287,-2.21248 -1.318161,-0.195376 -2.509864,-0.313613 -3.495624,-0.289194 z"/>
 <path style="opacity:0.3" d="m 37.6,27 v 9 h 1.411785 v -9 z m 2.82357,0 v 9 h 1.411786 v -9 z m 2.823571,0 v 9 h 1.411785 v -9 z m 2.82357,0 v 9 h 1.411785 v -9 z"/>
 <rect style="opacity:0.1" width="13" height="7" x="36" y="29" rx="2.167" ry="2.1"/>
 <rect style="fill:#17191e" width="13" height="7" x="36" y="28" rx="2.167" ry="2.1"/>
 <g>
  <path style="fill:#8b9cbe" d="m 40.333333,29.4 v 4.200001 h 4.333333 V 29.4 Z m 0.722222,0.7 h 2.888889 v 2.8 h -2.888889 z"/>
  <rect style="fill:#8b9cbe" width="1.444" height=".7" x="37.88" y="29.68"/>
  <rect style="fill:#8b9cbe" width="1.011" height=".7" x="38.89" y="30.38"/>
  <rect style="fill:#8b9cbe" width="1.444" height=".7" x="37.88" y="32.48"/>
  <rect style="fill:#8b9cbe" width="1.011" height=".7" x="38.89" y="31.78"/>
  <rect style="fill:#8b9cbe" width="1.444" height=".7" x="-47.12" y="29.68" transform="scale(-1,1)"/>
  <rect style="fill:#8b9cbe" width="1.011" height=".7" x="-46.11" y="30.38" transform="scale(-1,1)"/>
  <rect style="fill:#8b9cbe" width="1.444" height=".7" x="-47.12" y="32.48" transform="scale(-1,1)"/>
  <rect style="fill:#8b9cbe" width="1.011" height=".7" x="-46.11" y="31.78" transform="scale(-1,1)"/>
  <rect style="fill:#8b9cbe" width="2.022" height=".7" x="41.49" y="30.45"/>
  <rect style="fill:#8b9cbe" width="2.022" height=".7" x="41.49" y="31.85"/>
  <rect style="fill:#8b9cbe" width="1.4" height=".722" x="30.73" y="-42.86" transform="rotate(90)"/>
 </g>
 <path style="fill:#8b9cbe;opacity:0.2" d="M 31.207031 4.0019531 C 27.617895 4.0773901 24.011462 4.6499054 20.876953 5.6640625 C 17.669146 6.701935 14.719596 8.1992141 11.904297 10.21875 C 10.752737 11.044812 9.864415 12.028488 9.4199219 12.970703 C 9.0255102 13.806766 8.4420541 17.434519 8.1894531 20.611328 C 8.0385044 22.509682 7.9792254 24.413947 8.0058594 26.296875 C 8.0091721 24.740679 8.0651433 23.174667 8.1894531 21.611328 C 8.4420541 18.434519 9.0255102 14.806766 9.4199219 13.970703 C 9.864415 13.028488 10.752737 12.044812 11.904297 11.21875 C 14.719596 9.1992144 17.669146 7.701935 20.876953 6.6640625 C 24.011462 5.6499054 27.617895 5.0773901 31.207031 5.0019531 C 31.472483 4.9963631 31.735062 5.0039682 32 5.0039062 C 32.929123 5.003689 33.857347 5.0277724 34.771484 5.0957031 C 40.942781 5.5543 46.266256 7.3189634 50.998047 10.476562 C 52.692205 11.607099 53.349835 12.173566 54.023438 13.082031 C 54.693897 13.98625 54.819491 14.374735 55.214844 16.744141 C 55.699893 19.651111 55.954027 22.66264 55.992188 25.660156 C 56.003787 22.333963 55.753927 18.974942 55.214844 15.744141 C 54.819491 13.374735 54.693897 12.98625 54.023438 12.082031 C 53.349835 11.173573 52.692205 10.6071 50.998047 9.4765625 C 46.266256 6.3189636 40.942781 4.5543 34.771484 4.0957031 C 33.857347 4.0277724 32.929123 4.003689 32 4.0039062 C 31.735062 4.0039682 31.472483 3.9963631 31.207031 4.0019531 z"/>
</svg>
