<svg xmlns="http://www.w3.org/2000/svg" width="64" height="64" version="1.1">
 <circle style="opacity:0.2" cx="32" cy="33" r="28"/>
 <circle style="fill:#b2bfd9" cx="32" cy="32" r="28"/>
 <path style="opacity:0.1" d="m 35.771484,14.999609 c -1.329743,-0.02783 -2.666024,0.354987 -3.779296,1.087891 -1.11018,0.729812 -1.993981,1.800465 -2.498047,3.03125 -0.504064,1.233877 -0.627116,2.616057 -0.345703,3.917968 0.28141,1.298818 0.961758,2.511563 1.929687,3.423829 -0.491695,-0.810215 -0.745764,-1.769377 -0.714844,-2.71875 0.02783,-0.949375 0.339686,-1.885585 0.88086,-2.667969 0.541174,-0.77929 1.315111,-1.399092 2.193359,-1.757813 0.878249,-0.358719 1.86101,-0.456703 2.794922,-0.277344 1.225115,0.231628 2.343605,0.954437 3.078125,1.960938 h 11.884765 l -9.486328,-2.041016 c -0.507158,-1.150381 -1.348478,-2.149907 -2.390625,-2.845703 -1.04524,-0.695795 -2.29135,-1.088541 -3.546875,-1.113281 z m -19.396484,2.375 c -1.521473,1.570952 -2.393554,3.751156 -2.375,5.9375 0.01801,2.150966 0.907136,4.276474 2.408203,5.816406 L 15.238281,28.76914 c -0.411292,1.570952 -0.285476,3.273937 0.351563,4.767578 0.640132,1.490548 1.788422,2.759446 3.210937,3.544922 1.085441,0.59993 2.322438,0.917969 3.5625,0.917969 1.240062,0 2.475105,-0.318039 3.560547,-0.917969 -0.998853,0.08968 -2.015144,-0.07455 -2.933594,-0.476562 -0.91845,-0.398923 -1.735356,-1.036464 -2.347656,-1.828125 -0.705073,-0.915357 -1.140788,-2.037118 -1.230469,-3.1875 L 30.673828,33.51914 19.369141,30.040625 c -0.008,-0.0084 -0.01748,-0.01503 -0.02539,-0.02344 -0.844232,-0.893711 -1.36898,-2.083994 -1.464844,-3.308594 -0.08968,-1.187491 0.221685,-2.400724 0.871094,-3.396484 l 13.0625,7.125 z m 21.775391,7.785156 c -0.674501,0.797423 -1.115979,1.788453 -1.257813,2.822266 -0.132378,0.977081 -6.39e-4,1.977822 0.257813,2.929687 0.258455,0.948713 0.64326,1.862548 1.021484,2.773438 0.378224,0.910891 0.754155,1.824281 1,2.779297 0.242695,0.955016 0.353351,1.960863 0.189453,2.93164 -0.274213,1.626365 -1.311908,3.073216 -2.664062,4.015625 -1.352152,0.942409 -3.001208,1.408462 -4.646485,1.515625 C 29.973698,45.062873 27.865907,44.639904 26,43.716406 L 26.046875,53.4 28.46875,48.583593 c 3.199152,0.936106 6.77602,0.475138 9.634766,-1.236328 1.443557,-0.863612 2.711227,-2.037801 3.59375,-3.46875 0.885675,-1.43095 1.373718,-3.118126 1.294922,-4.794922 -0.113468,-2.392269 -1.333809,-4.572418 -2.5,-6.662109 -1.169343,-2.08969 -2.345569,-4.305751 -2.361329,-6.701172 0,-0.18596 0.0069,-0.374586 0.01953,-0.560547 z"/>
 <path style="fill:#17191e" d="m 35.771484,14 c -1.329743,-0.02783 -2.666023,0.354987 -3.779296,1.087891 -1.11018,0.729812 -1.993981,1.800465 -2.498047,3.03125 -0.504064,1.233877 -0.627115,2.616057 -0.345703,3.917968 0.28141,1.298818 0.961758,2.511564 1.929687,3.423829 -0.491695,-0.810215 -0.745764,-1.769376 -0.714844,-2.71875 0.02783,-0.949375 0.339686,-1.885585 0.88086,-2.667969 0.541174,-0.77929 1.315111,-1.399092 2.193359,-1.757813 0.878249,-0.358719 1.86101,-0.456703 2.794922,-0.277344 C 37.457537,18.27069 38.576027,18.993499 39.310547,20 H 51.195 L 41.708984,17.958984 C 41.201826,16.808603 40.360506,15.809077 39.318359,15.113281 38.273119,14.417486 37.027009,14.02474 35.771484,14 Z"/>
 <path style="fill:#0192d3" d="m 31.812654,29.437672 -15.437382,-13.0624 c -1.521473,1.570952 -2.393536,3.751111 -2.374982,5.937455 0.01856,2.217268 0.955559,4.412889 2.541974,5.962194 1.586413,1.549305 3.803681,2.433738 6.020949,2.402814 -1.218415,-0.166991 -2.374982,-0.76383 -3.219213,-1.660632 -0.844232,-0.893711 -1.369945,-2.084294 -1.465809,-3.308894 -0.08968,-1.187491 0.222654,-2.399722 0.872063,-3.395482 l 13.0624,7.124945"/>
 <path style="fill:#0192d3" d="M 30.674743,32.519077 15.237361,27.769113 c -0.411292,1.570952 -0.284503,3.274878 0.352536,4.768519 0.640132,1.490548 1.787422,2.758442 3.209937,3.543918 C 19.885275,36.68148 21.122245,37 22.362307,37 c 1.240062,0 2.477031,-0.31852 3.562473,-0.91845 -0.998853,0.08968 -2.016261,-0.07422 -2.934711,-0.476233 -0.91845,-0.398923 -1.73485,-1.035962 -2.34715,-1.827623 -0.705073,-0.915357 -1.141104,-2.037908 -1.230785,-3.18829 l 11.262609,1.929673"/>
 <path style="fill:#0192d3" d="m 38.15046,24.159241 c -0.674501,0.797423 -1.115762,1.790262 -1.257596,2.824075 -0.132378,0.977081 0,1.976224 0.258452,2.928089 0.258455,0.948713 0.642984,1.862755 1.021208,2.773645 0.378224,0.910891 0.753297,1.824934 0.999142,2.77995 0.242695,0.955016 0.35301,1.960463 0.189112,2.93124 -0.274213,1.626365 -1.311177,3.073074 -2.663331,4.015483 -1.352152,0.942409 -3.000579,1.408887 -4.645856,1.51605 C 29.974508,44.063303 27.865907,43.640952 26,42.717454 L 26.047275,52.4 28.467911,47.583942 c 3.199152,0.936106 6.776525,0.475933 9.635271,-1.235533 1.443557,-0.863612 2.71061,-2.03926 3.593133,-3.470209 0.885675,-1.43095 1.374215,-3.1172 1.295419,-4.793996 -0.113468,-2.392269 -1.333242,-4.573363 -2.499434,-6.663054 -1.169343,-2.08969 -2.344991,-4.305455 -2.360751,-6.700876 0,-0.18596 0.0063,-0.375072 0.01891,-0.561033"/>
 <path style="fill:#8b9cbe;opacity:0.2" d="M 32 4 A 28 28 0 0 0 4 32 A 28 28 0 0 0 4.0214844 32.585938 A 28 28 0 0 1 32 5 A 28 28 0 0 1 59.978516 32.414062 A 28 28 0 0 0 60 32 A 28 28 0 0 0 32 4 z"/>
</svg>
