<svg xmlns="http://www.w3.org/2000/svg" width="64" height="64" version="1">
 <path style="fill:#ee3434" d="m30.114 60.959c-1.712-0.084-4.214-0.442-5.862-0.838-4.691-1.132-9.199-3.568-11.974-6.468l-0.33208-0.34718-0.31024 0.16548c-0.8496 0.454-2.0612 0.53-2.8956 0.184-0.5378-0.224-1.165-0.854-1.4716-1.48-0.654-1.334-0.9606-3.816-0.9612-7.776l-0.0002-1.928-0.2074-0.048c-0.564-0.136-1.4448-0.936-1.7606-1.6-0.6758-1.42-0.35-3.396 1.0452-6.342 0.4174-0.882 1.3094-2.508 1.8964-3.456l0.3112-0.502-0.1732-0.342c-0.5694-1.118 0.015-3.156 1.3682-4.766l0.5426-0.646-0.724-0.086c-1.2826-0.154-2.1954-0.754-2.5048-1.644-0.2004-0.576-0.1286-1.368 0.1732-1.906 0.325-0.578 1.9006-2.07 2.803-2.653 1.5558-1.005 3.5018-1.832 5.8058-2.467l1.3088-0.3608 0.024-2.6816c0.0254-2.8586 0.1092-3.8218 0.4986-5.7374 0.4984-2.4516 1.624-5.2316 2.3514-5.8072 0.5676-0.44944 1.4826-0.5595 2.1166-0.2546 0.53642 0.25788 0.8293 0.62524 1.2685 1.5918 0.46132 1.0153 2.8458 5.5438 3.9812 7.5612l0.7104 1.2622 1.3649 0.33172c0.7507 0.18244 2.0988 0.53746 2.9956 0.78894 0.89692 0.25148 1.6466 0.45722 1.666 0.45722s0.03532-0.18942 0.03532-0.42092c0-0.82886 0.47244-1.6037 1.2185-1.9984 0.88144-0.41388 1.846-0.20788 2.484 0.10072 0.37034 0.17977 1.0078 0.56796 1.4166 0.86262 0.40876 0.29468 0.75668 0.53578 0.77316 0.53578 0.11578 0 5.7236-6.1688 6.9704-7.6678 0.4385-0.52718 0.91984-1.1014 1.0697-1.276 0.8804-1.0262 2.6162-0.83028 3.256 0.3675 0.1994 0.37328 0.5263 1.9549 0.63154 3.0554 0.33032 3.455-0.33242 7.6262-1.9189 12.077-0.25556 0.71694-0.48938 1.3594-0.51962 1.4276-0.04264 0.09642 0.12984 0.23146 0.77254 0.60492 0.94296 0.54792 2.4088 1.5148 3.2362 2.1348 0.8893 0.66624 2.5438 2.291 3.0072 2.9528 1.1072 1.582 1.4919 3.2554 0.97968 4.262l-0.1732 0.34044 0.31128 0.50302c0.58688 0.94836 1.4789 2.5736 1.8963 3.4552 1.3951 2.9462 1.7209 4.9232 1.0453 6.3428-0.31596 0.6639-1.1966 1.4636-1.7606 1.5988l-0.2074 0.04972-0.0012 2.0046c-0.003 3.9256-0.30664 6.3648-0.96018 7.6986-0.30652 0.6256-0.93394 1.2567-1.4712 1.4798-0.87758 0.36442-2.2616 0.24482-3.027-0.26158l-0.281-0.18592-1.0438 0.97172c-1.8475 1.72-3.6064 2.8984-6.0218 4.0344-2.231 1.0493-4.3036 1.7251-6.7042 2.186-2.5984 0.49876-5.3702 0.69102-8.0692 0.55968z"/>
 <path style="opacity:.2" d="m32 54.239c0 1.614-1.578 3.76-3.338 3.76s-2.662-2.224-2.662-3.838c0-1.6136 1.6536-0.71102 3.4142-0.71102s2.5858-0.82544 2.5858 0.78814z"/>
 <ellipse style="opacity:.2" cx="32" cy="33.999" rx="14" ry="12"/>
 <ellipse style="fill:#8b9cbe" cx="32" cy="32.999" rx="14" ry="12"/>
 <path style="fill:#272727" d="m32 26.999a4 5 0 0 0 -1.38 0.31 2.6666 2.5 0 0 1 1.38 2.19 2.6666 2.5 0 0 1 -2.666 2.5 2.6666 2.5 0 0 1 -1.322 -0.33 4 5 0 0 0 -0.012 0.33 4 5 0 0 0 4 5 4 5 0 0 0 4 -5 4 5 0 0 0 -4 -5z"/>
 <path style="fill:#8b9cbe" d="m32 53.239c0 1.614-1.578 3.76-3.338 3.76s-2.662-2.224-2.662-3.838c0-1.6136 1.6536-0.71102 3.4142-0.71102s2.5858-0.82544 2.5858 0.78814z"/>
 <path style="fill:#791414" d="m27.642 51.823c-3.408-0.008-6.746-0.804-9.642-2.302 3.062 2.246 6.902 3.476 10.866 3.478 9.462 0 17.134-3.554 17.134-12-2.3282 8.3416-9.6456 10.599-18.358 10.823z"/>
 <path style="opacity:.2" d="m18 17.294 0.0172-2.0672c0.0184-2.2034 0.079-2.946 0.3604-4.4226 0.3604-1.8898 1.1738-4.0328 1.7004-4.4766 0.4103-0.3464 1.0716-0.43124 1.53-0.19627 0.3877 0.19879 0.59938 0.48198 0.91682 1.227 0.33342 0.78268 2.0568 4.2734 2.8774 5.8286l0.512 0.973c1.008 3.2232-7.2398 4.8748-7.914 3.134z"/>
 <path style="fill:#8b9cbe" d="m18 16.294 0.0172-2.0672c0.0184-2.2034 0.079-2.946 0.3604-4.4226 0.3604-1.8898 1.1738-4.0328 1.7004-4.4766 0.4103-0.3464 1.0716-0.43124 1.53-0.19627 0.3877 0.19879 0.59938 0.48198 0.91682 1.227 0.33342 0.78268 2.0568 4.2734 2.8774 5.8286l0.512 0.973c1.008 3.2232-7.2398 4.8756-7.914 3.134z"/>
 <path style="opacity:.2" d="m46.156 19.591 0.618-2.0116c0.66-2.1446 0.836-2.8778 1.046-4.3674 0.272-1.9064 0.23-4.1474-0.084-4.6812-0.246-0.4166-0.788-0.6282-1.254-0.4894-0.392 0.1174-0.662 0.3512-1.162 1.0132-0.526 0.6954-3.074 3.7504-4.254 5.101l-0.73864 0.84506c-1.8513 2.9352 4.717 6.1508 5.8292 4.5904z"/>
 <path style="fill:#8b9cbe" d="m46.156 18.591 0.618-2.0118c0.66-2.1446 0.836-2.8778 1.046-4.3674 0.272-1.9064 0.23-4.1474-0.084-4.6812-0.246-0.4166-0.788-0.6282-1.254-0.4894-0.392 0.1174-0.662 0.3512-1.162 1.0132-0.526 0.6954-3.074 3.7504-4.254 5.101l-0.73864 0.84506c-1.8513 2.9352 4.717 6.1508 5.8292 4.5904z"/>
 <path style="opacity:.2;fill:#8b9cbe" d="m20.1 1.0156c-0.379 0.0456-0.75 0.1855-1.034 0.4102-0.727 0.5756-1.853 3.355-2.351 5.8066-0.39 1.9156-0.475 2.8796-0.5 5.7386l-0.024 2.681-1.308 0.362c-2.304 0.634-4.249 1.461-5.8049 2.466-0.9024 0.584-2.4797 2.075-2.8047 2.653-0.2631 0.469-0.3371 1.124-0.2226 1.668 0.0469-0.24 0.1132-0.473 0.2226-0.668 0.325-0.578 1.9023-2.069 2.8047-2.653 1.5559-1.005 3.5009-1.832 5.8049-2.466l1.308-0.362 0.024-2.681c0.025-2.859 0.11-3.823 0.5-5.7386 0.498-2.4516 1.624-5.231 2.351-5.8066 0.568-0.4495 1.482-0.5588 2.116-0.2539 0.536 0.2579 0.83 0.6252 1.269 1.5918 0.461 1.0153 2.845 5.5431 3.981 7.5603l0.711 1.262 1.365 0.332c0.751 0.182 2.097 0.538 2.994 0.789 0.897 0.252 1.647 0.457 1.666 0.457s0.035-0.188 0.035-0.42c0-0.829 0.473-1.603 1.219-1.998 0.881-0.414 1.846-0.209 2.484 0.1 0.371 0.179 1.007 0.568 1.416 0.863s0.757 0.535 0.774 0.535c0.115 0 5.724-6.1688 6.97-7.6678 0.439-0.5272 0.921-1.1008 1.071-1.2754 0.88-1.0262 2.616-0.8306 3.256 0.3672 0.199 0.3732 0.525 1.9542 0.63 3.0547 0.037 0.3798 0.056 0.7733 0.069 1.1699 0.013-0.7475-0.002-1.4766-0.069-2.1699-0.105-1.1005-0.431-2.6815-0.63-3.0547-0.64-1.1978-2.376-1.3934-3.256-0.3672-0.15 0.1746-0.632 0.7482-1.071 1.2754-1.246 1.499-6.855 7.6678-6.97 7.6678-0.017 0-0.365-0.24-0.774-0.535s-1.045-0.684-1.416-0.863c-0.638-0.309-1.603-0.516-2.484-0.102-0.746 0.395-1.219 1.171-1.219 2 0 0.232-0.016 0.42-0.035 0.42s-0.769-0.205-1.666-0.457c-0.897-0.251-2.243-0.607-2.994-0.789l-1.365-0.332-0.711-1.262c-1.136-2.0172-3.52-6.545-3.981-7.5603-0.439-0.9666-0.733-1.3339-1.269-1.5918-0.317-0.1525-0.703-0.20186-1.082-0.1563zm28.748 19.494c-0.096 0.261-0.247 0.684-0.262 0.719-0.043 0.096 0.129 0.23 0.771 0.603 0.943 0.548 2.409 1.515 3.237 2.135 0.889 0.666 2.544 2.291 3.008 2.953 0.64 0.915 1.031 1.858 1.154 2.687 0.175-1.005-0.236-2.375-1.154-3.687-0.464-0.662-2.119-2.287-3.008-2.953-0.828-0.62-2.294-1.587-3.237-2.135-0.255-0.148-0.386-0.237-0.509-0.322zm-40.26 5.17c-1.0075 1.309-1.5186 2.832-1.3418 3.918 0.1531-1.01 0.6979-2.179 1.541-3.182l0.543-0.646-0.7246-0.086c-0.0064-0.001-0.0113-0.004-0.0176-0.004zm-1.252 5.258l-0.0547 0.087c-0.587 0.948-1.479 2.573-1.8964 3.455-1.0652 2.25-1.5029 3.932-1.3516 5.235 0.1008-1.139 0.5394-2.518 1.3516-4.233 0.4174-0.882 1.3094-2.509 1.8964-3.457l0.3106-0.502-0.1719-0.341c-0.0378-0.075-0.0562-0.163-0.084-0.244zm49.332 0.007c-0.028 0.08-0.049 0.163-0.086 0.237l-0.174 0.341 0.311 0.502c0.587 0.949 1.479 2.574 1.896 3.455 0.812 1.716 1.251 3.095 1.352 4.235 0.151-1.303-0.287-2.985-1.352-5.235-0.417-0.881-1.309-2.506-1.896-3.455l-0.051-0.08z"/>
 <path style="opacity:.2" d="m51.092 8.8904c-0.05194 2.9781-0.71783 6.3515-1.9863 9.9102-0.25556 0.71694-0.48929 1.3595-0.51953 1.4277-0.02573 0.05817 0.07479 0.15107 0.26172 0.28125 0.09392-0.25808 0.13092-0.35299 0.25781-0.70898 1.4121-3.9614 2.0868-7.6995 1.9863-10.91zm-45.041 13.911c-0.082277 0.42064-0.076846 0.87145 0.050781 1.2383 0.30787 0.8856 1.2137 1.483 2.4863 1.6406 0.067352-0.08755 0.12749-0.17833 0.19922-0.26367l0.54297-0.64648-0.72461-0.08594c-1.2826-0.154-2.1945-0.75453-2.5039-1.6445-0.025675-0.0738-0.033953-0.15838-0.050781-0.23828zm1.1953 6.7969c-0.076376 0.50352-0.040219 0.95637 0.089844 1.3398l0.2559-0.415-0.1719-0.342c-0.0879-0.172-0.1395-0.372-0.1738-0.584zm49.51 0.0098c-0.03604 0.20673-0.08647 0.40252-0.17383 0.57422l-0.17383 0.3418 0.25977 0.42187c0.1335-0.38351 0.16213-0.83772 0.08789-1.3379zm-52.723 10.105c-0.072449 0.81803 0.024172 1.5178 0.30664 2.1113 0.3158 0.664 1.1958 1.4636 1.7598 1.5996l0.20703 0.04687 0.00195 1.9277c0.0006 3.96 0.30694 6.4433 0.96094 7.7773 0.3066 0.626 0.9333 1.2565 1.4707 1.4805 0.8344 0.346 2.0449 0.26845 2.8945-0.18555l0.31055-0.16406 0.33203 0.3457c2.7752 2.9 7.2838 5.3367 11.975 6.4688 1.648 0.396 4.1493 0.75389 5.8613 0.83789 2.699 0.13134 5.47-0.05983 8.0684-0.55859 2.4006-0.46088 4.4741-1.1362 6.7051-2.1855 2.4154-1.136 4.174-2.3151 6.0215-4.0352l1.043-0.97266 0.28125 0.1875c0.7654 0.5064 2.1498 0.62419 3.0273 0.25977 0.53728-0.2231 1.1642-0.85292 1.4707-1.4785 0.65354-1.3338 0.95794-3.7736 0.96094-7.6992v-1c-0.003 3.9256-0.3074 6.3654-0.96094 7.6992-0.30652 0.6256-0.93342 1.2574-1.4707 1.4805-0.87758 0.36442-2.2619 0.24468-3.0273-0.26172l-0.28125-0.18555-1.043 0.9707c-1.8475 1.72-3.6061 2.8992-6.0215 4.0352-2.231 1.0493-4.3045 1.7247-6.7051 2.1855-2.5984 0.49876-5.3694 0.68993-8.0684 0.55859-1.712-0.084-4.2133-0.44189-5.8613-0.83789-4.6908-1.132-9.1994-3.5668-11.975-6.4668l-0.33203-0.34766-0.31055 0.16406c-0.8496 0.454-2.0601 0.53155-2.8945 0.18555-0.5374-0.224-1.1641-0.85447-1.4707-1.4805-0.654-1.334-0.96034-3.8154-0.96094-7.7754l-0.00195-1.9297-0.20703-0.04687c-0.5633-0.136-1.4433-0.936-1.7591-1.6-0.1601-0.336-0.2598-0.707-0.3066-1.111zm55.934 0.002c-0.04684 0.40366-0.14682 0.77355-0.30664 1.1094-0.31596 0.6639-1.1957 1.4625-1.7598 1.5977l-0.20703 0.05078v1l0.20703-0.05078c0.56402-0.1352 1.4438-0.93375 1.7598-1.5977 0.28231-0.5932 0.379-1.2915 0.30664-2.1094z"/>
</svg>
