<svg xmlns="http://www.w3.org/2000/svg" width="64" height="64" version="1.1">
 <circle style="opacity:0.2" cx="32" cy="33" r="28"/>
 <circle style="fill:#44c7aa" cx="32" cy="32" r="28"/>
 <path style="opacity:0.1" d="m 21.557546,23.00004 c -0.634084,-0.0013 -1.017524,0.03952 -1.575539,0.1198 -2.412515,0.34704 -3.857976,1.009726 -5.184957,2.374898 -1.3656,1.404904 -2.156488,2.76823 -2.591176,4.47116 -0.213387,0.835968 -0.235604,1.156376 -0.17969,2.588434 0.07868,2.015204 0.325486,3.02923 1.104179,4.562304 1.214961,2.391988 2.798836,3.772778 5.231833,4.559702 1.641396,0.53089 5.044872,1.081078 7.713634,1.244738 2.68386,0.1646 12.000902,0.0533 13.776202,-0.16406 3.30689,-0.404856 5.978574,-1.077608 7.56259,-1.903562 1.39709,-0.728488 3.07194,-2.672536 3.770878,-4.377418 0.442232,-1.078712 0.717692,-2.423972 0.79428,-3.867024 0.09158,-1.725424 -0.11972,-2.861158 -0.802094,-4.28367 -1.24968,-2.605108 -3.486558,-4.518708 -5.947986,-5.090928 -1.206444,-0.280366 -5.352684,-0.276414 -9.698028,0.0078 -3.524576,0.230536 -4.789614,0.218146 -10.885548,-0.11198 -1.567858,-0.08496 -2.454492,-0.12888 -3.088578,-0.13026 z m 2.442738,3.99983 a 4.0000472,5.9997434 0 0 1 4.000048,5.999744 4.0000472,5.9997434 0 0 1 -4.000048,5.999742 4.0000472,5.9997434 0 0 1 -4.000048,-5.999742 4.0000472,5.9997434 0 0 1 4.000048,-5.999744 z m 16.000188,0 a 4.0000472,5.9997434 0 0 1 4.000048,5.999744 4.0000472,5.9997434 0 0 1 -4.000048,5.999742 4.0000472,5.9997434 0 0 1 -4.000046,-5.999742 4.0000472,5.9997434 0 0 1 4.000046,-5.999744 z"/>
 <path style="fill:#2c3638" d="m 21.557546,22.00004 c -0.634084,-0.0013 -1.017524,0.03952 -1.575539,0.1198 -2.412515,0.34704 -3.857976,1.009726 -5.184957,2.374898 -1.3656,1.404904 -2.156488,2.76823 -2.591176,4.47116 -0.213387,0.835968 -0.235604,1.156376 -0.17969,2.588434 0.07868,2.015204 0.325486,3.02923 1.104179,4.562304 1.214961,2.391988 2.798836,3.772778 5.231833,4.559702 1.641396,0.53089 5.044872,1.081078 7.713634,1.244738 2.68386,0.1646 12.000902,0.0533 13.776202,-0.16406 3.30689,-0.404856 5.978574,-1.077608 7.56259,-1.903562 1.39709,-0.728488 3.07194,-2.672536 3.770878,-4.377418 0.442232,-1.078712 0.717692,-2.423972 0.79428,-3.867024 0.09158,-1.725424 -0.11972,-2.861158 -0.802094,-4.28367 -1.24968,-2.605108 -3.486558,-4.518708 -5.947986,-5.090928 -1.206444,-0.280366 -5.352684,-0.276414 -9.698028,0.0078 -3.524576,0.230536 -4.789614,0.218146 -10.885548,-0.11198 -1.567858,-0.08496 -2.454492,-0.12888 -3.088578,-0.13026 z m 2.442738,3.99983 a 4.0000472,5.9997434 0 0 1 4.000048,5.999744 4.0000472,5.9997434 0 0 1 -4.000048,5.999742 4.0000472,5.9997434 0 0 1 -4.000048,-5.999742 4.0000472,5.9997434 0 0 1 4.000048,-5.999744 z m 16.000188,0 a 4.0000472,5.9997434 0 0 1 4.000048,5.999744 4.0000472,5.9997434 0 0 1 -4.000048,5.999742 4.0000472,5.9997434 0 0 1 -4.000046,-5.999742 4.0000472,5.9997434 0 0 1 4.000046,-5.999744 z"/>
 <path style="opacity:0.2;fill:#8b9cbe" d="M 32 4 A 28 28 0 0 0 4 32 A 28 28 0 0 0 4.0175781 32.492188 A 28 28 0 0 1 32 5 A 28 28 0 0 1 59.974609 32.492188 A 28 28 0 0 0 60 32 A 28 28 0 0 0 32 4 z"/>
</svg>
