<svg xmlns="http://www.w3.org/2000/svg" width="64" height="64" version="1">
 <rect style="opacity:0.2" width="56" height="56" x="4" y="5" rx="16.8" ry="16.8"/>
 <rect style="fill:#b2bfd9" width="56" height="56" x="4" y="4" rx="16.8" ry="16.8"/>
 <path style="opacity:0.1" d="M 19.6875,14 C 18.609708,14 18,14.811815 18,15.818359 v 8.84961 C 18,24.667969 17.999336,26 16.666016,26 H 14 l 6,6.667969 6,6.666015 5.5625,-6.18164 C 28.394794,29.826482 25.164702,25.876576 24.253906,15.392578 24.186526,14.24933 23.167969,14 23.167969,14 Z m 9.638672,0 c 0,0 -1.083406,0.340681 -1.246094,1.230469 -1.167378,6.865944 -0.367504,12.87525 4.027344,17.316406 L 38,26 H 35.333984 C 34.000648,26 34,24.667969 34,24.667969 v -8.84961 C 34,14.811815 32.874681,14 31.796875,14 Z M 39,27.666016 l -5.5625,6.18164 c 3.167706,3.325862 6.397798,7.277721 7.308594,17.761719 C 40.813474,52.752623 41.832031,53 41.832031,53 H 45.3125 C 46.390292,53 47,52.188185 47,51.181641 v -8.84961 C 47,42.332031 47.000664,41 48.333984,41 H 51 L 45,34.332031 Z M 32.892578,34.453125 27,41 h 2.666016 C 30.999352,41 31,42.332031 31,42.332031 v 8.84961 C 31,52.188185 32.125319,53 33.203125,53 h 2.470703 c 0,0 1.083406,-0.340681 1.246094,-1.230469 1.167378,-6.865944 0.367504,-12.87525 -4.027344,-17.316406 z"/>
 <path style="fill:#5c3420" d="m 39.000008,26.666332 -5.562506,6.18229 c 3.167706,3.325862 6.39871,7.276096 7.309506,17.760094 0.06738,1.143248 1.085658,1.390952 1.085658,1.390952 h 3.479838 c 1.077792,0 1.687504,-0.811168 1.687504,-1.817712 v -8.84896 c 0,0 0,-1.333336 1.33332,-1.333336 H 51 L 44.999996,33.332996 Z M 32.893226,33.452788 27,39.99966 h 2.666672 c 1.333336,0 1.333336,1.333336 1.333336,1.333336 v 8.84896 c 0,1.006544 1.125312,1.817712 2.203118,1.817712 h 2.471578 c 0,0 1.083252,-0.339732 1.24594,-1.22952 1.167378,-6.865944 0.36743,-12.876204 -4.027418,-17.31736 z"/>
 <path style="fill:#e8580d" d="m 25.999992,38.334 5.562506,-6.18229 c -3.167706,-3.325862 -6.39871,-7.276096 -7.309506,-17.760094 -0.06738,-1.143248 -1.085658,-1.390952 -1.085658,-1.390952 h -3.479838 c -1.077792,0 -1.687504,0.811168 -1.687504,1.817712 v 8.84896 c 0,0 0,1.333336 -1.33332,1.333336 H 14 l 6.000004,6.666664 z M 32.106774,31.547544 38,25.000672 h -2.666672 c -1.333336,0 -1.333336,-1.333336 -1.333336,-1.333336 v -8.84896 c 0,-1.006544 -1.125312,-1.817712 -2.203118,-1.817712 h -2.471578 c 0,0 -1.083252,0.339732 -1.24594,1.22952 -1.167378,6.865944 -0.36743,12.876204 4.027418,17.31736 z"/>
 <path style="opacity:0.2;fill:#8b9cbe" d="M 20.800781 4 C 11.493581 4 4 11.493581 4 20.800781 L 4 21.800781 C 4 12.493581 11.493581 5 20.800781 5 L 43.199219 5 C 52.506419 5 60 12.493581 60 21.800781 L 60 20.800781 C 60 11.493581 52.506419 4 43.199219 4 L 20.800781 4 z"/>
</svg>
