<svg xmlns="http://www.w3.org/2000/svg" height="64" width="64" version="1.1">
 <path style="opacity:.2" d="m32 5c-10 23-10 24-28 56 0 0 16-9 28-9s28 9 28 9c-18-32-18-33-28-56z"/>
 <path style="fill:#606060" d="m32 4c-10 23-10 24-28 56 0 0 16-9 28-9s28 9 28 9c-18-32-18-33-28-56z"/>
 <path style="opacity:.1;fill:#8b9cbe" d="m32 4c-10 23-10 24-28 56 0 0 0.3001-0.166 0.8027-0.434 17.1093-30.45 17.3653-31.953 27.1973-54.566 9.832 22.613 10.088 24.116 27.197 54.566 0.503 0.268 0.803 0.434 0.803 0.434-18-32-18-33-28-56z"/>
 <path style="opacity:.2" d="m33 23s-8 6-8 12c0 4.329786 0.915082 8.258574 2.080078 11.525391-0.048827-0.537201-0.080078-1.054922-0.080078-1.525391 0-6 4-10 4-10s4 3 4 8c0 2.747765-0.599053 6.364113-1.140625 9.082031 0.370699 0.02599 0.743604 0.0615 1.119141 0.101563 1.904968-2.895363 4.021484-7.213535 4.021484-12.183594 0-7-6-14-6-14z"/>
 <path style="fill:#8b9cbe" d="m33 22s-8 6-8 12c0 4.329786 0.915082 8.258574 2.080078 11.525391-0.048827-0.537201-0.080078-1.054922-0.080078-1.525391 0-6 4-10 4-10s4 3 4 8c0 2.747765-0.599053 6.364113-1.140625 9.082031 0.370699 0.025986 0.743604 0.061499 1.119141 0.101563 1.904968-2.895363 4.021484-7.213535 4.021484-12.183594 0-7-6-14-6-14v-3z"/>
</svg>
