<svg xmlns="http://www.w3.org/2000/svg" width="64" height="64" version="1.1">
 <path style="opacity:0.2" d="m 22.814816,4 c -6.724125,0 -12.364021,2.201318 -12.364021,8.961265 0,3.15119 1.193675,6.371943 3.139489,8.921549 0.764915,0.801466 0.717988,1.29961 0.483431,2.232514 -0.416765,1.524414 -1.033815,3.343512 -1.599256,4.680622 -3.9174975,3.803644 -4.7756963,10.540806 -1.26479,14.909908 1.385851,2.246174 0.892795,5.52052 2.774105,7.74714 1.876059,2.662194 4.722019,4.99032 8.049684,5.264992 C 24.320632,59.920538 28.135212,61.906954 32,62 c 3.864788,-0.09304 7.679366,-2.079462 9.966542,-5.28201 3.327664,-0.274672 6.173624,-2.602798 8.049684,-5.264992 1.88131,-2.22662 1.388252,-5.500966 2.774106,-7.74714 C 56.301238,39.336756 55.443038,32.599594 51.52554,28.79595 50.9601,27.45884 50.343048,25.639742 49.926284,24.115328 49.691726,23.182424 49.644798,22.68428 50.409716,21.882814 52.35553,19.333208 53.549204,16.112455 53.549204,12.961265 53.549204,6.201318 47.909308,4 41.185182,4 38.648886,4 34.875,6.3147804 32,6.3147804 29.125,6.3147804 25.351112,4 22.814816,4 Z"/>
 <path style="fill:#17191e" d="m 22.814816,3 c -6.724125,0 -12.364021,2.201318 -12.364021,8.961265 0,3.15119 1.193675,6.371943 3.139489,8.921549 0.764915,0.801466 0.717988,1.29961 0.483431,2.232514 -0.416765,1.524414 -1.033815,3.343512 -1.599256,4.680622 -3.9174975,3.803644 -4.7756963,10.540806 -1.26479,14.909908 1.385851,2.246174 0.892795,5.52052 2.774105,7.74714 1.876059,2.662194 4.722019,4.99032 8.049684,5.264992 C 24.320632,58.920538 28.135212,60.906954 32,61 c 3.864788,-0.09304 7.679366,-2.079462 9.966542,-5.28201 3.327664,-0.274672 6.173624,-2.602798 8.049684,-5.264992 1.88131,-2.22662 1.388252,-5.500966 2.774106,-7.74714 C 56.301238,38.336756 55.443038,31.599594 51.52554,27.79595 50.9601,26.45884 50.343048,24.639742 49.926284,23.115328 49.691726,22.182424 49.644798,21.68428 50.409716,20.882814 52.35553,18.333208 53.549204,15.112455 53.549204,11.961265 53.549204,5.201318 47.909308,3 41.185182,3 38.648886,3 34.875,5.3147804 32,5.3147804 29.125,5.3147804 25.351112,3 22.814816,3 Z"/>
 <path style="opacity:0.2" d="m 23.699218,9.999605 c 0.23803,0.299505 0.571458,0.593465 0.21875,0.9375 -0.486132,-0.31361 -0.97821,-0.628653 -2.132812,-0.851563 0.260186,0.29966 0.798794,0.598778 0.472656,0.898438 -0.61043,-0.240853 -1.283914,-0.414091 -2.03125,-0.515625 0.357848,0.304067 0.656586,0.600418 0.363282,0.835937 C 19.936616,11.096697 19.03563,10.81726 18.15625,11.058198 l 0.558594,0.578125 c 0.06179,0.07745 -1.302835,0.06062 -2.203125,0.07422 0.328584,0.47149 0.663767,0.9285 0.859375,1.738282 -0.08924,0.09339 -0.536383,0.04151 -0.957032,0 0.431306,0.938081 1.180609,1.172787 1.355469,1.574218 -0.263478,0.20611 -0.627763,0.151864 -1.027344,0.01172 0.310539,0.660936 0.961973,1.115995 1.476563,1.652344 -0.13009,0.09538 -0.360275,0.152044 -0.898438,0.08594 0.475402,0.522051 1.049701,1.000518 1.73047,1.429688 -0.120548,0.143908 -0.533409,0.134952 -0.91797,0.144532 0.616633,0.623514 1.408572,0.947583 2.152344,1.355468 -0.370772,0.261664 -0.634076,0.202779 -0.917968,0.199218 0.526058,0.446475 1.419612,0.675803 2.25,0.945313 -0.15794,0.25355 -0.314714,0.323352 -0.652344,0.394532 0.878918,0.502482 2.137126,0.27447 2.492188,0.53125 -0.08572,0.252566 -0.32746,0.417448 -0.617188,0.554686 1.414972,0.08488 5.285536,-0.05262 6.027344,-3.078124 -1.448512,-1.643986 -4.092488,-3.574783 -8.640626,-5.960938 3.538304,1.223433 6.73034,2.853466 9.402344,5.097656 3.14126,-1.510965 0.973928,-5.322983 -0.558594,-6.835937 -0.0777,0.399504 -0.1651,0.652082 -0.265624,0.726562 -0.498994,-0.552581 -0.904516,-1.116698 -1.546876,-1.648437 -0.002,0.312304 0.15196,0.65064 -0.230468,0.898437 -0.34435,-0.478627 -0.81159,-0.906975 -1.429688,-1.269532 0.297712,0.530367 0.05069,0.690346 -0.109374,0.910156 -0.472084,-0.418219 -0.918518,-0.839856 -1.789064,-1.167968 z m 17.1875,0 c -0.870546,0.328112 -1.320884,0.749749 -1.792968,1.167968 -0.160056,-0.21981 -0.40709,-0.379789 -0.109374,-0.910156 -0.618098,0.362556 -1.08143,0.790905 -1.425782,1.269531 -0.382428,-0.247797 -0.228378,-0.586133 -0.23047,-0.898437 -0.64236,0.531739 -1.051784,1.095856 -1.55078,1.648437 -0.10052,-0.07448 -0.18794,-0.327058 -0.265626,-0.726562 -1.532524,1.512954 -3.695946,5.324972 -0.554686,6.835937 2.672,-2.24419 5.864038,-3.874223 9.402344,-5.097656 -4.54814,2.386155 -7.192114,4.316952 -8.640626,5.960938 0.741808,3.025495 4.612372,3.162997 6.027344,3.078123 -0.289726,-0.13724 -0.531466,-0.30212 -0.617188,-0.554686 0.355062,-0.25678 1.61327,-0.02876 2.492188,-0.53125 -0.337628,-0.07118 -0.49832,-0.14098 -0.65625,-0.394532 0.830388,-0.26951 1.727848,-0.498836 2.253906,-0.945312 -0.283892,0.0036 -0.551102,0.06245 -0.921874,-0.199218 0.74377,-0.407884 1.539618,-0.731954 2.156248,-1.355468 -0.38456,-0.0096 -0.801326,-6.14e-4 -0.921874,-0.144532 0.680768,-0.42917 1.255066,-0.907637 1.730468,-1.429688 -0.538164,0.06611 -0.76444,0.0094 -0.89453,-0.08594 0.514588,-0.536349 1.166024,-0.991408 1.476562,-1.652344 -0.39958,0.140146 -0.763866,0.194392 -1.027344,-0.01172 0.17486,-0.401431 0.924164,-0.636137 1.35547,-1.574218 -0.420648,0.04151 -0.867796,0.09339 -0.957032,0 0.1956,-0.809788 0.53079,-1.266792 0.859374,-1.738282 -0.900292,-0.0136 -2.264918,0.0032 -2.203124,-0.07422 l 0.558594,-0.578124 c -0.879378,-0.240938 -1.780366,0.0385 -2.433594,0.246094 -0.293304,-0.235519 0.0054,-0.53187 0.363282,-0.835937 -0.747336,0.101535 -1.424726,0.274772 -2.035158,0.515625 -0.326136,-0.29966 0.21247,-0.598778 0.472658,-0.898438 -1.154602,0.22291 -1.642776,0.537953 -2.128908,0.851563 -0.352708,-0.344035 -0.01927,-0.637995 0.21875,-0.9375 z m -8.664062,12.464843 c -2.51027,-0.06644 -4.920018,1.893034 -4.92578,3.03125 -0.007,1.38302 1.983774,2.799996 4.941406,2.835938 3.020352,0.02202 4.94729,-1.131344 4.95703,-2.558594 0.011,-1.617044 -2.745164,-3.333574 -4.972656,-3.308594 z m -7.578124,0.960938 c -3.485526,0.06602 -6.150606,2.521112 -6.027345,6.58203 0.138352,1.779236 9.111891,-6.196046 7.562501,-6.460936 -0.525738,-0.09034 -1.037224,-0.13052 -1.535156,-0.1211 z m 14.695312,0.13672 c -0.497932,-0.0094 -1.013324,0.03076 -1.539062,0.1211 -1.549388,0.264892 7.428046,8.240174 7.566406,6.460938 0.12326,-4.06092 -2.54182,-6.516012 -6.027344,-6.582032 z m -1.480468,4.953124 a 5.836951,4.911154 58.681418 0 0 -2.566408,0.703126 5.836951,4.911154 58.681418 1 0 6.35547,9.789062 5.836951,4.911154 58.681418 0 0 -3.789062,-10.492188 z m -11.226564,0.273438 a 4.911154,5.836951 31.318582 0 0 -3.789062,10.492188 4.911154,5.836951 31.318582 1 0 6.355468,-9.789062 4.911154,5.836951 31.318582 0 0 -2.566406,-0.703126 z m 19.44922,3.027344 c -2.437418,-0.664592 -0.822818,10.259724 1.160156,9.363282 2.181224,-1.785472 2.883874,-7.013296 -1.160156,-9.363282 z m -28.164063,0.13672 c -4.04403,2.349984 -3.341381,7.57781 -1.160157,9.363282 1.982975,0.896442 3.597574,-10.027872 1.160157,-9.363282 z m 14.593749,7.035158 a 5.44792,5.1121384 0 0 0 -5.609374,5.109374 5.449219,5.1133574 0 0 0 10.898438,0 5.44792,5.1121384 0 0 0 -5.289064,-5.109374 z m 11.882814,1.898436 c -1.276622,0.03386 -2.79919,1.263278 -4.246094,2.925782 -1.685902,2.0095 -2.62444,5.674814 -1.394532,6.855468 1.17595,0.917072 4.332252,0.788586 6.664062,-2.503906 1.69321,-2.211328 1.127328,-5.902444 0.16016,-6.882812 -0.359178,-0.282714 -0.758052,-0.40582 -1.183592,-0.394532 z M 19.9375,41.67148 c -0.457202,-0.02 -0.8858,0.07556 -1.261719,0.308592 -1.005491,0.77873 -1.18991,3.43033 0.242188,6.035156 2.123471,3.104212 5.113521,3.415406 6.343749,2.660158 1.30037,-0.989336 0.589458,-4.347484 -0.96875,-6.257814 -1.34115,-1.58358 -2.98386,-2.68626 -4.355468,-2.746092 z m 12.4375,9.152342 c -2.174952,-0.05538 -5.50925,0.887032 -5.46875,2.09375 -0.03478,0.823032 2.618182,3.196906 5.324218,3.078126 2.612954,0.04584 5.313664,-2.325678 5.277344,-3.375 -0.0058,-1.080576 -2.94418,-1.894076 -5.132812,-1.796876 z"/>
 <g transform="matrix(0.0669359,0,0,0.06811484,13.037444,7.6524538)">
  <path style="fill:#75a928" d="m 107.39184,68.055583 c 67.94767,35.031357 107.44689,63.368967 129.08717,87.504467 -11.08235,44.41759 -68.89638,46.44464 -90.03559,45.19858 4.32842,-2.01474 7.93988,-4.42778 9.22051,-8.13574 -5.30449,-3.76981 -24.11289,-0.39719 -37.24363,-7.77416 5.04407,-1.04499 7.40348,-2.06302 9.76289,-5.78542 -12.40571,-3.9567 -25.76862,-7.36642 -33.627746,-13.92116 4.241253,0.0524 8.201156,0.9488 13.740366,-2.89271 -11.111694,-5.98819 -22.969108,-10.73351 -32.18139,-19.88738 5.745213,-0.14063 11.939452,-0.0568 13.740371,-2.16953 -10.17044,-6.30068 -18.751242,-13.30787 -25.853592,-20.97215 8.039979,0.97052 11.435284,0.13478 13.378782,-1.26556 -7.687795,-7.87419 -17.417559,-14.52319 -22.056911,-24.22644 5.969606,2.057484 11.431249,2.84506 15.36752,-0.180795 -2.612365,-5.893453 -13.805413,-9.369618 -20.248967,-23.141676 6.284359,0.609377 12.949606,1.371108 14.282753,0 C 61.802068,58.517346 56.796919,51.835885 51.887978,44.913906 65.338021,44.714177 85.715734,44.966253 84.792549,43.82914 l -8.31654,-8.497335 c 13.137617,-3.537241 26.580651,0.568164 36.339661,3.615887 4.38186,-3.457681 -0.0776,-7.82998 -5.42383,-12.294015 11.16496,1.490646 21.25382,4.057389 30.37345,7.593362 4.87238,-4.399329 -3.16389,-8.798658 -7.05098,-13.197987 17.24936,3.272568 24.55716,7.87068 31.81981,12.47481 5.26935,-5.050799 0.30166,-9.343299 -3.2543,-13.740371 13.00566,4.817048 19.70478,11.035551 26.75756,17.175463 2.39119,-3.227053 6.07494,-5.592408 1.62715,-13.378781 9.23416,5.322725 16.18926,11.59506 21.33374,18.621817 5.71336,-3.637941 3.40387,-8.613023 3.43509,-13.197987 9.59665,7.806516 15.68687,16.11395 23.14168,24.226443 1.50169,-1.093437 2.81661,-4.80171 3.97747,-10.666867 22.89539,22.211815 55.24591,78.158241 8.31654,100.340861 C 207.95028,109.95728 160.25292,86.016909 107.39184,68.055583 Z"/>
  <path style="fill:#75a928" d="M 467.92487,68.055583 C 399.9772,103.08694 360.47798,131.42455 338.8377,155.56005 c 11.08235,44.41759 68.89638,46.44464 90.03559,45.19858 -4.32842,-2.01474 -7.93988,-4.42778 -9.22051,-8.13574 5.30449,-3.76981 24.11289,-0.39719 37.24363,-7.77416 -5.04407,-1.04499 -7.40348,-2.06302 -9.76289,-5.78542 12.40571,-3.9567 25.76862,-7.36642 33.62775,-13.92116 -4.24126,0.0524 -8.20116,0.9488 -13.74037,-2.89271 11.11169,-5.98819 22.96911,-10.73351 32.18139,-19.88738 -5.74521,-0.14063 -11.93945,-0.0568 -13.74037,-2.16953 10.17044,-6.30068 18.75124,-13.30787 25.85359,-20.97215 -8.03998,0.97052 -11.43528,0.13478 -13.37878,-1.26556 7.68779,-7.87419 17.41756,-14.52319 22.05691,-24.22644 -5.96961,2.057484 -11.43125,2.84506 -15.36752,-0.180795 2.61237,-5.893453 13.80541,-9.369618 20.24897,-23.141676 -6.28436,0.609377 -12.94961,1.371108 -14.28276,0 2.92231,-11.888563 7.92746,-18.570024 12.8364,-25.492003 -13.45004,-0.199729 -33.82775,0.05235 -32.90457,-1.084766 l 8.31654,-8.497335 c -13.13762,-3.537241 -26.58065,0.568164 -36.33966,3.615887 -4.38186,-3.457681 0.0776,-7.82998 5.42383,-12.294015 -11.16496,1.490646 -21.25382,4.057389 -30.37345,7.593362 -4.87238,-4.399329 3.16389,-8.798658 7.05098,-13.197987 -17.24936,3.272568 -24.55716,7.87068 -31.81981,12.47481 -5.26935,-5.050799 -0.30166,-9.343299 3.2543,-13.740371 -13.00566,4.817048 -19.70478,11.035551 -26.75756,17.175463 -2.39119,-3.227053 -6.07494,-5.592408 -1.62715,-13.378781 -9.23416,5.322725 -16.18926,11.59506 -21.33374,18.621817 -5.71336,-3.637941 -3.40387,-8.613023 -3.43509,-13.197987 -9.59665,7.806516 -15.68687,16.11395 -23.14168,24.226443 -1.50169,-1.093437 -2.81661,-4.80171 -3.97747,-10.666867 -22.89539,22.211815 -55.24591,78.158241 -8.31654,100.340861 39.91877,-32.94716 87.61613,-56.887531 140.47721,-74.848857 z"/>
  <path style="fill:#bc1142" transform="matrix(1.131107,0,0,1.1280497,-43.139135,-68.310983)" d="m 365.2046,521.84937 a 71.956155,66.532319 0 1 1 -143.91231,0 71.956155,66.532319 0 1 1 143.91231,0 z"/>
  <path style="fill:#bc1142" transform="matrix(0.76741684,-1.1613112,2.171115,1.4224368,-560.88858,217.68859)" d="m 262.84091,276.64774 a 61.875,28.125 0 1 1 -123.75,0 61.875,28.125 0 1 1 123.75,0 z"/>
  <path style="fill:#bc1142" transform="matrix(-0.76741684,-1.1613112,-2.171115,1.4224368,1134.8288,213.68859)" d="m 262.84091,276.64774 a 61.875,28.125 0 1 1 -123.75,0 61.875,28.125 0 1 1 123.75,0 z"/>
  <path style="fill:#bc1142" d="M 72.910253,342.0878 C 109.32447,332.33088 85.201845,492.72431 55.576871,479.56357 22.990103,453.35089 12.493801,376.58814 72.910253,342.0878 Z"/>
  <path style="fill:#bc1142" d="m 493.67828,340.0878 c -36.41422,-9.75692 -12.2916,150.63651 17.33338,137.47577 32.58677,-26.21268 43.08307,-102.97543 -17.33338,-137.47577 z"/>
  <path style="fill:#bc1142" d="m 369.97158,220.6534 c 62.83486,-10.61013 115.11594,26.72229 113.01138,94.85796 -2.06693,26.12112 -136.15872,-90.96907 -113.01138,-94.85796 z"/>
  <path style="fill:#bc1142" d="M 196.35975,218.6534 C 133.52489,208.04327 81.24381,245.37569 83.34837,313.51136 85.4153,339.63248 219.50709,222.54229 196.35975,218.6534 Z"/>
  <path style="fill:#bc1142" d="m 286.61932,202.75568 c -37.50259,-0.97548 -73.49548,27.83418 -73.58158,44.54443 -0.10462,20.30426 29.6512,41.09266 73.83726,41.62035 45.12305,0.32321 73.91561,-16.64049 74.0611,-37.59409 0.16484,-23.73996 -41.03879,-48.93744 -74.31678,-48.57069 z"/>
  <path style="fill:#bc1142" d="m 288.90937,619.11675 c 32.69744,-1.42711 76.57083,10.53196 76.6568,26.39598 0.5427,15.4052 -39.78969,50.21055 -78.82634,49.53765 -40.42729,1.74391 -80.06908,-33.11559 -79.54951,-45.19859 -0.60506,-17.71593 49.226,-31.54796 81.71905,-30.73504 z"/>
  <path style="fill:#bc1142" d="m 168.13874,525.10369 c 23.2791,28.04573 33.89066,77.31899 14.46355,91.84353 -18.37917,11.08784 -63.01228,6.52162 -94.736237,-39.05157 -21.395052,-38.24168 -18.637584,-77.15663 -3.615887,-88.58924 22.464424,-13.68429 57.173424,4.79902 83.888574,35.79728 z"/>
  <path style="fill:#bc1142" d="m 405.0209,516.21177 c -25.18682,29.50165 -39.21227,83.30951 -20.83785,100.6428 17.56828,13.46361 64.7292,11.58162 99.56566,-36.75574 25.29599,-32.46471 16.82013,-86.68225 2.37077,-101.07511 -21.46408,-16.60213 -52.27691,4.64489 -81.09858,37.18805 z"/>
 </g>
 <path style="opacity:0.1;fill:#8b9cbe" d="M 22.814453 3 C 16.090328 3 10.451172 5.2009905 10.451172 11.960938 C 10.451172 12.139047 10.469015 12.317673 10.476562 12.496094 C 10.737343 6.1093469 16.251148 4 22.814453 4 C 25.350749 4 29.125 6.3144531 32 6.3144531 C 34.875 6.3144531 38.649251 4 41.185547 4 C 47.748853 4 53.262657 6.1093469 53.523438 12.496094 C 53.530985 12.317673 53.548828 12.139047 53.548828 11.960938 C 53.548828 5.2009905 47.909673 3 41.185547 3 C 38.649251 3 34.875 5.3144531 32 5.3144531 C 29.125 5.3144531 25.350749 3 22.814453 3 z M 14.152344 22.740234 C 14.127785 22.862429 14.109186 22.976161 14.074219 23.115234 C 13.657454 24.639648 13.04005 26.459765 12.474609 27.796875 C 10.118925 30.084097 8.8799481 33.429599 9.0214844 36.685547 C 9.147344 33.756767 10.36002 30.850008 12.474609 28.796875 C 13.04005 27.459765 13.657454 25.639648 14.074219 24.115234 C 14.21563 23.552798 14.284116 23.148362 14.152344 22.740234 z M 49.847656 22.740234 C 49.715884 23.148362 49.784369 23.552798 49.925781 24.115234 C 50.342545 25.639648 50.959951 27.459765 51.525391 28.796875 C 53.63998 30.850008 54.852656 33.756767 54.978516 36.685547 C 55.120051 33.429599 53.881076 30.084097 51.525391 27.796875 C 50.959951 26.459765 50.342545 24.639648 49.925781 23.115234 C 49.890814 22.976161 49.872216 22.862429 49.847656 22.740234 z"/>
 <path style="fill:#8b9cbe;opacity:0.2" d="M 23.699219 9 C 23.937239 9.2995059 24.268724 9.5915125 23.916016 9.9355469 C 23.429884 9.6219373 22.94171 9.308848 21.787109 9.0859375 C 22.047295 9.3855971 22.585903 9.6847154 22.259766 9.984375 C 21.649335 9.7435227 20.9739 9.5702852 20.226562 9.46875 C 20.584412 9.7728171 20.881195 10.069167 20.587891 10.304688 C 19.934663 10.097091 19.035629 9.817655 18.15625 10.058594 L 18.712891 10.638672 C 18.774685 10.716162 17.410056 10.697336 16.509766 10.710938 C 16.720726 11.013647 16.931658 11.319643 17.109375 11.707031 C 17.913341 11.702485 18.762018 11.700281 18.712891 11.638672 L 18.15625 11.058594 C 19.035629 10.817655 19.934663 11.097091 20.587891 11.304688 C 20.881195 11.069168 20.584412 10.772817 20.226562 10.46875 C 20.973901 10.570285 21.649335 10.743523 22.259766 10.984375 C 22.585903 10.684716 22.047295 10.385597 21.787109 10.085938 C 22.94171 10.308847 23.429884 10.621937 23.916016 10.935547 C 24.268724 10.591513 23.937239 10.299506 23.699219 10 C 24.569765 10.328113 25.01815 10.751703 25.490234 11.169922 C 25.650289 10.950112 25.897326 10.78818 25.599609 10.257812 C 26.217706 10.620369 26.682994 11.048717 27.027344 11.527344 C 27.409773 11.279546 27.255713 10.94121 27.257812 10.628906 C 27.900175 11.160645 28.307647 11.724763 28.806641 12.277344 C 28.907158 12.202864 28.994566 11.950285 29.072266 11.550781 C 29.930913 12.398464 30.985944 13.967184 31.197266 15.449219 C 31.485142 13.7281 30.128746 11.593772 29.072266 10.550781 C 28.994563 10.950285 28.907158 11.202864 28.806641 11.277344 C 28.307647 10.724763 27.900174 10.160645 27.257812 9.6289062 C 27.255722 9.9412104 27.409773 10.279546 27.027344 10.527344 C 26.682994 10.048717 26.217706 9.6203691 25.599609 9.2578125 C 25.897326 9.7881801 25.650291 9.9501116 25.490234 10.169922 C 25.01815 9.7517027 24.569765 9.3281125 23.699219 9 z M 40.884766 9 C 40.01422 9.3281125 39.565834 9.7517027 39.09375 10.169922 C 38.933694 9.9501116 38.686658 9.7881801 38.984375 9.2578125 C 38.366278 9.6203691 37.900992 10.048717 37.556641 10.527344 C 37.174213 10.279546 37.330214 9.9412104 37.328125 9.6289062 C 36.685764 10.160645 36.278292 10.724763 35.779297 11.277344 C 35.67878 11.202864 35.589422 10.950285 35.511719 10.550781 C 34.455237 11.593772 33.098843 13.7281 33.386719 15.449219 C 33.59804 13.967184 34.653071 12.398464 35.511719 11.550781 C 35.589422 11.950285 35.67878 12.202864 35.779297 12.277344 C 36.278292 11.724763 36.685764 11.160645 37.328125 10.628906 C 37.330214 10.941211 37.174213 11.279546 37.556641 11.527344 C 37.900992 11.048717 38.366278 10.620368 38.984375 10.257812 C 38.686658 10.788179 38.933694 10.950112 39.09375 11.169922 C 39.565834 10.751703 40.01422 10.328113 40.884766 10 C 40.646739 10.299506 40.31526 10.591513 40.667969 10.935547 C 41.154101 10.621937 41.642273 10.308848 42.796875 10.085938 C 42.536689 10.385597 42.000035 10.684716 42.326172 10.984375 C 42.936603 10.743523 43.612039 10.570279 44.359375 10.46875 C 44.001494 10.772817 43.702791 11.069168 43.996094 11.304688 C 44.649322 11.097094 45.548356 10.817655 46.427734 11.058594 L 45.871094 11.638672 C 45.821964 11.700265 46.670642 11.70248 47.474609 11.707031 C 47.652326 11.319643 47.863258 11.013647 48.074219 10.710938 C 47.173929 10.697336 45.8093 10.716162 45.871094 10.638672 L 46.427734 10.058594 C 45.548356 9.817655 44.649322 10.09709 43.996094 10.304688 C 43.702791 10.069167 44.001526 9.7728171 44.359375 9.46875 C 43.612039 9.5702792 42.936603 9.7435227 42.326172 9.984375 C 42.000035 9.6847154 42.536689 9.3855971 42.796875 9.0859375 C 41.642273 9.308848 41.154101 9.6219373 40.667969 9.9355469 C 40.31526 9.5915125 40.646744 9.2995059 40.884766 9 z M 16.414062 12.447266 C 16.648148 12.956397 16.969296 13.255325 17.248047 13.490234 C 17.304676 13.482377 17.347856 13.469542 17.369141 13.447266 C 17.276426 13.063441 17.151582 12.762006 17.011719 12.498047 C 16.837284 12.491388 16.623031 12.467887 16.414062 12.447266 z M 48.169922 12.447266 C 47.960953 12.467887 47.7467 12.491388 47.572266 12.498047 C 47.432403 12.762006 47.307558 13.063441 47.214844 13.447266 C 47.23613 13.469542 47.279308 13.482377 47.335938 13.490234 C 47.614689 13.255325 47.935836 12.956397 48.169922 12.447266 z M 20.226562 13.287109 C 24.52152 15.540434 27.103972 17.383679 28.599609 18.966797 C 28.707979 18.745363 28.802586 18.511525 28.867188 18.248047 C 28.346055 17.656588 27.662434 17.027071 26.798828 16.353516 C 24.795413 15.110239 22.591116 14.104697 20.226562 13.287109 z M 44.359375 13.287109 C 41.998634 14.103379 39.796351 15.107167 37.794922 16.347656 C 36.927472 17.023578 36.241498 17.654755 35.71875 18.248047 C 35.783351 18.511525 35.877986 18.745363 35.986328 18.966797 C 37.481966 17.383679 40.064419 15.540434 44.359375 13.287109 z M 16.740234 14.037109 C 16.934895 14.451413 17.264488 14.782798 17.609375 15.105469 C 17.665166 15.084014 17.720429 15.0638 17.769531 15.025391 C 17.640286 14.72868 17.197313 14.51778 16.800781 14.050781 C 16.779588 14.043797 16.761629 14.044613 16.740234 14.037109 z M 47.84375 14.037109 C 47.822355 14.044613 47.804396 14.043797 47.783203 14.050781 C 47.386671 14.51778 46.943698 14.72868 46.814453 15.025391 C 46.863556 15.063801 46.918818 15.084014 46.974609 15.105469 C 47.319496 14.782798 47.64909 14.451413 47.84375 14.037109 z M 32.222656 21.462891 C 29.712387 21.396441 27.302638 23.359831 27.296875 24.498047 C 27.295942 24.682345 27.336658 24.866733 27.404297 25.048828 C 27.893861 23.909947 30.01832 22.404539 32.222656 22.462891 C 34.220207 22.440487 36.638101 23.818586 37.109375 25.269531 C 37.163792 25.108424 37.196103 24.941885 37.197266 24.771484 C 37.208296 23.154441 34.450148 21.437909 32.222656 21.462891 z M 24.642578 22.425781 C 21.157052 22.491801 18.493925 24.946894 18.617188 29.007812 C 18.620102 29.045296 18.632 29.072575 18.642578 29.101562 C 18.914289 25.586128 21.425565 23.486715 24.642578 23.425781 C 25.074391 23.417603 25.521174 23.454683 25.974609 23.521484 C 26.363734 22.980062 26.495554 22.600543 26.181641 22.546875 C 25.655902 22.456537 25.14051 22.41635 24.642578 22.425781 z M 39.339844 22.5625 C 38.841911 22.553069 38.328473 22.591302 37.802734 22.681641 C 37.488821 22.735309 37.620641 23.114828 38.009766 23.65625 C 38.462811 23.589844 38.90803 23.554348 39.339844 23.5625 C 42.556857 23.623434 45.06983 25.721149 45.341797 29.236328 C 45.352375 29.20734 45.364273 29.180061 45.367188 29.142578 C 45.49045 25.081658 42.82537 22.62852 39.339844 22.5625 z M 37.855469 27.515625 A 5.8369514 4.911154 58.681428 0 0 35.292969 28.220703 A 5.8371877 4.9113528 58.681428 0 0 33.316406 32.785156 A 5.8371877 4.9113528 58.681428 0 1 35.292969 29.220703 A 5.8369514 4.911154 58.681428 0 1 37.855469 28.515625 A 5.8369514 4.911154 58.681428 0 1 43.626953 34.435547 A 5.8369514 4.911154 58.681428 0 0 37.855469 27.515625 z M 26.849609 27.785156 A 4.911154 5.8369514 31.318572 0 0 26.636719 27.789062 A 4.911154 5.8369514 31.318572 0 0 20.867188 34.71875 A 4.911154 5.8369514 31.318572 0 1 26.636719 28.789062 A 4.911154 5.8369514 31.318572 0 1 29.199219 29.492188 A 4.9113525 5.8371873 31.318572 0 1 31.171875 33.03125 A 4.9113525 5.8371873 31.318572 0 0 29.199219 28.492188 A 4.911154 5.8369514 31.318572 0 0 26.849609 27.785156 z M 45.865234 30.789062 C 45.062684 30.802601 44.792002 32.278521 44.867188 34.058594 C 44.922139 32.75993 45.220163 31.799944 45.865234 31.789062 C 45.933602 31.787913 46.005861 31.797589 46.082031 31.818359 C 48.010441 32.938958 48.850522 34.71296 48.974609 36.457031 C 49.144173 34.421434 48.382055 32.154903 46.082031 30.818359 C 46.005862 30.797591 45.933602 30.787909 45.865234 30.789062 z M 18.134766 30.923828 C 18.066398 30.922675 17.994138 30.932357 17.917969 30.953125 C 15.617872 32.289711 14.855762 34.557558 15.025391 36.59375 C 15.149478 34.849214 15.989559 33.073724 17.917969 31.953125 C 17.994138 31.932325 18.066396 31.922628 18.134766 31.923828 C 18.779793 31.934709 19.077831 32.89458 19.132812 34.193359 C 19.207982 32.412989 18.9373 30.937366 18.134766 30.923828 z M 32.509766 37.986328 A 5.4479207 5.1121385 0 0 0 26.904297 43.097656 A 5.448242 5.11244 0 0 0 26.931641 43.597656 A 5.4479207 5.1121385 0 0 1 32.509766 38.986328 A 5.4479207 5.1121385 0 0 1 37.771484 43.570312 A 5.448242 5.11244 0 0 0 37.800781 43.097656 A 5.4479207 5.1121385 0 0 0 32.509766 37.986328 z M 44.392578 39.888672 C 43.115958 39.922536 41.59534 41.151949 40.148438 42.814453 C 38.872332 44.335499 38.028041 46.802987 38.224609 48.425781 C 38.367674 46.902192 39.113651 45.04786 40.148438 43.814453 C 41.59534 42.151949 43.115958 40.922532 44.392578 40.888672 C 44.818118 40.877384 45.216992 40.998537 45.576172 41.28125 C 46.032812 41.744116 46.389989 42.818019 46.472656 44.048828 C 46.576532 42.421621 46.15382 40.866774 45.576172 40.28125 C 45.216992 39.998537 44.818118 39.877384 44.392578 39.888672 z M 19.9375 40.671875 C 19.480298 40.651931 19.053653 40.749396 18.677734 40.982422 C 18.106251 41.425023 17.81348 42.481634 17.917969 43.78125 C 17.997365 42.955859 18.262296 42.304169 18.677734 41.982422 C 19.053653 41.749395 19.480298 41.651935 19.9375 41.671875 C 21.309107 41.731708 22.949863 42.83634 24.291016 44.419922 C 25.169901 45.497418 25.761671 47.026541 25.892578 48.339844 C 26.074618 46.888971 25.407698 44.788952 24.291016 43.419922 C 22.949863 41.83634 21.309107 40.731708 19.9375 40.671875 z M 32.375 49.824219 C 30.200048 49.768847 26.86575 50.711252 26.90625 51.917969 C 26.900804 52.04686 26.981387 52.220725 27.097656 52.410156 C 27.821381 51.458553 30.51718 50.776922 32.375 50.824219 C 34.254468 50.740741 36.67477 51.329529 37.328125 52.181641 C 37.438689 51.974701 37.513323 51.780248 37.507812 51.621094 C 37.502057 50.540519 34.563632 49.727009 32.375 49.824219 z"/>
</svg>
