<svg xmlns="http://www.w3.org/2000/svg" width="64" height="64" version="1.1">
 <circle style="opacity:0.2" cx="32" cy="33" r="28"/>
 <ellipse style="fill:#2d4a5e" cx="31.949" cy="32" rx="27.349" ry="27.3"/>
 <path style="fill:#bcdced" d="m 38.517974,29.087536 c 0,15.463972 7.054432,3.27272 -8.43753,3.27272 -15.491961,0 -24.3204402,14.639218 -24.3204402,-0.824754 0,-0.989428 -1.809946,-1.502372 -1.7096416,-2.46531 C 5.3124322,16.95412 14.314857,7.134127 26.035354,4.623424 c 1.906602,-0.4084226 3.885132,0.8629728 5.913968,0.8629728 15.491962,0 6.568652,8.1371652 6.568652,23.6011392 z"/>
 <path style="fill:#65a3cf" d="M 31.949322,4 C 30.259604,4.01234 28.57446,4.177084 26.914444,4.4921876 L 35.061194,18.604297 48.645502,9.5753906 C 43.823744,5.9765376 37.969916,4.0217568 31.949322,4 Z"/>
 <path style="fill:#6d8da4" d="m 37.367706,44.714844 -5.623832,15.27422 -0.1671,-0.0082 v 0.0028 A 28.050678,28 0 0 0 31.949322,60 28.050678,28 0 0 0 52.18197,51.345702 Z"/>
 <path style="fill:#426f8e" d="m 27.363694,50.886328 -5.941594,7.04375 a 28.050678,28 0 0 0 8.705572,1.98789 v -0.0082 l -0.216406,-0.011 z"/>
 <path style="opacity:0.7;fill:#ff0000" d="m 52.18197,51.345702 h 0.0028 a 28.050678,28 0 0 0 0.523212,-0.560546 28.050678,28 0 0 1 -0.52595,0.560546 z"/>
 <path style="opacity:0.7;fill:#ff0000" d="m 19.868904,57.230078 a 28.050678,28 0 0 0 1.503888,0.680858 28.050678,28 0 0 1 -1.503888,-0.680858 z"/>
 <path style="opacity:0.7;fill:#1b5e99" d="M 48.667416,9.5589844 4.7560532,38.753906 a 28.050678,28 0 0 0 0.4793818,1.684376 l 52.726509,1.98789 A 28.050678,28 0 0 0 60,32 28.050678,28 0 0 0 48.667416,9.5589844 Z"/>
 <path style="fill:#81bde3" d="m 17.189844,8.2109374 c -0.516027,0.3261548 -1.021245,0.6690458 -1.514846,1.028125 L 22.35347,33.00625 24.375092,13.953125 Z"/>
 <path style="fill:#316f9f;fill-opacity:0" d="M 48.557844,9.4769532 35.08037,18.637109 42.339578,31.209766 49.95216,10.532422 C 49.498498,10.16621 49.0335,9.814216 48.557844,9.4769532 Z"/>
 <path style="fill:#4f96cb" d="m 26.900748,4.4703126 a 28.050678,28 0 0 0 -1.558676,0.35 l -0.96698,9.1328124 8.083744,6.464061 2.621534,-1.780077 z"/>
 <path style="fill:#5687a5" d="m 42.339578,31.209766 -4.971872,13.505078 14.817002,6.630858 a 28.050678,28 0 0 0 1.09847,-1.178516 z"/>
 <path style="opacity:0.7;fill:#3885c0" d="m 22.35347,33.00625 -2.564007,24.188282 a 28.050678,28 0 0 0 1.629899,0.738282 l 5.95529,-7.060158 z"/>
 <path style="fill:#224c6d" d="m 55.784182,17.269922 -9.026074,1.933203 v 0.0028 L 40.126204,37.219988 56.649806,18.779363 c -0.272814,-0.51195 -0.561496,-1.015319 -0.865624,-1.509375 z"/>
 <path style="fill:#29628f" d="M 21.775474,37.654686 19.5621,57.082422 c 0.643902,0.322232 1.3,0.619588 1.966834,0.891406 l 5.95803,-6.65 -3.60495,-12.758594 z"/>
 <path style="fill:#438ec5" d="m 24.375092,13.953125 -1.09025,10.281249 4.884214,-1.047264 4.234994,-2.813674 z"/>
 <path style="fill:#2f6c9f" d="m 35.08037,18.637109 -2.621534,1.780077 -0.05478,-0.04374 -4.234996,2.813674 8.489166,-1.81836 z"/>
 <path style="fill:#316e9e" d="m 36.65822,21.36875 10.236854,-2.192968 3.144744,-8.544923 C 49.586156,10.264648 49.121158,9.9126534 48.645502,9.5753906 L 35.146114,18.749218 Z"/>
 <path style="fill:#4c7da1" d="m 49.916548,10.576172 -3.177616,8.632421 9.004158,-1.930468 C 54.170146,14.74919 52.203272,12.486801 49.916548,10.576172 Z"/>
 <path style="opacity:0.7;fill:#ff00ff" d="m 56.625152,18.746484 c 0,0 0.0194,0.03858 0,0 z"/>
 <path style="fill:#4c7798" d="m 4.1040942,30.009374 c -0.058558,0.677582 -0.092366,1.35707 -0.101356,2.03711 0.01256,2.242284 0.2949022,4.474944 0.8409722,6.65 L 12.46725,33.626952 4.4739028,30.167968 Z"/>
 <path style="fill:#71848e" d="m 48.60989,42.073436 4.673288,8.09375 a 28.050678,28 0 0 0 4.678766,-7.741014 z"/>
 <path style="fill:#35576f" d="m 56.64159,18.782032 -16.542778,18.459766 -1.638116,4.448826 19.501248,0.735548 C 59.301572,39.112436 59.993372,35.573366 60,32 59.98892,27.38507 58.835214,22.84443 56.64159,18.782032 Z"/>
 <path style="fill:#285477" d="m 12.494643,33.607814 -7.7385898,5.146092 c 0.142164,0.56631 0.302035,1.128044 0.4793818,1.684376 l 16.148315,0.609766 0.394462,-3.45625 z"/>
 <path style="fill:#265679" d="m 43.580492,33.358984 -3.44881,3.844532 -1.651812,4.487108 10.13002,0.382812 z"/>
 <path style="fill:#4f82a6" d="m 4.93137,39.371874 c -0.01218,0.0086 -0.020682,0.016 -0.032872,0.02462 2.1316582,7.718558 7.473609,14.147322 14.663601,17.677736 L 21.394706,41.0043 h -0.0054 l -0.0054,0.04376 L 5.235575,40.438292 C 5.1231384,40.08601 5.0295944,39.728268 4.93137,39.371874 Z M 19.685369,57.13711 c 0.03536,0.0172 0.06865,0.03768 0.104096,0.05468 1.31e-4,-0.002 -1.31e-4,-0.0036 0,-0.0054 -0.03447,-0.0168 -0.06968,-0.0322 -0.104096,-0.04922 z"/>
 <path style="fill:#20476a" d="m 21.775474,37.654686 -0.380768,3.333204 3.20501,0.12032 -0.717702,-2.542968 z"/>
 <path style="fill:#1d4568" d="m 42.339578,31.209766 -2.213374,6.010156 3.454288,-3.85547 z"/>
 <path style="fill:#204a6c" d="m 43.153158,29.00039 -3.026954,8.219532 5.55261,-6.196094 z"/>
 <path style="fill:#2c5774" d="m 45.673336,31.021094 -2.092844,2.33789 5.029398,8.714452 2.421564,0.09022 6.88392,0.259766 c 0.0911,-0.206736 0.17966,-0.414564 0.265714,-0.623438 0.07464,-0.19806 0.13812,-0.399302 0.208188,-0.598828 z"/>
 <path style="fill:#2e639c" d="m 32.390354,20.38164 -4.221298,2.80547 6.092256,-1.304296 z"/>
 <path style="fill:#1d4568" d="m 42.339578,31.209766 -2.213374,6.00742 3.457028,-3.855468 z"/>
 <path style="fill:#343f4b" d="M 46.758108,19.203125 4.3698086,28.289452 4.169838,28.333202 C 4.097312,28.874662 4.040674,29.418124 4,29.96289 l 19.882014,8.602344 6.029252,21.333594 1.832608,0.09022 z"/>
 <path style="opacity:0.2" d="M 27.139572,36.778716 14.051338,30.497942 41.174032,24.940566 31.307284,51.051 Z"/>
 <path style="fill:#8b9cbe" d="M 27.139572,35.779164 14.051338,29.498392 41.174032,23.941014 31.307284,50.051448 Z"/>
 <path style="opacity:0.2;fill:#8b9cbe" d="M 32 4 A 28 28 0 0 0 4 32 A 28 28 0 0 0 4.0175781 32.492188 A 28 28 0 0 1 32 5 A 28 28 0 0 1 59.974609 32.492188 A 28 28 0 0 0 60 32 A 28 28 0 0 0 32 4 z"/>
</svg>
