<svg xmlns="http://www.w3.org/2000/svg" height="64" width="64" version="1.1">
 <path style="opacity:.2" d="m32 5-10 20 26 11zm-12 25-16 30 45-19zm32 15-14 7 22 8z"/>
 <path style="fill:#3bb2d4" d="m32 4-10 20 26 11zm-12 25-16 30 45-19zm32 15-14 7 22 8z"/>
 <path style="opacity:.2;fill:#8b9cbe" d="m32 4l-10 20 0.412109 0.173828 9.587891-19.173828 15.339844 29.720703 0.660156 0.279297-16-31zm-12 25l-16 30 0.6875-0.291016 15.3125-28.708984 27.751953 10.527344 1.248047-0.527344-29-11zm32 15l-14 7 1.158203 0.421875 12.841797-6.421875 7.337891 13.759766 0.662109 0.240234-8-15z"/>
</svg>
