<svg xmlns="http://www.w3.org/2000/svg" width="64" height="64" version="1.1">
 <rect style="opacity:0.2" width="56" height="56" x="4" y="5" rx="2.8" ry="2.8"/>
 <rect style="fill:#4f4f4f" width="56" height="56" x="4" y="4" rx="2.8" ry="2.8"/>
 <path style="fill:#8b9cbe;opacity:0.1" d="M 6.8008 4 C 5.2496 4 4 5.2496 4 6.8008 L 4 7.8008 C 4 6.2496 5.2496 5 6.8008 5 L 57.199 5 C 58.75 5 60 6.2496 60 7.8008 L 60 6.8008 C 60 5.2496 58.75 4 57.199 4 L 6.8008 4 z"/>
 <path style="opacity:0.2" d="M 23,17 19,21 30.041,33.422 27.811,36.045 25,33 10,50 H 54 L 44,38 42.842,39.322 35.627,31.205 46,19 44,17 33.734,29.076 Z M 31.934,35.551 39.094,43.605 37,46 29.738,38.133 Z"/>
 <path style="fill:#8b9cbe" d="M 23,16 19,20 30.041,32.422 27.811,35.045 25,32 10,49 H 54 L 44,37 42.842,38.322 35.627,30.205 46,18 44,16 33.734,28.076 Z M 31.934,34.551 39.094,42.605 37,45 29.738,37.133 Z"/>
</svg>
