<svg xmlns="http://www.w3.org/2000/svg" width="64" height="64" version="1.1">
 <rect style="opacity:0.2" width="56" height="56" x="4" y="5" rx="2.8" ry="2.8"/>
 <rect style="fill:#ffd017" width="56" height="56" x="4" y="4" rx="2.8" ry="2.8"/>
 <path style="opacity:0.1" d="m 32.64401,49.069112 c -0.710886,0.14172 -1.919328,0.710786 -2.702506,1.066624 -0.14172,0.07142 -0.14172,0.28453 0,0.28453 0.214114,0.07142 0.356924,0.14184 0.497756,0.284532 0.356826,0.426354 0.78308,0.78219 0.78308,1.35125 0,0.639382 -0.355838,0.852608 -0.284532,1.421572 0.213226,1.138124 1.137136,3.112788 1.137136,4.322316 -0.07042,0.923912 -0.92391,0.923912 -1.421666,1.56428 -0.14272,0.213226 -0.214018,0.426352 -0.214018,0.710882 0,0.284532 -0.07042,0.782192 0.214018,0.782192 0.354948,0.07132 0.42635,-0.63948 0.78219,-0.63948 C 31.933124,60.28823 31.862808,61 32.289062,61 h 18.70094 c -0.07132,-0.214114 -0.213126,-0.497658 -0.354848,-0.569064 -0.925,-0.853494 -3.271466,-1.991618 -3.69782,-3.341882 -0.711774,-2.062928 0.213126,-4.69304 0.497656,-6.96919 C 48.430308,43.5075 48.075458,39.880098 46.866028,34.404872 46.22556,31.276112 45.727904,28.50329 44.80399,25.44594 44.661176,24.876878 43.87998,24.094686 43.59456,23.597028 43.381334,23.24119 43.168206,22.600726 43.096902,22.174472 c -0.497658,-2.34657 -0.28364,-4.621734 -1.99073,-6.613353 -0.640368,-0.710784 -1.848812,-0.782188 -2.631,-1.279847 -1.492976,-0.78219 -2.986048,-1.564378 -4.48001,-2.48829 -0.213128,-0.142809 -0.853496,-0.355936 -1.208444,-0.142809 1.7061,1.20953 2.844226,2.631099 3.341884,4.76454 0.213128,0.995317 0.497658,1.777507 -0.497658,2.346471 -0.28453,0.142794 -2.133918,1.531246 -2.987412,3.593284 -0.213128,0.426254 -1.42167,3.200062 -2.844228,5.831164 -1.706104,-0.9249 -3.413288,-0.99532 -4.621732,-0.99532 -1.279848,0 -2.974728,0.14172 -4.04145,0.923914 -2.274176,1.707088 -3.27048,3.910946 -3.981266,6.400222 -0.569061,1.919326 -0.924009,3.91095 -1.066719,5.901582 -0.142706,2.702404 0.143188,5.50795 0.426829,8.210454 0.214017,1.777506 0.426254,3.485002 0.568966,5.262506 0.354947,1.919328 0.28453,3.413288 0.213127,3.768138 -0.639383,1.991622 -1.634698,2.702504 -3.555012,3.05834 -0.284533,0 -0.427243,0.14184 -0.355837,0.284532 h 5.333504 v 0 h 5.960678 c 0.568076,0 0.710786,-0.284532 1.279848,-0.78219 0.782188,-0.782188 -0.284532,-2.13344 0,-3.910946 0.640368,-4.409494 2.559216,-8.21086 3.48313,-12.477644 0.14282,-0.497658 0.214112,-1.138028 0.28552,-1.848814 0.354944,1.707092 0.853082,2.760842 1.350738,4.396528 0.49766,1.706098 0.995316,2.19452 1.778496,2.620774 v 0 c -0.07142,0 -0.14282,0 -0.214114,0.07142 z"/>
 <path style="fill:#17191e" d="m 32.64401,48.069112 c -0.710886,0.14172 -1.919328,0.710786 -2.702506,1.066624 -0.14172,0.07142 -0.14172,0.28453 0,0.28453 0.214114,0.07142 0.356924,0.14184 0.497756,0.284532 0.356826,0.426354 0.78308,0.78219 0.78308,1.35125 0,0.639382 -0.355838,0.852608 -0.284532,1.421572 0.213226,1.138124 1.137136,3.112788 1.137136,4.322316 -0.07042,0.923912 -0.92391,0.923912 -1.421666,1.56428 -0.14272,0.213226 -0.214018,0.426352 -0.214018,0.710882 0,0.284532 -0.07042,0.782192 0.214018,0.782192 0.354948,0.07132 0.42635,-0.63948 0.78219,-0.63948 C 31.933124,59.28823 31.862808,60 32.289062,60 h 18.70094 c -0.07132,-0.214114 -0.213126,-0.497658 -0.354848,-0.569064 -0.925,-0.853494 -3.271466,-1.991618 -3.69782,-3.341882 -0.711774,-2.062928 0.213126,-4.69304 0.497656,-6.96919 C 48.430308,42.5075 48.075458,38.880098 46.866028,33.404872 46.22556,30.276112 45.727904,27.50329 44.80399,24.44594 44.661176,23.876878 43.87998,23.094686 43.59456,22.597028 43.381334,22.24119 43.168206,21.600726 43.096902,21.174472 c -0.497658,-2.346569 -0.28364,-4.621734 -1.99073,-6.613353 -0.640368,-0.710784 -1.848812,-0.782188 -2.631,-1.279847 -1.492976,-0.78219 -2.986048,-1.564378 -4.48001,-2.48829 -0.213128,-0.142809 -0.853496,-0.355936 -1.208444,-0.142809 1.7061,1.20953 2.844226,2.631099 3.341884,4.76454 0.213128,0.995317 0.497658,1.777507 -0.497658,2.346471 -0.28453,0.142794 -2.133918,1.531246 -2.987412,3.593284 -0.213128,0.426254 -1.42167,3.200062 -2.844228,5.831164 -1.706104,-0.9249 -3.413288,-0.99532 -4.621732,-0.99532 -1.279848,0 -2.974728,0.14172 -4.04145,0.923914 -2.274176,1.707088 -3.27048,3.910946 -3.981266,6.400222 -0.569061,1.919326 -0.924009,3.91095 -1.066719,5.901582 -0.142706,2.702404 0.143188,5.50795 0.426829,8.210454 0.214017,1.777506 0.426254,3.485002 0.568966,5.262506 0.354947,1.919328 0.28453,3.413288 0.213127,3.768138 -0.639383,1.991622 -1.634698,2.702504 -3.555012,3.05834 -0.284533,0 -0.427243,0.14184 -0.355837,0.284532 h 5.333504 v 0 h 5.960678 c 0.568076,0 0.710786,-0.284532 1.279848,-0.78219 0.782188,-0.782188 -0.284532,-2.13344 0,-3.910946 0.640368,-4.409494 2.559216,-8.21086 3.48313,-12.477644 0.14282,-0.497658 0.214112,-1.138028 0.28552,-1.848814 0.354944,1.707092 0.853082,2.760842 1.350738,4.396528 0.49766,1.706098 0.995316,2.19452 1.778496,2.620774 v 0 c -0.07142,0 -0.14282,0 -0.214114,0.07142 z"/>
 <path style="fill:#8b9cbe" d="m 32.683586,48.699144 c -0.17668,-1.6e-5 -0.35883,0.02624 -0.536772,0.07952 -0.426366,0.07142 -0.569528,0.641332 -0.284008,0.925864 0,0 0.212596,0.14172 0.284008,0.213006 v 0.142 c -0.19134,0.192 -0.859312,0.1661 -1.243952,0.19312 0.18,0.234554 0.318088,0.485406 0.318088,0.80374 0,0.639382 -0.355316,0.85107 -0.284008,1.420036 0.213226,1.138124 1.138868,3.113274 1.138868,4.322802 -0.0036,0.045 -0.0184,0.07848 -0.02556,0.11928 0.259916,0.240222 0.839014,0.354952 0.948584,0.519732 0.21313,0.28453 -0.14114,0.783336 0.071,1.067868 0.07142,0.214112 0.358018,0.283428 0.499854,0.213004 0.355836,-0.0714 0.496486,-0.497012 0.781018,-0.497012 0.497658,-0.07042 1.13893,-0.07094 1.493878,0.284008 0.14272,0.0714 0.213008,-5.8e-4 0.213008,-0.071 0.07042,-0.284532 -1.067166,-0.568858 -1.209874,-1.706884 -0.14272,-0.92401 -0.06966,-2.33062 -0.710018,-3.325936 -0.14182,-0.14282 -0.354714,-0.14188 -0.42601,-0.355008 0,-0.284532 0.213008,-0.641918 0.213008,-0.996866 0,-0.14272 -0.0703,-0.42659 -0.213008,-0.497014 -0.213226,-0.07138 -0.499424,0.071 -0.783858,0.071 -0.426354,0 -0.9225,-1.98e-4 -1.207032,-0.142 -0.0713,-0.07132 -0.0717,-0.1416 0.071,-0.213006 0.283544,-0.0714 0.993782,0.285236 1.420038,-0.142 0.497756,-0.42635 0.854978,-1.137818 0.64185,-1.70688 -0.16058,-0.480276 -0.640078,-0.72133 -1.170108,-0.721378 z"/>
 <path style="fill:#ff5811" d="m 33.639326,11.006107 c 1.20943,0.64037 2.702404,2.915532 3.48459,4.124076 0.35594,0.497657 0.853596,0.07131 0.639482,-0.354948 -1.207554,-1.70709 -2.630114,-3.128758 -4.124072,-3.769128 v 0 M 27.38181,29.886784 c 0.92401,0.214114 1.763386,0.557752 2.046928,1.411248 0.285518,0.85359 1.228008,1.351248 0.872074,3.83954 0,0 -0.07042,0.284532 0,0 0.07042,-0.63938 -0.07042,0.284432 0,0 0.07132,-0.42635 0.783184,0.577646 0.924906,0.79077 -0.284532,-0.853596 -0.359214,-2.852808 0.707422,-2.781404 0.56906,0.07142 0.497756,0.49766 1.422656,0.710786 0.283542,0.07142 0.92391,-0.14172 1.066718,-0.63938 0.35485,-1.066722 0,-1.99162 -0.853594,-2.702406 -0.498644,-0.42734 -1.138024,-0.640468 -1.777506,-0.213226 -0.14272,0.14184 -0.355934,0.568076 -0.355934,0.78219 0.14182,0.924008 -0.355836,0.639478 -0.710784,0 -0.497658,-0.78219 -2.347458,-1.33984 -3.342872,-1.19812 v 0 m 6.115692,12.930862 c 0.427242,-1.351254 -0.07042,-3.341886 -0.355836,-4.835848 -0.14184,-0.497656 0.497658,-0.639378 0.640366,-0.14172 0.426356,1.990634 0.35495,3.484594 -0.28453,4.97757 v 0 m 2.346558,-25.198194 c -0.14272,0.07042 -0.710788,0.497659 -1.066722,0.710786 0.78219,0.141834 1.84891,0.710784 2.346566,1.635781 0.355938,0.782191 0.63948,1.919231 0.782192,2.701421 0,-0.497658 -0.07142,-2.701421 0.14272,-2.98595 0.354948,-0.42724 1.066722,-0.07142 1.564378,0.141714 0.35495,0.142814 0.569062,0.569062 0.92401,0.78219 0.35584,0.1428 0.711774,0.213128 1.066624,0.07142 0.354948,-0.07142 0.711772,-0.355936 0.853592,-0.710787 0.213128,-0.640467 -0.42724,-3.200161 -1.84891,-2.631099 -0.568962,0.213127 -0.640366,1.066721 -1.138024,1.492975 -0.283544,0.213125 -0.569062,0.284531 -0.92401,0.213125 -0.355838,0 -0.78308,-0.213125 -1.138028,-0.497659 -0.497664,-0.354848 -0.99532,-0.782188 -1.56438,-0.923912 z"/>
 <path style="fill:#231f20" d="m 32.786718,49.572698 c 0.213126,0 0.497658,0.28453 0.426254,0.355934 -0.14272,0.14184 -0.213128,-0.07142 -0.497658,-0.07142 -0.21313,0 -0.426252,0.07142 -0.426252,-0.07132 0,-0.14184 0.213122,-0.213226 0.497656,-0.213226 z"/>
 <path style="fill:#8b9cbe" d="m 35.283204,17.987735 c -0.633568,0.43335 -1.944806,1.68921 -2.639256,3.366999 -0.213126,0.426252 -1.421458,3.200446 -2.844016,5.831546 0.355936,0.213124 0.924738,0.63934 1.208282,0.853358 1.635782,1.279848 2.418022,1.420828 3.413438,2.487548 0.426252,0.64037 1.208108,2.915532 1.421236,3.271466 0.354948,0.995318 0.498608,1.99067 0.28548,2.985986 -0.213126,1.06672 -0.925862,1.991224 -1.280808,2.987532 -0.214116,0.568072 -0.354752,1.564128 -0.567878,2.20361 -0.213128,0.640366 -0.213584,1.066766 -0.56942,1.635732 -0.283644,0.28453 -0.640024,0.072 -0.42591,-0.28394 0.213128,-0.426254 0.284534,-1.564932 0,-2.347122 -0.355834,-1.06672 -0.854308,-2.204638 -1.138842,-2.844014 -0.354944,-0.640468 -0.995056,-2.204538 -1.208278,-2.844016 -0.710788,-1.84891 -0.28394,-5.405638 -3.555408,-5.405638 -1.208444,0.14282 -2.56083,0.356232 -3.413438,1.209826 -1.06672,0.923912 -1.492998,1.920462 -1.990656,3.413436 -0.42724,1.279848 -0.213756,2.132812 -0.356466,2.914998 -0.21214,1.91923 0.214112,2.561082 0,4.481296 -0.21214,1.99063 -0.568596,2.26222 -0.99485,3.755196 -0.283544,0.853494 -0.568334,2.106974 -1.1373,2.818746 -0.212237,0.284532 -0.852518,0.497808 -0.995327,0.14196 -0.639381,-1.35125 -0.285219,-3.872292 -0.427929,-5.08172 -0.142708,-0.284532 -0.28394,-0.21323 -0.28394,0 -0.141718,0.71177 6e-5,3.375334 0.07146,4.299346 0.213129,1.351252 0.853656,2.631704 1.137298,3.982856 0.355837,1.56438 1.991274,5.82999 1.351798,7.180254 -0.18392,0.30575 -0.471601,0.775982 -0.77466,0.996872 h 5.112438 c 0.14202,0 0.257396,-0.018 0.359552,-0.05248 0.003,-9.48e-4 0.0048,-0.0036 0.0078,-0.0046 0.16884,-0.08906 0.338048,-0.21381 0.507694,-0.359554 0.0802,-0.07418 0.1654,-0.1467 0.266966,-0.24073 0.08992,-0.08982 0.1789,-0.18516 0.266964,-0.28394 0.519988,-0.799912 -0.39572,-2.089056 -0.12962,-3.751384 0.640368,-4.409494 2.56003,-8.211232 3.48394,-12.478018 0.14282,-0.497656 0.21408,-1.137902 0.285484,-1.848686 0.354948,1.707086 0.853072,2.761458 1.350728,4.397142 0.436336,1.661872 0.903014,2.013902 1.778316,2.620142 2.547874,-0.0313 1.65764,3.658424 2.133558,5.273016 0.35495,0.995316 1.206802,2.178376 1.492224,3.173692 0.42635,1.279846 0.213964,2.132466 -0.14198,3.340908 h 2.560078 c 2.347556,-0.213126 4.764638,-3.413458 5.04917,-5.404092 0.14182,-0.710786 -0.07064,-3.5539 -0.427452,-4.194268 -0.639478,-1.066722 -1.564402,-1.77821 -1.990658,-2.489094 -1.350264,-1.920214 -0.853,-5.048454 -0.28394,-7.181796 0.49766,-1.990632 1.705746,-4.621718 1.776164,-4.621718 0.1427,-0.213128 -0.212216,-0.428046 -0.354926,-0.14352 -0.569062,0.640366 -1.280216,2.630828 -1.564748,3.484422 -0.354848,1.06672 -0.63901,2.275732 -0.780832,3.342452 -0.213126,1.635684 0.28331,3.413388 -0.07252,5.04917 -0.07042,0.355836 -0.638924,0.710018 -0.924346,0.496894 -2.345582,-1.84891 -2.842896,-5.616272 -2.771488,-8.39008 0.07042,-2.844228 1.277932,-5.474968 1.705174,-8.319096 0.14184,-0.640466 -0.497462,-1.20832 -0.567878,-1.848688 -0.14184,-0.853594 -0.07056,-1.139124 -0.14198,-1.921216 0,-0.497754 0.354922,-1.634966 0.354922,-2.132624 0.07142,-1.20943 -0.07142,-2.488514 0,-3.76836 -0.274366,-2.339712 -0.7281,-2.644674 -2.623346,-3.756016 z"/>
 <path style="opacity:0.2;fill:#8b9cbe" d="M 6.8007812 4 C 5.2495812 4 4 5.2495812 4 6.8007812 L 4 7.8007812 C 4 6.2495813 5.2495812 5 6.8007812 5 L 57.199219 5 C 58.750419 5 60 6.2495812 60 7.8007812 L 60 6.8007812 C 60 5.2495813 58.750419 4 57.199219 4 L 6.8007812 4 z"/>
</svg>
