<svg width="64" height="64" version="1.1" xmlns="http://www.w3.org/2000/svg">
 <g>
  <circle cx="32" cy="33" r="28" style="opacity:.2"/>
  <circle cx="32" cy="32" r="28" style="fill:#6a6578"/>
  <path d="M 32 4 A 28 28 0 0 0 4 32 A 28 28 0 0 0 4.0215 32.586 A 28 28 0 0 1 32 5 A 28 28 0 0 1 59.979 32.414 A 28 28 0 0 0 60 32 A 28 28 0 0 0 32 4 z" style="fill:#8b9cbe;opacity:.1"/>
  <g transform="matrix(.18595402 0 0 .18595402 -69.880568 -56.641258)" style="opacity:.2">
   <path d="m461.83765 385.26329c349.54878 80.6651 18.96795 151.92346 18.96795 151.92346-6.54355 1.04566-11.02275 4.4728-14.99949 9.63398-3.96846 5.15044-4.18337 13.25077-1.69882 19.20842 3.10804 7.45271 7.56066 10.22811 13.86338 12.83039 4.45263 0.15864 16.13302 0 16.13302 0s166.70788-53.77674 165.91779-104.57394c-0.38107-24.5-52.98664-72.88929-198.18383-89.02231z"/>
  </g>
  <g transform="matrix(.18595402 0 0 .18595402 -69.880568 -57.641258)" style="fill:#8b9cbe">
   <path d="m461.83765 385.26329c349.54878 80.6651 18.96795 151.92346 18.96795 151.92346-6.54355 1.04566-11.02275 4.4728-14.99949 9.63398-3.96846 5.15044-4.18337 13.25077-1.69882 19.20842 3.10804 7.45271 7.56066 10.22811 13.86338 12.83039 4.45263 0.15864 16.13302 0 16.13302 0s166.70788-53.77674 165.91779-104.57394c-0.38107-24.5-52.98664-72.88929-198.18383-89.02231z" style="fill:#8b9cbe"/>
  </g>
 </g>
</svg>
