<svg xmlns="http://www.w3.org/2000/svg" width="64" height="64" version="1.1">
 <g transform="translate(0,-988.3622)">
  <path style="opacity:0.2;fill-rule:evenodd" d="m 28.839409,993.3621 c 0,0 -2.700261,3.96412 1.585383,5.96363 7.197598,3.35777 6.930065,5.03637 6.930065,5.03637 0,0 2.134117,-4.91207 -1.36064,-7.77811 -3.494757,-2.86604 -7.154808,-3.22189 -7.154808,-3.22189 z"/>
  <path style="opacity:0.2;fill-rule:evenodd" d="m 9.8741142,1034.7519 c -3.6323133,-5.1172 -4.9462097,-9.6775 -4.871085,-13.4246 C 5.1379581,1014.5971 9,1010.4899 9,1010.4899 c 0,0 -0.1863897,3.5245 1.46184,3.8609 1.648231,0.3365 1.707233,-1.8393 1.60277,-5.513 -0.104463,-3.6739 1.9009,-5.4822 1.9009,-5.4822 0,0 -0.207737,6.9286 5.124387,4.4935 5.332125,-2.4352 0.984092,-8.487 0.984092,-8.487 0,0 5.242156,-0.0228 9.597547,5.9598 3.463464,4.7575 11.225131,7.3527 10.450928,2.1604 -0.774202,-5.1923 3.927536,-5.1202 3.927536,-5.1202 0,0 -1.875535,2.9001 6.426317,8.3091 6.581412,4.2881 10.083657,13.4579 5.934929,23.7279 l -1.520057,3.7629"/>
  <circle style="opacity:0.2" cx="21" cy="1028.362" r="14"/>
  <path style="fill:#ff8a3c;fill-rule:evenodd" d="m 9.8741142,1033.752 c -3.6323133,-5.1172 -4.9462097,-9.6775 -4.871085,-13.4246 C 5.1379581,1013.5972 9,1009.49 9,1009.49 c 0,0 -0.1863897,3.5245 1.46184,3.8609 1.648231,0.3365 1.707233,-1.8393 1.60277,-5.513 -0.104463,-3.6739 1.9009,-5.4822 1.9009,-5.4822 0,0 -0.207737,6.9286 5.124387,4.4935 5.332125,-2.4352 0.984092,-8.487 0.984092,-8.487 0,0 5.242156,-0.0228 9.597547,5.9598 3.463464,4.7575 11.225131,7.3527 10.450928,2.1604 -0.774202,-5.1923 3.927536,-5.1202 3.927536,-5.1202 0,0 -1.875535,2.9001 6.426317,8.3091 6.581412,4.2881 10.083657,13.4579 5.934929,23.7279 l -1.520057,3.7629"/>
  <circle style="fill:#8b9cbe" cx="21" cy="1027.362" r="14"/>
  <path style="fill:#ff8a3c;fill-rule:evenodd" d="m 28.839409,992.3622 c 0,0 -2.700261,3.96412 1.585383,5.96363 7.197598,3.35777 6.930065,5.03637 6.930065,5.03637 0,0 2.134117,-4.91207 -1.36064,-7.77811 -3.494757,-2.86604 -7.154808,-3.22189 -7.154808,-3.22189 z"/>
  <circle style="opacity:0.2" cx="43" cy="1032.362" r="17"/>
  <circle style="fill:#4f4f4f" cx="43" cy="1031.362" r="17"/>
  <ellipse style="opacity:0.2" cx="-481.25" cy="933.236" rx="6.094" ry="7.356" transform="matrix(0.8831063,-0.46917296,0.49558239,0.86856093,0,0)"/>
  <ellipse style="fill:#8b9cbe" cx="-480.755" cy="932.353" rx="6.094" ry="7.356" transform="matrix(0.8831063,-0.46917296,0.49558239,0.86856093,0,0)"/>
  <path style="fill:#8b9cbe;fill-rule:evenodd;opacity:0.2" transform="translate(0,988.3622)" d="M 20.074219 10 C 20.074219 10 20.365842 10.415625 20.705078 11.058594 C 22.190819 11.245795 26.19174 12.178643 29.671875 16.958984 C 33.088889 21.652679 40.673023 24.228126 40.132812 19.310547 C 39.558682 22.834685 32.830356 20.297553 29.671875 15.958984 C 25.316484 9.9763844 20.074219 10 20.074219 10 z M 44.050781 13 C 44.050781 13 39.756285 12.947087 40.064453 17.492188 C 40.379609 14.169697 43.492267 14.022318 43.892578 14.015625 C 43.852783 13.361221 44.050781 13 44.050781 13 z M 13.964844 13.994141 C 13.964844 13.994141 11.95999 15.802662 12.064453 19.476562 C 12.072944 19.775158 12.0667 19.997131 12.072266 20.275391 C 12.04889 16.744279 13.964844 14.994141 13.964844 14.994141 C 13.964844 14.994141 13.75772 21.921428 19.089844 19.486328 C 21.378563 18.441062 21.879792 16.730505 21.710938 15.117188 C 21.587658 16.40528 20.908066 17.65594 19.089844 18.486328 C 13.75772 20.921428 13.964844 13.994141 13.964844 13.994141 z M 43.927734 14.369141 C 43.710887 15.277403 43.817288 17.969801 50.476562 22.308594 C 54.938014 25.21544 57.976245 30.370486 58.183594 36.585938 C 58.286943 29.924863 55.174884 24.369771 50.476562 21.308594 C 45.488197 18.058467 44.181844 15.722725 43.927734 14.369141 z M 9 21.126953 C 9 21.126953 5.1388352 25.234644 5.0039062 31.964844 C 4.9994968 32.184778 5.0161354 32.417093 5.0214844 32.642578 C 5.2722291 26.107409 9 22.126953 9 22.126953 C 9 22.126953 8.8127078 25.651881 10.460938 25.988281 C 11.837628 26.269344 12.091975 24.72894 12.082031 22.095703 C 12.01765 24.130586 11.663391 25.233772 10.460938 24.988281 C 8.8127078 24.651881 9 21.126953 9 21.126953 z"/>
  <path style="opacity:0.2;fill:#8b9cbe;fill-rule:evenodd" transform="translate(0,988.3622)" d="M 28.839844 4 C 28.839844 4 27.794418 5.534402 28.037109 7.1757812 C 28.190975 5.9630755 28.839844 5 28.839844 5 C 28.839844 5 32.499384 5.3566163 35.994141 8.2226562 C 37.405804 9.3803572 37.89208 10.869543 37.978516 12.236328 C 38.086278 10.640323 37.761492 8.6720558 35.994141 7.2226562 C 32.499384 4.3566163 28.839844 4 28.839844 4 z"/>
 </g>
</svg>
