<svg width="64" height="64" version="1.1" xmlns="http://www.w3.org/2000/svg">
 <circle cx="32" cy="33" r="28" style="opacity:.2"/>
 <circle cx="32" cy="32" r="28" style="fill:#ff8dcb"/>
 <path d="M 32,4 A 28,28 0 0 0 4,32 28,28 0 0 0 4.0215,32.586 28,28 0 0 1 32,5 28,28 0 0 1 59.979,32.414 28,28 0 0 0 60,32 28,28 0 0 0 32,4 Z" style="fill:#8b9cbe;opacity:.2"/>
 <circle cx="32" cy="33" r="20" style="opacity:.2"/>
 <circle cx="32" cy="32" r="20" style="fill:#fdcfea"/>
 <path d="M 25.56227,23 C 21.398121,23 18,26.126665 18,30 c 0,2.01544 0.911514,3.854107 2.375085,5.133335 L 31.811493,45.4 43.623916,35.133335 C 45.087967,33.854665 46,32.016002 46,30 46,26.126667 42.601877,23 38.43773,23 35.693631,23 33.317546,24.345865 31.999498,26.3824 30.679453,24.345865 28.303369,23 25.55927,23 Z" style="opacity:.1"/>
 <path d="M 25.56227,22 C 21.398121,22 18,25.126665 18,29 c 0,2.01544 0.911514,3.854107 2.375085,5.133335 L 31.811493,44.4 43.623916,34.133335 C 45.087967,32.854665 46,31.016002 46,29 46,25.126667 42.601877,22 38.43773,22 35.693631,22 33.317546,23.345865 31.999498,25.3824 30.679453,23.345865 28.303369,22 25.55927,22 Z" style="fill:#03adee"/>
 <path d="m26.031495 24.352511c-3.208791 0.0013-5.709978 2.317986-5.709978 5.097831 0 1.450448 0.665209 2.774999 1.758864 3.713847l0.0051 0.0051 9.754867 8.600098 10.079267-8.605078c1.093881-0.938323 1.758866-2.263003 1.758866-3.713848 0-2.7806-2.502461-5.09783-5.712513-5.09783-2.119121 0-3.899328 1.014246-4.876162 2.496641l-1.089868 1.652762-1.089791-1.652812c-0.978449-1.482631-2.758204-2.495825-4.876163-2.496669z" style="fill:none;opacity:.3;stroke-dasharray:1.28598036, 0.64299019;stroke-width:.64299023;stroke:#000000"/>
 <path d="M 32 12 A 20 20 0 0 0 12 32 A 20 20 0 0 0 12.021484 32.582031 A 20 20 0 0 1 32 13 A 20 20 0 0 1 51.978516 32.417969 A 20 20 0 0 0 52 32 A 20 20 0 0 0 32 12 z " style="fill:#8b9cbe;opacity:.2"/>
</svg>
