<svg xmlns="http://www.w3.org/2000/svg" width="64" height="64" version="1.1">
 <path style="opacity:0.2" d="M 6.9806464,21.521862 A 3.2202497,2.7811246 75 0 0 5.1279341,25.35181 l 8.8893699,33.175586 a 3.2202497,2.7811246 75 0 0 3.51947,2.390477 C 26.90038,58.4089 32.175747,47.503604 29.270625,36.661538 26.3655,25.819468 16.344251,19.012891 6.9806464,21.521862 Z"/>
 <path style="opacity:0.2" d="m 30.317822,5.003837 a 3.4288218,3.6524438 0 0 0 -3.316875,3.6497015 l 0,48.6943815 a 3.4288218,3.6524438 0 0 0 3.428477,3.652078 l 25.142178,0 a 3.4288218,3.6524438 0 0 0 3.004382,-5.411542 L 33.433806,6.8940738 A 3.4288218,3.6524438 0 0 0 30.317822,5.003837 Z"/>
 <path style="fill:#79b444" d="m 6.9806464,20.52193 a 3.2202497,2.7811246 75 0 0 -1.8527123,3.829948 l 8.8893699,33.175586 a 3.2202497,2.7811246 75 0 0 3.51947,2.390477 C 26.90038,57.408968 32.175747,46.503672 29.270625,35.661606 26.3655,24.819536 16.344251,18.012959 6.9806464,20.52193 Z"/>
 <path style="opacity:0.2;fill:#8b9cbe" d="M 10.509766 20.009766 C 9.3339467 20.042586 8.1528723 20.207855 6.9824219 20.521484 A 3.2202497 2.7811246 75 0 0 5.0371094 23.896484 A 3.2202497 2.7811246 75 0 1 6.9824219 21.521484 C 8.1528723 21.207855 9.3339467 21.042586 10.509766 21.009766 C 18.740497 20.780005 26.727538 27.175303 29.269531 36.662109 C 29.734373 38.396945 29.974733 40.129944 30.03125 41.832031 C 30.050471 39.810684 29.826071 37.737215 29.269531 35.660156 C 26.727539 26.17335 18.740497 19.780005 10.509766 20.009766 z"/>
 <path style="fill:#35aabd" d="M 30.317822,4.0039055 A 3.4288218,3.6524438 0 0 0 27.000947,7.653607 l 0,48.694381 a 3.4288218,3.6524438 0 0 0 3.428477,3.652078 l 25.142178,0 a 3.4288218,3.6524438 0 0 0 3.004382,-5.411543 L 33.433806,5.8941423 A 3.4288218,3.6524438 0 0 0 30.317822,4.0039055 Z"/>
 <path style="opacity:0.2;fill:none;stroke:#000000;stroke-width:5.99979639;stroke-linejoin:round" d="m 43.000401,36.000819 c 0,0 -8.999692,0.199993 -8.999692,2.999898 0,2.799905 7.999728,9.399681 7.999728,12.199586 0,2.799905 -8.999694,2.799905 -8.999694,2.799905"/>
 <path style="fill:none;stroke:#8b9cbe;stroke-width:5.99979639;stroke-linejoin:round" d="m 43.000401,35.000917 c 0,0 -8.999692,0.199993 -8.999692,2.999898 0,2.799905 7.999728,9.399681 7.999728,12.199585 0,2.799905 -8.999694,2.799905 -8.999694,2.799905"/>
 <path style="opacity:0.2" d="m 12.411598,27.228176 c -0.185602,0.02042 -0.373131,0.04572 -0.562481,0.02734 l 7.038824,26.264738 c 3.985902,-2.847224 6.354285,-8.704017 4.585781,-15.304169 -1.631126,-6.087447 -6.008008,-10.036633 -10.503549,-10.984003 -0.189298,-0.03988 -0.372973,-0.02432 -0.558575,-0.004 z"/>
 <path style="fill:#8b9cbe" d="m 12.411598,26.227776 c -0.185602,0.02042 -0.373131,0.04572 -0.562481,0.02734 l 7.038824,26.264739 c 3.985902,-2.847224 6.354285,-8.704017 4.585781,-15.304169 -1.631126,-6.087447 -6.008008,-10.036633 -10.503549,-10.984003 -0.189298,-0.03988 -0.372973,-0.02432 -0.558575,-0.004 z"/>
 <path style="opacity:0.2;fill:#8b9cbe" d="M 30.316406 4.0019531 A 3.4288218 3.6524438 0 0 0 27 7.6542969 L 27 8.6542969 A 3.4288218 3.6524438 0 0 1 30.316406 5.0019531 A 3.4288218 3.6524438 0 0 1 33.433594 6.8925781 L 58.574219 55.589844 A 3.4288218 3.6524438 0 0 1 58.962891 56.845703 A 3.4288218 3.6524438 0 0 0 58.574219 54.589844 L 33.433594 5.8925781 A 3.4288218 3.6524438 0 0 0 30.316406 4.0019531 z"/>
</svg>
