<svg xmlns="http://www.w3.org/2000/svg" width="64" height="64" version="1">
 <g style="opacity:0.2" transform="matrix(0.14521477,0,0,0.14745066,6.3945326,9.0029596)">
  <path d="m 25.232,41.855 c -0.11807,0.4269 -0.40348,0.78706 -0.40348,1.2451 0,52.278 13.832,112.71 37.954,165.8 19.566,43.069 54.756,100.51 111.25,129.62 0.719,0.37 1.5004,0.55631 2.2864,0.55631 0.786,0 1.5674,-0.18631 2.2864,-0.55631 56.496,-29.106 91.686,-86.55 111.25,-129.62 24.121,-53.094 37.954,-113.53 37.954,-165.8 0,-0.458 -0.28541,-0.81816 -0.40348,-1.2451 -1.9514,49.319 -15.291,104.49 -37.55,153.49 -19.567,43.069 -54.757,100.51 -111.25,129.62 -0.719,0.37 -1.5004,0.55631 -2.2864,0.55631 -0.786,0 -1.5674,-0.18631 -2.2864,-0.55631 -56.49,-29.11 -91.681,-86.55 -111.25,-129.62 -22.257,-48.99 -35.596,-104.17 -37.548,-153.48 z"/>
 </g>
 <g style="fill:#875ef6" transform="matrix(0.14521477,0,0,0.14745066,6.3945326,6.0027599)">
  <path d="M 324.48,51.943 177.99,0.285 c -1.076,-0.38 -2.25,-0.38 -3.326,0 L 28.174,51.943 c -1.999,0.705 -3.337,2.595 -3.337,4.715 0,52.278 13.834,112.71 37.956,165.8 19.566,43.069 54.751,100.52 111.25,129.62 0.719,0.37 1.504,0.555 2.29,0.555 0.786,0 1.571,-0.185 2.29,-0.555 56.496,-29.106 91.68,-86.556 111.25,-129.62 24.121,-53.094 37.955,-113.53 37.955,-165.8 0,-2.12 -1.338,-4.01 -3.337,-4.715 z"/>
 </g>
 <g style="opacity:0.2" transform="matrix(0.07920806,0,0,0.07939605,18.032753,19.002062)">
  <path d="M 324.48,51.943 177.99,0.285 c -1.076,-0.38 -2.25,-0.38 -3.326,0 L 28.174,51.943 c -1.999,0.705 -3.337,2.595 -3.337,4.715 0,52.278 13.834,112.71 37.956,165.8 19.566,43.069 54.751,100.52 111.25,129.62 0.719,0.37 1.504,0.555 2.29,0.555 0.786,0 1.571,-0.185 2.29,-0.555 56.496,-29.106 91.68,-86.556 111.25,-129.62 24.121,-53.094 37.955,-113.53 37.955,-165.8 0,-2.12 -1.338,-4.01 -3.337,-4.715 z"/>
 </g>
 <g style="fill:#8b9cbe" transform="matrix(0.07920806,0,0,0.07939605,18.032753,18.002162)">
  <path d="M 324.48,51.943 177.99,0.285 c -1.076,-0.38 -2.25,-0.38 -3.326,0 L 28.174,51.943 c -1.999,0.705 -3.337,2.595 -3.337,4.715 0,52.278 13.834,112.71 37.956,165.8 19.566,43.069 54.751,100.52 111.25,129.62 0.719,0.37 1.504,0.555 2.29,0.555 0.786,0 1.571,-0.185 2.29,-0.555 56.496,-29.106 91.68,-86.556 111.25,-129.62 24.121,-53.094 37.955,-113.53 37.955,-165.8 0,-2.12 -1.338,-4.01 -3.337,-4.715 z"/>
 </g>
 <g style="fill:#8b9cbe" transform="matrix(0.14521477,0,0,0.14745066,6.3945326,6.0027599)">
  <path style="opacity:0.2" transform="matrix(6.8863518,0,0,6.7819296,-44.035001,-40.710295)" d="M 32 6.0039062 C 31.918004 6.0039062 31.835809 6.0169236 31.757812 6.0449219 L 10.484375 13.662109 C 10.19439 13.766103 10 14.044842 10 14.357422 C 10 14.629411 10.01718 14.910234 10.027344 15.1875 C 10.084029 14.948594 10.249272 14.746421 10.484375 14.662109 L 31.757812 7.0449219 C 31.913805 6.9889254 32.086195 6.9889254 32.242188 7.0449219 L 53.513672 14.662109 C 53.748775 14.746421 53.914018 14.948594 53.970703 15.1875 C 53.980705 14.910234 53.998047 14.629411 53.998047 14.357422 C 53.998047 14.044842 53.803657 13.766103 53.513672 13.662109 L 32.242188 6.0449219 C 32.164191 6.0169236 32.081996 6.0039062 32 6.0039062 z"/>
 </g>
</svg>
