<svg xmlns="http://www.w3.org/2000/svg" width="64" height="64" version="1">
 <rect style="opacity:0.2" width="56" height="56" x="4" y="5" rx="2.8" ry="2.8"/>
 <rect style="fill:#f58800" width="56" height="56" x="4" y="4" rx="2.8" ry="2.8"/>
 <path style="fill:none;stroke:#17191e;stroke-width:3" d="M 19,43 32,21 45,43"/>
 <path style="opacity:0.2" d="M 26.666016,15 C 25.188682,15 24,16.249581 24,17.800781 v 8.398438 C 24,27.750419 25.188682,29 26.666016,29 H 37.333984 C 38.811318,29 40,27.750419 40,26.199219 V 17.800781 C 40,16.249581 38.811318,15 37.333984,15 Z m -13,22 C 12.188682,37 11,38.249581 11,39.800781 v 8.398438 C 11,49.750419 12.188682,51 13.666016,51 H 24.333984 C 25.811318,51 27,49.750419 27,48.199219 V 39.800781 C 27,38.249581 25.811318,37 24.333984,37 Z m 26,0 C 38.188682,37 37,38.249581 37,39.800781 v 8.400391 C 37,49.752372 38.188682,51 39.666016,51 H 50.333984 C 51.811318,51 53,49.752372 53,48.201172 V 39.800781 C 53,38.249581 51.811318,37 50.333984,37 Z"/>
 <path style="fill:#8b9cbe" d="M 26.666016 14 C 25.188682 14 24 15.249581 24 16.800781 L 24 25.199219 C 24 26.750419 25.188682 28 26.666016 28 L 37.333984 28 C 38.811318 28 40 26.750419 40 25.199219 L 40 16.800781 C 40 15.249581 38.811318 14 37.333984 14 L 26.666016 14 z M 13.666016 36 C 12.188682 36 11 37.249581 11 38.800781 L 11 47.199219 C 11 48.750419 12.188682 50 13.666016 50 L 24.333984 50 C 25.811318 50 27 48.750419 27 47.199219 L 27 38.800781 C 27 37.249581 25.811318 36 24.333984 36 L 13.666016 36 z M 39.666016 36 C 38.188682 36 37 37.249581 37 38.800781 L 37 47.201172 C 37 48.752372 38.188682 50 39.666016 50 L 50.333984 50 C 51.811318 50 53 48.752372 53 47.201172 L 53 38.800781 C 53 37.249581 51.811318 36 50.333984 36 L 39.666016 36 z"/>
 <path style="fill:#8b9cbe;opacity:0.2" d="M 6.8007812 4 C 5.2495813 4 4 5.2495813 4 6.8007812 L 4 7.8007812 C 4 6.2495813 5.2495813 5 6.8007812 5 L 57.199219 5 C 58.750419 5 60 6.2495813 60 7.8007812 L 60 6.8007812 C 60 5.2495813 58.750419 4 57.199219 4 L 6.8007812 4 z"/>
</svg>
