<svg xmlns="http://www.w3.org/2000/svg" width="64" height="64" version="1">
 <path style="opacity:0.2" d="M 60,55.222222 V 10.777778 C 60,9.2388889 58.7512,8 57.2,8 H 6.8 C 5.2488,8 4,9.2388889 4,10.777778 V 55.222222 C 4,56.761111 5.2488,58 6.8,58 h 50.4 c 1.5512,0 2.8,-1.238889 2.8,-2.777778 z"/>
 <path style="fill:#2b7fb7" d="M 60,54.222222 V 9.7777778 C 60,8.2388889 58.7512,7 57.2,7 H 6.8 C 5.2488,7 4,8.2388889 4,9.7777778 V 54.222222 C 4,55.761111 5.2488,57 6.8,57 h 50.4 c 1.5512,0 2.8,-1.238889 2.8,-2.777778 z"/>
 <path style="fill:none;stroke:#17191e;stroke-width:3;stroke-opacity:0.98679869" d="M 20,20.5 46,28 32,46.5 Z"/>
 <path style="opacity:0.2" d="M 12.857422,13 C 11.274565,13 10,14.264318 10,15.833984 V 27.166016 C 10,28.735682 11.274565,30 12.857422,30 H 27.142578 C 28.725435,30 30,28.735682 30,27.166016 V 15.833984 C 30,14.264318 28.725435,13 27.142578,13 Z m 26.572266,9 C 38.084257,22 37,23.039364 37,24.332031 v 9.335938 C 37,34.960636 38.084258,36 39.429688,36 H 51.570312 C 52.915743,36 54,34.960636 54,33.667969 V 24.332031 C 54,23.039364 52.915742,22 51.570312,22 Z M 26.998047,42 C 25.890047,42 25,42.818318 25,43.833984 v 7.332032 C 25,52.181682 25.890047,53 26.998047,53 H 37.001953 C 38.109953,53 39,52.181682 39,51.166016 V 43.833984 C 39,42.818318 38.109953,42 37.001953,42 Z"/>
 <path style="fill:#8b9cbe" d="M 12.857422 12 C 11.274565 12 10 13.264318 10 14.833984 L 10 26.166016 C 10 27.735682 11.274565 29 12.857422 29 L 27.142578 29 C 28.725435 29 30 27.735682 30 26.166016 L 30 14.833984 C 30 13.264318 28.725435 12 27.142578 12 L 12.857422 12 z M 39.429688 21 C 38.084257 21 37 22.039364 37 23.332031 L 37 32.667969 C 37 33.960636 38.084258 35 39.429688 35 L 51.570312 35 C 52.915743 35 54 33.960636 54 32.667969 L 54 23.332031 C 54 22.039364 52.915742 21 51.570312 21 L 39.429688 21 z M 26.998047 41 C 25.890047 41 25 41.818318 25 42.833984 L 25 50.166016 C 25 51.181682 25.890047 52 26.998047 52 L 37.001953 52 C 38.109953 52 39 51.181682 39 50.166016 L 39 42.833984 C 39 41.818318 38.109953 41 37.001953 41 L 26.998047 41 z"/>
 <path style="fill:#8b9cbe;opacity:0.1" d="M 6.8007812 7 C 5.2495813 7 4 8.2384548 4 9.7773438 L 4 10.777344 C 4 9.2384547 5.2495813 8 6.8007812 8 L 57.199219 8 C 58.750419 8 60 9.2384546 60 10.777344 L 60 9.7773438 C 60 8.2384548 58.750419 7 57.199219 7 L 6.8007812 7 z"/>
</svg>
