<svg xmlns="http://www.w3.org/2000/svg" width="64" height="64" version="1.1">
 <rect style="opacity:0.2" width="56" height="56" x="4" y="5" rx="5.6" ry="5.6"/>
 <rect style="fill:#75aa03" width="56" height="56" x="4" y="4" rx="5.6" ry="5.6"/>
 <path style="opacity:0.2" d="m 24.007812,15.332031 -0.816406,0.539063 2.070312,3.105468 C 22.458604,20.753578 20.469036,23.765196 19.726562,27 h 24.54297 c -0.74115,-3.23536 -2.728588,-6.245254 -5.53125,-8.023438 l 2.070312,-3.105468 -0.816406,-0.539063 -2.10547,3.152344 C 36.074708,17.516988 34.054058,17.00766 32,17 c -2.056146,0.0038 -4.07934,0.51073 -5.894532,1.476562 z M 26.5,21 C 27.328427,21 28,21.671573 28,22.5 28,23.328427 27.328427,24 26.5,24 25.671573,24 25,23.328427 25,22.5 25,21.671573 25.671573,21 26.5,21 Z m 11,0 C 38.328427,21 39,21.671573 39,22.5 39,23.328427 38.328427,24 37.5,24 36.671573,24 36,23.328427 36,22.5 36,21.671573 36.671573,21 37.5,21 Z M 15.96875,29 C 14.865718,29.018615 13.984849,30.004349 14,31.203124 v 11.593752 c 0,2.898055 4,2.898055 4,0 V 31.203124 C 18.015491,29.977745 17.096257,28.980732 15.96875,29 Z M 20,29 v 1.574218 2.75 11 V 48.25 C 20,49.7735 21.190636,51 22.667968,51 H 27 v -2 h 4 v -1.925782 -0.1211 C 30.47668,46.86191 29.69832,46.707574 29.300782,46.519532 26.12517,45.381334 24.004788,42.373422 24,39 c 0,-4.418278 3.581722,-8 8,-8 4.418278,0 8,3.581722 8,8 -0.0016,3.32279 -2.057056,6.298658 -5.164062,7.476562 -0.453126,0.208216 -1.275624,0.3828 -1.835938,0.48047 V 47.074218 49 h 4 v 2 h 4.332032 C 42.809364,51 44,49.7735 44,48.25 v -3.925782 -11 -2.75 V 29 Z m 27.96875,0 C 46.865718,29.018615 45.98485,30.004349 46,31.203124 v 11.593752 c 0,2.898057 4,2.898057 4,0 V 31.203124 C 50.01549,29.977745 49.096257,28.980732 47.96875,29 Z M 32,35 c -2.209139,0 -4,1.790861 -4,4 0,2.209139 1.790861,4 4,4 2.209139,0 4,-1.790861 4,-4 0,-2.209139 -1.790861,-4 -4,-4 z m 0,1.332032 C 33.473776,36.331313 34.668687,37.526224 34.667968,39 34.668687,40.473776 33.473776,41.668687 32,41.667968 30.526224,41.668687 29.331313,40.473776 29.332032,39 c 9.34e-4,-0.266297 0.04175,-0.530952 0.121092,-0.785156 C 29.668582,38.692564 30.143908,38.999768 30.667968,39 31.403332,38.999283 31.999283,38.403332 32,37.667968 31.999768,37.143908 31.692564,36.668582 31.214844,36.453124 31.469048,36.373783 31.733703,36.332966 32,36.332032 Z"/>
 <path style="fill:#8b9cbe" d="m 24.007812,14.332031 -0.816406,0.539063 2.070312,3.105468 C 22.458604,19.753578 20.469036,22.765196 19.726562,26 h 24.54297 c -0.74115,-3.23536 -2.728588,-6.245254 -5.53125,-8.023438 l 2.070312,-3.105468 -0.816406,-0.539063 -2.10547,3.152344 C 36.074708,16.516988 34.054058,16.00766 32,16 c -2.056146,0.0038 -4.07934,0.51073 -5.894532,1.476562 z M 26.5,20 C 27.328427,20 28,20.671573 28,21.5 28,22.328427 27.328427,23 26.5,23 25.671573,23 25,22.328427 25,21.5 25,20.671573 25.671573,20 26.5,20 Z m 11,0 C 38.328427,20 39,20.671573 39,21.5 39,22.328427 38.328427,23 37.5,23 36.671573,23 36,22.328427 36,21.5 36,20.671573 36.671573,20 37.5,20 Z M 15.96875,28 C 14.865718,28.018615 13.984849,29.004349 14,30.203124 v 11.593752 c 0,2.898055 4,2.898055 4,0 V 30.203124 C 18.015491,28.977745 17.096257,27.980732 15.96875,28 Z M 20,28 v 1.574218 2.75 11 V 47.25 C 20,48.7735 21.190636,50 22.667968,50 H 27 v -2 h 4 v -1.925782 -0.1211 C 30.47668,45.86191 29.69832,45.707574 29.300782,45.519532 26.12517,44.381334 24.004788,41.373422 24,38 c 0,-4.418278 3.581722,-8 8,-8 4.418278,0 8,3.581722 8,8 -0.0016,3.32279 -2.057056,6.298658 -5.164062,7.476562 -0.453126,0.208216 -1.275624,0.3828 -1.835938,0.48047 V 46.074218 48 h 4 v 2 h 4.332032 C 42.809364,50 44,48.7735 44,47.25 v -3.925782 -11 -2.75 V 28 Z m 27.96875,0 C 46.865718,28.018615 45.98485,29.004349 46,30.203124 v 11.593752 c 0,2.898057 4,2.898057 4,0 V 30.203124 C 50.01549,28.977745 49.096257,27.980732 47.96875,28 Z M 32,34 c -2.209139,0 -4,1.790861 -4,4 0,2.209139 1.790861,4 4,4 2.209139,0 4,-1.790861 4,-4 0,-2.209139 -1.790861,-4 -4,-4 z m 0,1.332032 C 33.473776,35.331313 34.668687,36.526224 34.667968,38 34.668687,39.473776 33.473776,40.668687 32,40.667968 30.526224,40.668687 29.331313,39.473776 29.332032,38 c 9.34e-4,-0.266297 0.04175,-0.530952 0.121092,-0.785156 C 29.668582,37.692564 30.143908,37.999768 30.667968,38 31.403332,37.999283 31.999283,37.403332 32,36.667968 31.999768,36.143908 31.692564,35.668582 31.214844,35.453124 31.469048,35.373783 31.733703,35.332966 32,35.332032 Z"/>
 <path style="opacity:0.2;fill:#8b9cbe" d="M 9.6015625 4 C 6.4991627 4 4 6.4991627 4 9.6015625 L 4 10.601562 C 4 7.4991631 6.4991627 5 9.6015625 5 L 54.398438 5 C 57.500837 5 60 7.4991631 60 10.601562 L 60 9.6015625 C 60 6.4991627 57.500837 4 54.398438 4 L 9.6015625 4 z"/>
</svg>
