<svg xmlns="http://www.w3.org/2000/svg" width="64" height="64" version="1.1">
 <path style="opacity:0.2" d="m 32.0358,6.005903 c -16.450751,0 -29.9641042,13.3894 -29.9642236,29.8068 -0.172736,2.4302 0,4.2018 0.17167,6.9968 0.4804828,6.8158 4.691853,11.6968 8.4625516,14.0456 3.555832,2.2144 6.819982,2.9968 6.819982,2.9968 0.08543,0.02 0.171286,0.038 0.257505,0.054 2.212654,0.402 4.814373,-0.5228 6.258155,-2.0354 1.44378,-1.5128 2.002664,-3.3532 2.001516,-5.091 v -21.5316 c 0.0015,-1.547 -0.42541,-3.2034 -1.638666,-4.6886 -0.35773,-0.4378 -0.93907,-0.7396 -1.447492,-1.094 2.475214,-2.1358 5.675972,-3.4514 9.079,-3.4576 3.404168,0 6.605458,1.3162 9.082904,3.4538 -0.509248,0.354 -1.08948,0.6564 -1.44749,1.094 -1.213286,1.4828 -1.641108,3.1364 -1.64257,4.6806 v 21.5394 c -0.0011,1.7378 0.557734,3.5784 2.001516,5.091 1.443782,1.5124 4.046188,2.4366 6.258154,2.0354 0.08622,-0.02 0.17208,-0.034 0.257504,-0.054 0,0 3.26415,-0.7824 6.819982,-2.9968 3.767638,-2.3468 7.972308,-7.223 8.45865,-14.03 0.17558,-2.8066 0.17554,-4.627 0.17554,-7.0142 -1.2e-4,-16.4174 -13.513472,-29.8068 -29.964222,-29.8068 z"/>
 <path style="fill:#b2bfd9" d="m 32.0358,5.005903 c -16.450751,0 -29.9641042,13.3894 -29.9642236,29.8068 -0.172736,2.4302 0,4.2018 0.17167,6.9968 0.4804828,6.8158 4.691853,11.6968 8.4625516,14.0456 3.555832,2.2144 6.819982,2.9968 6.819982,2.9968 0.08543,0.02 0.171286,0.038 0.257505,0.054 2.212654,0.402 4.814373,-0.5228 6.258155,-2.0354 1.44378,-1.5128 2.002664,-3.3532 2.001516,-5.091 v -21.5316 c 0.0015,-1.547 -0.42541,-3.2034 -1.638666,-4.6886 -0.35773,-0.4378 -0.93907,-0.7396 -1.447492,-1.094 2.475214,-2.1358 5.675972,-3.4514 9.079,-3.4576 3.404168,0 6.605458,1.3162 9.082904,3.4538 -0.509248,0.354 -1.08948,0.6564 -1.44749,1.094 -1.213286,1.4828 -1.641108,3.1364 -1.64257,4.6806 v 21.5394 c -0.0011,1.7378 0.557734,3.5784 2.001516,5.091 1.443782,1.5124 4.046188,2.4366 6.258154,2.0354 0.08622,-0.02 0.17208,-0.034 0.257504,-0.054 0,0 3.26415,-0.7824 6.819982,-2.9968 3.767638,-2.3468 7.972308,-7.223 8.45865,-14.03 0.17558,-2.8066 0.17554,-4.627 0.17554,-7.0142 -1.2e-4,-16.4174 -13.513472,-29.8068 -29.964222,-29.8068 z"/>
 <path style="opacity:0.1" d="m 32.000002,11.999609 c -13.254763,0 -23.9998986,10.6556 -23.9999944,23.7998 v 5.6 h 0.00828 c -0.00148,0.086 -0.0086,0.17 -0.00828,0.26 0.01916,5.1234 3.0026814,8.3338 5.8124994,10.0816 2.809816,1.7474 4.989379,2.2422 4.989379,2.2422 0.683402,0.124 1.198616,-0.4546 1.198114,-1.214 v -21.539 c 6.8e-4,-0.6932 -0.414678,-1.2496 -1.046459,-1.2304 -0.02114,-6e-4 -0.04229,-6e-4 -0.06342,0 0,0 -2.20273,0.2526 -5.041772,1.7718 -0.454637,0.2432 -1.111295,0.7406 -1.562345,1.064 1.474824,-9.5602 9.96135,-16.8244 19.714002,-16.836 9.760442,0 18.25347,7.2782 19.723998,16.8468 -0.454596,-0.3268 -1.113994,-0.8278 -1.572348,-1.0728 -2.839044,-1.5192 -5.041772,-1.772 -5.041772,-1.772 -0.02114,-6e-4 -0.04228,-6e-4 -0.06342,0 -0.63085,-0.02 -1.045804,0.5358 -1.04646,1.2278 v 21.5398 c -5.02e-4,0.7594 0.514712,1.3378 1.198114,1.214 0,0 2.179574,-0.4948 4.98938,-2.2422 2.809818,-1.7478 5.793342,-4.9582 5.812498,-10.0816 3.32e-4,-0.088 -0.0068,-0.172 -0.0082,-0.26 h 0.0082 v -5.6 c -9.6e-5,-13.1442 -10.745228,-23.7998 -23.99999,-23.7998 z"/>
 <path style="fill:#4f4f4f" d="m 32,10.999903 c -13.254763,0 -23.9999042,10.656582 -24,23.800782 v 5.597656 H 8.00782 C 8.00633,40.484341 7.99968,40.570059 8,40.660059 c 0.01916,5.1234 2.303463,2.592044 5.113281,4.339844 2.809816,1.7474 2.886719,3.15625 2.886719,3.15625 0.683401,0.124 5.02e-4,-2.39685 0,-3.15625 l 2,-12 c 0,0 -3.160958,1.547206 -6,3.066406 -0.454637,0.2432 0.285156,-4.230468 0.285156,-4.230468 C 13.75998,22.275641 22.247348,15.011503 32,14.999903 c 9.752652,0.0116 18.24002,7.275738 19.714844,16.835938 0,0 0.739794,4.473668 0.285156,4.230468 -2.839042,-1.5192 -6,-3.066406 -6,-3.066406 l 2,12 c -5.02e-4,0.7594 -0.683402,3.28025 0,3.15625 0,0 0.0769,-1.40885 2.886718,-3.15625 2.809818,-1.7478 5.094082,0.783556 5.113282,-4.339844 4e-4,-0.09 -0.0064,-0.17572 -0.0078,-0.261718 H 56 V 34.800685 C 55.999904,21.656485 45.254764,10.999903 32,10.999903 Z m 14,22 c -6.8e-4,-0.6932 -0.63178,-0.0192 0,0 z m -28,0 c 0.631781,-0.0192 6.8e-4,-0.6932 0,0 z"/>
 <path style="opacity:0.2;fill:#8b9cbe" d="M 32.035156 5 L 32.035156 5.0078125 C 15.584405 5.0078125 2.0704321 18.3951 2.0703125 34.8125 C 2.0098912 35.662562 2.0031232 36.429925 2.0136719 37.191406 C 2.022469 36.745925 2.0359106 36.296497 2.0703125 35.8125 C 2.0704321 19.3951 15.584405 6.0078125 32.035156 6.0078125 L 32.035156 6 C 48.416306 6 61.880344 19.279305 61.994141 35.601562 C 61.996331 35.339561 62 35.091326 62 34.808594 C 61.99988 18.391194 48.485906 5 32.035156 5 z M 39.789062 25.453125 C 39.754422 25.489585 39.703295 25.516288 39.671875 25.554688 C 38.458589 27.037488 38.028806 28.690173 38.027344 30.234375 L 38.027344 31.234375 C 38.028806 29.690173 38.458589 28.037488 39.671875 26.554688 C 39.703295 26.516288 39.754422 26.489585 39.789062 26.453125 C 40.007286 26.601704 40.222793 26.754059 40.433594 26.912109 C 40.658895 26.761116 40.894003 26.616082 41.117188 26.460938 C 40.696087 26.097601 40.249428 25.766569 39.789062 25.453125 z M 24.285156 25.457031 C 23.825082 25.770265 23.377751 26.101814 22.957031 26.464844 C 23.179854 26.620164 23.415223 26.765079 23.640625 26.916016 C 23.851506 26.757903 24.067072 26.605511 24.285156 26.457031 C 24.319916 26.493611 24.370844 26.520034 24.402344 26.558594 C 25.6156 28.043794 26.044469 29.699094 26.042969 31.246094 L 26.042969 30.246094 C 26.044469 28.699094 25.6156 27.043794 24.402344 25.558594 C 24.370844 25.520034 24.319916 25.493611 24.285156 25.457031 z"/>
 <path style="fill:#e91e63" d="m 18.798042,29.016673 c 0,2e-6 -2.18344,0.49474 -4.999674,2.241974 C 11.047454,32.965745 8.1517348,36.082233 8,40.999903 c 0.151734,4.91767 3.047454,8.034158 5.798368,9.741258 2.816234,1.747232 4.999674,2.241974 4.999674,2.241974 0.684962,0.12398 1.20246,-0.4554 1.201958,-1.214728 V 40.999903 30.231401 c 5.02e-4,-0.759328 -0.516996,-1.338714 -1.201958,-1.214728 z"/>
 <path style="fill:#e91e63" d="m 45.201962,29.016673 c 0,2e-6 2.18344,0.49474 4.999674,2.241974 2.750914,1.707098 5.646634,4.823586 5.798368,9.741256 -0.15174,4.91767 -3.047454,8.034158 -5.798368,9.741258 -2.816234,1.747232 -4.999674,2.241974 -4.999674,2.241974 -0.684962,0.12398 -1.20246,-0.4554 -1.201958,-1.214728 V 40.999903 30.231401 c -5.02e-4,-0.759328 0.516996,-1.338714 1.201958,-1.214728 z"/>
</svg>
