<svg xmlns="http://www.w3.org/2000/svg" width="64" height="64" version="1.1">
 <path style="opacity:0.2" d="M 32,5 A 28,28 0 0 0 4,33 28,28 0 0 0 32,61 28,28 0 0 0 60,33 28,28 0 0 0 32,5 Z"/>
 <path style="fill:#4347dc" d="M 32,4 A 28,28 0 0 0 4,32 28,28 0 0 0 32,60 28,28 0 0 0 60,32 28,28 0 0 0 32,4 Z"/>
 <path style="opacity:0.2;fill:none;stroke:#000000;stroke-width:3" d="m 22.490616,29.696208 c 14.511656,-5.657946 29.062654,0.637028 28.03031,11.834012 -0.369436,4.006972 -6.221164,6.44998 -10.387934,5.939974 -7.090318,-0.867838 -13.470158,-8.74338 -16.137758,-13.71059 -3.138928,-5.84485 -1.762794,-19.84112 7.091822,-20.267396 6.228578,0.433218 8.235122,6.703971 9.02587,10.46004 3.140648,14.918178 -13.53771,31.228268 -22.900804,23.630554 -6.120353,-4.966382 -0.938715,-15.32321 5.278494,-17.886594 z"/>
 <path style="fill:none;stroke:#81ff86;stroke-width:3" d="m 22.490616,28.696208 c 14.511656,-5.657946 29.062654,0.637028 28.03031,11.834012 -0.369436,4.006972 -6.221164,6.44998 -10.387934,5.939974 -7.090318,-0.867838 -13.470158,-8.74338 -16.137758,-13.71059 -3.138928,-5.84485 -1.762794,-19.84112 7.091822,-20.267396 6.228578,0.433218 8.235122,6.703971 9.02587,10.46004 3.140648,14.918178 -13.53771,31.228268 -22.900804,23.630554 -6.120353,-4.966382 -0.938715,-15.32321 5.278494,-17.886594 z"/>
 <path style="opacity:0.1;fill:#8b9cbe" d="M 32 4 A 28 28 0 0 0 4 32 A 28 28 0 0 0 4.0214844 32.40625 A 28 28 0 0 1 32 5 A 28 28 0 0 1 59.978516 32.578125 A 28 28 0 0 0 60 32 A 28 28 0 0 0 32 4 z"/>
</svg>
