<svg xmlns="http://www.w3.org/2000/svg" width="64" height="64" version="1.1">
 <g style="opacity:0.2" transform="matrix(2.063158,0,0,2.0533334,-1.0105253,-1.1466688)">
  <path class="cls-9" d="M 29.571426,5.4285716 V 19.725092 c -3.295918,1.257835 -8.905442,4.642318 -10.663264,7.132051 L 16,20.645774 20.284693,14.162092 c 0,0 0.348979,-1.098395 -1.376531,-1.915338 2.849524,-2.8114601 6.998093,-5.2194744 10.663264,-6.8181824 z"/>
  <path class="cls-9" d="M 2.4285714,5.4285716 V 19.725092 C 5.72449,20.982927 11.334013,24.36741 13.091836,26.857143 l 2.908162,-6.211369 -4.284693,-6.483682 c 0,0 -0.348979,-1.098395 1.376531,-1.915338 C 10.242312,9.4352939 6.0937421,7.0272796 2.4285714,5.4285716 Z"/>
 </g>
 <path style="fill:#502e02" class="cls-1" d="M 45.999998,20.974756 A 14,14.016286 0 0 0 25.87818,8.4110662 a 14.101818,14.118223 0 0 1 1.603634,-0.101938 13.923636,13.939834 0 0 1 6.45273,1.5927592 14,14.016286 0 1 0 12.065454,13.8761246 c 0,-0.471456 0,-0.942914 -0.07638,-1.414368 -0.07636,-0.471458 0.07638,-0.917434 0.07638,-1.388888 z"/>
 <path style="fill:#8b9cbe;opacity:0.1" d="M 31.548828 7.0078125 A 14 14.016286 0 0 0 25.878906 8.4101562 A 14.101818 14.118223 0 0 1 27.482422 8.3085938 A 13.923636 13.939834 0 0 1 28.791016 8.375 A 14 14.016286 0 0 1 45.966797 21.332031 C 45.980489 21.213387 46 21.095754 46 20.974609 A 14 14.016286 0 0 0 31.548828 7.0078125 z M 31.070312 9.8007812 A 14 14.016286 0 0 0 18.023438 24.25 A 14 14.016286 0 0 1 33.933594 10.902344 A 13.923636 13.939834 0 0 0 31.070312 9.8007812 z M 45.943359 22.570312 C 45.908609 22.832685 45.880177 23.093774 45.923828 23.363281 C 45.96571 23.621795 45.98169 23.880157 45.990234 24.138672 A 14 14.016286 0 0 0 46 23.777344 C 46 23.374916 45.990862 22.97274 45.943359 22.570312 z"/>
 <circle style="fill:#d9af4f" class="cls-4" cx="32" cy="29" r="10"/>
 <g transform="matrix(2.063158,0,0,2.0533334,-1.0105253,-2.1466688)">
  <path style="fill:#385ca9" class="cls-9" d="M 29.571426,5.4285716 V 19.725092 c -3.295918,1.257835 -8.905442,4.642318 -10.663264,7.132051 L 16,20.645774 20.284693,14.162092 c 0,0 0.348979,-1.098395 -1.376531,-1.915338 2.849524,-2.8114601 6.998093,-5.2194744 10.663264,-6.8181824 z"/>
  <path style="fill:#385ca9" class="cls-9" d="M 2.4285714,5.4285716 V 19.725092 C 5.72449,20.982927 11.334013,24.36741 13.091836,26.857143 l 2.908162,-6.211369 -4.284693,-6.483682 c 0,0 -0.348979,-1.098395 1.376531,-1.915338 C 10.242312,9.4352939 6.0937421,7.0272796 2.4285714,5.4285716 Z"/>
 </g>
 <path style="opacity:0.2" class="cls-9" d="m 32,30.857144 c -6.938862,0 -10,-4.285716 -10,-4.285716 l 3.753738,28.068164 c 0,0 0.936296,3.360408 6.002566,3.360408 5.06627,0 6.002566,-3.347578 6.002566,-3.347578 L 42,26.571428 c 0,0 -3.061136,4.285716 -10,4.285716 z"/>
 <path style="fill:#2a457e" class="cls-9" d="m 32,29.857144 c -6.938862,0 -10,-4.285716 -10,-4.285716 l 3.753738,28.068164 c 0,0 0.936296,3.360408 6.002566,3.360408 5.06627,0 6.002566,-3.347578 6.002566,-3.347578 L 42,25.571428 c 0,0 -3.061136,4.285716 -10,4.285716 z"/>
 <path style="opacity:0.2" d="M 14.425781,10 C 12.079033,9.898929 10.058249,9.690416 7.6189557,11.664738 13.87883,14.689882 19.217366,19.020342 24.214844,23.863282 22.831676,24.720986 22,25.812426 22,27 c 0,2.761424 4.477152,5 10,5 5.522848,0 10,-2.238576 10,-5 0,-1.182272 -0.838888,-2.261242 -2.210938,-3.117188 C 44.73224,19.104252 49.86578,14.834966 56.042456,11.830152 53.698194,9.906786 51.903042,9.993923 49.640624,10 42.781146,10.01842 36.51535,17.055941 32.167968,24.792968 l -0.1836,0.320314 -0.125,0.230468 -0.332032,-0.589844 C 27.2683,17.157708 21.146552,10.289452 14.425781,10 Z"/>
 <path style="fill:#b2bfd9" d="M 14.425781,9 C 12.079033,8.8989294 10.058249,8.6904156 7.6189557,10.664738 13.87883,13.689882 19.217366,18.020342 24.214844,22.863282 22.831676,23.720986 22,24.812426 22,26 c 0,2.761424 4.477152,5 10,5 5.522848,0 10,-2.238576 10,-5 0,-1.182272 -0.838888,-2.261242 -2.210938,-3.117188 C 44.73224,18.104251 49.86578,13.834966 56.042456,10.830152 53.698194,8.9067856 51.903042,8.9939228 49.640624,9 42.781146,9.01842 36.51535,16.055941 32.167968,23.792968 l -0.1836,0.320314 -0.125,0.230468 -0.332032,-0.589844 C 27.2683,16.157708 21.146552,9.2894518 14.425781,9 Z"/>
 <path style="opacity:0.2" class="cls-14" d="m 1.9999999,25.939698 c 0,6.219866 2.3834738,8.060302 3.972458,8.060302 3.9724592,0 6.3691761,-4.903348 -0.7944912,-5.25263 6.3029683,-0.537352 6.5545563,-5.198892 0,-5.373534 6.5545563,-0.49705 5.2966123,-5.373532 0.7944912,-5.373532 -1.8273308,-0.02687 -3.972458,1.71953 -3.972458,7.939394 z"/>
 <path style="fill:#d9af4f" class="cls-14" d="m 1.9999999,24.939698 c 0,6.219866 2.3834738,8.060302 3.972458,8.060302 3.9724592,0 6.3691761,-4.903348 -0.7944912,-5.25263 6.3029683,-0.537352 6.5545563,-5.198892 0,-5.373534 6.5545563,-0.49705 5.2966123,-5.373532 0.7944912,-5.373532 -1.8273308,-0.02687 -3.972458,1.71953 -3.972458,7.939394 z"/>
 <path style="opacity:0.2" class="cls-14" d="M 62,25.939698 C 62,32.159564 59.616526,34 58.027542,34 c -3.97246,0 -6.369176,-4.903348 0.794492,-5.25263 -6.30297,-0.537352 -6.554558,-5.198892 0,-5.373534 C 52.267476,22.876786 53.52542,18.000304 58.027542,18.000304 59.854872,17.973437 62,19.719834 62,25.939698 Z"/>
 <path style="fill:#d9af4f" class="cls-14" d="M 62,24.939698 C 62,31.159564 59.616526,33 58.027542,33 c -3.97246,0 -6.369176,-4.903348 0.794492,-5.25263 -6.30297,-0.537352 -6.554558,-5.198892 0,-5.373534 C 52.267476,21.876786 53.52542,17.000304 58.027542,17.000304 59.854872,16.973437 62,18.719834 62,24.939698 Z"/>
 <path style="fill:#8b9cbe;opacity:0.2" d="M 5.9726562 17 C 4.1453254 16.97313 2 18.719589 2 24.939453 C 2 25.107612 2.0082972 25.260068 2.0117188 25.421875 C 2.130739 19.632944 4.198422 17.973911 5.9726562 18 C 7.9678305 18 9.3212295 18.958523 9.6445312 20.068359 C 10.06107 18.605726 8.5562952 17 5.9726562 17 z M 7.8261719 22.789062 C 7.1440384 23.076372 6.2800903 23.289452 5.1777344 23.373047 C 7.9936096 23.448074 9.544783 24.353863 9.9082031 25.402344 C 10.259408 24.402317 9.5702527 23.353341 7.8261719 22.789062 z M 7.7519531 28.1875 C 7.050307 28.455943 6.2026247 28.660671 5.1777344 28.748047 C 8.0458219 28.887887 9.3641008 29.759081 9.6796875 30.751953 C 9.9698956 29.786918 9.4711572 28.762197 7.7519531 28.1875 z"/>
 <path style="fill:#8b9cbe;opacity:0.2" d="M 58.027344 17 C 55.443704 17 53.93893 18.605726 54.355469 20.068359 C 54.678771 18.958523 56.032169 18 58.027344 18 C 59.801577 17.973914 61.869261 19.632944 61.988281 25.421875 C 61.991703 25.260068 62 25.107612 62 24.939453 C 62 18.719589 59.854674 16.973133 58.027344 17 z M 56.173828 22.789062 C 54.429747 23.353341 53.740592 24.402317 54.091797 25.402344 C 54.455217 24.353863 56.00639 23.448074 58.822266 23.373047 C 57.719909 23.289452 56.855962 23.076372 56.173828 22.789062 z M 56.248047 28.1875 C 54.528843 28.762197 54.030105 29.786918 54.320312 30.751953 C 54.635899 29.759081 55.954178 28.887887 58.822266 28.748047 C 57.797375 28.660671 56.949693 28.455943 56.248047 28.1875 z"/>
</svg>
