<svg xmlns="http://www.w3.org/2000/svg" width="64" height="64" version="1.1">
 <path style="opacity:0.2" d="M 20.404206,5.0010471 C 18.92572,5.0124011 17.308211,5.6023289 16.354641,6.5678269 L 13.248424,9.7150585 C 11.977687,11.002852 9.8988082,13.108925 8.6273798,14.396258 L 5.5211634,17.540754 C 4.250428,18.828317 3.657024,21.296791 4.203209,23.023117 l 2.8847342,9.12451 c 0.5459542,1.727252 2.0440246,4.183626 3.3276988,5.457752 l 22.61577,22.446242 c 1.284136,1.27459 3.374916,1.262488 4.645654,-0.0246 l 8.378032,-8.484674 c 1.271662,-1.287794 3.349848,-3.393638 4.621044,-4.6812 l 8.378034,-8.484674 c 1.271198,-1.288034 1.25907,-3.384744 -0.0246,-4.659334 L 36.413798,11.2709 C 35.130124,9.9963115 32.664642,8.5194913 30.936904,7.9896863 L 21.806924,5.1897167 C 21.374932,5.0573235 20.897034,4.9972643 20.404206,5.0010471 Z m -2.40349,9.7998929 c 2.319272,0 4.199954,1.880362 4.199954,4.199955 -3.2e-4,2.319592 -1.880682,4.199954 -4.199954,4.199954 -2.319593,0 -4.199954,-1.880362 -4.199954,-4.199954 0,-2.319273 1.880361,-4.199955 4.199954,-4.199955 z"/>
 <path style="fill:#5bb237" d="M 20.404206,4.0006082 C 18.92572,4.011962 17.308211,4.60189 16.354641,5.567388 L 13.248424,8.7146194 C 11.977687,10.002414 9.8988082,12.108486 8.6273798,13.395819 L 5.5211634,16.540315 C 4.250428,17.827879 3.657024,20.296352 4.203209,22.022678 l 2.8847342,9.12451 c 0.5459542,1.727252 2.0440246,4.183626 3.3276988,5.457752 l 22.61577,22.446242 c 1.284136,1.27459 3.374916,1.262488 4.645654,-0.0246 l 8.378032,-8.484674 c 1.271662,-1.287794 3.349848,-3.393638 4.621044,-4.6812 l 8.378034,-8.484674 C 60.325374,36.088 60.313246,33.99129 59.029566,32.7167 L 36.413798,10.270462 C 35.130124,8.9958722 32.664642,7.5190524 30.936904,6.9892474 L 21.806924,4.1892778 C 21.374932,4.0568846 20.897034,3.9968254 20.404206,4.0006082 Z m -2.40349,9.7998938 c 2.319272,0 4.199954,1.880361 4.199954,4.199954 -3.2e-4,2.319592 -1.880682,4.199954 -4.199954,4.199954 -2.319593,0 -4.199954,-1.880362 -4.199954,-4.199954 0,-2.319272 1.880361,-4.199954 4.199954,-4.199954 z"/>
 <path style="opacity:0.2" d="m 38.868372,13.707202 c -5.474322,1.424366 -10.925084,2.959424 -16.32951,4.623777 -0.60399,0.185992 -1.143476,0.401524 -1.646076,0.637103 -0.0138,1.655861 -1.353363,2.994109 -3.00778,2.994109 -0.08048,0 -0.156264,-0.0156 -0.235154,-0.02188 -0.652505,1.29078 -0.884492,2.872816 -0.683586,4.84526 0.568826,5.592488 1.341272,11.163526 2.113648,16.73146 0.145662,1.049946 0.308274,2.10033 0.46484,3.149966 l 9.671378,9.597552 c 5.616934,-1.561002 11.229046,-3.14173 16.840834,-4.724948 1.27186,-1.288 3.34786,-3.391662 4.618308,-4.678466 l 0.0138,-0.0138 c -0.1131,-1.674874 -0.226054,-3.322142 -0.344526,-5.083148 -0.851162,0.239536 -1.46942,0.41414 -2.086306,0.587886 -5.236122,1.475206 -10.484782,2.911718 -15.703346,4.448778 -1.49831,0.441544 -2.082854,-0.02172 -2.201146,-1.490218 -0.11506,-1.412428 -0.314512,-2.819022 -0.508588,-4.49253 0.797558,-0.224478 1.473702,-0.40599 2.143726,-0.60429 4.02361,-1.19374 8.0806,-2.286656 12.058462,-3.617538 3.649552,-1.220614 5.23012,-3.409038 4.998384,-7.232344 -0.12406,-2.04239 -0.315636,-4.087924 -0.574212,-6.124932 z m -2.143728,8.738969 c 0.509678,-0.0044 0.812786,0.28893 0.8996,1.011708 0.23913,1.998756 0.586014,3.987096 0.721868,5.99095 0.03582,0.521928 -0.432966,1.436218 -0.861318,1.574982 -2.801858,0.91019 -5.65874,1.654796 -8.703422,2.512864 -0.33663,-2.610336 -0.718268,-4.951122 -0.88046,-7.306172 -0.0365,-0.52517 0.585252,-1.42858 1.091004,-1.602326 2.34878,-0.800152 4.767762,-1.39114 7.153048,-2.08357 0.215332,-0.06232 0.409788,-0.097 0.57968,-0.09844 z"/>
 <path style="fill:#8b9cbe" d="m 38.868372,12.706764 c -5.474322,1.424365 -10.925084,2.959423 -16.32951,4.623777 -0.60399,0.185992 -1.143476,0.401524 -1.646076,0.637102 -0.0138,1.655862 -1.353363,2.994109 -3.00778,2.994109 -0.08048,0 -0.156264,-0.0156 -0.235154,-0.02188 -0.652505,1.29078 -0.884492,2.872816 -0.683586,4.84526 0.568826,5.592488 1.341272,11.163526 2.113648,16.73146 0.145662,1.049946 0.308274,2.10033 0.46484,3.149966 l 9.671378,9.597552 c 5.616934,-1.561002 11.229046,-3.14173 16.840834,-4.724948 1.27186,-1.288 3.34786,-3.391662 4.618308,-4.678466 l 0.0138,-0.0138 c -0.1131,-1.674874 -0.226054,-3.322142 -0.344526,-5.083148 -0.851162,0.239536 -1.46942,0.41414 -2.086306,0.587886 -5.236122,1.475206 -10.484782,2.911718 -15.703346,4.448778 -1.49831,0.441544 -2.082854,-0.02172 -2.201146,-1.490218 -0.11506,-1.412428 -0.314512,-2.819022 -0.508588,-4.49253 0.797558,-0.224478 1.473702,-0.40599 2.143726,-0.60429 4.02361,-1.19374 8.0806,-2.286656 12.058462,-3.617538 3.649552,-1.220614 5.23012,-3.409038 4.998384,-7.232344 -0.12406,-2.04239 -0.315636,-4.087924 -0.574212,-6.124932 z m -2.143728,8.738968 c 0.509678,-0.0044 0.812786,0.28893 0.8996,1.011708 0.23913,1.998756 0.586014,3.987096 0.721868,5.99095 0.03582,0.521928 -0.432966,1.436218 -0.861318,1.574982 -2.801858,0.91019 -5.65874,1.654796 -8.703422,2.512864 -0.33663,-2.610336 -0.718268,-4.951122 -0.88046,-7.306172 -0.0365,-0.52517 0.585252,-1.42858 1.091004,-1.602326 2.34878,-0.800152 4.767762,-1.39114 7.153048,-2.08357 0.215332,-0.06232 0.409788,-0.097 0.57968,-0.09844 z"/>
 <path style="opacity:0.1" d="m 18,13.000438 c -3.308361,0 -6,2.691638 -6,6.000001 0,3.308088 2.691639,6 6,6 3.308364,0 6,-2.691912 6,-6 -2.74e-4,-3.308363 -2.691908,-6.000001 -6,-6.000001 z m 0,3 c 1.656642,0 3,1.343131 3,3.000001 0,1.65687 -1.343128,3 -3,3 -1.656868,0 -3,-1.34313 -3,-3 0,-1.65687 1.343132,-3.000001 3,-3.000001 z"/>
 <path style="fill:#c7c7c7" d="m 18,12 c -3.308361,0 -6,2.691638 -6,6 0,3.308088 2.691639,6 6,6 3.308364,0 6,-2.691912 6,-6 -2.74e-4,-3.308362 -2.691908,-6 -6,-6 z m 0,3 c 1.656642,0 3,1.34313 3,3 0,1.65687 -1.343128,3 -3,3 -1.656868,0 -3,-1.34313 -3,-3 0,-1.65687 1.343132,-3 3,-3 z"/>
 <path style="opacity:0.1" d="m 16.976871,44.130665 c -0.216718,2.357828 -1.35784,6.343068 -3.653249,8.408544 -1.079896,0.971346 -2.384825,1.461306 -3.8893754,1.461306 -0.319301,0 -0.6478438,-0.02224 -0.9849354,-0.06648 C 6.3773194,53.662757 4.954558,52.125929 4.3349012,49.490341 2.4824,41.614619 8.5218018,24.810477 17.345789,18.846408 c 0.282334,-0.190656 0.664941,-0.115596 0.854857,0.167028 0.19038,0.282622 0.11575,0.666714 -0.16635,0.85737 C 9.2193204,25.828622 3.9513706,42.479404 5.5337826,49.20679 c 0.4990524,2.122 1.533662,3.30022 3.0749486,3.502458 1.5724768,0.205946 2.8464468,-0.14988 3.8905298,-1.087872 2.336073,-2.099992 3.229055,-6.734574 3.318007,-8.641362"/>
 <path style="fill:#17191e" d="m 16.976871,43.130226 c -0.216718,2.357828 -1.35784,6.343068 -3.653249,8.408544 -1.079896,0.971346 -2.384825,1.461306 -3.8893754,1.461306 -0.319301,0 -0.6478438,-0.02224 -0.9849354,-0.06648 C 6.3773194,52.662318 4.954558,51.12549 4.3349012,48.489902 2.4824,40.61418 8.5218018,23.810038 17.345789,17.845969 c 0.282334,-0.190655 0.664941,-0.115597 0.854857,0.167027 0.19038,0.282623 0.115751,0.666715 -0.16635,0.85737 C 9.21932,24.828182 3.9513702,41.478964 5.5337822,48.20635 c 0.4990524,2.122 1.533662,3.30022 3.0749486,3.502458 1.5724772,0.205946 2.8464472,-0.14988 3.8905292,-1.087872 2.336074,-2.099992 3.229055,-6.734574 3.318008,-8.641362"/>
 <path style="opacity:0.2;fill:#8b9cbe" d="M 20.402344 4 C 18.923857 4.011354 17.309039 4.6009082 16.355469 5.5664062 L 13.25 8.7148438 C 11.979263 10.002638 9.9003347 12.107198 8.6289062 13.394531 L 5.5195312 16.539062 C 4.4626571 17.609932 3.890541 19.490618 4.0390625 21.087891 C 4.1480796 19.759599 4.677984 18.391754 5.5195312 17.539062 L 8.6289062 14.394531 C 9.9003347 13.107198 11.979263 11.002638 13.25 9.7148438 L 16.355469 6.5664062 C 17.309039 5.6009082 18.923857 5.011354 20.402344 5 C 20.895172 4.9962172 21.376602 5.0551068 21.808594 5.1875 L 30.9375 7.9882812 C 32.665238 8.5180863 35.130389 9.9949419 36.414062 11.269531 L 59.03125 33.714844 C 59.548226 34.228157 59.846032 34.875544 59.945312 35.548828 C 60.098556 34.542875 59.802901 33.481029 59.03125 32.714844 L 36.414062 10.269531 C 35.130389 8.9949419 32.665238 7.5180862 30.9375 6.9882812 L 21.808594 4.1875 C 21.376602 4.0551068 20.895172 3.9962172 20.402344 4 z"/>
</svg>
