<svg width="64" height="64" version="1.1" xmlns="http://www.w3.org/2000/svg">
 <circle cx="32" cy="33" r="28" style="opacity:.2"/>
 <circle cx="32" cy="32" r="28" style="fill:#3b6ec5"/>
 <path d="M 32,4 A 28,28 0 0 0 4,32 28,28 0 0 0 4.0215,32.586 28,28 0 0 1 32,5 28,28 0 0 1 59.979,32.414 28,28 0 0 0 60,32 28,28 0 0 0 32,4 Z" style="fill:#8b9cbe;opacity:.2"/>
 <path d="m52 13.412109v8.587891h2v13h-5v7h-6v-9h3v-2.800781l-11-0.199219v5h5v9h-5v3h5v3h-8v-3h-9v-6h6v-5h-8v-6h5v-5h-5v-3h-3v8.199219l-8-0.199219v-3h5v-8h-5v-3.271484a28 28 0 0 0-5.9824219 16.761718 28 28 0 0 0 27.982422 27.509766 28 28 0 0 0 27.828125-25h-2.828125v-10h1.810547a28 28 0 0 0-6.810547-11.587891z" style="opacity:.2"/>
 <path d="m52 12.412109v8.587891h2v13h-5v7h-6v-9h3v-2.800781l-11-0.199219v5h5v9h-5v3h5v3h-8v-3h-9v-6h6v-5h-8v-6h5v-5h-5v-3h-3v8.199219l-8-0.199219v-3h5v-8h-5v-3.271484a28 28 0 0 0-6 17.271484 28 28 0 0 0 28 28 28 28 0 0 0 27.898438-26h-2.898438v-10h1.810547a28 28 0 0 0-6.810547-11.587891z" style="fill:#53c457"/>
 <circle cx="36" cy="20" r="4" style="fill:#8b9cbe"/>
</svg>
