<svg width="64" height="64" version="1.1" xmlns="http://www.w3.org/2000/svg">
 <circle cx="32" cy="33" r="28" style="opacity:.2"/>
 <circle cx="32" cy="32" r="28" style="fill:#54749d"/>
 <path d="M 32,4 A 28,28 0 0 0 4,32 28,28 0 0 0 4.0215,32.586 28,28 0 0 1 32,5 28,28 0 0 1 59.979,32.414 28,28 0 0 0 60,32 28,28 0 0 0 32,4 Z" style="fill:#8b9cbe;opacity:.2"/>
 <path d="m49 13s-42 2-42 20c1e-7 18 42 20 42 20s-39-6-39-20 39-20 39-20zm-3 3s-34 6-34 17 34 17 34 17-31-10-31-17 31-17 31-17zm-6 6s-23 4-23 11 23 11 23 11-20-5-20-11 20-11 20-11z" style="opacity:.2"/>
 <path d="m49 12s-42 2-42 20c1e-7 18 42 20 42 20s-39-6-39-20 39-20 39-20zm-3 3s-34 6-34 17 34 17 34 17-31-10-31-17 31-17 31-17zm-6 6s-23 4-23 11 23 11 23 11-20-5-20-11 20-11 20-11z" style="fill:#8b9cbe"/>
</svg>
