<svg xmlns="http://www.w3.org/2000/svg" width="64" height="64" version="1">
 <path style="opacity:0.2" d="M 49.945341,45.526737 C 49.147727,54.039282 41.68823,61 31.502569,61 21.316907,61 13.930794,54.032897 13.059798,45.526737 12.184758,36.981089 21.036861,5.1279058 31.502569,5.0003858 42.038331,4.8720127 50.775362,36.668303 49.945341,45.526737 Z"/>
 <path style="fill:#f2ad32" d="m 49.945341,44.526738 c -0.797614,8.512545 -8.257111,15.473263 -18.442772,15.473263 -10.185662,0 -17.571775,-6.967103 -18.442771,-15.473263 C 12.184758,35.98109 21.036861,4.1279068 31.502569,4.0003868 42.038331,3.8720137 50.775362,35.668304 49.945341,44.526738 Z"/>
 <path style="opacity:0.1" d="m 23.839844,46.010923 c -1.122552,-0.09162 -2.296448,0.34336 -3.080078,1.339843 -0.498025,0.633297 -0.893059,1.960743 -0.716797,2.40625 0.138189,0.349278 0.299994,0.301289 0.666015,-0.197265 0.177511,-0.241789 0.669459,-0.633119 1.09375,-0.869141 1.378411,-0.766773 3.132141,-0.522735 4.248047,0.589844 0.267264,0.266468 0.484375,0.536932 0.484375,0.601562 0,0.06461 0.10127,0.117188 0.22461,0.117188 0.380985,0 0.291371,-1.333815 -0.146485,-2.171875 -0.578722,-1.107679 -1.650886,-1.724785 -2.773437,-1.816406 z m 15.320312,0 c -1.122551,0.09162 -2.194715,0.708727 -2.773437,1.816406 -0.437855,0.83806 -0.527469,2.171875 -0.146485,2.171875 0.12334,0 0.22461,-0.05258 0.22461,-0.117188 0,-0.06463 0.217112,-0.335094 0.484375,-0.601562 1.115907,-1.112579 2.869636,-1.356617 4.248047,-0.589844 0.42429,0.236022 0.916238,0.627352 1.09375,0.869141 0.366019,0.498554 0.527827,0.546543 0.666015,0.197265 0.176263,-0.445508 -0.218772,-1.772952 -0.716797,-2.40625 -0.783629,-0.996483 -1.957526,-1.431465 -3.080078,-1.339843 z m -4.820312,5.660156 c -0.311935,-0.0422 -0.565151,0.189465 -0.878906,0.753906 -0.462978,0.832894 -1.076862,1.212891 -1.960938,1.212891 -0.844231,0 -1.476935,-0.374948 -1.939453,-1.148438 -0.462692,-0.773783 -0.787613,-0.95432 -1.238281,-0.685546 -0.37606,0.224279 -0.421096,0.610069 -0.142578,1.216796 0.414816,0.903652 1.439655,1.65518 2.609374,1.91211 1.493713,0.328096 3.420932,-0.583272 4.027344,-1.904297 0.282845,-0.616155 0.23946,-0.999882 -0.140625,-1.226563 -0.121444,-0.07243 -0.231959,-0.116791 -0.335937,-0.130859 z"/>
 <path style="fill:#c67427" d="m 36.484276,8.2110655 c -0.06058,0.00776 0.04656,0.3026077 0.547634,1.7647531 1.296914,3.7845004 2.425383,8.0764354 3.049651,11.5980824 0.466842,2.633559 0.672104,5.408076 0.751472,10.157463 0.04202,2.514815 0.122996,4.572392 0.17966,4.572392 0.121915,0 0.300926,-0.808557 0.570792,-2.577725 1.011055,-6.628187 0.215727,-13.403671 -2.362818,-20.130802 -0.623233,-1.625938 -2.377509,-5.1827954 -2.628238,-5.3287829 -0.04905,-0.028563 -0.08796,-0.057967 -0.108154,-0.055381 z"/>
 <path style="fill:#c67427" d="m 27.408713,9.6004964 c -0.08142,-0.017309 -0.251606,0.4168396 -0.508338,1.3015006 -0.55824,1.923608 -0.787554,3.591968 -0.873642,6.357651 -0.09333,2.998035 0.03719,4.610097 0.720599,8.909654 1.020973,6.423219 1.590182,10.921055 1.590182,12.564489 0,0.456981 0.04205,1.018868 0.09356,1.248569 l 0.09382,0.417641 0.112216,-0.371235 c 0.06173,-0.204182 0.184487,-1.679842 0.272826,-3.279249 0.243279,-4.404684 0.04989,-6.980746 -1.281393,-17.076838 -0.313469,-2.377263 -0.418087,-6.79043 -0.212799,-8.971527 0.06764,-0.7186726 0.06483,-1.0853829 -0.0071,-1.1006556 z"/>
 <path style="fill:#c67427" d="m 20.4984,21.244253 c -0.155257,-0.03856 -1.954834,3.905809 -2.362565,5.178225 -0.08652,0.270048 -0.240147,1.374786 -0.341371,2.454976 -0.101227,1.08019 -0.336242,2.820153 -0.522189,3.866588 -0.25897,1.457337 -0.316,2.261693 -0.242919,3.436965 0.08881,1.428183 0.180255,1.892169 0.61228,3.107079 0.120707,0.339449 0.243139,0.456907 0.445618,0.427942 0.235985,-0.03375 0.284707,-0.220003 0.31402,-1.204472 0.05176,-1.738628 0.282836,-2.858173 1.495145,-7.240501 L 21,27.28172 20.9778,24.888119 C 20.95511,22.44153 20.807681,21.321071 20.498403,21.244253 Z"/>
 <path style="fill:#c67427" d="m 45.278589,21.684903 c 0.104312,0.383665 0.19207,0.756808 0.261601,1.116486 0.265949,1.375723 0.466327,3.470228 0.466457,4.879265 1.31e-4,1.770687 0.286409,1.445376 0.459076,-0.521683 0.06649,-0.757439 0.121104,-1.20341 0.177371,-1.420002 -0.421721,-1.356835 -0.876979,-2.71539 -1.364505,-4.054066 z"/>
 <path style="fill:#c67427" d="m 36.118622,28.938829 c -0.07158,0 -0.09683,0.124572 -0.05624,0.276903 0.325834,1.223064 0.533338,3.582959 0.529313,6.018528 -0.0024,1.474271 0.04411,2.592959 0.103571,2.492855 0.343391,-0.578078 0.488769,-4.133513 0.240991,-5.8941 -0.17143,-1.218098 -0.645031,-2.894186 -0.817635,-2.894186 z"/>
 <path style="fill:#c67427" d="m 48.358778,40.212777 c -0.0181,-0.0022 -0.03812,0.0081 -0.06005,0.02925 -0.02917,0.02813 -0.17839,0.753091 -0.331837,1.611077 -0.897417,5.017857 -2.901113,10.072948 -5.487796,13.844962 -0.805383,1.174445 -1.228628,1.734069 -1.715683,2.114061 2.018731,-1.048486 3.771897,-2.432201 5.192603,-4.061979 0.07068,-0.168204 0.153868,-0.354973 0.252441,-0.555966 1.514424,-3.088003 2.306436,-6.699621 2.311414,-10.539614 0.0023,-1.798786 -0.03435,-2.426294 -0.161084,-2.441789 z"/>
 <path style="fill:#c67427" d="m 19.016213,46.23514 c -0.05991,0.01588 -0.130468,0.176288 -0.202818,0.494112 -0.176855,0.7769 0.03802,3.940443 0.326493,4.806382 0.10323,0.30988 0.367086,0.793204 0.586315,1.074052 0.219231,0.280846 0.452146,0.510654 0.517606,0.510654 0.146578,0 0.147747,0.02566 -0.01908,-0.491715 -0.581687,-1.803901 -1.033723,-4.128065 -1.036485,-5.329741 -0.0017,-0.715483 -0.07216,-1.09021 -0.172027,-1.063744 z"/>
 <path style="fill:#453f3d" d="m 30.78998,53.932786 c -1.169719,-0.25693 -2.195984,-1.008608 -2.6108,-1.91226 -0.278517,-0.606727 -0.233377,-0.991287 0.142683,-1.215566 0.450668,-0.268773 0.775121,-0.08938 1.237813,0.684403 0.462518,0.77349 1.096172,1.14856 1.940403,1.14856 0.884076,0 1.497965,-0.379572 1.960942,-1.212466 0.418341,-0.752588 0.729058,-0.911665 1.214833,-0.621953 0.380085,0.226681 0.424203,0.609069 0.141358,1.225224 -0.606412,1.321025 -2.53352,2.232154 -4.027232,1.904058 z"/>
 <path style="fill:#453f3d" d="m 20.042631,48.75739 c -0.176262,-0.445508 0.219626,-1.772867 0.717651,-2.406164 1.56726,-1.992967 4.695115,-1.737677 5.852559,0.477682 C 27.050697,47.666968 27.141159,49 26.760174,49 c -0.12334,0 -0.224277,-0.05287 -0.224277,-0.11748 0,-0.06463 -0.218669,-0.335505 -0.485933,-0.601973 -1.115906,-1.112579 -2.869325,-1.355671 -4.247736,-0.588898 -0.424291,0.236022 -0.916674,0.626957 -1.094185,0.868746 -0.366021,0.498554 -0.527226,0.546281 -0.665415,0.197003 z"/>
 <path style="fill:#453f3d" d="M 42.957369,48.75739 C 43.133632,48.311882 42.737743,46.984523 42.239718,46.351226 40.672459,44.358259 37.544604,44.613549 36.387159,46.828908 35.949304,47.666968 35.858842,49 36.239826,49 c 0.12334,0 0.224277,-0.05287 0.224277,-0.11748 0,-0.06463 0.21867,-0.335505 0.485933,-0.601973 1.115907,-1.112579 2.869326,-1.355671 4.247737,-0.588898 0.42429,0.236022 0.916673,0.626957 1.094185,0.868746 0.366019,0.498554 0.527226,0.546281 0.665414,0.197003 z"/>
 <path style="opacity:0.2;fill:#8b9cbe" d="M 31.501953 4 C 21.35154 4.1236783 12.720424 34.087661 13.007812 43.689453 C 13.284082 33.16891 21.681999 5.1196518 31.501953 5 C 41.415181 4.8792122 49.732944 33.01735 49.990234 43.722656 C 50.281279 33.903975 41.7422 3.8752276 31.501953 4 z"/>
</svg>
