<svg xmlns="http://www.w3.org/2000/svg" width="64" height="64" version="1.1">
 <path style="opacity:0.2" d="M 32,5 A 28,28 0 0 0 4,33 28,28 0 0 0 32,61 28,28 0 0 0 60,33 28,28 0 0 0 32,5 Z"/>
 <path style="fill:#494c60" d="M 32,4 A 28,28 0 0 0 4,32 28,28 0 0 0 32,60 28,28 0 0 0 60,32 28,28 0 0 0 32,4 Z"/>
 <path style="opacity:0.2" d="m 33.070312,11.0017 a 3,3 0 0 0 -0.210937,0.002 3,3 0 0 0 -2.457031,1.496094 3,3 0 0 0 1.097656,4.097656 3,3 0 0 0 3.078125,-0.04883 c 0.908609,0.98611 1.736925,2.237908 2.457031,3.695313 -3.756079,1.255439 -7.814271,3.333505 -11.453125,5.875 -2.336179,1.631663 -4.22734,3.681572 -5.701172,5.884765 -0.06263,-0.07758 -0.134026,-0.152549 -0.195312,-0.230468 -2.966139,-3.771174 -4.208658,-7.843255 -3.15625,-10.357422 0.545842,-1.303998 1.295287,-1.865664 2.238281,-2.15625 0.942994,-0.290587 2.125147,-0.234495 3.285156,0.02344 2.320019,0.515858 4.429688,1.773438 4.429688,1.773438 a 1.0006927,1.0006927 0 1 0 1.035156,-1.712891 c 0,0 -2.298386,-1.406017 -5.03125,-2.013672 -0.683216,-0.151914 -1.402212,-0.256607 -2.128906,-0.269531 -0.726694,-0.01292 -1.460272,0.06602 -2.177734,0.287109 -1.434927,0.442177 -2.753702,1.523324 -3.496094,3.296875 -1.524061,3.640931 0.215095,8.275692 3.43164,12.365235 0.211027,0.268301 0.447283,0.527195 0.671875,0.791015 -1.341177,2.441756 -2.18384,4.98011 -2.558593,7.304688 A 3,3 0 0 0 14,43.999747 a 3,3 0 0 0 3,3 3,3 0 0 0 3,-3 3,3 0 0 0 -1.755859,-2.726562 c 0.331494,-1.832956 0.999779,-3.868216 2.017578,-5.871094 3.052258,3.060824 6.980094,5.615405 11.271484,6.779297 2.594351,0.703628 5.245265,0.876079 7.705078,0.771484 -0.184264,0.81728 -0.389189,1.606037 -0.634765,2.328125 -0.642353,1.888776 -1.492461,3.404781 -2.46875,4.386719 -0.97629,0.981938 -2.023057,1.453969 -3.324219,1.402343 -2.868806,-0.113824 -4.493661,-1.426645 -5.511719,-2.742187 -1.018058,-1.315542 -1.328125,-2.566406 -1.328125,-2.566406 a 1.0001,1.0001 0 1 0 -1.941406,0.476562 c 0,0 0.405545,1.657901 1.6875,3.314453 1.281955,1.656553 3.540617,3.377826 7.013672,3.515625 1.869768,0.07419 3.539384,-0.69993 4.822265,-1.990234 1.282882,-1.290304 2.234844,-3.070973 2.94336,-5.154297 0.33196,-0.976099 0.606494,-2.025567 0.832031,-3.123047 2.038013,-0.219031 3.832405,-0.602236 5.283203,-0.990234 A 3,3 0 0 0 50.5,42.597403 a 3,3 0 0 0 1.097656,-4.097656 3,3 0 0 0 -2.667968,-1.5 A 3,3 0 0 0 47.5,37.402091 3,3 0 0 0 46.003906,39.874747 c -1.196658,0.298398 -2.677883,0.598481 -4.3125,0.804688 0.421966,-3.05522 0.483107,-6.40105 0.195313,-9.736329 -0.288788,-3.346816 -0.96999,-6.603263 -2.042969,-9.447265 0.02797,-0.0069 0.05805,-0.01667 0.08594,-0.02344 2.015045,-0.488919 3.803168,-0.627261 5.117187,-0.40039 1.314019,0.22687 2.089959,0.72872 2.515625,1.617187 2.029271,4.235579 -1.34375,8.871094 -1.34375,8.871094 a 1.0003908,1.0003908 0 0 0 1.601562,1.199219 c 0,0 4.170975,-5.452389 1.544922,-10.933594 -0.738165,-1.540729 -2.248242,-2.42587 -3.978515,-2.72461 -0.865137,-0.149369 -1.799909,-0.175876 -2.792969,-0.09766 -0.99306,0.07822 -2.043794,0.26021 -3.136719,0.525391 -0.132279,0.0321 -0.270781,0.07674 -0.404297,0.111328 -0.874777,-1.846141 -1.941743,-3.452761 -3.201172,-4.710937 A 3,3 0 0 0 34.5,11.402091 3,3 0 0 0 33.070312,11.0017 Z m 4.779297,11.080078 c 1.042942,2.658532 1.764307,5.781094 2.044922,9.033203 0.291176,3.374468 0.191552,6.766211 -0.265625,9.771485 -2.44605,0.153789 -5.091452,0.03612 -7.572265,-0.636719 -4.052606,-1.099129 -7.885735,-3.654036 -10.771485,-6.662109 1.379502,-2.199523 3.191004,-4.258324 5.441406,-5.830079 3.543885,-2.475164 7.550423,-4.500088 11.123047,-5.675781 z M 32,28.999747 c -2.195695,0 -4,1.804305 -4,4 0,2.195695 1.804305,4 4,4 2.195695,0 4,-1.804305 4,-4 0,-2.195695 -1.804305,-4 -4,-4 z"/>
 <path style="fill:none;stroke:#cff7ff;stroke-width:2;stroke-linecap:round" d="m 47.02,31.16 c 0,0 3.771662,-5.043608 1.444,-9.902 C 46.136338,16.399608 34.83912,19.872959 26.154048,25.938898 19.901592,30.305816 16.890125,38.004028 17,43"/>
 <path style="fill:none;stroke:#cff7ff;stroke-width:2;stroke-linecap:round" d="m 25,45 c 0,0 1.429096,5.818376 7.770956,6.07 C 39.112816,51.321624 41.800722,40.584644 40.89,30.030182 40.234368,22.431936 37.381574,15.402831 33,13"/>
 <path style="fill:none;stroke:#cff7ff;stroke-width:2;stroke-linecap:round" d="m 27,19.2 c 0,0 -8.817531,-5.324574 -11.394,0.830524 C 13.029531,26.185622 21.570976,37.443008 31.795292,40.216 38.932038,42.151596 46.938666,39.840092 49,39"/>
 <path style="fill:#cff7ff" d="m 32,28 c -2.195695,0 -4,1.804305 -4,4 0,2.195695 1.804305,4 4,4 2.195695,0 4,-1.804305 4,-4 0,-2.195695 -1.804305,-4 -4,-4 z"/>
 <path style="opacity:0.1;fill:#8b9cbe" d="M 32 4 A 28 28 0 0 0 4 32 A 28 28 0 0 0 4.0214844 32.40625 A 28 28 0 0 1 32 5 A 28 28 0 0 1 59.978516 32.578125 A 28 28 0 0 0 60 32 A 28 28 0 0 0 32 4 z"/>
 <path style="fill:#cff7ff" d="M 32.859376,10.003906 A 3,3 0 0 0 30.402344,11.5 3,3 0 0 0 31.5,15.597656 3,3 0 0 0 35.597656,14.5 3,3 0 0 0 34.5,10.402344 3,3 0 0 0 32.859376,10.003906 Z M 48.929688,36 A 3,3 0 0 0 47.5,36.402344 3,3 0 0 0 46.402344,40.5 3,3 0 0 0 50.5,41.597656 3,3 0 0 0 51.597656,37.5 3,3 0 0 0 48.929688,36 Z M 17,40 a 3,3 0 0 0 -3,3 3,3 0 0 0 3,3 3,3 0 0 0 3,-3 3,3 0 0 0 -3,-3 z"/>
 <path style="fill:#494c60" d="m 33,12 a 1,1 0 0 0 -1,1 1,1 0 0 0 1,1 1,1 0 0 0 1,-1 1,1 0 0 0 -1,-1 z m 16,26 a 1,1 0 0 0 -1,1 1,1 0 0 0 1,1 1,1 0 0 0 1,-1 1,1 0 0 0 -1,-1 z m -32,4 a 1,1 0 0 0 -1,1 1,1 0 0 0 1,1 1,1 0 0 0 1,-1 1,1 0 0 0 -1,-1 z"/>
</svg>
