<svg xmlns="http://www.w3.org/2000/svg" width="64" height="64" version="1">
 <rect style="opacity:0.2" width="56" height="56" x="4" y="5" rx="16.8" ry="16.8"/>
 <rect style="fill:#0dbc8a" width="56" height="56" x="4" y="4" rx="16.8" ry="16.8"/>
 <path style="opacity:0.2" d="m 28.80013,13 c -1.325466,0 -2.39909,1.073606 -2.39909,2.399089 0,1.325483 1.073624,2.402344 2.39909,2.402344 6.185666,0 11.201172,5.012333 11.201172,11.197917 0,1.3255 1.073588,2.399086 2.399088,2.399086 1.3255,0 2.39909,-1.073586 2.39909,-2.399086 C 44.79948,20.162798 37.63663,13 28.80013,13 Z m -0.800782,7.20052 C 19.162799,20.200538 12,27.363286 12,36.19987 c 0,1.3255 1.073604,2.39909 2.399089,2.39909 1.325483,0 2.402343,-1.07359 2.402343,-2.39909 0,-6.185666 5.012332,-11.201172 11.197916,-11.201172 1.3255,0 2.399088,-1.073606 2.399088,-2.39909 0,-1.325482 -1.073588,-2.399088 -2.399088,-2.399088 z m 21.601564,7.20052 c -1.3255,0 -2.402344,1.073626 -2.402344,2.39909 0,6.185668 -5.01225,11.201172 -11.197918,11.201172 -1.3255,0 -2.399086,1.073588 -2.399086,2.399088 0,1.3255 1.073586,2.39909 2.399086,2.39909 C 44.83715,45.79948 52,38.63663 52,29.80013 52,28.474664 50.926412,27.40104 49.600912,27.40104 Z m -28.001304,7.200524 c -1.325484,0 -2.399088,1.073588 -2.399088,2.399088 0,8.8365 7.162764,15.999348 15.99935,15.999348 1.3255,0 2.39909,-1.073588 2.39909,-2.399088 0,-1.3255 -1.07359,-2.402342 -2.39909,-2.402342 -6.185668,0 -11.201172,-5.012252 -11.201172,-11.197918 0,-1.3255 -1.073606,-2.399088 -2.39909,-2.399088 z"/>
 <path style="fill:#8b9cbe" d="m 28.80013,12 c -1.325466,0 -2.39909,1.073606 -2.39909,2.399089 0,1.325483 1.073624,2.402344 2.39909,2.402344 6.185666,0 11.201172,5.012333 11.201172,11.197917 0,1.3255 1.073588,2.399086 2.399088,2.399086 1.3255,0 2.39909,-1.073586 2.39909,-2.399086 C 44.79948,19.162799 37.63663,12 28.80013,12 Z m -0.800782,7.20052 C 19.162799,19.200537 12,26.363286 12,35.19987 c 0,1.3255 1.073604,2.39909 2.399089,2.39909 1.325483,0 2.402343,-1.07359 2.402343,-2.39909 0,-6.185666 5.012332,-11.201172 11.197916,-11.201172 1.3255,0 2.399088,-1.073606 2.399088,-2.39909 0,-1.325482 -1.073588,-2.399088 -2.399088,-2.399088 z m 21.601564,7.20052 c -1.3255,0 -2.402344,1.073626 -2.402344,2.39909 0,6.185668 -5.01225,11.201172 -11.197918,11.201172 -1.3255,0 -2.399086,1.073588 -2.399086,2.399088 0,1.3255 1.073586,2.39909 2.399086,2.39909 C 44.83715,44.79948 52,37.63663 52,28.80013 52,27.474664 50.926412,26.40104 49.600912,26.40104 Z m -28.001304,7.200524 c -1.325484,0 -2.399088,1.073588 -2.399088,2.399088 0,8.8365 7.162764,15.999348 15.99935,15.999348 1.3255,0 2.39909,-1.073588 2.39909,-2.399088 0,-1.3255 -1.07359,-2.402342 -2.39909,-2.402342 -6.185668,0 -11.201172,-5.012252 -11.201172,-11.197918 0,-1.3255 -1.073606,-2.399088 -2.39909,-2.399088 z"/>
 <path style="opacity:0.2;fill:#8b9cbe" d="M 20.800781 4 C 11.493581 4 4 11.493581 4 20.800781 L 4 21.800781 C 4 12.493581 11.493581 5 20.800781 5 L 43.199219 5 C 52.506419 5 60 12.493581 60 21.800781 L 60 20.800781 C 60 11.493581 52.506419 4 43.199219 4 L 20.800781 4 z"/>
</svg>
