<svg xmlns="http://www.w3.org/2000/svg" width="64" height="64" version="1">
 <circle style="fill:#ff4e4e" cx="44.14" cy="59" r="4"/>
 <path style="opacity:0.2" d="m 43.756865,4.0001153 c -0.591213,-0.00774 -1.556472,1.2766882 -2.324238,2.4257999 -1.750207,2.6195236 -3.58132,5.4847038 -5.371135,9.0938198 -1.737821,3.504267 -1.927607,3.532866 -1.738294,10.531332 -0.220182,-0.01143 -0.465213,-0.04982 -0.671883,-0.05079 -1.175768,0.109441 -2.238042,0.368076 -3.207054,0.734382 -3.216015,-4.662218 -8.386702,-8.749387 -14.691521,-12.339936 -0.552838,-0.314832 -0.955397,-0.443617 -1.234385,-0.425783 -1.952922,0.124829 2.163601,7.49053 3.375027,9.363354 1.098816,1.698624 3.825579,4.594693 6.007857,6.937552 0.398155,0.427427 0.746842,0.79119 1.089855,1.148444 -0.129165,0.217829 -0.2649,0.428945 -0.382816,0.656257 -0.268069,0.829906 -0.414065,1.750428 -0.414065,2.757834 0,3.484539 1.08928,6.178565 0.77735,9.718826 -0.422716,4.798079 -4.024588,7.694505 -2.425802,12.031342 0.03317,0.106057 0.04312,0.200547 0.08203,0.308594 0.33009,0.91682 0.987182,1.866341 1.910171,2.925805 0.149448,0.171546 0.326064,0.321749 0.507815,0.468754 0.0092,0.0074 0.02219,0.0121 0.03124,0.0195 0.31692,0.253127 0.67885,0.469702 1.078132,0.656257 0.153123,0.07432 0.316879,0.138039 0.480474,0.203126 0.194519,0.07443 0.397968,0.140527 0.60547,0.203126 0.20102,0.06282 0.377401,0.147519 0.58985,0.199225 0.754122,0.183515 1.574073,0.303017 2.417991,0.375004 0.287313,0.02448 0.574949,0.04424 0.867192,0.05859 l 0.250002,-0.03124 c 0.0507,0.002 0.101574,-0.0017 0.152339,0 2.914047,0.0992 5.942373,-0.220138 7.726623,-0.316409 0.0012,-6.9e-5 0.0027,7.2e-5 0.0038,0 0.433199,-0.02333 0.867259,-0.06735 1.30079,-0.136717 0.669765,-0.107223 1.333253,-0.271612 1.98439,-0.480473 0.0011,-3.7e-4 0.0027,3.72e-4 0.0038,0 0.652293,-0.209424 1.292126,-0.464344 1.90236,-0.76563 0.527212,-0.260326 1.032176,-0.553135 1.511729,-0.875006 0,0 0.0038,0 0.0038,0 0.339865,-0.228199 0.667121,-0.474183 0.976569,-0.730476 0.931373,-0.770726 1.714839,-1.661675 2.273457,-2.64455 0.156867,-0.276012 0.294289,-0.562002 0.414064,-0.851572 0.12318,-0.297193 0.223679,-0.600217 0.30469,-0.910161 0.07697,-0.295778 0.136313,-0.596319 0.171882,-0.902352 4.53e-4,-0.0038 -4.46e-4,-0.0078 0,-0.01165 0.03523,-0.307903 0.04864,-0.620609 0.03907,-0.937509 -1.17e-4,-0.0038 1.21e-4,-0.0078 0,-0.01165 -3.81e-4,-0.01188 4.43e-4,-0.02329 0,-0.03517 -0.01614,-1.351687 -0.432585,-2.780949 -1.375012,-4.234407 -3.070398,-4.735062 -6.401246,-10.545432 -6.57427,-16.87513 -0.09299,-0.922164 -0.421143,-1.727933 -0.925788,-2.414081 -0.395704,-0.485171 -0.886954,-0.88508 -1.429699,-1.230479 0.140123,-0.298685 0.283228,-0.643728 0.414065,-0.906259 2.626715,-5.272135 3.191762,-13.300109 3.941439,-19.6681181 0.263485,-2.237982 0.03014,-3.0252472 -0.429692,-3.0312735 z"/>
 <path style="fill:#895c33" d="m 43.757656,3.0001015 c -0.591213,-0.00774 -1.556922,1.2764146 -2.324689,2.4255263 -1.750206,2.6195236 -3.582256,5.4852442 -5.372071,9.0943602 -1.779899,3.589116 -1.942911,3.420074 -1.730573,10.945392 1.329861,0.07373 4.146832,0.77378 5.388269,1.39536 0.181117,-0.312272 0.358638,-0.825751 0.525985,-1.161535 2.626714,-5.272137 3.191278,-13.300549 3.940955,-19.6685583 0.263484,-2.2379817 0.03196,-3.0245189 -0.427876,-3.0305452 z M 14.51765,12.968099 c -1.952922,0.124829 2.162508,7.491346 3.373933,9.364168 1.098816,1.698624 3.827031,4.594243 6.009309,6.937102 0.467627,0.502008 0.885101,0.937491 1.280897,1.349029 0,0 0.254764,0.35124 0.421217,0.200661 0.941123,-0.851414 4.000411,-4.156654 5.167736,-4.606319 L 30.61605,25.969027 C 27.413496,21.208014 22.163665,17.047246 15.752215,13.395973 15.199376,13.081141 14.796638,12.950265 14.51765,12.968099 Z"/>
 <path style="opacity:0.1;fill:#8b9cbe" d="m 43.757463,3.0000339 c -0.591214,-0.00774 -1.556473,1.27669 -2.324239,2.4258016 -1.750207,2.6195237 -3.583278,5.4847095 -5.373092,9.0938255 -1.406938,2.837053 -1.787539,3.476439 -1.787125,7.273499 0.06399,-3.013443 0.497064,-3.672118 1.787125,-6.27349 1.789814,-3.609116 3.622885,-6.4743025 5.373092,-9.0938261 0.767766,-1.1491117 1.733025,-2.4335451 2.324239,-2.4258016 0.272643,0.00357 0.449334,0.3332127 0.505863,1.0253992 0.07922,-1.4349176 -0.127578,-2.02045 -0.505863,-2.0254076 z M 14.516981,12.968868 c -0.504995,0.03228 -0.598668,0.553476 -0.447271,1.333995 0.07598,-0.19667 0.216049,-0.319208 0.447271,-0.333987 0.278988,-0.01783 0.681546,0.112906 1.234385,0.427738 6.195068,3.528045 11.288728,7.536475 14.515748,12.097758 0.189803,-0.128839 0.362504,-0.226782 0.50391,-0.281252 l -0.154298,-0.244144 c -3.202554,-4.761011 -8.45391,-8.921097 -14.86536,-12.572371 -0.552839,-0.314832 -0.955397,-0.445571 -1.234385,-0.427737 z"/>
 <path style="fill:#c37e3f" d="m 33.651371,25.000266 c -4.406907,0.410156 -7.321253,2.751271 -9.044868,6.073961 -0.268069,0.829906 -0.413119,1.751025 -0.413119,2.758431 0,3.484539 1.088925,6.176456 0.776996,9.716714 -0.422714,4.798082 -4.022793,7.694795 -2.424006,12.031631 0.03317,0.106057 0.04318,0.202947 0.08207,0.310999 0.330092,0.916818 0.986663,1.866639 1.909653,2.926104 0.149448,0.171547 0.327124,0.320849 0.508875,0.46785 0.725264,0.598883 1.682434,1.013501 2.785143,1.281862 0.75412,0.183515 1.57188,0.303915 2.415795,0.375902 0.287317,0.02447 0.577771,0.04243 0.870015,0.05677 l 0.248964,-0.03248 c 2.96164,0.115672 6.064796,-0.216034 7.879379,-0.313702 0.433437,-0.02333 0.868512,-0.07125 1.302282,-0.140617 1.339943,-0.214378 2.663213,-0.643419 3.882235,-1.244 h 0.0081 c 0.05899,-0.02972 0.111144,-0.06941 0.169619,-0.10005 0.464469,-0.237606 0.919888,-0.490262 1.346059,-0.776147 1.36398,-0.914841 2.505422,-2.064522 3.250244,-3.375023 0.635616,-1.118329 0.979075,-2.35377 0.930204,-3.658979 -0.01614,-1.351685 -0.430991,-2.778842 -1.373418,-4.232301 -3.070398,-4.735062 -6.401331,-10.548123 -6.574355,-16.87782 -0.09299,-0.922163 -0.420087,-1.726125 -0.924733,-2.412275 -1.733403,-2.125308 -5.193709,-2.825549 -7.611258,-2.836859 z"/>
 <path style="fill:#8e8e8e" d="m 40.052895,43.006839 c 1.593224,0 3.066204,-0.03366 4.166323,0.349847 1.187348,0.413823 1.94007,1.313672 1.94007,3.266334 0,1.785762 -2.778387,4.40487 -3.604566,6.853273 0.277981,2.103415 0.954292,4.186135 1.885083,5.792013 0.527215,-0.260324 1.034423,-0.552955 1.513975,-0.874826 1.363233,-0.914841 2.503577,-2.064988 3.247988,-3.375492 1.255778,-2.210671 1.384992,-4.877595 -0.442821,-7.640484 -4.430012,-8.630187 -21.907814,-2.45528 -25.229915,1.19388 -0.171456,1.159653 -2.20066,3.676808 -0.889116,7.321541 0.329912,0.916814 0.986105,1.865044 1.908586,2.924509 0.745619,0.856248 1.914821,1.396329 3.293029,1.725062 0.753708,0.179794 1.569832,0.296326 2.413282,0.366843 0.287163,0.02396 0.577387,0.04263 0.869469,0.05668 -0.0019,-1.347764 0.09521,-2.690574 0.06614,-3.972889 -0.0025,-0.111481 -0.0061,-0.222536 -0.01053,-0.333061 -0.289896,-2.943092 -5.7015,-3.508507 -5.7015,-7.644815 0,-0.857728 0.283883,-1.596695 0.777426,-2.232628 2.452856,-3.160236 10.084698,-3.775795 13.797265,-3.775795 v 0 z"/>
 <path style="fill:#b2bfd9" d="m 40.052895,43.006839 c -3.712568,0 -11.344409,0.615561 -13.797266,3.775797 1.650397,2.12643 2.947168,4.085532 4.119209,6.349513 0.557055,1.076144 0.752507,2.269995 0.804863,3.527927 0.01053,0.107783 0.01412,0.218613 0.01053,0.333064 0.02907,1.282313 -0.06811,2.625122 -0.06612,3.972889 3.033515,0.145705 6.259098,-0.211126 8.123419,-0.311526 0.4332,-0.02333 0.868156,-0.07042 1.301686,-0.139788 1.342023,-0.214847 2.669948,-0.643851 3.890416,-1.246427 -0.930793,-1.605878 -1.607104,-3.688598 -1.885085,-5.792013 -0.0916,-0.69283 -0.139945,-1.387776 -0.139945,-2.068787 0,-2.131174 0.799069,-5.87488 1.804414,-8.050925 -1.100115,-0.383417 -2.573097,-0.349742 -4.166321,-0.349742 v 0 z"/>
 <path style="fill:#17191e" d="m 30.374838,53.132149 c -1.172041,-2.263981 -2.468812,-4.223083 -4.119209,-6.349513 -0.493543,0.635933 -0.777424,1.374898 -0.777424,2.232628 0,4.136308 5.411604,4.701723 5.701496,7.644812 -0.05236,-1.257932 -0.247808,-2.451783 -0.804863,-3.527927 z"/>
 <path style="fill:#17191e" d="m 44.219218,43.356583 c -1.005345,2.176043 -1.804419,5.919749 -1.804419,8.050923 0,0.681011 0.04832,1.375959 0.139945,2.068787 0.82618,-2.448403 3.604564,-5.067511 3.604564,-6.853273 0,-1.952662 -0.752721,-2.852511 -1.940068,-3.266437 z"/>
 <path style="opacity:0.2;fill:#8b9cbe" d="m 33.651908,25.000219 c -4.406907,0.410156 -7.321384,2.751579 -9.044999,6.074269 -0.268068,0.829906 -0.414065,1.75043 -0.414065,2.757836 0,0.171677 0.01258,0.333931 0.01758,0.501956 0.04015,-0.813205 0.173625,-1.569834 0.396487,-2.259783 1.723615,-3.322691 4.638092,-5.664113 9.044998,-6.074271 2.417549,0.01131 5.877991,0.710655 7.611393,2.835962 0.504647,0.686151 0.830846,1.49192 0.923837,2.414083 0.173023,6.329698 3.503877,12.142032 6.574273,16.877094 0.8739,1.347771 1.278305,2.670294 1.347668,3.933627 0.01642,-0.232239 0.03427,-0.464049 0.02539,-0.701177 -0.01614,-1.351686 -0.430631,-2.779 -1.373058,-4.232458 -3.070397,-4.735061 -6.401251,-10.547396 -6.574274,-16.877095 -0.09299,-0.922163 -0.41919,-1.727932 -0.923837,-2.414081 -1.733402,-2.125309 -5.193844,-2.824654 -7.611393,-2.835962 z m -8.644604,17.722804 c -0.0083,0.273189 -0.01216,0.542973 -0.03711,0.826179 -0.36509,4.144016 -3.093852,6.87195 -2.802758,10.332117 0.226422,-3.00916 2.473507,-5.594895 2.802758,-9.332108 0.05595,-0.634988 0.05693,-1.236315 0.03711,-1.826188 z"/>
 <path style="opacity:0.2;fill:#8b9cbe" d="m 40.052353,43.006228 c -3.712567,0 -11.344135,0.61714 -13.796992,3.777376 0.144681,0.186413 0.272713,0.366628 0.412113,0.550786 2.79859,-2.767592 9.856699,-3.328153 13.384879,-3.328153 1.426405,0 2.740648,-0.0097 3.793001,0.259768 0.120826,-0.323699 0.244201,-0.631272 0.37305,-0.910164 -1.100114,-0.383417 -2.572828,-0.349613 -4.166051,-0.349613 z m 2.38088,8.943436 c -0.0067,0.153484 -0.01953,0.316636 -0.01953,0.457035 0,0.681011 0.04903,1.377498 0.140626,2.070329 0.234011,1.770693 0.761867,3.507362 1.474622,4.976604 0.136651,-0.06199 0.275983,-0.119301 0.410161,-0.185549 -0.930793,-1.605878 -1.606801,-3.687648 -1.884783,-5.791064 -0.06748,-0.510437 -0.102605,-1.02104 -0.121093,-1.527355 z m -11.252049,5.791063 c -0.0087,1.054999 -0.05825,2.133686 -0.05664,3.224637 0.0072,3.42e-4 0.01436,-3.36e-4 0.02148,0 0.02509,-1.008026 0.06676,-2.009389 0.04493,-2.972681 0.0027,-0.08686 -0.0044,-0.169017 -0.0098,-0.251956 z"/>
 <path style="opacity:0.2" d="m 38.290029,34.088376 c -0.848125,0.239203 -2.218637,3.928684 -2.220125,5.135381 -0.002,1.576602 0.496733,2.18119 1.449542,2.897836 0.952805,0.716649 5.538174,1.59352 5.54928,-0.08555 0.01098,-1.653431 -0.04972,-3.057633 -0.271789,-3.987193 -0.222079,-0.929565 -0.674258,-2.690958 -1.585603,-3.449414 -0.572671,-0.47658 -2.073181,-0.750263 -2.921305,-0.511058 z"/>
 <path style="fill:#8b9cbe" d="m 38.290029,33.088368 c -0.848125,0.239202 -2.218637,3.928684 -2.220125,5.13538 -0.002,1.576603 0.496733,2.18119 1.449542,2.897837 0.952805,0.716648 5.538174,1.593519 5.54928,-0.08555 0.01098,-1.653431 -0.04972,-3.057633 -0.271789,-3.987193 -0.222079,-0.929565 -0.674258,-2.690958 -1.585603,-3.449414 -0.572671,-0.476579 -2.073181,-0.750263 -2.921305,-0.511058 z"/>
 <circle style="fill:#17191e" cx="38.57" cy="38.501" r="1.501"/>
 <path style="opacity:0.2" d="m 33.007681,38.483931 c -0.165221,-1.235352 -1.786316,-3.325158 -2.811135,-3.988005 -2.588328,-1.674161 -4.324823,1.233759 -4.108583,3.652175 0.160612,1.797339 1.122812,6.753837 3.330113,5.709144 2.207303,-1.044691 4.013875,-2.202888 3.589605,-5.373314 z"/>
 <path style="fill:#8b9cbe" d="m 33.007681,37.483922 c -0.165221,-1.235351 -1.786316,-3.325157 -2.811135,-3.988004 -2.588328,-1.674162 -4.324823,1.233758 -4.108583,3.652174 0.160612,1.79734 1.122812,6.753837 3.330113,5.709145 2.207303,-1.044692 4.013875,-2.202888 3.589605,-5.373315 z"/>
 <circle style="fill:#17191e" cx="30.57" cy="38.501" r="1.501"/>
</svg>
