<svg xmlns="http://www.w3.org/2000/svg" width="64" height="64" version="1">
 <path style="opacity:0.2" d="m 4.0000004,56.200069 0,1.999971 c 0,1.549978 1.2495821,2.79996 2.80076,2.79996 L 57.20004,61 C 58.750017,61 60,59.750018 60,58.20004 l 0,-1.999971 c 0,1.549977 -1.249983,2.79996 -2.79996,2.79996 l -50.3992796,0 c -1.5503779,0 -2.79996,-1.249983 -2.79996,-2.79996 z"/>
 <rect style="fill:#c41f5b" width="56" height="56" x="4" y="4" rx="2.8" ry="2.8"/>
 <path style="opacity:0.2" d="m 15.999829,9.000687 0,31.999542 L 31.9996,57 47.999371,41.000229 l -15.999771,0 15.999771,-15.999771 -15.999771,0 15.999771,-15.999771 -31.999542,0 z"/>
 <path style="fill:#8b9cbe" d="m 47.999371,40.000315 -15.999771,0 0,15.999771 z"/>
 <path style="fill:#8b9cbe" d="m 47.999371,24.000543 -15.999771,0 0,15.999772 z"/>
 <path style="fill:#ea7aa2" d="m 47.999371,8.0007722 -15.999771,0 0,15.9997708 z"/>
 <path style="fill:#e0e0e0" d="m 15.999829,40.000315 15.999771,0 0,15.999771 z"/>
 <rect style="fill:#e0e0e0" width="16" height="32" x="16" y="8"/>
 <path style="opacity:0.2;fill:#8b9cbe" d="M 6.8007812 4 C 5.2496034 4 4 5.2496034 4 6.8007812 L 4 7.8027344 C 4 6.2515566 5.2496034 5.0019531 6.8007812 5.0019531 L 57.199219 5.0019531 C 58.749196 5.0019531 60 6.2515566 60 7.8027344 L 60 6.8007812 C 60 5.2496035 58.749196 4 57.199219 4 L 6.8007812 4 z"/>
</svg>
