<svg xmlns="http://www.w3.org/2000/svg" width="64" height="64" version="1">
 <rect style="opacity:0.2" width="57" height="57" x="3" y="4" rx="2" ry="2"/>
 <rect style="fill:#b2bfd9" width="57" height="57" x="3" y="3" rx="2" ry="2"/>
 <rect style="fill:#4f4f4f" width="5" height="34.2" x="9" y="14.4"/>
 <rect style="fill:#4f4f4f" width="5" height="45.6" x="44" y="-54.3" transform="rotate(90)"/>
 <path style="fill:none;stroke:#4f4f4f;stroke-width:5;stroke-linecap:round" d="m 20.139319,35.764666 c 0,0 5.034123,-1.296065 7.553256,-1.935998 2.524616,-0.641324 5.179101,-1.463166 7.577954,-2.478293 2.735448,-1.157565 5.440687,-2.05484 7.577954,-4.11753 2.463099,-2.377154 5.70944,-8.535897 5.70944,-8.535897"/>
 <circle style="opacity:0.1" cx="11.5" cy="15.5" r="5.5"/>
 <circle style="fill:#f45b5b" cx="11.5" cy="14.5" r="5.5"/>
 <circle style="opacity:0.1" cx="11.5" cy="47.5" r="5.5"/>
 <circle style="fill:#f45b5b" cx="11.5" cy="46.5" r="5.5"/>
 <circle style="opacity:0.1" cx="51.5" cy="47.5" r="5.5"/>
 <circle style="fill:#f45b5b" cx="51.5" cy="46.5" r="5.5"/>
 <circle style="opacity:0.1" cx="48.5" cy="20.5" r="5.5"/>
 <circle style="fill:#14b141" cx="48.5" cy="19.5" r="5.5"/>
 <circle style="opacity:0.1" cx="21.5" cy="35.5" r="5.5"/>
 <circle style="fill:#14b141" cx="21.5" cy="34.5" r="5.5"/>
 <circle style="opacity:0.1" cx="36.5" cy="31.5" r="5.5"/>
 <circle style="fill:#14b141" cx="36.5" cy="30.5" r="5.5"/>
 <path style="fill:#8b9cbe;opacity:0.2" d="M 5 3 C 3.892 3 3 3.892 3 5 L 3 6 C 3 4.892 3.892 4 5 4 L 58 4 C 59.108 4 60 4.892 60 6 L 60 5 C 60 3.892 59.108 3 58 3 L 5 3 z"/>
</svg>
