<svg xmlns="http://www.w3.org/2000/svg" width="64" height="64" version="1">
 <circle style="opacity:.2" cx="40" cy="41" r="20"/>
 <circle style="fill:#2c80a2" cx="40" cy="40" r="20"/>
 <circle style="opacity:.2" cx="40" cy="41" r="12"/>
 <circle style="fill:#8b9cbe" cx="40" cy="40" r="12"/>
 <circle style="opacity:.2" cx="24" cy="25" r="20"/>
 <circle style="fill:#37abc8" cx="24" cy="24" r="20"/>
 <circle style="opacity:.2" cx="24" cy="25" r="12"/>
 <circle style="fill:#8b9cbe" cx="24" cy="24" r="12"/>
 <path style="opacity:.2;stroke:#000000;stroke-linecap:round;stroke-width:2;fill:none" d="m39.01399 44.985892s-1.306868-9.400722-6-14c-4.69313-4.599284-12-6-12-6"/>
 <path style="stroke:#ff6e4c;stroke-linecap:round;stroke-width:2;fill:none" d="m39.01399 43.985892s-1.306868-9.400722-6-14c-4.69313-4.599284-12-6-12-6"/>
 <path style="opacity:.2;stroke:#000000;stroke-linecap:round;stroke-width:2;fill:none" d="m25.002048 20.997238s1.306868 9.400722 6 14c4.69313 4.599284 12 6 12 6"/>
 <path style="stroke:#ff6e4c;stroke-linecap:round;stroke-width:2;fill:none" d="m25.002048 19.997238s1.306868 9.400722 6 14c4.69313 4.599284 12 6 12 6"/>
 <path style="opacity:.2;fill:#8b9cbe" d="m24 4a20 20 0 0 0 -20 20 20 20 0 0 0 0.0175781 0.494141 20 20 0 0 1 19.9824219 -19.494141 20 20 0 0 1 19.974609 19.490234 20 20 0 0 0 0.025391 -0.490234 20 20 0 0 0 -20 -20z"/>
</svg>
