<svg xmlns="http://www.w3.org/2000/svg" width="64" height="64" version="1">
 <rect style="opacity:0.2" width="56" height="56" x="4" y="5" rx="28" ry="28"/>
 <rect style="fill:#2869b6" width="56" height="56" x="4" y="4" rx="28" ry="28"/>
 <path style="opacity:0.2" d="m 32,5.000376 c -4.097466,0 -7.971614,0.8926846 -11.472656,2.4609376 L 24,10.601938 v 3.730469 l 4.265624,4.667969 h 1.867188 V 16.199595 L 32,13.398814 V 11.535532 L 34,9.6683448 V 5.1019384 C 33.336878,5.0553754 32.675368,5.000376 32,5.000376 Z m -19.613281,8 C 7.6101352,17.684458 4.5386864,24.074938 4.0898438,31.207408 L 14,39.535532 v -2.80078 l -2,-2.734376 2.265625,-0.933594 h 1.867187 l 1.839844,1.867188 0.05469,-4.921876 2.773436,-3.011718 H 22 v -1.464844 l 2,-1.867188 v -2.80078 L 22.539062,19.02772 18,18.973032 v 4.027344 H 16.132812 L 14,20.867564 v -1.867188 l 3.066406,-2 H 20 V 14.332407 L 18,13.000376 Z M 46,13.398814 44,16.199595 v 1.800781 h 2 v -1 h 2 v 2.058594 l -1.066406,0.941406 H 42 v 2 h -2 v 3 h -4 v 3 h 6 v -1 h 3 v 0.398438 l 1.933594,1.601562 H 48 v -0.667968 l -1,-0.933594 v -0.398438 h 1.800782 l 2.80078,2 H 54 v 1.199218 l -0.535156,0.800782 h -1.863282 l 7.769532,7.898438 C 59.776226,36.99671 60,35.02679 60,33.000376 60,25.349322 56.952262,18.442883 52.011718,13.398814 h -5.078124 z m 5.601562,17.601562 H 46 l -0.933594,-1 H 37.933594 L 34,33.93397 v 3.734374 l 3.933594,3.332032 h 2.199218 L 42,43.266 v 0.933594 l 2.132812,0.933594 v 5.601564 l 4.664064,4.660156 C 50.744754,53.9342 52.494842,52.236366 54,50.324594 V 43.266 l 2.265624,-1.867186 v -3.73047 l -4.664062,-4.667968 z m -35.46875,8 L 14,40.867564 v 4.265624 l 4.027344,3.800782 -0.03906,8.304688 c 1.276593,0.737212 2.616734,1.37104 4.011718,1.902342 v -1.875 l 2,-2.80078 v -1.863282 l 4,-2.80078 V 47.93397 l 2,-1.867188 v -3.33203 l -2.66797,-1.734376 h -3.73047 l -1.867186,-2 z"/>
 <path style="fill:#659cdb" d="M 32,4 C 27.902534,4 24.028386,4.8926846 20.527344,6.4609376 L 24,9.6015624 V 13.332031 L 28.265624,18 h 1.867188 V 15.199219 L 32,12.398438 V 10.535156 L 34,8.6679688 V 4.1015624 C 33.336878,4.0549994 32.675368,4 32,4 Z M 12.386719,12 C 7.6101352,16.684082 4.5386864,23.074562 4.0898438,30.207032 L 14,38.535156 v -2.80078 L 12,33 14.265625,32.066406 h 1.867187 l 1.839844,1.867188 0.05469,-4.921876 L 20.800782,26 H 22 v -1.464844 l 2,-1.867188 v -2.80078 L 22.539062,18.027344 18,17.972656 V 22 H 16.132812 L 14,19.867188 V 18 l 3.066406,-2 H 20 V 13.332031 L 18,12 Z M 46,12.398438 44,15.199219 V 17 h 2 v -1 h 2 v 2.058594 L 46.933594,19 H 42 v 2 h -2 v 3 h -4 v 3 h 6 v -1 h 3 v 0.398438 L 46.933594,28 H 48 V 27.332032 L 47,26.398438 V 26 h 1.800782 l 2.80078,2 H 54 v 1.199218 L 53.464844,30 h -1.863282 l 7.769532,7.898438 C 59.776226,35.996334 60,34.026414 60,32 60,24.348946 56.952262,17.442507 52.011718,12.398438 H 46.933594 Z M 51.601562,30 H 46 L 45.066406,29 H 37.933594 L 34,32.933594 v 3.734374 L 37.933594,40 h 2.199218 L 42,42.265624 v 0.933594 l 2.132812,0.933594 v 5.601564 l 4.664064,4.660156 C 50.744754,52.933824 52.494842,51.23599 54,49.324218 v -7.058594 l 2.265624,-1.867186 v -3.73047 L 51.601562,32 Z M 16.132812,38 14,39.867188 v 4.265624 l 4.027344,3.800782 -0.03906,8.304688 c 1.276593,0.737212 2.616734,1.37104 4.011718,1.902342 v -1.875 l 2,-2.80078 v -1.863282 l 4,-2.80078 v -1.867188 l 2,-1.867188 v -3.33203 L 27.332032,40 h -3.73047 l -1.867186,-2 z"/>
 <path style="opacity:0.2" d="m 23.814349,33.00038 c -0.274322,0.0064 -0.537362,0.107744 -0.742072,0.285862 L 5.3880633,47.274683 c -0.7340374,0.637738 -0.3679805,1.820863 0.6053755,1.956623 l 6.8572012,0.963047 -3.21379,5.536833 c -0.7181892,1.237521 -0.2926358,2.810217 0.951304,3.524698 l 0.689068,0.396876 c 1.243939,0.714484 2.82479,0.291127 3.542979,-0.946394 l 3.33654,-5.750534 4.890427,3.943778 c 0.752882,0.609242 1.893298,0.08793 1.894239,-0.865911 l 0.05859,-21.903749 c 0.0018,-0.634897 -0.534555,-1.145902 -1.185648,-1.12957 z"/>
 <path style="fill:#8b9cbe" d="m 23.814349,32.00038 c -0.274322,0.0064 -0.537362,0.107744 -0.742072,0.285862 L 5.3880633,46.274683 c -0.7340374,0.637738 -0.3679805,1.820863 0.6053755,1.956623 l 6.8572012,0.963047 -3.21379,5.536833 c -0.7181892,1.237521 -0.2926358,2.810217 0.951304,3.524698 l 0.689068,0.396876 c 1.243939,0.714484 2.82479,0.291127 3.542979,-0.946394 l 3.33654,-5.750534 4.890427,3.943778 c 0.752882,0.609242 1.893298,0.08793 1.894239,-0.865911 l 0.05859,-21.903749 c 0.0018,-0.634897 -0.534555,-1.145902 -1.185648,-1.12957 z"/>
 <path style="fill:#8b9cbe;opacity:0.1" d="M 32 4 C 16.488 4 4 16.488 4 32 C 4 32.167704 4.0107645 32.333014 4.0136719 32.5 C 4.2796807 17.221478 16.655704 5 32 5 C 47.344296 5 59.720319 17.221478 59.986328 32.5 C 59.989235 32.333014 60 32.167704 60 32 C 60 16.488 47.512 4 32 4 z"/>
 <path style="opacity:0.2;fill:#8b9cbe" d="M 32 4 C 27.902534 4 24.028386 4.8926845 20.527344 6.4609375 L 21.283203 7.1445312 C 24.583973 5.7779669 28.193761 5 32 5 C 32.675368 5 33.336878 5.0549995 34 5.1015625 L 34 4.1015625 C 33.336878 4.0549995 32.675368 4 32 4 z M 12.386719 12 C 7.610135 16.684082 4.5386863 23.074561 4.0898438 30.207031 L 4.1699219 30.275391 C 4.8172654 23.519576 7.8195349 17.478737 12.386719 13 L 18 13 L 20 14.332031 L 20 13.332031 L 18 12 L 12.386719 12 z M 46 12.398438 L 44 15.199219 L 44 16.199219 L 46 13.398438 L 46.933594 13.398438 L 52.011719 13.398438 C 56.838897 18.326765 59.850265 25.035033 59.986328 32.476562 C 59.989095 32.317354 60 32.159918 60 32 C 60 24.348946 56.952263 17.442507 52.011719 12.398438 L 46.933594 12.398438 L 46 12.398438 z M 18 17.972656 L 18 18.972656 L 22.539062 19.027344 L 24 20.867188 L 24 19.867188 L 22.539062 18.027344 L 18 17.972656 z M 48 18.058594 L 46.933594 19 L 42 19 L 42 20 L 46.933594 20 L 48 19.058594 L 48 18.058594 z M 14 19.867188 L 14 20.867188 L 16.132812 23 L 18 23 L 18 22 L 16.132812 22 L 14 19.867188 z M 40 21 L 40 22 L 42 22 L 42 21 L 40 21 z M 36 24 L 36 25 L 40 25 L 40 24 L 36 24 z M 47 27 L 47 27.398438 L 47.644531 28 L 48 28 L 48 27.332031 L 47.644531 27 L 47 27 z M 37.933594 29 L 34 32.933594 L 34 33.933594 L 37.933594 30 L 45.066406 30 L 46 31 L 51.601562 31 L 51.601562 30 L 46 30 L 45.066406 29 L 37.933594 29 z M 51.601562 30 L 52.585938 31 L 53.464844 31 L 54 30.199219 L 54 29.199219 L 53.464844 30 L 51.601562 30 z M 51.601562 32 L 51.601562 33 L 56.265625 37.667969 L 56.265625 36.667969 L 51.601562 32 z M 12.5625 33.767578 L 12 34 L 14 36.734375 L 14 35.734375 L 12.5625 33.767578 z M 16.132812 38 L 14 39.867188 L 14 40.867188 L 16.132812 39 L 21.734375 39 L 23.601562 41 L 27.332031 41 L 30 42.734375 L 30 41.734375 L 27.332031 40 L 23.601562 40 L 21.734375 38 L 16.132812 38 z M 18.023438 48.929688 L 17.988281 56.238281 C 17.98954 56.239008 17.990929 56.239508 17.992188 56.240234 L 18.027344 48.933594 L 18.023438 48.929688 z"/>
</svg>
