<svg xmlns="http://www.w3.org/2000/svg" width="64" height="64" version="1.1">
 <circle style="opacity:0.2" cx="32" cy="33" r="28"/>
 <circle style="fill:#4f4f4f" cx="32" cy="32" r="28"/>
 <circle style="fill:#17191e" cx="32" cy="32" r="20"/>
 <path style="opacity:0.2" d="M 32,13 A 20.000001,20.000001 0 0 0 12,33 20.000001,20.000001 0 0 0 32,53 20.000001,20.000001 0 0 0 52,33 20.000001,20.000001 0 0 0 32,13 Z m 0,3 a 17.000277,17.000277 0 0 1 5.246094,0.837891 L 34.833984,21.667969 32,27.332031 29.166016,21.667969 26.759766,16.847656 A 17.000277,17.000277 0 0 1 32,16 Z m -7.720703,1.853516 1.710937,5.130859 2.001954,6.007813 -6.007813,-2.001954 -5.113281,-1.705078 a 17.000277,17.000277 0 0 1 3.283203,-4.480468 17.000277,17.000277 0 0 1 4.125,-2.951172 z m 15.435547,0.01758 a 17.000277,17.000277 0 0 1 4.480468,3.283203 17.000277,17.000277 0 0 1 2.951172,4.125 l -5.130859,1.710937 -6.007813,2.001954 2.001954,-6.007813 1.705078,-5.113281 z m -23.876953,9.882812 4.830078,2.41211 L 26.332031,33 l -5.664062,2.833984 -4.820313,2.40625 A 17.000277,17.000277 0 0 1 15,33 17.000277,17.000277 0 0 1 15.837891,27.753906 Z m 32.314453,0.0059 A 17.000277,17.000277 0 0 1 49,33 17.000277,17.000277 0 0 1 48.162109,38.246094 L 43.332031,35.833984 37.667969,33 l 5.664062,-2.833984 4.820313,-2.40625 z M 32,29 A 0.99990203,0.99990203 0 0 1 32.998047,30 0.99990203,0.99990203 0 0 1 32,31 0.99990203,0.99990203 0 0 1 31,30 0.99990203,0.99990203 0 0 1 32,29 Z m -3,3 a 0.99990203,0.99990203 0 0 1 1,1 0.99990203,0.99990203 0 0 1 -1,0.998047 A 0.99990203,0.99990203 0 0 1 28,33 0.99990203,0.99990203 0 0 1 29,32 Z m 6,0 a 0.99990203,0.99990203 0 0 1 1,1 0.99990203,0.99990203 0 0 1 -1,0.998047 A 0.99990203,0.99990203 0 0 1 34,33 0.99990203,0.99990203 0 0 1 35,32 Z m -3,3 A 0.99990203,0.99990203 0 0 1 32.998047,36 0.99990203,0.99990203 0 0 1 32,37 0.99990203,0.99990203 0 0 1 31,36 0.99990203,0.99990203 0 0 1 32,35 Z m -4.007812,2.007812 -2.001954,6.007813 -1.705078,5.113281 a 17.000277,17.000277 0 0 1 -4.480468,-3.283203 17.000277,17.000277 0 0 1 -2.951172,-4.125 l 5.130859,-1.710937 6.007813,-2.001954 z m 8.015624,0 6.007813,2.001954 5.113281,1.705078 a 17.000277,17.000277 0 0 1 -3.283203,4.480468 17.000277,17.000277 0 0 1 -4.125,2.951172 L 38.009766,43.015625 36.007812,37.007812 Z M 32,38.667969 l 2.833984,5.664062 2.40625,4.820313 A 17.000277,17.000277 0 0 1 32,50 17.000277,17.000277 0 0 1 26.753906,49.162109 L 29.166016,44.332031 32,38.667969 Z"/>
 <path style="fill:#afafb1" d="M 32 12 A 20.000001 20.000001 0 0 0 12 32 A 20.000001 20.000001 0 0 0 32 52 A 20.000001 20.000001 0 0 0 52 32 A 20.000001 20.000001 0 0 0 32 12 z M 32 15 A 17.000277 17.000277 0 0 1 37.246094 15.837891 L 34.833984 20.667969 L 32 26.332031 L 29.166016 20.667969 L 26.759766 15.847656 A 17.000277 17.000277 0 0 1 32 15 z M 24.279297 16.853516 L 25.990234 21.984375 L 27.992188 27.992188 L 21.984375 25.990234 L 16.871094 24.285156 A 17.000277 17.000277 0 0 1 20.154297 19.804688 A 17.000277 17.000277 0 0 1 24.279297 16.853516 z M 39.714844 16.871094 A 17.000277 17.000277 0 0 1 44.195312 20.154297 A 17.000277 17.000277 0 0 1 47.146484 24.279297 L 42.015625 25.990234 L 36.007812 27.992188 L 38.009766 21.984375 L 39.714844 16.871094 z M 15.837891 26.753906 L 20.667969 29.166016 L 26.332031 32 L 20.667969 34.833984 L 15.847656 37.240234 A 17.000277 17.000277 0 0 1 15 32 A 17.000277 17.000277 0 0 1 15.837891 26.753906 z M 48.152344 26.759766 A 17.000277 17.000277 0 0 1 49 32 A 17.000277 17.000277 0 0 1 48.162109 37.246094 L 43.332031 34.833984 L 37.667969 32 L 43.332031 29.166016 L 48.152344 26.759766 z M 32 28 A 0.99990203 0.99990203 0 0 1 32.998047 29 A 0.99990203 0.99990203 0 0 1 32 30 A 0.99990203 0.99990203 0 0 1 31 29 A 0.99990203 0.99990203 0 0 1 32 28 z M 29 31 A 0.99990203 0.99990203 0 0 1 30 32 A 0.99990203 0.99990203 0 0 1 29 32.998047 A 0.99990203 0.99990203 0 0 1 28 32 A 0.99990203 0.99990203 0 0 1 29 31 z M 35 31 A 0.99990203 0.99990203 0 0 1 36 32 A 0.99990203 0.99990203 0 0 1 35 32.998047 A 0.99990203 0.99990203 0 0 1 34 32 A 0.99990203 0.99990203 0 0 1 35 31 z M 32 34 A 0.99990203 0.99990203 0 0 1 32.998047 35 A 0.99990203 0.99990203 0 0 1 32 36 A 0.99990203 0.99990203 0 0 1 31 35 A 0.99990203 0.99990203 0 0 1 32 34 z M 27.992188 36.007812 L 25.990234 42.015625 L 24.285156 47.128906 A 17.000277 17.000277 0 0 1 19.804688 43.845703 A 17.000277 17.000277 0 0 1 16.853516 39.720703 L 21.984375 38.009766 L 27.992188 36.007812 z M 36.007812 36.007812 L 42.015625 38.009766 L 47.128906 39.714844 A 17.000277 17.000277 0 0 1 43.845703 44.195312 A 17.000277 17.000277 0 0 1 39.720703 47.146484 L 38.009766 42.015625 L 36.007812 36.007812 z M 32 37.667969 L 34.833984 43.332031 L 37.240234 48.152344 A 17.000277 17.000277 0 0 1 32 49 A 17.000277 17.000277 0 0 1 26.753906 48.162109 L 29.166016 43.332031 L 32 37.667969 z"/>
 <path style="fill:#8b9cbe;opacity:0.2" d="M 32 12 A 20.000001 20.000001 0 0 0 12 32 A 20.000001 20.000001 0 0 0 12.021484 32.417969 A 20.000001 20.000001 0 0 1 32 13 A 20.000001 20.000001 0 0 1 51.978516 32.582031 A 20.000001 20.000001 0 0 0 52 32 A 20.000001 20.000001 0 0 0 32 12 z M 36.808594 16.712891 L 34.833984 20.667969 L 32 26.332031 L 29.166016 20.667969 L 27.199219 16.726562 A 17.000277 17.000277 0 0 0 26.759766 16.847656 L 29.166016 21.667969 L 32 27.332031 L 34.833984 21.667969 L 37.246094 16.837891 A 17.000277 17.000277 0 0 0 36.808594 16.712891 z M 46.664062 24.439453 L 42.015625 25.990234 L 36.382812 27.867188 L 36.007812 28.992188 L 42.015625 26.990234 L 47.146484 25.279297 A 17.000277 17.000277 0 0 0 46.664062 24.439453 z M 17.349609 24.445312 A 17.000277 17.000277 0 0 0 16.871094 25.285156 L 21.984375 26.990234 L 27.992188 28.992188 L 27.617188 27.867188 L 21.984375 25.990234 L 17.349609 24.445312 z M 31.134766 29.5 A 0.99990203 0.99990203 0 0 0 31 30 A 0.99990203 0.99990203 0 0 0 32 31 A 0.99990203 0.99990203 0 0 0 32.998047 30 A 0.99990203 0.99990203 0 0 0 32.863281 29.5 A 0.99990203 0.99990203 0 0 1 32 30 A 0.99990203 0.99990203 0 0 1 31.134766 29.5 z M 48.976562 32.453125 A 17.000277 17.000277 0 0 1 48.162109 37.246094 L 43.332031 34.833984 L 38.667969 32.5 L 37.667969 33 L 43.332031 35.833984 L 48.162109 38.246094 A 17.000277 17.000277 0 0 0 49 33 A 17.000277 17.000277 0 0 0 48.976562 32.453125 z M 25.332031 32.5 L 20.667969 34.833984 L 15.847656 37.240234 A 17.000277 17.000277 0 0 1 15.023438 32.546875 A 17.000277 17.000277 0 0 0 15 33 A 17.000277 17.000277 0 0 0 15.847656 38.240234 L 20.667969 35.833984 L 26.332031 33 L 25.332031 32.5 z M 28.136719 32.5 A 0.99990203 0.99990203 0 0 0 28 33 A 0.99990203 0.99990203 0 0 0 29 33.998047 A 0.99990203 0.99990203 0 0 0 30 33 A 0.99990203 0.99990203 0 0 0 29.863281 32.5 A 0.99990203 0.99990203 0 0 1 29 32.998047 A 0.99990203 0.99990203 0 0 1 28.136719 32.5 z M 34.136719 32.5 A 0.99990203 0.99990203 0 0 0 34 33 A 0.99990203 0.99990203 0 0 0 35 33.998047 A 0.99990203 0.99990203 0 0 0 36 33 A 0.99990203 0.99990203 0 0 0 35.863281 32.5 A 0.99990203 0.99990203 0 0 1 35 32.998047 A 0.99990203 0.99990203 0 0 1 34.136719 32.5 z M 31.134766 35.5 A 0.99990203 0.99990203 0 0 0 31 36 A 0.99990203 0.99990203 0 0 0 32 37 A 0.99990203 0.99990203 0 0 0 32.998047 36 A 0.99990203 0.99990203 0 0 0 32.863281 35.5 A 0.99990203 0.99990203 0 0 1 32 36 A 0.99990203 0.99990203 0 0 1 31.134766 35.5 z M 27.992188 37.007812 L 27.617188 37.132812 L 25.990234 42.015625 L 24.285156 47.128906 A 17.000277 17.000277 0 0 1 19.804688 43.845703 A 17.000277 17.000277 0 0 1 17.335938 40.560547 L 16.853516 40.720703 A 17.000277 17.000277 0 0 0 19.804688 44.845703 A 17.000277 17.000277 0 0 0 24.285156 48.128906 L 25.990234 43.015625 L 27.992188 37.007812 z M 36.007812 37.007812 L 38.009766 43.015625 L 39.720703 48.146484 A 17.000277 17.000277 0 0 0 43.845703 45.195312 A 17.000277 17.000277 0 0 0 47.128906 40.714844 L 46.650391 40.554688 A 17.000277 17.000277 0 0 1 43.845703 44.195312 A 17.000277 17.000277 0 0 1 39.720703 47.146484 L 38.009766 42.015625 L 36.382812 37.132812 L 36.007812 37.007812 z M 36.800781 48.273438 A 17.000277 17.000277 0 0 1 32 49 A 17.000277 17.000277 0 0 1 27.191406 48.287109 L 26.753906 49.162109 A 17.000277 17.000277 0 0 0 32 50 A 17.000277 17.000277 0 0 0 37.240234 49.152344 L 36.800781 48.273438 z"/>
 <path style="fill:#8b9cbe;opacity:0.1" d="M 32 4 A 28 28 0 0 0 4 32 A 28 28 0 0 0 4.0214844 32.585938 A 28 28 0 0 1 32 5 A 28 28 0 0 1 59.978516 32.414062 A 28 28 0 0 0 60 32 A 28 28 0 0 0 32 4 z"/>
 <circle style="opacity:0.2" cx="47" cy="48" r="15"/>
 <circle style="fill:#cc8e31" cx="47" cy="47" r="15"/>
 <path style="fill:#8b9cbe;fill-rule:evenodd" d="m 47,40 c 0,0 -0.944996,-0.01925 -1.929688,0.498047 -0.948298,0.49778 -1.980944,1.743627 -2.05664,3.501953 l 2.677734,0 C 45.820332,42.814884 47,42.800781 47,42.800781 c 0,0 1.333984,-0.0016 1.333984,1.398438 0,0.738913 -0.187436,1.152522 -0.542968,1.61914 -0.355534,0.466757 -0.923177,0.935943 -1.589844,1.460938 C 45.534507,47.804294 44.769465,48.384596 44.125,49.230469 43.480533,50.076204 43,51.238539 43,52.599609 L 43,54 l 8,0 0,-3 -4.865234,0 c 0.04173,-0.0616 0.02622,0.04347 0.07422,-0.01953 0.355533,-0.466757 0.923178,-0.933988 1.589844,-1.458985 C 48.465493,48.996487 49.230534,48.414233 49.875,47.568359 50.519465,46.722624 51,45.560289 51,44.199219 51,42.332611 49.914366,41.014924 48.929688,40.498047 47.944984,39.981031 47,40 47,40 Z"/>
</svg>
