<svg xmlns="http://www.w3.org/2000/svg" width="64" height="64" version="1.1">
 <path style="opacity:0.2" d="m 4.0008006,54.800933 0,1.999957 C 4.0008006,59.12764 5.8731804,61 8.1999105,61 l 47.6009785,0 c 2.326751,0 4.19911,-1.87236 4.19911,-4.19911 l 0,-1.999957 c 0,2.32675 -1.872379,4.19911 -4.19911,4.19911 l -47.6009785,0 c -2.3275501,0 -4.1999099,-1.999957 -4.1999099,-4.19991 z"/>
 <rect style="fill:#3b5999" width="56" height="56" x="4" y="4" rx="4.2" ry="4.2"/>
 <path style="opacity:0.2" d="m 41.999985,17.000901 c 0,0 -7.999828,0 -7.999828,7.999828 l 0,7.999829 -5.999871,0 0,7.999828 5.999871,0 0,17.999614 7.999828,0 0,-17.999614 6.99985,0 0.999979,-7.999828 -7.999829,0 0,-5.999872 c 0,-1.999957 1.999958,-1.999957 1.999958,-1.999957 l 5.999871,0 0,-7.999828 -7.999829,0 z"/>
 <path style="fill:#8b9cbe" d="m 41.999985,16.001782 c 0,0 -7.999828,0 -7.999828,7.999828 l 0,7.999828 -5.999871,0 0,7.999829 5.999871,0 0,19.999571 7.999828,0 0,-19.999571 6.99985,0 0.999979,-7.999829 -7.999829,0 0,-5.999871 c 0,-1.999957 1.999958,-1.999957 1.999958,-1.999957 l 5.999871,0 0,-7.999828 z"/>
 <path style="opacity:0.1;fill:#8b9cbe" d="M 8.1992188 4.0019531 C 5.8724687 4.0019531 4 5.8012234 4 8.2011719 L 4 9.2011719 C 4 6.8012234 5.8724687 5.0019531 8.1992188 5.0019531 L 8.1992188 5.0039062 L 55.800781 5.0039062 C 58.127512 5.0039062 60 6.8744219 60 9.2011719 L 60 8.2011719 C 60 5.8744219 58.127512 4.0019531 55.800781 4.0019531 L 8.1992188 4.0019531 z"/>
</svg>
