<svg xmlns="http://www.w3.org/2000/svg" width="64" height="64" version="1">
 <circle style="opacity:0.2" cx="28" cy="54" r="7"/>
 <circle style="fill:#ff6bf4" cx="18" cy="39" r="7"/>
 <circle style="fill:#ff6bf4" cx="28" cy="53" r="7"/>
 <circle style="opacity:0.2" cx="20" cy="50" r="11"/>
 <circle style="fill:#cc4e38" cx="20" cy="49" r="11"/>
 <circle style="opacity:0.2" cx="40" cy="42" r="13"/>
 <circle style="fill:#f26666" cx="40" cy="41" r="13"/>
 <circle style="opacity:0.2" cx="35" cy="31" r="18"/>
 <circle style="fill:#fdcc58" cx="35" cy="30" r="18"/>
 <circle style="opacity:0.2" cx="15" cy="53" r="8"/>
 <circle style="fill:#ff6bf4" cx="15" cy="52" r="8"/>
 <path style="opacity:0.2;fill-rule:evenodd" d="m 32.183206,29.511169 c -2.045022,7.4855 -6.94371,13.08356 -14.575829,11.077826 C 9.9752578,38.583263 5.4460188,30.889099 7.4910382,23.403599 c 2.04502,-7.4855 9.8898918,-11.927728 17.5220118,-9.921994 7.632118,2.005732 9.215174,8.544064 7.170156,16.029564 z"/>
 <path style="fill:#f26666;fill-rule:evenodd" d="M 32.183206,28.51117 C 30.138184,35.99667 25.239496,41.59473 17.607377,39.588996 9.9752578,37.583264 5.4460188,29.8891 7.4910382,22.4036 9.5360582,14.918101 17.38093,10.475873 25.01305,12.481607 c 7.632118,2.005732 9.215174,8.544063 7.170156,16.029563 z"/>
 <path style="opacity:0.2;fill:#8b9cbe;fill-rule:evenodd" d="M 21.798828 12.009766 C 21.444069 11.997772 21.089868 11.998005 20.738281 12.011719 C 14.644108 12.24942 9.1537661 16.320376 7.4921875 22.402344 C 7.1188617 23.768848 6.9886416 25.140058 7.0351562 26.484375 C 7.0722922 25.463321 7.2111104 24.431185 7.4921875 23.402344 C 9.1537661 17.320376 14.644108 13.24942 20.738281 13.011719 C 22.144628 12.956865 23.580697 13.104394 25.011719 13.480469 C 30.474746 14.91616 32.807009 18.687844 32.955078 23.455078 C 33.114806 18.218812 30.851433 14.015154 25.011719 12.480469 C 23.938452 12.198412 22.863104 12.045745 21.798828 12.009766 z"/>
 <circle style="fill:#98ecef" cx="50" cy="12" r="8"/>
 <path style="opacity:0.2;fill:#8b9cbe;fill-rule:evenodd" d="m 50,4 a 8,8 0 0 0 -8,8 8,8 0 0 0 0.02344,0.400391 A 8,8 0 0 1 50,5 8,8 0 0 1 57.974609,12.476562 8,8 0 0 0 58,12 8,8 0 0 0 50,4 Z"/>
 <circle style="opacity:0.2" cx="48" cy="28" r="8"/>
 <circle style="fill:#98ecef" cx="48" cy="27" r="8"/>
 <circle style="opacity:0.2" cx="46" cy="20" r="11"/>
 <circle style="fill:#4e59b3" cx="46" cy="19" r="11"/>
 <path style="opacity:0.2;fill-rule:evenodd" d="m 43,19 c 0,4.418278 -2.146188,8 -6.363636,8 C 32.418916,27 29,23.418278 29,19 29,14.581723 32.418916,11 36.636364,11 40.853812,11 43,14.581723 43,19 Z"/>
 <path style="fill:#98ecef;fill-rule:evenodd" d="m 43,18 c 0,4.418278 -2.146188,8 -6.363636,8 C 32.418916,26 29,22.418278 29,18 29,13.581723 32.418916,10 36.636364,10 40.853812,10 43,13.581723 43,18 Z"/>
 <path style="opacity:0.2;fill:#8b9cbe;fill-rule:evenodd" d="M 36.636719 10 C 32.419271 10 29 13.581723 29 18 C 29 18.112312 29.021481 18.218493 29.03125 18.328125 C 29.357583 14.224846 32.635667 11 36.636719 11 C 40.639009 11 42.770924 14.226939 42.978516 18.332031 C 42.984874 18.221074 43 18.113679 43 18 C 43 13.581723 40.854167 10 36.636719 10 z"/>
</svg>
