<svg xmlns="http://www.w3.org/2000/svg" width="64" height="64" version="1.1">
 <circle style="opacity:0.2" cx="32" cy="33" r="28"/>
 <circle style="fill:#8767d9" cx="32" cy="32" r="28"/>
 <path style="opacity:0.2;fill-rule:evenodd" d="m 28.476562,15 c -3.460474,-0.01204 -7.432498,0.456374 -11.945312,2.324219 6.189782,0.481951 8.845388,1.346952 8.996094,2.003905 C 14.823006,17.488464 12.346682,28.212764 12,35 c 0,0 2.740841,-1.560008 4,-2 0.387976,-0.13558 0.485427,0.12626 0.953125,0 -1.243372,1.633554 -2.206682,3.294856 -3.023437,5.003906 C 11.985144,42.50812 13.118718,48.81404 13,52 c 5.304896,6.011118 10.982812,6.98724 19,7 6.115482,-0.008 12.060188,-2.017908 16.925782,-5.722656 -2.42581,-2.500378 -7.266738,-8.048216 -7.125,-12.929688 0.08494,-2.924964 1.744808,-5.55463 7.15625,-7.05078 C 51.538916,32.992222 54.080424,32.873062 57,33 56.513694,29.231258 53.06377,25.286044 47.289062,24.070312 46.298864,23.598788 40.444542,15.041667 28.476562,15 Z"/>
 <path style="fill:#8b9cbe;fill-rule:evenodd" d="m 28.47539,14 c -3.460474,-0.01204 -7.430936,0.455983 -11.943749,2.323828 6.189781,0.481951 8.845387,1.347344 8.996093,2.004297 -10.704338,-1.83966 -15.159314,13.395187 -15.505996,20.182423 0,0 4.719103,-6.070556 5.978262,-6.510548 0.387976,-0.13558 0.485592,0.12626 0.95329,0 -1.243372,1.633554 -2.205284,3.294856 -3.02204,5.003906 C 11.81531,41.90513 11.990806,49.851701 11.999555,53.187413 12.000655,53.605309 12.97733,53.617548 13,54 c 1.301513,1.470866 0.817061,-0.660224 2.396874,0.50664 0.340448,-0.395892 0.689737,-0.798014 0.801173,-1.017188 -0.25397,0.410372 -0.449344,0.75674 -0.66172,1.12383 C 20.316868,58.103964 26.080682,59.989814 32,60 38.592422,59.9892 44.969644,57.65273 50.008594,53.401952 48.356262,51.805634 41.63606,44.99339 41.8,39.347266 c 0.08494,-2.924964 1.744418,-5.5558 7.15586,-7.051952 C 51.537744,31.99066 54.080424,31.873062 57,32 56.513694,28.231258 53.062598,24.285264 47.28789,23.069532 46.297692,22.598008 40.44337,14.041667 28.47539,14 Z"/>
 <path style="fill:#17191e;fill-rule:evenodd" d="m 38,21.299852 c 0,0 5.308642,-1.85466 6,3.661168 -5.234562,0.481756 -6,-3.661168 -6,-3.661168 z"/>
 <path style="opacity:0.1;fill-rule:evenodd" d="m 14.259548,60.356 c 0,0 8.692702,-26.250988 35.360766,-27.257672 0,0 -22.35626,-3.7168 -37.639862,20.493742 -0.08474,3.425216 2.279096,6.76393 2.279096,6.76393 z"/>
 <path style="fill:#ffb039;fill-rule:evenodd" d="m 14.259548,59.356108 c 0,0 8.692702,-26.250988 35.360766,-27.257672 0,0 -22.35626,-3.7168 -37.639862,20.493742 -0.08474,3.425216 2.279096,6.76393 2.279096,6.76393 z"/>
 <path style="fill:#ffb039;fill-rule:evenodd" d="m 16.55311,16.325106 c 0,0 6.65154,0.386851 9.026322,2.020183 0.99154,-0.203984 1.83344,-0.882869 1.976556,-1.807491 -0.85085,-0.352129 -8.638841,-0.986376 -11.002878,-0.212692 z"/>
 <path style="opacity:0.1;fill-rule:evenodd" d="m 10.082243,39.544086 c 0,0 9.608356,-10.002132 26.420075,-11.197058 0,0 -24.166804,1.034314 -26.088056,7.496712 -0.5341352,1.55397 -0.332019,3.700346 -0.332019,3.700346 z"/>
 <path style="fill:#ffb039;fill-rule:evenodd" d="m 10.082243,38.544194 c 0,0 9.608356,-10.002132 26.420075,-11.197058 0,0 -24.166804,1.034314 -26.088056,7.496712 -0.5341352,1.55397 -0.332019,3.700346 -0.332019,3.700346 z"/>
 <path style="opacity:0.1;fill:#8b9cbe" d="M 32 4 A 28 28 0 0 0 4 32 A 28 28 0 0 0 4.0175781 32.492188 A 28 28 0 0 1 32 5 A 28 28 0 0 1 59.974609 32.492188 A 28 28 0 0 0 60 32 A 28 28 0 0 0 32 4 z"/>
</svg>
