<svg xmlns="http://www.w3.org/2000/svg" width="64" height="64" version="1">
 <rect style="opacity:0.2" width="56" height="42" x="4" y="13" rx="4.2" ry="4.2"/>
 <rect style="fill:#dc4a3d" width="56" height="42" x="4" y="12" rx="4.2" ry="4.2"/>
 <path style="fill:#8b9cbe;opacity:0.1" d="M 8.1992188 12 C 5.8724189 12 4 13.872419 4 16.199219 L 4 17.199219 C 4 14.872419 5.8724189 13 8.1992188 13 L 55.800781 13 C 58.127581 13 60 14.872419 60 17.199219 L 60 16.199219 C 60 13.872419 58.127581 12 55.800781 12 L 8.1992188 12 z"/>
 <path style="fill:#b2bfd9" d="m 32,12 v 4.2 33.6 4.2 h 2.823529 12.705883 4.235294 C 54.111059,54 56,52.1268 56,49.8 V 16.2 C 56,13.8732 54.111059,12 51.764706,12 H 47.529412 34.823529 Z"/>
 <path style="opacity:0.2" d="m 35,17 v 3 h 18 v -3 z m 0,6 v 3 h 18 v -3 z m 0,6 v 3 h 18 v -3 z m 0,6 v 3 h 18 v -3 z m 0,6 v 3 h 18 v -3 z m 0,6 v 3 h 18 v -3 z"/>
 <path style="opacity:0.1" d="m 32,11.375 c 0,0 0,-1.375 4,-1.375 4,0 4,1.375 4,1.375 V 32 L 36,29.9375 32,32 Z"/>
 <path style="fill:#dc4a3d" d="m 32,10.375 c 0,0 0,-1.375 4,-1.375 4,0 4,1.375 4,1.375 V 31 L 36,28.9375 32,31 Z"/>
 <path style="fill:#8b9cbe" d="M 32,12 V 16.2 49.8 54 H 29.176471 16.470588 12.235294 C 9.888941,54 8,52.1268 8,49.8 V 16.2 C 8,13.8732 9.888941,12 12.235294,12 h 4.235294 12.705883 z"/>
 <path style="opacity:0.2" d="m 11,17 v 3 h 18 v -3 z m 0,6 v 3 h 18 v -3 z m 0,6 v 3 h 18 v -3 z m 0,6 v 3 h 18 v -3 z m 0,6 v 3 h 18 v -3 z m 0,6 v 3 h 18 v -3 z"/>
 <path style="opacity:0.1;fill:#8b9cbe" d="M 36 9 C 32 9 32 10.375 32 10.375 L 32 11.375 C 32 11.375 32 10 36 10 C 40 10 40 11.375 40 11.375 L 40 10.375 C 40 10.375 40 9 36 9 z"/>
</svg>
