<svg xmlns="http://www.w3.org/2000/svg" width="64" height="64" version="1">
 <rect style="opacity:0.2" width="56" height="56" x="4" y="5" rx="2.8" ry="2.8"/>
 <rect style="fill:#c2352a" width="56" height="56" x="4" y="4" rx="2.8" ry="2.8"/>
 <path style="opacity:0.2" d="M 20.484375,10.736328 12,19.222656 l 2.828125,2.828125 8.486328,-8.486328 z m 23.09375,0 -7.777344,7.779297 L 44.285156,27 52.0625,19.222656 Z M 25.435547,15.685547 16.949219,24.171875 19.777344,27 28.263672,18.515625 Z M 32.001953,23 C 27.607039,23 24,26.60705 24,31.001953 24,35.396857 27.607039,39 32.001953,39 36.396868,39 40,35.396857 40,31.001953 40,26.60705 36.396868,23 32.001953,23 Z M 32,27 c 2.23023,0 4,1.769553 4,4.001953 C 36,33.234355 34.23023,35 32,35 29.76977,35 28,33.234355 28,31.001953 28,28.769553 29.76977,27 32,27 Z m -6,15 v 4 h 12 v -4 z m 0,7 v 4 h 12 v -4 z"/>
 <path style="fill:#ffc75e" d="M 20.484375,9.7363281 12,18.222656 l 2.828125,2.828125 8.486328,-8.486328 z m 23.09375,0 L 35.800781,17.515625 44.285156,26 52.0625,18.222656 Z M 25.435547,14.685547 16.949219,23.171875 19.777344,26 28.263672,17.515625 Z M 32.001953,22 C 27.607039,22 24,25.60705 24,30.001953 24,34.396857 27.607039,38 32.001953,38 36.396868,38 40,34.396857 40,30.001953 40,25.60705 36.396868,22 32.001953,22 Z M 32,26 c 2.23023,0 4,1.769553 4,4.001953 C 36,32.234355 34.23023,34 32,34 29.76977,34 28,32.234355 28,30.001953 28,27.769553 29.76977,26 32,26 Z m -6,15 v 4 h 12 v -4 z m 0,7 v 4 h 12 v -4 z"/>
 <path style="fill:#8b9cbe;opacity:0.2" d="M 6.8007812 4 C 5.2495813 4 4 5.2495813 4 6.8007812 L 4 7.8007812 C 4 6.2495813 5.2495813 5 6.8007812 5 L 57.199219 5 C 58.750419 5 60 6.2495813 60 7.8007812 L 60 6.8007812 C 60 5.2495813 58.750419 4 57.199219 4 L 6.8007812 4 z"/>
</svg>
