<svg xmlns="http://www.w3.org/2000/svg" width="64" height="64" version="1">
 <rect style="opacity:0.2" width="56" height="56" x="4" y="5" rx="16.8" ry="16.8"/>
 <rect style="fill:#424652" width="56" height="56" x="4" y="4" rx="16.8" ry="16.8"/>
 <path style="opacity:0.2" d="m 25,40 a 7,7 0 0 0 -7,7 7,7 0 0 0 7,7 7,7 0 0 0 7,-7 v -7 z"/>
 <path style="fill:#09c37b" d="m 25,39 a 7,7 0 0 0 -7,7 7,7 0 0 0 7,7 7,7 0 0 0 7,-7 v -7 z"/>
 <path style="opacity:0.2" d="m 25,26 h 7 v 14 h -7 c -3.878,0 -7,-3.122 -7,-7 0,-3.878 3.122,-7 7,-7 z"/>
 <circle style="opacity:0.2" cx="39" cy="33" r="7"/>
 <path style="fill:#9154dd" d="m 25,25 h 7 v 14 h -7 c -3.878,0 -7,-3.122 -7,-7 0,-3.878 3.122,-7 7,-7 z"/>
 <circle style="fill:#01b1f8" cx="39" cy="32" r="7"/>
 <path style="opacity:0.2" d="m 25,12 c -3.878,0 -7,3.122 -7,7 0,3.878 3.122,7 7,7 h 7 V 12 Z"/>
 <path style="fill:#f24e1e" d="m 25,11 c -3.878,0 -7,3.122 -7,7 0,3.878 3.122,7 7,7 h 7 V 11 Z"/>
 <path style="opacity:0.2" d="m 32,12 h 7 c 3.878,0 7,3.122 7,7 0,3.878 -3.122,7 -7,7 h -7 z"/>
 <path style="fill:#ff7262" d="m 32,11 h 7 c 3.878,0 7,3.122 7,7 0,3.878 -3.122,7 -7,7 h -7 z"/>
 <path style="opacity:0.2;fill:#8b9cbe" d="M 25 11 C 21.122 11 18 14.122 18 18 C 18 18.169082 18.013717 18.333988 18.025391 18.5 C 18.28146 14.858434 21.291082 12 25 12 L 32 12 L 39 12 C 42.708918 12 45.71854 14.858434 45.974609 18.5 C 45.986283 18.333988 46 18.169082 46 18 C 46 14.122 42.878 11 39 11 L 32 11 L 25 11 z"/>
 <path style="fill:#8b9cbe;opacity:0.1" d="M 20.800781 4 C 11.493582 4 4 11.493582 4 20.800781 L 4 21.800781 C 4 12.493582 11.493582 5 20.800781 5 L 43.199219 5 C 52.506418 5 60 12.493582 60 21.800781 L 60 20.800781 C 60 11.493582 52.506418 4 43.199219 4 L 20.800781 4 z"/>
</svg>
