<svg xmlns="http://www.w3.org/2000/svg" width="64" height="64" x="0" y="0" version="1.1" xml:space="preserve">
 <g style="opacity:0.2" transform="matrix(0.875,0,0,0.875,4,5)">
  <g>
   <path d="M 32,0 C 49.7,0 64,14.3 64,32 64,49.7 49.7,64 32,64 14.3,64 0,49.7 0,32 0,14.3 14.3,0 32,0 Z"/>
  </g>
 </g>
 <g style="fill:#763983" transform="matrix(0.875,0,0,0.875,4,4)">
  <g style="fill:#763983">
   <path style="fill:#763983" d="M 32,0 C 49.7,0 64,14.3 64,32 64,49.7 49.7,64 32,64 14.3,64 0,49.7 0,32 0,14.3 14.3,0 32,0 Z"/>
  </g>
 </g>
 <path style="opacity:0.2" d="M 34.84958,29.321065 C 51.365579,26.154563 52,19 52,19 52,19 50.699339,41.173079 38.629241,42.34618 23.333613,43.832772 20.748125,51 20.748125,51 c 0,0 -0.31283,-2.300657 0.651749,-5.303012 1.930712,-6.009548 6.974152,-15.134407 13.449706,-16.375923 z"/>
 <path style="fill:#eb2273" d="M 34.84958,28.321065 C 51.365579,25.154563 52,18 52,18 52,18 50.699339,40.173079 38.629241,41.34618 23.333613,42.832772 20.748125,50 20.748125,50 c 0,0 -0.31283,-2.300657 0.651749,-5.303012 1.930712,-6.009548 6.974152,-15.134407 13.449706,-16.375923 z"/>
 <path style="fill:#8b9cbe;opacity:0.2" d="M 52 18 C 52 18 51.365608 25.15381 34.849609 28.320312 C 28.374055 29.561829 23.331103 38.687718 21.400391 44.697266 C 20.707678 46.853407 20.678926 48.611037 20.714844 49.451172 C 20.758698 48.502267 20.921721 47.187175 21.400391 45.697266 C 23.331103 39.687718 28.374055 30.561829 34.849609 29.320312 C 48.59744 26.684533 51.306295 21.341238 51.839844 19.605469 C 51.940858 18.677677 52 18 52 18 z"/>
 <path style="opacity:0.2" d="M 23.830237,28.499852 C 37.763055,22.609305 36.486955,13 36.486955,13 c 0,0 7.692379,19.603554 -3.839503,24.17379 C 19.765151,42.279212 20.738,51 20.738,51 c 0,0 -5.090692,-19.04055 3.092237,-22.500148 z"/>
 <path style="fill:#ff812d" d="M 23.830237,27.499852 C 37.763055,21.609305 36.486955,12 36.486955,12 c 0,0 7.692379,19.603554 -3.839503,24.17379 C 19.765151,41.279212 20.738,50 20.738,50 c 0,0 -5.090692,-19.04055 3.092237,-22.500148 z"/>
 <path style="fill:#8b9cbe;opacity:0.2" d="M 36.486328 12 C 36.486328 12 36.509587 12.422825 36.490234 13.013672 C 36.506917 13.056259 38.87518 19.121463 38.990234 25.287109 C 39.141913 18.774339 36.486328 12 36.486328 12 z M 36.490234 13.050781 C 36.395195 15.635158 35.088017 22.740344 23.830078 27.5 C 20.075661 29.087301 19.127208 33.952598 19.1875 38.755859 C 19.271671 34.293956 20.337161 29.976744 23.830078 28.5 C 37.554059 22.697746 36.524268 13.33158 36.490234 13.050781 z"/>
 <path style="opacity:0.2" d="M 16.264562,33.501959 C 24.149408,23.214991 22.375917,16 22.375917,16 c 0,0 10.102153,12.53303 3.22793,20.295569 C 17.924632,44.96713 20.803612,51 20.803612,51 c 0,0 -9.061501,-11.597816 -4.53905,-17.498041 z"/>
 <path style="fill:#ffdf55" d="M 16.264562,32.501959 C 24.149408,22.214991 22.375917,15 22.375917,15 c 0,0 10.102153,12.53303 3.22793,20.295569 C 17.924632,43.96713 20.803612,50 20.803612,50 c 0,0 -9.061501,-11.597816 -4.53905,-17.498041 z"/>
 <g style="fill:#8b9cbe;opacity:0.1" transform="matrix(0.875,0,0,0.875,4,4)">
  <g style="fill:#8b9cbe">
   <path style="fill:#8b9cbe" transform="matrix(1.1428571,0,0,1.1428571,-4.5714286,-4.5714286)" d="M 32 4 C 16.5125 4 4 16.5125 4 32 C 4 32.167666 4.010751 32.333043 4.0136719 32.5 C 4.2805513 17.244988 16.680166 5 32 5 C 47.319834 5 59.719449 17.244988 59.986328 32.5 C 59.989249 32.333043 60 32.167666 60 32 C 60 16.5125 47.4875 4 32 4 z"/>
  </g>
 </g>
 <path style="fill:#8b9cbe;opacity:0.2" d="M 22.375 15 C 22.375 15 22.472541 15.432613 22.519531 16.189453 C 23.077083 16.901599 27.717425 22.999086 27.984375 29.203125 C 28.250722 22.296324 22.375 15 22.375 15 z M 22.525391 17.236328 C 22.483066 20.114142 21.569436 25.579786 16.263672 32.501953 C 15.254256 33.81889 14.925332 35.420968 15.017578 37.113281 C 15.087554 35.794152 15.455746 34.556015 16.263672 33.501953 C 22.229509 25.71862 22.666209 19.70787 22.525391 17.236328 z M 20.292969 47.488281 C 20.262 48.255637 20.30688 48.91312 20.388672 49.441406 C 20.643186 49.792504 20.802734 50 20.802734 50 C 20.802734 50 20.3777 49.092701 20.292969 47.488281 z"/>
</svg>
