<svg xmlns="http://www.w3.org/2000/svg" width="64" height="64" version="1">
 <rect style="opacity:0.2" width="56" height="56" x="4" y="5" rx="2.8" ry="2.8"/>
 <rect style="fill:#4f4f4f" width="56" height="56" x="4" y="4" rx="2.8" ry="2.8"/>
 <path style="opacity:0.2" d="m 8,9 0,6 6,0 0,-6 -6,0 z m 42,0 0,6 6,0 0,-6 -6,0 z m -42,14 0,6 6,0 0,-6 -6,0 z m 42,0 0,6 6,0 0,-6 -6,0 z m -42,14 0,6 6,0 0,-6 -6,0 z m 42,0 0,6 6,0 0,-6 -6,0 z m -42,14 0,6 6,0 0,-6 -6,0 z m 42,0 0,6 6,0 0,-6 -6,0 z"/>
 <path style="opacity:0.2" d="m 32,13 14,0 c 0,0 -8.975478,1.913764 -10,5.238095 -0.772458,2.506435 4.536862,4.573151 4,7.142859 -0.643778,3.081458 -7.361078,3.107962 -8,6.190474 -0.604766,2.917722 6.502456,5.157372 6,8.095238 -0.529486,3.095906 -7.942996,3.524506 -8,6.666668 C 29.945,49.365348 38,53 38,53 l -20,0 z"/>
 <path style="fill:#b2bfd9" d="m 32,12 14,0 c 0,0 -8.975478,1.913764 -10,5.238095 -0.772458,2.506434 4.536862,4.573151 4,7.142859 -0.643778,3.081458 -7.361078,3.107962 -8,6.190474 -0.604766,2.917722 6.502456,5.157372 6,8.095238 -0.529486,3.095906 -7.942996,3.524506 -8,6.666668 C 29.945,48.365348 38,52 38,52 l -20,0 z"/>
 <path style="fill:#989898" d="m 8,8 0,6 6,0 0,-6 -6,0 z m 42,0 0,6 6,0 0,-6 -6,0 z m -42,14 0,6 6,0 0,-6 -6,0 z m 42,0 0,6 6,0 0,-6 -6,0 z m -42,14 0,6 6,0 0,-6 -6,0 z m 42,0 0,6 6,0 0,-6 -6,0 z m -42,14 0,6 6,0 0,-6 -6,0 z m 42,0 0,6 6,0 0,-6 -6,0 z"/>
 <path style="opacity:0.1;fill:#8b9cbe" d="M 6.8007812 4 C 5.2495812 4 4 5.2495812 4 6.8007812 L 4 7.8007812 C 4 6.2495813 5.2495812 5 6.8007812 5 L 57.199219 5 C 58.750419 5 60 6.2495812 60 7.8007812 L 60 6.8007812 C 60 5.2495813 58.750419 4 57.199219 4 L 6.8007812 4 z"/>
</svg>
