<svg xmlns="http://www.w3.org/2000/svg" width="64" height="64" version="1">
 <rect style="opacity:0.2" width="56" height="56" x="4" y="5" rx="2.8" ry="2.8"/>
 <rect style="fill:#3c3a2d" width="56" height="56" x="4" y="4" rx="2.8" ry="2.8"/>
 <path style="opacity:0.2" d="m 21,9 c -2.209139,0 -4,1.790861 -4,4 0,2.209139 1.790861,4 4,4 2.209139,0 4,-1.790861 4,-4 0,-2.209139 -1.790861,-4 -4,-4 z m 11,0 c -2.209139,0 -4,1.790861 -4,4 0,2.209139 1.790861,4 4,4 2.209139,0 4,-1.790861 4,-4 0,-2.209139 -1.790861,-4 -4,-4 z m 11,0 c -2.209139,0 -4,1.790861 -4,4 0,2.209139 1.790861,4 4,4 2.209139,0 4,-1.790861 4,-4 0,-2.209139 -1.790861,-4 -4,-4 z M 10.75,20 C 9.2265,20 8,21.2265 8,22.75 v 27.5 C 8,51.7735 9.2265,53 10.75,53 h 16.5 C 28.773501,53 30,51.7735 30,50.25 V 22.75 C 30,21.2265 28.773501,20 27.25,20 Z m 26,0 C 35.2265,20 34,21.2265 34,22.75 v 27.5 c 0,1.5235 1.2265,2.75 2.75,2.75 h 16.5 C 54.7735,53 56,51.7735 56,50.25 V 22.75 C 56,21.2265 54.7735,20 53.25,20 Z m -22.650391,4 h 9.800782 C 25.063791,24 26,24.892 26,26 c 0,1.108 -0.936209,2 -2.099609,2 H 14.099609 C 12.936209,28 12,27.108 12,26 c 0,-1.108 0.936209,-2 2.099609,-2 z m 0,7 h 9.800782 C 25.063791,31 26,31.892 26,33 c 0,1.108 -0.936209,2 -2.099609,2 H 14.099609 C 12.936209,35 12,34.108 12,33 c 0,-1.108 0.936209,-2 2.099609,-2 z m 0,7 h 9.800782 C 25.063791,38 26,38.892 26,40 c 0,1.108 -0.936209,2 -2.099609,2 H 14.099609 C 12.936209,42 12,41.108 12,40 c 0,-1.108 0.936209,-2 2.099609,-2 z m 0,7 h 9.800782 C 25.063791,45 26,45.892 26,47 c 0,1.108 -0.936209,2 -2.099609,2 H 14.099609 C 12.936209,49 12,48.108 12,47 c 0,-1.108 0.936209,-2 2.099609,-2 z"/>
 <circle style="fill:#ed253e" cx="21" cy="12" r="4"/>
 <circle style="fill:#f68f33" cx="32" cy="12" r="4"/>
 <circle style="fill:#72be44" cx="43" cy="12" r="4"/>
 <path style="fill:#8b9cbe" d="M 10.75,19 C 9.2265,19 8,20.2265 8,21.75 v 27.5 C 8,50.7735 9.2265,52 10.75,52 h 16.5 C 28.773501,52 30,50.7735 30,49.25 V 21.75 C 30,20.2265 28.773501,19 27.25,19 Z m 3.349609,4 h 9.800782 C 25.063791,23 26,23.892 26,25 c 0,1.108 -0.936209,2 -2.099609,2 H 14.099609 C 12.936209,27 12,26.108 12,25 c 0,-1.108 0.936209,-2 2.099609,-2 z m 0,7 h 9.800782 C 25.063791,30 26,30.892 26,32 c 0,1.108 -0.936209,2 -2.099609,2 H 14.099609 C 12.936209,34 12,33.108 12,32 c 0,-1.108 0.936209,-2 2.099609,-2 z m 0,7 h 9.800782 C 25.063791,37 26,37.892 26,39 c 0,1.108 -0.936209,2 -2.099609,2 H 14.099609 C 12.936209,41 12,40.108 12,39 c 0,-1.108 0.936209,-2 2.099609,-2 z m 0,7 h 9.800782 C 25.063791,44 26,44.892 26,46 c 0,1.108 -0.936209,2 -2.099609,2 H 14.099609 C 12.936209,48 12,47.108 12,46 c 0,-1.108 0.936209,-2 2.099609,-2 z"/>
 <path style="fill:#f5e1d8" d="M 36.75,19 C 35.2265,19 34,20.2265 34,21.75 v 27.5 c 0,1.5235 1.2265,2.75 2.75,2.75 h 16.5 C 54.7735,52 56,50.7735 56,49.25 V 21.75 C 56,20.2265 54.7735,19 53.25,19 Z"/>
 <path style="fill:#8b9cbe;opacity:0.1" d="M 6.8007812 4 C 5.2495813 4 4 5.2495813 4 6.8007812 L 4 7.8007812 C 4 6.2495813 5.2495813 5 6.8007812 5 L 57.199219 5 C 58.750419 5 60 6.2495813 60 7.8007812 L 60 6.8007812 C 60 5.2495813 58.750419 4 57.199219 4 L 6.8007812 4 z"/>
</svg>
