<svg xmlns="http://www.w3.org/2000/svg" width="64" height="64" version="1">
 <path style="opacity:0.2" d="m 21.967211,4.9995846 c -0.761902,0.9354714 -1.223252,1.7120178 -2.096509,2.642305 -2.919404,3.1105684 -2.448072,5.1033274 -0.134964,7.2763774 0.400229,0.375996 -0.897814,1.716358 -1.340785,3.467876 0.865136,0.701025 1.089447,1.770701 1.880248,2.583855 0.861398,-1.060572 2.838252,-3.451868 3.438186,-4.090468 0,0 1.269736,-1.999287 -0.312148,-3.879946 -1.147288,-1.136328 -1.43403,-3.7942156 -1.367862,-6.425569 0.07392,-0.172502 -0.08872,-1.1286886 -0.06616,-1.5744304 z m 7.300314,2.1494162 c -1.097942,0 -1.213434,0.392898 -0.829658,2.7929026 0.556234,3.4784956 -0.650792,6.6563096 -3.361964,8.6607616 -1.131308,0.836411 -3.427838,3.655719 -3.427838,4.027387 0,0.32376 -5.22112,1.675656 -3.707711,3.618238 0.223954,0.287464 -2.612843,2.219096 0.610605,0.807752 2.69099,-1.178214 4.192874,5.793452 5.221632,7.79001 l 1.870152,3.630772 -1.662052,3.241958 c -2.421604,4.726362 -1.719588,6.276538 -6.279277,10.897122 -0.71156,0.72106 -0.594907,1.61337 -1.156296,1.243914 -4.000372,-2.632694 -0.350746,1.181936 -0.600253,1.527482 -1.816864,-3.802416 -1.285818,2.140742 -1.287921,2.143686 1.73463,1.905364 4.966988,2.215308 7.508863,2.143782 4.238072,0.0188 6.0982,-2.831108 7.346486,-4.953314 3.64346,-6.230032 8.344866,-11.199074 9.829262,-10.62946 0.647928,0.248632 2.988854,2.972252 5.205204,6.05129 2.216348,3.079038 4.346368,5.505994 4.731506,5.394134 1.25058,-0.36319 2.722028,-3.524162 2.722028,-6.541416 0,-3.996418 -0.699908,-4.93019 -1.91154,-6.114806 -0.902258,-0.882146 -0.347176,-1.344518 -1.199366,-2.589342 -1.48884,-2.174802 -2.214284,-1.505604 -1.105208,-3.842808 0.634818,-1.337782 0.663458,-1.977788 2.324542,-3.33892 4.099342,-3.359106 6.444498,-10.34505 5.534836,-13.639582 -0.374278,-1.35552 -1.004396,-3.080909 -1.573422,-3.833395 -0.97253,-1.286081 -1.03598,-1.211607 -1.056924,1.256807 -0.0184,2.160686 -5.476292,4.642932 -6.64053,4.642928 -0.11676,0 -0.241016,0.0228 -0.372388,0.06298 -1.020084,1.608746 -1.8587,2.620488 -2.508136,3.818426 -3.160634,4.44089 -2.123894,4.38392 -3.304372,4.38392 -1.18523,0 -3.75741,-3.075346 -6.979066,-7.914596 -0.250022,-0.37556 -1.379244,-0.725014 -1.557632,-1.051448 -0.08854,-0.16152 -0.14724,-0.305306 -0.210838,-0.451792 -0.02566,-0.05464 -0.05336,-0.1111 -0.07668,-0.1643 -0.04348,-0.09924 -0.10438,-0.209568 -0.13964,-0.303934 -0.09416,-0.249448 -0.14944,-0.475164 -0.1862,-0.692748 -0.0011,-0.007 -0.0036,-0.0144 -0.0054,-0.02192 -0.0028,-0.0182 -0.0112,-0.0395 -0.0138,-0.0575 -0.0038,-0.02662 0.0026,-0.04784 0,-0.07392 -0.02,-0.1937 -0.0186,-0.377936 0.011,-0.547628 0.0026,-0.0148 -2.8e-4,-0.03194 0.0028,-0.04654 0.03608,-0.184662 0.11126,-0.353156 0.208098,-0.512033 0.0028,-0.0046 0.0058,-0.009 0.0082,-0.01374 0.0088,-0.01402 0.0126,-0.03002 0.02192,-0.04381 0.1098,-0.164702 0.25958,-0.314563 0.438102,-0.454531 0.0054,-0.0042 0.0088,-0.0095 0.0138,-0.01374 0.0014,-0.0011 0.004,-0.0017 0.0054,-0.0028 0.381392,-0.290818 0.912564,-0.533585 1.599074,-0.742037 0.16226,0.05525 0.31316,0.10112 0.48739,0.167026 l 2.33797,0 c 0.08436,-0.271986 0.09586,-0.598274 0.04654,-1.021326 -0.243436,-2.085184 -5.224096,-8.6898882 -6.931298,-8.6898882 z m 17.6092,-6.026e-4 c -0.94706,0 -5.244348,6.5687638 -5.047564,8.9126868 0.1806,2.151188 -0.226772,2.187115 0.710264,2.073148 0.831594,-0.101136 3.002676,-0.09104 3.417684,-0.872865 0.279476,-0.526502 1.128088,-5.69279 1.404266,-6.78613 0.780938,-3.0915952 0.746042,-3.3268398 -0.48465,-3.3268398 z"/>
 <path style="fill:#dc730e" d="m 21.967211,4.0000002 c -0.761902,0.9354714 -1.223252,1.7120178 -2.096509,2.642305 -2.919404,3.1105686 -2.448072,5.1033278 -0.134964,7.2763778 0.400229,0.375996 -0.897814,1.716358 -1.340785,3.467876 0.865136,0.701026 1.089447,1.770701 1.880248,2.583855 0.861398,-1.060571 2.838252,-3.451868 3.438186,-4.090468 0,0 1.269736,-1.999287 -0.312148,-3.879946 -1.147288,-1.136328 -1.43403,-3.7942164 -1.367862,-6.4255694 0.07392,-0.172502 -0.08872,-1.1286886 -0.06616,-1.5744304 z m 7.300314,2.1494162 c -1.097942,0 -1.213434,0.392898 -0.829658,2.7929028 0.556234,3.4784958 -0.650792,6.6563098 -3.361964,8.6607618 -1.131308,0.836411 -3.427838,3.655719 -3.427838,4.027387 0,0.32376 -5.22112,1.675656 -3.707711,3.618238 0.223954,0.287464 -2.612843,2.219096 0.610605,0.807752 2.69099,-1.178214 4.192874,5.793452 5.221632,7.79001 l 1.870152,3.630772 -1.662052,3.241958 c -2.421604,4.726362 -1.719588,6.276538 -6.279277,10.897122 -0.71156,0.72106 -0.594907,1.61337 -1.156296,1.243914 -4.000372,-2.632694 -0.350746,1.181936 -0.600253,1.527482 -1.816864,-3.802416 -1.285818,2.140742 -1.287921,2.143686 1.73463,1.905364 4.966988,2.215308 7.508863,2.143782 4.238072,0.0188 6.0982,-2.831108 7.346486,-4.953314 3.64346,-6.230032 8.344866,-11.199074 9.829262,-10.62946 0.647928,0.248632 2.988854,2.972252 5.205204,6.05129 2.216348,3.079038 4.346368,5.505994 4.731506,5.394134 1.25058,-0.36319 2.722028,-3.524162 2.722028,-6.541416 0,-3.996418 -0.699908,-4.93019 -1.91154,-6.114806 -0.902258,-0.882146 -0.347176,-1.344518 -1.199366,-2.589342 -1.48884,-2.174802 -2.214284,-1.505604 -1.105208,-3.842808 0.634818,-1.337782 0.663458,-1.977788 2.324542,-3.33892 4.099342,-3.359106 6.444498,-10.34505 5.534836,-13.639581 -0.374278,-1.355521 -1.004396,-3.08091 -1.573422,-3.833396 -0.97253,-1.286081 -1.03598,-1.211607 -1.056924,1.256807 -0.0184,2.160686 -5.476292,4.642932 -6.64053,4.642928 -0.11676,0 -0.241016,0.0228 -0.372388,0.06298 -1.020084,1.608746 -1.8587,2.620488 -2.508136,3.818426 -3.160634,4.44089 -2.123894,4.38392 -3.304372,4.38392 -1.18523,0 -3.75741,-3.075346 -6.979066,-7.914596 -0.250022,-0.37556 -1.379244,-0.725014 -1.557632,-1.051447 -0.08854,-0.161514 -0.14724,-0.305307 -0.210838,-0.451792 -0.02566,-0.05463 -0.05336,-0.111102 -0.07668,-0.16429 -0.04348,-0.09924 -0.10438,-0.209569 -0.13964,-0.303934 -0.09416,-0.249449 -0.14944,-0.475164 -0.1862,-0.692749 -0.0011,-0.007 -0.0036,-0.01446 -0.0054,-0.02191 -0.0028,-0.0182 -0.0112,-0.03951 -0.0138,-0.05751 -0.0038,-0.02662 0.0026,-0.04783 0,-0.07392 -0.02,-0.1937 -0.0186,-0.377936 0.011,-0.547628 0.0026,-0.0148 -2.8e-4,-0.03194 0.0028,-0.04654 0.03608,-0.184662 0.11126,-0.353156 0.208098,-0.512033 0.0028,-0.0046 0.0058,-0.009 0.0082,-0.01374 0.0088,-0.01402 0.0126,-0.03002 0.02192,-0.04381 0.1098,-0.164702 0.25958,-0.314563 0.438102,-0.454531 0.0054,-0.0042 0.0088,-0.0095 0.0138,-0.01374 0.0014,-0.0011 0.004,-0.0017 0.0054,-0.0028 0.381392,-0.290818 0.912564,-0.533585 1.599074,-0.742037 0.16226,0.05525 0.31316,0.10112 0.48739,0.167026 l 2.33797,0 c 0.08436,-0.271986 0.09586,-0.598274 0.04654,-1.021326 -0.243436,-2.08519 -5.224096,-8.6898946 -6.931298,-8.6898946 z m 17.6092,-6.026e-4 c -0.94706,0 -5.244348,6.5687642 -5.047564,8.9126872 0.1806,2.151188 -0.226772,2.187115 0.710264,2.073148 0.831594,-0.101136 3.002676,-0.09104 3.417684,-0.872865 0.279476,-0.526502 1.128088,-5.69279 1.404266,-6.78613 0.780938,-3.0915956 0.746042,-3.3268402 -0.48465,-3.3268402 z"/>
 <path style="fill:#8b9cbe;opacity:0.1" d="M 21.966797 4 C 21.204895 4.9354714 20.744351 5.7122909 19.871094 6.6425781 C 18.241463 8.378918 17.66879 9.7657329 17.882812 11.03125 C 18.03631 10.031782 18.658279 8.9348085 19.871094 7.6425781 C 20.744351 6.7122909 21.204895 5.9354714 21.966797 5 C 21.95162 5.2998607 22.016968 5.8176674 22.041016 6.1855469 C 22.041632 5.980265 22.028031 5.7799159 22.033203 5.5742188 C 22.107123 5.4017168 21.944237 4.4457418 21.966797 4 z M 46.876953 6.1484375 C 45.929893 6.1484375 41.633294 12.716624 41.830078 15.060547 C 41.847319 15.265914 41.843357 15.368589 41.851562 15.537109 C 42.194128 12.868721 45.992964 7.1484375 46.876953 7.1484375 C 47.396016 7.1484375 47.69036 7.2059836 47.8125 7.4863281 C 48.015871 6.2890041 47.756561 6.1484375 46.876953 6.1484375 z M 29.267578 6.1503906 C 28.398184 6.1503906 28.160481 6.442185 28.283203 7.7363281 C 28.383997 7.2710694 28.683567 7.1484375 29.267578 7.1484375 C 30.947855 7.1484375 35.789124 13.538625 36.173828 15.728516 C 36.227942 15.481905 36.241343 15.201176 36.199219 14.839844 C 35.955783 12.754654 30.97478 6.1503906 29.267578 6.1503906 z M 22.044922 6.4160156 C 22.043245 6.4753853 22.044634 6.5475436 22.033203 6.5742188 C 21.967035 9.2055717 22.253103 11.863672 23.400391 13 C 23.87321 13.562122 24.075087 14.127533 24.148438 14.654297 C 24.270609 13.918138 24.195133 12.944848 23.400391 12 C 22.376601 10.985991 22.058924 8.7532108 22.044922 6.4160156 z M 28.542969 11.007812 C 28.424926 13.655305 27.237699 16.005433 25.076172 17.603516 C 23.944864 18.439927 21.648438 21.259191 21.648438 21.630859 C 21.648438 21.942573 16.825863 23.207753 17.816406 25.035156 C 18.52128 23.751891 21.648438 22.881884 21.648438 22.630859 C 21.648438 22.259191 23.944864 19.439927 25.076172 18.603516 C 27.506973 16.806351 28.71719 14.06246 28.542969 11.007812 z M 53.314453 13.818359 C 53.056589 13.743144 53.026762 14.351772 53.013672 15.894531 C 52.995272 18.055217 47.537285 20.537113 46.373047 20.537109 C 46.256287 20.537109 46.131372 20.559429 46 20.599609 C 44.979916 22.208355 44.141624 23.220031 43.492188 24.417969 C 40.331553 28.858859 41.367978 28.802734 40.1875 28.802734 C 39.00227 28.802734 36.43064 25.727922 33.208984 20.888672 C 32.958962 20.513112 31.828779 20.16237 31.650391 19.835938 C 31.561851 19.674423 31.503051 19.531251 31.439453 19.384766 C 31.413793 19.330136 31.386601 19.273891 31.363281 19.220703 C 31.319801 19.121463 31.259869 19.010381 31.224609 18.916016 C 31.147449 18.711601 31.10646 18.530735 31.070312 18.349609 C 31.057505 18.391878 31.041803 18.432545 31.033203 18.476562 C 31.030123 18.491163 31.031897 18.506684 31.029297 18.521484 C 30.999697 18.691176 30.997578 18.876613 31.017578 19.070312 C 31.020178 19.096402 31.013778 19.117911 31.017578 19.144531 C 31.020178 19.162531 31.030403 19.182972 31.033203 19.201172 C 31.035003 19.208622 31.036009 19.215656 31.037109 19.222656 C 31.073869 19.440241 31.130449 19.666567 31.224609 19.916016 C 31.259869 20.010381 31.319801 20.121463 31.363281 20.220703 C 31.386601 20.273891 31.413793 20.330136 31.439453 20.384766 C 31.503051 20.531251 31.561851 20.674423 31.650391 20.835938 C 31.828779 21.16237 32.958962 21.511159 33.208984 21.886719 C 36.43064 26.725969 39.00227 29.802734 40.1875 29.802734 C 41.367978 29.802734 40.331553 29.858859 43.492188 25.417969 C 44.141624 24.220031 44.979916 23.208355 46 21.599609 C 46.131372 21.559429 46.256287 21.537109 46.373047 21.537109 C 47.537285 21.537113 52.995272 19.055217 53.013672 16.894531 C 53.034616 14.426117 53.097783 14.350638 54.070312 15.636719 C 54.639338 16.389205 55.270253 18.115182 55.644531 19.470703 C 55.74406 19.831167 55.796746 20.242381 55.820312 20.681641 C 55.870296 19.84653 55.816136 19.092207 55.644531 18.470703 C 55.270253 17.115182 54.639338 15.389205 54.070312 14.636719 C 53.705614 14.154438 53.469171 13.863489 53.314453 13.818359 z M 19.572266 14.748047 C 19.251671 15.386624 18.672354 16.288202 18.394531 17.386719 C 18.486914 17.461577 18.569199 17.542496 18.648438 17.625 C 19.194387 16.254988 20.075976 15.237052 19.736328 14.917969 C 19.675514 14.860837 19.630505 14.804953 19.572266 14.748047 z M 17.691406 25.677734 C 17.201118 26.21401 16.381298 26.917763 17.947266 26.302734 C 17.949416 26.282282 17.950056 26.261657 17.939453 26.248047 C 17.785968 26.051037 17.718828 25.862138 17.691406 25.677734 z M 47.373047 37.443359 C 46.985885 38.614385 47.672147 38.513994 48.888672 40.291016 C 49.740862 41.53584 49.185633 41.998713 50.087891 42.880859 C 51.220212 43.987933 51.899498 44.909815 51.984375 48.283203 C 51.987274 48.187432 52 48.09167 52 47.996094 C 52 43.999676 51.299523 43.065475 50.087891 41.880859 C 49.185633 40.998713 49.740862 40.537793 48.888672 39.292969 C 48.151675 38.21641 47.605995 37.835776 47.373047 37.443359 z M 25.384766 37.978516 L 23.980469 40.71875 C 21.558865 45.445112 22.260861 46.996603 17.701172 51.617188 C 16.989612 52.338248 17.106311 53.228831 16.544922 52.859375 C 14.034646 51.207332 14.556128 52.106846 15.216797 53.082031 C 15.512158 53.217996 15.92964 53.45445 16.544922 53.859375 C 17.106311 54.228831 16.989612 53.336294 17.701172 52.615234 C 22.260861 47.99465 21.558865 46.445112 23.980469 41.71875 L 25.642578 38.476562 L 25.384766 37.978516 z M 14.767578 53.341797 C 14.581224 53.772434 14.572106 54.7471 14.599609 55.513672 C 14.640416 54.241822 14.902992 53.205302 15.945312 55.386719 C 16.082541 55.196668 15.067838 53.980801 14.767578 53.341797 z"/>
 <path style="opacity:0.2" d="m 11.53545,13.001412 c -2.2799911,0.0068 -3.3906255,2.902344 -3.3906255,2.902344 -0.029254,-0.179168 -0.3107042,12.821134 0,21.796874 0.3107038,8.975738 0,19.742188 0,19.742188 2.0630605,5.85313 6.4251105,3.485338 10.7734375,0.0078 0.499571,-0.708196 1.333191,-1.655452 2.753907,-3.125 4.551984,-4.70846 8.250458,-9.761868 10.667968,-14.578124 L 34.000293,36.442818 32.133105,32.7436 C 31.106083,30.708972 28.762261,27.133098 26.922169,24.802194 26.684971,24.50173 26.536367,24.27481 26.312793,23.98188 22.431365,19.180138 17.953359,13.406229 11.53545,13.001412 Z m 20.718749,2 c -3.231106,0.515504 -2.279804,3.770947 -1.453124,5.128906 3.077326,4.93561 8.145208,10.871094 9.277342,10.871094 1.127596,0 3.367626,-2.50977 6.38672,-7.039062 0.748256,-1.473724 1.682572,-3.212388 2.976562,-5.312501 0.787696,-1.278409 0.918764,-3.700942 -0.761718,-3.648437 l -8.214844,0 -8.210938,0 z m 19.898438,16 c -0.34202,0.300922 -0.680648,0.60312 -1.058594,0.890624 -1.63958,1.247234 -3.494492,3.270256 -4.121094,4.496094 -1.094716,2.14163 -1.078942,2.311872 0.390626,4.304688 0.841156,1.14066 2.257856,2.734638 3.148436,3.54297 0.879016,0.797828 1.332806,1.60552 1.51172,2.765624 l 0,-6.882812 0,-8.515626 c 0.0703,-0.17252 0.11682,-0.323716 0.17578,-0.484374 -0.0144,-0.044 -0.03218,-0.07444 -0.04688,-0.11718 z m -12.796876,12 c -1.68196,0.09588 -5.735856,4.662104 -9.054686,10.296876 -0.952848,1.61777 -1.604376,2.619726 -2.21875,3.289062 -0.25181,1.196044 0.03826,2.452446 1.359374,2.414062 l 9.027344,0 9.027344,0 c 2.398764,-0.304116 2.725306,-1.988834 2.398438,-3.429688 -1.164708,-2.702694 -3.742172,-4.717196 -5.179688,-6.6875 -2.153468,-2.970502 -4.42905,-5.599976 -5.058594,-5.839844 -0.09016,-0.03436 -0.18866,-0.04936 -0.300782,-0.04296 z"/>
 <path style="fill:#b2bfd9" d="m 39.355045,42.00148 c -1.68196,0.09588 -5.734692,4.662268 -9.053522,10.29704 -0.952848,1.61777 -1.604442,2.619484 -2.218816,3.28882 -0.25181,1.196044 0.03838,2.450184 1.35949,2.4118 l 9.026914,0 9.026914,0 c 2.398764,-0.304116 2.724642,-1.987986 2.397774,-3.42884 -1.164708,-2.702694 -3.740428,-4.718266 -5.177944,-6.68857 -2.153468,-2.970502 -4.427976,-5.598114 -5.05752,-5.837982 -0.09016,-0.03436 -0.19116,-0.04866 -0.30329,-0.04226 z"/>
 <path style="fill:#b2bfd9" d="m 52.154341,30.00001 c -0.34202,0.300922 -0.684212,0.603194 -1.062158,0.8907 -1.63958,1.247234 -3.492302,3.270318 -4.118904,4.496156 -1.094716,2.14163 -1.080378,2.310144 0.38919,4.30296 0.841156,1.14066 2.258054,2.73691 3.148634,3.54524 0.879016,0.797828 1.331894,1.60483 1.510808,2.764934 l 0,-6.884736 0,-8.51309 c 0.0703,-0.17252 0.11942,-0.323584 0.17838,-0.484242 -0.0144,-0.044 -0.03124,-0.0752 -0.04594,-0.11794 z"/>
 <path style="fill:#b2bfd9" d="M 30.802047,19.128165 C 33.879373,24.063774 38.944385,30 40.076519,30 c 1.127596,0 3.370508,-2.511008 6.389602,-7.0403 0.748256,-1.473724 1.679804,-3.21153 2.973794,-5.311643 0.787696,-1.278409 0.91938,-3.699721 -0.761102,-3.647216 l -8.212588,0 -8.21259,0 c -3.231106,0.515504 -2.278268,3.769365 -1.451588,5.127324 z"/>
 <path style="fill:#b2bfd9" d="m 11.53355,11.999999 c -2.2799909,0.0068 -3.3884319,2.901826 -3.3884319,2.901826 -0.029254,-0.179168 -0.3107042,12.821433 0,21.797173 0.3107038,8.975738 0,19.743572 0,19.743572 2.0630609,5.85313 6.4233229,3.485926 10.7716499,0.0084 0.49957,-0.708196 1.334667,-1.655496 2.755381,-3.125044 4.551984,-4.70846 8.25139,-9.765418 10.6689,-14.581674 l 1.659244,-3.303556 -1.86699,-3.699826 C 31.106281,29.706242 28.760587,26.133508 26.920495,23.802604 26.683299,23.50214 26.534495,23.272418 26.310921,22.979488 22.429493,18.177747 17.951459,12.404817 11.53355,11.999999 Z"/>
 <path style="opacity:0.2;fill:#8b9cbe" d="M 11.533203 12 C 9.2532123 12.0068 8.1445313 14.902344 8.1445312 14.902344 C 8.1225096 14.767471 7.9593855 22.101311 8.0117188 29.564453 C 7.9803563 22.475244 8.1235343 15.773747 8.1445312 15.902344 C 8.1445313 15.902344 9.2532123 13.0068 11.533203 13 C 17.951112 13.404818 22.429119 19.176775 26.310547 23.978516 C 26.534121 24.271446 26.682726 24.50227 26.919922 24.802734 C 28.760014 27.133638 31.105791 30.705606 32.132812 32.740234 L 33.748047 35.943359 L 34 35.441406 L 32.132812 31.740234 C 31.105791 29.705606 28.760014 26.133638 26.919922 23.802734 C 26.682726 23.50227 26.534121 23.271446 26.310547 22.978516 C 22.429119 18.176775 17.951112 12.404818 11.533203 12 z M 32.253906 14 C 30.278008 14.315243 29.875141 15.654994 30.042969 16.958984 C 30.189607 16.031324 30.789341 15.233663 32.253906 15 L 40.466797 15 L 48.679688 15 C 49.455879 14.975749 49.83262 15.488895 49.949219 16.164062 C 50.111266 15.056968 49.814231 13.964552 48.679688 14 L 40.466797 14 L 32.253906 14 z M 52.154297 30 C 51.812277 30.300922 51.469743 30.603119 51.091797 30.890625 C 49.452217 32.137859 47.599258 34.160881 46.972656 35.386719 C 46.309922 36.683248 46.061633 37.258445 46.289062 37.951172 C 46.40086 37.545843 46.622768 37.071218 46.972656 36.386719 C 47.599258 35.160881 49.452217 33.137859 51.091797 31.890625 C 51.4225 31.639057 51.721627 31.374695 52.021484 31.111328 L 52.021484 30.601562 C 52.091784 30.429043 52.142212 30.277846 52.201172 30.117188 C 52.186772 30.073187 52.168997 30.04274 52.154297 30 z M 39.355469 42.001953 C 37.673509 42.097833 33.619611 46.664056 30.300781 52.298828 C 29.347933 53.916598 28.696405 54.918555 28.082031 55.587891 C 27.992083 56.015124 27.974291 56.447574 28.044922 56.828125 C 28.056768 56.748026 28.065193 56.667871 28.082031 56.587891 C 28.696405 55.918555 29.347933 54.916598 30.300781 53.298828 C 33.619611 47.664056 37.673509 43.097833 39.355469 43.001953 C 39.467599 42.995553 39.568043 43.008609 39.658203 43.042969 C 40.287747 43.282837 42.563329 45.910357 44.716797 48.880859 C 46.154313 50.851163 48.729823 52.867618 49.894531 55.570312 C 49.921566 55.689483 49.935833 55.812006 49.953125 55.933594 C 50.020495 55.487248 49.996169 55.01834 49.894531 54.570312 C 48.729823 51.867618 46.154313 49.851163 44.716797 47.880859 C 42.563329 44.910357 40.287747 42.282837 39.658203 42.042969 C 39.568043 42.008609 39.467599 41.995553 39.355469 42.001953 z M 8.2734375 44.419922 C 8.2973607 50.857592 8.1445312 56.443359 8.1445312 56.443359 C 8.1498381 56.458415 8.1567722 56.469428 8.1621094 56.484375 C 8.1898839 55.448637 8.3161034 50.625532 8.2734375 44.419922 z"/>
</svg>
