<svg xmlns="http://www.w3.org/2000/svg" width="64" height="64" version="1">
 <path style="opacity:0.2" d="m 4.0507997,32.000415 c -0.0118,0.333995 -0.050799,0.66199 -0.050799,0.999985 C 4.0000004,48.512179 16.487822,61 31.9996,61 47.511378,61 59.9992,48.512179 59.9992,33.0004 c 0,-0.337675 -0.03904,-0.66527 -0.05078,-0.999985 C 59.420428,47.0422 47.172603,59.000029 31.99882,59.000029 16.824637,59.000029 4.5772122,47.0422 4.0492197,32.000415 Z"/>
 <rect style="fill:#f18d00" width="56" height="56" x="4" y="4" rx="28" ry="28"/>
 <path style="opacity:0.2;fill-rule:evenodd" d="M 51.997314,26.936487 C 48.249368,11.091514 33.853573,11.224312 25.161698,15.360853 16.014629,19.984587 9.3907233,31.832417 13.003472,41.754475 c 5.58372,14.967786 26.137626,14.743789 33.093526,0.823988 2.063971,-5.103927 3.579949,-8.727875 -2.09797,-13.577805 l 0,5.999914 -1.999971,-3.999943 c 0,0 -1.775055,4.19594 -3.660748,6.109713 -2.623962,2.661962 -6.339909,1.889973 -6.339909,1.889973 0.70139,2.651362 5.999914,3.999942 5.999914,3.999942 -13.754603,6.509907 -14.156997,-4.370137 -13.9998,-6.9999 0.451394,-7.568691 6.536507,-13.442607 14.553192,-13.021213 2.555964,0.195997 7.445894,2.021971 7.445894,2.021971 -1.839874,-4.21014 -4.459936,-5.211926 -5.999914,-5.999914 6.036713,-1.996092 9.258667,4.305738 11.999828,7.934286 z"/>
 <path style="fill:#8b9cbe;fill-rule:evenodd" d="M 51.997314,25.936516 C 48.249368,10.091542 33.853573,10.22434 25.161698,14.360881 16.014629,18.983815 9.3907233,30.832446 13.003472,40.754504 c 5.58372,14.967786 26.137626,14.743789 33.093526,0.823988 2.063971,-5.103927 3.579949,-8.727875 -2.09797,-13.577806 l 0,5.999914 -1.999971,-3.999942 c 0,0 -1.775055,4.19594 -3.660748,6.109712 -2.623962,2.661962 -6.339909,1.889973 -6.339909,1.889973 0.70139,2.651362 5.999914,3.999943 5.999914,3.999943 -13.754603,6.509907 -14.156997,-4.370138 -13.9998,-6.9999 0.451394,-7.568692 6.536507,-13.442608 14.553192,-13.021214 2.555964,0.195998 7.445894,2.021971 7.445894,2.021971 -1.839974,-4.210139 -4.459936,-5.211925 -5.999914,-5.999914 6.036713,-1.996091 9.258667,4.305739 11.999828,7.934287 z"/>
 <path style="opacity:0.2;fill:#8b9cbe" d="M 32 4 C 16.488222 4 4 16.488222 4 32 C 4 32.113554 4.0112846 32.224034 4.0175781 32.335938 C 4.3691163 17.134398 16.710946 5 32 5 C 47.289054 5 59.630884 17.134398 59.982422 32.335938 C 59.988797 32.224034 60 32.113554 60 32 C 60 16.488222 47.511778 4 32 4 z"/>
</svg>
