<svg width="64" height="64" version="1.1" xmlns="http://www.w3.org/2000/svg">
 <rect x="4" y="5" width="56" height="56" rx="4" ry="4" style="opacity:.2"/>
 <rect x="4" y="4" width="56" height="56" rx="4" ry="4" style="fill:#4f4f4f"/>
 <path d="m29.757812 8.2421875c-0.265807 0.010555-0.538313 0.0337206-0.828124 0.0722656-0.570372 0.07585-1.190735 0.175207-1.38086 0.21875-0.19012 0.04354-1.029815 0.219948-1.865234 0.390625-2.43852 0.4981953-3.528655 0.9170385-5.640625 2.1874999-0.419938 0.252616-1.097916 0.637949-1.509766 0.853516-1.195213 0.625585-1.689374 0.95834-2.201172 1.484375-2.811292 2.889488-3.223021 3.356211-4.164062 4.730469-0.623523 0.910569-1.914213 3.290641-2.4609378 4.539062-0.114492 0.261419-0.3311989 0.747361-0.484375 1.080078-0.6782579 1.473247-0.8804601 2.083095-1.2519531 3.759766-0.283903 1.281347-0.8215338 3.238609-1.1542969 4.203125-0.390068 1.130615-0.4802456 1.719092-0.4785156 3.097656 0.0015 1.250533 0.0702034 1.68031 0.3339844 2.037109 0.162484 0.219772 0.1796875 0.361502 0.1796875 1.564454 0 1.453989 0.073193 1.708984 0.484375 1.708984 0.524575 0 1.1565904 0.516763 1.1621094 0.951172 0.0036 0.29064 0.1617805 0.381436 0.7734375 0.4375 0.551877 0.05057 0.6500618 0.094249 0.9355466 0.36914 0.175252 0.168728 0.505202 0.386874 0.732422 0.492188 0.468471 0.21714 0.631944 0.41311 0.765625 0.908203 0.05132 0.19012 0.241865 0.507586 0.423828 0.705078 0.187124 0.203112 0.384949 0.542479 0.457032 0.779297 0.07008 0.2303 0.244493 0.62725 0.390624 0.888672 0.19376 0.346643 0.264505 0.587998 0.265626 0.894531l0.005859 0.423828 0.28125-0.060547c0.154476-0.03324 0.515269-0.080139 0.806641-0.103515l0.533203-0.041016 0.246093 0.363281c0.344887 0.508222 0.735991 0.705398 1.3125 0.66211 0.4459-0.0336 0.462623-0.029395 0.689454 0.287109 0.305968 0.426905 0.580703 0.582063 1.162109 0.650391 0.426084 0.05009 0.489362 0.041352 0.574219-0.117188 0.05242-0.09789 0.095703-0.297606 0.095703-0.4375 0-0.30702 0.202635-0.513194 0.36914-0.375 0.06166 0.05116 0.187338 0.327846 0.273438 0.615235 0.08607 0.287384 0.20665 0.52539 0.267578 0.52539 0.1939 0 0.522583-0.828823 0.730469-1.83789 0.05631-0.273308 0.149078-0.500143 0.205078-0.5 0.09402 2.6e-4 0.472187 0.282483 2.345703 1.703125 1.291929 0.979661 3.273456 2.287365 4.039063 2.671875 1.927866 0.968234 3.101079 1.126866 4.80664 0.636718 1.160667-0.33355 2.80926-1.125065 4.421875-2.126953 0.689198-0.428187 1.561158-0.950121 1.941406-1.154297 0.380246-0.204176 0.885159-0.485504 1.115235-0.628906 0.433706-0.270312 0.570814-0.242801 0.574218 0.123047 0.0025 0.264152 0.343773 1.264571 0.498047 1.455078l0.150391 0.191406 0.423828-0.347656c0.416026-0.343767 0.696984-0.438396 1.333984-0.4375 0.20874 2.61e-4 0.368744-0.074129 0.560547-0.259766 0.147952-0.143191 0.420193-0.320812 0.601563-0.396484 0.29911-0.124768 0.376172-0.12824 0.847656-0.007812 0.626735 0.160552 0.553578 0.165004 0.710938 0.007812 0.08907-0.08907 0.115267-0.226626 0.082031-0.43164-0.04343-0.267764-0.021562-0.307617 0.191406-0.388672 0.29456-0.112 0.611272 0.065275 0.744141 0.416015 0.0922 0.243348 0.403901 0.623047 0.513672 0.623047 0.035 0 0.256004-0.155107 0.492187-0.341797 0.377325-0.29827 0.462731-0.428615 0.689453-1.060547 0.141932-0.395558 0.282253-0.861402 0.314453-1.039062 0.101892-0.561714 0.499589-0.644286 1.00586-0.210938 0.183568 0.157136 0.436418 0.335897 0.560547 0.402344 0.194712 0.104188 0.238062 0.102753 0.30664-0.005859 0.04371-0.0691 0.081302-0.209313 0.082032-0.314453 6.94e-4 -0.105168 0.07822-0.411855 0.177734-0.677735 0.171752-0.459007 0.199942-0.482172 0.458984-0.457031 0.233072 0.02268 0.303911 0.097275 0.525391 0.511719 0.33173 0.620819 0.462199 0.773437 0.664062 0.773437 0.194936 0 0.505401-0.475629 0.50586-0.773437 3.42e-4 -0.225092-0.121869-0.655047-0.314453-1.113281-0.154868-0.36857-0.151165-0.574166 0.013672-0.710938 0.11032-0.09156 0.177776-0.077441 0.375 0.068359 0.131039 0.09688 0.449729 0.280769 0.705078 0.410157 0.423878 0.214788 0.490072 0.226318 0.785156 0.128906 0.177772-0.05866 0.43012-0.079585 0.560547-0.046875 0.303066 0.07605 0.376257-0.04483 0.382812-0.601563 7e-3 -0.602541 0.134334-1.182087 0.273438-1.265625 0.06451-0.03872 0.272271-0.161725 0.464843-0.279297l0.34961-0.21875 0.402344 0.265626c0.221088 0.143807 0.444801 0.233322 0.5 0.199218 0.124208-0.07661 0.059033-0.786823-0.185547-1.941406-0.0957-0.451337-0.250181-1.183441-0.341797-1.626953-0.1757-0.850603-0.364949-4.213425-0.279297-4.941406 0.13576-1.152967-0.733379-6.327029-1.416016-8.451172-0.11822-0.367927-0.304225-1.013629-0.416015-1.441407-0.415408-1.58966-1.307055-3.646041-2.195313-5.058593-0.194275-0.308951-0.415428-0.676726-0.492187-0.814453-0.655416-1.176019-3.415336-4.306229-4.742188-5.378907-0.380249-0.307406-0.985315-0.714491-1.341797-0.902343-0.356482-0.187851-0.860122-0.472535-1.121093-0.636719-0.260969-0.164184-0.787273-0.423657-1.167969-0.574219-0.380699-0.150561-0.848937-0.3420871-1.039063-0.423828-1.155591-0.4968328-2.800834-0.9204515-4.019531-1.0390625-1.697889-0.165249-3.202309-0.1940061-4.191406-0.0800781-0.887163 0.102186-1.005249 0.0971706-1.6875-0.0683594-0.696726-0.169041-1.256866-0.2701058-1.791016-0.3085938-0.267075-0.0192449-0.527161-0.0222737-0.792969-0.0117187zm-7.191406 24.544922c0.520716 0.0045 1.03577 0.141056 1.558594 0.398438 1.33882 0.6591 2.148738 2.20067 1.914062 3.642578-0.08218 0.504999-0.314664 1.101563-0.43164 1.101563-0.03601 0-0.267741 0.185479-0.511719 0.421874-0.578818 0.560834-1.664572 1.093881-2.474609 1.210938-0.678529 0.09806-0.756086 0.102488-1.121094 0.013672-0.344988-0.084-0.801935-0.32473-1.142578-0.601563-0.15274-0.124124-0.38739-0.310704-0.525391-0.416015-0.31234-0.238336-0.664973-0.964007-0.800781-1.654297-0.281613-1.431413 0.600361-3.107131 1.962891-3.746094 0.529553-0.248332 1.051549-0.373618 1.572265-0.369141v-0.001953zm16.759766 0.757813c0.192365-0.001009 0.388071 0.012804 0.582031 0.042969 0.38792 0.0602 0.768848 0.184996 1.087891 0.355468 0.550682 0.294241 1.199293 0.931249 1.496094 1.476563 0.299633 0.550558 0.518354 1.667975 0.396484 2.017578-0.04866 0.13958-0.087891 0.346705-0.087891 0.457031 0 0.300157-0.375457 1.062535-0.724609 1.46875-0.169568 0.197288-0.492653 0.474259-0.71875 0.609375-0.391684 0.23408-0.466525 0.241902-1.578125 0.259766-0.641665 0.01008-1.262031-0.014258-1.380859-0.054688-0.717244-0.242844-1.380989-0.630525-1.791016-1.052734-0.553476-0.569918-0.721474-0.961059-0.779297-1.804688-0.126168-1.840845 1.087181-3.385267 2.939453-3.726562 0.178183-0.03283 0.366229-0.047819 0.558594-0.048828zm-7.890625 11.240234c0.142465 0.00679 0.228989 0.02883 0.269531 0.0625 0.153132 0.127092 0.153124 0.20824-0.013672 0.375-0.18816 0.18816-1.436946 0.194153-1.591797 0.007813-0.216832-0.261268-0.04038-0.363978 0.738282-0.423828 0.257761-0.01981 0.455191-0.028275 0.597656-0.021485zm-0.878906 2.47461h0.001953c0.328024-0.012124 0.678142 0.02043 0.927734 0.089843 0.395794 0.109928 0.709554 0.436957 0.671875 0.703125-0.03494 0.246736-0.073745 0.24566-1.607422 0.13086l-1.15625-0.082032 0.029297-0.267578c0.02044-0.208712 0.093412-0.306567 0.328125-0.423828 0.170053-0.084972 0.476884-0.13801 0.804688-0.15039zm-3.28711 6.404296c-0.1148 0.0064-0.308014 0.063514-0.669922 0.171876-0.98098 0.293649-1.848966 0.481407-2.769531 0.595703-1.053337 0.130788-1.477528 0.24556-2.398437 0.65625-1.23541 0.550962-2.166936 1.243986-2.591797 1.933593-0.10248 0.166348-0.272864 0.394392-0.375 0.50586-0.393476 0.42941-1.041541 1.642539-1.373047 2.472656h24.642578c-0.12772-0.373391-0.275871-0.784533-0.355469-0.941406-0.209804-0.413409-1.842388-2.626843-2.283203-3.095703-0.407501-0.433417-0.518786-0.488149-1.996094-0.923829-0.689197-0.203251-1.509407-0.496188-1.818359-0.65039-0.694884-0.34685-1.080043-0.44182-1.25-0.300781-0.205632 0.17066-0.153115 0.323364 0.265625 0.724609l0.396484 0.382812-0.757812 0.232422c-1.133569 0.345763-1.620348 0.399393-3.746094 0.410157-1.9012 0.0098-1.96269 0.004858-2.638672-0.22461-0.709844-0.241136-1.341797-0.61232-1.341797-0.785156 0-0.05362 0.193728-0.187787 0.431641-0.300781 0.548175-0.26026 0.880431-0.561254 0.8125-0.738282-0.03332-0.086829-0.068798-0.131216-0.183594-0.125z" style="opacity:.2"/>
 <path d="m30.55078 7.2539057c-0.53415-0.03849-1.040494-0.01557-1.620116 0.06152-0.570372 0.07585-1.190737 0.175207-1.380862 0.21875-0.19012 0.04354-1.03079 0.218971-1.866209 0.389648-2.43852 0.4981953-3.527681 0.9170389-5.639651 2.1875003-0.419938 0.252616-1.09889 0.638925-1.51074 0.854492-1.195213 0.625585-1.689374 0.957363-2.201172 1.483398-2.811292 2.889488-3.222047 3.356211-4.163088 4.730469-0.623523 0.91057-1.914211 3.290641-2.460936 4.539062-0.114492 0.261419-0.332176 0.747362-0.485352 1.080079-0.678258 1.473247-0.879483 2.083095-1.250976 3.759766-0.283903 1.281347-0.822511 3.239586-1.155274 4.204102-0.390068 1.130615-0.480245 1.718116-0.478515 3.09668 0.0015 1.250533 0.07118 1.68031 0.334961 2.037109 0.162484 0.219772 0.177744 0.362477 0.177744 1.565429 0 1.45399 0.07417 1.708983 0.485352 1.708983 0.524575 0 1.156591 0.515785 1.16211 0.950194 0.0036 0.29064 0.160804 0.381436 0.772461 0.4375 0.551877 0.05057 0.651036 0.09425 0.936521 0.369141 0.175252 0.168728 0.504227 0.386873 0.731447 0.492187 0.468471 0.21714 0.631943 0.414089 0.765624 0.909182 0.05132 0.19012 0.241864 0.50661 0.423827 0.704102 0.187124 0.203112 0.385927 0.542478 0.45801 0.779296 0.07008 0.2303 0.243516 0.627248 0.389648 0.88867 0.19376 0.346643 0.265468 0.588977 0.266588 0.89551l0.0067 0.423827 0.280272-0.06154c0.154476-0.03324 0.51527-0.07916 0.806641-0.102536l0.533204-0.04102 0.246092 0.362301c0.344887 0.508222 0.735991 0.706375 1.3125 0.663087 0.4459-0.0336 0.463599-0.0294 0.690429 0.287104 0.305968 0.426905 0.580704 0.581084 1.16211 0.649412 0.426084 0.05009 0.489361 0.04234 0.574218-0.1162 0.05242-0.09789 0.0957-0.297606 0.0957-0.4375 0-0.30702 0.202636-0.514169 0.369141-0.375975 0.06166 0.05116 0.187348 0.327846 0.273448 0.615235 0.08607 0.287384 0.205688 0.526364 0.266616 0.526364 0.1939 0 0.523561-0.829797 0.731447-1.838864 0.05631-0.273308 0.149072-0.499167 0.205072-0.499024 0.09402 2.6e-4 0.471209 0.281506 2.344725 1.702148 1.291929 0.979661 3.274432 2.288342 4.040039 2.672852 1.927867 0.968234 3.100104 1.125888 4.805665 0.63574 1.160667-0.33355 2.810234-1.124088 4.422849-2.125976 0.689198-0.428187 1.56116-0.951098 1.941408-1.155274 0.380246-0.204176 0.884179-0.485503 1.114255-0.628905 0.433706-0.270312 0.570816-0.242788 0.574221 0.12306 0.0025 0.264152 0.34475 1.265549 0.499024 1.456056l0.150388 0.191408 0.423831-0.348637c0.416026-0.343767 0.696004-0.438396 1.333004-0.4375 0.20874 2.61e-4 0.368743-0.07412 0.560546-0.259756 0.147952-0.143192 0.420193-0.32081 0.601563-0.396482 0.29911-0.124768 0.376174-0.127428 0.847658-7e-3 0.626735 0.160552 0.553577 0.164192 0.710937 7e-3 0.08907-0.08907 0.115276-0.225652 0.08204-0.430666-0.04343-0.267764-0.02156-0.308593 0.191408-0.389648 0.29456-0.112 0.612245 0.06625 0.745114 0.41699 0.0922 0.243348 0.402928 0.622074 0.512699 0.622074 0.035 0 0.256004-0.15512 0.492187-0.34181 0.377325-0.29827 0.463705-0.427642 0.690427-1.059574 0.141932-0.395558 0.28224-0.8614 0.31444-1.03906 0.101892-0.561714 0.49861-0.64528 1.004881-0.211932 0.183568 0.157136 0.436422 0.336876 0.560551 0.403323 0.194712 0.104188 0.239036 0.101612 0.307614-7e-3 0.04371-0.0691 0.08131-0.2093 0.08204-0.31444 6.94e-4 -0.105168 0.07823-0.41088 0.177744-0.67676 0.171752-0.459007 0.198968-0.483148 0.45801-0.458007 0.233072 0.02268 0.304886 0.09825 0.526366 0.512694 0.33173 0.620819 0.461222 0.772464 0.663085 0.772464 0.194936 0 0.5054-0.474656 0.505859-0.772464 3.42e-4 -0.225092-0.121856-0.656023-0.31444-1.114257-0.154868-0.36857-0.151116-0.574165 0.01372-0.710937 0.11032-0.09156 0.178752-0.07745 0.375976 0.06835 0.13104 0.09688 0.448753 0.28077 0.704102 0.410158 0.423878 0.214788 0.491047 0.227304 0.786131 0.129892 0.177772-0.05866 0.430119-0.08056 0.560546-0.04785 0.303066 0.07605 0.376258-0.04483 0.382813-0.601563 7e-3 -0.602541 0.134344-1.18111 0.273448-1.264648 0.06451-0.03872 0.272272-0.162708 0.464845-0.28028l0.348633-0.218764 0.403324 0.266588c0.221088 0.143808 0.443825 0.232344 0.499024 0.19824 0.124208-0.07661 0.05992-0.786607-0.18466-1.94119-0.0957-0.451337-0.25018-1.183442-0.341796-1.626954-0.1757-0.850603-0.365926-4.2144-0.280274-4.942381 0.13576-1.152967-0.732296-6.32508-1.414933-8.449223-0.11822-0.367927-0.305179-1.014605-0.416969-1.442383-0.415408-1.58966-1.306077-3.646041-2.194335-5.058593-0.194275-0.308951-0.41543-0.675751-0.492189-0.813478-0.655416-1.176019-3.417283-4.307204-4.744135-5.379882-0.380249-0.307406-0.983366-0.714492-1.339848-0.902344-0.356482-0.187851-0.860121-0.4715576-1.121092-0.6357421-0.260969-0.1641841-0.788251-0.4236573-1.168947-0.5742186-0.380699-0.1505614-0.848937-0.342087-1.039063-0.4238279-1.155591-0.4968328-2.800832-0.9204517-4.019529-1.0390627-1.697889-0.165249-3.201332-0.195958-4.190429-0.08203-0.887163 0.102186-1.006228 0.09717-1.688479-0.06836-0.696726-0.169041-1.256864-0.26913-1.791014-0.307617zm-7.984376 24.534179c0.520716 0.0045 1.03577 0.139104 1.558594 0.396486 1.33882 0.6591 2.14874 2.201648 1.914064 3.643556-0.08218 0.504999-0.31369 1.100584-0.430666 1.100584-0.03601 0-0.268716 0.187432-0.512694 0.423828-0.578818 0.560834-1.664572 1.092904-2.474609 1.209961-0.678529 0.09806-0.756087 0.102536-1.121095 0.01372-0.344988-0.084-0.800959-0.32473-1.141602-0.601563-0.15274-0.124124-0.388365-0.311682-0.526366-0.416993-0.31234-0.238336-0.663998-0.964006-0.799806-1.654296-0.281613-1.431413 0.599385-3.107132 1.961915-3.746095 0.529553-0.248332 1.051549-0.373618 1.572265-0.36914zm17.342774 0.799806c0.38792 0.0602 0.767869 0.184996 1.086912 0.355468 0.550682 0.294241 1.200273 0.93125 1.497073 1.476564 0.299634 0.550558 0.518353 1.666999 0.396483 2.016602-0.04866 0.13958-0.08887 0.347681-0.08887 0.458007 0 0.300157-0.37546 1.06351-0.724612 1.469725-0.169568 0.197288-0.491677 0.473282-0.717774 0.608398-0.391684 0.23408-0.467502 0.241892-1.579102 0.259756-0.641665 0.01008-1.26203-0.01428-1.380859-0.05471-0.717243-0.242844-1.380988-0.630509-1.791015-1.052718-0.553476-0.569918-0.721473-0.961058-0.779296-1.804687-0.126168-1.840846 1.087179-3.384293 2.939451-3.725588 0.356365-0.06566 0.753682-0.06703 1.141602-0.0067zm-9.071289 11.217774c0.515522-0.03962 0.78708-0.02632 0.868165 0.04102 0.153132 0.127092 0.153076 0.209216-0.01372 0.375976-0.18816 0.18816-1.437923 0.19334-1.592774 7e-3 -0.216832-0.261268-0.04038-0.363978 0.738282-0.423828zm-0.280274 2.454102c0.328583-0.01232 0.679605 0.01932 0.929689 0.08887 0.395794 0.109928 0.707602 0.437934 0.669923 0.704102-0.03494 0.246736-0.07277 0.244692-1.606447 0.129892l-1.155274-0.08204 0.02744-0.266588c0.02044-0.208712 0.09341-0.306563 0.328123-0.423824 0.170408-0.08515 0.478064-0.138152 0.806641-0.150388zm-3.288085 6.405272c-0.1148 0.0064-0.308014 0.06255-0.669922 0.170912-0.98098 0.29365-1.847989 0.480429-2.768554 0.594725-1.053337 0.130788-1.478506 0.24556-2.399415 0.65625-1.23541 0.550962-2.165959 1.244964-2.59082 1.934571-0.10248 0.166348-0.27384 0.394388-0.375976 0.505856-0.542699 0.592262-1.584061 2.692682-1.585937 3.192381v0.280266h25.190427l-0.259756-0.799806c-0.141232-0.438841-0.334188-0.951479-0.430657-1.141602-0.209804-0.413409-1.842389-2.627817-2.283204-3.096677-0.407501-0.433417-0.518787-0.487172-1.996095-0.922852-0.689197-0.203252-1.509407-0.495213-1.818359-0.649415-0.694884-0.34685-1.081018-0.441829-1.250975-0.30079-0.205632 0.17066-0.152124 0.323364 0.266616 0.724609l0.396482 0.382811-0.758788 0.232428c-1.133569 0.345763-1.620346 0.399394-3.746092 0.410158-1.9012 0.0098-1.962691 0.0039-2.638673-0.225568-0.709844-0.241136-1.339872-0.613298-1.339872-0.786134 0-0.05362 0.192752-0.187796 0.430665-0.30079 0.548175-0.26026 0.881406-0.561257 0.813475-0.738284-0.03332-0.08683-0.06978-0.129276-0.184576-0.12306z" style="fill:#8b9cbe"/>
 <path d="m22.662108 31.665039c-0.738447-0.02604-0.891137-7.59e-4 -1.462891 0.218764-0.837909 0.321692-1.498294 0.922466-1.955078 1.777345-0.333743 0.624632-0.334961 0.63117-0.334961 1.620116 0 0.967313 0.0039 1.011041 0.314454 1.661134 0.2499 0.523295 0.312155 0.738948 0.273448 0.977539-0.03861 0.237944 5.9e-5 0.380928 0.177744 0.649412 0.125076 0.189 0.225596 0.404897 0.225596 0.485352 0 0.200928 0.250572 0.464848 0.444335 0.464848 0.08786 0 0.307986-0.07585 0.485352-0.170912 0.483042-0.258888 0.740426-0.225792 1.011718 0.129892 0.397326 0.520917 0.503152 0.875221 0.396486 1.298824-0.0513 0.2037-0.08887 0.636538-0.08887 0.957032 0 0.47934 0.02999 0.614762 0.184576 0.779296 0.21686 0.230832 0.474359 0.260064 0.738281 0.07521 0.179956-0.126028 0.31409-0.471447 0.717772-1.852539 0.198492-0.679092 0.231812-0.727675 1.264654-1.620133 0.978009-0.845088 1.451469-1.809926 1.127929-2.303711-0.108556-0.165676-0.119056-0.281075-0.04785-0.587891 0.0485-0.208992 0.07025-0.722823 0.04785-1.141602-0.03494-0.653209-0.0819-0.847986-0.348631-1.3877-0.381976-0.772875-0.96498-1.344302-1.763669-1.722658-0.502214-0.237916-0.695226-0.282416-1.408204-0.307616zm-0.0957 0.123032c0.520716 0.0045 1.03577 0.139104 1.558594 0.396486 1.33882 0.6591 2.14874 2.201648 1.914064 3.643556-0.08218 0.504999-0.31369 1.100584-0.430666 1.100584-0.03601 0-0.268716 0.187432-0.512694 0.423828-0.578818 0.560834-1.664572 1.092904-2.474609 1.209961-0.678529 0.09806-0.756087 0.102536-1.121095 0.01372-0.344988-0.084-0.800959-0.32473-1.141602-0.601563-0.15274-0.124124-0.388365-0.311682-0.526366-0.416993-0.31234-0.238336-0.663998-0.964006-0.799806-1.654296-0.281613-1.431413 0.599385-3.107132 1.961915-3.746095 0.529553-0.248332 1.051549-0.373618 1.572265-0.36914zm16.7959 0.587891c-0.932646-0.0012-1.868787 0.360486-2.618165 1.09375-1.044795 1.022333-1.358734 2.475796-0.854493 3.930665 0.140868 0.406473 0.158424 0.566084 0.08887 0.765626-0.176876 0.507355-0.116004 0.71379 0.396483 1.285156 0.71486 0.796997 1.373873 2.188718 1.544922 3.267577 0.0716 0.451545 0.129724 1.035034 0.129892 1.298828 1.94e-4 0.263788 0.0455 0.524003 0.102536 0.581053 0.143612 0.143612 0.290971 0.13286 0.464845-0.04102 0.130228-0.130228 0.144088-0.290254 0.102536-1.339845-0.04077-1.02998-0.028-1.217588 0.0957-1.360352 0.236992-0.273644 0.67067-0.14756 0.875 0.252952 0.17878 0.350426 0.361766 0.46328 0.615236 0.382813 0.313003-0.09932 0.295433-0.497002-0.06835-1.606446-0.05838-0.178052 0.2142-0.4283 0.991211-0.902342 0.549231-0.33509 0.585679-0.367682 0.628905-0.731444 0.04959-0.417086 0.06905-0.467032 0.478515-1.004884 1.066427-1.400848 0.903515-3.469225-0.382814-4.771491-0.72623-0.735233-1.658179-1.099347-2.59082-1.100588zm0.546874 0.211904c0.38792 0.0602 0.767869 0.184996 1.086912 0.355468 0.550682 0.294241 1.200273 0.931249 1.497073 1.476563 0.299634 0.550559 0.518353 1.667 0.396483 2.016602-0.04866 0.13958-0.08887 0.347682-0.08887 0.458008 0 0.300157-0.37546 1.063512-0.724612 1.469725-0.169568 0.197288-0.491677 0.473281-0.717774 0.608401-0.391684 0.23408-0.467502 0.241892-1.579102 0.259756-0.641665 0.01008-1.26203-0.01428-1.380859-0.05471-0.717243-0.242844-1.380988-0.63051-1.791015-1.052719-0.553476-0.569917-0.721473-0.961058-0.779296-1.804687-0.126168-1.840846 1.087179-3.384292 2.939451-3.725587 0.356365-0.06566 0.753682-0.06703 1.141602-0.0067zm-19.564454 7.478542c-0.067-0.0098-0.139384 0.02324-0.218764 0.102536-0.105784 0.105784-0.115556 0.181104-0.04785 0.307614 0.108332 0.20258 0.277592 0.211736 0.430665 0.02716 0.0803-0.0968 0.08926-0.175252 0.02744-0.273448-0.06334-0.100408-0.124404-0.154168-0.191408-0.164052zm2.269532 4.176757c-0.114044 0.0126-0.231 0.08266-0.341796 0.205072-0.191072 0.21112-0.09274 0.668862 0.164052 0.772462 0.252532 0.101752 0.265216 0.10276 0.430665-0.02072 0.240268-0.179032 0.280042-0.622292 0.07518-0.827148-0.09915-0.09915-0.214088-0.14252-0.328127-0.129892z" style="fill:#af2828"/>
 <path d="m8 4c-2.216 0-4 1.784-4 4v1c0-2.216 1.784-4 4-4h48c2.216 0 4 1.784 4 4v-1c0-2.216-1.784-4-4-4h-48z" style="fill:#8b9cbe;opacity:.1"/>
</svg>
