<svg xmlns="http://www.w3.org/2000/svg" height="64" width="64" version="1.1">
 <circle cx="32" cy="33" r="28" style="opacity:.2"/>
 <circle cx="32" cy="32" r="28" style="fill:#ff4f4f"/>
 <path style="opacity:.2" d="m32 5-3 13h6zm-17 25-11 3 11 3zm34 0v6l11-3zm-20 18 3 13 3-13z"/>
 <path d="m32 4a28 28 0 0 0 -28 28 28 28 0 0 0 0.0215 0.586 28 28 0 0 1 27.9785 -27.586 28 28 0 0 1 27.979 27.414 28 28 0 0 0 0.021 -0.414 28 28 0 0 0 -28 -28z" style="opacity:.2;fill:#8b9cbe"/>
 <path style="fill:#f7df67" d="m32 4l-3 13h6l-3-13zm-17 25l-11 3 11 3v-6zm34 0v6l11-3-11-3zm-20 18l3 13 3-13h-6z"/>
 <path style="opacity:.2" d="m32 17c-1.409544 0.000155-2.818863 0.126033-4.203125 0.355469l-3.796875 6.644531h24.978516c-3.719188-4.373362-10.366622-6.99359-16.978516-7zm-4.455078 0.398438c-5.02021 0.882751-9.662438 3.21208-12.544922 6.601562h5zm-12.523438 24.601562c2.87705 3.383099 7.507918 5.709209 12.517578 6.595703l-7.539062-6.595703zm8.978516 0 3.794922 6.640625c1.384665 0.230814 2.794892 0.358008 4.205078 0.359375 6.619498-0.000726 13.276532-2.621614 17-7z"/>
 <path style="fill:#8b9cbe" d="m32 16c-1.409544 0.000155-2.818863 0.126033-4.203125 0.355469l-3.796875 6.644531h24.978516c-3.719188-4.373362-10.366622-6.99359-16.978516-7zm-4.455078 0.398438c-5.02021 0.882751-9.662438 3.21208-12.544922 6.601562h5l7.544922-6.601562zm-12.523438 24.601562c2.87705 3.383099 7.507918 5.709209 12.517578 6.595703l-7.539062-6.595703h-4.978516zm8.978516 0l3.794922 6.640625c1.384665 0.230814 2.794892 0.358008 4.205078 0.359375 6.619498-0.000726 13.276532-2.621614 17-7h-25z"/>
 <path style="opacity:.2" d="m21.5 25a5.5 8 0 0 0 -5.5 8 5.5 8 0 0 0 5.5 8 5.5 8 0 0 0 5.5 -8 5.5 8 0 0 0 -5.5 -8zm12 0a5.5 8 0 0 0 -5.5 8 5.5 8 0 0 0 5.5 8 5.5 8 0 0 0 5.5 -8 5.5 8 0 0 0 -5.5 -8zm9.5 0l-3 4h3v12h5v-16h-5zm-21.5 3a2.5 5 0 0 1 2.5 5 2.5 5 0 0 1 -2.5 5 2.5 5 0 0 1 -2.5 -5 2.5 5 0 0 1 2.5 -5zm12 0a2.5 5 0 0 1 2.5 5 2.5 5 0 0 1 -2.5 5 2.5 5 0 0 1 -2.5 -5 2.5 5 0 0 1 2.5 -5z"/>
 <path style="fill:#8b9cbe" d="m21.5 24a5.5 8 0 0 0 -5.5 8 5.5 8 0 0 0 5.5 8 5.5 8 0 0 0 5.5 -8 5.5 8 0 0 0 -5.5 -8zm0 3a2.5 5 0 0 1 2.5 5 2.5 5 0 0 1 -2.5 5 2.5 5 0 0 1 -2.5 -5 2.5 5 0 0 1 2.5 -5z"/>
 <path style="fill:#8b9cbe" d="m33.5 24a5.5 8 0 0 0 -5.5 8 5.5 8 0 0 0 5.5 8 5.5 8 0 0 0 5.5 -8 5.5 8 0 0 0 -5.5 -8zm0 3a2.5 5 0 0 1 2.5 5 2.5 5 0 0 1 -2.5 5 2.5 5 0 0 1 -2.5 -5 2.5 5 0 0 1 2.5 -5z"/>
 <path style="fill:#8b9cbe" d="m48 40v-16h-5l-3 4h3v12z"/>
</svg>
