<svg xmlns="http://www.w3.org/2000/svg" height="64" width="64" version="1.1" xmlns:xlink="http://www.w3.org/1999/xlink">
 <g transform="translate(.140625)">
  <path style="opacity:.2" d="m32 52c-28.000001 0-28.000001-14-28.000001-14s0-28 28.000001-28c27.999999 0 27.999999 28 27.999999 28s0 14-27.999999 14z"/>
  <path style="fill:#4f4f4f" d="m32.000001 51c-28.000001 0-28.000001-14-28.000001-14s2e-7 -28 28.000001-28c27.999999 0 27.999999 28 27.999999 28s0 14-27.999999 14z"/>
  <path style="opacity:.2" d="m15 28c-6.9912115 0-6.9867991 9.964842 0 10h14s-8.000001-10-14-10zm34 0c-5.999999 0-14 10-14 10h14c6.986799-0.03516 6.991211-10 0-10z"/>
  <path style="fill:#ff3737" d="m15 27c-6.9912115 0-6.9867991 9.964842 0 10h14s-8.000001-10-14-10zm34 0c-5.999999 0-14 10-14 10h14c6.986799-0.03516 6.991211-10 0-10z"/>
  <path style="opacity:.1;fill:#8b9cbe" d="m32 9c-28.000001 0-28 28-28 28s0.0218844 0.20843 0.03125 0.333984c0.124807-3.357471 1.9063779-27.333984 27.96875-27.333984 26.06237 0 27.843943 23.976513 27.96875 27.333984 0.009366-0.125554 0.03125-0.333984 0.03125-0.333984s-0.000001-28-28-28z"/>
  <path style="opacity:.2;fill:#8b9cbe" d="m15 27c-3.730149 0-5.448047 2.834594-5.1972656 5.486328 0.2186526-2.316772 1.9366916-4.486328 5.1972656-4.486328 5.040296 0 11.205682 6.742512 13.140625 9h0.859375s-8.000001-10-14-10zm34 0c-5.999999 0-14 10-14 10h0.859375c1.934943-2.257488 8.100329-9 13.140625-9 3.260574 0 4.978613 2.169556 5.197266 4.486328 0.250781-2.651734-1.467118-5.486328-5.197266-5.486328z"/>
 </g>
</svg>
