<svg xmlns="http://www.w3.org/2000/svg" width="64" height="64" version="1.1">
 <g transform="translate(0,48)">
  <g transform="matrix(0.07871412,0,0,0.07871412,-13.603644,-21.886191)">
   <path style="opacity:0.2" d="m 642.86884,-280.93822 c -153.46206,0 -279.5025,126.131 -279.5025,279.7033157 v 0.0496 0.0994 c 0.036,20.2291603 7.35946,39.2910203 11.7121,58.9502603 L 267.68438,217.7303 c -12.77312,15.69316 -24.3608,35.35684 -28.98252,58.25498 -5.25566,26.03904 -0.82442,49.90442 4.51612,67.9393 l 0.0496,0.149 0.0496,0.1986 c 16.15466,53.73356 69.43602,99.41672 120.89278,108.4148 22.71638,4.41858 50.75532,5.32498 75.53314,-4.02272 25.36402,-9.56876 39.99034,-23.31362 52.30748,-34.06896 L 649.51888,277.12748 C 799.7787,273.34356 922.37132,149.98384 922.37132,-1.2349443 922.37132,-154.80726 796.33086,-280.93826 642.86878,-280.93826 Z"/>
   <path style="fill:#f16d00" d="m 642.86884,-293.64243 c -153.46206,10e-6 -279.5025,126.13101 -279.5025,279.70333 v 0.0496 0.0994 c 0.036,20.22916 7.35946,39.29102 11.7121,58.95026 L 267.68438,205.0261 c -12.77312,15.69316 -24.3608,35.35684 -28.98252,58.25498 -5.25566,26.03904 -0.82442,49.90442 4.51612,67.9393 l 0.0496,0.149 0.0496,0.1986 c 16.15466,53.73356 69.43602,99.41672 120.89278,108.4148 22.71638,4.41858 50.75532,5.32498 75.53314,-4.02272 25.36402,-9.56876 39.99034,-23.31362 52.30748,-34.06896 l 157.4683,-137.46782 c 150.25982,-3.78392 272.85244,-127.14364 272.85244,-278.36242 0,-153.57232 -126.04046,-279.70332 -279.50254,-279.70333 z"/>
   <path style="fill:#325481" d="M 471.48062,38.14386 329.75226,249.05638 c -18.54086,20.67878 -20.44244,36.30716 -13.41154,60.03338 10.27872,34.16448 30.59172,50.74248 61.4049,55.74044 30.51744,6.24942 41.77444,-1.28458 64.21642,-20.86684 l 197.11898,-172.00076 4.36578,3.12182 z"/>
   <circle style="opacity:0.2" cx="642.879" cy="-1.446" r="203.267"/>
   <circle style="fill:#bfbfbf" cx="642.879" cy="-14.15" r="203.267"/>
   <path style="opacity:0.4" d="m 468.32366,-119.05906 -9.95352,20.11548 c 10.03428,75.23668 34.75148,128.19884 86.08524,174.41952 48.78778,43.92824 116.7236,72.5466 204.87728,83.77812 l 23.2515,-16.6515 C 680.39764,132.99118 604.7187,104.5873 556.97688,61.60082 509.23508,18.6143 477.90646,-47.20714 468.32366,-119.05906 Z"/>
   <path style="opacity:0.2;fill:#8b9cbe" transform="matrix(12.704201,0,0,12.704201,172.82343,-331.75508)" d="M 37 3 C 24.920369 3.0000008 14.998047 12.929268 14.998047 25.017578 L 14.998047 25.021484 L 14.998047 25.029297 C 14.998189 25.109175 15.014651 25.186192 15.017578 25.265625 C 15.419386 13.520881 25.172246 4.0000008 37 4 C 48.916456 4.0000008 58.725261 13.663248 58.988281 25.529297 C 58.992283 25.35836 59 25.189451 59 25.017578 C 59 12.929268 49.079633 3.0000008 37 3 z M 15.734375 29.943359 L 7.4667969 42.251953 C 6.461372 43.487226 5.5493415 45.035484 5.1855469 46.837891 C 5.0179902 47.668046 4.9808736 48.467761 5.0175781 49.222656 C 5.0403678 48.771867 5.0901784 48.310392 5.1855469 47.837891 C 5.5493415 46.035484 6.461372 44.487226 7.4667969 43.251953 L 15.919922 30.667969 C 15.866006 30.424452 15.796726 30.185089 15.734375 29.943359 z"/>
   <path style="opacity:0.2;fill:#8b9cbe" transform="matrix(12.704201,0,0,12.704201,172.82343,-331.75508)" d="M 37 9 A 16.000001 16.000001 0 0 0 21 25 A 16.000001 16.000001 0 0 0 21.021484 25.580078 A 16.000001 16.000001 0 0 1 37 10 A 16.000001 16.000001 0 0 1 52.978516 25.419922 A 16.000001 16.000001 0 0 0 53 25 A 16.000001 16.000001 0 0 0 37 9 z"/>
  </g>
 </g>
</svg>
