<svg xmlns="http://www.w3.org/2000/svg" width="64" height="64" version="1">
 <rect style="opacity:0.2" width="56" height="56" x="4" y="5" rx="2.8" ry="2.8"/>
 <rect style="fill:#762276" width="56" height="56" x="4" y="4" rx="2.8" ry="2.8"/>
 <path style="opacity:0.2" d="M 48.19803,15 28.749972,46.217516 24.07144,39 H 17.4 l 8.996962,14 4.769242,-0.02468 23.659286,-37.975324 z"/>
 <path style="fill:#ff8118" d="M 48.19803,14 28.749972,45.217516 24.07144,38 H 17.4 l 8.996962,14 4.769242,-0.02468 23.659286,-37.975324 z"/>
 <path style="opacity:0.2" d="M 39.79803,15 20.349972,46.217516 15.671442,39 H 9 l 8.996963,14 4.769241,-0.02468 23.659286,-37.975327 z"/>
 <path style="fill:#abe619" d="M 39.79803,14 20.349972,45.217516 15.671442,38 H 9 l 8.996963,14 4.769241,-0.02468 23.659286,-37.975327 z"/>
 <path style="opacity:0.1;fill:#8b9cbe" d="M 6.8007812 4 C 5.2495812 4 4 5.2495812 4 6.8007812 L 4 7.8007812 C 4 6.2495813 5.2495812 5 6.8007812 5 L 57.199219 5 C 58.750419 5 60 6.2495812 60 7.8007812 L 60 6.8007812 C 60 5.2495813 58.750419 4 57.199219 4 L 6.8007812 4 z"/>
 <path style="opacity:0.2;fill:none;stroke:#000000;stroke-width:3;stroke-linecap:round;stroke-linejoin:round" d="m 54.5,40.599206 c 0,0 -3.978966,-1.020711 -3.978966,2.52899 0,3.549701 3.978966,1.950794 3.978966,5.500495 0,3.549701 -3.978966,2.8 -3.978966,2.8"/>
 <path style="fill:none;stroke:#8b9cbe;stroke-width:3;stroke-linecap:round;stroke-linejoin:round" d="m 54.5,39.599505 c 0,0 -3.978966,-1.020711 -3.978966,2.52899 0,3.549701 3.978966,1.950794 3.978966,5.500495 0,3.549701 -3.978966,2.8 -3.978966,2.8"/>
 <path style="opacity:0.2;fill:none;stroke:#000000;stroke-width:3;stroke-linecap:round;stroke-linejoin:round" d="m 45.5,45.499701 h -2.957365 m 3.957365,-5 c -4.741587,0 -3.957365,1.12899 -3.957365,10.92899"/>
 <path style="fill:none;stroke:#8b9cbe;stroke-width:3;stroke-linecap:round;stroke-linejoin:round" d="M 45.5,44.5 H 42.542635 M 46.5,39.5 c -4.741587,0 -3.957365,1.12899 -3.957365,10.92899"/>
</svg>
