<svg xmlns="http://www.w3.org/2000/svg" width="64" height="64" version="1.1">
 <rect style="opacity:0.2" width="56" height="56" x="4" y="5" rx="2.8" ry="2.8"/>
 <rect style="fill:#4f4f4f" width="56" height="56" x="4" y="4" rx="2.8" ry="2.8"/>
 <path style="opacity:0.2" d="m 9,23 v 20 h 4 v -9 h 5 v -4 h -5 v -3 h 8 v -4 z m 15,0 v 4 h 6 v 16 h 4 V 27 h 6 v -4 z m 19,0 V 43 H 55 V 39 H 47 V 23 Z"/>
 <path style="fill:#8b9cbe" d="m 9,22 v 20 h 4 v -9 h 5 v -4 h -5 v -3 h 8 v -4 z m 15,0 v 4 h 6 v 16 h 4 V 26 h 6 v -4 z m 19,0 V 42 H 55 V 38 H 47 V 22 Z"/>
 <path style="opacity:0.1;fill:#8b9cbe" d="M 6.8007812 4 C 5.2495812 4 4 5.2495812 4 6.8007812 L 4 7.8007812 C 4 6.2495813 5.2495812 5 6.8007812 5 L 57.199219 5 C 58.750419 5 60 6.2495812 60 7.8007812 L 60 6.8007812 C 60 5.2495813 58.750419 4 57.199219 4 L 6.8007812 4 z"/>
</svg>
