<svg width="64" height="64" version="1.1" xmlns="http://www.w3.org/2000/svg">
 <circle cx="32" cy="33" r="28" style="opacity:.2"/>
 <circle cx="32" cy="32" r="28" style="fill:#284c5e"/>
 <path d="M 32,4 A 28,28 0 0 0 4,32 28,28 0 0 0 4.0215,32.586 28,28 0 0 1 32,5 28,28 0 0 1 59.979,32.414 28,28 0 0 0 60,32 28,28 0 0 0 32,4 Z" style="fill:#8b9cbe;opacity:.1"/>
 <path d="m31.575788 17.100708c-1.956735 0.06607-10.952694 7.298832-10.575789 13.7544 0.112896 1.933565 1.199881 5.639905 1.199881 5.639905s-4.228089 4.967699-4.19988 8.457122c0.02607 3.224112 2.135259 4.770007 5.59984 4.846707 2.987309 0.06612 5.477696-2.703983 5.599843-7.002016 0.06426-2.261128-3.568259-8.922099-3.568259-8.922099s10.357199-12.189956 14.767943-12.083946c1.922905 0.04621 2.842577 2.824654 2.79992 5.601613-0.07756 5.048628-2.807223 12.533326-8.399762 12.603627-1.319793 0.01659-2.974464-1.492089-2.799922-2.800806 0.07112-0.533221 0.68246-1.530179 1.399961-1.501233 0.812583 0.03279 1.388901-0.48615 1.399961-1.299573 0.01372-1.013687-0.740046-1.406985-1.399961-1.400404-2.350607 0.02344-3.065358 2.52611-2.899564 4.200994 0.195089 1.97083 2.319751 3.917594 4.299525 3.901 6.952261-0.05828 12.225488-7.424271 12.299475-13.704 0.0603-5.118039-3.537492-7.34031-6.699633-7.392-3.789888-0.06195-9.520662 5.926647-15.399566 12.293805-1.126329-8.366621 8.259038-13.718513 6.860354-15.11651-0.05695-0.05692-0.153919-0.08099-0.284367-0.07659zm-8.575789 20.899291s3.166285 3.224025 3.004 6.805241c-0.115766 2.554429-1.389196 3.173192-2.94008 3.206759-1.85416 0.04012-3.0586-1.569507-3.06392-3.759241-0.0063-2.582545 3-6.252759 3-6.252759z" style="opacity:.2"/>
 <path d="m31.575788 16.100709c-1.956735 0.06607-10.952693 7.298832-10.575788 13.7544 0.112896 1.933565 1.199881 5.639905 1.199881 5.639905s-4.22809 4.967699-4.199881 8.457122c0.02607 3.224112 2.13526 4.770007 5.599841 4.846707 2.987309 0.06612 5.477695-2.703983 5.599842-7.002016 0.06426-2.261128-3.568258-8.922099-3.568258-8.922099s10.357198-12.189956 14.767942-12.083946c1.922905 0.04621 2.842577 2.824654 2.79992 5.601613-0.07756 5.048628-2.807223 12.533326-8.399762 12.603627-1.319793 0.01659-2.974464-1.492089-2.799922-2.800806 0.07112-0.533221 0.68246-1.530179 1.399961-1.501233 0.812583 0.03279 1.388901-0.48615 1.399961-1.299573 0.01372-1.013687-0.740046-1.406985-1.399961-1.400404-2.350607 0.02344-3.065358 2.52611-2.899564 4.200994 0.195089 1.97083 2.319751 3.917594 4.299525 3.901 6.952261-0.05828 12.225488-7.424271 12.299475-13.704 0.0603-5.118039-3.537492-7.34031-6.699633-7.392-3.789888-0.06195-9.520662 5.926647-15.399565 12.293805-1.126329-8.366621 8.259037-13.718513 6.860353-15.11651-0.05695-0.05692-0.153919-0.08099-0.284367-0.07659zm-8.575788 20.899291s3.166285 3.224025 3.004 6.805241c-0.115766 2.554429-1.389196 3.173192-2.94008 3.206759-1.85416 0.04012-3.0586-1.569507-3.06392-3.759241-0.0063-2.582545 3-6.252759 3-6.252759z" style="fill:#8b9cbe"/>
</svg>
