<svg xmlns="http://www.w3.org/2000/svg" width="64" height="64" version="1">
 <path style="opacity:0.2" d="m 4,56 0,2 c 0,1.662 1.338,3 3,3 l 50,0 c 1.662,0 3,-1.338 3,-3 l 0,-2 c 0,1.662 -1.338,3 -3,3 L 7,59 C 5.338,59 4,57.662 4,56 Z"/>
 <rect style="fill:#1194f0" width="56" height="56" x="4" y="4" rx="3" ry="3"/>
 <path style="opacity:0.1;fill:#8b9cbe" d="M 7 4 C 5.338 4 4 5.338 4 7 L 4 8 C 4 6.338 5.338 5 7 5 L 57 5 C 58.662 5 60 6.338 60 8 L 60 7 C 60 5.338 58.662 4 57 4 L 7 4 z"/>
 <path style="opacity:0.2" d="M 31,15 C 26.106,15 20,20.572 20,28.066 20,35.878 24.708,43 31.234,43 34.456,43 35.852,41.786 38,39 36.948,42.654 35.182,44.978 32.352,45.656 30.12,46.192 27.612,44.964 26,43 l -6,0 c 1.85996,5.0704 6.5272,8 12.1446,8 4.1308,0 7.395,-1.59804 9.543,-4.6132 1.61,-2.33 2.312,-5.438 2.312,-10.28 l 0,-20.512 -6,0 0,3.1992 c 0,-2e-4 -2.106,-3.7932 -7,-3.7932 z m 0.88672,6 c 3.632,0 6.114,3.284 6.114,8.094 0,4.762 -2.408,7.906 -6.04,7.906 -3.63,0 -5.96,-3.096 -5.96,-7.906 0,-4.858 2.332,-8.094 5.886,-8.094 z"/>
 <path style="fill:#8b9cbe" d="M 31,14 C 26.106,14 20,19.573 20,27.066 20,34.878 24.708,42 31.234,42 34.456,42 35.852,40.786 38,38 36.948,41.654 35.182,43.978 32.352,44.656 30.12,45.192 27.612,43.964 26,42 l -6,0 c 1.85996,5.0704 6.5272,8 12.1446,8 4.1308,0 7.395,-1.59804 9.543,-4.6132 1.61,-2.33 2.312,-5.438 2.312,-10.28 l 0,-20.1068 -6,0 0,2.794 c 0,-2e-4 -2.106,-3.7932 -7,-3.7932 z m 0.88672,6 c 3.632,0 6.114,3.284 6.114,8.094 0,4.762 -2.408,7.906 -6.04,7.906 -3.63,0 -5.96,-3.096 -5.96,-7.906 0,-4.858 2.332,-8.094 5.886,-8.094 z"/>
</svg>
