<svg xmlns="http://www.w3.org/2000/svg" width="64" height="64" x="0" y="0" version="1.1" xml:space="preserve">
 <path style="opacity:0.2" d="m 35,5 a 22,22 0 0 0 -22,22 22,22 0 0 0 0.0293,0.806641 H 13 v 2.982421 L 12.085938,32.371094 8.375,38.800781 A 2.80028,2.80028 0 0 0 10.800781,43 H 13 v 6.021484 C 13,51.225822 14.774179,53 16.978516,53 H 23 v 3.894531 C 23,59.168847 24.831153,61 27.105469,61 H 44.894531 C 47.168847,61 49,59.168847 49,56.894531 V 43.947266 A 22,22 0 0 0 57,27 22,22 0 0 0 35,5 Z"/>
 <circle style="fill:#18b2d6" cx="35" cy="26" r="22"/>
 <path style="fill:#18b2d6" d="M 16.978947,26.8 H 34.221054 C 36.42539,26.8 38.2,28.57461 38.2,30.778946 V 48.021052 C 38.2,50.22539 36.42539,52 34.221054,52 H 16.978947 C 14.77461,52 13,50.22539 13,48.021052 V 30.778946 27 Z"/>
 <rect style="fill:#18b2d6" width="26" height="26" x="23" y="34" rx="4.105" ry="4.105"/>
 <path style="fill:#18b2d6" d="m 18.073752,23.545702 a 2.80028,2.80028 0 0 0 -2.275,1.397266 L 12.08547,31.371484 8.3749239,37.8 A 2.80028,2.80028 0 0 0 10.800314,42 h 7.421094 7.42383 a 2.80028,2.80028 0 0 0 2.425388,-4.2 L 24.36008,31.371484 20.6468,24.942968 a 2.80028,2.80028 0 0 0 -2.294142,-1.397266 2.80028,2.80028 0 0 0 -0.278906,0 z"/>
 <path style="opacity:0.2" d="m 35.309128,11.055566 c -0.443682,-0.01398 -0.892178,-0.0107 -1.339728,0.0054 -2.539186,0.09153 -5.10725,0.667417 -7.36172,1.6767 -2.329222,1.213359 -4.339356,2.959076 -5.867091,5.095321 -1.627106,2.577583 -2.265492,5.616511 -1.255487,7.549817 1.192265,2.282178 3.67308,3.668632 6.206988,3.668632 1.313094,0 1.41582,0.07066 1.41582,1.013628 0,2.066024 2.69015,3.043358 6.462016,3.043358 2.01384,0 2.352618,0.08726 2.171286,0.559804 -0.276856,0.721472 0.874228,3.175952 2.114218,4.330666 0.530976,0.494456 1.184552,1.225622 1.453864,1.868416 0.525228,1.253612 1.041476,1.408434 2.486518,0.75003 1.103772,-0.502912 1.142258,-0.793152 0.19836,-2.34126 -0.394826,-0.647572 -0.719398,-0.991318 -0.720138,-1.107574 -7.54e-4,-0.11626 -0.274612,-0.19992 1.258202,-0.1848 4.446952,0.04394 6.461376,-1.534572 6.464204,-5.163142 4.52e-4,-0.588396 0.301138,-1.016246 0.707122,-1.367452 1.373684,-0.666542 1.229194,-1.384388 1.29643,-2.765874 -0.007,-7.159444 -4.577676,-13.65675 -11.361878,-15.944181 -0.157942,-0.04638 -0.309566,-0.100691 -0.470128,-0.144028 -1.224628,-0.321435 -2.527812,-0.501546 -3.858858,-0.543501 z"/>
 <path style="fill:#8b9cbe" d="m 35.309128,10.055202 c -0.443682,-0.01398 -0.892178,-0.0107 -1.339728,0.0054 -2.539186,0.09153 -5.10725,0.667417 -7.36172,1.6767 -2.329222,1.21336 -4.339356,2.959077 -5.867091,5.095321 -1.627106,2.577584 -2.265492,5.616511 -1.255487,7.549817 1.192265,2.282178 3.67308,3.668632 6.206988,3.668632 1.313094,0 1.41582,0.07066 1.41582,1.013628 0,2.066024 2.69015,3.043358 6.462016,3.043358 2.01384,0 2.352618,0.08726 2.171286,0.559804 -0.276856,0.721472 0.874228,3.175952 2.114218,4.330666 0.530976,0.494456 1.184552,1.225622 1.453864,1.868416 0.525228,1.253612 1.041476,1.408434 2.486518,0.75003 1.103772,-0.502912 1.142258,-0.793152 0.19836,-2.34126 -0.394826,-0.647572 -0.719398,-0.991318 -0.720138,-1.107574 -7.54e-4,-0.11626 -0.274612,-0.19992 1.258202,-0.1848 4.446952,0.04394 6.461376,-1.534572 6.464204,-5.163142 4.52e-4,-0.588396 0.301138,-1.016246 0.707122,-1.367452 1.373684,-0.666542 1.229194,-1.384388 1.29643,-2.765874 -0.007,-7.159443 -4.577676,-13.65675 -11.361878,-15.944181 -0.157942,-0.04638 -0.309566,-0.100691 -0.470128,-0.144028 -1.224628,-0.321435 -2.527812,-0.501545 -3.858858,-0.543501 z"/>
 <path style="opacity:0.2;fill:#8b9cbe" d="M 35 4 A 22 22 0 0 0 13 26 A 22 22 0 0 0 13.017578 26.492188 A 22 22 0 0 1 35 5 A 22 22 0 0 1 56.976562 26.546875 A 22 22 0 0 0 57 26 A 22 22 0 0 0 35 4 z M 13 26.806641 L 13 27 A 22 22 0 0 1 13.005859 26.806641 L 13 26.806641 z M 13 27 L 13 27.806641 L 13.029297 27.806641 A 22 22 0 0 1 13 27 z M 13 29.789062 L 12.085938 31.371094 L 8.375 37.800781 A 2.80028 2.80028 0 0 0 8.0488281 39.707031 A 2.80028 2.80028 0 0 1 8.375 38.800781 L 12.085938 32.371094 L 13 30.789062 L 13 29.789062 z"/>
</svg>
