<svg xmlns="http://www.w3.org/2000/svg" width="64" height="64" version="1.1">
 <path style="opacity:0.2;fill-rule:evenodd" d="m 32.000001,61 c -1.351648,0 -2.826152,-1.516046 -4.161159,-1.727491 -1.335005,-0.211443 -3.205825,0.774756 -4.491317,0.357073 C 22.062031,59.2119 21.128178,57.314408 19.923852,56.700774 18.719526,56.087138 16.635518,56.446955 15.542013,55.652476 14.448508,54.857997 14.146718,52.7648 13.190959,51.809039 12.2352,50.853282 10.142003,50.551493 9.3475246,49.457987 8.553046,48.364482 8.9128612,46.280473 8.299226,45.076147 7.6855911,43.87182 5.7880996,42.937969 5.3704177,41.652476 4.9527357,40.366983 5.9389343,38.496162 5.72749,37.161156 5.5160459,35.826151 4,34.351647 4,33.000001 4,31.648353 5.516046,30.173849 5.7274902,28.838842 5.9389343,27.503837 4.9527354,25.633017 5.3704173,24.347525 5.7880995,23.062031 7.6855917,22.128178 8.299227,20.923852 8.9128617,19.719526 8.5530457,17.635518 9.3475237,16.542013 10.142002,15.448508 12.235201,15.146718 13.190961,14.190959 14.146718,13.2352 14.448507,11.142003 15.542013,10.347525 16.635518,9.553046 18.719527,9.9128612 19.923853,9.299226 21.12818,8.6855911 22.062031,6.7880996 23.347524,6.3704177 24.633017,5.9527357 26.503838,6.9389343 27.838844,6.72749 29.173849,6.5160459 30.648353,5 31.999999,5 c 1.351648,0 2.826152,1.516046 4.161159,1.7274902 1.335005,0.2114441 3.205825,-0.7747548 4.491317,-0.3570729 1.285494,0.4176822 2.219347,2.3151744 3.423673,2.9288097 1.204326,0.6136347 3.288334,0.2538187 4.381839,1.048297 1.093505,0.794478 1.395295,2.887677 2.351054,3.843437 0.955759,0.955757 3.048956,1.257546 3.843435,2.351052 0.794478,1.093505 0.434662,3.177514 1.048298,4.38184 0.613635,1.204327 2.511126,2.138178 2.928808,3.423671 0.417683,1.285493 -0.568516,3.156314 -0.357071,4.49132 C 58.483954,30.173849 60,31.648353 60,32.999999 c 0,1.351648 -1.516046,2.826152 -1.727491,4.161159 -0.211443,1.335005 0.774756,3.205825 0.357073,4.491317 -0.417682,1.285494 -2.315174,2.219347 -2.928808,3.423673 -0.613636,1.204326 -0.253819,3.288334 -1.048298,4.381839 -0.794479,1.093505 -2.887676,1.395295 -3.843437,2.351054 -0.955757,0.955759 -1.257546,3.048956 -2.351052,3.843435 -1.093505,0.794478 -3.177514,0.434662 -4.38184,1.048298 -1.204327,0.613635 -2.138178,2.511126 -3.423671,2.928808 -1.285493,0.417683 -3.156314,-0.568516 -4.49132,-0.357071 C 34.826151,59.483954 33.351647,61 32.000001,61 Z"/>
 <path style="fill:#ff8e03;fill-rule:evenodd" d="m 32.000001,60 c -1.351648,0 -2.826152,-1.516046 -4.161159,-1.727491 -1.335005,-0.211443 -3.205825,0.774756 -4.491317,0.357073 C 22.062031,58.2119 21.128178,56.314408 19.923852,55.700774 18.719526,55.087138 16.635518,55.446955 15.542013,54.652476 14.448508,53.857997 14.146718,51.7648 13.190959,50.809039 12.2352,49.853282 10.142003,49.551493 9.3475246,48.457987 8.553046,47.364482 8.9128612,45.280473 8.299226,44.076147 7.6855911,42.87182 5.7880996,41.937969 5.3704177,40.652476 4.9527357,39.366983 5.9389343,37.496162 5.72749,36.161156 5.5160459,34.826151 4,33.351647 4,32.000001 4,30.648353 5.516046,29.173849 5.7274902,27.838842 5.9389343,26.503837 4.9527354,24.633017 5.3704173,23.347525 5.7880995,22.062031 7.6855917,21.128178 8.299227,19.923852 8.9128617,18.719526 8.5530457,16.635518 9.3475237,15.542013 10.142002,14.448508 12.235201,14.146718 13.190961,13.190959 14.146718,12.2352 14.448507,10.142003 15.542013,9.3475246 16.635518,8.553046 18.719527,8.9128612 19.923853,8.299226 21.12818,7.6855911 22.062031,5.7880996 23.347524,5.3704177 24.633017,4.9527357 26.503838,5.9389343 27.838844,5.72749 29.173849,5.5160459 30.648353,4 31.999999,4 c 1.351648,0 2.826152,1.516046 4.161159,1.7274902 1.335005,0.2114441 3.205825,-0.7747548 4.491317,-0.3570729 1.285494,0.4176822 2.219347,2.3151744 3.423673,2.9288097 1.204326,0.6136347 3.288334,0.2538187 4.381839,1.0482967 1.093505,0.7944783 1.395295,2.8876773 2.351054,3.8434373 0.955759,0.955757 3.048956,1.257546 3.843435,2.351052 0.794478,1.093505 0.434662,3.177514 1.048298,4.38184 0.613635,1.204327 2.511126,2.138178 2.928808,3.423671 0.417683,1.285493 -0.568516,3.156314 -0.357071,4.49132 C 58.483954,29.173849 60,30.648353 60,31.999999 c 0,1.351648 -1.516046,2.826152 -1.727491,4.161159 -0.211443,1.335005 0.774756,3.205825 0.357073,4.491317 -0.417682,1.285494 -2.315174,2.219347 -2.928808,3.423673 -0.613636,1.204326 -0.253819,3.288334 -1.048298,4.381839 -0.794479,1.093505 -2.887676,1.395295 -3.843437,2.351054 -0.955757,0.955759 -1.257546,3.048956 -2.351052,3.843435 -1.093505,0.794478 -3.177514,0.434662 -4.38184,1.048298 -1.204327,0.613635 -2.138178,2.511126 -3.423671,2.928808 -1.285493,0.417683 -3.156314,-0.568516 -4.49132,-0.357071 C 34.826151,58.483954 33.351647,60 32.000001,60 Z"/>
 <path style="fill:#8b9cbe;fill-rule:evenodd;opacity:0.2" d="M 32 4 C 30.648354 4 29.172896 5.5151184 27.837891 5.7265625 C 26.502885 5.9380068 24.633149 4.9534117 23.347656 5.3710938 C 22.062163 5.7887756 21.128155 7.6851932 19.923828 8.2988281 C 18.719502 8.9124633 16.636474 8.5531777 15.542969 9.3476562 C 14.449463 10.142135 14.147163 12.235647 13.191406 13.191406 C 12.235646 14.147165 10.142135 14.449464 9.3476562 15.542969 C 8.5531782 16.636474 8.9124628 18.719502 8.2988281 19.923828 C 7.6851928 21.128154 5.788776 22.062162 5.3710938 23.347656 C 5.2461115 23.732312 5.2596887 24.17533 5.3164062 24.634766 C 5.3328211 24.538427 5.3415641 24.438539 5.3710938 24.347656 C 5.788776 23.062162 7.6851928 22.128154 8.2988281 20.923828 C 8.9124628 19.719502 8.5531782 17.636474 9.3476562 16.542969 C 10.142135 15.449464 12.235646 15.147165 13.191406 14.191406 C 14.147163 13.235647 14.449463 11.142134 15.542969 10.347656 C 16.636474 9.5531773 18.719502 9.9124633 19.923828 9.2988281 C 21.128155 8.6851932 22.062163 6.7887756 23.347656 6.3710938 C 24.633149 5.9534117 26.502885 6.9380068 27.837891 6.7265625 C 29.172896 6.5151184 30.648354 5 32 5 C 33.351648 5 34.827102 6.5151183 36.162109 6.7265625 C 37.497114 6.9380066 39.366852 5.9534119 40.652344 6.3710938 C 41.937838 6.7887759 42.871846 8.6851928 44.076172 9.2988281 C 45.280498 9.9124628 47.363526 9.553178 48.457031 10.347656 C 49.550536 11.142134 49.852835 13.235646 50.808594 14.191406 C 51.764353 15.147163 53.857865 15.449463 54.652344 16.542969 C 55.446822 17.636474 55.087536 19.719502 55.701172 20.923828 C 56.314807 22.128155 58.211224 23.062163 58.628906 24.347656 C 58.658436 24.438539 58.667179 24.538427 58.683594 24.634766 C 58.740311 24.17533 58.753889 23.732312 58.628906 23.347656 C 58.211224 22.062163 56.314807 21.128155 55.701172 19.923828 C 55.087536 18.719502 55.446822 16.636474 54.652344 15.542969 C 53.857865 14.449463 51.764353 14.147163 50.808594 13.191406 C 49.852835 12.235646 49.550536 10.142135 48.457031 9.3476562 C 47.363526 8.5531782 45.280498 8.9124628 44.076172 8.2988281 C 42.871846 7.6851928 41.937838 5.7887759 40.652344 5.3710938 C 39.366852 4.9534119 37.497114 5.9380066 36.162109 5.7265625 C 34.827102 5.5151183 33.351648 4 32 4 z M 5.7148438 27.880859 C 5.4785988 29.204616 4 30.662674 4 32 C 4 32.165068 4.0243692 32.331745 4.0644531 32.5 C 4.3525924 31.290513 5.5409407 30.009861 5.7265625 28.837891 C 5.7734385 28.541927 5.7573463 28.217276 5.7148438 27.880859 z M 58.285156 27.880859 C 58.242654 28.217276 58.226561 28.541927 58.273438 28.837891 C 58.459058 30.00986 59.647408 31.290514 59.935547 32.5 C 59.975631 32.331745 60 32.165069 60 32 C 60 30.662676 58.5214 29.204614 58.285156 27.880859 z M 5.7148438 37.119141 C 5.5791838 38.192918 5.1521146 39.401012 5.3164062 40.365234 C 5.4492345 39.289268 5.8747367 38.097644 5.7265625 37.162109 C 5.724322 37.147963 5.7173739 37.133318 5.7148438 37.119141 z M 58.285156 37.119141 C 58.282626 37.133318 58.275678 37.147963 58.273438 37.162109 C 58.125264 38.097643 58.550766 39.289269 58.683594 40.365234 C 58.847886 39.401013 58.420817 38.192917 58.285156 37.119141 z"/>
 <path style="opacity:0.2;fill-rule:evenodd" d="m 32,55 c -1.062009,0 -2.220546,-1.191179 -3.269481,-1.357315 -1.048933,-0.166134 -2.518862,0.608737 -3.528893,0.280558 -1.01003,-0.328178 -1.743771,-1.819066 -2.690028,-2.301206 -0.946256,-0.482143 -2.583691,-0.199429 -3.442874,-0.823663 -0.859182,-0.624233 -1.096302,-2.268889 -1.847255,-3.019843 -0.750954,-0.750953 -2.39561,-0.988072 -3.019843,-1.847255 -0.624233,-0.859183 -0.341521,-2.496618 -0.823663,-3.442875 -0.482141,-0.946256 -1.973027,-1.679997 -2.301206,-2.690027 -0.328179,-1.01003 0.446692,-2.479961 0.280557,-3.528895 C 11.191179,35.220546 10,34.062009 10,33 c 0,-1.062009 1.191179,-2.220546 1.357314,-3.269481 0.166135,-1.048933 -0.608737,-2.518862 -0.280557,-3.528893 0.328179,-1.01003 1.819066,-1.743771 2.301206,-2.690028 0.482143,-0.946256 0.19943,-2.583691 0.823663,-3.442874 0.624233,-0.859182 2.268889,-1.096302 3.019843,-1.847255 0.750953,-0.750954 0.988072,-2.39561 1.847255,-3.019843 0.859183,-0.624233 2.496618,-0.341521 3.442875,-0.823663 0.946256,-0.482141 1.679997,-1.973027 2.690027,-2.301206 1.01003,-0.328179 2.479961,0.446692 3.528895,0.280557 C 29.779454,12.191179 30.937991,11 32,11 c 1.062009,0 2.220546,1.191179 3.269481,1.357314 1.048933,0.166135 2.518862,-0.608737 3.528893,-0.280557 1.01003,0.328179 1.743771,1.819066 2.690028,2.301206 0.946256,0.482143 2.583691,0.199429 3.442874,0.823663 0.859182,0.624233 1.096302,2.268889 1.847255,3.019843 0.750954,0.750953 2.39561,0.988072 3.019843,1.847255 0.624233,0.859183 0.341521,2.496618 0.823663,3.442875 0.482141,0.946256 1.973028,1.679997 2.301206,2.690027 0.328179,1.01003 -0.446692,2.479961 -0.280557,3.528895 C 52.808821,30.779454 54,31.937991 54,33 c 0,1.062009 -1.191179,2.220546 -1.357315,3.269481 -0.166134,1.048933 0.608737,2.518862 0.280558,3.528893 -0.328178,1.01003 -1.819066,1.743771 -2.301206,2.690028 -0.482143,0.946256 -0.199429,2.583691 -0.823663,3.442874 -0.624233,0.859182 -2.268889,1.096302 -3.019843,1.847255 -0.750953,0.750954 -0.988072,2.39561 -1.847255,3.019843 -0.859183,0.624233 -2.496618,0.341521 -3.442875,0.823663 -0.946256,0.482141 -1.679997,1.973028 -2.690027,2.301206 -1.01003,0.328179 -2.479961,-0.446692 -3.528895,-0.280557 C 34.220546,53.808821 33.062009,55 32,55 Z"/>
 <path style="opacity:0.2" d="M 53.790984,5 C 58.67698,9.7599999 58.67698,24.04 48.904989,28.8 L 39.133,19.280001 C 48.904989,19.280001 53.790984,9.7599999 53.790984,5 Z"/>
 <path style="fill:#f95050" d="M 53.790984,4 C 58.67698,8.7599999 58.67698,23.04 48.904989,27.8 L 39.133,18.280001 C 48.904989,18.280001 53.790984,8.7599999 53.790984,4 Z"/>
 <path style="opacity:0.2" d="M 10.209387,5 C 5.3233914,9.7599999 5.3233914,24.04 15.095382,28.8 l 9.771989,-9.519999 C 15.095382,19.280001 10.209387,9.7599999 10.209387,5 Z"/>
 <path style="fill:#f95050" d="M 10.209387,4 C 5.3233914,8.7599999 5.3233914,23.04 15.095382,27.8 l 9.771989,-9.519999 C 15.095382,18.280001 10.209387,8.7599999 10.209387,4 Z"/>
 <path style="fill:#ffd059;fill-rule:evenodd" d="m 32,54 c -1.062009,0 -2.220546,-1.191179 -3.269481,-1.357315 -1.048933,-0.166134 -2.518862,0.608737 -3.528893,0.280558 -1.01003,-0.328178 -1.743771,-1.819066 -2.690028,-2.301206 -0.946256,-0.482143 -2.583691,-0.199429 -3.442874,-0.823663 -0.859182,-0.624233 -1.096302,-2.268889 -1.847255,-3.019843 -0.750954,-0.750953 -2.39561,-0.988072 -3.019843,-1.847255 -0.624233,-0.859183 -0.341521,-2.496618 -0.823663,-3.442875 -0.482141,-0.946256 -1.973027,-1.679997 -2.301206,-2.690027 -0.328179,-1.01003 0.446692,-2.479961 0.280557,-3.528895 C 11.191179,34.220546 10,33.062009 10,32 c 0,-1.062009 1.191179,-2.220546 1.357314,-3.269481 0.166135,-1.048933 -0.608737,-2.518862 -0.280557,-3.528893 0.328179,-1.01003 1.819066,-1.743771 2.301206,-2.690028 0.482143,-0.946256 0.19943,-2.583691 0.823663,-3.442874 0.624233,-0.859182 2.268889,-1.096302 3.019843,-1.847255 0.750953,-0.750954 0.988072,-2.39561 1.847255,-3.019843 0.859183,-0.624233 2.496618,-0.341521 3.442875,-0.823663 0.946256,-0.482141 1.679997,-1.973027 2.690027,-2.301206 1.01003,-0.328179 2.479961,0.446692 3.528895,0.280557 C 29.779454,11.191179 30.937991,10 32,10 c 1.062009,0 2.220546,1.191179 3.269481,1.357314 1.048933,0.166135 2.518862,-0.608737 3.528893,-0.280557 1.01003,0.328179 1.743771,1.819066 2.690028,2.301206 0.946256,0.482143 2.583691,0.199429 3.442874,0.823663 0.859182,0.624233 1.096302,2.268889 1.847255,3.019843 0.750954,0.750953 2.39561,0.988072 3.019843,1.847255 0.624233,0.859183 0.341521,2.496618 0.823663,3.442875 0.482141,0.946256 1.973028,1.679997 2.301206,2.690027 0.328179,1.01003 -0.446692,2.479961 -0.280557,3.528895 C 52.808821,29.779454 54,30.937991 54,32 c 0,1.062009 -1.191179,2.220546 -1.357315,3.269481 -0.166134,1.048933 0.608737,2.518862 0.280558,3.528893 -0.328178,1.01003 -1.819066,1.743771 -2.301206,2.690028 -0.482143,0.946256 -0.199429,2.583691 -0.823663,3.442874 -0.624233,0.859182 -2.268889,1.096302 -3.019843,1.847255 -0.750953,0.750954 -0.988072,2.39561 -1.847255,3.019843 -0.859183,0.624233 -2.496618,0.341521 -3.442875,0.823663 -0.946256,0.482141 -1.679997,1.973028 -2.690027,2.301206 -1.01003,0.328179 -2.479961,-0.446692 -3.528895,-0.280557 C 34.220546,52.808821 33.062009,54 32,54 Z"/>
 <path style="opacity:0.4" d="m 32,28 c 0,0 -1.730189,-2.631304 -2.201203,-3.830115 -0.471028,-1.198812 -0.982366,-2.419118 -0.733738,-3.28296 0.24864,-0.863829 0.647445,-1.314196 1.467474,-1.64147 0.820026,-0.327274 2.114913,-0.327276 2.934936,0 0.820026,0.327274 1.218837,0.777642 1.467471,1.64147 0.248631,0.863842 -0.262704,2.084146 -0.733734,3.282961 C 33.730191,25.368696 32,28 32,28 Z"/>
 <path style="opacity:0.4" d="m 32,35.999999 c 0,0 -1.730189,2.631304 -2.201203,3.830115 -0.471028,1.198812 -0.982366,2.419118 -0.733738,3.28296 0.24864,0.863829 0.647445,1.314196 1.467474,1.64147 0.820026,0.327274 2.114913,0.327276 2.934936,0 0.820026,-0.327274 1.218837,-0.777642 1.467471,-1.64147 0.248631,-0.863842 -0.262704,-2.084146 -0.733734,-3.282961 C 33.730191,38.631303 32,35.999999 32,35.999999 Z"/>
 <path style="opacity:0.4" d="m 36,31.999999 c 0,0 2.631304,-1.730189 3.830115,-2.201203 1.198812,-0.471028 2.419118,-0.982366 3.28296,-0.733738 0.863829,0.24864 1.314196,0.647445 1.64147,1.467474 0.327274,0.820026 0.327276,2.114913 0,2.934936 -0.327274,0.820026 -0.777642,1.218837 -1.64147,1.467471 C 42.249233,35.18357 41.028929,34.672235 39.830114,34.201205 38.631304,33.73019 36,31.999999 36,31.999999 Z"/>
 <path style="opacity:0.4" d="m 28.000001,31.999999 c 0,0 -2.631304,-1.730189 -3.830115,-2.201203 -1.198812,-0.471028 -2.419118,-0.982366 -3.28296,-0.733738 -0.863829,0.24864 -1.314196,0.647445 -1.64147,1.467474 -0.327274,0.820026 -0.327276,2.114913 0,2.934936 0.327274,0.820026 0.777642,1.218837 1.64147,1.467471 0.863842,0.248631 2.084146,-0.262704 3.282961,-0.733734 1.19881,-0.471015 3.830114,-2.201206 3.830114,-2.201206 z"/>
 <path style="opacity:0.4" d="m 34.828427,34.828426 c 0,0 3.084041,0.637185 4.264786,1.151815 1.180755,0.514621 2.405212,1.015937 2.840234,1.802572 0.435005,0.786634 0.471465,1.38709 0.123034,2.198355 -0.348428,0.811264 -1.26405,1.726889 -2.075313,2.075314 -0.811264,0.348428 -1.411724,0.311972 -2.198353,-0.123036 -0.786637,-0.43502 -1.287954,-1.659474 -1.802576,-2.840233 -0.514629,-1.180744 -1.151812,-4.264787 -1.151812,-4.264787 z"/>
 <path style="opacity:0.4" d="m 29.171574,29.171573 c 0,0 -0.637185,-3.084042 -1.151815,-4.264786 -0.514621,-1.180755 -1.015937,-2.405213 -1.802572,-2.840235 -0.786635,-0.435004 -1.38709,-0.471464 -2.198356,-0.123033 -0.811263,0.348428 -1.726888,1.26405 -2.075313,2.075313 -0.348428,0.811263 -0.311972,1.411724 0.123036,2.198353 0.43502,0.786637 1.659474,1.287954 2.840232,1.802576 1.180745,0.514628 4.264788,1.151812 4.264788,1.151812 z"/>
 <path style="opacity:0.4" d="m 29.171573,34.828426 c 0,0 -3.084041,0.637185 -4.264786,1.151815 -1.180755,0.514621 -2.405212,1.015937 -2.840234,1.802572 -0.435005,0.786634 -0.471465,1.38709 -0.123034,2.198355 0.348428,0.811264 1.26405,1.726889 2.075313,2.075314 0.811264,0.348428 1.411724,0.311972 2.198353,-0.123036 0.786637,-0.43502 1.287954,-1.659474 1.802576,-2.840233 0.514629,-1.180744 1.151812,-4.264787 1.151812,-4.264787 z"/>
 <path style="opacity:0.4" d="m 34.828426,29.171573 c 0,0 0.637185,-3.084042 1.151815,-4.264786 0.514621,-1.180755 1.015937,-2.405213 1.802572,-2.840235 0.786635,-0.435004 1.38709,-0.471464 2.198356,-0.123033 0.811263,0.348428 1.726888,1.26405 2.075313,2.075313 0.348428,0.811263 0.311972,1.411724 -0.123036,2.198353 -0.43502,0.786637 -1.659474,1.287954 -2.840232,1.802576 -1.180745,0.514628 -4.264788,1.151812 -4.264788,1.151812 z"/>
 <path style="fill:#8b9cbe;fill-rule:evenodd;opacity:0.2" d="M 32 10 C 30.937991 10 29.779402 11.191287 28.730469 11.357422 C 27.681535 11.523557 26.211202 10.747993 25.201172 11.076172 C 24.191142 11.404351 23.457975 12.896765 22.511719 13.378906 C 21.565462 13.861048 19.927542 13.576939 19.068359 14.201172 C 18.209176 14.825405 17.971656 16.469749 17.220703 17.220703 C 16.469749 17.971656 14.825405 18.209177 14.201172 19.068359 C 13.576939 19.927542 13.861049 21.565463 13.378906 22.511719 C 12.896766 23.457976 11.404351 24.191142 11.076172 25.201172 C 10.968182 25.533529 10.99468 25.9217 11.052734 26.322266 C 11.062139 26.282562 11.063688 26.239593 11.076172 26.201172 C 11.404351 25.191142 12.896766 24.457976 13.378906 23.511719 C 13.861049 22.565463 13.576939 20.927542 14.201172 20.068359 C 14.825405 19.209177 16.469749 18.971656 17.220703 18.220703 C 17.971656 17.469749 18.209176 15.825405 19.068359 15.201172 C 19.927542 14.576939 21.565462 14.861048 22.511719 14.378906 C 23.457975 13.896765 24.191142 12.404351 25.201172 12.076172 C 26.211202 11.747993 27.681535 12.523557 28.730469 12.357422 C 29.779402 12.191287 30.937991 11 32 11 C 33.062009 11 34.220596 12.191287 35.269531 12.357422 C 36.318464 12.523557 37.788797 11.747992 38.798828 12.076172 C 39.808858 12.404351 40.542024 13.896766 41.488281 14.378906 C 42.434537 14.861049 44.072458 14.576938 44.931641 15.201172 C 45.790823 15.825405 46.028344 17.469749 46.779297 18.220703 C 47.530251 18.971656 49.174595 19.209176 49.798828 20.068359 C 50.423061 20.927542 50.138952 22.565462 50.621094 23.511719 C 51.103235 24.457975 52.59565 25.191142 52.923828 26.201172 C 52.936312 26.239593 52.937862 26.282562 52.947266 26.322266 C 53.00532 25.9217 53.031818 25.533529 52.923828 25.201172 C 52.59565 24.191142 51.103235 23.457975 50.621094 22.511719 C 50.138952 21.565462 50.423061 19.927542 49.798828 19.068359 C 49.174595 18.209176 47.530251 17.971656 46.779297 17.220703 C 46.028344 16.469749 45.790823 14.825405 44.931641 14.201172 C 44.072458 13.576938 42.434537 13.861049 41.488281 13.378906 C 40.542024 12.896766 39.808858 11.404351 38.798828 11.076172 C 37.788797 10.747992 36.318464 11.523557 35.269531 11.357422 C 34.220596 11.191287 33.062009 10 32 10 z M 11.330078 28.835938 C 11.106269 29.856998 10 30.973084 10 32 C 10 32.164513 10.035055 32.331621 10.083984 32.5 C 10.350918 31.581411 11.217022 30.616916 11.357422 29.730469 C 11.400874 29.456122 11.378798 29.152122 11.330078 28.835938 z M 52.669922 28.835938 C 52.621202 29.152122 52.599126 29.456122 52.642578 29.730469 C 52.782978 30.616915 53.649082 31.581411 53.916016 32.5 C 53.964945 32.331621 54 32.164513 54 32 C 54 30.973084 52.893731 29.856996 52.669922 28.835938 z M 11.330078 36.164062 C 11.19961 37.010787 10.879581 37.946684 11.052734 38.677734 C 11.171106 37.860985 11.468889 36.973306 11.357422 36.269531 C 11.351932 36.234871 11.337726 36.198955 11.330078 36.164062 z M 52.669922 36.164062 C 52.662274 36.198955 52.648068 36.234871 52.642578 36.269531 C 52.531112 36.973306 52.828894 37.860986 52.947266 38.677734 C 53.120419 37.946683 52.80039 37.010787 52.669922 36.164062 z"/>
</svg>
