<svg xmlns="http://www.w3.org/2000/svg" width="64" height="64" version="1">
 <path style="opacity:0.2" d="m 4,52 0,2 c 0,1.662 1.338,3 3,3 l 50,0 c 1.662,0 3,-1.338 3,-3 l 0,-2 c 0,1.662 -1.338,3 -3,3 L 7,55 C 5.338,55 4,53.662 4,52 Z"/>
 <path style="fill:#ff766a" d="M 7,8 C 5.338,8 4,9.338 4,11 l 0,33 56,0 0,-33 C 60,9.338 58.662,8 57,8 L 7,8 Z m 52.188,47 c -0.5061,0.50534 -1.2244,0.8095 -2,0.8125 L 7,56.0005 l 50,0 c 0.87988,0 1.6396,-0.40044 2.1876,-1 z"/>
 <path style="opacity:0.2;fill:#8b9cbe" d="M 7 8 C 5.338 8 4 9.338 4 11 L 4 12 C 4 10.338 5.338 9 7 9 L 57 9 C 58.662 9 60 10.338 60 12 L 60 11 C 60 9.338 58.662 8 57 8 L 7 8 z"/>
 <path style="opacity:0.2;fill-rule:evenodd" d="m 44,19 c 4.4182,0 8,3.5818 8,8 0,4.4182 -3.5818,8 -8,8 -4.4182,0 -8,-3.5818 -8,-8 0,-4.4182 3.5818,-8 8,-8 z"/>
 <path style="fill:#fffee4;fill-rule:evenodd" d="m 44,18 c 4.4182,0 8,3.5818 8,8 0,4.4182 -3.5818,8 -8,8 -4.4182,0 -8,-3.5818 -8,-8 0,-4.4182 3.5818,-8 8,-8 z"/>
 <path style="fill:#d22f7a" d="m 4,44 0,9 c 0,0 0,3.012 3,3 L 57.2,55.8 C 58.752,55.794 60,54.552 60,53 l 0,-9 z"/>
 <path style="fill:#17191e" d="m 4,43.999979 v -1.737364 c 0,0 4.0385587,-2.895534 5.1738033,-3.148103 1.1354047,-0.252613 2.4762977,-0.04713 3.8543517,0.235412 1.378034,0.281453 3.435335,1.06208 4.07736,1.085883 0.642105,0.02432 1.804031,-0.06081 3.154124,-0.149414 1.350053,-0.08687 3.585341,-0.166786 4.282568,-0.1581 0.697247,0 2.437896,0.104242 4.293169,0.227226 1.855413,0.123354 4.403773,0.329426 4.981995,0.387085 0.578223,0.05733 1.25787,0.163313 2.02928,0.278869 0.77129,0.114666 2.106683,0.28786 2.578901,0.335485 0.472359,0.04669 1.567502,0.210438 2.838112,0.337396 1.27065,0.126828 3.30413,0.170261 3.891353,0.123352 0.587243,-0.04713 1.818131,-0.519043 3.189925,-0.954253 1.371694,-0.435036 2.884313,-0.833414 4.034759,-0.734905 C 53.527746,40.228448 60,42.262876 60,42.262876 V 44.00024 H 10.798067 Z"/>
 <path style="fill:#8b9cbe;opacity:0.1" d="M 4 44 L 4 45 L 60 45 L 60 44 L 4 44 z"/>
</svg>
