<svg xmlns="http://www.w3.org/2000/svg" width="64" height="64" version="1">
 <path style="opacity:0.2" d="M 28.216512,5.9896248 C 22.952014,5.9799648 17.165099,6.9624474 11.557314,8.579555 9.9590001,9.040458 7.5089061,9.859902 7.3896611,9.973412 c -0.062118,0.05913 0.037224,0.100012 0.3751808,0.154454 0.87202,0.140478 2.1542202,0.536591 3.1157811,0.962509 3.503372,1.551795 6.780645,4.756295 8.996347,9.128563 0.40756,0.80425 0.720772,1.498462 0.720772,1.597398 0,0.02872 -0.254346,0.08764 -0.671447,0.15562 -4.234657,0.690226 -8.252206,2.555114 -11.9334617,6.552142 -1.5422526,1.67454 -3.1778146,3.879776 -4.458283,6.011004 -0.8652094,1.440062 -1.6432747,2.946006 -1.5220292,2.946006 0.00818,0 0.4185702,-0.09832 0.911966,-0.218494 5.2619196,-1.281672 10.0672679,-1.52486 13.4441389,-0.68037 1.423292,0.355936 2.633665,0.59665 3.487518,1.23242 0.36639,0.272808 0.741598,0.61741 0.741598,0.681076 -3.390195,2.888908 -5.413799,6.356526 -6.837946,10.1781 -1.255068,3.66391 -1.797157,7.347712 -1.7598,11.12616 2.165497,-1.66142 5.587173,-5.080824 8.20877,-6.043218 3.08894,-1.100272 5.840382,-1.460826 9.64894,-1.657562 1.059324,-0.05472 4.999436,-0.04064 5.0411,0.05456 10.827882,-0.08044 15.804114,-3.695172 20.518538,-8.907228 3.26907,-3.222576 4.9765,-7.801664 6.063852,-12.15632 0.340608,-1.402662 0.485026,-2.374362 0.513608,-3.456186 0.03384,-1.281096 -0.09372,-2.004534 -0.498182,-2.825762 -0.19248,-0.390784 -0.273066,-0.50686 -0.529736,-0.762414 -0.19976,-0.19888 -0.400936,-0.35264 -0.591354,-0.452014 -0.312012,-0.16282 -0.813436,-0.308676 -1.061194,-0.308676 -0.14312,0 -0.16088,-0.0132 -0.241302,-0.17864 l -0.08674,-0.17864 0.14554,-0.312354 c 0.727708,-1.561326 0.615944,-3.716658 0.830522,-6.202744 0.05912,-0.68497 0.0974,-1.847871 0.06632,-2.013555 -0.03234,-0.172392 -0.0112,-0.166036 -0.833358,-0.250433 -1.960334,-0.201216 -3.735824,-0.150906 -6.232796,0.14467 l -0.726566,0.08595 -0.37581,-0.332242 C 49.865878,12.284083 47.431956,10.92353 44.934896,9.717108 41.29927,7.9606052 37.383104,6.73411 32.88423,6.2393524 31.390678,6.075101 29.82809,5.9925828 28.216512,5.9896248 Z"/>
 <path style="fill:#5856c2" d="M 28.216512,4.9896248 C 22.952014,4.9799688 17.165099,5.9624474 11.557314,7.579555 9.9590001,8.0404578 7.5089061,8.8599018 7.3896611,8.9734122 c -0.062118,0.059128 0.037224,0.100012 0.3751808,0.154454 0.87202,0.140478 2.1542202,0.5365908 3.1157811,0.9625088 3.503372,1.551795 6.780645,4.756295 8.996347,9.128563 0.40756,0.80425 0.720772,1.498462 0.720772,1.597398 0,0.02872 -0.254346,0.08764 -0.671447,0.15562 -4.234657,0.690226 -8.252206,2.555114 -11.9334617,6.552142 -1.5422526,1.67454 -3.1778146,3.879776 -4.458283,6.011004 -0.8652094,1.440062 -1.6432747,2.946006 -1.5220292,2.946006 0.00818,0 0.4185702,-0.09832 0.911966,-0.218494 5.2619196,-1.281672 10.0672679,-1.52486 13.4441389,-0.68037 1.423292,0.355936 2.633665,0.59665 3.487518,1.23242 0.36639,0.272808 0.741598,0.61741 0.741598,0.681076 -3.390195,2.888908 -5.413799,6.356526 -6.837946,10.1781 -1.255068,3.66391 -1.797157,7.347712 -1.7598,11.12616 2.165497,-1.66142 5.587173,-5.080824 8.20877,-6.043218 3.08894,-1.100272 5.840382,-1.460826 9.64894,-1.657562 1.059324,-0.05472 4.999436,-0.04064 5.0411,0.05456 10.827882,-0.08044 15.804114,-3.695172 20.518538,-8.907228 3.26907,-3.222576 4.9765,-7.801664 6.063852,-12.15632 0.340608,-1.402662 0.485026,-2.374362 0.513608,-3.456186 0.03384,-1.281096 -0.09372,-2.004534 -0.498182,-2.825762 -0.19248,-0.390784 -0.273066,-0.50686 -0.529736,-0.762414 -0.19976,-0.19888 -0.400936,-0.35264 -0.591354,-0.452014 -0.312012,-0.16282 -0.813436,-0.308676 -1.061194,-0.308676 -0.14312,0 -0.16088,-0.0132 -0.241302,-0.17864 l -0.08674,-0.17864 0.14554,-0.312354 c 0.727708,-1.561326 0.615944,-3.716658 0.830522,-6.202744 0.05912,-0.68497 0.0974,-1.847871 0.06632,-2.013555 -0.03234,-0.172392 -0.0112,-0.166036 -0.833358,-0.250433 -1.960334,-0.201216 -3.735824,-0.150906 -6.232796,0.14467 l -0.726566,0.08595 -0.37581,-0.332242 C 49.865878,11.284083 47.431956,9.92353 44.934896,8.7171082 41.29927,6.9606052 37.383104,5.73411 32.88423,5.2393524 31.390678,5.075101 29.82809,4.9925828 28.216512,4.9896248 Z"/>
 <path style="fill:#8b9cbe" d="m 41.926898,21.038472 c -0.247054,-0.0158 -0.492602,-0.0096 -0.736608,0.0196 -4.065738,0.486034 -6.13642,3.441418 -6.981028,7.79855 -0.330896,2.864402 -0.02692,6.280594 0.77846,8.657926 0.0755,0.222708 0.107,0.372906 0.0837,0.396206 -0.0233,0.0233 -0.16406,0.0148 -0.371094,-0.0196 -0.12584,-0.02092 -0.443274,-0.0221 -0.700328,-0.0307 V 41.058 h 22.857144 l 1.735492,-2.363282 0.209264,-1.25837 c 1.363964,-4.233176 1.280686,-10.499684 0.12834,-12.06089 -0.06872,-0.0931 -0.19698,-0.206414 -0.284598,-0.251114 -0.731734,-0.373304 -1.756474,0.530456 -3.060826,2.695312 -2.453306,5.039662 -3.06831,6.781546 -4.316406,8.748946 -0.30253,0.328202 -0.471084,0.371256 -0.76172,0.18694 -0.76955,-0.488034 -1.215066,-2.20028 -1.456474,-6.236048 -0.0793,-1.325544 -0.15528,-1.302284 -0.301338,-2.03125 -0.373874,-1.866006 -1.039992,-3.35372 -2.073104,-4.628906 -1.252638,-1.546156 -3.019506,-2.710382 -4.748884,-2.820872 z"/>
 <path style="opacity:0.2" d="m 28.59072,14.000001 -0.06232,0.195044 c -0.1127,0.352804 -0.314068,1.224018 -0.3788,1.638674 C 28.03886,16.543071 28,17.071748 28,17.869756 c 0,1.381658 0.13758,2.304846 0.52546,3.52625 C 28.6814,21.887038 28.731062,22 28.79117,22 c 0.02056,0 0.202952,-0.1353 0.405278,-0.300632 1.957558,-1.599772 4.401766,-2.994874 6.623724,-3.78068 0.0908,-0.03211 0.17148,-0.07613 0.17926,-0.09787 0.02274,-0.06344 -0.637444,-0.810688 -1.07155,-1.212834 C 34.14349,15.881352 33.417984,15.402504 32.401108,14.94015 32.033992,14.77323 31.564672,14.581848 31.358168,14.514917 30.586974,14.26495 29.654562,14.075313 28.9524,14.025601 Z"/>
 <path style="fill:#f3a993" d="m 28.59072,13.000001 -0.06232,0.195044 c -0.1127,0.352804 -0.314068,1.224018 -0.3788,1.638674 C 28.03886,15.543071 28,16.071748 28,16.869756 c 0,1.381657 0.13758,2.304846 0.52546,3.52625 C 28.6814,20.887038 28.731062,21 28.79117,21 c 0.02056,0 0.202952,-0.1353 0.405278,-0.300632 1.957558,-1.599772 4.401766,-2.994875 6.623724,-3.78068 0.0908,-0.03211 0.17148,-0.07613 0.17926,-0.09787 0.02274,-0.06344 -0.637444,-0.810688 -1.07155,-1.212834 C 34.14349,14.881352 33.417984,14.402504 32.401108,13.94015 32.033992,13.77323 31.564672,13.581848 31.358168,13.514917 30.586974,13.26495 29.654562,13.075313 28.9524,13.025601 Z"/>
 <path style="fill:#fcb9a4" d="m 57.52626,41.087928 c -0.563906,0.0038 -1.22491,0.265538 -1.65286,0.66174 -0.281046,0.260204 -0.411202,0.483954 -0.416682,0.716466 -0.0118,0.498408 0.583282,0.68355 1.45752,0.453478 0.602068,-0.15844 1.181178,-0.562686 1.381258,-0.964188 0.250974,-0.503642 0.0048,-0.827384 -0.657902,-0.864834 -0.03664,-0.0022 -0.07374,-0.0028 -0.11134,-0.0028 z"/>
 <path style="fill:#fcb9a4" d="m 57.577464,41.11087 c 0.6621,0.0052 0.940106,0.339566 0.698066,0.839542 -0.17132,0.353908 -0.776926,0.777998 -1.359492,0.952054 -0.25758,0.07696 -0.769318,0.114 -0.942032,0.0682 -0.32067,-0.08504 -0.50108,-0.269232 -0.50108,-0.51165 0,-0.339328 0.441082,-0.807968 1.011556,-1.07474 0.445216,-0.208196 0.717818,-0.276368 1.092982,-0.2734 z"/>
 <path style="fill:#fcb9a4" d="m 34.045874,42.385882 c 0.571754,0.003 0.843866,0.18154 1.290518,0.846592 0.731312,1.088896 1.488856,1.813904 2.478466,2.372068 0.78659,0.44365 1.687496,0.707046 2.567568,0.75068 0.293428,0.0146 0.586534,0.0549 0.756552,0.10412 0.240912,0.06976 0.310612,0.11332 0.52723,0.32993 0.211336,0.211336 0.262424,0.29134 0.33369,0.522062 0.04628,0.14986 0.08418,0.340886 0.08418,0.424432 0,0.08354 -0.03788,0.274484 -0.08418,0.42435 -0.07122,0.230566 -0.1224,0.310774 -0.332984,0.52136 -0.210586,0.210584 -0.290794,0.261848 -0.52136,0.33306 -0.259034,0.08 -0.701336,0.10358 -1.085856,0.05786 -0.947302,-0.11264 -1.287404,-0.18352 -2.00432,-0.417542 -1.359312,-0.443736 -2.552182,-1.181496 -3.612632,-2.234268 -0.712128,-0.706978 -1.530046,-1.806264 -1.68183,-2.26042 -0.216588,-0.64807 0.07578,-1.338936 0.695798,-1.64417 0.236696,-0.11652 0.304792,-0.13162 0.58916,-0.13014 z"/>
 <path style="fill:#fcb9a4" d="m 34.626736,51.496774 c 0.0198,0.0016 0.04436,0.003 0.06138,0.0046 0.19106,0.018 0.423714,0.03452 0.584778,0.0422 -0.09802,-0.0058 -0.221928,-0.0156 -0.374088,-0.02872 -0.07414,-0.0064 -0.16892,-0.0122 -0.27207,-0.018 z"/>
 <path style="opacity:0.2" d="m 30.895642,38.31473 c -1.533226,0.587962 -2.496836,1.75386 -2.807606,3.396944 -0.09748,0.51536 -0.11824,1.58272 -0.04092,2.103958 0.438358,2.955374 2.433288,5.77684 5.36738,7.652118 1.465704,1.006548 2.355482,1.276874 3.993186,1.835546 1.611586,0.469356 3.323382,0.695382 5.229648,0.696698 1.86948,0.0013 3.344326,-0.18456 4.973398,-0.626668 3.60405,-0.978114 6.634652,-3.148882 8.395028,-6.013212 1.272934,-2.562066 2.673844,-4.349936 1.628682,-5.921554 -1.688118,-2.53843 -6.300714,-0.9437 -8.0874,-0.16912 C 47.934744,41.970508 47.349584,41.880064 46.504466,42 44.60179,42.27001 43.56981,41.86938 40.001448,40.077446 37.223176,38.723678 33.861886,37.248328 30.895654,38.31474 Z"/>
 <path style="fill:#f3a993" d="m 30.895642,37.31473 c -1.533226,0.587962 -2.496836,1.75386 -2.807606,3.396944 -0.09748,0.51536 -0.11824,1.58272 -0.04092,2.103958 0.438358,2.955374 2.433288,5.77684 5.36738,7.652118 1.465704,1.006548 2.355482,1.276874 3.993186,1.835546 1.611586,0.469356 3.323382,0.695382 5.229648,0.696698 1.86948,0.0013 3.344326,-0.18456 4.973398,-0.626668 3.60405,-0.978114 6.634652,-3.148882 8.395028,-6.013212 1.272934,-2.562066 2.673844,-4.349936 1.628682,-5.921554 -1.688118,-2.53843 -6.300714,-0.9437 -8.0874,-0.16912 C 47.934744,40.970508 47.349584,40.880064 46.504466,41 44.60179,41.27001 43.56981,40.86938 40.001448,39.077446 37.223176,37.723678 33.861886,36.248328 30.895654,37.31474 Z"/>
 <path style="opacity:0.1" d="m 59.775391,31.37257 c -0.07543,2.039112 -0.385456,4.235967 -0.97461,6.064453 l -0.207031,1.257812 -1.128906,1.535157 c -1.803746,-2.222922 -6.185443,-0.71204 -7.917969,0.03906 -1.612294,0.701068 -2.197851,0.610529 -3.042969,0.730469 -0.41921,0.0595 -0.789038,0.07199 -1.160156,0.05859 H 45.148438 C 43.900855,40.966709 42.649612,40.408212 40,39.077648 c -1.574338,-0.767126 -3.334679,-1.557375 -5.105469,-1.917969 -0.449558,-1.46136 -0.708812,-3.244666 -0.771484,-5.042968 -0.01464,2.126707 0.238242,4.309579 0.771484,6.042968 1.77079,0.360594 3.531131,1.150843 5.105469,1.917969 2.649612,1.330564 3.900855,1.889061 5.148438,1.980469 h 0.195312 c 0.371118,0.0134 0.740946,9.02e-4 1.160156,-0.05859 0.845118,-0.11994 1.430675,-0.0294 3.042969,-0.730469 1.732526,-0.751102 6.114223,-2.261984 7.917969,-0.03906 l 1.128906,-1.535157 0.207031,-1.257812 c 0.688983,-2.138315 0.978225,-4.760306 0.97461,-7.064453 z"/>
 <path style="opacity:0.2" d="m 55.519244,45.921928 c -0.613462,-0.18876 -0.928116,-0.428074 -1.217668,-0.92609 -0.679852,-1.169336 -0.18518,-3.059506 1.23113,-4.704098 0.527176,-0.61215 1.019178,-1.03314 1.689792,-1.445898 1.532882,-0.943488 3.067864,-1.111064 3.986466,-0.435202 0.35258,0.25941 0.527342,0.511488 0.673998,0.97216 0.11942,0.37513 0.1276,0.441566 0.11,0.893342 -0.0347,0.890864 -0.299196,1.6338 -0.923638,2.594294 -0.767634,1.180734 -1.96397,2.227782 -3.111632,2.723334 -0.861914,0.372168 -1.859236,0.506382 -2.438452,0.328158 z"/>
 <path style="fill:#4f4f4f" d="m 55.519244,44.921928 c -0.613462,-0.18876 -0.928116,-0.428074 -1.217668,-0.92609 -0.679852,-1.169336 -0.18518,-3.059506 1.23113,-4.704098 0.527176,-0.61215 1.019178,-1.03314 1.689792,-1.445898 1.532882,-0.943488 3.067864,-1.111064 3.986466,-0.435202 0.35258,0.25941 0.527342,0.511488 0.673998,0.97216 0.11942,0.37513 0.1276,0.441566 0.11,0.893342 -0.0347,0.890864 -0.299196,1.6338 -0.923638,2.594294 -0.767634,1.180734 -1.96397,2.227782 -3.111632,2.723334 -0.861914,0.372168 -1.859236,0.506382 -2.438452,0.328158 z"/>
 <ellipse style="fill:#17191e" cx="45.275" cy="30.865" rx="2.953" ry="4.035" transform="matrix(0.99856688,0.05351809,-0.13641488,0.9906518,0,0)"/>
 <path style="opacity:0.5;fill:none;stroke:#000000;stroke-width:3;stroke-linecap:round" d="m 33.5,43.5 c 1.985796,2.857144 3.714286,4 8,4"/>
 <path style="fill:#17191e" d="m 54.796876,29.488282 c -1.658108,3.498652 -2.465534,5.409508 -3.523438,7.078124 a 2.9315788,4.0504128 13.17543 0 0 1.17578,0.429688 2.9315788,4.0504128 13.17543 0 0 3.5,-3.839844 2.9315788,4.0504128 13.17543 0 0 -1.152342,-3.667968 z"/>
 <path style="fill:#8b9cbe;opacity:0.1" d="M 28.216797 4.9902344 C 22.952299 4.9805784 17.164426 5.9629705 11.556641 7.5800781 C 9.9583267 8.0409809 7.50987 8.8591458 7.390625 8.9726562 C 7.328507 9.0317842 7.4276682 9.0725111 7.765625 9.1269531 C 8.1048137 9.1815947 8.5113426 9.2836387 8.9316406 9.4023438 C 9.7564871 9.1266627 10.761592 8.8093448 11.556641 8.5800781 C 17.164426 6.9629705 22.952299 5.9805784 28.216797 5.9902344 C 29.828375 5.9931924 31.391214 6.075983 32.884766 6.2402344 C 37.38364 6.734992 41.299921 7.9602939 44.935547 9.7167969 C 47.432607 10.923219 49.865105 12.283766 51.859375 14.046875 L 52.236328 14.378906 L 52.962891 14.292969 C 55.459863 13.997393 57.234978 13.947221 59.195312 14.148438 C 59.957467 14.226675 59.994313 14.232187 60.021484 14.369141 C 60.039522 13.904079 60.046883 13.492187 60.029297 13.398438 C 59.996957 13.226045 60.01747 13.232834 59.195312 13.148438 C 57.234978 12.947221 55.459863 12.997393 52.962891 13.292969 L 52.236328 13.378906 L 51.859375 13.046875 C 49.865105 11.283766 47.432607 9.9232187 44.935547 8.7167969 C 41.299921 6.9602939 37.38364 5.734992 32.884766 5.2402344 C 31.391214 5.075983 29.828375 4.9931924 28.216797 4.9902344 z M 20.208984 20.90625 C 20.097848 20.930109 20.101669 20.94399 19.925781 20.972656 C 15.691124 21.662882 11.673443 23.52641 7.9921875 27.523438 C 6.4499349 29.197978 4.8156246 31.403928 3.5351562 33.535156 C 2.6699469 34.975218 1.8904732 36.480469 2.0117188 36.480469 C 2.0161847 36.480469 2.3174686 36.407498 2.5097656 36.361328 C 2.7905291 35.827806 3.1428485 35.188117 3.5351562 34.535156 C 4.8156246 32.403928 6.4499349 30.197978 7.9921875 28.523438 C 11.673443 24.526409 15.691124 22.662882 19.925781 21.972656 C 20.342882 21.904676 20.597656 21.845126 20.597656 21.816406 C 20.597656 21.749473 20.427927 21.367844 20.208984 20.90625 z M 59.263672 22.275391 C 59.220899 22.389267 59.183268 22.506981 59.132812 22.615234 L 58.986328 22.927734 L 59.072266 23.107422 C 59.152688 23.272862 59.171333 23.285156 59.314453 23.285156 C 59.562211 23.285156 60.062988 23.43093 60.375 23.59375 C 60.565418 23.693124 60.767037 23.846042 60.966797 24.044922 C 61.223467 24.300476 61.303614 24.41781 61.496094 24.808594 C 61.798354 25.422309 61.947103 25.98172 61.988281 26.759766 C 61.989758 26.717765 61.993023 26.677071 61.994141 26.634766 C 62.027981 25.35367 61.900556 24.629822 61.496094 23.808594 C 61.303614 23.41781 61.223467 23.300476 60.966797 23.044922 C 60.767037 22.846042 60.565418 22.693124 60.375 22.59375 C 60.062988 22.43093 59.562211 22.285156 59.314453 22.285156 C 59.289296 22.285156 59.282104 22.276961 59.263672 22.275391 z M 20.064453 37.986328 C 17.00161 40.775524 15.10533 44.063124 13.759766 47.673828 C 12.504698 51.337738 11.962643 55.022333 12 58.800781 C 12.002855 58.798591 12.006906 58.795165 12.009766 58.792969 C 12.070748 55.365958 12.61651 52.011326 13.759766 48.673828 C 15.183913 44.852254 17.207461 41.385002 20.597656 38.496094 C 20.597656 38.44547 20.345848 38.214871 20.064453 37.986328 z"/>
 <path style="fill:#8b9cbe;opacity:0.1" d="M 28.589844 13 L 28.529297 13.195312 C 28.416597 13.548117 28.215123 14.419328 28.150391 14.833984 C 28.039651 15.543336 28 16.071133 28 16.869141 C 28 17.058319 28.010177 17.222554 28.015625 17.396484 C 28.030469 16.854222 28.064558 16.383791 28.150391 15.833984 C 28.215123 15.419328 28.416597 14.548117 28.529297 14.195312 L 28.589844 14 L 28.953125 14.025391 C 29.655287 14.075103 30.586228 14.265658 31.357422 14.515625 C 31.563926 14.582556 32.033275 14.772533 32.400391 14.939453 C 33.417267 15.401807 34.143342 15.88079 34.927734 16.607422 C 35.070964 16.740107 35.234728 16.920931 35.394531 17.091797 C 35.535328 17.037874 35.681086 16.967207 35.820312 16.917969 C 35.911113 16.885859 35.99222 16.842053 36 16.820312 C 36.02274 16.756873 35.36184 16.009568 34.927734 15.607422 C 34.143342 14.88079 33.417267 14.401807 32.400391 13.939453 C 32.033275 13.772533 31.563926 13.582556 31.357422 13.515625 C 30.586228 13.265658 29.655287 13.075103 28.953125 13.025391 L 28.589844 13 z"/>
</svg>
