<svg xmlns="http://www.w3.org/2000/svg" width="64" height="64" version="1">
 <path style="opacity:0.2" d="m 4.050798,32.000828 c -0.0118,0.33399 -0.050799,0.661981 -0.050799,0.999971 C 3.9999994,48.512357 16.487643,61 31.9992,61 47.510757,61 59.998401,48.512357 59.998401,33.000799 c 0,-0.33767 -0.03904,-0.665261 -0.05078,-0.999971 -0.527985,15.041571 -12.775635,26.999229 -27.949202,26.999229 -15.173967,0 -27.4212171,-11.957658 -27.949202,-26.999229 z"/>
 <rect style="fill:#f15990" width="56" height="56" x="4" y="4" rx="27.999" ry="27.999"/>
 <path style="opacity:0.1;fill:#8b9cbe" d="M 32 4.0019531 C 16.488443 4.0019531 4 16.488443 4 32 C 4 32.113553 4.0112846 32.224036 4.0175781 32.335938 C 4.3691113 17.134615 16.711164 5 32 5 C 47.288836 5 59.630889 17.134615 59.982422 32.335938 C 59.988693 32.224116 60 32.113445 60 32 C 60 16.488443 47.511557 4.0019531 32 4.0019531 z"/>
 <path style="opacity:0.2" d="M 42.998973,19.000799 A 13.9996,13.9996 0 0 0 28.999372,33.000399 13.9996,13.9996 0 0 0 42.998973,47 a 13.9996,13.9996 0 0 0 13.9996,-13.999601 13.9996,13.9996 0 0 0 -13.9996,-13.9996 z M 16.999715,23.000685 A 9.9997145,9.9997145 0 0 0 7,33.000399 a 9.9997145,9.9997145 0 0 0 9.999715,9.999715 9.9997145,9.9997145 0 0 0 9.999714,-9.999715 9.9997145,9.9997145 0 0 0 -9.999714,-9.999714 z m 25.999258,0 a 9.9997145,9.9997145 0 0 1 9.999714,9.999714 9.9997145,9.9997145 0 0 1 -9.999714,9.999715 9.9997145,9.9997145 0 0 1 -9.999715,-9.999715 9.9997145,9.9997145 0 0 1 9.999715,-9.999714 z m -25.999258,3.999886 a 5.9998287,5.9998287 0 0 1 5.999829,5.999828 5.9998287,5.9998287 0 0 1 -5.999829,5.999829 5.9998287,5.9998287 0 0 1 -5.999829,-5.999829 5.9998287,5.9998287 0 0 1 5.999829,-5.999828 z"/>
 <path style="fill:#8b9cbe" d="m 42.998973,18.001256 a 13.9996,13.9996 0 0 0 -13.999601,13.9996 13.9996,13.9996 0 0 0 13.999601,13.999601 13.9996,13.9996 0 0 0 13.9996,-13.999601 13.9996,13.9996 0 0 0 -13.9996,-13.9996 z M 16.999715,22.001142 A 9.9997145,9.9997145 0 0 0 7,32.000856 a 9.9997145,9.9997145 0 0 0 9.999715,9.999715 9.9997145,9.9997145 0 0 0 9.999714,-9.999715 9.9997145,9.9997145 0 0 0 -9.999714,-9.999714 z m 25.999258,0 a 9.9997145,9.9997145 0 0 1 9.999714,9.999714 9.9997145,9.9997145 0 0 1 -9.999714,9.999715 9.9997145,9.9997145 0 0 1 -9.999715,-9.999715 9.9997145,9.9997145 0 0 1 9.999715,-9.999714 z m -25.999258,3.999886 a 5.9998287,5.9998287 0 0 1 5.999829,5.999828 5.9998287,5.9998287 0 0 1 -5.999829,5.999829 5.9998287,5.9998287 0 0 1 -5.999829,-5.999829 5.9998287,5.9998287 0 0 1 5.999829,-5.999828 z"/>
</svg>
