<svg xmlns="http://www.w3.org/2000/svg" width="64" height="64" version="1">
 <ellipse style="opacity:0.2" cx="13.685" cy="44.822" rx="26.556" ry="19.995" transform="matrix(0.84250019,-0.53869604,0.43439331,0.9007233,0,0)"/>
 <ellipse style="fill:#6e6e6e" cx="14.123" cy="43.973" rx="26.556" ry="19.995" transform="matrix(0.84250019,-0.53869604,0.43439331,0.9007233,0,0)"/>
 <path style="opacity:0.1;fill:#8b9cbe" d="M 38.769531,9.0078125 A 19.677117,26.791996 49.086323 0 0 22.3125,13.988281 19.677117,26.791996 49.086323 0 0 7.0410156,39.498047 19.677117,26.791996 49.086323 0 1 22.3125,14.988281 19.677117,26.791996 49.086323 0 1 38.769531,10.007812 19.677117,26.791996 49.086323 0 1 53.375,18.695312 19.677117,26.791996 49.086323 0 1 54.951172,25.042969 19.677117,26.791996 49.086323 0 0 53.375,17.695312 19.677117,26.791996 49.086323 0 0 38.769531,9.0078125 Z"/>
 <rect style="opacity:0.2" width="16" height="16" x="-21" y="-38" rx="8" ry="8" transform="matrix(0,-1,-1,0,0,0)"/>
 <rect style="fill:#3e3e3e" width="16" height="16" x="-20" y="-38" rx="8" ry="8" transform="matrix(0,-1,-1,0,0,0)"/>
 <rect style="opacity:0.2" width="10" height="10" x="-18" y="-35" rx="5" ry="5" transform="matrix(0,-1,-1,0,0,0)"/>
 <rect style="fill:#6666ff" width="10" height="10" x="-17" y="-35" rx="5" ry="5" transform="matrix(0,-1,-1,0,0,0)"/>
 <rect style="opacity:0.2" width="16" height="16" x="-35" y="-62" rx="8" ry="8" transform="matrix(0,-1,-1,0,0,0)"/>
 <rect style="fill:#3e3e3e" width="16" height="16" x="-34" y="-62" rx="8" ry="8" transform="matrix(0,-1,-1,0,0,0)"/>
 <rect style="opacity:0.2" width="10" height="10" x="-32" y="-59" rx="5" ry="5" transform="matrix(0,-1,-1,0,0,0)"/>
 <rect style="fill:#6666ff" width="10" height="10" x="-31" y="-59" rx="5" ry="5" transform="matrix(0,-1,-1,0,0,0)"/>
 <rect style="opacity:0.2" width="16" height="16" x="-39" y="-18" rx="8" ry="8" transform="matrix(0,-1,-1,0,0,0)"/>
 <rect style="fill:#3e3e3e" width="16" height="16" x="-38" y="-18" rx="8" ry="8" transform="matrix(0,-1,-1,0,0,0)"/>
 <rect style="opacity:0.2" width="10" height="10" x="-36" y="-15" rx="5" ry="5" transform="matrix(0,-1,-1,0,0,0)"/>
 <rect style="fill:#6666ff" width="10" height="10" x="-35" y="-15" rx="5" ry="5" transform="matrix(0,-1,-1,0,0,0)"/>
 <rect style="opacity:0.2" width="16" height="16" x="-61" y="-24" rx="8" ry="8" transform="matrix(0,-1,-1,0,0,0)"/>
 <rect style="fill:#3e3e3e" width="16" height="16" x="-60" y="-24" rx="8" ry="8" transform="matrix(0,-1,-1,0,0,0)"/>
 <rect style="opacity:0.2" width="10" height="10" x="-58" y="-21" rx="5" ry="5" transform="matrix(0,-1,-1,0,0,0)"/>
 <rect style="fill:#6666ff" width="10" height="10" x="-57" y="-21" rx="5" ry="5" transform="matrix(0,-1,-1,0,0,0)"/>
 <rect style="opacity:0.2" width="16" height="16" x="-57" y="-50" rx="8" ry="8" transform="matrix(0,-1,-1,0,0,0)"/>
 <rect style="fill:#3e3e3e" width="16" height="16" x="-56" y="-50" rx="8" ry="8" transform="matrix(0,-1,-1,0,0,0)"/>
 <rect style="opacity:0.2" width="10" height="10" x="-54" y="-47" rx="5" ry="5" transform="matrix(0,-1,-1,0,0,0)"/>
 <rect style="fill:#6666ff" width="10" height="10" x="-53" y="-47" rx="5" ry="5" transform="matrix(0,-1,-1,0,0,0)"/>
</svg>
