<svg xmlns="http://www.w3.org/2000/svg" width="64" height="64" version="1">
 <path style="opacity:0.2" d="m 2,14 v 4 2 H 5 V 48 H 2 v 5 H 63 V 48 H 60 V 34 20 h 3 v -2 -4 h -3 v 4 h -4 v -4 h -3 v 4 h -4 v -4 h -3 v 4 2 h 3 V 33.908203 34 H 38 v -8 h 3 v -2 -4 h -3 v 4 h -4 v -4 h -3 v 4 h -4 v -4 h -3 v 4 2 h 3 v 8 H 16 V 33.908203 20 h 3 v -2 -4 h -3 v 4 H 12 V 14 H 9 v 4 H 5 v -4 z"/>
 <path style="fill:#cf2619" d="M 5,33 V 47 H 2 l -8e-7,5 H 63 V 47 H 60 V 33 Z"/>
 <path style="fill:#f44336" d="m 23.999999,19 v 4 2 H 27 V 47 H 38 V 38.90909 25 h 3 v -2 -4 h -3 v 4 h -4 v -4 h -3 v 4 h -4 v -4 z"/>
 <path style="fill:#f44336" d="m 1.9999992,13 v 4 2 H 5 V 47 H 16 V 32.90909 19 h 3 v -2 -4 h -3 v 4 H 12 V 13 H 9 v 4 H 5 v -4 z"/>
 <path style="fill:#f44336" d="m 63,13 v 4 2 H 60 V 47 H 49 V 32.90909 19 h -3 v -2 -4 h 3 v 4 h 4 v -4 h 3 v 4 h 4 v -4 z"/>
 <path style="opacity:0.2" d="m 9,22 v 10 h 3 V 22 Z m 44,0 v 10 h 3 V 22 Z M 9,36 v 10 h 3 V 36 Z m 11,0 v 7 h 3 v -7 z m 22,0 v 7 h 3 v -7 z m 11,0 v 10 h 3 V 36 Z m -22,1 v 1 h -1 v 10 h 5 V 38 h -1 v -1 z"/>
 <rect style="fill:#8b9cbe" width="3" height="10" x="-56" y="21" transform="scale(-1,1)"/>
 <rect style="fill:#8b9cbe" width="3" height="10" x="-56" y="35" transform="scale(-1,1)"/>
 <rect style="fill:#8b9cbe" width="3" height="7" x="-45" y="35" transform="scale(-1,1)"/>
 <path style="fill:#8b9cbe" d="m 31,36 v 1 h -1 v 10 h 5 V 37 h -1 v -1 z"/>
 <rect style="fill:#8b9cbe" width="3" height="7" x="20" y="35"/>
 <rect style="fill:#8b9cbe" width="3" height="10" x="9" y="35"/>
 <rect style="fill:#8b9cbe" width="3" height="10" x="9" y="21"/>
 <path style="opacity:0.2;fill:#8b9cbe" d="m 2,13 v 1 h 3 v -1 z m 7,0 v 1 h 3 v -1 z m 7,0 v 1 h 3 v -1 z m 30,0 v 1 h 3 v -1 z m 7,0 v 1 h 3 v -1 z m 7,0 v 1 h 3 V 13 Z M 5,17 v 1 h 4 v -1 z m 7,0 v 1 h 4 v -1 z m 37,0 v 1 h 4 v -1 z m 7,0 v 1 h 4 v -1 z m -32,2 v 1 h 3 v -1 z m 7,0 v 1 h 3 v -1 z m 7,0 v 1 h 3 v -1 z m -11,4 v 1 h 4 v -1 z m 7,0 v 1 h 4 v -1 z"/>
 <rect style="opacity:0.1;fill:#8b9cbe" width="3" height="1" x="2" y="47"/>
 <rect style="opacity:0.1;fill:#8b9cbe" width="11" height="1" x="16" y="33"/>
 <path style="opacity:0.1;fill:#8b9cbe" d="m 49,33 v 1 H 38 v -1 z m 14,14 v 1 h -3 v -1 z"/>
</svg>
