<svg xmlns="http://www.w3.org/2000/svg" width="64" height="64" version="1">
 <path style="opacity:0.2" d="M 32 5 A 28 28 0 0 0 4 33 A 28 28 0 0 0 10.474609 50.867188 C 15.271259 51.104044 19.510893 53.448566 24.240234 54.560547 C 27.147748 55.374831 28.833537 55.569302 32.230469 55.482422 C 35.004341 55.411482 35.935969 55.292339 37.617188 54.792969 C 41.046763 53.774283 44.591213 51.766692 46.587891 49.714844 C 50.305271 45.89474 51.940882 38.623533 50.263672 33.193359 C 49.446666 29.993097 48.107049 28.841747 45.605469 27.962891 C 43.226463 27.109449 41.957031 28.318359 41.957031 28.318359 C 42.096203 29.945265 42.49181 31.073424 40.271484 33 C 39.259108 33.998078 36.754097 34.409681 34.939453 34.783203 C 34.576311 34.857951 34.200705 35.137848 34.078125 35.427734 C 33.958571 35.710462 33.036721 38.824795 32.029297 41.369141 C 29.696005 47.262095 28.361343 50.005408 27.537109 50.603516 C 26.904831 51.062306 26.864935 51.06465 25.341797 50.666016 C 24.487759 50.4425 23.228889 49.924723 22.546875 49.515625 C 21.360881 48.804225 17.056641 44.511719 17.056641 44.511719 C 17.056641 44.511719 19.218812 44.988718 20.953125 45.080078 C 24.490195 45.266424 25.610313 45.203736 25.859375 42.960938 C 25.956555 42.085904 26.042228 39.737313 26.048828 38.720703 C 26.05958 37.046591 25.979919 36.710549 25.212891 35.158203 C 24.730621 34.182167 24.319192 32.960972 24.257812 32.322266 C 24.198539 31.705398 24.056966 31.201172 23.941406 31.201172 C 23.825854 31.201172 23.537314 31.644873 23.302734 32.185547 C 22.585272 33.839189 21.074117 34.324219 19.363281 34.324219 C 18.557518 34.324219 17.832323 34.38847 17.751953 34.46875 C 17.67157 34.549042 18.033484 34.983837 18.556641 35.431641 C 19.079797 35.879439 19.423932 36.297848 19.320312 36.361328 C 19.216696 36.424802 18.553341 36.546766 17.845703 36.634766 C 16.897084 36.752732 16.32744 36.697245 15.677734 36.425781 C 15.193076 36.223275 14.703475 36.060547 14.591797 36.060547 C 14.19908 36.060547 14.397165 36.692501 15.083984 37.640625 C 15.771688 38.589977 15.941867 39.064453 15.597656 39.064453 C 15.499491 39.064453 14.710255 38.867767 13.841797 38.626953 C 12.668266 38.301541 12.031854 37.965387 11.365234 37.314453 L 10.46875 36.4375 L 10.136719 37.230469 C 9.9549484 37.666765 9.7329741 38.519152 9.6425781 39.125 C 9.5521833 39.730846 9.3936885 40.27909 9.2890625 40.34375 C 9.0617659 40.484228 7.7910387 38.693014 7.3203125 37.566406 C 6.8877387 36.531138 6.8939797 34.145032 7.3320312 32.669922 C 8.0095141 30.388592 9.4697764 28.973428 11.845703 28.298828 C 17.695224 26.637962 19.417994 24.975896 20.537109 21.052734 C 20.798075 20.13789 21.213493 19.389291 21.820312 18.740234 C 22.691167 17.808889 23.503249 17.190289 24.890625 17.162109 C 25.784147 17.149307 27.488281 17.820312 27.488281 17.820312 L 28.644531 16.3125 C 30.776311 13.530848 34.282364 10.87009 38.023438 9.6953125 C 38.966542 9.4033897 39.993965 9.2564682 41.064453 9.2226562 C 41.421285 9.2113962 41.781164 9.2117494 42.146484 9.2246094 C 44.225068 9.297811 46.412699 9.7533749 48.451172 10.376953 A 28 28 0 0 0 32 5 z M 47.712891 10.974609 C 44.08166 11.095088 40.853327 12.189831 38.507812 16.363281 C 43.602506 13.118816 47.875509 13.069637 51.927734 13.345703 A 28 28 0 0 0 49.240234 10.976562 C 48.724688 10.961588 48.214325 10.957972 47.712891 10.974609 z M 53.865234 15.519531 C 53.940379 15.613362 54.010039 15.71181 54.083984 15.806641 A 28 28 0 0 0 53.865234 15.519531 z M 55.017578 17.111328 C 54.232655 17.601398 53.535156 18.003906 53.535156 18.003906 C 53.535156 18.003907 54.602081 18.151559 55.835938 18.351562 A 28 28 0 0 0 55.017578 17.111328 z M 56.759766 19.960938 C 56.864804 20.161171 56.971945 20.35944 57.072266 20.5625 A 28 28 0 0 0 56.759766 19.960938 z M 25.064453 20 C 24.410237 21.69158 23.481715 23.084164 22.300781 24.201172 L 25.099609 23.169922 L 25.064453 20 z M 57.888672 22.388672 C 57.98521 22.624165 58.085177 22.857162 58.175781 23.095703 C 58.184772 23.119575 58.192196 23.144103 58.201172 23.167969 A 28 28 0 0 0 57.888672 22.388672 z M 58.908203 25.292969 C 58.975174 25.526151 59.027429 25.764801 59.089844 26 A 28 28 0 0 0 58.908203 25.292969 z M 59.523438 27.935547 C 59.557212 28.120977 59.592881 28.305505 59.623047 28.492188 A 28 28 0 0 0 59.523438 27.935547 z M 13 30 L 10.199219 31.167969 C 11.132552 30.922527 12.066666 30.900919 13 31.400391 L 13 30 z M 59.914062 30.884766 C 59.921261 30.981124 59.927371 31.07723 59.933594 31.173828 C 59.972734 31.777502 60 32.385856 60 33 A 28 28 0 0 0 59.914062 30.884766 z M 26.410156 60.433594 A 28 28 0 0 0 26.466797 60.445312 C 26.447883 60.441473 26.429057 60.437469 26.410156 60.433594 z M 29.142578 60.849609 A 28 28 0 0 0 29.324219 60.865234 C 29.263779 60.859802 29.202877 60.855522 29.142578 60.849609 z M 34.134766 60.910156 C 34.024058 60.918436 33.913805 60.928547 33.802734 60.935547 A 28 28 0 0 0 34.134766 60.910156 z"/>
 <path style="fill:#4f4f4f" d="m 32,4 c 10.322316,0 19.30557,5.5298272 24.161058,13.800776 2.44116,4.158332 1.024872,9.572354 1.024872,14.762038 0,15.512 -9.955338,25.60804 -25.467338,25.60804 -8.40211,0 -15.635611,-1.834674 -20.759355,-7.658354 C 6.6235114,45.584488 4,39.109888 4,32 4,16.488 16.488,4 32,4 Z"/>
 <path style="opacity:0.2" d="m 41.064452,9.221875 c -1.070488,0.033812 -2.09752,0.181124 -3.040624,0.4730468 -3.741074,1.1747772 -7.247126,3.8350902 -9.378906,6.6167422 l -1.15664,1.509375 c 0,0 -1.704136,-0.671786 -2.597658,-0.658984 -1.387376,0.02818 -2.199848,0.646389 -3.070702,1.577734 -0.60682,0.649057 -1.021456,1.398437 -1.282422,2.313281 -1.119115,3.923162 -2.841682,5.585674 -8.691203,7.24654 -2.3759267,0.6746 -3.8369703,2.0882 -4.5144531,4.36953 -0.4380516,1.47511 -0.4435138,3.861998 -0.01094,4.897266 0.4707262,1.126608 1.7414534,2.918604 1.96875,2.778126 0.104626,-0.06466 0.2623396,-0.613686 0.3527344,-1.219532 0.090396,-0.605848 0.3131514,-1.458626 0.4949217,-1.894922 l 0.33086,-0.792968 0.896874,0.877734 c 0.66662,0.650934 1.303813,0.987088 2.477344,1.3125 0.868458,0.240814 1.657303,0.4375 1.755468,0.4375 0.344211,0 0.173642,-0.475258 -0.514062,-1.42461 -0.686819,-0.948124 -0.884905,-1.580468 -0.492188,-1.580468 0.111678,0 0.60089,0.1639 1.085548,0.366406 0.649706,0.271464 1.21974,0.325778 2.168359,0.207812 0.707638,-0.088 1.370211,-0.209962 1.473827,-0.273436 0.10362,-0.06348 -0.239728,-0.48189 -0.762884,-0.929688 -0.523157,-0.447804 -0.884289,-0.882208 -0.803906,-0.9625 0.08037,-0.08028 0.804783,-0.14492 1.610546,-0.14492 1.710836,0 3.222786,-0.484638 3.940248,-2.13828 0.23458,-0.540674 0.521556,-0.984374 0.637108,-0.984374 0.11556,0 0.257914,0.504224 0.317188,1.121092 0.06138,0.638706 0.472026,1.859512 0.954296,2.835548 0.767028,1.552346 0.847472,1.88878 0.83672,3.562892 -0.0066,1.01661 -0.0915,3.365612 -0.18868,4.240646 -0.249062,2.242798 -1.369786,2.305488 -4.906856,2.119142 -1.734313,-0.09136 -3.896484,-0.56875 -3.896484,-0.56875 0,0 4.30463,4.292504 5.490624,5.003904 0.682014,0.409098 1.940494,0.927658 2.794532,1.151174 1.523138,0.398634 1.563424,0.39591 2.195702,-0.06288 0.824234,-0.598108 2.159286,-3.341032 4.492578,-9.233986 1.007424,-2.544346 1.928494,-5.6587 2.048048,-5.941428 0.12258,-0.289886 0.498186,-0.570564 0.861328,-0.645312 1.814644,-0.373522 4.319896,-0.784736 5.332272,-1.782814 2.220326,-1.926576 1.823548,-3.054344 1.684376,-4.68125 0,0 1.271142,-1.20891 3.650148,-0.355468 2.50158,0.878856 3.839636,2.030598 4.656642,5.23086 1.67721,5.430174 0.04238,12.70099 -3.675,16.521094 -1.996678,2.051848 -5.541908,4.059048 -8.971484,5.077734 -1.681218,0.49937 -2.612848,0.618122 -5.38672,0.689062 -3.396932,0.08688 -5.08233,-0.1072 -7.989844,-0.921484 -4.75206,-1.117322 -9.008094,-3.482068 -13.833202,-3.69961 0.503997,0.609398 1.040931,1.188636 1.594141,1.752736 0.09798,0.09992 0.19311,0.202336 0.292578,0.30078 0.541417,0.535758 1.106115,1.046488 1.689842,1.53672 0.123354,0.10362 0.246717,0.207476 0.371875,0.308984 0.589084,0.477606 1.196306,0.93529 1.823829,1.364452 0.12488,0.08542 0.253748,0.16538 0.380078,0.248828 0.650257,0.429354 1.314544,0.8391 2.001563,1.214062 0.08831,0.04822 0.179076,0.09216 0.267969,0.13946 0.665662,0.354 1.348685,0.681138 2.045311,0.981642 0.09784,0.04222 0.19414,0.08738 0.29258,0.12852 0.739738,0.309042 1.496052,0.582586 2.266796,0.828516 0.12738,0.04068 0.25465,0.08142 0.382812,0.12032 0.749452,0.227258 1.513664,0.42296 2.288672,0.58789 0.257772,0.05488 0.516172,0.1081 0.776562,0.15586 0.19114,0.03504 0.381712,0.07 0.57422,0.10118 0.269828,0.04372 0.542434,0.07884 0.814844,0.11484 0.235526,0.0311 0.47083,0.06498 0.708202,0.09022 0.341506,0.03636 0.685714,0.06344 1.03086,0.0875 0.14136,0.0098 0.281886,0.02504 0.423828,0.03282 C 30.951912,60.984596 31.473948,61 32,61 47.512,61 60,48.512 60,33 c 0,-0.614144 -0.02648,-1.22289 -0.06562,-1.826564 -0.009,-0.1397 -0.0192,-0.279234 -0.03008,-0.418358 -0.04124,-0.516124 -0.09508,-1.026498 -0.16406,-1.533984 -0.0112,-0.08366 -0.02088,-0.16816 -0.03282,-0.251562 -0.08934,-0.615326 -0.19662,-1.225288 -0.32539,-1.826564 -0.0013,-0.0062 -0.0013,-0.0128 -0.0028,-0.0192 -0.14418,-0.679916 -0.324516,-1.34662 -0.516798,-2.00703 -0.13172,-0.447334 -0.27895,-0.888536 -0.432032,-1.326172 -0.08094,-0.233604 -0.1674,-0.46382 -0.254296,-0.694532 -0.627512,-1.652098 -1.397492,-3.232681 -2.307812,-4.71953 -0.0042,-0.007 -0.0068,-0.01496 -0.011,-0.02188 -1.24878,-0.202926 -2.321486,-0.349999 -2.321486,-0.35 0,0 0.709088,-0.407677 1.520314,-0.916014 -0.02146,-0.03112 -0.04678,-0.05921 -0.06836,-0.09023 -0.863854,-1.241568 -1.827408,-2.40635 -2.87652,-3.489065 -0.05034,-0.05194 -0.0942,-0.109788 -0.14492,-0.161328 -4.063746,-0.279007 -8.34756,-0.238739 -13.458506,3.016076 2.680588,-4.769657 6.513942,-5.518043 10.784372,-5.386719 -0.254878,-0.2001 -0.517356,-0.391113 -0.779296,-0.582422 -2.055944,-0.6332682 -4.266118,-1.0963742 -6.365624,-1.1703126 -0.36532,-0.01286 -0.725982,-0.014 -1.082814,-0.00274 z M 25.06446,20.000336 25.1,23.169476 l -2.8,1.03086 c 1.180934,-1.117008 2.110236,-2.50842 2.764452,-4.2 z M 13,30 v 1.4 c -0.933334,-0.499472 -1.866667,-0.477864 -2.8,-0.232422 z"/>
 <path style="fill:#f04339" d="m 41.064452,8.221875 c -1.070488,0.033812 -2.09752,0.181124 -3.040624,0.4730468 -3.741074,1.1747772 -7.247126,3.8350902 -9.378906,6.6167422 l -1.15664,1.509375 c 0,0 -1.704136,-0.671786 -2.597658,-0.658984 -1.387376,0.02818 -2.199848,0.646389 -3.070702,1.577734 -0.60682,0.649057 -1.021456,1.398437 -1.282422,2.313281 -1.119115,3.923162 -2.841682,5.585674 -8.691203,7.24654 -2.3759267,0.6746 -3.8369703,2.0882 -4.5144531,4.36953 -0.4380516,1.47511 -0.4435138,3.861998 -0.01094,4.897266 0.4707262,1.126608 1.7414534,2.918604 1.96875,2.778126 0.104626,-0.06466 0.2623396,-0.613686 0.3527344,-1.219532 0.090396,-0.605848 0.3131514,-1.458626 0.4949217,-1.894922 l 0.33086,-0.792968 0.896874,0.877734 c 0.66662,0.650934 1.303813,0.987088 2.477344,1.3125 0.868458,0.240814 1.657303,0.4375 1.755468,0.4375 0.344211,0 0.173642,-0.475258 -0.514062,-1.42461 -0.686819,-0.948124 -0.884905,-1.580468 -0.492188,-1.580468 0.111678,0 0.60089,0.1639 1.085548,0.366406 0.649706,0.271464 1.21974,0.325778 2.168359,0.207812 0.707638,-0.088 1.370211,-0.209962 1.473827,-0.273436 0.10362,-0.06348 -0.239728,-0.48189 -0.762884,-0.929688 -0.523157,-0.447804 -0.884289,-0.882208 -0.803906,-0.9625 0.08037,-0.08028 0.804783,-0.14492 1.610546,-0.14492 1.710836,0 3.222786,-0.484638 3.940248,-2.13828 0.23458,-0.540674 0.521556,-0.984374 0.637108,-0.984374 0.11556,0 0.257914,0.504224 0.317188,1.121092 0.06138,0.638706 0.472026,1.859512 0.954296,2.835548 0.767028,1.552346 0.847472,1.88878 0.83672,3.562892 -0.0066,1.01661 -0.0915,3.365612 -0.18868,4.240646 -0.249062,2.242798 -1.369786,2.305488 -4.906856,2.119142 -1.734313,-0.09136 -3.896484,-0.56875 -3.896484,-0.56875 0,0 4.30463,4.292504 5.490624,5.003904 0.682014,0.409098 1.940494,0.927658 2.794532,1.151174 1.523138,0.398634 1.563424,0.39591 2.195702,-0.06288 0.824234,-0.598108 2.159286,-3.341032 4.492578,-9.233986 1.007424,-2.544346 1.928494,-5.6587 2.048048,-5.941428 0.12258,-0.289886 0.498186,-0.570564 0.861328,-0.645312 1.814644,-0.373522 4.319896,-0.784736 5.332272,-1.782814 2.220326,-1.926576 1.823548,-3.054344 1.684376,-4.68125 0,0 1.271142,-1.20891 3.650148,-0.355468 2.50158,0.878856 3.839636,2.030598 4.656642,5.23086 1.67721,5.430174 0.04238,12.70099 -3.675,16.521094 -1.996678,2.051848 -5.541908,4.059048 -8.971484,5.077734 -1.681218,0.49937 -2.612848,0.618122 -5.38672,0.689062 -3.396932,0.08688 -5.08233,-0.1072 -7.989844,-0.921484 -4.75206,-1.117322 -9.008094,-3.482068 -13.833202,-3.69961 0.503997,0.609398 1.040931,1.188636 1.594141,1.752736 0.09798,0.09992 0.19311,0.202336 0.292578,0.30078 0.541417,0.535758 1.106115,1.046488 1.689842,1.53672 0.123354,0.10362 0.246717,0.207476 0.371875,0.308984 0.589084,0.477606 1.196306,0.93529 1.823829,1.364452 0.12488,0.08542 0.253748,0.16538 0.380078,0.248828 0.650257,0.429354 1.314544,0.8391 2.001563,1.214062 0.08831,0.04822 0.179076,0.09216 0.267969,0.13946 0.665662,0.354 1.348685,0.681138 2.045311,0.981642 0.09784,0.04222 0.19414,0.08738 0.29258,0.12852 0.739738,0.309042 1.496052,0.582586 2.266796,0.828516 0.12738,0.04068 0.25465,0.08142 0.382812,0.12032 0.749452,0.227258 1.513664,0.42296 2.288672,0.58789 0.257772,0.05488 0.516172,0.1081 0.776562,0.15586 0.19114,0.03504 0.381712,0.07 0.57422,0.10118 0.269828,0.04372 0.542434,0.07884 0.814844,0.11484 0.235526,0.0311 0.47083,0.06498 0.708202,0.09022 0.341506,0.03636 0.685714,0.06344 1.03086,0.0875 0.14136,0.0098 0.281886,0.02504 0.423828,0.03282 C 30.951912,59.984596 31.473948,60 32,60 47.512,60 60,47.512 60,32 c 0,-0.614144 -0.02648,-1.22289 -0.06562,-1.826564 -0.009,-0.1397 -0.0192,-0.279234 -0.03008,-0.418358 -0.04124,-0.516124 -0.09508,-1.026498 -0.16406,-1.533984 -0.0112,-0.08366 -0.02088,-0.16816 -0.03282,-0.251562 -0.08934,-0.615326 -0.19662,-1.225288 -0.32539,-1.826564 -0.0013,-0.0062 -0.0013,-0.0128 -0.0028,-0.0192 -0.14418,-0.679916 -0.324516,-1.34662 -0.516798,-2.00703 -0.13172,-0.447334 -0.27895,-0.888536 -0.432032,-1.326172 -0.08094,-0.233604 -0.1674,-0.46382 -0.254296,-0.694532 -0.627512,-1.652098 -1.397492,-3.232681 -2.307812,-4.71953 -0.0042,-0.007 -0.0068,-0.01496 -0.011,-0.02188 -1.24878,-0.202926 -2.321486,-0.349999 -2.321486,-0.35 0,0 0.709088,-0.407677 1.520314,-0.916014 C 55.03466,16.05749 55.00934,16.0294 54.98776,15.99838 54.123906,14.756812 53.160352,13.59203 52.11124,12.509315 52.0609,12.457375 52.01704,12.399527 51.96632,12.347987 47.902574,12.06898 43.61876,12.109248 38.507814,15.364063 41.188402,10.594406 45.021756,9.8460198 49.292186,9.9773436 49.037308,9.7772442 48.77483,9.5862312 48.51289,9.3949218 46.456946,8.7616538 44.246772,8.2985478 42.147266,8.2246094 c -0.36532,-0.01286 -0.725982,-0.014 -1.082814,-0.00274 z M 25.06446,19.000336 25.1,22.169476 l -2.8,1.03086 c 1.180934,-1.117008 2.110236,-2.50842 2.764452,-4.2 z M 13,29 v 1.4 c -0.933334,-0.499472 -1.866667,-0.477864 -2.8,-0.232422 z"/>
 <path style="fill:#ff9e18" d="m 47.826564,28.070702 c 1.146958,0.83677 1.905498,2.044148 2.436326,4.123438 1.677212,5.430176 0.04238,12.700992 -3.675,16.521094 -1.996678,2.05185 -5.541906,4.05905 -8.971484,5.077734 -1.681216,0.49937 -2.612848,0.618122 -5.38672,0.689064 -3.396932,0.08688 -5.082328,-0.1072 -7.989842,-0.921484 -4.752061,-1.117324 -9.008095,-3.482068 -13.833203,-3.699612 0,0 5.478015,3.455282 9.398046,4.708596 11.285045,3.964688 21.054909,3.8642 27.477735,-1.987892 8.983636,-8.941072 5.775456,-22.949102 0.544142,-24.510938 z"/>
 <path style="opacity:0.73999999;fill:#fe7e40" d="m 41.064452,8.221875 c -1.070488,0.033812 -2.09752,0.181124 -3.040624,0.4730468 -3.741074,1.1747772 -7.247126,3.8350902 -9.378906,6.6167422 l -1.15664,1.509375 C 34.204036,11.565768 40.852142,8.3619126 49.292186,9.9773436 49.037308,9.7772442 48.77483,9.5862312 48.51289,9.3949218 46.456946,8.7616538 44.246772,8.2985478 42.147266,8.2246094 c -0.36532,-0.01286 -0.725982,-0.014 -1.082814,-0.00274 z m 7.803908,4.022266 c -3.158828,0.04616 -6.527338,0.678809 -10.360546,3.119922 4.368728,-1.357639 9.868534,-1.75771 14.883202,-1.421876 -0.413918,-0.48944 -0.833774,-0.972615 -1.279688,-1.432812 -0.05034,-0.05194 -0.0942,-0.109788 -0.14492,-0.161328 -1.015958,-0.06977 -2.045104,-0.119294 -3.098046,-0.103906 z m -7.576714,10.582031 c -0.09548,4.759632 -2.129752,8.525724 -6.724068,11.035938 -2.863108,2.571962 -7.129304,13.224826 -8.588672,13.165648 -1.698692,-0.06888 -8.922265,-3.516406 -8.922265,-3.516406 0,0 4.304631,4.292502 5.490625,5.003906 0.682012,0.409098 1.940494,0.927656 2.794532,1.151172 1.523136,0.398636 1.563422,0.39591 2.195702,-0.06288 0.824234,-0.598106 2.159286,-3.341028 4.492578,-9.233982 1.007422,-2.544346 1.928492,-5.658704 2.048046,-5.94143 0.12258,-0.289888 0.498188,-0.570564 0.861328,-0.645312 0.843086,-0.17354 2.142584,-0.359412 2.972508,-0.604298 -0.004,-0.0022 -0.004,-0.006 -0.0082,-0.0082 0.478366,-0.14056 0.93532,-0.298934 1.339844,-0.489454 0.19032,-0.08964 0.366116,-0.18746 0.530468,-0.292578 0.0104,-0.0068 0.02262,-0.0124 0.03282,-0.0192 0.0017,-0.0011 0.0038,-0.0015 0.0054,-0.0028 0.17064,-0.1119 0.324994,-0.23392 0.459374,-0.366406 2.220326,-1.926576 1.823552,-3.054344 1.684376,-4.68125 0,0 0.008,-0.0054 0.0082,-0.0054 z"/>
 <path style="opacity:0.1;fill:#8b9cbe" d="M 32 4 A 28 28 0 0 0 4 32 A 28 28 0 0 0 4.0175781 32.492188 A 28 28 0 0 1 32 5 A 28 28 0 0 1 59.974609 32.492188 A 28 28 0 0 0 60 32 A 28 28 0 0 0 32 4 z"/>
</svg>
