<svg xmlns="http://www.w3.org/2000/svg" width="64" height="64" version="1.1">
 <path style="opacity:0.2;fill-rule:evenodd" d="M 32,5 A 26,28 0 0 0 10.371094,17.492188 6,6 0 0 0 8,17 6,6 0 0 0 2,23 6,6 0 0 0 6.3320312,28.757812 26,28 0 0 0 6,33 26,28 0 0 0 32,61 26,28 0 0 0 34.355468,60.86328 l -0.03906,0.03126 C 46.7026,60.242096 56.289806,58.148298 60,57 54.829852,55.330238 54.13727,49.443824 55.402344,45.117188 A 26,28 0 0 0 58,33 26,28 0 0 0 57.679688,28.757812 6,6 0 0 0 62,23 6,6 0 0 0 56,17 6,6 0 0 0 53.628906,17.496094 26,28 0 0 0 32,5 Z"/>
 <ellipse style="fill:#b2bfd9" cx="32" cy="32" rx="26" ry="28"/>
 <circle style="fill:#b2bfd9" cx="56" cy="22" r="6"/>
 <circle style="fill:#b2bfd9" cx="8" cy="22" r="6"/>
 <path style="fill:#b2bfd9" d="M 34.318258,59.892724 C 46.704452,59.240288 56.289806,57.148298 60,56 53.836526,54.00943 54,46 56.308,41.820896 Z"/>
 <ellipse style="opacity:0.1" cx="25.938" cy="20.712" rx="5.934" ry="8.048" transform="matrix(0.98420841,0.1770136,-0.1703428,0.98538486,0,0)"/>
 <ellipse style="fill:#17191e" cx="25.768" cy="19.728" rx="5.934" ry="8.048" transform="matrix(0.98420841,0.1770136,-0.1703428,0.98538486,0,0)"/>
 <ellipse style="opacity:0.1" cx="37.105" cy="32.014" rx="5.932" ry="8.05" transform="matrix(0.98433594,-0.17630301,0.17103083,0.98526568,0,0)"/>
 <ellipse style="fill:#17191e" cx="37.276" cy="31.03" rx="5.932" ry="8.05" transform="matrix(0.98433594,-0.17630301,0.17103083,0.98526568,0,0)"/>
 <path style="opacity:0.2;fill:#8b9cbe;fill-rule:evenodd" d="M 32 4 A 26 28 0 0 0 10.371094 16.492188 A 6 6 0 0 0 8 16 A 6 6 0 0 0 2 22 A 6 6 0 0 0 2.0273438 22.484375 A 6 6 0 0 1 8 17 A 6 6 0 0 1 10.371094 17.492188 A 26 28 0 0 1 32 5 A 26 28 0 0 1 53.628906 17.496094 A 6 6 0 0 1 56 17 A 6 6 0 0 1 61.974609 22.488281 A 6 6 0 0 0 62 22 A 6 6 0 0 0 56 16 A 6 6 0 0 0 53.628906 16.496094 A 26 28 0 0 0 32 4 z M 57.878906 29.6875 A 6 6 0 0 1 57.679688 29.757812 A 26 28 0 0 1 57.769531 30.726562 A 6 6 0 0 0 57.878906 30.6875 A 26 28 0 0 1 57.982422 32.664062 A 26 28 0 0 0 58 32 A 26 28 0 0 0 57.878906 29.6875 z M 6.1328125 29.691406 A 26 28 0 0 0 6 32 A 26 28 0 0 0 6.0253906 32.546875 A 26 28 0 0 1 6.1328125 30.691406 A 6 6 0 0 0 6.2304688 30.724609 A 26 28 0 0 1 6.3320312 29.757812 A 6 6 0 0 1 6.1328125 29.691406 z M 54.917969 48.921875 C 54.879798 49.424406 54.878802 49.929754 54.898438 50.433594 C 54.904985 50.262886 54.905053 50.091911 54.917969 49.921875 C 55.133376 52.532411 56.20549 55.006429 58.578125 56.369141 C 59.086491 56.241633 59.656274 56.106382 60 56 C 56.61666 54.90731 55.172557 52.007249 54.917969 48.921875 z"/>
</svg>
