<svg xmlns="http://www.w3.org/2000/svg" width="64" height="64" version="1.1">
 <circle style="opacity:0.2" cx="32" cy="33" r="28"/>
 <circle style="fill:#143d4d" cx="32" cy="32" r="28"/>
 <path style="opacity:0.1;fill:#8b9cbe" d="M 32 4 A 28 28 0 0 0 4 32 A 28 28 0 0 0 4.0175781 32.492188 A 28 28 0 0 1 32 5 A 28 28 0 0 1 59.974609 32.492188 A 28 28 0 0 0 60 32 A 28 28 0 0 0 32 4 z"/>
 <path style="fill:none;stroke:#c97335;stroke-width:1.6" d="m 33.399523,32 -7.40876,8.052554 -0.557398,3.994692 L 21.999523,48"/>
 <path style="fill:none;stroke:#d59467;stroke-width:1.6" d="M 30.599523,28.800002 21.903173,35.1 H 17.536882 L 13.999523,38"/>
 <path style="fill:none;stroke:#b95026;stroke-width:1.6" d="m 31.999523,30.6 -18,15.4"/>
 <circle style="fill:#b95026" cx="14" cy="46" r="2"/>
 <circle style="fill:#d59467" cx="14" cy="38" r="2"/>
 <circle style="fill:#c97335" cx="22" cy="48" r="2"/>
 <path style="opacity:0.2" d="m 57.534899,7.0000986 a 2.4868528,2.4446552 0 0 0 -0.932476,0.169484 L 15.573458,23.058254 a 2.4868528,2.4446552 0 0 0 0.650791,4.705012 c 4.285224,0.444492 9.498168,3.684406 13.469914,7.951498 3.971742,4.267092 6.602094,9.550362 6.682746,12.897608 a 2.4868528,2.4446552 0 0 0 4.737662,0.981106 L 59.764099,10.482906 a 2.4868528,2.4446552 0 0 0 -2.2292,-3.4828074 z"/>
 <path style="fill:#37adba" d="m 57.534899,6.0000982 a 2.4868528,2.4446552 0 0 0 -0.932476,0.169484 L 15.573458,22.058254 a 2.4868528,2.4446552 0 0 0 0.650791,4.705012 c 4.285224,0.444492 9.498168,3.684406 13.469914,7.951498 3.971742,4.267092 6.602094,9.550362 6.682746,12.897608 a 2.4868528,2.4446552 0 0 0 4.737662,0.981106 L 59.764099,9.482906 a 2.4868528,2.4446552 0 0 0 -2.2292,-3.4828078 z"/>
 <path style="opacity:0.2;fill:#8b9cbe" d="M 57.535156 6 A 2.4868528 2.4446552 0 0 0 56.601562 6.1679688 L 15.574219 22.058594 A 2.4868528 2.4446552 0 0 0 14.052734 24.832031 A 2.4868528 2.4446552 0 0 1 15.574219 23.058594 L 56.601562 7.1679688 A 2.4868528 2.4446552 0 0 1 57.535156 7 A 2.4868528 2.4446552 0 0 1 59.945312 8.9492188 A 2.4868528 2.4446552 0 0 0 57.535156 6 z"/>
</svg>
