<svg xmlns="http://www.w3.org/2000/svg" width="64" height="64" version="1">
 <path style="opacity:0.2" d="m 31.999129,3.000059 c -1.571499,0 -3.144048,0.5857443 -4.318781,1.7604495 L 3.7604235,28.683099 c -2.3494678,2.349408 -2.3461349,6.281166 0.00343,8.630576 L 27.683777,61.236266 c 2.349468,2.349411 6.28473,2.352743 8.634198,0.0034 l 23.919924,-23.92259 c 2.349467,-2.34941 2.349468,-6.284534 0,-8.633943 L 36.317912,4.7605085 C 35.143179,3.5858035 33.570629,3.000059 31.999129,3.000059 Z"/>
 <path style="fill:#e3b56f" d="m 31.999129,2.0000277 c -1.571499,0 -3.144048,0.5857443 -4.318781,1.7604495 L 3.7604235,27.683068 c -2.3494678,2.349408 -2.3461349,6.281166 0.00343,8.630576 L 27.683777,60.236235 c 2.349468,2.349411 6.28473,2.352743 8.634198,0.0034 l 23.919924,-23.92259 c 2.349467,-2.34941 2.349468,-6.284534 0,-8.633943 L 36.317912,3.7604772 C 35.143179,2.5857722 33.570629,2.0000277 31.999129,2.0000277 Z"/>
 <path style="opacity:0.5;fill:#8b9cbe" d="M 23.494141 7.9472656 L 19.242188 12.197266 L 28 19.861328 L 28 41 L 34 41 L 34 25.111328 L 41.025391 31.257812 L 44.974609 26.742188 L 23.494141 7.9472656 z"/>
 <path style="opacity:0.2" d="m 31,14 a 6.0000004,6.0000004 0 0 0 -6,6 6.0000004,6.0000004 0 0 0 6,6 6.0000004,6.0000004 0 0 0 6,-6 6.0000004,6.0000004 0 0 0 -6,-6 z m 12,10 a 5.9999999,5.9999999 0 0 0 -6,6 5.9999999,5.9999999 0 0 0 6,6 5.9999999,5.9999999 0 0 0 6,-6 5.9999999,5.9999999 0 0 0 -6,-6 z M 31,35 a 6.0000004,6.0000004 0 0 0 -6,6 6.0000004,6.0000004 0 0 0 6,6 6.0000004,6.0000004 0 0 0 6,-6 6.0000004,6.0000004 0 0 0 -6,-6 z"/>
 <path style="fill:#8b9cbe" d="M 31 13 A 6.0000004 6.0000004 0 0 0 25 19 A 6.0000004 6.0000004 0 0 0 31 25 A 6.0000004 6.0000004 0 0 0 37 19 A 6.0000004 6.0000004 0 0 0 31 13 z M 43 23 A 5.9999999 5.9999999 0 0 0 37 29 A 5.9999999 5.9999999 0 0 0 43 35 A 5.9999999 5.9999999 0 0 0 49 29 A 5.9999999 5.9999999 0 0 0 43 23 z M 31 34 A 6.0000004 6.0000004 0 0 0 25 40 A 6.0000004 6.0000004 0 0 0 31 46 A 6.0000004 6.0000004 0 0 0 37 40 A 6.0000004 6.0000004 0 0 0 31 34 z"/>
 <path style="fill:#8b9cbe;opacity:0.2" d="M 32 2 C 30.428501 2 28.85442 2.5850604 27.679688 3.7597656 L 3.7597656 27.683594 C 2.460141 28.983185 1.8843413 30.765757 2.0234375 32.498047 C 2.1343057 31.098695 2.7099225 29.73341 3.7597656 28.683594 L 27.679688 4.7597656 C 28.85442 3.5850604 30.428501 3 32 3 C 33.5715 3 35.143626 3.5850606 36.318359 4.7597656 L 60.238281 28.683594 C 61.288124 29.733411 61.86495 31.099905 61.976562 32.5 C 62.114731 30.76679 61.537906 28.983186 60.238281 27.683594 L 36.318359 3.7597656 C 35.143626 2.5850606 33.5715 2 32 2 z"/>
</svg>
