<svg xmlns="http://www.w3.org/2000/svg" width="64" height="64" version="1">
 <path style="opacity:0.2" d="m 4.050798,32.000828 c -0.0118,0.33399 -0.050799,0.661981 -0.050799,0.999971 C 3.9999994,48.512357 16.487643,61 31.9992,61 47.510757,61 59.998401,48.512357 59.998401,33.000799 c 0,-0.33799 -0.04,-0.665981 -0.05,-0.999971 C 59.420417,47.042399 47.172767,59.000057 31.9992,59.000057 16.825233,59.000057 4.5779829,47.042399 4.049998,32.000828 Z"/>
 <path style="fill:#4f4f4f" d="m 59.998401,32.000856 c 0,-15.511557 -12.487644,-27.9992001 -27.999201,-27.9992001 -15.511557,0 -27.9992006,12.4876431 -27.9992006,27.9992001 0,15.511558 12.4876436,27.999201 27.9992006,27.999201 15.511557,0 27.999201,-12.487643 27.999201,-27.999201 z"/>
 <path style="opacity:0.1;fill:#8b9cbe" d="M 32 4.0019531 C 16.488443 4.0019531 4 16.488443 4 32 C 4 32.113553 4.0112846 32.224036 4.0175781 32.335938 C 4.3691113 17.134615 16.711164 5 32 5 C 47.288836 5 59.630889 17.134615 59.982422 32.335938 C 59.988693 32.224116 60 32.113445 60 32 C 60 16.488443 47.511557 4.0019531 32 4.0019531 z"/>
 <path style="opacity:0.2" d="M 46.820312 19.005859 C 45.968176 18.966059 43.567145 19.250663 39.814453 21.861328 C 37.715081 21.228289 35.318607 20.993959 32.820312 21 C 30.534865 21.0055 28.164894 21.192771 25.861328 21.861328 C 22.107435 19.250803 20.188912 18.967615 19.335938 19.007812 C 19.051547 19.021213 18.914063 19.064453 18.914062 19.064453 C 17.486964 22.766548 18.389863 25.505367 18.660156 26.185547 C 16.983684 28.064714 16 30.464475 16 33.400391 C 16 43.707697 22.678613 46.016532 28.498047 46.695312 C 27.749908 47.367393 27.27913 48.75699 27.041016 50.494141 C 25.547959 51.182721 21.542812 52.867955 19.205078 48.757812 C 19.205078 48.757812 17.822031 46.174169 15.191406 45.984375 C 15.191406 45.984375 12.63403 45.951345 15.013672 47.619141 C 15.013672 47.619141 16.731562 48.446894 17.923828 51.554688 C 17.923828 51.554688 19.694403 56.285109 26.984375 54.660156 C 26.990436 55.70796 26.994866 57.667479 27 59.550781 C 28.622178 59.841012 30.291843 60 32 60 C 34.782581 60 37.464715 59.592822 39.998047 58.84375 C 40.004651 56.32152 40.011719 53.530787 40.011719 51.65625 C 40.011719 49.147921 38.974749 47.506357 38.035156 46.675781 C 43.872184 46.01032 50 43.734096 50 33.400391 C 50 30.464475 49.183518 28.06274 47.503906 26.183594 C 47.772598 25.503254 48.674441 22.766548 47.244141 19.064453 C 47.244141 19.064453 47.106317 19.019119 46.822266 19.005859 L 46.820312 19.005859 z"/>
 <path style="fill:#8b9cbe" d="M 46.820312 18.005859 C 45.968176 17.966059 43.567145 18.250663 39.814453 20.861328 C 37.715081 20.228289 35.318606 19.993959 32.820312 20 C 30.534864 20.0055 28.164894 20.192771 25.861328 20.861328 C 22.107435 18.250803 20.188913 17.967614 19.335938 18.007812 C 19.051547 18.021213 18.914062 18.064453 18.914062 18.064453 C 17.486964 21.766548 18.389863 24.505367 18.660156 25.185547 C 16.983684 27.064713 16 29.464475 16 32.400391 C 16 42.707697 22.678613 45.016532 28.498047 45.695312 C 27.749908 46.367393 27.27913 47.75699 27.041016 49.494141 C 25.547959 50.182721 21.542812 51.867955 19.205078 47.757812 C 19.205078 47.757812 17.822031 45.174169 15.191406 44.984375 C 15.191406 44.984375 12.63403 44.951349 15.013672 46.619141 C 15.013672 46.619141 16.731562 47.446895 17.923828 50.554688 C 17.923828 50.554688 19.694403 55.285109 26.984375 53.660156 C 26.991647 54.922208 26.997702 57.274724 27.003906 59.550781 C 28.6249 59.840571 30.293171 60 32 60 C 34.781923 60 37.46329 59.59248 39.996094 58.84375 C 40.003619 56.068734 40.011719 52.791592 40.011719 50.65625 C 40.011719 48.147921 38.974749 46.506357 38.035156 45.675781 C 43.872189 45.01032 50 42.734096 50 32.400391 C 50 29.464475 49.183518 27.06274 47.503906 25.183594 C 47.772598 24.503254 48.674441 21.766548 47.244141 18.064453 C 47.244141 18.064453 47.106317 18.019119 46.822266 18.005859 L 46.820312 18.005859 z"/>
</svg>
