<svg xmlns="http://www.w3.org/2000/svg" width="64" height="64" version="1">
 <path style="opacity:0.2" d="m 4.0506032,31.997928 c -0.011601,0.334024 -0.050604,0.662047 -0.050604,1.000071 C 3.9999992,48.511108 16.486292,61 31.998,61 47.509108,61 59.996,48.511108 59.996,32.997999 c 0,-0.338024 -0.038,-0.666047 -0.05,-1.000071 -0.528041,15.043075 -12.774916,27.001929 -27.948,27.001929 -15.174084,0 -27.4199592,-11.958854 -27.9479969,-27.001929 z"/>
 <rect style="fill:#4f4f4f" width="56.004" height="56" x="-60" y="-60" rx="28.002" ry="28" transform="matrix(0,-1,-1,0,0,0)"/>
 <path style="opacity:0.2" d="m 25.701172,24.130853 c -2.441774,3.20703 -3.703125,5.797529 -3.703125,7.597657 0,1.193385 0.105718,1.383983 1.138672,2.070312 1.765672,1.600994 1.448391,3.091286 1.863281,5.201172 -0.568552,0 -1,1 -1,2 0,1 0.457596,2 1,2 l -0.002,2.044922 c -4.4855,-2.587785 -7,-7.42079 -7,-12.992188 0,-5.965026 3.454698,-10.630555 8.472656,-13.051728 l -5.373047,0 0,-0.002 C 17.360542,22.293035 14.998,26.654343 14.998,32.050728 c 0,7.289721 3.797757,13.52688 10,16.363281 l 0.289062,0.140626 c 0.867142,0.377746 1.778932,0.667966 2.710938,0.908203 l 0,3.05664 C 18.380835,50.409513 12.019608,41.899554 11.996094,32.052728 c 0.0031,-2.032424 0.301073,-4.105943 0.884765,-6.052734 l -3.101562,0 C 9.2664879,27.959127 9.0027006,30.027592 8.9960939,32.052728 9.0008837,44.72358 18.35302,55.208067 30.998047,55.999994 l 0,-10.003906 c 5.01e-4,7.8e-5 0.0015,-7.9e-5 0.002,0 L 31,45.999994 c 0.250988,-0.0057 0.622957,0.01286 0.996094,0.02344 0.0029,-8.1e-5 0.0049,8.2e-5 0.0078,0 0.373149,-0.01057 0.745118,-0.02913 0.996106,-0.02344 l 0,-0.0039 c 5.02e-4,-7.9e-5 0.0015,7.8e-5 0.002,0 L 33.002,56 c 12.64498,-0.791933 21.997116,-11.27642 22.001906,-23.947272 -0.0066,-2.025136 -0.270394,-4.093601 -0.783203,-6.052734 l -3.101562,0 c 0.583692,1.946791 0.881665,4.02031 0.884765,6.052734 -0.02351,9.846826 -6.384788,18.356832 -16.001953,20.466797 l 0,-3.05664 c 0.932006,-0.240237 1.843796,-0.530457 2.710938,-0.908203 l 0.289062,-0.140626 c 6.202243,-2.836401 10,-9.07356 10,-16.363281 0,-5.396385 -2.362542,-9.75774 -6.099609,-13.051775 l 0,0.002 -5.373047,0 c 5.017958,2.421173 8.472656,7.086749 8.472656,13.051775 0,5.571398 -2.5145,10.404403 -7,12.992188 L 39,42.999994 c 0.542404,0 1,-1 1,-2 0,-1 -0.431448,-2 -1,-2 0.41489,-2.109886 0.09761,-3.600178 1.863281,-5.201172 1.032954,-0.686329 1.138672,-0.876927 1.138672,-2.070312 0,-1.800128 -1.261351,-4.390627 -3.703125,-7.597657 C 36.712368,22.047939 35,19 32,19 c -3,0 -4.950511,3.425951 -6.298828,5.130853 z M 27.5,39.999994 c 0.828432,0 1.499923,0.671491 1.5,1.5 -7.7e-5,0.82851 -0.671568,1.5 -1.5,1.5 -0.828432,0 -1.499923,-0.671491 -1.5,-1.5 7.7e-5,-0.828509 0.671568,-1.5 1.5,-1.5 z m 9,0 c 0.828432,0 1.499923,0.671491 1.5,1.5 -7.7e-5,0.828509 -0.671568,1.5 -1.5,1.5 -0.828432,0 -1.499923,-0.67149 -1.5,-1.5 7.7e-5,-0.828509 0.671568,-1.5 1.5,-1.5 z"/>
 <path style="fill:#3fb2ab" d="m 25.701172,23.130853 c -2.441774,3.20703 -3.703125,5.797529 -3.703125,7.597657 0,1.193385 0.105718,1.383983 1.138672,2.070312 1.765672,1.600994 1.448391,3.091286 1.863281,5.201172 -0.568552,0 -1,1 -1,2 0,1 0.457596,2 1,2 l -0.002,2.044922 c -4.4855,-2.587785 -7,-7.42079 -7,-12.992188 0,-5.965026 3.454698,-10.630555 8.472656,-13.051728 l -5.373047,0 0,-0.002 C 17.360542,21.293035 14.998,25.654343 14.998,31.050728 c 0,7.289721 3.797757,13.52688 10,16.363281 l 0.289062,0.140626 c 0.867142,0.377746 1.778932,0.667966 2.710938,0.908203 l 0,3.05664 C 18.380835,49.409513 12.019608,40.899554 11.996094,31.052728 c 0.0031,-2.032424 0.301073,-4.105943 0.884765,-6.052734 l -3.101562,0 C 9.2664879,26.959127 9.0027006,29.027592 8.9960939,31.052728 9.0008837,43.72358 18.35302,54.208067 30.998047,54.999994 l 0,-10.003906 c 5.01e-4,7.8e-5 0.0015,-7.9e-5 0.002,0 L 31,44.999994 c 0.250988,-0.0057 0.622957,0.01286 0.996094,0.02344 0.0029,-8.1e-5 0.0049,8.2e-5 0.0078,0 0.373149,-0.01057 0.745118,-0.02913 0.996106,-0.02344 l 0,-0.0039 c 5.02e-4,-7.9e-5 0.0015,7.8e-5 0.002,0 L 33.002,55 c 12.64498,-0.791933 21.997116,-11.27642 22.001906,-23.947272 -0.0066,-2.025136 -0.270394,-4.093601 -0.783203,-6.052734 l -3.101562,0 c 0.583692,1.946791 0.881665,4.02031 0.884765,6.052734 -0.02351,9.846826 -6.384788,18.356832 -16.001953,20.466797 l 0,-3.05664 c 0.932006,-0.240237 1.843796,-0.530457 2.710938,-0.908203 l 0.289062,-0.140626 c 6.202243,-2.836401 10,-9.07356 10,-16.363281 0,-5.396385 -2.362542,-9.75774 -6.099609,-13.051775 l 0,0.002 -5.373047,0 c 5.017958,2.421173 8.472656,7.086749 8.472656,13.051775 0,5.571398 -2.5145,10.404403 -7,12.992188 L 39,41.999994 c 0.542404,0 1,-1 1,-2 0,-1 -0.431448,-2 -1,-2 0.41489,-2.109886 0.09761,-3.600178 1.863281,-5.201172 1.032954,-0.686329 1.138672,-0.876927 1.138672,-2.070312 0,-1.800128 -1.261351,-4.390627 -3.703125,-7.597657 C 36.712368,21.047939 35,18 32,18 c -3,0 -4.950511,3.425951 -6.298828,5.130853 z M 27.5,38.999994 c 0.828432,0 1.499923,0.671491 1.5,1.5 -7.7e-5,0.82851 -0.671568,1.5 -1.5,1.5 -0.828432,0 -1.499923,-0.671491 -1.5,-1.5 7.7e-5,-0.828509 0.671568,-1.5 1.5,-1.5 z m 9,0 c 0.828432,0 1.499923,0.671491 1.5,1.5 -7.7e-5,0.828509 -0.671568,1.5 -1.5,1.5 -0.828432,0 -1.499923,-0.67149 -1.5,-1.5 7.7e-5,-0.828509 0.671568,-1.5 1.5,-1.5 z"/>
 <path style="opacity:0.1;fill:#8b9cbe" d="M 31.998047 3.9960938 C 16.486339 3.9960938 4 16.484938 4 31.998047 C 4 32.111611 4.0112916 32.222071 4.0175781 32.333984 C 4.3700859 17.132055 16.709717 4.9980469 31.998047 4.9980469 C 47.28514 4.9980469 59.626946 17.131003 59.980469 32.332031 C 59.986561 32.220782 59.996094 32.11093 59.996094 31.998047 C 59.996094 16.484938 47.509155 3.9960938 31.998047 3.9960938 z"/>
</svg>
