<svg xmlns="http://www.w3.org/2000/svg" width="64" height="64" version="1.1">
 <path style="opacity:0.2" d="m 11,56 0,2 c 0,1.662 1.338,3 3,3 l 38,0 c 1.662,0 3,-1.338 3,-3 l 0,-2 c 0,1.662 -1.338,3 -3,3 l -38,0 c -1.662,0 -3,-1.338 -3,-3 z"/>
 <path style="fill:#b2bfd9" d="M 55,57 55,7 C 55,5.338 53.662,4 52,4 L 14,4 c -1.662,0 -3,1.338 -3,3 l 0,50 c 0,1.662 1.338,3 3,3 l 38,0 c 1.662,0 3,-1.338 3,-3 z"/>
 <path style="opacity:0.1;fill:#8b9cbe" d="m 14,4 c -1.662,0 -3,1.338 -3,3 l 0,1 c 0,-1.662 1.338,-3 3,-3 l 38,0 c 1.662,0 3,1.338 3,3 L 55,7 C 55,5.338 53.662,4 52,4 L 14,4 Z"/>
 <path style="opacity:0.2" d="m 5,9 0,44 c 0,4 4,4 4,4 L 61,57 5,9 Z M 15,30.742 33.964,47 15,47 15,30.742 Z"/>
 <path style="fill:#689f38" d="m 5,8 0,44 c 0,4 4,4 4,4 L 61,56 5,8 Z M 15,29.742 33.964,46 15,46 15,29.742 Z"/>
</svg>
