<svg xmlns="http://www.w3.org/2000/svg" width="64" height="64" version="1">
 <path style="opacity:0.2" d="m 4.050798,32.000828 c -0.0118,0.33399 -0.050799,0.661981 -0.050799,0.999971 C 3.9999994,48.512357 16.487643,61 31.9992,61 47.510757,61 59.998401,48.512357 59.998401,33.000799 c 0,-0.33767 -0.03904,-0.665261 -0.05078,-0.999971 -0.527985,15.041571 -12.775635,26.999229 -27.949202,26.999229 -15.173967,0 -27.4212171,-11.957658 -27.949202,-26.999229 z"/>
 <rect style="fill:#6966b2" width="56" height="56" x="4" y="4" rx="27.999" ry="27.999"/>
 <path style="opacity:0.1;fill:#8b9cbe" d="M 32 4.0019531 C 16.488443 4.0019531 4 16.488443 4 32 C 4 32.113553 4.0112846 32.224036 4.0175781 32.335938 C 4.3691113 17.134615 16.711164 5 32 5 C 47.288836 5 59.630889 17.134615 59.982422 32.335938 C 59.988693 32.224116 60 32.113445 60 32 C 60 16.488443 47.511557 4.0019531 32 4.0019531 z"/>
 <path style="opacity:0.2" d="m 21.073512,48.998783 c 0,0 2.145939,1.009491 5.002457,1.365701 1.156807,0.144256 5.558241,0.648461 8.932945,0.635262 0,0 4.110083,0.0038 6.378818,-0.317631 2.373932,-0.337211 3.718694,-0.767578 4.467272,-1.626414 0.0196,-0.204774 0.36127,-0.872275 -0.561504,-1.515977 -2.359132,-1.645713 -5.408845,-2.09614 -11.332676,-3.5031 C 27.410211,42.389691 25.352172,40.812516 24.374,39.671349 23.446786,38.527462 24.64855,36.15185 29.926939,34.986483 32.599463,34.336121 42,33.998783 42,33.998783 39.144281,31.731647 34.336213,27.890405 33.240445,27.02723 c -0.961093,-0.757078 -2.509929,-1.918885 -2.676324,-2.957116 -0.224574,-1.010651 1.366241,-1.497277 2.208537,-1.553415 2.713722,-0.187155 6.419617,0.530667 9.713523,1.185708 1.655752,0.329271 1.946444,0.280752 1.946444,0.280752 C 46.790758,24.095456 49.093597,22.46056 49,19.859015 48.9812,17.22009 45.874184,15.10395 42.954067,15.011553 40,14.998783 33,14.998783 33,14.998783 c 7.898175,1.628293 9.617077,2.449541 10.029065,3.400313 0.243993,0.561784 -0.405988,1.119968 -2.581926,1.010971 -2.369933,-0.118796 -7.225794,-0.69258 -7.225794,-0.69258 -4.621868,-0.711179 -7.441767,-1.38496 -8.845727,0.449187 -0.917054,1.198266 0.131036,2.657725 0.542765,3.5185 1.834147,3.200509 4.605848,5.396246 6.61839,6.943602 0.757279,0.582243 3.069313,1.00fae96 3.069313,1.00fae96 -7.186795,-1.965164 -13.313645,-0.860935 -16.944541,1.04809 -4.173681,2.47053 -3.459701,6.639411 3.16291,10.5371 3.911688,2.302134 6.259045,3.407902 12.663463,4.19428 3.743493,0.596903 4.501481,0.841136 4.473082,1.152727 -0.04014,0.438707 -4.631078,0.604943 -5.837844,0.68818 -3.070312,0.211734 -11.010885,-0.121956 -11.050484,-0.121956 z"/>
 <path style="fill:#8b9cbe" d="m 21.073512,48 c 0,0 2.145939,1.009491 5.002457,1.365701 1.156807,0.144256 5.558241,0.648461 8.932945,0.635262 0,0 4.110083,0.0038 6.378818,-0.317631 2.373932,-0.337211 3.718694,-0.767578 4.467272,-1.626414 0.0196,-0.204774 0.36127,-0.872275 -0.561504,-1.515977 -2.359132,-1.645713 -5.408845,-2.09614 -11.332676,-3.5031 C 27.410211,41.390908 25.352172,39.813733 24.374,38.672566 23.446786,37.528679 24.64855,35.153067 29.926939,33.9877 32.599463,33.337338 42,33 42,33 c -2.855719,-2.267136 -7.663787,-6.108378 -8.759555,-6.971553 -0.961093,-0.757078 -2.509929,-1.918885 -2.676324,-2.957116 -0.224574,-1.010651 1.366241,-1.497277 2.208537,-1.553415 2.713722,-0.187155 6.419617,0.530667 9.713523,1.185708 1.655752,0.329271 1.946444,0.280752 1.946444,0.280752 C 46.790758,23.096673 49.093597,21.461777 49,18.860232 48.9812,16.221307 45.874184,14.105167 42.954067,14.01277 40,14 33,14 33,14 c 7.898175,1.628293 9.617077,2.449541 10.029065,3.400313 0.243993,0.561784 -0.405988,1.119968 -2.581926,1.010971 -2.369933,-0.118796 -7.225794,-0.69258 -7.225794,-0.69258 -4.621868,-0.711179 -7.441767,-1.38496 -8.845727,0.449187 -0.917054,1.198266 0.131036,2.657725 0.542765,3.5185 1.834147,3.200509 4.605848,5.396246 6.61839,6.943602 0.757279,0.582243 3.069313,1.00fae96 3.069313,1.00fae96 -7.186795,-1.965164 -13.313645,-0.860935 -16.944541,1.04809 -4.173681,2.47053 -3.459701,6.639411 3.16291,10.5371 3.911688,2.302134 6.259045,3.407902 12.663463,4.19428 3.743493,0.596903 4.501481,0.841136 4.473082,1.152727 -0.04014,0.438707 -4.631078,0.604943 -5.837844,0.68818 C 29.052844,48.33369 21.112271,48 21.072672,48 Z"/>
</svg>
