<svg xmlns="http://www.w3.org/2000/svg" width="64" height="64" version="1">
 <path style="opacity:0.2" d="M 8.1992188,5 C 5.8724188,5 4,6.8724188 4,9.199219 V 56.800782 C 4,59.127582 5.8724188,61 8.1992188,61 H 27.800782 C 30.127582,61 32,59.127582 32,56.800782 32,59.127582 33.872418,61 36.199218,61 H 55.800782 C 58.127582,61 60,59.127582 60,56.800782 V 9.199219 C 60,6.8724188 58.127582,5 55.800782,5 H 36.199218 C 33.872418,5 32,6.8724188 32,9.199219 32,6.8724188 30.127582,5 27.800782,5 Z"/>
 <rect style="fill:#ffe658" width="28" height="56" x="32" y="4" rx="4.2" ry="4.2"/>
 <rect style="fill:#fff689" width="28" height="56" x="4" y="4" rx="4.2" ry="4.2"/>
 <path style="opacity:0.1" d="m 18.142578,21.659875 -1.220703,1.091797 0.02734,3.294922 -8.7500002,-0.251953 1.2910156,1.345703 h 7.4707036 l 0.01953,2.923828 h -4.232422 l -1.669922,-0.796875 0.07031,8.216797 1.830078,-0.943359 v -1.492188 h 4.042968 l 0.02148,3.994141 -8.6660159,-0.06836 2.2597659,2.291016 0.966797,-1.236328 h 5.449218 l 0.01367,2.328125 c 0,0.692374 0.646485,1.380859 0.646485,1.380859 l 1.791015,-1.310547 c 0,0 -0.859375,-0.539553 -0.859375,-1.162109 l -0.02148,-1.236328 h 8.898437 l -2.529296,-2.164063 -1.216797,1.234375 -5.191407,-0.04297 -0.07227,-4.007813 h 2.476562 l 0.763672,1.601563 1.728516,-1.34961 -0.539063,-0.617187 v -4.109375 l 1.181641,-0.72461 -3.230469,-1.529297 0.01563,1.744141 h -2.542969 l -0.05664,-2.923828 h 7.669922 l -2.525391,-2.5625 -1.220703,1.636719 -3.964844,-0.126953 z m 26.998047,0.316406 c 0,2.730126 -0.05367,5.694018 -0.431641,8.085938 l -8.509765,-0.03906 0.927734,1.035156 h 7.314453 c -0.916986,4.092964 -3.028361,7.639603 -7.917968,10.564453 l 0.324218,1.992187 c 5.211574,-2.473568 8.540886,-6.333006 9.597656,-12.55664 h 9.261719 l -3.267578,-3.267578 -1.435547,2.300781 -4.363281,-0.01953 c 0.11296,-1.022688 0.167969,-2.503956 0.167969,-3.648438 l 1.625,-0.36914 z m 4.263672,2.365235 -0.923828,0.460937 c 0.966024,0.891146 2.271922,1.614511 2.316406,2.966797 l 1.853516,-1.390625 c -0.745092,-1.099474 -2.024292,-1.533709 -3.246094,-2.037109 z m -36.425781,6.634765 h 4.005859 l 0.01172,1.154297 h -4.017578 z m 5.412109,0 h 2.529297 l 0.01367,1.154297 h -2.503906 z m 28.511719,0.916016 c 0,6.322532 7.089844,11.769531 7.089844,11.769531 l 1.808593,-2.873047 c 0,0 -7.878906,-3.798081 -7.878906,-8.666015 z m -33.923828,1.144531 h 4.02539 l 0.0078,1.101563 h -4.033203 z m 5.474609,0 h 2.488281 l 0.01367,1.101563 h -2.46875 z"/>
 <path style="fill:#c58c00" d="m 18.141888,20.660026 -1.219532,1.091016 0.02734,3.296336 L 8.2,24.795816 9.490625,26.139964 h 7.470013 l 0.01914,2.925118 h -4.2317 l -1.670704,-0.798436 0.07109,8.216796 1.829297,-0.94336 v -1.490813 h 4.043027 l 0.02187,3.993809 -8.6649338,-0.06836 2.2585938,2.291406 0.967969,-1.237124 h 5.449309 l 0.01372,2.32814 c 0,0.692374 0.645312,1.38086 0.645312,1.38086 l 1.791016,-1.309766 c 0,0 -0.858594,-0.539554 -0.858594,-1.16211 L 18.62317,39.029 h 8.897956 L 24.99183,36.864562 23.775032,38.1005 18.584889,38.05676 18.511067,34.049279 h 2.477397 l 0.76289,1.600187 1.728695,-1.348046 -0.538674,-0.61797 v -4.109768 l 1.18125,-0.724606 -3.229863,-1.528518 0.0164,1.744534 h -2.543015 l -0.05743,-2.925118 h 7.670223 l -2.526564,-2.56211 -1.21953,1.63632 -3.965145,-0.12578 z m -5.164119,9.315604 h 4.007478 l 0.01092,1.154464 h -4.018415 z m 5.412946,0 h 2.529351 l 0.0138,1.154464 h -2.50482 z m -5.412946,2.062276 h 4.026619 l 0.0083,1.100817 h -4.034822 z m 5.475837,0 h 2.488336 l 0.0138,1.100815 h -2.469277 z"/>
 <path style="fill:#c58c00" d="m 45.141406,20.975674 c 0,2.730126 -0.05406,5.694507 -0.432032,8.086427 L 36.2,29.023821 l 0.926952,1.035445 h 7.314454 c -0.916986,4.092964 -3.029142,7.638042 -7.91875,10.562892 l 0.325392,1.993358 c 5.211574,-2.473568 8.540884,-6.332616 9.597654,-12.55625 h 9.26133 l -3.26758,-3.267578 -1.435546,2.300491 -4.364062,-0.0192 c 0.11296,-1.022688 0.16954,-2.504055 0.16954,-3.648537 l 1.62422,-0.369142 z m 4.262892,2.365234 -0.92422,0.462108 c 0.966024,0.891146 2.271532,1.61451 2.316016,2.966796 L 52.65,25.378016 c -0.745092,-1.099474 -2.0239,-1.533708 -3.245702,-2.037108 z m -2.501954,7.552342 c 0,6.322532 7.090234,11.76875 7.090234,11.76875 L 55.8,39.788174 c 0,0 -7.877734,-3.797302 -7.877734,-8.665236 z"/>
 <path style="opacity:0.2;fill:#8b9cbe" d="M 8.1992188 4 C 5.8724187 4 4 5.8724187 4 8.1992188 L 4 9.1992188 C 4 6.8724188 5.8724187 5 8.1992188 5 L 27.800781 5 C 30.127581 5 32 6.8724188 32 9.1992188 C 32 6.8724188 33.872419 5 36.199219 5 L 55.800781 5 C 58.127581 5 60 6.8724188 60 9.1992188 L 60 8.1992188 C 60 5.8724187 58.127581 4 55.800781 4 L 36.199219 4 C 33.872419 4 32 5.8724187 32 8.1992188 C 32 5.8724187 30.127581 4 27.800781 4 L 8.1992188 4 z"/>
</svg>
