<svg xmlns="http://www.w3.org/2000/svg" width="64" height="64" version="1">
 <path style="opacity:0.2" d="m 4,56 0,2 c 0,1.662 1.338,3 3,3 l 50,0 c 1.662,0 3,-1.338 3,-3 l 0,-2 c 0,1.662 -1.338,3 -3,3 L 7,59 C 5.338,59 4,57.662 4,56 Z"/>
 <rect style="fill:#709642" width="56" height="56" x="4" y="4" rx="3" ry="3"/>
 <path style="opacity:0.1;fill:#8b9cbe" d="M 7 4 C 5.338 4 4 5.338 4 7 L 4 8 C 4 6.338 5.338 5 7 5 L 57 5 C 58.662 5 60 6.338 60 8 L 60 7 C 60 5.338 58.662 4 57 4 L 7 4 z"/>
 <g transform="matrix(2,0,0,2,0,6)">
  <path style="fill:#525252" d="m 15,7 0,12 -9,0 0,1 10,0 0,-6 10,0 0,-1 -10,0 0,-6 -1,0 z"/>
  <path style="fill:#f9e470" d="M 15.5,5 A 1.5,1.5 0 0 0 14,6.5 1.5,1.5 0 0 0 15.5,8 1.5,1.5 0 0 0 17,6.5 1.5,1.5 0 0 0 15.5,5 Z m 0,7 A 1.5,1.5 0 0 0 14,13.5 1.5,1.5 0 0 0 15.5,15 1.5,1.5 0 0 0 17,13.5 1.5,1.5 0 0 0 15.5,12 Z m 10,0 A 1.5,1.5 0 0 0 24,13.5 1.5,1.5 0 0 0 25.5,15 1.5,1.5 0 0 0 27,13.5 1.5,1.5 0 0 0 25.5,12 Z m -19,6 A 1.5,1.5 0 0 0 5,19.5 1.5,1.5 0 0 0 6.5,21 1.5,1.5 0 0 0 8,19.5 1.5,1.5 0 0 0 6.5,18 Z m 9,0 A 1.5,1.5 0 0 0 14,19.5 1.5,1.5 0 0 0 15.5,21 1.5,1.5 0 0 0 17,19.5 1.5,1.5 0 0 0 15.5,18 Z"/>
 </g>
 <path style="fill:#525252" d="m 30,20 0,24 -18,0 0,2 20,0 0,-12 20,0 0,-2 -20,0 0,-12 -2,0 z"/>
 <path style="opacity:0.2" d="m 31,17 a 3,3 0 0 0 -3,3 3,3 0 0 0 3,3 3,3 0 0 0 3,-3 3,3 0 0 0 -3,-3 z m 0,14 a 3,3 0 0 0 -3,3 3,3 0 0 0 3,3 3,3 0 0 0 3,-3 3,3 0 0 0 -3,-3 z m 20,0 a 3,3 0 0 0 -3,3 3,3 0 0 0 3,3 3,3 0 0 0 3,-3 3,3 0 0 0 -3,-3 z M 13,43 a 3,3 0 0 0 -3,3 3,3 0 0 0 3,3 3,3 0 0 0 3,-3 3,3 0 0 0 -3,-3 z m 18,0 a 3,3 0 0 0 -3,3 3,3 0 0 0 3,3 3,3 0 0 0 3,-3 3,3 0 0 0 -3,-3 z"/>
 <path style="fill:#f9e470" d="m 31,16 a 3,3 0 0 0 -3,3 3,3 0 0 0 3,3 3,3 0 0 0 3,-3 3,3 0 0 0 -3,-3 z m 0,14 a 3,3 0 0 0 -3,3 3,3 0 0 0 3,3 3,3 0 0 0 3,-3 3,3 0 0 0 -3,-3 z m 20,0 a 3,3 0 0 0 -3,3 3,3 0 0 0 3,3 3,3 0 0 0 3,-3 3,3 0 0 0 -3,-3 z M 13,42 a 3,3 0 0 0 -3,3 3,3 0 0 0 3,3 3,3 0 0 0 3,-3 3,3 0 0 0 -3,-3 z m 18,0 a 3,3 0 0 0 -3,3 3,3 0 0 0 3,3 3,3 0 0 0 3,-3 3,3 0 0 0 -3,-3 z"/>
</svg>
