<svg xmlns="http://www.w3.org/2000/svg" width="64" height="64" version="1">
 <rect style="opacity:0.2" width="56" height="56" x="4" y="5" rx="2.8" ry="2.8"/>
 <rect style="fill:#a7a7a7" width="56" height="56" x="4" y="4" rx="2.8" ry="2.8"/>
 <path style="opacity:0.2;fill:#8b9cbe" d="M 6.8007812 4 C 5.2495812 4 4 5.2495812 4 6.8007812 L 4 7.8007812 C 4 6.2495813 5.2495812 5 6.8007812 5 L 57.199219 5 C 58.750419 5 60 6.2495812 60 7.8007812 L 60 6.8007812 C 60 5.2495813 58.750419 4 57.199219 4 L 6.8007812 4 z"/>
 <path style="opacity:0.1" d="M 48,17.599 C 45.076,19.198 39.056,19 33.361,18.932 28.891,18.959 20.166,18.563 18.667,22.932 19.233,22.152 29.624,18.608 28.579,23.008 27.349,26.593 25.152,29.659 23.269,32.903 21.439,33.04 18.904,33.122 17.333,34.212 17.742,33.96 21.227,33.268 22.624,34.03 20.486,37.565 18.28,40.547 16.712,44.396 16.28,45.718 15.307,47.845 16.801,48.802 18.068,49.394 17.181,48.544 17.694,47.717 19.844,43.095 22.803,39.083 25.505,34.793 27.083,35.449 28.613,36.665 30.333,36.854 32.676,37.132 36.713,33.822 37.333,31.546 34.666,33.548 30.064,32.923 27.023,32.859 L 33.589,22.659 C 34.235,22.858 35.376,22.911 37.263,22.932 41.661,23.057 47.284,22.237 48,17.599 Z"/>
 <path style="fill:#4f4f4f" d="M 48,16.599 C 45.076,18.198 39.056,18 33.361,17.932 28.891,17.959 20.166,17.563 18.667,21.932 19.233,21.152 29.624,17.608 28.579,22.008 27.349,25.593 25.152,28.659 23.269,31.903 21.439,32.04 18.904,32.122 17.333,33.212 17.742,32.96 21.227,32.268 22.624,33.03 20.486,36.565 18.28,39.547 16.712,43.396 16.28,44.718 15.307,46.845 16.801,47.802 18.068,48.394 17.181,47.544 17.694,46.717 19.844,42.095 22.803,38.083 25.505,33.793 27.083,34.449 28.613,35.665 30.333,35.854 32.676,36.132 36.713,32.822 37.333,30.546 34.666,32.548 30.064,31.923 27.023,31.859 L 33.589,21.659 C 34.235,21.858 35.376,21.911 37.263,21.932 41.661,22.057 47.284,21.237 48,16.599 Z"/>
</svg>
