<svg xmlns="http://www.w3.org/2000/svg" width="64" height="64" version="1">
 <path style="opacity:0.2" d="m 4,55 0,2 c 0,1.662 1.338,3 3,3 l 50,0 c 1.662,0 3,-1.338 3,-3 l 0,-2 c 0,1.662 -1.338,3 -3,3 L 7,58 C 5.338,58 4,56.662 4,55 Z"/>
 <rect style="fill:#7b5ab7" width="56" height="56" x="-59" y="-60" rx="3" ry="3" transform="matrix(0,-1,-1,0,0,0)"/>
 <path style="opacity:0.1;fill:#8b9cbe" d="M 7 3 C 5.338 3 4 4.338 4 6 L 4 7 C 4 5.338 5.338 4 7 4 L 57 4 C 58.662 4 60 5.338 60 7 L 60 6 C 60 4.338 58.662 3 57 3 L 7 3 z"/>
 <path style="opacity:0.2;fill-rule:evenodd" d="m 16,12 -2,8 0,30 8,0 0,4 4,0 4,-4 6,0 14,-14 0,-24 -34,0 z m 4,2 28,0 0,21 -5,5 -11,0 -6,6 0,-6 -6,0 0,-26 z m 8,6 0,12 4,0 0,-12 -4,0 z m 10,0 0,12 4,0 0,-12 -4,0 z"/>
 <path style="fill:#8b9cbe;fill-rule:evenodd" d="m 16,11 -2,8 0,30 8,0 0,4 4,0 4,-4 6,0 14,-14 0,-24 -34,0 z m 4,2 28,0 0,21 -5,5 -11,0 -6,6 0,-6 -6,0 0,-26 z m 8,6 0,12 4,0 0,-12 -4,0 z m 10,0 0,12 4,0 0,-12 -4,0 z"/>
</svg>
