<svg xmlns="http://www.w3.org/2000/svg" width="64" height="64" version="1.1">
 <path style="opacity:0.2" d="M 9.5641024,5.000396 H 54.435898 C 55.85641,5.000396 57,6.1392674 57,7.5590246 V 52.68879 c 0,1.419896 -1.14359,2.311606 -2.564102,2.311606 H 25.055556 L 19.5,62 13.944444,55.000396 H 9.5641024 C 8.1435898,55.000396 7,54.108686 7,52.68879 V 7.5590246 C 7,6.1392674 8.1435898,5.000396 9.5641024,5.000396 Z"/>
 <path style="fill:#b2bfd9" d="M 9.5641024,4 H 54.435898 C 55.85641,4 57,5.1388714 57,6.5586286 V 51.688394 C 57,53.10829 55.85641,54 54.435898,54 H 25.055556 L 19.5,60.999604 13.944444,54 H 9.5641024 C 8.1435898,54 7,53.10829 7,51.688394 V 6.5586286 C 7,5.1388714 8.1435898,4 9.5641024,4 Z"/>
 <path style="opacity:0.1" d="M 14.097656,12.9997 C 13.503359,12.9997 13,13.503056 13,14.097356 v 3.804688 c 0,0.5943 0.503359,1.097656 1.097656,1.097656 h 3.804688 C 18.496641,18.9997 19,18.496344 19,17.902044 V 14.097356 C 19,13.503056 18.496641,12.9997 17.902344,12.9997 Z M 28,12.9997 a 3.0003,3.0003 0 1 0 0,6 h 20 a 3.0003,3.0003 0 1 0 0,-6 z m -13.902344,28 C 13.503359,40.9997 13,41.503056 13,42.097356 v 3.804688 c 0,0.594298 0.503359,1.097656 1.097656,1.097656 h 3.804688 C 18.49664,46.9997 19,46.496342 19,45.902044 V 42.097356 C 19,41.503056 18.49664,40.9997 17.902344,40.9997 Z M 28,40.9997 a 3.0003,3.0003 0 1 0 0,6 h 20 a 3.0003,3.0003 0 1 0 0,-6 z"/>
 <rect style="fill:#00c7c5" width="50" height="14" x="7" y="22"/>
 <path style="opacity:0.2" d="M 14.097656,26.9997 C 13.503359,26.9997 13,27.503056 13,28.097356 v 3.804688 c 0,0.594302 0.503359,1.097656 1.097656,1.097656 h 3.804688 C 18.49664,32.9997 19,32.496346 19,31.902044 V 28.097356 C 19,27.503056 18.49664,26.9997 17.902344,26.9997 Z M 28,26.9997 a 3.0003,3.0003 0 1 0 0,6 h 20 a 3.0003,3.0003 0 1 0 0,-6 z"/>
 <path style="fill:#8b9cbe" d="M 14.095703,26.000002 C 13.501406,26.000002 13,26.504334 13,27.098634 v 3.805662 C 13,31.498598 13.501406,32 14.095703,32 h 3.808593 C 18.498593,32 19,31.498598 19,30.904296 v -3.805662 c 0,-0.5943 -0.501407,-1.098632 -1.095704,-1.098632 z"/>
 <path style="fill:#898989" d="M 14.095703,12 C 13.501406,12 13,12.504333 13,13.098633 v 3.805663 C 13,17.498596 13.501406,18 14.095703,18 h 3.808593 c 0.594297,0 1.095703,-0.501404 1.095703,-1.095704 V 13.098633 C 18.999999,12.504333 18.498593,12 17.904296,12 Z"/>
 <path style="fill:#8b9cbe;stroke:#8b9cbe;stroke-width:6;stroke-linecap:round" d="M 28,28.9997 H 48"/>
 <path style="fill:none;stroke:#898989;stroke-width:6;stroke-linecap:round" d="M 28,14.9997 H 48"/>
 <path style="fill:#898989" d="M 14.095703,40 C 13.501406,40 13,40.504332 13,41.098632 v 3.805664 C 13,45.498594 13.501406,46 14.095703,46 h 3.808593 C 18.498593,46 19,45.498594 19,44.904296 V 41.098632 C 19,40.504332 18.498593,40 17.904296,40 Z"/>
 <path style="fill:none;stroke:#898989;stroke-width:6;stroke-linecap:round" d="M 28,42.9997 H 48"/>
 <path style="opacity:0.2;fill:#8b9cbe" d="M 9.5625 4 C 8.1419874 4 7 5.1388366 7 6.5585938 L 7 7.5585938 C 7 6.1388366 8.1419874 5 9.5625 5 L 54.4375 5 C 55.858012 5 57 6.1388366 57 7.5585938 L 57 6.5585938 C 57 5.1388365 55.858012 4 54.4375 4 L 9.5625 4 z"/>
</svg>
