<svg xmlns="http://www.w3.org/2000/svg" width="64" height="64" version="1">
 <rect style="opacity:0.2" width="58" height="58" x="3" y="4" rx="17.4" ry="17.4"/>
 <rect style="fill:#b2bfd9" width="58" height="58" x="3" y="3" rx="17.4" ry="17.4"/>
 <path style="fill:#3084e9" d="m 22,14.999999 c -3.865994,0 -7.000001,3.134007 -7,7.000001 0,3.865993 3.134007,7 7,7 H 41.999219 V 14.999999 Z"/>
 <path style="fill:#aeaeae" d="M 22.000781,35 V 49 H 42 c 3.865993,0 7,-3.134007 7,-7 0,-3.865993 -3.134007,-7 -7,-7 z"/>
 <path style="opacity:0.1" d="m 22,15 c -3.865993,0 -7,3.134007 -7,7 0.0039,0.146063 0.01236,0.291967 0.02539,0.4375 C 15.318438,18.802477 18.353184,16.001435 22,16 h 20.000781 v -1 z m -7.81e-4,20 v 1 H 42 c 3.666292,0.0036 6.708641,2.835554 6.974609,6.492188 C 48.988847,42.328474 48.997316,42.16431 49,42 49,38.134007 45.865993,35 42,35 Z"/>
 <path style="opacity:0.2" d="m 42,16 a 7,7 0 0 0 -7,7 7,7 0 0 0 7,7 7,7 0 0 0 7,-7 7,7 0 0 0 -7,-7 z M 22,36 a 7,7 0 0 0 -7,7 7,7 0 0 0 7,7 7,7 0 0 0 7,-7 7,7 0 0 0 -7,-7 z"/>
 <circle style="fill:#8b9cbe" cx="42" cy="22" r="7"/>
 <circle style="fill:#8b9cbe" cx="22" cy="42" r="7"/>
 <path style="opacity:0.2;fill:#8b9cbe" d="M 20.398438 3 C 10.758838 3 3 10.758838 3 20.398438 L 3 21.398438 C 3 11.758837 10.758838 4 20.398438 4 L 43.601562 4 C 53.241163 4 61 11.758838 61 21.398438 L 61 20.398438 C 61 10.758838 53.241163 3 43.601562 3 L 20.398438 3 z"/>
</svg>
