<svg xmlns="http://www.w3.org/2000/svg" width="64" height="64" version="1">
 <path style="opacity:0.2" d="m 32.00001,5.0000294 c -0.024,0 -0.05,0.004 -0.074,0.004 h -0.0082 c -8.971795,0.056 -17.91779,9.3539956 -17.91779,16.3319916 V 44.406009 C 14.00002,53.888004 20.750016,61 32.00001,61 43.250002,61.00196 49.999998,53.892004 49.999998,44.410009 V 21.972021 c 0,-7.251997 -8.987995,-16.9059916 -17.999988,-16.9639916 z"/>
 <path style="fill:#4f4f4f" d="m 32.00001,4.0000313 c -0.024,0 -0.05,0.004 -0.074,0.004 h -0.0082 c -8.971795,0.056 -17.91779,9.3539957 -17.91779,16.3319917 V 43.40601 c 0,9.481995 6.749996,16.593991 17.99999,16.593991 11.249992,0.002 17.999988,-7.107996 17.999988,-16.589991 V 20.972022 c 0,-7.251996 -8.987995,-16.9059907 -17.999988,-16.9639907 z"/>
 <path style="opacity:0.1" d="m 32.00001,4.0000313 c -0.024,0 -0.04902,0.00274 -0.073,0.00274 h -0.0082 C 22.946889,4.0587713 14,13.357194 14,20.335189 V 32.000016 H 50 V 20.972288 C 50,13.720292 41.012003,4.0662345 32.00001,4.0082343 Z"/>
 <path style="opacity:0.1" d="m 32.00001,4.0000313 c -0.024,0 -0.04902,0.00274 -0.073,0.00274 h -0.0082 C 22.946889,4.0587713 14,13.357194 14,20.335189 v 11.664827 h 18.00001 c 0,0 0,-27.9999847 0,-27.9917817 z"/>
 <path style="opacity:0.2" d="m 32,12.000649 c 1.653001,0 3,1.248085 3,2.78587 V 22.21565 C 35,23.751916 33.653001,25 32,25 30.347001,25 29,23.751916 29,22.213483 V 14.784351 C 29,13.248083 30.347001,12 32,12"/>
 <path style="fill:#b2bfd9" d="m 32,11.000669 c 1.653001,0 3,1.248085 3,2.78587 v 7.429131 c 0,1.536266 -1.346999,2.78435 -3,2.78435 -1.652999,0 -3,-1.248084 -3,-2.786517 v -7.429132 c 0,-1.536268 1.347001,-2.784351 3,-2.784351"/>
 <path style="opacity:0.1;fill:#8b9cbe" d="M 32 4 C 31.976 4 31.949781 4.0039062 31.925781 4.0039062 L 31.917969 4.0039062 C 22.946162 4.0599123 14 13.35794 14 20.335938 L 14 21.335938 C 14 14.35794 22.946162 5.0599123 31.917969 5.0039062 L 31.925781 5.0039062 C 31.949781 5.0039063 31.976 5 32 5 L 32 5.0078125 C 41.011993 5.0658125 50 14.720652 50 21.972656 L 50 20.972656 C 50 13.720652 41.011993 4.0658125 32 4.0078125 L 32 4 z"/>
</svg>
