<svg xmlns="http://www.w3.org/2000/svg" width="64" height="64" version="1">
 <rect style="opacity:0.2" width="56" height="56" x="4" y="5" rx="2.8" ry="2.8"/>
 <rect style="fill:#b2bfd9" width="56" height="56" x="4" y="4" rx="2.8" ry="2.8"/>
 <path style="opacity:0.1" d="m 29.142042,52.920542 c -1.087338,-0.136842 -3.16109,-0.64929 -4.132706,-1.02126 -4.000138,-1.531396 -6.912975,-4.580406 -8.171675,-8.553698 -0.704632,-2.224332 -0.70083,-2.145148 -0.799267,-16.620588 -0.05467,-8.033857 -0.03492,-13.724997 -0.03492,-13.724997 h 12.069977 l -4.79804,9.999991 H 28 v 9.999992 9.99999 H 32.444844 37 V 27.835526 12.999999 h 11 c 0,0 -0.0011,8.857479 -1.02e-4,19.151119 0.0014,17.695686 -0.01,18.722092 -0.223032,18.83281 -0.567354,0.295278 -6.51435,1.32935 -10.060662,1.74936 -2.034006,0.240902 -7.24397,0.354708 -8.574286,0.18732 z"/>
 <path style="fill:#e2450e" d="m 29.142042,51.920542 c -1.087338,-0.136842 -3.16109,-0.64929 -4.132706,-1.02126 -4.000138,-1.531396 -6.912975,-4.580406 -8.171675,-8.553698 -0.704632,-2.224332 -0.70083,-2.145148 -0.799267,-16.620588 -0.05467,-8.033857 -0.03492,-13.724997 -0.03492,-13.724997 h 12.069977 l -4.79804,9.999991 H 28 v 9.999992 9.99999 H 32.444844 37 V 26.835526 11.999999 h 11 c 0,0 -0.0011,8.857479 -1.02e-4,19.151119 0.0014,17.695686 -0.01,18.722092 -0.223032,18.83281 -0.567354,0.295278 -6.51435,1.32935 -10.060662,1.74936 -2.034006,0.240902 -7.24397,0.354708 -8.574286,0.18732 z"/>
 <path style="opacity:0.2;fill:#8b9cbe" d="M 6.8007812 4 C 5.2495812 4 4 5.2495812 4 6.8007812 L 4 7.8007812 C 4 6.2495813 5.2495812 5 6.8007812 5 L 57.199219 5 C 58.750419 5 60 6.2495812 60 7.8007812 L 60 6.8007812 C 60 5.2495813 58.750419 4 57.199219 4 L 6.8007812 4 z"/>
</svg>
