<svg xmlns="http://www.w3.org/2000/svg" width="64" height="64" version="1.1">
 <circle style="opacity:0.2" cx="32" cy="33" r="28"/>
 <path style="fill:#255fdb" d="M 23.310268,37.8326 C 13.764913,25.204093 3.9650136,34.800357 6.523169,43.626631 c 4.394045,9.656717 14.200309,16.373465 25.467007,16.373465 9.990808,0 18.629356,-5.208581 23.535669,-12.790777 -7.381743,6.907657 -20.78024,5.752668 -32.215577,-9.376719 z"/>
 <path style="fill:#4285f4" d="M 31.843816,29.13678 C 18.71577,9.2251686 4.0000135,19.836423 4.0000135,32.006751 c 0,4.174502 0.9099903,8.113551 2.5422462,11.670787 -1.7436181,-8.244005 7.7285573,-14.601211 16.5484653,-2.768154 12.806685,17.18164 25.374737,14.158945 32.406482,6.3413 1.899526,-2.831789 3.751326,-7.174925 4.269957,-11.492607 l -0.0096,0.0541 c -3.009893,9.360804 -16.335209,10.88488 -27.913726,-6.675393 z"/>
 <path style="fill:#91bfff" d="M 40.841904,20.227783 C 31.092914,4.1438576 18.731679,5.5915699 10.373129,14.211025 6.3990794,19.044158 4.0000135,25.239094 4.0000135,32.000387 c 0.8749908,-11.785332 15.1134795,-19.965702 27.9997105,0 11.470334,17.770271 25.724732,13.140772 27.754712,3.856324 l 0.0128,-0.08908 c 0.203632,-1.275897 0.225905,-2.494521 0.225905,-3.805415 0,-0.423178 0.016,-0.843173 -0.0032,-1.259987 -4.969946,3.525416 -11.492605,2.154068 -19.147981,-10.474437 z"/>
 <path style="fill:#c4e1ff" d="m 40.908721,23.091388 c 8.928091,14.353033 16.624828,10.681254 19.081166,7.61083 -0.09545,-2.189066 -0.451812,-4.308137 -1.024535,-6.334935 -4.161774,0.0859 -5.132219,-0.60772 -9.211269,-6.844019 C 43.479604,7.9301819 35.595142,1.4616127 21.83074,5.9065666 17.32533,7.6660939 13.386279,10.555155 10.363584,14.223754 19.829396,5.5120251 31.442912,7.8760916 40.908721,23.091388 Z"/>
 <path style="fill:#f5f5f5" d="m 49.127273,18.754614 c 4.07905,6.236301 6.564024,6.567205 9.838079,5.612669 C 55.634023,12.59786 44.835045,4.0006774 31.990176,4.0006774 c -3.585871,0 -7.019017,0.6840838 -10.168984,1.909071 12.303965,-3.881778 21.0316,3.2517844 27.306081,12.8448656 z"/>
 <path style="opacity:0.2;fill:#8b9cbe" d="M 32 4 A 27.999639 27.999639 0 0 0 4 32 A 27.999639 27.999639 0 0 0 4.0175781 32.492188 A 27.999639 27.999639 0 0 1 32 5 A 27.999639 27.999639 0 0 1 59.974609 32.492188 A 27.999639 27.999639 0 0 0 60 32 A 27.999639 27.999639 0 0 0 32 4 z"/>
 <path style="opacity:0.1" d="M 4.015625,32.584366 C 4.0116783,32.725289 4,32.864852 4,33.006241 4,37.180743 4.9107128,41.12088 6.5429688,44.678116 6.4389438,44.186276 6.3763124,43.701892 6.3496094,43.226944 4.9164704,39.954348 4.0922338,36.370797 4.015625,32.584366 Z m 8.798828,1.81836 c -3.9517722,0.136778 -6.7086115,3.579801 -6.4628905,7.83789 0.3725762,-6.909489 8.8152825,-10.959814 16.7382815,-0.330078 12.806685,17.18164 25.376458,14.157489 32.408203,6.339844 1.899526,-2.831789 3.7509,-7.174506 4.269531,-11.492188 l -0.0098,0.05469 c -0.09252,0.287745 -0.194974,0.567235 -0.30664,0.839844 -0.752641,3.662736 -2.332134,7.183056 -3.953125,9.599609 -7.031745,7.817645 -19.601518,10.839843 -32.408203,-6.341797 -3.583088,-4.807179 -7.272723,-6.61174 -10.275391,-6.507812 z"/>
 <path style="opacity:0.1" d="M 15.542969,19.902726 C 9.2917904,19.883165 4.6166062,25.237818 4.0273438,31.756241 4.0092567,32.169081 4,32.58304 4,33.000382 c 0.8749908,-11.785332 15.113769,-19.965702 28,0 11.470334,17.770271 25.723926,13.14187 27.753906,3.857422 l 0.01367,-0.08984 c 0.203632,-1.275897 0.224609,-2.493793 0.22461,-3.804687 0,-0.309675 9.74e-4,-0.615609 -0.002,-0.921875 -9.54e-4,1.28054 -0.02318,2.47668 -0.222656,3.726562 l -0.01367,0.08984 C 57.723926,45.142252 43.470334,49.770653 32,32.000382 26.362274,23.265387 20.466055,19.91813 15.542969,19.902726 Z"/>
 <path style="opacity:0.1" d="m 21.691406,9.1898354 c -2.519829,0.037346 -5.006473,0.7626047 -7.404297,2.1347656 -1.431121,1.169795 -2.749009,2.47453 -3.923828,3.90039 9.465812,-8.7117282 21.079113,-6.3481082 30.544922,8.867188 8.928091,14.353033 16.625693,10.681752 19.082031,7.611328 -0.01353,-0.310372 -0.04446,-0.616334 -0.06836,-0.923828 -2.521291,3.053751 -10.158934,6.547608 -19.013672,-7.6875 C 34.992073,13.582619 28.236749,9.0928281 21.691406,9.1898354 Z"/>
 <path style="opacity:0.1" d="m 31.101562,5.0218667 c -3.264063,0.1032593 -6.392818,0.7653927 -9.28125,1.8886718 12.303965,-3.881778 21.03216,3.2506685 27.306641,12.8437495 4.07905,6.236301 6.563836,6.567817 9.837891,5.613282 -0.08894,-0.314227 -0.205203,-0.616181 -0.304688,-0.925782 -3.123335,0.840229 -5.584175,0.351969 -9.533203,-5.685547 C 44.561798,11.776555 38.696542,6.1022838 31.101562,5.0218667 Z"/>
</svg>
