<svg xmlns="http://www.w3.org/2000/svg" width="64" height="64" version="1">
 <path style="opacity:.2" d="m4 53v1c0 1.662 1.338 3 3 3h50c1.662 0 3-1.338 3-3v-1c0 1.662-1.338 3-3 3h-50c-1.662 0-3-1.338-3-3z"/>
 <rect style="fill:#a53e62" width="56" height="48" x="4" y="8" rx="3" ry="3"/>
 <path style="opacity:.1;fill:#8b9cbe" d="m7 8c-1.662 0-3 1.338-3 3v1c0-1.662 1.338-3 3-3h50c1.662 0 3 1.338 3 3v-1c0-1.662-1.338-3-3-3h-50z"/>
 <path style="opacity:.2" d="m12 15v2h-1c-1.662 0-3 1.338-3 3s1.338 3 3 3h1v2h-3.8164c0.412 1.164 1.508 2 2.8164 2h1v2h2v-2h1c1.662 0 3-1.338 3-3s-1.338-3-3-3h-1v-2h3.8164c-0.412-1.164-1.508-2-2.816-2h-1v-2h-2zm-1 4h1v2h-1c-0.554 0-1-0.446-1-1s0.446-1 1-1zm3 4h1c0.554 0 1 0.446 1 1s-0.4466 1.0257-1 1h-1zm8 4v2h12v-2z"/>
 <path style="fill:#ffbe23" d="m12 14v2h-1c-1.662 0-3 1.338-3 3s1.338 3 3 3h1v2h-3.8164c0.412 1.164 1.508 2 2.8164 2h1v2h2v-2h1c1.662 0 3-1.338 3-3s-1.338-3-3-3h-1v-2h3.8164c-0.412-1.164-1.508-2-2.816-2h-1v-2h-2zm-1 4h1v2h-1c-0.554 0-1-0.446-1-1s0.446-1 1-1zm3 4h1c0.554 0 1 0.446 1 1s-0.4466 1.0257-1 1h-1zm8 4v2h12v-2z"/>
</svg>
