<svg xmlns="http://www.w3.org/2000/svg" width="64" height="64" version="1">
 <path style="opacity:0.2" d="M 12.400391,5 C 8.2003909,5 4,9.2003911 4,13.400391 V 44 52.599609 55.150391 58 c 0,1.5 1.5000001,3 3,3 H 9.8496094 21 37.150391 51.599609 C 55.799609,61 60,56.799608 60,52.599609 60,24.599611 40.400389,5 12.400391,5 Z"/>
 <path style="fill:#dfd92a" d="M 59.999999,51.599999 C 59.999999,23.600001 40.399998,4.0000018 12.4,4.0000018 c -4.1999997,0 -8.3999994,4.1999997 -8.3999994,8.3999992 v 39.199998 c 0,4.199999 4.1999997,8.399999 8.3999994,8.399999 h 39.2 c 4.2,0 8.399999,-4.2 8.399999,-8.399999 z"/>
 <path style="fill:#db3151" d="m 43.000003,54.149998 c 0,-19.5 -13.650001,-33.15 -33.1500008,-33.15 -2.9250001,0 -5.8500002,2.925 -5.8500002,5.850001 v 27.299999 c 0,2.925 2.9250001,5.85 5.8500002,5.85 H 37.150003 c 2.925,0 5.85,-2.925 5.85,-5.85 z"/>
 <path style="fill:#17191e" d="m 24.000002,56.999998 c 0,-9.999999 -7,-17 -17.0000001,-17 C 5.500002,39.999998 4.000002,41.5 4.000002,43 v 13.999998 c 0,1.5 1.5,3 2.9999999,3 H 21.000002 c 1.5,0 3,-1.5 3,-3 z"/>
 <path style="fill:#8b9cbe;opacity:0.2" d="M 12.400391 4 C 8.2003909 4 4 8.2003911 4 12.400391 L 4 13.400391 C 4 9.2003911 8.2003909 5 12.400391 5 C 40.151238 5 59.639546 24.257567 59.984375 51.859375 C 59.987911 51.77279 60 51.686231 60 51.599609 C 60 23.599611 40.400389 4 12.400391 4 z"/>
 <path style="opacity:0.1" d="M 9.8496094 21 C 6.9246093 21 4 23.924608 4 26.849609 L 4 27.849609 C 4 24.924608 6.9246093 22 9.8496094 22 C 29.101128 22 42.642185 35.309029 42.984375 54.412109 C 42.98953 54.324704 43 54.237874 43 54.150391 C 43 34.650391 29.349609 21 9.8496094 21 z"/>
 <path style="opacity:0.1" d="M 7 40 C 5.5000001 40 4 41.5 4 43 L 4 44 C 4 42.5 5.5000001 41 7 41 C 16.75094 41 23.631169 47.664773 23.96875 57.267578 C 23.979179 57.178106 24 57.089794 24 57 C 24 47.000001 17 40 7 40 z"/>
</svg>
