<svg xmlns="http://www.w3.org/2000/svg" width="64" height="64" version="1">
 <path style="opacity:0.2" d="m 54.285528,5.0006723 c -0.217453,0.00343 -0.435706,0.024352 -0.656723,0.061412 -0.884073,0.1482709 -1.788953,0.5549286 -2.652883,1.1339133 l -0.01655,0.00932 -0.01889,0.011774 c 0,0 -12.587696,7.7047034 -18.373482,15.6461344 v 0 0 l 12.681,10.350143 v 0 C 52.082392,23.680413 57.79121,10.35115 57.79121,10.35115 l 0.03543,-0.101578 0.01655,-0.106304 C 58.168358,8.3067932 57.717352,6.3783904 56.156503,5.4753243 55.571188,5.136674 54.937911,4.9902414 54.285546,5.000499 Z"/>
 <path style="opacity:0.2" d="m 33.580317,20.06233 c -0.388643,-0.0046 -0.780046,0.02388 -1.174072,0.08977 l -1.589839,0.269303 0.474826,3.602537 -1.124464,0.949652 -8.076768,18.01268 1.051232,0.800826 6.874347,5.234898 13.257332,-13.966028 0.373248,-1.407943 3.432448,-0.637827 -0.585854,-1.807173 C 45.671836,28.671466 43.604461,25.947282 41.08068,23.712114 38.872371,21.756343 36.300828,20.094219 33.580317,20.06233 Z"/>
 <ellipse style="opacity:0.2" cx="29" cy="58" rx="23" ry="3"/>
 <ellipse style="opacity:0.2;stroke:#000000;stroke-width:0;stroke-linecap:round" cx="53" cy="53.5" rx="5" ry="1.5"/>
 <ellipse style="fill:#6155db" cx="29" cy="57" rx="23" ry="3"/>
 <path style="opacity:0.1;fill:#8b9cbe" d="M 29 54 A 23 3 0 0 0 6 57 A 23 3 0 0 0 6.3359375 57.511719 A 23 3 0 0 1 29 55 A 23 3 0 0 1 51.664062 57.488281 A 23 3 0 0 0 52 57 A 23 3 0 0 0 29 54 z"/>
 <path style="fill:#8d4e0a" d="m 54.285528,4.0006761 c -0.217453,0.00343 -0.435706,0.024352 -0.656723,0.061412 -0.884073,0.1482709 -1.788953,0.5549286 -2.652883,1.1339133 l -0.01655,0.00932 -0.01889,0.011774 c 0,0 -12.587696,7.7047036 -18.373482,15.6461346 v 0 0 l 12.681,10.350143 v 0 C 52.082392,22.680417 57.79121,9.351154 57.79121,9.351154 L 57.82664,9.2495759 57.84319,9.1432714 C 58.168358,7.306797 57.717352,5.3783942 56.156503,4.4753281 55.571188,4.1366778 54.937911,3.9902452 54.285546,4.0005028 Z"/>
 <path style="opacity:0.1;fill:#8b9cbe" d="M 54.285156 4 C 54.067703 4.00343 53.849923 4.02544 53.628906 4.0625 C 52.744833 4.2107709 51.840493 4.6163278 50.976562 5.1953125 L 50.958984 5.2050781 L 50.941406 5.2167969 C 50.941406 5.2167969 38.352192 12.92185 32.566406 20.863281 L 33.042969 21.251953 C 39.008307 13.531408 50.941406 6.2167969 50.941406 6.2167969 L 50.958984 6.2050781 L 50.976562 6.1953125 C 51.840493 5.6163278 52.744833 5.2107709 53.628906 5.0625 C 53.849923 5.02544 54.067703 5.00343 54.285156 5 C 54.937521 4.9897424 55.570935 5.1359591 56.15625 5.4746094 C 57.268699 6.1182433 57.808347 7.2855862 57.914062 8.5664062 C 58.056776 6.915497 57.554046 5.2833371 56.15625 4.4746094 C 55.570935 4.1359591 54.937521 3.9897424 54.285156 4 z"/>
 <path style="fill:#a9a9a9" d="m 33.580317,19.062334 c -0.388643,-0.0046 -0.780046,0.02388 -1.174072,0.08977 l -1.589839,0.269303 0.474826,3.602537 -1.124464,0.949652 -8.076768,18.01268 1.051232,0.800826 6.874347,5.234898 13.257332,-13.966028 0.373248,-1.407943 3.432448,-0.637827 -0.585854,-1.807173 C 45.671836,27.67147 43.604461,24.947286 41.08068,22.712118 38.872371,20.756347 36.300828,19.094223 33.580317,19.062334 Z"/>
 <path style="opacity:0.2;fill:#8b9cbe" d="M 33.580078 19.0625 C 33.191435 19.0579 32.800276 19.086454 32.40625 19.152344 L 30.816406 19.421875 L 30.945312 20.400391 L 32.40625 20.152344 C 32.800276 20.086454 33.191435 20.0579 33.580078 20.0625 C 36.300589 20.094389 38.871769 21.75712 41.080078 23.712891 C 43.603859 25.948059 45.671271 28.671566 46.492188 31.203125 L 46.771484 32.066406 L 47.078125 32.009766 L 46.492188 30.203125 C 45.671271 27.671566 43.603859 24.948059 41.080078 22.712891 C 38.871769 20.75712 36.300589 19.094389 33.580078 19.0625 z M 31.171875 23.123047 L 30.166016 23.972656 L 22.089844 41.986328 L 22.423828 42.240234 L 30.166016 24.972656 L 31.291016 24.023438 L 31.171875 23.123047 z"/>
 <path style="opacity:0.1" d="M 6,57.999996 C 19.765916,55.521854 29.686193,62.751623 30.937139,50.167992 31.94523,40.027316 20.566641,37.303643 15.590142,47.09044 10.796212,56.518221 6,57.999996 6,57.999996 Z"/>
 <path style="fill:#17191e" d="M 6,57 C 19.765916,54.521858 29.686193,61.751627 30.937139,49.167996 31.94523,39.02732 20.566641,36.303647 15.590142,46.090444 10.796212,55.518225 6,57 6,57 Z"/>
 <ellipse style="fill:#6155db;stroke:#000000;stroke-width:0;stroke-linecap:round" cx="53" cy="52.5" rx="5" ry="1.5"/>
 <path style="opacity:0.1;fill:#8b9cbe;stroke:#000000;stroke-width:0;stroke-linecap:round" d="M 53 51 A 4.9999995 1.4999995 0 0 0 48 52.5 A 4.9999995 1.4999995 0 0 0 48.292969 53 A 4.9999995 1.4999995 0 0 1 53 52 A 4.9999995 1.4999995 0 0 1 57.707031 53 A 4.9999995 1.4999995 0 0 0 58 52.5 A 4.9999995 1.4999995 0 0 0 53 51 z"/>
</svg>
