<svg xmlns="http://www.w3.org/2000/svg" width="64" height="64" version="1">
 <rect style="opacity:0.2" width="56" height="56" x="4" y="5" rx="28" ry="28"/>
 <rect style="fill:#2869b6" width="56" height="56" x="4" y="4" rx="28" ry="28"/>
 <g style="opacity:0.2;enable-background:new" transform="matrix(1.4883523,0,0,1.4879066,-57.510388,-31.895244)">
  <g>
   <path transform="matrix(1.3437679,0,0,1.3441704,38.640305,20.76453)" d="m 16.072266,3.6992188 -1.621094,0.1855468 -2.001953,0.5488282 -0.378907,0.3691406 1.242188,0.8554687 0,0.4902344 L 12.5,6.6386719 13.476562,7.9238281 13.910156,7.6796875 14.451172,6.8222656 C 15.286881,6.5639651 16.03575,6.2715866 16.830078,5.9042969 L 17.400391,4.25 16.072266,3.6992188 Z M 12.234375,3.8222656 11.535156,3.921875 11.203125,4.25 10.662109,4.3300781 10.177734,4.5566406 9.9414062,4.6699219 9.7988281,4.8632812 10.501953,4.984375 10.771484,4.7402344 11.3125,4.6191406 C 11.683095,4.4389552 12.055995,4.3165947 12.449219,4.1894531 L 12.234375,3.8222656 Z m -3.1933594,1.46875 -0.1074218,0.2441406 0.052734,0.6132813 -0.4316406,0.3671875 -0.2714844,0.6738281 0.5410157,0 L 9.0957031,6.578125 C 9.328997,6.4131914 9.5612173,6.2466503 9.7988281,6.0878906 l 0.5410159,0.1835938 c 0.360479,0.2448358 0.721254,0.4899119 1.082031,0.734375 L 11.962891,6.515625 11.367188,6.2714844 11.095703,5.7207031 10.068359,5.5976562 10.013672,5.2910156 9.5273438,5.4140625 9.3125,5.8417969 9.0410156,5.2910156 Z M 22.896484,5.78125 l -1.02539,0.2460938 -0.652344,0.4277343 0,0.3671875 -1.025391,0.6738282 0.214844,0.9785156 0.597656,-0.4277344 0.376953,0.4277344 0.431641,0.2460937 0.271485,-0.734375 -0.16211,-0.4296875 0.16211,-0.3066406 0.59375,-0.75 0.271484,0 -0.271484,0.8125 0,0.5507812 c 0.248555,-0.067627 0.505403,-0.089476 0.759765,-0.1210937 l -0.705078,0.4882813 -0.05273,0.3066406 -0.810547,0.671875 -0.814453,-0.1816406 0,-0.4902344 -0.378907,0.2441406 0.164063,0.5683594 -0.595703,0 -0.324219,0.4101562 -0.40625,0.4589844 -0.728516,0.154297 0.431641,0.425781 0.109375,0.429688 -0.541016,0 -0.6875,0.367187 0,1.103516 0.308594,0 0.296875,0.335937 0.675781,-0.335937 0.269532,-0.673828 0.488281,-0.306641 0.107422,-0.244141 0.810547,-0.183593 0.433593,0.488281 0.486328,0.246094 -0.269531,0.550781 0.433594,-0.123047 0.214844,-0.548828 -0.541016,-0.613281 0.216797,0 0.542969,0.427734 0.107422,0.611328 0.484375,0.552734 0.109375,-0.798828 0.271484,-0.121093 c 0.267457,0.277569 0.47786,0.693473 0.703125,1.005859 l 0.810547,0.0625 0.488281,0.216797 -0.216797,0.306641 L 24.84375,14 l -0.701172,0 -0.921875,-0.322266 -0.486328,0.06055 -0.349609,0.398438 -1.001954,-1.009766 -0.705078,-0.183594 -1.027343,0.121094 -0.919922,0.246094 c -0.516013,0.584821 -1.454963,1.166074 -1.94336,1.773437 l -0.595703,1.410157 0.271485,0.304687 -0.486329,0.734375 0.541016,1.287109 c 0.459976,0.520172 1.349287,1.03805 1.808594,1.558594 l 0.677734,-0.580078 0.296875,0.337891 0.728516,-0.458985 L 20.273438,20 l 1.232421,0 0.417969,0.425781 -0.259766,0.841797 0.515626,0.582031 -0.02734,1.009766 0.378906,0.736328 -0.404297,0.611328 c -0.02694,0.450389 -0.02734,0.89719 -0.02734,1.347657 0.221688,0.610262 0.591449,1.219333 0.800782,1.833984 l 0.148437,0.705078 c 0.952515,-0.554625 1.833656,-1.214506 2.625,-1.970703 l -0.371094,-0.416016 0.625,-0.519531 0.523438,-0.369141 0.271484,-0.304687 -0.162109,-0.675781 0,-1.712891 0.556641,-1.041016 0.59375,-0.673828 0.65039,-1.589844 0,-0.429687 c -0.319877,0.04028 -0.632415,0.07299 -0.945312,0.0957 l 0.646484,-0.646484 0.892578,-0.613282 0.488281,-0.548828 0,-0.613281 c -0.108275,-0.20414 -0.217156,-0.407187 -0.326171,-0.611328 l -0.431641,0.488281 -0.324219,-0.365234 -0.488281,-0.369141 0,-0.794922 0.570312,0.642579 0.621094,-0.0918 c 0.283382,0.257184 0.561992,0.502102 0.810547,0.794921 l 0.0625,-0.06836 C 29.638296,12.44093 28.231838,9.5262329 26.105469,7.3085938 25.988026,7.188277 25.865844,7.0595446 25.769531,6.9648438 25.607871,6.8074824 25.436714,6.6591905 25.267578,6.5097656 L 25.115234,6.7617188 24.574219,7.3730469 23.871094,6.5 24.574219,6.5 24.898438,6.2714844 23.599609,6.0273438 22.896484,5.78125 Z M 7.6035156,5.8007812 c -0.079188,0.05936 -0.1584622,0.1167434 -0.2363281,0.1777344 l 0.1054687,0.4765625 c 0,0 -0.495323,0.054509 -0.78125,0.091797 -2.7622943,2.4594888 -4.5295074,5.9953259 -4.6660156,9.9667969 0.00678,0.188245 0.01522,0.376265 0.029297,0.5625 0.079898,0.129636 0.1699219,0.273437 0.1699219,0.273437 l 1.1367187,0.673829 1.1367188,0.30664 0.484375,0.613281 0.7578125,0.548829 0.4335937,-0.06055 0.3242188,0.146484 0,0.09961 -0.4316407,1.16211 -0.3261718,0.490234 0.109375,0.244141 L 5.5,22.492188 l 1.0507812,1.77539 0.6953126,0.855469 0.4316406,0.611328 -0.052734,1.287109 0.4101562,0.498047 c 0.8000872,0.553005 1.6581871,1.02767 2.5683594,1.40625 l 0.546875,-0.191406 0.65039,-1.345703 -0.271484,-0.367188 0.376953,-0.761718 0.712891,-0.183594 0.480468,-0.769531 -0.15625,-1.222657 0.988282,-0.917968 0.109375,-0.917969 C 13.152918,21.807775 12.031869,21.353681 11.150391,20.900391 L 10.716797,20.042969 9.90625,19.958984 9.4746094,18.947266 8.3925781,19.070312 7.4726562,18 l -0.9746093,1.001953 0,0.136719 C 6.2033504,19.053639 5.8424695,19.042148 5.5800781,18.880859 l -0.21875,-0.611328 0,-0.675781 -0.6484375,0.0625 c 0.054176,-0.428666 0.1095159,-0.856564 0.1640625,-1.285156 l -0.3789062,0 -0.3789063,0.490234 -0.3789062,0.181641 -0.5410156,-0.304688 -0.054688,-0.673828 0.1074219,-0.734375 0.8125,-0.611328 0.6484375,0 0.1074219,-0.369141 0.8125,0.183594 L 6.15625,15.269531 6.265625,14.044922 7.3652344,13.1875 7.7441406,12.013672 8.5,11.986328 8.9335938,11.632812 9.90625,11.447266 l 0.486328,-0.732422 -1.4589842,0 L 9.8535156,10 10.501953,10 11.421875,9.6992188 11.529297,9.3320312 11.203125,9.0273438 10.826172,8.9042969 10.935547,8.5371094 10.664062,7.9863281 10.013672,8.2285156 10.123047,7.7402344 9.3652344,7.3125 8.7714844,8.3515625 8.8242188,8.7207031 8.2285156,8.9648438 7.8496094,9.7597656 7.6894531,9.0273438 6.6601562,8.5976562 6.4980469,8.046875 7.8496094,7.25 8.4453125,6.6992188 8.5,6.0273438 8.1757812,5.8417969 7.6035156,5.8007812 Z m 10.5800784,0.4375 -0.783203,0.2441407 -0.353516,-0.060547 -0.002,0 -0.05469,0.3671875 0.519532,0.2441406 0.998046,-0.4296875 -0.324218,-0.3652344 z m -7.791016,0.4609376 -0.4316405,0.3066406 0.5410155,0.3671875 0.433594,0 0,-0.4296875 -0.542969,-0.2441406 z m 8.546875,1.4082031 0,0.3671875 0.216797,0.2460937 0,0.5507813 -0.109375,0.7343746 0.595703,-0.1230465 0.433594,-0.4277344 -0.378906,-0.3671875 C 19.570088,8.7493174 19.4248,8.4321568 19.265625,8.1074219 l -0.326172,0 z m -0.214844,0.734375 -0.380859,0.1230469 0.109375,0.671875 0.486328,-0.2421876 -0.214844,-0.5527343 z M 11.259766,9.9453125 11.421875,10.798828 11.746094,10.3125 11.259766,9.9453125 Z m 14.125,4.7734375 0.623046,0.703125 0.730469,1.560547 0.431641,0.490234 -0.216797,0.550782 0.410156,0.464843 c -0.188949,0.01276 -0.376028,0.02734 -0.570312,0.02734 -0.344477,-0.723642 -0.602907,-1.449985 -0.865235,-2.207031 l -0.601562,-0.519532 -0.242188,-0.888671 0.300782,-0.181641 z"/>
  </g>
 </g>
 <g style="enable-background:new" transform="matrix(1.4883523,0,0,1.4879066,-57.510388,-32.895368)">
  <g>
   <path style="fill:#64dd17" transform="matrix(0.9406375,0,0,0.9409193,37.565291,21.033155)" d="m 24.103516,5 -2.316407,0.2636719 -2.859375,0.7851562 -0.541015,0.5253907 1.77539,1.2246093 0,0.6992188 -1.16211,0.6992187 1.396485,1.8378904 0.617188,-0.349609 0.773437,-1.2246095 c 1.19387,-0.3690008 2.263684,-0.7878004 3.398438,-1.3125 l 0.814452,-2.3613281 z m -5.484375,0.1757812 -0.998047,0.1425782 -0.472656,0.46875 -0.775391,0.1132812 -0.691406,0.3242188 -0.335938,0.1621094 -0.205078,0.2753906 1.003906,0.1738281 L 16.53125,6.4863281 17.304688,6.3125 c 0.529421,-0.2574078 1.061298,-0.4316504 1.623046,-0.6132812 z m -4.560547,2.0976563 -0.154297,0.3496094 0.07617,0.875 -0.617188,0.5253906 -0.386719,0.9609375 0.773438,0 0.386719,-0.8730469 c 0.333277,-0.2356195 0.664462,-0.4743724 1.003906,-0.7011719 l 0.773437,0.2636719 c 0.51497,0.3497654 1.029526,0.6995952 1.544922,1.0488281 L 18.23242,9.0234375 17.380857,8.6738281 16.994139,7.8867188 l -1.46875,-0.1757813 -0.07617,-0.4375 -0.695313,0.1757813 -0.308594,0.6113281 z m 19.792968,0.6992187 -1.464843,0.3515626 -0.931641,0.6113281 0,0.5253906 -1.464844,0.9609375 0.306641,1.400391 0.853516,-0.613282 0.539062,0.613282 0.617188,0.349609 0.386718,-1.048828 -0.230468,-0.613281 0.230468,-0.4375 0.84961,-1.0722662 0.386719,0 -0.386719,1.1601562 0,0.78711 c 0.355079,-0.09661 0.720609,-0.12866 1.083984,-0.173828 l -1.005859,0.699218 -0.07617,0.4375 -1.158203,0.960938 -1.16211,-0.261719 0,-0.699219 -0.541015,0.34961 0.234375,0.811234 -0.851563,0 -0.46289,0.587203 -0.582032,0.654297 -1.041015,0.220703 0.617187,0.609375 0.15625,0.611328 -0.773437,0 -0.980472,0.525391 0,1.576172 0.439456,0 0.423828,0.480469 0.966797,-0.480469 0.384766,-0.962891 0.697265,-0.4375 0.154297,-0.349609 1.158203,-0.259766 0.619141,0.697266 0.695312,0.349609 -0.386718,0.78711 0.61914,-0.175782 0.308594,-0.783203 -0.773437,-0.875 0.310547,0 0.773437,0.609375 0.154297,0.875 0.693359,0.78711 0.154297,-1.138672 0.388672,-0.173828 c 0.382082,0.396527 0.682099,0.990814 1.003906,1.43708 l 1.158203,0.08789 0.697266,0.310967 -0.310547,0.4375 -0.695312,0.63616 -1.003907,0 -1.314453,-0.460379 -0.695312,0.08594 -0.5,0.570312 -1.431641,-1.443359 -1.005859,-0.261719 -1.46875,0.173828 -1.314453,0.34961 c -0.737161,0.835459 -2.079297,1.667494 -2.777006,2.535156 l -0.849609,2.013672 0.386719,0.435547 -0.695313,1.048828 0.773438,1.83789 c 0.657108,0.743102 1.927493,1.484882 2.583646,2.228516 l 0.96875,-0.830078 0.423828,0.482422 1.041015,-0.65625 0.34961,0.461492 1.758897,0 0.597656,0.60882 -0.369141,1.203125 0.736328,0.830078 -0.03906,1.44336 0.541016,1.050781 -0.578128,0.873047 c -0.03849,0.643412 -0.03907,1.282257 -0.03907,1.925781 0.316696,0.871804 0.844127,1.741068 1.143174,2.619141 l 0.295844,1.40039 0,0.701172 0.127352,0 0.42278,-0.52539 0.732422,0 c 0.273168,-0.190233 0.535917,-0.394345 0.798828,-0.597657 l 0.978516,-1.107421 -0.191407,-0.56836 1.00586,-0.876953 -0.736328,-0.828125 0.890625,-0.742188 0.750005,-0.527343 0.386719,-0.433594 -0.232422,-0.966797 0,-2.445312 0.794916,-1.488282 0.84961,-0.960937 0.927734,-2.273438 0,-0.613281 c -0.456968,0.05754 -0.902613,0.104273 -1.349609,0.136719 l 0.923828,-0.923828 1.27539,-0.875 0.697266,-0.785157 0,-0.875 c -0.154679,-0.291629 -0.309107,-0.58337 -0.464844,-0.875 l -0.61914,0.699219 -0.462891,-0.523437 -0.695312,-0.525391 0,-1.136719 0.8125,0.917969 0.888671,-0.130859 c 0.404831,0.367406 0.803125,0.718404 1.158204,1.136718 l 0.08789,-0.09961 C 43.482716,17.486207 41.47517,13.324306 38.4375,10.15625 38.269725,9.9843689 38.092667,9.7993495 37.955078,9.6640625 37.724135,9.4392605 37.481856,9.227136 37.240234,9.0136719 l -0.21875,0.359375 -0.773437,0.8750001 -1.003906,-1.2480472 1.003906,0 0.464844,-0.3261717 -1.855469,-0.3496093 z m -21.845703,0.029297 c -0.113126,0.0848 -0.228606,0.1667762 -0.339843,0.2539063 l 0.152343,0.6796875 c 0,0 -0.706767,0.077591 -1.115234,0.1308593 C 6.5989978,12.720635 4.0051013,18.030857 4,23.982422 4.1609659,24.247444 4.3203125,24.5 4.3203125,24.5 l 1.6230469,0.960938 1.625,0.439453 0.6933594,0.875 1.0820312,0.785156 0.6191406,-0.08594 0.4628904,0.208985 0,0.140625 -0.6171872,1.660156 -0.4648438,0.701172 0.1542969,0.349609 -0.4980474,1.310547 1.5019535,2.537109 0.992453,1.222657 0.617188,0.873047 -0.07617,1.83789 0.863016,1.048828 -0.25586,1.109375 c 0.89177,0.614561 1.842605,1.146031 2.832031,1.611329 l 0.361329,-0.359376 0.230468,-0.611328 1.00586,-0.351562 0.927731,-1.923828 -0.386716,-0.523438 0.539063,-1.087568 1.016763,-0.263672 0.687497,-1.097978 -0.222653,-1.746094 1.412208,-1.3125 0.15625,-1.3125 C 19.9337,30.867132 18.331523,30.219821 17.072268,29.572264 l -0.619141,-1.22461 -1.158203,-0.119083 -0.617188,-1.445486 -1.544922,0.173828 -1.314453,-1.528342 -1.392578,1.432755 0,0.19336 C 10.004788,26.933211 9.488126,26.917913 9.1132812,26.6875 l -0.3105468,-0.875 0,-0.962891 L 7.875,24.9375 c 0.077394,-0.61238 0.1564513,-1.223664 0.234375,-1.835938 l -0.5410156,0 -0.5410156,0.699219 -0.5410157,0.261719 -0.7734375,-0.435547 -0.078125,-0.962891 0.1542969,-1.048828 1.1601563,-0.875 0.9257812,0 0.1542969,-0.52539 1.1601562,0.261718 0.7494214,1.050782 0.1562505,-1.75 1.568937,-1.222656 0.541016,-1.678671 1.080078,-0.03775 0.619141,-0.504923 1.390625,-0.265625 0.695312,-1.046875 -2.085937,0 1.314453,-1.020845 0.925781,0 1.314453,-0.429687 0.154297,-0.523437 -0.464843,-0.4375 -0.541016,-0.175781 0.15625,-0.523438 -0.386719,-0.787109 -0.927734,0.347656 0.154297,-0.699219 -1.082032,-0.611328 -0.847656,1.486328 0.07617,0.525391 -0.851562,0.349609 -0.541016,1.136719 -0.230469,-1.048828 -1.46875,-0.613281 -0.232422,-0.78711 1.931641,-1.136718 0.851562,-0.7871098 0.07617,-0.9609374 -0.46289,-0.2636719 z m 15.114129,0.6239726 -1.11934,0.3496094 -0.506202,-0.087891 -0.002,0 -0.07813,0.5253906 0.74253,0.3496094 1.425981,-0.6132813 -0.462891,-0.5234375 z m -11.129754,0.6592305 -0.617187,0.4375 0.771484,0.5253907 0.619141,0 0,-0.6132813 z m 12.208985,2.0117187 0,0.525391 0.310547,0.349609 0,0.787109 -0.15625,1.048828 0.851562,-0.173828 0.617188,-0.613281 -0.541016,-0.523437 C 29.099568,12.21359 28.891455,11.760782 28.664062,11.296875 Z m -0.306641,1.048828 -0.542969,0.175781 0.15625,0.960938 0.69336,-0.347656 z m -10.664062,1.576172 0.230468,1.220703 0.462891,-0.697266 z m 20.177734,6.818359 0.890625,1.00586 1.042969,2.228515 0.617187,0.701172 -0.310547,0.785157 0.587891,0.666015 c -0.269928,0.01823 -0.538857,0.03711 -0.816406,0.03711 -0.492109,-1.033775 -0.861574,-2.068895 -1.236328,-3.15039 l -0.857813,-0.742188 -0.347657,-1.269531 z"/>
  </g>
 </g>
 <path style="opacity:0.2;fill:#8b9cbe" d="M 32 4 C 16.488 4 4 16.488 4 32 C 4 32.11345 4.0112805 32.224113 4.0175781 32.335938 C 4.3691213 17.134181 16.710728 5 32 5 C 47.289272 5 59.630879 17.134181 59.982422 32.335938 C 59.98872 32.224113 60 32.11345 60 32 C 60 16.488 47.512 4 32 4 z"/>
</svg>
