<svg xmlns="http://www.w3.org/2000/svg" width="64" height="64" version="1.1">
 <rect style="opacity:0.2" width="56" height="56" x="4" y="5" rx="2.8" ry="2.8"/>
 <rect style="fill:#4f4f4f" width="56" height="56" x="4" y="4" rx="2.8" ry="2.8"/>
 <path style="opacity:0.2" d="M 28.76163,55.226135 C 15.470506,48.249675 9.8468044,40.620689 12.74234,33.494731 15.524,26.649011 25.553012,19.805223 43.184206,12.721237 c 3.81577,-1.533126 9.43096,-3.6082338 9.52077,-3.5184238 0.0287,0.0287 -1.756454,1.0362098 -3.96711,2.2388098 -9.820482,5.342343 -20.299818,12.768532 -23.218776,16.454032 l -0.80871,1.021062 2.182768,-1.464834 c 3.027808,-2.031932 7.417942,-4.408544 11.30451,-6.119722 3.429132,-1.509788 11.021122,-4.422489 11.512956,-4.416987 0.15646,0.0014 -0.645932,0.507962 -1.78311,1.124914 -6.82549,3.703057 -14.785736,10.043069 -17.81101,14.185779 -0.876596,1.20038 -0.906794,1.21127 1.999998,-0.72103 1.137178,-0.755944 3.192476,-2.00297 4.567346,-2.77117 2.619232,-1.46349 8.093148,-4.10718 8.227002,-3.973326 0.04284,0.04284 -0.765968,0.641956 -1.797362,1.331358 -4.210304,2.814308 -9.85299,7.867264 -11.694634,10.47241 -0.543886,0.76937 -0.485478,0.748092 1.501248,-0.546922 1.914388,-1.247866 8.750994,-4.753654 9.270044,-4.753654 0.12558,0 -0.584626,0.604572 -1.57808,1.343492 -4.04173,3.006182 -8.602524,7.628264 -10.242568,10.380214 -0.506548,0.849958 -1.103494,2.28497 -1.32657,3.188916 -0.370832,1.502724 -0.373604,1.80585 -0.03234,3.538034 0.358344,1.818892 1.09368,3.577698 2.496774,5.971894 0.360458,0.615078 0.562884,1.116336 0.449834,1.113908 -0.11298,-0.0024 -1.551046,-0.710664 -3.195542,-1.573856 z"/>
 <path style="fill:#e03035" d="M 28.76163,54.226138 C 15.470506,47.249678 9.8468044,39.620692 12.74234,32.494734 15.524,25.649014 25.553012,18.805225 43.184206,11.72124 c 3.81577,-1.533126 9.43096,-3.6082344 9.52077,-3.5184244 0.0287,0.0287 -1.756454,1.03621 -3.96711,2.2388104 -9.820482,5.342343 -20.299818,12.768532 -23.218776,16.454032 l -0.80871,1.021062 2.182768,-1.464834 c 3.027808,-2.031932 7.417942,-4.408544 11.30451,-6.119722 3.429132,-1.509789 11.021122,-4.422489 11.512956,-4.416987 0.15646,0.0014 -0.645932,0.507962 -1.78311,1.124914 -6.82549,3.703057 -14.785736,10.043069 -17.81101,14.185779 -0.876596,1.20038 -0.906794,1.21127 1.999998,-0.72103 1.137178,-0.755944 3.192476,-2.00297 4.567346,-2.77117 2.619232,-1.46349 8.093148,-4.10718 8.227002,-3.973326 0.04284,0.04284 -0.765968,0.641956 -1.797362,1.331358 -4.210304,2.814308 -9.85299,7.867264 -11.694634,10.47241 -0.543886,0.76937 -0.485478,0.748092 1.501248,-0.546922 1.914388,-1.247866 8.750994,-4.753654 9.270044,-4.753654 0.12558,0 -0.584626,0.604572 -1.57808,1.343492 -4.04173,3.006182 -8.602524,7.628264 -10.242568,10.380214 -0.506548,0.849958 -1.103494,2.28497 -1.32657,3.188916 -0.370832,1.502724 -0.373604,1.80585 -0.03234,3.538034 0.358344,1.818892 1.09368,3.577698 2.496774,5.971894 0.360458,0.615078 0.562884,1.116336 0.449834,1.113908 -0.11298,-0.0024 -1.551046,-0.710664 -3.195542,-1.573856 z"/>
 <path style="opacity:0.2" d="m 34.731836,17.753122 c -0.04618,-0.04634 -0.988352,0.385582 -2.597656,1.241407 -14.052445,7.47306 -19.629478,13.77547 -17.959376,20.294532 0.7462,2.91268 2.857883,5.796564 6.409376,8.760936 1.279782,1.068216 2.378474,1.94414 2.441796,1.94414 0.06328,0 -0.725176,-0.835738 -1.752734,-1.85664 -5.36886,-5.334158 -7.012075,-10.269652 -4.921875,-14.7875 1.96973,-4.25743 8.682969,-10.10461 16.756251,-14.593359 1.154226,-0.641753 1.660142,-0.96747 1.624218,-1.003516 z m 1.632422,5.816015 c -0.209316,0.0586 -1.686932,0.876488 -3.683204,2.053516 -9.813132,5.785924 -12.787596,9.899646 -11.407812,15.766408 l 0.451172,1.91406 0.15586,-2.553906 c 0.0861,-1.404748 0.337836,-3.041804 0.560548,-3.639452 1.3265,-3.559742 5.029204,-7.420996 11.09336,-11.563672 1.175034,-0.802704 2.341402,-1.596446 2.589454,-1.766408 0.239308,-0.16398 0.310396,-0.230078 0.240622,-0.210546 z m -0.96797,7.013674 c -0.02616,-0.07388 -0.77964,0.407244 -2.258592,1.451952 -3.844974,2.716038 -5.315208,4.780024 -5.78047,8.10742 l -0.13672,0.973438 0.325392,-0.855858 c 0.1794,-0.469678 0.659144,-1.511968 1.066404,-2.31875 0.966672,-1.914968 2.426462,-3.623404 4.678516,-5.476952 1.431654,-1.178324 2.131616,-1.807378 2.105468,-1.88125 z m -1.471092,5.835154 c -0.0457,-0.0092 -0.266024,0.13006 -0.634376,0.38008 -2.007544,1.362638 -3.07941,2.639392 -3.516406,4.19453 -0.1232,0.438344 -0.0062,0.348666 0.415624,-0.325392 0.322168,-0.514316 1.397456,-1.76176 2.389846,-2.772654 1.011972,-1.030838 1.421474,-1.46145 1.345312,-1.476564 z"/>
 <path style="fill:#8b9cbe" d="m 34.731836,16.753125 c -0.04618,-0.04634 -0.988352,0.385582 -2.597656,1.241407 -14.052445,7.47306 -19.629478,13.77547 -17.959376,20.294532 0.7462,2.91268 2.857883,5.796564 6.409376,8.760936 1.279782,1.068216 2.378474,1.94414 2.441796,1.94414 0.06328,0 -0.725176,-0.835738 -1.752734,-1.85664 -5.36886,-5.334158 -7.012075,-10.269652 -4.921875,-14.7875 1.96973,-4.25743 8.682969,-10.10461 16.756251,-14.593359 1.154226,-0.641753 1.660142,-0.96747 1.624218,-1.003516 z m 1.632422,5.816015 c -0.209316,0.0586 -1.686932,0.876488 -3.683204,2.053516 -9.813132,5.785924 -12.787596,9.899646 -11.407812,15.766408 l 0.451172,1.91406 0.15586,-2.553906 c 0.0861,-1.404748 0.337836,-3.041804 0.560548,-3.639452 1.3265,-3.559742 5.029204,-7.420996 11.09336,-11.563672 1.175034,-0.802704 2.341402,-1.596446 2.589454,-1.766408 0.239308,-0.16398 0.310396,-0.230078 0.240622,-0.210546 z m -0.96797,7.013674 c -0.02616,-0.07388 -0.77964,0.407244 -2.258592,1.451952 -3.844974,2.716038 -5.315208,4.780024 -5.78047,8.10742 l -0.13672,0.973438 0.325392,-0.855858 c 0.1794,-0.469678 0.659144,-1.511968 1.066404,-2.31875 0.966672,-1.914968 2.426462,-3.623404 4.678516,-5.476952 1.431654,-1.178324 2.131616,-1.807378 2.105468,-1.88125 z m -1.471092,5.835154 c -0.0457,-0.0092 -0.266024,0.13006 -0.634376,0.38008 -2.007544,1.362638 -3.07941,2.639392 -3.516406,4.19453 -0.1232,0.438344 -0.0062,0.348666 0.415624,-0.325392 0.322168,-0.514316 1.397456,-1.76176 2.389846,-2.772654 1.011972,-1.030838 1.421474,-1.46145 1.345312,-1.476564 z"/>
 <path style="opacity:0.1;fill:#8b9cbe" d="M 6.8007812 4 C 5.2495812 4 4 5.2495812 4 6.8007812 L 4 7.8007812 C 4 6.2495813 5.2495812 5 6.8007812 5 L 57.199219 5 C 58.750419 5 60 6.2495812 60 7.8007812 L 60 6.8007812 C 60 5.2495813 58.750419 4 57.199219 4 L 6.8007812 4 z"/>
</svg>
