<svg xmlns="http://www.w3.org/2000/svg" width="64" height="64" version="1.1">
 <rect width="56" height="56" x="4" y="5" rx="5.6" ry="5.6" style="opacity:0.2"/>
 <rect style="fill:#4cc4de" width="56" height="56" x="4" y="4" rx="5.6" ry="5.6"/>
 <path style="opacity:0.1" d="m 32.613242,5.0011922 c -0.645447,0.01272 -1.283146,0.070744 -1.914061,0.1874997 -0.353604,0.065404 -0.705893,0.034012 -1.050779,0.1367178 -0.373463,0.1114279 -0.741177,0.3606265 -1.10156,0.5195305 -4.301378,1.8990912 -7.495094,5.3791228 -8.76952,9.9296738 -4.84e-4,9.69e-4 -0.523233,1.951856 -0.132812,3.33984 0.0184,1.374904 -0.143048,2.807438 0.40625,4.08593 0.12014,0.279537 0.17142,0.771613 0.11718,1.097656 -0.0804,0.488338 -0.488885,0.912429 -0.624998,1.386716 -0.302744,1.056613 -0.434652,2.154565 -0.566406,3.242184 -0.122555,1.010586 -0.464079,2.124187 -0.429686,3.136713 0.01022,0.294554 0.07584,0.556524 0.03516,0.851561 -0.197146,1.41899 -0.651554,2.8119 -0.917968,4.22265 -0.111888,0.592979 -0.220123,1.193719 -0.269531,1.796874 -0.06733,0.834727 0.221584,1.745755 0.999999,2.136715 -0.05425,1.216968 -0.213368,3.284465 0.578124,4.312494 0.575455,0.746557 1.096348,1.535124 1.480465,2.398434 0.1613,0.361894 0.267286,0.836405 0.656251,1.019531 0.442246,0.208804 1.168125,-0.0086 1.613278,-0.09766 l 1.906247,-1.691406 c -0.450769,3.875013 -0.944148,7.746016 -1.378904,11.621078 0.288858,0.960635 1.107383,2.245469 2.152341,2.363279 3.035888,0.0052 6.069566,-0.0052 9.105456,0 -1.631944,-1.49099 -3.014704,-3.2739 -4.320306,-5.042961 -0.38651,-1.399274 0.532083,-2.708288 0.812499,-4.04687 0.744666,-2.729015 1.457785,-5.472131 2.460934,-8.121083 0.625117,-1.310696 0.579285,-2.801342 1.171872,-4.101556 0.27346,-0.702763 0.718559,-1.308088 1.128905,-1.933592 -0.260184,1.196777 -0.949687,2.276135 -1.285154,3.367184 0.531477,-0.422878 1.369726,-1.80481 0.777343,-0.53125 -0.54579,0.290878 -1.293981,1.809678 -0.238282,0.992187 0.0036,-0.0068 0.0078,-0.0088 0.0118,-0.0156 l -0.414062,0.792969 c -0.428997,0.250382 -0.746748,0.599601 -0.703125,1.335934 -0.413227,1.453856 -1.049068,2.831222 -1.281248,4.332026 -0.07736,0.19108 -0.09298,0.31435 -0.07422,0.406249 l -0.08594,0.480468 -0.0118,0.004 c -0.104999,0.241149 -0.124259,0.386765 -0.07422,0.464843 l -0.15626,0.874999 c -0.346948,1.14427 -0.3852,2.52705 -0.691405,3.710933 0.0803,1.099452 -1.024171,2.43799 -0.004,3.265621 1.089786,1.285632 2.159323,2.740694 3.468745,3.765619 3.211209,0.0092 6.425495,-0.009 9.636704,0 -1.074358,-1.715942 -2.235298,-3.547101 -2.222652,-5.652336 -0.06796,-1.422568 -0.02832,-2.889166 -0.257812,-4.300774 l 0.03516,0.004 c 0.05068,-0.903943 -0.28211,-1.806988 -0.851561,-2.710934 0.528405,0.114519 1.054945,0.157119 1.578122,-0.14844 2.025859,-0.923879 3.501315,-3.00522 3.695309,-5.222649 0.04702,-1.614794 -1.609996,-2.358841 -2.734372,-3.144527 C 42.16827,38.655588 40.432476,37.52054 38.913904,36.102918 38.581661,35.817946 38.276185,35.503863 37.9725,35.188857 l 0.16406,-0.14452 c -0.590172,-0.579913 -1.261667,-1.259602 -1.562498,-1.664061 0,0 -0.1084,-1.368115 -0.292968,-1.671872 0.642785,-0.15648 1.2852,-0.347642 1.898435,-0.593749 0.500376,-0.200566 0.946843,-0.511398 1.441404,-0.718749 0.382668,-0.16084 0.904501,-0.16908 1.234373,-0.433594 0.349729,-0.280989 0.197339,-1.099348 0.207031,-1.499998 0.0188,-0.80033 0.05916,-1.597617 0.07032,-2.398434 0.0102,-0.741227 0.926189,-1.486352 1.281249,-2.109371 1.199346,-2.101111 0.251411,-4.73271 0.183599,-6.999991 -0.02374,-0.806146 0.439944,-1.722314 0.683593,-2.484372 0.16954,-0.530487 0.338278,-1.062292 0.507812,-1.593748 C 44.035548,8.8667764 40.637295,6.4428376 37.007766,5.5441602 36.596035,5.441945 36.180155,5.5157167 35.757768,5.4386916 35.360092,5.3665119 34.957657,5.1399968 34.554646,5.0949421 33.910648,5.0227568 33.258693,4.9884754 32.613242,5.0011922 Z m 5.128899,30.3905828 c 0.11052,0.12992 0.212412,0.266421 0.320312,0.398435 l -0.05468,0.10548 c -0.11448,-0.14534 -0.2491,-0.271844 -0.367188,-0.414061 z M 18.417949,38.61052 v 2.246091 c 0,0 -1.440571,-0.742321 0,-2.246091 z m 4.617181,11.890608 c -0.648393,0.183819 -0.36801,1.824947 -0.10938,0.601561 0.250865,-0.2793 1.765539,-0.532965 0.445311,-0.578123 -0.13336,-0.04588 -0.243309,-0.0497 -0.335937,-0.02344 z m 0.773437,0.742187 c -0.883787,0.583295 -2.193729,1.166196 -2.027342,2.445308 -0.245975,0.866053 1.520254,1.856912 1.624998,0.839843 0.229958,-0.592885 -0.827411,0.353819 -1.156248,-0.449217 -0.546927,-1.335623 1.022422,-1.92234 1.546874,-2.699217 z"/>
 <path style="fill:#3c3c3c" d="m 32.614248,4.0039231 c -0.645447,0.01272 -1.285878,0.071944 -1.916793,0.1886997 -0.353604,0.065404 -0.705113,0.034034 -1.049999,0.1367398 -0.373463,0.1114279 -0.738831,0.3607043 -1.099216,0.5196083 -4.301376,1.8990912 -7.497438,5.3767061 -8.771865,9.9272571 -4.84e-4,9.69e-4 -0.52167,1.95392 -0.131249,3.341903 0.0184,1.374904 -0.14461,2.804533 0.404688,4.083028 0.12014,0.279535 0.17182,0.773341 0.11758,1.099384 -0.0804,0.488337 -0.490058,0.912245 -0.626171,1.386532 -0.302744,1.056613 -0.431527,2.153099 -0.563281,3.240718 -0.122556,1.010586 -0.466422,2.124267 -0.432029,3.136793 0.01022,0.294554 0.07623,0.558213 0.03555,0.853251 -0.197146,1.41899 -0.649599,2.811752 -0.916013,4.222504 -0.111888,0.592979 -0.221295,1.193596 -0.270703,1.796752 -0.06733,0.834726 0.219631,1.747637 0.998045,2.138597 -0.05425,1.216968 -0.211804,3.284721 0.579687,4.31275 0.575455,0.746557 1.095175,1.535093 1.479294,2.398404 0.1613,0.361894 0.267286,0.834213 0.656249,1.017339 0.442248,0.208803 1.170861,-0.0066 1.616014,-0.09572 L 38.134947,34.045496 c -0.590172,-0.579911 -1.260495,-1.258288 -1.561326,-1.662748 0,0 -0.10802,-1.367194 -0.292578,-1.670951 0.642785,-0.15648 1.287152,-0.350076 1.900387,-0.596183 0.500376,-0.200566 0.946453,-0.509162 1.441014,-0.716513 0.382668,-0.16084 0.903331,-0.17032 1.233203,-0.434828 0.349729,-0.280989 0.195379,-1.098012 0.205077,-1.498662 0.0188,-0.800331 0.05994,-1.600322 0.0711,-2.401138 0.0102,-0.741227 0.927361,-1.485496 1.282421,-2.108515 1.199346,-2.101111 0.251017,-4.731025 0.183199,-6.998306 -0.02374,-0.806146 0.439944,-1.72386 0.683593,-2.485918 0.16954,-0.530487 0.339058,-1.062921 0.508592,-1.594377 C 44.03617,7.8679527 40.637905,5.4440873 37.008376,4.5454099 36.596645,4.4431947 36.178421,4.5185132 35.756034,4.4414881 35.358358,4.3693084 34.955931,4.1419609 34.55292,4.0969062 33.908922,4.0247209 33.259699,3.9912063 32.614248,4.0039231 Z M 18.417393,37.611653 v 2.247991 c 0,0 -1.440571,-0.744221 0,-2.247991 z"/>
 <path style="fill:#e2a67f" d="m 28.124411,26.836614 c -0.0396,-0.0068 -0.10282,-7.36e-4 -0.202344,0.02462 -1.228936,0.19128 0.765855,1.51176 -0.10118,2.403873 -0.796251,1.614389 -1.808707,3.122343 -2.816398,4.608107 -1.480074,2.383229 -1.300852,5.400589 -0.483987,7.977357 0.297191,1.062849 0.217469,-0.462541 0.300781,-0.853251 -0.387977,-1.281954 -0.787069,-2.62776 -0.541405,-3.99278 -0.12166,-0.741983 1.337932,-2.788566 0.568749,-1.121261 -0.469947,1.376847 -0.403651,2.918288 0.06288,4.285402 0.224016,-1.231938 0.623671,-2.430024 0.943357,-3.631788 -0.318668,-0.733191 0.381443,-1.564786 0.311719,-0.287154 -0.481981,2.030985 -0.984566,4.065734 -1.118356,6.155993 -0.517421,5.085917 -1.229468,10.151716 -1.799218,15.229999 0.288858,0.960635 1.106993,2.245041 2.151951,2.362851 3.035888,0.0052 6.0723,-0.0052 9.10819,0 -1.631944,-1.49099 -3.017438,-3.273876 -4.32304,-5.042937 -0.38651,-1.399274 0.534427,-2.706158 0.814843,-4.044741 0.744666,-2.729014 1.455049,-5.47335 2.458198,-8.122302 0.625117,-1.310696 0.580459,-2.799224 1.173046,-4.099438 0.27346,-0.702763 0.718949,-1.310721 1.129295,-1.936224 -0.260184,1.196777 -0.949687,2.275467 -1.285154,3.366516 0.531477,-0.422878 1.371678,-1.804108 0.779295,-0.530548 -0.54579,0.290878 -1.296323,1.810216 -0.240624,0.992725 0.0036,-0.0068 0.0098,-0.0096 0.0138,-0.0164 l -0.415624,0.795821 c -0.428997,0.250381 -0.746358,0.598241 -0.702735,1.334574 -0.413227,1.453856 -1.05024,2.83109 -1.28242,4.331894 -0.07736,0.19108 -0.09258,0.315583 -0.07382,0.407483 l -0.328123,1.824098 c -0.346948,1.14427 -0.382858,2.527216 -0.689063,3.711099 0.0803,1.099452 -1.025665,2.434966 -0.0054,3.262595 1.089786,1.285632 2.160495,2.740868 3.469917,3.765793 3.211209,0.0092 6.421979,-0.009 9.633188,0 -1.074358,-1.715942 -2.232954,-3.547557 -2.220308,-5.652792 -0.06796,-1.422568 -0.03028,-2.88747 -0.259764,-4.299078 l 0.03554,0.0028 c 0.05214,-0.929801 -0.29418,-1.859674 -0.894141,-2.789476 l 3.631245,-5.882514 -6.77577,-6.752177 -0.14218,0.273478 c -0.451026,-0.572585 -0.927495,-1.124049 -1.449216,-1.62993 0.0134,0.779001 -0.917711,2.79245 -0.582421,0.995461 0.165019,-1.436072 0.415417,-3.0702 -0.637162,-4.255386 -0.853242,-1.022173 -1.893693,-2.404219 -3.398823,-2.209703 -1.04108,0.764215 -1.689525,-0.386818 -2.805466,-0.596183 -0.511075,-0.02422 -1.530862,1.090524 -1.017184,-0.11212 0.02416,-0.09708 0.124279,-0.234052 0.0054,-0.254334 z"/>
 <path style="fill:#f55588" d="m 36.631039,32.795704 c -0.103,0.441599 0.432911,0.663137 0.631953,1.000702 1.291836,1.437376 2.442228,3.00095 3.302807,4.73687 0.818025,1.434164 1.206928,3.187311 0.598827,4.772191 -0.396581,1.048797 -0.864766,2.184231 -1.772415,2.884512 -0.779325,0.23386 -1.618442,0.244554 -2.397047,0.520237 l -4.53951,1.206095 c -0.230611,0.529657 -0.08728,0.665985 0.430024,0.408957 1.933695,-0.586209 3.905046,-1.046714 5.886576,-1.433086 1.410272,-0.251674 2.784692,1.092977 4.145738,0.29806 2.025859,-0.923879 3.501705,-3.002278 3.695699,-5.219707 0.04702,-1.614794 -1.610314,-2.360443 -2.73469,-3.14613 -1.710472,-1.166074 -3.446894,-2.300366 -4.965466,-3.717988 -0.822552,-0.705521 -1.517915,-1.545084 -2.282496,-2.310713 z m -13.258964,16.73139 c -1.066938,-0.367075 -0.741287,1.977932 -0.445703,0.579776 0.250865,-0.2793 1.765931,-0.534618 0.445703,-0.579776 z m 0.434764,0.719249 c -0.883787,0.583296 -2.192959,1.166081 -2.026572,2.445193 -0.245975,0.866053 1.519394,1.856359 1.624138,0.839291 0.229958,-0.592885 -0.825177,0.353007 -1.154014,-0.45003 -0.546927,-1.335622 1.023566,-1.919783 1.548016,-2.69666 l 0.0084,-0.13778 z"/>
 <path style="fill:#e2a57d" d="m 30.696837,25.633748 1.789335,1.659765 c 1.271371,0.478374 2.571293,1.079371 3.957655,1.032495 0.821501,-0.0076 1.394244,-0.703733 1.640088,-1.424132 0.811882,-2.127935 1.827765,-4.191958 2.377062,-6.410125 0.10082,-0.614081 0.22501,-1.274159 0.0592,-1.881562 0.04198,0.224766 -0.246079,0.919496 -0.756769,0.584474 -0.302573,-0.08389 -0.613079,-0.142686 -0.91042,-0.243098 -0.0172,0.730377 -0.272364,-0.301878 -0.0354,-0.694982 0.316227,-0.648927 0.82533,-1.357679 1.630853,-1.311563 0.782411,-0.08586 0.645645,-0.929983 0.537026,-1.48709 -0.177066,-0.907811 -0.344484,-1.819962 -0.525398,-2.725075 -0.187543,-0.312555 -0.581025,-0.923841 -0.735475,-1.022541 -0.255471,0.93725 -0.436417,1.891357 -0.487911,2.862356 -0.1663,1.696664 -0.806699,2.987018 -1.52613,4.201509 -0.428693,0.758949 -1.06235,1.502032 -1.982521,1.614522 -0.673055,0.05078 -1.16639,0.242914 -1.466288,0.880417 -0.581163,0.665775 -1.293224,1.484758 -1.018215,2.440633 0.18066,0.749734 -0.403279,-0.801393 -0.08528,-1.148379 0.241161,-0.727011 0.825666,-1.255186 1.24757,-1.873981 -0.659797,-8.8e-5 -1.164877,0.559783 -1.50742,1.063396 -0.285786,0.862335 -0.603753,1.922366 -0.0162,2.733272 0.13752,0.265918 0.563357,0.785047 0.07194,0.339424 -0.642991,-0.610595 -0.901665,-1.512852 -0.822577,-2.380895 -0.03112,-0.462607 0.320422,-1.172936 -0.266672,-0.638531 -0.173359,0.14354 -0.442925,0.235472 -0.560383,0.40897 l 0.0106,2.867464 -0.618079,0.553255"/>
 <path style="fill:#f89dba" d="m 23.860655,35.78371 c 0.07944,0.0901 -0.11576,0.567305 -0.17292,1.228596 -0.03876,0.453939 -0.09542,0.903519 -0.10656,1.360852 -0.02714,1.080834 0.08816,2.163607 0.403497,3.200841 0.14192,0.466536 0.388964,0.894801 0.60597,1.328395 v 0.564397 c -0.646658,-1.219874 -1.267163,-2.378707 -1.461886,-3.767659 -0.06442,-0.456849 -0.08766,-0.919511 -0.07314,-1.380234 0.02664,-0.852653 0.406887,-2.076403 0.805055,-2.535188"/>
 <path style="fill:#040606" d="m 23.860655,35.78371 -0.0048,0.004 0.0174,0.07122 c 0,0.1749 -0.14386,0.600248 -0.19134,1.153021 -0.03922,0.453939 -0.09542,0.903519 -0.10704,1.361336 -0.0024,0.0998 -0.004,0.200084 -0.004,0.299884 0,0.981518 0.12158,1.961101 0.407855,2.902895 0.14192,0.467022 0.389934,0.895769 0.606456,1.329363 l 0.0054,-0.003 h -0.0058 v 0.564397 h 0.0058 l 0.0054,-0.0024 c -0.64666,-1.220358 -1.266679,-2.378223 -1.461402,-3.766205 -0.05182,-0.369645 -0.07702,-0.743649 -0.07702,-1.11717 0,-0.0872 0.0014,-0.1744 0.004,-0.261608 0.02664,-0.851685 0.407371,-2.075437 0.803603,-2.531798 l -0.0044,-0.004 -0.0048,0.004 0.0048,-0.004 -0.0048,-0.004 c -0.399138,0.461207 -0.779383,1.684473 -0.806509,2.539064 -0.003,0.0872 -0.004,0.1744 -0.004,0.262094 0,0.374005 0.02518,0.748495 0.07702,1.119108 0.195199,1.390406 0.816196,2.549723 1.462856,3.769597 l 0.0116,-0.003 v -0.564397 -0.0014 l -9.68e-4,-9.7e-4 C 24.37896,42.46566 24.13192,42.037397 23.990478,41.571829 23.704205,40.631491 23.583107,39.65336 23.583107,38.67281 c 0,-0.0998 0.0014,-0.200084 0.004,-0.299884 0.0116,-0.456845 0.06782,-0.905943 0.10706,-1.360366 0.04698,-0.551803 0.191339,-0.974255 0.191339,-1.153989 l -0.02034,-0.07898 -0.0044,-0.0054 -0.005,0.0054 0.005,0.004"/>
 <path style="fill:#f89dba" d="m 29.163745,26.895286 1.885243,1.036265 0.320666,-0.12692 -1.831475,-1.197107 -0.374434,0.28777"/>
 <path style="fill:#040606" d="m 29.163745,26.895286 -0.003,0.0054 1.887665,1.037719 0.323572,-0.12838 0.0106,-0.0044 -1.845037,-1.205343 -0.385092,0.296006 0.0082,0.0044 0.003,-0.0054 0.0034,0.0048 0.371042,-0.285348 1.818399,1.188385 -0.307588,0.12208 -1.882337,-1.035295 -0.003,0.0054 0.0034,0.0048 -0.0034,-0.0048"/>
 <path style="fill:#f89dba" d="m 28.274408,26.647726 0.15354,-0.374003 -0.514905,0.300849 0.361355,0.07314"/>
 <path style="fill:#040606" d="m 28.274408,26.647726 0.0054,0.0024 0.15404,-0.374487 0.0068,-0.0164 -0.544453,0.318291 0.376855,0.07606 0.0048,9.68e-4 0.002,-0.0044 -0.0054,-0.0024 9.7e-4,-0.0058 -0.345369,-0.07026 0.485355,-0.283893 -0.14676,0.358017 0.0058,0.002 9.7e-4,-0.0058 -9.7e-4,0.0058"/>
 <path style="fill:#8b9cbe" d="m 28.364988,27.18548 2.668014,-2.213023 -0.0649,-4.067541 -2.603107,6.280564"/>
 <path style="fill:#040606" d="m 28.364988,27.18548 0.004,0.0044 2.670436,-2.214477 -0.0654,-4.070933 -0.0116,-0.002 -2.602623,6.280564 0.0092,0.0068 -0.004,-0.0044 0.0058,0.002 2.591483,-6.253434 0.06442,4.035569 -2.665594,2.211083 0.004,0.005 0.0058,0.002 -0.0058,-0.002"/>
 <path style="fill:#e2a57d" d="m 29.709652,26.457817 0.694615,-0.574088 1.518074,1.659284 -0.390417,0.18458 -1.822272,-1.269776"/>
 <path style="fill:#f03a25" d="m 35.230237,24.885255 c 0,0 1.43137,-0.694235 2.104185,-0.813413 0,0 0.271257,-0.08672 0.520235,0.08672 0,0 0.09784,0.08672 0.336165,0.05426 0.14096,-0.0188 0.27901,-0.1308 0.420934,-0.07414 0.16034,0.06444 0.212648,0.290677 0.17584,0.442797 l -0.260116,0.412278 c -0.0494,0.07898 0.0072,0.367707 -0.0086,0.484945 -0.02422,0.17392 -0.09446,0.311512 -0.220882,0.433111 -0.188419,0.18118 -0.404465,0.218976 -0.656833,0.22915 -0.545905,0.02228 -0.955698,-0.04506 -1.390682,-0.395805 -0.362323,-0.2931 -0.558015,-0.699079 -1.020122,-0.859921"/>
 <path style="fill:#8b9cbe" d="m 36.248907,25.233582 c 0,0 0.699457,0.507232 0.768241,0.438924 0,0 0.08234,0.1337 -0.13368,0.1337 0,0 -0.455811,-0.18168 -0.634549,-0.572636"/>
 <path style="fill:#8b9cbe" d="m 38.22909,25.598382 c 0,0 -0.03246,0.10948 0.07412,0.05378 0.10656,-0.05524 0.0838,-0.23012 0.0838,-0.23012 0,0 0.003,0.0843 -0.15792,0.17634"/>
 <path style="fill:#de9262" d="m 39.331075,17.874122 c 0,0 0.18698,-0.340092 0.662645,-0.340092 0,0 0.429167,0.05522 0.645689,-0.161327 0,0 0.10656,0.335732 -0.10172,0.544051 0,0 -0.212162,0.186518 -1.206612,-0.04263"/>
 <path style="fill:#e2a57d" d="m 39.331075,17.874122 c 0.03118,-0.02331 0.05872,-0.08219 0.09632,-0.111426 0.14704,-0.149644 0.358421,-0.225091 0.566311,-0.222819 0.0242,0.0017 0.10586,0.0095 0.15066,0.006 0.176999,-0.0049 0.368033,-0.04138 0.499389,-0.169254 -0.02102,-4.07e-4 0.0136,0.06591 0.0096,0.09092 0.02276,0.155356 -0.0034,0.330469 -0.11964,0.4448 -0.0096,0.01064 -0.08406,0.04116 -0.1186,0.04564 -0.218455,0.04424 -0.443725,0.0203 -0.662465,-0.0092 -0.14116,-0.02071 -0.281207,-0.04855 -0.420211,-0.08058 -0.011,0.01826 0.03162,0.01658 0.05834,0.02554 0.289037,0.06173 0.584367,0.113918 0.881017,0.0967 0.0922,-0.0088 0.190599,-0.01792 0.270275,-0.06929 0.12852,-0.126784 0.15026,-0.32308 0.11716,-0.492882 -0.0084,-0.02202 -0.0072,-0.09586 -0.03716,-0.04691 -0.13352,0.118258 -0.319311,0.14949 -0.492077,0.152692 -0.08122,0.0018 -0.16224,-0.01372 -0.243212,-2.81e-4 -0.22613,0.02372 -0.446079,0.147476 -0.564885,0.344258 0.0062,9.94e-4 0.0086,0.005 0.009,-0.0039"/>
 <path style="fill:#8b9cbe" d="m 38.855406,18.868238 c 0.150159,0.04311 0.301289,0.08333 0.452419,0.123046 0.233476,0.06153 0.535733,0.179734 0.775507,0.09932 0.19328,-0.06492 0.1768,-0.280988 0.1831,-0.446189 0.0058,-0.145824 0.0116,-0.362861 -0.14532,-0.434562 l -0.36523,-0.04749 c 0,0 0.0044,0.47235 -0.323087,0.561491 0,0 -0.276102,0.08091 -0.509578,-0.15309 0,0 -0.06782,0.101738 -0.06782,0.297461"/>
 <path style="fill:#040606" d="m 38.855406,18.868238 -0.002,0.0063 c 0.150639,0.04311 0.301773,0.08285 0.452903,0.12257 0.17728,0.04698 0.394777,0.126924 0.595799,0.126924 0.06344,0 0.12498,-0.0083 0.1831,-0.02761 0.1986,-0.06734 0.18116,-0.287771 0.18698,-0.452004 l 0.0024,-0.08914 c 0,-0.1337 -0.0198,-0.290193 -0.15114,-0.350752 l -4.84e-4,-4.84e-4 -0.3662,-0.04749 -0.0068,-9.69e-4 v 0.0067 9.69e-4 c 0,0.02276 -0.0054,0.470412 -0.318727,0.554224 -4.84e-4,4.84e-4 -0.04552,0.01358 -0.1153,0.01358 -0.10124,0 -0.251882,-0.02761 -0.388964,-0.164718 l -0.0054,-0.0053 -0.004,0.0063 c -4.86e-4,9.69e-4 -0.06878,0.10367 -0.06878,0.300853 v 0.0049 l 0.0044,0.0014 0.002,-0.0063 h 0.0058 c 0,-0.19427 0.06732,-0.293585 0.06686,-0.29407 l -0.005,-0.0034 -0.0044,0.0043 c 0.13902,0.139524 0.294022,0.16811 0.397198,0.16811 0.0712,0 0.11818,-0.01358 0.11868,-0.01358 0.324541,-0.08963 0.326963,-0.543081 0.327447,-0.566337 v -4.84e-4 l -0.0064,-4.85e-4 -4.84e-4,0.0063 0.36523,0.04749 4.84e-4,-0.0063 -0.0024,0.0053 c 0.12352,0.0562 0.14386,0.206866 0.14386,0.340092 l -0.0024,0.08866 c -0.0058,0.167138 0.0096,0.378365 -0.17874,0.441345 -0.05668,0.01888 -0.11674,0.02664 -0.17922,0.02664 -0.19764,0 -0.414637,-0.07945 -0.592407,-0.126434 -0.15162,-0.03972 -0.30226,-0.07994 -0.452903,-0.123046 l -0.0014,0.0059 h 0.0058 -0.0058"/>
 <path style="fill:#8b9cbe" d="m 39.059333,18.324186 c 0,0 0.373464,0.34833 0.458716,-0.08478 h 0.144339 c 0,0 -0.127399,0.680184 -0.662645,0.238356 l 0.05958,-0.153576"/>
 <path style="fill:#040606" d="m 39.059333,18.324186 -0.0044,0.0043 c 4.84e-4,4.85e-4 0.1424,0.1337 0.275134,0.13419 0.08332,4.85e-4 0.1613,-0.05475 0.19376,-0.222368 l -0.0058,-9.69e-4 v 0.0059 h 0.144339 v -0.0059 l -0.0058,-0.0014 c -4.84e-4,4.84e-4 -0.07362,0.384663 -0.332775,0.382725 -0.08428,0 -0.18988,-0.03972 -0.320182,-0.147761 l -0.004,0.0049 0.0054,0.002 0.05958,-0.15309 -0.0054,-0.0024 -0.0044,0.0043 0.0044,-0.0043 -0.0058,-0.002 -0.05958,0.15309 -0.0014,0.0043 0.0034,0.0029 c 0.13176,0.108513 0.239772,0.150181 0.327932,0.150181 0.272712,-0.0014 0.343917,-0.392413 0.344401,-0.392413 l 0.0014,-0.0073 h -0.151619 -0.0048 l -9.7e-4,0.0049 c -0.03294,0.165202 -0.10512,0.212195 -0.18214,0.212679 -0.12498,4.84e-4 -0.266414,-0.130802 -0.266898,-0.130802 l -0.0064,-0.0059 -0.0034,0.0083 0.0058,0.002"/>
 <path style="fill:#3c3c3c" d="m 36.976944,22.338438 c 0,0 0.0044,0.371582 0.499403,0.14098 0,0 0.15792,-0.09786 0.572066,-0.06444 0,0 0.03876,0.03488 -0.013,0.047 0,0 -0.392356,-0.017 -0.50764,0.06444 0,0 -0.554625,0.217524 -0.550751,-0.18796"/>
 <path style="fill:#3c3c3c" d="m 38.027099,22.820962 c 0,0 0.533313,0.14922 0.738209,-0.14486 0,0 0.175359,-0.0344 0.07702,0.13176 0,0 -0.38412,0.17926 -0.815227,0.013"/>
 <path style="fill:#8b9cbe" d="m 38.29642,27.224236 1.408118,-1.169491 -0.02228,-2.399538 -1.326256,3.003179 -0.05958,0.56585"/>
 <path style="fill:#17191e" d="m 35.269473,24.941937 c 0.592155,-0.0044 1.18546,-0.015 1.776601,0.02648 0.0681,0.0088 0.13876,0.0122 0.204112,0.03414 0.0178,-0.02604 -0.02126,0.0124 0.02642,-0.02914 -0.06634,0.0088 0.03528,0.1056 0.09892,0.1134 0.190439,0.06574 0.389637,-0.01 0.564261,-0.08738 0.1888,-0.0646 0.401337,-0.03882 0.576609,0.05324 0.02088,-0.04552 0.07528,-0.10344 -0.0106,-0.11234 -0.21584,-0.096 -0.476293,-0.1031 -0.688493,0.0064 0.0415,0.09272 0.0156,-0.04786 -0.04002,0.0156 -0.14056,0.05182 -0.328783,0.09436 -0.451283,-0.019 -0.09906,-0.0737 -0.23213,-0.0633 -0.349536,-0.0775 -0.568797,-0.03292 -1.139008,-0.02616 -1.708475,-0.02074 4.66e-4,0.0323 9.34e-4,0.0646 0.0014,0.0969"/>
 <path style="opacity:0.2;fill-rule:evenodd" d="m 40.886667,25.019574 c -0.17758,0.02946 -0.351548,0.09326 -0.511718,0.1875 -0.343587,0.21209 -0.548901,0.493759 -0.640623,0.871091 l -0.363281,1.132812 a 39.151417,40.305696 0 0 1 -1.031249,2.92187 c -0.572531,0.21171 -1.146278,0.447897 -1.718747,0.683593 l -0.730469,0.35547 c -0.366514,0.164879 -0.597149,0.423445 -0.734373,0.800779 a 1.511192,1.5557455 0 0 0 0.02344,1.128904 c 0.09172,0.1885 0.230477,0.354823 0.390623,0.496093 -0.297369,-0.02324 -0.574231,0.02278 -0.894529,0.16406 a 1.4417192,1.4842245 0 0 0 0.20703,-0.777341 v -0.14062 c -0.0455,-0.400559 -0.205812,-0.728989 -0.503905,-0.98828 -0.29737,-0.259292 -0.642157,-0.355626 -1.031249,-0.33203 -0.435305,0.02324 -0.916082,0.212818 -1.488278,0.496093 -1.053006,0.542198 -2.015717,1.41527 -2.83984,2.593747 -0.09172,0.11766 -0.181199,0.23411 -0.249999,0.374999 a 4.3940008,4.5235463 0 0 0 -0.414064,0.824217 c -0.228945,0.542199 -0.412183,1.036241 -0.503905,1.531248 -0.251508,1.249242 -0.0428,2.192109 0.621093,2.804684 0.228944,0.212088 0.503401,0.354792 0.800781,0.449217 0.480809,0.14126 0.981983,0.09526 1.531248,-0.117179 0.595463,-0.235698 1.282902,-0.706449 2.015621,-1.390622 l 1.14453,-1.039061 c 0.16086,0.871951 0.550462,1.417258 1.191405,1.628904 0.686461,0.212077 1.30417,-0.02336 1.921871,-0.683593 0.389803,-0.42417 0.873169,-1.158033 1.445312,-2.218747 0.13722,0.99034 0.547169,1.627856 1.234372,1.886715 1.007483,0.424168 1.991977,-0.1628 2.97656,-1.742183 0.16016,0.212087 0.392148,0.351055 0.621091,0.421873 0.572531,0.235696 1.121267,0.1195 1.624998,-0.304688 0.389089,-0.306513 0.847293,-0.874154 1.328124,-1.699215 l -0.296875,3.632807 c -3.480676,0.589413 -7.647714,1.481128 -12.433577,2.68359 a 280.32611,288.5908 0 0 0 -12.253889,3.347651 c -0.664253,0.18886 -1.324403,0.37702 -1.988278,0.589843 l -4.648433,1.390613 -1.808591,0.566405 c -0.366517,0.11768 -0.66457,0.353667 -0.847655,0.707029 -0.160156,0.377321 -0.208045,0.732231 -0.09375,1.13281 0.137582,0.377326 0.36734,0.682413 0.710937,0.847657 0.343229,0.1885 0.708089,0.235222 1.074217,0.11718 l 1.832029,-0.566405 c 1.534174,-0.47138 3.112833,-0.966097 4.761711,-1.437498 a 360.6292,371.2614 0 0 1 12.089828,-3.347652 71.834093,73.951932 0 0 1 2.35937,-0.585937 c 4.120934,-1.037184 7.786103,-1.840017 10.968737,-2.406247 -0.09172,1.060795 -0.18294,2.049448 -0.296876,2.992184 -0.275163,2.640231 -0.504565,4.690584 -0.710937,6.152336 -0.205647,0.141259 -0.365459,0.307441 -0.480467,0.519531 a 1.425243,1.4672625 0 0 0 -0.1836,0.730467 v 0.07032 c 0.02294,0.400561 0.04826,0.732895 0.09374,0.992186 0.09172,0.613018 0.318438,1.061211 0.730467,1.296873 C 45.138547,54.90725 45.392598,55 45.644474,55 c 0.251878,0 0.477219,-0.06908 0.683591,-0.187499 0.365804,-0.18848 0.621107,-0.520442 0.781251,-0.992187 l 0.1836,-0.683593 0.296875,-1.957027 c 0.20565,-1.438094 0.435624,-3.415896 0.687499,-5.914056 l 0.02344,-0.261718 0.34375,-3.441401 1.25781,-0.14062 c 2.541635,-0.306503 4.46535,-0.352899 5.816398,-0.164059 0.731963,0.118019 1.188838,0.280277 1.39453,0.468749 v 0.14454 l -0.04688,0.328123 c 0,0.33012 0.09514,0.635437 0.300782,0.917969 0.206371,0.25929 0.479755,0.448709 0.800779,0.519529 0.389089,0.09442 0.731334,0.0246 1.074218,-0.1875 0.366515,-0.212089 0.572339,-0.493601 0.664061,-0.894528 0.13794,-0.589413 0.11732,-1.133981 -0.0196,-1.628904 -0.13794,-0.518591 -0.411841,-0.966817 -0.824217,-1.343748 -0.641681,-0.613019 -1.60528,-1.038059 -2.910152,-1.226562 -1.717197,-0.259672 -4.120016,-0.18594 -7.210928,0.191399 l 0.25,-3.558589 0.09374,-0.941404 c 0.0455,-1.131267 0.0659,-1.911442 0.04296,-2.382811 -0.02294,-1.178478 -0.40949,-1.908673 -1.210934,-2.167965 -0.526316,-0.16488 -1.030897,-0.07226 -1.511718,0.304688 -0.251864,0.212087 -0.526126,0.520777 -0.824217,0.94531 l -0.16016,0.234374 C 45.506312,30.415071 45.232053,29.967009 44.796735,29.613326 44.1787,29.117973 43.260311,28.956261 42.046739,29.121139 l 0.414061,-2.148435 0.0664,-0.492188 c 0,-0.330121 -0.114139,-0.639341 -0.296875,-0.921872 -0.22966,-0.259288 -0.48048,-0.4212 -0.800779,-0.515626 -0.18326,-0.0472 -0.365392,-0.0529 -0.542969,-0.02344 z m -26.777306,5.437493 c -0.180302,-0.0178 -0.363794,0.0074 -0.546874,0.07812 -0.366527,0.117659 -0.660307,0.353681 -0.843749,0.707031 L 8.8242124,38.617207 7.1992147,41.707047 6.8320276,39.890641 C 6.7403065,39.490084 6.535497,39.184766 6.214841,38.972679 c -0.3202677,-0.235696 -0.6890336,-0.3091 -1.0781235,-0.23828 -0.3894574,0.09443 -0.6846084,0.30623 -0.8906237,0.636717 -0.2289455,0.330076 -0.298393,0.708813 -0.2070311,1.109373 l 0.8945301,4.597649 c 0.04586,0.447428 0.1812098,0.798755 0.4101557,1.082031 0.2289456,0.306503 0.5283702,0.495417 0.8945299,0.589843 0.8702998,0.18884 1.6251635,-0.28225 2.2890594,-1.437498 0.3665691,-0.612683 1.3301177,-2.427795 2.9101522,-5.445305 l -0.207031,0.753905 c -0.297726,1.108037 -0.458046,1.957124 -0.503906,2.593747 -0.04586,0.518929 -5.07e-4,0.943522 0.136718,1.296872 0.160144,0.377333 0.410826,0.659521 0.777343,0.800781 0.366128,0.16488 0.734894,0.16488 1.078123,0 0.274807,-0.11802 0.503908,-0.283664 0.664062,-0.542967 0.160164,-0.259302 0.226562,-0.517716 0.226562,-0.824219 l -0.04297,-0.402344 v -0.04688 c 0,-0.188479 0.04535,-0.516899 0.136718,-0.98828 0.18341,0.754679 0.5929,1.271612 1.210936,1.578124 0.526713,0.282529 1.169661,0.329283 1.902341,0.117179 0.756016,-0.235629 1.601381,-0.706985 2.585934,-1.41406 0.847318,0.659875 1.969262,0.636396 3.320308,-0.07032 0.435286,-0.188479 0.870749,-0.494139 1.35156,-0.871092 0.824019,-0.683449 1.557236,-1.556562 2.152341,-2.593747 a 1.4198908,1.4617525 0 0 0 0.207032,-0.636717 v -0.09374 c 0,-0.259297 -0.06896,-0.518379 -0.1836,-0.730469 -0.13722,-0.212079 -0.298395,-0.401327 -0.527343,-0.542967 -0.320298,-0.21206 -0.664731,-0.258481 -1.031249,-0.16406 0.09136,-0.329741 0.16016,-0.658707 0.16016,-0.964842 v -0.02344 c -0.02294,-0.683059 -0.228098,-1.204739 -0.617185,-1.628904 -0.457869,-0.494985 -1.214146,-0.731157 -1.855467,-0.636717 -1.030445,0.11766 -1.94513,0.898165 -2.769528,2.335933 l -0.296872,0.562509 -0.277344,-0.492185 v -0.02344 c -0.297755,-0.400562 -0.686647,-0.58952 -1.144527,-0.63672 a 1.7856203,1.8382646 0 0 0 -0.960936,0.210938 c -0.52665,0.35337 -0.985044,0.895639 -1.351561,1.390624 a 13.196694,13.585764 0 0 0 -0.890624,1.34375 C 14.55022,37.533455 13.631467,37.135265 12.738269,37.394557 l 2.496091,-4.761713 c 0.183077,-0.35374 0.208395,-0.731879 0.09375,-1.132811 C 15.213817,31.12308 14.984198,30.81744 14.640611,30.62894 14.469012,30.53452 14.289664,30.474761 14.109362,30.457061 Z m 28.624961,1.53906 a 71.731248,73.846055 0 0 0 -0.367187,2.238278 l -0.984375,-0.04688 c 0.04622,-0.542199 0.11602,-1.202048 0.207032,-2.003903 a 6.5221579,6.7144464 0 0 1 1.14453,-0.187499 z m -6.410149,1.957027 h 0.367188 l -0.11718,0.234375 z m -2.656246,0.468751 -0.617185,0.566405 -0.847657,0.753905 -1.144529,1.062499 c 0.41202,-0.707441 0.890271,-1.345034 1.531248,-1.816404 0.09172,-0.09406 0.209922,-0.163559 0.324218,-0.234375 0.228946,-0.11766 0.479099,-0.261202 0.753905,-0.33203 z m -15.156228,4.5039 c -0.09136,0.330487 -0.13723,0.658169 -0.160156,0.988278 -0.641322,0.5422 -1.214422,0.920363 -1.671872,1.179687 0.183085,-0.589413 0.502698,-1.203829 0.960936,-1.816404 0.343229,-0.02362 0.596297,-0.162719 0.871092,-0.351561 z"/>
 <path style="fill:#ff89be;fill-rule:evenodd" d="m 49.192547,33.988466 0.09172,-0.942761 c 0.0455,-1.131264 0.06844,-1.909461 0.0455,-2.38083 -0.02294,-1.178479 -0.412022,-1.909462 -1.213466,-2.168753 -0.526316,-0.16488 -1.030057,-0.07044 -1.510878,0.306505 -0.251864,0.212088 -0.52703,0.518592 -0.825121,0.943125 l -0.15944,0.235696 C 45.506222,29.416009 45.231063,28.968237 44.795743,28.614554 44.177708,28.1192 43.261989,27.954323 42.048417,28.1192 l 0.412021,-2.144879 0.06844,-0.494983 c 0,-0.330122 -0.114639,-0.636625 -0.297369,-0.919157 -0.22966,-0.259287 -0.480812,-0.424165 -0.801111,-0.518591 -0.366528,-0.09442 -0.733401,-0.0236 -1.053741,0.16488 -0.343587,0.21209 -0.549245,0.494987 -0.640967,0.872319 l -0.365803,1.130834 a 39.151417,40.305696 0 0 1 -1.030769,2.923506 c -0.572531,0.21171 -1.144728,0.447773 -1.717197,0.683469 l -0.732687,0.353713 c -0.366516,0.16488 -0.595461,0.42417 -0.732685,0.801503 a 1.511192,1.5557455 0 0 0 0.02294,1.131265 c 0.09172,0.188499 0.228943,0.353715 0.389089,0.494985 -0.297369,-0.02324 -0.572533,0.0236 -0.892831,0.16488 a 1.4417192,1.4842245 0 0 0 0.205648,-0.777527 v -0.14164 c -0.0455,-0.400559 -0.205648,-0.730679 -0.503741,-0.98997 -0.29737,-0.259292 -0.640965,-0.353718 -1.030057,-0.330122 -0.435305,0.02324 -0.916116,0.211712 -1.488314,0.494987 -1.053006,0.542198 -2.014923,1.414108 -2.839046,2.592585 -0.09172,0.117659 -0.183079,0.236063 -0.251877,0.376953 a 4.3940008,4.5235463 0 0 0 -0.41202,0.825109 c -0.228945,0.542199 -0.412019,1.037187 -0.503741,1.532194 -0.251508,1.249242 -0.0455,2.192089 0.618393,2.804664 0.228944,0.212088 0.503741,0.353715 0.801121,0.448141 0.480809,0.14126 0.984909,0.09442 1.534174,-0.11802 0.595463,-0.235697 1.28189,-0.706709 2.014609,-1.390882 l 1.144726,-1.037184 c 0.16086,0.871951 0.54996,1.41454 1.190903,1.626186 0.686461,0.212077 1.305188,-0.02324 1.922889,-0.683467 0.389803,-0.42417 0.870625,-1.155253 1.442768,-2.215967 0.13722,0.99034 0.549245,1.626617 1.236448,1.885477 1.007483,0.424167 1.992361,-0.16488 2.976944,-1.744272 0.16016,0.212088 0.389092,0.35335 0.618035,0.424168 0.572531,0.235695 1.121745,0.11768 1.625476,-0.306504 0.389089,-0.306513 0.847339,-0.872321 1.32817,-1.697381 l -0.297367,3.630179 c -3.480676,0.589413 -7.647892,1.484979 -12.433755,2.687442 a 280.32611,288.5908 0 0 0 -12.250099,3.346905 c -0.664253,0.18886 -1.32817,0.376956 -1.992045,0.589779 l -4.64828,1.390554 -1.808603,0.565808 c -0.366516,0.117679 -0.664253,0.353715 -0.847338,0.707077 -0.160156,0.377321 -0.206016,0.730681 -0.09172,1.131262 0.137582,0.377323 0.36616,0.683837 0.709756,0.849081 0.34323,0.1885 0.709757,0.235695 1.075885,0.11766 l 1.831901,-0.565804 c 1.534174,-0.471379 3.11379,-0.966366 4.762669,-1.437768 a 360.6292,371.2614 0 0 1 12.089536,-3.347231 71.834093,73.951932 0 0 1 2.35893,-0.589411 c 4.120934,-1.037185 7.785051,-1.838264 10.967685,-2.404493 -0.09172,1.060795 -0.18344,2.050779 -0.29737,2.993516 -0.275163,2.64023 -0.503741,4.690898 -0.710113,6.152649 -0.205647,0.14126 -0.365803,0.306504 -0.480811,0.518594 a 1.425243,1.4672625 0 0 0 -0.18344,0.730313 v 0.07082 c 0.02294,0.400561 0.04622,0.730681 0.09172,0.989972 0.09172,0.613017 0.320658,1.060791 0.732687,1.296454 0.251886,0.141624 0.503751,0.236066 0.755627,0.236066 0.251878,0 0.480811,-0.07044 0.687183,-0.18886 0.365804,-0.188479 0.618035,-0.518227 0.778179,-0.989972 l 0.18344,-0.683837 0.298091,-1.95635 c 0.20565,-1.438094 0.434596,-3.418429 0.686471,-5.916587 l 0.02294,-0.25967 0.343586,-3.441331 1.259014,-0.14166 c 2.541635,-0.306501 4.465256,-0.353715 5.816304,-0.16488 0.731963,0.11802 1.190168,0.282908 1.39586,0.47138 v 0.141639 l -0.0455,0.330122 c 0,0.33012 0.09172,0.636623 0.297368,0.919155 0.206371,0.259289 0.480811,0.447771 0.801835,0.518591 0.389089,0.09442 0.732686,0.02324 1.07557,-0.18886 0.366515,-0.212089 0.572531,-0.494987 0.664253,-0.895914 0.13794,-0.589414 0.11464,-1.131265 -0.02222,-1.626188 -0.13794,-0.518591 -0.412021,-0.966735 -0.824397,-1.343666 -0.641681,-0.613019 -1.603334,-1.037185 -2.908206,-1.225689 -1.717197,-0.259671 -4.121672,-0.188859 -7.212584,0.18848 z m -30.682446,3.936685 c -0.09136,0.330487 -0.137228,0.660231 -0.160154,0.99034 -0.641322,0.542199 -1.213886,0.919153 -1.671337,1.178477 0.183086,-0.589414 0.503385,-1.202463 0.961622,-1.815038 0.343229,-0.02362 0.595106,-0.16488 0.869901,-0.353715 z M 8.8247244,37.618647 12.717094,30.240631 c 0.183442,-0.353349 0.480811,-0.589413 0.847338,-0.707075 0.366159,-0.141639 0.732686,-0.09442 1.075884,0.09442 0.343586,0.1885 0.572532,0.494988 0.686827,0.871941 0.114646,0.400931 0.09171,0.777527 -0.09136,1.131266 l -2.495775,4.761768 c 0.893197,-0.259292 1.808918,0.14126 1.946183,1.131266 a 13.196694,13.585764 0 0 1 0.892832,-1.344092 C 15.94554,35.68514 16.40342,35.14294 16.93007,34.789571 a 1.7856203,1.8382646 0 0 1 0.961622,-0.212458 c 0.457881,0.0472 0.846971,0.236062 1.144728,0.636623 v 0.0236 l 0.274806,0.49499 0.297726,-0.565808 c 0.824397,-1.437768 1.74018,-2.21564 2.770625,-2.333292 0.641321,-0.09444 1.396908,0.14164 1.854777,0.636625 0.389089,0.424165 0.595463,0.943125 0.618393,1.626184 v 0.0236 c 0,0.306135 -0.0688,0.636623 -0.16016,0.966364 0.366518,-0.09442 0.709757,-0.0472 1.030055,0.16486 0.228948,0.14164 0.389447,0.330119 0.526673,0.542199 0.11464,0.21209 0.18344,0.471382 0.18344,0.730679 v 0.09406 a 1.4198908,1.4617525 0 0 1 -0.206016,0.636991 c -0.595105,1.037185 -1.32817,1.909137 -2.152189,2.592587 -0.480811,0.376953 -0.915762,0.683835 -1.351048,0.872318 -1.351046,0.706707 -2.472896,0.730315 -3.320214,0.07044 -0.984553,0.707075 -1.831481,1.178479 -2.587497,1.414108 -0.73268,0.212098 -1.373605,0.16489 -1.900318,-0.11764 -0.618036,-0.306511 -1.030056,-0.824736 -1.213466,-1.579415 -0.09136,0.471381 -0.137228,0.80187 -0.137228,0.99034 v 0.0472 l 0.04586,0.400562 c 0,0.306503 -0.06878,0.565805 -0.228946,0.825106 -0.160154,0.259304 -0.389446,0.424168 -0.664253,0.542198 -0.343229,0.164879 -0.709756,0.164879 -1.075885,0 -0.366516,-0.14126 -0.618392,-0.424166 -0.778536,-0.801499 -0.137226,-0.35335 -0.183086,-0.777527 -0.137226,-1.296456 0.04586,-0.636624 0.206015,-1.484978 0.503741,-2.593015 l 0.206018,-0.754281 C 9.8555179,41.884851 8.8939171,43.699887 8.527348,44.31257 7.8634521,45.467818 7.107877,45.939187 6.2375772,45.75034 5.8714175,45.655914 5.5733245,45.46743 5.3443789,45.160926 5.1154332,44.877651 4.9782192,44.524301 4.9323588,44.076874 L 4.0391601,39.479968 c -0.091362,-0.400559 -0.02293,-0.777526 0.2060155,-1.107602 0.2060153,-0.330488 0.5037411,-0.542199 0.8931985,-0.636625 0.3890899,-0.07082 0.755617,0 1.0758847,0.235696 0.320656,0.212087 0.5266713,0.518593 0.6183924,0.919154 l 0.3661597,1.815468 z m 24.2241996,-3.630181 -0.846615,0.754289 -1.145043,1.061157 c 0.41202,-0.707441 0.893199,-1.344099 1.534176,-1.815468 0.09172,-0.09406 0.20637,-0.16488 0.320666,-0.235694 0.228946,-0.117659 0.480811,-0.259291 0.755617,-0.330121 z m 9.319541,-0.754289 -0.984551,-0.0472 c 0.04622,-0.542199 0.11464,-1.20203 0.205646,-2.003885 a 6.5221579,6.7144464 0 0 1 1.145464,-0.18812 71.731248,73.846055 0 0 0 -0.366517,2.239193 z m -5.678724,-0.282897 -0.11394,0.235695 -0.251864,-0.235695 z"/>
 <path style="fill:#8b9cbe;fill-rule:evenodd" d="m 24.006012,35.119623 v -0.0236 c 0,-0.424168 -0.137219,-0.754291 -0.366159,-1.013579 l -0.02256,-0.02324 C 23.296637,33.7527 22.907536,33.635037 22.47225,33.682249 c -0.75526,0.09442 -1.465331,0.730683 -2.152191,1.909139 -0.343585,0.613017 -0.618391,1.226012 -0.824396,1.862249 -0.206015,0.683835 -0.320666,1.296886 -0.320666,1.862248 v 0.0472 c -1.076305,0.895916 -1.969063,1.461754 -2.633358,1.720609 -0.36616,0.14164 -0.618392,0.18886 -0.755617,0.11802 -0.09136,-0.0472 -0.137577,-0.16524 -0.137577,-0.400561 0.04586,-0.589782 0.274805,-1.226015 0.641322,-1.956676 a 8.9910678,9.2561458 0 0 1 0.961979,-1.508964 0.64203624,0.66096497 0 0 0 0.640965,0 c 0.389083,-0.259279 0.595455,-0.565427 0.664245,-0.895536 0.0455,-0.25967 -0.02293,-0.47138 -0.183084,-0.683835 a 0.65278249,0.67202806 0 0 0 -0.549609,-0.283268 c -0.160512,-0.02324 -0.320665,0.02362 -0.50374,0.11766 l -0.503742,0.400929 c -0.137228,0.14166 -0.320655,0.376956 -0.549244,0.659865 l -0.732688,1.108041 c -0.618392,1.037182 -0.961621,2.027113 -1.076304,2.923072 v 0.0236 c -0.02293,0.282539 0.02293,0.542199 0.137578,0.824739 0.137227,0.353717 0.366159,0.613017 0.664252,0.777894 a 2.3341619,2.4029786 0 0 0 1.373611,0.02324 c 0.755617,-0.212101 1.717197,-0.777906 2.861925,-1.697395 l 0.183084,0.259289 c 0.618395,0.659866 1.488315,0.683839 2.701782,0.0472 0.343585,-0.141259 0.709757,-0.400929 1.144728,-0.730683 0.755617,-0.636623 1.41947,-1.437336 1.969481,-2.380508 l 0.09172,-0.330486 c 0,-0.212088 -0.09172,-0.400929 -0.275161,-0.518225 -0.13722,-0.07046 -0.297728,-0.11802 -0.457884,-0.07046 -0.16016,0.04684 -0.274805,0.14126 -0.366517,0.28253 -0.48081,0.848714 -1.053005,1.532195 -1.716882,2.074761 -0.343583,0.258921 -0.618391,0.447773 -0.870267,0.565437 h -0.0455 c -0.320657,0.18886 -0.595463,0.28291 -0.824399,0.330111 -0.228945,0.0472 -0.389089,0 -0.480809,-0.09444 -0.04586,-0.04684 -0.06844,-0.11766 -0.1143,-0.211712 l 1.763056,-1.626616 c 1.212418,-1.178046 1.807869,-2.215641 1.807869,-3.111167 z m 31.231303,2.993945 c 1.557053,0.14164 2.633358,0.494988 3.251791,1.108037 0.572531,0.542199 0.778181,1.249242 0.572531,2.121215 -0.04622,0.16488 -0.11464,0.306501 -0.251875,0.377323 -0.13794,0.09406 -0.298092,0.11766 -0.458238,0.09406 -0.16016,-0.0472 -0.274437,-0.14126 -0.365801,-0.282895 -0.06844,-0.14164 -0.11464,-0.306516 -0.06844,-0.448142 0.091,-0.423801 0.02222,-0.753911 -0.22966,-0.989972 -0.434593,-0.400564 -1.281888,-0.659864 -2.563884,-0.777895 -1.74018,-0.14126 -4.144548,0.0236 -7.258758,0.471379 l -0.412019,4.384828 c -0.251878,2.451378 -0.480812,4.407728 -0.687184,5.869374 l -0.297369,1.909459 -0.228946,0.801123 c -0.13722,0.236066 -0.320655,0.377321 -0.595461,0.377321 -0.365805,0 -0.595463,-0.259289 -0.664255,-0.777893 a 18.659023,19.209136 0 0 1 -0.06844,-0.919154 v -0.0236 c 0,-0.1885 0.0455,-0.33011 0.16016,-0.447772 0.11464,-0.118019 0.251865,-0.164879 0.412021,-0.188859 0.320668,-2.192089 0.709399,-5.798934 1.190903,-10.796011 -3.457376,0.565439 -7.670768,1.461322 -12.616355,2.68701 -4.35024,1.131264 -9.067047,2.404491 -14.150634,3.913024 l -4.647955,1.390875 -1.78604,0.565439 -0.43495,-0.04684 c -0.137228,-0.07082 -0.251865,-0.18886 -0.297727,-0.353718 -0.0455,-0.164879 -0.02293,-0.306501 0.04586,-0.471379 0.0688,-0.14164 0.183086,-0.236064 0.34323,-0.282908 l 1.78604,-0.565807 4.64828,-1.39088 c 5.105835,-1.508532 9.845521,-2.852306 14.195761,-3.936682 5.106255,-1.249245 9.43351,-2.168753 13.027733,-2.758209 0.22966,-2.68701 0.38909,-4.619809 0.458238,-5.822161 l 0.06844,-1.791482 c -0.275162,0.424164 -0.732687,1.155249 -1.351046,2.168751 -0.549248,0.943127 -0.984555,1.579406 -1.305189,1.909461 -0.343585,0.376954 -0.687183,0.471382 -1.007126,0.353348 -0.18344,-0.07044 -0.321022,-0.1885 -0.41202,-0.376954 -0.06914,-0.188499 -0.114639,-0.447775 -0.114639,-0.75392 0,-0.424534 0.137219,-1.41454 0.365803,-2.946734 l 0.13794,-0.824739 c 0.02294,-0.18886 0,-0.330122 -0.06914,-0.377322 -0.342874,-0.258923 -1.235714,-0.188499 -2.724344,0.23606 l -0.02294,0.212092 c -0.228946,1.697383 -0.343586,2.993514 -0.343586,3.936682 0,0.353718 0.02294,0.659865 0.04622,0.871941 0.228944,-0.259292 0.503028,-0.683835 0.824407,-1.24924 0.06844,-0.14164 0.20565,-0.236062 0.342872,-0.283274 a 0.54172036,0.55769156 0 0 1 0.458239,0.07082 c 0.13722,0.09406 0.228946,0.21209 0.274438,0.376955 0.04622,0.14126 0,0.306134 -0.06844,0.44814 -0.41202,0.753911 -0.778179,1.272472 -1.075569,1.578976 -0.435307,0.424165 -0.824399,0.565437 -1.214202,0.400559 -0.251876,-0.09406 -0.435308,-0.282908 -0.572531,-0.589411 -0.13722,-0.376956 -0.205648,-0.919155 -0.205648,-1.673398 0,-0.730683 0.06844,-1.697385 0.205648,-2.899522 -0.457524,1.131591 -1.007125,2.263177 -1.602598,3.441655 -0.595463,1.108037 -1.053007,1.86225 -1.41989,2.263177 -0.343588,0.400562 -0.709401,0.5422 -1.053009,0.447776 -0.228945,-0.09444 -0.412019,-0.236064 -0.503741,-0.494988 -0.09172,-0.236063 -0.13722,-0.565805 -0.13722,-0.966366 0,-0.330488 0.02222,-0.730681 0.06844,-1.226013 l -2.518338,2.263177 c -1.534488,1.3441 -2.610793,1.720612 -3.274668,1.084051 -0.434951,-0.424166 -0.549603,-1.131265 -0.320667,-2.144875 0.09172,-0.40056 0.229301,-0.825107 0.412019,-1.249242 0.18308,-0.400928 0.366518,-0.730681 0.549601,-0.990341 0.778547,-1.084051 1.6026,-1.838698 2.541637,-2.333619 0.297369,-0.14164 0.549245,-0.259299 0.823685,-0.330119 l 0.366517,-0.09442 c 0.16016,0 0.320664,0.0472 0.435306,0.14164 0.113939,0.117679 0.183439,0.259303 0.205647,0.424169 v 0.0472 c 0,0.16486 -0.0455,0.282898 -0.16016,0.400559 a 0.53741767,0.55326201 0 0 1 -0.365803,0.21209 l -0.275162,0.07082 a 1.922572,1.979254 0 0 0 -0.640967,0.282908 c -0.709401,0.400929 -1.37403,1.037186 -1.969063,1.885477 -0.251874,0.376957 -0.457879,0.825107 -0.641321,1.34367 -0.13722,0.448139 -0.206016,0.825107 -0.206016,1.155248 0,0.11766 0.02256,0.21209 0.04586,0.259292 0.343232,-0.02324 0.892833,-0.376957 1.69432,-1.084052 l 1.190904,-1.084379 1.671022,-1.484548 a 3.0869245,3.1779344 0 0 1 0.595453,-0.400931 c 0.251876,-0.11766 0.480811,-0.11766 0.709399,0 0.251876,0.14164 0.389815,0.424165 0.389815,0.848703 l -0.02294,0.447771 -0.02294,0.09442 -0.114639,1.202462 c 0.275161,-0.376955 0.549957,-0.919531 0.893554,-1.579406 a 81.045019,83.434417 0 0 0 1.510878,-3.205591 c -0.618035,0.259291 -1.144728,0.471379 -1.602597,0.683835 l -0.458238,0.02324 c -0.16016,-0.0472 -0.251877,-0.16488 -0.320667,-0.306504 -0.06844,-0.14126 -0.06844,-0.306135 -0.02294,-0.471379 0.04622,-0.16488 0.160859,-0.28253 0.298093,-0.35335 l 0.846613,-0.353715 c 0.641679,-0.282908 1.282626,-0.542199 1.900639,-0.754287 0.43531,-1.084055 0.824409,-2.144877 1.168027,-3.229256 l 0.275163,-0.919152 0.09172,-0.353716 c 0.0455,-0.16488 0.13722,-0.282907 0.274438,-0.353715 a 0.49084355,0.50531479 0 0 1 0.435307,-0.07046 c 0.13722,0.02324 0.251868,0.09442 0.343588,0.21209 0.06844,0.09442 0.11394,0.235695 0.11394,0.376955 v 0.11766 l -0.205648,1.084052 c -0.16016,0.872319 -0.29737,1.697384 -0.435308,2.498595 1.580036,-0.376958 2.633357,-0.35372 3.251792,0.11766 0.342871,0.283277 0.526313,0.683837 0.526313,1.178802 l -0.16016,1.178046 -0.274437,1.90946 0.571817,-0.919153 c 0.916119,-1.508534 1.511612,-2.427721 1.786355,-2.781436 0.205648,-0.259302 0.41202,-0.424166 0.572532,-0.518593 l 0.549245,-0.02324 c 0.16016,0.07044 0.29737,0.164879 0.389089,0.306503 0.11464,0.14126 0.18344,0.376954 0.206374,0.659863 0.0455,0.424168 0.02294,1.320114 -0.04622,2.710997 -0.06844,1.154814 -0.20565,3.040725 -0.434595,5.562868 l 1.053006,-0.14126 c 2.587183,-0.330488 4.671264,-0.424533 6.20502,-0.306504 z m -32.444453,-3.182365 0.0455,0.18886 c 0,0.212087 -0.09136,0.494985 -0.274806,0.801498 -0.251865,0.42417 -0.641323,0.895927 -1.167606,1.41411 l -0.870257,0.825107 c 0.18308,-0.660229 0.45788,-1.296888 0.801477,-1.933121 0.480811,-0.801503 0.893199,-1.27247 1.259326,-1.319682 z m -10.074824,2.616248 -0.228946,0.707441 -0.45788,1.578972 c -0.275163,1.037188 -0.434951,1.815039 -0.481168,2.380833 -0.0455,0.400563 0,0.730315 0.09172,0.943128 0.04586,0.1885 0.160155,0.306136 0.297725,0.353348 0.160156,0.07082 0.297726,0.07082 0.457881,0 0.137226,-0.0472 0.251875,-0.16488 0.320667,-0.353348 a 0.48475682,0.4990486 0 0 0 0,-0.448141 c -0.0455,-0.21209 0.02293,-0.801501 0.251865,-1.744274 a 29.415773,30.28302 0 0 1 0.870268,-3.017171 c 0.04586,-0.16488 0.04586,-0.330488 -0.02293,-0.471382 -0.0688,-0.14166 -0.183084,-0.259291 -0.343229,-0.306503 -0.137578,-0.0472 -0.297726,-0.02324 -0.43495,0.02324 -0.160511,0.07118 -0.252233,0.188859 -0.321023,0.353715 z m 1.534175,-7.142278 c 0.137228,0.07082 0.228946,0.18886 0.274796,0.353716 0.0688,0.164879 0.04586,0.306503 -0.04586,0.447775 L 11.39024,37.170462 7.8181602,43.88858 a 5.3753311,5.5338087 0 0 1 -0.5037413,0.707445 c -0.320656,0.258924 -0.595462,0.376586 -0.8931878,0.306136 A 0.79395301,0.81736062 0 0 1 5.940416,44.548445 1.4029948,1.4443586 0 0 1 5.7573309,43.959032 L 4.841213,39.315349 v -0.14126 c 0,-0.14166 0.04586,-0.259302 0.1375818,-0.376956 0.06843,-0.118019 0.1830857,-0.188859 0.3206665,-0.212089 0.1830858,-0.0236 0.3206562,0 0.4578808,0.09406 0.1372258,0.0948 0.2289455,0.212089 0.2518652,0.376955 l 0.8014771,4.101862 c 0.41202,-0.683837 1.6258955,-2.946736 3.6638006,-6.836098 l 2.97663,-5.680522 c 0.06878,-0.14164 0.206015,-0.236066 0.343586,-0.283278 z"/>
 <path style="opacity:0.2;fill:#8b9cbe" d="M 9.6015625 4 C 6.499167 4 4 6.499167 4 9.6015625 L 4 10.601562 C 4 7.4991667 6.499167 5 9.6015625 5 L 54.398438 5 C 57.500833 5 60 7.4991667 60 10.601562 L 60 9.6015625 C 60 6.499167 57.500833 4 54.398438 4 L 9.6015625 4 z"/>
</svg>
