<svg xmlns="http://www.w3.org/2000/svg" width="64" height="64" version="1.1">
 <circle style="opacity:0.2" cx="32" cy="33" r="28"/>
 <circle style="fill:#473fd9" cx="32" cy="32" r="28"/>
 <circle style="opacity:0.2" cx="32" cy="33" r="22"/>
 <circle style="fill:#78ffb8" cx="32" cy="32" r="22"/>
 <path style="opacity:0.2;fill:#8b9cbe" d="M 32 10 A 22 22 0 0 0 10 32 A 22 22 0 0 0 10.017578 32.490234 A 22 22 0 0 1 32 11 A 22 22 0 0 1 53.974609 32.490234 A 22 22 0 0 0 54 32 A 22 22 0 0 0 32 10 z"/>
 <path style="fill:#5952d2" d="m 21.568986,40.882116 -2.137773,0.833994 -1.770887,-1.45113 0.366884,-2.28512 2.137772,-0.833994 1.770888,1.451128 z"/>
 <path style="fill:#f99e00" d="m 25.630724,25.873562 -0.74246,7.749478 -7.082477,3.23175 -6.340015,-4.51773 0.742462,-7.749478 7.082477,-3.23175 z"/>
 <path style="fill:#ea6f2a" d="m 48.289792,38.150996 -4.155762,2.983598 -4.661756,-2.107196 -0.505992,-5.090796 4.155766,-2.9836 4.661754,2.107198 z"/>
 <path style="fill:#0478f5" d="m 51.540516,29.460232 -3.652264,2.622114 -4.09695,-1.851894 -0.444686,-4.47401 3.652264,-2.622116 4.096952,1.851896 z"/>
 <path style="fill:#00c75f" d="m 52.326722,34.643958 -1.656278,1.204914 -1.85794,-0.850984 -0.201662,-2.055898 1.656278,-1.204914 1.85794,0.850984 z"/>
 <path style="fill:#569100" d="m 16.83133,40.695484 -2.650992,1.128352 -2.277893,-1.753456 0.373098,-2.88181 2.650991,-1.128348 2.277894,1.753454 z"/>
 <path style="fill:#17191e" d="M 23.314174,14 C 22.586852,14 22,14.557509 22,15.248466 v 35.50307 C 22,51.442492 22.586852,52 23.314174,52 H 40.685826 C 41.413148,52 42,51.442492 42,50.751536 V 15.248466 C 42,14.557509 41.413148,14 40.685826,14 Z"/>
 <rect style="fill:#bb0eff" width="16" height="30" x="24" y="19" ry=".983"/>
 <path style="fill:#5be19b" d="m 37.015624,39.13603 c -0.06654,0 -0.09018,0.008 -0.1354,0.04438 -0.07732,0.06194 -0.08624,0.07122 -0.239582,0.362814 -0.214174,0.407238 -0.283178,0.54015 -0.385418,0.730858 -0.0522,0.09734 -0.259026,0.48782 -0.458332,0.866592 -0.202678,0.385174 -0.36941,0.689094 -0.380206,0.689094 -0.0164,0 -0.0721,-0.02686 -0.265628,-0.12528 -0.07558,-0.03844 -0.517592,-0.20958 -0.67448,-0.261018 -0.23142,-0.07584 -0.340308,-0.1086 -0.520832,-0.15398 -0.10826,-0.0272 -0.238796,-0.06 -0.289062,-0.0731 -0.05026,-0.0132 -0.10568,-0.02628 -0.12502,-0.02872 -0.08768,-0.0112 -0.35312,-0.05408 -0.416668,-0.06788 -0.06548,-0.0142 -0.225132,-0.03256 -0.513018,-0.05744 -0.15674,-0.0136 -1.067982,-0.0136 -1.221356,0 -0.06572,0.0056 -0.16462,0.0162 -0.21875,0.0209 -0.05414,0.0046 -0.14514,0.014 -0.203126,0.0235 -0.058,0.0094 -0.1292,0.0207 -0.15626,0.0235 -0.1561,0.0164 -0.570574,0.10392 -0.864582,0.1827 -0.283288,0.07594 -0.754864,0.242836 -0.984376,0.347156 -0.07734,0.03516 -0.16306,0.07258 -0.1901,0.08352 -0.02706,0.0108 -0.0742,0.03354 -0.1068,0.0522 -0.03256,0.0186 -0.07096,0.03412 -0.08332,0.03134 -0.0128,-0.003 -0.12882,-0.206942 -0.265626,-0.467224 -0.24126,-0.459012 -0.402316,-0.768214 -0.643228,-1.224186 -0.0693,-0.1312 -0.200154,-0.37626 -0.289062,-0.545536 -0.21979,-0.418488 -0.260326,-0.462524 -0.416668,-0.451564 -0.10228,0.007 -0.17564,0.05892 -0.218746,0.1514 -0.05838,0.1253 -0.0526,0.20298 0.03126,0.360208 0.0526,0.09862 0.21112,0.395472 0.749998,1.417344 0.04018,0.07618 0.13132,0.24827 0.203126,0.3837 0.342758,0.64653 0.338728,0.639494 0.322916,0.660384 -0.0084,0.011 -0.0983,0.07524 -0.200522,0.14094 -0.19262,0.12382 -0.517272,0.355514 -0.664062,0.475058 -0.0464,0.03782 -0.1165,0.09588 -0.15626,0.1279 -0.344672,0.277104 -0.943496,0.906404 -1.236982,1.302492 -0.03084,0.04164 -0.0851,0.11688 -0.1224,0.16706 -0.17432,0.23451 -0.46665,0.697058 -0.572918,0.905738 -0.02372,0.04656 -0.06638,0.1241 -0.09374,0.17486 -0.23251,0.43155 -0.516676,1.140712 -0.651038,1.623548 -0.02474,0.08888 -0.0501,0.17988 -0.05728,0.200988 -0.03248,0.0958 -0.135,0.551736 -0.18228,0.814384 -0.0178,0.0981 -0.03026,0.22599 -0.04688,0.349768 0.12566,0.315324 0.413468,0.531542 0.760414,0.579466 0.1178,0.02032 0.19392,0.02606 7.166668,0.02606 5.7052,0 6.770372,-0.0042 7.11979,-0.0156 0.372294,-0.03236 0.680624,-0.265334 0.809896,-0.60035 -0.0124,-0.09544 -0.02434,-0.21426 -0.03384,-0.26102 -0.0078,-0.03808 -0.03148,-0.166 -0.0547,-0.284512 -0.212414,-1.08529 -0.643768,-2.175986 -1.213542,-3.064382 -0.17862,-0.278464 -0.226098,-0.345982 -0.328126,-0.482888 -0.0464,-0.06228 -0.10072,-0.13642 -0.1224,-0.16706 -0.18142,-0.25656 -0.682068,-0.795948 -1.010414,-1.088454 -0.202316,-0.18024 -0.230202,-0.204078 -0.41927,-0.3576 -0.12372,-0.10048 -0.498402,-0.364126 -0.656254,-0.462004 -0.07066,-0.04382 -0.13676,-0.08978 -0.14582,-0.1018 -0.0134,-0.0174 0.04516,-0.13598 0.296874,-0.610788 0.17196,-0.324344 0.326628,-0.618686 0.34375,-0.652552 0.017,-0.03386 0.0653,-0.12566 0.1068,-0.203594 0.587652,-1.104052 0.593578,-1.116062 0.59375,-1.211136 1.9e-4,-0.16696 -0.11878,-0.300174 -0.270836,-0.300174 z m -8.697918,5.917334 c 0.15094,0 0.250362,0.02946 0.367188,0.11224 0.12556,0.089 0.212378,0.209902 0.268232,0.37848 0.03972,0.1199 0.03578,0.37467 -0.0078,0.4855 -0.08704,0.22128 -0.260044,0.395268 -0.440106,0.446344 v 0.0028 c -0.1036,0.02926 -0.289756,0.02758 -0.380208,-0.0028 -0.15342,-0.05118 -0.304532,-0.18122 -0.382812,-0.328884 -0.1763,-0.332538 -0.08628,-0.763986 0.20573,-0.978828 0.1126,-0.08286 0.217518,-0.11486 0.36979,-0.11486 z m 7.156252,0.0261 c 0.09646,-0.0378 0.324072,-0.03774 0.41927,0 0.10602,0.04202 0.17982,0.09346 0.265626,0.19054 0.201898,0.228486 0.2498,0.521624 0.13282,0.798724 -0.02808,0.06648 -0.07456,0.14924 -0.10156,0.18532 -0.06178,0.08254 -0.19724,0.18406 -0.291666,0.216644 -0.10476,0.03604 -0.307648,0.03836 -0.403646,0.0052 -0.30227,-0.1044 -0.49536,-0.408518 -0.473958,-0.746516 0.0194,-0.308072 0.18384,-0.543966 0.453124,-0.649942 z"/>
 <path style="fill:#8b9cbe;opacity:0.1" d="M 32 4 A 28 28 0 0 0 4 32 A 28 28 0 0 0 4.0214844 32.585938 A 28 28 0 0 1 32 5 A 28 28 0 0 1 59.978516 32.414062 A 28 28 0 0 0 60 32 A 28 28 0 0 0 32 4 z"/>
</svg>
