<svg xmlns="http://www.w3.org/2000/svg" width="64" height="64" version="1">
 <rect style="opacity:0.2" width="56" height="56" x="4" y="5" rx="2.8" ry="2.8"/>
 <rect style="fill:#b2bfd9" width="56" height="56" x="4" y="4" rx="2.8" ry="2.8"/>
 <path style="opacity:0.1" d="m 38.25,18.948936 1.925782,1.925782 -27.234376,29.136718 2.117188,1.976564 27.167968,-29.0625 1.82422,1.824218 v -5.800782 z"/>
 <path style="fill:none;stroke:#c62828;stroke-width:2.9000001" d="M 14,50 42.670588,19.32941"/>
 <path style="fill:#c62828" d="m 38.25,17.95 h 5.8 v 5.8 z"/>
 <path style="opacity:0.1" d="m 14.640625,13.698936 -1.28125,2.601564 24.835937,12.226562 -1.199218,2.074218 5.605468,-1.5 -1.503906,-5.605468 -1.449218,2.511718 z"/>
 <path style="fill:none;stroke:#2e7d32;stroke-width:2.9000001" d="M 14,14 40.00481,26.802406"/>
 <path style="fill:#2e7d32" d="M 36.99763,29.60115 42.6,28.1 41.09885,22.49763 Z"/>
 <path style="opacity:0.1" d="m 14,9 a 6,6 0 0 0 -6,6 6,6 0 0 0 6,6 6,6 0 0 0 6,-6 6,6 0 0 0 -6,-6 z m 36,0 a 6,6 0 0 0 -6,6 6,6 0 0 0 6,6 6,6 0 0 0 6,-6 6,6 0 0 0 -6,-6 z M 14,27 a 6,6 0 0 0 -6,6 6,6 0 0 0 6,6 6,6 0 0 0 6,-6 6,6 0 0 0 -6,-6 z m 36,0 a 6,6 0 0 0 -6,6 6,6 0 0 0 6,6 6,6 0 0 0 6,-6 6,6 0 0 0 -6,-6 z M 14,45 a 6,6 0 0 0 -6,6 6,6 0 0 0 6,6 6,6 0 0 0 6,-6 6,6 0 0 0 -6,-6 z m 36,0 a 6,6 0 0 0 -6,6 6,6 0 0 0 6,6 6,6 0 0 0 6,-6 6,6 0 0 0 -6,-6 z"/>
 <circle style="fill:#9e9e9e" cx="14" cy="32" r="6"/>
 <circle style="fill:#f44336" cx="14" cy="50" r="6"/>
 <circle style="fill:#f44336" cx="50" cy="14" r="6"/>
 <circle style="fill:#4caf50" cx="50" cy="32" r="6"/>
 <circle style="fill:#9e9e9e" cx="50" cy="50" r="6"/>
 <circle style="fill:#4caf50" cx="14" cy="14" r="6"/>
 <path style="opacity:0.2;fill:#8b9cbe" d="M 6.8007812 4 C 5.2495812 4 4 5.2495812 4 6.8007812 L 4 7.8007812 C 4 6.2495813 5.2495812 5 6.8007812 5 L 57.199219 5 C 58.750419 5 60 6.2495812 60 7.8007812 L 60 6.8007812 C 60 5.2495813 58.750419 4 57.199219 4 L 6.8007812 4 z"/>
</svg>
