<svg xmlns="http://www.w3.org/2000/svg" width="64" height="64" version="1">
 <rect style="opacity:0.2" width="60" height="60" x="-63" y="-62" rx="3" ry="3" transform="matrix(0,-1,-1,0,0,0)"/>
 <rect style="fill:#435ece" width="60" height="60" x="-62" y="-62" rx="3" ry="3" transform="matrix(0,-1,-1,0,0,0)"/>
 <path style="opacity:0.2" d="m 31.999352,13 c -6.409,0 -11.900391,5.591 -11.900391,12 h 5.800781 c 0,-3.19 2.90961,-6.199219 6.09961,-6.199219 3.19,0 6.100906,2.610781 6.100906,5.800781 0,1.595 -0.637937,3.041938 -1.710937,4.085938 l -3.597656,3.65625 c -2.088001,2.117 -3.69075,5.017031 -3.690751,8.207031 V 41 42 h 5.898438 v -1 h -0.05859 c 0.19426,-3.614822 1.735908,-5.264641 3.651688,-7.207031 L 41.201821,31.125 c 1.653,-1.653 2.699218,-3.971438 2.699218,-6.523438 C 43.901039,18.192563 38.408352,13 31.999352,13 Z m -3,34 v 6 h 6 v -6 z"/>
 <path style="fill:#8b9cbe" d="m 31.999352,12 c -6.409,0 -11.900391,5.591 -11.900391,12 h 5.800781 c 0,-3.19 2.90961,-6.199219 6.09961,-6.199219 3.19,0 6.100906,2.610781 6.100906,5.800781 0,1.595 -0.637937,3.041938 -1.710937,4.085938 l -3.597656,3.65625 c -2.088001,2.117 -3.69075,5.017031 -3.690751,8.207031 V 40 41 h 5.898438 v -1 h -0.05859 c 0.19426,-3.614822 1.735908,-5.264641 3.651688,-7.207031 L 41.201821,30.125 c 1.653,-1.653 2.699218,-3.971438 2.699218,-6.523438 C 43.901039,17.192563 38.408352,12 31.999352,12 Z m -3,34 v 6 h 6 v -6 z"/>
 <path style="fill:#8b9cbe;opacity:0.1" d="M 5 2 C 3.3379704 2 2 3.3379704 2 5 L 2 6 C 2 4.3379704 3.3379704 3 5 3 L 59 3 C 60.66203 3 62 4.3379704 62 6 L 62 5 C 62 3.3379704 60.66203 2 59 2 L 5 2 z"/>
</svg>
