<svg xmlns="http://www.w3.org/2000/svg" width="64" height="64" version="1">
 <rect style="opacity:0.2" width="56" height="56" x="4" y="5" rx="16.8" ry="16.8"/>
 <rect style="fill:#b2bfd9" width="56" height="56" x="4" y="4" rx="16.8" ry="16.8"/>
 <path style="opacity:0.1" d="m 20.869535,13.730708 c -1.07135,2.265426 -1.74713,4.666291 -1.804696,7.269646 h -2.031341 v 3.329374 c 0,2.893202 -0.105788,2.694778 0.625004,2.361994 2.709793,-1.234654 6.373368,1.170634 6.373374,4.343776 0,1.563304 -0.376114,2.318488 -2.106786,4.247422 -2.97061,3.310936 -3.075342,3.962054 -1.218754,7.445356 1.792484,3.363058 4.461786,5.904998 8.458382,8.049528 L 31.951194,52.27 34.826212,50.816866 c 4.054016,-2.04646 8.807186,-7.36088 10.153704,-10.708398 L 44.271578,37.87408 c 0.0194,0.06104 -0.254114,-0.508424 -0.632816,-1.059902 -0.0425,-0.06188 -0.10836,-0.13392 -0.15364,-0.19792 -0.522976,0.48246 -1.135288,1.54521 -1.890638,3.106788 -1.71675,3.549124 -4.193384,6.153942 -7.403688,7.791712 L 32.00067,48.51216 V 22.650032 c 4.049702,1.127958 8.330274,1.095504 12.377678,1.947928 l 0.39323,2.015638 c 0.442692,0.02512 1.301363,0.10882 1.738775,0.330732 0.19886,0.0928 0.379656,0.206464 0.557294,0.322916 v -6.266892 h -1.931299 c -0.05756,-2.603355 -0.733344,-5.00422 -1.804696,-7.269646 l -7.23981,5.541699 0.500002,0.760422 -4.591172,-1.036465 -4.891515,1.036465 0.500004,-0.760422 z m 23.917673,14.17196 c -0.695274,-0.063 -1.26788,0.316412 -1.820326,0.638024 -2.013874,1.496904 -1.928352,3.046352 0.312504,5.63545 1.05652,1.220722 2.075484,2.703402 2.263034,3.29429 l 0.341146,1.072922 0.875006,-1.080736 c 2.12451,-2.623652 1.39745,-8.13282 -1.231778,-9.330784 -0.262798,-0.13774 -0.507828,-0.208166 -0.739586,-0.229166 z m -25.047024,0.0573 c -0.414262,-0.04568 -0.825449,0.03482 -1.273446,0.17186 -2.577161,1.174242 -3.314917,6.212476 -1.348965,9.216202 l 0.765628,1.166672 0.726567,-1.408862 c 0.400253,-0.77509 1.469728,-2.238462 2.377618,-3.25262 1.970482,-2.201108 1.983678,-3.867172 0.03906,-5.31253 -0.455194,-0.363136 -0.872202,-0.535052 -1.286464,-0.580728 z"/>
 <path style="fill:#134057" d="M 20.869535,12.730354 C 19.798185,14.99578 19.122405,17.396645 19.064839,20 h -2.031341 v 3.329374 c 0,2.893202 -0.105788,2.694778 0.625004,2.361994 2.709793,-1.234654 6.373368,1.170634 6.373374,4.343776 0,1.563304 -0.376114,2.318488 -2.106786,4.247422 -2.97061,3.310936 -3.075342,3.962054 -1.218754,7.445356 1.792484,3.363058 4.461786,5.904998 8.458382,8.049528 l 2.786476,1.492196 2.875018,-1.453134 c 4.054016,-2.04646 8.807186,-7.36088 10.153704,-10.708398 l -0.708338,-2.234388 c 0.0194,0.06104 -0.254114,-0.508424 -0.632816,-1.059902 -0.0425,-0.06188 -0.10836,-0.13392 -0.15364,-0.19792 -0.522976,0.48246 -1.135288,1.54521 -1.890638,3.106788 -1.71675,3.549124 -4.193384,6.153942 -7.403688,7.791712 L 32.00067,47.511806 V 21.649678 c 4.049702,1.127958 8.330274,1.095504 12.377678,1.947928 l 0.39323,2.015638 c 0.442692,0.02512 1.301363,0.10882 1.738775,0.330732 0.19886,0.0928 0.379656,0.206464 0.557294,0.322916 V 20 h -1.931299 c -0.05756,-2.603355 -0.733344,-5.00422 -1.804696,-7.269646 l -7.23981,5.541699 0.500002,0.760422 -4.591172,-1.036465 -4.891515,1.036465 0.500004,-0.760422 z m 23.917673,14.17196 c -0.695274,-0.063 -1.26788,0.316412 -1.820326,0.638024 -2.013874,1.496904 -1.928352,3.046352 0.312504,5.63545 1.05652,1.220722 2.075484,2.703402 2.263034,3.29429 l 0.341146,1.072922 0.875006,-1.080736 c 2.12451,-2.623652 1.39745,-8.13282 -1.231778,-9.330784 -0.262798,-0.13774 -0.507828,-0.208166 -0.739586,-0.229166 z m -25.047024,0.0573 c -0.414262,-0.04568 -0.825449,0.03482 -1.273446,0.17186 -2.577161,1.174242 -3.314917,6.212476 -1.348965,9.216202 l 0.765628,1.166672 0.726567,-1.408862 c 0.400253,-0.77509 1.469728,-2.238462 2.377618,-3.25262 1.970482,-2.201108 1.983678,-3.867172 0.03906,-5.31253 -0.455194,-0.363136 -0.872202,-0.535052 -1.286464,-0.580728 z"/>
 <path style="opacity:0.2;fill:#8b9cbe" d="M 20.800781 4 C 11.493581 4 4 11.493581 4 20.800781 L 4 21.800781 C 4 12.493581 11.493581 5 20.800781 5 L 43.199219 5 C 52.506419 5 60 12.493581 60 21.800781 L 60 20.800781 C 60 11.493581 52.506419 4 43.199219 4 L 20.800781 4 z"/>
</svg>
