<svg xmlns="http://www.w3.org/2000/svg" width="64" height="64" version="1.1">
 <path style="opacity:0.2" d="m 27.520103,28.899999 c -3.349397,-0.83217 -5.598921,-1.93472 -6.184298,-5.748798 -0.148763,-0.969276 -0.373995,-1.762322 -0.500512,-1.762322 -0.126518,0 -1.044842,0.410965 -2.040718,0.913252 -1.026333,0.517647 -2.357665,0.740128 -3.336578,0.684876 -1.802501,-0.101736 -3.42893,-1.445156 -4.526918,-3.321336 -0.443021,-0.757007 -0.806185,-1.616028 -0.807037,-2.27562 C 10.12284,16.438402 10.10979,15.893463 9.0668632,15.857957 7.4139561,16.10383 6.3706859,15.824257 5.6859729,15.100029 5.1008338,14.49038 4.888027,12.274298 4.888027,11.860259 c 0,-0.414038 -1.2603741,-0.585143 -1.9870614,-1.366296 C 1.9970922,9.5223411 1.5390842,9.115636 2.6638174,9.1124933 7.3224245,9.4506647 11.663229,10.036386 16.359644,10.06104 c 6.16943,-0.05045 10.44058,-0.4195578 16.516444,-1.0513885 0.577033,0.2004001 2.036674,2.2412815 2.271309,6.6445155 0.190363,3.572417 -0.832058,6.054261 -1.7835,10.739908 -0.662825,2.834812 -3.427062,2.970494 -5.843794,2.505929 z"/>
 <path style="opacity:0.2" d="m 32.591908,9.0000404 c 0,0 0.596778,1.6469626 0.804359,5.5250396 0.191709,3.581531 -0.236479,8.208923 -1.194645,12.90652 0,0 -0.376338,1.4602 -1.830083,10.174047 -0.584235,3.494417 -1.161382,8.705105 -1.282461,11.079994 -0.190314,3.732929 -0.110795,4.52276 0.585431,5.829282 1.030334,1.933508 3.614634,3.437998 5.828041,3.447222 l 1.706899,0.0069 -0.198194,-3.198008 c -0.348647,-5.625695 2.146404,-12.069987 6.046455,-14.796036 3.505144,-2.450019 4.261655,-0.768168 2.961307,6.585142 -1.162023,6.571089 -1.006057,8.572022 0.79887,10.244884 1.538644,1.426059 3.773059,1.570914 7.087985,0.460474 3.422553,-1.1465 8.714452,-5.977428 8.063845,-7.735981 -0.342922,-0.926898 -0.749708,-0.604063 -2.795433,1.04304 -2.40067,1.932882 -4.035264,1.875719 -4.972929,0.801054 -0.681278,-0.780822 -0.660122,-1.260412 0.41529,-5.72999 0.779171,-3.238368 1.482991,-5.575193 1.496355,-8.149595 0.01805,-4.079882 -0.518932,-5.760564 -4.394602,-6.347978 -2.962206,-0.417269 -7.354693,0.423248 -10.882276,2.940607 -1.082155,0.772248 -2.059108,1.308956 -2.170975,1.192928 -0.111873,-0.116034 0.463332,-4.019332 1.278192,-8.307249 0.81486,-4.287912 1.481872,-8.322306 1.481872,-8.96467 0,-1.18722 -1.643595,-3.074151 -6.472063,-7.431448 C 33.98515,9.70274 33.459875,9.1999492 32.591908,9.000047 Z"/>
 <path style="fill:#f48e06" d="m 27.520103,27.899959 c -3.349397,-0.83217 -5.598921,-1.93472 -6.184298,-5.748798 -0.148763,-0.969276 -0.373995,-1.762322 -0.500512,-1.762322 -0.126518,0 -1.044842,0.410965 -2.040718,0.913252 -1.026333,0.517647 -2.357665,0.740128 -3.336578,0.684876 -1.802501,-0.101736 -3.42893,-1.445156 -4.526918,-3.321336 -0.443021,-0.757007 -0.806185,-1.616028 -0.807037,-2.27562 C 10.12284,15.438362 10.10979,14.893423 9.0668632,14.857917 7.4139561,15.10379 6.3706859,14.824217 5.6859729,14.099989 5.1008338,13.49034 4.888027,11.274258 4.888027,10.860219 4.888027,10.446181 3.6276529,10.275076 2.9009656,9.493923 1.9970922,8.5223009 1.5390842,8.1155958 2.6638174,8.1124531 7.3224245,8.4506245 11.663229,9.0363461 16.359644,9.061 c 6.16943,-0.050454 10.44058,-0.419558 16.516444,-1.0513887 0.577033,0.2004001 2.036674,2.2412817 2.271309,6.6445157 0.190363,3.572417 -0.832058,6.054261 -1.7835,10.739908 -0.662825,2.834812 -3.427062,2.970494 -5.843794,2.505929 z"/>
 <path style="fill:#8b9cbe;opacity:0.2" d="M 32.876953 8.0097656 C 26.801089 8.6415963 22.528805 9.0100929 16.359375 9.0605469 C 11.66296 9.035893 7.3226696 8.4514527 2.6640625 8.1132812 C 1.7080393 8.1159525 1.9218335 8.4342298 2.5546875 9.1191406 C 2.5938941 9.1177741 2.6200841 9.1134041 2.6640625 9.1132812 C 7.3226696 9.4514527 11.66296 10.035893 16.359375 10.060547 C 22.528805 10.010097 26.801089 9.6415963 32.876953 9.0097656 C 33.453986 9.2101657 34.911849 11.251063 35.146484 15.654297 C 35.155026 15.814596 35.14857 15.962936 35.152344 16.119141 C 35.170657 15.645571 35.173566 15.162525 35.146484 14.654297 C 34.911849 10.251063 33.453986 8.2101657 32.876953 8.0097656 z"/>
 <path style="fill:#9b9c9c" d="m 32.591908,8.0000002 c 0,0 0.596778,1.6469622 0.804359,5.5250398 0.191709,3.581531 -0.236479,8.208923 -1.194645,12.90652 0,0 -0.376338,1.4602 -1.830083,10.174047 -0.584235,3.494417 -1.161382,8.705105 -1.282461,11.079994 -0.190314,3.732929 -0.110795,4.52276 0.585431,5.829282 1.030334,1.933508 3.614634,3.437998 5.828041,3.447222 l 1.706899,0.0069 -0.198194,-3.198008 c -0.348647,-5.625695 2.146404,-12.069987 6.046455,-14.796036 3.505144,-2.450019 4.261655,-0.768168 2.961307,6.585142 -1.162023,6.571089 -1.006057,8.572022 0.79887,10.244884 1.538644,1.426059 3.773059,1.570914 7.087985,0.460474 3.422553,-1.1465 8.714452,-5.977428 8.063845,-7.735981 -0.342922,-0.926898 -0.749708,-0.604063 -2.795433,1.04304 -2.40067,1.932882 -4.035264,1.875719 -4.972929,0.801054 -0.681278,-0.780822 -0.660122,-1.260412 0.41529,-5.72999 0.779171,-3.238368 1.482991,-5.575193 1.496355,-8.149595 0.01805,-4.079882 -0.518932,-5.760564 -4.394602,-6.347978 -2.962206,-0.417269 -7.354693,0.423248 -10.882276,2.940607 -1.082155,0.772248 -2.059108,1.308956 -2.170975,1.192928 -0.111873,-0.116034 0.463332,-4.019332 1.278192,-8.307249 0.81486,-4.287912 1.481872,-8.322306 1.481872,-8.96467 0,-1.18722 -1.643595,-3.074151 -6.472063,-7.4314478 C 33.98515,8.7026998 33.459875,8.199909 32.591908,8.0000068 Z"/>
 <path style="fill:#8b9cbe;opacity:0.2" d="M 32.591797 8 C 32.591797 8 32.717114 8.3877801 32.867188 9.0957031 C 33.5749 9.3350352 34.09635 9.8030558 34.953125 10.576172 C 39.283053 14.483577 41.040281 16.398237 41.359375 17.609375 C 41.384365 17.39325 41.425781 17.098244 41.425781 17.007812 C 41.425781 15.820593 39.781593 13.933469 34.953125 9.5761719 C 33.985127 8.7026925 33.459764 8.1999022 32.591797 8 z M 33.431641 15.685547 C 33.398613 18.879601 32.977146 22.627273 32.201172 26.431641 C 32.201172 26.431641 31.824839 27.891622 30.371094 36.605469 C 29.786859 40.099886 29.210923 45.310658 29.089844 47.685547 C 29.02498 48.95782 29.007974 49.815515 29.019531 50.541016 C 29.033134 49.999625 29.051507 49.437507 29.089844 48.685547 C 29.210923 46.310658 29.786859 41.099886 30.371094 37.605469 C 31.824839 28.891622 32.201172 27.431641 32.201172 27.431641 C 33.059419 23.223917 33.488428 19.079468 33.431641 15.685547 z M 50.544922 30.048828 C 47.671497 29.964588 43.922573 30.883248 40.835938 33.085938 C 39.840232 33.796493 38.965879 34.282781 38.740234 34.269531 C 38.670303 34.842644 38.634021 35.246112 38.666016 35.279297 C 38.777883 35.395325 39.753782 34.858185 40.835938 34.085938 C 44.36352 31.568578 48.756544 30.729215 51.71875 31.146484 C 55.36119 31.698549 56.046271 33.243121 56.101562 36.810547 C 56.104429 36.704894 56.112729 36.600525 56.113281 36.494141 C 56.131331 32.414259 55.59442 30.733898 51.71875 30.146484 C 51.348474 30.094326 50.955411 30.060862 50.544922 30.048828 z M 46.599609 40.994141 C 46.548865 42.160878 46.353714 43.670782 46.019531 45.560547 C 45.490731 48.550846 45.250559 50.565277 45.298828 52.0625 C 45.360053 50.6835 45.601151 48.926433 46.019531 46.560547 C 46.460122 44.06906 46.658192 42.243319 46.599609 40.994141 z M 61.474609 48.017578 C 61.091913 48.03063 60.452406 48.542826 59.173828 49.572266 C 56.773158 51.505148 55.138837 51.447712 54.201172 50.373047 C 53.987644 50.12832 53.853753 49.90165 53.789062 49.583984 C 53.671956 50.573281 53.821744 50.93818 54.201172 51.373047 C 55.138837 52.447712 56.773158 52.505148 59.173828 50.572266 C 61.115601 49.008859 61.578545 48.653048 61.914062 49.412109 C 62.027928 49.073208 62.057888 48.770232 61.96875 48.529297 C 61.840154 48.18171 61.704227 48.009747 61.474609 48.017578 z M 36.994141 53.205078 C 36.979393 53.731251 36.979746 54.255581 37.011719 54.771484 L 37.146484 56.96875 L 37.208984 56.96875 L 37.011719 53.771484 C 37.000124 53.584392 36.999498 53.393814 36.994141 53.205078 z"/>
</svg>
