<svg xmlns="http://www.w3.org/2000/svg" width="64" height="64" version="1">
 <rect style="opacity:0.2" width="56" height="56" x="4" y="5" rx="2.8" ry="2.8"/>
 <rect style="fill:#4f4f4f" width="56" height="56" x="4" y="4" rx="2.8" ry="2.8"/>
 <path style="opacity:0.2" d="m 15.200002,32 1.411414,2 h 18.543386 l 2.691794,1.033667 h 3.013765 l 0.06427,0.816666 L 37.90962,46.048944 40.475682,49 h 10.007506 l 0.926594,-4.049853 H 42.72103 L 41.99629,43.697853 44.452853,36 h 9.3539 l 0.974637,-4 z"/>
 <path style="opacity:0.2" d="M 30.612195,13 26.709352,27.0235 23.518971,26.9765 20.409516,28 H 9.4696242 L 6.7993907,30 H 30.859095 L 35.55501,13.000002 Z m 12.328638,0 -1.750214,6.804807 0.784185,2.528386 -1.988233,-1.333611 h -5.567695 l -1.250064,5.000086 h 5.454078 l 0.838456,1.148663 -0.934931,2.851667 h 4.661322 L 47.883335,13 Z"/>
 <path style="fill:#8b9cbe" d="M 30.612195,12 26.709352,26.0235 23.518971,25.9765 20.409516,27 H 9.4696242 L 6.7993907,29 H 30.859095 L 35.55501,12.000002 Z m 12.328638,0 -1.750214,6.804807 0.784185,2.528386 -1.988233,-1.333611 h -5.567695 l -1.250064,5.000086 h 5.454078 l 0.838456,1.148663 -0.934931,2.851667 h 4.661322 L 47.883335,12 Z"/>
 <path style="fill:#dc384b" d="m 15.200002,31 1.411414,2 h 18.543386 l 2.691794,1.033667 h 3.013765 l 0.06427,0.816666 L 37.90962,45.048944 40.475682,48 h 10.007506 l 0.926594,-4.049853 H 42.72103 L 41.99629,42.697853 44.452853,35 h 9.3539 l 0.974637,-4 z"/>
 <path style="opacity:0.2;fill:#8b9cbe" d="M 15.199219 31 L 15.90625 32 L 54.537109 32 L 54.78125 31 L 15.199219 31 z M 40.863281 35.054688 L 37.910156 45.048828 L 38.130859 45.302734 L 40.923828 35.849609 L 40.863281 35.054688 z M 42.201172 43.052734 L 41.996094 43.697266 L 42.720703 44.949219 L 51.181641 44.949219 L 51.410156 43.949219 L 42.720703 43.949219 L 42.201172 43.052734 z"/>
 <path style="opacity:0.2" d="m 44.461673,52.283049 c -1.561802,1.650998 -2.791354,2.262917 -2.791354,1.389266 0,-0.171185 0.539821,-1.356701 1.199606,-2.634429 1.21419,-2.351385 1.37981,-2.89963 0.976729,-3.235543 -0.309393,-0.257855 -0.809449,-0.112741 -2.47595,0.718453 l -1.424226,0.710221 h -1.821071 c -1.580353,0 -1.862935,0.03811 -2.137093,0.28703 -0.444272,0.403352 -0.416887,1.146329 0.05888,1.595124 0.493451,0.465512 0.494319,1.262012 0.0036,2.815589 -0.660181,2.09014 -1.765125,3.626638 -2.793694,3.884296 -0.470318,0.117825 -0.883894,-0.2302 -0.883894,-0.743743 0,-0.19058 0.331942,-1.185025 0.737156,-2.210064 0.916,-2.317219 1.504571,-4.566815 1.259645,-4.812729 -0.127794,-0.128324 -0.475929,-0.06931 -1.38148,0.233505 -1.804439,0.603434 -1.859518,0.670516 -1.985657,2.402687 -0.132677,1.82193 -0.632759,2.987776 -1.77247,4.132215 -1.488391,1.494568 -1.689072,0.576921 -0.48909,-2.238589 1.129555,-2.650286 1.300303,-3.154412 1.12579,-3.32965 -0.201398,-0.202234 -2.953791,0.70603 -3.440064,1.135174 -0.225661,0.199134 -0.47993,0.750364 -0.700539,1.520135 -0.305626,1.066428 -0.334629,1.400805 -0.248063,2.860877 0.06535,1.102174 0.18381,1.818515 0.354965,2.149185 0.293647,0.56763 1.046007,1.083765 1.581495,1.084595 0.626613,0.0014 1.549359,-0.556681 2.474179,-1.495138 l 0.889744,-0.902846 0.498462,0.514946 c 0.928944,0.960471 2.277537,0.829001 3.885527,-0.378786 0.894425,-0.671809 2.208691,-2.370606 2.909677,-3.760781 0.271429,-0.538296 0.685754,-1.289674 0.921089,-1.669824 0.428122,-0.69161 1.113274,-1.164805 1.346913,-0.930198 0.06829,0.06857 -0.279088,0.998901 -0.772292,2.067137 -0.925419,2.004332 -1.078875,2.737716 -0.661028,3.157316 0.381806,0.383328 1.148895,0.291138 1.803798,-0.216743 1.030673,-0.799285 2.517234,-1.763388 3.087745,-2.002435 l 0.554133,-0.23233 0.298125,0.507301 c 0.378659,0.644418 0.967996,0.769676 2.446071,0.520238 1.64585,-0.27776 3.044396,-0.783575 5.564561,-2.01273 3.025819,-1.475776 3.086036,-1.492102 5.018354,-1.366916 1.027968,0.0666 1.829454,0.04465 2.218503,-0.06086 2.028843,-0.550283 3.915546,-3.177302 4.080578,-5.68176 0.147943,-1.40107 -0.496322,-2.828599 -1.675226,-3.47993 -0.688456,-0.361537 -2.09484,-0.315763 -3.043229,0.09912 -2.6698,1.507048 -3.522991,3.951603 -3.172373,6.919274 0.09094,0.656873 0.06967,0.881128 -0.09519,1.006659 -0.387033,0.294655 -3.071415,1.324165 -3.176769,1.218402 -0.05696,-0.05719 0.0458,-0.306661 0.228133,-0.554355 0.795454,-1.080369 1.063913,-1.561668 1.358337,-2.437095 0.535941,-1.593477 0.371656,-2.524655 -0.588021,-3.335534 -0.553392,-0.467586 -1.531621,-0.757762 -2.191569,-0.650223 -0.263644,0.04296 -0.519249,0.03792 -0.567877,-0.01092 1.007769,-2.110123 2.322367,-4.435681 3.379444,-6.233171 0.587624,-0.997135 1.068394,-1.975388 1.068394,-2.173586 0,-0.549138 -0.402241,-1.049477 -1.12667,-1.40162 -1.172189,-0.148946 -1.937489,0.583017 -2.542235,1.550655 -3.017974,5.072168 -5.194027,10.974068 -7.372298,15.71312 z M 18.628845,46.57897 c -1.280139,0.53364 -3.614792,0.762907 -2.175357,2.447068 0.68644,0.771442 1.577164,0.765702 3.998871,-0.02559 1.072147,-0.350322 2.043916,-0.673083 2.159346,-0.717278 -0.26204,2.464958 -7.338777,12.52525 -5.897274,14.488773 0.356222,0.357626 1.030321,0.287894 1.56248,-0.161746 1.131903,-0.956376 3.550092,-5.005124 6.45782,-10.811514 l 2.484419,-4.96095 3.064322,-1.221049 c 5.179272,-2.063656 5.953315,-2.130531 5.507149,-3.484042 -0.526432,-1.597045 -6.848827,1.02932 -8.475637,1.493357 -2.949159,0.845444 -5.799549,1.841073 -8.686139,2.952969 z m 42.216651,-2.39213 c 0.886748,0 1.135651,0.90666 0.704066,2.565908 -0.292422,1.124565 -0.890421,2.147249 -1.624551,2.778239 -0.79514,0.683432 -1.349958,0.708052 -1.612548,0.07147 -0.663005,-1.607271 1.118151,-5.41561 2.533033,-5.415611 z m -9.749391,2.560907 c 0.261233,-0.0048 0.491254,0.06832 0.62147,0.225859 0.485499,0.587412 -0.499152,3.556708 -1.565989,4.722742 -0.834325,0.911881 -2.11691,1.396308 -2.415011,0.91196 -0.354643,-0.576224 1.400068,-4.675837 2.342089,-5.471778 0.294085,-0.24849 0.681599,-0.38276 1.017441,-0.388783 z"/>
 <path style="fill:#ffc208" d="m 44.461673,51.283049 c -1.561802,1.650998 -2.791354,2.262917 -2.791354,1.389266 0,-0.171185 0.539821,-1.356701 1.199606,-2.634429 1.21419,-2.351385 1.37981,-2.89963 0.976729,-3.235543 -0.309393,-0.257855 -0.809449,-0.112741 -2.47595,0.718453 l -1.424226,0.710221 h -1.821071 c -1.580353,0 -1.862935,0.03811 -2.137093,0.28703 -0.444272,0.403352 -0.416887,1.146329 0.05888,1.595124 0.493451,0.465512 0.494319,1.262012 0.0036,2.815589 -0.660181,2.09014 -1.765125,3.626638 -2.793694,3.884296 -0.470318,0.117825 -0.883894,-0.2302 -0.883894,-0.743743 0,-0.19058 0.331942,-1.185025 0.737156,-2.210064 0.916,-2.317219 1.504571,-4.566815 1.259645,-4.812729 -0.127794,-0.128324 -0.475929,-0.06931 -1.38148,0.233505 -1.804439,0.603434 -1.859518,0.670516 -1.985657,2.402687 -0.132677,1.82193 -0.632759,2.987776 -1.77247,4.132215 -1.488391,1.494568 -1.689072,0.576921 -0.48909,-2.238589 1.129555,-2.650286 1.300303,-3.154412 1.12579,-3.32965 -0.201398,-0.202234 -2.953791,0.70603 -3.440064,1.135174 -0.225661,0.199134 -0.47993,0.750364 -0.700539,1.520135 -0.305626,1.066428 -0.334629,1.400805 -0.248063,2.860877 0.06535,1.102174 0.18381,1.818515 0.354965,2.149185 0.293647,0.56763 1.046007,1.083765 1.581495,1.084595 0.626613,0.0014 1.549359,-0.556681 2.474179,-1.495138 l 0.889744,-0.902846 0.498462,0.514946 c 0.928944,0.960471 2.277537,0.829001 3.885527,-0.378786 0.894425,-0.671809 2.208691,-2.370606 2.909677,-3.760781 0.271429,-0.538296 0.685754,-1.289674 0.921089,-1.669824 0.428122,-0.69161 1.113274,-1.164805 1.346913,-0.930198 0.06829,0.06857 -0.279088,0.998901 -0.772292,2.067137 -0.925419,2.004332 -1.078875,2.737716 -0.661028,3.157316 0.381806,0.383328 1.148895,0.291138 1.803798,-0.216743 1.030673,-0.799285 2.517234,-1.763388 3.087745,-2.002435 l 0.554133,-0.23233 0.298125,0.507301 c 0.378659,0.644418 0.967996,0.769676 2.446071,0.520238 1.64585,-0.27776 3.044396,-0.783575 5.564561,-2.01273 3.025819,-1.475776 3.086036,-1.492102 5.018354,-1.366916 1.027968,0.0666 1.829454,0.04465 2.218503,-0.06086 2.028843,-0.550283 3.915546,-3.177302 4.080578,-5.68176 0.147943,-1.40107 -0.496322,-2.828599 -1.675226,-3.47993 -0.688456,-0.361537 -2.09484,-0.315763 -3.043229,0.09912 -2.6698,1.507048 -3.522991,3.951603 -3.172373,6.919274 0.09094,0.656873 0.06967,0.881128 -0.09519,1.006659 -0.387033,0.294655 -3.071415,1.324165 -3.176769,1.218402 -0.05696,-0.05719 0.0458,-0.306661 0.228133,-0.554355 0.795454,-1.080369 1.063913,-1.561668 1.358337,-2.437095 0.535941,-1.593477 0.371656,-2.524655 -0.588021,-3.335534 -0.553392,-0.467586 -1.531621,-0.757762 -2.191569,-0.650223 -0.263644,0.04296 -0.519249,0.03792 -0.567877,-0.01092 1.007769,-2.110123 2.322367,-4.435681 3.379444,-6.233171 0.587624,-0.997135 1.068394,-1.975388 1.068394,-2.173586 0,-0.549138 -0.402241,-1.049477 -1.12667,-1.40162 -1.172189,-0.148946 -1.937489,0.583017 -2.542235,1.550655 -3.017974,5.072168 -5.194027,10.974068 -7.372298,15.71312 z M 18.628845,45.57897 c -1.280139,0.53364 -3.614792,0.762907 -2.175357,2.447068 0.68644,0.771442 1.577164,0.765702 3.998871,-0.02559 1.072147,-0.350322 2.043916,-0.673083 2.159346,-0.717278 -0.26204,2.464958 -7.338777,12.52525 -5.897274,14.488773 0.356222,0.357626 1.030321,0.287894 1.56248,-0.161746 1.131903,-0.956376 3.550092,-5.005124 6.45782,-10.811514 l 2.484419,-4.96095 3.064322,-1.221049 c 5.179272,-2.063656 5.953315,-2.130531 5.507149,-3.484042 -0.526432,-1.597045 -6.848827,1.02932 -8.475637,1.493357 -2.949159,0.845444 -5.799549,1.841073 -8.686139,2.952969 z m 42.216651,-2.39213 c 0.886748,0 1.135651,0.90666 0.704066,2.565908 -0.292422,1.124565 -0.890421,2.147249 -1.624551,2.778239 -0.79514,0.683432 -1.349958,0.708052 -1.612548,0.07147 -0.663005,-1.607271 1.118151,-5.41561 2.533033,-5.415611 z m -9.749391,2.560907 c 0.261233,-0.0048 0.491254,0.06832 0.62147,0.225859 0.485499,0.587412 -0.499152,3.556708 -1.565989,4.722742 -0.834325,0.911881 -2.11691,1.396308 -2.415011,0.91196 -0.354643,-0.576224 1.400068,-4.675837 2.342089,-5.471778 0.294085,-0.24849 0.681599,-0.38276 1.017441,-0.388783 z"/>
 <path style="fill:#8b9cbe;opacity:0.1" d="M 6.8007812 4 C 5.249581 4 4 5.249581 4 6.8007812 L 4 7.8007812 C 4 6.249581 5.249581 5 6.8007812 5 L 57.199219 5 C 58.750419 5 60 6.249581 60 7.8007812 L 60 6.8007812 C 60 5.249581 58.750419 4 57.199219 4 L 6.8007812 4 z"/>
 <path style="opacity:0.2;fill:#8b9cbe" d="M 53.955078 34.003906 C 53.015052 34.057456 52.363137 34.723629 51.833984 35.570312 C 48.81601 40.64248 46.639209 46.544151 44.460938 51.283203 C 43.307465 52.502551 42.339692 53.150712 41.910156 53.056641 C 41.801405 53.314048 41.669922 53.613542 41.669922 53.671875 C 41.669922 54.545526 42.899135 53.934201 44.460938 52.283203 C 46.639209 47.544151 48.81601 41.64248 51.833984 36.570312 C 52.43873 35.602674 53.204764 34.870585 54.376953 35.019531 C 54.848031 35.248521 55.165211 35.544104 55.341797 35.871094 C 55.434648 35.660137 55.503906 35.485935 55.503906 35.419922 C 55.503906 34.870784 55.101382 34.371674 54.376953 34.019531 C 54.230429 34.000913 54.089368 33.996256 53.955078 34.003906 z M 34.472656 40.626953 C 32.396137 40.713617 28.534561 42.278925 27.314453 42.626953 C 24.365294 43.472397 21.515496 44.466229 18.628906 45.578125 C 17.453381 46.068156 15.396658 46.305569 16.181641 47.644531 C 16.632694 47.125647 17.833279 46.909791 18.628906 46.578125 C 21.515496 45.466229 24.365294 44.472397 27.314453 43.626953 C 28.920745 43.168769 35.09531 40.609316 35.757812 42.082031 C 35.924842 41.820692 35.923728 41.535415 35.791016 41.132812 C 35.659408 40.733551 35.164829 40.598065 34.472656 40.626953 z M 60.878906 41.330078 C 60.322705 41.34819 59.73396 41.464433 59.259766 41.671875 C 56.801242 43.059662 55.897129 45.248154 56.041016 47.902344 C 56.1607 45.700108 57.11763 43.881067 59.259766 42.671875 C 60.208155 42.256992 61.616231 42.210729 62.304688 42.572266 C 63.233894 43.085642 63.822145 44.083199 63.960938 45.167969 C 63.964275 45.129492 63.975983 45.091162 63.978516 45.052734 C 64.126459 43.651664 63.483592 42.223597 62.304688 41.572266 C 61.960459 41.391497 61.435108 41.311966 60.878906 41.330078 z M 52.166016 43.828125 C 51.972855 43.808738 51.788034 43.811006 51.623047 43.837891 C 51.595562 43.842369 51.57396 43.84031 51.546875 43.84375 C 51.380615 44.173506 51.208639 44.505774 51.054688 44.828125 C 51.103316 44.876965 51.359403 44.880851 51.623047 44.837891 C 52.282995 44.730352 53.261061 45.020695 53.814453 45.488281 C 54.280268 45.881871 54.556295 46.306103 54.658203 46.818359 C 54.816451 45.808004 54.551562 45.111102 53.814453 44.488281 C 53.399409 44.137592 52.745498 43.886287 52.166016 43.828125 z M 61.701172 44.90625 C 61.668203 45.168566 61.631821 45.432882 61.548828 45.751953 C 61.256406 46.876518 60.659911 47.90026 59.925781 48.53125 C 59.130641 49.214682 58.57509 49.238145 58.3125 48.601562 C 58.271062 48.501108 58.239826 48.393527 58.216797 48.277344 C 58.15599 48.780016 58.166639 49.247964 58.3125 49.601562 C 58.57509 50.238145 59.130641 50.214682 59.925781 49.53125 C 60.659911 48.90026 61.256406 47.876518 61.548828 46.751953 C 61.755912 45.95581 61.802713 45.338838 61.701172 44.90625 z M 43.564453 46.689453 C 43.21517 46.660446 42.62097 46.898089 41.371094 47.521484 L 39.947266 48.230469 L 38.125 48.230469 C 36.544647 48.230469 36.262439 48.268658 35.988281 48.517578 C 35.644814 48.82941 35.591199 49.34068 35.800781 49.765625 C 35.850176 49.675503 35.908914 49.589635 35.988281 49.517578 C 36.262439 49.268658 36.544647 49.230469 38.125 49.230469 L 39.947266 49.230469 L 41.371094 48.521484 C 43.037595 47.69029 43.53631 47.544879 43.845703 47.802734 C 43.863255 47.817362 43.873316 47.835998 43.888672 47.851562 C 44.091886 47.271918 44.067713 46.98775 43.845703 46.802734 C 43.768355 46.738271 43.680881 46.699122 43.564453 46.689453 z M 51.769531 47.119141 C 51.561916 48.264944 50.883052 49.898614 50.152344 50.697266 C 49.367735 51.554809 48.196436 52.022547 47.810547 51.673828 C 47.693373 52.122886 47.65131 52.469284 47.736328 52.607422 C 48.034429 53.09177 49.318019 52.609147 50.152344 51.697266 C 51.158958 50.597054 52.075187 47.914543 51.769531 47.119141 z M 22.611328 48.283203 C 22.593365 48.290081 22.331983 48.375107 22.275391 48.394531 C 20.918422 51.761014 15.932576 59.285587 16.583984 61.486328 C 17.150334 58.104492 22.386313 50.399878 22.611328 48.283203 z M 34.228516 48.986328 C 34.034242 48.962984 33.667445 49.052186 32.988281 49.279297 C 31.183842 49.882731 31.128092 49.951423 31.001953 51.683594 C 30.869276 53.505524 30.37018 54.670014 29.230469 55.814453 C 28.631757 56.415649 28.244948 56.620568 28.070312 56.474609 C 27.768866 57.699423 28.161422 57.887936 29.230469 56.814453 C 30.37018 55.670014 30.869276 54.505524 31.001953 52.683594 C 31.128092 50.951423 31.183842 50.882731 32.988281 50.279297 C 33.803203 50.006788 34.154767 49.942211 34.3125 50.023438 C 34.41053 49.52552 34.455278 49.13336 34.369141 49.046875 C 34.337192 49.014794 34.293274 48.99411 34.228516 48.986328 z M 56.080078 49.490234 C 56.057156 49.532343 56.029321 49.569381 55.992188 49.597656 C 55.71916 49.805517 54.328133 50.365706 53.480469 50.648438 C 53.352617 50.835295 53.216048 51.029299 53.044922 51.261719 C 52.862589 51.509413 52.759446 51.759216 52.816406 51.816406 C 52.92176 51.922169 55.605154 50.892311 55.992188 50.597656 C 56.157048 50.472125 56.178831 50.246717 56.087891 49.589844 C 56.083868 49.555794 56.083783 49.524146 56.080078 49.490234 z M 29.681641 50.220703 C 29.013246 50.264937 26.853223 51.007312 26.427734 51.382812 C 26.202073 51.581947 25.947171 52.132573 25.726562 52.902344 C 25.46632 53.810415 25.413616 54.227233 25.455078 55.220703 C 25.48798 54.807892 25.569707 54.449662 25.726562 53.902344 C 25.947171 53.132573 26.202073 52.581947 26.427734 52.382812 C 26.857706 52.003356 29.052008 51.252373 29.695312 51.222656 C 29.906127 50.634245 29.96253 50.341832 29.867188 50.246094 C 29.842013 50.220815 29.777126 50.214384 29.681641 50.220703 z M 40.232422 51.318359 C 40.175485 51.307275 40.103682 51.329734 40.029297 51.353516 C 39.897841 51.683322 39.758915 52.02868 39.568359 52.441406 C 38.748178 54.217808 38.536192 54.993349 38.789062 55.439453 C 38.910687 54.964625 39.150699 54.346001 39.568359 53.441406 C 40.061563 52.37317 40.408134 51.44357 40.339844 51.375 C 40.310639 51.345674 40.274353 51.326522 40.232422 51.318359 z M 36.355469 51.650391 C 36.300476 52.012791 36.212223 52.418575 36.050781 52.929688 C 35.3906 55.019827 34.286382 56.554842 33.257812 56.8125 C 32.952161 56.889072 32.683217 56.755978 32.523438 56.521484 C 32.454762 56.74762 32.373047 57.002464 32.373047 57.068359 C 32.373047 57.378625 32.532628 57.613129 32.755859 57.736328 C 33.115107 57.734018 33.500795 57.650019 33.912109 57.474609 C 34.731134 56.871325 35.529681 55.579497 36.050781 53.929688 C 36.391512 52.850962 36.489081 52.141748 36.355469 51.650391 z"/>
</svg>
