<svg xmlns="http://www.w3.org/2000/svg" width="64" height="64" version="1">
 <path style="opacity:0.2;fill:#8b9cbe" d="m 106.53763,5.483871 c -1.108,0 -2,0.892 -2,2 v 1 c 0,-1.108 0.892,-2 2,-2 h 36 c 1.108,0 2,0.892 2,2 v -1 c 0,-1.108 -0.892,-2 -2,-2 z"/>
 <path style="opacity:0.2" d="m 20.067094,5.0009658 c -0.576486,-0.00914 -1.15364,0.046522 -1.722082,0.1725548 -2.622482,0.5814446 -4.981441,2.370313 -6.118718,5.1246074 -0.192526,0.466262 -0.647274,1.840343 -0.608597,3.327847 -0.778616,0.328007 -1.539815,0.700408 -2.1532866,1.240751 -2.2668618,1.996567 -3.3152472,4.880064 -2.7045712,7.943006 0.059886,0.300528 0.068696,0.12458 0.120082,0.323198 -0.8392536,0.727606 -1.5397472,1.542096 -1.8912896,2.224042 -1.8551742,3.598828 -0.746144,6.661206 0.4530364,9.495998 1.19918,2.834794 3.0501712,5.969942 5.684785,9.97258 2.432344,3.695362 4.352364,6.132232 6.70821,8.38398 6.682133,6.386894 14.913655,9.186936 22.979305,7.118576 6.48972,-1.664244 12.057098,-5.82964 15.285876,-11.62144 3.12541,-5.606416 4.289108,-12.801754 3.788036,-19.8356 -0.251728,-3.533686 -0.535834,-6.115946 -1.64021,-8.704438 -0.55219,-1.294245 -1.405812,-2.688461 -2.83284,-3.771557 -1.427024,-1.083098 -3.3241,-1.595278 -4.833296,-1.594079 h -0.0026 c -2.321964,0.0025 -5.287716,1.382052 -6.86923,3.333323 C 40.202444,12.630983 37.557694,8.8742724 33.865594,6.7319932 31.522962,5.372722 28.112496,4.6563424 25.05868,6.745688 23.52744,5.6454236 21.79655,5.0284118 20.067094,5.0009658 Z"/>
 <path style="fill:#17191e" d="m 20.067094,4.0009658 c -0.576486,-0.00914 -1.15364,0.046522 -1.722082,0.1725548 -2.622482,0.5814446 -4.981441,2.370313 -6.118718,5.1246078 -0.192526,0.466262 -0.647274,1.8403426 -0.608597,3.3278466 -0.778616,0.328007 -1.539815,0.700408 -2.1532866,1.240751 -2.2668618,1.996567 -3.3152472,4.880064 -2.7045712,7.943006 0.059886,0.300528 0.068696,0.12458 0.120082,0.323198 -0.8392536,0.727606 -1.5397472,1.542096 -1.8912896,2.224042 -1.8551742,3.598828 -0.746144,6.661206 0.4530364,9.495998 1.19918,2.834794 3.0501712,5.969942 5.684785,9.97258 2.432344,3.695362 4.352364,6.132232 6.70821,8.38398 6.682133,6.386894 14.913655,9.186936 22.979305,7.118576 6.48972,-1.664244 12.057098,-5.82964 15.285876,-11.62144 3.12541,-5.606416 4.289108,-12.801754 3.788036,-19.8356 -0.251728,-3.533686 -0.535834,-6.115946 -1.64021,-8.704437 -0.55219,-1.294246 -1.405812,-2.688462 -2.83284,-3.771558 -1.427024,-1.083098 -3.3241,-1.595278 -4.833296,-1.594079 h -0.0026 c -2.321964,0.0025 -5.287716,1.382052 -6.86923,3.333323 C 40.202444,11.630983 37.557694,7.8742724 33.865594,5.7319932 31.522962,4.372722 28.112496,3.6563424 25.05868,5.745688 23.52744,4.6454236 21.79655,4.0284118 20.067094,4.0009658 Z"/>
 <path style="opacity:0.2" d="m 39.272704,54.435234 c 4.968272,-1.269504 9.203062,-4.463872 11.601932,-8.751526 2.260026,-4.039518 3.46203,-10.50616 3.042796,-16.37005 -0.461064,-6.44899 -1.472976,-8.690396 -3.668192,-8.688658 -2.031654,0.0022 -3.263446,1.438534 -4.309392,5.563428 -0.214764,0.84695 -0.51172,1.727504 -0.6599,1.956796 -0.353684,0.547278 -1.2013,0.547278 -1.835506,0 -0.265704,-0.229292 -1.54737,-2.11318 -2.84814,-4.186424 -4.46952,-7.123732 -7.31124,-10.688879 -9.552972,-11.984937 -1.213444,-0.701552 -2.472876,-0.741999 -3.155492,-0.101338 -0.882894,0.828612 -0.613194,2.291779 0.887028,4.812357 6.785338,11.400222 6.75708,11.34284 5.64949,11.470954 -0.602922,0.0697 -0.1152,0.71202 -6.444878,-8.48736 -2.769634,-4.025291 -5.31718,-7.584656 -5.661214,-7.909691 -1.448636,-1.368629 -3.961859,-0.807847 -4.7344,1.056403 -0.572882,1.382432 -0.430982,1.657479 5.272332,10.219356 3.442152,5.167418 5.294838,8.11133 5.258276,8.355376 -0.09472,0.63169 -0.618774,0.828054 -1.086008,0.406874 -0.221354,-0.19952 -2.360448,-3.008596 -4.75354,-6.242384 -2.393083,-3.233786 -4.596779,-6.086274 -4.89709,-6.338866 -1.200782,-1.009932 -2.738198,-0.968402 -3.963653,0.107098 -0.729553,0.640256 -1.082444,1.653386 -0.897633,2.577006 0.07689,0.384476 2.157958,3.45447 5.570181,8.217278 4.643297,6.481186 5.439225,7.68652 5.392233,8.165976 -0.04796,0.489214 -0.12758,0.562484 -0.611228,0.562484 -0.496198,0 -0.751828,-0.259472 -2.373018,-2.408692 -6.723464,-8.91329 -7.126933,-9.356842 -8.510942,-9.356842 -0.918775,0 -1.365848,0.239968 -1.719069,0.92271 -0.982828,1.899728 0.736208,5.948846 5.743882,13.529442 2.286625,3.461506 3.805219,5.362348 5.807327,7.269118 5.74089,5.467538 11.205918,7.231346 17.45679,5.634124 z"/>
 <path style="fill:#ffca34" d="m 39.272704,53.435234 c 4.968272,-1.269504 9.203062,-4.463872 11.601932,-8.751526 2.260026,-4.039518 3.46203,-10.50616 3.042796,-16.37005 -0.461064,-6.44899 -1.472976,-8.690396 -3.668192,-8.688658 -2.031654,0.0022 -3.263446,1.438534 -4.309392,5.563428 -0.214764,0.84695 -0.51172,1.727504 -0.6599,1.956796 -0.353684,0.547278 -1.2013,0.547278 -1.835506,0 -0.265704,-0.229292 -1.54737,-2.11318 -2.84814,-4.186424 -4.46952,-7.123732 -7.31124,-10.688879 -9.552972,-11.984937 -1.213444,-0.701552 -2.472876,-0.741999 -3.155492,-0.101338 -0.882894,0.828612 -0.613194,2.291779 0.887028,4.812357 6.785338,11.400222 6.75708,11.34284 5.64949,11.470954 -0.602922,0.0697 -0.1152,0.71202 -6.444878,-8.48736 -2.769634,-4.025291 -5.31718,-7.584656 -5.661214,-7.909691 -1.448636,-1.3686288 -3.961859,-0.8078466 -4.7344,1.056403 -0.572882,1.382432 -0.430982,1.657479 5.272332,10.219356 3.442152,5.167418 5.294838,8.11133 5.258276,8.355376 -0.09472,0.63169 -0.618774,0.828054 -1.086008,0.406874 -0.221354,-0.19952 -2.360448,-3.008596 -4.75354,-6.242384 -2.393083,-3.233786 -4.596779,-6.086275 -4.89709,-6.338866 -1.200782,-1.009932 -2.738198,-0.968402 -3.963653,0.107098 -0.729553,0.640255 -1.082444,1.653386 -0.897633,2.577006 0.07689,0.384476 2.157958,3.45447 5.570181,8.217278 4.643297,6.481186 5.439225,7.68652 5.392233,8.165976 -0.04796,0.489214 -0.12758,0.562484 -0.611228,0.562484 -0.496198,0 -0.751828,-0.259472 -2.373018,-2.408692 -6.723464,-8.91329 -7.126933,-9.356842 -8.510942,-9.356842 -0.918775,0 -1.365848,0.239968 -1.719069,0.92271 -0.982828,1.899728 0.736208,5.948846 5.743882,13.529442 2.286625,3.461506 3.805219,5.362348 5.807327,7.269118 5.74089,5.467538 11.205918,7.231346 17.45679,5.634124 z"/>
 <path style="opacity:0.1;fill:#8b9cbe" d="M 20.066406 4 C 19.48992 3.99086 18.914145 4.0477953 18.345703 4.1738281 C 15.723221 4.7552727 13.363839 6.5445333 12.226562 9.2988281 C 12.034036 9.7650901 11.578511 11.137496 11.617188 12.625 C 10.838572 12.953007 10.078315 13.326845 9.4648438 13.867188 C 7.514092 15.585337 6.4727137 17.962056 6.6074219 20.542969 C 6.7542794 18.351704 7.7682885 16.36145 9.4648438 14.867188 C 10.078315 14.326844 10.838572 13.953007 11.617188 13.625 C 11.578511 12.137496 12.034036 10.76509 12.226562 10.298828 C 13.363839 7.5445337 15.723221 5.7552727 18.345703 5.1738281 C 18.914145 5.0477953 19.48992 4.99086 20.066406 5 C 21.795862 5.027446 23.527354 5.6458293 25.058594 6.7460938 C 28.11241 4.6567481 31.522602 5.3731507 33.865234 6.7324219 C 37.557334 8.8747011 40.201724 12.631434 43.708984 18.134766 C 45.290498 16.183495 48.256161 14.803281 50.578125 14.800781 L 50.582031 14.800781 C 52.091227 14.799582 53.987038 15.311433 55.414062 16.394531 C 56.84109 17.477627 57.695857 18.87177 58.248047 20.166016 C 59.352423 22.754507 59.636944 25.337408 59.888672 28.871094 C 59.94376 29.644394 59.969925 30.420434 59.984375 31.195312 C 59.989118 30.087435 59.96751 28.977794 59.888672 27.871094 C 59.636944 24.337408 59.352423 21.754507 58.248047 19.166016 C 57.695857 17.87177 56.84109 16.477627 55.414062 15.394531 C 53.987038 14.311433 52.091227 13.799582 50.582031 13.800781 L 50.578125 13.800781 C 48.256161 13.803281 45.290498 15.183495 43.708984 17.134766 C 40.201724 11.631434 37.557334 7.8747011 33.865234 5.7324219 C 31.522602 4.3731507 28.11241 3.6567482 25.058594 5.7460938 C 23.527354 4.6458293 21.795862 4.027446 20.066406 4 z M 6.6933594 22.308594 C 5.9410013 22.990548 5.3123088 23.728851 4.9882812 24.357422 C 4.1766425 25.931909 3.9527344 27.397977 4.0351562 28.792969 C 4.1002295 27.698379 4.3681798 26.560348 4.9882812 25.357422 C 5.3398237 24.675476 6.0416058 23.860419 6.8808594 23.132812 C 6.8294734 22.934195 6.8196516 23.111075 6.7597656 22.810547 C 6.7261222 22.641803 6.7170055 22.47613 6.6933594 22.308594 z"/>
 <path style="fill:#8b9cbe;opacity:0.2" d="M 20.386719 10 C 19.228853 9.9940038 18.066823 10.649297 17.583984 11.814453 C 17.393552 12.273988 17.305624 12.631545 17.451172 13.191406 C 17.488844 13.069752 17.528498 12.948348 17.583984 12.814453 C 18.356525 10.950203 20.869723 10.389183 22.318359 11.757812 C 22.662393 12.082848 25.208882 15.642678 27.978516 19.667969 C 34.308194 28.867349 33.820906 28.22595 34.423828 28.15625 C 34.902299 28.100906 35.13861 28.022406 34.751953 27.097656 C 34.661449 27.125728 34.552372 27.141381 34.423828 27.15625 C 33.820906 27.22595 34.308194 27.867349 27.978516 18.667969 C 25.208882 14.642678 22.662393 11.082847 22.318359 10.757812 C 21.775121 10.244577 21.081438 10.003598 20.386719 10 z M 29.265625 10.419922 C 28.71376 10.402199 28.22998 10.552716 27.888672 10.873047 C 27.445858 11.288636 27.292563 11.864159 27.439453 12.652344 C 27.51222 12.345664 27.660233 12.087441 27.888672 11.873047 C 28.571288 11.232386 29.829525 11.273057 31.042969 11.974609 C 33.284701 13.270667 36.126183 16.835252 40.595703 23.958984 C 41.896473 26.032228 43.179609 27.915239 43.445312 28.144531 C 44.079518 28.691809 44.925613 28.691809 45.279297 28.144531 C 45.427477 27.915239 45.724689 27.03445 45.939453 26.1875 C 46.985399 22.062606 48.218346 20.6272 50.25 20.625 C 52.445216 20.623262 53.456905 22.865463 53.917969 29.314453 C 53.960233 29.905616 53.974488 30.505159 53.984375 31.105469 C 53.996185 30.168089 53.983702 29.233876 53.917969 28.314453 C 53.456905 21.865463 52.445216 19.623262 50.25 19.625 C 48.218346 19.6272 46.985399 21.062606 45.939453 25.1875 C 45.724689 26.03445 45.427477 26.915239 45.279297 27.144531 C 44.925613 27.691809 44.079518 27.691809 43.445312 27.144531 C 43.179609 26.915239 41.896473 25.032228 40.595703 22.958984 C 36.126183 15.835252 33.284701 12.270667 31.042969 10.974609 C 30.436247 10.623833 29.81749 10.437645 29.265625 10.419922 z M 15.404297 17.486328 C 14.716663 17.504907 14.02679 17.784516 13.414062 18.322266 C 12.68451 18.962521 12.330814 19.976771 12.515625 20.900391 C 12.516405 20.90429 12.532012 20.927189 12.533203 20.931641 C 12.643108 20.323359 12.936987 19.740946 13.414062 19.322266 C 14.639518 18.246766 16.176171 18.204912 17.376953 19.214844 C 17.677264 19.467435 19.882308 22.320902 22.275391 25.554688 C 24.668483 28.788476 26.807943 31.597355 27.029297 31.796875 C 27.496531 32.218055 28.020514 32.022315 28.115234 31.390625 C 28.122732 31.340579 28.031629 31.148016 27.882812 30.875 C 27.664664 31.080186 27.336489 31.073788 27.029297 30.796875 C 26.807943 30.597355 24.668483 27.788476 22.275391 24.554688 C 19.882308 21.320902 17.677264 18.467435 17.376953 18.214844 C 16.776562 17.709878 16.091931 17.46775 15.404297 17.486328 z M 11.984375 26.080078 C 11.0656 26.080078 10.618846 26.319211 10.265625 27.001953 C 10.03049 27.456451 9.9529607 28.038338 10.035156 28.757812 C 10.075451 28.476591 10.151334 28.222869 10.265625 28.001953 C 10.618846 27.319211 11.0656 27.080078 11.984375 27.080078 C 13.368384 27.080078 13.770677 27.52421 20.494141 36.4375 C 22.115331 38.58672 22.37099 38.845703 22.867188 38.845703 C 23.350835 38.845703 23.430556 38.772417 23.478516 38.283203 C 23.489628 38.169823 23.44711 38.008638 23.324219 37.753906 C 23.237169 37.826701 23.100784 37.845703 22.867188 37.845703 C 22.37099 37.845703 22.115331 37.58672 20.494141 35.4375 C 13.770677 26.52421 13.368384 26.080078 11.984375 26.080078 z"/>
</svg>
