<svg xmlns="http://www.w3.org/2000/svg" width="64" height="64" version="1.1">
 <rect style="opacity:0.2" width="56" height="56" x="4" y="5" rx="2.8" ry="2.8"/>
 <rect style="fill:#4f4f4f" width="56" height="56" x="4" y="4" rx="2.8" ry="2.8"/>
 <path style="opacity:0.2" d="M 9,12 V 24 H 12 V 22 H 11 V 14 H 12 V 12 Z M 15,12 V 24 H 18 V 12 Z M 21,12 V 24 H 24 V 12 Z M 40,12 V 24 H 43 V 12 Z M 46,12 V 24 H 49 V 12 Z M 52,12 V 14 H 53 V 22 H 52 V 24 H 55 V 12 Z M 9,27 V 39 H 12 V 37 H 11 V 29 H 12 V 27 Z M 15,27 V 39 H 18 V 27 Z M 21,27 V 39 H 24 V 27 Z M 27,27 V 39 H 30 V 27 Z M 34,27 V 39 H 37 V 27 Z M 40,27 V 39 H 43 V 27 Z M 46,27 V 39 H 49 V 27 Z M 52,27 V 29 H 53 V 37 H 52 V 39 H 55 V 27 Z M 9,42 V 54 H 12 V 52 H 11 V 44 H 12 V 42 Z M 15,42 V 54 H 18 V 42 Z M 21,42 V 54 H 24 V 42 Z M 40,42 V 54 H 43 V 42 Z M 46,42 V 54 H 49 V 42 Z M 52,42 V 44 H 53 V 52 H 52 V 54 H 55 V 42 Z"/>
 <path style="fill:#d4d4d4" d="M 55,11 V 23 H 52 V 21 H 53 V 13 H 52 V 11 Z M 55,26 V 38 H 52 V 36 H 53 V 28 H 52 V 26 Z M 55,41 V 53 H 52 V 51 H 53 V 43 H 52 V 41 Z M 9,11 V 23 H 12 V 21 H 11 V 13 H 12 V 11 Z M 9,26 V 38 H 12 V 36 H 11 V 28 H 12 V 26 Z M 9,41 V 53 H 12 V 51 H 11 V 43 H 12 V 41 Z"/>
 <path style="fill:#8bc34a" d="M 15,41 V 53 H 18 V 41 Z M 21,41 V 53 H 24 V 41 Z M 15,26 V 38 H 18 V 26 Z M 21,26 V 38 H 24 V 26 Z M 15,11 V 23 H 18 V 11 Z M 21,11 V 23 H 24 V 11 Z"/>
 <path style="fill:#ff9800" d="M 27,26 V 38 H 30 V 26 Z M 34,26 V 38 H 37 V 26 Z"/>
 <path style="fill:#ff5722" d="M 40,41 V 53 H 43 V 41 Z M 46,41 V 53 H 49 V 41 Z M 40,26 V 38 H 43 V 26 Z M 46,26 V 38 H 49 V 26 Z M 40,11 V 23 H 43 V 11 Z M 46,11 V 23 H 49 V 11 Z"/>
 <path style="opacity:0.1;fill:#8b9cbe" d="M 6.8008 4 C 5.2496 4 4 5.2496 4 6.8008 L 4 7.8008 C 4 6.2496 5.2496 5 6.8008 5 L 57.199 5 C 58.75 5 60 6.2496 60 7.8008 L 60 6.8008 C 60 5.2496 58.75 4 57.199 4 L 6.8008 4 z"/>
</svg>
