<svg xmlns="http://www.w3.org/2000/svg" width="64" height="64" version="1">
 <rect style="opacity:0.2" width="56" height="56" x="4" y="5" rx="2.8" ry="2.8"/>
 <rect style="fill:#b5c0df" width="56" height="56" x="4" y="4" rx="2.8" ry="2.8"/>
 <rect style="fill:#314277" width="10" height="31" x="11" y="11" rx="1.429" ry="1.409"/>
 <rect style="fill:#314277" width="26" height="31" x="27" y="11" rx="1.368" ry="1.409"/>
 <rect style="fill:#314277" width="10" height="29.4" x="22" y="-40.4" rx="1.429" ry="1.4" transform="rotate(90)"/>
 <rect style="opacity:0.3;fill:#314277" width="5" height="5" x="12" y="46" rx="1.25" ry="1.25"/>
 <rect style="opacity:0.56000001;fill:#314277" width="5" height="5" x="19" y="46" rx="1.25" ry="1.25"/>
 <rect style="opacity:0.81999966;fill:#314277" width="5" height="5" x="26" y="46" rx="1.25" ry="1.25"/>
 <path style="opacity:0.2" d="M 32.384766,16 C 31.617689,16 31,16.5575 31,17.25 v 2.5 C 31,20.4425 31.617689,21 32.384766,21 H 44 v 4 h -9.25 -2.5 C 31.5575,25 31,25.479556 31,26.076172 V 35.25 v 2.5 0.173828 C 31,38.520444 31.5575,39 32.25,39 h 2.5 12.865234 C 48.382311,39 49,38.4425 49,37.75 v -2.5 C 49,34.5575 48.382311,34 47.615234,34 H 36 v -4 h 9.25 2.441406 0.05859 c 0.02625,0 0.04838,-0.01036 0.07422,-0.01172 0.07425,-0.0072 0.146809,-0.02062 0.216797,-0.03906 C 48.588054,29.834254 49,29.431511 49,28.923828 V 28.75 v -2.5 -6.5 -2.5 -0.173828 C 49,16.523733 48.515098,16.089405 47.894531,16.025391 47.844907,16.020272 47.801276,16 47.75,16 H 47.615234 45.25 Z"/>
 <rect style="fill:#8b9cbe" width="18" height="5" x="31" y="15" rx="1.385" ry="1.25"/>
 <rect style="fill:#8b9cbe" width="18" height="5" x="31" y="33" rx="1.385" ry="1.25"/>
 <rect style="fill:#8b9cbe" width="14" height="5" x="24" y="-36" rx="1.077" ry="1.25" transform="rotate(90)"/>
 <rect style="fill:#8b9cbe" width="17" height="5" x="-49" y="-29" rx="1.308" ry="1.25" transform="scale(-1)"/>
 <rect style="fill:#8b9cbe" width="14" height="5" x="15" y="-49" rx="1.077" ry="1.25" transform="rotate(90)"/>
 <rect style="opacity:0.3;fill:#314277" width="5" height="5" x="-52" y="46" rx="1.25" ry="1.25" transform="scale(-1,1)"/>
 <rect style="opacity:0.56000001;fill:#314277" width="5" height="5" x="-45" y="46" rx="1.25" ry="1.25" transform="scale(-1,1)"/>
 <rect style="opacity:0.81999966;fill:#314277" width="5" height="5" x="-38" y="46" rx="1.25" ry="1.25" transform="scale(-1,1)"/>
 <path style="fill:#8b9cbe;opacity:0.2" d="M 6.8007812 4 C 5.2495813 4 4 5.2495813 4 6.8007812 L 4 7.8007812 C 4 6.2495813 5.2495813 5 6.8007812 5 L 57.199219 5 C 58.750419 5 60 6.2495813 60 7.8007812 L 60 6.8007812 C 60 5.2495813 58.750419 4 57.199219 4 L 6.8007812 4 z"/>
 <path style="opacity:0.1" d="M 21 31 L 21 32 L 27 32 L 27 31 L 21 31 z M 11 39.591797 L 11 40.591797 C 11 41.372433 11.636306 42 12.427734 42 L 19.572266 42 C 20.363694 42 21 41.372433 21 40.591797 L 21 39.591797 C 21 40.372433 20.363694 41 19.572266 41 L 12.427734 41 C 11.636306 41 11 40.372433 11 39.591797 z M 27 39.591797 L 27 40.591797 C 27 41.372433 27.611035 42 28.369141 42 L 51.630859 42 C 52.388965 42 53 41.372433 53 40.591797 L 53 39.591797 C 53 40.372433 52.388965 41 51.630859 41 L 28.369141 41 C 27.611035 41 27 40.372433 27 39.591797 z"/>
 <path style="opacity:0.1;fill:#8b9cbe" d="M 12.427734,10 C 11.636306,10 11,10.627567 11,11.408203 v 1 C 11,11.627567 11.636306,11 12.427734,11 h 7.144532 C 20.363694,11 21,11.627567 21,12.408203 v -1 C 21,10.627567 20.363694,10 19.572266,10 Z m 15.941407,0 C 27.611035,10 27,10.627567 27,11.408203 v 1 C 27,11.627567 27.611035,11 28.369141,11 H 51.630859 C 52.388965,11 53,11.627567 53,12.408203 v -1 C 53,10.627567 52.388965,10 51.630859,10 Z M 21,21 v 1 h 6 v -1 z"/>
</svg>
