<svg width="64" height="64" version="1.1" xmlns="http://www.w3.org/2000/svg">
 <path d="m18 47 3 6h23l3-6z" style="opacity:.2"/>
 <path d="m27 5c-3 0-3 0-3 3l-7 2-3 8h-3v11l2 2h4l1.870968 2h28.129032l2-2h4l2-2v-11h-2.774194l-3.225806-7-8-3c0-3 0-3-2.564937-3zm-21 14 4.16129 5-0.16129-5zm50 0v5l4-5z" style="opacity:.2"/>
 <path d="m27 4c-3 0-3 0-3 3l-7 2-3 8h-3v11l2 2h4l1.870968 2h28.129032l2-2h4l2-2v-11h-2.774194l-3.225806-7-8-3c0-3 0-3-2.564937-3zm-21 14 4.16129 5-0.16129-5zm50 0v5l4-5z" style="fill:#7eacf9"/>
 <path d="m18 46 3 6h23l3-6z" style="fill:#8149bf"/>
 <path d="m12 41 3 6h35l4-6z" style="opacity:.2"/>
 <path d="m12 40 3 6h35l4-6z" style="fill:#ad509c"/>
 <path d="m6 36 3 5h47l3-5z" style="opacity:.2"/>
 <path d="m6 35 3 5h47l3-5z" style="fill:#de7ca2"/>
 <path d="m13 35 16 20h8l16-20zm15 22 4 4h2l4-4z" style="opacity:.2"/>
 <path d="m13 34 16 20h8l16-20zm15 22 4 4h2l4-4z" style="fill:#f6e195"/>
 <path d="m31 5-9 8v12l9 8h4l9-8v-12l-9-8zm-12 10-3 4 3 4zm28 0v8l3-4z" style="opacity:.2"/>
 <path d="m31 4-9 8v12l9 8h4l9-8v-12l-9-8zm-12 10-3 4 3 4zm28 0v8l3-4z" style="fill:#8288f9"/>
 <path d="m23 21v-4l7-8h5l8 8v4l-8 8h-4z" style="opacity:.2"/>
 <path d="m23 20v-4l7-8h5l8 8v4l-8 8h-4z" style="fill:#8149bf"/>
 <path d="m31 25h4l6-4v-4l-6-4h-4l-6 4v4z" style="opacity:.2"/>
 <path d="m31 24h4l6-4v-4l-6-4h-4l-6 4v4z" style="fill:#de7ca2"/>
 <path d="m30 22h6l2-1v-4l-2-1h-6l-2 1v4z" style="opacity:.2"/>
 <path d="m30 21h6l2-1v-4l-2-1h-6l-2 1v4z" style="fill:#f6e195"/>
 <path d="m13 34 0.800781 1h38.398438l0.800781-1h-40zm15 22 1 1h8l1-1h-10z" style="fill:#8b9cbe;opacity:.2"/>
 <path d="m27 4c-3 0-3 0-3 3l-7 2-3 8h-3v1h3l3-8 7-2c0-3 0-3 3-3h11.435547c2.564937 0 2.564453 0 2.564453 3l8 3 3.226562 7h2.773438v-1h-2.773438l-3.226562-7-8-3c0-3 4.84e-4 -3-2.564453-3h-11.435547zm-21 14 0.8320312 1h3.1679688l0.128906 3.958984 0.033203 0.041016-0.162109-5h-4zm50 0v1h3.199219l0.800781-1h-4z" style="fill:#8b9cbe;opacity:.2"/>
</svg>
