<svg xmlns="http://www.w3.org/2000/svg" width="64" height="64" version="1">
 <path style="opacity:0.2" d="m 32,5 c -0.08912,0 -0.17948,0.01632 -0.264706,0.046484 -6.649786,4.888353 -14.131198,8.12449 -23.2058822,8.203125 -0.3166826,0.111958 -0.5294116,0.412552 -0.5294116,0.749219 0,8.302024 2.1923658,17.898322 6.0137868,26.329296 C 17.113444,47.167712 22.685428,56.291266 31.63603,60.9125 31.749934,60.971258 31.87548,61 32,61 32.12452,61 32.250066,60.97126 32.36397,60.9125 41.314572,56.291266 46.886556,47.167712 49.986212,40.328124 53.807634,31.89715 56,22.300852 56,13.998828 56,13.662161 55.78727,13.361567 55.470588,13.249609 46.395904,13.170974 38.914492,9.934837 32.264706,5.0464844 32.179476,5.0163116 32.08911,5 32,5 Z"/>
 <path style="fill:#ffad34" d="m 32,4 c -0.08912,0 -0.17948,0.01632 -0.264706,0.046484 -6.649786,4.8883528 -14.131198,8.12449 -23.2058822,8.203125 -0.3166826,0.111958 -0.5294116,0.412552 -0.5294116,0.749219 0,8.302024 2.1923658,17.898322 6.0137868,26.329296 C 17.113444,46.167712 22.685428,55.291266 31.63603,59.9125 31.749934,59.971258 31.87548,60 32,60 32.12452,60 32.250066,59.97126 32.36397,59.9125 41.314572,55.291266 46.886556,46.167712 49.986212,39.328124 53.807634,30.89715 56,21.300852 56,12.998828 56,12.662161 55.78727,12.361567 55.470588,12.249609 46.395904,12.170974 38.914492,8.9348368 32.264706,4.0464844 32.179476,4.0163116 32.08911,4 32,4 Z"/>
 <path style="opacity:0.1" d="M 32,11.537891 C 37.244316,14.884367 43.165368,17.342855 49.829044,18.3 49.244002,24.714372 47.697916,31.716022 44.835478,38.03125 42.324106,43.57275 37.900474,50.322598 32,54.37461 26.099526,50.322598 21.675894,43.57275 19.164522,38.03125 16.302084,31.716022 14.755997,24.714372 14.170956,18.3 20.834632,17.342855 26.755684,14.884367 32,11.537891 Z"/>
 <path style="fill:#ffe0a9" d="M 32,10.537891 C 37.244316,13.884367 43.165368,16.342855 49.829044,17.3 49.244002,23.714372 47.697916,30.716022 44.835478,37.03125 42.324106,42.57275 37.900474,49.322598 32,53.37461 26.099526,49.322598 21.675894,42.57275 19.164522,37.03125 16.302084,30.716022 14.755997,23.714372 14.170956,17.3 20.834632,16.342855 26.755684,13.884367 32,10.537891 Z"/>
 <path style="fill:#f77e23" d="M 32,10.537891 V 53.37461 C 37.900474,49.322598 42.324106,42.57275 44.835478,37.03125 47.697916,30.716022 49.244002,23.714372 49.829044,17.3 43.165368,16.342855 37.244316,13.884367 32,10.537891 Z"/>
 <path style="opacity:0.2;fill:#8b9cbe" d="M 32 4 C 31.91088 4 31.819599 4.016721 31.734375 4.046875 C 25.084589 8.9352288 17.605934 12.171364 8.53125 12.25 C 8.2145674 12.361958 8 12.663334 8 13 C 8 13.272561 8.0169482 13.553966 8.0273438 13.832031 C 8.0857238 13.567131 8.2690605 13.342693 8.53125 13.25 C 17.605934 13.171364 25.084589 9.9352288 31.734375 5.046875 C 31.819599 5.016721 31.91088 5 32 5 C 32.08911 5 32.180397 5.0167022 32.265625 5.046875 C 38.915413 9.9352274 46.394066 13.171364 55.46875 13.25 C 55.730939 13.342693 55.914276 13.567131 55.972656 13.832031 C 55.983052 13.553966 56 13.272561 56 13 C 56 12.663334 55.785432 12.361958 55.46875 12.25 C 46.394066 12.171364 38.915413 8.9352274 32.265625 4.046875 C 32.180397 4.0167022 32.08911 4 32 4 z"/>
</svg>
