<svg xmlns="http://www.w3.org/2000/svg" width="64" height="64" version="1">
 <path style="opacity:0.2" d="m 4,56 0,2 c 0,1.662 1.338,3 3,3 l 50,0 c 1.662,0 3,-1.338 3,-3 l 0,-2 c 0,1.662 -1.338,3 -3,3 L 7,59 C 5.338,59 4,57.662 4,56 Z"/>
 <rect style="fill:#2095f2" width="56" height="56" x="4" y="4" rx="3" ry="3"/>
 <path style="opacity:0.1;fill:#8b9cbe" d="M 7 4 C 5.338 4 4 5.338 4 7 L 4 8 C 4 6.338 5.338 5 7 5 L 57 5 C 58.662 5 60 6.338 60 8 L 60 7 C 60 5.338 58.662 4 57 4 L 7 4 z"/>
 <path style="opacity:0.2" d="m 42.404297,15.908203 c -0.911376,2.43048 -1.976238,5.010175 -3.191406,7.136719 L 28,23.044922 28,26 l 4.074219,0 0,5.25 c -1.7e-5,0.91128 -0.0511,1.97113 -0.152344,2.78125 L 27,34.03125 27,37 l 4.619141,0 c -0.60744,5.36712 -2.684196,9.08595 -6.228516,11.71875 l 2.126953,2.277344 C 31.669578,47.957934 34.099706,43.480961 34.808594,37 l 6.183594,0 0,14 3.037109,0 0,-14 5.96875,0 0,-2.96875 -5.96875,0 0,-8.03125 L 49,26 l 0,-2.955078 -6.595703,0 c 1.113888,-1.72152 2.227837,-3.996737 3.341797,-6.22461 L 42.404297,15.908203 Z M 19.027344,16 l 0,6 -5.025391,0 0,3 5.025391,0 0,7.921875 C 17.103264,33.732115 15.227848,34.541443 13,35.351562 l 1.064453,3.191407 c 1.8228,-0.708864 3.342627,-1.418089 4.962891,-2.126953 l 0,9.570312 c -2.4e-5,1.215192 -0.253438,1.822266 -0.759766,1.822266 -1.41792,0 -2.583943,-0.20235 -3.90039,-0.607422 l 0.607421,3.189453 c 1.21536,0.303787 2.332272,0.457031 3.75,0.457031 1.215072,0 2.07568,-0.304525 2.582032,-0.912109 0.506328,-0.60768 0.695312,-1.670469 0.695312,-3.189453 l 0,-11.847656 4.669922,-2.431641 -0.457031,-2.734375 0,-0.002 C 24.898204,30.338077 23.316448,30.996238 22,31.705078 L 22,25 l 5.001953,0 0,-3 L 22,22 l 0,-6 -2.972656,0 z m 14.261718,0.365234 -3.037109,0.910157 c 1.113792,1.41768 1.974423,3.038576 2.582031,4.861328 l 3.189454,-1.0625 C 35.415925,19.352699 34.50423,17.782986 33.289062,16.365234 Z M 35.113281,26 l 5.878907,0 0,8.03125 -6.03125,0 c 0.101247,-0.708864 0.152321,-1.615331 0.152343,-2.324219 l 0,-5.707031 z"/>
 <path style="fill:#8b9cbe" d="M 42.404297 14.908203 C 41.492921 17.338683 40.428059 19.918378 39.212891 22.044922 L 28 22.044922 L 28 25 L 32.074219 25 L 32.074219 30.25 C 32.074202 31.16128 32.023119 32.22113 31.921875 33.03125 L 27 33.03125 L 27 36 L 31.619141 36 C 31.011701 41.36712 28.934945 45.08595 25.390625 47.71875 L 27.517578 49.996094 C 31.669578 46.957934 34.099706 42.480961 34.808594 36 L 40.992188 36 L 40.992188 50 L 44.029297 50 L 44.029297 36 L 49.998047 36 L 49.998047 33.03125 L 44.029297 33.03125 L 44.029297 25 L 49 25 L 49 22.044922 L 42.404297 22.044922 C 43.518185 20.323402 44.632134 18.048185 45.746094 15.820312 L 42.404297 14.908203 z M 19.027344 15 L 19.027344 21 L 14.001953 21 L 14.001953 24 L 19.027344 24 L 19.027344 31.921875 C 17.103264 32.732115 15.227848 33.541443 13 34.351562 L 14.064453 37.542969 C 15.887253 36.834105 17.40708 36.12488 19.027344 35.416016 L 19.027344 44.986328 C 19.02732 46.20152 18.773906 46.808594 18.267578 46.808594 C 16.849658 46.808594 15.683635 46.606244 14.367188 46.201172 L 14.974609 49.390625 C 16.189969 49.694412 17.306881 49.847656 18.724609 49.847656 C 19.939681 49.847656 20.800289 49.543131 21.306641 48.935547 C 21.812969 48.327867 22.001953 47.265078 22.001953 45.746094 L 22.001953 33.898438 L 26.671875 31.466797 L 26.214844 28.732422 L 26.214844 28.730469 C 24.898204 29.338077 23.316448 29.996238 22 30.705078 L 22 24 L 27.001953 24 L 27.001953 21 L 22 21 L 22 15 L 19.027344 15 z M 33.289062 15.365234 L 30.251953 16.275391 C 31.365745 17.693071 32.226376 19.313967 32.833984 21.136719 L 36.023438 20.074219 C 35.415925 18.352699 34.50423 16.782986 33.289062 15.365234 z M 35.113281 25 L 40.992188 25 L 40.992188 33.03125 L 34.960938 33.03125 C 35.062185 32.322386 35.113259 31.415919 35.113281 30.707031 L 35.113281 25 z"/>
</svg>
