<svg xmlns="http://www.w3.org/2000/svg" width="64" height="64" version="1.1">
 <path style="opacity:0.2" d="m 8.3138723,30.706431 c -0.5413622,0.467807 -0.3480185,1.303179 0.314874,1.397854 1.8340027,0.261749 5.5185807,0.0891 7.8276557,2.417007 2.253835,2.272209 2.723383,5.491174 2.723383,5.491174 l 6.662071,-14.218018 c 0,0 -3.52438,-1.665173 -8.650748,-0.323011 -3.535427,0.930047 -7.043233,3.642219 -8.8772357,5.234994 z"/>
 <path style="opacity:0.2" d="m 34.311866,56.724409 c -0.55241,0.451102 -1.29264,0.350856 -1.38655,-0.317441 -0.259634,-1.848955 -0.08838,-5.563573 -2.397462,-7.891473 -2.253834,-2.272211 -5.916315,-2.60636 -5.916315,-2.60636 l 13.788164,-6.850044 c 0,0 2.596328,4.037628 1.165586,9.784983 -1.193206,4.750478 -3.231602,6.215162 -5.253423,7.880335 z"/>
 <path style="opacity:0.2" d="M 8.7617745,48.140851 C 4.2430572,52.696408 3.9999964,61 3.9999964,61 c 0,0 8.2309156,-0.245043 12.7551576,-4.800601 4.524241,-4.555557 6.396913,-10.052301 4.18727,-12.274388 -2.209641,-2.227656 -7.661932,-0.339718 -12.1806495,4.21584 z"/>
 <path style="fill:#ffd800" d="m 8.7617745,47.140896 c -4.5187173,4.555557 -4.7617781,12.859148 -4.7617781,12.859148 0,0 8.2309156,-0.245042 12.7551576,-4.800601 4.524241,-4.555557 6.396913,-10.052301 4.18727,-12.274388 -2.209641,-2.227656 -7.661932,-0.339718 -12.1806495,4.215841 z"/>
 <path style="fill:#ff562e" d="m 9.7995227,49.108142 c -2.8449136,2.868109 -2.9995886,8.091965 -2.9995886,8.091965 0,0 5.1816099,-0.155937 8.0265239,-3.024043 2.844914,-2.868109 4.027071,-6.332116 2.634998,-7.729971 -1.392074,-1.397855 -4.811496,-0.211627 -7.6619333,2.662049 z"/>
 <path style="opacity:0.1" d="m 14.826319,50.56379 c 2.706811,2.912661 6.25881,2.60636 6.551588,2.127412 l 3.874444,-5.314526 c 0.149156,-0.24504 0.011,-0.634881 -0.09392,-0.735127 l -6.678634,-6.872696 c -0.104956,-0.105817 -0.475073,-0.228335 -0.718134,-0.07796 l -5.421193,3.89477 c -0.469549,0.295165 -0.999864,3.218964 2.485847,6.978135 z"/>
 <path style="fill:#546e7a" d="m 14.826319,49.563834 c 2.706811,2.912661 6.25881,2.60636 6.551588,2.127413 l 3.874444,-5.314526 c 0.149156,-0.245041 0.011,-0.634882 -0.09392,-0.735128 l -6.678634,-6.872695 c -0.104956,-0.105818 -0.475073,-0.228335 -0.718134,-0.07796 l -5.421193,3.89477 c -0.469549,0.295165 -0.999864,3.218965 2.485847,6.978135 z"/>
 <path style="fill:#0292e1" d="m 34.311866,55.724453 c -0.55241,0.451102 -1.29264,0.350857 -1.38655,-0.317441 -0.259634,-1.848955 -0.08838,-5.563572 -2.397462,-7.891472 -2.253834,-2.272212 -5.916315,-2.606361 -5.916315,-2.606361 l 13.788164,-6.850044 c 0,0 2.596328,4.037629 1.165586,9.784983 -1.193206,4.750479 -3.231602,6.215162 -5.253423,7.880335 z"/>
 <path style="fill:#0292e1" d="m 8.3138723,29.706475 c -0.5413622,0.467808 -0.3480185,1.303179 0.314874,1.397855 1.8340027,0.261748 5.5185807,0.0891 7.8276557,2.417006 2.253835,2.27221 2.723383,5.491174 2.723383,5.491174 l 6.662071,-14.218018 c 0,0 -3.52438,-1.665173 -8.650748,-0.323011 -3.535427,0.930048 -7.043233,3.642219 -8.8772357,5.234994 z"/>
 <path style="opacity:0.2;fill:#8b9cbe" d="M 20.707031 23.953125 C 19.655724 23.985765 18.472998 24.133212 17.191406 24.46875 C 13.655979 25.398798 10.146502 28.114256 8.3125 29.707031 C 7.9292002 30.038253 7.9200327 30.55088 8.1796875 30.857422 C 8.2188082 30.805647 8.2595372 30.754751 8.3125 30.708984 C 10.146502 29.116209 13.655979 26.400751 17.191406 25.470703 C 18.472998 25.135165 19.655724 24.987718 20.707031 24.955078 C 23.045255 24.882502 24.729138 25.374979 25.449219 25.636719 L 25.84375 24.792969 C 25.84375 24.792969 23.860949 23.855231 20.707031 23.953125 z"/>
 <path style="opacity:0.2" d="M 57.694116,5.001134 C 57.42483,5.002944 57.130563,5.021865 56.807418,5.059727 49.951606,5.8601915 47.238207,6.380006 43.276468,7.9971615 39.375805,9.49657 34.566022,12.388167 31.788442,15.172783 20.721949,26.267307 14.629275,39.9945 19.948861,44.789312 c 0.32323,0.291093 0.681368,0.526998 1.042946,0.785138 6.201621,4.399365 18.189492,-1.814705 29.042323,-12.69503 2.657055,-2.663783 5.406668,-7.337359 6.847504,-11.132565 1.82641,-4.710844 2.575549,-7.905459 3.074152,-13.4059511 0.222881,-2.4372267 -0.376659,-3.3524144 -2.26167,-3.3397699 z"/>
 <path style="fill:#bebebe" d="m 43.278352,6.9986289 c 2.218779,1.0215749 5.028461,2.8255594 7.882739,5.6870671 1.008036,1.010592 1.868157,2.04315 2.613226,3.053741 1.440834,1.949782 2.460808,3.552248 3.107265,5.007719 -1.440836,3.795206 -4.192,8.470482 -6.849056,11.134265 C 39.179695,42.761745 27.192822,48.973581 20.991201,44.574217 20.629623,44.316077 20.273525,44.079906 19.950294,43.788812 14.630708,38.994001 20.722757,25.268645 31.78925,14.174121 34.56683,11.389505 39.377689,8.4980374 43.278352,6.9986289 Z"/>
 <path style="fill:#e53935" d="M 43.278352,6.9986289 C 42.275723,11.936632 51.012141,21.607117 56.881582,20.747156 58.707992,16.036311 59.455899,12.83986 59.954502,7.3393675 60.209225,4.5539655 59.390863,3.7589094 56.805708,4.0617881 49.949896,4.8622529 47.24009,5.3814734 43.278352,6.9986289 Z"/>
 <circle style="opacity:0.1" cx="9.192" cy="45.961" r="5" transform="rotate(-45)"/>
 <circle style="fill:#455a64" cx="9.899" cy="45.254" r="5" transform="rotate(-45)"/>
 <circle style="opacity:0.1" cx="-4.243" cy="45.962" r="3.5" transform="rotate(-45.000002)"/>
 <circle style="fill:#455a64" cx="-3.536" cy="45.254" r="3.5" transform="rotate(-45.000002)"/>
 <path style="opacity:0.2;fill:#8b9cbe" d="M 57.693359 4.0019531 C 57.424073 4.0037631 57.129786 4.0226849 56.806641 4.0605469 C 49.950829 4.8610117 47.239083 5.3808914 43.277344 6.9980469 C 39.376681 8.4974554 34.566643 11.389212 31.789062 14.173828 C 23.31101 22.673357 17.796039 32.68925 18.052734 39.078125 C 18.36195 32.675548 23.74293 23.240342 31.789062 15.173828 C 34.566643 12.389212 39.376681 9.4974554 43.277344 7.9980469 C 47.239083 6.3808914 49.950829 5.8610117 56.806641 5.0605469 C 57.129786 5.0226849 57.424073 5.0037631 57.693359 5.0019531 C 59.179165 4.9919863 59.85739 5.5719238 59.972656 7.0058594 C 60.105563 4.8324783 59.484561 3.9899377 57.693359 4.0019531 z"/>
</svg>
