<svg xmlns="http://www.w3.org/2000/svg" width="64" height="64" version="1">
 <path style="opacity:0.2" d="m 32.148391,4.999998 v 0.0039 A 6.346037,6.4428216 0 0 0 28.828077,5.859373 L 10.156203,16.804686 a 6.346037,6.4428216 0 0 0 -3.1445309,5.0625 c -0.0016,-0.02228 -0.00644,-0.04412 -0.00782,-0.0664 -4.904e-4,0.0082 -0.00346,0.0152 -0.0039,0.02344 0.0025,0.02428 0.00506,0.04998 0.00782,0.07422 1.43e-4,0.0013 -1.444e-4,0.0026 0,0.004 a 6.346037,6.4428216 0 0 0 -0.00782,0.07021 6.346037,6.4428216 0 0 0 0.0039,0.02344 c -8.832e-4,0.0158 -0.0033,0.03104 -0.0039,0.04688 v 21.773438 c -3.222e-4,2.275264 1.2093306,4.374268 3.1718749,5.511718 l 18.656249,10.820314 c 0.974706,0.565162 2.08403,0.847914 3.171876,0.851554 1.094998,0 2.190758,-0.282682 3.171876,-0.851562 L 53.828077,49.328122 c 1.962546,-1.137448 3.172198,-3.240358 3.171876,-5.515624 V 22.042966 c -2.5e-4,-0.0066 3.06e-4,-0.013 0,-0.0196 a 6.346037,6.4428216 0 0 0 -0.0039,-0.02337 c -0.0018,-0.03288 -0.0018,-0.06478 -0.004,-0.09766 -4.1e-4,0.0054 -0.0034,0.0102 -0.004,0.0156 A 6.346037,6.4428216 0 0 0 53.843703,16.804686 L 35.171829,5.859373 A 6.346037,6.4428216 0 0 0 32.148391,4.999998 Z"/>
 <path style="fill:#0f7b9f" d="m 32.145419,4.7000056 v 0.00266 A 6.1873856,6.207883 0 0 0 28.905471,5.5291364 L 10.700924,16.075892 a 6.1873856,6.207883 0 0 0 -3.0759693,4.977452 6.1873856,6.207883 0 0 0 0.00278,0.02666 c -4.778e-4,0.0082 -0.00222,0.016 -0.00278,0.024 0.00264,0.0249 0.00514,0.04978 0.00806,0.07464 -0.00278,0.0462 -0.00624,0.09238 -0.00806,0.13862 V 42.54408 c -3.138e-4,2.218382 1.178357,4.268338 3.0918373,5.377352 l 18.191323,10.546756 c 0.950346,0.551038 2.031188,0.82825 3.091838,0.831798 1.067624,0 2.135248,-0.27714 3.091838,-0.831798 L 53.283113,47.92144 c 1.913482,-1.109014 3.092152,-3.15897 3.091838,-5.377352 V 21.31728 c -0.0018,-0.04626 -0.0052,-0.09244 -0.008,-0.13862 a 6.1873856,6.207883 0 0 0 0.008,-0.07464 6.1873856,6.207883 0 0 0 -3.075968,-5.028105 L 35.094435,5.5291364 A 6.1873856,6.207883 0 0 0 32.145419,4.7000056 Z M 56.277091,21.83982 c -0.0114,0.06172 -0.0238,0.12278 -0.03702,0.18396 a 6.1873856,6.207883 0 0 0 0.03702,-0.18396 z m -0.1825,0.727822 c -0.0134,0.0424 -0.02288,0.08594 -0.03702,0.12798 a 6.1873856,6.207883 0 0 0 0.03702,-0.12798 z m -0.63741,1.407654 c -0.03086,0.05 -0.0656,0.0975 -0.09786,0.14664 a 6.1873856,6.207883 0 0 0 0.09786,-0.14664 z m -0.40731,0.578526 c -0.04514,0.05738 -0.093,0.11216 -0.14018,0.16796 a 6.1873856,6.207883 0 0 0 0.14018,-0.16796 z m -0.449624,0.509208 c -0.06144,0.06256 -0.1236,0.12392 -0.18778,0.18396 a 6.1873856,6.207883 0 0 0 0.18778,-0.18396 z m -0.531616,0.479884 c -0.06574,0.05302 -0.1303,0.10684 -0.19836,0.1573 a 6.1873856,6.207883 0 0 0 0.19836,-0.1573 z M 34.422635,36.958792 c -0.0248,0.0106 -0.04914,0.02178 -0.07406,0.032 a 6.1873856,6.207883 0 0 0 0.07406,-0.032 z m -1.576334,0.43456 c -0.02738,0.0036 -0.05452,0.0072 -0.082,0.0106 a 6.1873856,6.207883 0 0 0 0.082,-0.0106 z"/>
 <path style="fill:#0f9f98" d="m 56.991815,20.901172 c -0.15806,2.094296 -1.335366,3.975654 -3.146702,5.028514 L 35.173781,36.746874 c -0.965476,0.557088 -2.060078,0.849432 -3.173828,0.847658 V 60 c 1.094998,0 2.189998,-0.284246 3.171116,-0.853126 L 53.828837,48.329686 c 1.962544,-1.13745 3.171438,-3.239968 3.171116,-5.515234 V 21.04336 c -0.0018,-0.04744 -0.0052,-0.0948 -0.0082,-0.14218 z M 31.999953,60 Z"/>
 <path style="fill:#67a1fd" d="m 7.0026661,20.8 c -4.904e-4,0.0082 -0.00226,0.0164 -0.0027,0.02462 0.00264,0.02554 0.00522,0.05106 0.00814,0.07656 -0.00292,0.0474 -0.00634,0.09474 -0.00814,0.14218 v 21.771094 c -3.222e-4,2.275264 1.208571,4.377784 3.1711149,5.515234 L 28.828845,59.14687 C 29.803551,59.71204 30.912107,59.99636 31.999953,60 V 37.594532 c -0.0054,6e-6 -0.0108,6e-6 -0.0162,0 -0.17116,-0.0013 -0.342198,-0.0096 -0.512694,-0.02462 -0.04706,-0.003 -0.09408,-0.0068 -0.14106,-0.011 -0.17372,-0.0192 -0.346576,-0.04572 -0.51812,-0.0793 -0.0317,-0.0052 -0.06334,-0.0106 -0.09494,-0.0164 -0.15418,-0.03256 -0.3071,-0.07086 -0.45844,-0.11484 -0.06174,-0.0164 -0.12324,-0.0337 -0.18446,-0.05196 -0.11788,-0.0394 -0.234568,-0.08226 -0.349934,-0.12852 -0.08752,-0.0318 -0.17436,-0.06554 -0.260416,-0.10118 -0.09608,-0.0441 -0.19106,-0.0906 -0.284832,-0.13946 -0.11938,-0.05646 -0.236996,-0.11664 -0.352646,-0.18046 L 10.154793,25.929686 C 9.9728287,25.82282 9.7962859,25.706922 9.6258215,25.582422 h -0.0027 c -0.00816,-0.0062 -0.0163,-0.0128 -0.024414,-0.0192 -0.155472,-0.11342 -0.3057282,-0.233844 -0.4503038,-0.360938 -0.074906,-0.06842 -0.14817,-0.13862 -0.2197266,-0.210546 -0.078766,-0.07368 -0.15565,-0.14936 -0.2305772,-0.226954 -0.081314,-0.09068 -0.160014,-0.18368 -0.2360026,-0.278906 -0.05842,-0.06806 -0.1154,-0.13734 -0.170898,-0.207812 -0.075416,-0.1017 -0.147786,-0.205668 -0.217014,-0.311718 -0.048408,-0.06924 -0.095438,-0.13942 -0.141058,-0.210548 -0.068802,-0.11548 -0.133938,-0.233116 -0.195312,-0.352734 -0.03738,-0.0668 -0.073554,-0.13424 -0.108506,-0.202344 -0.05732,-0.12312 -0.110698,-0.248058 -0.160048,-0.374608 -0.031126,-0.07054 -0.06097,-0.14164 -0.089518,-0.213282 -0.03003,-0.0896 -0.058068,-0.17986 -0.084094,-0.270704 -0.040624,-0.11918 -0.077712,-0.239548 -0.11122,-0.360938 -0.01062,-0.05274 -0.02056,-0.1056 -0.029838,-0.1586 -0.036358,-0.15194 -0.06712,-0.30517 -0.092236,-0.459378 C 7.0341331,21.176502 7.0142203,20.988556 7.0026661,20.8 Z"/>
 <path style="fill:#216bcc" d="m 32.149265,4.0000004 v 0.00276 A 6.346037,6.4428216 0 0 0 28.826427,4.8605098 L 10.154476,15.80641 a 6.346037,6.4428216 0 0 0 -3.1545227,5.165824 6.346037,6.4428216 0 0 0 3.1545227,5.218392 l 18.671951,10.945902 a 6.346037,6.4428216 0 0 0 6.34705,0 L 53.845431,26.190626 a 6.346037,6.4428216 0 0 0 3.154522,-5.16582 6.346037,6.4428216 0 0 0 -3.154522,-5.218396 L 35.173477,4.8605098 A 6.346037,6.4428216 0 0 0 32.149265,4.0000004 Z"/>
 <path style="opacity:0.1" d="M 7.0546875,21.50173 A 6.346037,6.4428216 0 0 0 7,21.972433 a 6.346037,6.4428216 0 0 0 3.15625,5.21875 l 18.671875,10.945313 a 6.346037,6.4428216 0 0 0 6.34375,0 L 53.84375,27.191183 A 6.346037,6.4428216 0 0 0 57,22.023215 6.346037,6.4428216 0 0 0 56.945312,21.546652 6.346037,6.4428216 0 0 1 53.84375,26.191183 L 35.171875,37.136496 a 6.346037,6.4428216 0 0 1 -6.34375,0 L 10.15625,26.191183 A 6.346037,6.4428216 0 0 1 7.0546875,21.50173 Z"/>
 <path style="opacity:0.1;fill:#8b9cbe" d="M 32.148391,4 V 4.0039 A 6.346037,6.4428216 0 0 0 28.828077,4.859375 L 10.156203,15.804688 a 6.346037,6.4428216 0 0 0 -3.1562497,5.167968 6.346037,6.4428216 0 0 0 0.1445312,1.019532 6.346037,6.4428216 0 0 1 3.0117185,-4.1875 L 28.828077,6.859375 A 6.346037,6.4428216 0 0 1 32.148391,6.0039062 V 6 a 6.346037,6.4428216 0 0 1 3.023438,0.859375 l 18.671874,10.945313 a 6.346037,6.4428216 0 0 1 3.011718,4.199218 6.346037,6.4428216 0 0 0 0.144532,-0.980468 6.346037,6.4428216 0 0 0 -3.15625,-5.21875 L 35.171829,4.859375 A 6.346037,6.4428216 0 0 0 32.148391,4 Z"/>
 <path style="opacity:0.2" d="M 37.296875,14.066187 27.666016,20.53689 21,16.058375 v 12.941406 h 19.259766 l -6.667969,-4.480469 9.630859,-6.470703 z M 17,34.277125 v 7.763672 L 12.074219,38.906031 18.814453,51.199 25.554688,47.964625 21,44.827906 v -7.763672 z m 30,0 -4,2.787109 v 7.763672 L 38.462891,47.964625 45.203125,51.199 51.943359,38.906031 47,42.040797 Z"/>
 <path style="fill:#8b9cbe" d="m 43.222222,17.048889 c 0,0 -9.62963,6.471111 -9.62963,6.471111 0,0 6.666666,4.479998 6.666666,4.479998 0,0 -19.259256,2e-6 -19.259256,2e-6 0,0 -2e-6,-12.94222 -2e-6,-12.94222 0,0 6.666666,4.479997 6.666666,4.479997 0,0 9.62963,-6.471111 9.62963,-6.471111 0,0 5.925926,3.982223 5.925926,3.982223"/>
 <path style="fill:#8b9cbe" d="m 17,33.277116 v 7.764708 L 12.075,37.906514 18.815197,50.2 25.555394,46.964074 21,43.828766 v -7.764708 l -4,-2.786942"/>
 <path style="fill:#8b9cbe" d="m 47,33.277116 v 7.764708 L 51.944068,37.906514 45.20387,50.2 38.463674,46.964074 43,43.828766 v -7.764708 l 4,-2.786942"/>
</svg>
