<svg xmlns="http://www.w3.org/2000/svg" width="64" height="64" version="1.1">
 <rect style="opacity:0.2" width="56" height="56" x="4" y="5" rx="28"/>
 <rect style="fill:#17191e" width="56" height="56" x="4" y="4" rx="28"/>
 <path style="opacity:0.2" d="m 30.207031,13.00485 c -0.202586,-0.0072 -0.406687,-0.0032 -0.613281,0.01172 -3.305502,0.239486 -5.802283,3.284736 -5.578125,6.804687 0.07576,1.191473 0.451791,2.284109 1.046875,3.199219 l 2.761719,4.332031 c 0.528748,1.049939 1.600074,1.72677 2.789062,1.640626 1.129148,-0.08174 2.06598,-0.8315 2.492188,-1.863282 l 2.300781,-4.949218 -0.01172,0.0039 c 0.44396,-0.970102 0.66333,-2.073018 0.589844,-3.226563 -0.210051,-3.299942 -2.738546,-5.845223 -5.777344,-5.953125 z m 13.328125,7.996094 c -0.853934,-0.01708 -1.724234,0.1482 -2.566406,0.507812 -1.1581,0.494627 -2.111874,1.298243 -2.808594,2.289063 l -3.417968,4.660156 c -0.03976,0.05104 -0.08029,0.10297 -0.117188,0.15625 l -0.01563,0.02344 h 0.0039 c -0.626944,0.921702 -0.807722,2.154272 -0.378906,3.289062 0.468462,1.239762 1.536981,2.030709 2.707031,2.140625 v -0.0039 l 5.585938,0.878906 -0.0078,-0.0078 c 1.099422,0.16454 2.255723,0.03374 3.359375,-0.4375 3.36858,-1.438466 5.000017,-5.514221 3.644532,-9.101563 -1.016848,-2.69023 -3.426488,-4.343287 -5.988282,-4.394531 z M 20.480469,25.00485 c -2.439893,-0.10246 -4.700505,1.434242 -5.320313,3.777344 -0.708353,2.677718 0.996526,5.39429 3.808594,6.066406 0.92119,0.220206 1.847883,0.194044 2.701172,-0.03516 l 4.232422,-1.167969 c 0.955653,-0.1714 1.76641,-0.855634 2.019531,-1.8125 0.242051,-0.914882 -0.08792,-1.838929 -0.779297,-2.425781 l -3.246094,-3.015625 v 0.0078 c -0.637722,-0.585406 -1.440253,-1.029794 -2.361328,-1.25 -0.351527,-0.08402 -0.706129,-0.129892 -1.054687,-0.144532 z m 8.136719,9.996094 c -0.615263,4.94e-4 -1.225293,0.168239 -1.753907,0.484375 l -5.226562,2.695313 0.0078,0.0039 c -1.027292,0.539172 -1.931186,1.344206 -2.59375,2.386718 -2.022305,3.182279 -1.044194,7.381881 2.183594,9.382813 3.227896,2.000932 7.485397,1.045559 9.507813,-2.136719 0.690722,-1.08692 1.029969,-2.291879 1.050781,-3.488281 L 31.96875,38.7861 c 0.170476,-1.255688 -0.39573,-2.554977 -1.554688,-3.273437 -0.559946,-0.347018 -1.181613,-0.512213 -1.796874,-0.511719 z m 7.988281,1.007812 c -0.524016,0.03826 -1.041624,0.230492 -1.492188,0.59375 -0.87534,0.705943 -1.254532,1.857464 -1.066406,2.933594 l 0.574219,5.160156 0.0078,-0.0039 c 0.12072,1.018514 0.483839,2.01725 1.105469,2.894532 1.898496,2.679718 5.479724,3.208701 7.996094,1.179687 2.516472,-2.029012 3.015783,-5.847624 1.117187,-8.527344 -0.65553,-0.925166 -1.509865,-1.592855 -2.453125,-1.988281 L 38.125,36.356413 c -0.466252,-0.267408 -0.995517,-0.385914 -1.519531,-0.347657 z"/>
 <path style="fill:#39e11e" d="M 30.207031 12.003906 C 30.004445 11.996713 29.800344 12.000657 29.59375 12.015625 C 26.288248 12.255111 23.791467 15.300361 24.015625 18.820312 C 24.091385 20.011785 24.467416 21.104421 25.0625 22.019531 L 27.824219 26.351562 C 28.352967 27.401501 29.424293 28.078332 30.613281 27.992188 C 31.742429 27.910448 32.679261 27.160688 33.105469 26.128906 L 35.40625 21.179688 L 35.394531 21.183594 C 35.838491 20.213492 36.057861 19.110576 35.984375 17.957031 C 35.774324 14.657089 33.245829 12.111808 30.207031 12.003906 z M 43.535156 20 C 42.681222 19.98292 41.810922 20.1482 40.96875 20.507812 C 39.81065 21.002439 38.856876 21.806055 38.160156 22.796875 L 34.742188 27.457031 C 34.702427 27.508071 34.6619 27.560001 34.625 27.613281 L 34.609375 27.636719 L 34.613281 27.636719 C 33.986337 28.558421 33.805559 29.790991 34.234375 30.925781 C 34.702837 32.165543 35.771356 32.95649 36.941406 33.066406 L 36.941406 33.0625 L 42.527344 33.941406 L 42.519531 33.933594 C 43.618953 34.098134 44.775254 33.967334 45.878906 33.496094 C 49.247486 32.057628 50.878923 27.981873 49.523438 24.394531 C 48.50659 21.704301 46.09695 20.051244 43.535156 20 z M 20.480469 24.003906 C 18.040576 23.901446 15.779964 25.438148 15.160156 27.78125 C 14.451803 30.458968 16.156682 33.17554 18.96875 33.847656 C 19.88994 34.067862 20.816633 34.0417 21.669922 33.8125 L 25.902344 32.644531 C 26.857997 32.473131 27.668754 31.788897 27.921875 30.832031 C 28.163926 29.917149 27.83395 28.993102 27.142578 28.40625 L 23.896484 25.390625 L 23.896484 25.398438 C 23.258762 24.813032 22.456231 24.368644 21.535156 24.148438 C 21.183629 24.064418 20.829027 24.018546 20.480469 24.003906 z M 28.617188 34 C 28.001925 34.000494 27.391895 34.168239 26.863281 34.484375 L 21.636719 37.179688 L 21.644531 37.183594 C 20.617239 37.722766 19.713345 38.5278 19.050781 39.570312 C 17.028476 42.752591 18.006587 46.952193 21.234375 48.953125 C 24.462271 50.954057 28.719772 49.998684 30.742188 46.816406 C 31.43291 45.729486 31.772157 44.524527 31.792969 43.328125 L 31.96875 37.785156 C 32.139226 36.529468 31.57302 35.230179 30.414062 34.511719 C 29.854116 34.164701 29.232449 33.999506 28.617188 34 z M 36.605469 35.007812 C 36.081453 35.046073 35.563845 35.238304 35.113281 35.601562 C 34.237941 36.307505 33.858749 37.459026 34.046875 38.535156 L 34.621094 43.695312 L 34.628906 43.691406 C 34.749626 44.70992 35.112745 45.708656 35.734375 46.585938 C 37.632871 49.265656 41.214099 49.794639 43.730469 47.765625 C 46.246941 45.736613 46.746252 41.918001 44.847656 39.238281 C 44.192126 38.313115 43.337791 37.645426 42.394531 37.25 L 38.125 35.355469 C 37.658748 35.088061 37.129483 34.969555 36.605469 35.007812 z"/>
 <path style="opacity:0.1;fill:#8b9cbe" d="M 32 4 C 16.488 4 4 16.488 4 32 C 4 32.11345 4.0112805 32.224113 4.0175781 32.335938 C 4.3691213 17.134181 16.710728 5 32 5 C 47.289272 5 59.630879 17.134181 59.982422 32.335938 C 59.98872 32.224113 60 32.11345 60 32 C 60 16.488 47.512 4 32 4 z"/>
 <path style="fill:#8b9cbe;opacity:0.2" d="M 30.207031 12.003906 C 30.004445 11.996713 29.800344 12.000657 29.59375 12.015625 C 26.288248 12.255111 23.791467 15.300361 24.015625 18.820312 C 24.017403 18.84827 24.023283 18.874496 24.025391 18.902344 C 24.246003 15.786714 26.580485 13.233938 29.59375 13.015625 C 29.800344 13.000705 30.004445 12.996706 30.207031 13.003906 C 33.22391 13.11103 35.734915 15.621475 35.976562 18.886719 C 35.998765 18.581015 36.004437 18.271954 35.984375 17.957031 C 35.774324 14.657089 33.245829 12.111808 30.207031 12.003906 z M 43.535156 20 C 42.681222 19.98292 41.810922 20.1482 40.96875 20.507812 C 39.81065 21.002439 38.856876 21.806055 38.160156 22.796875 L 34.742188 27.457031 C 34.702427 27.508071 34.6619 27.560001 34.625 27.613281 L 34.609375 27.636719 L 34.613281 27.636719 C 34.127525 28.350854 33.915076 29.251137 34.041016 30.148438 C 34.11712 29.603821 34.310246 29.082226 34.613281 28.636719 L 34.609375 28.636719 L 34.625 28.613281 C 34.661898 28.560001 34.702427 28.508071 34.742188 28.457031 L 38.160156 23.796875 C 38.856876 22.806055 39.81065 22.00244 40.96875 21.507812 C 41.810922 21.148201 42.681222 20.98292 43.535156 21 C 46.09695 21.051244 48.506589 22.704301 49.523438 25.394531 C 49.77952 26.072263 49.927224 26.767464 49.978516 27.458984 C 50.040951 26.444447 49.903817 25.401219 49.523438 24.394531 C 48.50659 21.704301 46.09695 20.051244 43.535156 20 z M 20.480469 24.003906 C 18.040576 23.901446 15.779964 25.438148 15.160156 27.78125 C 15.006356 28.362647 14.972839 28.944077 15.033203 29.507812 C 15.058756 29.266553 15.096095 29.023415 15.160156 28.78125 C 15.779964 26.438148 18.040576 24.901446 20.480469 25.003906 C 20.829027 25.018546 21.183629 25.064418 21.535156 25.148438 C 22.456231 25.368644 23.258762 25.813032 23.896484 26.398438 L 23.896484 26.390625 L 27.142578 29.40625 C 27.562083 29.762332 27.827254 30.248395 27.933594 30.775391 C 28.147572 29.879192 27.81966 28.980972 27.142578 28.40625 L 23.896484 25.390625 L 23.896484 25.398438 C 23.258762 24.813032 22.456231 24.368644 21.535156 24.148438 C 21.183629 24.064418 20.829027 24.018546 20.480469 24.003906 z M 28.617188 34 C 28.001925 34.000494 27.391895 34.168239 26.863281 34.484375 L 21.636719 37.179688 L 21.644531 37.183594 C 20.617239 37.722766 19.713345 38.5278 19.050781 39.570312 C 18.244722 40.83872 17.923686 42.268245 18.023438 43.65625 C 18.105883 42.594015 18.43764 41.535146 19.050781 40.570312 C 19.713345 39.5278 20.617239 38.722766 21.644531 38.183594 L 21.636719 38.179688 L 26.863281 35.484375 C 27.391895 35.168239 28.001925 35.000494 28.617188 35 C 29.232449 34.999506 29.854116 35.164701 30.414062 35.511719 C 31.299572 36.060663 31.83561 36.94986 31.964844 37.898438 L 31.96875 37.785156 C 32.139226 36.529468 31.57302 35.230179 30.414062 34.511719 C 29.854116 34.164701 29.232449 33.999506 28.617188 34 z M 36.605469 35.007812 C 36.081453 35.046073 35.563845 35.238304 35.113281 35.601562 C 34.246371 36.300707 33.86747 37.43675 34.042969 38.503906 C 34.155796 37.773136 34.516242 37.083062 35.113281 36.601562 C 35.563845 36.238304 36.081453 36.046073 36.605469 36.007812 C 37.129483 35.969555 37.658748 36.088061 38.125 36.355469 L 42.394531 38.25 C 43.337791 38.645426 44.192126 39.313115 44.847656 40.238281 C 45.521924 41.189957 45.888157 42.286743 45.974609 43.394531 C 46.084123 41.958376 45.725282 40.476982 44.847656 39.238281 C 44.192126 38.313115 43.337791 37.645426 42.394531 37.25 L 38.125 35.355469 C 37.658748 35.088061 37.129483 34.969555 36.605469 35.007812 z"/>
</svg>
