<svg xmlns="http://www.w3.org/2000/svg" width="64" height="64" version="1">
 <path style="opacity:0.2" d="M 61.96,31.828 A 30,30 0 0 1 32,61 30,30 0 0 1 2.04,32.172 30,30 0 0 0 2,33 30,30 0 0 0 32,63 30,30 0 0 0 62,33 30,30 0 0 0 61.96,31.828 Z"/>
 <path style="fill:#4f4f4f" d="M 62,32 A 30,30 0 0 1 32,62 30,30 0 0 1 2,32 30,30 0 0 1 32,2 30,30 0 0 1 62,32 Z"/>
 <path style="opacity:0.1;fill:#8b9cbe" d="M 31.998047 2 A 30 30 0 0 0 2 32 A 30 30 0 0 0 2.0175781 32.511719 A 30 30 0 0 1 31.998047 3 L 32 3 A 30 30 0 0 1 61.974609 32.511719 A 30 30 0 0 0 61.998047 32 A 30 30 0 0 0 32 2 L 31.998047 2 z"/>
 <path style="opacity:0.1;fill:#8b9cbe" d="M 15.3722,7.0636 C 7.3212,12.4326 2.0334,21.592 2.0334,32.0356 l 24,0 c 0,-2.4314 1.454,-4.5126 3.5332,-5.455 L 15.368,7.0654 Z"/>
 <path style="opacity:0.1;fill:#8b9cbe" d="M 48.628,56.936 C 56.6792,51.567 61.9668,42.4076 61.9668,31.964 l -24,0 c 0,2.4314 -1.454,4.5126 -3.5332,5.455 L 48.628,56.9366 Z"/>
 <path style="opacity:0.2" d="m 43.999828,1.0004587 0,11.9998283 11.999829,0 L 43.999828,33 l 0,-11.999828 -11.999828,0 z"/>
 <rect style="fill:#8b9cbe" width="24" height="24" x="20" y="20" ry="12"/>
 <rect style="fill:#17191e" width="8" height="8" x="28" y="-36" ry="4" transform="scale(1,-1)"/>
 <path style="fill:#ffd63f" d="m 43.999828,4.5873e-4 0,11.99982827 11.999829,0 L 43.999828,32 l 0,-11.999828 -11.999828,0 z"/>
 <path style="opacity:0.2" d="M 20 33 L 8 53 L 20 53 L 20 64 L 20.599609 64 L 32 45 L 20 45 L 20 33 z"/>
 <path style="fill:#ff7a3f" d="m 19.999829,64 0,-11.999828 -11.999829,0 11.999829,-19.999714 0,11.999829 11.999828,0 z"/>
 <path style="fill:#8b9cbe;opacity:0.2" d="M 44 0 L 32 20 L 32.599609 20 L 44 1 L 44 0 z M 44 12 L 44 13 L 55.400391 13 L 56 12 L 44 12 z"/>
 <path style="fill:#8b9cbe;opacity:0.2" d="M 20 32 L 8 52 L 8.5996094 52 L 20 33 L 20 32 z M 20 44 L 20 45 L 31.400391 45 L 32 44 L 20 44 z"/>
</svg>
