<svg xmlns="http://www.w3.org/2000/svg" width="64" height="64" version="1.1">
 <path style="opacity:0.2" d="M 32.14979,5.0018637 A 6.3410582,6.3670068 0 0 0 28.828985,5.8512366 L 10.170807,16.667546 A 6.3410582,6.3670068 0 0 0 7.0000002,22.1821 v 21.63402 a 6.3410582,6.3670068 0 0 0 3.1705288,5.513994 l 18.658178,10.816869 a 6.3410582,6.3670068 0 0 0 6.341058,0 L 53.827943,49.330114 A 6.3410582,6.3670068 0 0 0 56.99875,43.81556 V 22.18154 A 6.3410582,6.3670068 0 0 0 53.827943,16.666986 L 35.169765,5.8506766 A 6.3410582,6.3670068 0 0 0 32.148957,5.0013037 Z"/>
 <path style="fill:#4f4f4f" d="M 32.14979,4.0018628 A 6.3410582,6.3670068 0 0 0 28.828985,4.8512357 L 10.170807,15.667545 a 6.3410582,6.3670068 0 0 0 -3.1708068,5.514554 v 21.63402 a 6.3410582,6.3670068 0 0 0 3.1705288,5.513994 l 18.658178,10.816869 a 6.3410582,6.3670068 0 0 0 6.341058,0 L 53.827943,48.330113 A 6.3410582,6.3670068 0 0 0 56.99875,42.815559 V 21.181539 A 6.3410582,6.3670068 0 0 0 53.827943,15.666985 L 35.169765,4.8506757 A 6.3410582,6.3670068 0 0 0 32.148957,4.0013028 Z"/>
 <path style="opacity:0.3" d="m 10.71139,16.74928 v 0 C 9.1385898,17.663894 7.4923815,18.129925 7.1333368,19.918928 L 29.222454,32.294606 v 3.171847 l 2.777754,-2.067169 -1.388877,-3.650361 1.388877,0.850384 -2.249141,-3.959193 -0.675136,-1.122775 -17.237449,-9.095996 -1.582668,-0.04885 c -0.2879389,0.06004 0.877387,0.255235 0.455576,0.376792 z"/>
 <path style="fill:#8b9cbe;opacity:0.1" d="M 32.148438 4.0019531 A 6.3410582 6.3670068 0 0 0 28.828125 4.8515625 L 10.169922 15.667969 A 6.3410582 6.3670068 0 0 0 7 21.181641 L 7 22.181641 A 6.3410582 6.3670068 0 0 1 10.169922 16.667969 L 28.828125 5.8515625 A 6.3410582 6.3670068 0 0 1 32.148438 5.0019531 L 32.150391 5.0019531 A 6.3410582 6.3670068 0 0 1 35.169922 5.8515625 L 53.828125 16.666016 A 6.3410582 6.3670068 0 0 1 56.998047 22.181641 L 56.998047 21.181641 A 6.3410582 6.3670068 0 0 0 53.828125 15.666016 L 35.169922 4.8515625 A 6.3410582 6.3670068 0 0 0 32.150391 4.0019531 L 32.148438 4.0019531 z"/>
 <path style="fill:#8b9cbe" transform="matrix(0.93789209,-0.34692713,0.34300443,0.93933379,0,0)" d="M 6.9597781,23.512281 A 3.8297803,5.1315479 0 0 1 3.1299977,28.643829 3.8297803,5.1315479 0 0 1 -0.69978261,23.512281 3.8297803,5.1315479 0 0 1 3.1299977,18.380733 3.8297803,5.1315479 0 0 1 6.9597781,23.512281 Z"/>
 <path style="fill:#8b9cbe" transform="matrix(0.93789209,-0.34692713,0.34300443,0.93933379,0,0)" d="m 19.841133,37.851051 a 3.8297803,5.1315479 0 0 1 -3.82978,5.131548 3.8297803,5.1315479 0 0 1 -3.829781,-5.131548 3.8297803,5.1315479 0 0 1 3.829781,-5.131548 3.8297803,5.1315479 0 0 1 3.82978,5.131548 z"/>
 <path style="fill:#8b9cbe" d="m 23.09192,24.171345 a 5.1316043,3.8297048 70.241013 0 1 -1.831776,6.148891 5.1316043,3.8297048 70.241013 0 1 -5.352065,-3.491582 5.1316043,3.8297048 70.241013 0 1 1.831777,-6.148891 5.1316043,3.8297048 70.241013 0 1 5.352064,3.491582 z"/>
 <path style="fill:#d87900" d="m 7.6406025,18.398627 a 6.3410582,6.3670068 0 0 0 -0.6401856,2.783572 v 21.634193 a 6.3410582,6.3670068 0 0 0 3.1710891,5.512454 l 18.657613,10.817097 a 6.3410582,6.3670068 0 0 0 3.171089,0.850384 V 32.048513 Z"/>
 <path style="fill:#ad6200" d="m 56.37609,18.450581 -24.378594,13.658088 0.0027,27.887658 a 6.3410582,6.3670068 0 0 0 3.168377,-0.850384 L 53.828911,48.328846 A 6.3410582,6.3670068 0 0 0 57,42.816392 V 21.182199 a 6.3410582,6.3670068 0 0 0 -0.62391,-2.731618 z"/>
 <path style="opacity:0.1;fill:#8b9cbe" d="M 56.37609,18.450581 31.997496,32.108669 v 8.405398 L 56.37609,26.855979 A 6.3410582,6.3670068 0 0 1 57,29.587597 v -8.405398 a 6.3410582,6.3670068 0 0 0 -0.62391,-2.731618 z"/>
 <path style="opacity:0.2;fill:none;stroke:#8b9cbe;stroke-width:1.3944217px" d="m 17.049873,15.728736 11.120412,-2.516391 4.311997,-6.1765933 v 0"/>
 <path style="opacity:0.2;fill:none;stroke:#8b9cbe;stroke-width:1.3944217px" d="m 23.858289,19.617702 10.893464,-2.402007 4.311996,-6.748502"/>
 <path style="opacity:0.2;fill:none;stroke:#8b9cbe;stroke-width:1.3944217px" d="M 30.212809,23.277907 40.9928,20.761516 45.304796,14.35616"/>
 <path style="opacity:0.1" d="M 56.376953 26.855469 L 31.998047 40.513672 L 31.998047 41.513672 L 56.376953 27.855469 A 6.3410582 6.3670068 0 0 1 57 30.587891 L 57 29.587891 A 6.3410582 6.3670068 0 0 0 56.376953 26.855469 z"/>
 <path style="opacity:0.1" d="M 7.640625 18.398438 A 6.3410582 6.3670068 0 0 0 7 21.181641 L 7 22.181641 A 6.3410582 6.3670068 0 0 1 7.640625 19.398438 L 32 33.048828 L 32 32.048828 L 7.640625 18.398438 z"/>
 <path style="fill:#8b9cbe;opacity:0.1" d="M 56.376953 18.451172 L 31.998047 32.109375 L 31.998047 33.109375 L 56.376953 19.451172 A 6.3410582 6.3670068 0 0 1 57 22.181641 L 57 21.181641 A 6.3410582 6.3670068 0 0 0 56.376953 18.451172 z"/>
 <path style="opacity:0.3;fill:#8b9cbe" d="m 17,28.764706 v 6.666667 L 7.0328345,29.666667 v 6.666666 L 17,42.098039 v 6.666667 L 24.679894,47.882353 32.032835,47 24.679894,37.882353 17,28.764706"/>
 <path style="opacity:0.1" d="M 7.0332031 36.333984 L 7.0332031 37.333984 L 17 43.097656 L 17 42.097656 L 7.0332031 36.333984 z M 31.296875 47.087891 L 24.679688 47.882812 L 17 48.765625 L 17 49.765625 L 24.679688 48.882812 L 32.033203 48 L 31.296875 47.087891 z"/>
 <path style="opacity:0.2;fill:#8b9cbe" d="M 17 28.765625 L 17 29.765625 L 24.679688 38.882812 L 31.296875 47.087891 L 32.033203 47 L 24.679688 37.882812 L 17 28.765625 z M 7.0332031 29.666016 L 7.0332031 30.666016 L 17 36.431641 L 17 35.431641 L 7.0332031 29.666016 z"/>
</svg>
