<svg xmlns="http://www.w3.org/2000/svg" width="64" height="64" version="1.1">
 <path style="opacity:0.2" d="m 7.0897737,12.883128 c -0.06676,0.289201 -0.1039802,0.594602 -0.07812,0.941403 l 2.1718056,29.218074 c 0.08262,1.109403 0.6145415,2.116206 1.4414037,2.734206 l 19.56645,14.609237 c 1.095882,0.818602 2.521406,0.818602 3.617209,0 l 19.56645,-14.609237 c 0.826862,-0.618 1.358783,-1.624803 1.441403,-2.734206 l 2.171806,-29.218074 c 0.02584,-0.346801 -0.0114,-0.652202 -0.07812,-0.941403 l -2.093806,28.160071 c -0.08262,1.109403 -0.614541,2.116205 -1.441403,2.734407 l -19.56645,14.609037 c -1.095883,0.818802 -2.521407,0.818802 -3.617209,0 L 10.624143,43.786606 C 9.7972806,43.168404 9.2653593,42.161602 9.1827391,41.052199 L 7.0889337,12.892128 Z"/>
 <path style="fill:#2e9d91" d="M 9.7767806,3.9991569 C 8.1520164,4.3637579 6.8723732,5.3757605 7.0101735,7.2251652 L 9.1841791,42.043254 c 0.08262,1.109603 0.6126015,2.116206 1.4394639,2.734407 l 19.56645,14.608237 c 1.095882,0.818803 2.524006,0.818803 3.619809,0 l 19.56645,-14.608237 c 0.826862,-0.618201 1.356843,-1.624804 1.439463,-2.734407 L 56.989821,7.2251652 C 57.127661,5.3757605 55.847998,4.3637579 54.223214,3.9991569 Z"/>
 <path style="opacity:0.2;fill-rule:evenodd" d="m 33.388041,19.799553 -4.166811,4.200011 4.166811,0 1.388963,1.399803 2.778007,-4.19981 -1.388963,-1.400004 z m 5.555814,1.400004 -2.778007,4.19981 1.388963,4.200011 4.166811,-4.200011 0,1.400004 -4.166811,4.200011 1.388964,2.800007 5.555814,-5.600015 0,1.400004 -5.555814,5.600014 5.556014,0 L 47,32.399385 l 0,-2.800007 -1.111167,-1.400004 0,-2.800007 -2.778007,-1.399803 -1.388964,-2.800007 z m -12.500632,4.19981 -1.388963,1.400004 2.778007,9.799825 -10.726428,12.017431 8.515422,6.357416 10.544627,-14.174836 2.778007,0 1.388963,-1.400004 2.778008,-1.400004 1.388963,-1.400003 -6.944818,0 -1.388963,-4.199811 -1.388964,0 -1.388963,4.199811 -2.778007,0 1.388963,-4.199811 -2.778007,-2.800007 1.388964,-1.400004 2.778007,2.800008 2.778007,0 0,-1.400004 -2.778007,-4.200011 z m -2.778007,2.800007 1.388964,7.000018 0,1.399804 -10.856628,9.846425 0.762302,0.568601 c 2.157005,-1.967005 7.636619,-6.966017 11.483229,-10.415026 l -2.778007,-8.399822 z m 9.722625,12.599833 1.388963,0 -6.944817,8.399821 5.555814,-8.399821 z"/>
 <path style="fill:#ececec;fill-rule:evenodd" d="m 33.388041,19 -4.166811,4.599207 4.166811,0 1.388963,1.400004 L 37.555011,20.7992 36.166048,19 Z m 5.555814,2 -2.778007,3.999211 1.388963,4.19981 4.166811,-4.19981 0,1.399803 -4.166811,4.200011 1.388964,2.800007 5.555814,-5.600014 0,1.400003 -5.555814,5.600015 5.556014,0 L 47,31.999029 47,29.199021 46,27.799018 46,24.999211 43.110826,23.599207 41.721862,21 Z m -12.500632,3.999211 -1.388963,1.399803 2.778007,9.800025 -11.47783,12.856633 8.596822,6.417616 11.214629,-15.074438 2.778007,0 1.388963,-1.400004 2.778008,-1.400003 L 44.499829,36 l -6.944818,0 -1.388963,-4.000971 -1.388964,0 L 33.388121,36 l -2.778007,0 1.388963,-4.000971 -2.778007,-2.800008 1.388964,-1.400003 2.778007,2.800007 2.778007,0 0,-1.400004 -2.778007,-4.19981 z m -2.778007,2.799807 1.388964,7.000018 0,1.400003 -11.70303,10.614627 0.762302,0.568602 c 1.687464,-1.538804 8.199421,-7.480219 12.329631,-11.183229 l -2.778007,-8.400021 z m 9.722625,12.599832 1.388963,0 -6.944817,8.399821 5.555814,-8.399821 z"/>
 <path style="opacity:0.2;fill:#8b9cbe" d="M 9.7773438 4 C 8.1525795 4.364601 6.8739185 5.3771578 7.0117188 7.2265625 L 7.03125 7.5351562 C 7.2211953 6.120545 8.3679958 5.314308 9.7773438 4.9980469 L 54.224609 4.9980469 C 55.636035 5.3147782 56.783347 6.1224819 56.970703 7.5410156 L 56.990234 7.2265625 C 57.128074 5.3771578 55.849353 4.364601 54.224609 4 L 9.7773438 4 z"/>
</svg>
