<svg xmlns="http://www.w3.org/2000/svg" width="64" height="64" version="1">
 <path style="opacity:0.2" d="M 6.8,5 C 5.2488,5 4,6.2488 4,7.8 V 58.2 C 4,59.7512 5.2488,61 6.8,61 H 38 L 60,39 V 7.8 C 60,6.2488 58.7512,5 57.2,5 Z"/>
 <path style="fill:#579c3b" d="M 6.8,4 C 5.2488,4 4,5.2488 4,6.8 V 57.2 C 4,58.7512 5.2488,60 6.8,60 H 38 L 60,38 V 6.8 C 60,5.2488 58.7512,4 57.2,4 Z"/>
 <path style="opacity:0.2" d="m 22,15 c -7.731986,0 -14,6.268014 -14,14 0,7.731986 6.268014,14 14,14 7.731986,0 14,-6.268014 14,-14 -0.0055,-0.669639 -0.05901,-1.338022 -0.16016,-2 H 43 v 20 h 4 V 27 h 9 V 23 H 34.628906 C 32.31452,18.12083 27.400243,15.007796 22,15 Z m 0,4.199218 C 27.413001,19.198786 31.801214,23.586999 31.800782,29 31.801214,34.413001 27.413001,38.801214 22,38.800782 16.586999,38.801213 12.198787,34.413001 12.199219,29 12.198787,23.586999 16.586999,19.198787 22,19.199218 Z"/>
 <rect style="fill:#8b9cbe" width="20" height="4" x="26" y="-47" transform="rotate(90)"/>
 <path style="fill:#85df66" d="M 60,38 H 40.75 C 39.231174,38 38,39.23123 38,40.75 V 60 Z"/>
 <rect style="fill:#8b9cbe" width="24" height="4" x="32" y="22"/>
 <path style="fill:#8b9cbe" d="M 22,14 A 14,14 0 0 0 8,28 14,14 0 0 0 22,42 14,14 0 0 0 36,28 14,14 0 0 0 22,14 Z m 0,4.2 A 9.8,9.8 0 0 1 31.8,28 9.8,9.8 0 0 1 22,37.8 9.8,9.8 0 0 1 12.2,28 9.8,9.8 0 0 1 22,18.2 Z"/>
 <path style="opacity:0.2;fill:#8b9cbe" d="M 6.8007812 4 C 5.2495812 4 4 5.2495812 4 6.8007812 L 4 7.8007812 C 4 6.2495812 5.2495812 5 6.8007812 5 L 57.199219 5 C 58.750419 5 60 6.2495813 60 7.8007812 L 60 6.8007812 C 60 5.2495813 58.750419 4 57.199219 4 L 6.8007812 4 z"/>
 <path style="opacity:0.2;fill:#8b9cbe" d="M 40.75 38 C 39.231174 38 38 39.23123 38 40.75 L 38 41.75 C 38 40.23123 39.231174 39 40.75 39 L 59 39 L 60 38 L 40.75 38 z"/>
</svg>
