<svg xmlns="http://www.w3.org/2000/svg" width="64" height="64" version="1">
 <rect style="fill:#b2bfd9" width="56" height="56" x="4" y="4" rx="28" ry="28"/>
 <path style="opacity:0.2;fill:#8b9cbe" d="M 32,4 C 16.488222,4 4,16.490012 4,32.004014 4,32.117584 4.011285,32.22808 4.017578,32.34 4.3691163,17.136281 16.710946,5.0001434 32,5.0001434 47.289054,5.0001434 59.630884,17.136281 59.982422,32.34 59.988797,32.22808 60,32.117584 60,32.004014 60,16.490012 47.511778,4 32,4 Z"/>
 <path style="opacity:0.2" d="M 4.0175781,32.664062 C 4.0112845,32.775966 4,32.886446 4,33 4,48.511779 16.488001,61 32,61 47.512,61 60,48.511779 60,33 60,32.886446 59.988797,32.775966 59.982422,32.664062 59.630879,47.865603 47.289272,60 32,60 16.710729,60 4.3691213,47.865603 4.0175781,32.664062 Z"/>
 <path style="fill:#ef3939" d="m 17.999857,18.000629 c -2.216,0 -4,1.783975 -4,3.999943 l 18,9.999857 18,-9.999857 c 0,-2.215968 -1.784,-3.999943 -4,-3.999943 l -28,0 z m 0,1.999972 28,0 c 0.7568,0 1.27298,0.449133 1.61328,1.035145 l -15.614,8.673876 -15.6132,-8.673876 c 0.3402,-0.585992 0.8564,-1.035985 1.6132,-1.035985 z m -4,3.999942 0,17.999743 c 0,2.215968 1.784,3.999943 4,3.999943 l 28,0 c 2.216,0 4,-1.783975 4,-3.999943 l 0,-17.999743 -18,9.999857 -18,-9.999857 z m 2.000001,3.402352 15.027399,8.34748 a 2.0002,2.0001714 0 0 0 1.94532,0 l 15.025999,-8.34788 0,14.597791 c 0,1.142584 -0.8574,1.999971 -1.999999,1.999971 l -28,0 c -1.142599,0 -1.999999,-0.857987 -1.999999,-1.999971 l 0,-14.597391 z"/>
</svg>
