<svg xmlns="http://www.w3.org/2000/svg" height="64" width="64" version="1.1">
 <circle cx="32" cy="33" r="28" style="opacity:.2"/>
 <circle cx="32" cy="32" r="28" style="fill:#4f4f4f"/>
 <path d="m32 4a28 28 0 0 0 -28 28 28 28 0 0 0 0.0215 0.586 28 28 0 0 1 27.9785 -27.586 28 28 0 0 1 27.979 27.414 28 28 0 0 0 0.021 -0.414 28 28 0 0 0 -28 -28z" style="opacity:.1;fill:#8b9cbe"/>
 <path style="opacity:.2" d="m38.5 16c-2.531273 0-4.931163 0.548658-7.103516 1.515625l2.640625 3.419922c2.166482-1.275684 4.68288-2.019291 7.378907-2.019531 5.202489 0.0082 9.606254 2.787203 12.207031 7.292968-7.088648 7.951486-14.623047 14.791016-21.644531 23.521485 2.016886 0.811227 4.214367 1.269531 6.521484 1.269531 6.829156-0.014736 13.025875-4.000738 15.871094-10.208984h-0.341797c-2.601825 4.507574-7.408698 7.286896-12.613281 7.292968-1.077417-0.0044-2.151027-0.128219-3.201172-0.36914l16.167968-21.50586c-2.846992-6.212093-9.049412-10.198818-15.882812-10.208984zm-10.238281 3.328125c-4.392781 3.179316-7.261719 8.334766-7.261719 14.171875 0 6.061941 3.082881 11.402461 7.765625 14.542969l2.943359-3.679688c-3.055507-2.728939-4.872714-6.658856-4.875-10.863281-0.000183-4.095578 1.693607-7.792341 4.41211-10.441406z"/>
 <path style="fill:#f7f457" d="m38.5 15c-2.531273 0-4.931163 0.548658-7.103516 1.515625l2.640625 3.419922c2.166482-1.275684 4.68288-2.019291 7.378907-2.019531 5.202489 0.0082 9.606254 2.787203 12.207031 7.292968-7.088648 7.951486-14.623047 14.791016-21.644531 23.521485 2.016886 0.811227 4.214367 1.269531 6.521484 1.269531 6.829156-0.014736 13.025875-4.000738 15.871094-10.208984h-0.341797c-2.601825 4.507574-7.408698 7.286896-12.613281 7.292968-1.077417-0.0044-2.151027-0.128219-3.201172-0.36914l16.167968-21.50586c-2.846992-6.212093-9.049412-10.198818-15.882812-10.208984zm-10.238281 3.328125c-4.392781 3.179316-7.261719 8.334766-7.261719 14.171875 0 6.061941 3.082881 11.402461 7.765625 14.542969l2.943359-3.679688c-3.055507-2.728939-4.872714-6.658856-4.875-10.863281-0.000183-4.095578 1.693607-7.792341 4.41211-10.441406z"/>
 <path style="opacity:.2;fill:#8b9cbe" d="m38.5 15c-2.531273 0-4.931163 0.548658-7.103516 1.515625l0.595704 0.769531c2.014837-0.811784 4.202351-1.285156 6.507812-1.285156 6.608587 0.009832 12.618037 3.745096 15.582031 9.609375l0.300781-0.400391c-2.846992-6.212093-9.049412-10.198818-15.882812-10.208984zm-10.238281 3.328125c-4.392781 3.179316-7.261719 8.334766-7.261719 14.171875 0 0.166128 0.011025 0.329127 0.015625 0.494141 0.161085-5.627563 2.981206-10.579264 7.246094-13.666016l2.554687 3.191406c0.144053-0.152906 0.279246-0.314338 0.429688-0.460937l-2.984375-3.730469zm24.99414 7.283203c-6.981914 7.778638-14.376181 14.538279-21.277343 23.119141 0.210246 0.084564 0.43044 0.147834 0.644531 0.224609 6.837633-8.356724 14.126587-15.036041 21-22.746094-0.117776-0.204042-0.24211-0.400792-0.367188-0.597656zm-26.396484 7.378906c-0.00593 0.170716-0.025398 0.337593-0.025391 0.509766 0.002169 3.988608 1.653065 7.716412 4.429688 10.419922l0.445312-0.556641c-2.935686-2.621924-4.711504-6.355551-4.849609-10.373047zm27.169922 6.800782c-2.601825 4.507574-7.408698 7.286896-12.613281 7.292968-0.851703-0.003478-1.697922-0.102323-2.535157-0.253906l-0.666015 0.884766c1.050145 0.240921 2.123755 0.36474 3.201172 0.36914 4.300962-0.005017 8.326635-1.908317 11.064453-5.111328 0.73138-0.979081 1.368313-2.04196 1.890625-3.18164h-0.341797z"/>
 <path style="opacity:.2" d="m37 27.8-2.85 3.2h-18.525l-8.625 2.5 8.625 2.5h18.525l2.85 3.2v-8.55z"/>
 <path style="fill:#f7f457" d="m37 26.8-2.85 3.2h-18.525l-8.625 2.5 8.625 2.5h18.525l2.85 3.2v-8.55z"/>
 <g transform="translate(-17.53125,23.625)">
  <circle style="fill:#4f4f4f" cx="8" r="8" cy="8"/>
  <path style="fill:#f7f457" d="m9.5 4c-0.4849622 0-0.9432058 0.0963251-1.3808594 0.2382812l0.2949219 0.5917969c0.486728-0.2107128 1.0217988-0.3300781 1.5859375-0.3300781 1.478792 0.00149 2.634942 0.8187366 3.328125 2.125-2.156105 1.8338635-4.3091763 3.67117-6.4628906 5.507812 0.7421713 0.539597 1.6469645 0.867188 2.6347656 0.867188 1.755646-0.0042 3.348562-1.029007 4.080078-2.625h-0.048828c-0.693512 1.306882-2.051757 2.124233-3.53125 2.125-0.6925884-0.001228-1.3729911-0.182265-1.9746094-0.525391l5.5585934-5.349609c-0.732107-1.597275-2.326923-2.6223506-4.083984-2.625zm-2.2011719 0.5976562c-1.2278993 0.6945804-2.0988865 1.9371995-2.2636719 3.4023438h-1.6601562l-2.375 0.5 2.375 0.5h1.671875c0.1060557 0.9155523 0.4782544 1.745874 1.0488281 2.412109l0.8203125-0.375c-0.4784271-0.580612-0.7765052-1.2873998-0.8730468-2.037109h2.2070312l0.75 1v-3l-0.75 1h-2.21875c0.1410115-1.1149901 0.7469233-2.082058 1.6113281-2.7167969z"/>
 </g>
 <path style="opacity:.2;fill:#8b9cbe" d="m37 26.800781l-2.849609 3.199219h-18.525391l-8.625 2.5 1.7246094 0.5 6.9003906-2h18.525391l2.849609-3.199219v-1z"/>
</svg>
