<svg xmlns="http://www.w3.org/2000/svg" width="64" height="64" version="1.1">
 <path style="opacity:0.2" d="M 16.667969,4.9999993 C 15.195243,4.9999989 14,6.1952343 14,7.6679681 V 58.332032 C 13.999968,59.804854 15.195154,61 16.667969,61 H 48 48.40625 59.332032 A 2.6666464,2.66666 0 0 0 62,58.332032 V 47 H 59.539062 L 62,19.398438 V 7.6679681 C 62,6.1952349 60.804758,4.9999997 59.332032,4.9999993 Z"/>
 <path style="fill:#ca64ea" d="m 16.666608,4 h 42.666526 c 1.472726,4e-7 2.666604,1.1938868 2.666604,2.66662 v 11.731085 l -3.139504,35.219691 c 3.2e-5,1.472756 -1.33946,2.033508 -2.666606,2.666678 L 48.40493,60 H 16.666726 C 15.193911,60 13.999968,58.806022 14,57.3332 V 6.66662 C 14,5.1938862 15.193882,3.9999996 16.666608,4 Z"/>
 <path style="fill:#ae4bd5" d="M 48.00007,18 V 32 L 55.000036,38.39 62,32 V 18 Z"/>
 <path style="fill:#9332bf" d="M 48.00007,32 V 46 L 55.000036,52.79 62,46 V 32 Z"/>
 <path style="fill:#7719aa" d="M 47.99977,46 H 61.999698 V 57.33334 A 2.6666464,2.66666 0 0 1 59.333052,60 H 47.99977 Z"/>
 <path style="opacity:0.1" d="M 4.6666604,17 H 31.333378 A 2.66668,2.66668 0 0 1 34,19.66668 V 46.333322 A 2.66666,2.66666 0 0 1 31.3334,49 H 4.6666808 A 2.66668,2.66668 0 0 1 2,46.333322 V 19.666662 A 2.66666,2.66666 0 0 1 4.6666604,17 Z"/>
 <path style="fill:#7719aa" d="M 4.6666604,16 H 31.333378 A 2.66668,2.66668 0 0 1 34,18.66668 V 45.333322 A 2.66666,2.66666 0 0 1 31.3334,48 H 4.6666808 A 2.66668,2.66668 0 0 1 2,45.333322 V 18.666662 A 2.66666,2.66666 0 0 1 4.6666604,16 Z"/>
 <path style="fill:#8b9cbe" d="m 9.0000178,22 h 4.2936372 l 8.929351,13.46326 c 0.428782,0.58072 0.750363,1.047894 0.964748,1.40152 h 0.06124 c -0.115578,-0.880502 -0.27281,-1.76712 -0.24898,-2.653338 V 22 H 27 V 42 H 22.712973 L 13.881714,28.74146 C 13.5515,28.303942 13.259685,27.844492 13.008837,27.367178 h -0.07655 c 0.09923,0.967986 0.08584,1.939996 0.0682,2.911864 V 42 H 9 Z"/>
 <path style="opacity:0.2;fill:#8b9cbe" d="M 16.667969 4 C 15.195243 3.9999996 14 5.1952349 14 6.6679688 L 14 7.6679688 C 14 6.1952349 15.195243 4.9999996 16.667969 5 L 59.332031 5 C 60.804757 5.0000004 62 6.1952356 62 7.6679688 L 62 6.6679688 C 62 5.1952355 60.804757 4.0000004 59.332031 4 L 16.667969 4 z"/>
 <rect style="opacity:0.1" width="14" height="1" x="48" y="18"/>
 <rect style="opacity:0.1" width="14" height="1" x="48" y="32"/>
 <rect style="opacity:0.1" width="14" height="1" x="48" y="46"/>
</svg>
