<svg xmlns="http://www.w3.org/2000/svg" width="64" height="64" version="1.1">
 <path style="opacity:0.2;fill-rule:evenodd" d="m 53.598915,34.965373 c -2.02507,0.105819 -2.430623,1.483391 -3.795637,3.053722 -0.91519,1.052848 -2.426813,5.218995 -7.72234,6.649057 -5.235534,1.41386 -11.397787,1.089555 -14.467106,2.98251 -1.504384,0.927807 -2.986816,1.65887 -4.390923,2.25674 -2.053038,1.082429 -4.323413,2.19315 -6.162427,2.544307 -0.545565,0.104179 -1.287165,0.135719 -2.110811,0.120519 -0.410362,0.152598 -0.757217,0.301893 -0.944813,0.460111 -1.171147,0.987754 -3.387616,7.311434 -0.581633,7.93145 2.80598,0.620018 14.892631,-6.932432 26.003498,-6.559331 11.110865,0.373102 18.382633,-5.916484 19.707266,-10.667473 1.32463,-4.75099 1.649907,-7.264001 -2.872669,-8.412821 -1.130644,-0.287204 -1.987383,-0.394051 -2.662405,-0.358781 z"/>
 <path style="fill:#224043;fill-rule:evenodd" d="m 53.598915,33.965401 c -2.02507,0.105819 -2.430623,1.483391 -3.795637,3.053722 -0.91519,1.052847 -2.426813,5.218994 -7.72234,6.649056 -5.235534,1.41386 -11.397787,1.089555 -14.467106,2.982511 -1.504384,0.927807 -2.986816,1.65887 -4.390923,2.25674 -2.053038,1.082429 -4.323413,2.19315 -6.162427,2.544307 -0.545565,0.104179 -1.287165,0.135718 -2.110811,0.120518 -0.410362,0.152599 -0.757217,0.301893 -0.944813,0.460112 -1.171147,0.987754 -3.387616,7.311434 -0.581633,7.93145 2.80598,0.620018 14.892631,-6.932432 26.003498,-6.559332 11.110865,0.373103 18.382633,-5.916483 19.707266,-10.667473 1.32463,-4.750989 1.649907,-7.264 -2.872669,-8.412821 -1.130644,-0.287203 -1.987383,-0.39405 -2.662405,-0.35878 z"/>
 <path style="opacity:0.2;fill-rule:evenodd" d="m 35.820345,6.2817896 c -2.298782,0.0076 -4.694365,0.2574235 -7.160218,0.6562436 -4.016927,0.6496858 -8.191572,1.4727563 -11.812603,4.0155858 -2.536499,1.781229 -5.60102,3.719803 -7.3516271,5.386665 -1.5549608,1.491846 -3.4757728,3.453791 -3.4375301,6.269471 -0.01268,1.328973 0.01156,2.568531 2.0117362,4.609328 0,0 0.5664728,6.430277 0.1757836,7.648363 4.8863934,-1.481605 9.5499774,-1.64321 14.9571604,-2.25779 0,0 3.910354,3.073516 4.796918,5.749944 0.618763,1.867969 -1.159578,6.364819 -3.496125,9.828027 -0.433919,0.746207 -1.073231,1.400784 -1.812515,1.976542 0.175361,-0.08804 0.358975,-0.166978 0.531254,-0.257809 1.404107,-0.59787 2.886281,-1.326077 4.390665,-2.253884 0.767328,-0.473239 1.729197,-0.808512 2.820336,-1.066395 1.09114,-0.257886 2.312259,-0.439326 3.601594,-0.605464 2.57867,-0.332275 5.429179,-0.605556 8.046946,-1.312487 5.295527,-1.430062 6.807534,-5.595523 7.722724,-6.648371 1.347504,-1.550187 1.764193,-2.906443 3.722688,-3.04294 0.0014,-0.0032 0.0026,-0.0086 0.004,-0.0118 C 54.695963,32.259982 59.17427,24.313086 53.215124,15.226932 48.745671,8.4123985 42.716696,6.2589677 35.820345,6.2817896 Z"/>
 <path style="fill:#17598c;fill-rule:evenodd" d="m 35.820345,5.2818093 c -2.298782,0.0076 -4.694365,0.2574235 -7.160218,0.6562436 -4.016927,0.6496858 -8.191572,1.4727563 -11.812603,4.0155854 -2.536499,1.7812297 -5.60102,3.7198037 -7.3516271,5.3866657 -1.5549608,1.491846 -3.4757728,3.453791 -3.4375301,6.269471 -0.01268,1.328972 0.01156,2.56853 2.0117362,4.609328 0,0 0.653438,7.32395 0.105469,7.878828 -0.5479676,0.554881 -1.749929,1.815243 -2.7773679,2.30076 -1.027439,0.485519 -0.4622151,0.60477 -0.8046947,2.546849 -0.34248,1.942081 0.6971491,6.146731 3.7109701,8.019453 3.0138215,1.872719 7.6920315,2.489403 10.3633715,2.003886 0.896208,-0.162878 1.510772,1.129159 2.394553,0.996084 0.726725,-0.345172 1.458333,-0.688549 2.160175,-1.058583 1.404107,-0.59787 2.886281,-1.326077 4.390665,-2.253884 0.767328,-0.47324 1.729197,-0.808512 2.820336,-1.066396 1.09114,-0.257885 2.312259,-0.439325 3.601594,-0.605464 2.57867,-0.332274 5.429179,-0.605556 8.046946,-1.312487 5.295527,-1.430062 6.807534,-5.595523 7.722724,-6.64837 1.347504,-1.550187 1.764193,-2.906444 3.722688,-3.04294 0.0014,-0.0032 0.0026,-0.0086 0.004,-0.0118 C 54.695963,31.260001 59.17427,23.313106 53.215124,14.226952 48.745671,7.412418 42.716696,5.2589874 35.820345,5.2818093 Z"/>
 <path style="opacity:0.1;fill:#8b9cbe;fill-rule:evenodd" d="M 35.820312 5.28125 C 33.52153 5.28885 31.126009 5.5386799 28.660156 5.9375 C 24.643229 6.5871858 20.468687 7.4102959 16.847656 9.953125 C 14.311157 11.734355 11.246701 13.672982 9.4960938 15.339844 C 7.941133 16.83169 6.020351 18.793694 6.0585938 21.609375 C 6.0567885 21.798355 6.0801885 21.988857 6.0898438 22.177734 C 6.2445269 19.596522 8.0237475 17.752428 9.4960938 16.339844 C 11.246701 14.672982 14.311157 12.734355 16.847656 10.953125 C 20.468687 8.4102962 24.643229 7.5871858 28.660156 6.9375 C 31.126009 6.5386799 33.52153 6.28885 35.820312 6.28125 C 42.716663 6.2584281 48.745485 8.4119465 53.214844 15.226562 C 55.35515 18.489975 56.133806 21.600044 56.216797 24.378906 C 56.306119 21.356203 55.61617 17.887963 53.214844 14.226562 C 48.745485 7.4119465 42.716663 5.2584281 35.820312 5.28125 z"/>
 <path style="opacity:0.1;fill-rule:evenodd" d="m 34.167987,5.0084316 c -0.789457,0.020186 -1.584896,0.077643 -2.382833,0.1484365 -0.0026,2.406e-4 -0.009,-2.408e-4 -0.0118,0 -0.23647,0.021074 -0.47001,0.04505 -0.707038,0.070311 -0.0054,5.82e-4 -0.0102,-5.998e-4 -0.0156,0 -0.794551,0.084687 -1.591922,0.1833142 -2.390647,0.3124969 -0.504747,0.093009 -0.958117,0.1965201 -1.421887,0.2968723 -0.107961,0.026732 -0.216168,0.061105 -0.324222,0.089843 -0.309541,0.081291 -0.61833,0.1651264 -0.929695,0.2617163 -3.242816,1.0264216 -6.671335,3.0870534 -9.550807,5.1327614 6.050187,1.929575 18.706757,-2.297886 25.875226,1.179676 6.248477,3.031259 14.221691,9.111143 8.953203,23.679455 0.569227,-0.662785 1.206756,-1.155826 2.335958,-1.214832 0.381343,-0.02 0.841525,0.02 1.35548,0.09766 0.113701,-0.263891 0.23042,-0.532447 0.371097,-0.871085 0.05226,-0.125939 0.113161,-0.289309 0.167962,-0.425778 0.154621,-0.385476 0.310088,-0.80594 0.47266,-1.269518 0.07422,-0.211819 0.145581,-0.448927 0.218752,-0.675775 0.139841,-0.433986 0.275402,-0.894199 0.402347,-1.378892 0.142581,-0.544877 0.284073,-1.097648 0.394534,-1.699202 v -0.004 c 0.004,-0.0214 0.0078,-0.04104 0.0118,-0.0625 0.07262,-0.402448 0.135641,-0.817536 0.187501,-1.242176 0.0104,-0.08512 0.018,-0.175758 0.02734,-0.261715 0.03726,-0.339201 0.06508,-0.683637 0.08594,-1.035148 0.011,-0.182758 0.0176,-0.368828 0.02344,-0.55468 0.0088,-0.277072 0.0148,-0.556329 0.0118,-0.839836 -0.0022,-0.198898 -0.011,-0.403614 -0.0196,-0.605464 -0.0124,-0.291125 -0.036,-0.582109 -0.0625,-0.878898 -0.0176,-0.196358 -0.03444,-0.395104 -0.0586,-0.593744 -0.0379,-0.311433 -0.0892,-0.624866 -0.144541,-0.941396 -0.0331,-0.189459 -0.06184,-0.379205 -0.101561,-0.570307 -0.07416,-0.356556 -0.170921,-0.716465 -0.269532,-1.078115 -0.04358,-0.159899 -0.07638,-0.319691 -0.125001,-0.480463 -0.158222,-0.522815 -0.339695,-1.047695 -0.554693,-1.57811 -0.223162,-0.550552 -0.479132,-1.104192 -0.769539,-1.66014 -0.0015,-0.0028 -0.0026,-0.0049 -0.004,-0.0078 -0.304394,-0.580965 -0.641089,-1.157471 -1.011705,-1.722562 -0.372031,-0.567252 -0.759396,-1.101837 -1.160166,-1.613265 v -0.0039 c -0.367197,-0.467171 -0.750922,-0.907304 -1.140636,-1.328118 h -0.004 c -0.09718,-0.104765 -0.194462,-0.20665 -0.29297,-0.308591 h -0.004 c -0.302659,-0.313625 -0.610444,-0.61494 -0.925603,-0.902335 -0.10162,-0.09263 -0.202069,-0.190914 -0.30469,-0.281247 -0.0044,-0.0039 -0.0072,-0.0078 -0.0118,-0.01172 C 49.948357,9.813605 49.520777,9.469244 49.086006,9.149015 48.653736,8.8306239 48.21181,8.5401438 47.761774,8.2623047 47.640893,8.1877015 47.516702,8.1152682 47.394585,8.0435569 h -0.004 C 47.036668,7.8355123 46.680466,7.6382727 46.316531,7.4537201 h -0.004 C 46.199228,7.3960393 46.087447,7.3372554 45.972778,7.2818468 45.497866,7.0523372 45.017318,6.833196 44.527454,6.6412281 44.041711,6.4508754 43.546083,6.2845322 43.046973,6.1295143 42.906849,6.0860108 42.766198,6.0492213 42.625093,6.0084217 42.538552,5.983396 42.450491,5.9618102 42.363373,5.9381104 42.169411,5.8844909 41.973145,5.8305315 41.77743,5.781862 c -0.0072,-0.00181 -0.0122,-0.0021 -0.0196,-0.0039 C 41.017785,5.5944818 40.266412,5.432593 39.503904,5.3170289 38.728091,5.1994501 37.939248,5.1273368 37.144509,5.0748439 c -0.0026,-1.792e-4 -0.005,1.784e-4 -0.0078,0 -0.186862,-0.0123 -0.374737,-0.02237 -0.562505,-0.03125 -0.01,-4.702e-4 -0.02132,4.632e-4 -0.03126,0 -0.786185,-0.036654 -1.57562,-0.055597 -2.375021,-0.035156 z"/>
 <path style="fill:#b0c4de;fill-rule:evenodd" d="m 34.167987,4.0083843 c -0.789457,0.020186 -1.584896,0.077643 -2.382833,0.1484365 -0.0026,2.406e-4 -0.009,-2.408e-4 -0.0118,0 -0.23647,0.021074 -0.47001,0.04505 -0.707038,0.070311 -0.0054,5.82e-4 -0.0102,-5.998e-4 -0.0156,0 -0.794551,0.084687 -1.591922,0.1833142 -2.390647,0.3124969 -0.504747,0.093009 -0.958117,0.1965201 -1.421887,0.2968723 -0.107961,0.026732 -0.216168,0.061105 -0.324222,0.089843 -0.309483,0.081291 -0.618272,0.1651244 -0.929637,0.2617159 -3.242874,1.0264221 -6.671393,3.0870534 -9.550865,5.1327621 6.050187,1.929574 18.706757,-2.2978865 25.875226,1.179676 6.248477,3.031258 14.221691,9.111142 8.953203,23.679455 0.569227,-0.662786 1.206756,-1.155827 2.335958,-1.214832 0.381343,-0.02 0.841525,0.02 1.35548,0.09766 0.113701,-0.263892 0.23042,-0.532447 0.371097,-0.871086 0.05226,-0.125938 0.113161,-0.289309 0.167962,-0.425777 0.154621,-0.385477 0.310088,-0.80594 0.47266,-1.269518 0.07422,-0.21182 0.145581,-0.448927 0.218752,-0.675775 0.139841,-0.433986 0.275402,-0.894199 0.402347,-1.378893 0.142581,-0.544876 0.284073,-1.097647 0.394534,-1.699201 v -0.004 c 0.004,-0.0214 0.0078,-0.04104 0.0118,-0.0625 0.07262,-0.402448 0.135641,-0.817536 0.187501,-1.242176 0.0104,-0.08512 0.018,-0.175758 0.02734,-0.261715 0.03726,-0.339201 0.06508,-0.683638 0.08594,-1.035148 0.011,-0.182758 0.0176,-0.368829 0.02344,-0.554681 0.0088,-0.277071 0.0148,-0.556328 0.0118,-0.839836 -0.0022,-0.198898 -0.011,-0.403614 -0.0196,-0.605464 -0.0124,-0.291125 -0.036,-0.582108 -0.0625,-0.878897 -0.0176,-0.196358 -0.03444,-0.395104 -0.0586,-0.593744 -0.0379,-0.311433 -0.0892,-0.624866 -0.144541,-0.941397 -0.0331,-0.189458 -0.06184,-0.379204 -0.101561,-0.570306 -0.07424,-0.356467 -0.171001,-0.716375 -0.269604,-1.078025 -0.04358,-0.159894 -0.07638,-0.319692 -0.125001,-0.480464 -0.158226,-0.522814 -0.339695,-1.047694 -0.554693,-1.578109 -0.223162,-0.550553 -0.479132,-1.104192 -0.769539,-1.66014 -0.0015,-0.0028 -0.0026,-0.0049 -0.004,-0.0078 C 54.914537,14.767074 54.577842,14.190568 54.207226,13.625477 53.835195,13.058225 53.44783,12.52364 53.04706,12.012212 v -0.0039 C 52.679863,11.54114 52.296138,11.101008 51.906424,10.680194 h -0.004 c -0.09718,-0.104765 -0.194462,-0.20665 -0.29297,-0.308591 h -0.004 C 51.302795,10.057978 50.99501,9.7566629 50.679851,9.4692681 50.578231,9.376633 50.477782,9.2783536 50.375161,9.1880209 c -0.0044,-0.00388 -0.0072,-0.00784 -0.0118,-0.01172 C 49.948357,8.8135573 49.520777,8.4691963 49.086006,8.1489675 48.653736,7.8305766 48.21181,7.5400965 47.761774,7.2622574 47.640893,7.1876542 47.516702,7.1152209 47.394585,7.0435096 h -0.004 C 47.036668,6.835465 46.680466,6.6382254 46.316531,6.4536728 h -0.004 C 46.199228,6.395992 46.087447,6.3372081 45.972778,6.2817995 45.497866,6.0522899 45.017318,5.8331487 44.527454,5.6411808 44.041711,5.4508281 43.546083,5.2844849 43.046973,5.129467 42.906849,5.0859635 42.766198,5.049174 42.625093,5.0083744 42.538552,4.9833487 42.450495,4.9617625 42.363373,4.9380627 42.169411,4.8844433 41.973145,4.8304838 41.77743,4.7818143 c -0.0072,-0.00181 -0.0122,-0.0021 -0.0196,-0.0039 C 41.017786,4.5944341 40.266413,4.4325453 39.503905,4.3169812 38.728092,4.1994024 37.939249,4.1272891 37.14451,4.0747962 c -0.0026,-1.792e-4 -0.005,1.784e-4 -0.0078,0 -0.186862,-0.0123 -0.374737,-0.02237 -0.562505,-0.03125 -0.01,-4.702e-4 -0.02132,4.632e-4 -0.03126,0 -0.786185,-0.036654 -1.57562,-0.055597 -2.375021,-0.035156 z"/>
 <path style="fill:none" d="M 4.0000004,35.2667 9.0002038,35.544141 25.918699,34.087584 34.206707,35.68286 39.001421,24.099748 31.809348,21.394711 6.9453256,24.377185"/>
 <path style="fill:#87cefa;fill-rule:evenodd" d="m 8.0693276,26.219251 c 0,0 5.8200364,-2.05478 11.3780194,-2.133773 2.512063,-0.0357 3.835083,0.163419 5.928309,0.395942 3.737777,0.530959 3.221482,2.345751 0.560579,4.152215 -3.693154,2.463088 -2.958186,3.375101 -8.644931,4.08231 L 7.99979,33.917181 Z"/>
 <path style="opacity:0.2;fill-rule:evenodd" d="M 17.461941,52.451055 C 14.936431,52.933302 10.052931,52.1066 7.2036367,50.246517 4.3543427,48.386435 3.8362892,41.841703 4.1600728,39.912728 4.4838561,37.983755 4.4838561,36.32636 5.4552064,35.844116 11.40307,33.408608 16.777587,33.341843 23.203401,32.611484 c 0,0 3.910522,3.073628 4.797086,5.750056 0.618763,1.867971 -1.158276,6.361485 -3.494823,9.824693 -1.323613,2.276199 -4.451393,3.81903 -7.043723,4.264822 z"/>
 <path style="fill:#755959;fill-rule:evenodd" d="M 17.461941,51.450909 C 14.936431,51.933156 10.052931,51.106454 7.2036367,49.24637 4.3543427,47.386289 3.8362892,40.841557 4.1600728,38.912582 4.4838561,36.983609 4.4838561,35.326213 5.4552064,34.84397 11.40307,32.408462 16.777587,32.341697 23.203401,31.611338 c 0,0 3.910522,3.073628 4.797086,5.750055 0.618763,1.867972 -1.158276,6.361486 -3.494823,9.824694 -1.323613,2.276199 -4.451393,3.81903 -7.043723,4.264822 z"/>
 <ellipse style="opacity:0.3" cx="24" cy="38" rx="2" ry="2"/>
 <path style="opacity:0.2;fill:#8b9cbe;fill-rule:evenodd" d="M 34.167969 4.0078125 C 33.378512 4.0279985 32.583093 4.0854565 31.785156 4.15625 C 31.782556 4.1564906 31.776238 4.1560092 31.773438 4.15625 C 31.536967 4.177324 31.303434 4.2013015 31.066406 4.2265625 C 31.061006 4.2271447 31.056181 4.2259629 31.050781 4.2265625 C 30.25623 4.3112495 29.458881 4.4098798 28.660156 4.5390625 C 28.155409 4.6320715 27.702051 4.7355853 27.238281 4.8359375 C 27.13032 4.8626695 27.022117 4.8970433 26.914062 4.9257812 C 26.604579 5.0070723 26.29574 5.0909085 25.984375 5.1875 C 22.741499 6.2139221 19.313066 8.2746038 16.433594 10.320312 C 16.77448 10.429031 17.138781 10.515765 17.521484 10.585938 C 20.160184 8.7977742 23.133432 7.0898689 25.984375 6.1875 C 26.29574 6.0909085 26.604579 6.0070723 26.914062 5.9257812 C 27.022117 5.8970433 27.13032 5.8626695 27.238281 5.8359375 C 27.702051 5.7355853 28.155409 5.6320715 28.660156 5.5390625 C 29.458881 5.4098798 30.25623 5.3112495 31.050781 5.2265625 C 31.056181 5.2259629 31.061006 5.2271447 31.066406 5.2265625 C 31.303434 5.2013015 31.536967 5.177324 31.773438 5.15625 C 31.776238 5.1560092 31.782556 5.1564906 31.785156 5.15625 C 32.583093 5.0854565 33.378512 5.0279985 34.167969 5.0078125 C 34.96737 4.9873715 35.756784 5.0063147 36.542969 5.0429688 C 36.552909 5.043432 36.564219 5.0424986 36.574219 5.0429688 C 36.761987 5.0518487 36.949857 5.0619188 37.136719 5.0742188 C 37.139519 5.0743972 37.141931 5.0740396 37.144531 5.0742188 C 37.93927 5.1267116 38.728093 5.1988274 39.503906 5.3164062 C 40.266414 5.4319703 41.017768 5.5938636 41.757812 5.7773438 C 41.765212 5.7791437 41.770144 5.77944 41.777344 5.78125 C 41.973059 5.8299195 42.169319 5.8838806 42.363281 5.9375 C 42.450403 5.9611998 42.538459 5.982787 42.625 6.0078125 C 42.766105 6.0486123 42.906751 6.0854028 43.046875 6.1289062 C 43.545985 6.2839241 44.041601 6.4502723 44.527344 6.640625 C 45.017208 6.8325929 45.497744 7.0517404 45.972656 7.28125 C 46.087325 7.3366586 46.199197 7.3954442 46.3125 7.453125 L 46.316406 7.453125 C 46.680341 7.6376776 47.036708 7.8349241 47.390625 8.0429688 L 47.394531 8.0429688 C 47.516648 8.11468 47.640838 8.1871155 47.761719 8.2617188 C 48.211755 8.5395579 48.653668 8.8300466 49.085938 9.1484375 C 49.520709 9.4686663 49.948277 9.8130375 50.363281 10.175781 C 50.367881 10.179701 50.3706 10.1836 50.375 10.1875 C 50.477621 10.277833 50.578068 10.37612 50.679688 10.46875 C 50.994846 10.756145 51.30281 11.057469 51.605469 11.371094 L 51.609375 11.371094 C 51.707883 11.473035 51.805164 11.574922 51.902344 11.679688 L 51.90625 11.679688 C 52.295964 12.100502 52.679678 12.540641 53.046875 13.007812 L 53.046875 13.011719 C 53.447645 13.523147 53.835 14.057748 54.207031 14.625 C 54.577647 15.190091 54.914429 15.766621 55.21875 16.347656 C 55.22015 16.350556 55.221156 16.352669 55.222656 16.355469 C 55.513063 16.911417 55.769025 17.465072 55.992188 18.015625 C 56.207186 18.54604 56.388649 19.070936 56.546875 19.59375 C 56.595496 19.754522 56.628295 19.914325 56.671875 20.074219 C 56.770476 20.435869 56.866506 20.795792 56.941406 21.152344 C 56.981127 21.343446 57.009869 21.533198 57.042969 21.722656 C 57.09831 22.039187 57.1496 22.352629 57.1875 22.664062 C 57.21166 22.862702 57.230447 23.061454 57.248047 23.257812 C 57.274547 23.554601 57.298147 23.845594 57.310547 24.136719 C 57.314375 24.226565 57.315052 24.316034 57.318359 24.40625 C 57.324176 24.186371 57.33245 23.966362 57.330078 23.742188 C 57.327878 23.54329 57.319147 23.338569 57.310547 23.136719 C 57.298147 22.845594 57.274547 22.554602 57.248047 22.257812 C 57.230447 22.061454 57.21166 21.862703 57.1875 21.664062 C 57.1496 21.352629 57.09831 21.039187 57.042969 20.722656 C 57.009869 20.533198 56.981127 20.343446 56.941406 20.152344 C 56.866506 19.795792 56.770476 19.435869 56.671875 19.074219 C 56.628295 18.914325 56.595496 18.754522 56.546875 18.59375 C 56.388649 18.070936 56.207186 17.54604 55.992188 17.015625 C 55.769025 16.465072 55.513063 15.911417 55.222656 15.355469 C 55.221156 15.352669 55.22015 15.350556 55.21875 15.347656 C 54.914429 14.766621 54.577647 14.190091 54.207031 13.625 C 53.835 13.057748 53.447645 12.523147 53.046875 12.011719 L 53.046875 12.007812 C 52.679678 11.540641 52.295964 11.100502 51.90625 10.679688 L 51.902344 10.679688 C 51.805164 10.574922 51.707883 10.473035 51.609375 10.371094 L 51.605469 10.371094 C 51.30281 10.057469 50.994846 9.7561448 50.679688 9.46875 C 50.578068 9.3761149 50.477621 9.2778327 50.375 9.1875 C 50.3706 9.18362 50.367881 9.1796613 50.363281 9.1757812 C 49.948277 8.8130377 49.520709 8.4686663 49.085938 8.1484375 C 48.653668 7.8300466 48.211755 7.5395579 47.761719 7.2617188 C 47.640838 7.1871155 47.516648 7.11468 47.394531 7.0429688 L 47.390625 7.0429688 C 47.036708 6.8349241 46.680341 6.6376776 46.316406 6.453125 L 46.3125 6.453125 C 46.199197 6.3954442 46.087325 6.3366586 45.972656 6.28125 C 45.497744 6.0517404 45.017208 5.8325929 44.527344 5.640625 C 44.041601 5.4502723 43.545985 5.2839241 43.046875 5.1289062 C 42.906751 5.0854028 42.766105 5.0486123 42.625 5.0078125 C 42.538459 4.982787 42.450403 4.9611998 42.363281 4.9375 C 42.169319 4.8838806 41.973059 4.8299195 41.777344 4.78125 C 41.770144 4.77944 41.765212 4.7791437 41.757812 4.7773438 C 41.017768 4.5938636 40.266414 4.4319704 39.503906 4.3164062 C 38.728093 4.1988275 37.93927 4.1267116 37.144531 4.0742188 C 37.141931 4.0740396 37.139519 4.0743972 37.136719 4.0742188 C 36.949857 4.0619188 36.761987 4.0518487 36.574219 4.0429688 C 36.564219 4.0424986 36.552909 4.043432 36.542969 4.0429688 C 35.756784 4.0063147 34.96737 3.9873715 34.167969 4.0078125 z M 52.933594 27.441406 C 52.818013 29.715954 52.313194 32.272172 51.261719 35.179688 C 51.41187 35.004858 51.57303 34.850602 51.742188 34.707031 C 52.457391 32.404913 52.838132 30.320025 52.933594 28.441406 C 52.947872 28.686079 52.941135 28.947002 52.945312 29.199219 C 52.967582 28.594398 52.96651 28.005487 52.933594 27.441406 z"/>
 <path style="opacity:0.1;fill-rule:evenodd" d="M 19.449219 24.085938 C 13.891236 24.164938 8.0703125 26.21875 8.0703125 26.21875 L 8 33.917969 L 8.0097656 33.916016 L 8.0703125 27.21875 C 8.0703125 27.21875 13.891236 25.164938 19.449219 25.085938 C 21.961282 25.050237 23.281774 25.247946 25.375 25.480469 C 26.833931 25.687713 27.625251 26.09484 27.910156 26.617188 C 28.337119 25.621683 27.669896 24.806463 25.375 24.480469 C 23.281774 24.247946 21.961282 24.050237 19.449219 24.085938 z"/>
</svg>
