<svg xmlns="http://www.w3.org/2000/svg" width="64" height="64" version="1.1">
 <path style="opacity:0.2" d="m 44.627746,60.92748 c -3.846803,-0.600416 -7.256293,-2.728062 -9.311885,-5.810954 -0.878873,-1.3181 -0.625903,-1.265036 -2.274575,-0.477126 -1.664003,0.795236 -3.33963,1.358263 -5.057047,1.699215 -1.677996,0.333126 -4.564697,0.411877 -6.350811,0.173256 C 12.714483,55.320315 5.8040163,48.651607 4.2106052,39.698572 3.92865,38.114324 3.9300603,34.64069 4.2132879,33.080904 5.7435499,24.653625 11.991653,18.214078 20.264712,16.53766 c 0.692567,-0.140339 1.297909,-0.318415 1.345206,-0.395724 0.04729,-0.07731 0.301568,-0.522958 0.565052,-0.99033 0.746414,-1.324002 1.658394,-2.529517 2.880532,-3.807677 1.860621,-1.9459096 3.501213,-3.1578765 5.775647,-4.2666899 4.883039,-2.3805377 10.203315,-2.7220672 15.391565,-0.9880445 2.960007,0.9892972 5.567696,2.6120848 7.827707,4.8712514 1.676099,1.675475 2.766621,3.19053 3.844778,5.341533 3.209105,6.4024 2.719302,14.177512 -1.268696,20.139213 -0.42644,0.63749 -0.775345,1.192656 -0.775345,1.233705 0,0.04105 0.289013,0.389923 0.642251,0.775277 1.160512,1.26602 2.24578,3.101848 2.804599,4.74423 0.507288,1.49093 0.654306,2.463913 0.654306,4.330263 0,1.278529 -0.05328,1.996424 -0.197372,2.659348 -0.596312,2.743468 -1.775038,4.912736 -3.732941,6.869908 -1.949809,1.94908 -4.137407,3.138124 -6.850145,3.723318 -0.96962,0.209168 -3.60774,0.29639 -4.544116,0.150239 z"/>
 <path style="fill:#41afd7" d="m 44.627746,59.927481 c -3.846803,-0.600416 -7.256293,-2.728062 -9.311885,-5.810954 -0.878873,-1.3181 -0.625903,-1.265036 -2.274575,-0.477126 -1.664003,0.795236 -3.33963,1.358263 -5.057047,1.699215 -1.677996,0.333126 -4.564697,0.411877 -6.350811,0.173256 C 12.714483,54.320316 5.8040163,47.651608 4.2106052,38.698573 3.92865,37.114325 3.9300603,33.640691 4.2132879,32.080905 5.7435499,23.653626 11.991653,17.214079 20.264712,15.537661 c 0.692567,-0.140339 1.297909,-0.318415 1.345206,-0.395724 0.04729,-0.07731 0.301568,-0.522958 0.565052,-0.99033 0.746414,-1.324002 1.658394,-2.529517 2.880532,-3.807677 1.860621,-1.9459094 3.501213,-3.1578763 5.775647,-4.2666897 4.883039,-2.3805377 10.203315,-2.7220672 15.391565,-0.9880445 2.960007,0.9892972 5.567696,2.6120848 7.827707,4.8712517 1.676099,1.6754745 2.766621,3.1905295 3.844778,5.3415325 3.209105,6.4024 2.719302,14.177512 -1.268696,20.139213 -0.42644,0.63749 -0.775345,1.192656 -0.775345,1.233705 0,0.04105 0.289013,0.389923 0.642251,0.775277 1.160512,1.26602 2.24578,3.101848 2.804599,4.74423 0.507288,1.49093 0.654306,2.463913 0.654306,4.330263 0,1.278529 -0.05328,1.996424 -0.197372,2.659348 -0.596312,2.743468 -1.775038,4.912736 -3.732941,6.869908 -1.949809,1.94908 -4.137407,3.138124 -6.850145,3.723318 -0.96962,0.209168 -3.60774,0.29639 -4.544116,0.150239 z"/>
 <path style="opacity:0.2" d="M 40.265625,7.9999988 C 29.049125,8.7807121 26.579721,14.498081 22.849609,19.01953 14.354708,20.399537 7.3970791,27.157968 7,35.294921 c 0.9582999,6.187134 6.552046,10.849679 12.511719,12.177734 5.19527,1.188488 10.837608,0.231693 15.443359,-2.425781 0,0 2.516777,3.155958 4.806641,4.884766 4.941789,3.64224 12.975117,2.375498 16.085937,-3.023438 1.412898,-1.769264 0.335412,-3.992224 -0.851562,-5.554687 C 54.056386,40.093633 52.86888,39.049447 51.75,37.951171 54.455981,34.549897 56.813487,30.623831 56.964844,26.18164 57.348567,20.38861 54.487763,14.590121 49.722656,11.216796 46.985897,9.2490692 43.639035,8.1516616 40.265625,7.9999988 Z m -4.947266,7.0058592 c 0.413026,-0.03559 0.838228,0.10677 1.181641,0.494141 0.862729,0.917939 -0.09924,1.96163 -0.378906,2.902344 -0.882558,2.194146 -1.938107,4.327206 -2.712891,6.558594 0.779844,0.147055 2.178294,-0.730721 3.169922,-0.951172 2.643964,-0.934229 5.268789,-1.92508 7.939453,-2.78711 1.244418,0.02835 1.920696,1.38014 1.167969,2.324219 -1.881781,3.748997 -4.168695,7.30337 -6.005859,11.072266 l 2.654296,1.628906 -8.021484,4.751953 -0.330078,-9.152344 2.916016,1.28125 c 1.277264,-2.010256 2.385937,-4.14355 3.570312,-6.214844 0.217278,-0.492509 1.277025,-1.779914 0.0332,-1.21289 -3.298985,1.072775 -6.499454,2.422167 -9.835937,3.386719 -1.025434,0.208361 -2.058567,-0.946974 -1.517578,-1.865235 1.500648,-3.643799 3.024642,-7.281893 4.68164,-10.863281 0.151758,-0.740711 0.799901,-1.294206 1.488281,-1.353516 z"/>
 <path style="fill:#8b9cbe" d="M 40.265625 7 C 29.049125 7.7807133 26.579721 13.498082 22.849609 18.019531 C 14.354708 19.399538 7.3970791 26.157969 7 34.294922 C 7.9582999 40.482056 13.552046 45.144601 19.511719 46.472656 C 24.706989 47.661144 30.349327 46.704349 34.955078 44.046875 C 34.955078 44.046875 37.471855 47.202833 39.761719 48.931641 C 44.703508 52.573881 52.736836 51.307139 55.847656 45.908203 C 57.260554 44.138939 56.183068 41.915979 54.996094 40.353516 C 54.056386 39.093634 52.86888 38.049448 51.75 36.951172 C 54.455981 33.549898 56.813487 29.623832 56.964844 25.181641 C 57.348567 19.388611 54.487763 13.590122 49.722656 10.216797 C 46.985897 8.2490704 43.639035 7.1516628 40.265625 7 z M 35.318359 14.005859 C 35.731385 13.970269 36.156587 14.112629 36.5 14.5 C 37.362729 15.417939 36.400757 16.46163 36.121094 17.402344 C 35.238536 19.59649 34.182987 21.72955 33.408203 23.960938 C 34.188047 24.107993 35.586497 23.230217 36.578125 23.009766 C 39.222089 22.075537 41.846914 21.084686 44.517578 20.222656 C 45.761996 20.251006 46.438274 21.602796 45.685547 22.546875 C 43.803766 26.295872 41.516852 29.850245 39.679688 33.619141 L 42.333984 35.248047 L 34.3125 40 L 33.982422 30.847656 L 36.898438 32.128906 C 38.175702 30.11865 39.284375 27.985356 40.46875 25.914062 C 40.686028 25.421553 41.745775 24.134148 40.501953 24.701172 C 37.202968 25.773947 34.002499 27.123339 30.666016 28.087891 C 29.640582 28.296252 28.607449 27.140917 29.148438 26.222656 C 30.649086 22.578857 32.17308 18.940763 33.830078 15.359375 C 33.981836 14.618664 34.629979 14.065169 35.318359 14.005859 z"/>
 <path style="fill:#8b9cbe;opacity:0.2" d="M 40.359375 4.0117188 C 37.104864 3.8976578 33.883931 4.5902889 30.832031 6.078125 C 28.557597 7.1869384 26.915308 8.3978406 25.054688 10.34375 C 23.832549 11.62191 22.922195 12.828342 22.175781 14.152344 C 21.912297 14.619716 21.656665 15.065268 21.609375 15.142578 C 21.562078 15.219887 20.958192 15.39677 20.265625 15.537109 C 11.992566 17.213527 5.7431526 23.652799 4.2128906 32.080078 C 4.0515946 32.968365 3.9938361 34.463386 4.015625 35.890625 C 4.032456 34.80627 4.0902454 33.755508 4.2128906 33.080078 C 5.7431526 24.652799 11.992566 18.213527 20.265625 16.537109 C 20.958192 16.39677 21.562078 16.219887 21.609375 16.142578 C 21.656665 16.065268 21.912297 15.619716 22.175781 15.152344 C 22.922195 13.828342 23.832549 12.62191 25.054688 11.34375 C 26.915308 9.3978404 28.557597 8.1869384 30.832031 7.078125 C 35.71507 4.6975873 41.034406 4.355821 46.222656 6.0898438 C 49.182663 7.079141 51.79077 8.7017709 54.050781 10.960938 C 55.72688 12.636413 56.816374 14.151731 57.894531 16.302734 C 59.225584 18.958283 59.911701 21.849487 59.984375 24.75 C 60.062612 21.5171 59.378619 18.263599 57.894531 15.302734 C 56.816374 13.151731 55.72688 11.636412 54.050781 9.9609375 C 51.79077 7.7017706 49.182663 6.079141 46.222656 5.0898438 C 44.277062 4.4395852 42.312081 4.0801553 40.359375 4.0117188 z M 56.208984 37.105469 C 56.086932 37.301126 55.851562 37.656828 55.851562 37.675781 C 55.851562 37.716831 56.140903 38.063865 56.494141 38.449219 C 57.654653 39.715239 58.740009 41.552931 59.298828 43.195312 C 59.751876 44.526829 59.909198 45.477691 59.939453 46.988281 C 59.94192 46.821673 59.953125 46.715014 59.953125 46.525391 C 59.953125 44.659041 59.806116 43.686242 59.298828 42.195312 C 58.740009 40.55293 57.654653 38.715239 56.494141 37.449219 C 56.337243 37.278057 56.320842 37.238459 56.208984 37.105469 z"/>
</svg>
