<svg width="64" height="64" version="1.1" xmlns="http://www.w3.org/2000/svg">
 <path d="m60 9v44c0 4-4 4-4 4h-52zm-10 21.742-18.964 16.258h18.964z" style="opacity:.2"/>
 <path d="m60 8v44c0 4-4 4-4 4h-52zm-10 21.742-18.964 16.258h18.964z" style="fill:#f69a0d"/>
 <path d="m60 8-56 48h1.1660156l54.833984-47v-1zm-27.798828 38-1.166016 1h18.964844v-1h-17.798828z" style="fill:#8b9cbe;opacity:.2"/>
 <path d="m23.969763 8.0002653c-0.613326 0.013533-1.146431 0.4246888-1.315275 1.0144558l-5.60013 19.600045c-0.212539 0.742952 0.217033 1.517619 0.959791 1.730864l19.60046 5.600013c0.742969 0.212534 1.517651-0.217021 1.730902-0.959769l5.600132-19.600044c0.212537-0.742952-0.217025-1.517618-0.959789-1.730866l-19.600463-5.6000112c-0.134963-0.03898-0.275135-0.057423-0.415628-0.054687z" style="opacity:.2"/>
 <path d="m23.969763 7.0002653c-0.613326 0.013533-1.146431 0.4246888-1.315275 1.0144558l-5.60013 19.600045c-0.212539 0.742952 0.217033 1.517619 0.959791 1.730864l19.60046 5.600013c0.742969 0.212534 1.517651-0.217021 1.730902-0.959769l5.600132-19.600044c0.212537-0.742952-0.217025-1.517618-0.959789-1.730866l-19.600463-5.6000112c-0.134963-0.03898-0.275135-0.057423-0.415628-0.054687z" style="fill:#d7e50b"/>
 <path d="m23.970703 7c-0.613326 0.013533-1.147562 0.425858-1.316406 1.015625l-5.599609 19.599609c-0.085412 0.298566-0.063527 0.600779 0.037109 0.871094l5.5625-19.470703c0.168844-0.589767 0.70308-1.002092 1.316406-1.015625 0.140493-0.0027355 0.2791 0.0157075 0.414063 0.0546875l19.601562 5.5996095c0.444274 0.127551 0.77209 0.458989 0.921875 0.861328l0.037109-0.128906c0.212538-0.742952-0.21622-1.519174-0.958984-1.732422l-19.601562-5.5996095c-0.134963-0.03898-0.27357-0.057423-0.414063-0.0546875z" style="fill:#8b9cbe;opacity:.2"/>
</svg>
