<svg xmlns="http://www.w3.org/2000/svg" width="64" height="64" version="1">
 <path style="opacity:0.2" d="m 4,56 0,2 c 0,1.662 1.338,3 3,3 l 50,0 c 1.662,0 3,-1.338 3,-3 l 0,-2 c 0,1.662 -1.338,3 -3,3 L 7,59 C 5.338,59 4,57.662 4,56 Z"/>
 <rect style="fill:#ffad29" width="56" height="56" x="4" y="4" rx="3" ry="3"/>
 <path style="opacity:0.1;fill:#8b9cbe" d="M 7 4 C 5.338 4 4 5.338 4 7 L 4 8 C 4 6.338 5.338 5 7 5 L 57 5 C 58.662 5 60 6.338 60 8 L 60 7 C 60 5.338 58.662 4 57 4 L 7 4 z"/>
 <path style="opacity:0.2" d="m 26.51778,11.36086 c -0.3282,0.28948 -0.41024,0.72368 -0.41024,1.23026 0,0.9408 0.32818,2.0986 0.49228,2.5328 0,0 0.64611,4.86565 0.72815,5.44465 -0.73844,0.07236 -1.65093,0.14474 -2.14313,0.28946 l -0.65638,0 c -1.39482,0.07238 -2.7076,0.14474 -3.282,0.65132 l -0.24614,0.2171 0.24614,0.28948 c 0.41024,0.4342 0.57434,1.66448 0.73844,2.9672 0.41024,2.6776 0.9025,6.20675 3.364,7.50935 l 0.49228,0.2171 0,-0.50658 c 0,0 0.0822,-0.2171 0.0822,-0.50658 0,-0.2171 -0.0822,-0.57896 -0.164,-1.08552 0.65638,0.07236 1.65093,0.2171 2.14313,0.2171 C 27.98449,31.40694 30.51798,55 30.51798,55 l 0.82048,0 c 0,0 1.20254,-23.302 1.20254,-24.026 0.57432,0 2.8178,0.07236 3.5562,0.14474 -0.164,0.43422 -0.82046,2.2434 -0.82046,2.2434 l 1.14866,-0.9408 c 0.3282,-0.2171 7.4664,-6.13435 6.4818,-9.89755 -0.3282,-1.23026 -1.47686,-2.0986 -3.364,-2.5328 l -0.1644,0 c -1.06662,0 -4.0486,0.07236 -6.51,0.2171 0.0822,-1.88158 0.0822,-2.69465 0.0822,-3.20125 l 0,-0.6513 c 0,-0.36184 0.11024,-0.86842 0.43844,-1.23026 0.3282,-0.4342 0.73844,-0.79606 0.73844,-1.23026 0,-0.14474 -0.0822,-0.28948 -0.164,-0.4342 -0.49228,-0.65132 -4.90262,-2.3158 -6.46142,-2.4606 -0.49228,0.07236 -0.82048,0.14474 -0.98458,0.36184 z m 0.48215,11.66825 0.41024,0 c 0,0.65132 0.24614,5.41075 0.32818,6.06195 -0.65638,-0.07238 -1.81493,-0.2171 -2.30733,-0.2171 -0.24614,-0.9408 -0.3282,-1.95396 -0.41024,-2.9672 -0.082,-0.86842 -0.164,-1.93699 -0.3282,-2.73295 0.73844,0 2.30733,-0.14474 2.30733,-0.14474 z m 5.70527,2.44355 c 0,0 0.082,-1.93699 0.082,-2.51595 1.0666,0.14474 2.1614,0.2171 3.4742,0.2171 l 1.47686,0 c 0,0.28948 -0.0822,0.65132 -0.0822,0.65132 -0.164,1.5921 -0.41024,3.67375 -1.14868,5.55535 -0.49226,0 -3.228,-0.14474 -3.8844,-0.2171 0,-0.50658 0.0822,-3.6908 0.0822,-3.6908 z"/>
 <path style="fill:#8b9cbe" d="m 26.51778,10.3618 c -0.3282,0.28948 -0.41024,0.72368 -0.41024,1.23026 0,0.9408 0.32818,2.0986 0.49228,2.5328 0,0 0.64611,4.86565 0.72815,5.44465 -0.73844,0.07236 -1.65093,0.14474 -2.14313,0.28946 l -0.65638,0 c -1.39482,0.07238 -2.7076,0.14474 -3.282,0.65132 l -0.24614,0.2171 0.24614,0.28948 c 0.41024,0.4342 0.57434,1.66448 0.73844,2.9672 0.41024,2.6776 0.9025,6.20675 3.364,7.50935 l 0.49228,0.2171 0,-0.50658 c 0,0 0.0822,-0.2171 0.0822,-0.50658 0,-0.2171 -0.0822,-0.57896 -0.164,-1.08552 0.65638,0.07236 1.65093,0.2171 2.14313,0.2171 0.08198,0.57894 2.61547,24.172 2.61547,24.172 l 0.82048,0 c 0,0 1.20254,-23.302 1.20254,-24.026 0.57432,0 2.8178,0.07236 3.5562,0.14474 -0.164,0.43422 -0.82046,2.2434 -0.82046,2.2434 l 1.14866,-0.9408 c 0.3282,-0.2171 7.4664,-6.13435 6.4818,-9.89755 -0.3282,-1.23026 -1.47686,-2.0986 -3.364,-2.5328 l -0.1644,0 c -1.06662,0 -4.0486,0.07236 -6.51,0.2171 0.0822,-1.88158 0.0822,-2.69465 0.0822,-3.20125 l 0,-0.6513 c 0,-0.36184 0.11024,-0.86842 0.43844,-1.23026 0.3282,-0.4342 0.73844,-0.79606 0.73844,-1.23026 0,-0.14474 -0.0822,-0.28948 -0.164,-0.4342 -0.49228,-0.65132 -4.90262,-2.3158 -6.46142,-2.4606 -0.49228,0.07236 -0.82048,0.14474 -0.98458,0.36184 z m 0.48215,11.66825 0.41024,0 c 0,0.65132 0.24614,5.41075 0.32818,6.06195 -0.65638,-0.07238 -1.81493,-0.2171 -2.30733,-0.2171 -0.24614,-0.9408 -0.3282,-1.95396 -0.41024,-2.9672 -0.082,-0.86842 -0.164,-1.93699 -0.3282,-2.73295 0.73844,0 2.30733,-0.14474 2.30733,-0.14474 z m 5.70527,2.44355 c 0,0 0.082,-1.93699 0.082,-2.51595 1.0666,0.14474 2.1614,0.2171 3.4742,0.2171 l 1.47686,0 c 0,0.28948 -0.0822,0.65132 -0.0822,0.65132 -0.164,1.5921 -0.41024,3.67375 -1.14868,5.55535 -0.49226,0 -3.228,-0.14474 -3.8844,-0.2171 0,-0.50658 0.0822,-3.6908 0.0822,-3.6908 z"/>
</svg>
