<svg xmlns="http://www.w3.org/2000/svg" width="64" height="64" version="1.1">
 <circle style="opacity:0.2" cx="45.5" cy="10.5" r="5.5"/>
 <path style="opacity:0.2" d="m 40.512095,18.178245 c -0.995877,0.05521 -1.887134,0.636192 -2.339557,1.525085 L 30.85447,35.605555 22.25332,45.436612 11.11036,44.098677 c -3.7097618,-0.411791 -4.3274483,5.152854 -0.617686,5.564646 l 12.594249,1.49919 c 0.910706,0.100964 1.813162,-0.250223 2.416084,-0.940196 l 9.795527,-11.194888 c 0.152639,-0.174507 0.283006,-0.367303 0.388104,-0.573956 l 5.261041,-11.029059 3.18956,7.021403 c 0.809341,1.777654 3.144539,2.200698 4.526057,0.819937 l 8.396166,-8.396166 c 2.747449,-2.637818 -1.319749,-6.705016 -3.957567,-3.957566 l -5.540049,5.540047 -4.34669,-8.636681 c -0.477318,-1.050813 -1.550682,-1.70091 -2.703061,-1.637143 z"/>
 <path style="fill:#548536" d="m 40.512095,17.178245 c -0.995877,0.05521 -1.887134,0.636192 -2.339557,1.525085 L 30.85447,34.605555 22.25332,44.436612 11.11036,43.098677 c -3.7097618,-0.411791 -4.3274483,5.152854 -0.617686,5.564646 l 12.594249,1.49919 c 0.910706,0.100964 1.813162,-0.250223 2.416084,-0.940196 l 9.795527,-11.194888 c 0.152639,-0.174507 0.283006,-0.367303 0.388104,-0.573956 l 5.261041,-11.029059 3.18956,7.021403 c 0.809341,1.777654 3.144539,2.200698 4.526057,0.819937 l 8.396166,-8.396166 c 2.747449,-2.637818 -1.319749,-6.705016 -3.957567,-3.957566 l -5.540049,5.540047 -4.34669,-8.636681 c -0.477318,-1.050813 -1.550682,-1.70091 -2.703061,-1.637143 z"/>
 <path style="opacity:0.1;fill:#8b9cbe" d="M 40.511719 17.177734 C 39.515842 17.232944 38.624298 17.814232 38.171875 18.703125 L 30.853516 34.605469 L 22.253906 44.4375 L 11.111328 43.099609 C 8.8828745 42.852247 7.7799679 44.758742 8.0507812 46.412109 C 8.2684029 45.084876 9.3287025 43.901734 11.111328 44.099609 L 22.253906 45.4375 L 30.853516 35.605469 L 38.171875 19.703125 C 38.624298 18.814232 39.515842 18.232944 40.511719 18.177734 C 41.664098 18.113967 42.737526 18.76364 43.214844 19.814453 L 47.5625 28.451172 L 53.101562 22.912109 C 54.964253 20.972002 57.528732 22.431554 57.914062 24.384766 C 58.407632 22.008331 55.273957 19.649426 53.101562 21.912109 L 47.5625 27.451172 L 43.214844 18.814453 C 42.737526 17.76364 41.664098 17.113967 40.511719 17.177734 z"/>
 <circle style="fill:#75b74a" cx="45.5" cy="9.5" r="5.5"/>
 <path style="opacity:0.2" d="m 34.731713,16.095278 c -0.242261,-0.0029 -0.483885,0.0255 -0.718812,0.08473 l -10.895447,2.798723 c -1.245807,0.311075 -2.120161,1.429933 -2.120907,2.713991 V 34.287 c -0.05353,3.784775 5.056979,3.784775 5.003453,0 V 23.978832 l 6.088779,-1.451289 0.185854,3.307083 c -0.695809,2.064192 -1.354502,4.119279 -1.858528,6.144069 -1.523589,5.316924 0.148562,8.515421 3.378147,9.306298 0.125298,0.134423 0.263536,0.256178 0.412702,0.363505 l 8.029927,5.764165 5.2886,11.900035 c 1.515974,3.410941 6.632387,1.136979 5.116414,-2.273962 L 47.04445,44.444487 C 46.84216,43.989875 46.522336,43.597406 46.117921,43.307506 L 39.716937,38.71312 c 1.325395,-2.258776 1.870779,-5.506291 2.642934,-8.221246 0.599556,-2.107729 1.20256,-4.21642 1.806596,-6.324455 0.547451,-1.732453 0.395137,-3.166632 0.0066,-4.149592 -0.866475,-2.065135 -2.061399,-2.273476 -4.020133,-2.728182 l -4.650483,-1.079576 c -8.52e-4,0.0028 -0.0018,0.0055 -0.0028,0.0083 -0.24894,-0.07659 -0.507437,-0.117993 -0.767917,-0.123047 z"/>
 <path style="fill:#75b74a" d="m 34.731713,15.095278 c -0.242261,-0.0029 -0.483885,0.0255 -0.718812,0.08473 l -10.895447,2.798723 c -1.245807,0.311075 -2.120161,1.429933 -2.120907,2.713991 V 33.287 c -0.05353,3.784775 5.056979,3.784775 5.003453,0 V 22.978832 l 6.088779,-1.451289 0.185854,3.307083 c -0.695809,2.064192 -1.354502,4.119279 -1.858528,6.144069 -1.523589,5.316924 0.148562,8.515421 3.378147,9.306298 0.125298,0.134423 0.263536,0.256178 0.412702,0.363505 l 8.029927,5.764165 5.2886,11.900035 c 1.515974,3.410941 6.632387,1.136979 5.116414,-2.273962 L 47.04445,43.444487 C 46.84216,42.989875 46.522336,42.597406 46.117921,42.307506 L 39.716937,37.71312 c 1.325395,-2.258776 1.870779,-5.506291 2.642934,-8.221246 0.599556,-2.107729 1.20256,-4.21642 1.806596,-6.324455 0.547451,-1.732453 0.395137,-3.166632 0.0066,-4.149592 -0.866475,-2.065135 -2.061399,-2.273476 -4.020133,-2.728182 l -4.650483,-1.079576 c -8.52e-4,0.0028 -0.0018,0.0055 -0.0028,0.0083 -0.24894,-0.07659 -0.507437,-0.117993 -0.767917,-0.123047 z"/>
 <path style="opacity:0.2;fill:#8b9cbe" d="M 45.5 4 A 5.5 5.5 0 0 0 40 9.5 A 5.5 5.5 0 0 0 40.025391 9.9863281 A 5.5 5.5 0 0 1 45.5 5 A 5.5 5.5 0 0 1 50.974609 10.013672 A 5.5 5.5 0 0 0 51 9.5 A 5.5 5.5 0 0 0 45.5 4 z"/>
 <path style="opacity:0.2;fill:#8b9cbe" d="M 34.732422 15.095703 C 34.490161 15.092803 34.248599 15.120457 34.013672 15.179688 L 23.117188 17.978516 C 21.871381 18.289591 20.99684 19.409301 20.996094 20.693359 L 20.996094 21.693359 C 20.99684 20.409301 21.871381 19.289591 23.117188 18.978516 L 34.013672 16.179688 C 34.248599 16.120458 34.490161 16.092803 34.732422 16.095703 C 34.992902 16.100757 35.25106 16.14216 35.5 16.21875 C 35.501 16.21595 35.501101 16.213738 35.501953 16.210938 L 40.152344 17.289062 C 42.111078 17.743768 43.307353 17.952443 44.173828 20.017578 C 44.33287 20.419939 44.434334 20.915905 44.482422 21.458984 C 44.552883 20.490253 44.424499 19.651751 44.173828 19.017578 C 43.307353 16.952443 42.111078 16.743769 40.152344 16.289062 L 35.501953 15.210938 C 35.501101 15.213738 35.501 15.21595 35.5 15.21875 C 35.25106 15.14216 34.992902 15.100757 34.732422 15.095703 z M 32.226562 24.982422 C 31.549309 26.996495 30.907911 29.002456 30.416016 30.978516 C 29.963577 32.557406 29.79891 33.944878 29.867188 35.142578 C 29.912703 34.188332 30.084093 33.136837 30.416016 31.978516 C 30.920042 29.953726 31.579582 27.898176 32.275391 25.833984 L 32.226562 24.982422 z M 40.095703 37.984375 C 39.975402 38.234418 39.852336 38.481901 39.716797 38.712891 L 46.117188 43.306641 C 46.521602 43.596541 46.842632 43.9907 47.044922 44.445312 L 52.642578 57.039062 C 52.756708 57.295855 52.82192 57.543193 52.865234 57.785156 C 52.974128 57.260617 52.923132 56.670308 52.642578 56.039062 L 47.044922 43.445312 C 46.842632 42.9907 46.521602 42.596541 46.117188 42.306641 L 40.095703 37.984375 z"/>
</svg>
