<svg width="64" height="64" version="1.1" xmlns="http://www.w3.org/2000/svg">
 <circle cx="32" cy="33" r="28" style="opacity:.2"/>
 <circle cx="32" cy="32" r="28" style="fill:#bf1515"/>
 <path d="M 32,4 A 28,28 0 0 0 4,32 28,28 0 0 0 4.0215,32.586 28,28 0 0 1 32,5 28,28 0 0 1 59.979,32.414 28,28 0 0 0 60,32 28,28 0 0 0 32,4 Z" style="fill:#8b9cbe;opacity:.1"/>
 <path d="m40.367187 54.88208c-0.152208-0.0614-0.273448-0.483218-0.273448-0.951364v-0.841033l-1.257813-0.146412c-0.691796-0.0805-1.791183-0.296277-2.443081-0.47947-0.850271-0.238952-1.963145-0.314333-3.9375-0.2667-4.617964 0.111328-4.764494 0.09173-5.170024-0.692479-0.333988-0.645862-0.327947-0.70301 0.125272-1.185447 0.261901-0.278768 0.980044-0.723626 1.595872-0.988551l1.119703-0.481667-0.566258-0.465688c-0.785621-0.646094-1.059915-1.2621-1.059915-2.380353 0-1.56604 0.552199-3.039145 1.470403-3.922607 1.273381-1.225204 2.810251-2.643701 3.434122-3.169614 0.508491-0.428654 0.564225-0.628524 0.564225-2.023436 0-0.886038-0.09352-1.547804-0.218764-1.547804-0.120316 0-0.218764 0.284782-0.218764 0.632845 0 0.35754-0.141148 0.687008-0.324436 0.757347-0.178444 0.06846-0.277928 0.251272-0.22106 0.406215 0.132328 0.360587-0.098 0.698835-0.686871 1.008669-0.28077 0.147728-0.524401 0.552981-0.611475 1.01712-0.0796 0.424357-0.272692 0.771554-0.429053 0.771554-0.156379 0-0.462478 0.196868-0.68024 0.4375-0.422831 0.467222-1.090194 0.578449-1.3125 0.218764-0.233777-0.37826-0.53344-0.239092-0.671756 0.312026-0.205033 0.816909-0.827607 1.259611-1.659346 1.179923l-0.731399-0.07008 0.65625-0.395385c0.597131-0.359769 0.606982-0.383146 0.109382-0.259476-0.300779 0.07476-0.967494 0.191912-1.481585 0.260316-0.51409 0.06846-0.987477 0.209832-1.051973 0.31416-0.186382 0.30156-0.887517 0.220304-1.184283-0.137312-0.335044-0.403704-0.08106-0.83004 1.582658-2.656758l1.167502-1.281798-0.445828-0.459516c-0.431011-0.444245-1.48495-0.719645-3.272763-0.855201-0.527312-0.03998-0.991176-0.229634-1.203125-0.491901-0.189718-0.234755-0.517206-0.487231-0.727753-0.561053-0.457068-0.160258-0.498987-0.65422-0.0847-0.998049 0.163965-0.13608 0.877635-0.354102 1.585937-0.484495 1.487802-0.273896 1.954115-0.554817 1.609745-0.969758-0.159964-0.192752-0.620157-0.2422-1.506092-0.161868-1.100257 0.09976-1.339757 0.05166-1.7411-0.349678-0.255946-0.255948-0.665321-0.465354-0.909722-0.465354s-0.49768-0.172256-0.562843-0.382813c-0.06517-0.210549-0.20973-0.553745-0.32126-0.762659-0.311756-0.583973-0.240774-1.613181 0.132636-1.923079 0.298163-0.247453 0.286016-0.330945-0.109382-0.751821-0.244633-0.2604-0.448579-0.565547-0.453213-0.678104-0.0046-0.11256-0.31904-0.401527-0.698681-0.642152-0.37964-0.240625-0.941863-0.842922-1.249385-1.338436-0.307523-0.495515-0.823305-1.283015-1.146182-1.75-0.602516-0.871432-1.270178-3.439754-0.971773-3.738159 0.233503-0.233503 3.370817 0.903681 5.6939 2.063869 1.757037 0.877496 1.999592 0.944818 2.479245 0.688116 0.458274-0.245261 0.518593-0.40642 0.436954-1.167465-0.05209-0.485609-0.327634-1.403679-0.612313-2.040154-0.404783-0.905002-0.464742-1.241863-0.275098-1.545533 0.164484-0.263379 0.172609-0.513191 0.02526-0.776499-0.261432-0.467153-0.286001-1.739852-0.04123-2.135897 0.09681-0.156635 0.150091-0.585648 0.118412-0.953358-0.03881-0.450527 0.08956-0.801742 0.393627-1.076921 0.641051-0.580143 1.359727-0.194874 2.09949 1.125494 0.323923 0.578157 0.990468 1.641818 1.481208 2.363693 0.490744 0.721875 1.426568 2.1 2.079613 3.0625 0.653046 0.9625 1.297372 1.75 1.431838 1.75 0.134456 0 0.420243-0.373275 0.635062-0.829499 0.214816-0.456223 0.560126-0.889014 0.767346-0.961753 0.207228-0.07274 0.639869-0.375058 0.961444-0.671813 0.321571-0.296758 0.862977-0.561823 1.203123-0.589036 0.340144-0.02724 0.793565-0.12614 1.007594-0.219836 0.214032-0.09369 0.971292-0.12824 1.682803-0.07679 1.184148 0.08565 1.386515 0.180429 2.390548 1.119584 0.726952 0.67998 1.289456 1.02601 1.667873 1.02601 0.471909 0 0.546837 0.0761 0.431791 0.438578-0.09251 0.291487-0.02408 0.482748 0.204007 0.570278 0.188748 0.07244 0.34321 0.361454 0.34321 0.642262 0 0.280809 0.09842 0.5714 0.218764 0.645757 0.433855 0.268139 0.202776 0.694031-0.630697 1.162477-0.892547 0.501642-1.591416 1.822673-1.899038 3.589652-0.186928 1.07366 0.769714 3.15116 2.294972 4.983942 1.01535 1.22007 1.109763 1.428689 1.109763 2.452238 0 0.952425 0.152152 1.362841 1.023577 2.760987 0.562968 0.903244 1.804099 2.621993 2.758061 3.819435 2.582163 3.241208 2.669123 3.421026 2.371379 4.903618-0.377079 1.877613-0.30695 2.506479 0.404667 3.628573 0.4609 0.726765 0.560647 1.027203 0.34104 1.027203-0.170716 0-0.371235-0.09842-0.445592-0.218764-0.262052-0.423993-0.546876-0.211512-0.546876 0.407999 0 1.429957-1.453769 2.217001-4.095067 2.217001-1.481374 0-2.248683 0.414769-2.248683 1.215527 0 0.513484-0.235788 0.625464-0.82031 0.389598zm3.689-10.54464c-0.828725-0.918423-1.728824-1.866735-2.000217-2.107359-0.271404-0.240632-0.967089-1.003237-1.545989-1.694697l-1.05255-1.257197-0.439424 0.993381c-0.241668 0.546359-0.625302 1.259754-0.852494 1.585321-0.227192 0.32557-0.474056 0.909922-0.548587 1.29857-0.160832 0.8386-0.122164 0.865589 2.632409 1.8372 1.057397 0.372974 2.558575 0.998559 3.335956 1.390195l1.413409 0.712065 0.282134-0.543808c0.26656-0.513786 0.19894-0.636-1.224647-2.213671zm-15.468684-5.287019c1.130884-0.81214 2.200456-2.226938 2.652821-3.509075 0.350963-0.994739 0.440983-3.821395 0.127848-4.014914-0.191912-0.118608-3.268975 4.062077-4.771981 6.483548-0.940108 1.514593-0.864685 2.039249 0.266762 1.855641 0.418803-0.06796 1.194845-0.4348 1.724539-0.8152zm-2.243529-3.621551c0.914266-0.466959 1.78766-1.45432 2.547468-2.87987 0.38627-0.724713 0.702309-1.419731 0.702309-1.544485 0-0.124768-1.353516 0.586768-3.007812 1.581165-2.539383 1.526417-3.018617 1.898921-3.077186 2.391872-0.118916 1.000911 1.312923 1.228836 2.835221 0.451318zm0.983422-5.072919c0.54908-0.206724 0.994505-0.474309 0.989833-0.594621-0.01092-0.282612-3.102545-0.942403-4.520353-0.96472-1.334924-0.02103-2.650245 0.320586-2.806961 0.72898-0.21355 0.556498 0.426913 1.080272 1.521955 1.24466 1.469466 0.220584 3.62082 0.0355 4.815526-0.414299zm7.090637-3.231777c0.901958-0.930586 0.738094-1.149124-1.051285-1.402051-0.726802-0.102732-1.519292-0.292663-1.761083-0.422068-0.396457-0.212176-0.369177-0.05839 0.277816 1.566123 0.394587 0.990771 0.790913 1.998277 0.880723 2.238902 0.14378 0.385256 0.208628 0.338139 0.543004-0.394542 0.208852-0.457625 0.70872-1.171487 1.110836-1.586364zm-7.722719 0.647518c0.391014-0.07875 0.710937-0.21799 0.710937-0.309427 0-0.223216-5.242555-3.324242-6.887436-4.073991-0.720121-0.328237-1.704496-0.603578-2.1875-0.611869-0.839609-0.01442-0.881269 0.01705-0.948277 0.716517-0.158785 1.657434 2.235706 3.766724 5.101338 4.493733 0.509758 0.129332 3.17763-0.0069 4.210938-0.214963zm3.430386-1.12755c-0.679602-3.082279-1.755052-5.304141-3.5015-7.234029-2.057617-2.27374-3.083857-2.161468-3.312715 0.362416-0.155308 1.712763 0.0062 2.273446 0.958459 3.32749 1.464054 1.620534 4.930891 4.135648 5.710786 4.14305 0.18942 0.0017 0.23548-0.188451 0.144984-0.598927z" style="opacity:.2"/>
 <path d="m40.367187 53.88208c-0.152208-0.0614-0.273448-0.483218-0.273448-0.951364v-0.841033l-1.257813-0.146412c-0.691796-0.0805-1.791183-0.296277-2.443081-0.47947-0.850271-0.238952-1.963145-0.314333-3.9375-0.2667-4.617964 0.111328-4.764494 0.09173-5.170024-0.692479-0.333988-0.645862-0.327947-0.70301 0.125272-1.185447 0.261901-0.278768 0.980044-0.723626 1.595872-0.988551l1.119703-0.481667-0.566258-0.465688c-0.785621-0.646094-1.059915-1.2621-1.059915-2.380353 0-1.56604 0.552199-3.039145 1.470403-3.922607 1.273381-1.225204 2.810251-2.643701 3.434122-3.169614 0.508491-0.428654 0.564225-0.628524 0.564225-2.023436 0-0.886038-0.09352-1.547804-0.218764-1.547804-0.120316 0-0.218764 0.284782-0.218764 0.632845 0 0.35754-0.141148 0.687008-0.324436 0.757347-0.178444 0.06846-0.277928 0.251272-0.22106 0.406215 0.132328 0.360587-0.098 0.698835-0.686871 1.008669-0.28077 0.147728-0.524401 0.552981-0.611475 1.01712-0.0796 0.424357-0.272692 0.771554-0.429053 0.771554-0.156379 0-0.462478 0.196868-0.68024 0.4375-0.422831 0.467222-1.090194 0.578449-1.3125 0.218764-0.233777-0.37826-0.53344-0.239092-0.671756 0.312026-0.205033 0.816909-0.827607 1.259611-1.659346 1.179923l-0.731399-0.07008 0.65625-0.395385c0.597131-0.359769 0.606982-0.383146 0.109382-0.259476-0.300779 0.07476-0.967494 0.191912-1.481585 0.260316-0.51409 0.06846-0.987477 0.209832-1.051973 0.31416-0.186382 0.30156-0.887517 0.220304-1.184283-0.137312-0.335044-0.403704-0.08106-0.83004 1.582658-2.656758l1.167502-1.281798-0.445828-0.459516c-0.431011-0.444245-1.48495-0.719645-3.272763-0.855201-0.527312-0.03998-0.991176-0.229634-1.203125-0.491901-0.189718-0.234755-0.517206-0.487231-0.727753-0.561053-0.457068-0.160258-0.498987-0.65422-0.0847-0.998049 0.163965-0.13608 0.877635-0.354102 1.585937-0.484495 1.487802-0.273896 1.954115-0.554817 1.609745-0.969758-0.159964-0.192752-0.620157-0.2422-1.506092-0.161868-1.100257 0.09976-1.339757 0.05166-1.7411-0.349678-0.255946-0.255948-0.665321-0.465354-0.909722-0.465354s-0.49768-0.172256-0.562843-0.382813c-0.06517-0.210549-0.20973-0.553745-0.32126-0.762659-0.311756-0.583973-0.240774-1.613181 0.132636-1.923079 0.298163-0.247453 0.286016-0.330945-0.109382-0.751821-0.244633-0.2604-0.448579-0.565547-0.453213-0.678104-0.0046-0.11256-0.31904-0.401527-0.698681-0.642152-0.37964-0.240625-0.941863-0.842922-1.249385-1.338436-0.307523-0.495515-0.823305-1.283015-1.146182-1.75-0.602516-0.871432-1.270178-3.439754-0.971773-3.738159 0.233503-0.233503 3.370817 0.903681 5.6939 2.063869 1.757037 0.877496 1.999592 0.944818 2.479245 0.688116 0.458274-0.245261 0.518593-0.40642 0.436954-1.167465-0.05209-0.485609-0.327634-1.403679-0.612313-2.040154-0.404783-0.905002-0.464742-1.241863-0.275098-1.545533 0.164484-0.263379 0.172609-0.513191 0.02526-0.776499-0.261432-0.467153-0.286001-1.739852-0.04123-2.135897 0.09681-0.156635 0.150091-0.585648 0.118412-0.953358-0.03881-0.450527 0.08956-0.801742 0.393627-1.076921 0.641051-0.580143 1.359727-0.194874 2.09949 1.125494 0.323923 0.578157 0.990468 1.641818 1.481208 2.363693 0.490744 0.721875 1.426568 2.1 2.079613 3.0625 0.653046 0.9625 1.297372 1.75 1.431838 1.75 0.134456 0 0.420243-0.373275 0.635062-0.829499 0.214816-0.456223 0.560126-0.889014 0.767346-0.961753 0.207228-0.07274 0.639869-0.375058 0.961444-0.671813 0.321571-0.296758 0.862977-0.561823 1.203123-0.589036 0.340144-0.02724 0.793565-0.12614 1.007594-0.219836 0.214032-0.09369 0.971292-0.12824 1.682803-0.07679 1.184148 0.08565 1.386515 0.180429 2.390548 1.119584 0.726952 0.67998 1.289456 1.02601 1.667873 1.02601 0.471909 0 0.546837 0.0761 0.431791 0.438578-0.09251 0.291487-0.02408 0.482748 0.204007 0.570278 0.188748 0.07244 0.34321 0.361454 0.34321 0.642262 0 0.280809 0.09842 0.5714 0.218764 0.645757 0.433855 0.268139 0.202776 0.694031-0.630697 1.162477-0.892547 0.501642-1.591416 1.822673-1.899038 3.589652-0.186928 1.07366 0.769714 3.15116 2.294972 4.983942 1.01535 1.22007 1.109763 1.428689 1.109763 2.452238 0 0.952425 0.152152 1.362841 1.023577 2.760987 0.562968 0.903244 1.804099 2.621993 2.758061 3.819435 2.582163 3.241208 2.669123 3.421026 2.371379 4.903618-0.377079 1.877613-0.30695 2.506479 0.404667 3.628573 0.4609 0.726765 0.560647 1.027203 0.34104 1.027203-0.170716 0-0.371235-0.09842-0.445592-0.218764-0.262052-0.423993-0.546876-0.211512-0.546876 0.407999 0 1.429957-1.453769 2.217001-4.095067 2.217001-1.481374 0-2.248683 0.414769-2.248683 1.215527 0 0.513484-0.235788 0.625464-0.82031 0.389598zm3.689-10.54464c-0.828725-0.918423-1.728824-1.866735-2.000217-2.107359-0.271404-0.240632-0.967089-1.003237-1.545989-1.694697l-1.05255-1.257197-0.439424 0.993381c-0.241668 0.546359-0.625302 1.259754-0.852494 1.585321-0.227192 0.32557-0.474056 0.909922-0.548587 1.29857-0.160832 0.8386-0.122164 0.865589 2.632409 1.8372 1.057397 0.372974 2.558575 0.998559 3.335956 1.390195l1.413409 0.712065 0.282134-0.543808c0.26656-0.513786 0.19894-0.636-1.224647-2.213671zm-15.468684-5.287019c1.130884-0.81214 2.200456-2.226938 2.652821-3.509075 0.350963-0.994739 0.440983-3.821395 0.127848-4.014914-0.191912-0.118608-3.268975 4.062077-4.771981 6.483548-0.940108 1.514593-0.864685 2.039249 0.266762 1.855641 0.418803-0.06796 1.194845-0.4348 1.724539-0.8152zm-2.243529-3.621551c0.914266-0.466959 1.78766-1.45432 2.547468-2.87987 0.38627-0.724713 0.702309-1.419731 0.702309-1.544485 0-0.124768-1.353516 0.586768-3.007812 1.581165-2.539383 1.526417-3.018617 1.898921-3.077186 2.391872-0.118916 1.000911 1.312923 1.228836 2.835221 0.451318zm0.983422-5.072919c0.54908-0.206724 0.994505-0.474309 0.989833-0.594621-0.01092-0.282612-3.102545-0.942403-4.520353-0.96472-1.334924-0.02103-2.650245 0.320586-2.806961 0.72898-0.21355 0.556498 0.426913 1.080272 1.521955 1.24466 1.469466 0.220584 3.62082 0.0355 4.815526-0.414299zm7.090637-3.231777c0.901958-0.930586 0.738094-1.149124-1.051285-1.402051-0.726802-0.102732-1.519292-0.292663-1.761083-0.422068-0.396457-0.212176-0.369177-0.05839 0.277816 1.566123 0.394587 0.990771 0.790913 1.998277 0.880723 2.238902 0.14378 0.385256 0.208628 0.338139 0.543004-0.394542 0.208852-0.457625 0.70872-1.171487 1.110836-1.586364zm-7.722719 0.647518c0.391014-0.07875 0.710937-0.21799 0.710937-0.309427 0-0.223216-5.242555-3.324242-6.887436-4.073991-0.720121-0.328237-1.704496-0.603578-2.1875-0.611869-0.839609-0.01442-0.881269 0.01705-0.948277 0.716517-0.158785 1.657434 2.235706 3.766724 5.101338 4.493733 0.509758 0.129332 3.17763-0.0069 4.210938-0.214963zm3.430386-1.12755c-0.679602-3.082279-1.755052-5.304141-3.5015-7.234029-2.057617-2.27374-3.083857-2.161468-3.312715 0.362416-0.155308 1.712763 0.0062 2.273446 0.958459 3.32749 1.464054 1.620534 4.930891 4.135648 5.710786 4.14305 0.18942 0.0017 0.23548-0.188451 0.144984-0.598927z" style="fill:#8b9cbe"/>
</svg>
