<svg xmlns="http://www.w3.org/2000/svg" width="64" height="64" version="1.1">
 <rect style="opacity:0.2" width="56" height="56" x="4" y="5" rx="4.2" ry="4.2"/>
 <rect style="fill:#008366" width="56" height="56" x="4" y="4" rx="4.2" ry="4.2"/>
 <path style="opacity:0.2" d="m 27.464702,11.017224 c -0.728248,0.06046 -1.001266,0.173656 -1.275144,0.522221 -0.294324,0.374586 -0.546688,0.461561 -1.621132,0.561528 -0.818552,0.07616 -1.393682,0.226044 -1.612762,0.421147 -0.42227,0.37605 -0.820334,1.289475 -0.820334,1.883928 0,0.421572 0.04124,0.440202 0.686402,0.336917 0.380492,-0.06092 0.969208,-0.01662 1.325368,0.101072 0.522,0.17247 0.602412,0.258849 0.435276,0.460454 -0.11922,0.143824 -0.526944,0.103876 -0.973794,0.103876 -0.895734,0 -0.989374,0.25099 -0.365524,0.97706 l 0.401796,0.468877 0.691982,-0.37061 c 0.787824,-0.422745 1.343132,-0.324469 1.897366,-0.0112 0.211082,0.1193 1.161856,0.261469 2.11501,0.314456 1.620322,0.09009 1.189936,0.127622 1.582068,0.58399 0.254198,0.295843 0.603738,0.709503 0.602696,1.050057 -0.0034,1.148057 -0.806314,3.181515 -3.186416,6.013969 -1.204984,1.433998 -1.442346,4.059534 -1.445346,4.752316 -9.44e-4,0.211962 -0.07698,0.429786 -0.16742,0.48572 -0.17348,0.10732 -0.281844,-0.55245 -0.44644,-2.717798 -0.163,-2.144272 -0.564248,-3.342014 -1.487204,-4.295648 -0.541552,-0.559564 -1.04416,-0.893126 -1.548586,-1.027606 -0.882176,-0.235174 -0.935702,-0.415382 -0.21764,-0.713142 0.28991,-0.12022 0.527356,-0.287434 0.527356,-0.37061 0,-0.213312 -0.803556,-0.388516 -1.322576,-0.289184 -0.53235,0.10188 -0.5456,0.0074 -0.06696,-0.50257 0.94166,-1.003452 -0.66104,-0.771216 -2.324266,0.336912 -1.492664,0.994494 -2.403397,2.017872 -2.541915,2.757062 -0.08742,0.466444 -0.3668,0.873782 -0.993327,1.451552 -1.16158,1.071178 -1.424555,1.613606 -1.275143,2.611106 0.217886,1.454564 0.384617,1.573692 1.063083,0.766486 0.425206,-0.505884 1.412148,-1.032 1.593232,-0.850716 0.17682,0.17702 -0.279528,0.808192 -0.811963,1.123058 -0.672966,0.397956 -0.665509,0.678058 0.02233,0.9181 0.653219,0.227964 0.774731,0.1674 1.144003,-0.564336 0.42579,-0.843744 0.926912,-1.319458 1.629504,-1.547012 0.348176,-0.11276 1.00441,-0.549312 1.459296,-0.971444 0.45489,-0.42213 0.913268,-0.766486 1.018442,-0.766486 0.361016,0 1.028278,0.839578 1.208174,1.518934 0.09902,0.373908 0.267678,1.860482 0.373896,3.304596 0.327484,4.451156 0.774936,5.080974 2.39403,8.609252 0.519078,1.131166 0.943102,2.170584 0.943102,2.308786 0,0.18636 -1.357472,0.280592 -2.388586,0.370608 -2.439694,0.213056 -3.463478,1.041908 -3.64127,2.950834 -0.0641,0.68822 -0.0036,1.08828 0.23159,1.535778 0.485652,0.92347 0.77681,0.906218 0.647336,-0.0393 -0.11084,-0.809488 0.18298,-1.326294 0.401794,-0.707524 0.1616,0.456984 0.783958,1.109016 1.057504,1.109016 0.278536,0 0.280992,-0.0254 0.06138,-0.603644 -0.1923,-0.506394 -0.0753,-0.557414 0.415748,-0.18528 0.469762,0.355972 0.62793,0.18208 0.507824,-0.558724 -0.19008,-1.172674 1.681442,-2.193206 3.906482,-1.532984 1.08163,0.320944 1.380876,0.349712 1.858306,0.17688 0.911138,-0.329836 2.204252,-0.251604 2.798504,0.248972 0.598368,0.50405 0.11302,1.821182 -0.304136,2.417396 -0.42483,0.6072 -1.089614,0.863348 -2.753974,1.066904 -0.843184,0.10314 -1.718498,0.310186 -1.947592,0.460456 -0.456204,0.299246 -0.823124,0.970204 -0.823124,1.507702 0,0.462636 0.210588,0.4331 0.66966,-0.09548 0.210062,-0.24186 0.539922,-0.437994 0.733836,-0.437994 0.440804,0 0.442616,0.09442 0.0028,0.65418 -0.316602,0.402952 -0.498018,1.45436 -0.251122,1.45436 0.05482,0 0.359038,-0.27627 0.678032,-0.614874 0.318994,-0.3386 0.74824,-0.614874 0.954264,-0.614874 0.437148,0 0.461268,0.13346 0.10602,0.603642 -0.264748,0.35043 -0.36184,1.511358 -0.12556,1.499284 0.07248,-0.0036 0.29063,-0.259266 0.485504,-0.569954 0.33078,-0.527372 0.744936,-0.795898 2.137328,-1.384166 0.30759,-0.12994 1.480534,-1.212452 2.606092,-2.40334 2.01068,-2.127374 1.986426,-2.176298 1.929438,-2.900296 l -0.0586,-0.738408 2.038292,-0.213382 c 1.803812,-0.643636 2.763796,-0.696414 3.814378,-0.15162 1.393908,0.722836 2.710718,1.975142 2.519592,3.15298 -0.14066,0.866824 -0.616654,2.509936 -1.81924,2.62633 -2.86241,-0.05384 -6.85447,1.782084 -6.403722,4.451734 0.371706,1.7925 2.694944,2.97962 5.02534,3.512362 0.733108,0.16768 1.71186,0.223462 2.94371,0.17126 3.085182,-0.1307 5.057944,-0.290208 6.710546,-1.988742 0.604642,-0.62145 1.383868,-2.103136 1.668564,-2.828084 L 53.99992,53 V 48.975614 L 50,50.732 l 2.096972,1.207696 c -0.246396,0.205054 -0.570432,0.705048 -0.937524,1.084536 -1.623078,1.677832 -2.735584,1.673112 -4.76574,1.94663 -1.665916,0.22444 -3.492658,-0.011 -4.62798,-0.5138 -0.93089,-0.412228 -1.651826,-1.302448 -1.651826,-1.965348 0,-0.62351 0.743544,-1.193932 1.640668,-1.224132 2.427094,-0.08168 2.87953,-0.303226 2.87953,-0.303226 1.747666,-0.531808 3.403062,-3.568998 3.403062,-5.480516 0,-0.487776 0.07656,-1.087086 0.1702,-1.333632 0.13896,-0.365878 0.05876,-0.680654 -0.435278,-1.71266 -0.411312,-0.859182 -0.569094,-1.001984 -0.496662,-1.290908 0.08774,-0.349966 -0.0757,-0.610638 -0.923572,-1.468396 -0.91747,-0.928158 -1.007558,-1.367088 -0.814752,-1.676164 0.11906,-0.19086 0.21764,-0.386898 0.21764,-0.435184 0,-0.04828 -0.456904,-0.317072 -1.01286,-0.598028 -0.55596,-0.280956 -1.20439,-0.668878 -1.442558,-0.861946 -0.374788,-0.303818 -0.402144,-0.390652 -0.1953,-0.64014 0.13146,-0.15854 0.19326,-0.333668 0.13672,-0.390264 -0.05656,-0.0566 -0.717408,-0.217554 -1.46767,-0.359378 -1.693128,-0.32005 -1.955846,-0.45891 -2.025718,-1.066904 -0.0306,-0.266078 -0.11716,-0.4775 -0.19254,-0.468876 -0.07534,0.0084 -0.91626,0.159 -1.869464,0.334108 -1.873736,0.344178 -2.299164,0.297324 -2.299164,-0.255494 0,-0.45571 0.0036,-0.458002 -1.169112,0.16846 -1.914942,1.022996 -3.469716,0.394898 -2.988356,-1.213512 0.12108,-0.404554 0.448568,-1.069862 0.728254,-1.476816 1.11843,-1.627382 3.249896,-2.145552 7.169192,-2.3261 2.184096,-0.1006 3.16743,-0.1984 3.808686,-0.48853 1.011524,-0.457638 3.334314,-2.065046 3.768112,-2.871462 0.18558,-0.344964 0.39691,-0.626106 0.471554,-0.626106 0.366616,0 0.839864,-0.750464 0.839864,-1.333628 0,-0.789278 0.3614,-0.731764 0.57479,0.09264 0.211718,0.81794 0.571852,0.415116 0.54968,-0.614874 -0.0188,-0.87353 0.11174,-0.973112 0.505032,-0.387456 0.425436,0.633472 0.563672,0.210972 0.320882,-0.971444 -0.233712,-1.138568 -1.75793,-3.922814 -2.388374,-4.722443 -0.199758,-0.253362 -1.784448,-0.505883 -2.05315,-0.561529 -0.369546,-0.07652 -0.859678,-0.384762 -1.391296,-1.269055 -0.399822,-0.665065 -0.918262,-1.284728 -1.205386,-1.434704 -0.453152,-0.236693 -0.58459,-0.233131 -1.275144,0.03088 -0.839394,0.320923 -0.914936,0.452789 -0.479922,0.814216 0.350092,0.29087 0.940314,1.629574 0.940314,2.131 -2e-6,0.358149 -0.006,0.359452 -0.365522,0.03369 -0.20125,-0.182328 -0.76633,-0.611223 -0.909622,-0.95179 -0.248852,-0.591506 -0.272588,-0.604121 -0.513404,-0.277956 -0.444578,0.602131 -0.319898,1.43453 0.279024,1.861467 0.58623,0.417896 1.114244,1.336095 1.311416,2.282612 0.07054,0.338604 0.277536,0.863572 0.46039,1.16517 0.685532,1.130932 0.553418,3.773784 -0.502244,4.275284 -0.367368,0.17452 -1.55297,0.331328 -3.373408,0.446416 -4.187274,0.264754 -6.090016,0.80718 -8.098344,2.780936 -0.95983,0.943312 -1.023322,0.978856 -0.90962,0.49976 0.18238,-0.768444 0.261628,-1.797174 1.997818,-4.068274 C 33.716358,21.332308 34.003144,20.632088 34,18.541699 33.994,16.754716 33.177554,14.721439 31.28455,13.184718 30.894624,12.9142 30.618366,12.623733 30.670696,12.53896 c 0.05232,-0.08477 0.414692,-0.154418 0.803592,-0.154418 0.824134,0 0.839644,-0.270784 0.04464,-0.735602 -0.662574,-0.387399 -2.861432,-0.730741 -4.054226,-0.631724 z"/>
 <path style="fill:#badc86" d="m 27.464702,10.017223 c -0.728248,0.06046 -1.001266,0.173656 -1.275144,0.522222 -0.294324,0.374586 -0.546688,0.461561 -1.621132,0.561528 -0.818552,0.07616 -1.393682,0.226044 -1.612762,0.421147 -0.42227,0.376049 -0.820334,1.289475 -0.820334,1.883928 0,0.421572 0.04124,0.440202 0.686402,0.336917 0.380492,-0.06092 0.969208,-0.01662 1.325368,0.101072 0.522,0.17247 0.602412,0.258849 0.435276,0.460454 -0.11922,0.143824 -0.526944,0.103876 -0.973794,0.103876 -0.895734,0 -0.989374,0.25099 -0.365524,0.97706 l 0.401796,0.468876 0.691982,-0.370609 c 0.787824,-0.422745 1.343132,-0.32447 1.897366,-0.0112 0.211082,0.1193 1.161856,0.261469 2.11501,0.314456 1.620322,0.09009 1.189936,0.127622 1.582068,0.583989 0.254198,0.295843 0.603738,0.709504 0.602696,1.050058 -0.0034,1.148058 -0.806314,3.181515 -3.186416,6.013969 -1.204984,1.433998 -1.442346,4.059534 -1.445346,4.752316 -9.44e-4,0.211962 -0.07698,0.429786 -0.16742,0.48572 -0.17348,0.10732 -0.281844,-0.55245 -0.44644,-2.717798 -0.163,-2.144272 -0.564248,-3.342014 -1.487204,-4.295648 -0.541552,-0.559564 -1.04416,-0.893126 -1.548586,-1.027606 -0.882176,-0.235174 -0.935702,-0.415382 -0.21764,-0.713142 0.28991,-0.120218 0.527356,-0.287435 0.527356,-0.370609 0,-0.213314 -0.803556,-0.388518 -1.322576,-0.289186 -0.53235,0.101878 -0.5456,0.0075 -0.06696,-0.502569 0.94166,-1.003452 -0.66104,-0.771216 -2.324266,0.336912 -1.492664,0.994494 -2.403397,2.017872 -2.541915,2.757062 -0.08742,0.466444 -0.3668,0.873782 -0.993327,1.451552 -1.16158,1.071178 -1.424555,1.613606 -1.275143,2.611106 0.217886,1.454564 0.384617,1.573692 1.063083,0.766486 0.425206,-0.505884 1.412148,-1.032 1.593232,-0.850716 0.17682,0.17702 -0.279528,0.808192 -0.811963,1.123058 -0.672966,0.397956 -0.665509,0.678058 0.02233,0.9181 0.653219,0.227964 0.774731,0.1674 1.144003,-0.564336 0.42579,-0.843744 0.926912,-1.319458 1.629504,-1.547012 0.348176,-0.11276 1.00441,-0.549312 1.459296,-0.971444 0.45489,-0.42213 0.913268,-0.766486 1.018442,-0.766486 0.361016,0 1.028278,0.839578 1.208174,1.518934 0.09902,0.373908 0.267678,1.860482 0.373896,3.304596 0.327484,4.451156 0.774936,5.080974 2.39403,8.609252 0.519078,1.131166 0.943102,2.170584 0.943102,2.308786 0,0.18636 -1.357472,0.280592 -2.388586,0.370608 -2.439694,0.213056 -3.463478,1.041908 -3.64127,2.950834 -0.0641,0.68822 -0.0036,1.08828 0.23159,1.535778 0.485652,0.92347 0.77681,0.906218 0.647336,-0.0393 -0.11084,-0.809488 0.18298,-1.326294 0.401794,-0.707524 0.1616,0.456984 0.783958,1.109016 1.057504,1.109016 0.278536,0 0.280992,-0.0254 0.06138,-0.603644 -0.1923,-0.506394 -0.0753,-0.557414 0.415748,-0.18528 0.469762,0.355972 0.62793,0.18208 0.507824,-0.558724 -0.19008,-1.172674 1.681442,-2.193206 3.906482,-1.532984 1.08163,0.320944 1.380876,0.349712 1.858306,0.17688 0.911138,-0.329836 2.204252,-0.251604 2.798504,0.248972 0.598368,0.50405 0.11302,1.821182 -0.304136,2.417396 -0.42483,0.6072 -1.089614,0.863348 -2.753974,1.066904 -0.843184,0.10314 -1.718498,0.310186 -1.947592,0.460456 -0.456204,0.299246 -0.823124,0.970204 -0.823124,1.507702 0,0.462636 0.210588,0.4331 0.66966,-0.09548 0.210062,-0.24186 0.539922,-0.437994 0.733836,-0.437994 0.440804,0 0.442616,0.09442 0.0028,0.65418 -0.316602,0.402952 -0.498018,1.45436 -0.251122,1.45436 0.05482,0 0.359038,-0.27627 0.678032,-0.614874 0.318994,-0.3386 0.74824,-0.614874 0.954264,-0.614874 0.437148,0 0.461268,0.13346 0.10602,0.603642 -0.264748,0.35043 -0.36184,1.511358 -0.12556,1.499284 0.07248,-0.0036 0.29063,-0.259266 0.485504,-0.569954 0.33078,-0.527372 0.744936,-0.795898 2.137328,-1.384166 0.30759,-0.12994 1.480534,-1.212452 2.606092,-2.40334 2.01068,-2.127374 1.986426,-2.176298 1.929438,-2.900296 l -0.0586,-0.738408 2.038292,-0.213382 c 1.803812,-0.643636 2.763796,-0.696414 3.814378,-0.15162 1.393908,0.722836 2.710718,1.975142 2.519592,3.15298 -0.14066,0.866824 -0.616654,2.509936 -1.81924,2.62633 -2.86241,-0.05384 -6.85447,1.782084 -6.403722,4.451734 0.371706,1.7925 2.694944,2.97962 5.02534,3.512362 0.733108,0.16768 1.71186,0.223462 2.94371,0.17126 3.085182,-0.1307 5.057944,-0.290208 6.710546,-1.988742 0.604642,-0.62145 1.383868,-2.103136 1.668564,-2.828084 L 53.99992,52 V 47.975614 L 50,49.732 l 2.096972,1.207696 c -0.246396,0.205054 -0.570432,0.705048 -0.937524,1.084536 -1.623078,1.677832 -2.735584,1.673112 -4.76574,1.94663 -1.665916,0.22444 -3.492658,-0.011 -4.62798,-0.5138 -0.93089,-0.412228 -1.651826,-1.302448 -1.651826,-1.965348 0,-0.62351 0.743544,-1.193932 1.640668,-1.224132 2.427094,-0.08168 2.87953,-0.303226 2.87953,-0.303226 1.747666,-0.531808 3.403062,-3.568998 3.403062,-5.480516 0,-0.487776 0.07656,-1.087086 0.1702,-1.333632 0.13896,-0.365878 0.05876,-0.680654 -0.435278,-1.71266 -0.411312,-0.859182 -0.569094,-1.001984 -0.496662,-1.290908 0.08774,-0.349966 -0.0757,-0.610638 -0.923572,-1.468396 -0.91747,-0.928158 -1.007558,-1.367088 -0.814752,-1.676164 0.11906,-0.19086 0.21764,-0.386898 0.21764,-0.435184 0,-0.04828 -0.456904,-0.317072 -1.01286,-0.598028 -0.55596,-0.280956 -1.20439,-0.668878 -1.442558,-0.861946 -0.374788,-0.303818 -0.402144,-0.390652 -0.1953,-0.64014 0.13146,-0.15854 0.19326,-0.333668 0.13672,-0.390264 -0.05656,-0.0566 -0.717408,-0.217554 -1.46767,-0.359378 -1.693128,-0.32005 -1.955846,-0.45891 -2.025718,-1.066904 -0.0306,-0.266078 -0.11716,-0.4775 -0.19254,-0.468876 -0.07534,0.0084 -0.91626,0.159 -1.869464,0.334108 -1.873736,0.344178 -2.299164,0.297324 -2.299164,-0.255494 0,-0.45571 0.0036,-0.458002 -1.169112,0.16846 -1.914942,1.022996 -3.469716,0.394898 -2.988356,-1.213512 0.12108,-0.404554 0.448568,-1.069862 0.728254,-1.476816 1.11843,-1.627382 3.249896,-2.145552 7.169192,-2.3261 2.184096,-0.1006 3.16743,-0.1984 3.808686,-0.48853 1.011524,-0.457638 3.334314,-2.065046 3.768112,-2.871462 0.18558,-0.344964 0.39691,-0.626106 0.471554,-0.626106 0.366616,0 0.839864,-0.750464 0.839864,-1.333628 0,-0.789278 0.3614,-0.731764 0.57479,0.09264 0.211718,0.81794 0.571852,0.415116 0.54968,-0.614874 -0.0188,-0.87353 0.11174,-0.973112 0.505032,-0.387456 0.425436,0.633472 0.563672,0.210972 0.320882,-0.971444 -0.233712,-1.138569 -1.75793,-3.922814 -2.388374,-4.722444 -0.199758,-0.253361 -1.784448,-0.505882 -2.05315,-0.561528 -0.369546,-0.07652 -0.859678,-0.384762 -1.391296,-1.269055 -0.399822,-0.665065 -0.918262,-1.284728 -1.205386,-1.434704 -0.453152,-0.236693 -0.58459,-0.233131 -1.275144,0.03088 -0.839394,0.320923 -0.914936,0.452789 -0.479922,0.814216 0.350092,0.29087 0.940314,1.629574 0.940314,2.131 -2e-6,0.358149 -0.006,0.359451 -0.365522,0.03369 -0.20125,-0.182329 -0.76633,-0.611223 -0.909622,-0.95179 -0.248852,-0.591507 -0.272588,-0.604121 -0.513404,-0.277956 -0.444578,0.602131 -0.319898,1.43453 0.279024,1.861467 0.58623,0.417896 1.114244,1.336094 1.311416,2.282612 0.07054,0.338603 0.277536,0.863571 0.46039,1.165171 0.685532,1.130931 0.553418,3.773783 -0.502244,4.275283 -0.367368,0.17452 -1.55297,0.331328 -3.373408,0.446416 -4.187274,0.264754 -6.090016,0.80718 -8.098344,2.780936 -0.95983,0.943312 -1.023322,0.978856 -0.90962,0.49976 0.18238,-0.768444 0.261628,-1.797174 1.997818,-4.068274 2.22807,-2.914518 2.514856,-3.614737 2.511712,-5.705127 -0.006,-1.786983 -0.822446,-3.82026 -2.71545,-5.356981 -0.389926,-0.270519 -0.666184,-0.560985 -0.613854,-0.645758 0.05232,-0.08477 0.414692,-0.154418 0.803592,-0.154418 0.824134,0 0.839644,-0.270784 0.04464,-0.735602 -0.662574,-0.387399 -2.861432,-0.7307408 -4.054226,-0.631725 z"/>
 <path style="opacity:0.2;fill:#8b9cbe" d="M 8.1992188 4 C 5.8724187 4 4 5.8724187 4 8.1992188 L 4 9.1992188 C 4 6.8724188 5.8724187 5 8.1992188 5 L 55.800781 5 C 58.127581 5 60 6.8724188 60 9.1992188 L 60 8.1992188 C 60 5.8724187 58.127581 4 55.800781 4 L 8.1992188 4 z"/>
</svg>
