<svg width="64" height="64" version="1.1" xmlns="http://www.w3.org/2000/svg">
 <g>
  <path d="m32 47s11 0 17-6c3-3 0-16-3-19-9-3-14-3-14-3s-5 0-14 3c-3 3-6 16-3 19 6 6 17 6 17 6z" style="opacity:.2"/>
  <path d="m32 46s11 0 17-6c3-3 0-16-3-19-9-3-14-3-14-3s-5 0-14 3c-3 3-6 16-3 19 6 6 17 6 17 6z" style="fill:#c022ab"/>
  <path d="m32 18s-5 0-14 3c-2.174556 2.174556-4.337076 9.590381-4.226562 14.65625 0.163346-4.994682 2.192187-11.621875 4.226562-13.65625 9-3 14-3 14-3s5 0 14 3c2.034375 2.034375 4.063216 8.661568 4.226562 13.65625 0.110514-5.065869-2.052006-12.481694-4.226562-14.65625-9-3-14-3-14-3z" style="fill:#8b9cbe;opacity:.2"/>
  <rect x="21" y="29" width="22" height="17" rx="2" ry="2" style="fill:#8b9cbe"/>
  <path d="m7 50c0-6 8-6 8-6h34s8 0 8 6c0 8-22 11-22 11h-6s-22-3-22-11z" style="opacity:.2"/>
  <path d="m7 49c0-6 8-6 8-6h34s8 0 8 6c0 8-22 11-22 11h-6s-22-3-22-11z" style="fill:#de48cb"/>
  <ellipse cx="32" cy="16.200001" rx="11.111112" ry="11.2" style="opacity:.2"/>
  <ellipse cx="32" cy="15.2" rx="11.111112" ry="11.2" style="fill:#de48cb"/>
  <path d="m15 43s-8 0-8 6c0 0.169776 0.023573 0.334708 0.042969 0.5 0.445654-5.483203 7.957031-5.5 7.957031-5.5h34s7.511377 0.0168 7.957031 5.5c0.019396-0.165292 0.042969-0.330224 0.042969-0.5 0-6-8-6-8-6z" style="fill:#8b9cbe;opacity:.2"/>
  <path d="M 32,4 A 11.111112,11.2 0 0 0 20.888672,15.199219 11.111112,11.2 0 0 0 20.910156,15.794922 11.111112,11.2 0 0 1 32,5 11.111112,11.2 0 0 1 43.089844,15.605469 11.111112,11.2 0 0 0 43.111328,15.199219 11.111112,11.2 0 0 0 32,4 Z" style="fill:#8b9cbe;opacity:.2"/>
 </g>
</svg>
