<svg width="64" height="64" version="1.1" xmlns="http://www.w3.org/2000/svg">
 <rect x="4" y="5" width="56" height="56" rx="14" ry="14" style="opacity:.2"/>
 <rect x="4" y="4" width="56" height="56" rx="14" ry="14" style="fill:#17191e"/>
 <path d="m28.670895 8.4999994-0.143556 1.374023c-0.24598 2.3271456-1.01956 7.0692086-1.209961 7.4169926-0.117936 0.215429-0.522638 0.331006-1.162109 0.33496-1.186633 0.0074-1.935332 0.575735-1.838867 1.401368 0.04955 0.424078 0.243903 0.605528 0.827148 0.765625 1.004401 0.275699 0.991434 0.247839 0.526368 0.950196-0.443324 0.669524-0.50573 1.074337-0.581053 3.68457l-0.05468 1.756836-1.175782 0.05468c-0.646912 0.02954-1.213821 0.0923-1.257811 0.136724-0.04399 0.04442 0.03363 1.274433 0.170898 2.734375 0.13727 1.45994 0.191069 2.89807 0.116214 3.199219-0.100114 0.402763-0.496755 0.720372-1.497069 1.196286-0.747936 0.35584-1.693606 0.717651-2.098634 0.80664-0.405028 0.08898-1.134312 0.348326-1.626953 0.574219-0.49264 0.225876-1.165521 0.414333-1.490234 0.416993-0.974806 0.496288-1.407266 1.276206-2.100001 1.941405-0.33406 0.320785-0.31451 0.306193-1.122752 1.306193l-0.952061 1.448696v12s0 3 3 3h34c3 0 3-3 3-3s0.03674-0.26739 0-2c-0.07322-3.463163 0-0.4 0-6 0-1-0.85449-1.886885-1.208139-2.858404-0.353511-0.971521-1.217221-3.203701-1.91392-4.956056-0.696699-1.752352-1.377231-3.548658-1.517581-3.992186-0.304178-0.961305-0.659296-1.285203-1.585937-1.476564-0.853941-0.176344-1.115209-0.918334-0.943359-2.659178 0.132496-1.34216 0.05289-1.511525-1.606447-3.479493-0.864732-1.025565-1.042406-1.139558-1.845701-1.141602-0.531135-0.0014-1.289167-0.218435-1.873049-0.540038-0.538602-0.29666-1.291978-0.69048-1.674803-0.875l-0.697267-0.334962 0.334961-1.155273c0.393465-1.361049 1.552833-4.011197 2.625-6.015625 0.726281-1.35779 0.74473-1.449533 0.389648-1.845704-0.390432-0.435614-3.583028-2.142507-4.894531-2.618162-0.418911-0.1519312-0.956909-0.3658764-1.196289-0.47168-1.017167-0.4495876-3.763685-1.080079-4.703124-1.080079zm8.107423 15.045899c0.08336-0.05554 0.233996-0.02978 0.499024 0.0342 0.84819 0.204705 0.924269 0.266938 0.929687 0.806641 0.0027 0.264784 0.196616 0.730097 0.430665 1.032227 0.234052 0.302129 0.428 0.855733 0.430662 1.230468 0.0084 1.16081 0.456398 2.130997 1.476564 3.199218 1.022918 1.071049 1.122388 1.72266 0.266588 1.72266-0.736272 0-0.733936 0.579793 0 1.784179 0.817334 1.341237 2.077051 5.056831 1.886721 5.557617-0.214256 0.563808-0.450226 0.42707-1.654293-0.970718-0.754267-0.875633-1.668991-1.621421-2.700194-2.201173-1.735141-0.975514-2.756623-1.804602-2.754884-2.235352 6.5e-4 -0.156856 0.588179-1.056832 1.305665-1.996092 0.717486-0.939262 1.305665-1.797584 1.305665-1.914064s-0.38941-0.479902-0.868165-0.799806c-0.903378-0.603635-1.109127-0.95703-0.546876-0.95703 0.438964 0 0.410959-0.289917-0.129892-1.360352-0.368169-0.728686-0.404298-1.002379-0.211904-1.428712 0.130984-0.290273 0.232428-0.774496 0.232428-1.073242 0-0.24054 0.01932-0.375123 0.102536-0.430664zm2.816408 0.861329c0.07182-0.07466 0.2548-0.03793 0.540038 0.116214 0.265272 0.143343 0.395069 0.373244 0.3213 0.567382-0.173488 0.456484-0.452964 0.408439-0.738284-0.129878-0.154-0.290576-0.194852-0.479046-0.12306-0.55371z" style="opacity:.2"/>
 <path d="m28.670895 7.4999995-0.143556 1.374023c-0.24598 2.3271455-1.01956 7.0692085-1.209961 7.4169925-0.117936 0.215429-0.522638 0.331006-1.162109 0.33496-1.186633 0.0074-1.935332 0.575735-1.838867 1.401368 0.04955 0.424078 0.243903 0.605528 0.827148 0.765625 1.004401 0.275699 0.991434 0.247839 0.526368 0.950196-0.443324 0.669524-0.50573 1.074337-0.581053 3.68457l-0.05468 1.756836-1.175782 0.05468c-0.646912 0.02954-1.213821 0.0923-1.257811 0.136724-0.04399 0.04442 0.03363 1.274433 0.170898 2.734375 0.13727 1.45994 0.191069 2.89807 0.116214 3.199219-0.100114 0.402763-0.496755 0.720372-1.497069 1.196286-0.747936 0.35584-1.693606 0.717651-2.098634 0.80664-0.405028 0.08898-1.134312 0.348326-1.626953 0.574219-0.49264 0.225876-1.165521 0.414333-1.490234 0.416993-0.974806 0.496288-1.407266 1.276206-2.100001 1.941405-0.33406 0.320785-0.31451 0.306193-1.122752 1.306193l-0.952061 1.448696v12s0 3 3 3h34c3 0 3-3 3-3s0.03674-0.26739 0-2c-0.07322-3.463163 0-0.4 0-6 0-1-0.85449-1.886885-1.208139-2.858404-0.353511-0.971521-1.217221-3.203701-1.91392-4.956056-0.696699-1.752352-1.377231-3.548658-1.517581-3.992186-0.304178-0.961305-0.659296-1.285203-1.585937-1.476564-0.853941-0.176344-1.115209-0.918334-0.943359-2.659178 0.132496-1.34216 0.05289-1.511525-1.606447-3.479493-0.864732-1.025565-1.042406-1.139558-1.845701-1.141602-0.531135-0.0014-1.289167-0.218435-1.873049-0.540038-0.538602-0.29666-1.291978-0.69048-1.674803-0.875l-0.697267-0.334962 0.334961-1.155273c0.393465-1.361049 1.552833-4.011197 2.625-6.015625 0.726281-1.35779 0.74473-1.449533 0.389648-1.845704-0.390432-0.435614-3.583028-2.1425067-4.894531-2.6181623-0.418911-0.1519308-0.956909-0.365876-1.196289-0.4716796-1.017167-0.4495876-3.763685-1.080079-4.703124-1.080079zm8.107423 15.045898c0.08336-0.05554 0.233996-0.02978 0.499024 0.0342 0.84819 0.204705 0.924269 0.266938 0.929687 0.806641 0.0027 0.264784 0.196616 0.730097 0.430665 1.032227 0.234052 0.302129 0.428 0.855733 0.430662 1.230468 0.0084 1.16081 0.456398 2.130997 1.476564 3.199218 1.022918 1.071049 1.122388 1.72266 0.266588 1.72266-0.736272 0-0.733936 0.579793 0 1.784179 0.817334 1.341237 2.077051 5.056831 1.886721 5.557617-0.214256 0.563808-0.450226 0.42707-1.654293-0.970718-0.754267-0.875633-1.668991-1.621421-2.700194-2.201173-1.735141-0.975514-2.756623-1.804602-2.754884-2.235352 6.5e-4 -0.156856 0.588179-1.056832 1.305665-1.996092 0.717486-0.939262 1.305665-1.797584 1.305665-1.914064s-0.38941-0.479902-0.868165-0.799806c-0.903378-0.603635-1.109127-0.95703-0.546876-0.95703 0.438964 0 0.410959-0.289917-0.129892-1.360352-0.368169-0.728686-0.404298-1.002379-0.211904-1.428712 0.130984-0.290273 0.232428-0.774496 0.232428-1.073242 0-0.24054 0.01932-0.375123 0.102536-0.430664zm2.816408 0.861329c0.07182-0.07466 0.2548-0.03793 0.540038 0.116214 0.265272 0.143343 0.395069 0.373244 0.3213 0.567382-0.173488 0.456484-0.452964 0.408439-0.738284-0.129878-0.154-0.290576-0.194852-0.479046-0.12306-0.55371z" style="fill:#d92113"/>
 <path d="m27.939451 16.475586c1.77767 0.270407 7.793016 2.578265 8.756835 3.458984 0.303556 0.277385 0.331811 0.474607 0.150388 1.196289-0.120064 0.477634-0.28026 0.869834-0.355468 0.868164-0.07521-0.0017-1.311775-0.803581-2.748044-1.78418-2.474231-1.689256-4.933597-3.053456-6.029297-3.342773-0.368865-0.0974-0.428882-0.191415-0.246093-0.375977 0.05394-0.05447 0.217728-0.05914 0.471679-0.0205z" style="fill:#f1d204"/>
 <path d="m18 4c-7.756 0-14 6.244-14 14v1c0-7.756 6.244-14 14-14h28c7.756 0 14 6.244 14 14v-1c0-7.756-6.244-14-14-14z" style="fill:#8b9cbe;opacity:.1"/>
 <path d="m28.669922 7.5-0.142578 1.3730469c-0.24598 2.3271451-1.020537 7.0701851-1.210938 7.4179691-0.117936 0.215429-0.522638 0.33003-1.162109 0.333984-1.186633 0.0074-1.934356 0.576711-1.837891 1.402344 0.017333 0.148346 0.063734 0.258983 0.126953 0.357422 0.255213-0.462148 0.868393-0.754512 1.710938-0.759766 0.639471-0.003954 1.044173-0.118555 1.162109-0.333984 0.190401-0.347784 0.964958-5.090824 1.210938-7.4179691l0.142578-1.3730469h1.019531c0.939439 0 3.685958 0.6304905 4.703125 1.0800781 0.23938 0.1058036 0.778355 0.318772 1.197266 0.4707029 1.311503 0.475655 4.504099 2.183527 4.894531 2.619141 0.013036 0.014544 0.015331 0.025261 0.027344 0.039062 0.293759-0.61529 0.238651-0.742287-0.027344-1.039062-0.390432-0.435614-3.583028-2.1434851-4.894531-2.6191408-0.418911-0.1519308-0.957886-0.3648995-1.197266-0.4707031-1.017167-0.4495876-3.763686-1.0800781-4.703125-1.0800781h-1.019531zm-3.095703 12.417969c-0.344623 0.584608-0.417733 1.132667-0.486328 3.509765l-0.052735 1.75586-1.175781 0.054687c-0.646912 0.02954-1.213822 0.092295-1.257813 0.136719-0.023808 0.024041-0.008314 0.427048 0.029297 0.994141 0.078629-0.044026 0.60524-0.102399 1.228516-0.13086l1.175781-0.054687 0.052735-1.75586c0.075323-2.610233 0.138707-3.016023 0.582031-3.685546 0.377382-0.569935 0.424332-0.663566-0.095703-0.824219zm11.814453 0.890625-0.253906 0.876953 0.697265 0.335937c0.382825 0.18452 1.135226 0.57834 1.673828 0.875 0.583882 0.321603 1.341912 0.537663 1.873047 0.539063 0.803295 0.002044 0.980971 0.117013 1.845703 1.142578 1.104153 1.309522 1.501222 1.825746 1.609375 2.417969 0.122071-1.276848 0.019791-1.485784-1.609375-3.417969-0.864732-1.025565-1.042408-1.140534-1.845703-1.142578-0.531135-0.0014-1.289165-0.21746-1.873047-0.539063-0.538602-0.29666-1.291003-0.69048-1.673828-0.875l-0.443359-0.21289zm2.396484 3.570312c-0.090377-0.019118-0.155496-0.008033-0.191406 0.029297-0.071792 0.074664-0.029 0.262158 0.125 0.552735 0.28532 0.538317 0.564793 0.587343 0.738281 0.130859 0.073769-0.194138-0.056993-0.425016-0.322265-0.568359-0.142619-0.077073-0.259232-0.125414-0.34961-0.144532zm-3.335937 0.652344c-0.002364 0.005408-0.003476 0.01425-0.00586 0.019531-0.192394 0.426333-0.157231 0.699049 0.210938 1.427735 0.071556 0.141622 0.110354 0.236129 0.164062 0.351562 0.392214-0.020072 0.357946-0.31842-0.164062-1.351562-0.087528-0.173237-0.153693-0.317296-0.205078-0.447266zm0.634765 2.582031c-0.004409 0.161782-0.101477 0.226563-0.298828 0.226563-0.562251 0-0.356503 0.353396 0.546875 0.957031 0.200671 0.134088 0.366492 0.270448 0.513672 0.398437 0.205988-0.305527 0.353516-0.545773 0.353516-0.599609 0-0.11648-0.388433-0.478924-0.867188-0.798828-0.102716-0.068635-0.163472-0.121581-0.248047-0.183594zm7.730469 0.865235c-0.081018 1.411897 0.186915 2.078441 0.960938 2.238281 0.926641 0.191361 1.281759 0.515257 1.585937 1.476562 0.14035 0.443528 0.820879 2.239836 1.517578 3.992188 0.696699 1.752355 1.558599 3.983557 1.91211 4.955078 0.345706 0.949699 1.166273 1.820297 1.203125 2.792969 0.001802-0.454561 0.005859-0.245829 0.005859-0.933594 0-1-0.855335-1.887856-1.208984-2.859375-0.353511-0.971521-1.215411-3.202723-1.91211-4.955078-0.696699-1.752352-1.377228-3.54866-1.517578-3.992188-0.304178-0.961305-0.659296-1.285201-1.585937-1.476562-0.56785-0.117265-0.870322-0.493385-0.960938-1.238281zm-3.707031 2.052734c-0.081858 0.02427-0.178623 0.041016-0.296875 0.041016-0.573199 0-0.684048 0.361991-0.365235 1.085937 0.090161-0.054429 0.20638-0.085937 0.365235-0.085937 0.65331 0 0.742806-0.384831 0.296875-1.041016zm-18.203125 0.5625c-0.005459 0.073375-0.006052 0.17633-0.015625 0.214844-0.100114 0.402763-0.497733 0.721351-1.498047 1.197265-0.747936 0.35584-1.692628 0.717652-2.097656 0.806641-0.405028 0.08898-1.134312 0.348326-1.626953 0.574219-0.49264 0.225876-1.165522 0.413355-1.490235 0.416015-0.974806 0.496288-1.408827 1.276208-2.101562 1.941407-0.33406 0.320785-0.314805 0.30664-1.123047 1.30664l-0.951172 1.449219v1l0.951172-1.449219c0.808242-1 0.788987-0.985855 1.123047-1.30664 0.692735-0.665199 1.126756-1.445119 2.101562-1.941407 0.324713-0.00266 0.997595-0.190139 1.490235-0.416015 0.492641-0.225893 1.221925-0.485239 1.626953-0.574219 0.405028-0.088989 1.34972-0.450801 2.097656-0.806641 1.000314-0.475914 1.397933-0.794502 1.498047-1.197265 0.038362-0.154334 0.038761-0.613377 0.015625-1.214844zm12.957031 1.888672c-0.159581 0.256562-0.273177 0.460529-0.273437 0.523437-0.001739 0.43075 1.020718 1.260815 2.755859 2.236329 1.031203 0.579752 1.944952 1.325538 2.699219 2.201171 1.204067 1.397788 1.440041 1.534512 1.654297 0.970703 0.044614-0.117388 0.006377-0.423577-0.083985-0.822265-0.205191 0.328245-0.519669 0.071242-1.570312-1.148438-0.754267-0.875633-1.668016-1.621419-2.699219-2.201171-1.23252-0.692936-2.081028-1.304881-2.482422-1.759766zm16.115234 14.185547c-0.013343 0.593371-0.019267 0.812151 0.023438 2.832031 0.009174 0.432644 0.006086 0.555647 0.007812 0.824219 0.008615-0.157349 0.01969-0.527272-0.007812-1.824219-0.030498-1.442478-0.027878-1.556428-0.023438-1.832031z" style="fill:#8b9cbe;opacity:.2"/>
</svg>
