<svg width="64" height="64" version="1.1" xmlns="http://www.w3.org/2000/svg">
 <rect x="6" y="8" width="52" height="48" rx="3.319149" ry="3" style="opacity:.2"/>
 <rect x="6" y="7" width="52" height="48" rx="3.319149" ry="3" style="fill:#5d5544"/>
 <path d="m21.015625 18a2.0002 2.0002 0 0 0-1.898437 1.328125l-4.527344 12.671875h-8.589844a2.0002 2.0002 0 1 0 0 4h10a2.0002 2.0002 0 0 0 1.882812-1.328125l2.847657-7.976563 5.33789 19.824219a2.0002 2.0002 0 0 0 3.837891 0.08203l4.226562-13.384765 1.988282 5.466797a2.0002 2.0002 0 0 0 3.292968 0.730468l3.414063-3.414061h15.171875a2.0002 2.0002 0 1 0 0-4h-16a2.0002 2.0002 0 0 0-1.414062 0.585938l-1.779297 1.779296-2.927735-8.048828a2.0002 2.0002 0 0 0-3.785156 0.08203l-3.939453 12.476564-5.222656-19.394531a2.0002 2.0002 0 0 0-1.916016-1.480469z" style="opacity:.2"/>
 <path d="m6 33h10l5-14 7 26 6-19 4 11 4-4h16" style="fill:none;stroke-linecap:round;stroke-linejoin:round;stroke-width:4;stroke:#ffbe23"/>
 <rect x="45" y="10" width="10" height="3" style="fill:#ffbe23;opacity:.5"/>
 <rect x="45" y="15" width="10" height="3" style="fill:#ffbe23"/>
 <rect x="45" y="20" width="10" height="3" style="fill:#ffbe23"/>
 <path d="m9.3183594 7c-1.8388086 0-3.3183594 1.338-3.3183594 3v1c0-1.662 1.4795508-3 3.3183594-3h45.363282c1.838808 0 3.318359 1.338 3.318359 3v-1c0-1.662-1.479551-3-3.318359-3h-45.363282z" style="fill:#8b9cbe;opacity:.1"/>
</svg>
