<svg xmlns="http://www.w3.org/2000/svg" width="64" height="64" version="1.1">
 <path style="opacity:0.2" d="m 4.0000004,52.222069 0,1.999971 c 0,1.539978 1.2495821,2.77796 2.80076,2.77796 L 57.20004,57 C 58.750017,57 60,55.762018 60,54.22204 l 0,-1.999971 c 0,1.539978 -1.249983,2.77796 -2.79996,2.77796 l -50.3992796,0 c -1.5503779,0 -2.79996,-1.237982 -2.79996,-2.77796 z"/>
 <path style="fill:#1e88e5" d="m 6.8007604,6.0003718 c -1.5511779,0 -2.80076,1.2383823 -2.80076,2.7773603 l 0,41.2234109 55.9991996,0 0,-41.2214109 c 0,-1.538978 -1.249983,-2.7773603 -2.79996,-2.7773603 l -50.3992796,0 z"/>
 <path style="fill:#253951" d="m 6.7999604,55.999657 c -1.5511779,0 -2.79996,-1.237982 -2.79996,-2.77796 l 0,-3.221954 55.9991996,0 0,3.222154 c 0,1.539978 -1.247983,2.77796 -2.79996,2.77796 z"/>
 <path style="opacity:0.1;fill:#8b9cbe" d="M 6.8007812 6 C 5.2496034 6 4 7.2383658 4 8.7773438 L 4 9.7773438 C 4 8.2383657 5.2496034 7 6.8007812 7 L 57.199219 7 C 58.749196 7 60 8.2383657 60 9.7773438 L 60 8.7773438 C 60 7.2383658 58.749196 6 57.199219 6 L 6.8007812 6 z"/>
</svg>
