<svg xmlns="http://www.w3.org/2000/svg" width="64" height="64" version="1">
 <path style="opacity:0.2" d="M 14.667,15.001 C 13.189,15.001 12,16.236 12,17.77 V 48.23 C 12,49.764 13.189,51 14.667,51 H 20 V 45 H 32 V 51 H 57.334 C 58.81,51 60,49.764 60,48.23 V 17.77 C 60,16.235 58.81,15 57.334,15 Z"/>
 <path style="fill:#419d45" d="M 14.667,14.001 C 13.189,14.001 12,15.236 12,16.77 V 47.23 C 12,48.764 13.189,50 14.667,50 H 20 V 44 H 32 V 50 H 57.334 C 58.81,50 60,48.764 60,47.23 V 16.77 C 60,15.235 58.81,14 57.334,14 Z"/>
 <rect style="fill:#4e4e4e" width="12" height="12" x="30" y="24" rx="2.4" ry="2.4"/>
 <path style="fill:none;stroke:#000000;stroke-width:4;stroke-linecap:round;stroke-linejoin:round;opacity:0.2" d="M 6.0233,11.024 H 10.005 V 53.005"/>
 <path style="fill:none;stroke:#b7b7b7;stroke-width:4;stroke-linecap:round;stroke-linejoin:round" d="M 6.0233,10.024 H 10.005 V 52.005"/>
 <g style="opacity:0.2" transform="translate(0,1)">
  <rect width="4" height="8" x="34" y="44"/>
  <rect width="4" height="8" x="40" y="44"/>
  <rect width="4" height="8" x="46" y="44"/>
  <rect width="4" height="8" x="52" y="44"/>
 </g>
 <g>
  <rect style="fill:#f8c44e" width="4" height="8" x="34" y="44"/>
  <rect style="fill:#f8c44e" width="4" height="8" x="40" y="44"/>
  <rect style="fill:#f8c44e" width="4" height="8" x="46" y="44"/>
  <rect style="fill:#f8c44e" width="4" height="8" x="52" y="44"/>
 </g>
 <g>
  <rect style="fill:#b7b7b7" width="2" height="4" x="32" y="21"/>
  <rect style="fill:#b7b7b7" width="2" height="4" x="38" y="21"/>
  <rect style="fill:#b7b7b7" width="2" height="4" x="32" y="35"/>
  <rect style="fill:#b7b7b7" width="2" height="4" x="38" y="35"/>
  <rect style="fill:#b7b7b7" width="2" height="4" x="26" y="-45" transform="rotate(90)"/>
  <rect style="fill:#b7b7b7" width="2" height="4" x="32" y="-45" transform="rotate(90)"/>
  <rect style="fill:#b7b7b7" width="2" height="4" x="26" y="-31" transform="rotate(90)"/>
  <rect style="fill:#b7b7b7" width="2" height="4" x="32" y="-31" transform="rotate(90)"/>
 </g>
 <path style="opacity:0.2;fill:#8b9cbe" d="M 6.0234 8.0234 A 2.0002 2.0002 0 0 0 4.0449 10.51 A 2.0002 2.0002 0 0 1 6.0234 9.0234 L 10.006 9.0234 A 2.0002 2.0002 0 0 1 12.006 11.023 L 12.006 10.023 A 2.0002 2.0002 0 0 0 10.006 8.0234 L 6.0234 8.0234 z"/>
 <path style="fill:#8b9cbe;opacity:0.2" d="M 57.334 14 L 14.668 14.002 C 13.19 14.002 12 15.236 12 16.77 L 12 17.77 C 12 16.236 13.19 15.002 14.668 15.002 L 57.334 15 C 58.81 15 60 16.235 60 17.77 L 60 16.77 C 60 15.235 58.81 14 57.334 14 z"/>
</svg>
