<svg width="64" height="64" version="1.1" xmlns="http://www.w3.org/2000/svg">
 <g>
  <rect x="4" y="4" width="56" height="56" rx="3" ry="3" style="fill:#cfc595"/>
  <path d="m7 4c-1.662 0-3 1.338-3 3v1c0-1.662 1.338-3 3-3h50c1.662 0 3 1.338 3 3v-1c0-1.662-1.338-3-3-3z" style="fill:#8b9cbe;opacity:.2"/>
  <g transform="matrix(1.9999364,0,0,2,9.181526e-4,1.0006)" style="opacity:.2">
   <path d="m5.7143 5h8.5714c0.395 0 0.714 0.3186 0.714 0.7143v8.5714c0 0.395-0.319 0.714-0.714 0.714h-8.5717c-0.3957 0-0.7143-0.319-0.7143-0.714v-8.5717c0-0.3957 0.3186-0.7143 0.7143-0.7143z"/>
   <path d="m17.714 5h8.5714c0.396 0 0.715 0.3186 0.715 0.7143v8.5714c0 0.395-0.319 0.714-0.714 0.714h-8.5714c-0.396 0-0.715-0.319-0.715-0.714v-8.5714c0-0.39571 0.31857-0.71429 0.71429-0.71429z"/>
  </g>
  <path d="m11.4292 10.0006h17.1428c0.79 0 1.428 0.6372 1.428 1.4286v17.1428c0 0.79-0.638 1.428-1.428 1.428h-17.1434c-0.7914 0-1.4286-0.638-1.4286-1.428v-17.1434c0-0.7914 0.6372-1.4286 1.4286-1.4286z" style="fill:#8b9cbe"/>
  <path d="M 35.427943,10 H 52.570057 C 53.362026,10 54,10.637219 54,11.428643 V 28.571957 C 54,29.361981 53.362026,30 52.572057,30 H 35.429943 C 34.637974,30 34,29.361981 34,28.571957 V 11.428643 c 0,-0.791444 0.637115,-1.428623 1.428523,-1.428623 z" style="fill:#c2352a"/>
  <g transform="matrix(1.9999364,0,0,2,9.181526e-4,25.0006)" style="opacity:.2">
   <path d="m5.7143 5h8.5714c0.395 0 0.714 0.3186 0.714 0.7143v8.5714c0 0.395-0.319 0.714-0.714 0.714h-8.5717c-0.3957 0-0.7143-0.319-0.7143-0.714v-8.5717c0-0.3957 0.3186-0.7143 0.7143-0.7143z"/>
   <path d="m17.714 5h8.5714c0.396 0 0.715 0.3186 0.715 0.7143v8.5714c0 0.395-0.319 0.714-0.714 0.714h-8.5714c-0.396 0-0.715-0.319-0.715-0.714v-8.5714c0-0.39571 0.31857-0.71429 0.71429-0.71429z"/>
  </g>
  <path d="m11.4292 34.0006h17.1428c0.79 0 1.428 0.6372 1.428 1.4286v17.1428c0 0.79-0.638 1.428-1.428 1.428h-17.1434c-0.7914 0-1.4286-0.638-1.4286-1.428v-17.1434c0-0.7914 0.6372-1.4286 1.4286-1.4286z" style="fill:#8b9cbe"/>
  <path d="M 35.427943,34 H 52.570057 C 53.362026,34 54,34.637219 54,35.428643 V 52.571957 C 54,53.361981 53.362026,54 52.572057,54 H 35.429943 C 34.637974,54 34,53.361981 34,52.571957 V 35.428643 c 0,-0.791444 0.637115,-1.428623 1.428523,-1.428623 z" style="fill:#8b9cbe"/>
  <path d="m4 57v1c0 1.662 1.338 3 3 3h50c1.662 0 3-1.338 3-3v-1c0 1.662-1.338 3-3 3h-50c-1.662 0-3-1.338-3-3z" style="opacity:.2"/>
 </g>
</svg>
