<svg xmlns="http://www.w3.org/2000/svg" width="64" height="64" version="1">
 <rect style="opacity:.2" width="56" height="56" x="4" y="5" rx="2.8" ry="2.8"/>
 <rect style="fill:#5985cb" width="56" height="56" x="4" y="4" rx="2.8" ry="2.8"/>
 <path style="stroke-linejoin:round;stroke:#4f4f4f;stroke-width:2;fill:none" d="m14 32h28"/>
 <path style="stroke-linejoin:round;stroke:#4f4f4f;stroke-width:2;fill:none" d="m27.8 32 6.2-14"/>
 <path style="stroke-linejoin:round;stroke:#4f4f4f;stroke-width:2;fill:none" d="m28 32 6 14h14"/>
 <g style="opacity:.2" transform="matrix(2,0,0,2,0,1)">
  <circle cx="7" cy="16" r="2"/>
  <circle cx="14" cy="16" r="2"/>
  <circle cx="21" cy="16" r="2"/>
  <circle cx="17" cy="23" r="2"/>
  <circle cx="24" cy="23" r="2"/>
  <circle cx="17" cy="9" r="2"/>
 </g>
 <g transform="scale(2)">
  <circle style="fill:#8b9cbe" cx="7" cy="16" r="2"/>
  <circle style="fill:#8b9cbe" cx="14" cy="16" r="2"/>
  <circle style="fill:#8b9cbe" cx="21" cy="16" r="2"/>
  <circle style="fill:#8b9cbe" cx="17" cy="23" r="2"/>
  <circle style="fill:#8b9cbe" cx="24" cy="23" r="2"/>
  <circle style="fill:#8b9cbe" cx="17" cy="9" r="2"/>
 </g>
 <path style="opacity:.2;fill:#8b9cbe" d="m6.8007812 4c-1.5512 0-2.8007812 1.2495812-2.8007812 2.8007812v1c0-1.5511999 1.2495812-2.8007812 2.8007812-2.8007812h50.3984378c1.5512 0 2.800781 1.2495812 2.800781 2.8007812v-1c0-1.5511999-1.249581-2.8007812-2.800781-2.8007812h-50.3984378z"/>
</svg>
