<svg xmlns="http://www.w3.org/2000/svg" width="64" height="64" version="1">
 <path style="opacity:0.2" d="m 4.0507997,32.000415 c -0.0118,0.333995 -0.050799,0.66199 -0.050799,0.999985 C 4.0000004,48.512179 16.487822,61 31.9996,61 47.511378,61 59.9992,48.512179 59.9992,33.0004 c 0,-0.337675 -0.03904,-0.66527 -0.05078,-0.999985 C 59.420428,47.0422 47.172603,59.000029 31.99882,59.000029 16.824637,59.000029 4.5772122,47.0422 4.0492197,32.000415 Z"/>
 <rect style="fill:#587de6" width="56" height="56" x="4" y="4" rx="28" ry="28"/>
 <g style="enable-background:new" transform="matrix(2.3333666,0,0,2.2857673,13.333267,13.71489)">
  <g transform="translate(-347,251)">
   <path style="opacity:0.5" d="m 355,-250 c -2.4,0 -4.408,1.1693 -4.2857,4.0833 l 0,2.0417 -0.71429,0 c -0.554,0 -1,0.4085 -1,0.9625 l 0,5.9125 c 0,0.554 0.446,1 1,1 l 10,0 c 0.554,0 1,-0.446 1,-1 l 0,-5.9125 c 0,-0.554 -0.43805,-0.9625 -1,-0.9625 l -0.71429,0 0,-2.0417 c 0,-2.91 -1.89,-4.08 -4.29,-4.08 z m 0,1.75 c 1.2,0 2.5714,0.42065 2.5714,2.3333 l 0,2.0417 -5.1429,0 0,-2.0417 c 0,-1.8938 1.3714,-2.3333 2.5714,-2.3333 z"/>
  </g>
 </g>
 <path style="opacity:0.2;fill:#8b9cbe" d="M 32 4 C 16.488222 4 4 16.488222 4 32 C 4 32.113554 4.0112846 32.224034 4.0175781 32.335938 C 4.3691163 17.134398 16.710946 5 32 5 C 47.289054 5 59.630884 17.134398 59.982422 32.335938 C 59.988797 32.224034 60 32.113554 60 32 C 60 16.488222 47.511778 4 32 4 z"/>
</svg>
