<svg xmlns="http://www.w3.org/2000/svg" width="64" height="64" version="1.1">
 <path style="opacity:0.2" d="M 32,5 A 28,28 0 0 0 4,33 28,28 0 0 0 32,61 28,28 0 0 0 60,33 28,28 0 0 0 32,5 Z"/>
 <path style="fill:#5ca742" d="M 32,4 A 28,28 0 0 0 4,32 28,28 0 0 0 32,60 28,28 0 0 0 60,32 28,28 0 0 0 32,4 Z"/>
 <g style="opacity:0.2" transform="matrix(2,0,0,2,0,1)">
  <path d="m 16,5 a 6,6 0 0 0 -6,6 6,6 0 0 0 6,6 6,6 0 0 0 6,-6 6,6 0 0 0 -6,-6 z m 0,1 a 2.9999997,2.9999997 0 0 1 3,3 2.9999997,2.9999997 0 0 1 -3,3 2.9999997,2.9999997 0 0 1 -3,-3 2.9999997,2.9999997 0 0 1 3,-3 z"/>
  <path d="m 13,15 v 9.933594 L 16,27 19,24.933594 v -0.867188 l 1,-1 -1,-1 V 21 L 21,19.5 19,18 v -3 z m 1,3 h 1 v 6 h -1 z"/>
 </g>
 <g transform="scale(2)">
  <path style="fill:#8b9cbe" d="m 16,5 a 6,6 0 0 0 -6,6 6,6 0 0 0 6,6 6,6 0 0 0 6,-6 6,6 0 0 0 -6,-6 z m 0,1 a 2.9999997,2.9999997 0 0 1 3,3 2.9999997,2.9999997 0 0 1 -3,3 2.9999997,2.9999997 0 0 1 -3,-3 2.9999997,2.9999997 0 0 1 3,-3 z"/>
  <path style="fill:#8b9cbe" d="m 13,15 v 9.933594 L 16,27 19,24.933594 v -0.867188 l 1,-1 -1,-1 V 21 L 21,19.5 19,18 v -3 z m 1,3 h 1 v 6 h -1 z"/>
 </g>
 <path style="opacity:0.2;fill:#8b9cbe" d="M 32 4 A 28 28 0 0 0 4 32 A 28 28 0 0 0 4.0214844 32.40625 A 28 28 0 0 1 32 5 A 28 28 0 0 1 59.978516 32.578125 A 28 28 0 0 0 60 32 A 28 28 0 0 0 32 4 z"/>
</svg>
