<svg width="64" height="64" version="1.1" xmlns="http://www.w3.org/2000/svg">
 <path d="m12 5c-1.656786 1.657e-4 -2.9998343 1.3432144-3 3v50c1.657e-4 1.656786 1.343214 2.999834 3 3 5.512114-0.109097 10.514933 0 16 0 1.656786-1.66e-4 2.999834-1.343214 3-3v-4.578125l2.203125 5.666016c0.448794 1.153135 1.559484 1.912468 2.796875 1.912109 5.512114-0.109103 10.514932 0 16 0 2.077166-7.03e-4 3.525196-2.061012 2.822266-4.015625l-8.632813-23.984375 8.632813-23.984375c0.70293-1.9546127-0.7451-4.0149224-2.822266-4.015625-5.512136 0.1090851-10.514899 0-16 0-1.237391-3.59e-4 -2.348081 0.758974-2.796875 1.9121094l-2.203125 5.6660156v-4.578125c-1.66e-4 -1.6567856-1.343214-2.9998343-3-3-5.512114 0.1090977-10.514933 0-16 0z" style="opacity:.2"/>
 <path d="m12 4c-1.656786 1.657e-4 -2.9998343 1.3432144-3 3v50c1.657e-4 1.656786 1.343214 2.999834 3 3 5.512114-0.109097 10.514933 0 16 0 1.656786-1.66e-4 2.999834-1.343214 3-3v-4.578125l2.203125 5.666016c0.448794 1.153135 1.559484 1.912468 2.796875 1.912109 5.512114-0.109103 10.514932 0 16 0 2.077166-7.03e-4 3.525196-2.061012 2.822266-4.015625l-8.632813-23.984375 8.632813-23.984375c0.70293-1.9546127-0.7451-4.0149224-2.822266-4.015625-5.512136 0.1090851-10.514899 0-16 0-1.237391-3.59e-4 -2.348081 0.758974-2.796875 1.9121094l-2.203125 5.6660156v-4.578125c-1.66e-4 -1.6567856-1.343214-2.9998343-3-3-5.512114 0.1090977-10.514933 0-16 0z" style="fill:#b2bfd9"/>
 <path d="m12 8v50h7v-50zm9 0v24h14l8-24h-7l-7 18h-1v-18zm24 0-9 25 9 25h7l-9-25 9-25zm-24 26v24h7v-18h1l7 18h7l-8-24z" style="opacity:.1"/>
 <path d="m12 7v35l3 3 4-3v-35h-7zm9 0v24h14l8-24h-7l-7 18h-1v-18h-7zm24 0-9 25 3.599609 10 4.400391 3 2.599609-3-3.599609-10 9-25h-7zm-24 26v9l4 3 3-3v-3h1l1.166016 3 4.833984 3 3-3-3-9h-14z" style="fill:#4567b9"/>
 <path d="m12 42v15h7v-15h-7zm9 0v15h7v-15h-7zm9.166016 0 5.833984 15h7l-5-15h-7.833984zm9.433593 0 5.400391 15h7l-5.400391-15h-7z" style="fill:#cf7000"/>
 <path d="m12 4c-1.656786 1.657e-4 -2.9998343 1.3432144-3 3v1c1.657e-4 -1.6567856 1.343214-2.9998343 3-3 5.485067 0 10.487886 0.1090977 16 0 1.656786 1.657e-4 2.999834 1.3432144 3 3v-1c-1.66e-4 -1.6567856-1.343214-2.9998343-3-3-5.512114 0.1090977-10.514933 0-16 0zm24 0c-1.237391-3.59e-4 -2.348081 0.758974-2.796875 1.9121094l-2.203125 5.6660156v1l2.203125-5.6660156c0.448794-1.1531354 1.559484-1.9124684 2.796875-1.9121094 5.485101 0 10.487864 0.1090851 16 0 1.521985 5.148e-4 2.697533 1.1104565 2.945312 2.4707031 0.287625-1.7742164-1.060798-3.4700657-2.945312-3.4707031-5.512136 0.1090851-10.514899 0-16 0zm10.369141 28.5-0.179688 0.5 8.632813 23.984375c0.065195 0.181286 0.093643 0.363545 0.123046 0.544922 0.090384-0.496183 0.064831-1.022497-0.123046-1.544922l-8.453125-23.484375z" style="fill:#8b9cbe;opacity:.2"/>
</svg>
