<svg xmlns="http://www.w3.org/2000/svg" width="64" height="64" version="1">
 <rect style="opacity:0.2" width="50" height="56" x="-58" y="-60" rx="2.778" ry="2.8" transform="matrix(0,-1,-1,0,0,0)"/>
 <rect style="fill:#b2bfd9" width="50" height="56" x="-57" y="-60" rx="2.778" ry="2.8" transform="matrix(0,-1,-1,0,0,0)"/>
 <rect style="fill:#a6a6a6" width="22" height="11" x="7" y="34" rx="1.375" ry="1.375"/>
 <rect style="fill:#a6a6a6" width="22" height="11" x="35" y="34" rx="1.375" ry="1.375"/>
 <path style="opacity:0.1" d="m 25.675781,26.521275 -7.710937,8.996094 -1.4375,-1.234375 a 1.0940471,1.0076259 34.165177 0 0 -1.726563,0.511719 l -0.49414,2.96289 -0.492188,2.964844 a 1.0940471,1.0076259 34.165177 0 0 0.423828,1.029297 1.0940471,1.0076259 34.165177 0 0 1.011719,0.205078 l 2.931641,-0.871093 2.933593,-0.869141 a 1.0940471,1.0076259 34.165177 0 0 0.291016,-1.744141 l -1.394531,-1.197265 7.71289,-8.996094 z m 12.648438,0 -2.048828,1.757813 7.626953,8.898437 -1.507813,1.294922 a 1.0076259,1.0940471 55.834823 0 0 0.291016,1.744141 l 2.933594,0.869141 2.93164,0.871093 A 1.0076259,1.0940471 55.834823 0 0 49.5625,41.751744 1.0076259,1.0940471 55.834823 0 0 49.986328,40.722447 L 49.494141,37.757603 49,34.794713 a 1.0076259,1.0940471 55.834823 0 0 -1.726562,-0.511719 l -1.322266,1.134766 z"/>
 <path style="fill:none;stroke:#17191e;stroke-width:2.70000005" d="m 26.699996,26.4 -8.4,9.8 v 0"/>
 <path style="fill:none;stroke:#17191e;stroke-width:2.70000005" d="m 37.299996,26.4 8.4,9.8"/>
 <path style="fill:#525252" d="m 14.23807,40.75274 a 1.0940471,1.0076259 34.165177 0 0 1.011066,0.203896 l 2.932175,-0.870235 2.933766,-0.868871 a 1.0940471,1.0076259 34.165177 0 0 0.29056,-1.743963 l -2.437709,-2.093841 -2.440884,-2.096567 a 1.0940471,1.0076259 34.165177 0 0 -1.726196,0.510864 l -0.494465,2.964081 -0.492877,2.96544 a 1.0940471,1.0076259 34.165177 0 0 0.424567,1.029197 z"/>
 <rect style="opacity:0.1" width="22" height="11" x="21" y="18" rx="1.375" ry="1.375"/>
 <rect style="fill:#a6a6a6" width="22" height="11" x="21" y="17" rx="1.375" ry="1.375"/>
 <path style="fill:#525252" d="m 49.561931,40.75274 a 1.0076259,1.0940471 55.834823 0 1 -1.011067,0.203896 L 45.61869,40.086401 42.684924,39.21753 a 1.0076259,1.0940471 55.834823 0 1 -0.29056,-1.743963 l 2.437709,-2.093841 2.440884,-2.096567 a 1.0076259,1.0940471 55.834823 0 1 1.726196,0.510864 l 0.494465,2.964081 0.492877,2.96544 a 1.0076259,1.0940471 55.834823 0 1 -0.424568,1.029197 z"/>
 <path style="fill:#8b9cbe;opacity:0.2" d="M 6.8007812 7 C 5.2495813 7 4 8.2384549 4 9.7773438 L 4 10.777344 C 4 9.2384549 5.2495813 8 6.8007812 8 L 57.199219 8 C 58.750419 8 60 9.2384549 60 10.777344 L 60 9.7773438 C 60 8.2384549 58.750419 7 57.199219 7 L 6.8007812 7 z"/>
</svg>
