<svg xmlns="http://www.w3.org/2000/svg" width="64" height="64" version="1">
 <path style="opacity:0.2" d="M 32.167969,7.0000003 C 28.791762,6.9827098 25.354155,7.6289921 22.03125,9.0097659 8.7396275,14.53312 2.48589,29.67908 8.0097656,42.970703 13.532991,56.262326 28.677128,62.516063 41.96875,56.992188 55.260373,51.469612 61.514109,36.322872 55.990234,23.03125 51.848301,13.062403 42.293991,7.0520019 32.167969,7.0000003 Z M 32,19 A 14,14 0 0 1 46,33 14,14 0 0 1 32,47 14,14 0 0 1 18,33 14,14 0 0 1 32,19 Z"/>
 <path style="fill:#b2bfd9" d="M 32.167969 6 C 28.791762 5.9827095 25.354155 6.6289918 22.03125 8.0097656 C 8.7396275 13.53312 2.48589 28.67908 8.0097656 41.970703 C 13.532991 55.262326 28.677128 61.516063 41.96875 55.992188 C 55.260373 50.469612 61.514109 35.322872 55.990234 22.03125 C 51.848301 12.062403 42.293991 6.0520016 32.167969 6 z M 32 18 A 14 14 0 0 1 46 32 A 14 14 0 0 1 32 46 A 14 14 0 0 1 18 32 A 14 14 0 0 1 32 18 z"/>
 <path style="fill:#8b9cbe;opacity:0.2" d="M 32.167969 6 C 28.791762 5.9827095 25.354155 6.6289918 22.03125 8.0097656 C 11.861569 12.235792 5.8203265 22.095543 6.0136719 32.447266 C 6.2137216 22.46492 12.189204 13.09769 22.03125 9.0078125 C 25.354155 7.6270387 28.791762 6.9807564 32.167969 6.9980469 C 42.293991 7.0500485 51.848301 13.06045 55.990234 23.029297 C 57.287813 26.151548 57.927085 29.3765 57.986328 32.554688 C 58.056637 29.055441 57.424031 25.481272 55.990234 22.03125 C 51.848301 12.062403 42.293991 6.0520016 32.167969 6 z M 45.978516 32.412109 A 14 14 0 0 1 32 46 A 14 14 0 0 1 18.021484 32.585938 A 14 14 0 0 0 18 32.998047 A 14 14 0 0 0 32 46.998047 A 14 14 0 0 0 46 32.998047 A 14 14 0 0 0 45.978516 32.412109 z"/>
 <path style="opacity:0.2" d="m 32.167223,4.0003443 c -3.219429,-0.016598 -6.487369,0.5678334 -9.653067,1.7882043 a 2.4249548,2.4483036 0 0 0 -1.402513,3.1583515 l 4.307334,11.4169959 a 2.4249548,2.4483036 0 0 0 3.128683,1.418696 c 1.100769,-0.424409 2.271369,-0.64303 3.449643,-0.644617 1.17745,0.0044 2.342496,0.226098 3.441551,0.652708 a 2.4249548,2.4483036 0 0 0 3.134078,-1.413301 L 42.888357,8.944203 A 2.4249548,2.4483036 0 0 0 41.483147,5.7831542 C 38.542545,4.6524208 35.39527,4.016985 32.167223,4.0003443 Z M 7.0622377,21.952512 a 2.4483036,2.4249548 0 0 0 -2.2736894,1.561644 c -1.2203705,3.165698 -1.8048032,6.433638 -1.7882043,9.653067 0.016642,3.228047 0.652076,6.375322 1.7828099,9.315924 a 2.4483036,2.4249548 0 0 0 3.1610488,1.40521 L 19.377382,39.575629 a 2.4483036,2.4249548 0 0 0 1.413301,-3.136775 c -0.426609,-1.099055 -0.648289,-2.264101 -0.652708,-3.441551 0.0016,-1.178274 0.220208,-2.348874 0.644617,-3.449643 A 2.4483036,2.4249548 0 0 0 19.363896,26.418977 L 7.9468998,22.111643 A 2.4483036,2.4249548 0 0 0 7.0622377,21.952512 Z m 49.8755253,0 A 2.4483036,2.4249548 0 0 0 56.0531,22.111643 l -11.416996,4.307334 a 2.4483036,2.4249548 0 0 0 -1.418696,3.128683 c 0.424409,1.100769 0.64303,2.271369 0.644617,3.449643 -0.0044,1.17745 -0.226099,2.342496 -0.652708,3.441551 a 2.4483036,2.4249548 0 0 0 1.413301,3.136775 l 11.433179,4.312728 a 2.4483036,2.4249548 0 0 0 3.161049,-1.40521 c 1.130732,-2.940601 1.76617,-6.087877 1.78281,-9.315924 0.0166,-3.219429 -0.567834,-6.487369 -1.788204,-9.653067 A 2.4483036,2.4249548 0 0 0 56.937763,21.952512 Z M 36.388247,44.050185 a 2.4249548,2.4483036 0 0 0 -0.949393,0.159132 c -1.099055,0.426609 -2.264101,0.648289 -3.441551,0.652708 -1.178274,-0.0016 -2.348874,-0.220208 -3.449643,-0.644617 a 2.4249548,2.4483036 0 0 0 -3.128683,1.418696 L 21.111643,57.0531 a 2.4249548,2.4483036 0 0 0 1.402513,3.158352 c 3.165698,1.22037 6.433638,1.804803 9.653067,1.788204 3.228047,-0.01664 6.375323,-0.652077 9.315924,-1.78281 a 2.4249548,2.4483036 0 0 0 1.40521,-3.161049 L 38.572932,45.622618 a 2.4249548,2.4483036 0 0 0 -2.184685,-1.572433 z"/>
 <path style="fill:#e74c3c" d="M 32.167223,3.000344 C 28.947794,2.983746 25.679854,3.5681774 22.514156,4.7885483 a 2.4249548,2.4483036 0 0 0 -1.402513,3.1583515 l 4.307334,11.4169962 a 2.4249548,2.4483036 0 0 0 3.128683,1.418696 c 1.100769,-0.424409 2.271369,-0.64303 3.449643,-0.644617 1.17745,0.0044 2.342496,0.226098 3.441551,0.652708 a 2.4249548,2.4483036 0 0 0 3.134078,-1.413301 L 42.888357,7.9442027 A 2.4249548,2.4483036 0 0 0 41.483147,4.7831539 C 38.542545,3.6524205 35.39527,3.0169847 32.167223,3.000344 Z M 7.0622377,20.952512 a 2.4483036,2.4249548 0 0 0 -2.2736894,1.561644 c -1.2203705,3.165698 -1.8048032,6.433638 -1.7882043,9.653067 0.016642,3.228047 0.652076,6.375322 1.7828099,9.315924 a 2.4483036,2.4249548 0 0 0 3.1610488,1.40521 L 19.377382,38.575629 a 2.4483036,2.4249548 0 0 0 1.413301,-3.136775 c -0.426609,-1.099055 -0.648289,-2.264101 -0.652708,-3.441551 0.0016,-1.178274 0.220208,-2.348874 0.644617,-3.449643 A 2.4483036,2.4249548 0 0 0 19.363896,25.418977 L 7.9468998,21.111643 A 2.4483036,2.4249548 0 0 0 7.0622377,20.952512 Z m 49.8755253,0 A 2.4483036,2.4249548 0 0 0 56.0531,21.111643 l -11.416996,4.307334 a 2.4483036,2.4249548 0 0 0 -1.418696,3.128683 c 0.424409,1.100769 0.64303,2.271369 0.644617,3.449643 -0.0044,1.17745 -0.226099,2.342496 -0.652708,3.441551 a 2.4483036,2.4249548 0 0 0 1.413301,3.136775 l 11.433179,4.312728 a 2.4483036,2.4249548 0 0 0 3.161049,-1.40521 c 1.130732,-2.940601 1.76617,-6.087877 1.78281,-9.315924 0.0166,-3.219429 -0.567834,-6.487369 -1.788204,-9.653067 A 2.4483036,2.4249548 0 0 0 56.937763,20.952512 Z M 36.388247,43.050185 a 2.4249548,2.4483036 0 0 0 -0.949393,0.159132 c -1.099055,0.426609 -2.264101,0.648289 -3.441551,0.652708 -1.178274,-0.0016 -2.348874,-0.220208 -3.449643,-0.644617 a 2.4249548,2.4483036 0 0 0 -3.128683,1.418696 L 21.111643,56.0531 a 2.4249548,2.4483036 0 0 0 1.402513,3.158352 c 3.165698,1.22037 6.433638,1.804803 9.653067,1.788204 3.228047,-0.01664 6.375323,-0.652077 9.315924,-1.78281 a 2.4249548,2.4483036 0 0 0 1.40521,-3.161049 L 38.572932,44.622618 a 2.4249548,2.4483036 0 0 0 -2.184685,-1.572433 z"/>
</svg>
