<svg xmlns="http://www.w3.org/2000/svg" width="64" height="64" version="1">
 <path style="opacity:.2" d="M 14.245065,45 C 9.9730745,45 3,47.448525 3,53.238796 v 1.182257 C 3,57.51179 5.4882105,60 8.5789472,60 H 50.421051 c 3.090737,0 5.578947,-2.48821 5.578947,-5.578947 v -2.789474 c 0,0 0,5.368421 -9.763157,5.368421 C 34.781598,57 25.315179,45 14.245065,45 Z"/>
 <path style="fill:#737373" d="m55.259329 53.990799 0.740669-2.203777v-40.208073c0-3.0907369-2.48821-5.5789474-5.578947-5.5789474h-41.842104c-3.0907367 0-5.5789472 2.4882105-5.5789472 5.5789474v40.1511l0.6717209 1.691004c1.1410131 2.87241 2.5571587 4.553405 5.6478954 4.553405h40.075894c3.090736 0 4.879174-1.053962 5.863819-3.983659z"/>
 <path style="opacity:.2" d="m29.5 14c-9.664982 0-17.5 7.835017-17.5 17.5v0.5h35v-0.5c0-9.664983-7.835016-17.5-17.5-17.5z"/>
 <path style="fill:#ffc832" d="m29.5 13c-9.664982 0-17.5 7.835017-17.5 17.5v0.5h35v-0.5c0-9.664983-7.835016-17.5-17.5-17.5z"/>
 <path style="fill:#f3597e" d="m23 22h0.692307l8.307693 9h-6.923077z"/>
 <path style="opacity:.2" d="m48.006696 35c-3.470441 0-7.883127 1.187107-8.006696 6.66071 0.04351 4.551424 2.110143 6.850441 4.464355 6.193425 2.777279-1.518929 2.711186 1.078016 2.816499 1.974157 0.545151 1.809482 1.603832 2.282589 3.23967 2.151127h0.0981v0.0083h1.434871v-0.0055l0.425979-0.0028c1.635838 0.131459 2.697321-0.341646 3.242473-2.151127 0.105311-0.896141 0.03642-3.493087 2.813696-1.974157 2.354211 0.657016 4.420835-1.642001 4.464355-6.193425-0.123567-5.473488-4.536255-6.660652-8.006696-6.660652h-4.374681z"/>
 <path style="fill:#f3597e" d="m48.006696 34c-3.470441 0-7.883127 1.187107-8.006696 6.66071 0.04351 4.551424 2.110143 6.850441 4.464355 6.193425 2.777279-1.518929 2.711186 1.078016 2.816499 1.974157 0.545151 1.809482 1.603832 2.282589 3.23967 2.151127h0.0981v0.0083h1.434871v-0.0055l0.425979-0.0028c1.635838 0.131459 2.697321-0.341646 3.242473-2.151127 0.105311-0.896141 0.03642-3.493087 2.813696-1.974157 2.354211 0.657016 4.420835-1.642001 4.464355-6.193425-0.123567-5.473488-4.536255-6.660652-8.006696-6.660652h-4.374681z"/>
 <path style="fill:#b2bfd9" d="M 14.245065,44 C 9.9730745,44 3,46.448525 3,52.238796 v 1.182257 C 3,56.51179 5.4882105,59 8.5789472,59 H 50.421051 c 3.090737,0 5.578947,-2.48821 5.578947,-5.578947 v -2.789474 c 0,0 0,5.368421 -9.763157,5.368421 C 34.781598,56 25.315179,44 14.245065,44 Z"/>
 <path style="fill:#17191e" d="m17 44.246094v14.753906h3v-13.988281c-0.990855-0.326804-1.989374-0.593324-3-0.765625zm-8 0.765625c-1.0715951 0.408712-2.1010767 0.948418-3 1.625v11.732422c0.7710315 0.401221 1.6456037 0.630859 2.578125 0.630859h0.421875v-13.988281zm19 3.798828v10.189453h3v-8.490234c-1.000417-0.57641-2.001876-1.131395-3-1.699219zm11 5.708984v4.480469h3v-3.523438c-1.013174-0.242908-2.010048-0.580772-3-0.957031zm14 0.136719c-0.776833 0.413456-1.766658 0.762842-3 1.003906v3.339844h0.421875c0.932521 0 1.807094-0.229638 2.578125-0.630859v-3.712891z"/>
 <path style="opacity:.2" d="m14.244141 44c-4.2719909 0-11.244141 2.44801-11.244141 8.238281v1c0-5.790271 6.9721501-8.238281 11.244141-8.238281 11.070114 0 20.536944 12 31.992187 12 9.763157 0 9.763672-5.369141 9.763672-5.369141v-1s-5.15e-4 5.369141-9.763672 5.369141c-11.455243 0-20.922073-12-31.992187-12z"/>
 <path style="fill:#8b9cbe;opacity:.1" d="M 8.578125 6 C 5.4873883 6 3 8.4873881 3 11.578125 L 3 12.578125 C 3 9.4873881 5.4873883 7 8.578125 7 L 50.421875 7 C 53.512612 7 56 9.4873881 56 12.578125 L 56 11.578125 C 56 8.4873881 53.512612 6 50.421875 6 L 8.578125 6 z"/>
 <path style="fill:#8b9cbe;opacity:.2" d="m29.5 13c-9.664982 0-17.5 7.835017-17.5 17.5v0.5h0.025391c0.267138-9.431543 7.978452-17 17.474609-17 9.496159 0 17.207471 7.568457 17.474609 17h0.025391v-0.5c0-9.664983-7.835016-17.5-17.5-17.5z"/>
 <path style="fill:#8b9cbe;opacity:.2" d="m48.005859 34c-3.470441 0-7.88229 1.186553-8.005859 6.660156 0.00178 0.18617 0.026726 0.344853 0.035156 0.523438 0.368735-5.055959 4.606109-6.183594 7.970703-6.183594h2.613282 0.859375 0.574218 2.941407c3.364594 0 7.60197 1.127736 7.970703 6.183594 0.008431-0.178585 0.033376-0.337268 0.035156-0.523438-0.123567-5.473488-4.535418-6.660156-8.005859-6.660156h-2.941407-0.574218-0.859375-2.613282z"/>
</svg>
