<svg xmlns="http://www.w3.org/2000/svg" width="64" height="64" version="1">
 <rect style="opacity:0.2" width="56" height="56" x="4" y="5" rx="2.8" ry="2.8"/>
 <rect style="fill:#efe1cb" width="56" height="56" x="4" y="4" rx="2.8" ry="2.8"/>
 <path style="fill:#d8b67e" d="m 11,4 -7,7 7,7 7,-7 z m 7,7 7,7 7,-7 -7,-7 z m 14,0 7,7 7,-7 -7,-7 z m 14,0 7,7 7,-7 -7,-7 z m 7,7 -7,7 7,7 7,-7 z m 0,14 -7,7 7,7 7,-7 z m 0,14 -7,7 7,7 7,-7 z m -7,7 -7,-7 -7,7 7,7 z m -14,0 -7,-7 -7,7 7,7 z m -14,0 -7,-7 -7,7 7,7 z m -7,-7 7,-7 -7,-7 -7,7 z m 0,-14 7,-7 -7,-7 -7,7 z m 7,-7 7,7 7,-7 -7,-7 z m 14,0 7,7 7,-7 -7,-7 z m 7,7 -7,7 7,7 7,-7 z m -7,7 -7,-7 -7,7 7,7 z"/>
 <path style="opacity:0.1" d="M 11 4 L 4 11 L 4.5 11.5 L 11 5 L 17.5 11.5 L 18 11 L 11 4 z M 18 11 L 18.5 11.5 L 25 5 L 31.5 11.5 L 32 11 L 25 4 L 18 11 z M 32 11 L 32.5 11.5 L 39 5 L 45.5 11.5 L 46 11 L 39 4 L 32 11 z M 46 11 L 46.5 11.5 L 53 5 L 59.5 11.5 L 60 11 L 53 4 L 46 11 z M 11 18 L 4 25 L 4.5 25.5 L 11 19 L 17.5 25.5 L 18 25 L 11 18 z M 18 25 L 18.5 25.5 L 25 19 L 31.5 25.5 L 32 25 L 25 18 L 18 25 z M 32 25 L 32.5 25.5 L 39 19 L 45.5 25.5 L 46 25 L 39 18 L 32 25 z M 46 25 L 46.5 25.5 L 53 19 L 59.5 25.5 L 60 25 L 53 18 L 46 25 z M 11 32 L 4 39 L 4.5 39.5 L 11 33 L 17.5 39.5 L 18 39 L 11 32 z M 18 39 L 18.5 39.5 L 25 33 L 31.5 39.5 L 32 39 L 25 32 L 18 39 z M 32 39 L 32.5 39.5 L 39 33 L 45.5 39.5 L 46 39 L 39 32 L 32 39 z M 46 39 L 46.5 39.5 L 53 33 L 59.5 39.5 L 60 39 L 53 32 L 46 39 z M 11 46 L 4 53 L 4.5 53.5 L 11 47 L 17.5 53.5 L 18 53 L 11 46 z M 18 53 L 18.5 53.5 L 25 47 L 31.5 53.5 L 32 53 L 25 46 L 18 53 z M 32 53 L 32.5 53.5 L 39 47 L 45.5 53.5 L 46 53 L 39 46 L 32 53 z M 46 53 L 46.5 53.5 L 53 47 L 59.5 53.5 L 60 53 L 53 46 L 46 53 z"/>
 <path style="opacity:0.1" d="m 35.152344,13 -9.695312,0.0039 c -1.656224,-0.08198 -1.378908,1.347656 -1.378908,1.347656 l 1.265626,3.136719 c 0,0 -10.51557,12.168337 -6.355469,16.429687 4.450475,4.558786 11.205149,-6.771978 12.523437,-4.296874 C 34.242492,34.74815 24.898244,43.622816 21.027344,47.0039 19.348639,47.016608 18,48.34594 18,50 c 0,1.662 1.360845,3 3.050782,3 h 21.898436 c 1.689936,0 3.046876,-1.338 3.046876,-3 0,-1.48071 -1.081082,-2.696004 -2.511718,-2.945312 C 42.663162,46.132508 41.70967,45.049614 41.75,43.9375 41.9041,39.68861 46.108354,33.365168 45.996094,27.367188 45.867492,20.496012 42.042122,14.381049 35.152344,13 Z"/>
 <rect style="fill:#514e48" width="27.998" height="6" x="18" y="46" rx="3.05" ry="3.49"/>
 <path style="fill:#514e48" d="m 25.458324,12.003455 9.695358,-0.0035 c 6.889778,1.381049 10.715508,7.497964 10.84411,14.369141 0.11226,5.99798 -4.093782,12.32051 -4.247882,16.5694 -0.06932,1.91149 2.875036,3.809934 2.847994,4.775746 l -25.444631,-0.09782 c 0,0 15.747095,-12.628766 12.357061,-18.9936 -1.318288,-2.475104 -8.071252,8.853928 -12.521728,4.295142 -4.160101,-4.26135 6.355506,-16.428003 6.355506,-16.428003 l -1.266434,-3.139693 c 0,0 -0.275578,-1.428826 1.380646,-1.346843 z"/>
 <path style="opacity:0.2;fill:#8b9cbe" d="M 6.8007812 4 C 5.2495812 4 4 5.2495812 4 6.8007812 L 4 7.8007812 C 4 6.2495813 5.2495812 5 6.8007812 5 L 57.199219 5 C 58.750419 5 60 6.2495812 60 7.8007812 L 60 6.8007812 C 60 5.2495813 58.750419 4 57.199219 4 L 6.8007812 4 z"/>
</svg>
