<svg xmlns="http://www.w3.org/2000/svg" width="64" height="64" version="1">
 <path style="opacity:0.2" d="m 4.0502993,32.0003 c -0.0118,0.333997 -0.050799,0.661993 -0.050799,0.99999 C 3.9994998,48.512129 16.487371,61 31.99921,61 47.511049,61 59.99892,48.512129 59.99892,33.00029 c 0,-0.337677 -0.03904,-0.665273 -0.05078,-0.99999 C 59.420146,47.042144 47.172273,59.000021 31.99843,59.000021 16.824187,59.000021 4.5767138,47.042144 4.0487193,32.0003 Z"/>
 <rect style="fill:#e05048" width="56" height="56" x="4" y="4" rx="28" ry="28"/>
 <g style="opacity:0.2;enable-background:new" transform="matrix(1.9999793,0,0,1.9999793,-673.99348,846.99186)">
  <path d="m 353,-415 c -1.6621,0 -3,1.3379 -3,3 l 0,5 c 0,1.6621 1.3379,3 3,3 1.6621,0 3,-1.3379 3,-3 l 0,-5 c 0,-1.6621 -1.3379,-3 -3,-3 z m -6,7 0,0.99999 c 0,2.9695 2.1624,5.4322 5,5.9062 l 0,2.0938 2,0 0,-2.0938 c 2.8376,-0.47409 5,-2.9368 5,-5.9062 l 0,-0.99999 -2,0 0,0.99999 c 0,2.2334 -1.7666,4 -4,4 -2.2334,0 -4,-1.7666 -4,-4 l 0,-1 z"/>
 </g>
 <g style="fill:#8b9cbe;enable-background:new" transform="matrix(1.9999793,0,0,1.9999793,-673.99348,845.99189)">
  <path d="m 353,-415 c -1.6621,0 -3,1.3379 -3,3 l 0,5 c 0,1.6621 1.3379,3 3,3 1.6621,0 3,-1.3379 3,-3 l 0,-5 c 0,-1.6621 -1.3379,-3 -3,-3 z m -6,7 0,0.99999 c 0,2.9695 2.1624,5.4322 5,5.9062 l 0,2.0938 2,0 0,-2.0938 c 2.8376,-0.47409 5,-2.9368 5,-5.9062 l 0,-0.99999 -2,0 0,0.99999 c 0,2.2334 -1.7666,4 -4,4 -2.2334,0 -4,-1.7666 -4,-4 L 349,-408 Z"/>
 </g>
 <path style="opacity:0.2;fill:#8b9cbe" d="M 32 4 C 16.488161 4 4 16.488161 4 32 C 4 32.109467 4.0096796 32.216285 4.015625 32.324219 C 4.3732243 17.128091 16.714805 5 32 5 C 47.285195 5 59.626776 17.128091 59.984375 32.324219 C 59.990295 32.216285 60 32.109467 60 32 C 60 16.488161 47.511839 4 32 4 z"/>
</svg>
