<svg xmlns="http://www.w3.org/2000/svg" width="64" height="64" version="1">
 <rect style="opacity:0.2" width="57" height="57" x="4" y="4" rx="2.85" ry="2.85"/>
 <rect style="fill:#226ccc" width="57" height="57" x="4" y="3" rx="2.85" ry="2.85"/>
 <path style="opacity:0.3" d="M 6.8488583,2.9999985 C 5.2699581,2.9999985 4,4.2699566 4,5.8488568 V 21.999999 H 23 V 2.9999985 Z M 23,21.999999 V 41 H 42.000001 V 21.999999 Z m 19.000001,0 h 19 V 5.8488568 c 0,-1.5789002 -1.269958,-2.8488583 -2.848858,-2.8488583 H 42.000001 Z m 0,19.000001 v 19 h 16.151142 c 1.5789,0 2.848858,-1.269959 2.848858,-2.848859 V 41 Z M 23,41 H 4 V 57.151141 C 4,58.730041 5.2699581,60 6.8488583,60 H 23 Z"/>
 <path style="opacity:0.2" d="m 52.166016,7.0000014 c -0.414049,0 -0.952619,0.038465 -1.470704,0.1132812 -0.518059,0.074735 -1.01667,0.1863057 -1.351562,0.3359376 -0.657607,0.2872927 -1.240481,0.6415781 -1.751953,1.0605468 l 0.859375,1.0566406 c 0.499297,-0.3830573 0.985998,-0.6810146 1.460937,-0.8964843 0.474937,-0.2154691 1.608478,-0.3242188 2.253907,-0.3242188 0.340982,0 0.650687,0.047853 0.927734,0.140625 0.277599,0.093262 0.523215,0.2324256 0.736328,0.4179688 0.426225,0.359116 0.638672,0.8913947 0.638672,1.5976567 0,0.586556 -0.116279,1.120788 -0.347656,1.599608 -0.23138,0.478822 -0.578258,0.965987 -1.041016,1.46875 -0.450583,0.502763 -0.999103,1.078198 -1.644531,1.72461 l -3.990235,3.392578 v 1.3125 h 8.623047 v -1.435547 h -6.59375 v -0.07422 l 3.294922,-2.636718 c 0.669783,-0.634439 1.254612,-1.239869 1.753907,-1.814454 0.499293,-0.574586 0.887876,-1.153678 1.167968,-1.740234 0.280086,-0.586559 0.421875,-1.218322 0.421875,-1.888671 0,-0.5267038 -0.08904,-0.9961337 -0.265625,-1.4121097 C 55.671078,8.5820732 55.405894,8.2212656 55.052734,7.916017 54.875529,7.7628524 54.682054,7.6303643 54.472656,7.5156264 54.264857,7.4014575 54.042271,7.3048354 53.802734,7.228517 h -0.0039 C 53.558335,7.1520628 53.303721,7.0949047 53.03125,7.056642 52.758905,7.0184855 52.470463,7.0000017 52.166016,7.0000014 Z M 32.923828,26.000001 c -0.885106,0 -1.969212,0.128902 -2.669922,0.388672 -0.688416,0.259765 -1.267235,0.569605 -1.734375,0.923828 l 0.8125,1.060547 c 0.491727,-0.306994 0.98817,-0.560992 1.492188,-0.761719 0.50402,-0.200726 1.402232,-0.298828 2.115234,-0.298828 0.737589,0 1.321694,0.171257 1.751953,0.513672 0.430259,0.33061 0.646485,0.802028 0.646485,1.416016 2e-6,0.720254 -0.284126,1.2975 -0.84961,1.734374 -0.553191,0.436877 -1.660391,0.798829 -2.742187,0.798829 H 31 v 1.183593 h 0.726562 c 1.16785,0 2.071692,0.178979 2.710938,0.533204 0.651535,0.342415 0.980469,0.90812 0.980469,1.699218 0,0.779293 -0.264364,1.393114 -0.792969,1.841797 -0.516311,0.436875 -1.364781,0.654297 -2.544922,0.654297 -0.590071,0 -1.20646,-0.06924 -1.845703,-0.210938 -0.639243,-0.141684 -1.235871,-0.349521 -1.789063,-0.621093 v 1.453125 c 0.540899,0.259765 1.105242,0.436791 1.695313,0.53125 0.590072,0.106266 1.231506,0.160156 1.919922,0.160156 1.167848,0 2.119833,-0.161668 2.857422,-0.480469 0.749882,-0.318801 1.301703,-0.75746 1.658203,-1.324219 0.356502,-0.566758 0.537109,-1.222927 0.537109,-1.966796 0,-0.838329 -0.264364,-1.517582 -0.792969,-2.03711 -0.516311,-0.519528 -1.296879,-0.838956 -2.341796,-0.957031 v -0.07031 c 0.82364,-0.165303 1.769993,-0.496275 2.261718,-0.992187 0.504019,-0.507721 0.75586,-1.186973 0.75586,-2.037109 0,-0.909174 -0.335596,-1.657674 -1.011719,-2.248047 -0.663829,-0.590363 -1.683715,-0.886719 -3.060547,-0.886719 z m -20.433594,19 c -0.848325,0 -1.593105,0.171216 -2.232422,0.513672 -0.6270204,0.342454 -1.1127833,0.831074 -1.4570308,1.46875 -0.3442474,0.637674 -0.5156249,1.399496 -0.515625,2.285156 0,1.216305 0.3447122,2.158923 1.0332032,2.832031 0.7007886,0.661292 1.6149916,0.994141 2.7460936,0.994141 0.799143,0 1.452954,-0.142374 1.957031,-0.425781 0.504076,-0.29522 0.894961,-0.643426 1.177735,-1.044922 h 0.111328 c -0.02458,0.68491 -0.110283,1.340932 -0.257813,1.966797 -0.147534,0.614057 -0.386797,1.156553 -0.71875,1.628906 -0.331953,0.460541 -0.780152,0.828 -1.345703,1.099609 -0.553253,0.271599 -1.262429,0.4082 -2.123047,0.408203 -0.602433,-3e-6 -1.1416061,-0.0789 -1.6210934,-0.232421 v 1.328125 c 0.1967128,0.05904 0.4610166,0.10138 0.7929684,0.125 0.331959,0.03541 0.619345,0.05273 0.865235,0.05273 1.24175,0 2.258071,-0.211602 3.044922,-0.636719 0.799145,-0.425117 1.413446,-0.992644 1.84375,-1.701172 0.442606,-0.720337 0.740562,-1.516772 0.90039,-2.390625 0.172131,-0.885662 0.261719,-1.780175 0.261719,-2.689453 0,-1.263541 -0.198371,-2.304333 -0.591797,-3.11914 -0.393425,-0.826616 -0.927316,-1.442251 -1.603516,-1.84375 -0.6762,-0.41331 -1.431548,-0.619141 -2.267578,-0.619141 z m 0,1.310547 c 0.627022,0 1.148392,0.163494 1.566407,0.494141 0.418013,0.330646 0.7324,0.746217 0.941406,1.242187 0.209009,0.49597 0.312499,0.996128 0.3125,1.503906 0,0.377881 -0.121293,0.745348 -0.367188,1.09961 -0.233599,0.354265 -0.565783,0.650542 -0.996093,0.886718 -0.430309,0.224367 -0.941113,0.335941 -1.53125,0.335938 -0.860619,0 -1.499954,-0.230863 -1.917969,-0.691406 -0.40572,-0.472352 -0.607422,-1.116834 -0.607422,-1.931641 0,-0.991938 0.239263,-1.728731 0.71875,-2.212891 0.491782,-0.48416 1.118598,-0.726562 1.880859,-0.726562 z"/>
 <path style="fill:#8b9cbe" d="m 52.166016,6 c -0.414049,0 -0.952619,0.038465 -1.470704,0.1132812 -0.518059,0.074735 -1.01667,0.1863057 -1.351562,0.3359376 -0.657607,0.2872927 -1.240481,0.6415781 -1.751953,1.0605468 l 0.859375,1.0566406 c 0.499297,-0.3830573 0.985998,-0.6810146 1.460937,-0.8964843 0.474937,-0.2154691 1.608478,-0.3242188 2.253907,-0.3242188 0.340982,0 0.650687,0.047853 0.927734,0.140625 0.277599,0.093262 0.523215,0.2324256 0.736328,0.4179688 0.426225,0.359116 0.638672,0.8913947 0.638672,1.5976562 0,0.5865569 -0.116279,1.1207889 -0.347656,1.5996089 -0.23138,0.478822 -0.578258,0.965987 -1.041016,1.46875 -0.450583,0.502763 -0.999103,1.078198 -1.644531,1.72461 L 47.445312,17.6875 V 19 h 8.623047 v -1.435547 h -6.59375 v -0.07422 l 3.294922,-2.636718 c 0.669783,-0.634439 1.254612,-1.239869 1.753907,-1.814454 0.499293,-0.574586 0.887876,-1.153678 1.167968,-1.740234 0.280086,-0.586559 0.421875,-1.218322 0.421875,-1.8886718 0,-0.5267034 -0.08904,-0.9961333 -0.265625,-1.4121093 C 55.671078,7.5820718 55.405894,7.2212642 55.052734,6.9160156 54.875529,6.762851 54.682054,6.6303629 54.472656,6.515625 54.264857,6.4014561 54.042271,6.304834 53.802734,6.2285156 h -0.0039 C 53.558335,6.1520614 53.303721,6.0949033 53.03125,6.0566406 52.758905,6.0184841 52.470463,6.0000003 52.166016,6 Z M 32.923828,25 c -0.885106,0 -1.969212,0.128902 -2.669922,0.388672 -0.688416,0.259765 -1.267235,0.569605 -1.734375,0.923828 l 0.8125,1.060547 c 0.491727,-0.306994 0.98817,-0.560992 1.492188,-0.761719 0.50402,-0.200726 1.402232,-0.298828 2.115234,-0.298828 0.737589,0 1.321694,0.171257 1.751953,0.513672 0.430259,0.33061 0.646485,0.802028 0.646485,1.416016 2e-6,0.720254 -0.284126,1.2975 -0.84961,1.734374 -0.553191,0.436877 -1.660391,0.798829 -2.742187,0.798829 H 31 v 1.183593 h 0.726562 c 1.16785,0 2.071692,0.178979 2.710938,0.533204 0.651535,0.342415 0.980469,0.90812 0.980469,1.699218 0,0.779293 -0.264364,1.393114 -0.792969,1.841797 -0.516311,0.436875 -1.364781,0.654297 -2.544922,0.654297 -0.590071,0 -1.20646,-0.06924 -1.845703,-0.210938 -0.639243,-0.141684 -1.235871,-0.349521 -1.789063,-0.621093 v 1.453125 c 0.540899,0.259765 1.105242,0.436791 1.695313,0.53125 C 30.730697,37.94611 31.372131,38 32.060547,38 c 1.167848,0 2.119833,-0.161668 2.857422,-0.480469 0.749882,-0.318801 1.301703,-0.75746 1.658203,-1.324219 0.356502,-0.566758 0.537109,-1.222927 0.537109,-1.966796 0,-0.838329 -0.264364,-1.517582 -0.792969,-2.03711 -0.516311,-0.519528 -1.296879,-0.838956 -2.341796,-0.957031 v -0.07031 c 0.82364,-0.165303 1.769993,-0.496275 2.261718,-0.992187 0.504019,-0.507721 0.75586,-1.186973 0.75586,-2.037109 0,-0.909174 -0.335596,-1.657674 -1.011719,-2.248047 C 35.320546,25.296356 34.30066,25 32.923828,25 Z M 12.490234,44 c -0.848325,0 -1.593105,0.171216 -2.232422,0.513672 -0.6270204,0.342454 -1.1127833,0.831074 -1.4570308,1.46875 -0.3442474,0.637674 -0.5156249,1.399496 -0.515625,2.285156 0,1.216305 0.3447122,2.158923 1.0332032,2.832031 0.7007886,0.661292 1.6149916,0.994141 2.7460936,0.994141 0.799143,0 1.452954,-0.142374 1.957031,-0.425781 0.504076,-0.29522 0.894961,-0.643426 1.177735,-1.044922 h 0.111328 c -0.02458,0.68491 -0.110283,1.340932 -0.257813,1.966797 -0.147534,0.614057 -0.386797,1.156553 -0.71875,1.628906 -0.331953,0.460541 -0.780152,0.828 -1.345703,1.099609 -0.553253,0.271599 -1.262429,0.4082 -2.123047,0.408203 -0.602433,-3e-6 -1.1416061,-0.0789 -1.6210934,-0.232421 v 1.328125 c 0.1967128,0.05904 0.4610166,0.10138 0.7929684,0.125 C 10.369068,56.982676 10.656454,57 10.902344,57 c 1.24175,0 2.258071,-0.211602 3.044922,-0.636719 0.799145,-0.425117 1.413446,-0.992644 1.84375,-1.701172 0.442606,-0.720337 0.740562,-1.516772 0.90039,-2.390625 0.172131,-0.885662 0.261719,-1.780175 0.261719,-2.689453 0,-1.263541 -0.198371,-2.304333 -0.591797,-3.11914 C 15.967903,45.636275 15.434012,45.02064 14.757812,44.619141 14.081612,44.205831 13.326264,44 12.490234,44 Z m 0,1.310547 c 0.627022,0 1.148392,0.163494 1.566407,0.494141 0.418013,0.330646 0.7324,0.746217 0.941406,1.242187 0.209009,0.49597 0.312499,0.996128 0.3125,1.503906 0,0.377881 -0.121293,0.745348 -0.367188,1.09961 -0.233599,0.354265 -0.565783,0.650542 -0.996093,0.886718 -0.430309,0.224367 -0.941113,0.335941 -1.53125,0.335938 -0.860619,0 -1.499954,-0.230863 -1.917969,-0.691406 C 10.092327,49.709289 9.890625,49.064807 9.890625,48.25 c 0,-0.991938 0.239263,-1.728731 0.71875,-2.212891 0.491782,-0.48416 1.118598,-0.726562 1.880859,-0.726562 z"/>
 <path style="opacity:0.1;fill:#8b9cbe" d="M 6.8496094 3 C 5.2707093 3 4 4.2707093 4 5.8496094 L 4 6.8496094 C 4 5.2707093 5.2707093 4 6.8496094 4 L 58.150391 4 C 59.729291 4 61 5.2707093 61 6.8496094 L 61 5.8496094 C 61 4.2707093 59.729291 3 58.150391 3 L 6.8496094 3 z"/>
</svg>
