<svg xmlns="http://www.w3.org/2000/svg" width="64" height="64" version="1">
 <path style="opacity:0.2" d="m 12,16.001286 c 0,1.984631 0.546716,5.999914 0.546716,5.999914 l -4.3475376,0 c -2.3267668,0 -4.19914,1.871973 -4.19914,4.19994 l 0,17.698947 c 0,2.325967 1.8723732,4.099941 4.19914,4.099941 l 8.8006746,0 c 1.969851,0 2.999957,-1.999971 2.999957,-1.999971 C 24.775541,49.999 31.733242,50 36.897968,50 c 10.49985,0 23.10167,-0.399995 23.10167,-33.999514 z m -1.414194,9.999857 2.09757,0 c 0.823988,8.292481 2.661562,13.899001 5.093727,17.671547 -0.349395,0.203997 -0.740789,0.327995 -1.160183,0.327995 l -6.031114,0 c -1.4319793,0 -2.5859628,-1.33798 -2.5859628,-2.999957 l 0,-11.999828 c 0,-1.661976 1.1539835,-2.999957 2.5859628,-2.999957 z"/>
 <path style="fill:#bda461" d="m 12,15.000515 c 0,1.984631 0.546716,5.999914 0.546716,5.999914 l -4.3475376,0 c -2.3267668,0 -4.19914,1.871973 -4.19914,4.19994 l 0,17.698947 c 0,2.325967 1.8723732,4.099941 4.19914,4.099941 l 8.8006746,0 c 1.969851,0 2.999957,-1.999971 2.999957,-1.999971 4.775731,3.998943 11.733432,3.999943 16.898158,3.999943 10.49985,0 23.10167,-0.399995 23.10167,-33.999514 z m -1.414194,9.999857 2.09757,0 c 0.823988,8.292481 2.661562,13.899001 5.093727,17.671547 -0.349395,0.203997 -0.740789,0.327995 -1.160183,0.327995 l -6.031114,0 c -1.4319793,0 -2.5859628,-1.33798 -2.5859628,-2.999957 l 0,-11.999828 c 0,-1.661976 1.1539835,-2.999957 2.5859628,-2.999957 z"/>
 <path style="opacity:0.2;fill:#8b9cbe" d="m 12,15 c 0,0.280014 0.03013,0.658072 0.04883,1.001953 L 59.988281,16 C 59.990907,15.662976 60,15.343947 60,15 L 12,15 Z M 8.1992188,21 C 5.872452,21 4,22.873205 4,25.201172 l 0,1 c 0,-2.327967 1.872452,-4.199219 4.1992188,-4.199219 l 4.3476562,0 c 0,0 -0.07915,-0.67214 -0.121094,-1.001953 L 8.1992188,21 Z M 8,40 8,41 c 0,1.661977 1.1539582,3 2.585938,3 l 6.03125,0 c 0.419394,0 0.810761,-0.124128 1.160156,-0.328125 C 17.61601,43.42163 17.464572,43.141633 17.308594,42.875 17.087791,42.949217 16.859358,43 16.617188,43 l -6.03125,0 C 9.1539582,43 8,41.661977 8,40 Z"/>
 <path style="fill:#5b6d40" d="m 43.398804,21.000085 c 0,0 -1.810046,1.756106 -3.767571,2.464181 -14.496487,5.243359 -8.382734,15.46148 -8.183336,15.495079 0,0 0.812894,-1.415609 1.910985,-2.222982 6.968146,-5.122561 8.384335,-11.018915 8.384335,-11.018915 0,0 -1.563628,7.095145 -7.76274,11.509911 -1.369169,0.974572 -2.296182,3.374175 -2.688779,5.772555 0,0 0.970533,-0.392117 1.387869,-0.498336 0.162739,-1.062032 0.502996,-2.078984 1.078272,-2.987377 8.664132,1.031552 11.50171,-5.949754 11.872307,-8.384135 0.875994,-5.749955 -2.231982,-10.129921 -2.231982,-10.129921 z"/>
</svg>
