<svg xmlns="http://www.w3.org/2000/svg" width="64" height="64" version="1">
 <path style="opacity:0.2" d="M 5.5,11 C 4.669,11 4,11.593365 4,12.332031 v 5.335938 C 4,18.406635 4.669,19 5.5,19 h 9 C 15.331,19 16,18.406635 16,17.667969 V 12.332031 C 16,11.593365 15.331,11 14.5,11 Z m 44,0 C 48.669,11 48,11.593365 48,12.332031 v 5.335938 C 48,18.406635 48.669,19 49.5,19 h 9 C 59.331,19 60,18.406635 60,17.667969 V 12.332031 C 60,11.593365 59.331,11 58.5,11 Z M 5.5,29 C 4.669,29 4,29.593364 4,30.332032 v 5.335936 C 4,36.406636 4.669,37 5.5,37 h 9 C 15.331,37 16,36.406636 16,35.667968 V 30.332032 C 16,29.593364 15.331,29 14.5,29 Z m 44,0 C 48.669,29 48,29.593364 48,30.332032 v 5.335936 C 48,36.406636 48.669,37 49.5,37 h 9 C 59.331,37 60,36.406636 60,35.667968 V 30.332032 C 60,29.593364 59.331,29 58.5,29 Z m 0,18 C 48.669,47 48,47.593364 48,48.332032 v 5.335936 C 48,54.406636 48.669,55 49.5,55 h 9 C 59.331,55 60,54.406636 60,53.667968 V 48.332032 C 60,47.593364 59.331,47 58.5,47 Z"/>
 <rect style="opacity:0.2" width="56" height="40" x="-61" y="-52" rx="3.111" ry="2.857" transform="matrix(0,-1,-1,0,0,0)"/>
 <rect style="fill:#ffcc00" width="12" height="8" x="4" y="28" rx="1.5" ry="1.333"/>
 <rect style="fill:#ffcc00" width="12" height="8" x="4" y="10" rx="1.5" ry="1.333"/>
 <rect style="fill:#ffcc00" width="12" height="8" x="48" y="28" rx="1.5" ry="1.333"/>
 <rect style="fill:#ffcc00" width="12" height="8" x="48" y="46" rx="1.5" ry="1.333"/>
 <rect style="fill:#ffcc00" width="12" height="8" x="48" y="10" rx="1.5" ry="1.333"/>
 <path style="opacity:0.2;fill:#8b9cbe" d="M 5.5 10 C 4.669 10 4 10.593365 4 11.332031 L 4 12.332031 C 4 11.593365 4.669 11 5.5 11 L 14.5 11 C 15.331 11 16 11.593365 16 12.332031 L 16 11.332031 C 16 10.593365 15.331 10 14.5 10 L 5.5 10 z M 49.5 10 C 48.669 10 48 10.593365 48 11.332031 L 48 12.332031 C 48 11.593365 48.669 11 49.5 11 L 58.5 11 C 59.331 11 60 11.593365 60 12.332031 L 60 11.332031 C 60 10.593365 59.331 10 58.5 10 L 49.5 10 z M 5.5 28 C 4.669 28 4 28.593363 4 29.332031 L 4 30.332031 C 4 29.593363 4.669 29 5.5 29 L 14.5 29 C 15.331 29 16 29.593363 16 30.332031 L 16 29.332031 C 16 28.593363 15.331 28 14.5 28 L 5.5 28 z M 49.5 28 C 48.669 28 48 28.593363 48 29.332031 L 48 30.332031 C 48 29.593363 48.669 29 49.5 29 L 58.5 29 C 59.331 29 60 29.593363 60 30.332031 L 60 29.332031 C 60 28.593363 59.331 28 58.5 28 L 49.5 28 z M 49.5 46 C 48.669 46 48 46.593363 48 47.332031 L 48 48.332031 C 48 47.593363 48.669 47 49.5 47 L 58.5 47 C 59.331 47 60 47.593363 60 48.332031 L 60 47.332031 C 60 46.593363 59.331 46 58.5 46 L 49.5 46 z"/>
 <rect style="fill:#757d96" width="56" height="40" x="-60" y="-52" rx="3.111" ry="2.857" transform="matrix(0,-1,-1,0,0,0)"/>
 <rect style="fill:#57c33c" width="12" height="12" x="20" y="26"/>
 <rect style="fill:#ffd735" width="12" height="12" x="32" y="26"/>
 <rect style="fill:#ff741b" width="12" height="12" x="20" y="14"/>
 <rect style="fill:#7994ff" width="12" height="12" x="32" y="14"/>
 <rect style="fill:#dc61b8" width="12" height="12" x="32" y="38"/>
 <rect style="opacity:0.2" width="24" height="1" x="20" y="26"/>
 <rect style="opacity:0.2" width="24" height="1" x="20" y="38"/>
 <rect style="opacity:0.2" width="12" height="1" x="32" y="50"/>
 <path style="opacity:0.1;fill:#8b9cbe" d="M 14.855469 4 C 13.272611 4 12 5.3858194 12 7.109375 L 12 8.109375 C 12 6.3858194 13.272611 5 14.855469 5 L 49.144531 5 C 50.727387 5 52 6.3858194 52 8.109375 L 52 7.109375 C 52 5.3858194 50.727387 4 49.144531 4 L 14.855469 4 z"/>
</svg>
