<svg xmlns="http://www.w3.org/2000/svg" width="64" height="64" version="1">
 <path style="opacity:0.2" d="m 4.050798,32.000828 c -0.0118,0.33399 -0.050799,0.661981 -0.050799,0.999971 C 3.9999994,48.512357 16.487643,61 31.9992,61 47.510757,61 59.998401,48.512357 59.998401,33.000799 c 0,-0.33767 -0.03904,-0.665261 -0.05078,-0.999971 -0.527985,15.041571 -12.775635,26.999229 -27.949202,26.999229 -15.173967,0 -27.4212171,-11.957658 -27.949202,-26.999229 z"/>
 <rect style="fill:#ffbd8e" width="56" height="56" x="4" y="4" rx="27.999" ry="27.999"/>
 <path style="opacity:0.1;fill:#8b9cbe" d="M 32 4.0019531 C 16.488443 4.0019531 4 16.488443 4 32 C 4 32.113553 4.0112846 32.224036 4.0175781 32.335938 C 4.3691113 17.134615 16.711164 5 32 5 C 47.288836 5 59.630889 17.134615 59.982422 32.335938 C 59.988693 32.224116 60 32.113445 60 32 C 60 16.488443 47.511557 4.0019531 32 4.0019531 z"/>
 <g style="fill:#4d4d4d" transform="matrix(1.39996,0,0,1.39996,-75.87172,4.5172412)">
  <circle cx="69.91" cy="12.489" r="2.857"/>
  <circle cx="84.196" cy="12.489" r="2.857"/>
  <path d="m 69.444,24.355 a 8.7947,10.554 0 0 0 7.6094,5.2768 8.7947,10.554 0 0 0 7.6026,-5.2768 l -1.0684,0 a 8.7947,10.554 0 0 1 -6.5342,3.5179 8.7947,10.554 0 0 1 -6.5376,-3.5179 l -1.0718,0 z"/>
 </g>
 <path style="fill:#4d4d4d" d="m 31.9992,28.000971 a 7.9997716,5.9998287 0 0 0 -7.999772,5.999828 7.9997716,5.9998287 0 0 0 7.999772,5.999829 7.9997716,5.9998287 0 0 0 7.999772,-5.999829 7.9997716,5.9998287 0 0 0 -7.999772,-5.999828 z m -3.999886,3.999885 a 1.9999429,1.9999429 0 0 1 1.999943,1.999943 1.9999429,1.9999429 0 0 1 -1.999943,1.999943 1.9999429,1.9999429 0 0 1 -1.999943,-1.999943 1.9999429,1.9999429 0 0 1 1.999943,-1.999943 z m 7.999772,0 a 1.9999429,1.9999429 0 0 1 1.999943,1.999943 1.9999429,1.9999429 0 0 1 -1.999943,1.999943 1.9999429,1.9999429 0 0 1 -1.999943,-1.999943 1.9999429,1.9999429 0 0 1 1.999943,-1.999943 z"/>
</svg>
