<svg xmlns="http://www.w3.org/2000/svg" width="64" height="64" version="1">
 <path style="opacity:0.2" d="m 10,55 0,2 c 0,2.216 1.784,4 4,4 l 36,0 c 2.216,0 4,-1.784 4,-4 l 0,-2 c 0,2.216 -1.784,4 -4,4 l -36,0 c -2.216,0 -4,-1.784 -4,-4 z"/>
 <rect style="fill:#8e8e8e" width="56" height="44" x="-60" y="-54" rx="4" ry="4" transform="matrix(0,-1,-1,0,0,0)"/>
 <path style="opacity:0.5" d="m 32,12 c -7.732,0 -14,6.268 -14,14 l 0,14 14,0 C 39.732,40 46,33.732 46,26 46,18.268 39.732,12 32,12 Z m 0,6 a 8,8 0 0 1 8,8 8,8 0 0 1 -8,8 8,8 0 0 1 -8,-8 8,8 0 0 1 8,-8 z"/>
 <path style="opacity:0.1;fill:#8b9cbe" d="M 14 4 C 11.784 4 10 5.784 10 8 L 10 9 C 10 6.784 11.784 5 14 5 L 50 5 C 52.216 5 54 6.784 54 9 L 54 8 C 54 5.784 52.216 4 50 4 L 14 4 z"/>
 <path style="opacity:0.2" d="M 63.958,45.848 A 16,16 0 0 1 48,61 16,16 0 0 1 32.042,46.152 16,16 0 0 0 32,47 16,16 0 0 0 48,63 16,16 0 0 0 64,47 16,16 0 0 0 63.95704,45.84766 Z"/>
 <circle style="fill:#4daaf5" cx="48" cy="46" r="16"/>
 <g style="fill:#8b9cbe" transform="matrix(2,0,0,2,7,4)">
  <rect width="3" height="6" x="19" y="20"/>
  <rect width="3" height="3" x="19" y="16"/>
 </g>
</svg>
