<svg xmlns="http://www.w3.org/2000/svg" width="64" height="64" version="1">
 <path style="opacity:0.2" d="M 12.754,5.9992 C 11.2284,5.9992 10,7.1596 10,8.6 l 0,46.8 c 0,1.44 1.2284,2.6 2.754,2.6 L 51.25,58 C 52.774,58 54,56.84 54,55.4 L 54,8.6 C 54,7.1604 52.774,6 51.25,6 L 12.754,6 Z"/>
 <path style="fill:#b2bfd9" d="M 12.754,5 C 11.2284,5 10,6.1604 10,7.6008 l 0,46.8 c 0,1.44 1.2284,2.6 2.754,2.6 l 38.496,0 c 1.524,0 2.75,-1.16 2.75,-2.6 l 0,-46.8 c 0,-1.4396 -1.226,-2.6 -2.75,-2.6 l -38.496,0 z"/>
 <path style="opacity:0.2;fill:#8b9cbe" d="M 12.753906 5 C 11.228306 5 10 6.1611625 10 7.6015625 L 10 8.6015625 C 10 7.1611625 11.228306 6 12.753906 6 L 51.25 6 C 52.774 6 54 7.1611625 54 8.6015625 L 54 7.6015625 C 54 6.1611625 52.774 5 51.25 5 L 12.753906 5 z"/>
 <path style="opacity:0.5" d="m 12,13 0,2 16,0 0,-2 -16,0 z m 0,4 0,2 8,0 0,-2 -8,0 z m 0,4 0,2 10,0 0,-2 -10,0 z m 0,4 0,2 4,0 0,-2 -4,0 z m 0,4 0,2 10,0 0,-2 -10,0 z"/>
</svg>
