<svg xmlns="http://www.w3.org/2000/svg" width="64" height="64" version="1">
 <rect style="opacity:0.2" width="57" height="51" x="4" y="7" rx="2.85" ry="2.833"/>
 <rect style="fill:#3b555e" width="57" height="51" x="4" y="6" rx="2.85" ry="2.833"/>
 <path style="opacity:0.2" d="m 34.626953,16.999837 c -2.449217,0.01782 -4.434735,1.077756 -6.101562,2.443359 -1.666828,1.365604 -3.123604,3.03528 -4.841797,4.632813 C 20.247206,27.271075 15.912372,30.306478 7,30.306478 v 3 c 9.626876,0 15.021579,-3.590219 18.724609,-7.033203 1.851516,-1.721493 3.316032,-3.374945 4.701172,-4.509766 1.38514,-1.134822 2.582836,-1.751741 4.222657,-1.763672 1.636055,-0.0119 2.705188,0.568632 3.958984,1.677734 1.253795,1.109103 2.558917,2.762242 4.253906,4.5 3.389979,3.475517 8.512011,7.128907 18.138672,7.128907 v -3 c -8.905462,0 -12.876517,-3.030373 -15.990234,-6.222657 -1.556859,-1.596142 -2.855794,-3.27413 -4.416016,-4.654296 -1.560222,-1.380167 -3.513815,-2.447535 -5.966797,-2.429688 z"/>
 <path style="opacity:0.2" d="m 7,31.693196 v 3 c 8.723776,0 13.007611,4.564335 16.478516,9.492188 1.735452,2.463926 3.186611,5.002071 4.826172,7.050781 1.63956,2.048711 3.65738,3.741991 6.320312,3.763672 h 0.002 c 2.66695,0.0194 4.655852,-1.697143 6.179688,-3.755859 1.523836,-2.058716 2.815149,-4.600278 4.392578,-7.066407 C 48.354077,39.245313 52.283398,34.693196 61,34.693196 v -3 c -9.815521,0 -14.979286,5.631663 -18.328125,10.867188 -1.674419,2.617763 -2.987162,5.155391 -4.277344,6.898437 -1.289586,1.742243 -2.323067,2.550604 -3.74414,2.541016 -1.426106,-0.01161 -2.591499,-0.873799 -4.003907,-2.638672 -1.412407,-1.764872 -2.88254,-4.298139 -4.716796,-6.902344 C 22.261174,37.250412 16.815472,31.693196 7,31.693196 Z"/>
 <path style="fill:none;stroke:#7e7e7e;stroke-width:3" d="m 7,32.194183 c 18.539248,0 19.459423,20.239234 27.637498,20.305817 8.178074,0.0595 7.830369,-20.305817 26.362492,-20.305817"/>
 <path style="fill:none;stroke:#1588e4;stroke-width:3" d="m 7,30.80585 c 18.539248,0 19.459423,-13.24635 27.637498,-13.30585 8.178074,-0.0595 7.830369,13.30585 26.362492,13.30585"/>
 <path style="opacity:0.2" d="m 34.625,9.9998372 c -2.662933,0.021681 -4.680753,1.7149578 -6.320312,3.7636718 -1.63956,2.048713 -3.09072,4.586851 -4.826172,7.050781 C 20.007611,25.742151 15.723775,30.306478 7,30.306478 v 3 c 9.815473,0 15.261174,-5.557207 18.929688,-10.765625 1.834256,-2.604209 3.304388,-5.137469 4.716796,-6.902344 1.411789,-1.764101 2.576705,-2.626321 4.001954,-2.638672 1.422085,-0.01035 2.455912,0.797966 3.746093,2.541016 1.290182,1.743049 2.602925,4.28067 4.277344,6.898437 C 46.020714,27.674824 51.184478,33.306478 61,33.306478 v -3 c -8.716601,0 -12.645923,-4.552109 -15.800781,-9.484375 C 43.62179,18.355969 42.330477,15.814416 40.806641,13.755696 39.282805,11.696977 37.293904,9.9804337 34.626953,9.9998372 Z"/>
 <path style="fill:none;stroke:#e95656;stroke-width:3" d="m 7,30.80585 c 18.539248,0 19.459423,-20.239267 27.637498,-20.30585 8.178074,-0.0595 7.830369,20.30585 26.362492,20.30585"/>
 <path style="opacity:0.2" d="m 7,10 v 21 3 21 h 3 V 34 h 4 v 3 h 3 v -3 h 16 v 3 h 3 v -3 h 18 v 3 h 3 v -3 h 4 v -3 h -4 v -3 h -3 v 3 H 36 v -3 h -3 v 3 H 17 v -3 h -3 v 3 H 10 V 10 Z"/>
 <rect style="fill:#8b9cbe" width="3" height="45" x="7" y="9"/>
 <rect style="fill:#8b9cbe" width="54" height="3" x="7" y="30"/>
 <rect style="fill:#8b9cbe" width="3" height="9" x="14" y="27"/>
 <rect style="fill:#8b9cbe" width="3" height="9" x="33" y="27"/>
 <rect style="fill:#8b9cbe" width="3" height="9" x="54" y="27"/>
 <path style="fill:#8b9cbe;opacity:0.1" d="M 6.8496094 6 C 5.2707094 6 4 7.2643176 4 8.8339844 L 4 9.8339844 C 4 8.2643176 5.2707094 7 6.8496094 7 L 58.150391 7 C 59.729291 7 61 8.2643176 61 9.8339844 L 61 8.8339844 C 61 7.2643176 59.729291 6 58.150391 6 L 6.8496094 6 z"/>
</svg>
