<svg xmlns="http://www.w3.org/2000/svg" width="64" height="64" version="1">
 <path style="opacity:0.2" d="M 32,4 A 29,29 0 0 0 3,33 29,29 0 0 0 32,62 H 58.1 C 59.7066,62 61,60.7066 61,59.1 V 33 6.9 C 61,5.2934 59.7066,4 58.1,4 Z"/>
 <path style="fill:#b2bfd9" d="M 32,3 A 29,29 0 0 0 3,32 29,29 0 0 0 32,61 H 58.1 C 59.7066,61 61,59.7066 61,58.1 V 32 5.9 C 61,4.2934 59.7066,3 58.1,3 Z"/>
 <path style="fill:#adadad;fill-rule:evenodd" d="M 32.714286,15 C 31.774458,15 31,15.677649 31,16.5 v 5 c 0,0.82235 0.774458,1.5 1.714286,1.5 H 53.285714 C 54.225544,23 55,22.32235 55,21.5 v -5 C 55,15.677649 54.225544,15 53.285714,15 Z"/>
 <path style="fill:#adadad;fill-rule:evenodd" d="M 36.772728,29 C 35.800858,29 35,29.677648 35,30.5 v 3 c 0,0.822352 0.800858,1.5 1.772728,1.5 H 59.227274 C 60.199142,35 61,34.322352 61,33.5 v -3 C 61,29.677648 60.199142,29 59.227274,29 Z"/>
 <g transform="matrix(1.8808777,0,0,1.8808777,0.58369903,2.8463949)">
  <path style="fill:#305483" d="m 15.775,15.5 -5.7999999,1.45 v -2.9 z"/>
  <g style="fill:#2f5d97" transform="matrix(0.5914677,0,0,0.58765663,2.1806926,1.1677127)">
   <path style="fill:#305483;fill-rule:evenodd" d="M 4.9763661,19.993735 C 6.6130595,17.892454 10.222513,7.6141185 22.117392,11.866741 c 0,0 -10.85914,-1.452094 -12.12183,7.891816"/>
   <path style="fill:#305483;fill-rule:evenodd" d="m 4.5975588,28.434804 c 1.6366934,2.101281 5.6249542,12.758223 17.5198332,8.5056 0,0 -11.174812,0.410374 -12.184965,-7.670846"/>
  </g>
 </g>
 <path style="opacity:0.2;fill-rule:evenodd" d="M 13.999999,26 C 10.141544,26 7,29.141544 7,33.000002 7,36.858458 10.141544,40 13.999999,40 17.858455,40 21,36.858458 21,33.000002 21,29.141544 17.858455,26 13.999999,26 Z"/>
 <path style="fill:#3594f3;fill-rule:evenodd" d="M 13.999999,25 C 10.141544,25 7,28.141544 7,32.000002 7,35.858458 10.141544,39 13.999999,39 17.858455,39 21,35.858458 21,32.000002 21,28.141544 17.858455,25 13.999999,25 Z"/>
 <path style="fill:#adadad;fill-rule:evenodd" d="M 32.714286,41 C 31.774458,41 31,41.67765 31,42.5 v 5 c 0,0.82235 0.774458,1.5 1.714286,1.5 H 53.285714 C 54.225544,49 55,48.32235 55,47.5 v -5 C 55,41.67765 54.225544,41 53.285714,41 Z"/>
 <path style="opacity:0.2;fill:#8b9cbe" d="M 32 3 A 29 29 0 0 0 3 32 A 29 29 0 0 0 3.0214844 32.408203 A 29 29 0 0 1 32 4 L 58.101562 4 C 59.708163 4 61 5.2918373 61 6.8984375 L 61 5.8984375 C 61 4.2918373 59.708163 3 58.101562 3 L 32 3 z"/>
 <path style="opacity:0.2;fill-rule:evenodd" d="M 32.714844 15 C 31.775016 15 31 15.677649 31 16.5 L 31 17.5 C 31 16.677649 31.775016 16 32.714844 16 L 53.285156 16 C 54.224986 16 55 16.677649 55 17.5 L 55 16.5 C 55 15.677649 54.224986 15 53.285156 15 L 32.714844 15 z M 36.773438 29 C 35.801568 29 35 29.677648 35 30.5 L 35 31.5 C 35 30.677648 35.801568 30 36.773438 30 L 59.226562 30 C 60.198431 30 61 30.677648 61 31.5 L 61 30.5 C 61 29.677648 60.198431 29 59.226562 29 L 36.773438 29 z M 32.714844 41 C 31.775016 41 31 41.67765 31 42.5 L 31 43.5 C 31 42.67765 31.775016 42 32.714844 42 L 53.285156 42 C 54.224986 42 55 42.67765 55 43.5 L 55 42.5 C 55 41.67765 54.224986 41 53.285156 41 L 32.714844 41 z"/>
 <path style="opacity:0.2;fill:#8b9cbe;fill-rule:evenodd" d="M 31 21.5 L 31 22.5 C 31 23.32235 31.775016 24 32.714844 24 L 53.285156 24 C 54.224986 24 55 23.32235 55 22.5 L 55 21.5 C 55 22.32235 54.224986 23 53.285156 23 L 32.714844 23 C 31.775016 23 31 22.32235 31 21.5 z M 35 33.5 L 35 34.5 C 35 35.322352 35.801568 36 36.773438 36 L 59.226562 36 C 60.198431 36 61 35.322352 61 34.5 L 61 33.5 C 61 34.322352 60.198431 35 59.226562 35 L 36.773438 35 C 35.801568 35 35 34.322352 35 33.5 z M 31 47.5 L 31 48.5 C 31 49.32235 31.775016 50 32.714844 50 L 53.285156 50 C 54.224986 50 55 49.32235 55 48.5 L 55 47.5 C 55 48.32235 54.224986 49 53.285156 49 L 32.714844 49 C 31.775016 49 31 48.32235 31 47.5 z"/>
</svg>
