<svg xmlns="http://www.w3.org/2000/svg" width="64" height="64" version="1">
 <path style="opacity:0.2" d="M 4.0508,32 C 4.039,32.334 4,32.662 4,33 4,48.512 16.488,61 32,61 47.512,61 60,48.512 60,33 c 0,-0.33768 -0.03904,-0.66528 -0.05078,-1 -0.528,15.042 -12.776,27 -27.95,27 -15.1744,0 -27.422,-11.958 -27.95,-27 z"/>
 <rect style="fill:#c2352a" width="56" height="56" x="4" y="4" rx="28" ry="28"/>
 <path style="opacity:0.1;fill:#8b9cbe" d="M 32 4 C 16.488 4 4 16.488 4 32 C 4 32.113556 4.0112845 32.224032 4.0175781 32.335938 C 4.3691213 17.134181 16.710728 5 32 5 L 32.001953 5 C 47.291226 5 59.632832 17.134181 59.984375 32.335938 C 59.990646 32.224113 60.001953 32.113448 60.001953 32 C 60.001953 16.488 47.513953 4 32.001953 4 L 32 4 z"/>
 <path style="opacity:0.2" d="m 24.10743,42.905407 c -0.640244,-0.088 -1.77914,-0.464 -2.538816,-0.8354 -4.949585,-2.4088 -6.973745,-8.4756 -4.535889,-13.5858 2.785064,-5.843 10.384279,-7.3324 14.957105,-2.9314 1.322352,1.2706 1.909652,2.3548 3.900568,7.1624 2.078332,5.0276 2.46248,5.818 3.135968,6.4882 0.721506,0.713 1.39007,0.953 2.669328,0.953 2.101726,0 3.602608,-1.3194 3.602608,-3.1604 0,-1.5582 -0.539284,-2.0572 -3.289874,-3.049 -4.188678,-1.5346 -5.545504,-2.9214 -5.55043,-5.7066 0,-1.4858 0.370604,-2.4764 1.312502,-3.503 1.351902,-1.4658 3.68387,-1.9498 5.747428,-1.222 0.880338,0.3178 2.722272,1.9736 2.722272,2.4476 0,0.23 -1.067484,0.933 -1.659712,1.0992 -0.312734,0.082 -0.582376,-0.024 -0.943128,-0.3764 -0.731358,-0.7128 -1.226316,-0.933 -2.101728,-0.933 -1.510732,0 -2.447704,0.923 -2.447704,2.4138 0,1.4858 0.59592,1.9884 3.573058,3.009 4.102492,1.407 5.314032,2.6776 5.338656,5.6178 0.02462,2.5402 -1.10196,4.3724 -3.342816,5.4566 -1.019466,0.489 -1.365446,0.5516 -3.030082,0.5516 -2.376292,0 -3.443778,-0.449 -4.77598,-1.9736 -0.89511,-1.0254 -1.803766,-2.9502 -4.713186,-9.9764 -1.206614,-2.9114 -2.755514,-4.3384 -5.338656,-4.9 -1.308808,-0.2838 -3.131044,-0.02 -4.31919,0.6154 -1.158598,0.6154 -2.45263,2.0036 -3.063327,3.273 -0.504808,1.0304 -0.552826,1.3194 -0.552826,3.1116 0,1.7096 0.06772,2.1148 0.490034,3.0528 0.640244,1.432 1.899803,2.755 3.284949,3.468 1.000998,0.5128 1.312502,0.5766 2.90942,0.5766 1.534124,0 1.928122,-0.074 2.842932,-0.5178 1.044092,-0.5178 2.447706,-1.7884 3.020232,-2.7402 l 0.29796,-0.494 0.587302,1.3632 c 0.32751,0.7528 0.590996,1.4608 0.590996,1.5882 0,0.3766 -1.327278,1.6072 -2.543742,2.3738 -1.84686,1.1582 -3.968286,1.592 -6.233768,1.2794 m -0.005,0"/>
 <path style="fill:#8b9cbe" d="m 24.10743,41.90539 c -0.640244,-0.088 -1.77914,-0.464 -2.538816,-0.8354 -4.949585,-2.4088 -6.973745,-8.4756 -4.535889,-13.5858 2.785064,-5.843 10.384279,-7.3324 14.957105,-2.9314 1.322352,1.2706 1.909652,2.3548 3.900568,7.1624 2.078332,5.0276 2.46248,5.818 3.135968,6.4882 0.721506,0.713 1.39007,0.953 2.669328,0.953 2.101726,0 3.602608,-1.3194 3.602608,-3.1604 0,-1.5582 -0.539284,-2.0572 -3.289874,-3.049 -4.188678,-1.5346 -5.545504,-2.9214 -5.55043,-5.7066 0,-1.4858 0.370604,-2.4764 1.312502,-3.503 1.351902,-1.4658 3.68387,-1.9498 5.747428,-1.222 0.880338,0.3178 2.722272,1.9736 2.722272,2.4476 0,0.23 -1.067484,0.933 -1.659712,1.0992 -0.312734,0.082 -0.582376,-0.024 -0.943128,-0.3764 -0.731358,-0.7128 -1.226316,-0.933 -2.101728,-0.933 -1.510732,0 -2.447704,0.923 -2.447704,2.4138 0,1.4858 0.59592,1.9884 3.573058,3.009 4.102492,1.407 5.314032,2.6776 5.338656,5.6178 0.02462,2.5402 -1.10196,4.3724 -3.342816,5.4566 -1.019466,0.489 -1.365446,0.5516 -3.030082,0.5516 -2.376292,0 -3.443778,-0.449 -4.77598,-1.9736 -0.89511,-1.0254 -1.803766,-2.9502 -4.713186,-9.9764 -1.206614,-2.9114 -2.755514,-4.3384 -5.338656,-4.9 -1.308808,-0.2838 -3.131044,-0.02 -4.31919,0.6154 -1.158598,0.6154 -2.45263,2.0036 -3.063327,3.273 -0.504808,1.0304 -0.552826,1.3194 -0.552826,3.1116 0,1.7096 0.06772,2.1148 0.490034,3.0528 0.640244,1.432 1.899803,2.755 3.284949,3.468 1.000998,0.5128 1.312502,0.5766 2.90942,0.5766 1.534124,0 1.928122,-0.074 2.842932,-0.5178 1.044092,-0.5178 2.447706,-1.7884 3.020232,-2.7402 l 0.29796,-0.494 0.587302,1.3632 c 0.32751,0.7528 0.590996,1.4608 0.590996,1.5882 0,0.3766 -1.327278,1.6072 -2.543742,2.3738 -1.84686,1.1582 -3.968286,1.592 -6.233768,1.2794 m -0.005,0"/>
</svg>
