<svg xmlns="http://www.w3.org/2000/svg" width="64" height="64" version="1">
 <path style="opacity:0.2" d="M 32,7.0003846 C 17.555707,7.0003846 6.0001924,18.555899 6.0001924,33.000192 6.0001924,47.444485 17.555707,59 32,59 c 2.311183,0 4,-2.022185 4,-4.333368 0,-1.155552 0.04449,-2.022185 -0.822184,-2.888779 -0.577775,-0.866653 -1.155551,-1.733327 -1.155551,-2.888778 0,-2.311183 2.022385,-3.88909 4.333368,-3.88909 l 5.199961,0 c 8.087941,0 14.443894,-6.800231 14.443894,-14.888171 0,-12.711906 -11.555915,-23.1118294 -25.999808,-23.1118294 z"/>
 <path style="fill:#b09a7c" d="m 32,6.0003996 c -14.444293,0 -25.9998076,11.5555144 -25.9998076,25.9998074 0,14.444293 11.5555146,25.999808 25.9998076,25.999808 2.311183,0 4,-2.022185 4,-4.333368 0,-1.155552 0.04449,-2.022185 -0.822184,-2.888779 C 34.600041,49.911215 34.022265,49.044541 34.022265,47.88909 34.022265,45.577907 36.04465,44 38.355633,44 l 5.199961,0 c 8.087941,0 14.443894,-6.800231 14.443894,-14.888171 0,-12.711906 -11.555915,-23.1118294 -25.999808,-23.1118294 z"/>
 <path style="fill:#f3c72f" d="m 14.000133,32.000207 c -2.133384,0 -3.99997,-1.865986 -3.99997,-3.99997 0,-2.133984 1.866586,-3.999971 3.99997,-3.999971 2.133384,0 3.999971,1.865987 3.999971,3.999971 0,2.133984 -1.866587,3.99997 -3.999971,3.99997 z"/>
 <path style="fill:#327cc4" d="m 24.000059,20.000296 c -2.133384,0 -3.99997,-1.866646 -3.99997,-3.99997 0,-2.133325 1.866646,-3.999971 3.99997,-3.999971 2.133324,0 3.999971,1.866646 3.999971,3.999971 0,2.133324 -1.866647,3.99997 -3.999971,3.99997 z"/>
 <path style="fill:#0e7d43" d="m 37.999956,20.000296 c -2.133385,0 -3.999971,-1.866646 -3.999971,-3.99997 0,-2.133325 1.866646,-3.999971 3.999971,-3.999971 2.133324,0 3.99997,1.866646 3.99997,3.999971 0,2.133324 -1.866646,3.99997 -3.99997,3.99997 z"/>
 <path style="fill:#d94d4d" d="m 47.999882,32.000207 c -2.133385,0 -3.999971,-1.866646 -3.999971,-3.99997 0,-2.133324 1.866646,-3.999971 3.999971,-3.999971 2.133324,0 3.99997,1.866647 3.99997,3.999971 0,2.133324 -1.866646,3.99997 -3.99997,3.99997 z"/>
 <path style="opacity:0.2;fill:#8b9cbe" d="M 32,6 C 17.555707,6 6,17.555707 6,32 c 0,0.110263 0.011662,0.217482 0.017578,0.326172 C 6.3714766,18.198989 17.781735,7 32,7 46.200335,7 57.601696,17.052316 57.982422,29.470703 57.987909,29.350179 58,29.231347 58,29.109375 58,16.397669 46.443893,6 32,6 Z m 2.171875,42.855469 c -0.09,0.333998 -0.148437,0.681158 -0.148437,1.035156 0,0.169365 0.01607,0.330521 0.03906,0.488281 0.02582,-0.177144 0.0632,-0.352071 0.109375,-0.523437 0.205998,0.703995 0.603816,1.31388 1.007813,1.921875 0.731637,0.731637 0.720803,1.475853 0.801757,2.382812 0.02238,-0.161954 0.03711,-0.325717 0.03711,-0.492187 0,-1.155992 0.02713,-2.024631 -0.838866,-2.890625 -0.403997,-0.607995 -0.801815,-1.21788 -1.007813,-1.921875 z"/>
 <path style="opacity:0.1" d="M 46.671876,17.007845 C 45.91163,16.9188 45.179504,17.475329 44.554688,18.128939 43.721572,19.00046 30.875106,30.923964 27.066406,34.11722 c -3.015742,2.52844 -7.487439,7.87669 -7.035156,11.839844 -1.189438,1.523902 -3.078499,3.972986 -3.753906,5.136718 -0.68773,-0.162402 -1.402002,-0.08498 -2.113282,0.15625 C 11.176198,52.263236 9.0815808,56.455554 6,53.94925 c 2.605625,4.824806 7.202515,6.112152 10.523438,4.207032 1.90664,-1.09379 2.663735,-2.70361 2.429687,-4.148438 0.08585,-0.02356 0.14438,-0.02356 0.25,-0.0625 0.573317,-0.211374 3.579379,-3.46678 5.003907,-5.023436 4.052762,-0.606706 8.414998,-5.717692 10.324218,-8.992188 2.469614,-4.23567 11.974796,-18.760422 12.691406,-19.722656 0.71658,-0.962172 1.211724,-2.072774 0.214844,-2.875 -0.255904,-0.192652 -0.51221,-0.294537 -0.765624,-0.324219 z"/>
 <path style="fill:#783e26" d="m 21.18354,47.399612 c -3.717114,-3.823294 2.178986,-11.178814 5.882016,-14.283488 3.8087,-3.193256 16.654416,-15.116786 17.487532,-15.988307 0.83309,-0.871479 1.861914,-1.565544 2.885528,-0.794933 0.99688,0.802226 0.501596,1.911615 -0.214984,2.873786 -0.71661,0.962234 -10.222006,15.485992 -12.69162,19.721662 -2.401104,4.118126 -8.68347,11.172984 -13.348472,8.47128 z"/>
 <path style="fill:#777777" d="m 16.871943,52.63053 c -0.569545,-1.191542 -0.981202,-1.062682 -0.803622,-2.120666 0.122482,-0.729706 5.123473,-7.05115 5.123473,-7.05115 0.802508,-0.320412 1.90574,0.06394 2.77891,0.785924 0.917478,0.669628 1.53764,1.624634 1.376052,2.44314 0,0 -5.423445,5.993128 -6.143346,6.258546 -1.043779,0.384822 -0.997138,-0.02772 -2.331467,-0.315794 z"/>
 <path style="fill:#62473c" d="m 6,52.948842 c 2.605625,4.824806 7.201255,6.112666 10.522178,4.207546 2.580661,-1.480458 3.068573,-3.91129 1.820748,-5.590254 C 17.105057,49.900566 15.630024,49.753736 14.16506,50.250568 11.177196,51.263772 9.0815808,55.455146 6,52.948842 Z"/>
</svg>
