<svg xmlns="http://www.w3.org/2000/svg" width="64" height="64" version="1.1">
 <path style="opacity:0.2" d="M 32,4 A 29,29 0 0 0 3,33 29,29 0 0 0 32,62 29,29 0 0 0 61,33 29,29 0 0 0 32,4 Z"/>
 <path style="fill:#4f4f4f" d="M 32,3 A 29,29 0 0 0 3,32 29,29 0 0 0 32,61 29,29 0 0 0 61,32 29,29 0 0 0 32,3 Z"/>
 <path style="opacity:0.2" d="M 32,10 C 19.29745,10 9,20.297451 9,33 9,45.70255 19.29745,56 32,56 44.70255,56 55,45.70255 55,33 55,20.297451 44.70255,10 32,10 Z M 42.988282,21.000202 H 47.0625 v 3.999391 h -1.683594 c -0.75345,0 -1.276804,0.275938 -1.574218,0.551862 C 43.507274,25.817521 43,26.283705 43,26.953797 V 28 h 4.0625 v 4 H 43 V 44 H 37 V 32 h -3 v -4 h 3 v -1.706831 c 0,-1.803343 0.277856,-3.134858 1.289062,-3.992185 1.011206,-0.86718 2.577668,-1.300782 4.69922,-1.300782 z M 17,23.875 h 6 V 40 h 8 v 4 H 17 Z"/>
 <path style="fill:#3be471" d="M 32,9 C 19.29745,9 9,19.297451 9,32 9,44.70255 19.29745,55 32,55 44.70255,55 55,44.70255 55,32 55,19.297451 44.70255,9 32,9 Z M 42.988282,20.000202 H 47.0625 v 3.999391 h -1.683594 c -0.75345,0 -1.276804,0.275938 -1.574218,0.551862 C 43.507274,24.817521 43,25.283705 43,25.953797 V 27 h 4.0625 v 4 H 43 V 43 H 37 V 31 h -3 v -4 h 3 v -1.706831 c 0,-1.803343 0.277856,-3.134858 1.289062,-3.992185 1.011206,-0.86718 2.577668,-1.300782 4.69922,-1.300782 z M 17,22.875 h 6 V 39 h 8 v 4 H 17 Z"/>
 <path style="opacity:0.1;fill:#8b9cbe" d="M 32 3 A 29 29 0 0 0 3 32 A 29 29 0 0 0 3.0214844 32.408203 A 29 29 0 0 1 32 4 A 29 29 0 0 1 60.978516 32.574219 A 29 29 0 0 0 61 32 A 29 29 0 0 0 32 3 z"/>
 <path style="fill:#8b9cbe;opacity:0.2" d="M 32 9 C 19.29745 9 9 19.297451 9 32 C 9 32.167685 9.008148 32.333171 9.0117188 32.5 C 9.2786436 20.029154 19.465135 10 32 10 C 44.534865 10 54.721356 20.029154 54.988281 32.5 C 54.991852 32.333171 55 32.167685 55 32 C 55 19.297451 44.70255 9 32 9 z M 45.378906 24 C 44.625456 24 44.102102 24.274857 43.804688 24.550781 C 43.507274 24.816847 43 25.283033 43 25.953125 L 43 26.953125 C 43 26.283033 43.507274 25.816847 43.804688 25.550781 C 44.102102 25.274857 44.625456 25 45.378906 25 L 47.0625 25 L 47.0625 24 L 45.378906 24 z M 34 31 L 34 32 L 37 32 L 37 31 L 34 31 z M 43 31 L 43 32 L 47.0625 32 L 47.0625 31 L 43 31 z M 17 43 L 17 44 L 31 44 L 31 43 L 17 43 z M 37 43 L 37 44 L 43 44 L 43 43 L 37 43 z"/>
</svg>
