<svg xmlns="http://www.w3.org/2000/svg" width="64" height="64" version="1">
 <path style="opacity:0.2" d="m 10,56 0,2 c 0,1.662 1.338,3 3,3 l 38,0 c 1.662,0 3,-1.338 3,-3 l 0,-2 c 0,1.662 -1.338,3 -3,3 l -38,0 c -1.662,0 -3,-1.338 -3,-3 z"/>
 <path style="fill:#e81d62" d="M 54,57 54,7 C 54,5.338 52.662,4 51,4 L 13,4 c -1.662,0 -3,1.338 -3,3 l 0,50 c 0,1.662 1.338,3 3,3 l 38,0 c 1.662,0 3,-1.338 3,-3 z"/>
 <path style="opacity:0.1" d="M 14,9 14,57 50,57 50,25.828 33.172,9 14,9 Z M 38.828,9 50,20.172 50,9 38.828,9 Z"/>
 <path style="fill:#f5f5f5" d="M 14,8 14,56 50,56 50,24.828 33.172,8 14,8 Z M 38.828,8 50,19.1718 50,8 38.828,8 Z"/>
 <path style="opacity:0.1;fill:#8b9cbe" d="M 13 4 C 11.338 4 10 5.338 10 7 L 10 8 C 10 6.338 11.338 5 13 5 L 51 5 C 52.662 5 54 6.338 54 8 L 54 7 C 54 5.338 52.662 4 51 4 L 13 4 z"/>
 <path style="opacity:0.5" d="M 32.003906 26 L 32 26.003906 C 27.8052 26.003906 24.221128 27.425941 22.736328 29.439453 C 22.611688 29.608495 22.502263 29.780114 22.408203 29.957031 C 22.318803 30.125166 22.241821 30.296321 22.181641 30.470703 A 10 5.498031 0 0 0 22.140625 30.630859 C 22.106345 30.749038 22.069188 30.86771 22.048828 30.988281 A 10 5.498031 0 0 0 22 31.501953 C 22.00055 31.680602 22.018741 31.859965 22.050781 32.037109 A 10 5.498031 0 0 0 22.1875 32.550781 A 10 5.498031 0 0 0 22.417969 33.064453 A 10 5.498031 0 0 0 22.736328 33.564453 A 10 5.498031 0 0 0 32 37 A 10 5.498031 0 0 0 41.263672 33.564453 A 10 5.498031 0 0 0 41.265625 33.558594 A 10 5.498031 0 0 0 41.537109 33.134766 C 41.552909 33.106896 41.572831 33.078761 41.587891 33.050781 A 10 5.498031 0 0 0 41.751953 32.685547 C 41.775273 32.628027 41.804279 32.571566 41.824219 32.513672 A 10 5.498031 0 0 0 41.90625 32.208984 C 41.92545 32.128374 41.946224 32.047885 41.958984 31.966797 A 10 5.498031 0 0 0 42 31.501953 A 10 5.498031 0 0 0 41.947266 30.955078 C 41.855266 30.419027 41.617578 29.911699 41.267578 29.4375 C 39.781578 27.423184 36.197906 26 32.003906 26 z M 22.736328 36 A 10 5.09051 0 0 0 22 37.910156 A 10 5.09051 0 0 0 32 43 A 10 5.09051 0 0 0 42 37.908203 A 10 5.09051 0 0 0 41.263672 36 A 10 5.09051 0 0 1 32 39.181641 A 10 5.09051 0 0 1 22.736328 36 z M 22.736328 42 A 10 5.09051 0 0 0 22 43.908203 A 10 5.09051 0 0 0 32 49 A 10 5.09051 0 0 0 42 43.910156 A 10 5.09051 0 0 0 41.263672 42 A 10 5.09051 0 0 1 32 45.183594 A 10 5.09051 0 0 1 22.736328 42 z"/>
</svg>
