<svg xmlns="http://www.w3.org/2000/svg" width="64" height="64" version="1">
 <path style="opacity:0.2" d="m 10,56 0,2 c 0,1.662 1.338,3 3,3 l 38,0 c 1.662,0 3,-1.338 3,-3 l 0,-2 c 0,1.662 -1.338,3 -3,3 l -38,0 c -1.662,0 -3,-1.338 -3,-3 z"/>
 <path style="fill:#636e73" d="M 54,57 54,7 C 54,5.338 52.662,4 51,4 L 13,4 c -1.662,0 -3,1.338 -3,3 l 0,50 c 0,1.662 1.338,3 3,3 l 38,0 c 1.662,0 3,-1.338 3,-3 z"/>
 <path style="opacity:0.1" d="M 14,9 14,57 50,57 50,25.828 33.172,9 14,9 Z M 38.828,9 50,20.172 50,9 38.828,9 Z"/>
 <path style="fill:#f5f5f5" d="M 14,8 14,56 50,56 50,24.828 33.172,8 14,8 Z M 38.828,8 50,19.1718 50,8 38.828,8 Z"/>
 <path style="opacity:0.1;fill:#8b9cbe" d="M 13 4 C 11.338 4 10 5.338 10 7 L 10 8 C 10 6.338 11.338 5 13 5 L 51 5 C 52.662 5 54 6.338 54 8 L 54 7 C 54 5.338 52.662 4 51 4 L 13 4 z"/>
 <path style="opacity:0.5" d="M 31.951172,29.994141 27.572266,45.111328 24.320312,37.003906 H 18 v 2.994141 h 4.480469 l 4.378906,10.996094 h 1.941406 L 34.009766,32.996094 H 43 V 29.994141 Z M 33.445312,38 38.207031,44.099609 33,51 h 2.599609 L 39.5,45.767578 43.400391,51 H 46 L 40.898438,44.222656 45.748047,38 H 43.150391 L 39.597656,42.554688 36.041016,38 Z"/>
</svg>
