<svg xmlns="http://www.w3.org/2000/svg" width="64" height="64" version="1">
 <path style="opacity:0.2" d="m 10,56 0,2 c 0,1.662 1.338,3 3,3 l 38,0 c 1.662,0 3,-1.338 3,-3 l 0,-2 c 0,1.662 -1.338,3 -3,3 l -38,0 c -1.662,0 -3,-1.338 -3,-3 z"/>
 <path style="fill:#fec006" d="M 54,57 54,7 C 54,5.338 52.662,4 51,4 L 13,4 c -1.662,0 -3,1.338 -3,3 l 0,50 c 0,1.662 1.338,3 3,3 l 38,0 c 1.662,0 3,-1.338 3,-3 z"/>
 <path style="opacity:0.1" d="M 14,9 14,57 50,57 50,25.828 33.172,9 14,9 Z M 38.828,9 50,20.172 50,9 38.828,9 Z"/>
 <path style="fill:#f5f5f5" d="M 14,8 14,56 50,56 50,24.828 33.172,8 14,8 Z M 38.828,8 50,19.1718 50,8 38.828,8 Z"/>
 <path style="opacity:0.2;fill:#8b9cbe" d="M 13 4 C 11.338 4 10 5.338 10 7 L 10 8 C 10 6.338 11.338 5 13 5 L 51 5 C 52.662 5 54 6.338 54 8 L 54 7 C 54 5.338 52.662 4 51 4 L 13 4 z"/>
 <path style="fill:none;stroke:#000000;stroke-width:2.79999995;stroke-linecap:square;opacity:0.5" d="m 19.430588,36.457732 2.15404,0.0476 c 4.23948,0.0924 7.486031,0.589338 8.988371,2.921318 3.50518,5.44068 -2.657151,6.904522 -5.446511,3.062082 -2.60666,-4.2175 -1.7059,-12.979481 2.04974,-13.997001 6.79574,-1.54882 8.121011,9.837741 12.304771,7.732001 3.23162,-1.62652 -2.242971,-8.979461 0.918537,-10.738001 1.355018,-0.75376 4.1895,1.682518 4.1895,1.682518"/>
</svg>
