<svg xmlns="http://www.w3.org/2000/svg" width="64" height="64" version="1">
 <rect style="opacity:0.2" width="50" height="56" x="-57" y="5" rx="2.778" ry="2.8" transform="scale(-1,1)"/>
 <rect style="fill:#b2bfd9" width="50" height="56" x="-57" y="4" rx="2.778" ry="2.8" transform="scale(-1,1)"/>
 <rect style="fill:#65424f" width="40" height="40" x="-52" y="9" rx="0" ry="0" transform="scale(-1,1)"/>
 <path style="opacity:0.2;fill-rule:evenodd" d="m 35.636719,14.96661 c -0.310236,3.42e-4 -0.598971,0.01967 -0.853516,0.03711 C 31.970014,15.196512 29.004236,17.774646 29,22.107235 l 0,0.05078 0.0039,0.04883 c 0.153034,2.319815 1.036091,4.131817 2.175782,5.517578 1.139688,1.385762 2.483404,2.393417 3.68164,3.416016 2.36432,2.017758 4.235219,3.834361 4.125,8.742187 -0.316838,1.332302 -1.088471,1.730593 -2.095703,1.984376 -1.036233,0.261088 -2.050781,0.146484 -2.050781,0.146484 l -0.09766,-0.01367 -0.09766,0 c -0.905008,0 -1.398977,-0.322808 -1.865234,-1.001953 C 32.31304,40.318715 32,39.224108 32,37.999813 l -3,0 c 0,1.702016 0.38718,3.357988 1.306641,4.697266 0.904457,1.317423 2.452562,2.250445 4.255859,2.28125 0.09953,0.01338 1.439253,0.205376 3.060547,-0.203125 1.680283,-0.423365 3.799672,-1.741913 4.345703,-4.363282 L 41.994141,40.284969 42,40.156063 c 0.196489,-5.949481 -2.629985,-9.110907 -5.191406,-11.296875 -1.280711,-1.092984 -2.470578,-2.015357 -3.3125,-3.039063 -0.831652,-1.011214 -1.366495,-2.084464 -1.488282,-3.757812 0.02513,-3.007182 1.765582,-3.983148 2.980469,-4.066406 0.928898,-0.06366 1.364294,-0.02436 1.625,0.21289 0.260706,0.23725 0.78711,1.175544 0.78711,3.791016 l 3,0 c 0,-2.984528 -0.508158,-4.863657 -1.767579,-6.009766 -0.944564,-0.859581 -2.065386,-1.024463 -2.996093,-1.023437 z M 22,14.999813 l 0,30 3,0 0,-30 -3,0 z"/>
 <path style="fill:none;stroke:#8b9cbe;stroke-width:3" d="m 38.900236,21 c 0,-5.6 -2.066716,-5.633431 -4.013791,-5.5 -2.017928,0.138292 -4.382599,1.916445 -4.386209,5.609141 C 31.031831,29.167528 40.863642,28.095315 40.5,39.106015 39.656353,43.15617 34.645144,42.5 34.645144,42.5 31.898199,42.5 30.500236,39.926311 30.500236,37"/>
 <rect style="fill:#8b9cbe" width="3" height="30" x="22" y="14"/>
 <path style="fill:#8b9cbe;opacity:0.2" d="M 9.7773438 4 C 8.2384549 4 7 5.2495813 7 6.8007812 L 7 7.8007812 C 7 6.2495813 8.2384549 5 9.7773438 5 L 54.222656 5 C 55.761545 5 57 6.2495813 57 7.8007812 L 57 6.8007812 C 57 5.2495813 55.761545 4 54.222656 4 L 9.7773438 4 z"/>
</svg>
