<svg xmlns="http://www.w3.org/2000/svg" width="64" height="64" version="1">
 <path style="opacity:0.2" d="m 4.0000004,51.12407 0,1.999971 C 4.0000004,54.718018 5.2495825,56 6.8007604,56 L 57.20004,56 C 58.750017,56 60,54.718018 60,53.124041 l 0,-1.999971 c 0,1.593977 -1.249983,2.875959 -2.79996,2.875959 l -50.3992796,0 c -1.5503779,0 -2.79996,-1.281982 -2.79996,-2.875959 z"/>
 <rect style="fill:#4f4f4f" width="45.999" height="56" x="-55" y="-60" rx="2.876" ry="2.8" transform="matrix(0,-1,-1,0,0,0)"/>
 <g style="opacity:0.2" transform="matrix(1.9999714,0,0,1.9999714,5.760572e-5,8.008e-4)">
  <rect width="20" height="5" x="6" y="10" rx="1.333" ry="1.25"/>
  <rect width="20" height="5" x="6" y="18" rx="1.333" ry="1.25"/>
 </g>
 <rect style="fill:#8b9cbe" width="39.999" height="10" x="12" y="19" rx="2.666" ry="2.5"/>
 <rect style="fill:#8b9cbe" width="39.999" height="10" x="12" y="35" rx="2.666" ry="2.5"/>
 <path style="opacity:0.1;fill:#8b9cbe" d="M 6.8007812 9 C 5.2496034 9 4 10.282223 4 11.875 L 4 12.876953 C 4 11.284176 5.2496034 10.001953 6.8007812 10.001953 L 57.199219 10.001953 C 58.749196 10.001953 60 11.284176 60 12.876953 L 60 11.875 C 60 10.282223 58.749196 9 57.199219 9 L 6.8007812 9 z"/>
 <circle style="fill:#4fa0ff" cx="17" cy="24" r="3"/>
 <circle style="fill:#ff4f4f" cx="17" cy="40" r="3"/>
 <circle style="fill:#4fa0ff" cx="27" cy="24" r="3"/>
 <circle style="fill:#ff4f4f" cx="27" cy="40" r="3"/>
 <circle style="fill:#4fa0ff" cx="37" cy="24" r="3"/>
 <circle style="fill:#ff4f4f" cx="37" cy="40" r="3"/>
</svg>
