<svg xmlns="http://www.w3.org/2000/svg" width="64" height="64" version="1">
 <path style="opacity:0.2" d="M 31.5,5 C 21,5 9,21.8 9,35.1 9,48.4 16.03125,61 31.5,61 46.96875,61 54,48.4 54,35.1 54,21.8 42,5 31.5,5 Z"/>
 <path style="fill:#b2bfd9" d="M 31.5,4 C 21,4 9,20.8 9,34.1 9,47.4 16.03125,60 31.5,60 46.96875,60 54,47.4 54,34.1 54,20.8 42,4 31.5,4 Z"/>
 <circle style="opacity:0.1" cx="31.5" cy="41.5" r="13.5"/>
 <circle style="fill:#ffb001" cx="31.5" cy="40.5" r="13.5"/>
 <path style="opacity:0.2;fill:#8b9cbe" d="M 31.5 4 C 21 4 9 20.799609 9 34.099609 C 9 34.253307 9.0137448 34.405101 9.015625 34.558594 C 9.3319642 21.348307 21.141358 5 31.5 5 C 41.858642 5 53.668036 21.348307 53.984375 34.558594 C 53.986255 34.405101 54 34.253307 54 34.099609 C 54 20.799609 42 4 31.5 4 z"/>
</svg>
