<svg xmlns="http://www.w3.org/2000/svg" width="64" height="64" version="1">
 <path style="opacity:0.2" d="m 4.0512391,32.000974 c -0.01174,0.334709 -0.05078,0.662298 -0.05078,0.999967 C 4.0004588,48.51242 16.488039,61 31.999518,61 47.510997,61 59.998577,48.51242 59.998577,33.000941 c 0,-0.337669 -0.03904,-0.665258 -0.05078,-0.999967 -0.527982,15.041495 -12.775571,26.999093 -27.949061,26.999093 -15.17389,0 -27.4210786,-11.957598 -27.9490608,-26.999093 z"/>
 <rect style="fill:#4f4f4f" width="56" height="56" x="-60" y="-59.99" rx="27.999" ry="27.999" transform="matrix(0,-1,-1,0,0,0)"/>
 <path style="fill:#f2f2f2" d="m 12.220565,51.780343 17.307818,-22.253252 2.342121,2.342121 2.602913,2.602913 z"/>
 <path style="fill:#f34235" d="m 51.781035,12.220673 -22.253252,17.307818 4.945034,4.945034 z"/>
 <path style="opacity:0.2;fill:#8b9cbe" d="m 51.781035,12.220673 -39.56067,39.55867 c -10.9582322,-10.958231 -10.9582322,-28.603038 0,-39.56067 10.958231,-10.9582321 28.603039,-10.9582321 39.56067,0 z"/>
 <path style="opacity:0.1;fill:#8b9cbe" d="M 32.003906 4.0019531 C 16.492227 4.0019531 4.0039062 16.490474 4.0039062 32.001953 C 4.0038389 32.115727 4.0152009 32.225773 4.0214844 32.337891 C 4.3730102 17.136645 16.71495 5.0019531 32.003906 5.0019531 C 47.292665 5.0019531 59.634797 17.136645 59.986328 32.337891 C 59.992723 32.225773 60.003906 32.115727 60.003906 32.001953 C 60.003906 16.490474 47.515385 4.0019531 32.003906 4.0019531 z"/>
</svg>
