<svg width="64" height="64" version="1" xmlns="http://www.w3.org/2000/svg">
 <rect x="4" y="5" width="56" height="56" rx="2.8" ry="2.8" style="opacity:.2"/>
 <rect x="4" y="4" width="56" height="56" rx="2.8" ry="2.8" style="fill:#4f4f4f"/>
 <path d="M 6.8007812 4 C 5.2495812 4 4 5.2495812 4 6.8007812 L 4 7.8007812 C 4 6.2495812 5.2495812 5 6.8007812 5 L 57.199219 5 C 58.750419 5 60 6.2495813 60 7.8007812 L 60 6.8007812 C 60 5.2495813 58.750419 4 57.199219 4 L 6.8007812 4 z" style="fill:#8b9cbe;opacity:.1"/>
 <path d="m36.880584 8.9999994c-3.476506 2.1018166-7.047576 4.0577886-10.447178 6.2803116-1.247274 5.959453-2.4558 11.927647-3.623944 17.903093 1.31099 1.664394 2.748874 3.224644 4.10668 4.850702-1.32631-0.423192-2.992426-1.377402-4.456142-1.968058 1.152254 4.255722 2.357526 8.498852 3.614382 12.724868 1.680506-0.14454 3.348232-0.413142 5.028196-0.563192-1.205986 1.242438-2.508102 2.388196-3.721246 3.623592 2.120792-0.882468 4.206668-1.846678 6.320318-2.746122 0.40609 0.665274-0.798058 3.047558-0.960296 4.339976 0.926522-1.50051 1.809066-3.028632 2.689532-4.55669l0.811316-0.381574s-0.237584-0.238074 0 0c1.842638 0.290654 3.681202 0.64152 5.522338 0.919148-1.656868-0.813338-3.341298-1.56942-4.99819-2.38271 1.656928-0.68688 3.422368-1.208112 5.114882-1.848296-1.664556-0.0156-3.329206 0.02998-4.993802 0.011 0.26891-0.593796 2.278384-1.641338 3.14884-2.452726-1.215822-1.412202-2.585738-2.684676-3.810388-4.089218 2.118056-6.936158 4.340664-13.840184 6.515798-20.758717-1.950644-2.970338-3.856266-5.971576-5.861096-8.9054682z" style="opacity:.2"/>
 <path d="m36.880584 7.9999994c-3.476506 2.1018166-7.047576 4.0577886-10.447178 6.2803116-1.247274 5.959453-2.4558 11.927647-3.623944 17.903093 1.31099 1.664394 2.748874 3.224644 4.10668 4.850702-1.32631-0.423192-2.992426-1.377402-4.456142-1.968058 1.152254 4.255722 2.357526 8.498852 3.614382 12.724868 1.680506-0.14454 3.348232-0.413142 5.028196-0.563192-1.205986 1.242438-2.508102 2.388196-3.721246 3.623592 2.120792-0.882468 4.206668-1.846678 6.320318-2.746122 0.40609 0.665274-0.798058 3.047558-0.960296 4.339976 0.926522-1.50051 1.809066-3.028632 2.689532-4.55669l0.811316-0.381574s-0.237584-0.238074 0 0c1.842638 0.290654 3.681202 0.64152 5.522338 0.919148-1.656868-0.813338-3.341298-1.56942-4.99819-2.38271 1.656928-0.68688 3.422368-1.208112 5.114882-1.848296-1.664556-0.0156-3.329206 0.02998-4.993802 0.011 0.26891-0.593796 2.278384-1.641338 3.14884-2.452726-1.215822-1.412202-2.585738-2.684676-3.810388-4.089218 2.118056-6.936158 4.340664-13.840184 6.515798-20.758717-1.950644-2.970338-3.856266-5.971576-5.861096-8.9054682z" style="fill:#ffc107"/>
 <path d="m35.192278 14.984701c-2.929074 7.874205-4.77914 17.390543-5.228764 26.187523-0.10594 1.225772-0.07606 0.977402 0.72363 1.93985 3.969068 4.777628 7.9297 9.83238 11.92074 13.887926l-0.0013-0.280112c-3.815192-5.231198-7.63038-9.641566-11.445568-14.293172-0.333766-0.400656-0.424738-0.406318-0.396902-0.89176 0.506408-8.817444 2.489944-18.580452 4.428164-26.550255z" style="opacity:.2"/>
 <path d="m35.192278 13.984701c-2.929074 7.874205-4.77914 17.390543-5.228764 26.187523-0.10594 1.225772-0.07606 0.977402 0.72363 1.93985 3.969068 4.777628 7.9297 9.83238 11.92074 13.887926l-0.0013-0.280112c-3.815192-5.231198-7.63038-9.641566-11.445568-14.293172-0.333766-0.400656-0.424738-0.406318-0.396902-0.89176 0.506408-8.817444 2.489944-18.580452 4.428164-26.550255z" style="fill:#8b9cbe"/>
 <path d="m36.878906 8c-3.476506 2.101817-7.04571 4.058727-10.445312 6.28125-1.247274 5.959454-2.456856 11.926898-3.625 17.902344 0.05178 0.06574 0.106062 0.129474 0.160156 0.193359 1.119106-5.705721 2.273727-11.404566 3.464844-17.095703 3.399602-2.222523 6.968806-4.179433 10.445312-6.28125 1.931915 2.827187 3.773516 5.71763 5.650391 8.582031 0.0707-0.225337 0.142055-0.450471 0.212891-0.675781-1.950644-2.970338-3.858452-5.972358-5.863282-8.90625zm-14.417968 27.066406c0.104174 0.384757 0.215605 0.767468 0.326171 1.150391 0.469227 0.203942 0.94783 0.426217 1.431641 0.658203 0.469998 0.5516 0.939547 1.104201 1.412109 1.654297 0.447324 0.196563 0.885262 0.37764 1.28711 0.505859-0.887434-1.062758-1.801155-2.10617-2.699219-3.160156-0.594094-0.284866-1.192849-0.580612-1.757812-0.808594zm14.234374 3.101563c-0.15366 0.499518-0.316118 0.996262-0.46875 1.496093 0.07577 0.0869 0.15581 0.169742 0.232422 0.25586 0.07933-0.250475 0.159076-0.500821 0.236328-0.751953 0.926273 1.014959 1.89306 1.992703 2.814454 3.011719 0.198139-0.146244 0.378968-0.289295 0.52539-0.425782-1.06609-1.238286-2.238619-2.379275-3.339844-3.585937zm5.1875 6.027343c-0.806897-0.0076-1.614948-0.0031-2.421874 0.0039-0.792893 0.586308-1.78296 1.205864-2.277344 1.6875 1.535858-0.607116 3.145962-1.103894 4.699218-1.691407zm-4.925781 1.9375c-0.014 0.0225-0.06063 0.05286-0.07031 0.07422 0.07418 8.46e-4 0.148478-6.02e-4 0.222656 0-0.0508-0.02466-0.101604-0.04946-0.152344-0.07422zm2.171875 1.035157c-0.516216 0.17854-1.020412 0.37413-1.527344 0.566406 1.387904 0.235364 2.776085 0.48211 4.164063 0.691406-0.8739-0.428988-1.755569-0.843884-2.636719-1.257812zm-8.027344 2.058593c-0.774011 0.06914-1.545142 0.162079-2.316406 0.257813-0.47289 0.450396-0.944834 0.901286-1.402344 1.367187 1.242643-0.517065 2.471847-1.065652 3.703126-1.609374zm2.601563 0.878907c-0.11374 0.0484-0.22625 0.09968-0.339844 0.148437-0.2566 0.77942-0.546797 1.599545-0.621093 2.191406 0.179051-0.289975 0.347795-0.586339 0.519531-0.880859 0.03479-0.104665 0.06737-0.206691 0.101562-0.310547 0.03724-0.01598 0.07424-0.03249 0.111328-0.04883 0.09472-0.162721 0.191145-0.324382 0.28711-0.486328 0.02908-0.25601 0.02455-0.477095-0.05859-0.613281z" style="fill:#8b9cbe;opacity:.2"/>
</svg>
