<svg xmlns="http://www.w3.org/2000/svg" width="64" height="64" version="1">
 <path style="opacity:0.2" d="M 43,60 H 13.846154 C 11.715385,60 10,58.141666 10,55.833333 V 14.166666 C 10,11.858334 11.715385,10 13.846154,10 H 56.153846 C 58.284616,10 60,11.858334 60,14.166666 V 43 Z"/>
 <path style="fill:#b2bfd9" d="M 43,59 H 13.846154 C 11.715385,59 10,57.141666 10,54.833333 V 13.166666 c 0,-2.308332 1.715385,-4.1666659 3.846154,-4.1666659 H 56.153846 C 58.284616,9.0000001 60,10.858334 60,13.166666 V 42 Z"/>
 <path style="fill:#8b9cbe;opacity:0.2" d="M 13.845703 9 C 11.714934 9 10 10.857684 10 13.166016 L 10 14.166016 C 10 11.857684 11.714934 10 13.845703 10 L 56.154297 10 C 58.285067 10 60 11.857684 60 14.166016 L 60 13.166016 C 60 10.857684 58.285067 9 56.154297 9 L 13.845703 9 z"/>
 <path style="fill:#b0b0b0" d="M 14.5,12 C 13.671572,12 13,12.671573 13,13.5 13,14.328428 13.671572,15 14.5,15 15.328425,15 16,14.328428 16,13.5 16,12.671573 15.328425,12 14.5,12 Z m 4.5,0 v 3 h 32 v -3 z m 36.5,0 C 54.671572,12 54,12.671573 54,13.5 54,14.328428 54.671572,15 55.5,15 56.328425,15 57,14.328428 57,13.5 57,12.671573 56.328425,12 55.5,12 Z m -41,8 C 13.671572,20 13,20.671573 13,21.5 13,22.328428 13.671572,23 14.5,23 15.328425,23 16,22.328428 16,21.5 16,20.671573 15.328425,20 14.5,20 Z m 4.5,0 v 3 h 32 v -3 z m 36.5,0 C 54.671572,20 54,20.671573 54,21.5 54,22.328428 54.671572,23 55.5,23 56.328425,23 57,22.328428 57,21.5 57,20.671573 56.328425,20 55.5,20 Z m -41,8 C 13.671572,28 13,28.671573 13,29.5 13,30.328428 13.671572,31 14.5,31 15.328425,31 16,30.328428 16,29.5 16,28.671573 15.328425,28 14.5,28 Z m 4.5,0 v 3 h 32 v -3 z m 36.5,0 C 54.671572,28 54,28.671573 54,29.5 54,30.328428 54.671572,31 55.5,31 56.328425,31 57,30.328428 57,29.5 57,28.671573 56.328425,28 55.5,28 Z m -41,8 C 13.671572,36 13,36.671573 13,37.5 13,38.328428 13.671572,39 14.5,39 15.328425,39 16,38.328428 16,37.5 16,36.671573 15.328425,36 14.5,36 Z m 4.5,0 v 3 h 32 v -3 z m 36.5,0 C 54.671572,36 54,36.671573 54,37.5 54,38.328428 54.671572,39 55.5,39 56.328425,39 57,38.328428 57,37.5 57,36.671573 56.328425,36 55.5,36 Z m -41,8 C 13.671572,44 13,44.671573 13,45.5 13,46.328428 13.671572,47 14.5,47 15.328425,47 16,46.328428 16,45.5 16,44.671573 15.328425,44 14.5,44 Z m 4.5,0 v 3 h 32 v -3 z m -4.5,8 C 13.671572,52 13,52.671573 13,53.5 13,54.328428 13.671572,55 14.5,55 15.328425,55 16,54.328428 16,53.5 16,52.671573 15.328425,52 14.5,52 Z m 4.5,0 v 3 h 26 v -3 z"/>
 <path style="fill:#fafafa" d="m 46.923503,41.999999 c -2.173386,0 -3.923503,1.8955 -3.923503,4.25 V 59 L 60,41.999999 Z"/>
 <path style="opacity:0.1" d="m 21.210938,33.810485 -7,7 1.978515,1.978515 7,-7 z"/>
 <path style="fill:none;stroke:#6e6e6e;stroke-width:2.79999971" d="m 15.199998,40.800001 6.999999,-6.999999"/>
 <path style="opacity:0.1" d="m 14.694238,39.001371 a 3.2121928,3.2114176 0 0 0 -2.206071,0.972111 l -7.4938431,7.492035 a 3.2121928,3.2114176 0 1 0 4.5402186,4.541736 l 7.4938435,-7.494649 a 3.2121928,3.2114176 0 0 0 -2.334148,-5.511233 z"/>
 <path style="fill:#4f4f4f" d="m 14.694238,38.001369 a 3.2121928,3.2114176 0 0 0 -2.206071,0.972111 l -7.4938431,7.492035 a 3.2121928,3.2114176 0 1 0 4.5402186,4.541736 l 7.4938435,-7.494649 a 3.2121928,3.2114176 0 0 0 -2.334148,-5.511233 z"/>
 <circle style="opacity:0.3;fill:#328fff" cx="-33" cy="23" r="16.615" transform="scale(-1,1)"/>
 <path style="opacity:0.1" d="M 33.001953,6.0000017 C 23.073217,6.0000017 15,14.07322 15,24.001955 15,33.930692 23.073217,42.000002 33.001953,42.000002 42.930688,42.000002 51,33.930692 51,24.001955 51,14.07322 42.930688,6.0000017 33.001953,6.0000017 Z M 33,10.000002 c 7.743159,0 14,6.256841 14,14 0,7.743161 -6.256841,14 -14,14 -7.743161,0 -14,-6.256839 -14,-14 0,-7.743159 6.256839,-14 14,-14 z"/>
 <path style="fill:#328fff" d="M 33.001953 5 C 23.073217 5 15 13.073218 15 23.001953 C 15 32.93069 23.073217 41 33.001953 41 C 42.930688 41 51 32.93069 51 23.001953 C 51 13.073218 42.930688 5 33.001953 5 z M 33 9 C 40.743159 9 47 15.256841 47 23 C 47 30.743161 40.743159 37 33 37 C 25.256839 37 19 30.743161 19 23 C 19 15.256841 25.256839 9 33 9 z"/>
</svg>
