<svg xmlns="http://www.w3.org/2000/svg" width="64" height="64" version="1">
 <rect style="opacity:0.2" width="56" height="56" x="4" y="5" rx="3" ry="3"/>
 <rect style="fill:#37a0f2" width="56" height="56" x="4" y="4" rx="3" ry="3"/>
 <path style="opacity:0.2" d="m 29,52 v -1 h 6 v 1 z M 29,19.999 V 19 h 6 v 0.999 z"/>
 <path style="opacity:0.2;fill:#8b9cbe" d="M 7 4 C 5.338 4 4 5.338 4 7 L 4 8 C 4 6.338 5.338 5 7 5 L 57 5 C 58.662 5 60 6.338 60 8 L 60 7 C 60 5.338 58.662 4 57 4 L 7 4 z"/>
 <path style="fill:#8b9cbe" d="M 29,51 V 24.9999 h 6 V 51 Z m 0,-32.001 v -6 h 6 v 6 z"/>
</svg>
