<svg xmlns="http://www.w3.org/2000/svg" width="64" height="64" version="1">
 <circle style="opacity:0.2" cx="32.5" cy="32.5" r="28.5"/>
 <circle style="fill:#50b590" cx="32.5" cy="31.5" r="28.5"/>
 <rect style="fill:#30706b" width="51" height="17" x="7" y="23" rx="2.833" ry="2.833"/>
 <path style="opacity:0.2" d="m 15.5,27 c -0.76175,0 -1.375,0.61325 -1.375,1.375 v 0.806641 l -0.570312,-0.570313 c -0.538639,-0.538639 -1.404721,-0.538639 -1.94336,0 -0.538639,0.538639 -0.538639,1.404721 0,1.94336 L 12.181641,31.125 H 11.375 C 10.61325,31.125 10,31.73825 10,32.5 c 0,0.76175 0.61325,1.375 1.375,1.375 h 0.806641 l -0.570313,0.570312 c -0.538639,0.538639 -0.538639,1.404721 0,1.94336 0.538639,0.538639 1.404721,0.538639 1.94336,0 L 14.125,35.818359 V 36.625 c 0,0.76175 0.61325,1.375 1.375,1.375 0.76175,0 1.375,-0.61325 1.375,-1.375 v -0.806641 l 0.570312,0.570313 c 0.538639,0.538639 1.404721,0.538639 1.94336,0 0.538639,-0.538639 0.538639,-1.404721 0,-1.94336 L 18.818359,33.875 H 19.625 C 20.38675,33.875 21,33.26175 21,32.5 21,31.73825 20.38675,31.125 19.625,31.125 h -0.806641 l 0.570313,-0.570312 c 0.538639,-0.538639 0.538639,-1.404721 0,-1.94336 -0.538639,-0.538639 -1.404721,-0.538639 -1.94336,0 L 16.875,29.181641 V 28.375 C 16.875,27.61325 16.26175,27 15.5,27 Z m 13,0 c -0.76175,0 -1.375,0.61325 -1.375,1.375 v 0.806641 l -0.570312,-0.570313 c -0.538639,-0.538639 -1.404721,-0.538639 -1.94336,0 -0.538639,0.538639 -0.538639,1.404721 0,1.94336 L 25.181641,31.125 H 24.375 C 23.61325,31.125 23,31.73825 23,32.5 c 0,0.76175 0.61325,1.375 1.375,1.375 h 0.806641 l -0.570313,0.570312 c -0.538639,0.538639 -0.538639,1.404721 0,1.94336 0.538639,0.538639 1.404721,0.538639 1.94336,0 L 27.125,35.818359 V 36.625 c 0,0.76175 0.61325,1.375 1.375,1.375 0.76175,0 1.375,-0.61325 1.375,-1.375 v -0.806641 l 0.570312,0.570313 c 0.538639,0.538639 1.404721,0.538639 1.94336,0 0.538639,-0.538639 0.538639,-1.404721 0,-1.94336 L 31.818359,33.875 H 32.625 C 33.38675,33.875 34,33.26175 34,32.5 34,31.73825 33.38675,31.125 32.625,31.125 h -0.806641 l 0.570313,-0.570312 c 0.538639,-0.538639 0.538639,-1.404721 0,-1.94336 -0.538639,-0.538639 -1.404721,-0.538639 -1.94336,0 L 29.875,29.181641 V 28.375 C 29.875,27.61325 29.26175,27 28.5,27 Z m 13,0 c -0.76175,0 -1.375,0.61325 -1.375,1.375 v 0.806641 l -0.570312,-0.570313 c -0.538639,-0.538639 -1.404721,-0.538639 -1.94336,0 -0.538639,0.538639 -0.538639,1.404721 0,1.94336 L 38.181641,31.125 H 37.375 C 36.61325,31.125 36,31.73825 36,32.5 c 0,0.76175 0.61325,1.375 1.375,1.375 h 0.806641 l -0.570313,0.570312 c -0.538639,0.538639 -0.538639,1.404721 0,1.94336 0.538639,0.538639 1.404721,0.538639 1.94336,0 L 40.125,35.818359 V 36.625 c 0,0.76175 0.61325,1.375 1.375,1.375 0.76175,0 1.375,-0.61325 1.375,-1.375 v -0.806641 l 0.570312,0.570313 c 0.538639,0.538639 1.404721,0.538639 1.94336,0 0.538639,-0.538639 0.538639,-1.404721 0,-1.94336 L 44.818359,33.875 H 45.625 C 46.38675,33.875 47,33.26175 47,32.5 47,31.73825 46.38675,31.125 45.625,31.125 h -0.806641 l 0.570313,-0.570312 c 0.538639,-0.538639 0.538639,-1.404721 0,-1.94336 -0.538639,-0.538639 -1.404721,-0.538639 -1.94336,0 L 42.875,29.181641 V 28.375 C 42.875,27.61325 42.26175,27 41.5,27 Z"/>
 <rect style="fill:#8b9cbe" width="2.75" height="11" x="27.13" y="26" rx="1.375" ry="1.375"/>
 <rect style="fill:#8b9cbe" width="2.75" height="11" x="30.13" y="-34" rx="1.375" ry="1.375" transform="rotate(90)"/>
 <rect style="fill:#8b9cbe" width="2.75" height="11" x="-3.5" y="36.93" rx="1.375" ry="1.375" transform="rotate(-45)"/>
 <rect style="fill:#8b9cbe" width="2.75" height="11" x="41.05" y="-3.38" rx="1.375" ry="1.375" transform="rotate(45)"/>
 <rect style="fill:#8b9cbe" width="2.75" height="11" x="14.13" y="26" rx="1.375" ry="1.375"/>
 <rect style="fill:#8b9cbe" width="2.75" height="11" x="30.13" y="-21" rx="1.375" ry="1.375" transform="rotate(90)"/>
 <rect style="fill:#8b9cbe" width="2.75" height="11" x="-12.69" y="27.73" rx="1.375" ry="1.375" transform="rotate(-45)"/>
 <rect style="fill:#8b9cbe" width="2.75" height="11" x="31.86" y="5.81" rx="1.375" ry="1.375" transform="rotate(45)"/>
 <rect style="fill:#8b9cbe" width="2.75" height="11" x="40.13" y="26" rx="1.375" ry="1.375"/>
 <rect style="fill:#8b9cbe" width="2.75" height="11" x="30.13" y="-47" rx="1.375" ry="1.375" transform="rotate(90)"/>
 <rect style="fill:#8b9cbe" width="2.75" height="11" x="5.7" y="46.12" rx="1.375" ry="1.375" transform="rotate(-45)"/>
 <rect style="fill:#8b9cbe" width="2.75" height="11" x="50.24" y="-12.57" rx="1.375" ry="1.375" transform="rotate(45)"/>
 <path style="opacity:0.2;fill:#8b9cbe" d="M 32.5 3 A 28.5 28.5 0 0 0 4 31.5 A 28.5 28.5 0 0 0 4.0214844 32.082031 A 28.5 28.5 0 0 1 32.5 4 A 28.5 28.5 0 0 1 60.978516 31.917969 A 28.5 28.5 0 0 0 61 31.5 A 28.5 28.5 0 0 0 32.5 3 z"/>
 <path style="opacity:0.1" d="M 9.8339844 23 C 8.2643178 23 7 24.264318 7 25.833984 L 7 26.833984 C 7 25.264318 8.2643178 24 9.8339844 24 L 55.166016 24 C 56.735682 24 58 25.264318 58 26.833984 L 58 25.833984 C 58 24.264318 56.735682 23 55.166016 23 L 9.8339844 23 z"/>
 <path style="opacity:0.1;fill:#8b9cbe" d="M 9.8339844,41 C 8.2643178,41 7,39.735682 7,38.166016 v -1 C 7,38.735682 8.2643178,40 9.8339844,40 H 55.166016 C 56.735682,40 58,38.735682 58,37.166016 v 1 C 58,39.735682 56.735682,41 55.166016,41 Z"/>
</svg>
