<svg xmlns="http://www.w3.org/2000/svg" width="64" height="64" version="1.1">
 <path style="fill:#ff4e40;stroke:#808080;stroke-width:0;stroke-linecap:round;stroke-linejoin:round" d="m 47.166655,4.0000273 c -0.64633,0 -1.166664,0.5203558 -1.166664,1.1666992 l 0,11.6666235 c 0,0.646345 0.520334,1.166655 1.166664,1.166655 l 11.666648,0 c 0.646329,0 1.166665,-0.52031 1.166665,-1.166655 l 0,-11.6666235 c 0,-0.6463434 -0.520336,-1.1666992 -1.166665,-1.1666992 z"/>
 <path style="fill:#ffc34e;stroke:#808080;stroke-width:0;stroke-linecap:round;stroke-linejoin:round" d="m 5.1666972,46.000016 c -0.646332,0 -1.1666648,0.520357 -1.1666648,1.166699 l 0,11.666624 c 0,0.646346 0.5203328,1.166656 1.1666648,1.166656 l 11.6666478,0 c 0.646329,0 1.166663,-0.52031 1.166663,-1.166656 l 0,-11.666624 c 0,-0.646342 -0.520334,-1.166699 -1.166663,-1.166699 z"/>
 <path style="fill:#ffc34e;stroke:#808080;stroke-width:0;stroke-linecap:round;stroke-linejoin:round" d="m 19.166683,46.000016 c -0.646332,0 -1.166664,0.520357 -1.166664,1.166699 l 0,11.666624 c 0,0.646346 0.520332,1.166656 1.166664,1.166656 l 11.666649,0 c 0.64633,0 1.166664,-0.52031 1.166664,-1.166656 l 0,-11.666624 c 0,-0.646342 -0.520334,-1.166699 -1.166664,-1.166699 z"/>
 <path style="fill:#ffc34e;stroke:#808080;stroke-width:0;stroke-linecap:round;stroke-linejoin:round" d="m 33.166672,46.000016 c -0.646334,0 -1.166666,0.520357 -1.166666,1.166699 l 0,11.666624 c 0,0.646346 0.520332,1.166656 1.166666,1.166656 l 11.666648,0 c 0.646329,0 1.166663,-0.52031 1.166663,-1.166656 l 0,-11.666624 c 0,-0.646342 -0.520334,-1.166699 -1.166663,-1.166699 z"/>
 <path style="fill:#ffc34e;stroke:#808080;stroke-width:0;stroke-linecap:round;stroke-linejoin:round" d="m 5.1666954,32.000014 c -0.646332,0 -1.1666648,0.520358 -1.1666648,1.1667 l 0,11.666624 c 0,0.646346 0.5203328,1.166656 1.1666648,1.166656 l 11.6666486,0 c 0.646329,0 1.166663,-0.52031 1.166663,-1.166656 l 0,-11.666624 c 0,-0.646342 -0.520334,-1.1667 -1.166663,-1.1667 z"/>
 <path style="fill:#3b70df;stroke:#808080;stroke-width:0;stroke-linecap:round;stroke-linejoin:round" d="m 19.166682,32.000014 c -0.646332,0 -1.166666,0.520358 -1.166666,1.1667 l 0,11.666624 c 0,0.646346 0.520333,1.166656 1.166666,1.166656 l 11.666646,0 c 0.64633,0 1.166666,-0.52031 1.166666,-1.166656 l 0,-11.666624 c 0,-0.646342 -0.520334,-1.1667 -1.166666,-1.1667 z"/>
 <path style="fill:#3b70df;stroke:#808080;stroke-width:0;stroke-linecap:round;stroke-linejoin:round" d="m 33.16667,32.000014 c -0.646334,0 -1.166666,0.520358 -1.166666,1.1667 l 0,11.666624 c 0,0.646346 0.520334,1.166656 1.166666,1.166656 l 11.666648,0 c 0.646329,0 1.166663,-0.52031 1.166663,-1.166656 l 0,-11.666624 c 0,-0.646342 -0.520334,-1.1667 -1.166663,-1.1667 z"/>
 <path style="fill:#ff4e40;stroke:#808080;stroke-width:0;stroke-linecap:round;stroke-linejoin:round" d="m 47.166655,32.000014 c -0.64633,0 -1.166664,0.520358 -1.166664,1.1667 l 0,11.666624 c 0,0.646346 0.520334,1.166656 1.166664,1.166656 l 11.666648,0 c 0.646329,0 1.166665,-0.52031 1.166665,-1.166656 l 0,-11.666624 c 0,-0.646342 -0.520336,-1.1667 -1.166665,-1.1667 z"/>
 <path style="fill:#3b70df;stroke:#808080;stroke-width:0;stroke-linecap:round;stroke-linejoin:round" d="m 5.1666972,18.000028 c -0.646332,0 -1.1666648,0.520356 -1.1666648,1.1667 l 0,11.666623 c 0,0.646346 0.5203328,1.166656 1.1666648,1.166656 l 11.6666478,0 c 0.646329,0 1.166663,-0.52031 1.166663,-1.166656 l 0,-11.666623 c 0,-0.646344 -0.520334,-1.1667 -1.166663,-1.1667 z"/>
 <path style="fill:#3b70df;stroke:#808080;stroke-width:0;stroke-linecap:round;stroke-linejoin:round" d="m 19.166683,18.000028 c -0.646332,0 -1.166664,0.520356 -1.166664,1.1667 l 0,11.666623 c 0,0.646346 0.520332,1.166656 1.166664,1.166656 l 11.666649,0 c 0.64633,0 1.166664,-0.52031 1.166664,-1.166656 l 0,-11.666623 c 0,-0.646344 -0.520334,-1.1667 -1.166664,-1.1667 z"/>
 <path style="fill:#ff4e40;stroke:#808080;stroke-width:0;stroke-linecap:round;stroke-linejoin:round" d="m 47.166659,18.000028 c -0.646334,0 -1.166666,0.520356 -1.166666,1.1667 l 0,11.666623 c 0,0.646346 0.520332,1.166656 1.166666,1.166656 l 11.666648,0 c 0.646329,0 1.166663,-0.52031 1.166663,-1.166656 l 0,-11.666623 c 0,-0.646344 -0.520334,-1.1667 -1.166663,-1.1667 z"/>
 <path style="fill:#ff4e40;stroke:#808080;stroke-width:0;stroke-linecap:round;stroke-linejoin:round" d="m 33.16667,4.0000273 c -0.646334,0 -1.166666,0.5203558 -1.166666,1.1666992 l 0,11.6666235 c 0,0.646345 0.520334,1.166655 1.166666,1.166655 l 11.666648,0 c 0.646329,0 1.166663,-0.52031 1.166663,-1.166655 l 0,-11.6666235 c 0,-0.6463434 -0.520334,-1.1666992 -1.166663,-1.1666992 z"/>
 <path style="opacity:0.2;fill:#8b9cbe;stroke:#808080;stroke-width:0;stroke-linecap:round;stroke-linejoin:round" d="M 47.167969,3.999995 C 46.521639,3.999995 46,4.5216203 46,5.1679638 l 0,1 C 46,5.5216203 46.521639,4.999995 47.167969,4.999995 l 11.664062,0 C 59.47836,4.999995 60,5.5216204 60,6.1679638 l 0,-1 C 60,4.5216204 59.47836,3.999995 58.832031,3.999995 l -11.664062,0 z"/>
 <path style="opacity:0.2;stroke:#808080;stroke-width:0;stroke-linecap:round;stroke-linejoin:round" d="M 5.1679688,45.999995 C 4.5216368,45.999995 4,46.521623 4,47.167964 l 0,1 c 0,-0.646341 0.5216368,-1.167969 1.1679688,-1.167969 l 11.6640622,0 C 17.47836,46.999995 18,47.521623 18,48.167964 l 0,-1 c 0,-0.646341 -0.52164,-1.167969 -1.167969,-1.167969 l -11.6640622,0 z"/>
 <path style="opacity:0.2;stroke:#808080;stroke-width:0;stroke-linecap:round;stroke-linejoin:round" d="M 19.167969,45.999995 C 18.521637,45.999995 18,46.521623 18,47.167964 l 0,1 c 0,-0.646341 0.521637,-1.167969 1.167969,-1.167969 l 11.664062,0 c 0.64633,0 1.167969,0.521628 1.167969,1.167969 l 0,-1 c 0,-0.646341 -0.521639,-1.167969 -1.167969,-1.167969 l -11.664062,0 z"/>
 <path style="opacity:0.2;stroke:#808080;stroke-width:0;stroke-linecap:round;stroke-linejoin:round" d="M 33.167969,45.999995 C 32.521635,45.999995 32,46.521623 32,47.167964 l 0,1 c 0,-0.646341 0.521635,-1.167969 1.167969,-1.167969 l 11.664062,0 C 45.47836,46.999995 46,47.521623 46,48.167964 l 0,-1 c 0,-0.646341 -0.52164,-1.167969 -1.167969,-1.167969 l -11.664062,0 z"/>
 <path style="opacity:0.2;stroke:#808080;stroke-width:0;stroke-linecap:round;stroke-linejoin:round" d="M 5.1679688,31.999995 C 4.5216368,31.999995 4,32.521623 4,33.167964 l 0,1 c 0,-0.646341 0.5216368,-1.167969 1.1679688,-1.167969 l 11.6640622,0 C 17.47836,32.999995 18,33.521623 18,34.167964 l 0,-1 c 0,-0.646341 -0.52164,-1.167969 -1.167969,-1.167969 l -11.6640622,0 z"/>
 <path style="opacity:0.2;stroke:#808080;stroke-width:0;stroke-linecap:round;stroke-linejoin:round" d="M 19.167969,31.999995 C 18.521637,31.999995 18,32.521623 18,33.167964 l 0,1 c 0,-0.646341 0.521637,-1.167969 1.167969,-1.167969 l 11.664062,0 C 31.478363,32.999995 32,33.521623 32,34.167964 l 0,-1 c 0,-0.646341 -0.521637,-1.167969 -1.167969,-1.167969 l -11.664062,0 z"/>
 <path style="opacity:0.2;fill:#8b9cbe;stroke:#808080;stroke-width:0;stroke-linecap:round;stroke-linejoin:round" d="M 33.167969,31.999995 C 32.521635,31.999995 32,32.521623 32,33.167964 l 0,1 c 0,-0.646341 0.521635,-1.167969 1.167969,-1.167969 l 11.664062,0 C 45.47836,32.999995 46,33.521623 46,34.167964 l 0,-1 c 0,-0.646341 -0.52164,-1.167969 -1.167969,-1.167969 l -11.664062,0 z"/>
 <path style="opacity:0.2;stroke:#808080;stroke-width:0;stroke-linecap:round;stroke-linejoin:round" d="M 47.167969,31.999995 C 46.521639,31.999995 46,32.521623 46,33.167964 l 0,1 c 0,-0.646341 0.521639,-1.167969 1.167969,-1.167969 l 11.664062,0 C 59.47836,32.999995 60,33.521623 60,34.167964 l 0,-1 c 0,-0.646341 -0.52164,-1.167969 -1.167969,-1.167969 l -11.664062,0 z"/>
 <path style="opacity:0.2;fill:#8b9cbe;stroke:#808080;stroke-width:0;stroke-linecap:round;stroke-linejoin:round" d="M 5.1679688,17.999995 C 4.5216368,17.999995 4,18.521623 4,19.167964 l 0,1 c 0,-0.646341 0.5216368,-1.167969 1.1679688,-1.167969 l 11.6640622,0 C 17.47836,18.999995 18,19.521623 18,20.167964 l 0,-1 c 0,-0.646341 -0.52164,-1.167969 -1.167969,-1.167969 l -11.6640622,0 z"/>
 <path style="opacity:0.2;fill:#8b9cbe;stroke:#808080;stroke-width:0;stroke-linecap:round;stroke-linejoin:round" d="M 19.167969,17.999995 C 18.521637,17.999995 18,18.521623 18,19.167964 l 0,1 c 0,-0.646341 0.521637,-1.167969 1.167969,-1.167969 l 11.664062,0 c 0.64633,0 1.167969,0.521628 1.167969,1.167969 l 0,-1 c 0,-0.646341 -0.521639,-1.167969 -1.167969,-1.167969 l -11.664062,0 z"/>
 <path style="opacity:0.2;stroke:#808080;stroke-width:0;stroke-linecap:round;stroke-linejoin:round" d="M 47.167969,17.999995 C 46.521635,17.999995 46,18.521623 46,19.167964 l 0,1 c 0,-0.646341 0.521635,-1.167969 1.167969,-1.167969 l 11.664062,0 C 59.47836,18.999995 60,19.521623 60,20.167964 l 0,-1 c 0,-0.646341 -0.52164,-1.167969 -1.167969,-1.167969 l -11.664062,0 z"/>
 <path style="opacity:0.2;fill:#8b9cbe;stroke:#808080;stroke-width:0;stroke-linecap:round;stroke-linejoin:round" d="M 33.167969,3.999995 C 32.521635,3.999995 32,4.5216203 32,5.1679638 l 0,1 C 32,5.5216203 32.521635,4.999995 33.167969,4.999995 l 11.664062,0 C 45.47836,4.999995 46,5.5216204 46,6.1679638 l 0,-1 C 46,4.5216204 45.47836,3.999995 44.832031,3.999995 l -11.664062,0 z"/>
 <path style="opacity:0.2;stroke:#808080;stroke-width:0;stroke-linecap:round;stroke-linejoin:round" d="m 32,16.832026 0,1 c 0,0.646345 0.521637,1.167969 1.167969,1.167969 l 11.664062,0 C 45.47836,18.999995 46,18.478371 46,17.832026 l 0,-1 c 0,0.646345 -0.52164,1.167969 -1.167969,1.167969 l -11.664062,0 C 32.521637,17.999995 32,17.478371 32,16.832026 Z"/>
 <path style="opacity:0.2;stroke:#808080;stroke-width:0;stroke-linecap:round;stroke-linejoin:round" d="m 46,44.832026 0,1 c 0,0.646344 0.521637,1.167969 1.167969,1.167969 l 11.664062,0 C 59.47836,46.999995 60,46.47837 60,45.832026 l 0,-1 c 0,0.646344 -0.52164,1.167969 -1.167969,1.167969 l -11.664062,0 C 46.521637,45.999995 46,45.47837 46,44.832026 Z"/>
 <path style="opacity:0.2;stroke:#808080;stroke-width:0;stroke-linecap:round;stroke-linejoin:round" d="m 4,58.832026 0,1 c 0,0.646342 0.5216367,1.167969 1.1679688,1.167969 l 11.6640622,0 C 17.47836,60.999995 18,60.478368 18,59.832026 l 0,-1 c 0,0.646342 -0.52164,1.167969 -1.167969,1.167969 l -11.6640622,0 C 4.5216367,59.999995 4,59.478368 4,58.832026 Z"/>
 <path style="opacity:0.2;stroke:#808080;stroke-width:0;stroke-linecap:round;stroke-linejoin:round" d="m 18,58.832026 0,1 c 0,0.646342 0.521637,1.167969 1.167969,1.167969 l 11.664062,0 C 31.478361,60.999995 32,60.478368 32,59.832026 l 0,-1 c 0,0.646342 -0.521639,1.167969 -1.167969,1.167969 l -11.664062,0 C 18.521637,59.999995 18,59.478368 18,58.832026 Z"/>
 <path style="opacity:0.2;stroke:#808080;stroke-width:0;stroke-linecap:round;stroke-linejoin:round" d="m 32,58.832026 0,1 c 0,0.646342 0.521635,1.167969 1.167969,1.167969 l 11.664062,0 C 45.47836,60.999995 46,60.478368 46,59.832026 l 0,-1 c 0,0.646342 -0.52164,1.167969 -1.167969,1.167969 l -11.664062,0 C 32.521635,59.999995 32,59.478368 32,58.832026 Z"/>
</svg>
