<svg xmlns="http://www.w3.org/2000/svg" width="64" height="64" version="1">
 <rect style="opacity:0.2" width="56" height="56" x="4" y="5" rx="28" ry="28"/>
 <path style="fill:#1b4c7d" d="m 32,3.9999937 c 8.222118,0 13.616314,6.0955663 18.729874,11.7032563 3.481962,3.818429 7.894854,6.023119 8.837066,11.343189 0.20572,1.161578 0.340298,2.348344 0.399102,3.555666 0.02256,0.463026 -4.07487,5.646618 -4.07487,6.11543 0,5.031628 2.794892,5.027538 0.490016,9.099822 C 51.580364,54.299521 42.480374,59.999993 32,59.999993 c -15.512,0 -28,-12.488 -28,-28 C 4,18.224099 13.849111,6.8331887 26.918592,4.4560039 28.56567,4.1564197 30.263894,3.9999937 32,3.9999937 Z"/>
 <path style="opacity:0.2" d="m 32,4.9999876 c -0.787488,0 -1.564492,0.040776 -2.335156,0.103906 -0.696216,0.094818 -1.2852,0.163164 -1.760938,0.196874 -0.5981,0.086952 -1.186882,0.196042 -1.771874,0.3199218 -0.9011,0.433419 -2.157422,1.2054502 -2.157422,1.4191406 0,0.054156 -0.07764,0.3002664 -0.17226,0.546875 -0.23313,0.6075226 0.364672,0.5786484 2.384374,-0.120312 2.006298,-0.6943202 6.711224,-0.9250236 8.246876,-0.4046878 0.561282,0.190186 1.169896,0.636749 1.353516,0.9925782 0.250834,0.4860914 0.84951,0.7787574 2.408984,1.1785158 1.141564,0.2926334 2.20387,0.696679 2.359766,0.8968748 0.1559,0.200196 0.656006,0.544681 1.11289,0.765625 0.747716,0.361614 2.135958,2.46831 2.130078,3.234766 -0.0012,0.155902 -0.540716,0.538615 -1.197656,0.850391 -1.431064,0.679232 -1.607742,1.337137 -0.7875,2.944922 0.321078,0.629372 0.585156,1.517567 0.585156,1.974219 0,0.456647 0.245224,1.130382 0.546874,1.498438 0.460528,0.561898 0.637592,0.615478 1.096484,0.336326 0.43925,-0.267218 0.637634,-0.240104 1.008986,0.13124 0.33404,0.334038 0.54726,0.374228 0.771094,0.1504 0.387722,-0.387726 -0.346248,-1.916908 -1.164844,-2.428125 -0.537754,-0.335842 -0.780898,-1.077958 -0.344532,-1.05 0.886668,0.05678 2.180662,1.11013 2.564844,2.086328 0.434618,1.104387 0.43228,1.107705 -0.445702,1.892187 -0.676236,0.604216 -0.957356,1.183228 -1.216798,2.501954 -0.18568,0.943776 -0.49812,1.93529 -0.694532,2.203906 -0.30422,0.416036 -0.236022,0.602922 0.462112,1.255078 0.959792,0.896574 0.855094,1.467788 -0.36094,1.971484 -0.786576,0.325798 -0.837012,0.432768 -0.661718,1.367188 0.272066,1.45028 0.590972,1.927252 1.39453,2.080858 1.10486,0.21121 1.7631,-0.741958 1.938674,-2.808202 0.08968,-1.055582 0.35903,-2.037552 0.67539,-2.46914 0.479486,-0.654116 0.652858,-0.699892 2.0125,-0.546876 1.723382,0.19396 1.90935,-0.04614 0.494922,-0.637108 -0.54566,-0.22799 -0.992578,-0.54733 -0.992578,-0.708204 0,-0.451048 2.010246,0.018 2.903906,0.678124 0.935856,0.691234 1.300448,0.449142 0.782032,-0.519532 -0.459146,-0.857948 -0.17374,-1.23716 0.576952,-0.768358 0.781196,0.48786 1.217656,0.426778 1.624218,-0.224218 0.489378,-0.783622 0.790022,-0.711338 1.205862,0.292576 0.497838,1.20188 0.0621,2.537838 -1.058204,3.251174 -0.612278,0.38987 -0.9186,0.832312 -0.981642,1.413672 -0.08394,0.774928 -0.210042,0.864594 -1.503904,1.080078 -0.776304,0.12932 -1.445562,0.132 -1.490236,0.0054 -0.469008,-1.327288 -1.278558,-1.127496 -3.158204,0.78203 -0.756196,0.768222 -1.573318,1.397266 -1.815624,1.397266 -0.258634,0 -0.516972,0.347582 -0.626172,0.844922 -0.10232,0.465926 -0.304564,0.920044 -0.448438,1.008986 -0.14394,0.08894 -0.259766,0.618746 -0.259766,1.17578 0,0.557036 -0.246444,1.40881 -0.546874,1.894922 -1.065472,1.723896 -1.505312,3.506712 -1.140234,4.61289 0.18176,0.550796 0.251396,1.389854 0.15586,1.867578 -0.15382,0.76914 -0.0198,1.00995 1.167578,2.1 1.94009,1.781202 2.7978,1.99785 4.457032,1.115626 0.73167,-0.389034 1.773176,-1.095314 2.313282,-1.569532 0.54009,-0.474216 1.072432,-0.871368 1.183984,-0.880468 0.1115,-0.009 0.68138,-0.067 1.266016,-0.12852 1.062768,-0.11182 1.06367,-0.11194 1.06367,0.973436 0,0.474058 0.10894,0.944286 0.26797,1.230468 C 58.31124,43.955017 60,38.684767 60,32.999987 c 0,-0.76519 -0.0388,-1.520194 -0.09844,-2.269532 -0.16958,-0.15552 -0.324454,-0.270354 -0.494922,-0.442968 -0.99482,-1.00737 -1.37482,-1.558592 -1.07461,-1.558592 0.257524,0 0.857932,0.36869 1.451952,0.828514 C 58.096454,15.68209 46.345444,4.9999876 32,4.9999876 Z M 21.472656,9.1699094 c -1.969645,0 -3.788598,1.0115336 -3.538281,1.9687506 0.178423,0.682278 -0.814577,2.093033 -3.423438,4.861719 -1.032009,1.095231 -1.87578,2.101944 -1.87578,2.239452 0,0.137508 -0.736571,0.818558 -1.637891,1.512109 -2.982867,2.295263 -3.8148096,4.634453 -4.2984378,12.094141 -0.2010364,3.100844 -0.165278,3.715718 0.2871092,4.921874 0.2843142,0.758038 0.7460614,1.630018 1.0253908,1.938674 0.799599,0.883546 2.6646578,4.20329 3.0351558,5.40039 0.266941,0.862504 0.658315,0.539688 0.858594,-0.708204 0.17097,-1.06528 0.109776,-1.277346 -0.530469,-1.829296 -0.818343,-0.70549 -0.870972,-1.05668 -0.311718,-2.067188 0.537406,-0.971028 0.09878,-1.510332 -0.869532,-1.06914 -1.0512392,0.478978 -1.673973,-0.2844 -1.6488276,-2.01797 0.034082,-2.349678 1.8660976,-4.039254 2.9558596,-2.72617 0.194084,0.233852 0.511727,0.426562 0.705468,0.426562 0.19374,0 0.680778,0.257976 1.082813,0.574218 0.540987,0.425538 0.75336,0.88625 0.817578,1.771874 0.112966,1.557826 0.607986,1.5377 0.817578,-0.03282 0.174438,-1.3071 0.497708,-1.661052 1.763672,-1.935938 0.466508,-0.1013 0.954741,-0.48675 1.189453,-0.940624 0.425423,-0.82268 1.571022,-1.70625 2.214845,-1.70625 0.215174,0 0.626374,-0.259926 0.91328,-0.576952 0.427874,-0.472788 0.735122,-0.542106 1.70625,-0.396486 l 1.183986,0.17774 -0.13398,-1.4 -0.13398,-1.4 1.585938,0.13398 c 1.96494,0.16294 2.302688,-0.322838 1.361718,-1.957812 -0.338796,-0.588664 -0.617968,-1.387608 -0.617968,-1.774612 0,-0.504902 -0.1717,-0.727966 -0.6125,-0.792968 -0.44787,-0.06604 -0.62429,-0.299428 -0.648048,-0.864062 -0.0703,-1.66973 -1.180212,-1.75996 -1.941406,-0.15586 -0.579522,1.221252 -2.377328,3.14725 -2.600392,2.786326 -0.09248,-0.14954 -0.09304,-0.56719 -0.0028,-0.926954 0.0903,-0.359762 -0.03474,-1.125692 -0.27617,-1.703514 -0.792336,-1.896322 -0.536543,-2.608175 1.148436,-3.191013 0.93976,-0.325062 1.17271,-0.321894 1.553126,0.01914 0.61069,0.547463 0.828516,0.505637 0.828516,-0.164064 0,-0.311807 0.151,-0.56875 0.333592,-0.56875 0.1826,0 0.560156,-0.206613 0.839454,-0.459375 0.2793,-0.25278 0.7037,-0.384544 0.94336,-0.292578 0.63533,0.243801 0.53315,1.220085 -0.18046,1.719921 -0.535024,0.374745 -0.573666,0.525521 -0.289846,1.148439 0.411512,0.903144 0.808838,0.908234 1.637892,0.0138 0.613824,-0.662328 0.63541,-0.818488 0.36914,-2.471877 -0.314396,-1.952221 -0.623348,-2.491014 -1.427344,-2.491014 -0.37245,0 -0.59073,0.263095 -0.708204,0.850391 -0.18716,0.935856 -0.948826,1.177317 -0.948826,0.30078 0,-0.418357 -0.17922,-0.538283 -0.74922,-0.497657 -0.411708,0.02936 -0.806008,-0.105896 -0.875,-0.30078 -0.069,-0.19488 0.05622,-0.352734 0.278908,-0.352734 0.676562,0 1.253886,-0.933313 1.271484,-2.05625 0.01973,-1.260472 -0.610172,-1.45672 -1.115634,-0.347347 -0.455564,0.999862 -0.922878,0.722456 -1.022656,-0.607032 -0.06639,-0.884676 0.101304,-1.375916 0.790234,-2.326953 0.48045,-0.663246 0.79805,-1.3267828 0.705468,-1.4765626 C 23.165578,9.29361 22.36263,9.1699458 21.4726,9.1699458 Z m 8.279688,4.6183596 c -0.259616,-0.02327 -0.576696,-0.0063 -0.921484,0.05195 -0.898652,0.151826 -1.141772,0.326626 -1.252344,0.905079 -0.1261,0.659658 -0.07002,0.705255 0.680858,0.555078 0.714664,-0.142928 0.817578,-0.08051 0.817578,0.503125 0,0.366769 0.205682,0.839454 0.459376,1.05 0.394012,0.326991 0.433368,0.785462 0.270704,3.147266 -0.12382,1.798042 -0.08146,2.964038 0.11758,3.335936 0.472998,0.883802 1.351504,0.715786 1.804688,-0.347266 0.33756,-0.791826 0.87055,-1.348476 2.94492,-3.062499 0.68472,-0.565785 -0.283744,-4.954532 -1.203132,-5.449609 -0.312284,-0.168156 -1.058024,-0.275163 -1.65703,-0.240625 -0.59901,0.03454 -1.265204,-0.08483 -1.479298,-0.2625 -0.12042,-0.09996 -0.322808,-0.162668 -0.582422,-0.185936 z m 14.63164,1.334375 c 0.1559,0 0.28164,0.128478 0.28164,0.284375 0,0.155892 -0.12574,0.281641 -0.28164,0.281641 -0.15588,0 -0.284374,-0.125734 -0.284374,-0.281641 0,-0.155892 0.12846,-0.284375 0.284374,-0.284375 z m -7.065624,5.66836 c -0.58152,0 -1.156642,0.369607 -1.156642,0.741015 0,0.232216 0.291456,0.39375 0.708204,0.39375 0.51968,0 0.710938,-0.15028 0.710938,-0.566016 0,-0.311806 -0.11936,-0.568749 -0.2625,-0.568749 z m 16.223046,0.516797 c 1.001282,0.11482 1.239456,0.703904 0.65078,1.602344 -0.25099,0.383068 -0.456638,0.885486 -0.456638,1.115624 0,0.655832 -0.447584,0.769212 -0.91875,0.232422 -1.139834,-1.29858 -0.69439,-3.113112 0.724608,-2.95039 z m -11.716796,2.37617 c -0.08006,-0.0282 -0.12486,-0.02004 -0.15586,0.011 -0.244306,0.244308 0.220286,1.076796 0.76289,1.367188 0.293464,0.15706 0.533204,0.515364 0.533204,0.795704 0,0.280336 0.08476,0.593328 0.18868,0.697264 0.28037,0.280364 0.49548,0.235822 1.104686,-0.235156 0.53852,-0.416316 0.534956,-0.43889 -0.1586,-0.98164 -1.47429,-1.153722 -2.034796,-1.569674 -2.275,-1.654298 z m -0.16406,1.64336 c -0.428682,0 -0.492276,0.269432 -0.22422,0.96797 0.1911,0.498016 0.559822,0.586342 0.803906,0.1914 0.244616,-0.395798 -0.13656,-1.159374 -0.579686,-1.159374 z m -15.252346,3.770704 c -0.05596,0.0044 -0.10962,0.02064 -0.15586,0.04922 -0.407616,0.251912 -0.37015,0.920116 0.06016,1.09375 0.659812,0.26624 1.063672,0.18976 1.063672,-0.202344 0,-0.457776 -0.576288,-0.972142 -0.96797,-0.940624 z m -9.605859,13.526952 c -0.228338,-0.005 -0.181452,0.09764 0.07109,0.401954 0.399733,0.481732 0.914195,0.485296 0.896877,0.0082 -0.0055,-0.152 -0.295815,-0.320654 -0.645313,-0.37461 -0.139552,-0.02154 -0.246543,-0.0339 -0.322657,-0.03554 z m -1.249609,3.5 c -0.185512,0.02918 -0.388654,0.09302 -0.645312,0.17774 -0.976088,0.322134 -1.077025,0.44725 -1.052735,1.304298 0.01744,0.615444 -0.192278,1.18344 -0.596094,1.613282 -0.402815,0.428772 -0.623436,1.023432 -0.623436,1.68164 0,0.876314 0.827657,2.52929 1.845702,3.951172 4.791625,3.840744 10.872773,6.146874 17.519141,6.146874 0.0118,0 0.02362,1.6e-5 0.03554,0 0.459274,-0.363298 0.72461,-0.83442 0.72461,-1.35625 0,-0.260198 0.446914,-0.90667 0.992576,-1.435546 0.54566,-0.528874 0.99258,-1.126068 0.99258,-1.326172 0,-0.527086 -1.902056,-1.39891 -3.513672,-1.610548 -0.763792,-0.1003 -1.529152,-0.28723 -1.700782,-0.415624 -0.17164,-0.1284 -0.82742,-0.38085 -1.457422,-0.560546 -0.92109,-0.262722 -1.21594,-0.514876 -1.498436,-1.296096 -0.381376,-1.05468 -1.135792,-1.669952 -2.447266,-1.993358 -0.461122,-0.1137 -1.432202,-0.836662 -2.15742,-1.605078 -0.725218,-0.76842 -1.538012,-1.397266 -1.807424,-1.397266 -0.269411,0 -1.319719,-0.46179 -2.332422,-1.028124 -1.311275,-0.733314 -1.721192,-0.937956 -2.277728,-0.850398 z"/>
 <path style="fill:#18bd5c" d="m 32,3.9999937 c -0.787488,0 -1.564492,0.040776 -2.335156,0.103906 -0.696216,0.094818 -1.2852,0.163164 -1.760938,0.196874 -0.5981,0.086952 -1.186882,0.196042 -1.771874,0.3199218 -0.9011,0.433419 -2.157422,1.2054502 -2.157422,1.4191406 0,0.054156 -0.07764,0.3002664 -0.17226,0.546875 -0.23313,0.6075226 0.364672,0.5786484 2.384374,-0.120312 2.006298,-0.6943202 6.711224,-0.9250236 8.246876,-0.4046878 0.561282,0.190186 1.169896,0.636749 1.353516,0.9925782 0.250834,0.4860914 0.84951,0.7787574 2.408984,1.1785158 1.141564,0.2926334 2.20387,0.696679 2.359766,0.896875 0.1559,0.2001958 0.656006,0.5446806 1.11289,0.765625 0.747716,0.3616137 2.135958,2.4683097 2.130078,3.2347657 -0.0012,0.155902 -0.540716,0.538615 -1.197656,0.850391 -1.431064,0.679232 -1.607742,1.337137 -0.7875,2.944922 0.321078,0.629372 0.585156,1.517567 0.585156,1.974219 0,0.456647 0.245224,1.130382 0.546874,1.498438 0.460528,0.561898 0.637592,0.615478 1.096484,0.336326 0.43925,-0.267218 0.637634,-0.240104 1.008986,0.13124 0.33404,0.334038 0.54726,0.374228 0.771094,0.1504 0.387722,-0.387726 -0.346248,-1.916908 -1.164844,-2.428125 -0.537754,-0.335842 -0.780898,-1.077958 -0.344532,-1.05 0.886668,0.05678 2.180662,1.11013 2.564844,2.086328 0.434618,1.104387 0.43228,1.107705 -0.445702,1.892187 -0.676236,0.604216 -0.957356,1.183228 -1.216798,2.501954 -0.18568,0.943776 -0.49812,1.93529 -0.694532,2.203906 -0.30422,0.416036 -0.236022,0.602922 0.462112,1.255078 0.959792,0.896574 0.855094,1.467788 -0.36094,1.971484 -0.786576,0.325798 -0.837012,0.432768 -0.661718,1.367188 0.272066,1.45028 0.590972,1.927252 1.39453,2.080858 1.10486,0.21121 1.7631,-0.741958 1.938674,-2.808202 0.08968,-1.055582 0.35903,-2.037552 0.67539,-2.46914 0.479486,-0.654116 0.652858,-0.699892 2.0125,-0.546876 1.723382,0.19396 1.90935,-0.04614 0.494922,-0.637108 -0.54566,-0.22799 -0.992578,-0.54733 -0.992578,-0.708204 0,-0.451048 2.010246,0.018 2.903906,0.678124 0.935856,0.691234 1.300448,0.449142 0.782032,-0.519532 -0.459146,-0.857948 -0.17374,-1.23716 0.576952,-0.768358 0.781196,0.48786 1.217656,0.426778 1.624218,-0.224218 0.489378,-0.783622 0.790022,-0.711338 1.205862,0.292576 0.497838,1.20188 0.0621,2.537838 -1.058204,3.251174 -0.612278,0.38987 -0.9186,0.832312 -0.981642,1.413672 -0.08394,0.774928 -0.210042,0.864594 -1.503904,1.080078 -0.776304,0.12932 -1.445562,0.132 -1.490236,0.0054 -0.469008,-1.327288 -1.278558,-1.127496 -3.158204,0.78203 -0.756196,0.768222 -1.573318,1.397266 -1.815624,1.397266 -0.258634,0 -0.516972,0.347582 -0.626172,0.844922 -0.10232,0.465926 -0.304564,0.920044 -0.448438,1.008986 -0.14394,0.08894 -0.259766,0.618746 -0.259766,1.17578 0,0.557036 -0.246444,1.40881 -0.546874,1.894922 -1.065472,1.723896 -1.505312,3.506712 -1.140234,4.61289 0.18176,0.550796 0.251396,1.389854 0.15586,1.867578 -0.15382,0.76914 -0.0198,1.00995 1.167578,2.1 1.94009,1.781202 2.7978,1.99785 4.457032,1.115626 0.73167,-0.389034 1.773176,-1.095314 2.313282,-1.569532 0.54009,-0.474216 1.072432,-0.871368 1.183984,-0.880468 0.1115,-0.009 0.68138,-0.067 1.266016,-0.12852 1.062768,-0.11182 1.06367,-0.11194 1.06367,0.973436 0,0.474058 0.10894,0.944286 0.26797,1.230468 C 58.31124,42.955023 60,37.684773 60,31.999993 c 0,-0.76519 -0.0388,-1.520194 -0.09844,-2.269532 -0.16958,-0.15552 -0.324454,-0.270354 -0.494922,-0.442968 -0.99482,-1.00737 -1.37482,-1.558592 -1.07461,-1.558592 0.257524,0 0.857932,0.36869 1.451952,0.828514 C 58.096454,14.682096 46.345444,3.9999937 32,3.9999937 Z M 21.472656,8.1699155 c -1.969645,0 -3.788598,1.0115336 -3.538281,1.9687505 0.178423,0.682278 -0.814577,2.093033 -3.423438,4.861719 -1.032009,1.095231 -1.87578,2.101944 -1.87578,2.239452 0,0.137508 -0.736571,0.818558 -1.637891,1.512109 -2.982867,2.295263 -3.8148096,4.634453 -4.2984378,12.094141 -0.2010364,3.100844 -0.165278,3.715718 0.2871092,4.921874 0.2843142,0.758038 0.7460614,1.630018 1.0253908,1.938674 0.799599,0.883546 2.6646578,4.20329 3.0351558,5.40039 0.266941,0.862504 0.658315,0.539688 0.858594,-0.708204 0.17097,-1.06528 0.109776,-1.277346 -0.530469,-1.829296 -0.818343,-0.70549 -0.870972,-1.05668 -0.311718,-2.067188 0.537406,-0.971028 0.09878,-1.510332 -0.869532,-1.06914 -1.0512392,0.478978 -1.673973,-0.2844 -1.6488276,-2.01797 0.034082,-2.349678 1.8660976,-4.039254 2.9558596,-2.72617 0.194084,0.233852 0.511727,0.426562 0.705468,0.426562 0.19374,0 0.680778,0.257976 1.082813,0.574218 0.540987,0.425538 0.75336,0.88625 0.817578,1.771874 0.112966,1.557826 0.607986,1.5377 0.817578,-0.03282 0.174438,-1.3071 0.497708,-1.661052 1.763672,-1.935938 0.466508,-0.1013 0.954741,-0.48675 1.189453,-0.940624 0.425423,-0.82268 1.571022,-1.70625 2.214845,-1.70625 0.215174,0 0.626374,-0.259926 0.91328,-0.576952 0.427874,-0.472788 0.735122,-0.542106 1.70625,-0.396486 l 1.183986,0.17774 -0.13398,-1.4 -0.13398,-1.4 1.585938,0.13398 c 1.96494,0.16294 2.302688,-0.322838 1.361718,-1.957812 -0.338796,-0.588664 -0.617968,-1.387608 -0.617968,-1.774612 0,-0.504902 -0.1717,-0.727966 -0.6125,-0.792968 -0.44787,-0.06604 -0.62429,-0.299428 -0.648048,-0.864062 -0.0703,-1.66973 -1.180212,-1.75996 -1.941406,-0.15586 -0.579522,1.221252 -2.377328,3.14725 -2.600392,2.786326 -0.09248,-0.14954 -0.09304,-0.56719 -0.0028,-0.926954 0.0903,-0.359762 -0.03474,-1.125692 -0.27617,-1.703514 -0.792336,-1.896322 -0.536543,-2.608175 1.148436,-3.191013 0.93976,-0.325062 1.17271,-0.321894 1.553126,0.01914 0.61069,0.547463 0.828516,0.505637 0.828516,-0.164064 0,-0.311807 0.151,-0.56875 0.333592,-0.56875 0.1826,0 0.560156,-0.206613 0.839454,-0.459375 0.2793,-0.25278 0.7037,-0.384544 0.94336,-0.292578 0.63533,0.243801 0.53315,1.220085 -0.18046,1.719921 -0.535024,0.374745 -0.573666,0.525521 -0.289846,1.148439 0.411512,0.903144 0.808838,0.908234 1.637892,0.0138 0.613824,-0.662328 0.63541,-0.818488 0.36914,-2.471877 -0.314396,-1.952221 -0.623348,-2.491014 -1.427344,-2.491014 -0.37245,0 -0.59073,0.263095 -0.708204,0.850391 -0.18716,0.935856 -0.948826,1.177317 -0.948826,0.30078 0,-0.418357 -0.17922,-0.538283 -0.74922,-0.497657 -0.411708,0.02936 -0.806008,-0.105896 -0.875,-0.30078 -0.069,-0.19488 0.05622,-0.352734 0.278908,-0.352734 0.676562,0 1.253886,-0.933313 1.271484,-2.05625 0.01973,-1.260472 -0.610172,-1.45672 -1.115634,-0.347347 -0.455564,0.999862 -0.922878,0.722456 -1.022656,-0.607032 -0.06639,-0.884676 0.101304,-1.375916 0.790234,-2.3269531 0.48045,-0.6632454 0.79805,-1.3267826 0.705468,-1.4765624 C 23.165578,8.2936161 22.36263,8.1699519 21.4726,8.1699519 Z m 8.279688,4.6183595 c -0.259616,-0.02327 -0.576696,-0.0063 -0.921484,0.05195 -0.898652,0.151826 -1.141772,0.326626 -1.252344,0.905079 -0.1261,0.659658 -0.07002,0.705255 0.680858,0.555078 0.714664,-0.142928 0.817578,-0.08051 0.817578,0.503125 0,0.366769 0.205682,0.839454 0.459376,1.05 0.394012,0.326991 0.433368,0.785462 0.270704,3.147266 -0.12382,1.798042 -0.08146,2.964038 0.11758,3.335936 0.472998,0.883802 1.351504,0.715786 1.804688,-0.347266 0.33756,-0.791826 0.87055,-1.348476 2.94492,-3.062499 0.68472,-0.565785 -0.283744,-4.954532 -1.203132,-5.449609 -0.312284,-0.168156 -1.058024,-0.275163 -1.65703,-0.240625 -0.59901,0.03454 -1.265204,-0.08483 -1.479298,-0.2625 -0.12042,-0.09996 -0.322808,-0.162668 -0.582422,-0.185936 z m 14.63164,1.334375 c 0.1559,0 0.28164,0.128478 0.28164,0.284375 0,0.155892 -0.12574,0.281641 -0.28164,0.281641 -0.15588,0 -0.284374,-0.125734 -0.284374,-0.281641 0,-0.155892 0.12846,-0.284375 0.284374,-0.284375 z m -7.065624,5.66836 c -0.58152,0 -1.156642,0.369607 -1.156642,0.741015 0,0.232216 0.291456,0.39375 0.708204,0.39375 0.51968,0 0.710938,-0.15028 0.710938,-0.566016 0,-0.311806 -0.11936,-0.568749 -0.2625,-0.568749 z m 16.223046,0.516797 c 1.001282,0.11482 1.239456,0.703904 0.65078,1.602344 -0.25099,0.383068 -0.456638,0.885486 -0.456638,1.115624 0,0.655832 -0.447584,0.769212 -0.91875,0.232422 -1.139834,-1.29858 -0.69439,-3.113112 0.724608,-2.95039 z m -11.716796,2.37617 c -0.08006,-0.0282 -0.12486,-0.02004 -0.15586,0.011 -0.244306,0.244308 0.220286,1.076796 0.76289,1.367188 0.293464,0.15706 0.533204,0.515364 0.533204,0.795704 0,0.280336 0.08476,0.593328 0.18868,0.697264 0.28037,0.280364 0.49548,0.235822 1.104686,-0.235156 0.53852,-0.416316 0.534956,-0.43889 -0.1586,-0.98164 -1.47429,-1.153722 -2.034796,-1.569674 -2.275,-1.654298 z m -0.16406,1.64336 c -0.428682,0 -0.492276,0.269432 -0.22422,0.96797 0.1911,0.498016 0.559822,0.586342 0.803906,0.1914 0.244616,-0.395798 -0.13656,-1.159374 -0.579686,-1.159374 z m -15.252346,3.770704 c -0.05596,0.0044 -0.10962,0.02064 -0.15586,0.04922 -0.407616,0.251912 -0.37015,0.920116 0.06016,1.09375 0.659812,0.26624 1.063672,0.18976 1.063672,-0.202344 0,-0.457776 -0.576288,-0.972142 -0.96797,-0.940624 z m -9.605859,13.526952 c -0.228338,-0.005 -0.181452,0.09764 0.07109,0.401954 0.399733,0.481732 0.914195,0.485296 0.896877,0.0082 -0.0055,-0.152 -0.295815,-0.320654 -0.645313,-0.37461 -0.139552,-0.02154 -0.246543,-0.0339 -0.322657,-0.03554 z m -1.249609,3.5 c -0.185512,0.02918 -0.388654,0.09302 -0.645312,0.17774 -0.976088,0.322134 -1.077025,0.44725 -1.052735,1.304298 0.01744,0.615444 -0.192278,1.18344 -0.596094,1.613282 -0.402815,0.428772 -0.623436,1.023432 -0.623436,1.68164 0,0.876314 0.827657,2.52929 1.845702,3.951172 4.791625,3.840744 10.872773,6.146874 17.519141,6.146874 0.0118,0 0.02362,1.6e-5 0.03554,0 0.459274,-0.363298 0.72461,-0.83442 0.72461,-1.35625 0,-0.260198 0.446914,-0.90667 0.992576,-1.435546 0.54566,-0.528874 0.99258,-1.126068 0.99258,-1.326172 0,-0.527086 -1.902056,-1.39891 -3.513672,-1.610548 -0.763792,-0.1003 -1.529152,-0.28723 -1.700782,-0.415624 -0.17164,-0.1284 -0.82742,-0.38085 -1.457422,-0.560546 -0.92109,-0.262722 -1.21594,-0.514876 -1.498436,-1.296096 -0.381376,-1.05468 -1.135792,-1.669952 -2.447266,-1.993358 -0.461122,-0.1137 -1.432202,-0.836662 -2.15742,-1.605078 -0.725218,-0.76842 -1.538012,-1.397266 -1.807424,-1.397266 -0.269411,0 -1.319719,-0.46179 -2.332422,-1.028124 -1.311275,-0.733314 -1.721192,-0.937956 -2.277728,-0.850398 z"/>
 <path style="opacity:0.2" d="M 26.449214,12.863294 A 20.999996,20.999996 0 0 0 13.999999,32.000009 20.999996,20.999996 0 0 0 34.999994,53.000005 20.999996,20.999996 0 0 0 49.078116,47.546882 20.999996,20.999996 0 0 1 45.847648,48.406255 20.999996,20.999996 0 0 1 40.999993,49.000005 20.999996,20.999996 0 0 1 19.999997,28.00001 20.999996,20.999996 0 0 1 26.449214,12.863294 Z"/>
 <path style="fill:#8b9cbe" d="M 26.449214,11.863291 A 20.999996,20.999996 0 0 0 13.999999,31.000006 20.999996,20.999996 0 0 0 34.999994,52.000002 20.999996,20.999996 0 0 0 49.078116,46.546879 20.999996,20.999996 0 0 1 45.847648,47.406253 20.999996,20.999996 0 0 1 40.999993,48.000003 20.999996,20.999996 0 0 1 19.999997,27.000007 20.999996,20.999996 0 0 1 26.449214,11.863291 Z"/>
 <path style="fill:#8b9cbe;opacity:0.1" d="M 32 4 C 16.488003 4 4 16.488003 4 32 C 4 32.167704 4.0107645 32.333014 4.0136719 32.5 C 4.2796807 17.221481 16.655708 5 32 5 C 47.344292 5 59.720319 17.221481 59.986328 32.5 C 59.989235 32.333014 60 32.167704 60 32 C 60 16.488003 47.511997 4 32 4 z"/>
</svg>
