<svg xmlns="http://www.w3.org/2000/svg" width="64" height="64" version="1">
 <path style="opacity:0.2" d="m 4.0000004,56.200069 0,1.999971 c 0,1.549978 1.2495821,2.79996 2.80076,2.79996 L 57.20004,61 C 58.750017,61 60,59.750018 60,58.20004 l 0,-1.999971 c 0,1.549977 -1.249983,2.79996 -2.79996,2.79996 l -50.3992796,0 c -1.5503779,0 -2.79996,-1.249983 -2.79996,-2.79996 z"/>
 <rect style="fill:#f58411" width="56" height="56" x="4" y="4" rx="2.8" ry="2.8"/>
 <path style="opacity:0.2;fill:#8b9cbe" d="M 6.8007812 4 C 5.2496034 4 4 5.2496034 4 6.8007812 L 4 7.8027344 C 4 6.2515566 5.2496034 5.0019531 6.8007812 5.0019531 L 57.199219 5.0019531 C 58.749196 5.0019531 60 6.2515566 60 7.8027344 L 60 6.8007812 C 60 5.2496035 58.749196 4 57.199219 4 L 6.8007812 4 z"/>
 <g style="opacity:0.2;enable-background:new" transform="matrix(1.9999714,0,0,1.9999714,-1239.9822,-1038.9843)">
  <path transform="translate(619,520)" d="m 17,8 c -1.6568,0 -3,1.3432 -3,3 0,0.23127 0.04425,0.44001 0.09375,0.65625 l -3.2188,2 c -0.513,-0.411 -1.1659,-0.656 -1.875,-0.656 -1.6568,0 -3,1.3432 -3,3 0,1.6568 1.3432,3 3,3 0.70904,0 1.3615,-0.24498 1.875,-0.65625 l 3.2188,2 c -0.05,0.216 -0.094,0.425 -0.094,0.656 0,1.6568 1.3432,3 3,3 1.6568,0 3,-1.3432 3,-3 0,-1.6568 -1.3432,-3 -3,-3 -0.70904,0 -1.3615,0.24498 -1.875,0.65625 l -3.2188,-2 c 0.05,-0.216 0.094,-0.425 0.094,-0.656 0,-0.231 -0.044,-0.44 -0.094,-0.656 l 3.2188,-2 c 0.513,0.411 1.166,0.656 1.875,0.656 1.6568,0 3,-1.3432 3,-3 0,-1.6568 -1.3432,-3 -3,-3 z m 7,0 a 3,3 0 0 0 -3,3 3,3 0 0 0 3,3 3,3 0 0 0 3,-3 3,3 0 0 0 -3,-3 z m 0,10 a 3,3 0 0 0 -3,3 3,3 0 0 0 3,3 3,3 0 0 0 3,-3 3,3 0 0 0 -3,-3 z"/>
 </g>
 <g style="fill:#8b9cbe;enable-background:new" transform="matrix(1.9999714,0,0,1.9999714,-1239.9822,-1039.9842)">
  <path transform="translate(619,520)" d="m 17,8 c -1.6568,0 -3,1.3432 -3,3 0,0.23127 0.04425,0.44001 0.09375,0.65625 l -3.2188,2 c -0.513,-0.411 -1.1659,-0.656 -1.875,-0.656 -1.6568,0 -3,1.3432 -3,3 0,1.6568 1.3432,3 3,3 0.70904,0 1.3615,-0.24498 1.875,-0.65625 l 3.2188,2 c -0.05,0.216 -0.094,0.425 -0.094,0.656 0,1.6568 1.3432,3 3,3 1.6568,0 3,-1.3432 3,-3 0,-1.6568 -1.3432,-3 -3,-3 -0.70904,0 -1.3615,0.24498 -1.875,0.65625 l -3.2188,-2 c 0.05,-0.216 0.094,-0.425 0.094,-0.656 0,-0.231 -0.044,-0.44 -0.094,-0.656 l 3.2188,-2 c 0.513,0.411 1.166,0.656 1.875,0.656 1.6568,0 3,-1.3432 3,-3 0,-1.6568 -1.3432,-3 -3,-3 z m 7,0 a 3,3 0 0 0 -3,3 3,3 0 0 0 3,3 3,3 0 0 0 3,-3 3,3 0 0 0 -3,-3 z m 0,10 a 3,3 0 0 0 -3,3 3,3 0 0 0 3,3 3,3 0 0 0 3,-3 3,3 0 0 0 -3,-3 z"/>
 </g>
</svg>
