<svg xmlns="http://www.w3.org/2000/svg" width="64" height="64" version="1">
 <path style="opacity:0.2" d="M 59.683594,37 C 57.749098,50.598314 46.149488,61 32,61 23.346872,61 15.62442,57.06155 10.488282,50.894532 L 6.878906,54.503906 A 1.6877149,1.6877149 0 0 1 5.664062,55 1.6877149,1.6877149 0 0 1 4,53.3125 V 38.6875 A 1.6877149,1.6877149 0 0 1 5.6875,37 h 10.84375 3.78125 a 1.6877149,1.6877149 0 0 1 1.195312,2.878906 l -2.460936,2.460938 c 0.1169,0.16228 0.228936,0.326948 0.351562,0.484374 0.216712,0.277524 0.445498,0.546172 0.679686,0.808594 0.07662,0.08598 0.14818,0.17746 0.226564,0.26172 0.19636,0.211036 0.406158,0.409532 0.61328,0.609374 0.221932,0.21386 0.44963,0.42023 0.683594,0.621094 0.20311,0.17452 0.40175,0.351528 0.613282,0.515624 0.0102,0.008 0.02096,0.0154 0.03126,0.02344 0.38757,0.29896 0.792442,0.576808 1.20703,0.839844 0.217902,0.13836 0.439464,0.270614 0.664064,0.398438 0.37751,0.214562 0.76428,0.409816 1.160156,0.59375 0.250312,0.11662 0.504962,0.224362 0.761718,0.328124 0.405244,0.1631 0.8174,0.31131 1.238282,0.441406 0.1974,0.0614 0.393406,0.12584 0.59375,0.17968 0.54839,0.14622 1.109786,0.267714 1.679688,0.35547 0.17562,0.0274 0.354008,0.0448 0.53125,0.0664 C 30.712914,48.94281 31.348744,49 32,49 39.291704,48.9948 45.657544,44.060164 47.480468,37 Z"/>
 <circle style="fill:#8b9cbe" cx="32" cy="32" r="22"/>
 <path style="opacity:0.1" d="m 32,5 c 8.652352,0 16.379482,3.9315936 21.515624,10.097656 l 3.60547,-3.605468 A 1.6877149,1.6877149 0 0 1 58.335938,11 1.6877149,1.6877149 0 0 1 60,12.6875 v 14.625 A 1.6877149,1.6877149 0 0 1 58.3125,29 h -14.625 a 1.6877149,1.6877149 0 0 1 -1.195312,-2.878906 l 2.45703,-2.457032 c -0.02154,-0.02984 -0.03684,-0.06408 -0.0586,-0.09374 -0.21137,-0.289226 -0.430694,-0.570344 -0.660156,-0.84375 -0.291876,-0.347078 -0.598066,-0.679012 -0.917968,-1 C 43.14182,21.555072 42.974956,21.3783 42.796876,21.214854 42.379878,20.832698 41.9363,20.477352 41.480468,20.140636 41.281648,19.993704 41.080486,19.848594 40.875,19.710948 40.399832,19.39293 39.907728,19.102564 39.398438,18.835948 39.188914,18.726066 38.97632,18.620205 38.761718,18.519541 38.21926,18.265801 37.663398,18.036344 37.089844,17.84376 36.909904,17.78301 36.725496,17.734126 36.542968,17.679698 35.910744,17.492454 35.267706,17.327333 34.605468,17.21876 34.497388,17.20082 34.386066,17.19545 34.277344,17.1797 33.531924,17.07323 32.77485,17 32,17 24.708296,17.00522 18.342456,21.939836 16.519532,29 H 4.316406 C 6.250902,15.401686 17.850512,5 32,5 Z"/>
 <path style="fill:#48a9ff" d="m 32,4 c 8.652352,0 16.379482,3.9315936 21.515624,10.097656 l 3.60547,-3.605468 A 1.6877149,1.6877149 0 0 1 58.335938,10 1.6877149,1.6877149 0 0 1 60,11.6875 v 14.625 A 1.6877149,1.6877149 0 0 1 58.3125,28 h -14.625 a 1.6877149,1.6877149 0 0 1 -1.195312,-2.878906 l 2.45703,-2.457032 c -0.02154,-0.02984 -0.03684,-0.06408 -0.0586,-0.09374 -0.21137,-0.289226 -0.430694,-0.570344 -0.660156,-0.84375 -0.291876,-0.347078 -0.598066,-0.679012 -0.917968,-1 -0.170674,-0.1715 -0.337538,-0.348272 -0.515618,-0.511718 -0.416998,-0.382157 -0.860576,-0.737502 -1.316408,-1.074219 -0.19882,-0.14693 -0.399982,-0.292041 -0.605468,-0.429687 -0.475168,-0.318019 -0.967272,-0.608384 -1.476562,-0.875 -0.209524,-0.109882 -0.422118,-0.215743 -0.63672,-0.316407 -0.542458,-0.25374 -1.09832,-0.483197 -1.671874,-0.675781 -0.17994,-0.06075 -0.364348,-0.109634 -0.546876,-0.164062 -0.632224,-0.187244 -1.275262,-0.352365 -1.9375,-0.460938 C 34.497388,16.20082 34.386066,16.19545 34.277344,16.1797 33.531924,16.07323 32.77485,16 32,16 24.708296,16.00522 18.342456,20.939836 16.519532,28 H 4.316406 C 6.250902,14.401686 17.850512,4 32,4 Z"/>
 <path style="fill:#486afb" d="M 59.683594,36 C 57.749098,49.598314 46.149488,60 32,60 23.346872,60 15.62442,56.06155 10.488282,49.894532 L 6.878906,53.503906 A 1.6877149,1.6877149 0 0 1 5.664062,54 1.6877149,1.6877149 0 0 1 4,52.3125 V 37.6875 A 1.6877149,1.6877149 0 0 1 5.6875,36 h 10.84375 3.78125 a 1.6877149,1.6877149 0 0 1 1.195312,2.878906 l -2.460936,2.460938 c 0.1169,0.16228 0.228936,0.326948 0.351562,0.484374 0.216712,0.277524 0.445498,0.546172 0.679686,0.808594 0.07662,0.08598 0.14818,0.17746 0.226564,0.26172 0.19636,0.211036 0.406158,0.409532 0.61328,0.609374 0.221932,0.21386 0.44963,0.42023 0.683594,0.621094 0.20311,0.17452 0.40175,0.351528 0.613282,0.515624 0.0102,0.008 0.02096,0.0154 0.03126,0.02344 0.38757,0.29896 0.792442,0.576808 1.20703,0.839844 0.217902,0.13836 0.439464,0.270614 0.664064,0.398438 0.37751,0.214562 0.76428,0.409816 1.160156,0.59375 0.250312,0.11662 0.504962,0.224362 0.761718,0.328124 0.405244,0.1631 0.8174,0.31131 1.238282,0.441406 0.1974,0.0614 0.393406,0.12584 0.59375,0.17968 0.54839,0.14622 1.109786,0.267714 1.679688,0.35547 0.17562,0.0274 0.354008,0.0448 0.53125,0.0664 C 30.712914,47.94281 31.348744,48 32,48 39.291704,47.9948 45.657544,43.060164 47.480468,36 Z"/>
 <path style="opacity:0.2;fill:#8b9cbe" d="M 32,4 C 17.850512,4 6.2509023,14.401686 4.3164062,28 H 4.4824219 C 6.8304834,14.895762 18.199932,5 32,5 40.652352,5 48.379483,8.9315938 53.515625,15.097656 l 3.605469,-3.605468 C 57.443192,11.171152 57.881217,10.993689 58.335938,11 59.258703,11.012934 59.999973,11.764644 60,12.6875 v -1 C 59.999973,10.764644 59.258703,10.012934 58.335938,10 c -0.454721,-0.00631 -0.892746,0.171152 -1.214844,0.492188 l -3.605469,3.605468 C 48.379483,7.9315938 40.652352,4 32,4 Z"/>
</svg>
