<svg xmlns="http://www.w3.org/2000/svg" width="64" height="64" version="1.1">
 <circle style="opacity:0.2" cx="32" cy="33" r="28"/>
 <circle style="fill:#b2bfd9" cx="32" cy="32" r="28"/>
 <path style="fill:#8b9cbe;opacity:0.2" d="M 32 4 A 28 28 0 0 0 4 32 A 28 28 0 0 0 4.0214844 32.585938 A 28 28 0 0 1 32 5 A 28 28 0 0 1 59.978516 32.414062 A 28 28 0 0 0 60 32 A 28 28 0 0 0 32 4 z"/>
 <path style="opacity:0.1" d="m 34.61131,53.893736 c -0.619314,-0.07603 -1.210884,-0.235325 -1.334641,-0.35902 -0.186908,-0.186934 -0.217089,-0.813139 -0.189526,-3.932578 0.02521,-2.854912 -0.01092,-3.745042 -0.15686,-3.861378 -0.104272,-0.08327 -1.213418,-0.673993 -2.464706,-1.313112 -1.251277,-0.638996 -2.248812,-1.188087 -2.216698,-1.220188 0.0321,-0.03258 2.19687,0.992828 4.810628,2.277582 9.697019,4.766471 9.419654,4.509544 9.961698,4.301615 0.129766,-0.04948 0.235928,-0.167383 0.235928,-0.261151 0,-0.09414 -2.464205,-1.270753 -5.109773,-2.615362 -2.645569,-1.344489 -4.934325,-2.552248 -5.086127,-2.683909 -0.246392,-0.213723 -0.265024,-0.385812 -0.17361,-1.604914 0.07615,-1.01612 0.03983,-1.672495 -0.142269,-2.564919 -0.13454,-0.659754 -0.22421,-1.555677 -0.199254,-1.990968 l 0.04537,-0.791535 0.335598,0.638393 c 0.184567,0.351177 0.335585,0.804328 0.335585,1.006828 0,0.792138 1.209315,1.30213 1.315454,0.554763 0.05901,-0.415982 0.326075,-0.439032 0.431162,-0.03741 0.114772,0.438791 0.341499,0.363003 0.341499,-0.114646 0,-0.54173 -0.49072,-1.455997 -1.179618,-2.197692 -0.304774,-0.328127 -0.744735,-0.898699 -0.977695,-1.267857 -0.232971,-0.369037 -0.514033,-0.724801 -0.624635,-0.79045 -0.222859,-0.132146 -0.278106,-0.701026 -0.06807,-0.701026 0.265204,0 0.348027,-0.799742 0.101486,-0.980036 -0.128954,-0.09414 -0.234468,-0.370004 -0.234468,-0.612689 0,-0.242688 -0.10367,-0.79045 -0.230486,-1.217414 -0.126756,-0.426843 -0.19258,-0.837394 -0.146239,-0.912336 0.04634,-0.07482 0.01919,-0.425878 -0.06047,-0.77983 -0.09365,-0.416465 -0.09317,-1.187002 0.0012,-2.18502 0.183903,-1.941971 -0.240233,-2.771687 -0.896994,-3.801205 -0.260438,-0.407775 -0.549514,-0.961571 -0.642376,-1.230446 -0.161301,-0.467029 -0.152178,-0.488992 0.20361,-0.488992 0.441347,0 1.296445,-0.862737 1.624235,-1.638584 0.120792,-0.286011 0.367457,-0.677615 0.548102,-0.870219 0.262259,-0.279614 0.324542,-0.513733 0.308974,-1.161539 -0.04151,-1.728248 -1.675052,-2.923578 -3.105043,-2.272028 -0.317398,0.144572 -0.429412,0.127441 -0.686545,-0.104987 -0.253088,-0.22905 -0.357983,-0.246427 -0.595178,-0.09775 -0.158355,0.09895 -0.384991,0.179813 -0.503631,0.179813 -0.118622,0 -0.263202,0.149642 -0.321272,0.332593 -0.05804,0.182948 -0.293818,0.50842 -0.523942,0.723472 -0.28426,0.265494 -0.393126,0.487424 -0.339604,0.692095 0.0525,0.200931 -0.07458,0.47608 -0.380984,0.825085 -0.503547,0.573589 -0.581675,0.857185 -0.236098,0.857185 0.432443,0 0.217055,0.260426 -0.415149,0.501785 -0.81205,0.310146 -0.852635,0.307129 -0.852635,-0.06275 0,-0.16871 -0.07603,-0.608586 -0.168866,-0.977382 -0.151357,-0.601103 -0.209391,-0.666029 -0.559313,-0.625361 l -0.390592,0.04465 v 1.483149 1.48315 l -0.633903,0.428413 c -0.348643,0.235564 -0.633893,0.486577 -0.633893,0.557778 0,0.0712 -0.100997,0.55251 -0.346374,0.947616 -0.322274,0.519041 -0.473002,0.987639 -0.542864,1.68794 -0.05321,0.533162 -0.19585,1.165884 -0.317024,1.405915 -0.132944,0.263322 -0.109634,0.640934 -0.154991,1.592853 -0.06734,1.413276 -0.11319,1.617948 -0.441723,1.970332 -0.323408,0.346952 -0.348498,0.452305 -0.213132,0.894837 0.511258,1.67153 1.0104,2.844049 1.542415,3.623397 1.05277,1.542403 2.205644,3.543749 2.120614,3.681323 -0.153661,0.248599 -0.362606,0.133238 -0.367903,-0.203103 -0.0036,-0.184518 -0.08677,-0.473908 -0.186438,-0.642859 -0.339531,-0.576123 -1.075627,-1.407966 -1.245906,-1.407966 -0.09341,0 -0.21347,-0.232549 -0.266786,-0.516749 -0.183456,-0.977864 -0.383941,-0.726248 -0.375119,0.47065 0.01204,1.643291 0.143584,2.208794 0.513442,2.208794 0.214532,0 0.311546,0.114646 0.345493,0.410189 0.03307,0.286975 -0.0204,0.410189 -0.17764,0.410189 -0.123634,0 -0.266315,-0.06758 -0.317013,-0.14916 -0.05068,-0.08205 -0.280518,-0.149159 -0.510715,-0.149159 -0.230183,0 -0.578608,-0.124782 -0.77423,-0.277322 C 20.819137,38.260581 20.33543,38.08801 19.939855,38.02948 l -0.719225,-0.106204 0.104384,0.719248 c 0.107156,0.737956 0.215376,1.036878 0.215376,0.59495 0,-0.275752 0.518596,-0.346349 0.675769,-0.09171 0.05321,0.08568 0.661262,0.417308 1.351173,0.736022 0.689901,0.318836 1.254378,0.651066 1.254378,0.738317 0,0.08688 -0.0572,0.158814 -0.127106,0.158814 -0.196357,0 -0.486808,1.981312 -0.315517,2.152558 0.248709,0.248719 0.158984,0.970019 -0.153975,1.237927 -0.392231,0.335852 -0.437981,1.680702 -0.0572,1.680702 0.178932,0 0.216474,0.08688 0.145564,0.335609 -0.05261,0.184519 -0.134722,0.514214 -0.182564,0.732523 -0.04924,0.224947 -0.216125,0.430705 -0.384979,0.474873 -0.313526,0.08207 -0.304896,0.408018 0.01358,0.514215 0.102816,0.0338 0.224777,-0.08207 0.270974,-0.258978 0.118622,-0.453513 0.556356,-0.325955 0.614656,0.17921 0.05635,0.488509 0.08931,0.496112 0.474837,0.11102 0.165729,-0.165813 0.298307,-0.497199 0.298307,-0.745798 0,-0.246066 0.0671,-0.447479 0.149148,-0.447479 0.151742,0 0.201124,0.185847 0.161396,0.607741 -0.04091,0.434084 0.428521,1.971539 0.690273,2.260807 0.247948,0.273942 0.243194,0.298681 -0.108738,0.564176 -0.327669,0.24703 -0.33952,0.288544 -0.10801,0.377364 0.14303,0.05431 0.260051,0.24703 0.260051,0.426842 0,0.476926 0.282463,0.685097 0.929413,0.685097 0.707869,0 0.840085,0.267064 0.546787,1.104337 -0.206194,0.588553 -0.235676,0.609431 -0.807805,0.572261 -1.010423,-0.06637 -1.920357,-0.36071 -2.29059,-0.742298 -0.256033,-0.263927 -0.462298,-0.34466 -0.743082,-0.290958 -0.537844,0.102578 -1.094828,-0.22205 -1.671036,-0.974485 -0.821078,-1.072116 -1.827797,-2.065427 -2.377178,-2.345403 -0.581505,-0.296268 -0.337227,-0.539437 -1.573286,-0.677857 -0.811109,-0.09051 -1.938955,-0.661322 -1.938955,-0.98076 0,-0.08448 -0.239235,-0.254513 -0.531605,-0.376761 -0.786671,-0.328611 -1.718184,-1.046652 -2.036017,-1.569314 -0.621728,-1.022275 -0.758638,-1.752385 -0.640156,-3.413657 0.186969,-2.621517 0.151067,-2.878806 -0.633615,-4.541163 -0.7038971,-1.491235 -0.7076267,-1.507405 -0.690912,-2.990917 0.01508,-1.344971 0.07542,-1.652583 0.613992,-3.132112 0.328465,-0.90244 0.677288,-2.105492 0.775172,-2.67365 0.233961,-1.357884 0.434868,-2.106648 1.207095,-2.998225 0.935192,-1.079599 0.952493,-1.534357 1.050412,-2.962959 0.07531,-1.098784 0.116942,-1.222722 0.50736,-1.511386 0.521251,-0.385451 0.540089,-0.556695 0.06131,-0.556695 -0.618929,0 -0.543227,-0.208051 0.374154,-1.028549 0.486664,-0.435171 0.884834,-0.871545 0.884834,-0.96978 0,-0.217826 1.069471,-1.283062 1.288239,-1.283062 0.08641,0 0.278516,-0.13419 0.426988,-0.298319 0.148484,-0.164003 0.396467,-0.298199 0.551094,-0.298199 0.328586,0 1.257529,-0.10017 1.399002,-0.329099 0.05347,-0.08688 0.2182,-0.119476 0.366008,-0.07241 0.376217,0.119476 1.197646,-0.600137 1.197646,-1.049065 0,-0.283959 0.240501,-0.792375 0.652801,-0.869731 0.281797,-0.0531 0.570015,-0.06034 0.640505,-0.0169 0.07048,0.04344 0.418504,-0.05068 0.773386,-0.209739 0.916945,-0.410431 3.738211,-0.926095 4.30083,-0.785985 0.245558,0.06154 0.335585,0.0181 0.335585,-0.161107 0,-0.366623 0.30124,-0.414051 1.100922,-0.173416 0.497259,0.149763 0.834642,0.173777 1.087489,0.07723 0.543987,-0.206717 1.833723,-0.168946 2.669209,0.07844 0.404543,0.119477 1.363798,0.318956 2.131668,0.442773 0.767883,0.123942 1.49103,0.303991 1.60699,0.400173 0.115976,0.09654 0.250966,0.134918 0.299998,0.08568 0.049,-0.04948 0.399761,0.06758 0.779432,0.259582 0.379656,0.191879 1.123669,0.459546 1.653366,0.594826 0.529675,0.135156 1.066612,0.336576 1.193205,0.447359 0.228603,0.200207 1.415846,0.832929 1.562857,0.832929 0.04224,0 0.0084,-0.178726 -0.07421,-0.397155 -0.08303,-0.218431 -0.09474,-0.453513 -0.02594,-0.522301 0.1571,-0.157125 1.419768,0.624637 2.16226,1.338696 0.471881,0.453875 0.708907,0.558745 1.491512,0.659874 1.601149,0.206966 1.629075,0.205277 1.806461,-0.109816 0.09244,-0.164003 0.183011,-0.324387 0.201293,-0.356366 0.01823,-0.03137 0.26319,0.117054 0.544264,0.331747 0.530676,0.404758 0.671026,0.366866 0.887476,-0.239669 0.0519,-0.145419 0.213325,-0.306644 0.358744,-0.358297 0.145418,-0.0519 0.387911,-0.200207 0.538881,-0.3303 0.251376,-0.216376 0.290438,-0.214445 0.463904,0.02293 0.308673,0.422137 0.626409,0.304716 1.477368,-0.546194 1.141916,-1.141989 1.885893,-1.4747 1.885893,-0.843427 0,0.186207 -0.291888,0.484164 -0.813802,0.830515 -0.911721,0.605207 -1.721757,1.455151 -1.721757,1.806569 0,0.127806 -0.134246,0.402948 -0.298306,0.611603 -0.164076,0.208534 -0.298308,0.570088 -0.298308,0.803482 0,0.233394 -0.09521,0.677374 -0.211708,0.986676 -0.256781,0.681958 -0.387343,1.883079 -0.23203,2.134455 0.08267,0.133588 0.258254,0.07241 0.651306,-0.22748 0.622272,-0.474633 0.706482,-0.299768 0.165319,0.343452 -0.330866,0.393174 -0.513574,1.071271 -0.288677,1.071271 0.130424,0 0.872427,-0.910284 0.992347,-1.217413 0.130396,-0.33392 0.3163,-0.349005 0.567735,-0.04586 0.15698,0.189225 0.130886,0.290354 -0.152767,0.592294 -0.419941,0.446996 -0.269815,0.692217 0.57938,0.94673 0.320634,0.09654 0.614645,0.257891 0.653359,0.359744 0.216149,0.568159 -0.656532,1.405795 -1.297086,1.244929 -0.404975,-0.101374 -0.636571,0.122374 -0.414388,0.400896 0.07892,0.09895 0.19054,0.864185 0.247948,1.700613 0.05744,0.836429 0.622282,1.876805 0.742067,2.311855 0.665076,2.415276 0.854688,3.770974 0.909223,7.486449 l 0.05394,3.673841 -0.391399,0.465098 c -0.215268,0.25584 -0.478144,0.465219 -0.584149,0.465219 -0.380899,0 -0.963008,1.011776 -1.212043,2.106578 -0.137298,0.603638 -0.348631,1.248669 -0.469659,1.433309 -0.13657,0.208533 -0.602913,0.483079 -0.542439,0.724076 0.05697,0.226757 0.02208,0.478976 -0.08387,0.606655 -0.102088,0.122976 -0.200134,0.776089 -0.224427,1.494613 -0.02944,0.871426 -0.120778,1.394812 -0.287809,1.649686 -0.240296,0.366746 -0.266169,0.37121 -1.45993,0.249325 -1.874934,-0.191519 -2.736007,-0.154108 -3.977387,0.425031 -0.868867,0.405363 -1.465626,0.835222 -2.393555,1.723906 -1.693577,1.621809 -2.500636,1.865098 -4.280778,1.908785 -0.779298,0.01931 -1.917473,-0.02654 -2.529269,-0.102578 z M 23.542976,51.834585 c 0.118622,-0.07482 0.19888,-0.402828 0.19888,-0.812172 0,-1.100957 -0.306455,-1.332421 -0.677193,-0.51144 -0.319667,0.708026 -0.423367,1.1333 -0.317978,1.30382 0.112588,0.182226 0.523966,0.192483 0.796291,0.01931 z m -2.212403,-2.330318 c 0,-0.123088 -0.100646,-0.22374 -0.223727,-0.22374 -0.123046,0 -0.223727,0.10017 -0.223727,0.22374 0,0.123088 0.100646,0.223739 0.223727,0.223739 0.12306,0 0.223727,-0.10017 0.223727,-0.223739 z m -3.464667,-1.743213 c -0.0922,-0.276598 -0.413266,-0.322455 -0.413266,-0.05914 0,0.12985 0.106316,0.236169 0.236158,0.236169 0.129892,0 0.209582,-0.07965 0.177108,-0.177158 z m 2.073476,-2.395726 c -0.04598,-0.184641 -0.137704,-0.557056 -0.203828,-0.82774 -0.06614,-0.270683 -0.187342,-0.505526 -0.269368,-0.522059 -0.211116,-0.04224 -0.267593,0.804811 -0.08555,1.283545 0.191772,0.50444 0.682417,0.562607 0.558757,0.06637 z m -0.445898,-3.719459 c -0.04754,-0.119476 -0.08291,-0.08327 -0.09015,0.09051 -0.006,0.157246 0.02884,0.245341 0.07832,0.195741 0.0496,-0.04948 0.05491,-0.178242 0.01204,-0.285888 z m 0.08037,-1.26496 -0.151417,-0.571417 -0.01544,0.738195 c -0.01092,0.544384 0.02836,0.694511 0.151416,0.571537 0.118748,-0.119476 0.123228,-0.331506 0.01544,-0.738315 z M 51.189785,23.808513 c 0.158065,-0.119477 0.245099,-0.259822 0.193389,-0.311474 -0.166453,-0.166536 -0.853687,0.08931 -0.853687,0.317508 0,0.278528 0.287556,0.275993 0.660298,-0.01204 z M 27.246901,53.506476 c -0.147819,-0.147833 -0.120316,-1.019499 0.04598,-1.456962 0.131628,-0.346108 0.222943,-0.382554 0.959342,-0.382554 0.728094,0 0.84636,-0.04586 1.122317,-0.433238 0.169651,-0.238221 0.308456,-0.50275 0.308456,-0.587708 0,-0.345506 0.318848,-0.314612 0.670532,0.06517 0.278057,0.30013 0.373538,0.566831 0.373538,1.043636 0,0.352383 -0.0671,0.682079 -0.14916,0.732764 -0.08205,0.05068 -0.149148,0.0169 -0.149148,-0.07482 0,-0.09171 -0.0671,-0.125272 -0.149147,-0.07482 -0.08205,0.05068 -0.149159,0.25041 -0.149159,0.443979 0,0.635498 -0.155025,0.823758 -0.678339,0.823758 -0.273496,0 -0.538748,-0.06758 -0.589447,-0.149161 -0.05068,-0.08205 -0.25205,-0.149158 -0.447454,-0.149158 -0.195405,0 -0.396758,0.06758 -0.447455,0.149158 -0.104146,0.16859 -0.569944,0.20069 -0.720889,0.04948 z m -0.09944,-10.191973 c 0,-0.08207 0.0671,-0.14916 0.149148,-0.14916 0.08207,0 0.149148,0.06758 0.149148,0.14916 0,0.08207 -0.0671,0.14916 -0.149148,0.14916 -0.08207,0 -0.149148,-0.06758 -0.149148,-0.14916 z m 0.620581,-1.71606 c 0.03174,-0.278649 0.14787,-0.462564 0.311607,-0.493578 0.359492,-0.06878 0.330227,0.31099 -0.05057,0.655529 -0.30982,0.280459 -0.311306,0.279494 -0.261007,-0.161951 z M 24.639417,33.88836 c -0.129976,-0.427084 -0.201378,-2.804225 -0.08424,-2.804225 0.07157,0 0.454104,0.931764 0.656652,1.599604 0.202862,0.668925 0.06987,1.53299 -0.252448,1.640395 -0.09353,0.03137 -0.237532,-0.164849 -0.319945,-0.435774 z M 52.46844,25.315678 c 0,-0.129976 0.106316,-0.236169 0.236157,-0.236169 0.263407,0 0.217513,0.321005 -0.05901,0.413206 -0.09738,0.03258 -0.177121,-0.04707 -0.177121,-0.177037 z m 1.230495,-1.379003 c -0.357356,-0.144211 -0.207328,-1.001157 0.278443,-1.590432 0.403961,-0.49008 0.535876,-0.558143 1.006768,-0.518801 0.81047,0.06758 0.774085,0.477407 -0.126574,1.424981 -0.745738,0.784537 -0.812415,0.823878 -1.158643,0.684252 z M 24.222499,22.346662 c 0,-0.22603 1.054991,-0.536297 1.229602,-0.361675 0.108486,0.108612 0.0245,0.185364 -0.275836,0.252703 -0.237449,0.0531 -0.549199,0.12852 -0.692748,0.167382 -0.143561,0.03861 -0.261018,0.0133 -0.261018,-0.05793 z m 27.413594,-2.054986 c 0.457785,-0.418396 0.832349,-0.85067 0.832349,-0.960729 0,-0.282148 0.294289,-0.430342 0.481981,-0.242685 0.407064,0.40705 -1.030709,1.964175 -1.813652,1.964175 -0.279337,0 -0.198807,-0.122724 0.499322,-0.760761 z M 13.241708,19.560842 c 0,-0.08205 0.134232,-0.14916 0.298295,-0.14916 0.164065,0 0.298308,0.06758 0.298308,0.14916 0,0.08207 -0.134246,0.14916 -0.298308,0.14916 -0.164063,0 -0.298295,-0.06758 -0.298295,-0.14916 z m 14.265431,-0.871125 c 0.0048,-0.264288 0.553506,-0.947091 0.668659,-0.831962 0.12481,0.124782 -0.33731,1.018412 -0.526657,1.018412 -0.07988,0 -0.143825,-0.08448 -0.142002,-0.18645 z m 26.20068,-0.267734 c -0.210465,-0.548486 0.608055,-1.036393 1.080671,-0.644064 0.275428,0.228565 0.271541,0.363244 -0.01883,0.653719 -0.306549,0.306526 -0.942711,0.300733 -1.06182,-0.01204 z M 38.398524,13.346218 c -0.333655,-0.333556 0.269959,-1.212826 0.715351,-1.041944 0.272349,0.104986 0.303942,0.708748 0.05032,0.962417 -0.194994,0.195017 -0.607332,0.237859 -0.765638,0.07965 z M 20.947844,12.89874 c -0.156605,-0.15652 -0.116088,-0.618362 0.06408,-0.729748 0.238185,-0.147108 0.609842,0.285647 0.497248,0.579018 -0.09775,0.254635 -0.381262,0.330784 -0.56128,0.15073 z"/>
 <path style="fill:#9e2323" d="m 34.61131,52.893736 c -0.619314,-0.07603 -1.210884,-0.235325 -1.334641,-0.35902 -0.186908,-0.186934 -0.217089,-0.813139 -0.189526,-3.932578 0.02521,-2.854912 -0.01092,-3.745042 -0.15686,-3.861378 -0.104272,-0.08327 -1.213418,-0.673993 -2.464706,-1.313112 -1.251277,-0.638996 -2.248812,-1.188087 -2.216698,-1.220188 0.0321,-0.03258 2.19687,0.992828 4.810628,2.277582 9.697019,4.766471 9.419654,4.509544 9.961698,4.301615 0.129766,-0.04948 0.235928,-0.167383 0.235928,-0.261151 0,-0.09414 -2.464205,-1.270753 -5.109773,-2.615362 -2.645569,-1.344489 -4.934325,-2.552248 -5.086127,-2.683909 -0.246392,-0.213723 -0.265024,-0.385812 -0.17361,-1.604914 0.07615,-1.01612 0.03983,-1.672495 -0.142269,-2.564919 -0.13454,-0.659754 -0.22421,-1.555677 -0.199254,-1.990968 l 0.04537,-0.791535 0.335598,0.638393 c 0.184567,0.351177 0.335585,0.804328 0.335585,1.006828 0,0.792138 1.209315,1.30213 1.315454,0.554763 0.05901,-0.415982 0.326075,-0.439032 0.431162,-0.03741 0.114772,0.438791 0.341499,0.363003 0.341499,-0.114646 0,-0.54173 -0.49072,-1.455997 -1.179618,-2.197692 -0.304774,-0.328127 -0.744735,-0.898699 -0.977695,-1.267857 -0.232971,-0.369037 -0.514033,-0.724801 -0.624635,-0.79045 -0.222859,-0.132146 -0.278106,-0.701026 -0.06807,-0.701026 0.265204,0 0.348027,-0.799742 0.101486,-0.980036 -0.128954,-0.09414 -0.234468,-0.370004 -0.234468,-0.612689 0,-0.242688 -0.10367,-0.79045 -0.230486,-1.217414 -0.126756,-0.426843 -0.19258,-0.837394 -0.146239,-0.912336 0.04634,-0.07482 0.01919,-0.425878 -0.06047,-0.77983 -0.09365,-0.416465 -0.09317,-1.187002 0.0012,-2.18502 0.183903,-1.941971 -0.240233,-2.771687 -0.896994,-3.801205 -0.260438,-0.407775 -0.549514,-0.961571 -0.642376,-1.230446 -0.161301,-0.467029 -0.152178,-0.488992 0.20361,-0.488992 0.441347,0 1.296445,-0.862737 1.624235,-1.638584 0.120792,-0.286011 0.367457,-0.677615 0.548102,-0.870219 0.262259,-0.279614 0.324542,-0.513733 0.308974,-1.161539 -0.04151,-1.728248 -1.675052,-2.923578 -3.105043,-2.272028 -0.317398,0.144572 -0.429412,0.127441 -0.686545,-0.104987 -0.253088,-0.22905 -0.357983,-0.246427 -0.595178,-0.09775 -0.158355,0.09895 -0.384991,0.179813 -0.503631,0.179813 -0.118622,0 -0.263202,0.149642 -0.321272,0.332593 -0.05804,0.182948 -0.293818,0.50842 -0.523942,0.723472 -0.28426,0.265494 -0.393126,0.487424 -0.339604,0.692095 0.0525,0.200931 -0.07458,0.47608 -0.380984,0.825085 -0.503547,0.573589 -0.581675,0.857185 -0.236098,0.857185 0.432443,0 0.217055,0.260426 -0.415149,0.501785 -0.81205,0.310146 -0.852635,0.307129 -0.852635,-0.06275 0,-0.16871 -0.07603,-0.608586 -0.168866,-0.977382 -0.151357,-0.601103 -0.209391,-0.666029 -0.559313,-0.625361 l -0.390592,0.04465 v 1.483149 1.48315 l -0.633903,0.428413 c -0.348643,0.235564 -0.633893,0.486577 -0.633893,0.557778 0,0.0712 -0.100997,0.55251 -0.346374,0.947616 -0.322274,0.519041 -0.473002,0.987639 -0.542864,1.68794 -0.05321,0.533162 -0.19585,1.165884 -0.317024,1.405915 -0.132944,0.263322 -0.109634,0.640934 -0.154991,1.592853 -0.06734,1.413276 -0.11319,1.617948 -0.441723,1.970332 -0.323408,0.346952 -0.348498,0.452305 -0.213132,0.894837 0.511258,1.67153 1.0104,2.844049 1.542415,3.623397 1.05277,1.542403 2.205644,3.543749 2.120614,3.681323 -0.153661,0.248599 -0.362606,0.133238 -0.367903,-0.203103 -0.0036,-0.184518 -0.08677,-0.473908 -0.186438,-0.642859 -0.339531,-0.576123 -1.075627,-1.407966 -1.245906,-1.407966 -0.09341,0 -0.21347,-0.232549 -0.266786,-0.516749 -0.183456,-0.977864 -0.383941,-0.726248 -0.375119,0.47065 0.01204,1.643291 0.143584,2.208794 0.513442,2.208794 0.214532,0 0.311546,0.114646 0.345493,0.410189 0.03307,0.286975 -0.0204,0.410189 -0.17764,0.410189 -0.123634,0 -0.266315,-0.06758 -0.317013,-0.14916 -0.05068,-0.08205 -0.280518,-0.149159 -0.510715,-0.149159 -0.230183,0 -0.578608,-0.124782 -0.77423,-0.277322 C 20.819137,37.260581 20.33543,37.08801 19.939855,37.02948 l -0.719225,-0.106204 0.104384,0.719248 c 0.107156,0.737956 0.215376,1.036878 0.215376,0.59495 0,-0.275752 0.518596,-0.346349 0.675769,-0.09171 0.05321,0.08568 0.661262,0.417308 1.351173,0.736022 0.689901,0.318836 1.254378,0.651066 1.254378,0.738317 0,0.08688 -0.0572,0.158814 -0.127106,0.158814 -0.196357,0 -0.486808,1.981312 -0.315517,2.152558 0.248709,0.248719 0.158984,0.970019 -0.153975,1.237927 -0.392231,0.335852 -0.437981,1.680702 -0.0572,1.680702 0.178932,0 0.216474,0.08688 0.145564,0.335609 -0.05261,0.184519 -0.134722,0.514214 -0.182564,0.732523 -0.04924,0.224947 -0.216125,0.430705 -0.384979,0.474873 -0.313526,0.08207 -0.304896,0.408018 0.01358,0.514215 0.102816,0.0338 0.224777,-0.08207 0.270974,-0.258978 0.118622,-0.453513 0.556356,-0.325955 0.614656,0.17921 0.05635,0.488509 0.08931,0.496112 0.474837,0.11102 0.165729,-0.165813 0.298307,-0.497199 0.298307,-0.745798 0,-0.246066 0.0671,-0.447479 0.149148,-0.447479 0.151742,0 0.201124,0.185847 0.161396,0.607741 -0.04091,0.434084 0.428521,1.971539 0.690273,2.260807 0.247948,0.273942 0.243194,0.298681 -0.108738,0.564176 -0.327669,0.24703 -0.33952,0.288544 -0.10801,0.377364 0.14303,0.05431 0.260051,0.24703 0.260051,0.426842 0,0.476926 0.282463,0.685097 0.929413,0.685097 0.707869,0 0.840085,0.267064 0.546787,1.104337 -0.206194,0.588553 -0.235676,0.609431 -0.807805,0.572261 -1.010423,-0.06637 -1.920357,-0.36071 -2.29059,-0.742298 -0.256033,-0.263927 -0.462298,-0.34466 -0.743082,-0.290958 -0.537844,0.102578 -1.094828,-0.22205 -1.671036,-0.974485 -0.821078,-1.072116 -1.827797,-2.065427 -2.377178,-2.345403 -0.581505,-0.296268 -0.337227,-0.539437 -1.573286,-0.677857 -0.811109,-0.09051 -1.938955,-0.661322 -1.938955,-0.98076 0,-0.08448 -0.239235,-0.254513 -0.531605,-0.376761 -0.786671,-0.328611 -1.718184,-1.046652 -2.036017,-1.569314 -0.621728,-1.022275 -0.758638,-1.752385 -0.640156,-3.413657 0.186969,-2.621517 0.151067,-2.878806 -0.633615,-4.541163 -0.7038971,-1.491235 -0.7076267,-1.507405 -0.690912,-2.990917 0.01508,-1.344971 0.07542,-1.652583 0.613992,-3.132112 0.328465,-0.90244 0.677288,-2.105492 0.775172,-2.67365 0.233961,-1.357884 0.434868,-2.106648 1.207095,-2.998225 0.935192,-1.079599 0.952493,-1.534357 1.050412,-2.962959 0.07531,-1.098784 0.116942,-1.222722 0.50736,-1.511386 0.521251,-0.385451 0.540089,-0.556695 0.06131,-0.556695 -0.618929,0 -0.543227,-0.208051 0.374154,-1.028549 0.486664,-0.435171 0.884834,-0.871545 0.884834,-0.96978 0,-0.217826 1.069471,-1.283062 1.288239,-1.283062 0.08641,0 0.278516,-0.13419 0.426988,-0.298319 0.148484,-0.164003 0.396467,-0.298199 0.551094,-0.298199 0.328586,0 1.257529,-0.10017 1.399002,-0.329099 0.05347,-0.08688 0.2182,-0.119476 0.366008,-0.07241 0.376217,0.119476 1.197646,-0.600137 1.197646,-1.049065 0,-0.283959 0.240501,-0.792375 0.652801,-0.869731 0.281797,-0.0531 0.570015,-0.06034 0.640505,-0.0169 0.07048,0.04344 0.418504,-0.05068 0.773386,-0.209739 0.916945,-0.410431 3.738211,-0.926095 4.30083,-0.785985 0.245558,0.06154 0.335585,0.0181 0.335585,-0.161107 0,-0.366623 0.30124,-0.414051 1.100922,-0.173416 0.497259,0.149763 0.834642,0.173777 1.087489,0.07723 0.543987,-0.206717 1.833723,-0.168946 2.669209,0.07844 0.404543,0.119477 1.363798,0.318956 2.131668,0.442773 0.767883,0.123942 1.49103,0.303991 1.60699,0.400173 0.115976,0.09654 0.250966,0.134918 0.299998,0.08568 0.049,-0.04948 0.399761,0.06758 0.779432,0.259582 0.379656,0.191879 1.123669,0.459546 1.653366,0.594826 0.529675,0.135156 1.066612,0.336576 1.193205,0.447359 0.228603,0.200207 1.415846,0.832929 1.562857,0.832929 0.04224,0 0.0084,-0.178726 -0.07421,-0.397155 -0.08303,-0.218431 -0.09474,-0.453513 -0.02594,-0.522301 0.1571,-0.157125 1.419768,0.624637 2.16226,1.338696 0.471881,0.453875 0.708907,0.558745 1.491512,0.659874 1.601149,0.206966 1.629075,0.205277 1.806461,-0.109816 0.09244,-0.164003 0.183011,-0.324387 0.201293,-0.356366 0.01823,-0.03137 0.26319,0.117054 0.544264,0.331747 0.530676,0.404758 0.671026,0.366866 0.887476,-0.239669 0.0519,-0.145419 0.213325,-0.306644 0.358744,-0.358297 0.145418,-0.0519 0.387911,-0.200207 0.538881,-0.3303 0.251376,-0.216376 0.290438,-0.214445 0.463904,0.02293 0.308673,0.422137 0.626409,0.304716 1.477368,-0.546194 1.141916,-1.141989 1.885893,-1.4747 1.885893,-0.843427 0,0.186207 -0.291888,0.484164 -0.813802,0.830515 -0.911721,0.605207 -1.721757,1.455151 -1.721757,1.806569 0,0.127806 -0.134246,0.402948 -0.298306,0.611603 -0.164076,0.208534 -0.298308,0.570088 -0.298308,0.803482 0,0.233394 -0.09521,0.677374 -0.211708,0.986676 -0.256781,0.681958 -0.387343,1.883079 -0.23203,2.134455 0.08267,0.133588 0.258254,0.07241 0.651306,-0.22748 0.622272,-0.474633 0.706482,-0.299768 0.165319,0.343452 -0.330866,0.393174 -0.513574,1.071271 -0.288677,1.071271 0.130424,0 0.872427,-0.910284 0.992347,-1.217413 0.130396,-0.33392 0.3163,-0.349005 0.567735,-0.04586 0.15698,0.189225 0.130886,0.290354 -0.152767,0.592294 -0.419941,0.446996 -0.269815,0.692217 0.57938,0.94673 0.320634,0.09654 0.614645,0.257891 0.653359,0.359744 0.216149,0.568159 -0.656532,1.405795 -1.297086,1.244929 -0.404975,-0.101374 -0.636571,0.122374 -0.414388,0.400896 0.07892,0.09895 0.19054,0.864185 0.247948,1.700613 0.05744,0.836429 0.622282,1.876805 0.742067,2.311855 0.665076,2.415276 0.854688,3.770974 0.909223,7.486449 l 0.05394,3.673841 -0.391399,0.465098 c -0.215268,0.25584 -0.478144,0.465219 -0.584149,0.465219 -0.380899,0 -0.963008,1.011776 -1.212043,2.106578 -0.137298,0.603638 -0.348631,1.248669 -0.469659,1.433309 -0.13657,0.208533 -0.602913,0.483079 -0.542439,0.724076 0.05697,0.226757 0.02208,0.478976 -0.08387,0.606655 -0.102088,0.122976 -0.200134,0.776089 -0.224427,1.494613 -0.02944,0.871426 -0.120778,1.394812 -0.287809,1.649686 -0.240296,0.366746 -0.266169,0.37121 -1.45993,0.249325 -1.874934,-0.191519 -2.736007,-0.154108 -3.977387,0.425031 -0.868867,0.405363 -1.465626,0.835222 -2.393555,1.723906 -1.693577,1.621809 -2.500636,1.865098 -4.280778,1.908785 -0.779298,0.01931 -1.917473,-0.02654 -2.529269,-0.102578 z M 23.542976,50.834585 c 0.118622,-0.07482 0.19888,-0.402828 0.19888,-0.812172 0,-1.100957 -0.306455,-1.332421 -0.677193,-0.51144 -0.319667,0.708026 -0.423367,1.1333 -0.317978,1.30382 0.112588,0.182226 0.523966,0.192483 0.796291,0.01931 z m -2.212403,-2.330318 c 0,-0.123088 -0.100646,-0.22374 -0.223727,-0.22374 -0.123046,0 -0.223727,0.10017 -0.223727,0.22374 0,0.123088 0.100646,0.223739 0.223727,0.223739 0.12306,0 0.223727,-0.10017 0.223727,-0.223739 z m -3.464667,-1.743213 c -0.0922,-0.276598 -0.413266,-0.322455 -0.413266,-0.05914 0,0.12985 0.106316,0.236169 0.236158,0.236169 0.129892,0 0.209582,-0.07965 0.177108,-0.177158 z m 2.073476,-2.395726 c -0.04598,-0.184641 -0.137704,-0.557056 -0.203828,-0.82774 -0.06614,-0.270683 -0.187342,-0.505526 -0.269368,-0.522059 -0.211116,-0.04224 -0.267593,0.804811 -0.08555,1.283545 0.191772,0.50444 0.682417,0.562607 0.558757,0.06637 z m -0.445898,-3.719459 c -0.04754,-0.119476 -0.08291,-0.08327 -0.09015,0.09051 -0.006,0.157246 0.02884,0.245341 0.07832,0.195741 0.0496,-0.04948 0.05491,-0.178242 0.01204,-0.285888 z m 0.08037,-1.26496 -0.151417,-0.571417 -0.01544,0.738195 c -0.01092,0.544384 0.02836,0.694511 0.151416,0.571537 0.118748,-0.119476 0.123228,-0.331506 0.01544,-0.738315 z M 51.189785,22.808513 c 0.158065,-0.119477 0.245099,-0.259822 0.193389,-0.311474 -0.166453,-0.166536 -0.853687,0.08931 -0.853687,0.317508 0,0.278528 0.287556,0.275993 0.660298,-0.01204 z M 27.246901,52.506476 c -0.147819,-0.147833 -0.120316,-1.019499 0.04598,-1.456962 0.131628,-0.346108 0.222943,-0.382554 0.959342,-0.382554 0.728094,0 0.84636,-0.04586 1.122317,-0.433238 0.169651,-0.238221 0.308456,-0.50275 0.308456,-0.587708 0,-0.345506 0.318848,-0.314612 0.670532,0.06517 0.278057,0.30013 0.373538,0.566831 0.373538,1.043636 0,0.352383 -0.0671,0.682079 -0.14916,0.732764 -0.08205,0.05068 -0.149148,0.0169 -0.149148,-0.07482 0,-0.09171 -0.0671,-0.125272 -0.149147,-0.07482 -0.08205,0.05068 -0.149159,0.25041 -0.149159,0.443979 0,0.635498 -0.155025,0.823758 -0.678339,0.823758 -0.273496,0 -0.538748,-0.06758 -0.589447,-0.149161 -0.05068,-0.08205 -0.25205,-0.149158 -0.447454,-0.149158 -0.195405,0 -0.396758,0.06758 -0.447455,0.149158 -0.104146,0.16859 -0.569944,0.20069 -0.720889,0.04948 z m -0.09944,-10.191973 c 0,-0.08207 0.0671,-0.14916 0.149148,-0.14916 0.08207,0 0.149148,0.06758 0.149148,0.14916 0,0.08207 -0.0671,0.14916 -0.149148,0.14916 -0.08207,0 -0.149148,-0.06758 -0.149148,-0.14916 z m 0.620581,-1.71606 c 0.03174,-0.278649 0.14787,-0.462564 0.311607,-0.493578 0.359492,-0.06878 0.330227,0.31099 -0.05057,0.655529 -0.30982,0.280459 -0.311306,0.279494 -0.261007,-0.161951 z M 24.639417,32.88836 c -0.129976,-0.427084 -0.201378,-2.804225 -0.08424,-2.804225 0.07157,0 0.454104,0.931764 0.656652,1.599604 0.202862,0.668925 0.06987,1.53299 -0.252448,1.640395 -0.09353,0.03137 -0.237532,-0.164849 -0.319945,-0.435774 z M 52.46844,24.315678 c 0,-0.129976 0.106316,-0.236169 0.236157,-0.236169 0.263407,0 0.217513,0.321005 -0.05901,0.413206 -0.09738,0.03258 -0.177121,-0.04707 -0.177121,-0.177037 z m 1.230495,-1.379003 c -0.357356,-0.144211 -0.207328,-1.001157 0.278443,-1.590432 0.403961,-0.49008 0.535876,-0.558143 1.006768,-0.518801 0.81047,0.06758 0.774085,0.477407 -0.126574,1.424981 -0.745738,0.784537 -0.812415,0.823878 -1.158643,0.684252 z M 24.222499,21.346662 c 0,-0.22603 1.054991,-0.536297 1.229602,-0.361675 0.108486,0.108612 0.0245,0.185364 -0.275836,0.252703 -0.237449,0.0531 -0.549199,0.12852 -0.692748,0.167382 -0.143561,0.03861 -0.261018,0.0133 -0.261018,-0.05793 z m 27.413594,-2.054986 c 0.457785,-0.418396 0.832349,-0.85067 0.832349,-0.960729 0,-0.282148 0.294289,-0.430342 0.481981,-0.242685 0.407064,0.40705 -1.030709,1.964175 -1.813652,1.964175 -0.279337,0 -0.198807,-0.122724 0.499322,-0.760761 z M 13.241708,18.560842 c 0,-0.08205 0.134232,-0.14916 0.298295,-0.14916 0.164065,0 0.298308,0.06758 0.298308,0.14916 0,0.08207 -0.134246,0.14916 -0.298308,0.14916 -0.164063,0 -0.298295,-0.06758 -0.298295,-0.14916 z m 14.265431,-0.871125 c 0.0048,-0.264288 0.553506,-0.947091 0.668659,-0.831962 0.12481,0.124782 -0.33731,1.018412 -0.526657,1.018412 -0.07988,0 -0.143825,-0.08448 -0.142002,-0.18645 z m 26.20068,-0.267734 c -0.210465,-0.548486 0.608055,-1.036393 1.080671,-0.644064 0.275428,0.228565 0.271541,0.363244 -0.01883,0.653719 -0.306549,0.306526 -0.942711,0.300733 -1.06182,-0.01204 z M 38.398524,12.346218 c -0.333655,-0.333556 0.269959,-1.212826 0.715351,-1.041944 0.272349,0.104986 0.303942,0.708748 0.05032,0.962417 -0.194994,0.195017 -0.607332,0.237859 -0.765638,0.07965 z M 20.947844,11.89874 c -0.156605,-0.15652 -0.116088,-0.618362 0.06408,-0.729748 0.238185,-0.147108 0.609842,0.285647 0.497248,0.579018 -0.09775,0.254635 -0.381262,0.330784 -0.56128,0.15073 z"/>
</svg>
