<svg xmlns="http://www.w3.org/2000/svg" width="64" height="64" version="1.1">
 <path style="opacity:0.2" d="m 38.179688,4.999562 c 0.343026,1.724117 0.645824,3.259146 0.523436,4.828125 -1.466574,-0.741525 -2.296516,-3.3617848 -7.20703,-3.3398438 -3.784932,0.01692 -6.140496,3.6425098 -7.726562,5.9296878 -0.811774,1.1488 -1.494028,1.957811 -2.21875,1.800781 -0.771664,-0.1672 -1.13647,-0.996497 -1.597658,-2.871094 -0.609292,2.800304 -4.189366,4.736667 0.4375,9.6875 -1.533356,1.563338 -1.921765,2.114538 -2.230468,2.617188 -0.400788,0.652588 -0.331534,3.378734 0.691406,3.539062 -3.768336,1.043404 -1.56643,5.255378 -3.128906,6.66797 -0.994427,0.697864 -1.871075,1.491762 -4.367187,0.98828 1.531832,2.648508 3.962138,3.886186 6.269531,3.277344 l 0.726562,1.734376 c -1.506712,2.396674 -0.652343,3.308592 -0.652343,3.308592 l 6.101563,5.23047 -0.554688,-8.023438 c 3.474282,-2.055246 6.497684,-5.00033 4.75,-13.769532 L 28,23.19878 c -1.925362,-2.47915 -2.013054,-2.332676 -1.195312,-3.121094 0.07634,-0.376672 0.08504,-0.702582 0.09374,-1.03125 1.061336,-0.510282 2.090932,-0.978615 2.972656,-1.374999 -0.73612,3.526901 0.44135,3.222795 0.808594,4.542969 0.841284,-1.692768 1.71569,-2.953276 2.710936,-2.644532 -0.92548,1.113884 -1.323184,2.473516 -0.86328,4.203126 1.404266,-1.339324 2.402082,-3.107684 4.542968,-3.121094 1.135612,2.211264 2.01967,4.377694 4.79297,6.886718 -0.694608,0.272962 -1.45951,0.16844 -1.859376,2.0625 -1.228252,0.384218 -1.047346,1.120124 -1.089844,1.800782 -0.223032,0.380234 -0.14724,0.734184 1.32422,1.796874 -4.229312,3.767836 -8.159818,11.052776 -3.804688,11.73047 0.830956,0.1293 9.849604,0.929434 11.167968,0.671874 L 47.375,42.29253 c 0.14106,-1.754556 0.02714,-3.253486 -0.605468,-4.234374 5.6552,-1.242604 5.337436,-6.492282 5.929686,-7.265626 -1.15121,-0.463878 -1.917874,-1.12072 -1.83203,-2.203124 1.350796,-2.60302 2.91871,-4.9532 2.324218,-9.800782 -0.52329,-3.142094 -2.103558,-9.8881568 -9.265624,-10.7851558 -0.848108,-0.00374 -1.532726,0.129102 -2.132814,0.3320314 -0.32416,0.10962 0.13918,-2.011189 0.0196,-1.7148438 -0.14314,0.3545968 -0.882786,1.1098754 -1.410156,1.453125 C 40.858278,6.7834154 39.706116,5.595163 38.179688,4.999562 Z m 7.242188,21.667968 c 0.35615,7.36e-4 0.73998,0.1852 1.14453,0.632814 1.675982,1.854398 -1.71875,4.109374 -1.71875,4.109374 -0.24611,0.416132 -0.636138,0.39806 -1.0625,0.273438 -0.0134,-0.07166 -0.07742,-0.11558 -0.203124,-0.11328 -1.690852,-1.64379 1.666566,-3.41206 1.33203,-3.414062 -0.290606,-0.11714 -1.066336,-0.17342 -1.003906,-0.28125 0.400636,-0.691996 0.918136,-1.208258 1.51172,-1.207034 z"/>
 <rect style="opacity:0.2" width="50" height="16" x="7" y="45" rx="2.778" ry="2.667"/>
 <ellipse style="fill:#ffd5d5" cx="45.636" cy="28.34" rx="2.806" ry="4.54"/>
 <path style="fill:#52120e" d="m 44.848248,30.409946 c 4.397348,1.483136 5.799994,0.08682 7.852684,-0.617156 -0.59225,0.773344 -0.277536,6.023462 -5.932736,7.266066 0.632608,0.980888 0.74603,2.48096 0.60497,4.235516 L 47.6,44.6 c -1.318364,0.25756 -10.3365,-0.540702 -11.167456,-0.670004 -5.264136,-0.819142 1.56955,-11.370652 6.414958,-13.58413 0.752074,0.276832 1.578778,0.77756 2.000746,0.06408 z"/>
 <path style="fill:#52120e" d="m 23.76997,11.418509 c -0.811774,1.1488 -1.494456,1.958857 -2.219178,1.801827 -0.771664,-0.1672 -1.137316,-0.996278 -1.598504,-2.870875 -0.609294,2.800304 -4.189737,4.736426 0.43713,9.687259 -1.533357,1.563338 -1.919659,2.112484 -2.228362,2.615134 -0.400788,0.652588 -0.331653,3.377316 0.691288,3.537644 -3.768337,1.043404 -1.56915,5.255622 -3.131625,6.668212 -0.994427,0.697864 -1.867807,1.492432 -4.363919,0.98895 1.531832,2.648508 3.961655,3.888636 6.269049,3.279794 l 0.724507,1.732438 c -1.506713,2.396676 -0.651478,3.308268 -0.651478,3.308268 L 23.8,47.4 23.24654,39.373798 c 3.474282,-2.055246 6.496538,-4.999218 4.748854,-13.76842 L 28,22.2 c -1.925362,-2.479151 -2.011632,-2.331646 -1.19389,-3.120063 0.81886,-4.04048 -2.587714,-5.111831 -3.036182,-7.661428 z"/>
 <rect style="fill:#403650" width="50" height="16" x="7" y="44" rx="2.778" ry="2.667"/>
 <path style="opacity:0.2" d="m 27.800782,29.147912 -1.617188,7.972656 c 0,0 -1.342934,0.7591 -1.804688,1.351562 -0.599948,0.769766 -1.132812,2.69922 -1.132812,2.69922 l -2.035156,1.441406 c -2.256043,0.06202 -3.478237,0.964432 -3.96875,2.460936 l 2.230468,0.207032 c 0.242352,-1.639832 0.63349,-2.180038 2.570312,-1.6875 -1.19656,0.14506 -2.540606,0.276688 -2.183592,2.203126 l 3.761718,-0.226564 7.699218,-15.449218 z m 13.335936,0.617186 -4.226562,0.867188 c 0,0 -0.533534,3.401928 -0.289062,4.195312 0.479814,1.557154 0.625146,1.149572 1.64453,3.433594 0.30673,0.687226 -0.17798,1.11458 -0.0078,1.847658 0.16392,0.706198 0.927196,1.365664 1.097656,2.070312 0.233182,0.963928 -0.289062,3.183594 -0.289062,3.183594 0.44473,0.03202 1.251926,0.453828 1.441406,0.16406 0.08036,-0.12288 -0.426926,-0.789556 -0.242188,-0.785156 0.18404,0.0046 1.269102,1.157132 1.4375,1.132812 0.476118,-0.06876 0.758158,-0.495924 1.29297,-0.464844 0.614228,0.0357 0.676924,0.716332 2.121094,0.5 0.35469,-0.203128 0.80394,-1.200078 0.234374,-1.648438 -0.492842,-0.388006 -2.245258,-0.280786 -2.210938,-0.367186 0.15288,-0.3848 1.402912,-0.519664 2.015626,-0.277344 1.000524,0.395692 0.67471,1.494012 2.082032,1.507812 0.876066,0.0086 1.096804,-0.691324 1.265624,-0.839844 -1.543722,-2.54362 -3.872326,-0.457086 -5.675782,-3.390624 -0.589922,-0.959586 -0.865914,-2.6796 -1.378906,-4.98047 -0.23627,-1.05971 -0.21176,-4.586906 -0.3125,-6.148438 z"/>
 <path style="fill:#ffd5d5" d="m 27.80207,28.146958 3.519632,0.974084 -7.701788,15.448816 -3.759106,0.228452 c -0.357014,-1.926438 0.98407,-2.059192 2.18063,-2.204252 -1.936822,-0.492538 -2.327914,0.04842 -2.570266,1.688252 l -2.228005,-0.209342 c 0.490514,-1.496504 1.713001,-2.398286 3.969043,-2.460302 l 2.03445,-1.439286 c 0,0 0.533842,-1.929652 1.13379,-2.699418 0.461754,-0.592462 1.801616,-1.35359 1.801616,-1.35359 z"/>
 <path style="fill:#ee1536" d="m 32.361534,29.424708 5.93483,-0.0767 0.465478,10.549942 -11.636926,-2.2692 c -0.27185,-2.664466 -2.993812,-5.375992 5.236618,-8.204034 z"/>
 <path style="fill:#9a1652" d="m 33.373082,33.269004 c -1.522126,0.02576 -1.65303,1.433454 -1.62939,2.716332 -0.22621,-0.306644 -0.793658,-1.345404 -1.182428,-1.734504 -0.942582,-0.943384 -2.24365,-1.294486 -3.145334,-0.569746 -0.901684,0.724742 -0.955424,2.154932 -0.11996,3.194374 0.835464,1.03944 1.989492,0.617794 3.145336,0.569746 0.794284,-0.03302 1.39324,-0.228254 1.544718,-0.68048 0.02614,0.03756 0.05322,0.07448 0.0812,0.11072 0.835476,1.03939 4.745612,2.632718 5.64727,1.907992 0.830902,-0.589194 4.583862,-5.132658 -1.219292,-3.540904 -0.604602,-1.356428 -1.867568,-1.96093 -3.122124,-1.973544 z"/>
 <path style="fill:#ffd5d5" d="m 36.911714,29.6326 4.22356,-0.8652 c 0.10074,1.561532 0.07746,5.088762 0.31373,6.148472 0.512992,2.30087 0.787504,4.019382 1.377428,4.978968 1.803454,2.933538 4.135648,0.847766 5.67937,3.391386 -0.16882,0.14852 -0.389528,0.847054 -1.265594,0.838466 -1.407322,-0.0138 -1.085306,-1.111818 -2.08583,-1.50751 -0.612714,-0.24232 -1.861124,-0.10738 -2.013994,0.27742 -0.03432,0.0864 1.719944,-0.0194 2.212786,0.368606 0.569566,0.44836 0.1197,1.44469 -0.23499,1.647818 -1.44417,0.216332 -1.508138,-0.46441 -2.122366,-0.500106 -0.534812,-0.03108 -0.814712,0.393634 -1.29083,0.4624 -0.1684,0.02432 -1.257234,-1.12818 -1.441274,-1.132702 -0.18474,-0.0044 0.326192,0.661928 0.245836,0.784814 -0.18948,0.289766 -0.999916,-0.1306 -1.444646,-0.16262 0,0 0.524154,-2.217732 0.290972,-3.18166 -0.17046,-0.704648 -0.932902,-1.365814 -1.09683,-2.072012 -0.17016,-0.733078 0.31173,-1.15858 0.005,-1.845806 -1.019384,-2.284022 -1.164996,-1.87721 -1.64481,-3.434362 C 36.37476,33.035588 36.91175,29.6326 36.91175,29.6326 Z"/>
 <path style="opacity:0.2" d="m 25.012602,23.082156 0.598094,-6.158205 c 1.492494,-1.237457 3.090268,-1.536554 5.024114,-1.780971 l 3.23093,1.979575 10.691184,0.410998 -1.123068,9.376941 -2.18953,3.252338 c -1.80066,0.04176 -8.33475,1.942152 -12.546556,-0.12526 -2.150434,-1.055562 -3.862226,-4.521076 -3.685168,-6.955424 z"/>
 <path style="fill:#ffbebe" d="m 25.012602,22.082156 0.598094,-6.158204 c 1.492494,-1.237458 3.090268,-1.536555 5.024114,-1.780971 l 3.23093,1.979575 10.691184,0.410998 -1.123068,9.37694 -2.18953,3.252338 c -1.80066,0.04176 -8.33475,1.942152 -12.546556,-0.12526 -2.150434,-1.055562 -3.862226,-4.521076 -3.685168,-6.955424 z"/>
 <path style="fill:#2e2e2e" d="m 26.60611,18.479936 c 0.06884,0.693026 -0.07994,1.417 0.716334,2.006108 l -0.506998,0.11706 c -0.498414,-0.272938 -1.007966,-0.6222 -1.615114,-1.656251 -0.05934,0.631946 0.241846,1.616299 0.742172,1.988707 0.15626,0.1163 -0.69055,0.1448 -0.49355,0.288694 l 1.162956,-0.209072 1.141072,-0.10782 c -0.19496,1.705176 -0.233538,4.0832 1.67101,4.167764 1.694886,-0.264926 1.77304,-1.747634 2.070436,-4.140608 C 30.474738,20.480006 29.44306,20.078988 28.27,20.31467 27.40542,19.827086 26.804634,19.233941 26.60611,18.479936 Z M 35.665356,21.649 c -0.18022,0.0046 -0.365424,0.02472 -0.555246,0.05932 -0.705396,-0.04794 -1.436304,-0.0174 -2.12422,0.1487 0.759552,0.09392 1.348336,0.11894 1.856616,0.1806 -0.365392,1.68553 -0.70712,4.211712 1.249434,4.47755 1.254446,-0.08088 1.703188,-0.89402 2.055408,-2.24866 0.307868,0.03156 0.569554,0.05498 0.630912,0.04244 0.6111,-0.12478 1.92258,-0.888302 2.13714,-1.485664 -0.988702,0.678496 -1.597944,0.778624 -2.165086,0.814148 l -0.38519,-0.302142 c 0.0018,-0.0084 0.004,-0.018 0.0058,-0.02636 0.94347,-0.204394 1.117442,-0.913412 1.470106,-1.505172 -0.204894,0.1841 -0.704178,1.049456 -1.394176,0.717652 -0.04132,-0.0198 -0.08898,-0.04058 -0.13552,-0.06116 -0.82446,-0.450524 -1.669606,-0.836056 -2.645982,-0.811248 z"/>
 <path style="fill:#ef3d61" d="m 30.345,27.007256 c 0.978608,0.09592 2.007686,-0.06054 2.955954,0.18708 0.899274,0.236698 0.71931,0.43425 0.491134,0.790288 0,0 -0.676702,0.631336 -0.994792,0.836008 -0.508006,0.36074 -0.820704,0.270348 -1.179226,-0.14246 C 31.131678,28.11806 30.762978,27.588828 30.345,27.007256 Z"/>
 <path style="fill:#6d0f0a" d="m 38.18125,3.9999998 c 0.343026,1.724117 0.645992,3.2605446 0.523606,4.8295236 0.03376,-0.020218 0.06406,-0.04063 0.09676,-0.060902 -0.0316,0.025688 -0.06376,0.047296 -0.09676,0.060902 -1.466574,-0.7415248 -2.296596,-3.3639566 -7.20711,-3.3420156 -3.784932,0.01692 -6.14171,3.643824 -7.727776,5.9310012 -1.063388,2.519843 -3.101942,7.845755 -2.769742,10.358969 2.71259,-2.457935 6.336166,-3.966399 8.869986,-5.105493 -0.73612,3.526901 0.442478,3.224366 0.809722,4.544539 0.841284,-1.692767 1.715688,-2.955037 2.710934,-2.646292 -0.92548,1.113883 -1.32519,2.474372 -0.865286,4.203982 1.404266,-1.339324 2.402546,-3.106869 4.543432,-3.12028 1.135612,2.211264 2.01943,4.376744 4.79273,6.885768 -0.694608,0.272962 -1.457822,0.1686 -1.857688,2.062652 -1.228252,0.384218 -1.046518,1.120932 -1.089016,1.80159 -0.245644,0.418784 -0.224964,0.759094 1.739298,2.105576 1.04985,0.719662 3.921422,-1.957174 2.92796,-1.939078 -1.690852,-1.64379 1.66781,-3.411928 1.333274,-3.41393 -0.290606,-0.11714 -1.06719,-0.1752 -1.00476,-0.283036 0.641016,-1.107192 1.575812,-1.765546 2.65461,-0.57191 1.675982,1.854398 -1.717176,4.10838 -1.717176,4.10838 0,0 1.06548,1.047712 2.583136,1.108562 2.218062,0.08892 5.269548,-1.725718 5.269548,-1.725718 -1.15121,-0.463878 -1.91926,-1.119592 -1.833416,-2.201996 1.350796,-2.60302 2.918558,-4.95542 2.324066,-9.803001 -0.52329,-3.142094 -2.10309,-9.8878316 -9.265156,-10.7848306 -0.848108,-0.00374 -1.533096,0.128478 -2.133184,0.3314072 -0.32416,0.10962 0.1402,-2.0105918 0.02056,-1.7142466 C 41.670656,5.9747198 40.928546,6.72958 40.401176,7.0728296 40.85711,5.7824642 39.707678,4.5956008 38.18125,3.9999998 Z"/>
 <path style="fill:#c42d06" d="m 28.824344,6.1474214 c -2.284128,1.1540596 -3.880748,3.5786512 -5.054418,5.2711366 -0.05178,0.122688 -0.11458,0.27964 -0.17058,0.414984 2.85303,0.419098 6.176174,0.979254 8.538804,2.289264 l 2.235216,-1.315345 0.329296,2.993473 2.601954,-1.458244 1.339864,2.229944 2.09812,-2.299811 c 0.901154,0.43678 1.058004,1.803929 1.372556,2.973961 4.670254,-2.415977 7.367996,-2.246315 10.846788,-0.665449 -0.282764,-1.319416 -0.750666,-2.93185 -1.587958,-4.464107 -1.86247,1.007239 -7.300642,3.376505 -10.558356,-1.196703 l -1.25576,2.574006 -0.28184,-2.361241 -2.496492,2.548432 0.91117,-2.599581 c -4.192112,-0.08082 -13.00974,1.037701 -8.868364,-4.9347196 z"/>
 <path style="opacity:0.2" d="m 28.289062,37.452888 c -1.568898,0.05806 -2.737786,0.34057 -2.972656,0.773438 -0.235512,2.92622 -1.060096,5.029064 -1.984374,7.058594 -0.20346,0.44653 -0.352706,0.692136 -0.90625,0.785156 -0.91425,0.291516 -1.847344,0.645622 -2.535158,1.082032 -2.304172,0.533636 -4.959361,1.890136 -4.652343,2.980468 0.301864,0.730308 1.373576,1.248378 2.578125,1.527344 5.213482,0.781044 6.143734,-0.575092 7.460938,-1.742188 -0.04018,0.801396 -0.80051,1.60095 -1.601562,2.402344 l 0.714842,0.332032 c 2.203404,-2.07216 2.673254,-3.16952 2.5625,-4.738282 l 0.35547,-0.472656 c 0.15616,0.471568 0.355314,0.966408 0.648438,1.511718 0.518498,0.914262 1.036188,1.499024 1.554686,1.988282 -1.573148,5.110092 4.148062,9.494482 6.16797,8.691406 2.16083,-0.8591 2.140622,-8.78905 -1.69922,-10.33203 0.12222,-0.789624 0.08544,-1.525686 0.03516,-2.257814 1.84353,0.209936 3.74159,-0.224424 4.800782,-1.984374 2.48971,-5.9272 -5.820648,-7.779642 -10.527344,-7.60547 z"/>
 <path style="fill:#ee1536" d="m 26.95036,46.589174 c 0.205582,1.762608 -0.200288,2.84279 -2.560124,5.062064 L 23.6748,51.320334 c 0.801052,-0.801394 1.56267,-1.60279 1.60286,-2.404186 -1.317204,1.167096 -2.248804,2.526994 -7.462286,1.74595 -1.204549,-0.278966 -2.273934,-0.800064 -2.575797,-1.530372 -0.364845,-1.295696 3.455995,-2.979276 5.896393,-3.194634 2.97554,-0.262584 4.74676,0.479538 5.81439,0.652082 z"/>
 <path style="fill:#ee1536" d="m 30.034146,48.683822 c 7.64649,-3.66037 8.385884,8.859418 5.64391,9.94957 -2.184394,0.868472 -8.710958,-4.327092 -5.64391,-9.94957 z"/>
 <path style="fill:#ffbebe" d="m 25.317624,37.227874 c 0.939476,-1.73147 16.818448,-1.070702 13.498834,6.832232 -2.230822,3.706728 -8.184432,1.637834 -9.507102,-0.281954 l -2.418248,3.221882 c -1.331452,1.682202 -7.55547,1.74276 -7.99164,0.414074 0.04456,-1.101218 1.863678,-1.814824 3.526296,-2.344964 0.553544,-0.09302 0.702958,-0.335648 0.906418,-0.782178 0.924278,-2.02953 1.74993,-4.132872 1.985442,-7.059092 z"/>
 <path style="fill:#ffd5d5" d="m 29.530776,41.575658 c 1.915564,-0.727626 3.643422,0.401442 4.430596,3.395412 0.0068,1.434168 0.352422,2.755386 -0.240988,4.389618 0.80506,0.572048 1.379458,1.296914 1.485212,2.509698 0.13442,1.541632 -0.38246,2.674316 -1.178184,2.8807 -0.86298,-0.1322 -1.615664,0.320944 -2.687942,-1.694944 l -0.333028,-1.777844 c -1.016382,-0.991564 -2.032768,-1.533716 -3.04915,-3.32589 -1.821642,-3.388886 -0.90369,-5.302608 1.573484,-6.37675 z"/>
 <path style="opacity:0.1;fill:#8b9cbe" d="m 38.181641,4 c 0.07448,0.3743705 0.146141,0.7367355 0.21289,1.0957031 0.990307,0.433684 1.778854,1.1151251 2.019531,1.9082031 C 40.806019,5.7403642 39.680833,4.5849738 38.181641,4 Z m -6.683594,1.4882812 c -3.784932,0.01692 -6.14245,3.6425101 -7.728516,5.9296878 -0.811774,1.1488 -1.494028,1.959764 -2.21875,1.802734 -0.771664,-0.1672 -1.136468,-0.996497 -1.597656,-2.871094 -0.405556,1.863927 -2.117147,3.349665 -1.859375,5.591797 0.235211,-1.716828 1.516903,-3.017801 1.859375,-4.591797 0.461188,1.874597 0.825992,2.703894 1.597656,2.871094 0.724722,0.15703 1.406976,-0.653934 2.21875,-1.802734 1.586066,-2.287177 3.943584,-5.9127678 7.728516,-5.9296878 4.910514,-0.021941 5.740457,2.6002721 7.207031,3.3417969 0.03433,-0.4401658 0.028,-0.8783917 0.0039,-1.3183593 -0.0045,0.1061523 0.0044,0.2119811 -0.0039,0.3183593 C 37.238504,8.0885533 36.408561,5.4663402 31.498047,5.4882812 Z m 10.316406,0.1328126 c -0.14052,0.348093 -0.8576,1.0762808 -1.382812,1.4277343 0.08989,0.3270571 0.09331,0.6709255 -0.03125,1.0234375 0.451879,-0.2941151 1.039322,-0.8762226 1.294921,-1.2636718 0.03865,-0.5730611 0.19705,-1.3804788 0.119141,-1.1875 z m 2.111328,1.3828124 c -0.848108,-0.00374 -1.532724,0.127149 -2.132812,0.3300782 -0.02334,0.00789 -0.03511,-0.017771 -0.05078,-0.03125 -0.06918,0.5100829 -0.124694,1.0905896 0.05078,1.03125 0.600088,-0.2029292 1.284704,-0.3338182 2.132812,-0.3300782 7.162066,0.8969991 8.742335,7.6411088 9.265625,10.7832028 0.06112,0.498339 0.08552,0.953766 0.103516,1.402344 0.0213,-0.73612 0.0052,-1.516232 -0.103516,-2.402344 C 52.668116,14.645015 51.087847,7.9009052 43.925781,7.0039062 Z M 33.023438,19.525391 c -0.09642,0.0066 -0.190834,0.03835 -0.285157,0.07227 -0.317873,0.675456 -0.456309,1.432382 -0.36914,2.28711 0.10213,-0.878592 0.462933,-1.642195 1.021484,-2.314454 -0.124406,-0.03859 -0.246387,-0.0532 -0.367187,-0.04492 z m -13.087891,0.988281 c -1.123004,1.176033 -1.503498,1.695959 -1.775391,2.138672 -0.184968,0.301176 -0.262023,1.043494 -0.199218,1.771484 0.03519,-0.333405 0.102547,-0.614078 0.199218,-0.771484 0.308703,-0.50265 0.695159,-1.051897 2.228516,-2.615235 -0.169301,-0.181155 -0.305258,-0.350164 -0.453125,-0.523437 z m -1.759766,5.927734 c -2.810222,1.344706 -0.997316,5.098094 -2.455078,6.416016 -0.994427,0.697864 -1.867169,1.491763 -4.363281,0.988281 0.238398,0.412186 0.505212,0.77678 0.783203,1.119141 1.906455,0.201364 2.698433,-0.488706 3.580078,-1.107422 1.562475,-1.41259 -0.637476,-5.624565 3.130859,-6.667969 -0.313057,-0.04907 -0.527502,-0.35159 -0.675781,-0.748047 z m 22.925781,0.361328 c -0.438663,0.198439 -0.842538,0.59041 -1.097656,1.798828 -1.228252,0.384219 -1.045392,1.122077 -1.08789,1.802735 -0.107765,0.183721 -0.143436,0.362484 0.01172,0.617187 0.01239,-0.560088 0.07589,-1.107017 1.076172,-1.419922 0.399866,-1.894051 1.162814,-1.789538 1.857422,-2.0625 -0.275746,-0.249469 -0.519269,-0.493286 -0.759766,-0.736328 z M 50.978516,28.375 c -0.03744,0.07129 -0.07417,0.143231 -0.111328,0.214844 -0.07816,0.985548 0.57032,1.608944 1.552734,2.064453 0.09035,-0.392054 0.172367,-0.719152 0.28125,-0.861328 C 51.860124,29.45407 51.227151,29.010584 50.978516,28.375 Z m -3.816407,9.574219 c -0.133202,0.03568 -0.25407,0.07851 -0.394531,0.109375 0.415348,0.644014 0.591969,1.52797 0.634766,2.544922 0.03966,-1.004036 -0.01576,-1.914281 -0.240235,-2.654297 z m -29.050781,1.339843 c -0.704663,1.28054 -0.707173,2.084273 -0.589844,2.501954 0.09349,-0.493111 0.318435,-1.120894 0.828125,-1.931641 z"/>
</svg>
