<svg xmlns="http://www.w3.org/2000/svg" width="64" height="64" version="1.1">
 <path style="opacity:0.2" d="M 22,6.9999988 V 10 h -4 v 3 h -5 v 3 h -3 v 2 H 7 v 5 H 4 v 16 h 3 v 2 h 3 v 3 h 3 v 4.083333 4.25 V 55 h 2 v 3 h 6.1 V 52 H 25 v 6 h 6.075 V 52 H 36 v 6 h 6 v -6 h 2 v -4 h 3 v -3 h 5 v -3 h 3 v -3 h 3 v -5 h 3 V 20 H 58 V 16 H 55 V 13 H 52 V 10 H 44 V 6.9999988 Z"/>
 <path style="fill:#b2bfd9" d="M 22,5.9999988 V 9 h -4 v 3 h -5 v 3 h -3 v 2 H 7 v 5 H 4 v 16 h 3 v 2 h 3 v 3 h 3 v 4.083333 4.25 V 54 h 2 v 3 h 6.1 V 51 H 25 v 6 h 6.075 V 51 H 36 v 6 h 6 v -6 h 2 v -4 h 3 v -3 h 5 v -3 h 3 v -3 h 3 v -5 h 3 V 19 H 58 V 15 H 55 V 12 H 52 V 9 H 44 V 5.9999988 Z"/>
 <path style="fill:#17191e" d="M 10,21.999999 V 36 h 3 v 3 h 5 v -3 h -3 v -8 h 3 v -3 h -3 v -3.000001 z"/>
 <rect style="fill:#ea01f5" width="3" height="8" x="15" y="28"/>
 <path style="fill:#17191e" d="M 34,21.999999 V 25 h -3 v 14 h 11 v -3 h 3 V 25 h -3 v -3.000001 z"/>
 <rect style="fill:#ea01f5" width="6" height="8" x="34" y="28"/>
 <path style="fill:#17191e" d="m 21,40 v 3 h -3 v 3 h 11 v -3 h -3 v -3 z"/>
 <path style="opacity:0.2;fill:#8b9cbe" d="M 22 6 L 22 7 L 44 7 L 44 6 L 22 6 z M 18 9 L 18 10 L 22 10 L 22 9 L 18 9 z M 44 9 L 44 10 L 52 10 L 52 9 L 44 9 z M 13 12 L 13 13 L 18 13 L 18 12 L 13 12 z M 52 12 L 52 13 L 55 13 L 55 12 L 52 12 z M 10 15 L 10 16 L 13 16 L 13 15 L 10 15 z M 55 15 L 55 16 L 58 16 L 58 15 L 55 15 z M 7 17 L 7 18 L 10 18 L 10 17 L 7 17 z M 58 19 L 58 20 L 61 20 L 61 19 L 58 19 z M 4 22 L 4 23 L 7 23 L 7 22 L 4 22 z"/>
 <path style="opacity:0.2" d="M 10 22 L 10 23 L 15 23 L 15 22 L 10 22 z M 34 22 L 34 23 L 42 23 L 42 22 L 34 22 z M 15 25 L 15 26 L 18 26 L 18 25 L 15 25 z M 31 25 L 31 26 L 34 26 L 34 25 L 31 25 z M 42 25 L 42 26 L 45 26 L 45 25 L 42 25 z M 15 36 L 15 37 L 18 37 L 18 36 L 15 36 z M 21 40 L 21 41 L 26 41 L 26 40 L 21 40 z M 18 43 L 18 44 L 21 44 L 21 43 L 18 43 z M 26 43 L 26 44 L 29 44 L 29 43 L 26 43 z"/>
 <rect style="opacity:0.2" width="6" height="1" x="34" y="36"/>
 <rect style="opacity:0.2;fill:#8b9cbe" width="6" height="1" x="34" y="28"/>
 <rect style="opacity:0.2;fill:#8b9cbe" width="3" height="1" x="15" y="28"/>
</svg>
