<svg xmlns="http://www.w3.org/2000/svg" width="64" height="64" version="1.1">
 <rect style="opacity:0.2" width="56" height="56" x="4" y="5" rx="4.2" ry="4.2"/>
 <rect style="fill:#4d5a98" width="56" height="56" x="4" y="4" rx="4.2" ry="4.2"/>
 <path style="opacity:0.1" d="m 13.109871,50.728396 c -0.259018,-0.485154 -0.04206,-1.861414 0.461803,-2.929418 0.538124,-1.14062 1.688443,-2.286014 3.493923,-3.478962 2.498153,-1.65062 8.215458,-7.075114 12.08358,-11.464722 0.732474,-0.831226 0.854432,-1.053536 0.780692,-1.423124 -0.07902,-0.396064 0.13774,-0.672596 2.26335,-2.887618 1.292906,-1.347286 2.324516,-2.527656 2.292462,-2.623046 -0.03204,-0.09538 -0.226836,-0.15904 -0.43285,-0.14142 -0.20601,0.0176 -1.806704,0.14664 -3.557096,0.28676 -3.16706,0.253516 -3.186878,0.257386 -4.0775,0.795976 -0.492234,0.29767 -1.016188,0.51806 -1.16434,0.489758 -0.478494,-0.0914 -0.3915,-0.644282 0.19032,-1.209576 0.535742,-0.520522 0.5494,-0.563696 0.5494,-1.736942 0,-1.114426 0.03016,-1.226934 0.409048,-1.52569 0.607832,-0.47928 0.921826,-0.405416 1.323716,0.311384 0.37986,0.677514 0.47291,0.695412 1.480028,0.284694 0.407894,-0.16636 0.563732,-0.16594 0.877334,0.0024 0.344858,0.185 0.817164,0.05938 4.937588,-1.313496 2.505938,-0.834942 4.807378,-1.644292 5.11431,-1.798556 0.690744,-0.34717 1.21748,-0.964352 2.313982,-2.711317 0.671592,-1.069994 1.0653,-1.511818 1.844456,-2.069891 0.941872,-0.674618 1.001066,-0.695189 1.203154,-0.41815 0.13736,0.188316 0.212542,0.725579 0.212542,1.51897 v 1.227594 l 0.945452,0.910257 c 1.050102,1.011013 1.046474,0.985797 0.343358,2.387907 -0.257724,0.513944 -0.443252,1.28438 -0.580858,2.412138 l -0.202186,1.657004 0.991722,4.20179 c 0.54545,2.310982 1.169142,4.972116 1.385986,5.913626 0.216844,0.941512 0.459474,1.871182 0.539182,2.065936 l 0.14492,0.354096 0.637566,-0.32605 c 1.110074,-0.567694 1.486116,0.02142 0.568652,0.890856 -0.738894,0.700218 -3.217814,2.538108 -3.806568,2.822216 -0.453334,0.218766 -0.532736,0.219756 -0.742692,0.0092 -0.209956,-0.210466 -0.18472,-0.29918 0.235926,-0.829792 0.259056,-0.326774 0.471012,-0.64295 0.471012,-0.702618 0,-0.18342 -5.065704,-8.745668 -5.617004,-9.494064 -0.428332,-0.581472 -0.617054,-0.711768 -1.087966,-0.75115 -0.775574,-0.06486 -1.40962,0.287218 -3.971918,2.205554 -2.481998,1.858222 -2.602522,1.931388 -3.177474,1.928962 -0.527018,-0.0022 -1.03567,0.383566 -3.427346,2.599488 -4.68073,4.33676 -8.072764,8.053226 -9.187624,10.066374 -1.577802,2.849102 -3.434248,4.25314 -6.236919,4.717014 -0.562588,0.0931 -0.671442,0.06354 -0.825129,-0.224342 z"/>
 <path style="fill:#17191e" d="m 13.109871,49.728332 c -0.259018,-0.485154 -0.04206,-1.861414 0.461803,-2.929418 0.538124,-1.14062 1.688443,-2.286014 3.493923,-3.478962 2.498153,-1.65062 8.215458,-7.075114 12.08358,-11.464722 0.732474,-0.831226 0.854432,-1.053536 0.780692,-1.423124 -0.07902,-0.396064 0.13774,-0.672596 2.26335,-2.887618 1.292906,-1.347286 2.324516,-2.527656 2.292462,-2.623046 -0.03204,-0.09538 -0.226836,-0.15904 -0.43285,-0.14142 -0.20601,0.0176 -1.806704,0.14664 -3.557096,0.28676 -3.16706,0.253516 -3.186878,0.257386 -4.0775,0.795976 -0.492234,0.29767 -1.016188,0.51806 -1.16434,0.489758 -0.478494,-0.0914 -0.3915,-0.644282 0.19032,-1.209576 0.535742,-0.520522 0.5494,-0.563696 0.5494,-1.736942 0,-1.114426 0.03016,-1.226934 0.409048,-1.52569 0.607832,-0.47928 0.921826,-0.405416 1.323716,0.311384 0.37986,0.677514 0.47291,0.695412 1.480028,0.284694 0.407894,-0.16636 0.563732,-0.16594 0.877334,0.0024 0.344858,0.185 0.817164,0.05938 4.937588,-1.313496 2.505938,-0.834942 4.807378,-1.644292 5.11431,-1.798556 0.690744,-0.34717 1.21748,-0.964352 2.313982,-2.711317 0.671592,-1.069994 1.0653,-1.511818 1.844456,-2.069891 0.941872,-0.674618 1.001066,-0.695189 1.203154,-0.41815 0.13736,0.188316 0.212542,0.725579 0.212542,1.51897 v 1.227594 l 0.945452,0.910257 c 1.050102,1.011013 1.046474,0.985797 0.343358,2.387907 -0.257724,0.513944 -0.443252,1.28438 -0.580858,2.412138 l -0.202186,1.657004 0.991722,4.20179 c 0.54545,2.310982 1.169142,4.972116 1.385986,5.913626 0.216844,0.941512 0.459474,1.871182 0.539182,2.065936 l 0.14492,0.354096 0.637566,-0.32605 c 1.110074,-0.567694 1.486116,0.02142 0.568652,0.890856 -0.738894,0.700218 -3.217814,2.538108 -3.806568,2.822216 -0.453334,0.218766 -0.532736,0.219756 -0.742692,0.0092 -0.209956,-0.210466 -0.18472,-0.29918 0.235926,-0.829792 0.259056,-0.326774 0.471012,-0.64295 0.471012,-0.702618 0,-0.18342 -5.065704,-8.745668 -5.617004,-9.494064 -0.428332,-0.581472 -0.617054,-0.711768 -1.087966,-0.75115 -0.775574,-0.06486 -1.40962,0.287218 -3.971918,2.205554 -2.481998,1.858222 -2.602522,1.931388 -3.177474,1.928962 -0.527018,-0.0022 -1.03567,0.383566 -3.427346,2.599488 -4.68073,4.33676 -8.072764,8.053226 -9.187624,10.066374 -1.577802,2.849102 -3.434248,4.25314 -6.236919,4.717014 -0.562588,0.0931 -0.671442,0.06354 -0.825129,-0.224342 z"/>
 <path style="fill:#f44336" d="m 29.925427,30.402432 c 0.0016,0.0098 0.0026,0.0198 0.0046,0.02978 0.07374,0.369586 -0.0483,0.591864 -0.780774,1.42309 -1.808818,2.052676 -4.020484,4.328034 -6.11976,6.341588 0.443714,0.496534 1.014214,1.131304 1.52274,1.677188 1.370812,-1.433204 2.990406,-3.021308 4.80745,-4.704824 1.803702,-1.671156 2.536026,-2.30086 3.013336,-2.508794 -0.807224,-0.79194 -1.721778,-1.615322 -2.44754,-2.258034 z"/>
 <path style="fill:#f44336" d="m 46.282589,24.5654 c -1.15478,0.909144 -2.391698,2.163758 -3.239536,3.013654 l 0.479382,1.129472 c 0.58303,1.373422 0.588054,1.511584 0.07248,2.051046 l -0.407218,0.426136 0.570042,1.021876 c 0.313552,0.562046 0.638954,1.021876 0.723164,1.021876 0.08422,0 0.32882,-0.11542 0.543662,-0.256532 0.467578,-0.30711 0.525268,-0.258188 1.125226,0.954094 l 0.460884,0.930996 -0.303516,0.596348 c -0.298204,0.585946 -0.298372,0.605268 -0.0106,1.092088 0.255628,0.432468 0.365218,0.489906 0.86143,0.45015 0.516082,-0.04134 0.593062,0.0054 0.831108,0.50577 0.29354,0.617056 0.536768,0.68532 0.953304,0.267778 0.20592,-0.20642 0.375058,-0.30285 0.234382,-1.199384 l -0.04426,-0.1082 c -0.0797,-0.19476 -0.322272,-1.124428 -0.539116,-2.065938 -0.216842,-0.941512 -0.840538,-3.602644 -1.385986,-5.913628 z"/>
 <path style="fill:#f44336" d="m 38.733783,19.891883 c -0.964444,0.342955 -2.280374,0.796061 -3.71255,1.273241 -3.155432,1.051344 -4.169348,1.369928 -4.627038,1.379016 l -1.469674,0.476288 -2.169494,1.423392 1.086716,-0.12128 -0.304124,0.436778 1.458156,-0.07022 0.640994,-0.674768 c 0.57498,-0.11452 0.923472,-0.15496 1.458154,-0.19878 0.19368,-0.0158 -0.596918,0.753618 -0.4057,0.744978 0.536132,-0.02422 1.1062,-0.05616 1.694962,-0.09088 0.312752,-0.0184 1.082794,-1.024146 1.392662,-1.110324 0.49162,-0.13672 0.998384,-0.12924 1.512124,-0.04772 1.160524,-0.338362 3.302058,-3.226034 3.444812,-3.419727 z"/>
 <path style="opacity:0.1;fill:#8b9cbe" d="M 8.1992188 4 C 5.8724187 4 4 5.8724187 4 8.1992188 L 4 9.1992188 C 4 6.8724188 5.8724187 5 8.1992188 5 L 55.800781 5 C 58.127581 5 60 6.8724188 60 9.1992188 L 60 8.1992188 C 60 5.8724187 58.127581 4 55.800781 4 L 8.1992188 4 z"/>
</svg>
