<svg xmlns="http://www.w3.org/2000/svg" width="64" height="64" version="1">
 <path style="opacity:.2" d="m57.938 26.124c-0.678 13.136-15.39 32.876-28.286 32.876-12.307 0-22.963-17.976-23.613-31.796-0.3746 14.014 10.7 33.796 23.613 33.796 13.202 0 28.348-20.708 28.348-33.816 0-0.362-0.044-0.70401-0.062-1.058z"/>
 <path style="fill:#343054" d="m58 26.183c0 13.11-15.146 33.816-28.348 33.816s-24.512-20.692-23.6-34.742c0.6178-9.546 12.192-21.48 18.944-21.254 2.266 0.2259-1.811 2.5526 0.907 1.7947 2.06-0.5745 4.232-0.8817 6.477-0.8817 13.202 0 25.62 8.1585 25.62 21.268z"/>
 <path style="fill:#2e2e37" d="m52.07 27.964c0 9.8877-2.688 22.318-12.588 28.706-3.224 2.08-6.5861 3.33-9.8301 3.33-2.656 0-5.2361-0.83801-7.6541-2.29-9.6039-5.7681-9.9547-20.986-9.2271-32.21 2.1236-11.462 7.6671-10.813 14.079-12.666 2.06-0.57441 7.7121-0.71981 9.9561-0.71981 13.202 0 15.265 2.7398 15.265 15.849z"/>
 <path style="fill:#dabc9c" d="m46.18 36.758c0 5.1531-4.6279 9.7991-7.0853 14.308-2.947 5.4067-2.2902 6.5541-8.2531 6.5541-10.935 0-14.547-10.113-14.547-21.446 0-5.9073 0.2871-13.186 4.1419-16.93 3.5404-3.4388 9.5133-4.3103 14.748-4.3103 5.8025 0 8.6545 4.2969 10.354 6.9775 1.5028 2.3712 0.64115 9.5271 0.64115 14.846z"/>
 <g style="fill:#405168" transform="matrix(1.3684 0 0 1.4 -.84277 -1.6004)">
  <path d="m27.705 11.136a3.8893 8.4884 68.075 0 1 -6.4042 6.7784 3.8893 8.4884 68.075 0 1 -9.339 -0.42544 3.8893 8.4884 68.075 0 1 6.4042 -6.7784 3.8893 8.4884 68.075 0 1 9.339 0.42544z"/>
  <path d="m27.712 11.794c1.5661-1.4759 5.7867-2.4001 9.0122 0.98998s2.4864 12.487 0.92026 13.963c-1.5661 1.4759-1.2146-6.5667-4.4401-9.9568s-7.0585-3.5206-5.4923-4.9965z"/>
  <path d="m12.744 16.563c2.0494 1.0756 2.3563 4.6803 0.68541 8.0514-1.6708 3.3711 0.42329 8.8454-1.6261 7.7698-2.0494-1.075-4.3252-6.833-2.6543-10.204 1.6713-3.371 1.5453-6.692 3.5953-5.617z"/>
 </g>
 <path style="opacity:.1;fill:#8b9cbe" d="m35.176 14.169c0.82143 1.7633-1.6068 3.568-6.5019 5.6993-4.4803 1.947-9.2925 2.7056-11.666 1.8391 0.06681 0.15084 0.16099 0.29116 0.28194 0.42013 1.6062 1.6527 7.2739 1.0937 12.658-1.2483 5.3825-2.341 8.4439-5.5777 6.8391-7.2301-0.23862-0.24036-1.1913 0.67063-1.6118 0.51977z"/>
 <path style="opacity:.1;fill:#8b9cbe" d="m50.074 33.146c1.22-0.42401 0.332-3.6041-1.046-6.6841-0.77201-1.724-1.91-3.6721-3.27-5.1881-1.134-1.264-2.55-2.2564-3.9841-3.1504-1.488-0.92841-2.838-1.5998-4.7361-2.2648 0.1595-0.05875 1.1769-1.1342 1.3735-1.1422 1.8583-0.04715-1.8643-1.5473 0.51711 0.77497 0.91525 0.89249 6.5033 2.937 8.7017 5.6341 1.8719 2.2962 2.5508 5.4231 3.2822 8.3181 0.32504 1.2867 2.2808 3.9109 0.47483 3.9571-0.37888 0.0062-0.81977-0.07926-1.313-0.25448z"/>
 <path style="stroke-linejoin:round;stroke:#33374a;stroke-width:.96801;stroke-linecap:round;fill:#7f90bc" d="m56.062 23.575c0.79461 5.2139-1.2499 12.627-3.7461 17.251-3.7073 6.8669-8.3955 11.275-13.486 15.752 0 0 7.2669-13.002 9.4433-20.086 1.0457-3.4042 2.0792-7.0215 1.6724-10.564-0.306-2.658-1.168-4.8021-3.118-6.5945-1.63-1.4994-4.0441-2.3966-6.2141-2.7452-2.358-0.3786-4.7881-0.44401-7.1581-0.164-3.5918 0.42433-7.3853 0.90213-10.501 2.7702-1.6918 1.0143-3.2662 2.5174-4.0579 4.3469-1.9901 4.5991-1.8214 10.079-1.0354 15.04 1.0229 6.4571 7.0203 19.898 7.0203 19.898l-0.33942-0.13988s-3.4204-1.6115-6.1615-4.3857c-2.679-2.707-4.662-6.549-6.033-9.119-2.7784-5.208-3.2044-10.892-2.219-16.732 0.616-5.626 3.016-10.276 6.821-13.335 7.567-5.4378 16.493-6.709 24.792-4.8074 7.289 1.4834 13.117 6.4724 14.318 13.617z"/>
 <rect style="fill:#302100" width="8.044" height="1.5" x="20.94" y="39.18" rx=".992" ry="1.012" transform="matrix(.90028 -.43531 .41651 .90913 0 0)"/>
 <rect style="fill:#302100" width="7.158" height="1.44" x="27.72" y="18.02" rx=".884" ry=".972" transform="matrix(.93556 .35317 -.34569 .93835 0 0)"/>
 <ellipse style="fill:#302100" cx="23.256" cy="33.558" rx="1.868" ry="4.834"/>
 <ellipse style="fill:#302100" cx="36.388" cy="32.844" rx="1.984" ry="5.088" transform="matrix(.99995 -.0097611 .065733 .99784 0 0)"/>
 <path style="fill:#302100" d="m34.534 38.132c0.79661 0.96709 2.9208 1.4728 3.3916 2.8828 0.41737 1.2504-0.08892 2.7962-0.86607 3.8595-0.44921 0.61453-1.2115 1.1059-1.9696 1.1486-1.1518 0.06488-2.8266-0.29196-3.1682-1.3981-0.09082-0.294 0.1912-0.69633 0.48491-0.78471 0.72369-0.21778 1.3292 1.1573 2.0572 0.95483 1.2936-0.35974 2.48-2.0126 2.2646-3.3428-0.20054-1.2387-2.4182-1.1624-2.9824-2.2822-0.42837-0.85023-0.98107-2.6808-0.0485-2.858 0.2379 0.52625 0.48349 1.3783 0.83661 1.8201z"/>
 <rect style="fill:#302100" width="10.504" height="1.226" x="42.44" y="49.3" rx="1.296" ry=".828" transform="matrix(.99425 .10712 -.33376 .94266 0 0)"/>
 <path style="opacity:.1;fill:#8b9cbe" d="m24.996 4.0039c-6.751-0.226-18.327 11.707-18.945 21.254-0.0437 0.669-0.0502 1.358-0.0393 2.054 0.0078-0.354 0.0166-0.708 0.0391-1.054 0.6184-9.547 12.194-21.48 18.945-21.254 0.176 0.0174 0.303 0.0493 0.408 0.0898 0.346-0.4756 0.6-0.9894-0.408-1.0899zm7.383 0.9121c-2.245 0-4.417 0.3064-6.477 0.8809-0.159 0.0443-0.224 0.046-0.34 0.0703-0.401 0.6706-1.36 1.4038 0.34 0.9297 2.06-0.5745 4.232-0.8809 6.477-0.8809 13.021 0 25.273 7.941 25.605 20.738 0.005-0.156 0.016-0.316 0.016-0.47 0-13.11-12.42-21.268-25.621-21.268z"/>
</svg>
