<svg width="64" height="64" version="1.1" xmlns="http://www.w3.org/2000/svg">
 <path d="m13 12h17l5 8 7-8h18l-18 21 12 21h-19l-5-8-6 8h-20l19-22z" style="opacity:.2"/>
 <path d="m13 11h17l5 8 7-8h18l-18 21 12 21h-19l-5-8-6 8h-20l19-22z" style="fill:#a64599"/>
 <path d="m13 11 0.5 1h16.5l5 8 7-8h17.142578l0.857422-1h-18l-7 8-5-8h-17zm9.683594 20.367188-18.683594 21.632812h0.8632812l18.136719-21-0.316406-0.632812zm19.660156 1.232421-0.34375 0.400391 11.427734 20h0.572266l-11.65625-20.400391z" style="fill:#8b9cbe;opacity:.1"/>
 <circle cx="47" cy="48" r="15" style="opacity:.2"/>
 <circle cx="47" cy="47" r="15" style="fill:#465096"/>
 <path d="m47 40s-0.944996-0.01925-1.929688 0.498047c-0.948298 0.49778-1.980944 1.743627-2.05664 3.501953h2.677734c0.128926-1.185116 1.308594-1.199219 1.308594-1.199219s1.333984-0.0016 1.333984 1.398438c0 0.738913-0.187436 1.152522-0.542968 1.61914-0.355534 0.466757-0.923177 0.935943-1.589844 1.460938-0.666665 0.524997-1.431707 1.105299-2.076172 1.951172-0.644467 0.845735-1.125 2.00807-1.125 3.36914v1.400391h8v-3h-4.865234c0.04173-0.0616 0.02622 0.04347 0.07422-0.01953 0.355533-0.466757 0.923178-0.933988 1.589844-1.458985 0.666663-0.524998 1.431704-1.107252 2.07617-1.953126 0.644465-0.845735 1.125-2.00807 1.125-3.36914 0-1.866608-1.085634-3.184295-2.070312-3.701172-0.984704-0.517016-1.929688-0.498047-1.929688-0.498047z" style="fill-rule:evenodd;fill:#8b9cbe"/>
</svg>
