<svg xmlns="http://www.w3.org/2000/svg" width="64" height="64" version="1.1">
 <path style="fill:#61d9e8" d="M 8.2,4 H 55.8 C 58.1268,4 60,5.8732 60,8.2 V 48.8 C 60,51.1268 58.1268,53 55.8,53 H 8.2 C 5.8732,53 4,51.1268 4,48.8 V 8.2 C 4,5.8732 5.8732,4 8.2,4 Z"/>
 <path style="opacity:0.1" d="m 34,19 a 5,5 0 0 0 -5,5 5,5 0 0 0 5,5 5,5 0 0 0 5,-5 5,5 0 0 0 -5,-5 z m 24.345703,5.494141 c -0.409194,0 -5.432846,1.908485 -11.164062,4.242187 -20.036701,8.158766 -23.266877,9.4688 -30.701172,12.441406 -4.118616,1.646834 -8.5919851,3.386131 -9.9843752,3.6875 L 4,45.40625 V 56.800781 C 4,59.127581 5.8724187,61 8.1992188,61 H 55.800781 C 58.127581,61 60,59.127581 60,56.800781 V 45.474609 l -1.394531,0.910157 c -2.480084,2.599016 -2.534712,2.624914 -8.738281,3.80664 -2.085856,0.397334 -2.190349,0.386689 -2.289063,-0.189453 -0.05685,-0.331814 2.592402,-5.994969 5.884766,-12.587891 3.368301,-6.745004 5.907174,-12.191142 5.80664,-12.453124 -0.09827,-0.256074 -0.514635,-0.466797 -0.923828,-0.466797 z M 23,27 a 5,5 0 0 0 -5,5 5,5 0 0 0 5,5 5,5 0 0 0 5,-5 5,5 0 0 0 -5,-5 z m 26.007812,4.666016 c 0.214512,0.0027 0.390626,0.16852 0.390626,0.36914 0,0.457226 -5.682072,10.902814 -8.203126,15.080078 -1.03569,1.716092 -2.050875,3.306383 -2.257812,3.535157 -0.304924,0.33712 -1.14905,-0.372577 -4.447266,-3.744141 -4.693457,-4.797814 -5.489138,-5.743412 -5.28125,-6.285156 0.153521,-0.400078 19.087422,-8.963478 19.798828,-8.955078 z M 25.429688,42.076172 c 0.503333,0.02953 1.144527,0.637868 2.839843,2.599609 4.266933,4.937506 5.227158,6.152078 5.117188,6.482422 -0.124936,0.375368 -0.936622,0.590723 -1.207031,0.320313 -0.100618,-0.100604 -1.989527,-0.252491 -4.197266,-0.337891 -3.484616,-0.13489 -5.50305,-0.353014 -11.806641,-1.271484 -0.682795,-0.09948 -1.526187,-0.357044 -1.873047,-0.572266 -0.346856,-0.215222 -1.039264,-0.487036 -1.539062,-0.603516 -0.893134,-0.208152 -0.89897,-0.221601 -0.3125,-0.796875 0.562275,-0.551558 11.312733,-5.4376 12.767578,-5.802734 0.0688,-0.01728 0.139032,-0.02179 0.210938,-0.01758 z"/>
 <circle style="fill:#3b3b3b" cx="23" cy="31" r="5"/>
 <circle style="fill:#3b3b3b" cx="34" cy="23" r="5"/>
 <path style="fill:#3b3b3b" d="m 58.345703,23.493359 c -0.409194,0 -5.433237,1.910048 -11.164453,4.24375 C 27.144549,35.895875 23.913982,37.20591 16.479687,40.178516 12.361071,41.82535 7.8888745,43.563084 6.4964843,43.864453 L 4,44.405859 V 55.8 C 4,58.1268 5.8732,60 8.2,60 H 55.8 C 58.1268,60 60,58.1268 60,55.8 V 44.474218 l -1.394532,0.910548 c -2.480084,2.599016 -2.535492,2.624524 -8.739061,3.80625 -2.085855,0.397334 -2.189959,0.387469 -2.288673,-0.188673 -0.05685,-0.331814 2.592011,-5.996139 5.884375,-12.589061 3.368301,-6.745004 5.908347,-12.190363 5.807813,-12.452345 -0.09827,-0.256073 -0.515026,-0.467578 -0.924219,-0.467578 z m -9.33789,7.172266 c 0.214512,0.0027 0.391015,0.168521 0.391015,0.369141 0,0.457226 -5.682071,10.902813 -8.203125,15.080077 -1.03569,1.716092 -2.051657,3.306774 -2.258594,3.535548 -0.304924,0.33712 -1.147877,-0.371795 -4.446093,-3.743359 -4.693457,-4.797814 -5.490701,-5.744585 -5.282813,-6.286329 0.153521,-0.400078 19.088203,-8.963478 19.79961,-8.955078 z M 25.429297,41.075391 c 0.503334,0.02953 1.1457,0.63865 2.841016,2.600391 4.266933,4.937506 5.225985,6.152858 5.116015,6.483202 -0.124936,0.375368 -0.935451,0.590333 -1.20586,0.319923 -0.100618,-0.100604 -1.989526,-0.253664 -4.197265,-0.339064 -3.484616,-0.13489 -5.50344,-0.353014 -11.807031,-1.271484 -0.682795,-0.09948 -1.526187,-0.356262 -1.873047,-0.571484 -0.346856,-0.215222 -1.039655,-0.487817 -1.539453,-0.604297 -0.893134,-0.208152 -0.898189,-0.220429 -0.311719,-0.795703 0.562275,-0.551558 11.311952,-5.437209 12.766797,-5.802343 0.0688,-0.01728 0.138642,-0.02335 0.210547,-0.01914 z"/>
 <path style="opacity:0.2" d="m 51,8 v 3.632812 l -3.146484,-1.8164058 -0.5,0.8671878 L 50.5,12.5 l -3.146484,1.816406 0.5,0.867188 L 51,13.367188 V 17 h 1 v -3.632812 l 3.146484,1.816406 0.5,-0.867188 L 52.5,12.5 l 3.146484,-1.816406 -0.5,-0.8671878 L 52,11.632812 V 8 Z"/>
 <path style="fill:#8b9cbe" d="M 51 7 L 51 10.632812 L 47.853516 8.8164062 L 47.353516 9.6835938 L 50.5 11.5 L 47.353516 13.316406 L 47.853516 14.183594 L 51 12.367188 L 51 16 L 52 16 L 52 12.367188 L 55.146484 14.183594 L 55.646484 13.316406 L 52.5 11.5 L 55.646484 9.6835938 L 55.146484 8.8164062 L 52 10.632812 L 52 7 L 51 7 z"/>
 <path style="fill:#8b9cbe;opacity:0.2" d="M 8.1992188 4 C 5.8724187 4 4 5.8724188 4 8.1992188 L 4 9.1992188 C 4 6.8724188 5.8724187 5 8.1992188 5 L 55.800781 5 C 58.127581 5 60 6.8724187 60 9.1992188 L 60 8.1992188 C 60 5.8724187 58.127581 4 55.800781 4 L 8.1992188 4 z"/>
</svg>
