<svg width="64" height="64" version="1.1" xmlns="http://www.w3.org/2000/svg">
 <rect x="4" y="5" width="56" height="56" rx="2.8" ry="2.7999992" style="opacity:.2"/>
 <rect x="4" y="4" width="56" height="56" rx="2.8" ry="2.7999992" style="fill:#284b45"/>
 <path d="M 4 46 L 4 57.199219 C 4 58.750418 5.2495813 60 6.8007812 60 L 57.199219 60 C 58.750419 60 60 58.750418 60 57.199219 L 60 46 L 4 46 z " style="fill:#4f4f4f"/>
 <path d="m4 46v1h56v-1h-56z" style="fill:#8b9cbe;opacity:.1"/>
 <rect x="27" y="26" width="10" height="21" style="opacity:.2"/>
 <rect x="27" y="25" width="10" height="21" style="fill:#db5637"/>
 <path d="m32 22 5-5h-10z" style="opacity:.2"/>
 <path d="m32 21 5-5h-10z" style="fill:#8b9cbe"/>
 <path d="m27 25v1h10v-1h-10z" style="fill:#8b9cbe;opacity:.2"/>
 <path d="M 6.8007812 4 C 5.2495813 4 4 5.2495817 4 6.8007812 L 4 7.8007812 C 4 6.2495817 5.2495813 5 6.8007812 5 L 57.199219 5 C 58.750419 5 60 6.2495817 60 7.8007812 L 60 6.8007812 C 60 5.2495817 58.750419 4 57.199219 4 L 6.8007812 4 z " style="fill:#8b9cbe;opacity:.1"/>
</svg>
