<svg width="64" height="64" version="1" xmlns="http://www.w3.org/2000/svg">
 <path d="m32.000031 4.9994421c-2.614397 0.037368-4.480469 1.6117939-5.355474 4.2187549l0.03516-0.117189-4.10938 11.898451h-13.851577c-0.030202-4.84e-4 -0.059642-4.84e-4 -0.089844 0-1.654255 0.05362-3.1443889 1.02522-4.1953168 2.304691-2.2728444 2.608995-1.7924197 7.31597 1.0937511 9.261728l10.890636 7.95704-4.226567 13.132826c-0.0047 0.0146-0.0073 0.02836-0.01172 0.04296-0.645811 2.12152-0.03851 4.305614 1.585939 5.800788 0.01174 0.011 0.02314 0.02438 0.03516 0.03516 1.952084 1.735374 4.697848 1.95593 6.90235 0.519532 0.04194-0.02714 0.08068-0.05664 0.1211-0.08594l11.175786-7.968752 11.175793 7.968758c0.04042 0.02932 0.07916 0.05882 0.1211 0.08594 2.204503 1.436398 4.950264 1.215842 6.90235-0.519532 0.012-0.0108 0.02334-0.02412 0.03516-0.03516 1.624451-1.495174 2.231748-3.679268 1.585937-5.800788-0.0044-0.0146-7e-3 -0.02842-0.0118-0.04296l-4.22657-13.132826 10.890635-7.95704c2.886171-1.945758 3.366596-6.652733 1.093752-9.261728-1.050928-1.279471-2.541061-2.25107-4.195317-2.304691-0.0302-4.84e-4 -0.05964-4.84e-4 -0.08984 0h-13.851576l-4.109381-11.89845 0.03516 0.117188c-0.874939-2.606967-2.741011-4.1813929-5.355407-4.2187609z" style="opacity:.2"/>
 <path d="m32 4c-2.614397 0.037368-4.478511 1.6117895-5.353516 4.21875l0.03125-0.1171875-4.107422 11.898438h-13.851562c-0.030202-4.84e-4 -0.0596417-4.84e-4 -0.0898438 0-1.654255 0.05362-3.1463377 1.025216-4.1972656 2.304688-2.2728444 2.608994-1.7904677 7.314006 1.0957032 9.259765l10.890625 7.960938-4.226563 13.130859c-0.00474 0.01454-0.009272 0.028369-0.013672 0.042969-0.64581 2.12152-0.038516 4.30756 1.585938 5.802734 0.01181 0.01104 0.027042 0.022403 0.039062 0.033203 1.952084 1.735374 4.693936 1.95593 6.898438 0.519532 0.04194-0.027141 0.08458-0.056638 0.125-0.085938l11.173828-7.96875 11.173828 7.96875c0.04042 0.02932 0.08306 0.058817 0.125 0.085938 2.204505 1.436397 4.946352 1.215842 6.898438-0.519532 0.012-0.0108 0.027242-0.022163 0.039062-0.033203 1.624453-1.495174 2.231749-3.681214 1.585938-5.802734-0.0044-0.0146-0.008872-0.028429-0.013672-0.042969l-4.226563-13.130859 10.890625-7.960938c2.886171-1.945759 3.368547-6.65077 1.095703-9.259765-1.050928-1.279472-2.543009-2.251068-4.197265-2.304688-0.0302-4.84e-4 -0.059644-4.84e-4 -0.089844 0h-13.851562l-4.107422-11.898438 0.03125 0.1171875c-0.875005-2.6069605-2.73912-4.181382-5.353516-4.21875z" style="fill:#c5b441"/>
 <path d="m32 4v28l9.429688-12-4.107422-11.898438 0.03125 0.1171875c-0.875005-2.6069605-2.73912-4.181382-5.353516-4.21875zm0 28 17.066406 27.306641c0.395264-0.213498 0.779115-0.45879 1.13086-0.771485 0.012-0.0108 0.027242-0.022163 0.039062-0.033203 1.624453-1.495174 2.231749-3.681214 1.585938-5.802734-0.0044-0.0146-0.008902-0.028429-0.013672-0.042969l-4.226563-13.130859 10.890625-7.960938c1.401274-0.944691 2.23119-2.540608 2.458985-4.230469l-28.931641 4.666016zm0 0-17.673828 26.931641c1.899853 1.34937 4.358876 1.436702 6.375 0.123047 0.04194-0.027141 0.08458-0.056638 0.125-0.085938l11.173828-7.96875v-19zm0 0-28.607422-7.892578c-0.9349886 2.5991-0.1673815 5.905001 2.1347657 7.457031l10.890625 7.960938 15.582031-7.525391z" style="opacity:.2"/>
 <path d="m32 4c-2.614397 0.037368-4.480464 1.611789-5.355469 4.21875l0.035157-0.1171875-4.109376 11.898438h-13.851562c-0.030202-4.84e-4 -0.0596418-4.84e-4 -0.0898438 0-1.654255 0.05362-3.1443846 1.025216-4.1953124 2.304688-1.0626676 1.219834-1.5157131 2.896673-1.4101563 4.537109 0.1004444-1.3031 0.5634059-2.565126 1.4101563-3.537109 1.0509278-1.279472 2.5410574-2.251068 4.1953124-2.304688 0.030202-4.84e-4 0.0596418-4.84e-4 0.0898438 0h13.851562l4.109376-11.898438-0.035157 0.1171875c0.875005-2.606961 2.741072-4.181382 5.355469-4.21875 2.614396 0.037368 4.48053 1.611783 5.355469 4.21875l-0.035157-0.1171875 4.109376 11.898438h13.851562c0.0302-4.84e-4 0.059644-4.84e-4 0.089844 0 1.654256 0.053621 3.144384 1.025216 4.195312 2.304688 0.84675 0.971983 1.309712 2.234009 1.410156 3.537109 0.105557-1.640436-0.347488-3.317275-1.410156-4.537109-1.050928-1.279472-2.541056-2.251067-4.195312-2.304688-0.0302-4.84e-4 -0.059644-4.84e-4 -0.089844 0h-13.851562l-4.109376-11.898438 0.035157 0.1171875c-0.874939-2.606967-2.741073-4.181382-5.355469-4.21875zm-15.841797 36.333984-3.966797 12.322266c-0.0047 0.0146-0.007299 0.028369-0.011718 0.042969-0.225064 0.739345-0.290036 1.484293-0.220704 2.207031 0.033942-0.401754 0.098215-0.804652 0.220704-1.207031 0.004419-0.0146 0.007018-0.028369 0.011718-0.042969l4.226563-13.132812-0.259766-0.189454zm31.683594 0-0.259766 0.189454 4.226563 13.132812c0.0048 0.01454 0.007319 0.028369 0.011718 0.042969 0.122489 0.402379 0.186762 0.805277 0.220704 1.207031 0.069331-0.722738 0.00436-1.467686-0.220704-2.207031-0.004399-0.0146-0.006918-0.028429-0.011718-0.042969l-3.966797-12.322266z" style="fill:#8b9cbe;opacity:.2"/>
 <circle cx="47" cy="48" r="15" style="opacity:.2"/>
 <circle cx="47" cy="47" r="15" style="fill:#ca6734"/>
 <path d="m47 40s-0.944996-0.01925-1.929688 0.498047c-0.948298 0.49778-1.980944 1.743627-2.05664 3.501953h2.677734c0.128926-1.185116 1.308594-1.199219 1.308594-1.199219s1.333984-0.0016 1.333984 1.398438c0 0.738913-0.187436 1.152522-0.542968 1.61914-0.355534 0.466757-0.923177 0.935943-1.589844 1.460938-0.666665 0.524997-1.431707 1.105299-2.076172 1.951172-0.644467 0.845735-1.125 2.00807-1.125 3.36914v1.400391h8v-3h-4.865234c0.04173-0.0616 0.02622 0.04347 0.07422-0.01953 0.355533-0.466757 0.923178-0.933988 1.589844-1.458985 0.666663-0.524998 1.431704-1.107252 2.07617-1.953126 0.644465-0.845735 1.125-2.00807 1.125-3.36914 0-1.866608-1.085634-3.184295-2.070312-3.701172-0.984704-0.517016-1.929688-0.498047-1.929688-0.498047z" style="fill-rule:evenodd;fill:#8b9cbe"/>
</svg>
