<svg xmlns="http://www.w3.org/2000/svg" height="64" width="64" version="1.1">
 <path style="opacity:.2" d="m10 5-6 4 6 4 1-1v-1h42v1l1 1 6-4-6-4-1 1v1h-42v-1z"/>
 <path style="fill:#4f4f4f" d="m10 4l-6 4 6 4 1-1v-1h42v1l1 1 6-4-6-4-1 1v1h-42v-1l-1-1z"/>
 <path style="opacity:.1;fill:#8b9cbe" d="m10 4l-6 4 0.75 0.5 5.25-3.5 1 1v-1l-1-1zm1 2v1h42v-1h-42zm42 0l1-1 5.25 3.5 0.75-0.5-6-4-1 1v1z"/>
 <path style="opacity:.2" d="m12 6h8v6h3v-6h7v6h4v-6h7v6h3v-6h8v41l-20 14-20-14z"/>
 <path style="fill:#df1e3a" d="m12 5h8v6h3v-6h7v6h4v-6h7v6h3v-6h8v41l-20 14-20-14z"/>
 <path style="opacity:.2" d="m23 17v5h18v-5h-3v2h-3v-2h-6v2h-3v-2zm3 7v3h12v-3zm0 5v21h4v-6s0-2 2-2 2 2 2 2v6h4v-21zm5 2h2c0.554 0 1 0.446 1 1v5c0 0.554-0.446 1-1 1h-2c-0.554 0-1-0.446-1-1v-5c0-0.554 0.446-1 1-1z"/>
 <path style="fill:#8b9cbe" d="m23 16v5h18v-5h-3v2h-3v-2h-6v2h-3v-2h-3zm3 7v3h12v-3h-12zm0 5v21h4v-6s0-2 2-2 2 2 2 2v6h4v-21h-12zm5 2h2c0.554 0 1 0.446 1 1v5c0 0.554-0.446 1-1 1h-2c-0.554 0-1-0.446-1-1v-5c0-0.554 0.446-1 1-1z"/>
 <path style="opacity:.2;fill:#8b9cbe" d="m12 5v1h8v-1h-8zm11 0v1h7v-1h-7zm11 0v1h7v-1h-7zm10 0v1h8v-1h-8zm-24 6v1h3v-1h-3zm10 0v1h4v-1h-4zm11 0v1h3v-1h-3z"/>
</svg>
