<svg xmlns="http://www.w3.org/2000/svg" width="64" height="64" version="1.1">
 <path style="opacity:0.2;fill-rule:evenodd" d="m 47.451371,19.666815 c -1.133242,3.11879 -4.01856,5.776252 -4.01856,5.776252 1.648328,0.460346 2.06129,0 2.06129,0 -0.824163,2.045102 -3.914536,4.396573 -3.914536,4.396573 1.545309,0.306897 3.399901,-0.306142 3.399901,-0.306142 -0.412044,2.045102 -5.151863,3.479509 -5.151863,3.479509 1.648339,0.817965 4.842531,0 4.842531,0 -1.133261,1.840554 -7.418461,3.47399 -7.418461,3.47399 1.854381,0.920277 6.695778,0.51171 6.695778,0.51171 -2.369484,2.863144 -4.97119,3.824429 -4.97119,3.824429 0,0 -1.577853,1.650368 -3.947388,-1.212775 0,0 2.703498,-0.481512 4.557835,-1.401676 0,0 -4.681069,-1.146179 -5.81432,-2.98662 0,0 3.191444,0.817965 4.839791,0 0,0 -4.737049,-1.43161 -5.149121,-3.476788 0,0 1.854537,0.61304 3.3999,0.306898 0,0 -3.093091,-2.351471 -3.917276,-4.396573 0,0 0.412921,0.460346 2.061292,0 0,0 -2.882606,-2.657537 -4.015824,-5.776328 -1.133238,3.118791 -4.01856,5.776328 -4.01856,5.776328 1.648318,0.460346 2.061291,0 2.061291,0 -0.824164,2.045102 -3.914538,4.396573 -3.914538,4.396573 1.545311,0.306898 3.399899,-0.306898 3.399899,-0.306898 -0.412043,2.045178 -5.15186,3.476788 -5.15186,3.476788 1.648338,0.817965 4.84253,0 4.84253,0 -1.133269,1.840441 -7.418459,3.476674 -7.418459,3.476674 1.854383,0.920239 6.695774,0.511748 6.695774,0.511748 -2.369483,2.863067 -5.713034,3.457587 -5.713035,3.457587 0,0 -2.073329,0.788032 -4.442863,-2.075112 0,0 2.703492,-0.481511 4.557836,-1.4016 0,0 -4.683799,-1.146179 -5.817058,-2.986771 0,0 3.194182,0.818003 4.842529,0 0,0 -4.73706,-1.43161 -5.149123,-3.476712 0,0 1.85454,0.613039 3.3999,0.306898 0,0 -3.093091,-2.351471 -3.917276,-4.396574 0,0 0.412935,0.460347 2.061292,0 10e-6,0 -2.885353,-2.657536 -4.018561,-5.776327 -1.133248,3.118791 -4.0158225,5.776327 -4.0158225,5.776327 1.6483175,0.460347 2.0612915,0 2.0612915,0 -0.824164,2.045103 -3.9172753,4.396574 -3.9172753,4.396574 1.5453108,0.306897 3.4026363,-0.306898 3.4026363,-0.306898 -0.41205,2.045102 -5.1518599,3.476712 -5.1518599,3.476712 1.6483382,0.818003 4.8397919,0 4.8397919,0 -0.8762354,1.423105 -4.3169267,2.702626 -6.0661646,3.219439 v 0.558614 c 2.1790181,0.510992 5.3462183,0.210898 5.3462183,0.210898 -1.1786826,1.424201 -3.7668555,2.41028 -5.7896835,3.066104 v 12.513562 c 0,2.342135 1.8981399,4.226759 4.2567178,4.226759 h 47.486358 c 2.358577,0 4.256716,-1.884624 4.256716,-4.226759 V 43.541674 c -3.007011,1.508334 -7.287065,2.072315 -7.287065,2.072315 0,0 1.145896,-5.349619 -1.223637,-8.212762 0,0 2.703496,-0.484498 4.557842,-1.404359 0,0 -4.68107,-1.143383 -5.814324,-2.983937 0,0 3.194185,0.817965 4.842531,0 0,0 -4.739795,-1.434406 -5.151858,-3.479509 0,0 1.854538,0.61304 3.399896,0.306142 0,0 -3.090349,-2.351471 -3.914536,-4.396573 0,0 0.410185,0.460346 2.058554,0 0,0 -2.882604,-2.657461 -4.015824,-5.776252 z m 12.548421,17.463042 c -0.977223,0.407433 -1.981905,0.673512 -1.981905,0.673512 0.485163,0.241134 1.301492,0.318236 1.981905,0.336378 v -1.010192 z m 0,2.69382 c -2.068895,0.863547 -4.555098,1.456328 -4.555098,1.456328 0.997758,0.494362 3.027579,0.590362 4.555098,0.585827 v -2.04223 z"/>
 <path style="fill:#0088b5" d="M 59.999886,41.892137 V 9.2279487 c 0,-2.3421732 -1.898781,-4.2277795 -4.257361,-4.2277795 H 8.2575268 c -2.3585771,0 -4.2573596,1.8856063 -4.2573596,4.2277795 V 41.892137 c 0,2.342249 1.8987825,4.22778 4.2573596,4.22778 H 55.742525 c 2.35858,0 4.257361,-1.885531 4.257361,-4.22778 z"/>
 <path style="fill:#003c56;fill-rule:evenodd" d="m 47.451371,18.6666 c -1.133242,3.118791 -4.01856,5.776252 -4.01856,5.776252 1.648328,0.460347 2.06129,0 2.06129,0 -0.824163,2.045103 -3.914536,4.396574 -3.914536,4.396574 1.545309,0.306897 3.399901,-0.306142 3.399901,-0.306142 -0.412044,2.045102 -5.151863,3.479508 -5.151863,3.479508 1.648339,0.817966 4.842531,0 4.842531,0 -1.133261,1.840555 -7.418461,3.473991 -7.418461,3.473991 1.854381,0.920315 6.695778,0.511748 6.695778,0.511748 -2.369484,2.863105 -4.97119,3.82439 -4.97119,3.82439 0,0 -1.577853,1.650369 -3.947388,-1.212774 0,0 2.703498,-0.481512 4.557835,-1.401638 0,0 -4.681069,-1.14618 -5.81432,-2.986658 0,0 3.191444,0.817965 4.839791,0 0,0 -4.737049,-1.43161 -5.149121,-3.476788 0,0 1.854537,0.61304 3.3999,0.306898 0,0 -3.093091,-2.351471 -3.917276,-4.396573 0,0 0.412921,0.460346 2.061292,0 0,0 -2.882606,-2.657537 -4.015824,-5.776328 -1.133238,3.118791 -4.01856,5.776328 -4.01856,5.776328 1.648318,0.460346 2.061291,0 2.061291,0 -0.824164,2.045102 -3.914538,4.396573 -3.914538,4.396573 1.545311,0.306898 3.399899,-0.306898 3.399899,-0.306898 -0.412043,2.045178 -5.15186,3.476788 -5.15186,3.476788 1.648338,0.817965 4.84253,0 4.84253,0 -1.133269,1.840478 -7.418459,3.476711 -7.418459,3.476711 1.854383,0.920202 6.695774,0.511711 6.695774,0.511711 -2.369483,2.863067 -5.713034,3.457587 -5.713035,3.457587 0,0 -2.073329,0.788031 -4.442863,-2.075112 0,0 2.703492,-0.481512 4.557836,-1.4016 0,0 -4.683799,-1.146141 -5.817058,-2.986771 0,0 3.194182,0.818041 4.842529,0 0,0 -4.73706,-1.43161 -5.149123,-3.476712 0,0 1.85454,0.613039 3.3999,0.306897 0,0 -3.093091,-2.35147 -3.917276,-4.396573 0,0 0.412935,0.460347 2.061292,0 10e-6,0 -2.885353,-2.657537 -4.018561,-5.776327 -1.133248,3.11879 -4.0158225,5.776327 -4.0158225,5.776327 1.6483175,0.460347 2.0612915,0 2.0612915,0 -0.824164,2.045103 -3.9172753,4.396573 -3.9172753,4.396573 1.5453108,0.306898 3.4026363,-0.306897 3.4026363,-0.306897 -0.41205,2.045102 -5.1518599,3.476712 -5.1518599,3.476712 1.6483382,0.818041 4.8397919,0 4.8397919,0 -0.8762354,1.423143 -4.3169267,2.702664 -6.0661646,3.219439 v 0.558614 c 2.1790181,0.510992 5.3462183,0.210898 5.3462183,0.210898 -1.1786826,1.424201 -3.7668555,2.41028 -5.7896835,3.066104 v 12.513562 c 0,2.342173 1.8981399,4.226759 4.2567178,4.226759 h 47.486358 c 2.358577,0 4.256716,-1.884586 4.256716,-4.226759 V 42.54146 c -3.007011,1.508334 -7.287065,2.072315 -7.287065,2.072315 0,0 1.145896,-5.349619 -1.223637,-8.212724 0,0 2.703496,-0.484536 4.557842,-1.404397 0,0 -4.68107,-1.143383 -5.814324,-2.983937 0,0 3.194185,0.817965 4.842531,0 0,0 -4.739795,-1.434406 -5.151858,-3.479509 0,0 1.854538,0.61304 3.399896,0.306142 0,0 -3.090349,-2.351471 -3.914536,-4.396573 0,0 0.410185,0.460346 2.058554,0 0,0 -2.882604,-2.657462 -4.015824,-5.776252 z m 12.548421,17.463081 c -0.977223,0.407433 -1.981905,0.673511 -1.981905,0.673511 0.485163,0.241134 1.301492,0.318237 1.981905,0.336378 v -1.010192 z m 0,2.693782 c -2.068895,0.863547 -4.555098,1.456328 -4.555098,1.456328 0.997758,0.494362 3.027579,0.590362 4.555098,0.585826 v -2.042229 z"/>
 <rect style="fill:#625323" width="4" height="10" x="40" y="49"/>
 <path style="opacity:0.2" d="M 59.99986,46.734764 V 27.198843 c 0,-0.884019 -0.05722,-3.198842 -0.05722,-3.198842 0,0 -2.156954,0.0038 -3.005254,0.0038 H 37.062377 c -1.696593,0 -3.062434,1.423321 -3.062434,3.191207 V 46.73108 c 0,1.767735 1.365841,3.191055 3.062434,3.191055 h 19.875011 c 0.8483,0 3.005261,0.07787 3.005261,0.07787 0,0 0.05722,-2.381953 0.05722,-3.265896 z"/>
 <path style="fill:#08c688" d="m 59.99986,45.734758 v -19.53592 c 0,-0.884019 -0.05722,-3.198842 -0.05722,-3.198842 0,0 -2.156954,0.0038 -3.005254,0.0038 H 37.062377 c -1.696593,0 -3.062434,1.423321 -3.062434,3.191208 v 19.536071 c 0,1.767735 1.365841,3.191055 3.062434,3.191055 h 19.875011 c 0.8483,0 3.005261,0.07787 3.005261,0.07787 0,0 0.05722,-2.381952 0.05722,-3.265896 z"/>
 <path style="opacity:0.2" d="M 60,26.999967 H 40.419923 c -1.834858,0 -3.419924,1.223131 -3.419924,2.865109 v 14.269795 c 0,1.641978 1.585066,2.865109 3.419924,2.865109 H 60 m 0,-1.0015 H 40.419923 c -1.401021,0 -2.419925,-0.886639 -2.419925,-1.86376 V 29.864925 c 0,-0.977159 1.018904,-1.863799 2.419925,-1.863799 H 60"/>
 <path style="opacity:0.2;fill:#8b9cbe" d="m 8.2578133,4.9999677 c -2.3585768,0 -4.2578125,1.8843892 -4.2578125,4.2265625 V 10.22653 c 0,-2.3421731 1.8992357,-4.2265623 4.2578125,-4.2265623 H 55.742189 c 2.358576,0 4.257812,1.8843892 4.257812,4.2265623 V 9.2265302 c 0,-2.3421733 -1.899236,-4.2265625 -4.257812,-4.2265625 z"/>
 <path style="fill:#8b9cbe" d="M 60,25.999942 H 40.419923 c -1.834858,0 -3.419924,1.223131 -3.419924,2.865109 v 14.269795 c 0,1.641978 1.585066,2.865108 3.419924,2.865108 H 60 m 0,-1.001499 H 40.419923 c -1.401021,0 -2.419925,-0.886639 -2.419925,-1.86376 V 28.8649 c 0,-0.977159 1.018904,-1.863799 2.419925,-1.863799 H 60"/>
</svg>
