<svg width="64" height="64" version="1.1" xmlns="http://www.w3.org/2000/svg">
 <path d="m23 44s-4 2-4 8c0 3 3 3 3 3h2l1 3s0 3 3 3c4 0 4-3 4-3s0 3 4 3c3 0 3-3 3-3l1-3h2s3 0 3-3c0-6-4-8-4-8h-9z" style="opacity:.2"/>
 <path d="m23 43s-4 2-4 8c0 3 3 3 3 3h2l1 3s0 3 3 3c4 0 4-3 4-3s0 3 4 3c3 0 3-3 3-3l1-3h2s3 0 3-3c0-6-4-8-4-8h-9-9z" style="fill:#faa7b0"/>
 <ellipse cx="32" cy="28" rx="22" ry="20" style="opacity:.2"/>
 <path d="m23 43s-4 2-4 8c0 0.141673 0.012642 0.269829 0.025391 0.398438 0.259872-5.523842 3.974609-7.398438 3.974609-7.398438h9 9s3.714737 1.874596 3.974609 7.398438c0.012749-0.128609 0.025391-0.256765 0.025391-0.398438 0-6-4-8-4-8h-9-9z" style="fill:#8b9cbe;opacity:.2"/>
 <ellipse cx="32" cy="27" rx="22" ry="20" style="fill:#fcd0d5"/>
 <path d="m17 32v9.595703a22 20 0 0 0 6 3.634766v-13.230469h-6zm24 0v13.222656a22 20 0 0 0 6-3.613281v-9.609375h-6z" style="fill:#b2e8fa"/>
 <path d="m20 23a6 6 0 0 0-6 6 6 6 0 0 0 6 6 6 6 0 0 0 6-6 6 6 0 0 0-6-6zm24 0a6 6 0 0 0-6 6 6 6 0 0 0 6 6 6 6 0 0 0 6-6 6 6 0 0 0-6-6z" style="opacity:.2"/>
 <circle cx="20" cy="28" r="6" style="fill:#2f2f2f"/>
 <circle cx="18" cy="26" r="2" style="fill:#8b9cbe"/>
 <circle cx="44" cy="28" r="6" style="fill:#2f2f2f"/>
 <circle cx="42" cy="26" r="2" style="fill:#8b9cbe"/>
 <path d="m27 36h10s0-7-5-7-5 7-5 7z" style="opacity:.2"/>
 <path d="m27 35h10s0-7-5-7-5 7-5 7z" style="fill:#2f2f2f"/>
 <rect x="28" y="33" width="8" height="1" style="fill:#8b9cbe"/>
 <path d="M 32 7 A 22 20 0 0 0 10 27 A 22 20 0 0 0 10.023438 27.585938 A 22 20 0 0 1 32 8 A 22 20 0 0 1 53.976562 27.414062 A 22 20 0 0 0 54 27 A 22 20 0 0 0 32 7 z " style="fill:#8b9cbe;opacity:.2"/>
</svg>
