<svg xmlns="http://www.w3.org/2000/svg" width="64" height="64" version="1.1">
 <g transform="translate(0,-988.3622)">
  <path style="opacity:.2" d="m47.500953 1026.316c1.421764 9.935-5.679306 23.6688-8.032404 22.9792-0.799079 0.9368-15.523669-8.0932-17.237585-17.8542-0.159859-0.9106-4.249256-7.2876-2.375194-5.296 2.664864 2.832-2.754194-5.598-1.547293-8.1928 1.779501-3.8262 11.657353-4.387 16.283254-4.387 4.221787 0 9.171246-1.918 11.291255 0.495 1.77841 2.024 1.002563 7.9554 1.617967 12.2558z"/>
  <path style="fill:#fec786" d="m47.500953 1025.316c1.421764 9.935-5.679306 23.6688-8.032404 22.9792-0.799079 0.9368-15.523669-8.0932-17.237585-17.8542-0.159859-0.9106-4.249256-7.2876-2.375194-5.296 2.664864 2.832-2.754194-5.598-1.547293-8.1928 1.779501-3.8262 11.657353-4.387 16.283254-4.387 4.221787 0 9.171246-1.918 11.291255 0.495 1.77841 2.024 1.002563 7.9554 1.617967 12.2558z"/>
  <path style="fill:#4f4f4f" d="m35.000006 1040.0942c0-0.2772 0.600534-0.6228 2.472318-1.4186 0.861381-0.366 1.157266-0.4008 1.356596-0.16 0.1402 0.168 0.208028 0.365 0.1507 0.4344-0.09714 0.116-3.652058 1.4122-3.87736 1.4122-0.05622 0-0.10224-0.12-0.10224-0.2686z"/>
  <path style="fill:#4f4f4f" d="m35.928771 1036.739c-1.016705-0.4348-1.299918-1.0872-0.336679-0.776 1.546276 0.5002 1.597836 0.417 1.481302-2.3892-0.0728-1.7528 0.003-2.5632 0.223236-2.3882 0.18338 0.148 0.390049 1.549 0.459245 3.118 0.13816 3.132 0.05668 3.2408-1.827104 2.4354z"/>
  <path style="opacity:.2" d="m14.618094 1028.0426c-0.954429-0.6514-1.733896-1.236-1.732149-1.2992 0.0018-0.064 0.496708-0.5186 1.099909-1.012 1.043994-0.854 1.1846-1.6054 1.181901-2.1972-0.0014-0.3194-3.872578-5.6656-6.2890874-8.6856-0.9350527-1.1686-1.7665966-2.3102-1.8478735-2.537-0.091882-0.2564 0.025148-0.6382 0.3094124-1.0094 0.9550418-1.2466 2.5712958-3.2328 3.4632715-4.9406 0.884649-1.694 1.946536-3.0854 2.128958-2.7896 0.264047 0.4278 0.530074 0.16 2.631534-2.6514 2.112333-2.82559 3.842669-5.46578 4.266029-5.46578 0.477641 0 0.279723 0.4752-0.628222 1.50819-1.622093 1.731-2.126697 4.12159-2.12953 5.68479-0.143238 2.9488 2.256227 5.073 4.868292 6.2738 3.343304 0.7882 6.456985 0.4354 7.044104-2.3576 0.488113-2.3222-1.153773-3.7466-3.055057-4.3182-0.464283 0.2116-1.810514 1.6344-2.238987 2.9904-0.14948 0.4734-0.579476 0.2982-0.579476-0.2358 0-1.1116 1.253695-3.9452 1.9187-5.15443 0.932965-1.69656 1.951816-1.77916 2.788235-1.61156 0.466818 0.094 0.821719-0.198 1.245807-0.5344l0.593023-0.4672c2.065846 1.5194 4.380751 2.63516 6.585375 3.91879 2.473425 1.7588 4.855839 2.7518 4.881907 3.0028 0.0154 0.148 0.0054 0.156-0.02246 1.2348-0.04832 1.8714-0.02846 1.9622 0.428557 1.9622 0.928109 0 1.861068-0.519 3.098825-2.0132 2.167431-2.6166 2.447531-2.6406 2.447531-4.8368 0.15656-1.68099-2.059218-5.28198-3.447774-3.93198-0.582118 0.58299-1.257139 2.63575-1.047049 3.18415 0.14172 0.37003 1.031765 0.62463 1.52301 0.43563 0.515352-0.19803 0.432476 0.2108-0.15014 0.7408-0.763501 0.6944-1.596256 0.814-2.208933 0.317-0.757421-0.6142-0.961597-3.05519-0.386574-4.62158 0.546014-1.4874 2.49607-3.0676 2.905431-3.2248 0.46075-0.178 0.978163 0.192 2.821865 2.6148 2.969067 4.46698 6.208727 8.46698 9.105246 12.73398 0.360446 0.5278 0.710635 1.3008 0.778205 1.7178 0.11252 0.6944-0.0228 0.925-1.607916 2.7408-2.610079 2.9902-4.366883 5.4152-4.366883 6.0284 0 0.6608 1.351192 1.1958 2.535293 1.3782 0.858033 0.132 1.423142 0.425 1.423142 0.7376-1.407786 1.9206-6.964794 9.767-7.633491 9.2328-0.06538-0.106-0.1746-1.3678-0.24273-2.8038-0.513017-3.89-0.698471-9.185-1.152115-12.9806-0.13596-0.7404-0.15686-0.7528-1.061027-0.6272-2.217491 0.3086-4.946966 0.4804-7.127534 0.8434-1.7609 0.293-3.30168 1.5228-4.018985 1.1382-0.735133-0.394-4.606859-1.0922-6.905183-1.38-6.783079-0.8494-5.670041-0.7056-5.670041 0.128l1.486042 15.2288s0.712447 3.2304 0.1171 3.2304c-3.235162-1.2338-5.608759-3.5856-8.127496-5.3224z"/>
  <path style="fill:#4f4f4f" d="m14.618094 1027.0426c-0.954429-0.6514-1.733896-1.236-1.732149-1.2992 0.0018-0.064 0.496708-0.5186 1.099909-1.012 1.043994-0.854 1.1846-1.6054 1.181901-2.1972-0.0014-0.3194-3.872578-5.6656-6.2890874-8.6856-0.9350527-1.1686-1.7665966-2.3102-1.8478735-2.537-0.091882-0.2564 0.025148-0.6382 0.3094124-1.0094 0.9550418-1.2466 2.5712958-3.2328 3.4632715-4.9406 0.884649-1.694 1.946536-3.0854 2.128958-2.7896 0.264047 0.4278 0.530074 0.16 2.631534-2.65136 2.112333-2.82559 3.842669-5.46579 4.266029-5.46579 0.477641 0 0.279723 0.4752-0.628222 1.5082-1.622093 1.73099-2.126697 4.12155-2.12953 5.68475-0.143238 2.9488 2.256227 5.073 4.868292 6.2738 3.343304 0.7882 6.456985 0.4354 7.044104-2.3576 0.488113-2.3222-1.153773-3.7466-3.055057-4.3182-0.464283 0.2116-1.810514 1.6344-2.238987 2.9904-0.14948 0.4734-0.579476 0.2982-0.579476-0.2358 0-1.1116 1.253695-3.9452 1.9187-5.15436 0.932965-1.69659 1.951816-1.77919 2.788235-1.61159 0.466818 0.094 0.821719-0.198 1.245807-0.5344l0.593023-0.4672c2.065846 1.51939 4.380751 2.63519 6.585375 3.91875 2.473425 1.7588 4.855839 2.7518 4.881907 3.0028 0.0154 0.148 0.0054 0.156-0.02246 1.2348-0.04832 1.8714-0.02846 1.9622 0.428557 1.9622 0.928109 0 1.861068-0.519 3.098825-2.0132 2.167431-2.6166 2.447531-2.6406 2.447531-4.83676 0.15656-1.681-2.059218-5.28199-3.447774-3.93199-0.582118 0.583-1.257139 2.63579-1.047049 3.18419 0.14172 0.37 1.031765 0.6246 1.52301 0.4356 0.515352-0.198 0.432476 0.2108-0.15014 0.7408-0.763501 0.69436-1.596256 0.81396-2.208933 0.31696-0.757421-0.61416-0.961597-3.05515-0.386574-4.62155 0.546014-1.4874 2.49607-3.0676 2.905431-3.2248 0.46075-0.178 0.978163 0.192 2.821865 2.6148 2.969067 4.46699 6.208727 8.46695 9.105246 12.73395 0.360446 0.5278 0.710635 1.3008 0.778205 1.7178 0.11252 0.6944-0.0228 0.925-1.607916 2.7408-2.610079 2.9902-4.366883 5.4152-4.366883 6.0284 0 0.6608 1.351192 1.1958 2.535293 1.3782 0.858033 0.132 1.423142 0.425 1.423142 0.7376-1.407786 1.9206-6.964794 9.767-7.633491 9.2328-0.06538-0.106-0.1746-1.3678-0.24273-2.8038-0.513017-3.89-0.698471-5.9858-1.152115-9.7814-0.13596-0.7404-0.15686-0.7528-1.061027-0.6272-2.217491 0.3086-4.946966 0.4804-7.127534 0.8434-1.7609 0.293-3.30168 1.5228-4.018985 1.1382-0.735133-0.394-4.606859-1.0922-6.905183-1.38-6.783079-0.8494-5.670041-0.7056-5.670041 0.128l1.486042 12.0296s0.712447 3.2304 0.1171 3.2304c-3.235162-1.2338-5.608759-3.5856-8.127496-5.3224z"/>
  <circle style="fill:#4f4f4f" cx="31" cy="1030.362" r="2"/>
  <path style="fill:#4f4f4f" d="m25.550145 1026.3636c-0.14422 0-0.235006 0.02-0.266204 0.034-0.10904 0.07-0.21697 0.482-0.240854 0.9164l-0.04308 0.7888 2.758405 0.134c1.553197 0.132 3.278977 0.168 4.738475 0.068 0.513109 0 0.571183-0.04 0.448748-0.3016-0.327224-0.6992-0.847042-1.1036-1.467937-1.14-0.339669-0.02-1.82754-0.162-3.30603-0.315-1.269225-0.132-2.188786-0.196-2.621501-0.186z"/>
  <path style="fill:#4f4f4f" d="m37.479872 1024.3622c-0.19584 0-0.315944 0.02-0.344454 0.042-0.10674 0.098-0.16108 0.5746-0.12358 1.0576 0.06196 0.7978 0.11702 0.8748 0.610023 0.8416 1.373633 0.07 2.758971 0.058 4.157094 0.058 1.096499-0.044 2.448465-0.7408 3.221028-1.1174 0-0.112-0.1031-0.2034-0.231387-0.2034-0.12828 0-1.855272-0.184-3.836308-0.4074-1.58756-0.18-2.864883-0.2776-3.452414-0.2706z"/>
  <circle style="fill:#4f4f4f" cx="39" cy="1028.362" r="2"/>
  <path style="opacity:.1;fill:#8b9cbe" transform="translate(0,988.3622)" d="m44.443359 4c-0.061844 0.0021859-0.122093 0.0168125-0.179687 0.0390625-0.409361 0.1572-2.358283 1.7372094-2.904297 3.2246094-0.282553 0.7696932-0.37551 1.749565-0.308594 2.6210937 0.035674-0.5706113 0.131131-1.1376729 0.308594-1.6210937 0.546014-1.4874 2.494936-3.0674094 2.904297-3.2246094 0.46075-0.178 0.978563 0.1904813 2.822266 2.6132813 2.969067 4.4669502 6.208949 8.4673752 9.105468 12.734375 0.298779 0.4375 0.581376 1.032801 0.710938 1.464843 0.111822-0.261127 0.113445-0.467853 0.068359-0.746093-0.06757-0.417-0.418851-1.19095-0.779297-1.71875-2.896519-4.267-6.136401-8.267385-9.105468-12.734375-1.61324-2.1199502-2.209669-2.6676456-2.642579-2.652344zm-24.613281 2.0917969c-0.42336 0-2.153292 2.6412068-4.265625 5.4667971-2.10146 2.81136-2.368765 3.07819-2.632812 2.65039-0.182422-0.2958-1.244258 1.097016-2.128907 2.791016-0.8919753 1.7078-2.5078484 3.692853-3.4628902 4.939453-0.2842645 0.3712-0.4004758 0.753366-0.3085938 1.009766 0.0102348 0.02856 0.1196063 0.174669 0.1523438 0.230469 0.0452472-0.079452 0.0951216-0.160412 0.15625-0.240235 0.9550418-1.2466 2.5709149-3.231653 3.4628902-4.939453 0.884649-1.694 1.946485-3.086816 2.128907-2.791016 0.264047 0.4278 0.531352 0.16101 2.632812-2.65039 1.068994-1.429934 2.035621-2.8054452 2.789063-3.8222659 0.2434-0.3961305 0.516177-0.7810332 0.847656-1.1347656 0.907945-1.033 1.106547-1.5097656 0.628906-1.5097656zm9.826172 1.7792969l-0.591797 0.4667968c-0.424088 0.3364-0.779276 0.6291563-1.246094 0.5351563-0.836419-0.1676-1.856097-0.0852619-2.789062 1.6113281-0.665005 1.20916-1.917969 4.042697-1.917969 5.154297 0 0.153797 0.039388 0.266166 0.09375 0.353516 0.292912-1.323128 1.263277-3.487867 1.824219-4.507813 0.932965-1.69659 1.952643-1.7789281 2.789062-1.6113281 0.466818 0.094 0.822006-0.1987563 1.246094-0.5351563l0.591797-0.4667968c2.065846 1.5193902 4.381314 2.6344082 6.585938 3.9179682 2.42446 1.723983 4.747152 2.709539 4.863281 2.984376 0.01604-0.54771 0.031763-0.86291 0.019531-0.980469-0.026068-0.251-2.409388-1.245107-4.882812-3.003907-2.204624-1.28356-4.520092-2.3985782-6.585938-3.9179682zm12.984375 2.6093752c-0.082468 0.387314-0.125982 0.734252-0.058594 0.910156 0.095019 0.248045 0.527153 0.431159 0.949219 0.476563 0.141637-0.087988 0.285031-0.1726 0.423828-0.298829 0.582616-0.53 0.665743-0.940187 0.150391-0.742187-0.449609 0.172981-1.226579-0.027125-1.464844-0.345703zm4.419922 1.398437c-0.084486 1.504202-0.538734 1.812472-2.431641 4.097656-1.237757 1.4942-2.1715 2.011719-3.099609 2.011719-0.307718 0-0.407668-0.0874-0.431641-0.685547-0.035889 1.550369 0.003339 1.685547 0.431641 1.685547 0.928109 0 1.861852-0.517519 3.099609-2.011719 2.167431-2.616599 2.447266-2.64169 2.447266-4.83789 0.007188-0.077182-0.01312-0.175153-0.015625-0.259766zm-29.974609 2.058594c-0.005322 0.116958-0.013474 0.238288-0.013672 0.347656-0.143238 2.9488 2.257075 5.072638 4.86914 6.273438 3.343304 0.7882 6.45585 0.435578 7.042969-2.357422 0.098865-0.470352 0.091607-0.893954 0.03125-1.291016-0.013381 0.098559-0.009806 0.188995-0.03125 0.291016-0.587119 2.793-3.699665 3.145622-7.042969 2.357422-2.414841-1.110134-4.645191-3.010584-4.855468-5.621094zm4.101562 15.164062c-0.200676 0.096491-0.044922 0.311878-0.044922 0.638672l1.486328 12.029297s0.222267 1.029708 0.3125 1.927735c0.153859-0.784676-0.3125-2.927735-0.3125-2.927735l-1.441406-11.667969zm30.013672 1.208985c-0.123235 0.242647-0.207031 0.446667-0.207031 0.564453 0 0.6608 1.353008 1.194553 2.537109 1.376953 0.421585 0.064857 0.76971 0.169102 1.017578 0.294922 0.111855-0.154072 0.320156-0.44185 0.404297-0.556641 0-0.3126-0.563842-0.606281-1.421875-0.738281-0.908491-0.139945-1.910591-0.488772-2.330078-0.941406zm-36.15625 4.615234c-0.134941 0.435271-0.414725 0.916667-1.058594 1.44336-0.603201 0.4934-1.097809 0.947718-1.099609 1.011718-0.000906 0.032752 0.216465 0.211407 0.550781 0.460938 0.169278-0.14929 0.335379-0.298062 0.548828-0.472656 1.043994-0.854 1.18434-1.605466 1.181641-2.197266-0.000126-0.028713-0.064243-0.141475-0.123047-0.246094z"/>
 </g>
</svg>
