<svg xmlns="http://www.w3.org/2000/svg" height="64" width="64" version="1.1">
 <circle cx="32" cy="33" r="28" style="opacity:.2"/>
 <circle cx="32" cy="32" r="28" style="fill:#4f8598"/>
 <path style="opacity:.2" d="m32 5a28 28 0 0 0 -28 28 28 28 0 0 0 5.9296875 17.212891c4.0891645 2.634725 9.6964685 5.71234 15.070312 6.787109 4.953108 0.990622 13.08969 0.996851 20.046875 0.753906a28 28 0 0 0 14.953125 -24.753906 28 28 0 0 0 -28 -28z"/>
 <path style="fill:#c34d58" d="m32 4a28 28 0 0 0 -28 28 28 28 0 0 0 5.9296875 17.212891c4.0891645 2.634725 9.6964685 5.71234 15.070312 6.787109 4.953108 0.990622 13.08969 0.996851 20.046875 0.753906a28 28 0 0 0 14.953125 -24.753906 28 28 0 0 0 -28 -28z"/>
 <path style="opacity:.2" d="m32 5a28 28 0 0 0 -28 28 28 28 0 0 0 0.6289062 5.744141c3.1862058 2.980462 9.2751168 7.657008 18.371094 10.255859 11.213548 3.203871 23.052677 5.116986 28.869141 3.699219a28 28 0 0 0 8.130859 -19.699219 28 28 0 0 0 -28 -28z"/>
 <path style="fill:#ebcf78" d="m32 4a28 28 0 0 0 -28 28 28 28 0 0 0 0.6289062 5.744141c3.1862058 2.980462 9.2751168 7.657008 18.371094 10.255859 11.213548 3.203871 23.052677 5.116986 28.869141 3.699219a28 28 0 0 0 8.130859 -19.699219 28 28 0 0 0 -28 -28z"/>
 <path style="opacity:.2" d="m32 5a28 28 0 0 0 -25.792969 17.171875c2.9206549 4.043059 9.484035 10.09536 23.792969 13.828125 19.105589 4.984067 27.078248 3.767111 29.261719 3.208984a28 28 0 0 0 0.738281 -6.208984 28 28 0 0 0 -28 -28z"/>
 <path style="fill:#2398ba" d="m32 4a28 28 0 0 0 -25.792969 17.171875c2.9206549 4.043059 9.484035 10.09536 23.792969 13.828125 19.105589 4.984067 27.078248 3.767111 29.261719 3.208984a28 28 0 0 0 0.738281 -6.208984 28 28 0 0 0 -28 -28z"/>
 <path style="opacity:.2" d="m32 5a28 28 0 0 0 -17.533203 6.224609c3.66944 2.810567 9.691348 6.091249 19.533203 8.775391 15.640991 4.265725 22.100607 4.478009 24.576172 4.25a28 28 0 0 0 -26.576172 -19.25z"/>
 <path style="fill:#4e9588" d="m32 4a28 28 0 0 0 -17.533203 6.224609c3.66944 2.810567 9.691348 6.091249 19.533203 8.775391 15.640991 4.265725 22.100607 4.478009 24.576172 4.25a28 28 0 0 0 -26.576172 -19.25z"/>
 <path style="opacity:.2" d="m32 5a28 28 0 0 0 -4.708984 0.4414062c3.04653 1.0508155 18.113496 6.2040698 24.03125 7.3339848a28 28 0 0 0 -19.322266 -7.775391z"/>
 <path style="fill:#8de0a2" d="m32 4a28 28 0 0 0 -4.708984 0.4414062c3.04653 1.0508155 18.113496 6.2040698 24.03125 7.3339848a28 28 0 0 0 -19.322266 -7.775391z"/>
 <path d="m32 4a28 28 0 0 0 -28 28 28 28 0 0 0 0.0215 0.586 28 28 0 0 1 27.9785 -27.586 28 28 0 0 1 27.979 27.414 28 28 0 0 0 0.021 -0.414 28 28 0 0 0 -28 -28z" style="opacity:.2;fill:#8b9cbe"/>
</svg>
