<svg xmlns="http://www.w3.org/2000/svg" height="64" width="64" version="1.1">
 <circle r="28" cy="33" cx="32" style="opacity:.2"/>
 <circle r="28" cy="32" cx="32" style="fill:#f37b21"/>
 <path style="opacity:.2" d="m32 11c-12 0-22 9-22 22s9 22 22 22 21.8-9 21.8-22-9.8-22-21.8-22zm0 2c11 0 20 9.175219 20 20-0.0073 1.669139 0 3-1 5l-8-8h-19v12h-10c-2-3-2-5-2-9 0-10.824781 9-20 20-20z"/>
 <path style="fill:#8b9cbe" d="m32 10c-12 0-22 9-22 22s9 22 22 22 21.8-9 21.8-22-9.8-22-21.8-22zm0 2c11 0 20 9.175219 20 20-0.0073 1.669139 0 3-1 5l-8-8h-19v12h-10c-2-3-2-5-2-9 0-10.824781 9-20 20-20z"/>
 <path style="opacity:.2;fill:#8b9cbe" d="m32 4a28 28 0 0 0 -28 28 28 28 0 0 0 0.0214844 0.585938 28 28 0 0 1 27.978516 -27.585938 28 28 0 0 1 27.978516 27.414062 28 28 0 0 0 0.021484 -0.414062 28 28 0 0 0 -28 -28z"/>
</svg>
