<svg xmlns="http://www.w3.org/2000/svg" height="64" width="64" version="1.1">
 <rect style="opacity:.2" rx="11" ry="11" height="56" width="56" y="5" x="4"/>
 <rect style="fill:#5c29a1" rx="11" ry="11" height="56" width="56" y="4" x="4"/>
 <path style="opacity:.2" d="m21 17c-7 0-9 4-9 9v14h10v9h20v-9h10v-14c0-5-2-9-9-9zm1 8c3.313708 0 6 2.686292 6 6s-2.686292 6-6 6-6-2.686292-6-6 2.686292-6 6-6zm20 0c3.313708 0 6 2.686292 6 6s-2.686292 6-6 6-6-2.686292-6-6 2.686292-6 6-6z"/>
 <path style="fill:#efe3b7" d="m21 16c-7 0-9 4-9 9v14h10v9h20v-9h10v-14c0-5-2-9-9-9zm1 8c3.313708 0 6 2.686292 6 6s-2.686292 6-6 6-6-2.686292-6-6 2.686292-6 6-6zm20 0c3.313708 0 6 2.686292 6 6s-2.686292 6-6 6-6-2.686292-6-6 2.686292-6 6-6z"/>
 <path style="opacity:.2;fill:#8b9cbe" d="m15 4c-6.094 0-11 4.906-11 11v1c0-6.094 4.906-11 11-11h34c6.094 0 11 4.906 11 11v-1c0-6.094-4.906-11-11-11h-34z"/>
</svg>
