<svg xmlns="http://www.w3.org/2000/svg" width="64" height="64" version="1.1">
 <rect style="opacity:0.2" width="56" height="56" x="4" y="5" rx="4.2" ry="4.2"/>
 <rect style="fill:#ffc107" width="56" height="56" x="4" y="4" rx="4.2" ry="4.2"/>
 <path style="opacity:0.1" d="M 17.375,16 H 29.75 l 4.5,7.083333 L 39.875,16 H 54.5 l -14.625,17 9,17 h -13.5 L 30.874999,43.2 25.25,50 H 9.4999998 L 25.25,31.866667 Z"/>
 <path style="fill:#3e3e3e" d="M 17.375,15 H 29.75 l 4.5,7.083333 L 39.875,15 H 54.5 l -14.625,17 9,17 h -13.5 L 30.874999,42.2 25.25,49 H 9.4999998 L 25.25,30.866667 Z"/>
 <path style="fill:#8b9cbe;opacity:0.2" d="M 8.1992188 4 C 5.8724189 4 4 5.8724189 4 8.1992188 L 4 9.1992188 C 4 6.8724189 5.8724189 5 8.1992188 5 L 55.800781 5 C 58.127581 5 60 6.8724189 60 9.1992188 L 60 8.1992188 C 60 5.8724189 58.127581 4 55.800781 4 L 8.1992188 4 z"/>
</svg>
