<svg xmlns="http://www.w3.org/2000/svg" width="64" height="64" version="1">
 <g style="opacity:0.2" transform="matrix(0.875,0,0,0.875,4,5)">
  <g>
   <path d="M 32,0 C 49.7,0 64,14.3 64,32 64,49.7 49.7,64 32,64 14.3,64 0,49.7 0,32 0,14.3 14.3,0 32,0 Z"/>
  </g>
 </g>
 <g style="fill:#725750" transform="matrix(0.875,0,0,0.875,4,4)">
  <g style="fill:#725750">
   <path style="fill:#725750" d="M 32,0 C 49.7,0 64,14.3 64,32 64,49.7 49.7,64 32,64 14.3,64 0,49.7 0,32 0,14.3 14.3,0 32,0 Z"/>
  </g>
 </g>
 <path style="opacity:0.2" d="M 42.902344,13.003906 C 35.822416,13.183294 29.07567,19.0827 24.203124,23.070312 22.455864,24.500246 19.881901,27.37891 20.003906,27.5 c 0.12202,0.12108 2.709898,-1.998378 3.984376,-3.027344 5.811886,-4.69229 12.485964,-7.340031 17.015624,-7.332031 1.689704,0.0031 4.174178,0.996533 5.222656,2.187501 1.198444,1.36131 1.588678,2.4103 1.617188,5.503906 0.016,1.733864 -0.770992,4.28953 -0.566406,4.164062 0.501324,-0.307454 2.44275,-6.03379 2.67578,-8.246094 0.352314,-3.344861 -1.348046,-6.789708 -3.996092,-7.449219 -1.020424,-0.229955 -2.04327,-0.322501 -3.054688,-0.296875 z M 18.351562,15 c -1.36793,-0.01491 -2.460676,0.207002 -3.332031,0.691406 -8.5716404,5.576682 3.341277,21.158914 8.160157,25.96875 C 24.40312,42.85973 26.924446,45 27.074218,45 c 0.14976,0 -2.443426,-2.902936 -4.05078,-5.035156 -4.551173,-6.037316 -7.075016,-11.712248 -6.96875,-15.953126 0.06058,-2.417724 0.90992,-4.369396 2.589843,-5.656249 1.000524,-0.766421 2.181397,-1.673697 4.640625,-1.375 L 28,18.007812 C 25.124258,16.214089 21.986332,15.084767 18.351562,15 Z m 18.57422,6 c -0.14976,0 2.443426,2.902936 4.05078,5.035156 4.551172,6.037316 7.075016,11.712248 6.96875,15.953126 -0.06058,2.417724 -0.90992,4.369396 -2.589844,5.65625 -1.000524,0.76642 -2.181396,1.673696 -4.640624,1.375 L 36,47.992188 c 2.875742,1.793724 6.013668,2.923046 9.648438,3.007812 1.36793,0.015 2.460674,-0.207002 3.33203,-0.691406 C 57.552108,44.731912 45.639192,29.14968 40.820312,24.339844 39.59688,23.14027 37.075554,21 36.925782,21 Z M 32,29 a 4,4 0 0 0 -4,4 4,4 0 0 0 4,4 4,4 0 0 0 4,-4 4,4 0 0 0 -4,-4 z m -15.277344,8.003906 c -0.501324,0.307454 -2.442749,6.03379 -2.675781,8.246094 -0.352314,3.344862 1.348048,6.789708 3.996094,7.449218 1.020424,0.229954 2.043269,0.322502 3.054687,0.296876 C 28.177584,52.816714 34.924332,46.9173 39.796876,42.929688 41.544134,41.499754 44.1181,38.62109 43.996094,38.5 c -0.12202,-0.12108 -2.709898,1.998378 -3.984376,3.027344 -5.811886,4.69229 -12.485964,7.340032 -17.015624,7.332032 -1.689704,-0.003 -4.174179,-0.996536 -5.222656,-2.1875 -1.198444,-1.361312 -1.588678,-2.410302 -1.617188,-5.503908 -0.016,-1.733864 0.770992,-4.28953 0.566406,-4.164062 z"/>
 <path style="fill:#8b9cbe" d="M 42.902344,12.003906 C 35.822416,12.183294 29.07567,18.0827 24.203124,22.070312 22.455864,23.500246 19.881901,26.37891 20.003906,26.5 c 0.12202,0.12108 2.709898,-1.998378 3.984376,-3.027344 5.811886,-4.69229 12.485964,-7.340031 17.015624,-7.332031 1.689704,0.0031 4.174178,0.996533 5.222656,2.1875 1.198444,1.361311 1.588678,2.410301 1.617188,5.503907 0.016,1.733864 -0.770992,4.28953 -0.566406,4.164062 0.501324,-0.307454 2.44275,-6.03379 2.67578,-8.246094 0.352314,-3.344861 -1.348046,-6.789708 -3.996092,-7.449219 -1.020424,-0.229955 -2.04327,-0.322501 -3.054688,-0.296875 z M 18.351562,14 c -1.36793,-0.01491 -2.460676,0.207002 -3.332031,0.691406 -8.5716404,5.576682 3.341277,21.158914 8.160157,25.96875 C 24.40312,41.85973 26.924446,44 27.074218,44 c 0.14976,0 -2.443426,-2.902936 -4.05078,-5.035156 -4.551173,-6.037316 -7.075016,-11.712248 -6.96875,-15.953126 0.06058,-2.417724 0.90992,-4.369396 2.589843,-5.656249 1.000524,-0.766421 2.181397,-1.673697 4.640625,-1.375 L 28,17.007812 C 25.124258,15.214089 21.986332,14.084767 18.351562,14 Z m 18.57422,6 c -0.14976,0 2.443426,2.902936 4.05078,5.035156 4.551172,6.037316 7.075016,11.712248 6.96875,15.953126 -0.06058,2.417724 -0.90992,4.369396 -2.589844,5.65625 -1.000524,0.76642 -2.181396,1.673696 -4.640624,1.375 L 36,46.992188 c 2.875742,1.793724 6.013668,2.923046 9.648438,3.007812 1.36793,0.015 2.460674,-0.207002 3.33203,-0.691406 C 57.552108,43.731912 45.639192,28.14968 40.820312,23.339844 39.59688,22.14027 37.075554,20 36.925782,20 Z M 32,28 a 4,4 0 0 0 -4,4 4,4 0 0 0 4,4 4,4 0 0 0 4,-4 4,4 0 0 0 -4,-4 z m -15.277344,8.003906 c -0.501324,0.307454 -2.442749,6.03379 -2.675781,8.246094 -0.352314,3.344862 1.348048,6.789708 3.996094,7.449218 1.020424,0.229954 2.043269,0.322502 3.054687,0.296876 C 28.177584,51.816714 34.924332,45.9173 39.796876,41.929688 41.544134,40.499754 44.1181,37.62109 43.996094,37.5 c -0.12202,-0.12108 -2.709898,1.998378 -3.984376,3.027344 -5.811886,4.69229 -12.485964,7.340032 -17.015624,7.332032 -1.689704,-0.003 -4.174179,-0.996536 -5.222656,-2.1875 -1.198444,-1.361312 -1.588678,-2.410302 -1.617188,-5.503908 -0.016,-1.733864 0.770992,-4.28953 0.566406,-4.164062 z"/>
 <g style="fill:#8b9cbe" transform="matrix(0.875,0,0,0.875,4,4)">
  <g style="fill:#8b9cbe">
   <path style="opacity:0.1;fill:#8b9cbe" transform="matrix(1.1428571,0,0,1.1428571,-4.5714286,-4.5714286)" d="M 32 4 C 16.5125 4 4 16.5125 4 32 C 4 32.113424 4.0112865 32.224108 4.0175781 32.335938 C 4.3702666 17.157375 16.735176 5 32 5 C 47.264824 5 59.629733 17.157375 59.982422 32.335938 C 59.988713 32.224108 60 32.113424 60 32 C 60 16.5125 47.4875 4 32 4 z"/>
  </g>
 </g>
</svg>
