<svg xmlns="http://www.w3.org/2000/svg" width="64" height="64" version="1.1">
 <circle style="opacity:.2" cx="32" cy="33" r="28"/>
 <circle style="fill:#d83abd" cx="32" cy="32" r="28"/>
 <path style="fill:#8b9cbe;opacity:.2" d="M 32,4 A 28,28 0 0 0 4,32 28,28 0 0 0 4.0215,32.586 28,28 0 0 1 32,5 28,28 0 0 1 59.979,32.414 28,28 0 0 0 60,32 28,28 0 0 0 32,4 Z"/>
 <path style="opacity:0.1" d="m33.800781 8.8691404c-1.670408-0.072701-3.274216 0.2459847-4.603515 0.6152344-2.658598 0.7384992-4.685547 1.9101562-4.685547 1.9101562a3.0005748 3.0005748 0 1 0 2.976562 5.210938s1.473051-0.828343 3.314453-1.339844c1.841403-0.511501 3.580485-0.477234 4.396485 0.134766 1.591217 1.193413 1.880647 2.126223 1.863281 3.5a15 15 0 0 0-5.0625-0.900391 15 15 0 0 0-9.091797 3.083984c-0.952362-0.563792-1.930649-1.072474-2.955078-1.447265-1.23686-0.45251-2.558324-0.750022-3.988281-0.632813-1.429957 0.11721-2.965963 0.755026-4.085938 1.875-2.1049242 2.104925-2.9563492 4.82134-3.6933592 7.177735-0.7370101 2.356394-1.1289063 4.367187-1.1289063 4.367187a3.0003 3.0003 0 1 0 5.8867185 1.152344s0.340408-1.719558 0.96875-3.728516c0.628343-2.008958 1.775318-4.292896 2.208985-4.726562 0.130025-0.130026 0.09402-0.11721 0.332031-0.136719 0.238012-0.01951 0.752485 0.03454 1.4375 0.285156 0.305506 0.111771 0.646341 0.27189 1 0.451172a15 15 0 0 0-1.890625 7.279297 15 15 0 0 0 0.267578 2.765625c-0.607725 0.479982-1.188914 1.001224-1.724609 1.583984-1.860242 2.02368-3.123731 5.041503-2.484375 8.238282 1.422404 7.11202 8.992187 9.257812 8.992187 9.257812a3.0003 3.0003 0 1 0 1.898438-5.691406s-4.430217-1.854208-5.007813-4.742188c-0.228753-1.143767 0.02778-1.838757 0.824219-2.765625a15 15 0 0 0 10.005859 6.167969c0.299572 1.174144 0.691657 2.320812 1.232422 3.402344 1.223717 2.447432 3.746094 4.783203 6.996094 4.783203 4.166667 0 7.444891-2.247433 9.724609-4.242188 2.279719-1.994753 3.716797-4.013671 3.716797-4.013671a3.0004152 3.0004152 0 1 0-4.882812-3.488282s-1.062922 1.481082-2.783203 2.986329c-1.720282 1.505245-3.942058 2.757812-5.775391 2.757812-0.75 0-0.977623-0.16423-1.628906-1.466797-0.152464-0.304927-0.294893-0.669131-0.429688-1.064453a15 15 0 0 0 9.296875-7.431641c0.769149 0.06625 1.537791 0.102991 2.302735 0.07227 2.551519-0.102486 5.47149-0.966808 7.03125-3.566406 2.105289-3.508815 1.393424-7.283342 0.271484-9.6875s-2.722656-3.976563-2.722656-3.976563a3.0003 3.0003 0 1 0-4.242188 4.242188s0.899284 0.927595 1.527344 2.273437 0.916199 2.571315 0.02148 4.0625c-0.16378 0.272967-0.605308 0.595131-2.126953 0.65625-0.107839 0.0043-0.241285-0.0081-0.355469-0.0078a15 15 0 0 0 0.054692-1.105485 15 15 0 0 0-4.433594-10.630859c0.292938-1.054803 0.478492-2.15604 0.5-3.302735 0.05599-2.985139-1.31871-6.256611-4.265625-8.466797-1.592-1.1939998-3.329592-1.6577677-5-1.7304686z"/>
 <path style="fill:#4f4f4f" d="m33.800781 7.8691406c-1.670408-0.072701-3.274216 0.2459847-4.603515 0.6152344-2.658598 0.7384994-4.685547 1.910156-4.685547 1.910156a3.0005748 3.0005748 0 1 0 2.976562 5.210938s1.473051-0.828343 3.314453-1.339844c1.841403-0.511501 3.580485-0.477234 4.396485 0.134766 1.591217 1.193413 1.880647 2.126223 1.863281 3.5a15 15 0 0 0-5.0625-0.900391 15 15 0 0 0-9.091797 3.083984c-0.952362-0.563792-1.930649-1.072474-2.955078-1.447265-1.23686-0.45251-2.558324-0.750022-3.988281-0.632813-1.429957 0.11721-2.965963 0.755026-4.085938 1.875-2.1049241 2.104925-2.9563491 4.82134-3.6933591 7.177735-0.7370101 2.356394-1.1289063 4.367187-1.1289063 4.367187a3.0003 3.0003 0 1 0 5.8867184 1.152344s0.340408-1.719558 0.96875-3.728516c0.628343-2.008958 1.775318-4.292896 2.208985-4.726562 0.130025-0.130026 0.09402-0.11721 0.332031-0.136719 0.238012-0.01951 0.752485 0.03454 1.4375 0.285156 0.305506 0.111771 0.646341 0.27189 1 0.451172a15 15 0 0 0-1.890625 7.279297 15 15 0 0 0 0.267578 2.765625c-0.607725 0.479982-1.188914 1.001224-1.724609 1.583984-1.860242 2.02368-3.123731 5.041503-2.484375 8.238282 1.422404 7.11202 8.992187 9.257812 8.992187 9.257812a3.0003 3.0003 0 1 0 1.898438-5.691406s-4.430217-1.854208-5.007813-4.742188c-0.228753-1.143767 0.027776-1.838757 0.824219-2.765625a15 15 0 0 0 10.005859 6.167969c0.299572 1.174144 0.691657 2.320812 1.232422 3.402344 1.223717 2.447432 3.746094 4.783203 6.996094 4.783203 4.166667 0 7.444891-2.247433 9.724609-4.242188 2.279719-1.994753 3.716797-4.013671 3.716797-4.013671a3.0004152 3.0004152 0 1 0-4.882812-3.488282s-1.062922 1.481082-2.783203 2.986329c-1.720282 1.505245-3.942058 2.757812-5.775391 2.757812-0.75 0-0.977623-0.16423-1.628906-1.466797-0.152464-0.304927-0.294893-0.669131-0.429688-1.064453a15 15 0 0 0 9.296875-7.431641c0.769149 0.066245 1.537791 0.102991 2.302735 0.072266 2.551519-0.102486 5.47149-0.966808 7.03125-3.566406 2.105289-3.508815 1.393424-7.283342 0.271484-9.6875s-2.722656-3.976563-2.722656-3.976563a3.0003 3.0003 0 1 0-4.242188 4.242188s0.899284 0.927595 1.527344 2.273437 0.916199 2.571315 0.021484 4.0625c-0.16378 0.272967-0.605308 0.595131-2.126953 0.65625-0.107839 0.004332-0.241285-0.008053-0.355469-0.007812a15 15 0 0 0 0.054688-1.105469 15 15 0 0 0-4.433594-10.630859c0.292938-1.054803 0.478492-2.15604 0.5-3.302735 0.05599-2.985139-1.31871-6.256611-4.265625-8.4667966-1.592-1.194-3.329592-1.6577679-5-1.7304688z"/>
 <path style="opacity:.2" d="m25 29a5 5 0 0 0-5 5 5 5 0 0 0 5 5 5 5 0 0 0 5-5 5 5 0 0 0-5-5zm14 0a5 5 0 0 0-5 5 5 5 0 0 0 5 5 5 5 0 0 0 5-5 5 5 0 0 0-5-5z"/>
 <path style="fill:#8b9cbe" d="m25 28a5 5 0 0 0-5 5 5 5 0 0 0 5 5 5 5 0 0 0 5-5 5 5 0 0 0-5-5zm14 0a5 5 0 0 0-5 5 5 5 0 0 0 5 5 5 5 0 0 0 5-5 5 5 0 0 0-5-5z"/>
</svg>
