<svg width="64" height="64" version="1.1" xmlns="http://www.w3.org/2000/svg">
 <rect x="4.0000029" y="5" width="56" height="56" rx="2.8" ry="2.8" style="opacity:.2"/>
 <rect x="4.0000029" y="4" width="56" height="56" rx="2.8" ry="2.8" style="fill:#733317"/>
 <path d="m6.8007842 4c-1.5512 0-2.8007812 1.2495812-2.8007812 2.8007812v1c0-1.5511999 1.2495812-2.8007812 2.8007812-2.8007812h50.398438c1.5512 0 2.800781 1.2495812 2.800781 2.8007812v-1c0-1.5511999-1.249581-2.8007812-2.800781-2.8007812z" style="fill:#8b9cbe;opacity:.1"/>
 <path d="M 18,46 23,29 22,30 25,20 26,19 25.76708,17.470589 27,13 C 27,13 28.178181,9 29.440026,9 33.225563,9 36,14 36,14 L 35,16 37.011098,15.270305 41,22 39.5,26.5 42,25 c 0,0 3,5.468401 2.982,11.715122 -0.0086,2.973279 -0.721149,6.009511 -1.661673,8.830219 C 40.796637,53.114102 37,57 37,57 l 2,-8 -3,-2 3.182945,0.117647 L 36,44 39.534792,43.022422 36,40 l 3,-1 -3,-2 2,-2 v -1 h -3 l 4,-4 -5,2 2,-3 h -3 l 3,-4 -4,2 1.5,-4 -1.5,-1 -7,25 -1,1 v -2 l -3,4 1,-3 -1.881705,1.529413 L 21,46 l -2,1 1,-3 z" style="opacity:.2"/>
 <path d="M 18,45 23,28 22,29 25,19 26,18 25.76708,16.470589 27,12 C 27,12 28.178181,8 29.440026,8 33.225563,8 36,13 36,13 L 35,15 37.011098,14.270305 41,21 39.5,25.5 42,24 c 0,0 3,5.468401 2.982,11.715122 -0.0086,2.973279 -0.721149,6.009511 -1.661673,8.830219 C 40.796637,52.114102 37,56 37,56 l 2,-8 -3,-2 3.182945,0.117647 L 36,43 39.534792,42.022422 36,39 l 3,-1 -3,-2 2,-2 v -1 h -3 l 4,-4 -5,2 2,-3 h -3 l 3,-4 -4,2 1.5,-4 -1.5,-1 -7,25 -1,1 v -2 l -3,4 1,-3 -1.881705,1.529413 L 21,45 l -2,1 1,-3 z" style="fill:#fe7a48"/>
</svg>
