<svg xmlns="http://www.w3.org/2000/svg" width="64" height="64" version="1">
 <path style="opacity:0.2" d="M 20.157422,5 C 11.234629,5 4,13.231749 4,23.385936 c 0,2.728246 0.4230752,5.354198 1.1648436,7.86133 0,0 0.6728992,2.260178 1.26875,3.505468 C 13.243627,50.674732 32,61 32,61 c 0,0 18.756372,-10.325268 25.566406,-26.247266 0.595852,-1.24529 1.26875,-3.505468 1.26875,-3.505468 C 59.576924,28.740134 60,26.114182 60,23.385936 60,13.231749 52.765372,5 43.842578,5 39.163066,5 34.95134,6.982066 32,10.6 29.04866,6.982066 24.836934,5 20.157422,5 Z"/>
 <path style="fill:#ffbd4a" d="M 20.157422,4 C 11.234629,4 4,12.231749 4,22.385936 c 0,2.728246 0.4230752,5.354198 1.1648436,7.86133 0,0 0.6728992,2.260178 1.26875,3.505468 C 13.243627,49.674732 32,60 32,60 c 0,0 18.756372,-10.325268 25.566406,-26.247266 0.595852,-1.24529 1.26875,-3.505468 1.26875,-3.505468 C 59.576924,27.740134 60,25.114182 60,22.385936 60,12.231749 52.765372,4 43.842578,4 39.163066,4 34.95134,5.982066 32,9.6 29.04866,5.982066 24.836934,4 20.157422,4 Z"/>
 <path style="opacity:0.1" d="m 52.745248,25.004016 c 0.433718,-0.0242 0.814884,0.06172 1.199878,0.23673 1.878388,0.878174 2.336842,3.58943 1.90416,5.175798 -0.894248,3.00813 -3.468512,8.020492 -6.91499,11.562888 -1.520594,1.504296 -3.510314,3.395316 -5.665638,2.955954 -1.700326,-0.525288 -2.649632,-0.931614 -3.119162,-1.921834 -0.751084,-2.56873 1.505818,-3.615676 2.815206,-4.95906 2.870732,-2.985776 5.870836,-7.509522 7.316782,-10.536958 0.797114,-1.543956 0.944558,-2.142066 2.463764,-2.513518 z"/>
 <path style="fill:#ee6d51" d="m 52.745248,24.004016 c 0.433718,-0.0242 0.814884,0.06172 1.199878,0.23673 1.878388,0.878174 2.336842,3.58943 1.90416,5.175798 -0.894248,3.00813 -3.468512,8.020492 -6.91499,11.562888 -1.520594,1.504296 -3.510314,3.395316 -5.665638,2.955954 -1.700326,-0.525288 -2.649632,-0.931614 -3.119162,-1.921834 -0.751084,-2.56873 1.505818,-3.615676 2.815206,-4.95906 2.870732,-2.985776 5.870836,-7.509522 7.316782,-10.536958 0.797114,-1.543956 0.944558,-2.142066 2.463764,-2.513518 z"/>
 <path style="opacity:0.1" d="m 43.386718,26.039062 c -0.784286,0.1024 -1.549026,0.547134 -2.1875,1.492188 -0.41212,0.604536 -0.765264,1.333012 -1.01953,2.136718 -0.320266,1.361934 -0.298734,1.913082 0.816406,3.132814 0.50164,0.491852 0.99649,0.973164 1.488282,1.445312 3.402246,3.266364 6.945538,6.435896 10.027342,9.046874 1.51338,-2.001546 2.873662,-4.149138 4.027344,-6.417968 -1.49608,-1.256746 -3.333008,-2.850248 -4.746094,-4.171876 -1.656542,-1.554774 -3.19777,-3.341324 -4.796874,-5.066406 -0.937222,-0.990488 -2.30223,-1.76832 -3.609376,-1.597656 z"/>
 <path style="fill:#ff7d5f" d="m 43.386718,25.039062 c -0.784286,0.1024 -1.549026,0.547134 -2.1875,1.492188 -0.41212,0.604536 -0.765264,1.333012 -1.01953,2.136718 -0.320266,1.361934 -0.298734,1.913082 0.816406,3.132814 0.50164,0.491852 0.99649,0.973164 1.488282,1.445312 3.402246,3.266364 6.945538,6.435896 10.027342,9.046874 1.51338,-2.001546 2.873662,-4.149138 4.027344,-6.417968 -1.49608,-1.256746 -3.333008,-2.850248 -4.746094,-4.171876 -1.656542,-1.554774 -3.19777,-3.341324 -4.796874,-5.066406 -0.937222,-0.990488 -2.30223,-1.76832 -3.609376,-1.597656 z"/>
 <path style="opacity:0.2;fill:#8b9cbe" d="M 20.15625 4 C 11.233457 4 4 12.232533 4 22.386719 C 4 22.571341 4.0111711 22.753027 4.0195312 22.935547 C 4.2319305 12.991735 11.367221 5 20.15625 5 C 24.835762 5 29.04866 6.9836291 32 10.601562 C 34.95134 6.9836291 39.164238 5 43.84375 5 C 52.63278 5 59.768069 12.991735 59.980469 22.935547 C 59.988829 22.753027 60 22.571341 60 22.386719 C 60 12.232533 52.766544 4 43.84375 4 C 39.164238 4 34.95134 5.9836287 32 9.6015625 C 29.04866 5.9836287 24.835762 4 20.15625 4 z"/>
</svg>
