<svg xmlns="http://www.w3.org/2000/svg" width="64" height="64" version="1">
 <path style="opacity:0.2" d="m 10.022499,5 c 2.001806,2.7691146 3.024198,5.707313 0,10 -0.3174962,3.75354 0.996787,5.935494 5.488282,5.855468 1.062933,-0.07129 2.750101,-0.282034 3.636718,-1.117186 1.40549,-1.721232 0.860574,-2.622517 0.28125,-2.742188 -0.601993,-0.178234 -2.05809,0.72352 -0.660156,1.390625 0.2947,1.204353 -3.063969,1.079793 -3.683594,0.06641 C 12.752591,14.277357 18.957265,11.275566 26.022499,14 27.470809,25.39679 29.113361,39.918318 27.338905,53.484376 26.177739,56.178254 24.934231,57.795648 22.022499,59 l 0,2 c 4,-2 14,-2 20,-2 l 0,-2 C 39.435691,56.534046 37.381961,54.131188 37.077187,51.714844 36.072185,38.268362 35.337459,28.418474 38.022499,15 l 9.9375,0 c 1.23925,0.02801 1.74765,1.056592 2.0625,4 l 4,0 c -1.395408,-3.332976 -2,-6 -2,-10 -14.939002,2.309403 -25.844416,0.257246 -42,-4 z"/>
 <path style="fill:#fecd38" d="m 10.022499,4 c 2.001806,2.7691146 3.024198,5.7073134 0,10 -0.3174962,3.75354 0.996787,5.935495 5.488282,5.855469 1.062933,-0.07129 2.750101,-0.282034 3.636718,-1.117188 1.40549,-1.721231 0.860574,-2.622516 0.28125,-2.742187 -0.601993,-0.178234 -2.05809,0.72352 -0.660156,1.390625 0.2947,1.204352 -3.063969,1.079794 -3.683594,0.06641 C 12.752591,13.277357 18.957265,10.275566 26.022499,13 27.470809,24.39679 29.113361,38.918318 27.338905,52.484376 26.177739,55.178254 24.934231,56.795648 22.022499,58 l 0,2 c 4,-2 14,-2 20,-2 l 0,-2 C 39.435691,55.534046 37.381961,53.131188 37.077187,50.714844 36.072185,37.268362 35.337459,27.418474 38.022499,14 l 9.9375,0 c 1.23925,0.02801 1.74765,1.056592 2.0625,4 l 4,0 c -1.395408,-3.332976 -2,-6 -2,-10 -14.939002,2.309403 -25.844416,0.2572464 -42,-4 z"/>
 <path style="fill:#8b9cbe;opacity:0.2" d="M 10.023438 4 C 10.308238 4.3939674 10.564462 4.7930395 10.800781 5.1972656 C 26.517709 9.3107427 37.333329 11.270927 52.023438 9 C 52.023438 12.591184 52.51559 15.111134 53.625 18 L 54.023438 18 C 52.628029 14.667024 52.023438 12 52.023438 8 C 37.084435 10.309403 26.179021 8.2572464 10.023438 4 z M 11.902344 9.375 C 11.801288 10.747963 11.248258 12.261433 10.023438 14 C 9.9765137 14.554748 9.9765087 15.063011 10.005859 15.546875 C 10.013349 15.362609 10.007143 15.192638 10.023438 15 C 11.552172 12.830043 12.045477 11.005849 11.902344 9.375 z M 19.169922 15.976562 C 18.564551 16.033475 17.739463 16.67498 18.527344 17.230469 C 18.8052 17.034565 19.185145 16.923691 19.429688 16.996094 C 19.627365 17.036928 19.81419 17.176024 19.927734 17.400391 C 20.201682 16.549137 19.832351 16.079272 19.429688 15.996094 C 19.354438 15.973814 19.264619 15.96766 19.169922 15.976562 z M 14.644531 16.1875 C 14.509337 16.876898 14.632684 17.641653 15.085938 18.453125 C 15.705562 19.466509 19.064231 19.591071 18.769531 18.386719 C 18.556027 18.284833 18.4256 18.178462 18.332031 18.070312 C 17.450668 18.453973 15.539594 18.195071 15.085938 17.453125 C 14.841315 17.015171 14.710198 16.594375 14.644531 16.1875 z M 36.175781 33 C 36.130102 38.936345 36.56565 44.85815 37.078125 51.714844 C 37.382899 54.131188 39.43663 56.534046 42.023438 57 L 42.023438 56 C 39.43663 55.534046 37.382899 53.131188 37.078125 50.714844 C 36.594339 44.242004 36.182991 38.605256 36.175781 33 z M 28.105469 40.130859 C 28.0906 44.261593 27.872063 48.415457 27.339844 52.484375 C 26.178678 55.178253 24.93517 56.795648 22.023438 58 L 22.023438 59 C 24.93517 57.795648 26.178678 56.178253 27.339844 53.484375 C 27.915046 49.086846 28.125364 44.590207 28.105469 40.130859 z"/>
</svg>
