<svg xmlns="http://www.w3.org/2000/svg" width="64" height="64" x="0" y="0" version="1.1" xml:space="preserve">
 <path style="opacity:0.2" d="m 19,4.9995893 c -1.114318,0 -2.076414,0.6162963 -2.59375,1.5195312 -0.847023,-0.5954729 -1.988628,-0.7082699 -2.955078,-0.1738281 -1.352222,0.7415414 -1.851289,2.4505119 -1.103516,3.8027346 0.747772,1.358454 2.442329,1.849334 3.800782,1.101562 0.414873,-0.227511 0.737654,-0.552632 0.980468,-0.923828 0.279409,0.225184 0.59679,0.39774 0.945313,0.511719 -0.300531,1.552172 0.473836,3.164601 1.976562,3.847656 1.759735,0.799879 3.8406,0.02341 4.634766,-1.736328 0.799879,-1.754021 0.0234,-3.8348863 -1.736328,-4.6347656 C 22.63814,8.1726432 22.316084,8.0984499 21.994141,8.0523237 21.994461,8.0342995 22,8.0176891 22,7.9995893 c 0,-1.6553672 -1.344631,-3 -3,-3 z"/>
 <path style="opacity:0.2" d="m 8.9427755,15.351655 c 1.61e-4,0.0407 -0.00273,0.08291 -0.00273,0.123046 -4.4e-6,0.697144 -2.9457492,1.960157 -2.9400372,5.457299 1.6342859,-0.931428 4.1054297,-0.932422 4.3397157,-0.932422 0.02898,0.04063 0.06345,0.07477 0.09297,0.114842 C 9.4910968,18.913413 8.9681068,16.877558 8.9427755,15.351655 Z"/>
 <path style="opacity:0.2" d="m 29.926343,51.670313 c -0.01134,0.0085 0.01403,0.08494 0.09044,0.175 -0.04081,-0.09958 -0.08169,-0.181625 -0.09044,-0.175 z m 0.09044,0.175 c 0.01092,0.0266 0.01232,0.01008 0.02467,0.04648 0.82726,2.259457 -0.465364,3.798034 -0.800355,4.176173 -2.702001,0.282867 -5.265943,1.360835 -5.469657,1.564063 -0.933664,0.702856 -0.933161,1.967845 -0.457737,2.670701 C 23.783409,60.765592 24.483098,61 24.952794,61 25.42249,61 25.886457,60.766708 26.356154,60.532422 26.820121,60.298137 28.877438,58 30.515645,58 c 1.638207,0 2.710403,2.063851 3.180099,2.532422 0.933664,0.697143 2.107903,0.461986 2.806718,-0.235156 0.698816,-0.697143 0.697944,-1.962376 -0.23572,-2.665233 -0.09166,-0.09143 -0.655874,-0.370406 -1.4061,-0.664454 -0.0027,-0.01441 2.52e-4,-0.02342 -0.0028,-0.03828 0,0 -1.541021,-0.597744 -1.541021,-3.632032 0,-0.46857 -0.939268,-1.399129 -2.10778,-1.164843 -0.695018,0.116032 -1.04377,-0.112028 -1.192312,-0.287109 z"/>
 <path style="fill:#ff9d20" d="m 8.9427755,14.351655 c 1.61e-4,0.0407 -0.00273,0.08291 -0.00273,0.123046 -4.4e-6,0.697144 -2.9457492,1.960157 -2.9400372,5.457299 1.6342859,-0.931428 4.1054297,-0.932422 4.3397157,-0.932422 0.02898,0.04063 0.06345,0.07477 0.09297,0.114842 C 9.4910968,17.913413 8.9681068,15.877558 8.9427755,14.351655 Z"/>
 <path style="fill:#ff9d20" d="m 29.926343,50.670313 c -0.01134,0.0085 0.01403,0.08494 0.09044,0.175 -0.04081,-0.09958 -0.08169,-0.181625 -0.09044,-0.175 z m 0.09044,0.175 c 0.01092,0.0266 0.01232,0.01008 0.02467,0.04648 0.82726,2.259457 -0.465364,3.798034 -0.800355,4.176173 -2.702001,0.282867 -5.265943,1.360835 -5.469657,1.564063 -0.933664,0.702856 -0.933161,1.967845 -0.457737,2.670701 C 23.783409,59.765592 24.483098,60 24.952794,60 25.42249,60 25.886457,59.766708 26.356154,59.532422 26.820121,59.298137 28.877438,57 30.515645,57 c 1.638207,0 2.710403,2.063851 3.180099,2.532422 0.933664,0.697143 2.107903,0.461986 2.806718,-0.235156 0.698816,-0.697143 0.697944,-1.962376 -0.23572,-2.665233 -0.09166,-0.09143 -0.655874,-0.370406 -1.4061,-0.664454 -0.0027,-0.01441 2.52e-4,-0.02342 -0.0028,-0.03828 0,0 -1.541021,-0.597744 -1.541021,-3.632032 0,-0.46857 -0.939268,-1.399129 -2.10778,-1.164843 -0.695018,0.116032 -1.04377,-0.112028 -1.192312,-0.287109 z"/>
 <path style="fill:#e53d3d" d="m 19,3.9999997 c -1.655367,0 -3,1.344633 -3,3.0000002 C 16,8.6553673 17.344633,10 19,10 20.655369,10 22,8.6553673 22,6.9999999 22,5.3446327 20.655369,3.9999997 19,3.9999997 Z"/>
 <path style="fill:#e53d3d" d="m 22.948355,7.3147646 c -1.759736,-0.7998795 -3.833708,-0.022854 -4.633589,1.7368809 -0.799878,1.7597355 -0.02286,3.8337085 1.736882,4.6335885 1.759735,0.799879 3.839421,0.02286 4.633587,-1.736882 0.799879,-1.754021 0.02285,-3.8337081 -1.73688,-4.6335874 z"/>
 <path style="fill:#e53d3d" d="m 13.450893,5.3466503 c -1.352222,0.7415414 -1.850737,2.4489558 -1.102964,3.8011783 0.747772,1.3584544 2.442725,1.8507374 3.801178,1.1029654 C 17.50133,9.509252 17.999844,7.8018375 17.252072,6.4496151 16.510531,5.0973928 14.803117,4.5988777 13.450893,5.3466503 Z"/>
 <path style="opacity:0.2" d="m 15.998095,8.999964 c -3.712077,0.00442 -6.7752732,2.892941 -6.9811752,6.583091 -0.019871,0.166546 -0.017061,0.333407 -0.016408,0.498223 4.55e-5,0.0028 -4.86e-5,0.0055 0,0.0083 0.02707,1.516392 0.5503528,2.982708 1.4903032,4.176369 C 11.649054,21.830875 13,22.991343 13,25.033051 13,28.981596 10,31.768604 10,37.344357 10,48.962407 25.520613,55 32.052339,55 35.328456,55 37.943294,54.364987 39.605025,53.723131 46.536168,50.740273 48.660093,40.84851 56,37 55.297111,36.072603 55.052608,34.55743 53.79981,34.090887 54.736995,32.930221 55.365639,33.233272 57,33 55.834233,31.606062 54.455218,29.91724 52.820859,29.91724 55.620986,29.217426 58,23.487691 58,20 57.06853,22.321334 50.481871,29 36.949827,29 27.508416,28.191135 25.152589,18.819439 21.97571,12.354128 20.727187,10.304767 18.476975,9.0026274 15.998095,8.999964 Z"/>
 <path style="fill:#d8bfa2" d="m 15.998095,7.999964 c -3.712077,0.00442 -6.7752732,2.892941 -6.9811752,6.583091 -0.019871,0.166546 -0.017061,0.333407 -0.016408,0.498223 4.55e-5,0.0028 -4.86e-5,0.0055 0,0.0083 0.02707,1.516392 0.5503528,2.982708 1.4903032,4.176369 C 11.649054,20.830875 13,21.991343 13,24.033051 13,27.981596 10,30.768604 10,36.344357 10,47.962407 25.520613,54 32.052339,54 35.328456,54 37.943294,53.364987 39.605025,52.723131 46.536168,49.740273 48.660093,39.84851 56,36 55.297111,35.072603 55.052608,33.55743 53.79981,33.090887 54.736995,31.930221 55.365639,32.233272 57,32 55.834233,30.606062 54.455218,28.91724 52.820859,28.91724 55.620986,28.217426 58,22.487691 58,19 57.06853,21.321334 50.481871,28 36.949827,28 27.508416,27.191135 25.152589,17.819439 21.97571,11.354128 20.727187,9.3047672 18.476975,8.0026274 15.998095,7.999964 Z"/>
 <path style="opacity:0.2" d="M 14.5,17 C 15.744897,17 17,15.744897 17,14.5 17,13.255103 15.755103,12 14.5,12 13.244897,12 12,13.255103 12,14.5 c 0,1.244897 1.244897,2.5 2.5,2.5 z"/>
 <path style="fill:#8b9cbe" d="M 14.5,16 C 15.744897,16 17,14.744897 17,13.5 17,12.255103 15.755103,11 14.5,11 13.244897,11 12,12.255103 12,13.5 c 0,1.244897 1.244897,2.5 2.5,2.5 z"/>
 <circle style="fill:#17191e" cx="14.5" cy="13.5" r="1.5"/>
 <path style="fill:#8b9cbe;opacity:0.1" d="M 19 4 C 17.885682 4 16.923586 4.6162963 16.40625 5.5195312 C 15.559227 4.9240584 14.417622 4.8112613 13.451172 5.3457031 C 12.369605 5.9388207 11.847099 7.1493725 12.058594 8.3027344 C 12.204689 7.5011184 12.684052 6.766382 13.451172 6.3457031 C 14.417622 5.8112613 15.559227 5.9240584 16.40625 6.5195312 C 16.923586 5.6162964 17.885682 5 19 5 C 20.655369 5 22 6.3446328 22 8 C 22 8.0180998 21.994461 8.0347102 21.994141 8.0527344 C 22.316084 8.0988606 22.63814 8.1730539 22.949219 8.3144531 C 24.060478 8.819573 24.775441 9.8351349 24.953125 10.957031 C 25.148627 9.4721716 24.385009 7.9670867 22.949219 7.3144531 C 22.63814 7.1730539 22.316084 7.0988606 21.994141 7.0527344 C 21.994461 7.0347102 22 7.0180998 22 7 C 22 5.3446328 20.655369 4 19 4 z M 18.035156 10.820312 C 18.041638 10.891917 18.04192 10.964303 18.052734 11.035156 C 18.061635 10.969246 18.061484 10.90366 18.074219 10.837891 C 18.060459 10.833391 18.048819 10.824995 18.035156 10.820312 z"/>
 <path style="fill:#8b9cbe;opacity:0.2" d="M 15.998047 8 C 12.28597 8.00442 9.2234801 10.893834 9.0175781 14.583984 C 8.9977071 14.75053 8.999347 14.917215 9 15.082031 C 9.0000455 15.084831 8.9999514 15.087044 9 15.089844 C 9.0020205 15.203026 9.0256869 15.31325 9.0332031 15.425781 C 9.3171016 11.812259 12.33964 9.0043561 15.998047 9 C 18.476927 9.0026634 20.72804 10.304155 21.976562 12.353516 C 25.153441 18.818827 27.507808 28.191135 36.949219 29 C 50.197526 29 56.773294 22.608915 57.917969 20.162109 C 57.967706 19.75692 58 19.364511 58 19 C 57.06853 21.321334 50.481263 28 36.949219 28 C 27.507808 27.191135 25.153441 17.818827 21.976562 11.353516 C 20.72804 9.3041548 18.476927 8.0026634 15.998047 8 z M 12.970703 24.679688 C 12.673821 28.29902 10 31.077238 10 36.34375 C 10 36.492265 10.012557 36.636513 10.017578 36.783203 C 10.210853 31.58169 13 28.845286 13 25.033203 C 13 24.909031 12.98035 24.797629 12.970703 24.679688 z M 54.078125 29.248047 C 53.672965 29.569296 53.252775 29.809887 52.820312 29.917969 C 54.102782 29.917969 55.224534 30.95683 56.212891 32.078125 C 56.455627 32.058981 56.696207 32.04336 57 32 C 56.146145 30.979024 55.177322 29.805955 54.078125 29.248047 z M 54.431641 33.490234 C 54.226632 33.627514 54.02296 33.816637 53.800781 34.091797 C 54.757606 34.448119 55.126612 35.413017 55.560547 36.263672 C 55.709119 36.178307 55.846985 36.08023 56 36 C 55.437098 35.257303 55.159886 34.146383 54.431641 33.490234 z"/>
</svg>
