<svg xmlns="http://www.w3.org/2000/svg" width="64" height="64" version="1">
 <rect style="fill:#387068" width="56" height="56" x="4" y="4" rx="28" ry="28"/>
 <g style="opacity:0.2" transform="matrix(1.9999714,0,0,1.9999135,5.760572e-5,1.0015652)">
  <path d="m 16.357,19.003 c -2.1509,-0.02003 -4.1388,0.06808 -5.8653,0.26345 -3.0909,0.34974 -4.36,0.50541 -4.4427,0.54725 -0.14857,0.07517 0.025007,0.1537 0.7238,0.32452 0.42359,0.10355 0.7035,0.2197 0.78253,0.32452 0.097186,0.1289 0.15087,0.14411 0.25546,0.07305 0.20369,-0.1384 0.68994,0.03039 1.1202,0.38798 0.38685,0.32151 0.47655,0.35714 0.57258,0.22992 0.031993,-0.04239 0.21412,-0.07836 0.40521,-0.07904 0.1911,-6.66e-4 0.41029,-0.03312 0.48743,-0.07305 0.09688,-0.05014 0.23649,-0.02636 0.4522,0.07784 0.17175,0.08296 0.45302,0.15088 0.62397,0.15088 0.17095,0 0.55975,0.10483 0.86475,0.23231 0.30499,0.12748 0.93176,0.37532 1.3933,0.55084 0.46152,0.17553 1.1606,0.46829 1.5533,0.65143 0.39274,0.18314 0.75716,0.33413 0.80896,0.3353 0.05177,0.0011 0.24162,-0.07244 0.42283,-0.16406 0.75818,-0.38332 3.2928,-1.3747 3.5148,-1.3747 0.13226,0 0.26786,-0.038 0.30244,-0.08382 0.03489,-0.04621 0.16634,-0.06118 0.2951,-0.03472 0.17542,0.03605 0.31175,-0.0099 0.5579,-0.18681 0.39974,-0.28735 0.9573,-0.32651 1.1452,-0.08023 0.16253,0.21308 0.26735,0.19477 0.61516,-0.10777 0.40751,-0.35448 0.85811,-0.5308 1.1995,-0.46942 0.20404,0.03669 0.35052,0.003 0.58139,-0.13532 0.16977,-0.10176 0.49816,-0.2326 0.73115,-0.28979 0.54592,-0.13402 0.59861,-0.15812 0.50358,-0.23471 -0.10434,-0.0841 -1.7561,-0.35628 -2.7616,-0.45504 -2.3779,-0.23357 -4.6922,-0.36077 -6.8431,-0.3808 z m -1.5269,0.52689 c 0.20404,-0.0058 0.36851,0.03926 0.36851,0.13771 0,0.21988 -1.1224,1.0089 -1.6752,1.1783 -0.61442,0.18838 -0.63429,0.18868 -0.86622,-0.0012 -0.36815,-0.3014 -0.17651,-0.51041 0.73702,-0.80351 0.31856,-0.10221 0.69141,-0.25808 0.82804,-0.34607 0.15994,-0.103 0.40378,-0.15944 0.60782,-0.16525 z m 2.4827,0.006 c 0.34243,0.0017 1.3473,0.34337 1.728,0.61072 0.19073,0.13394 0.21016,0.1972 0.15416,0.50294 -0.03522,0.19226 -0.11292,0.34822 -0.17177,0.34607 -0.14881,-0.0054 -0.88908,-0.37392 -1.3096,-0.65143 -0.32532,-0.21468 -0.62699,-0.68572 -0.50358,-0.78675 0.01813,-0.01485 0.05386,-0.02179 0.10277,-0.02155 z m -4.6262,0.05508 c 0.12951,0.0607 -0.22165,0.31813 -0.50358,0.36883 -0.14638,0.02632 -0.3187,0.09921 -0.38319,0.16286 -0.06453,0.06366 -0.22649,0.1607 -0.3597,0.21555 -0.37709,0.15524 -0.68605,0.18588 -1.0189,0.10059 -0.26936,-0.06903 -0.43994,-0.2874 -0.22463,-0.2874 0.04455,0 0.24495,-0.09257 0.44632,-0.20597 0.26896,-0.15145 0.57941,-0.23068 1.1672,-0.29818 0.44007,-0.05058 0.83432,-0.07606 0.87649,-0.05628 z m 7.0942,0.03232 c 0.10121,-0.0043 0.24687,0.0014 0.42577,0.01676 0.42863,0.03668 0.64746,0.09882 0.82364,0.23351 0.13195,0.10089 0.38565,0.24365 0.56377,0.31733 0.30576,0.12648 0.31404,0.13939 0.14682,0.2395 -0.20912,0.1252 -0.16223,0.12924 -0.7473,-0.05988 -0.55316,-0.17881 -1.3713,-0.59931 -1.3713,-0.70532 0,-0.02301 0.05735,-0.03756 0.15856,-0.04191 z m -3.6249,0.02754 0.22903,0.23112 c 0.1257,0.12716 0.29936,0.36076 0.38613,0.51971 0.08677,0.15895 0.18565,0.2886 0.22022,0.2886 0.14839,0 1.1246,0.58225 1.1246,0.67059 0,0.10874 -0.47401,0.3317 -0.70472,0.3317 -0.08227,0 -0.36957,0.12108 -0.63865,0.26943 -0.58082,0.32024 -0.74708,0.32761 -1.245,0.05389 -0.20709,-0.11385 -0.58826,-0.29377 -0.84713,-0.39996 -0.25886,-0.10619 -0.46981,-0.24414 -0.46981,-0.30656 0,-0.06242 0.24308,-0.24493 0.54028,-0.40595 0.33378,-0.18083 0.60822,-0.40327 0.7194,-0.58078 0.099,-0.15805 0.29405,-0.37303 0.43311,-0.47899 l 0.25252,-0.1928 z m -6.5069,0.137 c 0.20028,0.02202 0.17415,0.13825 -0.11745,0.2838 C 9.36073,20.1569 9.17813,20.2245 9.12634,20.22131 8.92606,20.20899 8.51558,20.05754 8.51558,19.99618 c 0,-0.0627 0.14768,-0.09645 0.85888,-0.19639 0.11574,-0.01627 0.20779,-0.01931 0.27455,-0.01197 z m 13.313,0.06347 c 0.18765,-0.0034 0.42296,0.01742 0.61369,0.06228 l 0.23491,0.05508 -0.30097,0.12933 c -0.16569,0.0713 -0.35555,0.12828 -0.42283,0.12693 -0.16864,-0.0034 -0.45219,-0.18784 -0.45219,-0.29458 0,-0.04832 0.13975,-0.07562 0.3274,-0.07904 z m -3.1463,0.69454 c 0.1524,0.003 0.2866,0.06941 0.2305,0.1437 -0.0758,0.10042 -0.39548,0.10042 -0.47128,0 -0.03222,-0.04269 0.0071,-0.09791 0.08809,-0.12334 0.04831,-0.01518 0.10189,-0.02139 0.15269,-0.02035 z m -7.724,0.02874 c 0.06904,0 0.14286,0.04282 0.16443,0.0958 0.02334,0.0573 -0.0431,0.097 -0.16443,0.097 -0.12135,0 -0.18774,-0.03969 -0.16444,-0.097 0.02156,-0.05298 0.09543,-0.0958 0.16444,-0.0958 z"/>
  <path d="m 25.404,18.755 c -1.5067,-0.32064 -1.5258,-0.33944 -1.2974,-1.2722 0.17921,-0.73163 0.5366,-1.4834 0.70521,-1.4834 0.27439,0 0.62273,0.24043 0.78168,0.53953 0.09992,0.188 0.26919,0.40904 0.37617,0.49119 0.13921,0.10691 0.1945,0.27272 0.1945,0.58333 0,0.5041 0.19292,0.86971 0.56934,1.079 0.14661,0.08151 0.26656,0.18718 0.26656,0.23482 0,0.13017 -0.35509,0.09185 -1.5961,-0.17225 z"/>
  <path d="m 9.8635,12 -0.4786,0.224 c -0.6204,0.29 -0.9075,0.66 -1.0726,1.385 -0.0735,0.323 -0.2142,0.67 -0.313,0.773 -0.0987,0.103 -0.3035,0.58 -0.4543,1.06 -0.1507,0.479 -0.3273,0.94 -0.3935,1.023 C 7.0433,16.601 7.0134,16.587 6.8689,16.33 6.7805,16.173 6.6667,16.045 6.6152,16.045 c -0.17686,0 -0.61862,0.76037 -0.79917,1.3752 -0.20496,0.698 -0.39955,1.085 -0.68978,1.3766 -0.14764,0.14832 -0.16297,0.20188 -0.060773,0.20302 0.1182,0.0013 3.026,-0.40363 4.3635,-0.60767 0.41543,-0.06337 0.43107,-0.07796 0.59254,-0.56039 0.09108,-0.2721 0.31223,-0.74789 0.49226,-1.0582 l 0.32666,-0.56456 -0.01216,-1.5671 c -0.01402,-1.6971 0.0077,-1.6197 -0.6366,-2.2972 l -0.3275,-0.345 z m 0.88881,5.1617 c -0.04181,0.0067 -0.0836,0.04102 -0.12155,0.10846 -0.17671,0.31399 -0.32512,0.83028 -0.26436,0.92054 0.07802,0.11595 0.20727,0.11557 0.44516,-0.0014 0.143,-0.07 0.189,-0.189 0.189,-0.482 0,-0.337 -0.122,-0.566 -0.248,-0.546 z"/>
  <path d="m 21.689,17.86 c -2.6224,-0.43244 -5.6127,-0.55428 -7.9942,-0.32575 -0.81026,0.07775 -1.3288,0.09162 -1.3785,0.03687 -0.04379,-0.04828 -0.14241,-0.47289 -0.21914,-0.94358 -0.13167,-0.80775 -0.13088,-0.90708 0.01415,-1.7689 0.21826,-1.2971 0.32336,-1.6374 0.63981,-2.0715 0.28475,-0.39059 0.57637,-0.49642 0.73388,-0.26634 0.18712,0.27333 0.53406,1.7007 0.53406,2.1972 0,0.81618 0.16339,0.47523 0.26261,-0.54801 0.09738,-1.0042 0.12407,-1.1373 0.52564,-2.6208 0.16203,-0.59861 0.32178,-1.3866 0.35498,-1.7511 0.03566,-0.3912 0.11997,-0.74904 0.20586,-0.8735 0.08001,-0.11595 0.19469,-0.34606 0.25483,-0.51135 0.18853,-0.51819 0.25722,-0.52828 1.0136,-0.14882 l 0.69113,0.34671 0.20259,0.70527 c 0.11142,0.3879 0.28164,0.92574 0.37826,1.1952 0.09662,0.26946 0.32521,1.1289 0.50797,1.9099 0.20359,0.86997 0.3864,1.4635 0.47199,1.5325 0.15792,0.12729 0.50478,1.1182 0.59309,1.6944 0.03222,0.20998 0.11511,0.45923 0.18427,0.55389 0.11341,0.15522 0.12056,0.11711 0.07294,-0.38843 -0.02904,-0.3083 -0.09013,-0.71931 -0.13575,-0.91337 -0.10236,-0.43542 0.01496,-1.2139 0.25072,-1.6635 0.09206,-0.17558 0.2506,-0.65555 0.3523,-1.0666 0.23719,-0.95874 0.31153,-1.0491 0.68846,-0.83641 0.72618,0.40969 0.87421,0.62266 1.1694,1.6825 0.15267,0.54808 0.35048,1.1327 0.43958,1.2992 0.18831,0.35181 0.49483,1.795 0.49682,2.339 0.0027,0.65303 -0.26672,1.3889 -0.49106,1.3428 -0.03161,-0.0065 -0.40075,-0.06841 -0.82027,-0.13759 z"/>
 </g>
 <g style="fill:#ffcd59" transform="matrix(1.9999714,0,0,1.9999135,5.760572e-5,0.00156516)">
  <path d="m 16.357,19.003 c -2.1509,-0.02003 -4.1388,0.06808 -5.8653,0.26345 -3.0909,0.34974 -4.36,0.50541 -4.4427,0.54725 -0.14857,0.07517 0.025007,0.1537 0.7238,0.32452 0.42359,0.10355 0.7035,0.2197 0.78253,0.32452 0.097186,0.1289 0.15087,0.14411 0.25546,0.07305 0.20369,-0.1384 0.68994,0.03039 1.1202,0.38798 0.38685,0.32151 0.47655,0.35714 0.57258,0.22992 0.031993,-0.04239 0.21412,-0.07836 0.40521,-0.07904 0.1911,-6.66e-4 0.41029,-0.03312 0.48743,-0.07305 0.09688,-0.05014 0.23649,-0.02636 0.4522,0.07784 0.17175,0.08296 0.45302,0.15088 0.62397,0.15088 0.17095,0 0.55975,0.10483 0.86475,0.23231 0.30499,0.12748 0.93176,0.37532 1.3933,0.55084 0.46152,0.17553 1.1606,0.46829 1.5533,0.65143 0.39274,0.18314 0.75716,0.33413 0.80896,0.3353 0.05177,0.0011 0.24162,-0.07244 0.42283,-0.16406 0.75818,-0.38332 3.2928,-1.3747 3.5148,-1.3747 0.13226,0 0.26786,-0.038 0.30244,-0.08382 0.03489,-0.04621 0.16634,-0.06118 0.2951,-0.03472 0.17542,0.03605 0.31175,-0.0099 0.5579,-0.18681 0.39974,-0.28735 0.9573,-0.32651 1.1452,-0.08023 0.16253,0.21308 0.26735,0.19477 0.61516,-0.10777 0.40751,-0.35448 0.85811,-0.5308 1.1995,-0.46942 0.20404,0.03669 0.35052,0.003 0.58139,-0.13532 0.16977,-0.10176 0.49816,-0.2326 0.73115,-0.28979 0.54592,-0.13402 0.59861,-0.15812 0.50358,-0.23471 -0.10434,-0.0841 -1.7561,-0.35628 -2.7616,-0.45504 -2.3779,-0.23357 -4.6922,-0.36077 -6.8431,-0.3808 z m -1.5269,0.52689 c 0.20404,-0.0058 0.36851,0.03926 0.36851,0.13771 0,0.21988 -1.1224,1.0089 -1.6752,1.1783 -0.61442,0.18838 -0.63429,0.18868 -0.86622,-0.0012 -0.36815,-0.3014 -0.17651,-0.51041 0.73702,-0.80351 0.31856,-0.10221 0.69141,-0.25808 0.82804,-0.34607 0.15994,-0.103 0.40378,-0.15944 0.60782,-0.16525 z m 2.4827,0.006 c 0.34243,0.0017 1.3473,0.34337 1.728,0.61072 0.19073,0.13394 0.21016,0.1972 0.15416,0.50294 -0.03522,0.19226 -0.11292,0.34822 -0.17177,0.34607 -0.14881,-0.0054 -0.88908,-0.37392 -1.3096,-0.65143 -0.32532,-0.21468 -0.62699,-0.68572 -0.50358,-0.78675 0.01813,-0.01485 0.05386,-0.02179 0.10277,-0.02155 z m -4.6262,0.05508 c 0.12951,0.0607 -0.22165,0.31813 -0.50358,0.36883 -0.14638,0.02632 -0.3187,0.09921 -0.38319,0.16286 -0.06453,0.06366 -0.22649,0.1607 -0.3597,0.21555 -0.37709,0.15524 -0.68605,0.18588 -1.0189,0.10059 -0.26936,-0.06903 -0.43994,-0.2874 -0.22463,-0.2874 0.04455,0 0.24495,-0.09257 0.44632,-0.20597 0.26896,-0.15145 0.57941,-0.23068 1.1672,-0.29818 0.44007,-0.05058 0.83432,-0.07606 0.87649,-0.05628 z m 7.0942,0.03232 c 0.10121,-0.0043 0.24687,0.0014 0.42577,0.01676 0.42863,0.03668 0.64746,0.09882 0.82364,0.23351 0.13195,0.10089 0.38565,0.24365 0.56377,0.31733 0.30576,0.12648 0.31404,0.13939 0.14682,0.2395 -0.20912,0.1252 -0.16223,0.12924 -0.7473,-0.05988 -0.55316,-0.17881 -1.3713,-0.59931 -1.3713,-0.70532 0,-0.02301 0.05735,-0.03756 0.15856,-0.04191 z m -3.6249,0.02754 0.22903,0.23112 c 0.1257,0.12716 0.29936,0.36076 0.38613,0.51971 0.08677,0.15895 0.18565,0.2886 0.22022,0.2886 0.14839,0 1.1246,0.58225 1.1246,0.67059 0,0.10874 -0.47401,0.3317 -0.70472,0.3317 -0.08227,0 -0.36957,0.12108 -0.63865,0.26943 -0.58082,0.32024 -0.74708,0.32761 -1.245,0.05389 -0.20709,-0.11385 -0.58826,-0.29377 -0.84713,-0.39996 -0.25886,-0.10619 -0.46981,-0.24414 -0.46981,-0.30656 0,-0.06242 0.24308,-0.24493 0.54028,-0.40595 0.33378,-0.18083 0.60822,-0.40327 0.7194,-0.58078 0.099,-0.15805 0.29405,-0.37303 0.43311,-0.47899 l 0.25252,-0.1928 z m -6.5069,0.137 c 0.20028,0.02202 0.17415,0.13825 -0.11745,0.2838 C 9.36073,20.1569 9.17813,20.2245 9.12634,20.22131 8.92606,20.20899 8.51558,20.05754 8.51558,19.99618 c 0,-0.0627 0.14768,-0.09645 0.85888,-0.19639 0.11574,-0.01627 0.20779,-0.01931 0.27455,-0.01197 z m 13.313,0.06347 c 0.18765,-0.0034 0.42296,0.01742 0.61369,0.06228 l 0.23491,0.05508 -0.30097,0.12933 c -0.16569,0.0713 -0.35555,0.12828 -0.42283,0.12693 -0.16864,-0.0034 -0.45219,-0.18784 -0.45219,-0.29458 0,-0.04832 0.13975,-0.07562 0.3274,-0.07904 z m -3.1463,0.69454 c 0.1524,0.003 0.2866,0.06941 0.2305,0.1437 -0.0758,0.10042 -0.39548,0.10042 -0.47128,0 -0.03222,-0.04269 0.0071,-0.09791 0.08809,-0.12334 0.04831,-0.01518 0.10189,-0.02139 0.15269,-0.02035 z m -7.724,0.02874 c 0.06904,0 0.14286,0.04282 0.16443,0.0958 0.02334,0.0573 -0.0431,0.097 -0.16443,0.097 -0.12135,0 -0.18774,-0.03969 -0.16444,-0.097 0.02156,-0.05298 0.09543,-0.0958 0.16444,-0.0958 z"/>
  <path d="m 25.404,18.755 c -1.5067,-0.32064 -1.5258,-0.33944 -1.2974,-1.2722 0.17921,-0.73163 0.5366,-1.4834 0.70521,-1.4834 0.27439,0 0.62273,0.24043 0.78168,0.53953 0.09992,0.188 0.26919,0.40904 0.37617,0.49119 0.13921,0.10691 0.1945,0.27272 0.1945,0.58333 0,0.5041 0.19292,0.86971 0.56934,1.079 0.14661,0.08151 0.26656,0.18718 0.26656,0.23482 0,0.13017 -0.35509,0.09185 -1.5961,-0.17225 z"/>
  <path d="m 9.8635,12 -0.4786,0.224 c -0.6204,0.29 -0.9075,0.66 -1.0726,1.385 -0.0735,0.323 -0.2142,0.67 -0.313,0.773 -0.0987,0.103 -0.3035,0.58 -0.4543,1.06 -0.1507,0.479 -0.3273,0.94 -0.3935,1.023 C 7.0433,16.601 7.0134,16.587 6.8689,16.33 6.7805,16.173 6.6667,16.045 6.6152,16.045 c -0.17686,0 -0.61862,0.76037 -0.79917,1.3752 -0.20496,0.698 -0.39955,1.085 -0.68978,1.3766 -0.14764,0.14832 -0.16297,0.20188 -0.060773,0.20302 0.1182,0.0013 3.026,-0.40363 4.3635,-0.60767 0.41543,-0.06337 0.43107,-0.07796 0.59254,-0.56039 0.09108,-0.2721 0.31223,-0.74789 0.49226,-1.0582 l 0.32666,-0.56456 -0.01216,-1.5671 c -0.01402,-1.6971 0.0077,-1.6197 -0.6366,-2.2972 l -0.3275,-0.345 z m 0.88881,5.1617 c -0.04181,0.0067 -0.0836,0.04102 -0.12155,0.10846 -0.17671,0.31399 -0.32512,0.83028 -0.26436,0.92054 0.07802,0.11595 0.20727,0.11557 0.44516,-0.0014 0.143,-0.07 0.189,-0.189 0.189,-0.482 0,-0.337 -0.122,-0.566 -0.248,-0.546 z"/>
  <path d="m 21.689,17.86 c -2.6224,-0.43244 -5.6127,-0.55428 -7.9942,-0.32575 -0.81026,0.07775 -1.3288,0.09162 -1.3785,0.03687 -0.04379,-0.04828 -0.14241,-0.47289 -0.21914,-0.94358 -0.13167,-0.80775 -0.13088,-0.90708 0.01415,-1.7689 0.21826,-1.2971 0.32336,-1.6374 0.63981,-2.0715 0.28475,-0.39059 0.57637,-0.49642 0.73388,-0.26634 0.18712,0.27333 0.53406,1.7007 0.53406,2.1972 0,0.81618 0.16339,0.47523 0.26261,-0.54801 0.09738,-1.0042 0.12407,-1.1373 0.52564,-2.6208 0.16203,-0.59861 0.32178,-1.3866 0.35498,-1.7511 0.03566,-0.3912 0.11997,-0.74904 0.20586,-0.8735 0.08001,-0.11595 0.19469,-0.34606 0.25483,-0.51135 0.18853,-0.51819 0.25722,-0.52828 1.0136,-0.14882 l 0.69113,0.34671 0.20259,0.70527 c 0.11142,0.3879 0.28164,0.92574 0.37826,1.1952 0.09662,0.26946 0.32521,1.1289 0.50797,1.9099 0.20359,0.86997 0.3864,1.4635 0.47199,1.5325 0.15792,0.12729 0.50478,1.1182 0.59309,1.6944 0.03222,0.20998 0.11511,0.45923 0.18427,0.55389 0.11341,0.15522 0.12056,0.11711 0.07294,-0.38843 -0.02904,-0.3083 -0.09013,-0.71931 -0.13575,-0.91337 -0.10236,-0.43542 0.01496,-1.2139 0.25072,-1.6635 0.09206,-0.17558 0.2506,-0.65555 0.3523,-1.0666 0.23719,-0.95874 0.31153,-1.0491 0.68846,-0.83641 0.72618,0.40969 0.87421,0.62266 1.1694,1.6825 0.15267,0.54808 0.35048,1.1327 0.43958,1.2992 0.18831,0.35181 0.49483,1.795 0.49682,2.339 0.0027,0.65303 -0.26672,1.3889 -0.49106,1.3428 -0.03161,-0.0065 -0.40075,-0.06841 -0.82027,-0.13759 z"/>
 </g>
 <path style="opacity:0.2;fill:#8b9cbe" d="M 32 4 C 16.488222 4 4 16.488222 4 32 C 4 32.113554 4.0112846 32.224034 4.0175781 32.335938 C 4.3691163 17.134398 16.710946 5 32 5 C 47.289054 5 59.630884 17.134398 59.982422 32.335938 C 59.988797 32.224034 60 32.113554 60 32 C 60 16.488222 47.511778 4 32 4 z"/>
 <path style="opacity:0.2" d="M 4.0488281 33 C 4.0490359 33.005918 4.0505699 33.011661 4.0507812 33.017578 C 4.0510045 33.011726 4.0505744 33.005856 4.0507812 33 L 4.0488281 33 z M 4.0507812 33.017578 C 4.0382711 33.345515 4 33.66793 4 34 C 4 34.224034 4.0123969 34.445225 4.0175781 34.667969 C 4.0296765 34.451309 4.0424994 34.234675 4.0507812 34.017578 C 4.0505699 34.011661 4.0490359 34.005918 4.0488281 34 L 4.0507812 34 C 4.0505744 34.005856 4.0510045 34.011726 4.0507812 34.017578 C 4.587791 49.051018 16.83157 61 32 61 C 47.174 61 59.421219 49.041785 59.949219 34 C 59.957015 34.222263 59.969975 34.443042 59.982422 34.664062 C 59.987543 34.442613 60 34.222724 60 34 C 60 33.662324 59.960959 33.334715 59.949219 33 C 59.421227 48.041785 47.17183 60 31.998047 60 C 16.829834 60 4.5877832 48.051018 4.0507812 33.017578 z"/>
</svg>
