<svg xmlns="http://www.w3.org/2000/svg" width="64" height="64" version="1.1">
 <path style="opacity:0.2" d="M 32,5 A 28,28 0 0 0 4,33 28,28 0 0 0 32,61 28,28 0 0 0 60,33 28,28 0 0 0 32,5 Z"/>
 <path style="fill:#23b7fb" d="M 32,4 A 28,28 0 0 0 4,32 28,28 0 0 0 32,60 28,28 0 0 0 60,32 28,28 0 0 0 32,4 Z"/>
 <path style="opacity:0.2" d="m 16,20.99998 16,16 16,-16 -32,0 z M 48,24.03904 37.51954,34.51952 48,44.99998 48,24.03904 Z m -32,0.002 0,20.95898 L 26.48048,34.51952 16,24.041 Z m 11.89454,11.89254 -9.0664,9.0664 26.34374,0 -9.0664,-9.0664 -1.82618,1.82616 c -1.0134,1.01264 -3.54518,1.01264 -4.55858,0 l -1.82618,-1.82616 z"/>
 <path style="fill:#a7ffe8" d="m 16,19.99998 16,16 16,-16 -32,0 z M 48,23.03904 37.51954,33.51952 48,43.99998 48,23.03904 Z m -32,0.002 0,20.95898 L 26.48048,33.51952 16,23.041 Z m 11.89454,11.89254 -9.0664,9.0664 26.34374,0 -9.0664,-9.0664 -1.82618,1.82616 c -1.0134,1.01264 -3.54518,1.01264 -4.55858,0 l -1.82618,-1.82616 z"/>
 <path style="opacity:0.2;fill:#8b9cbe" d="M 32 4 A 28 28 0 0 0 4 32 A 28 28 0 0 0 4.0214844 32.40625 A 28 28 0 0 1 32 5 A 28 28 0 0 1 59.978516 32.578125 A 28 28 0 0 0 60 32 A 28 28 0 0 0 32 4 z"/>
</svg>
