<svg xmlns="http://www.w3.org/2000/svg" width="64" height="64" version="1">
 <path style="opacity:0.2" d="M 32.996094,12 C 28.967798,12.002653 25.23,13.562755 22.226562,16.058594 22.15237,16.057284 22.089904,16.000129 22.015624,16 H 22.007812 22 C 14.785942,16 8.8973774,21.734886 8.2460938,28.800782 5.6624516,31.53371 4.0018604,35.09222 4,38.996094 V 39 c 0,8.189514 6.810486,15 15,15 2.08711,2.4e-5 4.042504,-0.66078 5.90625,-1.472656 2.221324,0.954062 4.625598,1.472004 7.089844,1.472656 h 0.0118 0.0118 c 1.89616,-0.0044 3.756398,-0.339002 5.539062,-0.921876 C 39.29891,53.66887 41.124338,53.996816 42.984538,54 h 0.0078 H 43 C 52.294084,54 60,46.294084 60,37 60,29.443056 54.818418,23.176228 47.917968,21.007812 45.020506,15.659865 39.378888,12.007683 33.007812,12 h -0.004 z"/>
 <path style="fill:#1da6e8" d="M 32.996094,11 C 28.967798,11.002653 25.23,12.562755 22.226562,15.058594 22.15237,15.057284 22.089904,15.000129 22.015624,15 H 22.007812 22 C 14.785942,15 8.8973774,20.734887 8.2460938,27.800782 5.6624516,30.53371 4.0018604,34.09222 4,37.996094 V 38 c 0,8.189514 6.810486,15 15,15 2.08711,2.4e-5 4.042504,-0.66078 5.90625,-1.472656 2.221324,0.954062 4.625598,1.472004 7.089844,1.472656 h 0.0118 0.0118 c 1.89616,-0.0044 3.756398,-0.339002 5.539062,-0.921876 C 39.29891,52.66887 41.124338,52.996816 42.984538,53 h 0.0078 H 43 C 52.294084,53 60,45.294084 60,36 60,28.443056 54.818418,22.176228 47.917968,20.007812 45.020506,14.659865 39.378888,11.007683 33.007812,11 h -0.004 z"/>
 <circle style="opacity:0.2" cx="19" cy="39" r="7"/>
 <circle style="fill:#ffe174" cx="19" cy="38" r="7"/>
 <circle style="opacity:0.2" cx="22" cy="30" r="6"/>
 <circle style="fill:#ffd338" cx="22" cy="29" r="6"/>
 <circle style="opacity:0.2" cx="33" cy="30" r="9"/>
 <circle style="fill:#ffb822" cx="33" cy="28" r="9"/>
 <circle style="opacity:0.2" cx="43" cy="37" r="9"/>
 <circle style="fill:#ff7c2d" cx="43" cy="36" r="9"/>
 <circle style="opacity:0.2" cx="32" cy="36" r="10"/>
 <circle style="fill:#ff972d" cx="32" cy="35" r="10"/>
 <path style="opacity:0.2;fill:#8b9cbe" d="M 32.996094 11 C 28.967798 11.002653 25.23 12.562755 22.226562 15.058594 C 22.15237 15.057284 22.089905 15.000129 22.015625 15 L 22.007812 15 L 22 15 C 14.785942 15 8.8973773 20.734886 8.2460938 27.800781 C 5.6624515 30.533709 4.0018604 34.09222 4 37.996094 L 4 38 C 4 38.169947 4.0195735 38.335196 4.0253906 38.503906 C 4.1609227 34.794921 5.7722765 31.417539 8.2460938 28.800781 C 8.8973773 21.734886 14.785942 16 22 16 L 22.007812 16 L 22.015625 16 C 22.089905 16.000129 22.15237 16.057284 22.226562 16.058594 C 25.23 13.562755 28.967798 12.002653 32.996094 12 L 33.003906 12 L 33.007812 12 C 39.378888 12.007683 45.020507 15.659865 47.917969 21.007812 C 54.651802 23.12387 59.734347 29.146904 59.976562 36.458984 C 59.980808 36.305123 60 36.15477 60 36 C 60 28.443056 54.818419 22.176228 47.917969 20.007812 C 45.020507 14.659865 39.378888 11.007683 33.007812 11 L 33.003906 11 L 32.996094 11 z"/>
</svg>
