<svg xmlns="http://www.w3.org/2000/svg" width="64" height="64" version="1">
 <circle style="opacity:0.2" cx="32" cy="33" r="28"/>
 <circle style="fill:#4f4f4f" cx="32" cy="32" r="28"/>
 <path style="opacity:0.2" d="m 32,14 a 3,3 0 0 0 -3,3 3,3 0 0 0 3,3 3,3 0 0 0 3,-3 3,3 0 0 0 -3,-3 z M 12.400391,18 25,26.5 31,56.800781 V 33 h 2 V 56.800781 L 39,26.5 51.599609,18 33,23.353516 V 29 h -2 v -5.646484 z"/>
 <path style="fill:#f68220" d="M 32 13 A 3 3 0 0 0 29 16 A 3 3 0 0 0 32 19 A 3 3 0 0 0 35 16 A 3 3 0 0 0 32 13 z M 12.400391 17 L 25 25.5 L 31 55.800781 L 31 32 L 33 32 L 33 55.800781 L 39 25.5 L 51.599609 17 L 33 22.353516 L 33 28 L 31 28 L 31 22.353516 L 12.400391 17 z"/>
 <path style="fill:#8b9cbe;opacity:0.1" d="M 32 4 A 28 28 0 0 0 4 32 A 28 28 0 0 0 4.0214844 32.585938 A 28 28 0 0 1 32 5 A 28 28 0 0 1 59.978516 32.414062 A 28 28 0 0 0 60 32 A 28 28 0 0 0 32 4 z"/>
 <path style="opacity:0.2;fill:#8b9cbe" d="M 32 13 A 3 3 0 0 0 29 16 A 3 3 0 0 0 29.042969 16.486328 A 3 3 0 0 1 32 14 A 3 3 0 0 1 34.957031 16.513672 A 3 3 0 0 0 35 16 A 3 3 0 0 0 32 13 z M 12.400391 17 L 14.986328 18.744141 L 31 23.353516 L 31 22.353516 L 12.400391 17 z M 51.599609 17 L 33 22.353516 L 33 23.353516 L 49.013672 18.744141 L 51.599609 17 z M 31 28 L 31 29 L 33 29 L 33 28 L 31 28 z"/>
</svg>
