<svg xmlns="http://www.w3.org/2000/svg" width="64" height="64" version="1">
 <circle style="opacity:0.2" cx="32" cy="33" r="28"/>
 <circle style="fill:#b2bfd9" cx="32" cy="32" r="28"/>
 <path style="opacity:0.2;fill:#8b9cbe" d="M 32 4 A 28 28 0 0 0 4 32 A 28 28 0 0 0 4.0175781 32.492188 A 28 28 0 0 1 32 5 A 28 28 0 0 1 59.974609 32.492188 A 28 28 0 0 0 60 32 A 28 28 0 0 0 32 4 z"/>
 <path style="opacity:0.1" d="m 18.083223,60.768052 c -0.257576,-2.904556 1.972279,-5.408418 2.853093,-8.095346 0.742966,-2.210106 3.481128,-5.357872 0.59689,-7.116374 -3.002052,-1.97546 -8.026153,-1.86514 -10.096692,-2.81699 C 9.9830524,40.235466 14.544968,39.13679 15.333682,37.026006 15.660852,34.1509 11.924894,34.17162 10.06948,33.192594 8.587181,32.82692 6.0454656,31.28526 8.9147474,30.844796 12.446812,29.111312 8.1711612,25.785556 6.8411934,23.975234 5.7987982,22.552628 1.6851853,19.07912 5.7768476,19.100572 8.985201,18.710089 12.236264,18.953013 15.441879,18.604177 c 2.179791,-0.385805 1.103669,-6.071648 3.48986,-2.814905 2.169123,2.339607 2.918077,6.432924 5.911551,7.504102 2.563602,0.91735 2.779456,-4.735186 3.319076,-7.096047 0.552518,-2.417318 0.8489,-5.786301 2.686958,-6.15734 1.323332,3.270444 4.427484,1.890228 6.33272,-0.01884 2.49912,-1.6923828 4.753232,-3.8958232 7.575168,-5.0211572 1.618498,1.819125 0.767438,5.0939252 1.179478,7.4825902 -0.0755,2.524161 -0.08956,7.854724 3.716924,5.008556 3.405228,-1.189752 0.0584,3.160726 -0.747464,4.319138 -1.78607,2.806846 -3.89292,5.418144 -5.520632,8.31802 -1.107146,3.346108 4.195528,2.270018 6.170322,2.76286 1.737278,0.386022 5.409426,-0.29579 5.979978,1.044626 -2.548706,1.231784 -3.423792,4.237788 -1.02433,6.476994 1.774874,1.65634 4.747472,2.916032 5.488512,4.854706 -3.166042,1.936496 -6.973384,1.009794 -10.447304,1.430716 -1.402488,1.09458 0.859608,6.042816 -2.121796,3.73078 -2.363204,-1.07192 -5.295452,-4.50949 -7.656046,-2.477532 -2.082718,1.792772 -0.215402,5.429432 -1.523694,7.747866 -1.49671,-1.442046 -2.693888,-3.42554 -4.579154,-4.548102 -2.206742,-1.25285 -5.262828,-3.784388 -7.520994,-1.86426 -2.18725,1.85983 -2.590188,5.17736 -3.968146,7.696388 -0.931024,1.71912 -1.454152,4.900636 -4.099643,3.78471 z"/>
 <path style="fill:#014c71" d="m 18.083223,59.768052 c -0.257576,-2.904556 1.972279,-5.408418 2.853093,-8.095346 0.742966,-2.210106 3.481128,-5.357872 0.59689,-7.116374 -3.002052,-1.97546 -8.026153,-1.86514 -10.096692,-2.81699 C 9.9830524,39.235466 14.544968,38.13679 15.333682,36.026006 15.660852,33.1509 11.924894,33.17162 10.06948,32.192594 8.587181,31.82692 6.0454656,30.28526 8.9147474,29.844796 12.446812,28.111312 8.1711612,24.785556 6.8411934,22.975234 5.7987982,21.552628 1.6851853,18.07912 5.7768476,18.100572 8.985201,17.710089 12.236264,17.953013 15.441879,17.604177 c 2.179791,-0.385805 1.103669,-6.071648 3.48986,-2.814905 2.169123,2.339607 2.918077,6.432924 5.911551,7.504102 2.563602,0.91735 2.779456,-4.735186 3.319076,-7.096047 0.552518,-2.417318 0.8489,-5.7863006 2.686958,-6.1573398 1.323332,3.2704438 4.427484,1.8902278 6.33272,-0.01884 2.49912,-1.692383 4.753232,-3.8958234 7.575168,-5.0211574 1.618498,1.819125 0.767438,5.0939252 1.179478,7.4825902 -0.0755,2.524161 -0.08956,7.854725 3.716924,5.008556 3.405228,-1.189752 0.0584,3.160727 -0.747464,4.319138 -1.78607,2.806846 -3.89292,5.418144 -5.520632,8.31802 -1.107146,3.346108 4.195528,2.270018 6.170322,2.76286 1.737278,0.386022 5.409426,-0.29579 5.979978,1.044626 -2.548706,1.231784 -3.423792,4.237788 -1.02433,6.476994 1.774874,1.65634 4.747472,2.916032 5.488512,4.854706 -3.166042,1.936496 -6.973384,1.009794 -10.447304,1.430716 -1.402488,1.09458 0.859608,6.042816 -2.121796,3.73078 -2.363204,-1.07192 -5.295452,-4.50949 -7.656046,-2.477532 -2.082718,1.792772 -0.215402,5.429432 -1.523694,7.747866 -1.49671,-1.442046 -2.693888,-3.42554 -4.579154,-4.548102 -2.206742,-1.25285 -5.262828,-3.784388 -7.520994,-1.86426 -2.18725,1.85983 -2.590188,5.17736 -3.968146,7.696388 -0.931024,1.71912 -1.454152,4.900636 -4.099643,3.78471 z"/>
</svg>
