<svg xmlns="http://www.w3.org/2000/svg" width="64" height="64" version="1">
 <path style="opacity:0.2" d="M 8,5 C 8,5 4,5 4,9 V 57 C 4,61 8,61 8,61 H 40 L 60,41 V 9 C 60,5 56,5 56,5 Z"/>
 <path style="fill:#fecd38" d="M 8,4 C 8,4 4,4 4,8 V 56 C 4,60 8,60 8,60 H 40 L 60,40 V 8 C 60,4 56,4 56,4 Z"/>
 <path style="fill:#ffe69b" d="M 60,40 H 43 C 41.344,40 40,41.344 40,43 V 60 Z"/>
 <path style="opacity:0.2;fill:#8b9cbe" d="M 43,40 C 41.344,40 40,41.344 40,43 V 44 C 40,42.344 41.344,41 43,41 H 59 L 60,40 Z"/>
 <path style="opacity:0.5" d="M 32.176,19.904 27,39.222 29.898,40 35.074,20.682 Z M 36,20 V 24 L 41,29 36,34 V 38 L 46,29 Z M 26,22 16,31 26,40 V 36 L 21,31 26,26 Z"/>
 <path style="opacity:0.2;fill:#8b9cbe" d="M 8 4 C 8 4 4 4 4 8 L 4 9 C 4 5 8 5 8 5 L 56 5 C 56 5 60 5 60 9 L 60 8 C 60 4 56 4 56 4 L 8 4 z"/>
</svg>
