<svg xmlns="http://www.w3.org/2000/svg" width="64" height="64" version="1">
 <path style="fill:#3780c9" d="m23.261 14.013c-5.5808 0.20639-11.489 3.1746-16.574 11.264-0.97398 1.5511-2.6975 4.3479-2.6867 6.8133 0.010646 2.4115 1.7122 5.0857 2.6867 6.6375 12.517 19.912 30.021 8.7859 35.361 1.8491 1.1067-1.4379 3.0902-2.0387 4.5306-1.2234l11.764 6.6481c1.4401 0.81371 2.0593-0.0079 1.3844-1.8351l-5.289-12.076 5.289-12.252c0.67493-1.8272 0.05583-2.6489-1.3844-1.8351l-11.764 6.6481c-1.4403 0.81532-3.4239 0.21452-4.5306-1.2234-3.171-4.119-10.631-9.717-18.787-9.415z"/>
 <circle style="opacity:.2" cx="15" cy="26" r="3"/>
 <circle style="fill:#8b9cbe" cx="15" cy="25" r="3"/>
 <path style="opacity:.1;fill:#8b9cbe" d="m54.654 32.586-0.2168 0.50391 5.2891 12.076c0.09178 0.24846 0.15606 0.4739 0.20117 0.68359 0.12512-0.36774 0.0752-0.93539-0.20117-1.6836zm-31.394-18.572c-5.581 0.206-11.488 3.174-16.572 11.263-0.9745 1.551-2.6988 4.347-2.688 6.813 0.000691 0.15652 0.026738 0.31625 0.041016 0.47461 0.20461-2.3287 1.7407-4.8446 2.6465-6.2871 5.0849-8.0894 10.991-11.059 16.572-11.266v0.002c8.1564-0.3015 15.616 5.2953 18.787 9.4141 1.1067 1.438 3.091 2.038 4.5312 1.2227l11.764-6.6465c0.85045-0.48055 1.4055-0.37994 1.5859 0.15039 0.28664-1.3324-0.34159-1.8535-1.5859-1.1504l-11.764 6.6465c-1.4403 0.81532-3.4245 0.2153-4.5312-1.2227-3.171-4.118-10.631-9.715-18.787-9.413z"/>
 <path style="opacity:.2" d="m4.041 32.565c-0.0154 0.175-0.0418 0.353-0.041 0.525 0.010646 2.4115 1.713 5.0869 2.6875 6.6387 12.517 19.912 30.02 8.7845 35.359 1.8477 1.1067-1.4379 3.0908-2.0379 4.5312-1.2227l11.764 6.6484c1.2443 0.70306 1.8726 0.18003 1.5859-1.1523-0.18043 0.53032-0.73552 0.63285-1.5859 0.15234l-11.763-6.648c-1.4404-0.81524-3.4246-0.21529-4.5312 1.2227-5.34 6.936-22.843 18.062-35.36-1.85-0.9108-1.451-2.4403-3.881-2.646-6.162zm55.887-13.41c-0.04511 0.20969-0.10939 0.43513-0.20117 0.68359l-5.289 12.251 0.216 0.496 5.073-11.748c0.27637-0.7482 0.32628-1.3158 0.20117-1.6836z"/>
</svg>
