<svg xmlns="http://www.w3.org/2000/svg" width="64" height="64" version="1.1">
 <circle style="opacity:0.2" cx="32" cy="33" r="28"/>
 <circle style="fill:#7ea043" cx="32" cy="32" r="28"/>
 <path style="opacity:0.2" d="m 36,13 v 12 l 10,-6 z m -4,2 A 18,18 0 0 0 15.1875,26.582032 l 1.757812,1.054686 A 16,16 0 0 1 32,17 16,16 0 0 1 34,17.140625 V 15.132812 A 18,18 0 0 0 32,15 Z m 0,6 A 12,12 0 0 0 20.453124,29.742188 L 22.25,30.816406 A 10,10 0 0 1 32,23 10,10 0 0 1 34,23.203124 V 21.171876 A 12,12 0 0 0 32,21 Z m 13.800782,0.449218 -1.753906,1.054688 A 16,16 0 0 1 48,33 16,16 0 0 1 44.058594,43.503906 l 1.730468,1.039062 A 18,18 0 0 0 50,33 18,18 0 0 0 45.800782,21.449218 Z m -5.246094,3.148438 -1.777344,1.066406 A 10,10 0 0 1 42,33 10,10 0 0 1 38.78125,40.335938 l 1.777344,1.070312 A 12,12 0 0 0 44,33 12,12 0 0 0 40.554688,24.597656 Z M 12,27 v 12 l 10,-6 z m 10.253906,8.179688 -1.792968,1.074218 A 12,12 0 0 0 32,45 12,12 0 0 0 34,44.820312 v -2.03125 A 10,10 0 0 1 32,43 10,10 0 0 1 22.253906,35.179688 Z m -5.3125,3.1875 -1.738281,1.042968 A 18,18 0 0 0 32,51 18,18 0 0 0 34,50.878906 V 48.855468 A 16,16 0 0 1 32,49 16,16 0 0 1 16.941406,38.367188 Z M 36,41 v 12 l 10,-6 z"/>
 <path style="fill:#8b9cbe" d="m 36,12 v 12 l 10,-6 z m -4,2 A 18,18 0 0 0 15.1875,25.582032 l 1.757812,1.054686 A 16,16 0 0 1 32,16 16,16 0 0 1 34,16.140625 V 14.132812 A 18,18 0 0 0 32,14 Z m 0,6 A 12,12 0 0 0 20.453124,28.742188 L 22.25,29.816406 A 10,10 0 0 1 32,22 10,10 0 0 1 34,22.203124 V 20.171876 A 12,12 0 0 0 32,20 Z m 13.800782,0.449218 -1.753906,1.054688 A 16,16 0 0 1 48,32 16,16 0 0 1 44.058594,42.503906 l 1.730468,1.039062 A 18,18 0 0 0 50,32 18,18 0 0 0 45.800782,20.449218 Z m -5.246094,3.148438 -1.777344,1.066406 A 10,10 0 0 1 42,32 10,10 0 0 1 38.78125,39.335938 l 1.777344,1.070312 A 12,12 0 0 0 44,32 12,12 0 0 0 40.554688,23.597656 Z M 12,26 v 12 l 10,-6 z m 10.253906,8.179688 -1.792968,1.074218 A 12,12 0 0 0 32,44 12,12 0 0 0 34,43.820312 v -2.03125 A 10,10 0 0 1 32,42 10,10 0 0 1 22.253906,34.179688 Z m -5.3125,3.1875 -1.738281,1.042968 A 18,18 0 0 0 32,50 18,18 0 0 0 34,49.878906 V 47.855468 A 16,16 0 0 1 32,48 16,16 0 0 1 16.941406,37.367188 Z M 36,40 v 12 l 10,-6 z"/>
 <path style="opacity:0.2;fill:#8b9cbe" d="M 32 4 A 28 28 0 0 0 4 32 A 28 28 0 0 0 4.0175781 32.492188 A 28 28 0 0 1 32 5 A 28 28 0 0 1 59.974609 32.492188 A 28 28 0 0 0 60 32 A 28 28 0 0 0 32 4 z"/>
</svg>
