<svg xmlns="http://www.w3.org/2000/svg" width="64" height="64" version="1.1">
 <path style="opacity:0.2" d="M 32,11 A 22,22 0 0 1 33.68842,11.07077 22,22 0 0 0 32,11 Z m 0,0 A 22,22 0 0 0 12.65648,22.56365 22,22 0 0 1 32,11 Z m 2.744946,0.199678 a 22,22 0 0 1 1.152574,0.15671 22,22 0 0 0 -1.152574,-0.15671 z m 2.04228,0.356387 a 22,22 0 0 1 1.271368,0.303309 22,22 0 0 0 -1.271368,-0.303309 z m 2.044806,0.561122 a 22,22 0 0 1 1.311812,0.457491 22,22 0 0 0 -1.311812,-0.457491 z m 1.948758,0.740579 a 22,22 0 0 1 1.397748,0.649586 22,22 0 0 0 -1.397748,-0.649586 z m 1.807216,0.884651 a 22,22 0 0 1 1.486214,0.879596 22,22 0 0 0 -1.486214,-0.879596 z m 1.860296,1.147517 a 22,22 0 0 1 1.412912,1.041361 22,22 0 0 0 -1.412912,-1.041361 z m 1.665668,1.263788 a 22,22 0 0 1 1.387638,1.251149 22,22 0 0 0 -1.387638,-1.251149 z m 1.584788,1.463465 a 22,22 0 0 1 1.291592,1.425551 22,22 0 0 0 -1.291592,-1.425551 z M 21,18.764706 a 11,11 0 0 0 -8.399127,3.894992 22,22 0 0 0 -0.0025,0.0025 A 22,22 0 0 0 10,32.999936 22,22 0 0 0 32,55 22,22 0 0 0 54,33 22,22 0 0 0 51.437042,22.722886 a 11,11 0 0 0 -0.0026,-0.005 11,11 0 0 0 -8.43445,-3.953134 11,11 0 0 0 -11.000002,11 11,11 0 0 0 0.03286,0.647058 l -0.05562,0 A 11,11 0 0 0 32,29.764706 a 11,11 0 0 0 -11,-11 z m 30.434514,3.953126 a 22,22 0 0 0 -1.102022,-1.857768 22,22 0 0 1 1.102022,1.857768 z M 49.10409,19.191866 a 22,22 0 0 1 1.208182,1.63534 22,22 0 0 0 -1.208182,-1.63534 z"/>
 <path style="opacity:0.2" d="M 51,17.000003 A 13,13 0 0 0 38,30 13,13 0 0 0 51,43 13,13 0 0 0 64,30 13,13 0 0 0 51,17.000003 Z"/>
 <path style="opacity:0.2" d="M 13,17.000003 A 13,13 0 0 0 0,30 13,13 0 0 0 13,43 13,13 0 0 0 26,30 13,13 0 0 0 13,17.000003 Z"/>
 <path style="fill:#f8bb88" d="M 13,16.000003 A 13,13 0 0 0 0,29 13,13 0 0 0 13,42 13,13 0 0 0 26,29 13,13 0 0 0 13,16.000003 Z"/>
 <path style="opacity:0.1;fill:#8b9cbe" d="M 13 16 A 13 13 0 0 0 0 29 A 13 13 0 0 0 0.021484375 29.419922 A 13 13 0 0 1 13 17 A 13 13 0 0 1 25.976562 29.529297 A 13 13 0 0 0 26 29 A 13 13 0 0 0 13 16 z"/>
 <path style="opacity:0.1" d="M 12.999998,23 A 6.9999998,6.9999998 0 0 0 6,30 6.9999998,6.9999998 0 0 0 12.999998,37 6.9999998,6.9999998 0 0 0 20,30 6.9999998,6.9999998 0 0 0 12.999998,23 Z"/>
 <path style="fill:#986135" d="m 12.999998,22.000002 a 6.9999998,6.9999998 0 0 0 -6.999998,7 6.9999998,6.9999998 0 0 0 6.999998,7 6.9999998,6.9999998 0 0 0 7.000002,-7 6.9999998,6.9999998 0 0 0 -7.000002,-7 z"/>
 <path style="fill:#f8bb88" d="M 51,16.000003 A 13,13 0 0 0 38,29 13,13 0 0 0 51,42 13,13 0 0 0 64,29 13,13 0 0 0 51,16.000003 Z"/>
 <path style="opacity:0.1;fill:#8b9cbe" d="M 51 16 A 13 13 0 0 0 38 29 A 13 13 0 0 0 38.021484 29.419922 A 13 13 0 0 1 51 17 A 13 13 0 0 1 63.976562 29.529297 A 13 13 0 0 0 64 29 A 13 13 0 0 0 51 16 z"/>
 <path style="opacity:0.1" d="M 50.999998,23 A 6.9999998,6.9999998 0 0 0 44,30 6.9999998,6.9999998 0 0 0 50.999998,37 6.9999998,6.9999998 0 0 0 58,30 6.9999998,6.9999998 0 0 0 50.999998,23 Z"/>
 <path style="fill:#986135" d="m 50.999998,22.000002 a 6.9999998,6.9999998 0 0 0 -6.999998,7 6.9999998,6.9999998 0 0 0 6.999998,7 6.9999998,6.9999998 0 0 0 7.000002,-7 6.9999998,6.9999998 0 0 0 -7.000002,-7 z"/>
 <path style="fill:#f59d56" d="M 32,9.9999996 A 22,22 0 0 1 33.68842,10.070772 22,22 0 0 0 32,9.9999996 Z m 0,0 A 22,22 0 0 0 12.65648,21.56365 22,22 0 0 1 32,9.9999996 Z m 2.744946,0.1996784 a 22,22 0 0 1 1.152574,0.15671 22,22 0 0 0 -1.152574,-0.15671 z m 2.04228,0.356387 a 22,22 0 0 1 1.271368,0.303309 22,22 0 0 0 -1.271368,-0.303309 z m 2.044806,0.561122 a 22,22 0 0 1 1.311812,0.457491 22,22 0 0 0 -1.311812,-0.457491 z m 1.948758,0.740579 a 22,22 0 0 1 1.397748,0.649586 22,22 0 0 0 -1.397748,-0.649586 z m 1.807216,0.884651 a 22,22 0 0 1 1.486214,0.879596 22,22 0 0 0 -1.486214,-0.879596 z m 1.860296,1.147517 a 22,22 0 0 1 1.412912,1.041361 22,22 0 0 0 -1.412912,-1.041361 z m 1.665668,1.263788 a 22,22 0 0 1 1.387638,1.251149 22,22 0 0 0 -1.387638,-1.251149 z m 1.584788,1.463465 a 22,22 0 0 1 1.291592,1.425552 22,22 0 0 0 -1.291592,-1.425552 z M 21,17.764706 a 11,11 0 0 0 -8.399127,3.894992 22,22 0 0 0 -0.0025,0.0025 A 22,22 0 0 0 10,31.999936 22,22 0 0 0 32,54 22,22 0 0 0 54,32 22,22 0 0 0 51.437042,21.722886 a 11,11 0 0 0 -0.0026,-0.005 11,11 0 0 0 -8.43445,-3.953134 11,11 0 0 0 -11.000002,11 11,11 0 0 0 0.03286,0.647058 l -0.05562,0 A 11,11 0 0 0 32,28.764706 a 11,11 0 0 0 -11,-11 z m 30.434514,3.953126 a 22,22 0 0 0 -1.102022,-1.857767 22,22 0 0 1 1.102022,1.857767 z M 49.10409,18.191865 a 22,22 0 0 1 1.208182,1.635341 22,22 0 0 0 -1.208182,-1.635341 z"/>
 <path style="opacity:0.1" d="M 32,11.000236 A 22,22 0 0 0 12.598346,22.66246 11,11 0 0 1 21,18.764942 a 11,11 0 0 1 11,11 11,11 0 0 1 11.000002,-11 11,11 0 0 1 8.43704,3.95818 A 22,22 0 0 0 32,11.000236 Z m 0,18.764706 A 11,11 0 0 1 31.97726,30.412 l 0.05562,0 A 11,11 0 0 1 32,29.764942 Z"/>
 <path style="fill:#986135" d="M 32,9.9999996 A 22,22 0 0 0 12.598346,21.662224 11,11 0 0 1 21,17.764706 a 11,11 0 0 1 11,11 11,11 0 0 1 11.000002,-11 11,11 0 0 1 8.43704,3.95818 A 22,22 0 0 0 32,9.9999996 Z m 0,18.7647064 a 11,11 0 0 1 -0.02274,0.647058 l 0.05562,0 A 11,11 0 0 1 32,28.764706 Z"/>
 <circle style="opacity:0.1" cx="24" cy="33" r="4"/>
 <circle style="fill:#17191e" cx="24" cy="32" r="4"/>
 <circle style="opacity:0.1" cx="40" cy="33" r="4"/>
 <circle style="fill:#17191e" cx="40" cy="32" r="4"/>
 <path style="opacity:0.1;fill:none;stroke:#000000;stroke-width:4;stroke-linecap:round;stroke-linejoin:round" d="m 22,45 c 0,0 4.666666,4 10,4 5.333334,0 10,-4 10,-4"/>
 <path style="fill:none;stroke:#17191e;stroke-width:4;stroke-linecap:round;stroke-linejoin:round" d="m 22,44 c 0,0 4.666666,4 10,4 5.333334,0 10,-4 10,-4"/>
 <path style="opacity:0.1;fill:#8b9cbe" d="M 32 10 A 22 22 0 0 0 12.597656 21.664062 A 11 11 0 0 1 14.228516 20.101562 A 22 22 0 0 1 32 11 A 22 22 0 0 1 49.810547 20.150391 A 11 11 0 0 1 51.4375 21.722656 A 22 22 0 0 0 32 10 z"/>
</svg>
