<svg xmlns="http://www.w3.org/2000/svg" width="64" height="64" version="1.1">
 <path style="opacity:0.2" d="m 10.586244,4.0602386 c -0.6807124,0 -1.2164688,0.721963 -1.2164688,1.6433488 0,1.149076 1.5885028,5.5890616 3.7554278,10.5018086 1.927065,4.368946 2.385595,5.622424 2.142771,5.856348 -0.253697,0.244402 -0.786918,-0.605096 -2.54175,-4.045596 -1.687895,-3.30928 -2.134237,-3.845769 -2.8347064,-3.406669 -0.6380142,0.399949 -0.5961916,0.972396 0.2790064,3.763798 0.815994,2.602579 1.021701,3.961895 0.597074,3.961895 -0.431643,0 -1.7727314,-1.367922 -4.4055136,-4.494798 -2.7550454,-3.272085 -3.49363,-3.817732 -4.0818664,-3.013271 -0.4659012,0.637158 -0.3927388,1.037705 0.5384828,2.907249 0.6562108,1.317423 1.358599,2.211224 3.0662824,3.906094 2.4008306,2.382812 4.1413358,3.529656 7.0700268,4.651038 1.017858,0.389734 2.006076,0.859688 2.195782,1.043486 0.207303,0.200874 4.905902,2.15364 6.592924,3.86703 h 2.446888 c -0.0016,-0.04282 0.03804,-0.03724 0.10602,0 h 0.5608 v -2.505478 l -5.365289,-8.640834 c -0.205878,-0.20588 0.02844,-1.714993 0.850969,-5.46853 0.914088,-4.171327 -0.08037,-7.730279 -1.741001,-6.227428 -0.861975,0.7800775 -1.20203,2.689754 -1.227628,6.919364 -0.01449,2.392235 -0.113167,3.966139 -0.253897,4.014904 C 16.769016,19.41585 15.970547,17.216489 14.933166,13.278617 14.418513,11.325009 13.671478,8.870724 13.273077,7.8240374 12.528163,5.8669974 11.23784,4.0602386 10.586244,4.0602386 Z"/>
 <path style="opacity:0.2" d="m 53.413756,4.0602386 c 0.680712,0 1.216468,0.721963 1.216468,1.6433488 0,1.149076 -1.588502,5.5890616 -3.755428,10.5018086 -1.927064,4.368946 -2.385594,5.622424 -2.14277,5.856348 0.253696,0.244402 0.786918,-0.605096 2.54175,-4.045596 1.687894,-3.30928 2.134236,-3.845769 2.834706,-3.406669 0.638014,0.399949 0.596192,0.972396 -0.279006,3.763798 -0.815994,2.602579 -1.021702,3.961895 -0.597074,3.961895 0.431644,0 1.772732,-1.367922 4.405514,-4.494798 2.755044,-3.272085 3.493628,-3.817732 4.081866,-3.013271 0.465902,0.637158 0.392738,1.037705 -0.538484,2.907249 -0.65621,1.317423 -1.358598,2.211224 -3.066282,3.906094 -2.40083,2.382812 -4.141334,3.529656 -7.070026,4.651038 -1.017858,0.389734 -2.006076,0.859688 -2.195782,1.043486 -0.207302,0.200874 -4.905902,2.15364 -6.592924,3.86703 h -2.446888 c 0.0016,-0.04282 -0.03804,-0.03724 -0.10602,0 h -0.560802 v -2.505478 l 5.365296,-8.640834 c 0.205878,-0.20588 -0.02844,-1.714993 -0.85097,-5.46853 -0.914088,-4.171327 0.08036,-7.730279 1.741,-6.227428 0.861976,0.7800775 1.20203,2.689754 1.22763,6.919364 0.0144,2.392235 0.11316,3.966139 0.253896,4.014904 0.351562,0.121852 1.150032,-2.077509 2.187412,-6.015381 0.514656,-1.953608 1.26169,-4.407893 1.66009,-5.4545796 0.744914,-1.95704 2.035238,-3.7637988 2.686834,-3.7637988 z"/>
 <circle style="opacity:0.2" cx="32" cy="56.286" r="5.714"/>
 <path style="fill:#f5a34d" d="m 53.413756,3.0602395 c 0.680712,0 1.216468,0.721963 1.216468,1.6433488 0,1.149076 -1.588502,5.5890607 -3.755428,10.5018077 -1.927064,4.368946 -2.385594,5.622424 -2.14277,5.856348 0.253696,0.244402 0.786918,-0.605096 2.54175,-4.045596 1.687894,-3.30928 2.134236,-3.845768 2.834706,-3.406669 0.638014,0.39995 0.596192,0.972396 -0.279006,3.763798 -0.815994,2.602579 -1.021702,3.961895 -0.597074,3.961895 0.431644,0 1.772732,-1.367921 4.405514,-4.494798 2.755044,-3.272085 3.493628,-3.817731 4.081866,-3.013271 0.465902,0.637159 0.392738,1.037705 -0.538484,2.90725 -0.65621,1.317422 -1.358598,2.211223 -3.066282,3.906093 -2.40083,2.382812 -4.141334,3.529656 -7.070026,4.651038 -1.017858,0.389734 -2.006076,0.859688 -2.195782,1.043486 -0.207302,0.200874 -4.905902,2.15364 -6.592924,3.86703 h -2.446888 c 0.0016,-0.04282 -0.03804,-0.03724 -0.10602,0 h -0.560802 v -2.505478 l 5.365296,-8.640835 c 0.205878,-0.205878 -0.02844,-1.714992 -0.85097,-5.468529 -0.914088,-4.1713271 0.08036,-7.7302781 1.741,-6.2274271 0.861976,0.780077 1.20203,2.6897531 1.22763,6.9193641 0.0144,2.392235 0.11316,3.966138 0.253896,4.014903 0.351562,0.121852 1.150032,-2.077509 2.187412,-6.015381 0.514656,-1.953607 1.26169,-4.4078921 1.66009,-5.4545787 0.744914,-1.95704 2.035238,-3.7637988 2.686834,-3.7637988 z"/>
 <circle style="fill:#af5d2d" cx="32" cy="55.286" r="5.714"/>
 <path style="fill:#f5a34d" d="m 10.586244,3.0602395 c -0.6807124,0 -1.2164688,0.721963 -1.2164688,1.6433488 0,1.149076 1.5885028,5.5890607 3.7554278,10.5018077 1.927065,4.368946 2.385595,5.622424 2.142771,5.856348 -0.253697,0.244402 -0.786918,-0.605096 -2.54175,-4.045596 -1.687895,-3.30928 -2.134237,-3.845768 -2.8347064,-3.406669 -0.6380142,0.39995 -0.5961916,0.972396 0.2790064,3.763798 0.815994,2.602579 1.021701,3.961895 0.597074,3.961895 -0.431643,0 -1.7727314,-1.367921 -4.4055136,-4.494798 -2.7550454,-3.272085 -3.49363,-3.817731 -4.0818664,-3.013271 -0.4659012,0.637159 -0.3927388,1.037705 0.5384828,2.90725 0.6562108,1.317422 1.358599,2.211223 3.0662824,3.906093 2.4008306,2.382812 4.1413358,3.529656 7.0700268,4.651038 1.017858,0.389734 2.006076,0.859688 2.195782,1.043486 0.207303,0.200874 4.905902,2.15364 6.592924,3.86703 h 2.446888 c -0.0016,-0.04282 0.03804,-0.03724 0.10602,0 h 0.5608 v -2.505478 l -5.365289,-8.640835 c -0.205878,-0.205878 0.02844,-1.714992 0.850969,-5.468529 0.914088,-4.1713271 -0.08037,-7.7302781 -1.741001,-6.2274271 -0.861975,0.780077 -1.20203,2.6897531 -1.227628,6.9193641 -0.01449,2.392235 -0.113167,3.966138 -0.253897,4.014903 C 16.769016,18.41585 15.970547,16.216489 14.933166,12.278617 14.418513,10.32501 13.671478,7.8707249 13.273077,6.8240383 12.528163,4.8669983 11.23784,3.0602395 10.586244,3.0602395 Z"/>
 <path style="fill:#8b9cbe;opacity:0.2" d="M 10.585938 3.0605469 C 9.9052246 3.0605469 9.3691406 3.7817392 9.3691406 4.703125 C 9.3691406 4.8259851 9.3965468 5.0045567 9.4316406 5.1992188 C 9.5866992 4.5332886 10.036398 4.0605469 10.585938 4.0605469 C 11.237533 4.0605469 12.528522 5.8671787 13.273438 7.8242188 C 13.671838 8.8709053 14.418941 11.32569 14.933594 13.279297 C 15.970975 17.217169 16.769532 19.416774 17.121094 19.294922 C 17.261824 19.246157 17.36051 17.671532 17.375 15.279297 C 17.400598 11.049686 17.739587 9.139452 18.601562 8.359375 C 19.751151 7.3190091 20.564773 8.7271461 20.664062 11.0625 C 20.787353 8.1441821 19.90831 6.1767846 18.601562 7.359375 C 17.739587 8.139452 17.400598 10.049686 17.375 14.279297 C 17.36051 16.671532 17.261824 18.246157 17.121094 18.294922 C 16.769532 18.416774 15.970975 16.217169 14.933594 12.279297 C 14.418941 10.32569 13.671838 7.8709054 13.273438 6.8242188 C 12.528522 4.8671787 11.237533 3.0605469 10.585938 3.0605469 z M 53.414062 3.0605469 C 52.762467 3.0605469 51.471477 4.8671787 50.726562 6.8242188 C 50.328164 7.8709054 49.581062 10.32569 49.066406 12.279297 C 48.029026 16.217169 47.230468 18.416774 46.878906 18.294922 C 46.73817 18.246157 46.6394 16.671532 46.625 14.279297 C 46.5994 10.049686 46.260413 8.139452 45.398438 7.359375 C 44.091682 6.1767846 43.212645 8.1441821 43.335938 11.0625 C 43.435224 8.7271461 44.24884 7.3190091 45.398438 8.359375 C 46.260413 9.139452 46.5994 11.049686 46.625 15.279297 C 46.6394 17.671532 46.73817 19.246157 46.878906 19.294922 C 47.230468 19.416774 48.029026 17.217169 49.066406 13.279297 C 49.581062 11.32569 50.328164 8.8709053 50.726562 7.8242188 C 51.471477 5.8671787 52.762467 4.0605469 53.414062 4.0605469 C 53.963602 4.0605469 54.413301 4.5332886 54.568359 5.1992188 C 54.603453 5.0045567 54.630859 4.8259851 54.630859 4.703125 C 54.630859 3.7817392 54.094775 3.0605469 53.414062 3.0605469 z M 10.392578 13.490234 C 10.225741 13.450019 10.065742 13.4996 9.890625 13.609375 C 9.5128069 13.846217 9.4081098 14.205523 9.5390625 14.988281 C 9.6105695 14.827739 9.7264972 14.712261 9.890625 14.609375 C 10.591094 14.170276 11.038668 14.706345 12.726562 18.015625 C 14.481396 21.456125 15.013881 22.306902 15.267578 22.0625 C 15.364157 21.969461 15.304408 21.631665 15.130859 21.083984 C 14.826718 20.987682 14.221312 19.94621 12.726562 17.015625 C 11.460642 14.533665 10.893089 13.610881 10.392578 13.490234 z M 53.607422 13.490234 C 53.106911 13.610881 52.539358 14.533665 51.273438 17.015625 C 49.778688 19.94621 49.173282 20.987682 48.869141 21.083984 C 48.695592 21.631665 48.635843 21.969461 48.732422 22.0625 C 48.986118 22.306902 49.518605 21.456125 51.273438 18.015625 C 52.961332 14.706345 53.408905 14.170276 54.109375 14.609375 C 54.273503 14.712261 54.38943 14.827739 54.460938 14.988281 C 54.59189 14.205523 54.487193 13.846217 54.109375 13.609375 C 53.934258 13.4996 53.774259 13.450019 53.607422 13.490234 z M 2.7773438 13.498047 C 2.5823177 13.508856 2.426356 13.625057 2.2792969 13.826172 C 2.0042605 14.202307 1.948761 14.531369 2.1152344 15.09375 C 2.1591514 15.005975 2.2116627 14.918667 2.2792969 14.826172 C 2.8675333 14.021712 3.6062827 14.567759 6.3613281 17.839844 C 8.9941103 20.966721 10.335935 22.335938 10.767578 22.335938 C 10.98842 22.335938 11.029594 21.94976 10.912109 21.230469 C 10.876643 21.292959 10.832146 21.335938 10.767578 21.335938 C 10.335935 21.335938 8.9941103 19.966721 6.3613281 16.839844 C 4.2950441 14.38578 3.362422 13.46562 2.7773438 13.498047 z M 61.222656 13.498047 C 60.637578 13.46562 59.704955 14.38578 57.638672 16.839844 C 55.00589 19.966721 53.664066 21.335938 53.232422 21.335938 C 53.167854 21.335938 53.123358 21.292959 53.087891 21.230469 C 52.970406 21.94976 53.011579 22.335938 53.232422 22.335938 C 53.664066 22.335938 55.00589 20.966721 57.638672 17.839844 C 60.393716 14.567759 61.132465 14.021712 61.720703 14.826172 C 61.788337 14.918667 61.840848 15.005975 61.884766 15.09375 C 62.051239 14.531369 61.99574 14.202307 61.720703 13.826172 C 61.573644 13.625057 61.417682 13.508856 61.222656 13.498047 z M 19.488281 19.048828 C 19.420245 19.608196 19.409859 19.974312 19.492188 20.056641 L 24.857422 28.697266 L 24.857422 27.697266 L 19.492188 19.056641 C 19.49071 19.055163 19.489714 19.050441 19.488281 19.048828 z M 44.511719 19.048828 C 44.510286 19.050441 44.50929 19.055163 44.507812 19.056641 L 39.142578 27.697266 L 39.142578 28.697266 L 44.507812 20.056641 C 44.590141 19.974312 44.579755 19.608196 44.511719 19.048828 z"/>
 <path style="fill:#af5d2d" d="M 43.428108,32.429726 C 43.428108,38.741296 32,53.000324 32,53.000324 c 0,0 -11.42811,-14.259028 -11.42811,-20.570598 0,-6.31157 5.116538,-11.42811 11.42811,-11.42811 6.31157,0 11.428108,5.11654 11.428108,11.42811 z"/>
 <g transform="matrix(-1.4285137,0,0,1.4285137,66.217238,-2.0547605)">
  <ellipse id="ellipse911" style="fill:#8b9cbe" cx="5.86" cy="31.772" rx="1.947" ry="2.791" transform="matrix(0.80749798,-0.58987034,0.51619146,0.85647322,0,0)"/>
  <ellipse id="ellipse913" style="fill:#17191e" cx="5.586" cy="32.6" rx="1.222" ry="1.752" transform="matrix(0.80749798,-0.58987034,0.51619146,0.85647322,0,0)"/>
 </g>
 <ellipse style="fill:#8b9cbe" cx="7.472" cy="42.368" rx="2.781" ry="3.987" transform="matrix(0.80749798,-0.58987034,0.51619146,0.85647322,0,0)"/>
 <ellipse id="ellipse909" style="fill:#17191e" cx="6.977" cy="43.713" rx="1.746" ry="2.503" transform="matrix(0.80749798,-0.58987034,0.51619146,0.85647322,0,0)"/>
 <path style="opacity:0.2" d="m 32.000002,34.014674 c -1.496148,-0.10642 -2.633866,0.354744 -4.110352,1.75648 C 24.415482,39.772692 20,49.31577 20,52.561112 c 0.14984,4.66053 1.542242,7.665286 4.476562,7.425516 3.023438,0.12228 5.173824,-2.21312 7.52344,-2.26573 2.349612,0.05262 4.499998,2.387998 7.523436,2.26573 2.93432,0.23977 4.326728,-2.764986 4.476562,-7.425516 0,-3.245342 -4.415482,-12.78842 -7.889648,-16.789958 -1.476488,-1.401736 -2.614206,-1.862916 -4.11035,-1.75648 z"/>
 <path style="fill:#cf7642" d="m 32.000002,33.014674 c -1.496148,-0.10642 -2.633866,0.354744 -4.110352,1.75648 C 24.415482,38.772692 20,48.31577 20,51.561112 c 0.14984,4.66053 1.542242,7.665286 4.476562,7.425516 3.023438,0.12228 5.173824,-2.21312 7.52344,-2.26573 2.349612,0.05262 4.499998,2.387998 7.523436,2.26573 2.93432,0.23977 4.326728,-2.764986 4.476562,-7.425516 0,-3.245342 -4.415482,-12.78842 -7.889648,-16.789958 -1.476488,-1.401736 -2.614206,-1.862916 -4.11035,-1.75648 z"/>
 <path style="opacity:0.5" d="m 25.82133,54.61327 c -1.27381,-0.646404 -1.895934,-2.085988 -1.814202,-4.198024 0.03664,-0.946696 0.17212,-1.756124 0.301102,-1.798722 0.12896,-0.0426 0.420272,0.445624 0.647336,1.084938 0.514536,1.44871 1.478022,2.566596 2.678786,3.108066 1.357384,0.612094 1.502118,1.420598 0.348408,1.946264 -0.788924,0.35946 -1.229466,0.330408 -2.16143,-0.14252 z"/>
 <path style="opacity:0.5" d="m 38.113956,54.61327 c 1.27381,-0.646404 1.895934,-2.085988 1.814202,-4.198024 -0.03664,-0.946696 -0.17214,-1.756124 -0.301102,-1.798722 -0.12896,-0.0426 -0.420272,0.445624 -0.647336,1.084938 -0.514536,1.44871 -1.478022,2.566596 -2.678786,3.108066 -1.357384,0.612094 -1.502118,1.420598 -0.348408,1.946264 0.788924,0.35946 1.229466,0.330408 2.16143,-0.14252 z"/>
 <path style="opacity:0.1" d="m 32,17.914062 c -7.516858,0 -11.686008,3.106272 -13.703125,6.277344 -1.74537,2.743864 -1.965505,5.388224 -1.996094,6.085938 C 16.1126,30.800382 16,31.381136 16,32 c 0,2.209138 1.343146,4 3,4 h 1 1 c 0.554002,0 1,-0.593366 1,-1.332032 V 32 29.332032 C 22,28.593366 21.554002,28 21,28 h -1 -0.335938 c 0.231409,-0.709646 0.533116,-1.471904 1.04297,-2.273438 C 22.261198,23.283286 25.23172,20.773438 32,20.773438 c 6.768278,0 9.738802,2.509848 11.292968,4.953124 0.509856,0.801534 0.81156,1.563792 1.04297,2.273438 H 44 43 c -0.554,0 -1,0.593366 -1,1.332032 V 32 34.667968 C 42,35.406634 42.446,36 43,36 h 1 1 c 1.656854,0 3,-1.790862 3,-4 0,-0.618864 -0.1126,-1.199618 -0.300782,-1.722656 C 47.668638,29.57963 47.448498,26.93527 45.703124,24.191406 43.686008,21.020334 39.516858,17.914062 32,17.914062 Z"/>
 <path style="fill:none;stroke:#5b5b5b;stroke-width:2.85702729;stroke-linecap:round;stroke-linejoin:round" d="m 17.714862,29.572698 c 0,0 0,-11.228698 14.285138,-11.228698 14.285136,0 14.285136,11.228698 14.285136,11.228698"/>
 <path style="opacity:0.1;fill:#8b9cbe" d="M 32 21 C 25.688428 21 20.570312 26.118118 20.570312 32.429688 C 20.570312 32.534043 20.590882 32.652634 20.603516 32.765625 C 20.949553 26.764919 25.912709 22 32 22 C 38.087289 22 43.050447 26.764919 43.396484 32.765625 C 43.409118 32.652634 43.429688 32.534043 43.429688 32.429688 C 43.429688 26.118118 38.31157 21 32 21 z"/>
 <path style="fill:#4b4b4b" d="m 19,27 c -1.656854,0 -3,1.79086 -3,4 0,2.209138 1.343146,4 3,4 H 19.999999 21 c 0.554002,0 1,-0.594668 1,-1.333334 V 31 28.333332 C 22,27.594666 21.554002,27 21,27 h -1.000001 z"/>
 <path style="fill:#4b4b4b" d="m 44.999594,27 c 1.656854,0 3.000002,1.79086 3.000002,4 0,2.209138 -1.343148,4 -3.000002,4 h -0.999998 -1 c -0.554,0 -1,-0.594668 -1,-1.333334 V 31 28.333332 c 0,-0.738666 0.446,-1.333332 1,-1.333332 h 1 z"/>
 <path style="opacity:0.1;fill:#8b9cbe" d="M 31.455078 33.003906 C 30.21501 33.039555 29.182552 33.543012 27.890625 34.769531 C 24.416457 38.771069 20 48.317158 20 51.5625 C 20.005884 51.745737 20.023756 51.910977 20.035156 52.085938 C 20.395405 48.476564 24.568691 39.595727 27.890625 35.769531 C 29.367113 34.367795 30.503852 33.909205 32 34.015625 C 33.496144 33.909191 34.632885 34.367795 36.109375 35.769531 C 39.431305 39.595727 43.604594 48.476564 43.964844 52.085938 C 43.976243 51.910977 43.994109 51.745737 44 51.5625 C 44 48.317158 39.583539 38.771069 36.109375 34.769531 C 34.632885 33.367795 33.496144 32.909191 32 33.015625 C 31.812981 33.002322 31.632231 32.998814 31.455078 33.003906 z"/>
</svg>
