<svg xmlns="http://www.w3.org/2000/svg" width="64" height="64" version="1">
 <path style="opacity:0.2" d="M 59,33 A 28,28 0 0 1 31,61 28,28 0 0 1 3,33 28,28 0 0 1 31,5 28,28 0 0 1 59,33 Z"/>
 <path style="fill:#b2bfd9" d="M 59,32 A 28,28 0 0 1 31,60 28,28 0 0 1 3,32 28,28 0 0 1 31,4 28,28 0 0 1 59,32 Z"/>
 <path style="opacity:0.1" d="m 62.806964,49.982442 c -0.755264,0.217564 -4.938868,1.404158 -5.398562,1.128594 -4.699018,-2.816926 -8.450278,-1.40897 -12.84663,0.422718 -1.374018,0.5724 -2.752344,1.13518 -4.734478,1.952246 C 47.668698,38.104084 42.820758,23.01394 24.938,19.639806 c 3.422762,-0.800096 8.20612,-0.877092 11.963458,0.10966 10.247014,2.694596 15.890748,6.74852 21.93415,17.687988 1.774954,3.591696 4.161314,9.275194 3.971356,12.54498"/>
 <path style="fill:#dc3034" d="m 62.806964,48.982642 c -0.755264,0.217564 -4.938868,1.404158 -5.398562,1.128594 -4.699018,-2.816926 -8.450278,-1.40897 -12.84663,0.422718 -1.374018,0.5724 -2.752344,1.13518 -4.734478,1.952246 C 47.668698,37.104284 42.820758,22.01414 24.938,18.640006 c 3.422762,-0.800096 8.20612,-0.877092 11.963458,0.109662 10.247014,2.694596 15.890748,6.74852 21.93415,17.687988 1.774954,3.591696 4.161314,9.275194 3.971356,12.54498"/>
 <path style="opacity:0.1" d="m 6.052,36.033718 c 2.5910064,-5.016878 11.740324,-6.328084 16.888904,-3.686676 5.12224,2.627984 8.521194,11.107136 3.85637,19.332758 0.06306,-5.767838 -1.273216,-11.05648 -5.67362,-14.776336 C 16.805562,33.36749 11.410292,33.906964 6.052,36.033718"/>
 <path style="fill:#48539e" d="M 6.052,35.033918 C 8.6430064,30.01704 17.792324,28.705834 22.940904,31.347242 28.063144,33.975226 31.462098,42.454378 26.797274,50.68 26.860334,44.912162 25.524058,39.62352 21.123654,35.903664 16.805562,32.36769 11.410292,32.907164 6.052,35.033918"/>
 <path style="opacity:0.1" d="m 10.138,28.895598 c 3.616519,-4.713454 8.175475,-6.085954 13.216668,-5.686286 6.635304,0.526056 11.680042,3.783934 14.379958,10.056042 C 40.254208,39.279632 38.955664,47.001742 33.5994,52.9798 35.62079,45.173602 35.21099,38.589202 30.059622,33.15518 24.739322,27.772574 17.969779,26.730346 10.138,28.895598"/>
 <path style="fill:#469d3b" d="m 10.138,27.895798 c 3.616519,-4.713454 8.175475,-6.085954 13.216668,-5.686286 6.635304,0.526056 11.680042,3.783934 14.379958,10.056042 C 40.254208,38.279832 38.955664,46.001942 33.5994,51.98 35.62079,44.173802 35.21099,37.589402 30.059622,32.15538 24.739322,26.772774 17.969779,25.730546 10.138,27.895798"/>
 <circle style="opacity:0.2" cx="12" cy="50" r="11"/>
 <circle style="fill:#4f4f4f" cx="12" cy="49" r="11"/>
 <path style="fill:#8b9cbe" d="m 10.195133,54.523718 c 0,-0.29061 0.04172,-0.536138 0.125164,-0.737254 0.08344,-0.200466 0.199114,-0.362584 0.347772,-0.486348 0.147984,-0.12378 0.322879,-0.213242 0.52401,-0.269075 0.200458,-0.05516 0.415044,-0.08346 0.643756,-0.08346 0.216602,0 0.422451,0.02828 0.616861,0.08346 0.194396,0.05586 0.365931,0.14528 0.514588,0.269075 0.147998,0.123779 0.265043,0.28589 0.351819,0.486348 0.0868,0.20112 0.129784,0.446644 0.129784,0.737254 0,0.278481 -0.04298,0.516616 -0.129784,0.714385 -0.0868,0.1971 -0.20382,0.3619 -0.351819,0.491726 -0.148658,0.129241 -0.320191,0.223335 -0.514588,0.282531 -0.19441,0.05852 -0.400259,0.08806 -0.616861,0.08806 -0.228712,0 -0.443297,-0.02952 -0.643756,-0.08806 -0.201131,-0.05922 -0.376025,-0.15338 -0.52401,-0.282531 -0.148658,-0.129779 -0.264371,-0.294629 -0.347772,-0.491726 -0.0826,-0.19742 -0.124604,-0.435414 -0.124604,-0.714024 m 0.306079,-3.555605 v -0.03276 c 0,-0.315488 0.03234,-0.969855 0.09744,-1.226149 0.06454,-0.25695 0.163468,-0.50046 0.296656,-0.732548 0.132584,-0.2314 0.304048,-0.457408 0.51393,-0.676712 0.210539,-0.219304 0.464144,-0.446672 0.7608,-0.681432 0.259653,-0.203818 0.478957,-0.386118 0.657883,-0.547558 0.1796,-0.16008 0.324223,-0.319534 0.435905,-0.4776 0.111024,-0.1574 0.191708,-0.32222 0.240808,-0.4951 0.04984,-0.17354 0.07476,-0.374692 0.07476,-0.60272 0,-0.35249 -0.119706,-0.643756 -0.357208,-0.871796 -0.238134,-0.228712 -0.601377,-0.343068 -1.089727,-0.343068 -0.425825,0 -0.885251,0.08946 -1.37699,0.268404 -0.490381,0.1796 -0.999607,0.39888 -1.524933,0.658546 L 8.286,43.15901 c 0.2650432,-0.1547 0.5542932,-0.301362 0.866406,-0.439924 0.312813,-0.13932 0.637036,-0.263026 0.973384,-0.371322 0.337005,-0.10766 0.678729,-0.19308 1.024485,-0.254948 0.346442,-0.06186 0.686136,-0.09282 1.020468,-0.09282 0.630302,0 1.198721,0.07602 1.705259,0.227366 0.507209,0.15134 0.937052,0.371978 1.288856,0.662588 0.353163,0.290596 0.62291,0.643758 0.811258,1.057458 0.18902,0.41437 0.283202,0.886594 0.283202,1.417966 0,0.38948 -0.04382,0.73727 -0.129784,1.04333 -0.0861,0.30608 -0.215257,0.590614 -0.384103,0.852954 -0.170864,0.263028 -0.384104,0.516618 -0.640396,0.760142 -0.256293,0.244184 -0.554966,0.502492 -0.894673,0.774256 -0.259653,0.203818 -0.471537,0.382074 -0.635678,0.53343 -0.163468,0.15138 -0.291953,0.295312 -0.384104,0.430516 -0.09282,0.1365 -0.156048,0.277152 -0.190364,0.422452 -0.03374,0.14462 -0.0511,1.080176 -0.0511,0.882406 V 50.96848 H 10.50183 Z"/>
 <path style="opacity:0.2;fill:#8b9cbe" d="M 31 4 A 28 28 0 0 0 3 32 A 28 28 0 0 0 3.0175781 32.492188 A 28 28 0 0 1 31 5 A 28 28 0 0 1 58.974609 32.492188 A 28 28 0 0 0 59 32 A 28 28 0 0 0 31 4 z"/>
</svg>
