<svg xmlns="http://www.w3.org/2000/svg" width="64" height="64" version="1">
 <path style="opacity:0.2" d="m 31.94192,37.251975 a 1.0872222,1.3910478 0 0 0 -0.883302,0.693603 L 21.146288,59.91204 A 1.0872222,1.3910478 0 0 0 22.08767,62 h 19.824661 a 1.0872222,1.3910478 0 0 0 0.941381,-2.08796 L 32.941382,37.945578 A 1.0872222,1.3910478 0 0 0 31.94192,37.251975 Z"/>
 <path style="fill:#bc2b1a" d="m 31.94192,36.251985 a 1.0872222,1.3910478 0 0 0 -0.883302,0.693603 l -9.91233,21.966462 a 1.0872222,1.3910478 0 0 0 0.941382,2.08796 h 19.824661 a 1.0872222,1.3910478 0 0 0 0.941381,-2.08796 L 32.941382,36.945588 A 1.0872222,1.3910478 0 0 0 31.94192,36.251985 Z"/>
 <path style="opacity:0.2" d="M 32,3.9999416 C 29.906498,4.6325373 14.896802,20.271811 10.61405,26.336414 3.946833,35.777534 2.3319626,42.07157 5.716692,46.874766 7.9449602,50.036855 12.163163,51.87499 16.389159,51.998839 22.977946,52.069249 28.034973,48.927896 32,44.925214 c 3.965027,4.002682 9.022054,7.144029 15.61084,7.073625 C 51.836838,51.875 56.055037,50.036855 58.283309,46.874766 61.668036,42.07157 60.053168,35.777534 53.38595,26.336414 49.103199,20.271811 34.093504,4.6325373 32,3.9999416 Z"/>
 <path style="fill:#f1432e" d="M 32,3.0000002 C 29.906498,3.632596 14.896802,19.271871 10.61405,25.336473 3.946833,34.777593 2.3319626,41.071628 5.716692,45.874825 c 2.2282682,3.162089 6.446471,5.000224 10.672467,5.124073 6.588787,0.07041 11.645814,-3.070943 15.610841,-7.073626 3.965027,4.002683 9.022054,7.14403 15.61084,7.073626 4.225998,-0.123839 8.444197,-1.961984 10.672469,-5.124073 C 61.668036,41.071628 60.053168,34.777593 53.38595,25.336473 49.103199,19.271871 34.093504,3.632596 32,3.0000002 Z"/>
 <path style="opacity:0.2;fill:#8b9cbe" d="M 32 3 C 29.906498 3.6325957 14.896033 19.271335 10.613281 25.335938 C 6.0343349 31.819959 3.8581073 36.811941 4.0292969 40.863281 C 4.2222474 36.99611 6.4047581 32.295421 10.613281 26.335938 C 14.896033 20.271334 29.906498 4.6325957 32 4 C 34.093504 4.6325957 49.103968 20.271334 53.386719 26.335938 C 57.595243 32.295421 59.777752 36.99611 59.970703 40.863281 C 60.141892 36.811941 57.965666 31.819959 53.386719 25.335938 C 49.103968 19.271335 34.093504 3.6325957 32 3 z"/>
 <path style="opacity:0.2" d="m 18,20 v 26 h 6 V 36.8 28.318 L 28.040626,32.758624 32,36.718 35.959376,32.758624 40,28.318 V 36.8 46 h 6 V 20 H 40 L 32,28.4 24,20 Z"/>
 <path style="fill:#8b9cbe" d="m 18,19 v 26 h 6 V 35.8 27.318 L 28.040626,31.758624 32,35.718 35.959376,31.758624 40,27.318 V 35.8 45 h 6 V 19 H 40 L 32,27.4 24,19 Z"/>
</svg>
