<svg xmlns="http://www.w3.org/2000/svg" width="64" height="64" version="1">
 <path style="opacity:0.2" d="M 54,58.2 V 19 H 10 v 39.2 c 0,1.5512 1.2265,2.8 2.75,2.8 h 38.5 C 52.7735,61 54,59.7512 54,58.2 Z"/>
 <path style="fill:#b2bfd9" d="M 54,57.2 V 18 H 10 v 39.2 c 0,1.5512 1.2265,2.8 2.75,2.8 h 38.5 C 52.7735,60 54,58.7512 54,57.2 Z"/>
 <path style="fill:#b8b8b8" d="m 20,10 h 24 l 10,8 H 10 Z"/>
 <rect style="fill:#a3a3a3" width="24" height="6" x="20" y="4"/>
 <path style="fill:#a3a3a3" d="m 44,10 v 0 l 10,8 H 36 Z"/>
 <path style="fill:#b8b8b8" d="M 36,18 V 60 H 51.428572 C 52.853142,60 54,58.7512 54,57.2 V 18 Z"/>
 <path style="opacity:0.2;fill:none;stroke:#000000;stroke-width:4;stroke-linecap:round;stroke-linejoin:round" d="M 28.999969,46.943032 V 30.971516 m -11.982829,0 5.982829,8 6,-8 M 17.01714,46.943032 V 30.971516"/>
 <path style="fill:none;stroke:#3a86c5;stroke-width:4;stroke-linecap:round;stroke-linejoin:round" d="M 28.999969,45.971516 V 30 m -11.982829,0 5.982829,8 6,-8 M 17.01714,45.971516 V 30"/>
 <path style="opacity:0.2;fill:none;stroke:#000000;stroke-width:4;stroke-linecap:round" d="m 41.028485,30.971516 h 8 m -4,16 v -16"/>
 <path style="fill:none;stroke:#3a86c5;stroke-width:4;stroke-linecap:round" d="m 41.028485,30 h 8 m -4,16 V 30"/>
 <path style="opacity:0.1;fill:#8b9cbe" d="M 20 4 L 20 5 L 44 5 L 44 4 L 20 4 z"/>
</svg>
