<svg xmlns="http://www.w3.org/2000/svg" width="64" height="64" version="1.1">
 <rect style="opacity:0.2" width="56" height="56" x="4" y="5" rx="2.8" ry="2.8"/>
 <rect style="fill:#4f4f4f" width="56" height="56" x="4" y="4" rx="2.8" ry="2.8"/>
 <path style="opacity:0.2" d="m 20,25 v 26 h 6 V 33.789654 L 31.70573,40.033922 38,33.506346 V 51 h 6 V 25 H 37.729166 L 31.809896,31.740544 26.190104,25 Z"/>
 <path style="opacity:0.2" d="M 16,27.667344 4,33.393908 v 6.324218 L 16,45.64 V 39.393908 L 10.308594,36.585314 16,33.87047 Z"/>
 <path style="fill:#9a9a9a" d="m 20,24 v 26 h 6 V 32.789654 L 31.70573,39.033922 38,32.506346 V 50 h 6 V 24 H 37.729166 L 31.809896,30.740544 26.190104,24 Z"/>
 <path style="opacity:0.2" d="m 20,19 v 26 h 6 V 27.789654 L 31.70573,34.033922 38,27.506346 V 45 h 6 V 19 H 37.729166 L 31.809896,25.740544 26.190104,19 Z"/>
 <path style="fill:#8b9cbe" d="m 20,18 v 26 h 6 V 26.789654 L 31.70573,33.033922 38,26.506346 V 44 h 6 V 18 H 37.729166 L 31.809896,24.740544 26.190104,18 Z"/>
 <path style="fill:#dd7456" d="M 16,26.667344 4,32.393908 v 6.324218 L 16,44.64 V 38.393908 L 10.308594,35.585314 16,32.87047 Z"/>
 <path style="opacity:0.2" d="M 16,22.069688 4,27.796252 v 6.324218 l 12,5.921874 V 33.796252 L 10.308594,30.987658 16,28.272814 Z"/>
 <path style="fill:#ffc45a" d="M 16,21.069688 4,26.796252 v 6.324218 l 12,5.921874 V 32.796252 L 10.308594,29.987658 16,27.272814 Z"/>
 <path style="opacity:0.2" d="M 48,27.667344 V 33.87047 L 53.691406,36.585314 48,39.393908 V 45.64 l 12,-5.921874 v -6.324218 z"/>
 <path style="fill:#dd7456" d="M 48,26.667344 V 32.87047 L 53.691406,35.585314 48,38.393908 V 44.64 l 12,-5.921874 v -6.324218 z"/>
 <path style="opacity:0.2" d="m 48,22.069688 v 6.203126 L 53.691406,30.987658 48,33.796252 v 6.246092 L 60,34.12047 v -6.324218 z"/>
 <path style="fill:#ffc45a" d="m 48,21.069688 v 6.203126 L 53.691406,29.987658 48,32.796252 v 6.246092 L 60,33.12047 v -6.324218 z"/>
 <path style="opacity:0.1;fill:#8b9cbe" d="M 6.8007812 4 C 5.2495812 4 4 5.2495812 4 6.8007812 L 4 7.8007812 C 4 6.2495813 5.2495812 5 6.8007812 5 L 57.199219 5 C 58.750419 5 60 6.2495812 60 7.8007812 L 60 6.8007812 C 60 5.2495813 58.750419 4 57.199219 4 L 6.8007812 4 z"/>
</svg>
