<svg xmlns="http://www.w3.org/2000/svg" width="64" height="64" version="1">
 <path style="opacity:0.2" d="M 32,5 C 16.488,5 4,17.488 4,33 4,48.512 16.488,61 32,61 47.512,61 60,48.512 60,33 60,17.488 47.512,5 32,5 Z"/>
 <path style="fill:#b2bfd9" d="M 32,4 C 16.488,4 4,16.488 4,32 4,47.512 16.488,60 32,60 47.512,60 60,47.512 60,32 60,16.488 47.512,4 32,4 Z"/>
 <path style="opacity:0.1" d="m 22.607494,17.000001 -1.896536,1.096541 -0.606674,0.350017 -2.09603,1.211391 -0.0083,0.0054 0.0083,0.0054 v 1.949726 23.581332 L 22,48.000072 26,45.199928 V 28.436902 l 6,4.100786 6,-4.100786 v 16.763026 l 4,2.800144 3.991744,-2.800144 V 21.618596 19.668888 L 46,19.663428 45.991744,19.657968 43.895716,18.446577 43.289042,18.09656 41.392508,17.000019 32,22.941116 Z"/>
 <path style="fill:#8b8b8b" d="m 22.607494,16.000001 -1.896536,1.096541 -0.606674,0.350017 -2.09603,1.211391 -0.0083,0.0055 0.0083,0.0055 v 1.949726 23.581332 L 22,47.000072 26,44.199928 V 27.436902 l 6,4.100786 6,-4.100786 v 16.763026 l 4,2.800144 3.991744,-2.800144 V 20.618596 18.668888 L 46,18.663428 45.991744,18.657968 43.895716,17.446577 43.289042,17.09656 41.392508,16.000019 32,21.941116 Z"/>
 <path style="opacity:0.2" d="m 22.607494,16.000001 -1.896536,1.096541 -0.606674,0.350017 -2.09603,1.211391 -0.0083,0.0055 0.0083,0.0055 v 1.949726 23.581332 L 22,47.000072 26,44.199928 V 27.436902 l 6,4.100786 v -9.596572 z"/>
 <path style="opacity:0.2;fill:#8b9cbe" d="M 32 4 C 16.488 4 4 16.488 4 32 C 4 32.11345 4.0112805 32.224113 4.0175781 32.335938 C 4.3691213 17.134181 16.710728 5 32 5 C 47.289272 5 59.630879 17.134181 59.982422 32.335938 C 59.98872 32.224113 60 32.11345 60 32 C 60 16.488 47.512 4 32 4 z"/>
</svg>
