<svg xmlns="http://www.w3.org/2000/svg" width="64" height="64" version="1">
 <circle style="opacity:0.2" cx="32" cy="33" r="28"/>
 <circle style="fill:#546e7a" cx="32" cy="32" r="28"/>
 <path style="opacity:0.1" d="m 33.921456,10.999965 c -0.380052,-0.0022 -0.52726,0.299063 -1.298274,2.645655 l -0.767302,2.332597 -1.169366,0.104364 c -0.644018,0.05819 -1.387716,0.150858 -1.651232,0.205636 -0.348384,0.07238 -0.510704,0.07402 -0.595428,0.0032 -0.06404,-0.05324 -0.607098,-0.933464 -1.206196,-1.955092 -1.197274,-2.041683 -1.44039,-2.369427 -1.77707,-2.369427 -0.353824,0 -2.72468,0.944273 -2.89733,1.154021 -0.08472,0.10296 -0.15182,0.3144 -0.15038,0.46652 0.0011,0.152114 0.21411,1.265437 0.47266,2.476849 0.258562,1.211423 0.454648,2.244242 0.435824,2.292698 -0.0188,0.0484 -0.300236,0.25139 -0.626118,0.45424 -0.325876,0.202852 -0.918522,0.630331 -1.31362,0.948386 -0.395082,0.318055 -0.755084,0.580079 -0.80106,0.580079 -0.04594,0 -0.969561,-0.50187 -2.0533,-1.114122 -2.22835,-1.258873 -2.33437,-1.307426 -2.648731,-1.187778 -0.339637,0.129265 -2.007259,2.245367 -2.007259,2.547439 0,0.327383 0.08064,0.429349 1.780138,2.320321 0.812531,0.904048 1.476288,1.70811 1.476288,1.786276 0,0.0781 -0.170054,0.488528 -0.380581,0.911556 -0.21053,0.423028 -0.491855,1.05485 -0.62305,1.402626 -0.131204,0.347766 -0.286932,0.67151 -0.34682,0.721264 -0.06691,0.05566 -1.046935,0.10056 -2.54437,0.11662 -3.004274,0.03224 -2.73996,-0.11244 -3.023169,1.675784 -0.109672,0.692638 -0.202945,1.36375 -0.205635,1.491636 -0.0099,0.476444 0.191548,0.582212 2.636446,1.387282 l 2.329527,0.767302 0.101284,1.141742 c 0.0568,0.628962 0.147276,1.37752 0.199498,1.660442 0.05229,0.28293 0.0725,0.549346 0.04604,0.592356 -0.02659,0.04302 -0.92704,0.597446 -2.001121,1.23382 -1.074089,0.636386 -2.039526,1.254708 -2.148445,1.371934 -0.108902,0.11724 -0.199498,0.317116 -0.199498,0.445036 0,0.374232 0.959905,2.736026 1.172437,2.885054 0.277858,0.19482 0.517762,0.166 2.918816,-0.34682 1.209667,-0.25837 2.240717,-0.450534 2.289626,-0.429688 0.04888,0.0209 0.254275,0.301628 0.457312,0.626118 0.203027,0.324478 0.632578,0.918496 0.954524,1.319756 0.400579,0.49928 0.566453,0.777232 0.527903,0.877794 -0.03099,0.08086 -0.526957,0.986348 -1.104915,2.013398 -1.184592,2.105098 -1.252787,2.251498 -1.175506,2.559718 0.07901,0.315216 2.257744,2.05716 2.571995,2.056368 0.324119,-8.14e-4 0.47935,-0.1193 2.295766,-1.761724 0.884238,-0.799538 1.674094,-1.465266 1.755586,-1.479358 0.08152,-0.0142 0.50199,0.15024 0.936106,0.365236 0.434114,0.214996 1.098068,0.499784 1.473218,0.632256 0.37515,0.13246 0.69022,0.245834 0.69978,0.251676 0.0098,0.0054 0.03766,1.149424 0.06446,2.541302 0.05976,3.108334 -0.08204,2.837184 1.654302,3.118312 1.304776,0.211244 1.81939,0.212676 2.028744,0.0032 0.07296,-0.07304 0.474168,-1.17693 0.893142,-2.452296 l 0.761162,-2.31725 0.877792,-0.06754 c 0.481652,-0.03706 1.230914,-0.12782 1.666578,-0.1995 0.788652,-0.12978 0.794324,-0.12934 0.957594,0.06754 0.09022,0.10878 0.651022,1.02957 1.249166,2.047162 0.59814,1.01759 1.173158,1.92246 1.276788,2.007258 0.28377,0.2322 0.486352,0.19504 1.85687,-0.328404 1.30704,-0.499204 1.569244,-0.68149 1.568366,-1.092638 -2.64e-4,-0.1279 -0.214158,-1.241566 -0.475728,-2.476848 -0.261574,-1.235282 -0.4559,-2.279764 -0.432758,-2.31725 0.0232,-0.03752 0.324544,-0.25918 0.672156,-0.494144 0.347602,-0.234958 0.929094,-0.669576 1.292136,-0.966798 0.363052,-0.297222 0.69821,-0.540124 0.742746,-0.54018 0.04452,-6.6e-5 0.994404,0.509804 2.111616,1.132536 2.283976,1.273066 2.269884,1.26676 2.571994,1.190852 0.32146,-0.08074 2.056366,-2.263576 2.056366,-2.587338 0,-0.30289 -0.07326,-0.397032 -1.801624,-2.323392 -0.77597,-0.864866 -1.424578,-1.64335 -1.439456,-1.73103 -0.0152,-0.08766 0.13474,-0.479912 0.331476,-0.871654 0.19674,-0.391746 0.477624,-1.020572 0.626114,-1.39649 0.14848,-0.375916 0.308888,-0.721914 0.35603,-0.77037 0.051,-0.05236 1.082636,-0.10576 2.544372,-0.13198 2.345098,-0.04202 2.467262,-0.05448 2.642584,-0.230192 0.1439,-0.14422 0.228956,-0.468984 0.395928,-1.497772 0.11728,-0.722482 0.214142,-1.397188 0.214844,-1.500842 0.0034,-0.418794 -0.248638,-0.546808 -2.639516,-1.34124 L 49.0281,32.880543 48.92988,31.741869 c -0.0546,-0.62621 -0.14268,-1.37313 -0.19642,-1.657374 -0.05372,-0.28424 -0.07604,-0.55183 -0.0491,-0.595422 0.02694,-0.04356 0.927394,-0.598944 2.001122,-1.233822 1.073728,-0.634878 2.039536,-1.250704 2.148442,-1.368868 0.1089,-0.11816 0.1995,-0.314772 0.1995,-0.435826 0,-0.34715 -0.945632,-2.703398 -1.15402,-2.875844 -0.264758,-0.21909 -0.44571,-0.200418 -2.55051,0.248604 -2.471346,0.52723 -2.604196,0.55078 -2.694764,0.488004 -0.04242,-0.02936 -0.26819,-0.3411 -0.500278,-0.69364 -0.232092,-0.35254 -0.656402,-0.926704 -0.942248,-1.27679 -0.285848,-0.350076 -0.51863,-0.674426 -0.518698,-0.718194 -5.4e-5,-0.04378 0.51138,-0.992415 1.135608,-2.111613 0.624212,-1.119246 1.157284,-2.119536 1.187778,-2.222166 0.105484,-0.355015 -0.114578,-0.630399 -1.221544,-1.519257 -1.179702,-0.947268 -1.386452,-1.03492 -1.807764,-0.745816 -0.11968,0.08217 -0.959458,0.815426 -1.863006,1.629747 -0.903558,0.814321 -1.705564,1.482428 -1.78321,1.482428 -0.07768,0 -0.485896,-0.175 -0.908484,-0.386721 -0.422592,-0.211689 -1.0266,-0.473099 -1.341248,-0.583132 -0.921822,-0.322367 -0.880498,-0.18815 -0.880862,-2.851291 -2.96e-4,-2.117034 -0.0134,-2.325716 -0.1688,-2.581202 -0.101978,-0.167431 -0.267752,-0.296626 -0.417416,-0.328416 -0.380342,-0.0809 -2.519224,-0.404237 -2.682502,-0.405293 z"/>
 <path style="fill:#768b95" d="m 33.921456,10.000012 c -0.380052,-0.0022 -0.52726,0.299063 -1.298274,2.645655 l -0.767302,2.332597 -1.169366,0.104364 c -0.644018,0.05819 -1.387716,0.150858 -1.651232,0.205636 -0.348384,0.07238 -0.510704,0.07402 -0.595428,0.0032 -0.06404,-0.05324 -0.607098,-0.933464 -1.206196,-1.955092 -1.197274,-2.041683 -1.44039,-2.369427 -1.77707,-2.369427 -0.353824,0 -2.72468,0.944273 -2.89733,1.154021 -0.08472,0.10296 -0.15182,0.3144 -0.15038,0.46652 0.0011,0.152114 0.21411,1.265437 0.47266,2.476849 0.258562,1.211423 0.454648,2.244242 0.435824,2.292698 -0.0188,0.0484 -0.300236,0.25139 -0.626118,0.45424 -0.325876,0.202852 -0.918522,0.630331 -1.31362,0.948386 -0.395082,0.318055 -0.755084,0.580079 -0.80106,0.580079 -0.04594,0 -0.969561,-0.50187 -2.0533,-1.114122 -2.22835,-1.258873 -2.33437,-1.307426 -2.648731,-1.187778 -0.339637,0.129265 -2.007259,2.245367 -2.007259,2.547439 0,0.327383 0.08064,0.429349 1.780138,2.320321 0.812531,0.904048 1.476288,1.70811 1.476288,1.786276 0,0.0781 -0.170054,0.488528 -0.380581,0.911556 -0.21053,0.423028 -0.491855,1.05485 -0.62305,1.402626 -0.131204,0.347766 -0.286932,0.67151 -0.34682,0.721264 -0.06691,0.05566 -1.046935,0.10056 -2.54437,0.11662 -3.004274,0.03224 -2.73996,-0.11244 -3.023169,1.675784 -0.109672,0.692638 -0.202945,1.36375 -0.205635,1.491636 -0.0099,0.476444 0.191548,0.582212 2.636446,1.387282 l 2.329527,0.767302 0.101284,1.141742 c 0.0568,0.628962 0.147276,1.37752 0.199498,1.660442 0.05229,0.28293 0.0725,0.549346 0.04604,0.592356 -0.02659,0.04302 -0.92704,0.597446 -2.001121,1.23382 -1.074089,0.636386 -2.039526,1.254708 -2.148445,1.371934 -0.108902,0.11724 -0.199498,0.317116 -0.199498,0.445036 0,0.374232 0.959905,2.736026 1.172437,2.885054 0.277858,0.19482 0.517762,0.166 2.918816,-0.34682 1.209667,-0.25837 2.240717,-0.450534 2.289626,-0.429688 0.04888,0.0209 0.254275,0.301628 0.457312,0.626118 0.203027,0.324478 0.632578,0.918496 0.954524,1.319756 0.400579,0.49928 0.566453,0.777232 0.527903,0.877794 -0.03099,0.08086 -0.526957,0.986348 -1.104915,2.013398 -1.184592,2.105098 -1.252787,2.251498 -1.175506,2.559718 0.07901,0.315216 2.257744,2.05716 2.571995,2.056368 0.324119,-8.14e-4 0.47935,-0.1193 2.295766,-1.761724 0.884238,-0.799538 1.674094,-1.465266 1.755586,-1.479358 0.08152,-0.0142 0.50199,0.15024 0.936106,0.365236 0.434114,0.214996 1.098068,0.499784 1.473218,0.632256 0.37515,0.13246 0.69022,0.245834 0.69978,0.251676 0.0098,0.0054 0.03766,1.149424 0.06446,2.541302 0.05976,3.108334 -0.08204,2.837184 1.654302,3.118312 1.304776,0.211244 1.81939,0.212676 2.028744,0.0032 0.07296,-0.07304 0.474168,-1.17693 0.893142,-2.452296 l 0.761162,-2.31725 0.877792,-0.06754 c 0.481652,-0.03706 1.230914,-0.12782 1.666578,-0.1995 0.788652,-0.12978 0.794324,-0.12934 0.957594,0.06754 0.09022,0.10878 0.651022,1.02957 1.249166,2.047162 0.59814,1.01759 1.173158,1.92246 1.276788,2.007258 0.28377,0.2322 0.486352,0.19504 1.85687,-0.328404 1.30704,-0.499204 1.569244,-0.68149 1.568366,-1.092638 -2.64e-4,-0.1279 -0.214158,-1.241566 -0.475728,-2.476848 -0.261574,-1.235282 -0.4559,-2.279764 -0.432758,-2.31725 0.0232,-0.03752 0.324544,-0.25918 0.672156,-0.494144 0.347602,-0.234958 0.929094,-0.669576 1.292136,-0.966798 0.363052,-0.297222 0.69821,-0.540124 0.742746,-0.54018 0.04452,-6.6e-5 0.994404,0.509804 2.111616,1.132536 2.283976,1.273066 2.269884,1.26676 2.571994,1.190852 0.32146,-0.08074 2.056366,-2.263576 2.056366,-2.587338 0,-0.30289 -0.07326,-0.397032 -1.801624,-2.323392 -0.77597,-0.864866 -1.424578,-1.64335 -1.439456,-1.73103 -0.0152,-0.08766 0.13474,-0.479912 0.331476,-0.871654 0.19674,-0.391746 0.477624,-1.020572 0.626114,-1.39649 0.14848,-0.375916 0.308888,-0.721914 0.35603,-0.77037 0.051,-0.05236 1.082636,-0.10576 2.544372,-0.13198 2.345098,-0.04202 2.467262,-0.05448 2.642584,-0.230192 0.1439,-0.14422 0.228956,-0.468984 0.395928,-1.497772 0.11728,-0.722482 0.214142,-1.397188 0.214844,-1.500842 0.0034,-0.418794 -0.248638,-0.546808 -2.639516,-1.34124 L 49.0281,31.88059 48.92988,30.741916 c -0.0546,-0.62621 -0.14268,-1.37313 -0.19642,-1.657374 -0.05372,-0.28424 -0.07604,-0.55183 -0.0491,-0.595422 0.02694,-0.04356 0.927394,-0.598944 2.001122,-1.233822 1.073728,-0.634878 2.039536,-1.250704 2.148442,-1.368868 0.1089,-0.11816 0.1995,-0.314772 0.1995,-0.435826 0,-0.34715 -0.945632,-2.703398 -1.15402,-2.875844 -0.264758,-0.21909 -0.44571,-0.200418 -2.55051,0.248604 -2.471346,0.52723 -2.604196,0.55078 -2.694764,0.488004 -0.04242,-0.02936 -0.26819,-0.3411 -0.500278,-0.69364 -0.232092,-0.35254 -0.656402,-0.926704 -0.942248,-1.27679 -0.285848,-0.350076 -0.51863,-0.674426 -0.518698,-0.718194 -5.4e-5,-0.04378 0.51138,-0.992415 1.135608,-2.111613 0.624212,-1.119246 1.157284,-2.119536 1.187778,-2.222166 0.105484,-0.355015 -0.114578,-0.630399 -1.221544,-1.519257 -1.179702,-0.947268 -1.386452,-1.03492 -1.807764,-0.745816 -0.11968,0.08217 -0.959458,0.815426 -1.863006,1.629747 -0.903558,0.814321 -1.705564,1.482428 -1.78321,1.482428 -0.07768,0 -0.485896,-0.175 -0.908484,-0.386721 -0.422592,-0.211689 -1.0266,-0.473099 -1.341248,-0.583132 -0.921822,-0.322367 -0.880498,-0.18815 -0.880862,-2.851291 -2.96e-4,-2.117034 -0.0134,-2.325716 -0.1688,-2.581202 -0.101978,-0.167431 -0.267752,-0.296626 -0.417416,-0.328416 -0.380342,-0.0809 -2.519224,-0.404237 -2.682502,-0.405293 z"/>
 <path style="opacity:0.1;fill:#8b9cbe" d="M 32 4 A 28 28 0 0 0 4 32 A 28 28 0 0 0 4.0175781 32.492188 A 28 28 0 0 1 32 5 A 28 28 0 0 1 59.974609 32.492188 A 28 28 0 0 0 60 32 A 28 28 0 0 0 32 4 z"/>
 <path style="opacity:0.2" d="m 28,21.999953 v 12 h -6 l 10,11 10,-11 h -6 v -12 z"/>
 <path style="fill:#8b9cbe" d="M 28,21 V 33 H 22 L 32,44 42,33 H 36 V 21 Z"/>
 <path style="opacity:0.1;fill:#8b9cbe" d="M 33.921875 10 C 33.541823 9.9978 33.394061 10.299892 32.623047 12.646484 L 31.855469 14.978516 L 30.685547 15.082031 C 30.041529 15.140221 29.298672 15.234285 29.035156 15.289062 C 28.686772 15.361443 28.524177 15.361836 28.439453 15.291016 C 28.375413 15.237776 27.833473 14.357566 27.234375 13.335938 C 26.037101 11.294254 25.793711 10.966797 25.457031 10.966797 C 25.103207 10.966797 22.731244 11.911346 22.558594 12.121094 C 22.473874 12.224054 22.406763 12.435771 22.408203 12.587891 C 22.408471 12.62496 22.500408 13.052661 22.523438 13.191406 C 22.536134 13.169484 22.54473 13.137942 22.558594 13.121094 C 22.731244 12.911346 25.103207 11.966797 25.457031 11.966797 C 25.793711 11.966797 26.037101 12.294255 27.234375 14.335938 C 27.833473 15.357565 28.375413 16.237776 28.439453 16.291016 C 28.524177 16.361836 28.686772 16.361442 29.035156 16.289062 C 29.298672 16.234285 30.041529 16.140221 30.685547 16.082031 L 31.855469 15.978516 L 32.623047 13.646484 C 33.394061 11.299892 33.541823 10.9978 33.921875 11 C 34.085153 11.001056 36.223174 11.323397 36.603516 11.404297 C 36.75318 11.436087 36.919506 11.566944 37.021484 11.734375 C 37.176884 11.989861 37.189157 12.197419 37.189453 14.314453 C 37.189817 16.977594 37.148491 16.843649 38.070312 17.166016 C 38.38496 17.276049 38.989517 17.538311 39.412109 17.75 C 39.834697 17.961721 40.242632 18.136719 40.320312 18.136719 C 40.397958 18.136719 41.199958 17.468618 42.103516 16.654297 C 43.007064 15.839976 43.847117 15.105607 43.966797 15.023438 C 44.388109 14.734333 44.595689 14.822263 45.775391 15.769531 C 46.293254 16.185359 46.601935 16.459469 46.789062 16.677734 C 46.822891 16.60913 46.990765 16.306997 46.996094 16.289062 C 47.101578 15.934048 46.882357 15.658389 45.775391 14.769531 C 44.595689 13.822263 44.388109 13.734333 43.966797 14.023438 C 43.847117 14.105607 43.007064 14.839976 42.103516 15.654297 C 41.199958 16.468618 40.397958 17.136719 40.320312 17.136719 C 40.242632 17.136719 39.834697 16.961721 39.412109 16.75 C 38.989517 16.538311 38.38496 16.276049 38.070312 16.166016 C 37.148491 15.843649 37.189817 15.977594 37.189453 13.314453 C 37.189157 11.197419 37.176884 10.989861 37.021484 10.734375 C 36.919506 10.566944 36.75318 10.43804 36.603516 10.40625 C 36.223174 10.32535 34.085153 10.001056 33.921875 10 z M 16.107422 16.996094 C 16.018458 16.988698 15.95359 17.007197 15.875 17.037109 C 15.535363 17.166374 13.867188 19.283866 13.867188 19.585938 C 13.867188 19.742629 13.895968 19.85463 14.101562 20.128906 C 14.570124 19.408653 15.613446 18.136656 15.875 18.037109 C 16.189361 17.917461 16.295088 17.965736 18.523438 19.224609 C 19.607177 19.836861 20.530232 20.339844 20.576172 20.339844 C 20.622148 20.339844 20.981871 20.077821 21.376953 19.759766 C 21.772051 19.441711 22.36553 19.013399 22.691406 18.810547 C 23.017288 18.607697 23.297606 18.405822 23.316406 18.357422 C 23.32362 18.338852 23.197723 17.740873 23.150391 17.478516 C 23.045338 17.566379 22.930544 17.661692 22.691406 17.810547 C 22.36553 18.013399 21.772051 18.441711 21.376953 18.759766 C 20.981871 19.077821 20.622148 19.339844 20.576172 19.339844 C 20.530232 19.339844 19.607177 18.838815 18.523438 18.226562 C 16.852175 17.282408 16.374315 17.018282 16.107422 16.996094 z M 44.982422 21.050781 C 44.915128 21.181151 44.673813 21.611172 44.673828 21.623047 C 44.673896 21.666815 44.905558 21.991721 45.191406 22.341797 C 45.477252 22.691883 45.902674 23.264647 46.134766 23.617188 C 46.366854 23.969727 46.592346 24.281187 46.634766 24.310547 C 46.725334 24.373323 46.856779 24.351449 49.328125 23.824219 C 51.432925 23.375197 51.614148 23.355129 51.878906 23.574219 C 52.032802 23.701571 52.586939 25.015326 52.867188 25.835938 C 52.958631 25.717265 53.033203 25.558015 53.033203 25.451172 C 53.033203 25.104022 52.087294 22.746665 51.878906 22.574219 C 51.614148 22.355129 51.432925 22.375197 49.328125 22.824219 C 46.856779 23.351449 46.725334 23.373323 46.634766 23.310547 C 46.592346 23.281187 46.366854 22.969727 46.134766 22.617188 C 45.902674 22.264647 45.477252 21.691883 45.191406 21.341797 C 45.075778 21.200188 45.068793 21.167103 44.982422 21.050781 z M 16.855469 24.332031 C 16.803399 24.44727 16.804843 24.477617 16.742188 24.603516 C 16.531658 25.026544 16.250336 25.658083 16.119141 26.005859 C 15.987937 26.353625 15.833326 26.676808 15.773438 26.726562 C 15.706527 26.782222 14.725951 26.82769 13.228516 26.84375 C 10.224242 26.87599 10.488287 26.731307 10.205078 28.519531 C 10.095406 29.212169 10.00269 29.883833 10 30.011719 C 9.9972468 30.144216 10.018155 30.247528 10.091797 30.345703 C 10.129873 30.06396 10.144359 29.903004 10.205078 29.519531 C 10.488287 27.731307 10.224242 27.87599 13.228516 27.84375 C 14.725951 27.82769 15.706527 27.782222 15.773438 27.726562 C 15.833326 27.676808 15.987937 27.353625 16.119141 27.005859 C 16.250336 26.658083 16.531658 26.026544 16.742188 25.603516 C 16.952714 25.180488 17.123047 24.769506 17.123047 24.691406 C 17.123047 24.667331 16.966355 24.475541 16.855469 24.332031 z M 48.775391 29.431641 C 48.770544 29.435753 48.68483 29.486283 48.683594 29.488281 C 48.656654 29.531873 48.680655 29.799744 48.734375 30.083984 C 48.788115 30.368228 48.875087 31.115977 48.929688 31.742188 L 49.027344 32.880859 L 51.361328 33.654297 C 53.107961 34.234662 53.700453 34.458934 53.898438 34.701172 C 53.933401 34.454404 53.99967 34.044822 54 33.996094 C 54.0034 33.5773 53.752206 33.448729 51.361328 32.654297 L 49.027344 31.880859 L 48.929688 30.742188 C 48.886535 30.247271 48.826888 29.789356 48.775391 29.431641 z M 15.224609 35.615234 C 15.126903 35.698628 14.339274 36.186576 13.3125 36.794922 C 12.238411 37.431308 11.272982 38.04879 11.164062 38.166016 C 11.05516 38.283256 10.962891 38.483408 10.962891 38.611328 C 10.962891 38.707422 11.029278 38.937534 11.126953 39.224609 C 11.140653 39.206403 11.149541 39.181649 11.164062 39.166016 C 11.272982 39.04879 12.238411 38.431308 13.3125 37.794922 C 14.386581 37.158548 15.28591 36.603567 15.3125 36.560547 C 15.33896 36.517537 15.319868 36.25168 15.267578 35.96875 C 15.256457 35.908502 15.238505 35.712063 15.224609 35.615234 z M 47.132812 40.71875 C 46.987884 41.032945 46.876178 41.322478 46.888672 41.394531 C 46.90355 41.482211 47.552155 42.260134 48.328125 43.125 C 49.220129 44.11919 49.662867 44.619263 49.890625 44.917969 C 50.032525 44.699305 50.130859 44.522692 50.130859 44.449219 C 50.130859 44.146329 50.056489 44.05136 48.328125 42.125 C 47.771001 41.504051 47.371223 41.026945 47.132812 40.71875 z M 19.019531 44.027344 C 18.842959 44.359115 18.618657 44.776579 18.179688 45.556641 C 16.995096 47.661739 16.926625 47.808967 17.003906 48.117188 C 17.016367 48.166899 17.093955 48.258938 17.195312 48.367188 C 17.361339 48.021929 17.63047 47.532636 18.179688 46.556641 C 18.757645 45.529591 19.254166 44.623829 19.285156 44.542969 C 19.311866 44.473293 19.199164 44.281949 19.019531 44.027344 z M 40.847656 47.59375 C 40.81212 47.622441 40.689266 47.70567 40.683594 47.714844 C 40.660452 47.75233 40.85366 48.795968 41.115234 50.03125 C 41.30728 50.9382 41.389879 51.415787 41.464844 51.849609 C 41.54463 51.746746 41.592079 51.639787 41.591797 51.507812 C 41.591533 51.379913 41.376804 50.266532 41.115234 49.03125 C 40.952914 48.264694 40.922287 48.018316 40.847656 47.59375 z"/>
</svg>
