<svg xmlns="http://www.w3.org/2000/svg" width="64" height="64" version="1">
 <circle style="opacity:0.2" cx="32" cy="33" r="28"/>
 <circle style="fill:#b2bfd9" cx="32" cy="32" r="28"/>
 <path style="opacity:0.1" d="m 31.03125,15.004221 c -1.901796,0.04175 -3.740502,0.525571 -5.390626,1.511719 -3.300246,1.972297 -5.171274,5.546644 -5.5625,9.624998 -0.391227,4.07836 0.672528,8.691684 3.25,12.925782 0.20532,0.337286 0.426416,0.654208 0.644532,0.976562 -2.344844,0.526542 -4.510063,0.854156 -6.28125,0.898438 -2.201417,0.05536 -5.264475,-0.411214 -6.140625,-2.410156 -0.779749,-1.780404 2.118379,-5.390456 2.15625,-5.4375 -0.04927,0.04666 -4.0031048,3.7966 -3.691406,6.152344 0.432921,3.269412 4.584489,3.791788 7.859375,3.753906 1.666136,-0.019 4.254448,-0.45849 7.261718,-1.210938 a 4,4 0 0 0 0.48047,0.425782 c 2.229942,2.596532 4.885982,4.537168 7.648436,5.664062 3.78718,1.544912 7.8143,1.565336 11.093752,-0.39453 3.279454,-1.95987 5.148532,-5.501058 5.554686,-9.550782 0.228296,-2.276292 -0.0156,-4.723796 -0.70703,-7.179688 2.925264,-2.476186 4.817186,-5.192758 4.792968,-8.039062 -0.02944,-3.560802 -6.503906,-3.875321 -6.503906,-3.664062 0,0 4.799862,1.191126 4.695312,3.484374 -0.09194,2.014052 -1.503656,4.08347 -3.699218,6.078126 -0.470318,-1.19536 -1.043124,-2.383634 -1.738282,-3.54297 C 44.20488,20.819542 40.610272,17.72022 36.804688,16.148752 34.901894,15.363019 32.933042,14.962476 31.03125,15.004221 Z m 0.05078,1.433594 c 1.67225,-0.03482 3.425264,0.324954 5.164062,1.042969 3.477596,1.436029 6.85808,4.326022 9.257812,8.328124 0.747072,1.245914 1.340044,2.523324 1.808594,3.804688 -0.554416,0.44344 -1.13409,0.880858 -1.757812,1.3125 C 44.2248,26.346706 40.010132,23.000314 35,23.000314 c -6.07666,0 -11,4.921902 -11,11 0,1.091742 0.16516,2.14531 0.460938,3.140624 a 4,4 0 0 0 -0.238282,0.554688 c -2.157702,-3.81014 -3.034446,-7.882652 -2.695312,-11.417968 0.357746,-3.729326 2.02266,-6.827392 4.867188,-8.527343 1.422266,-0.849975 3.015254,-1.277685 4.687498,-1.3125 z m 1.949218,12.374999 c 3.369738,0 6.208272,2.233522 7.152344,5.292968 -2.66259,1.369078 -5.528506,2.593752 -8.394532,3.625 a 4,4 0 0 0 -6.17578,-1.9375 c 0.255034,-3.899024 3.453062,-6.980468 7.417968,-6.980468 z m 14.9375,2.914062 c 0.522884,2.095878 0.687062,4.15837 0.496094,6.0625 -0.371264,3.70179 -2.029066,6.77182 -4.855468,8.460938 -2.826406,1.689118 -6.333472,1.708112 -9.79297,0.296876 -1.892376,-0.771962 -3.751828,-1.990676 -5.449218,-3.570314 a 4,4 0 0 0 0.25,-0.02734 c 1.800416,1.285728 4.00028,2.050782 6.382812,2.050782 6.078096,0 11,-4.921904 11,-11 0,-0.292856 -0.02444,-0.580122 -0.04688,-0.867188 0.705328,-0.45857 1.378694,-0.925616 2.015626,-1.40625 z m -7.4375,4.453126 c 4.78e-4,0.03472 0.0118,0.06672 0.0118,0.10156 0,4.132132 -3.379576,7.511718 -7.511718,7.511718 -1.355076,0 -2.605066,-0.393098 -3.699218,-1.027344 a 4,4 0 0 0 2.597656,-3.01953 C 34.802396,38.747536 37.74236,37.545068 40.53133,36.18 Z"/>
 <path style="fill:#474747" d="m 31.033066,14.002955 c -1.901796,0.04175 -3.740482,0.527368 -5.390606,1.513516 -3.300246,1.972297 -5.172368,5.545063 -5.563594,9.623419 -0.391228,4.07836 0.670284,8.69305 3.247756,12.927148 2.56118,4.207338 6.1514,7.267794 9.938578,8.812706 3.78718,1.544912 7.814258,1.564198 11.093708,-0.39567 3.279454,-1.959868 5.14907,-5.501756 5.555224,-9.55148 C 50.32029,32.882868 49.288578,28.296072 46.755664,24.07185 44.206638,19.820764 40.608718,16.719937 36.803134,15.148469 34.90034,14.362735 32.934858,13.96121 31.033066,14.002955 Z m 0.04744,1.436042 c 1.67225,-0.03482 3.425806,0.322356 5.164604,1.04037 3.477596,1.43603 6.860836,4.326389 9.260568,8.328491 2.384494,3.976696 3.33163,8.27906 2.96037,11.980856 -0.371264,3.70179 -2.03128,6.772186 -4.857684,8.461304 -2.826404,1.689118 -6.331204,1.707302 -9.790702,0.296064 -3.45951,-1.411244 -6.832742,-4.262562 -9.24384,-8.22335 -2.426502,-3.986094 -3.404608,-8.31517 -3.046864,-12.044492 0.357746,-3.729326 2.021524,-6.827763 4.866052,-8.527713 1.422266,-0.849974 3.015236,-1.276715 4.687482,-1.31153 z"/>
 <path style="fill:#2a58ae" d="m 35,22 c -6.07666,0 -11,4.921902 -11,11 0,6.078096 4.921904,11 11,11 6.078096,0 11,-4.921904 11,-11 0,-6.078098 -4.921904,-11 -11,-11 z m -1.96742,5.813408 c 4.132142,0 7.5117,3.33521 7.5117,7.467342 0,4.132132 -3.379558,7.5117 -7.5117,7.5117 -4.132132,0 -7.467342,-3.379568 -7.467342,-7.5117 0,-4.132132 3.33521,-7.467342 7.467342,-7.467342 z"/>
 <path style="fill:#474747" d="m 13.720845,32.0792 c 0,0 -4.0170366,3.79537 -3.70339,6.165836 0.432921,3.269412 4.582483,3.791 7.857369,3.753118 7.93983,-0.09034 36.21865,-9.27061 36.124944,-20.283478 -0.02944,-3.560803 -6.50265,-3.875504 -6.50265,-3.664245 0,0 4.800416,1.19179 4.695866,3.485039 -0.390218,8.547964 -24.010114,18.144404 -34.499815,18.406656 -2.201418,0.05535 -5.265733,-0.413776 -6.141883,-2.412718 -0.784853,-1.792058 2.16755,-5.450476 2.16755,-5.450476 z"/>
 <path style="opacity:0.1" d="m 45.999932,22.026077 a 5,5 0 0 1 -9.999864,0 5,5 0 1 1 9.999864,0 z"/>
 <path style="fill:#d24646" d="m 45.999932,21.026076 a 5,5 0 0 1 -9.999864,0 5,5 0 1 1 9.999864,0 z"/>
 <path style="fill:#606060" d="m 32,38 a 4,4 0 0 1 -8,0 4,4 0 1 1 8,0 z"/>
 <path style="opacity:0.2;fill:#8b9cbe;fill-rule:evenodd" d="M 32 4 A 28 28 0 0 0 4 32 A 28 28 0 0 0 4.0175781 32.492188 A 28 28 0 0 1 32 5 A 28 28 0 0 1 59.974609 32.492188 A 28 28 0 0 0 60 32 A 28 28 0 0 0 32 4 z"/>
</svg>
