<svg xmlns="http://www.w3.org/2000/svg" width="64" height="64" version="1.1">
 <g style="opacity:0.2" transform="matrix(0.05724631,0,0,0.05724631,5.348527,4.423992)">
  <g>
   <path transform="matrix(24.455977,0,0,24.455977,-96.497486,-87.776619)" d="m 14.373044,28.197268 c -0.797351,0.977266 0.150391,2.820312 0.150391,2.820312 0,0 7.67204,11.007441 8.804687,12.283203 1.136736,1.279851 2.441014,0.629721 1.488281,-1.136719 -0.126187,-0.232449 -0.376721,-0.714536 -0.640625,-1.224609 L 19.402371,32.96672 17.356492,29.549611 c -0.642988,-0.987752 -0.988202,-1.499243 -1.954151,-1.789843 0,0 -0.792518,0.216077 -1.029297,0.4375 z m 0.595705,-0.400393 c -0.126758,0.0368 -0.244884,0.09791 -0.359375,0.179687 0.360279,-0.180632 0.359375,-0.179687 0.359375,-0.179687 z"/>
  </g>
 </g>
 <g style="opacity:0.2" transform="matrix(0.05724631,0,0,0.05724631,6.0224085,4.423992)">
  <g>
   <path transform="matrix(24.455977,0,0,24.455977,-96.497486,-87.776619)" d="m 24.107015,4.0078125 c -5.282691,0.4265577 -8.507383,19.3262155 -8.043539,24.1601565 -0.04106,-0.02445 -0.08514,-0.03944 -0.126953,-0.0625 0.208257,0.321179 1.048793,5.596477 1.274735,5.959128 2.374646,3.811449 4.984742,4.720218 6.574723,7.078296 2.535167,-0.0082 6.730767,2.982777 10.243316,2.853201 2.339973,-0.08632 5.511967,-2.937976 4.894531,-11.573902 -0.613347,-8.631836 -11.36841,-5.818359 -11.384766,-5.818359 2.191694,-1.56199 3.957215,-3.351107 5.735922,-4.242505 2.007689,-1.247139 -0.674788,-4.989055 -3.144532,-9.429687 C 28.069606,9.2270247 26.425871,4.656145 25.190999,4.1777344 24.821202,4.03232 24.459194,3.9793753 24.107015,4.0078125 Z"/>
  </g>
 </g>
 <path style="fill:none;stroke:#17191e;stroke-width:2" d="m 11.698399,29.7 c 5.187573,0.380298 6.834137,2.500385 9.100601,9.299777"/>
 <g style="fill:#b2bfd9" transform="matrix(0.05724631,0,0,0.05724631,6.0224085,3.4242439)">
  <g style="fill:#b2bfd9">
   <path style="fill:#b2bfd9" transform="matrix(24.455977,0,0,24.455977,-96.497486,-87.776619)" d="m 24.107015,4.0078125 c -5.282691,0.4265577 -8.507383,19.3262155 -8.043539,24.1601565 -0.04106,-0.02445 -0.08514,-0.03944 -0.126953,-0.0625 0.208257,0.321179 1.048793,5.596477 1.274735,5.959128 2.374646,3.811449 4.984742,4.720218 6.574723,7.078296 2.535167,-0.0082 6.730767,2.982777 10.243316,2.853201 2.339973,-0.08632 5.511967,-2.937976 4.894531,-11.573902 -0.613347,-8.631836 -11.36841,-5.818359 -11.384766,-5.818359 2.191694,-1.56199 3.957215,-3.351107 5.735922,-4.242505 2.007689,-1.247139 -0.674788,-4.989055 -3.144532,-9.429687 C 28.069606,9.2270247 26.425871,4.656145 25.190999,4.1777344 24.821202,4.03232 24.459194,3.9793753 24.107015,4.0078125 Z"/>
  </g>
 </g>
 <g style="fill:#8b9cbe;opacity:0.2" transform="matrix(0.05724631,0,0,0.05724631,6.0224085,3.4242439)">
  <g style="fill:#8b9cbe">
   <path style="fill:#8b9cbe" transform="matrix(17.468375,0,0,17.468375,-105.20169,-59.815976)" d="M 34.248047 4.0097656 C 27.184628 4.5801105 22.762107 28.697505 22.943359 36.763672 C 23.108974 27.871038 27.457336 5.5580904 34.248047 5.0097656 C 34.741103 4.9699531 35.247904 5.0444646 35.765625 5.2480469 C 37.494464 5.9178286 39.796426 12.31739 42.681641 17.503906 C 45.121662 21.891097 47.698985 25.783236 48.023438 28.3125 C 48.446238 25.889741 45.469511 21.516533 42.681641 16.503906 C 39.796426 11.31739 37.494464 4.9178286 35.765625 4.2480469 C 35.247904 4.0444646 34.741103 3.9699531 34.248047 4.0097656 z M 43.880859 35.035156 C 42.645583 35.060411 41.63347 35.190766 40.787109 35.324219 C 40.223779 35.768052 39.657742 36.213351 39.052734 36.644531 C 39.075633 36.644531 54.133493 32.706321 54.992188 44.791016 C 55.043007 45.50182 55.07243 46.178301 55.087891 46.833984 C 55.091162 45.875618 55.06983 44.876986 54.992188 43.791016 C 54.455503 36.238081 48.373223 34.943311 43.880859 35.035156 z M 22.810547 37.748047 C 22.848105 37.80597 22.899686 37.985559 22.962891 38.244141 C 22.955732 38.104297 22.949129 37.964271 22.945312 37.8125 C 22.90059 37.790376 22.854842 37.772476 22.810547 37.748047 z"/>
  </g>
 </g>
 <g style="fill:#17191e" transform="matrix(0.05724631,0,0,0.05724631,5.348527,3.4242439)">
  <g style="fill:#17191e">
   <path style="fill:#17191e" transform="matrix(24.455977,0,0,24.455977,-96.497486,-87.776619)" d="m 14.373044,28.197268 c -0.797351,0.977266 0.150391,2.820312 0.150391,2.820312 0,0 7.67204,11.007441 8.804687,12.283203 1.136736,1.279851 2.441014,0.629721 1.488281,-1.136719 -0.126187,-0.232449 -0.376721,-0.714536 -0.640625,-1.224609 L 19.402371,32.96672 17.356492,29.549611 c -0.642988,-0.987752 -0.988202,-1.499243 -1.954151,-1.789843 0,0 -0.792518,0.216077 -1.029297,0.4375 z m 0.595705,-0.400393 c -0.126758,0.0368 -0.244884,0.09791 -0.359375,0.179687 0.360279,-0.180632 0.359375,-0.179687 0.359375,-0.179687 z"/>
  </g>
 </g>
 <circle style="opacity:0.2" cx="21" cy="40" r="4"/>
 <circle style="fill:#4f4f4f" cx="21" cy="39" r="4"/>
 <circle style="opacity:0.2" cx="11.5" cy="30.499" r="2.5"/>
 <circle style="fill:#4f4f4f" cx="11.5" cy="29.5" r="2.5"/>
 <path style="fill:#4f4f4f" d="m 27.177857,15.142107 c -0.133771,3.15e-4 -0.354254,0.01344 -0.568756,0.02188 -0.311775,0.978372 -0.60811,1.979107 -0.883213,3.00511 2.670123,-0.58098 5.637277,0.655577 7.073902,2.906671 -0.05011,-0.780372 -0.250474,-1.540076 -0.590631,-2.239477 -1.025317,-2.095017 -2.625444,-3.693578 -5.031302,-3.694179 z"/>
 <path style="fill:#4f4f4f" d="m 24.457125,23.632431 c -0.187667,0.941043 -0.356979,1.868173 -0.511333,2.783622 2.188837,0.156257 4.87163,1.09648 5.895373,2.70159 -0.05011,-0.780371 -0.250474,-1.540077 -0.590631,-2.239476 -0.842938,-1.714536 -2.854935,-2.882932 -4.793409,-3.245736 z"/>
</svg>
