<svg width="64" height="64" version="1.1" xmlns="http://www.w3.org/2000/svg">
 <g>
  <circle cx="32" cy="33" r="28" style="opacity:.2"/>
  <circle cx="32" cy="32" r="28" style="fill:#e4accb"/>
  <path d="M 32 4 A 28 28 0 0 0 4 32 A 28 28 0 0 0 4.0215 32.586 A 28 28 0 0 1 32 5 A 28 28 0 0 1 59.979 32.414 A 28 28 0 0 0 60 32 A 28 28 0 0 0 32 4 z" style="fill:#8b9cbe;opacity:.2"/>
  <circle cx="32" cy="33" r="20" style="opacity:.2"/>
  <circle cx="32" cy="32" r="20" style="fill:#b2bfd9"/>
 </g>
 <path d="m4 44h11v-11l3 3 3-3v11h11l-3-22-8-3-3 3-3-3-8 3z" style="opacity:.1"/>
 <path d="m4 43h11v-11l3 3 3-3v11h11l-3-22-8-3-3 3-3-3-8 3z" style="fill:#f48b97"/>
 <path d="m35 11v11l5-11zm-6 5 3 6v-6zm14 0-3 6 6-3zm-9 6a13 11 0 0 0-13 11 13 11 0 0 0 13 11 13 11 0 0 0 13-11 13 11 0 0 0-13-11zm-0.5 8a4.5 3 0 0 1 4.5 3 4.5 3 0 0 1-4.5 3 4.5 3 0 0 1-4.5-3 4.5 3 0 0 1 4.5-3z" style="opacity:.1"/>
 <path d="m15 18-8 3-3 22h0.1367188l2.8632812-21 8-3 3 3 3-3 8 3 2.863281 21h0.136719l-3-22-8-3-3 3-3-3z" style="fill:#8b9cbe;opacity:.2"/>
 <path d="m35 10v11l5-11h-5zm-6 5 3 6v-6h-3zm14 0-3 6 6-3-3-3zm-9 6a13 11 0 0 0-13 11 13 11 0 0 0 13 11 13 11 0 0 0 13-11 13 11 0 0 0-13-11zm-0.5 8a4.5 3 0 0 1 4.5 3 4.5 3 0 0 1-4.5 3 4.5 3 0 0 1-4.5-3 4.5 3 0 0 1 4.5-3z" style="fill:#a9cc37"/>
 <path d="m39 47 2-28 19-3v9h-11v2h6v7h-6v5h9l2 8z" style="opacity:.1"/>
 <path d="m35 10v1h4.544922l0.455078-1h-5zm-6 5 0.5 1h2.5v-1h-3zm14 0-3 6 0.666016-0.333984 2.333984-4.666016 2.333984 2.333984 0.666016-0.333984-3-3zm-9 6a13 11 0 0 0-2 0.144531v0.855469l-0.402344-0.804688a13 11 0 0 0-10.597656 10.804688 13 11 0 0 0 0.025391 0.421875 13 11 0 0 1 12.974609-10.421875 13 11 0 0 1 12.974609 10.578125 13 11 0 0 0 0.025391-0.578125 13 11 0 0 0-11.582031-10.921875l-0.417969 0.921875v-0.964844a13 11 0 0 0-1-0.035156zm3.933594 11.490234a4.5 3 0 0 1-4.433594 2.509766 4.5 3 0 0 1-4.433594-2.490234 4.5 3 0 0 0-0.066406 0.490234 4.5 3 0 0 0 4.5 3 4.5 3 0 0 0 4.5-3 4.5 3 0 0 0-0.066406-0.509766z" style="fill:#8b9cbe;opacity:.2"/>
 <path d="m39 46 2-28 19-3v9h-11v2h6v7h-6v5h9l2 8z" style="fill:#90ccf2"/>
 <path d="m60 15-19 3-2 28h0.072266l1.927734-27 19-3v-1zm-11 11v1h6v-1h-6zm0 12v1h9l1.75 7h0.25l-2-8h-9z" style="fill:#8b9cbe;opacity:.2"/>
</svg>
