<svg xmlns="http://www.w3.org/2000/svg" width="64" height="64" version="1.1">
 <path style="opacity:0.2" d="m 31.857878,48.025 c -0.17308,0.56588 -0.14036,1.168894 -0.227376,1.750132 -0.1428,1.39307 -0.250402,2.796036 -0.610454,4.156988 -0.1305,0.577228 -0.333556,1.136988 -0.496048,1.70652 0.39137,0.75512 0.51913,1.59222 0.605972,2.422194 0.17852,0.969136 0.223968,1.957082 0.300458,2.93548 0.062,0.48862 -0.19582,1.108634 0.237916,1.476956 0.493916,0.1627 0.986048,0.338808 1.471582,0.52673 -0.06392,-0.944484 -0.1584,-1.887924 -0.13208,-2.835514 -0.03896,-0.89612 0.10856,-1.784108 0.1782,-2.675958 0.04562,-0.43156 0.0457,-0.871752 0.219088,-1.279076 0.13148,-0.384916 0.399738,-0.713398 0.586812,-1.075412 -0.286592,-0.19284 -0.55795,-0.420436 -0.80534,-0.652842 -0.217058,-0.494994 -0.493564,-0.9695 -0.669116,-1.478806 C 32.090614,51.380956 31.834674,49.699762 31.85787,48.025 Z"/>
 <path style="fill:#abacac" d="m 31.857878,47.025 c -0.17308,0.56588 -0.14036,1.168894 -0.227376,1.750132 -0.1428,1.39307 -0.250402,2.796036 -0.610454,4.156988 -0.1305,0.577228 -0.333556,1.136988 -0.496048,1.70652 0.39137,0.75512 0.51913,1.59222 0.605972,2.422194 0.17852,0.969136 0.223968,1.957082 0.300458,2.93548 0.062,0.48862 -0.19582,1.108634 0.237916,1.476956 0.493916,0.1627 0.986048,0.338808 1.471582,0.52673 -0.06392,-0.944484 -0.1584,-1.887924 -0.13208,-2.835514 -0.03896,-0.89612 0.10856,-1.784108 0.1782,-2.675958 0.04562,-0.43156 0.0457,-0.871752 0.219088,-1.279076 0.13148,-0.384916 0.399738,-0.713398 0.586812,-1.075412 -0.286592,-0.19284 -0.55795,-0.420436 -0.80534,-0.652842 -0.217058,-0.494994 -0.493564,-0.9695 -0.669116,-1.478806 C 32.090614,50.380956 31.834674,48.699762 31.85787,47.025 Z"/>
 <path style="fill:#0d6436" d="m 32.046484,3.8846454 c -0.291022,0.4607952 -0.639932,0.8804662 -1.011718,1.2509672 -0.804712,0.801931 -1.691884,1.481014 -2.264064,2.1468568 l -0.0164,0.01912 -0.0192,0.01912 C 26.626134,9.430269 24.590528,11.602955 23.32651,14.157327 l -0.011,0.02458 -0.0138,0.02459 c -0.915222,1.533062 -1.726682,3.077607 -2.23924,4.722537 l -0.0082,0.03278 -0.0138,0.03278 C 19.394441,22.869986 18.734608,27.134892 18.7,31.356762 v 0.0082 c 0.04442,8.50873 4.794834,16.574408 11.580078,21.927438 l 0.08476,0.06828 0.06016,0.0874 c 0.0128,0.0188 0.004,0.0046 0.0164,0.02186 0.0667,-0.23011 0.11382,-0.382776 0.19688,-0.693768 0.30517,-1.341416 0.469008,-2.724828 0.6125,-4.132562 l 0.06562,-0.628284 h 1.419142 l 0.06836,0.625484 c 0.177,1.638424 0.53025,3.241344 1.358984,4.534074 0.0783,0.09532 0.10376,0.11724 0.12852,0.11472 0.0303,-0.0032 0.209804,-0.07408 0.429296,-0.256748 0.41559,-0.345876 0.865046,-0.967922 1.509374,-1.379342 4.195588,-3.726962 7.091094,-8.736192 8.348048,-14.0966 v -0.0028 C 45.847106,32.182666 45.427836,26.43419 43.44609,21.258764 l -0.0054,-0.011 -0.0054,-0.0138 C 41.608006,15.835509 38.297246,10.948109 34.039844,7.0120638 l -0.0054,-0.00546 -0.0082,-0.0082 C 33.059554,6.054858 32.59057,4.9423994 32.046484,3.8846454 Z"/>
 <path style="opacity:0.2" d="m 32,3.5103402 c 0.08934,2.6722328 0.0106,5.350015 0,8.0312138 0.07306,8.908002 0.0637,17.815912 0,26.724116 -0.0132,3.45182 0.17354,6.898904 0,10.34356 0.14354,2.026458 0.448044,4.21267 1.582664,5.968316 1.011466,1.304508 2.182362,-0.861922 3.101808,-1.392712 C 40.999644,49.35626 43.96772,44.219824 45.25814,38.716688 46.560616,33.20347 46.13172,27.31654 44.10004,22.010706 42.2318,16.490498 38.853216,11.5069 34.516682,7.4976944 33.36486,6.3733612 32.76533,4.8779466 32,3.5103402 Z"/>
 <path style="fill:#12935a" d="m 32,2.5103402 c 0.08934,2.6722328 0.0106,5.350015 0,8.0312138 0.07306,8.908002 0.0637,17.815912 0,26.724116 -0.0132,3.45182 0.17354,6.898904 0,10.34356 0.14354,2.026458 0.448044,4.21267 1.582664,5.968316 1.011466,1.304508 2.182362,-0.861922 3.101808,-1.392712 C 40.999644,48.35626 43.96772,43.219824 45.25814,37.716688 46.560616,32.20347 46.13172,26.31654 44.10004,21.010706 42.2318,15.490498 38.853216,10.5069 34.516682,6.4976944 33.36486,5.3733612 32.76533,3.8779466 32,2.5103402 Z"/>
 <path style="opacity:0.2" d="m 32,3.0000002 c -0.16896,2.1118974 -2.468754,3.3241826 -3.759766,4.8263304 -2.118928,2.1195234 -4.214182,4.3434084 -5.539844,7.0223514 -0.928116,1.5543 -1.767416,3.147275 -2.305076,4.872764 C 18.702241,23.70723 18.034381,28.066318 18,32.359494 c 0.04267,8.768322 4.914482,17.01401 11.845314,22.481904 1.064366,1.565846 1.223964,0.03898 1.47656,-0.909546 C 31.672086,52.392446 31.84539,50.82613 32,49.258478 Z"/>
 <path style="fill:#10aa50" d="m 32,2.0000002 c -0.16896,2.1118974 -2.468754,3.3241826 -3.759766,4.8263304 -2.118928,2.1195232 -4.214182,4.3434084 -5.539844,7.0223514 -0.928116,1.5543 -1.767416,3.147275 -2.305076,4.872763 C 18.702241,22.70723 18.034381,27.066318 18,31.359494 c 0.04267,8.768322 4.914482,17.01401 11.845314,22.481904 1.064366,1.565846 1.223964,0.03898 1.47656,-0.909546 C 31.672086,51.392446 31.84539,49.82613 32,48.258478 Z"/>
 <path style="opacity:0.2;fill:#8b9cbe" d="M 32 2.5117188 C 32.011328 2.8506261 32.008322 3.1900468 32.009766 3.5292969 C 32.770438 4.8921332 33.368704 6.3765444 34.515625 7.4960938 C 38.852159 11.505299 42.233255 16.491511 44.101562 22.011719 C 45.280093 25.089508 45.901832 28.362453 45.972656 31.644531 C 46.018835 28.028732 45.39986 24.402286 44.101562 21.011719 C 42.233255 15.491511 38.852159 10.505299 34.515625 6.4960938 C 33.363803 5.3717606 32.76533 3.8793252 32 2.5117188 z M 32.03125 7.5234375 C 32.02055 8.5294447 32.003982 9.5358841 32 10.542969 C 32.002207 10.807342 32.001883 11.071639 32.001953 11.335938 C 32.004481 10.883246 32.010197 10.430972 32.015625 9.9785156 C 32.021643 9.1600665 32.03017 8.3410583 32.03125 7.5234375 z M 32.046875 24.902344 C 32.043475 29.02305 32.02948 33.144833 32 37.265625 C 31.999582 37.375032 32.000639 37.484388 32.001953 37.59375 C 32.011637 36.158922 32.013331 34.724016 32.019531 33.289062 C 32.032011 30.493418 32.047761 27.697712 32.046875 24.902344 z M 32.0625 45.308594 C 32.0533 46.07506 32.0386 46.843173 32 47.609375 C 32.005055 47.681398 32.013616 47.754931 32.021484 47.828125 C 32.033875 47.440025 32.046998 47.052061 32.052734 46.664062 C 32.055907 46.212256 32.066306 45.760559 32.0625 45.308594 z"/>
 <path style="opacity:0.2;fill:#8b9cbe" d="M 32 2 C 31.83104 4.1118974 29.529293 5.3259772 28.238281 6.828125 C 26.119353 8.9476482 24.024881 11.168713 22.699219 13.847656 C 21.771103 15.401956 20.932191 16.997167 20.394531 18.722656 C 18.701458 22.70844 18.034381 27.066197 18 31.359375 C 18.000661 31.4954 18.010607 31.630205 18.015625 31.765625 C 18.104818 27.6654 18.779441 23.524854 20.394531 19.722656 C 20.932191 17.997167 21.771103 16.401956 22.699219 14.847656 C 24.024881 12.168713 26.119353 9.9476482 28.238281 7.828125 C 29.529293 6.3259772 31.83104 5.1118974 32 3 L 32 2 z"/>
</svg>
