<svg xmlns="http://www.w3.org/2000/svg" width="64" height="64" version="1.0">
 <circle style="opacity:0.2" cx="31.5" cy="-32.5" r="28.5" transform="scale(1,-1)"/>
 <circle style="fill:#565c64" cx="31.5" cy="-31.5" r="28.5" transform="scale(1,-1)"/>
 <path style="fill:#8b9cbe;opacity:0.1" d="M 31.5 3 A 28.5 28.5 0 0 0 3 31.5 A 28.5 28.5 0 0 0 3.0214844 31.917969 A 28.5 28.5 0 0 1 31.5 4 A 28.5 28.5 0 0 1 59.978516 32.082031 A 28.5 28.5 0 0 0 60 31.5 A 28.5 28.5 0 0 0 31.5 3 z"/>
 <path style="opacity:0.2" d="m 30,10.052468 a 22.5,22.5 0 0 0 -13.294922,5.53125 L 30,28.87864 Z m 3,0.02344 V 28.87864 L 46.300781,15.577859 A 22.5,22.5 0 0 0 33,10.075906 Z M 14.578125,17.698953 A 22.5,22.5 0 0 0 9.0761719,30.999734 H 27.878906 Z m 33.837891,0.0059 -13.294922,13.294922 H 53.947266 A 22.5,22.5 0 0 0 48.416016,17.704812 Z M 9.0527344,33.999734 A 22.5,22.5 0 0 0 14.583984,47.294656 L 27.878906,33.999734 Z m 26.0683596,0 13.300781,13.300781 A 22.5,22.5 0 0 0 53.923828,33.999734 Z M 30,36.120828 16.699219,49.421609 A 22.5,22.5 0 0 0 30,54.923562 Z m 3,0 V 54.947 a 22.5,22.5 0 0 0 13.294922,-5.53125 z"/>
 <path style="fill:#8b9cbe" d="M 30 9.0527344 A 22.5 22.5 0 0 0 16.705078 14.583984 L 30 27.878906 L 30 9.0527344 z M 33 9.0761719 L 33 27.878906 L 46.300781 14.578125 A 22.5 22.5 0 0 0 33 9.0761719 z M 14.578125 16.699219 A 22.5 22.5 0 0 0 9.0761719 30 L 27.878906 30 L 14.578125 16.699219 z M 48.416016 16.705078 L 35.121094 30 L 53.947266 30 A 22.5 22.5 0 0 0 48.416016 16.705078 z M 9.0527344 33 A 22.5 22.5 0 0 0 14.583984 46.294922 L 27.878906 33 L 9.0527344 33 z M 35.121094 33 L 48.421875 46.300781 A 22.5 22.5 0 0 0 53.923828 33 L 35.121094 33 z M 30 35.121094 L 16.699219 48.421875 A 22.5 22.5 0 0 0 30 53.923828 L 30 35.121094 z M 33 35.121094 L 33 53.947266 A 22.5 22.5 0 0 0 46.294922 48.416016 L 33 35.121094 z"/>
</svg>
