<svg xmlns="http://www.w3.org/2000/svg" width="64" height="64" version="1.1">
 <circle style="opacity:.2" cx="32" cy="33" r="28"/>
 <circle style="fill:#a776d6" cx="32" cy="32" r="28"/>
 <path style="fill:#8b9cbe;opacity:.2" d="M 32,4 A 28,28 0 0 0 4,32 28,28 0 0 0 4.0215,32.586 28,28 0 0 1 32,5 28,28 0 0 1 59.979,32.414 28,28 0 0 0 60,32 28,28 0 0 0 32,4 Z"/>
 <rect style="opacity:.2" width="34" height="34" x="15" y="16" rx="3" ry="3"/>
 <rect style="fill:#e5e9f0" width="34" height="34" x="15" y="15" rx="3" ry="3"/>
 <path style="fill:#9aa0aa" d="m34 42c-0.554 0-1 0.3345-1 0.75v1.25 0.25 0.75h1v-2h1v2h1v-2h1v2h1v-0.75-0.25-1.25c0-0.4155-0.446-0.75-1-0.75h-3zm8 0c-0.554 0-1 0.3345-1 0.75v1.5c0 0.4155 0.446 0.75 1 0.75h3c0.554 0 1-0.3345 1-0.75v-1.5c0-0.4155-0.446-0.75-1-0.75h-3zm-2.5 1c-0.277 0-0.5 0.223-0.5 0.5s0.223 0.5 0.5 0.5 0.5-0.223 0.5-0.5-0.223-0.5-0.5-0.5zm2.5 0h3v1h-3v-1z"/>
 <path style="fill:#4f4f4f" d="m22 15v5c0 1.662 1.338 3 3 3h14c1.662 0 3-1.338 3-3v-5h-20z"/>
 <path style="opacity:.2" d="m22 15v1h20v-1h-20z"/>
 <path style="fill:#fbe604" d="m26 19v1h4v-1h-4zm8 0v1h4v-1h-4z"/>
 <path style="opacity:.2" d="m26 20v1h4v-1zm8 0v1h4v-1z"/>
 <path style="fill:#8b9cbe;opacity:.2" d="m18 15c-1.662 0-3 1.338-3 3v1c0-1.662 1.338-3 3-3h4v-1h-4zm24 0v1h4c1.662 0 3 1.338 3 3v-1c0-1.662-1.338-3-3-3h-4z"/>
</svg>
