<svg xmlns="http://www.w3.org/2000/svg" width="64" height="64" version="1">
 <circle style="opacity:0.2" cx="49" cy="44" r="13"/>
 <circle style="fill:#fcbd1e" cx="49" cy="43" r="13"/>
 <rect style="opacity:0.2" width="52" height="52" x="2" y="5" rx="26" ry="26"/>
 <rect style="fill:#ff7000" width="52" height="52" x="2" y="4" rx="26" ry="26"/>
 <path style="opacity:0.2" d="m 22.404297,11.969188 c -0.08725,1.369707 -0.186291,3.344383 -0.267578,5.550781 -2.603985,0.0054 -5.196089,-0.06987 -7.75586,-0.248047 L 14,22.73286 c 2.655133,0.184809 5.33102,0.264084 8.011719,0.261719 -0.01093,1.475966 0.0026,2.995071 0.03711,4.541015 -3.078543,1.430237 -5.968584,3.633591 -7.945312,6.248047 -1.198428,1.585062 -2.137534,3.386288 -2.103516,5.521485 0.03402,2.135196 1.436646,4.304607 3.513672,5.476562 2.893648,1.63273 6.134458,1.34676 8.96875,0.183594 0.184192,0.457205 0.377946,0.903194 0.591797,1.326172 l 4.884765,-2.470704 c -0.238059,-0.470858 -0.456231,-1.094509 -0.664062,-1.779296 1.824957,-1.44597 3.515004,-3.143883 5.070312,-4.886719 1.798931,-2.015833 3.118647,-3.915257 4.445313,-5.763672 0.76147,0.316665 1.427574,0.702686 1.935547,1.189453 0.933255,0.894297 1.584961,2.087661 1.701172,4.298828 0.05388,1.025109 -0.347722,1.86749 -1.402344,2.904297 -1.054622,1.036807 -2.728793,2.052935 -4.488281,2.851563 -3.518976,1.597254 -7.203125,2.349609 -7.203125,2.349609 L 30.425781,50.352 c 0,0 4.165794,-0.813008 8.394531,-2.732421 2.114369,-0.959707 4.28857,-2.189629 6.0625,-3.933594 1.773933,-1.743966 3.180324,-4.220134 3.029297,-7.09375 -0.174698,-3.324022 -1.427123,-6.092585 -3.378906,-7.962891 -0.773386,-0.741101 -1.674384,-1.239472 -2.580078,-1.716797 0.230503,-0.377879 0.886719,-1.390625 0.886719,-1.390625 l -4.726563,-2.759765 c 0,0 -0.849534,1.332629 -1.613281,2.513672 -3.133489,-0.37407 -6.282037,-0.07565 -8.998047,0.5 -0.01,-0.987584 -0.02198,-1.956582 -0.01367,-2.91211 5.6812,-0.24871 11.335466,-0.846719 16.808594,-1.716797 L 43.4375,15.742626 c -5.168267,0.821613 -10.49276,1.388597 -15.818359,1.636718 0.07699,-1.999034 0.167953,-3.805165 0.248047,-5.0625 z m 9.273437,18.773438 c 0.238904,0.0129 0.479229,0.02871 0.728516,0.01172 -0.75341,0.959737 -1.278367,1.807146 -2.125,2.75586 -0.708602,0.79404 -1.447201,1.543854 -2.193359,2.263672 -0.172306,-1.407449 -0.308026,-2.892942 -0.40625,-4.414063 1.005574,-0.247483 2.11454,-0.464872 3.273437,-0.609375 0.246272,-0.03071 0.483753,-0.02071 0.722656,-0.0078 z m -9.363281,2.949218 c 0.148217,2.058433 0.375172,4.051842 0.712891,5.933594 -2.022025,1.038464 -3.439041,1.170253 -4.824219,0.388672 -0.865567,-0.488393 -0.723955,-0.508667 -0.728516,-0.794922 -0.0046,-0.286255 0.242316,-1.137806 0.996094,-2.134766 0.861857,-1.139906 2.293952,-2.372175 3.84375,-3.392578 z"/>
 <path style="fill:none;stroke:#b2bfd9;stroke-width:5.47368431" d="m 40.476852,23.14203 c 0,0 -13.87257,23.75464 -23.617732,18.25597 -5.885185,-3.320696 1.672149,-10.886868 8.060312,-13.09 6.197526,-2.137388 19.67875,-3.642178 20.260568,7.4282 0.409806,7.79745 -15.290524,10.932062 -15.290524,10.932062"/>
 <path style="fill:none;stroke:#b2bfd9;stroke-width:5.47368431" d="m 25.13577,11.143 c -0.421832,6.622064 -1.27976,25.67119 2.381454,32.912728"/>
 <path style="fill:none;stroke:#b2bfd9;stroke-width:5.47368431" d="m 14.190036,19.001259 c 9.830691,0.684259 20.030567,-0.02365 29.676601,-1.557107"/>
 <circle style="opacity:0.2" cx="45" cy="54" r="7"/>
 <circle style="fill:#b2bfd9" cx="45" cy="53" r="7"/>
 <path style="opacity:0.2;fill:#8b9cbe" d="M 28 4 C 13.596 4 2 15.596 2 30 C 2 30.110902 2.0116135 30.218872 2.0175781 30.328125 C 2.3726961 16.238147 13.821398 5 28 5 C 42.178602 5 53.627304 16.238147 53.982422 30.328125 C 53.988386 30.218872 54 30.110902 54 30 C 54 15.596 42.404 4 28 4 z"/>
</svg>
