<svg xmlns="http://www.w3.org/2000/svg" width="64" height="64" version="1">
 <rect style="opacity:0.2" width="56" height="56" x="4" y="5" rx="16.8" ry="16.8"/>
 <rect style="fill:#4f4f4f" width="56" height="56" x="4" y="4" rx="16.8" ry="16.8"/>
 <path style="opacity:0.2;fill-rule:evenodd" d="M 32,13 C 20.969111,13 12,21.969111 12,33 12,44.030889 20.969111,53 32,53 43.030889,53 52,44.030889 52,33 52,21.969111 43.030889,13 32,13 Z m 0,3 c 9.403224,0 17,7.596776 17,17 0,9.403224 -7.596776,17 -17,17 -9.403224,0 -17,-7.596776 -17,-17 0,-9.403224 7.596776,-17 17,-17 z m -9,9 v 7 h 3 v -7 z m 15,0 v 7 h 3 V 25 Z M 25.371094,36.632812 23.25,38.753906 24.310547,39.814453 C 26.349597,41.853504 29.116347,43 32,43 c 2.883653,0 5.650402,-1.146496 7.689453,-3.185547 L 40.75,38.753906 38.628906,36.632812 37.568359,37.693359 C 36.091103,39.170616 34.089156,40 32,40 29.910844,40 27.908897,39.170616 26.431641,37.693359 Z"/>
 <path style="fill:#d4d4d4;fill-rule:evenodd" d="M 32 12 C 20.969111 12 12 20.969111 12 32 C 12 43.030889 20.969111 52 32 52 C 43.030889 52 52 43.030889 52 32 C 52 20.969111 43.030889 12 32 12 z M 32 15 C 41.403224 15 49 22.596776 49 32 C 49 41.403224 41.403224 49 32 49 C 22.596776 49 15 41.403224 15 32 C 15 22.596776 22.596776 15 32 15 z"/>
 <path style="fill:none;stroke:#d4d4d4;stroke-width:3;stroke-linecap:square" d="M 38.629126,37.754126 A 9.375,9.375 0 0 1 32,40.5 9.375,9.375 0 0 1 25.370874,37.754126"/>
 <rect style="fill:#d4d4d4" width="3" height="7" x="23" y="24"/>
 <rect style="fill:#d4d4d4" width="3" height="7" x="38" y="24"/>
 <path style="opacity:0.2;fill:#8b9cbe;fill-rule:evenodd" d="M 32 12 C 20.969111 12 12 20.969111 12 32 C 12 32.167765 12.007594 32.333213 12.011719 32.5 C 12.278812 21.700209 21.136876 13 32 13 C 42.863124 13 51.721188 21.700209 51.988281 32.5 C 51.992406 32.333213 52 32.167765 52 32 C 52 20.969111 43.030889 12 32 12 z M 23 24 L 23 25 L 26 25 L 26 24 L 23 24 z M 38 24 L 38 25 L 41 25 L 41 24 L 38 24 z M 15.025391 32.5 C 15.020525 32.667661 15 32.831141 15 33 C 15 42.403224 22.596776 50 32 50 C 41.403224 50 49 42.403224 49 33 C 49 32.831141 48.979475 32.667661 48.974609 32.5 C 48.708503 41.668817 41.234365 49 32 49 C 22.765635 49 15.291497 41.668817 15.025391 32.5 z M 25.371094 35.632812 L 23.25 37.753906 L 23.75 38.253906 L 25.371094 36.632812 L 26.431641 37.693359 C 27.908897 39.170616 29.910844 40 32 40 C 34.089156 40 36.091103 39.170616 37.568359 37.693359 L 38.628906 36.632812 L 40.25 38.253906 L 40.75 37.753906 L 38.628906 35.632812 L 37.568359 36.693359 C 36.091103 38.170616 34.089156 39 32 39 C 29.910844 39 27.908897 38.170616 26.431641 36.693359 L 25.371094 35.632812 z"/>
 <path style="fill:#8b9cbe;opacity:0.1" d="M 20.800781 4 C 11.493582 4 4 11.493582 4 20.800781 L 4 21.800781 C 4 12.493582 11.493582 5 20.800781 5 L 43.199219 5 C 52.506418 5 60 12.493582 60 21.800781 L 60 20.800781 C 60 11.493582 52.506418 4 43.199219 4 L 20.800781 4 z"/>
</svg>
