<svg xmlns="http://www.w3.org/2000/svg" width="64" height="64" version="1">
 <circle style="opacity:0.2" cx="20.24" cy="21.24" r="16.24"/>
 <circle style="opacity:0.2" cx="43.76" cy="44.76" r="16.24"/>
 <circle style="fill:#1587d7" cx="20.24" cy="20.24" r="16.24"/>
 <path style="fill:#8b9cbe;opacity:0.1" d="M 20.240234 4 A 16.24 16.24 0 0 0 4 20.240234 A 16.24 16.24 0 0 0 4.0214844 20.826172 A 16.24 16.24 0 0 1 20.240234 5 A 16.24 16.24 0 0 1 36.458984 20.654297 A 16.24 16.24 0 0 0 36.480469 20.240234 A 16.24 16.24 0 0 0 20.240234 4 z"/>
 <circle style="fill:#1587d7" cx="43.76" cy="43.76" r="16.24"/>
 <circle style="opacity:0.2" cx="32" cy="33" r="26"/>
 <circle style="fill:#28a8ea" cx="32" cy="32" r="26"/>
 <path style="opacity:0.2;fill-rule:evenodd" d="m 25.305483,32.523472 a 7.844213,7.5524416 0 0 1 -2.459851,-2.500657 7.1754309,6.9085353 0 0 1 -0.842622,-3.453807 6.4471426,6.2073364 0 0 1 1.518845,-4.180344 9.1425873,8.8025219 0 0 1 3.959318,-2.547948 15.291222,14.722454 0 0 1 5.18441,-0.839848 20.133201,19.384331 0 0 1 3.449749,0.254777 12.45317,11.989965 0 0 1 2.391323,0.594526 4.6371663,4.4646834 0 0 1 1.871976,1.151203 2.4199088,2.3298985 0 0 1 0.578185,1.547663 2.3287193,2.242101 0 0 1 -0.607641,1.613685 2.0231563,1.9479036 0 0 1 -1.52888,0.613413 2.7521328,2.6497651 0 0 1 -1.136776,-0.245479 20.578275,19.81285 0 0 0 -2.70508,-0.952994 9.8190591,9.4538318 0 0 0 -2.606772,-0.311366 5.9496938,5.7283905 0 0 0 -3.263626,0.802034 2.7157173,2.6147042 0 0 0 -1.303398,2.349695 2.4536571,2.3623915 0 0 0 0.676138,1.651346 6.1665519,5.9371824 0 0 0 1.823001,1.255061 q 1.146732,0.547618 3.420249,1.45327 a 3.544347,3.4125124 0 0 1 0.490102,0.188777 24.293654,23.390034 0 0 1 4.233703,2.094889 8.5363759,8.218859 0 0 1 2.606945,2.576142 7.0548811,6.7924695 0 0 1 0.940832,3.576385 7.4718846,7.1939622 0 0 1 -1.303567,4.312543 7.7472914,7.4591251 0 0 1 -3.645549,2.604525 15.366483,14.794916 0 0 1 -5.478518,0.858756 17.261132,16.619091 0 0 1 -7.467735,-1.358888 4.0642732,3.9130994 0 0 1 -1.538665,-1.151213 2.68811,2.5881237 0 0 1 -0.49988,-1.56655 2.1265845,2.0474846 0 0 1 0.6565,-1.594778 2.4216188,2.3315449 0 0 1 1.695449,-0.575607 4.3326033,4.1714489 0 0 1 1.979622,0.490668 q 1.136504,0.547649 1.793576,0.821126 a 9.0145201,8.6792182 0 0 0 1.548528,0.471759 8.8539843,8.5246537 0 0 0 1.989225,0.198075 5.3096912,5.1121933 0 0 0 3.342104,-0.8586 2.9431474,2.8336748 0 0 0 1.126944,-2.349717 2.5936728,2.4971991 0 0 0 -0.70551,-1.717522 7.5009115,7.2219096 0 0 0 -2.077576,-1.453115 Q 32.03826,35.647151 29.549027,34.646743 a 23.9231,23.033262 0 0 1 -4.243576,-2.123271"/>
 <path style="fill:#8b9cbe;fill-rule:evenodd" d="m 25.305483,31.523474 a 7.844213,7.5524416 0 0 1 -2.459851,-2.500657 7.1754309,6.9085353 0 0 1 -0.842622,-3.453807 6.4471426,6.2073364 0 0 1 1.518845,-4.180344 9.1425873,8.8025219 0 0 1 3.959318,-2.547948 15.291222,14.722454 0 0 1 5.18441,-0.839848 20.133201,19.384331 0 0 1 3.449749,0.254777 12.45317,11.989965 0 0 1 2.391323,0.594526 4.6371663,4.4646834 0 0 1 1.871976,1.151203 2.4199088,2.3298985 0 0 1 0.578185,1.547663 2.3287193,2.242101 0 0 1 -0.607641,1.613685 2.0231563,1.9479036 0 0 1 -1.52888,0.613413 2.7521328,2.6497651 0 0 1 -1.136776,-0.245479 20.578275,19.81285 0 0 0 -2.70508,-0.952994 9.8190591,9.4538318 0 0 0 -2.606772,-0.311366 5.9496938,5.7283905 0 0 0 -3.263626,0.802034 2.7157173,2.6147042 0 0 0 -1.303398,2.349695 2.4536571,2.3623915 0 0 0 0.676138,1.651346 6.1665519,5.9371824 0 0 0 1.823001,1.255061 q 1.146732,0.547618 3.420249,1.45327 a 3.544347,3.4125124 0 0 1 0.490102,0.188777 24.293654,23.390034 0 0 1 4.233703,2.094889 8.5363759,8.218859 0 0 1 2.606945,2.576142 7.0548811,6.7924695 0 0 1 0.940832,3.576385 7.4718846,7.1939622 0 0 1 -1.303567,4.312543 7.7472914,7.4591251 0 0 1 -3.645549,2.604525 15.366483,14.794916 0 0 1 -5.478518,0.858756 17.261132,16.619091 0 0 1 -7.467735,-1.358888 4.0642732,3.9130994 0 0 1 -1.538665,-1.151213 2.68811,2.5881237 0 0 1 -0.49988,-1.56655 2.1265845,2.0474846 0 0 1 0.6565,-1.594778 2.4216188,2.3315449 0 0 1 1.695449,-0.575607 4.3326033,4.1714489 0 0 1 1.979622,0.490668 q 1.136504,0.547649 1.793576,0.821126 a 9.0145201,8.6792182 0 0 0 1.548528,0.471759 8.8539843,8.5246537 0 0 0 1.989225,0.198075 5.3096912,5.1121933 0 0 0 3.342104,-0.8586 2.9431474,2.8336748 0 0 0 1.126944,-2.349717 2.5936728,2.4971991 0 0 0 -0.70551,-1.717522 7.5009115,7.2219096 0 0 0 -2.077576,-1.453115 Q 32.03826,34.647153 29.549027,33.646745 a 23.9231,23.033262 0 0 1 -4.243576,-2.123271"/>
 <path style="fill:#8b9cbe;opacity:0.2" d="M 32 6 A 26 26 0 0 0 6 32 A 26 26 0 0 0 6.0214844 32.589844 A 26 26 0 0 1 32 7 A 26 26 0 0 1 57.978516 32.410156 A 26 26 0 0 0 58 32 A 26 26 0 0 0 32 6 z"/>
</svg>
