<svg xmlns="http://www.w3.org/2000/svg" width="64" height="64" version="1.1">
 <rect style="opacity:0.2" width="48" height="56" x="14" y="5" rx="2.8" ry="2.8"/>
 <path style="fill:#41a5ee" d="M 16.801,4 C 15.25,4 14,5.2496 14,6.8008 V 18 L 38,25 62,18 V 6.8008 C 62,5.2496 60.75,4 59.2,4 Z"/>
 <path style="fill:#2b7cd3" d="M 14,18 H 62 V 32 L 38,39 14,32 Z"/>
 <path style="fill:#1650a7" d="M 14,32 H 62 V 46 L 38,53 14,46 Z"/>
 <path style="fill:#103f91" d="M 14,46 V 57.199 C 14,58.75 15.25,60 16.801,60 H 59.2 C 60.75,60 62,58.75 62,57.199 V 46 Z"/>
 <path style="opacity:0.1" d="M 14,32 H 62 V 33 H 14 Z M 14,46 H 62 V 47 H 14 Z M 14,18 H 62 V 19 H 14 Z"/>
 <path style="opacity:0.2;fill:#8b9cbe" d="M 16.801,4 C 15.25,4 14,5.2496 14,6.8008 V 7.8008 C 14,6.2496 15.25,5 16.801,5 H 59.2 C 60.75,5 62,6.2496 62,7.8008 V 6.8008 C 62,5.2496 60.75,4 59.2,4 Z"/>
 <rect style="opacity:0.2" width="32" height="32" x="2" y="17" rx="2.8" ry="2.8"/>
 <rect style="fill:#185abd" width="32" height="32" x="2" y="16" rx="2.8" ry="2.8"/>
 <path style="fill:#8b9cbe" d="M 25.9,42 H 22.3 L 18.1,28.2 13.7,42 H 10.1 L 6.1,22 H 9.7 L 12.5,36 16.7,22 H 19.7 L 23.7,36 26.5,22 H 29.9 Z"/>
</svg>
