<svg xmlns="http://www.w3.org/2000/svg" width="64" height="64" version="1.1">
 <path style="opacity:0.2" d="m 28,5 a 7.0007,7.0007 0 0 0 -7,7 h -7 a 7.0007,7.0007 0 0 0 -7,7 v 7 a 7.0007,7.0007 0 0 0 7,7 h 0.950195 A 7.0007,7.0007 0 0 0 14,36.5 V 54 a 7.0007,7.0007 0 0 0 7,7 h 7 A 7.0007,7.0007 0 0 0 31.5,60.056641 7.0007,7.0007 0 0 0 35,61 h 7 a 7.0007,7.0007 0 0 0 7,-7 V 36.5 A 7.0007,7.0007 0 0 0 48.056641,33 H 49 a 7.0007,7.0007 0 0 0 7,-7 V 19 A 7.0007,7.0007 0 0 0 49,12 H 42 A 7.0007,7.0007 0 0 0 35,5 Z"/>
 <path style="fill:#556765" d="m 28,4 a 7.0007,7.0007 0 0 0 -7,7 h -7 a 7.0007,7.0007 0 0 0 -7,7 v 7 a 7.0007,7.0007 0 0 0 7,7 h 0.950195 A 7.0007,7.0007 0 0 0 14,35.5 V 53 a 7.0007,7.0007 0 0 0 7,7 h 7 A 7.0007,7.0007 0 0 0 31.5,59.056641 7.0007,7.0007 0 0 0 35,60 h 7 a 7.0007,7.0007 0 0 0 7,-7 V 35.5 A 7.0007,7.0007 0 0 0 48.056641,32 H 49 a 7.0007,7.0007 0 0 0 7,-7 V 18 A 7.0007,7.0007 0 0 0 49,11 H 42 A 7.0007,7.0007 0 0 0 35,4 Z"/>
 <path style="opacity:0.2" d="m 28,12 v 7 H 14 v 7 h 14 v 11 h -7 v 17 h 7 V 43 h 7 v 11 h 7 V 37 H 35 V 26 H 49 V 19 H 35 v -7 z"/>
 <path style="fill:#eb3a49" d="m 28,11 v 7 H 14 v 7 h 14 v 11 h -7 v 17 h 7 V 42 h 7 v 11 h 7 V 36 H 35 V 25 H 49 V 18 H 35 v -7 z"/>
 <path style="opacity:0.1;fill:#8b9cbe" d="m 28,4 a 7.0007,7.0007 0 0 0 -7,7 h -7 a 7.0007,7.0007 0 0 0 -7,7 v 1 a 7.0007,7.0007 0 0 1 7,-7 h 7 a 7.0007,7.0007 0 0 1 7,-7 h 7 a 7.0007,7.0007 0 0 1 7,7 h 7 a 7.0007,7.0007 0 0 1 7,7 V 18 A 7.0007,7.0007 0 0 0 49,11 H 42 A 7.0007,7.0007 0 0 0 35,4 Z M 14.478516,33 A 7.0007,7.0007 0 0 0 14,35.5 v 1 A 7.0007,7.0007 0 0 1 14.949219,33 Z m 33.578125,0 A 7.0007,7.0007 0 0 1 49,36.5 v -1 A 7.0007,7.0007 0 0 0 48.525391,33 Z"/>
 <path style="fill:#8b9cbe;opacity:0.2" d="M 28 11 L 28 12 L 35 12 L 35 11 L 28 11 z M 14 18 L 14 19 L 28 19 L 28 18 L 14 18 z M 35 18 L 35 19 L 49 19 L 49 18 L 35 18 z M 21 36 L 21 37 L 28 37 L 28 36 L 21 36 z M 35 36 L 35 37 L 42 37 L 42 36 L 35 36 z"/>
</svg>
