<svg xmlns="http://www.w3.org/2000/svg" width="64" height="64" version="1">
 <path style="opacity:0.2" d="m 4.0507997,32.000415 c -0.0118,0.333995 -0.050799,0.66199 -0.050799,0.999985 C 4.0000004,48.512179 16.487822,61 31.9996,61 47.511378,61 59.9992,48.512179 59.9992,33.0004 c 0,-0.337675 -0.03904,-0.66527 -0.05078,-0.999985 C 59.420428,47.0422 47.172603,59.000029 31.99882,59.000029 16.824637,59.000029 4.5772122,47.0422 4.0492197,32.000415 Z"/>
 <rect style="fill:#0277bd" width="56" height="56" x="4" y="4" rx="28" ry="28"/>
 <path style="opacity:0.2;fill:#8b9cbe" d="M 32 4 C 16.488222 4 4 16.488222 4 32 C 4 32.113554 4.0112846 32.224034 4.0175781 32.335938 C 4.3691163 17.134398 16.710946 5 32 5 C 47.289054 5 59.630884 17.134398 59.982422 32.335938 C 59.988797 32.224034 60 32.113554 60 32 C 60 16.488222 47.511778 4 32 4 z"/>
 <g style="opacity:0.2;enable-background:new" transform="matrix(1.4999785,0,0,1.4999785,-219.9968,-359.99398)">
  <rect width="4" height="22.667" x="160" y="251.33"/>
  <rect width="4" height="17.333" x="172" y="251.33"/>
  <path d="m 160,258 0,2.6667 c 0,4.3974 3.6026,8 8,8 4.3974,0 8,-3.6026 8,-8 l 0,-2.67 -4,0 0,2.6667 c 0,2.2506 -1.7494,4 -4,4 -2.2506,0 -4,-1.7494 -4,-4 l 0,-2.67 z"/>
 </g>
 <g style="fill:#8b9cbe;enable-background:new" transform="matrix(1.4999785,0,0,1.4999785,-219.9968,-360.99395)">
  <rect width="4" height="22.667" x="160" y="251.33"/>
  <rect width="4" height="17.333" x="172" y="251.33"/>
  <path d="m 160,258 0,2.6667 c 0,4.3974 3.6026,8 8,8 4.3974,0 8,-3.6026 8,-8 l 0,-2.67 -4,0 0,2.6667 c 0,2.2506 -1.7494,4 -4,4 -2.2506,0 -4,-1.7494 -4,-4 l 0,-2.67 z"/>
 </g>
</svg>
