<svg xmlns="http://www.w3.org/2000/svg" width="64" height="64" version="1.1">
 <circle style="opacity:0.2" cx="32" cy="33" r="28"/>
 <circle style="fill:#ff395d" cx="32" cy="32" r="28"/>
 <path style="fill:#8b9cbe;fill-opacity:0.7" d="m 42.136434,18.692058 -10.049911,7.275241 c -0.02884,0.02089 -0.08655,0.06265 -0.08655,0.06265 L 21.768674,18.755845 c -0.563964,-0.410538 -1.22038,-0.594979 -1.862178,-0.59504 -1.491075,-1.81e-4 -2.904382,0.994965 -2.904382,2.462009 v 5.516448 L 17,42.537931 C 17,44.004853 18.413437,45 19.904385,45 c 0.641925,0 1.298148,-0.184441 1.862176,-0.5951 L 32,37.067069 C 37.091923,40.773934 42.13432,44.4049 42.13432,44.4049 42.698285,44.815436 43.354768,45 43.996498,45 45.487639,45 47,44.004975 47,42.537932 V 26.139261 20.51139 c 0,-1.466922 -1.510421,-2.414371 -3.001367,-2.414371 -0.641925,0 -1.298147,0.184441 -1.862178,0.595039 z"/>
 <polygon style="fill:#8b9cbe;fill-opacity:0.6" transform="matrix(1.4084645,0,0,1.3595445,16.999979,17.979649)" points="10.65 14.04 15.95 9.99 10.65 5.92 5.32 9.99"/>
 <polyline style="fill:#8b9cbe;fill-opacity:0.6" transform="matrix(1.4084645,0,0,1.3595445,16.999979,17.979649)" points="0 5.99 0 13.99 5.32 9.99 0 5.99"/>
 <polyline style="fill:#8b9cbe;fill-opacity:0.6" transform="matrix(1.4084645,0,0,1.3595445,16.999979,17.979649)" points="15.95 9.99 21.3 14.04 21.3 5.92 15.95 9.99"/>
 <path style="fill:#8b9cbe" d="m 41.999978,18.78684 -10.000001,7.243111 7.460584,5.527755 7.539416,-5.527755 V 20.51139 c 0,-2.097005 -2.857142,-3.449101 -4.999999,-1.72455 z"/>
 <path style="fill:#8b9cbe" d="m 21.778928,18.712677 c -1.876765,-1.363432 -4.773207,-0.231284 -4.773207,1.865721 v 5.541277 l 7.485682,5.439579 7.508577,-5.529303 z"/>
 <path style="opacity:0.2" d="M 32,37.066406 21.765625,44.404297 C 21.201597,44.814956 20.546222,45 19.904297,45 18.413349,45 17,44.004031 17,42.537109 v 1 C 17,45.004031 18.413349,46 19.904297,46 c 0.641925,0 1.2973,-0.185044 1.861328,-0.595703 L 32,38.066406 c 5.091923,3.706865 10.134766,7.337891 10.134766,7.337891 C 42.698731,45.814833 43.354364,46 43.996094,46 45.487235,46 47,45.004152 47,43.537109 v -1 C 47,44.004152 45.487235,45 43.996094,45 c -0.64173,0 -1.297363,-0.185167 -1.861328,-0.595703 0,0 -5.042843,-3.631026 -10.134766,-7.337891 z"/>
 <path style="fill:#8b9cbe;opacity:0.2" d="M 32 4 A 28 28 0 0 0 4 32 A 28 28 0 0 0 4.0214844 32.585938 A 28 28 0 0 1 32 5 A 28 28 0 0 1 59.978516 32.414062 A 28 28 0 0 0 60 32 A 28 28 0 0 0 32 4 z"/>
</svg>
