<svg width="64" height="64" version="1.1" xmlns="http://www.w3.org/2000/svg">
 <rect x="4" y="5" width="56" height="56" rx="5" ry="5" style="opacity:.2"/>
 <rect x="4" y="4" width="56" height="56" rx="5" ry="5" style="fill:#292d96"/>
 <path d="M 9,4 C 6.23,4 4,6.23 4,9 v 46 c 0,1.385 0.5571875,2.635312 1.4609375,3.539062 L 58.539062,5.4609375 C 57.635312,4.5571875 56.385,4 55,4 Z" style="fill:#0072c0"/>
 <path d="M 8,55.400391 C 8,56.286791 8.713209,57 9.599609,57 h 4.800782 C 15.286791,57 16,56.286791 16,55.400391 V 50.599609 C 16,49.713209 15.286791,49 14.400391,49 H 9.599609 C 8.713209,49 8,49.713209 8,50.599609 Z m 0,-10 C 8,46.286791 8.713209,47 9.599609,47 h 4.800782 C 15.286791,47 16,46.286791 16,45.400391 V 40.599609 C 16,39.713209 15.286791,39 14.400391,39 H 9.599609 C 8.713209,39 8,39.713209 8,40.599609 Z m 0,-10 C 8,36.286791 8.713209,37 9.599609,37 h 4.800782 C 15.286791,37 16,36.286791 16,35.400391 V 30.599609 C 16,29.713209 15.286791,29 14.400391,29 H 9.599609 C 8.713209,29 8,29.713209 8,30.599609 Z m 0,-10 C 8,26.286791 8.713209,27 9.599609,27 h 4.800782 C 15.286791,27 16,26.286791 16,25.400391 V 20.599609 C 16,19.713209 15.286791,19 14.400391,19 H 9.599609 C 8.713209,19 8,19.713209 8,20.599609 Z m 0,-10 C 8,16.286791 8.713209,17 9.599609,17 h 4.800782 C 15.286791,17 16,16.286791 16,15.400391 V 10.599609 C 16,9.713209 15.286791,9 14.400391,9 H 9.599609 C 8.713209,9 8,9.713209 8,10.599609 Z" style="opacity:.2"/>
 <path d="M 8,54.400391 C 8,55.286791 8.713209,56 9.599609,56 h 4.800782 C 15.286791,56 16,55.286791 16,54.400391 V 49.599609 C 16,48.713209 15.286791,48 14.400391,48 H 9.599609 C 8.713209,48 8,48.713209 8,49.599609 Z m 0,-10 C 8,45.286791 8.713209,46 9.599609,46 h 4.800782 C 15.286791,46 16,45.286791 16,44.400391 V 39.599609 C 16,38.713209 15.286791,38 14.400391,38 H 9.599609 C 8.713209,38 8,38.713209 8,39.599609 Z m 0,-10 C 8,35.286791 8.713209,36 9.599609,36 h 4.800782 C 15.286791,36 16,35.286791 16,34.400391 V 29.599609 C 16,28.713209 15.286791,28 14.400391,28 H 9.599609 C 8.713209,28 8,28.713209 8,29.599609 Z m 0,-10 C 8,25.286791 8.713209,26 9.599609,26 h 4.800782 C 15.286791,26 16,25.286791 16,24.400391 V 19.599609 C 16,18.713209 15.286791,18 14.400391,18 H 9.599609 C 8.713209,18 8,18.713209 8,19.599609 Z m 0,-10 C 8,15.286791 8.713209,16 9.599609,16 h 4.800782 C 15.286791,16 16,15.286791 16,14.400391 V 9.599609 C 16,8.713209 15.286791,8 14.400391,8 H 9.599609 C 8.713209,8 8,8.713209 8,9.599609 Z" style="fill:#8b9cbe;font-variant-east_asian:normal"/>
 <path d="m9 4c-2.77 0-5 2.23-5 5v1c0-2.77 2.23-5 5-5h46c2.77 0 5 2.23 5 5v-1c0-2.77-2.23-5-5-5z" style="fill:#8b9cbe;opacity:.2"/>
 <path d="m37 9v2h19v-2zm0 4v2h11.875v-2zm0 4v2h19v-2zm0 4v2h16.625v-2zm0 4v2h19v-2zm0 4v2h7.125v-2zm0 4v2h19v-2zm0 4v2h16.625v-2zm0 4v2h19v-2zm0 4v2h14.25v-2z" style="opacity:.2"/>
 <path d="m37 8v2h19v-2zm0 4v2h11.875v-2zm0 4v2h19v-2zm0 4v2h16.625v-2zm0 4v2h19v-2zm0 4v2h7.125v-2zm0 4v2h19v-2zm0 4v2h16.625v-2zm0 4v2h19v-2zm0 4v2h14.25v-2z" style="fill:#ffbb1f"/>
</svg>
