<svg width="64" height="64" version="1.1" xmlns="http://www.w3.org/2000/svg">
 <path d="m12 7h40v20h-40z" style="fill:#b7b7b7"/>
 <rect x="4" y="25" width="56" height="34" rx="2.8" ry="2.8340001" style="fill:#4f4f4f"/>
 <path d="m 4,56.167969 v 1 C 4,58.737969 5.2496033,60 6.8007812,60 H 57.199219 C 58.749197,60 60,58.737969 60,57.167969 v -1 C 60,57.737969 58.749197,59 57.199219,59 H 6.8007812 C 5.2496035,59 4.0000002,57.737969 4,56.167969 Z" style="opacity:.2"/>
 <path d="m12 7v1h40v-1z" style="fill:#8b9cbe;opacity:.2"/>
 <rect x="16" y="11" width="10" height="6" style="opacity:.5"/>
 <rect x="38" y="11" width="10" height="6" style="opacity:.5"/>
 <path d="m32 29a14 14 0 0 0-14 14 14 14 0 0 0 14 14 14 14 0 0 0 14-14 14 14 0 0 0-14-14zm0 2a12 12 0 0 1 12 12 12 12 0 0 1-12 12 12 12 0 0 1-12-12 12 12 0 0 1 12-12zm-2 2c-0.554 0-1 0.446-1 1v6h-6c-0.554 0-1 0.446-1 1v4c0 0.554 0.446 1 1 1h6v6c0 0.554 0.446 1 1 1h4c0.554 0 1-0.446 1-1v-6h6c0.554 0 1-0.446 1-1v-4c0-0.554-0.446-1-1-1h-6v-6c0-0.554-0.446-1-1-1h-4z" style="opacity:.2"/>
 <path d="m32 28a14 14 0 0 0-14 14 14 14 0 0 0 14 14 14 14 0 0 0 14-14 14 14 0 0 0-14-14zm0 2a12 12 0 0 1 12 12 12 12 0 0 1-12 12 12 12 0 0 1-12-12 12 12 0 0 1 12-12z" style="fill:#0ad313"/>
 <rect x="29" y="32" width="6" height="20" rx="1" ry="1" style="fill:#0ad313"/>
 <rect x="22" y="39" width="20" height="6" rx="1" ry="1" style="fill:#0ad313"/>
</svg>
