<svg width="64" height="64" version="1.1" xmlns="http://www.w3.org/2000/svg">
 <g transform="translate(0,2)">
  <path d="m20 57-4-4h-8c-2.216 0-4-1.784-4-4v-36c0-2.216 1.784-4 4-4h48c2.216 0 4 1.784 4 4v36c0 2.216-1.784 4-4 4h-8l-4 4z" style="opacity:.2"/>
  <path d="m20 56-4-4h-8c-2.216 0-4-1.784-4-4v-36c0-2.216 1.784-4 4-4h48c2.216 0 4 1.784 4 4v36c0 2.216-1.784 4-4 4h-8l-4 4z" style="fill:#afafb1"/>
  <path d="m24 48-4-4h-8v-28h40v28h-8l-4 4z" style="opacity:.6"/>
  <g transform="scale(1,-1)" style="fill:#f8c44e">
   <rect x="18" y="-20" width="4" height="4"/>
   <rect x="24" y="-20" width="4" height="4"/>
   <rect x="30" y="-20" width="4" height="4"/>
   <rect x="36" y="-20" width="4" height="4"/>
   <rect x="42" y="-20" width="4" height="4"/>
  </g>
  <path d="m8 8c-2.216 0-4 1.784-4 4v1c0-2.216 1.784-4 4-4h48c2.216 0 4 1.784 4 4v-1c0-2.216-1.784-4-4-4z" style="fill:#8b9cbe;opacity:.2"/>
  <path d="m12 44v1h8l4 4h16l4-4h8v-1h-8l-4 4h-16l-4-4z" style="fill:#8b9cbe;opacity:.2"/>
 </g>
 <circle cx="47" cy="47" r="16" style="opacity:.2"/>
 <circle cx="47" cy="46" r="16" style="fill:#c149c0"/>
 <path d="m44.928 38-0.176 2.107a6.2858 6.2858 0 0 0-1.837 1.063l-1.916-0.902-2 3.464 1.739 1.208a6.2858 6.2858 0 0 0-0.096 1.06 6.2858 6.2858 0 0 0 0.092 1.065l-1.734 1.204 2 3.464 1.91-0.9a6.2858 6.2858 0 0 0 1.842 1.056l0.176 2.112h4l0.177-2.107a6.2858 6.2858 0 0 0 1.837-1.063l1.915 0.902 2-3.464-1.739-1.208a6.2858 6.2858 0 0 0 0.096-1.06 6.2858 6.2858 0 0 0-0.091-1.065l1.734-1.203-2-3.464-1.911 0.899a6.2858 6.2858 0 0 0-1.841-1.056l-0.177-2.111h-4zm2 5.714a2.2858 2.2858 0 0 1 2.286 2.286 2.2858 2.2858 0 0 1-2.286 2.286 2.2858 2.2858 0 0 1-2.286-2.286 2.2858 2.2858 0 0 1 2.286-2.286z" style="fill:#8b9cbe"/>
</svg>
