<svg xmlns="http://www.w3.org/2000/svg" width="64" height="64" version="1.1">
 <rect style="opacity:.2" width="56" height="56" x="4" y="5" rx="5" ry="5"/>
 <rect style="fill:#0072c0" width="56" height="56" x="4" y="4" rx="5" ry="5"/>
 <path style="fill:#00ade5" d="M 9 4 C 6.23 4 4 6.23 4 9 L 4 55 C 4 56.385 4.5571875 57.635312 5.4609375 58.539062 L 58.539062 5.4609375 C 57.635312 4.5571875 56.385 4 55 4 L 9 4 z"/>
 <path style="opacity:0.2" d="m 20.4,20.866666 c 0,0 10,-8.866666 20.4,-8.866666 11.6,0 12.6,15 6.8,25.2 l 6.8,2.8 -16,7 -4,-15 6,2 c 3,-7 4,-13 0,-17 -10,-2 -20,3.866666 -20,3.866666 z"/>
 <path style="fill:#8b9cbe" d="m 20.4,19.866666 c 0,0 10,-8.866666 20.4,-8.866666 11.6,0 12.6,15 6.8,25.2 l 6.8,2.8 -16,7 -4,-15 6,2 c 3,-7 4,-13 0,-17 -10,-2 -20,3.866666 -20,3.866666 z"/>
 <path style="opacity:.2" d="M 8.599609,10 C 7.713209,10 7,10.713209 7,11.599609 v 4.800782 C 7,17.286791 7.713209,18 8.599609,18 h 4.800782 C 14.286791,18 15,17.286791 15,16.400391 V 11.599609 C 15,10.713209 14.286791,10 13.400391,10 Z m 0,10 C 7.713209,20 7,20.713209 7,21.599609 v 4.800782 C 7,27.286791 7.713209,28 8.599609,28 h 4.800782 C 14.286791,28 15,27.286791 15,26.400391 V 21.599609 C 15,20.713209 14.286791,20 13.400391,20 Z m 0,10 C 7.713209,30 7,30.713209 7,31.599609 v 4.800782 C 7,37.286791 7.713209,38 8.599609,38 h 4.800782 C 14.286791,38 15,37.286791 15,36.400391 V 31.599609 C 15,30.713209 14.286791,30 13.400391,30 Z m 0,10 C 7.713209,40 7,40.713209 7,41.599609 v 4.800782 C 7,47.286791 7.713209,48 8.599609,48 h 4.800782 C 14.286791,48 15,47.286791 15,46.400391 V 41.599609 C 15,40.713209 14.286791,40 13.400391,40 Z m 0,10 C 7.713209,50 7,50.713209 7,51.599609 v 4.800782 c 0,0.1108 0.01197,0.217932 0.033203,0.322265 1.26e-4,6.23e-4 -1.26e-4,0.0013 0,0.002 0.021226,0.103669 0.05168,0.203641 0.091797,0.298829 2.39e-4,5.69e-4 -2.39e-4,0.0014 0,0.002 0.080689,0.190875 0.197647,0.363662 0.341797,0.507812 C 7.755899,57.822305 8.156409,58 8.599609,58 h 4.800782 C 14.286791,58 15,57.286791 15,56.400391 v -4.800782 c 0,-0.4432 -0.177695,-0.84371 -0.466797,-1.132812 C 14.244101,50.177695 13.843591,50 13.400391,50 Z m 10,0 C 17.713209,50 17,50.713209 17,51.599609 v 4.800782 C 17,57.286791 17.713209,58 18.599609,58 h 4.800782 C 24.286791,58 25,57.286791 25,56.400391 V 51.599609 C 25,50.713209 24.286791,50 23.400391,50 Z m 10,0 C 27.713209,50 27,50.713209 27,51.599609 v 4.800782 C 27,57.286791 27.713209,58 28.599609,58 H 33.40039 C 34.28679,58 35,57.286791 35,56.400391 V 51.599609 C 35,50.713209 34.28679,50 33.40039,50 Z m 10,0 C 37.713209,50 37,50.713209 37,51.599609 v 4.800782 C 37,57.286791 37.713209,58 38.599609,58 H 43.40039 C 44.28679,58 45,57.286791 45,56.400391 V 51.599609 C 45,50.713209 44.28679,50 43.40039,50 Z m 10,0 C 47.713209,50 47,50.713209 47,51.599609 v 4.800782 C 47,57.286791 47.713209,58 48.599609,58 h 4.800782 C 54.286791,58 55,57.286791 55,56.400391 V 51.599609 C 55,50.713209 54.286791,50 53.400391,50 Z"/>
 <path style="fill:#8b9cbe" d="m8.5996094 49c-0.8864 0-1.5996094 0.713209-1.5996094 1.599609v4.800782c0 0.8864 0.7132094 1.599609 1.5996094 1.599609h4.8007816c0.8864 0 1.599609-0.713209 1.599609-1.599609v-4.800782c0-0.8864-0.713209-1.599609-1.599609-1.599609h-4.8007816zm9.9999996 0c-0.8864 0-1.599609 0.713209-1.599609 1.599609v4.800782c0 0.8864 0.713209 1.599609 1.599609 1.599609h4.800782c0.8864 0 1.599609-0.713209 1.599609-1.599609v-4.800782c0-0.8864-0.713209-1.599609-1.599609-1.599609h-4.800782zm10 0c-0.8864 0-1.599609 0.713209-1.599609 1.599609v4.800782c0 0.8864 0.713209 1.599609 1.599609 1.599609h4.800782c0.8864 0 1.599609-0.713209 1.599609-1.599609v-4.800782c0-0.8864-0.713209-1.599609-1.599609-1.599609h-4.800782zm10 0c-0.8864 0-1.599609 0.713209-1.599609 1.599609v4.800782c0 0.8864 0.713209 1.599609 1.599609 1.599609h4.800782c0.8864 0 1.599609-0.713209 1.599609-1.599609v-4.800782c0-0.8864-0.713209-1.599609-1.599609-1.599609h-4.800782zm10 0c-0.8864 0-1.599609 0.713209-1.599609 1.599609v4.800782c0 0.8864 0.713209 1.599609 1.599609 1.599609h4.800782c0.8864 0 1.599609-0.713209 1.599609-1.599609v-4.800782c0-0.8864-0.713209-1.599609-1.599609-1.599609h-4.800782z"/>
 <path style="fill:#4f4f4f" d="m8.5996094 9c-0.8864 0-1.5996094 0.7132094-1.5996094 1.599609v4.800782c0 0.8864 0.7132094 1.599609 1.5996094 1.599609h4.8007816c0.8864 0 1.599609-0.713209 1.599609-1.599609v-4.800782c0-0.8863996-0.713209-1.599609-1.599609-1.599609h-4.8007816zm0 10c-0.8864 0-1.5996094 0.713209-1.5996094 1.599609v4.800782c0 0.8864 0.7132094 1.599609 1.5996094 1.599609h4.8007816c0.8864 0 1.599609-0.713209 1.599609-1.599609v-4.800782c0-0.8864-0.713209-1.599609-1.599609-1.599609h-4.8007816zm0 10c-0.8864 0-1.5996094 0.713209-1.5996094 1.599609v4.800782c0 0.8864 0.7132094 1.599609 1.5996094 1.599609h4.8007816c0.8864 0 1.599609-0.713209 1.599609-1.599609v-4.800782c0-0.8864-0.713209-1.599609-1.599609-1.599609h-4.8007816zm0 10c-0.8864 0-1.5996094 0.713209-1.5996094 1.599609v4.800782c0 0.8864 0.7132094 1.599609 1.5996094 1.599609h4.8007816c0.8864 0 1.599609-0.713209 1.599609-1.599609v-4.800782c0-0.8864-0.713209-1.599609-1.599609-1.599609h-4.8007816zm0 10c-0.8864 0-1.5996094 0.713209-1.5996094 1.599609v4.800782c0 0.4432 0.1775969 0.843612 0.4667969 1.132812l7.0664061-7.066406c-0.2892-0.2892-0.689612-0.466797-1.132812-0.466797h-4.8007816z"/>
 <path style="fill:#8b9cbe;opacity:.2" d="m9 4c-2.77 0-5 2.23-5 5v1c0-2.77 2.23-5 5-5h46c2.77 0 5 2.23 5 5v-1c0-2.77-2.23-5-5-5h-46z"/>
</svg>
