<svg xmlns="http://www.w3.org/2000/svg" width="64" height="64" version="1">
 <path style="opacity:0.2" d="m 4,56 v 2 c 0,1.662 1.338,3 3,3 h 50 c 1.662,0 3,-1.338 3,-3 v -2 c 0,1.662 -1.338,3 -3,3 H 7 C 5.338,59 4,57.662 4,56 Z"/>
 <rect style="fill:#c2352a" width="56" height="56" x="4" y="4" rx="3" ry="3"/>
 <path style="opacity:0.1;fill:#8b9cbe" d="M 7 4 C 5.338 4 4 5.338 4 7 L 4 8 C 4 6.338 5.338 5 7 5 L 57 5 C 58.662 5 60 6.338 60 8 L 60 7 C 60 5.338 58.662 4 57 4 L 7 4 z"/>
 <path style="opacity:0.2" d="m 23.328522,21.001114 c -0.0942,0.0013 -0.2006,0.0084 -0.3227,0.0158 -0.46282,0.02756 -9.196419,1.553794 -9.752259,1.704346 -0.58764,0.15908 -1.0895,0.495162 -1.21194,0.813996 -0.20878,0.54183 0.39632,2.302766 1.1951,3.485116 1.37444,2.033628 3.3756,3.332892 7.583619,4.913748 2.31102,0.868168 2.79232,1.087162 3.09522,1.418634 0.39796,0.435388 0.0682,0.645558 -2.9844,1.907018 -4.770919,1.971716 -5.715152,3.648738 -6.628892,6.12972 -0.26984,0.733098 -0.39524,2.67171 -0.20498,3.159538 0.24694,0.63237 0.39578,0.62676 5.00542,-0.18936 4.6306,-0.819872 3.647712,-0.867856 4.033872,-1.209332 0.47744,-1.015244 0.611358,-1.759692 0.8324,-2.74423 0.27804,-0.905878 0.97734,-1.851888 1.73892,-2.352218 2.88832,-1.897266 8.324562,-0.951158 11.266362,1.960204 1.10846,1.096976 1.80452,1.661706 2.36002,3.363046 0.32052,0.981658 0.64602,1.407866 1.15152,1.501718 0.46502,0.0862 0.47646,0.284472 6.36836,-0.75967 3.27744,-0.580816 4.6414,-1.262874 4.83422,-1.402922 0.41428,-0.301162 0.41592,-1.038132 0.002,-2.255874 -0.70826,-2.09235 -1.93702,-3.817246 -4.21304,-5.426532 -1.12598,-0.796122 -2.54776,-1.54879 -4.95506,-2.624656 C 40.232584,31.38589 40,31.109036 40,30.791238 c 0,-0.262772 0.04134,-0.379856 1.857604,-0.887062 3.97976,-1.111602 6.131806,-2.966362 6.131806,-5.85367 0,-1.267078 -0.2562,-2.289564 -0.65464,-2.62133 -0.52986,-0.441252 -1.09526,-0.455226 -3.32018,-0.07968 -7.13192,1.203664 -7.525526,1.452142 -7.857286,1.953252 -0.1756,0.265002 -0.1678,0.327194 0.1548,1.531602 0.1848,0.690492 0.33362,1.420918 0.33252,1.621304 -0.002,0.426198 -0.31072,1.138182 -0.6009,1.392058 C 35.333704,28.468542 33.724264,29 32.075664,29 c -1.993962,0 -3.496322,-0.748812 -4.988622,-2.232044 -1.0783,-1.07174 -1.6288,-1.975494 -2.3634,-3.883814 -0.6451,-1.67606 -0.73358,-1.89453 -1.39658,-1.88378 z"/>
 <path style="fill:#8b9cbe" d="m 23.328522,20.001114 c -0.0942,0.0013 -0.2006,0.0084 -0.3227,0.0158 -0.46282,0.02756 -9.196419,1.553794 -9.752259,1.704346 -0.58764,0.15908 -1.0895,0.495162 -1.21194,0.813996 -0.20878,0.54183 0.39632,2.302766 1.1951,3.485116 1.37444,2.033628 3.3756,3.332892 7.583619,4.913748 2.31102,0.868168 2.79232,1.087162 3.09522,1.418634 0.39796,0.435388 0.0682,0.645558 -2.9844,1.907018 -4.770919,1.971716 -5.715152,3.648738 -6.628892,6.12972 -0.26984,0.733098 -0.39524,2.67171 -0.20498,3.159538 0.24694,0.63237 0.39578,0.62676 5.00542,-0.18936 4.6306,-0.819872 3.647712,-0.867856 4.033872,-1.209332 0.47744,-1.015244 0.611358,-1.759692 0.8324,-2.74423 0.27804,-0.905878 0.97734,-1.851888 1.73892,-2.352218 2.88832,-1.897266 8.324562,-0.951158 11.266362,1.960204 1.10846,1.096976 1.80452,1.661706 2.36002,3.363046 0.32052,0.981658 0.64602,1.407866 1.15152,1.501718 0.46502,0.0862 0.47646,0.284472 6.36836,-0.75967 3.27744,-0.580816 4.6414,-1.262874 4.83422,-1.402922 0.41428,-0.301162 0.41592,-1.038132 0.002,-2.255874 -0.70826,-2.09235 -1.93702,-3.817246 -4.21304,-5.426532 -1.12598,-0.796122 -2.54776,-1.54879 -4.95506,-2.624656 C 40.232584,30.38589 40,30.109036 40,29.791238 c 0,-0.262772 0.04134,-0.379856 1.857604,-0.887062 3.97976,-1.111602 6.131806,-2.966362 6.131806,-5.85367 0,-1.267078 -0.2562,-2.289564 -0.65464,-2.62133 -0.52986,-0.441252 -1.09526,-0.455226 -3.32018,-0.07968 -7.13192,1.203664 -7.525526,1.452142 -7.857286,1.953252 -0.1756,0.265002 -0.1678,0.327194 0.1548,1.531602 0.1848,0.690492 0.33362,1.420918 0.33252,1.621304 -0.002,0.426198 -0.31072,1.138182 -0.6009,1.392058 C 35.333704,27.468542 33.724264,28 32.075664,28 c -1.993962,0 -3.496322,-0.748812 -4.988622,-2.232044 -1.0783,-1.07174 -1.6288,-1.975494 -2.3634,-3.883814 -0.6451,-1.67606 -0.73358,-1.89453 -1.39658,-1.88378 z"/>
</svg>
