<svg xmlns="http://www.w3.org/2000/svg" width="64" height="64" version="1">
 <path style="opacity:0.2" d="M 57.958,31.84 A 26,26 0 0 1 32,57 26,26 0 0 1 6.044,32.16 26,26 0 0 0 6,33 26,26 0 0 0 32,59 26,26 0 0 0 58,33 26,26 0 0 0 57.958,31.84 Z"/>
 <circle style="fill:#f24f37" cx="32" cy="32" r="26"/>
 <path style="opacity:0.2" d="m 29.56178,6.10009 a 26.020967,26.024622 0 0 0 -9.417388,2.7319848 c 0.130946,0.416434 -0.02178,0.8863185 -0.500603,1.3012312 -0.323961,0.280765 -0.589535,0.71812 -0.589535,0.973381 0,0.780318 0.705548,1.978552 1.268021,2.152636 0.748744,0.23172 0.496781,1.030075 -0.465014,1.471512 -0.444558,0.204593 -0.991799,0.79175 -1.21638,1.306436 -0.224581,0.514687 -0.555848,1.022768 -0.734392,1.128468 -0.178594,0.105647 -0.325262,0.508041 -0.325262,0.894607 0,0.539791 0.246378,0.801479 1.057092,1.125864 0.580587,0.232301 1.275167,0.401541 1.545004,0.376137 1.548929,-0.145802 1.657496,0.756616 0.302384,2.521186 -0.71942,0.936806 -1.065298,1.172448 -1.555153,1.054718 -0.457208,-0.109906 -0.70709,0.01941 -0.914797,0.472706 -0.219577,0.479154 -0.578306,0.642348 -1.542463,0.709071 -0.947704,0.0656 -1.372466,0.258144 -1.727952,0.777696 -0.259149,0.378758 -0.633931,0.686189 -0.833492,0.686189 -0.199563,0 -0.668298,0.253981 -1.041859,0.564215 -0.760433,0.631557 -1.057352,0.695116 -1.323927,0.282106 -0.352284,-0.546518 -1.112497,-0.270255 -2.2438071,0.812769 -1.0004061,0.958907 -1.1217039,1.215149 -0.9707823,2.045935 0.2685164,1.47964 1.070923,2.792643 1.9871404,3.250476 0.799504,0.399598 0.815057,0.442699 0.330346,0.955583 -0.278865,0.2951 -0.7572292,0.611299 -1.0621749,0.703987 -0.8807697,0.267693 -0.3850302,0.603452 1.1866949,0.803099 1.608556,0.204315 2.108499,0.788107 1.356954,1.583339 -0.419118,0.44348 -0.395519,0.526017 0.276983,0.947976 1.314259,0.826783 2.359101,0.320303 1.125907,-0.542513 -0.792839,-0.554524 -0.238592,-0.780738 0.924945,-0.378357 0.927107,0.321022 1.110515,0.302765 1.659337,-0.172824 1.124827,-0.974802 2.347492,0.466962 1.318843,1.555371 -0.654667,0.692716 -0.456247,1.528827 0.391335,1.644336 0.374482,0.05105 1.152589,0.399619 1.730495,0.775154 0.577885,0.375534 1.207533,0.683647 1.397606,0.683647 0.190073,0 0.726225,0.38096 1.19178,0.84632 0.944641,0.944173 1.469084,1.064066 1.735579,0.399018 0.320438,-0.799656 0.191534,-1.211687 -0.670861,-2.152638 -0.686593,-0.749167 -1.801652,-2.740592 -1.801652,-3.217443 0,-0.294918 1.133974,-0.04486 1.768606,0.388847 0.39718,0.271457 1.039837,0.621469 1.42811,0.780238 0.414474,0.169422 0.84346,0.695058 1.039318,1.270723 0.306967,0.902154 0.427925,0.981008 1.509416,0.981008 l 1.176528,0 0.177884,2.114401 c 0.214073,2.543407 0.417957,3.058493 1.29088,3.268291 0.643039,0.154547 1.328991,1.150329 1.328991,1.928985 0,0.206977 -0.462632,0.713936 -1.026607,1.125866 -0.700204,0.511424 -1.002047,0.946175 -0.95545,1.372399 0.05813,0.532163 -0.06231,0.615101 -0.815697,0.559129 -0.485952,-0.03616 -1.32805,0.134206 -1.870266,0.378677 -0.640717,0.288855 -1.335796,0.381342 -1.987142,0.26431 -0.749504,-0.134687 -1.003729,-0.08237 -1.003729,0.210941 0,0.215663 -0.26177,0.619686 -0.581908,0.897128 -0.791738,0.68615 -0.464595,1.049193 0.749624,0.831067 0.754688,-0.135569 1.049106,-0.0753 1.17907,0.249075 0.277063,0.691415 -0.425202,1.68059 -1.077429,1.517256 -0.412833,-0.103318 -0.611373,0.03742 -0.739456,0.526078 -0.04536,0.173063 -0.126362,0.319663 -0.22362,0.44476 A 26.020967,26.024622 0 0 0 26.894371,57.5 c -0.129885,-0.249537 -0.277504,-0.474849 -0.42182,-0.576906 -0.67058,-0.474228 -0.221999,-1.704512 0.701345,-1.926422 0.939918,-0.225894 0.791858,-0.836212 -0.231246,-0.953042 -0.895442,-0.102257 -1.850011,-1.009355 -1.550069,-1.474055 0.201102,-0.311595 1.058713,-0.266172 2.79265,0.144857 0.783011,0.185636 1.318943,-0.186736 3.133125,-2.172855 1.050506,-1.150088 1.857717,-1.629082 2.744411,-1.629082 0.337672,0 1.543504,-0.310733 2.68096,-0.691274 2.147331,-0.71844 2.986207,-0.692495 2.906943,0.09148 -0.164533,1.631303 0.886314,1.577453 2.597092,-0.132165 0.712995,-0.712553 1.363839,-1.2272 1.448428,-1.146204 0.327264,0.313377 -0.261311,1.839981 -0.947843,2.457525 -0.870041,0.782701 -0.913196,1.277249 -0.147379,1.669741 0.419578,0.215023 0.597541,0.651875 0.663234,1.631623 l 0.08893,1.336804 1.087596,0 c 0.381528,0 0.697262,0.05233 0.952908,0.149942 a 26.020967,26.024622 0 0 0 12.60636,-21.478315 c -0.398081,-0.850705 -0.369458,-1.365031 0,-1.944218 a 26.020967,26.024622 0 0 0 -0.116894,-1.458801 c -0.237271,-0.01081 -0.478826,-0.02174 -0.75725,-0.01021 -1.310897,0.05459 -2.434362,-0.462319 -2.434362,-1.120781 0,-0.138771 -0.465015,-0.712014 -1.034233,-1.273285 -0.64476,-0.635722 -0.976147,-1.196892 -0.87923,-1.489289 0.08789,-0.26521 -0.101942,-0.693096 -0.437072,-0.983551 -0.326262,-0.282747 -0.594619,-0.738438 -0.594619,-1.011497 0,-0.435991 -0.277464,-0.490763 -2.281839,-0.442217 l -2.281838,0.05591 0.03811,2.249128 c 0.06773,3.940128 0.654367,4.962896 2.464785,4.30267 0.828708,-0.302144 2.864709,-0.07337 3.443175,0.386307 0.209349,0.166417 0.512593,0.770048 0.673402,1.341889 0.16083,0.57184 0.757171,1.561478 1.32647,2.19828 1.15345,1.290421 1.243001,1.793857 0.581909,3.308931 -0.576765,1.32185 -1.197765,1.169465 -1.074886,-0.26431 l 0.09147,-1.06741 -0.975786,0.182992 c -0.539895,0.101737 -1.216621,0.501154 -1.519585,0.894607 -0.431868,0.560851 -0.634271,0.64357 -0.957992,0.386305 -0.225541,-0.179269 -0.409129,-0.557887 -0.409129,-0.838673 0,-0.280786 -0.278745,-0.593401 -0.617497,-0.696358 -0.338753,-0.102959 -0.803107,-0.614702 -1.031692,-1.138578 -0.365654,-0.837993 -0.356547,-1.094235 0.0686,-2.111998 0.431388,-1.032417 0.435631,-1.202738 0.03811,-1.583338 -0.364534,-0.349071 -0.552446,-0.360342 -1.031692,-0.07371 -0.481808,0.288132 -0.70845,0.266872 -1.280712,-0.116912 -0.382488,-0.256542 -1.048905,-0.467622 -1.481473,-0.467622 -0.878228,0 -1.143502,-0.427344 -1.143502,-1.84002 0,-1.304896 -0.778287,-1.779144 -2.630119,-1.608743 -1.285995,0.118331 -1.569425,0.03361 -2.607101,-0.764983 C 38.507069,25.30928 37.494934,24.121937 36.896112,23.161468 36.29725,22.201099 35.65297,21.19773 35.465459,20.932559 35.19436,20.549197 35.260274,20.181249 35.790721,19.13574 l 0.668318,-1.313944 -1.412858,0.19061 c -2.514226,0.340063 -3.022635,0.66595 -1.941405,1.245318 0.421079,0.225654 0.439474,0.341585 0.114352,0.716699 -0.212971,0.245713 -0.313172,0.63424 -0.221078,0.864098 0.09217,0.229857 -0.02426,0.770748 -0.259189,1.202116 -0.234969,0.431369 -0.431768,1.036741 -0.439614,1.346976 -0.02464,0.970357 -1.685298,1.741327 -3.534648,1.63925 -2.802658,-0.154687 -3.029841,-0.110465 -4.025043,0.813269 -1.244043,1.154633 -1.404812,1.693042 -0.825866,2.765017 0.561753,1.040243 1.557335,1.455396 3.283046,1.369856 1.543323,-0.07658 1.717864,0.05967 1.364579,1.080121 -0.299901,0.866179 -1.307795,1.200155 -1.989683,0.658243 -0.525744,-0.417836 -2.338284,-0.09494 -2.894332,0.515928 -0.233108,0.256083 -0.579007,0.926798 -0.767419,1.489289 -0.325262,0.971039 -0.420078,1.030054 -1.877873,1.171609 -1.454352,0.141254 -1.594064,0.09466 -2.640127,-0.869183 -1.167761,-1.075898 -1.36556,-1.897175 -0.802988,-3.314135 0.249041,-0.627234 0.43481,-0.729231 1.100308,-0.607416 1.319303,0.24151 1.839762,-0.217224 1.839762,-1.626538 0,-0.683406 -0.132787,-1.322272 -0.294778,-1.418142 -0.161931,-0.09587 -0.294777,-0.458033 -0.294777,-0.805642 0,-0.347608 -0.165957,-0.794591 -0.368457,-0.991177 -0.295118,-0.286512 -0.252463,-0.439797 0.218536,-0.772611 0.323181,-0.228356 0.854309,-0.382102 1.17907,-0.343106 0.324781,0.03902 1.220424,-0.101255 1.992225,-0.310052 1.115179,-0.301686 1.442643,-0.529382 1.593284,-1.115696 0.286191,-1.113934 0.984814,-2.007699 1.570406,-2.007699 0.925345,0 0.944281,-2.17586 0.04574,-5.339652 -0.134108,-0.467643 -0.498401,-0.765324 -1.144922,-0.925476 -0.522422,-0.129722 -1.09088,-0.48626 -1.263018,-0.79295 -0.170137,-0.30669 -0.48439,-0.556527 -0.696561,-0.556527 -0.212171,0 -0.626685,-0.253979 -0.919881,-0.564213 -0.295118,-0.312276 -0.90577,-0.564214 -1.369664,-0.564214 -1.099286,0 -1.11752,-0.757116 -0.02794,-1.156374 1.151808,-0.422039 2.943772,0.131168 3.377121,1.042006 0.587593,1.234948 1.238778,0.719619 1.448426,-1.146206 0.25931,-2.3077824 1.05481,-2.9710099 3.565274,-2.9710099 l 1.804193,0 -0.790276,-0.7903837 C 29.906763,6.697165 29.702599,6.3956797 29.560484,6.1 Z m 9.353738,0.8183543 c -0.0501,0.045827 -0.09948,0.083177 -0.14992,0.1346974 -0.603327,0.6161631 -0.886175,0.7040061 -1.819427,0.5616715 -1.628852,-0.2484351 -1.419223,0.4075255 0.38371,1.1995749 0.974985,0.4283253 1.60123,0.9165471 1.814342,1.4105149 1.028248,2.383254 1.735678,3.666268 2.091285,3.796992 0.718739,0.26411 1.146644,-0.266372 1.306132,-1.621454 0.183028,-1.554771 0.709412,-1.884384 1.654252,-1.034379 0.366656,0.329853 0.878628,0.599788 1.138417,0.599788 0.807071,0 1.405233,0.324306 1.405233,0.762441 0,0.230919 0.272339,0.787185 0.607329,1.237692 0.492537,0.662366 0.827387,0.820896 1.748289,0.820896 1.13019,0 1.82403,0.21148 3.24001,0.993719 0.02198,0.01211 0.04402,0.01634 0.06607,0.02795 A 26.020967,26.024622 0 0 0 38.918381,6.9181341 Z M 6.005,31.872053 A 26.020967,26.024622 0 0 0 6,31.98416 26.020967,26.024622 0 0 0 6.5082095,36.982889 C 7.4509051,37.367012 7.711375,37.214787 7.8092538,36.337358 7.8597748,35.88397 8.0968656,35.369001 8.3377997,35.191153 8.7098996,34.916894 8.6428455,34.776762 7.8804312,34.256268 7.3868335,33.919951 6.9002414,33.331394 6.8003609,32.949033 6.7034829,32.580683 6.3762191,32.176301 6.00492,31.872013 Z m 8.189999,8.60294 c -0.242715,-0.02553 -0.536192,0.105379 -0.861435,0.416795 -0.688133,0.658942 -0.584231,1.982814 0.195666,2.505969 0.89322,0.599128 1.238998,0.424623 1.351869,-0.681104 0.13936,-1.36431 -0.152092,-2.185468 -0.686093,-2.24152 z m 4.416358,3.934122 c -0.265754,0.0088 -0.558489,0.199489 -0.851265,0.599788 -0.310711,0.424781 -0.39606,0.97258 -0.276984,1.804446 0.146392,1.022327 0.08252,1.240614 -0.452324,1.514713 -0.687153,0.352153 -0.834152,1.398183 -0.2719,1.936593 0.560011,0.536266 1.093362,0.396155 1.285797,-0.338021 0.27408,-1.045668 1.804393,-1.169045 2.851098,-0.228736 0.445438,0.400179 0.810613,0.603551 0.810613,0.449846 0,-0.153645 -0.464735,-0.711494 -1.031692,-1.237691 -0.868379,-0.805983 -1.029149,-1.150048 -1.029149,-2.188271 0,-1.465987 -0.449582,-2.331205 -1.034233,-2.312787 z m -7.252244,3.359778 a 26.020967,26.024622 0 0 0 0.602245,0.7599 c -0.177341,-0.272259 -0.379905,-0.536508 -0.602284,-0.758719 z m 8.769466,3.99518 c -0.132434,0.04542 -0.188041,0.210519 -0.188041,0.500674 0,0.293637 -0.187773,0.602069 -0.416736,0.686189 -0.304025,0.111646 -0.374542,0.46456 -0.256647,1.306317 0.02209,0.157708 0.02788,0.283967 0.03557,0.414251 a 26.020967,26.024622 0 0 0 1.082512,0.556587 c -0.01781,-0.450126 0.06437,-0.980128 0.299842,-1.644337 0.399323,-1.126346 0.413593,-1.409132 0.08893,-1.606199 -0.305486,-0.185435 -0.513014,-0.258905 -0.645441,-0.213482 z"/>
 <path style="opacity:0.2;fill:#8b9cbe" d="M 31.999023,5.999844 A 26.000977,26 0 0 0 6.0429704,31.16 26.000977,26 0 0 1 6.0175788,30.486172 26.000977,26 0 0 0 6,30.999844 26.000977,26 0 0 0 6.0429704,32.16 26.000977,26 0 0 1 31.999023,6.999844 26.000977,26 0 0 1 57.958982,31.839688 26.000977,26 0 0 0 58,30.999844 26.000977,26 0 0 0 57.974608,30.50375 26.000977,26 0 0 1 57.958982,30.839688 26.000977,26 0 0 0 31.999023,5.999844 Z"/>
</svg>
