<svg xmlns="http://www.w3.org/2000/svg" width="64" height="64" version="1">
 <rect style="opacity:.2" width="56" height="56" x="4" y="5" rx="2.8" ry="2.8"/>
 <rect style="fill:#e32e2e" width="56" height="56" x="4" y="4" rx="2.8" ry="2.8"/>
 <path style="opacity:.2;stroke-linejoin:round;stroke:#000000;stroke-linecap:round;stroke-width:6;fill:none" d="m26.4 18.000477c-9.880424 4.573072-12.141597 11.929904-11.071 19.728268 2.371146 17.271732 17.971178 15.271732 21.469 14.771732 3.911702-0.559162 10.386674-3.516672 11.956-13.24029 1.603688-9.936536-4.877206-13.868556-8.78566-14.730988-4.90983-1.083394-8.935036-0.39875-11.16634 3.062884-2.070234 3.21175-2.242722 7.180396-0.936 9.844958 1.192872 2.432422 2.302388 3.522006 4.149038 3.563436 6.36691 0.14284 7.2293-3.775936 6.53409-7.50142-1.608666-7.928452-5.322726-10.17586-4.044754-16.30237 1.306904-4.126726 5.598706-3.552155 8.495626-1.19642"/>
 <path style="stroke-linejoin:round;stroke:#8b9cbe;stroke-linecap:round;stroke-width:6;fill:none" d="m26.4 17c-9.880424 4.573072-12.141597 11.929904-11.071 19.728268 2.371146 17.271732 17.971178 15.271732 21.469 14.771732 3.911702-0.559162 10.386674-3.516672 11.956-13.24029 1.603688-9.936536-4.877206-13.868556-8.78566-14.730988-4.90983-1.083394-8.935036-0.39875-11.16634 3.062884-2.070234 3.21175-2.242722 7.180396-0.936 9.844958 1.192872 2.432422 2.302388 3.522006 4.149038 3.563436 6.36691 0.14284 7.2293-3.775936 6.53409-7.50142-1.608666-7.928452-5.322726-10.17586-4.044754-16.30237 1.306904-4.126726 5.598706-3.552155 8.495626-1.19642"/>
 <path style="opacity:.2;fill:#8b9cbe" d="m6.8007812 4c-1.5512 0-2.8007812 1.2495812-2.8007812 2.8007812v1c0-1.5511999 1.2495812-2.8007812 2.8007812-2.8007812h50.398438c1.5512 0 2.800781 1.2495812 2.800781 2.8007812v-1c0-1.5511999-1.249581-2.8007812-2.800781-2.8007812h-50.398438z"/>
</svg>
