<svg xmlns="http://www.w3.org/2000/svg" width="64" height="64" version="1">
 <path style="opacity:0.2" d="M 59.958,31.828 A 28,28 0 0 1 32,59 28,28 0 0 1 4.044,32.172 28,28 0 0 0 4,33 28,28 0 0 0 32,61 28,28 0 0 0 60,33 28,28 0 0 0 59.958,31.828 Z"/>
 <path style="fill:#4f4f4f" d="M 60,32 A 28,28 0 0 1 32,60 28,28 0 0 1 4,32 28,28 0 0 1 32,4 28,28 0 0 1 60,32 Z"/>
 <path style="opacity:0.2" d="m 26.234,13 c -0.11418,0.003 -0.23636,0.03853 -0.35288,0.121572 -0.1165,0.08304 -0.2121,0.2351 -0.23524,0.3647 -0.04628,0.25918 0.0102,0.38322 0.1176,0.60782 0.49482,0.92146 0.98396,1.64036 1.17624,2.1882 0.33028,0.75962 0.3256,1.46556 0.23524,1.94504 l -0.58812,2.9176 c -2.9694,0.71066 -5.8354,1.42892 -8.7042,2.4314 -0.55838,0.18458 -0.98376,0.3704 -1.41148,0.60784 -0.03894,-0.0066 -0.07868,-0.0066 -0.117614,0 -0.1503,0.0925 -0.15733,0.22874 -0.23524,0.3647 -0.03895,0.06798 -0.106836,0.1472 -0.117628,0.24314 -0.01078,0.09592 0.03322,0.25256 0.117628,0.3647 0.25052,0.35676 0.5873,0.5042 1.0586,0.7294 0.4713,0.22518 1.01266,0.4574 1.41148,0.60782 1.9952,0.75254 4.561,1.36092 6.5868,1.58036 -0.54554,2.5438 -1.07266,5.0582 -1.88196,7.537 -0.19704,0.60348 -0.4482,1.23206 -0.70574,1.82348 -0.73968,1.6987 -1.67786,3.2496 -2.5878,4.741 -0.96108,1.39272 -1.77094,2.7504 -2.823,4.0116 -0.19625,0.21476 -0.513,0.39872 -0.70574,0.60782 -0.09636,0.10456 -0.165082,0.27196 -0.23524,0.3647 -0.03508,0.04636 -0.08761,0.06526 -0.117614,0.12158 -0.03002,0.05628 -0.01148,0.08582 0,0.24312 -0.0064,0.04024 -0.0064,0.0813 0,0.12156 0.02956,0.0494 0.06982,0.09102 0.117614,0.12158 0.02956,0.0494 0.06982,0.09102 0.117628,0.12156 0.03894,0.0066 0.07868,0.0066 0.117614,0 0.21014,0.03306 0.38406,-0.05586 0.58812,-0.12156 0.20404,-0.0657 0.34442,-0.12496 0.58812,-0.24314 0.48738,-0.23634 1.11608,-0.50404 1.64672,-0.85096 0.76234,-0.4984 1.32478,-1.0052 1.76434,-1.33722 0.77466,-0.58512 2.5192,-2.2634 3.411,-3.4038 1.02472,-1.20514 2.1158,-2.4982 2.9406,-4.1332 0.0158,-0.03134 -0.0158,-0.08994 0,-0.12158 0.05624,-0.10026 0.3821,-0.7446 0.4705,-0.97252 0.1768,-0.45584 0.29504,-0.90818 0.35288,-1.0941 l 2.5878,-8.1448 9.057,-2.1882 c -0.22468,1.96412 -0.4767,3.8668 -0.70574,5.8352 -0.17456,1.62268 -0.29374,2.2762 -0.4705,4.0116 -0.0054,0.05186 0.0056,0.06766 0,0.12158 -0.10032,0.5349 -0.39208,2.0376 -0.4705,2.4314 -0.6012,3.0194 -1.24706,5.7574 -2.5878,8.1448 -0.32076,0.46572 -0.69182,0.95546 -1.0586,1.33722 -0.37096,-0.186 -0.8914,-0.4451 -1.64672,-0.48626 -0.013,-0.0017 -0.08134,0.0016 -0.11762,0 -0.03894,-0.0066 -0.07866,-0.0066 -0.11762,0 -0.0016,4.98e-4 -0.11682,0.12072 -0.11762,0.12158 -0.0478,0.03052 -0.08806,0.07216 -0.11762,0.12158 -0.0499,0.27608 0.03998,0.48952 0.11762,0.7294 0.07764,0.23988 0.14096,0.50882 0.23524,0.7294 0.68006,1.59098 1.47808,2.9622 2.2348,4.3764 0.02954,0.0494 0.06982,0.09102 0.11762,0.12156 0.02954,0.0494 0.06984,0.09102 0.11762,0.12158 0.03894,0.0066 0.07866,0.0066 0.11764,0 0.03894,0.0066 0.07866,0.0066 0.11762,0 0.0478,-0.03074 0.08806,-0.07216 0.11762,-0.12158 1.12994,-1.1069 2.4568,-2.889 3.411,-4.3764 1.87694,-2.9096 3.4638,-6.1624 4.5874,-9.8468 0.16786,-0.57314 0.30466,-1.15326 0.4705,-1.82348 l 3.5286,-13.98 c 0.14918,-0.61782 0.32168,-1.30448 0.35286,-1.82348 0.0066,-0.04024 0.0066,-0.0813 0,-0.12158 -0.073,-0.17996 -0.2327,-0.2739 -0.35286,-0.36468 -0.12016,-0.0908 -0.20098,-0.16478 -0.35288,-0.24314 -0.30376,-0.15674 -0.70614,-0.34844 -1.05862,-0.4863 -1.69256,-0.5892 -3.5322,-1.11928 -5.5282,-1.58036 -0.2135,-0.09596 -0.35904,-0.134386 -0.58812,-0.121572 -0.22908,0.01286 -0.568,0.07224 -0.82336,0.121572 -0.51072,0.09863 -1.03668,0.28256 -1.41148,0.3647 l -4.702,1.0888 c 0.2,-0.646 0.526,-1.5992 0.236,-2.796 -0.402,-1.3584 -1.438,-2.1508 -2.588,-2.5528 -0.98,-0.3426 -1.936,-0.6474 -2.94,-0.9726 -0.164,-0.0526 -0.902,-0.3226 -1.648,-0.3646 z"/>
 <path style="fill:#b7b7b7" d="m 26.234,12 c -0.11418,0.003 -0.23636,0.03853 -0.35288,0.121572 -0.1165,0.08304 -0.2121,0.2351 -0.23524,0.3647 -0.04628,0.25918 0.0102,0.38322 0.1176,0.60782 0.49482,0.92146 0.98396,1.64036 1.17624,2.1882 0.33028,0.75962 0.3256,1.46556 0.23524,1.94504 l -0.58812,2.9176 c -2.9694,0.71066 -5.8354,1.42892 -8.7042,2.4314 -0.55838,0.18458 -0.98376,0.3704 -1.41148,0.60784 -0.03894,-0.0066 -0.07868,-0.0066 -0.117614,0 -0.1503,0.0925 -0.15733,0.22874 -0.23524,0.3647 -0.03895,0.06798 -0.106836,0.1472 -0.117628,0.24314 -0.01078,0.09592 0.03322,0.25256 0.117628,0.3647 0.25052,0.35676 0.5873,0.5042 1.0586,0.7294 0.4713,0.22518 1.01266,0.4574 1.41148,0.60782 1.9952,0.75254 4.561,1.36092 6.5868,1.58036 -0.54554,2.5438 -1.07266,5.0582 -1.88196,7.537 -0.19704,0.60348 -0.4482,1.23206 -0.70574,1.82348 -0.73968,1.6987 -1.67786,3.2496 -2.5878,4.741 -0.96108,1.39272 -1.77094,2.7504 -2.823,4.0116 -0.19625,0.21476 -0.513,0.39872 -0.70574,0.60782 -0.09636,0.10456 -0.165082,0.27196 -0.23524,0.3647 -0.03508,0.04636 -0.08761,0.06526 -0.117614,0.12158 -0.03002,0.05628 -0.01148,0.08582 0,0.24312 -0.0064,0.04024 -0.0064,0.0813 0,0.12156 0.02956,0.0494 0.06982,0.09102 0.117614,0.12158 0.02956,0.0494 0.06982,0.09102 0.117628,0.12156 0.03894,0.0066 0.07868,0.0066 0.117614,0 0.21014,0.03306 0.38406,-0.05586 0.58812,-0.12156 0.20404,-0.0657 0.34442,-0.12496 0.58812,-0.24314 0.48738,-0.23634 1.11608,-0.50404 1.64672,-0.85096 0.76234,-0.4984 1.32478,-1.0052 1.76434,-1.33722 0.77466,-0.58512 2.5192,-2.2634 3.411,-3.4038 1.02472,-1.20514 2.1158,-2.4982 2.9406,-4.1332 0.0158,-0.03134 -0.0158,-0.08994 0,-0.12158 0.05624,-0.10026 0.3821,-0.7446 0.4705,-0.97252 0.1768,-0.45584 0.29504,-0.90818 0.35288,-1.0941 l 2.5878,-8.1448 9.057,-2.1882 c -0.22468,1.96412 -0.4767,3.8668 -0.70574,5.8352 -0.17456,1.62268 -0.29374,2.2762 -0.4705,4.0116 -0.0054,0.05186 0.0056,0.06766 0,0.12158 -0.10032,0.5349 -0.39208,2.0376 -0.4705,2.4314 -0.6012,3.0194 -1.24706,5.7574 -2.5878,8.1448 -0.32076,0.46572 -0.69182,0.95546 -1.0586,1.33722 -0.37096,-0.186 -0.8914,-0.4451 -1.64672,-0.48626 -0.013,-0.0017 -0.08134,0.0016 -0.11762,0 -0.03894,-0.0066 -0.07866,-0.0066 -0.11762,0 -0.0016,4.98e-4 -0.11682,0.12072 -0.11762,0.12158 -0.0478,0.03052 -0.08806,0.07216 -0.11762,0.12158 -0.0499,0.27608 0.03998,0.48952 0.11762,0.7294 0.07764,0.23988 0.14096,0.50882 0.23524,0.7294 0.68006,1.59098 1.47808,2.9622 2.2348,4.3764 0.02954,0.0494 0.06982,0.09102 0.11762,0.12156 0.02954,0.0494 0.06984,0.09102 0.11762,0.12158 0.03894,0.0066 0.07866,0.0066 0.11764,0 0.03894,0.0066 0.07866,0.0066 0.11762,0 0.0478,-0.03074 0.08806,-0.07216 0.11762,-0.12158 1.12994,-1.1069 2.4568,-2.889 3.411,-4.3764 1.87694,-2.9096 3.4638,-6.1624 4.5874,-9.8468 0.16786,-0.57314 0.30466,-1.15326 0.4705,-1.82348 l 3.5286,-13.98 c 0.14918,-0.61782 0.32168,-1.30448 0.35286,-1.82348 0.0066,-0.04025 0.0066,-0.08131 0,-0.121572 -0.073,-0.179968 -0.2327,-0.2739 -0.35286,-0.36468 -0.12016,-0.0908 -0.20098,-0.16478 -0.35288,-0.24314 -0.3,-0.1618 -0.702,-0.3534 -1.056,-0.4914 -1.692,-0.5892 -3.532,-1.1192 -5.528,-1.5804 -0.214,-0.0958 -0.358,-0.1342 -0.588,-0.1214 -0.22908,0.01286 -0.568,0.07224 -0.82336,0.121572 -0.51072,0.09863 -1.03668,0.28256 -1.41148,0.3647 l -4.706,1.094 c 0.2,-0.6464 0.526,-1.5992 0.236,-2.796 -0.402,-1.3584 -1.438,-2.1508 -2.588,-2.5528 -0.98,-0.3426 -1.936,-0.6474 -2.94,-0.9726 -0.164,-0.0526 -0.902,-0.3226 -1.648,-0.3646 z"/>
 <path style="opacity:0.1;fill:#8b9cbe" d="M 31.998047 4 A 28 28 0 0 0 4 32 A 28 28 0 0 0 4.0175781 32.492188 A 28 28 0 0 1 31.998047 5 L 32 5 A 28 28 0 0 1 59.972656 32.5 A 28 28 0 0 0 59.998047 32 A 28 28 0 0 0 32 4 L 31.998047 4 z"/>
</svg>
