<svg xmlns="http://www.w3.org/2000/svg" width="64" height="64" version="1">
 <path style="opacity:0.2" d="M 60,33 A 28,28 0 0 1 32,61 28,28 0 0 1 4,33 28,28 0 0 1 32,5 28,28 0 0 1 60,33 Z"/>
 <path style="fill:#4f4f4f" d="M 60,32 A 28,28 0 0 1 32,60 28,28 0 0 1 4,32 28,28 0 0 1 32,4 28,28 0 0 1 60,32 Z"/>
 <path style="opacity:0.2" d="M 15.636719,22 10.6875,29 h 10.761719 l -7.875,15 h 5.636719 5.638671 5.636719 l 7.875,-15 h 5.636719 l -7.875,15 h 5.638672 L 53.294922,22.03125 53.3125,22 h -0.002 -11.273438 -5.638671 -5.636719 -5.638672 z"/>
 <path style="fill:#8b9cbe" d="m 36.398926,21 h 5.6375 l -11.55,22 h -5.6375 z"/>
 <path style="fill:#8b9cbe" d="m 47.673926,21 h 5.6375 l -11.55,22 h -5.6375 z"/>
 <path style="fill:#8b9cbe" d="M 15.636719 21 L 10.6875 28 L 21.449219 28 L 25.123047 21 L 15.636719 21 z M 36.398438 21 L 32.724609 28 L 32.789062 28 L 35.015625 28 L 49.1875 28 L 53.3125 21 L 38.625 21 L 36.398438 21 z"/>
 <path style="fill:#4485e8" d="m 30.761426,21 h 5.6375 l -11.55,22 h -5.6375 z"/>
 <path style="fill:#69b0ec" d="m 25.123926,21 h 5.6375 l -11.55,22 h -5.6375 z"/>
 <path style="fill:#8b9cbe;opacity:0.1" d="M 32 4 A 28 28 0 0 0 4 32 A 28 28 0 0 0 4.0214844 32.585938 A 28 28 0 0 1 32 5 A 28 28 0 0 1 59.978516 32.414062 A 28 28 0 0 0 60 32 A 28 28 0 0 0 32 4 z"/>
</svg>
