<svg xmlns="http://www.w3.org/2000/svg" width="64" height="64" version="1">
 <path style="opacity:0.2" d="m 4.0000004,56.200069 0,1.999971 c 0,1.549978 1.2495821,2.79996 2.80076,2.79996 L 57.20004,61 C 58.750017,61 60,59.750018 60,58.20004 l 0,-1.999971 c 0,1.549977 -1.249983,2.79996 -2.79996,2.79996 l -50.3992796,0 c -1.5503779,0 -2.79996,-1.249983 -2.79996,-2.79996 z"/>
 <rect style="fill:#f2ad19" width="56" height="56" x="4" y="4" rx="2.8" ry="2.8"/>
 <path style="opacity:0.2" d="m 9.9999146,15.000658 0,35.999485 7.9998854,0 0,-27.929601 c 1.377821,0.05528 2.479565,0.144738 3.109356,0.304676 1.146543,0.291196 0.994046,0.123698 1.476539,1.226543 0.963986,2.205968 1.413979,10.397851 1.413979,26.397622 l 7.999886,0 c 0,-3.030757 0.0146,-5.515121 0.02344,-7.999886 l 7.975886,0 0,7.999886 7.999885,0 0,-7.999886 7.999886,0 0,-7.999885 -7.999886,0 0,-7.999886 -7.999885,0 0,7.999886 -7.999886,0 0,0.839828 C 31.899,29.309533 31.473008,24.963595 29.91303,21.397646 28.645048,18.501088 25.869088,16.333519 23.077128,15.624729 21.447151,15.210935 19.768375,15.086737 17.9992,15.038737 l 0,-0.039 -7.9998854,0 z"/>
 <rect style="fill:#8b9cbe" width="8" height="35.999" x="10" y="14"/>
 <path style="fill:none;stroke:#8b9cbe;stroke-width:7.99988556" d="m 13.999857,18.000629 c 13.9998,0 13.9998,0 13.9998,31.999543"/>
 <path style="opacity:0.2;fill:#8b9cbe" d="M 6.8007812 4 C 5.2496034 4 4 5.2496034 4 6.8007812 L 4 7.8027344 C 4 6.2515566 5.2496034 5.0019531 6.8007812 5.0019531 L 57.199219 5.0019531 C 58.749196 5.0019531 60 6.2515566 60 7.8027344 L 60 6.8007812 C 60 5.2496035 58.749196 4 57.199219 4 L 6.8007812 4 z"/>
 <path style="fill:#8b9cbe" d="m 39.999486,26.000515 0,7.999885 -7.999886,0 0,7.999886 7.999886,0 0,7.999886 7.999885,0 0,-7.999886 7.999886,0 0,-7.999886 -7.999886,0 0,-7.999885 -7.999885,0 z"/>
</svg>
