<svg xmlns="http://www.w3.org/2000/svg" width="64" height="64" version="1">
 <path style="opacity:0.2" d="m 58.269476,14.800229 c -2.16806,1.249281 -4.935282,1.956763 -7.48299,2.467219 0.0026,0.0031 0.006,0.0056 0.0086,0.0087 0.220178,0.253621 0.428596,0.368064 0.626388,0.639662 0.200392,0.274854 0.78933,1.159376 0.965708,1.451109 0.15604,0.258097 0.296602,1.643885 0.432878,1.914073 0.0178,0.0355 0.0402,0.0682 0.0577,0.10388 l 0.003,0.0058 c 0.14972,0.304884 0.13866,-0.648896 0.262132,-0.330384 2.35073,-1.386615 4.27354,-3.667364 5.126622,-6.259999 z M 60,19 c -2.045886,0.881654 -4.540234,1.812001 -6.8456,2.0862 0.510872,1.270258 0.452716,3.674778 0.5356,4.3756 C 55.94036,23.884354 58.455688,21.244256 60,19 Z"/>
 <path style="opacity:0.1;fill:#8b9cbe" d="m 58.269476,13.800229 c -2.16806,1.249281 -4.935282,1.956763 -7.48299,2.467219 0.0026,0.0031 0.006,0.0056 0.0086,0.0087 0.220178,0.253621 0.428596,0.368064 0.626388,0.639662 0.200392,0.274854 0.78933,1.159376 0.965708,1.451109 0.15604,0.258097 0.296602,1.643885 0.432878,1.914073 0.0178,0.0355 0.0402,0.0682 0.0577,0.10388 l 0.003,0.0058 c 0.14972,0.304884 0.13866,-0.648896 0.262132,-0.330384 2.35073,-1.386615 4.27354,-3.667364 5.126622,-6.259999 z M 60,18 c -2.045886,0.881654 -4.540234,1.812001 -6.8456,2.0862 0.510872,1.270258 0.452716,3.674778 0.5356,4.3756 C 55.94036,22.884354 58.455688,20.244256 60,18 Z"/>
 <path style="opacity:0.2" d="m 42,10 c -6.627416,0 -12,5.372583 -12,12 0,12 -2.821276,19.082846 -9.089844,24.257812 -3.908563,3.01126 -8.837008,5.922266 -14.1874998,5.922266 C 5.800866,52.180078 4.8934274,52.123622 4,52.019922 9.054141,55.205506 15.05793,56 21.507812,56 42.51416,56 54,38.562362 54,23.726562 c 0,-0.1503 -0.01,-0.299426 -0.0118,-0.449218 0.0044,-0.0733 0.0088,-0.14538 0.0118,-0.21875 -1.44e-4,-0.1253 -0.03116,-0.242726 -0.03516,-0.367188 C 53.98321,22.461324 53.994934,22.230758 54,22 54,15.372583 48.627416,10 42,10 Z"/>
 <path style="fill:#085585" d="m 58.269476,12.800229 c -2.16806,1.249281 -4.935282,1.956763 -7.48299,2.467219 0.0026,0.0031 0.006,0.0056 0.0086,0.0087 0.220178,0.253621 0.428596,0.368064 0.626388,0.639662 0.200392,0.274854 0.78933,1.159376 0.965708,1.451109 0.15604,0.258097 0.296602,1.643886 0.432878,1.914073 0.0178,0.03549 0.0402,0.06821 0.0577,0.10388 l 0.003,0.0057 c 0.14972,0.304885 0.13866,-0.648896 0.262132,-0.330383 2.35073,-1.386616 4.27354,-3.667365 5.126622,-6.26 z M 60,17 c -2.045886,0.881654 -4.540234,1.812001 -6.8456,2.0862 0.510872,1.270258 0.452716,3.674778 0.5356,4.3756 C 55.94036,21.884354 58.455688,19.244256 60,17 Z"/>
 <path style="fill:#8b9cbe;opacity:0.1" d="M 58.269531 12.800781 C 56.101471 14.050062 53.334817 14.757122 50.787109 15.267578 C 50.789709 15.270678 50.792322 15.272291 50.794922 15.275391 C 51.0151 15.529012 51.224083 15.644418 51.421875 15.916016 C 51.447477 15.951131 51.508307 16.049053 51.544922 16.101562 C 53.671083 15.64696 55.87969 15.041649 57.738281 14.082031 C 57.940724 13.664097 58.125212 13.239387 58.269531 12.800781 z M 60 17 C 58.469027 17.659758 56.686038 18.344739 54.919922 18.763672 C 54.436867 19.187773 53.920722 19.569438 53.380859 19.90625 C 53.390338 19.953098 53.399459 19.999059 53.408203 20.046875 C 55.243511 19.792759 57.165723 19.147863 58.892578 18.453125 C 59.290079 17.961513 59.676399 17.47027 60 17 z"/>
 <path style="fill:#0391e9" d="M 42,9 C 35.372584,9 30,14.372583 30,21 30,33 27.178724,40.082846 20.910156,45.257812 17.001593,48.269072 12.073148,51.180078 6.7226562,51.180078 5.800866,51.180078 4.8934274,51.123622 4,51.019922 9.054141,54.205506 15.05793,55 21.507812,55 42.51416,55 54,37.562362 54,22.726562 c 0,-0.1503 -0.01,-0.299426 -0.0118,-0.449218 0.0044,-0.0733 0.0088,-0.14538 0.0118,-0.21875 -1.44e-4,-0.1253 -0.03116,-0.242726 -0.03516,-0.367188 C 53.98321,21.461324 53.994934,21.230758 54,21 54,14.372583 48.627416,9 42,9 Z"/>
 <path style="fill:#8b9cbe;opacity:0.1" d="M 42 9 C 35.372584 9 30 14.372583 30 21 C 30 33 27.178724 40.082847 20.910156 45.257812 C 17.001593 48.269073 12.073148 51.179688 6.7226562 51.179688 C 5.800866 51.179688 4.8934274 51.123231 4 51.019531 C 4.6688111 51.441077 5.3557378 51.818651 6.0566406 52.160156 C 6.2788305 52.166685 6.4987781 52.179688 6.7226562 52.179688 C 12.073148 52.179688 17.001593 49.269073 20.910156 46.257812 C 27.178724 41.082847 30 34 30 22 C 30 15.372583 35.372584 10 42 10 C 48.458566 10 53.710429 15.106349 53.974609 21.5 C 53.985232 21.333436 53.996336 21.166875 54 21 C 54 14.372583 48.627416 9 42 9 z M 53.998047 22.039062 C 53.992557 22.256763 53.982176 22.474323 53.964844 22.691406 C 53.968121 22.793375 53.98643 22.891465 53.994141 22.992188 C 53.99495 22.90395 54 22.814621 54 22.726562 C 54 22.576262 53.990081 22.427136 53.988281 22.277344 C 53.992681 22.204044 53.997 22.131964 54 22.058594 C 53.999992 22.051926 53.998221 22.045688 53.998047 22.039062 z"/>
 <circle style="fill:#085585" cx="45" cy="18" r="3"/>
 <path style="opacity:0.2" d="M 5.5421874,14 C 4.5506572,15.652706 3.9999998,18.689172 4,20.740054 c 0,3.882482 4.2187864,7.164626 7.309683,9.171094 -1.8882132,-0.05812 -5.7156666,-0.904824 -7.2686674,-1.742878 -0.00134,0.04666 -0.00272,0.09226 -0.00272,0.13946 0,5.421746 7.2723004,12.214712 11.3784324,13.69227 C 11.310596,42 7.4775572,40.15572 6,40.15572 7.4659532,44.601368 14.53413,47.909742 19.575,48 l 9.542968,0 c 0.08944,0 0.16046,-0.0184 0.24336,-0.02462 0.16524,0.0124 0.329292,0.0196 0.494922,0.02462 0.1232,0 0.241874,-0.0152 0.363672,-0.0192 C 30.346502,47.9894 30.473208,47.9958 30.6,48 36.785588,48 42,42.985588 42,36.8 42,30.61441 36.785588,25.9918 30.6,25.9918 30.44952,25.9942 30.299092,25.9996 30.148828,26.0082 30.050608,26.0054 29.955368,25.9918 29.85625,25.9918 17.297012,25.9918 11.159016,20.393606 5.5421874,14 Z"/>
 <path style="fill:#3cbbff" d="M 5.5421874,13 C 4.5506572,14.652706 3.9999998,17.689172 4,19.740054 c 0,3.882482 4.2187864,7.164626 7.309683,9.171094 -1.8882132,-0.05812 -5.7156666,-0.904824 -7.2686674,-1.742878 -0.00134,0.04666 -0.00272,0.09226 -0.00272,0.13946 0,5.421746 7.2723004,12.214712 11.3784324,13.69227 C 11.310596,41 7.4775572,39.15572 6,39.15572 7.4659532,43.601368 14.53413,46.909742 19.575,47 l 9.542968,0 c 0.08944,0 0.16046,-0.0184 0.24336,-0.02462 0.16524,0.0124 0.329292,0.0196 0.494922,0.02462 0.1232,0 0.241874,-0.0152 0.363672,-0.0192 C 30.346502,46.9894 30.473208,46.9958 30.6,47 36.785588,47 42,41.985588 42,35.8 42,29.61441 36.785588,24.9918 30.6,24.9918 30.44952,24.9942 30.299092,24.9996 30.148828,25.0082 30.050608,25.0054 29.955368,24.9918 29.85625,24.9918 17.297012,24.9918 11.159016,19.393607 5.5421874,13 Z"/>
 <path style="fill:#8b9cbe;opacity:0.2" d="M 5.5429688 13 C 4.5514385 14.652706 3.9999998 17.689352 4 19.740234 C 4 19.898702 4.017557 20.054516 4.03125 20.210938 C 4.1102926 18.191914 4.6292732 15.522969 5.5429688 14 C 11.159797 20.393607 17.296231 25.992188 29.855469 25.992188 C 29.954587 25.992187 30.050217 26.005013 30.148438 26.007812 C 30.298702 25.999212 30.449129 25.994587 30.599609 25.992188 C 36.615715 25.992187 41.697838 30.370211 41.972656 36.300781 C 41.980346 36.1337 42 35.969687 42 35.800781 C 42 29.615191 36.785197 24.992187 30.599609 24.992188 C 30.449129 24.994587 30.298702 24.999212 30.148438 25.007812 C 30.050217 25.005013 29.954587 24.992187 29.855469 24.992188 C 17.296231 24.992188 11.159797 19.393607 5.5429688 13 z M 4.0410156 27.167969 C 4.0396756 27.214629 4.0390625 27.261394 4.0390625 27.308594 C 4.0390625 27.601783 4.0684934 27.899068 4.109375 28.199219 C 5.6985459 29.026863 9.4459922 29.854718 11.310547 29.912109 C 10.771259 29.562028 10.194795 29.158537 9.6152344 28.734375 C 7.6660789 28.433716 5.2098539 27.798715 4.0410156 27.167969 z M 6 39.15625 C 6.1192424 39.517864 6.2872931 39.867445 6.4765625 40.212891 C 8.1921167 40.488388 11.680429 42 15.416016 42 C 14.717005 41.748467 13.922822 41.333269 13.091797 40.806641 C 9.9260177 40.342971 7.1923286 39.15625 6 39.15625 z"/>
</svg>
