<svg xmlns="http://www.w3.org/2000/svg" width="64" height="64" version="1">
 <path style="opacity:0.2;fill:none;stroke:#000000;stroke-width:16" d="m 12,12.999146 40,40"/>
 <path style="opacity:0.2" d="M 9.3320312,5 C 6.3773644,5 4,7.4991626 4,10.601562 V 55.398438 C 4,58.500838 6.3773644,61 9.3320312,61 H 14.667969 C 17.622636,61 20,58.500838 20,55.398438 V 10.601562 C 20,7.4991626 17.622636,5 14.667969,5 Z M 49.332032,5 C 46.377364,5 44,7.4991626 44,10.601562 V 55.398438 C 44,58.500838 46.377364,61 49.332032,61 h 5.335936 C 57.622636,61 60,58.500838 60,55.398438 V 10.601562 C 60,7.4991626 57.622636,5 54.667968,5 Z"/>
 <path style="fill:none;stroke:#17191e;stroke-width:16" d="M 12,12 52,52"/>
 <path style="opacity:0.1;fill:#8b9cbe" d="M 17.65625 6.34375 L 6.34375 17.65625 L 6.84375 18.15625 L 17.65625 7.34375 L 57.15625 46.84375 L 57.65625 46.34375 L 17.65625 6.34375 z"/>
 <rect style="fill:#4f4f4f" width="16" height="56" x="4" y="4" rx="5.333" ry="5.6"/>
 <rect style="fill:#4f4f4f" width="16" height="56" x="44" y="4" rx="5.333" ry="5.6"/>
 <path style="opacity:0.1;fill:#8b9cbe" d="M 9.3320312 4 C 6.3773644 4 4 6.4991627 4 9.6015625 L 4 10.601562 C 4 7.4991631 6.3773644 5 9.3320312 5 L 14.667969 5 C 17.622636 5 20 7.4991631 20 10.601562 L 20 9.6015625 C 20 6.4991627 17.622636 4 14.667969 4 L 9.3320312 4 z M 49.332031 4 C 46.377363 4 44 6.4991627 44 9.6015625 L 44 10.601562 C 44 7.4991631 46.377363 5 49.332031 5 L 54.667969 5 C 57.622637 5 60 7.4991631 60 10.601562 L 60 9.6015625 C 60 6.4991627 57.622637 4 54.667969 4 L 49.332031 4 z"/>
</svg>
