<svg xmlns="http://www.w3.org/2000/svg" width="64" height="64" version="1">
 <rect style="opacity:0.2" width="56" height="56" x="4" y="5" rx="2.8" ry="2.8"/>
 <rect style="fill:#f55e07" width="56" height="56" x="4" y="4" rx="2.8" ry="2.8"/>
 <path style="fill:#4c4c4c" d="m 31.973347,7.9999989 c 13.605776,0 24.000001,10.3809001 24.000001,23.9733501 0,13.605774 -10.394225,24.000001 -24.000001,24.000001 -13.592448,0 -23.9733481,-10.394227 -23.9733481,-24.000001 0,-13.59245 10.3809001,-23.9733501 23.9733481,-23.9733501 z m -23.9733481,0 z M 56.000001,56.000001 Z"/>
 <path style="opacity:0.2" d="m 31.986677,16.999999 c 9.072442,0 16,6.927563 16,15.986679 0,9.07244 -6.927558,16.000001 -16,16.000001 C 22.92756,48.986679 16,42.059118 16,32.986678 16,23.927562 22.92756,16.999999 31.986677,16.999999 Z m -15.986677,0 z m 32,32.000002 z"/>
 <path style="fill:#808080" d="m 31.986677,15.999999 c 9.072442,0 16,6.927563 16,15.986679 0,9.07244 -6.927558,16.000001 -16,16.000001 C 22.92756,47.986679 16,41.059118 16,31.986678 16,22.927562 22.92756,15.999999 31.986677,15.999999 Z m -15.986677,0 z m 32,32.000002 z"/>
 <path style="fill:#333333" d="m 31.988352,24.999999 c 3.971713,0 7.000001,3.028286 7.000001,6.988352 0,3.971713 -3.028288,7.000001 -7.000001,7.000001 C 28.028287,38.988352 25,35.960064 25,31.988351 c 0,-3.960066 3.028287,-6.988352 6.988352,-6.988352 z m -6.988352,0 z M 39,39 Z"/>
 <path style="fill:#8b9cbe;opacity:0.2" d="M 6.8007812 4 C 5.2495813 4 4 5.2495813 4 6.8007812 L 4 7.8007812 C 4 6.2495813 5.2495813 5 6.8007812 5 L 57.199219 5 C 58.750419 5 60 6.2495813 60 7.8007812 L 60 6.8007812 C 60 5.2495813 58.750419 4 57.199219 4 L 6.8007812 4 z"/>
 <path style="opacity:0.2" d="M 31.972656 8 C 18.380208 8 8 18.380206 8 31.972656 C 8 32.140371 8.0085774 32.305931 8.0117188 32.472656 C 8.2641781 19.127796 18.548277 9 31.972656 9 C 45.410199 9 55.708155 19.127796 55.960938 32.472656 C 55.964083 32.305931 55.972656 32.140371 55.972656 31.972656 C 55.972656 18.380206 45.578432 8 31.972656 8 z"/>
</svg>
