<svg xmlns="http://www.w3.org/2000/svg" width="64" height="64" version="1">
 <rect style="opacity:0.2" width="48" height="48" x="-56" y="-56" rx="24" ry="24" transform="matrix(0,-1,-1,0,0,0)"/>
 <rect style="fill:#4ca341" width="48" height="48" x="-55" y="-56" rx="24" ry="24" transform="matrix(0,-1,-1,0,0,0)"/>
 <path style="opacity:0.2;fill:#8b9cbe" d="M 32 7 C 18.704 7 8 17.704 8 31 C 8 31.112131 8.0116115 31.221434 8.0175781 31.332031 C 8.3701179 18.348355 18.92814 8 32 8 C 45.07186 8 55.629882 18.348355 55.982422 31.332031 C 55.988389 31.221434 56 31.112131 56 31 C 56 17.704 45.296 7 32 7 z"/>
 <path style="opacity:0.2" d="M 32,4 A 28,28 0 0 0 19,7.21875 28,28 0 0 1 34,32 28,28 0 0 1 19,56.78125 28,28 0 0 0 32,60 28,28 0 0 0 60,32 28,28 0 0 0 32,4 Z"/>
 <path style="fill:#b2bfd9" d="M 32,3 A 28,28 0 0 0 19,6.21875 28,28 0 0 1 34,31 28,28 0 0 1 19,55.78125 28,28 0 0 0 32,59 28,28 0 0 0 60,31 28,28 0 0 0 32,3 Z"/>
 <path style="opacity:0.2;fill:#8b9cbe" d="M 32 3 A 28 28 0 0 0 19 6.21875 A 28 28 0 0 1 19.939453 6.7734375 A 28 28 0 0 1 32 4 A 28 28 0 0 1 59.978516 31.585938 A 28 28 0 0 0 60 31 A 28 28 0 0 0 32 3 z M 33.976562 31.462891 A 28 28 0 0 1 19 55.78125 A 28 28 0 0 0 19.957031 56.224609 A 28 28 0 0 0 34 32 A 28 28 0 0 0 33.976562 31.462891 z"/>
</svg>
