<svg xmlns="http://www.w3.org/2000/svg" width="64" height="64" version="1">
 <path style="opacity:0.2" d="m 26.847739,11.999999 0.03711,0.01172 c -2.952773,0.06116 -5.761995,1.985255 -6.626954,5.148437 -8.188987,2.752491 -13.2636713,8.570313 -13.2636713,8.570313 -1.8333662,1.875817 -2.4643452,4.619106 -1.6347656,7.107422 0,0 3.8302688,12.033338 15.0156249,16.386718 0.955404,2.849766 3.623253,4.771655 6.628906,4.775391 h 24.996094 c 3.865833,-3.87e-4 6.999613,-3.134167 7,-7 V 18.999999 c -3.87e-4,-3.865833 -3.134167,-6.999613 -7,-7 z"/>
 <path style="fill:#4ca341" d="m 26.847739,11 0.03711,0.01172 c -2.952773,0.06116 -5.761995,1.985255 -6.626954,5.148437 -8.188987,2.752491 -13.2636713,8.570313 -13.2636713,8.570313 -1.8333662,1.875817 -2.4643452,4.619106 -1.6347656,7.107422 0,0 3.8302688,12.033338 15.0156249,16.386718 0.955404,2.849766 3.623253,4.771655 6.628906,4.775391 h 24.996094 c 3.865833,-3.87e-4 6.999613,-3.134167 7,-7 V 18 c -3.87e-4,-3.865833 -3.134167,-6.999613 -7,-7 z"/>
 <path style="fill:#262626" d="m 16.086683,30.054 c 0,0 3.69556,-5.6446 10.91636,-6.2286 v -2.0478 c -7.998,0.67952 -15.00296,7.8456 -15.00296,7.8456 0,0 4.00196,11.9964 15.00296,13.0948 v -2.1768 c -8.0732,-1.076 -10.91656,-10.488 -10.91656,-10.488 z m 10.91636,6.158 v 1.99348 c -6.1016,-1.15076 -7.87436,-7.8606 -7.87436,-7.8606 0,0 3.00876,-3.4332 7.87436,-3.99 v 2.1874 c -0.003,0 -0.005,-0.0011 -0.0078,-0.0011 -2.5536,-0.3242 -4.62776,2.1996 -4.62776,2.1996 0,0 1.19732,4.2486 4.63716,5.4712 m 0,-18.2118 v 3.7772 c 0.23478,-0.019 0.39042,-0.035 0.62648,-0.04352 9.0928,-0.3242 15.0174,7.8892 15.0174,7.8892 0,0 -6.8046,8.7532 -13.8938,8.7532 -0.64972,0 -1.1788,-0.06378 -1.75012,-0.17082 v 2.3358 c 0.48854,0.06552 0.9159,0.10422 1.44446,0.10422 6.597,0 11.3676,-3.5642 15.9872,-7.7824 0.76592,0.64892 3.9016,2.2276 4.5462,2.9186 -4.3922,3.8902 -14.6288,7.0262 -20.432,7.0262 -0.5594,0 -1.01746,-0.0358 -1.54554,-0.08968 v 3.2822 h 24.99484 v -28 h -24.99484 z m 0,8.3548 v -2.5294 c 0.23238,-0.0144 0.38736,-0.03032 0.62648,-0.0384 6.5386,-0.21728 10.8284,5.9442 10.8284,5.9442 0,0 -4.6334,6.8076 -9.6012,6.8076 -0.71496,0 -1.27684,-0.12152 -1.85376,-0.32676 v -7.6696 c 2.5456,0.3254 2.97864,1.51492 4.50904,4.2138 l 3.4036,-3.0362 c 0,0 -2.4846,-3.4472 -6.673,-3.4472 -0.45528,-1.64e-4 -0.81176,0.03374 -1.23956,0.08192"/>
 <path style="opacity:0.2;fill:#8b9cbe" d="m 26.847739,11 0.03711,0.01172 c -2.952773,0.06116 -5.761995,1.985255 -6.626954,5.148437 -8.188987,2.752491 -13.2636713,8.570313 -13.2636713,8.570313 -1.4144912,1.447243 -2.1023227,3.410512 -1.9667968,5.375 0.1204591,-1.617299 0.7931825,-3.174211 1.9667968,-4.375 0,0 5.0746853,-5.817822 13.2636713,-8.570313 0.864959,-3.163182 3.674181,-5.087277 6.626954,-5.148437 L 26.847739,12 h 25.152344 c 3.865833,3.87e-4 6.999613,3.134167 7,7 v -1 c -3.87e-4,-3.865833 -3.134167,-6.999613 -7,-7 z"/>
</svg>
