<svg xmlns="http://www.w3.org/2000/svg" width="64" height="64" version="1">
 <rect style="opacity:0.2" width="56" height="56" x="4" y="5" rx="2.8" ry="2.8"/>
 <rect style="fill:#e54031" width="56" height="56" x="4" y="4" rx="2.8" ry="2.8"/>
 <path style="opacity:0.4" d="M 24,8 C 16.656461,8.00715 9.6211226,10.548132 4,15.0625 v 1.160156 C 8.4935228,13.498226 13.668621,12.004714 19,12 c 7.885238,0.0025 15.131944,3.178853 20.410156,8.410156 l 6.550782,-3.609375 C 40.19948,11.339649 32.451664,8.0101882 24,8 Z m 26.367188,13.925782 -5.625,5.785156 c 1.300836,2.52046 2.270192,5.254092 2.792968,8.167968 l 8.097656,-0.453124 c -0.7206,-4.989388 -2.571426,-9.56862 -5.265624,-13.5 z m 5.503906,15.492186 -8.074218,0.44922 C 47.9211,38.907026 47.988906,39.952828 48,41 c -0.0112,0.3336 -0.0281,0.666984 -0.05078,1 h 7.976564 C 55.971362,41.33427 55.99612,40.667278 56,40 55.9918,39.137938 55.948814,38.276558 55.871094,37.417968 Z M 47.839844,44 c -0.15366,1.375624 -0.4056,2.738484 -0.753906,4.078124 l 7.757812,0.433594 C 55.23922,47.030434 55.527724,45.522644 55.707032,44 Z m -1.3125,6.050782 c -0.432662,1.30382 -0.957422,2.575252 -1.570312,3.804686 l 6.839844,1.91797 c 0.958564,-1.689182 1.761358,-3.462124 2.398436,-5.296876 z"/>
 <path style="opacity:0.2" d="M 50,19 21.818678,47.983552 17.729516,36.79216 Z"/>
 <path style="fill:#b2bfd9" d="M 50,18 21.818678,46.983552 17.729516,35.79216 Z"/>
 <circle style="opacity:0.2" cx="22" cy="41" r="10"/>
 <circle style="fill:#8b9cbe" cx="22" cy="40" r="10"/>
 <path style="opacity:0.2;fill:#8b9cbe" d="M 6.8007812 4 C 5.2495812 4 4 5.2495812 4 6.8007812 L 4 7.8007812 C 4 6.2495813 5.2495812 5 6.8007812 5 L 57.199219 5 C 58.750419 5 60 6.2495812 60 7.8007812 L 60 6.8007812 C 60 5.2495813 58.750419 4 57.199219 4 L 6.8007812 4 z"/>
</svg>
