<svg xmlns="http://www.w3.org/2000/svg" width="64" height="64" version="1.1">
 <rect style="opacity:0.2" width="56" height="56" x="4" y="5" rx="5.6" ry="5.6"/>
 <rect style="fill:#3e4753" width="56" height="56" x="4" y="4" rx="5.6" ry="5.6"/>
 <path style="opacity:0.2" d="m 20,19 v 4 h 6 v 2 H 20 16 V 29.300781 32 h -2 v -7 h -1 v 1 h -3 v 8 h 1 v 9 h 3 v -7 h 2 v 7 h 2.25 1.75 1.6875 l 5.5,4 H 39.5625 44 v -3 h 2 v 3 h 5.416016 L 54,44.369141 V 33.330078 L 50.728516,30 h -3.15625 c -0.08318,0.171256 -0.166172,0.310186 -0.240235,0.412109 -0.233426,0.321223 -0.41607,0.492454 -0.666015,0.736329 C 46.443312,31.373768 46.221719,31.582577 46,31.796875 V 35 h -2 v -1.814453 c -0.816609,0.776913 -1.629292,1.57298 -2.441406,2.470703 0.05281,0.125202 0.138443,1.235904 0.214844,1.34375 H 48 v -4 h 1.021484 L 50,33.871094 v 8.759765 L 49.708984,43 H 48 v -3 h -6 v 3 h -2.4375 -11 l -5.5,-4 H 20 V 29 H 31.017578 C 32.140439,27.786505 33.501453,26.306481 34.75,25.013672 V 25 H 30 v -2 h 6 v -4 z m 23.230469,0 -4.654297,4.701172 c -6.135675,6.197437 -5.935604,5.981288 -5.753906,6.195312 0.116902,0.137649 0.445039,0.175038 1.574218,0.175782 1.509936,0.0011 2.66211,0.09658 2.66211,0.220703 0,0.0988 -1.859762,2.174011 -3.25,3.611328 l -1.111328,1.148437 -0.953125,-0.02734 c -1.386451,-0.04056 -1.478081,0.01461 -2.074219,1.263671 -0.641478,1.344018 -1.535153,3.903504 -1.632813,4.38086 -0.07323,0.357976 -0.06996,0.362428 0.326172,0.298828 0.435204,-0.0699 6.430377,-2.693504 9.654297,-4.34375 1.497768,-0.766682 2.001953,-1.077834 2.001953,-1.238281 0,-0.158941 -0.115508,-0.232386 -0.447265,-0.285157 -0.973315,-0.154652 -0.858236,-0.586732 3.78125,-4.835937 2.587046,-2.369402 3.101401,-2.773803 3.019531,-2.982422 -0.05782,-0.147335 -0.282688,-0.184459 -1.164063,-0.193359 -0.600578,-0.0063 -1.132534,-0.04472 -1.669922,-0.08594 l -0.976562,-0.07617 2.037109,-2.103515 c 0.893281,-0.855064 2.163932,-2.126797 3.3125,-3.191407 C 49.10576,20.526433 50,19.610094 50,19.492188 c 0,-0.118945 -0.112971,-0.233992 -0.265625,-0.269532 -0.145599,-0.03392 -1.666855,-0.09809 -3.382813,-0.142578 z"/>
 <path style="fill:#8b9cbe" d="m 20,18 v 4 h 6 v 2 H 20 16 V 28.300781 31 h -2 v -7 h -1 v 1 h -3 v 8 h 1 v 9 h 3 v -7 h 2 v 7 h 2.25 1.75 1.6875 l 5.5,4 H 39.5625 44 v -3 h 2 v 3 h 5.416016 L 54,43.369141 V 32.330078 L 50.728516,29 h -3.15625 c -0.08318,0.171256 -0.166172,0.310186 -0.240235,0.412109 -0.233426,0.321223 -0.41607,0.492454 -0.666015,0.736329 C 46.443312,30.373769 46.221719,30.582577 46,30.796875 V 34 h -2 v -1.814453 c -0.816609,0.776913 -1.629292,1.57298 -2.441406,2.470703 0.05281,0.125202 0.138443,1.235904 0.214844,1.34375 H 48 v -4 h 1.021484 L 50,32.871094 v 8.759765 L 49.708984,42 H 48 v -3 h -6 v 3 h -2.4375 -11 l -5.5,-4 H 20 V 28 h 11.018 c 1.122861,-1.213495 2.483453,-2.693519 3.732,-3.986328 V 24 H 30 v -2 h 6 v -4 z"/>
 <path style="fill:#ff6600" d="m 28.036614,39.670847 c 0.09766,-0.477356 0.992793,-3.036877 1.634271,-4.380895 0.596138,-1.249057 0.687781,-1.304915 2.074232,-1.264356 l 0.951695,0.02787 1.112415,-1.150093 c 1.390238,-1.437317 3.249175,-3.511648 3.249175,-3.61045 0,-0.124122 -1.152214,-0.21965 -2.66215,-0.220707 -1.129179,-7.44e-4 -1.457625,-0.03733 -1.574527,-0.174979 -0.181698,-0.214024 -0.381931,0.002 5.753744,-6.195437 L 43.23072,18 l 3.119922,0.08093 c 1.715957,0.04449 3.239042,0.108722 3.384641,0.142647 0.152654,0.03554 0.264716,0.149019 0.264716,0.267963 0,0.117906 -0.894655,1.03552 -2.088306,2.141899 -1.148568,1.064609 -2.419178,2.335705 -3.312459,3.190769 l -2.036468,2.10413 0.977074,0.07487 c 0.537387,0.04122 1.068462,0.07993 1.66904,0.08621 0.881375,0.0089 1.105775,0.04658 1.163598,0.193915 0.08187,0.208619 -0.432711,0.613057 -3.019757,2.982459 -4.639486,4.249205 -4.754594,4.680833 -3.781279,4.835486 0.331757,0.05277 0.447171,0.126362 0.447171,0.285303 0,0.160447 -0.502296,0.471364 -2.000064,1.238046 -3.22392,1.650246 -9.220077,4.274048 -9.655281,4.343951 -0.396129,0.0636 -0.399886,0.06023 -0.326654,-0.297746 z"/>
 <path style="fill:#8b9cbe;opacity:0.1" d="M 9.5996094 4 C 6.4972094 4 4 6.4972094 4 9.5996094 L 4 10.599609 C 4 7.4972094 6.4972094 5 9.5996094 5 L 54.400391 5 C 57.502791 5 60 7.4972094 60 10.599609 L 60 9.5996094 C 60 6.4972094 57.502791 4 54.400391 4 L 9.5996094 4 z"/>
 <path style="fill:#8b9cbe;opacity:0.2" d="M 43.230469 18 L 38.576172 22.701172 C 32.440497 28.898609 32.640568 28.68246 32.822266 28.896484 C 32.885996 28.971525 33.049054 29.013526 33.333984 29.039062 C 34.028826 28.291084 35.510598 26.797604 38.576172 23.701172 L 43.230469 19 L 46.351562 19.080078 C 47.891189 19.119996 49.013297 19.173431 49.386719 19.208984 C 49.767663 18.818979 50 18.551847 50 18.492188 C 50 18.373243 49.887029 18.258196 49.734375 18.222656 C 49.588776 18.188731 48.06752 18.124568 46.351562 18.080078 L 43.230469 18 z M 43.462891 25.998047 L 42.5625 26.927734 L 43.539062 27.003906 C 44.07645 27.045126 44.608406 27.083564 45.208984 27.089844 C 45.451572 27.092293 45.545945 27.106738 45.699219 27.115234 C 46.217196 26.625572 46.416658 26.394331 46.373047 26.283203 C 46.315224 26.135868 46.090359 26.098744 45.208984 26.089844 C 44.608406 26.083564 44.07645 26.045126 43.539062 26.003906 L 43.462891 25.998047 z M 36.339844 30.142578 C 35.689713 30.89014 34.745739 31.935416 33.808594 32.904297 L 32.697266 34.052734 L 31.744141 34.025391 C 30.35769 33.984832 30.26606 34.040005 29.669922 35.289062 C 29.028444 36.63308 28.134769 39.192566 28.037109 39.669922 C 27.971858 39.988885 27.983578 40.02304 28.263672 39.982422 C 28.554005 39.058327 29.14669 37.385332 29.669922 36.289062 C 30.26606 35.040005 30.35769 34.984832 31.744141 35.025391 L 32.697266 35.052734 L 33.808594 33.904297 C 35.198832 32.46698 37.058594 30.391771 37.058594 30.292969 C 37.058594 30.233494 36.781534 30.181675 36.339844 30.142578 z M 39.476562 34.078125 C 39.060357 34.602839 39.021749 34.851635 39.210938 34.976562 C 39.710993 34.690424 40.019531 34.485873 40.019531 34.386719 C 40.019531 34.227778 39.904023 34.154333 39.572266 34.101562 C 39.534608 34.095579 39.510762 34.085143 39.476562 34.078125 z"/>
</svg>
