<svg width="64" height="64" version="1.1" xmlns="http://www.w3.org/2000/svg">
 <path d="m22 60h17s1 0 2-2c1.000001-3 5.999999-21 5.999999-21l-29-1s0.03239 23.972246 4.000001 24z" style="opacity:.2"/>
 <path d="m22 59h17s1 0 2-2c1.000001-3 5.999999-21 5.999999-21l-29-1s0.03239 23.972246 4.000001 24z" style="fill:#df8028"/>
 <path d="m12.999999 26c0 26.000001 20.000001 29 27.000001 29 20 0 20-18 20-18s-5-4-5-9 1-11 1-11-1.816695-12-14.366606-12c-7.935406 0-16.733214 4.183304-16.733214 4.183304l-5.577738 4.183303s-6.322443 5.633393-6.322443 12.633393z" style="opacity:.2"/>
 <path d="m12.999999 25c0 26.000001 20.000001 29 27.000001 29 20 0 20-18 20-18s-5-4-5-9 1-11 1-11-1.816695-12-14.366606-12c-7.935406 0-16.733214 4.1833035-16.733214 4.1833035l-5.577738 4.1833034s-6.322443 5.633393-6.322443 12.633393z" style="fill:#f8bb07"/>
 <path d="m41.632812 4c-7.935406 0-16.732421 4.1835938-16.732421 4.1835938l-5.578125 4.1835942s-6.322266 5.632812-6.322266 12.632812c0 0.238254 0.012292 0.460906 0.015625 0.695312 0.180497-6.856569 6.306641-12.328124 6.306641-12.328124l5.578125-4.1835942s8.797015-4.1835938 16.732421-4.1835938c11.23025 0 13.849186 9.545572 14.279297 11.566406 0.03347-0.214375 0.087891-0.566406 0.087891-0.566406s-1.817277-12-14.367188-12zm13.382813 23.269531c-0.00436 0.243059-0.015625 0.491222-0.015625 0.730469 0 4.907977 4.766025 8.803735 4.943359 8.947266 0.051705-0.585047 0.056641-0.947266 0.056641-0.947266s-4.809008-3.85813-4.984375-8.730469z" style="fill:#8b9cbe;opacity:.2"/>
 <path d="m20 14c-4.000001 0-8 9-8 9s-1 12 5 12c5 0 7-9 7-9s2.999999-12-4-12zm17 4c-8.000001 0-8 9-8 9s-1 11 7 11 8-8 8-8 0.999999-12-7-12z" style="opacity:.2"/>
 <path d="m20.000001 13c6.999999 0 3.999999 12 3.999999 12s-2 9.000001-7 9.000001c-6 0-5-12-5-12s4-9.000001 8.000001-9.000001z" style="fill:#8b9cbe"/>
 <path d="m37.000001 17.000001c7.999999 0 6.999999 12 6.999999 12s0 7.999999-8 7.999999-7-11-7-11 0-8.999999 8.000001-8.999999z" style="fill:#8b9cbe"/>
 <ellipse cx="36" cy="25" rx="3" ry="4" style="fill:#4f4f4f"/>
 <path d="m8.9999988 30s-1 3.999999 3.0000002 6.999999l8-2 8-11.999999v13.999999l4.000001 7c0.999999 2 17.999999-3 17.999999-3s0 16.000001-17.999999 16.000001c-4.000001 0-8.000001-6.000001-12-10-3.000001 2.999998-8.000001 5-15.000001-2.000002-2.9999998-4.999998 4-14.999998 4-14.999998z" style="opacity:.2"/>
 <path d="M 9,29.000001 C 9,29.000001 8,33 12,36 l 8,-2 8,-11.999999 V 36 l 4.000001,7 C 33,45 50,40 50,40 50,40 50,56.000001 32.000001,56.000001 28,56.000001 24,50 20.000001,46.000001 17,48.999999 12,51.000001 5,43.999999 2,39.000001 9,29.000001 9,29.000001 Z" style="fill:#facd48"/>
 <ellipse cx="19" cy="22" rx="3" ry="4" style="fill:#4f4f4f"/>
 <path d="m28 22-8 12-8 2c-2.4024118-1.801809-2.9889005-3.950628-3.0839844-5.390625-0.1121678 1.20372-0.0092518 4.070698 3.0839844 6.390625l8-2 8-12v-1zm-19 7s-5.002027 7.170442-4.7128906 12.404297c0.3051348-4.945725 4.3586204-10.880913 4.6113281-11.246094 0.0016344-0.694597 0.1015625-1.158203 0.1015625-1.158203zm19 7v1l4 7c0.993425 1.986852 17.70906-2.915677 17.929688-2.980469 0.06234-0.621686 0.070312-1.019531 0.070312-1.019531s-17.000001 5-18 3l-4-7z" style="fill:#8b9cbe;opacity:.2"/>
</svg>
