<svg xmlns="http://www.w3.org/2000/svg" width="64" height="64" version="1">
 <path style="opacity:0.2" d="m 4.0507982,32.000818 c -0.0118,0.33399 -0.050799,0.661981 -0.050799,0.999972 C 3.9999996,48.512352 16.487647,61 31.99921,61 47.510773,61 59.99842,48.512352 59.99842,33.00079 c 0,-0.337671 -0.03904,-0.665262 -0.05078,-0.999972 C 59.419655,47.042394 47.172,59.000056 31.998428,59.000056 16.824456,59.000056 4.5772013,47.042394 4.0492162,32.000818 Z"/>
 <rect style="fill:#2095f2" width="56" height="56" x="4" y="4" rx="27.999" ry="27.999"/>
 <path style="opacity:0.2" d="m 31.99921,17.001241 c -8.836351,0 -15.999549,7.163198 -15.999549,15.999549 0,8.83635 7.163198,15.999548 15.999549,15.999548 l 9.999718,0 c 0,0 1.874947,0 1.999944,-1.999943 0,-1.999944 -1.999944,-1.999944 -1.999944,-1.999944 l -9.999718,0 c -6.627213,0 -11.999662,-5.372448 -11.999662,-11.999661 0,-6.627214 5.372449,-11.999662 11.999662,-11.999662 6.627213,0 11.999662,5.372448 11.999662,11.999662 l 0,1.999943 c 0,1.104529 -0.895415,1.999944 -1.999944,1.999944 -1.104529,0 -1.999944,-0.895415 -1.999944,-1.999944 l 0,-1.999943 c 0,-4.418076 -3.581699,-7.999775 -7.999774,-7.999775 -4.418075,0 -7.999774,3.581699 -7.999774,7.999775 0,4.418075 3.581699,7.999774 7.999774,7.999774 2.092341,0 3.980488,-0.821777 5.406048,-2.13674 1.139967,1.353962 2.82192,2.13594 4.59387,2.13594 3.313507,0 5.999831,-2.686324 5.999831,-5.999831 l 0,-1.999943 c 0,-8.835751 -7.163798,-15.999549 -15.999549,-15.999549 z m 0,11.999661 c 2.209138,0 3.999887,1.79081 3.999887,3.999888 0,2.209077 -1.790809,3.999887 -3.999887,3.999887 -2.209078,0 -3.999887,-1.79081 -3.999887,-3.999887 0,-2.209078 1.790809,-3.999888 3.999887,-3.999888 z"/>
 <path style="opacity:0.1;fill:#8b9cbe" d="M 32 4.0019531 C 16.488437 4.0019531 4 16.488437 4 32 C 4 32.113445 4.0112809 32.224116 4.0175781 32.335938 C 4.3691114 17.134609 16.711158 5 32 5 C 47.288842 5 59.630889 17.134609 59.982422 32.335938 C 59.988693 32.224116 60 32.113445 60 32 C 60 16.488437 47.511563 4.0019531 32 4.0019531 z"/>
 <path style="fill:#8b9cbe" d="m 31.99921,16.001297 c -8.836351,0 -15.999549,7.163198 -15.999549,15.999549 0,8.836351 7.163198,15.999549 15.999549,15.999549 l 9.999718,0 c 0,0 1.874947,0 1.999944,-1.999944 0,-1.999943 -1.999944,-1.999943 -1.999944,-1.999943 l -9.999718,0 c -6.627213,0 -11.999662,-5.372449 -11.999662,-11.999662 0,-6.627213 5.372449,-11.999662 11.999662,-11.999662 6.627213,0 11.999662,5.372449 11.999662,11.999662 l 0,1.999944 c 0,1.104528 -0.895415,1.999943 -1.999944,1.999943 -1.104529,0 -1.999944,-0.895415 -1.999944,-1.999943 l 0,-1.999944 c 0,-4.418075 -3.581699,-7.999774 -7.999774,-7.999774 -4.418075,0 -7.999774,3.581699 -7.999774,7.999774 0,4.418075 3.581699,7.999774 7.999774,7.999774 2.092341,0 3.980488,-0.821776 5.406048,-2.136739 1.139967,1.353961 2.82192,2.135939 4.59387,2.135939 3.313507,0 5.999831,-2.686324 5.999831,-5.99983 l 0,-1.999944 c 0,-8.835751 -7.163798,-15.999549 -15.999549,-15.999549 z m 0,11.999662 c 2.209138,0 3.999887,1.790809 3.999887,3.999887 0,2.209078 -1.790809,3.999887 -3.999887,3.999887 -2.209078,0 -3.999887,-1.790809 -3.999887,-3.999887 0,-2.209078 1.790809,-3.999887 3.999887,-3.999887 z"/>
</svg>
