<svg xmlns="http://www.w3.org/2000/svg" width="64" height="64" version="1">
 <path style="opacity:0.2" d="M 56,59.15 V 7.8499999 C 56,6.2711 54.689875,5 53.062499,5 H 11.9375 C 10.310125,5 9,6.2711 9,7.8499999 V 59.15 C 9,60.7289 10.310125,62 11.9375,62 H 53.062499 C 54.689875,62 56,60.7289 56,59.15 Z"/>
 <path style="fill:#b2bfd9" d="M 56,58.15 V 6.8499999 C 56,5.2711 54.689875,4 53.062499,4 H 11.9375 C 10.310125,4 9,5.2711 9,6.8499999 V 58.15 C 9,59.7289 10.310125,61 11.9375,61 H 53.062499 C 54.689875,61 56,59.7289 56,58.15 Z"/>
 <path style="opacity:0.1" d="M 15.833984,8 C 14.264318,8 13,9.2643181 13,10.833984 V 22.166016 C 13,23.735682 14.264318,25 15.833984,25 H 27.166016 C 28.735683,25 30,23.735682 30,22.166016 V 10.833984 C 30,9.2643181 28.735683,8 27.166016,8 Z M 35,8 v 3 H 52 V 8 Z m 0,7 v 3 h 17 v -3 z m 0,7 v 3 h 17 v -3 z m -22,7 v 3 h 39 v -3 z m 0,7 v 3 h 39 v -3 z m 0,7 v 3 h 39 v -3 z m 0,7 v 3 h 39 v -3 z"/>
 <path style="opacity:0.1" d="m 38.749059,5.0096684 c -3.725693,0.029297 -4.302003,-0.032343 -8.417025,0 -3.433543,3.2348647 -6.343167,7.5328956 -8.723698,12.4181066 -3.675769,7.543228 -4.549744,13.914604 -2.591869,19.138183 1.957851,5.223587 6.450613,8.498559 13.459245,9.836304 7.366842,1.406114 14.196163,0.33415 20.492384,-3.244685 0.963119,-0.547458 2.117858,-1.155435 3.021828,-1.800107 -0.02086,-2.612865 0.03082,-4.482674 0,-8.355135 -2.276172,3.128243 -5.020047,5.664203 -7.690437,7.59562 -4.7244,3.416962 -9.606275,4.636585 -14.66677,3.67068 C 28.818473,43.349736 25.99234,40.63091 25.161775,36.10748 24.363861,31.567199 25.666696,25.809685 29.07477,18.815823 31.869384,13.080829 35.089597,8.356876 38.749062,5.0096674 Z"/>
 <path style="fill:#218ed4" d="m 38.749059,4.0096687 c -3.725693,0.029297 -4.302003,-0.032343 -8.417025,0 -3.433543,3.2348647 -6.343167,7.5328953 -8.723698,12.4181063 -3.675769,7.543228 -4.549744,13.914604 -2.591869,19.138183 1.957851,5.223587 6.450613,8.498559 13.459245,9.836304 7.366842,1.406114 14.196163,0.33415 20.492384,-3.244685 0.963119,-0.547458 2.117858,-1.155435 3.021828,-1.800107 -0.02086,-2.612865 0.03082,-4.482674 0,-8.355135 -2.276172,3.128243 -5.020047,5.664203 -7.690437,7.59562 -4.7244,3.416962 -9.606275,4.636585 -14.66677,3.67068 C 28.818473,42.349736 25.99234,39.63091 25.161775,35.10748 24.363861,30.567199 25.666696,24.809685 29.07477,17.815823 31.869384,12.080829 35.089597,7.3568763 38.749062,4.0096677 Z"/>
 <path style="opacity:0.2;fill:#8b9cbe" d="M 11.9375,4 C 10.310125,4 9,5.270709 9,6.8496094 v 1 C 9,6.270709 10.310125,5 11.9375,5 h 41.125 C 54.689876,5 56,6.270709 56,7.8496094 v -1 C 56,5.270709 54.689876,4 53.0625,4 Z"/>
</svg>
