<svg xmlns="http://www.w3.org/2000/svg" width="64" height="64" version="1">
 <path style="opacity:0.2" d="M 20.800782,5 C 11.493581,5 4,12.493581 4,21.800782 V 33 44.199218 C 4,53.506418 11.493581,61 20.800782,61 H 32 43.199218 C 52.506418,61 60,53.506418 60,44.199218 V 33 21.800782 C 60,12.493581 52.506418,5 43.199218,5 H 32 Z"/>
 <path style="fill:#b2bfd9" d="M 4,32 V 43.2 C 4,52.5072 11.4928,60 20.8,60 H 32 V 32 Z"/>
 <path style="fill:#ebc53d" d="M 20.8,4 C 11.4928,4 4,11.4928 4,20.8 V 32 H 32 V 4 Z"/>
 <path style="fill:#b2bfd9" d="M 32,4 V 32 H 60 V 20.8 C 60,11.4928 52.5072,4 43.2,4 Z"/>
 <path style="fill:#008aff" d="M 32,32 V 60 H 43.2 C 52.5072,60 60,52.5072 60,43.2 V 32 Z"/>
 <path style="fill:#17191e" d="M 18.0075,10 C 15.513988,10 13.5489,10.711248 12.125,12.13 10.708152,13.5484 10,15.500448 10,18 c 0,2.492896 0.708152,4.4491 2.125,5.8675 C 13.548901,25.285292 15.513989,26 18.0075,26 20.507742,26 22.458472,25.285292 23.874998,23.8675 25.292166,22.4491 26,20.492896 26,18 26,15.500448 25.292166,13.5484 23.874998,12.13 22.45847,10.711248 20.507742,10 18.0075,10 Z m 0,2.88 c 1.22928,0 2.176362,0.449832 2.85,1.345 0.673634,0.895168 1.012498,2.149944 1.012498,3.775 0,1.618368 -0.338864,2.87983 -1.012498,3.774998 -0.673636,0.895168 -1.62072,1.3425 -2.85,1.3425 -1.222548,0 -2.171364,-0.447332 -2.845,-1.3425 C 14.488545,20.87983 14.145,19.618368 14.145,18 c 0,-1.625056 0.343545,-2.879832 1.0175,-3.775 0.673636,-0.895168 1.622452,-1.345 2.845,-1.345 z"/>
 <path style="fill:#17191e" d="m 40,38 v 16 h 6.761523 c 2.099326,0 3.668759,-0.373972 4.697266,-1.1325 C 52.487292,52.1123 53,50.955892 53,49.4125 c 0,-1.005888 -0.237559,-1.857424 -0.716016,-2.55 -0.47845,-0.692544 -1.163333,-1.16772 -2.038867,-1.425 0.683502,-0.26384 1.211117,-0.663372 1.569141,-1.2075 0.361286,-0.550752 0.538281,-1.221696 0.538281,-2 0,-1.480768 -0.488286,-2.552232 -1.477734,-3.225 C 49.895121,38.332232 48.307776,38 46.114063,38 Z m 4.075195,2.805 h 2.247071 c 0.641196,0 1.127973,0.14406 1.459961,0.4375 0.331977,0.283616 0.502734,0.706748 0.502734,1.2575 0,0.557344 -0.170767,0.97898 -0.502734,1.2625 -0.331988,0.286944 -0.818761,0.43 -1.459961,0.43 h -2.247071 z m -0.0051,6.2 h 2.386719 c 0.823459,0 1.448494,0.17044 1.858594,0.52 0.410117,0.343008 0.609375,0.862456 0.609375,1.555 0,0.70576 -0.205465,1.237932 -0.622071,1.5875 -0.406855,0.349664 -1.028952,0.525 -1.845898,0.525 h -2.386719 z"/>
 <path style="opacity:0.2;fill:#8b9cbe" d="M 20.800781 4 C 11.493579 4 4 11.493579 4 20.800781 L 4 21.800781 C 4 12.493579 11.493579 5 20.800781 5 L 32 5 L 43.199219 5 C 52.506419 5 60 12.493579 60 21.800781 L 60 20.800781 C 60 11.493579 52.506419 4 43.199219 4 L 32 4 L 20.800781 4 z"/>
 <rect style="opacity:0.2" width="28" height="1" x="32" y="32"/>
 <rect style="opacity:0.2;fill:#8b9cbe" width="28" height="1" x="4" y="32"/>
</svg>
