<svg xmlns="http://www.w3.org/2000/svg" width="64" height="64" version="1.1">
 <rect style="opacity:0.2" width="42.247" height="42.247" x="-67.08" y="-20.42" rx="2.112" ry="2.112" transform="matrix(-0.70710678,-0.70710678,-0.70710678,0.70710678,0,0)"/>
 <rect style="fill:#357ab4" width="42.247" height="42.247" x="-66.38" y="-21.12" rx="2.112" ry="2.112" transform="matrix(-0.70710678,-0.70710678,-0.70710678,0.70710678,0,0)"/>
 <path style="opacity:0.1;fill:#8b9cbe" d="M 32 3 C 31.460044 3 30.921554 3.2073521 30.507812 3.6210938 L 3.6210938 30.507812 C 3.0866177 31.042289 2.9234018 31.775802 3.0878906 32.455078 C 3.1741986 32.110068 3.3469981 31.781908 3.6210938 31.507812 L 30.507812 4.6210938 C 30.921554 4.2073521 31.460044 4 32 4 C 32.539956 4 33.078446 4.2073522 33.492188 4.6210938 L 60.378906 31.507812 C 60.653002 31.781908 60.825801 32.110068 60.912109 32.455078 C 61.076598 31.775802 60.913382 31.042289 60.378906 30.507812 L 33.492188 3.6210938 C 33.078446 3.2073522 32.539956 3 32 3 z"/>
 <path style="fill:#17191e" d="M 30,2.9999985 V 16.999999 h 3 V 2.9999985 Z"/>
 <path style="fill:#ee5050" d="m 31.999999,15.027617 c -3.280806,3.55e-4 -6.18771,2.30929 -6.843872,5.52381 l -0.14026,1.380953 V 31.999998 L 19.77101,49.644902 30.505759,60.379648 c 0.413748,0.413742 0.954286,0.62035 1.49424,0.62035 0.539956,0 1.080492,-0.206608 1.494234,-0.62035 L 44.228981,49.644902 39.004817,31.999998 V 21.93238 l -0.14564,-1.380953 c -0.655762,-3.212536 -3.5804,-5.520892 -6.859178,-5.52381 z"/>
 <path style="opacity:0.1;fill:#8b9cbe" d="M 32 15.027344 C 28.719194 15.027699 25.812412 17.336261 25.15625 20.550781 L 25.015625 21.933594 L 25.015625 22.933594 L 25.15625 21.550781 C 25.812412 18.336261 28.719194 16.027699 32 16.027344 C 35.278778 16.030262 38.203611 18.338245 38.859375 21.550781 L 39.003906 22.933594 L 39.003906 21.933594 L 38.859375 20.550781 C 38.203611 17.338245 35.278778 15.030262 32 15.027344 z M 25.015625 32 L 19.769531 49.644531 L 19.998047 49.873047 L 25.015625 33 L 25.015625 32 z M 39.003906 32 L 39.003906 33 L 44.001953 49.873047 L 44.230469 49.644531 L 39.003906 32 z"/>
 <path style="fill:#ffce35" d="m 31.999999,15.42857 c -2.761904,0 -2.761904,5.523809 -2.761904,5.523809 v 11.047619 l -3.803014,23.308966 5.070686,5.070684 c 0.41374,0.413742 0.954278,0.62035 1.494232,0.62035 0.539956,0 1.080492,-0.206608 1.494234,-0.62035 L 38.564917,55.308964 34.761905,31.999998 V 20.952379 c 0,0 0,-5.523809 -2.761906,-5.523809 z"/>
 <rect style="opacity:0.1" width="18" height="3" x="23" y="23" rx="1.5" ry="1.5"/>
 <rect style="fill:#17191e" width="18" height="3" x="23" y="22" rx="1.5" ry="1.5"/>
 <path style="fill:#17191e" d="m 31.999995,26.999998 c -2.999998,0 -2.999998,2.666668 -2.999998,2.666668 v 0 0.888888 4.444444 h 2.999998 3.000002 v -4.444444 -0.888888 0 c 0,0 0,-2.666668 -3.000002,-2.666668 z"/>
 <path style="opacity:0.2" d="M 41.999999,8.4999994 37.5,10.749999 33,13 V 8.4999994 4 l 4.5,2.2499998 z"/>
 <path style="fill:#ffce35" d="M 41.999999,7.4999994 37.5,9.749999 33,12 V 7.4999994 3 l 4.5,2.2499998 z"/>
</svg>
