<svg xmlns="http://www.w3.org/2000/svg" width="64" height="64" version="1">
 <path style="opacity:0.2" d="M 31.988948,42.000078 C 30.007824,42.098858 29.584908,43.591798 28.999986,45 H 27.498172 L 25.99636,43.368206 v 5.818036 L 28.999986,54 h 2.988962 0.0148 2.988962 l 3.003626,-4.813758 V 43.368206 L 36.494522,45 h -1.5019 c -0.584924,-1.408202 -1.007838,-2.90115 -2.988962,-2.999922 -0.005,-2.66e-4 -0.0092,2.56e-4 -0.0148,0 z"/>
 <path style="opacity:0.2" d="m 11.996348,6 v 8.199219 l 2.039063,1.847656 2,-0.09375 3.960937,4.257813 V 24 h -4 V 36 H 9.9963483 v 14.050782 c 0,5.68421 6.8779467,9.807666 10.8242177,9.949218 -3.302383,-3.29571 -8.231121,-4.388752 -7.070312,-13.34375 2.872276,2.669308 5.420414,5.981862 10,5.34375 -2.968472,-2.178138 -6.684287,-3.474518 -7.261718,-9.152344 l 1.761718,-1.320312 h 1.375 l 2.816406,-3.492188 1.308594,-0.773438 6.863282,8.527344 L 31.996348,46 v 0 h 0.0078 l 1.382812,-0.210938 6.863282,-8.527344 1.308594,0.773438 2.816406,3.492188 h 1.375 l 1.761718,1.320312 C 46.93454,48.525482 43.218726,49.821862 40.250254,52 44.82984,52.638112 47.374072,49.325558 50.246348,46.65625 51.407156,55.611248 46.482326,56.70429 43.179942,60 47.126214,59.85844 54.00416,55.734992 54.00416,50.050782 V 36 h -6 V 24 h -4 v -3.789062 l 3.960938,-4.257813 1.996094,0.09375 2.042968,-1.847656 V 6 l -12,5.683594 V 14 H 38.875254 L 38.070566,13.105469 37.937754,10.320312 34.746348,8 h -2.738282 -0.004 -0.0077 -0.0078 -2.734376 L 26.062754,10.320312 25.929942,13.105469 25.125254,14 h -1.128906 v -2.316406 z"/>
 <path style="fill:#d03d28" d="M 5.9963483,15.894737 10.195268,18.736842 11.594908,23 H 7.3959881 L 5.9963483,20.157894 Z"/>
 <path style="fill:#d03d28" d="M 58.00978,15.894737 53.81086,18.736842 52.41122,23 h 4.19892 l 1.39964,-2.842106 z"/>
 <path style="fill:#4f4f4f" d="m 11.996348,5 v 8.199219 l 2.039063,1.847656 2,-0.09375 3.960937,4.257813 V 23 h -4 V 35 H 9.9963483 v 14.050782 c 0,5.68421 6.8779467,9.807666 10.8242177,9.949218 -3.302383,-3.29571 -8.231121,-4.388752 -7.070312,-13.34375 2.872276,2.669308 5.420414,5.981862 10,5.34375 -2.968472,-2.178138 -6.684287,-3.474518 -7.261718,-9.152344 l 1.761718,-1.320312 h 1.375 l 2.816406,-3.492188 1.308594,-0.773438 6.863282,8.527344 L 31.996348,45 v 0 h 0.0078 l 1.382812,-0.210938 6.863282,-8.527344 1.308594,0.773438 2.816406,3.492188 h 1.375 l 1.761718,1.320312 C 46.93454,47.525482 43.218726,48.821862 40.250254,51 44.82984,51.638112 47.374072,48.325558 50.246348,45.65625 51.407156,54.611248 46.482326,55.70429 43.179942,59 47.126214,58.85844 54.00416,54.734992 54.00416,49.050782 V 35 h -6 V 23 h -4 v -3.789062 l 3.960938,-4.257813 1.996094,0.09375 2.042968,-1.847656 V 5 l -12,5.683594 V 13 H 38.875254 L 38.070566,12.105469 37.937754,9.3203124 34.746348,7 h -2.738282 -0.004 -0.0077 -0.0078 -2.734376 L 26.062754,9.3203124 25.929942,12.105469 25.125254,13 h -1.128906 v -2.316406 z"/>
 <rect style="fill:#d03d28" width="4" height="4" x="-54.01" y="35" transform="scale(-1,1)"/>
 <rect style="fill:#d03d28" width="4" height="4" x="10" y="35"/>
 <path style="fill:#8b9cbe;opacity:0.1" d="M 11.996094 5 L 11.996094 6 L 23.996094 11.683594 L 23.996094 10.683594 L 11.996094 5 z M 52.003906 5 L 40.003906 10.683594 L 40.003906 11.683594 L 52.003906 6 L 52.003906 5 z M 29.253906 7 L 26.0625 9.3203125 L 25.929688 12.105469 L 25.125 13 L 23.996094 13 L 23.996094 14 L 25.125 14 L 25.929688 13.105469 L 26.0625 10.320312 L 29.253906 8 L 31.988281 8 L 31.996094 8 L 32.003906 8 L 32.007812 8 L 34.746094 8 L 37.9375 10.320312 L 38.070312 13.105469 L 38.875 14 L 40.003906 14 L 40.003906 13 L 38.875 13 L 38.070312 12.105469 L 37.9375 9.3203125 L 34.746094 7 L 32.007812 7 L 32.003906 7 L 31.996094 7 L 31.988281 7 L 29.253906 7 z M 15.996094 23 L 15.996094 24 L 19.996094 24 L 19.996094 23 L 15.996094 23 z M 44.003906 23 L 44.003906 24 L 48.003906 24 L 48.003906 23 L 44.003906 23 z M 9.9960938 35 L 9.9960938 36 L 15.996094 36 L 15.996094 35 L 9.9960938 35 z M 48.003906 35 L 48.003906 36 L 54.003906 36 L 54.003906 35 L 48.003906 35 z M 16.617188 42.751953 L 16.488281 42.847656 C 16.979502 47.67778 19.741378 49.337645 22.382812 51.066406 C 22.819605 51.080744 23.271547 51.066667 23.75 51 C 20.947038 48.943306 17.481472 47.667314 16.617188 42.751953 z M 47.382812 42.751953 C 46.518538 47.667314 43.052962 48.943306 40.25 51 C 40.728453 51.066667 41.180471 51.080744 41.617188 51.066406 C 44.258701 49.337583 47.020491 47.677942 47.511719 42.847656 L 47.382812 42.751953 z M 13.595703 48.785156 C 13.463794 54.810425 16.661285 56.542915 19.482422 58.816406 C 19.951774 58.916878 20.404567 58.985087 20.820312 59 C 17.950187 56.135674 13.857434 54.929129 13.595703 48.785156 z M 50.400391 48.796875 C 50.134463 54.93009 46.047887 56.137597 43.179688 59 C 43.595433 58.985086 44.048226 58.916878 44.517578 58.816406 C 47.336177 56.544407 50.528313 54.812535 50.400391 48.796875 z"/>
 <path style="opacity:0.2" d="m 11.996348,10 c -1.908581,0.05299 -3.5133451,-0.07114 -5.3124997,1.128906 -1.5109164,0.910934 -2.5516784,2.196418 -2.671875,3.605469 -0.203809,2.389227 2.2107774,5.684679 5.984375,7.554687 v 2.76172 L 15.820567,32 17.996348,31.960938 V 23.089844 C 14.174267,20.73349 2.0323045,17.39378 7.4533795,12.628906 8.6809519,11.208347 10.216056,11.309283 11.996348,11.328125 Z m 18,0 v 1.5 l -5,1.5 v 3 c 0,0 4.374434,-1.390828 6.992188,-1.40625 0.0042,1.8e-5 0.0112,-2.5e-5 0.0156,0 C 34.621886,14.60917 38.996348,16 38.996348,16 v -3 l -5,-1.5 V 10 h -1.992188 -0.0156 z m 22.011718,0 v 1.328125 c 1.780292,-0.01884 3.315396,-0.119778 4.54297,1.300781 5.421074,4.764874 -6.720888,8.104584 -10.54297,10.460938 v 8.871094 L 48.187754,32 53.996348,25.050782 v -2.76172 c 3.773598,-1.870008 6.203808,-5.16546 6,-7.554687 C 59.87615,13.325324 58.831482,12.03984 57.320566,11.128906 55.521412,9.928861 53.916648,10.05299 52.008066,10 Z m -20.01953,8 c -2.765642,7.58e-4 -7.992188,1.332032 -7.992188,1.332032 V 26 c 0,0 5.08176,-2.5171 7.992188,-2.546876 0.004,3.4e-5 0.0116,-4.2e-5 0.0156,0 C 34.914538,23.482904 39.996348,26 39.996348,26 v -6.667968 c 0,0 -5.226548,-1.331274 -7.992188,-1.332032 -0.004,-1e-6 -0.0116,-4e-6 -0.0156,0 z m -6.191406,10 -8.402344,8 h -1.398438 l 3,3.199218 V 42 h 2.988282 l 0.02344,-2.457032 0.988282,-1.742186 V 35 l 2.800782,-3 h 1.398436 l 1.402344,-1 h 1.398438 l -0.08203,-3 z m 8.292968,0 -0.08204,3 h 1.402344 l 1.398446,1 h 1.402344 l 2.796874,3 v 2.800782 L 41.996348,39.542968 42.023692,42 h 2.984374 v -2.800782 l 3,-3.199218 H 46.60963 l -8.398438,-8 z"/>
 <path style="fill:#885f35" d="m 11.996348,9 c -1.908581,0.052989 -3.5133451,-0.071139 -5.3124997,1.128906 -1.5109164,0.910934 -2.5516784,2.196418 -2.671875,3.605469 -0.203809,2.389227 2.2107774,5.684679 5.984375,7.554687 v 2.76172 L 15.820567,31 17.996348,30.960938 V 22.089844 C 14.174267,19.73349 2.0323045,16.39378 7.4533795,11.628906 8.6809519,10.208347 10.216056,10.309283 11.996348,10.328125 Z m 18,0 v 1.5 l -5,1.5 v 3 c 0,0 4.374434,-1.390828 6.992188,-1.40625 0.0042,1.8e-5 0.0112,-2.5e-5 0.0156,0 C 34.621886,13.60917 38.996348,15 38.996348,15 v -3 l -5,-1.5 V 9 h -1.992188 -0.0156 z m 22.011718,0 v 1.328125 c 1.780292,-0.01884 3.315396,-0.119778 4.54297,1.300781 5.421074,4.764874 -6.720888,8.104584 -10.54297,10.460938 v 8.871094 L 48.187754,31 53.996348,24.050782 v -2.76172 c 3.773598,-1.870008 6.203808,-5.16546 6,-7.554687 C 59.87615,12.325324 58.831482,11.03984 57.320566,10.128906 55.521412,8.9288614 53.916648,9.05299 52.008066,9 Z m -20.01953,8 c -2.765642,7.57e-4 -7.992188,1.332031 -7.992188,1.332031 V 25 c 0,0 5.08176,-2.5171 7.992188,-2.546876 0.004,3.4e-5 0.0116,-4.2e-5 0.0156,0 C 34.914538,22.482904 39.996348,25 39.996348,25 v -6.667969 c 0,0 -5.226548,-1.331274 -7.992188,-1.332031 -0.004,-1e-6 -0.0116,-4e-6 -0.0156,0 z m -6.191406,10 -8.402344,8 h -1.398438 l 3,3.199218 V 41 h 2.988282 l 0.02344,-2.457032 0.988282,-1.742186 V 34 l 2.800782,-3 h 1.398436 l 1.402344,-1 h 1.398438 l -0.08203,-3 z m 8.292968,0 -0.08204,3 h 1.402344 l 1.398446,1 h 1.402344 l 2.796874,3 v 2.800782 L 41.996348,38.542968 42.023692,41 h 2.984374 v -2.800782 l 3,-3.199218 H 46.60963 l -8.398438,-8 z"/>
 <path style="fill:#8b9cbe;opacity:0.2" d="M 11.996094 9 C 10.087513 9.052989 8.4827484 8.9288612 6.6835938 10.128906 C 5.1726773 11.03984 4.1319153 12.325324 4.0117188 13.734375 C 3.9894933 13.994921 4.0045516 14.267799 4.0429688 14.546875 C 4.2359019 13.212221 5.2405629 11.998912 6.6835938 11.128906 C 8.4827484 9.9288612 10.087513 10.05299 11.996094 10 L 11.996094 9 z M 29.996094 9 L 29.996094 10 L 31.988281 10 L 32.003906 10 L 33.996094 10 L 33.996094 9 L 32.003906 9 L 31.988281 9 L 29.996094 9 z M 52.007812 9 L 52.007812 10 C 53.916395 10.05299 55.521158 9.9288616 57.320312 11.128906 C 58.763343 11.998912 59.771589 13.212221 59.964844 14.546875 C 60.003592 14.267799 60.018319 13.994921 59.996094 13.734375 C 59.875896 12.325324 58.831228 11.03984 57.320312 10.128906 C 55.521158 8.9288616 53.916395 9.05299 52.007812 9 z M 29.996094 10.5 L 24.996094 12 L 24.996094 13 L 29.996094 11.5 L 29.996094 10.5 z M 33.996094 10.5 L 33.996094 11.5 L 38.996094 13 L 38.996094 12 L 33.996094 10.5 z M 6.1464844 14.556641 C 5.2963776 18.313552 14.712033 21.065185 17.996094 23.089844 L 17.996094 22.089844 C 15.010093 20.248942 6.946653 17.808598 6.1464844 14.556641 z M 57.857422 14.556641 C 57.057253 17.808598 48.993814 20.248942 46.007812 22.089844 L 46.007812 23.089844 C 49.291874 21.065185 58.707528 18.313552 57.857422 14.556641 z M 31.988281 17 C 29.222639 17.000757 23.996094 18.332031 23.996094 18.332031 L 23.996094 19.332031 C 23.996094 19.332031 29.222639 18.000757 31.988281 18 C 31.992281 17.999996 31.999906 17.999999 32.003906 18 C 34.769546 18.000757 39.996094 19.332031 39.996094 19.332031 L 39.996094 18.332031 C 39.996094 18.332031 34.769546 17.000757 32.003906 17 C 31.999906 16.999999 31.992281 16.999996 31.988281 17 z M 25.796875 27 L 17.394531 35 L 15.996094 35 L 16.933594 36 L 17.394531 36 L 25.796875 28 L 29.914062 28 L 29.96875 30 L 29.996094 30 L 29.914062 27 L 25.796875 27 z M 34.089844 27 L 34.007812 30 L 34.035156 30 L 34.089844 28 L 38.210938 28 L 46.609375 36 L 47.070312 36 L 48.007812 35 L 46.609375 35 L 38.210938 27 L 34.089844 27 z"/>
 <path style="fill:#d03d28" d="m 28.999284,33 -2.935548,2.757812 -0.06739,3.692714 L 29.84303,44.95834 31.987562,45 h 0.0176 L 34.14969,44.95834 37.996348,39.450526 37.92896,35.757812 34.993426,33 h -0.997078 v 9.333338 h -4 V 33 Z"/>
 <path style="fill:#7a7c7a" d="M 31.988948,41.000078 C 30.007824,41.098858 29.584908,42.591798 28.999986,44 H 27.498172 L 25.99636,42.368206 v 5.818036 L 28.999986,53 h 2.988962 0.0148 2.988962 l 3.003626,-4.813758 V 42.368206 L 36.494522,44 h -1.5019 c -0.584924,-1.408202 -1.007838,-2.90115 -2.988962,-2.999922 -0.005,-2.66e-4 -0.0092,2.56e-4 -0.0148,0 z"/>
 <circle style="opacity:0.2" cx="32" cy="29" r="3"/>
 <circle style="fill:#ffa00e" cx="32" cy="28" r="3"/>
 <path style="fill:#8b9cbe;opacity:0.2" d="M 32 25 A 3 3 0 0 0 29 28 A 3 3 0 0 0 29.042969 28.513672 A 3 3 0 0 1 32 26 A 3 3 0 0 1 34.957031 28.486328 A 3 3 0 0 0 35 28 A 3 3 0 0 0 32 25 z"/>
</svg>
