<svg xmlns="http://www.w3.org/2000/svg" width="64" height="64" version="1">
 <path style="opacity:0.2" d="m 4.0000004,56.200069 0,1.999971 c 0,1.549978 1.2495821,2.79996 2.80076,2.79996 L 57.20004,61 C 58.750017,61 60,59.750018 60,58.20004 l 0,-1.999971 c 0,1.549977 -1.249983,2.79996 -2.79996,2.79996 l -50.3992796,0 c -1.5503779,0 -2.79996,-1.249983 -2.79996,-2.79996 z"/>
 <rect style="fill:#303877" width="56" height="56" x="4" y="4" rx="2.8" ry="2.8"/>
 <path style="opacity:0.2" d="m 31.9996,19.000601 c -4.395337,0.0042 -8.783274,1.080224 -12.132626,3.206954 -7.362495,4.676733 -7.869488,12.768617 -1.105445,17.737946 0.621971,0.448334 1.187143,0.867228 1.257802,0.921867 l -1.871573,3.327952 3.851545,2.80396 9.999857,-16.639762 9.999857,16.639762 3.851945,-2.80396 -1.871973,-3.327952 c 0.07064,-0.05464 0.635831,-0.473533 1.257802,-0.921867 6.764103,-4.969529 6.25691,-13.062813 -1.105464,-17.737946 -3.347953,-2.12797 -7.73589,-3.203954 -12.131827,-3.207954 z m -1.011706,1.999971 -8.999871,15.999771 c -9.999857,-7.999885 0.999986,-15.999771 8.999871,-15.999771 z m 2.011972,0 c 7.999885,0 18.999728,7.999886 8.999871,15.999771 L 32.999866,21.000572 Z m -0.999986,13.9998 -3.999943,5.995914 3.999943,6.003914 3.999943,-6.003914 -3.999943,-5.995914 z"/>
 <path style="fill:#9c9c9c" d="m 31.9996,18.000629 c -4.395937,0.0042 -8.783874,1.080185 -12.132626,3.207954 -7.362495,4.675933 -7.869488,12.767818 -1.105385,17.737747 0.621791,0.447993 1.186983,0.865987 1.258182,0.921986 l -1.871573,3.327953 3.851545,2.80396 9.999857,-16.639762 9.999857,16.639762 3.851945,-2.80396 -1.871973,-3.327953 c 0.072,-0.056 0.635991,-0.473993 1.257982,-0.921986 6.763903,-4.969929 6.25791,-13.063814 -1.105984,-17.737747 -3.347953,-2.127769 -7.73589,-3.203754 -12.131827,-3.207954 z m -1.011986,1.999972 -8.999871,15.999771 c -9.999657,-7.999886 0.999986,-15.999771 8.999871,-15.999771 z m 2.011972,0 c 7.999885,0 18.999728,7.999885 8.999871,15.999771 L 32.999586,20.000601 Z M 31.9996,34.0004 27.999657,39.996315 31.9996,46.000229 35.999543,39.996315 31.9996,34.0004 Z"/>
 <path style="opacity:0.1;fill:#8b9cbe" d="M 6.8007812 4 C 5.2496034 4 4 5.2496034 4 6.8007812 L 4 7.8027344 C 4 6.2515566 5.2496034 5.0019531 6.8007812 5.0019531 L 57.199219 5.0019531 C 58.749196 5.0019531 60 6.2515566 60 7.8027344 L 60 6.8007812 C 60 5.2496035 58.749196 4 57.199219 4 L 6.8007812 4 z"/>
</svg>
