<svg xmlns="http://www.w3.org/2000/svg" width="64" height="64" version="1">
 <path style="opacity:0.2" d="M 17.453281,5.006411 C 12.206532,5.2385626 6.267351,11.700745 4.5110866,20.70595 c -0.4178501,2.25644 -0.4999878,4.065733 -0.511086,6.104178 0.00489,0.185182 0.0051,0.368762 0.013678,0.555143 0.7083492,18.300946 15.6091594,33.083228 33.9587244,33.614862 0.09358,0.0039 0.185752,0.0053 0.279023,0.0083 1.202986,0.04705 2.571367,-0.05981 3.669147,-0.134164 C 55.744917,59.504717 64.764022,48.304743 57.323461,42.12174 53.111906,38.62133 45.349006,36.115015 37.225612,28.062673 28.656825,19.566427 26.21858,11.516603 22.628881,7.3637178 21.149075,5.6518648 19.347418,4.9226017 17.453281,5.006411 Z"/>
 <path style="fill:#f17623" d="M 17.453281,4.0064524 C 12.206532,4.238604 6.267351,10.700786 4.5110866,19.705991 c -0.4178501,2.25644 -0.4999878,4.065733 -0.511086,6.104178 0.00489,0.185182 0.0051,0.368762 0.013678,0.555143 0.7083492,18.300946 15.6091594,33.083228 33.9587244,33.614862 0.09358,0.0039 0.185752,0.0053 0.279023,0.0083 1.202986,0.04705 2.571367,-0.05981 3.669147,-0.134164 C 55.744917,58.504758 64.764022,47.304784 57.323461,41.121781 53.111906,37.621371 45.349006,35.115056 37.225612,27.062714 28.656825,18.566468 26.21858,10.516644 22.628881,6.3637592 21.149075,4.6519062 19.347418,3.9226431 17.453281,4.0064524 Z"/>
 <path style="fill:#ffbf55" d="M 18.890625,4.1074219 C 13.068254,10.104082 10.003511,17.146022 10,25 c -6e-7,16.237174 13.912252,28.784483 29,29 7.560368,-0.0091 14.075712,-2.735833 20.871094,-8.830078 -0.291323,-1.464997 -1.106588,-2.85197 -2.546875,-4.048828 C 53.112664,37.620684 45.349956,35.114842 37.226562,27.0625 28.657776,18.566254 26.218605,10.516166 22.628906,6.3632812 21.52908,5.0909922 20.251853,4.3637773 18.890625,4.1074219 Z"/>
 <path style="opacity:0.2" d="M 18.722656,5.3065992 A 29,29 0 0 0 10,25.999959 a 29,29 0 0 0 29,29 A 29,29 0 0 0 59.734375,46.267537 55.752213,55.752213 0 0 1 56.287109,45.378865 26,26 0 0 1 39,51.999959 a 26,26 0 0 1 -26,-26 26,26 0 0 1 6.652344,-17.3281254 55.752213,55.752213 0 0 1 -0.929688,-3.3652344 z"/>
 <path style="fill:#8b9cbe" d="M 18.722656 4.3066406 A 29 29 0 0 0 10 25 A 29 29 0 0 0 39 54 A 29 29 0 0 0 59.734375 45.267578 A 55.752213 55.752213 0 0 1 56.287109 44.378906 A 26 26 0 0 1 39 51 A 26 26 0 0 1 13 25 A 26 26 0 0 1 19.652344 7.671875 A 55.752213 55.752213 0 0 1 18.722656 4.3066406 z"/>
 <path style="fill:#8b9cbe;opacity:0.2" d="M 17.453125 4.0058594 C 12.206376 4.238011 6.2679831 10.699873 4.5117188 19.705078 C 4.0938687 21.961518 4.0110982 23.772102 4 25.810547 C 4.0035986 25.946823 4.006036 26.082455 4.0097656 26.21875 C 4.0347594 24.416766 4.1351897 22.73838 4.5117188 20.705078 C 6.2679831 11.699873 12.206376 5.238011 17.453125 5.0058594 C 19.347262 4.9220501 21.1491 5.6514283 22.628906 7.3632812 C 26.218605 11.516166 28.657776 19.566254 37.226562 28.0625 C 45.349956 36.114842 53.112664 38.620684 57.324219 42.121094 C 59.004627 43.517489 59.837068 45.171282 59.972656 46.908203 C 60.125083 44.809691 59.324495 42.783295 57.324219 41.121094 C 53.112664 37.620684 45.349956 35.114842 37.226562 27.0625 C 28.657776 18.566254 26.218605 10.516166 22.628906 6.3632812 C 21.1491 4.6514283 19.347262 3.9220501 17.453125 4.0058594 z"/>
</svg>
