<svg xmlns="http://www.w3.org/2000/svg" width="64" height="64" version="1">
 <path style="opacity:0.2" d="M 5.8496094,4 C 4.2707094,4 3,5.2707094 3,6.8496094 V 37 v 6 12 0.517578 2.632813 C 3,59.729291 4.2707094,61 5.8496094,61 H 49 53.927734 55 57.150391 C 58.729291,61 60,59.729291 60,58.150391 V 28 22 15 9 6.8496094 C 60,5.2707094 58.729291,4 57.150391,4 H 29 23 16 10 Z"/>
 <path style="fill:#b2bfd9" d="M 60,57.15 V 5.85 C 60,4.2711 58.7289,3 57.15,3 H 5.85 C 4.2711,3 3,4.2711 3,5.85 v 48.667908 l 1.4336016,2.703772 c 0.7396313,1.394944 0.1965414,1.371355 1.7747989,1.416399 L 52.250368,58.575 54.727632,60 H 57.15 C 58.7289,60 60,58.7289 60,57.15 Z"/>
 <path style="fill:#239623" d="M 10,3 V 36 H 3 v 6 H 23 V 54 H 3 v 3.15 C 3,58.7289 4.2711,60 5.85,60 H 49 55 V 27 h 5 V 21 H 49 v 6 27 H 29 V 42 36 H 16 V 3 Z m 13,0 v 26 h 6 7 v 18.175 h 6 V 14 H 60 V 8 H 36 v 6 9 H 29 V 3 Z"/>
 <path style="opacity:0.2" d="M 10 3 L 10 4 L 16 4 L 16 3 L 10 3 z M 23 3 L 23 4 L 29 4 L 29 3 L 23 3 z M 36 8 L 36 9 L 60 9 L 60 8 L 36 8 z M 49 21 L 49 22 L 60 22 L 60 21 L 49 21 z M 29 23 L 29 24 L 36 24 L 36 23 L 29 23 z M 3 36 L 3 37 L 10 37 L 10 36 L 3 36 z M 16 36 L 16 37 L 29 37 L 29 36 L 16 36 z M 3 54 L 3 55 L 23 55 L 23 54 L 3 54 z M 29 54 L 29 55 L 49 55 L 49 54 L 29 54 z"/>
 <path style="fill:#8b9cbe;opacity:0.2" d="M 5.8496094 3 C 4.2707094 3 3 4.2707094 3 5.8496094 L 3 6.8496094 C 3 5.2707094 4.2707094 4 5.8496094 4 L 10 4 L 10 3 L 5.8496094 3 z M 16 3 L 16 4 L 23 4 L 23 3 L 16 3 z M 29 3 L 29 4 L 57.150391 4 C 58.729291 4 60 5.2707094 60 6.8496094 L 60 5.8496094 C 60 4.2707094 58.729291 3 57.150391 3 L 29 3 z"/>
</svg>
