<svg xmlns="http://www.w3.org/2000/svg" width="64" height="64" version="1">
 <path style="opacity:0.2" d="m 10,56 v 2 c 0,1.662 1.338,3 3,3 h 38 c 1.662,0 3,-1.338 3,-3 v -2 c 0,1.662 -1.338,3 -3,3 H 13 c -1.662,0 -3,-1.338 -3,-3 z"/>
 <path style="fill:#6b5733" d="M 54,57 V 7 C 54,5.338 52.662,4 51,4 H 13 c -1.662,0 -3,1.338 -3,3 v 50 c 0,1.662 1.338,3 3,3 h 38 c 1.662,0 3,-1.338 3,-3 z"/>
 <path style="opacity:0.1" d="M 14,9 V 57 H 50 V 25.828 L 33.172,9 Z M 38.828,9 50,20.172 V 9 Z"/>
 <path style="fill:#f5f5f5" d="M 14,8 V 56 H 50 V 24.828 L 33.172,8 Z M 38.828,8 50,19.1718 V 8 Z"/>
 <path style="opacity:0.1;fill:#8b9cbe" d="M 13 4 C 11.338 4 10 5.338 10 7 L 10 8 C 10 6.338 11.338 5 13 5 L 51 5 C 52.662 5 54 6.338 54 8 L 54 7 C 54 5.338 52.662 4 51 4 L 13 4 z"/>
 <rect style="opacity:0.5" width="6" height="14" x="19" y="34"/>
 <rect style="opacity:0.5" width="6" height="20" x="29" y="28"/>
 <rect style="opacity:0.5" width="6" height="10" x="39" y="38"/>
</svg>
