<svg xmlns="http://www.w3.org/2000/svg" width="64" height="64" version="1">
 <path style="fill:#fecd38" d="M 60,54.222 60,9.778 C 60,8.2388 58.752,7 57.2,7 L 6.8000004,7 c -1.5512001,0 -2.8,1.2388 -2.8,2.7778 l 0,44.444 c 0,1.54 1.2487999,2.778 2.8,2.778 l 50.3999996,0 c 1.5512,0 2.8,-1.23888 2.8,-2.7778 z"/>
 <path style="fill:#4d4d4d" d="m 15.999829,15 0,32 31.999542,0 0,-32 -1.999971,0 0,2 -1.999972,0 0,-2 -23.999656,0 0,2 -1.999972,0 -4e-4,-2 -1.999651,0 z m 7.999885,4 15.999772,0 0,10 -15.999772,0 z m -6.000314,2 1.999972,0 0,4 -1.999972,0 z m 25.999628,0 1.999972,0 0,4 -1.999972,0 z m -25.999628,8 1.999972,0 0,4 -1.999972,0 z m 25.999628,0 1.999972,0 0,4 -1.999972,0 z m -19.999714,4 15.999772,0 0,10 -15.999772,0 z m -6.000314,4 1.999972,0 0,4 -1.999972,0 z m 25.999628,0 1.999972,0 0,4 -1.999972,0 z M 17.999,45 l 1.999972,0 0,2 -1.999972,0 z m 25.999628,0 1.999972,0 0,2 -1.999972,0 z"/>
 <path style="opacity:0.2" d="M 4 54.222656 L 4 55.222656 C 4 56.762656 5.2504034 58 6.8007812 58 L 57.199219 58 C 58.749196 58 60 56.762656 60 55.222656 L 60 54.222656 C 60 55.762656 58.749196 57 57.199219 57 L 6.8007812 57 C 5.2504034 57 4 55.762656 4 54.222656 z"/>
 <path style="opacity:0.2;fill:#8b9cbe" d="M 6.8007812 7 C 5.2496034 7 4 8.2383437 4 9.7773438 L 4 10.777344 C 4 9.2383437 5.2496034 8 6.8007812 8 L 57.199219 8 C 58.751196 8 60 9.2381438 60 10.777344 L 60 9.7773438 C 60 8.2381438 58.751196 7 57.199219 7 L 6.8007812 7 z"/>
</svg>
