<svg xmlns="http://www.w3.org/2000/svg" width="64" height="64" version="1">
 <path style="opacity:0.2" d="M 32,7.0003846 C 17.555707,7.0003846 6.0001924,18.555899 6.0001924,33.000192 6.0001924,47.444485 17.555707,59 32,59 c 2.311183,0 4,-2.022185 4,-4.333368 0,-1.155552 0.04449,-2.022185 -0.822184,-2.888779 -0.577775,-0.866653 -1.155551,-1.733327 -1.155551,-2.888778 0,-2.311183 2.022385,-3.88909 4.333368,-3.88909 l 5.199961,0 c 8.087941,0 14.443894,-6.800231 14.443894,-14.888171 0,-12.711906 -11.555915,-23.1118294 -25.999808,-23.1118294 z"/>
 <path style="fill:#f3c72f" d="m 32,6.0003996 c -14.444293,0 -25.9998076,11.5555144 -25.9998076,25.9998074 0,14.444293 11.5555146,25.999808 25.9998076,25.999808 2.311183,0 4,-2.022185 4,-4.333368 0,-1.155552 0.04449,-2.022185 -0.822184,-2.888779 C 34.600041,49.911215 34.022265,49.044541 34.022265,47.88909 34.022265,45.577907 36.04465,44 38.355633,44 l 5.199961,0 c 8.087941,0 14.443894,-6.800231 14.443894,-14.888171 0,-12.711906 -11.555915,-23.1118294 -25.999808,-23.1118294 z"/>
 <path style="fill:#da8015" d="m 14.000133,32.000207 c -2.133384,0 -3.99997,-1.865986 -3.99997,-3.99997 0,-2.133984 1.866586,-3.999971 3.99997,-3.999971 2.133384,0 3.999971,1.865987 3.999971,3.999971 0,2.133984 -1.866587,3.99997 -3.999971,3.99997 z"/>
 <path style="fill:#327cc4" d="m 24.000059,20.000296 c -2.133384,0 -3.99997,-1.866646 -3.99997,-3.99997 0,-2.133325 1.866646,-3.999971 3.99997,-3.999971 2.133324,0 3.999971,1.866646 3.999971,3.999971 0,2.133324 -1.866647,3.99997 -3.999971,3.99997 z"/>
 <path style="fill:#4c9511" d="m 37.999956,20.000296 c -2.133385,0 -3.999971,-1.866646 -3.999971,-3.99997 0,-2.133325 1.866646,-3.999971 3.999971,-3.999971 2.133324,0 3.99997,1.866646 3.99997,3.999971 0,2.133324 -1.866646,3.99997 -3.99997,3.99997 z"/>
 <path style="fill:#d94d4d" d="m 47.999882,32.000207 c -2.133385,0 -3.999971,-1.866646 -3.999971,-3.99997 0,-2.133324 1.866646,-3.999971 3.999971,-3.999971 2.133324,0 3.99997,1.866647 3.99997,3.999971 0,2.133324 -1.866646,3.99997 -3.99997,3.99997 z"/>
 <path style="opacity:0.2;fill:#8b9cbe" d="M 32,6 C 17.555707,6 6,17.555707 6,32 c 0,0.110263 0.011662,0.217482 0.017578,0.326172 C 6.3714766,18.198989 17.781735,7 32,7 46.200335,7 57.601696,17.052316 57.982422,29.470703 57.987909,29.350179 58,29.231347 58,29.109375 58,16.397669 46.443893,6 32,6 Z m 2.171875,42.855469 c -0.09,0.333998 -0.148437,0.681158 -0.148437,1.035156 0,0.169365 0.01607,0.330521 0.03906,0.488281 0.02582,-0.177144 0.0632,-0.352071 0.109375,-0.523437 0.205998,0.703995 0.603816,1.31388 1.007813,1.921875 0.731637,0.731637 0.720803,1.475853 0.801757,2.382812 0.02238,-0.161954 0.03711,-0.325717 0.03711,-0.492187 0,-1.155992 0.02713,-2.024631 -0.838866,-2.890625 -0.403997,-0.607995 -0.801815,-1.21788 -1.007813,-1.921875 z"/>
</svg>
