<svg xmlns="http://www.w3.org/2000/svg" width="64" height="64" version="1">
 <path style="opacity:0.2" d="M 26,14 A 10.001,10.001 0 0 0 16,24 v 6 H 14 A 10.001,10.001 0 0 0 4,40 v 2 A 10.001,10.001 0 0 0 14,52 H 50 A 10.001,10.001 0 0 0 60,42 V 30 A 10.001,10.001 0 0 0 50,20 H 49.160156 A 10.001,10.001 0 0 0 40,14 Z"/>
 <path style="fill:#b2bfd9" d="M 26,13 A 10.001,10.001 0 0 0 16,23 v 6 H 14 A 10.001,10.001 0 0 0 4,39 v 2 A 10.001,10.001 0 0 0 14,51 H 50 A 10.001,10.001 0 0 0 60,41 V 29 A 10.001,10.001 0 0 0 50,19 H 49.160156 A 10.001,10.001 0 0 0 40,13 Z"/>
 <path style="fill:#ee8827" d="m 25,22 v 1 9 h 22 v 6 H 13 v 4 H 51 V 28 H 29 v -2 h 12 v -4 z"/>
 <path style="opacity:0.2;fill:#8b9cbe" d="M 26 13 A 10.001 10.001 0 0 0 16 23 L 16 24 A 10.001 10.001 0 0 1 26 14 L 40 14 A 10.001 10.001 0 0 1 49.160156 20 L 50 20 A 10.001 10.001 0 0 1 60 30 L 60 29 A 10.001 10.001 0 0 0 50 19 L 49.160156 19 A 10.001 10.001 0 0 0 40 13 L 26 13 z M 14 29 A 10.001 10.001 0 0 0 4 39 L 4 40 A 10.001 10.001 0 0 1 14 30 L 16 30 L 16 29 L 14 29 z"/>
</svg>
