<svg xmlns="http://www.w3.org/2000/svg" width="64" height="64" version="1">
 <path style="opacity:0.2" d="M 32,5 C 16.488,5 4,17.488 4,33 4,48.512 16.488,61 32,61 47.512,61 60,48.512 60,33 60,17.488 47.512,5 32,5 Z"/>
 <path style="fill:#efbd2f" d="M 32,4 C 16.488,4 4,16.488 4,32 4,47.512 16.488,60 32,60 47.512,60 60,47.512 60,32 60,16.488 47.512,4 32,4 Z"/>
 <path style="opacity:0.2" d="m 28,15 -4,15 5.2,0 -4.2,9 4.2,0 -4.2,14 14,-17 -4.9,0 5.9,-9 -7,0 6,-12 z"/>
 <path style="fill:#8b9cbe" d="m 28,14 -4,15 5.2,0 -4.2,9 4.2,0 -4.2,14 14,-17 -4.9,0 5.9,-9 -7,0 6,-12 z"/>
 <path style="opacity:0.2;fill:#8b9cbe" d="M 32 4 C 16.488 4 4 16.488 4 32 C 4 32.11345 4.0112805 32.224113 4.0175781 32.335938 C 4.3691213 17.134181 16.710728 5 32 5 C 47.289272 5 59.630879 17.134181 59.982422 32.335938 C 59.98872 32.224113 60 32.11345 60 32 C 60 16.488 47.512 4 32 4 z"/>
</svg>
