<svg xmlns="http://www.w3.org/2000/svg" width="64" height="64" version="1.1">
 <path style="opacity:0.2" d="m 32.078378,5.0002562 c -0.194178,-0.0055 -0.381759,0.065461 -0.51619,0.1952291 -1.939581,1.8728616 -3.910868,3.9742752 -5.692476,5.9744767 -0.0021,0.0025 -0.0041,0.005 -0.0061,0.0076 -4.390333,5.066462 -7.727358,10.272212 -10.145694,15.846032 -2.252759,5.192201 -3.569884,9.683922 -4.76865,16.226995 -0.262516,1.432828 -0.527787,3.16905 -0.710798,4.566154 -0.0915,0.698554 -0.162561,1.311411 -0.202795,1.764667 -0.02011,0.226622 -0.03182,0.412581 -0.03485,0.562933 -0.0015,0.07483 -0.00172,0.137877 0.0061,0.216038 0.0039,0.03931 0.0076,0.0808 0.02865,0.151637 0.02109,0.07105 0.0039,0.214603 0.311353,0.390432 0.165925,0.09486 0.188251,0.07612 0.229419,0.08526 0.04112,0.0091 0.07302,0.01587 0.106516,0.02116 0.06697,0.0098 0.138023,0.01663 0.219176,0.02495 0.162322,0.01587 0.363314,0.03099 0.575597,0.04157 1.683292,0.08526 4.165547,0.481063 5.811281,0.926877 1.111055,0.30093 1.842541,0.549927 2.927149,0.995106 0.250577,0.102881 0.480374,0.196916 0.651385,0.265326 0.08551,0.03402 0.155708,0.06123 0.20894,0.08149 0.02502,0.0098 0.04724,0.01663 0.0675,0.02419 0.0013,4.91e-4 0.0028,0.0014 0.0041,0.0019 3.27e-4,1.21e-4 0.0017,-1.82e-4 0.002,0 7.21e-4,2.49e-4 0.0013,0.0016 0.002,0.0019 0.0076,0.0037 0.01557,0.0068 0.02865,0.01285 -7.8e-4,-0.0017 -0.0036,-0.0049 -0.0061,-0.0057 0.0039,0.0013 0.0054,0.0022 0.01028,0.0038 0.0086,0.0029 0.01807,0.0076 0.03893,0.01285 0.0082,0.0023 0.01451,0.0064 0.02457,0.01134 -0.0048,-10e-4 -0.02298,-7.71e-4 -0.02661,-0.0019 0.04808,0.02343 0.105127,0.05367 0.18231,0.0929 0.183587,0.09343 0.435828,0.222842 0.710791,0.365861 2.656154,1.381313 4.642545,2.805749 7.814608,5.618136 0.417921,0.370473 0.807346,0.706635 1.102033,0.955315 0.147344,0.124348 0.269709,0.226623 0.366663,0.303273 0.04845,0.0378 0.08945,0.06954 0.133137,0.100461 0.02184,0.01512 0.04301,0.03099 0.07988,0.05291 0.01852,0.01058 0.04112,0.02343 0.08193,0.04158 0.04082,0.01814 0.08149,0.05367 0.270382,0.06274 0.226296,0.0098 0.273255,-0.03553 0.319547,-0.05518 0.04634,-0.0189 0.07007,-0.0325 0.09013,-0.04309 0.04006,-0.02268 0.06266,-0.03855 0.08603,-0.05518 0.04671,-0.0325 0.08892,-0.06501 0.141343,-0.10613 0.10483,-0.08156 0.238707,-0.192154 0.39943,-0.326026 0.321362,-0.267442 0.746599,-0.631104 1.204381,-1.032746 2.62399,-2.302408 3.894163,-3.275688 5.721159,-4.397448 3.989842,-2.44977 7.545211,-3.537127 13.003176,-3.963404 l 0.44246,-0.03402 c 0.355685,-0.02726 0.629191,-0.302866 0.628882,-0.633132 v -0.240607 c 3e-6,-0.501851 -0.129036,-1.538365 -0.303124,-2.822336 -0.173938,-1.283393 -0.396613,-2.744799 -0.597938,-3.85478 -1.197352,-6.602026 -2.558634,-11.251811 -4.840347,-16.509538 -2.055509,-4.736482 -4.998248,-9.521037 -8.515157,-13.851989 -0.0079,-0.0098 -0.01625,-0.01912 -0.02457,-0.0285 C 37.351559,10.451519 35.061695,7.729923 32.56382,5.2068586 32.43883,5.0800998 32.263702,5.0055653 32.078353,5.0002532 Z"/>
 <path style="fill:#0278dc" d="m 32.078373,4.0003802 c -0.194176,-0.0055 -0.381755,0.065461 -0.516186,0.1952303 -1.939566,1.8728628 -3.910836,3.9742766 -5.692431,5.9744805 -0.0021,0.0025 -0.0041,0.005 -0.0061,0.0076 -4.390297,5.066464 -7.727296,10.272217 -10.145612,15.846042 -2.252765,5.192163 -3.569879,9.683885 -4.768636,16.226963 -0.262514,1.432826 -0.527784,3.169053 -0.710792,4.566158 -0.0915,0.698551 -0.162556,1.311411 -0.202793,1.764668 -0.02011,0.226623 -0.03182,0.412581 -0.03485,0.562928 -0.0015,0.07483 -0.00172,0.137879 0.0061,0.21604 0.0039,0.03931 0.0076,0.0808 0.02865,0.151636 0.02109,0.07105 0.0039,0.214604 0.311349,0.390434 0.165924,0.09486 0.18825,0.07612 0.229417,0.08526 0.04112,0.0091 0.07302,0.01587 0.106517,0.02117 0.06697,0.0098 0.138022,0.01663 0.219173,0.02494 0.162325,0.01587 0.363312,0.03099 0.575592,0.04157 1.68328,0.08526 4.165515,0.481066 5.811235,0.926878 1.111047,0.300928 1.842527,0.54993 2.927126,0.995107 0.250575,0.102879 0.480371,0.196915 0.65138,0.265325 0.08551,0.03402 0.155707,0.06123 0.208938,0.08149 0.02502,0.0098 0.04724,0.01663 0.0675,0.02419 0.0013,4.91e-4 0.0028,0.0014 0.0041,0.0019 3.27e-4,1.2e-4 0.0017,-1.82e-4 0.002,0 7.21e-4,2.49e-4 0.0013,0.0016 0.002,0.0019 0.0076,0.0037 0.01557,0.0068 0.02865,0.01285 -7.8e-4,-0.0017 -0.0036,-0.0049 -0.0061,-0.0057 0.0039,0.0013 0.0054,0.0022 0.01028,0.0038 0.0086,0.0029 0.01807,0.0076 0.03893,0.01285 0.0082,0.0023 0.01451,0.0064 0.02457,0.01134 -0.0048,-10e-4 -0.02298,-7.71e-4 -0.02661,-0.0019 0.04808,0.02343 0.105126,0.05367 0.182313,0.0929 0.183584,0.09343 0.435824,0.222843 0.710785,0.365862 2.656132,1.381315 4.642509,2.805746 7.814546,5.618136 0.417918,0.370473 0.807339,0.706635 1.102025,0.955319 0.147342,0.124347 0.269706,0.226623 0.366659,0.303272 0.04845,0.03779 0.08945,0.06954 0.133136,0.100462 0.02185,0.01512 0.04301,0.03099 0.07988,0.05291 0.01852,0.01058 0.04112,0.02343 0.08193,0.04157 0.04082,0.01814 0.08149,0.05367 0.270379,0.06274 0.226295,0.0098 0.273252,-0.03553 0.319545,-0.05518 0.04634,-0.0189 0.07007,-0.0325 0.09013,-0.04309 0.04006,-0.02268 0.06266,-0.03855 0.08603,-0.05518 0.04671,-0.0325 0.08892,-0.06501 0.141341,-0.106131 0.10483,-0.08156 0.238706,-0.192153 0.399428,-0.326025 0.321359,-0.267442 0.746593,-0.631104 1.204372,-1.032751 2.623965,-2.30241 3.894127,-3.275686 5.721109,-4.397449 3.989835,-2.449768 7.545173,-3.53713 13.003094,-3.963409 l 0.442457,-0.03401 c 0.355706,-0.0272 0.62921,-0.302811 0.628901,-0.633077 v -0.240607 c 3e-6,-0.501851 -0.129035,-1.538371 -0.303122,-2.822338 -0.173936,-1.28339 -0.39661,-2.744797 -0.597933,-3.854783 -1.197343,-6.602049 -2.558614,-11.251836 -4.840309,-16.509568 -2.055492,-4.736486 -4.998209,-9.521043 -8.515089,-13.851998 -0.0079,-0.0098 -0.01625,-0.01912 -0.02457,-0.0285 C 37.351534,9.4516461 35.061687,6.7300487 32.563833,4.2069827 32.438844,4.080225 32.263716,4.0056904 32.078369,4.0003772 Z"/>
 <path style="fill:#48a0f8;fill-rule:evenodd" d="m 32.077988,4.0137405 c -0.194176,-0.0055 -0.381195,0.067121 -0.515619,0.1968783 -1.642496,1.5860046 -3.285823,3.3314436 -4.839347,5.04499 L 32.01622,39.913836 37.255709,9.3048279 C 35.727002,7.5841014 34.190348,5.8642489 32.56407,4.2215561 32.439082,4.0947983 32.263335,4.0190527 32.077988,4.0137405 Z M 32.016216,39.913836 48.116024,25.73591 c -1.104282,-2.490424 -2.466993,-4.983543 -4.01488,-7.421194 z m 0,0 19.921333,-2.862929 c -0.490086,-2.025613 -1.04424,-3.918586 -1.670405,-5.758671 z m 0,0 21.296327,10.092715 0.05904,-0.0053 c 0.355658,-0.02721 0.628724,-0.304105 0.628414,-0.634371 v -0.2078 c 4e-6,-0.500263 -0.129375,-1.531099 -0.303462,-2.810973 -0.08768,-0.644446 -0.197407,-1.269132 -0.300779,-1.935965 l -0.386661,-1.421897 z m 0,0 7.804177,14.046673 0.421631,-0.147629 c 1.481491,-0.887559 2.918278,-1.588824 4.417707,-2.138308 z m 0,0 -3.303213,17.543989 c 0.400162,0.340992 0.775544,0.648052 1.21655,1.039078 0.41791,0.370473 0.806385,0.705653 1.101072,0.954303 0.147342,0.124348 0.270976,0.226925 0.367914,0.303499 0.04845,0.03779 0.0879,0.0703 0.131598,0.101141 0.02184,0.01512 0.04369,0.03024 0.08056,0.05216 0.0047,0.0027 0.01595,0.0076 0.02147,0.01058 l 0.384038,0.06803 1.09033,-0.653496 c 0.309021,-0.258748 0.681592,-0.572154 1.098385,-0.937899 0.402443,-0.353163 0.623834,-0.513495 0.96948,-0.809386 z m 0,0 -12.525355,11.820868 c 0.238102,0.09048 0.454382,0.165091 0.725096,0.276211 0.250574,0.10288 0.481573,0.196764 0.652589,0.26525 0.08551,0.03401 0.153564,0.06123 0.206784,0.08201 0.02502,0.0098 0.04944,0.01739 0.06977,0.02495 0,0 0.0027,0.0027 0.0027,0.0027 0,0 0.0027,0 0.0027,0 0,0 0.0027,0 0.0027,0 0.0076,0.0037 0.01368,0.0072 0.02691,0.01361 -7.79e-4,-0.0017 -0.0028,-0.0045 -0.0054,-0.0053 0.0039,0.0013 0.0059,0.0012 0.01081,0.0027 0.0086,0.0029 0.0167,0.0076 0.03757,0.01361 0.0082,0.0023 0.01686,0.0061 0.02691,0.01058 -0.0048,-10e-4 -0.02321,0.0011 -0.02691,0 0.04807,0.02343 0.105435,0.05367 0.182622,0.09297 0.183592,0.09343 0.434025,0.220651 0.708986,0.36367 0.706893,0.367601 1.367161,0.743902 2.014155,1.14299 z m 0,0 -21.124451,2.77543 c -0.241129,1.353689 -0.484411,2.903863 -0.652585,4.183647 -0.0915,0.696324 -0.16386,1.306417 -0.204101,1.758235 -0.01973,0.221482 -0.03167,0.401239 -0.03492,0.549624 -6.5e-5,0.0029 5.7e-5,0.0083 0,0.01058 -8.071e-4,0.06123 0.0014,0.116865 0.0081,0.183233 0.0039,0.03931 0.0058,0.07952 0.02691,0.150352 0.02101,0.07105 0.004,0.215132 0.311523,0.391037 0.165931,0.09487 0.189792,0.07559 0.230951,0.08474 0.04112,0.0091 0.07128,0.01663 0.104741,0.02192 0.06697,0.0098 0.139057,0.01663 0.220216,0.02494 0.162322,0.01587 0.362428,0.03024 0.574708,0.04082 0.307646,0.01587 0.664094,0.04989 1.015134,0.08474 z m 0,0 -18.272409,-8.6216 c -0.601133,1.761912 -1.13447,3.577299 -1.608638,5.515308 z m 0,0 -12.047329,-21.722168 c -1.462719,2.289834 -2.730331,4.632693 -3.829578,7.038376 z"/>
 <path style="opacity:0.2;fill:#8b9cbe" d="m 32.07838,4.00062 c -0.194176,-0.0055 -0.381193,0.06554 -0.515619,0.195311 -1.939518,1.872822 -3.909789,3.976332 -5.69134,5.976493 -0.002,0.0025 -0.0058,0.0014 -0.0078,0.0039 -4.390208,5.066366 -7.726156,10.273768 -10.144412,15.847472 -2.252687,5.19209 -3.570747,9.683438 -4.769475,16.226373 -0.262508,1.432798 -0.527926,3.169278 -0.71093,4.566353 -0.0915,0.698535 -0.162886,1.312357 -0.203123,1.765604 -0.02011,0.226618 -0.03213,0.412146 -0.03516,0.562493 -0.00149,0.07484 -5.4e-5,0.136682 0.0078,0.214842 0.0039,0.03931 0.0063,0.08152 0.02734,0.152342 8.33e-4,0.0028 0.0049,0.01061 0.0059,0.01367 0.04087,-0.448609 0.108697,-1.032809 0.197263,-1.708965 0.183004,-1.397075 0.448422,-3.133555 0.71093,-4.566353 1.198728,-6.542934 2.516788,-11.034282 4.769475,-16.226373 2.418256,-5.573704 5.754204,-10.781105 10.144412,-15.847472 0.002,-0.0025 0.0058,-0.0014 0.0078,-0.0039 1.781531,-2.000158 3.751802,-4.103669 5.69132,-5.976491 0.134426,-0.129767 0.321443,-0.20081 0.515619,-0.19531 0.185344,0.0053 0.359384,0.08027 0.484369,0.207029 2.497794,2.523011 4.788945,5.242924 7.156167,7.835846 0.0083,0.0094 0.0155,0.0215 0.02344,0.03125 3.516794,4.330859 6.460083,9.115018 8.515524,13.8514 2.281641,5.257617 3.642452,9.905818 4.839788,16.507621 0.201322,1.109962 0.423718,2.572062 0.597649,3.855423 0.129878,0.957904 0.214476,1.692131 0.259763,2.255834 0.02786,-0.05943 0.04498,-0.124174 0.04492,-0.193358 v -0.238278 c 8e-6,-0.501843 -0.130601,-1.540242 -0.304685,-2.824186 -0.173931,-1.283361 -0.396327,-2.745461 -0.597649,-3.855423 -1.197336,-6.601803 -2.558147,-11.250004 -4.839788,-16.507621 -2.055441,-4.736383 -4.99873,-9.520541 -8.515524,-13.851401 -0.0079,-0.0098 -0.01512,-0.02188 -0.02344,-0.03125 C 37.351694,9.450573 35.060543,6.73066 32.562749,4.207648 32.437764,4.080894 32.263724,4.005932 32.07838,4.000619 Z"/>
</svg>
