<svg xmlns="http://www.w3.org/2000/svg" width="64" height="64" version="1">
 <path style="opacity:0.2" d="m 36.83676,9.0006781 c -3.35194,0.2181996 -6.796332,1.1173749 -9.847992,2.5428589 -6.487424,3.47714 -9.032372,8.949821 -11.108998,14.802423 -1.239071,3.115684 -2.855751,4.607294 -6.588507,6.310824 -2.0718588,0.944568 -4.3346208,1.983072 -6.2028864,3.526668 -1.8064402,1.052202 -1.1459333,2.763934 0.3930884,2.817226 l 13.229407,0 c 0.195424,0.819112 0.396549,1.926848 0.614256,2.806716 0.387204,1.620882 0.807548,3.044282 0.774872,4.363001 -0.05194,2.095982 -0.925219,3.927517 -2.448563,5.867217 -1.091623,1.390784 -0.938904,4.540772 0.770897,4.896482 0,0 6.692492,0.233198 9.931502,-0.17772 C 38.64131,55.059414 60.49551,46.465158 60.49551,46.465158 61.829402,45.947116 62.398962,44.33736 61.697618,43.067628 57.75987,37.288184 53.681116,31.059028 49.300976,26.103516 47.035274,23.520852 44.45744,18.428937 47.619756,17.314657 l 2.372792,-0.207958 c 2.338744,-0.204973 2.43421,-1.865019 1.574904,-3.481653 C 50.254274,11.657848 47.367818,11.091922 45.427732,10.51126 42.732048,9.7081667 39.679354,9.0255489 36.83676,9.0006781 Z"/>
 <path style="fill:#4f4f4f" d="m 36.837891,9 c -3.35194,0.2181996 -5.891367,1.023471 -8.943027,2.448955 -6.487424,3.47714 -9.938468,8.043725 -12.015094,13.896327 -1.239071,3.115684 -2.855751,4.607294 -6.588507,6.310824 C 7.2194042,32.600674 4.9566422,33.639178 3.0883766,35.182774 1.2819364,36.234976 1.9424433,37.946708 3.481465,38 l 13.229407,0 c 0.195424,0.819112 1.1379,1.844476 1.355607,2.724344 0.387204,1.620882 1.301782,2.797165 1.269106,4.115884 -0.05194,2.095982 -0.760475,4.504123 -2.283819,6.443823 -1.091623,1.390784 -1.021276,3.552304 0.688525,3.908014 0,0 5.621652,0.233198 8.860662,-0.17772 12.287474,-1.69696 33.317951,-10.044099 33.317951,-10.044099 1.333892,-0.518042 1.409218,-1.715936 0.707874,-2.985668 C 56.68903,36.205134 52.77502,30.634956 48.39488,25.679444 47.612558,24.787678 47.699117,23.020141 47.091521,21.797091 45.939445,19.478039 45.549354,17.04351 47.619756,16.313979 l 2.372792,-0.207958 c 2.338744,-0.204973 2.43421,-1.865019 1.574904,-3.481653 C 50.589259,11.158992 48.738079,10.471159 47.055373,9.9755821 46.479127,9.8058706 45.428404,10.070567 44.933498,9.9224436 42.237814,9.1193502 39.680485,9.0248708 36.837891,9 Z"/>
 <path style="opacity:0.1" d="M 36.837891 9 C 33.485951 9.2181994 30.039941 10.117484 26.988281 11.542969 C 22.996687 13.68239 20.503302 16.430169 18.6875 19.587891 C 18.6875 19.587891 24.247688 21.705078 27.3125 21.705078 C 31.31093 21.705078 35.970393 20.674704 37.320312 20.357422 C 37.81075 19.605124 38.379526 18.903396 39.066406 18.269531 C 42.257686 15.765353 42.673143 15.881569 46.363281 14.121094 C 46.921309 13.854871 47.729422 12.022574 47.464844 11.154297 C 46.765996 10.914324 46.071197 10.703721 45.429688 10.511719 C 42.734004 9.7086256 39.680483 9.0248708 36.837891 9 z M 46.857422 22.412109 C 43.733 27.847557 41.184687 32.964679 37.574219 37.150391 C 37.377319 39.362437 37.106522 41.458683 36.701172 43.126953 C 35.828832 46.717175 32.813855 52.4651 31.556641 54.777344 C 43.949902 51.969881 60.496094 45.464844 60.496094 45.464844 C 61.270656 45.164028 61.775617 44.491085 61.935547 43.734375 C 61.887207 43.50713 61.815881 43.28115 61.697266 43.066406 C 57.75952 37.286962 53.680921 31.059026 49.300781 26.103516 C 48.406719 25.08438 47.476802 23.738755 46.857422 22.412109 z"/>
 <path style="fill:#3f83d0" d="m 36.837894,8.0000002 c -3.35194,0.2181994 -6.797592,1.116759 -9.849252,2.5422438 -3.991594,2.139421 -6.484914,4.88812 -8.300716,8.045842 0,0 5.559562,2.411914 8.624374,2.411914 3.99843,0 8.65837,-1.325341 10.00829,-1.642623 0.490438,-0.752298 1.059758,-1.453423 1.746638,-2.087288 3.19128,-2.504178 3.606122,-2.389282 7.29626,-4.149757 0.558028,-0.266223 1.36669,-2.098593 1.102112,-2.96687 C 46.766752,9.9134892 46.070296,9.7030104 45.428786,9.5110082 42.733102,8.7079148 39.680486,8.024871 36.837894,8.0000002 Z m 10.69746,2.1782778 c -0.06976,-0.02482 0,0 0,0 z m -0.678008,11.233298 c -3.124422,5.435448 -5.672382,10.55213 -9.28285,14.737842 -0.1969,2.212046 -0.46797,4.309588 -0.87332,5.977858 -1.102428,4.537178 -5.767254,12.785664 -5.767254,12.785664 12.454128,-2.724168 29.561708,-9.449316 29.561708,-9.449316 1.333892,-0.51804 1.903902,-2.127278 1.202556,-3.39701 C 57.76044,36.28717 53.681662,30.059128 49.301522,25.103618 48.40746,24.084482 47.476726,22.738222 46.857346,21.411576 Z"/>
 <path style="opacity:0.1" d="M 18.660156 19.634766 C 17.53806 21.596006 16.673402 23.713626 15.880859 25.947266 C 15.695825 26.412538 15.494773 26.829564 15.287109 27.228516 C 15.037749 30.195986 15.209239 34.577004 16.242188 38 L 16.710938 38 C 16.906361 38.819112 17.106512 39.926773 17.324219 40.806641 C 17.864457 43.068142 18.040277 44.940856 17.714844 46.685547 C 17.705681 46.826624 17.709977 46.972333 17.695312 47.111328 C 17.603613 47.980182 17.40309 48.816072 17.070312 49.632812 C 16.737537 50.449553 16.272787 51.247087 15.652344 52.037109 C 15.494136 52.238671 15.368734 52.482601 15.263672 52.744141 C 15.234282 52.817401 15.214573 52.898031 15.189453 52.974609 C 15.127163 53.164549 15.07661 53.360663 15.041016 53.564453 C 15.022656 53.670113 15.007144 53.775334 14.996094 53.882812 C 14.995028 53.893208 14.995134 53.90366 14.994141 53.914062 C 15.117746 54.901895 15.579086 55.758259 16.421875 55.933594 C 16.421875 55.933594 23.114506 56.166777 26.353516 55.755859 C 27.947885 55.535669 29.708773 55.195944 31.556641 54.777344 C 32.813995 52.464819 35.828882 46.716968 36.701172 43.126953 C 37.106522 41.458683 37.377329 39.362437 37.574219 37.150391 C 35.104615 40.013469 31.943102 43.244264 27.941406 45.027344 C 27.803286 45.070264 27.660495 45.09321 27.515625 45.09375 C 26.726653 45.09375 26.085937 44.461327 26.085938 43.681641 C 26.006777 43.029827 27.02065 42.403521 27.941406 41.519531 C 34.398876 35.041465 33.725291 25.871923 37.320312 20.357422 C 35.970413 20.674704 31.31093 21 27.3125 21 C 24.95651 21 20.585941 20.29664 18.660156 19.634766 z"/>
 <path style="fill:#8b9cbe" d="M 18.660023,18.63496 C 16.37135,22.352172 14.95999,26.43802 15,30.562862 c 0.02298,2.369217 0.711217,4.751298 1.5116,7.083778 0.554967,2.375083 1.33964,4.865563 1.4884,7.133252 l 0,0.0028 c -0.215889,2.798069 -1.624969,4.862952 -2.735602,6.962218 -0.02939,0.07326 -0.05021,0.15228 -0.07533,0.228858 -0.06229,0.18994 -0.112284,0.386274 -0.147878,0.590064 -0.01836,0.10566 -0.03359,0.21237 -0.04464,0.319848 -0.02049,0.19992 -0.02757,0.401316 -0.02233,0.601094 0.0024,0.09132 4.62e-4,0.18294 0.0084,0.272974 0.02561,0.29107 0.07224,0.575606 0.156248,0.835466 l 0,0.0028 c 0.06567,0.202978 0.15441,0.384952 0.256694,0.554222 0.02871,0.04746 0.06321,0.08818 0.09487,0.13236 0.0866,0.12092 0.184164,0.227636 0.292967,0.319848 0.03991,0.03378 0.07983,0.06712 0.12277,0.0965 0.154414,0.10572 0.322098,0.194 0.516179,0.234374 0,0 6.691158,0.234446 9.930168,-0.17648 0.7315,-0.10102 1.503618,-0.231108 2.296298,-0.37775 0.0038,-6.84e-4 0.0076,-0.0022 0.0112,-0.0028 0.737842,-0.13814 1.497562,-0.2934 2.273978,-0.46323 0,0 4.664826,-8.248486 5.767254,-12.785664 0.40535,-1.66827 0.676428,-3.765812 0.873318,-5.977858 -2.469604,2.863078 -5.63114,6.094144 -9.632836,7.877224 -0.13812,0.04292 -0.282064,0.06544 -0.426934,0.06598 -0.788972,0 -1.42856,-0.63206 -1.42856,-1.411746 -0.07916,-0.651814 0.934698,-1.277744 1.855454,-2.161734 6.45747,-6.478066 5.783908,-15.64746 9.37893,-21.161961 C 35.970718,19.674581 31.310778,21 27.312348,21 c -2.35599,0 -6.698637,-1.75004 -8.624422,-2.411914 z"/>
 <circle style="fill:#17191e" cx="27" cy="27" r="3"/>
</svg>
