<svg xmlns="http://www.w3.org/2000/svg" width="64" height="64" version="1">
 <rect style="opacity:0.2" width="54" height="54" x="5" y="6" rx="2.7" ry="2.7"/>
 <rect style="fill:#b2bfd9" width="54" height="54" x="5" y="5" rx="2.7" ry="2.7"/>
 <path style="fill:#3587e9" d="M 21,5 V 21 H 5 v 2 H 21 V 41 H 5 v 2 h 16 v 16 h 2 V 43 h 18 v 16 h 2 V 43 H 59 V 41 H 43 V 23 H 59 V 21 H 43 V 5 H 41 V 21 H 23 V 5 Z"/>
 <path style="opacity:0.1" d="m 51.484376,8 c -0.3822,0 -0.877238,0.036408 -1.35547,0.105468 -0.47821,0.068984 -0.94087,0.170472 -1.25,0.3085936 C 48.271882,8.6792548 47.733844,9.00779 47.261718,9.39453 l 0.79297,0.976563 c 0.46089,-0.353591 0.913158,-0.633136 1.351562,-0.832031 0.438404,-0.198894 1.482346,-0.296875 2.078126,-0.296875 0.31475,0 0.599732,0.04327 0.855468,0.128906 0.256246,0.08609 0.482968,0.215448 0.679688,0.386718 0.393438,0.331492 0.589842,0.820723 0.589844,1.472657 0,0.541436 -0.10672,1.034573 -0.320314,1.476562 -0.213582,0.44199 -0.533774,0.891382 -0.960938,1.35547 -0.415922,0.464088 -0.919844,0.997062 -1.515624,1.59375 l -3.683594,3.132812 V 20 h 7.957032 V 18.675781 H 49 v -0.07031 l 3.042968,-2.433594 c 0.618262,-0.585636 1.1563,-1.141489 1.617188,-1.671875 0.460886,-0.530387 0.81958,-1.067939 1.078126,-1.609375 0.25854,-0.541439 0.390624,-1.123403 0.390624,-1.742187 0,-0.486188 -0.08308,-0.92071 -0.246094,-1.304688 C 54.71982,9.459771 54.47443,9.129424 54.148438,8.8476562 53.984866,8.7062738 53.806574,8.5824744 53.613282,8.4765624 53.421462,8.3711758 53.217206,8.2813852 52.996094,8.2109376 h -0.004 C 52.770342,8.1403636 52.536668,8.0900068 52.285156,8.0546876 52.03376,8.019466 51.765402,8 51.484376,8 Z M 32.757812,26 c -0.953192,0 -2.116482,0.13822 -2.871094,0.417968 -0.741372,0.279744 -1.368016,0.614624 -1.871094,0.996094 l 0.875,1.140626 C 29.420176,28.22408 29.957212,27.950542 30.5,27.734376 c 0.542792,-0.216178 1.509494,-0.320314 2.277344,-0.320314 0.794326,0 1.423362,0.18204 1.886718,0.550782 0.463356,0.356042 0.695314,0.866124 0.695314,1.527344 0,0.775656 -0.305082,1.396708 -0.914064,1.867188 -0.595744,0.470482 -1.788114,0.859374 -2.953124,0.859374 H 31 v 1.277344 h 0.472656 c 1.257682,0 2.229552,0.19274 2.917968,0.574218 0.701654,0.368754 1.054688,0.976174 1.054688,1.828126 0,0.839238 -0.2862,1.501176 -0.855468,1.984374 -0.556026,0.470482 -1.467362,0.703126 -2.738282,0.703126 -0.63546,0 -1.299864,-0.07398 -1.98828,-0.226562 -0.688416,-0.15258 -1.330038,-0.375508 -1.925782,-0.66797 v 1.5625 c 0.582506,0.279748 1.192666,0.472498 1.828124,0.574218 0.635464,0.11444 1.321128,0.17188 2.0625,0.17188 1.257684,0 2.2838,-0.1723 3.078126,-0.515624 0.807566,-0.343326 1.405138,-0.819334 1.789062,-1.429688 0.383922,-0.610354 0.57422,-1.316098 0.57422,-2.117188 0,-0.902816 -0.282298,-1.631914 -0.851564,-2.191406 C 35.86194,33.1866 35.019826,32.842 33.894532,32.714844 v -0.07812 c 0.886998,-0.17802 1.90795,-0.532348 2.4375,-1.066406 0.54279,-0.546776 0.816406,-1.27978 0.816406,-2.195312 0,-0.97911 -0.365618,-1.78609 -1.09375,-2.421876 C 35.339796,26.317346 34.240552,26 32.757812,26 Z M 12.832031,46 c -0.783016,0 -1.472401,0.16048 -2.0625,0.476562 -0.578751,0.316092 -1.0220976,0.766886 -1.3398434,1.35547 -0.3177458,0.588586 -0.4804688,1.287988 -0.4804688,2.105468 0,1.122668 0.3215428,1.991992 0.9570312,2.613282 0.64684,0.610384 1.491132,0.917968 2.535156,0.917968 0.737622,0 1.339417,-0.12902 1.804688,-0.390626 0.465271,-0.272494 0.828839,-0.594254 1.089844,-0.964842 h 0.09766 c -0.02269,0.632182 -0.0982,1.238724 -0.234375,1.816406 -0.136176,0.566786 -0.353759,1.067916 -0.660157,1.503906 -0.306397,0.425086 -0.724082,0.761018 -1.246093,1.011718 -0.510663,0.25069 -1.162668,0.374998 -1.957032,0.375 -0.556055,-2e-6 -1.057425,-0.07314 -1.4999996,-0.214844 v 1.23047 c 0.1815696,0.05448 0.4240706,0.09148 0.7304686,0.11328 C 10.872809,57.981894 11.144133,58 11.371094,58 c 1.146155,0 2.082317,-0.19354 2.808594,-0.585938 0.737623,-0.39239 1.30204,-0.920236 1.699218,-1.574218 0.408532,-0.664884 0.684509,-1.396546 0.832032,-2.203126 0.15888,-0.817478 0.242187,-1.649004 0.242187,-2.48828 0,-1.16627 -0.183736,-2.12292 -0.546875,-2.875 -0.363138,-0.763 -0.852419,-1.32863 -1.476562,-1.69922 C 14.305543,46.192726 13.6037,46 12.832031,46 Z m 0,1.210938 c 0.578752,0 1.063384,0.15184 1.449219,0.45703 0.385833,0.305192 0.674272,0.686742 0.867188,1.144532 0.192918,0.457788 0.285156,0.921938 0.285156,1.390624 0,0.348792 -0.10897,0.684728 -0.335938,1.01172 -0.215614,0.326992 -0.520787,0.602318 -0.917968,0.820312 -0.397184,0.207096 -0.869357,0.304692 -1.414063,0.304688 -0.794365,0 -1.387603,-0.207724 -1.773437,-0.632812 -0.374487,-0.43599 -0.558594,-1.029166 -0.558594,-1.78125 0,-0.915574 0.221488,-1.596082 0.664062,-2.04297 0.453923,-0.446886 1.030796,-0.671874 1.734375,-0.671874 z"/>
 <path style="fill:#17191e" d="M 51.484374,7 C 51.102176,7 50.60658,7.034734 50.128348,7.103794 49.650138,7.172778 49.188594,7.277056 48.879464,7.415178 48.27244,7.6803712 47.734402,8.006116 47.262276,8.3928566 l 0.793526,0.9776786 c 0.46089,-0.3535908 0.910928,-0.631462 1.349332,-0.8303572 0.438404,-0.198894 1.48346,-0.297991 2.07924,-0.297991 0.314752,0 0.601406,0.044946 0.857142,0.13058 0.256246,0.08609 0.48297,0.213774 0.67969,0.3850446 0.393438,0.3314918 0.589284,0.8212804 0.589284,1.4732144 0,0.541436 -0.10784,1.034573 -0.321428,1.476563 -0.213582,0.441988 -0.533776,0.891938 -0.960938,1.356026 -0.415922,0.464088 -0.920962,0.997062 -1.516742,1.59375 l -3.683034,3.130582 V 19 h 7.958706 V 17.674107 H 49 v -0.06696 l 3.043526,-2.434152 c 0.618262,-0.585636 1.1563,-1.143721 1.617188,-1.674107 0.460886,-0.530387 0.819578,-1.065706 1.078124,-1.607143 0.25854,-0.541439 0.388392,-1.125635 0.388392,-1.744419 0,-0.486188 -0.0814,-0.9184776 -0.244418,-1.3024554 C 54.71982,8.460888 54.475546,8.128866 54.149554,7.8470982 53.985982,7.7057158 53.80713,7.5813584 53.613838,7.4754466 53.422018,7.3700598 53.215532,7.2813852 52.99442,7.2109376 h -0.0034 C 52.769174,7.1403638 52.53611,7.0888908 52.284598,7.0535714 52.033202,7.0183498 51.765402,7 51.484374,7 Z"/>
 <path style="fill:#17191e" d="m 12.833929,45 c -0.783017,0 -1.472401,0.15936 -2.0625,0.475446 -0.578752,0.316092 -1.0248886,0.767442 -1.3426344,1.356026 C 9.1110488,47.420058 8.95,48.12002 8.95,48.9375 c 0,1.122668 0.322101,1.993666 0.9575894,2.614956 0.6468396,0.610384 1.4905736,0.91741 2.5345986,0.91741 0.737622,0 1.339417,-0.13014 1.804687,-0.391742 0.465271,-0.272494 0.827165,-0.593698 1.08817,-0.964286 h 0.100446 c -0.02269,0.632182 -0.10155,1.237052 -0.237724,1.814734 -0.136176,0.566786 -0.3532,1.067358 -0.659598,1.503348 -0.306397,0.425086 -0.723524,0.763808 -1.245536,1.014508 -0.510662,0.25069 -1.160993,0.374998 -1.955357,0.375 -0.556055,-2e-6 -1.057425,-0.07258 -1.4999996,-0.214286 v 1.228796 c 0.1815696,0.05448 0.4235126,0.09204 0.7299106,0.11384 C 10.87359,56.982454 11.143798,57 11.370759,57 c 1.146155,0 2.082875,-0.19354 2.809152,-0.585938 0.737623,-0.39239 1.303715,-0.919678 1.700893,-1.57366 0.408531,-0.664884 0.682834,-1.396546 0.830357,-2.203126 0.15888,-0.817478 0.241071,-1.648446 0.241071,-2.487722 0,-1.16627 -0.18262,-2.124036 -0.545759,-2.876116 -0.363138,-0.763 -0.852419,-1.330304 -1.476562,-1.700894 C 14.305766,45.191052 13.605598,45 12.833929,45 Z m 0,1.212054 c 0.578752,0 1.060594,0.15016 1.446428,0.455356 0.385833,0.305192 0.674272,0.6873 0.867188,1.14509 0.192918,0.457788 0.287946,0.920822 0.287946,1.38951 0,0.34879 -0.111202,0.687516 -0.33817,1.014508 -0.215614,0.326992 -0.520228,0.59897 -0.91741,0.816964 -0.397184,0.207096 -0.86824,0.30804 -1.412947,0.308036 -0.794365,0 -1.388719,-0.211072 -1.774553,-0.63616 -0.374486,-0.43599 -0.559152,-1.029168 -0.559152,-1.781252 0,-0.915574 0.22372,-1.595522 0.666295,-2.04241 0.453922,-0.446886 1.030795,-0.669642 1.734375,-0.669642 z"/>
 <path style="fill:#8b9cbe" d="m 32.757812,25 c -0.953192,0 -2.116482,0.13822 -2.871094,0.417968 -0.741372,0.279744 -1.368016,0.614624 -1.871094,0.996094 l 0.875,1.140626 C 29.420176,27.22408 29.957212,26.950542 30.5,26.734376 c 0.542792,-0.216178 1.509494,-0.320314 2.277344,-0.320314 0.794326,0 1.423362,0.18204 1.886718,0.550782 0.463356,0.356042 0.695314,0.866124 0.695314,1.527344 0,0.775656 -0.305082,1.39671 -0.914064,1.867188 -0.595744,0.470482 -1.788114,0.859374 -2.953124,0.859374 H 31 v 1.277344 h 0.472656 c 1.257682,0 2.229552,0.19274 2.917968,0.574218 0.701654,0.368754 1.054688,0.976174 1.054688,1.828126 0,0.839238 -0.2862,1.501176 -0.855468,1.984374 -0.556026,0.470482 -1.467362,0.703126 -2.738282,0.703126 -0.63546,0 -1.299864,-0.07398 -1.98828,-0.226562 -0.688416,-0.15258 -1.330038,-0.375508 -1.925782,-0.66797 v 1.5625 c 0.582506,0.279748 1.192664,0.472496 1.828124,0.574218 0.635464,0.11444 1.321128,0.17188 2.0625,0.17188 1.257684,0 2.2838,-0.1723 3.078126,-0.515624 0.807566,-0.343326 1.405138,-0.819334 1.789062,-1.429688 0.383922,-0.610354 0.57422,-1.316098 0.57422,-2.117188 0,-0.902816 -0.282298,-1.631914 -0.851564,-2.191406 C 35.86194,32.186604 35.019826,31.842 33.894532,31.714844 v -0.07812 c 0.886998,-0.17802 1.90795,-0.532348 2.4375,-1.066406 0.54279,-0.546776 0.816406,-1.27978 0.816406,-2.195312 0,-0.97911 -0.365618,-1.78609 -1.09375,-2.421876 C 35.339796,25.31735 34.240552,25 32.757812,25 Z"/>
 <path style="opacity:0.2;fill:#8b9cbe" d="M 7.6992188 5 C 6.2034187 5 5 6.2034188 5 7.6992188 L 5 8.6992188 C 5 7.2034187 6.2034187 6 7.6992188 6 L 56.300781 6 C 57.796581 6 59 7.2034187 59 8.6992188 L 59 7.6992188 C 59 6.2034187 57.796581 5 56.300781 5 L 7.6992188 5 z"/>
</svg>
