<svg xmlns="http://www.w3.org/2000/svg" width="64" height="64" version="1.1">
 <circle style="opacity:0.2" cx="32" cy="33" r="28"/>
 <circle style="fill:#17191e" cx="32" cy="32" r="27.3"/>
 <path style="fill:#0277bd" d="M 4.940625,24.939844 A 28,28 0 0 0 4,32 28,28 0 0 0 32,60 28,28 0 0 0 39.076564,59.073048 Z"/>
 <path style="fill:#558b2f" d="M 12.192187,12.235937 A 28,28 0 0 0 4.940625,24.939844 l 34.135939,34.133204 a 28,28 0 0 0 12.690234,-7.265234 z"/>
 <path style="fill:#f9a825" d="M 24.855078,4.9433594 A 28,28 0 0 0 12.192187,12.235937 l 39.574611,39.571877 a 28,28 0 0 0 7.27617,-12.676564 z"/>
 <path style="fill:#ef6c00" d="M 32,4 A 28,28 0 0 0 24.855078,4.9433594 L 59.042968,39.13125 A 28,28 0 0 0 60,32 28,28 0 0 0 32,4 Z"/>
 <path style="opacity:0.2" d="m 32,18 a 15.999991,9 0 0 0 -16,9 15.999991,9 0 0 0 0.07031,0.777344 l -0.0039,4.527344 C 16.049884,32.484966 16,27.249404 16,31.488282 16.000599,37.181936 23.156952,47.641428 32,48 36.902656,47.8012 41.28103,44.495812 44.214844,40.621094 45.249962,41.47016 46.55673,42 48,42 c 3.313708,0 6,-2.68629 6,-6 0,-3.313708 -2.686292,-6 -6,-6 l -0.0664,0.0664 -0.004,-2.265624 A 15.999991,9 0 0 0 48,27 15.999991,9 0 0 0 32,18 Z m 16,15 c 1.656852,0 3,1.343148 3,3 0,1.656854 -1.343148,3 -3,3 -0.834346,0 -1.589028,-0.340878 -2.132812,-0.890624 1.005534,-1.766918 1.68537,-3.530996 1.96875,-5.093752 C 47.891252,33.012588 47.943926,33 48,33 Z"/>
 <path style="fill:#8b9cbe" d="m 16.071023,26 -0.0057,5.303098 C 16.04882,31.483376 16,26.249676 16,30.488554 16.000599,36.182208 23.156944,46.641428 31.999992,47 40.84304,46.641428 47.999386,36.182208 47.999984,30.488554 c 0,-4.238878 -0.0488,0.994822 -0.06532,0.814544 L 47.929064,26 H 32.000082 Z"/>
 <ellipse style="fill:#4a342a" cx="32" cy="26" rx="16" ry="9"/>
 <path style="fill:#8b9cbe" d="m 48,29 -6,6 c 0,3.31371 2.686292,6 6,6 3.313708,0 6,-2.68629 6,-6 0,-3.313708 -2.686292,-6 -6,-6 z m 0,3 c 1.656852,0 3,1.343148 3,3 0,1.656854 -1.343148,3 -3,3 -1.656852,0 -3,-1.343146 -3,-3 0,-1.656852 1.343148,-3 3,-3 z"/>
 <path style="opacity:0.2;fill:#8b9cbe" d="M 32 4 A 28 28 0 0 0 4 32 A 28 28 0 0 0 4.0175781 32.492188 A 28 28 0 0 1 32 5 A 28 28 0 0 1 59.974609 32.492188 A 28 28 0 0 0 60 32 A 28 28 0 0 0 32 4 z"/>
</svg>
