<svg xmlns="http://www.w3.org/2000/svg" width="64" height="64" version="1">
 <defs>
  <linearGradient id="linearGradient2911-977-39">
   <stop style="stop-color:#ffffe0" offset="0"/>
   <stop style="stop-color:#ffe588;stop-opacity:0" offset="1"/>
  </linearGradient>
 </defs>
 <path style="opacity:0.2" d="M 6.953125,11 C 4.7623068,11 3,12.784 3,15 v 18 18 c 0,2.216 1.7623068,4 3.953125,4 H 57.046876 C 59.237694,55 61,53.216 61,51 V 33 15 c 0,-2.216 -1.762306,-4 -3.953124,-4 z"/>
 <path style="fill:#8dc5ff" d="M 6.9545454,10 C 4.7637272,10 3,11.785149 3,14.001149 V 32 H 61 V 14.001149 C 61,11.785149 59.236272,10 57.045454,10 Z"/>
 <path style="fill:#ffd948" d="M 6.9545454,54 C 4.7637272,54 3,52.214852 3,49.998852 V 32 H 61 V 49.998852 C 61,52.214852 59.236272,54 57.045454,54 Z"/>
 <path style="opacity:0.1;fill-rule:evenodd" d="m 24.02842,17.001605 c -5.074493,0.09748 -9.46687,4.633525 -6.935792,14.464909 -4.434325,0.857762 -7.8047202,5.827324 -5.157943,15.725388 5.898682,-6.00576 7.222985,-2.075468 11.905313,-3.007302 1.17109,2.37345 3.734526,4.820072 8.184258,6.8154 0.644674,-1.783522 3.364386,-4.465098 5.163068,-7.140516 5.135636,2.330884 7.609622,-1.385866 12.680798,5.977298 5.231782,-8.429276 3.230242,-13.919748 -1.04338,-16.069156 C 52.76191,22.508342 41.283788,17.98909 32.96253,22.072852 30.819216,18.713102 27.29045,16.938934 24.02842,17.001605 Z m -0.323012,11.846673 c 1.317612,0.04304 2.526956,0.470094 4.083798,0.494334 5.756036,4.772556 8.824274,3.39121 12.127062,4.20383 -1.543658,0.571976 -3.030856,1.448842 -4.336312,2.65554 -1.198924,-0.461372 -2.779268,-0.832872 -4.824676,-1.089928 -1.605636,-0.201786 -3.064452,0.0522 -4.273504,0.63024 -2.185276,-3.002926 -5.389518,-4.540928 -8.323978,-4.405028 2.437962,-2.081694 4.067864,-2.53733 5.54761,-2.488988 z"/>
 <path style="fill:#777f23;fill-rule:evenodd" d="m 24.02842,16.001605 c -5.074493,0.09748 -9.46687,4.633525 -6.935792,14.464909 -4.434325,0.857762 -7.8047202,5.827324 -5.157943,15.725388 5.898682,-6.00576 7.222985,-2.075468 11.905313,-3.007302 1.17109,2.37345 3.734526,4.820072 8.184258,6.8154 0.644674,-1.783522 3.364386,-4.465098 5.163068,-7.140516 5.135636,2.330884 7.609622,-1.385866 12.680798,5.977298 5.231782,-8.429276 3.230242,-13.919748 -1.04338,-16.069156 C 52.76191,21.508342 41.283788,16.98909 32.96253,21.072852 30.819216,17.713102 27.29045,15.938935 24.02842,16.001605 Z m -0.323012,11.846673 c 1.317612,0.04304 2.526956,0.470094 4.083798,0.494334 5.756036,4.772556 8.824274,3.39121 12.127062,4.20383 -1.543658,0.571976 -3.030856,1.448842 -4.336312,2.65554 -1.198924,-0.461372 -2.779268,-0.832872 -4.824676,-1.089928 -1.605636,-0.201786 -3.064452,0.0522 -4.273504,0.63024 -2.185276,-3.002926 -5.389518,-4.540928 -8.323978,-4.405028 2.437962,-2.081694 4.067864,-2.53733 5.54761,-2.488988 z"/>
 <path style="opacity:0.1" d="m 39.733972,50.88423 c -1.881124,1.235274 -6.719358,-7.7828 -10.107298,-9.550662 -3.694044,0.86699 -8.238808,8.183708 -10.097862,6.845446 -2.126078,-1.530484 0.484618,-10.967646 1.708866,-13.031178 1.577852,-2.659554 -9.082956,-2.86994 -8.183724,-5.120258 0.887136,-2.22008 9.638468,-4.270358 12.394084,-4.65308 0.999336,-2.637768 3.587878,-6.791121 7.128872,-6.340692 3.540996,0.450428 5.515512,5.544966 6.250998,8.157824 3.679732,0.622572 9.708774,3.09268 10.16055,5.48167 0.445698,2.356874 -12.174668,1.948394 -10.566674,4.682162 1.17391,1.995792 2.720916,12.213304 1.312182,13.528768 z"/>
 <path style="fill:#ff793f" d="m 39.733972,49.88423 c -1.881124,1.235274 -6.719358,-7.7828 -10.107298,-9.550662 -3.694044,0.86699 -8.238808,8.183708 -10.097862,6.845446 -2.126078,-1.530484 0.484618,-10.967646 1.708866,-13.031178 1.577852,-2.659554 -9.082956,-2.86994 -8.183724,-5.120258 0.887136,-2.22008 9.638468,-4.270358 12.394084,-4.65308 0.999336,-2.637768 3.587878,-6.79112 7.128872,-6.340692 3.540996,0.450429 5.515512,5.544966 6.250998,8.157824 3.679732,0.622572 9.708774,3.09268 10.16055,5.48167 0.445698,2.356874 -12.174668,1.948394 -10.566674,4.682162 1.17391,1.995792 2.720916,12.213304 1.312182,13.528768 z"/>
 <ellipse style="opacity:0.2" cx="35.304" cy="27.846" rx="6.994" ry="5.008" transform="matrix(0.99517792,0.09808627,-0.14846495,0.98891767,0,0)"/>
 <path style="fill:none;stroke:#ffffe0;stroke-width:0.65319729;stroke-linecap:round" d="m 31.999998,32.08 2.75647,-5.765938"/>
 <path style="fill:none;stroke:#ffffe0;stroke-width:0.65319729;stroke-linecap:round" d="M 27.999998,32.08 25.39675,27.686056"/>
 <path style="fill:none;stroke:#ffffe0;stroke-width:0.65319729;stroke-linecap:round" d="m 30.286794,29.52 0.278202,-7.921338"/>
 <path style="opacity:0.2;fill:#8b9cbe" d="M 6.953125 10 C 4.7623068 10 3 11.784 3 14 L 3 15 C 3 12.784 4.7623068 11 6.953125 11 L 57.046875 11 C 59.237693 11 61 12.784 61 15 L 61 14 C 61 11.784 59.237693 10 57.046875 10 L 6.953125 10 z"/>
</svg>
