<svg xmlns="http://www.w3.org/2000/svg" width="64" height="64" version="1">
 <rect style="opacity:0.2" width="44" height="56" x="-54" y="5" rx="2.75" ry="2.8" transform="scale(-1,1)"/>
 <rect style="fill:#b2bfd9" width="44" height="56" x="-54" y="4" rx="2.75" ry="2.8" transform="scale(-1,1)"/>
 <circle style="fill:#17191e" cx="-38" cy="32" r="18" transform="rotate(-90)"/>
 <circle style="opacity:0.2" cx="-39" cy="-32" r="14" transform="matrix(0,-1,-1,0,0,0)"/>
 <circle style="fill:#fec006" cx="-38" cy="-32" r="14" transform="matrix(0,-1,-1,0,0,0)"/>
 <circle style="fill:#17191e" cx="-38" cy="-32" r="6" transform="matrix(0,-1,-1,0,0,0)"/>
 <circle style="fill:#17191e" cx="13" cy="-18" r="3" transform="rotate(90)"/>
 <circle style="fill:#17191e" cx="13" cy="-46" r="3" transform="rotate(90)"/>
 <path style="opacity:0.1;fill:#8b9cbe" d="M 12.75 4 C 11.2265 4 10 5.2495812 10 6.8007812 L 10 7.8007812 C 10 6.2495813 11.2265 5 12.75 5 L 51.25 5 C 52.7735 5 54 6.2495812 54 7.8007812 L 54 6.8007812 C 54 5.2495813 52.7735 4 51.25 4 L 12.75 4 z"/>
</svg>
