<svg xmlns="http://www.w3.org/2000/svg" width="64" height="64" version="1">
 <path style="opacity:0.2" d="M 32,5 A 28,28 0 0 0 17.636719,9 H 13.648438 C 10.519967,9 8,11.519967 8,14.648438 v 3.992187 A 28,28 0 0 0 4,33 28,28 0 0 0 8,47.363282 v 3.98828 C 8,54.480034 10.519967,57 13.648438,57 h 3.992187 A 28,28 0 0 0 32,61 28,28 0 0 0 46.363282,57 h 3.98828 C 53.480034,57 56,54.480034 56,51.351562 V 47.359376 A 28,28 0 0 0 60,33 28,28 0 0 0 56,18.636719 V 14.648438 C 56,11.519967 53.480034,9 50.351562,9 H 46.359376 A 28,28 0 0 0 32,5 Z"/>
 <circle style="fill:#b2d1e9" cx="32" cy="32" r="28"/>
 <rect style="fill:#b2d1e9" width="48" height="48" x="8" y="8" rx="5.647" ry="5.647"/>
 <circle style="fill:#4f4f4f" cx="32" cy="32" r="24"/>
 <circle style="opacity:0.2" cx="32" cy="33" r="20"/>
 <circle style="fill:#ffcf24" cx="32" cy="32" r="20"/>
 <circle style="fill:#4f4f4f" cx="32" cy="32" r="7"/>
 <circle style="fill:#4f4f4f" cx="51" cy="51" r="2"/>
 <circle style="fill:#4f4f4f" cx="13" cy="51" r="2"/>
 <path style="opacity:0.2;fill:#8b9cbe" d="M 32 12 A 20 20 0 0 0 12 32 A 20 20 0 0 0 12.017578 32.494141 A 20 20 0 0 1 32 13 A 20 20 0 0 1 51.974609 32.490234 A 20 20 0 0 0 52 32 A 20 20 0 0 0 32 12 z"/>
 <circle style="fill:#4f4f4f" cx="51" cy="13" r="2"/>
 <circle style="fill:#4f4f4f" cx="13" cy="13" r="2"/>
 <path style="opacity:0.2;fill:#8b9cbe" d="M 32 4 A 28 28 0 0 0 17.636719 8 L 13.646484 8 C 10.518014 8 8 10.518014 8 13.646484 L 8 14.646484 C 8 11.518014 10.518014 9 13.646484 9 L 17.636719 9 A 28 28 0 0 1 32 5 A 28 28 0 0 1 46.357422 9 L 50.353516 9 C 53.481986 9 56 11.518014 56 14.646484 L 56 13.646484 C 56 10.518014 53.481986 8 50.353516 8 L 46.357422 8 A 28 28 0 0 0 32 4 z M 56 17.636719 L 56 18.636719 A 28 28 0 0 1 59.984375 32.708984 A 28 28 0 0 0 60 32 A 28 28 0 0 0 56 17.636719 z M 8 17.642578 A 28 28 0 0 0 4 32 A 28 28 0 0 0 4.015625 32.291016 A 28 28 0 0 1 8 18.642578 L 8 17.642578 z"/>
</svg>
