<svg xmlns="http://www.w3.org/2000/svg" width="64" height="64" version="1">
 <rect style="opacity:0.2" width="56" height="56" x="4" y="5" rx="2.8" ry="2.8"/>
 <rect style="fill:#656565" width="56" height="56" x="4" y="4" rx="2.8" ry="2.8"/>
 <rect style="opacity:0.2" width="44" height="44" x="10" y="11" rx="2.75" ry="2.75"/>
 <rect style="fill:#d9d9d9" width="44" height="44" x="10" y="10" rx="2.75" ry="2.75"/>
 <circle style="opacity:0.1" cx="32" cy="33" r="12"/>
 <circle style="fill:#8e8e8e" cx="32" cy="32" r="12"/>
 <circle style="opacity:0.2" cx="32" cy="33" r="5"/>
 <circle style="fill:#d9d9d9" cx="32" cy="32" r="5"/>
 <path style="opacity:0.2" d="m 34.461876,20.236343 -1.380367,5.151605 1.2879,0.345092 1.380369,-5.151604 z m -4.922768,-6.91e-4 -1.289396,0.34469 1.380111,5.152561 1.289397,-0.344691 z m 10.474259,2.806568 -3.771494,3.772194 0.944307,0.943209 3.771492,-3.772193 z m -16.027938,1.07e-4 -0.94321,0.944305 3.772194,3.771494 0.943209,-0.944307 z m 19.434228,5.207385 -5.152561,1.380112 0.344691,1.289397 5.15256,-1.380112 z m -22.838222,5.09e-4 -0.345093,1.287902 5.151605,1.380367 0.345093,-1.2879 z m 18.030616,4.831289 -0.345091,1.2879 5.151603,1.380369 0.345093,-1.287902 z m -13.22384,-7.31e-4 -5.15256,1.380112 0.344691,1.289397 5.15256,-1.380112 z m 11.797375,3.161095 -0.94321,0.944307 3.772193,3.771492 0.94321,-0.944305 z m -10.371768,5.03e-4 -3.771492,3.772193 0.944305,0.94321 3.771494,-3.772194 z m 7.556357,2.02472 -1.289397,0.344691 1.380112,5.15256 1.289397,-0.34469 z m -4.739586,-1.37e-4 -1.380369,5.151604 1.287902,0.345093 1.380368,-5.151605 z"/>
 <rect style="opacity:0.1" width="6" height="11" x="7" y="19" rx="1.5" ry="1.375"/>
 <rect style="fill:#8e8e8e" width="6" height="11" x="7" y="18" rx="1.5" ry="1.375"/>
 <rect style="opacity:0.1" width="6" height="11" x="7" y="36" rx="1.5" ry="1.375"/>
 <rect style="fill:#8e8e8e" width="6" height="11" x="7" y="35" rx="1.5" ry="1.375"/>
 <path style="fill:#8b9cbe;opacity:0.1" d="M 6.8007812 4 C 5.2495813 4 4 5.2495813 4 6.8007812 L 4 7.8007812 C 4 6.2495813 5.2495813 5 6.8007812 5 L 57.199219 5 C 58.750419 5 60 6.2495813 60 7.8007812 L 60 6.8007812 C 60 5.2495813 58.750419 4 57.199219 4 L 6.8007812 4 z"/>
 <path style="opacity:0.2;fill:#8b9cbe" d="M 12.75 10 C 11.2265 10 10 11.2265 10 12.75 L 10 13.75 C 10 12.2265 11.2265 11 12.75 11 L 51.25 11 C 52.7735 11 54 12.2265 54 13.75 L 54 12.75 C 54 11.2265 52.7735 10 51.25 10 L 12.75 10 z"/>
 <path style="opacity:0.2;fill:#8b9cbe" d="M 32 27 A 5 5 0 0 0 27 32 A 5 5 0 0 0 27.027344 32.484375 A 5 5 0 0 1 32 28 A 5 5 0 0 1 36.972656 32.515625 A 5 5 0 0 0 37 32 A 5 5 0 0 0 32 27 z"/>
</svg>
