<svg xmlns="http://www.w3.org/2000/svg" width="64" height="64" version="1">
 <path style="opacity:0.2" d="m 4.0314894,31.741541 c -5.603e-4,0.017 7.13e-4,0.0339 0,0.05078 -0.00866,0.314152 -0.029453,0.624565 -0.027343,0.941377 -8e-4,0.09 -0.0038,0.175995 -0.0038,0.265993 0,3.25572 0.5770858,6.363643 1.5898008,9.265372 0.40757,1.300868 0.8786984,2.614135 1.4452844,3.945303 0.9128975,2.144747 1.2772685,3.293718 1.3827859,4.578087 C 8.5816133,48.366511 8.3654186,47.334537 7.0354514,44.208614 6.4688654,42.878647 5.997677,41.564679 5.590087,40.264711 4.6553101,37.584777 4.1129234,34.724848 4.0315254,31.740921 Z M 59.960111,32.20637 c -0.02382,0.585425 -0.05746,1.171171 -0.117177,1.746057 -0.03088,0.304632 -0.07234,0.606485 -0.113278,0.910137 -0.06774,0.494648 -0.145256,0.986716 -0.238274,1.472624 -1.009615,5.316869 -3.564512,10.395544 -7.68741,14.511442 -5.003877,4.995677 -10.56194,7.558214 -17.483969,8.050602 -0.765981,0.062 -1.539962,0.101997 -2.321943,0.101997 -0.04314,0 -0.0858,-0.0038 -0.128897,-0.004 -0.02714,2e-4 -0.05094,0.004 -0.07812,0.004 -0.334152,0 -0.645244,-0.02244 -0.968736,-0.03126 -0.09914,-0.004 -0.197995,-0.0028 -0.296873,-0.0078 -2.363741,-0.08568 -4.46089,-0.39655 -6.296644,-0.972636 -4.013102,-1.259289 -4.441491,-1.260829 -9.33577,-0.0078 -3.220121,0.82442 -6.7368342,1.174731 -8.1911984,0.921858 -0.3919903,0.739981 -0.7039826,1.417965 -0.7039826,1.61796 0,0.81696 4.716684,0.530547 8.894381,-0.539047 4.894079,-1.253029 5.322669,-1.251489 9.33577,0.0078 1.835814,0.576066 3.933103,0.886958 6.296644,0.972636 0.09888,0.005 0.197715,0.0038 0.296873,0.0078 C 31.144979,60.97754 31.456071,61 31.790243,61 c 0.02718,0 0.05098,-0.0038 0.07812,-0.004 0.044,0 0.086,0.004 0.129997,0.004 0.781861,0 1.554982,-0.03932 2.320343,-0.101557 6.922029,-0.492268 12.479892,-3.054925 17.483969,-8.050602 4.122698,-4.115899 6.677635,-9.194573 7.68741,-14.511442 0.09302,-0.485908 0.170536,-0.977976 0.238274,-1.472624 0.04094,-0.303653 0.0824,-0.605505 0.113278,-0.910138 0.06788,-0.653323 0.110257,-1.318127 0.132816,-1.984331 0.005,-0.167876 0.0098,-0.332031 0.0118,-0.499987 0.002,-0.157996 0.012,-0.313993 0.012,-0.469989 0,-0.267653 -0.03168,-0.527147 -0.03906,-0.79294 z"/>
 <path style="fill:#1891d1" d="m 31.9996,4.0002497 c -0.674203,0 -1.339507,0.032889 -2.001551,0.079296 -0.08308,0.00614 -0.165796,0.01224 -0.248814,0.019139 C 19.746682,4.8880658 11.276291,10.893118 6.9957964,19.405308 c -9.466e-4,0.0018 -0.00179,0.0036 -0.00274,0.0055 -0.2768931,0.551066 -0.5602862,1.099293 -0.8011602,1.670659 -1.3107277,2.959927 -2.0225502,6.101049 -2.151947,9.389568 -0.00566,0.106238 -0.00644,0.213355 -0.01094,0.319912 -0.00866,0.314153 -0.026719,0.626525 -0.024609,0.943337 2e-4,0.09 -0.0044,0.175996 -0.0044,0.265994 0,3.255719 0.5786458,6.364843 1.5913608,9.266571 0.4075699,1.300868 0.8771384,2.614536 1.4437244,3.945703 1.4112452,3.315518 1.5864809,4.219496 1.3644264,6.988828 -0.1547282,1.929672 -0.6777633,3.899903 -1.3316072,5.009276 -0.5927854,1.003975 -1.0679737,2.04195 -1.0679737,2.305943 0,0.81696 4.7186841,0.530947 8.8961811,-0.538667 4.894079,-1.253029 5.321868,-1.251089 9.33497,0.0082 1.835814,0.576066 3.930703,0.887738 6.294444,0.973416 0.09888,0.005 0.198895,0.0042 0.298033,0.0082 0.323472,0.0088 0.633784,0.03008 0.967936,0.03008 0.02718,0 0.05216,-0.0026 0.0793,-0.0028 0.0431,1.92e-4 0.08538,0.0028 0.128517,0.0028 0.781861,0 1.553402,-0.03894 2.318743,-0.101177 6.922029,-0.492268 12.481892,-3.054125 17.485969,-8.049802 4.122698,-4.115898 6.676435,-9.196773 7.68621,-14.513642 0.09302,-0.485908 0.170156,-0.976416 0.237874,-1.471064 0.04094,-0.303652 0.08396,-0.605885 0.114838,-0.910517 0.06788,-0.653324 0.108697,-1.316188 0.131256,-1.982371 0.005,-0.167876 0.0118,-0.335152 0.0138,-0.503108 C 59.992,32.31211 60,32.156114 60,32.000118 60,16.747294 47.922298,4.4267972 32.772671,4.0208072 c -0.117657,-0.0034 -0.235034,-0.00634 -0.352731,-0.0082 -0.141997,-0.003 -0.279993,-0.0118 -0.41999,-0.0118 z"/>
 <path style="opacity:0.2;fill-rule:evenodd" d="M 19.999896,37.999246 V 47.999 h 3.999901 v -9.999754 z"/>
 <path style="fill:#b2bfd9;fill-rule:evenodd" d="m 19.999896,36.999442 v 9.999753 h 3.999901 v -9.999753 z"/>
 <path style="opacity:0.2;fill-rule:evenodd" d="m 42.482032,19.000263 a 1.4737702,1.3001147 0 0 0 -0.371285,0.05334 L 17.05916,25.553508 a 1.4737702,1.3001147 0 0 0 -1.059166,1.246663 v 10.399878 a 1.4737702,1.3001147 0 0 0 1.059166,1.246665 l 25.051587,6.499924 a 1.4737702,1.3001147 0 0 0 1.888081,-1.246666 V 26.98552 20.300247 a 1.4737702,1.3001147 0 0 0 -1.516796,-1.299984 z"/>
 <path style="opacity:0.2;fill-rule:evenodd" d="m 43.999304,29 v 8 h 3.999902 v -8 z"/>
 <path style="fill:#b2bfd9;fill-rule:evenodd" d="m 43.999304,27.999461 v 8 h 3.999902 v -8 z"/>
 <path style="fill:#8b9cbe;fill-rule:evenodd" d="m 42.482032,18.000459 a 1.4737702,1.3001147 0 0 0 -0.371285,0.05333 L 17.05916,24.553703 a 1.4737702,1.3001147 0 0 0 -1.059166,1.246663 v 10.399878 a 1.4737702,1.3001147 0 0 0 1.059166,1.246665 l 25.051587,6.499924 a 1.4737702,1.3001147 0 0 0 1.888081,-1.246665 V 25.985716 19.300443 a 1.4737702,1.3001147 0 0 0 -1.516796,-1.299984 z"/>
 <path style="fill:#8b9cbe;opacity:0.2" d="M 32 4 C 31.325797 4 30.660091 4.0336711 29.998047 4.0800781 C 29.914967 4.0862181 29.833018 4.0927104 29.75 4.0996094 C 19.747447 4.8889905 11.276588 10.89406 6.9960938 19.40625 C 6.9951472 19.40805 6.9931375 19.408256 6.9921875 19.410156 C 6.7152944 19.961222 6.4322802 20.510665 6.1914062 21.082031 C 4.8806785 24.041958 4.1684593 27.182184 4.0390625 30.470703 C 4.0334025 30.576941 4.0337969 30.684459 4.0292969 30.791016 C 4.0206369 31.105169 4.0017962 31.417563 4.0039062 31.734375 C 4.0041063 31.824375 4 31.910002 4 32 C 4 32.160307 4.0089302 32.318927 4.0117188 32.478516 C 4.0165694 32.24906 4.0229859 32.019955 4.0292969 31.791016 C 4.0337969 31.684459 4.0334025 31.576941 4.0390625 31.470703 C 4.1684593 28.182184 4.8806785 25.041958 6.1914062 22.082031 C 6.4322802 21.510665 6.7152944 20.961222 6.9921875 20.410156 C 6.9931375 20.408256 6.9951472 20.40805 6.9960938 20.40625 C 11.276588 11.89406 19.747447 5.8889905 29.75 5.0996094 C 29.833018 5.0927104 29.914967 5.0862181 29.998047 5.0800781 C 30.660091 5.0336711 31.325797 5 32 5 L 32 5.0019531 C 32.139997 5.0019531 32.277925 5.0106719 32.419922 5.0136719 C 32.537619 5.0155319 32.65578 5.0180844 32.773438 5.0214844 C 47.75506 5.4229721 59.724471 17.477827 59.988281 32.496094 C 59.988429 32.486303 59.988165 32.476592 59.988281 32.466797 C 59.992279 32.31276 60 32.155996 60 32 C 60 16.747176 47.923065 4.4274744 32.773438 4.0214844 C 32.65578 4.0180844 32.537619 4.0135788 32.419922 4.0117188 C 32.277925 4.0087187 32.139997 4 32 4 z M 8.4550781 50.960938 C 8.4447779 51.350398 8.4387914 51.72226 8.4003906 52.201172 C 8.2456624 54.130844 7.7222033 56.101565 7.0683594 57.210938 C 6.475574 58.214912 6 59.251632 6 59.515625 C 6 59.625176 6.0968903 59.712549 6.2539062 59.783203 C 6.4492508 59.339913 6.7333074 58.778401 7.0683594 58.210938 C 7.7222033 57.101564 8.2456624 55.130844 8.4003906 53.201172 C 8.4722012 52.305593 8.4947329 51.611 8.4550781 50.960938 z"/>
</svg>
