<svg xmlns="http://www.w3.org/2000/svg" width="64" height="64" version="1">
 <path style="opacity:0.2" d="m 7,4 h 50 c 1.662,0 3,1.338 3,3 v 43.17133 l -4.803643,5.081891 c -1.141681,1.207811 -4.223037,0.187956 -5.183474,1.54435 L 47.745302,60 H 7 C 5.338,60 4,58.662 4,57 V 7 C 4,5.338 5.338,4 7,4 Z"/>
 <path style="fill:#666666" d="m 60,31 v 18.734635 l -4.221383,4.518586 c -1.134593,1.214472 -2.244871,0.67712 -3.436695,1.83548 L 49.346517,59 H 30 V 31 Z"/>
 <path style="fill:#8c8c8c" d="M 4,29 V 56 C 4,57.662 5.338,59 7,59 H 32 V 29 Z"/>
 <path style="fill:#a6a6a6" d="M 7,3 C 5.338,3 4,4.338 4,6 V 31 H 34 V 3 Z"/>
 <path style="fill:#595959" d="M 57,3 C 58.662,3 60,4.338 60,6 V 31 H 32 V 3 Z"/>
 <path style="opacity:0.2;fill:#8b9cbe" d="M 7 3 C 5.338 3 4 4.338 4 6 L 4 7 C 4 5.338 5.338 4 7 4 L 57 4 C 58.662 4 60 5.338 60 7 L 60 6 C 60 4.338 58.662 3 57 3 L 7 3 z"/>
 <circle style="opacity:0.2" cx="46" cy="47" r="16"/>
 <circle style="fill:#07ce8e" cx="46" cy="46" r="16"/>
 <path style="opacity:0.2" d="m 18,13 v 6 h -6 v 2 h 6 v 6 h 2 v -6 h 6 v -2 h -6 v -6 z m 22,6 v 2 H 52 V 19 Z M 12.476562,40 11,41.478516 16.523438,47 11,52.521484 12.476562,54 17.998047,48.476562 23.521484,54 25,52.521484 19.474609,47 25,41.478516 23.521484,40 17.998047,45.523438 Z"/>
 <path style="fill:#8b9cbe" d="M 18 12 L 18 18 L 12 18 L 12 20 L 18 20 L 18 26 L 20 26 L 20 20 L 26 20 L 26 18 L 20 18 L 20 12 L 18 12 z M 40 18 L 40 20 L 52 20 L 52 18 L 40 18 z M 12.476562 39 L 11 40.478516 L 16.523438 46 L 11 51.521484 L 12.476562 53 L 17.998047 47.476562 L 23.521484 53 L 25 51.521484 L 19.474609 46 L 25 40.478516 L 23.521484 39 L 17.998047 44.523438 L 12.476562 39 z"/>
 <path style="fill:#8b9cbe" d="M 40,42 V 44 H 52 V 42 Z M 40,48 V 50 H 52 V 48 Z"/>
</svg>
