<svg xmlns="http://www.w3.org/2000/svg" width="64" height="64" version="1.0">
 <g transform="matrix(5.0000031,0,0,5.0000031,-2535.5554,-1702.0011)">
  <path style="opacity:0.2" d="m 512.00507,346.51991 a 0.11715273,0.12401995 0 0 0 -0.065,0.0258 l -1.9828,1.57226 a 0.11715273,0.12401995 0 0 0 -0.0466,0.0996 v 2.09672 a 0.11715273,0.12401995 0 0 0 0.1888,0.1 l 1.98064,-1.57226 a 0.11715273,0.12401995 0 0 0 0.046,-0.0996 v -2.09672 a 0.11715273,0.12401995 0 0 0 -0.1206,-0.1258 z m 3.00935,0 a 0.11715273,0.12401995 0 0 0 -0.119,0.1258 v 2.09672 a 0.11715273,0.12401995 0 0 0 0.046,0.0996 l 1.98064,1.57226 a 0.11715273,0.12401995 0 0 0 0.1888,-0.1 v -2.09672 a 0.11715273,0.12401995 0 0 0 -0.0466,-0.0996 l -1.98282,-1.57226 a 0.11715273,0.12401995 0 0 0 -0.0648,-0.0258 0.11715273,0.12401995 0 0 0 -0.002,0 z"/>
  <g style="opacity:0.2" transform="matrix(0.34288529,0,0,0.53346265,460.24346,223.31058)">
   <path transform="matrix(0.67306393,0,0,0.49987606,139.21594,219.98946)" d="m 18.800781,32.75 c -0.386412,7.322975 3.212277,7.997454 5.169922,11.25 1.957645,-3.252546 5.558287,-3.927025 5.171875,-11.25 h -5.044922 -4.933594 z"/>
  </g>
  <path style="fill:#e6461d" d="m 512.00507,346.32003 a 0.11715273,0.12401995 0 0 0 -0.065,0.0258 l -1.9828,1.57225 a 0.11715273,0.12401995 0 0 0 -0.0466,0.0996 v 2.09672 a 0.11715273,0.12401995 0 0 0 0.1888,0.1 l 1.98064,-1.57226 a 0.11715273,0.12401995 0 0 0 0.046,-0.0996 v -2.09671 a 0.11715273,0.12401995 0 0 0 -0.1206,-0.1258 z m 3.00935,0 a 0.11715273,0.12401995 0 0 0 -0.119,0.1258 v 2.09671 a 0.11715273,0.12401995 0 0 0 0.046,0.0996 l 1.98064,1.57226 a 0.11715273,0.12401995 0 0 0 0.1888,-0.1 v -2.09672 a 0.11715273,0.12401995 0 0 0 -0.0466,-0.0996 l -1.98282,-1.57225 a 0.11715273,0.12401995 0 0 0 -0.0648,-0.0258 0.11715273,0.12401995 0 0 0 -0.002,0 z"/>
  <path style="opacity:0.2;fill:#8b9cbe" transform="matrix(0.19999988,0,0,0.19999988,507.11077,340.40001)" d="M 24.472656 29.601562 A 0.58576401 0.62010013 0 0 0 24.144531 29.730469 L 14.230469 37.589844 A 0.58576401 0.62010013 0 0 0 14 38.089844 L 14 39.070312 A 0.58576401 0.62010013 0 0 1 14.230469 38.589844 L 24.144531 30.730469 A 0.58576401 0.62010013 0 0 1 24.472656 30.601562 A 0.58576401 0.62010013 0 0 1 25.078125 31.230469 L 25.078125 30.230469 A 0.58576401 0.62010013 0 0 0 24.472656 29.601562 z M 39.460938 29.601562 A 0.58576401 0.62010013 0 0 0 38.921875 30.230469 L 38.921875 31.224609 A 0.58576401 0.62010013 0 0 1 39.460938 30.601562 A 0.58576401 0.62010013 0 0 1 39.519531 30.601562 A 0.58576401 0.62010013 0 0 1 39.529297 30.601562 A 0.58576401 0.62010013 0 0 1 39.853516 30.730469 L 49.767578 38.589844 A 0.58576401 0.62010013 0 0 1 50.001953 39.089844 L 50.001953 38.089844 A 0.58576401 0.62010013 0 0 0 49.767578 37.589844 L 39.853516 29.730469 A 0.58576401 0.62010013 0 0 0 39.529297 29.601562 A 0.58576401 0.62010013 0 0 0 39.519531 29.601562 A 0.58576401 0.62010013 0 0 0 39.460938 29.601562 z"/>
  <g style="fill:#ff7c19" transform="matrix(0.34288529,0,0,0.53346265,460.24346,223.11059)">
   <path style="fill:#ff7c19" transform="matrix(0.67306393,0,0,0.49987606,139.21594,219.98946)" d="m 18.800781,32.75 c -0.386412,7.322975 3.212277,7.997454 5.169922,11.25 1.957645,-3.252546 5.558287,-3.927025 5.171875,-11.25 h -5.044922 -4.933594 z"/>
  </g>
  <path style="opacity:0.2" d="m 512.08445,343.60001 c -0.29656,1.02414 -0.53482,2.04784 -0.57048,3.07999 -0.0288,0.83252 0.1378,1.67034 0.66636,2.52 h 2.66067 c 0.52724,-0.82596 0.69716,-1.66134 0.66634,-2.52 -0.0364,-1.01193 -0.25418,-2.05165 -0.57048,-3.07999 z"/>
  <path style="fill:#b2bfd9" d="m 512.08445,343.40001 c -0.29656,1.02414 -0.53482,2.04784 -0.57048,3.08 -0.0288,0.83251 0.1378,1.67033 0.66636,2.51999 h 2.66067 c 0.52724,-0.82596 0.69716,-1.66134 0.66634,-2.51999 -0.0364,-1.01194 -0.25418,-2.05166 -0.57048,-3.08 z"/>
  <path style="opacity:0.1" transform="scale(-1,1)" d="m -512.7108,345.20001 a 0.7999993,0.7999993 0 0 1 -0.79954,0.8 0.7999993,0.7999993 0 0 1 -0.80046,-0.79908 0.7999993,0.7999993 0 0 1 0.79861,-0.80092 0.7999993,0.7999993 0 0 1 0.80138,0.79816"/>
  <path style="fill:#007ede" transform="scale(-1,1)" d="m -512.7108,345.00003 a 0.7999993,0.7999993 0 0 1 -0.79954,0.8 0.7999993,0.7999993 0 0 1 -0.80046,-0.79908 0.7999993,0.7999993 0 0 1 0.79861,-0.80092 0.7999993,0.7999993 0 0 1 0.80138,0.79816"/>
  <g style="opacity:0.2" transform="matrix(0.2285476,0,0,0.33947761,478.00593,269.16094)">
   <path transform="matrix(0.8974186,0,0,0.74981144,133.81209,211.80408)" d="m 20.121094,32.75 c -0.289809,4.882001 2.410673,5.331628 3.878906,7.5 1.468233,-2.168372 4.168715,-2.617999 3.878906,-7.5 h -3.783203 -3.701172 z"/>
  </g>
  <g style="fill:#ffe113" transform="matrix(0.2285476,0,0,0.33947761,478.00593,268.96095)">
   <path style="fill:#ffe113" transform="matrix(0.8974186,0,0,0.74981144,133.81209,211.80408)" d="m 20.121094,32.75 c -0.289809,4.882001 2.410673,5.331628 3.878906,7.5 1.468233,-2.168372 4.168715,-2.617999 3.878906,-7.5 h -3.783203 -3.701172 z"/>
  </g>
  <path style="fill:#e6461d" d="m 513.50782,346.60006 a 0.19979954,0.27642315 0 0 0 -0.19703,0.2807 v 3.04198 a 0.19997604,0.27666733 0 1 0 0.39995,0 v -3.04198 a 0.19979954,0.27642315 0 0 0 -0.20292,-0.2807 z"/>
  <path style="fill:#e6461d" d="m 513.5108,341.20001 c 10e-4,-0.002 1.42606,2.2 1.42606,2.2 h -1.42606 -1.42635 z"/>
  <path style="opacity:0.2;fill:#8b9cbe" transform="matrix(0.19999988,0,0,0.19999988,507.11077,340.40001)" d="M 32 4 L 24.867188 15 L 25.515625 15 L 32 5 C 32.006091 4.991091 37.410076 13.345493 38.480469 15 L 39.128906 15 C 39.128906 15 32.0067 3.9902 32 4 z"/>
 </g>
</svg>
