<svg xmlns="http://www.w3.org/2000/svg" width="64" height="64" version="1">
 <path style="opacity:0.2" d="m 6.0000004,49.200151 0,1.999969 C 6.0000004,55.10006 9.9007403,59 13.80068,59 l 36.39944,0 C 54.10006,59 58,55.10006 58,51.20012 c 0,-0.567991 -0.022,-1.125983 -0.04,-1.683974 -0.201997,3.789942 -3.965939,7.483885 -7.75988,7.483885 l -36.39944,0 c -3.8991397,0 -7.7998796,-3.89994 -7.7998796,-7.79988 z"/>
 <path style="fill:#f59335" d="m 57.9992,50.200151 c 0,-25.9996 -18.19972,-44.1993194 -44.19932,-44.1993194 -3.8999397,0 -7.7998796,3.8999399 -7.7998796,7.7998794 l 0,36.39944 c 0,3.89994 3.8999399,7.79988 7.7998796,7.79988 l 36.39944,0 c 3.89994,0 7.79988,-3.89994 7.79988,-7.79988 z"/>
 <path style="opacity:0.2" d="m 11.999908,20.000601 c 0,2.111967 0.898186,2.999953 2.999954,2.999953 14.91177,0 26.999584,12.087814 26.999584,26.999585 0,1.865971 1.017984,2.999953 2.999954,2.999953 2.039968,0 2.999954,-1.191981 2.999954,-2.999953 0,-18.22572 -14.773773,-32.999492 -32.999492,-32.999492 -1.994769,0 -2.999954,0.970985 -2.999954,2.999954 z m 0,11.999815 c 0,2.054768 0.840447,2.999954 2.999954,2.999954 8.284272,0 14.999769,6.715696 14.999769,14.999769 0,1.765992 1.013764,2.999953 2.999954,2.999953 1.93797,0 2.999953,-1.075983 2.999953,-2.999953 0,-11.597822 -9.401855,-20.999677 -20.999676,-20.999677 -1.93717,0 -2.999954,0.855987 -2.999954,2.999954 z m 5.999908,8.999861 c -3.313749,0 -5.999908,2.685959 -5.999908,5.999908 0,3.313949 2.686159,5.999907 5.999908,5.999907 3.313949,0 5.999907,-2.685958 5.999907,-5.999907 0,-3.313949 -2.685958,-5.999908 -5.999907,-5.999908 z"/>
 <path style="fill:#8b9cbe" d="m 11.999908,19.000631 c 0,2.111968 0.898186,2.999954 2.999954,2.999954 14.91177,0 26.999584,12.087814 26.999584,26.999584 0,1.865972 1.017984,2.999954 2.999954,2.999954 2.039968,0 2.999954,-1.191981 2.999954,-2.999954 0,-18.225719 -14.773773,-32.999491 -32.999492,-32.999491 -1.994769,0 -2.999954,0.970985 -2.999954,2.999953 z m 0,11.999816 c 0,2.054768 0.840447,2.999953 2.999954,2.999953 8.284272,0 14.999769,6.715697 14.999769,14.999769 0,1.765993 1.013764,2.999954 2.999954,2.999954 1.93797,0 2.999953,-1.075983 2.999953,-2.999954 0,-11.597821 -9.401855,-20.999676 -20.999676,-20.999676 -1.93717,0 -2.999954,0.855987 -2.999954,2.999954 z m 5.999908,8.999861 c -3.313749,0 -5.999908,2.685959 -5.999908,5.999908 0,3.313949 2.686159,5.999907 5.999908,5.999907 3.313949,0 5.999907,-2.685958 5.999907,-5.999907 0,-3.313949 -2.685958,-5.999908 -5.999907,-5.999908 z"/>
 <path style="opacity:0.1;fill:#8b9cbe" d="M 13.800781 6 C 9.9008415 6 6 9.9008417 6 13.800781 L 6 14.800781 C 6 10.900841 9.9008415 7 13.800781 7 C 39.514426 7 57.585778 24.806895 57.980469 50.349609 C 57.989182 50.299663 58 50.24964 58 50.199219 C 58 24.199619 39.800381 6 13.800781 6 z"/>
</svg>
