<svg xmlns="http://www.w3.org/2000/svg" width="64" height="64" version="1">
 <path style="opacity:0.2" d="M 4.2488282,18.86 C 4.0966376,19.772246 4,20.84324 4,21.8 V 44.2 C 4,53.5072 11.4928,61 20.8,61 H 43.2 C 52.5072,61 60,53.5072 60,44.2 V 21.8 c 0,-0.95676 -0.09664,-2.027754 -0.248828,-2.94 z"/>
 <path style="fill:#b2bfd9" d="M 4.2488282,17.86 C 4.0966376,18.772246 4,19.84324 4,20.8 V 43.2 C 4,52.5072 11.4928,60 20.8,60 H 43.2 C 52.5072,60 60,52.5072 60,43.2 V 20.8 c 0,-0.95676 -0.09664,-2.027754 -0.248828,-2.94 z"/>
 <path style="fill:#df711b" d="M 20.8,4 C 12.44956,4 5.5771196,10.038084 4.2488282,18 H 59.751172 C 58.42288,10.038084 51.55044,4 43.2,4 Z"/>
 <path style="opacity:0.1" d="m 17.902933,25.000006 0.459522,11.607906 c 0.03074,0.848866 0.170922,1.542356 0.416836,2.079972 0.245913,0.537612 0.690359,0.9357 1.335881,1.19036 0.64552,0.254658 2.389224,0.381622 3.634156,0.381622 0.491826,-2e-6 0.931552,-0.044 1.315792,-0.1289 0.399608,-0.08488 0.776474,-0.274066 1.129972,-0.571172 0.368874,-0.311248 0.75297,-0.792292 1.152576,-1.443088 0.553304,0.735682 1.229718,1.32902 2.028934,1.781748 0.799216,0.438578 1.581868,0.6571 2.350346,0.6571 0.407702,0 1.784112,-0.0913 2.142162,-0.237568 l 0.35908,9.030058 c 0.03074,0.848864 0.1684,1.542356 0.414324,2.07997 0.245912,0.537616 0.69287,0.935702 1.338392,1.19036 C 36.626426,52.873036 37.57095,53 38.815886,53 h 1.097098 c 1.35252,0 2.43,-0.10016 3.229216,-0.298222 0.799214,-0.212216 1.398306,-0.480812 1.797914,-0.80621 0.39961,-0.3254 0.660494,-0.670882 0.78345,-1.038722 0.12294,-0.367842 0.18582,-0.707254 0.18582,-1.018504 0,-1.089376 -0.485618,-2.166284 -1.4539,-3.227366 -0.952912,-1.07523 -2.327426,-2.285174 -4.125662,-3.62921 0.491826,-0.311248 1.020824,-0.615254 1.589496,-0.912356 0.584044,-0.31125 1.313578,-0.66533 2.18964,-1.061468 0.850438,-0.391416 1.964876,-0.893912 3.276926,-1.478474 0.1789,0.17556 0.390844,0.319936 0.64283,0.43217 0.491826,0.19806 1.161006,0.298224 2.00633,0.298224 1.229568,-2e-6 2.198294,-0.318672 2.905292,-0.955322 C 53.647336,38.653746 54,37.670918 54,36.355178 c 0,-0.424434 -0.06036,-0.920146 -0.1833,-1.486054 -0.12296,-0.56591 -0.2776,-1.13244 -0.462034,-1.698348 -0.18444,-0.580058 -0.367998,-1.102582 -0.552432,-1.569456 l -1.868226,0.63688 c 0.33813,0.806422 0.637676,1.618278 0.89896,2.438848 0.276652,0.82057 0.41432,1.49332 0.41432,2.016788 0,0.735684 -0.19802,1.222798 -0.597628,1.46331 -0.39961,0.24051 -0.931118,0.361404 -1.59201,0.361404 -0.599412,0 -1.051088,-0.05008 -1.358478,-0.14912 -0.292024,-0.09904 -0.492556,-0.232068 -0.600144,-0.401842 -0.09222,-0.18392 -0.13812,-0.375628 -0.13812,-0.573698 0,-0.24051 0.02168,-0.538444 0.0678,-0.892136 0.04612,-0.367842 0.10174,-0.734066 0.16322,-1.101906 0.07682,-0.367842 0.13718,-0.680442 0.1833,-0.935102 l -1.75271,-0.295686 c -0.16422,1.016948 -0.322354,1.801048 -0.472078,2.390828 l -0.54239,-1.089266 c -1.444038,0.690382 -2.700188,1.328162 -3.867024,1.943496 -1.36e-4,-0.0076 -0.005,-0.0126 -0.005,-0.02022 0,-0.396138 0.06036,-0.841774 0.1833,-1.336942 0.12294,-0.495174 0.231706,-0.92614 0.323926,-1.29398 L 40.513134,34.31817 c -0.245912,1.018636 -0.460906,1.809754 -0.645342,2.375664 -0.18444,0.565912 -0.384966,0.982208 -0.60014,1.251016 -0.1998,0.25466 -0.450948,0.41956 -0.758338,0.490296 -0.30739,0.0566 -0.70846,0.0834 -1.200284,0.0834 -9.54e-4,-2e-6 -0.0015,0 -0.0026,0 -0.399606,0 -0.762014,-0.05616 -1.084774,-0.16932 -0.307388,-0.12734 -0.606936,-0.381254 -0.898956,-0.763244 -0.276654,-0.38199 -0.590656,-0.969258 -0.944158,-1.761532 -0.384236,-0.848864 -0.753876,-1.515546 -1.107372,-1.99657 -0.338134,-0.49517 -0.705256,-0.840654 -1.104868,-1.038722 -0.399608,-0.212216 -0.853796,-0.31844 -1.36099,-0.31844 -0.36887,0 -0.784398,0.09156 -1.245482,0.275476 -0.445716,0.18392 -0.921596,0.517262 -1.42879,0.998286 -0.491824,0.481022 -0.984676,1.174516 -1.4765,2.07997 -0.36887,0.679092 -0.675646,1.216284 -0.921556,1.61242 -0.230544,0.38199 -0.476968,0.656656 -0.73825,0.826428 -0.245914,0.16978 -0.584118,0.255258 -1.014468,0.255258 -0.876064,0 -2.32022,-0.07082 -2.735198,-0.212292 -0.399608,-0.14148 -0.660492,-0.395406 -0.783448,-0.763248 -0.1076,-0.38199 -0.17766,-0.91918 -0.208418,-1.61242 L 19.791248,25 Z m 29.111311,1.486054 c -0.322758,0 -0.598102,0.10622 -0.828646,0.31844 -0.215174,0.212216 -0.323926,0.460072 -0.323926,0.743028 0,0.282954 0.10874,0.530812 0.323926,0.743028 0.230542,0.19806 0.505886,0.295694 0.828646,0.295694 0.307392,0 0.57079,-0.09762 0.785962,-0.295694 0.230542,-0.212216 0.344014,-0.460076 0.344014,-0.743028 0,-0.282956 -0.11348,-0.530812 -0.344014,-0.743028 -0.215172,-0.212216 -0.47857,-0.31844 -0.785962,-0.31844 z m -1.566896,2.335228 c -0.322762,0 -0.598106,0.10622 -0.828646,0.318442 -0.215176,0.212214 -0.323928,0.460072 -0.323928,0.743026 0,0.282954 0.10874,0.528284 0.323928,0.7405 0.23054,0.19806 0.505884,0.298224 0.828646,0.298224 0.30739,0 0.568274,-0.10016 0.78345,-0.298224 0.230542,-0.212216 0.346524,-0.457546 0.346524,-0.7405 0,-0.282954 -0.11598,-0.530812 -0.346524,-0.743026 -0.215176,-0.212216 -0.47606,-0.318442 -0.78345,-0.318442 z m 3.136308,0 c -0.322764,0 -0.600618,0.10622 -0.83116,0.318442 -0.215174,0.212214 -0.321416,0.460072 -0.321416,0.743026 0,0.282954 0.10624,0.528284 0.321416,0.7405 0.230542,0.19806 0.508396,0.298224 0.83116,0.298224 0.30739,0 0.568272,-0.10016 0.78345,-0.298224 0.23054,-0.212216 0.346522,-0.457546 0.346522,-0.7405 0,-0.282954 -0.11598,-0.530812 -0.346522,-0.743026 -0.215178,-0.212216 -0.47606,-0.318442 -0.78345,-0.318442 z m -34.305076,4.137196 -1.682406,0.785992 c 0.414978,0.693238 0.736212,1.27191 0.966757,1.738786 0.230542,0.466876 0.392414,0.885702 0.484633,1.253542 0.09222,0.367842 0.138112,0.748734 0.138112,1.144868 0,0.622502 -0.159362,1.280586 -0.482123,1.973826 -0.307389,0.67909 -0.884791,1.331104 -1.730116,1.953604 -0.829955,0.6225 -2.0209056,1.159694 -3.57323,1.612422 l 0.6679404,1.61242 c 0.4764562,-0.11318 1.0151956,-0.296294 1.6146076,-0.550954 0.614782,-0.254658 1.221102,-0.581928 1.820514,-0.978066 0.614782,-0.396136 1.175211,-0.87718 1.682407,-1.44309 0.522564,-0.551762 0.938092,-1.186578 1.245483,-1.908114 0.322759,-0.721536 0.484634,-1.52985 0.484634,-2.421158 0,-0.6225 -0.130444,-1.342804 -0.391726,-2.163372 -0.245912,-0.820568 -0.66144,-1.691102 -1.245482,-2.610706 z m 16.388702,1.21058 c 0.3535,0 0.660276,0.13302 0.921558,0.401842 0.261282,0.254658 0.490734,0.588 0.690538,0.998284 0.1998,0.410284 0.39311,0.826584 0.577542,1.251016 0.15248,0.350902 0.214334,0.654996 0.203396,0.919938 l -0.268692,0.662154 c -0.247554,0.284158 -0.60512,0.434696 -1.087286,0.434696 -0.507196,0 -1.084594,-0.18312 -1.730116,-0.550952 -0.645522,-0.381988 -1.227642,-0.977856 -1.750204,-1.784276 0.491826,-0.891308 0.936272,-1.499314 1.33588,-1.824714 0.399608,-0.325398 0.769244,-0.49384 1.107374,-0.507988 z m 15.395276,2.694106 c -0.136,0.44999 -0.285516,0.813902 -0.454504,1.041248 -0.18444,0.268808 -0.421116,0.43725 -0.713138,0.50799 -0.292022,0.07074 -0.66889,0.10614 -1.129974,0.10614 -0.324784,0 -0.583948,-0.02528 -0.823626,-0.06066 0.976776,-0.50789 1.895392,-0.99404 3.121242,-1.594728 z M 41.0982,39.40311 c 0.10878,0.13242 0.225782,0.25248 0.361592,0.34624 0.20486,0.132 0.422518,0.2253 0.647854,0.30075 -0.07752,0.03572 -0.205824,0.09672 -0.281238,0.13142 -1.306414,0.608352 -2.265398,1.21636 -2.88018,1.824714 -0.16906,0.15562 -0.292286,0.374142 -0.369124,0.657098 -0.07684,0.282954 -0.1155,0.586956 -0.1155,0.912358 0,0.12734 0.18356,0.333704 0.552432,0.61666 0.368868,0.282956 0.837516,0.628438 1.406192,1.038722 0.568672,0.410284 1.138842,0.885258 1.707514,1.422872 0.829958,0.76398 1.375926,1.386654 1.637208,1.867678 0.276654,0.481022 0.414322,0.88518 0.414322,1.210578 0,0.18392 -0.04588,0.367032 -0.13812,0.550952 -0.07684,0.16978 -0.24595,0.332146 -0.507232,0.48777 -0.245914,0.14148 -0.63724,0.262372 -1.175174,0.361404 -0.537936,0.08488 -1.253006,0.12636 -2.14444,0.12636 h -1.167414 c -0.876066,0 -1.523558,-0.07082 -1.938534,-0.212294 -0.39961,-0.14148 -0.660494,-0.395406 -0.78345,-0.763246 -0.1076,-0.381988 -0.17516,-0.919182 -0.205908,-1.61242 l -0.440052,-8.50213 c 0.200346,0.14356 0.31959,0.17698 0.572966,0.271742 v 0 l 1.541808,0.77983 c 0.90202,-0.517244 2.018402,-1.12964 3.304548,-1.817132 z m -15.139144,3.495262 -1.197774,1.314198 0.66794,0.553478 c -1.091236,0.933752 -1.859428,1.825022 -2.305146,2.673888 -0.430348,0.834718 -0.645342,1.534282 -0.645342,2.10019 0,1.145968 0.374356,1.99576 1.127464,2.547522 0.753104,0.537614 1.700144,0.80621 2.83749,0.80621 0.783848,0 1.43606,-0.1209 1.958622,-0.361404 0.522566,-0.25466 0.930866,-0.573332 1.222886,-0.955322 0.292022,-0.396136 0.499784,-0.800292 0.62274,-1.210578 0.12294,-0.410284 0.1833,-0.776506 0.1833,-1.101904 0,-0.834716 -0.207762,-1.628364 -0.62274,-2.378194 -0.414978,-0.74983 -0.960948,-1.455464 -1.637208,-2.120408 -0.67626,-0.664944 -1.413022,-1.287618 -2.212238,-1.867676 z m 0.575032,2.71685 c 0.645522,0.50932 1.131138,0.975696 1.4539,1.400128 0.322758,0.410282 0.537754,0.791172 0.645342,1.144868 0.1076,0.353692 0.1607,0.693106 0.1607,1.018504 0,0.594206 -0.19802,1.075248 -0.59763,1.443088 -0.39961,0.353694 -0.98424,0.530734 -1.752718,0.530734 -0.614778,0 -1.12932,-0.1477 -1.544298,-0.444804 -0.399606,-0.297104 -0.60014,-0.742738 -0.60014,-1.336944 0,-0.50932 0.19078,-1.105184 0.57503,-1.784276 0.399608,-0.679094 0.952806,-1.334648 1.659808,-1.971298 z"/>
 <path style="fill:#4f4f4f" d="m 17.902933,24.000006 0.459522,11.607906 c 0.03074,0.848866 0.170922,1.542356 0.416836,2.079972 0.245913,0.537612 0.690359,0.9357 1.335881,1.19036 0.64552,0.254658 2.389224,0.381622 3.634156,0.381622 0.491826,-2e-6 0.931552,-0.044 1.315792,-0.1289 0.399608,-0.08488 0.776474,-0.274066 1.129972,-0.571172 0.368874,-0.311248 0.75297,-0.792292 1.152576,-1.443088 0.553304,0.735682 1.229718,1.32902 2.028934,1.781748 0.799216,0.438578 1.581868,0.6571 2.350346,0.6571 0.407702,0 1.784112,-0.0913 2.142162,-0.237568 l 0.35908,9.030058 c 0.03074,0.848864 0.1684,1.542356 0.414324,2.07997 0.245912,0.537616 0.69287,0.935702 1.338392,1.19036 C 36.626426,51.873036 37.57095,52 38.815886,52 h 1.097098 c 1.35252,0 2.43,-0.10016 3.229216,-0.298222 0.799214,-0.212216 1.398306,-0.480812 1.797914,-0.80621 0.39961,-0.3254 0.660494,-0.670882 0.78345,-1.038722 0.12294,-0.367842 0.18582,-0.707254 0.18582,-1.018504 0,-1.089376 -0.485618,-2.166284 -1.4539,-3.227366 -0.952912,-1.07523 -2.327426,-2.285174 -4.125662,-3.62921 0.491826,-0.311248 1.020824,-0.615254 1.589496,-0.912356 0.584044,-0.31125 1.313578,-0.66533 2.18964,-1.061468 0.850438,-0.391416 1.964876,-0.893912 3.276926,-1.478474 0.1789,0.17556 0.390844,0.319936 0.64283,0.43217 0.491826,0.19806 1.161006,0.298224 2.00633,0.298224 1.229568,-2e-6 2.198294,-0.318672 2.905292,-0.955322 C 53.647336,37.653746 54,36.670918 54,35.355178 c 0,-0.424434 -0.06036,-0.920146 -0.1833,-1.486054 -0.12296,-0.56591 -0.2776,-1.13244 -0.462034,-1.698348 -0.18444,-0.580058 -0.367998,-1.102582 -0.552432,-1.569456 l -1.868226,0.63688 c 0.33813,0.806422 0.637676,1.618278 0.89896,2.438848 0.276652,0.82057 0.41432,1.49332 0.41432,2.016788 0,0.735684 -0.19802,1.222798 -0.597628,1.46331 -0.39961,0.24051 -0.931118,0.361404 -1.59201,0.361404 -0.599412,0 -1.051088,-0.05008 -1.358478,-0.14912 -0.292024,-0.09904 -0.492556,-0.232068 -0.600144,-0.401842 -0.09222,-0.18392 -0.13812,-0.375628 -0.13812,-0.573698 0,-0.24051 0.02168,-0.538444 0.0678,-0.892136 0.04612,-0.367842 0.10174,-0.734066 0.16322,-1.101906 0.07682,-0.367842 0.13718,-0.680442 0.1833,-0.935102 l -1.75271,-0.295686 c -0.16422,1.016948 -0.322354,1.801048 -0.472078,2.390828 l -0.54239,-1.089266 c -1.444038,0.690382 -2.700188,1.328162 -3.867024,1.943496 -1.36e-4,-0.0076 -0.005,-0.0126 -0.005,-0.02022 0,-0.396138 0.06036,-0.841774 0.1833,-1.336942 0.12294,-0.495174 0.231706,-0.92614 0.323926,-1.29398 L 40.513134,33.31817 c -0.245912,1.018636 -0.460906,1.809754 -0.645342,2.375664 -0.18444,0.565912 -0.384966,0.982208 -0.60014,1.251016 -0.1998,0.25466 -0.450948,0.41956 -0.758338,0.490296 -0.30739,0.0566 -0.70846,0.0834 -1.200284,0.0834 -9.54e-4,-2e-6 -0.0015,0 -0.0026,0 -0.399606,0 -0.762014,-0.05616 -1.084774,-0.16932 -0.307388,-0.12734 -0.606936,-0.381254 -0.898956,-0.763244 -0.276654,-0.38199 -0.590656,-0.969258 -0.944158,-1.761532 -0.384236,-0.848864 -0.753876,-1.515546 -1.107372,-1.99657 -0.338134,-0.49517 -0.705256,-0.840654 -1.104868,-1.038722 -0.399608,-0.212216 -0.853796,-0.31844 -1.36099,-0.31844 -0.36887,0 -0.784398,0.09156 -1.245482,0.275476 -0.445716,0.18392 -0.921596,0.517262 -1.42879,0.998286 -0.491824,0.481022 -0.984676,1.174516 -1.4765,2.07997 -0.36887,0.679092 -0.675646,1.216284 -0.921556,1.61242 -0.230544,0.38199 -0.476968,0.656656 -0.73825,0.826428 -0.245914,0.16978 -0.584118,0.255258 -1.014468,0.255258 -0.876064,0 -2.32022,-0.07082 -2.735198,-0.212292 -0.399608,-0.14148 -0.660492,-0.395406 -0.783448,-0.763248 -0.1076,-0.38199 -0.17766,-0.91918 -0.208418,-1.61242 L 19.791248,24 Z m 29.111311,1.486054 c -0.322758,0 -0.598102,0.10622 -0.828646,0.31844 -0.215174,0.212216 -0.323926,0.460072 -0.323926,0.743028 0,0.282954 0.10874,0.530812 0.323926,0.743028 0.230542,0.19806 0.505886,0.295694 0.828646,0.295694 0.307392,0 0.57079,-0.09762 0.785962,-0.295694 0.230542,-0.212216 0.344014,-0.460076 0.344014,-0.743028 0,-0.282956 -0.11348,-0.530812 -0.344014,-0.743028 -0.215172,-0.212216 -0.47857,-0.31844 -0.785962,-0.31844 z m -1.566896,2.335228 c -0.322762,0 -0.598106,0.10622 -0.828646,0.318442 -0.215176,0.212214 -0.323928,0.460072 -0.323928,0.743026 0,0.282954 0.10874,0.528284 0.323928,0.7405 0.23054,0.19806 0.505884,0.298224 0.828646,0.298224 0.30739,0 0.568274,-0.10016 0.78345,-0.298224 0.230542,-0.212216 0.346524,-0.457546 0.346524,-0.7405 0,-0.282954 -0.11598,-0.530812 -0.346524,-0.743026 -0.215176,-0.212216 -0.47606,-0.318442 -0.78345,-0.318442 z m 3.136308,0 c -0.322764,0 -0.600618,0.10622 -0.83116,0.318442 -0.215174,0.212214 -0.321416,0.460072 -0.321416,0.743026 0,0.282954 0.10624,0.528284 0.321416,0.7405 0.230542,0.19806 0.508396,0.298224 0.83116,0.298224 0.30739,0 0.568272,-0.10016 0.78345,-0.298224 0.23054,-0.212216 0.346522,-0.457546 0.346522,-0.7405 0,-0.282954 -0.11598,-0.530812 -0.346522,-0.743026 -0.215178,-0.212216 -0.47606,-0.318442 -0.78345,-0.318442 z m -34.305076,4.137196 -1.682406,0.785992 c 0.414978,0.693238 0.736212,1.27191 0.966757,1.738786 0.230542,0.466876 0.392414,0.885702 0.484633,1.253542 0.09222,0.367842 0.138112,0.748734 0.138112,1.144868 0,0.622502 -0.159362,1.280586 -0.482123,1.973826 -0.307389,0.67909 -0.884791,1.331104 -1.730116,1.953604 -0.829955,0.6225 -2.0209056,1.159694 -3.57323,1.612422 l 0.6679404,1.61242 c 0.4764562,-0.11318 1.0151956,-0.296294 1.6146076,-0.550954 0.614782,-0.254658 1.221102,-0.581928 1.820514,-0.978066 0.614782,-0.396136 1.175211,-0.87718 1.682407,-1.44309 0.522564,-0.551762 0.938092,-1.186578 1.245483,-1.908114 0.322759,-0.721536 0.484634,-1.52985 0.484634,-2.421158 0,-0.6225 -0.130444,-1.342804 -0.391726,-2.163372 -0.245912,-0.820568 -0.66144,-1.691102 -1.245482,-2.610706 z m 16.388702,1.21058 c 0.3535,0 0.660276,0.13302 0.921558,0.401842 0.261282,0.254658 0.490734,0.588 0.690538,0.998284 0.1998,0.410284 0.39311,0.826584 0.577542,1.251016 0.15248,0.350902 0.214334,0.654996 0.203396,0.919938 l -0.268692,0.662154 c -0.247554,0.284158 -0.60512,0.434696 -1.087286,0.434696 -0.507196,0 -1.084594,-0.18312 -1.730116,-0.550952 -0.645522,-0.381988 -1.227642,-0.977856 -1.750204,-1.784276 0.491826,-0.891308 0.936272,-1.499314 1.33588,-1.824714 0.399608,-0.325398 0.769244,-0.49384 1.107374,-0.507988 z m 15.395276,2.694106 c -0.136,0.44999 -0.285516,0.813902 -0.454504,1.041248 -0.18444,0.268808 -0.421116,0.43725 -0.713138,0.50799 -0.292022,0.07074 -0.66889,0.10614 -1.129974,0.10614 -0.324784,0 -0.583948,-0.02528 -0.823626,-0.06066 0.976776,-0.50789 1.895392,-0.99404 3.121242,-1.594728 z M 41.0982,38.40311 c 0.10878,0.13242 0.225782,0.25248 0.361592,0.34624 0.20486,0.132 0.422518,0.2253 0.647854,0.30075 -0.07752,0.03572 -0.205824,0.09672 -0.281238,0.13142 -1.306414,0.608352 -2.265398,1.21636 -2.88018,1.824714 -0.16906,0.15562 -0.292286,0.374142 -0.369124,0.657098 -0.07684,0.282954 -0.1155,0.586956 -0.1155,0.912358 0,0.12734 0.18356,0.333704 0.552432,0.61666 0.368868,0.282956 0.837516,0.628438 1.406192,1.038722 0.568672,0.410284 1.138842,0.885258 1.707514,1.422872 0.829958,0.76398 1.375926,1.386654 1.637208,1.867678 0.276654,0.481022 0.414322,0.88518 0.414322,1.210578 0,0.18392 -0.04588,0.367032 -0.13812,0.550952 -0.07684,0.16978 -0.24595,0.332146 -0.507232,0.48777 -0.245914,0.14148 -0.63724,0.262372 -1.175174,0.361404 -0.537936,0.08488 -1.253006,0.12636 -2.14444,0.12636 h -1.167414 c -0.876066,0 -1.523558,-0.07082 -1.938534,-0.212294 -0.39961,-0.14148 -0.660494,-0.395406 -0.78345,-0.763246 -0.1076,-0.381988 -0.17516,-0.919182 -0.205908,-1.61242 l -0.440052,-8.50213 c 0.200346,0.14356 0.31959,0.17698 0.572966,0.271742 v 0 l 1.541808,0.77983 c 0.90202,-0.517244 2.018402,-1.12964 3.304548,-1.817132 z m -15.139144,3.495262 -1.197774,1.314198 0.66794,0.553478 c -1.091236,0.933752 -1.859428,1.825022 -2.305146,2.673888 -0.430348,0.834718 -0.645342,1.534282 -0.645342,2.10019 0,1.145968 0.374356,1.99576 1.127464,2.547522 0.753104,0.537614 1.700144,0.80621 2.83749,0.80621 0.783848,0 1.43606,-0.1209 1.958622,-0.361404 0.522566,-0.25466 0.930866,-0.573332 1.222886,-0.955322 0.292022,-0.396136 0.499784,-0.800292 0.62274,-1.210578 0.12294,-0.410284 0.1833,-0.776506 0.1833,-1.101904 0,-0.834716 -0.207762,-1.628364 -0.62274,-2.378194 -0.414978,-0.74983 -0.960948,-1.455464 -1.637208,-2.120408 -0.67626,-0.664944 -1.413022,-1.287618 -2.212238,-1.867676 z m 0.575032,2.71685 c 0.645522,0.50932 1.131138,0.975696 1.4539,1.400128 0.322758,0.410282 0.537754,0.791172 0.645342,1.144868 0.1076,0.353692 0.1607,0.693106 0.1607,1.018504 0,0.594206 -0.19802,1.075248 -0.59763,1.443088 -0.39961,0.353694 -0.98424,0.530734 -1.752718,0.530734 -0.614778,0 -1.12932,-0.1477 -1.544298,-0.444804 -0.399606,-0.297104 -0.60014,-0.742738 -0.60014,-1.336944 0,-0.50932 0.19078,-1.105184 0.57503,-1.784276 0.399608,-0.679094 0.952806,-1.334648 1.659808,-1.971298 z"/>
 <path style="opacity:0.1" d="M 4.4570312 18 C 4.3774838 18.329122 4.3064063 18.661895 4.25 19 L 59.75 19 C 59.693594 18.661895 59.622516 18.329122 59.542969 18 L 4.4570312 18 z"/>
 <path style="opacity:0.2;fill:#8b9cbe" d="M 20.800781 4 C 12.45034 4 5.5782914 10.038084 4.25 18 L 4.4628906 18 C 6.1793522 10.540798 12.805687 5 20.800781 5 L 43.199219 5 C 51.194312 5 57.820647 10.540798 59.537109 18 L 59.75 18 C 58.421708 10.038084 51.549659 4 43.199219 4 L 20.800781 4 z"/>
</svg>
