<svg xmlns="http://www.w3.org/2000/svg" width="64" height="64" version="1">
 <rect style="opacity:0.2" width="56" height="56" x="4" y="5" rx="2.8" ry="2.8"/>
 <rect style="fill:#b2bfd9" width="56" height="56" x="4" y="4" rx="2.8" ry="2.8"/>
 <path style="fill:#565656" d="m 22,18 4,6 -8,0 -1,4 -4.5,0 1.5,-6 -3,0 -3,12 2.823529,0 4.376471,0 -1.2,4 7,0 -5,6 6,0 4,-6 12,0 4,6 6,0 -5,-6 7,0 -1.2,-4 7.2,0 -3,-12 -3,0 1.5,6 -4.5,0 -1,-4 -8,0 4,-6 -3,0 -4,6 -6,0 -4,-6 z"/>
 <path style="opacity:0.2" d="m 38,28 0,5 5,0 0,-5 -5,0 z"/>
 <path style="fill:#8b9cbe" d="m 38,27 0,5 5,0 0,-5 -5,0 z"/>
 <path style="opacity:0.2;fill:#8b9cbe" d="M 6.8007812 4 C 5.2495812 4 4 5.2495812 4 6.8007812 L 4 7.8007812 C 4 6.2495813 5.2495812 5 6.8007812 5 L 57.199219 5 C 58.750419 5 60 6.2495812 60 7.8007812 L 60 6.8007812 C 60 5.2495813 58.750419 4 57.199219 4 L 6.8007812 4 z"/>
 <path style="opacity:0.2" d="m 21,28 0,5 5,0 0,-5 -5,0 z"/>
 <path style="fill:#8b9cbe" d="m 21,27 0,5 5,0 0,-5 -5,0 z"/>
</svg>
