<svg xmlns="http://www.w3.org/2000/svg" width="64" height="64" version="1.1">
 <rect style="opacity:0.2" width="60" height="60" x="-63" y="-62" rx="4.5" ry="4.5" transform="matrix(0,-1,-1,0,0,0)"/>
 <rect style="fill:#b2bfd9" width="60" height="60" x="-62" y="-62" rx="4.5" ry="4.5" transform="matrix(0,-1,-1,0,0,0)"/>
 <path style="opacity:0.3" d="m 6.5005582,2.0000002 c -2.493,0 -4.500558,2.007558 -4.500558,4.500558 V 22 H 22 V 2.0000002 Z"/>
 <path style="opacity:0.1" d="M 42,2.0000002 V 22 H 62 V 6.5005582 c 0,-2.493 -2.007558,-4.500558 -4.500558,-4.500558 z"/>
 <rect style="opacity:0.1" width="20" height="20" x="22" y="-62" transform="scale(1,-1)"/>
 <path style="opacity:0.5" d="M 42,62 V 42 H 62 V 57.499442 C 62,59.992442 59.992442,62 57.499442,62 Z"/>
 <rect style="opacity:0.5" width="20" height="20" x="2" y="22"/>
 <rect style="opacity:0.3" width="20" height="20" x="22" y="22"/>
 <g style="font-weight:bold;font-size:38.05962372px;font-family:'Bitstream Vera Sans';fill:#17191e" transform="matrix(1.4823774,0,0,1.5178319,-2.1711212,-2.8869928)">
  <path style="fill:#17191e" d="m 9.9992322,9.8463934 q -0.5161651,0 -0.7768029,0.3372956 -0.2555273,0.332186 -0.2555273,1.001667 0,0.669482 0.2555273,1.006778 0.2606378,0.332185 0.7768029,0.332185 0.5212758,0 0.7768028,-0.332185 0.260638,-0.337296 0.260638,-1.006778 0,-0.669481 -0.260638,-1.001667 Q 10.520508,9.8463934 9.9992322,9.8463934 Z M 12.431852,6.1821322 v 1.4105106 q -0.485502,-0.2299746 -0.914788,-0.337296 -0.429286,-0.112432 -0.838129,-0.112432 -0.8790141,0 -1.3696265,0.4906124 Q 8.8186962,8.119029 8.7369274,9.0798115 9.0742235,8.8293948 9.4677355,8.7067417 9.8612475,8.5789781 10.326307,8.5789781 q 1.170315,0 1.885791,0.6848131 0.720587,0.6848131 0.720587,1.7938018 0,1.226531 -0.802355,1.96756 -0.802356,0.735918 -2.15154,0.735918 -1.4871687,0 -2.304856,-1.001667 -0.8125768,-1.006777 -0.8125768,-2.8516841 0,-1.8909018 0.9505615,-2.9692269 0.955672,-1.0834357 2.6165993,-1.0834357 0.526386,0 1.022109,0.081769 0.495723,0.081769 0.981225,0.2453059 z"/>
 </g>
 <g style="font-weight:bold;font-size:11px;line-height:125%;font-family:'DejaVu Sans';fill:#17191e" transform="matrix(1.4894546,0,0,1.4964379,-2.0996164,-3.7875262)">
  <path style="fill:#17191e" d="m 6.7807479,19.905621 h 6.0424801 v 1.165527 L 9.6972518,27.924664 H 7.6830916 L 10.642564,21.42564 H 6.7807479 Z"/>
 </g>
 <g style="font-weight:bold;font-size:11px;line-height:125%;font-family:'DejaVu Sans';fill:#17191e" transform="matrix(1.4894544,0,0,1.4423377,-2.9519766,-2.276795)">
  <path style="fill:#17191e" d="m 25.168932,23.445171 q 0.811035,0.209473 1.22998,0.730469 0.424317,0.515625 0.424317,1.315918 0,1.192383 -0.913086,1.81543 -0.913086,0.617676 -2.664063,0.617676 -0.617675,0 -1.240722,-0.102051 -0.617676,-0.09668 -1.22461,-0.29541 v -1.595215 q 0.580078,0.290039 1.149414,0.440429 0.574707,0.14502 1.12793,0.14502 0.821777,0 1.256836,-0.284668 0.44043,-0.284668 0.44043,-0.816406 0,-0.547852 -0.451172,-0.827149 -0.445801,-0.284668 -1.321289,-0.284668 h -0.827149 v -1.332031 h 0.870118 q 0.778808,0 1.160156,-0.241699 0.381347,-0.24707 0.381347,-0.746582 0,-0.461914 -0.370605,-0.714356 -0.370605,-0.252441 -1.047363,-0.252441 -0.499512,0 -1.009766,0.112793 -0.510254,0.112793 -1.015137,0.333008 v -1.514649 q 0.612305,-0.171875 1.213868,-0.257812 0.601562,-0.08594 1.18164,-0.08594 1.562988,0 2.336426,0.515625 0.778809,0.510254 0.778809,1.541504 0,0.703614 -0.370606,1.154785 -0.370605,0.445801 -1.095703,0.628418 z"/>
 </g>
 <g style="font-weight:bold;font-size:11px;line-height:125%;font-family:'DejaVu Sans';fill:#17191e" transform="matrix(1.5443652,0,0,1.4698564,-5.7141738,-3.623234)">
  <path style="fill:#17191e" d="m 37.079575,40.404644 h 3.528808 v 1.52002 h -5.827637 v -1.52002 l 2.927247,-2.583496 q 0.392089,-0.354492 0.580078,-0.692871 0.187988,-0.338379 0.187988,-0.703613 0,-0.563965 -0.381348,-0.907715 -0.375976,-0.34375 -1.004394,-0.34375 -0.483399,0 -1.058106,0.209472 -0.574707,0.204102 -1.22998,0.612305 v -1.761719 q 0.698242,-0.230957 1.380371,-0.349121 0.682129,-0.123535 1.337402,-0.123535 1.439453,0 2.234375,0.633789 0.800293,0.633789 0.800293,1.76709 0,0.655273 -0.338379,1.224609 -0.338379,0.563965 -1.42334,1.514649 z"/>
 </g>
 <path style="opacity:0.2;fill:#8b9cbe" d="M 6.5 2 C 4.007 2 2 4.007 2 6.5 L 2 7.5 C 2 5.007 4.007 3 6.5 3 L 57.5 3 C 59.993 3 62 5.007 62 7.5 L 62 6.5 C 62 4.007 59.993 2 57.5 2 L 6.5 2 z"/>
 <rect style="opacity:0.2" width="40" height="1" x="2" y="22"/>
 <rect style="opacity:0.2;fill:#8b9cbe" width="40" height="1" x="2" y="42"/>
 <rect style="opacity:0.2;fill:#8b9cbe" width="20" height="1" x="42" y="22"/>
 <rect style="opacity:0.2" width="20" height="1" x="42" y="42"/>
</svg>
