<svg xmlns="http://www.w3.org/2000/svg" width="64" height="64" version="1">
 <rect style="opacity:0.2" width="19" height="17" x="40" y="38" ry="1.417"/>
 <path style="opacity:0.2" d="M 8.75,5 C 7.2265,5 6,6.2488 6,7.8 V 58.2 C 6,59.7512 7.2265,61 8.75,61 H 14.220459 47.25 C 48.7735,61 50,59.7512 50,58.2 V 7.8 C 50,6.2488 48.7735,5 47.25,5 h -19.279541 -13.75 z"/>
 <rect style="fill:#55b65a" width="19" height="17" x="34" y="9" ry="1.417"/>
 <path style="opacity:0.2;fill:#8b9cbe" d="M 35.416016,9 C 34.631182,9 34,9.6311822 34,10.416016 v 1 C 34,10.631182 34.631182,10 35.416016,10 H 51.583984 C 52.368818,10 53,10.631182 53,11.416016 v -1 C 53,9.6311822 52.368818,9 51.583984,9 Z"/>
 <rect style="fill:#fec006" width="19" height="17" x="37" y="23" ry="1.417"/>
 <path style="opacity:0.2;fill:#8b9cbe" d="M 38.416016,23 C 37.631182,23 37,23.631182 37,24.416016 v 1 C 37,24.631182 37.631182,24 38.416016,24 H 54.583984 C 55.368818,24 56,24.631182 56,25.416016 v -1 C 56,23.631182 55.368818,23 54.583984,23 Z"/>
 <rect style="fill:#fe6c06" width="19" height="17" x="40" y="37" ry="1.417"/>
 <path style="opacity:0.2;fill:#8b9cbe" d="M 41.416016,37 C 40.631182,37 40,37.631182 40,38.416016 v 1 C 40,38.631182 40.631182,38 41.416016,38 H 57.583984 C 58.368818,38 59,38.631182 59,39.416016 v -1 C 59,37.631182 58.368818,37 57.583984,37 Z"/>
 <path style="fill:#3f89db" d="M 8.75,4 C 7.2265,4 6,5.2488 6,6.8 V 57.2 C 6,58.7512 7.2265,60 8.75,60 H 14.220459 47.25 C 48.7735,60 50,58.7512 50,57.2 V 6.8 C 50,5.2488 48.7735,4 47.25,4 h -19.279541 -13.75 z"/>
 <path style="opacity:0.2" d="M 27.999771,17.000629 C 19.163298,17.000629 12,24.163927 12,33.0004 c 0,8.836474 7.163298,15.999771 15.999771,15.999771 h 9.999857 c 0,0 1.874974,0 1.999972,-1.999971 0,-1.999971 -1.999972,-1.999971 -1.999972,-1.999971 h -9.999857 c -6.627305,0 -11.999828,-5.372524 -11.999828,-11.999829 0,-6.627305 5.372523,-11.999828 11.999828,-11.999828 6.627306,0 11.999829,5.372523 11.999829,11.999828 v 1.999972 c 0,1.104544 -0.895427,1.999971 -1.999972,1.999971 -1.104544,0 -1.999971,-0.895427 -1.999971,-1.999971 V 33.0004 c 0,-4.418137 -3.58175,-7.999885 -7.999886,-7.999885 -4.418137,0 -7.999885,3.581748 -7.999885,7.999885 0,4.418137 3.581748,7.999886 7.999885,7.999886 2.09237,0 3.980543,-0.821788 5.406122,-2.13677 1.139984,1.353981 2.82196,2.13597 4.593934,2.13597 3.313553,0 5.999915,-2.686362 5.999915,-5.999914 V 32.9996 c 0,-8.835873 -7.163898,-15.999771 -15.999772,-15.999771 z m 0,11.999828 c 2.209168,0 3.999943,1.790835 3.999943,3.999943 0,2.209109 -1.790834,3.999943 -3.999943,3.999943 -2.209108,0 -3.999942,-1.790834 -3.999942,-3.999943 0,-2.209108 1.790834,-3.999943 3.999942,-3.999943 z"/>
 <path style="fill:#8b9cbe" d="M 27.999771,16.000629 C 19.163298,16.000629 12,23.163927 12,32.0004 c 0,8.836474 7.163298,15.999771 15.999771,15.999771 h 9.999857 c 0,0 1.874974,0 1.999972,-1.999971 0,-1.999971 -1.999972,-1.999971 -1.999972,-1.999971 h -9.999857 c -6.627305,0 -11.999828,-5.372524 -11.999828,-11.999829 0,-6.627305 5.372523,-11.999828 11.999828,-11.999828 6.627306,0 11.999829,5.372523 11.999829,11.999828 v 1.999972 c 0,1.104544 -0.895427,1.999971 -1.999972,1.999971 -1.104544,0 -1.999971,-0.895427 -1.999971,-1.999971 V 32.0004 c 0,-4.418137 -3.58175,-7.999885 -7.999886,-7.999885 -4.418137,0 -7.999885,3.581748 -7.999885,7.999885 0,4.418137 3.581748,7.999886 7.999885,7.999886 2.09237,0 3.980543,-0.821788 5.406122,-2.13677 1.139984,1.353981 2.82196,2.13597 4.593934,2.13597 3.313553,0 5.999915,-2.686362 5.999915,-5.999914 V 31.9996 c 0,-8.835873 -7.163898,-15.999771 -15.999772,-15.999771 z m 0,11.999828 c 2.209168,0 3.999943,1.790835 3.999943,3.999943 0,2.209109 -1.790834,3.999943 -3.999943,3.999943 -2.209108,0 -3.999942,-1.790834 -3.999942,-3.999943 0,-2.209108 1.790834,-3.999943 3.999942,-3.999943 z"/>
 <path style="opacity:0.2;fill:#8b9cbe" d="M 8.75,4 C 7.2265,4 6,5.2495813 6,6.8007812 v 1 C 6,6.2495812 7.2265,5 8.75,5 h 5.470703 13.75 H 47.25 C 48.7735,5 50,6.2495813 50,7.8007812 v -1 C 50,5.2495813 48.7735,4 47.25,4 h -19.279297 -13.75 z"/>
</svg>
