<svg xmlns="http://www.w3.org/2000/svg" width="64" height="64" version="1">
 <path style="opacity:0.2" d="M 15.2,5 H 48.8 C 51.119434,5 53,6.8923937 53,9.2264151 V 56.773585 C 53,59.107607 51.119434,61 48.8,61 H 15.2 C 12.880567,61 11,59.107607 11,56.773585 V 9.2264151 C 11,6.8923937 12.880567,5 15.2,5 Z m 0,0"/>
 <path style="fill:#b2bfd9" d="M 15.2,4 H 48.8 C 51.119434,4 53,5.8923937 53,8.2264151 V 55.773585 C 53,58.107607 51.119434,60 48.8,60 H 15.2 C 12.880567,60 11,58.107607 11,55.773585 V 8.2264151 C 11,5.8923937 12.880567,4 15.2,4 Z m 0,0"/>
 <path style="opacity:0.1" d="m 21,25 c -2.209822,0 -4,1.790177 -4,4 0,2.209821 1.790178,4 4,4 2.209823,0 4,-1.790179 4,-4 0,-2.209823 -1.790177,-4 -4,-4 z m 11,0 c -2.209824,0 -4,1.790177 -4,4 0,2.209821 1.790176,4 4,4 2.209822,0 4,-1.790179 4,-4 0,-2.209823 -1.790178,-4 -4,-4 z m 11,0 c -2.209823,0 -4,1.790177 -4,4 0,2.209821 1.790177,4 4,4 2.209821,0 4,-1.790179 4,-4 0,-2.209823 -1.790179,-4 -4,-4 z M 21,36 c -2.209822,0 -4,1.790177 -4,4 0,2.209821 1.790178,4 4,4 2.209823,0 4,-1.790179 4,-4 0,-2.209823 -1.790177,-4 -4,-4 z m 11,0 c -2.209824,0 -4,1.790177 -4,4 0,2.209821 1.790176,4 4,4 2.209822,0 4,-1.790179 4,-4 0,-2.209823 -1.790178,-4 -4,-4 z m 11,0 c -2.209822,0 -4,1.654297 -4,3.695312 V 51.304688 C 39,53.345704 40.790178,55 43,55 c 2.209821,0 4,-1.654297 4,-3.695312 V 39.695312 C 47,37.654297 45.209821,36 43,36 Z M 21,47 c -2.209822,0 -4,1.790177 -4,4 0,2.209821 1.790178,4 4,4 2.209823,0 4,-1.790179 4,-4 0,-2.209823 -1.790177,-4 -4,-4 z m 11,0 c -2.209824,0 -4,1.790177 -4,4 0,2.209821 1.790176,4 4,4 2.209822,0 4,-1.790179 4,-4 0,-2.209823 -1.790178,-4 -4,-4 z"/>
 <path style="fill:#3faf7f" d="M 18.998698,18 H 45.001302 C 46.106051,18 47,17.10547 47,16 v -4 c 0,-1.10547 -0.893949,-2 -1.998698,-2 H 18.998698 C 17.893949,10 17,10.89453 17,12 v 4 c 0,1.10547 0.893949,2 1.998698,2 z m 0,0"/>
 <circle style="fill:#4f4f4f" cx="32" cy="50" r="4"/>
 <path style="fill:#ff7800" d="m 43,35 c 2.209821,0 4.000001,1.65343 4.000001,3.694445 V 50.305556 C 47.000001,52.346572 45.209821,54 43,54 40.790178,54 39.000001,52.346572 39.000001,50.305556 V 38.694445 C 39.000001,36.65343 40.790178,35 43,35 Z m 0,0"/>
 <path style="fill:#8b9cbe;opacity:0.2" d="M 15.199219 4 C 12.879786 4 11 5.8925411 11 8.2265625 L 11 9.2265625 C 11 6.8925411 12.879786 5 15.199219 5 L 48.800781 5 C 51.120215 5 53 6.8925411 53 9.2265625 L 53 8.2265625 C 53 5.8925411 51.120215 4 48.800781 4 L 15.199219 4 z"/>
 <path style="opacity:0.2" d="M 18.998047 10 C 17.893298 10 17 10.89453 17 12 L 17 13 C 17 11.89453 17.893298 11 18.998047 11 L 45.001953 11 C 46.106702 11 47 11.89453 47 13 L 47 12 C 47 10.89453 46.106702 10 45.001953 10 L 18.998047 10 z"/>
 <circle style="fill:#858585" cx="21" cy="28" r="4"/>
 <circle style="fill:#858585" cx="32" cy="28" r="4"/>
 <circle style="fill:#858585" cx="43" cy="28" r="4"/>
 <circle style="fill:#4f4f4f" cx="21" cy="39" r="4"/>
 <circle style="fill:#4f4f4f" cx="32" cy="39" r="4"/>
 <circle style="fill:#4f4f4f" cx="21" cy="50" r="4"/>
</svg>
