<svg xmlns="http://www.w3.org/2000/svg" width="64" height="64" version="1.1">
 <path style="opacity:0.2;fill-rule:evenodd" d="m 2.183472,12.850479 a 3.0027651,3.0027651 0 0 0 2.8616539,4.003153 l 3.0023648,0 0,-2.04441 -3.0023648,0 A 3.0027651,3.0027651 0 0 1 2.183472,12.827061 Z m 59.765073,0 a 3.0027651,3.0027651 0 0 1 -2.860253,2.001577 l -3.002365,0 0,2.04441 3.002365,0 a 3.0027651,3.0027651 0 0 0 2.861654,-4.022568 z m -53.9004539,7.005518 0,2.04441 a 3.0027651,3.0027651 0 0 0 3.0023649,3.002365 l 7.005518,0 0,-2.04441 -7.005518,0 A 3.0027651,3.0027651 0 0 1 8.0480911,19.855997 Z m 48.0378359,0 a 3.0027651,3.0027651 0 0 1 -3.002365,3.002365 l -7.005517,0 0,2.04441 7.005517,0 a 3.0027651,3.0027651 0 0 0 3.002365,-3.002365 l 0,-2.04441 z m -42.033106,25.019706 0,2.044411 4.003153,0 0,1.051628 c 0,6.069781 4.998336,10.957831 11.208027,10.957831 l 5.606016,0 c 6.209691,0 11.208028,-4.88805 11.208028,-10.957831 l 0,-1.051628 4.003153,0 0,-2.044411 -4.003153,0 0,1.051429 c 0,6.06978 -4.998337,10.95803 -11.208028,10.95803 l -5.606016,0 c -6.210891,0 -11.208828,-4.803783 -11.208828,-11.00867 l 0,-1.051428 -4.003153,0 z M 2.1840725,50.899848 a 3.0027651,3.0027651 0 0 0 2.8616539,4.003153 l 3.0023647,0 0,-2.04441 -3.0023647,0 A 3.0027651,3.0027651 0 0 1 2.1840725,50.87643 Z m 59.7650725,0 a 3.0027651,3.0027651 0 0 1 -2.860253,2.001577 l -3.002364,0 0,2.04441 3.002364,0 a 3.0027651,3.0027651 0 0 0 2.861654,-4.022568 z m -53.9004534,5.003941 0,2.044411 a 3.0027651,3.0027651 0 1 0 6.0047294,0 l 0,-2.044411 a 3.0027651,3.0027651 0 1 1 -6.0047294,0 z m 42.0331064,0 0,2.044411 a 3.0027651,3.0027651 0 1 0 6.00473,0 l 0,-2.044411 a 3.0027651,3.0027651 0 1 1 -6.00473,0 z"/>
 <path style="fill:#91dd48" d="m 29.264202,6.0442901 5.604414,0 c 6.209691,0 11.208828,4.8862489 11.208828,10.9560289 l 0,30.129731 c 0,6.069781 -4.999137,10.95603 -11.208828,10.95603 l -5.604414,0 c -6.209691,0 -11.208829,-4.886249 -11.208829,-10.95603 l 0,-30.129731 c 0,-6.06978 4.999138,-10.9560289 11.208829,-10.9560289 z"/>
 <g style="fill:none;stroke:#91dd48;stroke-width:3;stroke-linecap:round;stroke-linejoin:round" transform="matrix(2.0015765,0,0,2.0015765,0.04118465,-2042.3691)">
  <path d="m 5.5,1023.9 0,7 7,0"/>
  <path d="m 2.5,1026.9 2,0"/>
 </g>
 <path style="fill:none;stroke:#91dd48;stroke-width:6.00472927;stroke-linecap:round;stroke-linejoin:round" d="m 11.049855,7.0450784 0,14.0110356 14.011036,0"/>
 <path style="fill:none;stroke:#91dd48;stroke-width:6.00472927;stroke-linecap:round;stroke-linejoin:round" d="m 5.0451259,13.049808 4.003153,0"/>
 <path style="fill:none;stroke:#91dd48;stroke-width:6.00472927;stroke-linecap:round;stroke-linejoin:round" d="m 11.049855,57.084491 0,-14.011036 14.011036,0"/>
 <path style="fill:none;stroke:#91dd48;stroke-width:6.00472927;stroke-linecap:round;stroke-linejoin:round" d="m 5.0451259,51.079761 4.003153,0"/>
 <path style="fill:none;stroke:#91dd48;stroke-width:6.00472927;stroke-linecap:round;stroke-linejoin:round" d="m 53.082962,7.0450784 0,14.0110356 -14.011036,0"/>
 <path style="fill:none;stroke:#91dd48;stroke-width:6.00472927;stroke-linecap:round;stroke-linejoin:round" d="m 59.087691,13.049808 -4.003153,0"/>
 <path style="fill:none;stroke:#91dd48;stroke-width:6.00472927;stroke-linecap:round;stroke-linejoin:round" d="m 53.082962,57.084491 0,-14.011036 -14.011036,0"/>
 <path style="fill:none;stroke:#91dd48;stroke-width:6.00472927;stroke-linecap:round;stroke-linejoin:round" d="m 59.087691,51.079761 -4.003153,0"/>
 <path style="opacity:0.2;fill:#8b9cbe;fill-rule:evenodd" d="M 11.003906 4.0039062 A 3.0027651 3.0027651 0 0 0 8.046875 7.0449219 L 8.046875 8.0449219 A 3.0027651 3.0027651 0 0 1 11.003906 5.0039062 A 3.0027651 3.0027651 0 0 1 14.052734 8.0449219 L 14.052734 7.0449219 A 3.0027651 3.0027651 0 0 0 11.003906 4.0039062 z M 53.035156 4.0039062 A 3.0027651 3.0027651 0 0 0 50.080078 7.0449219 L 50.080078 8.0449219 A 3.0027651 3.0027651 0 0 1 53.035156 5.0039062 A 3.0027651 3.0027651 0 0 1 56.083984 8.0449219 L 56.083984 7.0449219 A 3.0027651 3.0027651 0 0 0 53.035156 4.0039062 z M 29.263672 6.0449219 C 23.05278 6.0449219 18.054688 10.932172 18.054688 17.001953 L 18.054688 18.001953 C 18.054688 11.932172 23.05278 7.0449219 29.263672 7.0449219 L 34.867188 7.0449219 C 41.07808 7.0449219 46.076172 11.932172 46.076172 18.001953 L 46.076172 17.001953 C 46.076172 10.932172 41.07808 6.0449219 34.867188 6.0449219 L 29.263672 6.0449219 z M 5.0449219 10.046875 A 3.0027651 3.0027651 0 0 0 2.046875 13.542969 A 3.0027651 3.0027651 0 0 1 5.0449219 11.048828 L 8.046875 11.048828 L 8.046875 10.046875 L 5.0449219 10.046875 z M 56.083984 10.046875 L 56.083984 11.048828 L 59.085938 11.048828 A 3.0027651 3.0027651 0 0 1 62.085938 13.542969 A 3.0027651 3.0027651 0 0 0 59.085938 10.046875 L 56.083984 10.046875 z M 14.050781 18.054688 L 14.050781 19.054688 L 18.054688 19.054688 L 18.054688 18.960938 L 18.054688 18.054688 L 14.050781 18.054688 z M 46.076172 18.054688 L 46.076172 18.960938 L 46.076172 19.054688 L 50.080078 19.054688 L 50.080078 18.054688 L 46.076172 18.054688 z M 11.048828 40.070312 A 3.0027651 3.0027651 0 0 0 8.046875 43.074219 L 8.046875 44.074219 A 3.0027651 3.0027651 0 0 1 11.048828 41.072266 L 18.054688 41.072266 L 18.054688 40.070312 L 11.048828 40.070312 z M 46.076172 40.070312 L 46.076172 41.072266 L 53.082031 41.072266 A 3.0027651 3.0027651 0 0 1 56.083984 44.074219 L 56.083984 43.074219 A 3.0027651 3.0027651 0 0 0 53.082031 40.070312 L 46.076172 40.070312 z M 5.0449219 48.078125 A 3.0027651 3.0027651 0 0 0 2.046875 51.572266 A 3.0027651 3.0027651 0 0 1 5.0449219 49.078125 L 8.046875 49.078125 L 8.046875 48.078125 L 5.0449219 48.078125 z M 56.083984 48.078125 L 56.083984 49.078125 L 59.085938 49.078125 A 3.0027651 3.0027651 0 0 1 62.085938 51.572266 A 3.0027651 3.0027651 0 0 0 59.085938 48.078125 L 56.083984 48.078125 z"/>
 <circle style="fill:#9a48dd" cx="22" cy="10" r="6"/>
 <circle style="opacity:0.2" cx="22.059" cy="10.997" r="4.003"/>
 <circle style="fill:#8b9cbe" cx="22" cy="10" r="4"/>
 <circle style="fill:#9a48dd" cx="42" cy="10" r="6"/>
 <circle style="opacity:0.2" cx="42.074" cy="10.997" r="4.003"/>
 <circle style="fill:#8b9cbe" cx="42" cy="10" r="4"/>
</svg>
