<svg xmlns="http://www.w3.org/2000/svg" width="64" height="64" version="1">
 <path style="opacity:0.2" d="m 4.0507997,32.000415 c -0.0118,0.333995 -0.050799,0.66199 -0.050799,0.999985 C 4.0000004,48.512179 16.488022,61 31.9996,61 47.511378,61 59.9992,48.512179 59.9992,33.0004 c 0,-0.337995 -0.04,-0.66599 -0.05,-0.999985 C 59.421208,47.0422 47.173383,59.000029 31.9996,59.000029 16.825617,59.000029 4.5779921,47.0422 4.0499997,32.000415 Z"/>
 <path style="fill:#b2bfd9" d="m 31.9996,4.0010294 c -15.511778,0 -27.9995996,12.4878216 -27.9995996,27.9995996 0,15.511778 12.4878216,27.9996 27.9995996,27.9996 15.511778,0 27.9996,-12.487822 27.9996,-27.9996 0,-15.511578 -12.487822,-27.9995996 -27.9996,-27.9995996 z"/>
 <path style="fill:#2971d5" d="M 31.9996,10.000744 A 21.999685,21.999685 0 0 0 9.9999146,32.000429 21.999685,21.999685 0 0 0 31.9996,54.000114 21.999685,21.999685 0 0 0 53.999285,32.000429 21.999685,21.999685 0 0 0 31.9996,10.000744 Z m 2.499964,4.999928 A 16.499764,16.499764 0 0 1 50.999328,31.500436 16.499764,16.499764 0 0 1 34.499564,48.0002 16.499764,16.499764 0 0 1 17.9998,31.500436 16.499764,16.499764 0 0 1 34.499564,15.000672 Z"/>
 <path style="opacity:0.2" d="m 39.999486,17.399024 0,1.999971 c 0,0.885987 0.715989,1.601977 1.601977,1.601977 l 4.796731,0 c 0.885987,0 1.601977,-0.71599 1.601977,-1.601977 l 0,-1.999572 c 0,0.886388 -0.71599,1.601578 -1.601977,1.601578 l -4.796731,0 c -0.885988,0 -1.601977,-0.71479 -1.601977,-1.601178 z M 7.9999432,35.80116 l 0,1.999972 c 0,1.773974 1.4263796,3.199954 3.1991538,3.199954 l 9.601463,0 c 1.773975,0 3.199954,-1.42598 3.199954,-3.199954 l 0,-1.999972 c 0,1.773975 -1.425979,3.199955 -3.199954,3.199955 l -9.600663,0 c -1.7727742,0 -3.1991538,-1.42598 -3.1991538,-3.199955 z m 35.9994848,7.199897 0,1.999972 c 0,1.107984 0.891988,1.999971 1.999972,1.999971 l 5.999914,0 c 1.107984,0 1.999971,-0.891987 1.999971,-1.999971 l 0,-1.999972 c 0,1.107985 -0.891987,1.999972 -1.999971,1.999972 l -5.999914,0 c -1.107984,0 -1.999972,-0.891987 -1.999972,-1.999972 z"/>
 <rect style="fill:#fc924d" width="16" height="16" x="8" y="24" rx="3.2" ry="3.2"/>
 <rect style="fill:#fc924d" width="10" height="10" x="44" y="36" rx="2" ry="2"/>
 <rect style="fill:#fc924d" width="8" height="8" x="40" y="12" rx="1.6" ry="1.6"/>
 <path style="opacity:0.2;fill:#8b9cbe" d="M 32 4 C 16.488422 4 4 16.488422 4 32 C 4 32.113554 4.0112846 32.224034 4.0175781 32.335938 C 4.3691218 17.134584 16.711143 5 32 5 C 47.289054 5 59.630884 17.134584 59.982422 32.335938 C 59.988797 32.224034 60 32.113554 60 32 C 60 16.488422 47.511778 4 32 4 z"/>
</svg>
