<svg xmlns="http://www.w3.org/2000/svg" width="64" height="64" version="1.1">
 <path style="opacity:0.2" d="M 7,13 V 56.636364 C 7,59.053818 8.8349714,61 11.114286,61 H 39 L 55,45 V 13 Z"/>
 <path style="fill:#b2bfd9" d="M 7,12 V 55.636364 C 7,58.053818 8.8349714,60 11.114286,60 H 39 L 55,44 V 12 Z"/>
 <path style="opacity:0.1" d="M 11.363393,5 C 8.9458848,5 7,6.7830236 7,8.9990236 v 4.9267574 0.07324 H 7.01606 C 7.056162,14.558134 7.5148998,15 8.0928572,15 H 28.942858 53.907142 c 0.577958,0 1.036698,-0.441861 1.076786,-1.000976 h 0.016 V 13.925781 8.9990236 C 55,6.7830236 53.054116,5 50.636606,5 H 28.942858 Z"/>
 <path style="fill:#00aade" d="M 11.363393,4 C 8.9458848,4 7,5.7830236 7,7.9990236 v 4.9267574 0.07324 H 7.01606 C 7.056162,13.558134 7.5148998,14 8.0928572,14 H 28.942858 53.907142 c 0.577958,0 1.036698,-0.441861 1.076786,-1.000976 h 0.016 V 12.925781 7.9990236 C 55,5.7830236 53.054116,4 50.636606,4 H 28.942858 Z"/>
 <path style="opacity:0.2;fill:#8b9cbe" d="M 11.363281 4 C 8.9457728 4 7 5.784 7 8 L 7 9 C 7 6.784 8.9457728 5 11.363281 5 L 28.941406 5 L 50.636719 5 C 53.054229 5 55.000072 6.784 55 9 L 55 8 C 55.000072 5.784 53.054229 4 50.636719 4 L 28.941406 4 L 11.363281 4 z"/>
 <path style="opacity:0.1" d="M 53.800782,8 53.773438,8.0273438 16.066406,45.667968 13,58 17.96875,56.75 25.265624,54.917968 62.972656,17.277344 63,17.25 60.011718,14.300781 59.90625,14.195312 56.839844,11.109375 Z"/>
 <path style="fill:#e6cb8c" d="m 13.000001,57 3.066543,-12.333026 9.199626,9.249772 z"/>
 <path style="fill:#4e4e4e" d="m 13,57 1.232393,-4.956446 3.736646,3.707416 z"/>
 <path style="fill:#e0b902" d="m 25.266174,53.91674 -9.199627,-9.24977 37.706205,-37.639193 9.19962,9.249772 z"/>
 <path style="fill:#f4d507" d="m 19.133092,47.750224 -3.066549,-3.08325 37.733829,-37.6669736 3.03892,3.1110316 z"/>
 <path style="fill:#daa502" d="M 22.19963,50.833484 25.26617,53.91674 63,16.249772 59.905834,13.194288 Z"/>
 <path style="fill:#c6c6c6" d="M 55,44 H 43.26678 C 40.902952,44 39,45.910938 39,48.284518 V 60 Z"/>
</svg>
