<svg xmlns="http://www.w3.org/2000/svg" width="64" height="64" version="1.1">
 <circle style="opacity:0.2" cx="32" cy="33" r="28"/>
 <circle style="fill:#2ec14a" cx="32" cy="32" r="28"/>
 <path style="opacity:0.2" d="M 46,17 12,35.1875 22.705078,38.70664 38.528906,25.330078 26.80664,40.103906 32.909766,42.11914 39.360156,44.2 Z M 26.021874,42.791798 26,49.8 29.713282,44.052344 28.523828,43.617578 Z"/>
 <path style="fill:#8b9cbe" d="M 46,16 12,34.1875 22.705078,37.70664 38.528906,24.330078 26.80664,39.103906 32.909766,41.11914 39.360156,43.2 Z M 26.021874,41.791798 26,48.8 29.713282,43.052344 28.523828,42.617578 Z"/>
 <path style="opacity:0.2;fill:#8b9cbe" d="M 32 4 A 28 28 0 0 0 4 32 A 28 28 0 0 0 4.0175781 32.492188 A 28 28 0 0 1 32 5 A 28 28 0 0 1 59.974609 32.492188 A 28 28 0 0 0 60 32 A 28 28 0 0 0 32 4 z"/>
</svg>
