<svg xmlns="http://www.w3.org/2000/svg" width="64" height="64" version="1.1">
 <circle style="opacity:0.2" cx="31.5" cy="32.5" r="28.5"/>
 <circle style="fill:#008f7e" cx="31.5" cy="31.5" r="28.5"/>
 <path style="opacity:0.4;fill:none;stroke:#8b9cbe;stroke-width:3;stroke-linejoin:bevel" d="M 22,41.5 H 11.549397 l 9.975,-11 h 31.35 l -8.55,11 H 41"/>
 <path style="fill:#8b9cbe" d="M 22,20 V 37.642857 39 h 2.714286 V 37.642857 26.181362 L 30.267439,39 h 2.465122 L 38.285714,26.181362 V 37.642857 39 H 41 V 37.642857 20 H 38.14788 L 31.5,35.218566 24.85212,20 Z"/>
 <path style="opacity:0.2" d="m 22,21 v 19 h 3 V 28.068359 L 30.302734,40 h 2.394532 L 38,28.068359 V 40 h 3 V 21 H 37.857422 L 31.5,35.304688 25.142578,21 Z"/>
 <path style="fill:#8b9cbe" d="M 22 20 L 22 39 L 25 39 L 25 27.068359 L 30.302734 39 L 32.697266 39 L 38 27.068359 L 38 39 L 41 39 L 41 20 L 37.857422 20 L 31.5 34.304688 L 25.142578 20 L 22 20 z"/>
 <path style="fill:#8b9cbe;opacity:0.1" d="M 31.5 3 A 28.5 28.5 0 0 0 3 31.5 A 28.5 28.5 0 0 0 3.0214844 32.082031 A 28.5 28.5 0 0 1 31.5 4 A 28.5 28.5 0 0 1 59.978516 31.917969 A 28.5 28.5 0 0 0 60 31.5 A 28.5 28.5 0 0 0 31.5 3 z"/>
</svg>
