<svg xmlns="http://www.w3.org/2000/svg" width="64" height="64" version="1.1">
 <path style="opacity:.2" d="m20 5-9.6094 8 0.0039 0.0039v0.002l-2.395 1.994v36l12 10v-34.275l24 34.275 9.6094-8-0.0039-0.0039v-0.002l2.394-1.994v-36l-12-10v34.275z"/>
 <path style="fill:#6ba63f" d="m56 14-12-10v56l12-10z"/>
 <path style="fill:#42afe6" d="m8 14 12-10v56l-12-10z"/>
 <path style="fill:#96ca6b" d="m20 4 33.61 48-9.61 8-33.61-48z"/>
 <path style="fill:#569e41" d="m44 38.277v21.723l9.6055-8.0039z"/>
 <path style="fill:#70be63" d="m20 4-9.605 8.004 9.605 13.719z"/>
 <path style="opacity:.2;fill:#8b9cbe" d="m20 4l-9.609 8 0.004 0.004v0.002l-2.395 1.994v1l2.395-1.994v-0.002l-0.004-0.004 9.609-8 24 34.275v-1l-24-34.275zm24 0v1l12 10v-1l-12-10z"/>
</svg>
