<svg xmlns="http://www.w3.org/2000/svg" width="64" height="64" version="1">
 <path style="fill:#fecd38" d="m33.001 6c-14.404 0-26 11.596-26 26s11.596 26 26 26c8.8538 0 16.647-4.3814 21.338-11.103l-21.338-14.896 24.564-8.574c-3.528-10.166-13.168-17.426-24.564-17.426z"/>
 <circle style="fill:#17191e" cx="35.001" cy="18" r="4"/>
 <path style="opacity:.2" d="m57.221 23.549-24.221 8.451 0.955 0.666 23.609-8.238c-0.103-0.299-0.229-0.586-0.343-0.879zm-50.207 8.951c-0.0032 0.167-0.0137 0.332-0.0137 0.5 0 14.404 11.596 26 26 26 8.854 0 16.647-4.382 21.338-11.104l-0.488-0.341c-4.733 6.344-12.292 10.445-20.85 10.445-14.236 0-25.721-11.33-25.986-25.5z"/>
 <path style="opacity:.2;fill:#8b9cbe" d="m33 6c-14.404 0-26 11.596-26 26 0 0.168 0.0105 0.333 0.0137 0.5 0.2657-14.17 11.75-25.5 25.986-25.5 11.061 0 20.452 6.85 24.221 16.549l0.343-0.121c-3.528-10.166-13.168-17.428-24.564-17.428zm0.955 26.666l-0.955 0.334 20.85 14.555c0.163-0.219 0.331-0.434 0.488-0.659l-20.383-14.23z"/>
</svg>
