<svg xmlns="http://www.w3.org/2000/svg" width="64" height="64" version="1">
 <path style="opacity:0.2" d="M 14.361328,13 C 11.945509,13 10,14.904968 10,17.271484 V 56.728516 C 10,59.095032 11.945509,61 14.361328,61 H 49.638672 C 52.054491,61 54,59.095032 54,56.728516 V 17.271484 C 54,14.904968 52.054491,13 49.638672,13 H 32 Z"/>
 <path style="fill:#989898" d="m 32,3.0000004 a 6,6 0 0 0 -6,6 A 6,6 0 0 0 32,15 a 6,6 0 0 0 6,-5.9999996 6,6 0 0 0 -6,-6 z m 0,3 a 3,3 0 0 1 3,3 A 3,3 0 0 1 32,12 3,3 0 0 1 29,9.0000004 a 3,3 0 0 1 3,-3 z"/>
 <path style="fill:#c48f61" d="M 14.361328 12 C 11.945509 12 10 13.904968 10 16.271484 L 10 55.728516 C 10 58.095032 11.945509 60 14.361328 60 L 49.638672 60 C 52.054491 60 54 58.095032 54 55.728516 L 54 16.271484 C 54 13.904968 52.054491 12 49.638672 12 L 32 12 L 14.361328 12 z"/>
 <path style="opacity:0.1;fill:#8b9cbe" d="M 14.361328 12 C 11.945509 12 10 13.904968 10 16.271484 L 10 17.271484 C 10 14.904968 11.945509 13 14.361328 13 L 32 13 L 49.638672 13 C 52.054491 13 54 14.904968 54 17.271484 L 54 16.271484 C 54 13.904968 52.054491 12 49.638672 12 L 32 12 L 14.361328 12 z"/>
 <rect style="fill:#8b9cbe" width="36" height="41" x="14" y="15"/>
 <path style="fill:#989898" d="M 22.833984 9 C 21.818317 9 21 9.8900465 21 10.998047 L 21 14.001953 L 21 16 L 43 16 L 43 14.001953 L 43 10.998047 C 43 9.8900465 42.181683 9 41.166016 9 L 35 9 A 3 3 0 0 1 32 12 A 3 3 0 0 1 29 9 L 22.833984 9 z"/>
 <path style="fill:none;stroke:#5f5f5f;stroke-width:4;stroke-linecap:round" d="M 20.023203,36.036857 22.919439,38.209863 27,33.082863"/>
 <path style="fill:none;stroke:#c8c8c8;stroke-width:4;stroke-linecap:round" d="m 34.028485,23.9998 h 10.8625"/>
 <path style="fill:none;stroke:#5f5f5f;stroke-width:4;stroke-linecap:round" d="M 20.023203,23.961994 22.919437,26.135 27,21.008"/>
 <path style="fill:none;stroke:#5f5f5f;stroke-width:4;stroke-linecap:round" d="M 20.023203,49.011871 22.919437,51.184866 27,46.057865"/>
 <path style="fill:none;stroke:#c8c8c8;stroke-width:4;stroke-linecap:round" d="m 34.028485,35.9998 h 10.8625"/>
 <path style="fill:none;stroke:#c8c8c8;stroke-width:4;stroke-linecap:round" d="m 34.028485,47.9998 h 10.8625"/>
 <rect style="opacity:0.2" width="36" height="1" x="14" y="56"/>
 <path style="opacity:0.1;fill:#8b9cbe" d="M 32 3 A 6 6 0 0 0 26 9 L 22.833984 9 C 21.818317 9 21 9.8900463 21 10.998047 L 21 11.998047 C 21 10.890046 21.818317 10 22.833984 10 L 26 10 A 6 6 0 0 1 32 4 A 6 6 0 0 1 38 10 L 41.166016 10 C 42.181683 10 43 10.890046 43 11.998047 L 43 10.998047 C 43 9.8900463 42.181683 9 41.166016 9 L 38 9 A 6 6 0 0 0 32 3 z M 34.957031 9.4863281 A 3 3 0 0 1 32 12 A 3 3 0 0 1 29.042969 9.5136719 A 3 3 0 0 0 29 10 A 3 3 0 0 0 32 13 A 3 3 0 0 0 35 10 A 3 3 0 0 0 34.957031 9.4863281 z"/>
</svg>
