<svg xmlns="http://www.w3.org/2000/svg" width="64" height="64" version="1.1">
 <path style="opacity:0.2" d="M 42.4,46 H 4 C 4,46 12.4,58 37.6,58 54.4,58 60,49.6 60,45.4 60,41.766564 60,40 57.2,40 h -12 c -2.8,0 -2.8,2.642598 -2.8,6 z"/>
 <path style="opacity:0.2" d="M 38,16 V 8 l 10,4 z"/>
 <path style="fill:#784421" d="M 42.4,45 H 4 C 4,45 12.4,57 37.6,57 54.4,57 60,48.6 60,44.4 60,40.766564 60,39 57.2,39 h -12 c -2.8,0 -2.8,2.642598 -2.8,6 z"/>
 <path style="opacity:0.2" d="M 38,16 V 46 C 38,46 26,39.145 26,30.999998 26,22.855 38,16 38,16 Z"/>
 <path style="fill:#b2bfd9" d="M 38,15 V 45 C 38,45 26,38.145 26,29.999998 26,21.855 38,15 38,15 Z"/>
 <path style="fill:#c83737" d="M 38,15 V 7 l 10,4 z"/>
 <path style="opacity:0.2" d="m 20,26 v 20 c 0,0 -8,-4.57 -8,-10 0,-5.43 8,-10 8,-10 z"/>
 <path style="fill:#b2bfd9" d="m 20,25 v 20 c 0,0 -8,-4.57 -8,-10 0,-5.43 8,-10 8,-10 z"/>
 <path style="opacity:0.4" d="M 45,42.333334 C 45,42.333334 45,41 46.5,41 48,41 48,42.333334 48,42.333334 V 45 h -3 z"/>
 <path style="opacity:0.4" d="M 50,42.333334 C 50,42.333334 50,41 51.5,41 53,41 53,42.333334 53,42.333334 V 45 h -3 z"/>
 <path style="opacity:0.4" d="M 55,42.333334 C 55,42.333334 55,41 56.5,41 58,41 58,42.333334 58,42.333334 V 45 h -3 z"/>
 <path style="fill:#8b9cbe;opacity:0.1" d="M 45.199219 39 C 42.399219 39 42.400391 41.642598 42.400391 45 L 4 45 C 4 45 4.2782163 45.386216 4.8457031 46 L 42.400391 46 C 42.400391 42.642598 42.399219 40 45.199219 40 L 57.199219 40 C 59.759362 40 59.965588 41.555526 59.984375 44.585938 C 59.986557 44.525923 60 44.458813 60 44.400391 C 60 40.766955 59.999219 39 57.199219 39 L 45.199219 39 z"/>
 <path style="fill:#8b9cbe;opacity:0.1" d="M 38 15 C 38 15 26 21.855002 26 30 C 26 30.167511 26.013495 30.333629 26.023438 30.5 C 26.496931 22.576788 38 16 38 16 L 38 15 z"/>
 <path style="fill:#8b9cbe;opacity:0.1" d="M 38 7 L 38 8 L 46.75 11.5 L 48 11 L 38 7 z"/>
 <path style="fill:#8b9cbe;opacity:0.1" d="M 20 25 C 20 25 12 29.57 12 35 C 12 35.168382 12.030013 35.333382 12.044922 35.5 C 12.510782 30.293522 20 26 20 26 L 20 25 z"/>
</svg>
