<svg xmlns="http://www.w3.org/2000/svg" width="64" height="64" version="1">
 <path style="opacity:0.2" d="M 8.0000003,25.404497 V 56.179488 C 8.0000003,57.742051 9.2592944,59 10.82353,59 H 53.176471 C 54.740706,59 56,57.742051 56,56.179488 V 25.404497 L 32,47.142278 Z"/>
 <path style="fill:#858585" d="M 32.106499,3.0004942 C 30.775,2.9960476 29.439,3.6521506 28.094001,4.9816482 L 8,24.403875 32,49.538462 v 0 L 56,24.403875 36.093501,4.9811542 C 34.7655,3.6689483 33.438,3.0049406 32.106499,3 Z"/>
 <path style="fill:#8b9cbe;opacity:0.1" d="M 32.107422 3 C 30.775923 2.9955534 29.438749 3.6529243 28.09375 4.9824219 L 8 24.404297 L 8.4960938 24.923828 L 28.09375 5.9824219 C 29.438749 4.6529243 30.775923 3.9955534 32.107422 4 C 33.438923 4.0049406 34.765749 4.6682629 36.09375 5.9804688 L 55.505859 24.921875 L 56 24.404297 L 36.09375 4.9804688 C 34.765749 3.6682629 33.438923 3.0049406 32.107422 3 z"/>
 <rect style="fill:#8b9cbe" width="40" height="44" x="12" y="8" rx="4.286" ry="4.258"/>
 <path style="fill:#b7b7b7" d="M 8.0000003,24.404497 V 55.179488 C 8.0000003,56.742051 9.2592944,58 10.82353,58 H 53.176471 C 54.740706,58 56,56.742051 56,55.179488 V 24.404497 L 32,46.142278 Z"/>
 <path style="fill:#dedede" d="m 32.107537,37.00002 c -1.331625,-0.0042 -2.669207,0.639969 -4.014706,1.944138 L 8.8437502,57.198828 C 9.3526366,57.694497 10.05057,58 10.82353,58 h 42.352941 c 0.774357,0 1.473417,-0.306648 1.982536,-0.803906 L 36.09467,38.944158 C 34.766669,37.656712 33.439161,37.0042 32.107537,37.00002 Z"/>
 <path style="fill:#8b9cbe;opacity:0.2" d="M 32.107422 37 C 30.775797 36.9958 29.439249 37.63919 28.09375 38.943359 L 8.84375 57.199219 C 9.0202063 57.371092 9.2261964 57.509524 9.4433594 57.630859 L 28.09375 39.943359 C 29.439249 38.63919 30.775797 37.9958 32.107422 38 C 33.439046 38.00418 34.765749 38.655913 36.09375 39.943359 L 54.564453 57.626953 C 54.780063 57.505683 54.982936 57.366496 55.158203 57.195312 L 36.09375 38.943359 C 34.765749 37.655913 33.439046 37.00418 32.107422 37 z"/>
 <path style="opacity:0.2" d="M 60,48.000003 A 14,14 0 0 1 45.999998,62 14,14 0 0 1 32,48.000003 a 14,14 0 0 1 13.999998,-14 14,14 0 0 1 14.000002,14 z"/>
 <path style="fill:#9141ac" d="M 60,47.000003 A 14,14 0 0 1 45.999998,61 14,14 0 0 1 32,47.000003 a 14,14 0 0 1 13.999998,-14 14,14 0 0 1 14.000002,14 z"/>
 <circle style="fill:#8b9cbe" cx="46" cy="47" r="11"/>
 <path style="fill:#949390;fill-rule:evenodd;stroke:#949390;stroke-width:0.6875;stroke-linecap:round" d="M 45.999998,47 52.7,40.338"/>
 <path style="fill:none;stroke:#ed333b;stroke-width:0.55000001;stroke-linecap:round" d="m 45.999998,47 -3.098892,7.968724"/>
 <path style="fill:none;stroke:#68676b;stroke-width:2.0625;stroke-linecap:round;stroke-linejoin:round" d="M 41.1,41.962 45.999998,47"/>
 <circle style="fill:#42403c" cx="22.863" cy="61.662" r="3" transform="rotate(-24.040002)" overflow="visible"/>
</svg>
