<svg xmlns="http://www.w3.org/2000/svg" width="64" height="64" version="1">
 <path style="opacity:0.2" d="M 55,58.15 V 6.8499999 c 0,-1.5789 -1.310125,-2.85 -2.937501,-2.85 H 10.9375 c -1.627375,0 -2.9375,1.2711 -2.9375,2.85 V 58.15 C 8,59.7289 9.310125,61 10.9375,61 H 52.062499 C 53.689875,61 55,59.7289 55,58.15 Z"/>
 <path style="fill:#ce3f39" d="M 55,57.15 V 5.8499999 c 0,-1.5789 -1.310125,-2.85 -2.937501,-2.85 H 10.9375 c -1.627375,0 -2.9375,1.2711 -2.9375,2.85 V 57.15 C 8,58.7289 9.310125,60 10.9375,60 H 52.062499 C 53.689875,60 55,58.7289 55,57.15 Z"/>
 <path style="opacity:0.3" d="M 14.833984 7 C 13.264318 7 12 8.2643181 12 9.8339844 L 12 21.166016 C 12 22.735682 13.264318 24 14.833984 24 L 26.166016 24 C 27.735683 24 29 22.735682 29 21.166016 L 29 9.8339844 C 29 8.2643181 27.735683 7 26.166016 7 L 14.833984 7 z M 34 7 L 34 10 L 51 10 L 51 7 L 34 7 z M 34 14 L 34 17 L 51 17 L 51 14 L 34 14 z M 34 21 L 34 24 L 51 24 L 51 21 L 34 21 z M 12 28 L 12 31 L 51 31 L 51 28 L 12 28 z M 12 35 L 12 38 L 51 38 L 51 35 L 12 35 z M 12 42 L 12 45 L 51 45 L 51 42 L 12 42 z M 12 49 L 12 52 L 51 52 L 51 49 L 12 49 z"/>
 <circle style="opacity:0.2" cx="47.5" cy="48.5" r="15.5"/>
 <circle style="fill:#5b5b5b" cx="47.5" cy="47.5" r="15.5"/>
 <path style="fill:#8b9cbe;fill-rule:evenodd" d="M 47.5 40 C 45.270725 40.02265 43.025759 40.554788 41.083984 41.703125 C 40.31002 42.229173 39.381847 42.909242 38.681641 43.59375 C 37.579811 44.719617 36.636381 46.032408 36 47.501953 C 37.746418 51.52209 41.586739 54.469148 45.810547 54.904297 C 48.581183 55.23155 51.480461 54.731372 53.916016 53.300781 C 54.689952 52.774732 55.618153 52.094663 56.318359 51.410156 C 57.420203 50.284273 58.363618 48.97135 59 47.501953 C 57.253437 43.481968 53.413403 40.534458 49.189453 40.099609 C 48.629 40.031359 48.064233 40 47.5 40 z M 47.503906 43 C 49.911046 42.94667 52.043433 45.101461 51.998047 47.496094 C 52.075167 50.142682 49.438692 52.425966 46.832031 51.931641 C 44.199305 51.622508 42.349054 48.670003 43.214844 46.167969 C 43.767829 44.326082 45.575346 42.977231 47.503906 43 z M 47.5 46 A 1.5000073 1.5000006 0 0 0 46 47.5 A 1.5000073 1.5000006 0 0 0 47.5 49 A 1.5000073 1.5000006 0 0 0 49 47.5 A 1.5000073 1.5000006 0 0 0 47.5 46.001953 L 47.5 46 z"/>
 <path style="fill:#8b9cbe;opacity:0.2" d="M 10.9375 3 C 9.310125 3 8 4.2707094 8 5.8496094 L 8 6.8496094 C 8 5.2707094 9.310125 4 10.9375 4 L 52.0625 4 C 53.689876 4 55 5.2707094 55 6.8496094 L 55 5.8496094 C 55 4.2707094 53.689876 3 52.0625 3 L 10.9375 3 z"/>
</svg>
