<svg xmlns="http://www.w3.org/2000/svg" width="64" height="64" version="1">
 <rect style="opacity:0.2" width="56" height="50" x="-61" y="-57" rx="2.8" ry="2.778" transform="matrix(0,-1,-1,0,0,0)"/>
 <rect style="fill:#976e2e" width="56" height="50" x="-60" y="-57" rx="2.8" ry="2.778" transform="matrix(0,-1,-1,0,0,0)"/>
 <path style="opacity:0.1" d="M 17.071429,11 C 14.815857,11 13,12.932667 13,15.333333 V 28.333334 32.666666 37 H 17.071429 46.928572 51 V 32.666666 28.333334 15.333333 C 51,12.932667 49.184142,11 46.928572,11 Z M 17,15 H 47 V 28.333334 33 H 17 v -4.666666 z"/>
 <path style="opacity:0.2" d="M 27.651042,43 C 26.333114,43 25,44.399844 25,45.827344 V 57 h 8 a 2.6666664,2.8 0 0 1 2.666666,-2.8 2.6666664,2.8 0 0 1 0.229166,0.011 3.9999996,4.2 0 0 1 3.770834,-2.81092 A 3.9999996,4.2 0 0 1 41,51.64344 V 43 Z"/>
 <path style="fill:#c3c3c3" d="M 17.071429,10 C 14.815857,10 13,11.932667 13,14.333333 V 27.333334 31.666666 36 H 17.071429 46.928572 51 V 31.666666 27.333334 14.333333 C 51,11.932667 49.184142,10 46.928572,10 Z M 17,14 H 47 V 27.333334 32 H 17 v -4.666666 z"/>
 <path style="opacity:0.2;fill:#8b9cbe" d="M 17.070312 10 C 14.814741 10 13 11.931364 13 14.332031 L 13 15.332031 C 13 12.931364 14.814741 11 17.070312 11 L 46.929688 11 C 49.185257 11 51 12.931364 51 15.332031 L 51 14.332031 C 51 11.931364 49.185257 10 46.929688 10 L 17.070312 10 z M 17 32 L 17 33 L 47 33 L 47 32 L 17 32 z"/>
 <rect style="fill:#a4a4a4" width="3.106" height="12" x="31" y="34"/>
 <path style="fill:none;stroke:#c3c3c3;stroke-width:2.78886676;stroke-linecap:round" d="m 27.176186,37.586083 1.38889,-7"/>
 <path style="fill:none;stroke:#c3c3c3;stroke-width:2.78886676;stroke-linecap:round" d="m 32.731742,37.586083 1.38889,-7"/>
 <path style="fill:none;stroke:#c3c3c3;stroke-width:2.78886676;stroke-linecap:round" d="m 38.287298,37.586083 1.388888,-7"/>
 <path style="fill:#ffb22b" d="M 27.651042,42 C 26.333114,42 25,43.399844 25,44.827344 V 56 h 8 a 2.6666664,2.8 0 0 1 2.666666,-2.8 2.6666664,2.8 0 0 1 0.229166,0.011 3.9999996,4.2 0 0 1 3.770834,-2.81092 A 3.9999996,4.2 0 0 1 41,50.64344 V 42 Z"/>
 <circle style="opacity:0.2" cx="28.5" cy="52.5" r="1.5"/>
 <path style="opacity:0.2;fill:none;stroke:#000000;stroke-width:2.78886676;stroke-linecap:round" d="m 24.39841,38.586083 1.388888,-7"/>
 <path style="fill:none;stroke:#eaeaea;stroke-width:2.78886676;stroke-linecap:round" d="m 24.39841,37.586083 1.388888,-7"/>
 <path style="opacity:0.2;fill:none;stroke:#000000;stroke-width:2.78886676;stroke-linecap:round" d="m 29.953964,38.586083 1.38889,-7"/>
 <path style="fill:none;stroke:#eaeaea;stroke-width:2.78886676;stroke-linecap:round" d="m 29.953964,37.586083 1.38889,-7"/>
 <path style="opacity:0.2;fill:none;stroke:#000000;stroke-width:2.78886676;stroke-linecap:round" d="m 35.50952,38.586083 1.38889,-7"/>
 <path style="fill:none;stroke:#eaeaea;stroke-width:2.78886676;stroke-linecap:round" d="m 35.50952,37.586083 1.38889,-7"/>
 <path style="opacity:0.2" d="M 27.652344,42 C 26.334416,42 25,43.400624 25,44.828124 v 2.632814 A 4,4 0 0 0 27,48 4,4 0 0 0 31,44 4,4 0 0 0 30.457032,42 Z"/>
 <path style="opacity:0.2" d="m 40,44 a 3,3 0 0 0 -3,3 3,3 0 0 0 3,3 3,3 0 0 0 1,-0.175782 V 44.175782 A 3,3 0 0 0 40,44 Z"/>
 <path style="opacity:0.1;fill:#8b9cbe" d="M 9.7773438 4 C 8.2384549 4 7 5.2495812 7 6.8007812 L 7 7.8007812 C 7 6.2495813 8.2384549 5 9.7773438 5 L 54.222656 5 C 55.761546 5 57 6.2495812 57 7.8007812 L 57 6.8007812 C 57 5.2495813 55.761546 4 54.222656 4 L 9.7773438 4 z"/>
 <path style="opacity:0.1" d="M 28.5 51 A 1.5 1.5 0 0 0 27 52.5 A 1.5 1.5 0 0 0 27.087891 53 A 1.5 1.5 0 0 1 28.5 52 A 1.5 1.5 0 0 1 29.912109 53 A 1.5 1.5 0 0 0 30 52.5 A 1.5 1.5 0 0 0 28.5 51 z"/>
 <path style="opacity:0.1" d="M 27.652344 42 C 26.334416 42 25 43.400625 25 44.828125 L 25 45.828125 C 25 44.400625 26.334416 43 27.652344 43 L 30.457031 43 A 4 4 0 0 1 30.962891 44.501953 A 4 4 0 0 0 31 44 A 4 4 0 0 0 30.457031 42 L 27.652344 42 z"/>
 <path style="opacity:0.1" d="M 40 44 A 3 3 0 0 0 37 47 A 3 3 0 0 0 37.042969 47.486328 A 3 3 0 0 1 40 45 A 3 3 0 0 1 41 45.175781 L 41 44.175781 A 3 3 0 0 0 40 44 z"/>
</svg>
