<svg xmlns="http://www.w3.org/2000/svg" width="64" height="64" version="1">
 <rect style="opacity:0.2" width="56" height="56" x="4" y="5" rx="16.8" ry="16.8"/>
 <rect style="fill:#7cb651" width="56" height="56" x="4" y="4" rx="16.8" ry="16.8"/>
 <path style="opacity:0.2" d="M 31.417578,17.00546 C 22.835156,17.00546 12.977539,21.638897 8,29.449601 l 16.028258,8.33782 c 1.391204,-2.920876 4.336218,-4.78318 7.571484,-4.78789 3.236254,0.0036 6.582846,1.866124 7.974476,4.78789 L 56,29.449601 C 50.211712,21.237129 40,17.00546 31.417578,17.00546 Z"/>
 <path style="fill:#ffd95f" d="M 31.417578,16.005929 C 22.835156,16.005929 12.977539,20.639366 8,28.45007 l 16.028258,8.33782 C 25.419462,33.867014 28.364476,32.00471 31.599742,32 c 3.236254,0.0036 6.582846,1.866124 7.974476,4.78789 L 56,28.45007 C 50.211712,20.237598 40,16.005929 31.417578,16.005929 Z"/>
 <path style="opacity:0.1" d="m 41.556742,21.594051 -0.622894,1.976034 -4.659042,14.757146 c -0.752266,-1.147266 -1.899504,-1.978474 -3.224028,-2.335908 -2.987412,-0.800476 -6.058098,0.972386 -6.858572,3.959798 -0.800474,2.987408 0.972388,6.058096 3.959798,6.85857 2.414818,0.645304 4.964904,-0.387886 6.249544,-2.532058 0.02298,-0.03786 0.0429,-0.07718 0.06496,-0.11564 0.09714,-0.17174 0.18512,-0.348482 0.263604,-0.529502 0.02208,-0.0509 0.04572,-0.10044 0.06624,-0.1521 0.08386,-0.205726 0.1554,-0.416262 0.214232,-0.630488 0.0092,-0.04 0.0182,-0.0801 0.02658,-0.12028 l 5.20642,-17.21201 c 0.45531,0.797532 0.85234,2.651556 1.22011,3.724628 0.438754,1.28019 0.68131,3.057724 0.499344,4.251368 -0.18196,1.193644 -0.719694,2.244076 -2.033764,3.163448 -0.3507,0.204754 -0.5544,0.59057 -0.53013,0.995946 0.02426,0.405378 0.27181,0.761394 0.644436,0.92285 0.372626,0.16146 0.805948,0.10056 1.118306,-0.15894 1.755868,-1.228462 2.665932,-2.903692 2.923378,-4.592434 0.50062,-3.79956 -1.573268,-7.001476 -3.3936,-10.063636 -0.335952,-0.726738 -0.75635,-1.444462 -1.134898,-2.166782 z"/>
 <path style="fill:#456347" d="M 41.556742,20.59452 40.933848,22.570554 36.274806,37.3277 c -0.752266,-1.147266 -1.899504,-1.978474 -3.224028,-2.335908 -2.987412,-0.800476 -6.058098,0.972386 -6.858572,3.959798 -0.800474,2.987408 0.972388,6.058096 3.959798,6.85857 2.414818,0.645304 4.964904,-0.387886 6.249544,-2.532058 0.02298,-0.03786 0.0429,-0.07718 0.06496,-0.11564 0.09714,-0.17174 0.18512,-0.348482 0.263604,-0.529502 0.02208,-0.0509 0.04572,-0.10044 0.06624,-0.1521 0.08386,-0.205726 0.1554,-0.416262 0.214232,-0.630488 0.0092,-0.04 0.0182,-0.0801 0.02658,-0.12028 l 5.20642,-17.21201 c 0.45531,0.797532 0.85234,2.651556 1.22011,3.724628 0.438754,1.28019 0.68131,3.057724 0.499344,4.251368 -0.18196,1.193644 -0.719694,2.244076 -2.033764,3.163448 -0.3507,0.204754 -0.5544,0.59057 -0.53013,0.995946 0.02426,0.405378 0.27181,0.761394 0.644436,0.92285 0.372626,0.16146 0.805948,0.10056 1.118306,-0.15894 1.755868,-1.228462 2.665932,-2.903692 2.923378,-4.592434 0.50062,-3.79956 -1.573268,-7.001476 -3.3936,-10.063636 -0.335952,-0.726738 -0.75635,-1.444462 -1.134898,-2.166782 z"/>
 <path style="opacity:0.2;fill:#8b9cbe" d="M 31.417969 16.007812 C 22.835547 16.007812 12.977539 20.638515 8 28.449219 L 8.5097656 28.712891 C 13.625276 21.35424 23.112456 17.007812 31.417969 17.007812 C 39.741187 17.007812 49.583956 20.997644 55.451172 28.728516 L 56 28.449219 C 50.211712 20.236747 40.000391 16.007812 31.417969 16.007812 z"/>
 <path style="opacity:0.2;fill:#8b9cbe" d="M 20.800781 4 C 11.493581 4 4 11.493581 4 20.800781 L 4 21.800781 C 4 12.493581 11.493581 5 20.800781 5 L 43.199219 5 C 52.506419 5 60 12.493581 60 21.800781 L 60 20.800781 C 60 11.493581 52.506419 4 43.199219 4 L 20.800781 4 z"/>
</svg>
