<svg xmlns="http://www.w3.org/2000/svg" width="64" height="64" version="1">
 <path style="opacity:0.2" d="M 60,33 A 28,28 0 0 1 32,61 28,28 0 0 1 4,33 28,28 0 0 1 32,5 28,28 0 0 1 60,33 Z"/>
 <path style="fill:#17191e" d="M 60,32 A 28,28 0 0 1 32,60 28,28 0 0 1 4,32 28,28 0 0 1 32,4 28,28 0 0 1 60,32 Z"/>
 <path style="opacity:0.2" d="M 32,5 A 28,28 0 0 0 25.839844,5.7226562 L 32,31.601562 38.164062,5.7109376 A 28,28 0 0 0 32,5 Z m 20.546876,9.019531 -19.335938,18.281251 25.5,-7.60547 A 28,28 0 0 0 52.546876,14.019531 Z m -41.089845,0.0078 A 28,28 0 0 0 5.2617188,24.6875 l 25.5273432,7.613282 z m 19.332031,19.671874 -25.4999996,7.60547 a 28,28 0 0 0 6.1601566,10.67578 z m 2.421876,0 19.33203,18.273438 A 28,28 0 0 0 58.738282,41.3125 Z M 32,34.398438 25.835938,60.289062 A 28,28 0 0 0 32,61 28,28 0 0 0 38.160156,60.277344 Z"/>
 <path style="fill:#ff5454" d="M 32,4 A 28,28 0 0 0 25.839452,4.721875 L 32,30.6 38.163282,4.7109376 A 28,28 0 0 0 32,4 Z"/>
 <path style="fill:#fff129" d="M 52.548828,13.020703 33.211328,31.3 58.709374,23.695702 A 28,28 0 0 0 52.548828,13.020703 Z"/>
 <path style="fill:#c552da" d="M 11.456641,13.026172 A 28,28 0 0 0 5.2632814,23.6875 L 30.788672,31.3 Z"/>
 <path style="fill:#336eef" d="M 30.788672,32.7 5.290625,40.304298 a 28,28 0 0 0 6.160547,10.674998 z"/>
 <path style="fill:#45cb32" d="M 33.211328,32.7 52.54336,50.973828 A 28,28 0 0 0 58.736718,40.3125 Z"/>
 <path style="fill:#00d4ea" d="M 32,33.4 25.836718,59.289064 A 28,28 0 0 0 32,60 28,28 0 0 0 38.160548,59.278124 Z"/>
 <path style="opacity:0.1;fill:#8b9cbe" d="M 32 4 A 28 28 0 0 0 4 32 A 28 28 0 0 0 4.0175781 32.492188 A 28 28 0 0 1 32 5 A 28 28 0 0 1 59.974609 32.492188 A 28 28 0 0 0 60 32 A 28 28 0 0 0 32 4 z"/>
 <path style="opacity:0.1;fill:#8b9cbe" d="M 32 4 A 28 28 0 0 0 25.839844 4.7226562 L 26.066406 5.671875 A 28 28 0 0 1 32 5 A 28 28 0 0 1 37.935547 5.6699219 L 38.164062 4.7109375 A 28 28 0 0 0 32 4 z M 52.548828 13.021484 L 33.210938 31.300781 L 34.755859 30.839844 L 52.548828 14.021484 A 28 28 0 0 1 58.378906 23.792969 L 58.708984 23.695312 A 28 28 0 0 0 52.548828 13.021484 z M 11.457031 13.025391 A 28 28 0 0 0 5.2636719 23.6875 L 5.5703125 23.779297 A 28 28 0 0 1 11.457031 14.025391 L 29.244141 30.839844 L 30.789062 31.300781 L 11.457031 13.025391 z M 30.789062 32.699219 L 5.2910156 40.304688 A 28 28 0 0 0 5.6210938 41.207031 L 29.244141 34.160156 L 30.789062 32.699219 z M 33.210938 32.699219 L 34.755859 34.160156 L 58.429688 41.220703 A 28 28 0 0 0 58.736328 40.3125 L 33.210938 32.699219 z M 32 33.400391 L 25.835938 59.289062 A 28 28 0 0 0 26.064453 59.330078 L 32 34.400391 L 37.933594 59.328125 A 28 28 0 0 0 38.160156 59.277344 L 32 33.400391 z"/>
</svg>
