<svg xmlns="http://www.w3.org/2000/svg" width="64" height="64" version="1.1">
 <circle style="opacity:0.2" cx="31" cy="33" r="23"/>
 <path style="opacity:0.2" d="m 50.520295,9.965101 c -0.322549,0.02662 -0.631626,0.0902 -0.924854,0.190257 h -0.0028 l -0.0132,-0.02642 -0.198178,0.09777 c -0.165139,0.06646 -0.3247,0.144919 -0.478175,0.235177 l -24.14073,12.986406 9.341033,21.187101 c 8.20655,-3.592171 16.547205,-9.917373 24.838335,-13.226866 0.0544,-0.017 0.107899,-0.0361 0.161199,-0.0555 0.119099,-0.04326 0.235422,-0.09262 0.348801,-0.147979 0.06518,-0.0319 0.127059,-0.06986 0.190258,-0.105699 0.10402,-0.05644 0.205357,-0.118119 0.303882,-0.184958 0.151979,-0.107259 0.298104,-0.224575 0.436001,-0.356731 0.134478,-0.134599 0.261429,-0.280944 0.380513,-0.438645 0.07742,-0.09918 0.149118,-0.204642 0.219322,-0.311809 0.0586,-0.08688 0.114979,-0.176759 0.169118,-0.26953 0.07668,-0.135339 0.144899,-0.279728 0.211397,-0.425433 0.03564,-0.07424 0.06998,-0.149999 0.103059,-0.227248 0.06654,-0.163779 0.122379,-0.335169 0.177038,-0.509994 0.02682,-0.08148 0.05236,-0.164299 0.07664,-0.248388 0.04498,-0.164899 0.08118,-0.336769 0.116279,-0.50999 0.02394,-0.107479 0.04596,-0.21672 0.06606,-0.327663 0.028,-0.172599 0.04728,-0.351681 0.06606,-0.531132 0.0132,-0.112219 0.02472,-0.225856 0.03436,-0.340875 0.0128,-0.182179 0.0172,-0.369533 0.02114,-0.557556 0.004,-0.132419 0.0058,-0.266328 0.0052,-0.401651 -0.002,-0.161378 -0.0128,-0.326621 -0.02114,-0.491494 -0.0058,-0.159558 -0.0146,-0.320789 -0.02642,-0.483568 -0.0048,-0.05656 -0.0128,-0.114859 -0.0184,-0.171758 -0.05926,-0.614288 -0.160079,-1.246629 -0.301238,-1.889345 -0.006,-0.02702 -0.0124,-0.05486 -0.0184,-0.08192 -0.148998,-0.662832 -0.340085,-1.333369 -0.570769,-2.002972 l -0.008,-0.02642 c -0.0036,-0.0106 -0.0094,-0.02112 -0.0132,-0.03172 -0.23598,-0.669812 -0.510212,-1.335045 -0.819313,-1.987126 -0.0182,-0.03859 -0.03172,-0.07773 -0.0502,-0.116271 -0.335899,-0.700813 -0.710348,-1.382435 -1.117753,-2.03468 -0.285952,-0.454716 -0.587043,-0.893553 -0.901073,-1.313295 -0.02962,-0.03988 -0.0574,-0.08207 -0.0872,-0.121547 -0.308154,-0.407872 -0.627753,-0.796335 -0.95657,-1.162675 -0.04518,-0.05038 -0.09194,-0.09587 -0.137399,-0.145334 -0.287622,-0.313219 -0.58145,-0.608811 -0.879843,-0.885202 -0.05208,-0.04819 -0.103611,-0.09837 -0.155905,-0.145335 -0.340467,-0.306582 -0.68565,-0.587318 -1.033196,-0.840296 -0.02736,-0.01986 -0.05454,-0.03598 -0.08192,-0.05549 -0.298152,-0.211526 -0.597247,-0.4021 -0.895789,-0.570767 -0.09268,-0.05264 -0.184878,-0.104843 -0.277456,-0.153261 -0.328425,-0.174643 -0.654986,-0.322037 -0.977704,-0.441288 -0.031,-0.01118 -0.06152,-0.01576 -0.09248,-0.02642 -0.302638,-0.102985 -0.600889,-0.180636 -0.893147,-0.232535 -0.08066,-0.01464 -0.160499,-0.02627 -0.240462,-0.03699 -0.320071,-0.0466 -0.631683,-0.06161 -0.932781,-0.04492 z"/>
 <path style="fill:#e3954f" d="m 50.520295,8.9645879 c -0.322549,0.026618 -0.631626,0.090201 -0.924854,0.1902565 h -0.0028 l -0.0132,-0.026424 -0.198178,0.097771 c -0.165139,0.066459 -0.3247,0.1449188 -0.478175,0.2351765 l -24.14073,12.9864061 9.341033,21.187101 c 8.20655,-3.592171 16.547205,-9.917373 24.838335,-13.226866 0.0544,-0.017 0.107899,-0.0361 0.161199,-0.0555 0.119099,-0.04326 0.235422,-0.09262 0.348801,-0.147979 0.06518,-0.0319 0.127059,-0.06986 0.190258,-0.105699 0.10402,-0.05644 0.205357,-0.118119 0.303882,-0.184958 0.151979,-0.107259 0.298104,-0.224575 0.436001,-0.356731 0.134478,-0.134599 0.261429,-0.280944 0.380513,-0.438645 0.07742,-0.09918 0.149118,-0.204642 0.219322,-0.311809 0.0586,-0.08688 0.114979,-0.176759 0.169118,-0.26953 0.07668,-0.135339 0.144899,-0.279728 0.211397,-0.425433 0.03564,-0.07424 0.06998,-0.149999 0.103059,-0.227248 0.06654,-0.163779 0.122379,-0.335169 0.177038,-0.509994 0.02682,-0.08148 0.05236,-0.164299 0.07664,-0.248388 0.04498,-0.164899 0.08118,-0.336769 0.116279,-0.50999 0.02394,-0.107479 0.04596,-0.21672 0.06606,-0.327663 0.028,-0.172599 0.04728,-0.351681 0.06606,-0.531132 0.0132,-0.112219 0.02472,-0.225856 0.03436,-0.340875 0.0128,-0.182179 0.0172,-0.369533 0.02114,-0.557556 0.004,-0.132419 0.0058,-0.266328 0.0052,-0.401651 -0.002,-0.161378 -0.0128,-0.326621 -0.02114,-0.491494 -0.0058,-0.159558 -0.0146,-0.320789 -0.02642,-0.483568 -0.0048,-0.05656 -0.0128,-0.114859 -0.0184,-0.171758 -0.05926,-0.614288 -0.160079,-1.246629 -0.301238,-1.889345 -0.006,-0.02702 -0.0124,-0.05486 -0.0184,-0.08192 -0.148998,-0.662832 -0.340085,-1.333369 -0.570769,-2.002971 l -0.008,-0.02642 c -0.0036,-0.01056 -0.0094,-0.02112 -0.0132,-0.03171 -0.23598,-0.669817 -0.510212,-1.335051 -0.819313,-1.987132 -0.0182,-0.03859 -0.03172,-0.07773 -0.0502,-0.116271 -0.335899,-0.700812 -0.710348,-1.382435 -1.117753,-2.03468 -0.285952,-0.454716 -0.587043,-0.893552 -0.901073,-1.313295 -0.02962,-0.03988 -0.0574,-0.08207 -0.0872,-0.121547 -0.308154,-0.407872 -0.627753,-0.796334 -0.95657,-1.162674 -0.04518,-0.05038 -0.09194,-0.09587 -0.137399,-0.145335 -0.287622,-0.313218 -0.58145,-0.608811 -0.879843,-0.885202 -0.05208,-0.04819 -0.103611,-0.09837 -0.155905,-0.145334 -0.340467,-0.306583 -0.68565,-0.587319 -1.033196,-0.840297 -0.02736,-0.01986 -0.05454,-0.03598 -0.08192,-0.05549 C 54.531963,10.259253 54.232868,10.06868 53.934326,9.9000122 53.841647,9.8473726 53.749448,9.795169 53.65687,9.7467514 53.328445,9.5721088 53.001884,9.4247146 52.679166,9.3054636 c -0.031,-0.01118 -0.06152,-0.01576 -0.09248,-0.026424 -0.302638,-0.1029852 -0.600889,-0.1806366 -0.893147,-0.232535 -0.08066,-0.01464 -0.160499,-0.026268 -0.240462,-0.036994 -0.320071,-0.0466 -0.631683,-0.061607 -0.932781,-0.044922 z"/>
 <path style="opacity:0.1;fill:#8b9cbe" d="M 50.519531 8.9648438 C 50.196982 8.9914617 49.890884 9.0561945 49.597656 9.15625 L 49.59375 9.15625 L 49.578125 9.1289062 L 49.382812 9.2265625 C 49.217673 9.2930225 49.055819 9.370679 48.902344 9.4609375 L 24.761719 22.449219 L 25.117188 23.257812 L 48.902344 10.460938 C 49.055819 10.370679 49.217673 10.293022 49.382812 10.226562 L 49.578125 10.128906 L 49.59375 10.15625 L 49.597656 10.15625 C 49.890884 10.056194 50.196982 9.9914617 50.519531 9.9648438 C 50.820629 9.9481587 51.133056 9.9612125 51.453125 10.007812 C 51.533092 10.018532 51.614652 10.032235 51.695312 10.046875 C 51.987571 10.098774 52.283301 10.174359 52.585938 10.277344 C 52.616898 10.288004 52.648688 10.293508 52.679688 10.304688 C 53.002406 10.423938 53.327825 10.571451 53.65625 10.746094 C 53.748834 10.794511 53.840914 10.845797 53.933594 10.898438 C 54.232136 11.067106 54.533881 11.25722 54.832031 11.46875 C 54.859411 11.48825 54.886702 11.507484 54.914062 11.527344 C 55.261609 11.780322 55.604846 12.060605 55.945312 12.367188 C 55.997607 12.414157 56.049483 12.463529 56.101562 12.511719 C 56.399956 12.78811 56.692847 13.08522 56.980469 13.398438 C 57.025928 13.447908 57.072007 13.492589 57.117188 13.542969 C 57.446005 13.909309 57.766061 14.295254 58.074219 14.703125 C 58.104019 14.742604 58.134442 14.788245 58.164062 14.828125 C 58.478093 15.247867 58.776548 15.685909 59.0625 16.140625 C 59.469905 16.79287 59.843789 17.474969 60.179688 18.175781 C 60.198167 18.214322 60.212269 18.250473 60.230469 18.289062 C 60.53957 18.941144 60.814732 19.60752 61.050781 20.277344 C 61.054581 20.287934 61.0589 20.298034 61.0625 20.308594 L 61.070312 20.335938 C 61.300996 21.005539 61.495533 21.677011 61.644531 22.339844 C 61.650531 22.366904 61.654156 22.394855 61.660156 22.421875 C 61.801317 23.064589 61.901677 23.694306 61.960938 24.308594 C 61.966538 24.365493 61.975669 24.423909 61.980469 24.480469 C 61.992209 24.643248 62.002012 24.805286 62.007812 24.964844 C 62.010545 25.018486 62.011045 25.071326 62.013672 25.125 C 62.016236 25.036127 62.021535 24.948789 62.023438 24.859375 C 62.027437 24.726956 62.027944 24.592354 62.027344 24.457031 C 62.025344 24.295653 62.016213 24.129717 62.007812 23.964844 C 62.002012 23.805286 61.992209 23.643248 61.980469 23.480469 C 61.975669 23.423909 61.966537 23.365493 61.960938 23.308594 C 61.901677 22.694306 61.801317 22.064589 61.660156 21.421875 C 61.654156 21.394855 61.650531 21.366904 61.644531 21.339844 C 61.495533 20.677011 61.300996 20.005539 61.070312 19.335938 L 61.0625 19.308594 C 61.0589 19.298034 61.054581 19.287934 61.050781 19.277344 C 60.814732 18.60752 60.53957 17.941144 60.230469 17.289062 C 60.212269 17.250472 60.198168 17.214322 60.179688 17.175781 C 59.843789 16.474969 59.469905 15.79287 59.0625 15.140625 C 58.776548 14.685909 58.478093 14.247867 58.164062 13.828125 C 58.134442 13.788245 58.104019 13.742604 58.074219 13.703125 C 57.766061 13.295254 57.446005 12.909309 57.117188 12.542969 C 57.072007 12.492589 57.025928 12.447908 56.980469 12.398438 C 56.692847 12.085219 56.399955 11.78811 56.101562 11.511719 C 56.049483 11.463529 55.997607 11.414157 55.945312 11.367188 C 55.604846 11.060605 55.261609 10.780322 54.914062 10.527344 C 54.886702 10.507484 54.859411 10.48825 54.832031 10.46875 C 54.533881 10.25722 54.232136 10.067105 53.933594 9.8984375 C 53.840915 9.8457979 53.748834 9.7945114 53.65625 9.7460938 C 53.327825 9.5714511 53.002406 9.4239383 52.679688 9.3046875 C 52.648688 9.2935075 52.616897 9.2880078 52.585938 9.2773438 C 52.2833 9.1743587 51.98757 9.0987734 51.695312 9.046875 C 51.614652 9.032235 51.533092 9.0185385 51.453125 9.0078125 C 51.133056 8.9612125 50.820629 8.9481587 50.519531 8.9648438 z"/>
 <circle style="fill:#edd448" cx="31" cy="32" r="23"/>
 <path style="fill:#e3954f" d="m 42.944982,12.637074 -16.24987,8.019467 a 12.999896,5.999952 0 0 0 4.304654,0.343747 12.999896,5.999952 0 0 0 12.999896,-5.999952 12.999896,5.999952 0 0 0 -1.05468,-2.363262 z m 5.222614,16.370962 a 7.3662047,11.862496 28.50578 0 0 -9.570235,6.656197 7.3662047,11.862496 28.50578 0 0 -2.351543,6.054639 L 52.874591,33.21894 a 7.3662047,11.862496 28.50578 0 0 -2.113265,-3.328099 7.3662047,11.862496 28.50578 0 0 -2.59373,-0.882805 z"/>
 <path style="opacity:0.3" d="m 48.167894,29.00682 a 7.3662047,11.862496 28.50578 0 0 -9.569637,6.658209 7.3662047,11.862496 28.50578 0 0 -0.157599,14.447152 7.3662047,11.862496 28.50578 0 0 7.558988,-0.77621 23.649663,23.377583 0 0 0 6.51018,-9.244674 7.3662047,11.862496 28.50578 0 0 -1.749818,-10.200834 7.3662047,11.862496 28.50578 0 0 -2.592114,-0.883643 z"/>
 <path style="opacity:0.3" d="M 31 9 A 22.999817 22.999817 0 0 0 19.9375 11.863281 A 12.999896 5.9999518 0 0 0 18 15 A 12.999896 5.9999518 0 0 0 31 21 A 12.999896 5.9999518 0 0 0 44 15 A 12.999896 5.9999518 0 0 0 41.990234 11.798828 A 22.999817 22.999817 0 0 0 31 9 z"/>
 <path style="opacity:0.2;fill:#8b9cbe" d="M 31 9 A 22.999816 22.999816 0 0 0 8 32 A 22.999816 22.999816 0 0 0 8.0175781 32.484375 A 22.999816 22.999816 0 0 1 31 10 A 22.999816 22.999816 0 0 1 53.974609 32.496094 A 22.999816 22.999816 0 0 0 54 32 A 22.999816 22.999816 0 0 0 31 9 z"/>
 <path style="opacity:0.1" d="m 13.68263,28.759072 a 11.588019,6.3002288 64.809931 0 0 -1.418992,0.200824 l -7.4014799,3.643929 a 11.588019,6.3002288 64.80993 0 0 -0.615689,0.30388 l -0.060776,0.02906 0.00264,0.0028 A 11.588019,6.3002288 64.80993 0 0 3.6069958,33.404634 11.588019,6.3002288 64.80993 0 0 4.8859377,47.821798 11.588019,6.3002288 64.80993 0 0 14.54935,53.62196 l 7.419976,-3.651855 -0.0052,-0.0106 a 11.588019,6.3002288 64.809931 0 0 0.827085,-0.60512 11.588019,6.3002288 64.809931 0 0 -1.278941,-14.417162 11.588019,6.3002288 64.809931 0 0 -7.829556,-6.178031 z"/>
 <path style="fill:#e3954f" d="m 13.68263,27.758558 a 11.588019,6.3002288 64.809931 0 0 -1.418992,0.200824 l -7.4014799,3.643929 a 11.588019,6.3002288 64.80993 0 0 -0.615689,0.30388 l -0.060776,0.02906 0.00264,0.0028 A 11.588019,6.3002288 64.80993 0 0 3.6069958,32.40412 11.588019,6.3002288 64.80993 0 0 4.8859377,46.821284 11.588019,6.3002288 64.80993 0 0 14.54935,52.621446 l 7.419976,-3.651855 -0.0052,-0.0106 a 11.588019,6.3002288 64.809931 0 0 0.827085,-0.60512 11.588019,6.3002288 64.809931 0 0 -1.278941,-14.417162 11.588019,6.3002288 64.809931 0 0 -7.829556,-6.178031 z"/>
 <ellipse style="opacity:0.2" cx="-14.123" cy="37.675" rx="6.569" ry="11.438" transform="matrix(0.70812503,-0.70608706,0.5186338,0.85499648,0,0)"/>
 <path style="opacity:0.1" d="m 52.591797,33.363281 -16.083985,8.222657 c -0.101846,0.379207 -0.189202,0.757317 -0.261718,1.132812 l 16.628906,-8.5 c -0.07985,-0.297833 -0.174374,-0.58337 -0.283203,-0.855469 z"/>
</svg>
