<svg xmlns="http://www.w3.org/2000/svg" width="64" height="64" version="1">
 <path style="opacity:0.2" d="m 59.9988,44.5 0,2 c 0,1.724 -1.38717,3.434 -3.109334,3.5 l -25.889444,0 -6.99985,8 -6.999851,-8 -9.8897878,0 C 5.38657,50 4.0005998,48.224 4.0005998,46.5 l 0,-2 c 0,1.724 1.3859702,3.5 3.1099334,3.5 l 9.8897878,0 6.999851,8 6.99985,-8 25.889444,0 C 58.61283,47.934 60,46.224 60,44.5 Z"/>
 <path style="fill:#3c6eac" d="M 56.887666,7 C 58.61123,7 59.9988,8.7764 59.9988,10.5 l 0,35 c 0,1.724 -1.38877,3.434 -3.111134,3.5 l -17.79075,0 -6.995372,-3.634362 -6.889718,1.502204 -6.779587,-1.722468 -7.685945,0.770926 C 9.0309386,46.088356 8.4861774,44.58058 8.5154184,42.856828 L 8.955947,16.887665 c 0.029234,-1.723352 2.981115,-2.771625 4.543651,-3.5 L 27.202644,7 Z"/>
 <path style="fill:#47f6f4" d="M 7.1132812,7 C 5.389318,7 4,8.7764 4,10.5 l 0,35 C 4,47.224 5.389318,49 7.1132812,49 L 17,49 l 7,8 7,-8 8.78125,0 c 1.71057,-1.146168 3.424222,-2.415958 5.140626,-3.839844 7.717558,-6.71153 10.066416,-19.097064 2.910156,-27.101562 -4.89442,-5.474142 -13.645974,-7.117459 -19.346954,-1.878906 -3.7932,3.486296 -4.919296,9.79845 -1.160156,13.746094 2.42404,2.545938 6.569486,3.288028 9.229766,0.660156 1.65418,-1.634086 2.124578,-4.929844 0.335936,-6.65625 -1.064518,-1.02791 -2.930592,-1.31597 -4.007812,-0.14062 -0.6127,0.6645 -0.77475,2.218826 -0.03126,2.85547 0.39444,0.336698 1.068476,0.42358 1.421876,-0.02344 0.17344,-0.219178 0.221784,-0.592898 -0.03516,-0.773438 -0.11548,-0.07988 -0.30332,-0.09764 -0.38672,0.03516 -0.0234,0.05146 -0.02824,0.13846 0.03516,0.17188 0.0234,0.0132 0.07032,0.015 0.07032,-0.0118 l 0,-0.0196 0,-0.004 c -0.0334,-0.0098 0,-0.0184 0,-0.0196 0.0234,-0.0112 0.05468,0.012 0.05468,0.03516 0.0134,0.0666 -0.04938,0.12722 -0.10938,0.14062 -0.15694,0.0357 -0.267382,-0.1142 -0.300782,-0.25 -0.05172,-0.306456 0.239232,-0.536894 0.519532,-0.570314 0.5663,-0.06612 0.983438,0.47074 1.023438,0.988282 0.07508,0.975218 -0.853586,1.675424 -1.753908,1.714844 -1.594098,0.07028 -2.70488,-1.450378 -2.73828,-2.929688 -0.04272,-2.48445 2.342048,-4.2009 4.667968,-4.1875 3.74082,0.02102 6.28942,3.615878 6.19922,7.128906 C 41.383032,33.517478 36.122376,37.215236 30.972656,37 23.234756,36.676868 17.58588,29.16476 18,21.835938 18.377671,15.135 22.783478,9.8484104 28.527344,7 Z"/>
 <path style="opacity:0.1;fill:#8b9cbe" d="M 7.1113281 7 C 5.3873649 7 4 8.7764 4 10.5 L 4 11.5 C 4 9.7764 5.3873649 8 7.1113281 8 L 56.888672 8 C 58.612236 8 59.998047 9.7764 59.998047 11.5 L 59.998047 10.5 C 59.998047 8.7764 58.612236 7 56.888672 7 L 7.1113281 7 z"/>
 <path style="opacity:0.2" d="M 26.740234,8 C 21.892426,10.998936 18.337339,15.850595 18,21.835938 c -0.02696,0.477044 -0.02528,0.955076 -0.002,1.43164 0.0035,-0.143876 -0.0062,-0.287851 0.002,-0.43164 C 18.377671,16.135 22.783478,10.84841 28.527344,8 Z m 8.580078,12.941406 c -2.325918,-0.0134 -4.710688,1.70305 -4.667968,4.1875 0.003,0.132 0.02521,0.263033 0.04492,0.394532 0.317282,-2.152485 2.49183,-3.59431 4.623046,-3.582032 3.479915,0.01955 5.925772,3.132447 6.177735,6.394532 0.0051,-0.08944 0.01922,-0.175212 0.02148,-0.265626 0.0902,-3.513028 -2.458399,-7.107886 -6.199219,-7.128906 z M 25,24.501953 c -0.117453,2.304972 0.400597,4.612954 2.125,6.423828 2.42404,2.545938 6.769406,3.288027 9.429688,0.660157 1.036118,-1.023534 1.606208,-2.699035 1.449218,-4.232422 -0.112965,1.223159 -0.635669,2.428753 -1.449218,3.232422 C 33.894407,33.213808 29.54904,32.471719 27.125,29.925781 25.65036,28.377195 25.105016,26.46494 25,24.501953 Z m 9.121094,0.853516 c -0.2803,0.03342 -0.571252,0.263856 -0.519532,0.570312 0.0334,0.1358 0.143842,0.2857 0.300782,0.25 0.06,-0.0134 0.122775,-0.07402 0.109375,-0.140625 0,-0.02316 -0.03129,-0.04636 -0.05469,-0.03516 0,0.0012 -0.0334,0.0097 0,0.01953 l 0,0.0039 0,0.01953 c 0,0.0268 -0.04691,0.02492 -0.07031,0.01172 -0.0634,-0.03342 -0.05856,-0.120416 -0.03516,-0.171876 0.0834,-0.132799 0.271239,-0.115036 0.386719,-0.03516 0.175005,0.122966 0.201697,0.335014 0.150391,0.527344 0.297564,0.06864 0.533206,0.301145 0.658203,0.585938 0.075,-0.189176 0.114773,-0.394852 0.09766,-0.617188 -0.04,-0.517542 -0.457137,-1.054401 -1.023437,-0.988281 z m -1.710938,0.453125 c -0.134173,0.675564 -0.02512,1.436453 0.441406,1.835937 0.394442,0.336698 1.068475,0.423583 1.421876,-0.02344 0.173439,-0.219178 0.221787,-0.592898 -0.03516,-0.773438 -0.04726,-0.03269 -0.108589,-0.04496 -0.167969,-0.05078 -0.06663,0.04156 -0.140302,0.06145 -0.214843,0.08203 -0.0011,0.0016 -0.0028,0.0022 -0.0039,0.0039 -0.0234,0.05146 -0.02824,0.138454 0.03516,0.171876 0.0234,0.0132 0.07031,0.01508 0.07031,-0.01172 l 0,-0.01953 0,-0.0039 c -0.0334,-0.0098 0,-0.01833 0,-0.01953 0.0234,-0.0112 0.05469,0.012 0.05469,0.03516 0.0134,0.0666 -0.04937,0.127225 -0.109375,0.140625 -0.15694,0.0357 -0.267381,-0.1142 -0.300782,-0.25 -2.33e-4,-0.0014 2.2e-4,-0.0025 0,-0.0039 -0.269686,-0.0019 -0.546683,-0.103791 -0.75,-0.277344 -0.237514,-0.203381 -0.373889,-0.504178 -0.441406,-0.835937 z m 19.69336,4.548828 C 51.862995,35.893713 49.232038,41.411848 44.921875,45.160156 43.205471,46.584042 41.49182,47.853832 39.78125,49 l 1.414062,0 c 1.240897,-0.88165 2.48265,-1.807925 3.726563,-2.839844 4.569872,-3.974163 7.235426,-9.937269 7.181641,-15.802734 z"/>
</svg>
