<svg xmlns="http://www.w3.org/2000/svg" width="64" height="64" version="1.1">
 <g>
  <path style="opacity:0.2" d="m 10,56 0,2 c 0,1.662 1.338,3 3,3 l 38,0 c 1.662,0 3,-1.338 3,-3 l 0,-2 c 0,1.662 -1.338,3 -3,3 l -38,0 c -1.662,0 -3,-1.338 -3,-3 z"/>
  <path style="fill:#961a1a" d="m 13,4 c -1.662,0 -3,1.338 -3,3 l 0,50 c 0,1.662 1.338,3 3,3 l 38,0 c 1.662,0 3,-1.338 3,-3 L 54,7 C 54,5.338 52.662,4 51,4 L 13,4 Z"/>
  <path style="opacity:0.2" d="m 13,4 c -1.662,0 -3,1.338 -3,3 l 0,50 c 0,1.662 1.338,3 3,3 l 5,0 0,-56 z"/>
  <path style="opacity:0.1;fill:#8b9cbe" d="M 13 4 C 11.338 4 10 5.338 10 7 L 10 8 C 10 6.338 11.338 5 13 5 L 51 5 C 52.662 5 54 6.338 54 8 L 54 7 C 54 5.338 52.662 4 51 4 L 13 4 z"/>
  <path style="opacity:0.2" d="M 32,13 V 23 H 22 v 8 h 10 v 22 h 8 V 31 H 50 V 23 H 40 V 13 Z"/>
  <rect style="fill:#8b9cbe" width="8" height="40" x="32" y="12"/>
  <rect style="fill:#8b9cbe" width="8" height="28" x="22" y="-50" transform="rotate(90)"/>
 </g>
</svg>
