<svg xmlns="http://www.w3.org/2000/svg" width="64" height="64" version="1">
 <path style="opacity:0.2" d="m 32.128906,3.9988649 c -0.05378,-0.00109 -0.10646,0.0076 -0.16016,0.00782 -0.03246,0.002 -0.06506,0.00328 -0.09766,0.0039 -1.112069,0.020828 -2.201665,0.3100207 -3.167963,0.8671856 L 9.2969215,16.080871 c -0.9673708,0.558441 -1.7404578,1.352927 -2.3046826,2.273433 l -0.01172,-0.0078 c -0.02221,0.03618 -0.03707,0.07669 -0.058594,0.113282 -0.022854,0.03892 -0.052154,0.0739 -0.074218,0.113282 l 0.01172,0.0078 c -0.5435272,0.968205 -0.8594462,2.066203 -0.8593738,3.214836 v 11.203101 11.203101 c -6e-7,1.149558 0.320025,2.244982 0.8671858,3.210932 0.043682,0.07712 0.078298,0.159 0.1249998,0.234375 l 0.027344,-0.0156 c 0.1969836,0.325194 0.3988878,0.651405 0.6523425,0.937499 a 6.5948519,6.5947775 0 0 0 0.1210937,0.144539 c 0.1079358,0.11496 0.2233918,0.22074 0.3398429,0.328124 a 6.5948519,6.5947775 0 0 0 0.2265622,0.199219 c 0.1071578,0.09014 0.2147371,0.18202 0.3281243,0.265624 A 6.5948519,6.5947775 0 0 0 9.296922,49.912867 L 28.703131,61.11597 a 6.5948519,6.5947775 0 0 0 3.167963,0.874998 v 0.0078 a 6.5948519,6.5947775 0 0 0 3.425775,-0.88281 L 54.703077,49.912855 a 6.5948519,6.5947775 0 0 0 2.316404,-2.26562 l 0.004,0.004 a 6.5948519,6.5947775 0 0 0 0.07032,-0.124999 6.5948519,6.5947775 0 0 0 0.0586,-0.10156 l -0.004,-0.004 a 6.5948519,6.5947775 0 0 0 0.851547,-3.21877 V 21.795704 a 6.5948519,6.5947775 0 0 0 -0.05468,-0.785156 c -0.01,-0.08378 -0.02198,-0.16698 -0.03516,-0.249999 a 6.5948519,6.5947775 0 0 0 -0.09766,-0.496091 c -0.02684,-0.1125 -0.05722,-0.221466 -0.08984,-0.332032 a 6.5948519,6.5947775 0 0 0 -0.124999,-0.367187 c -0.04584,-0.127316 -0.08716,-0.254904 -0.14062,-0.378905 a 6.5948519,6.5947775 0 0 0 -0.0196,-0.05078 l -0.004,0.0039 c -0.1204,-0.273238 -0.270026,-0.534606 -0.425627,-0.789054 l -0.0196,0.01172 C 56.427663,17.440887 55.669386,16.6387 54.703078,16.080873 L 35.296869,4.8777693 C 34.339841,4.326017 33.260643,4.0243611 32.15625,3.9988649 c -0.0092,-2.208e-4 -0.0182,-1.7e-5 -0.02734,0 z"/>
 <path style="fill:#add439" d="m 32.155166,3.0014752 c -0.09548,-0.00231 -0.18974,0.00952 -0.28494,0.01132 L 31.932292,16.890435 32,32.000062 45.067681,24.503307 57.133846,17.584317 C 56.564864,16.565661 55.747443,15.687024 54.701993,15.083511 L 35.297953,3.8794478 C 34.340927,3.3276955 33.259559,3.0269713 32.155166,3.0014752 Z"/>
 <path style="fill:#ac1248" d="m 6.9818221,17.349246 c -0.6267947,1.021217 -0.981847,2.207276 -0.9817688,3.446752 v 11.204064 11.204061 c -6e-7,1.241331 0.3585309,2.424483 0.9902324,3.443919 L 19.000027,39.612934 32,32.000062 19.000027,24.387189 Z"/>
 <path style="fill:#3471b9" d="M 57.009715,17.35208 44.999973,24.387189 32,32.000062 l 12.999973,7.612872 12.023848,7.040774 a 6.5948519,6.5947775 0 0 0 0.976126,-3.449585 V 20.795998 a 6.5948519,6.5947775 0 0 0 -0.0536,-0.784511 c -0.01,-0.08379 -0.0235,-0.166206 -0.03668,-0.249231 a 6.5948519,6.5947775 0 0 0 -0.09874,-0.49563 c -0.02684,-0.112496 -0.05484,-0.223631 -0.08746,-0.334197 A 6.5948519,6.5947775 0 0 0 57.599328,18.56708 c -0.04584,-0.127316 -0.0876,-0.25551 -0.14106,-0.379511 a 6.5948519,6.5947775 0 0 0 -0.02258,-0.05098 l -0.0028,0.0029 C 57.312334,17.86624 57.165226,17.60659 57.009625,17.352142 Z"/>
 <path style="opacity:0.2" d="M 7.3183594 17.84375 C 7.1449865 18.075892 6.9871883 18.31977 6.8457031 18.572266 L 16 23.822266 L 16 22.822266 L 7.3183594 17.84375 z M 56.666016 17.853516 L 45.068359 24.503906 L 32 32 L 32 33 L 45.068359 25.503906 L 57.134766 18.583984 C 56.993665 18.33137 56.837523 18.086773 56.666016 17.853516 z"/>
 <path style="fill:#86b02f" d="M 32.129774,3.0014752 C 30.928332,2.9770284 29.743365,3.2790264 28.702047,3.8794478 L 9.2980065,15.083511 C 8.2523489,15.687145 7.4169354,16.554815 6.8464058,17.572988 L 18.932318,24.503307 32,32.000062 32.067708,16.890435 Z"/>
 <path style="fill:#2e90e8" d="m 32,32.000062 -0.0677,15.109625 -0.06206,13.888959 a 6.5948519,6.5947775 0 0 0 3.427727,-0.880804 l 19.40404,-11.204065 a 6.5948519,6.5947775 0 0 0 2.448779,-2.486643 l -12.083091,-6.93032 z"/>
 <path style="fill:#eb2f6a" d="m 32,32.000062 -13.067682,7.496752 -12.0661639,6.91899 c 0.2310232,0.408087 0.4914242,0.799826 0.8040348,1.152694 a 6.5948519,6.5947775 0 0 0 0.1241317,0.144439 c 0.1079358,0.11496 0.2220896,0.22398 0.3385409,0.331364 a 6.5948519,6.5947775 0 0 0 0.225694,0.198259 c 0.1071578,0.09014 0.2138691,0.17978 0.3272563,0.263392 a 6.5948519,6.5947775 0 0 0 0.6121949,0.407831 L 28.702045,60.117848 a 6.5948519,6.5947775 0 0 0 3.427729,0.872308 l -0.06206,-13.880463 z"/>
 <path style="opacity:0.2;fill:#8b9cbe" d="M 32 32 L 18.933594 39.496094 L 6.8671875 46.414062 C 7.0095649 46.665563 7.1696159 46.907732 7.3398438 47.142578 L 18.933594 40.496094 L 32 33 L 45.066406 40.496094 L 56.671875 47.150391 A 6.5948519 6.5947775 0 0 0 57.152344 46.425781 L 45.066406 39.496094 L 32 32 z"/>
 <path style="opacity:0.2" d="m 32,14.515407 15.999967,9.240399 V 42.159601 L 32,51.4 16.000033,42.159601 V 23.755806 Z"/>
 <path style="fill:#8b9cbe" d="m 32,13.515411 15.999967,9.2404 V 41.159605 L 32,50.400004 16.000033,41.159605 V 22.755811 Z"/>
 <path style="fill:#cedbe6" d="m 32,13.515411 15.999967,9.2404 V 41.159605 L 32,50.400004 Z"/>
 <path style="fill:#dee5c0" d="M 32,13.515411 16.000033,22.755811 32,31.99621 47.999967,22.755811 Z"/>
 <path style="opacity:0.2;fill:#8b9cbe" d="M 32.128906 3 C 32.075126 2.99891 32.02245 3.0075925 31.96875 3.0078125 C 31.93629 3.0098125 31.903694 3.0110988 31.871094 3.0117188 C 30.759025 3.0325467 29.669425 3.3217414 28.703125 3.8789062 L 9.296875 15.082031 C 8.3295042 15.640472 7.5564123 16.434963 6.9921875 17.355469 L 6.9804688 17.347656 C 6.9582587 17.383836 6.943399 17.424346 6.921875 17.460938 C 6.899021 17.499858 6.8697203 17.534837 6.8476562 17.574219 L 6.859375 17.582031 C 6.315848 18.550237 5.9999276 19.648243 6 20.796875 L 6 21.796875 C 5.9999276 20.648243 6.315848 19.550237 6.859375 18.582031 L 6.8476562 18.574219 C 6.8697203 18.534837 6.899021 18.499858 6.921875 18.460938 C 6.943399 18.424345 6.9582587 18.383836 6.9804688 18.347656 L 6.9921875 18.355469 C 7.5564123 17.434963 8.3295042 16.640472 9.296875 16.082031 L 28.703125 4.8789062 C 29.669425 4.3217413 30.759025 4.0325467 31.871094 4.0117188 C 31.903694 4.0110988 31.93629 4.0098125 31.96875 4.0078125 C 32.02245 4.0075925 32.075126 3.99891 32.128906 4 C 32.138046 3.9999829 32.14705 3.9997792 32.15625 4 C 33.260643 4.0254961 34.339847 4.327154 35.296875 4.8789062 L 54.703125 16.082031 C 55.669435 16.639858 56.427782 17.442048 56.988281 18.363281 L 57.007812 18.351562 C 57.163413 18.606011 57.313202 18.867385 57.433594 19.140625 L 57.4375 19.136719 A 6.5948519 6.5947775 0 0 1 57.457031 19.1875 C 57.510489 19.311501 57.551816 19.439091 57.597656 19.566406 A 6.5948519 6.5947775 0 0 1 57.722656 19.933594 C 57.755276 20.044159 57.78566 20.153129 57.8125 20.265625 A 6.5948519 6.5947775 0 0 1 57.910156 20.761719 C 57.923336 20.844745 57.935313 20.927929 57.945312 21.011719 A 6.5948519 6.5947775 0 0 1 58 21.796875 L 58 20.796875 A 6.5948519 6.5947775 0 0 0 57.945312 20.011719 C 57.935313 19.927929 57.923336 19.844745 57.910156 19.761719 A 6.5948519 6.5947775 0 0 0 57.8125 19.265625 C 57.78566 19.153129 57.755276 19.044159 57.722656 18.933594 A 6.5948519 6.5947775 0 0 0 57.597656 18.566406 C 57.551812 18.439091 57.510491 18.311501 57.457031 18.1875 A 6.5948519 6.5947775 0 0 0 57.4375 18.136719 L 57.433594 18.140625 C 57.313202 17.867385 57.163414 17.606011 57.007812 17.351562 L 56.988281 17.363281 C 56.427782 16.442048 55.669435 15.639858 54.703125 15.082031 L 35.296875 3.8789062 C 34.339847 3.327154 33.260643 3.0254961 32.15625 3 C 32.14705 2.9997792 32.138046 2.9999829 32.128906 3 z"/>
 <path style="opacity:0.1" d="M 48 22.822266 L 45.068359 24.503906 L 32 32 L 32 33 L 45.068359 25.503906 L 48 23.822266 L 48 22.822266 z"/>
</svg>
