<svg xmlns="http://www.w3.org/2000/svg" width="64" height="64" version="1">
 <path style="opacity:0.2" d="M 2.0508,32 C 2.0398,32.336 2,32.662 2,33 2,49.62 15.38,63 32,63 48.62,63 62,49.62 62,33 62,32.662 61.96,32.336 61.95,32 61.42,48.148 48.282,61 32,61 15.7178,61 2.58,48.148 2.05,32 Z"/>
 <path style="fill:#848484" d="M 32,17 A 15,15 0 0 0 17,32 15,15 0 0 0 32,47 15,15 0 0 0 47,32 15,15 0 0 0 32,17 Z m 0,9 c 3.3138,0 6,2.6862 6,6 0,3.3138 -2.6862,6 -6,6 -3.3138,0 -6,-2.6862 -6,-6 0,-3.3138 2.6862,-6 6,-6 z"/>
 <path style="fill:#b2bfd9" d="M 32,2 C 15.38,2 2,15.38 2,32 2,48.62 15.38,62 32,62 48.62,62 62,48.62 62,32 62,15.38 48.62,2 32,2 Z m 0,18 A 12,12 0 0 1 44,32 12,12 0 0 1 32,44 12,12 0 0 1 20,32 12,12 0 0 1 32,20 Z"/>
 <path style="opacity:0.2;fill:#8b9cbe" d="M 32 2 C 15.39671 2.0010551 2.0292969 15.380655 2.0292969 32 C 2.0292969 32.183752 2.0362016 32.36505 2.0410156 32.546875 C 2.2823662 16.139021 15.548514 3.0010455 32 3 L 32.001953 3 C 48.444225 3.0010449 61.704215 16.123409 61.960938 32.517578 C 61.966254 32.345458 61.972656 32.173765 61.972656 32 C 61.972656 15.380655 48.605843 2.0010551 32.001953 2 L 32 2 z M 26.080078 32.75 C 26.048758 32.99826 26.005859 33.24324 26.005859 33.5 C 26.005859 33.719359 26.018091 33.935176 26.041016 34.148438 C 26.056525 34.016155 26.063441 33.881876 26.080078 33.75 C 26.452358 36.7058 28.9458 39 32 39 C 35.0542 39 37.545769 36.7058 37.917969 33.75 C 37.934448 33.880627 37.943531 34.013527 37.958984 34.144531 C 37.981615 33.93261 37.994141 33.717936 37.994141 33.5 C 37.994141 33.24324 37.949289 32.99826 37.917969 32.75 C 37.545769 35.7058 35.0542 38 32 38 C 28.9458 38 26.452358 35.7058 26.080078 32.75 z"/>
 <path style="opacity:0.2" d="m 40.07,52.612 c -0.1727,2.0432 0.13086,3.9722 1.1914,5.6446 4.0006,6.3076 17.6006,6.34 21.554,0 0.99658,-1.5977 1.29672,-3.4132 1.1289,-5.336 -0.1278,1.18216 -0.48582,2.305 -1.1289,3.336 -3.9542,6.34 -17.554,6.3076 -21.554,0 C 40.55496,55.14264 40.19616,53.9098 40.07,52.612 Z"/>
 <path style="fill:#ff9f26" d="m 51.804,30 c -3.5724,5.001 -15.7104,19.1044 -10.5402,27.258 4.0006,6.3076 17.5988,6.34 21.552,0 C 67.9618,49.01 54.8458,35 51.8058,30 Z"/>
</svg>
