<svg xmlns="http://www.w3.org/2000/svg" width="64" height="64" version="1.1">
 <rect style="opacity:0.2" width="56" height="56" x="4" y="5" ry="8.4"/>
 <rect style="fill:#b2bfd9" width="56" height="56" x="4" y="4" ry="8.4"/>
 <path style="opacity:0.1" d="m 23.832032,15 c -1.014796,1.6e-5 -2.061666,0.09204 -3.132814,0.273438 -1.071147,0.172344 -2.173698,0.435345 -3.312499,0.789062 v 2.3125 c 0.947133,-0.417215 1.934875,-0.73278 2.960937,-0.941406 1.026066,-0.208604 2.081618,-0.312487 3.164062,-0.3125 1.702566,1.3e-5 3.02117,0.318229 3.957032,0.953125 0.94712,0.625853 1.417956,1.648882 1.417968,2.800781 v 0.257812 h -4.359374 c -2.83011,10e-6 -4.966474,0.422248 -6.398438,1.29297 C 16.70821,23.296526 15.999985,24.453718 16,26.167968 c -1.5e-5,1.469364 0.568218,2.647542 1.707031,3.527344 C 18.857114,30.566048 20.404376,31 22.34375,31 c 1.533434,0 2.830726,-0.216976 3.890626,-0.652344 1.059864,-0.444438 1.941982,-1.129532 2.652342,-2.054688 V 31 H 32 v -8.285156 c -2.8e-5,-2.321944 -0.674312,-4.857154 -2.027344,-6 C 28.61961,15.572021 26.571926,15.000016 23.832032,15 Z M 36,19 v 22 h 6 v -2.652344 c 0.856748,2.06584 2.017388,2.34059 3.972656,2.652344 1.759044,0 4.201446,-0.755902 5.331688,-2.273438 1.130192,-1.526786 1.695286,-3.626834 1.695312,-6.023438 -2.6e-5,-2.396584 -0.56512,-3.955106 -1.695312,-5.472656 C 50.174102,25.70369 47.7317,24.941422 45.972656,24.941406 43.726398,24.974024 42.783078,26.069976 42,27.589844 V 19 Z m -10.042968,3.46875 h 3.375 v 0.746094 c -1.6e-5,2.192354 -0.570664,3.152884 -1.714844,4.480468 -1.131902,1.315406 -2.637172,1.972658 -4.519532,1.972656 -1.36566,2e-6 -2.450298,-0.348724 -3.25,-1.042968 -0.787406,-0.706418 -1.179687,-1.654042 -1.179687,-2.847656 0,-1.498094 0.527853,-1.757732 1.585937,-2.378906 1.058052,-0.621154 2.95951,-0.929676 5.703126,-0.929688 z M 45.011718,29 c 0.970388,1.6e-5 1.708542,0.340446 2.214844,1.023438 C 47.741286,30.706446 47.999988,31.699054 48,33 c -1.2e-5,1.300958 -0.258714,2.293568 -0.773438,2.976562 C 46.72026,36.659566 45.98211,37.000002 45.011718,37 c -0.970412,2e-6 -1.715114,-0.340434 -2.23828,-1.023438 C 42.258692,35.285438 41.999986,34.292826 42,33 c -1.4e-5,-1.292816 0.258692,-2.281834 0.773438,-2.964844 0.523166,-0.691118 1.267868,-1.03514 2.23828,-1.035156 z m -22.484374,6 c -3.019175,1.6e-5 -5.652295,0.910762 -7.890625,2.730468 -2.225353,1.80785 -3.66834,4.228848 -4.332031,7.26172 -0.6506856,3.02099 -0.259627,5.44573 1.171874,7.277344 C 12.908064,54.089262 15.133168,55 18.152344,55 c 2.290382,0 4.274336,-0.527406 5.953124,-1.585938 1.67873,-1.058532 2.99529,-2.603074 3.945314,-4.625 h -2.890626 c -0.663718,1.486712 -1.539682,2.602444 -2.632812,3.339844 -1.080142,0.73741 -2.3967,1.105472 -3.945313,1.10547 -1.952055,2e-6 -3.275141,-0.69065 -3.964843,-2.070314 -0.676712,-1.37966 -0.711884,-3.436334 -0.113282,-6.171874 0.598618,-2.735528 1.539775,-4.788468 2.828125,-6.15625 1.301355,-1.379646 2.924231,-2.0703 4.863281,-2.070314 1.704768,1.6e-5 2.926172,0.383356 3.66797,1.144532 0.754778,0.761212 1.087164,1.97553 0.996094,3.640626 h 2.085936 L 30,36.695312 C 28.815772,36.124436 27.600852,35.703262 26.351562,35.429688 25.115264,35.144262 23.841706,35.000016 22.527344,35 Z"/>
 <path style="fill:#17191e" d="m 23.832032,14 c -1.014796,1.6e-5 -2.061666,0.09204 -3.132814,0.273438 -1.071147,0.172344 -2.173698,0.435345 -3.312499,0.789062 v 2.3125 c 0.947133,-0.417215 1.934875,-0.73278 2.960937,-0.941406 1.026066,-0.208604 2.081618,-0.312487 3.164062,-0.3125 1.702566,1.3e-5 3.02117,0.318229 3.957032,0.953125 0.94712,0.625853 1.417956,1.648882 1.417968,2.800781 v 0.257812 h -4.359374 c -2.83011,10e-6 -4.966474,0.422248 -6.398438,1.29297 C 16.70821,22.296526 15.999985,23.453718 16,25.167968 c -1.5e-5,1.469364 0.568218,2.647542 1.707031,3.527344 C 18.857114,29.566048 20.404376,30 22.34375,30 c 1.533434,0 2.830726,-0.216976 3.890626,-0.652344 1.059864,-0.444438 1.941982,-1.129532 2.652342,-2.054688 V 30 H 32 v -8.285156 c -2.8e-5,-2.321944 -0.674312,-4.857154 -2.027344,-6 C 28.61961,14.572021 26.571926,14.000016 23.832032,14 Z M 36,18 v 22 h 6 v -2.652344 c 0.856748,2.06584 2.017388,2.34059 3.972656,2.652344 1.759044,0 4.201446,-0.755902 5.331688,-2.273438 1.130192,-1.526786 1.695286,-3.626834 1.695312,-6.023438 -2.6e-5,-2.396584 -0.56512,-3.955106 -1.695312,-5.472656 C 50.174102,24.70369 47.7317,23.941422 45.972656,23.941406 43.726398,23.974024 42.783078,25.069976 42,26.589844 V 18 Z m -10.042968,3.46875 h 3.375 v 0.746094 c -1.6e-5,2.192354 -0.570664,3.152884 -1.714844,4.480468 -1.131902,1.315406 -2.637172,1.972658 -4.519532,1.972656 -1.36566,2e-6 -2.450298,-0.348724 -3.25,-1.042968 -0.787406,-0.706418 -1.179687,-1.654042 -1.179687,-2.847656 0,-1.498094 0.527853,-1.757732 1.585937,-2.378906 1.058052,-0.621154 2.95951,-0.929676 5.703126,-0.929688 z M 45.011718,28 c 0.970388,1.6e-5 1.708542,0.340446 2.214844,1.023438 C 47.741286,29.706446 47.999988,30.699054 48,32 c -1.2e-5,1.300958 -0.258714,2.293568 -0.773438,2.976562 C 46.72026,35.659566 45.98211,36.000002 45.011718,36 c -0.970412,2e-6 -1.715114,-0.340434 -2.23828,-1.023438 C 42.258692,34.285438 41.999986,33.292826 42,32 c -1.4e-5,-1.292816 0.258692,-2.281834 0.773438,-2.964844 0.523166,-0.691118 1.267868,-1.03514 2.23828,-1.035156 z m -22.484374,6 c -3.019175,1.6e-5 -5.652295,0.910762 -7.890625,2.730468 -2.225353,1.80785 -3.66834,4.228848 -4.332031,7.26172 -0.6506856,3.02099 -0.259627,5.44573 1.171874,7.277344 C 12.908064,53.089262 15.133168,54 18.152344,54 c 2.290382,0 4.274336,-0.527406 5.953124,-1.585938 1.67873,-1.058532 2.99529,-2.603074 3.945314,-4.625 h -2.890626 c -0.663718,1.486712 -1.539682,2.602444 -2.632812,3.339844 -1.080142,0.73741 -2.3967,1.105472 -3.945313,1.10547 -1.952055,2e-6 -3.275141,-0.69065 -3.964843,-2.070314 -0.676712,-1.37966 -0.711884,-3.436334 -0.113282,-6.171874 0.598618,-2.735528 1.539775,-4.788468 2.828125,-6.15625 1.301355,-1.379646 2.924231,-2.0703 4.863281,-2.070314 1.704768,1.6e-5 2.926172,0.383356 3.66797,1.144532 0.754778,0.761212 1.087164,1.97553 0.996094,3.640626 h 2.085936 L 30,35.695312 C 28.815772,35.124436 27.600852,34.703262 26.351562,34.429688 25.115264,34.144262 23.841706,34.000016 22.527344,34 Z"/>
 <path style="opacity:0.2;fill:#8b9cbe" d="M 12.398438 4 C 7.7448373 4 4 7.7448373 4 12.398438 L 4 13.398438 C 4 8.7448373 7.7448373 5 12.398438 5 L 51.601562 5 C 56.255162 5 60 8.7448373 60 13.398438 L 60 12.398438 C 60 7.7448373 56.255162 4 51.601562 4 L 12.398438 4 z"/>
</svg>
