<svg xmlns="http://www.w3.org/2000/svg" width="64" height="64" version="1">
 <path style="opacity:0.2" d="m 18.076645,10.999722 c -6.967656,0 -12.2126724,5.506015 -12.5789485,12.323584 l -1.3962146,26.01912 c -0.8817461,5.087828 4.1558012,8.29972 8.3858991,2.737909 L 20,40.999733 l 23,-2.3e-5 8.565571,11.424615 c 4.197455,5.533813 8.927603,0.979966 8.392909,-2.765907 L 58.582691,23.741294 c 0.004,-0.14 0.02003,-0.275991 0.02003,-0.417986 -4e-6,-6.827371 -5.611297,-12.323586 -12.580355,-12.323586 l -27.946322,0 z"/>
 <path style="fill:#4f4f4f" d="M 18.076645,10 C 11.108989,10 5.8639726,15.506015 5.4976965,22.323584 l -1.3962146,26.01912 c -0.8817461,5.087828 4.1558012,8.29972 8.3858991,2.737909 L 20,40.000011 l 23,-2.3e-5 8.565571,11.424615 c 4.197455,5.533813 8.927603,0.979966 8.392909,-2.765907 L 58.582691,22.741572 c 0.004,-0.14 0.02003,-0.275991 0.02003,-0.417986 C 58.602717,15.496215 52.991424,10 46.022366,10 l -27.946322,0 z"/>
 <path style="opacity:0.2" d="m 16.000025,16.999925 0,4.000025 -4.000025,0 0,4.000025 4.000025,0 0,4.000025 4.000025,0 0,-4.000025 4.000026,0 0,-4.000025 -4.000026,0 0,-4.000025 -4.000025,0 z m 30.000189,0 a 2.0000126,2.0000126 0 0 0 -2.000012,2.000012 2.0000126,2.0000126 0 0 0 2.000012,2.000013 2.0000126,2.0000126 0 0 0 2.000013,-2.000013 2.0000126,2.0000126 0 0 0 -2.000013,-2.000012 z m -4.000025,4.000025 a 2.0000126,2.0000126 0 0 0 -2.000013,2.000012 2.0000126,2.0000126 0 0 0 2.000013,2.000013 2.0000126,2.0000126 0 0 0 2.000013,-2.000013 2.0000126,2.0000126 0 0 0 -2.000013,-2.000012 z m 8.00005,0 a 2.0000126,2.0000126 0 0 0 -2.000012,2.000012 2.0000126,2.0000126 0 0 0 2.000012,2.000013 2.0000126,2.0000126 0 0 0 2.000013,-2.000013 2.0000126,2.0000126 0 0 0 -2.000013,-2.000012 z m -4.000025,4.000025 A 2.0000126,2.0000126 0 0 0 44.000202,26.999988 2.0000126,2.0000126 0 0 0 46.000214,29 2.0000126,2.0000126 0 0 0 48.000227,26.999988 2.0000126,2.0000126 0 0 0 46.000214,24.999975 Z"/>
 <path style="fill:#b2bfd9" d="m 16.000025,16.000038 0,4.000025 -4.000025,0 0,4.000025 4.000025,0 0,4.000026 4.000025,0 0,-4.000026 4.000026,0 0,-4.000025 -4.000026,0 0,-4.000025 -4.000025,0 z"/>
 <path style="fill:#ee5353" d="M 46.000012,16.000038 A 2.0000126,2.0000126 0 0 0 44,18.000051 a 2.0000126,2.0000126 0 0 0 2.000012,2.000012 2.0000126,2.0000126 0 0 0 2.000013,-2.000012 2.0000126,2.0000126 0 0 0 -2.000013,-2.000013 z"/>
 <path style="fill:#ee5353" d="M 42.000013,20.000063 A 2.0000126,2.0000126 0 0 0 40,22.000076 a 2.0000126,2.0000126 0 0 0 2.000013,2.000012 2.0000126,2.0000126 0 0 0 2.000013,-2.000012 2.0000126,2.0000126 0 0 0 -2.000013,-2.000013 z"/>
 <path style="fill:#ffca58" d="M 50.000012,20.000063 A 2.0000126,2.0000126 0 0 0 48,22.000076 a 2.0000126,2.0000126 0 0 0 2.000012,2.000012 2.0000126,2.0000126 0 0 0 2.000013,-2.000012 2.0000126,2.0000126 0 0 0 -2.000013,-2.000013 z"/>
 <path style="fill:#ffca58" d="M 46.000012,24.000088 A 2.0000126,2.0000126 0 0 0 44,26.000101 a 2.0000126,2.0000126 0 0 0 2.000012,2.000013 2.0000126,2.0000126 0 0 0 2.000013,-2.000013 2.0000126,2.0000126 0 0 0 -2.000013,-2.000013 z"/>
 <path style="opacity:0.1;fill:#8b9cbe" d="M 18.087891 10 C 11.129247 10 5.8911929 15.506176 5.5253906 22.324219 L 4.1308594 48.34375 C 4.03268 48.911444 4.0352024 49.44048 4.078125 49.949219 C 4.0934409 49.748153 4.0947035 49.552811 4.1308594 49.34375 L 5.5253906 23.324219 C 5.8911929 16.506176 11.129247 11 18.087891 11 L 45.998047 11 C 52.787986 11 58.272352 16.235387 58.537109 22.830078 C 58.545687 22.661388 58.5625 22.49497 58.5625 22.324219 C 58.5625 15.496776 52.958091 10 45.998047 10 L 18.087891 10 z"/>
</svg>
