<svg xmlns="http://www.w3.org/2000/svg" width="64" height="64" version="1">
 <path style="opacity:0.2" d="m 4.0507997,32.000415 c -0.0118,0.333995 -0.050799,0.66199 -0.050799,0.999985 C 4.0000004,48.512179 16.487822,61 31.9996,61 47.511378,61 59.9992,48.512179 59.9992,33.0004 c 0,-0.337675 -0.03904,-0.66527 -0.05078,-0.999985 C 59.420428,47.0422 47.172603,59.000029 31.99882,59.000029 16.824637,59.000029 4.5772122,47.0422 4.0492197,32.000415 Z"/>
 <rect style="fill:#5584bb" width="56" height="56" x="4" y="4" rx="28" ry="28"/>
 <path style="opacity:0.2;fill:#8b9cbe" d="M 32 4 C 16.488222 4 4 16.488222 4 32 C 4 32.113554 4.0112846 32.224034 4.0175781 32.335938 C 4.3691163 17.134398 16.710946 5 32 5 C 47.289054 5 59.630884 17.134398 59.982422 32.335938 C 59.988797 32.224034 60 32.113554 60 32 C 60 16.488222 47.511778 4 32 4 z"/>
 <path style="opacity:0.2" d="M 23.999714,19.153849 A 15.999771,15.999771 0 0 0 17.265211,39.207563 L 44.730818,23.349789 a 15.999771,15.999771 0 0 0 -20.731704,-4.19594 z m -4.731132,23.515664 a 15.999771,15.999771 0 0 0 20.731704,4.19594 15.999771,15.999771 0 0 0 6.733903,-20.053713 L 19.268582,42.669513 Z"/>
 <path style="fill:#8b9cbe" d="M 23.999714,18.144227 A 15.999771,15.999771 0 0 0 17.265211,38.19794 L 44.730818,22.340167 a 15.999771,15.999771 0 0 0 -20.731704,-4.19634 z m -4.731132,23.515664 a 15.999771,15.999771 0 0 0 20.731704,4.19594 15.999771,15.999771 0 0 0 6.733903,-20.053713 L 19.268582,41.659891 Z"/>
 <g style="opacity:0.2" transform="matrix(1.9999714,0,0,1.9999714,5.760572e-5,1.0008008)">
  <rect width="4" height="2" x="14" y="4"/>
  <rect width="4" height="2" x="14" y="26"/>
  <rect width="4" height="2" x="14" y="-28" transform="matrix(0,1,-1,0,0,0)"/>
  <rect width="4" height="2" x="14" y="-6" transform="matrix(0,1,-1,0,0,0)"/>
  <rect width="4" height="2" x="20.63" y="-12" transform="matrix(0.70710678,0.70710678,-0.70710678,0.70710678,0,0)"/>
  <rect width="4" height="2" x="20.63" y="10" transform="matrix(0.70710678,0.70710678,-0.70710678,0.70710678,0,0)"/>
  <rect width="4" height="2" x="-2" y="-34.63" transform="matrix(-0.70710678,0.70710678,-0.70710678,-0.70710678,0,0)"/>
  <rect width="4" height="2" x="-2" y="-12.63" transform="matrix(-0.70710678,0.70710678,-0.70710678,-0.70710678,0,0)"/>
 </g>
 <g style="fill:#8b9cbe" transform="matrix(1.9999714,0,0,1.9999714,5.760572e-5,8.866e-4)">
  <rect width="4" height="2" x="14" y="4"/>
  <rect width="4" height="2" x="14" y="26"/>
  <rect width="4" height="2" x="14" y="-28" transform="matrix(0,1,-1,0,0,0)"/>
  <rect width="4" height="2" x="14" y="-6" transform="matrix(0,1,-1,0,0,0)"/>
  <rect width="4" height="2" x="20.63" y="-12" transform="matrix(0.70710678,0.70710678,-0.70710678,0.70710678,0,0)"/>
  <rect width="4" height="2" x="20.63" y="10" transform="matrix(0.70710678,0.70710678,-0.70710678,0.70710678,0,0)"/>
  <rect width="4" height="2" x="-2" y="-34.63" transform="matrix(-0.70710678,0.70710678,-0.70710678,-0.70710678,0,0)"/>
  <rect width="4" height="2" x="-2" y="-12.63" transform="matrix(-0.70710678,0.70710678,-0.70710678,-0.70710678,0,0)"/>
 </g>
</svg>
