<svg xmlns="http://www.w3.org/2000/svg" width="64" height="64" version="1">
 <path style="opacity:0.2" d="m 58,7 -4,4 0,2 6,-6 -2,0 z m -38,29 0,2 c 0,1.662 1.338,3 3,3 l 28,0 c 1.662,0 3,-1.338 3,-3 l 0,-2 c 0,1.662 -1.338,3 -3,3 l -28,0 c -1.662,0 -3,-1.338 -3,-3 z"/>
 <path style="fill:#4bae4f" d="m 23,6 c -1.662,0 -3,1.338 -3,3 l 0,28 c 0,1.662 1.338,3 3,3 l 28,0 c 1.662,0 3,-1.338 3,-3 L 54,12 60,6 23,6 Z"/>
 <path style="opacity:0.1;fill:#8b9cbe" d="M 23 6 C 21.338 6 20 7.338 20 9 L 20 10 C 20 8.338 21.338 7 23 7 L 59 7 L 60 6 L 23 6 z"/>
 <path style="opacity:0.2" d="m 4,25 6,6 0,-2 -4,-4 -2,0 z m 6,29 0,2 c 0,1.662 1.338,3 3,3 l 28,0 c 1.662,0 3,-1.338 3,-3 l 0,-2 c 0,1.662 -1.338,3 -3,3 l -28,0 c -1.662,0 -3,-1.338 -3,-3 z"/>
 <path style="fill:#8ac249" d="m 4,24 6,6 0,25 c 0,1.662 1.338,3 3,3 l 28,0 c 1.662,0 3,-1.338 3,-3 l 0,-28 c 0,-1.662 -1.338,-3 -3,-3 L 4,24 Z"/>
 <path style="opacity:0.1;fill:#8b9cbe" d="M 4 24 L 5 25 L 41 25 C 42.662 25 44 26.338 44 28 L 44 27 C 44 25.338 42.662 24 41 24 L 4 24 z"/>
 <path style="opacity:0.2;fill-rule:evenodd" d="m 23.066,31 -1.0586,6 -5.8828,0 0,2 5.5312,0 -1.0625,6 -4.4688,0 0,2 4.1172,0 -1.0586,6 2,0 1.0586,-6 5,0 -1.05858,6 2,0 1.05858,-6 6.8828,0 0,-2 -6.5312,0 1.06248,-6 5.4688,0 0,-2 -5.1172,0 1.05858,-6 -2,0 -1.05858,6 -5,0 1.05858,-6 z m 0.58984,8 5,0 -1.06248,6 -5,0 z"/>
 <path style="fill:#8b9cbe;fill-rule:evenodd" d="m 22.9415,30 -1.0586,6 -5.8828,0 0,2 5.5312,0 -1.0625,6 -4.4688,0 0,2 4.1172,0 -1.0586,6 2,0 1.0586,-6 5,0 -1.05858,6 2,0 1.05858,-6 6.8828,0 0,-2 -6.5312,0 1.06248,-6 5.4688,0 0,-2 -5.1172,0 1.05858,-6 -2,0 -1.05858,6 -5,0 1.05858,-6 z m 0.58984,8 5,0 -1.06248,6 -5,0 z"/>
</svg>
