<svg xmlns="http://www.w3.org/2000/svg" width="64" height="64" version="1">
 <path style="opacity:0.2" d="M 32,4 A 11,11 0 0 0 21,15 11,11 0 0 0 29,25.570312 V 32 h -8 v 6 h 8 v 11.367188 c -1.103838,1.245 -3.218394,1.919876 -4.335938,1.773436 C 17.529881,50.205626 11.737356,48.666116 8.40625,45.578124 L 13.292969,45.824218 9.1289062,41.941406 4.9609376,38.054688 C 3.3877006,41.614408 3.2005814,45.15323 3,48.957032 L 5.5820312,46.410156 C 6.8241866,51.526196 23.759864,54.75057 26.152344,56.855468 L 32,62 37.84375,56.859376 C 40.241064,54.74964 57.175614,51.515406 58.398438,46.394532 L 61,48.957032 c 0,-3.871466 -0.84445,-7.26529 -1.960938,-10.902344 l -4.164062,3.886718 -3.539062,3.886718 4.26953,-0.25 c -3.322888,3.076392 -9.087954,4.624844 -16.195312,5.5625 C 38.274048,51.290518 36.116536,50.60686 35,49.351562 V 38 h 8 V 32 H 35 V 25.578124 A 11,11 0 0 0 43,15 11,11 0 0 0 32,4 Z"/>
 <path style="fill:#455a64" d="M 32,3 A 11,11 0 0 0 21,14 11,11 0 0 0 29,24.570312 V 31 h -8 v 6 h 8 v 11.367188 c -1.103838,1.245 -3.218394,1.919876 -4.335938,1.773436 C 17.529881,49.205626 11.737356,47.666116 8.40625,44.578124 L 13.292969,44.824218 9.1289062,40.941406 4.9609376,37.054688 C 3.3877006,40.614408 3.2005814,44.15323 3,47.957032 L 5.5820312,45.410156 C 6.8241866,50.526196 23.759864,53.75057 26.152344,55.855468 L 32,61 37.84375,55.859376 C 40.241064,53.74964 57.175614,50.515406 58.398438,45.394532 L 61,47.957032 c 0,-3.871466 -0.84445,-7.26529 -1.960938,-10.902344 l -4.164062,3.886718 -3.539062,3.886718 4.26953,-0.25 c -3.322888,3.076392 -9.087954,4.624844 -16.195312,5.5625 C 38.274048,50.290518 36.116536,49.60686 35,48.351562 V 37 h 8 V 31 H 35 V 24.578124 A 11,11 0 0 0 43,14 11,11 0 0 0 32,3 Z"/>
 <path style="opacity:0.2" d="m 32,9.0000012 c 3.314947,0 6,2.6849318 6,5.9999988 0,3.315066 -2.685053,6 -6,6 -3.314947,0 -6,-2.684934 -6,-6 0,-3.315067 2.685053,-5.9999988 6,-5.9999988 z"/>
 <path style="fill:#8b9cbe" d="m 32,8.0000012 c 3.314947,0 6,2.6849318 6,5.9999988 0,3.315066 -2.685053,6 -6,6 -3.314947,0 -6,-2.684934 -6,-6 0,-3.315067 2.685053,-5.9999988 6,-5.9999988 z"/>
 <path style="fill:#8b9cbe;opacity:0.1" d="M 32 3 A 11 11 0 0 0 21 14 A 11 11 0 0 0 21.021484 14.40625 A 11 11 0 0 1 32 4 A 11 11 0 0 1 42.976562 14.513672 A 11 11 0 0 0 43 14 A 11 11 0 0 0 32 3 z M 21 31 L 21 32 L 29 32 L 29 31 L 21 31 z M 35 31 L 35 32 L 43 32 L 43 31 L 35 31 z M 4.9609375 37.054688 C 3.3877005 40.614407 3.2005814 44.153229 3 47.957031 L 3.0644531 47.894531 C 3.2550935 44.493547 3.5364921 41.277741 4.9609375 38.054688 L 9.1289062 41.941406 L 12.160156 44.767578 L 13.292969 44.824219 L 9.1289062 40.941406 L 4.9609375 37.054688 z M 59.039062 37.054688 L 54.875 40.941406 L 51.335938 44.828125 L 52.296875 44.771484 L 54.875 41.941406 L 59.039062 38.054688 C 60.055404 41.365504 60.838946 44.478207 60.972656 47.929688 L 61 47.957031 C 61 44.085565 60.15555 40.691741 59.039062 37.054688 z M 8.40625 45.578125 C 11.737356 48.666117 17.529881 50.205627 24.664062 51.140625 C 25.781606 51.287065 27.896162 50.612187 29 49.367188 L 29 48.367188 C 27.896162 49.612187 25.781606 50.287065 24.664062 50.140625 C 18.404144 49.320207 13.17967 48.033531 9.7421875 45.644531 L 8.40625 45.578125 z M 55.605469 45.578125 L 54.251953 45.658203 C 50.825297 48.030935 45.632641 49.319708 39.410156 50.140625 C 38.274048 50.290519 36.116536 49.60686 35 48.351562 L 35 49.351562 C 36.116536 50.60686 38.274048 51.290519 39.410156 51.140625 C 46.517514 50.202969 52.282581 48.654517 55.605469 45.578125 z"/>
</svg>
