<svg xmlns="http://www.w3.org/2000/svg" width="64" height="64" version="1.1">
 <g transform="translate(0,-268.3)">
  <circle style="fill:#8b9cbe" cx="32" cy="300.3" r="26.1"/>
  <polygon style="opacity:0.1" class="st1" transform="matrix(0.7664523,0,0,0.7664523,3.1972864,270.3011)" points="20.62 26.92 29.55 32.88 20.62 38.83 20.62 48.01 43.32 32.88 20.62 17.74"/>
  <polygon style="fill:#20aa73" class="st1" transform="matrix(0.7664523,0,0,0.7664523,3.1972864,269.3011)" points="43.32 32.88 20.62 17.74 20.62 26.92 29.55 32.88 20.62 38.83 20.62 48.01"/>
  <polygon style="opacity:0.1" class="st2" transform="matrix(0.76641852,0,0,0.76641852,2.5496107,273.3035)" points="55.39 59.23 55.39 50.05 46.46 44.1 55.39 38.14 55.39 28.96 32.69 44.1"/>
  <polygon style="fill:#3989da" class="st2" transform="matrix(0.76641852,0,0,0.76641852,2.5496107,272.3035)" points="55.39 28.96 32.69 44.1 55.39 59.23 55.39 50.05 46.46 44.1 55.39 38.14"/>
  <path style="opacity:0.2" d="m 57.372168,287.30128 -4.876758,3.2455 A 23.2,23.2 0 0 1 55.199998,301.3 23.2,23.2 0 0 1 32,324.5 23.2,23.2 0 0 1 14.149707,316.0577 l -4.8597658,3.23418 C 14.606225,325.98952 22.80444,330.3 32,330.3 c 15.990474,0 29,-13.00876 29,-29 0,-5.07706 -1.325304,-9.84392 -3.627832,-13.99872 z"/>
  <path style="fill:#20aa73" d="m 57.372168,286.30128 -4.876758,3.2455 A 23.2,23.2 0 0 1 55.199998,300.3 23.2,23.2 0 0 1 32,323.5 23.2,23.2 0 0 1 14.149707,315.0577 l -4.8597658,3.23418 C 14.606225,324.98952 22.80444,329.3 32,329.3 c 15.990474,0 29,-13.00876 29,-29 0,-5.07706 -1.325304,-9.84392 -3.627832,-13.99872 z"/>
  <path style="opacity:0.2" d="m 32,272.3 c -15.991229,0 -29.0000001,13.00876 -29.0000001,29 0,4.71932 1.1368765,9.1759 3.1463867,13.11798 L 11.045801,311.1583 A 23.2,23.2 0 0 1 8.8,301.3 23.2,23.2 0 0 1 32,278.1 a 23.2,23.2 0 0 1 17.19043,7.67764 l 4.888086,-3.25118 C 48.755678,276.2751 40.833542,272.3 32,272.3 Z"/>
  <path style="fill:#3989da" d="m 32,271.3 c -15.991229,0 -29.0000001,13.00876 -29.0000001,29 0,4.71932 1.1368765,9.1759 3.1463867,13.11798 L 11.045801,310.1583 A 23.2,23.2 0 0 1 8.8,300.3 23.2,23.2 0 0 1 32,277.1 a 23.2,23.2 0 0 1 17.19043,7.67764 l 4.888086,-3.25118 C 48.755678,275.2751 40.833542,271.3 32,271.3 Z"/>
  <path style="fill:#8b9cbe;opacity:0.2" transform="translate(0,268.3)" d="M 32 3 C 16.008771 3 3 16.00876 3 32 C 3 32.152068 3.0113199 32.301611 3.0136719 32.453125 C 3.3073138 16.714196 16.192157 4 32 4 C 40.531176 4 48.205041 7.7146469 53.515625 13.599609 L 54.078125 13.226562 C 48.755287 6.9752025 40.833542 3 32 3 z M 8.8164062 32.677734 A 23.2 23.2 0 0 0 8.8007812 33 A 23.2 23.2 0 0 0 10.71875 42.074219 L 11.044922 41.857422 A 23.2 23.2 0 0 1 8.8164062 32.677734 z"/>
 </g>
</svg>
