<svg xmlns="http://www.w3.org/2000/svg" width="64" height="64" version="1">
 <path style="fill:#fecd38" d="M 31.999999,4.000029 C 16.488,4.000029 4,16.488029 4,32.000029 c 0,15.511999 12.488,28 27.999999,28 15.512001,0 28.000001,-12.488001 28.000001,-28 0,-15.512 -12.488,-28 -28.000001,-28 z"/>
 <path style="opacity:0.2;fill:#8b9cbe" d="M 32 4 C 16.488222 4 4 16.488222 4 32 C 4 32.098349 4.0111933 32.193966 4.0175781 32.291016 C 4.3923724 17.110496 16.726003 5 32 5 C 47.273998 5 59.607628 17.110496 59.982422 32.291016 C 59.988769 32.19403 60 32.098203 60 32 C 60 16.488222 47.511779 4 32 4 z"/>
 <path style="fill:#17191e" d="m 31.999599,16.000658 0,11.999828 11.999829,0 -11.999829,19.999714 0,-11.999828 -11.999828,0 z"/>
 <path style="opacity:0.2" d="M 59.982422,32.664062 C 59.630879,47.865602 47.289273,60 32,60 16.712037,60 4.3711461,47.86768 4.0175781,32.667969 4.0114012,32.778587 4,32.887762 4,33 4,48.511778 16.488,61 32,61 47.512001,61 60,48.511778 60,33 c 0,-0.113447 -0.01128,-0.224114 -0.01758,-0.335938 z"/>
</svg>
