<svg xmlns="http://www.w3.org/2000/svg" width="64" height="64" version="1.1">
 <circle style="opacity:0.2" cx="32" cy="33" r="28"/>
 <circle style="fill:#b2bfd9" cx="32" cy="32" r="28"/>
 <path style="opacity:0.1" d="m 29.972656,13.007812 c -2.949657,0.09663 -6.279093,1.003783 -9.513672,3.322266 -3.358102,2.407031 -4.830065,2.865934 -6.458984,3.666016 1.440819,0.108775 10.005773,-0.896429 11.632812,4.027344 -5.836436,2.004807 -8.16648,5.17944 -7.478515,8.865234 0.02911,0.182257 0.06616,0.366228 0.111328,0.552734 0.0093,0.0352 0.01946,0.07019 0.0293,0.105469 0.134603,0.522803 0.315324,1.058452 0.582031,1.613281 0.455909,0.948425 0.976339,1.728868 1.550781,2.404297 0.0018,0.0021 0.0041,0.0038 0.0059,0.0059 2.764537,3.245246 6.824018,3.87453 11.501953,6.970704 C 36.349143,47.46223 37.814195,48.950802 40.662109,53 40.069887,47.405278 36.951021,40.194554 35.671875,37.017578 l -0.08594,-0.263672 C 39.604195,39.527161 44.372892,40.574352 50,40.972656 41.066294,34.680206 39.371372,33.787487 34.257812,29.474609 c -3.430646,0.171094 -3.055078,0.14106 -5.078124,0.25586 0.727099,1.199303 1.495858,2.25906 2.296874,3.220703 1.101232,3.087464 0.722087,6.225309 -2.851562,6.960937 -4.55795,0.93824 -9.729964,-2.955442 -8.480469,-7.125 1.356812,-4.527658 7.393028,-3.656012 13.53711,-4.441406 6.144082,-0.785396 11.758197,-6.749029 15.134765,-11.162109 -4.883763,1.648782 -10.887709,3.189998 -17.736328,5.185547 -1.277967,-2.538824 -2.776254,-6.872013 4.496094,-7.703125 0.501658,-0.05705 1.044814,-0.0971 1.630859,-0.119141 -1.714928,-0.920727 -4.284717,-1.635687 -7.234375,-1.539063 z"/>
 <path style="fill:#3aaaff" d="M 25.670148,23.12875 C 24.133746,18.081828 15.451301,19.106567 14,18.997 c 1.628919,-0.800082 3.091737,-0.304256 6.44984,-2.711287 6.469156,-4.636966 11.007844,-4.698597 14.437698,-2.857142 -9.376726,0.352697 -5.270696,5.524851 -3.88959,8.188191 -1.75636,0.504796 -4.528908,1.266826 -5.3278,1.511988 z"/>
 <path style="fill:#008bff" d="m 48.815786,16.183956 c -3.376568,4.41308 -8.99046,10.37546 -15.134542,11.160856 -6.144082,0.785394 -12.179388,-0.08468 -13.5362,4.442978 -1.249495,4.169558 3.922809,8.06247 8.480759,7.12423 4.86932,-1.00234 3.817718,-6.463266 1.154394,-10.182016 2.023046,-0.11478 0.232927,0.583954 3.663571,0.412852 l 2.22833,6.874976 C 36.951244,39.194808 40.070396,46.405278 40.662618,52 37.814704,47.950802 36.349914,46.46273 31.936318,43.541516 26.282792,39.79963 21.526164,39.672956 18.876082,34.16001 c -2.644359,-5.501032 1.433226,-9.463638 7.696514,-11.179722 8.9507,-2.45242 16.26342,-4.777532 22.24319,-6.796332 z"/>
 <path style="fill:#3aaaff" d="m 29.18042,28.730004 c 2.023046,-0.1148 1.646728,-0.08508 5.077374,-0.256174 C 39.371354,32.786708 41.066294,33.67955 50,39.972 41.020426,39.336398 34.226238,37.05275 29.18042,28.730004 Z"/>
 <path style="fill:#00ccff" d="m 14,18.997 c 1.628919,-0.800082 3.100994,-1.259656 6.459096,-3.666687 6.469158,-4.636966 13.31828,-3.625708 16.748136,-1.784254 -9.376728,0.352697 -8.168562,2.201329 -8.203164,3.650545 C 22.774144,15.897239 20.95514,17.465221 14,18.997 Z"/>
 <path style="fill:#008bff" d="m 37.207232,13.546059 c -9.376728,0.352697 -7.59039,5.407363 -6.209284,8.070703 -1.09421,0.314486 -1.559,0.672758 -3.021736,1.055804 -5.901984,-10.405631 4.413956,-11.75934 9.23102,-9.126507 z"/>
 <path style="fill:#008bff" d="m 37.207232,13.546059 c -9.376728,0.352697 -7.390338,5.407363 -6.009232,8.070703 -1.09421,0.314486 -1.959264,0.672758 -3.422,1.055804 -5.901984,-10.405631 4.614168,-11.75934 9.431232,-9.126507 z"/>
 <path style="fill:#00ccff" d="M 20.564538,36.752288 C 15.97608,30.90628 17.400701,25.547902 26.385564,22.763868 35.252134,20.016484 42.836016,18.202756 48.815786,16.183956 32.678592,22.267852 12.293749,26.333084 20.564538,36.752288 Z"/>
 <path style="opacity:0.2;fill:#8b9cbe" d="M 32 4 A 28 28 0 0 0 4 32 A 28 28 0 0 0 4.0175781 32.492188 A 28 28 0 0 1 32 5 A 28 28 0 0 1 59.974609 32.492188 A 28 28 0 0 0 60 32 A 28 28 0 0 0 32 4 z"/>
</svg>
