<svg xmlns="http://www.w3.org/2000/svg" width="64" height="64" version="1">
 <path style="opacity:0.2" d="M 19.00454,5 18.99584,9.822083 7,20.126644 9.4472032,25.079056 14.629614,23.165734 c 0.952756,1.21508 2.401689,1.923464 3.934588,1.923622 2.634222,-0.003 4.311166,-2.205 4.498184,-4.86314 v -0.0022 4.854926 c -0.0036,2.415734 -0.271164,5.102392 -2.59472,5.656018 -2.073166,0.4942 -3.531649,-0.14962 -6.022644,0.87788 -3.785695,1.561834 -5.4575288,3.61499 -5.4580438,7.751554 L 14,47 H 33.6 L 39,39.47136 V 23.848288 C 39,15.570466 31.9685,9.052624 23.788142,9.052624 c -0.08758,0.0036 -0.17516,0.0078 -0.26275,0.01304 0.013,-0.4102772 -0.02574,-0.1198622 -0.1154,-0.520201 C 22.914364,6.3575326 21.222992,5.0041704 19.00454,5 Z"/>
 <path style="opacity:0.2" d="M 13.24806,45 C 11.26305,45 9,47.306428 9,49 h 32 c 0,-1.693572 -2.26305,-4 -4.248058,-4 z"/>
 <path style="opacity:0.2" d="M 32.717052,57 C 30.980168,57 29,59.306428 29,61 h 28 c 0,-1.693572 -1.980168,-4 -3.717052,-4 z"/>
 <path style="fill:#5e576c" d="M 19.00454,4 18.995859,8.8220828 7,19.126645 9.4472032,24.079056 14.629614,22.165734 c 0.952756,1.21508 2.401689,1.923464 3.934588,1.923622 2.634222,-0.003 4.311166,-2.205 4.498184,-4.863141 v -0.0021 4.854927 c -0.0036,2.415734 -0.271164,5.102392 -2.59472,5.656018 -2.073166,0.4942 -3.531649,-0.14962 -6.022644,0.87788 -3.785695,1.561834 -5.4575288,3.61499 -5.4580438,7.751554 L 14,46 H 33.6 L 39,38.47136 V 22.848288 C 39,14.570466 31.9685,8.0526238 23.788142,8.0526238 c -0.08758,0.00364 -0.17516,0.00782 -0.26275,0.01304 0.013,-0.410277 -0.02574,-0.119862 -0.1154,-0.5202008 C 22.914364,5.3575326 21.222992,4.0041704 19.00454,4 Z"/>
 <path style="fill:#8b9cbe;opacity:0.1" d="M 19.003906 4 L 18.996094 8.8222656 L 7 19.126953 L 7.3476562 19.828125 L 18.996094 9.8222656 L 19.003906 5 C 21.222358 5.0041704 22.914528 6.3569915 23.410156 8.5449219 C 23.499816 8.9452607 23.538391 8.6561292 23.525391 9.0664062 C 23.612981 9.0611863 23.701483 9.0563744 23.789062 9.0527344 C 31.96942 9.0527344 39 15.569834 39 23.847656 L 39 22.847656 C 39 14.569834 31.96942 8.0527344 23.789062 8.0527344 C 23.701483 8.0563744 23.612981 8.0611863 23.525391 8.0664062 C 23.538391 7.6561293 23.499816 7.9452607 23.410156 7.5449219 C 22.914528 5.3569915 21.222358 4.0041704 19.003906 4 z M 23.0625 24.078125 C 23.0589 26.493859 22.790353 29.180749 20.466797 29.734375 C 18.393631 30.228575 16.936307 29.585781 14.445312 30.613281 C 10.659617 32.175115 8.9868431 34.22867 8.9863281 38.365234 L 9.0371094 38.443359 C 9.2835903 34.928267 10.959024 33.051591 14.445312 31.613281 C 16.936307 30.585781 18.393631 31.228575 20.466797 30.734375 C 22.790353 30.180749 23.0589 27.493859 23.0625 25.078125 L 23.0625 24.078125 z"/>
 <path style="fill:#756a89" d="M 13.24806,44 C 11.26305,44 9,46.306428 9,48 h 32 c 0,-1.693572 -2.26305,-4 -4.248058,-4 z"/>
 <path style="fill:#cccccc" d="M 43,36.2 31.8,58.6 h 22.4 z"/>
 <path style="fill:#b2bfd9" d="M 32.717052,56 C 30.980168,56 29,58.306428 29,60 h 28 c 0,-1.693572 -1.980168,-4 -3.717052,-4 z"/>
 <circle style="opacity:0.2" cx="43" cy="33" r="10"/>
 <circle style="fill:#b2bfd9" cx="43" cy="32" r="10"/>
 <path style="opacity:0.1;fill:#8b9cbe" d="M 13.25 44 C 11.26499 44 9 46.306428 9 48 L 9.2441406 48 C 9.8620226 46.521002 11.637608 45 13.25 45 L 36.75 45 C 38.36239 45 40.137977 46.521002 40.755859 48 L 41 48 C 41 46.306428 38.735008 44 36.75 44 L 13.25 44 z"/>
 <path style="opacity:0.2;fill:#8b9cbe" d="M 32.71875 56 C 30.981866 56 29 58.306428 29 60 L 29.212891 60 C 29.753536 58.521001 31.307906 57 32.71875 57 L 53.28125 57 C 54.692094 57 56.246464 58.521001 56.787109 60 L 57 60 C 57 58.306428 55.018134 56 53.28125 56 L 32.71875 56 z"/>
 <path style="opacity:0.2;fill:#8b9cbe" d="M 43 22 A 10 10 0 0 0 33 32 A 10 10 0 0 0 33.021484 32.388672 A 10 10 0 0 1 43 23 A 10 10 0 0 1 52.974609 32.498047 A 10 10 0 0 0 53 32 A 10 10 0 0 0 43 22 z"/>
</svg>
