<svg xmlns="http://www.w3.org/2000/svg" width="64" height="64" version="1.1">
 <path style="opacity:0.2" d="m 11,5 a 7,7 0 0 0 -7,7 7,7 0 0 0 7,7 7,7 0 0 0 7,-7 7,7 0 0 0 -7,-7 z m 42,0 a 7,7 0 0 0 -7,7 7,7 0 0 0 7,7 7,7 0 0 0 7,-7 7,7 0 0 0 -7,-7 z M 39,19 a 7,7 0 0 0 -7,7 7,7 0 0 0 7,7 7,7 0 0 0 7,-7 7,7 0 0 0 -7,-7 z M 25,33 a 7,7 0 0 0 -7,7 7,7 0 0 0 7,7 7,7 0 0 0 7,-7 7,7 0 0 0 -7,-7 z M 11,47 a 7,7 0 0 0 -7,7 7,7 0 0 0 7,7 7,7 0 0 0 7,-7 7,7 0 0 0 -7,-7 z m 28,0 a 7,7 0 0 0 -7,7 7,7 0 0 0 7,7 7,7 0 0 0 7,-7 7,7 0 0 0 -7,-7 z m 7,7 a 7,7 0 0 0 7,7 7,7 0 0 0 7,-7 7,7 0 0 0 -7,-7 7,7 0 0 0 -7,7 z"/>
 <circle style="fill:#4caf50" cx="53" cy="53" r="7"/>
 <circle style="fill:#3f51b5" cx="25" cy="39" r="7"/>
 <circle style="opacity:0.2" cx="25" cy="26" r="7"/>
 <circle style="fill:#4caf50" cx="25" cy="25" r="7"/>
 <circle style="fill:#4caf50" cx="11" cy="11" r="7"/>
 <circle style="opacity:0.2" cx="25" cy="12" r="7"/>
 <circle style="fill:#f44336" cx="25" cy="11" r="7"/>
 <circle style="fill:#3f51b5" cx="53" cy="11" r="7"/>
 <circle style="fill:#3f51b5" cx="39" cy="25" r="7"/>
 <circle style="opacity:0.2" cx="53" cy="40" r="7"/>
 <circle style="fill:#f44336" cx="53" cy="39" r="7"/>
 <circle style="fill:#3f51b5" cx="11" cy="53" r="7"/>
 <circle style="fill:#3f51b5" cx="39" cy="53" r="7"/>
 <path style="opacity:0.1;fill:#8b9cbe" d="M 11 4 A 7 7 0 0 0 4 11 A 7 7 0 0 0 4.0253906 11.4375 A 7 7 0 0 1 11 5 A 7 7 0 0 1 17.974609 11.492188 A 7 7 0 0 0 18 11 A 7 7 0 0 0 11 4 z M 18 11 A 7 7 0 0 0 18.025391 11.4375 A 7 7 0 0 1 25 5 A 7 7 0 0 1 31.974609 11.492188 A 7 7 0 0 0 32 11 A 7 7 0 0 0 25 4 A 7 7 0 0 0 18 11 z M 53 4 A 7 7 0 0 0 46 11 A 7 7 0 0 0 46.025391 11.4375 A 7 7 0 0 1 53 5 A 7 7 0 0 1 59.974609 11.492188 A 7 7 0 0 0 60 11 A 7 7 0 0 0 53 4 z M 39 18 A 7 7 0 0 0 32 25 A 7 7 0 0 0 32.025391 25.4375 A 7 7 0 0 1 39 19 A 7 7 0 0 1 45.974609 25.492188 A 7 7 0 0 0 46 25 A 7 7 0 0 0 39 18 z M 53 32 A 7 7 0 0 0 46 39 A 7 7 0 0 0 46.025391 39.4375 A 7 7 0 0 1 53 33 A 7 7 0 0 1 59.974609 39.492188 A 7 7 0 0 0 60 39 A 7 7 0 0 0 53 32 z M 11 46 A 7 7 0 0 0 4 53 A 7 7 0 0 0 4.0253906 53.4375 A 7 7 0 0 1 11 47 A 7 7 0 0 1 17.974609 53.492188 A 7 7 0 0 0 18 53 A 7 7 0 0 0 11 46 z M 39 46 A 7 7 0 0 0 32 53 A 7 7 0 0 0 32.025391 53.4375 A 7 7 0 0 1 39 47 A 7 7 0 0 1 45.974609 53.492188 A 7 7 0 0 0 46 53 A 7 7 0 0 0 39 46 z"/>
</svg>
