<svg xmlns="http://www.w3.org/2000/svg" width="64" height="64" version="1.1">
 <rect style="opacity:0.2" width="57" height="57" x="4" y="4" rx="4.385" ry="4.385"/>
 <path style="fill:#b2bfd9" d="M 8.3846155,2.9999985 C 5.9555385,2.9999985 4,4.955537 4,7.384614 V 21.999999 H 23 V 2.9999985 Z"/>
 <rect style="fill:#f3f3f3" width="19" height="19" x="23" y="3"/>
 <path style="fill:#b2bfd9" d="m 56.615386,2.9999985 c 2.429077,0 4.384615,1.9555385 4.384615,4.3846155 v 14.615385 h -19 V 2.9999985 Z"/>
 <rect style="fill:#b2bfd9" width="19" height="19" x="23" y="22"/>
 <rect style="fill:#f3f3f3" width="19" height="19" x="4" y="22"/>
 <rect style="fill:#f3f3f3" width="19" height="19" x="42" y="22"/>
 <path style="fill:#bebebb" d="M 8.3846155,60 C 5.9555385,60 4,58.044461 4,55.615384 V 41 h 19 v 19 z"/>
 <rect style="fill:#f3f3f3" width="19" height="19" x="23" y="-60" transform="scale(1,-1)"/>
 <path style="fill:#b2bfd9" d="m 56.615386,60 c 2.429077,0 4.384615,-1.955539 4.384615,-4.384616 V 41 h -19 v 19 z"/>
 <path style="opacity:0.1" d="M 61,11.308594 A 24.399736,22.377517 0 0 0 49.308594,23 H 53.46875 A 20.449095,18.7543 0 0 1 61,15.316406 Z m -38,0.613281 v 3.826172 C 26.040001,17.1859 29.466428,18 33.09375,18 A 23.633763,23.633763 0 0 0 42,16.269531 v -3.701172 c -2.654971,1.324411 -5.684072,2.078125 -8.90625,2.078125 -3.712824,0 -7.171102,-1.00008 -10.09375,-2.724609 z M 11.197266,23 a 20.233219,20.233219 0 0 1 2.03125,8.867188 A 20.205314,20.205312 0 0 1 10.523438,42 H 14.78125 A 23.912689,23.912687 0 0 0 17.027344,31.867188 23.923969,23.923969 0 0 0 15.326172,23 Z m 40.896484,7.068359 c -3.627319,0 -7.054305,0.816053 -10.09375,2.253907 v 3.822265 c 2.922653,-1.72453 6.380376,-2.722658 10.09375,-2.722656 3.221626,0 6.251278,0.753154 8.90625,2.078125 V 31.796875 A 23.633766,23.633766 0 0 0 52.09375,30.068359 Z M 23,30.308594 v 3.705078 C 26.450127,35.791664 29.23084,38.587718 30.939453,42 h 0.769531 c -1.124657,2.820673 -1.701894,5.830569 -1.701172,8.867188 -0.0021,3.501648 0.764314,6.960137 2.246094,10.132812 h 4.261719 c -1.779382,-3.080511 -2.713869,-6.575323 -2.708984,-10.132812 0,-3.1825 0.732891,-6.190563 2.033203,-8.867188 H 34.691406 C 32.537026,36.754481 28.33429,32.551745 23,30.308594 Z M 49.308594,42 A 25.617474,24.883245 0 0 0 61,53.691406 V 49.238281 A 21.463235,20.848072 0 0 1 53.814453,42 Z"/>
 <path style="fill:#2e7bdd" d="M 61 10.308594 A 24.399736 22.377517 0 0 0 49.308594 22 L 53.46875 22 A 20.449095 18.7543 0 0 1 61 14.316406 L 61 10.308594 z M 23 10.921875 L 23 14.748047 C 26.040001 16.1859 29.466428 17 33.09375 17 A 23.633763 23.633763 0 0 0 42 15.269531 L 42 11.568359 C 39.345029 12.89277 36.315928 13.646484 33.09375 13.646484 C 29.380926 13.646484 25.922648 12.646404 23 10.921875 z M 11.197266 22 A 20.233219 20.233219 0 0 1 13.228516 30.867188 A 20.205314 20.205312 0 0 1 10.523438 41 L 14.78125 41 A 23.912689 23.912687 0 0 0 17.027344 30.867188 A 23.923969 23.923969 0 0 0 15.326172 22 L 11.197266 22 z M 52.09375 29.068359 C 48.466431 29.068359 45.039445 29.884412 42 31.322266 L 42 35.144531 C 44.922653 33.420001 48.380376 32.421873 52.09375 32.421875 C 55.315376 32.421875 58.345028 33.175029 61 34.5 L 61 30.796875 A 23.633766 23.633766 0 0 0 52.09375 29.068359 z M 23 29.308594 L 23 33.013672 C 26.450127 34.791664 29.23084 37.587718 30.939453 41 L 31.708984 41 C 30.584327 43.820673 30.00709 46.830569 30.007812 49.867188 C 30.005713 53.368836 30.772126 56.827325 32.253906 60 L 36.515625 60 C 34.736243 56.919489 33.801756 53.424677 33.806641 49.867188 C 33.806641 46.684688 34.539532 43.676625 35.839844 41 L 34.691406 41 C 32.537026 35.754481 28.33429 31.551745 23 29.308594 z M 49.308594 41 A 25.617474 24.883245 0 0 0 61 52.691406 L 61 48.238281 A 21.463235 20.848072 0 0 1 53.814453 41 L 49.308594 41 z"/>
 <path style="opacity:0.2;fill:#8b9cbe" d="M 8.3847656 3 C 5.9556887 3 4 4.9556887 4 7.3847656 L 4 8.3847656 C 4 5.9556887 5.9556887 4 8.3847656 4 L 56.615234 4 C 59.044311 4 61 5.9556887 61 8.3847656 L 61 7.3847656 C 61 4.9556887 59.044311 3 56.615234 3 L 8.3847656 3 z"/>
</svg>
