<svg xmlns="http://www.w3.org/2000/svg" width="64" height="64" version="1">
 <rect style="opacity:0.2" width="58" height="42" x="3" y="12" rx="3.955" ry="3.938"/>
 <rect style="fill:#9e5fb0" width="58" height="42" x="3" y="11" rx="3.955" ry="3.938"/>
 <path style="fill:#a7a6a4" d="m 32,25 6,11.846151 V 53 h -6 z"/>
 <path style="fill:#d6d5d3" d="M 32,25 26,36.846151 V 53 h 6 z"/>
 <path style="fill:#8b9cbe;opacity:0.2" d="M 6.9550781 11 C 4.7642599 11 3 12.756125 3 14.9375 L 3 15.9375 C 3 13.756125 4.7642599 12 6.9550781 12 L 57.044922 12 C 59.23574 12 61 13.756125 61 15.9375 L 61 14.9375 C 61 12.756125 59.23574 11 57.044922 11 L 6.9550781 11 z"/>
 <path style="fill:#8b9cbe;opacity:0.2" d="M 32 25 L 26 36.845703 L 26 37.845703 L 32 26 L 38 37.845703 L 38 36.845703 L 32 25 z"/>
</svg>
