<svg xmlns="http://www.w3.org/2000/svg" width="64" height="64" version="1">
 <rect style="opacity:0.2" width="56" height="56" x="4" y="5" rx="28" ry="28"/>
 <rect style="fill:#168616" width="56" height="56" x="4" y="4" rx="28" ry="28"/>
 <path style="opacity:0.2" d="M 30.325908,54.27682 C 29.561042,53.620276 29.51346,53.463724 29.51346,51.603944 v -1.975486 l -1.312342,0.663396 c -0.721796,0.364868 -2.24,0.900228 -3.3738,1.189686 -2.291614,0.585054 -4.261566,0.41843 -5.819101,-0.492178 -1.498141,-0.875892 -1.942495,-1.773736 -1.947656,-3.935358 -0.0021,-1.070472 0.09127,-2.43291 0.208509,-3.027646 0.118542,-0.601394 0.111126,-0.930814 -0.01672,-0.742208 -0.526806,0.777124 -2.109879,1.688378 -2.933133,1.688378 -1.418293,0 -2.2734,-1.24664 -2.2734,-3.314334 0,-0.9774 0.226886,-2.288744 0.55618,-3.214574 L 13.158178,36.879894 12.534301,36.0367 c -0.487778,-0.659252 -0.621875,-1.188382 -0.614665,-2.425416 0.0078,-1.330468 0.200049,-1.95273 1.208607,-3.910986 1.204883,-2.339432 1.899757,-3.269942 1.8933,-2.535326 -0.0021,0.20406 -0.288778,0.86937 -0.637743,1.478466 -1.156407,2.018446 -1.899838,4.474766 -1.690875,5.586682 0.163802,0.871566 0.290531,1.010248 0.922363,1.009374 1.090054,-0.002 2.09124,-0.720226 5.408941,-3.882954 l 3.004651,-2.864314 -2.011682,-1.466504 c -1.106424,-0.806568 -2.552893,-1.808278 -3.214367,-2.226014 -1.667928,-1.053328 -2.147428,-2.241158 -1.48794,-3.686 0.324089,-0.710012 0.772703,-1.028126 3.027412,-2.146724 0.856456,-0.424907 1.557195,-0.821306 1.557195,-0.880889 0,-0.05958 -0.199644,-0.307633 -0.443668,-0.551217 -0.711876,-0.710609 -0.08816,-2.399835 1.05418,-2.855072 0.483436,-0.192657 1.647294,-0.695437 2.586344,-1.117295 1.850964,-0.831525 7.399866,-2.707339 7.553878,-2.553601 0.329168,0.328584 -0.40968,0.95215 -1.620478,1.367625 -4.076732,1.398887 -9.130256,3.514093 -9.130256,3.821547 0,0.08025 0.184638,0.502318 0.4103,0.937928 l 0.410306,0.79203 1.417708,-0.56742 c 4.522592,-1.810122 11.205104,-3.746822 12.928292,-3.746822 0.310946,0 0.870014,0.304113 1.242372,0.675805 0.5723,0.571281 0.649064,0.832589 0.496364,1.689584 -0.26317,1.476971 -0.956608,2.471545 -2.9667,4.255029 -0.983274,0.872428 -2.172666,2.121224 -2.643082,2.775106 -1.039368,1.444714 -1.279552,1.080558 -0.420186,-0.637086 0.567772,-1.134828 2.265098,-2.970202 4.423206,-4.782958 0.80068,-0.672546 0.804062,-0.686763 0.296556,-1.246557 -0.374414,-0.412989 -0.839174,-0.566251 -1.71706,-0.566251 -1.2391,0 -5.187928,0.948979 -8.05553,1.93589 -3.216602,1.107023 -9.613974,3.95893 -9.613974,4.285846 0,0.09138 0.396068,0.369996 0.880155,0.619152 0.922503,0.474814 3.124161,1.794692 5.822967,3.490828 l 1.59942,1.005202 1.252598,-0.47463 c 0.68894,-0.261046 1.317064,-0.53897 1.395826,-0.617602 0.07878,-0.07862 -0.11486,-1.612314 -0.430282,-3.408192 -0.547298,-3.115988 -0.53186,-4.673823 0.0463,-4.673823 0.1461,0 0.265656,0.113572 0.265656,0.252372 0,0.138802 0.384624,0.869993 0.854718,1.624865 0.846702,1.359646 0.895514,2.031492 0.09968,1.372186 -0.51459,-0.426308 -0.537714,-0.07292 -0.12186,1.862642 0.349494,1.62675 1.109282,2.661484 2.327322,3.169502 0.808682,0.337286 0.902388,0.488282 0.902388,1.45408 0,1.19321 -0.12696,1.261362 -1.255422,0.673872 -0.90423,-0.470752 -2.344688,-0.528398 -3.101448,-0.1241 -0.470994,0.251616 -0.2059,0.514518 2.38745,2.367656 1.604502,1.146534 3.374274,2.432574 3.932836,2.857876 l 1.015562,0.77326 v -0.731106 c 0,-0.402108 -0.13108,-3.082722 -0.291272,-5.956928 -0.251068,-4.504366 -0.235406,-5.331574 0.11348,-5.991744 l 0.404752,-0.765916 0.585668,1.351666 c 1.366508,3.153768 1.614094,4.783348 0.50874,3.348368 l -0.496864,-0.645026 0.0182,1.486838 c 0.0098,0.817754 0.15952,3.178262 0.332494,5.245574 l 0.314478,3.758738 1.053552,0.5452 c 0.967732,0.500792 1.144208,0.51392 2.166528,0.1611 l 1.112992,-0.384104 0.04976,-1.622 c 0.02742,-0.892102 -0.06274,-2.595206 -0.200244,-3.784672 -0.1375,-1.18947 -0.367408,-3.804954 -0.510902,-5.81218 -0.1435,-2.00723 -0.395728,-5.325384 -0.560496,-7.373675 -0.280084,-3.481731 -0.218294,-4.798548 0.224596,-4.786198 0.256886,0.0072 1.945164,3.886087 1.945164,4.469153 0,0.449177 -0.02994,0.448419 -0.541634,-0.01382 -0.662416,-0.598409 -0.653556,-0.848426 -0.15318,4.325336 1.096516,11.337916 1.163322,12.99448 0.599336,14.862284 -0.548424,1.816268 -2.509096,2.740968 -4.339116,2.046442 l -0.678434,-0.257484 0.05148,4.515246 c 0.0497,4.359726 -0.302966,7.083406 -0.917154,7.083406 -0.12166,0 -0.19722,-1.186092 -0.16792,-2.635758 0.02936,-1.449662 -0.0498,-4.29346 -0.1758,-6.319544 L 34.201072,36.65875 32.39901,35.290308 C 31.407888,34.537666 30.35317,33.701544 30.055208,33.432252 29.757242,33.162968 28.799406,32.411618 27.92668,31.762586 l -1.586764,-1.180056 0.686564,1.180056 c 0.898042,1.54354 1.133374,2.916828 0.720382,4.203696 -0.513124,1.598842 -1.23625,2.18053 -3.626378,2.917052 -2.551168,0.786156 -4.842414,2.032842 -5.457066,2.969248 -0.237788,0.36226 -0.557785,1.425328 -0.711097,2.362366 -0.358239,2.189468 0.06001,3.493962 1.488735,4.643238 0.88157,0.709152 1.303324,0.844578 2.912868,0.93536 2.712098,0.15298 6.309044,-1.155212 9.01247,-3.27777 1.235848,-0.970314 1.23115,-1.230812 -0.08812,-4.88652 -0.65914,-1.82643 -0.821548,-2.62871 -0.682222,-3.370054 l 0.18286,-0.972978 1.185006,1.342554 c 1.31507,1.489896 1.470308,1.88015 0.664186,1.669716 -0.66857,-0.17452 -0.668564,-0.1206 9.8e-5,1.635652 0.601318,1.57928 0.705006,3.572084 0.232854,4.475382 -0.16976,0.324762 -0.820928,1.142722 -1.447042,1.817682 -0.932368,1.0051 -1.17294,1.48714 -1.329256,2.663398 -0.14574,1.096712 -0.0903,1.589416 0.234612,2.084384 0.869876,1.325236 1.722044,0.756986 5.774154,-3.850404 1.430332,-1.626336 2.021668,-2.017254 5.030444,-3.325518 l 1.590092,-0.691402 0.05674,-1.892336 c 0.07568,-2.524568 0.847864,-3.919848 2.169358,-3.919848 0.480752,0 0.730586,0.255228 1.06392,1.086814 0.239596,0.59775 0.435628,1.312354 0.435628,1.588012 0,0.843778 -0.79859,2.81746 -1.397494,3.45383 -0.821608,0.873004 -0.482864,1.440702 0.859672,1.440702 0.811142,0 1.280446,-0.17606 1.768812,-0.663552 0.806544,-0.805106 0.818026,-1.178302 0.266658,-8.662974 -1.252488,-17.000912 -1.35857,-19.882174 -0.731466,-19.864372 0.207648,0.006 1.941892,3.839016 1.941892,4.292088 0,0.45998 -0.482658,0.353378 -0.79075,-0.17466 -0.390832,-0.669818 -0.373948,0.378086 0.101,6.269832 1.263948,15.679788 1.191372,17.97511 -0.623254,19.710536 -1.554664,1.486806 -3.460716,1.45112 -4.13855,-0.0775 -0.202282,-0.456172 -0.505624,-0.8294 -0.674092,-0.8294 -0.677226,0 -4.573554,1.96759 -5.552196,2.803782 -0.57461,0.490972 -1.642436,1.680784 -2.372936,2.64404 -2.109258,2.781294 -3.264774,3.257006 -4.77093,1.964134 z M 44.754324,44.011036 c 0.699204,-0.488874 0.799532,-1.643158 0.211526,-2.433602 -0.818854,-1.10076 -1.817902,0.493212 -1.385934,2.211252 0.18992,0.755382 0.364702,0.788474 1.174408,0.22235 z M 15.329697,42.875658 c 0.391135,-0.259216 1.369775,-1.15138 2.174766,-1.982598 2.045809,-2.112444 3.300527,-2.865702 6.653645,-3.99445 2.416626,-0.813494 2.932406,-1.083214 3.00182,-1.569764 0.12434,-0.871576 -0.847132,-2.570832 -2.428516,-4.247832 -1.672722,-1.773866 -1.222956,-1.957866 -5.56735,2.277602 -1.85841,1.811816 -3.546129,3.210052 -4.24958,3.52066 -0.94177,0.415848 -1.250924,0.737724 -1.602515,1.66849 -1.048524,2.775706 -0.813963,4.804224 0.555153,4.800974 0.413293,-8.48e-4 1.071452,-0.213862 1.462577,-0.473082 z m 0.958898,-2.949368 c -0.338193,-0.337586 -0.181844,-2.3035 0.256537,-3.225668 0.440921,-0.927514 1.140081,-1.326148 0.782869,-0.446366 -0.579148,1.426394 -0.717105,2.00977 -0.56738,2.399252 0.134604,0.350134 0.243088,0.36894 0.569309,0.09868 0.472709,-0.39161 0.496558,-0.278134 0.138904,0.660896 -0.252309,0.662438 -0.794534,0.898226 -1.180239,0.513206 z m 4.100385,-4.492754 c -0.710498,-0.583198 -0.717567,-0.617576 -0.275792,-1.34195 0.51,-0.83626 0.91602,-0.93348 1.411186,-0.337912 0.468346,0.56331 0.981832,0.506288 1.45007,-0.16102 l 0.39752,-0.56652 0.83651,0.617358 c 0.974062,0.71887 1.010678,0.961152 0.277958,1.839476 l -0.54053,0.647952 -0.692136,-0.647952 -0.692132,-0.647954 -0.494336,0.60825 c -0.606322,0.746048 -0.758654,0.745168 -1.678318,-0.0096 z m 15.768094,19.338592 c 0.0048,-0.11152 0.18754,-0.438888 0.406218,-0.7275 0.517128,-0.682494 0.51244,-1.259432 -0.0086,-1.059844 -0.58694,0.22483 -0.498908,-0.275378 0.15194,-0.863346 0.477688,-0.43153 0.594226,-0.447316 0.808298,-0.10948 0.357792,0.564648 0.327354,0.739384 -0.33307,1.912364 -0.534176,0.948746 -1.047098,1.373084 -1.024784,0.847808 z m 4.476582,-1.82647 c -0.230274,-0.55015 -0.68634,-1.057792 -1.08689,-1.209812 -0.79068,-0.30008 -1.012188,-1.626976 -0.27161,-1.626976 0.437094,0 1.413224,0.89735 1.890994,1.738366 0.259318,0.45647 0.281352,0.451096 0.321308,-0.0784 0.05804,-0.769172 0.680404,-2.001524 1.075628,-2.129876 0.4146,-0.13464 1.27284,1.16359 1.029282,1.556966 -0.12734,0.205648 -0.345558,0.15536 -0.694742,-0.16008 -0.567696,-0.512842 -0.507708,-0.601008 -1.070758,1.573612 -0.18286,0.70624 -0.436868,1.28408 -0.564464,1.28408 -0.12758,0 -0.410526,-0.426552 -0.628748,-0.947884 z M 14.763567,48.55445 c 0.0053,-0.11152 0.18376,-0.506876 0.396625,-0.878584 0.4986,-0.87065 0.4986,-1.081338 0,-1.081338 -0.489687,0 -0.523542,-0.315424 -0.08124,-0.756934 0.445619,-0.44483 0.939451,-0.406866 1.129236,0.08682 0.16932,0.440472 -0.875637,2.832784 -1.237361,2.832784 -0.119266,0 -0.212541,-0.09124 -0.207256,-0.202748 z m 6.492303,-0.868856 c -0.443462,-0.282702 -0.55802,-2.31516 -0.202056,-3.58452 l 0.206476,-0.736278 -0.962786,0.567042 c -1.009474,0.594542 -1.515825,0.517192 -0.963459,-0.1472 0.349123,-0.41991 3.621337,-2.444976 4.461517,-2.761074 0.832198,-0.313104 0.387756,0.483398 -0.667164,1.195638 -1.332486,0.899634 -1.728208,1.816364 -1.633996,3.785282 0.02384,0.498578 0.14054,0.591436 0.57161,0.454868 0.66781,-0.21158 0.695386,0.16098 0.0677,0.914664 -0.343068,0.411938 -0.585458,0.497964 -0.877842,0.311566 z m 3.970332,-2.45507 c -0.844894,-0.663406 -0.89991,-1.07006 -0.248914,-1.839856 l 0.473926,-0.560418 0.801376,0.653286 c 0.700386,0.570962 0.768644,0.74574 0.54163,1.386966 -0.341974,0.965944 -0.69354,1.046666 -1.568018,0.360022 z m 3.500252,-0.229932 c -0.54382,-0.599838 -0.5438,-1.225248 8.4e-5,-2.818622 0.49842,-1.460168 1.010922,-1.472256 0.607652,-0.0142 -0.311142,1.124856 -0.0718,2.618128 0.31856,1.987618 0.324932,-0.524814 0.549878,-0.233582 0.364914,0.472458 -0.205824,0.78566 -0.769424,0.948424 -1.29121,0.372884 z m 8.77609,-0.79419 c 0,-0.15582 0.11788,-0.356024 0.261944,-0.444904 0.14408,-0.08888 0.1942,-0.499692 0.1114,-0.912922 -0.11304,-0.564122 0.0331,-0.969144 0.586458,-1.62562 0.835212,-0.990814 1.883752,-1.0856 1.883752,-0.17026 0,0.416728 -0.18054,0.540666 -0.787632,0.540666 -0.4332,0 -0.835978,0.14174 -0.895058,0.314978 -0.15334,0.449554 0.889934,0.713032 2.000108,0.505138 0.79509,-0.1489 0.932776,-0.10456 0.85661,0.275796 -0.05604,0.279784 -0.660724,0.6351 -1.580252,0.928548 -0.81922,0.261442 -1.702754,0.564566 -1.963418,0.67362 -0.276228,0.11554 -0.473926,0.08008 -0.473926,-0.08502 z M 50.90795,40.444584 c 0,-2.193168 -0.215246,-7.046144 -0.478314,-10.78439 -0.35928,-5.105426 -0.403868,-6.989068 -0.17916,-7.569356 0.295052,-0.761928 0.311706,-0.742856 1.213542,1.390148 0.502912,1.189462 0.918672,2.31473 0.923906,2.500586 0.0138,0.49459 -0.461816,0.412286 -0.781248,-0.13516 -0.390756,-0.669696 -0.363832,0.728754 0.1158,6.01493 0.517322,5.701424 0.51315,9.402588 -0.0126,11.169786 -0.229198,0.770402 -0.503402,1.400808 -0.60934,1.400886 -0.10594,8e-5 -0.19262,-1.794262 -0.19262,-3.987422 z m -26.12738,0.870744 c 0.18894,-0.227258 1.292194,-1.212324 2.45167,-2.189052 1.159484,-0.976718 2.174284,-1.947902 2.255118,-2.158184 0.08082,-0.210272 0.011,-0.680024 -0.15498,-1.04388 -0.242224,-0.530662 -0.210402,-0.801048 0.16078,-1.366554 0.373166,-0.568514 0.537894,-0.642758 0.850864,-0.383478 0.213462,0.17684 0.388108,0.647252 0.388108,1.045362 0,0.398108 0.13562,0.859212 0.301388,1.024678 0.35378,0.353156 0.07434,0.93638 -0.396892,0.828352 -0.179,-0.041 -0.804562,0.454756 -1.390128,1.101744 -1.221008,1.349098 -4.00354,3.554206 -4.48492,3.554206 -0.243904,0 -0.239182,-0.10268 0.019,-0.413194 z m 15.430134,-1.720164 c 0,-0.16482 0.243734,-0.299646 0.54163,-0.299646 0.2979,0 0.541636,-0.13132 0.541636,-0.291822 0,-0.18654 -0.317482,-0.225776 -0.880158,-0.10874 l -0.88015,0.18306 0.58404,-0.601902 c 0.477994,-0.492618 0.760742,-0.568814 1.557194,-0.419668 1.088874,0.203914 1.1916,0.418106 0.499224,1.040952 -0.620052,0.557784 -1.963416,0.898356 -1.963416,0.497774 z M 10.055377,39.09091 c -0.08368,-0.13516 0.147328,-0.685682 0.513364,-1.223384 0.618633,-0.908782 0.632096,-0.996578 0.191138,-1.246356 -0.44139,-0.250032 -0.443231,-0.3002 -0.02647,-0.721516 0.62333,-0.63007 1.132306,-0.23353 0.938948,0.731544 -0.191236,0.954476 -1.405427,2.801446 -1.617008,2.459712 z M 42.78974,37.410104 c -0.453128,-0.49981 -0.455402,-0.577142 -0.03574,-1.216502 0.515396,-0.785186 0.648694,-0.81145 1.366738,-0.26928 0.471826,0.35625 0.588838,0.336264 1.158366,-0.19782 l 0.633526,-0.5941 0.731196,0.729892 0.731198,0.72989 -0.728314,0.727018 c -0.711948,0.710676 -0.740724,0.715814 -1.280228,0.22844 -0.514642,-0.464926 -0.58535,-0.468378 -1.047162,-0.0512 -0.642996,0.580866 -0.939886,0.564108 -1.529588,-0.08634 z m 0.941574,-3.022042 c 0,-0.528314 -0.07848,-1.710012 -0.1744,-2.625992 l -0.17438,-1.665408 -0.943018,0.555406 c -1.031488,0.607508 -1.609436,0.463848 -0.738916,-0.18368 1.851474,-1.377194 1.72908,-1.031812 1.470274,-4.148902 -0.798894,-9.621832 -0.852356,-12.165028 -0.255724,-12.165028 0.254664,0 1.899414,3.893406 1.899414,4.496238 0,0.412624 -0.0489,0.409394 -0.541656,-0.0358 -0.535692,-0.483933 -0.540364,-0.474741 -0.424884,0.836688 0.0642,0.729296 0.209008,2.60333 0.321762,4.164512 0.11276,1.561174 0.227776,2.929736 0.255628,3.041252 0.02788,0.11152 0.06586,0.521766 0.08448,0.911688 0.02898,0.606948 0.09396,0.659152 0.451556,0.362888 0.289786,-0.240078 0.331256,-0.432336 0.13542,-0.627836 -0.396576,-0.395864 -0.351018,-1.328174 0.09462,-1.936538 0.310146,-0.423384 0.449714,-0.454244 0.787782,-0.17418 0.51695,0.428264 0.542888,2.748052 0.03076,2.748052 -0.682438,0 -1.484876,1.38291 -1.318496,2.272262 0.18158,0.970614 -0.328178,4.499948 -0.704568,4.878066 -0.16062,0.16136 -0.25564,-0.10024 -0.25564,-0.703758 z m 8.776888,-0.365834 c -0.207454,-0.82508 0.06902,-2.417484 0.596444,-3.43564 0.645178,-1.245404 0.867008,-0.848738 0.360536,0.644678 -0.500948,1.477134 -0.4301,2.241708 0.18588,2.00576 0.442342,-0.16944 0.448344,-0.12638 0.10716,0.769378 -0.337302,0.885594 -1.02913,0.894358 -1.25002,0.0158 z M 37.069618,32.932724 c -0.269782,-1.072974 0.4853,-3.909896 1.040664,-3.909896 0.29572,0 0.25773,0.248848 -0.234416,1.535188 -0.50845,1.329 -0.34365,2.245136 0.306922,1.706162 0.4901,-0.406012 0.553986,0.02698 0.12268,0.83143 -0.393776,0.734466 -1.031358,0.650428 -1.235846,-0.16288 z M 16.629809,31.148422 c -0.35856,-0.668772 -0.214996,-1.852168 0.404123,-3.33129 0.54194,-1.294734 0.838211,-1.095814 0.449452,0.301762 -0.158976,0.571508 -0.289724,1.32101 -0.290555,1.665572 -8.51e-4,0.510978 0.10195,0.593688 0.559734,0.448646 0.545148,-0.17272 0.548828,-0.15386 0.128454,0.657622 -0.50938,0.983264 -0.827121,1.048708 -1.251211,0.257688 z m 14.956033,0.221874 c -0.328884,-0.395574 -0.0118,-1.898406 0.685628,-3.251174 0.607498,-1.178068 0.737184,-0.647696 0.22097,0.903706 -0.491364,1.476718 -0.406454,1.912746 0.264274,1.35709 0.497834,-0.412432 0.5664,0.0138 0.13242,0.823354 -0.324888,0.605962 -0.879286,0.677012 -1.303298,0.16704 z M 10.052157,29.428328 c 0.08573,-0.223024 0.243413,-0.4055 0.350391,-0.4055 0.279243,0 3.385453,-2.430238 3.496873,-2.73589 0.05131,-0.14078 -0.05491,-0.434232 -0.236075,-0.652128 -0.462839,-0.556698 0.154674,-2.018654 0.852668,-2.018654 0.415215,0 0.508773,0.204112 0.508773,1.11001 0,1.373816 -1.073192,2.830094 -3.079623,4.178888 -1.479625,0.99466 -2.144913,1.178564 -1.893007,0.523274 z m 1.462317,-3.359954 c -0.24017,-0.447976 -0.194498,-0.81254 0.218574,-1.744712 0.287212,-0.648124 0.657875,-1.262108 0.823704,-1.364412 0.391747,-0.241678 0.381377,-0.14062 -0.104722,1.02071 -0.223423,0.533772 -0.406224,1.110946 -0.406224,1.282612 0,0.225084 0.113282,0.218272 0.406224,-0.02438 0.635766,-0.526688 0.52849,0.34642 -0.113852,0.926704 -0.496125,0.448176 -0.534079,0.443728 -0.823709,-0.09648 z m 11.12397,-1.85129 c -0.368182,-0.720406 -0.776464,-1.133006 -1.17737,-1.189804 -0.773812,-0.10964 -1.009196,-1.220822 -0.31494,-1.48676 0.333158,-0.12762 0.687012,0.076 1.201842,0.691594 l 0.729662,0.872454 0.301008,-1.193286 c 0.38304,-1.518476 0.965738,-2.070436 1.376642,-1.30403 0.54122,1.009476 0.14694,1.979488 -0.427498,1.051704 -0.255122,-0.41207 -0.568978,0.588322 -0.614034,1.9572 -0.05378,1.633862 -0.437744,1.848446 -1.075312,0.600928 z m 14.05227,-1.27602 c -0.372692,-0.44827 -0.258432,-1.915368 0.250364,-3.214664 0.461536,-1.178606 0.683574,-0.619982 0.29881,0.751802 -0.334046,1.190974 -0.205516,1.939942 0.281364,1.63957 0.399068,-0.246196 0.292906,0.587378 -0.11818,0.927946 -0.281746,0.233418 -0.452078,0.208396 -0.712348,-0.10466 z m 4.053122,-0.4221 c -0.332726,-0.62061 -0.13298,-1.918646 0.455138,-2.957818 0.355828,-0.628719 0.370684,-0.576801 0.213152,0.744738 -0.14654,1.22941 -0.11124,1.39831 0.262474,1.255158 0.497008,-0.19038 0.560906,0.227888 0.15146,0.991546 -0.361164,0.673622 -0.708844,0.662828 -1.08224,-0.03362 z m -10.485628,-1.91699 c -0.18618,-0.18588 -0.338524,-0.564468 -0.338524,-0.841304 0,-0.668986 1.325064,-3.443529 1.644564,-3.443529 0.391192,0 0.299208,0.448912 -0.289474,1.412715 -0.668398,1.094335 -0.753886,2.072494 -0.13642,1.560956 0.59564,-0.493457 0.544536,0.310274 -0.0677,1.064948 -0.37917,0.467366 -0.541618,0.516604 -0.812446,0.246214 z M 15.457483,19.902958 c -0.314763,-0.314206 -0.15624,-2.001551 0.264313,-2.813364 0.537782,-1.038101 0.818493,-0.812614 0.417564,0.335421 -0.392998,1.125355 -0.381125,1.325128 0.07875,1.325128 0.242986,0 0.331368,0.18896 0.244129,0.521969 -0.142574,0.544232 -0.72511,0.90999 -1.004753,0.630846 z m 18.524451,-7.04798 c 0,-0.119978 0.33513,-0.361059 0.744742,-0.535727 0.725034,-0.309183 0.717866,-0.314592 -0.270816,-0.204352 -1.053086,0.11742 -1.247262,-0.05401 -0.69058,-0.609706 0.336854,-0.33626 2.433786,-0.454107 2.734742,-0.153682 0.327446,0.326856 -0.345872,1.126083 -1.198704,1.422851 -1.021624,0.355504 -1.319384,0.373696 -1.319384,0.08061 z"/>
 <path style="fill:#ffff13" d="M 30.325908,53.27682 C 29.561042,52.620276 29.51346,52.463724 29.51346,50.603944 v -1.975486 l -1.312342,0.663396 c -0.721796,0.364868 -2.24,0.900228 -3.3738,1.189686 -2.291614,0.585054 -4.261566,0.41843 -5.819101,-0.492178 -1.498141,-0.875892 -1.942495,-1.773736 -1.947656,-3.935358 -0.0021,-1.070472 0.09127,-2.43291 0.208509,-3.027646 0.118542,-0.601394 0.111126,-0.930814 -0.01672,-0.742208 -0.526806,0.777124 -2.109879,1.688378 -2.933133,1.688378 -1.418293,0 -2.2734,-1.24664 -2.2734,-3.314334 0,-0.9774 0.226886,-2.288744 0.55618,-3.214574 L 13.158178,35.879894 12.534301,35.0367 c -0.487778,-0.659252 -0.621875,-1.188382 -0.614665,-2.425416 0.0078,-1.330468 0.200049,-1.95273 1.208607,-3.910986 1.204883,-2.339432 1.899757,-3.269942 1.8933,-2.535326 -0.0021,0.20406 -0.288778,0.86937 -0.637743,1.478466 -1.156407,2.018446 -1.899838,4.474766 -1.690875,5.586682 0.163802,0.871566 0.290531,1.010248 0.922363,1.009374 1.090054,-0.002 2.09124,-0.720226 5.408941,-3.882954 l 3.004651,-2.864314 -2.011682,-1.466504 c -1.106424,-0.806568 -2.552893,-1.808278 -3.214367,-2.226014 -1.667928,-1.053328 -2.147428,-2.241158 -1.48794,-3.686 0.324089,-0.710011 0.772703,-1.028125 3.027412,-2.146724 0.856456,-0.424907 1.557195,-0.821306 1.557195,-0.880889 0,-0.05958 -0.199644,-0.307633 -0.443668,-0.551217 -0.711876,-0.710609 -0.08816,-2.399835 1.05418,-2.855072 0.483436,-0.192657 1.647294,-0.695437 2.586344,-1.117295 1.850964,-0.831525 7.399866,-2.7073386 7.553878,-2.553601 0.329168,0.328584 -0.40968,0.95215 -1.620478,1.367625 -4.076732,1.398887 -9.130256,3.514093 -9.130256,3.821547 0,0.08025 0.184638,0.502318 0.4103,0.937928 l 0.410306,0.79203 1.417708,-0.56742 c 4.522592,-1.810122 11.205104,-3.746822 12.928292,-3.746822 0.310946,0 0.870014,0.304113 1.242372,0.675805 0.5723,0.571281 0.649064,0.832589 0.496364,1.689584 -0.26317,1.476971 -0.956608,2.471545 -2.9667,4.25503 -0.983274,0.872427 -2.172666,2.121223 -2.643082,2.775105 -1.039368,1.444714 -1.279552,1.080558 -0.420186,-0.637086 0.567772,-1.134828 2.265098,-2.970201 4.423206,-4.782958 0.80068,-0.672546 0.804062,-0.686763 0.296556,-1.246557 -0.374414,-0.412989 -0.839174,-0.566251 -1.71706,-0.566251 -1.2391,0 -5.187928,0.948979 -8.05553,1.93589 -3.216602,1.107023 -9.613974,3.95893 -9.613974,4.285846 0,0.09138 0.396068,0.369996 0.880155,0.619152 0.922503,0.474814 3.124161,1.794692 5.822967,3.490828 l 1.59942,1.005202 1.252598,-0.47463 c 0.68894,-0.261046 1.317064,-0.53897 1.395826,-0.617602 0.07878,-0.07862 -0.11486,-1.612314 -0.430282,-3.408192 -0.547298,-3.115987 -0.53186,-4.673823 0.0463,-4.673823 0.1461,0 0.265656,0.113572 0.265656,0.252372 0,0.138802 0.384624,0.869993 0.854718,1.624866 0.846702,1.359645 0.895514,2.031491 0.09968,1.372185 -0.51459,-0.426307 -0.537714,-0.07292 -0.12186,1.862642 0.349494,1.62675 1.109282,2.661484 2.327322,3.169502 0.808682,0.337286 0.902388,0.488282 0.902388,1.45408 0,1.19321 -0.12696,1.261362 -1.255422,0.673872 -0.90423,-0.470752 -2.344688,-0.528398 -3.101448,-0.1241 -0.470994,0.251616 -0.2059,0.514518 2.38745,2.367656 1.604502,1.146534 3.374274,2.432574 3.932836,2.857876 l 1.015562,0.77326 v -0.731106 c 0,-0.402108 -0.13108,-3.082722 -0.291272,-5.956928 -0.251068,-4.504366 -0.235406,-5.331574 0.11348,-5.991744 l 0.404752,-0.765915 0.585668,1.351665 c 1.366508,3.153768 1.614094,4.783348 0.50874,3.348368 l -0.496864,-0.645026 0.0182,1.486838 c 0.0098,0.817754 0.15952,3.178262 0.332494,5.245574 l 0.314478,3.758738 1.053552,0.5452 c 0.967732,0.500792 1.144208,0.51392 2.166528,0.1611 l 1.112992,-0.384104 0.04976,-1.622 c 0.02742,-0.892102 -0.06274,-2.595206 -0.200244,-3.784672 -0.1375,-1.18947 -0.367408,-3.804954 -0.510902,-5.81218 -0.1435,-2.00723 -0.395728,-5.325383 -0.560496,-7.373675 -0.280084,-3.481731 -0.218294,-4.798548 0.224596,-4.786198 0.256886,0.0072 1.945164,3.886087 1.945164,4.469153 0,0.449177 -0.02994,0.448419 -0.541634,-0.01382 -0.662416,-0.598409 -0.653556,-0.848426 -0.15318,4.325336 1.096516,11.337916 1.163322,12.99448 0.599336,14.862284 -0.548424,1.816268 -2.509096,2.740968 -4.339116,2.046442 l -0.678434,-0.257484 0.05148,4.515246 c 0.0497,4.359726 -0.302966,7.083406 -0.917154,7.083406 -0.12166,0 -0.19722,-1.186092 -0.16792,-2.635758 0.02936,-1.449662 -0.0498,-4.29346 -0.1758,-6.319544 L 34.201072,35.65875 32.39901,34.290308 C 31.407888,33.537666 30.35317,32.701544 30.055208,32.432252 29.757242,32.162968 28.799406,31.411618 27.92668,30.762586 l -1.586764,-1.180056 0.686564,1.180056 c 0.898042,1.54354 1.133374,2.916828 0.720382,4.203696 -0.513124,1.598842 -1.23625,2.18053 -3.626378,2.917052 -2.551168,0.786156 -4.842414,2.032842 -5.457066,2.969248 -0.237788,0.36226 -0.557785,1.425328 -0.711097,2.362366 -0.358239,2.189468 0.06001,3.493962 1.488735,4.643238 0.88157,0.709152 1.303324,0.844578 2.912868,0.93536 2.712098,0.15298 6.309044,-1.155212 9.01247,-3.27777 1.235848,-0.970314 1.23115,-1.230812 -0.08812,-4.88652 -0.65914,-1.82643 -0.821548,-2.62871 -0.682222,-3.370054 l 0.18286,-0.972978 1.185006,1.342554 c 1.31507,1.489896 1.470308,1.88015 0.664186,1.669716 -0.66857,-0.17452 -0.668564,-0.1206 9.8e-5,1.635652 0.601318,1.57928 0.705006,3.572084 0.232854,4.475382 -0.16976,0.324762 -0.820928,1.142722 -1.447042,1.817682 -0.932368,1.0051 -1.17294,1.48714 -1.329256,2.663398 -0.14574,1.096712 -0.0903,1.589416 0.234612,2.084384 0.869876,1.325236 1.722044,0.756986 5.774154,-3.850404 1.430332,-1.626336 2.021668,-2.017254 5.030444,-3.325518 l 1.590092,-0.691402 0.05674,-1.892336 c 0.07568,-2.524568 0.847864,-3.919848 2.169358,-3.919848 0.480752,0 0.730586,0.255228 1.06392,1.086814 0.239596,0.59775 0.435628,1.312354 0.435628,1.588012 0,0.843778 -0.79859,2.81746 -1.397494,3.45383 -0.821608,0.873004 -0.482864,1.440702 0.859672,1.440702 0.811142,0 1.280446,-0.17606 1.768812,-0.663552 0.806544,-0.805106 0.818026,-1.178302 0.266658,-8.662974 -1.252488,-17.000911 -1.35857,-19.882174 -0.731466,-19.864372 0.207648,0.006 1.941892,3.839016 1.941892,4.292088 0,0.45998 -0.482658,0.353378 -0.79075,-0.17466 -0.390832,-0.669818 -0.373948,0.378086 0.101,6.269832 1.263948,15.679788 1.191372,17.97511 -0.623254,19.710536 -1.554664,1.486806 -3.460716,1.45112 -4.13855,-0.0775 -0.202282,-0.456172 -0.505624,-0.8294 -0.674092,-0.8294 -0.677226,0 -4.573554,1.96759 -5.552196,2.803782 -0.57461,0.490972 -1.642436,1.680784 -2.372936,2.64404 -2.109258,2.781294 -3.264774,3.257006 -4.77093,1.964134 z M 44.754324,43.011036 c 0.699204,-0.488874 0.799532,-1.643158 0.211526,-2.433602 -0.818854,-1.10076 -1.817902,0.493212 -1.385934,2.211252 0.18992,0.755382 0.364702,0.788474 1.174408,0.22235 z M 15.329697,41.875658 c 0.391135,-0.259216 1.369775,-1.15138 2.174766,-1.982598 2.045809,-2.112444 3.300527,-2.865702 6.653645,-3.99445 2.416626,-0.813494 2.932406,-1.083214 3.00182,-1.569764 0.12434,-0.871576 -0.847132,-2.570832 -2.428516,-4.247832 -1.672722,-1.773866 -1.222956,-1.957866 -5.56735,2.277602 -1.85841,1.811816 -3.546129,3.210052 -4.24958,3.52066 -0.94177,0.415848 -1.250924,0.737724 -1.602515,1.66849 -1.048524,2.775706 -0.813963,4.804224 0.555153,4.800974 0.413293,-8.48e-4 1.071452,-0.213862 1.462577,-0.473082 z m 0.958898,-2.949368 c -0.338193,-0.337586 -0.181844,-2.3035 0.256537,-3.225668 0.440921,-0.927514 1.140081,-1.326148 0.782869,-0.446366 -0.579148,1.426394 -0.717105,2.00977 -0.56738,2.399252 0.134604,0.350134 0.243088,0.36894 0.569309,0.09868 0.472709,-0.39161 0.496558,-0.278134 0.138904,0.660896 -0.252309,0.662438 -0.794534,0.898226 -1.180239,0.513206 z m 4.100385,-4.492754 c -0.710498,-0.583198 -0.717567,-0.617576 -0.275792,-1.34195 0.51,-0.83626 0.91602,-0.93348 1.411186,-0.337912 0.468346,0.56331 0.981832,0.506288 1.45007,-0.16102 l 0.39752,-0.56652 0.83651,0.617358 c 0.974062,0.71887 1.010678,0.961152 0.277958,1.839476 l -0.54053,0.647952 -0.692136,-0.647952 -0.692132,-0.647954 -0.494336,0.60825 c -0.606322,0.746048 -0.758654,0.745168 -1.678318,-0.0096 z m 15.768094,19.338592 c 0.0048,-0.11152 0.18754,-0.438888 0.406218,-0.7275 0.517128,-0.682494 0.51244,-1.259432 -0.0086,-1.059844 -0.58694,0.22483 -0.498908,-0.275378 0.15194,-0.863346 0.477688,-0.43153 0.594226,-0.447316 0.808298,-0.10948 0.357792,0.564648 0.327354,0.739384 -0.33307,1.912364 -0.534176,0.948746 -1.047098,1.373084 -1.024784,0.847808 z m 4.476582,-1.82647 c -0.230274,-0.55015 -0.68634,-1.057792 -1.08689,-1.209812 -0.79068,-0.30008 -1.012188,-1.626976 -0.27161,-1.626976 0.437094,0 1.413224,0.89735 1.890994,1.738366 0.259318,0.45647 0.281352,0.451096 0.321308,-0.0784 0.05804,-0.769172 0.680404,-2.001524 1.075628,-2.129876 0.4146,-0.13464 1.27284,1.16359 1.029282,1.556966 -0.12734,0.205648 -0.345558,0.15536 -0.694742,-0.16008 -0.567696,-0.512842 -0.507708,-0.601008 -1.070758,1.573612 -0.18286,0.70624 -0.436868,1.28408 -0.564464,1.28408 -0.12758,0 -0.410526,-0.426552 -0.628748,-0.947884 z M 14.763567,47.55445 c 0.0053,-0.11152 0.18376,-0.506876 0.396625,-0.878584 0.4986,-0.87065 0.4986,-1.081338 0,-1.081338 -0.489687,0 -0.523542,-0.315424 -0.08124,-0.756934 0.445619,-0.44483 0.939451,-0.406866 1.129236,0.08682 0.16932,0.440472 -0.875637,2.832784 -1.237361,2.832784 -0.119266,0 -0.212541,-0.09124 -0.207256,-0.202748 z m 6.492303,-0.868856 c -0.443462,-0.282702 -0.55802,-2.31516 -0.202056,-3.58452 l 0.206476,-0.736278 -0.962786,0.567042 c -1.009474,0.594542 -1.515825,0.517192 -0.963459,-0.1472 0.349123,-0.41991 3.621337,-2.444976 4.461517,-2.761074 0.832198,-0.313104 0.387756,0.483398 -0.667164,1.195638 -1.332486,0.899634 -1.728208,1.816364 -1.633996,3.785282 0.02384,0.498578 0.14054,0.591436 0.57161,0.454868 0.66781,-0.21158 0.695386,0.16098 0.0677,0.914664 -0.343068,0.411938 -0.585458,0.497964 -0.877842,0.311566 z m 3.970332,-2.45507 c -0.844894,-0.663406 -0.89991,-1.07006 -0.248914,-1.839856 l 0.473926,-0.560418 0.801376,0.653286 c 0.700386,0.570962 0.768644,0.74574 0.54163,1.386966 -0.341974,0.965944 -0.69354,1.046666 -1.568018,0.360022 z m 3.500252,-0.229932 c -0.54382,-0.599838 -0.5438,-1.225248 8.4e-5,-2.818622 0.49842,-1.460168 1.010922,-1.472256 0.607652,-0.0142 -0.311142,1.124856 -0.0718,2.618128 0.31856,1.987618 0.324932,-0.524814 0.549878,-0.233582 0.364914,0.472458 -0.205824,0.78566 -0.769424,0.948424 -1.29121,0.372884 z m 8.77609,-0.79419 c 0,-0.15582 0.11788,-0.356024 0.261944,-0.444904 0.14408,-0.08888 0.1942,-0.499692 0.1114,-0.912922 -0.11304,-0.564122 0.0331,-0.969144 0.586458,-1.62562 0.835212,-0.990814 1.883752,-1.0856 1.883752,-0.17026 0,0.416728 -0.18054,0.540666 -0.787632,0.540666 -0.4332,0 -0.835978,0.14174 -0.895058,0.314978 -0.15334,0.449554 0.889934,0.713032 2.000108,0.505138 0.79509,-0.1489 0.932776,-0.10456 0.85661,0.275796 -0.05604,0.279784 -0.660724,0.6351 -1.580252,0.928548 -0.81922,0.261442 -1.702754,0.564566 -1.963418,0.67362 -0.276228,0.11554 -0.473926,0.08008 -0.473926,-0.08502 z M 50.90795,39.444584 c 0,-2.193168 -0.215246,-7.046144 -0.478314,-10.78439 -0.35928,-5.105426 -0.403868,-6.989068 -0.17916,-7.569356 0.295052,-0.761928 0.311706,-0.742856 1.213542,1.390148 0.502912,1.189462 0.918672,2.31473 0.923906,2.500586 0.0138,0.49459 -0.461816,0.412286 -0.781248,-0.13516 -0.390756,-0.669696 -0.363832,0.728754 0.1158,6.01493 0.517322,5.701424 0.51315,9.402588 -0.0126,11.169786 -0.229198,0.770402 -0.503402,1.400808 -0.60934,1.400886 -0.10594,8e-5 -0.19262,-1.794262 -0.19262,-3.987422 z m -26.12738,0.870744 c 0.18894,-0.227258 1.292194,-1.212324 2.45167,-2.189052 1.159484,-0.976718 2.174284,-1.947902 2.255118,-2.158184 0.08082,-0.210272 0.011,-0.680024 -0.15498,-1.04388 -0.242224,-0.530662 -0.210402,-0.801048 0.16078,-1.366554 0.373166,-0.568514 0.537894,-0.642758 0.850864,-0.383478 0.213462,0.17684 0.388108,0.647252 0.388108,1.045362 0,0.398108 0.13562,0.859212 0.301388,1.024678 0.35378,0.353156 0.07434,0.93638 -0.396892,0.828352 -0.179,-0.041 -0.804562,0.454756 -1.390128,1.101744 -1.221008,1.349098 -4.00354,3.554206 -4.48492,3.554206 -0.243904,0 -0.239182,-0.10268 0.019,-0.413194 z m 15.430134,-1.720164 c 0,-0.16482 0.243734,-0.299646 0.54163,-0.299646 0.2979,0 0.541636,-0.13132 0.541636,-0.291822 0,-0.18654 -0.317482,-0.225776 -0.880158,-0.10874 l -0.88015,0.18306 0.58404,-0.601902 c 0.477994,-0.492618 0.760742,-0.568814 1.557194,-0.419668 1.088874,0.203914 1.1916,0.418106 0.499224,1.040952 -0.620052,0.557784 -1.963416,0.898356 -1.963416,0.497774 z M 10.055377,38.09091 c -0.08368,-0.13516 0.147328,-0.685682 0.513364,-1.223384 0.618633,-0.908782 0.632096,-0.996578 0.191138,-1.246356 -0.44139,-0.250032 -0.443231,-0.3002 -0.02647,-0.721516 0.62333,-0.63007 1.132306,-0.23353 0.938948,0.731544 -0.191236,0.954476 -1.405427,2.801446 -1.617008,2.459712 z M 42.78974,36.410104 c -0.453128,-0.49981 -0.455402,-0.577142 -0.03574,-1.216502 0.515396,-0.785186 0.648694,-0.81145 1.366738,-0.26928 0.471826,0.35625 0.588838,0.336264 1.158366,-0.19782 l 0.633526,-0.5941 0.731196,0.729892 0.731198,0.72989 -0.728314,0.727018 c -0.711948,0.710676 -0.740724,0.715814 -1.280228,0.22844 -0.514642,-0.464926 -0.58535,-0.468378 -1.047162,-0.0512 -0.642996,0.580866 -0.939886,0.564108 -1.529588,-0.08634 z m 0.941574,-3.022042 c 0,-0.528314 -0.07848,-1.710012 -0.1744,-2.625992 l -0.17438,-1.665408 -0.943018,0.555406 c -1.031488,0.607508 -1.609436,0.463848 -0.738916,-0.18368 1.851474,-1.377194 1.72908,-1.031812 1.470274,-4.148902 -0.798894,-9.621832 -0.852356,-12.165028 -0.255724,-12.165028 0.254664,0 1.899414,3.893406 1.899414,4.496238 0,0.412625 -0.0489,0.409393 -0.541656,-0.0358 -0.535692,-0.483933 -0.540364,-0.474741 -0.424884,0.836689 0.0642,0.729296 0.209008,2.603329 0.321762,4.164511 0.11276,1.561174 0.227776,2.929736 0.255628,3.041252 0.02788,0.11152 0.06586,0.521766 0.08448,0.911688 0.02898,0.606948 0.09396,0.659152 0.451556,0.362888 0.289786,-0.240078 0.331256,-0.432336 0.13542,-0.627836 -0.396576,-0.395864 -0.351018,-1.328174 0.09462,-1.936538 0.310146,-0.423384 0.449714,-0.454244 0.787782,-0.17418 0.51695,0.428264 0.542888,2.748052 0.03076,2.748052 -0.682438,0 -1.484876,1.38291 -1.318496,2.272262 0.18158,0.970614 -0.328178,4.499948 -0.704568,4.878066 -0.16062,0.16136 -0.25564,-0.10024 -0.25564,-0.703758 z m 8.776888,-0.365834 c -0.207454,-0.82508 0.06902,-2.417484 0.596444,-3.43564 0.645178,-1.245404 0.867008,-0.848738 0.360536,0.644678 -0.500948,1.477134 -0.4301,2.241708 0.18588,2.00576 0.442342,-0.16944 0.448344,-0.12638 0.10716,0.769378 -0.337302,0.885594 -1.02913,0.894358 -1.25002,0.0158 z M 37.069618,31.932724 c -0.269782,-1.072974 0.4853,-3.909896 1.040664,-3.909896 0.29572,0 0.25773,0.248848 -0.234416,1.535188 -0.50845,1.329 -0.34365,2.245136 0.306922,1.706162 0.4901,-0.406012 0.553986,0.02698 0.12268,0.83143 -0.393776,0.734466 -1.031358,0.650428 -1.235846,-0.16288 z M 16.629809,30.148422 c -0.35856,-0.668772 -0.214996,-1.852168 0.404123,-3.33129 0.54194,-1.294734 0.838211,-1.095814 0.449452,0.301762 -0.158976,0.571508 -0.289724,1.32101 -0.290555,1.665572 -8.51e-4,0.510978 0.10195,0.593688 0.559734,0.448646 0.545148,-0.17272 0.548828,-0.15386 0.128454,0.657622 -0.50938,0.983264 -0.827121,1.048708 -1.251211,0.257688 z m 14.956033,0.221874 c -0.328884,-0.395574 -0.0118,-1.898406 0.685628,-3.251174 0.607498,-1.178068 0.737184,-0.647696 0.22097,0.903706 -0.491364,1.476718 -0.406454,1.912746 0.264274,1.35709 0.497834,-0.412432 0.5664,0.0138 0.13242,0.823354 -0.324888,0.605962 -0.879286,0.677012 -1.303298,0.16704 z M 10.052157,28.428328 c 0.08573,-0.223024 0.243413,-0.4055 0.350391,-0.4055 0.279243,0 3.385453,-2.430238 3.496873,-2.73589 0.05131,-0.14078 -0.05491,-0.434232 -0.236075,-0.652128 -0.462839,-0.556698 0.154674,-2.018654 0.852668,-2.018654 0.415215,0 0.508773,0.204112 0.508773,1.11001 0,1.373816 -1.073192,2.830094 -3.079623,4.178888 -1.479625,0.99466 -2.144913,1.178564 -1.893007,0.523274 z m 1.462317,-3.359954 c -0.24017,-0.447976 -0.194498,-0.81254 0.218574,-1.744712 0.287212,-0.648124 0.657875,-1.262108 0.823704,-1.364412 0.391747,-0.241678 0.381377,-0.14062 -0.104722,1.02071 -0.223423,0.533772 -0.406224,1.110946 -0.406224,1.282612 0,0.225084 0.113282,0.218272 0.406224,-0.02438 0.635766,-0.526688 0.52849,0.34642 -0.113852,0.926704 -0.496125,0.448176 -0.534079,0.443728 -0.823709,-0.09648 z m 11.12397,-1.85129 c -0.368182,-0.720406 -0.776464,-1.133006 -1.17737,-1.189804 -0.773812,-0.10964 -1.009196,-1.220822 -0.31494,-1.48676 0.333158,-0.12762 0.687012,0.076 1.201842,0.691594 l 0.729662,0.872454 0.301008,-1.193286 c 0.38304,-1.518475 0.965738,-2.070435 1.376642,-1.304029 0.54122,1.009475 0.14694,1.979487 -0.427498,1.051703 -0.255122,-0.41207 -0.568978,0.588322 -0.614034,1.9572 -0.05378,1.633862 -0.437744,1.848446 -1.075312,0.600928 z m 14.05227,-1.27602 c -0.372692,-0.44827 -0.258432,-1.915368 0.250364,-3.214663 0.461536,-1.178607 0.683574,-0.619983 0.29881,0.751802 -0.334046,1.190973 -0.205516,1.939941 0.281364,1.639569 0.399068,-0.246196 0.292906,0.587378 -0.11818,0.927946 -0.281746,0.233418 -0.452078,0.208396 -0.712348,-0.10466 z m 4.053122,-0.4221 c -0.332726,-0.62061 -0.13298,-1.918645 0.455138,-2.957817 0.355828,-0.62872 0.370684,-0.576802 0.213152,0.744738 -0.14654,1.229409 -0.11124,1.398309 0.262474,1.255157 0.497008,-0.19038 0.560906,0.227888 0.15146,0.991546 -0.361164,0.673622 -0.708844,0.662828 -1.08224,-0.03362 z M 30.258208,19.601975 c -0.18618,-0.18588 -0.338524,-0.564468 -0.338524,-0.841304 0,-0.668988 1.325064,-3.44353 1.644564,-3.44353 0.391192,0 0.299208,0.448912 -0.289474,1.412715 -0.668398,1.094335 -0.753886,2.072495 -0.13642,1.560957 0.59564,-0.493458 0.544536,0.310274 -0.0677,1.064948 -0.37917,0.467366 -0.541618,0.516604 -0.812446,0.246214 z M 15.457483,18.902959 c -0.314763,-0.314206 -0.15624,-2.001552 0.264313,-2.813365 0.537782,-1.038101 0.818493,-0.812614 0.417564,0.335421 -0.392998,1.125355 -0.381125,1.325128 0.07875,1.325128 0.242986,0 0.331368,0.18896 0.244129,0.52197 -0.142574,0.544232 -0.72511,0.90999 -1.004753,0.630846 z m 18.524451,-7.047981 c 0,-0.119978 0.33513,-0.361059 0.744742,-0.535727 0.725034,-0.309183 0.717866,-0.314592 -0.270816,-0.204352 -1.053086,0.11742 -1.247262,-0.05401 -0.69058,-0.609706 0.336854,-0.33626 2.433786,-0.454107 2.734742,-0.153682 0.327446,0.326856 -0.345872,1.126083 -1.198704,1.422851 -1.021624,0.355504 -1.319384,0.373696 -1.319384,0.08061 z"/>
 <path style="opacity:0.2;fill:#8b9cbe" d="M 32 4 C 16.488 4 4 16.488 4 32 C 4 32.11345 4.0112805 32.224113 4.0175781 32.335938 C 4.3691213 17.134181 16.710728 5 32 5 C 47.289272 5 59.630879 17.134181 59.982422 32.335938 C 59.98872 32.224113 60 32.11345 60 32 C 60 16.488 47.512 4 32 4 z"/>
</svg>
