<svg xmlns="http://www.w3.org/2000/svg" width="64" height="64" version="1">
 <path style="opacity:0.2" d="m 13.799892,21.786601 c 8.03644,-5.568937 17.011142,-16.0433763 35.767676,12.617144 -1.278478,9.744234 0.255946,8.702434 -1.783924,16.171272 -2.35012,6.973688 -10.998288,10.988616 -19.80032,10.360776 C 20.85611,60.427417 14.058882,58.602599 11.659182,50.486165 10.52272,46.737247 10.129867,42.269793 10.231668,37.600521 c 0.118098,-5.416696 2.507417,-10.660726 3.568224,-15.81392 z"/>
 <ellipse id="ellipse905" style="opacity:0.2" cx="-55.302" cy="35.602" rx="3.686" ry="4.965" transform="matrix(-0.98356191,-0.18057123,-0.17115065,0.98524487,0,0)"/>
 <ellipse id="ellipse839" style="fill:#e59c62" cx="-55.131" cy="34.618" rx="3.686" ry="4.965" transform="matrix(-0.98356191,-0.18057123,-0.17115065,0.98524487,0,0)"/>
 <ellipse id="ellipse907" style="opacity:0.2" cx="2.067" cy="45.045" rx="3.761" ry="5.03" transform="matrix(0.98380578,-0.17923777,0.17242769,0.98502218,0,0)"/>
 <ellipse style="fill:#e59c62" cx="2.239" cy="44.061" rx="3.761" ry="5.03" transform="matrix(0.98380579,-0.17923777,0.17242769,0.98502218,0,0)"/>
 <path style="fill:#f4ac6f" d="m 13.799892,20.7866 c 8.03644,-5.568938 17.011142,-16.0433766 35.767676,12.617144 -1.278478,9.744234 0.255946,8.702434 -1.783924,16.171272 -2.35012,6.973688 -10.998288,10.988616 -19.80032,10.360776 C 20.85611,59.427416 14.058882,57.602598 11.659182,49.486164 10.52272,45.737246 10.129867,41.269792 10.231668,36.60052 10.349766,31.183824 12.739085,25.939794 13.799892,20.7866 Z"/>
 <path style="opacity:0.2" d="m 39.246604,47.485221 c -1.032136,3.721044 -5.388194,6.51478 -10.605288,6.51478 -5.669934,0 -10.32287,-3.299776 -10.797316,-7.50347 0.0164,-0.16684 0.08312,-0.41485 0.293129,-0.41021 1.435838,0.03172 6.044103,-0.18672 10.392325,-0.02772 4.317072,0.15786 9.015262,-0.326948 10.498014,0.29624 0.320718,0.1348 0.214128,0.674308 0.219136,1.13038 z"/>
 <path style="fill:#8b9cbe" d="M 39.246604,46.48522 C 38.214468,50.206264 33.85841,53 28.641316,53 22.971382,53 18.318446,49.700224 17.844,45.49653 c 0.0164,-0.16684 0.08312,-0.41485 0.293129,-0.41021 1.435838,0.03172 6.044103,-0.18672 10.392325,-0.02772 4.317072,0.15786 9.015262,-0.326948 10.498014,0.29624 0.320718,0.1348 0.214128,0.674308 0.219136,1.13038 z"/>
 <g transform="matrix(-1.4808122,0,0,1.4808122,61.273808,-3.9051792)">
  <circle style="fill:#17191e" cx="15" cy="29" r="2"/>
  <path style="fill:#17191e" d="m 12.508677,26.039209 c 0.408595,0.627898 1.136592,1.284016 1.95396,1.185189 l -1.121124,0.640643 C 12.654239,27.358846 12.519087,26.71462 12.508677,26.039209 Z"/>
  <path style="fill:#17191e" d="m 11.547712,27.480655 c 0.408596,0.627899 1.8413,0.387116 2.658668,0.28829 l -0.544546,1.409414 C 12.97456,28.672164 11.558122,28.156066 11.547712,27.480655 Z"/>
  <path style="fill:#17191e" d="m 11.675841,28.60178 c 0.408595,0.627899 1.841299,0.387117 2.658668,0.28829 l -0.544546,1.409414 C 13.102689,29.793289 11.686251,29.277192 11.675841,28.60178 Z"/>
 </g>
 <path style="opacity:0.2" d="M 14.113437,11.124999 C 20.9935,6.0529523 25.860268,4.2231233 30.873658,5.2947245 c 6.680754,1.4279952 13.46393,6.3081235 14.404088,7.9189135 1.5489,2.653758 2.690914,11.976415 3.660836,13.758761 0.989262,1.817886 3.69373,3.785222 4.898438,3.866078 2.820418,0.1893 3.289454,-1.198116 4.16298,-0.87608 -2.590674,4.457796 -3.871062,10.09658 -12.773784,8.865206 -2.84705,-0.44904 -3.140836,-2.171574 -4.815306,-4.277858 -5.517014,-6.920414 -9.309724,-14.71032 -14.897262,-14.549744 -4.49968,0.129314 -6.865962,7.68301 -11.682876,7 -4.756238,-0.691164 -3.538478,-8.14605 -3.299183,-11.431146 0.457507,-2.46339 1.719898,-3.0691 3.581848,-4.443856 z"/>
 <path style="fill:#ffe678" d="M 14.113437,10.124998 C 20.9935,5.052951 25.860268,3.223122 30.873658,4.2947232 c 6.680754,1.4279952 13.46393,6.3081228 14.404088,7.9189128 1.5489,2.653759 2.690914,11.976416 3.660836,13.758762 0.989262,1.817886 3.69373,3.785222 4.898438,3.866078 2.820418,0.1893 3.289454,-1.198116 4.16298,-0.87608 -2.590674,4.457796 -3.871062,10.09658 -12.773784,8.865206 C 42.379166,37.378562 42.08538,35.656028 40.41091,33.549744 34.893896,26.62933 31.101186,18.839423 25.513648,19 c -4.49968,0.129314 -6.865962,7.68301 -11.682876,7 -4.756238,-0.691164 -3.538478,-8.146051 -3.299183,-11.431147 0.457507,-2.46339 1.719898,-3.0691 3.581848,-4.443855 z"/>
 <g transform="matrix(1.4808122,0,0,1.4808122,-3.0319933,-3.9051792)">
  <circle style="fill:#17191e" cx="15" cy="29" r="2"/>
  <path style="fill:#17191e" d="m 12.508677,26.039209 c 0.408595,0.627898 1.136592,1.284016 1.95396,1.185189 l -1.121124,0.640643 C 12.654239,27.358846 12.519087,26.71462 12.508677,26.039209 Z"/>
  <path style="fill:#17191e" d="m 11.547712,27.480655 c 0.408596,0.627899 1.8413,0.387116 2.658668,0.28829 l -0.544546,1.409414 C 12.97456,28.672164 11.558122,28.156066 11.547712,27.480655 Z"/>
  <path style="fill:#17191e" d="m 11.675841,28.60178 c 0.408595,0.627899 1.841299,0.387117 2.658668,0.28829 l -0.544546,1.409414 C 13.102689,29.793289 11.686251,29.277192 11.675841,28.60178 Z"/>
 </g>
 <circle style="fill:#8b9cbe" cx="19.5" cy="39" r="1"/>
 <circle style="fill:#8b9cbe" cx="38.5" cy="39" r="1"/>
 <path style="opacity:0.2;fill:#8b9cbe" d="M 28.171875 4.0019531 C 24.045349 3.9870851 19.757083 5.9643368 14.113281 10.125 C 12.251331 11.499756 10.988757 12.106923 10.53125 14.570312 C 10.439426 15.830885 10.236749 17.699152 10.253906 19.568359 C 10.299068 18.051079 10.455903 16.604695 10.53125 15.570312 C 10.988757 13.106923 12.251331 12.499756 14.113281 11.125 C 20.133336 6.6869595 24.61192 4.732946 28.996094 5.03125 C 29.622404 5.0738648 30.248326 5.1590185 30.875 5.2929688 C 37.555754 6.7209639 44.337186 11.604054 45.277344 13.214844 C 46.826244 15.868603 47.967578 25.19031 48.9375 26.972656 C 49.926762 28.790542 52.63123 30.758988 53.835938 30.839844 C 56.049135 30.988388 56.813577 30.174869 57.462891 29.96875 C 57.641613 29.632301 57.810374 29.287229 58 28.960938 C 57.126474 28.638901 56.656356 30.029144 53.835938 29.839844 C 52.63123 29.758988 49.926762 27.790542 48.9375 25.972656 C 47.967578 24.19031 46.826244 14.868603 45.277344 12.214844 C 44.337186 10.604054 37.555754 5.720964 30.875 4.2929688 C 30.248326 4.1590185 29.622404 4.0738648 28.996094 4.03125 C 28.722083 4.012606 28.446977 4.0029443 28.171875 4.0019531 z"/>
</svg>
