<svg xmlns="http://www.w3.org/2000/svg" width="64" height="64" version="1">
 <path style="opacity:0.2" d="m 10,56 0,2 c 0,1.662 1.338,3 3,3 l 38,0 c 1.662,0 3,-1.338 3,-3 l 0,-2 c 0,1.662 -1.338,3 -3,3 l -38,0 c -1.662,0 -3,-1.338 -3,-3 z"/>
 <path style="fill:#b2bfd9" d="M 54,57 54,7 C 54,5.338 52.662,4 51,4 L 13,4 c -1.662,0 -3,1.338 -3,3 l 0,50 c 0,1.662 1.338,3 3,3 l 38,0 c 1.662,0 3,-1.338 3,-3 z"/>
 <path style="opacity:0.1;fill:#8b9cbe" d="M 13 4 C 11.338 4 10 5.338 10 7 L 10 8 C 10 6.338 11.338 5 13 5 L 51 5 C 52.662 5 54 6.338 54 8 L 54 7 C 54 5.338 52.662 4 51 4 L 13 4 z"/>
 <g style="fill:#4c4c4c" transform="scale(2,2)">
  <path d="M 9,8 23,8 23,9 9,9 Z"/>
  <path d="m 9,11 14,0 0,1 -14,0 z"/>
  <path d="m 9,14 14,0 0,1 -14,0 z"/>
  <path d="m 9,17 14,0 0,1 -14,0 z"/>
  <path d="m 9,20 14,0 0,1 -14,0 z"/>
  <path d="m 9,23 14,0 0,1 -14,0 z"/>
 </g>
</svg>
