<svg xmlns="http://www.w3.org/2000/svg" width="64" height="64" version="1">
 <path style="opacity:.2" d="m30.6 5.0000019c-3.1024 0-5.6 2.4976-5.6 5.6000001v2.625a21 21 0 0 0-6.622656 3.825391l-2.275-1.3125c-2.686757-1.5512-6.099581-0.635977-7.6507812 2.050781l-1.4 2.422656c-1.5512 2.686758-0.6359759 6.099581 2.0507812 7.650781l2.264063 1.307032a21 21 0 0 0-0.366407 3.830859 21 21 0 0 0 0.366407 3.830859l-2.264063 1.307032c-2.6867571 1.5512-3.6019812 4.964023-2.0507812 7.650781l1.4 2.422656c1.5512002 2.686758 4.9640242 3.601981 7.6507812 2.050781l2.258593-1.304296a21 21 0 0 0 13.639063 5.042187 21 21 0 0 0 13.622657-5.050391l2.275 1.3125c2.686757 1.5512 6.09958 0.635977 7.65078-2.050781l1.4-2.422656c1.5512-2.686758 0.635977-6.099581-2.05078-7.650781l-2.264063-1.307032a21 21 0 0 0 0.366406-3.830859 21 21 0 0 0-0.366406-3.830859l2.264063-1.307032c2.686757-1.5512 3.60198-4.964023 2.05078-7.650781l-1.4-2.422656c-1.5512-2.686758-4.964023-3.601981-7.65078-2.050781l-2.258594 1.304296a21 21 0 0 0-6.639063-3.814453v-2.627734c0-3.1024001-2.4976-5.6000001-5.6-5.6000001z"/>
 <rect style="opacity:.2" width="14" height="22.4" x="25" y="38.6" rx="5.6" ry="5.6"/>
 <path style="fill:#008374" d="m30.6 4c-3.1024 0-5.6 2.4976-5.6 5.6v2.625a21 21 0 0 0-6.622656 3.825391l-2.275-1.3125c-2.686757-1.5512-6.099581-0.635977-7.6507812 2.050781l-1.4 2.422656c-1.5512 2.686758-0.6359759 6.099581 2.0507812 7.650781l2.264063 1.307032a21 21 0 0 0-0.366407 3.830859 21 21 0 0 0 0.366407 3.830859l-2.264063 1.307032c-2.6867571 1.5512-3.6019812 4.964023-2.0507812 7.650781l1.4 2.422656c1.5512002 2.686758 4.9640242 3.601981 7.6507812 2.050781l2.258593-1.304296a21 21 0 0 0 13.639063 5.042187 21 21 0 0 0 13.622657-5.050391l2.275 1.3125c2.686757 1.5512 6.09958 0.635977 7.65078-2.050781l1.4-2.422656c1.5512-2.686758 0.635977-6.099581-2.05078-7.650781l-2.264063-1.307032a21 21 0 0 0 0.366406-3.830859 21 21 0 0 0-0.366406-3.830859l2.264063-1.307032c2.686757-1.5512 3.60198-4.964023 2.05078-7.650781l-1.4-2.422656c-1.5512-2.686758-4.964023-3.601981-7.65078-2.050781l-2.258594 1.304296a21 21 0 0 0-6.639063-3.814453v-2.627734c0-3.1024-2.4976-5.6-5.6-5.6z"/>
 <rect style="fill:#b2bfd9" width="14" height="22.4" x="25" y="37.6" rx="5.6" ry="5.6"/>
 <rect style="opacity:.4" width="6" height="16.8" x="29" y="40.2" rx="3" ry="2.8"/>
 <path style="opacity:.2" d="m38 20.36719v9.632812l-6 4-6-4v-9.619141c-4.864353 2.309266-7.993068 7.20808-8 12.619141 0 7.731985 6.268014 14 14 14s14-6.268015 14-14c-0.002725-5.415462-3.131436-10.322092-8-12.632812z"/>
 <path style="fill:#8b9cbe" d="m38 19.367188v9.632812l-6 4-6-4v-9.619141c-4.864353 2.309266-7.993068 7.20808-8 12.619141 0 7.731985 6.268014 14 14 14s14-6.268015 14-14c-0.002725-5.415462-3.131436-10.322092-8-12.632812z"/>
 <path style="fill:#8b9cbe;opacity:.1" d="m30.599609 4c-3.1024 0-5.599609 2.4972094-5.599609 5.5996094v0.9999996c0-3.1023996 2.497209-5.599609 5.599609-5.599609h2.800782c3.1024 0 5.599609 2.4972094 5.599609 5.599609v-0.9999996c0-3.1024-2.497209-5.5996094-5.599609-5.5996094h-2.800782zm-5.599609 8.224609a21 21 0 0 0-6.623047 3.826172l-2.275391-1.3125c-2.686757-1.5512-6.09919-0.635976-7.6503901 2.050781l-1.4003907 2.421876c-0.6033566 1.045044-0.8286088 2.200037-0.7265624 3.3125 0.0697355-0.789767 0.3027074-1.578362 0.7265624-2.3125l1.4003907-2.421876c1.5512001-2.686757 4.9636331-3.601981 7.6503901-2.050781l2.275391 1.3125a21 21 0 0 1 6.623047-3.826172v-1zm14 0.003907v1a21 21 0 0 1 6.638672 3.814453l2.259766-1.304688c2.686757-1.5512 6.09919-0.635977 7.65039 2.050781l1.400391 2.421876c0.423855 0.734138 0.656827 1.522733 0.726562 2.3125 0.102046-1.112463-0.123206-2.267456-0.726562-3.3125l-1.400391-2.421876c-1.5512-2.686758-4.963633-3.601981-7.65039-2.050781l-2.259766 1.304688a21 21 0 0 0-6.638672-3.814453zm13.767578 16.863281-0.134766 0.078125a21 21 0 0 1 0.341797 3.371094 21 21 0 0 0 0.025391-0.541016 21 21 0 0 0-0.232422-2.908203zm-41.529297 0.003906a21 21 0 0 0-0.238281 2.904297 21 21 0 0 0 0.025391 0.458984 21 21 0 0 1 0.341797-3.289062l-0.128907-0.074219zm41.523438 6.808594a21 21 0 0 1-0.128907 0.925781l2.265626 1.308594c1.641712 0.947843 2.617034 2.590267 2.777343 4.33789 0.185479-2.100574-0.824725-4.210545-2.777343-5.33789l-2.136719-1.234375zm-41.529297 0.003906-2.1308595 1.230469c-1.9526187 1.127345-2.9628223 3.237316-2.7773437 5.33789 0.1603097-1.747623 1.1356309-3.390047 2.7773437-4.33789l2.2656255-1.308594a21 21 0 0 1-0.134766-0.921875z"/>
</svg>
