<svg xmlns="http://www.w3.org/2000/svg" width="64" height="64" version="1">
 <rect style="opacity:0.2" width="56" height="56" x="4" y="5" rx="2.8" ry="2.8"/>
 <rect style="fill:#546e7a" width="56" height="56" x="4" y="4" rx="2.8" ry="2.8"/>
 <path style="opacity:0.2" d="M 28,17 V 29 H 22 L 32,40 42,29 H 36 V 17 Z M 14,37 v 12 h 6 24 6 V 37 h -6 v 6 H 20 v -6 z"/>
 <path style="fill:#8b9cbe" d="M 28,16 V 28 H 22 L 32,39 42,28 H 36 V 16 Z M 14,36 v 12 h 6 24 6 V 36 h -6 v 6 H 20 v -6 z"/>
 <path style="opacity:0.1;fill:#8b9cbe" d="M 6.8007812 4 C 5.2495812 4 4 5.2495812 4 6.8007812 L 4 7.8007812 C 4 6.2495813 5.2495812 5 6.8007812 5 L 57.199219 5 C 58.750419 5 60 6.2495812 60 7.8007812 L 60 6.8007812 C 60 5.2495813 58.750419 4 57.199219 4 L 6.8007812 4 z"/>
</svg>
