<svg xmlns="http://www.w3.org/2000/svg" width="64" height="64" version="1">
 <path style="opacity:0.2" d="m 31.999148,4.0000721 c -1.519115,1e-7 -3.039243,0.5662191 -4.17482,1.7017672 L 4.7017413,28.827004 c -2.2711519,2.271094 -2.26793,6.071792 0.00331,8.342888 L 27.827642,60.295056 c 2.271152,2.271097 6.075237,2.274318 8.34639,0.0033 L 59.296638,37.173227 c 2.27115,-2.271096 2.271151,-6.075048 0,-8.346143 L 36.17397,5.7018774 C 35.038395,4.5663293 33.518264,4.0001097 31.999148,4.0001101 Z"/>
 <path style="fill:#b2bfd9" d="m 31.999148,3.0000351 c -1.519115,1e-7 -3.039243,0.5662191 -4.17482,1.7017672 L 4.7017413,27.826967 c -2.2711519,2.271094 -2.26793,6.071792 0.00331,8.342888 L 27.827642,59.295019 c 2.271152,2.271097 6.075237,2.274318 8.34639,0.0033 L 59.296638,36.17319 c 2.27115,-2.271096 2.271151,-6.075048 0,-8.346143 L 36.17397,4.7018404 C 35.038395,3.5662923 33.518264,3.0000727 31.999148,3.0000731 Z"/>
 <path style="opacity:0.1" d="m 31.859375,7.6871521 a 2.0002,2.0002 0 0 0 -1.375,0.6054688 l -8.789063,8.7890621 a 2.0002,2.0002 0 0 0 0,2.828125 l 5.859376,5.859375 a 2.0002,2.0002 0 0 0 2.828124,0 l 7.375,-7.375 3.029297,3.03125 -3.955078,3.955078 a 2.0002,2.0002 0 1 0 2.828125,2.828125 l 5.371094,-5.36914 a 2.0002,2.0002 0 0 0 0,-2.828125 l -5.859375,-5.859375 a 2.0002,2.0002 0 0 0 -2.828125,0 l -7.375,7.373047 -3.029297,-3.029297 7.373047,-7.375 A 2.0002,2.0002 0 0 0 31.859375,7.6871521 Z M 17.710938,21.86684 a 2.0002,2.0002 0 0 0 -1.384766,0.583984 l -8.7890626,8.789062 a 2.0002,2.0002 0 1 0 2.8281246,2.828125 l 7.375,-7.373047 3.029297,3.029297 -7.373047,7.375 a 2.0002,2.0002 0 0 0 0,2.828125 l 5.859375,5.859375 a 2.0002,2.0002 0 1 0 2.828125,-2.828125 l -4.445312,-4.445312 7.375,-7.375 a 2.0002,2.0002 0 0 0 0,-2.828125 L 19.154297,22.450824 A 2.0002,2.0002 0 0 0 17.710938,21.86684 Z m 29.867187,1.732421 c -0.741104,-0.03511 -1.466843,0.21489 -2.007813,0.75586 L 40.6875,29.23598 50.939453,39.489886 c 0.169746,0.169745 0.303436,0.359498 0.419922,0.556641 l 4.951172,-4.951172 c 1.081941,-1.081939 0.994821,-2.909475 -0.195313,-4.099609 L 49.669922,24.54848 c -0.595067,-0.595067 -1.350693,-0.914109 -2.091797,-0.949219 z m -13.246094,5.082032 a 2.0002,2.0002 0 0 0 -1.384765,0.583984 l -8.789063,8.789063 a 2.0002,2.0002 0 1 0 2.828125,2.828124 l 7.375,-7.373046 3.029297,3.029296 -7.373047,7.375 a 2.0002,2.0002 0 0 0 -0.0059,2.822266 l 5.83789,5.88086 a 2.0002,2.0002 0 0 0 2.833985,0.0039 l 8.789062,-8.78711 a 2.000477,2.000477 0 1 0 -2.830078,-2.828125 l -7.36914,7.369141 -3.019532,-3.041016 7.38086,-7.380859 a 2.0002,2.0002 0 0 0 0,-2.828125 l -5.859375,-5.859375 a 2.0002,2.0002 0 0 0 -1.44336,-0.583984 z M 25.0625,44.86098 23.111328,46.814105 c -1.081938,1.08194 -0.996774,2.909477 0.19336,4.099609 l 6.447265,6.445313 c 1.190134,1.190133 3.017671,1.277252 4.099609,0.195313 l 2.021485,-2.021485 c -0.197143,-0.116483 -0.386895,-0.250176 -0.556641,-0.419922 z"/>
 <path style="fill:none;stroke:#5092ff;stroke-width:4;stroke-linecap:round;stroke-linejoin:round" d="m 8.9514627,31.654614 8.7883173,-8.788317 5.858877,5.858878 -8.788317,8.788317 5.858878,5.858877"/>
 <path style="fill:none;stroke:#4b70e1;stroke-width:4;stroke-linecap:round;stroke-linejoin:round" d="m 31.898734,8.7073428 -8.788317,8.7883172 5.858879,5.858877 8.788316,-8.788317 5.858877,5.858878 -5.370638,5.370638"/>
 <path style="fill:none;stroke:#744dec;stroke-width:4;stroke-linecap:round;stroke-linejoin:round" d="m 25.572477,38.46911 8.788318,-8.788317 5.858877,5.858878 -8.788317,8.788317 5.838016,5.879739 8.788317,-8.788317"/>
 <path style="fill:#283d8a" d="m 23.110417,45.813568 c -1.081938,1.08194 -0.9956,2.910319 0.194534,4.100452 l 6.44629,6.446291 c 1.190134,1.190133 3.018512,1.276472 4.100451,0.194533 L 35.87331,54.533226 C 35.676167,54.416743 35.486159,54.283391 35.316413,54.113645 L 25.063376,43.860609 Z M 40.68705,28.236935 50.940086,38.489972 c 0.169746,0.169745 0.303098,0.359753 0.419584,0.556896 l 4.951053,-4.951055 c 1.081941,-1.081939 0.995601,-2.910318 -0.194533,-4.100452 l -6.44629,-6.44629 c -1.190134,-1.190134 -3.018513,-1.276473 -4.100452,-0.194534 z"/>
 <path style="fill:#8b9cbe;opacity:0.2" d="M 32 3 C 30.480885 3.0000001 28.959796 3.5656238 27.824219 4.7011719 L 4.7011719 27.826172 C 3.445109 29.082203 2.8892708 30.806225 3.0234375 32.480469 C 3.1372781 31.139707 3.6948639 29.832454 4.7011719 28.826172 L 27.824219 5.7011719 C 28.959796 4.5656238 30.480885 4.0000001 32 4 C 33.519116 3.9999996 35.038253 4.5656238 36.173828 5.7011719 L 59.296875 28.826172 C 60.307584 29.836856 60.865426 31.152364 60.976562 32.5 C 61.11516 30.819379 60.557317 29.086583 59.296875 27.826172 L 36.173828 4.7011719 C 35.038253 3.5656238 33.519116 2.9999996 32 3 z"/>
</svg>
