<svg xmlns="http://www.w3.org/2000/svg" width="64" height="64" version="1">
 <rect style="opacity:.2" width="40" height="40" x="-45" y="-44" rx="5.714" ry="5.714" transform="matrix(0,-1,-1,0,0,0)"/>
 <rect style="fill:#db7da0" width="40" height="40" x="-44" y="-44" rx="5.714" ry="5.714" transform="matrix(0,-1,-1,0,0,0)"/>
 <rect style="opacity:.2" width="40" height="40" x="-53" y="-52" rx="5.714" ry="5.714" transform="matrix(0,-1,-1,0,0,0)"/>
 <rect style="fill:#a6eb7d" width="40" height="40" x="-52" y="-52" rx="5.714" ry="5.714" transform="matrix(0,-1,-1,0,0,0)"/>
 <rect style="opacity:.2" width="40" height="40" x="-61" y="-60" rx="5.714" ry="5.714" transform="matrix(0,-1,-1,0,0,0)"/>
 <rect style="fill:#5fa6fa" width="40" height="40" x="-59.85" y="-60" rx="5.714" ry="5.714" transform="matrix(0,-1,-1,0,0,0)"/>
 <path style="opacity:.1;fill:#8b9cbe" d="m9.7148438 4c-3.1657143 0-5.7148438 2.5491295-5.7148438 5.7148438v1.0000002c0-3.1657146 2.5491295-5.714844 5.7148438-5.714844h28.5703122c3.165714 0 5.714844 2.5491293 5.714844 5.714844v-1.0000002c0-3.1657143-2.54913-5.7148438-5.714844-5.7148438h-28.5703122z"/>
 <path style="opacity:.1;fill:#8b9cbe" d="m17.714844 12c-3.165714 0-5.714844 2.54913-5.714844 5.714844v1c0-3.165714 2.54913-5.714844 5.714844-5.714844h28.570312c3.165714 0 5.714844 2.54913 5.714844 5.714844v-1c0-3.165714-2.54913-5.714844-5.714844-5.714844h-28.570312z"/>
 <path style="opacity:.1;fill:#8b9cbe" d="m25.714844 20c-3.165714 0-5.714844 2.54913-5.714844 5.714844v1c0-3.165714 2.54913-5.714844 5.714844-5.714844h28.570312c3.165714 0 5.714844 2.54913 5.714844 5.714844v-1c0-3.165714-2.54913-5.714844-5.714844-5.714844h-28.570312z"/>
 <path style="opacity:0.1;stroke-linejoin:bevel;stroke:#000000;stroke-linecap:round;stroke-width:3;fill:none" d="m36.52835 49.484959s8.087564 0.700498 8-8.000006c-0.08756-8.700524-8-7.999996-8-7.999996m-0.0282 15.987174v-16.000002"/>
 <path style="stroke-linejoin:bevel;stroke:#17191e;stroke-linecap:round;stroke-width:3;fill:none" d="m36.52835 48.484959s8.087564 0.700498 8-8.000006c-0.08756-8.700524-8-7.999996-8-7.999996m-0.0282 15.987174v-16.000002"/>
 <path style="opacity:0.1;stroke-linejoin:bevel;stroke:#000000;stroke-linecap:round;stroke-width:3;fill:none" d="m48.521364 41.478434h7.999998m-7.999998-7.999996h7.999998m-7.9998 16.000198v-16.000002"/>
 <path style="stroke-linejoin:bevel;stroke:#17191e;stroke-linecap:round;stroke-width:3;fill:none" d="m48.521364 40.478434h7.999998m-7.999998-7.999996h7.999998m-7.9998 16.000198v-16.000002"/>
 <path style="opacity:0.1;stroke-linejoin:bevel;stroke:#000000;stroke-linecap:round;stroke-width:3;fill:none" d="m24.521222 41.478436s8.000014 0.929 8.000014-4.000004c0-4.928994-8.000014-3.999994-8.000014-3.999994m0.000196 16.000198v-16.000002"/>
 <path style="stroke-linejoin:bevel;stroke:#17191e;stroke-linecap:round;stroke-width:3;fill:none" d="m24.521222 40.478436s8.000014 0.929 8.000014-4.000004c0-4.928994-8.000014-3.999994-8.000014-3.999994m0.000196 16.000198v-16.000002"/>
</svg>
