<svg xmlns="http://www.w3.org/2000/svg" width="64" height="64" version="1">
 <rect style="opacity:0.2" width="46" height="40" x="-51" y="-56" rx="2" ry="2.106" transform="matrix(0,-1,-1,0,0,0)"/>
 <rect style="fill:#b0322c" width="46" height="40" x="-49" y="-56" rx="2" ry="2.106" transform="matrix(0,-1,-1,0,0,0)"/>
 <path style="opacity:0.2" d="m 8.0006003,56.000092 0,1.999977 c 0,1.107987 0.9391891,1.999977 2.1053757,1.999977 l 35.787587,0 c 1.165986,0 2.105975,-0.89199 2.105975,-1.999977 l 0,-1.999977 c 0,1.107987 -0.939989,1.999977 -2.105975,1.999977 l -35.787587,0 c -1.1667865,0 -2.1059757,-0.89199 -2.1059757,-1.999977 z"/>
 <rect style="fill:#c03630" width="46" height="40" x="-59" y="-48" rx="2" ry="2.106" transform="matrix(0,-1,-1,0,0,0)"/>
 <path style="opacity:0.2;fill:#8b9cbe;stroke:#000000;stroke-width:1.000682" d="m 26.53651,25.234185 c -0.553437,0 -1.07098,0.27135 -1.196182,0.719167 -0.464953,1.716871 0.05539,4.372 0.923343,7.680395 l -0.261822,0.640487 c -0.664541,1.62259 -1.495179,3.238489 -2.225671,4.672655 -3.015555,5.910924 -5.36161,9.099739 -6.925979,9.322074 l -0.006,-0.0649 c -0.0338,-0.737272 1.324365,-2.637983 3.165533,-4.149464 0.191972,-0.155634 1.011511,-0.949673 1.011511,-0.949673 0,0 -1.106117,0.584883 -1.35466,0.73571 -2.30706,1.379363 -3.454891,2.76137 -3.642262,3.678755 -0.05559,0.272471 -0.02,0.607757 0.220447,0.745424 l 0.589852,0.296769 c 1.605784,0.805157 3.580473,-1.311961 6.205486,-5.920338 2.671206,-0.877746 6.004314,-1.704173 9.038867,-2.15205 2.716399,1.554687 5.83234,2.294866 7.029563,1.975302 0.227826,-0.06029 0.467471,-0.23944 0.589853,-0.404449 0.09599,-0.15183 0.230146,-0.759187 0.230146,-0.759187 0,0 -0.225227,0.307024 -0.4107,0.39754 -0.757707,0.358261 -3.149935,-0.239461 -5.604572,-1.442477 2.122486,-0.226303 3.890626,-0.235016 4.835686,0.0675 1.200123,0.383719 1.201183,0.777053 1.185165,0.857195 0.016,-0.0659 0.06979,-0.329518 0.06319,-0.441707 -0.0272,-0.288497 -0.115983,-0.546125 -0.33349,-0.759207 -0.444255,-0.438422 -1.541194,-0.659355 -3.035953,-0.679145 -1.126634,-0.01202 -2.477635,0.08653 -3.944019,0.296767 -0.67204,-0.386542 -1.381196,-0.811484 -1.943133,-1.337558 -1.42503,-1.333133 -2.619414,-3.184008 -3.361105,-5.259141 0.05059,-0.1989 0.09919,-0.393313 0.14338,-0.58943 0.206168,-0.928662 0.354168,-3.998838 0.354168,-3.998838 0,0 -0.587134,2.306484 -0.67938,2.654409 -0.05919,0.220632 -0.132981,0.456107 -0.217729,0.701239 -0.449934,-1.583932 -0.677999,-3.11891 -0.677999,-4.283268 0,-0.329057 0.0282,-0.969344 0.121182,-1.475648 0.0452,-0.361085 0.175973,-0.548588 0.311494,-0.639085 0.268241,0.0653 0.568515,0.477201 0.88197,1.166401 0.26918,0.59586 0.252163,1.285942 0.252163,1.713047 0,0 0.288697,-1.057598 0.221887,-1.68266 -0.0408,-0.375268 -0.397102,-1.340625 -1.154829,-1.329308 l -0.06199,0 -0.337631,-0.004 z m 0.257682,9.589478 c 0.784125,1.579205 1.865526,3.078849 3.284116,4.281865 0.316234,0.267765 0.652705,0.522489 0.999074,0.761971 -2.57622,0.479905 -5.281622,1.154963 -7.795851,2.209937 0.454613,-0.808942 0.94618,-1.690293 1.449746,-2.640588 0.975136,-1.846969 1.56603,-3.271539 2.062895,-4.613165 z"/>
 <path style="opacity:0.2;fill:#8b9cbe" d="M 10.105469,13 C 8.9392822,13 8,13.891433 8,14.998699 L 8,16 c 0,-1.107266 0.9392822,-1.998699 2.105469,-1.998699 l 35.787109,0 C 47.060564,14.001301 48,14.892734 48,16 l 0,-1.001301 C 48,13.891433 47.060564,13 45.892578,13 l -35.787109,0 z"/>
 <path style="opacity:0.2;fill:#8b9cbe" d="M 18.105469,3 C 16.939282,3 16,3.8914324 16,4.9986988 L 16,6 c 0,-1.1072663 0.939282,-1.9986988 2.105469,-1.9986988 l 35.787109,0 C 55.060565,4.0013012 56,4.8927337 56,6 L 56,4.9986988 C 56,3.8914324 55.060565,3 53.892578,3 L 18.105469,3 Z"/>
 <path style="fill:#8b9cbe;stroke:#8b9cbe;stroke-width:0.99993712" d="m 26.536465,24.308203 c -0.553455,0 -1.071014,0.233178 -1.19622,0.680314 -0.464967,1.714263 0.05539,4.365358 0.923372,7.668727 l -0.26183,0.639514 c -0.664562,1.620125 -1.495225,3.233569 -2.22574,4.665556 -3.015649,5.901944 -5.361777,9.085914 -6.926195,9.307911 l -0.006,-0.0648 c -0.0338,-0.736152 1.324406,-2.633974 3.165632,-4.14316 0.191977,-0.155399 1.011542,-0.948231 1.011542,-0.948231 0,0 -1.106151,0.583994 -1.354702,0.734592 -2.307132,1.377268 -3.454999,2.757175 -3.642376,3.673166 -0.05559,0.272057 -0.02,0.606834 0.220454,0.744292 l 0.589871,0.296318 c 1.605834,0.803933 3.580584,-1.309968 6.205679,-5.911344 2.671289,-0.876412 6.004501,-1.701584 9.039148,-2.14878 2.716484,1.552325 5.832522,2.291379 7.029782,1.972301 0.227833,-0.0602 0.467486,-0.239077 0.589871,-0.403836 0.09599,-0.151598 0.230154,-0.758032 0.230154,-0.758032 0,0 -0.225234,0.306556 -0.410713,0.396936 -0.757731,0.357716 -3.150033,-0.239098 -5.604747,-1.440286 2.122552,-0.225959 3.890747,-0.234658 4.835837,0.0674 1.20016,0.383137 1.20122,0.775872 1.185202,0.855892 0.016,-0.0658 0.06979,-0.329017 0.06319,-0.441036 -0.0272,-0.288057 -0.115987,-0.545294 -0.333501,-0.758053 -0.444268,-0.437756 -1.541242,-0.658353 -3.036047,-0.678113 -1.126669,-0.012 -2.477712,0.0864 -3.944142,0.296316 -0.672061,-0.385956 -1.381239,-0.810251 -1.943193,-1.335527 -1.425075,-1.331107 -2.619496,-3.179169 -3.36121,-5.251151 0.05059,-0.198597 0.09919,-0.392715 0.143384,-0.588534 0.206175,-0.927251 0.339562,-4.093976 0.339562,-4.093976 0,0 -0.572535,2.404193 -0.664784,2.751589 -0.05919,0.220298 -0.132985,0.455416 -0.217735,0.700174 -0.449948,-1.581525 -0.678021,-3.114171 -0.678021,-4.27676 0,-0.328557 0.0282,-0.967871 0.121186,-1.473406 0.0452,-0.360537 0.175979,-0.547755 0.311504,-0.638114 0.268249,0.0652 0.568533,0.476476 0.881997,1.164629 0.269189,0.594954 0.251376,1.283988 0.251376,1.710444 0,0 0.289501,-1.055991 0.222689,-1.680104 -0.0408,-0.374697 -0.397114,-1.304128 -1.154865,-1.292828 -0.133219,9.5e-5 -0.239083,0.0013 -0.372293,0 z m 0.25769,9.537149 c 0.784149,1.576806 1.865584,3.074172 3.284218,4.27536 0.316244,0.267358 0.652725,0.521695 0.999105,0.760813 -2.5763,0.479176 -5.281786,1.153209 -7.796094,2.206579 0.454628,-0.807712 0.94621,-1.687724 1.449792,-2.636575 0.975166,-1.844162 1.566078,-3.266569 2.062959,-4.606157 z"/>
 <path style="opacity:0.2;fill-rule:evenodd" d="M 59.958,46.848198 A 15.999815,15.999815 0 0 1 44.000184,62.000023 15.999815,15.999815 0 0 1 28.042369,47.152194 a 15.999815,15.999815 0 0 0 -0.042,0.84799 A 15.999815,15.999815 0 0 0 44.000184,64 15.999815,15.999815 0 0 0 60,48.000184 15.999815,15.999815 0 0 0 59.958,46.848198 Z"/>
 <circle style="fill:#30a7c0" cx="44" cy="47" r="16"/>
 <path style="fill:#8b9cbe" d="m 36.000277,51.436155 0,3.563959 3.563759,0 9.000696,-9.000696 -3.563759,-3.563759 z m 15.717018,-8.578101 c 0.376956,-0.376935 0.376956,-0.970888 0,-1.347844 l -2.227374,-2.227374 c -0.376956,-0.376956 -0.970909,-0.376956 -1.347844,0 l -1.861979,1.873978 3.563959,3.563959 z"/>
</svg>
