<svg xmlns="http://www.w3.org/2000/svg" width="64" height="64" version="1.1">
 <rect style="opacity:0.2" width="56" height="56" x="4" y="5" rx="4.2" ry="4.2"/>
 <rect style="fill:#0b4d9c" width="56" height="56" x="4" y="4" rx="4.2" ry="4.2"/>
 <path style="opacity:0.2" d="M 30.636719,17 C 23.082174,17 17,23.132499 17,30.75 v 5.5 C 17,43.867501 23.082174,50 30.636719,50 h 2.726562 c 2.106799,0 4.091347,-0.490664 5.869141,-1.34375 L 45.339844,55 50.199219,50.689453 44.257812,44.513672 C 45.972977,42.214525 47,39.361261 47,36.25 v -5.5 C 47,23.132499 40.917826,17 33.363281,17 Z m 0.636719,6 h 1.453124 C 36.755654,23 40,26.902497 40,31.75 v 3.5 C 40,40.097499 36.755654,44 32.726562,44 H 31.273438 C 27.244345,44 24,40.097499 24,35.25 v -3.5 C 24,26.902497 27.244345,23 31.273438,23 Z"/>
 <path style="fill:#8b9cbe" d="M 30.636719 16 C 23.082174 16 17 22.132499 17 29.75 L 17 35.25 C 17 42.867501 23.082174 49 30.636719 49 L 33.363281 49 C 40.917826 49 47 42.867501 47 35.25 L 47 29.75 C 47 22.132499 40.917826 16 33.363281 16 L 30.636719 16 z M 31.273438 22 L 32.726562 22 C 36.755654 22 40 25.902497 40 30.75 L 40 34.25 C 40 39.097499 36.755654 43 32.726562 43 L 31.273438 43 C 27.244345 43 24 39.097499 24 34.25 L 24 30.75 C 24 25.902497 27.244345 22 31.273438 22 z"/>
 <path style="fill:#8b9cbe" d="M 36.199999,44.503096 37.914983,46.285568 45.339845,54 50.199998,49.688687 42.775135,41.974255 40.874304,40.000001 Z"/>
 <path style="opacity:0.1" d="m 4.000001,9 v 13 h 22.222222 c 1.538889,0 2.777778,-1.288445 2.777778,-2.888889 V 11.888889 C 29.000001,10.288444 27.761112,9 26.222223,9 Z"/>
 <path style="fill:#e46200" d="m 4.000001,8 v 13 h 22.222222 c 1.538889,0 2.777778,-1.288445 2.777778,-2.888889 V 10.888889 C 29.000001,9.2884444 27.761112,8 26.222223,8 Z"/>
 <path style="opacity:0.1" d="m 7,12 v 7 h 1 v -2.96875 h 1.375 c 0.625043,0 1.127795,-0.09689 1.509766,-0.292969 C 11.638312,15.362032 11.971063,14.688517 12,14.175781 12,13.482968 11.789743,12.947444 11.373047,12.568359 10.956351,12.189274 10.321023,12 9.4667969,12 Z m 7,0 v 7 h 1.998047 c 0.920699,0 1.651688,-0.307496 2.191406,-0.921875 C 18.729174,17.463745 19,16.583244 19,15.439453 19,14.302199 18.736004,13.448211 18.208984,12.873047 17.688312,12.291348 16.986117,12 16.103516,12 Z m 7,0 v 7 h 1 v -3 h 3 v -1 h -3 v -2 h 4 V 12 Z M 8,13 H 9.4101562 C 10.439135,13.07123 11.018051,13.082936 11,14.064453 10.983999,14.934675 9.7375384,14.905566 9.1171875,15 H 8 Z m 7,0 h 0.90625 c 0.697678,0 1.219521,0.19608 1.568359,0.587891 C 17.823449,13.972579 18,14.594357 18,15.449219 18,16.311201 17.817028,16.948833 17.451172,17.369141 17.093825,17.789446 16.528158,18 15.753906,18 H 15 Z"/>
 <path style="fill:#8b9cbe" d="M 7 11 L 7 18 L 8 18 L 8 15.03125 L 9.375 15.03125 C 10.000043 15.03125 10.502795 14.93436 10.884766 14.738281 C 11.638312 14.362032 11.971063 13.688517 12 13.175781 C 12 12.482968 11.789743 11.947444 11.373047 11.568359 C 10.956351 11.189274 10.321023 11 9.4667969 11 L 7 11 z M 14 11 L 14 18 L 15.998047 18 C 16.918746 18 17.649735 17.692504 18.189453 17.078125 C 18.729174 16.463745 19 15.583244 19 14.439453 C 19 13.302199 18.736004 12.448211 18.208984 11.873047 C 17.688312 11.291348 16.986117 11 16.103516 11 L 14 11 z M 21 11 L 21 18 L 22 18 L 22 15 L 25 15 L 25 14 L 22 14 L 22 12 L 26 12 L 26 11 L 21 11 z M 8 12 L 9.4101562 12 C 10.439135 12.07123 11.018051 12.082936 11 13.064453 C 10.983999 13.934675 9.7375384 13.905566 9.1171875 14 L 8 14 L 8 12 z M 15 12 L 15.90625 12 C 16.603928 12 17.125771 12.19608 17.474609 12.587891 C 17.823449 12.972579 18 13.594357 18 14.449219 C 18 15.311201 17.817028 15.948833 17.451172 16.369141 C 17.093825 16.789446 16.528158 17 15.753906 17 L 15 17 L 15 12 z"/>
 <path style="fill:#8b9cbe;opacity:0.1" d="M 8.1992188 4 C 5.8724189 4 4 5.8724189 4 8.1992188 L 4 9.1992188 C 4 6.8724189 5.8724189 5 8.1992188 5 L 55.800781 5 C 58.127581 5 60 6.8724189 60 9.1992188 L 60 8.1992188 C 60 5.8724189 58.127581 4 55.800781 4 L 8.1992188 4 z"/>
</svg>
