<svg xmlns="http://www.w3.org/2000/svg" width="64" height="64" version="1.1">
 <circle style="opacity:0.2" cx="32" cy="33" r="28"/>
 <circle style="fill:#3cb054" cx="32" cy="32" r="28"/>
 <path style="opacity:0.2;fill-rule:evenodd" d="m 19,19.000095 c 20.960985,0.695784 29.044066,11.986299 24.986228,22.062611 -1.149726,2.803795 -2.371162,4.338397 -4.940289,5.937207 0.10466,-0.403992 0.212378,-0.810212 0.293692,-1.22374 1.519929,-7.861181 -0.253336,-17.550957 -14.339632,-22.776169 11.20735,5.986474 15.107435,18 9.396938,23.743083 C 25.501395,47.997977 19,41.179994 19,33.324852 Z"/>
 <path style="fill:#8b9cbe;fill-rule:evenodd" d="m 19.000001,18.000093 c 20.960985,0.695783 29.044066,11.986298 24.986228,22.06261 -1.149726,2.803796 -2.371162,4.338397 -4.940289,5.937207 0.10466,-0.403992 0.212378,-0.810212 0.293692,-1.22374 C 40.859561,36.914989 39.086296,27.225213 25,22.000002 36.20735,27.986475 40.107435,40.000001 34.396938,45.743084 25.501396,46.997974 19.000001,40.179991 19.000001,32.324849 Z"/>
 <path style="opacity:0.2;fill:#8b9cbe;fill-rule:evenodd" d="M 32 4 A 27.999999 27.999999 0 0 0 4 32 A 27.999999 27.999999 0 0 0 4.0175781 32.492188 A 27.999999 27.999999 0 0 1 32 5 A 27.999999 27.999999 0 0 1 59.974609 32.492188 A 27.999999 27.999999 0 0 0 60 32 A 27.999999 27.999999 0 0 0 32 4 z"/>
</svg>
