<svg width="64" height="64" version="1.1" xmlns="http://www.w3.org/2000/svg">
 <path d="m31.791693 5.0051946c-1.281566 0.063251-2.463927 0.7088286-3.210075 1.7527223l-5.277214 7.3882241-6.950606-1.98514c-3.168355-0.905058-6.097492 2.024128-5.192449 5.192538l1.985106 6.950728-7.3880968 5.277304c-2.3451415 1.675208-2.3451415 5.160678 0 6.835886l7.3880968 5.277304-1.985106 6.950728c-0.905043 3.168411 2.024092 6.097598 5.192449 5.19254l6.950606-1.985142 5.277214 7.388226c1.675178 2.345182 5.160587 2.345182 6.835766 0l5.277213-7.388226 6.950607 1.985142c3.168356 0.905059 6.097494-2.024129 5.19245-5.19254l-1.985107-6.950728 7.388097-5.277304c2.345142-1.675208 2.345142-5.160678 0-6.835886l-7.388097-5.277304 1.985107-6.950728c0.905042-3.168411-2.024094-6.097598-5.19245-5.192538l-6.950607 1.98514-5.277213-7.3882241c-0.831457-1.163296-2.197583-1.8237046-3.625691-1.7527223z" style="opacity:.2"/>
 <path d="m31.791693 4.0056904c-1.281566 0.063251-2.463927 0.7088286-3.210075 1.7527223l-5.277214 7.3882243-6.950606-1.98514c-3.168355-0.905058-6.097492 2.024128-5.192449 5.192538l1.985106 6.950728-7.3880968 5.277304c-2.3451414 1.675208-2.3451414 5.160678 0 6.835886l7.3880968 5.277304-1.985106 6.950728c-0.905043 3.168411 2.024092 6.097598 5.192449 5.19254l6.950606-1.985142 5.277214 7.388226c1.675178 2.345182 5.160587 2.345182 6.835766 0l5.277213-7.388226 6.950607 1.985142c3.168356 0.905059 6.097494-2.024129 5.19245-5.19254l-1.985107-6.950728 7.388097-5.277304c2.345142-1.675208 2.345142-5.160678 0-6.835886l-7.388097-5.277304 1.985107-6.950728c0.905042-3.168411-2.024094-6.097598-5.19245-5.192538l-6.950607 1.98514-5.277213-7.3882243c-0.831457-1.163296-2.197583-1.8237046-3.625691-1.7527223z" style="fill:#e7773e"/>
 <path d="m32.103085 7.9995002s-1.43235 0.8721134-1.940958 1.526982c-0.550507 0.7088238-0.674296 1.6825948-1.104796 2.4746978-0.413531 0.760881-1.27432 1.31372-1.412575 2.174069-0.08052 0.500909 0.382497 1.471988 0.382497 1.471988l-1.376995 1.200688-0.555071 1.719455-0.741864 1.239185-0.64758 3.246436-2.501359 9.161888 1.001614 1.877105-0.91088 0.243804s-0.360391-0.298815-0.638681-0.269467c-0.260931 0.02752-0.768555 0.168646-0.768555 0.168646s-1.182093 0.435361-0.818371 1.955929c0.376065 1.572161 1.505083 1.587475 1.505083 1.587475s0.707334-0.221641 1.147499-0.405119c0.23099-0.09628 0.359369-0.674584 0.359369-0.674584l0.494581-0.161313c0.0083 0.02005 0.0073 0.05046 0.01778 0.06783 0.362037 0.596046 1.074146 1.100879 1.702562 0.826733 0.558128-0.243486 0.578971-1.074047 0.706284-1.68463 0.19103-0.916168 0.288211-2.795493 0.288211-2.795493s0.520158 2.123638 0.35937 3.176782c-0.144957 0.949452-1.161727 2.623181-1.161727 2.623181s1.106545 0.775748 1.77372 0.70208c0.246619 0.47176 0.203291 0.593422 0.213492 1.090701 0.01141 0.55554-0.588875 1.552644-0.588875 1.552644l0.916217 2.766165s0.23999 4.620863-0.261522 7.897038c-0.814536 0.630474-1.212573 1.312235-1.047867 1.889938 0.426174 0.758213 0.938078 1.343539 1.636741 1.34917 1.432404-0.9022 2.535024-0.956499 2.620555-2.09158 0.42048-5.579909 0.409185-13.555852 0.409185-13.555852s0.294826 0.159039 0.770331 0.201643v0.01285c0.06311 0.0032 0.112104-0.0061 0.17079-0.0072 0.0592 0.0012 0.10879 0.01059 0.172576 0.0072v-0.01285c0.475506-0.04261 0.772106-0.201643 0.772106-0.201643s-0.01127 7.975943 0.409186 13.555852c0.08554 1.135081 1.18816 1.18938 2.620563 2.09158 0.698664-0.0056 1.21056-0.590957 1.636733-1.34917 0.164706-0.577703-0.233331-1.259464-1.047868-1.889938-0.50151-3.276175-0.26152-7.897038-0.26152-7.897038l0.91622-2.766164s-0.600251-0.997104-0.588873-1.552644c0.01018-0.497279-0.0349-0.618941 0.211714-1.0907 0.667176 0.07368 1.773721-0.702081 1.773721-0.702081s-1.016769-1.673729-1.161727-2.623181c-0.160788-1.053144 0.359369-3.176781 0.359369-3.176781s0.09718 1.879324 0.288212 2.795492c0.127311 0.610583 0.148155 1.441144 0.706286 1.68463 0.628416 0.274146 1.340524-0.230686 1.702563-0.826732 0.196312-0.323209 0-1.143863 0-1.143863l0.370044-0.287801v-1.048544l1.019405-1.910102-2.501357-9.161887-0.647582-3.246436-0.741866-1.239186-0.555071-1.719455-1.376994-1.200688s0.46299-0.971078 0.382496-1.471988c-0.138254-0.860347-0.999044-1.413186-1.412574-2.174067-0.4305-0.792103-0.552502-1.765874-1.10301-2.4746978-0.508609-0.6548686-1.940957-1.526982-1.940957-1.526982zm-11.149383 26.719418c0.37325 0.01521 0.782345 0.47887 0.978485 1.109032 0.227455 0.731409 0.09131 1.430311-0.304217 1.56181-0.395876 0.131224-0.90157-0.355376-1.129708-1.087035-0.228266-0.732271-0.09204-1.432496 0.304224-1.563643 0.048-0.01568 0.09867-0.02246 0.151216-0.02016z" style="opacity:.1"/>
 <path d="m32.103085 6.999996s-1.43235 0.8721134-1.940958 1.526982c-0.550507 0.708824-0.674296 1.682595-1.104796 2.474698-0.413531 0.760881-1.27432 1.31372-1.412575 2.174069-0.08052 0.500909 0.382497 1.471988 0.382497 1.471988l-1.376995 1.200688-0.555071 1.719455-0.741864 1.239185-0.64758 3.246436-2.501359 9.161888 1.001614 1.877105-0.91088 0.243804s-0.360391-0.298815-0.638681-0.269467c-0.260931 0.02752-0.768555 0.168646-0.768555 0.168646s-1.182093 0.435361-0.818371 1.955929c0.376065 1.572161 1.505083 1.587475 1.505083 1.587475s0.707334-0.221641 1.147499-0.405119c0.23099-0.09628 0.359369-0.674584 0.359369-0.674584l0.494581-0.161313c0.0083 0.02005 0.0073 0.05046 0.01778 0.06783 0.362037 0.596046 1.074146 1.100879 1.702562 0.826733 0.558128-0.243486 0.578971-1.074047 0.706284-1.68463 0.19103-0.916168 0.288211-2.795493 0.288211-2.795493s0.520158 2.123638 0.35937 3.176782c-0.144957 0.949452-1.161727 2.623181-1.161727 2.623181s1.106545 0.775748 1.77372 0.70208c0.246619 0.47176 0.203291 0.593422 0.213492 1.090701 0.01141 0.55554-0.588875 1.552644-0.588875 1.552644l0.916217 2.766165s0.23999 4.620863-0.261522 7.897038c-0.814536 0.630474-1.212573 1.312235-1.047867 1.889938 0.426174 0.758213 0.938078 1.343538 1.636741 1.34917 1.432404-0.902201 2.535024-0.956499 2.620555-2.09158 0.42048-5.579909 0.409185-13.555852 0.409185-13.555852s0.294826 0.159039 0.770331 0.201643v0.01285c0.06311 0.0032 0.112104-0.0061 0.17079-0.0072 0.0592 0.0012 0.10879 0.01059 0.172576 0.0072v-0.01285c0.475506-0.04261 0.772106-0.201643 0.772106-0.201643s-0.01127 7.975943 0.409186 13.555852c0.08554 1.135081 1.18816 1.189379 2.620563 2.09158 0.698664-0.0056 1.21056-0.590957 1.636733-1.34917 0.164706-0.577703-0.233331-1.259464-1.047868-1.889938-0.50151-3.276175-0.26152-7.897038-0.26152-7.897038l0.91622-2.766164s-0.600251-0.997104-0.588873-1.552644c0.01018-0.497279-0.0349-0.618941 0.211714-1.0907 0.667176 0.07368 1.773721-0.702081 1.773721-0.702081s-1.016769-1.673729-1.161727-2.623181c-0.160788-1.053144 0.359369-3.176781 0.359369-3.176781s0.09718 1.879324 0.288212 2.795492c0.127311 0.610583 0.148155 1.441144 0.706286 1.68463 0.628416 0.274146 1.340524-0.230686 1.702563-0.826732 0.196312-0.323209 0-1.143863 0-1.143863l0.370044-0.287801v-1.048544l1.019405-1.910102-2.501357-9.161887-0.647582-3.246436-0.741866-1.239186-0.555071-1.719455-1.376994-1.200688s0.46299-0.971078 0.382496-1.471988c-0.138254-0.860347-0.999044-1.413186-1.412574-2.174067-0.4305-0.792103-0.552502-1.765874-1.10301-2.474698-0.508609-0.6548686-1.940957-1.526982-1.940957-1.526982zm-11.149383 26.719418c0.37325 0.01521 0.782345 0.47887 0.978485 1.109032 0.227455 0.731409 0.09131 1.430311-0.304217 1.56181-0.395876 0.131224-0.90157-0.355376-1.129708-1.087035-0.228266-0.732271-0.09204-1.432496 0.304224-1.563643 0.048-0.01568 0.09867-0.02246 0.151216-0.02016z" style="fill:#17191e"/>
 <path d="m31.791016 4.0058594c-1.281566 0.063251-2.462837 0.7080594-3.208985 1.7519531l-5.277343 7.3886715-6.951172-1.984375c-2.941665-0.840302-5.672192 1.624732-5.324219 4.517579 0.299018-2.427585 2.729307-4.260783 5.324219-3.519532l6.951172 1.986328 5.277343-7.3886715c0.746148-1.0438937 1.927419-1.6887021 3.208985-1.7519531 1.428108-0.0709823 2.795496 0.5886571 3.626953 1.7519531l5.277343 7.3886715 6.949219-1.986328c2.590126-0.739885 5.019848 1.084958 5.326172 3.50586 0.337607-2.886865-2.389197-5.342871-5.326172-4.503907l-6.949219 1.984375-5.277343-7.3886715c-0.831457-1.163296-2.198845-1.8229354-3.626953-1.7519531zm-18.88086 19.46875-7.1523435 5.107422c-1.3244723 0.946112-1.9000953 2.469242-1.7285156 3.917969 0.1318063-1.117087 0.7072839-2.188471 1.7285156-2.917969l7.3886715-5.277343-0.236328-0.830079zm38.179688 0-0.236328 0.830079 7.386718 5.277343c1.021236 0.729501 1.598666 1.800877 1.730469 2.917969 0.171574-1.448722-0.406001-2.97186-1.730469-3.917969l-7.15039-5.107422zm-38.179688 18.050782-1.748047 6.121093c-0.163804 0.573454-0.198891 1.137362-0.132812 1.673828 0.026811-0.22302 0.068031-0.44899 0.132812-0.675781l1.984375-6.949219-0.236328-0.169921zm38.179688 0-0.236328 0.169921 1.984375 6.949219c0.066126 0.231498 0.10622 0.461912 0.132812 0.689453 0.068385-0.540452 0.03236-1.109259-0.132812-1.6875l-1.748047-6.121093z" style="fill:#8b9cbe;opacity:.2"/>
</svg>
