<svg xmlns="http://www.w3.org/2000/svg" width="64" height="64" version="1">
 <rect style="fill:#0a7cb4" width="56" height="56" x="4" y="4" rx="3" ry="3"/>
 <path style="opacity:0.1;fill:#8b9cbe" d="M 7 4 C 5.338 4 4 5.338 4 7 L 4 8 C 4 6.338 5.338 5 7 5 L 57 5 C 58.662 5 60 6.338 60 8 L 60 7 C 60 5.338 58.662 4 57 4 L 7 4 z"/>
 <path style="opacity:0.2" d="M 4 57 L 4 58 C 4 59.662 5.338 61 7 61 L 57 61 C 58.662 61 60 59.662 60 58 L 60 57 C 60 58.662 58.662 60 57 60 L 7 60 C 5.338 60 4 58.662 4 57 z"/>
 <path style="opacity:0.2" d="m 22.034762,21.000633 c -2.469737,-0.02808 -5.412463,2.554 -5.945249,9.8906 -0.567686,7.8258 1.656818,8.5976 4.070297,8.5976 2.010349,0 3.624508,-1.0063 5.394463,-3.0742 0.266973,-0.31304 0.566366,-0.476 0.683583,-0.35938 0.117817,0.11664 0.205355,0.20648 0.195315,0.19922 -0.0094,-0.0086 -0.139517,0.3007 -0.265613,0.69532 -0.347472,1.08774 -0.878278,3.1994 -0.343752,4.6836 0.139717,0.38856 0.431789,0.3333 0.550766,-0.0625 0.283533,-0.94392 0.829899,-2.569 1.421844,-3.3868 0.240914,-0.33418 0.520227,-0.14442 0.507807,0.26952 -0.07578,2.5188 0.736282,7.107 4.441288,10.0234 3.874902,3.0518 9.523959,2.9714 12.585681,1.66796 0.374711,-0.16074 0.959176,-0.15126 1.359346,-0.07812 0.246254,0.0447 0.559106,0.07252 0.949196,0.05078 1.134171,-0.06526 -0.760621,-1.0281 -0.886698,-1.54296 -0.124917,-0.51608 0.885598,-0.61652 1.089813,-2.2578 0.205414,-1.6437 -1.085913,-0.0625 -1.085913,-0.0625 0,0 -0.949316,1.11402 -4.73428,0.8711 -3.487112,-0.22178 -7.644006,-2.0188 -7.50381,-8.3398 0.0102,-0.41516 0.137997,-0.78518 0.261713,-0.83594 0.123717,-0.04956 0.467169,0.13598 0.679663,0.48828 0.526247,0.86898 0.997555,2.2778 1.253868,3.1328 0.119577,0.39522 0.40929,0.45436 0.550766,0.0664 0.464689,-1.2914 0.123637,-3.0592 -0.203114,-4.211 -0.111278,-0.39824 0.0068,-0.90008 0.269533,-1.14844 0.261633,-0.24836 0.663883,-0.20754 0.929656,0.10546 1.780595,2.0878 3.401914,3.1094 5.421663,3.1094 2.412739,0 4.637882,-0.77134 4.070297,-8.5976 -0.568866,-7.8258 -3.883702,-10.2422 -6.437437,-9.8554 -1.646798,0.24836 -2.78633,1.0978 -3.386714,1.67188 -0.297153,0.28282 -0.499988,0.57404 -0.499988,0.60546 -5.92e-4,0.03082 -0.235854,-0.17914 -0.550766,-0.4414 -1.376285,-1.14938 -3.105321,-1.83594 -4.984274,-1.83594 -1.853993,0 -3.564909,0.66808 -4.933475,1.78906 -0.316112,0.25924 -0.549586,0.48056 -0.550766,0.46484 0,-0.017 -0.204014,-0.29532 -0.499987,-0.57812 -0.601425,-0.57348 -1.739836,-1.42682 -3.386714,-1.67578 -0.159576,-0.02444 -0.323632,-0.0372 -0.488268,-0.03906 z m 6.964624,6 c 0.552046,0 0.999974,0.44794 0.999974,1 0,0.55206 -0.447928,1 -0.999974,1 -0.552046,0 -0.999975,-0.44794 -0.999975,-1 0,-0.55206 0.447929,-1 0.999975,-1 z m 5.999848,0 c 0.552046,0 0.999975,0.44794 0.999975,1 0,0.55206 -0.447929,1 -0.999975,1 -0.552046,0 -0.999975,-0.44794 -0.999975,-1 0,-0.55206 0.447929,-1 0.999975,-1 z"/>
 <path style="fill:#8b9cbe" d="m 22.036,20.000633 c -2.4706,-0.028 -5.4134,2.554 -5.9462,9.89 -0.5676,7.826 1.657,8.598 4.0702,8.598 2.01,0 3.624,-1.006 5.394,-3.074 0.268,-0.312 0.568,-0.476 0.684,-0.36 0.118,0.118 0.206,0.208 0.196,0.2 -0.01,-0.008 -0.14,0.3 -0.266,0.696 -0.348,1.086 -0.878,3.198 -0.344,4.682 0.14,0.39 0.432,0.334 0.552,-0.062 0.282,-0.944 0.828,-2.568 1.42,-3.386 0.242,-0.334 0.522,-0.144 0.508,0.27 -0.076,2.518 0.736,7.106 4.442,10.022 3.876,3.052 9.524,2.972 12.586,1.668 0.374,-0.16 0.96,-0.15 1.36,-0.078 0.246,0.046 0.558,0.072 0.948,0.052 1.134,-0.066 -0.76,-1.028 -0.886,-1.544 -0.126,-0.516 0.886,-0.616 1.09,-2.258 0.206,-1.644 -1.086,-0.062 -1.086,-0.062 0,0 -0.95,1.114 -4.734,0.87 -3.488,-0.22 -7.644,-2.018 -7.504,-8.338 0.01,-0.416 0.138,-0.786 0.262,-0.836 0.122,-0.05 0.466,0.136 0.678,0.488 0.528,0.868 0.998,2.278 1.254,3.132 0.12,0.396 0.41,0.454 0.552,0.066 0.464,-1.29 0.124,-3.058 -0.204,-4.21 -0.11,-0.398 0.008,-0.9 0.27,-1.148 0.262,-0.25 0.664,-0.208 0.93,0.104 1.78,2.088 3.402,3.11 5.422,3.11 2.412,0 4.638,-0.772 4.07,-8.598 -0.568,-7.826 -3.884,-10.2416 -6.438,-9.854 -1.646,0.248 -2.786,1.096 -3.386,1.67 -0.298,0.284 -0.5,0.574 -0.5,0.606 0,0.032 -0.236,-0.178 -0.552,-0.44 -1.376,-1.15 -3.104,-1.836 -4.984,-1.836 -1.854,0 -3.564,0.668 -4.934,1.788 -0.316,0.26 -0.548,0.48 -0.55,0.464 0,-0.016 -0.204,-0.294 -0.5,-0.578 -0.602,-0.572 -1.74,-1.426 -3.386,-1.674 -0.16,-0.026 -0.324,-0.038 -0.488,-0.04 z m 6.964,6 c 0.552,0 1,0.448 1,1 0,0.552 -0.448,1 -1,1 -0.552,0 -1,-0.448 -1,-1 0,-0.552 0.448,-1 1,-1 z m 6,0 c 0.552,0 1,0.448 1,1 0,0.552 -0.448,1 -1,1 -0.552,0 -1,-0.448 -1,-1 0,-0.552 0.448,-1 1,-1 z"/>
</svg>
