<svg xmlns="http://www.w3.org/2000/svg" width="64" height="64" version="1">
 <path style="opacity:0.2" d="m 32.154297,3.9999965 v 0.00195 C 32.100493,4.0006288 32.052179,4.0199345 32,4.0253871 v -0.019531 a 6.5948653,6.5944523 0 0 0 -3.298828,0.875 L 9.2988281,16.08398 A 6.5948653,6.5944523 0 0 0 6,21.796871 v 22.40625 a 6.5948653,6.5944523 0 0 0 3.2988281,5.708984 L 28.701172,61.117184 a 6.5948653,6.5944523 0 0 0 3.292969,0.876953 6.5948653,6.5944523 0 0 0 0.0059,0 c 0.01892,3.77e-4 0.03772,0.006 0.05664,0.0059 1.11966,-0.0097 2.238942,-0.303501 3.242187,-0.882812 L 54.701172,49.912105 C 56.741342,48.734537 57.999323,46.558632 58,44.203121 v -22.40625 c 3.35e-4,-2.356523 -1.257781,-4.534817 -3.298828,-5.712891 L 35.298828,4.8808559 C 34.34158,4.3285923 33.25915,4.0256319 32.154297,3.9999965 Z"/>
 <path style="fill:#f68048" d="m 32.155165,2.9999997 v 0.00283 c -1.209796,-0.0297 -1.993502,1.7178404 -3.042188,2.3217456 L 11.558116,17.868765 C 9.5170697,19.046839 9.1844291,19.677507 9.1847644,22.03403 L 8.5683586,43.203498 c 6.768e-4,2.355511 0.024979,3.191122 2.0651484,4.36869 L 28.70204,59.394477 c 1.037483,0.59908 2.197407,1.615501 3.355277,1.605449 1.11966,-0.0097 2.237398,-0.304233 3.240643,-0.883544 L 54.702039,48.912871 c 2.04017,-1.177568 3.297283,-3.353862 3.29796,-5.709373 V 20.796477 c 3.35e-4,-2.356523 -1.256913,-4.534132 -3.29796,-5.712206 L 35.29796,3.8807611 C 34.340712,3.3284975 33.260018,3.0256351 32.155165,2.9999997 Z"/>
 <path style="fill:#8d259c" d="M 32,3.0056637 A 6.5948653,6.5944523 0 0 0 28.70204,3.8807611 L 9.2979607,15.084271 a 6.5948653,6.5944523 0 0 0 -3.2979599,5.712206 v 22.407021 a 6.5948653,6.5944523 0 0 0 3.2979599,5.709373 L 28.70204,60.116382 A 6.5948653,6.5944523 0 0 0 32,60.994312 Z"/>
 <path style="opacity:0.2" d="m 42.585938,15.119032 c -0.795026,0 -1.520422,0.403507 -1.941407,1.076171 -0.254242,0.402997 -0.368493,0.853488 -0.355469,1.296876 2.6e-5,9.31e-4 -2.7e-5,0.0029 0,0.0039 0.0068,0.22074 0.04485,0.43897 0.113282,0.648437 0,0 0,0.002 0,0.002 0.0687,0.209486 0.169488,0.411681 0.296875,0.595704 -0.171153,0.194338 -0.349253,0.36486 -0.533203,0.515624 -9.88e-4,8.12e-4 -0.0029,0.0011 -0.0039,0.002 -0.182945,0.149667 -0.370629,0.278605 -0.558593,0.390625 -0.0011,6.47e-4 -7.54e-4,0.0032 -0.002,0.0039 -1.133211,0.674054 -2.290887,0.913816 -2.638671,0.908203 -1.03988,-0.453523 -2.347142,-0.686318 -3.22461,-0.798828 -1.32203,-0.159143 -3.657844,-0.311295 -5.597656,-0.246094 -1.862863,0.114608 -3.935257,0.953043 -5.632813,3.734375 -0.164863,-0.02941 -0.331681,-0.04492 -0.498046,-0.04492 -1.367355,0 -2.541279,0.979331 -2.791016,2.330078 -0.139332,0.749453 0.0196,1.510234 0.449219,2.138672 0.429247,0.628061 1.077639,1.050344 1.824219,1.189453 0.172374,0.03242 0.346856,0.04883 0.521484,0.04883 1.367354,0 2.542856,-0.980908 2.792969,-2.332031 0.190776,-1.029177 -0.199857,-2.033394 -0.935547,-2.675781 1.325165,-2.093411 2.872875,-2.768783 4.333984,-2.875 2.575118,-0.197407 3.885029,0.0097 6.238281,0.380859 0.556395,0.126643 1.448897,0.314478 2.048829,0.587891 0.0019,7.54e-4 0.0041,0.0027 0.0059,0.0039 0.323437,0.147307 0.634656,0.311312 0.931641,0.496094 0.296984,0.184784 0.577828,0.389706 0.847656,0.611328 0.540561,0.444087 1.125461,1.492651 1.552734,2.080078 -0.05105,0.06515 -0.09866,0.130598 -0.142578,0.201172 -0.168619,0.268976 -0.276047,0.559626 -0.324219,0.855469 -1.44e-4,8.89e-4 1.46e-4,0.0029 0,0.0039 -0.02375,0.146999 -0.03386,0.29417 -0.0293,0.441406 2.9e-5,9.4e-4 -2.9e-5,0.0029 0,0.0039 0.0048,0.14723 0.02454,0.294286 0.05664,0.4375 0.03257,0.145362 0.07889,0.285039 0.138672,0.421875 0.11804,0.270172 0.289399,0.519161 0.507812,0.730468 0.11011,0.106705 0.229096,0.203838 0.363282,0.289063 0.368033,0.234519 0.795212,0.359375 1.230468,0.359375 0.793522,0 1.52215,-0.402749 1.947266,-1.076172 0.169556,-0.268706 0.275726,-0.55778 0.324219,-0.853516 0.07274,-0.443604 0.01387,-0.89885 -0.164063,-1.30664 -0.17796,-0.407791 -0.474323,-0.769375 -0.876953,-1.025391 -0.130722,-0.08261 -0.268526,-0.148528 -0.412109,-0.201172 -0.141613,-0.0523 -0.288796,-0.08975 -0.4375,-0.113281 -9.27e-4,-1.45e-4 -0.0029,1.44e-4 -0.0039,0 -0.14963,-0.02349 -0.299739,-0.03263 -0.451171,-0.02734 -0.15163,0.0055 -0.303303,0.02479 -0.451172,0.05859 C 40.527883,23.578496 39.759349,22.341664 39,21.757703 c 0.235511,-0.07304 0.481128,-0.364367 0.728516,-0.474609 0.123847,-0.05513 0.25005,-0.133448 0.375,-0.199219 0.126201,-0.06658 0.250931,-0.118865 0.376953,-0.197265 0.250805,-0.155514 0.49783,-0.337243 0.740234,-0.544922 0.241775,-0.207331 0.475866,-0.440593 0.699219,-0.707031 0.214812,0.0646 0.439189,0.101562 0.666016,0.101562 0.197712,0 0.39235,-0.02649 0.578124,-0.07422 0.186451,-0.04824 0.366393,-0.120606 0.533204,-0.21289 0.333995,-0.184428 0.621538,-0.451483 0.832031,-0.78711 0.08206,-0.129616 0.148994,-0.26422 0.203125,-0.404297 0.16239,-0.420227 0.199879,-0.879078 0.09961,-1.330078 -0.06704,-0.3014 -0.192678,-0.582443 -0.365234,-0.828125 -0.08587,-0.122264 -0.184101,-0.23585 -0.292969,-0.339843 -0.109908,-0.10498 -0.230112,-0.199871 -0.361328,-0.283204 -0.183284,-0.115985 -0.380292,-0.205537 -0.585938,-0.265624 -8.92e-4,-2.61e-4 -0.0029,2.56e-4 -0.0039,0 -0.206533,-0.0601 -0.419653,-0.0918 -0.636718,-0.0918 z m 0,1.511718 c 0.14909,0 0.297269,0.04575 0.423828,0.125 0.08995,0.05728 0.164755,0.130038 0.224609,0.214844 0.0589,0.08436 0.103856,0.179452 0.126953,0.283203 1.95e-4,8.64e-4 -1.92e-4,0.003 0,0.0039 4.22e-4,0.0019 -4.07e-4,0.004 0,0.0059 0.04332,0.203511 0.0094,0.410542 -0.103516,0.58789 -0.112667,0.179259 -0.296586,0.299852 -0.496093,0.345704 -0.199017,0.04452 -0.417857,0.01832 -0.59961,-0.09766 l -0.03516,-0.02344 c -0.17245,-0.122467 -0.283228,-0.302118 -0.320312,-0.496094 -0.03673,-0.192121 -0.0013,-0.399164 0.111328,-0.578125 0.144959,-0.23126 0.393444,-0.36914 0.667969,-0.369141 z m 7.724609,3.333985 c -0.793901,0 -1.520046,0.401498 -1.941406,1.074218 -0.601996,0.954523 -0.420773,2.186507 0.384765,2.925782 0.0079,0.0054 0.01869,0.018 0.02734,0.02344 -0.50661,1.70319 -1.119922,4.607346 -0.703125,6.150391 -0.0537,0.04887 -0.110588,0.09556 -0.160156,0.15039 -0.086,0.09609 -0.167303,0.198173 -0.238281,0.310547 -0.119426,0.189459 -0.205916,0.390066 -0.265626,0.595703 -1.265954,0.184032 -1.653038,0.493735 -2.263671,0.892579 -0.764231,0.498894 -1.487931,0.968836 -3.619141,1.003906 -0.737566,-0.08685 -2.201197,-0.06631 -2.853516,-0.04297 -0.537402,0.02172 -1.092133,0.03885 -1.820312,0.002 C 36.35607,33.023532 36.06708,32.71764 35.558594,32.13661 34.881493,31.361838 33.934049,30.383115 32,30.242079 v 1.507812 c 1.237417,0.112911 1.839933,0.712156 2.425781,1.382812 0.558434,0.63863 1.19256,1.362808 2.34961,1.425782 0.7954,0.04343 1.413244,0.02133 1.957031,0 0.935479,-0.03257 2.538806,-0.06085 3.816406,0.257812 0.979041,0.24212 4.243843,3.747409 5.248047,5.5 -0.04056,0.05429 -0.08151,0.105108 -0.117187,0.16211 -0.654571,1.038612 -0.38589,2.407882 0.607421,3.111328 0.02704,0.02172 0.0559,0.03807 0.105469,0.07227 0.368406,0.233977 0.793637,0.357422 1.228516,0.357422 0.794651,0 1.520423,-0.402962 1.941406,-1.074219 0.328598,-0.517895 0.436055,-1.135376 0.302734,-1.736328 -0.134448,-0.603179 -0.495198,-1.117472 -1.017578,-1.449218 -0.368033,-0.232348 -0.792057,-0.355469 -1.226562,-0.355469 -0.198284,0 -0.39381,0.02808 -0.580078,0.07422 -0.961766,-1.578439 -2.948503,-4.040844 -4.652344,-5.298828 0.680859,-0.236691 1.14565,-0.541983 1.582031,-0.826172 0.53665,-0.349607 0.683046,-0.500455 1.525391,-0.642578 0.159606,0.390321 0.42561,0.740998 0.791015,1 0.02704,0.02172 0.05785,0.03807 0.107422,0.07227 0.368406,0.233975 0.791683,0.357422 1.226563,0.357422 0.79465,0 1.522374,-0.402965 1.943359,-1.074219 0.328598,-0.518437 0.436054,-1.135429 0.302735,-1.736328 -0.134449,-0.60242 -0.495197,-1.117473 -1.017579,-1.449219 -0.368031,-0.232348 -0.792058,-0.355468 -1.226562,-0.355468 -0.04694,0 -0.09368,0.0035 -0.140625,0.0059 -0.266634,-1.190126 0.3429,-3.644974 0.701172,-4.962891 0.04208,0.0041 0.08489,0.0098 0.126953,0.0098 0.79465,0 1.522374,-0.400523 1.943359,-1.072266 0.328598,-0.518437 0.434102,-1.135048 0.300782,-1.736328 -0.134449,-0.602798 -0.495197,-1.117474 -1.017579,-1.449219 -0.368031,-0.232347 -0.792059,-0.355468 -1.226562,-0.355468 z m 0,1.511718 c 0.149841,0 0.298026,0.04184 0.423828,0.121094 0.180262,0.11455 0.304994,0.292408 0.351563,0.501953 0.0458,0.205748 0.0084,0.417425 -0.105469,0.597657 -0.224572,0.358292 -0.727971,0.479525 -1.09375,0.246093 l -0.03516,-0.02148 C 49.50681,22.67802 49.416129,22.206817 49.642578,21.847547 v -0.002 c 0.14571,-0.231261 0.394198,-0.369141 0.667969,-0.369141 z m -28.273438,3.203126 c 0.05055,-0.0089 0.15902,0.04527 0.220703,0.05664 0.726301,0.13572 1.206711,0.839264 1.072266,1.56836 -0.133322,0.717783 -0.842658,1.209247 -1.564453,1.076171 -0.727053,-0.13572 -1.205132,-0.837313 -1.070313,-1.566406 0.118301,-0.636732 0.670396,-1.101562 1.314454,-1.101562 0,-0.02083 0.01049,-0.03024 0.02734,-0.0332 z m 19.595703,1.152343 c 0.150219,0 0.299149,0.04035 0.423829,0.119141 0.09266,0.05909 0.167672,0.135409 0.226562,0.220703 0.05889,0.08529 0.1006,0.181632 0.123047,0.28125 0.04427,0.199576 0.01344,0.414328 -0.103516,0.599609 -0.147214,0.23289 -0.398932,0.371094 -0.673828,0.371094 -0.14909,0 -0.294567,-0.04128 -0.421875,-0.121094 -0.09239,-0.05881 -0.169842,-0.137362 -0.228515,-0.222656 -0.05817,-0.08458 -0.09865,-0.178434 -0.121094,-0.277344 0,0 0,-0.002 0,-0.002 -0.02232,-0.09983 -0.02444,-0.204234 -0.0078,-0.30664 0.01667,-0.102399 0.05108,-0.2019 0.109375,-0.294922 0.06347,-0.100427 0.149504,-0.183446 0.253907,-0.248047 0.125811,-0.07804 0.270079,-0.119141 0.419921,-0.119141 z M 49.623047,31.037 c 0.149841,0 0.296073,0.04379 0.421875,0.123047 0.180261,0.11455 0.304994,0.290997 0.351562,0.5 0.0458,0.205746 0.01037,0.417588 -0.103515,0.597656 -0.224572,0.358292 -0.72797,0.479526 -1.09375,0.246094 l -0.03516,-0.02148 c -0.344751,-0.243748 -0.437386,-0.71495 -0.210937,-1.074219 v -0.002 C 49.098835,31.174881 49.349277,31.037 49.623047,31.037 Z M 39.6875,37.015516 c -0.805916,0 -1.561511,0.430349 -1.974609,1.125 -0.314706,0.529838 -0.406454,1.150134 -0.25586,1.748047 0.13182,0.524952 0.436364,0.976695 0.865235,1.292969 -1.522077,3.475106 -3.928979,5.430457 -5.185547,6.035156 -0.04807,0.01628 -0.09271,0.03894 -0.134766,0.06445 C 32.556183,47.48146 32.191152,47.546743 32,47.585829 v 1.507812 c 0.103278,-0.01088 0.747732,-0.04315 1.634766,-0.449219 2.008406,-0.51138 2.569351,-0.13501 3.158203,0.265625 0.383428,0.260576 0.859037,0.586511 1.599609,0.625 0.03753,0.0019 0.07775,0.002 0.117188,0.002 0.79202,0 3.686479,-0.919488 4.380859,-1.183593 0.429623,0.420722 1.003173,0.658203 1.607422,0.658203 0.548669,0 1.080367,-0.195854 1.496094,-0.554688 0.465676,-0.400636 0.749932,-0.959747 0.796875,-1.574219 0.04695,-0.614851 -0.148875,-1.212985 -0.548828,-1.679687 -0.437509,-0.512466 -1.071918,-0.806641 -1.744141,-0.806641 -0.547918,0 -1.079992,0.199976 -1.496094,0.558594 -0.605377,0.521151 -0.872956,1.291321 -0.783203,2.033203 -0.731558,0.263832 -3.344263,1.051549 -3.746094,1.039063 -0.30832,-0.01628 -0.487733,-0.131035 -0.833984,-0.367188 -0.440135,-0.299662 -0.332356,-0.570993 -0.982422,-0.697265 1.102596,-1.040892 2.146258,-3.074464 3.113281,-5.337891 0.773996,-0.02714 1.493751,-0.450709 1.892578,-1.121094 0.647813,-1.09176 0.291073,-2.510016 -0.796875,-3.164062 -0.35639,-0.212803 -0.763885,-0.324219 -1.177734,-0.324219 z m 0,1.511719 c 0.14196,0 0.281869,0.0375 0.404297,0.111328 0.375544,0.226375 0.501171,0.71521 0.277344,1.091797 -0.144584,0.243746 -0.40081,0.390625 -0.683594,0.390625 -0.142336,0 -0.282697,-0.03977 -0.40625,-0.115235 -0.181385,-0.108576 -0.309505,-0.280039 -0.361328,-0.486328 -0.05181,-0.20629 -0.02222,-0.422252 0.08594,-0.605469 0.144959,-0.243203 0.400809,-0.386718 0.683594,-0.386718 z m 9.935547,2.390625 c 0.149841,0 0.296073,0.04379 0.421875,0.123047 0.180261,0.11455 0.304994,0.292406 0.351562,0.501953 0.0458,0.20629 0.0084,0.415471 -0.105468,0.595703 -0.224572,0.358292 -0.72797,0.479526 -1.09375,0.246094 l -0.03516,-0.02148 c -0.344752,-0.243747 -0.435433,-0.71457 -0.208984,-1.074219 v -0.002 c 0.14571,-0.23126 0.396152,-0.36914 0.669922,-0.36914 z m -5.125,4.990234 c 0.231712,0 0.449842,0.101779 0.601562,0.279297 0.138205,0.162317 0.2056,0.366352 0.189453,0.578125 -0.01616,0.21172 -0.11391,0.403995 -0.27539,0.542969 v 0.002 c -0.18402,0.158517 -0.38231,0.191406 -0.515625,0.191406 -0.233215,0 -0.452924,-0.101997 -0.603516,-0.277344 -0.28466,-0.33332 -0.244464,-0.836904 0.08789,-1.123047 0.184765,-0.159601 0.382312,-0.193359 0.515625,-0.193359 z"/>
 <path style="opacity:0.2" d="M 23.045328,20.675011 16.144027,24.052057 12.4,44.481932 18.993329,42.784834 24.543325,46.775 28.288888,26.345126 Z m -1.36705,7.213638 c -1.16084,-0.219444 -1.926926,-1.352142 -1.710733,-2.530443 0.216193,-1.178692 1.332106,-1.9563 2.492948,-1.736856 1.161609,0.219446 1.927695,1.352533 1.711502,2.530835 -0.215812,1.178301 -1.332876,1.955911 -2.493717,1.736464 z"/>
 <path style="fill:#b66bc2" d="M 23.045328,19.674993 16.144027,23.052039 12.4,43.481914 l 6.593329,-1.697098 5.549996,3.990166 3.745563,-20.429874 z m -1.36705,7.213638 c -1.16084,-0.219444 -1.926926,-1.352142 -1.710733,-2.530443 0.216193,-1.178692 1.332106,-1.9563 2.492948,-1.736856 1.161609,0.219446 1.927695,1.352533 1.711502,2.530835 -0.215812,1.178301 -1.332876,1.955911 -2.493717,1.736464 z"/>
 <path style="fill:#8b9cbe" d="M 42.585938 14.119141 C 41.790912 14.119141 41.065516 14.522648 40.644531 15.195312 C 40.390289 15.598309 40.276038 16.0488 40.289062 16.492188 C 40.289088 16.493119 40.289035 16.495094 40.289062 16.496094 C 40.295862 16.716834 40.333909 16.935064 40.402344 17.144531 C 40.402344 17.144531 40.402344 17.146484 40.402344 17.146484 C 40.471044 17.35597 40.571832 17.558165 40.699219 17.742188 C 40.528066 17.936526 40.349966 18.107048 40.166016 18.257812 C 40.165028 18.258624 40.163109 18.258866 40.162109 18.259766 C 39.979164 18.409433 39.79148 18.538371 39.603516 18.650391 C 39.602416 18.651038 39.602762 18.653597 39.601562 18.654297 C 38.468351 19.328351 37.310675 19.568113 36.962891 19.5625 C 35.923011 19.108977 34.615749 18.876182 33.738281 18.763672 C 32.416251 18.604529 30.080437 18.452377 28.140625 18.517578 C 26.277762 18.632186 24.205368 19.470621 22.507812 22.251953 C 22.342949 22.222543 22.176131 22.207031 22.009766 22.207031 C 20.642411 22.207031 19.468487 23.186362 19.21875 24.537109 C 19.079418 25.286562 19.238352 26.047343 19.667969 26.675781 C 20.097216 27.303842 20.745608 27.726125 21.492188 27.865234 C 21.664562 27.897654 21.839044 27.914063 22.013672 27.914062 C 23.381026 27.914062 24.556528 26.933154 24.806641 25.582031 C 24.997417 24.552854 24.606784 23.548637 23.871094 22.90625 C 25.196259 20.812839 26.743969 20.137467 28.205078 20.03125 C 30.780196 19.833843 32.090107 20.04099 34.443359 20.412109 C 34.999754 20.538752 35.892256 20.726587 36.492188 21 C 36.494087 21.000754 36.496247 21.002706 36.498047 21.003906 C 36.821484 21.151213 37.132703 21.315218 37.429688 21.5 C 37.726672 21.684784 38.007516 21.889706 38.277344 22.111328 C 38.817905 22.555415 39.402805 23.603979 39.830078 24.191406 C 39.779028 24.256556 39.731421 24.322004 39.6875 24.392578 C 39.518881 24.661554 39.411453 24.952204 39.363281 25.248047 C 39.363137 25.248936 39.363427 25.250953 39.363281 25.251953 C 39.339531 25.398952 39.329424 25.546123 39.333984 25.693359 C 39.334013 25.694299 39.333955 25.696266 39.333984 25.697266 C 39.338784 25.844496 39.358525 25.991552 39.390625 26.134766 C 39.423195 26.280128 39.469514 26.419805 39.529297 26.556641 C 39.647337 26.826813 39.818696 27.075802 40.037109 27.287109 C 40.147219 27.393814 40.266205 27.490947 40.400391 27.576172 C 40.768424 27.810691 41.195603 27.935547 41.630859 27.935547 C 42.424381 27.935547 43.153009 27.532798 43.578125 26.859375 C 43.747681 26.590669 43.853851 26.301595 43.902344 26.005859 C 43.975084 25.562255 43.91621 25.107009 43.738281 24.699219 C 43.560321 24.291428 43.263958 23.929844 42.861328 23.673828 C 42.730606 23.591218 42.592802 23.5253 42.449219 23.472656 C 42.307606 23.420356 42.160423 23.382904 42.011719 23.359375 C 42.010792 23.35923 42.008812 23.359519 42.007812 23.359375 C 41.858182 23.335885 41.708073 23.326741 41.556641 23.332031 C 41.405011 23.337531 41.253338 23.356825 41.105469 23.390625 C 40.527883 22.578605 39.759349 21.341773 39 20.757812 C 39.235511 20.684773 39.481128 20.393445 39.728516 20.283203 C 39.852363 20.228073 39.978566 20.149755 40.103516 20.083984 C 40.229717 20.017404 40.354447 19.965119 40.480469 19.886719 C 40.731274 19.731205 40.978299 19.549476 41.220703 19.341797 C 41.462478 19.134466 41.696569 18.901204 41.919922 18.634766 C 42.134734 18.699366 42.359111 18.736328 42.585938 18.736328 C 42.78365 18.736328 42.978288 18.709839 43.164062 18.662109 C 43.350513 18.613869 43.530455 18.541503 43.697266 18.449219 C 44.031261 18.264791 44.318804 17.997736 44.529297 17.662109 C 44.611357 17.532493 44.678291 17.397889 44.732422 17.257812 C 44.894812 16.837585 44.932301 16.378734 44.832031 15.927734 C 44.764991 15.626334 44.639353 15.345291 44.466797 15.099609 C 44.380927 14.977345 44.282696 14.863759 44.173828 14.759766 C 44.06392 14.654786 43.943716 14.559895 43.8125 14.476562 C 43.629216 14.360577 43.432208 14.271025 43.226562 14.210938 C 43.22567 14.210677 43.223656 14.211194 43.222656 14.210938 C 43.016123 14.150837 42.803003 14.119141 42.585938 14.119141 z M 42.585938 15.630859 C 42.735028 15.630859 42.883207 15.676606 43.009766 15.755859 C 43.099716 15.813139 43.174521 15.885897 43.234375 15.970703 C 43.293275 16.055063 43.338231 16.150155 43.361328 16.253906 C 43.361523 16.25477 43.361136 16.256913 43.361328 16.257812 C 43.36175 16.259712 43.360921 16.261772 43.361328 16.263672 C 43.404648 16.467183 43.370703 16.674214 43.257812 16.851562 C 43.145145 17.030821 42.961226 17.151414 42.761719 17.197266 C 42.562702 17.241786 42.343862 17.215589 42.162109 17.099609 L 42.126953 17.076172 C 41.954503 16.953705 41.843725 16.774054 41.806641 16.580078 C 41.769911 16.387957 41.805346 16.180914 41.917969 16.001953 C 42.062928 15.770693 42.311413 15.632813 42.585938 15.632812 L 42.585938 15.630859 z M 50.310547 18.964844 C 49.516646 18.964844 48.790501 19.366342 48.369141 20.039062 C 47.767145 20.993585 47.948368 22.225569 48.753906 22.964844 C 48.761806 22.970244 48.7726 22.982841 48.78125 22.988281 C 48.27464 24.691471 47.661328 27.595627 48.078125 29.138672 C 48.024425 29.187542 47.967537 29.23423 47.917969 29.289062 C 47.831969 29.385153 47.750666 29.487235 47.679688 29.599609 C 47.560262 29.789068 47.473772 29.989675 47.414062 30.195312 C 46.148108 30.379344 45.761024 30.689047 45.150391 31.087891 C 44.38616 31.586785 43.66246 32.056727 41.53125 32.091797 C 40.793684 32.004947 39.330053 32.025488 38.677734 32.048828 C 38.140332 32.070548 37.585601 32.087681 36.857422 32.050781 C 36.35607 32.023641 36.06708 31.717749 35.558594 31.136719 C 34.881493 30.361947 33.934049 29.383224 32 29.242188 L 32 30.75 C 33.237417 30.862911 33.839933 31.462156 34.425781 32.132812 C 34.984215 32.771442 35.618341 33.49562 36.775391 33.558594 C 37.570791 33.602024 38.188635 33.579924 38.732422 33.558594 C 39.667901 33.526024 41.271228 33.497746 42.548828 33.816406 C 43.527869 34.058526 46.792671 37.563815 47.796875 39.316406 C 47.756315 39.370696 47.715362 39.421514 47.679688 39.478516 C 47.025117 40.517128 47.293798 41.886398 48.287109 42.589844 C 48.314149 42.611564 48.343006 42.627909 48.392578 42.662109 C 48.760984 42.896086 49.186215 43.019531 49.621094 43.019531 C 50.415745 43.019531 51.141517 42.616569 51.5625 41.945312 C 51.891098 41.427417 51.998555 40.809936 51.865234 40.208984 C 51.730786 39.605805 51.370036 39.091512 50.847656 38.759766 C 50.479623 38.527418 50.055599 38.404297 49.621094 38.404297 C 49.42281 38.404297 49.227284 38.432376 49.041016 38.478516 C 48.07925 36.900077 46.092513 34.437672 44.388672 33.179688 C 45.069531 32.942997 45.534322 32.637705 45.970703 32.353516 C 46.507353 32.003909 46.653749 31.853061 47.496094 31.710938 C 47.6557 32.101259 47.921704 32.451936 48.287109 32.710938 C 48.314149 32.732658 48.344959 32.749003 48.394531 32.783203 C 48.762937 33.017178 49.186214 33.140625 49.621094 33.140625 C 50.415744 33.140625 51.143468 32.73766 51.564453 32.066406 C 51.893051 31.547969 52.000507 30.930977 51.867188 30.330078 C 51.732739 29.727658 51.371991 29.212605 50.849609 28.880859 C 50.481578 28.648511 50.057551 28.525391 49.623047 28.525391 C 49.576107 28.525391 49.529365 28.52885 49.482422 28.53125 C 49.215788 27.341124 49.825322 24.886276 50.183594 23.568359 C 50.225674 23.572459 50.268485 23.578125 50.310547 23.578125 C 51.105197 23.578125 51.832921 23.177602 52.253906 22.505859 C 52.582504 21.987422 52.688008 21.370811 52.554688 20.769531 C 52.420239 20.166733 52.059491 19.652057 51.537109 19.320312 C 51.169078 19.087965 50.74505 18.964844 50.310547 18.964844 z M 50.310547 20.476562 C 50.460388 20.476562 50.608573 20.518402 50.734375 20.597656 C 50.914637 20.712206 51.039369 20.890064 51.085938 21.099609 C 51.131737 21.305357 51.094349 21.517034 50.980469 21.697266 C 50.755897 22.055558 50.252498 22.176791 49.886719 21.943359 L 49.851562 21.921875 C 49.50681 21.678129 49.416129 21.206926 49.642578 20.847656 L 49.642578 20.845703 C 49.788288 20.614442 50.036776 20.476562 50.310547 20.476562 z M 22.037109 23.679688 C 22.087658 23.670791 22.196129 23.724958 22.257812 23.736328 C 22.984113 23.872048 23.464523 24.575592 23.330078 25.304688 C 23.196756 26.022471 22.48742 26.513935 21.765625 26.380859 C 21.038572 26.245139 20.560493 25.543546 20.695312 24.814453 C 20.813613 24.177721 21.365708 23.712891 22.009766 23.712891 C 22.009766 23.692061 22.02026 23.682653 22.037109 23.679688 z M 41.632812 24.832031 C 41.783031 24.832031 41.931961 24.872378 42.056641 24.951172 C 42.149301 25.010262 42.224313 25.086581 42.283203 25.171875 C 42.342093 25.257165 42.383803 25.353507 42.40625 25.453125 C 42.45052 25.652701 42.419694 25.867453 42.302734 26.052734 C 42.15552 26.285624 41.903802 26.423828 41.628906 26.423828 C 41.479816 26.423828 41.334339 26.382545 41.207031 26.302734 C 41.114641 26.243924 41.037189 26.165372 40.978516 26.080078 C 40.920346 25.995498 40.879867 25.901644 40.857422 25.802734 C 40.857422 25.802734 40.857422 25.800781 40.857422 25.800781 C 40.835102 25.700951 40.832979 25.596547 40.849609 25.494141 C 40.866279 25.391742 40.900691 25.292241 40.958984 25.199219 C 41.022454 25.098792 41.108488 25.015773 41.212891 24.951172 C 41.338702 24.873132 41.48297 24.832031 41.632812 24.832031 z M 49.623047 30.037109 C 49.772888 30.037109 49.91912 30.080901 50.044922 30.160156 C 50.225183 30.274706 50.349916 30.451153 50.396484 30.660156 C 50.442284 30.865902 50.406849 31.077744 50.292969 31.257812 C 50.068397 31.616104 49.564999 31.737338 49.199219 31.503906 L 49.164062 31.482422 C 48.819311 31.238674 48.726676 30.767472 48.953125 30.408203 L 48.953125 30.40625 C 49.098835 30.17499 49.349277 30.037109 49.623047 30.037109 z M 39.6875 36.015625 C 38.881584 36.015625 38.125989 36.445974 37.712891 37.140625 C 37.398185 37.670463 37.306437 38.290759 37.457031 38.888672 C 37.588851 39.413624 37.893395 39.865367 38.322266 40.181641 C 36.800189 43.656747 34.393287 45.612098 33.136719 46.216797 C 33.088649 46.233077 33.044013 46.25574 33.001953 46.28125 C 32.556183 46.481569 32.191152 46.546852 32 46.585938 L 32 48.09375 C 32.103278 48.08287 32.747732 48.050595 33.634766 47.644531 C 35.643172 47.133151 36.204117 47.509521 36.792969 47.910156 C 37.176397 48.170732 37.652006 48.496667 38.392578 48.535156 C 38.430108 48.537056 38.470329 48.537109 38.509766 48.537109 C 39.301786 48.537109 42.196245 47.617621 42.890625 47.353516 C 43.320248 47.774238 43.893798 48.011719 44.498047 48.011719 C 45.046716 48.011719 45.578414 47.815865 45.994141 47.457031 C 46.459817 47.056395 46.744073 46.497284 46.791016 45.882812 C 46.837966 45.267961 46.642141 44.669827 46.242188 44.203125 C 45.804679 43.690659 45.17027 43.396484 44.498047 43.396484 C 43.950129 43.396484 43.418055 43.59646 43.001953 43.955078 C 42.396576 44.476229 42.128997 45.246399 42.21875 45.988281 C 41.487192 46.252113 38.874487 47.03983 38.472656 47.027344 C 38.164336 47.011064 37.984923 46.896309 37.638672 46.660156 C 37.198537 46.360494 37.306316 46.089163 36.65625 45.962891 C 37.758846 44.921999 38.802508 42.888427 39.769531 40.625 C 40.543527 40.59786 41.263282 40.174291 41.662109 39.503906 C 42.309922 38.412146 41.953182 36.99389 40.865234 36.339844 C 40.508844 36.127041 40.101349 36.015625 39.6875 36.015625 z M 39.6875 37.527344 C 39.82946 37.527344 39.969369 37.564848 40.091797 37.638672 C 40.467341 37.865047 40.592968 38.353882 40.369141 38.730469 C 40.224557 38.974215 39.968331 39.121094 39.685547 39.121094 C 39.543211 39.121094 39.40285 39.081322 39.279297 39.005859 C 39.097912 38.897283 38.969792 38.72582 38.917969 38.519531 C 38.866159 38.313241 38.895746 38.097279 39.003906 37.914062 C 39.148865 37.670859 39.404715 37.527344 39.6875 37.527344 z M 49.623047 39.917969 C 49.772888 39.917969 49.91912 39.961761 50.044922 40.041016 C 50.225183 40.155566 50.349916 40.333422 50.396484 40.542969 C 50.442284 40.749259 50.404896 40.95844 50.291016 41.138672 C 50.066444 41.496964 49.563046 41.618198 49.197266 41.384766 L 49.162109 41.363281 C 48.817357 41.119534 48.726676 40.648711 48.953125 40.289062 L 48.953125 40.287109 C 49.098835 40.055849 49.349277 39.917969 49.623047 39.917969 z M 44.498047 44.908203 C 44.729759 44.908203 44.947889 45.009982 45.099609 45.1875 C 45.237814 45.349817 45.305209 45.553852 45.289062 45.765625 C 45.272903 45.977345 45.175152 46.16962 45.013672 46.308594 L 45.013672 46.310547 C 44.829652 46.469064 44.631362 46.501953 44.498047 46.501953 C 44.264832 46.501953 44.045123 46.399956 43.894531 46.224609 C 43.609871 45.891289 43.650067 45.387705 43.982422 45.101562 C 44.167187 44.941961 44.364734 44.908203 44.498047 44.908203 z"/>
 <path style="fill:#8b9cbe;opacity:0.2" d="M 32.154297 3 L 32.154297 3.0019531 C 32.100493 3.0006323 32.052179 3.019938 32 3.0253906 L 32 3.0058594 A 6.5948653 6.5944523 0 0 0 28.701172 3.8808594 L 9.2988281 15.083984 A 6.5948653 6.5944523 0 0 0 6 20.796875 L 6 21.796875 A 6.5948653 6.5944523 0 0 1 9.2988281 16.083984 L 28.701172 4.8808594 A 6.5948653 6.5944523 0 0 1 32 4.0058594 L 32 4.0253906 C 32.052179 4.019938 32.100493 4.0006354 32.154297 4.0019531 L 32.154297 4 C 33.25915 4.0256354 34.34158 4.3285958 35.298828 4.8808594 L 54.701172 16.083984 C 56.742219 17.262058 58.000335 19.440352 58 21.796875 L 58 20.796875 C 58.000335 18.440352 56.742219 16.262058 54.701172 15.083984 L 35.298828 3.8808594 C 34.34158 3.3285958 33.25915 3.0256354 32.154297 3 z"/>
</svg>
