<svg xmlns="http://www.w3.org/2000/svg" width="64" height="64" version="1">
 <path style="opacity:0.2" d="M 6.8,5 C 5.2488,5 4,6.2488 4,7.8 v 35.727344 c 0,2.072594 -6.556e-4,2.072002 1.2195314,3.43164 L 18.133984,59.873436 C 19.400724,61.000726 19.399922,61 21.286718,61 H 32 57.2 C 58.7512,61 60,59.7512 60,58.2 V 22.472656 c 0,-2.072594 6.54e-4,-2.072002 -1.219532,-3.43164 L 45.866016,6.1265624 C 44.599276,4.9992748 44.600078,5 42.713282,5 H 32 Z"/>
 <path style="fill:#b81c42" d="M 6.8,4 C 5.2488,4 4,5.2488 4,6.8 v 35.727344 c 0,2.072594 -6.556e-4,2.072002 1.2195314,3.43164 L 18.133984,58.873436 C 19.400724,60.000726 19.399922,60 21.286718,60 H 32 57.2 C 58.7512,60 60,58.7512 60,57.2 V 21.472656 c 0,-2.072594 6.54e-4,-2.072001 -1.219532,-3.43164 L 45.866016,5.1265624 C 44.599276,3.9992748 44.600078,4 42.713282,4 H 32 Z"/>
 <path style="opacity:0.2" d="M 32,23 A 10,10 0 0 0 22,33 10,10 0 0 0 32,43 10,10 0 0 0 42,33 10,10 0 0 0 32,23 Z m 0,2.857144 A 7.1428572,7.1428572 0 0 1 39.142858,33 7.1428572,7.1428572 0 0 1 32,40.142858 7.1428572,7.1428572 0 0 1 24.857144,33 7.1428572,7.1428572 0 0 1 32,25.857144 Z"/>
 <path style="fill:#8b9cbe" d="M 32,22 A 10,10 0 0 0 22,32 10,10 0 0 0 32,42 10,10 0 0 0 42,32 10,10 0 0 0 32,22 Z m 0,2.857144 A 7.1428572,7.1428572 0 0 1 39.142858,32 7.1428572,7.1428572 0 0 1 32,39.142858 7.1428572,7.1428572 0 0 1 24.857144,32 7.1428572,7.1428572 0 0 1 32,24.857144 Z"/>
 <path style="opacity:0.2" d="M 31.399928,12.867273 C 24.56475,13.18951 19.185385,18.806748 19.147272,25.64185 c -1.221005,0.605134 -2.374164,1.391722 -3.39111,2.408664 -4.775102,4.786642 -5.028954,12.452792 -0.580536,17.544464 -2.781397,-3.409318 -2.53038,-8.370766 0.580536,-11.48233 3.348381,-3.348382 8.775884,-3.348378 12.124266,0 3.348382,3.348384 3.348382,8.775886 0,12.124268 C 24.698142,49.418522 19.5987,49.599222 16.199937,46.64999 20.64392,50.693822 27.181408,51.061086 32,47.83618 c 4.81859,3.224906 11.356078,2.857642 15.800062,-1.18619 -3.398766,2.949232 -8.498208,2.768534 -11.680492,-0.413074 -3.34838,-3.348382 -3.34838,-8.775884 0,-12.124268 3.348382,-3.348378 8.775886,-3.348382 12.124266,0 3.110916,3.111564 3.361934,8.073012 0.580536,11.48233 4.44842,-5.091672 4.194568,-12.757822 -0.580536,-17.544464 -1.01373,-1.01373 -2.163276,-1.798564 -3.379944,-2.403082 -0.03862,-6.73461 -5.266946,-12.304312 -11.993088,-12.757831 4.377494,0.444006 7.70839,4.129455 7.708846,8.529411 0,4.735324 -3.838742,8.574066 -8.57407,8.574066 -4.735324,0 -8.574066,-3.838742 -8.574066,-8.574066 4.78e-4,-4.499953 3.479702,-8.233872 7.968414,-8.551739 z m 0.605652,18.554817 2.143518,2.143516 -2.143518,2.143516 -2.143516,-2.143516 z"/>
 <path style="fill:#8b9cbe" d="M 31.399928,11.867273 C 24.56475,12.18951 19.185385,17.806747 19.147272,24.64185 c -1.221005,0.605134 -2.374164,1.391722 -3.39111,2.408664 -4.775102,4.786642 -5.028954,12.452792 -0.580536,17.544464 -2.781397,-3.409318 -2.53038,-8.370766 0.580536,-11.48233 3.348381,-3.348382 8.775884,-3.348378 12.124266,0 3.348382,3.348384 3.348382,8.775886 0,12.124268 C 24.698142,48.418522 19.5987,48.599222 16.199937,45.64999 20.64392,49.693822 27.181408,50.061086 32,46.83618 c 4.81859,3.224906 11.356078,2.857642 15.800062,-1.18619 -3.398766,2.949232 -8.498208,2.768534 -11.680492,-0.413074 -3.34838,-3.348382 -3.34838,-8.775884 0,-12.124268 3.348382,-3.348378 8.775886,-3.348382 12.124266,0 3.110916,3.111564 3.361934,8.073012 0.580536,11.48233 4.44842,-5.091672 4.194568,-12.757822 -0.580536,-17.544464 -1.01373,-1.01373 -2.163276,-1.798564 -3.379944,-2.403082 -0.03862,-6.734611 -5.266946,-12.304312 -11.993088,-12.757831 4.377494,0.444006 7.70839,4.129455 7.708846,8.529411 0,4.735324 -3.838742,8.574066 -8.57407,8.574066 -4.735324,0 -8.574066,-3.838742 -8.574066,-8.574066 4.78e-4,-4.499953 3.479702,-8.233872 7.968414,-8.551739 z m 0.605652,18.554817 2.143518,2.143516 -2.143518,2.143516 -2.143516,-2.143516 z"/>
 <path style="opacity:0.2;fill:#8b9cbe" d="M 6.8007812 4 C 5.2495812 4 4 5.2495812 4 6.8007812 L 4 7.8007812 C 4 6.2495812 5.2495812 5 6.8007812 5 L 32 5 L 42.714844 5 C 44.60164 5 44.600448 4.9977124 45.867188 6.125 L 58.78125 19.042969 C 60.0014 20.402607 60 20.400062 60 22.472656 L 60 21.472656 C 60 19.400062 60.0014 19.402607 58.78125 18.042969 L 45.867188 5.125 C 44.600448 3.9977124 44.60164 4 42.714844 4 L 32 4 L 6.8007812 4 z"/>
</svg>
