<svg xmlns="http://www.w3.org/2000/svg" width="64" height="64" version="1">
 <path style="opacity:0.2" d="M 32,18 4.953125,36.660156 c -1.2691976,1.019902 -1.2691976,2.659784 0,3.679688 L 29.707032,60.234376 C 30.341632,60.744328 31.171816,61 32,61 c 0.828184,0 1.658368,-0.255672 2.292968,-0.765624 L 59.046876,40.339844 c 1.269198,-1.019904 1.269196,-2.659786 0,-3.679688 z"/>
 <path style="fill:#145b7f" d="M 14.124955,4.807095 32,17.000173 V 57.199688 C 29.950096,47.529556 24.90383,40.362376 14.23623,37.89087 12.012206,37.595776 12,37.41208 12,35.196572 V 5.4468012 C 12,3.450229 12.350692,3.8061744 14.124955,4.807095 Z"/>
 <path style="fill:#1a7f63" d="M 49.875046,4.807095 32,17.000173 V 57.199688 C 34.049906,47.529556 39.09617,40.362376 49.76377,37.89087 51.987794,37.595776 52,37.41208 52,35.196572 V 5.4468012 C 52,3.450229 51.649308,3.8061744 49.875046,4.807095 Z"/>
 <path style="opacity:0.1;fill:#8b9cbe" d="M 51.603516 4.0019531 C 51.294048 3.9672299 50.762131 4.3081335 49.875 4.8085938 L 32 17 L 14.125 4.8085938 C 13.237869 4.3081334 12.707892 3.9684362 12.398438 4.0039062 C 12.088981 4.0393764 12 4.4470265 12 5.4453125 L 12 6.4453125 C 12 5.4470265 12.088981 5.0393764 12.398438 5.0039062 C 12.707892 4.9684362 13.237869 5.3081334 14.125 5.8085938 L 32 18 L 49.875 5.8085938 C 51.649262 4.8076732 52 4.4487403 52 6.4453125 L 52 5.4453125 C 52 4.4470264 51.912983 4.0366763 51.603516 4.0019531 z"/>
 <path style="fill:#1ea782" d="m 32,16.999827 v 42.999827 c 0.828184,0 1.656778,-0.256346 2.291378,-0.766298 L 59.048102,39.339864 c 1.269198,-1.019904 1.269198,-2.660518 0,-3.68042 z"/>
 <path style="fill:#0072c1" d="m 32,16.999827 v 42.999827 c -0.828184,0 -1.656778,-0.256346 -2.291378,-0.766298 L 4.9518982,39.339864 c -1.2691976,-1.019904 -1.2691976,-2.660518 0,-3.68042 z"/>
 <path style="opacity:0.3;fill:#8b9cbe" d="M 32,17 12,30.796876 v 4.398436 c 0,2.215508 0.01036,2.40022 2.234375,2.695312 C 24.901974,40.362134 29.950096,47.529086 32,57.199218 34.049906,47.529086 39.098026,40.36213 49.765624,37.890624 51.98965,37.59553 52,37.41082 52,35.195312 v -4.398436 z"/>
 <path style="opacity:0.2;fill:#8b9cbe" d="M 32 17 L 4.953125 35.660156 C 4.1626661 36.295354 3.8736994 37.168342 4.0683594 37.984375 C 4.189777 37.500314 4.4832131 37.037768 4.953125 36.660156 L 32 18 L 59.046875 36.660156 C 59.516786 37.037768 59.810223 37.500314 59.931641 37.984375 C 60.1263 37.168342 59.837333 36.295354 59.046875 35.660156 L 32 17 z"/>
 <path style="opacity:0.2" d="M 26.5,24 C 25.668998,24 25,24.669002 25,25.5 25,26.331002 25.668998,27 26.5,27 27.330998,27 28,26.331002 28,25.5 28,24.669002 27.330998,24 26.5,24 Z m 9.222656,1 -3.324218,3.199218 L 37.386718,33 32.398438,37.800782 35.722656,41 40.710938,36.199218 44.035156,33 40.710938,29.800782 Z M 22,33 c -1.107992,0 -2,0.891992 -2,2 0,1.107992 0.892008,2 2,2 1.108008,0 2,-0.892008 2,-2 0,-1.108008 -0.891992,-2 -2,-2 z m 7,8 c -1.661998,0 -3,1.337998 -3,3 0,1.661998 1.338002,3 3,3 1.662002,0 3,-1.338002 3,-3 0,-1.662002 -1.337998,-3 -3,-3 z"/>
 <path style="fill:#8b9cbe" d="M 26.5,23 C 25.668998,23 25,23.669002 25,24.5 25,25.331002 25.668998,26 26.5,26 27.330998,26 28,25.331002 28,24.5 28,23.669002 27.330998,23 26.5,23 Z m 9.222656,1 -3.324218,3.199218 L 37.386718,32 32.398438,36.800782 35.722656,40 40.710938,35.199218 44.035156,32 40.710938,28.800782 Z M 22,32 c -1.107992,0 -2,0.891992 -2,2 0,1.107992 0.892008,2 2,2 1.108008,0 2,-0.892008 2,-2 0,-1.108008 -0.891992,-2 -2,-2 z m 7,8 c -1.661998,0 -3,1.337998 -3,3 0,1.661998 1.338002,3 3,3 1.662002,0 3,-1.338002 3,-3 0,-1.662002 -1.337998,-3 -3,-3 z"/>
</svg>
