<svg xmlns="http://www.w3.org/2000/svg" width="64" height="64" version="1">
 <rect style="opacity:0.2" width="56" height="56" x="4" y="5" rx="2.8" ry="2.8"/>
 <rect style="fill:#17191e" width="56" height="56" x="4" y="4" rx="2.8" ry="2.8"/>
 <path style="opacity:0.2;fill:none;stroke:#000000;stroke-width:1.5" d="m 12,32.3 h 20.839341 l -9.87988,-14.55 h 3.503602 L 37.183784,33 26.357958,48.25 h 3.573574 L 40.547147,33 30.036637,17.75 h 3.468468 L 43.910511,33 33.505105,48.25 h 3.363363 L 46.924,33.75 H 52"/>
 <path style="fill:none;stroke:#ffb81b;stroke-width:1.5" d="m 12,31.3 h 20.839341 l -9.87988,-14.55 h 3.503602 L 37.183784,32 26.357958,47.25 h 3.573574 L 40.547147,32 30.036637,16.75 h 3.468468 L 43.910511,32 33.505105,47.25 h 3.363363 L 46.924,32.75 H 52"/>
 <path style="fill:#8b9cbe;opacity:0.1" d="M 6.8007812 4 C 5.2495813 4 4 5.2495813 4 6.8007812 L 4 7.8007812 C 4 6.2495813 5.2495813 5 6.8007812 5 L 57.199219 5 C 58.750419 5 60 6.2495813 60 7.8007812 L 60 6.8007812 C 60 5.2495813 58.750419 4 57.199219 4 L 6.8007812 4 z"/>
</svg>
