<svg xmlns="http://www.w3.org/2000/svg" width="64" height="64" version="1">
 <path style="opacity:0.2" d="m 32,4.9999993 a 14,14 0 0 0 -14,13.9999997 14,14 0 0 0 14,14 14,14 0 0 0 14,-14 A 14,14 0 0 0 32,4.9999993 Z m 0,5.9999997 a 8,8 0 0 1 8,8 8,8 0 0 1 -8,8 8,8 0 0 1 -8,-8 8,8 0 0 1 8,-8 z"/>
 <path style="opacity:0.2" d="m 7.0032363,17.000005 c 0.012847,10.23001 -0.025772,20.460777 0.01944,30.690311 0.2090682,6.588688 6.0511887,12.485214 13.0627907,13.183708 4.520219,0.234101 9.058891,0.05711 13.587068,0.112214 3.538937,-0.06333 7.093512,0.151072 10.619083,-0.160947 6.993378,-0.864565 12.674567,-6.901334 12.70267,-13.495624 0.01139,-10.109831 0.0017,-20.219788 0.0049,-30.329667 -16.66531,0 -33.330622,0 -49.9959306,0 z"/>
 <path style="fill:#ec770b" d="M 32 4 A 14 14 0 0 0 18 18 A 14 14 0 0 0 32 32 A 14 14 0 0 0 46 18 A 14 14 0 0 0 32 4 z M 32 10 A 8 8 0 0 1 40 18 A 8 8 0 0 1 32 26 A 8 8 0 0 1 24 18 A 8 8 0 0 1 32 10 z"/>
 <path style="opacity:0.2;fill:#8b9cbe" d="M 32 4 A 14 14 0 0 0 18 18 A 14 14 0 0 0 18.021484 18.414062 A 14 14 0 0 1 32 5 A 14 14 0 0 1 45.978516 18.585938 A 14 14 0 0 0 46 18 A 14 14 0 0 0 32 4 z M 39.978516 18.423828 A 8 8 0 0 1 32 26 A 8 8 0 0 1 24.021484 18.576172 A 8 8 0 0 0 24 19 A 8 8 0 0 0 32 27 A 8 8 0 0 0 40 19 A 8 8 0 0 0 39.978516 18.423828 z"/>
 <path style="fill:#ffa123" d="m 7.0032363,16.000006 c 0.012847,10.23001 -0.025772,20.460777 0.01944,30.690311 0.2090682,6.588688 6.0511887,12.485214 13.0627907,13.183708 4.520219,0.234101 9.058891,0.05711 13.587068,0.112214 3.538937,-0.06333 7.093512,0.151072 10.619083,-0.160947 6.993378,-0.864565 12.674567,-6.901334 12.70267,-13.495624 0.01139,-10.109831 0.0017,-20.219788 0.0049,-30.329667 -16.66531,0 -33.330622,0 -49.9959306,0 z"/>
 <path style="opacity:0.2" d="m 32.185547,25.003561 c -0.57747,0.01526 -1.164583,0.08835 -1.751953,0.222656 -1.903328,0.426967 -3.839018,0.92319 -5.556641,1.359376 -1.566769,0.323102 -3.113261,2.035634 -2.847656,3.435546 l 5.1875,23.054688 c 0.320371,1.424442 1.930808,2.234349 3.611328,1.8125 1.680518,-0.421848 2.777406,-1.90759 2.457031,-3.332031 l -1.912109,-8.488282 c 0.890387,-0.243204 1.885277,-0.472164 2.736328,-0.634765 4.753976,-1.192556 7.741071,-6.004996 6.673828,-10.748047 -0.923141,-4.082613 -4.555368,-6.788419 -8.597656,-6.681641 z m 0.265625,4.998047 a 3.2680243,3.9784453 78.314213 0 1 3.472656,2.400391 3.2680243,3.9784453 78.314213 0 1 -3.103516,4.076172 3.2680243,3.9784453 78.314213 0 1 -0.06641,0.0098 L 30.546875,36.999655 29,30.648093 31.271484,30.124655 a 3.2680243,3.9784453 78.314213 0 1 1.179688,-0.123047 z"/>
 <path style="fill:#8b9cbe" d="M 32.185547 24.003906 C 31.608077 24.019166 31.020964 24.092252 30.433594 24.226562 C 28.530266 24.653529 26.594576 25.149752 24.876953 25.585938 C 23.310184 25.90904 21.763692 27.621572 22.029297 29.021484 L 27.216797 52.076172 C 27.537168 53.500614 29.147605 54.310521 30.828125 53.888672 C 32.508643 53.466824 33.605531 51.981082 33.285156 50.556641 L 31.373047 42.068359 C 32.263434 41.825155 33.258324 41.596195 34.109375 41.433594 C 38.863351 40.241038 41.850446 35.428598 40.783203 30.685547 C 39.860062 26.602934 36.227835 23.897128 32.185547 24.003906 z M 32.451172 29.001953 A 3.2680243 3.9784453 78.314213 0 1 35.923828 31.402344 A 3.2680243 3.9784453 78.314213 0 1 32.820312 35.478516 A 3.2680243 3.9784453 78.314213 0 1 32.753906 35.488281 L 30.546875 36 L 29 29.648438 L 31.271484 29.125 A 3.2680243 3.9784453 78.314213 0 1 32.451172 29.001953 z"/>
 <rect style="opacity:0.2;fill:#8b9cbe" width="50" height="1" x="7" y="16"/>
</svg>
