<svg xmlns="http://www.w3.org/2000/svg" width="64" height="64" version="1.1">
 <rect style="fill:#ee4056" width="56" height="56" x="4" y="4" rx="4.2" ry="4.2"/>
 <path style="opacity:0.2" d="m 17.9258,17.000292 c -2.1748,0 -3.9258,1.804025 -3.9258,4.043057 0,16.598038 2.9474,28.018401 18,27.9564 15.0526,-0.06 18,-11.373562 18,-27.9564 0,-2.239032 -1.75104,-4.043057 -3.9258,-4.043057 l -28.148,0 z m 5.6562,9.10173 c 0.62752,0 1.25648,0.246203 1.73828,0.73441 l 6.6796,6.769497 6.6796,-6.769497 c 0.48178,-0.488207 1.1017,-0.72661 1.73048,-0.72661 0.62876,0 1.26432,0.238403 1.74608,0.72661 0.96362,0.976214 0.96362,2.562837 0,3.539051 l -8.2304,8.336119 c -0.52918,0.536008 -1.23674,0.755811 -1.92578,0.70301 -0.68906,0.052 -1.3966,-0.166002 -1.92578,-0.70301 l -8.2304,-8.336119 c -0.9636,-0.976214 -0.9636,-2.562837 0,-3.539051 0.4818,-0.488207 1.11078,-0.73441 1.73828,-0.73441 z"/>
 <path style="fill:#8b9cbe" d="m 17.9258,16.000689 c -2.1748,0 -3.9258,1.804226 -3.9258,4.043058 0,16.598037 2.9474,28.0184 18,27.9564 15.0526,-0.06 18,-11.373363 18,-27.9564 0,-2.238832 -1.75104,-4.043058 -3.9258,-4.043058 l -28.148,0 z m 5.6562,8.917836 c 0.62752,0 1.25648,0.430098 1.73828,0.918305 l 6.68,6.600094 6.68,-6.800097 c 0.48178,-0.488207 1.1017,-0.726611 1.73048,-0.726611 0.62876,0 1.26432,0.238404 1.74608,0.726611 0.96362,0.976214 0.96362,2.562836 0,3.53905 l -8.2304,8.33612 c -0.52918,0.536007 -1.23674,0.75581 -1.92578,0.70301 -0.68906,0.052 -1.3966,-0.166003 -1.92578,-0.70301 l -8.2304,-8.33612 c -0.9636,-0.976214 -0.9636,-2.562836 0,-3.53905 0.4818,-0.488207 1.11078,-0.718302 1.73828,-0.718302 z"/>
 <path style="opacity:0.2;fill:#8b9cbe" d="M 8.1992188 4 C 5.8724353 4 4 5.7418399 4 8.0644531 L 4 9.0644531 C 4 6.7418399 5.8724353 5 8.1992188 5 L 55.800781 5 C 58.127544 5 60 6.8126789 60 9.0644531 L 60 8.0644531 C 60 5.8126789 58.127544 4 55.800781 4 L 8.1992188 4 z"/>
 <path style="opacity:0.2" d="m 4,55.935547 0,1 C 4,59.064609 5.8716687,61 8.1992188,61 L 55.800781,61 C 58.127511,61 60,59.187321 60,56.935547 l 0,-1 C 60,58.187321 58.127511,60 55.800781,60 L 8.1992188,60 C 5.8716687,60 4,58.064609 4,55.935547 Z"/>
</svg>
