<svg xmlns="http://www.w3.org/2000/svg" width="64" height="64" version="1.1">
 <circle style="opacity:0.2" cx="32.5" cy="32.5" r="28.5"/>
 <circle style="fill:#ffa521" cx="32.5" cy="31.5" r="28.5"/>
 <path style="opacity:0.1" d="M 32.5,11.99985 A 8.5,8.4 0 0 0 24,20.400241 V 31.599459 A 8.5,8.4 0 0 0 32.5,39.99985 8.5,8.4 0 0 0 41,31.599459 V 20.400241 A 8.5,8.4 0 0 0 32.5,11.99985 Z M 18.480469,28.931491 a 1.4999273,1.4999273 0 0 0 -1.4375,1.408203 c -0.43509,5.786514 2.405585,11.338189 7.351562,14.373047 2.041931,1.252931 4.304464,1.981841 6.605469,2.205078 v 4.082031 h -5.5 a 1.50015,1.50015 0 1 0 0,3 h 14 a 1.50015,1.50015 0 1 0 0,-3 H 34 v -4.082031 c 2.274587,-0.221036 4.512396,-0.936244 6.537109,-2.164063 4.9618,-3.008919 7.830568,-8.545271 7.425782,-14.333984 a 1.4999273,1.4999273 0 1 0 -2.992188,0.208984 c 0.326831,4.673893 -1.982051,9.131101 -5.988281,11.560547 -4.00623,2.429446 -9.026076,2.417183 -13.019531,-0.0332 -3.993455,-2.450389 -6.279033,-6.91968 -5.927735,-11.591797 a 1.4999273,1.4999273 0 0 0 -1.554687,-1.632812 z"/>
 <path style="fill:none;stroke:#17191e;stroke-width:2.99955463;stroke-linecap:round;stroke-linejoin:round" d="M 46.466016,29.524759 A 14.000115,14.000115 0 0 1 39.759408,42.472335 14.000115,14.000115 0 0 1 25.17802,42.434161 14.000115,14.000115 0 0 1 18.539297,29.451647"/>
 <rect style="fill:#17191e" width="3" height="7.125" x="31" y="44.33"/>
 <path style="fill:none;stroke:#17191e;stroke-width:3;stroke-linecap:round;stroke-linejoin:round" d="m 25.5,51.49985 h 14"/>
 <path style="fill:#8b9cbe" d="m 32,17 c -4.69442,0 -5,-0.639192 -5,4 l -3,9.6 c 0,4.639192 3.80558,8.4 8.5,8.4 4.69442,0 8.5,-3.760808 8.5,-8.4 V 19.4 C 41,14.760808 36.69442,17 32,17 Z"/>
 <path style="fill:#ff5f06" d="M 41,19.5 A 8.5,8.5 0 0 1 32.5,28 8.5,8.5 0 0 1 24,19.5 8.5,8.5 0 0 1 32.5,11 8.5,8.5 0 0 1 41,19.5 Z"/>
 <rect style="fill:#ff5f06" width="8" height="15.2" x="24" y="17.8" rx="2.667" ry="2.764"/>
 <path style="fill:#8b9cbe;opacity:0.2" d="M 32.5 3 A 28.5 28.5 0 0 0 4 31.5 A 28.5 28.5 0 0 0 4.0214844 32.082031 A 28.5 28.5 0 0 1 32.5 4 A 28.5 28.5 0 0 1 60.978516 31.917969 A 28.5 28.5 0 0 0 61 31.5 A 28.5 28.5 0 0 0 32.5 3 z"/>
</svg>
