<svg xmlns="http://www.w3.org/2000/svg" width="64" height="64" x="0" y="0" version="1.1" xml:space="preserve">
 <path style="opacity:0.2" d="m 44.423102,4.9999998 c -0.0146,0 -1.182742,0.5214254 -2.594874,1.1509214 -2.656454,1.1973342 -3.521604,1.7040654 -5.434254,3.1773914 -2.23142,1.7193694 -3.20285,3.3465234 -6.527046,10.8987134 -0.956322,2.16448 -1.745426,3.914424 -1.775618,3.883886 -0.10624,-0.10746 0.318706,-2.532668 0.728642,-4.144578 0.227614,-0.936609 0.743798,-2.563827 1.12296,-3.653701 0.37974,-1.074605 0.637544,-1.949514 0.56148,-1.949514 -0.318776,0 -2.367784,0.982428 -3.521526,1.672995 -2.535098,1.550251 -5.692082,4.40588 -7.301051,6.616162 -3.779424,5.219182 -5.479589,9.640366 -6.496881,16.886028 l -0.42505,2.993544 -0.0151,-1.412188 c -0.03019,-2.747586 0.273543,-5.188728 1.047542,-8.658 0.425032,-1.826832 0.75881,-3.377002 0.75881,-3.438658 0,-0.06166 -0.470256,0.399292 -1.062515,1.0282 -1.820904,1.93488 -3.7658569,4.91322 -4.4643739,7.507542 -0.3187744,1.2126 -0.5312634,3.976084 -0.3640374,5.0043 0.076066,0.475644 0.121374,0.890174 0.09118,0.936564 -0.030194,0.03054 -0.134424,-0.12272 -0.559458,-0.33765 -0.4250326,-0.230188 -0.774005,-0.35296 -0.774005,-0.291888 0,0.07694 0.2125072,0.844478 0.4552172,1.734696 0.2427096,0.89022 0.455217,1.611852 0.455217,1.627118 0,0 -0.3467562,-0.07684 -1.1207568,-0.19956 -0.7589036,-0.10746 -1.4115538,-0.1692 -1.4417474,-0.1381 -0.045292,0.0458 0.3036956,0.537306 0.758922,1.120412 4.7609293,4.185362 2.4439564,3.209668 6.4029303,4.004006 0.03019,0.04638 0.667773,0.230194 1.411581,0.445116 0.743808,0.19966 1.8365,0.53722 2.413081,0.75214 L 17.815005,52.6 l -0.835018,-0.752256 -0.834338,-0.752256 3.794497,-0.0152 3.794496,-0.0152 -2.12514,-0.859722 c -1.619523,-0.518602 -2.827476,-0.666008 -4.106704,-1.652946 -0.536847,-0.485106 -0.0081,-0.460112 2.042576,-0.460112 4.508134,0 9.04646,-1.492182 13.964528,-3.733 2.307486,-1.044072 4.523188,-2.302466 4.356544,-2.471584 -0.04586,-0.0458 -0.637534,-0.13802 -1.336052,-0.214934 -1.381356,-0.138 -3.76433,-0.614258 -3.76433,-0.752254 0,-0.0458 1.051144,-0.466352 2.322014,-0.98244 6.320074,-3.235642 10.343218,-5.859817 14.806472,-9.892361 1.168392,-1.104672 2.167076,-2.187378 2.103698,-2.25147 -0.0152,-0.03054 -0.622464,0.09228 -1.320402,0.245552 -3.202842,0.705834 -8.667314,1.13567 -11.399252,0.905484 -1.396454,-0.12272 -3.354448,-0.583106 -4.37174,-1.012948 -0.622452,-0.276578 -0.546366,-0.876139 4.189382,-0.876139 4.37168,0 5.00926,-0.0458 6.724488,-0.352902 2.504324,-0.460376 4.174298,-0.997744 5.843654,-1.842164 2.71684,-1.366451 4.29558,-1.924728 6.466032,-4.473247 1.336068,-1.565519 1.685066,-2.072233 2.079324,-3.085178 0.819872,-2.118678 1.00151,-3.248654 0.546284,-5.458938 C 60.300802,9.6487919 58.722034,8.5823176 55.883256,7.5077116 50.477844,5.3576508 45.78588,6.6853866 42.920342,10.271184 c -0.850066,1.059339 -1.654832,1.206882 -1.776184,1.32961 -0.212518,0.214922 1.077674,-2.3640594 2.656452,-5.3418342 0.379742,-0.6905664 0.652686,-1.25896 0.622492,-1.25896 z"/>
 <path style="fill:#90725a" d="m 44.423102,3.9999998 c -0.0146,0 -1.182742,0.5214254 -2.594874,1.1509214 -2.656454,1.1973342 -3.521604,1.7040654 -5.434254,3.1773914 -2.23142,1.7193694 -3.20285,3.3465234 -6.527046,10.8987134 -0.956322,2.16448 -1.745426,3.914424 -1.775618,3.883886 -0.10624,-0.10746 0.318706,-2.532668 0.728642,-4.144578 0.227614,-0.936609 0.743798,-2.563827 1.12296,-3.653701 0.37974,-1.074605 0.637544,-1.949514 0.56148,-1.949514 -0.318776,0 -2.367784,0.982428 -3.521526,1.672995 -2.535098,1.550251 -5.692082,4.40588 -7.301051,6.616162 -3.779424,5.219182 -5.479589,9.640366 -6.496881,16.886028 l -0.42505,2.993544 -0.0151,-1.412188 c -0.03019,-2.747586 0.273543,-5.188728 1.047542,-8.658 0.425032,-1.826832 0.75881,-3.377002 0.75881,-3.438658 0,-0.06166 -0.470256,0.399292 -1.062515,1.0282 -1.820904,1.93488 -3.7658569,4.91322 -4.4643739,7.507542 -0.3187744,1.2126 -0.5312634,3.976084 -0.3640374,5.0043 0.076066,0.475644 0.121374,0.890174 0.09118,0.936564 -0.030194,0.03054 -0.134424,-0.12272 -0.559458,-0.33765 -0.4250326,-0.230188 -0.774005,-0.35296 -0.774005,-0.291888 0,0.07694 0.2125072,0.844478 0.4552172,1.734696 0.2427096,0.89022 0.455217,1.611852 0.455217,1.627118 0,0 -0.3467562,-0.07684 -1.1207568,-0.19956 -0.7589036,-0.10746 -1.4115538,-0.1692 -1.4417474,-0.1381 -0.045292,0.0458 0.3036956,0.537306 0.758922,1.120412 4.7609293,4.185362 2.4439564,3.209668 6.4029303,4.004006 0.03019,0.04638 0.667773,0.230194 1.411581,0.445116 0.743808,0.19966 1.8365,0.53722 2.413081,0.75214 L 17.815005,51.6 l -0.835018,-0.752256 -0.834338,-0.752256 3.794497,-0.0152 3.794496,-0.0152 -2.12514,-0.859722 c -1.619523,-0.518602 -2.827476,-0.666008 -4.106704,-1.652946 -0.536847,-0.485106 -0.0081,-0.460112 2.042576,-0.460112 4.508134,0 9.04646,-1.492182 13.964528,-3.733 2.307486,-1.044072 4.523188,-2.302466 4.356544,-2.471584 -0.04586,-0.0458 -0.637534,-0.13802 -1.336052,-0.214934 -1.381356,-0.138 -3.76433,-0.614258 -3.76433,-0.752254 0,-0.0458 1.051144,-0.466352 2.322014,-0.98244 6.320074,-3.235642 10.343218,-5.859817 14.806472,-9.892361 1.168392,-1.104672 2.167076,-2.187378 2.103698,-2.25147 -0.0152,-0.03054 -0.622464,0.09228 -1.320402,0.245552 -3.202842,0.705834 -8.667314,1.13567 -11.399252,0.905484 -1.396454,-0.12272 -3.354448,-0.583106 -4.37174,-1.012948 -0.622452,-0.276578 -0.546366,-0.876139 4.189382,-0.876139 4.37168,0 5.00926,-0.0458 6.724488,-0.352902 2.504324,-0.460376 4.174298,-0.997744 5.843654,-1.842164 2.71684,-1.366451 4.29558,-1.924728 6.466032,-4.473247 1.336068,-1.565519 1.685066,-2.072233 2.079324,-3.085178 0.819872,-2.118678 1.00151,-3.248654 0.546284,-5.458938 C 60.300802,8.6487919 58.722034,7.5823176 55.883256,6.5077116 50.477844,4.3576508 45.78588,5.6853866 42.920342,9.2711842 42.070276,10.330523 41.26551,10.478066 41.144158,10.600794 40.93164,10.815716 42.221832,8.2367346 43.80061,5.2589598 c 0.379742,-0.6905664 0.652686,-1.25896 0.622492,-1.25896 z"/>
 <path style="opacity:0.2" d="M 54.96103,10.293747 C 45.8393,11.863894 37.026764,18.492559 28.38309,27.484764 19.739417,36.476968 11.258569,47.902404 3,59.345702 V 61 H 5.2278645 C 19.71217,40.168832 35.459296,16.736742 54.96103,10.293747 Z"/>
 <path style="fill:#b2bfd9" d="M 54.96103,9.293747 C 45.8393,10.863894 37.026764,17.492559 28.38309,26.484764 19.739417,35.476968 11.258569,46.902404 3,58.345702 V 60 H 5.2278645 C 19.71217,39.168832 35.459296,15.736742 54.96103,9.293747 Z"/>
 <path style="fill:#8b9cbe;opacity:0.1" d="M 44.423828 4 C 44.409228 4 43.240257 4.5208946 41.828125 5.1503906 C 39.171671 6.3477248 38.307181 6.854799 36.394531 8.328125 C 34.163111 10.047494 33.191384 11.674373 29.867188 19.226562 C 29.030914 21.119333 28.411427 22.484707 28.226562 22.830078 C 28.111303 23.521272 28.04446 24.063448 28.091797 24.111328 C 28.121989 24.141866 28.910865 22.391043 29.867188 20.226562 C 33.191384 12.674373 34.163111 11.047494 36.394531 9.328125 C 38.307181 7.854799 39.171671 7.3477248 41.828125 6.1503906 C 42.894942 5.6748281 43.392917 5.4552304 43.789062 5.28125 C 43.793494 5.2728893 43.796345 5.2681327 43.800781 5.2597656 C 44.180523 4.5691992 44.454022 4 44.423828 4 z M 51.058594 5.4746094 C 47.723657 5.4089169 44.889979 6.8062485 42.919922 9.2714844 C 42.462104 9.8420092 42.044747 10.132357 41.712891 10.3125 C 41.293363 11.161962 41.046831 11.700368 41.144531 11.601562 C 41.265883 11.478835 42.069856 11.330823 42.919922 10.271484 C 45.78546 6.685687 50.4774 5.3577517 55.882812 7.5078125 C 58.721591 8.5824185 60.300643 9.6487569 60.755859 11.84375 C 60.86952 12.395612 60.94428 12.880705 60.978516 13.330078 C 61.027853 12.593012 60.958141 11.825901 60.755859 10.84375 C 60.300643 8.6487569 58.721591 7.5824185 55.882812 6.5078125 C 54.193621 5.8359185 52.574474 5.5044696 51.058594 5.4746094 z M 30.503906 13.363281 C 30.18513 13.363281 28.136164 14.344589 26.982422 15.035156 C 24.447324 16.585407 21.29061 19.442062 19.681641 21.652344 C 15.902217 26.871526 14.202839 31.293401 13.185547 38.539062 L 12.759766 41.53125 L 12.751953 40.777344 C 12.752027 40.892385 12.742866 41.003107 12.744141 41.119141 L 12.759766 42.53125 L 13.185547 39.539062 C 14.202839 32.2934 15.902217 27.871526 19.681641 22.652344 C 21.29061 20.442062 24.447324 17.585407 26.982422 16.035156 C 27.982663 15.436467 29.591343 14.658252 30.226562 14.451172 C 30.420809 13.844059 30.556172 13.363281 30.503906 13.363281 z M 51.998047 26.794922 C 51.982847 26.764382 51.375672 26.88579 50.677734 27.039062 C 47.474892 27.744896 42.011235 28.175498 39.279297 27.945312 C 38.206639 27.851048 36.810323 27.556317 35.755859 27.230469 C 34.421183 27.429188 34.495615 27.74918 34.90625 27.931641 C 35.923542 28.361483 37.882843 28.822592 39.279297 28.945312 C 42.011235 29.175498 47.474892 28.744896 50.677734 28.039062 C 50.8213 28.007534 50.81769 28.016163 50.949219 27.988281 C 51.562778 27.357401 52.039339 26.836679 51.998047 26.794922 z M 14.550781 28.023438 C 14.550781 27.961778 14.08054 28.421873 13.488281 29.050781 C 11.667377 30.985661 9.7219545 33.964272 9.0234375 36.558594 C 8.7515883 37.592693 8.5726733 39.695458 8.625 40.947266 C 8.6681509 39.7541 8.8171305 38.343374 9.0234375 37.558594 C 9.7219545 34.964272 11.667377 31.985661 13.488281 30.050781 C 13.822396 29.695991 14.087314 29.428353 14.28125 29.244141 C 14.354582 28.90105 14.550781 28.045334 14.550781 28.023438 z M 34.183594 40.306641 C 33.397606 40.626527 32.765625 40.886775 32.765625 40.919922 C 32.765625 41.057918 35.149894 41.533875 36.53125 41.671875 C 36.621027 41.68176 36.68031 41.692865 36.765625 41.703125 C 37.477416 41.289682 37.944036 40.966661 37.867188 40.888672 C 37.821328 40.842872 37.229768 40.748789 36.53125 40.671875 C 35.855414 40.604358 34.942565 40.456866 34.183594 40.306641 z M 7.4179688 41.869141 C 7.4179688 41.916129 7.5783201 42.496915 7.6953125 42.929688 C 7.8315042 42.982748 7.9980093 43.05737 8.1914062 43.162109 C 8.6164403 43.377039 8.7217591 43.53054 8.7519531 43.5 C 8.7821471 43.45361 8.7362223 43.038144 8.6601562 42.5625 C 8.6553135 42.532723 8.6585094 42.474014 8.6542969 42.441406 C 8.5795176 42.385532 8.4593743 42.297615 8.1914062 42.162109 C 7.7663737 41.931921 7.4179687 41.808069 7.4179688 41.869141 z M 5.765625 44.894531 C 5.7224307 44.93821 6.0484882 45.396076 6.4726562 45.943359 C 6.6979674 45.968202 6.926711 45.99351 7.2070312 46.033203 C 7.9810319 46.155923 8.328125 46.232422 8.328125 46.232422 C 8.328125 46.222543 8.161785 45.635449 8.0332031 45.179688 C 7.8946346 45.15147 7.7773796 45.123633 7.2070312 45.033203 C 6.4481276 44.925743 5.7958186 44.863431 5.765625 44.894531 z M 18.285156 48.095703 C 17.296482 48.111413 17.099318 48.188905 17.501953 48.552734 C 18.653406 49.441092 19.785741 49.663291 21.173828 50.074219 L 23.734375 50.064453 L 21.609375 49.205078 C 20.350751 48.802043 19.341624 48.618647 18.353516 48.095703 C 18.335113 48.095949 18.303039 48.095419 18.285156 48.095703 z M 17.25 51.091797 L 16.386719 51.09375 C 16.501785 51.133327 16.659747 51.182427 16.751953 51.216797 L 17.814453 51.599609 L 17.25 51.091797 z"/>
</svg>
