<svg xmlns="http://www.w3.org/2000/svg" width="64" height="64" version="1.1">
 <circle style="opacity:0.2" cx="32" cy="33" r="28"/>
 <circle style="fill:#48b9c7" cx="32" cy="32" r="28"/>
 <path style="opacity:0.2" d="m 26.21875,11.003906 c -2.531026,0.05995 -5.41519,1.439777 -6.886719,2.458985 -1.471524,1.019207 -4.47239,3.056696 -4.53125,5.035156 0,1.318973 0.706046,2.397823 1.353516,3.716797 0.647472,1.318974 9.359333,19.065008 11.949219,21.882812 1.353804,1.43888 3.236409,1.020144 3.648437,-0.298828 0.412026,-1.318976 -0.05814,-2.757793 -0.587891,-4.136719 l -2.826171,-7.49414 c 3.296216,-1.19907 5.649838,-3.657224 7.0625,-6.714844 v -0.121094 c 0.706334,-1.498834 0.883532,-3.597023 0.294921,-6.294922 -0.58861,-2.6979 -2.177344,-5.034368 -4.414062,-6.533203 -1.471526,-0.959253 -2.531476,-1.559954 -5.0625,-1.5 z m -2.111328,5.46875 c 0.14001,0.0153 0.293665,0.05122 0.46289,0.107422 0.412028,0.119906 0.766241,0.420344 1.060547,0.660156 1.471524,1.199066 2.589393,2.996915 3.119141,4.855469 a 7.5342132,7.6740254 0 0 1 0.117188,2.876953 c 0,0.479626 -0.05921,0.840687 -0.353516,1.320313 -0.294306,0.479628 -1.00035,0.839237 -1.353516,0.779297 -0.35317,-0.05995 -0.647102,-0.299842 -0.941406,-0.59961 -1.236082,-1.25902 -2.353597,-3.777496 -2.765625,-4.976562 -0.386274,-1.124125 -1.445861,-5.252874 0.654297,-5.023438 z M 43.824219,21 c -0.836416,0.01386 -1.793419,0.236871 -2.175781,0.591797 -0.509817,0.473234 -0.962863,1.41956 -1.246094,3.3125 -0.962982,6.921059 -1.302833,12.599592 -0.283203,13.013672 0.849696,0.354926 1.474308,-0.237197 4.533203,-5.916016 l 1.585937,-3.134765 c 0.62311,-1.360551 1.415995,-3.253312 1.642578,-4.140626 0.226587,-0.887315 0.169986,-1.597349 -0.509765,-2.248046 A 5.0981592,5.3238908 0 0 0 44.595703,21.058594 C 44.369119,21.014228 44.103024,20.995379 43.824219,21 Z m -3.488281,20 c -0.189929,-0.0033 -0.394504,0.0231 -0.615235,0.08398 -0.852476,0.216472 -1.461871,0.920895 -1.644531,1.570313 -0.182676,0.649416 -0.06043,1.460203 0.609375,1.947265 0.669804,0.487062 1.827323,0.487385 2.314453,0.216797 0.48713,-0.270592 0.790309,-0.704344 0.912109,-1.191406 C 42.231787,42.490473 41.665436,41.022936 40.335938,41 Z M 20.257812,47 C 19.006845,47 18,47.892 18,49 c 0,1.108 1.006845,2 2.257812,2 H 43.742188 C 44.993155,51 46,50.108 46,49 46,47.892 44.993155,47 43.742188,47 Z"/>
 <g>
  <rect style="fill:#8b9cbe" width="28" height="4" x="18" y="46" rx="2.258" ry="2"/>
  <path style="fill:#8b9cbe" d="m 35.401362,24.452868 c -1.412662,3.05762 -3.767106,5.515704 -7.063322,6.714774 l 2.825328,7.494164 c 0.52975,1.378926 1.000638,2.817804 0.588612,4.13678 C 31.339952,44.117558 29.4564,44.53723 28.102596,43.09835 25.51271,40.280546 16.801275,22.534362 16.153803,21.215388 15.506333,19.896414 14.8,18.817256 14.8,17.498283 c 0.05886,-1.97846 3.060775,-4.016872 4.532299,-5.036079 1.471529,-1.019208 4.355717,-2.398134 6.886743,-2.458088 2.531024,-0.059954 3.590524,0.53958 5.06205,1.498833 2.236718,1.498835 3.825966,3.837014 4.414576,6.534914 0.58861,2.697899 0.412028,4.796265 -0.294306,6.295099 m -6.651298,-3.23748 c -0.529748,-1.858554 -1.648108,-3.657153 -3.119632,-4.856219 -0.294306,-0.239812 -0.647472,-0.53958 -1.0595,-0.659486 -2.707608,-0.899301 -1.530386,3.717105 -1.11836,4.916171 0.412028,1.199066 1.530388,3.717106 2.76647,4.976126 0.294304,0.299768 0.588608,0.53958 0.941778,0.599534 0.353166,0.05994 1.059496,-0.299766 1.353802,-0.779394 0.294304,-0.479626 0.353168,-0.839346 0.353168,-1.318972 a 7.5342132,7.6740254 0 0 0 -0.11772,-2.87776 z"/>
  <path style="fill:#8b9cbe" d="m 41.912738,42.62764 c -0.1218,0.487062 -0.42624,0.920006 -0.91337,1.190598 -0.48713,0.270588 -1.644064,0.270588 -2.313868,-0.216474 -0.669804,-0.487062 -0.791588,-1.298832 -0.608912,-1.948248 0.18266,-0.649418 0.791588,-1.352952 1.644064,-1.569424 1.765846,-0.487064 2.557432,1.244714 2.192086,2.543548 z"/>
  <path style="fill:#8b9cbe" d="m 40.119882,36.917908 c -1.01963,-0.41408 -0.679752,-6.092897 0.28323,-13.013956 0.283231,-1.89294 0.736402,-2.839409 1.246218,-3.312643 0.509816,-0.473235 2.039264,-0.709852 2.945602,-0.532388 a 5.0981592,5.3238908 0 0 1 2.775667,1.419704 c 0.679751,0.650697 0.7364,1.360549 0.509813,2.247865 -0.226583,0.887314 -1.019629,2.780254 -1.642739,4.140804 l -1.586094,3.135177 c -3.058895,5.678819 -3.682001,6.270363 -4.531697,5.915437 z"/>
 </g>
 <path style="opacity:0.2;fill:#8b9cbe" d="M 32 4 A 28 28 0 0 0 4 32 A 28 28 0 0 0 4.0175781 32.492188 A 28 28 0 0 1 32 5 A 28 28 0 0 1 59.974609 32.492188 A 28 28 0 0 0 60 32 A 28 28 0 0 0 32 4 z"/>
</svg>
