<svg xmlns="http://www.w3.org/2000/svg" width="64" height="64" version="1">
 <rect style="opacity:0.2" width="56" height="56" x="4" y="5" rx="2.8" ry="2.8"/>
 <rect style="fill:#34344b" width="56" height="56" x="4" y="4" rx="2.8" ry="2.8"/>
 <path style="opacity:0.2" d="m 42.166016,11 c -2.8,0 -6.466625,1.976339 -10.177735,5.402344 -3.711113,-3.404043 -7.377733,-5.359375 -10.177734,-5.359375 v 2.251953 c 2.111111,0 5.23442,1.658758 8.556641,4.689453 -1.422223,1.482406 -2.855381,3.162563 -4.210938,5.029297 -2.3,0.241578 -4.489626,0.613286 -6.478516,1.107422 -0.233333,-1.010234 -0.410981,-1.986556 -0.533203,-2.919922 -0.477778,-3.843274 0.110503,-6.840243 1.488281,-7.63086 0.311112,-0.186674 0.701302,-0.263671 1.167969,-0.263671 v -2.251953 c -0.855556,0 -1.634114,0.1872 -2.300781,0.560546 -2.866667,1.636137 -3.510981,6.719776 -2.033203,13.09961 C 11.122352,26.647462 7,29.744567 7,33.005859 c 0,3.272274 4.145053,6.379144 10.511719,8.300782 -1.466666,6.401796 -0.81198,11.496676 2.054687,13.132812 C 20.233072,54.823781 20.999911,55 21.855469,55 c 2.8,0 6.466624,-1.97634 10.177734,-5.402344 3.711111,3.404044 7.377734,5.359375 10.177735,5.359375 0.855556,0 1.634115,-0.187189 2.300781,-0.560547 2.866667,-1.636138 3.51098,-6.719773 2.033203,-13.099609 C 52.878255,39.375239 57,36.278133 57,33.005859 57,29.733587 52.85495,26.624763 46.488281,24.703125 47.954948,18.301328 47.300259,13.206449 44.433594,11.570312 43.769557,11.1875 43.006519,11.0131 42.166016,11.011719 Z m -0.0098,2.251953 v 0.0098 c 0.466667,0 0.843795,0.08798 1.166016,0.263672 1.388889,0.790617 1.98815,3.777819 1.521484,7.621093 -0.111104,0.944348 -0.299261,1.94363 -0.521484,2.964844 -2,-0.483154 -4.177907,-0.856078 -6.466797,-1.097656 -1.377777,-1.866734 -2.799695,-3.558611 -4.244141,-5.041016 3.317412,-3.048238 6.433944,-4.715876 8.544922,-4.720703 z m -10.189453,6.3125 c 0.944443,0.966309 1.900651,2.042592 2.833984,3.228516 -0.922223,-0.04392 -1.856337,-0.06641 -2.800781,-0.06641 -0.955556,0 -1.911761,0.02249 -2.833984,0.06641 0.922223,-1.185926 1.867447,-2.262207 2.800781,-3.228516 z M 32,24.978516 c 1.544444,0 3.078734,0.06672 4.589844,0.1875 0.844446,1.196906 1.664843,2.481395 2.464844,3.832031 0.777779,1.317694 1.478602,2.657176 2.123046,4.007812 -0.644444,1.339658 -1.355774,2.690858 -2.111328,4.019532 -0.8,1.361616 -1.610634,2.644892 -2.455078,3.841797 -1.52222,0.131759 -3.055772,0.197265 -4.611328,0.197265 -1.544444,0 -3.078734,-0.06477 -4.589844,-0.185547 -0.844446,-1.196904 -1.664843,-2.481395 -2.464844,-3.832031 -0.777778,-1.317694 -1.478602,-2.657178 -2.123046,-4.007813 0.633333,-1.350638 1.344662,-2.701837 2.111328,-4.019531 0.8,-1.361618 1.610634,-2.646846 2.455078,-3.84375 1.52222,-0.13176 3.055772,-0.197265 4.611328,-0.197265 z m -7.578125,0.515625 c -0.5,0.779634 -1.00013,1.570234 -1.466797,2.382812 -0.466666,0.801596 -0.911152,1.614418 -1.322266,2.416016 -0.555555,-1.350636 -1.021269,-2.701099 -1.410156,-4.007813 1.344444,-0.30746 2.743663,-0.582381 4.199219,-0.791015 z m 15.132813,0 c 1.444445,0.208634 2.844401,0.473312 4.177734,0.802734 -0.377779,1.295734 -0.843619,2.634953 -1.376953,3.974609 -0.422221,-0.801598 -0.856206,-1.614417 -1.333985,-2.416015 -0.466667,-0.801598 -0.966796,-1.592674 -1.466796,-2.361328 z m 6.390624,1.394531 c 1.011111,0.30746 1.965235,0.659855 2.865235,1.033203 3.611113,1.52633 5.945312,3.512518 5.945312,5.09375 -0.03333,1.570254 -2.366795,3.580355 -5.966797,5.095703 -0.877777,0.373346 -1.833376,0.703043 -2.822265,1.021484 -0.577777,-1.976542 -1.344619,-4.030359 -2.289063,-6.138671 0.933333,-2.09733 1.6898,-4.139911 2.267578,-6.105469 z m -27.923828,0.01172 c 0.577778,1.97654 1.34462,4.030359 2.289063,6.138671 -0.933333,2.097328 -1.687848,4.139909 -2.265625,6.105469 -1,-0.318442 -1.956814,-0.659857 -2.845703,-1.033203 -3.611111,-1.52633 -5.9433596,-3.514467 -5.9433596,-5.095703 0,-1.581232 2.3322486,-3.589384 5.9433596,-5.09375 0.877778,-0.373348 1.833376,-0.703042 2.822265,-1.021484 z M 32,29 a 4,4 0 0 0 -4,4 4,4 0 0 0 4,4 4,4 0 0 0 4,-4 4,4 0 0 0 -4,-4 z m 10.355469,6.707031 c 0.555556,1.350638 1.023219,2.701099 1.412109,4.007813 -1.333334,0.318442 -2.745618,0.592147 -4.201172,0.800781 0.5,-0.779634 1.000131,-1.570234 1.466797,-2.382813 0.466667,-0.801597 0.900045,-1.613201 1.322266,-2.425781 z m -20.722657,0.05469 c 0.422223,0.801596 0.856208,1.614419 1.333985,2.416015 0.477779,0.790616 0.966797,1.580958 1.466797,2.34961 -1.444443,-0.208632 -2.844401,-0.472574 -4.177735,-0.791016 0.377777,-1.295732 0.843618,-2.634953 1.376953,-3.974609 z m 22.710938,6.126953 c 0.222223,1.021214 0.401215,1.998274 0.523438,2.93164 0.477777,3.843275 -0.11245,6.842199 -1.490235,7.632813 -0.31111,0.18666 -0.699349,0.263672 -1.166015,0.263672 -2.11111,0 -5.232467,-1.658759 -8.554688,-4.689453 1.422221,-1.482406 2.85538,-3.162565 4.210938,-5.029297 2.299999,-0.241578 4.487672,-0.615237 6.476562,-1.109375 z m -24.654297,0.02148 c 2,0.483156 4.177908,0.858032 6.466797,1.09961 1.377777,1.866732 2.799697,3.556658 4.244141,5.039062 -3.322221,3.05266 -6.445531,4.722656 -8.556641,4.722656 -0.466667,-0.011 -0.854297,-0.09969 -1.154297,-0.27539 -1.388887,-0.790618 -1.990104,-3.77782 -1.523437,-7.621094 0.11111,-0.944348 0.301214,-1.94363 0.523437,-2.964844 z m 9.5,1.31836 c 0.92222,0.04392 1.854382,0.06641 2.798828,0.06641 0.955554,0 1.911762,-0.02249 2.833985,-0.06641 -0.911113,1.185924 -1.867449,2.262205 -2.800782,3.228515 -0.944446,-0.96631 -1.898698,-2.042591 -2.832031,-3.228515 z"/>
 <path style="fill:#e1145e" class="st1" d="M 57,32.00549 C 57,28.733218 52.855556,25.625656 46.488887,23.704018 47.955554,17.302221 47.299998,12.207138 44.433333,10.571001 43.766667,10.186673 43,10.010981 42.155554,10.010981 v 2.251061 c 0.466667,0 0.844446,0.08785 1.166667,0.263538 1.388889,0.790617 1.988889,3.77739 1.522223,7.620664 -0.111104,0.944348 -0.3,1.943598 -0.522223,2.964812 -2,-0.483154 -4.177777,-0.8565 -6.466667,-1.098078 -1.377777,-1.866734 -2.799998,-3.557775 -4.244444,-5.04018 3.322223,-3.052659 6.444444,-4.721737 8.555557,-4.721737 V 10 10 c -2.8,0 -6.466667,1.976541 -10.177777,5.402546 -3.711113,-3.404043 -7.377777,-5.358623 -10.177778,-5.358623 v 2.251061 c 2.111111,0 5.233334,1.658099 8.555555,4.688794 -1.422223,1.482406 -2.855554,3.162466 -4.211111,5.0292 -2.3,0.241578 -4.488889,0.614924 -6.477779,1.10906 -0.233333,-1.010234 -0.41111,-1.987524 -0.533332,-2.92089 -0.477778,-3.843274 0.11111,-6.841028 1.488888,-7.631645 0.311111,-0.186674 0.7,-0.263538 1.166667,-0.263538 v -2.251061 0 c -0.855556,0 -1.633333,0.186674 -2.3,0.56002 -2.866667,1.636137 -3.511111,6.72024 -2.033333,13.100074 C 11.122222,25.647616 7,28.744198 7,32.00549 7,35.277764 11.144445,38.385326 17.511111,40.306964 16.044445,46.70876 16.7,51.803844 19.566667,53.43998 20.233333,53.824308 20.999998,54 21.855556,54 c 2.8,0 6.466667,-1.976542 10.177777,-5.402546 3.711111,3.404044 7.377777,5.358622 10.177777,5.358622 0.855557,0 1.633334,-0.18666 2.3,-0.560018 2.866667,-1.636138 3.511111,-6.72024 2.033334,-13.100076 C 52.877777,38.374346 57,35.277764 57,32.00549 Z M 43.733333,25.29623 c -0.377779,1.295734 -0.844445,2.63539 -1.377779,3.975046 C 41.933333,28.469678 41.5,27.657102 41.022221,26.855504 40.555554,26.053906 40.055554,25.26329 39.555554,24.494636 41,24.70327 42.4,24.966808 43.733333,25.29623 Z m -4.666666,10.728228 c -0.8,1.361616 -1.611113,2.64637 -2.455557,3.843274 -1.52222,0.13176 -3.055554,0.19766 -4.61111,0.19766 -1.544444,0 -3.077777,-0.06588 -4.588887,-0.18666 -0.844446,-1.196904 -1.666667,-2.481656 -2.466667,-3.832292 -0.777779,-1.317694 -1.477779,-2.657352 -2.122223,-4.007986 0.633333,-1.350638 1.344444,-2.701274 2.11111,-4.018968 0.8,-1.361618 1.611113,-2.64637 2.455557,-3.843274 1.52222,-0.13176 3.055554,-0.19766 4.61111,-0.19766 1.544444,0 3.077777,0.06588 4.588887,0.18666 0.844446,1.196906 1.666667,2.481658 2.466667,3.832294 0.777779,1.317694 1.477779,2.65735 2.122223,4.007986 -0.644444,1.339658 -1.355556,2.690292 -2.11111,4.018966 z m 3.288887,-1.317696 c 0.555556,1.350638 1.022223,2.701274 1.411113,4.007988 -1.333334,0.318442 -2.744446,0.592962 -4.2,0.801596 0.5,-0.779634 1,-1.570252 1.466666,-2.38283 0.466667,-0.801598 0.9,-1.614174 1.322221,-2.426754 z M 32.022223,45.45695 c -0.944446,-0.96631 -1.9,-2.042426 -2.833333,-3.22835 0.92222,0.04392 1.855554,0.06588 2.8,0.06588 0.955554,0 1.91111,-0.02196 2.833333,-0.06588 -0.911113,1.185924 -1.866667,2.26204 -2.8,3.22835 z m -7.58889,-5.929624 c -1.444443,-0.208632 -2.844443,-0.472172 -4.177777,-0.790614 0.377777,-1.295732 0.844442,-2.635388 1.377777,-3.975044 0.422223,0.801596 0.855557,1.614176 1.333334,2.415772 0.477779,0.790616 0.966666,1.581234 1.466666,2.349886 z m 7.533334,-20.962314 c 0.944443,0.966309 1.9,2.042426 2.833333,3.22835 -0.922223,-0.04392 -1.855556,-0.06588 -2.8,-0.06588 -0.955556,0 -1.91111,0.02196 -2.833333,0.06588 0.922223,-1.185926 1.866666,-2.262043 2.8,-3.228352 z m -7.544444,5.929624 c -0.5,0.779634 -1,1.570252 -1.466667,2.38283 -0.466666,0.801596 -0.91111,1.614172 -1.322223,2.41577 -0.555556,-1.350636 -1.022223,-2.701272 -1.41111,-4.007986 1.344444,-0.30746 2.744444,-0.58198 4.2,-0.790614 z M 15.2,37.111556 c -3.611111,-1.52633 -5.944445,-3.51385 -5.944445,-5.095086 0,-1.581232 2.333334,-3.590716 5.944445,-5.095082 0.877778,-0.373348 1.833333,-0.70277 2.822222,-1.021212 0.577778,1.97654 1.344445,4.029946 2.288888,6.138258 -0.933333,2.097328 -1.688888,4.139754 -2.266665,6.105314 -1,-0.318442 -1.955556,-0.658846 -2.844445,-1.032192 z m 5.488887,14.384826 C 19.3,50.705764 18.7,47.718992 19.166667,43.875718 c 0.11111,-0.944348 0.3,-1.943598 0.522223,-2.964812 2,0.483156 4.177777,0.856502 6.466666,1.09808 1.377777,1.866732 2.8,3.557774 4.244444,5.040178 -3.322221,3.05266 -6.444444,4.721736 -8.555554,4.721736 -0.466667,-0.011 -0.855559,-0.09882 -1.155559,-0.274518 z m 24.17778,-7.675568 c 0.477777,3.843274 -0.111105,6.84103 -1.48889,7.631644 -0.31111,0.18666 -0.7,0.26354 -1.166667,0.26354 -2.11111,0 -5.233333,-1.6581 -8.555554,-4.688794 1.422221,-1.482406 2.855554,-3.162468 4.211111,-5.0292 2.3,-0.241578 4.488887,-0.614922 6.477777,-1.10906 0.222223,1.021214 0.4,1.998504 0.522223,2.93187 z m 3.922221,-6.709258 c -0.877778,0.373346 -1.833334,0.70277 -2.822223,1.021212 -0.577777,-1.976542 -1.344444,-4.029946 -2.288888,-6.138258 0.933333,-2.09733 1.688888,-4.139756 2.266667,-6.105314 1.01111,0.30746 1.966666,0.658844 2.866666,1.032192 3.611113,1.52633 5.944446,3.51385 5.944446,5.095082 -0.03333,1.570254 -2.366666,3.579738 -5.966668,5.095086 z"/>
 <circle style="fill:#8b9cbe" class="st2" cx="32" cy="32" r="4"/>
 <path style="opacity:0.1;fill:#8b9cbe" d="M 6.8007812 4 C 5.2495812 4 4 5.2495812 4 6.8007812 L 4 7.8007812 C 4 6.2495813 5.2495812 5 6.8007812 5 L 57.199219 5 C 58.750419 5 60 6.2495812 60 7.8007812 L 60 6.8007812 C 60 5.2495813 58.750419 4 57.199219 4 L 6.8007812 4 z"/>
 <path style="fill:#8b9cbe;opacity:0.2" d="M 42.166016 10 C 39.366016 10 35.699391 11.976339 31.988281 15.402344 C 28.277168 11.998301 24.610548 10.042969 21.810547 10.042969 L 21.810547 11.042969 C 24.610548 11.042969 28.277168 12.998301 31.988281 16.402344 C 35.699391 12.976339 39.366016 11 42.166016 11 L 42.166016 11.011719 C 43.006519 11.0131 43.769557 11.1875 44.433594 11.570312 C 46.166029 12.559092 47.083752 14.817097 47.220703 17.857422 C 47.252223 14.320052 46.34818 11.663054 44.433594 10.570312 C 43.769557 10.1875 43.006519 10.0131 42.166016 10.011719 L 42.166016 10 z M 21.800781 10.054688 C 20.945225 10.054688 20.166667 10.241888 19.5 10.615234 C 17.589585 11.705595 16.688798 14.347297 16.722656 17.863281 C 16.858109 14.844245 17.772563 12.601161 19.5 11.615234 C 20.166667 11.241888 20.945225 11.054688 21.800781 11.054688 L 21.800781 10.054688 z M 34.126953 17.521484 C 33.954689 17.673294 33.784799 17.813261 33.611328 17.972656 C 35.055774 19.455061 36.477692 21.146938 37.855469 23.013672 C 40.144359 23.25525 42.322266 23.628174 44.322266 24.111328 C 44.544489 23.090114 44.732646 22.090832 44.84375 21.146484 C 44.974093 20.073034 45.012452 19.076641 44.982422 18.166016 C 44.966155 18.797109 44.928145 19.451443 44.84375 20.146484 C 44.732646 21.090832 44.544489 22.090114 44.322266 23.111328 C 42.322266 22.628174 40.144359 22.25525 37.855469 22.013672 C 36.642209 20.369841 35.393968 18.870341 34.126953 17.521484 z M 29.851562 17.537109 C 28.599467 18.882665 27.348491 20.371839 26.15625 22.013672 C 23.85625 22.25525 21.666624 22.626958 19.677734 23.121094 C 19.444401 22.11086 19.266753 21.134538 19.144531 20.201172 C 19.055574 19.485598 19.016795 18.812226 19 18.164062 C 18.969287 19.090633 19.008343 20.105669 19.144531 21.201172 C 19.266753 22.134538 19.444401 23.11086 19.677734 24.121094 C 21.666624 23.626958 23.85625 23.25525 26.15625 23.013672 C 27.511807 21.146938 28.944965 19.466781 30.367188 17.984375 C 30.19398 17.826367 30.023567 17.687615 29.851562 17.537109 z M 32 21.726562 C 31.327619 21.726562 30.666626 21.751691 30.005859 21.773438 C 29.72544 22.110182 29.443323 22.436367 29.166016 22.792969 C 30.088239 22.749049 31.044444 22.726562 32 22.726562 C 32.944444 22.726563 33.878558 22.749049 34.800781 22.792969 C 34.519978 22.43617 34.233138 22.110357 33.949219 21.773438 C 33.302686 21.752164 32.657296 21.726563 32 21.726562 z M 46.669922 23.765625 C 46.606989 24.080219 46.561928 24.381669 46.488281 24.703125 C 52.535859 26.528452 56.570914 29.425476 56.960938 32.515625 C 56.98306 32.346182 57 32.176399 57 32.005859 C 57 28.766223 52.929021 25.691417 46.669922 23.765625 z M 17.283203 23.777344 C 11.047439 25.713615 7 28.777499 7 32.005859 C 7 32.169863 7.0184835 32.333047 7.0390625 32.496094 C 7.4426446 29.424221 11.454055 26.54642 17.466797 24.714844 C 17.392407 24.393689 17.346825 24.091657 17.283203 23.777344 z M 24.421875 25.494141 C 24.188792 25.52755 23.966562 25.572722 23.736328 25.609375 C 23.474137 26.031003 23.203414 26.444542 22.955078 26.876953 C 22.488412 27.678549 22.043926 28.491371 21.632812 29.292969 C 21.208222 28.260729 20.851101 27.235289 20.525391 26.222656 C 20.425999 26.24488 20.321448 26.262564 20.222656 26.285156 C 20.611543 27.59187 21.077257 28.942333 21.632812 30.292969 C 22.043926 29.491371 22.488412 28.678549 22.955078 27.876953 C 23.421745 27.064375 23.921875 26.273775 24.421875 25.494141 z M 39.554688 25.494141 C 40.054688 26.262795 40.554817 27.053871 41.021484 27.855469 C 41.499263 28.657067 41.933248 29.469886 42.355469 30.271484 C 42.888803 28.931828 43.354643 27.592609 43.732422 26.296875 C 43.635151 26.272843 43.531566 26.255757 43.433594 26.232422 C 43.114265 27.234585 42.762198 28.249841 42.355469 29.271484 C 41.933248 28.469886 41.499263 27.657067 41.021484 26.855469 C 40.775274 26.43255 40.507919 26.024567 40.248047 25.609375 C 40.015515 25.572482 39.789668 25.528081 39.554688 25.494141 z M 43.892578 32.492188 C 43.819868 32.660016 43.75274 32.825592 43.677734 32.994141 C 44.622178 35.102453 45.38902 37.15627 45.966797 39.132812 C 46.955686 38.814371 47.911285 38.484674 48.789062 38.111328 C 52.389064 36.59598 54.722529 34.585879 54.755859 33.015625 C 54.755859 32.847339 54.723461 32.674491 54.671875 32.498047 C 54.239615 33.982656 52.03159 35.746452 48.789062 37.111328 C 47.911285 37.484674 46.955686 37.814371 45.966797 38.132812 C 45.434849 36.313051 44.736078 34.42512 43.892578 32.492188 z M 40.925781 32.505859 C 40.347161 33.681106 39.728138 34.861707 39.066406 36.025391 C 38.266406 37.387007 37.455772 38.670283 36.611328 39.867188 C 35.089108 39.998947 33.555556 40.064453 32 40.064453 C 30.455556 40.064453 28.921266 39.999686 27.410156 39.878906 C 26.56571 38.682002 25.745313 37.397511 24.945312 36.046875 C 24.263626 34.891979 23.649419 33.718352 23.072266 32.537109 C 22.991264 32.704766 22.900912 32.871343 22.822266 33.039062 C 23.46671 34.389697 24.167534 35.729181 24.945312 37.046875 C 25.745313 38.397511 26.56571 39.682002 27.410156 40.878906 C 28.921266 40.999686 30.455556 41.064453 32 41.064453 C 33.555556 41.064453 35.089108 40.998947 36.611328 40.867188 C 37.455772 39.670283 38.266406 38.387007 39.066406 37.025391 C 39.82196 35.696717 40.53329 34.345517 41.177734 33.005859 C 41.097802 32.838336 41.007465 32.673024 40.925781 32.505859 z M 9.3339844 32.515625 C 9.2860313 32.685808 9.2558594 32.853445 9.2558594 33.015625 C 9.2558594 34.596861 11.588108 36.584998 15.199219 38.111328 C 16.088108 38.484674 17.044922 38.826089 18.044922 39.144531 C 18.622699 37.178971 19.377214 35.13639 20.310547 33.039062 C 20.235706 32.871992 20.170259 32.707385 20.097656 32.541016 C 19.265468 34.461796 18.576332 36.336709 18.044922 38.144531 C 17.044922 37.826089 16.088108 37.484674 15.199219 37.111328 C 11.958003 35.741344 9.7530972 34.001429 9.3339844 32.515625 z M 43.464844 38.779297 C 42.433997 39.01838 41.356322 39.224736 40.251953 39.400391 C 40.02144 39.771077 39.800333 40.150871 39.566406 40.515625 C 41.02196 40.306991 42.434244 40.033286 43.767578 39.714844 C 43.676101 39.407471 43.565072 39.090958 43.464844 38.779297 z M 20.554688 38.800781 C 20.45532 39.112639 20.345512 39.428831 20.255859 39.736328 C 21.589193 40.05477 22.989151 40.318712 24.433594 40.527344 C 24.19617 40.162351 23.968741 39.784656 23.736328 39.412109 C 22.645223 39.23913 21.579871 39.037752 20.554688 38.800781 z M 46.728516 41.234375 C 46.664903 41.254053 46.608989 41.277436 46.544922 41.296875 C 47.037813 43.424779 47.272059 45.386729 47.289062 47.146484 C 47.366986 45.408064 47.166968 43.400794 46.728516 41.234375 z M 17.330078 41.246094 C 16.897341 43.409671 16.701101 45.414905 16.779297 47.152344 C 16.795028 45.393456 17.024669 43.432544 17.511719 41.306641 C 17.448413 41.287533 17.392942 41.265435 17.330078 41.246094 z M 29.189453 43.228516 C 30.122786 44.41444 31.077038 45.490721 32.021484 46.457031 C 32.954817 45.490721 33.911153 44.41444 34.822266 43.228516 C 34.550239 43.241471 34.2633 43.238913 33.986328 43.248047 C 33.334319 44.03174 32.674572 44.780868 32.021484 45.457031 C 31.360885 44.781139 30.699125 44.031382 30.039062 43.248047 C 29.757071 43.238762 29.469396 43.241848 29.189453 43.228516 z M 45.011719 46.857422 C 44.93476 49.18176 44.362087 50.887826 43.376953 51.453125 C 43.065843 51.639785 42.677604 51.716797 42.210938 51.716797 C 40.209754 51.716797 37.297326 50.211261 34.169922 47.474609 C 33.998564 47.658753 33.827441 47.848909 33.65625 48.027344 C 36.978471 51.058038 40.099828 52.716797 42.210938 52.716797 C 42.677604 52.716797 43.065843 52.639785 43.376953 52.453125 C 44.498342 51.809639 45.085296 49.690982 45.011719 46.857422 z M 19.027344 46.869141 C 18.955965 49.720772 19.553565 51.849494 20.689453 52.496094 C 20.989453 52.671792 21.377083 52.760484 21.84375 52.771484 C 23.95486 52.771484 27.07817 51.101488 30.400391 48.048828 C 30.228058 47.871967 30.056428 47.682745 29.884766 47.5 C 26.757906 50.255583 23.844628 51.771484 21.84375 51.771484 C 21.377083 51.760484 20.989453 51.671792 20.689453 51.496094 C 19.690477 50.927431 19.106711 49.211631 19.027344 46.869141 z"/>
</svg>
