<svg width="64" height="64" version="1" xmlns="http://www.w3.org/2000/svg">
 <path d="m32 5a28 28 0 0 0-28 28 28 28 0 0 0 28 28 28 28 0 0 0 28-28 28 28 0 0 0-28-28zm0 16a12 12 0 0 1 12 12 12 12 0 0 1-12 12 12 12 0 0 1-12-12 12 12 0 0 1 12-12z" style="opacity:.2"/>
 <path d="m32 17a15 15 0 0 0-15 15 15 15 0 0 0 15 15 15 15 0 0 0 15-15 15 15 0 0 0-15-15zm0 9a6 6 0 0 1 6 6 6 6 0 0 1-6 6 6 6 0 0 1-6-6 6 6 0 0 1 6-6z" style="fill:#a28039"/>
 <path d="m32 4a28 28 0 0 0-28 28 28 28 0 0 0 28 28 28 28 0 0 0 28-28 28 28 0 0 0-28-28zm0 16a12 12 0 0 1 12 12 12 12 0 0 1-12 12 12 12 0 0 1-12-12 12 12 0 0 1 12-12z" style="fill:#e2d35d"/>
 <path d="M 32,4 A 28,28 0 0 0 4,32 28,28 0 0 0 4.0215,32.414 28,28 0 0 1 32,5 28,28 0 0 1 59.979,32.586 28,28 0 0 0 60,32 28,28 0 0 0 32,4 Z" style="fill:#8b9cbe;opacity:.2"/>
 <path d="M 32 8 A 23.999999 23.999999 0 0 0 8 32 A 23.999999 23.999999 0 0 0 10.755859 43.130859 L 17.011719 31.753906 A 15 15.000001 0 0 1 32 17 A 15 15.000001 0 0 1 46.388672 27.796875 L 51.646484 18.236328 A 23.999999 23.999999 0 0 0 32 8 z M 53.244141 20.869141 L 46.988281 32.246094 A 15 15.000001 0 0 1 32 47 A 15 15.000001 0 0 1 17.611328 36.203125 L 12.353516 45.763672 A 23.999999 23.999999 0 0 0 32 56 A 23.999999 23.999999 0 0 0 56 32 A 23.999999 23.999999 0 0 0 53.244141 20.869141 z " style="fill:#b2bfd9"/>
</svg>
