<svg xmlns="http://www.w3.org/2000/svg" width="64" height="64" version="1">
 <path style="opacity:0.2" d="m 6.8,11.000791 c 0,0 -2.8,0 -2.8,2.75 v 38.5 c 0,1.5235 1.2488,2.75 2.8,2.75 h 50.4 c 1.5512,0 2.8,-1.2265 2.8,-2.75 v -38.5 c 0,-1.5235 -1.2488,-2.75 -2.8,-2.75 z"/>
 <path style="fill:#1e88e5" d="M 6.8,10 C 6.8,10 4,10 4,12.75 v 38.5 C 4,52.7735 5.2488,54 6.8,54 H 57.2 C 58.7512,54 60,52.7735 60,51.25 V 12.75 C 60,11.2265 58.7512,10 57.2,10 Z"/>
 <circle style="opacity:0.2" cx="35" cy="28" r="9"/>
 <circle style="opacity:0.2;fill:#041218" cx="35" cy="28" r="6"/>
 <path style="opacity:0.2" d="m 34.957284,27.000791 c -3.001366,0 -3.002466,1.999806 -3.009154,4 -0.0209,1.235858 -0.0154,3.815666 0.0078,7.621094 0.03722,6.08315 0.02578,7.9923 -0.0469,8.253906 -2.073628,-0.218562 -5.210036,-1.056488 -6.61332,-2.16691 -0.917178,-0.727608 -1.827282,-1.39462 -2.020434,-1.480468 -0.805176,-0.35789 -1.9476,-0.13252 -2.602722,0.515624 -0.452994,0.448166 -0.62056,0.847698 -0.66045,1.566406 -0.03048,0.549224 -0.012,0.679128 0.15634,1.04297 0.10606,0.229214 0.298346,0.536904 0.425972,0.683594 0.12762,0.1467 1.873736,2.411298 3.880636,5.035156 3.716702,4.85928 7.414482,6.661344 8.05146,6.84269 0.38944,0.11106 20.477092,0.1146 20.880404,0.004 0.18312,-0.05028 0.447818,-0.21883 0.637002,-0.40625 0.265108,-0.262634 0.364634,-0.454682 0.570568,-1.089842 0.5896,-1.818518 1.177668,-4.584324 1.34435,-6.121094 0.0725,-1.785624 0.03404,-1.853542 0,-3.300782 -6.42e-4,-0.02728 -0.0068,-0.0511 -0.0078,-0.07812 0.0028,-1.28612 0.0108,-2.373208 0,-2.921876 0.006,-2.00019 0.0106,-4 -2.985706,-4 -2.703422,0 -2.954802,1.638382 -2.985708,3.425782 -0.0044,0.04808 -0.0188,0.09624 -0.0196,0.14454 0.0011,-0.48344 0.0058,-1.27544 0,-1.570312 0.006,-2.00019 0.0066,-4 -2.989616,-4 -2.685512,0 -2.951828,1.617228 -2.985704,3.390624 -0.0078,0.0042 -0.0156,0.0072 -0.02346,0.0118 -4.6e-5,-0.0104 -0.0034,-0.10746 -0.004,-0.1289 2.38e-4,-0.359606 0.0046,-1.034312 0,-1.273438 0.006,-2.00019 0.0066,-4 -2.989616,-4 -2.277118,0 -2.823934,1.157406 -2.958348,2.589844 -0.0034,7.3e-4 -0.0504,0.0116 -0.0508,0.0118 -0.0427,0.0154 -0.0078,-2.430149 -0.0078,-5.0625 0,-1.803132 0.013,-2.874498 0,-3.539062 0.006,-2.00019 0.0078,-4 -2.993524,-4 z"/>
 <path style="fill:#ebebeb" d="m 34.957284,26 c -3.001366,0 -3.002466,1.999806 -3.009154,4 -0.0209,1.235858 -0.0154,3.815666 0.0078,7.621094 0.03722,6.083151 0.02578,7.9923 -0.0469,8.253906 -2.073628,-0.218562 -5.210036,-1.056488 -6.61332,-2.16691 -0.917178,-0.727608 -1.827282,-1.39462 -2.020434,-1.480468 -0.805176,-0.35789 -1.9476,-0.13252 -2.602722,0.515624 -0.452994,0.448166 -0.62056,0.847698 -0.66045,1.566406 -0.03048,0.549224 -0.012,0.679128 0.15634,1.04297 0.10606,0.229214 0.298346,0.536904 0.425972,0.683594 0.12762,0.1467 1.873736,2.411298 3.880636,5.035156 3.716702,4.85928 7.414482,6.661344 8.05146,6.84269 0.38944,0.11106 20.477092,0.1146 20.880404,0.004 0.18312,-0.05028 0.447818,-0.21883 0.637002,-0.40625 0.265108,-0.262634 0.364634,-0.454682 0.570568,-1.089842 0.5896,-1.818518 1.177668,-4.584324 1.34435,-6.121094 0.0725,-1.785624 0.03404,-1.853542 0,-3.300782 -6.42e-4,-0.02728 -0.0068,-0.0511 -0.0078,-0.07812 0.0028,-1.28612 0.0108,-2.373208 0,-2.921876 0.006,-2.000189 0.0106,-4 -2.985706,-4 -2.703422,0 -2.954802,1.638382 -2.985708,3.425782 -0.0044,0.04808 -0.0188,0.09624 -0.0196,0.14454 0.0011,-0.48344 0.0058,-1.27544 0,-1.570312 0.006,-2.00019 0.0066,-4 -2.989616,-4 -2.685512,0 -2.951828,1.617228 -2.985704,3.390624 -0.0078,0.0042 -0.0156,0.0072 -0.02346,0.0118 -4.6e-5,-0.0104 -0.0034,-0.10746 -0.004,-0.1289 2.38e-4,-0.359606 0.0046,-1.034312 0,-1.273438 0.006,-2.000189 0.0066,-4 -2.989616,-4 -2.277118,0 -2.823934,1.157406 -2.958348,2.589844 -0.0034,7.3e-4 -0.0504,0.0116 -0.0508,0.0118 -0.0427,0.0154 -0.0078,-2.430149 -0.0078,-5.0625 0,-1.803132 0.013,-2.874498 0,-3.539062 0.006,-2.00019 0.0078,-4 -2.993524,-4 z"/>
 <path style="opacity:0.1;fill:#8b9cbe" d="m 6.8007812,10.000001 c 0,0 -2.8007812,0 -2.8007812,2.75 v 1 c 0,-2.750001 2.8007812,-2.75 2.8007812,-2.75 H 57.199219 c 1.5512,0 2.800781,1.226499 2.800781,2.75 v -1 c 0,-1.5235 -1.249581,-2.75 -2.800781,-2.75 z"/>
</svg>
