<svg xmlns="http://www.w3.org/2000/svg" width="64" height="64" version="1">
 <path style="opacity:0.2" d="m 9.7779534,11.99953 c -1.539049,0 -2.777889,1.226613 -2.777889,2.750029 l 0,32.500448 c 0,1.523516 1.23892,2.75003 2.777889,2.75003 L 35,50.000037 40,56 l 5,-5.999963 9.223975,0 c 1.53805,0 2.776089,-1.226014 2.776089,-2.75003 l 0,-32.500448 c -0.002,-1.523416 -1.240039,-2.750029 -2.780089,-2.750029 z"/>
 <path style="fill:#4f4f4f" d="m 9.7779534,10.999508 c -1.539049,0 -2.777889,1.226613 -2.777889,2.750029 l 0,32.500448 c 0,1.523516 1.23892,2.75003 2.777889,2.75003 l 25.2220466,0 5,5.999963 5,-5.999963 9.223975,0 c 1.53805,0 2.776089,-1.226014 2.776089,-2.75003 l 0,-32.500448 c -0.002,-1.523416 -1.240039,-2.750029 -2.780089,-2.750029 z"/>
 <path style="opacity:0.1;fill:#8b9cbe" d="m 9.7773764,11 c -1.539017,0 -2.777344,1.226584 -2.777344,2.75 l 0,1 c 0,-1.523416 1.238327,-2.75 2.777344,-2.75 l 44.4453116,0 c 1.540017,0 2.777344,1.226584 2.777344,2.75 l 0,-1 c 0,-1.523416 -1.237327,-2.75 -2.777344,-2.75 L 9.7773764,11 Z"/>
 <circle style="opacity:0.2" cx="16.5" cy="20.5" r="15.5"/>
 <circle style="fill:#4daaf5" cx="16.5" cy="19.5" r="15.5"/>
 <path style="fill:#8b9cbe" d="m 15.000032,10 0,13 3,0 0,-13 z m 0,15 0,3 3,0 0,-3 z"/>
</svg>
