<svg xmlns="http://www.w3.org/2000/svg" width="64" height="64" version="1">
 <path style="fill:#325f78" d="m 60,32 0,-19 c 0,-1.662 -1.338,-3 -3,-3 L 7,10 c -1.662,0 -3,1.338 -3,3 l 0,38 c 0,1.662 1.338,3 3,3 l 31,0 z"/>
 <path style="opacity:0.2" d="M 56,34.322 56,14 8,14 8,50 40,50 Z"/>
 <path style="opacity:0.1;fill:#8b9cbe" d="M 7 10 C 5.338 10 4 11.338 4 13 L 4 14 C 4 12.338 5.338 11 7 11 L 57 11 C 58.662 11 60 12.338 60 14 L 60 13 C 60 11.338 58.662 10 57 10 L 7 10 z"/>
 <path style="fill:#56839e" d="M 60,32 40.75,32 C 39.232,32 38,33.232 38,34.75 L 38,54 Z"/>
 <path style="opacity:0.1;fill:#8b9cbe" d="M 40.75 32 C 39.232 32 38 33.232 38 34.75 L 38 35.75 C 38 34.232 39.232 33 40.75 33 L 59 33 L 60 32 L 40.75 32 z"/>
 <path style="opacity:0.2" d="M 60,32 38,54 7,54 C 5.338,54 4,52.662 4,51 l 0,1 c 0,1.662 1.338,3 3,3 l 31,0 22,-22 0,-1 z"/>
</svg>
