<svg xmlns="http://www.w3.org/2000/svg" width="64" height="64" version="1">
 <path style="opacity:0.2" d="M 32.000031,4.9994421 C 29.385634,5.0368101 27.519562,6.611236 26.644557,9.218197 l 0.03516,-0.117189 -4.10938,11.898451 -13.8515768,0 c -0.030202,-4.84e-4 -0.059642,-4.84e-4 -0.089844,0 -1.654255,0.05362 -3.1443889,1.02522 -4.1953168,2.304691 -2.2728444,2.608995 -1.7924197,7.31597 1.0937511,9.261728 l 10.8906365,7.95704 -4.226567,13.132826 c -0.0047,0.0146 -0.0073,0.02836 -0.01172,0.04296 -0.645811,2.12152 -0.03851,4.305614 1.585939,5.800788 0.01174,0.011 0.02314,0.02438 0.03516,0.03516 1.952084,1.735374 4.697848,1.95593 6.90235,0.519532 0.04194,-0.02714 0.08068,-0.05664 0.1211,-0.08594 l 11.175786,-7.968752 11.175793,7.968758 c 0.04042,0.02932 0.07916,0.05882 0.1211,0.08594 2.204503,1.436398 4.950264,1.215842 6.90235,-0.519532 0.012,-0.0108 0.02334,-0.02412 0.03516,-0.03516 1.624451,-1.495174 2.231748,-3.679268 1.585937,-5.800788 -0.0044,-0.0146 -0.007,-0.02842 -0.0118,-0.04296 l -4.22657,-13.132826 10.890635,-7.95704 c 2.886171,-1.945758 3.366596,-6.652733 1.093752,-9.261728 -1.050928,-1.279471 -2.541061,-2.25107 -4.195317,-2.304691 -0.0302,-4.84e-4 -0.05964,-4.84e-4 -0.08984,0 l -13.851576,0 -4.109381,-11.89845 0.03516,0.117188 C 36.480499,6.611236 34.614427,5.0368101 32.000031,4.9994421 Z"/>
 <path style="fill:#ffbc2c" d="M 32 4 C 29.385603 4.037368 27.521489 5.6117895 26.646484 8.21875 L 26.677734 8.1015625 L 22.570312 20 L 8.71875 20 C 8.688548 19.999516 8.6591083 19.999516 8.6289062 20 C 6.9746512 20.05362 5.4825685 21.025216 4.4316406 22.304688 C 2.1587962 24.913682 2.6411729 29.618694 5.5273438 31.564453 L 16.417969 39.525391 L 12.191406 52.65625 C 12.186666 52.67079 12.182134 52.684619 12.177734 52.699219 C 11.531924 54.820739 12.139218 57.006779 13.763672 58.501953 C 13.775482 58.512993 13.790714 58.524356 13.802734 58.535156 C 15.754818 60.27053 18.49667 60.491086 20.701172 59.054688 C 20.743112 59.027547 20.785752 58.99805 20.826172 58.96875 L 32 51 L 43.173828 58.96875 C 43.214248 58.99807 43.256888 59.027567 43.298828 59.054688 C 45.503333 60.491085 48.24518 60.27053 50.197266 58.535156 C 50.209266 58.524356 50.224508 58.512993 50.236328 58.501953 C 51.860781 57.006779 52.468077 54.820739 51.822266 52.699219 C 51.817866 52.684619 51.813394 52.67079 51.808594 52.65625 L 47.582031 39.525391 L 58.472656 31.564453 C 61.358827 29.618694 61.841203 24.913683 59.568359 22.304688 C 58.517431 21.025216 57.02535 20.05362 55.371094 20 C 55.340894 19.999516 55.31145 19.999516 55.28125 20 L 41.429688 20 L 37.322266 8.1015625 L 37.353516 8.21875 C 36.478511 5.6117895 34.614396 4.037368 32 4 z"/>
 <path style="opacity:0.2;fill:#8b9cbe" d="M 32 4 C 29.385603 4.037368 27.519536 5.611789 26.644531 8.21875 L 26.679688 8.1015625 L 22.570312 20 L 8.71875 20 C 8.688548 19.999516 8.6591082 19.999516 8.6289062 20 C 6.9746512 20.05362 5.4845216 21.025216 4.4335938 22.304688 C 3.3709262 23.524522 2.9178807 25.201361 3.0234375 26.841797 C 3.1238819 25.538697 3.5868434 24.276671 4.4335938 23.304688 C 5.4845216 22.025216 6.9746512 21.05362 8.6289062 21 C 8.6591082 20.999516 8.688548 20.999516 8.71875 21 L 22.570312 21 L 26.679688 9.1015625 L 26.644531 9.21875 C 27.519536 6.611789 29.385603 5.037368 32 5 C 34.614396 5.037368 36.48053 6.611783 37.355469 9.21875 L 37.320312 9.1015625 L 41.429688 21 L 55.28125 21 C 55.31145 20.999516 55.340894 20.999516 55.371094 21 C 57.02535 21.053621 58.515478 22.025216 59.566406 23.304688 C 60.413156 24.276671 60.876118 25.538697 60.976562 26.841797 C 61.082119 25.201361 60.629074 23.524522 59.566406 22.304688 C 58.515478 21.025216 57.02535 20.053621 55.371094 20 C 55.340894 19.999516 55.31145 19.999516 55.28125 20 L 41.429688 20 L 37.320312 8.1015625 L 37.355469 8.21875 C 36.48053 5.611783 34.614396 4.037368 32 4 z M 16.158203 40.333984 L 12.191406 52.65625 C 12.186706 52.67085 12.184107 52.684619 12.179688 52.699219 C 11.954624 53.438564 11.889652 54.183512 11.958984 54.90625 C 11.992926 54.504496 12.057199 54.101598 12.179688 53.699219 C 12.184107 53.684619 12.186706 53.67085 12.191406 53.65625 L 16.417969 40.523438 L 16.158203 40.333984 z M 47.841797 40.333984 L 47.582031 40.523438 L 51.808594 53.65625 C 51.813394 53.67079 51.815913 53.684619 51.820312 53.699219 C 51.942801 54.101598 52.007074 54.504496 52.041016 54.90625 C 52.110347 54.183512 52.045376 53.438564 51.820312 52.699219 C 51.815913 52.684619 51.813394 52.67079 51.808594 52.65625 L 47.841797 40.333984 z"/>
</svg>
