<svg xmlns="http://www.w3.org/2000/svg" width="64" height="64" version="1">
 <path style="fill:#d3d3d3" d="M 19,4 C 18.7042,4 18.4258,4.0576 18.1562,4.1368 18.4294,4.0714 18.6998,4 19,4 Z m -3,6.9 0,28.1 c 0,1.662 1.338,3 3,3 l 38,0 c 1.662,0 3,-1.338 3,-3 l 0,-28.1 z"/>
 <path style="opacity:0.2" d="m 16,39 0,1 c 0,1.662 1.338,3 3,3 l 38,0 c 1.662,0 3,-1.338 3,-3 l 0,-1 c 0,1.662 -1.338,3 -3,3 l -38,0 c -1.662,0 -3,-1.338 -3,-3 z"/>
 <path style="fill:#b2bfd9" d="M 4,28.9 4,57 c 0,1.662 1.338,3 3,3 l 38,0 c 1.662,0 3,-1.338 3,-3 l 0,-28.1 z"/>
 <path style="fill:#636e73" d="m 7,22 c -1.662,0 -3,1.338 -3,3 l 0,4 44,0 0,-4 c 0,-1.662 -1.338,-3 -3,-3 z"/>
 <path style="fill:#5a6367" d="m 19,4 c -1.662,0 -3,1 -3,3 l 0,4 44,0 0,-4 C 60,5.338 58.662,4 57,4 Z"/>
 <path style="opacity:0.1;fill:#8b9cbe" d="M 19 4 C 17.338 4 16 5.338 16 7 L 16 8 C 16 6.338 17.338 5 19 5 L 57 5 C 58.662 5 60 6.338 60 8 L 60 7 C 60 5.338 58.662 4 57 4 L 19 4 z"/>
 <path style="opacity:0.2" d="m 4,57 0,1 c 0,1.662 1.338,3 3,3 l 38,0 c 1.662,0 3,-1.338 3,-3 l 0,-1 c 0,1.662 -1.338,3 -3,3 L 7,60 C 5.338,60 4,58.662 4,57 Z"/>
</svg>
