<svg xmlns="http://www.w3.org/2000/svg" width="64" height="64" version="1">
 <path style="opacity:0.2" d="m 32.000041,4.9999858 c -2.6144,0.037368 -4.4789,1.6122043 -5.353908,4.2191625 l 0.03238,-0.117578 -4.107808,11.8984177 H 8.7179589 c -0.030202,-4.86e-4 -0.058804,-4.86e-4 -0.089006,0 -1.6542571,0.05362 -3.1458867,1.02546 -4.196816,2.30493 -2.2728475,2.60899 -1.7911191,6.714056 1.0950559,8.659812 l 10.8912232,7.959805 -4.226485,13.731168 c -0.0047,0.0146 -0.0091,0.02914 -0.0135,0.04376 -0.645812,2.121518 -0.03851,4.307203 1.585944,5.802375 0.01174,0.011 0.02574,0.02204 0.03776,0.03282 1.952087,1.735372 4.694886,1.95593 6.899392,0.519534 0.04194,-0.02714 0.08364,-0.05546 0.12406,-0.08478 l 11.174444,-8.069185 11.174427,8.069181 c 0.04042,0.02932 0.08212,0.05764 0.12406,0.08478 2.204508,1.436396 4.947306,1.215838 6.899394,-0.519534 0.012,-0.0108 0.02594,-0.02178 0.03776,-0.03282 1.624454,-1.495172 2.231756,-3.680857 1.585944,-5.802375 -0.0044,-0.0146 -0.0088,-0.02922 -0.0136,-0.04376 L 47.581584,39.924531 58.472807,31.964726 c 2.886174,-1.945756 3.367904,-6.050822 1.095056,-8.659812 -1.050928,-1.27947 -2.54256,-2.25131 -4.196815,-2.30493 -0.0302,-4.86e-4 -0.05882,-4.86e-4 -0.08902,0 H 41.429394 l -4.107808,-11.8984147 0.03238,0.117578 C 36.47894,6.6121901 34.614441,5.0373534 32.000041,4.9999858 Z"/>
 <path style="fill:#4caf50" d="m 32.000041,4.0000012 c -2.6144,0.037368 -4.4789,1.6122043 -5.353908,4.2191624 l 0.03238,-0.117578 -4.107808,11.8984184 H 8.7179589 c -0.030202,-4.86e-4 -0.058804,-4.86e-4 -0.089006,0 -1.6542571,0.05362 -3.1458867,1.02546 -4.196816,2.30493 -2.2728475,2.60899 -1.7911191,6.714056 1.0950559,8.659812 l 10.8912232,7.959805 -4.226485,13.731168 c -0.0047,0.0146 -0.0091,0.02914 -0.0135,0.04376 -0.645812,2.121518 -0.03851,4.307204 1.585944,5.802375 0.01174,0.011 0.02574,0.02204 0.03776,0.03282 1.952087,1.735372 4.694886,1.95593 6.899392,0.519534 0.04194,-0.02714 0.08364,-0.05546 0.12406,-0.08478 l 11.174444,-8.069185 11.174427,8.069181 c 0.04042,0.02932 0.08212,0.05764 0.12406,0.08478 2.204508,1.436396 4.947306,1.215838 6.899394,-0.519534 0.012,-0.0108 0.02594,-0.02178 0.03776,-0.03282 1.624454,-1.495171 2.231756,-3.680857 1.585944,-5.802375 -0.0044,-0.0146 -0.0088,-0.02922 -0.0136,-0.04376 L 47.581584,38.924547 58.472807,30.964742 C 61.358981,29.018986 61.840711,24.91392 59.567863,22.30493 58.516935,21.02546 57.025303,20.05362 55.371048,20 c -0.0302,-4.86e-4 -0.05882,-4.86e-4 -0.08902,0 H 41.429394 L 37.321586,8.1015848 37.353956,8.219163 C 36.47894,5.6122055 34.614441,4.0373688 32.000041,4.0000012 Z"/>
 <g style="font-size:19.90416336px;line-height:1.25;letter-spacing:0px;word-spacing:0px;opacity:0.2" transform="matrix(1.4562535,0,0,1.4014154,-2.285707,-1.2857104)">
  <path d="m 27.166338,31.600702 -1.035017,-2.854257 h -5.175082 l -1.035017,2.854257 h -3.244378 l 5.015849,-14.271285 h 3.68227 l 5.035753,14.271285 z m -1.751567,-5.708514 -1.870991,-6.353409 -1.831183,6.353409 z"/>
 </g>
 <g style="font-size:19.90416336px;line-height:1.25;letter-spacing:0px;word-spacing:0px;fill:#8b9cbe" transform="matrix(1.4562535,0,0,1.4014154,-2.285707,-2.2857101)">
  <path style="fill:#8b9cbe" d="m 27.166338,31.600702 -1.035017,-2.854257 h -5.175082 l -1.035017,2.854257 h -3.244378 l 5.015849,-14.271285 h 3.68227 l 5.035753,14.271285 z m -1.751567,-5.708514 -1.870991,-6.353409 -1.831183,6.353409 z"/>
 </g>
 <path style="fill:#8b9cbe;opacity:0.2" d="M 32 4 C 29.3856 4.037368 27.521492 5.6117919 26.646484 8.21875 L 26.677734 8.1015625 L 22.570312 20 L 8.71875 20 C 8.688548 19.999514 8.6591083 19.999514 8.6289062 20 C 6.9746492 20.05362 5.4825699 21.025217 4.4316406 22.304688 C 3.3560827 23.539315 2.9062993 25.107685 3.0273438 26.625 C 3.1326737 25.436897 3.5918446 24.268685 4.4316406 23.304688 C 5.4825699 22.025218 6.9746492 21.05362 8.6289062 21 C 8.6591083 20.999514 8.688548 20.999514 8.71875 21 L 22.570312 21 L 26.677734 9.1015625 L 26.646484 9.21875 C 27.521492 6.6117919 29.3856 5.037368 32 5 C 34.6144 5.0373676 36.4785 6.6117925 37.353516 9.21875 L 37.322266 9.1015625 L 41.429688 21 L 55.28125 21 C 55.31145 20.999514 55.340894 20.999514 55.371094 21 C 57.025349 21.05362 58.517431 22.025218 59.568359 23.304688 C 60.408156 24.268685 60.867326 25.436897 60.972656 26.625 C 61.093701 25.107685 60.643918 23.539315 59.568359 22.304688 C 58.517431 21.025218 57.025349 20.05362 55.371094 20 C 55.340894 19.999514 55.31145 19.999514 55.28125 20 L 41.429688 20 L 37.322266 8.1015625 L 37.353516 8.21875 C 36.4785 5.6117925 34.6144 4.0373676 32 4 z M 16.166016 39.740234 L 12.191406 52.65625 C 12.186706 52.67085 12.182134 52.684599 12.177734 52.699219 C 11.953272 53.436586 11.890597 54.18116 11.958984 54.902344 C 11.993143 54.502128 12.05575 54.099942 12.177734 53.699219 C 12.182134 53.684599 12.186706 53.67085 12.191406 53.65625 L 16.417969 39.923828 L 16.166016 39.740234 z M 47.833984 39.740234 L 47.582031 39.923828 L 51.808594 53.65625 C 51.813394 53.67079 51.817866 53.684619 51.822266 53.699219 C 51.94425 54.099942 52.006857 54.502128 52.041016 54.902344 C 52.109403 54.18116 52.046728 53.436586 51.822266 52.699219 C 51.817866 52.684619 51.813394 52.67079 51.808594 52.65625 L 47.833984 39.740234 z"/>
</svg>
