<svg xmlns="http://www.w3.org/2000/svg" width="64" height="64" version="1.1">
 <path style="opacity:0.2" d="M 23.097555,5.00272 C 22.223257,5.05166 21.466628,5.6388354 21.188001,6.4846085 L 4.1133028,58.098707 c -0.4661435,1.411457 0.5641862,2.872691 2.0258114,2.873049 h 8.6721548 c 0.953868,1.9e-4 1.792466,-0.643461 2.055493,-1.577656 l 6.535036,-23.173419 4.694738,13.31466 c 0.296109,0.879902 1.107915,1.464641 2.020864,1.465303 h 3.910632 c 0.912951,-6.62e-4 1.724756,-0.585401 2.020866,-1.465303 L 40.718899,36.298807 47.065947,59.3815 c 0.258943,0.940991 1.101273,1.591104 2.06044,1.590256 h 8.370385 c 0.757851,0.12546 1.523545,-0.17274 2.006024,-0.781267 0.0058,-0.0068 0.0116,-0.0134 0.0174,-0.02018 0.0068,-0.0092 0.0134,-0.0184 0.0198,-0.02774 0.0196,-0.02478 0.03848,-0.05 0.0569,-0.07562 0.03044,-0.04342 0.05934,-0.08798 0.08658,-0.13356 0.0026,-0.0042 0.0048,-0.0084 0.0074,-0.0126 0.0026,-0.0042 0.0048,-0.0084 0.0074,-0.0126 0.383876,-0.655865 0.402648,-1.468648 0.04948,-2.142186 L 42.645769,6.4795685 c -0.660297,-1.982572 -3.417671,-1.967154 -4.05657,0.02268 L 32.022008,26.999196 25.239622,6.4846085 C 24.958361,5.6322474 24.19195,5.043582 23.310278,5.00272 c -0.07086,-0.0036 -0.141859,-0.0036 -0.212723,0 z"/>
 <path style="fill:#006fd2" d="M 23.097555,4.00274 C 22.223257,4.05168 21.466628,4.6388554 21.188001,5.4846285 L 4.1133028,57.098727 c -0.4661435,1.411457 0.5641862,2.872691 2.0258114,2.873049 h 8.6721548 c 0.953868,1.9e-4 1.792466,-0.643461 2.055493,-1.577656 l 6.535036,-23.173419 4.694738,13.31466 c 0.296109,0.879902 1.107915,1.464641 2.020864,1.465303 h 3.910632 c 0.912951,-6.62e-4 1.724756,-0.585401 2.020866,-1.465303 l 4.670001,-13.236534 6.347048,23.082693 c 0.258943,0.940991 1.101273,1.591104 2.06044,1.590256 h 8.370385 c 0.757851,0.12546 1.523545,-0.17274 2.006024,-0.781267 0.0058,-0.0068 0.0116,-0.0134 0.0174,-0.02018 0.0068,-0.0092 0.0134,-0.0184 0.0198,-0.02774 0.0196,-0.02478 0.03848,-0.05 0.0569,-0.07562 0.03044,-0.04342 0.05934,-0.08798 0.08658,-0.13356 0.0026,-0.0042 0.0048,-0.0084 0.0074,-0.0126 0.0026,-0.0042 0.0048,-0.0084 0.0074,-0.0126 0.383876,-0.655865 0.402648,-1.468648 0.04948,-2.142186 L 42.645769,5.4795885 c -0.660297,-1.982572 -3.417671,-1.967154 -4.05657,0.02268 L 32.022008,25.999216 25.239622,5.4846285 C 24.958361,4.6322674 24.19195,4.043602 23.310278,4.00274 c -0.07086,-0.0036 -0.141859,-0.0036 -0.212723,0 z"/>
 <path style="opacity:0.1;fill:#8b9cbe" d="M 40.609375 4 C 39.757632 4.00476 38.909294 4.5089893 38.589844 5.5039062 L 32.023438 26 L 25.238281 5.484375 C 24.95702 4.6320139 24.190266 4.0447682 23.308594 4.0039062 C 23.237734 4.0003063 23.168514 4.0003062 23.097656 4.0039062 C 22.223358 4.0528462 21.466127 4.6386019 21.1875 5.484375 L 4.1132812 57.097656 C 3.9793937 57.50306 3.9812576 57.908846 4.0722656 58.285156 C 4.0869231 58.222544 4.0925885 58.160313 4.1132812 58.097656 L 21.1875 6.484375 C 21.466127 5.6386019 22.223358 5.0528462 23.097656 5.0039062 C 23.168514 5.0003063 23.237734 5.0003063 23.308594 5.0039062 C 24.190266 5.0447682 24.95702 5.6320139 25.238281 6.484375 L 32.023438 27 L 38.589844 6.5039062 C 38.909294 5.5089892 39.757632 5.00476 40.609375 5 C 41.461116 4.9952378 42.314381 5.4891827 42.644531 6.4804688 L 59.746094 57.765625 C 59.832794 57.93098 59.89247 58.105642 59.933594 58.283203 C 60.051655 57.776704 59.993695 57.237852 59.746094 56.765625 L 42.644531 5.4804688 C 42.314381 4.4891828 41.461116 3.9952378 40.609375 4 z"/>
</svg>
