<svg xmlns="http://www.w3.org/2000/svg" width="64" height="64" version="1">
 <circle style="opacity:0.2" cx="29" cy="33" r="25"/>
 <circle style="fill:#ad3f36" cx="29" cy="32" r="25"/>
 <path style="opacity:0.1;fill:#8b9cbe" d="M 29 7 A 25 25 0 0 0 4 32 A 25 25 0 0 0 4.0175781 32.490234 A 25 25 0 0 1 29 8 A 25 25 0 0 1 53.974609 32.490234 A 25 25 0 0 0 54 32 A 25 25 0 0 0 29 7 z"/>
 <path style="opacity:0.2" d="M 51.213204,53.2 30,31.986794 51.213204,10.77359 c 11.71573,11.715726 11.715726,30.710682 0,42.42641 z"/>
 <path style="fill:#3b8ae0" d="M 51.213204,52.2 30,30.986794 51.213204,9.77359 c 11.71573,11.715726 11.715726,30.710682 0,42.42641 z"/>
 <path style="opacity:0.2" d="M 30,6 30,32 48.385484,13.614514 C 43.680412,8.90944 37.179702,6 30,6 Z"/>
 <path style="fill:#7dc564" d="M 30,5 30,31 48.385484,12.614514 C 43.680412,7.90944 37.179702,5 30,5 Z"/>
 <path style="fill:#8b9cbe;opacity:0.1" d="M 30 5 L 30 6 C 36.925271 6 43.213308 8.7127206 47.873047 13.126953 L 48.384766 12.615234 C 43.679694 7.9101604 37.179702 5 30 5 z"/>
</svg>
