<svg xmlns="http://www.w3.org/2000/svg" width="64" height="64" version="1.1">
 <path style="opacity:0.2" d="M 4.6992188,11 C 3.2034186,11 2,12.198625 2,13.6875 v 37.625 C 2,52.801375 3.2034186,54 4.6992188,54 H 26.300781 C 27.796581,54 29,52.801375 29,51.3125 V 13.6875 C 29,12.198625 27.796581,11 26.300781,11 Z M 34.636719,11 C 33.176173,11 32,12.17075 32,13.625 v 15.75 C 32,30.82925 33.176173,32 34.636719,32 H 58.363281 C 59.823827,32 61,30.82925 61,29.375 V 13.625 C 61,12.17075 59.823827,11 58.363281,11 Z m -0.03711,24 C 33.159209,35 32,36.21113 32,37.714844 V 51.285156 C 32,52.78887 33.159209,54 34.599609,54 h 7.800782 C 43.840791,54 45,52.78887 45,51.285156 V 37.714844 C 45,36.21113 43.840791,35 42.400391,35 Z m 16,0 C 49.159209,35 48,36.21113 48,37.714844 V 51.285156 C 48,52.78887 49.159209,54 50.599609,54 h 7.800782 C 59.840791,54 61,52.78887 61,51.285156 V 37.714844 C 61,36.21113 59.840791,35 58.400391,35 Z"/>
 <rect style="fill:#9bb013" width="13" height="19" x="32" y="34" rx="2.6" ry="2.714"/>
 <rect style="fill:#2a93dd" width="27" height="43" x="2" y="10" rx="2.7" ry="2.688"/>
 <rect style="opacity:0.3" width="19" height="3" x="6" y="18"/>
 <rect style="fill:#e83f3c" width="29" height="21" x="32" y="10" rx="2.636" ry="2.625"/>
 <path style="opacity:0.3;fill:none;stroke:#000000;stroke-width:1.3153379px;stroke-linecap:round;stroke-linejoin:round" d="m 37.664326,14.587122 3.954546,3.9375 -3.954546,3.9375"/>
 <path style="opacity:0.3;fill:none;stroke:#000000;stroke-width:1.3153379px;stroke-linecap:round;stroke-linejoin:round" d="m 44.664326,14.587122 3.954546,3.9375 -3.954546,3.9375"/>
 <path style="opacity:0.3;fill:none;stroke:#000000;stroke-width:1.3153379px;stroke-linecap:round;stroke-linejoin:round" d="m 51.664326,14.587122 3.954545,3.9375 -3.954545,3.9375"/>
 <rect style="fill:#9bb013" width="13" height="19" x="48" y="34" rx="2.6" ry="2.714"/>
 <rect style="opacity:0.3" width="19" height="3" x="6" y="26"/>
 <rect style="opacity:0.3" width="19" height="3" x="6" y="34"/>
 <rect style="opacity:0.3" width="13" height="3" x="6" y="42"/>
 <path style="opacity:0.2;fill:#8b9cbe" d="M 4.6992188 10 C 3.2034186 10 2 11.198625 2 12.6875 L 2 13.6875 C 2 12.198625 3.2034186 11 4.6992188 11 L 26.300781 11 C 27.796581 11 29 12.198625 29 13.6875 L 29 12.6875 C 29 11.198625 27.796581 10 26.300781 10 L 4.6992188 10 z M 34.636719 10 C 33.176173 10 32 11.17075 32 12.625 L 32 13.625 C 32 12.17075 33.176173 11 34.636719 11 L 58.363281 11 C 59.823827 11 61 12.17075 61 13.625 L 61 12.625 C 61 11.17075 59.823827 10 58.363281 10 L 34.636719 10 z M 34.599609 34 C 33.159209 34 32 35.21113 32 36.714844 L 32 37.714844 C 32 36.21113 33.159209 35 34.599609 35 L 42.400391 35 C 43.840791 35 45 36.21113 45 37.714844 L 45 36.714844 C 45 35.21113 43.840791 34 42.400391 34 L 34.599609 34 z M 50.599609 34 C 49.159209 34 48 35.21113 48 36.714844 L 48 37.714844 C 48 36.21113 49.159209 35 50.599609 35 L 58.400391 35 C 59.840791 35 61 36.21113 61 37.714844 L 61 36.714844 C 61 35.21113 59.840791 34 58.400391 34 L 50.599609 34 z"/>
</svg>
