<svg xmlns="http://www.w3.org/2000/svg" width="64" height="64" version="1">
 <path style="opacity:0.2" d="M 3,16.905567 V 58.686524 C 3,60.523882 4.4773622,62 6.3134764,62 H 32 57.686524 C 59.522638,62 61,60.523882 61,58.686524 V 16.905567 H 32 Z"/>
 <path style="fill:#7e57c2" d="M 3,15.905567 V 57.686524 C 3,59.523882 4.4773622,61 6.3134764,61 H 32 57.686524 C 59.522638,61 61,59.523882 61,57.686524 V 15.905567 H 32 Z"/>
 <path style="fill:#673ab7" d="M 6.3134764,3 C 4.4773622,3 3,4.4761194 3,6.3134764 V 17 H 32 61 V 6.3134764 C 61,4.4761194 59.522638,3 57.686524,3 H 32 Z"/>
 <path style="opacity:0.2" d="m 29,26 v 4.472656 a 10,10 0 0 0 -3.753906,2.164062 L 21.375,30.402344 l -3,5.195312 3.871094,2.234376 A 10,10 0 0 0 22,40 a 10,10 0 0 0 0.25,2.164062 l -3.875,2.238282 3,5.195312 3.875,-2.23828 A 10,10 0 0 0 29,49.539062 V 54 h 6 v -4.472656 a 10,10 0 0 0 3.753906,-2.164062 l 3.871094,2.234374 3,-5.195312 -3.871094,-2.234376 A 10,10 0 0 0 42,40 10,10 0 0 0 41.75,37.835938 l 3.875,-2.238282 -3,-5.195312 -3.875,2.23828 A 10,10 0 0 0 35,30.460938 V 26 Z m 3,8 a 6,6 0 0 1 6,6 6,6 0 0 1 -6,6 6,6 0 0 1 -6,-6 6,6 0 0 1 6,-6 z"/>
 <path style="fill:#8b9cbe" d="m 29,25 v 4.472656 a 10,10 0 0 0 -3.753906,2.164062 L 21.375,29.402344 l -3,5.195312 3.871094,2.234376 A 10,10 0 0 0 22,39 a 10,10 0 0 0 0.25,2.164062 l -3.875,2.238282 3,5.195312 3.875,-2.23828 A 10,10 0 0 0 29,48.539062 V 53 h 6 v -4.472656 a 10,10 0 0 0 3.753906,-2.164062 l 3.871094,2.234374 3,-5.195312 -3.871094,-2.234376 A 10,10 0 0 0 42,39 10,10 0 0 0 41.75,36.835938 l 3.875,-2.238282 -3,-5.195312 -3.875,2.23828 A 10,10 0 0 0 35,29.460938 V 25 Z m 3,8 a 6,6 0 0 1 6,6 6,6 0 0 1 -6,6 6,6 0 0 1 -6,-6 6,6 0 0 1 6,-6 z"/>
 <path style="opacity:0.1;fill:#8b9cbe" d="M 6.3125 3 C 4.4763858 3 3 4.475143 3 6.3125 L 3 7.3125 C 3 5.475143 4.4763858 4 6.3125 4 L 32 4 L 57.6875 4 C 59.523614 4 61 5.475143 61 7.3125 L 61 6.3125 C 61 4.475143 59.523614 3 57.6875 3 L 32 3 L 6.3125 3 z"/>
</svg>
