<svg xmlns="http://www.w3.org/2000/svg" width="64" height="64" version="1">
 <path style="opacity:0.2;fill-rule:evenodd" d="m 30.855237,59.999437 c 1.121245,0.007 2.252143,-0.05118 3.379848,-0.1797 4.47527,-0.509994 8.834439,-2.091515 12.664623,-4.699594 5.640792,-3.840972 9.469962,-9.585324 11.166826,-16.005182 1.321819,-0.601829 2.512299,-1.514389 3.454346,-2.765847 1.87007,-2.484285 2.071677,-6.942599 0,-9.696084 a 6.0231602,6.0010788 0 0 0 0,-0.004 l -1.882049,-2.500199 a 6.0231602,6.0010788 0 0 0 -0.004,-0.004 L 57.74886,21.64463 c -2.073589,-2.7492 -5.012076,-3.644637 -7.637905,-3.644637 -2.625829,0 -5.564316,0.895437 -7.637983,3.644823 l -1.885971,2.500199 a 6.0231602,6.0010788 0 0 0 -0.004,0.004 l -1.882048,2.500199 a 6.0231602,6.0010788 0 0 0 0,0.004 c -2.071677,2.753485 -1.870071,7.211799 0,9.696084 0.258178,0.342978 0.65206,0.468678 0.944944,0.761782 -0.733782,1.229748 -1.718055,2.313483 -2.944623,3.148687 -2.746979,1.870495 -6.205823,2.263851 -9.3083,1.058678 l 0.0941,0.03516 c -2.345611,-0.956015 -5.27629,-0.876265 -7.461543,0.218768 -2.185253,1.095032 -3.610381,2.888499 -4.375766,4.844136 -0.76538,1.955636 -0.934994,4.236293 -0.07058,6.516144 0.859369,2.266127 2.946486,4.281432 5.305112,5.168194 3.225648,1.245451 6.606079,1.877381 9.97094,1.898589 z"/>
 <path style="fill:#ff9932;fill-rule:evenodd" d="m 30.855237,58.999428 c 1.121245,0.007 2.252143,-0.05118 3.379848,-0.1797 4.47527,-0.509994 8.834439,-2.091515 12.664623,-4.699594 5.640792,-3.840971 9.469962,-9.585324 11.166826,-16.005182 1.321819,-0.601828 2.512299,-1.514389 3.454346,-2.765847 1.87007,-2.484285 2.071677,-6.942599 0,-9.696084 a 6.0231602,6.0010788 0 0 0 0,-0.004 l -1.882049,-2.500199 a 6.0231602,6.0010788 0 0 0 -0.004,-0.004 L 57.74886,20.644621 c -2.073589,-2.749201 -5.012076,-3.644638 -7.637905,-3.644638 -2.625829,0 -5.564316,0.895437 -7.637983,3.644824 l -1.885971,2.500199 a 6.0231602,6.0010788 0 0 0 -0.004,0.004 l -1.882048,2.500199 a 6.0231602,6.0010788 0 0 0 0,0.004 c -2.071677,2.753485 -1.870071,7.211799 0,9.696084 0.258178,0.342978 0.65206,0.468678 0.944944,0.761782 -0.733782,1.229749 -1.718055,2.313483 -2.944623,3.148687 -2.746979,1.870495 -6.205823,2.263851 -9.3083,1.058679 l 0.0941,0.03516 c -2.345611,-0.956015 -5.27629,-0.876265 -7.461543,0.218768 -2.185253,1.095032 -3.610381,2.888499 -4.375766,4.844136 -0.76538,1.955637 -0.934994,4.236293 -0.07058,6.516144 0.859369,2.266127 2.946486,4.281432 5.305112,5.168194 3.225648,1.245451 6.606079,1.877381 9.97094,1.898589 z"/>
 <path style="opacity:0.2;fill-rule:evenodd" d="M 33.144531 6 C 32.023287 5.99294 30.893329 6.0511751 29.765625 6.1796875 C 25.290355 6.6896817 20.929792 8.2708284 17.099609 10.878906 C 11.458817 14.719877 7.6304594 20.464908 5.9335938 26.884766 C 4.6117754 27.486594 3.4205618 28.398933 2.4785156 29.650391 C 0.60844487 32.134676 0.40683879 36.594171 2.4785156 39.347656 A 6.0231602 6.0010788 0 0 0 2.4785156 39.351562 L 4.3613281 41.851562 A 6.0231602 6.0010788 0 0 0 4.3652344 41.855469 L 6.2519531 44.355469 C 8.3256213 47.104668 11.262842 48 13.888672 48 C 16.514501 48 19.453677 47.104856 21.527344 44.355469 L 23.412109 41.855469 A 6.0231602 6.0010788 0 0 0 23.417969 41.851562 L 25.298828 39.351562 A 6.0231602 6.0010788 0 0 0 25.298828 39.347656 C 27.370505 36.594171 27.168899 32.134676 25.298828 29.650391 C 25.04065 29.307413 24.6464 29.181776 24.353516 28.888672 C 25.087298 27.658923 26.07226 26.575439 27.298828 25.740234 C 30.045807 23.86974 33.504945 23.476469 36.607422 24.681641 L 36.513672 24.646484 C 37.294935 24.964908 38.141993 25.156725 39.003906 25.246094 L 40.582031 23.148438 L 40.587891 23.144531 L 42.472656 20.644531 C 44.245618 18.293836 46.649759 17.303724 48.951172 17.064453 C 49.076111 15.776964 48.93382 14.421789 48.419922 13.066406 C 47.560554 10.800282 45.473861 8.7851997 43.115234 7.8984375 C 39.889587 6.6529864 36.509393 6.0212084 33.144531 6 z"/>
 <path style="fill:#ffda43;fill-rule:evenodd" d="m 33.144762,5.0005502 c -1.121244,-0.00706 -2.252143,0.05119 -3.379847,0.1797024 -4.47527,0.5099942 -8.83444,2.0915155 -12.664623,4.6995935 C 11.4595,13.720817 7.630331,19.465171 5.9334653,25.885029 c -1.3218184,0.601828 -2.5122988,1.514389 -3.454345,2.765847 -1.87007076,2.484285 -2.07167684,6.942599 0,9.696084 a 6.0231602,6.0010788 0 0 0 0,0.004 l 1.8820493,2.500199 a 6.0231602,6.0010788 0 0 0 0.00392,0.004 l 1.8859706,2.500201 c 2.0736682,2.749199 5.0121548,3.644635 7.6379848,3.644635 2.625829,0 5.564316,-0.895436 7.637983,-3.644823 l 1.88597,-2.500199 a 6.0231602,6.0010788 0 0 0 0.004,-0.004 l 1.882049,-2.500199 a 6.0231602,6.0010788 0 0 0 0,-0.004 c 2.071677,-2.753485 1.870071,-7.211799 0,-9.696084 -0.258178,-0.342978 -0.65206,-0.468678 -0.944944,-0.761782 0.733782,-1.229749 1.718055,-2.313483 2.944623,-3.148688 2.746979,-1.870494 6.205823,-2.26385 9.3083,-1.058678 l -0.0941,-0.03516 c 2.345611,0.956014 5.27629,0.876264 7.461543,-0.218768 2.185253,-1.095032 3.610381,-2.8885 4.375765,-4.844137 0.765381,-1.955636 0.934995,-4.236292 0.07058,-6.516145 C 47.561446,9.8012075 45.474329,7.7859015 43.115702,6.8991393 39.890055,5.6536882 36.509624,5.0217586 33.144762,5.0005502 Z"/>
 <path style="opacity:0.2;fill:#8b9cbe;fill-rule:evenodd" d="M 33.144531 5 C 32.023287 4.99294 30.893329 5.0511751 29.765625 5.1796875 C 25.290355 5.6896817 20.929792 7.2708283 17.099609 9.8789062 C 11.458817 13.719877 7.6304595 19.464908 5.9335938 25.884766 C 4.6117754 26.486594 3.4205618 27.398933 2.4785156 28.650391 C 1.4384686 30.032035 0.93902516 32.024179 1.0351562 33.994141 C 1.1279663 32.368205 1.615393 30.797001 2.4785156 29.650391 C 3.4205618 28.398933 4.6117754 27.486594 5.9335938 26.884766 C 7.6304594 20.464908 11.458817 14.719877 17.099609 10.878906 C 20.929792 8.2708284 25.290355 6.6896817 29.765625 6.1796875 C 30.893329 6.0511751 32.023287 5.99294 33.144531 6 C 36.509393 6.0212084 39.889587 6.6529864 43.115234 7.8984375 C 45.473861 8.7851997 47.560554 10.800282 48.419922 13.066406 C 48.749149 13.934726 48.92702 14.803745 48.980469 15.654297 C 49.039639 14.490607 48.879537 13.27862 48.419922 12.066406 C 47.560554 9.8002818 45.473861 7.7851997 43.115234 6.8984375 C 39.889587 5.6529864 36.509393 5.0212084 33.144531 5 z M 24.800781 28.222656 C 24.646363 28.441418 24.490522 28.659062 24.353516 28.888672 C 24.6464 29.181776 25.04065 29.307413 25.298828 29.650391 C 26.162316 30.797486 26.651642 32.369421 26.744141 33.996094 C 26.840699 32.025517 26.339208 30.032477 25.298828 28.650391 C 25.159356 28.465108 24.982143 28.341767 24.800781 28.222656 z"/>
 <path style="opacity:0.2;fill-rule:evenodd" d="m 33.144544,12.003901 c -0.88366,-0.0056 -1.76806,0.04038 -2.644533,0.140625 -3.505889,0.400995 -6.91598,1.642416 -9.914066,3.691408 -5.440817,3.718435 -8.87069,9.668679 -9.464848,16.164068 l -0.875,0 a 3.2489855,2.500465 0 0 0 -2.8125011,3.750001 l 1.8750007,2.500001 1.8789074,2.500001 a 3.2489855,2.500465 0 0 0 5.625002,0 l 1.878907,-2.500001 1.875,-2.500001 a 3.2489855,2.500465 0 0 0 -2.812501,-3.750001 l -0.625,0 c 0.567324,-4.514418 3.033985,-8.60722 6.843753,-11.210941 4.365573,-2.983578 9.913328,-3.616084 14.83985,-1.695313 a 3.0003012,3.0003012 0 1 0 2.179688,-5.589846 c -2.537489,-0.989326 -5.19668,-1.483231 -7.847659,-1.500001 z"/>
 <path style="fill:#17191e;fill-rule:evenodd" d="m 33.144544,11.003887 c -0.88366,-0.0056 -1.76806,0.04038 -2.644533,0.140625 -3.505889,0.400996 -6.91598,1.642417 -9.914066,3.691408 -5.440817,3.718435 -8.87069,9.66868 -9.464848,16.164069 l -0.875,0 A 3.2489855,2.500465 0 0 0 7.4335959,34.74999 l 1.8750007,2.500001 1.8789074,2.500001 a 3.2489855,2.500465 0 0 0 5.625002,0 l 1.878907,-2.500001 1.875,-2.500001 a 3.2489855,2.500465 0 0 0 -2.812501,-3.750001 l -0.625,0 c 0.567324,-4.514418 3.033985,-8.607219 6.843753,-11.210942 4.365573,-2.983578 9.913328,-3.616084 14.83985,-1.695313 a 3.0003012,3.0003012 0 1 0 2.179688,-5.589846 c -2.537489,-0.989326 -5.19668,-1.483231 -7.847659,-1.500001 z"/>
 <path style="fill:#ff9932;fill-rule:evenodd" d="m 61.52088,25.653021 0,-0.004 -1.882049,-2.500199 -0.004,-0.004 -1.885971,-2.500201 c -2.073589,-2.749201 -5.012076,-3.644638 -7.637905,-3.644638 -2.625829,0 -5.564316,0.895437 -7.637983,3.644824 l -1.885971,2.500199 -0.004,0.004 -1.882048,2.500199 0,0.004 z"/>
 <path style="opacity:0.2;fill-rule:evenodd" d="m 30.855455,53.996101 c 0.883661,0.0056 1.768061,-0.04038 2.644533,-0.14062 3.50589,-0.400995 6.915981,-1.642417 9.914066,-3.691408 5.440819,-3.718441 8.87069,-9.668686 9.464848,-16.164074 l 0.875001,0 a 3.2489855,2.500465 0 0 0 2.812501,-3.750002 l -1.875001,-2.500001 -1.878907,-2.500001 a 3.2489855,2.500465 0 0 0 -5.625002,0 l -1.878907,2.500001 -1.875001,2.500001 a 3.2489855,2.500465 0 0 0 2.812502,3.750002 l 0.625,0 c -0.567324,4.514417 -3.033985,8.607219 -6.843753,11.210942 -4.365574,2.983577 -9.913328,3.616084 -14.83985,1.695313 A 3.0003012,3.0003012 0 1 0 23.007796,52.4961 c 2.537489,0.989326 5.19668,1.483231 7.847659,1.500001 z"/>
 <path style="fill:#17191e;fill-rule:evenodd" d="m 30.855455,52.996092 c 0.883661,0.0056 1.768061,-0.04038 2.644533,-0.14062 3.50589,-0.400994 6.915981,-1.642417 9.914066,-3.691408 5.440819,-3.718441 8.87069,-9.668686 9.464848,-16.164074 l 0.875001,0 a 3.2489855,2.500465 0 0 0 2.812501,-3.750002 l -1.875001,-2.500001 -1.878907,-2.500001 a 3.2489855,2.500465 0 0 0 -5.625002,0 l -1.878907,2.500001 -1.875001,2.500001 a 3.2489855,2.500465 0 0 0 2.812502,3.750002 l 0.625,0 c -0.567324,4.514418 -3.033985,8.607219 -6.843753,11.210942 -4.365574,2.983577 -9.913328,3.616084 -14.83985,1.695313 a 3.0003012,3.0003012 0 1 0 -2.179689,5.589846 c 2.537489,0.989327 5.19668,1.483231 7.847659,1.500001 z"/>
</svg>
