<svg xmlns="http://www.w3.org/2000/svg" width="64" height="64" version="1">
 <rect style="opacity:0.2" width="58" height="58" x="3" y="4" rx="2.9" ry="2.9"/>
 <rect style="fill:#b2bfd9" width="58" height="58" x="3" y="3" rx="2.9" ry="2.9"/>
 <path style="opacity:0.2" d="m 18,14.999999 c -1.662,0 -3,1.338 -3,3 V 48 c 0,1.662 1.338,3 3,3 1.662,0 3,-1.338 3,-3 V 17.999999 c 0,-1.662 -1.338,-3 -3,-3 z"/>
 <path style="fill:#4f4f4f" d="M 15,25.499998 V 48 c 0,1.662 1.338,3 3,3 1.662,0 3,-1.338 3,-3 V 25.499998 Z"/>
 <path style="opacity:0.2" d="m 46,14.999999 c -1.662,0 -3,1.338 -3,3 V 48 c 0,1.662 1.338,3 3,3 1.662,0 3,-1.338 3,-3 V 17.999999 c 0,-1.662 -1.338,-3 -3,-3 z"/>
 <path style="fill:#4f4f4f" d="M 43,25.499998 V 48 c 0,1.662 1.338,3 3,3 1.662,0 3,-1.338 3,-3 V 25.499998 Z"/>
 <path style="opacity:0.2" d="m 32,14.999999 c -1.662,0 -3,1.338 -3,3 V 48 c 0,1.662 1.338,3 3,3 1.662,0 3,-1.338 3,-3 V 17.999999 c 0,-1.662 -1.338,-3 -3,-3 z"/>
 <path style="fill:#4f4f4f" d="M 29,37.5 V 48 c 0,1.662 1.338,3 3,3 1.662,0 3,-1.338 3,-3 V 37.5 Z"/>
 <rect style="opacity:0.1" width="14" height="8" x="11" y="24" rx="2.8" ry="2.8"/>
 <rect style="fill:#818181" width="14" height="8" x="11" y="23" rx="2.8" ry="2.8"/>
 <rect style="opacity:0.1" width="14" height="8" x="25" y="36" rx="2.8" ry="2.8"/>
 <rect style="fill:#818181" width="14" height="8" x="25" y="35" rx="2.8" ry="2.8"/>
 <rect style="opacity:0.1" width="14" height="8" x="39" y="24" rx="2.8" ry="2.8"/>
 <rect style="fill:#818181" width="14" height="8" x="39" y="23" rx="2.8" ry="2.8"/>
 <path style="opacity:0.2;fill:#8b9cbe" d="M 5.8984375 3 C 4.2918373 3 3 4.2918373 3 5.8984375 L 3 6.8984375 C 3 5.2918373 4.2918373 4 5.8984375 4 L 58.101562 4 C 59.708163 4 61 5.2918373 61 6.8984375 L 61 5.8984375 C 61 4.2918373 59.708163 3 58.101562 3 L 5.8984375 3 z"/>
</svg>
