<svg xmlns="http://www.w3.org/2000/svg" height="64" width="64" version="1.1">
 <path style="opacity:.2" d="m10 55v2c0 2.216 1.784 4 4 4h36c2.216 0 4-1.784 4-4v-2c0 2.216-1.784 4-4 4h-36c-2.216 0-4-1.784-4-4z"/>
 <rect style="fill:#8e8e8e" transform="matrix(0,-1,-1,0,0,0)" rx="4" ry="4" height="44" width="56" y="-54" x="-60"/>
 <path style="opacity:.5" d="m32 12c-7.732 0-14 6.268-14 14v14h14c7.732 0 14-6.268 14-14s-6.268-14-14-14zm0 6a8 8 0 0 1 8 8 8 8 0 0 1 -8 8 8 8 0 0 1 -8 -8 8 8 0 0 1 8 -8z"/>
 <path style="opacity:.1;fill:#8b9cbe" d="m14 4c-2.216 0-4 1.784-4 4v1c0-2.216 1.784-4 4-4h36c2.216 0 4 1.784 4 4v-1c0-2.216-1.784-4-4-4z"/>
 <path style="opacity:.2" d="m63.958 45.848a16 16 0 0 1 -15.958 15.152 16 16 0 0 1 -15.958 -14.848 16 16 0 0 0 -0.042 0.848 16 16 0 0 0 16 16 16 16 0 0 0 16 -16 16 16 0 0 0 -0.04296 -1.15234z"/>
 <circle style="fill:#86ff7b" cx="48" r="16" cy="46"/>
 <path style="fill:#8b9cbe" d="m48 36a10 10 0 0 0 -10 10 10 10 0 0 0 10 10 10 10 0 0 0 10 -10 10 10 0 0 0 -10 -10zm0 6a4 4 0 0 1 4 4 4 4 0 0 1 -4 4 4 4 0 0 1 -4 -4 4 4 0 0 1 4 -4z"/>
</svg>
