<svg xmlns="http://www.w3.org/2000/svg" width="64" height="64" version="1.1">
 <rect style="opacity:0.2" width="60" height="38" x="2" y="14" rx="2.727" ry="2.714"/>
 <rect style="fill:#858585" width="60" height="38" x="2" y="13" rx="2.727" ry="2.714"/>
 <rect style="opacity:0.1" width="54" height="29" x="5" y="20" rx="2.455" ry="2.071"/>
 <rect style="fill:#ccdfd8" width="54" height="29" x="5" y="19" rx="2.455" ry="2.071"/>
 <path style="fill:#17191e" d="m 44,25 c -5.522848,0 -10,4.477152 -10,10 0,5.522848 4.477152,10 10,10 3.680684,-0.0042 7.061084,-2.029844 8.800782,-5.273438 L 51.5,38.75 49.539062,37.300782 A 6,6 0 0 1 45.191406,40.875 C 44.819862,40.97752 44.429844,41.05084 44,41.05078 c -1.420056,0 -2.613014,-0.456834 -3.542968,-1.214844 A 6,6 0 0 1 38,35 a 6,6 0 0 1 6,-6 6,6 0 0 1 5.53125,3.683594 L 51.5,31.25 52.808594,30.269532 C 51.06635,27.025512 47.682266,25.000462 44,25 Z"/>
 <path style="fill:#17191e" d="m 21.076256,34.39418 -1.451526,3.824574 c 0,0 -0.15798,1.18619 2.78398,2.807174 1.470978,0.81049 2.887616,1.741488 3.752662,2.548828 1.63241,1.344218 0.288346,2.136456 -0.753728,2.807172 -1.098382,0.463962 -2.831678,0.760332 -4.778054,0.96147 -3.892749,0.40228 -4.948345,0.259826 -8.393439,2.841798 C 9.507047,52.23056 7.5564614,54.426218 7.082564,58.14862 7.039256,58.488804 7.01306,58.652906 7,59 h 2.198363 c 0.0068,-0.17452 0.0133,-0.167284 0.03462,-0.33469 0.356124,-2.797312 2.925993,-5.625898 5.456111,-7.522126 1.673245,-1.254038 2.234066,-1.621608 6.361302,-2.04812 3.314932,-0.584482 9.485934,-1.416138 10.016868,-3.538774 0.4585,-2.107568 -0.812008,-3.75669 -2.1147,-4.97248 -1.302698,-1.215788 -2.936316,-2.239776 -4.570314,-3.14009 -3.268,-1.80063 -3.305998,-3.04954 -3.305998,-3.04954 z"/>
 <circle style="fill:#17191e" cx="-.046" cy="38.079" r="10" transform="rotate(-30)"/>
 <circle style="opacity:0.2" cx="-.546" cy="38.945" r="6" transform="rotate(-30)"/>
 <circle style="fill:#939393" cx="-.046" cy="38.079" r="6" transform="rotate(-30)"/>
 <circle style="fill:#0062c9" cx="-.046" cy="38.079" r="2" transform="rotate(-30)"/>
 <circle style="fill:#17191e" cx="-.278" cy="34.481" r="1" transform="rotate(-30)"/>
 <circle style="fill:#17191e" cx="-4.144" cy="39.177" r="1" transform="rotate(-30)"/>
 <circle style="fill:#17191e" cx="3.669" cy="39.646" r="1" transform="rotate(-30)"/>
 <path style="opacity:0.1;fill:#8b9cbe" d="M 4.7265625 13 C 3.2156535 13 2 14.21113 2 15.714844 L 2 16.714844 C 2 15.21113 3.2156535 14 4.7265625 14 L 59.273438 14 C 60.784346 14 62 15.21113 62 16.714844 L 62 15.714844 C 62 14.21113 60.784346 13 59.273438 13 L 4.7265625 13 z"/>
 <path style="opacity:0.2;fill:#8b9cbe" d="M 7.4550781 19 C 6.0952602 19 5 19.924694 5 21.072266 L 5 22.072266 C 5 20.924694 6.0952602 20 7.4550781 20 L 56.544922 20 C 57.90474 20 59 20.924694 59 22.072266 L 59 21.072266 C 59 19.924694 57.90474 19 56.544922 19 L 7.4550781 19 z"/>
</svg>
