<svg xmlns="http://www.w3.org/2000/svg" width="64" height="64" version="1">
 <rect style="opacity:0.2" width="56" height="56" x="4" y="5" rx="16.8" ry="16.8"/>
 <rect style="fill:#ff811f" width="56" height="56" x="4" y="4" rx="16.8" ry="16.8"/>
 <path style="opacity:0.1" d="m 32,13.000032 a 20,20 0 0 0 -20,20 20,20 0 0 0 20,20 20,20 0 0 0 10.261718,-2.859376 c 1.409038,1.489018 2.68169,3.112896 3.707032,4.777344 l 4.863282,-2.996092 C 49.656534,50.01371 48.24679,48.206686 46.699218,46.531282 A 20,20 0 0 0 52,33.000032 a 20,20 0 0 0 -20,-20 z m 0,7.140624 a 11.428572,12.857143 0 0 1 11.429688,12.859376 11.428572,12.857143 0 0 1 -2.714844,8.3125 c -3.94026,-2.69346 -8.304802,-4.468944 -12.675782,-4.128906 l 0.445314,5.699218 c 2.027986,-0.15778 4.700824,0.648452 7.410156,2.191406 A 11.428572,12.857143 0 0 1 32,45.8555 11.428572,12.857143 0 0 1 20.570312,33.000032 11.428572,12.857143 0 0 1 32,20.140656 Z"/>
 <path style="fill:#5a3608" d="m 32,11.999426 a 20,20 0 0 0 -20.000001,20.000002 20,20 0 0 0 20.000001,20 20,20 0 0 0 20,-20 20,20 0 0 0 -20,-20.000002 z m 0,7.142857 A 11.428572,12.857143 0 0 1 43.428572,31.999428 11.428572,12.857143 0 0 1 32,44.856572 11.428572,12.857143 0 0 1 20.571428,31.999428 11.428572,12.857143 0 0 1 32,19.142283 Z"/>
 <path style="fill:none;stroke:#5a3608;stroke-width:5.71428585" d="m 28.262,39.034 c 6.83143,-0.531448 15.504432,5.864494 20.137528,13.38545"/>
 <path style="opacity:0.2;fill:#8b9cbe" d="M 20.800781 4 C 11.493581 4 4 11.493581 4 20.800781 L 4 21.800781 C 4 12.493581 11.493581 5 20.800781 5 L 43.199219 5 C 52.506419 5 60 12.493581 60 21.800781 L 60 20.800781 C 60 11.493581 52.506419 4 43.199219 4 L 20.800781 4 z"/>
</svg>
