<svg xmlns="http://www.w3.org/2000/svg" width="64" height="64" version="1">
 <path style="fill:#4f4f4f" d="M 32,6 C 24.5,6 19.5,11.2006 19.5,18.8096 l 0,7.9828 -5.254,0 C 14.246,26.7924 12,26.8 12,29.4 l 0,26 c 0,2.6 2.246,2.6 2.246,2.6 l 35.508,0 c 0,0 2.246,2e-6 2.246,-2.6 l 0,-26 c 0,-2.6 -2.246,-2.6076 -2.246,-2.6076 l -5.2466,0.0152 -0.0146,-8.0818 C 44.5008,11.1994 39.5008,6.0004 32.0008,6.0004 Z"/>
 <path style="opacity:0.2" d="m 32,12.9996 c 4.418,0 8,3.5114 8,7.9296 0,5.3344 -5.666,12.0004 -7,12.0704 0,0 0.56278,-4.0704 -1,-4.0704 -4.418,0 -8,-3.582 -8,-8.0004 0,-4.4182 3.582,-7.9296 8,-7.9296 z"/>
 <path style="fill:#8b9cbe" d="m 32,12 c 4.418,0 8,3.5114 8,7.9296 C 40,25.264 34.334,31.93 33,32 c 0,0 0.56278,-4.0704 -1,-4.0704 -4.418,0 -8,-3.582 -8,-8.0004 0,-4.4182 3.582,-7.9296 8,-7.9296 z"/>
 <path style="opacity:0.2" d="m 31.999201,37.00054 c 2.485324,0 4.500224,2.01474 4.500224,4.499865 0,2.105537 -1.451132,3.859484 -3.40437,4.350469 l 0.40432,0 c 1.500075,0 2.417721,1.368919 3.316566,2.580923 C 37.655983,49.563763 38,51.135716 38,51.707699 l 0,1.034149 c -0.003,0.03138 0,0.06426 0,0.0967 0,1.193964 -0.972048,2.161935 -2.174108,2.161935 l -7.649782,0 c -1.20206,0 -2.176109,-0.969971 -2.176109,-2.165935 0,-0.0319 0.0046,-0.06184 0.0058,-0.09376 -0.0026,0 -0.0046,-0.517745 -0.0058,-1.034149 -5.16e-4,-0.571603 0.263933,-2.171135 1.066453,-3.3281 0.849643,-1.224204 1.933697,-2.528324 3.433772,-2.528324 l 0.40432,0 c -1.952098,-0.489986 -3.40417,-2.243933 -3.40417,-4.34987 0,-2.485925 2.014101,-4.499865 4.500225,-4.499865 z"/>
 <path style="fill:#8b9cbe" d="m 31.999201,36.00054 c 2.485324,0 4.500224,2.01474 4.500224,4.499865 0,2.105537 -1.451132,3.859484 -3.40437,4.350469 l 0.40432,0 c 1.500075,0 2.417721,1.368919 3.316566,2.580923 C 37.655983,48.563763 38,50.135716 38,50.707699 l 0,1.034149 c -0.003,0.03138 0,0.06426 0,0.0967 0,1.193964 -0.972048,2.161935 -2.174108,2.161935 l -7.649782,0 c -1.20206,0 -2.176109,-0.969971 -2.176109,-2.165935 0,-0.0319 0.0046,-0.06184 0.0058,-0.09376 -0.0026,0 -0.0046,-0.517745 -0.0058,-1.034149 -5.16e-4,-0.571603 0.263933,-2.171135 1.066453,-3.3281 0.849643,-1.224204 1.933697,-2.528324 3.433772,-2.528324 l 0.40432,0 c -1.952098,-0.489986 -3.40417,-2.243933 -3.40417,-4.34987 0,-2.485925 2.014101,-4.499865 4.500225,-4.499865 z"/>
 <path style="opacity:0.1;fill:#8b9cbe" d="M 32 6 C 24.5 6 19.5 11.200947 19.5 18.810547 L 19.5 19.810547 C 19.5 12.200947 24.5 7 32 7 C 39.5 7 44.500188 12.201124 44.492188 19.728516 L 44.507812 27.810547 L 49.753906 27.792969 C 49.753906 27.792969 52 27.800186 52 30.400391 L 52 29.400391 C 52 26.800186 49.753906 26.792969 49.753906 26.792969 L 44.507812 26.810547 L 44.492188 18.728516 C 44.500188 11.201124 39.5 6 32 6 z M 14.246094 26.792969 C 14.246094 26.792969 12 26.800185 12 29.400391 L 12 30.400391 C 12 27.800185 14.246094 27.792969 14.246094 27.792969 L 19.5 27.792969 L 19.5 26.792969 L 14.246094 26.792969 z"/>
 <path style="opacity:0.2" d="m 12,55.4 0,0.999566 C 12,58.998439 14.246094,59 14.246094,59 l 35.507812,0 C 49.753906,59 52,58.998438 52,56.399566 L 52,55.4 c 0,2.598871 -2.246094,2.600434 -2.246094,2.600434 l -35.507812,0 C 14.246094,58.000434 12,57.998872 12,55.4 Z"/>
</svg>
