<svg xmlns="http://www.w3.org/2000/svg" width="64" height="64" version="1">
 <rect style="opacity:0.2" width="56" height="56" x="-61" y="4" rx="28" ry="28" transform="rotate(-90)"/>
 <rect style="fill:#4f4f4f" width="56" height="56" x="-60" y="4" rx="28" ry="28" transform="rotate(-90)"/>
 <circle style="opacity:0.2" cx="-32" cy="33" r="11" transform="scale(-1,1)"/>
 <path style="opacity:0.1;fill:#8b9cbe" d="M 32 12 C 20.954306 12 12 20.954305 12 32 C 12.005529 34.61965 12.525836 37.207398 13.523438 39.615234 C 13.561307 39.706646 13.599432 39.797782 13.638672 39.888672 C 13.639972 39.891472 13.641278 39.889678 13.642578 39.892578 C 13.646078 39.899798 13.648844 39.908916 13.652344 39.916016 C 13.88468 40.390399 14.371708 40.71875 14.935547 40.71875 C 15.724524 40.71875 16.363281 40.079995 16.363281 39.291016 C 16.363281 39.118426 16.321705 38.955897 16.265625 38.802734 C 16.262025 38.789334 16.271325 38.772906 16.265625 38.759766 C 16.261525 38.750186 16.256153 38.742022 16.251953 38.732422 C 16.225103 38.670036 16.199908 38.607592 16.173828 38.544922 C 15.311445 36.473402 14.863222 34.249747 14.857422 32 C 14.857422 22.53226 22.532261 14.857422 32 14.857422 C 34.219851 14.861958 36.414443 15.295629 38.462891 16.134766 C 38.476711 16.140445 38.495096 16.136725 38.509766 16.140625 C 38.513506 16.142325 38.517584 16.144784 38.521484 16.146484 C 38.699815 16.226501 38.895402 16.271484 39.103516 16.271484 C 39.892495 16.271484 40.533203 15.632728 40.533203 14.84375 C 40.533203 14.292171 40.21161 13.823994 39.753906 13.585938 C 39.728446 13.572078 39.725952 13.553726 39.695312 13.541016 C 39.677093 13.533346 39.656922 13.529084 39.638672 13.521484 C 39.633572 13.519284 39.6301 13.513719 39.625 13.511719 C 39.61982 13.509569 39.614475 13.511766 39.609375 13.509766 C 37.201254 12.51844 34.617672 12.000318 32 12 z M 49.064453 23.28125 C 48.275476 23.28125 47.636719 23.920005 47.636719 24.708984 C 47.636719 24.881574 47.678295 25.044103 47.734375 25.197266 C 47.737975 25.210666 47.728675 25.227094 47.734375 25.240234 C 47.738475 25.249814 47.743847 25.257978 47.748047 25.267578 C 47.774897 25.329963 47.800092 25.392408 47.826172 25.455078 C 48.688555 27.526599 49.136778 29.750253 49.142578 32 C 49.142578 41.467739 41.467739 49.142578 32 49.142578 C 29.780149 49.138043 27.585556 48.704468 25.537109 47.865234 C 25.523289 47.859555 25.504904 47.863275 25.490234 47.859375 C 25.486494 47.857675 25.482416 47.855216 25.478516 47.853516 C 25.300185 47.773499 25.104598 47.728516 24.896484 47.728516 C 24.107505 47.728516 23.466797 48.367272 23.466797 49.15625 C 23.466797 49.707829 23.78839 50.176006 24.246094 50.414062 C 24.271554 50.427922 24.274047 50.446274 24.304688 50.458984 C 24.322907 50.466654 24.343078 50.470916 24.361328 50.478516 C 24.366428 50.480716 24.3699 50.486281 24.375 50.488281 C 24.38018 50.490431 24.385525 50.488234 24.390625 50.490234 C 26.798746 51.48156 29.382328 51.999681 32 52 C 43.045694 52 52 43.045693 52 32 C 51.994471 29.380348 51.474187 26.792493 50.476562 24.384766 C 50.438692 24.293355 50.400568 24.202218 50.361328 24.111328 C 50.360028 24.108528 50.358722 24.110322 50.357422 24.107422 C 50.353922 24.100202 50.351156 24.091084 50.347656 24.083984 C 50.11532 23.609601 49.628292 23.28125 49.064453 23.28125 z"/>
 <circle style="fill:#e34343" cx="-32" cy="32" r="11" transform="scale(-1,1)"/>
 <path style="opacity:0.1;fill:#8b9cbe" d="M 32,21 A 11,11 0 0 1 43,32 11,11 0 0 1 42.978516,32.585938 11,11 0 0 0 32,22 11,11 0 0 0 21.021484,32.414062 11,11 0 0 1 21,32 11,11 0 0 1 32,21 Z"/>
 <circle style="fill:#8b9cbe" cx="-32" cy="32" r="4" transform="scale(-1,1)"/>
 <path style="opacity:0.2" d="m 50.294922,19 c 0.02716,-2.74e-4 0.05303,-4.42e-4 0.08008,0.002 0.326585,0.03617 0.596453,0.262851 0.681641,0.568359 0,0 0.637267,5.63375 1.287109,8.386719 1.832586,7.989883 5.086128,15.673491 7.449217,23.44136 C 59.929915,52.048392 59.999457,52.710777 60,53.375 60,58.690729 55.69073,63 50.375,63 45.059271,63 40.75,58.690729 40.75,53.375 c 0.0042,-2.36713 0.882058,-4.648561 2.462891,-6.410156 0.0022,-0.0024 0.0036,-0.0052 0.0059,-0.0078 -2.874075,-0.895746 -5.667042,-1.700264 -7.890625,-2.1875 C 32.34226,44.11526 26.22465,43.671888 26.22465,43.671888 25.627217,43.521571 25.424535,42.804669 25.859416,42.382825 l 11.802734,-11.457031 0.06836,0.06836 0.05664,-0.1875 11.927694,-11.580092 C 49.868131,19.079003 50.078118,18.996804 50.294922,19 Z"/>
 <path style="fill:#ffae11" d="m 50.294453,18.000091 c 0.02716,-2.74e-4 0.05352,3.05e-4 0.08057,0.0027 0.326585,0.03617 0.59694,0.26114 0.682128,0.566649 0,0 0.636532,5.633977 1.286374,8.386946 1.832588,7.98993 5.0866,15.674207 7.449688,23.442075 C 59.930159,51.048415 59.999457,51.710797 60,52.37502 60,57.690749 55.69075,62 50.37502,62 c -5.315729,0 -9.62498,-4.309251 -9.62498,-9.62498 0.0042,-2.370395 0.883054,-4.65586 2.468013,-6.418445 -2.874076,-0.895746 -3.066423,-3.381461 -5.290005,-3.868701 -2.985907,-0.654284 -5.413086,-1.662507 -5.413086,-1.662507 -0.597434,-0.150315 1.783694,-0.193178 2.218575,-0.615022 l 3.05435,-10.004614 11.926489,-11.580055 c 0.153287,-0.14756 0.363273,-0.228781 0.580077,-0.225585 z"/>
 <path style="fill:#c3831f" d="m 37.661666,29.926579 17.410366,17.410366 0.01611,0.03759 a 6.8749858,6.8749858 0 0 1 2.16186,5.000483 6.8749858,6.8749858 0 0 1 -6.874986,6.874986 6.8749858,6.8749858 0 0 1 -6.874986,-6.874986 6.8749858,6.8749858 0 0 1 2.489497,-5.290516 c -0.818565,-0.439973 -1.745356,-0.824378 -2.77685,-1.119871 0.0022,-0.0024 0.0031,-0.0056 0.0054,-0.0082 C 40.344006,45.060687 37.551544,44.25764 35.327961,43.770404 32.342055,43.11612 26.223975,42.672017 26.223975,42.672017 25.626542,42.5217 25.423861,41.8048 25.858742,41.382957 Z M 50.37502,48.250028 a 4.1249915,4.1249915 0 0 0 -4.124992,4.124992 4.1249915,4.1249915 0 0 0 4.124992,4.124991 4.1249915,4.1249915 0 0 0 4.124991,-4.124991 4.1249915,4.1249915 0 0 0 -4.124991,-4.124992 z"/>
 <path style="opacity:0.1;fill:#8b9cbe" d="m 32,4 c 15.512,0 28,12.488 28,28 0,0.167704 -0.01076,0.333014 -0.01367,0.5 C 59.720319,17.221478 47.344296,5 32,5 16.655704,5 4.279681,17.221478 4.013672,32.5 4.010765,32.333014 4,32.167704 4,32 4,16.488 16.488,4 32,4 Z"/>
 <path style="opacity:0.2;fill:#8b9cbe" d="m 50.294922,18 c 0.02716,-2.74e-4 0.05303,-4.42e-4 0.08008,0.002 0.326585,0.03617 0.596453,0.262852 0.681641,0.568359 0,0 0.637267,5.63375 1.287109,8.386719 1.832586,7.989883 5.086128,15.673491 7.449217,23.44136 0.136946,0.649954 0.206488,1.312339 0.207031,1.976562 0,0.174681 -0.0162,0.345188 -0.02539,0.517578 -0.0257,-0.501916 -0.07792,-1.001883 -0.181641,-1.49414 C 57.42988,43.630568 54.176335,35.946914 52.34375,27.957031 51.693908,25.204062 51.056641,19.570312 51.056641,19.570312 50.971451,19.264804 50.701585,19.038123 50.375,19.001953 c -0.02705,-0.0024 -0.05292,-0.0022 -0.08008,-0.002 -0.216804,-0.0032 -0.426791,0.079 -0.580078,0.226562 l -11.927735,11.580079 -0.05664,0.1875 -0.06836,-0.06836 -11.802734,11.457031 c -0.01438,0.01395 -0.02216,0.03036 -0.03516,0.04492 -0.256633,-0.28808 -0.277682,-0.741461 0.03516,-1.044922 l 11.802734,-11.457031 0.06836,0.06836 0.05664,-0.1875 11.927737,-11.58003 C 49.868131,18.079003 50.078118,17.996804 50.294922,18 Z m -7.720703,28.765625 c 0.219873,0.06771 0.423476,0.122511 0.644531,0.191406 -0.0023,0.0026 -0.0037,0.0054 -0.0059,0.0078 -1.468032,1.635895 -2.318623,3.721438 -2.4375,5.90625 -0.0084,-0.165348 -0.02539,-0.328646 -0.02539,-0.496094 0.0036,-2.023472 0.650446,-3.982323 1.824219,-5.609375 z"/>
</svg>
