<svg xmlns="http://www.w3.org/2000/svg" xmlns:xlink="http://www.w3.org/1999/xlink" width="64" height="64" version="1.1">
 <path style="opacity:0.2" d="m 32,15 c 3.681818,0 26.999999,0 26.999999,16.227905 V 44.772093 C 58.999999,61 57.772727,61 32,61 27.09091,61 5.0000009,61 5.0000006,44.772093 V 31.227905 C 5.0000009,15 28.318182,15 32,15 Z"/>
 <path style="fill:none;stroke:#37474f;stroke-width:2.13157892" d="m 25,6.0000012 6.289474,8.5263158"/>
 <path style="fill:none;stroke:#37474f;stroke-width:2.13157892" d="M 39,6.0000012 33.231,14.526317"/>
 <ellipse style="fill:#37474f" cx="32" cy="15.5" rx="10" ry="3.5"/>
 <circle style="opacity:0.2" cx="25" cy="7" r="3"/>
 <circle style="fill:#455a64" cx="25" cy="6" r="3"/>
 <path style="fill:#455a64" d="m 32,14 c 3.681818,0 26.999999,0 26.999999,16.227905 V 43.772093 C 58.999999,60 57.772727,60 32,60 27.09091,60 5.0000009,60 5.0000006,43.772093 V 30.227905 C 5.0000009,14 28.318182,14 32,14 Z"/>
 <circle style="opacity:0.2" cx="52.5" cy="53.5" r="3.5"/>
 <circle style="fill:#8b9cbe" cx="52.5" cy="52.5" r="3.5"/>
 <path style="opacity:0.3" d="M 29.000001,20 C 31.727275,20 49,20 49,31.99454 V 42.00546 C 49,54 32.636365,54 29.000001,54 25.363638,54 9,54 9,42.00546 V 31.99454 C 9,20 26.272727,20 29.000001,20 Z"/>
 <path style="opacity:0.5;fill:none;stroke:#26a69a;stroke-width:4.26315784;stroke-linecap:round" d="M 29.058081,28.1 22.763158,47.839222"/>
 <path style="opacity:0.5;fill:none;stroke:#26a69a;stroke-width:4.26315784;stroke-linecap:round" d="M 42.758,28.1 36.973684,47.839222"/>
 <path style="opacity:0.2;fill:none;stroke:#000000;stroke-width:4.26315784;stroke-linecap:round" d="M 15.557919,29.100668 22.763158,48.83989"/>
 <path style="fill:none;stroke:#26a69a;stroke-width:4.26315784;stroke-linecap:round" d="m 15.557919,28.1 7.205239,19.739222"/>
 <path style="opacity:0.2;fill:none;stroke:#000000;stroke-width:4.26315784;stroke-linecap:round" d="M 29.058081,29.100668 36.973684,48.83989"/>
 <path style="fill:none;stroke:#26a69a;stroke-width:4.26315784;stroke-linecap:round" d="m 29.058081,28.1 7.915603,19.739222"/>
 <circle style="opacity:0.2" cx="39" cy="7" r="3"/>
 <circle style="fill:#455a64" cx="39" cy="6" r="3"/>
 <path style="opacity:0.1;fill:#8b9cbe" d="M 25 3 A 3 3 0 0 0 22 6 A 3 3 0 0 0 22.042969 6.5136719 A 3 3 0 0 1 25 4 A 3 3 0 0 1 27.957031 6.4863281 A 3 3 0 0 0 28 6 A 3 3 0 0 0 25 3 z"/>
 <path style="opacity:0.1;fill:#8b9cbe" d="M 32 14 C 28.318182 14 5.0000003 14.000611 5 30.228516 L 5 31.228516 C 5.0000003 15.000611 28.318182 15 32 15 C 35.681818 15 59 15.000611 59 31.228516 L 59 30.228516 C 59 14.000611 35.681818 14 32 14 z"/>
 <path style="opacity:0.1;fill:#8b9cbe" d="M 39 3 A 3 3 0 0 0 36 6 A 3 3 0 0 0 36.042969 6.5136719 A 3 3 0 0 1 39 4 A 3 3 0 0 1 41.957031 6.4863281 A 3 3 0 0 0 42 6 A 3 3 0 0 0 39 3 z"/>
</svg>
