<svg xmlns="http://www.w3.org/2000/svg" width="64" height="64" version="1">
 <rect style="fill:#f84e4e" width="16" height="16" x="15" y="6" rx="2" ry="2"/>
 <rect style="fill:#f84e4e" width="16" height="16" x="15" y="24" rx="2" ry="2"/>
 <rect style="fill:#f84e4e" width="16" height="16" x="15" y="42" rx="2" ry="2"/>
 <rect style="fill:#f84e4e" width="16" height="16" x="33" y="42" rx="2" ry="2"/>
 <path style="opacity:0.2;fill:#8b9cbe" d="M 17 6 C 15.892 6 15 6.892 15 8 L 15 9 C 15 7.892 15.892 7 17 7 L 29 7 C 30.108 7 31 7.892 31 9 L 31 8 C 31 6.892 30.108 6 29 6 L 17 6 z M 17 24 C 15.892 24 15 24.892 15 26 L 15 27 C 15 25.892 15.892 25 17 25 L 29 25 C 30.108 25 31 25.892 31 27 L 31 26 C 31 24.892 30.108 24 29 24 L 17 24 z M 17 42 C 15.892 42 15 42.892 15 44 L 15 45 C 15 43.892 15.892 43 17 43 L 29 43 C 30.108 43 31 43.892 31 45 L 31 44 C 31 42.892 30.108 42 29 42 L 17 42 z M 35 42 C 33.892 42 33 42.892 33 44 L 33 45 C 33 43.892 33.892 43 35 43 L 47 43 C 48.108 43 49 43.892 49 45 L 49 44 C 49 42.892 48.108 42 47 42 L 35 42 z"/>
 <path style="opacity:0.2" d="m 15,20 0,1 c 0,1.108 0.892,2 2,2 l 12,0 c 1.108,0 2,-0.892 2,-2 l 0,-1 c 0,1.108 -0.892,2 -2,2 l -12,0 c -1.108,0 -2,-0.892 -2,-2 z m 0,18 0,1 c 0,1.108 0.892,2 2,2 l 12,0 c 1.108,0 2,-0.892 2,-2 l 0,-1 c 0,1.108 -0.892,2 -2,2 l -12,0 c -1.108,0 -2,-0.892 -2,-2 z m 0,18 0,1 c 0,1.108 0.892,2 2,2 l 12,0 c 1.108,0 2,-0.892 2,-2 l 0,-1 c 0,1.108 -0.892,2 -2,2 l -12,0 c -1.108,0 -2,-0.892 -2,-2 z m 18,0 0,1 c 0,1.108 0.892,2 2,2 l 12,0 c 1.108,0 2,-0.892 2,-2 l 0,-1 c 0,1.108 -0.892,2 -2,2 l -12,0 c -1.108,0 -2,-0.892 -2,-2 z"/>
</svg>
