<svg xmlns="http://www.w3.org/2000/svg" width="64" height="64" version="1.1">
 <circle style="opacity:0.2" cx="32" cy="33" r="29"/>
 <circle style="fill:#4f4f4f" cx="32" cy="32" r="29"/>
 <path style="opacity:0.2" d="M 32.001844,10.424498 29,34.037248 32.001844,57.65 35,34.037248 Z M 17.536865,22.67307 14.856556,23.405542 c -2.197287,0.601586 -3.918916,1.276078 -5.3090704,2.229974 -1.3901544,0.953896 -2.7476858,2.595716 -2.5229618,4.649844 0.224724,2.054132 1.6602998,3.267292 3.1387812,4.131692 1.478481,0.864392 3.311232,1.513908 5.610199,2.07805 2.232091,0.54773 4.742604,0.944034 7.373558,1.226214 L 27,57.65 V 38.098402 32.547886 c -9.697089,-0.461862 -15.828547,-2.45176 -15.832936,-4.761072 0.008,-1.363836 2.470848,-2.664166 6.787581,-3.58369 z m 29.220235,0.05426 -0.43677,1.535482 c 4.15152,0.916424 6.507476,2.190524 6.516294,3.52401 -0.01,2.308292 -6.14381,4.296702 -15.836624,4.75836 V 38.103828 57.65 l 3.856626,-19.925972 c 2.512176,-0.271776 4.917224,-0.64704 7.075144,-1.158392 2.330666,-0.552286 4.19497,-1.191478 5.702436,-2.031932 1.507464,-0.840456 2.942838,-1.947806 3.304266,-3.963492 0.361426,-2.015686 -0.929892,-3.813574 -2.29237,-4.801768 -1.362474,-0.98819 -3.052642,-1.670528 -5.216834,-2.284228 z"/>
 <path style="fill:#a656d9" d="M 32.001844,9.424498 29,33.037248 32.001844,56.65 35,33.037248 Z"/>
 <path style="fill:#568ad9" d="m 17.536865,21.67307 -2.680309,0.732472 c -2.197287,0.601586 -3.918916,1.276078 -5.3090704,2.229974 -1.3901544,0.953896 -2.7476858,2.595716 -2.5229618,4.649844 0.224724,2.054132 1.6602998,3.267292 3.1387812,4.131692 1.478481,0.864392 3.311232,1.513908 5.610199,2.07805 2.232091,0.54773 4.742604,0.944034 7.373558,1.226214 L 27,56.65 V 37.098402 31.547886 c -9.697089,-0.461862 -15.828547,-2.45176 -15.832936,-4.761072 0.008,-1.363836 2.470848,-2.664166 6.787581,-3.58369 z"/>
 <path style="fill:#d95656" d="m 46.7571,21.72733 -0.43677,1.535482 c 4.15152,0.916424 6.507476,2.190524 6.516294,3.52401 -0.01,2.308292 -6.14381,4.296702 -15.836624,4.75836 V 37.103828 56.65 l 3.856626,-19.925972 c 2.512176,-0.271776 4.917224,-0.64704 7.075144,-1.158392 2.330666,-0.552286 4.19497,-1.191478 5.702436,-2.031932 1.507464,-0.840456 2.942838,-1.947806 3.304266,-3.963492 0.361426,-2.015686 -0.929892,-3.813574 -2.29237,-4.801768 -1.362474,-0.98819 -3.052642,-1.670528 -5.216834,-2.284228 z"/>
 <path style="opacity:0.1;fill:#8b9cbe" d="M 32,3 A 29,29 0 0 0 3,32 29,29 0 0 0 3.0175781,32.488281 29,29 0 0 1 32,4 29,29 0 0 1 60.974609,32.494141 29,29 0 0 0 61,32 29,29 0 0 0 32,3 Z"/>
 <path style="opacity:0.1;fill:#8b9cbe" d="M 32.001953,9.4238281 29,33.037109 l 0.06445,0.5 2.9375,-23.113281 2.933594,23.113281 0.06445,-0.5 z M 17.537109,21.673828 14.857422,22.40625 c -2.197287,0.601586 -3.920393,1.27462 -5.310547,2.228516 -1.3901544,0.953896 -2.7462084,2.596262 -2.5214844,4.65039 0.003,0.02744 0.012193,0.05098 0.015625,0.07813 0.1937897,-1.621256 1.3316352,-2.922786 2.5058594,-3.728515 1.390154,-0.953896 3.11326,-1.62693 5.310547,-2.228516 l 2.679687,-0.732422 0.16211,0.589844 c 0.08855,-0.01954 0.165684,-0.04134 0.255859,-0.06055 z m 29.220703,0.05273 -0.4375,1.53711 c 0.09369,0.02068 0.173771,0.04341 0.265626,0.06445 l 0.171874,-0.601563 2.671876,0.757813 c 2.164191,0.6137 3.854322,1.295013 5.216796,2.283203 1.087292,0.788604 2.113774,2.098098 2.306641,3.617188 0.251833,-1.93915 -0.986629,-3.659794 -2.306641,-4.617188 -1.362474,-0.98819 -3.052605,-1.669503 -5.216796,-2.283203 z m 5.966797,5.564454 C 51.890472,29.378945 45.976865,31.117364 37,31.544922 v 1 c 9.692814,-0.461658 15.825938,-2.449521 15.835938,-4.757813 -0.0011,-0.166685 -0.03796,-0.331846 -0.111329,-0.496093 z m -41.447265,0.002 c -0.07239,0.163285 -0.108403,0.32841 -0.109375,0.49414 0.0044,2.309312 6.134942,4.299857 15.832031,4.761719 v -1 C 18.021419,31.121188 12.109083,29.381201 11.277344,27.292969 Z"/>
</svg>
