<svg xmlns="http://www.w3.org/2000/svg" width="64" height="64" version="1.1">
 <circle style="opacity:0.2" cx="31.5" cy="32.5" r="28.5"/>
 <circle style="fill:#86c14d" cx="31.5" cy="31.5" r="28.5"/>
 <path style="opacity:0.2" d="M 24.208333,16.617838 A 17.5,17.5 0 0 0 14,32.5 17.5,17.5 0 0 0 31.5,50 17.5,17.5 0 0 0 49,32.5 17.5,17.5 0 0 0 38.791667,16.629233 v 0.341795 A 14.583333,14.583333 0 0 1 46.083333,29.583333 14.583333,14.583333 0 0 1 31.5,44.166667 14.583333,14.583333 0 0 1 16.916667,29.583333 14.583333,14.583333 0 0 1 24.208333,16.976725 Z"/>
 <path style="fill:#17191e" d="M 24.208333,15.617838 A 17.5,17.5 0 0 0 14,31.5 17.5,17.5 0 0 0 31.5,49 17.5,17.5 0 0 0 49,31.5 17.5,17.5 0 0 0 38.791667,15.629233 v 0.341795 A 14.583333,14.583333 0 0 1 46.083333,28.583333 14.583333,14.583333 0 0 1 31.5,43.166667 14.583333,14.583333 0 0 1 16.916667,28.583333 14.583333,14.583333 0 0 1 24.208333,15.976725 Z"/>
 <path style="opacity:0.2" d="M 29,41 V 55.375 L 31.5,64 34,55.375 V 41 l -2.5,-7 z"/>
 <path style="fill:#17191e" d="M 29,40 V 54.375 L 31.5,63 34,54.375 V 40 l -2.5,-7 z"/>
 <path style="opacity:0.1;fill:#8b9cbe" d="M 31.5,3 A 28.5,28.5 0 0 0 3,31.5 28.5,28.5 0 0 0 3.0214844,32.082031 28.5,28.5 0 0 1 31.5,4 28.5,28.5 0 0 1 59.978516,31.917969 28.5,28.5 0 0 0 60,31.5 28.5,28.5 0 0 0 31.5,3 Z"/>
</svg>
