<svg xmlns="http://www.w3.org/2000/svg" width="64" height="64" version="1.1">
 <circle style="opacity:0.2" cx="31.5" cy="32.5" r="28.5"/>
 <circle style="fill:#4f4f4f" cx="31.5" cy="31.5" r="28.5"/>
 <path style="opacity:0.2" d="M 24.208333,16.617838 A 17.5,17.5 0 0 0 14,32.5 17.5,17.5 0 0 0 31.5,50 17.5,17.5 0 0 0 49,32.5 17.5,17.5 0 0 0 38.791667,16.629233 v 0.341795 A 14.583333,14.583333 0 0 1 46.083333,29.583333 14.583333,14.583333 0 0 1 31.5,44.166667 14.583333,14.583333 0 0 1 16.916667,29.583333 14.583333,14.583333 0 0 1 24.208333,16.976725 Z"/>
 <path style="fill:#ffb16a" d="M 24.208333,15.617838 A 17.5,17.5 0 0 0 14,31.5 17.5,17.5 0 0 0 31.5,49 17.5,17.5 0 0 0 49,31.5 17.5,17.5 0 0 0 38.791667,15.629233 v 0.341795 A 14.583333,14.583333 0 0 1 46.083333,28.583333 14.583333,14.583333 0 0 1 31.5,43.166667 14.583333,14.583333 0 0 1 16.916667,28.583333 14.583333,14.583333 0 0 1 24.208333,15.976725 Z"/>
 <path style="opacity:0.2;fill:#8b9cbe" d="M 24.208984,15.617188 A 17.5,17.5 0 0 0 14,31.5 a 17.5,17.5 0 0 0 0.01563,0.308594 17.5,17.5 0 0 1 6.873047,-13.179688 14.583333,14.583333 0 0 1 3.320312,-2.652344 z m 14.582032,0.01172 v 0.341797 a 14.583333,14.583333 0 0 1 3.43164,2.746094 17.5,17.5 0 0 1 6.75586,13.384765 A 17.5,17.5 0 0 0 49,31.5 17.5,17.5 0 0 0 38.791016,15.628906 Z m 7.27539,13.294922 A 14.583333,14.583333 0 0 1 31.5,43.166016 14.583333,14.583333 0 0 1 16.9375,29.175781 14.583333,14.583333 0 0 0 16.916016,29.583984 14.583333,14.583333 0 0 0 31.5,44.166016 14.583333,14.583333 0 0 0 46.083984,29.583984 14.583333,14.583333 0 0 0 46.066406,28.923828 Z"/>
 <path style="opacity:0.2" d="M 25.8,34 29,36.85 V 55.375 L 31.5,64 34,55.375 V 36.85 L 37.2,34 h -2.85 -5.7 z"/>
 <path style="fill:#ffb16a" d="M 25.8,33 29,35.85 V 54.375 L 31.5,63 34,54.375 V 35.85 L 37.2,33 h -2.85 -5.7 z"/>
 <path style="fill:#8b9cbe;opacity:0.1" d="M 31.5 3 A 28.5 28.5 0 0 0 3 31.5 A 28.5 28.5 0 0 0 3.0214844 32.082031 A 28.5 28.5 0 0 1 31.5 4 A 28.5 28.5 0 0 1 59.978516 31.917969 A 28.5 28.5 0 0 0 60 31.5 A 28.5 28.5 0 0 0 31.5 3 z"/>
 <path style="opacity:0.2;fill:#8b9cbe" d="m 25.800781,33 1.123047,1 h 1.726563 5.699218 1.726563 l 1.123047,-1 h -2.84961 -5.699218 z"/>
</svg>
