<svg xmlns="http://www.w3.org/2000/svg" width="64" height="64" version="1.1">
 <circle style="opacity:0.2" cx="32.001" cy="53" r="8"/>
 <circle style="fill:#8f6943" cx="32.001" cy="51.999" r="8"/>
 <path style="opacity:0.2" d="m 8.895344,5.0125924 c -0.210433,-0.01768 -0.3995596,-0.01136 -0.5703124,0.01954 -0.2276704,0.041178 -0.4215542,0.122828 -0.5820312,0.25 -1.3135936,1.0409784 -0.9027928,5.1760306 1.3710936,13.7773436 1.27508,4.823178 2.32627,7.389432 4.136719,10.109374 1.188784,1.785936 1.763024,2.46586 3.726562,4.40625 1.758515,1.937264 3.977964,4.646188 4.023438,6.925782 -0.504967,4.500014 -3.800004,6.85694 -4,10.6875 0,4.637876 2.161634,7.8125 6.800782,7.8125 2.909864,0.291178 5.594006,-3.475052 8.199218,-4 2.605212,0.524948 5.289354,4.291178 8.199218,4 4.639148,0 6.800782,-3.174624 6.800782,-7.8125 -0.2,-3.83056 -3.495034,-6.187486 -4,-10.6875 0.04548,-2.279594 2.264922,-4.988522 4.023438,-6.925782 1.963538,-1.94039 2.537778,-2.620314 3.726562,-4.40625 1.81045,-2.719942 2.861638,-5.286198 4.136718,-10.109374 2.273886,-8.601313 2.684688,-12.7363652 1.371094,-13.7773436 -0.16048,-0.127174 -0.35436,-0.208822 -0.58203,-0.25 -0.17076,-0.03088 -0.359882,-0.037212 -0.570314,-0.01954 -0.6313,0.053052 -1.444584,0.3248176 -2.460936,0.8203124 -2.015574,0.9826538 -3.986568,2.4323002 -6.207032,4.5703122 -3.33194,3.208196 -4.522338,5.04718 -8.445312,13.031251 -1.171704,2.37883 -2.60947,4.691768 -4.367188,7.21875 -0.510796,0.35165 -1.625,0.347656 -1.625,0.347656 0,0 -1.114204,0.004 -1.625,-0.347656 -1.757718,-2.526982 -3.195484,-4.83992 -4.367188,-7.21875 C 22.085651,15.450397 20.895254,13.611413 17.563313,10.403217 15.34285,8.265205 13.371855,6.8155586 11.356282,5.8329048 10.339928,5.33741 9.5266424,5.065644 8.895344,5.0125924 Z"/>
 <path style="opacity:0.2" d="m 29.750813,52 h 1.5 c 0.4155,0 0.75,0.3345 0.75,0.75 v 3.9 c 0,0.4155 -0.3345,1.35 -0.75,1.35 h -1.5 c -0.4155,0 -0.75,-0.3345 -0.75,-0.75 v -4.5 c 0,-0.4155 0.3345,-0.75 0.75,-0.75 z"/>
 <path style="fill:#8b9cbe" d="m 29.750813,51 h 1.5 c 0.4155,0 0.75,0.3345 0.75,0.75 v 3.9 c 0,0.4155 -0.3345,1.35 -0.75,1.35 h -1.5 c -0.4155,0 -0.75,-0.3345 -0.75,-0.75 v -4.5 c 0,-0.4155 0.3345,-0.75 0.75,-0.75 z"/>
 <path style="opacity:0.2" d="m 32.750813,52 h 1.5 c 0.4155,0 0.75,0.3345 0.75,0.75 v 4.5 c 0,0.4155 -0.3345,0.75 -0.75,0.75 h -1.5 c -0.4155,0 -0.75,-0.9345 -0.75,-1.35 v -3.9 c 0,-0.4155 0.3345,-0.75 0.75,-0.75 z"/>
 <path style="fill:#8b9cbe" d="m 32.750813,51 h 1.5 c 0.4155,0 0.75,0.3345 0.75,0.75 v 4.5 c 0,0.4155 -0.3345,0.75 -0.75,0.75 h -1.5 c -0.4155,0 -0.75,-0.9345 -0.75,-1.35 v -3.9 c 0,-0.4155 0.3345,-0.75 0.75,-0.75 z"/>
 <path style="fill:#b08458" d="M 8.895344,4.0117188 C 8.684911,3.994035 8.4957844,4.0003666 8.3250316,4.03125 8.0973612,4.0724276 7.9034774,4.1540778 7.7430004,4.28125 6.4294068,5.3222284 6.8402076,9.4572808 9.114094,18.058594 c 1.27508,4.823178 2.32627,7.389432 4.136719,10.109374 1.188784,1.785936 1.763024,2.46586 3.726562,4.40625 1.758515,1.937264 3.977964,4.646188 4.023438,6.925782 -0.504967,4.500014 -3.800004,6.85694 -4,10.6875 0,4.637876 2.161634,7.8125 6.800782,7.8125 2.909864,0.291178 5.594006,-3.475052 8.199218,-4 2.605212,0.524948 5.289354,4.291178 8.199218,4 4.639148,0 6.800782,-3.174624 6.800782,-7.8125 -0.2,-3.83056 -3.495034,-6.187486 -4,-10.6875 0.04548,-2.279594 2.264922,-4.988522 4.023438,-6.925782 1.963538,-1.94039 2.537778,-2.620314 3.726562,-4.40625 1.81045,-2.719942 2.861638,-5.286198 4.136718,-10.109374 2.273886,-8.6013132 2.684688,-12.7363656 1.371094,-13.777344 -0.16048,-0.127174 -0.35436,-0.208822 -0.58203,-0.25 -0.17076,-0.03088 -0.359882,-0.037212 -0.570314,-0.01954 -0.6313,0.053052 -1.444584,0.3248176 -2.460936,0.8203124 -2.015574,0.9826626 -3.986568,2.432309 -6.207032,4.5703214 -3.33194,3.2081952 -4.522338,5.0471792 -8.445312,13.0312502 -1.171704,2.37883 -2.60947,4.691768 -4.367188,7.21875 -0.510796,0.35165 -1.625,0.347656 -1.625,0.347656 0,0 -1.114204,0.004 -1.625,-0.347656 -1.757718,-2.526982 -3.195484,-4.83992 -4.367188,-7.21875 C 22.085651,14.449523 20.895254,12.610539 17.563313,9.4023438 15.34285,7.2643314 13.371855,5.814685 11.356282,4.8320312 10.339928,4.3365364 9.5266424,4.0647704 8.895344,4.0117188 Z"/>
 <path style="opacity:0.3" d="m 9.8605332,7.2324244 c 0.00428,0.3014846 -0.033148,0.412154 0.0082,0.8284956 0.1935178,1.948454 0.8330798,5.050948 1.9522968,9.285714 1.240638,4.69418 2.125283,6.82012 3.762409,9.280246 h -0.0028 c 1.13917,1.711868 1.439944,2.060938 3.365935,3.964748 l 0.05468,0.05196 0.04922,0.05742 c 0.823812,0.9078 1.83486,1.95379 2.717903,3.182736 1.438872,-1.614014 3.23205,-2.872794 5.238938,-3.677646 -1.413176,-2.282922 -2.56816,-4.617854 -3.510854,-6.532266 v -0.0028 C 19.597638,15.733845 18.809384,14.494238 15.621723,11.42412 13.541143,9.4202464 11.81326,8.168865 10.128495,7.3472654 9.8960042,7.2338946 10.046508,7.2997418 9.8605332,7.2324244 Z m 44.6786138,0.01368 c -0.125,0.054454 -0.1267,0.032284 -0.267962,0.10117 -1.684766,0.8215996 -3.412648,2.0729812 -5.493228,4.0768556 -3.187662,3.070117 -3.975916,4.309724 -7.87481,12.24697 v 0.0028 c -0.943136,1.915306 -2.0995,4.251066 -3.513588,6.535 2.007872,0.804484 3.80202,2.063288 5.24167,3.677646 0.883338,-1.229738 1.893664,-2.27723 2.717904,-3.18547 l 0.04922,-0.05742 0.05468,-0.05196 c 1.92599,-1.90381 2.226764,-2.252882 3.365934,-3.964748 h -0.0028 c 1.63706,-2.46013 2.521772,-4.586066 3.76241,-9.280246 1.119218,-4.234766 1.758778,-7.33726 1.952296,-9.285714 0.04072,-0.409472 0.0036,-0.5163048 0.0082,-0.8148242 z"/>
 <path style="fill:#bf3667" d="m 31.999998,54 c -2.575385,-0.19758 -4.786948,-3.065764 -3.729691,-4.47926 1.128155,-1.114636 2.544091,-1.533812 3.729691,-1.52043 1.185603,-0.0132 2.601539,0.405794 3.729694,1.52043 C 36.786949,50.934236 34.57539,53.80243 31.999998,54 Z"/>
 <path style="opacity:0.2" d="m 25.653045,47 c -1.901648,0 -4.648374,-1.343146 -4.648374,-3 0,-1.656854 -0.180028,-3 1.72162,-3 4.887988,0.506736 5.16486,6 2.926754,6 z"/>
 <path style="fill:#8b9cbe" d="m 25.653045,45.99946 c -1.901648,0 -4.648374,-1.343146 -4.648374,-3 0,-1.656854 -0.180028,-3 1.72162,-3 4.887988,0.506736 5.16486,6 2.926754,6 z"/>
 <circle style="fill:#8b9cbe" cx="25.5" cy="44.5" r="1.5"/>
 <path style="opacity:0.2" d="m 38.348581,47 c 1.901648,0 4.648374,-1.343146 4.648374,-3 0,-1.656854 0.18002,-3 -1.72162,-3 -4.887988,0.506736 -5.16486,6 -2.926754,6 z"/>
 <path style="fill:#8b9cbe" d="m 38.348581,45.99946 c 1.901648,0 4.648374,-1.343146 4.648374,-3 0,-1.656854 0.18002,-3 -1.72162,-3 -4.887988,0.506736 -5.16486,6 -2.926754,6 z"/>
 <circle style="fill:#8b9cbe" cx="-38.5" cy="44.5" r="1.5" transform="scale(-1,1)"/>
 <path style="opacity:0.2;fill:#8b9cbe" d="M 8.8945312 4.0117188 C 8.6840982 3.994035 8.4949715 4.0003666 8.3242188 4.03125 C 8.0965483 4.0724276 7.9026645 4.1540778 7.7421875 4.28125 C 7.1881761 4.7202852 6.961403 5.7498845 7.03125 7.3925781 C 7.0860799 6.3364113 7.3111963 5.6227959 7.7421875 5.28125 C 7.9026645 5.1540778 8.0965483 5.0724276 8.3242188 5.03125 C 8.4949715 5.0003666 8.6840982 4.994035 8.8945312 5.0117188 C 9.5258296 5.0647703 10.339115 5.3365364 11.355469 5.8320312 C 13.371042 6.814685 15.342037 8.2643312 17.5625 10.402344 C 20.894441 13.610539 22.084838 15.449523 26.007812 23.433594 C 27.179516 25.812424 28.617282 28.125362 30.375 30.652344 C 30.885796 31.004 32 31 32 31 C 32 31 33.114204 31.003994 33.625 30.652344 C 35.382718 28.125362 36.820484 25.812424 37.992188 23.433594 C 41.915162 15.449523 43.10556 13.610539 46.4375 10.402344 C 48.657964 8.2643312 50.628957 6.8146939 52.644531 5.8320312 C 53.660883 5.3365365 54.474169 5.0647708 55.105469 5.0117188 C 55.315901 4.9940467 55.505021 5.00037 55.675781 5.03125 C 55.903451 5.072428 56.097333 5.154076 56.257812 5.28125 C 56.688804 5.6227959 56.915873 6.3364113 56.970703 7.3925781 C 57.04055 5.7498845 56.811824 4.7202852 56.257812 4.28125 C 56.097333 4.154076 55.903451 4.072428 55.675781 4.03125 C 55.505021 4.00037 55.315901 3.9940468 55.105469 4.0117188 C 54.474169 4.0647708 53.660883 4.3365364 52.644531 4.8320312 C 50.628957 5.8146939 48.657964 7.2643313 46.4375 9.4023438 C 43.10556 12.610539 41.915162 14.449523 37.992188 22.433594 C 36.820484 24.812424 35.382718 27.125362 33.625 29.652344 C 33.114204 30.003994 32 30 32 30 C 32 30 30.885796 30.004 30.375 29.652344 C 28.617282 27.125362 27.179516 24.812424 26.007812 22.433594 C 22.084838 14.449523 20.894441 12.610539 17.5625 9.4023438 C 15.342037 7.2643313 13.371042 5.8146851 11.355469 4.8320312 C 10.339115 4.3365364 9.5258296 4.0647704 8.8945312 4.0117188 z M 20.929688 39.958984 C 20.260992 44.161218 17.193001 46.490912 17 50.1875 C 17 50.451442 17.009377 50.708742 17.023438 50.962891 C 17.338582 47.265444 20.505144 44.909908 21 40.5 C 20.996477 40.323416 20.958075 40.140163 20.929688 39.958984 z M 43.070312 39.960938 C 43.042124 40.141405 43.003509 40.324094 43 40.5 C 43.494855 44.909908 46.661414 47.265444 46.976562 50.962891 C 46.990623 50.708742 47 50.451442 47 50.1875 C 46.807021 46.49142 43.739577 44.162076 43.070312 39.960938 z"/>
</svg>
