<svg xmlns="http://www.w3.org/2000/svg" id="circle_pieces" width="64" height="64" x="0" y="0" version="1.1" xml:space="preserve">
 <circle style="opacity:0.2" cx="32" cy="33" r="28"/>
 <path style="fill:#3e5ba9" d="M 32,4 A 28,28 0 0 0 22.528124,5.6789064 C 38.553532,16.100759 47.007536,31.870562 53.820314,49.505468 A 28,28 0 0 0 60,32 28,28 0 0 0 32,4 Z"/>
 <path style="fill:#d82b2f" d="M 13.996094 10.591797 A 28 28 0 0 0 4 32 A 28 28 0 0 0 11.003906 50.490234 L 11.447266 49.427734 L 18.457031 52.351562 C 18.613616 53.94672 18.5997 55.291292 18.478516 56.482422 A 28 28 0 0 0 32 60 A 28 28 0 0 0 45.773438 56.337891 C 43.356207 39.820129 31.543715 20.162207 13.996094 10.591797 z"/>
 <path style="opacity:0.2" d="m 22.850782,6.5722016 a 28,28 0 0 0 -9.217579,5.3402344 c 5.100615,2.481835 10.050955,6.311171 14.355469,10.948436 -6.073696,6.102688 -13.291416,17.131362 -17.114453,28.462112 a 28,28 0 0 0 7.89414,6.341016 c 2.223131,-10.495324 8.357799,-21.963516 14.380077,-28.453908 5.62672,7.89443 10.088072,17.699044 12.405862,28.254296 a 28,28 0 0 0 8.50117,-7.267968 C 48.800236,32.263596 34.106998,12.674572 22.850782,6.5722016 Z"/>
 <path style="fill:#8b9cbe" d="M 22.850782,5.5722656 A 28,28 0 0 0 13.633203,10.9125 c 5.100615,2.481835 10.050955,6.311171 14.355469,10.948436 -6.073696,6.102688 -13.291416,17.131362 -17.114453,28.462112 a 28,28 0 0 0 7.89414,6.341016 C 20.99149,46.16874 27.126158,34.700548 33.148436,28.210156 c 5.62672,7.89443 10.088072,17.699044 12.405862,28.254296 a 28,28 0 0 0 8.50117,-7.267968 C 48.800236,31.26366 34.106998,11.674636 22.850782,5.5722656 Z"/>
 <path style="opacity:0.1;fill:#8b9cbe" d="M 32 4 A 28 28 0 0 0 4 32 A 28 28 0 0 0 4.0175781 32.492188 A 28 28 0 0 1 32 5 A 28 28 0 0 1 59.974609 32.492188 A 28 28 0 0 0 60 32 A 28 28 0 0 0 32 4 z"/>
</svg>
