<svg xmlns="http://www.w3.org/2000/svg" width="64" height="64" version="1">
 <rect style="fill:#189bc1" width="56" height="56" x="4" y="4" rx="28" ry="28"/>
 <path style="opacity:0.2" d="m 32.03977,15.002934 c -2.968142,1.550866 -4.664881,5.357008 -6.007572,7.999714 -0.853413,-1.152138 -0.670044,-3.567673 -1.001261,-4.999821 -2.623107,3.448877 -3.77816,9.379263 -4.834292,12.82774 -1.495346,4.902425 -3.401086,7.911317 -6.120914,9.663654 -1.616136,1.041205 -3.064461,1.576804 -6.1954065,2.28512 C 7.4588734,42.904801 7.1309201,42.970801 6.75,43.060571 11.247668,52.492232 20.841759,59 32.037868,59 c 0.796363,0 1.57927,-0.0528 2.35837,-0.117181 0.565595,-2.146923 0.560047,-4.516838 0.183822,-6.116979 -0.33442,-1.313954 -1.19951,-3.673869 -1.143441,-3.765867 0.05719,-0.09222 1.468851,0.05078 2.667362,0.05078 1.415925,0 2.453692,0.05096 3.203237,-0.17578 0.634539,-0.19194 1.392173,-0.503142 1.842161,-0.480442 2.000922,0.10084 4.533113,-0.808572 5.201956,-2.585907 0.207641,-0.5519 1.080321,-1.265075 1.31025,-1.581983 0.376375,-0.518763 0.574244,-0.946026 0.332459,-1.761658 -0.340428,-1.151957 -1.734186,-1.829934 -3.210046,-3.173886 -1.117407,-1.019965 -1.676112,-1.12596 -1.732182,-2.21592 -0.04113,-0.801572 0.172949,-1.360051 -0.262051,-1.769457 -0.4931,-0.464086 -1.741273,-0.166882 -1.822616,-0.175782 -0.518033,-0.601937 -1.011776,-1.229155 -0.05867,-2.097525 0.720908,-0.657975 1.141438,-0.951965 1.141438,-1.671939 0,-0.707274 -0.419108,-0.913748 -1.044277,-1.460888 -0.41296,-0.361408 -0.854216,-0.656216 -0.985621,-0.656216 -0.1314,0 -0.796524,-0.527221 -1.474517,-1.171839 -1.313651,-1.249956 -2.238814,-1.071962 -3.262105,-1.071962 -0.827042,0 -1.243567,-0.80397 -1.243567,-1.999927 1.101387,-3.981859 4.355489,-7.080148 6.007571,-7.999714 -4.185273,-0.591779 -7.235119,1.482746 -10.012617,3.999857 -0.130158,-1.461948 1.846327,-5.054821 2.002524,-5.999786 z"/>
 <path style="fill:#8b9cbe" d="m 31.993321,14.002239 c -2.958203,1.550865 -4.649261,5.35701 -5.987458,7.999715 -0.850557,-1.15214 -0.667801,-3.567673 -0.997908,-4.999822 -2.614324,3.448876 -3.765513,9.379267 -4.818109,12.827743 -1.490338,4.902426 -3.389699,7.911319 -6.100421,9.663656 -1.610726,1.041204 -3.054201,1.576804 -6.1746645,2.285119 -0.714703,0.211992 -1.5022533,0.385986 -1.9147891,0.479983 4.0708726,10.40163 14.1351896,17.741369 25.9915536,17.741369 0.537075,0 1.060998,-0.05236 1.590427,-0.08204 1.288642,-2.519509 1.443278,-6.018386 0.943344,-8.152109 -0.3333,-1.313954 -1.195495,-3.673869 -1.139612,-3.765867 0.05701,-0.09222 1.463934,0.05078 2.658432,0.05078 1.411182,0 2.445476,0.05096 3.192511,-0.17578 0.632416,-0.19194 1.387514,-0.503144 1.835995,-0.480444 1.994221,0.100841 4.517935,-0.808571 5.184539,-2.585907 0.206965,-0.551901 1.076705,-1.265075 1.305866,-1.581985 0.375112,-0.518762 0.572318,-0.946026 0.331345,-1.761657 -0.339291,-1.151958 -1.728379,-1.829934 -3.199299,-3.173888 -1.113666,-1.019963 -1.670501,-1.125959 -1.726384,-2.21592 -0.041,-0.801573 0.17237,-1.360052 -0.261172,-1.769458 -0.49145,-0.464082 -1.735444,-0.166879 -1.816515,-0.175779 -0.516298,-0.601941 -1.008407,-1.229159 -0.05848,-2.097528 0.718494,-0.657976 1.137616,-0.951966 1.137616,-1.671939 0,-0.707276 -0.417704,-0.913748 -1.04078,-1.460887 -0.411576,-0.361408 -0.851355,-0.656219 -0.982321,-0.656219 -0.130968,0 -0.793859,-0.527222 -1.469581,-1.171837 -1.309259,-1.249955 -2.231328,-1.071962 -3.25119,-1.071962 -0.824273,0 -1.239405,-0.803971 -1.239405,-1.999929 1.0977,-3.981858 4.340907,-7.080147 5.987458,-7.999715 -4.171262,-0.59178 -7.210894,1.482748 -9.979096,3.999857 -0.129731,-1.462549 1.840145,-5.054822 1.99582,-5.999787 z"/>
 <path style="opacity:0.2;fill:#8b9cbe" d="M 32 4 C 16.488222 4 4 16.488222 4 32 C 4 32.113554 4.0112846 32.224034 4.0175781 32.335938 C 4.3691162 17.134398 16.710946 5 32 5 C 47.289055 5 59.630884 17.134398 59.982422 32.335938 C 59.988797 32.224034 60 32.113554 60 32 C 60 16.488222 47.511779 4 32 4 z"/>
 <path style="opacity:0.2" d="M 4.0175781,32.664062 C 4.0112845,32.775966 4,32.886446 4,33 4,48.511778 16.488,61 32,61 47.512001,61 60,48.511778 60,33 60,32.886446 59.988797,32.775966 59.982422,32.664062 59.630879,47.865602 47.289273,60 32,60 16.710728,60 4.3691213,47.865602 4.0175781,32.664062 Z"/>
</svg>
