<svg xmlns="http://www.w3.org/2000/svg" width="64" height="64" version="1.1">
 <circle style="opacity:0.2" cx="32" cy="33" r="28"/>
 <circle style="fill:#455a64" cx="32" cy="32" r="28"/>
 <path style="opacity:0.2" d="m 35.088184,21.034926 c -1.26605,-0.16796 -2.61909,0.274272 -3.53932,1.226666 0.244532,0.514988 1.740906,0.259344 2.280466,0.977438 0.803522,0.692136 2.185438,2.20921 1.156308,3.25656 -4.00174,3.912176 -8.833566,8.713662 -12.80979,12.657812 -0.72523,0.915822 -1.98279,1.52381 -2.175848,2.797748 0.237124,1.26937 1.346608,2.177038 2.227702,2.941262 0.393638,0.211782 0.931518,0.09856 1.240876,-0.231804 5.273276,-5.636054 9.00737,-10.370488 13.832146,-15.778188 0.591158,-0.509746 1.604936,-0.457504 1.588538,0.6105 -0.667132,1.160512 1.021244,1.841716 1.555896,2.694898 C 41.059194,32.64303 41.48294,31.756796 41.93376,31.43277 42.597358,30.551832 43.968992,30.001492 44,28.753702 43.239874,27.99484 42.60973,26.133196 41.459866,26.614348 40.318578,26.08771 40.795548,24.16488 39.581948,23.507296 38.624184,22.71517 37.38089,22.533188 36.503392,21.518374 36.06576,21.25979 35.583596,21.100654 35.088184,21.034926 Z"/>
 <path style="fill:#00ad9a" d="m 35.088184,20.03494 c -1.26605,-0.16796 -2.61909,0.274272 -3.53932,1.226666 0.244532,0.514988 1.740906,0.259344 2.280466,0.977438 0.803522,0.692136 2.185438,2.20921 1.156308,3.25656 -4.00174,3.912176 -8.833566,8.713662 -12.80979,12.657812 -0.72523,0.915822 -1.98279,1.52381 -2.175848,2.797748 0.237124,1.26937 1.346608,2.177038 2.227702,2.941262 0.393638,0.211782 0.931518,0.09856 1.240876,-0.231804 5.273276,-5.636054 9.00737,-10.370488 13.832146,-15.778188 0.591158,-0.509746 1.604936,-0.457504 1.588538,0.6105 -0.667132,1.160512 1.021244,1.841716 1.555896,2.694898 0.614036,0.455212 1.037782,-0.431022 1.488602,-0.755048 C 42.597358,29.551846 43.968992,29.001506 44,27.753716 43.239874,26.994854 42.60973,25.13321 41.459866,25.614362 40.318578,25.087724 40.795548,23.164894 39.581948,22.50731 38.624184,21.715184 37.38089,21.533202 36.503392,20.518388 36.06576,20.259804 35.583596,20.100668 35.088184,20.03494 Z"/>
 <path style="opacity:0.2" d="m 24.424956,21.00126 c -0.400774,0.0068 -0.800012,0.03878 -1.183954,0.07654 -1.822658,0.11366 -0.687924,1.471632 0.424312,1.742462 1.821724,0.519688 1.811528,2.588304 0.729282,3.886882 -0.990374,1.681664 -2.478354,0.08398 -3.633654,-0.466156 -1.722364,-0.28552 -0.0588,2.107552 0.488626,2.694138 0.820488,1.268714 2.216928,1.877244 3.652862,1.658378 1.802714,-0.25806 3.070522,1.277908 4.260456,2.435784 3.352198,3.124948 6.76451,6.544256 10.136742,9.972632 0.495746,0.424348 1.03712,0.908272 1.418776,1.45121 1.852592,1.740188 4.61523,-1.034846 2.545756,-3.25787 C 38.977956,37.24802 34.57354,32.703278 30.61311,28.840192 29.96492,28.205358 29.359684,27.534098 28.9459,26.707664 28.246338,25.258714 28.99234,23.32301 27.695522,22.16294 26.842766,21.190588 25.627288,20.981366 24.424956,21.001254 Z"/>
 <path style="fill:#1092ff" d="m 24.424956,20.001254 c -0.400774,0.0068 -0.800012,0.03878 -1.183954,0.07654 -1.822658,0.11366 -0.687924,1.471632 0.424312,1.742462 1.821724,0.519688 1.811528,2.588304 0.729282,3.886882 -0.990374,1.681664 -2.478354,0.08398 -3.633654,-0.466156 -1.722364,-0.28552 -0.0588,2.107552 0.488626,2.694138 0.820488,1.268714 2.216928,1.877244 3.652862,1.658378 1.802714,-0.25806 3.070522,1.277908 4.260456,2.435784 3.352198,3.124948 6.76451,6.544256 10.136742,9.972632 0.495746,0.424348 1.03712,0.908272 1.418776,1.45121 1.852592,1.740188 4.61523,-1.034846 2.545756,-3.25787 -4.286204,-3.94724 -8.69062,-8.491982 -12.65105,-12.355068 -0.64819,-0.634834 -1.253426,-1.306094 -1.66721,-2.132528 -0.699562,-1.44895 0.04644,-3.384654 -1.250378,-4.544724 -0.852756,-0.972352 -2.068234,-1.181574 -3.270566,-1.161686 z"/>
 <path style="opacity:0.1;fill:#8b9cbe" d="M 32 4 A 28 28 0 0 0 4 32 A 28 28 0 0 0 4.0175781 32.492188 A 28 28 0 0 1 32 5 A 28 28 0 0 1 59.974609 32.492188 A 28 28 0 0 0 60 32 A 28 28 0 0 0 32 4 z"/>
</svg>
