<svg xmlns="http://www.w3.org/2000/svg" width="64" height="64" version="1">
 <path style="fill:#e74c3c" d="m 32.0001,6.000319 c -9.387944,0 -16.9997,7.626555 -16.9997,17.033899 -0.0348,5.10197 4.469974,9.559944 6.537762,14.413915 0.921994,2.163988 2.615984,6.551962 2.615984,6.551962 l 15.692108,0 c 0,0 1.69355,-4.388574 2.615384,-6.551762 2.067988,-4.853971 6.447962,-9.367944 6.537962,-14.413915 0,-9.407344 -7.611955,-17.033899 -16.9999,-17.033899 z"/>
 <path style="fill:#4f4f4f" d="m 39.846054,44.000095 -2.615985,11.399933 c -0.321998,1.403991 -1.165993,2.599984 -2.613984,2.599984 l -5.230769,0 c -1.448912,0 -2.311787,-1.191553 -2.615385,-2.599984 L 24.153946,44.000095 Z"/>
 <path style="opacity:0.2;fill:#8b9cbe" d="m 24.668143,46.000083 0.445998,1.999988 13.771919,0 0.445997,-1.999988 -14.663914,0 z m 0.893995,3.999976 0.445998,1.999989 11.983929,0 0.445997,-1.999989 -12.875924,0 z m 0.895995,3.999977 0.311998,1.397992 c 0.046,0.211998 0.127999,0.403997 0.197999,0.601996 l 10.059941,0 c 0.072,-0.197999 0.155999,-0.389998 0.201998,-0.601996 l 0.311999,-1.397992 -11.083935,0 z"/>
 <path style="opacity:0.2;fill:#8b9cbe" d="M 31.998788,6 C 22.611513,6 15,13.627821 15,23.035894 c -0.0011,0.165969 0.01656,0.329149 0.02539,0.494106 0.268634,-9.172617 7.756012,-16.5300713 16.9734,-16.5300713 9.150229,0 16.592563,7.2516973 16.963634,16.3308663 0.01512,-0.09763 0.03314,-0.195257 0.03515,-0.294901 C 48.997576,13.627821 41.386064,6 31.998788,6 Z"/>
 <path style="opacity:0.2" d="m 48.970703,23.449219 c -0.312055,4.877716 -4.496681,9.279464 -6.509765,14 C 41.540944,39.611206 39.847656,44 39.847656,44 l -15.695312,0 c 0,0 -1.691334,-4.388794 -2.611328,-6.550781 -1.99921,-4.689814 -6.262193,-9.01358 -6.517578,-13.900391 C 15.013852,23.710821 15,23.872059 15,24.037109 c -0.0348,5.09997 4.471828,9.558138 6.541016,14.41211 C 22.46101,40.611206 24.152344,45 24.152344,45 l 15.695312,0 c 0,0 1.693288,-4.388794 2.613282,-6.550781 C 44.530926,33.595247 48.91,29.081079 49,24.037109 c 0,-0.198726 -0.0201,-0.391642 -0.0293,-0.58789 z"/>
 <path style="opacity:0.2" d="m 24.152344,45 2.617187,11.398438 C 27.073529,57.806429 27.934821,59 29.382812,59 l 5.234376,0 c 1.447991,0 2.291283,-1.197571 2.613281,-2.601562 L 39.847656,45 39.617188,45 37.230469,55.398438 C 36.908471,56.802429 36.065179,58 34.617188,58 l -5.234376,0 c -1.447991,0 -2.309283,-1.193571 -2.613281,-2.601562 L 24.382812,45 24.152344,45 Z"/>
</svg>
