<svg xmlns="http://www.w3.org/2000/svg" xmlns:xlink="http://www.w3.org/1999/xlink" width="64" height="64" version="1">
 <defs>
  <linearGradient id="linearGradient938">
   <stop style="stop-color:#2bb5fe" offset="0"/>
   <stop style="stop-color:#2bb5fe;stop-opacity:0" offset="1"/>
  </linearGradient>
  <linearGradient id="linearGradient940" x1="22.26" x2="21.73" y1="32.569" y2="30.835" gradientTransform="matrix(1.4,0,0,1.4,-1.6,-3.399617)" gradientUnits="userSpaceOnUse" xlink:href="#linearGradient938"/>
  <linearGradient id="linearGradient944" x1="22.26" x2="21.73" y1="32.569" y2="30.835" gradientTransform="matrix(1.4,0,0,1.4,11.674648,-3.5756734)" gradientUnits="userSpaceOnUse" xlink:href="#linearGradient938"/>
 </defs>
 <path style="opacity:0.2" d="M 32,5 C 16.488,5 4,17.488 4,33 4,48.512 16.488,61 32,61 47.512,61 60,48.512 60,33 60,17.488 47.512,5 32,5 Z"/>
 <path style="fill:#3fbcfe" d="M 32,4 C 16.488,4 4,16.488 4,32 4,47.512 16.488,60 32,60 47.512,60 60,47.512 60,32 60,16.488 47.512,4 32,4 Z"/>
 <ellipse style="opacity:0.1" cx="33.993" cy="37.984" rx="12.566" ry="13.016"/>
 <ellipse style="fill:#f6dcc2" cx="33.993" cy="36.984" rx="12.566" ry="13.016"/>
 <path style="opacity:0.1" d="m 22.806044,25.24824 c 10.434726,-0.697802 14.960582,-4.070548 24.784054,-1.10083 4.384102,3.067522 5.626888,20.03672 1.43669,25.55659 l -0.45858,-3.694844 c -0.08966,1.93143 -0.513242,2.694068 -0.937556,3.454178 l -0.332384,-1.633996 -1.259118,1.804674 0.820988,-4.41591 c -0.60516,1.50471 -1.315272,2.967436 -2.765856,4.133974 l -3.676962,-0.391204 2.698606,-2.460096 2.86416,-6.612978 -1.43468,0.686782 -0.30575,-9.903698 c -0.410366,3.095976 -0.434826,6.507678 -1.334746,8.134996 -0.970368,-2.016566 -1.42058,-5.59359 -2.085402,-8.526786 0.350738,5.617506 -1.316706,8.275016 -3.516238,10.152128 -1.051044,-1.662664 -1.299412,-4.22834 -0.98018,-7.432566 -1.363894,1.558668 -2.427112,4.019372 -3.453198,6.59147 0.06408,-3.04093 -1.20967,-5.368354 1.180218,-9.649716 -2.38358,1.265734 -4.243604,3.840358 -5.94628,6.808348 0.15174,-1.976502 0.381972,-4.00907 1.711926,-6.827152 -1.785182,2.788478 -3.563142,5.58057 -4.678442,8.70399 -0.634502,-2.114234 -1.106448,-4.29099 0.448566,-7.247346 -4.100904,2.581072 -2.089188,14.03769 -1.337412,17.65068 h -6.493329 l -0.783678,-1.567354 -0.895632,1.567354 h -2.798851 l 2.779403,-19.321462 z"/>
 <path style="fill:#ff7f7f" d="M 33.5,13 C 22.498326,13 16.242358,20.45932 16.017578,28.984375 l -2.740234,19.044922 h 2.798828 l 0.894531,-1.568359 0.785156,1.568359 h 6.492188 c -0.751776,-3.61299 -2.763013,-15.069319 1.337891,-17.650391 -1.555015,2.956356 -1.083721,5.13186 -0.449219,7.246094 1.1153,-3.12342 2.894505,-5.914647 4.679687,-8.703125 -1.329954,2.818082 -1.56115,4.84967 -1.71289,6.826172 1.702676,-2.96799 3.563685,-5.54286 5.947265,-6.808594 -2.389888,4.281362 -1.11756,6.609461 -1.18164,9.650391 1.026086,-2.572098 2.089231,-5.033129 3.453125,-6.591797 -0.319232,3.204226 -0.07058,5.77093 0.980468,7.433594 2.199532,-1.877112 3.868316,-4.534838 3.517578,-10.152344 0.664823,2.933196 1.113617,6.510778 2.083985,8.527344 0.89992,-1.627318 0.925571,-5.040743 1.335937,-8.136719 l 0.304688,9.904297 1.435547,-0.685547 -2.865235,6.611328 -2.697265,2.460938 3.675781,0.390624 c 1.450584,-1.166537 2.160465,-2.628102 2.765625,-4.132812 l -0.820313,4.416016 1.259766,-1.804688 0.332031,1.632813 c 0.424314,-0.76011 0.84784,-1.521695 0.9375,-3.453125 l 0.458985,3.693359 C 52.030454,44.74704 51.434898,35.094886 50.496094,28.544922 49.212843,19.591778 42.157532,13 33.5,13 Z"/>
 <path style="fill:#29325f" d="m 28.210156,37.203118 c -1.529282,0.0556 -3.201954,1.803814 -3.201954,3.34961 0.476472,0.665574 1.136186,1.245182 1.684376,1.782812 0.0026,0.0028 0.0054,0.0054 0.0082,0.0082 0.0207,0.0136 0.03908,0.03066 0.06016,0.04376 0.495382,0.395812 1.110442,0.611758 1.744532,0.6125 1.546396,0 2.8,-1.253602 2.8,-2.8 0.02496,-0.748992 -0.267808,-1.497424 -0.483986,-2.086328 -0.547694,-0.643006 -1.759848,-0.9415 -2.611326,-0.910546 z"/>
 <path style="fill:#29325f" d="m 39.0839,40.58528 c 0.492414,1.563074 0.80731,1.918694 2.194652,2.20041 1.314172,0.1402 2.441126,-0.74366 3.185118,-1.76787 0.1951,-1.62195 0.17164,-3.412852 -1.20777,-3.75272 -0.768032,-0.18924 -2.540226,0.04254 -3.117918,0.6164 -0.637216,0.632996 -1.392996,1.62796 -1.054082,2.70378 z"/>
 <path style="fill:#8b9cbe" d="m 32.803442,46.004238 h 4.049354 c -0.694198,3.035124 -4.162394,2.107022 -4.049354,0 z"/>
 <path style="fill:#a66067" d="m 45.552106,24.745936 c 2.410948,6.728462 2.75996,9.562612 3.031542,12.250052 1.274882,-5.883308 0.41533,-7.823822 -3.031542,-12.250052 z M 28.856788,26.38443 c -1.568454,2.023818 -3.559018,2.991842 -4.80836,5.813442 l 0.257556,-3.629094 -1.768436,8.382498 -0.540266,-3.218772 -1.253788,8.805862 -0.910534,-7.1506 -0.751249,4.045936 -1.112666,-8.737862 -1.001355,5.394738 -0.734015,-4.687736 -2.956557,16.626112 h 2.798669 l 0.895629,-1.567236 0.783851,1.567236 H 24.2487 c -0.751778,-3.61299 -2.763748,-15.069682 1.337156,-17.650752 -1.520032,2.88985 -1.101656,5.034248 -0.4895,7.104024 0.700624,-3.892314 1.623384,-7.854844 3.760432,-11.097796 z m 9.01079,2.366454 c -1.579364,0.839062 -3.622636,4.379918 -5.12041,7.670374 0.07228,0.706274 0.13882,1.415686 0.12296,2.16898 1.026084,-2.5721 2.089146,-5.033038 3.45304,-6.591704 -0.319234,3.204226 -0.07112,5.770176 0.979932,7.43284 0.208024,-0.17754 0.409614,-0.365092 0.606866,-0.55843 -0.736482,-3.359448 -1.307842,-6.841776 -0.04238,-10.12206 z m 2.9519,0.528158 c 0.664822,2.933194 1.115244,6.510314 2.08561,8.526878 0.13528,-0.244636 0.255762,-0.533696 0.366542,-0.851848 -0.0106,-2.08103 -0.484912,-4.544042 -2.452152,-7.67503 z m 3.674454,0.558428 c 0.18586,1.678296 0.12268,3.184132 -0.10852,4.5536 l 0.16022,5.183288 1.434498,-0.68651 -3.27915,6.537658 -2.283438,2.535542 3.676782,0.391226 c 1.450588,-1.166536 2.16044,-2.629254 2.7656,-4.133962 l -0.820644,4.415738 1.258912,-1.804766 0.332542,1.633838 c 0.424314,-0.760112 0.8479,-1.522542 0.937548,-3.453972 l 0.458294,3.694762 c 0.677884,-0.892998 1.211542,-2.088562 1.61474,-3.473534 -1.345892,-4.768236 -3.300848,-10.862464 -6.14738,-15.392908 z"/>
 <path style="fill:url(#linearGradient940)" d="m 28.45625,38.146478 a 2.1,2.1 0 0 0 -2.1,2.1 2.1,2.1 0 0 0 2.1,2.1 2.1,2.1 0 0 0 2.1,-2.1 2.1,2.1 0 0 0 -2.1,-2.1 z m 0.0192,0.604296 a 1.5148608,1.5148608 0 0 1 1.514844,1.514844 1.5148608,1.5148608 0 0 1 -1.514844,1.514844 1.5148608,1.5148608 0 0 1 -1.514844,-1.514844 1.5148608,1.5148608 0 0 1 1.514844,-1.514844 z"/>
 <path style="fill:url(#linearGradient944)" d="m 41.730898,37.97042 a 2.1,2.1 0 0 0 -2.1,2.1 2.1,2.1 0 0 0 2.1,2.1 2.1,2.1 0 0 0 2.1,-2.1 2.1,2.1 0 0 0 -2.1,-2.1 z m 0.0192,0.604298 a 1.5148608,1.5148608 0 0 1 1.514842,1.514844 1.5148608,1.5148608 0 0 1 -1.514842,1.514842 1.5148608,1.5148608 0 0 1 -1.514844,-1.514842 1.5148608,1.5148608 0 0 1 1.514844,-1.514844 z"/>
 <path style="fill:#8b9cbe;opacity:0.2" d="M 32 4 C 16.488 4 4 16.488 4 32 C 4 32.167704 4.0107645 32.333014 4.0136719 32.5 C 4.2796807 17.221478 16.655704 5 32 5 C 47.344296 5 59.720319 17.221478 59.986328 32.5 C 59.989235 32.333014 60 32.167704 60 32 C 60 16.488 47.512 4 32 4 z"/>
</svg>
