<svg xmlns="http://www.w3.org/2000/svg" width="64" height="64" version="1.1">
 <circle style="fill:#b2bfd9" cx="32" cy="32" r="27"/>
 <path style="fill:#56676e" d="M 59.870164,29.386994 C 59.94694,30.233168 60,31.086816 60,31.95355 v 0 c 0,-0.866734 -0.05306,-1.71976 -0.12984,-2.566556 z"/>
 <path style="opacity:0.2" d="m 31.999996,5.0000128 a 28.103614,28.054518 0 0 0 -5.077734,0.48125 c 32.435508,3.9747642 24.00568,41.8617892 4.014062,41.5789012 0,0 29.108342,3.79215 27.286326,-23.835544 C 54.260904,12.590148 44.03192,5.0000128 31.999996,5.0000128 Z m -7.483982,1.933203 c -0.894564,-0.01684 -1.82473,-0.00484 -2.791798,0.035546 C 11.347026,11.06067 4,21.138656 4,32.95079 a 28.157296,28.108104 0 0 0 0.2871094,3.800782 C 10.799927,4.0175614 47.904686,14.618727 45.794918,34.607822 c 0,0 6.45255,-27.1524466 -21.278904,-27.6746062 z m 3.22656,11.7605452 C 19.188367,18.424249 5.549382,21.390798 5.8566406,43.136336 a 28.079896,28.03084 0 0 0 6.7703114,10.106248 c 0.124838,0.11776 0.253992,0.228634 0.380079,0.344532 a 28.099246,28.050156 0 0 0 2.657811,2.160156 c 0.144188,0.10282 0.279017,0.216868 0.423829,0.317186 a 27.885148,27.836434 0 0 0 3.065234,1.815626 c 0.307727,0.15826 0.623061,0.303498 0.935157,0.451172 a 27.708502,27.660094 0 0 0 2.799998,1.134766 c 0.234072,0.07976 0.457338,0.18014 0.69453,0.254298 a 27.756564,27.708074 0 0 0 3.48633,0.823044 c 0.356412,0.06232 0.71656,0.11422 1.077342,0.16406 a 28.088634,28.039564 0 0 0 3.688672,0.284376 c 0.04744,0 0.092,0.0082 0.13946,0.0082 0.931294,0 1.852032,-0.05034 2.758984,-0.13946 C 2.1303326,53.098634 14.523711,16.706125 34.469136,19.609776 c 0,0 -2.838284,-0.793509 -6.726562,-0.916015 z m -9.411717,11.544531 c 0,0 -7.787564,28.642162 23.422655,28.8914 9.792322,-3.63891 17.007974,-12.560034 18.101558,-23.31601 0.07554,-0.743984 0.09798,-1.50388 0.11484,-2.264064 0.003,-0.200014 0.03008,-0.39483 0.03008,-0.596092 0,-0.866112 -0.05174,-1.721406 -0.12852,-2.56758 -8.245568,32.403144 -44.723991,19.711212 -41.540613,-0.14766 z"/>
 <path style="fill:#4b6a77" d="m 31.999996,3.9999748 a 28.103614,28.054518 0 0 0 -5.077734,0.48125 c 32.435508,3.974764 24.00568,41.8617892 4.014062,41.5789012 0,0 29.108342,3.79215 27.286326,-23.835544 C 54.260904,11.59011 44.03192,3.9999748 31.999996,3.9999748 Z m -7.483982,1.933203 c -0.894564,-0.01684 -1.82473,-0.00484 -2.791798,0.035546 C 11.347026,10.060632 4,20.138618 4,31.950752 a 28.157296,28.108104 0 0 0 0.2871094,3.800782 C 10.799927,3.0175234 47.904686,13.618689 45.794918,33.607784 c 0,0 6.45255,-27.1524466 -21.278904,-27.6746062 z m 3.22656,11.7605452 C 19.188367,17.424211 5.549382,20.39076 5.8566406,42.136298 a 28.079896,28.03084 0 0 0 6.7703114,10.106248 c 0.124838,0.11776 0.253992,0.228634 0.380079,0.344532 a 28.099246,28.050156 0 0 0 2.657811,2.160156 c 0.144188,0.10282 0.279017,0.216868 0.423829,0.317186 a 27.885148,27.836434 0 0 0 3.065234,1.815626 c 0.307727,0.15826 0.623061,0.303498 0.935157,0.451172 a 27.708502,27.660094 0 0 0 2.799998,1.134766 c 0.234072,0.07976 0.457338,0.18014 0.69453,0.254298 a 27.756564,27.708074 0 0 0 3.48633,0.823044 c 0.356412,0.06232 0.71656,0.11422 1.077342,0.16406 a 28.088634,28.039564 0 0 0 3.688672,0.284376 c 0.04744,0 0.092,0.0082 0.13946,0.0082 0.931294,0 1.852032,-0.05034 2.758984,-0.13946 C 2.1303326,52.098596 14.523711,15.706087 34.469136,18.609739 c 0,0 -2.838284,-0.79351 -6.726562,-0.916016 z m -9.411717,11.544531 c 0,0 -7.787564,28.642162 23.422655,28.8914 9.792322,-3.63891 17.007974,-12.560034 18.101558,-23.31601 0.07554,-0.743984 0.09798,-1.50388 0.11484,-2.264064 0.003,-0.200014 0.03008,-0.39483 0.03008,-0.596092 0,-0.866112 -0.05174,-1.721406 -0.12852,-2.56758 C 51.625902,61.789052 15.147479,49.09712 18.330857,29.238254 Z"/>
 <path style="opacity:0.1" d="m 40,33.000038 a 8,8 0 1 1 -7.997452,-8 7.9993632,7.9993632 0 0 1 7.997452,8 z"/>
 <path style="fill:#4b4c4d" d="M 40,32 A 8,8 0 1 1 32.002548,24 7.9993632,7.9993632 0 0 1 40,32 Z"/>
 <path style="fill:#8b9cbe;opacity:0.1" d="M 32 4 A 28.103614 28.054518 0 0 0 26.921875 4.4804688 C 28.1561 4.6317151 29.323907 4.8385043 30.441406 5.0839844 A 28.103614 28.054518 0 0 1 32 5 C 44.031924 5 54.26091 12.590137 58.222656 23.224609 C 58.267406 23.90316 58.278786 24.548287 58.287109 25.189453 C 58.302636 24.239684 58.291001 23.260938 58.222656 22.224609 C 54.26091 11.590137 44.031924 4 32 4 z M 24.515625 5.9335938 C 23.621061 5.9167537 22.691677 5.928364 21.724609 5.96875 C 11.347419 10.060658 4 20.139038 4 31.951172 A 28.157296 28.108104 0 0 0 4.0234375 32.355469 C 4.2674083 20.802921 11.523569 10.991199 21.724609 6.96875 C 22.691677 6.928364 23.621061 6.9167537 24.515625 6.9335938 C 43.170056 7.2848407 46.340542 19.667222 46.427734 27.748047 C 46.587838 19.737318 43.961808 6.2997488 24.515625 5.9335938 z M 26.083984 17.685547 C 17.538237 17.869025 5.5693669 21.750277 5.8574219 42.136719 A 28.079896 28.03084 0 0 0 5.8613281 42.148438 C 5.9816597 21.313061 19.321113 18.428042 27.742188 18.693359 C 28.221455 18.708459 28.684893 18.732878 29.128906 18.765625 C 30.823708 18.410168 32.613046 18.339222 34.46875 18.609375 C 34.46875 18.609375 31.630465 17.815865 27.742188 17.693359 C 27.20755 17.676515 26.653701 17.673315 26.083984 17.685547 z M 48.603516 25.839844 C 48.503259 36.141509 41.275091 46.206855 30.935547 46.060547 C 30.935547 46.060547 33.149099 46.327256 36.277344 46.173828 C 43.982216 43.40744 48.91489 34.593631 48.603516 25.839844 z M 18.330078 29.238281 C 18.330078 29.238281 17.394927 32.689667 17.474609 37.205078 C 17.517628 34.234163 17.917349 32.09821 18.148438 31.058594 C 18.173044 30.459469 18.231663 29.852227 18.330078 29.238281 z M 59.871094 29.386719 C 52.037527 60.170793 18.726604 50.252452 18.146484 32.15625 C 17.498923 50.876577 51.894353 61.733434 59.871094 30.386719 C 59.928708 31.021669 59.964287 31.662656 59.982422 32.308594 C 59.990837 32.190611 60 32.073224 60 31.953125 C 60 31.087013 59.947874 30.232893 59.871094 29.386719 z M 45.869141 32.490234 C 45.856751 32.85962 45.834635 33.231157 45.794922 33.607422 C 45.794922 33.607422 45.851437 33.296298 45.873047 33.195312 C 45.876421 32.958963 45.876651 32.723534 45.869141 32.490234 z M 14.662109 39.193359 C 14.537743 47.426658 19.278007 55.989167 31.617188 59.986328 A 28.088634 28.039564 0 0 0 31.835938 59.992188 C 31.883378 59.992188 31.927149 60 31.974609 60 C 32.905903 60 33.827423 59.950448 34.734375 59.861328 C 20.619022 56.500946 14.948172 47.774339 14.662109 39.193359 z"/>
</svg>
