<svg width="64" height="64" version="1.1" xmlns="http://www.w3.org/2000/svg">
 <rect x="4" y="5" width="56" height="56" rx="2.8" ry="2.8" style="opacity:.2"/>
 <rect x="4" y="4" width="56" height="56" rx="2.8" ry="2.8" style="fill:#0190c5"/>
 <path d="m33 11s10 2 14 6c5 5 8 16 8 16v-19c0-1.662-1.338-3-3-3zm-23 3v28s9 0 15-7c4.328471-5.049882 11.560429-13.987506 13.021484-15.794922-10.017504-5.200693-28.021484-5.205078-28.021484-5.205078zm34.189453 10.822266c-1.979623 2.003422-10.071814 10.236566-14.189453 15.177734-5 6-5 15-5 15h27s-1.628095-20.314717-7.810547-30.177734z" style="opacity:.2"/>
 <path d="m33 10s10 2 14 6c5 5 8 16 8 16v-19c0-1.662-1.338-3-3-3h-19zm-23 3v28s9 0 15-7c4.328471-5.049882 11.560429-13.987506 13.021484-15.794922-10.017504-5.200693-28.021484-5.205078-28.021484-5.205078zm34.189453 10.822266c-1.979623 2.003422-10.071814 10.236566-14.189453 15.177734-5 6-5 15-5 15h27s-1.628095-20.314717-7.810547-30.177734z" style="fill:#8b9cbe"/>
 <path d="M 6.8007812 4 C 5.2495813 4 4 5.2495813 4 6.8007812 L 4 7.8007812 C 4 6.2495813 5.2495813 5 6.8007812 5 L 57.199219 5 C 58.750419 5 60 6.2495813 60 7.8007812 L 60 6.8007812 C 60 5.2495813 58.750419 4 57.199219 4 L 6.8007812 4 z " style="fill:#8b9cbe;opacity:.2"/>
</svg>
