<svg xmlns="http://www.w3.org/2000/svg" width="64" height="64" version="1.1">
 <path style="opacity:0.2" d="m 10.381747,15.569228 -4.261686,7.273576 c -2.8411234,4.849052 45.657054,32.437004 48.498174,27.58796 l 4.261698,-7.273571 C 61.721128,38.308183 13.222881,10.720187 10.381758,15.569232"/>
 <path style="fill:#009688" d="m 10.381747,14.56923 -4.261686,7.273576 c -2.8411234,4.849052 45.657054,32.437004 48.498174,27.58796 l 4.261698,-7.273571 C 61.721128,37.308185 13.222881,9.7201893 10.381758,14.569234"/>
 <path style="fill:#8b9cbe;opacity:0.1" d="M 12.304688 14.015625 C 11.315688 13.945504 10.647215 14.113761 10.380859 14.568359 L 6.1191406 21.84375 C 5.9613524 22.113053 5.9709841 22.455346 6.1132812 22.855469 C 6.1154433 22.851643 6.1169156 22.847547 6.1191406 22.84375 L 10.380859 15.568359 C 13.064194 10.988617 56.466877 35.340104 58.886719 42.144531 C 61.38657 37.721695 21.856752 14.692873 12.304688 14.015625 z"/>
 <path style="opacity:0.2" d="m 54.618253,15.569228 4.261686,7.273576 c 2.841123,4.849052 -45.657054,32.437004 -48.498174,27.58796 L 6.1200668,43.157193 C 3.2788718,38.308183 51.777119,10.720187 54.618242,15.569232"/>
 <path style="fill:#601ab8" d="m 54.618253,14.56923 4.261686,7.273576 C 61.721062,26.691858 13.222885,54.27981 10.381765,49.430766 L 6.1200668,42.157195 C 3.2788718,37.308185 51.777119,9.7201893 54.618242,14.569234"/>
 <path style="fill:#8b9cbe;opacity:0.1" d="M 52.695312 14.015625 C 43.143248 14.692873 3.6134298 37.721695 6.1132812 42.144531 C 8.5331227 35.340104 51.935806 10.988617 54.619141 15.568359 L 58.880859 22.84375 C 58.883084 22.847547 58.884557 22.851643 58.886719 22.855469 C 59.029016 22.455346 59.038648 22.113053 58.880859 21.84375 L 54.619141 14.568359 C 54.352785 14.113761 53.684312 13.945504 52.695312 14.015625 z"/>
 <path style="opacity:0.2" d="M 36.688023,5.0183579 28.188526,4.9999997 C 22.522193,4.9877637 22.645651,60.969391 28.311974,60.981628 l 8.499499,0.01837 C 42.477805,61.012318 42.35435,5.0306087 36.688025,5.0183689"/>
 <path style="fill:#2176f3" d="M 36.688023,4.0183599 28.188526,4.0000017 C 22.522193,3.9877657 22.645651,59.969393 28.311974,59.98163 L 36.811473,60 C 42.477805,60.01232 42.35435,4.0306107 36.688025,4.0183709"/>
 <path style="fill:#8b9cbe;opacity:0.2" d="M 28.189453 4 C 25.328332 3.9938216 23.946464 18.262346 24.005859 32.394531 C 24.014754 18.598941 25.396166 4.9939681 28.189453 5 L 36.6875 5.0175781 C 39.492707 5.0236376 40.935906 18.749435 40.994141 32.605469 C 41.00329 18.415953 39.560542 4.0237842 36.6875 4.0175781 L 28.189453 4 z"/>
</svg>
