<svg xmlns="http://www.w3.org/2000/svg" width="64" height="64" version="1">
 <path style="opacity:0.2" d="m 31.953516,19.000223 a 2.9897563,2.082078 0 0 0 -2.067189,0.609383 L 4.8749882,37.026014 a 2.9897563,2.082078 0 0 0 0,2.943542 l 25.0113388,17.42185 a 2.9897563,2.082078 0 0 0 4.224612,0 l 25.014073,-17.42185 a 2.9897563,2.082078 0 0 0 0,-2.943542 L 34.110939,19.609606 A 2.9897563,2.082078 0 0 0 31.953516,19.000223 Z M 32,24.938995 51.474227,38.497786 32,52.062017 12.525773,38.497786 Z"/>
 <path style="fill:#435779" d="m 31.953516,18.000223 a 2.9897563,2.082078 0 0 0 -2.067189,0.609383 L 4.8749882,36.026014 a 2.9897563,2.082078 0 0 0 0,2.943542 l 25.0113388,17.42185 a 2.9897563,2.082078 0 0 0 4.224612,0 l 25.014073,-17.42185 a 2.9897563,2.082078 0 0 0 0,-2.943542 L 34.110939,18.609606 A 2.9897563,2.082078 0 0 0 31.953516,18.000223 Z M 32,23.938995 51.474227,37.497786 32,51.062017 12.525773,37.497786 Z"/>
 <path style="opacity:0.2" d="m 31.953516,13.000223 a 2.9897563,2.082078 0 0 0 -2.067189,0.609383 L 4.8749882,31.026014 a 2.9897563,2.082078 0 0 0 0,2.943542 l 25.0113388,17.42185 a 2.9897563,2.082078 0 0 0 4.224612,0 l 25.014073,-17.42185 a 2.9897563,2.082078 0 0 0 0,-2.943542 L 34.110939,13.609606 A 2.9897563,2.082078 0 0 0 31.953516,13.000223 Z M 32,18.938995 51.474227,32.497786 32,46.062017 12.525773,32.497786 Z"/>
 <path style="fill:#ff9556" d="m 31.953516,12.000223 a 2.9897563,2.082078 0 0 0 -2.067189,0.609383 L 4.8749882,30.026014 a 2.9897563,2.082078 0 0 0 0,2.943542 l 25.0113388,17.42185 a 2.9897563,2.082078 0 0 0 4.224612,0 l 25.014073,-17.42185 a 2.9897563,2.082078 0 0 0 0,-2.943542 L 34.110939,12.609606 A 2.9897563,2.082078 0 0 0 31.953516,12.000223 Z M 32,17.938995 51.474227,31.497786 32,45.062017 12.525773,31.497786 Z"/>
 <path style="opacity:0.2" d="M 31.953516,6.9999441 A 2.9897563,2.0820778 0 0 0 29.886327,7.6093279 L 4.8749882,25.025738 a 2.9897563,2.0820778 0 0 0 0,2.943542 L 29.886327,45.391128 a 2.9897563,2.0820778 0 0 0 4.224612,0 L 59.125012,27.96928 a 2.9897563,2.0820778 0 0 0 0,-2.943542 L 34.110939,7.6093279 A 2.9897563,2.0820778 0 0 0 31.953516,6.9999441 Z M 32,12.938717 51.474227,26.497509 32,40.06174 12.525773,26.497509 Z"/>
 <path style="fill:#6187ab" d="M 31.953516,5.9999444 A 2.9897563,2.0820778 0 0 0 29.886327,6.6093282 L 4.8749882,24.025738 a 2.9897563,2.0820778 0 0 0 0,2.943542 L 29.886327,44.391128 a 2.9897563,2.0820778 0 0 0 4.224612,0 L 59.125012,26.96928 a 2.9897563,2.0820778 0 0 0 0,-2.943542 L 34.110939,6.6093282 A 2.9897563,2.0820778 0 0 0 31.953516,5.9999444 Z M 32,11.938717 51.474227,25.497509 32,39.06174 12.525773,25.497509 Z"/>
 <path style="opacity:0.2;fill:#8b9cbe" d="M 31.953125 6 A 2.9897563 2.0820778 0 0 0 29.886719 6.609375 L 4.875 24.025391 A 2.9897563 2.0820778 0 0 0 4.0917969 26 A 2.9897563 2.0820778 0 0 1 4.875 25.025391 L 29.886719 7.609375 A 2.9897563 2.0820778 0 0 1 31.953125 7 A 2.9897563 2.0820778 0 0 1 34.111328 7.609375 L 59.125 25.025391 A 2.9897563 2.0820778 0 0 1 59.908203 25.996094 A 2.9897563 2.0820778 0 0 0 59.125 24.025391 L 34.111328 6.609375 A 2.9897563 2.0820778 0 0 0 31.953125 6 z M 13.244141 25.998047 L 12.525391 26.498047 L 32 40.0625 L 51.474609 26.498047 L 50.755859 25.998047 L 32 39.0625 L 13.244141 25.998047 z"/>
</svg>
