<svg xmlns="http://www.w3.org/2000/svg" width="64" height="64" version="1">
 <path style="opacity:0.2" d="m 28.738161,4.9030651 c -4.456036,0.084 -8.199333,0.027947 -12.648724,0.265631 L 12.073721,9.672704 11.937,55.298736 11.95654,55.294736 11.937,61.502 24.034929,58.001921 c 0.442444,-1.69394 0.422758,-5.416375 0.296883,-8.730665 0.09786,-1.760122 0.081,-3.918163 0.0078,-5.972791 h 5.41809 L 39.19151,56.451106 52.058988,53.908078 V 47.70872 h 0.004 l -8.24628,-10.90259 c 2.685627,-2.540276 5.823596,-5.317494 5.757942,-8.453317 0.478131,-3.302567 0.67924,-6.024706 0.222663,-8.261905 C 50.511109,12.648424 48.558655,8.4938466 39.484498,6.3288787 35.968135,5.4818776 32.366951,4.8468364 28.738161,4.9030651 Z m 1.781291,16.0042679 c 2.49574,-0.0162 4.99507,0.0012 5.367307,0 0.599411,0.517973 1.030739,1.128933 1.339874,1.785196 -0.87992,1.755642 -2.4772,3.166749 -4.6837,3.570395 -2.024335,0.470342 -5.815065,1.879062 -7.699392,0.328131 0,0 -0.349916,-2.061001 -0.597669,-4.371193 0.221685,-0.601297 0.518957,-1.021745 0.929709,-1.125025 0.35672,-0.123063 2.848128,-0.171404 5.343871,-0.187504 z"/>
 <path style="fill:#54545a" d="m 28.737131,10.102211 c -4.456036,0.084 -8.200199,0.03028 -12.649589,0.267971 l -4.015216,4.503558 -0.133987,45.626215 12.095622,-3.497299 c 0.86552,-3.313723 -0.04102,-14.702875 -0.04102,-14.702875 h 5.764118 l 9.433684,13.149736 12.869664,-2.54026 v -6.199614 l -10.85988,-8.164194 c 2.532579,-3.25329 8.462735,-6.893118 8.372735,-11.191901 1.271937,-8.785611 0.60762,-13.465746 -9.288046,-15.826714 -3.516363,-0.847001 -7.919299,-1.480851 -11.548089,-1.424623 z m 7.151172,9.802826 c 3.942685,3.407015 1.324006,10.557649 -4.146066,11.558316 -2.024336,0.470342 -5.815747,1.879058 -7.700074,0.328127 0,0 -1.286775,-11.089029 1.134216,-11.697768 0.71344,-0.246136 9.967451,-0.186265 10.711924,-0.188665 z"/>
 <path style="fill:#9696a0" d="m 28.737131,3.9021449 c -4.456036,0.084001 -8.200199,0.030288 -12.649589,0.2679712 L 12.072326,8.6736745 11.938339,54.299889 24.033961,50.80259 c 0.86552,-3.313723 -0.04102,-14.702875 -0.04102,-14.702875 h 5.764118 L 39.190742,49.249448 52.061566,46.709191 41.200527,32.345382 C 43.733106,29.092091 49.663262,25.452265 49.573262,21.15348 50.845205,12.36787 49.381726,7.687736 39.48606,5.3267677 35.969697,4.4797667 32.365921,3.8459162 28.737131,3.9021449 Z m 7.151172,9.8028261 c 3.942685,3.407014 2.123166,10.557649 -3.346906,11.558313 -2.024336,0.470343 -5.814291,1.879061 -7.698618,0.32813 0,0 -2.087391,-11.08903 0.3336,-11.697769 0.71344,-0.246136 9.967451,-0.186258 10.711924,-0.188674 z"/>
 <path style="opacity:0.15" d="m 24.699788,3.9509968 c -0.33967,0.00326 -0.699374,0.00744 -1.036337,0.01094 0.02372,0.1388112 0.03102,0.2867281 0.02188,0.4484418 -0.932293,0.569874 -2.253941,0.5614076 -3.281282,0.2761744 -0.0632,-0.2465128 -0.0704,-0.4644993 -0.05196,-0.6671937 -0.452183,0.00994 -0.907617,0.01876 -1.367202,0.032813 -0.539625,0.9978757 -1.388266,2.0999898 -1.684381,2.6797059 0.35683,2.661564 0.05047,5.3599438 -0.259768,8.0227318 -0.268437,1.127705 -2.662872,-1.038017 -3.152764,0.568756 -0.378134,1.367381 -1.264424,0.437189 -1.834784,-0.377347 l -0.0083,2.87112 c 1.338956,0.02773 2.946942,0.600907 4.016835,-0.426565 2.739004,-1.270137 0.210637,1.952458 -1.194933,1.780094 -0.02356,1.178565 1.417927,2.641266 1.266028,4.290276 1.225657,1.053996 -0.147297,3.561868 1.815642,3.417999 2.107884,2.21212 4.364879,-0.513036 4.74909,-2.597679 0.544846,0.127843 1.269384,0.198065 1.985177,0.3418 -0.25025,-1.473117 -0.771816,-4.992965 -0.623444,-7.768434 -0.812715,-0.79915 0.184272,-5.384412 -1.192199,-3.609409 -0.08376,2.622292 -3.935689,1.829666 -3.792051,-0.437504 -0.84384,-2.224641 1.38701,-4.0152252 1.315247,-6.2781844 1.280559,-1.0588217 3.081047,-0.5858364 4.626606,-0.6918034 z M 19.168095,5.616247 c 0.127331,-0.018 0.260315,0.00908 0.391019,0.1011723 -0.03024,0.3224857 -0.252446,0.5847538 -0.448441,0.8230558 -1.502382,1.5810721 -0.833883,-0.798284 0.05742,-0.9242277 z m 27.888154,3.1664362 v 0.7410225 c 0.326926,0.3015644 0.588778,0.9717193 0.505866,1.5640773 0.211502,1.615078 -0.114323,1.776112 -0.505866,1.389076 v 3.133623 c 0.454279,0.09726 0.813949,0.485816 0.823057,1.282434 0.06334,3.850946 -2.270985,6.683016 -4.732533,9.247744 -1.035353,0.935277 -2.830742,2.017944 -4.08591,2.655104 -0.004,-1.808007 2.466887,-3.394134 3.000351,-5.151612 1.083521,-2.01568 -1.211363,-1.166893 -2.135566,-1.741814 0.08202,-2.384744 -1.929207,-0.122622 -2.630493,-0.344533 -0.461185,0.970872 -1.135458,1.843825 -2.015256,2.507444 -0.53372,0.841779 -1.353448,1.729827 -1.856656,2.091818 -0.928825,0.893584 -2.580136,1.941039 -3.7195,2.570336 -0.481437,-0.765974 -0.382935,-1.643387 -1.069714,-2.542992 -0.484689,0.07304 -0.958964,0.101803 -1.421888,0.09844 0.08994,0.243804 0.143543,0.521746 0.153123,0.842197 1.604561,0.58473 1.745344,2.145277 2.849811,3.379719 1.900557,-2.055807 4.722376,-4.023125 6.306242,-6.343809 0.461085,-0.860736 0.920821,-1.74697 1.443763,-0.412896 2.311598,1.8304 -0.354418,2.891558 -1.088291,4.727781 -0.841579,2.413517 -4.064164,3.672015 -6.538668,3.366046 -2.366429,0.311345 -5.498448,-1.039093 -7.251629,1.077354 -1.079701,1.826472 -3.096704,1.074053 -4.662156,0.459381 -2.192828,-1.192557 -4.469077,-2.796141 -5.950055,-4.733257 -0.397939,-2.672971 -0.404525,-5.38104 -0.437504,-8.085623 L 12.003957,32.1454 c 0.134303,2.124628 0.259724,4.24985 0.388285,6.37389 0.129571,2.560836 0.396059,-0.0598 0.391019,-1.12931 0.305247,-1.542134 -0.777869,-6.062931 1.9551,-4.044175 1.917498,1.157226 3.518938,2.862001 5.82701,3.207453 l 3.461752,1.533998 c 0.02152,-1.127553 -0.0634,-2.262457 0.101182,-3.382454 0.376291,-2.784383 4.125653,-2.312218 5.988339,-1.369935 1.666618,2.587292 4.2069,4.534118 5.477004,7.388351 1.253773,1.781536 1.997977,4.337508 3.852773,5.452397 2.611173,-0.06654 5.242109,-0.734587 6.204355,-3.349642 1.530566,-2.472826 2.58678,-0.441904 3.948475,0.626178 l -4.919187,-6.502406 c 0.276658,0.422241 0.553864,0.843821 0.803914,1.282435 -0.343692,1.541958 -0.384175,3.672945 -1.709003,4.982078 -1.248222,0.9475 -2.925264,1.784 -4.528166,1.59689 -0.820531,-2.028226 -2.475548,-3.700595 -3.199251,-5.794197 0.858536,-2.591172 4.123566,0.835069 6.070372,0.546881 0.933089,-1.061988 -2.247019,-2.342103 -3.08714,-3.06253 -1.063284,-1.786208 -5.371519,0.804143 -4.440666,-1.709 1.160714,-2.13475 4.080056,-3.284008 6.403966,-3.032449 0.102783,0.152684 0.220237,0.297121 0.325394,0.44844 0.232563,-0.28923 0.496509,-0.582193 0.773835,-0.877741 -0.05636,-0.06536 -0.111902,-0.161744 -0.169524,-0.199605 -0.247307,-0.639792 -1.542597,-1.350795 -1.050009,-1.938692 3.09958,-2.992681 6.202604,-6.078879 8.236014,-9.92314 0.176684,1.391865 0.177864,2.804809 -0.03828,4.186369 0.330695,-0.746109 0.516907,-1.513569 0.500393,-2.302366 0.201125,-1.389213 0.324597,-2.66453 0.36641,-3.855507 -0.03572,-0.90008 -0.06278,-1.798212 -0.09022,-2.696119 -0.2725,-2.378805 -1.113693,-4.292608 -2.791839,-5.8188108 z M 18.18918,13.548744 c 0.05086,-0.03081 0.128059,-0.03105 0.237893,0.01372 0.317029,1.90379 -0.593947,0.20204 -0.237893,-0.01372 z m 1.837518,3.937537 c 2.71944,0.229026 1.040286,4.289637 0.806649,6.155137 l -0.139464,0.489457 -0.144923,0.462114 c -0.362188,3.052409 -2.809187,0.637579 -3.02424,-1.110167 -0.927808,-2.170293 -0.445574,-5.912512 2.501978,-5.996541 z m 17.902837,1.78283 c -0.02858,0.24345 -0.05158,0.487005 -0.103902,0.72735 0.135983,-0.236044 0.246813,-0.482881 0.371878,-0.72735 z m 13.190036,26.192826 c 0.06078,0.466362 0.09522,0.936663 0.114843,1.41095 l 0.825788,-0.164064 z"/>
 <path style="opacity:0.2;fill:#8b9cbe" d="M 28.736328 3.9023438 C 24.280292 3.9863447 20.537281 3.9322387 16.087891 4.1699219 L 12.072266 8.6738281 L 11.9375 54.300781 L 11.941406 54.298828 L 12.072266 9.6738281 L 16.087891 5.1699219 C 20.537281 4.9322388 24.280292 4.9863447 28.736328 4.9023438 C 32.365118 4.846115 35.969965 5.4791709 39.486328 6.3261719 C 47.249382 8.1783287 49.808361 11.473665 49.941406 17.044922 C 50.091695 10.862747 47.702786 7.2865044 39.486328 5.3261719 C 35.969965 4.4791709 32.365118 3.846115 28.736328 3.9023438 z M 49.865234 19.498047 C 49.847709 19.72086 49.835164 19.937 49.8125 20.166016 C 49.978536 21.009822 50.029433 21.946071 50.03125 22.931641 C 50.084881 21.679722 50.037833 20.539273 49.865234 19.498047 z M 24.332031 22.019531 C 24.298235 22.097718 24.261137 22.170153 24.230469 22.255859 C 24.478246 24.589997 24.84375 26.591797 24.84375 26.591797 C 26.728077 28.142728 30.51668 26.734015 32.541016 26.263672 C 34.749001 25.859756 36.348991 24.446749 37.228516 22.689453 C 37.146092 22.514437 37.053775 22.343402 36.953125 22.175781 C 36.034227 23.701842 34.53955 24.898072 32.541016 25.263672 C 30.51668 25.734015 26.728077 27.142728 24.84375 25.591797 C 24.84375 25.591797 24.567897 23.964779 24.332031 22.019531 z M 44.259766 36.390625 C 44.113221 36.528732 43.964825 36.673859 43.820312 36.810547 L 52.060547 47.707031 L 52.060547 46.708984 L 52.0625 46.708984 L 44.259766 36.390625 z M 24.339844 43.298828 C 24.369988 44.144755 24.383621 45.002087 24.390625 45.847656 C 24.395419 45.01082 24.381712 44.164464 24.359375 43.298828 L 24.339844 43.298828 z M 24.34375 48.748047 C 24.336668 48.915068 24.340988 49.112649 24.332031 49.273438 C 24.362258 50.079643 24.384102 50.913315 24.396484 51.736328 C 24.394121 50.746854 24.377512 49.745801 24.34375 48.748047 z M 11.953125 55.294922 L 11.9375 60.5 L 11.939453 60.5 L 11.955078 55.294922 L 11.953125 55.294922 z"/>
</svg>
