<svg xmlns="http://www.w3.org/2000/svg" width="64" height="64" version="1">
 <rect style="opacity:0.2" width="56" height="56" x="4" y="5" rx="2.8" ry="2.8"/>
 <rect style="fill:#4f4f4f" width="56" height="56" x="4" y="4" rx="2.8" ry="2.8"/>
 <path style="opacity:0.2" d="M 46,11 C 29.445677,11 19.616596,25.16064 20,37.746094 L 20,54 l 3,0 12,0 0,-3 0,-13.300781 c 0,-3.008402 0.98707,-5.967676 2.826172,-8.125 C 39.665273,27.416894 42.31137,26 46,26 L 46,23.699219 46,23 l 0,-3 0,-3 0,-3 0,-1.5 0,-1.5 z m -3,3.183594 0,3.076172 C 33.683246,18.681513 26,26.355225 26,37.699219 L 26,51 l -3,0 0,-13.322266 0,-0.02344 C 22.689257,27.453965 30.020916,15.760544 43,14.183594 Z m 0,6.091797 0,3.02539 c -3.103942,0.625135 -5.644773,2.200336 -7.457031,4.326172 C 33.176183,30.403268 32,34.042167 32,37.699219 L 32,51 29,51 29,37.699219 C 29,27.86259 35.212479,21.603973 43,20.275391 Z"/>
 <path style="fill:#ffba40" d="M 46,10 C 29.445677,10 19.616596,24.16064 20,36.746094 L 20,53 c 5,0 10,0 15,0 l 0,-3 0,-13.300781 c 0,-3.008402 0.98707,-5.967676 2.826172,-8.125 C 39.665273,26.416894 42.31137,25 46,25 Z m -3,3.183594 0,3.076172 C 33.683246,17.681513 26,25.355225 26,36.699219 L 26,50 l -3,0 0,-13.322266 0,-0.02344 c -0.310743,-10.200329 7.020916,-21.89375 20,-23.4707 z m 0,6.091797 0,3.02539 c -3.103942,0.625135 -5.644773,2.200336 -7.457031,4.326172 C 33.176183,29.403268 32,33.042167 32,36.699219 L 32,50 29,50 29,36.699219 C 29,26.86259 35.212479,20.603973 43,19.275391 Z"/>
 <path style="opacity:0.1;fill:#8b9cbe" d="M 6.8007812 4 C 5.2495812 4 4 5.2495812 4 6.8007812 L 4 7.8007812 C 4 6.2495813 5.2495812 5 6.8007812 5 L 57.199219 5 C 58.750419 5 60 6.2495812 60 7.8007812 L 60 6.8007812 C 60 5.2495813 58.750419 4 57.199219 4 L 6.8007812 4 z"/>
</svg>
