<svg xmlns="http://www.w3.org/2000/svg" width="64" height="64" version="1.1">
 <path style="opacity:0.2" d="m 2,5 c 2.3610586,3.3054818 4.0625832,9.660106 4.9882812,16.976562 A 30,20 0 0 0 2,33 30,20 0 0 0 7.2695312,44.28125 C 6.4918244,51.489254 4.8001822,57.73312 2,61 10.138107,61 17.442661,57.508228 22.558594,51.964844 A 30,20 0 0 0 32,53 30,20 0 0 0 62,33 30,20 0 0 0 32,13 30,20 0 0 0 22.566406,14.042969 C 17.450136,8.4948554 10.142079,5 2,5 Z"/>
 <path style="fill:#c1272d" d="M 30,32 C 30,47.463972 17.463973,60 2,60 10.4,50.2 9,13.799999 2,4 17.463973,4 30,16.536026 30,32 Z"/>
 <ellipse style="fill:#c1272d" cx="32" cy="32" rx="30" ry="20"/>
 <path style="opacity:0.2" d="m 32,16.999124 c -7.563684,0 -14.348494,2.0891 -18.996094,5.1875 C 8.3577592,25.284056 6.001473,29.094964 6,32.995218 c 0.0099,2.817942 1.252715,5.69631 4.050781,8.414062 a 4.0004,4.0004 0 0 1 1.191407,3.300782 C 10.80992,48.714776 10.163199,52.454136 9.1015624,55.796 13.157973,54.524416 16.791153,52.315188 19.617188,49.25303 a 4.0004,4.0004 0 0 1 3.8125,-1.191406 c 2.74881,0.613708 5.653504,0.9319 8.578124,0.9375 7.56038,-0.0015 14.342366,-2.090222 18.988282,-5.1875 C 55.643694,40.713224 58,36.900652 58,32.999124 c 0,-3.901528 -2.356306,-7.7141 -7.003906,-10.8125 -4.6476,-3.0984 -11.43241,-5.1875 -18.996094,-5.1875 z"/>
 <path style="fill:#8b9cbe" d="M 32,16 C 24.436316,16 17.651506,18.0891 13.003906,21.1875 8.3577592,24.284932 6.001473,28.09584 6,31.996094 c 0.0099,2.817942 1.252715,5.69631 4.050781,8.414062 a 4.0004,4.0004 0 0 1 1.191407,3.300782 c -0.432268,4.004714 -1.078989,7.744074 -2.1406256,11.085938 4.0564106,-1.271584 7.6895906,-3.480812 10.5156256,-6.54297 a 4.0004,4.0004 0 0 1 3.8125,-1.191406 c 2.74881,0.613708 5.653504,0.9319 8.578124,0.9375 7.56038,-0.0015 14.342366,-2.090222 18.988282,-5.1875 C 55.643694,39.7141 58,35.901528 58,32 58,28.098472 55.643694,24.2859 50.996094,21.1875 46.348494,18.0891 39.563684,16 32,16 Z"/>
 <path style="opacity:0.2" d="m 20,29 a 4,4 0 0 0 -4,4 4,4 0 0 0 4,4 4,4 0 0 0 4,-4 4,4 0 0 0 -4,-4 z m 12,0 a 4,4 0 0 0 -4,4 4,4 0 0 0 4,4 4,4 0 0 0 4,-4 4,4 0 0 0 -4,-4 z m 12,0 a 4,4 0 0 0 -4,4 4,4 0 0 0 4,4 4,4 0 0 0 4,-4 4,4 0 0 0 -4,-4 z"/>
 <path style="fill:#c1272d" d="m 20,28 a 4,4 0 0 0 -4,4 4,4 0 0 0 4,4 4,4 0 0 0 4,-4 4,4 0 0 0 -4,-4 z m 12,0 a 4,4 0 0 0 -4,4 4,4 0 0 0 4,4 4,4 0 0 0 4,-4 4,4 0 0 0 -4,-4 z m 12,0 a 4,4 0 0 0 -4,4 4,4 0 0 0 4,4 4,4 0 0 0 4,-4 4,4 0 0 0 -4,-4 z"/>
 <path style="opacity:0.2;fill:#8b9cbe" d="M 2 4 C 2.2177135 4.3047988 2.4224712 4.6625477 2.6289062 5.0175781 C 10.522056 5.1923688 17.609661 8.6259642 22.59375 14.035156 A 30 20 0 0 1 32 13 A 30 20 0 0 1 61.96875 32.589844 A 30 20 0 0 0 62 32 A 30 20 0 0 0 32 12 A 30 20 0 0 0 22.59375 13.035156 C 17.477133 7.4821322 10.146203 4 2 4 z M 6.8671875 21.115234 A 30 20 0 0 0 2 32 A 30 20 0 0 0 2.0351562 32.455078 A 30 20 0 0 1 6.9902344 21.978516 C 6.9531714 21.685556 6.9067364 21.404979 6.8671875 21.115234 z M 7.171875 44.179688 C 6.3522204 51.006171 4.6835974 56.869136 2 60 C 2.2573826 60 2.5118661 59.985422 2.7675781 59.978516 C 5.1128969 56.528888 6.5795463 50.818282 7.2832031 44.298828 A 30 20 0 0 1 7.171875 44.179688 z"/>
</svg>
