<svg xmlns="http://www.w3.org/2000/svg" width="64" height="64" version="1.1">
 <path style="opacity:0.2" d="M 32.5,5.0000006 C 16.774688,5.0000006 4,17.774683 4,33.5 4,49.225317 16.774688,62.000004 32.5,62 48.225312,62 61.000014,49.225317 61,33.5 61,17.774683 48.225312,5.0000006 32.5,5.0000006 Z"/>
 <path style="fill:#4f4f4f" d="M 32.5,4.0000006 C 16.774688,4.0000006 4,16.774683 4,32.5 4,48.225317 16.774688,61.000004 32.5,61 48.225312,61 61.000014,48.225317 61,32.5 61,16.774683 48.225312,4.0000006 32.5,4.0000006 Z"/>
 <path style="fill:#8b9cbe;opacity:0.1" d="M 32.5 4 C 16.774688 4 4 16.774683 4 32.5 C 4 32.667729 4.008824 32.832955 4.0117188 33 C 4.2802199 17.50579 16.942417 5 32.5 5 C 48.057583 5 60.71978 17.50579 60.988281 33 C 60.991176 32.832955 61 32.667729 61 32.5 C 61 16.774683 48.225312 4 32.5 4 z"/>
 <path style="opacity:0.2" d="M 32.500001,11 C 20.085277,11 10,21.085275 10,33.499999 10,45.914723 20.085277,56.000003 32.500001,56 44.914724,56 55.000009,45.914723 55,33.499999 55,21.085275 44.914724,11 32.500001,11 Z"/>
 <path style="fill:#6e6eee" d="M 32.500001,9.9999999 C 20.085277,9.9999999 10,20.085275 10,32.499999 10,44.914723 20.085277,55.000003 32.500001,55 44.914724,55 55.000009,44.914723 55,32.499999 55,20.085275 44.914724,9.9999999 32.500001,9.9999999 Z"/>
 <path style="fill:#994a8a" d="M 32 10.011719 C 19.816536 10.2792 10 20.253034 10 32.5 C 10 32.667758 10.008055 32.833111 10.011719 33 L 32 33 L 32 10.011719 z"/>
 <path style="fill:#8b9cbe;opacity:0.1" d="M 32.5 10 C 20.085276 10 10 20.085276 10 32.5 C 10 32.667758 10.008055 32.833111 10.011719 33 C 10.279201 20.816536 20.253034 11 32.5 11 C 44.746965 11 54.720799 20.816536 54.988281 33 C 54.991945 32.833111 55 32.667758 55 32.5 C 55 20.085276 44.914723 10 32.5 10 z"/>
 <path style="fill:none;stroke:#b2bfd9;stroke-width:5;stroke-linecap:round;stroke-linejoin:round" d="m 32.5,4.5 v 28"/>
 <path style="opacity:0.1" d="M 32.5,28 C 29.46529,28 27,30.46529 27,33.5 27,36.534709 29.46529,39 32.5,39 35.534709,39 38,36.534709 38,33.5 38,30.46529 35.534709,28 32.5,28 Z"/>
 <path style="fill:#4f4f4f" d="M 32.5,27 C 29.46529,27 27,29.46529 27,32.5 27,35.534709 29.46529,38 32.5,38 35.534709,38 38,35.534709 38,32.5 38,29.46529 35.534709,27 32.5,27 Z"/>
</svg>
