<svg xmlns="http://www.w3.org/2000/svg" width="64" height="64" version="1.1">
 <circle style="fill:#63aaed" cx="32" cy="32" r="28"/>
 <g style="opacity:0.2" transform="matrix(1.3998811,0,0,1.3999489,-1.6000853,-0.5981786)">
  <path d="m 20.429322,26.142445 3.072978,0 c 1.4408,0.51458 4.5969,4.529755 6.3122,7.857355 l 2.7101,0 c 0.68611,0 1.2007,-0.10292 1.4408,-0.24014 0.51458,-0.30875 0.751895,-0.89194 0.751895,-1.4751 0,-0.54888 -0.203005,-1.240895 -0.614675,-1.549595 -0.34305,-0.24014 -0.72041,-0.30875 -1.578,-0.30875 l -0.44597,0 c -1.4408,-2.2985 -2.7101,-3.733405 -4.3225,-5.139905 2.5043,-1.3722 3.389413,-3.0189 3.389413,-5.1801 0.001,-3.603 -2.770413,-6.107 -7.230413,-6.107 l -7.6501,0 c -0.89194,0 -1.1321,0.03431 -1.4408,0.24014 -0.514,0.309 -0.823,0.892 -0.823,1.475 0,0.54888 0.27444,1.206241 0.72041,1.549241 0.30875,0.24014 0.69226,0.411265 1.5437,0.30875 l 0.593276,0 0,12.853449 -0.593276,0 c -0.82333,0 -1.1321,0.03431 -1.4408,0.24014 -0.514,0.309 -0.823,1.03581 -0.823,1.61881 0,0.51458 0.27444,1.0635 0.72041,1.3722 0.275,0.24 0.755,0.343 1.544,0.343 l 5.1458,0 c 0.68611,0 0.843471,-0.10292 1.083571,-0.24014 0.51458,-0.30875 0.82333,-0.89194 0.82333,-1.4751 0,-0.54888 -0.27444,-1.20631 -0.68611,-1.54931 -0.34305,-0.24014 -0.294571,-0.30875 -1.220771,-0.30875 l -0.980378,0 0,-4.283945 z m 0,-3.571434 0,-5.000182 3.621878,0 c 2.1955,0 3.522631,0.882129 3.522631,2.357229 0,1.7153 -1.428692,2.642953 -4.757631,2.642953 z"/>
 </g>
 <g style="fill:#8b9cbe" transform="matrix(1.3998811,0,0,1.3999489,-1.6000853,-1.5982627)">
  <path d="m 20.429322,26.142445 3.072978,0 c 1.4408,0.51458 4.5969,4.529755 6.3122,7.857355 l 2.7101,0 c 0.68611,0 1.2007,-0.10292 1.4408,-0.24014 0.51458,-0.30875 0.751895,-0.89194 0.751895,-1.4751 0,-0.54888 -0.203005,-1.240895 -0.614675,-1.549595 -0.34305,-0.24014 -0.72041,-0.30875 -1.578,-0.30875 l -0.44597,0 c -1.4408,-2.2985 -2.7101,-3.733405 -4.3225,-5.139905 2.5043,-1.3722 3.389413,-3.0189 3.389413,-5.1801 0.001,-3.603 -2.770413,-6.107 -7.230413,-6.107 l -7.6501,0 c -0.89194,0 -1.1321,0.03431 -1.4408,0.24014 -0.514,0.309 -0.823,0.892 -0.823,1.475 0,0.54888 0.27444,1.206241 0.72041,1.549241 0.30875,0.24014 0.69226,0.411265 1.5437,0.30875 l 0.593276,0 0,12.853449 -0.593276,0 c -0.82333,0 -1.1321,0.03431 -1.4408,0.24014 -0.514,0.309 -0.823,1.03581 -0.823,1.61881 0,0.51458 0.27444,1.0635 0.72041,1.3722 0.275,0.24 0.755,0.343 1.544,0.343 l 5.1458,0 c 0.68611,0 0.843471,-0.10292 1.083571,-0.24014 0.51458,-0.30875 0.82333,-0.89194 0.82333,-1.4751 0,-0.54888 -0.27444,-1.20631 -0.68611,-1.54931 -0.34305,-0.24014 -0.294571,-0.30875 -1.220771,-0.30875 l -0.980378,0 0,-4.283945 z m 0,-3.571434 0,-5.000182 3.621878,0 c 2.1955,0 3.522631,0.882129 3.522631,2.357229 0,1.7153 -1.428692,2.642953 -4.757631,2.642953 z"/>
 </g>
 <path style="opacity:0.2;fill:#8b9cbe" d="M 32,4 A 28.0005,28.007677 0 0 0 4,32.007677 28.0005,28.007677 0 0 0 4.0175781,32.5 28.0005,28.007677 0 0 1 32,5.0002742 28.0005,28.007677 0 0 1 59.974609,32.5 28.0005,28.007677 0 0 0 60,32.007677 28.0005,28.007677 0 0 0 32,4 Z"/>
 <path style="opacity:0.2" d="M 59.982422,32.507812 A 28,28 0 0 1 32,60 28,28 0 0 1 4.0253906,32.519531 28,28 0 0 0 4,33 28,28 0 0 0 32,61 28,28 0 0 0 60,33 28,28 0 0 0 59.982422,32.507812 Z"/>
</svg>
