<svg xmlns="http://www.w3.org/2000/svg" width="64" height="64" version="1">
 <path style="opacity:0.2" d="m 10,55 0,2 c 0,2.216 1.784,4 4,4 l 36,0 c 2.216,0 4,-1.784 4,-4 l 0,-2 c 0,2.216 -1.784,4 -4,4 l -36,0 c -2.216,0 -4,-1.784 -4,-4 z"/>
 <rect style="fill:#b2bfd9" width="56" height="44" x="-60" y="-54" rx="4" ry="4" transform="matrix(0,-1,-1,0,0,0)"/>
 <path style="opacity:0.5" d="m 32,12 c -7.732,0 -14,6.268 -14,14 l 0,14 14,0 C 39.732,40 46,33.732 46,26 46,18.268 39.732,12 32,12 Z m 0,6 a 8,8 0 0 1 8,8 8,8 0 0 1 -8,8 8,8 0 0 1 -8,-8 8,8 0 0 1 8,-8 z"/>
 <path style="opacity:0.1;fill:#8b9cbe" d="M 14 4 C 11.784 4 10 5.784 10 8 L 10 9 C 10 6.784 11.784 5 14 5 L 50 5 C 52.216 5 54 6.784 54 9 L 54 8 C 54 5.784 52.216 4 50 4 L 14 4 z"/>
 <path style="opacity:0.2" d="M 63.958,45.848 A 16,16 0 0 1 48,61 16,16 0 0 1 32.042,46.152 16,16 0 0 0 32,47 16,16 0 0 0 48,63 16,16 0 0 0 64,47 16,16 0 0 0 63.95704,45.84766 Z"/>
 <circle style="fill:#3056a1" cx="48" cy="46" r="16"/>
 <path style="fill:#8b9cbe" d="m 39.99908,46.0014 c 0,4.4184 3.5818,8 8,8 4.3734,0 7.9204,-3.5108 7.9922,-7.8672 a 1.33334,1.33334 0 0 0 0.008,-0.1328 1.33334,1.33334 0 0 0 -1.33334,-1.33334 1.33334,1.33334 0 0 0 -1.33334,1.33334 c 0,2.9454 -2.3878,5.3334 -5.3334,5.3334 -2.9454,0 -5.3334,-2.3878 -5.3334,-5.3334 0,-2.9454 2.3878,-5.3334 5.3334,-5.3334 l 0,2.6666 5.3334,-4 L 48,35.3334 48,38 c -4.4184,0 -8,3.5818 -8,8 z"/>
</svg>
