<svg xmlns="http://www.w3.org/2000/svg" width="64" height="64" version="1">
 <rect style="opacity:0.2" width="56" height="44" x="-61" y="-54" rx="2.8" ry="2.75" transform="matrix(0,-1,-1,0,0,0)"/>
 <rect style="fill:#ff4848" width="56" height="44" x="-60" y="-54" rx="2.8" ry="2.75" transform="matrix(0,-1,-1,0,0,0)"/>
 <path style="opacity:0.2" d="m 19.461314,5.00049 c 0.115599,0.4159962 0.300797,1.1289897 0.300797,1.1289897 l 0.344197,1.0349906 -0.012,0.004 0.024,0.070199 c 0.086,0.2735975 0.157998,0.550195 0.213998,0.8321927 0.056,0.281797 0.1,0.573595 0.125999,0.859192 0.024,0.285798 0.036,0.569995 0.03,0.855592 -0.004,0.285398 -0.024,0.566595 -0.058,0.847593 -0.034,0.280997 -0.082,0.556195 -0.143999,0.828192 -0.064,0.271998 -0.141998,0.545595 -0.235998,0.804593 -0.0918,0.258798 -0.194398,0.508595 -0.315597,0.749993 -0.121399,0.241398 -0.260397,0.467796 -0.410196,0.687594 l 0.0274,-0.0078 c -0.158999,0.222998 -0.304597,0.459596 -0.437596,0.699194 -0.132999,0.239397 -0.249998,0.484795 -0.355397,0.738193 -0.105399,0.253397 -0.200798,0.508795 -0.277397,0.773393 -0.0764,0.264797 -0.133599,0.535195 -0.179599,0.808592 -0.0462,0.273398 -0.0798,0.556595 -0.0938,0.835993 -0.0144,0.279397 -0.0114,0.556795 0.0078,0.839792 0.0192,0.282998 0.0592,0.571595 0.113399,0.855392 0.054,0.283998 0.120599,0.561995 0.210798,0.843993 0.0748,0.233998 0.162399,0.463995 0.257798,0.683993 0.0956,0.219998 0.201598,0.429997 0.316397,0.635995 0.229798,0.411996 0.494795,0.791992 0.792993,1.139989 0.298997,0.349997 0.632994,0.665994 0.988991,0.945992 0.353996,0.279997 0.727993,0.523995 1.127989,0.729993 0.399997,0.205998 0.825993,0.369997 1.257989,0.495996 0.431996,0.125998 0.875992,0.211998 1.327988,0.249997 0.453996,0.04 0.905992,0.038 1.367987,-0.014 0.229998,-0.028 0.463996,-0.068 0.693994,-0.117999 0.231998,-0.052 0.465996,-0.119998 0.695994,-0.195998 0.229998,-0.076 0.455996,-0.151998 0.671994,-0.249997 0.215998,-0.096 0.421996,-0.209999 0.623994,-0.327998 0.403996,-0.233997 0.777993,-0.505995 1.12199,-0.807992 0.343997,-0.303997 0.653994,-0.635994 0.929991,-0.995991 0.275998,-0.359997 0.515996,-0.745993 0.717994,-1.15199 0.203998,-0.405996 0.363996,-0.831992 0.487995,-1.269988 0.123999,-0.439996 0.215998,-0.898992 0.253998,-1.359588 0.04,-0.460395 0.034,-0.920791 -0.018,-1.390587 -0.028,-0.234798 -0.064,-0.472196 -0.113999,-0.706994 -0.05,-0.234997 -0.115999,-0.473595 -0.191998,-0.706993 -0.09,-0.282198 -0.199998,-0.550795 -0.319997,-0.812593 C 31.212206,14.602003 31.078207,14.353805 30.930208,14.113607 30.78221,13.873609 30.622211,13.639611 30.450213,13.422213 30.276214,13.205015 30.090216,13.002217 29.894218,12.809019 29.69822,12.615821 29.492222,12.433822 29.278223,12.266024 29.062225,12.098225 28.834228,11.942627 28.60223,11.801228 28.370232,11.659829 28.130234,11.532031 27.882236,11.418432 27.636238,11.304633 27.380241,11.206234 27.122243,11.121434 l 0.042,-0.0156 C 26.916246,11.018235 26.672248,10.919436 26.43425,10.797237 26.194253,10.675238 25.960255,10.53244 25.734257,10.379441 25.508259,10.226042 25.288261,10.056644 25.078263,9.875446 24.868265,9.694247 24.664266,9.499449 24.472268,9.293451 24.28027,9.087253 24.100272,8.872655 23.930273,8.645057 23.760275,8.417259 23.602276,8.176261 23.458277,7.9300633 23.312279,7.6838656 23.17228,7.4298679 23.054281,7.1684703 22.964282,6.9692721 22.890283,6.7658739 22.816283,6.5590758 l 0.012,-0.004 -0.441996,-1.327988 c 0,0 -0.05,-0.1875983 -0.062,-0.2265979 l -2.862974,0 z m 19.916819,14.003873 c -0.277998,-0.0118 -0.559995,-0.002 -0.841993,0.02 -0.283997,0.022 -0.565995,0.06 -0.847992,0.115999 -0.283997,0.058 -0.563995,0.125999 -0.843992,0.219998 -0.231998,0.076 -0.461996,0.167999 -0.679994,0.263998 -0.217998,0.098 -0.431996,0.203998 -0.635994,0.321997 -0.407997,0.231998 -0.783993,0.501995 -1.12999,0.803993 -0.345997,0.301997 -0.655994,0.631994 -0.933992,0.987991 -0.275997,0.357996 -0.523995,0.739993 -0.725993,1.139989 -0.201998,0.401997 -0.361997,0.825993 -0.483996,1.257989 -0.121999,0.433996 -0.199998,0.883992 -0.233997,1.335988 -0.036,0.453996 -0.022,0.909991 0.034,1.371987 0.03,0.229998 0.064,0.459996 0.117999,0.691994 0.052,0.229998 0.119999,0.461996 0.199998,0.689994 0.078,0.229998 0.161999,0.453996 0.259998,0.667994 0.1,0.215998 0.213998,0.423996 0.331997,0.625994 0.237998,0.401996 0.511995,0.771993 0.817992,1.11199 0.305998,0.341997 0.643995,0.649994 1.007991,0.921991 0.361997,0.273998 0.747994,0.511996 1.15599,0.711994 0.405996,0.199998 0.829992,0.355997 1.267988,0.475996 0.439996,0.119998 0.895992,0.199998 1.355988,0.233997 0.459996,0.036 0.929991,0.03 1.397987,-0.026 0.235998,-0.03 0.465996,-0.07 0.699994,-0.121999 0.233998,-0.052 0.469996,-0.121999 0.703993,-0.199998 0.279998,-0.092 0.551995,-0.199999 0.811993,-0.323997 0.259998,-0.121999 0.507995,-0.253998 0.745993,-0.405997 0.237998,-0.149998 0.463996,-0.311997 0.679994,-0.487995 0.213998,-0.175999 0.421996,-0.359997 0.611994,-0.557995 0.191999,-0.197998 0.369997,-0.411997 0.535996,-0.629995 0.165998,-0.215998 0.313997,-0.441995 0.451995,-0.675993 0.139999,-0.231998 0.267998,-0.473996 0.379997,-0.721994 0.111999,-0.247998 0.205998,-0.501995 0.287997,-0.761993 l 0.016,0.04 c 0.086,-0.249998 0.185999,-0.489996 0.305997,-0.729994 0.117999,-0.241997 0.257998,-0.479995 0.409997,-0.707993 0.149998,-0.227998 0.319997,-0.447996 0.499995,-0.659994 0.177999,-0.211998 0.369997,-0.415996 0.573995,-0.609995 0.203998,-0.193998 0.413996,-0.381996 0.639994,-0.553995 0.225998,-0.171998 0.465996,-0.327997 0.711994,-0.475995 0.243997,-0.147999 0.495995,-0.281998 0.755993,-0.403997 0.197998,-0.09 0.397996,-0.171998 0.601994,-0.245997 l 0.008,0.012 C 51.600021,23.484322 52.714011,23.476322 54,23.476322 l 0,-2.783975 c -1.299989,0 -2.641976,0.016 -4.229962,0.315997 l -0.008,-0.012 -0.066,0.024 c -0.273998,0.09 -0.555995,0.165999 -0.835993,0.225998 -0.281997,0.06 -0.563995,0.1 -0.847992,0.129999 -0.285997,0.028 -0.569995,0.044 -0.855992,0.042 -0.283998,-0.002 -0.569995,-0.024 -0.851992,-0.054 -0.279998,-0.032 -0.555995,-0.072 -0.827993,-0.133999 -0.271997,-0.06 -0.543995,-0.143998 -0.803993,-0.233998 -0.259997,-0.09 -0.507995,-0.185998 -0.749993,-0.303997 -0.241998,-0.119999 -0.473995,-0.259997 -0.695993,-0.405996 l 0.012,0.03 c -0.223998,-0.155999 -0.461995,-0.305998 -0.701993,-0.437996 -0.241998,-0.129999 -0.485996,-0.239998 -0.739993,-0.341997 -0.253998,-0.103999 -0.515996,-0.199998 -0.779993,-0.273998 -0.265998,-0.074 -0.531996,-0.127999 -0.805993,-0.171998 -0.271998,-0.044 -0.551995,-0.074 -0.831992,-0.086 z M 18.73032,27.00429 c -0.231997,0.006 -0.468795,0.018 -0.702993,0.046 -0.234398,0.03 -0.468996,0.074 -0.703194,0.125999 -0.234198,0.052 -0.466596,0.113999 -0.699193,0.191998 -0.280998,0.092 -0.548195,0.199999 -0.808593,0.323998 -0.260198,0.121998 -0.511595,0.261997 -0.749993,0.413996 -0.238398,0.149997 -0.464396,0.307996 -0.679594,0.483994 -0.215398,0.175999 -0.422197,0.367997 -0.613395,0.565995 -0.190998,0.197998 -0.369396,0.399997 -0.535195,0.617995 -0.165598,0.215998 -0.317997,0.441996 -0.456996,0.675993 -0.138998,0.231998 -0.259797,0.473996 -0.370996,0.721994 -0.111399,0.247998 -0.214798,0.501995 -0.296998,0.761993 l -0.0116,-0.036 c -0.0852,0.249998 -0.188998,0.489996 -0.308597,0.729994 -0.119599,0.241997 -0.251398,0.479995 -0.402396,0.707993 -0.356797,0.443996 -0.844793,0.679994 -1.3905876,0.811993 l 0,4.441959 0.8437926,0 c 0.285197,0.002 0.566595,0.016 0.847592,0.046 0.280798,0.032 0.555795,0.076 0.828192,0.137999 0.272198,0.06 0.545196,0.135998 0.804593,0.225998 0.259398,0.09 0.507796,0.197998 0.749993,0.315997 0.242198,0.119999 0.474596,0.247997 0.695394,0.393996 l -0.0118,-0.026 c 0.224398,0.155999 0.462596,0.301998 0.703194,0.433996 0.240398,0.129999 0.484196,0.243998 0.738193,0.345997 0.254198,0.103999 0.516196,0.195998 0.781193,0.269998 0.265198,0.074 0.531396,0.123999 0.804793,0.167998 0.273398,0.044 0.556595,0.082 0.835792,0.094 0.279398,0.012 0.557595,0.002 0.839993,-0.02 0.282397,-0.022 0.564995,-0.056 0.846992,-0.111999 0.283998,-0.058 0.563995,-0.129999 0.843992,-0.223998 0.231998,-0.076 0.465996,-0.167999 0.683994,-0.263998 0.217998,-0.098 0.427996,-0.203998 0.631994,-0.321997 0.409997,-0.231998 0.787993,-0.501995 1.13399,-0.803993 0.345997,-0.301997 0.655994,-0.637994 0.933992,-0.995991 0.275997,-0.357996 0.519995,-0.735993 0.721993,-1.135989 0.201998,-0.401997 0.357997,-0.825993 0.479996,-1.257989 0.121999,-0.433996 0.203998,-0.875992 0.237998,-1.327988 0.036,-0.453996 0.03,-0.913991 -0.026,-1.375987 -0.03,-0.229998 -0.068,-0.463996 -0.121999,-0.695994 -0.052,-0.229998 -0.123999,-0.461996 -0.203998,-0.689994 -0.078,-0.229998 -0.161999,-0.449996 -0.259998,-0.663994 -0.1,-0.215998 -0.217998,-0.419996 -0.335997,-0.621994 -0.237998,-0.401996 -0.507995,-0.775993 -0.813992,-1.11599 -0.305998,-0.341997 -0.643995,-0.649994 -1.005991,-0.921991 -0.363997,-0.273998 -0.749993,-0.507996 -1.15799,-0.707994 -0.405996,-0.199998 -0.831992,-0.359997 -1.271988,-0.479996 -0.439996,-0.119998 -0.895792,-0.199998 -1.356188,-0.233997 -0.229998,-0.018 -0.459396,-0.026 -0.691394,-0.02 z m 14.183471,6.053945 c -0.229998,0.004 -0.459995,0.016 -0.691993,0.044 -0.229998,0.026 -0.463996,0.062 -0.693994,0.111999 -0.231998,0.052 -0.461996,0.119999 -0.691994,0.195998 -0.229998,0.076 -0.455996,0.159999 -0.671994,0.257998 -0.215998,0.098 -0.417996,0.207998 -0.621994,0.323997 -0.403996,0.233998 -0.779993,0.505996 -1.12399,0.807993 -0.343997,0.303997 -0.653994,0.635994 -0.929991,0.995991 -0.275998,0.361996 -0.519996,0.747993 -0.721994,1.153989 -0.203998,0.405997 -0.363996,0.833993 -0.487995,1.271989 -0.123999,0.439996 -0.215998,0.891992 -0.253998,1.351987 -0.04,0.459996 -0.034,0.927992 0.018,1.397988 0.028,0.235998 0.068,0.467995 0.117999,0.703993 0.05,0.233998 0.111999,0.473996 0.187998,0.705994 0.09,0.283997 0.199998,0.551995 0.319997,0.813992 0.119999,0.261998 0.253998,0.513996 0.401997,0.753994 0.147998,0.239997 0.307997,0.465995 0.479995,0.681993 0.173999,0.217998 0.359997,0.427996 0.555995,0.621995 0.195998,0.193998 0.405996,0.371996 0.619994,0.537995 0.215999,0.167998 0.439996,0.319997 0.671994,0.461996 0.231998,0.141998 0.471996,0.271997 0.719994,0.385996 0.245998,0.113999 0.501995,0.215998 0.759993,0.301997 l -0.042,0.008 c 0.247998,0.086 0.491996,0.193998 0.729994,0.315997 0.239997,0.121999 0.473995,0.255998 0.699993,0.409997 0.225998,0.153998 0.449996,0.325997 0.659994,0.507995 0.209998,0.179998 0.409997,0.375997 0.601995,0.581995 0.191998,0.205998 0.379996,0.423996 0.549995,0.651994 0.169998,0.227998 0.323997,0.463996 0.467996,0.709993 0.145998,0.247998 0.281997,0.497996 0.399996,0.757993 0.09,0.199999 0.163998,0.403997 0.237998,0.609995 l -0.016,0.008 0.453996,1.331988 c 0,0 0.831992,2.671975 1.181989,6.163944 l 2.817974,0 c -0.365996,-4.031964 -1.383987,-7.073936 -1.383987,-7.073936 l -0.347997,-1.027991 0.016,-0.004 -0.024,-0.074 c -0.086,-0.273997 -0.153998,-0.553995 -0.209998,-0.835992 -0.056,-0.281998 -0.103999,-0.561995 -0.129999,-0.847993 -0.024,-0.285997 -0.03,-0.573994 -0.026,-0.857992 0.004,-0.285997 0.024,-0.571995 0.058,-0.851992 0.034,-0.281998 0.082,-0.559995 0.143999,-0.831993 0.064,-0.271997 0.141998,-0.541995 0.235998,-0.801992 0.092,-0.257998 0.193998,-0.507996 0.315997,-0.749993 0.119999,-0.239998 0.259997,-0.469996 0.409996,-0.689994 l -0.032,0.016 c 0.159999,-0.223998 0.303997,-0.463996 0.437996,-0.703994 0.131999,-0.239998 0.249998,-0.483995 0.355997,-0.737993 0.103999,-0.253998 0.199998,-0.511995 0.275997,-0.777993 0.078,-0.263998 0.133999,-0.529995 0.179999,-0.803993 0.046,-0.273997 0.076,-0.551995 0.09,-0.831992 0.014,-0.279998 0.02,-0.561995 0,-0.843992 -0.018,-0.281998 -0.062,-0.567995 -0.115999,-0.851993 -0.054,-0.283997 -0.121999,-0.565995 -0.211998,-0.847992 -0.074,-0.231998 -0.157999,-0.459996 -0.253998,-0.677994 -0.096,-0.219998 -0.205998,-0.435996 -0.319997,-0.641994 -0.229998,-0.409996 -0.493995,-0.791993 -0.793993,-1.13999 -0.297997,-0.347996 -0.627994,-0.663994 -0.983991,-0.945991 -0.353996,-0.279997 -0.729993,-0.523995 -1.127989,-0.729993 -0.399997,-0.205998 -0.821993,-0.373997 -1.253989,-0.499996 -0.431996,-0.125999 -0.875992,-0.209998 -1.327988,-0.249998 -0.225998,-0.02 -0.453996,-0.026 -0.683994,-0.024 z"/>
 <path style="fill:#8b9cbe" d="m 19.461314,4.0000191 c 0.115599,0.416 0.300797,1.1289999 0.300797,1.1289999 l 0.344197,1.035 -0.012,0.004 0.024,0.0702 c 0.086,0.2735999 0.157998,0.5501999 0.213998,0.8322 0.056,0.2818 0.1,0.5735999 0.125999,0.8591999 0.024,0.2858 0.036,0.57 0.03,0.8556 -0.004,0.2854001 -0.024,0.5665991 -0.058,0.8476001 -0.034,0.280999 -0.082,0.5562 -0.143999,0.828199 -0.064,0.272001 -0.141998,0.5456 -0.235998,0.8046 -0.0918,0.258801 -0.194398,0.5086 -0.315597,0.75 -0.121399,0.2414 -0.260397,0.4678 -0.410196,0.6876 l 0.0274,-0.0078 c -0.158999,0.223 -0.304597,0.459601 -0.437596,0.699201 -0.132999,0.2394 -0.249998,0.484799 -0.355397,0.738199 -0.105399,0.253401 -0.200798,0.5088 -0.277397,0.7734 -0.0764,0.264801 -0.133599,0.5352 -0.179599,0.808601 -0.0462,0.273399 -0.0798,0.5566 -0.0938,0.835999 -0.0144,0.2794 -0.0114,0.5568 0.0078,0.8398 0.0192,0.283 0.0592,0.5716 0.113399,0.855401 0.054,0.283999 0.120599,0.561599 0.210798,0.843799 0.0748,0.2336 0.162399,0.4638 0.257798,0.6836 0.0956,0.2198 0.201598,0.4306 0.316397,0.6366 0.229798,0.412 0.494795,0.792 0.792993,1.14 0.298997,0.35 0.632994,0.666 0.988991,0.946 0.353996,0.28 0.727993,0.524 1.127989,0.73 0.399997,0.206 0.825993,0.37 1.257989,0.496 0.431996,0.126 0.875992,0.212 1.327988,0.249999 0.453996,0.04 0.905992,0.038 1.367987,-0.014 0.229998,-0.028 0.463996,-0.068 0.693994,-0.118 0.231998,-0.052 0.465996,-0.12 0.695994,-0.196001 0.229998,-0.076 0.455996,-0.151999 0.671994,-0.249999 0.215998,-0.096 0.421996,-0.21 0.623994,-0.328 0.403996,-0.234 0.777993,-0.506 1.12199,-0.808 0.343997,-0.304 0.653994,-0.636 0.929991,-0.996 0.275998,-0.36 0.515996,-0.746 0.717994,-1.152 0.203998,-0.4064 0.363996,-0.831 0.487995,-1.2702 0.123999,-0.4392 0.215998,-0.8988 0.253998,-1.359399 0.04,-0.4604 0.034,-0.920801 -0.018,-1.390601 -0.028,-0.2348 -0.064,-0.4722 -0.113999,-0.706999 -0.05,-0.235 -0.115999,-0.473601 -0.191998,-0.707001 -0.09,-0.282199 -0.199998,-0.5508 -0.319997,-0.8126 -0.119998,-0.261598 -0.253997,-0.509798 -0.401996,-0.749999 -0.147998,-0.24 -0.307997,-0.473999 -0.479995,-0.691399 -0.173999,-0.2172 -0.359997,-0.420001 -0.555995,-0.6132 -0.195998,-0.1932 -0.401996,-0.3752 -0.615995,-0.543 -0.215998,-0.1678 -0.443995,-0.3234 -0.675993,-0.464801 -0.231998,-0.141399 -0.471996,-0.269199 -0.719994,-0.382799 -0.245998,-0.1138 -0.501995,-0.2122 -0.759993,-0.297001 l 0.042,-0.0156 c -0.247998,-0.0876 -0.491996,-0.1864 -0.729994,-0.3086 C 26.194253,9.674819 25.960255,9.532019 25.734257,9.379019 25.508259,9.225619 25.288261,9.056219 25.078263,8.8750191 24.868265,8.6938192 24.664266,8.4990192 24.472268,8.2930192 c -0.191998,-0.2062 -0.371996,-0.4207999 -0.541995,-0.6484 -0.169998,-0.2278 -0.327997,-0.4687999 -0.471996,-0.715 C 23.312279,6.683419 23.17228,6.429419 23.054281,6.168019 c -0.09,-0.1992 -0.163998,-0.4026 -0.237998,-0.6094 l 0.012,-0.004 -0.441996,-1.328 c 0,0 -0.05,-0.1876 -0.062,-0.2266 l -2.862974,0 z M 39.378133,18.004019 c -0.277998,-0.0118 -0.559995,-0.0026 -0.841993,0.0194 -0.283997,0.0218 -0.565995,0.0606 -0.847992,0.1172 -0.283997,0.0566 -0.563995,0.125799 -0.843992,0.2188 -0.231998,0.0768 -0.461996,0.167999 -0.679994,0.265599 -0.217998,0.0976 -0.431996,0.2036 -0.635994,0.3204 -0.407997,0.2334 -0.783993,0.503401 -1.12999,0.804601 -0.345997,0.301999 -0.655994,0.631999 -0.933992,0.987999 -0.275997,0.358001 -0.523995,0.74 -0.725993,1.140001 -0.201998,0.401999 -0.361997,0.825999 -0.483996,1.257999 -0.121999,0.434 -0.199998,0.884 -0.233997,1.336 -0.036,0.454 -0.022,0.910001 0.034,1.372 0.03,0.23 0.064,0.46 0.117999,0.692 0.052,0.23 0.119999,0.462 0.199998,0.69 0.078,0.23 0.161999,0.454 0.259998,0.668 0.1,0.216 0.213998,0.424 0.331997,0.626 0.237998,0.402 0.511995,0.772 0.817992,1.112 0.305998,0.342 0.643995,0.65 1.007991,0.922 0.361997,0.274 0.747994,0.512 1.15599,0.712 0.405996,0.2 0.829992,0.356 1.267988,0.476 0.439996,0.12 0.895992,0.2 1.355988,0.234 0.459996,0.036 0.929991,0.03 1.397987,-0.026 0.235998,-0.03 0.465996,-0.07 0.699994,-0.122 0.233998,-0.052 0.469996,-0.122 0.703993,-0.2 0.279998,-0.092 0.551995,-0.2 0.811993,-0.324 0.259998,-0.122 0.507995,-0.254 0.745993,-0.406001 0.237998,-0.149999 0.463996,-0.311999 0.679994,-0.487999 0.213998,-0.176001 0.421996,-0.36 0.611994,-0.558 0.191999,-0.198 0.369997,-0.412 0.535996,-0.63 0.165998,-0.216 0.313997,-0.442 0.451995,-0.676 0.139999,-0.232 0.267998,-0.474 0.379997,-0.722 0.111999,-0.248 0.205998,-0.502 0.287997,-0.762 l 0.016,0.04 c 0.086,-0.25 0.185999,-0.49 0.305997,-0.73 0.117999,-0.242 0.257998,-0.48 0.409997,-0.708 0.149998,-0.228 0.319997,-0.448 0.499995,-0.66 0.177999,-0.212 0.369997,-0.416 0.573995,-0.609999 0.203998,-0.194001 0.413996,-0.382001 0.639994,-0.554 0.225998,-0.172001 0.465996,-0.328 0.711994,-0.476001 0.243997,-0.148 0.495995,-0.281999 0.755993,-0.403999 0.197998,-0.09 0.397996,-0.170001 0.601994,-0.246001 l 0.008,0.012 c 1.197989,-0.242 2.311979,-0.25 3.597968,-0.25 l 0,-2.7846 c -1.299989,0.0012 -2.641976,0.0156 -4.229962,0.316601 l -0.008,-0.012 -0.066,0.024 c -0.273998,0.09 -0.555995,0.166 -0.835993,0.226 -0.281997,0.06 -0.563995,0.100001 -0.847992,0.13 -0.285997,0.028 -0.569995,0.044 -0.855992,0.042 -0.283998,-0.002 -0.569995,-0.024 -0.851992,-0.054 -0.279998,-0.032 -0.555995,-0.072 -0.827993,-0.133999 -0.271997,-0.06 -0.543995,-0.144 -0.803993,-0.234 -0.259997,-0.0902 -0.507995,-0.185401 -0.749993,-0.304601 -0.241998,-0.1192 -0.473995,-0.258599 -0.695993,-0.4062 l 0.012,0.0312 c -0.223998,-0.157001 -0.461995,-0.3066 -0.701993,-0.4374 -0.241998,-0.131001 -0.485996,-0.240601 -0.739993,-0.3438 -0.253998,-0.1032 -0.515996,-0.1994 -0.779993,-0.273401 -0.265998,-0.0742 -0.531996,-0.128399 -0.805993,-0.172 -0.271998,-0.0436 -0.551995,-0.0744 -0.831992,-0.0858 z M 18.73032,26.004018 c -0.231997,0.006 -0.468795,0.018 -0.702993,0.046 -0.234398,0.03 -0.468996,0.074 -0.703194,0.125999 -0.234198,0.052 -0.466596,0.114 -0.699193,0.192 -0.280998,0.092 -0.548195,0.2 -0.808593,0.324 -0.260198,0.122 -0.511595,0.262 -0.749993,0.414 -0.238398,0.15 -0.464396,0.308 -0.679594,0.484001 -0.215398,0.175999 -0.422197,0.367999 -0.613395,0.565999 -0.190998,0.198 -0.369396,0.4 -0.535195,0.618 -0.165598,0.216 -0.317997,0.442 -0.456996,0.676 -0.138998,0.231999 -0.259797,0.474 -0.370996,0.722 -0.111399,0.248 -0.214798,0.501999 -0.296998,0.762 l -0.0116,-0.036 c -0.0852,0.250001 -0.188998,0.490001 -0.308597,0.730001 -0.119599,0.242 -0.251398,0.479999 -0.402396,0.707999 -0.356797,0.444001 -0.844793,0.680001 -1.3905876,0.812001 l 0,4.442 0.8437926,0 c 0.285197,0.002 0.566595,0.016 0.847592,0.046 0.280798,0.032 0.555795,0.076 0.828192,0.138001 0.272198,0.06 0.545196,0.136 0.804593,0.226 0.259398,0.09 0.507796,0.198 0.749993,0.316 0.242198,0.12 0.474596,0.248 0.695394,0.393999 l -0.0118,-0.026 c 0.224398,0.155999 0.462596,0.302 0.703194,0.434 0.240398,0.129999 0.484196,0.243999 0.738193,0.345999 0.254198,0.104001 0.516196,0.196001 0.781193,0.27 0.265198,0.074 0.531396,0.124001 0.804793,0.168 0.273398,0.044 0.556595,0.082 0.835792,0.094 0.279398,0.012 0.557595,0.002 0.839993,-0.02 0.282397,-0.022 0.564995,-0.056 0.846992,-0.112 0.283998,-0.058 0.563995,-0.130001 0.843992,-0.224 0.231998,-0.076 0.465996,-0.168001 0.683994,-0.264001 0.217998,-0.098 0.427996,-0.204 0.631994,-0.322 0.409997,-0.232 0.787993,-0.501999 1.13399,-0.803999 0.345997,-0.302001 0.655994,-0.638001 0.933992,-0.996 0.275997,-0.358 0.519995,-0.736001 0.721993,-1.136 0.201998,-0.402 0.357997,-0.826001 0.479996,-1.258001 0.121999,-0.434 0.203998,-0.876 0.237998,-1.328 0.036,-0.453999 0.03,-0.913999 -0.026,-1.375999 -0.03,-0.23 -0.068,-0.464 -0.121999,-0.696 -0.052,-0.230001 -0.123999,-0.462 -0.203998,-0.69 -0.078,-0.23 -0.161999,-0.45 -0.259998,-0.664 -0.1,-0.216 -0.217998,-0.420001 -0.335997,-0.622 -0.237998,-0.402 -0.507995,-0.776 -0.813992,-1.116 -0.305998,-0.342 -0.643995,-0.65 -1.005991,-0.922 -0.363997,-0.274 -0.749993,-0.508 -1.15799,-0.708 -0.405996,-0.2 -0.831992,-0.359999 -1.271988,-0.48 -0.439996,-0.12 -0.895792,-0.2 -1.356188,-0.234 -0.229998,-0.018 -0.459396,-0.026 -0.691394,-0.02 z m 14.183471,6.054 c -0.229998,0.004 -0.459995,0.016 -0.691993,0.044 -0.229998,0.026 -0.463996,0.062 -0.693994,0.112 -0.231998,0.052 -0.461996,0.12 -0.691994,0.196001 -0.229998,0.076 -0.455996,0.16 -0.671994,0.257999 -0.215998,0.098 -0.417996,0.208 -0.621994,0.324 -0.403996,0.234001 -0.779993,0.506001 -1.12399,0.808001 -0.343997,0.304 -0.653994,0.636 -0.929991,0.996 -0.275998,0.362 -0.519996,0.748 -0.721994,1.153999 -0.203998,0.406001 -0.363996,0.834001 -0.487995,1.272001 -0.123999,0.44 -0.215998,0.892 -0.253998,1.352 -0.04,0.459999 -0.034,0.927999 0.018,1.398 0.028,0.236 0.068,0.468 0.117999,0.703999 0.05,0.234 0.111999,0.474 0.187998,0.706 0.09,0.284 0.199998,0.552 0.319997,0.814001 0.119999,0.261999 0.253998,0.513999 0.401997,0.754 0.147998,0.24 0.307997,0.466 0.479995,0.682 0.173999,0.218 0.359997,0.428 0.555995,0.621999 0.195998,0.194 0.405996,0.372001 0.619994,0.538 0.215999,0.168 0.439996,0.32 0.671994,0.462 0.231998,0.142 0.471996,0.272 0.719994,0.386 0.245998,0.114 0.501995,0.216 0.759993,0.302001 l -0.042,0.008 c 0.247998,0.086 0.491996,0.194001 0.729994,0.316001 0.239997,0.121999 0.473995,0.255999 0.699993,0.409999 0.225998,0.154 0.449996,0.326 0.659994,0.508 0.209998,0.180001 0.409997,0.376 0.601995,0.582 0.191998,0.206 0.379996,0.424 0.549995,0.652 0.169998,0.228 0.323997,0.464 0.467996,0.710001 0.145998,0.247999 0.281997,0.497999 0.399996,0.757999 0.09,0.2 0.163998,0.404 0.237998,0.61 l -0.016,0.008 0.453996,1.332 c 0,0 1.219989,3.7 1.349987,8.164 l 2.769975,0 C 39.61173,55.012017 38.237743,50.926017 38.237743,50.926017 l -0.347997,-1.027999 0.016,-0.004 -0.024,-0.074 c -0.086,-0.274 -0.153998,-0.554 -0.209998,-0.836 -0.056,-0.282 -0.103999,-0.562 -0.129999,-0.847999 -0.024,-0.286001 -0.03,-0.574001 -0.026,-0.858001 0.004,-0.286 0.024,-0.571999 0.058,-0.852 0.034,-0.281999 0.082,-0.56 0.143999,-0.831999 0.064,-0.272001 0.141998,-0.542 0.235998,-0.802001 0.092,-0.258 0.193998,-0.507999 0.315997,-0.75 0.119999,-0.24 0.259997,-0.47 0.409996,-0.69 l -0.032,0.016 c 0.159999,-0.224 0.303997,-0.464 0.437996,-0.704 0.131999,-0.239999 0.249998,-0.483999 0.355997,-0.738 0.103999,-0.254 0.199998,-0.511999 0.275997,-0.778 0.078,-0.263999 0.133999,-0.53 0.179999,-0.804 0.046,-0.273999 0.076,-0.552 0.09,-0.832 0.014,-0.279999 0.02,-0.562 0,-0.843999 -0.018,-0.282001 -0.062,-0.568 -0.115999,-0.852001 -0.054,-0.283999 -0.121999,-0.565999 -0.211998,-0.848 -0.074,-0.232 -0.157999,-0.46 -0.253998,-0.678 -0.096,-0.22 -0.205998,-0.436 -0.319997,-0.642 -0.229998,-0.409999 -0.493995,-0.792 -0.793993,-1.139999 -0.297997,-0.348 -0.627994,-0.664 -0.983991,-0.946 -0.353996,-0.28 -0.729993,-0.524 -1.127989,-0.73 -0.399997,-0.206 -0.821993,-0.374 -1.253989,-0.500001 -0.431996,-0.125999 -0.875992,-0.209999 -1.327988,-0.249999 -0.225998,-0.02 -0.453996,-0.026 -0.683994,-0.024 z"/>
 <path style="opacity:0.2;fill:#8b9cbe" d="M 12.75,4 C 11.226413,4 10,5.2495827 10,6.8002055 L 10,7.8 c 0,-1.5506228 1.226413,-2.8002055 2.75,-2.8002055 l 38.5,0 C 52.773986,4.9997945 54,6.2493773 54,7.8 L 54,6.8002055 C 54,5.2495828 52.773986,4 51.25,4 l -38.5,0 z"/>
</svg>
