<svg xmlns="http://www.w3.org/2000/svg" width="64" height="64" version="1">
 <rect style="opacity:0.2" width="57" height="57" x="3" y="4" rx="2.85" ry="2.85"/>
 <rect style="fill:#4f4f4f" width="57" height="57" x="3" y="3" rx="2.85" ry="2.85"/>
 <path style="opacity:0.2" d="M 14.5,10 C 11.462433,10 9,12.462433 9,15.5 9,18.537566 11.462433,21 14.5,21 17.537567,21 20,18.537566 20,15.5 20,12.462433 17.537567,10 14.5,10 Z m 17.900391,0 C 29.408791,10 27,12.453 27,15.5 27,18.547 29.408791,21 32.400391,21 H 48.599609 C 51.591209,21 54,18.547 54,15.5 54,12.453 51.591209,10 48.599609,10 Z M 14.5,27 C 11.462433,27 9,29.462433 9,32.5 9,35.537566 11.462433,38 14.5,38 17.537567,38 20,35.537566 20,32.5 20,29.462433 17.537567,27 14.5,27 Z m 17.900391,0 C 29.408791,27 27,29.453 27,32.5 27,35.547 29.408791,38 32.400391,38 H 48.599609 C 51.591209,38 54,35.547 54,32.5 54,29.453 51.591209,27 48.599609,27 Z M 14.5,44 C 11.462433,44 9,46.462433 9,49.5 9,52.537566 11.462433,55 14.5,55 17.537567,55 20,52.537566 20,49.5 20,46.462433 17.537567,44 14.5,44 Z m 17.900391,0 C 29.408791,44 27,46.453 27,49.5 27,52.547 29.408791,55 32.400391,55 H 48.599609 C 51.591209,55 54,52.547 54,49.5 54,46.453 51.591209,44 48.599609,44 Z"/>
 <g transform="translate(0,-1)">
  <path style="fill:#8b9cbe" d="M 14.5,10 C 11.462433,10 9,12.462433 9,15.5 9,18.537566 11.462433,21 14.5,21 17.537567,21 20,18.537566 20,15.5 20,12.462433 17.537567,10 14.5,10 Z m 17.900391,0 C 29.408791,10 27,12.453 27,15.5 27,18.547 29.408791,21 32.400391,21 H 48.599609 C 51.591209,21 54,18.547 54,15.5 54,12.453 51.591209,10 48.599609,10 Z"/>
  <path style="fill:#8b9cbe" d="M 14.5,27 C 11.462433,27 9,29.462433 9,32.5 9,35.537566 11.462433,38 14.5,38 17.537567,38 20,35.537566 20,32.5 20,29.462433 17.537567,27 14.5,27 Z m 17.900391,0 C 29.408791,27 27,29.453 27,32.5 27,35.547 29.408791,38 32.400391,38 H 48.599609 C 51.591209,38 54,35.547 54,32.5 54,29.453 51.591209,27 48.599609,27 Z"/>
  <path style="fill:#ff9448" d="M 14.5,44 C 11.462433,44 9,46.462433 9,49.5 9,52.537566 11.462433,55 14.5,55 17.537567,55 20,52.537566 20,49.5 20,46.462433 17.537567,44 14.5,44 Z m 17.900391,0 C 29.408791,44 27,46.453 27,49.5 27,52.547 29.408791,55 32.400391,55 H 48.599609 C 51.591209,55 54,52.547 54,49.5 54,46.453 51.591209,44 48.599609,44 Z"/>
 </g>
 <path style="opacity:0.1;fill:#8b9cbe" d="M 5.8496094,3 C 4.2707094,3 3,4.2707094 3,5.8496094 v 1 C 3,5.2707094 4.2707094,4 5.8496094,4 H 57.150391 C 58.729291,4 60,5.2707094 60,6.8496094 v -1 C 60,4.2707094 58.729291,3 57.150391,3 Z"/>
</svg>
