<svg xmlns="http://www.w3.org/2000/svg" width="64" height="64" version="1">
 <path style="opacity:0.2" d="M 60,57.157894 60,8.8421052 C 60,7.267579 58.7512,6 57.2,6 L 6.8,6 C 5.2488,6 4,7.267579 4,8.8421052 L 4,57.157894 C 4,58.732422 5.2488,60 6.8,60 l 50.4,0 c 1.5512,0 2.8,-1.267578 2.8,-2.842106 z"/>
 <path style="fill:#d5b380" d="M 60,56.157894 60,7.8421052 C 60,6.267579 58.7512,5 57.2,5 L 6.8,5 C 5.2488,5 4,6.267579 4,7.8421052 L 4,56.157894 C 4,57.732422 5.2488,59 6.8,59 l 50.4,0 c 1.5512,0 2.8,-1.267578 2.8,-2.842106 z"/>
 <path style="opacity:0.2;fill:none;stroke:#000000;stroke-width:6" d="m 10.000286,42.999422 c 0,0 3.223281,0.0013 7.400269,0 4.176977,-0.0013 5.600005,-1.4 5.600005,-4.2 0,-11.61909 -10.000274,-0.0158 -10.000274,-11.6 -0.03387,-2.818786 0.165918,-4.2 4.400269,-4.2 l 8.599731,0"/>
 <path style="fill:none;stroke:#ff4141;stroke-width:6" d="m 10.000286,42 c 0,0 3.223281,0.0013 7.400269,0 4.176977,-0.0013 5.600005,-1.4 5.600005,-4.2 0,-11.61909 -10.000274,-0.0158 -10.000274,-11.6 -0.03387,-2.818786 0.165918,-4.2 4.400269,-4.2 l 8.599731,0"/>
 <path style="opacity:0.2;fill:none;stroke:#000000;stroke-width:6" d="m 40,30.999422 14,0 m -7,15 0,-15"/>
 <path style="fill:none;stroke:#8b9cbe;stroke-width:6" d="m 40,30 14,0 m -7,15 0,-15"/>
 <path style="opacity:0.2;fill:#8b9cbe" d="M 6.8007812,5 C 5.2495812,5 4,6.2692238 4,7.84375 l 0,1 C 4,7.2692238 5.2495812,6 6.8007812,6 L 57.199219,6 C 58.750419,6 60,7.2692238 60,8.84375 l 0,-1 C 60,6.2692238 58.750419,5 57.199219,5 L 6.8007812,5 Z"/>
 <rect style="fill:#353535" width="2" height="6" x="31" y="29"/>
 <rect style="fill:#353535" width="2" height="6" x="31" y="21"/>
 <rect style="fill:#353535" width="2" height="6" x="31" y="13"/>
 <rect style="fill:#353535" width="2" height="6" x="31" y="45"/>
 <rect style="fill:#353535" width="2" height="6" x="31" y="37"/>
</svg>
