<svg xmlns="http://www.w3.org/2000/svg" width="64" height="64" version="1">
 <path style="opacity:0.2" d="M 41.048828 7 C 40.509083 6.9923 39.990918 7.2067133 39.619141 7.5917969 L 32.832031 15 L 29.59375 15 C 27.188488 15 23.867614 14.987816 20.763672 15.914062 L 11.144531 8.4394531 C 9.8680242 7.5130277 8.0002541 8.4099887 8 9.9707031 L 8 24.873047 C 4.6629555 29.68206 2.7804194 35.924212 3.015625 41.167969 C 3.0155808 41.175369 3.0155808 41.182023 3.015625 41.189453 C 3.31412 46.442161 7.0642867 50.935358 12.447266 54.042969 C 17.830246 57.150585 24.974144 59.000002 32.810547 59 C 33.685002 59 34.548586 58.981063 35.398438 58.945312 C 35.688034 58.933125 35.965341 58.908599 36.244141 58.886719 C 35.844253 58.906909 35.432716 58.933681 35.046875 58.947266 C 35.030825 58.947866 35.014107 58.948636 34.998047 58.949219 C 34.995347 58.94901 34.993034 58.949429 34.990234 58.949219 C 23.488466 58.055049 14 50.996669 14 45.015625 C 14 44.865257 14.019048 44.725747 14.027344 44.580078 C 14.027091 44.577471 14.027593 44.574872 14.027344 44.572266 C 14.009539 44.386104 14 44.199952 14 44.015625 C 13.999999 38.87002 18.869379 36.50838 27.810547 34.736328 C 29.984862 34.305401 37.52898 40.503662 39.931641 40 C 42.032345 39.559638 41.703164 33.924536 43.669922 33.746094 C 46.361277 33.501912 44.410653 31.498359 46.927734 31.505859 C 47.806544 31.257633 48.80341 31.155461 49.882812 31.181641 C 51.306359 31.216173 52.883024 31.490798 54.527344 31.925781 C 53.420959 27.056451 50.281678 22.978904 45.966797 20.025391 L 42.888672 8.421875 C 42.669341 7.5950636 41.917175 7.0135486 41.048828 7 z M 36.667969 58.857422 C 36.608034 58.86132 36.550306 58.867376 36.490234 58.871094 C 36.548884 58.865861 36.609783 58.863072 36.667969 58.857422 z"/>
 <path style="fill:#ff7f00" d="m 41.048416,6.0002009 c -0.539745,-0.0077 -1.05819,0.2069493 -1.429967,0.5920329 L 32.831146,14 h -3.237565 c -2.405262,0 -5.725093,-0.0131 -8.829035,0.913148 L 11.14469,7.4395685 C 9.8681827,6.5131431 8.0002541,7.4097171 8,8.9704315 V 23.872655 c -3.3370445,4.809013 -5.2193589,11.050767 -4.9841533,16.294524 -4.42e-5,0.0074 -4.42e-5,0.01486 0,0.02229 0.298495,5.252708 4.0477488,9.746189 9.4307273,12.8538 5.38298,3.107616 12.528027,4.956731 20.36443,4.956729 0.874455,0 1.737204,-0.01797 2.587054,-0.05372 6.69902,-0.281915 10.435615,-3.227058 14.946806,-5.640306 5.083492,-2.719397 3.816177,-3.926549 3.816175,-9.139322 0,-4.252515 4.261408,-9.027311 0.567722,-11.216085 -0.877008,-5.323126 -4.146694,-9.767128 -8.76106,-12.925637 L 42.888742,7.4220705 C 42.669411,6.5952591 41.916763,6.0137495 41.048416,6.0002009 Z"/>
 <path style="opacity:0.2;fill:#8b9cbe" d="M 41.048828 6 C 40.509083 5.9923 39.990918 6.2067133 39.619141 6.5917969 L 32.832031 14 L 29.59375 14 C 27.188488 14 23.867614 13.987815 20.763672 14.914062 L 11.144531 7.4394531 C 9.8680239 6.5130277 8.0002541 7.4099887 8 8.9707031 L 8 9.9707031 C 8.0002541 8.4099887 9.8680239 7.5130277 11.144531 8.4394531 L 20.763672 15.914062 C 23.867614 14.987815 27.188488 15 29.59375 15 L 32.832031 15 L 39.619141 7.5917969 C 39.990918 7.2067133 40.509083 6.9923 41.048828 7 C 41.917175 7.0135486 42.669341 7.5950636 42.888672 8.421875 L 45.966797 20.025391 C 50.581163 23.1839 53.851508 27.628046 54.728516 32.951172 C 55.655467 33.500457 56.081191 34.213175 56.199219 35.039062 C 56.323122 33.786174 56.010617 32.710909 54.728516 31.951172 C 53.851508 26.628046 50.581163 22.1839 45.966797 19.025391 L 42.888672 7.421875 C 42.669341 6.5950636 41.917175 6.0135486 41.048828 6 z M 8 23.873047 C 4.6629555 28.68206 2.7804194 34.924212 3.015625 40.167969 C 3.0155808 40.175369 3.0155808 40.182023 3.015625 40.189453 C 3.0165192 40.205189 3.0185752 40.220606 3.0195312 40.236328 C 3.0270356 35.195151 4.8563186 29.403404 8 24.873047 L 8 23.873047 z M 54.177734 43.863281 C 54.173159 43.964053 54.160156 44.065783 54.160156 44.166016 C 54.160157 45.657907 54.25418 46.800581 54.283203 47.765625 C 54.341862 46.766484 54.21389 45.513834 54.177734 43.863281 z"/>
 <path style="fill:#5f4a44" d="m 39.602691,36.006323 c -0.643957,-0.0056 -1.352222,0.0283 -2.129948,0.107435 -2.501717,0.254564 -3.265304,0.05829 -3.402536,1.419175 2.294607,1.298279 4.370957,4.218709 5.732353,3.954852 1.235828,-0.239519 2.038272,-3.560336 2.553727,-5.141252 -0.749386,-0.206569 -1.657578,-0.330739 -2.753596,-0.34021 z"/>
 <path style="opacity:0.2" d="m 49.882073,32.182157 c -1.079403,-0.02618 -2.074724,0.07517 -2.953534,0.323396 -2.517081,-0.0075 -0.566974,1.995539 -3.258329,2.239721 -1.966758,0.178442 -1.637742,5.814366 -3.738446,6.254728 -2.402661,0.503662 -9.947315,-5.694085 -12.12163,-5.263158 -8.941168,1.772052 -13.810135,4.134 -13.810134,9.279605 0,5.981044 9.488557,13.038601 20.990325,13.932771 0.0028,2.1e-4 0.0054,-2.09e-4 0.0081,0 0.01606,-5.83e-4 0.03251,-0.0021 0.04856,-0.0027 0.416668,-0.01467 0.862269,-0.04341 1.292003,-0.06415 6.287381,-0.372521 11.835616,-1.726902 16.121713,-4.019737 5.083491,-2.719396 8.493773,-6.993434 8.493772,-12.206207 0,-4.239532 -2.563234,-7.494546 -6.238836,-9.683182 -1.712697,-0.464637 -3.355393,-0.755262 -4.833547,-0.791119 z"/>
 <path style="fill:#ffce9d" d="m 49.882073,31.182155 c -1.079403,-0.02618 -2.074724,0.07517 -2.953534,0.323396 -2.517081,-0.0075 -0.566974,1.995539 -3.258329,2.239721 C 41.703452,33.923714 42.032468,39.559638 39.931764,40 37.529103,40.503662 29.984449,34.305915 27.810134,34.736842 18.868966,36.508894 13.999999,38.870842 14,44.016447 c 0,5.981044 9.488557,13.038601 20.990325,13.932771 0.0028,2.1e-4 0.0054,-2.09e-4 0.0081,0 0.01606,-5.83e-4 0.03251,-0.0021 0.04856,-0.0027 0.416668,-0.01467 0.862269,-0.04341 1.292003,-0.06415 6.287381,-0.372521 11.835616,-1.726902 16.121713,-4.019737 5.083491,-2.719396 8.493773,-6.993434 8.493772,-12.206207 0,-4.239532 -2.563234,-7.494546 -6.238836,-9.683182 C 53.00294,31.508605 51.360244,31.21798 49.88209,31.182123 Z"/>
 <path style="opacity:0.2;fill:#8b9cbe" d="M 49.882812 31.181641 C 48.80341 31.155461 47.806544 31.257633 46.927734 31.505859 C 44.410653 31.498359 46.361277 33.501912 43.669922 33.746094 C 41.703164 33.924536 42.032345 39.559638 39.931641 40 C 37.52898 40.503662 29.984862 34.305401 27.810547 34.736328 C 18.869379 36.50838 13.999999 38.87002 14 44.015625 C 14 44.199952 14.009538 44.386106 14.027344 44.572266 C 14.307696 39.738505 19.135332 37.455671 27.810547 35.736328 C 29.984862 35.305401 37.52898 41.503662 39.931641 41 C 42.032345 40.559638 41.703164 34.924536 43.669922 34.746094 C 46.361277 34.501912 44.410653 32.498359 46.927734 32.505859 C 47.806544 32.257633 48.80341 32.155461 49.882812 32.181641 C 51.360967 32.217498 53.002147 32.508019 54.714844 32.972656 C 58.239195 35.07123 60.733676 38.153374 60.933594 42.140625 C 60.940229 41.979244 60.955078 41.819492 60.955078 41.65625 C 60.955078 37.416718 58.390446 34.161292 54.714844 31.972656 C 53.002147 31.508019 51.360966 31.217498 49.882812 31.181641 z"/>
 <path style="opacity:0.2" d="m 46.999999,48.369044 c -0.04223,3.622759 -8.249808,6.90294 -11.700574,6.613086 -6.661015,-0.559507 -12.4722,-4.931673 -9.502678,-11.982128 z"/>
 <ellipse style="opacity:0.2" cx="27.053" cy="44.435" rx="6.612" ry="7.844" transform="matrix(0.93245146,-0.36129527,0.42250833,0.90635904,0,0)"/>
 <path style="fill:#8b9cbe" d="m 46.999999,47.369042 c -0.04223,3.622759 -8.249808,6.90294 -11.700574,6.613086 C 28.63841,53.422621 22.827225,49.050455 25.796747,42 Z"/>
 <ellipse style="opacity:0.2" cx="6.646" cy="37.404" rx="6.612" ry="7.844" transform="matrix(0.93245146,-0.36129527,0.42250833,0.90635904,0,0)"/>
 <ellipse style="fill:#8b9cbe" cx="7.069" cy="36.469" rx="6.612" ry="7.844" transform="matrix(0.93245146,-0.36129527,0.42250833,0.90635904,0,0)"/>
 <circle style="fill:#17191e" cx="24" cy="33" r="2"/>
 <ellipse style="fill:#8b9cbe" cx="27.477" cy="43.501" rx="6.612" ry="7.844" transform="matrix(0.93245146,-0.36129527,0.42250833,0.90635904,0,0)"/>
 <circle style="fill:#17191e" cx="46" cy="32" r="2"/>
</svg>
