<svg xmlns="http://www.w3.org/2000/svg" width="64" height="64" version="1">
 <circle style="opacity:0.2" cx="32" cy="33" r="28"/>
 <circle style="fill:#009688" cx="32" cy="32" r="28"/>
 <path style="opacity:0.2" d="m 32,16 c -4.012304,0.007 -7.89284,1.432839 -10.955078,4.025391 L 26.804688,30 34.746094,16.244141 C 33.838849,16.088549 32.920465,16.0069 32,16 Z M 37.757812,17.027344 32,27 H 47.896484 C 46.136523,22.353989 42.432245,18.710366 37.757812,17.027344 Z m -18.90039,5.207031 C 16.36698,25.269786 15.004011,29.073678 15,33 c 0.0022,1.006121 0.0937,2.010062 0.273438,3 h 11.53125 z M 37.195312,30 45.142578,43.765625 C 47.63302,40.730214 48.995989,36.926322 49,33 48.9978,31.993879 48.9063,30.989938 48.726562,30 Z m 0,6 -7.941406,13.755859 C 30.161151,49.911451 31.079535,49.9931 32,50 c 4.012304,-0.007 7.89284,-1.432839 10.955078,-4.025391 z m -21.091796,3 c 1.759961,4.646011 5.464239,8.289634 10.138672,9.972656 L 32,39 Z"/>
 <path style="fill:#8b9cbe" d="m 32,15 c -4.012304,0.007 -7.89284,1.432839 -10.955078,4.025391 L 26.804688,29 34.746094,15.244141 C 33.838849,15.088549 32.920465,15.0069 32,15 Z M 37.757812,16.027344 32,26 H 47.896484 C 46.136523,21.353989 42.432245,17.710366 37.757812,16.027344 Z m -18.90039,5.207031 C 16.36698,24.269786 15.004011,28.073678 15,32 c 0.0022,1.006121 0.0937,2.010062 0.273438,3 h 11.53125 z M 37.195312,29 45.142578,42.765625 C 47.63302,39.730214 48.995989,35.926322 49,32 c -0.0022,-1.006121 -0.0937,-2.010062 -0.273438,-3 z m 0,6 -7.941406,13.755859 C 30.161151,48.911451 31.079535,48.9931 32,49 c 4.012304,-0.007 7.89284,-1.432839 10.955078,-4.025391 z m -21.091796,3 c 1.759961,4.646011 5.464239,8.289634 10.138672,9.972656 L 32,38 Z"/>
 <path style="opacity:0.2;fill:#8b9cbe" d="M 32 4 A 28 28 0 0 0 4 32 A 28 28 0 0 0 4.0214844 32.585938 A 28 28 0 0 1 32 5 A 28 28 0 0 1 59.978516 32.414062 A 28 28 0 0 0 60 32 A 28 28 0 0 0 32 4 z"/>
</svg>
