<svg xmlns="http://www.w3.org/2000/svg" width="64" height="64" version="1">
 <rect style="opacity:0.2" width="56" height="56" x="4" y="5" rx="16.8" ry="16.8"/>
 <rect style="fill:#7843b1" width="56" height="56" x="4" y="4" rx="16.8" ry="16.8"/>
 <path style="opacity:0.2" d="M 16.5,13.5 14.761719,18.761719 9.5,20.5 14.761719,22.238281 16.5,27.5 18.238281,22.238281 23.5,20.5 18.238281,18.761719 Z m 13,2 -0.994141,3.005859 L 25.5,19.5 28.505859,20.494141 29.5,23.5 30.494141,20.494141 33.5,19.5 30.494141,18.505859 Z m 10,4 -0.496094,1.503906 L 37.5,21.5 39.003906,21.996094 39.5,23.5 39.996094,21.996094 41.5,21.5 39.996094,21.003906 Z m 2.693359,5.300781 c 1.561594,1.89222 2.509766,4.310086 2.509766,6.955078 0,6.045478 -4.901534,10.947266 -10.947266,10.947266 -2.644992,0 -5.06281,-0.948172 -6.955078,-2.509766 C 28.124411,45.835389 33.183036,50 39.228516,50 46.281744,50 52,44.281742 52,37.228516 52,31.182782 47.835387,26.124283 42.193359,24.800781 Z"/>
 <path style="fill:#8b9cbe" d="m 42.193722,23.799922 c 1.561594,1.89222 2.50861,4.310714 2.50861,6.955706 0,6.045478 -4.900896,10.946626 -10.946628,10.946626 -2.644992,0 -5.063436,-0.94699 -6.955704,-2.508584 C 28.12363,44.8357 33.183412,49 39.228892,49 46.28212,49 52,43.282118 52,36.228892 52,30.183158 47.8357,25.123502 42.193672,23.8 Z"/>
 <path style="fill:#8b9cbe" d="M 16.5,26.5 14.761467,21.238532 9.5,19.5 14.761467,17.761467 16.5,12.499999 18.238533,17.761467 23.5,19.5 18.238533,21.238532 Z"/>
 <path style="fill:#8b9cbe" d="M 29.5,22.5 28.506552,19.493446 25.5,18.5 28.506552,17.506553 29.5,14.499999 30.493446,17.506553 33.5,18.5 30.493446,19.493446 Z"/>
 <path style="fill:#8b9cbe" d="M 39.5,22.5 39.003278,20.996722 37.5,20.5 39.003278,20.003278 39.5,18.499999 39.996722,20.003278 41.5,20.5 39.996722,20.996722 Z"/>
 <path style="opacity:0.1;fill:#8b9cbe" d="M 20.800781 4 C 11.493581 4 4 11.493581 4 20.800781 L 4 21.800781 C 4 12.493581 11.493581 5 20.800781 5 L 43.199219 5 C 52.506419 5 60 12.493581 60 21.800781 L 60 20.800781 C 60 11.493581 52.506419 4 43.199219 4 L 20.800781 4 z"/>
</svg>
