<svg xmlns="http://www.w3.org/2000/svg" width="64" height="64" version="1">
 <rect style="opacity:0.2" width="45" height="56" x="-55" y="-60" rx="2.813" ry="2.8" transform="matrix(0,-1,-1,0,0,0)"/>
 <rect style="fill:#e2d144" width="45" height="56" x="-54" y="-60" rx="2.813" ry="2.8" transform="matrix(0,-1,-1,0,0,0)"/>
 <rect style="opacity:0.5" width="3" height="22" x="12" y="9"/>
 <rect style="opacity:0.5" width="3" height="11" x="18" y="9"/>
 <rect style="opacity:0.5" width="3" height="17" x="42" y="9"/>
 <path style="opacity:0.5" d="M 8 34 L 8 51 L 19 51 L 19 34 L 8 34 z M 11 37 L 16 37 L 16 48 L 11 48 L 11 37 z"/>
 <rect style="opacity:0.5" width="3" height="11" x="24" y="9"/>
 <rect style="opacity:0.5" width="3" height="11" x="30" y="9"/>
 <rect style="opacity:0.5" width="3" height="11" x="36" y="9"/>
 <rect style="opacity:0.5" width="3" height="11" x="48" y="9"/>
 <rect style="opacity:0.5" width="3" height="11" x="54" y="9"/>
 <path style="fill:#8b9cbe;opacity:0.2" d="M 6.8007812 9 C 5.2495813 9 4 10.254375 4 11.8125 L 4 12.8125 C 4 11.254375 5.2495813 10 6.8007812 10 L 57.199219 10 C 58.750419 10 60 11.254375 60 12.8125 L 60 11.8125 C 60 10.254375 58.750419 9 57.199219 9 L 6.8007812 9 z"/>
</svg>
