<svg xmlns="http://www.w3.org/2000/svg" width="64" height="64" version="1">
 <circle style="opacity:0.2" cx="32.5" cy="32.5" r="28.5"/>
 <circle style="fill:#b2bfd9" cx="32.5" cy="31.5" r="28.5"/>
 <path style="opacity:0.2;fill:#8b9cbe" d="M 32.5,3 A 28.5,28.5 0 0 0 4,31.5 28.5,28.5 0 0 0 4.0214844,32.082031 28.5,28.5 0 0 1 32.5,4 28.5,28.5 0 0 1 60.978516,31.917969 28.5,28.5 0 0 0 61,31.5 28.5,28.5 0 0 0 32.5,3 Z"/>
 <path style="opacity:0.2" d="M 31,27 A 4,4 0 0 0 27,23 H 16 A 4,4 0 0 0 12,27 4,4 0 0 0 16,31 H 27 A 4,4 0 0 0 31,27 Z M 27,12 A 4,4 0 0 0 23,16 4,4 0 0 0 27,20 H 31 V 16 A 4,4 0 0 0 27,12 Z M 16,42 A 4,4 0 0 1 12,38 4,4 0 0 1 16,34 H 20 V 38 A 4,4 0 0 1 16,42 Z M 27,34 A 4,4 0 0 0 23,38 V 49 A 4,4 0 0 0 27,53 4,4 0 0 0 31,49 V 38 A 4,4 0 0 0 27,34 Z M 38,53 A 4,4 0 0 0 42,49 4,4 0 0 0 38,45 H 34 V 49 A 4,4 0 0 0 38,53 Z M 53,38 A 4,4 0 0 0 49,34 H 38 A 4,4 0 0 0 34,38 4,4 0 0 0 38,42 H 49 A 4,4 0 0 0 53,38 Z M 49,23 A 4,4 0 0 1 53,27 4,4 0 0 1 49,31 H 45 V 27 A 4,4 0 0 1 49,23 Z M 38,12 A 4,4 0 0 0 34,16 V 27 A 4,4 0 0 0 38,31 4,4 0 0 0 42,27 V 16 A 4,4 0 0 0 38,12 Z"/>
 <path style="fill:#2eb67d" d="M 49,22 A 4,4 0 0 1 53,26 4,4 0 0 1 49,30 H 45 V 26 A 4,4 0 0 1 49,22 Z M 38,11 A 4,4 0 0 0 34,15 V 26 A 4,4 0 0 0 38,30 4,4 0 0 0 42,26 V 15 A 4,4 0 0 0 38,11 Z"/>
 <path style="fill:#ecb22e" d="M 38,52 A 4,4 0 0 0 42,48 4,4 0 0 0 38,44 H 34 V 48 A 4,4 0 0 0 38,52 Z M 53,37 A 4,4 0 0 0 49,33 H 38 A 4,4 0 0 0 34,37 4,4 0 0 0 38,41 H 49 A 4,4 0 0 0 53,37 Z"/>
 <path style="fill:#e01e5a" d="M 16,41 A 4,4 0 0 1 12,37 4,4 0 0 1 16,33 H 20 V 37 A 4,4 0 0 1 16,41 Z M 27,33 A 4,4 0 0 0 23,37 V 48 A 4,4 0 0 0 27,52 4,4 0 0 0 31,48 V 37 A 4,4 0 0 0 27,33 Z"/>
 <path style="fill:#36c5f0" d="M 31,26 A 4,4 0 0 0 27,22 H 16 A 4,4 0 0 0 12,26 4,4 0 0 0 16,30 H 27 A 4,4 0 0 0 31,26 Z M 27,11 A 4,4 0 0 0 23,15 4,4 0 0 0 27,19 H 31 V 15 A 4,4 0 0 0 27,11 Z"/>
</svg>
