<svg xmlns="http://www.w3.org/2000/svg" width="64" height="64" version="1">
 <rect style="opacity:0.2" width="56" height="56" x="4" y="5" rx="2.8" ry="2.8"/>
 <rect style="fill:#4f4f4f" width="56" height="56" x="4" y="4" rx="2.8" ry="2.8"/>
 <path style="opacity:0.2" d="m 41.300781,16.000304 c -1.467191,0.0061 -2.937664,0.124084 -4.359375,0.238281 -2.349845,0.321444 -4.772189,0.738483 -6.865234,1.945313 -0.698599,0.380658 -1.554675,1.37408 -0.753906,2.101562 1.203915,1.11096 2.937724,1.273573 4.478515,1.527344 4.503639,0.448332 9.216186,0.154902 13.449219,-1.582031 1.115432,-0.335543 2.628076,-1.908672 1.109375,-2.796875 C 46.18142,16.290159 43.7461,15.990143 41.300781,16.000304 Z m -1.189453,0.832031 c 1.775063,-0.03916 3.549637,0.122035 5.246094,0.671875 0.566061,0.231216 1.429484,0.57246 1.25,1.353516 -0.97473,1.187092 -2.577405,1.460256 -3.97461,1.818359 -3.250021,0.609056 -6.691789,0.831745 -9.90039,-0.126953 -0.585389,-0.205835 -1.766291,-0.693568 -1.216797,-1.5 1.441385,-1.381651 3.551347,-1.626701 5.417969,-1.970703 1.047902,-0.126886 2.112697,-0.2226 3.177734,-0.246094 z M 21.277344,23.000304 C 16.712287,22.953357 12.288607,24.785507 8,26.304992 c 3.007595,5.167757 7.159029,9.923877 12.574219,12.404296 3.934176,1.901565 8.802997,1.765541 12.425781,-0.822265 -3.734176,-2.480421 -4.513111,-7.253482 -5.789062,-11.28711 -0.35443,-1.906806 -2.143436,-3.310353 -3.96875,-3.457031 -0.657912,-0.08971 -1.312693,-0.135871 -1.964844,-0.142578 z m 23.863281,3.001953 c -0.993258,0.009 -1.965899,0.077 -2.890625,0.222656 -2.478761,0.381993 -4.945109,1.908319 -5.769531,4.378907 -0.928849,2.737155 -0.616775,6.318238 1.886719,8.134765 2.734331,2.094089 6.402901,1.828913 9.425781,3.230469 1.775256,0.884903 1.330925,3.800826 -0.5625,4.259766 C 43.498587,47.303346 39.314175,45.845145 36,44.146788 v 5.171875 c 3.872034,1.39055 8.358575,2.06871 12.453125,1.453125 2.146243,-0.332528 4.377264,-1.310464 5.490234,-3.27539 1.552662,-2.954263 1.616222,-7.406134 -1.324218,-9.533203 -2.940437,-2.088594 -6.756981,-1.820217 -9.980469,-3.164063 -1.717545,-0.733757 -1.357807,-3.488551 0.365234,-3.980469 3.451579,-1.077275 7.825977,0.04275 11,1.488282 -0.0027,-1.720341 0.0087,-3.437862 -0.0078,-5.158203 -2.699981,-0.655446 -5.875694,-1.173541 -8.855469,-1.146485 z"/>
 <path style="fill:#4d88ef" d="m 36.941307,15.238307 c 3.791229,-0.304526 7.93314,-0.634431 11.417868,1.195551 1.518701,0.888203 0.0054,2.461596 -1.110032,2.797139 -4.233033,1.736933 -8.943767,2.03018 -13.447406,1.581848 -1.540791,-0.253771 -3.274872,-0.417314 -4.478787,-1.528274 -0.800769,-0.727482 0.05523,-1.720015 0.753829,-2.100673 2.093045,-1.20683 4.514683,-1.624147 6.864528,-1.945591 m -0.0085,0.840271 c -1.866622,0.344002 -3.976237,0.589315 -5.417622,1.970966 -0.549494,0.806432 0.632333,1.294242 1.217722,1.500077 3.208601,0.958698 6.649148,0.735941 9.899169,0.126885 1.397204,-0.358103 3.001505,-0.631613 3.976235,-1.818705 0.179484,-0.781056 -0.684797,-1.122237 -1.250858,-1.353453 -2.714331,-0.879745 -5.630239,-0.764137 -8.424646,-0.425774 z"/>
 <path style="fill:#4d88ef" d="m 8,25.303737 c 4.901265,-1.736554 9.979747,-3.87909 15.243039,-3.161419 1.825315,0.146678 3.612657,1.550588 3.967087,3.457394 C 28.486077,29.63334 29.265824,34.40559 33,36.886011 29.377216,39.473817 24.50886,39.610016 20.574684,37.708451 15.159494,35.228032 11.007595,30.471495 8,25.303737 Z"/>
 <path style="fill:#4d88ef" d="m 42.250619,25.225417 c 3.698904,-0.582609 8.145307,0.04945 11.745281,0.923377 0.01649,1.720342 0.0055,3.437937 0.0082,5.158278 -3.174023,-1.445528 -7.548974,-2.566772 -11.000553,-1.489497 -1.723041,0.491918 -2.083038,3.248312 -0.365493,3.982069 3.223488,1.343846 7.040561,1.074527 9.980998,3.163121 2.94044,2.127069 2.877234,6.579069 1.324572,9.533332 -1.11297,1.964926 -3.344405,2.943266 -5.490648,3.275794 C 44.358426,50.387476 39.872034,49.708669 36,48.318119 v -5.172018 c 3.314175,1.698357 7.498279,3.157623 11.230161,2.083097 1.893425,-0.45894 2.338611,-3.374728 0.563355,-4.259631 -3.02288,-1.401556 -6.691557,-1.137735 -9.425889,-3.231824 -2.503494,-1.816527 -2.816774,-5.397368 -1.887925,-8.134523 0.824422,-2.470588 3.292191,-3.99581 5.770952,-4.377803 z"/>
 <path style="fill:#8b9cbe;opacity:0.1" d="M 6.8007812 4 C 5.2495813 4 4 5.2495813 4 6.8007812 L 4 7.8007812 C 4 6.2495813 5.2495813 5 6.8007812 5 L 57.199219 5 C 58.750419 5 60 6.2495813 60 7.8007812 L 60 6.8007812 C 60 5.2495813 58.750419 4 57.199219 4 L 6.8007812 4 z"/>
 <path style="opacity:0.2;fill:#8b9cbe" d="M 41.300781 15 C 39.83359 15.006096 38.363117 15.124084 36.941406 15.238281 C 34.591561 15.559725 32.169217 15.976764 30.076172 17.183594 C 29.441836 17.529235 28.691985 18.377935 29.15625 19.076172 C 29.361638 18.701724 29.736027 18.368935 30.076172 18.183594 C 31.158693 17.559423 32.330099 17.151198 33.533203 16.853516 C 34.625202 16.457524 35.821496 16.283075 36.933594 16.078125 C 37.981496 15.951239 39.046291 15.855525 40.111328 15.832031 C 41.390298 15.803819 42.668544 15.886475 43.917969 16.136719 C 45.460799 16.316979 46.962946 16.700268 48.359375 17.433594 C 48.597221 17.572697 48.753153 17.729214 48.855469 17.894531 C 49.099744 17.386337 49.052911 16.839204 48.359375 16.433594 C 46.18142 15.289855 43.7461 14.989839 41.300781 15 z M 46.380859 18.089844 C 45.396406 19.074152 43.929425 19.34346 42.632812 19.675781 C 39.382791 20.284837 35.941023 20.507526 32.732422 19.548828 C 32.414373 19.436995 31.927457 19.239239 31.630859 18.955078 C 31.593708 18.988467 31.551942 19.014016 31.515625 19.048828 C 30.966131 19.85526 32.147033 20.342993 32.732422 20.548828 C 33.062424 20.647429 33.395996 20.726308 33.730469 20.800781 C 33.753533 20.804529 33.777801 20.808715 33.800781 20.8125 C 37.497332 21.180487 41.330376 21.035127 44.927734 20.015625 C 45.566673 19.7586 46.155432 19.407886 46.607422 18.857422 C 46.682123 18.532345 46.570842 18.286325 46.380859 18.089844 z M 21.277344 22 C 16.712287 21.953053 12.288607 23.785202 8 25.304688 C 8.1607944 25.58097 8.3385078 25.849402 8.5058594 26.123047 C 12.637319 24.642596 16.890354 22.954884 21.277344 23 C 21.929495 23.006707 22.584276 23.052868 23.242188 23.142578 C 25.067501 23.289256 26.856507 24.692803 27.210938 26.599609 C 28.400874 30.361322 29.161609 34.764889 32.287109 37.353516 C 32.529227 37.20756 32.767565 37.05275 33 36.886719 C 29.265824 34.406298 28.486889 29.633237 27.210938 25.599609 C 26.856508 23.692803 25.067501 22.289256 23.242188 22.142578 C 22.584276 22.052869 21.929495 22.006707 21.277344 22 z M 45.140625 25.001953 C 44.147367 25.010972 43.174726 25.078957 42.25 25.224609 C 39.771239 25.606602 37.304891 27.132928 36.480469 29.603516 C 36.117314 30.67367 35.952365 31.870703 36.025391 33.042969 C 36.070132 32.201972 36.220534 31.369497 36.480469 30.603516 C 37.304891 28.132928 39.771239 26.606602 42.25 26.224609 C 43.174726 26.078953 44.147367 26.010953 45.140625 26.001953 C 48.1204 25.974897 51.296113 26.492991 53.996094 27.148438 C 54.009395 28.535263 54.002911 29.920526 54.001953 31.306641 C 54.002483 31.306882 54.003376 31.306399 54.003906 31.306641 C 54.001206 29.5863 54.012584 27.868779 53.996094 26.148438 C 51.296113 25.492992 48.1204 24.974897 45.140625 25.001953 z M 41.587891 32.482422 C 41.399213 33.393238 41.697648 34.396811 42.638672 34.798828 C 45.86216 36.142674 49.678704 35.874297 52.619141 37.962891 C 54.177156 39.089935 54.885797 40.870568 54.982422 42.734375 C 55.119622 40.524454 54.454755 38.290746 52.619141 36.962891 C 49.678704 34.874297 45.86216 35.142674 42.638672 33.798828 C 42.044399 33.544947 41.714366 33.042759 41.587891 32.482422 z M 36 43.146484 L 36 44.146484 C 39.314175 45.844841 43.498587 47.303042 47.230469 46.228516 C 48.479579 45.925749 49.079154 44.559077 48.845703 43.40625 C 48.678166 44.244869 48.123424 45.012076 47.230469 45.228516 C 43.498587 46.303042 39.314175 44.844841 36 43.146484 z"/>
</svg>
