<svg xmlns="http://www.w3.org/2000/svg" width="64" height="64" version="1">
 <path style="opacity:.2" d="m4 53v1c0 1.662 1.338 3 3 3h50c1.662 0 3-1.338 3-3v-1c0 1.662-1.338 3-3 3h-50c-1.662 0-3-1.338-3-3z"/>
 <rect style="fill:#4f4f4f" width="56" height="48" x="4" y="8" rx="3" ry="3"/>
 <path style="opacity:.1;fill:#8b9cbe" d="m7 8c-1.662 0-3 1.338-3 3v1c0-1.662 1.338-3 3-3h50c1.662 0 3 1.338 3 3v-1c0-1.662-1.338-3-3-3h-50z"/>
 <path style="opacity:.2" d="m12 15v2h-1c-1.662 0-3 1.338-3 3s1.338 3 3 3h1v2h-3.8164c0.412 1.164 1.508 2 2.8164 2h1v2h2v-2h1c1.662 0 3-1.338 3-3s-1.338-3-3-3h-1v-2h3.8164c-0.412-1.164-1.508-2-2.816-2h-1v-2h-2zm-1 4h1v2h-1c-0.554 0-1-0.446-1-1s0.446-1 1-1zm3 4h1c0.554 0 1 0.446 1 1s-0.4466 1.0257-1 1h-1zm8 4v2h12v-2z"/>
 <path style="fill:#8b9cbe" d="m12 14v2h-1c-1.662 0-3 1.338-3 3s1.338 3 3 3h1v2h-3.8164c0.412 1.164 1.508 2 2.8164 2h1v2h2v-2h1c1.662 0 3-1.338 3-3s-1.338-3-3-3h-1v-2h3.8164c-0.412-1.164-1.508-2-2.816-2h-1v-2h-2zm-1 4h1v2h-1c-0.554 0-1-0.446-1-1s0.446-1 1-1zm3 4h1c0.554 0 1 0.446 1 1s-0.4466 1.0257-1 1h-1zm8 4v2h12v-2z"/>
 <path style="opacity:0.2" d="M 63.958,45.852 A 16,16 0 0 1 48,61.004 16,16 0 0 1 32.042,46.156 16,16 0 0 0 32,47 16,16 0 0 0 48,63 16,16 0 0 0 64,47 16,16 0 0 0 63.95704,45.85156 Z"/>
 <circle style="fill:#bb46da" cx="48" cy="46.002" r="16"/>
 <path style="fill:#8b9cbe" d="m 40,38.004 h 1.34374 c 8.1,0 14.66,6.556 14.66,14.656 v 1.344 h -1.64349 c -0.72872,0 -1.3125,-0.61022 -1.3125,-1.34376 0,-6.6274 -5.07287,-11.70024 -11.70027,-11.70024 -0.72,0 -1.34,-0.578 -1.34,-1.312 v -1.64376 z"/>
 <path style="fill:#8b9cbe" d="m 40,43.004139 h 1.387101 c 5.320932,0 9.612899,4.291967 9.612899,9.6129 v 1.387121 h -1.55438 c -0.743233,0 -1.38324,-0.629684 -1.38324,-1.387369 0,-3.800814 -2.877011,-6.671107 -6.67576,-6.671107 -0.743234,0 -1.383425,-0.629683 -1.383241,-1.387368 l 3.78e-4,-1.554528 z"/>
 <path style="fill:#8b9cbe" d="M 42.483521,48.996629 C 43.862509,48.996629 45,50.134026 45,51.513109 45,52.891386 43.857678,54 42.490637,54 41.104869,54 40,52.891386 40,51.513109 c 0,-1.378989 1.108127,-2.51648 2.487079,-2.51648 z"/>
</svg>
