<svg xmlns="http://www.w3.org/2000/svg" width="64" height="64" version="1">
 <rect style="opacity:0.2" width="56" height="56" x="4" y="5" rx="2.8" ry="2.8"/>
 <rect style="fill:#f1d27a" width="56" height="56" x="4" y="4" rx="2.8" ry="2.8"/>
 <path style="opacity:0.2;fill:none;stroke:#000000;stroke-width:12;stroke-linecap:round;stroke-linejoin:round" d="m 18,29.000802 c 0,-12.599999 8.4,-10 28,-10"/>
 <path style="fill:none;stroke:#454545;stroke-width:12;stroke-linecap:round;stroke-linejoin:round" d="M 18,28 C 18,15.4 26.4,18 46,18"/>
 <path style="opacity:0.2;fill:none;stroke:#000000;stroke-width:12;stroke-linecap:round;stroke-linejoin:round" d="m 46.079198,37.000802 c 0,12.6 -8.4,10 -28,10"/>
 <path style="fill:none;stroke:#454545;stroke-width:12;stroke-linecap:round;stroke-linejoin:round" d="m 46.079198,36 c 0,12.6 -8.4,10 -28,10"/>
 <path style="opacity:0.2;fill:#8b9cbe" d="M 6.8007812 4 C 5.2495812 4 4 5.2495812 4 6.8007812 L 4 7.8007812 C 4 6.2495813 5.2495812 5 6.8007812 5 L 57.199219 5 C 58.750419 5 60 6.2495812 60 7.8007812 L 60 6.8007812 C 60 5.2495813 58.750419 4 57.199219 4 L 6.8007812 4 z"/>
</svg>
