<svg xmlns="http://www.w3.org/2000/svg" width="64" height="64" version="1">
 <rect style="opacity:0.2" width="56" height="56" x="4" y="5" rx="16.8" ry="16.8"/>
 <rect style="fill:#f4b400" width="56" height="56" x="4" y="4" rx="16.8" ry="16.8"/>
 <path style="opacity:0.1" d="M 31.9996,15.000514 A 17.999743,17.999743 0 0 0 15.074042,27.000343 H 9.9999146 l 3.9999424,5.999914 3.999943,5.999914 3.999943,-5.999914 3.999943,-5.999914 H 21.632548 A 11.999828,11.999828 0 0 1 32.0004,21.000429 11.999828,11.999828 0 0 1 43.312238,29.036314 l 2.687962,-4.035943 3.843945,5.765918 A 17.999743,17.999743 0 0 0 32.0004,15.000514 Z m 13.9998,11.999829 -3.999943,5.999914 -3.999943,5.999914 h 4.367138 A 11.999828,11.999828 0 0 1 31.9988,45.000085 11.999828,11.999828 0 0 1 20.686962,36.9642 L 17.999,41.000143 14.155255,35.234225 A 17.999743,17.999743 0 0 0 31.9988,51 17.999743,17.999743 0 0 0 48.924558,39.000171 h 5.073927 L 49.998543,33.000257 45.9986,27.000343 Z"/>
 <path style="fill:#17191e" d="M 31.9996,14.000686 A 17.999743,17.999743 0 0 0 15.074042,26.000515 l -5.0741274,0 3.9999424,5.999914 3.999943,5.999914 3.999943,-5.999914 3.999943,-5.999914 -4.367138,0 A 11.999828,11.999828 0 0 1 32.0004,20.000601 11.999828,11.999828 0 0 1 43.312238,28.036486 l 2.687962,-4.035943 3.843945,5.765918 A 17.999743,17.999743 0 0 0 32.0004,14.000686 Z m 13.9998,11.999829 -3.999943,5.999914 -3.999943,5.999914 4.367138,0 A 11.999828,11.999828 0 0 1 31.9988,44.000257 11.999828,11.999828 0 0 1 20.686962,35.964372 L 17.999,40.000315 14.155255,34.234397 A 17.999743,17.999743 0 0 0 31.9988,50.000172 17.999743,17.999743 0 0 0 48.924558,38.000343 l 5.073927,0 -3.999942,-5.999914 -3.999943,-5.999914 z"/>
 <path style="fill:#8b9cbe;opacity:0.2" d="M 20.800781 4 C 11.493416 4 4 11.493416 4 20.800781 L 4 21.800781 C 4 12.493416 11.493416 5 20.800781 5 L 43.199219 5 C 52.506584 5 60 12.493416 60 21.800781 L 60 20.800781 C 60 11.493416 52.506584 4 43.199219 4 L 20.800781 4 z"/>
</svg>
