<svg xmlns="http://www.w3.org/2000/svg" width="64" height="64" version="1.1">
 <circle style="opacity:0.2" cx="32" cy="33" r="28"/>
 <circle style="fill:#4f4f4f" cx="32" cy="32" r="28"/>
 <path style="opacity:0.2" d="m 24,20.99995 0,2 6,0 0,2 -8,0 0,6 -2,0 0,-6 -2,0 0,14 2,0 0,-6 2,0 0,6 4,4 13,0 2,-2 3,0 0,2 2,0 2,-1.9996 0,-12 -2,-2.0004 -2,0 0,2 -1.75002,4e-4 -4,-4 -6.25,0 0,-2 6,-4e-4 0,-2 z m 0,6 13,0 4,4 5,0 0,8 -6,0 -2,2 -10.75,0 -3.25,-3.4 z"/>
 <path style="fill:#ffa92c" d="m 24,20 0,2 6,0 0,2 -8,0 0,6 -2,0 0,-6 -2,0 0,14 2,0 0,-6 2,0 0,6 4,4 13,0 2,-2 3,0 0,2 2,0 2,-1.9996 0,-12 L 46,26 l -2,0 0,2 -1.75002,4e-4 -4,-4 -6.25,0 0,-2 6,-4e-4 0,-2 z m 0,6 13,0 4,4 5,0 0,8 -6,0 -2,2 L 27.25,40 24,36.6 Z"/>
 <path style="opacity:0.1;fill:#8b9cbe" d="M 31.998047 4 A 28 28 0 0 0 4 32 A 28 28 0 0 0 4.0175781 32.492188 A 28 28 0 0 1 31.998047 5 L 32 5 A 28 28 0 0 1 59.972656 32.5 A 28 28 0 0 0 59.998047 32 A 28 28 0 0 0 32 4 L 31.998047 4 z"/>
</svg>
