<svg xmlns="http://www.w3.org/2000/svg" width="64" height="64" version="1">
 <path style="opacity:0.2" d="M 32,5 A 28,28 0 0 0 4,33 28,28 0 0 0 6.1835938,43.769532 l -1.9101562,7.125 a 8.0307842,8.0302018 0 0 0 9.8320314,9.83203 l 7.093749,-1.898438 A 28,28 0 0 0 32,61 28,28 0 0 0 60,33 28,28 0 0 0 32,5 Z"/>
 <circle style="fill:#3a76f0" cx="32" cy="32" r="28"/>
 <path style="fill:#3a76f0" d="m 19.611403,15.200825 a 8.0307842,8.0302018 0 0 0 -7.637892,5.951477 L 4.272885,49.894258 a 8.0307842,8.0302018 0 0 0 9.833591,9.832878 l 28.74404,-7.700068 A 8.0307842,8.0302018 0 0 0 46.449888,38.595076 L 25.406478,17.553188 a 8.0307842,8.0302018 0 0 0 -5.795075,-2.352363 z"/>
 <path style="opacity:0.2" d="m 32,13 a 20,20 0 0 0 -20,20 20,20 0 0 0 2.6875,9.964844 L 12,53 22.023438,50.3125 A 20,20 0 0 0 32,53 20,20 0 0 0 52,33 20,20 0 0 0 32,13 Z"/>
 <circle style="fill:#8b9cbe" cx="32" cy="32" r="20"/>
 <path style="fill:#8b9cbe" d="M 16.593421,34.857118 29.142863,47.40656 12.000006,51.999974 Z"/>
 <path style="opacity:0.5;fill:#8b9cbe" d="m 29.524558,7.1207308 -0.14106,0.01358 -2.338444,0.3608042 -0.13564,0.027128 -0.756876,0.195324 0.697196,2.688398 0.670066,-0.17362 2.22451,-0.34182 2.327594,-0.119364 -0.14106,-2.7724956 z m 4.864074,1.5164628 -0.1926,1.2424686 2.286898,0.3526658 2.129562,0.553414 0.705332,0.26043 0.957622,-2.6070138 -0.792142,-0.292984 -0.13022,-0.040692 -2.259772,-0.583255 -0.13564,-0.027128 -2.338444,-0.3608042 -0.14106,-0.01358 h -0.0136 z m -12.036754,0.306548 -0.12478,0.054254 -2.064452,0.9956024 -0.11664,0.065108 -1.863701,1.133956 1.445931,2.373713 1.804012,-1.101403 1.964076,-0.946772 0.930494,-0.341814 -0.957624,-2.6070142 z m 19.396618,3.1251614 0.821984,0.39607 1.850136,1.128531 1.747052,1.310288 0.675492,-0.903366 1.109542,-1.218053 -0.019,-0.01628 -0.10038,-0.0841 -1.820298,-1.364545 -0.10852,-0.07325 -1.9478,-1.1855 -0.11666,-0.065106 -0.881664,-0.4259116 z m -27.358727,2.221794 -0.09495,0.09495 -1.524601,1.679233 -0.0841,0.100366 -0.854536,1.139382 2.221794,1.665668 0.81927,-1.093264 1.435079,-1.573432 1.326565,-1.209915 -1.866415,-2.0536 z m 33.619901,2.357435 1.120392,1.228904 1.275022,1.700935 0.78129,1.283159 2.373712,-1.445928 -0.805706,-1.321141 -0.07324,-0.10852 -1.364544,-1.820298 -0.0841,-0.100366 -1.16651,-1.285873 z m -37.946838,3.39373 -0.065108,0.11664 -0.9956026,2.064454 -0.054254,0.12478 -0.7975674,2.167538 -0.040692,0.13022 -0.151918,0.588678 2.691111,0.69448 0.141064,-0.545248 0.73246,-1.991204 0.946772,-1.964076 0.146492,-0.238728 -2.371,-1.445929 z m 42.330746,3.168564 0.0841,0.17904 0.73517,1.993916 0.553416,2.132274 0.09494,0.60767 2.745368,-0.420486 -0.10308,-0.661928 -0.02712,-0.13564 -0.583256,-2.259774 -0.0407,-0.13022 -0.797566,-2.167538 -0.05426,-0.12478 -0.1058,-0.22245 z m -45.2551592,6.16894 -0.01358,0.14106 -0.122076,2.406264 -0.00272,0.11938 0.046118,1.30215 0.00544,0.0895 0.054256,0.526288 L 9.870208,33.687304 9.818666,33.196284 9.777974,31.989082 9.894624,29.74016 10.08452,28.503116 7.3391528,28.079918 Z m 47.0211992,1.361832 0.0651,1.256034 -0.11666,2.25706 -0.265856,1.736202 2.745368,0.420486 0.276708,-1.795884 0.0136,-0.14106 0.12208,-2.406268 v -0.14106 l -0.06782,-1.326566 z m -46.587149,6.125532 0.116652,0.529 0.02984,0.10852 0.7541622,2.44967 0.046118,0.1275 0.9413458,2.25978 2.566323,-1.06886 -0.916931,-2.200092 -0.718896,-2.32217 -0.108512,-0.485592 z m 45.659365,1.687372 h -0.0028 l -0.0136,0.04884 -0.735174,1.999342 -0.94677,1.964078 -0.409636,0.670064 2.373712,1.44593 0.442188,-0.729746 0.0651,-0.11666 0.995602,-2.064452 0.05426,-0.12478 0.797566,-2.167538 0.0407,-0.1302 0.02442,-0.10038 -2.338446,-0.604958 -0.333674,-0.12208 z M 7.3256032,49.489454 10.008576,50.21106 11.44908,44.842404 8.766107,44.123508 Z m 41.8017468,-3.369316 -1.432366,1.570718 -1.573432,1.43508 -0.02984,0.0217 0.0028,0.0028 -0.02712,0.02442 0.255006,0.282132 1.435078,1.915248 0.07596,-0.05968 0.10038,-0.08412 1.679234,-1.5246 0.09494,-0.09494 1.524602,-1.679232 0.0841,-0.10038 0.553414,-0.737884 -2.224508,-1.665668 z m -6.55687,5.409352 -1.96408,0.94677 -1.402524,0.515436 0.957624,2.607014 1.489334,-0.54799 0.12478,-0.05424 2.064454,-0.995602 0.11666,-0.0651 1.432364,-0.873524 -1.443218,-2.371002 z m -34.0186852,1.05257 -1.367258,0.295698 v 0.0028 l 0.084098,0.257718 0.4204862,0.973898 0.179044,0.301124 0.6456498,0.83012 0.2414404,0.24144 0.830121,0.64565 0.3011222,0.17904 0.9739006,0.420486 0.257717,0.0841 0.528998,0.11394 0.184472,0.02712 0.547989,0.04334 0.189896,0.0028 0.238727,-0.0136 -0.160058,-2.772496 -0.127502,0.0082 -0.379793,-0.03014 -0.306546,-0.06765 -0.683629,-0.295696 -0.550701,-0.431338 -0.431337,-0.550702 -0.352666,-0.813844 z m 6.5188912,1.063424 0.718896,2.682972 5.365944,-1.43779 -0.718894,-2.682974 z m 7.812904,1.40795 1.030868,0.428624 0.12478,0.04612 2.455096,0.754162 0.10852,0.02984 1.25332,0.276708 0.07868,0.0162 0.580542,0.09224 0.44219,-2.742654 -0.501872,-0.07868 -0.0162,-0.0028 -1.196364,-0.265858 -2.33302,-0.718896 -0.957624,-0.398784 z m 13.59662,-1.2913 -2.221792,0.341816 -2.25435,0.11664 -0.458464,-0.0162 -0.09494,2.775208 0.496446,0.019 0.11936,-0.0028 2.41169,-0.12208 0.14106,-0.0136 2.338444,-0.360804 0.13564,-0.02712 0.268568,-0.07054 -0.69448,-2.688398 z"/>
 <path style="opacity:0.2;fill:#8b9cbe" d="M 32 4 A 28 28 0 0 0 4 32 A 28 28 0 0 0 4.0214844 32.404297 A 28 28 0 0 1 32 5 A 28 28 0 0 1 59.978516 32.585938 A 28 28 0 0 0 60 32 A 28 28 0 0 0 32 4 z M 6.0273438 43.345703 L 4.2734375 49.894531 A 8.0307842 8.0302018 0 0 0 4.0195312 52.4375 A 8.0307842 8.0302018 0 0 1 4.2734375 50.894531 L 6.1816406 43.769531 A 28 28 0 0 1 6.0273438 43.345703 z"/>
</svg>
