<svg xmlns="http://www.w3.org/2000/svg" width="64" height="64" version="1">
 <path style="opacity:0.2" d="m 32,19 c 0,3.643036 0,14 0,14 0,0 9.91105,0 14,0 7.731986,0 14,-6.268014 14,-14 C 60,11.268013 53.731986,5 46,5 38.268014,5 32,11.268013 32,19 Z"/>
 <path style="opacity:0.2" d="m 32,19 c 0,3.643036 0,14 0,14 0,0 -9.91105,0 -14,0 C 10.268013,33 4,26.731986 4,19 4,11.268013 10.268013,5 18,5 c 7.731986,0 14,6.268013 14,14 z"/>
 <path style="opacity:0.2" d="m 32,47 c 0,-3.643036 0,-14 0,-14 0,0 -9.91105,0 -14,0 -7.731986,0 -14,6.268014 -14,14 0,7.731986 6.268014,14 14,14 7.731986,0 14,-6.268014 14,-14 z"/>
 <path style="opacity:0.2" d="m 32,47 c 0,-3.643036 0,-14 0,-14 0,0 9.91105,0 14,0 7.731986,0 14,6.268014 14,14 0,7.731986 -6.268014,14 -14,14 -7.731986,0 -14,-6.268014 -14,-14 z"/>
 <path style="fill:#d32f2f" d="m 32,18 c 0,3.643036 0,14 0,14 0,0 -9.91105,0 -14,0 C 10.268013,32 4,25.731986 4,18 4,10.268013 10.268013,4 18,4 c 7.731986,0 14,6.268013 14,14 z"/>
 <path style="fill:#92dc39" d="m 32,18 c 0,3.643036 0,14 0,14 0,0 9.91105,0 14,0 7.731986,0 14,-6.268014 14,-14 C 60,10.268013 53.731986,4 46,4 38.268014,4 32,10.268013 32,18 Z"/>
 <path style="fill:#fdd835" d="m 32,46 c 0,-3.643036 0,-14 0,-14 0,0 9.91105,0 14,0 7.731986,0 14,6.268014 14,14 0,7.731986 -6.268014,14 -14,14 -7.731986,0 -14,-6.268014 -14,-14 z"/>
 <path style="opacity:0.2;fill:#8b9cbe" d="M 32 32 L 32 33 L 46 33 C 53.562551 33 59.708177 39.000507 59.974609 46.498047 C 59.9843 46.332437 60 46.168337 60 46 C 60 38.268014 53.731986 32 46 32 L 32 32 z"/>
 <path style="fill:#2f58d3" d="m 32,46 c 0,-3.643036 0,-14 0,-14 0,0 -9.91105,0 -14,0 -7.731986,0 -14,6.268014 -14,14 0,7.731986 6.268014,14 14,14 7.731986,0 14,-6.268014 14,-14 z"/>
 <path style="opacity:0.1;fill:#8b9cbe" d="M 18 32 C 10.268014 32 4 38.268014 4 46 C 4 46.168337 4.0157003 46.332437 4.0253906 46.498047 C 4.2918225 39.000507 10.437449 33 18 33 L 32 33 L 32 32 L 18 32 z"/>
 <circle style="opacity:0.2" cx="32" cy="33" r="11"/>
 <circle style="fill:#8b9cbe" cx="32" cy="32" r="11"/>
 <path style="opacity:0.1;fill:#8b9cbe" d="M 18 4 C 10.268013 4 4 10.268013 4 18 C 4 18.168337 4.0157004 18.332437 4.0253906 18.498047 C 4.2918225 11.000507 10.437448 5 18 5 C 25.731986 5 32 11.268013 32 19 L 32 18 C 32 10.268013 25.731986 4 18 4 z"/>
 <path style="opacity:0.2;fill:#8b9cbe" d="M 46 4 C 38.268014 4 32 10.268013 32 18 L 32 19 C 32 11.268013 38.268014 5 46 5 C 53.562551 5 59.708177 11.000507 59.974609 18.498047 C 59.9843 18.332437 60 18.168337 60 18 C 60 10.268013 53.731986 4 46 4 z"/>
</svg>
