<svg xmlns="http://www.w3.org/2000/svg" width="64" height="64" version="1.1">
 <path style="opacity:0.2" d="M 18.79616,6.9999999 A 3.5936044,3.539069 0 0 0 15.687443,8.7662727 L 9.085523,19.996536 2.483603,31.2268 a 3.5936044,3.539069 0 0 0 0,3.546398 l 6.60192,11.230264 6.60192,11.230264 A 3.5936044,3.539069 0 0 0 18.79616,59 H 32 45.20384 a 3.5936044,3.539069 0 0 0 3.11106,-1.766274 l 6.599576,-11.230264 6.60192,-11.230264 a 3.5936044,3.539069 0 0 0 0,-3.546398 L 54.914476,19.996536 48.3149,8.7662727 A 3.5936044,3.539069 0 0 0 45.20384,6.9999999 H 32 Z"/>
 <path style="fill:#3f474a" d="M 18.79616,6 A 3.5936044,3.539069 0 0 0 15.687443,7.7662728 L 9.085523,18.996536 2.483603,30.2268 a 3.5936044,3.539069 0 0 0 0,3.546398 l 6.60192,11.230264 6.60192,11.230264 A 3.5936044,3.539069 0 0 0 18.79616,58 H 32 45.20384 a 3.5936044,3.539069 0 0 0 3.11106,-1.766274 l 6.599576,-11.230264 6.60192,-11.230264 a 3.5936044,3.539069 0 0 0 0,-3.546398 L 54.914476,18.996536 48.3149,7.7662728 A 3.5936044,3.539069 0 0 0 45.20384,6 H 32 Z"/>
 <path style="opacity:0.2" d="M 20.460938,13 8.921875,33 20.460938,53 H 43.539062 L 55.078124,33 43.539062,13 Z"/>
 <path style="fill:#73d216" d="M 20.461354,12 8.9234032,31.999676 31.999862,32.000046 Z"/>
 <path style="fill:#ffe721" d="M 8.9229414,32.000692 20.461448,52 31.999956,32.000692 Z"/>
 <path style="fill:#f57900" d="M 20.462186,52 43.538646,51.99963 32.000692,31.999954 Z"/>
 <path style="fill:#ef2929" d="M 43.538828,51.999814 55.076782,32.00023 32.000324,31.99986 Z"/>
 <path style="fill:#8c398d" d="M 55.077058,32.000138 43.538554,12.000831 32.000044,32.000138 Z"/>
 <path style="fill:#3465a4" d="m 43.539108,12.000739 -23.07646,3.7e-4 11.537952,19.999677 z"/>
 <path style="opacity:0.1;fill:#8b9cbe" d="M 18.796875 6 A 3.5936044 3.539069 0 0 0 15.6875 7.765625 L 9.0859375 18.996094 L 2.484375 30.226562 A 3.5936044 3.539069 0 0 0 2.0410156 32.494141 A 3.5936044 3.539069 0 0 1 2.484375 31.226562 L 9.0859375 19.996094 L 15.6875 8.765625 A 3.5936044 3.539069 0 0 1 18.796875 7 L 32 7 L 45.203125 7 A 3.5936044 3.539069 0 0 1 48.316406 8.765625 L 54.914062 19.996094 L 61.515625 31.226562 A 3.5936044 3.539069 0 0 1 61.957031 32.496094 A 3.5936044 3.539069 0 0 0 61.515625 30.226562 L 54.914062 18.996094 L 48.316406 7.765625 A 3.5936044 3.539069 0 0 0 45.203125 6 L 32 6 L 18.796875 6 z"/>
 <path style="opacity:0.1;fill:#8b9cbe" d="M 20.460938 12 L 8.921875 32 L 9.2109375 32.5 L 20.460938 13 L 43.539062 13 L 54.789062 32.5 L 55.078125 32 L 43.539062 12 L 20.460938 12 z"/>
</svg>
