<svg xmlns="http://www.w3.org/2000/svg" width="64" height="64" version="1">
 <path style="opacity:0.2" d="m 32,3.9998727 c -1.519116,0 -3.040205,0.5656225 -4.175781,1.7011719 L 4.7011719,28.827998 C 3.5649249,29.964215 2.9985123,31.481027 3,32.999873 c 0.00149,1.517055 0.5701246,3.035043 1.7050781,4.169922 l 23.1230469,23.125 c 2.271154,2.271099 6.076501,2.27481 8.347656,0.0039 L 59.294922,37.171748 C 60.430498,36.0362 61,34.518636 61,32.999873 61,31.48111 60.430498,29.963547 59.294922,28.827998 L 36.175781,5.7010446 C 35.040205,4.5654954 33.519118,3.9998727 32,3.9998727 Z"/>
 <path style="fill:#8d49bc" d="m 32.000001,2.9999848 c -1.519116,0 -3.039647,0.5663665 -4.175223,1.7019159 L 4.7019191,27.827458 c -1.136247,1.136217 -1.7034036,2.653679 -1.7019159,4.172525 H 61 C 61,30.48122 60.430963,28.963007 59.295387,27.827458 L 36.175225,4.7019007 C 35.039649,3.5663515 33.519119,2.9999848 32.000001,2.9999848 Z M 61,31.999983 c 0,0.759382 -0.141947,1.519219 -0.426154,2.230561 C 60.857741,33.519065 61,32.759365 61,31.999983 Z m -0.426154,2.230561 c -0.284205,0.711343 -0.710671,1.37419 -1.278459,1.941964 0.567788,-0.567774 0.994566,-1.230483 1.278459,-1.941964 z"/>
 <path style="fill:#3a497d" d="m 3.0000032,31.999983 c 0.00149,1.517055 0.5696595,3.034949 1.704613,4.169828 L 27.827476,59.295368 c 2.271154,2.271099 6.076594,2.273704 8.347749,0.0028 L 59.295387,36.172508 C 60.430963,35.03696 61,33.518746 61,31.999983 Z"/>
 <path style="opacity:0.2" d="M 3 32 C 3.0003286 32.334612 3.0324232 32.669425 3.0878906 33 L 60.912109 33 C 60.96745 32.669165 61 32.334989 61 32 L 3 32 z"/>
 <path style="opacity:0.2" transform="matrix(1.0975003,0,0,1.3940126,-66.286748,27.668128)" d="M 98.666715,3.8248372 84.999292,11.715727 v -15.78178 z"/>
 <path style="fill:#8b9cbe" transform="matrix(1.0975003,0,0,1.3940126,-66.286748,26.668129)" d="M 98.666715,3.8248372 84.999292,11.715727 v -15.78178 z"/>
 <path style="fill:#8b9cbe;opacity:0.1" d="M 32 3 C 30.480884 3 28.959795 3.5656225 27.824219 4.7011719 L 4.7011719 27.828125 C 3.5649249 28.964342 2.9985123 30.481154 3 32 L 3.0859375 32 C 3.2803143 30.831041 3.8155435 29.71373 4.7011719 28.828125 L 27.824219 5.703125 C 28.959795 4.5675756 30.480884 4 32 4 C 33.519118 4 35.040205 4.5675758 36.175781 5.703125 L 59.294922 28.828125 C 60.180027 29.713209 60.71655 30.830905 60.912109 32 L 61 32 C 61 30.481237 60.430498 28.963674 59.294922 27.828125 L 36.175781 4.7011719 C 35.040205 3.5656227 33.519118 3 32 3 z"/>
</svg>
