<svg width="64" height="64" version="1.1" xmlns="http://www.w3.org/2000/svg">
 <g transform="translate(1)">
  <g style="fill:#8e8e8e">
   <rect transform="rotate(90)" x="40" y="-58" width="2" height="52"/>
   <rect transform="rotate(90)" x="46" y="-58" width="2" height="52"/>
   <rect transform="rotate(90)" x="52" y="-58" width="2" height="52"/>
   <rect transform="rotate(90)" x="22" y="-58" width="2" height="52"/>
   <rect transform="rotate(90)" x="28" y="-58" width="2" height="52"/>
   <rect transform="rotate(90)" x="34" y="-58" width="2" height="52"/>
   <rect transform="rotate(90)" x="16" y="-58" width="2" height="52"/>
   <rect transform="rotate(90)" x="10" y="-58" width="2" height="52"/>
   <rect transform="scale(-1)" x="-24" y="-58" width="2" height="52"/>
   <rect transform="scale(-1)" x="-18" y="-58" width="2" height="52"/>
   <rect transform="scale(-1)" x="-12" y="-58" width="2" height="52"/>
   <rect transform="scale(-1)" x="-42" y="-58" width="2" height="52"/>
   <rect transform="scale(-1)" x="-36" y="-58" width="2" height="52"/>
   <rect transform="scale(-1)" x="-30" y="-58" width="2" height="52"/>
   <rect transform="scale(-1)" x="-48" y="-58" width="2" height="52"/>
   <rect transform="scale(-1)" x="-54" y="-58" width="2" height="52"/>
  </g>
  <rect transform="matrix(0,-1,-1,0,0,0)" x="-57" y="-56" width="48" height="48" rx="2.5" ry="2.5" style="opacity:.2"/>
  <rect transform="matrix(0,-1,-1,0,0,0)" x="-56" y="-56" width="48" height="48" rx="2.5" ry="2.5" style="fill:#b7b7b7"/>
  <path d="m10.5 8c-1.385 0-2.5 1.115-2.5 2.5v1c0-1.385 1.115-2.5 2.5-2.5h43c1.385 0 2.5 1.115 2.5 2.5v-1c0-1.385-1.115-2.5-2.5-2.5z" style="fill:#8b9cbe;opacity:.2"/>
 </g>
 <path d="m23 39v3s0 4 4 4h12c4 0 4-4 4-4v-8s0-4-4-4h-9c-2 0-2-2-2-2v-1s0-2 2-2h6c2 0 2 2 2 2h5v-3s0-4-4-4h-12c-4 0-4 4-4 4v9s0 3 4 3h9c2 0 2 2 2 2v1s0 2-2 2h-6c-2 0-2-2-2-2z" style="opacity:.1"/>
 <path d="m23 38v3s0 4 4 4h12c4 0 4-4 4-4v-8s0-4-4-4h-9c-2 0-2-2-2-2v-1s0-2 2-2h6c2 0 2 2 2 2h5v-3s0-4-4-4h-12c-4 0-4 4-4 4v9s0 3 4 3h9c2 0 2 2 2 2v1s0 2-2 2h-6c-2 0-2-2-2-2z" style="fill:#008282"/>
</svg>
