<svg xmlns="http://www.w3.org/2000/svg" width="64" height="64" version="1">
 <rect style="opacity:0.2" width="56" height="56" x="4" y="5" rx="2.8" ry="2.8"/>
 <rect style="fill:#b2bfd9" width="56" height="56" x="4" y="4" rx="2.8" ry="2.8"/>
 <path style="opacity:0.1" d="M 31.832032,19.117188 12,33 27.117188,43.582032 28.308594,37.414062 22,33 30.273438,27.207032 Z m 5.421874,3.5625 -1.1875,6.167968 L 42,33 34.214844,38.449218 32.65625,46.539062 52,33 Z"/>
 <path style="fill:#483c8f" d="M 31.832032,18.117188 12,32 27.117188,42.582032 28.308594,36.414062 22,32 30.273438,26.207032 Z"/>
 <path style="fill:#4b8adf" d="m 37.253906,21.679688 -1.1875,6.167968 L 42,32 34.214844,37.449218 32.65625,45.539062 52,32 Z"/>
 <path style="opacity:0.2;fill:#8b9cbe" d="M 6.8007812 4 C 5.2495812 4 4 5.2495812 4 6.8007812 L 4 7.8007812 C 4 6.2495813 5.2495812 5 6.8007812 5 L 57.199219 5 C 58.750419 5 60 6.2495812 60 7.8007812 L 60 6.8007812 C 60 5.2495813 58.750419 4 57.199219 4 L 6.8007812 4 z"/>
</svg>
