<svg xmlns="http://www.w3.org/2000/svg" width="64" height="64" version="1.1">
 <ellipse style="opacity:0.2" cx="-5.801" cy="44.155" rx="5.206" ry="8.284" transform="matrix(0.85217299,-0.52326015,0.42093332,0.90709158,0,0)"/>
 <ellipse style="opacity:0.2" cx="-64.234" cy="10.447" rx="5.206" ry="8.284" transform="matrix(-0.85217299,-0.52326015,-0.42093332,0.90709158,0,0)"/>
 <path style="opacity:0.2" d="m 15,26.638571 v 13.081457 c -1.05966,1.992054 -3,4.704116 -3,8.407969 C 12,55.789467 20.9541,62 31.999621,62 43.045143,62 52,55.789467 52,48.127997 52,44.730219 50.059568,42.166958 49,40.227628 V 26.638571 L 32,20.224285 Z"/>
 <path style="fill:#ea2028" d="m 55,25.968 c 0,12.702549 -10.29745,23 -22.999999,23 -12.702549,0 -23.0000011,-10.297451 -23.0000011,-23 0,-12.702549 13.9266431,-22.9999999 23.0000011,-22.9999999 C 41.073359,2.9680001 55,13.265451 55,25.968 Z"/>
 <ellipse style="fill:#e5b493" cx="-63.81" cy="9.589" rx="5.206" ry="8.284" transform="matrix(-0.85217299,-0.52326015,-0.42093332,0.90709158,0,0)"/>
 <path style="opacity:0.1" d="m 52.568234,35.903302 c 0.969277,0.0017 1.818785,0.751129 2.077611,1.832698 -0.666012,-0.51476 -1.15057,-0.978706 -2.135302,-0.979755 -0.458259,4.62e-4 -1.366607,0.234841 -1.790389,0.358602 0.390105,-0.750932 1.09126,-1.210589 1.84808,-1.211545 z"/>
 <path style="opacity:0.1" d="m 52.854278,41.169337 c 0.376326,0.89324 0.01739,1.967708 -0.877688,2.627718 0.214372,-0.813996 0.452693,-1.441092 0.06974,-2.348309 -0.179085,-0.421819 -0.749053,-1.166914 -1.028238,-1.508911 0.843599,0.06647 1.540241,0.532942 1.836181,1.229502 z"/>
 <path style="fill:#a84e37" d="m 51.503726,28.082878 h -4.492372 v 17.232844 c 2.919504,-0.998702 4.734209,-2.50118 5.018646,-5.385396 0.133654,-1.628396 -0.888561,-3.5359 -0.976468,-5.408906 -0.13937,-2.969583 0.261148,-3.724395 0.450194,-6.438542 z"/>
 <ellipse style="fill:#e5b493" cx="-5.377" cy="43.297" rx="5.206" ry="8.284" transform="matrix(0.85217299,-0.52326015,0.42093332,0.90709158,0,0)"/>
 <path style="opacity:0.1" d="m 11.414148,35.903302 c -0.969277,0.0017 -1.8187853,0.751129 -2.0776107,1.832698 0.6660107,-0.51476 1.1505707,-0.978706 2.1353007,-0.979755 0.458259,4.62e-4 1.366607,0.234841 1.790389,0.358602 -0.390105,-0.750932 -1.09126,-1.210589 -1.848079,-1.211545 z"/>
 <path style="opacity:0.1" d="m 11.128103,41.169337 c -0.376325,0.89324 -0.01739,1.967708 0.877689,2.627718 -0.214373,-0.813996 -0.452694,-1.441092 -0.06975,-2.348309 0.179085,-0.421819 0.749053,-1.166914 1.028238,-1.508911 -0.843599,0.06647 -1.540241,0.532942 -1.836181,1.229502 z"/>
 <path style="fill:#a84e37" d="m 12.650391,28.082878 h 4.492373 V 45.315722 C 14.223259,44.31702 12.284437,42.814542 12,39.930326 c -0.133654,-1.628396 1.012678,-3.5359 1.100585,-5.408906 0.13937,-2.969583 -0.261148,-3.724395 -0.450194,-6.438542 z"/>
 <path style="fill:#f0c3a5" d="m 15,25.63857 v 13.081457 c -1.05966,1.992054 -3,4.704116 -3,8.407969 0,7.66147 8.9541,13.872003 19.999621,13.872003 C 43.045143,60.999999 52,54.789466 52,47.127996 52,43.730218 50.059568,41.166957 49,39.227627 V 25.63857 L 32,19.224284 Z"/>
 <path style="opacity:0.1" d="m 25.882466,54.143445 a 7.4133794,3.4401956 0 0 0 6.418351,1.726848 7.4133794,3.4401956 0 0 0 5.849181,-1.334508 11.435017,3.4401956 0 0 1 -5.122523,0.367473 11.435017,3.4401956 0 0 1 -7.145009,-0.759813 z M 28.73384,56.4367 A 3.7309162,1.4051504 0 0 0 28.66752,56.696417 3.7309162,1.4051504 0 0 0 32.397512,58.1 3.7309162,1.4051504 0 0 0 36.127505,56.696417 3.7309162,1.4051504 0 0 0 36.080535,56.478144 5.378334,1.4051504 0 0 1 32.494217,56.840091 5.378334,1.4051504 0 0 1 28.733832,56.4367 Z"/>
 <ellipse style="opacity:0.2" cx="24" cy="36.681" rx="5" ry="5.714"/>
 <path style="fill:#5b4b53" d="M 46.453747,41 C 43.132553,43.984443 37.625981,45.769272 31.73982,45.769181 25.963132,45.763881 20.549021,44.039247 17.214446,41.142384 16.494189,42.76544 16.282056,44.263462 16,45.814293 c -9.8e-5,1.673517 1.339421,3.03023 2.99185,3.030254 0.482841,-3.99e-4 0.958414,-0.119137 1.386105,-0.346092 -0.02663,0.159323 -0.04066,0.320548 -0.04191,0.482134 2.87e-4,1.673242 1.339692,3.029525 2.991849,3.02955 1.134031,-0.0014 2.169771,-0.652138 2.674891,-1.680421 -0.01884,0.137382 -0.02876,0.275827 -0.02974,0.414467 2.17e-4,1.79815 1.475485,3.255744 3.295292,3.255815 1.095616,-3.84e-4 2.119398,-0.538774 2.731661,-1.436534 0.612265,0.89776 1.636044,1.436149 2.73166,1.436534 1.820071,2.98e-4 3.29575,-1.457405 3.295966,-3.255815 -0.0011,-0.138884 -0.01134,-0.277563 -0.03041,-0.415171 0.504925,1.028556 1.540706,1.679526 2.674892,1.681125 1.652157,-2.5e-5 2.991563,-1.356308 2.99185,-3.02955 -0.0012,-0.161586 -0.01526,-0.322811 -0.04191,-0.482134 0.427691,0.226948 0.903264,0.345693 1.386103,0.346092 1.65243,-2.3e-5 2.991949,-1.356737 2.991852,-3.030254 C 47.633791,44.148075 47.048512,42.465913 46.453725,41 Z"/>
 <path style="fill:#5d4e55" d="m 23.878426,23.280112 a 4.5940097,5.7313223 0 0 0 -4.593901,5.731882 4.5940097,5.7313223 0 0 0 0.0435,0.734474 5.2809641,5.7313223 0 0 1 4.808037,-3.373196 5.2809641,5.7313223 0 0 1 4.331583,2.464319 4.5940097,5.7313223 0 0 0 -4.589216,-5.557479 z"/>
 <ellipse style="fill:#8b9cbe" cx="32" cy="13.976" rx="8" ry="6"/>
 <path style="fill:#ed475f" d="m 34.794271,9.3480057 -2.875,3.1536463 -2.721353,-3.0052088 -3.213543,6.8463548 2.804045,0.858941 0.875643,-4.590712 2.252604,2.484375 2.442708,-2.679688 1.448999,4.369359 2.207252,-0.884984 z"/>
 <ellipse style="opacity:0.2" cx="-40" cy="36.681" rx="5" ry="5.714" transform="scale(-1,1)"/>
 <ellipse style="fill:#8b9cbe" cx="24" cy="35.681" rx="5" ry="5.714"/>
 <path style="fill:#2784cf" d="m 26.592076,31.054597 a 3.3073074,4.4556783 0 0 0 -3.306361,4.455913 3.3073074,4.4556783 0 0 0 3.306361,4.455916 3.3073074,4.4556783 0 0 0 0.856583,-0.15346 4.9999993,5.714285 0 0 0 1.55134,-4.132254 4.9999993,5.714285 0 0 0 -2.03962,-4.595423 3.3073074,4.4556783 0 0 0 -0.368303,-0.03069 z"/>
 <ellipse style="fill:#17191e" cx="26.5" cy="35.489" rx="1.786" ry="2.5"/>
 <path style="fill:#5d4e55" d="m 40.154038,23.280112 a 4.5940097,5.7313223 0 0 1 4.593901,5.731882 4.5940097,5.7313223 0 0 1 -0.0435,0.734474 5.2809641,5.7313223 0 0 0 -4.808037,-3.373196 5.2809641,5.7313223 0 0 0 -4.331583,2.464319 4.5940097,5.7313223 0 0 1 4.589216,-5.557479 z"/>
 <ellipse style="fill:#8b9cbe" cx="-40" cy="35.681" rx="5" ry="5.714" transform="scale(-1,1)"/>
 <path style="fill:#2784cf" d="m 37.407926,31.054597 a 3.3073077,4.4556787 0 0 1 3.306361,4.455914 3.3073077,4.4556787 0 0 1 -3.306361,4.455916 3.3073077,4.4556787 0 0 1 -0.856585,-0.15346 4.9999998,5.7142854 0 0 1 -1.55134,-4.132254 4.9999998,5.7142854 0 0 1 2.039621,-4.595425 3.3073077,4.4556787 0 0 1 0.368304,-0.03069 z"/>
 <ellipse style="fill:#17191e" cx="-37.5" cy="35.489" rx="1.786" ry="2.5" transform="scale(-1,1)"/>
 <ellipse style="opacity:0.2" cx="32" cy="44.5" rx="8" ry="6.5"/>
 <ellipse style="fill:#ffd0ae" cx="32" cy="43.5" rx="8" ry="6.5"/>
 <path style="opacity:0.1" d="m 32,19.078547 c -7.871092,0.1303 -16.102074,1.84122 -19.427812,8.610491 -0.660885,1.345182 -0.970954,2.982881 0.318036,3.652343 1.18479,0.566956 1.707234,-0.141 2.533222,-0.881696 C 20.350906,26.183997 25.436988,23.925087 32,23.925087 c 6.563012,0 11.649094,2.25891 16.576554,6.534598 0.825988,0.740696 1.348431,1.448652 2.533222,0.881696 1.28899,-0.669462 0.97892,-2.307161 0.318034,-3.652343 C 48.102074,20.919767 39.871091,19.208847 32,19.078547 Z"/>
 <path style="fill:#ff3137" d="m 32,18.078546 c -7.871092,0.1303 -16.102074,1.84122 -19.427812,8.610491 -0.660885,1.345182 -0.970954,2.982881 0.318036,3.652343 1.18479,0.566956 1.707234,-0.141 2.533222,-0.881696 C 20.350906,25.183996 25.436988,22.925086 32,22.925086 c 6.563012,0 11.649094,2.25891 16.576554,6.534598 0.825988,0.740696 1.348431,1.448652 2.533222,0.881696 1.28899,-0.669462 0.97892,-2.307161 0.318034,-3.652343 C 48.102074,19.919766 39.871091,18.208846 32,18.078546 Z"/>
 <path style="fill:#8b9cbe;opacity:0.2" d="M 32 2.96875 C 22.926642 2.96875 9 13.266201 9 25.96875 C 9 26.164601 9.008805 26.358056 9.0136719 26.552734 C 9.3139904 14.042893 23.026297 3.96875 32 3.96875 C 40.973703 3.96875 54.68601 14.042893 54.986328 26.552734 C 54.991195 26.358056 55 26.164601 55 25.96875 C 55 13.266201 41.073358 2.96875 32 2.96875 z"/>
 <path style="fill:#8b9cbe;opacity:0.2" d="M 32 37 A 8 6.5 0 0 0 24 43.5 A 8 6.5 0 0 0 24.029297 44.021484 A 8 6.5 0 0 1 32 38 A 8 6.5 0 0 1 39.970703 43.978516 A 8 6.5 0 0 0 40 43.5 A 8 6.5 0 0 0 32 37 z"/>
 <path style="fill:#8b9cbe;opacity:0.2" d="M 32 18.078125 C 24.128908 18.208425 15.898004 19.920182 12.572266 26.689453 C 12.160553 27.527464 11.886452 28.478037 12.048828 29.238281 C 12.134128 28.724515 12.327833 28.186977 12.572266 27.689453 C 15.898004 20.920182 24.128908 19.208425 32 19.078125 C 39.871091 19.208425 48.101998 20.920182 51.427734 27.689453 C 51.672167 28.186977 51.865871 28.724515 51.951172 29.238281 C 52.113548 28.478037 51.839448 27.527464 51.427734 26.689453 C 48.101998 19.920182 39.871091 18.208425 32 18.078125 z"/>
</svg>
