<svg xmlns="http://www.w3.org/2000/svg" width="64" height="64" version="1">
 <rect style="opacity:0.2" width="6" height="6" x="49" y="49"/>
 <rect style="opacity:0.2" width="6" height="6" x="9" y="49"/>
 <rect style="fill:#4f4f4f" width="6" height="6" x="49" y="48"/>
 <rect style="fill:#4f4f4f" width="6" height="6" x="9" y="48"/>
 <rect style="fill:#6d4c41" width="46" height="26" x="9" y="10" rx="2.875" ry="2.889"/>
 <rect style="opacity:0.2" width="58" height="18" x="3" y="31" rx="2.9" ry="3"/>
 <rect style="fill:#795548" width="58" height="18" x="3" y="30" rx="2.9" ry="3"/>
 <path style="opacity:0.1;fill:#8b9cbe" d="M 5.8984375 30 C 4.2918373 30 3 31.338 3 33 L 3 34 C 3 32.338 4.2918373 31 5.8984375 31 L 58.101562 31 C 59.708163 31 61 32.338 61 34 L 61 33 C 61 31.338 59.708163 30 58.101562 30 L 5.8984375 30 z"/>
 <rect style="fill:#8d6e63" width="12" height="26" x="3" y="22" rx="3" ry="2.889"/>
 <rect style="fill:#8d6e63" width="12" height="26" x="49" y="22" rx="3" ry="2.889"/>
 <path style="opacity:0.1;fill:#8b9cbe" d="M 11.875 10 C 10.28225 10 9 11.290181 9 12.890625 L 9 13.890625 C 9 12.290181 10.28225 11 11.875 11 L 52.125 11 C 53.71775 11 55 12.290181 55 13.890625 L 55 12.890625 C 55 11.290181 53.71775 10 52.125 10 L 11.875 10 z"/>
 <path style="opacity:0.1;fill:#8b9cbe" d="M 6 22 C 4.338 22 3 23.290181 3 24.890625 L 3 25.890625 C 3 24.290181 4.338 23 6 23 L 12 23 C 13.662 23 15 24.290181 15 25.890625 L 15 24.890625 C 15 23.290181 13.662 22 12 22 L 6 22 z"/>
 <path style="opacity:0.1;fill:#8b9cbe" d="M 52 22 C 50.338 22 49 23.290181 49 24.890625 L 49 25.890625 C 49 24.290181 50.338 23 52 23 L 58 23 C 59.662 23 61 24.290181 61 25.890625 L 61 24.890625 C 61 23.290181 59.662 22 58 22 L 52 22 z"/>
</svg>
