<svg xmlns="http://www.w3.org/2000/svg" width="64" height="64" version="1.1">
 <path style="opacity:0.2" d="m 31.999999,10.000028 c -16.538929,0 -29.9999963,13.035976 -29.9999963,29.052613 a 2.5002499,2.4212933 0 0 0 0,0.0024 c 0.003,5.626984 1.6933499,11.131295 4.8657216,15.845591 A 2.5002499,2.4212933 0 0 0 8.960451,56 H 55.020018 A 2.5002499,2.4212933 0 0 0 57.1123,54.90296 c 3.179885,-4.712044 4.878335,-10.216519 4.887697,-15.845589 a 2.5002499,2.4212933 0 0 0 0,-0.0048 c 0,-16.016657 -13.461067,-29.052633 -29.999998,-29.052633 z"/>
 <path style="fill:#ffa800" d="m 31.999999,9.0000286 c -16.538929,0 -29.9999963,13.0359754 -29.9999963,29.0526124 a 2.5002499,2.4212933 0 0 0 0,0.0024 c 0.003,5.626984 1.6933499,11.131295 4.8657216,15.845591 A 2.5002499,2.4212933 0 0 0 8.960451,55 H 55.020018 A 2.5002499,2.4212933 0 0 0 57.1123,53.90296 c 3.179885,-4.712044 4.878335,-10.216519 4.887697,-15.845589 a 2.5002499,2.4212933 0 0 0 0,-0.0048 c 0,-16.016657 -13.461067,-29.0526328 -29.999998,-29.0526328 z"/>
 <path style="opacity:0.2" d="m 48.59375,20.019534 c -1.202936,-0.02492 -2.417194,0.564208 -3.121094,1.78125 -0.401662,0.69447 -0.493908,1.122044 -0.410156,1.917968 l 0.10938,1.03125 -2.300782,2.273437 c -1.265426,1.251248 -2.604644,2.371094 -2.73047,2.371094 -0.12582,0 -0.63454,-0.1077 -1.375,-0.85547 -2.084509,-2.105104 -2.947027,-2.388022 -5.437499,-2.496094 -1.67245,-0.07258 -2.396886,0.0054 -3.67578,0.390626 -0.87621,0.264054 -1.59375,0.55287 -1.59375,0.64453 0,0.229194 3.461742,3.628908 3.695312,3.628908 0.1034,0 0.486886,-0.254796 0.85547,-0.5625 0.997288,-0.832586 1.999122,-0.752172 3.117186,0.25 0.496586,0.445118 0.902344,0.944132 0.902344,1.105468 0,0.434938 -1.541464,1.61371 -2.664062,2.039062 -0.803118,0.304304 -1.113932,0.327448 -1.710938,0.11328 -0.401146,-0.14396 -0.873012,-0.26172 -1.050782,-0.26172 -0.17776,0 -5.14731,4.048028 -11.039062,9.894532 -3.536902,3.509741 -8.44924,8.708763 -12.2148422,12.507811 A 2.5002499,2.4212933 0 0 0 8.9609396,56 H 24.175783 c 3.386678,-3.287292 7.408228,-7.484418 8.730468,-8.796876 6.338935,-6.292007 5.709601,-6.483773 5.449217,-7.050779 -0.558491,-1.216128 -0.231535,-2.472954 1.0625,-4.082032 0.322368,-0.400864 0.75046,-0.730446 0.953126,-0.730468 0.202668,0 0.734956,0.401844 1.183594,0.894532 1.04532,1.147974 1.07471,1.93208 0.10546,3.027342 l -0.714844,0.808594 1.78125,1.773438 c 0.978538,0.976598 1.905418,1.777344 2.058594,1.777344 0.401876,0 0.981842,-2.076572 1.128906,-4.039062 0.201778,-2.692712 -0.255568,-3.879534 -2.3125,-6.015626 -0.924882,-0.960478 -1.480468,-1.33372 -1.480468,-1.445312 0,-0.11156 1.655012,-1.751522 2.945312,-3.027344 1.999182,-1.976752 2.427372,-2.295044 2.890626,-2.179688 0.742002,0.18478 2.205508,-0.242874 2.847656,-0.828124 1.153866,-1.051635 1.513626,-2.848527 0.83203,-4.156249 -0.648916,-1.245004 -1.840032,-1.885242 -3.042968,-1.910156 z"/>
 <path style="fill:#8b9cbe" d="m 48.59375,19.019533 c -1.202936,-0.02492 -2.417194,0.56421 -3.121094,1.78125 -0.401662,0.694471 -0.493908,1.122045 -0.410156,1.917969 l 0.10938,1.03125 -2.300782,2.273438 c -1.265426,1.251247 -2.604644,2.371093 -2.73047,2.371093 -0.12582,0 -0.63454,-0.1077 -1.375,-0.85547 -2.084509,-2.105103 -2.947027,-2.388021 -5.437499,-2.496093 -1.67245,-0.07258 -2.396886,0.0054 -3.67578,0.390626 -0.87621,0.264054 -1.59375,0.55287 -1.59375,0.64453 0,0.229194 3.461742,3.628907 3.695312,3.628907 0.1034,0 0.486886,-0.254796 0.85547,-0.5625 0.997288,-0.832586 1.999122,-0.752172 3.117186,0.25 0.496586,0.445118 0.902344,0.944132 0.902344,1.105468 0,0.434938 -1.541464,1.61371 -2.664062,2.039062 -0.803118,0.304304 -1.113932,0.327448 -1.710938,0.11328 -0.401146,-0.14396 -0.873012,-0.26172 -1.050782,-0.26172 -0.17776,0 -5.14731,4.048028 -11.039062,9.894532 -3.536902,3.509742 -8.44924,8.708763 -12.2148422,12.507811 A 2.5002499,2.4212933 0 0 0 8.9609396,55 H 24.175783 c 3.386678,-3.287292 7.408228,-7.484418 8.730468,-8.796875 6.338935,-6.292008 5.709601,-6.483774 5.449217,-7.05078 -0.558491,-1.216128 -0.231535,-2.472954 1.0625,-4.082032 0.322368,-0.400864 0.75046,-0.730446 0.953126,-0.730468 0.202668,0 0.734956,0.401844 1.183594,0.894532 1.04532,1.147974 1.07471,1.93208 0.10546,3.027342 l -0.714844,0.808594 1.78125,1.773438 c 0.978538,0.976598 1.905418,1.777344 2.058594,1.777344 0.401876,0 0.981842,-2.076572 1.128906,-4.039062 0.201778,-2.692712 -0.255568,-3.879534 -2.3125,-6.015626 -0.924882,-0.960478 -1.480468,-1.33372 -1.480468,-1.445312 0,-0.11156 1.655012,-1.751522 2.945312,-3.027344 1.999182,-1.976751 2.427372,-2.295043 2.890626,-2.179687 0.742002,0.18478 2.205508,-0.242874 2.847656,-0.828124 1.153866,-1.051636 1.513626,-2.848528 0.83203,-4.156251 -0.648916,-1.245004 -1.840032,-1.885242 -3.042968,-1.910156 z"/>
 <path style="opacity:0.2;fill:#8b9cbe" d="M 32 9 C 15.461071 9 2 22.034144 2 38.050781 A 2.5002499 2.4212933 0 0 0 2 38.054688 C 2.0000739 38.193273 2.01063 38.330765 2.015625 38.46875 C 2.3382643 22.720644 15.66267 10 32 10 C 48.336656 10 61.66068 22.719563 61.984375 38.466797 C 61.98948 38.330789 61.999772 38.195262 62 38.058594 A 2.5002499 2.4212933 0 0 0 62 38.050781 C 62.000008 22.034112 48.538931 9 32 9 z"/>
</svg>
