<svg xmlns="http://www.w3.org/2000/svg" width="64" height="64" version="1">
 <rect style="opacity:0.2" width="56" height="56" x="4" y="5" rx="2.8" ry="2.8"/>
 <rect style="fill:#eb6416" width="56" height="56" x="4" y="4" rx="2.8" ry="2.8"/>
 <path style="opacity:0.3;fill:#8b9cbe" d="M 6.8,4 C 5.2488,4 4,5.2488 4,6.8 V 32 H 5.4 58.6 60 V 6.8 C 60,5.2488 58.7512,4 57.2,4 Z"/>
 <path style="opacity:0.1;fill:none;stroke:#000000;stroke-width:4;stroke-linejoin:round" d="m 8,32.001346 h 7.294696 l 3.551115,-11 2.36741,22 6.026134,-30 4.089162,39 5.595695,-36 4.304381,30 4.196773,-24 2.797847,12 H 56"/>
 <path style="fill:none;stroke:#17191e;stroke-width:4;stroke-linejoin:round" d="m 8,31 h 7.294696 l 3.551115,-11 2.36741,22 6.026134,-30 4.089162,39 5.595695,-36 4.304381,30 4.196773,-24 2.797847,12 H 56"/>
 <path style="opacity:0.2;fill:#8b9cbe" d="M 6.8007812 4 C 5.2495813 4 4 5.2495813 4 6.8007812 L 4 7.8007812 C 4 6.2495812 5.2495813 5 6.8007812 5 L 57.199219 5 C 58.750419 5 60 6.2495813 60 7.8007812 L 60 6.8007812 C 60 5.2495813 58.750419 4 57.199219 4 L 6.8007812 4 z"/>
</svg>
