<svg xmlns="http://www.w3.org/2000/svg" width="64" height="64" version="1">
 <rect style="opacity:0.2" width="52" height="52" x="-59" y="-58" rx="16.8" ry="16.8" transform="matrix(0,-1,-1,0,0,0)"/>
 <rect style="fill:#81d547" width="52" height="52" x="-58" y="-58" rx="16.8" ry="16.8" transform="matrix(0,-1,-1,0,0,0)"/>
 <path style="opacity:0.2" d="m 32.001953,14.999145 c -1.682106,-0.0174 -3.352506,0.231581 -4.974609,0.675781 -7.553475,2.0262 -13.081404,9.502172 -12.966797,17.326172 l -4.060547,0 c 2.069963,3.043664 6,8.998047 6,8.998047 0,0 6,-9.000953 6,-9.001953 l -3.917969,0 c -0.0144,-3.2766 1.215348,-6.571578 3.396485,-9.017578 4.099458,-4.9288 11.522764,-6.980569 17.232422,-2.792969 1.809994,2.3692 5.757599,-0.319189 3.720703,-2.662109 -3.000187,-2.33646 -6.64185,-3.517391 -10.429688,-3.525391 z m 15.998047,9 c 0,0 -6,8.999 -6,9 l 3.917969,0 c 0.0144,3.2766 -1.215348,6.573531 -3.396485,9.019531 -4.099458,4.9288 -11.522762,6.980569 -17.232422,2.792969 -1.809993,-2.3692 -5.757599,0.319189 -3.720703,2.662109 3.000188,2.33646 6.64185,3.517391 10.429688,3.525391 1.682106,0.0174 3.352506,-0.231581 4.974609,-0.675781 7.553475,-2.0262 13.081404,-9.502172 12.966797,-17.326172 l 4.060547,0 c -2.069963,-3.043664 -6,-8.998047 -6,-8.998047 z"/>
 <path style="opacity:0.2" d="M 63.958,45.848059 A 15.999945,15.999945 0 0 1 48.000055,61.000007 15.999945,15.999945 0 0 1 32.04211,46.152058 15.999945,15.999945 0 0 0 32.00011,47.000055 15.999945,15.999945 0 0 0 48.000055,63 15.999945,15.999945 0 0 0 64,47.000055 15.999945,15.999945 0 0 0 63.95704,45.847719 Z"/>
 <path style="fill:#8b9cbe" d="m 32.001953,14 c -1.682106,-0.0174 -3.352506,0.231581 -4.974609,0.675781 -7.553475,2.0262 -13.081404,9.502172 -12.966797,17.326172 l -4.060547,0 C 12.069963,35.045617 16,41 16,41 c 0,0 6,-9.000953 6,-9.001953 l -3.917969,0 c -0.0144,-3.2766 1.215348,-6.571578 3.396485,-9.017578 4.099458,-4.9288 11.522764,-6.980569 17.232422,-2.792969 1.809994,2.3692 5.757599,-0.319189 3.720703,-2.662109 C 39.431454,15.188931 35.789791,14.008 32.001953,14 Z M 48,23 c 0,0 -6,8.999 -6,9 l 3.917969,0 c 0.0144,3.2766 -1.215348,6.573531 -3.396485,9.019531 -4.099458,4.9288 -11.522762,6.980569 -17.232422,2.792969 -1.809993,-2.3692 -5.757599,0.319189 -3.720703,2.662109 3.000188,2.33646 6.64185,3.517391 10.429688,3.525391 1.682106,0.0174 3.352506,-0.231581 4.974609,-0.675781 7.553475,-2.0262 13.081404,-9.502172 12.966797,-17.326172 l 4.060547,0 C 51.930037,28.954383 48,23 48,23 Z"/>
 <circle style="fill:#8561c5" cx="48" cy="46" r="16"/>
 <path style="fill:#8b9cbe" d="m 56,38.00194 -11.999931,-0.0018 v 10.538963 c -0.607677,-0.352506 -1.297476,-0.538751 -1.999993,-0.539998 -2.209131,0 -3.999986,1.790855 -3.999986,3.999986 0,2.209132 1.790854,3.999987 3.999986,3.999987 2.209132,0 3.999986,-1.790855 3.999986,-3.999987 L 46,42 h 8 l 3.4e-5,6.538011 c -0.607677,-0.352506 -1.297476,-0.538751 -1.999993,-0.539998 -2.209131,0 -3.999986,1.790855 -3.999986,3.999986 0,2.209132 1.790854,3.999987 3.999986,3.999987 2.209132,0 3.99999,-1.790855 3.999986,-3.999987 L 56,38 Z"/>
 <path style="fill:#8b9cbe;opacity:0.2" d="M 22.800781 6 C 13.493582 6 6 13.493582 6 22.800781 L 6 23.800781 C 6 14.493582 13.493582 7 22.800781 7 L 41.199219 7 C 50.506418 7 58 14.493582 58 23.800781 L 58 22.800781 C 58 13.493582 50.506418 6 41.199219 6 L 22.800781 6 z"/>
</svg>
