<svg xmlns="http://www.w3.org/2000/svg" width="64" height="64" version="1">
 <path style="opacity:0.2" d="M 4.0507997,32.000414 C 4.0389998,32.33441 4.0000004,32.662405 4.0000004,33.0004 4.0000004,48.512178 16.487822,61 31.9996,61 47.511378,61 59.9992,48.512178 59.9992,33.0004 c 0,-0.337995 -0.04,-0.66599 -0.05,-0.999986 -0.527992,15.041785 -12.775817,26.999614 -27.9496,26.999614 -15.174183,0 -27.4216079,-11.957829 -27.9496003,-26.999614 z"/>
 <rect style="fill:#5450e3" width="56" height="56" x="4" y="4" rx="28" ry="28"/>
 <g style="opacity:0.2" transform="matrix(1.9999714,0,0,1.9999714,5.760572e-5,1.0006864)">
  <path d="m 8,19 8,3 8,-3 0,2 -8,3 -8,-3 z"/>
  <path d="m 8,15 8,3 8,-3 0,2 -8,3 -8,-3 z"/>
  <path d="m 16,8 -8,3 0,2 8,3 8,-3 0,-2 z"/>
 </g>
 <path style="opacity:0.2;fill:#8b9cbe" d="M 32 4 C 16.488222 4 4 16.488222 4 32 C 4 32.113554 4.0112846 32.224034 4.0175781 32.335938 C 4.3691163 17.134398 16.710946 5 32 5 C 47.289054 5 59.630884 17.134398 59.982422 32.335938 C 59.988797 32.224034 60 32.113554 60 32 C 60 16.488222 47.511778 4 32 4 z"/>
 <path style="fill:#b49eff" d="m 15.999829,37.999914 15.999771,5.999914 15.999771,-5.999914 0,3.999943 L 31.9996,47.999771 15.999829,41.999857 Z"/>
 <path style="fill:#b49eff" d="m 15.999829,30.000029 15.999771,5.999914 15.999771,-5.999914 0,3.999942 L 31.9996,39.999886 15.999829,33.999971 Z"/>
 <path style="fill:#b49eff" d="m 31.9996,16.000229 -15.999771,5.999914 0,3.999943 L 31.9996,32 l 15.999771,-5.999914 0,-3.999943 z"/>
</svg>
