<svg xmlns="http://www.w3.org/2000/svg" width="64" height="64" version="1">
 <path style="opacity:0.2" d="M 6.8,5 C 5.2488,5 4,6.2488 4,7.8 V 58.2 C 4,59.7512 5.2488,61 6.8,61 H 21 V 22 H 40 V 5 Z M 43,5 V 61 H 57.2 C 58.7512,61 60,59.7512 60,58.2 V 7.8 C 60,6.2488 58.7512,5 57.2,5 Z M 24,25 V 61 H 40 V 25 Z"/>
 <path style="fill:#16a085" d="M 6.8,4 C 5.2488,4 4,5.2488 4,6.8 V 57.2 C 4,58.7512 5.2488,60 6.8,60 H 21 V 21 H 40 V 4 Z M 43,4 V 60 H 57.2 C 58.7512,60 60,58.7512 60,57.2 V 6.8 C 60,5.2488 58.7512,4 57.2,4 Z M 24,24 V 60 H 40 V 24 Z"/>
 <path style="opacity:0.2;fill:#8b9cbe" d="M 6.8007812 4 C 5.2495813 4 4 5.2495813 4 6.8007812 L 4 7.8007812 C 4 6.2495812 5.2495813 5 6.8007812 5 L 40 5 L 40 4 L 6.8007812 4 z M 43 4 L 43 5 L 57.199219 5 C 58.750419 5 60 6.2495813 60 7.8007812 L 60 6.8007812 C 60 5.2495813 58.750419 4 57.199219 4 L 43 4 z M 24 24 L 24 25 L 40 25 L 40 24 L 24 24 z"/>
</svg>
