<svg xmlns="http://www.w3.org/2000/svg" width="64" height="64" version="1.1">
 <path style="opacity:0.2" d="M 40,5 C 28.954,5 20,13.954 20,25 20,36.046 28.954,45 40,45 51.046,45 60,36.046 60,25 V 8.058 C 60,6.358 58.642,5 56.942,5 Z"/>
 <path style="fill:#666666" d="M 40,4 C 28.954,4 20,12.954 20,24 20,35.046 28.954,44 40,44 51.046,44 60,35.046 60,24 V 7.058 C 60,5.358 58.642,4 56.942,4 Z"/>
 <path style="opacity:0.2" d="M 40,39 C 47.76,39 54,32.76 54,25 V 11 H 40 C 32.24,11 26,17.24 26,25 26,32.76 32.24,39 40,39 Z"/>
 <path style="fill:#ececec" d="M 40,38 C 47.76,38 54,31.76 54,24 V 10 H 40 C 32.24,10 26,16.24 26,24 26,31.76 32.24,38 40,38 Z"/>
 <path style="opacity:0.2" d="M 24,21 C 12.954,21 4,29.954 4,41 V 57.94 C 4,59.64 5.3658,61 7.0618,61 H 24 C 35.046,61 44,52.046 44,41 44,29.954 35.046,21 24,21 Z"/>
 <path style="fill:#8b9cbe;opacity:0.1" d="M 40 4 C 28.954 4 20 12.954 20 24 C 20 24.168 20.008 24.333 20.012 24.5 C 20.278 13.686 29.122 5 40 5 L 56.941 5 C 58.641 5 60 6.3586 60 8.0586 L 60 7.0586 C 60 5.3586 58.641 4 56.941 4 L 40 4 z"/>
 <path style="fill:#808080" d="M 24,20 C 12.954,20 4,28.954 4,40 V 56.94 C 4,58.64 5.3658,60 7.0618,60 H 24 C 35.046,60 44,51.046 44,40 44,28.954 35.046,20 24,20 Z"/>
 <path style="opacity:0.2" d="M 24,27 C 16.24,27 10,33.24 10,41 V 55 H 24 C 31.76,55 38,48.76 38,41 38,33.24 31.76,27 24,27 Z"/>
 <path style="fill:#8b9cbe" d="M 24,26 C 16.24,26 10,32.24 10,40 V 54 H 24 C 31.76,54 38,47.76 38,40 38,32.24 31.76,26 24,26 Z"/>
 <path style="fill:#8b9cbe;opacity:0.2" d="M 24 20 C 12.954 20 4 28.954 4 40 L 4 41 C 4 29.954 12.954 21 24 21 C 34.878 21 43.722 29.686 43.988 40.5 C 43.992 40.333 44 40.168 44 40 C 44 28.954 35.046 20 24 20 z"/>
</svg>
