<svg xmlns="http://www.w3.org/2000/svg" width="64" height="64" version="1">
 <path style="fill:#6eaa36" d="M 31.99986,4.00028 C 16.536937,4.00028 4,16.535818 4,32.000142 4,47.464464 16.536937,60 31.99986,60 47.461382,60 59.99972,47.464464 59.99972,32.000142 59.99972,16.535818 47.461382,4.00028 31.99986,4.00028 Z"/>
 <path style="opacity:0.2" d="m 32.174558,11.403102 c -8.590076,0 -13.499292,3.517064 -16.702196,7.480164 2.454691,0.673284 4.170019,1.233898 4.722736,1.41682 0.0066,-0.371166 0.06602,-3.714742 0.06602,-3.714742 l 0.04824,-0.10664 0.12442,-0.03808 c 0.755298,0.1092 16.860676,2.490868 23.643922,6.444168 0.8398,0.494002 1.252266,1.009536 1.77228,1.541224 1.874618,1.93832 4.364898,10.00687 4.628656,11.674822 l -0.10666,0.17268 c -0.09674,0.03578 -0.333564,0.20059 -0.642402,0.411346 -1.582496,1.106694 -5.283014,3.696822 -10.02675,3.275424 -4.266338,-0.380378 -9.83243,-2.827426 -16.547356,-7.249164 0.295622,0.697196 1.691358,4.01126 1.924626,4.567896 l 0.09648,0.11426 c 0.972406,0.502318 10.301428,5.258654 14.929804,5.162054 3.735182,-0.07422 7.722642,-1.89699 9.318354,-2.854026 l 0.507806,-0.09648 c 0.14182,0.11132 0.11986,0.327992 0.07618,0.528134 -0.09808,0.457266 -0.317294,1.296282 -0.469724,1.685956 l -0.1244,0.324994 c -0.18158,0.482466 -0.35893,0.948048 -0.69826,1.226394 -0.941076,0.85618 -2.447552,1.5333 -4.798896,2.56448 -3.636622,1.589132 -9.529472,2.588726 -15.005966,2.556862 C 26.953162,48.444038 25.054492,48.22844 23.3885,48.03804 19.912037,47.643242 17.087692,47.324044 15.40042,48.634438 19.503799,53.271214 25.49857,56.2 32.177936,56.2 c 12.370898,0 22.409968,-10.02815 22.409968,-22.399888 0,-12.370058 -10.03851,-22.399888 -22.409968,-22.399888 l -0.0026,0 z m 5.92113,11.85514 c -1.714598,0.02574 -3.328062,0.666734 -4.588056,1.848468 -1.349258,1.24983 -2.126254,2.959304 -2.191242,4.798896 -0.12322,3.79202 2.861586,6.992964 6.655008,7.134924 1.84771,0.05966 3.595742,-0.598134 4.941134,-1.858602 1.34139,-1.253862 2.116006,-2.951746 2.183626,-4.788816 0.12986,-3.797342 -2.854866,-6.998286 -6.655008,-7.134926 -0.11508,-0.0038 -0.231026,-0.0017 -0.345322,0 z m -0.1828,2.031278 c 0.15812,-0.0096 0.309342,-0.006 0.469726,0 2.64957,0.09282 4.732816,2.314104 4.644056,4.969136 -0.03978,1.277774 -0.583854,2.475356 -1.520924,3.354102 -0.939648,0.87214 -2.161086,1.322014 -3.448184,1.282254 -2.648254,-0.09814 -4.723856,-2.3283 -4.636496,-4.979214 0.04108,-1.282982 0.591664,-2.469196 1.523444,-3.344024 0.817596,-0.766608 1.861486,-1.214942 2.968266,-1.282254 z m 1.262794,2.404348 c -1.180924,0 -2.135382,0.639658 -2.135382,1.426986 0,0.782008 0.954402,1.426984 2.135382,1.426984 1.177058,0 2.125216,-0.643632 2.125216,-1.426984 0,-0.7873 -0.948214,-1.426986 -2.125216,-1.426986 z"/>
 <path style="fill:#8b9cbe" d="m 32.174138,10.402258 c -8.590076,0 -13.499292,3.517062 -16.702196,7.480162 2.454691,0.673286 4.170019,1.233898 4.722736,1.416822 0.0066,-0.371166 0.06602,-3.714742 0.06602,-3.714742 l 0.04824,-0.10664 0.12442,-0.0381 c 0.755298,0.1092 16.860676,2.490868 23.643922,6.44417 0.8398,0.494002 1.252266,1.009534 1.77228,1.541224 1.874618,1.938318 4.364898,10.00687 4.628656,11.674822 l -0.10666,0.17268 c -0.09674,0.03578 -0.333564,0.200592 -0.642402,0.411346 -1.582496,1.106696 -5.283014,3.696822 -10.02675,3.275424 -4.266338,-0.380378 -9.83243,-2.827426 -16.547356,-7.249164 0.295622,0.697196 1.691358,4.01126 1.924626,4.567898 l 0.09648,0.11426 c 0.972406,0.502316 10.301428,5.258652 14.929804,5.162054 3.735182,-0.07422 7.722642,-1.896992 9.318354,-2.854026 l 0.507806,-0.09648 c 0.14182,0.11132 0.11986,0.32799 0.07618,0.528134 -0.09808,0.457266 -0.317294,1.29628 -0.469724,1.685954 l -0.1244,0.324996 c -0.18158,0.482464 -0.35893,0.948046 -0.69826,1.226394 -0.941076,0.856178 -2.447552,1.5333 -4.798896,2.564478 -3.636622,1.589132 -9.529472,2.588728 -15.005966,2.556864 -1.95831,-0.0476 -3.85698,-0.2632 -5.522972,-0.453598 C 19.911617,46.642402 17.087272,46.323204 15.4,47.633596 19.503379,52.271214 25.49815,55.2 32.178356,55.2 c 12.370898,0 22.409968,-10.02815 22.409968,-22.399888 0,-12.37006 -10.03851,-22.39989 -22.409968,-22.39989 l -0.0026,0 z m 5.92113,11.855142 c -1.714598,0.02574 -3.328062,0.666732 -4.588056,1.848466 -1.349258,1.24983 -2.126254,2.959306 -2.191242,4.798896 -0.12322,3.792022 2.861586,6.992966 6.655008,7.134924 1.84771,0.05966 3.595742,-0.598132 4.941134,-1.858602 1.34139,-1.253862 2.116006,-2.951746 2.183626,-4.788816 0.12986,-3.79734 -2.854866,-6.998284 -6.655008,-7.134924 -0.11508,-0.0038 -0.231026,-0.0017 -0.345322,0 z m -0.1828,2.031278 c 0.15812,-0.0096 0.309342,-0.006 0.469726,0 2.64957,0.09282 4.732816,2.314104 4.644056,4.969134 -0.03978,1.277774 -0.583854,2.475356 -1.520924,3.354104 -0.939648,0.87214 -2.161086,1.322014 -3.448184,1.282254 -2.648254,-0.09814 -4.723856,-2.3283 -4.636496,-4.979216 0.04108,-1.282982 0.591664,-2.469196 1.523444,-3.344022 0.817596,-0.76661 1.861486,-1.214942 2.968266,-1.282254 z m 1.262794,2.404348 c -1.180924,0 -2.135382,0.639656 -2.135382,1.426984 0,0.782008 0.954402,1.426986 2.135382,1.426986 1.177058,0 2.125216,-0.643634 2.125216,-1.426986 0,-0.7873 -0.948214,-1.426984 -2.125216,-1.426984 z"/>
 <path style="opacity:0.2" d="M 4.0214844,32.421875 A 28,28 0 0 0 4,33 28,28 0 0 0 32,61 28,28 0 0 0 60,33 28,28 0 0 0 59.978516,32.59375 28,28 0 0 1 32,60 28,28 0 0 1 4.0214844,32.421875 Z"/>
 <path style="opacity:0.2;fill:#8b9cbe" d="M 32 4 A 28.0005 28 0 0 0 4 32 A 28.0005 28 0 0 0 4.0214844 32.40625 A 28.0005 28 0 0 1 32 5 A 28.0005 28 0 0 1 59.978516 32.578125 A 28.0005 28 0 0 0 60 32 A 28.0005 28 0 0 0 32 4 z"/>
</svg>
