<svg xmlns="http://www.w3.org/2000/svg" width="64" height="64" version="1.1">
 <rect style="opacity:0.2" width="54" height="54" x="-60" y="-59" rx="4.05" ry="4.05" transform="matrix(0,-1,-1,0,0,0)"/>
 <rect style="fill:#597f97" width="54" height="54" x="-59" y="-59" rx="4.05" ry="4.05" transform="matrix(0,-1,-1,0,0,0)"/>
 <path style="fill:#8b9cbe" d="M 27 13 L 27 23 L 37 23 L 37 13 L 27 13 z M 41 13 L 41 23 L 51 23 L 51 13 L 41 13 z M 13 27 L 13 37 L 23 37 L 23 27 L 13 27 z M 27 27 L 27 37 L 37 37 L 37 27 L 27 27 z M 41 27 L 41 37 L 51 37 L 51 27 L 41 27 z M 13 41 L 13 51 L 23 51 L 23 41 L 13 41 z M 27 41 L 27 51 L 37 51 L 37 41 L 27 41 z"/>
 <path style="opacity:0.2;fill:#8b9cbe" d="M 9.0507812 5 C 6.8070813 5 5 6.8070813 5 9.0507812 L 5 10.050781 C 5 7.8070815 6.8070813 6 9.0507812 6 L 54.949219 6 C 57.192919 6 59 7.8070815 59 10.050781 L 59 9.0507812 C 59 6.8070813 57.192919 5 54.949219 5 L 9.0507812 5 z"/>
 <path style="opacity:0.2" d="M 27 23 L 27 24 L 37 24 L 37 23 L 27 23 z M 41 23 L 41 24 L 51 24 L 51 23 L 41 23 z M 13 37 L 13 38 L 23 38 L 23 37 L 13 37 z M 27 37 L 27 38 L 37 38 L 37 37 L 27 37 z M 41 37 L 41 38 L 51 38 L 51 37 L 41 37 z M 13 51 L 13 52 L 23 52 L 23 51 L 13 51 z M 27 51 L 27 52 L 37 52 L 37 51 L 27 51 z"/>
</svg>
