<svg width="64" height="64" version="1.1" xmlns="http://www.w3.org/2000/svg">
 <circle cx="32" cy="33" r="28" style="opacity:.2"/>
 <circle cx="32" cy="32" r="28" style="fill:#21437c"/>
 <circle cx="32" cy="32" r="20" style="fill:#d42c3c"/>
 <path d="m32 13a20.000001 20.000001 0 0 0-20 20 20.000001 20.000001 0 0 0 20 20 20.000001 20.000001 0 0 0 20-20 20.000001 20.000001 0 0 0-20-20zm0 3a17.000277 17.000277 0 0 1 5.246094 0.837891l-2.41211 4.830078-2.833984 5.664062-2.833984-5.664062-2.40625-4.820313a17.000277 17.000277 0 0 1 5.240234-0.847656zm-7.720703 1.853516 1.710937 5.130859 2.001954 6.007813-6.007813-2.001954-5.113281-1.705078a17.000277 17.000277 0 0 1 3.283203-4.480468 17.000277 17.000277 0 0 1 4.125-2.951172zm15.435547 0.01758a17.000277 17.000277 0 0 1 4.480468 3.283203 17.000277 17.000277 0 0 1 2.951172 4.125l-5.130859 1.710937-6.007813 2.001954 2.001954-6.007813 1.705078-5.113281zm-23.876953 9.882812 4.830078 2.41211 5.664062 2.833982-5.664062 2.833984-4.820313 2.40625a17.000277 17.000277 0 0 1-0.847656-5.240234 17.000277 17.000277 0 0 1 0.837891-5.246094zm32.314453 0.0059a17.000277 17.000277 0 0 1 0.847656 5.240192 17.000277 17.000277 0 0 1-0.837891 5.246094l-4.830078-2.41211-5.664062-2.833984 5.664062-2.833984 4.820313-2.40625zm-16.152344 1.240192a0.99990203 0.99990203 0 0 1 0.998047 1 0.99990203 0.99990203 0 0 1-0.998047 1 0.99990203 0.99990203 0 0 1-1-1 0.99990203 0.99990203 0 0 1 1-1zm-3 3a0.99990203 0.99990203 0 0 1 1 1 0.99990203 0.99990203 0 0 1-1 0.998047 0.99990203 0.99990203 0 0 1-1-0.998047 0.99990203 0.99990203 0 0 1 1-1zm6 0a0.99990203 0.99990203 0 0 1 1 1 0.99990203 0.99990203 0 0 1-1 0.998047 0.99990203 0.99990203 0 0 1-1-0.998047 0.99990203 0.99990203 0 0 1 1-1zm-3 3a0.99990203 0.99990203 0 0 1 0.998047 1 0.99990203 0.99990203 0 0 1-0.998047 1 0.99990203 0.99990203 0 0 1-1-1 0.99990203 0.99990203 0 0 1 1-1zm-4.007812 2.007812-2.001954 6.007813-1.705078 5.113281a17.000277 17.000277 0 0 1-4.480468-3.283203 17.000277 17.000277 0 0 1-2.951172-4.125l5.130859-1.710937 6.007813-2.001954zm8.015624 0 6.007813 2.001954 5.113281 1.705078a17.000277 17.000277 0 0 1-3.283203 4.480468 17.000277 17.000277 0 0 1-4.125 2.951172l-1.710937-5.130859-2.001954-6.007813zm-4.007812 1.660157 2.833984 5.664062 2.40625 4.820313a17.000277 17.000277 0 0 1-5.240234 0.847656 17.000277 17.000277 0 0 1-5.246094-0.837891l2.41211-4.830078 2.833984-5.664062z" style="opacity:.2"/>
 <path d="m32 12a20.000001 20.000001 0 0 0-20 20 20.000001 20.000001 0 0 0 20 20 20.000001 20.000001 0 0 0 20-20 20.000001 20.000001 0 0 0-20-20zm0 3a17.000277 17.000277 0 0 1 5.246094 0.837891l-2.41211 4.830078-2.833984 5.664062-2.833984-5.664062-2.40625-4.820313a17.000277 17.000277 0 0 1 5.240234-0.847656zm-7.720703 1.853516 1.710937 5.130859 2.001954 6.007813-6.007813-2.001954-5.113281-1.705078a17.000277 17.000277 0 0 1 3.283203-4.480468 17.000277 17.000277 0 0 1 4.125-2.951172zm15.435547 0.017578a17.000277 17.000277 0 0 1 4.480468 3.283203 17.000277 17.000277 0 0 1 2.951172 4.125l-5.130859 1.710937-6.007813 2.001954 2.001954-6.007813 1.705078-5.113281zm-23.876953 9.882812 4.830078 2.41211 5.664062 2.833984-5.664062 2.833984-4.820313 2.40625a17.000277 17.000277 0 0 1-0.847656-5.240234 17.000277 17.000277 0 0 1 0.837891-5.246094zm32.314453 0.00586a17.000277 17.000277 0 0 1 0.847656 5.240234 17.000277 17.000277 0 0 1-0.837891 5.246094l-4.830078-2.41211-5.664062-2.833984 5.664062-2.833984 4.820313-2.40625zm-16.152344 1.240234a0.99990203 0.99990203 0 0 1 0.998047 1 0.99990203 0.99990203 0 0 1-0.998047 1 0.99990203 0.99990203 0 0 1-1-1 0.99990203 0.99990203 0 0 1 1-1zm-3 3a0.99990203 0.99990203 0 0 1 1 1 0.99990203 0.99990203 0 0 1-1 0.998047 0.99990203 0.99990203 0 0 1-1-0.998047 0.99990203 0.99990203 0 0 1 1-1zm6 0a0.99990203 0.99990203 0 0 1 1 1 0.99990203 0.99990203 0 0 1-1 0.998047 0.99990203 0.99990203 0 0 1-1-0.998047 0.99990203 0.99990203 0 0 1 1-1zm-3 3a0.99990203 0.99990203 0 0 1 0.998047 1 0.99990203 0.99990203 0 0 1-0.998047 1 0.99990203 0.99990203 0 0 1-1-1 0.99990203 0.99990203 0 0 1 1-1zm-4.007812 2.007812-2.001954 6.007813-1.705078 5.113281a17.000277 17.000277 0 0 1-4.480468-3.283203 17.000277 17.000277 0 0 1-2.951172-4.125l5.130859-1.710937 6.007813-2.001954zm8.015624 0 6.007813 2.001954 5.113281 1.705078a17.000277 17.000277 0 0 1-3.283203 4.480468 17.000277 17.000277 0 0 1-4.125 2.951172l-1.710937-5.130859-2.001954-6.007813zm-4.007812 1.660157 2.833984 5.664062 2.40625 4.820313a17.000277 17.000277 0 0 1-5.240234 0.847656 17.000277 17.000277 0 0 1-5.246094-0.837891l2.41211-4.830078 2.833984-5.664062z" style="fill:#dba824"/>
 <path d="m32 12a20.000001 20.000001 0 0 0-20 20 20.000001 20.000001 0 0 0 0.021484 0.417969 20.000001 20.000001 0 0 1 19.978516-19.417969 20.000001 20.000001 0 0 1 19.978516 19.582031 20.000001 20.000001 0 0 0 0.021484-0.582031 20.000001 20.000001 0 0 0-20-20zm4.808594 4.712891-1.97461 3.955078-2.833984 5.664062-2.833984-5.664062-1.966797-3.941407a17.000277 17.000277 0 0 0-0.439453 0.121094l2.40625 4.820313 2.833984 5.664062 2.833984-5.664062 2.41211-4.830078a17.000277 17.000277 0 0 0-0.4375-0.125zm9.855468 7.726562-4.648437 1.550781-5.632813 1.876954-0.375 1.125 6.007813-2.001954 5.130859-1.710937a17.000277 17.000277 0 0 0-0.482422-0.839844zm-29.314453 0.005859a17.000277 17.000277 0 0 0-0.478515 0.839844l5.113281 1.705078 6.007813 2.001954-0.375-1.125-5.632813-1.876954-4.634766-1.544922zm13.785157 5.054688a0.99990203 0.99990203 0 0 0-0.134766 0.5 0.99990203 0.99990203 0 0 0 1 1 0.99990203 0.99990203 0 0 0 0.998047-1 0.99990203 0.99990203 0 0 0-0.134766-0.5 0.99990203 0.99990203 0 0 1-0.863281 0.5 0.99990203 0.99990203 0 0 1-0.865234-0.5zm17.841796 2.953125a17.000277 17.000277 0 0 1-0.814453 4.792969l-4.830078-2.41211-4.664062-2.333984-1 0.5 5.664062 2.833984 4.830078 2.41211a17.000277 17.000277 0 0 0 0.837891-5.246094 17.000277 17.000277 0 0 0-0.023438-0.546875zm-23.644531 0.046875-4.664062 2.333984-4.820313 2.40625a17.000277 17.000277 0 0 1-0.824218-4.693359 17.000277 17.000277 0 0 0-0.023438 0.453125 17.000277 17.000277 0 0 0 0.847656 5.240234l4.820313-2.40625 5.664062-2.833984-1-0.5zm2.804688 0a0.99990203 0.99990203 0 0 0-0.136719 0.5 0.99990203 0.99990203 0 0 0 1 0.998047 0.99990203 0.99990203 0 0 0 1-0.998047 0.99990203 0.99990203 0 0 0-0.136719-0.5 0.99990203 0.99990203 0 0 1-0.863281 0.498047 0.99990203 0.99990203 0 0 1-0.863281-0.498047zm6 0a0.99990203 0.99990203 0 0 0-0.136719 0.5 0.99990203 0.99990203 0 0 0 1 0.998047 0.99990203 0.99990203 0 0 0 1-0.998047 0.99990203 0.99990203 0 0 0-0.136719-0.5 0.99990203 0.99990203 0 0 1-0.863281 0.498047 0.99990203 0.99990203 0 0 1-0.863281-0.498047zm-3.001953 3a0.99990203 0.99990203 0 0 0-0.134766 0.5 0.99990203 0.99990203 0 0 0 1 1 0.99990203 0.99990203 0 0 0 0.998047-1 0.99990203 0.99990203 0 0 0-0.134766-0.5 0.99990203 0.99990203 0 0 1-0.863281 0.5 0.99990203 0.99990203 0 0 1-0.865234-0.5zm-3.142578 1.507812-0.375 0.125-1.626954 4.882813-1.705078 5.113281a17.000277 17.000277 0 0 1-4.480468-3.283203 17.000277 17.000277 0 0 1-2.46875-3.285156l-0.482422 0.160156a17.000277 17.000277 0 0 0 2.951172 4.125 17.000277 17.000277 0 0 0 4.480468 3.283203l1.705078-5.113281 2.001954-6.007813zm8.015624 0 2.001954 6.007813 1.710937 5.130859a17.000277 17.000277 0 0 0 4.125-2.951172 17.000277 17.000277 0 0 0 3.283203-4.480468l-0.478515-0.160156a17.000277 17.000277 0 0 1-2.804688 3.640624 17.000277 17.000277 0 0 1-4.125 2.951172l-1.710937-5.130859-1.626954-4.882813-0.375-0.125zm0.792969 11.265626a17.000277 17.000277 0 0 1-4.800781 0.726562 17.000277 17.000277 0 0 1-4.808594-0.712891l-0.4375 0.875a17.000277 17.000277 0 0 0 5.246094 0.837891 17.000277 17.000277 0 0 0 5.240234-0.847656l-0.439453-0.878906z" style="fill:#8b9cbe;opacity:.2"/>
 <path d="M 32 4 A 28 28 0 0 0 4 32 A 28 28 0 0 0 4.0214844 32.585938 A 28 28 0 0 1 32 5 A 28 28 0 0 1 59.978516 32.414062 A 28 28 0 0 0 60 32 A 28 28 0 0 0 32 4 z" style="fill:#8b9cbe;opacity:.1"/>
</svg>
