<svg width="64" height="64" version="1" xmlns="http://www.w3.org/2000/svg">
 <rect x="4" y="5" width="56" height="56" rx="2.8" ry="2.8" style="opacity:.2"/>
 <rect x="4" y="4" width="56" height="56" rx="2.8" ry="2.8" style="fill:#a52727"/>
 <path d="m57.398438 18-2.123047 0.06641c-1.553929-0.01064-3.300405-0.01721-3.316407-0.01172l-1.359375 4.019531s-1.598889-4.07565-1.921875-3.998047l-0.257812-0.01563c-0.140763-0.0092-0.808853-0.01563-1.730469-0.01563h-1.689453v14.787109l-0.134766 0.103516c-0.117712 0.0846-0.138684 0.112016-0.111328 0.138672l4.212891 3.027343 0.01172-2.945312c0.01232-2.707936 0.01661-2.929488 0.05469-2.806641l1.566406 4.125 1.414063-4.287109 0.01367 3.896484 0.01367 3.896485 3.947265 2.796875 0.01172-10.86132 0.01367-10.445313zm-35.128907 2e-3 -0.632812 0.474609-0.634766 0.476563v6.90625l-2e-3 6.910109 6.464844 4.832031 3.535156-2.652343-0.0059-7.996094-0.0078-7.998047-0.623047-0.478516-0.626953-0.474609h-3.732422zm11.994141 0-0.626953 0.474609-0.623047 0.478516-0.0078 7.998047-0.0059 7.996047 3.535156 2.652343 6.464844-4.832031-2e-3 -6.910156v-6.90625l-0.634738-0.476563-0.632812-0.474609h-3.734375zm-26.664062 0.0078 1.4335937 1.417968v10.048828c0 5.527761 0.0099 10.431367 0.019531 10.896485v0.0039c0.012446 0.598545 0.026283 1.436165 0.046875 1.423828 0.068914-0.04112 10.266582-8.307936 10.279297-8.328125 0.0076-0.01232-0.05882-0.07306-0.146484-0.134765l-0.160156-0.115235v-14.267578l-0.605469-0.464844-0.605469-0.470703-5.064453-0.0078c-3.3078719-0.0053-5.2137119-0.01727-5.1972656-2e-3zm19.68164 3.009731c0.174966-0.01495 0.205912-0.01018 0.453125 0.111328l0.259766 0.128907 0.0059 6.111328c1e-3 2.77721-0.01357 6.309648-0.03125 6.308594l-3.962932-2.976563v-4.261719l-0.0059-5.183594 0.246094-0.113281 0.240234-0.111328h1.304688c0.717074 0 1.387511-0.0049 1.490234-0.01367zm9.4375 0c0.102723 0.0088 0.77316 0.01367 1.490234 0.01367h1.304688l0.240234 0.11133 0.246094 0.113281-0.0059 5.183594v4.261719l-3.96285 2.976563c-0.01768 0.0011-0.03225-3.531384-0.03125-6.308594l0.0059-6.111328 0.259766-0.128907c0.247213-0.121508 0.278159-0.126278 0.453125-0.111328zm-21.177734 0.05078 0.242187 0.109376 0.236328 0.105468v10.611328l-3.998047 3.033204c-0.04925 0.01694-0.05364-5.147219-0.04297-9.236329l0.0098-4.609375 1.962891-0.0059zm4.458984 15.929689-8 7 1 1h2v2l1 1h9l2 1h3l1 3h2l1-3h3l2-1h9l1-1v-2h2l1-1-8-7h-2l6 5h-6l-3-1h-4l-3-3-3 3h-4l-3 1h-6l6-5z" style="opacity:.2"/>
 <path d="m57.398438 17-2.123047 0.066406c-1.553929-0.01064-3.300405-0.017209-3.316407-0.011718l-1.359375 4.019531s-1.598889-4.07565-1.921875-3.998047l-0.257812-0.015625c-0.140763-0.0092-0.808853-0.015625-1.730469-0.015625h-1.689453v7.18164 7.605469l-0.134766 0.103516c-0.117712 0.0846-0.138684 0.112016-0.111328 0.138672l4.212891 3.027343 0.011719-2.945312c0.01232-2.707936 0.016607-2.929488 0.054687-2.806641l1.566406 4.125 1.414063-4.287109 0.013672 3.896484 0.013672 3.896485 3.947265 2.796875 0.011719-10.861328 0.013672-10.445313 1.384766-1.470703zm-35.128907 0.001953-0.632812 0.474609-0.634766 0.476563v6.90625l-0.001953 6.910156 6.464844 4.832031 3.535156-2.652343-0.005859-7.996094-0.007813-7.998047-0.623047-0.478516-0.626953-0.474609h-3.732422-3.734375zm11.994141 0-0.626953 0.474609-0.623047 0.478516-0.007813 7.998047-0.005859 7.996094 3.535156 2.652343 6.464844-4.832031-0.001953-6.910156v-6.90625l-0.634766-0.476563-0.632812-0.474609h-3.734375-3.732422zm-26.664063 0.007813 1.4335937 1.417968v10.048828c0 5.527761 0.0099003 10.431367 0.0195313 10.896485v0.003906c0.012446 0.598545 0.026283 1.436165 0.046875 1.423828 0.068914-0.04112 10.266582-8.307936 10.279297-8.328125 0.0076-0.01232-0.05882-0.07306-0.146484-0.134765l-0.160156-0.115235v-7.132812-7.134766l-0.605469-0.464844-0.605469-0.470703-5.064453-0.007812c-3.3078719-0.0053-5.2137119-0.017273-5.1972656-0.001953zm19.681641 3.009765c0.174966-0.01495 0.205912-0.01018 0.453125 0.111328l0.259766 0.128907 0.005859 6.111328c1e-3 2.77721-0.01357 6.309648-0.03125 6.308594l-3.962891-2.976563v-4.261719l-0.005859-5.183594 0.246094-0.113281 0.240234-0.111328h1.304688c0.717074 0 1.387511-0.004902 1.490234-0.013672zm9.4375 0c0.102723 0.0088 0.77316 0.013672 1.490234 0.013672h1.304688l0.240234 0.111328 0.246094 0.113281-0.005859 5.183594v4.261719l-3.962891 2.976563c-0.01768 0.001052-0.03225-3.531384-0.03125-6.308594l0.005859-6.111328 0.259766-0.128907c0.247213-0.121508 0.278159-0.126278 0.453125-0.111328zm-21.177734 0.050781 0.242187 0.109376 0.236328 0.105468v3.611328 7l-3.998047 3.033204c-0.04925 0.016939-0.053638-5.147219-0.042968-9.236329l0.009765-4.609375 1.962891-0.005859 1.589844-0.007813zm4.458984 15.929688-8 7 1 1h2v2l1 1h9l2 1h3l1 3h1 1l1-3h3l2-1h9l1-1v-2h2l1-1-8-7h-2l6 5h-6l-3-1h-4l-3-3-3 3h-4l-3 1h-6l6-5h-2z" style="fill:#8b9cbe"/>
 <path d="M 6.8007812 4 C 5.2495813 4 4 5.2495813 4 6.8007812 L 4 7.8007812 C 4 6.2495813 5.2495813 5 6.8007812 5 L 57.199219 5 C 58.750419 5 60 6.2495813 60 7.8007812 L 60 6.8007812 C 60 5.2495813 58.750419 4 57.199219 4 L 6.8007812 4 z" style="fill:#8b9cbe;opacity:.1"/>
</svg>
