<svg width="64" height="64" version="1.1" xmlns="http://www.w3.org/2000/svg">
 <path d="m12 58c0 3 6 3 6 3h25s3 0 3-3-3-3-3-3-11 0-11-8c0-11 14-11 14-11s6-1 6-12c0-14-6-16-6-16s-7-3-28-3c-2.8 0-6 0-6 3s3.2 3 6 3c3 0 3 5 3 5v35c0 4-3 4-3 4s-6 0-6 3z" style="opacity:.2"/>
 <path d="m12 57c0 3 6 3 6 3h25s3 0 3-3-3-3-3-3-11 0-11-8c0-11 14-11 14-11s6-1 6-12c0-14-6-16-6-16s-7-3-28-3c-2.8 0-6 0-6 3s3.2 3 6 3c3 0 3 5 3 5v35c0 4-3 4-3 4s-6 0-6 3z" style="fill:#ec4040"/>
 <path d="m30 33s16-0.2 16-10-16-10-16-10 2 7 2 10-2 10-2 10z" style="opacity:.1"/>
 <path d="m30 32s16-0.2 16-10-16-10-16-10 2 7 2 10-2 10-2 10z" style="fill:#4f4f4f"/>
 <path d="m 18,4 c -2.8,0 -6,0 -6,3 0,0.1777771 0.01343,0.3426684 0.03516,0.5 C 12.380047,5.0023508 15.365925,5 18,5 39,5 46,8 46,8 46,8 51.820013,9.9681945 51.984375,23.439453 51.986729,23.288247 52,23.155161 52,23 52,9 46,7 46,7 46,7 39,4 18,4 Z M 32.021484,46.488281 C 32.014438,46.65861 32,46.82409 32,47 c 0,8 11,8 11,8 0,0 2.654094,0.0023 2.96875,2.5 C 45.98857,57.342672 46,57.177773 46,57 46,54 43,54 43,54 43,54 32.464329,53.99474 32.021484,46.488281 Z M 21,50 c 0,4 -3,4 -3,4 0,0 -6,0 -6,3 0,0.177757 0.02287,0.342684 0.0625,0.5 C 12.691765,55.002299 18,55 18,55 c 0,0 3,0 3,-4 z" style="fill:#8b9cbe;opacity:.2"/>
 <circle cx="47.000401" cy="47.999172" r="15" style="opacity:.2"/>
 <circle cx="47.000401" cy="46.999172" r="15" style="fill:#42cd68"/>
 <path d="m43 40 4e-4 13.999171h3l-4e-4 -4.999171 2.0004 4.999171h3l-3.0004-4.999171s3 0 3-3v-3c0-3-3-3-3-3zm3.5 3c0.828426 0 1.5 0.671574 1.5 1.5s-0.671574 1.5-1.5 1.5-1.5-0.671574-1.5-1.5 0.671574-1.5 1.5-1.5z" style="fill:#8b9cbe"/>
</svg>
