<svg xmlns="http://www.w3.org/2000/svg" width="64" height="64" version="1.1">
 <path style="opacity:0.2" d="M 15.048828 5 A 7.024471 6.979559 0 0 0 8.5410156 14.666016 L 25.398438 56.472656 A 7.024471 6.979559 0 0 0 30.808594 60.894531 A 7.0246128 6.9797433 0 0 1 25.564453 51.28125 L 32 35.320312 L 21.580078 9.4765625 A 7.024471 6.979559 0 0 0 15.048828 5 z M 30.810547 60.894531 A 7.024471 6.979559 0 0 0 31.435547 60.972656 A 7.0246128 6.9797433 0 0 1 30.810547 60.894531 z M 32.654297 60.964844 A 7.0246128 6.9797433 0 0 1 32.490234 60.976562 A 7.024471 6.979559 0 0 0 32.654297 60.964844 z M 31.621094 60.984375 A 7.024471 6.979559 0 0 0 32.046875 60.994141 A 7.0246128 6.9797433 0 0 1 31.621094 60.984375 z"/>
 <path style="fill:#ffa000" d="M 15.049503,4.0000443 A 7.024471,6.979559 0 0 0 8.5415408,13.666857 L 25.398586,55.47187 a 7.024471,6.979559 0 1 0 13.03787,-5.190528 L 21.579413,8.4763293 a 7.024471,6.979559 0 0 0 -6.52991,-4.476285 z"/>
 <path style="opacity:0.2" d="m 48.736965,5.0040091 a 7.0246128,6.9797433 0 0 0 -6.316032,4.470951 L 25.563548,51.281078 a 7.0246128,6.9797433 0 1 0 13.038133,5.190666 L 55.459066,14.665625 A 7.0246128,6.9797433 0 0 0 48.736965,5.0040091 Z"/>
 <path style="opacity:0.2;fill:#8b9cbe" d="M 15.048828 4 A 7.024471 6.979559 0 0 0 8.0234375 11.433594 A 7.024471 6.979559 0 0 1 15.048828 5 A 7.024471 6.979559 0 0 1 21.580078 9.4765625 L 38.435547 51.28125 A 7.024471 6.979559 0 0 1 38.976562 53.585938 A 7.024471 6.979559 0 0 0 38.435547 50.28125 L 21.580078 8.4765625 A 7.024471 6.979559 0 0 0 15.048828 4 z"/>
 <path style="fill:#ffca28" d="m 48.736965,4.0040213 a 7.0246128,6.9797433 0 0 0 -6.316032,4.470951 L 25.563548,50.28109 a 7.0246128,6.9797433 0 1 0 13.038133,5.190666 L 55.459066,13.665637 A 7.0246128,6.9797433 0 0 0 48.736965,4.0040213 Z"/>
 <path style="opacity:0.2;fill:#8b9cbe" d="M 48.736328 4.0039062 A 7.0246128 6.9797433 0 0 0 42.421875 8.4746094 L 25.564453 50.28125 A 7.0246128 6.9797433 0 0 0 25.025391 53.525391 A 7.0246128 6.9797433 0 0 1 25.564453 51.28125 L 42.421875 9.4746094 A 7.0246128 6.9797433 0 0 1 48.736328 5.0039062 A 7.0246128 6.9797433 0 0 1 55.974609 11.5 A 7.0246128 6.9797433 0 0 0 48.736328 4.0039062 z"/>
</svg>
