<svg xmlns="http://www.w3.org/2000/svg" height="64" width="64" version="1.1" xmlns:xlink="http://www.w3.org/1999/xlink">
 <path style="opacity:.2" d="m14 13 24-8 12 9v47h-36z"/>
 <path style="fill:#b79f32" d="m14 12 24-8 12 9v47h-36z"/>
 <path style="fill:#987e2e" d="m38 4v56h12v-47z"/>
 <path style="opacity:.2;fill:#8b9cbe" d="m38 4l-24 8v1l24-8 12 9v-1l-12-9z"/>
</svg>
