<svg width="64" height="64" version="1.1" xmlns="http://www.w3.org/2000/svg">
 <path d="m45 8a7 7 0 0 0-7 7 7 7 0 0 0 0.064453 0.890625l-10.601562 6.816406a14 14 0 0 0-9.462891-3.707031 14 14 0 0 0-14 14 14 14 0 0 0 14 14 14 14 0 0 0 10.705078-4.978516l11.320313 5.498047a10 10 0 0 0-0.025391 0.480469 10 10 0 0 0 10 10 10 10 0 0 0 10-10 10 10 0 0 0-7.263672-9.609375l-3.55664-17.785156a7 7 0 0 0 2.820312-5.605469 7 7 0 0 0-7-7zm-3.689453 12.9375a7 7 0 0 0 1.986328 0.84375l3.361328 16.804688a10 10 0 0 0-4.539062 3.279296l-10.632813-5.166015a14 14 0 0 0 0.513672-3.699219 14 14 0 0 0-1.087891-5.376953l10.398438-6.685547z" style="opacity:.2"/>
 <path d="m44.919922 11.001953a3.0003 3.0003 0 0 0-1.542969 0.474609l-28 18a3.0003 3.0003 0 0 0 0.3125 5.222657l35 17a3.0003 3.0003 0 0 0 4.251953-3.28711l-7-35a3.0003 3.0003 0 0 0-3.021484-2.410156zm-1.998047 7.900391 4.951172 24.757812-24.755859-12.02539z" style="fill:#353535"/>
 <path d="m44.919922 11.001953a3.0003 3.0003 0 0 0-1.542969 0.474609l-28 18a3.0003 3.0003 0 0 0-1.332031 3.021485 3.0003 3.0003 0 0 1 1.332031-2.021485l28-18a3.0003 3.0003 0 0 1 1.542969-0.474609 3.0003 3.0003 0 0 1 3.021484 2.410156l7 35a3.0003 3.0003 0 0 1 0.013672 0.078125 3.0003 3.0003 0 0 0-0.013672-1.078125l-7-35a3.0003 3.0003 0 0 0-3.021484-2.410156zm-20.916016 21.0625-0.886718 0.570313 24.755859 12.02539-0.220703-1.107422-23.648438-11.488281z" style="fill:#8b9cbe;opacity:.1"/>
 <path d="m44.919922 11.001953a3.0003 3.0003 0 0 0-1.542969 0.474609l-5.375 3.455079a7 7 0 0 0-0.001953 0.068359 7 7 0 0 0 2.570312 5.414062l2.351563-1.511718 0.585937 2.927734a7 7 0 0 0 1.492188 0.169922 7 7 0 0 0 4.353516-1.527344l-1.41211-7.060547a3.0003 3.0003 0 0 0-3.021484-2.410156zm-18.109375 11.125-11.433594 7.349609a3.0003 3.0003 0 0 0 0.3125 5.222657l13.572266 6.591797a14 14 0 0 0 2.439453-5.486328l-8.583984-4.169922 7.441406-4.783204a14 14 0 0 0-3.748047-4.724609zm23.189453 15.873047a10 10 0 0 0-3.154297 0.519531l1.027344 5.140625-5.154297-2.503906a10 10 0 0 0-2.605469 5.40625l10.576172 5.136719a3.0003 3.0003 0 0 0 4.251953-3.28711l-1.990234-9.955078a10 10 0 0 0-2.951172-0.457031z" style="opacity:.2"/>
 <circle cx="18" cy="32" r="14" style="fill:#fe6501"/>
 <circle cx="45" cy="14" r="7" style="fill:#fe6501"/>
 <circle cx="50" cy="47" r="10" style="fill:#fe6501"/>
 <path d="M 45 7 A 7 7 0 0 0 38 14 A 7 7 0 0 0 38.023438 14.458984 A 7 7 0 0 1 45 8 A 7 7 0 0 1 51.976562 14.541016 A 7 7 0 0 0 52 14 A 7 7 0 0 0 45 7 z M 18 18 A 14 14 0 0 0 4 32 A 14 14 0 0 0 4.0214844 32.414062 A 14 14 0 0 1 18 19 A 14 14 0 0 1 31.978516 32.585938 A 14 14 0 0 0 32 32 A 14 14 0 0 0 18 18 z M 50 37 A 10 10 0 0 0 40 47 A 10 10 0 0 0 40.021484 47.414062 A 10 10 0 0 1 50 38 A 10 10 0 0 1 59.978516 47.585938 A 10 10 0 0 0 60 47 A 10 10 0 0 0 50 37 z " style="fill:#8b9cbe;opacity:.2"/>
</svg>
