<svg width="64" height="64" version="1.1" xmlns="http://www.w3.org/2000/svg">
 <rect x="49" y="8" width="11" height="50" rx="2.75" ry="2.7780001" style="opacity:.2"/>
 <rect x="4" y="8" width="11" height="50" rx="2.75" ry="2.7780001" style="opacity:.2"/>
 <path d="m9.4999999 12c-1.3849999 0-2.5 0.99111-2.5 2.222223v35.555554c0 1.231113 1.1150001 2.222223 2.5 2.222223h41.249999c1.385001 0 2.500001-0.99111 2.500001-2.222223v-35.555554c0-1.231113-1.115-2.222223-2.500001-2.222223zm40 0c-1.385 0-2.5 0.99111-2.5 2.222223v35.555554c0 1.231113 1.115 2.222223 2.5 2.222223h4.999999c1.385 0 2.500001-0.99111 2.500001-2.222223v-35.555554c0-1.231113-1.115001-2.222223-2.500001-2.222223z" style="fill:#5ecff3"/>
 <rect x="4" y="7" width="11" height="50" rx="2.75" ry="2.7780001" style="fill:#868686"/>
 <rect x="49" y="7" width="11" height="50" rx="2.75" ry="2.7780001" style="fill:#868686"/>
 <path d="m15 42h34" style="fill:none;stroke-linecap:round;stroke-linejoin:round;stroke-width:6;stroke:#c48f61"/>
 <path d="m15 37c-3.313709 0-6.0000001 2.686291-6 6-1e-7 3.313709 2.686291 6 6 6s6-2.686291 6-6-2.686291-6-6-6zm17 0c-3.313709 0-6 2.686291-6 6s2.686291 6 6 6 6-2.686291 6-6-2.686291-6-6-6zm17 0c-3.313709 0-6 2.686291-6 6s2.686291 6 6 6 6-2.686291 6-6-2.686291-6-6-6z" style="opacity:.2"/>
 <path d="m32 27c-21.333333 24.666667-10.666667 12.333333 0 0zm-17 9c-3.313709 0-6.0000001 2.686291-6 6-1e-7 3.313709 2.686291 6 6 6s6-2.686291 6-6-2.686291-6-6-6zm17 0c-3.313709 0-6 2.686291-6 6s2.686291 6 6 6 6-2.686291 6-6-2.686291-6-6-6zm17 0c-3.313709 0-6 2.686291-6 6s2.686291 6 6 6 6-2.686291 6-6-2.686291-6-6-6z" style="fill:#8b9cbe"/>
 <path d="M 6.75,7 C 5.2265,7 4,8.2384548 4,9.7773438 V 10.777344 C 4,9.2384548 5.2265,8 6.75,8 h 5.5 C 13.7735,8 15,9.2384548 15,10.777344 V 9.7773438 C 15,8.2384548 13.7735,7 12.25,7 Z" style="fill:#8b9cbe;opacity:.1"/>
 <path d="M 51.75,7 C 50.2265,7 49,8.2384548 49,9.7773438 V 10.777344 C 49,9.2384548 50.2265,8 51.75,8 h 5.5 C 58.7735,8 60,9.2384548 60,10.777344 V 9.7773438 C 60,8.2384548 58.7735,7 57.25,7 Z" style="fill:#8b9cbe;opacity:.1"/>
</svg>
