<svg xmlns="http://www.w3.org/2000/svg" width="64" height="64" version="1.1">
 <rect style="opacity:0.2" width="56" height="56" x="4" y="5" rx="2.8" ry="2.8"/>
 <rect style="fill:#44465a" width="56" height="56" x="4" y="4" rx="2.8" ry="2.8"/>
 <path style="opacity:0.2" d="m 43.231882,13.005643 c -0.868335,-0.03037 -2.922532,0.06145 -6.475677,0.287118 -2.763399,0.175515 -4.6038,0.270056 -6.208955,0.351785 l -0.741176,0.874286 -0.674497,-0.794101 c -0.116139,0.0048 -0.642761,0.0393 -0.718094,0.04138 -3.924763,0.108458 -8.783998,0.34144 -9.114675,0.437144 -0.340544,0.09856 -0.353063,0.331488 -0.220558,3.848928 0.07756,2.058813 0.216045,4.144634 0.307756,4.392887 0.156012,0.422314 0.282435,0.452664 1.961938,0.452664 0.987266,0 2.138897,0.08537 2.138897,0.08537 0,0 -0.658352,0.477833 -1.041236,0.716502 -0.568961,0.354654 -0.695014,0.556084 -0.695014,1.099323 0,1.232649 0.606851,8.204964 1.000202,11.608093 0.321,2.77719 0.392388,4.704584 0.392389,10.848389 0,4.109592 0.05785,7.53118 0.130805,7.604733 0.266997,0.26929 1.053649,0.125972 1.241279,-0.227625 0.567169,-1.068862 1.854096,-4.704831 1.96289,-6.458851 0.08928,-1.439385 0.228251,-3.049653 0.228251,-3.049653 0,0 1.129219,2.960826 1.700345,3.664123 0.473316,0.391175 0.953267,0.711326 1.066885,0.711326 0.400654,0 0.47012,-0.845069 0.487279,-7.621688 0.0059,-2.324658 0.04985,-5.207274 0.08464,-8.067745 l -0.933523,-0.80962 0.951476,-0.822553 c 0.01576,-1.128231 0.01874,-2.482144 0.0359,-3.362638 l 0.123097,-5.877657 0.94378,0.04915 c 1.487029,0.07644 4.535355,0.971694 7.839105,2.605548 l 3.03395,1.500255 0.28211,-0.442317 c 0.464095,-0.727403 1.084324,-2.805281 1.418235,-4.756841 0.35908,-2.098535 0.342222,-8.450344 -0.02309,-8.817869 -0.03692,-0.03714 -0.195269,-0.05971 -0.484713,-0.06985 z"/>
 <path style="fill:#8b9cbe" d="m 43.231882,12.005643 c -0.868335,-0.03037 -2.922532,0.06145 -6.475677,0.287118 -2.763399,0.175515 -4.6038,0.270056 -6.208955,0.351785 l -0.741176,0.874286 -0.674497,-0.794101 c -0.116139,0.0048 -0.642761,0.0393 -0.718094,0.04138 -3.924763,0.108458 -8.783998,0.34144 -9.114675,0.437144 -0.340544,0.09856 -0.353063,0.331488 -0.220558,3.848928 0.07756,2.058813 0.216045,4.144634 0.307756,4.392887 0.156012,0.422314 0.282435,0.452664 1.961938,0.452664 0.987266,0 2.138897,0.08537 2.138897,0.08537 0,0 -0.658352,0.477833 -1.041236,0.716502 -0.568961,0.354654 -0.695014,0.556084 -0.695014,1.099323 0,1.232649 0.606851,8.204964 1.000202,11.608093 0.321,2.77719 0.392388,4.704584 0.392389,10.848389 0,4.109592 0.05785,7.53118 0.130805,7.604733 0.266997,0.26929 1.053649,0.125972 1.241279,-0.227625 0.567169,-1.068862 1.854096,-4.704831 1.96289,-6.458851 0.08928,-1.439385 0.228251,-3.049653 0.228251,-3.049653 0,0 1.129219,2.960826 1.700345,3.664123 0.473316,0.391175 0.953267,0.711326 1.066885,0.711326 0.400654,0 0.47012,-0.845069 0.487279,-7.621688 0.0059,-2.324658 0.04985,-5.207274 0.08464,-8.067745 l -0.933523,-0.80962 0.951476,-0.822553 c 0.01576,-1.128231 0.01874,-2.482144 0.0359,-3.362638 l 0.123097,-5.877657 0.94378,0.04915 c 1.487029,0.07644 4.535355,0.971694 7.839105,2.605548 l 3.03395,1.500255 0.28211,-0.442317 c 0.464095,-0.727403 1.084324,-2.805281 1.418235,-4.756841 0.35908,-2.098535 0.342222,-8.450344 -0.02309,-8.817869 -0.03692,-0.03714 -0.195269,-0.05971 -0.484713,-0.06985 z"/>
 <path style="fill:#8b9cbe;opacity:0.1" d="M 6.8007812 4 C 5.2495813 4 4 5.2495813 4 6.8007812 L 4 7.8007812 C 4 6.2495813 5.2495813 5 6.8007812 5 L 57.199219 5 C 58.750419 5 60 6.2495813 60 7.8007812 L 60 6.8007812 C 60 5.2495813 58.750419 4 57.199219 4 L 6.8007812 4 z"/>
</svg>
