<svg xmlns="http://www.w3.org/2000/svg" width="64" height="64" version="1">
 <rect style="opacity:0.2" width="56" height="56" x="4" y="5" rx="2.8" ry="2.8"/>
 <rect style="fill:#4e8b94" width="56" height="56" x="4" y="4" rx="2.8" ry="2.8"/>
 <path style="opacity:0.2" d="M 19,13 V 52.984375 L 26,53 V 38.6875 c 0.448788,0.339123 1.161102,1.047938 1.644531,1.3125 H 38.154297 C 42.323785,37.719243 44.994208,32.368545 45,26.943359 44.999981,19.242139 39.712611,13.000032 33.189453,13 30.931714,13.0053 27.898911,13.774949 26,15.216797 V 13 Z m 6.724609,3.994141 c 0.749627,0.01964 1.434096,0.44886 2.232422,1.076171 1.367923,1.080926 3.073645,2.519915 4.56836,4.025391 0.886726,-0.144036 2.026444,-0.183096 3.566406,-0.09766 1.646822,-1.362157 3.117006,-1.033985 4.529297,-0.158203 0.438348,1.76929 -0.241991,2.265059 -0.164063,2.839844 l 0.205078,1.503906 C 39.587769,26.695671 38.631214,26.01818 37.671875,25.375 l 0.04102,0.08984 -0.59375,2.628906 c -0.147301,2.579078 0.25193,4.520796 1.40625,6.664062 l -0.949219,0.433594 c -0.635948,-1.611234 -1.430345,-3.14542 -1.519531,-5.03125 -1.379785,1.570271 -0.319011,3.667373 0.21875,5.650391 l -1.34961,0.900391 c -0.785309,-0.932005 -1.042218,-3.859487 -1.257812,-6.9375 -0.466064,1.038508 -0.918336,2.083411 -1.666016,2.980468 0.326532,1.445331 0.324415,2.890615 -0.503906,4.335938 l -1.285156,0.865234 -0.470703,-5.460937 c -0.43916,1.216753 -0.745503,3.628731 -1.320313,3.61914 -0.586958,-3.032988 1.141872,-5.24467 2.693359,-7.519531 l -0.375,0.177734 -2.673828,2.394532 c -2.089489,1.097233 -10.640618,5.55124 -2.841797,-5.160157 0.767349,-1.053915 1.906139,0.133422 3.285157,-1.234375 0.102545,-0.114714 0.193308,-0.217013 0.289062,-0.326172 -2.213767,-0.761786 -5.545381,-2.135082 -5.800781,-3.845703 0,0 -0.07777,-1.883315 0.46875,-2.552734 0.884664,-0.767544 1.596377,-1.070091 2.257812,-1.052734 z"/>
 <path style="fill:#8b9cbe" d="M 19 12 L 19 51.984375 L 26 52 L 26 37.6875 C 26.448788 38.026623 27.161102 38.735438 27.644531 39 L 38.154297 39 C 42.323785 36.719243 44.994208 31.368545 45 25.943359 C 44.999981 18.242139 39.712611 12.000032 33.189453 12 C 30.931714 12.0053 27.898911 12.774949 26 14.216797 L 26 12 L 19 12 z M 25.724609 15.994141 C 26.474236 16.013781 27.158705 16.443001 27.957031 17.070312 C 29.324954 18.151238 31.030676 19.590227 32.525391 21.095703 C 33.412117 20.951667 34.551835 20.912607 36.091797 20.998047 C 37.738619 19.63589 39.208803 19.964062 40.621094 20.839844 C 41.059442 22.609134 40.379103 23.104903 40.457031 23.679688 L 40.662109 25.183594 C 39.587769 25.695671 38.631214 25.01818 37.671875 24.375 L 37.712891 24.464844 L 37.119141 27.09375 C 36.97184 29.672828 37.371071 31.614546 38.525391 33.757812 L 37.576172 34.191406 C 36.940224 32.580172 36.145827 31.045986 36.056641 29.160156 C 34.676856 30.730427 35.73763 32.827529 36.275391 34.810547 L 34.925781 35.710938 C 34.140472 34.778933 33.883563 31.851451 33.667969 28.773438 C 33.201905 29.811946 32.749633 30.856849 32.001953 31.753906 C 32.328485 33.199237 32.326368 34.644521 31.498047 36.089844 L 30.212891 36.955078 L 29.742188 31.494141 C 29.303028 32.710894 28.996685 35.122872 28.421875 35.113281 C 27.834917 32.080293 29.563747 29.868611 31.115234 27.59375 L 30.740234 27.771484 L 28.066406 30.166016 C 25.976917 31.263249 17.425788 35.717256 25.224609 25.005859 C 25.991958 23.951944 27.130748 25.139281 28.509766 23.771484 C 28.612311 23.65677 28.703074 23.554471 28.798828 23.445312 C 26.585061 22.683526 23.253447 21.31023 22.998047 19.599609 C 22.998047 19.599609 22.920276 17.716294 23.466797 17.046875 C 24.351461 16.279331 25.063174 15.976784 25.724609 15.994141 z"/>
 <path style="fill:#8b9cbe;opacity:0.1" d="M 6.8007812 4 C 5.2495813 4 4 5.2495813 4 6.8007812 L 4 7.8007812 C 4 6.2495813 5.2495813 5 6.8007812 5 L 57.199219 5 C 58.750419 5 60 6.2495813 60 7.8007812 L 60 6.8007812 C 60 5.2495813 58.750419 4 57.199219 4 L 6.8007812 4 z"/>
</svg>
