<svg xmlns="http://www.w3.org/2000/svg" width="64" height="64" version="1">
 <rect style="opacity:0.2" width="56" height="56" x="-61" y="-60" rx="2.8" ry="2.8" transform="matrix(0,-1,-1,0,0,0)"/>
 <rect style="fill:#4f4f4f" width="56" height="56" x="-60" y="-60" rx="2.8" ry="2.8" transform="matrix(0,-1,-1,0,0,0)"/>
 <path style="opacity:0.2" d="m 40.695467,15.054688 c -0.45495,0 -0.972042,0.303299 -1.316406,0.773437 -0.19712,0.269102 -0.22242,0.483545 -0.26953,2.21875 l -0.05078,0.949219 -0.590031,0.02734 -2.185562,0.03126 c -0.398976,-0.112038 -1.117656,-0.713547 -1.578128,-1.039073 -0.560032,-0.6098 -1.16434,-1.312889 -1.339844,-1.558594 -0.770472,-1.0787 -1.914554,-1.330035 -2.714842,-0.597656 -0.545256,0.49899 -0.624302,0.274275 -0.625,2.089844 -4.18e-4,1.115369 -0.03646,1.116471 -0.13282,1.144531 -0.07162,0.02086 -0.572338,0.11964 -1.11328,0.21875 -0.540942,0.09912 -1.148022,0.268398 -1.351564,0.378906 -0.203544,0.1105 -0.447986,0.203126 -0.539062,0.203126 -0.09108,0 -0.537756,0.113 -0.992186,0.25 -0.454444,0.137 -1.16198,0.279898 -1.57422,0.320312 -0.412236,0.04042 -1.010794,0.16436 -1.328124,0.277344 -0.317332,0.11298 -0.66933,0.20703 -0.78125,0.20703 -0.411882,0 -2.286293,0.82956 -2.943313,1.21875 -1.047329,0.620398 -1.450095,0.942314 -3.039062,2.433594 -0.516732,0.484962 -1.45937,1.606184 -1.855469,2.207032 -0.191426,0.290382 -0.433045,0.622128 -0.535156,0.738282 -0.10211,0.11616 -0.416825,0.667026 -0.699219,1.218748 -0.621998,1.215242 -1.236453,3.579956 -1.128906,4.347658 0.03513,0.250768 0.108732,2.474674 0.160156,3.578124 0.09081,1.948488 0.104512,2.0433 0.515625,3.28125 0.232815,0.70107 0.514289,1.48838 0.625,1.75 0.227583,0.537802 1.073407,1.34493 1.761719,1.683594 0.243668,0.11988 0.441406,0.27022 0.441406,0.332032 0,0.06178 -0.114216,0.364444 -0.257813,0.671874 -0.143584,0.307444 -0.326198,0.712078 -0.40625,1.078126 -0.08005,0.366048 -0.246811,0.64218 -0.367187,1.101562 -0.120368,0.459374 -0.218479,0.359072 -0.21875,0.509486 -2.05e-4,0.15042 -0.116102,0.557792 -0.257813,0.90625 -0.474917,1.167842 -0.245511,2.332666 0.570313,2.88672 0.299646,0.203504 0.469185,0.240448 0.941406,0.20703 0.720068,-0.05094 1.168787,-0.367318 1.460938,-1.027342 0.117226,-0.264822 0.306016,-0.660228 0.417968,-0.875 0.111954,-0.214772 0.203125,-0.450882 0.203125,-0.527342 0,-0.07642 0.09877,-0.324046 0.21875,-0.550782 0.395555,-0.747584 0.94815,-1.52766 1.019532,-2.282926 0.05036,-0.532508 0.156092,-0.744512 0.367187,-1.109376 0.336967,-0.582448 0.394073,-0.588292 1.628907,-0.16796 0.372662,0.12686 1.01818,0.24856 1.089844,0.26953 0.10012,0.02928 0.13236,-0.438326 0.13282,1.775112 3.06e-4,1.680212 0.04574,3.04523 0.10938,3.277344 0.1324,0.48291 0.707298,1.091072 1.16797,1.234376 0.60476,0.18814 0.939484,0.05666 1.683594,-0.328126 0.475582,-0.24593 0.574932,-0.488326 0.796874,-0.808594 l 0.316406,-0.45703 0.03516,-2.765626 c 0.0178,-1.51966 0.06196,-1.65324 0.10156,-1.69308 0.03966,-0.03982 2.973114,-0.08048 5.92578,-0.09374 l 5.367188,-0.02344 0.1289,0.253906 c 0.06858,0.14164 0.19078,0.0224 0.273438,0.398438 0.0826,0.376046 0.300764,0.466758 0.484374,0.931364 0.18362,0.464612 0.495652,1.34333 0.695314,1.953126 0.446562,1.363878 0.76561,1.935198 1.265624,2.265624 1.009804,0.667318 2.319352,0.273782 2.726562,-0.820312 0.16558,-0.444914 0.13228,-1.711112 -0.05468,-2.164062 -0.08912,-0.215924 -0.20626,-0.769766 -0.265626,-1.234376 -0.0661,-0.517206 -0.224826,-0.492672 -0.40625,-0.880582 -0.374592,-0.800904 -0.502082,-0.878906 -0.289062,-0.878906 0.18246,0 0.747982,-0.295154 2.089844,-1.089844 0.5585,-0.330762 1.060446,-0.601562 1.117186,-0.601564 0.13456,0 0.19284,0.272982 0.308594,1.425782 0.05248,0.522686 0.17064,0.984798 0.26172,1.203126 0.0911,0.21833 0.229228,0.289904 0.308594,0.652344 0.744592,3.400182 0.824166,2.714162 1.558592,3.150112 0.918718,0.54534 1.873616,0.448416 2.5,-0.253908 0.203608,-0.22828 0.397334,-0.573752 0.433594,-0.76953 0.092,-0.496684 -0.11552,-1.36937 -0.414062,-2.626674 -0.301876,-1.271412 -0.57138,-2.982766 -0.589844,-4.378908 -0.0124,-0.941152 0.0078,-1.048476 0.253906,-1.375 0.14644,-0.19448 0.358374,-0.573692 0.472658,-0.84375 0.11428,-0.270056 0.404698,-0.806734 0.64453,-1.191406 0.239832,-0.384666 0.547504,-1.019578 0.683594,-1.410156 0.228942,-0.657074 0.24797,-1.416448 0.25,-3.402344 0.0017,-1.924498 -0.02394,-2.266284 -0.261718,-3.324218 -0.14586,-0.648932 -0.362958,-1.416648 -0.48047,-1.707032 -0.1175,-0.290396 -0.282142,-0.7865 -0.367196,-1.101578 -0.465654,-1.724872 -3.299805,-4.694528 -5.101375,-5.933594 -0.688754,-0.473696 -1.355468,-1.240676 -1.355468,-1.5625 0,-0.433502 -0.248338,-0.927346 -0.78125,-1.535156 -0.653056,-0.744821 -1.06587,-0.445652 -1.242188,-1.046875 -0.39132,-1.334316 -1.714876,-2.881921 -1.714876,-1.992187 z M 45.921876,23 c 1.39019,0.0024 2.279496,1.057036 2.039062,2.492188 -0.08126,0.4851 -0.689536,1.289796 -1.046876,1.386718 -0.47723,0.12946 -0.774458,0.152 -1.085938,0.07812 -0.941788,-0.223356 -1.6836,-0.947442 -1.804686,-1.76172 -0.16432,-1.10499 0.556564,-2.081198 1.61328,-2.183594 C 45.733658,23.002318 45.829198,23 45.921876,23 Z m -7.863282,4 c 1.080108,0.0104 2.070754,0.843418 1.929688,2.035156 -0.14464,1.222024 -0.824866,1.915328 -1.91797,1.960938 -0.33938,0.0142 -0.746022,-0.0156 -0.90625,-0.0664 -0.38029,-0.12066 -0.857156,-0.573342 -1.03125,-0.98047 -0.17694,-0.413802 -0.17574,-1.348712 0,-1.76953 0.0747,-0.17902 0.295034,-0.467422 0.492188,-0.640626 C 37.055868,27.160594 37.567644,26.995296 38.058594,27 Z"/>
 <path style="fill:#8b9cbe" d="m 40.695467,14.054688 c -0.45495,0 -0.972042,0.303299 -1.316406,0.773437 -0.19712,0.269102 -0.22242,0.483545 -0.26953,2.21875 l -0.05078,0.949219 -0.590031,0.02734 -2.185562,0.03125 c -0.398976,-0.112028 -1.117656,-0.713537 -1.578128,-1.039063 -0.560032,-0.6098 -1.16434,-1.312889 -1.339844,-1.558594 -0.770472,-1.0787 -1.914554,-1.330035 -2.714842,-0.597656 -0.545256,0.49899 -0.624302,0.274275 -0.625,2.089844 -4.18e-4,1.115368 -0.03646,1.11647 -0.13282,1.144531 -0.07162,0.02086 -0.572338,0.119646 -1.11328,0.21875 -0.540942,0.09911 -1.148022,0.268398 -1.351564,0.378906 -0.203544,0.110496 -0.447986,0.203125 -0.539062,0.203125 -0.09108,0 -0.537756,0.113008 -0.992186,0.25 -0.454444,0.136996 -1.16198,0.2799 -1.57422,0.320313 -0.412236,0.04041 -1.010794,0.164366 -1.328124,0.277344 -0.317332,0.112982 -0.66933,0.207029 -0.78125,0.207031 -0.411882,0 -2.286293,0.829559 -2.943313,1.218749 -1.047329,0.620398 -1.450095,0.942314 -3.039062,2.433594 -0.516732,0.484962 -1.45937,1.606184 -1.855469,2.207032 -0.191426,0.290382 -0.433045,0.622128 -0.535156,0.738282 -0.10211,0.11616 -0.416825,0.667026 -0.699219,1.218748 -0.621998,1.215242 -1.236453,3.579956 -1.128906,4.347658 0.03513,0.250768 0.108732,2.474674 0.160156,3.578124 0.09081,1.948488 0.104512,2.0433 0.515625,3.28125 0.232815,0.70107 0.514289,1.48838 0.625,1.75 0.227583,0.537802 1.073407,1.34493 1.761719,1.683594 0.243668,0.11988 0.441406,0.27022 0.441406,0.332032 0,0.06178 -0.114216,0.364444 -0.257813,0.671874 -0.143584,0.307444 -0.326198,0.712078 -0.40625,1.078126 -0.08005,0.366048 -0.246811,0.64218 -0.367187,1.101562 -0.120368,0.459374 -0.218479,0.359072 -0.21875,0.509486 -2.05e-4,0.15042 -0.116102,0.557792 -0.257813,0.90625 -0.474917,1.167842 -0.245511,2.332666 0.570313,2.88672 0.299646,0.203504 0.469185,0.240448 0.941406,0.20703 0.720068,-0.05094 1.168787,-0.367318 1.460938,-1.027342 0.117226,-0.264822 0.306016,-0.660228 0.417968,-0.875 0.111954,-0.214772 0.203125,-0.450882 0.203125,-0.527342 0,-0.07642 0.09877,-0.324046 0.21875,-0.550782 0.395555,-0.747584 0.94815,-1.52766 1.019532,-2.282926 0.05036,-0.532508 0.156092,-0.744512 0.367187,-1.109376 0.336967,-0.582448 0.394073,-0.588292 1.628907,-0.16796 0.372662,0.12686 1.01818,0.24856 1.089844,0.26953 0.10012,0.02928 0.13236,-0.438326 0.13282,1.775112 3.06e-4,1.680212 0.04574,3.04523 0.10938,3.277344 0.1324,0.48291 0.707298,1.091072 1.16797,1.234376 0.60476,0.18814 0.939484,0.05666 1.683594,-0.328126 0.475582,-0.24593 0.574932,-0.488326 0.796874,-0.808594 l 0.316406,-0.45703 0.03516,-2.765626 c 0.0178,-1.51966 0.06196,-1.65324 0.10156,-1.69308 0.03966,-0.03982 2.973114,-0.08048 5.92578,-0.09374 l 5.367188,-0.02344 0.1289,0.253906 c 0.06858,0.14164 0.19078,0.0224 0.273438,0.398438 0.0826,0.376046 0.300764,0.466758 0.484374,0.931364 0.18362,0.464612 0.495652,1.34333 0.695314,1.953126 0.446562,1.363878 0.76561,1.935198 1.265624,2.265624 1.009804,0.667318 2.319352,0.273782 2.726562,-0.820312 0.16558,-0.444914 0.13228,-1.711112 -0.05468,-2.164062 -0.08912,-0.215924 -0.20626,-0.769766 -0.265626,-1.234376 -0.0661,-0.517206 -0.224826,-0.492672 -0.40625,-0.880582 -0.374592,-0.800904 -0.502082,-0.878906 -0.289062,-0.878906 0.18246,0 0.747982,-0.295154 2.089844,-1.089844 0.5585,-0.330762 1.060446,-0.601562 1.117186,-0.601564 0.13456,0 0.19284,0.272982 0.308594,1.425782 0.05248,0.522686 0.17064,0.984798 0.26172,1.203126 0.0911,0.21833 0.229228,0.289904 0.308594,0.652344 0.744592,3.400182 0.824166,2.714162 1.558592,3.150112 0.918718,0.54534 1.873616,0.448416 2.5,-0.253908 0.203608,-0.22828 0.397334,-0.573752 0.433594,-0.76953 0.092,-0.496684 -0.11552,-1.36937 -0.414062,-2.626674 -0.301876,-1.271412 -0.57138,-2.982766 -0.589844,-4.378908 -0.0124,-0.941152 0.0078,-1.048476 0.253906,-1.375 0.14644,-0.19448 0.358374,-0.573692 0.472658,-0.84375 0.11428,-0.270056 0.404698,-0.806734 0.64453,-1.191406 0.239832,-0.384666 0.547504,-1.019578 0.683594,-1.410156 0.228942,-0.657074 0.24797,-1.416448 0.25,-3.402344 0.0017,-1.924498 -0.02394,-2.266284 -0.261718,-3.324218 -0.14586,-0.648932 -0.362958,-1.416648 -0.48047,-1.707032 -0.117508,-0.290396 -0.282142,-0.7865 -0.367196,-1.101578 -0.465654,-1.724872 -3.299805,-4.694528 -5.101375,-5.933594 -0.688754,-0.473695 -1.355468,-1.240675 -1.355468,-1.5625 0,-0.433502 -0.248338,-0.927346 -0.78125,-1.535156 -1.225314,-0.726397 -1.29952,-1.366937 -2.008641,-2.572094 -0.467681,-0.654123 -0.948423,-0.466964 -0.948423,-0.466968 z M 45.921876,22 c 1.39019,0.0024 2.279496,1.057036 2.039062,2.492188 -0.08126,0.4851 -0.689536,1.289796 -1.046876,1.386718 -0.47723,0.12946 -0.774458,0.152 -1.085938,0.07812 -0.941788,-0.223356 -1.6836,-0.947442 -1.804686,-1.76172 -0.16432,-1.10499 0.556564,-2.081198 1.61328,-2.183594 C 45.733658,22.002318 45.829198,22 45.921876,22 Z m -7.863282,4 c 1.080108,0.0104 2.070754,0.843418 1.929688,2.035156 -0.14464,1.222024 -0.824866,1.915328 -1.91797,1.960938 -0.33938,0.0142 -0.746022,-0.0156 -0.90625,-0.0664 -0.38029,-0.12066 -0.857156,-0.573342 -1.03125,-0.98047 -0.17694,-0.413802 -0.17574,-1.348712 0,-1.76953 0.0747,-0.17902 0.295034,-0.467422 0.492188,-0.640626 C 37.055868,26.160594 37.567644,25.995296 38.058594,26 Z"/>
 <path style="opacity:0.1;fill:#8b9cbe" d="M 6.8007812 4 C 5.2495812 4 4 5.2495812 4 6.8007812 L 4 7.8007812 C 4 6.2495813 5.2495812 5 6.8007812 5 L 57.199219 5 C 58.750419 5 60 6.2495812 60 7.8007812 L 60 6.8007812 C 60 5.2495813 58.750419 4 57.199219 4 L 6.8007812 4 z"/>
</svg>
