<svg width="64" height="64" version="1.1" xmlns="http://www.w3.org/2000/svg">
 <rect x="4" y="5" width="56" height="56" rx="3" ry="3" style="opacity:.2"/>
 <rect x="4" y="4" width="56" height="56" rx="3" ry="3" style="fill:#e7b212"/>
 <path d="m35 19v22h8l14-2h-17l17.199999-3.2-17.199999 0.2 17-3h-17l17-3h-17l17-3h-17l17-3-17 1 17-3h-17l17-3h-18.000002zm8 22v6h3l11-3h-14l14-3z" style="opacity:.1"/>
 <path d="m12 19-5 28h14v-6h8v-11h-8v-5c8 0 8-6 8-6z" style="opacity:.1"/>
 <path d="m12 18-5 28h14v-6h8v-11h-8v-5c8 0 8-6 8-6h-17zm23 0v8 14h8l14-2h-17l17.199219-3.199219-17.199219 0.199219 17-3h-17l17-3h-17l17-3h-17l17-3-17 1 17-3h-17l17-3h-18-4zm8 22v3l14-3h-14zm0 3v3h3l11-3h-14z" style="fill:#4f4f4f"/>
 <path d="m7 4c-1.662 0-3 1.338-3 3v1c0-1.662 1.338-3 3-3h50c1.662 0 3 1.338 3 3v-1c0-1.662-1.338-3-3-3z" style="fill:#8b9cbe;opacity:.2"/>
</svg>
