<svg xmlns="http://www.w3.org/2000/svg" width="64" height="64" version="1">
 <path style="opacity:0.2" d="m 4.050798,32.000828 c -0.0118,0.33399 -0.050799,0.661981 -0.050799,0.999971 C 3.9999994,48.512357 16.487643,61 31.9992,61 47.510757,61 59.998401,48.512357 59.998401,33.000799 c 0,-0.33767 -0.03904,-0.665261 -0.05078,-0.999971 -0.527985,15.041571 -12.775635,26.999229 -27.949202,26.999229 -15.173967,0 -27.4212171,-11.957658 -27.949202,-26.999229 z"/>
 <rect style="fill:#b2bfd9" width="56" height="56" x="4" y="4" rx="27.999" ry="27.999"/>
 <path style="fill:#8b9cbe" d="M 38.820312 5.3476562 A 3.9998858 3.9998858 0 0 0 39.089844 7.390625 A 3.9998858 3.9998858 0 0 0 44.318359 9.5488281 A 3.9998858 3.9998858 0 0 0 45.953125 8.2792969 C 43.754238 6.9880869 41.360377 5.9903545 38.820312 5.3476562 z M 24.251953 5.6074219 C 22.313147 6.1716282 20.462111 6.9382878 18.728516 7.890625 A 3.9998858 3.9998858 0 0 0 22.015625 7.9960938 A 3.9998858 3.9998858 0 0 0 24.251953 5.6074219 z M 33.458984 5.6953125 A 3.9998858 3.9998858 0 0 0 32.015625 6.0019531 A 3.9998858 3.9998858 0 0 0 29.859375 11.230469 A 3.9998858 3.9998858 0 0 0 35.087891 13.388672 A 3.9998858 3.9998858 0 0 0 37.244141 8.1582031 A 3.9998858 3.9998858 0 0 0 33.458984 5.6953125 z M 24.224609 9.5371094 A 3.9998858 3.9998858 0 0 0 22.783203 9.8417969 A 3.9998858 3.9998858 0 0 0 20.625 15.070312 A 3.9998858 3.9998858 0 0 0 25.855469 17.228516 A 3.9998858 3.9998858 0 0 0 28.011719 11.998047 A 3.9998858 3.9998858 0 0 0 24.224609 9.5371094 z M 46.529297 11.087891 A 3.9998858 3.9998858 0 0 0 45.085938 11.394531 A 3.9998858 3.9998858 0 0 0 42.929688 16.623047 A 3.9998858 3.9998858 0 0 0 48.158203 18.779297 A 3.9998858 3.9998858 0 0 0 50.316406 13.550781 A 3.9998858 3.9998858 0 0 0 46.529297 11.087891 z M 14.992188 13.376953 A 3.9998858 3.9998858 0 0 0 13.548828 13.681641 A 3.9998858 3.9998858 0 0 0 11.392578 18.912109 A 3.9998858 3.9998858 0 0 0 16.621094 21.068359 A 3.9998858 3.9998858 0 0 0 18.779297 15.839844 A 3.9998858 3.9998858 0 0 0 14.992188 13.376953 z M 37.296875 14.927734 A 3.9998858 3.9998858 0 0 0 35.855469 15.234375 A 3.9998858 3.9998858 0 0 0 33.697266 20.462891 A 3.9998858 3.9998858 0 0 0 38.927734 22.621094 A 3.9998858 3.9998858 0 0 0 41.083984 17.390625 A 3.9998858 3.9998858 0 0 0 37.296875 14.927734 z M 8.28125 18.048828 C 6.9906877 20.246501 5.9924768 22.639298 5.3496094 25.177734 A 3.9998858 3.9998858 0 0 0 7.3867188 24.908203 A 3.9998858 3.9998858 0 0 0 9.5429688 19.679688 A 3.9998858 3.9998858 0 0 0 8.28125 18.048828 z M 56.107422 18.720703 A 3.9998858 3.9998858 0 0 0 56 22.015625 A 3.9998858 3.9998858 0 0 0 58.396484 24.255859 C 57.831354 22.31261 57.062355 20.457798 56.107422 18.720703 z M 28.064453 18.769531 A 3.9998858 3.9998858 0 0 0 26.623047 19.074219 A 3.9998858 3.9998858 0 0 0 24.464844 24.302734 A 3.9998858 3.9998858 0 0 0 29.693359 26.460938 A 3.9998858 3.9998858 0 0 0 31.851562 21.230469 A 3.9998858 3.9998858 0 0 0 28.064453 18.769531 z M 50.371094 20.320312 A 3.9998858 3.9998858 0 0 0 48.927734 20.626953 A 3.9998858 3.9998858 0 0 0 46.771484 25.855469 A 3.9998858 3.9998858 0 0 0 52 28.013672 A 3.9998858 3.9998858 0 0 0 54.158203 22.783203 A 3.9998858 3.9998858 0 0 0 50.371094 20.320312 z M 18.832031 22.609375 A 3.9998858 3.9998858 0 0 0 17.388672 22.914062 A 3.9998858 3.9998858 0 0 0 15.232422 28.144531 A 3.9998858 3.9998858 0 0 0 20.460938 30.300781 A 3.9998858 3.9998858 0 0 0 22.617188 25.072266 A 3.9998858 3.9998858 0 0 0 18.832031 22.609375 z M 41.138672 24.160156 A 3.9998858 3.9998858 0 0 0 39.695312 24.466797 A 3.9998858 3.9998858 0 0 0 37.539062 29.695312 A 3.9998858 3.9998858 0 0 0 42.767578 31.853516 A 3.9998858 3.9998858 0 0 0 44.923828 26.623047 A 3.9998858 3.9998858 0 0 0 41.138672 24.160156 z M 9.5976562 26.449219 A 3.9998858 3.9998858 0 0 0 8.15625 26.753906 A 3.9998858 3.9998858 0 0 0 5.9980469 31.984375 A 3.9998858 3.9998858 0 0 0 11.228516 34.140625 A 3.9998858 3.9998858 0 0 0 13.384766 28.912109 A 3.9998858 3.9998858 0 0 0 9.5976562 26.449219 z M 31.904297 28.003906 A 3.9998858 3.9998858 0 0 0 30.460938 28.308594 A 3.9998858 3.9998858 0 0 0 28.304688 33.537109 A 3.9998858 3.9998858 0 0 0 33.533203 35.695312 A 3.9998858 3.9998858 0 0 0 35.691406 30.464844 A 3.9998858 3.9998858 0 0 0 31.904297 28.003906 z M 54.207031 29.552734 A 3.9998858 3.9998858 0 0 0 52.763672 29.859375 A 3.9998858 3.9998858 0 0 0 50.607422 35.087891 A 3.9998858 3.9998858 0 0 0 55.835938 37.246094 A 3.9998858 3.9998858 0 0 0 57.994141 32.015625 A 3.9998858 3.9998858 0 0 0 54.207031 29.552734 z M 22.671875 31.84375 A 3.9998858 3.9998858 0 0 0 21.228516 32.148438 A 3.9998858 3.9998858 0 0 0 19.072266 37.378906 A 3.9998858 3.9998858 0 0 0 24.300781 39.535156 A 3.9998858 3.9998858 0 0 0 26.457031 34.306641 A 3.9998858 3.9998858 0 0 0 22.671875 31.84375 z M 44.974609 33.394531 A 3.9998858 3.9998858 0 0 0 43.53125 33.699219 A 3.9998858 3.9998858 0 0 0 41.373047 38.927734 A 3.9998858 3.9998858 0 0 0 46.603516 41.085938 A 3.9998858 3.9998858 0 0 0 48.759766 35.855469 A 3.9998858 3.9998858 0 0 0 44.974609 33.394531 z M 13.4375 35.683594 A 3.9998858 3.9998858 0 0 0 11.996094 35.988281 A 3.9998858 3.9998858 0 0 0 9.8378906 41.21875 A 3.9998858 3.9998858 0 0 0 15.068359 43.375 A 3.9998858 3.9998858 0 0 0 17.224609 38.146484 A 3.9998858 3.9998858 0 0 0 13.4375 35.683594 z M 35.740234 37.234375 A 3.9998858 3.9998858 0 0 0 34.298828 37.539062 A 3.9998858 3.9998858 0 0 0 32.140625 42.769531 A 3.9998858 3.9998858 0 0 0 37.371094 44.925781 A 3.9998858 3.9998858 0 0 0 39.527344 39.697266 A 3.9998858 3.9998858 0 0 0 35.740234 37.234375 z M 57.923828 38.789062 A 3.9998858 3.9998858 0 0 0 56.599609 39.089844 A 3.9998858 3.9998858 0 0 0 54.443359 44.318359 A 3.9998858 3.9998858 0 0 0 55.71875 45.957031 C 57.010807 43.757468 58.011201 41.363363 58.654297 38.822266 A 3.9998858 3.9998858 0 0 0 57.923828 38.789062 z M 5.6074219 39.748047 C 6.171326 41.686728 6.9366669 43.537986 7.8886719 45.271484 A 3.9998858 3.9998858 0 0 0 7.9921875 41.984375 A 3.9998858 3.9998858 0 0 0 5.6074219 39.748047 z M 26.507812 41.074219 A 3.9998858 3.9998858 0 0 0 25.064453 41.378906 A 3.9998858 3.9998858 0 0 0 22.908203 46.609375 A 3.9998858 3.9998858 0 0 0 28.136719 48.765625 A 3.9998858 3.9998858 0 0 0 30.294922 43.537109 A 3.9998858 3.9998858 0 0 0 26.507812 41.074219 z M 48.810547 42.623047 A 3.9998858 3.9998858 0 0 0 47.367188 42.929688 A 3.9998858 3.9998858 0 0 0 45.210938 48.158203 A 3.9998858 3.9998858 0 0 0 50.439453 50.316406 A 3.9998858 3.9998858 0 0 0 52.597656 45.085938 A 3.9998858 3.9998858 0 0 0 48.810547 42.623047 z M 17.277344 44.914062 A 3.9998858 3.9998858 0 0 0 15.833984 45.21875 A 3.9998858 3.9998858 0 0 0 13.675781 50.449219 A 3.9998858 3.9998858 0 0 0 18.90625 52.607422 A 3.9998858 3.9998858 0 0 0 21.0625 47.376953 A 3.9998858 3.9998858 0 0 0 17.277344 44.914062 z M 39.578125 46.464844 A 3.9998858 3.9998858 0 0 0 38.134766 46.769531 A 3.9998858 3.9998858 0 0 0 35.978516 51.998047 A 3.9998858 3.9998858 0 0 0 41.207031 54.15625 A 3.9998858 3.9998858 0 0 0 43.363281 48.927734 A 3.9998858 3.9998858 0 0 0 39.578125 46.464844 z M 30.34375 50.304688 A 3.9998858 3.9998858 0 0 0 28.902344 50.609375 A 3.9998858 3.9998858 0 0 0 26.744141 55.839844 A 3.9998858 3.9998858 0 0 0 31.974609 57.996094 A 3.9998858 3.9998858 0 0 0 34.130859 52.767578 A 3.9998858 3.9998858 0 0 0 30.34375 50.304688 z M 21.111328 54.144531 A 3.9998858 3.9998858 0 0 0 19.667969 54.451172 A 3.9998858 3.9998858 0 0 0 18.037109 55.714844 C 20.234501 57.006525 22.627555 58.006402 25.166016 58.650391 A 3.9998858 3.9998858 0 0 0 24.898438 56.607422 A 3.9998858 3.9998858 0 0 0 21.111328 54.144531 z M 43.464844 55.695312 A 3.9998858 3.9998858 0 0 0 41.972656 56 A 3.9998858 3.9998858 0 0 0 39.730469 58.402344 C 41.677329 57.837568 43.535276 57.067281 45.275391 56.111328 A 3.9998858 3.9998858 0 0 0 43.464844 55.695312 z"/>
 <path style="opacity:0.2;fill:#8b9cbe" d="M 32 4.0019531 C 16.488443 4.0019531 4 16.488443 4 32 C 4 32.113553 4.0112846 32.224036 4.0175781 32.335938 C 4.3691113 17.134615 16.711164 5 32 5 C 47.288836 5 59.630889 17.134615 59.982422 32.335938 C 59.988693 32.224116 60 32.113445 60 32 C 60 16.488443 47.511557 4.0019531 32 4.0019531 z"/>
</svg>
