<svg xmlns="http://www.w3.org/2000/svg" width="64" height="64" version="1.1">
 <path style="opacity:0.2" d="m 6.2005662,9.8585651 -0.2149688,6.0309639 2.368647,0.871869 -2.4415448,1.092966 2.2997402,1.148835 -2.3321983,1.532491 2.3462988,0.26792 -2.1521028,1.734962 0.035917,0.99532 C 3.4592866,25.89297 2.5169501,28.845557 2.1029996,32.089769 0.84085647,42.212422 11.324467,52.624007 25.518896,55.344793 39.71338,58.065501 52.243511,52.065065 53.505805,41.942411 53.561032,41.48767 53.592546,41.02858 53.60025,40.566096 56.62005,36.866501 59.734404,33.632177 62,29.480052 57.512763,28.968177 53.588361,29.018998 49.801056,29.207076 c 2.110554,-1.903865 4.63399,-4.392958 6.744544,-7.075784 -2.940298,1.485518 -5.761798,2.235605 -7.535246,2.845963 1.944034,-2.395407 3.715571,-4.541467 4.808047,-6.936872 L 45.803915,22.23234 48.364,16.676746 c -3.992294,2.599492 -6.7136,3.673722 -9.534331,4.867302 C 36.08135,20.24372 33.122442,19.276576 30.089911,18.687389 26.052905,17.914193 21.578972,17.830065 17.816065,18.441818 12.308158,12.953187 9.5686579,11.81176 6.2005662,9.8585651 Z"/>
 <path style="fill:#17191e" d="m 6.2005662,8.8585649 -0.2149688,6.0309641 2.368647,0.871869 -2.4415448,1.092966 2.2997402,1.148835 -2.3321983,1.532491 2.3462988,0.26792 -2.1521028,1.734962 0.035917,0.99532 C 3.4592866,24.89297 2.5169501,27.845557 2.1029996,31.089769 0.84085647,41.212422 11.324467,51.624007 25.518896,54.344793 39.71338,57.065501 52.243511,51.065065 53.505805,40.942411 53.561032,40.48767 53.592546,40.02858 53.60025,39.566096 56.62005,35.866501 59.734404,32.632177 62,28.480052 57.512763,27.968177 53.588361,28.018998 49.801056,28.207076 c 2.110554,-1.903865 4.63399,-4.392958 6.744544,-7.075784 -2.940298,1.485518 -5.761798,2.235605 -7.535246,2.845963 1.944034,-2.395407 3.715571,-4.541467 4.808047,-6.936872 L 45.803915,21.23234 48.364,15.676746 c -3.992294,2.599492 -6.7136,3.673722 -9.534331,4.867302 C 36.08135,19.24372 33.122442,18.276576 30.089911,17.687389 26.052905,16.914193 21.578972,16.830065 17.816065,17.441818 12.308158,11.953187 9.5686579,10.81176 6.2005662,8.8585649 Z"/>
 <path style="opacity:0.2" d="m 29.419922,19.958943 a 0.68188631,0.68188631 0 0 0 -0.699219,0.589844 l -0.503906,3.341797 a 0.68188631,0.68188631 0 1 0 1.347656,0.205078 l 0.503906,-3.34375 a 0.68188631,0.68188631 0 0 0 -0.648437,-0.792969 z m 3.144531,3.597657 a 0.68188631,0.68188631 0 0 0 -0.566406,0.287109 l -2.207031,3.027344 a 0.68188631,0.68188631 0 1 0 1.101562,0.802734 l 2.207031,-3.027344 A 0.68188631,0.68188631 0 0 0 32.564453,23.5566 Z m -7.253906,0.628906 a 0.68188631,0.68188631 0 0 0 -0.626953,0.990234 l 1.703125,3.46875 a 0.68188631,0.68188631 0 1 0 1.224609,-0.599609 l -1.703125,-3.46875 A 0.68188631,0.68188631 0 0 0 25.310547,24.185506 Z M 13.714844,41.535115 a 0.68188631,0.68188631 0 0 0 -0.123047,1.345703 l 6.181641,1.513672 a 0.68188631,0.68188631 0 1 0 0.324218,-1.324219 L 13.917969,41.5566 a 0.68188631,0.68188631 0 0 0 -0.203125,-0.02149 z m 9.58789,0.191406 a 0.68188631,0.68188631 0 0 0 -0.695312,0.800782 c 0.26605,1.489142 0.504613,2.140027 0.753906,3.095703 -0.958139,1.263526 -1.934122,2.404563 -2.945312,3.351562 a 0.68188631,0.68188631 0 1 0 0.93164,0.994141 c 0.826949,-0.774454 1.638099,-1.649374 2.433594,-2.617188 0.475679,1.455323 0.929658,2.447825 1.351562,3.25586 a 0.68188631,0.68188631 0 1 0 1.208985,-0.63086 c -0.512614,-0.98176 -1.00597,-2.206462 -1.527344,-4.064453 0.529051,-0.730261 1.066102,-1.418626 1.572266,-2.273437 a 0.68188631,0.68188631 0 0 0 -0.361328,-0.990234 l -2.521485,-0.882813 a 0.68188631,0.68188631 0 0 0 -0.201172,-0.03906 z m 0.927735,1.738282 0.5,0.175781 c -0.111766,0.176811 -0.227114,0.323801 -0.339844,0.494141 -0.05453,-0.246862 -0.104048,-0.394322 -0.160156,-0.669922 z m 4.103515,1.558594 a 0.68188631,0.68188631 0 0 0 -0.08008,1.357421 l 8.072266,1.292969 a 0.68188631,0.68188631 0 1 0 0.214844,-1.345703 l -8.070313,-1.294922 a 0.68188631,0.68188631 0 0 0 -0.136719,-0.0098 z m -14.703125,0.234374 a 0.68215079,0.68215079 0 0 0 0.05274,1.363282 l 5.486328,0.06445 a 0.68188631,0.68188631 0 1 0 0.01563,-1.363281 l -5.486328,-0.06445 a 0.68188631,0.68188631 0 0 0 -0.06836,0 z m 14.257813,2.152344 a 0.68188631,0.68188631 0 0 0 -0.265625,1.300782 l 5.066406,2.453124 a 0.68223679,0.68223679 0 0 0 0.59375,-1.228515 l -5.066406,-2.453125 a 0.68188631,0.68188631 0 0 0 -0.328125,-0.07227 z"/>
 <path style="opacity:0.2" d="M 12.777344,26.011569 C 5.9179198,25.718045 3,31.179538 3,31.179538 c 0,0 0.3863999,7.168977 9.410156,9.382812 C 21.433911,42.776183 25,35.870944 25,35.870944 c 0,0 0.111168,-6.873135 -9.039062,-9.34961 -1.14378,-0.309559 -2.203677,-0.467833 -3.183594,-0.509765 z m 26,5 C 31.917921,30.718045 29,36.179538 29,36.179538 c 0,-10e-7 0.386399,7.168977 9.410156,9.382812 C 47.433909,47.776184 51,40.870944 51,40.870944 c 0,0 0.111168,-6.873133 -9.039062,-9.34961 -1.14378,-0.309559 -2.203677,-0.467833 -3.183594,-0.509765 z"/>
 <path style="fill:#ffd357" d="m 29,35.179987 c 0,0 3.811171,-7.134158 12.961404,-4.657681 9.150231,2.476477 9.038507,9.348857 9.038507,9.348857 0,0 -3.565084,6.905009 -12.588837,4.691175 C 29.387317,42.348503 29,35.179987 29,35.179987 Z"/>
 <path style="fill:#9f3820" d="m 45.405987,31.872337 a 8.2499903,8.1818178 0 0 0 -5.405999,7.673118 8.2499903,8.1818178 0 0 0 2.094724,5.433238 c 6.314432,-0.137099 8.905262,-5.10831 8.905262,-5.10831 0,0 0.05929,-4.990791 -5.593987,-7.998046 z"/>
 <path style="fill:none;stroke:#a3cbcb;stroke-width:1.36363626;stroke-linecap:round" d="M 19.935251,42.73274 13.754834,41.219169"/>
 <path style="fill:none;stroke:#a3cbcb;stroke-width:1.36363626;stroke-linecap:round" d="m 19.178466,45.003098 -5.486697,-0.06307"/>
 <path style="fill:none;stroke:#a3cbcb;stroke-width:1.36363626;stroke-linecap:round" d="m 28.362192,44.70696 8.071504,1.294082"/>
 <path style="fill:none;stroke:#a3cbcb;stroke-width:1.36363626;stroke-linecap:round" d="m 27.920514,47.096788 5.066283,2.453269"/>
 <path style="fill:none;stroke:#a3cbcb;stroke-width:1.36363626;stroke-linecap:round;stroke-linejoin:round" d="m 25.737275,49.291551 c -0.769693,-1.474122 -1.527009,-2.663527 -2.459553,-7.883185 l 2.522619,0.882916 c -1.547491,2.613409 -3.203787,4.573985 -4.919108,6.180417"/>
 <path style="fill:none;stroke:#356373;stroke-width:1.36363626;stroke-linecap:round" d="M 26.998586,27.344763 25.295817,23.876161"/>
 <path style="fill:none;stroke:#356373;stroke-width:1.36363626;stroke-linecap:round" d="m 28.890549,22.993244 0.504524,-3.34247"/>
 <path style="fill:none;stroke:#356373;stroke-width:1.36363626;stroke-linecap:round" d="m 30.341056,26.272649 2.207292,-3.027143"/>
 <path style="fill:#ffd357" d="m 3,30.179989 c 0,0 3.8111708,-7.13416 12.961405,-4.657682 9.15023,2.476475 9.038505,9.348857 9.038505,9.348857 0,0 -3.565082,6.905008 -12.588837,4.691175 C 3.3873167,37.348504 3,30.179989 3,30.179989 Z"/>
 <path style="fill:#9f3820" d="m 19.405987,26.872339 a 8.2499904,8.1818178 0 0 0 -5.406,7.673118 8.2499904,8.1818178 0 0 0 2.094725,5.433238 c 6.314431,-0.137098 8.905262,-5.10831 8.905262,-5.10831 0,0 0.05929,-4.990791 -5.593987,-7.998046 z"/>
 <path style="opacity:0.1;fill:#8b9cbe" d="M 6.2011719 8.859375 L 5.9863281 14.888672 L 6.0214844 14.902344 L 6.2011719 9.859375 C 9.5692636 11.81257 12.308499 12.952775 17.816406 18.441406 C 21.579313 17.829653 26.052838 17.914304 30.089844 18.6875 C 33.122375 19.276687 36.081759 20.244594 38.830078 21.544922 C 41.491861 20.4186 44.078577 19.381666 47.714844 17.085938 L 48.363281 15.675781 C 44.370987 18.275273 41.650809 19.351342 38.830078 20.544922 C 36.081759 19.244594 33.122375 18.276687 30.089844 17.6875 C 26.052838 16.914304 21.579313 16.829653 17.816406 17.441406 C 12.308499 11.952775 9.5692636 10.81257 6.2011719 8.859375 z M 7.1289062 16.310547 L 5.9121094 16.853516 L 6.96875 17.380859 L 8.3535156 16.761719 L 7.1289062 16.310547 z M 53.818359 17.041016 L 46.412109 20.916016 L 45.804688 22.232422 L 53.095703 18.417969 C 53.357259 17.965211 53.604882 17.509094 53.818359 17.041016 z M 7.3476562 18.572266 L 5.8808594 19.535156 L 7.1777344 19.683594 L 8.2128906 19.003906 L 7.3476562 18.572266 z M 7.140625 20.679688 L 6.0742188 21.539062 L 6.1113281 22.509766 L 8.2265625 20.802734 L 7.140625 20.679688 z M 56.544922 21.130859 C 54.089318 22.371497 51.85601 23.053499 50.107422 23.615234 C 49.747703 24.063862 49.386087 24.512865 49.009766 24.976562 C 50.50384 24.462355 52.745727 23.844141 55.171875 22.775391 C 55.64049 22.236255 56.104735 21.690402 56.544922 21.130859 z M 6.0761719 22.568359 C 3.4541423 24.921774 2.5154781 27.861212 2.1035156 31.089844 C 2.0135944 31.811031 1.9892129 32.532672 2.015625 33.253906 C 2.0299455 32.865576 2.0551465 32.477774 2.1035156 32.089844 C 2.5174661 28.845632 3.4602602 25.892281 6.1113281 23.533203 L 6.0761719 22.568359 z M 55.638672 28.082031 C 54.01716 28.059689 52.459787 28.100829 50.923828 28.164062 C 50.544526 28.520307 50.160212 28.8828 49.800781 29.207031 C 53.42669 29.026968 57.192533 28.986754 61.443359 29.431641 C 61.631094 29.116525 61.822258 28.806214 62 28.480469 C 59.756382 28.224531 57.65409 28.109801 55.638672 28.082031 z"/>
 <path style="opacity:0.2;fill:#8b9cbe" d="M 12.777344 25.011719 C 5.9179196 24.718195 3 30.179688 3 30.179688 C 3 30.179688 3.0384382 30.507919 3.1289062 30.962891 C 3.7384518 29.977641 6.7120582 25.752177 12.777344 26.011719 C 13.757261 26.053651 14.817158 26.211925 15.960938 26.521484 C 23.197673 28.480079 24.624721 33.139737 24.912109 35.023438 C 24.94268 34.969627 25 34.871094 25 34.871094 C 25 34.871094 25.111167 27.997959 15.960938 25.521484 C 14.817157 25.211925 13.757261 25.053651 12.777344 25.011719 z M 38.777344 30.011719 C 31.917921 29.718195 29 35.179688 29 35.179688 C 29 35.179687 29.038438 35.507919 29.128906 35.962891 C 29.738452 34.977641 32.712059 30.752177 38.777344 31.011719 C 39.757261 31.053651 40.817158 31.211925 41.960938 31.521484 C 49.197673 33.480081 50.624721 38.139738 50.912109 40.023438 C 50.94268 39.969627 51 39.871094 51 39.871094 C 51 39.871094 51.111168 32.997961 41.960938 30.521484 C 40.817158 30.211925 39.757261 30.053651 38.777344 30.011719 z"/>
</svg>
