<svg xmlns="http://www.w3.org/2000/svg" width="64" height="64" version="1">
 <rect style="opacity:0.2" width="56" height="56" x="4" y="5" rx="2.8" ry="2.8"/>
 <rect style="fill:#4f4f4f" width="56" height="56" x="4" y="4" rx="2.8" ry="2.8"/>
 <path style="opacity:0.2" d="m 57.398438,22 -2.123047,0.06641 c -1.553929,-0.01064 -3.300405,-0.01721 -3.316407,-0.01172 l -1.359375,4.019531 c 0,0 -1.598889,-4.07565 -1.921875,-3.998047 l -0.257812,-0.01563 c -0.140763,-0.0092 -0.808853,-0.01563 -1.730469,-0.01563 H 45 v 7.18164 7.605469 l -0.134766,0.103516 c -0.117712,0.0846 -0.138684,0.112016 -0.111328,0.138672 l 4.212891,3.027343 0.01172,-2.945312 c 0.01232,-2.707936 0.01661,-2.929488 0.05469,-2.806641 l 1.566406,4.125 1.414063,-4.287109 0.01367,3.896484 0.01367,3.896485 3.947265,2.796875 L 56,33.916016 56.013672,23.470703 Z m -35.128907,0.002 -0.632812,0.474609 -0.634766,0.476563 v 6.90625 L 21,36.769531 27.464844,41.601562 31,38.949219 l -0.0059,-7.996094 -0.0078,-7.998047 -0.623047,-0.478516 -0.626953,-0.474609 h -3.732422 z m 11.994141,0 -0.626953,0.474609 -0.623047,0.478516 -0.0078,7.998047 L 33,38.949219 36.535156,41.601562 43,36.769531 l -0.002,-6.910156 v -6.90625 l -0.634766,-0.476563 -0.632812,-0.474609 h -3.734375 z m -26.6640626,0.0078 1.4335937,1.417968 v 10.048828 c 0,5.527761 0.0099,10.431367 0.019531,10.896485 v 0.0039 c 0.012446,0.598545 0.026283,1.436165 0.046875,1.423828 0.068914,-0.04112 10.2665816,-8.307936 10.2792966,-8.328125 0.0076,-0.01232 -0.05882,-0.07306 -0.146484,-0.134765 l -0.160156,-0.115235 v -7.132812 -7.134766 l -0.605469,-0.464844 -0.605469,-0.470703 -5.064453,-0.0078 c -3.3078719,-0.0053 -5.2137119,-0.01732 -5.1972656,-0.002 z M 27.28125,25.019531 c 0.174966,-0.01495 0.205912,-0.01018 0.453125,0.111328 L 27.994141,25.259766 28,31.371094 c 0.001,2.77721 -0.01357,6.309648 -0.03125,6.308594 L 24.005859,34.703125 V 30.441406 L 24,25.257812 l 0.246094,-0.113281 0.240234,-0.111328 h 1.304688 c 0.717074,0 1.387511,-0.0049 1.490234,-0.01367 z m 9.4375,0 c 0.102723,0.0088 0.77316,0.01367 1.490234,0.01367 h 1.304688 L 39.753906,25.144531 40,25.257812 l -0.0059,5.183594 v 4.261719 L 36.03125,37.679688 C 36.01357,37.680741 35.999,34.148304 36,31.371094 l 0.0059,-6.111328 0.259766,-0.128907 c 0.247213,-0.121508 0.278159,-0.126278 0.453125,-0.111328 z m -21.177734,0.05078 0.242187,0.109376 0.236328,0.105468 v 3.611328 7 l -3.998047,3.033204 c -0.04925,0.01694 -0.05364,-5.147219 -0.04297,-9.236329 l 0.0098,-4.609375 1.962891,-0.0059 z"/>
 <path style="fill:#8b9cbe" d="M 57.398438 21 L 55.275391 21.066406 C 53.721462 21.055766 51.974986 21.049197 51.958984 21.054688 L 50.599609 25.074219 C 50.599609 25.074219 49.00072 20.998569 48.677734 21.076172 L 48.419922 21.060547 C 48.279159 21.051347 47.611069 21.044922 46.689453 21.044922 L 45 21.044922 L 45 28.226562 L 45 35.832031 L 44.865234 35.935547 C 44.747522 36.020147 44.72655 36.047563 44.753906 36.074219 L 48.966797 39.101562 L 48.978516 36.15625 C 48.990836 33.448314 48.995123 33.226762 49.033203 33.349609 L 50.599609 37.474609 L 52.013672 33.1875 L 52.027344 37.083984 L 52.041016 40.980469 L 55.988281 43.777344 L 56 32.916016 L 56.013672 22.470703 L 57.398438 21 z M 22.269531 21.001953 L 21.636719 21.476562 L 21.001953 21.953125 L 21.001953 28.859375 L 21 35.769531 L 27.464844 40.601562 L 31 37.949219 L 30.994141 29.953125 L 30.986328 21.955078 L 30.363281 21.476562 L 29.736328 21.001953 L 26.003906 21.001953 L 22.269531 21.001953 z M 34.263672 21.001953 L 33.636719 21.476562 L 33.013672 21.955078 L 33.005859 29.953125 L 33 37.949219 L 36.535156 40.601562 L 43 35.769531 L 42.998047 28.859375 L 42.998047 21.953125 L 42.363281 21.476562 L 41.730469 21.001953 L 37.996094 21.001953 L 34.263672 21.001953 z M 7.5996094 21.009766 L 9.0332031 22.427734 L 9.0332031 32.476562 C 9.0332031 38.004323 9.0431034 42.907929 9.0527344 43.373047 L 9.0527344 43.376953 C 9.0651804 43.975498 9.0790174 44.813118 9.0996094 44.800781 C 9.1685234 44.759661 19.366191 36.492845 19.378906 36.472656 C 19.386506 36.460336 19.320087 36.399596 19.232422 36.337891 L 19.072266 36.222656 L 19.072266 29.089844 L 19.072266 21.955078 L 18.466797 21.490234 L 17.861328 21.019531 L 12.796875 21.011719 C 9.4890031 21.006419 7.5831631 20.994396 7.5996094 21.009766 z M 27.28125 24.019531 C 27.456216 24.004581 27.487162 24.009351 27.734375 24.130859 L 27.994141 24.259766 L 28 30.371094 C 28.001 33.148304 27.98643 36.680742 27.96875 36.679688 L 24.005859 33.703125 L 24.005859 29.441406 L 24 24.257812 L 24.246094 24.144531 L 24.486328 24.033203 L 25.791016 24.033203 C 26.50809 24.033203 27.178527 24.028301 27.28125 24.019531 z M 36.71875 24.019531 C 36.821473 24.028301 37.49191 24.033203 38.208984 24.033203 L 39.513672 24.033203 L 39.753906 24.144531 L 40 24.257812 L 39.994141 29.441406 L 39.994141 33.703125 L 36.03125 36.679688 C 36.01357 36.680741 35.999 33.148304 36 30.371094 L 36.005859 24.259766 L 36.265625 24.130859 C 36.512838 24.009351 36.543784 24.004581 36.71875 24.019531 z M 15.541016 24.070312 L 15.783203 24.179688 L 16.019531 24.285156 L 16.019531 27.896484 L 16.019531 34.896484 L 12.021484 37.929688 C 11.972234 37.946627 11.967846 32.782469 11.978516 28.693359 L 11.988281 24.083984 L 13.951172 24.078125 L 15.541016 24.070312 z"/>
 <path style="fill:#8b9cbe;opacity:0.1" d="M 6.8007812 4 C 5.2495813 4 4 5.2495813 4 6.8007812 L 4 7.8007812 C 4 6.2495813 5.2495813 5 6.8007812 5 L 57.199219 5 C 58.750419 5 60 6.2495813 60 7.8007812 L 60 6.8007812 C 60 5.2495813 58.750419 4 57.199219 4 L 6.8007812 4 z"/>
</svg>
