<svg xmlns="http://www.w3.org/2000/svg" height="64" width="64" version="1.1">
 <circle r="26" cy="33" cx="32" style="opacity:.2"/>
 <circle r="26" cy="32" cx="32" style="fill:#ccb886"/>
 <path style="opacity:.1" d="m18 23c-7.230385 0-10.128193 4.74265-11.273438 8h-2.726562v6h2.7832031c1.1333988 2.94608 3.8450499 7 10.216797 7 11 0 15-7 15-7s4 7 14 7c7.00886 0 9.950671-4.053926 11.167969-7h2.832031v-6h-2.726562c-1.145245-3.25735-4.043053-8-11.273438-8-11 0-14 8-14 8s-4-8-14-8z"/>
 <path style="fill:#17191e" d="m18 22c-7.230385 0-10.128193 4.74265-11.273438 8h-2.726562v6h2.7832031c1.1333988 2.94608 3.8450499 7 10.216797 7 11 0 15-7 15-7s4 7 14 7c7.00886 0 9.950671-4.053926 11.167969-7h2.832031v-6h-2.726562c-1.145245-3.25735-4.043053-8-11.273438-8-11 0-14 8-14 8s-4-8-14-8z"/>
 <path style="opacity:.2" d="m20 26a8 8 0 0 0 -8 8 8 8 0 0 0 8 8 8 8 0 0 0 8 -8 8 8 0 0 0 -8 -8zm24 0a8 8 0 0 0 -8 8 8 8 0 0 0 8 8 8 8 0 0 0 8 -8 8 8 0 0 0 -8 -8z"/>
 <ellipse style="fill:#b99159" rx="3" ry="1.5" cy="47" cx="32"/>
 <circle r="8" style="fill:#84d682" cx="20" cy="33"/>
 <circle r="8" style="fill:#84d682" cx="44" cy="33"/>
 <path style="opacity:.1;fill:#8b9cbe" d="m32 6a26 26 0 0 0 -26 26 26 26 0 0 0 0.0214844 0.589844 26 26 0 0 1 25.978516 -25.589844 26 26 0 0 1 25.978516 25.410156 26 26 0 0 0 0.021484 -0.410156 26 26 0 0 0 -26 -26z"/>
 <path style="opacity:.2;fill:#8b9cbe" d="m20 25a8 8 0 0 0 -8 8 8 8 0 0 0 0.021484 0.423828 8 8 0 0 1 7.978516 -7.423828 8 8 0 0 1 7.978516 7.576172 8 8 0 0 0 0.021484 -0.576172 8 8 0 0 0 -8 -8zm24 0a8 8 0 0 0 -8 8 8 8 0 0 0 0.021484 0.423828 8 8 0 0 1 7.978516 -7.423828 8 8 0 0 1 7.978516 7.576172 8 8 0 0 0 0.021484 -0.576172 8 8 0 0 0 -8 -8z"/>
</svg>
