<svg xmlns="http://www.w3.org/2000/svg" width="64" height="64" version="1">
 <path style="opacity:0.2" d="m 10.045,4.9994416 c 2.001798,2.7691573 3.024197,5.7073944 0,9.9999904 -0.3175,3.753595 0.99678,5.935463 5.488275,5.855463 1.062939,-0.072 2.750096,-0.281987 3.636716,-1.117187 1.405479,-1.721197 0.86059,-2.622385 0.281249,-2.742185 -0.601979,-0.177999 -2.058094,0.723426 -0.660155,1.390624 0.294699,1.2042 -3.063971,1.080206 -3.68359,0.06641 -2.332398,-4.175795 3.872256,-7.177518 10.93749,-4.453121 1.448296,11.396787 3.090863,25.918348 1.316404,39.484337 -1.161158,2.693795 -2.404663,4.311219 -5.3164,5.515618 l 0,1.999998 c 3.999996,-1.999998 13.999984,-1.999998 19.99998,-1.999998 l 0,-1.999998 C 39.458169,56.53339 37.404439,54.130636 37.09966,51.714238 36.094661,38.267852 35.359933,28.417816 38.044973,14.999431 l 9.93749,0 c 1.239239,0.028 1.747636,1.0566 2.062498,3.999996 l 3.999996,0 C 52.649556,15.666432 52.044959,12.999433 52.044959,8.9994374 37.10597,11.308835 26.200565,9.2565971 10.045,4.9994414 Z M 52.763706,37.022847 c -2.764895,-0.0249 -4.876903,0.885027 -6.425774,3.222653 -0.268219,0.540819 -0.367897,0.922627 -0.398437,1.542966 -0.03548,0.72122 0.112,1.298087 0.496093,1.929686 0.11664,0.19182 0.42821,0.542428 0.59375,0.667968 0.384379,0.291539 0.983503,0.576335 1.277342,0.609375 0.07756,0.0088 0.18728,0.02686 0.246094,0.03906 0.949289,-0.03497 1.445311,-0.829285 1.445311,-1.85937 0,-1.299307 2.387603,-3.901872 3.203121,-0.394532 -0.203906,2.219958 -1.378549,2.66223 -2.949215,3.777341 -0.17272,0.105159 -0.26953,0.239651 -0.26953,0.382811 0.509299,1.061923 0.995127,2.05103 1.367184,3.164059 0.12836,0.3124 0.204276,0.394532 0.359376,0.394532 0.06844,0 0.12442,-0.03936 0.234374,-0.15234 0.607581,-0.836159 0.992543,-1.986044 1.61328,-0.902343 0.19628,0.370479 0.286734,0.630789 0.421874,1.218748 0.03128,0.13608 0.04208,0.327478 0.05468,0.773438 0.0122,0.436379 1.9e-4,0.592467 -0.09374,1.179687 -0.920325,2.435099 -2.399678,3.607776 -5.441401,2.914059 -0.290299,-0.15498 -0.566405,-0.423402 -0.566405,-0.550782 0,-0.08446 0.15532,-0.12018 0.476561,-0.11718 0.41086,0.0038 0.671442,-0.06796 0.851561,-0.226564 0.03314,-0.02916 0.10088,-0.07826 0.15234,-0.113279 0.0935,-0.06364 0.249066,-0.248006 0.328126,-0.390626 0.02308,-0.04162 0.04628,-0.08536 0.05468,-0.09374 0.06596,-0.06534 0.17514,-0.38584 0.203124,-0.675779 0.06136,-0.6357 -0.0088,-0.608784 -0.277344,-1.089843 -0.30478,-0.54592 -1.004553,-1.038807 -1.671872,-1.179687 -0.32262,-0.068 -0.376486,-0.0768 -0.691406,-0.07812 -1.35902,-0.017 -2.577059,1.107919 -3.218748,2.886717 -0.152,0.868419 -0.1673,0.981557 -0.11328,1.585937 0.04778,0.534759 0.14648,0.938525 0.351561,1.429684 0.07756,0.18576 0.23327,0.50553 0.29297,0.60547 0.015,0.02496 0.08362,0.141459 0.15234,0.261717 0.12312,0.21546 0.316896,0.492158 0.410158,0.585938 0.02624,0.02638 0.04688,0.06042 0.04688,0.07422 0,0.045 0.678536,0.726663 0.910156,0.914063 0.0792,0.0641 0.165759,0.1352 0.191399,0.16016 0.24636,0.240659 1.113171,0.737659 1.507811,0.863279 0.06884,0.02192 0.2438,0.0811 0.386719,0.13282 0.24092,0.08722 0.894452,0.263543 1.070311,0.289063 0.04202,0.006 0.17138,0.03604 0.289062,0.0625 0.11768,0.02644 0.336982,0.06384 0.488282,0.08594 0.151299,0.02208 0.496645,0.04388 0.765623,0.04688 0.587141,0.0066 1.698356,-0.0458 1.847656,-0.08594 0.05886,-0.0158 0.1488,-0.03496 0.19922,-0.04296 0.09446,-0.015 0.699589,-0.13576 0.781249,-0.15626 0.15656,-0.0393 0.28783,-0.07954 0.53125,-0.152339 0.151299,-0.04524 0.331857,-0.09378 0.398437,-0.10938 0.0666,-0.0156 0.13474,-0.03838 0.15234,-0.05078 0.0174,-0.0124 0.10676,-0.0475 0.19922,-0.07812 0.302379,-0.10016 0.909445,-0.392948 1.253905,-0.605468 0.109459,-0.06754 0.222139,-0.135739 0.249999,-0.152339 0.02774,-0.0166 0.1322,-0.08938 0.234376,-0.16016 0.10218,-0.07076 0.19452,-0.1289 0.203124,-0.1289 0.03334,0 0.351059,-0.231182 0.499999,-0.363282 0.04694,-0.04162 0.15586,-0.13328 0.238282,-0.203124 0.3001,-0.254259 0.736145,-0.709663 0.816405,-0.851561 0.0152,-0.02692 0.07302,-0.09892 0.125,-0.16016 0.21236,-0.250039 0.382812,-0.481643 0.382812,-0.515623 0,-0.0132 0.065,-0.12138 0.14062,-0.238282 0.0757,-0.1169 0.136719,-0.217362 0.136719,-0.226562 0,-0.0092 0.04918,-0.121979 0.10938,-0.249999 0.06022,-0.12802 0.12896,-0.274278 0.15234,-0.324218 0.15186,-0.32512 0.349172,-1.068675 0.394532,-1.484375 0.0092,-0.08326 0.02816,-0.246721 0.04296,-0.363279 0.02906,-0.223302 0.02302,-1.056257 -0.0078,-1.210937 -0.01,-0.04996 -0.03258,-0.228012 -0.05078,-0.394532 -0.05674,-0.522999 -0.217294,-1.215136 -0.382814,-1.648436 -0.06044,-0.1582 -0.13006,-0.346934 -0.15626,-0.421873 -0.02612,-0.07494 -0.0667,-0.16638 -0.08984,-0.19922 -0.02312,-0.03284 -0.04296,-0.07822 -0.04296,-0.10156 0,-0.07516 -0.389238,-0.826233 -0.574218,-1.109373 -0.09866,-0.15104 -0.18802,-0.296532 -0.19922,-0.320314 -0.02676,-0.05656 -0.09182,-0.16048 -0.11328,-0.17968 -0.0092,-0.0084 -0.05128,-0.06602 -0.08984,-0.128899 -0.03856,-0.06288 -0.0854,-0.13196 -0.105459,-0.15234 -0.02,-0.02038 -0.06876,-0.08234 -0.10938,-0.14062 -0.04068,-0.05828 -0.08044,-0.1129 -0.08984,-0.1211 -0.0096,-0.0084 -0.05746,-0.06282 -0.10546,-0.1211 -0.10496,-0.12744 -0.463156,-0.524087 -0.796875,-0.878907 -0.35774,-0.38032 -0.6529,-0.387326 -0.675782,-0.492186 -0.02292,-0.104619 0.05558,-0.244893 0.238282,-0.433593 0.20738,-0.2142 0.437372,-0.539102 0.570312,-0.800781 0.02124,-0.04162 0.05332,-0.08746 0.07032,-0.10546 0.03138,-0.03294 0.375508,-0.704646 0.417968,-0.816405 0.0126,-0.0333 0.03794,-0.117 0.0586,-0.1836 0.02056,-0.0666 0.06066,-0.18628 0.08984,-0.269532 0.08216,-0.23482 0.1845,-0.761619 0.20703,-1.062499 0.04072,-0.541999 0.0108,-1.417906 -0.0586,-1.730466 -0.04652,-0.2097 -0.273944,-0.861311 -0.351564,-1.007813 -0.03966,-0.07492 -0.11224,-0.22379 -0.16406,-0.33203 -0.15176,-0.317039 -0.302573,-0.525541 -0.671873,-0.925781 -0.18596,-0.20156 -0.768193,-0.711383 -0.945313,-0.828123 -0.32308,-0.21296 -0.539996,-0.341742 -0.722655,-0.425782 -0.35964,-0.165499 -0.52452,-0.236537 -0.625,-0.273437 -0.05882,-0.0216 -0.12072,-0.0524 -0.13672,-0.0664 -0.016,-0.014 -0.04694,-0.02344 -0.07032,-0.02344 -0.02352,2e-6 -0.08764,-0.0196 -0.140619,-0.04296 -0.2434,-0.10736 -0.763944,-0.264478 -1.390625,-0.324218 z"/>
 <path style="fill:#9b6bca" d="m 10.045,4.0000011 c 2.001798,2.7691573 3.024197,5.7073943 0,9.9999899 -0.3175,3.753595 0.99678,5.935463 5.488275,5.855463 1.062939,-0.072 2.750096,-0.281987 3.636716,-1.117186 1.405479,-1.721198 0.86059,-2.622385 0.281249,-2.742185 -0.601979,-0.178 -2.058094,0.723425 -0.660155,1.390624 0.294699,1.204198 -3.063971,1.080205 -3.68359,0.0664 -2.332398,-4.175794 3.872256,-7.177517 10.93749,-4.45312 1.448296,11.396787 3.090863,25.918348 1.316404,39.484337 -1.161158,2.693795 -2.404663,4.311219 -5.3164,5.515618 l 0,1.999998 c 3.999996,-1.999998 13.999984,-1.999998 19.99998,-1.999998 l 0,-1.999998 C 39.458169,55.53395 37.404439,53.131196 37.09966,50.714798 36.094661,37.268412 35.359933,27.418376 38.044973,13.999991 l 9.93749,0 c 1.239239,0.028 1.747636,1.0566 2.062498,3.999996 l 3.999996,0 C 52.649556,14.666991 52.044959,11.999993 52.044959,7.9999971 37.10597,10.309395 26.200565,8.2571569 10.045,4.0000011 Z M 52.763706,36.023407 c -2.764895,-0.0249 -4.876903,0.885027 -6.425774,3.222653 -0.268219,0.540819 -0.367897,0.922627 -0.398437,1.542966 -0.03548,0.72122 0.112,1.298087 0.496093,1.929686 0.11664,0.19182 0.42821,0.542428 0.59375,0.667968 0.384379,0.291539 0.983503,0.576335 1.277342,0.609375 0.07756,0.0088 0.18728,0.02686 0.246094,0.03906 0.949289,-0.03497 1.445311,-0.829285 1.445311,-1.85937 0,-1.299307 2.387603,-3.901872 3.203121,-0.394532 -0.203906,2.219958 -1.378549,2.66223 -2.949215,3.777341 -0.17272,0.105159 -0.26953,0.239651 -0.26953,0.382811 0.509299,1.061923 0.995127,2.05103 1.367184,3.164059 0.12836,0.3124 0.204276,0.394532 0.359376,0.394532 0.06844,0 0.12442,-0.03936 0.234374,-0.15234 0.607581,-0.836159 0.992543,-1.986044 1.61328,-0.902343 0.19628,0.370479 0.286734,0.630789 0.421874,1.218748 0.03128,0.13608 0.04208,0.327478 0.05468,0.773438 0.0122,0.436379 1.9e-4,0.592467 -0.09374,1.179687 -0.920325,2.435099 -2.399678,3.607776 -5.441401,2.914059 -0.290299,-0.15498 -0.566405,-0.423402 -0.566405,-0.550782 0,-0.08446 0.15532,-0.12018 0.476561,-0.11718 0.41086,0.0038 0.671442,-0.06796 0.851561,-0.226564 0.03314,-0.02916 0.10088,-0.07826 0.15234,-0.113279 0.0935,-0.06364 0.249066,-0.248006 0.328126,-0.390626 0.02308,-0.04162 0.04628,-0.08534 0.05468,-0.09374 0.06596,-0.06534 0.17514,-0.38584 0.203124,-0.675779 0.06136,-0.6357 -0.0088,-0.608784 -0.277344,-1.089843 -0.30478,-0.54592 -1.004553,-1.038807 -1.671872,-1.179687 -0.32262,-0.068 -0.376486,-0.0768 -0.691406,-0.07812 -1.35902,-0.017 -2.577059,1.107919 -3.218748,2.886717 -0.152,0.868419 -0.1673,0.981557 -0.11328,1.585937 0.04778,0.534759 0.14648,0.938525 0.351561,1.429684 0.07756,0.18576 0.23327,0.50553 0.29297,0.60547 0.015,0.02496 0.08362,0.141459 0.15234,0.261717 0.12312,0.21546 0.316896,0.492158 0.410158,0.585938 0.02624,0.02638 0.04688,0.06042 0.04688,0.07422 0,0.045 0.678536,0.726663 0.910156,0.914063 0.0792,0.0641 0.165759,0.1352 0.191399,0.16016 0.24636,0.240659 1.113171,0.737659 1.507811,0.863279 0.06884,0.02192 0.2438,0.0811 0.386719,0.13282 0.24092,0.08722 0.894452,0.263543 1.070311,0.289063 0.04202,0.0062 0.17138,0.03604 0.289062,0.0625 0.11768,0.02644 0.336982,0.06384 0.488282,0.08594 0.151299,0.02208 0.496645,0.04388 0.765623,0.04688 0.587141,0.0066 1.698356,-0.0458 1.847656,-0.08594 0.05886,-0.0158 0.1488,-0.03496 0.19922,-0.04296 0.09446,-0.015 0.699589,-0.13576 0.781249,-0.15626 0.15656,-0.0393 0.28783,-0.07954 0.53125,-0.152339 0.151299,-0.04524 0.331857,-0.09378 0.398437,-0.10938 0.0666,-0.0156 0.13474,-0.03838 0.15234,-0.05078 0.0174,-0.0124 0.10676,-0.0475 0.19922,-0.07812 0.302379,-0.10016 0.909445,-0.392948 1.253905,-0.605468 0.109459,-0.06754 0.222139,-0.135739 0.249999,-0.152339 0.02774,-0.0166 0.1322,-0.08938 0.234376,-0.16016 0.10218,-0.07076 0.19452,-0.1289 0.203124,-0.1289 0.03334,0 0.351059,-0.231182 0.499999,-0.363282 0.04694,-0.04162 0.15586,-0.13328 0.238282,-0.203124 0.3001,-0.254259 0.736145,-0.709663 0.816405,-0.851561 0.0152,-0.02692 0.07302,-0.09892 0.125,-0.16016 0.21236,-0.250039 0.382812,-0.481643 0.382812,-0.515623 0,-0.0132 0.065,-0.12138 0.14062,-0.238282 0.0757,-0.1169 0.136719,-0.217362 0.136719,-0.226562 0,-0.0092 0.04918,-0.121979 0.10938,-0.249999 0.06022,-0.12802 0.12896,-0.274278 0.15234,-0.324218 0.15186,-0.32512 0.349172,-1.068675 0.394532,-1.484375 0.0092,-0.08326 0.02816,-0.246721 0.04296,-0.363279 0.02906,-0.223302 0.02302,-1.056257 -0.0078,-1.210937 -0.01,-0.04996 -0.03258,-0.228012 -0.05078,-0.394532 -0.05674,-0.522999 -0.217294,-1.215136 -0.382814,-1.648436 -0.06044,-0.1582 -0.13006,-0.346934 -0.15626,-0.421873 -0.02612,-0.07494 -0.0667,-0.16638 -0.08984,-0.19922 -0.02312,-0.03284 -0.04296,-0.07822 -0.04296,-0.10156 0,-0.07516 -0.389238,-0.826233 -0.574218,-1.109373 -0.09866,-0.15104 -0.18802,-0.296532 -0.19922,-0.320314 -0.02676,-0.05656 -0.09182,-0.16048 -0.11328,-0.17968 -0.0092,-0.0084 -0.05128,-0.06602 -0.08984,-0.128899 -0.03856,-0.06288 -0.0854,-0.13196 -0.105459,-0.15234 -0.02,-0.02038 -0.06876,-0.08234 -0.10938,-0.14062 -0.04068,-0.05828 -0.08044,-0.1129 -0.08984,-0.1211 -0.0096,-0.0084 -0.05746,-0.06282 -0.10546,-0.1211 -0.10496,-0.12744 -0.463156,-0.524087 -0.796875,-0.878907 -0.35774,-0.38032 -0.6529,-0.387326 -0.675782,-0.492186 -0.02292,-0.104619 0.05558,-0.244893 0.238282,-0.433593 0.20738,-0.2142 0.437372,-0.539102 0.570312,-0.800781 0.02124,-0.04162 0.05332,-0.08746 0.07032,-0.10546 0.03138,-0.03294 0.375508,-0.704646 0.417968,-0.816405 0.0126,-0.0333 0.03794,-0.117 0.0586,-0.1836 0.02056,-0.0666 0.06066,-0.18628 0.08984,-0.269532 0.08216,-0.23482 0.1845,-0.761619 0.20703,-1.062499 0.04072,-0.541999 0.0108,-1.417906 -0.0586,-1.730466 -0.04652,-0.2097 -0.273944,-0.861311 -0.351564,-1.007813 -0.03966,-0.07492 -0.11224,-0.22379 -0.16406,-0.33203 -0.15176,-0.317039 -0.302573,-0.525541 -0.671873,-0.925781 -0.18596,-0.20156 -0.768193,-0.711383 -0.945313,-0.828123 -0.32308,-0.21296 -0.539996,-0.341742 -0.722655,-0.425782 -0.35964,-0.165499 -0.52452,-0.236537 -0.625,-0.273437 -0.05882,-0.0216 -0.12072,-0.0524 -0.13672,-0.0664 -0.016,-0.014 -0.04694,-0.02344 -0.07032,-0.02344 -0.02352,2e-6 -0.08764,-0.0196 -0.140619,-0.04296 -0.2434,-0.10736 -0.763944,-0.264478 -1.390625,-0.324218 z"/>
 <path style="fill:#8b9cbe;opacity:0.2" d="M 10.044922 4 C 10.330101 4.3944988 10.587662 4.7944299 10.824219 5.1992188 C 26.539845 9.3121884 37.355563 11.270808 52.044922 9 C 52.044922 12.590956 52.537225 15.111351 53.646484 18 L 54.044922 18 C 52.649521 14.667004 52.044922 11.999996 52.044922 8 C 37.105933 10.309398 26.200487 8.2571558 10.044922 4 z M 11.923828 9.3789062 C 11.821986 10.75082 11.268563 12.263144 10.044922 14 C 9.9981912 14.552466 10.000402 15.058846 10.029297 15.541016 C 10.036802 15.358641 10.028803 15.190567 10.044922 15 C 11.572448 12.831804 12.065842 11.008776 11.923828 9.3789062 z M 19.193359 15.976562 C 18.587994 16.033562 17.760946 16.674952 18.548828 17.230469 C 18.826776 17.034043 19.20628 16.923681 19.451172 16.996094 C 19.648855 17.036972 19.837628 17.176022 19.951172 17.400391 C 20.224968 16.549327 19.853808 16.079354 19.451172 15.996094 C 19.375924 15.973844 19.288056 15.967646 19.193359 15.976562 z M 14.666016 16.1875 C 14.530906 16.876829 14.654227 17.641751 15.107422 18.453125 C 15.727041 19.46693 19.085715 19.590917 18.791016 18.386719 C 18.578679 18.285376 18.449106 18.177859 18.355469 18.070312 C 17.474208 18.454196 15.561113 18.195443 15.107422 17.453125 C 14.862801 17.015169 14.731682 16.594376 14.666016 16.1875 z M 36.199219 32.994141 C 36.153317 38.931805 36.587023 44.856699 37.099609 51.714844 C 37.404388 54.131242 39.458122 56.534006 42.044922 57 L 42.044922 56 C 39.458122 55.534006 37.404388 53.131242 37.099609 50.714844 C 36.615657 44.239802 36.206143 38.601333 36.199219 32.994141 z M 52.763672 36.023438 C 49.998777 35.998537 47.886762 36.908468 46.337891 39.246094 C 46.069672 39.786913 45.969993 40.168724 45.939453 40.789062 C 45.927089 41.040395 45.944172 41.271396 45.978516 41.496094 C 46.026811 41.049244 46.118598 40.688262 46.337891 40.246094 C 47.886762 37.908468 49.998777 36.998537 52.763672 37.023438 C 53.390353 37.083178 53.910897 37.240296 54.154297 37.347656 C 54.207276 37.371016 54.271402 37.390627 54.294922 37.390625 C 54.318302 37.390625 54.349234 37.400062 54.365234 37.414062 C 54.381234 37.428063 54.443133 37.458869 54.501953 37.480469 C 54.602433 37.517369 54.767313 37.588407 55.126953 37.753906 C 55.309612 37.837946 55.526529 37.966727 55.849609 38.179688 C 56.026729 38.296428 56.608962 38.806252 56.794922 39.007812 C 57.164222 39.408052 57.315037 39.616555 57.466797 39.933594 C 57.518617 40.041834 57.591199 40.190705 57.630859 40.265625 C 57.708479 40.412127 57.935902 41.063738 57.982422 41.273438 C 58.011727 41.405419 58.028136 41.66632 58.041016 41.931641 C 58.07507 41.387072 58.049186 40.574126 57.982422 40.273438 C 57.935902 40.063738 57.708479 39.412127 57.630859 39.265625 C 57.591199 39.190705 57.518617 39.041834 57.466797 38.933594 C 57.315037 38.616555 57.164222 38.408053 56.794922 38.007812 C 56.608962 37.806252 56.026729 37.296427 55.849609 37.179688 C 55.526529 36.966727 55.309612 36.837946 55.126953 36.753906 C 54.767313 36.588407 54.602433 36.517369 54.501953 36.480469 C 54.443133 36.458869 54.381234 36.428063 54.365234 36.414062 C 54.349234 36.400062 54.318302 36.390625 54.294922 36.390625 C 54.271402 36.390627 54.207276 36.371016 54.154297 36.347656 C 53.910897 36.240296 53.390353 36.083178 52.763672 36.023438 z M 28.128906 40.111328 C 28.114677 44.248486 27.894386 48.409069 27.361328 52.484375 C 26.20017 55.17817 24.956659 56.795601 22.044922 58 L 22.044922 59 C 24.956659 57.795601 26.20017 56.17817 27.361328 53.484375 C 27.937288 49.081083 28.14945 44.576435 28.128906 40.111328 z M 53.097656 42.423828 C 52.736484 44.093648 51.655266 44.562297 50.251953 45.558594 C 50.079233 45.663753 49.982422 45.798246 49.982422 45.941406 C 50.081396 46.147774 50.171039 46.346516 50.267578 46.548828 C 51.830057 45.442201 52.997973 44.993513 53.201172 42.78125 C 53.170179 42.647956 53.132973 42.539879 53.097656 42.423828 z M 56.845703 45.974609 C 56.772771 46.069151 56.699473 46.167283 56.626953 46.242188 C 56.444251 46.430888 56.365752 46.571162 56.388672 46.675781 C 56.411554 46.780641 56.706713 46.787649 57.064453 47.167969 C 57.398172 47.522789 57.756368 47.919435 57.861328 48.046875 C 57.909328 48.105155 57.957197 48.159569 57.966797 48.167969 C 57.976197 48.176169 58.015961 48.230782 58.056641 48.289062 C 58.097261 48.347343 58.146016 48.409307 58.166016 48.429688 C 58.186075 48.450068 58.232924 48.519151 58.271484 48.582031 C 58.310044 48.64491 58.352128 48.702537 58.361328 48.710938 C 58.382788 48.730138 58.447849 48.834065 58.474609 48.890625 C 58.485809 48.914407 58.575168 49.059897 58.673828 49.210938 C 58.858808 49.494078 59.248047 50.245153 59.248047 50.320312 C 59.248047 50.343652 59.267896 50.389035 59.291016 50.421875 C 59.314156 50.454715 59.354739 50.546154 59.380859 50.621094 C 59.407059 50.696033 59.476669 50.884769 59.537109 51.042969 C 59.702629 51.476269 59.863182 52.168407 59.919922 52.691406 C 59.938122 52.857926 59.960703 53.035978 59.970703 53.085938 C 59.977364 53.119369 59.968414 53.26386 59.972656 53.347656 C 59.974849 53.329884 59.976448 53.313163 59.978516 53.296875 C 60.007576 53.073573 60.001523 52.240617 59.970703 52.085938 C 59.960703 52.035978 59.938122 51.857926 59.919922 51.691406 C 59.863182 51.168407 59.702629 50.476269 59.537109 50.042969 C 59.476669 49.884769 59.407059 49.696033 59.380859 49.621094 C 59.354739 49.546154 59.314156 49.454715 59.291016 49.421875 C 59.267896 49.389035 59.248047 49.343653 59.248047 49.320312 C 59.248047 49.245153 58.858808 48.494078 58.673828 48.210938 C 58.575168 48.059897 58.485809 47.914407 58.474609 47.890625 C 58.447849 47.834065 58.382788 47.730137 58.361328 47.710938 C 58.352128 47.702537 58.310044 47.64491 58.271484 47.582031 C 58.232924 47.519151 58.186075 47.450067 58.166016 47.429688 C 58.146016 47.409307 58.097261 47.347342 58.056641 47.289062 C 58.015961 47.230782 57.976197 47.176169 57.966797 47.167969 C 57.957197 47.159569 57.909328 47.105155 57.861328 47.046875 C 57.756368 46.919435 57.398172 46.522789 57.064453 46.167969 C 56.987134 46.085769 56.915059 46.026689 56.845703 45.974609 z M 47.357422 50.015625 C 45.998402 49.998625 44.780361 51.123546 44.138672 52.902344 C 43.986672 53.770763 43.971371 53.883901 44.025391 54.488281 C 44.027942 54.516831 44.03426 54.53857 44.037109 54.566406 C 44.059267 54.387988 44.081992 54.226174 44.138672 53.902344 C 44.780361 52.123546 45.998402 50.998625 47.357422 51.015625 C 47.672342 51.016945 47.726208 51.02575 48.048828 51.09375 C 48.716147 51.23463 49.415923 51.727517 49.720703 52.273438 C 49.830115 52.469433 49.885522 52.563401 49.933594 52.669922 C 49.959253 52.570163 49.987873 52.468692 49.998047 52.363281 C 50.059407 51.727581 49.989247 51.754496 49.720703 51.273438 C 49.415923 50.727517 48.716147 50.23463 48.048828 50.09375 C 47.726208 50.02575 47.672342 50.016945 47.357422 50.015625 z M 54.009766 51.09375 C 53.994763 51.237379 53.977486 51.379418 53.939453 51.617188 C 53.098059 53.843443 51.775015 54.995991 49.232422 54.650391 C 49.053222 54.795985 48.802611 54.866929 48.408203 54.863281 C 48.086962 54.860281 47.931641 54.896009 47.931641 54.980469 C 47.931641 55.107849 48.207748 55.37627 48.498047 55.53125 C 51.53977 56.224967 53.019128 55.052287 53.939453 52.617188 C 54.033383 52.029967 54.045403 51.873879 54.033203 51.4375 C 54.027604 51.239331 54.016609 51.20887 54.009766 51.09375 z"/>
</svg>
