<svg xmlns="http://www.w3.org/2000/svg" height="64" width="64" version="1.1">
 <rect style="opacity:.2" rx="2.8" ry="2.8" height="56" width="56" y="5" x="4.1992188"/>
 <rect style="fill:#811623" rx="2.8" ry="2.8" height="56" width="56" y="4" x="4.1992188"/>
 <path style="opacity:.2" d="m6.8007812 5c-1.5512 0-2.8007812 1.2495813-2.8007812 2.8007812v27.398438l16.800781-3.199219 6 9-10.833984 20h41.232422c0.770091 0 1.465468-0.308829 1.970703-0.808594l-21.369141-22.191406 3-11 19.199219-9.181641v-10.017578c0-1.5511997-1.249582-2.800781-2.800781-2.800781h-15.199219l-7.199219 16-10 3-16.521484-19z"/>
 <path style="fill:#581118" d="m7 4c-1.5512 0-2.8007812 1.2495813-2.8007812 2.8007812v27.398438l16.800781-3.199219 6 9-10.833984 20h41.232422c0.770091 0 1.465468-0.308829 1.970703-0.808594l-21.369141-22.191406 3-11 19.199219-9.181641v-10.017578c0-1.5511997-1.249582-2.800781-2.800781-2.800781h-15.199219l-7.199219 16-10 3-16.521484-19h-1.478516z"/>
 <path style="opacity:.1;fill:#8b9cbe" d="m7 4c-1.5512 0-2.8007812 1.2495812-2.8007812 2.8007812v1c0-1.5511999 1.2495812-2.8007812 2.8007812-2.8007812h50.398438c1.5512 0 2.800781 1.2495812 2.800781 2.8007812v-1c0-1.5511999-1.249581-2.8007812-2.800781-2.8007812z"/>
 <path style="opacity:.2" d="m42 5-3 7 15 11-8 24-25 4-10-15 8.808594-18-4.808594-5.492188-10.800781 24.048829v0.785156l13.800781 23.658203 35-7 7.199219-20.289062v-13.820313zm-7 16-10 3-4 8 6 9 11-3 3-11zm0 3 3 3-2 9-8 2-4-6 3-6z"/>
 <path style="fill:#d12b43" d="m42 4l-3 7 15 11-8 24-25 4-10-15 8.808594-18-4.808594-5.492188-10.800781 24.048829-2e-7 0.785156 13.800781 23.658203 35-7 7.199219-20.289062v-13.820313l-18.199219-14.890625zm-7 16l-10 3-4 8 6 9 11-3 3-11-6-6zm0 3l3 3-2 9-8 2-4-6 3-6 8-2z"/>
</svg>
