<svg xmlns="http://www.w3.org/2000/svg" width="64" height="64" version="1.1">
 <path style="opacity:0.2" d="m 32.155159,3.9999997 v 0.00276 A 6.5948648,6.5944404 0 0 0 28.702035,4.8806871 L 9.2979593,16.084178 a 6.5948648,6.5944404 0 0 0 -3.2979596,5.712196 v 22.40698 a 6.5948648,6.5944404 0 0 0 3.2979596,5.709362 L 28.702035,61.116208 a 6.5948648,6.5944404 0 0 0 6.59592,0 L 54.702031,49.912716 A 6.5948648,6.5944404 0 0 0 58,44.203354 V 21.796446 A 6.5948648,6.5944404 0 0 0 54.702031,16.08425 L 35.297954,4.8807596 A 6.5948648,6.5944404 0 0 0 32.155159,3.9999997 Z"/>
 <path style="fill:#744169" d="m 32.155159,2.9999998 v 0.00276 A 6.5948648,6.5944404 0 0 0 28.702035,3.8806872 L 9.2979593,15.084178 a 6.5948648,6.5944404 0 0 0 -3.2979596,5.712196 v 22.40698 a 6.5948648,6.5944404 0 0 0 3.2979596,5.709362 L 28.702035,60.116208 a 6.5948648,6.5944404 0 0 0 6.59592,0 L 54.702031,48.912716 A 6.5948648,6.5944404 0 0 0 58,43.203354 V 20.796446 A 6.5948648,6.5944404 0 0 0 54.702031,15.08425 L 35.297954,3.8807597 A 6.5948648,6.5944404 0 0 0 32.155159,2.9999998 Z"/>
 <path style="fill:#8b9cbe;opacity:0.1" d="M 32.154297 3 L 32.154297 3.0019531 A 6.5948648 6.5944404 0 0 0 28.701172 3.8808594 L 9.2988281 15.083984 A 6.5948648 6.5944404 0 0 0 6 20.796875 L 6 21.796875 A 6.5948648 6.5944404 0 0 1 9.2988281 16.083984 L 28.701172 4.8808594 A 6.5948648 6.5944404 0 0 1 32.154297 4.0019531 L 32.154297 4 A 6.5948648 6.5944404 0 0 1 35.298828 4.8808594 L 54.701172 16.083984 A 6.5948648 6.5944404 0 0 1 58 21.796875 L 58 20.796875 A 6.5948648 6.5944404 0 0 0 54.701172 15.083984 L 35.298828 3.8808594 A 6.5948648 6.5944404 0 0 0 32.154297 3 z"/>
 <path style="opacity:0.7;fill:#ff4532" d="M 32.119141 9.0546875 L 32.119141 9.0585938 A 5.0729728 5.2175682 0 0 0 29.462891 9.7539062 L 14.537109 18.617188 A 5.0729728 5.2175682 0 0 0 12 23.136719 L 12 40.865234 A 5.0729728 5.2175682 0 0 0 14.537109 45.382812 L 29.462891 54.246094 A 5.0729728 5.2175682 0 0 0 34.537109 54.246094 L 49.462891 45.382812 A 5.0729728 5.2175682 0 0 0 52 40.865234 L 52 23.136719 A 5.0729728 5.2175682 0 0 0 49.462891 18.617188 L 34.537109 9.7539062 A 5.0729728 5.2175682 0 0 0 32.119141 9.0546875 z M 32.070312 11.058594 L 32.087891 11.058594 C 32.587405 11.073494 33.076435 11.211894 33.515625 11.472656 L 48.443359 20.337891 C 49.392676 20.901665 49.999877 21.964458 50 23.136719 L 50 40.865234 C 49.999877 42.037495 49.392677 43.100288 48.443359 43.664062 L 33.515625 52.525391 C 32.566202 53.089101 31.433798 53.089101 30.484375 52.525391 L 15.556641 43.664062 C 14.607323 43.100288 14.000123 42.037495 14 40.865234 L 14 23.136719 C 14.000123 21.964458 14.607323 20.901665 15.556641 20.337891 L 30.482422 11.474609 C 30.969058 11.186366 31.5169 11.044617 32.070312 11.058594 z"/>
 <path style="fill:#d8bbb3" d="M 29,9.777778 V 19.5 h 3 3 V 9.777778 h -3 z"/>
 <path style="opacity:0.2" d="M 27.21016,22.722222 27.14011,25.2497 27.849392,25.876192 27,26.803828 l 0.455342,6.19501 -0.23205,21.913232 C 27.690495,57.838586 32.000013,63 32.000013,63 c 0,0 4.309517,-5.161414 4.776705,-8.08793 L 36.544657,32.998838 37,26.803828 36.150612,25.876192 36.859895,25.2497 36.789845,22.722222 h -4.789832 z"/>
 <path style="fill:#fee4d2" d="M 27.21016,21.722222 27.14011,24.2497 27.849392,24.876192 27,25.803828 l 0.455342,6.19501 -0.23205,21.913232 C 27.690495,56.838586 32.000013,62 32.000013,62 c 0,0 4.309517,-5.161414 4.776705,-8.08793 L 36.544657,31.998838 37,25.803828 36.150612,24.876192 36.859895,24.2497 36.789845,21.722222 h -4.789832 z"/>
 <path style="opacity:0.2" d="M 27.21016,21.722222 27.14011,24.2497 27.849392,24.876192 27,25.803828 l 0.455342,6.19501 -0.23205,21.913232 C 27.690495,56.838586 32.000013,62 32.000013,62 V 21.722222 Z"/>
 <path style="opacity:0.1" d="M 30.476562,2.999876 28,5.3162822 30.011718,7.5858136 28.171876,8.9022198 28.496094,10.999876 H 32 35.503906 L 35.828124,8.9022198 33.988282,7.5858136 36,5.3162822 33.523438,2.999876 32,3.0115948 Z M 32,17.542845 l -2.96875,2.593749 -1.488282,0.1211 -1.421874,-0.98828 -1.66797,0.8125 L 24,21.52722 l 0.292968,1.867188 1.773438,0.714844 1.226562,-1.031252 h 1.738282 l 2.96875,2.5 2.96875,-2.5 h 1.738282 l 1.226562,1.031252 1.773438,-0.714844 L 40,21.52722 l -0.453124,-1.445312 -1.66797,-0.8125 -1.421874,0.98828 -1.488282,-0.1211 z"/>
 <path style="fill:#987d85" d="M 32,16.544437 29.030666,19.134925 27.54371,19.259063 26.119954,18.269254 24.454726,19.08266 24,20.528 l 0.294788,1.865148 1.771854,0.715408 1.226184,-1.030556 h 1.73784 L 32,24.578 l 2.969334,-2.5 h 1.73784 l 1.226184,1.030556 1.771854,-0.715408 L 40,20.528 39.545274,19.08266 37.880046,18.269254 36.45629,19.259063 34.969334,19.134925 Z"/>
 <path style="fill:#987d85" d="M 30.476434,2 28,4.3151862 30.012736,6.5845272 28.173248,7.9025788 28.494268,10 H 32 35.505732 L 35.826752,7.9025788 33.987264,6.5845272 36,4.3151862 33.523566,2 32,2.01146 Z"/>
</svg>
