<svg xmlns="http://www.w3.org/2000/svg" width="64" height="64" version="1.1">
 <path style="opacity:0.2" d="m 4.0507782,32.004697 c -0.01164,0.333192 -0.050779,0.659784 -0.050779,0.995976 C 3.9999992,48.5123 16.487699,61 31.999326,61 46.950966,61 59.090674,49.395079 59.948654,34.664633 l 0.05078,-0.046 0,-1.999952 -0.0508,0.046 c -0.85676,14.730446 -12.996888,26.335367 -27.949328,26.335367 -15.172635,0 -27.4193407,-11.956513 -27.949328,-26.995351 z"/>
 <circle style="fill:#5aa331" cx="32" cy="32.005" r="27.999"/>
 <circle style="opacity:0.2" cx="32" cy="33.005" r="20"/>
 <circle style="fill:#efefef" cx="32" cy="32.005" r="20"/>
 <path style="fill:#ff352e" d="M 32.054688 17.996094 C 31.890649 18.012624 31.762556 18.122564 31.722656 18.318359 C 31.697656 18.441756 31.7088 18.647066 31.75 18.789062 C 31.79 18.927459 31.822266 19.096062 31.822266 19.164062 C 31.822266 19.232063 31.883836 19.376331 31.957031 19.486328 C 32.081631 19.672124 32.082125 19.694128 31.986328 19.828125 C 31.847292 20.02412 31.605406 20.161125 31.326172 20.203125 C 31.099598 20.237725 31.09375 20.245096 31.09375 20.496094 C 31.09375 20.729688 31.06821 20.77141 30.826172 20.941406 C 30.679476 21.045203 30.445484 21.147922 30.304688 21.169922 C 30.107892 21.200522 30.000346 21.263312 29.84375 21.445312 C 29.603456 21.725306 29.082031 21.971921 28.841797 21.919922 C 28.753417 21.901522 28.603766 21.81075 28.509766 21.71875 C 28.305651 21.518754 28.050617 21.495928 27.949219 21.669922 C 27.837942 21.861118 27.935379 22.093747 28.240234 22.369141 C 28.395951 22.509537 28.521484 22.668656 28.521484 22.722656 C 28.521484 22.876652 28.277258 23.12275 28.027344 23.21875 C 27.551395 23.401746 27.459091 23.629638 27.691406 24.048828 C 27.757606 24.168225 27.844166 24.379581 27.884766 24.517578 C 27.985804 24.86277 27.835856 25.285618 27.533203 25.507812 C 27.281806 25.692208 27.246959 25.912175 27.443359 26.076172 C 27.692813 26.283967 27.611761 26.433171 27.138672 26.634766 C 26.456027 26.925959 26.276104 27.295371 26.517578 27.910156 C 26.659494 28.271548 26.645631 28.349629 26.410156 28.515625 C 26.183762 28.674621 26.059621 28.881165 25.890625 29.376953 C 25.745428 29.803343 25.648523 29.931379 25.34375 30.109375 C 25.026158 30.29397 24.585937 30.900903 24.585938 31.154297 C 24.585936 31.334694 25.086405 32.095129 25.478516 32.511719 C 25.694111 32.740713 25.772954 33.110993 25.660156 33.367188 C 25.52512 33.67418 25.20582 34.001378 24.935547 34.109375 C 24.685093 34.209375 24.678138 34.21036 24.390625 34.068359 C 24.230329 33.989359 23.949774 33.768121 23.767578 33.578125 C 23.350428 33.142734 23.200458 33.12554 22.970703 33.486328 C 22.848907 33.677324 22.808594 33.821672 22.808594 34.072266 C 22.808594 34.458455 22.782514 34.474921 22.111328 34.544922 C 21.690238 34.588322 21.490443 34.672983 21.064453 34.984375 C 20.77168 35.19837 20.714077 35.199717 20.470703 35.011719 C 20.365786 34.930519 19.998802 34.777872 19.65625 34.671875 C 19.100843 34.501079 19.014924 34.455395 18.861328 34.25 C 18.766648 34.123203 18.672944 33.955 18.652344 33.875 C 18.583144 33.605606 17.643383 32.338935 17.417969 32.210938 C 17.363049 32.179938 17.10365 32.066981 16.841797 31.958984 C 16.395967 31.774988 16.335335 31.764921 15.867188 31.794922 C 15.267262 31.833522 14.952895 31.980341 14.583984 32.394531 C 14.291731 32.722523 14.197375 32.939554 14.109375 33.494141 C 13.90556 34.77951 13.954298 34.952094 14.527344 34.996094 C 14.932075 35.026894 15.055787 35.114531 15.3125 35.544922 C 15.40324 35.696318 15.519866 35.841187 15.572266 35.867188 C 15.672404 35.916187 16.278761 36.144082 16.804688 36.330078 C 17.164379 36.457475 17.336325 36.59401 17.654297 37 C 17.780074 37.160796 17.992003 37.403065 18.125 37.539062 C 18.257837 37.674859 18.365234 37.832625 18.365234 37.890625 C 18.365234 37.948425 18.223423 38.130879 18.048828 38.296875 C 17.692256 38.635666 17.659623 38.774862 17.824219 39.28125 C 17.899719 39.513644 17.970638 39.600472 18.189453 39.730469 C 18.33871 39.819269 18.583979 39.995097 18.734375 40.121094 C 19.006171 40.349488 19.007956 40.351395 18.910156 40.525391 C 18.856156 40.622591 18.779034 40.718234 18.740234 40.740234 C 18.701434 40.762234 18.629478 40.870519 18.580078 40.978516 C 18.498478 41.158312 18.502894 41.198914 18.621094 41.412109 C 18.723694 41.597304 18.741584 41.705247 18.708984 41.931641 C 18.675784 42.162636 18.692979 42.250816 18.792969 42.382812 C 18.861249 42.473613 18.966344 42.668503 19.027344 42.8125 C 19.19862 43.21789 19.225236 43.235294 20.275391 43.646484 C 20.466986 43.721484 20.522569 43.788378 20.634766 44.076172 C 20.708026 44.264166 20.798938 44.526253 20.835938 44.65625 C 20.943196 45.034241 21.29489 45.265625 21.761719 45.265625 C 22.026913 45.265625 22.300781 45.357315 22.300781 45.445312 C 22.300781 45.55691 22.731129 46.058566 22.970703 46.226562 C 23.0974 46.316563 23.296584 46.402344 23.425781 46.402344 C 23.619057 46.416544 23.727478 46.489074 24.105469 46.855469 C 24.352703 47.095063 24.649075 47.410644 24.763672 47.556641 C 24.878309 47.703237 25.063384 47.865921 25.175781 47.919922 L 25.175781 47.929688 C 25.388536 48.027687 25.50623 48.026156 26.904297 47.910156 C 27.61112 47.851356 27.736525 47.793261 27.828125 47.480469 C 27.939223 47.100678 27.849395 46.90423 27.488281 46.740234 C 27.190468 46.604234 27.180284 46.60317 26.900391 46.701172 C 26.638217 46.785172 26.590446 46.785172 26.314453 46.701172 C 26.149457 46.651172 25.908341 46.598125 25.777344 46.578125 C 25.466652 46.534125 25.475822 46.452449 25.808594 46.314453 C 26.150766 46.172056 26.245917 46.172362 26.445312 46.316406 C 26.780404 46.559 26.973484 46.408037 26.896484 45.964844 C 26.863424 45.774449 26.888584 45.734748 27.246094 45.410156 C 27.458049 45.21776 27.753347 44.997828 27.902344 44.923828 C 28.139218 44.803828 28.228758 44.794219 28.617188 44.824219 C 28.994958 44.854219 29.092182 44.842188 29.267578 44.742188 C 29.495575 44.61199 29.513081 44.526391 29.396484 44.125 C 29.328084 43.890006 29.334712 43.834479 29.445312 43.646484 C 29.610229 43.364691 29.899479 43.103516 30.046875 43.103516 C 30.205331 43.103516 30.61476 43.329724 30.785156 43.511719 C 30.907333 43.641715 30.977313 43.651875 31.419922 43.671875 C 31.693535 43.691875 31.947622 43.690206 31.982422 43.691406 C 32.017322 43.691406 32.263464 43.67625 32.529297 43.65625 C 32.957747 43.62225 33.05923 43.63553 33.425781 43.769531 C 33.653215 43.852531 34.017221 43.961813 34.234375 44.007812 C 34.689724 44.105612 34.828302 44.202015 35.029297 44.566406 C 35.201413 44.878598 35.27619 44.945625 35.847656 45.291016 C 36.492181 45.681007 36.959311 45.713348 37.609375 45.410156 C 37.775991 45.332156 37.968109 45.267578 38.037109 45.267578 C 38.237384 45.267578 38.483466 45.02718 38.572266 44.742188 C 38.649806 44.499393 38.665286 44.478516 38.880859 44.478516 C 39.008776 44.478516 39.163422 44.434955 39.232422 44.376953 C 39.300002 44.320953 39.439171 44.275391 39.542969 44.275391 C 39.7931 44.275391 39.884766 44.179361 39.884766 43.917969 C 39.884766 43.743974 39.928576 43.66748 40.109375 43.521484 C 40.566784 43.151293 40.601435 43.141347 40.935547 43.277344 C 41.396076 43.464739 41.602481 43.43336 42.431641 43.042969 C 42.697835 42.917172 42.988325 42.814453 43.078125 42.814453 C 43.175885 42.814453 43.411075 42.933425 43.662109 43.107422 C 44.264494 43.527212 44.493305 43.488735 44.6875 42.935547 C 44.814637 42.573356 44.793464 42.524896 44.359375 42.220703 C 43.947385 41.93211 43.91449 41.86551 44.054688 41.603516 C 44.198465 41.334923 44.449447 41.198731 45.076172 41.052734 C 45.597619 40.930737 45.749793 40.860985 46.638672 40.341797 C 47.075881 40.085606 47.260177 40.011719 47.451172 40.011719 C 48.37395 40.011719 48.827689 39.130024 48.929688 37.138672 C 48.944868 36.84308 49.005598 36.63071 49.183594 36.261719 C 49.630723 35.335141 49.723159 35.030229 49.818359 34.15625 C 49.877959 33.611063 49.888563 33.241794 49.851562 33.091797 C 49.814163 32.939801 49.829628 32.48283 49.898438 31.748047 C 50.076211 29.848294 50.038965 29.477211 49.603516 28.890625 C 49.479421 28.723629 49.410859 28.541916 49.380859 28.294922 C 49.330119 27.873732 49.184057 27.501304 48.828125 26.886719 C 48.536852 26.383731 48.386232 26.18391 47.908203 25.669922 C 47.450235 25.177933 47.433312 25.131563 47.445312 24.517578 C 47.453313 24.128987 47.426363 23.911997 47.351562 23.75 C 47.294362 23.625603 47.248047 23.436122 47.248047 23.328125 C 47.248047 23.190928 47.210137 23.114312 47.119141 23.070312 C 46.937966 22.980313 46.131663 22.964824 46.039062 23.048828 C 45.998063 23.086228 45.949642 23.240629 45.931641 23.390625 C 45.905841 23.60282 45.864751 23.676609 45.751953 23.724609 C 45.539938 23.813409 45.068387 23.547133 44.900391 23.244141 C 44.830711 23.118544 44.668213 22.943516 44.541016 22.853516 C 44.146726 22.575323 44.088169 22.50596 44.042969 22.259766 C 44.006169 22.058971 44.029309 21.971685 44.1875 21.712891 C 44.410696 21.3475 44.497665 20.756307 44.355469 20.570312 C 44.213052 20.383519 43.883629 20.270453 43.597656 20.314453 C 43.364662 20.349453 43.331025 20.380204 43.173828 20.683594 C 43.068091 20.887789 42.908763 21.075737 42.759766 21.177734 C 42.627049 21.268134 42.425344 21.413906 42.310547 21.503906 C 42.075653 21.687903 41.816216 21.714022 41.539062 21.582031 C 41.379267 21.506031 41.355206 21.456392 41.316406 21.125 C 41.282326 20.832207 41.227285 20.692145 41.054688 20.46875 C 40.93387 20.312554 40.816522 20.082981 40.794922 19.958984 C 40.766482 19.795388 40.697263 19.694028 40.539062 19.582031 C 40.419646 19.498031 40.278562 19.353719 40.226562 19.261719 C 40.102866 19.041125 39.782039 18.865634 39.503906 18.865234 C 39.31181 18.865034 39.226052 18.917884 38.869141 19.263672 C 38.642146 19.483467 38.403491 19.681125 38.337891 19.703125 C 38.267631 19.725125 38.053873 19.681705 37.818359 19.595703 C 37.36943 19.429705 37.193624 19.41725 36.96875 19.53125 C 36.837693 19.60325 36.774356 19.60125 36.556641 19.53125 C 36.21821 19.420253 36.052362 19.465251 35.884766 19.714844 C 35.614252 20.117034 35.352214 20.102125 35.257812 19.677734 C 35.206212 19.44534 35.01339 19.335584 34.648438 19.333984 C 34.505601 19.333984 34.257627 19.271454 34.082031 19.189453 C 33.71788 19.019456 33.459074 19.006674 33.021484 19.138672 C 32.719692 19.224672 32.702541 19.223131 32.619141 19.119141 C 32.543341 19.023141 32.546554 18.984168 32.652344 18.826172 C 32.819538 18.576977 32.805921 18.439664 32.59375 18.230469 C 32.417044 18.056575 32.218726 17.97957 32.054688 17.996094 z M 37.609375 22.005859 C 38.029725 21.979639 38.545161 22.02902 39.273438 22.164062 C 39.549166 22.214083 39.973567 22.288209 40.214844 22.324219 C 40.456083 22.360224 40.780368 22.409584 40.935547 22.433594 C 41.335697 22.494214 41.588524 22.634635 41.748047 22.886719 C 41.872227 23.082785 41.874396 23.109855 41.785156 23.171875 C 41.652872 23.261705 41.661274 23.329939 41.8125 23.417969 C 41.88475 23.460179 41.9375 23.554595 41.9375 23.640625 C 41.9375 23.8641 42.049991 24.015625 42.214844 24.015625 C 42.439959 24.015625 42.532989 24.155755 42.443359 24.357422 C 42.402499 24.447852 42.376819 24.559449 42.386719 24.605469 C 42.399359 24.665492 42.36437 24.686026 42.28125 24.666016 C 41.779563 24.576186 41.501699 24.682386 41.634766 24.914062 C 41.690246 25.010093 41.670516 25.053645 41.505859 25.179688 C 41.279215 25.354345 41.254223 25.476562 41.443359 25.476562 C 41.521942 25.476562 41.587672 25.521757 41.607422 25.591797 C 41.649592 25.743855 41.678162 25.740507 41.875 25.564453 C 42.02084 25.432413 42.050939 25.42597 42.164062 25.5 C 42.273485 25.57182 42.287274 25.638593 42.271484 26.011719 C 42.248894 26.590112 42.368314 27.453097 42.5 27.667969 C 42.703753 28.002081 42.761323 28.442584 42.689453 29.132812 C 42.652924 29.483531 42.605704 29.981195 42.583984 30.238281 C 42.552984 30.609005 42.513164 30.73905 42.396484 30.871094 C 42.234187 31.053355 42.220607 31.178832 42.248047 32.283203 C 42.263077 32.892206 42.275637 32.939445 42.453125 33.169922 C 42.556105 33.303767 42.696125 33.423349 42.765625 33.443359 C 42.891922 33.473369 42.892084 33.474809 42.759766 33.630859 C 42.686713 33.717889 42.626953 33.838464 42.626953 33.896484 C 42.626953 33.988534 42.661443 33.99676 42.814453 33.96875 C 42.97451 33.93874 43.00899 33.95389 43.0625 34.085938 C 43.14056 34.283997 43.298252 34.291487 43.388672 34.107422 C 43.447292 33.987384 43.500855 33.966644 43.761719 33.964844 C 44.032039 33.962844 44.072299 33.979524 44.105469 34.101562 C 44.151449 34.273618 44.287834 34.326217 44.457031 34.242188 C 44.630037 34.155757 44.724277 34.251488 44.882812 34.671875 C 45.036586 35.082412 45.040092 35.318993 44.890625 35.621094 C 44.704115 35.99802 44.201465 36.331761 43.310547 36.671875 C 42.9056 36.826327 42.739524 36.926744 42.550781 37.132812 C 42.154539 37.565158 42.044774 37.731247 42.058594 39.095703 C 42.079524 41.30064 42.080984 41.268752 41.941406 41.523438 C 41.870886 41.652079 41.828319 41.805168 41.755859 41.867188 L 41.757812 41.857422 C 41.653137 41.945451 41.501221 41.972131 41.015625 41.994141 C 40.679483 42.006141 40.382692 41.998639 40.357422 41.974609 C 40.290632 41.902575 39.412149 41.860334 39.085938 41.902344 C 38.980317 41.915944 38.960938 41.885234 38.960938 41.701172 C 38.960937 41.484299 38.757242 41.20175 38.701172 41.341797 C 38.587868 41.623292 38.304688 41.65501 38.304688 41.386719 C 38.304687 41.180449 38.097816 41.206355 38.009766 41.423828 C 37.915196 41.662707 37.707402 41.674436 37.763672 41.443359 C 37.879172 40.968803 37.882659 40.902344 37.787109 40.902344 C 37.619834 40.902344 37.541584 40.758186 37.615234 40.578125 C 37.709924 40.345448 37.637554 40.096229 37.46875 40.074219 C 37.343586 40.057619 37.330226 40.017919 37.316406 39.617188 C 37.306476 39.376106 37.300571 39.069592 37.300781 38.935547 C 37.301255 38.64325 37.13706 38.664329 36.832031 38.439453 C 36.695438 38.338019 36.611328 38.224608 36.611328 38.142578 C 36.611328 38.070758 36.570454 37.960456 36.521484 37.898438 C 36.434394 37.786402 36.429403 37.787785 36.273438 37.923828 C 36.131326 38.047878 36.079564 38.057494 35.783203 38.021484 C 35.358789 37.967463 34.766687 37.932354 33.822266 37.902344 C 33.132468 37.880335 32.709253 37.824358 32.556641 37.736328 C 32.523891 37.718316 32.174746 37.670776 31.78125 37.634766 C 31.387734 37.598757 30.969801 37.534301 30.853516 37.488281 C 30.737289 37.444271 30.498965 37.405497 30.322266 37.404297 C 30.145528 37.404297 29.737608 37.368192 29.416016 37.326172 C 28.768844 37.240741 28.566223 36.822248 28.4375 36.453125 C 28.40084 36.34789 28.285314 36.208551 28.179688 36.144531 C 27.995482 36.032094 27.986883 36.012046 28.007812 35.677734 C 28.021433 35.461461 28.069443 35.290629 28.132812 35.224609 C 28.219872 35.134979 28.225046 35.077077 28.166016 34.841797 C 28.100265 34.57991 28.103137 34.559066 28.248047 34.457031 C 28.332351 34.397011 28.400391 34.313551 28.400391 34.269531 C 28.400391 34.225511 28.462496 34.159057 28.535156 34.123047 C 28.636716 34.072027 28.659463 34.020526 28.632812 33.896484 C 28.608532 33.783847 28.642612 33.673344 28.748047 33.529297 C 28.894529 33.328029 28.895169 33.320649 28.78125 33.224609 C 28.667727 33.128579 28.669589 33.112769 28.880859 32.748047 C 29.079878 32.404332 29.091757 32.355747 29.023438 32.179688 C 28.898681 31.85798 29.178765 31.415519 29.904297 30.787109 C 30.427266 30.334158 30.520327 30.227357 30.646484 29.90625 C 30.725654 29.704983 30.847279 29.408101 30.917969 29.248047 C 30.988649 29.087394 31.070216 28.87728 31.097656 28.78125 C 31.125196 28.68482 31.24847 28.413967 31.373047 28.179688 C 31.555057 27.837173 31.77691 27.578672 32.509766 26.865234 C 33.011135 26.377071 33.526956 25.836168 33.654297 25.662109 C 34.144553 24.996287 34.231135 24.857592 34.296875 24.636719 C 34.334175 24.511477 34.483225 24.264045 34.626953 24.083984 C 34.890462 23.755075 35.091712 23.444678 35.263672 23.101562 C 35.489531 22.651013 36.206574 22.265511 37.216797 22.056641 C 37.339978 22.031031 37.469259 22.014559 37.609375 22.005859 z M 36.583984 29.087891 C 36.530124 29.104401 36.464899 29.13648 36.386719 29.1875 C 36.259791 29.27053 36.08608 29.383433 36 29.439453 C 35.380783 29.836985 34.872894 30.401919 34.871094 30.699219 C 34.870423 30.818458 34.618091 31.301302 34.382812 31.632812 C 34.295012 31.756655 34.202241 31.969471 34.175781 32.103516 C 34.149331 32.238562 34.092268 32.457705 34.048828 32.59375 C 33.977562 32.815424 33.979874 33.45232 34.089844 33.568359 C 34.244766 33.731013 34.677009 33.914636 35.050781 33.972656 L 35.050781 33.974609 C 35.210324 33.998619 35.933874 34.025391 36.660156 34.025391 C 38.215166 34.033592 38.471066 33.98413 38.705078 33.632812 C 38.938906 33.280895 39.004776 32.462128 38.941406 32.255859 C 38.874146 32.037186 38.710163 31.851562 38.582031 31.851562 C 38.392895 31.851564 38.000401 31.595315 37.962891 31.447266 C 37.942361 31.365436 37.870644 31.165913 37.802734 31.005859 C 37.608187 30.545105 37.522244 30.322968 37.433594 30.046875 C 37.351444 29.79079 36.894328 29.181921 36.712891 29.087891 C 36.680634 29.070881 36.637844 29.071381 36.583984 29.087891 z"/>
 <path style="fill:#ff352e" d="m 42.487054,25.558904 c 0,-0.044 -0.0714,-0.123997 -0.158796,-0.175996 -0.149197,-0.09 -0.158797,-0.09 -0.158797,0.02 0,0.123997 0.116598,0.246794 0.234895,0.246794 0.0454,0 0.0826,-0.036 0.0826,-0.08 z"/>
 <path style="fill:#ff352e" d="m 38.025961,46.362404 c -0.0754,-0.193995 0.284133,-0.524788 0.461509,-0.42379 0.103997,0.06 0.0732,0.295793 -0.052,0.40019 -0.136996,0.113998 -0.369211,0.127997 -0.40945,0.024 z"/>
 <path style="fill:#ff352e" d="m 41.439679,45.953614 c -0.104798,-0.07 -0.209855,-0.153997 -0.233614,-0.183996 -0.0632,-0.084 0.0414,-0.231794 0.229694,-0.324592 0.143397,-0.07 0.193395,-0.068 0.385831,0.02 0.253134,0.111998 0.260094,0.135997 0.114197,0.41819 -0.123197,0.237795 -0.229394,0.253794 -0.496068,0.076 z"/>
 <path style="fill:#ff352e" d="m 38.817342,45.68642 c -0.149396,-0.105997 -0.206715,-0.387991 -0.108597,-0.533987 0.0572,-0.086 0.514187,-0.036 0.652984,0.07 0.164996,0.125997 -0.0674,0.572786 -0.296373,0.569987 -0.0558,-8e-4 -0.167196,-0.048 -0.247994,-0.105998 z"/>
 <path style="opacity:0.2;fill:#8b9cbe" d="M 32 3.9765625 L 32 4.0058594 A 27.999327 27.999327 0 0 0 4 32.003906 A 27.999327 27.999327 0 0 0 4.0175781 32.496094 A 27.999327 27.999327 0 0 1 32 5.0058594 L 32 4.9785156 A 27.999327 27.999327 0 0 1 59.974609 32.460938 A 27.999327 27.999327 0 0 0 60 31.976562 A 27.999327 27.999327 0 0 0 32 3.9765625 z"/>
</svg>
