<svg width="64" height="64" version="1.1" xmlns="http://www.w3.org/2000/svg">
 <rect x="4" y="5" width="56" height="56" rx="2.8" ry="2.8" style="opacity:.2"/>
 <rect x="4" y="4" width="56" height="56" rx="2.8" ry="2.8" style="fill:#4f4f4f"/>
 <path d="M 6.8007812,4 C 5.2495812,4 4,5.2495812 4,6.8007812 v 1 C 4,6.2495813 5.2495812,5 6.8007812,5 H 57.199219 C 58.750419,5 60,6.2495812 60,7.8007812 v -1 C 60,5.2495813 58.750419,4 57.199219,4 Z" style="fill:#8b9cbe;opacity:.1"/>
 <path d="m32 11c-8.393482 0-15.683471 4.703065-19.392578 11.615234l1.517578 0.759766s1.375-2.75 6.875-6.875l1.847656 2.271484c2.619372-1.749915 5.765781-2.771484 9.152344-2.771484 2.778925 0 5.393953 0.696757 7.691406 1.910156 2.670717 1.410538 4.894431 4.034198 6.445313 6.615235l2.695312-0.56836c0.621703 1.053565 2.417969 4.446826 2.417969 9.042969 0 4.125001-2.75 6.974609-2.75 6.974609h-1.515625c-1.376533 2.995462-3.627913 5.400861-6.417969 7.105469-2.58071 1.538916-5.541098 1.918378-8.566406 1.919922-9.112698 0-17.035156-6.486911-17.035156-15.599609 0.0041-0.459105 0.02792-0.917838 0.07031-1.375h-4.984375c-0.03134 0.45769-0.04812 0.916246-0.05078 1.375 9e-3 3.205586 0.717935 5.970334 2.078125 8.873047l2.046876-1.023438s1.154654 4.436436 6.875 8.25c4.124999 2.75 11 2.75 11 2.75v2.75c3.993069-0.0032 7.895671-1.106367 11.306641-3.15625 0.309596-0.186057 0.622761-0.366581 0.923828-0.568359l-0.01367-0.01953c5.889314-3.945884 9.783201-10.634278 9.783201-18.255861 0-3.470007-0.826208-6.739698-2.257812-9.658203h2e-3c-0.0042-0.0087-0.0094-0.01674-0.01367-0.02539-0.02312-0.04699-0.04297-0.09577-0.06641-0.142578l-0.0098 2e-3c-1.87694-3.747828-4.7779-6.878527-8.35548-9.027391-3.30534-1.985343-7.162331-3.148438-11.298828-3.148438zm0 7.949219v4.125c5.315741 0 10.025 4.610041 10.025 9.925781-9.58e-4 1.966986-0.900052 3.386456-2.025 5l2.103516 0.5s-0.478119 2.283532-3.845704 4.125l-0.863281-1.666016c-1.591526 1.081903-3.470094 2.037852-5.394531 2.041016v1.300781c0.01347 0-1.533949-0.04693-2.75-0.300781-1.803984-0.376586-2.75-1.375-2.75-1.375l0.814453-1.222656c-3.047643-1.698812-4.937992-4.913205-4.939453-8.402344 0-3.327939 1.688317-6.261688 4.255859-7.990234l-1.841797-3.683594c-1.696173 1.048253-3.18272 2.44596-4.304687 4.167969l1.890625 0.630859s-1.635559 1.498961-2.400391 5.779297c-0.457762 2.561847 1.095704 5.988281 1.095703 5.988281l-1.445312 0.607422h-0.220703c2.185924 5.008583 7.130892 8.548051 12.595703 8.550781 2.806398 0 5.414325-1.144511 7.589844-2.58789 3.711281-2.462304 6.160156-6.675374 6.160156-11.462891-0.0041-2.414861-0.643914-4.786051-1.855469-6.875h-2.269531s-0.518284-0.912516-1.375-1.898438c-0.739159-0.850636-2.027344-1.433593-2.027344-1.433593l1.183594-1.375c-2.211405-1.414655-4.781073-2.468204-7.40625-2.46875z" style="opacity:.2"/>
 <path d="m31.999998 10 4.71e-4 5.000257c2.778925 0 5.393482 0.696025 7.690935 1.909424l3.60669-3.76222c-3.30534-1.985342-7.161599-3.147461-11.298096-3.147461zm-7.210695 10.325929c-1.696174 1.048253-3.182964 2.44596-4.304931 4.167969l1.890625 0.631102s-1.636048 1.498961-2.40088 5.779297c-0.457762 2.561847 1.095704 5.98877 1.095704 5.98877l-1.444824 0.606934h-0.220214c2.185924 5.008583 7.130406 8.547768 12.595217 8.550498 2.806398 0 5.413835-1.145205 7.589354-2.588584l0.660644-1.836914h-1.992676l-0.86206-1.665041c-1.591526 1.081903-3.470825 2.036876-5.395262 2.04004v1.300499c0.01347 0-1.533951-0.04665-2.750002-0.300499-1.803984-0.376586-2.75-1.374999-2.75-1.374999l0.813721-1.221925c-3.047643-1.698812-4.937261-4.913937-4.938722-8.403076 0-3.327939 1.68905-6.260956 4.256592-7.989502zm26.87427 1.847656-2.964844 0.539795c0.497813 0.81189 2.55127 4.423308 2.55127 9.28662 0 4.125001-2.75 6.975-2.75 6.975h-1.514648c-1.391022 3.026991-3.673511 5.454146-6.504395 7.161719l2.825194 4.707764c6.398281-3.847497 10.693849-10.834679 10.693849-18.844483 0-3.535856-0.854183-6.86626-2.336426-9.826415z" style="fill:#d8554a"/>
 <path d="m31.999998 10c-8.393482 0-15.683229 4.702823-19.392336 11.614992l1.517334 0.760008s1.375001-2.75 6.875001-6.875l1.848128 2.271742c2.619372-1.749915 5.765781-2.771485 9.152344-2.771485zm11.298096 3.147461-3.606219 3.76222c2.670717 1.410538 4.89396 4.033697 6.444842 6.614734l5.607423-1.181642c-1.873607-3.823016-4.814617-7.014103-8.446046-9.195312zm-11.298096 4.802039v4.125c5.315741 0 10.025002 4.60976 10.025002 9.9255-9.58e-4 1.966986-0.900052 3.386456-2.025 5l2.103025 0.500001s-0.478119 2.283532-3.845703 4.125l1.332032 1.836914c3.711281-2.462304 6.160645-6.674398 6.160645-11.461915-0.0041-2.414861-0.644158-4.786051-1.855713-6.875h-2.269288s-0.518284-0.912759-1.375-1.89868c-0.739159-0.850636-2.027587-1.434083-2.027587-1.434083l1.184326-1.375c-2.211405-1.414655-4.781562-2.467191-7.406739-2.467737zm-21.948886 13.075c-0.03134 0.45769-0.04836 0.916246-0.05102 1.375 9e-3 3.205586 0.718332 5.970981 2.078522 8.873694l2.046387-1.023193s1.154655 4.436435 6.875001 8.249999c4.124999 2.75 11 2.75 11 2.75v2.75c4.3555-0.0035 8.611919-1.29998 12.229981-3.724852l-3.386476-4.350587c-2.643594 1.68055-5.710962 2.07384-8.843507 2.075439-9.112698 0-17.03491-6.487802-17.03491-15.6005 0.0041-0.459105 0.02743-0.917838 0.06982-1.375z" style="fill:#2298e2"/>
</svg>
