<svg xmlns="http://www.w3.org/2000/svg" height="64" width="64" version="1.1">
 <path style="opacity:.2" d="m32 5-28 28 28 28 28-28z"/>
 <path style="fill:#00a1fd" d="m32 4-28 28 28 28 28-28z"/>
 <path style="opacity:.1;fill:#8b9cbe" d="m32 4l-28 28 0.5 0.5 27.5-27.5 27.5 27.5 0.5-0.5-28-28z"/>
 <rect style="opacity:.2" rx="3.9999998" ry="4" height="44" width="44" y="11" x="10"/>
 <rect style="fill:#47bcff" rx="3.9999998" ry="4" height="44" width="44" y="10" x="10"/>
 <path style="opacity:.2" d="m22 29v-6h6l4 4 4-4h6v6l-4 4 4 4v6h-6l-4-4-4 4h-6v-6l4-4z"/>
 <path style="fill:#8b9cbe" d="m22 28v-6h6l4 4 4-4h6v6l-4 4 4 4v6h-6l-4-4-4 4h-6v-6l4-4z"/>
 <path style="opacity:.2;fill:#8b9cbe" d="m14 10c-2.216 0-4 1.784-4 4v1c0-2.216 1.784-4 4-4h36c2.216 0 4 1.784 4 4v-1c0-2.216-1.784-4-4-4h-36z"/>
</svg>
