<svg xmlns="http://www.w3.org/2000/svg" width="64" height="64" version="1">
 <circle style="opacity:0.2" cx="-32" cy="33" r="28" transform="scale(-1,1)"/>
 <circle style="fill:#aa3131" cx="-32" cy="32" r="28" transform="scale(-1,1)"/>
 <path style="opacity:0.1;fill:#8b9cbe" d="M 32,4 A 28,28 0 0 1 60,32 28,28 0 0 1 59.978,32.586 28,28 0 0 0 32,5 28,28 0 0 0 4.021,32.414 28,28 0 0 1 4,32 28,28 0 0 1 32,4 Z"/>
 <path style="opacity:0.2" d="M 36.564,11.484 C 34.242,10.986 31.815,10.87 29.445,11.147 26.005,11.549 22.674,12.777 19.783,14.709 16.925,16.618 14.578,19.135 12.887,22.102 12.239,23.238 11.687,24.451 11.245,25.708 10.937,26.588 10.656,27.606 10.463,28.531 9.459,33.354 10.097,38.327 12.286,42.748 L 12.463,43.068 C 12.463,43.068 31.028,16.624 31.121,16.485 31.698,15.623 32.287,14.989 32.951,14.52 33.11,14.408 33.5,14.185 33.673,14.107 34.472,13.75 35.317,13.644 36.265,13.788 36.924,13.886 37.121,13.945 37.701,14.173 38.593,14.522 39.275,15.036 39.788,15.745 39.899,15.899 40.125,16.287 40.207,16.464 40.547,17.202 40.741,18.045 40.808,19.08 L 43.822,51.516 44.01,51.419 C 45.069,50.738 46.129,49.912 47.068,49.037 49.487,46.782 51.349,44.008 52.534,40.894 52.825,40.127 53.435,37.916 53.531,37.487 54.411,33.299 54.049,28.972 52.482,24.975 51.844,23.347 50.992,21.763 49.982,20.33 47.247,16.448 43.371,13.578 38.875,12.105 38.156,11.87 37.311,11.643 36.564,11.484 Z M 35.964,17.341 C 34.3,17.168 33.234,18.344 32.325,19.581 28.018,27.037 23.427,35.113 18.768,43.426 17.428,45.816 16.115,48.168 16.111,48.186 16.107,48.201 16.164,48.265 16.393,48.496 19.018,51.142 22.266,53.068 25.855,54.108 26.675,54.344 28.035,54.676 29.483,54.849 32.263,55.179 35.052,54.968 37.762,54.222 L 37.963,54.158 38.217,23.633 C 38.07,20.919 38.201,18.092 35.964,17.341 Z"/>
 <path style="fill:#f7b400" d="M 36.564,10.484 C 34.242,9.9861 31.815,9.8698 29.445,10.147 26.005,10.549 22.674,11.777 19.783,13.709 16.925,15.618 14.578,18.135 12.887,21.102 12.239,22.238 11.687,23.451 11.245,24.708 10.937,25.588 10.656,26.606 10.463,27.531 9.459,32.354 10.097,37.327 12.286,41.748 L 12.463,42.068 C 12.463,42.068 31.028,15.624 31.121,15.485 31.698,14.623 32.287,13.989 32.951,13.52 33.11,13.408 33.5,13.185 33.673,13.107 34.472,12.75 35.317,12.644 36.265,12.788 36.924,12.886 37.121,12.945 37.701,13.173 38.593,13.522 39.275,14.036 39.788,14.745 39.899,14.899 40.125,15.287 40.207,15.464 40.547,16.202 40.741,17.045 40.808,18.08 L 43.822,50.516 44.01,50.419 C 45.069,49.738 46.129,48.912 47.068,48.037 49.487,45.782 51.349,43.008 52.534,39.894 52.825,39.127 53.435,36.916 53.531,36.487 54.411,32.299 54.049,27.972 52.482,23.975 51.844,22.347 50.992,20.763 49.982,19.33 47.247,15.448 43.371,12.578 38.875,11.105 38.156,10.87 37.311,10.643 36.564,10.484 Z M 35.964,16.341 C 34.3,16.168 33.234,17.344 32.325,18.581 28.018,26.037 23.427,34.113 18.768,42.426 17.428,44.816 16.115,47.168 16.111,47.186 16.107,47.201 16.164,47.265 16.393,47.496 19.018,50.142 22.266,52.068 25.855,53.108 26.675,53.344 28.035,53.676 29.483,53.849 32.263,54.179 35.052,53.968 37.762,53.222 L 37.963,53.158 38.217,22.633 C 38.07,19.919 38.201,17.092 35.964,16.341 Z"/>
 <path style="opacity:0.2;fill:#8b9cbe" d="M 31.23,10.014 C 33.022,9.9528 34.823,10.111 36.564,10.484 37.311,10.643 38.156,10.87 38.875,11.105 43.371,12.578 47.247,15.448 49.982,19.33 50.992,20.763 51.844,22.347 52.482,23.975 53.543,26.679 54.037,29.537 53.982,32.398 53.915,29.873 53.419,27.364 52.482,24.975 51.844,23.347 50.992,21.763 49.982,20.33 47.247,16.448 43.371,13.578 38.875,12.105 38.156,11.87 37.311,11.643 36.564,11.484 34.242,10.986 31.815,10.869 29.445,11.146 26.005,11.548 22.674,12.777 19.783,14.709 16.925,16.618 14.578,19.135 12.887,22.102 12.239,23.238 11.686,24.45 11.244,25.707 10.936,26.587 10.656,27.606 10.463,28.531 10.214,29.725 10.068,30.928 10.02,32.129 10.011,30.596 10.145,29.057 10.463,27.531 10.656,26.606 10.936,25.587 11.244,24.707 11.686,23.45 12.239,22.238 12.887,21.102 14.578,18.135 16.925,15.618 19.783,13.709 22.674,11.777 26.005,10.548 29.445,10.146 30.038,10.077 30.633,10.034 31.23,10.014 Z M 35.367,16.336 C 35.557,16.318 35.757,16.32 35.965,16.342 38.202,17.093 38.07,19.919 38.217,22.633 L 38.209,23.488 C 38.074,20.82 38.162,18.079 35.965,17.342 34.301,17.169 33.233,18.343 32.324,19.58 28.017,27.036 23.427,35.113 18.768,43.426 17.604,45.502 16.744,47.047 16.461,47.561 16.439,47.538 16.415,47.518 16.393,47.496 16.164,47.265 16.107,47.201 16.111,47.186 16.115,47.168 17.428,44.816 18.768,42.426 23.427,34.113 28.017,26.036 32.324,18.58 33.12,17.498 34.036,16.462 35.367,16.336 Z"/>
</svg>
