<svg xmlns="http://www.w3.org/2000/svg" width="64" height="64" version="1">
 <path style="opacity:0.2" d="M 60,33 A 28,28 0 0 1 32,61 28,28 0 0 1 4,33 28,28 0 0 1 32,5 28,28 0 0 1 60,33 Z"/>
 <path style="fill:#17191e" d="M 60,32 A 28,28 0 0 1 32,60 28,28 0 0 1 4,32 28,28 0 0 1 32,4 28,28 0 0 1 60,32 Z"/>
 <path style="opacity:0.2" d="m 32,17 c -3.214706,-5.54e-4 -6.355034,0.967271 -9.011718,2.777344 0.504096,1.269182 1.284752,2.38836 2.246094,3.328124 C 27.226248,21.738648 29.584274,21.004828 32,21 c 2.420642,5.3e-4 4.784536,0.733118 6.78125,2.101562 0.952206,-0.935194 1.728986,-2.04527 2.230468,-3.304686 C 38.357262,17.979887 35.21676,17.005202 32,17 Z M 16.597656,31.699218 c -0.183002,7.4e-5 -0.362525,0.0174 -0.542968,0.02734 C 16.019551,32.150146 16.001308,32.574962 16,33 c 0.0059,5.891336 3.248909,11.3028 8.441406,14.085938 0.779654,-1.075626 1.35512,-2.307766 1.640626,-3.65625 C 22.326032,41.300426 20.003436,37.317554 20,33 c 0.0044,-0.218994 0.0148,-0.437826 0.03126,-0.65625 -1.082169,-0.411416 -2.239726,-0.643472 -3.433604,-0.644532 z m 30.800782,0 c -1.187624,0.002 -2.343722,0.227962 -3.421876,0.63672 0.014,0.221096 0.02176,0.442534 0.02344,0.664062 -0.0056,4.31697 -2.329646,8.298214 -6.085938,10.425782 0.285762,1.354238 0.868516,2.58885 1.652344,3.667968 C 44.75835,44.307202 47.998488,38.892462 48,33 c -0.004,-0.425142 -0.02476,-0.849958 -0.0625,-1.273438 -0.17982,-0.0098 -0.356696,-0.02734 -0.539062,-0.02734 z"/>
 <path style="fill:#ffd737" d="m 32,16 c -3.214706,-5.54e-4 -6.355034,0.967271 -9.011718,2.777344 0.504096,1.269182 1.284752,2.38836 2.246094,3.328124 C 27.226248,20.738648 29.584274,20.004828 32,20 c 2.420642,5.3e-4 4.784536,0.733118 6.78125,2.101562 0.952206,-0.935194 1.728986,-2.04527 2.230468,-3.304687 C 38.357262,16.979887 35.21676,16.005202 32,16 Z M 16.597656,30.699218 c -0.183002,7.4e-5 -0.362525,0.0174 -0.542968,0.02734 C 16.019551,31.150146 16.001308,31.574962 16,32 c 0.0059,5.891336 3.248909,11.3028 8.441406,14.085938 0.779654,-1.075626 1.35512,-2.307766 1.640626,-3.65625 C 22.326032,40.300426 20.003436,36.317554 20,32 c 0.0044,-0.218994 0.0148,-0.437826 0.03126,-0.65625 -1.082169,-0.411416 -2.239726,-0.643472 -3.433604,-0.644532 z m 30.800782,0 c -1.187624,0.002 -2.343722,0.227962 -3.421876,0.63672 0.014,0.221096 0.02176,0.442534 0.02344,0.664062 -0.0056,4.31697 -2.329646,8.298214 -6.085938,10.425782 0.285762,1.354238 0.868516,2.58885 1.652344,3.667968 C 44.75835,43.307202 47.998488,37.892462 48,32 c -0.004,-0.425142 -0.02476,-0.849958 -0.0625,-1.273438 -0.17982,-0.0098 -0.356696,-0.02734 -0.539062,-0.02734 z"/>
 <path style="opacity:0.2" d="M 31.19336,5.0300782 A 28,28 0 0 0 23.001172,6.5230468 15.4,15.4 0 0 0 16.6,19 15.4,15.4 0 0 0 17.704687,24.71211 15.4,15.4 0 0 0 4.3171874,37.003124 28,28 0 0 0 5.4082032,41.659766 11.2,11.2 0 0 1 5.4,41.4 11.2,11.2 0 0 1 16.6,30.2 11.2,11.2 0 0 1 26.148436,35.56211 L 28.0625,34.457422 A 4.2,4.2 0 0 1 27.8,33 4.2,4.2 0 0 1 31.3,28.857422 v -1.49297 A 11.2,11.2 0 0 1 20.8,16.2 11.2,11.2 0 0 1 31.19336,5.0300782 Z m 1.935938,0.027344 A 11.2,11.2 0 0 1 43.2,16.2 11.2,11.2 0 0 1 32.7,27.37539 v 1.490234 A 4.2,4.2 0 0 1 36.2,33 4.2,4.2 0 0 1 36.0168,34.225 l 1.966016,1.134766 A 11.2,11.2 0 0 1 47.4,30.2 11.2,11.2 0 0 1 58.6,41.4 11.2,11.2 0 0 1 58.5836,41.73086 28,28 0 0 0 59.688288,36.932032 15.4,15.4 0 0 0 46.292584,24.701172 15.4,15.4 0 0 0 47.4,19 15.4,15.4 0 0 0 40.963282,6.5011718 28,28 0 0 0 33.129298,5.0574222 Z M 35.385156,35.477344 A 4.2,4.2 0 0 1 32,37.2 4.2,4.2 0 0 1 28.7625,35.671484 L 26.799218,36.80625 A 11.2,11.2 0 0 1 27.8,41.4 11.2,11.2 0 0 1 16.6,52.6 11.2,11.2 0 0 1 10.283594,50.65039 28,28 0 0 0 13.936718,54.391016 15.4,15.4 0 0 0 19.4,55.4 15.4,15.4 0 0 0 32.005468,48.832032 15.4,15.4 0 0 0 44.6,55.4 15.4,15.4 0 0 0 50.016798,54.39375 28,28 0 0 0 53.727344,50.628516 11.2,11.2 0 0 1 47.4,52.6 11.2,11.2 0 0 1 36.2,41.4 11.2,11.2 0 0 1 37.301952,36.584766 Z"/>
 <path style="fill:#ff950a" d="M 31.19336,4.0300782 A 28,28 0 0 0 23.001172,5.5230468 15.4,15.4 0 0 0 16.6,18 15.4,15.4 0 0 0 17.704687,23.71211 15.4,15.4 0 0 0 4.3171874,36.003124 28,28 0 0 0 5.4082032,40.659766 11.2,11.2 0 0 1 5.4,40.4 11.2,11.2 0 0 1 16.6,29.2 11.2,11.2 0 0 1 26.148436,34.56211 L 28.0625,33.457422 A 4.2,4.2 0 0 1 27.8,32 4.2,4.2 0 0 1 31.3,27.857422 v -1.49297 A 11.2,11.2 0 0 1 20.8,15.2 11.2,11.2 0 0 1 31.19336,4.0300782 Z m 1.935938,0.027344 A 11.2,11.2 0 0 1 43.2,15.2 11.2,11.2 0 0 1 32.7,26.37539 v 1.490234 A 4.2,4.2 0 0 1 36.2,32 4.2,4.2 0 0 1 36.0168,33.225 l 1.966016,1.134766 A 11.2,11.2 0 0 1 47.4,29.2 11.2,11.2 0 0 1 58.6,40.4 11.2,11.2 0 0 1 58.5836,40.73086 28,28 0 0 0 59.688288,35.932032 15.4,15.4 0 0 0 46.292584,23.701172 15.4,15.4 0 0 0 47.4,18 15.4,15.4 0 0 0 40.963282,5.5011718 28,28 0 0 0 33.129298,4.0574222 Z M 35.385156,34.477344 A 4.2,4.2 0 0 1 32,36.2 4.2,4.2 0 0 1 28.7625,34.671484 L 26.799218,35.80625 A 11.2,11.2 0 0 1 27.8,40.4 11.2,11.2 0 0 1 16.6,51.6 11.2,11.2 0 0 1 10.283594,49.65039 28,28 0 0 0 13.936718,53.391016 15.4,15.4 0 0 0 19.4,54.4 15.4,15.4 0 0 0 32.005468,47.832032 15.4,15.4 0 0 0 44.6,54.4 15.4,15.4 0 0 0 50.016798,53.39375 28,28 0 0 0 53.727344,49.628516 11.2,11.2 0 0 1 47.4,51.6 11.2,11.2 0 0 1 36.2,40.4 11.2,11.2 0 0 1 37.301952,35.584766 Z"/>
 <path style="opacity:0.2;fill:#8b9cbe" d="M 32 16 C 28.785294 15.999446 25.644965 16.967271 22.988281 18.777344 C 23.094075 19.043705 23.218386 19.299858 23.347656 19.552734 C 25.927208 17.893708 28.927041 16.99947 32 17 C 35.07482 17.004972 38.074778 17.904789 40.652344 19.570312 C 40.781784 19.31803 40.905869 19.062705 41.011719 18.796875 C 38.357263 16.979887 35.21676 16.005202 32 16 z M 16.597656 30.699219 C 16.414654 30.699293 16.23513 30.716622 16.054688 30.726562 C 16.01955 31.150151 16.001308 31.574962 16 32 C 16.000184 32.18345 16.013109 32.364421 16.019531 32.546875 C 16.028134 32.273262 16.032053 31.999425 16.054688 31.726562 C 16.23513 31.716622 16.414654 31.699293 16.597656 31.699219 C 17.784529 31.700273 18.935022 31.930983 20.011719 32.337891 C 20.00845 32.225067 20.00009 32.113312 20 32 C 20.0044 31.781006 20.01479 31.562174 20.03125 31.34375 C 18.949081 30.932334 17.791534 30.700279 16.597656 30.699219 z M 47.398438 30.699219 C 46.210814 30.701219 45.054716 30.927179 43.976562 31.335938 C 43.990563 31.557033 43.99832 31.778472 44 32 C 43.999856 32.111335 43.991495 32.221169 43.988281 32.332031 C 45.063144 31.926031 46.215049 31.701212 47.398438 31.699219 C 47.580804 31.699219 47.75768 31.716763 47.9375 31.726562 C 47.963143 32.014303 47.970435 32.303139 47.980469 32.591797 C 47.987799 32.394761 47.999949 32.198198 48 32 C 47.996 31.574858 47.97524 31.150042 47.9375 30.726562 C 47.75768 30.716763 47.580804 30.699219 47.398438 30.699219 z M 43.982422 32.509766 C 43.802053 36.627991 41.521627 40.382452 37.914062 42.425781 C 37.975952 42.719078 38.057708 43.003446 38.146484 43.285156 C 41.764129 41.126601 43.994518 37.225989 44 33 C 43.99876 32.836457 43.990354 32.673109 43.982422 32.509766 z M 20.019531 32.583984 C 20.011905 32.722614 20.002789 32.861178 20 33 C 20.003363 37.22622 22.232814 41.126791 25.849609 43.287109 C 25.937951 43.005962 26.020101 42.722194 26.082031 42.429688 C 22.496393 40.397003 20.221911 36.67374 20.019531 32.583984 z"/>
 <path style="opacity:0.2;fill:#8b9cbe" d="M 31.193359 4.0292969 A 28 28 0 0 0 23.001953 5.5234375 A 15.4 15.4 0 0 0 16.599609 18 A 15.4 15.4 0 0 0 16.617188 18.330078 A 15.4 15.4 0 0 1 23.001953 6.5234375 A 28 28 0 0 1 26.128906 5.671875 A 11.2 11.2 0 0 1 31.193359 4.0292969 z M 33.128906 4.0566406 A 11.2 11.2 0 0 1 37.849609 5.6660156 A 28 28 0 0 1 40.962891 6.5019531 A 15.4 15.4 0 0 1 47.376953 18.556641 A 15.4 15.4 0 0 0 47.400391 18 A 15.4 15.4 0 0 0 40.962891 5.5019531 A 28 28 0 0 0 33.128906 4.0566406 z M 43.179688 15.617188 A 11.2 11.2 0 0 1 32.699219 26.375 L 32.699219 27.375 A 11.2 11.2 0 0 0 43.199219 16.199219 A 11.2 11.2 0 0 0 43.179688 15.617188 z M 20.824219 15.701172 A 11.2 11.2 0 0 0 20.800781 16.199219 A 11.2 11.2 0 0 0 31.300781 27.365234 L 31.300781 26.365234 A 11.2 11.2 0 0 1 20.824219 15.701172 z M 46.621094 23.748047 A 15.4 15.4 0 0 1 46.292969 24.701172 A 15.4 15.4 0 0 1 59.582031 36.521484 A 28 28 0 0 0 59.6875 35.931641 A 15.4 15.4 0 0 0 46.621094 23.748047 z M 17.369141 23.767578 A 15.4 15.4 0 0 0 4.3164062 36.003906 A 28 28 0 0 0 4.4238281 36.542969 A 15.4 15.4 0 0 1 17.705078 24.712891 A 15.4 15.4 0 0 1 17.369141 23.767578 z M 27.833984 32.486328 A 4.2 4.2 0 0 0 27.800781 33 A 4.2 4.2 0 0 0 27.84375 33.582031 L 28.0625 33.457031 A 4.2 4.2 0 0 1 27.833984 32.486328 z M 36.166016 32.503906 A 4.2 4.2 0 0 1 36.017578 33.224609 L 36.183594 33.320312 A 4.2 4.2 0 0 0 36.199219 33 A 4.2 4.2 0 0 0 36.166016 32.503906 z M 35.384766 34.476562 A 4.2 4.2 0 0 1 32 36.199219 A 4.2 4.2 0 0 1 28.761719 34.671875 L 26.798828 35.806641 A 11.2 11.2 0 0 1 27.121094 36.621094 L 28.761719 35.671875 A 4.2 4.2 0 0 0 32 37.199219 A 4.2 4.2 0 0 0 35.384766 35.476562 L 36.966797 36.390625 A 11.2 11.2 0 0 1 37.302734 35.583984 L 35.384766 34.476562 z M 27.777344 40.878906 A 11.2 11.2 0 0 1 16.599609 51.599609 A 11.2 11.2 0 0 1 10.283203 49.650391 A 28 28 0 0 0 12.052734 51.626953 A 11.2 11.2 0 0 0 16.599609 52.599609 A 11.2 11.2 0 0 0 27.800781 41.400391 A 11.2 11.2 0 0 0 27.777344 40.878906 z M 36.220703 40.994141 A 11.2 11.2 0 0 0 36.199219 41.400391 A 11.2 11.2 0 0 0 47.400391 52.599609 A 11.2 11.2 0 0 0 51.912109 51.634766 A 28 28 0 0 0 53.726562 49.628906 A 11.2 11.2 0 0 1 47.400391 51.599609 A 11.2 11.2 0 0 1 36.220703 40.994141 z"/>
 <path style="opacity:0.1;fill:#8b9cbe" d="M 32 4 A 28 28 0 0 0 4 32 A 28 28 0 0 0 4.0175781 32.492188 A 28 28 0 0 1 32 5 A 28 28 0 0 1 59.974609 32.492188 A 28 28 0 0 0 60 32 A 28 28 0 0 0 32 4 z"/>
</svg>
