<svg xmlns="http://www.w3.org/2000/svg" width="64" height="64" version="1">
 <rect style="opacity:0.2" width="56" height="56" x="4" y="5" rx="2.8" ry="2.8"/>
 <rect style="fill:#f3990f" width="56" height="56" x="4" y="4" rx="2.8" ry="2.8"/>
 <circle style="opacity:0.2" cx="14" cy="47" r="6"/>
 <circle style="fill:#17191e" cx="14" cy="46" r="6"/>
 <circle style="opacity:0.2" cx="50" cy="47" r="6"/>
 <circle style="fill:#17191e" cx="50" cy="46" r="6"/>
 <path style="opacity:0.2" d="m 40,47 c 0,3.865993 -3.581722,7 -8,7 -4.418278,0 -8,-3.134007 -8,-7 z"/>
 <path style="fill:#17191e" d="m 40,46 c 0,3.865993 -3.581722,7 -8,7 -4.418278,0 -8,-3.134007 -8,-7 z"/>
 <path style="opacity:0.2;fill:#8b9cbe" d="M 6.8007812 4 C 5.2495812 4 4 5.2495812 4 6.8007812 L 4 7.8007812 C 4 6.2495813 5.2495812 5 6.8007812 5 L 57.199219 5 C 58.750419 5 60 6.2495812 60 7.8007812 L 60 6.8007812 C 60 5.2495813 58.750419 4 57.199219 4 L 6.8007812 4 z"/>
</svg>
