<svg xmlns="http://www.w3.org/2000/svg" width="64" height="64" version="1.1">
 <path style="opacity:0.2" d="M 4.0523976,32.005243 C 4.0407576,32.338428 4.0016196,32.665014 4.0016196,33.0012 4.0016196,48.512535 16.489085,61 32.00042,61 46.951779,61 59.091259,49.395297 59.949222,34.665129 l 0.05078,-0.046 0,-1.999915 -0.0508,0.046 C 59.092459,47.395383 46.952559,59.000086 32.0004,59.000086 16.82805,59.000086 4.5815749,47.043798 4.0515976,32.005243 Z"/>
 <path style="fill:#a1a331" d="m 31.784809,4.0064803 -0.002,0 C 16.37367,4.1244753 4.0019998,16.561142 4.0019998,31.999281 c 0,15.511335 12.4874652,27.9988 27.9988002,27.9988 14.951359,0 27.090839,-11.604103 27.946802,-26.334872 l 0.0518,-0.048 0,-24.0149714 c 0,-3.102267 -2.497493,-5.59976 -5.59976,-5.59976 l -22.615031,0 z"/>
 <circle style="opacity:0.2" cx="32.001" cy="33.005" r="19.999"/>
 <circle style="fill:#efefef" cx="32.001" cy="32.005" r="19.999"/>
 <g style="opacity:0.2" transform="matrix(1.9999143,0,0,1.9999143,-197.98934,-14.998843)">
  <path d="m 125.17,16.048 2.33013,0 0,0.95215 -3.49833,0 0,-0.92285 0.58594,-0.62256 c 0.6958,-0.739733 1.26824,-1.195067 1.41717,-1.366 0.18311,-0.20996 0.31494,-0.395507 0.39551,-0.55664 0.0806,-0.163573 0.12084,-0.324707 0.12084,-0.4834 0,-0.24414 -0.0745,-0.331993 -0.22338,-0.463827 -0.14649,-0.13428 -0.60519,-0.20142 -0.87618,-0.20142 -0.50316,0.02738 -0.98972,0.218404 -1.40259,0.350307 l 0,-0.906967 c 0.26123,-0.09521 0.51635,-0.167233 0.76538,-0.21606 0.25147,-0.05127 0.49194,-0.07691 0.72143,-0.07691 0.57861,0 1.1326,0.1355 1.46219,0.4065 0.33203,0.268554 0.49805,0.535854 0.49805,1.002167 0,0.214847 -0.0366,0.416263 -0.10987,0.60425 -0.0708,0.187987 -0.19409,0.396727 -0.36987,0.62622 -0.12939,0.166013 -0.48463,0.539547 -1.0657,1.1206 -0.31495,0.31494 -0.56519,0.566403 -0.75074,0.75439 z"/>
 </g>
 <g style="fill:#8b9cbe" transform="matrix(1.9999143,0,0,1.9999143,-197.98934,-15.992663)">
  <path d="m 125.17,16.048 2.33013,0 0,0.95215 -3.49833,0 0,-0.92285 0.58594,-0.62256 c 0.6958,-0.739733 1.26824,-1.195067 1.41717,-1.366 0.18311,-0.20996 0.31494,-0.395507 0.39551,-0.55664 0.0806,-0.163573 0.12084,-0.324707 0.12084,-0.4834 0,-0.24414 -0.0745,-0.331993 -0.22338,-0.463827 -0.14649,-0.13428 -0.60519,-0.20142 -0.87618,-0.20142 -0.50316,0.02738 -0.98972,0.218404 -1.40259,0.350307 l 0,-0.906967 c 0.26123,-0.09521 0.51635,-0.167233 0.76538,-0.21606 0.25147,-0.05127 0.49194,-0.07691 0.72143,-0.07691 0.57861,0 1.1326,0.1355 1.46219,0.4065 0.33203,0.268554 0.49805,0.535854 0.49805,1.002167 0,0.214847 -0.0366,0.416263 -0.10987,0.60425 -0.0708,0.187987 -0.19409,0.396727 -0.36987,0.62622 -0.12939,0.166013 -0.48463,0.539547 -1.0657,1.1206 -0.31495,0.31494 -0.56519,0.566403 -0.75074,0.75439 z"/>
 </g>
 <path style="opacity:0.2;fill:#8b9cbe" d="M 31.78125 4.0058594 C 16.372311 4.1238544 4 16.563614 4 32.001953 C 4 32.112075 4.0096633 32.219552 4.015625 32.328125 C 4.3703164 17.204066 16.597715 5.1221283 31.78125 5.0058594 L 31.783203 5.0058594 L 31.785156 5.0058594 L 54.394531 5.0058594 C 57.496798 5.0058594 59.996094 7.5051551 59.996094 10.607422 L 59.996094 9.6074219 C 59.996094 6.5051548 57.496798 4.0058594 54.394531 4.0058594 L 31.785156 4.0058594 L 31.783203 4.0058594 L 31.78125 4.0058594 z"/>
 <path style="fill:#ff352e" d="m 32.055661,17.995705 c -0.164039,0.01653 -0.292132,0.12647 -0.332032,0.322265 -0.025,0.123397 -0.01386,0.328707 0.02734,0.470703 0.04,0.138397 0.07227,0.307 0.07227,0.375 0,0.068 0.06157,0.212269 0.134765,0.322266 0.1246,0.185796 0.125094,0.2078 0.0293,0.341797 -0.139036,0.195995 -0.380922,0.333 -0.660156,0.375 -0.226574,0.0346 -0.232422,0.04197 -0.232422,0.292969 0,0.233594 -0.02554,0.275316 -0.267578,0.445312 -0.146696,0.103797 -0.380688,0.206516 -0.521484,0.228516 -0.196796,0.0306 -0.304342,0.09339 -0.460938,0.27539 -0.240294,0.279994 -0.761719,0.526609 -1.001953,0.47461 -0.08838,-0.0184 -0.238031,-0.109172 -0.332031,-0.201172 -0.204115,-0.199996 -0.459149,-0.222822 -0.560547,-0.04883 -0.111277,0.191196 -0.01384,0.423825 0.291015,0.699219 0.155717,0.140396 0.28125,0.299515 0.28125,0.353515 0,0.153996 -0.244226,0.400094 -0.49414,0.496094 -0.475949,0.182996 -0.568253,0.410888 -0.335938,0.830078 0.0662,0.119397 0.15276,0.330753 0.19336,0.46875 0.101038,0.345192 -0.04891,0.76804 -0.351563,0.990234 -0.251397,0.184396 -0.286244,0.404363 -0.08984,0.56836 0.249454,0.207795 0.168402,0.356999 -0.304687,0.558594 -0.682645,0.291193 -0.862568,0.660605 -0.621094,1.27539 0.141916,0.361392 0.128053,0.439473 -0.107422,0.605469 -0.226394,0.158996 -0.350535,0.36554 -0.519531,0.861328 -0.145197,0.42639 -0.242102,0.554426 -0.546875,0.732422 -0.317592,0.184595 -0.757813,0.791528 -0.757812,1.044922 -2e-6,0.180397 0.500467,0.940832 0.892578,1.357422 0.215595,0.228994 0.294438,0.599274 0.18164,0.855469 -0.135036,0.306992 -0.454336,0.63419 -0.724609,0.742187 -0.250454,0.1 -0.257409,0.100985 -0.544922,-0.04102 -0.160296,-0.079 -0.440851,-0.300238 -0.623047,-0.490234 -0.41715,-0.435391 -0.56712,-0.452585 -0.796875,-0.0918 -0.121796,0.190996 -0.162109,0.335344 -0.162109,0.585938 0,0.386189 -0.02608,0.402655 -0.697266,0.472656 -0.42109,0.0434 -0.620885,0.128061 -1.046875,0.439453 -0.292773,0.213995 -0.350376,0.215342 -0.59375,0.02734 -0.104917,-0.0812 -0.471901,-0.233847 -0.814453,-0.339844 -0.555407,-0.170796 -0.641326,-0.21648 -0.794922,-0.421875 -0.09468,-0.126797 -0.188384,-0.295 -0.208984,-0.375 -0.0692,-0.269394 -1.008961,-1.536065 -1.234375,-1.664062 -0.05492,-0.031 -0.314319,-0.143957 -0.576172,-0.251954 -0.44583,-0.183996 -0.506462,-0.194063 -0.974609,-0.164062 -0.599926,0.0386 -0.914293,0.185419 -1.283204,0.599609 -0.292253,0.327992 -0.386609,0.545023 -0.474609,1.09961 -0.203815,1.285369 -0.155077,1.457953 0.417969,1.501953 0.404731,0.0308 0.528443,0.118437 0.785156,0.548828 0.09074,0.151396 0.207366,0.296265 0.259766,0.322266 0.100138,0.049 0.706495,0.276894 1.232422,0.46289 0.359691,0.127397 0.531637,0.263932 0.849609,0.669922 0.125777,0.160796 0.337706,0.403065 0.470703,0.539062 0.132837,0.135797 0.240234,0.293563 0.240234,0.351563 0,0.0578 -0.141811,0.240254 -0.316406,0.40625 -0.356572,0.338791 -0.389205,0.477987 -0.224609,0.984375 0.0755,0.232394 0.146419,0.319222 0.365234,0.449219 0.149257,0.0888 0.394526,0.264628 0.544922,0.390625 0.271796,0.228394 0.273581,0.230301 0.175781,0.404297 -0.054,0.0972 -0.131122,0.192843 -0.169922,0.214843 -0.0388,0.022 -0.110756,0.130285 -0.160156,0.238282 -0.0816,0.179796 -0.07718,0.220398 0.04102,0.433593 0.1026,0.185195 0.12049,0.293138 0.08789,0.519532 -0.0332,0.230995 -0.016,0.319175 0.08398,0.451171 0.06828,0.0908 0.173375,0.285691 0.234375,0.429688 0.171276,0.40539 0.197892,0.422794 1.248047,0.833984 0.191595,0.075 0.247178,0.141894 0.359375,0.429688 0.07326,0.187994 0.164172,0.450081 0.201172,0.580078 0.107258,0.377991 0.458952,0.609375 0.925781,0.609375 0.265194,0 0.539062,0.09169 0.539062,0.179687 0,0.111598 0.430348,0.613254 0.669922,0.78125 0.126697,0.09 0.325881,0.175782 0.455078,0.175782 0.193276,0.0142 0.301697,0.08673 0.679688,0.453125 0.247234,0.239594 0.543606,0.555175 0.658203,0.701172 0.114637,0.146596 0.299712,0.30928 0.412109,0.363281 l 0,0.0098 c 0.212755,0.098 0.330449,0.09647 1.728516,-0.01953 0.706823,-0.0588 0.832228,-0.116895 0.923828,-0.429687 0.111098,-0.379791 0.02127,-0.576239 -0.339844,-0.740235 -0.297813,-0.136 -0.307997,-0.137064 -0.58789,-0.03906 -0.262174,0.084 -0.309945,0.084 -0.585938,0 -0.164996,-0.05 -0.406112,-0.103047 -0.537109,-0.123047 -0.310692,-0.044 -0.301522,-0.125676 0.03125,-0.263672 0.342172,-0.142397 0.437323,-0.142091 0.636718,0.002 0.335092,0.242594 0.528172,0.09163 0.451172,-0.351562 -0.03306,-0.190395 -0.0079,-0.230096 0.34961,-0.554688 0.211955,-0.192396 0.507253,-0.412328 0.65625,-0.486328 0.236874,-0.12 0.326414,-0.129609 0.714844,-0.09961 0.37777,0.03 0.474994,0.01797 0.65039,-0.08203 0.227997,-0.130198 0.245503,-0.215797 0.128906,-0.617188 -0.0684,-0.234994 -0.06177,-0.290521 0.04883,-0.478516 0.164917,-0.281793 0.454167,-0.542968 0.601563,-0.542968 0.158456,0 0.567885,0.226208 0.738281,0.408203 0.122177,0.129996 0.192157,0.140156 0.634766,0.160156 0.273613,0.02 0.5277,0.01833 0.5625,0.01953 0.0349,0 0.281042,-0.01516 0.546875,-0.03516 0.42845,-0.034 0.529933,-0.02072 0.896484,0.113281 0.227434,0.083 0.59144,0.192282 0.808594,0.238281 0.455349,0.0978 0.593927,0.194203 0.794922,0.558594 0.172116,0.312192 0.246893,0.379219 0.818359,0.72461 0.644525,0.389991 1.111655,0.422332 1.761719,0.11914 0.166616,-0.078 0.358734,-0.142578 0.427734,-0.142578 0.200275,0 0.446357,-0.240398 0.535157,-0.52539 0.07754,-0.242795 0.09302,-0.263672 0.308593,-0.263672 0.127917,0 0.282563,-0.04356 0.351563,-0.101563 0.06758,-0.056 0.206749,-0.101562 0.310547,-0.101562 0.250131,0 0.341797,-0.09603 0.341797,-0.357422 0,-0.173995 0.04381,-0.250489 0.224609,-0.396485 0.457409,-0.370191 0.49206,-0.380137 0.826172,-0.24414 0.460529,0.187395 0.666934,0.156016 1.496094,-0.234375 0.266194,-0.125797 0.556684,-0.228516 0.646484,-0.228516 0.09776,0 0.33295,0.118972 0.583984,0.292969 0.602385,0.41979 0.831196,0.381313 1.025391,-0.171875 0.127137,-0.362191 0.105964,-0.410651 -0.328125,-0.714844 -0.41199,-0.288593 -0.444885,-0.355193 -0.304687,-0.617187 0.143777,-0.268593 0.394759,-0.404785 1.021484,-0.550782 0.521447,-0.121997 0.673621,-0.191749 1.5625,-0.710937 0.437209,-0.256191 0.621505,-0.330078 0.8125,-0.330078 0.922778,0 1.376517,-0.881695 1.478516,-2.873047 0.01518,-0.295592 0.07591,-0.507962 0.253906,-0.876953 0.447129,-0.926578 0.539565,-1.23149 0.634765,-2.105469 0.0596,-0.545187 0.0702,-0.914456 0.0332,-1.064453 -0.0374,-0.151996 -0.02193,-0.608967 0.04688,-1.34375 0.177773,-1.899753 0.140527,-2.270836 -0.294922,-2.857422 -0.124095,-0.166996 -0.192657,-0.348709 -0.222657,-0.595703 -0.05074,-0.42119 -0.196802,-0.793618 -0.552734,-1.408203 -0.291273,-0.502988 -0.441893,-0.702809 -0.919922,-1.216797 -0.457968,-0.491989 -0.474891,-0.538359 -0.462891,-1.152344 0.008,-0.388591 -0.01895,-0.605581 -0.09375,-0.767578 -0.0572,-0.124397 -0.103515,-0.313878 -0.103515,-0.421875 0,-0.137197 -0.03791,-0.213813 -0.128906,-0.257813 -0.181175,-0.09 -0.987478,-0.105488 -1.080079,-0.02148 -0.041,0.0374 -0.08942,0.191801 -0.107421,0.341797 -0.0258,0.212195 -0.06689,0.285984 -0.179688,0.333984 -0.212015,0.0888 -0.683566,-0.177476 -0.851562,-0.480468 -0.06968,-0.125597 -0.232178,-0.300625 -0.359375,-0.390625 -0.39429,-0.278193 -0.452847,-0.347556 -0.498047,-0.59375 -0.0368,-0.200795 -0.01366,-0.288081 0.144531,-0.546875 0.223196,-0.365391 0.310165,-0.956584 0.167969,-1.142579 -0.142417,-0.186793 -0.47184,-0.299859 -0.757813,-0.255859 -0.232994,0.035 -0.266631,0.06575 -0.423828,0.369141 -0.105737,0.204195 -0.265065,0.392143 -0.414062,0.49414 -0.132717,0.0904 -0.334422,0.236172 -0.449219,0.326172 -0.234894,0.183997 -0.494331,0.210116 -0.771485,0.07813 -0.159795,-0.076 -0.183856,-0.125639 -0.222656,-0.457031 -0.03408,-0.292793 -0.08912,-0.432855 -0.261718,-0.65625 -0.120818,-0.156196 -0.238166,-0.385769 -0.259766,-0.509766 -0.02844,-0.163596 -0.09766,-0.264956 -0.25586,-0.376953 -0.119416,-0.084 -0.2605,-0.228312 -0.3125,-0.320312 -0.123696,-0.220594 -0.444523,-0.396085 -0.722656,-0.396485 -0.192096,-2e-4 -0.277854,0.05265 -0.634765,0.398438 -0.226995,0.219795 -0.46565,0.417453 -0.53125,0.439453 -0.07026,0.022 -0.284018,-0.02142 -0.519532,-0.107422 -0.448929,-0.165998 -0.624735,-0.178453 -0.849609,-0.06445 -0.131057,0.072 -0.194394,0.07 -0.412109,0 -0.338431,-0.110997 -0.504279,-0.066 -0.671875,0.183594 -0.270514,0.40219 -0.532552,0.387281 -0.626954,-0.03711 -0.0516,-0.232394 -0.244422,-0.34215 -0.609374,-0.34375 -0.142837,0 -0.390811,-0.06253 -0.566407,-0.144531 -0.364151,-0.169997 -0.622957,-0.182779 -1.060547,-0.05078 -0.301792,0.086 -0.318943,0.08446 -0.402343,-0.01953 -0.0758,-0.096 -0.07259,-0.134973 0.0332,-0.292969 0.167194,-0.249195 0.153577,-0.386508 -0.05859,-0.595703 -0.176706,-0.173894 -0.375024,-0.250899 -0.539062,-0.234375 z m 5.554687,4.009765 c 0.42035,-0.02622 0.935786,0.02316 1.664063,0.158203 0.275728,0.05002 0.700129,0.124147 0.941406,0.160157 0.241239,0.036 0.565524,0.08536 0.720703,0.109375 0.40015,0.06062 0.652977,0.201041 0.8125,0.453125 0.12418,0.196066 0.126349,0.223136 0.03711,0.285156 -0.132284,0.08983 -0.123882,0.158064 0.02734,0.246094 0.07225,0.04221 0.125,0.136626 0.125,0.222656 0,0.223475 0.112491,0.375 0.277344,0.375 0.225115,0 0.318145,0.14013 0.228515,0.341797 -0.04086,0.09043 -0.06654,0.202027 -0.05664,0.248047 0.01264,0.06002 -0.02235,0.08056 -0.105469,0.06055 -0.501687,-0.08983 -0.779551,0.01637 -0.646484,0.248046 0.05548,0.09603 0.03575,0.139583 -0.128907,0.265626 -0.226644,0.174657 -0.251636,0.296874 -0.0625,0.296874 0.07858,0 0.144313,0.04519 0.164063,0.115235 0.04217,0.152058 0.07074,0.14871 0.267578,-0.02734 0.14584,-0.13204 0.175939,-0.138483 0.289062,-0.06445 0.109423,0.07182 0.123212,0.138593 0.107422,0.511719 -0.02259,0.578393 0.09683,1.441378 0.228516,1.65625 0.203753,0.334112 0.261323,0.774615 0.189453,1.464843 -0.03653,0.350719 -0.08375,0.848383 -0.105469,1.105469 -0.031,0.370724 -0.07082,0.500769 -0.1875,0.632813 -0.162297,0.182261 -0.175877,0.307738 -0.148437,1.412109 0.01503,0.609003 0.02759,0.656242 0.205078,0.886719 0.10298,0.133845 0.243,0.253427 0.3125,0.273437 0.126297,0.03001 0.126459,0.03145 -0.0059,0.1875 -0.07305,0.08703 -0.132813,0.207605 -0.132813,0.265625 0,0.09205 0.03449,0.100276 0.1875,0.07227 0.160057,-0.03001 0.194537,-0.01486 0.248047,0.117188 0.07806,0.198059 0.235752,0.205549 0.326172,0.02148 0.05862,-0.120038 0.112183,-0.140778 0.373047,-0.142578 0.27032,-0.002 0.31058,0.01468 0.34375,0.136718 0.04598,0.172056 0.182365,0.224655 0.351562,0.140626 0.173006,-0.08643 0.267246,0.0093 0.425781,0.429687 0.153774,0.410537 0.15728,0.647118 0.0078,0.949219 -0.18651,0.376926 -0.68916,0.710667 -1.580078,1.050781 -0.404947,0.154452 -0.571023,0.254869 -0.759766,0.460937 -0.396242,0.432346 -0.506007,0.598435 -0.492187,1.962891 0.02093,2.204937 0.02239,2.173049 -0.117188,2.427735 -0.07052,0.128641 -0.113087,0.28173 -0.185547,0.34375 l 0.002,-0.0098 c -0.104675,0.08803 -0.256591,0.114709 -0.742187,0.136719 -0.336142,0.012 -0.632933,0.0045 -0.658203,-0.01953 -0.06679,-0.07203 -0.945273,-0.114275 -1.271484,-0.07227 -0.105621,0.0136 -0.125,-0.01711 -0.125,-0.201172 -10e-7,-0.216873 -0.203696,-0.499422 -0.259766,-0.359375 -0.113304,0.281495 -0.396484,0.313213 -0.396484,0.04492 -10e-7,-0.20627 -0.206872,-0.180364 -0.294922,0.03711 -0.09457,0.238879 -0.302364,0.250608 -0.246094,0.01953 0.1155,-0.474556 0.118987,-0.541015 0.02344,-0.541015 -0.167275,0 -0.245525,-0.144158 -0.171875,-0.324219 0.09469,-0.232677 0.02232,-0.481896 -0.146484,-0.503906 -0.125164,-0.0166 -0.138524,-0.0563 -0.152344,-0.457031 -0.0099,-0.241082 -0.01584,-0.547596 -0.01563,-0.681641 4.74e-4,-0.292297 -0.163721,-0.271218 -0.46875,-0.496094 -0.136593,-0.101434 -0.220703,-0.214845 -0.220703,-0.296875 0,-0.07182 -0.04087,-0.182122 -0.08984,-0.24414 -0.08709,-0.112036 -0.09208,-0.110653 -0.248046,0.02539 -0.142112,0.12405 -0.193874,0.133666 -0.490235,0.09766 -0.424414,-0.05402 -1.016516,-0.08913 -1.960937,-0.11914 -0.689798,-0.02201 -1.113013,-0.07799 -1.265625,-0.166016 -0.03275,-0.01801 -0.381895,-0.06555 -0.775391,-0.101562 -0.393516,-0.03601 -0.811449,-0.100465 -0.927734,-0.146485 -0.116227,-0.04401 -0.354551,-0.08278 -0.53125,-0.08398 -0.176738,0 -0.584658,-0.0361 -0.90625,-0.07813 -0.647172,-0.08543 -0.849793,-0.503924 -0.978516,-0.873047 -0.03666,-0.105235 -0.152186,-0.244574 -0.257812,-0.308594 -0.184206,-0.112437 -0.192805,-0.132485 -0.171876,-0.466797 0.01362,-0.216273 0.06163,-0.387105 0.125,-0.453125 0.08706,-0.08963 0.09223,-0.147532 0.0332,-0.382812 -0.06575,-0.261887 -0.06288,-0.282731 0.08203,-0.384766 0.0843,-0.06002 0.152344,-0.14348 0.152344,-0.1875 0,-0.04402 0.06211,-0.110474 0.134765,-0.146484 0.10156,-0.05102 0.124307,-0.102521 0.09766,-0.226563 -0.02428,-0.112637 0.0098,-0.22314 0.115235,-0.367187 0.146482,-0.201268 0.147122,-0.208648 0.0332,-0.304688 -0.113523,-0.09603 -0.111661,-0.11184 0.09961,-0.476562 0.199019,-0.343715 0.210898,-0.3923 0.142579,-0.568359 -0.124757,-0.321708 0.155327,-0.764169 0.880859,-1.392579 0.522969,-0.452951 0.61603,-0.559752 0.742187,-0.880859 0.07917,-0.201267 0.200795,-0.498149 0.271485,-0.658203 0.07068,-0.160653 0.152247,-0.370767 0.179687,-0.466797 0.02754,-0.09643 0.150814,-0.367283 0.275391,-0.601562 0.18201,-0.342515 0.403863,-0.601016 1.136719,-1.314454 0.501369,-0.488163 1.01719,-1.029066 1.144531,-1.203125 0.490256,-0.665822 0.576838,-0.804517 0.642578,-1.02539 0.0373,-0.125242 0.18635,-0.372674 0.330078,-0.552735 0.263509,-0.328909 0.464759,-0.639306 0.636719,-0.982422 0.225859,-0.450549 0.942902,-0.836051 1.953125,-1.044921 0.123181,-0.02561 0.252462,-0.04208 0.392578,-0.05078 z m -1.025391,7.082032 c -0.05386,0.01651 -0.119085,0.04859 -0.197265,0.09961 -0.126928,0.08303 -0.300639,0.195932 -0.386719,0.251952 -0.619217,0.397532 -1.127106,0.962466 -1.128906,1.259766 -6.71e-4,0.119239 -0.253003,0.602083 -0.488282,0.933593 -0.0878,0.123843 -0.180571,0.336659 -0.207031,0.470704 -0.02645,0.135046 -0.08351,0.354189 -0.126953,0.490234 -0.07127,0.221674 -0.06895,0.85857 0.04102,0.974609 0.154922,0.162654 0.587165,0.346277 0.960937,0.404297 l 0,0.002 c 0.159543,0.02401 0.883093,0.05078 1.609375,0.05078 1.55501,0.0082 1.81091,-0.04126 2.044922,-0.392579 0.233828,-0.351917 0.299698,-1.170684 0.236328,-1.376953 -0.06726,-0.218673 -0.231243,-0.404297 -0.359375,-0.404297 -0.189136,2e-6 -0.58163,-0.256247 -0.61914,-0.404296 -0.02053,-0.08183 -0.09225,-0.281353 -0.160157,-0.441407 -0.194547,-0.460754 -0.28049,-0.682891 -0.36914,-0.958984 -0.08215,-0.256085 -0.539266,-0.864954 -0.720703,-0.958984 -0.03226,-0.01701 -0.07505,-0.01651 -0.128907,0 z"/>
</svg>
