<svg xmlns="http://www.w3.org/2000/svg" width="64" height="64" version="1.1">
 <circle style="opacity:0.2" cx="32" cy="33" r="28"/>
 <circle style="fill:#03e9f8" cx="32" cy="32" r="28"/>
 <path style="opacity:0.2" d="m 30.685547,15.067021 c -0.11924,0.0063 -0.335852,0.03974 -0.736328,0.103516 -5.017542,0.79903 -8.649064,4.859326 -9.728516,9.871094 -0.208014,0.965814 -0.285453,2.790489 -0.160156,3.787109 0.1053,0.837592 0.367769,2.013179 0.462891,2.070313 0.03514,0.0211 0.369622,0.08815 0.740234,0.15039 1.635062,0.274546 3.447732,0.862104 4.392578,1.419922 0.251042,0.14822 0.71609,0.524046 1.03125,0.833984 1.781286,1.751816 2.521782,3.240715 2.441406,5.365235 -0.03942,1.042044 -0.212047,2.075344 -0.703125,2.566406 -0.545752,0.545732 -1.656282,0.816774 -2.726562,0.919922 l -0.53125,0.05273 -0.06445,0.332031 c -0.08988,0.466077 -0.0079,2.019679 0.134765,2.798829 0.17066,0.93121 0.519876,1.935257 0.902344,2.585937 0.79138,1.346338 2.613219,2.839877 3.755859,3.578125 1.134044,0.7327 2.58181,1.262321 3.978516,1.453125 0.676366,0.0924 2.516557,0.03213 3.167969,-0.105469 3.927524,-0.829552 6.476127,-3.758503 6.908203,-7.935547 0.04824,-0.466394 0.0624,-1.182329 0.0332,-1.669921 -0.231258,-3.861908 -1.785566,-6.618465 -4.996094,-8.855469 -1.912496,-1.332572 -3.024603,-2.154272 -3.464843,-2.558594 -0.81227,-0.746006 -1.232487,-1.852709 -1.417969,-3.009766 -0.04558,-0.284311 -0.09502,-0.524975 -0.107422,-0.537109 -0.0124,-0.012 -0.21995,0.09335 -0.460938,0.234375 -1.074002,0.628524 -2.778943,0.644303 -3.818359,0.03711 -1.162746,-0.679241 -2.238117,-2.283765 -2.720703,-4.060547 -0.225844,-0.831502 -0.277414,-2.684603 -0.107422,-3.5 0.344646,-1.653015 1.475501,-3.467266 3.164063,-5.074219 0.423728,-0.40325 0.769531,-0.761701 0.769531,-0.796875 0,-0.04277 -0.01945,-0.06289 -0.138672,-0.05664 z m 7.396484,9.933594 c -0.10083,0 -0.410406,0.480172 -0.58789,0.914062 -0.27222,0.665476 -0.436969,1.521408 -0.480469,2.488282 -0.04803,1.067618 0.02491,1.485864 0.40625,2.333984 0.46826,1.04144 1.245796,1.826138 2.132812,2.152344 1.269743,0.466956 2.554933,-0.593637 2.439454,-2.011719 -0.04468,-0.548602 -0.285971,-1.051848 -0.716797,-1.490234 -0.357381,-0.363654 -0.517924,-0.450625 -1.357422,-0.734375 -1.150287,-0.388804 -1.66347,-1.244309 -1.75,-2.917969 -0.02087,-0.40381 -0.05903,-0.734375 -0.08594,-0.734375 z m -2.767578,12.005859 c 0.05504,-0.04946 0.101371,0.176466 0.238281,1.126953 0.268718,1.865542 0.695579,3.589393 1.035157,4.181641 0.392418,0.68441 1.368619,1.131566 3.203125,1.46875 0.42135,0.07744 0.77924,0.154275 0.798828,0.171875 0.05174,0.04652 -0.08399,0.0777 -0.986328,0.210938 -1.373298,0.202782 -2.32988,0.525851 -2.84375,0.960937 -0.607194,0.514106 -1.062399,1.824035 -1.365235,3.925781 -0.15078,1.046412 -0.231415,1.392002 -0.287109,1.25 -0.02244,-0.05722 -0.114024,-0.674931 -0.205078,-1.373046 -0.266796,-2.045589 -0.569837,-3.176735 -0.984375,-3.673829 -0.334296,-0.400866 -1.757639,-0.931132 -3.302735,-1.230468 -0.736182,-0.14262 -0.856865,-0.215363 -0.453125,-0.275391 1.953308,-0.290414 3.297631,-0.734556 3.810547,-1.259766 0.417246,-0.42726 0.780777,-1.780415 1.115235,-4.140625 0.10194,-0.719514 0.205148,-1.324496 0.226562,-1.34375 z"/>
 <path style="fill:#8b9cbe" d="m 30.685304,14.066389 c -0.11924,0.0063 -0.336518,0.0404 -0.736994,0.104176 -5.017542,0.79903 -8.64732,4.859031 -9.726772,9.870799 -0.208014,0.965814 -0.286757,2.78992 -0.16146,3.78654 0.1053,0.837592 0.36843,2.013224 0.463552,2.070358 0.03514,0.0211 0.368988,0.08882 0.7396,0.15106 1.635062,0.274546 3.448478,0.861484 4.393324,1.419302 0.251042,0.14822 0.716112,0.523412 1.031272,0.83335 1.781286,1.751816 2.52053,3.241556 2.440154,5.366076 -0.03942,1.042044 -0.212062,2.076128 -0.70314,2.56719 -0.545752,0.545732 -1.654439,0.816142 -2.724719,0.91929 l -0.531262,0.05208 -0.0651,0.33334 c -0.08988,0.466076 -0.0072,2.019586 0.13542,2.798736 0.17066,0.93121 0.518594,1.935312 0.901062,2.585992 0.79138,1.346338 2.613353,2.839952 3.755993,3.5782 1.134044,0.7327 2.582548,1.262354 3.979254,1.453158 0.676366,0.0924 2.515322,0.03082 3.166734,-0.10678 3.927524,-0.829552 6.476926,-3.75802 6.909002,-7.935064 0.04824,-0.466394 0.06304,-1.181714 0.03384,-1.669306 -0.231258,-3.861908 -1.786976,-6.619958 -4.997504,-8.856962 -1.912496,-1.332572 -3.023376,-2.153024 -3.463616,-2.557346 -0.81227,-0.746006 -1.233818,-1.853716 -1.4193,-3.010772 -0.04558,-0.284312 -0.09438,-0.524336 -0.10678,-0.53647 -0.0124,-0.012 -0.219958,0.09336 -0.460946,0.23438 -1.074002,0.628524 -2.778374,0.643654 -3.81779,0.03646 -1.162746,-0.67924 -2.23881,-2.2832 -2.721396,-4.059982 -0.225844,-0.831502 -0.276772,-2.685186 -0.10678,-3.500583 0.344646,-1.653015 1.47557,-3.466071 3.164132,-5.073024 0.423728,-0.40325 0.768244,-0.761718 0.768244,-0.796892 0,-0.04277 -0.0188,-0.06354 -0.13802,-0.05729 z m 4.628194,21.938767 c 0.05504,-0.04946 0.10268,0.17714 0.23959,1.127628 0.268718,1.865542 0.694298,3.590136 1.033876,4.182384 0.392418,0.68441 1.368688,1.131598 3.203194,1.468782 0.42135,0.07744 0.779908,0.15428 0.799496,0.17188 0.05174,0.04652 -0.08466,0.0777 -0.987002,0.210942 -1.373298,0.202782 -2.329938,0.52587 -2.843808,0.960956 -0.607194,0.514106 -1.061778,1.822818 -1.364614,3.924564 -0.15078,1.046412 -0.230772,1.392028 -0.286466,1.250026 -0.02244,-0.05722 -0.11468,-0.674308 -0.205734,-1.372424 -0.266796,-2.045588 -0.569856,-3.177464 -0.984394,-3.674558 -0.334296,-0.400866 -1.75706,-0.929856 -3.302156,-1.229192 -0.736182,-0.14262 -0.856874,-0.21602 -0.453134,-0.276048 1.953308,-0.290414 3.297062,-0.735232 3.809978,-1.260442 0.417246,-0.42726 0.78015,-1.780506 1.114608,-4.140716 0.10194,-0.719514 0.205152,-1.324526 0.226566,-1.34378 z"/>
 <path style="fill:#8b9cbe" d="m 39.551816,31.888186 c -0.887016,-0.326206 -1.66436,-1.110632 -2.13262,-2.152072 -0.381341,-0.84812 -0.454117,-1.266414 -0.406084,-2.334032 0.0435,-0.966874 0.208874,-1.821906 0.481094,-2.487382 0.177484,-0.43389 0.486085,-0.915008 0.586915,-0.915008 0.02691,0 0.06602,0.33039 0.08689,0.7342 0.08653,1.67366 0.600384,2.530512 1.750671,2.919316 0.839498,0.28375 0.998853,0.369942 1.356234,0.733596 0.430826,0.438386 0.673171,0.941402 0.717853,1.490004 0.115479,1.418082 -1.171206,2.478334 -2.440949,2.011378 z"/>
 <path style="opacity:0.2;fill:#8b9cbe" d="M 32 4 A 28 28 0 0 0 4 32 A 28 28 0 0 0 4.0175781 32.492188 A 28 28 0 0 1 32 5 A 28 28 0 0 1 59.974609 32.492188 A 28 28 0 0 0 60 32 A 28 28 0 0 0 32 4 z"/>
</svg>
