<svg width="64" height="64" version="1.1" xmlns="http://www.w3.org/2000/svg">
 <rect x="4" y="5" width="56" height="56" rx="4" ry="4" style="opacity:.2"/>
 <rect x="4" y="4" width="56" height="56" rx="4" ry="4" style="fill:#b2bfd9"/>
 <path d="m7 37v23h8v-23h-8zm42 0v23h8v-23h-8z" style="fill:#3ca2e4"/>
 <path d="m11 34a4 4 0 0 0-4 4 4 4 0 0 0 4 4 4 4 0 0 0 4-4 4 4 0 0 0-4-4zm42 0a4 4 0 0 0-4 4 4 4 0 0 0 4 4 4 4 0 0 0 4-4 4 4 0 0 0-4-4zm-49 10v3h56v-3z" style="opacity:.2"/>
 <path d="m8 4c-2.216 0-4 1.784-4 4v1c0-2.216 1.784-4 4-4h48c2.216 0 4 1.784 4 4v-1c0-2.216-1.784-4-4-4h-48z" style="fill:#8b9cbe;opacity:.2"/>
 <path d="m11 33a4 4 0 0 0-4 4 4 4 0 0 0 4 4 4 4 0 0 0 4-4 4 4 0 0 0-4-4zm42 0a4 4 0 0 0-4 4 4 4 0 0 0 4 4 4 4 0 0 0 4-4 4 4 0 0 0-4-4zm-49 10v3h56v-3h-56z" style="fill:#4f4f4f"/>
</svg>
