<svg xmlns="http://www.w3.org/2000/svg" width="64" height="64" version="1.1">
 <rect style="opacity:0.2" width="56" height="56" x="4" y="5" rx="2.8" ry="2.8"/>
 <rect style="fill:#55448e" width="56" height="56" x="4" y="4" rx="2.8" ry="2.8"/>
 <path style="opacity:0.2" d="m 13.808474,52.914876 c -0.02857,-0.04528 0.534713,-0.731442 1.250569,-1.524898 4.880279,-5.41015 5.586421,-6.320406 6.141277,-7.916618 0.17514,-0.503828 0.363142,-0.930986 0.417858,-0.949214 0.05428,-0.0182 0.361428,0.315086 0.681712,0.740684 0.320428,0.4256 1.142428,1.443014 1.826998,2.260956 0.691428,0.826326 1.205572,1.524254 1.157142,1.570668 -0.04858,0.046 -0.427286,0.1967 -0.842714,0.335 -0.415284,0.13828 -1.170426,0.488456 -1.677712,0.778142 -1.019284,0.581942 -2.398996,1.773426 -2.278854,1.967898 0.05714,0.09186 2.483426,0.11986 10.39513,0.11986 9.17956,0 10.3457,-0.0174 10.543414,-0.15566 0.12286,-0.08558 0.222144,-0.232886 0.222144,-0.327272 0,-0.09442 -0.352428,-0.665542 -0.783428,-1.26924 -0.430856,-0.603696 -2.238998,-3.144978 -4.018138,-5.64729 -3.469996,-4.88048 -12.61627,-17.692134 -14.00441,-19.616874 -0.463428,-0.6425 -2.102426,-2.932068 -3.642424,-5.087908 -2.423568,-3.39301 -2.890425,-3.99238 -3.47471,-4.460651 -0.371142,-0.297528 -0.674856,-0.584042 -0.674856,-0.636699 0,-0.05443 0.423285,-0.09571 0.982427,-0.09571 0.892142,0 1.001142,0.02071 1.185142,0.224985 0.111428,0.123714 5.616563,7.851931 12.233697,17.173763 6.617136,9.321832 12.900842,18.172762 13.96384,19.668732 1.062998,1.495956 1.932712,2.76711 1.932712,2.824796 0,0.12758 -31.458102,0.15006 -31.536816,0.02258 z m 32.0331,-0.7427 C 42.103436,47.02164 17.98304,13.130998 18.015611,13.074998 c 0.02429,-0.04129 6.857705,-0.075 15.186409,-0.075 13.021412,0 15.14298,0.01986 15.14298,0.142142 0,0.07814 -0.708714,0.807385 -1.574854,1.620484 -4.027424,3.780524 -5.770708,5.738536 -6.62885,7.445148 -0.218856,0.435342 -0.453714,0.789742 -0.521714,0.787556 -0.18514,-0.0058 -3.119852,-3.990324 -3.01371,-4.091581 0.05,-0.04729 0.405,-0.255228 0.789856,-0.462228 1.00457,-0.540113 2.14714,-1.357927 2.631712,-1.883569 0.457284,-0.496128 0.498284,-0.606013 0.26,-0.697442 -0.08714,-0.03343 -3.612282,-0.06071 -7.83399,-0.06071 -7.449848,0 -7.680848,0.0057 -7.84999,0.192542 -0.09572,0.105858 -0.159,0.254157 -0.14,0.329471 0.0186,0.07529 0.776142,1.203256 1.683568,2.506569 1.758426,2.525582 1.919856,2.755838 3.69971,5.277592 0.632428,0.89607 1.35657,1.92484 1.609284,2.286126 0.25257,0.361298 0.900856,1.28684 1.44057,2.056796 1.06114,1.514042 1.85714,2.675068 3.60928,5.264622 0.619714,0.91567 1.346428,1.973098 1.615142,2.349826 0.553998,0.776656 4.37885,6.349492 7.121418,10.376102 1.008428,1.480412 2.134856,3.133066 2.503426,3.672566 0.74957,1.097242 1.215428,1.63134 1.97957,2.269554 0.285998,0.2389 0.494856,0.475128 0.464142,0.524956 -0.03144,0.04986 -0.887,0.09058 -1.902426,0.09058 h -1.846426 z"/>
 <path style="fill:#8b9cbe" d="m 13.808474,51.914876 c -0.02857,-0.04528 0.534713,-0.731442 1.250569,-1.524898 4.880279,-5.41015 5.586421,-6.320406 6.141277,-7.916618 0.17514,-0.503828 0.363142,-0.930986 0.417858,-0.949214 0.05428,-0.0182 0.361428,0.315086 0.681712,0.740684 0.320428,0.4256 1.142428,1.443014 1.826998,2.260956 0.691428,0.826326 1.205572,1.524254 1.157142,1.570668 -0.04858,0.046 -0.427286,0.1967 -0.842714,0.335 -0.415284,0.13828 -1.170426,0.488456 -1.677712,0.778142 -1.019284,0.581942 -2.398996,1.773426 -2.278854,1.967898 0.05714,0.09186 2.483426,0.11986 10.39513,0.11986 9.17956,0 10.3457,-0.0174 10.543414,-0.15566 0.12286,-0.08558 0.222144,-0.232886 0.222144,-0.327272 0,-0.09442 -0.352428,-0.665542 -0.783428,-1.26924 -0.430856,-0.603696 -2.238998,-3.144978 -4.018138,-5.64729 -3.469996,-4.88048 -12.61627,-17.692134 -14.00441,-19.616874 -0.463428,-0.6425 -2.102426,-2.932068 -3.642424,-5.087908 -2.423568,-3.39301 -2.890425,-3.99238 -3.47471,-4.460651 -0.371142,-0.297528 -0.674856,-0.584042 -0.674856,-0.636699 0,-0.05443 0.423285,-0.09571 0.982427,-0.09571 0.892142,0 1.001142,0.02071 1.185142,0.224985 0.111428,0.123714 5.616563,7.851931 12.233697,17.173763 6.617136,9.321832 12.900842,18.172762 13.96384,19.668732 1.062998,1.495956 1.932712,2.76711 1.932712,2.824796 0,0.12758 -31.458102,0.15006 -31.536816,0.02258 z m 32.0331,-0.7427 C 42.103436,46.02164 17.98304,12.130998 18.015611,12.074998 c 0.02429,-0.04129 6.857705,-0.075 15.186409,-0.075 13.021412,0 15.14298,0.01986 15.14298,0.142142 0,0.07814 -0.708714,0.807385 -1.574854,1.620484 -4.027424,3.780524 -5.770708,5.738536 -6.62885,7.445148 -0.218856,0.435342 -0.453714,0.789742 -0.521714,0.787556 -0.18514,-0.0058 -3.119852,-3.990324 -3.01371,-4.091581 0.05,-0.04729 0.405,-0.255228 0.789856,-0.462228 1.00457,-0.540113 2.14714,-1.357927 2.631712,-1.883569 0.457284,-0.496128 0.498284,-0.606013 0.26,-0.697442 -0.08714,-0.03343 -3.612282,-0.06071 -7.83399,-0.06071 -7.449848,0 -7.680848,0.0057 -7.84999,0.192542 -0.09572,0.105858 -0.159,0.254157 -0.14,0.329471 0.0186,0.07529 0.776142,1.203256 1.683568,2.506569 1.758426,2.525582 1.919856,2.755838 3.69971,5.277592 0.632428,0.89607 1.35657,1.92484 1.609284,2.286126 0.25257,0.361298 0.900856,1.28684 1.44057,2.056796 1.06114,1.514042 1.85714,2.675068 3.60928,5.264622 0.619714,0.91567 1.346428,1.973098 1.615142,2.349826 0.553998,0.776656 4.37885,6.349492 7.121418,10.376102 1.008428,1.480412 2.134856,3.133066 2.503426,3.672566 0.74957,1.097242 1.215428,1.63134 1.97957,2.269554 0.285998,0.2389 0.494856,0.475128 0.464142,0.524956 -0.03144,0.04986 -0.887,0.09058 -1.902426,0.09058 h -1.846426 z"/>
 <path style="opacity:0.1;fill:#8b9cbe" d="M 6.8007812 4 C 5.2495812 4 4 5.2495812 4 6.8007812 L 4 7.8007812 C 4 6.2495813 5.2495812 5 6.8007812 5 L 57.199219 5 C 58.750419 5 60 6.2495812 60 7.8007812 L 60 6.8007812 C 60 5.2495813 58.750419 4 57.199219 4 L 6.8007812 4 z"/>
</svg>
