<svg xmlns="http://www.w3.org/2000/svg" width="64" height="64" version="1.1">
 <path style="opacity:0.2" d="M 18,4.9998 C 16.695,4.9999 15.54,5.8431 15.143,7.0858 L 7.1427,32.086 C 6.8212,33.091 7.0511,34.19 7.7481,34.982 L 29.748,59.982 C 30.943,61.339 33.057,61.339 34.252,59.982 L 56.252,34.982 C 56.949,34.19 57.179,33.091 56.857,32.086 L 48.857,7.0858 C 48.46,5.8431 47.305,4.9999 46,4.9998 Z"/>
 <path style="fill:#3134a1" d="M 18,4 C 16.695,4.0001 15.54,4.8433 15.143,6.0859 L 7.1427,31.086 C 6.8212,32.091 7.0511,33.191 7.7481,33.982 L 29.748,58.982 C 30.943,60.339 33.057,60.339 34.252,58.982 L 56.252,33.982 C 56.949,33.191 57.179,32.091 56.857,31.086 L 48.857,6.0859 C 48.46,4.8433 47.305,4.0001 46,4 Z"/>
 <path style="fill:#386ab5" d="M 32,28 A 27,16 0 0 0 9.1211,35.541 L 29.748,58.982 C 30.345,59.661 31.173,60 32,60 32.827,60 33.655,59.661 34.252,58.982 L 54.889,35.531 A 27,16 0 0 0 32,28 Z"/>
 <path style="opacity:0.1;fill:#8b9cbe" d="M 18,4 C 16.695,4.0001 15.54,4.8433 15.143,6.0859 L 7.1427,31.086 C 6.9988,31.536 6.9815,32.002 7.0509,32.453 7.0738,32.33 7.104,32.207 7.1427,32.086 L 15.143,7.0859 C 15.54,5.8433 16.695,5.0001 18,5 H 46 C 47.305,5.0001 48.46,5.8433 48.857,7.0859 L 56.857,32.086 C 56.896,32.207 56.926,32.33 56.949,32.453 57.019,32.002 57.001,31.536 56.857,31.086 L 48.857,6.0859 C 48.46,4.8433 47.305,4.0001 46,4 Z"/>
 <path style="opacity:0.2" d="M 18,5.0005 C 16.695,5.0006 15.54,5.8438 15.143,7.0864 L 13.037,13.668 26.5,33 17.445,46.002 23.586,52.979 32,40.897 40.414,52.979 46.555,46.002 37.5,33 50.963,13.668 48.857,7.0864 C 48.46,5.8438 47.305,5.0006 46,5.0005 L 32,25.104 Z"/>
 <path style="fill:#469fe3" d="M 18,4 C 16.695,4.0001 15.54,4.8433 15.143,6.0859 L 13.037,12.668 26.5,32 17.445,45.002 23.586,51.979 32,39.896 40.414,51.979 46.555,45.002 37.5,32 50.963,12.668 48.857,6.0859 C 48.46,4.8433 47.305,4.0001 46,4 L 32,24.104 Z"/>
 <path style="opacity:0.2;fill:#8b9cbe" d="M 18,4 C 16.695,4.0001 15.54,4.8433 15.143,6.0859 L 13.037,12.668 13.256,12.982 15.143,7.0859 C 15.54,5.8433 16.695,5.0001 18,5 L 32,25.104 46,5 C 47.305,5.0001 48.46,5.8433 48.857,7.0859 L 50.744,12.982 50.963,12.668 48.857,6.0859 C 48.46,4.8433 47.305,4.0001 46,4 L 32,24.104 Z M 26.152,32.5 17.445,45.002 17.834,45.443 26.5,33 Z M 37.848,32.5 37.5,33 46.166,45.443 46.555,45.002 Z"/>
</svg>
