<svg xmlns="http://www.w3.org/2000/svg" width="64" height="64" version="1">
 <path style="fill:#4f4f4f" d="m25.635 61.424c0.46263-1.5109 2.7438-5.2839 3.9713-6.5683 0.75397-0.78893 1.3708-1.5082 1.3708-1.5984 0-0.62427-1.8686-1.9969-10.183-7.4801-4.4489-2.934-6.8637-5.0319-9.0877-7.8959l-1.8803-2.422-0.781-3.68c-0.59-2.778-0.7234-3.884-0.5452-4.516 0.177-0.628 0.144-0.912-0.1316-1.136-0.5052-0.411-0.484-2.257 0.028-2.45 0.28186-0.1061 0.38589-0.48995 0.36226-1.3365-0.044599-1.594 0.2078-2.136 2.5324-5.4339 1.36-1.9292 2.3368-3.0378 3.0728-3.4872 0.59339-0.3624 1.7588-1.2894 2.5896-2.0598 1.3668-1.2676 1.593-1.3858 2.3748-1.242 0.62301 0.11464 1.0392 0.02857 1.4921-0.30852 1.0027-0.74633 2.5844-1.5896 2.9816-1.5896 0.4294 0 2.8992-1.3829 3.6522-2.045 0.86469-0.76029 4.2157-2.3638 4.7363-2.2664 0.26724 0.050063 0.52343 0.34902 0.56933 0.66451 0.04592 0.3155 0.16236 0.57363 0.2588 0.57363 0.09648 0 0.99891-0.39153 2.0054-0.87007 1.0066-0.47853 3.1398-1.2293 4.7405-1.6685 3.132-0.85921 3.9571-0.81885 4.5247 0.22134 0.25594 0.46901 0.53507 0.52447 2.64 0.52447 2.4228 0 3.6786 0.35896 3.9835 1.1388 0.08368 0.21416 0.92053 0.74539 1.8594 1.1805 1.3919 0.64501 1.7071 0.90269 1.7071 1.3954 0 0.38155 0.29408 0.80967 0.79783 1.1615 1.1597 0.80995 0.94569 1.4748-0.79783 2.478-0.78987 0.45443-1.6124 0.93165-1.8278 1.0605-0.3194 0.191-0.25916 0.29452 0.32642 0.56089 0.39492 0.17965 0.71805 0.49519 0.71805 0.70121 0 0.56129-2.239 3.5286-3.1344 4.1539-0.94263 0.65835-0.95739 0.94031-0.1685 3.2198 0.3376 0.97547 0.87917 2.9262 1.2035 4.3345 0.32436 1.4086 0.81181 3.3102 1.0833 4.2257 0.27146 0.91559 0.68267 2.7596 0.91383 4.0977 0.73251 4.2407 0.116 6.9515-2.2378 9.8417-1.5807 1.9409-5.3507 5.5115-7.5503 7.1509l-1.6653 1.2412 0.1544 1.278c0.11904 0.98637 0.36954 1.5116 1.0974 2.302 1.1395 1.2371 3.254 5.3981 3.254 6.4035v0.72287h-21.186l0.17644-0.57625z"/>
 <path style="opacity:.2" d="m39.346 34.352c0.36-0.364 0.654-0.977 0.654-1.361 0-0.38441-0.29409-0.99694-0.65351-1.3611-1.8445-1.8689-4.5478 0.83325-2.7612 2.76 0.76742 0.82771 1.9227 0.81189 2.7612-0.03776z"/>
 <path style="fill:#8b9cbe" d="m39.346 33.352c0.36-0.364 0.654-0.977 0.654-1.361 0-0.38441-0.29409-0.99694-0.65351-1.3611-1.8445-1.8689-4.5478 0.83325-2.7612 2.76 0.76742 0.82771 1.9227 0.81189 2.7612-0.03776z"/>
 <path style="opacity:.2" d="m50.973 29.439c0.18926-0.94471-0.65828-2.2064-1.6044-2.4086-0.90063-0.19241-2.1437 0.57051-2.3378 1.467-0.20942 0.96779 0.66986 2.2834 1.645 2.4778 0.90452 0.18038 2.1167-0.63568 2.2972-1.5363z"/>
 <path style="fill:#8b9cbe" d="m50.973 28.439c0.18926-0.94471-0.65828-2.2064-1.6044-2.4086-0.90063-0.19241-2.1437 0.57051-2.3378 1.467-0.20942 0.96779 0.66986 2.2834 1.645 2.4778 0.90452 0.18038 2.1167-0.63568 2.2972-1.5363z"/>
 <path style="opacity:.1;fill:#8b9cbe" d="m42.988 2.0059c-0.668-0.0328-1.658 0.1719-3.224 0.6015-1.601 0.4392-3.734 1.1914-4.741 1.6699-1.006 0.4786-1.909 0.8692-2.005 0.8692-0.097 0-0.212-0.2587-0.258-0.5742s-0.303-0.614-0.571-0.6641c-0.52-0.0974-3.871 1.5053-4.736 2.2656-0.753 0.6621-3.223 2.0469-3.652 2.0469-0.397 0-1.978 0.8416-2.981 1.5879-0.453 0.3374-0.869 0.4234-1.492 0.3084-0.782-0.1436-1.008-0.025-2.375 1.242-0.831 0.771-1.996 1.699-2.59 2.061-0.736 0.449-1.712 1.557-3.072 3.486-2.3246 3.298-2.5778 3.84-2.5332 5.434 0.0237 0.846-0.0795 1.232-0.3613 1.338-0.3431 0.129-0.4599 0.995-0.3516 1.679 0.0576-0.339 0.1727-0.612 0.3516-0.679 0.2818-0.106 0.385-0.492 0.3613-1.338-0.0446-1.594 0.2086-2.136 2.5332-5.434 1.36-1.929 2.336-3.037 3.072-3.486 0.594-0.362 1.759-1.29 2.59-2.061 1.367-1.267 1.593-1.386 2.375-1.242 0.623 0.115 1.039 0.029 1.492-0.308 1.003-0.747 2.584-1.5902 2.981-1.5902 0.429 0 2.899-1.3829 3.652-2.045 0.865-0.7603 4.216-2.363 4.736-2.2656 0.268 0.0501 0.525 0.3486 0.571 0.6641s0.161 0.5742 0.258 0.5742c0.096 0 0.999-0.3926 2.005-0.8711 1.007-0.4785 3.14-1.2288 4.741-1.668 3.132-0.8592 3.957-0.8195 4.525 0.2207 0.256 0.469 0.534 0.5254 2.639 0.5254 2.423 0 3.679 0.3589 3.984 1.1387 0.084 0.2141 0.921 0.7446 1.859 1.1797 1.392 0.645 1.708 0.9037 1.708 1.3965 0 0.3815 0.295 0.8102 0.798 1.1621 0.235 0.1637 0.397 0.3206 0.518 0.4765 0.395-0.5145 0.211-0.9674-0.518-1.4765-0.503-0.3519-0.798-0.7806-0.798-1.1621 0-0.4928-0.316-0.7496-1.708-1.3946-0.938-0.4351-1.775-0.9675-1.859-1.1816-0.305-0.7798-1.561-1.1387-3.984-1.1387-2.105 0-2.383-0.0544-2.639-0.5234-0.284-0.5201-0.632-0.7915-1.301-0.8242zm10.207 10.445c-0.155 0.091-0.48 0.278-0.545 0.317-0.319 0.191-0.259 0.294 0.327 0.56 0.177 0.081 0.337 0.191 0.462 0.305 0.15-0.266 0.256-0.49 0.256-0.602 0-0.166-0.212-0.4-0.5-0.58zm-3.283 6.393c-0.199 0.445-0.031 1.081 0.481 2.56 0.337 0.976 0.878 2.926 1.203 4.334 0.324 1.409 0.812 3.311 1.084 4.227 0.271 0.915 0.683 2.759 0.914 4.097 0.155 0.898 0.235 1.714 0.265 2.491 0.039-1.058-0.042-2.197-0.265-3.491-0.231-1.338-0.643-3.182-0.914-4.097-0.272-0.916-0.76-2.818-1.084-4.227-0.325-1.408-0.866-3.358-1.203-4.334-0.237-0.682-0.392-1.172-0.481-1.56zm-41.414 8.431c-0.0757 0.276-0.0803 0.673-0.0273 1.225 0.0115-0.075 0.0112-0.172 0.0293-0.236 0.1412-0.501 0.1408-0.781-0.002-0.989zm33.754 24.938l-0.111 0.082 0.154 1.279c0.119 0.987 0.368 1.511 1.096 2.301 1.062 1.154 2.952 4.818 3.205 6.127h0.049v-0.723c0-1.005-2.115-5.165-3.254-6.402-0.728-0.79-0.977-1.316-1.096-2.303l-0.043-0.361zm-11.607 1.488c-0.252 0.302-0.595 0.691-1.038 1.154-1.227 1.285-3.51 5.058-3.972 6.569l0.002 0.002-0.178 0.576h0.338c0.675-1.694 2.68-4.964 3.81-6.147 0.754-0.788 1.37-1.507 1.37-1.597 0-0.135-0.113-0.319-0.332-0.557z"/>
 <path style="opacity:.2" d="m55.793 9.7051c-0.23374 0.30376-0.66753 0.62973-1.3145 1.002-0.78987 0.45443-1.6127 0.93173-1.8281 1.0605-0.3194 0.191-0.2594 0.29417 0.32617 0.56055 0.07743 0.03522 0.14874 0.07923 0.21875 0.12305 0.36535-0.21306 0.72883-0.42519 1.2832-0.74414 1.3926-0.80124 1.794-1.3861 1.3145-2.002zm-2.3535 3.9277c-0.60109 1.0666-2.1622 3.0502-2.8789 3.5508-0.66042 0.46125-0.8562 0.75204-0.64844 1.6602 0.10758-0.24106 0.31751-0.42903 0.64844-0.66016 0.89539-0.62539 3.1348-3.5911 3.1348-4.1523 0-0.11324-0.10233-0.25977-0.25586-0.39844zm-45.395 11.726c-0.10703 0.63179-0.00634 1.5001 0.32227 1.7676 0.055667 0.04525 0.094719 0.09596 0.13086 0.14844 0.0008883-0.0032 0.00105-0.0085 0.00195-0.01172 0.177-0.627 0.1428-0.912-0.1328-1.136-0.1664-0.135-0.2688-0.431-0.3223-0.768zm0.42578 3.1406c-0.10196 0.66538 0.04409 1.7832 0.57422 4.2793l0.78125 3.6797 1.8809 2.4219c2.224 2.864 4.6389 4.9625 9.0879 7.8965 6.5208 4.3001 9.0501 6.0582 9.8496 6.9238 0.1764-0.21219 0.33203-0.40613 0.33203-0.44336 0-0.62427-1.8668-1.9972-10.182-7.4805-4.4489-2.934-6.8639-5.0325-9.0879-7.8965l-1.8808-2.422-0.7813-3.68c-0.3316-1.561-0.5053-2.561-0.5742-3.279zm45.389 8.0527c-0.08802 2.409-0.86816 4.343-2.5039 6.3516-1.5807 1.9409-5.3512 5.511-7.5508 7.1504l-1.6641 1.2402 0.11133 0.91992 1.5527-1.1602c2.1996-1.6394 5.9701-5.2095 7.5508-7.1504 1.8557-2.2786 2.6176-4.4583 2.5039-7.3516zm-28.063 25.449c-0.05829 0.14624-0.12535 0.30181-0.16211 0.42188l0.002 0.002-0.17774 0.57617h21.186v-0.72266c0-0.06782-0.03053-0.18267-0.04883-0.27734z"/>
</svg>
