<svg width="64" height="64" version="1.1" xmlns="http://www.w3.org/2000/svg">
 <path d="m22 5c-1.495948 2.857e-4 -2.763128 1.1025073-2.970703 2.5839844-2.334981 16.666452-4.667119 33.333248-7 50-0.252463 1.804498 1.14863 3.415617 2.970703 3.416016h35c1.822073-3.99e-4 3.223166-1.611518 2.970703-3.416016-2.334387-16.666519-4.666961-33.333292-7-50-0.207575-1.4814771-1.474755-2.5836987-2.970703-2.5839844z" style="opacity:.2"/>
 <path d="m22 4c-1.495948 2.857e-4 -2.763128 1.1025073-2.970703 2.5839844l-3.074219 21.951172v0.001953l7.044922 21.462891 27.833984-8.673828-4.863281-34.742188c-0.207575-1.4814771-1.474755-2.5836987-2.970703-2.5839844h-21z" style="fill:#d8e0e5"/>
 <path d="m15.955078 28.535156-3.925781 28.048828c-0.252463 1.804498 1.14863 3.415617 2.970703 3.416016h35c1.822073-3.99e-4 3.223166-1.611518 2.970703-3.416016l-2.136719-15.257812c-3.762578 0.296214-9.013395 0.673828-12.833984 0.673828-12.142473 0-19.606925-9.719841-22.044922-13.464844z" style="fill:#a6b9c4"/>
 <path d="m36 58c1.498014-0.660112 2.654653-0.535071 4 0l-2.738022-10.37727 0.302017-0.90605-1.307683-5.184624s0.442857-0.04627 0.805376-0.453027c-0.384652-2.086757-1.061688-7.079029-1.061688-7.079029s0.545331 0.400614 0.909626 0.283648c0.885736-0.284387 2.352563-0.750538 2.061374-2.164455-0.643432-3.124291-1.004596-5.445582-1.771425-6.01885-1.363841-1.019583-3.515118-1.934261-3.515118-1.934261s0.424129-1.588801 0.285086-2.416136c-0.187494-1.115643-1.337571-2.651587-2.462801-2.768489-1.228191-0.127595-2.565618 1.409113-2.517742 2.516808 0.06555 1.516572 2.031311 4.177903 2.031311 4.177903l-1.964311 0.459769 0.0012 1.100651-1.0072 0.453026-1.05 8.310386-2.242083 5.985083-1.66109 0.906051-0.05033 2.919497 0.654368-0.05033 0.151008-0.805378h0.553695l0.402689-1.308742s0.772021 0.209642 1.383175-0.16575c0.261881-0.160856 0.384568-1.057059 0.384568-1.057059l0.424-0.03559-0.100022 7.399416-0.399957 1.212802 0.493679 1.757032-0.553696 0.654369-0.391392 4.026894c1.350991-0.538107 2.028493-0.530095 3.951388 0.561705l-0.187797-1.971122-0.553696-0.755042 0.704703-1.812102 0.302016-4.278574 1.76134-6.282902 1.963526 4.068111 1.560416 6.5437-0.05033 1.711431 0.956385 1.711429z" style="opacity:.1"/>
 <path d="m36 57c1.498014-0.660112 2.654653-0.535071 4 0l-2.738022-10.37727 0.302017-0.90605-1.307683-5.184624s0.442857-0.04627 0.805376-0.453027c-0.384652-2.086757-1.061688-7.079029-1.061688-7.079029s0.545331 0.400614 0.909626 0.283648c0.885736-0.284387 2.352563-0.750538 2.061374-2.164455-0.643432-3.124291-1.004596-5.445582-1.771425-6.01885-1.363841-1.019583-3.515118-1.934261-3.515118-1.934261s0.424129-1.588801 0.285086-2.416136c-0.187494-1.115643-1.337571-2.651587-2.462801-2.768489-1.228191-0.127595-2.565618 1.409113-2.517742 2.516808 0.06555 1.516572 2.031311 4.177903 2.031311 4.177903l-1.964311 0.459769 0.0012 1.100651-1.0072 0.453026-1.05 8.310386-2.242083 5.985083-1.66109 0.906051-0.05033 2.919497 0.654368-0.05033 0.151008-0.805378h0.553695l0.402689-1.308742s0.772021 0.209642 1.383175-0.16575c0.261881-0.160856 0.384568-1.057059 0.384568-1.057059l0.423842-0.03559 3.16e-4 7.399416-0.300158 1.212802 0.2937 1.757032-0.553696 0.654369-0.391392 4.026894c1.350991-0.538107 2.028493-0.530095 3.951388 0.561705l-0.187797-1.971122-0.553696-0.755042 0.704703-1.812102 0.302016-4.278574 1.76134-6.282902 1.963526 4.068111 1.560416 6.5437-0.05033 1.711431 0.956385 1.711429z" style="fill:#173545"/>
 <circle cx="34.5" cy="30.5" r="1.5" style="fill:#8b9cbe"/>
 <path d="m22 4c-1.495948 2.857e-4 -2.763128 1.1025073-2.970703 2.5839844-2.334981 16.666452-4.667119 33.333248-7 50-0.041625 0.297521-0.023221 0.584581 0.019531 0.865235 2.326585-16.6218 4.651786-33.243735 6.980469-49.865235 0.207575-1.4814771 1.474755-2.5836987 2.970703-2.5839844h21c1.495948 2.857e-4 2.763128 1.1025073 2.970703 2.5839844 2.326747 16.621756 4.652388 33.243666 6.980469 49.865235 0.042752-0.280654 0.061156-0.567714 0.019531-0.865235-2.334387-16.666519-4.666961-33.333292-7-50-0.207575-1.4814771-1.474755-2.5836987-2.970703-2.5839844h-21z" style="fill:#8b9cbe;opacity:.2"/>
</svg>
