<svg width="64" height="64" version="1.1" xmlns="http://www.w3.org/2000/svg">
 <path d="m31.707327 4.0014094-0.02344 0.01562c-15.363426 0.1703955-27.683327 12.578894-27.683327 27.98332 0 15.511623 12.487697 27.99932 27.99932 27.99932 15.276829 0 27.593329-12.119506 27.96332-27.303337 0 0 0.0242-0.478448 0.03516-0.695303v-21.999465c0-3.3239196-2.675935-5.9998546-5.999855-5.9998546h-21.999465z" style="fill:#57b339"/>
 <path d="m 31.707031,4.0019531 -0.02344,0.015625 C 16.320168,4.1879736 4,16.595574 4,32 4,32.112878 4.011179,32.222773 4.017578,32.333984 4.3677172,17.240427 16.542914,5.1855031 31.683594,5.0175781 L 31.707031,5.0019531 31.708984,5 H 54 c 3.32392,0 6,2.6760804 6,6 V 10 C 60,6.6760804 57.32392,4.0019531 54,4.0019531 H 31.708984 Z" style="fill:#8b9cbe;opacity:.2"/>
 <path d="m59.99864 31.000729-0.036 0.695983c-0.369991 15.183631-12.685691 27.303337-27.96332 27.303337-15.177831 0-27.427334-11.96571-27.949321-27.011344-0.0112 0.337992-0.049999 0.669984-0.049999 1.011975 2e-7 15.511623 12.487697 27.99932 27.99932 27.99932 15.277629 0 27.593329-12.119705 27.96332-27.303337l0.036-0.695983z" style="opacity:.2"/>
 <path d="m31.998047 13.002a20 20 0 0 0-8.998047 2.142578v8.480469a13 13 0 0 1 9-3.625v4a9 9 0 0 0-8.472656 6h-4.527344v-12.167969a20 20 0 0 0-7.001953 15.169922 20 20 0 0 0 2.144531 8.998047h8.482422a13 13 0 0 1-3.625-9h4a9 9 0 0 0 6 8.472656v4.527344h-12.169922a20 20 0 0 0 15.167969 7.001953 20 20 0 0 0 9.001953-2.146484v-8.480469a13 13 0 0 1-9 3.625v-4a9 9 0 0 0 8.472656-6h4.527344v12.167969a20 20 0 0 0 6.998047-15.166016 20 20 0 0 0-2.144531-9.001953h-8.478516a13 13 0 0 1 3.625 9h-4a9 9 0 0 0-6-8.472656v-4.527344h12.166016a20 20 0 0 0-15.167969-6.998047zm2e-3 13.998047a6 6 0 0 1 6 6 6 6 0 0 1-6 6 6 6 0 0 1-6-6 6 6 0 0 1 6-6z" style="opacity:.2"/>
 <path d="m31.998047 12.001953a20 20 0 0 0-8.998047 2.142578v8.480469a13 13 0 0 1 9-3.625v4a9 9 0 0 0-8.472656 6h-4.527344v-12.167969a20 20 0 0 0-7.001953 15.169922 20 20 0 0 0 2.144531 8.998047h8.482422a13 13 0 0 1-3.625-9h4a9 9 0 0 0 6 8.472656v4.527344h-12.169922a20 20 0 0 0 15.167969 7.001953 20 20 0 0 0 9.001953-2.146484v-8.480469a13 13 0 0 1-9 3.625v-4a9 9 0 0 0 8.472656-6h4.527344v12.167969a20 20 0 0 0 6.998047-15.166016 20 20 0 0 0-2.144531-9.001953h-8.478516a13 13 0 0 1 3.625 9h-4a9 9 0 0 0-6-8.472656v-4.527344h12.166016a20 20 0 0 0-15.167969-6.998047zm0.001953 13.998047a6 6 0 0 1 6 6 6 6 0 0 1-6 6 6 6 0 0 1-6-6 6 6 0 0 1 6-6z" style="fill:#8b9cbe"/>
</svg>
