<svg width="64" height="64" version="1.1" xmlns="http://www.w3.org/2000/svg">
 <circle cx="32" cy="33" r="28" style="opacity:.2"/>
 <circle cx="32" cy="32" r="28" style="fill:#c4b346"/>
 <path d="M 32 4 A 28 28 0 0 0 4 32 A 28 28 0 0 0 4.0214844 32.585938 A 28 28 0 0 1 32 5 A 28 28 0 0 1 59.978516 32.414062 A 28 28 0 0 0 60 32 A 28 28 0 0 0 32 4 z" style="fill:#8b9cbe;opacity:.1"/>
 <path d="m18 10.5v5.699219l-2.371094 2.677734c-3.511088 2.0861-5.9569503 3.897092-8.628906 6.123047l5 2-9 6 11 1-10 12 11-3v3l6-2-1 4 9.199219-3.800781 2.800781-0.199219 2.800781 0.199219 9.199219 3.800781-1-4 6 2v-3l11 3-10-12 11-1-9-6 5-2c-2.671956-2.225955-5.117818-4.036947-8.628906-6.123047l-2.371094-2.677734v-5.699219l-6 2.900391v-1.400391l-2 1.400391v-1.400391l-6 1.5-6-1.5v1.400391l-2-1.400391v1.400391z" style="opacity:.2"/>
 <path d="m18 9.5v5.699219l-2.371094 2.677734c-3.511088 2.0861-5.9569503 3.897092-8.628906 6.123047l5 2-9 6 11 1-10 12 11-3v3l6-2-1 4 9.199219-3.800781 2.800781-0.199219 2.800781 0.199219 9.199219 3.800781-1-4 6 2v-3l11 3-10-12 11-1-9-6 5-2c-2.671956-2.225955-5.117818-4.036947-8.628906-6.123047l-2.371094-2.677734v-5.699219l-6 2.900391v-1.400391l-2 1.400391v-1.400391l-6 1.5-6-1.5v1.400391l-2-1.400391v1.400391l-6-2.900391z" style="fill:#393939"/>
 <path d="m12 9-0.993028 2.584693c-0.09713 3.32262 0.834122 6.274208 1.952459 9.160694 1.944531 4.809984 7.098994 6.596345 10.269495 9.554467 2.011511 1.922168 2.553367 3.617073 2.841182 5.310467 0.333397 1.961577 0.534558 4.088168 0.743794 7.361371 0.699676 4.259526 1.080942 11.199951 1.605172 13.514073 0.48025 0.537005 3.580927 0.514093 3.580927 0.514093s3.100675 0.02292 3.580925-0.514093c0.524229-2.314122 0.905496-9.254547 1.605172-13.514073 0.209238-3.273203 0.410397-5.399794 0.743794-7.361371 0.287812-1.693394 0.829671-3.388299 2.841182-5.310467 3.1705-2.958122 8.324967-4.744483 10.269498-9.554467 1.118336-2.886486 2.049582-5.838074 1.952458-9.160694l-0.99303-2.584693v2.579223l-9.491179 6.495977-10.50882-0.1504-10.508819 0.1504-9.491182-6.495977z" style="opacity:.2"/>
 <path d="m12 8-0.993028 2.584693c-0.09713 3.32262 0.834122 6.274208 1.952459 9.160694 1.944531 4.809984 7.098994 6.596345 10.269495 9.554467 2.011511 1.922168 2.553367 3.617073 2.841182 5.310467 0.333397 1.961577 0.534558 4.088168 0.743794 7.361371 0.699676 4.259526 1.080942 11.199951 1.605172 13.514073 0.48025 0.537005 3.580927 0.514093 3.580927 0.514093s3.100675 0.02292 3.580925-0.514093c0.524229-2.314122 0.905496-9.254547 1.605172-13.514073 0.209238-3.273203 0.410397-5.399794 0.743794-7.361371 0.287812-1.693394 0.829671-3.388299 2.841182-5.310467 3.1705-2.958122 8.324967-4.744483 10.269498-9.554467 1.118336-2.886486 2.049582-5.838074 1.952458-9.160694l-0.99303-2.584693v2.579223l-9.491179 6.495977-10.50882-0.1504-10.508819 0.1504-9.491182-6.495977z" style="fill:#505050"/>
 <path d="M 21.357216,20.807274 A 4.447823,4.447823 0 0 0 21,22.552177 4.447823,4.447823 0 0 0 25.447823,27 4.447823,4.447823 0 0 0 29,25.219827 Z" style="opacity:.2"/>
 <path d="M 21.357216,19.807274 A 4.447823,4.447823 0 0 0 21,21.552177 4.447823,4.447823 0 0 0 25.447823,26 4.447823,4.447823 0 0 0 29,24.219827 Z" style="fill:#eb9f00"/>
 <path d="m36 36c-1.388608 0.591582-2.573548 1.531823-4 1.413847v0.03038c-1.426452 0.117972-2.611392-0.822265-4-1.413847l1.367188 15.42253c0.104173 1.15378 0.127586 1.30795 1.036458 1.413847 0.593924 0.105812 1.049902 0.145976 1.596354 0.129787v-0.03037c0.546452 0.01619 1.00243-0.02398 1.596354-0.129791 0.908876-0.105898 0.932286-0.257306 1.036458-1.411086z" style="opacity:.4"/>
 <path d="m30 48c-0.57879 0.505752-0.41778 1.482441-0.83073 2.221678l0.197918 2.231227c0.104173 1.15378 0.127586 1.30795 1.036458 1.413847 0.192606 0.03432 0.357264 0.05097 0.528646 0.07179h1.908854c0.238635-0.02176 0.480074-0.05316 0.755208-0.102179 0.908876-0.105897 0.932286-0.257306 1.036458-1.411086l0.195314-2.206373c-0.412625-0.737935-0.250175-1.713885-0.828126-2.218904v3h-4z" style="opacity:.2"/>
 <path d="m30 47c-0.57879 0.505752-0.41778 1.482441-0.83073 2.221678l0.197918 2.231227c0.104173 1.15378 0.127586 1.30795 1.036458 1.413847 0.192606 0.03432 0.357264 0.05097 0.528646 0.07179h1.908854c0.238635-0.02176 0.480074-0.05316 0.755208-0.102179 0.908876-0.105897 0.932286-0.257306 1.036458-1.411086l0.195314-2.206373c-0.412625-0.737935-0.250175-1.713885-0.828126-2.218904v3h-4z" style="fill:#8b9cbe"/>
 <path d="m36 37c-1.388608 0.591582-2.566714 1.004784-4 0.98481-1.433286-0.01997-2.899728-0.484888-3.994792-0.951669 0.154682 1.986921 0.500888 4.661472 1.994792 5.966861v-3.000002h4v2.999997c1.502077-1.31253 1.853954-4.00635 2-5.999997z" style="opacity:.2"/>
 <path d="m36 36c-1.388608 0.591582-2.566714 1.004784-4 0.98481-1.433286-0.01997-2.899728-0.484888-3.994792-0.951669 0.154682 1.986921 0.500888 4.661472 1.994792 5.966861v-3.000002h4v2.999997c1.502077-1.31253 1.853954-4.00635 2-5.999997z" style="fill:#8b9cbe"/>
 <path d="M 42.642784,20.807274 A 4.447823,4.447823 0 0 1 43,22.552177 4.447823,4.447823 0 0 1 38.552177,27 4.447823,4.447823 0 0 1 35,25.219827 Z" style="opacity:.2"/>
 <path d="M 42.642784,19.807274 A 4.447823,4.447823 0 0 1 43,21.552177 4.447823,4.447823 0 0 1 38.552177,26 4.447823,4.447823 0 0 1 35,24.219827 Z" style="fill:#eb9f00"/>
 <path d="m12 8-0.992188 2.583984c-0.009674 0.330944-0.002086 0.656585 0.007813 0.980469l0.984375-2.564453v-1zm40 0v1l0.984375 2.564453c0.009899-0.323884 0.017486-0.649525 0.007813-0.980469l-0.992188-2.583984zm-40 2.580078v1l9.490234 6.496094 10.509766-0.152344 10.509766 0.152344 9.490234-6.496094v-1l-9.490234 6.496094-10.509766-0.152344-10.509766 0.152344-9.490234-6.496094z" style="fill:#8b9cbe;opacity:.1"/>
 <path d="m21.357422 19.806641a4.447823 4.447823 0 0 0-0.357422 1.746093 4.447823 4.447823 0 0 0 0.029297 0.5 4.447823 4.447823 0 0 1 0.328125-1.246093l7.039062 4.064453a4.447823 4.447823 0 0 0 0.603516-0.650391l-7.642578-4.414062z" style="fill:#8b9cbe;opacity:.1"/>
 <path d="m42.642578 19.806641-7.642578 4.414062a4.447823 4.447823 0 0 0 0.603516 0.650391l7.039062-4.064453a4.447823 4.447823 0 0 1 0.328125 1.246093 4.447823 4.447823 0 0 0 0.029297-0.5 4.447823 4.447823 0 0 0-0.357422-1.746093z" style="fill:#8b9cbe;opacity:.1"/>
</svg>
