<svg xmlns="http://www.w3.org/2000/svg" width="64" height="64" version="1.1">
 <rect style="opacity:0.2" width="57" height="57" x="-61" y="-61" rx="2.85" ry="2.85" transform="matrix(0,-1,-1,0,0,0)"/>
 <rect style="fill:#fa7645" width="57" height="57" x="-60" y="-61" rx="2.85" ry="2.85" transform="matrix(0,-1,-1,0,0,0)"/>
 <path style="opacity:0.1;fill-rule:evenodd" d="M 19.4375,16 16,40 25.898927,52 39.101073,52 49,40 45.5625,16 l -6.875,0 -12.375,0 z m 5.905518,3 14.313964,0 7.280518,21 -8.421875,9.230769 -1.515625,0 L 37,45 l -9,0 0,4.230769 -1.515625,0 L 18.0625,40 Z M 25.625,20 27,24 l 2.75,0 1.375,8 2.75,0 1.375,-8 2.75,0 1.375001,-4 z M 21.5,33 27.158447,40.923077 28,37 Z m 22,0 -6.5,4 0.841553,3.923077 z"/>
 <path style="fill:#17191e;fill-rule:evenodd" d="M 19.4375,15 16,39 25.898927,51 39.101073,51 49,39 45.5625,15 l -6.875,0 -12.375,0 z m 5.905518,3 14.313964,0 7.280518,21 -8.421875,9.230769 -1.515625,0 L 37,44 l -9,0 0,4.230769 -1.515625,0 L 18.0625,39 Z M 25.625,19 27,23 l 2.75,0 1.375,8 2.75,0 1.375,-8 2.75,0 1.375001,-4 z M 21.5,32 27.158447,39.923077 28,36 Z m 22,0 -6.5,4 0.841553,3.923077 z"/>
 <path style="fill:#8b9cbe;opacity:0.2" d="M 6.8496094 3 C 5.2707094 3 4 4.2707094 4 5.8496094 L 4 6.8496094 C 4 5.2707094 5.2707094 4 6.8496094 4 L 58.150391 4 C 59.729291 4 61 5.2707094 61 6.8496094 L 61 5.8496094 C 61 4.2707094 59.729291 3 58.150391 3 L 6.8496094 3 z"/>
</svg>
