<svg xmlns="http://www.w3.org/2000/svg" width="64" height="64" version="1">
 <path style="opacity:0.2" d="m 4,56 0,2 c 0,1.662 1.338,3 3,3 l 50,0 c 1.662,0 3,-1.338 3,-3 l 0,-2 c 0,1.662 -1.338,3 -3,3 L 7,59 C 5.338,59 4,57.662 4,56 Z"/>
 <rect style="fill:#4f4f4f" width="56" height="56" x="4" y="4" rx="3" ry="3"/>
 <path style="opacity:0.2" d="m 14.0414,18.9998 0.09917,0.82354 c 0.182154,1.54212 0.37314,2.0394 0.89248,2.3066 0.26744,0.13852 0.53422,0.4345 0.59168,0.65948 0.112104,0.44104 0.39666,0.55714 0.39666,0.16088 0,-0.1344 -0.29768,-0.81896 -0.6611,-1.52164 -0.3636,-0.704 -0.662,-1.352 -0.6646,-1.442 -0.0022,-0.09 -0.1486,-0.35 -0.3272,-0.576 z m 35.918,0 -0.32724,0.41178 c -0.17858,0.22624 -0.32504,0.48532 -0.32724,0.57584 -0.0026,0.0905 -0.301,0.73854 -0.6644,1.4412 -0.3634,0.70266 -0.6611,1.38724 -0.6611,1.52164 0,0.3963 0.28454,0.2802 0.39666,-0.16088 0.05746,-0.22498 0.32424,-0.52096 0.59168,-0.65948 0.51932,-0.26716 0.71034,-0.76452 0.89248,-2.3066 z m -37.604,0.9082 c -0.09914,0 -0.119986,0.11954 -0.04958,0.28632 0.28042,0.66412 0.2867,1.02944 0.01654,1.02944 -0.146966,0 -0.26774,0.05512 -0.26774,0.12546 0,0.259 0.54252,0.88738 0.88586,1.02622 0.40884,0.16424 0.76686,0.20278 0.76686,0.08042 0,-0.04648 -0.07315,-0.21602 -0.161966,-0.37318 -0.08881,-0.15714 -0.23846,-0.59738 -0.33386,-0.97794 -0.17386,-0.6936 -0.53578,-1.19672 -0.85612,-1.19672 z m 39.288,0 c -0.32034,0 -0.68224,0.50312 -0.85612,1.19672 -0.0954,0.38058 -0.24504,0.8208 -0.33384,0.97796 -0.0888,0.15718 -0.16196,0.32668 -0.16196,0.37316 0,0.12234 0.36132,0.0838 0.77016,-0.08042 0.34332,-0.13884 0.88256,-0.7672 0.88256,-1.02622 0,-0.07034 -0.12078,-0.12546 -0.26774,-0.12546 -0.27024,0 -0.26396,-0.3653 0.0166,-1.02944 0.0704,-0.1668 0.04954,-0.28632 -0.04958,-0.28632 z m -19.6972,0.40856 c 0.05554,0.14416 0.0044,0.2477 -0.12562,0.2477 -0.5462,0 -0.7598,1.97744 -0.34708,3.2074 0.11048,0.3291 0.10778,0.3291 -0.09256,0 -0.33216,-0.54572 -0.8588,-1.07126 -1.07758,-1.07126 -0.11328,0 -0.25736,0.2239 -0.31732,0.49542 -0.05988,0.2715 -0.17874,0.49542 -0.26774,0.49542 -0.08904,0 -0.11862,-0.07428 -0.0628,-0.16408 0.05574,-0.08978 0.03522,-0.28656 -0.04958,-0.43752 -0.13858,-0.24648 -0.17398,-0.23868 -0.34376,0.07722 -0.14746,0.27428 -0.13684,0.48116 0.0595,0.949 0.31722,0.7553 0.31564,0.88788 -0.01,0.88788 -0.34498,0 -0.20476,0.3983 0.16528,0.46968 0.32596,0.06294 0.92222,-0.41006 0.92222,-0.73026 0,-0.11638 0.083,-0.26088 0.1818,-0.3217 0.25808,-0.15878 0.54526,0.1826 0.37682,0.44716 -0.07702,0.121 -0.14098,0.2684 -0.14214,0.32814 -0.0014,0.05968 -0.21108,0.2732 -0.46606,0.4729 -0.59038,0.46228 -0.5723,1.19882 0.02974,1.28358 0.2271,0.03194 0.34646,-0.0112 0.28758,-0.10616 -0.0587,-0.09448 0.0646,-0.09018 0.29088,0.0162 0.21408,0.10058 0.46562,0.39104 0.56192,0.6434 0.16902,-0.0074 0.32772,-0.0278 0.4793,-0.06112 0.15158,0.03332 0.31026,0.05378 0.4793,0.06112 0.09634,-0.25236 0.35114,-0.5428 0.56524,-0.6434 0.22628,-0.1063 0.34626,-0.11054 0.28758,-0.0162 -0.05888,0.09492 0.06378,0.1381 0.29088,0.10616 0.60204,-0.08478 0.61682,-0.8213 0.02644,-1.28358 -0.255,-0.1997 -0.46466,-0.4132 -0.46606,-0.4729 -0.0012,-0.05972 -0.0651,-0.20714 -0.14212,-0.32814 -0.16844,-0.26458 0.11876,-0.60596 0.37682,-0.44716 0.09878,0.06082 0.18178,0.2053 0.18178,0.3217 0,0.3202 0.59628,0.79318 0.92222,0.73026 0.37002,-0.07138 0.51028,-0.46968 0.16528,-0.46968 -0.32544,0 -0.32706,-0.13258 -0.01,-0.88788 0.19632,-0.46784 0.21028,-0.6747 0.0628,-0.949 -0.1698,-0.3159 -0.2052,-0.32368 -0.34376,-0.07722 -0.08484,0.15094 -0.10864,0.34772 -0.05288,0.43752 0.0558,0.08976 0.02622,0.16408 -0.0628,0.16408 -0.08902,0 -0.20786,-0.2239 -0.26774,-0.49542 -0.05996,-0.2715 -0.20402,-0.49542 -0.31732,-0.49542 -0.21876,0 -0.74542,0.52552 -1.07758,1.07126 -0.20034,0.3291 -0.20306,0.3291 -0.09256,0 0.41274,-1.2299 0.19914,-3.2074 -0.34708,-3.2074 -0.13,0 -0.18118,-0.10354 -0.1256,-0.2477 -0.0184,0.02024 -0.03472,0.04072 -0.05288,0.06112 -0.0182,-0.02024 -0.03444,-0.0408 -0.05288,-0.06112 z m -21.762,0.46 c -0.31022,0.10756 -0.20404,2.1716 0.13883,2.6926 0.25578,0.3887 0.25562,0.4227 0.01654,0.33136 -0.33012,-0.1261 -0.3393,0.09836 -0.03306,0.682 0.35294,0.6725 1.06086,1.25872 2.2048,1.82724 0.56814,0.28238 1.0313,0.53718 1.0313,0.5694 0,0.17814 -1.57496,-0.2724 -1.9337,-0.55332 -0.65736,-0.51568 -0.95586,-0.43186 -0.52556,0.14798 0.196742,0.26484 0.31562,0.59404 0.26444,0.72704 -0.10398,0.2695 0.34022,0.72492 1.2065,1.24176 0.7221,0.43168 0.87676,0.43696 0.74372,0.0192 -0.138032,-0.43284 -0.05832,-0.41628 0.4198,0.09006 0.32866,0.34836 0.34144,0.40134 0.08264,0.3024 -0.2335,-0.08922 -0.27564,-0.06534 -0.175188,0.0965 0.132836,0.21394 -0.151688,0.1876 -1.13046,-0.10296 -0.25658,-0.07618 -0.28642,-0.02862 -0.185106,0.29596 0.26898,0.86218 0.71176,1.24348 1.79816,1.5538 0.58626,0.16684 1.02746,0.36402 0.98172,0.4375 -0.101204,0.16336 -1.21692,-0.02132 -1.50398,-0.2477 -0.29864,-0.23566 -0.2713,0.36996 0.03636,0.80746 0.27514,0.39084 1.38888,0.95836 2.7304,1.38652 l 0.9088,0.29 -0.8264,-0.078 c -0.4546,-0.042 -1.0224,-0.104 -1.2628,-0.14 -0.3672,-0.056 -0.42506,-0.0176 -0.35368,0.25414 0.1239,0.47192 0.9659,1.11888 1.58,1.2128 0.29274,0.0448 0.90404,0.14322 1.35854,0.22198 l 0.82636,0.14476 -0.74042,0.2091 c -0.40728,0.11562 -1.02658,0.1721 -1.37508,0.12546 -0.6183,-0.08258 -0.6272,-0.07718 -0.39666,0.27022 0.3343,0.50384 1.13356,0.93686 2.0526,1.10664 l 0.79,0.14476 -0.95198,-0.06434 c -0.52268,-0.03552 -0.94866,-0.0072 -0.94866,0.06434 0,0.07162 0.196678,0.3276 0.43632,0.5662 0.4641,0.46184 0.64856,0.49624 2.456,0.4536 l 1.15692,-0.02894 -0.99164,0.43108 c -1.20416,0.52276 -1.40518,0.6907 -1.07428,0.89432 0.20202,0.12432 0.13932,0.26164 -0.35368,0.7753 -0.32928,0.34312 -0.87906,0.99192 -1.21972,1.44444 -1.54446,2.0518 -2.3574,2.7152 -3.3386,2.7152 -0.85196,0 -0.93576,0.27072 -0.128914,0.42142 0.80802,0.1509 1.90918,-0.04008 2.7998,-0.48898 1.0814,-0.54508 1.01336,-0.26406 -0.155358,0.64984 -0.3216,0.25144 -0.3194,0.25626 0.08264,0.15442 0.22726,-0.05756 0.7681,-0.31894 1.19988,-0.57906 0.827,-0.49824 0.95686,-0.5197 0.51566,-0.08042 -0.37334,0.37172 -0.15476,0.51308 0.39004,0.25092 0.25036,-0.12048 0.58488,-0.20376 0.74042,-0.18334 0.15554,0.02024 0.63102,-0.28264 1.05774,-0.67236 0.43668,-0.39884 0.69736,-0.55636 0.59498,-0.36352 -0.10008,0.18844 -0.3016,0.43652 -0.44292,0.55332 -0.14138,0.11676 -0.25452,0.2777 -0.25452,0.35708 0,0.32214 0.39486,0.1039 1.23294,-0.68522 0.5199,-0.48956 0.9282,-0.76172 0.99164,-0.65948 0.05938,0.09562 0.02002,0.17372 -0.08594,0.17372 -0.1058,0 -0.1482,0.11196 -0.09586,0.2477 0.05794,0.15034 -9.02e-4,0.24448 -0.14874,0.24448 -0.13348,0 -0.2413,0.07176 -0.2413,0.15762 0,0.33022 1.01202,-0.20878 1.24946,-0.66592 0.32112,-0.61812 0.42078,-0.6048 0.29088,0.0418 -0.07454,0.37116 -0.05064,0.48618 0.08594,0.40212 0.10504,-0.06464 0.1917,-0.22916 0.1917,-0.36352 0,-0.13996 0.1216,-0.2239 0.28426,-0.19624 0.19362,0.033 0.42944,-0.21418 0.74042,-0.7753 0.36022,-0.65004 0.45656,-0.73876 0.45946,-0.43108 0.003,0.3068 0.0717,0.37294 0.33054,0.30562 0.26744,-0.06962 0.227,0.03824 -0.23138,0.59514 -0.59664,0.7245 -0.92718,1.5892 -0.6082,1.5892 0.10074,0 0.1818,-0.06628 0.1818,-0.14796 0,-0.08164 0.24336,-0.23118 0.53878,-0.33134 l 0.53548,-0.17998 -0.5421,0.42786 c -0.7404,0.58532 -1.52056,1.97992 -1.5106,2.699 l 0,0.0032 c 0.0072,0.51246 0.02974,0.5394 0.20492,0.26058 0.54666,-0.87012 1.24902,-1.45714 2.4394,-2.046 l 1.30896,-0.64984 0,0.47612 c 0,0.26226 0.07434,0.47612 0.16528,0.47612 0.09088,0 0.16528,-0.14996 0.16528,-0.33456 0,-0.1846 0.14804,-0.62178 0.32724,-0.97152 0.40058,-0.78182 2.625,-2.5402 3.2558,-2.6282 0.60448,0.04632 2.8502,1.8368 3.2558,2.6282 0.17922,0.34972 0.32724,0.7869 0.32724,0.97152 0,0.1846 0.0744,0.33778 0.16528,0.33778 0.09096,0 0.16528,-0.21706 0.16528,-0.47934 l 0,-0.47612 1.30896,0.64984 c 1.19036,0.58888 1.89278,1.17592 2.4394,2.046 0.17518,0.27882 0.19764,0.2519 0.20492,-0.26058 l 0,-0.0032 c 0.01,-0.71904 -0.7702,-2.1104 -1.5106,-2.6958 l -0.5421,-0.43108 0.53548,0.18016 c 0.29542,0.1002 0.5388,0.2497 0.5388,0.33134 0,0.08168 0.0811,0.14796 0.1818,0.14796 0.31898,0 -0.0114,-0.86468 -0.6082,-1.5892 -0.45838,-0.55696 -0.49882,-0.66476 -0.23138,-0.59514 0.25884,0.06734 0.32756,0.0012 0.33054,-0.30562 0.003,-0.3077 0.09922,-0.21576 0.45946,0.4343 0.31098,0.56114 0.54682,0.80504 0.74042,0.77208 0.16266,-0.02764 0.28426,0.05626 0.28426,0.19624 0,0.13438 0.08666,0.29886 0.19172,0.36352 0.1366,0.08404 0.16046,-0.03098 0.08594,-0.40212 -0.12988,-0.64662 -0.03026,-0.65992 0.29088,-0.0418 0.23744,0.45714 1.24946,0.99614 1.24946,0.66592 0,-0.08582 -0.10782,-0.15762 -0.2413,-0.15762 -0.14784,0 -0.20668,-0.09414 -0.14874,-0.24448 0.05234,-0.13574 0.01,-0.2477 -0.09586,-0.2477 -0.10598,0 -0.14534,-0.07812 -0.08594,-0.17372 0.06344,-0.10226 0.47174,0.16994 0.99164,0.65948 0.83808,0.78914 1.23294,1.01058 1.23294,0.68844 0,-0.0794 -0.11314,-0.24354 -0.25452,-0.3603 -0.1413,-0.1168 -0.34282,-0.36488 -0.44294,-0.55332 -0.10236,-0.19284 0.1583,-0.0321 0.59498,0.36674 0.42672,0.38974 0.90222,0.6895 1.05774,0.66914 0.15556,-0.02024 0.49006,0.0629 0.74042,0.18336 0.5448,0.26216 0.76338,0.12082 0.39004,-0.25092 -0.4412,-0.43928 -0.31136,-0.41782 0.51566,0.08042 0.43178,0.26012 0.97262,0.5215 1.19988,0.57906 0.40204,0.10186 0.40422,0.09704 0.08264,-0.15442 -1.16872,-0.91388 -1.23674,-1.19492 -0.15536,-0.64984 0.8906,0.4489 1.99178,0.63988 2.7998,0.48898 0.80684,-0.15072 0.72306,-0.42142 -0.12892,-0.42142 -0.98104,2e-6 -1.79404,-0.66012 -3.3386,-2.712 -0.34064,-0.4525 -0.89044,-1.10454 -1.21972,-1.44764 -0.493,-0.51364 -0.5557,-0.65098 -0.35368,-0.7753 0.3309,-0.20362 0.12986,-0.37156 -1.07428,-0.89432 l -0.99164,-0.43108 1.15692,0.02894 c 1.80732,0.04262 1.99174,0.0082 2.456,-0.4536 0.23964,-0.2386 0.43632,-0.49458 0.43632,-0.5662 0,-0.07156 -0.426,-0.09988 -0.94866,-0.06434 l -0.95198,0.06434 0.79,-0.14476 c 0.9191,-0.16978 1.71844,-0.6028 2.0526,-1.10664 0.23056,-0.3474 0.22164,-0.3528 -0.39666,-0.27022 -0.34848,0.04658 -0.9678,-0.01 -1.37508,-0.12546 l -0.74042,-0.2091 0.82636,-0.14476 c 0.45452,-0.07878 1.0658,-0.17718 1.35854,-0.22198 0.61412,-0.09392 1.45612,-0.74088 1.58,-1.2128 0.07142,-0.27176 0.0136,-0.31014 -0.35368,-0.25414 -0.24038,0.03662 -0.80814,0.0995 -1.26268,0.14154 l -0.82636,0.07722 0.909,-0.28952 c 1.34136,-0.42816 2.4552,-0.99568 2.7304,-1.38652 0.30766,-0.4375 0.33498,-1.04312 0.03634,-0.80746 -0.28704,0.22632 -1.40278,0.41104 -1.50398,0.2477 -0.04574,-0.07348 0.39546,-0.27068 0.98172,-0.4375 1.0865,-0.31032 1.5291,-0.68842 1.79818,-1.55058 0.10134,-0.3246 0.07148,-0.37536 -0.18512,-0.29918 -0.97878,0.29056 -1.26328,0.3169 -1.13046,0.10296 0.10046,-0.16182 0.05832,-0.18574 -0.17518,-0.0965 -0.2588,0.09894 -0.24604,0.04596 0.08264,-0.3024 0.47812,-0.50638 0.55782,-0.52292 0.4198,-0.09008 -0.13304,0.41768 0.02156,0.41236 0.74372,-0.0192 0.86626,-0.51684 1.31048,-0.97226 1.2065,-1.24176 -0.05118,-0.133 0.0677,-0.4622 0.26444,-0.72704 0.4303,-0.57984 0.13178,-0.66364 -0.52556,-0.14798 -0.35868,0.28092 -1.9337,0.73148 -1.9337,0.55332 0,-0.03224 0.46316,-0.28704 1.0313,-0.5694 1.14394,-0.56856 1.85188,-1.15476 2.2048,-1.82724 0.30626,-0.58364 0.29708,-0.8049 -0.03304,-0.67878 -0.23906,0.09134 -0.23926,0.05412 0.0166,-0.33456 0.34286,-0.52096 0.44904,-2.585 0.13882,-2.6926 -0.10596,-0.03668 -0.23696,0.08108 -0.29418,0.26058 -0.0572,0.17948 -0.41766,0.63618 -0.79992,1.01656 -0.38228,0.38038 -0.5733,0.64926 -0.4231,0.59836 0.44584,-0.15106 0.50202,0.08276 0.1157,0.4922 -0.4145,0.43928 -0.76828,0.49166 -0.9057,0.1351 -0.12258,-0.31806 -0.21646,-0.31106 -1.58,0.09328 l -1.14038,0.33456 -0.52226,1.08412 c -0.43806,0.91304 -0.69806,1.21584 -1.68248,1.94306 -0.64176,0.47402 -1.30768,1.01736 -1.47754,1.20636 -0.40108,0.44636 -0.24706,1.0949 0.33054,1.39618 0.42008,0.21914 0.3948,0.23316 -1.0974,0.76886 -2.1322,0.7655 -2.8928,0.69984 -2.77,-0.24128 0.04222,-0.32296 0.39302,-0.54798 1.40812,-0.91684 0.669,-0.2431 0.69624,-0.48576 0.05288,-0.48576 -0.7938,0 -0.73214,-0.28156 0.15866,-0.72704 1.78514,-0.89274 3.9524,-2.7652 4.3798,-3.7832 0.20248,-0.48248 0.15802,-1.4235 -0.06612,-1.40904 -0.0576,0.0036 -0.27876,0.37962 -0.49252,0.8332 -0.60504,1.28382 -2.8888,2.8894 -4.9814,3.5 -1.25278,0.36558 -2.542,1.13722 -3.094,1.8562 -0.87836,1.14452 -1.45286,1.67202 -1.94692,1.7822 l -0.49582,0.1126 0.56524,-0.38282 c 0.75248,-0.50916 0.86436,-0.84474 0.23468,-0.7013 l -0.46938,0.10616 0.41318,-0.28954 c 0.64058,-0.44932 1.31888,-1.108 1.31888,-1.27714 0,-0.08412 -0.14658,-0.11462 -0.32724,-0.06758 -0.26742,0.06964 -0.2237,-0.04148 0.23468,-0.59836 0.59626,-0.72444 0.92718,-1.58598 0.6082,-1.58598 -0.10076,0 -0.1851,0.06628 -0.1851,0.14796 0,0.08166 -0.24006,0.2312 -0.53548,0.33136 l -0.53878,0.18014 0.5454,-0.43108 c 0.74036,-0.58536 1.52078,-1.97688 1.5106,-2.6958 -0.007,-0.51248 -0.02974,-0.54264 -0.20492,-0.2638 -0.54666,0.8701 -1.24902,1.4572 -2.4394,2.046 l -1.30906,0.64984 0,-0.47612 c 0,-0.26224 -0.0744,-0.47612 -0.16528,-0.47612 -0.09094,0 -0.16528,0.14994 -0.16528,0.33456 0,0.67904 -0.684,1.65304 -1.74528,2.4836 -1.22858,0.96124 -1.49458,1.37558 -1.66596,2.625 l -0.17186,0.24448 -0.17188,-0.24448 c -0.17094,-1.2485 -0.43396,-1.66316 -1.66264,-2.625 -1.06114,-0.83014 -1.7486,-1.8017 -1.7486,-2.4802 0,-0.1846 -0.07434,-0.33778 -0.16528,-0.33778 -0.0909,0 -0.16528,0.2171 -0.16528,0.47934 l 0,0.4761 -1.30896,-0.64982 c -1.19036,-0.58882 -1.89278,-1.17914 -2.4394,-2.0492 -0.17516,-0.27884 -0.19798,-0.24868 -0.20492,0.2638 -0.0104,0.71902 0.77024,2.1136 1.5106,2.699 l 0.5454,0.43108 -0.5388,-0.18334 c -0.29542,-0.10016 -0.53548,-0.24966 -0.53548,-0.33136 0,-0.08168 -0.08434,-0.14798 -0.1851,-0.14798 -0.31898,0 0.0122,0.86152 0.6082,1.58598 0.45838,0.55688 0.5021,0.66802 0.23468,0.59836 -0.18066,-0.0471 -0.32724,-0.0134 -0.32724,0.07078 0,0.16912 0.6783,0.82462 1.31888,1.27392 l 0.41318,0.28952 -0.46938,-0.10616 c -0.62968,-0.14342 -0.5178,0.19214 0.23468,0.7013 l 0.56524,0.38282 -0.49582,-0.1126 c -0.492,-0.114 -1.066,-0.638 -1.944,-1.784 -0.552,-0.718 -1.842,-1.494 -3.094,-1.858 -2.0934,-0.612 -4.3772,-2.218 -4.9822,-3.502 -0.2136,-0.452 -0.4348,-0.826 -0.4924,-0.828 -0.22414,-0.0146 -0.26858,0.92332 -0.06611,1.40582 0.42728,1.01792 2.5944,2.8904 4.3798,3.7832 0.8908,0.44548 0.95246,0.72704 0.15866,0.72704 -0.64334,0 -0.61612,0.24268 0.05288,0.48576 1.0151,0.36886 1.3659,0.5971 1.40812,0.92006 0.12284,0.94112 -0.6377,1.00678 -2.77,0.24128 -1.49216,-0.5357 -1.5175,-0.55292 -1.09742,-0.77208 0.5776,-0.30128 0.73162,-0.94982 0.33054,-1.39616 -0.16986,-0.189 -0.83578,-0.73236 -1.47754,-1.20636 -0.9844,-0.728 -1.2444,-1.03 -1.6824,-1.944 l -0.5222,-1.08 -1.1404,-0.338 c -1.3636,-0.404 -1.4574,-0.412 -1.58,-0.094 -0.1374,0.356 -0.488,0.304 -0.9024,-0.134 -0.3864,-0.41 -0.3334,-0.64 0.1124,-0.49 0.1502,0.05086 -0.04084,-0.2212 -0.4231,-0.60158 -0.38228,-0.3804 -0.74272,-0.8371 -0.79992,-1.01658 -0.05722,-0.17954 -0.188242,-0.29728 -0.29418,-0.26058 z m 3.2394,3.6738 c 0.08753,-0.0196 0.28458,0.02812 0.57846,0.1512 0.3028,0.12718 0.6668,0.46258 0.82636,0.76242 0.156784,0.29516 0.52016,0.78136 0.80654,1.07768 l 0,0.0032 c 0.28632,0.29652 0.47226,0.53432 0.41318,0.5308 -0.25798,-0.016 -1.13802,-0.5668 -1.59324,-0.9941 -0.27272,-0.25598 -0.68506,-0.53438 -0.9123,-0.6241 -0.28836,-0.11384 -0.32418,-0.17006 -0.122302,-0.17694 0.33582,-0.0124 0.37392,-0.18964 0.09586,-0.46646 C 13.3611,24.55968 13.336074,24.47 13.423608,24.45028 Z m 37.156,0 c 0.08754,0.0196 0.06252,0.10942 -0.09256,0.2638 -0.27804,0.27682 -0.23996,0.45436 0.09586,0.46646 0.20188,0.0068 0.16276,0.06308 -0.12562,0.17694 -0.22726,0.0897 -0.63628,0.36814 -0.909,0.6241 -0.4552,0.42728 -1.33524,0.97822 -1.59324,0.99404 -0.05906,0.0036 0.12688,-0.23428 0.41318,-0.5308 l 0,-0.0032 c 0.28636,-0.29632 0.64644,-0.78252 0.80322,-1.07768 0.15956,-0.29984 0.52356,-0.63528 0.82636,-0.76242 0.29386,-0.1231 0.49422,-0.17096 0.58176,-0.1512 z M 31.722,24.59832 c 0.0937,-0.05764 0.12254,0.0082 0.0661,0.15442 -0.10986,0.28508 -0.22808,0.33642 -0.22808,0.09972 0,-0.08516 0.07214,-0.19882 0.16198,-0.25414 z m 0.46938,0 c 0.0116,-0.02762 0.0424,-0.02884 0.08924,0 0.0898,0.05532 0.16196,0.16896 0.16196,0.25414 0,0.23668 -0.1182,0.18538 -0.22808,-0.09972 -0.0282,-0.07322 -0.0349,-0.12678 -0.02312,-0.15442 z"/>
 <path style="fill:#b4b4b4" d="m 14.0414,18 0.09917,0.82354 c 0.182154,1.54212 0.37314,2.0394 0.89248,2.3066 0.26744,0.13852 0.53422,0.4345 0.59168,0.65948 0.112104,0.44104 0.39666,0.55714 0.39666,0.16088 0,-0.1344 -0.29768,-0.81896 -0.6611,-1.52164 -0.3636,-0.7018 -0.662,-1.35 -0.6646,-1.4404 -0.0022,-0.0906 -0.1486,-0.3496 -0.3272,-0.5758 z m 35.918,0 -0.32724,0.41178 c -0.17858,0.22624 -0.32504,0.48534 -0.32724,0.57584 -0.0026,0.0905 -0.301,0.73854 -0.6644,1.4412 -0.3634,0.70266 -0.6611,1.38724 -0.6611,1.52164 0,0.3963 0.28454,0.2802 0.39666,-0.16088 0.05746,-0.22498 0.32424,-0.52096 0.59168,-0.65948 0.51932,-0.26716 0.71034,-0.76452 0.89248,-2.3066 z m -37.604,0.9072 c -0.09914,0 -0.119986,0.119538 -0.04958,0.28632 0.28042,0.66412 0.2867,1.02944 0.01654,1.02944 -0.146966,0 -0.26774,0.05512 -0.26774,0.12546 0,0.259 0.54252,0.88738 0.88586,1.02622 0.40884,0.16424 0.76686,0.20278 0.76686,0.08042 0,-0.04648 -0.07315,-0.21602 -0.161966,-0.37318 -0.0888,-0.158 -0.2384,-0.598 -0.3338,-0.978 -0.174,-0.6938 -0.5358,-1.1968 -0.8562,-1.1968 z m 39.288,0 c -0.32034,0 -0.68224,0.50312 -0.85612,1.19672 -0.0954,0.38058 -0.24504,0.8208 -0.33384,0.97796 -0.0888,0.15718 -0.16196,0.32668 -0.16196,0.37316 0,0.12234 0.36132,0.0838 0.77016,-0.08042 0.34332,-0.13884 0.88256,-0.7672 0.88256,-1.02622 0,-0.07034 -0.12078,-0.12546 -0.26774,-0.12546 -0.27024,0 -0.26396,-0.3653 0.0166,-1.02944 0.0704,-0.166794 0.04954,-0.2863 -0.04958,-0.2863 z m -19.6972,0.40856 c 0.05554,0.144156 0.0044,0.2477 -0.12562,0.2477 -0.5462,0 -0.7598,1.97744 -0.34708,3.2074 0.11048,0.3291 0.10778,0.3291 -0.09256,0 -0.33216,-0.54572 -0.8588,-1.07126 -1.07758,-1.07126 -0.11328,0 -0.25736,0.2239 -0.31732,0.49542 -0.05988,0.2715 -0.17874,0.49542 -0.26774,0.49542 -0.08904,0 -0.11862,-0.07428 -0.0628,-0.16408 0.05574,-0.08978 0.03522,-0.28656 -0.04958,-0.43752 -0.13858,-0.24648 -0.17398,-0.23868 -0.34376,0.07722 -0.14746,0.27428 -0.13684,0.48116 0.0595,0.949 0.31722,0.7553 0.31564,0.88788 -0.01,0.88788 -0.34498,0 -0.20476,0.3983 0.16528,0.46968 0.32596,0.06294 0.92222,-0.41006 0.92222,-0.73026 0,-0.11638 0.083,-0.26088 0.1818,-0.3217 0.25808,-0.15878 0.54526,0.1826 0.37682,0.44716 -0.07702,0.121 -0.14098,0.2684 -0.14214,0.32814 -0.0014,0.05968 -0.21108,0.2732 -0.46606,0.4729 -0.59038,0.46228 -0.5723,1.19882 0.02974,1.28358 0.2271,0.03194 0.34646,-0.0112 0.28758,-0.10616 -0.0587,-0.09448 0.0646,-0.09018 0.29088,0.0162 0.21408,0.10058 0.46562,0.39104 0.56192,0.6434 0.16902,-0.0074 0.32772,-0.0278 0.4793,-0.06112 0.15158,0.03332 0.31026,0.05378 0.4793,0.06112 0.09634,-0.25236 0.35114,-0.5428 0.56524,-0.6434 0.22628,-0.1063 0.34626,-0.11054 0.28758,-0.0162 -0.05888,0.09492 0.06378,0.1381 0.29088,0.10616 0.60204,-0.08478 0.61682,-0.8213 0.02644,-1.28358 -0.255,-0.1997 -0.46466,-0.4132 -0.46606,-0.4729 -0.0012,-0.05972 -0.0651,-0.20714 -0.14212,-0.32814 -0.16844,-0.26458 0.11876,-0.60596 0.37682,-0.44716 0.09878,0.06082 0.18178,0.2053 0.18178,0.3217 0,0.3202 0.59628,0.79318 0.92222,0.73026 0.37002,-0.07138 0.51028,-0.46968 0.16528,-0.46968 -0.32544,0 -0.32706,-0.13258 -0.01,-0.88788 0.19632,-0.46784 0.21028,-0.6747 0.0628,-0.949 -0.1698,-0.3159 -0.2052,-0.32368 -0.34376,-0.07722 -0.08484,0.15094 -0.10864,0.34772 -0.05288,0.43752 0.0558,0.08976 0.02622,0.16408 -0.0628,0.16408 -0.08902,0 -0.20786,-0.2239 -0.26774,-0.49542 -0.05996,-0.2715 -0.20402,-0.49542 -0.31732,-0.49542 -0.21876,0 -0.74542,0.52552 -1.07758,1.07126 -0.20034,0.3291 -0.20306,0.3291 -0.09256,0 0.41274,-1.2299 0.19914,-3.2074 -0.34708,-3.2074 -0.13,0 -0.18118,-0.103536 -0.1256,-0.2477 -0.0184,0.02025 -0.03472,0.04073 -0.05288,0.06113 -0.0182,-0.02025 -0.03444,-0.04079 -0.05288,-0.06113 z m -21.762,0.46 c -0.31022,0.107562 -0.20404,2.1716 0.13883,2.6926 0.25578,0.3887 0.25562,0.4227 0.01654,0.33136 -0.33012,-0.1261 -0.3393,0.09836 -0.03306,0.682 0.35294,0.6725 1.06086,1.25872 2.2048,1.82724 0.56814,0.28238 1.0313,0.53718 1.0313,0.5694 0,0.17814 -1.57496,-0.2724 -1.9337,-0.55332 -0.65736,-0.51568 -0.95586,-0.43186 -0.52556,0.14798 0.196742,0.26484 0.31562,0.59404 0.26444,0.72704 -0.10398,0.2695 0.34022,0.72492 1.2065,1.24176 0.7221,0.43168 0.87676,0.43696 0.74372,0.0192 -0.138032,-0.43284 -0.05832,-0.41628 0.4198,0.09006 0.32866,0.34836 0.34144,0.40134 0.08264,0.3024 -0.2335,-0.08922 -0.27564,-0.06534 -0.175188,0.0965 0.132836,0.21394 -0.151688,0.1876 -1.13046,-0.10296 -0.25658,-0.07618 -0.28642,-0.02862 -0.185106,0.29596 0.26898,0.86218 0.71176,1.24348 1.79816,1.5538 0.58626,0.16684 1.02746,0.36402 0.98172,0.4375 -0.101204,0.16336 -1.21692,-0.02132 -1.50398,-0.2477 -0.29864,-0.23566 -0.2713,0.36996 0.03636,0.80746 0.27514,0.39084 1.38888,0.95836 2.7304,1.38652 l 0.909,0.28952 -0.82636,-0.0772 c -0.45454,-0.04204 -1.02232,-0.10492 -1.26268,-0.14154 -0.3672,-0.056 -0.42506,-0.0176 -0.35368,0.25414 0.1239,0.47192 0.9659,1.11888 1.58,1.2128 0.29274,0.0448 0.90404,0.14322 1.35854,0.22198 l 0.82636,0.14476 -0.74042,0.2091 c -0.40728,0.11562 -1.02658,0.1721 -1.37508,0.12546 -0.6183,-0.08258 -0.6272,-0.07718 -0.39666,0.27022 0.3343,0.50384 1.13356,0.93686 2.0526,1.10664 l 0.79,0.14476 -0.95198,-0.06434 c -0.52268,-0.03552 -0.94866,-0.0072 -0.94866,0.06434 0,0.07162 0.196678,0.3276 0.43632,0.5662 0.4641,0.46184 0.64856,0.49624 2.456,0.4536 l 1.15692,-0.02894 -0.99164,0.43108 c -1.20416,0.52276 -1.40518,0.6907 -1.07428,0.89432 0.20202,0.12432 0.13932,0.26164 -0.35368,0.7753 -0.32928,0.34312 -0.87906,0.99192 -1.21972,1.44444 -1.54446,2.0518 -2.3574,2.7152 -3.3386,2.7152 -0.85196,0 -0.93576,0.27072 -0.128914,0.42142 0.80802,0.1509 1.90918,-0.04008 2.7998,-0.48898 1.0814,-0.54508 1.01336,-0.26406 -0.155358,0.64984 -0.3216,0.25144 -0.3194,0.25626 0.08264,0.15442 0.22726,-0.05756 0.7681,-0.31894 1.19988,-0.57906 0.827,-0.49824 0.95686,-0.5197 0.51566,-0.08042 -0.37334,0.37172 -0.15476,0.51308 0.39004,0.25092 0.25036,-0.12048 0.58488,-0.20376 0.74042,-0.18334 0.15554,0.02024 0.63102,-0.28264 1.05774,-0.67236 0.43668,-0.39884 0.69736,-0.55636 0.59498,-0.36352 -0.10008,0.18844 -0.3016,0.43652 -0.44292,0.55332 -0.14138,0.11676 -0.25452,0.2777 -0.25452,0.35708 0,0.32214 0.39486,0.1039 1.23294,-0.68522 0.5199,-0.48956 0.9282,-0.76172 0.99164,-0.65948 0.05938,0.09562 0.02002,0.17372 -0.08594,0.17372 -0.1058,0 -0.1482,0.11196 -0.09586,0.2477 0.05794,0.15034 -9.02e-4,0.24448 -0.14874,0.24448 -0.13348,0 -0.2413,0.07176 -0.2413,0.15762 0,0.33022 1.01202,-0.20878 1.24946,-0.66592 0.32112,-0.61812 0.42078,-0.6048 0.29088,0.0418 -0.07454,0.37116 -0.05064,0.48618 0.08594,0.40212 0.10504,-0.06464 0.1917,-0.22916 0.1917,-0.36352 0,-0.13996 0.1216,-0.2239 0.28426,-0.19624 0.19362,0.033 0.42944,-0.21418 0.74042,-0.7753 0.36022,-0.65004 0.45656,-0.73876 0.45946,-0.43108 0.003,0.3068 0.0717,0.37294 0.33054,0.30562 0.26744,-0.06962 0.227,0.03824 -0.23138,0.59514 -0.59664,0.7245 -0.92718,1.5892 -0.6082,1.5892 0.10074,0 0.1818,-0.06628 0.1818,-0.14796 0,-0.08164 0.24336,-0.23118 0.53878,-0.33134 l 0.53548,-0.17998 -0.5421,0.42786 c -0.7404,0.58532 -1.52056,1.97992 -1.5106,2.699 l 0,0.0032 c 0.0072,0.51246 0.02974,0.5394 0.20492,0.26058 0.54666,-0.87012 1.24902,-1.45714 2.4394,-2.046 l 1.30896,-0.64984 0,0.47612 c 0,0.26226 0.07434,0.47612 0.16528,0.47612 0.09088,0 0.16528,-0.14996 0.16528,-0.33456 0,-0.1846 0.14804,-0.62178 0.32724,-0.97152 0.40058,-0.78182 2.625,-2.5402 3.2558,-2.6282 0.60448,0.04632 2.8502,1.8368 3.2558,2.6282 0.17922,0.34972 0.32724,0.7869 0.32724,0.97152 0,0.1846 0.0744,0.33778 0.16528,0.33778 0.09096,0 0.16528,-0.21706 0.16528,-0.47934 l 0,-0.47612 1.30896,0.64984 c 1.19036,0.58888 1.89278,1.17592 2.4394,2.046 0.17518,0.27882 0.19764,0.2519 0.20492,-0.26058 l 0,-0.0032 c 0.01,-0.71904 -0.7702,-2.1104 -1.5106,-2.6958 l -0.5421,-0.43108 0.53548,0.18016 c 0.29542,0.1002 0.5388,0.2497 0.5388,0.33134 0,0.08168 0.0811,0.14796 0.1818,0.14796 0.31898,0 -0.0114,-0.86468 -0.6082,-1.5892 -0.45838,-0.55696 -0.49882,-0.66476 -0.23138,-0.59514 0.25884,0.06734 0.32756,0.0012 0.33054,-0.30562 0.003,-0.3077 0.09922,-0.21576 0.45946,0.4343 0.31098,0.56114 0.54682,0.80504 0.74042,0.77208 0.16266,-0.02764 0.28426,0.05626 0.28426,0.19624 0,0.13438 0.08666,0.29886 0.19172,0.36352 0.1366,0.08404 0.16046,-0.03098 0.08594,-0.40212 -0.12988,-0.64662 -0.03026,-0.65992 0.29088,-0.0418 0.23744,0.45714 1.24946,0.99614 1.24946,0.66592 0,-0.08582 -0.10782,-0.15762 -0.2413,-0.15762 -0.14784,0 -0.20668,-0.09414 -0.14874,-0.24448 0.05234,-0.13574 0.01,-0.2477 -0.09586,-0.2477 -0.10598,0 -0.14534,-0.07812 -0.08594,-0.17372 0.06344,-0.10226 0.47174,0.16994 0.99164,0.65948 0.83808,0.78914 1.23294,1.01058 1.23294,0.68844 0,-0.0794 -0.11314,-0.24354 -0.25452,-0.3603 -0.1413,-0.1168 -0.34282,-0.36488 -0.44294,-0.55332 -0.10236,-0.19284 0.1583,-0.0321 0.59498,0.36674 0.42672,0.38974 0.90222,0.6895 1.05774,0.66914 0.15556,-0.02024 0.49006,0.0629 0.74042,0.18336 0.5448,0.26216 0.76338,0.12082 0.39004,-0.25092 -0.4412,-0.43928 -0.31136,-0.41782 0.51566,0.08042 0.43178,0.26012 0.97262,0.5215 1.19988,0.57906 0.40204,0.10186 0.40422,0.09704 0.08264,-0.15442 -1.16872,-0.91388 -1.23674,-1.19492 -0.15536,-0.64984 0.8906,0.4489 1.99178,0.63988 2.7998,0.48898 0.80684,-0.15072 0.72306,-0.42142 -0.12892,-0.42142 -0.98104,2e-6 -1.79404,-0.66012 -3.3386,-2.712 -0.34064,-0.4525 -0.89044,-1.10454 -1.21972,-1.44764 -0.493,-0.51364 -0.5557,-0.65098 -0.35368,-0.7753 0.3309,-0.20362 0.12986,-0.37156 -1.07428,-0.89432 l -0.99164,-0.43108 1.15692,0.02894 c 1.80732,0.04262 1.99174,0.0082 2.456,-0.4536 0.23964,-0.2386 0.43632,-0.49458 0.43632,-0.5662 0,-0.07156 -0.426,-0.09988 -0.94866,-0.06434 l -0.95198,0.06434 0.79,-0.14476 c 0.9191,-0.16978 1.71844,-0.6028 2.0526,-1.10664 0.23056,-0.3474 0.22164,-0.3528 -0.39666,-0.27022 -0.34848,0.04658 -0.9678,-0.01 -1.37508,-0.12546 l -0.74,-0.21 0.828,-0.146 c 0.45452,-0.07878 1.0658,-0.17718 1.35854,-0.22198 0.61412,-0.09392 1.45612,-0.74088 1.58,-1.2128 0.07142,-0.27176 0.0136,-0.31014 -0.35368,-0.25414 -0.24038,0.03662 -0.80814,0.0995 -1.26268,0.14154 l -0.82636,0.07722 0.909,-0.28952 c 1.34136,-0.42816 2.4552,-0.99568 2.7304,-1.38652 0.30766,-0.4375 0.33498,-1.04312 0.03634,-0.80746 -0.28704,0.22632 -1.40278,0.41104 -1.50398,0.2477 -0.04574,-0.07348 0.39546,-0.27068 0.98172,-0.4375 1.0865,-0.31032 1.5291,-0.68842 1.79818,-1.55058 0.10134,-0.3246 0.07148,-0.37536 -0.18512,-0.29918 -0.97878,0.29056 -1.26328,0.3169 -1.13046,0.10296 0.10046,-0.16182 0.05832,-0.18574 -0.17518,-0.0965 -0.2588,0.09894 -0.24604,0.04596 0.08264,-0.3024 0.47812,-0.50638 0.55782,-0.52292 0.4198,-0.09008 -0.13304,0.41768 0.02156,0.41236 0.74372,-0.0192 0.86626,-0.51684 1.31048,-0.97226 1.2065,-1.24176 -0.05118,-0.133 0.0677,-0.4622 0.26444,-0.72704 0.4303,-0.57984 0.13178,-0.66364 -0.52556,-0.14798 -0.35868,0.28092 -1.9337,0.73148 -1.9337,0.55332 0,-0.03224 0.46316,-0.28704 1.0313,-0.5694 1.14394,-0.56856 1.85188,-1.15476 2.2048,-1.82724 0.30626,-0.58364 0.29708,-0.8049 -0.03304,-0.67878 -0.23906,0.09134 -0.23926,0.05412 0.0166,-0.33456 0.34286,-0.52096 0.44904,-2.585 0.13882,-2.6926 -0.10596,-0.03668 -0.23696,0.08107 -0.29418,0.26058 -0.0572,0.17948 -0.41766,0.63618 -0.79992,1.01656 -0.38228,0.38038 -0.5733,0.64926 -0.4231,0.59836 0.44584,-0.15106 0.50202,0.08276 0.1157,0.4922 -0.4145,0.43928 -0.76828,0.49166 -0.9057,0.1351 -0.12258,-0.31806 -0.21646,-0.31106 -1.58,0.09328 l -1.14038,0.33456 -0.52226,1.08412 c -0.43806,0.91304 -0.69806,1.21584 -1.68248,1.94306 -0.64176,0.47402 -1.30768,1.01736 -1.47754,1.20636 -0.40108,0.44636 -0.24706,1.0949 0.33054,1.39618 0.42008,0.21914 0.3948,0.23316 -1.0974,0.76886 -2.1322,0.7655 -2.8928,0.69984 -2.77,-0.24128 0.04222,-0.32296 0.39302,-0.54798 1.40812,-0.91684 0.669,-0.2431 0.69624,-0.48576 0.05288,-0.48576 -0.7938,0 -0.73214,-0.28156 0.15866,-0.72704 1.78514,-0.89274 3.9524,-2.7652 4.3798,-3.7832 0.20248,-0.48248 0.15802,-1.4235 -0.06612,-1.40904 -0.0576,0.0036 -0.27876,0.37962 -0.49252,0.8332 -0.60504,1.28382 -2.8888,2.8894 -4.9814,3.5 -1.25278,0.36558 -2.542,1.13722 -3.094,1.8562 -0.87836,1.14452 -1.45286,1.67202 -1.94692,1.7822 l -0.49582,0.1126 0.56524,-0.38282 c 0.75248,-0.50916 0.86436,-0.84474 0.23468,-0.7013 l -0.46938,0.10616 0.41318,-0.28954 c 0.64058,-0.44932 1.31888,-1.108 1.31888,-1.27714 0,-0.08412 -0.14658,-0.11462 -0.32724,-0.06758 -0.26742,0.06964 -0.2237,-0.04148 0.23468,-0.59836 0.59626,-0.72444 0.92718,-1.58598 0.6082,-1.58598 -0.10076,0 -0.1851,0.06628 -0.1851,0.14796 0,0.08166 -0.24006,0.2312 -0.53548,0.33136 l -0.53878,0.18014 0.5454,-0.43108 c 0.74036,-0.58536 1.52078,-1.97688 1.5106,-2.6958 -0.007,-0.51248 -0.02974,-0.54264 -0.20492,-0.2638 -0.54666,0.8701 -1.24902,1.4572 -2.4394,2.046 l -1.30906,0.64984 0,-0.47612 c 0,-0.26224 -0.0744,-0.47612 -0.16528,-0.47612 -0.09094,0 -0.16528,0.14994 -0.16528,0.33456 0,0.67904 -0.684,1.65304 -1.74528,2.4836 -1.22858,0.96124 -1.49458,1.37558 -1.66596,2.625 l -0.17186,0.24448 -0.17188,-0.24448 c -0.17094,-1.2485 -0.43396,-1.66316 -1.66264,-2.625 -1.06114,-0.83014 -1.7486,-1.8017 -1.7486,-2.4802 0,-0.1846 -0.07434,-0.33778 -0.16528,-0.33778 -0.0909,0 -0.16528,0.2171 -0.16528,0.47934 l 0,0.4761 -1.30896,-0.64982 c -1.19036,-0.58882 -1.89278,-1.17914 -2.4394,-2.0492 -0.17516,-0.27884 -0.19798,-0.24868 -0.20492,0.2638 -0.0104,0.71902 0.77024,2.1136 1.5106,2.699 l 0.5454,0.43108 -0.5388,-0.18334 c -0.29542,-0.10016 -0.53548,-0.24966 -0.53548,-0.33136 0,-0.08168 -0.08434,-0.14798 -0.1851,-0.14798 -0.31898,0 0.0122,0.86152 0.6082,1.58598 0.45838,0.55688 0.5021,0.66802 0.23468,0.59836 -0.18066,-0.0471 -0.32724,-0.0134 -0.32724,0.07078 0,0.16912 0.6783,0.82462 1.31888,1.27392 l 0.41318,0.28952 -0.46938,-0.10616 c -0.62968,-0.14342 -0.5178,0.19214 0.23468,0.7013 l 0.56524,0.38282 -0.49582,-0.1126 c -0.494,-0.11 -1.068,-0.634 -1.946,-1.78 -0.552,-0.718 -1.842,-1.494 -3.094,-1.858 -2.0934,-0.612 -4.3772,-2.218 -4.9822,-3.5 -0.2136,-0.454 -0.4348,-0.828 -0.4924,-0.83 -0.22414,-0.0146 -0.26858,0.92332 -0.06611,1.40582 0.42728,1.01792 2.5944,2.8904 4.3798,3.7832 0.8908,0.44548 0.95246,0.72704 0.15866,0.72704 -0.64334,0 -0.61612,0.24268 0.05288,0.48576 1.0151,0.36886 1.3659,0.5971 1.40812,0.92006 0.12284,0.94112 -0.6377,1.00678 -2.77,0.24128 -1.49216,-0.5357 -1.5175,-0.55292 -1.09742,-0.77208 0.5776,-0.30128 0.73162,-0.94982 0.33054,-1.39616 -0.16986,-0.189 -0.83578,-0.73236 -1.47754,-1.20636 -0.9844,-0.728 -1.2444,-1.03 -1.6824,-1.944 l -0.5222,-1.08 -1.1404,-0.338 c -1.3636,-0.404 -1.4574,-0.412 -1.58,-0.094 -0.1374,0.358 -0.488,0.304 -0.9024,-0.134 -0.3864,-0.41 -0.3334,-0.64 0.1124,-0.49 0.1502,0.052 -0.0408,-0.22 -0.4232,-0.602 -0.3822,-0.38 -0.7426,-0.836 -0.7998,-1.016 -0.0574,-0.1792 -0.1884,-0.297 -0.2942,-0.2602 z m 3.2394,3.6738 c 0.08753,-0.0196 0.28458,0.02812 0.57846,0.1512 0.3028,0.12718 0.6668,0.46258 0.82636,0.76242 0.156784,0.29516 0.52016,0.78136 0.80654,1.07768 l 0,0.0032 c 0.28632,0.29652 0.47226,0.53432 0.41318,0.5308 -0.2582,-0.018 -1.1382,-0.568 -1.5934,-0.996 -0.2728,-0.256 -0.685,-0.534 -0.9124,-0.624 -0.2882,-0.114 -0.324,-0.17 -0.1222,-0.176 0.33582,-0.0124 0.37392,-0.18964 0.09586,-0.46646 -0.155058,-0.15438 -0.180084,-0.24406 -0.09255,-0.26378 z m 37.156,0 c 0.08754,0.0196 0.06252,0.10942 -0.09256,0.2638 -0.27804,0.27682 -0.23996,0.45436 0.09586,0.46646 0.20188,0.0068 0.16276,0.06308 -0.12562,0.17694 -0.22726,0.0897 -0.63628,0.36814 -0.909,0.6241 -0.4552,0.42728 -1.33524,0.97822 -1.59324,0.99404 -0.05906,0.0036 0.12688,-0.23428 0.41318,-0.5308 l 0,-0.0032 c 0.28636,-0.29632 0.64644,-0.78252 0.80322,-1.07768 0.15956,-0.29984 0.52356,-0.63528 0.82636,-0.76242 0.29386,-0.1231 0.49422,-0.17096 0.58176,-0.1512 z M 31.722,23.59752 c 0.0937,-0.05764 0.12254,0.0082 0.0661,0.15442 -0.10986,0.28508 -0.22808,0.33642 -0.22808,0.09972 0,-0.08516 0.07214,-0.19882 0.16198,-0.25414 z m 0.46938,0 c 0.0116,-0.02762 0.0424,-0.02884 0.08924,0 0.0898,0.05532 0.16196,0.16896 0.16196,0.25414 0,0.23668 -0.1182,0.18538 -0.22808,-0.09972 -0.0282,-0.07322 -0.0349,-0.12678 -0.02312,-0.15442 z"/>
 <path style="opacity:0.1;fill:#8b9cbe" d="M 7 4 C 5.338 4 4 5.338 4 7 L 4 8 C 4 6.338 5.338 5 7 5 L 57 5 C 58.662 5 60 6.338 60 8 L 60 7 C 60 5.338 58.662 4 57 4 L 7 4 z"/>
</svg>
