<svg xmlns="http://www.w3.org/2000/svg" width="64" height="64" version="1">
 <circle style="opacity:0.2" cx="32" cy="33" r="28"/>
 <circle style="fill:#5f89c9" cx="32" cy="32" r="28"/>
 <path style="opacity:0.2;fill:#8b9cbe" d="M 32 4 A 28 28 0 0 0 4 32 A 28 28 0 0 0 4.0215 32.586 A 28 28 0 0 1 32 5 A 28 28 0 0 1 59.979 32.414 A 28 28 0 0 0 60 32 A 28 28 0 0 0 32 4 z"/>
 <path style="opacity:0.2" d="M 27.436,11.484 C 29.758,10.986 32.185,10.87 34.555,11.147 37.995,11.549 41.326,12.777 44.217,14.709 47.075,16.618 49.422,19.135 51.113,22.102 51.761,23.238 52.313,24.451 52.755,25.708 53.063,26.588 53.344,27.606 53.537,28.531 54.541,33.354 53.903,38.327 51.714,42.748 L 51.537,43.068 C 51.537,43.068 32.972,16.624 32.879,16.485 32.302,15.623 31.713,14.989 31.049,14.52 30.89,14.408 30.5,14.185 30.327,14.107 29.528,13.75 28.683,13.644 27.735,13.788 27.076,13.886 26.879,13.945 26.299,14.173 25.407,14.522 24.725,15.036 24.212,15.745 24.101,15.899 23.875,16.287 23.793,16.464 23.453,17.202 23.259,18.045 23.192,19.08 L 20.178,51.516 19.99,51.419 C 18.931,50.738 17.871,49.912 16.932,49.037 14.513,46.782 12.651,44.008 11.466,40.894 11.175,40.127 10.565,37.916 10.469,37.487 9.5893,33.299 9.9515,28.972 11.518,24.975 12.156,23.347 13.008,21.763 14.018,20.33 16.753,16.448 20.629,13.578 25.125,12.105 25.844,11.87 26.689,11.643 27.436,11.484 Z M 28.036,17.341 C 29.7,17.168 30.766,18.344 31.675,19.581 35.982,27.037 40.573,35.113 45.232,43.426 46.572,45.816 47.885,48.168 47.889,48.186 47.893,48.201 47.836,48.265 47.607,48.496 44.982,51.142 41.734,53.068 38.145,54.108 37.325,54.344 35.965,54.676 34.517,54.849 31.737,55.179 28.948,54.968 26.238,54.222 L 26.037,54.158 25.783,23.633 C 25.93,20.919 25.799,18.092 28.036,17.341 Z"/>
 <path style="fill:#f7b400" d="M 27.436,10.484 C 29.758,9.9861 32.185,9.8698 34.555,10.147 37.995,10.549 41.326,11.777 44.217,13.709 47.075,15.618 49.422,18.135 51.113,21.102 51.761,22.238 52.313,23.451 52.755,24.708 53.063,25.588 53.344,26.606 53.537,27.531 54.541,32.354 53.903,37.327 51.714,41.748 L 51.537,42.068 C 51.537,42.068 32.972,15.624 32.879,15.485 32.302,14.623 31.713,13.989 31.049,13.52 30.89,13.408 30.5,13.185 30.327,13.107 29.528,12.75 28.683,12.644 27.735,12.788 27.076,12.886 26.879,12.945 26.299,13.173 25.407,13.522 24.725,14.036 24.212,14.745 24.101,14.899 23.875,15.287 23.793,15.464 23.453,16.202 23.259,17.045 23.192,18.08 L 20.178,50.516 19.99,50.419 C 18.931,49.738 17.871,48.912 16.932,48.037 14.513,45.782 12.651,43.008 11.466,39.894 11.175,39.127 10.565,36.916 10.469,36.487 9.5893,32.299 9.9515,27.972 11.518,23.975 12.156,22.347 13.008,20.763 14.018,19.33 16.753,15.448 20.629,12.578 25.125,11.105 25.844,10.87 26.689,10.643 27.436,10.484 Z M 28.036,16.341 C 29.7,16.168 30.766,17.344 31.675,18.581 35.982,26.037 40.573,34.113 45.232,42.426 46.572,44.816 47.885,47.168 47.889,47.186 47.893,47.201 47.836,47.265 47.607,47.496 44.982,50.142 41.734,52.068 38.145,53.108 37.325,53.344 35.965,53.676 34.517,53.849 31.737,54.179 28.948,53.968 26.238,53.222 L 26.037,53.158 25.783,22.633 C 25.93,19.919 25.799,17.092 28.036,16.341 Z"/>
 <path style="fill:#8b9cbe;opacity:0.2" d="M 32.77 10.014 C 30.978 9.9528 29.177 10.111 27.436 10.484 C 26.689 10.643 25.844 10.87 25.125 11.105 C 20.629 12.578 16.753 15.448 14.018 19.33 C 13.008 20.763 12.156 22.347 11.518 23.975 C 10.457 26.679 9.963 29.537 10.018 32.398 C 10.085 29.873 10.581 27.364 11.518 24.975 C 12.156 23.347 13.008 21.763 14.018 20.33 C 16.753 16.448 20.629 13.578 25.125 12.105 C 25.844 11.87 26.689 11.643 27.436 11.484 C 29.758 10.986 32.185 10.869 34.555 11.146 C 37.995 11.548 41.326 12.777 44.217 14.709 C 47.075 16.618 49.422 19.135 51.113 22.102 C 51.761 23.238 52.314 24.45 52.756 25.707 C 53.064 26.587 53.344 27.606 53.537 28.531 C 53.786 29.725 53.932 30.928 53.98 32.129 C 53.989 30.596 53.855 29.057 53.537 27.531 C 53.344 26.606 53.064 25.587 52.756 24.707 C 52.314 23.45 51.761 22.238 51.113 21.102 C 49.422 18.135 47.075 15.618 44.217 13.709 C 41.326 11.777 37.995 10.548 34.555 10.146 C 33.962 10.077 33.367 10.034 32.77 10.014 z M 28.633 16.336 C 28.443 16.318 28.243 16.32 28.035 16.342 C 25.798 17.093 25.93 19.919 25.783 22.633 L 25.791 23.488 C 25.926 20.82 25.838 18.079 28.035 17.342 C 29.699 17.169 30.767 18.343 31.676 19.58 C 35.983 27.036 40.573 35.113 45.232 43.426 C 46.396 45.502 47.256 47.047 47.539 47.561 C 47.561 47.538 47.585 47.518 47.607 47.496 C 47.836 47.265 47.893 47.201 47.889 47.186 C 47.885 47.168 46.572 44.816 45.232 42.426 C 40.573 34.113 35.983 26.036 31.676 18.58 C 30.88 17.498 29.964 16.462 28.633 16.336 z"/>
</svg>
