<svg xmlns="http://www.w3.org/2000/svg" width="64" height="64" version="1.1">
 <path style="opacity:0.2" d="m 25.070522,5.0002941 c -0.186314,-0.00374 -0.373986,0.02809 -0.558577,0.1015599 l -6.241997,2.4843247 c -0.73836,0.2938872 -1.094641,1.1248757 -0.800756,1.8632429 l 2.148372,5.3944214 a 21.999332,21.99955 0 0 0 -5.421711,5.273328 L 8.8600776,17.820344 c -0.729907,-0.314297 -1.5684633,0.02007 -1.8827554,0.749985 L 4.321153,24.734267 c -0.3142917,0.729913 0.020069,1.572386 0.7499771,1.88668 l 5.3240569,2.292921 a 21.999332,21.99955 0 0 0 -0.394519,4.085854 21.999332,21.99955 0 0 0 0.289054,3.484305 l -5.3826492,2.14058 c -0.7383603,0.293888 -1.0985479,1.124879 -0.8046632,1.863244 l 2.4842997,6.242058 c 0.2938843,0.738367 1.1248649,1.094653 1.8632246,0.800765 l 5.3943671,-2.148393 a 21.999332,21.99955 0 0 0 5.273278,5.421765 l -2.296805,5.335827 c -0.314294,0.729916 0.02007,1.568481 0.749977,1.882774 l 6.163876,2.656197 c 0.729906,0.314295 1.57237,-0.02006 1.88666,-0.749985 l 2.292899,-5.32411 A 21.999332,21.99955 0 0 0 32,54.999272 21.999332,21.99955 0 0 0 35.48427,54.710216 l 2.140559,5.382702 c 0.293884,0.738366 1.124866,1.098559 1.863226,0.804672 l 6.241996,-2.484327 c 0.738361,-0.293887 1.09464,-1.124874 0.800758,-1.863241 L 44.382436,51.1556 a 21.999332,21.99955 0 0 0 5.421711,-5.27333 l 5.335774,2.29683 c 0.72991,0.314297 1.568467,-0.02006 1.882757,-0.749985 l 2.65617,-6.163938 c 0.31429,-0.729913 -0.02006,-1.572385 -0.749979,-1.886679 l -5.324057,-2.292921 a 21.999332,21.99955 0 0 0 0.39452,-4.085855 21.999332,21.99955 0 0 0 -0.289054,-3.484304 l 5.382649,-2.140581 c 0.73836,-0.293887 1.098549,-1.124877 0.804664,-1.863244 l -2.484301,-6.24206 c -0.293885,-0.738366 -1.124864,-1.094652 -1.863223,-0.800765 l -5.394369,2.148393 A 21.999332,21.99955 0 0 0 44.882421,15.195398 L 47.179226,9.8595693 C 47.49352,9.1296545 47.159167,8.2910905 46.429249,7.9767955 L 40.265373,5.3205999 c -0.729906,-0.314295 -1.57237,0.020069 -1.886661,0.7499846 L 36.085814,11.394695 A 21.999332,21.99955 0 0 0 32,11.000171 21.999332,21.99955 0 0 0 28.51573,11.289228 L 26.37517,5.9065256 C 26.15476,5.3527499 25.629459,5.0115368 25.070522,5.0002941 Z"/>
 <path style="fill:#b2bfd9" d="M 40.263684,4.3215867 C 39.533757,4.0072869 38.693098,4.3418884 38.378799,5.071814 L 32.174759,19.480002 26.373682,4.9052905 C 26.079792,4.1669116 25.248956,3.8091617 24.51058,4.1030538 L 18.270585,6.5867173 C 17.532206,6.880609 17.174455,7.7114436 17.468347,8.4498224 L 23.269422,23.024534 8.8612346,16.820495 c -0.7299255,-0.314302 -1.5705834,0.0203 -1.8848832,0.750228 l -2.6549171,6.165745 c -0.3142996,0.729927 0.020302,1.570586 0.7502274,1.884885 L 19.47985,31.825393 4.9051382,37.62647 c -0.7383789,0.293892 -1.096129,1.124726 -0.8022369,1.863102 l 2.4836637,6.239996 c 0.2938919,0.738379 1.1247267,1.096131 1.8631051,0.802238 L 23.024382,40.73073 16.820343,55.138916 c -0.314301,0.729929 0.0203,1.570586 0.750227,1.884885 l 6.165748,2.654918 c 0.729926,0.314301 1.570584,-0.0203 1.884882,-0.750226 l 6.204041,-14.408191 5.801076,14.574714 c 0.293891,0.738378 1.124726,1.096127 1.863105,0.802234 l 6.239994,-2.483661 c 0.73838,-0.293893 1.096128,-1.124729 0.802238,-1.863107 l -5.801077,-14.574711 14.408189,6.204038 c 0.729926,0.314302 1.570584,-0.0203 1.884882,-0.750226 l 2.654919,-6.165749 c 0.314298,-0.729924 -0.0203,-1.570584 -0.750229,-1.884882 L 44.52015,32.174911 59.094864,26.373835 c 0.738378,-0.293891 1.096126,-1.124726 0.802234,-1.863105 L 57.413436,18.270736 C 57.119544,17.532357 56.288708,17.174607 55.55033,17.468499 L 40.975618,23.269575 47.179658,8.8613871 C 47.493959,8.1314612 47.159358,7.2908035 46.42943,6.9765039 Z"/>
 <circle style="fill:#b2bfd9" cx="32" cy="32" r="22"/>
 <path style="opacity:0.1" d="m 28.400111,15.001081 -8.399746,14.999632 7.999756,14.999633 v -5.999851 c -1.543463,-0.159137 -1.585804,-0.871974 -1.68835,-1.930396 -0.118557,-1.224255 0.846152,-1.785762 0.388726,-2.760996 1.782568,0.438645 1.826824,1.137075 2.273353,2.169326 0.221103,-0.720668 0.158375,-1.245135 0.09422,-1.707977 2.31456,1.024101 2.969882,1.779381 2.938529,4.244201 -0.0084,0.658802 -1.831287,2.776925 -1.795948,3.405145 0.0354,0.628223 0.732314,1.33822 0.812746,1.865032 0.07896,0.517556 -1.354589,1.193476 -1.354589,2.228435 0,0.981144 2.331169,4.486939 2.331169,4.486939 l 2.399922,-3.999902 c -1.274466,0.680386 -2.098181,0.744112 -2.694923,0.714529 -0.85496,0.0411 -1.295671,-0.747036 -1.179973,-1.229147 0.182955,-0.762289 1.474974,-1.646395 1.474974,-2.212468 0,-0.676071 -0.52897,-1.107402 -0.470076,-1.765075 0.05892,-0.657668 2.616905,-2.528347 2.367598,-3.916567 -0.389304,-2.16778 -0.900366,-3.013918 1.189668,-3.919281 -0.262756,0.745492 -0.102836,0.779393 0.0354,1.504556 0.249149,-1.392637 0.996112,-1.176816 2.249811,-1.965906 -0.362306,1.4878 0.378455,1.647832 0.329795,2.770816 -0.04858,1.122981 -0.928578,1.993945 -1.702291,2.018736 v 2.999926 c 0.516513,-0.237157 0.325623,3.5e-4 0.800004,0 l 7.19975,-11.999708 -8.399738,-14.999632 v 1.999949 c -0.737845,0.400409 -0.796246,0.681023 -0.77593,1.329334 0,0 0.410783,-0.358805 0.77593,-0.329358 0.365152,0.02944 2.388142,5.509056 2.399928,5.999856 -1.2e-5,0.608586 -2.399928,0.999974 -2.399928,1.99995 0.576643,-0.480005 1.521243,-0.317848 2.382142,0.014 0.669388,0.258198 1.180716,3.215338 1.27495,3.794479 -0.02326,0.588957 -0.777419,1.109202 -1.71975,1.119019 -0.94232,0.0098 -1.366372,-0.137418 -1.378146,-0.490788 -0.0122,-0.35338 1.213234,-1.285894 1.213234,-1.285894 -1.40429,-0.06428 -2.032147,0.743154 -2.556052,1.315339 0.06996,-0.343558 0.141316,-0.588958 0.212048,-0.883436 -0.71429,0.114877 -1.045638,0.582812 -1.30748,0.961963 -0.355069,-0.764341 -2.460943,-2.758864 -2.426493,-3.428992 -0.129016,-1.101014 3.858853,-1.031837 4.282449,-3.592642 -0.02352,-0.971702 -1.106339,-1.912246 -2.103317,-2.132168 -0.800986,-0.176696 -1.060117,-0.235582 -1.060117,-0.235582 0.537833,-0.241188 2.15207,-0.929812 1.766848,-1.884666 -0.148296,0.376972 -0.331527,0.854678 -1.990654,0.932516 -1.696533,-0.681178 -1.476171,-1.703712 -1.201463,-2.532518 -1.118616,0.680308 -0.952411,1.342716 -0.671402,2.316565 0.07982,0.480979 -0.513706,0.884418 -0.686967,1.203423 0.0343,0.401732 0.06192,0.838585 -0.208242,1.024801 -0.671462,0.610564 0.148356,1.54056 0.530036,1.482209 -0.05232,-1.207054 1.414877,-1.677147 2.002437,-1.806131 0.965887,-1.2e-5 2.704056,1.081935 2.69227,1.680709 -0.0118,0.598774 -1.17277,1.187729 -2.60981,1.590185 -1.437048,0.402454 -2.591401,0.932513 -2.55606,2.228221 0.04498,1.26623 0.757919,2.837444 0.895206,3.183594 -0.479037,-0.383686 -0.743039,-0.938648 -1.437038,-1.02086 0.165475,0.293995 0.336264,0.620967 0.482961,0.961966 -0.726371,-0.97928 -1.477945,-1.264542 -2.791641,-1.4135 2.310266,1.537057 0.714001,1.858338 -0.141335,1.845402 -0.815688,-0.0124 -1.828957,-0.289645 -1.719738,-1.079755 0.06576,-0.475531 0.43375,-3.504938 1.273591,-3.850897 0.885381,-0.36472 1.817525,-0.344768 2.357758,-0.0168 0,-0.999976 -2.415561,-1.546779 -2.399925,-1.999954 0.0156,-0.453173 2.016131,-5.999853 2.399925,-5.999853 0.383797,0 0.519354,0.06696 0.749977,0.359367 0.219462,-0.94743 -0.504728,-1.018744 -0.749977,-1.359342 10e-6,-0.235583 0,-1.999951 0,-1.999951 z"/>
 <path style="fill:#4f4f4f" d="m 28.40002,14.000434 -8.399959,14.999864 7.999959,14.999863 v -5.999943 c -1.543502,-0.159139 -1.585844,-0.871988 -1.688393,-1.930426 -0.11856,-1.224274 0.846173,-1.785789 0.388736,-2.761038 1.782613,0.438651 1.82687,1.137092 2.27341,2.169359 0.221109,-0.720679 0.158379,-1.245154 0.09422,-1.708004 2.314618,1.024117 2.969957,1.779409 2.938603,4.244267 -0.0084,0.658812 -1.831333,2.776967 -1.795993,3.405196 0.0354,0.628233 0.732332,1.338241 0.812766,1.865061 0.07896,0.517565 -1.354623,1.193496 -1.354623,2.22847 0,0.981159 2.331228,4.487007 2.331228,4.487007 l 2.399982,-3.999963 c -1.274498,0.680396 -2.098234,0.744124 -2.694991,0.71454 -0.854981,0.0411 -1.295703,-0.747048 -1.180002,-1.229165 0.182959,-0.762301 1.475011,-1.646422 1.475011,-2.212503 0,-0.676081 -0.528984,-1.107419 -0.470088,-1.765101 0.05892,-0.657679 2.616971,-2.528385 2.367658,-3.916628 -0.389314,-2.167813 -0.900389,-3.013965 1.189698,-3.919342 -0.262763,0.745504 -0.102839,0.779406 0.0354,1.50458 0.249155,-1.392659 0.996137,-1.176834 2.249868,-1.965936 -0.362316,1.487823 0.378464,1.647856 0.329803,2.770858 -0.04858,1.122998 -0.928602,1.993976 -1.702334,2.018768 v 2.999972 c 0.516526,-0.23716 0.325631,3.5e-4 0.800024,0 l 7.199936,-11.999892 -8.39995,-14.999864 v 1.999982 c -0.737864,0.400414 -0.796266,0.681033 -0.77595,1.329352 0,0 0.410794,-0.35881 0.77595,-0.329362 0.365161,0.02944 2.388202,5.509141 2.399988,5.999948 -1.2e-5,0.608595 -2.399988,0.999989 -2.399988,1.99998 0.576657,-0.480012 1.521281,-0.317852 2.382202,0.014 0.669405,0.258203 1.180746,3.215388 1.274982,3.794539 -0.02326,0.588965 -0.777438,1.109218 -1.719793,1.119034 -0.942344,0.0098 -1.366407,-0.137419 -1.378181,-0.490796 -0.0122,-0.353384 1.213265,-1.285913 1.213265,-1.285913 -1.404326,-0.06428 -2.032199,0.743166 -2.556117,1.315359 0.06996,-0.343564 0.14132,-0.588967 0.212053,-0.883449 -0.714308,0.114879 -1.045664,0.582821 -1.307513,0.961977 -0.355078,-0.764352 -2.461005,-2.758906 -2.426554,-3.429045 -0.129019,-1.10103 3.858951,-1.031852 4.282557,-3.592695 -0.02352,-0.971717 -1.106367,-1.912277 -2.10337,-2.132202 -0.801006,-0.176699 -1.060144,-0.235586 -1.060144,-0.235586 0.537847,-0.241191 2.152125,-0.929826 1.766893,-1.884694 -0.1483,0.376977 -0.331535,0.854691 -1.990704,0.932531 -1.696576,-0.681189 -1.476209,-1.703738 -1.201494,-2.532558 -1.118644,0.680318 -0.952435,1.342738 -0.671419,2.316601 0.07982,0.480985 -0.513719,0.884431 -0.686984,1.203442 0.0343,0.401737 0.06192,0.838597 -0.208247,1.024816 -0.671479,0.610573 0.148359,1.540584 0.530049,1.482231 -0.05232,-1.207072 1.414913,-1.677172 2.002488,-1.806159 0.965911,-1.2e-5 2.704124,1.081952 2.692338,1.680735 -0.0118,0.598783 -1.1728,1.187748 -2.609876,1.59021 -1.437085,0.40246 -2.591467,0.932528 -2.556125,2.228255 0.04498,1.266249 0.757938,2.837487 0.895229,3.183644 -0.479049,-0.383692 -0.743058,-0.938664 -1.437075,-1.020877 0.16548,0.294 0.336273,0.620977 0.482974,0.961981 -0.72639,-0.979295 -1.477983,-1.264562 -2.791712,-1.413521 2.310324,1.53708 0.714019,1.858367 -0.141339,1.845429 -0.815708,-0.0124 -1.829003,-0.289649 -1.719781,-1.079771 0.06576,-0.475537 0.433761,-3.504992 1.273623,-3.850956 0.885404,-0.364726 1.817571,-0.344772 2.357818,-0.0168 0,-0.999991 -2.415622,-1.546802 -2.399986,-1.999984 0.0156,-0.453179 2.016182,-5.999945 2.399986,-5.999945 0.383806,0 0.519367,0.06696 0.749996,0.359372 0.219467,-0.947444 -0.504741,-1.01876 -0.749996,-1.359362 10e-6,-0.235587 0,-1.999983 0,-1.999983 z"/>
 <path style="opacity:0.2;fill:#8b9cbe" d="M 25.072266 4 C 24.885949 3.9962524 24.69436 4.0300426 24.509766 4.1035156 L 18.271484 6.5859375 C 17.542735 6.8759962 17.187622 7.6888942 17.460938 8.4199219 C 17.597449 8.053828 17.878234 7.7424602 18.271484 7.5859375 L 24.509766 5.1035156 C 24.69436 5.030043 24.885949 4.99625 25.072266 5 C 25.631217 5.0112429 26.152629 5.3524658 26.373047 5.90625 L 28.515625 11.289062 A 21.999887 21.999887 0 0 1 32 11 A 21.999887 21.999887 0 0 1 36.085938 11.396484 L 38.378906 6.0722656 C 38.693205 5.3423396 39.533745 5.0079658 40.263672 5.3222656 L 46.429688 7.9765625 C 46.803466 8.1375073 47.070781 8.4376504 47.203125 8.7890625 C 47.466464 8.0766325 47.13579 7.2806033 46.429688 6.9765625 L 40.263672 4.3222656 C 39.533745 4.0079658 38.693205 4.34234 38.378906 5.0722656 L 36.085938 10.396484 A 21.999887 21.999887 0 0 0 32 10 A 21.999887 21.999887 0 0 0 28.515625 10.289062 L 26.373047 4.90625 C 26.152629 4.3524658 25.631217 4.0112429 25.072266 4 z M 19.308594 14.076172 A 21.999887 21.999887 0 0 0 14.193359 19.117188 L 8.8613281 16.820312 C 8.1314026 16.50601 7.2908623 16.840384 6.9765625 17.570312 L 4.3222656 23.736328 C 4.1689108 24.092478 4.1727246 24.473754 4.2988281 24.808594 C 4.3077135 24.784555 4.3120069 24.760153 4.3222656 24.736328 L 6.9765625 18.570312 C 7.2908623 17.840383 8.1314026 17.50601 8.8613281 17.820312 L 14.193359 20.117188 A 21.999887 21.999887 0 0 1 19.615234 14.84375 L 19.308594 14.076172 z M 45.207031 14.441406 L 44.882812 15.195312 A 21.999887 21.999887 0 0 1 50.15625 20.615234 L 55.550781 18.46875 C 56.289159 18.174858 57.120171 18.533105 57.414062 19.271484 L 59.896484 25.509766 C 59.900293 25.519334 59.900706 25.529464 59.904297 25.539062 C 60.023649 25.217768 60.033853 24.854894 59.896484 24.509766 L 57.414062 18.271484 C 57.120171 17.533105 56.289159 17.174858 55.550781 17.46875 L 50.15625 19.615234 A 21.999887 21.999887 0 0 0 45.207031 14.441406 z M 10.263672 28.857422 A 21.999887 21.999887 0 0 0 10 32 A 21.999887 21.999887 0 0 0 10.025391 32.46875 A 21.999887 21.999887 0 0 1 10.396484 28.914062 L 10.263672 28.857422 z M 53.837891 29.466797 L 53.710938 29.517578 A 21.999887 21.999887 0 0 1 53.974609 32.53125 A 21.999887 21.999887 0 0 0 54 32 A 21.999887 21.999887 0 0 0 53.837891 29.466797 z M 10.162109 35.535156 L 4.9042969 37.626953 C 4.1755481 37.917012 3.8223376 38.729912 4.0957031 39.460938 C 4.2316971 39.094843 4.5110463 38.783476 4.9042969 38.626953 L 10.289062 36.484375 A 21.999887 21.999887 0 0 1 10.162109 35.535156 z M 53.736328 36.142578 A 21.999887 21.999887 0 0 1 53.603516 37.085938 L 58.927734 39.378906 C 59.301513 39.53985 59.568828 39.839994 59.701172 40.191406 C 59.964509 39.478978 59.633838 38.682946 58.927734 38.378906 L 53.736328 36.142578 z M 18.791016 50.560547 L 16.820312 55.138672 C 16.666957 55.494823 16.670772 55.876098 16.796875 56.210938 C 16.80576 56.186899 16.810054 56.162497 16.820312 56.138672 L 19.115234 50.806641 A 21.999887 21.999887 0 0 1 18.791016 50.560547 z M 44.691406 50.923828 A 21.999887 21.999887 0 0 1 44.384766 51.15625 L 46.53125 56.550781 C 46.535058 56.56035 46.535472 56.57048 46.539062 56.580078 C 46.658869 56.258783 46.668618 55.895909 46.53125 55.550781 L 44.691406 50.923828 z"/>
</svg>
