<svg width="64" height="64" version="1.1" xmlns="http://www.w3.org/2000/svg">
 <path d="m29 5-3 13-5 7h4l-2.8 6.6-4.2 2.4h-4.2l-5.8 6 7.2 2.8-1.4 2.8-5.8 3.4v6l14-4 10-3 10 3 14 4v-6l-5.8-3.4-1.4-2.8 7.2-2.8-5.8-6h-4.2l-4.2-2.4-2.8-6.6h4l-5-7-3-13z" style="opacity:.2"/>
 <path d="m29 4-3 13-5 7h4l-2.8 6.6-4.2 2.4h-4.2l-5.8 6 7.2 2.8-1.4 2.8-5.8 3.4v6l14-4 10-3 10 3 14 4v-6l-5.8-3.4-1.4-2.8 7.2-2.8-5.8-6h-4.2l-4.2-2.4-2.8-6.6h4l-5-7-3-13z" style="fill:#54d032"/>
 <path d="m30 12-2 15h8l-2-15v13h-4zm-5 15-1 8-5 5 7-4 1-9zm12 0 1 9 7 4-5-5-1-8z" style="opacity:.2"/>
 <path d="m30 11-2 15h8l-2-15v13h-4zm-5 15-1 8-5 5 7-4 1-9zm12 0 1 9 7 4-5-5-1-8z" style="fill:#b2bfd9"/>
 <path d="m32 43c-11.2 0-20 3.999609-20 9.599609 0 3.131886 2.608385 4.937598 6.111328 5.982422 1.128864 1.460843 3.046364 2.417969 5.433594 2.417969 1.485592 0 2.861783-0.415996 3.998047-1.101562 1.603002 0.06838 3.149049 0.101562 4.457031 0.101562s2.854029-0.033182 4.457031-0.101562c1.136264 0.685566 2.512455 1.101562 3.998047 1.101562 2.387231 2e-6 4.304729-0.957125 5.433594-2.417969 3.502943-1.044824 6.111328-2.850536 6.111328-5.982422 0-5.6-8.8-9.599609-20-9.599609z" style="opacity:.2"/>
 <path d="m12 51.6c0-5.6 8.8-9.6 20-9.6s20 4 20 9.6c0 7-13 7.4-20 7.4s-20-0.4-20-7.4z" style="fill:#b2bfd9"/>
 <path d="m32 44c-3.891096 0-7.044921 2.837184-7.044922 5.966797 0.0013 0.03875 0.00356 0.078467 0.00586 0.117187-0.465452-0.07701-0.94082-0.116919-1.416016-0.117187-3.891097 0-6.544923 2.237573-6.544922 5.367187 0 0.710653 0.143259 1.386895 0.400391 2.013672 3.350886 1.147885 7.683971 1.502942 11.376953 1.605469 1.123803-1.073627 1.814452-2.462629 1.814453-3.919922-0.0013-0.03875-0.003559-0.078467-0.005859-0.117187 0.465462 0.07701 0.938854 0.116921 1.414062 0.117187 0.476352-0.0019 0.951852-0.044033 1.417969-0.123047-0.0033 0.04056-0.007566 0.082443-0.009766 0.123047 1e-6 1.457293 0.69065 2.846295 1.814453 3.919922 3.692982-0.102527 8.026067-0.457584 11.376953-1.605469 0.257133-0.626778 0.400391-1.303019 0.400391-2.013672 1e-6 -3.129614-2.653826-5.367187-6.544922-5.367187-0.476352 0.0019-0.951852 0.044029-1.417969 0.123047 0.0033-0.04056 0.005613-0.082439 0.007813-0.123047-2e-6 -3.129627-3.153808-5.966816-7.044922-5.966797z" style="opacity:.2"/>
 <path d="m31.999999 43c-3.891096 0-7.045453 2.837513-7.045454 5.967126 0.0013 0.03875 0.0032 0.07749 0.0055 0.11621-0.465451-0.07701-0.939395-0.115942-1.414591-0.11621-3.891097 0-6.545455 2.236594-6.545454 5.366208 1e-6 3.129613 2.654358 5.666666 6.545454 5.666666 3.891097 0 7.045454-2.837514 7.045455-5.967128-0.0013-0.03875-0.0032-0.07749-0.0055-0.11621 0.465463 0.07701 0.939418 0.115944 1.414626 0.11621 0.476352-0.0019 0.951231-0.04273 1.417348-0.121744-0.0033 0.04056-0.0061 0.08114-0.0083 0.121744 1e-6 3.129614 3.154358 5.967128 7.045455 5.967128 3.891099 3e-6 6.545461-2.537051 6.545462-5.666666 1e-6 -3.129614-2.654358-5.366208-6.545454-5.366208-0.476352 0.0019-0.951231 0.04273-1.417348 0.121748 0.0033-0.04056 0.0061-0.08114 0.0083-0.121748-2e-6 -3.129627-3.154385-5.967145-7.045499-5.967126z" style="fill:#54d032"/>
 <path d="m32 48a3 2 0 0 0-3 2 3 2 0 0 0 3 2 3 2 0 0 0 3-2 3 2 0 0 0-3-2zm-8 6a3 2 0 0 0-3 2 3 2 0 0 0 3 2 3 2 0 0 0 3-2 3 2 0 0 0-3-2zm16 0a3 2 0 0 0-3 2 3 2 0 0 0 3 2 3 2 0 0 0 3-2 3 2 0 0 0-3-2z" style="opacity:.2"/>
 <path d="m32 47a3 2 0 0 0-3 2 3 2 0 0 0 3 2 3 2 0 0 0 3-2 3 2 0 0 0-3-2zm-8 6a3 2 0 0 0-3 2 3 2 0 0 0 3 2 3 2 0 0 0 3-2 3 2 0 0 0-3-2zm16 0a3 2 0 0 0-3 2 3 2 0 0 0 3 2 3 2 0 0 0 3-2 3 2 0 0 0-3-2z" style="fill:#b2bfd9"/>
 <path d="m29 4-3 13-5 7h0.714844l4.285156-6 3-13h6l3 13 4.285156 6h0.714844l-5-7-3-13h-6zm-4.423828 21-2.376953 5.599609-4.199219 2.400391h-4.199219l-5.800781 6 0.703125 0.273438 5.097656-5.273438h4.199219l4.199219-2.400391 2.800781-6.599609h-0.423828zm14.423828 0 2.800781 6.599609 4.199219 2.400391h4.199219l5.097656 5.273438 0.703125-0.273438-5.800781-6h-4.199219l-4.199219-2.400391-2.376953-5.599609h-0.423828zm-24.21875 17.638672-0.980469 1.960937-5.800781 3.400391v1l5.800781-3.400391 1.398438-2.798828-0.417969-0.162109zm34.4375 0-0.417969 0.162109 1.398438 2.798828 5.800781 3.400391v-1l-5.800781-3.400391-0.980469-1.960937z" style="fill:#8b9cbe;opacity:.2"/>
 <path d="m32 42c-11.2 0-20 3.999609-20 9.599609 0 0.161044 0.013814 0.314618 0.027344 0.46875 0.538354-5.319558 9.130722-9.068359 19.972656-9.068359s19.434302 3.748801 19.972656 9.068359c0.01353-0.154132 0.027344-0.307706 0.027344-0.46875 0-5.6-8.8-9.599609-20-9.599609z" style="fill:#8b9cbe;opacity:.2"/>
 <path d="m32 43c-3.891096 0-7.044921 2.837184-7.044922 5.966797 0.0013 0.03875 0.00356 0.078467 0.00586 0.117187-0.465452-0.07701-0.94082-0.116919-1.416016-0.117187-3.891097 0-6.544923 2.237573-6.544922 5.367187 0 0.169174 0.012055 0.334596 0.027344 0.5 0.268375-2.864511 2.837529-4.867187 6.517578-4.867187 0.475196 2.68e-4 0.950564 0.040177 1.416016 0.117187-0.0023-0.03872-0.00456-0.078437-0.00586-0.117187 1e-6 -3.129613 3.153826-5.966797 7.044922-5.966797 3.891114-1.9e-5 7.04492 2.83717 7.044922 5.966797-0.0022 0.040608-0.004513 0.082487-0.007813 0.123047 0.466117-0.079018 0.941617-0.121147 1.417969-0.123047 3.680048 0 6.249203 2.002676 6.517578 4.867187 0.015289-0.165404 0.027344-0.330825 0.027344-0.5 1e-6 -3.129614-2.653826-5.367187-6.544922-5.367187-0.476352 0.0019-0.951852 0.044029-1.417969 0.123047 0.0033-0.04056 0.005613-0.082439 0.007813-0.123047-2e-6 -3.129627-3.153808-5.966816-7.044922-5.966797z" style="fill:#8b9cbe;opacity:.2"/>
</svg>
