<svg xmlns="http://www.w3.org/2000/svg" width="64" height="64" version="1.1">
 <g transform="translate(0,-988.3622)">
  <path style="opacity:.2" d="m10.004936 1024.8564c-0.077981-5.7932 0.912465-11.3042 2.940033-16.3594 2.540419-6.4116 6.245501-12.9522 12.802872-14.7182 1.511331-0.3866 6.058244-0.561 6.345091-0.2742 0.07266 0.072-0.478297 0.8012-1.224486 1.6188-1.604949 1.75841-3.892632 4.12345-4.465303 6.3624-0.524302 2.0502-0.518548 2.633 0.05908 3.0102 1.255886 0.8202 11.664581 1.41 12.969733 0.6956 0.260134-0.142 1.124077-0.6306 1.91988-1.4266 1.823756-1.8234 5.098187-3.83035 7.514956-4.20275 1.736844-0.2676 4.994864-0.046 5.130566 0.3652 0.04312 0.12995-0.529847 0.67155-1.27329 1.20215-1.496001 1.0676-3.223019 2.5164-3.7161 3.5554-0.299124 0.6302-0.285082 0.8196 0.19826 2.6732 0.763101 2.926 1.056794 6.983 0.750613 10.5556-0.333622 3.8928-1.420135 11.1558-2.267976 15.161-2.140143 10.1096-6.054811 14.9588-11.733657 16.1514-1.374634 0.2886-5.16406 0.028-5.16406 0.028-13.59554-0.753-20.531042-12.3904-20.786276-24.3982z"/>
  <path style="fill:#4f4f4f" d="m10.004936 1023.8564c-0.077981-5.7932 0.912465-11.3042 2.940033-16.3594 2.540419-6.4116 6.245501-12.95225 12.802872-14.71825 1.511331-0.3866 6.058244-0.561 6.345091-0.2742 0.07266 0.072-0.478297 0.8012-1.224486 1.6188-1.604949 1.7584-3.892632 4.12341-4.465303 6.36245-0.524302 2.0502-0.518548 2.633 0.05908 3.0102 1.255886 0.8202 11.664581 1.41 12.969733 0.6956 0.260134-0.142 1.124077-0.6306 1.91988-1.4266 1.823756-1.8234 5.098187-3.83044 7.514956-4.20284 1.736844-0.2676 4.994864-0.046 5.130566 0.3652 0.04312 0.13-0.529847 0.6716-1.27329 1.20224-1.496001 1.0676-3.223019 2.5164-3.7161 3.5554-0.299124 0.6302-0.285082 0.8196 0.19826 2.6732 0.763101 2.926 1.056794 6.983 0.750613 10.5556-0.333622 3.8928-1.420135 11.1558-2.267976 15.161-2.140143 10.1096-6.054811 14.9588-11.733657 16.1514-1.374634 0.2886-5.16406 0.028-5.16406 0.028-13.59554-0.753-20.531042-12.3904-20.786276-24.3982z"/>
  <circle style="opacity:.2" cx="27.001" cy="1034.362" r="3"/>
  <circle style="fill:#8b9cbe" cx="27.001" cy="1033.362" r="3"/>
  <circle style="opacity:.2" cx="43.001" cy="1036.362" r="3"/>
  <circle style="fill:#8b9cbe" cx="43.001" cy="1035.362" r="3"/>
  <path style="opacity:.1;fill:#8b9cbe" transform="translate(0,988.3622)" d="m31.193359 4.0097656c-1.470676-0.0538219-4.311814 0.1163-5.445312 0.40625-6.557371 1.766-10.262316 8.3071504-12.802735 14.71875-2.027568 5.0552-3.0174336 10.566175-2.939453 16.359375h-0.001953c0.001194 0.056177 0.008279 0.111808 0.009766 0.167968 0.023721-5.487753 1.001781-10.715754 2.93164-15.527343 2.540419-6.4116 6.245364-12.95275 12.802735-14.71875 1.223985-0.3130969 4.40568-0.4822965 5.736328-0.384766 0.37714-0.4617428 0.657685-0.8408003 0.609375-0.8886719-0.071712-0.0717-0.410165-0.1148718-0.900391-0.1328125zm19.189453 6.0761724c-0.551803 0.010431-1.081414 0.046381-1.515624 0.113281-2.416769 0.3724-5.691869 2.379725-7.515626 4.203125-0.795802 0.796-1.659787 1.285734-1.919921 1.427734-1.305152 0.7144-11.712864 0.124888-12.96875-0.695312-0.188509-0.123099-0.310758-0.275578-0.378907-0.486328-0.121778 0.84001-0.013154 1.230306 0.378907 1.486328 1.255886 0.8202 11.663598 1.409712 12.96875 0.695312 0.260134-0.142 1.124119-0.631734 1.919921-1.427734 1.823757-1.8234 5.098857-3.830725 7.515626-4.203125 1.281904-0.197507 3.378911-0.125169 4.451171 0.089843 0.401874-0.337195 0.709075-0.63601 0.679688-0.724609-0.101777-0.3084-1.959824-0.509809-3.615235-0.478515zm-1.49414 6.550781c-0.144804 0.439243-0.075438 0.849174 0.318359 2.359375 0.530585 2.034451 0.82651 4.61617 0.859375 7.201172 0.042848-2.910297-0.260141-5.903496-0.859375-8.201172-0.164658-0.63146-0.256456-1.030966-0.318359-1.359375z"/>
 </g>
</svg>
