<svg xmlns="http://www.w3.org/2000/svg" width="64" height="64" version="1">
 <g>
  <path style="opacity:0.2" d="M 54.010765,7.2401554 24.06068,14.145149 c -4.221512,0.532153 -4.060689,4.854879 -4.060689,4.854879 v 3.999997 14.429678 c -0.975385,-0.280958 -1.984963,-0.42556 -2.999998,-0.429688 -6.075128,0 -10.9999924,4.924865 -10.9999924,10.999993 C 6.0000006,54.075135 10.924865,59 16.999993,59 c 5.685644,-0.0028 10.432335,-4.337893 10.94921,-9.999993 h 0.05078 V 48.000008 21.316432 L 49.99997,16.083911 v 15.345796 c -0.975386,-0.280958 -1.984963,-0.425559 -2.999998,-0.429687 -6.075128,0 -10.999992,4.924864 -10.999992,10.999992 0,6.075128 4.924864,10.999992 10.999992,10.999992 5.685644,-0.0028 10.432335,-4.337893 10.94921,-9.999993 h 0.05078 V 14.400318 11.000034 c 0,0 0.05206,-4.6106686 -3.989199,-3.7598786 z"/>
  <path style="fill:#3c8cf8" d="M 54.010765,6.2401568 24.06068,13.14515 c -4.221512,0.532153 -4.060689,4.854879 -4.060689,4.854879 v 3.999998 14.429677 c -0.975385,-0.280957 -1.984963,-0.425559 -2.999998,-0.429687 -6.075128,0 -10.9999924,4.924864 -10.9999924,10.999992 0,6.075128 4.9248644,10.999992 10.9999924,10.999992 5.685644,-0.0028 10.432335,-4.337893 10.94921,-9.999993 h 0.05078 V 47.000009 20.316434 L 49.99997,15.083912 v 15.345797 c -0.975386,-0.280958 -1.984963,-0.42556 -2.999998,-0.429688 -6.075128,0 -10.999992,4.924865 -10.999992,10.999992 0,6.075128 4.924864,10.999993 10.999992,10.999993 5.685644,-0.0028 10.432335,-4.337893 10.94921,-9.999993 h 0.05078 V 13.40032 10.000035 c 0,0 0.05206,-4.6106682 -3.989199,-3.7598782 z"/>
  <path style="opacity:0.2;fill:#8b9cbe" d="m 54.720703,6.1425781 c -0.221612,0.012966 -0.456406,0.044482 -0.708984,0.097656 L 24.060547,13.144531 C 19.839035,13.676684 20,18 20,18 v 1 c 0,0 -0.160965,-4.323316 4.060547,-4.855469 L 54.011719,7.2402344 C 58.052978,6.3894444 58,11 58,11 v -1 c 0,0 0.04488,-4.0519081 -3.279297,-3.8574219 z M 47,30 c -6.075128,0 -11,4.924873 -11,11 0,0.168757 0.01787,0.333099 0.02539,0.5 C 36.288568,35.658592 41.093629,31 47,31 c 1.015035,0.0041 2.024614,0.14873 3,0.429688 v -1 C 49.024614,30.14873 48.015035,30.004128 47,30 Z M 17,36 C 10.924872,36 6,40.924872 6,47 6,47.168757 6.017871,47.333099 6.025391,47.5 6.288568,41.658591 11.093629,37 17,37 c 1.015035,0.0041 2.024615,0.14873 3,0.429688 v -1 C 19.024615,36.14873 18.015035,36.004128 17,36 Z"/>
 </g>
 <circle style="fill:#f5c839" cx="48" cy="46" r="16"/>
 <path style="opacity:0.2" d="M 63.958,46.848 A 16,16 0 0 1 48,62 16,16 0 0 1 32.042,47.152 16,16 0 0 0 32,48 16,16 0 0 0 48,64 16,16 0 0 0 64,48 16,16 0 0 0 63.95704,46.84766 Z"/>
 <g style="fill:#8b9cbe" transform="matrix(2,0,0,2,4,0)">
  <rect width="2" height="10" x="19" y="18"/>
  <rect width="2" height="10" x="23" y="18"/>
 </g>
 <g style="fill:#8b9cbe" transform="matrix(0,2,-2,0,94,2)">
  <rect width="2" height="10" x="19" y="18"/>
  <rect width="2" height="10" x="23" y="18"/>
 </g>
</svg>
