<svg xmlns="http://www.w3.org/2000/svg" width="64" height="64" version="1.1">
 <path style="opacity:0.2" d="M 22.267014,5.0014194 A 0.75004314,0.75004314 0 0 0 21.61665,6.1556672 l 2.537004,4.0779518 A 14.999363,14.999363 0 0 0 16.99966,23.000655 14.999363,14.999363 0 0 0 31.999023,38.000018 14.999363,14.999363 0 0 0 46.998386,23.000655 14.999363,14.999363 0 0 0 39.841464,10.236548 l 2.53993,-4.0808808 A 0.75004314,0.75004314 0 0 0 41.73103,5.0014194 0.75004314,0.75004314 0 0 0 41.109964,5.3646852 L 38.526088,9.515876 A 14.999363,14.999363 0 0 0 31.999023,8.0012921 14.999363,14.999363 0 0 0 25.469026,9.510017 L 22.88808,5.3646852 A 0.75004314,0.75004314 0 0 0 22.267014,5.0014194 Z"/>
 <path style="opacity:0.2" d="M 55,52.999002 H 13.618298 c -2.548507,-0.01626 -4.608112,-2.060473 -4.6162769,-4.58179 v -32.01715 c -0.014379,2.658727 2.2486139,4.763289 4.9310329,4.600298 H 48.255439 C 50.998216,21.00036 55,20.829648 55,26.060316 Z"/>
 <path style="fill:#0a455f" d="M 25.867409,12.001122 H 13.529694 a 4.5423844,4.0062911 0 0 0 -4.5277159,4.006292 4.3958556,3.877056 0 0 0 4.3958589,3.993368 h 12.601441 z"/>
 <path style="opacity:0.2" d="m 13.53125,12.000953 a 4.5423844,4.0062911 0 0 0 -4.5273438,4.007813 4.3958556,3.877056 0 0 0 0.033203,0.554687 4.5423844,4.0062911 0 0 1 4.4941406,-3.5625 h 12.335938 l 0.117187,7 H 26 l -0.132812,-8 z"/>
 <path style="fill:#3ddc84" d="M 22.267014,3.0015043 A 0.75004314,0.75004314 0 0 0 21.61665,4.1557521 l 2.537004,4.0779517 A 14.999363,14.999363 0 0 0 16.99966,21.00074 14.999363,14.999363 0 0 0 31.999023,36.000103 14.999363,14.999363 0 0 0 46.998386,21.00074 14.999363,14.999363 0 0 0 39.841464,8.2366335 l 2.53993,-4.0808814 A 0.75004314,0.75004314 0 0 0 41.73103,3.0015043 0.75004314,0.75004314 0 0 0 41.109964,3.3647701 L 38.526088,7.5159609 A 14.999363,14.999363 0 0 0 31.999023,6.001377 14.999363,14.999363 0 0 0 25.469026,7.5101019 L 22.88808,3.3647701 A 0.75004314,0.75004314 0 0 0 22.267014,3.0015043 Z"/>
 <path style="opacity:0.2;fill:#8b9cbe" d="m 22.267578,3.0009533 a 0.75004314,0.75004314 0 0 0 -0.65039,1.1542969 l 0.06445,0.1035156 a 0.75004314,0.75004314 0 0 1 0.585937,-0.2578125 0.75004314,0.75004314 0 0 1 0.621094,0.3632813 L 25.46875,8.510719 a 14.999363,14.999363 0 0 1 6.529297,-1.5097657 14.999363,14.999363 0 0 1 6.527344,1.515625 l 2.583984,-4.1523437 a 0.75004314,0.75004314 0 0 1 0.621094,-0.3632813 0.75004314,0.75004314 0 0 1 0.585937,0.2597657 l 0.06445,-0.1054688 A 0.75004314,0.75004314 0 0 0 41.730469,3.0009533 0.75004314,0.75004314 0 0 0 41.109375,3.3642346 L 38.525391,7.5165783 A 14.999363,14.999363 0 0 0 31.998047,6.0009533 14.999363,14.999363 0 0 0 25.46875,7.510719 L 22.888672,3.3642346 A 0.75004314,0.75004314 0 0 0 22.267578,3.0009533 Z M 40.28125,8.5302502 39.841797,9.2372814 A 14.999363,14.999363 0 0 1 46.976562,21.59275 14.999363,14.999363 0 0 0 46.998047,21.000953 14.999363,14.999363 0 0 0 40.28125,8.5302502 Z m -16.5625,0.00195 A 14.999363,14.999363 0 0 0 17,21.000953 a 14.999363,14.999363 0 0 0 0.02148,0.433594 14.999363,14.999363 0 0 1 7.132813,-12.2011718 z"/>
 <path style="fill:#4285f4" d="M 55,51.999424 H 13.618298 C 11.069791,51.983167 9.010186,49.938951 9.0020211,47.417634 V 15.400485 c -0.014379,2.658726 2.2486139,4.763288 4.9310329,4.600297 H 48.255439 C 50.998216,20.000782 55,19.830068 55,25.060737 Z"/>
 <path style="opacity:0.2" d="m 26.573471,13.000601 a 1.4508502,1.4583607 0 0 0 -1.148387,0.535134 1.4329384,1.4403562 0 0 0 1.023393,2.464739 1.4150267,1.4223518 0 0 0 1.019488,-0.414045 1.4508502,1.4583607 0 0 0 -0.894494,-2.585828 z m 10.952661,0 a 1.5009771,1.5142115 0 0 0 -1.085892,0.437482 1.4824465,1.4955175 0 0 0 1.074173,2.562391 1.4824465,1.4955175 0 0 0 1.484313,-1.49603 1.5009771,1.5142115 0 0 0 -1.472594,-1.503843 z"/>
 <path style="fill:#8b9cbe" d="m 37.516275,15.000994 a 1.4824465,1.4955175 0 0 1 -1.074751,-2.56107 1.5009771,1.5142115 0 0 1 2.557196,1.065556 1.4824465,1.4955175 0 0 1 -1.482445,1.495514"/>
 <path style="fill:#073042" d="m 33.513037,30.533561 a 2.4858581,2.5152798 0 1 0 0.953873,4.825827 2.4714057,2.5006562 0 0 0 -0.953873,-4.825827 z"/>
 <path style="fill:#8b9cbe" d="m 26.447851,15.000994 a 1.4329384,1.4403562 0 0 1 -1.020961,-2.466607 1.4508502,1.4583607 0 1 1 2.041967,2.052507 1.4150267,1.4223518 0 0 1 -1.021006,0.4141"/>
 <path style="opacity:0.1" d="m 31.9834,26.984482 a 1.0000575,1.0000575 0 0 0 -0.984335,1.015581 v 1.101515 a 4.9997878,4.9997878 0 0 0 -3.99983,4.898231 4.9997878,4.9997878 0 0 0 1.777269,3.816244 l -9.530846,19.924936 c -0.379691,0.734259 -0.314333,1.606108 0.171873,2.281153 0.493299,0.668733 1.31992,1.037344 2.17569,0.968709 0.856043,-0.0782 1.601752,-0.593721 1.945229,-1.343693 l 6.679404,-13.495521 c 0.322101,-0.627072 0.988885,-1.040014 1.722583,-1.042924 0.02044,-6e-5 0.03826,0.0074 0.0586,0.0078 0.02036,-5.78e-4 0.03812,-0.0078 0.0586,-0.0078 0.733697,0.0028 1.400483,0.415852 1.722583,1.042924 l 6.679405,13.495521 c 0.343479,0.749972 1.089185,1.26549 1.945229,1.343693 0.855768,0.06864 1.682395,-0.299976 2.17569,-0.968709 0.486203,-0.675045 0.551556,-1.546894 0.171872,-2.281153 L 35.225448,37.819958 A 4.9997878,4.9997878 0 0 0 36.998811,33.999809 4.9997878,4.9997878 0 0 0 32.99898,29.109392 V 28.000063 A 1.0000575,1.0000575 0 0 0 31.9834,26.984482 Z m 0.01562,4.015454 a 2.9998727,2.9998727 0 0 1 2.999873,2.999873 2.9998727,2.9998727 0 0 1 -2.999873,2.999872 2.9998727,2.9998727 0 0 1 -2.999873,-2.999872 2.9998727,2.9998727 0 0 1 2.999873,-2.999873 z"/>
 <path style="fill:#0a455f" d="m 31.9834,25.984904 a 1.0000575,1.0000575 0 0 0 -0.984335,1.015581 V 28.102 a 4.9997878,4.9997878 0 0 0 -3.99983,4.89823 4.9997878,4.9997878 0 0 0 1.777269,3.816244 l -9.530846,19.924937 c -0.379691,0.734258 -0.314333,1.606107 0.171873,2.281153 0.493299,0.668733 1.31992,1.037344 2.17569,0.968709 0.856043,-0.0782 1.601752,-0.593721 1.945229,-1.343693 l 6.679404,-13.495521 c 0.322101,-0.627072 0.988885,-1.040014 1.722583,-1.042924 0.02044,-6e-5 0.03826,0.0074 0.0586,0.0078 0.02036,-5.78e-4 0.03812,-0.0078 0.0586,-0.0078 0.733697,0.0028 1.400483,0.415852 1.722583,1.042924 l 6.6794,13.495521 c 0.343479,0.749972 1.089185,1.26549 1.945229,1.343693 0.855768,0.06864 1.682395,-0.299976 2.17569,-0.968709 0.486203,-0.675046 0.551556,-1.546895 0.171872,-2.281153 L 35.225448,36.82038 A 4.9997878,4.9997878 0 0 0 36.998811,33.00023 4.9997878,4.9997878 0 0 0 32.99898,28.109814 V 27.000485 A 1.0000575,1.0000575 0 0 0 31.9834,25.984904 Z m 0.01562,4.015454 a 2.9998727,2.9998727 0 0 1 2.999873,2.999872 2.9998727,2.9998727 0 0 1 -2.999873,2.999873 2.9998727,2.9998727 0 0 1 -2.999873,-2.999873 2.9998727,2.9998727 0 0 1 2.999873,-2.999872 z"/>
 <path style="opacity:0.2" d="m 51.026589,29.000021 h -1.801347 c -0.125415,0 -0.226941,0.09481 -0.226941,0.226474 v 29.53383 c -2.4e-4,0.126075 0.093,0.230549 0.212765,0.238422 h 1.858077 c 2.172164,-0.0082 3.928918,-1.860525 3.928904,-4.142626 V 24.701719 c 6e-5,2.299599 -1.782675,4.314845 -3.971458,4.298302 z"/>
 <path style="fill:#0a455f" d="m 51.026589,28.000443 h -1.801347 c -0.125415,0 -0.226941,0.09481 -0.226941,0.226474 v 29.53383 c -2.4e-4,0.126075 0.093,0.230549 0.212765,0.238422 h 1.858077 c 2.172164,-0.0082 3.928918,-1.860525 3.928904,-4.142626 V 23.702141 c 6e-5,2.299599 -1.782675,4.314845 -3.971458,4.298302 z"/>
</svg>
