<svg xmlns="http://www.w3.org/2000/svg" width="64" height="64" version="1">
 <path style="opacity:0.2" d="m 60.000053,45.500234 0,1.999973 c 0,1.723977 -1.387182,3.433954 -3.109359,3.499953 l -25.889654,0 -6.999907,7.999893 -6.999906,-7.999893 -9.8898683,0 c -1.723977,0 -3.1099585,-1.775976 -3.1099585,-3.499953 l 0,-1.999973 c 0,1.723977 1.3859815,3.499953 3.1099585,3.499953 l 9.8898683,0 6.999906,7.999893 6.999907,-7.999893 25.889654,0 c 1.721977,-0.066 3.109959,-1.775976 3.109959,-3.499953 z"/>
 <path style="fill:#3a8268" d="m 56.888094,8.0007476 c 1.723577,0 3.111159,1.7763763 3.111159,3.4999534 l 0,34.999533 c 0,1.723977 -1.388782,3.433954 -3.111159,3.499953 l -25.887654,0 -6.999907,7.999893 -6.999906,-7.999893 -9.8886684,0 c -1.7239769,0 -3.1119584,-1.775976 -3.1119584,-3.499953 l 0,-34.999533 c -6e-4,-1.7235771 1.3873815,-3.4999534 3.1113585,-3.4999534 z"/>
 <g style="opacity:0.2" transform="matrix(1.9999733,0,0,1.9999733,2.5359178e-4,-0.999466)">
  <path d="m 10,11 0,-1 12,0 0,1 z"/>
  <path d="m 10,14 0,-1 12,0 0,1 z"/>
  <path d="m 10,17 0,-1 12,0 0,1 z"/>
  <path d="m 10,20 0,-1 8,0 0,1 z"/>
 </g>
 <g style="fill:#9dc1b4" transform="matrix(1.9999733,0,0,1.9999733,2.5359178e-4,-1.9991189)">
  <path d="m 10,11 0,-1 12,0 0,1 z"/>
  <path d="m 10,14 0,-1 12,0 0,1 z"/>
  <path d="m 10,17 0,-1 12,0 0,1 z"/>
  <path d="m 10,20 0,-1 8,0 0,1 z"/>
 </g>
 <path style="opacity:0.2;fill-rule:evenodd" d="M 63.958,45.848229 A 15.999786,15.999786 0 0 1 48.000213,61.000027 15.999786,15.999786 0 0 1 32.042426,46.152225 15.999786,15.999786 0 0 0 32.000426,47.000214 15.999786,15.999786 0 0 0 48.000213,63 15.999786,15.999786 0 0 0 63.999999,47.000214 15.999786,15.999786 0 0 0 63.95704,45.847889 Z"/>
 <path style="opacity:0.1;fill:#8b9cbe" d="M 7.109375 8 C 5.385398 8 4 9.7764229 4 11.5 L 4 12.501953 C 4 10.778376 5.385398 9.0019531 7.109375 9.0019531 L 56.888672 9.0019531 L 56.890625 9.0019531 C 58.614202 9.0019531 60 10.778376 60 12.501953 L 60 11.5 C 60 9.7764229 58.614202 8 56.890625 8 L 56.888672 8 L 7.109375 8 z"/>
 <circle style="fill:#772bbe" cx="48" cy="46" r="16"/>
 <path style="fill:#8b9cbe" d="m 40.00032,50.436181 0,3.563952 3.563752,0 9.00068,-9.000679 -3.563753,-3.563753 z m 15.71699,-8.578085 c 0.376955,-0.376935 0.376955,-0.970887 0,-1.347842 l -2.227371,-2.227371 c -0.376954,-0.376955 -0.970907,-0.376955 -1.347842,0 l -1.861975,1.873975 3.563953,3.563953 z"/>
</svg>
