<svg xmlns="http://www.w3.org/2000/svg" width="64" height="64" version="1">
 <path style="opacity:0.2" d="m 58.96073,4.9987266 c -1.179976,-0.00508 -3.411179,0.2301556 -5.914016,0.5976516 -0.159379,0.023402 -0.306617,0.074635 -0.460934,0.1093731 -2.922708,0.4347431 -6.085685,0.9983063 -8.449155,1.6054564 -0.69451,0.1784126 -1.382835,0.3627872 -2.062484,0.5546833 -0.507638,0.1433289 -0.97378,0.3062788 -1.46483,0.4570277 -0.452695,0.1365369 -0.901949,0.2754138 -1.347648,0.4179655 -0.29188,0.096555 -0.589125,0.1897746 -0.874993,0.2890603 -2.122028,0.70483 -4.164098,1.4776405 -6.117139,2.3163875 v -0.01172 c -0.105119,0.04518 -0.203968,0.09507 -0.308591,0.140623 -0.172199,0.0749 -0.352604,0.142831 -0.523434,0.218748 -0.248272,0.110334 -0.466169,0.228065 -0.707027,0.339842 -12.690996,5.818391 -21.4965788,14.468247 -24.9685555,24.917776 -0.912404,2.746031 -1.4878241,6.033756 -1.6679559,8.812432 -0.0152,0.08188 -0.046108,0.166659 -0.050782,0.246092 -0.0108,0.183459 0.00304,0.32594 -0.0039,0.503902 -0.0036,0.09232 -0.01696,0.198299 -0.01954,0.289062 l 0.01954,-0.0078 c -0.039718,1.452347 0.025112,2.745209 0.2773417,3.574191 0.8808605,2.895049 2.8189971,5.108098 5.8749547,6.785103 0.07895,0.04698 0.119671,0.09824 0.20703,0.144539 0.884579,0.468688 1.860164,0.894617 2.933571,1.277332 2.613357,0.931775 6.417004,1.666653 10.331951,2.085922 0.169479,0.0286 0.294072,0.07426 0.488278,0.09374 0.790188,0.07934 1.58347,0.146559 2.371076,0.195318 2.57074,0.159179 8.813971,-0.09504 10.87101,-0.441402 7.3948,-1.245066 13.37706,-4.575971 17.148303,-9.550706 2.760924,-3.641996 4.485525,-8.587406 3.378881,-9.691331 -0.393427,-0.392461 -0.829975,-0.237782 -1.523426,0.542964 -1.476122,1.661941 -4.35667,3.517063 -6.984322,4.613246 -1.7004,0.685261 -4.862752,1.225771 -6.62786,0.984366 l 0.515622,-1.79686 1.164053,-1.574207 c 0.399277,-0.02238 1.413135,-0.05366 1.842741,-0.09374 3.267321,-0.304813 7.068088,-3.496227 9.015555,-6.218702 2.253698,-3.150569 3.828784,-7.773187 3.894501,-11.421785 0.02934,-1.628879 -0.03426,-2.087964 -0.332029,-2.386701 -0.08644,-0.08672 -0.156519,-0.146819 -0.22656,-0.175779 -0.210093,-0.0869 -0.421433,0.124879 -1.082024,0.878899 -3.328214,3.694765 -8.335023,7.355265 -12.339746,9.523364 l -2.050772,-1.277362 0.707026,-1.835924 c 1.828528,-1.067957 4.222601,-2.550966 5.925734,-3.714815 0.08428,-0.05814 0.162759,-0.124179 0.246092,-0.183598 0.0017,-0.005 0.0022,-0.0106 0.004,-0.0156 5.65243,-4.036733 9.111042,-11.059504 9.8593,-20.101406 C 60.055286,5.4950636 60.024847,5.186616 59.738168,5.07687 59.599129,5.023644 59.333261,5.000349 58.96083,4.998745 Z"/>
 <path style="fill:#d81b60" d="M 58.958892,3.9985118 C 57.778916,3.9934355 55.549983,4.230063 53.047144,4.597559 50.020264,5.0420011 47.941284,7.6393222 45.484123,8.2705301 25.562873,13.388003 12.067663,22.133697 7.4770692,35.949686 c -1.5337671,4.616052 -0.9836078,9.79755 -0.2178535,12.314253 1.1541352,3.79313 6.7629413,5.830976 11.7124003,7.595635 2.723741,0.971112 1.091756,3.486259 5.180576,3.896784 0.790188,0.07934 1.583424,0.144178 2.37103,0.192938 2.57074,0.159179 8.815009,-0.09388 10.872047,-0.440235 7.394801,-1.245066 13.376295,-4.576436 17.147538,-9.551172 2.760924,-3.641995 4.486385,-8.586701 3.379741,-9.690626 -0.393425,-0.392461 -0.832355,-0.236605 -1.525806,0.544141 -1.476122,1.661941 -4.355268,3.517299 -6.98292,4.613483 -1.7004,0.68526 -4.261413,1.223388 -6.026521,0.981984 l 0.515772,-1.794474 1.162641,-1.573676 c 0.399277,-0.02238 0.813182,-0.05328 1.242788,-0.09336 3.267321,-0.304814 7.066148,-3.496633 9.013615,-6.219108 2.253698,-3.15057 3.830828,-7.772888 3.896545,-11.421485 0.02934,-1.62888 -0.03584,-2.088372 -0.333599,-2.38711 -0.08644,-0.08672 -0.156919,-0.148779 -0.226954,-0.177739 -0.210093,-0.0869 -0.419507,0.126459 -1.080098,0.88047 -3.328214,3.694765 -8.334137,7.353645 -12.33886,9.521744 l -2.05306,-1.276814 0.710088,-1.834156 c 1.828528,-1.067958 4.221155,-2.553566 5.924288,-3.717415 5.807627,-4.004951 9.349418,-11.119482 10.109146,-20.300002 0.125719,-1.5192914 0.09526,-1.8261916 -0.191419,-1.9359376 -0.139039,-0.053226 -0.406879,-0.077693 -0.77931,-0.079295 z"/>
 <path style="fill:#fd5450" d="m 53.836538,4.5071057 c -3.222475,0.4447477 -7.004084,1.1089998 -9.701563,1.8019532 -0.69451,0.1784128 -1.381661,0.36362 -2.06131,0.5555159 C 23.258705,12.176891 15.953055,22.615369 11.522576,35.949686 9.9888329,40.565738 8.087162,46.973157 8.8529061,49.489857 c 0.9038158,2.970489 -1.6503548,5.117818 1.5437829,6.810207 0.884579,0.468689 1.862144,0.893081 2.93555,1.275796 2.991173,1.066482 7.530631,1.902006 12.025782,2.266797 C 35.290762,52.540551 42.518,43.14453 47.449706,31.84593 c -0.743989,0.461192 -1.485649,0.902791 -2.212109,1.296094 l -2.050782,-1.276954 0.708202,-1.834766 c 1.8285,-1.067958 4.221617,-2.552706 5.924726,-3.716555 0.08428,-0.05814 0.162759,-0.123779 0.246092,-0.183199 2.386182,-6.964679 3.658724,-14.262186 3.770703,-21.6234403 z"/>
 <path style="fill:#ff9e21" d="m 42.953726,6.6399184 c -4.115266,1.1172627 -7.963384,2.4761984 -11.514644,4.0543936 -13.085514,5.81526 -15.765667,13.62676 -19.303547,24.27464 -0.933904,2.81074 -7.9244755,7.220938 -8.090419,10.041686 -0.1065832,1.81174 -0.02759,3.37236 0.2718879,4.356628 0.9537084,3.134474 3.1296443,5.480682 6.6417971,7.199608 19.32425,-9.166803 31.739421,-28.540239 31.994925,-49.9269556 z"/>
 <path style="fill:#fdd835" d="M 32.270521,10.334059 C 18.743654,16.147048 9.3726563,25.079024 5.7607539,35.949686 4.7350302,39.03677 4.1053993,42.848061 4.0216913,45.80164 A 42.000002,42.000002 0 0 0 32.270521,10.334059 Z"/>
 <path style="opacity:0.2" d="M 30,23 A 15.999877,15.999877 0 0 0 14,39 15.999877,15.999877 0 0 0 30,55 15.999877,15.999877 0 0 0 46,39 15.999877,15.999877 0 0 0 30,23 Z m 0,3 A 13,13 0 0 1 43,39 13,13 0 0 1 30,52 13,13 0 0 1 17,39 13,13 0 0 1 30,26 Z"/>
 <path style="fill:#8b9cbe" d="M 30 22 A 15.999877 15.999877 0 0 0 14 38 A 15.999877 15.999877 0 0 0 30 54 A 15.999877 15.999877 0 0 0 46 38 A 15.999877 15.999877 0 0 0 30 22 z M 30 25 A 13 13 0 0 1 43 38 A 13 13 0 0 1 30 51 A 13 13 0 0 1 17 38 A 13 13 0 0 1 30 25 z"/>
 <path style="opacity:0.2" d="m 25.280513,31.000468 a 1.2512513,1.2688774 0 0 0 -1.28045,1.266766 v 6.732306 6.732307 a 1.2512513,1.2688774 0 0 0 1.876692,1.098264 l 5.749313,-3.366154 5.749316,-3.366152 a 1.2512513,1.2688774 0 0 0 0,-2.196525 l -5.749316,-3.366154 -5.749313,-3.366154 a 1.2512513,1.2688774 0 0 0 -0.596242,-0.168518 z"/>
 <path style="fill:#8b9cbe" d="m 25.280513,29.998576 a 1.2512513,1.2688774 0 0 0 -1.28045,1.266766 v 6.732306 6.732308 a 1.2512513,1.2688774 0 0 0 1.876692,1.098263 l 5.749313,-3.366153 5.749316,-3.366152 a 1.2512513,1.2688774 0 0 0 0,-2.196525 l -5.749316,-3.366154 -5.749313,-3.366154 a 1.2512513,1.2688774 0 0 0 -0.596242,-0.168519 z"/>
 <path style="opacity:0.2;fill:#8b9cbe" d="M 58.958984 3.9980469 C 57.779008 3.9929706 55.549714 4.2301603 53.046875 4.5976562 C 52.850149 4.6265418 52.657832 4.6649949 52.46875 4.7109375 C 49.581965 5.1435803 46.462877 5.710527 44.134766 6.3085938 C 43.440256 6.4870066 42.753868 6.6733385 42.074219 6.8652344 C 41.52782 7.0195076 41.023291 7.1926038 40.496094 7.3554688 C 40.114585 7.4711014 39.735903 7.5890694 39.359375 7.7089844 C 39.022741 7.8197391 38.680231 7.9266429 38.351562 8.0410156 C 36.241456 8.7429324 34.212376 9.5112779 32.269531 10.345703 A 42.000002 42.000002 0 0 0 32.271484 10.333984 C 32.166525 10.379089 32.067349 10.42913 31.962891 10.474609 C 31.79069 10.54951 31.610284 10.617442 31.439453 10.693359 C 31.193901 10.802484 30.97658 10.916808 30.738281 11.027344 C 18.042183 16.845766 9.2345599 25.497086 5.7617188 35.949219 C 4.8487638 38.696907 4.2734844 41.987875 4.09375 44.767578 C 4.0788636 44.848387 4.0495353 44.931345 4.0449219 45.009766 C 4.0051518 45.685792 4.0000229 46.309096 4.0136719 46.898438 C 4.0209201 46.607063 4.0268388 46.319101 4.0449219 46.011719 C 4.0495349 45.933298 4.078864 45.850341 4.09375 45.769531 C 4.2734844 42.989828 4.8487638 39.69886 5.7617188 36.951172 C 9.2345598 26.499039 18.042136 17.84772 30.738281 12.029297 C 30.97658 11.918761 31.193901 11.804438 31.439453 11.695312 C 31.610284 11.619396 31.79069 11.551462 31.962891 11.476562 C 32.067349 11.431088 32.166525 11.381037 32.271484 11.335938 A 42.000002 42.000002 0 0 1 32.269531 11.347656 C 34.212376 10.513231 36.241456 9.7448855 38.351562 9.0429688 C 38.680231 8.928596 39.022741 8.8216922 39.359375 8.7109375 C 39.735903 8.5910225 40.114585 8.4730545 40.496094 8.3574219 C 41.023291 8.1945569 41.52782 8.0214607 42.074219 7.8671875 C 42.753868 7.6752916 43.440256 7.4889597 44.134766 7.3105469 C 46.462877 6.7124801 49.581965 6.1455334 52.46875 5.7128906 C 52.657832 5.6669483 52.850149 5.6284954 53.046875 5.5996094 C 55.549714 5.2321135 57.779008 4.99492 58.958984 5 C 59.331415 5.001602 59.599242 5.0268521 59.738281 5.0800781 C 59.864189 5.1282781 59.933215 5.2351295 59.96875 5.4453125 C 60.032711 4.4531681 59.981049 4.171061 59.738281 4.078125 C 59.599242 4.024899 59.331415 3.9996489 58.958984 3.9980469 z M 58.494141 22.734375 C 58.31565 22.793175 58.073568 23.055586 57.578125 23.621094 C 54.838565 26.662373 50.968175 29.664461 47.449219 31.845703 C 46.70523 32.306895 45.964741 32.749275 45.238281 33.142578 L 43.5 32.058594 L 43.1875 32.867188 L 45.238281 34.144531 C 45.964741 33.751228 46.70523 33.308848 47.449219 32.847656 C 50.968175 30.666414 54.838565 27.664326 57.578125 24.623047 C 58.238716 23.869036 58.44811 23.655288 58.658203 23.742188 C 58.728238 23.771147 58.798326 23.833202 58.884766 23.919922 C 59.10506 24.140944 59.197049 24.456339 59.21875 25.261719 C 59.245783 23.67436 59.179381 23.213553 58.884766 22.917969 C 58.798326 22.831249 58.728238 22.769194 58.658203 22.740234 C 58.60568 22.718509 58.553637 22.714775 58.494141 22.734375 z M 57.449219 40.060547 C 57.163749 40.078669 56.829891 40.322581 56.396484 40.810547 C 54.920362 42.472488 52.041716 44.329597 49.414062 45.425781 C 47.799623 46.076399 45.416304 46.583776 43.667969 46.427734 L 43.386719 47.408203 C 45.151827 47.649607 47.713662 47.112994 49.414062 46.427734 C 52.041715 45.33155 54.920362 43.474441 56.396484 41.8125 C 57.089935 41.031754 57.52845 40.87707 57.921875 41.269531 C 58.074096 41.421378 58.167042 41.651786 58.216797 41.935547 C 58.299232 41.168955 58.223321 40.568284 57.921875 40.267578 C 57.774341 40.120405 57.620501 40.049674 57.449219 40.060547 z"/>
</svg>
