<svg xmlns="http://www.w3.org/2000/svg" width="64" height="64" version="1">
 <circle style="opacity:0.2" cx="32" cy="33" r="29"/>
 <circle style="fill:#f44336" cx="32" cy="32" r="29"/>
 <path style="opacity:0.2" d="M 31.953124,10 A 3.0003,2.9895796 0 0 0 29,13.03125 v 17.9375 a 3.0003,2.9895796 0 1 0 6,0 V 13.03125 A 3.0003,2.9895796 0 0 0 31.953124,10 Z m -9.972656,5 a 3.0006206,2.998966 0 0 0 -1.601562,0.523438 C 12.687063,20.631068 9.2330084,30.202568 11.886719,39.042968 14.540429,47.88337 22.69106,53.967782 31.925782,54 c 9.23472,0.03222 17.43304,-5.994738 20.148436,-14.816406 2.7154,-8.821672 -0.67605,-18.41695 -8.33203,-23.578125 a 3.0006206,2.998966 0 1 0 -3.35547,4.972657 c 5.48671,3.69879 7.895228,10.517732 5.94922,16.839842 -1.946008,6.32211 -7.768592,10.609028 -14.38672,10.585938 -6.618126,-0.0231 -12.414604,-4.351966 -14.316406,-10.6875 -1.901799,-6.335534 0.553996,-13.132552 6.066406,-16.792968 A 3.0006206,2.998966 0 0 0 21.980468,15 Z"/>
 <path style="fill:#8b9cbe" d="M 31.953124,9 A 3.0003,2.9895796 0 0 0 29,12.03125 v 17.9375 a 3.0003,2.9895796 0 1 0 6,0 V 12.03125 A 3.0003,2.9895796 0 0 0 31.953124,9 Z m -9.972656,5 a 3.0006206,2.998966 0 0 0 -1.601562,0.523438 C 12.687063,19.631067 9.2330084,29.202568 11.886719,38.042968 14.540429,46.88337 22.69106,52.967782 31.925782,53 c 9.23472,0.03222 17.43304,-5.994738 20.148436,-14.816406 2.7154,-8.821672 -0.67605,-18.416951 -8.33203,-23.578125 a 3.0006206,2.998966 0 1 0 -3.35547,4.972656 c 5.48671,3.698791 7.895228,10.517733 5.94922,16.839843 -1.946008,6.32211 -7.768592,10.609028 -14.38672,10.585938 -6.618126,-0.0231 -12.414604,-4.351966 -14.316406,-10.6875 -1.901799,-6.335534 0.553996,-13.132552 6.066406,-16.792968 A 3.0006206,2.998966 0 0 0 21.980468,14 Z"/>
 <path style="opacity:0.2;fill:#8b9cbe" d="M 32 3 A 29 29 0 0 0 3 32 A 29 29 0 0 0 3.0175781 32.488281 A 29 29 0 0 1 32 4 A 29 29 0 0 1 60.974609 32.494141 A 29 29 0 0 0 61 32 A 29 29 0 0 0 32 3 z"/>
</svg>
