<svg xmlns="http://www.w3.org/2000/svg" width="64" height="64" version="1">
 <circle style="opacity:0.2" cx="32" cy="33" r="29"/>
 <circle style="fill:#00bcd4" cx="32" cy="32" r="29"/>
 <path style="opacity:0.2" d="M 32,12 A 21,21 0 0 0 11,33 21,21 0 0 0 32,54 21,21 0 0 0 53,33 21,21 0 0 0 32,12 Z m 0,6 A 15,15 0 0 1 47,33 15,15 0 0 1 32,48 15,15 0 0 1 17,33 15,15 0 0 1 32,18 Z m -5.96875,12 a 2.9864372,3.0003 0 1 0 0,6 h 11.941406 a 2.9864372,3.0003 0 1 0 0,-6 z"/>
 <path style="fill:#8b9cbe" d="M 32,11 A 21,21 0 0 0 11,32 21,21 0 0 0 32,53 21,21 0 0 0 53,32 21,21 0 0 0 32,11 Z m 0,6 A 15,15 0 0 1 47,32 15,15 0 0 1 32,47 15,15 0 0 1 17,32 15,15 0 0 1 32,17 Z m -5.96875,12 a 2.9864372,3.0003 0 1 0 0,6 h 11.941406 a 2.9864372,3.0003 0 1 0 0,-6 z"/>
 <path style="opacity:0.2;fill:#8b9cbe" d="M 32 3 A 29 29 0 0 0 3 32 A 29 29 0 0 0 3.0175781 32.488281 A 29 29 0 0 1 32 4 A 29 29 0 0 1 60.974609 32.494141 A 29 29 0 0 0 61 32 A 29 29 0 0 0 32 3 z"/>
</svg>
