<svg xmlns="http://www.w3.org/2000/svg" width="64" height="64" version="1">
 <rect style="opacity:0.2" width="58" height="58" x="-62" y="-61" rx="29" ry="29" transform="matrix(0,-1,-1,0,0,0)"/>
 <rect style="fill:#4295ac" width="58" height="58" x="-61" y="-61" rx="29" ry="29" transform="matrix(0,-1,-1,0,0,0)"/>
 <path style="opacity:0.1" d="m 20.398438,18.5 7.14453,12.246094 A 5,5 0 0 0 27,33 a 5,5 0 0 0 5,5 5,5 0 0 0 5,-5 5,5 0 0 0 -5,-5 5,5 0 0 0 -0.941406,0.09374 z"/>
 <path style="fill:#17191e" d="M 20.4,17.5 30.55,34.9 34.9,30.55 20.4,17.499652 Z"/>
 <circle style="fill:#17191e" cx="32" cy="32" r="5"/>
 <path style="opacity:0.2" d="m 32,8 a 3.0000014,3.0000014 0 0 0 -3,3 3.0000014,3.0000014 0 0 0 3,3 3.0000014,3.0000014 0 0 0 3,-3 3.0000014,3.0000014 0 0 0 -3,-3 z m -13,4 a 2.9999989,2.9999989 0 0 0 -3,3 2.9999989,2.9999989 0 0 0 3,3 2.9999989,2.9999989 0 0 0 3,-3 2.9999989,2.9999989 0 0 0 -3,-3 z m 26,0 a 2.9999989,2.9999989 0 0 0 -3,3 2.9999989,2.9999989 0 0 0 3,3 2.9999989,2.9999989 0 0 0 3,-3 2.9999989,2.9999989 0 0 0 -3,-3 z m -34,9 a 2.9999989,2.9999989 0 0 0 -3,3 2.9999989,2.9999989 0 0 0 3,3 2.9999989,2.9999989 0 0 0 3,-3 2.9999989,2.9999989 0 0 0 -3,-3 z m 42,0 a 2.9999989,2.9999989 0 0 0 -3,3 2.9999989,2.9999989 0 0 0 3,3 2.9999989,2.9999989 0 0 0 3,-3 2.9999989,2.9999989 0 0 0 -3,-3 z M 10,33 a 2.9999989,2.9999989 0 0 0 -3,3 2.9999989,2.9999989 0 0 0 3,3 2.9999989,2.9999989 0 0 0 3,-3 2.9999989,2.9999989 0 0 0 -3,-3 z m 44,0 a 2.9999989,2.9999989 0 0 0 -3,3 2.9999989,2.9999989 0 0 0 3,3 2.9999989,2.9999989 0 0 0 3,-3 2.9999989,2.9999989 0 0 0 -3,-3 z M 15,44 a 2.9999989,2.9999989 0 0 0 -3,3 2.9999989,2.9999989 0 0 0 3,3 2.9999989,2.9999989 0 0 0 3,-3 2.9999989,2.9999989 0 0 0 -3,-3 z m 34,0 a 2.9999989,2.9999989 0 0 0 -3,3 2.9999989,2.9999989 0 0 0 3,3 2.9999989,2.9999989 0 0 0 3,-3 2.9999989,2.9999989 0 0 0 -3,-3 z"/>
 <path style="fill:#8b9cbe" d="M 32 7 A 3.0000014 3.0000014 0 0 0 29 10 A 3.0000014 3.0000014 0 0 0 32 13 A 3.0000014 3.0000014 0 0 0 35 10 A 3.0000014 3.0000014 0 0 0 32 7 z M 19 11 A 2.9999989 2.9999989 0 0 0 16 14 A 2.9999989 2.9999989 0 0 0 19 17 A 2.9999989 2.9999989 0 0 0 22 14 A 2.9999989 2.9999989 0 0 0 19 11 z M 45 11 A 2.9999989 2.9999989 0 0 0 42 14 A 2.9999989 2.9999989 0 0 0 45 17 A 2.9999989 2.9999989 0 0 0 48 14 A 2.9999989 2.9999989 0 0 0 45 11 z M 11 20 A 2.9999989 2.9999989 0 0 0 8 23 A 2.9999989 2.9999989 0 0 0 11 26 A 2.9999989 2.9999989 0 0 0 14 23 A 2.9999989 2.9999989 0 0 0 11 20 z M 53 20 A 2.9999989 2.9999989 0 0 0 50 23 A 2.9999989 2.9999989 0 0 0 53 26 A 2.9999989 2.9999989 0 0 0 56 23 A 2.9999989 2.9999989 0 0 0 53 20 z M 10 32 A 2.9999989 2.9999989 0 0 0 7 35 A 2.9999989 2.9999989 0 0 0 10 38 A 2.9999989 2.9999989 0 0 0 13 35 A 2.9999989 2.9999989 0 0 0 10 32 z M 54 32 A 2.9999989 2.9999989 0 0 0 51 35 A 2.9999989 2.9999989 0 0 0 54 38 A 2.9999989 2.9999989 0 0 0 57 35 A 2.9999989 2.9999989 0 0 0 54 32 z M 15 43 A 2.9999989 2.9999989 0 0 0 12 46 A 2.9999989 2.9999989 0 0 0 15 49 A 2.9999989 2.9999989 0 0 0 18 46 A 2.9999989 2.9999989 0 0 0 15 43 z M 49 43 A 2.9999989 2.9999989 0 0 0 46 46 A 2.9999989 2.9999989 0 0 0 49 49 A 2.9999989 2.9999989 0 0 0 52 46 A 2.9999989 2.9999989 0 0 0 49 43 z"/>
 <path style="opacity:0.2;fill:#8b9cbe" d="M 32 3 C 15.934 3 3 15.934 3 32 C 3 32.110857 3.0114705 32.218895 3.0175781 32.328125 C 3.3736217 16.576183 16.159477 4 32 4 C 47.840523 4 60.626378 16.576183 60.982422 32.328125 C 60.98853 32.218895 61 32.110857 61 32 C 61 15.934 48.066 3 32 3 z"/>
</svg>
