<svg xmlns="http://www.w3.org/2000/svg" width="64" height="64" version="1">
 <rect style="opacity:0.2" width="57" height="57" x="-61" y="-60" rx="28.5" ry="28.5" transform="matrix(0,-1,-1,0,0,0)"/>
 <rect style="fill:#007777" width="57" height="57" x="-60" y="-60" rx="28.5" ry="28.5" transform="matrix(0,-1,-1,0,0,0)"/>
 <path style="opacity:0.2" d="m 36,20 v 1.5 c 0,1.304704 0.0025,2.331664 0.0039,3.5 H 33 v 3 h 3.009766 c 0.02316,6.704683 0.109068,10.964559 0.43164,13.691406 0.208556,1.762991 0.470176,2.961796 1.167969,3.9375 C 38.307168,46.604611 39.557188,47 40.5,47 H 42 V 44 H 40.5 C 40.017669,44 40.180742,44.06726 40.048828,43.882812 39.916914,43.698361 39.605072,42.904978 39.419922,41.339844 39.13357,38.919215 39.03989,34.698652 39.011719,28 H 42 V 25 H 39.005859 C 39.003887,23.831422 39,22.804204 39,21.5 V 20 Z"/>
 <path style="opacity:0.3;fill:#8b9cbe" d="M 33.387378,9.1425001 C 43.678014,7.7866689 47.4233,14.074917 51.449145,17.697944 44.273421,16.489538 43.623693,7.7612817 30.406312,13.3662 19.856892,17.839754 21.525063,27.052989 18.670866,33.225 L 13.572045,30.46958 C 16.148235,20.866425 24.344089,10.333989 33.387378,9.1425001 Z"/>
 <path style="opacity:0.2" d="m 11.989829,31 c -1.395573,0.07541 -2.5529073,0.155994 -2.841751,0.88701 -0.8230892,2.564546 2.053559,2.185143 2.053559,2.185143 l -0.899464,-0.968359 c -0.4764725,-2.074824 8.625869,1.919854 11.073445,4.875877 6.814594,8.230228 7.348011,18.822162 21.998525,16.759357 2.260772,-0.318318 4.49314,-0.55729 6.625857,-2.488643 -2.919212,0.753428 -5.537902,0.802012 -7.859984,1.058962 -8.158839,0.848198 -10.561187,-2.167244 -13.386597,-8.339199 -1.725873,-3.850526 -4.342149,-7.89009 -7.789178,-10.630344 l 0.196416,-3.194341 -1.435604,2.291646 C 17.461172,31.934694 14.879621,30.99973 11.989829,31 Z"/>
 <path style="fill:#8b9cbe" d="m 11.989829,30 c -1.395573,0.07541 -2.5529073,0.155994 -2.841751,0.88701 -0.8230892,2.564546 2.053559,2.185143 2.053559,2.185143 l -0.899464,-0.968359 c -0.4764725,-2.074824 8.625869,1.919854 11.073445,4.875877 6.814594,8.230228 7.348011,18.822162 21.998525,16.759357 2.260772,-0.318318 4.49314,-0.55729 6.625857,-2.488643 -2.919212,0.753428 -5.537902,0.802012 -7.859984,1.058962 -8.158839,0.848198 -10.561187,-2.167244 -13.386597,-8.339199 -1.725873,-3.850526 -4.342149,-7.89009 -7.789178,-10.630344 l 0.196416,-3.194341 -1.435604,2.291646 C 17.461172,30.934694 14.879621,29.99973 11.989829,30 Z"/>
 <path style="fill:none;stroke:#8b9cbe;stroke-width:3;stroke-linecap:square;stroke-linejoin:round" d="m 37.500036,20.5 c 0,21.375 0.149678,24 2.999964,24"/>
 <rect style="fill:#8b9cbe" width="9" height="3" x="33" y="24"/>
 <path style="fill:#8b9cbe;opacity:0.1" d="M 31.5 3 C 15.711 3 3 15.711 3 31.5 C 3 31.667737 3.0088611 31.832969 3.0117188 32 C 3.2778493 16.444518 15.878737 4 31.5 4 C 47.121263 4 59.722151 16.444518 59.988281 32 C 59.991139 31.832969 60 31.667737 60 31.5 C 60 15.711 47.289 3 31.5 3 z"/>
</svg>
