<svg xmlns="http://www.w3.org/2000/svg" width="64" height="64" version="1.1">
 <path style="opacity:0.2" d="m 39.332032,15.9997 c -2.58377,0 -4.916656,1.104369 -6.597656,2.851563 C 35.756782,21.176469 38,24.396097 38,27.999701 h -4 c 0,-1.704114 -1.344856,-4.008662 -3.46875,-5.777344 -1.627184,-1.332814 -3.638058,-2.222656 -5.863282,-2.222656 H 11.332031 C 6.2943176,19.999701 2,24.097063 2,29.175483 v 7.765624 c 0,5.07842 4.4000812,9.058594 9.332031,9.058594 H 16 a 4.0004,4.0004 0 0 0 6.703124,2.949218 l 3.218752,-2.949218 h -1.253908 c 2.556324,0 4.909374,-1.0964 6.60547,-2.847656 C 28.247576,40.826447 26,37.606017 26,33.999701 h 4 c 0,1.766856 1.445856,4.177708 3.707032,5.96875 1.599854,1.22305 3.531004,2.03125 5.625,2.03125 h 4.746092 l 3.218752,2.949218 A 4.0004,4.0004 0 0 0 54,41.999701 v -0.265624 c 4.346094,-0.655514 8,-4.192472 8,-8.79297 V 25.175483 C 62,20.097063 57.705682,15.9997 52.667968,15.9997 Z"/>
 <path style="fill:#5d51ae" d="m 39.332032,14.999999 c -2.58377,0 -4.916656,1.104369 -6.597656,2.851562 C 35.756782,20.176767 38,23.396395 38,26.999999 h -4 c 0,-1.704114 -1.344856,-4.008662 -3.46875,-5.777344 -1.627184,-1.332814 -3.638058,-2.222656 -5.863282,-2.222656 H 11.332031 C 6.2943176,18.999999 2,23.097361 2,28.175781 v 7.765624 c 0,5.07842 4.4000812,9.058594 9.332031,9.058594 H 16 a 4.0004,4.0004 0 0 0 6.703124,2.949218 l 3.218752,-2.949218 h -1.253908 c 2.556324,0 4.909374,-1.0964 6.60547,-2.847656 C 28.247576,39.826745 26,36.606315 26,32.999999 h 4 c 0,1.766856 1.445856,4.177708 3.707032,5.96875 1.599854,1.22305 3.531004,2.03125 5.625,2.03125 h 4.746092 l 3.218752,2.949218 A 4.0004,4.0004 0 0 0 54,40.999999 v -0.265624 c 4.346094,-0.655514 8,-4.192472 8,-8.79297 v -7.765624 c 0,-5.07842 -4.294318,-9.175782 -9.332032,-9.175782 z"/>
 <path style="opacity:0.2" d="M 39.332032,19.999701 C 36.377364,19.999701 34,22.307717 34,25.175483 v 7.765624 c 0,2.867764 2.377364,5.058594 5.332032,5.058594 h 6.30078 l 4.367188,4 v -4 h 2.667968 C 55.622636,37.999701 58,35.808871 58,32.941107 v -7.765624 c 0,-2.867766 -2.377364,-5.175782 -5.332032,-5.175782 z m -28.000001,4 C 8.3773646,23.999701 6,26.307717 6,29.175483 v 7.765624 c 0,2.867764 2.3773646,5.058594 5.332031,5.058594 H 20 v 4 l 4.367188,-4 h 0.30078 C 27.622636,41.999701 30,39.808871 30,36.941107 v -7.765624 c 0,-2.867766 -2.377364,-5.175782 -5.332032,-5.175782 z"/>
 <path style="fill:#8b9cbe" d="M 39.332032,18.999999 C 36.377364,18.999999 34,21.308015 34,24.175781 v 7.765624 c 0,2.867764 2.377364,5.058594 5.332032,5.058594 h 6.30078 l 4.367188,4 v -4 h 2.667968 C 55.622636,36.999999 58,34.809169 58,31.941405 v -7.765624 c 0,-2.867766 -2.377364,-5.175782 -5.332032,-5.175782 z m -28.000001,4 C 8.3773646,22.999999 6,25.308015 6,28.175781 v 7.765624 c 0,2.867764 2.3773646,5.058594 5.332031,5.058594 H 20 v 4 l 4.367188,-4 h 0.30078 C 27.622636,40.999999 30,38.809169 30,35.941405 v -7.765624 c 0,-2.867766 -2.377364,-5.175782 -5.332032,-5.175782 z"/>
 <path style="opacity:0.1;fill:#8b9cbe" d="M 39.332031 15 C 36.748261 15 34.415375 16.10437 32.734375 17.851562 C 32.928616 18.000996 33.109459 18.163626 33.296875 18.320312 C 34.918931 16.88589 37.02314 16 39.332031 16 L 52.667969 16 C 57.705683 16 62 20.097361 62 25.175781 L 62 24.175781 C 62 19.097361 57.705683 15 52.667969 15 L 39.332031 15 z M 11.332031 19 C 6.2943178 19 2 23.097361 2 28.175781 L 2 29.175781 C 2 24.097361 6.2943178 20 11.332031 20 L 24.667969 20 C 26.893193 20 28.904066 20.889842 30.53125 22.222656 C 32.655144 23.991338 34 26.295886 34 28 L 38 28 C 38 27.662858 37.97557 27.330003 37.9375 27 L 34 27 C 34 25.295886 32.655144 22.991338 30.53125 21.222656 C 28.904066 19.889842 26.893193 19 24.667969 19 L 11.332031 19 z M 26 34 C 26 37.374127 27.977404 40.399941 30.708984 42.681641 C 30.9028 42.511393 31.093819 42.337804 31.273438 42.152344 C 28.530393 40.044111 26.431741 37.199823 26.0625 34 L 26 34 z M 24.839844 45.990234 C 24.78207 45.991358 24.725957 46 24.667969 46 L 24.830078 46 L 24.839844 45.990234 z"/>
</svg>
