<svg xmlns="http://www.w3.org/2000/svg" width="64" height="64" version="1">
 <circle style="opacity:0.2" cx="32" cy="33" r="28"/>
 <circle style="fill:#28a4e2" cx="32" cy="32" r="28"/>
 <path style="opacity:0.2" d="m 41.861786,46.781383 c 0.538967,-1.032766 3.635914,-18.691914 4.078637,-23.256842 0.478954,-4.523454 -2.018372,-3.682279 -4.316309,-2.918125 -5.637734,1.881259 -23.46246,9.506736 -28.341435,12.023439 -1.201157,0.492223 -1.720348,1.327378 -0.846364,2.050224 0.752499,0.612699 3.506043,1.454221 5.726706,1.881276 1.893016,0.566749 3.363424,0.02388 4.720733,-0.732746 3.261875,-1.911191 12.981522,-7.989431 13.504936,-8.328235 0.523414,-0.338804 1.096283,0.289964 0.803347,0.594353 -0.292939,0.304388 -7.176548,6.404884 -9.436594,9.163119 -1.197338,1.516601 -1.161474,2.326293 0.06854,3.28265 2.75944,2.138383 10.132102,7.013346 11.229128,7.308006 1.398874,0.375735 2.218151,0.06446 2.808686,-1.067119 z"/>
 <path style="fill:#8b9cbe" d="m 41.861786,45.781383 c 0.538967,-1.032766 3.635914,-18.691914 4.078637,-23.256842 0.478954,-4.523454 -2.018372,-3.682279 -4.316309,-2.918125 -5.637734,1.881259 -23.46246,9.506736 -28.341435,12.023439 -1.201157,0.492223 -1.720348,1.327378 -0.846364,2.050224 0.752499,0.612699 3.506043,1.454221 5.726706,1.881276 1.893016,0.566749 3.363424,0.02388 4.720733,-0.732746 3.261875,-1.911191 12.981522,-7.989431 13.504936,-8.328235 0.523414,-0.338804 1.096283,0.289964 0.803347,0.594353 -0.292939,0.304388 -7.176548,6.404884 -9.436594,9.163119 -1.197338,1.516601 -1.161474,2.326293 0.06854,3.28265 2.75944,2.138383 10.132102,7.013346 11.229128,7.308006 1.398874,0.375735 2.218151,0.06446 2.808686,-1.067119 z"/>
 <path style="fill:#8b9cbe;opacity:0.2" d="M 32 4 A 28 28 0 0 0 4 32 A 28 28 0 0 0 4.0214844 32.585938 A 28 28 0 0 1 32 5 A 28 28 0 0 1 59.978516 32.414062 A 28 28 0 0 0 60 32 A 28 28 0 0 0 32 4 z"/>
</svg>
