<svg xmlns="http://www.w3.org/2000/svg" width="64" height="64" version="1">
 <path style="opacity:0.2" d="m 33.793406,11.008765 c -0.469412,0.0082 -0.894268,0.279854 -1.098704,0.702489 l -2.43562,4.931301 -4.505456,-1.542374 c -0.86077,-0.351878 -1.789386,0.330075 -1.711252,1.256704 L 24.686,22.043178 21.595564,21.04172 c -0.898468,-0.266952 -1.758462,0.517398 -1.575128,1.43658 l 0.12922,4.73709 -2.787787,-0.240646 c -0.942876,-0.103324 -1.650201,0.843796 -1.283431,1.718548 l 1.979981,4.866332 -1.772053,2.271068 -2.46127,-4.230004 c -0.597121,-0.92789 -2.016888,-0.677522 -2.260605,0.398644 l -0.955289,4.05898 -1.9324524,-2.576604 C 8.0066308,32.585726 6.5866506,32.960056 6.4453134,34.069952 l -0.933411,6.528998 c -0.096758,0.745016 0.4835524,1.40529 1.2348252,1.404978 l 1.2812266,0.265928 -0.055908,4.578664 c -0.01172,1.089272 1.2517266,1.667012 2.0547878,0.93098 l 5.431245,-5.157182 36.624351,-0.61839 c 0.870578,-0.0086 1.463522,-0.8855 1.147318,-1.696668 l -2.85371,-7.331166 3.434758,-5.850836 c 0.350328,-0.713766 -0.04926,-1.568516 -0.821594,-1.75744 l -4.421648,-0.943134 1.373896,-5.939093 c 0.148538,-0.833074 -0.559622,-1.56833 -1.397684,-1.451163 l -4.205214,0.486673 -1.00138,-4.486032 c -0.07279,-0.961503 -1.164076,-1.478644 -1.95433,-0.926119 l -3.578686,3.763054 -2.95337,-4.311457 c -0.235654,-0.351817 -0.634008,-0.559694 -1.05738,-0.551782 z"/>
 <path style="opacity:0.2" d="m 24.070312,44.28126 -0.753906,6.117188 c 0,0 1.319338,0.601562 3.984376,0.601562 2.665038,0 3.78125,-0.441406 3.78125,-0.441406 l 0.882812,-6.277344 z m 17.503906,2.054688 -0.3125,5.96875 c 0,0 1.300936,0.616264 3.828126,0.6875 2.802678,0.079 3.84375,-0.648438 3.84375,-0.648438 l 0.75,-6.007812 z"/>
 <path style="fill:#972b00" d="m 24.070312,43.28125 -0.753906,6.117188 c 0,0 1.319338,0.601562 3.984376,0.601562 2.665038,0 3.78125,-0.441406 3.78125,-0.441406 l 0.882812,-6.277344 z m 17.503906,2.054688 -0.3125,5.96875 c 0,0 1.300936,0.616264 3.828126,0.6875 2.802678,0.079 3.84375,-0.648438 3.84375,-0.648438 l 0.75,-6.007812 z"/>
 <path style="fill:#ff8100" d="m 33.793406,10.008755 c -0.469412,0.0082 -0.894268,0.279854 -1.098704,0.70249 l -2.43562,4.931301 -4.505456,-1.542375 c -0.86077,-0.351877 -1.789386,0.330076 -1.711252,1.256704 L 24.686,21.043168 21.595564,20.04171 c -0.898468,-0.266952 -1.758462,0.517398 -1.575128,1.43658 l 0.12922,4.73709 -2.787787,-0.240646 c -0.942876,-0.103324 -1.650201,0.843796 -1.283431,1.718548 l 1.979981,4.866332 -1.772053,2.271068 -2.46127,-4.230004 c -0.597121,-0.92789 -2.016888,-0.677522 -2.260605,0.398644 l -0.955289,4.05898 -1.9324524,-2.576604 C 8.0066308,31.585716 6.5866506,31.960046 6.4453134,33.069942 l -0.933411,6.528998 c -0.096758,0.745016 0.4835524,1.40529 1.2348252,1.404978 l 1.2812266,0.265928 -0.055908,4.578664 c -0.01172,1.089272 1.2517266,1.667012 2.0547878,0.93098 l 5.431245,-5.157182 36.624351,-0.61839 c 0.870578,-0.0086 1.463522,-0.8855 1.147318,-1.696668 l -2.85371,-7.331166 3.434758,-5.850836 c 0.350328,-0.713766 -0.04926,-1.568516 -0.821594,-1.75744 l -4.421648,-0.943134 1.373896,-5.939092 c 0.148538,-0.833075 -0.559622,-1.568331 -1.397684,-1.451164 l -4.205214,0.486674 -1.00138,-4.486033 c -0.07279,-0.961503 -1.164076,-1.478644 -1.95433,-0.926118 l -3.578686,3.763053 -2.95337,-4.311456 c -0.235654,-0.351818 -0.634008,-0.559694 -1.05738,-0.551783 z"/>
 <path style="opacity:0.2;fill:#8b9cbe" d="M 33.792969 10.007812 C 33.323557 10.016013 32.899749 10.288302 32.695312 10.710938 L 30.259766 15.642578 L 25.753906 14.099609 C 24.893136 13.747732 23.964835 14.430794 24.042969 15.357422 L 24.103516 15.884766 C 24.310122 15.22085 25.049696 14.811733 25.753906 15.099609 L 30.259766 16.642578 L 32.695312 11.710938 C 32.899749 11.288302 33.323557 11.016013 33.792969 11.007812 C 34.216341 10.999901 34.615909 11.208729 34.851562 11.560547 L 37.804688 15.871094 L 41.382812 12.109375 C 42.173067 11.556849 43.265101 12.073653 43.337891 13.035156 L 44.337891 17.521484 L 48.542969 17.035156 C 49.138716 16.951867 49.663804 17.301447 49.867188 17.808594 L 49.941406 17.486328 C 50.089944 16.653253 49.381031 15.917989 48.542969 16.035156 L 44.337891 16.521484 L 43.337891 12.035156 C 43.265101 11.073653 42.173067 10.556849 41.382812 11.109375 L 37.804688 14.871094 L 34.851562 10.560547 C 34.615909 10.208729 34.216341 9.9999015 33.792969 10.007812 z M 21.261719 19.988281 C 20.497714 19.972141 19.859114 20.674231 20.019531 21.478516 L 20.033203 21.970703 C 20.180019 21.298443 20.870619 20.825579 21.595703 21.041016 L 24.685547 22.042969 L 24.568359 21.005859 L 21.595703 20.041016 C 21.483395 20.007647 21.370862 19.990587 21.261719 19.988281 z M 48.789062 23.470703 L 48.568359 24.423828 L 52.988281 25.367188 C 53.383923 25.463967 53.678816 25.736447 53.828125 26.074219 C 54.136393 25.371085 53.742635 24.551713 52.988281 24.367188 L 48.789062 23.470703 z M 17.361328 25.974609 C 16.418452 25.871285 15.711355 26.818607 16.078125 27.693359 L 16.087891 27.714844 C 16.295029 27.245994 16.782271 26.911154 17.361328 26.974609 L 20.150391 27.214844 L 20.123047 26.212891 L 17.361328 25.974609 z M 12.912109 30.035156 C 12.32896 29.976556 11.716776 30.327396 11.564453 31 L 10.609375 35.058594 L 8.6757812 32.482422 C 8.0056625 31.58644 6.5866497 31.960417 6.4453125 33.070312 L 5.5117188 39.599609 C 5.4857382 39.799654 5.5123668 39.991292 5.5742188 40.167969 L 6.4453125 34.070312 C 6.5866497 32.960417 8.0056625 32.58644 8.6757812 33.482422 L 10.609375 36.058594 L 11.564453 32 C 11.80817 30.923834 13.227098 30.671719 13.824219 31.599609 L 16.287109 35.830078 L 18.058594 33.558594 L 17.791016 32.902344 L 16.287109 34.830078 L 13.824219 30.601562 C 13.600298 30.253604 13.261999 30.070317 12.912109 30.035156 z M 50.611328 32.578125 L 50.376953 32.976562 L 53.208984 40.25 C 53.33257 39.964525 53.356783 39.630677 53.230469 39.306641 L 50.611328 32.578125 z M 8.015625 42.267578 L 7.9726562 45.847656 C 7.9723419 45.876872 7.9828882 45.901223 7.984375 45.929688 L 8.0273438 42.269531 L 8.015625 42.267578 z"/>
 <path style="opacity:0.2" d="m 2.0153348,40.398304 c 0,0 7.7893086,-0.716156 14.5600572,-5.137922 3.770234,-2.462222 5.392258,-7.930024 8.708286,-11.539448 0.71084,-0.773734 1.480274,-1.585294 2.302018,-2.303806 1.991086,-1.648714 4.911042,-2.376858 7.720012,-2.417118 2.426354,-0.03478 4.769898,0.429574 6.360444,1.426046 3.467848,2.355514 6.306744,6.62238 8.043166,10.451556 1.693946,3.735504 3.526774,4.441166 3.526774,4.441166 l 6.026958,3.046172 c 2.636856,1.33273 2.474806,4.734326 2.73695,6.438836 l -2.807616,0.261936 -0.627612,2.128462 c -0.10576,-0.03084 -7.820558,-0.98209 -10.449392,1.176464 -1.29961,0.0176 -2.848796,-0.1109 -5.652058,-0.11046 l -0.762186,6.083002 c 0,0 -1.042962,0.729832 -3.84564,0.65083 -2.52719,-0.07124 -3.825774,-0.690006 -3.825774,-0.690006 l 0.412778,-7.82884 -9.609666,-1.627416 -0.984734,7.8124 c 0,0 -1.111662,0.339852 -3.7767,0.339852 -2.665037,0 -3.984572,-0.500758 -3.984572,-0.500758 l 0.908481,-8.231118 c 0,0 -7.861553,-0.76407 -8.319833,-0.854346 -7.3189634,-1.44176 -6.6601412,-3.015494 -6.6601412,-3.015494 z"/>
 <path style="fill:#da4000" d="m 2.0153348,39.398294 c 0,0 7.7893086,-0.716156 14.5600572,-5.137922 3.770234,-2.462222 5.392258,-7.930024 8.708286,-11.539448 0.71084,-0.773734 1.480274,-1.585294 2.302018,-2.303806 1.991086,-1.648714 4.911042,-2.376857 7.720012,-2.417118 2.426354,-0.03478 4.769898,0.429574 6.360444,1.426046 3.467848,2.355514 6.306744,6.62238 8.043166,10.451556 1.693946,3.735504 3.526774,4.441166 3.526774,4.441166 l 6.026958,3.046172 c 2.636856,1.33273 2.474806,4.734326 2.73695,6.438836 l -2.807616,0.261936 -0.627612,2.128462 c -0.10576,-0.03084 -7.820558,-0.98209 -10.449392,1.176464 -1.29961,0.0176 -2.848796,-0.1109 -5.652058,-0.11046 l -0.762186,6.083002 c 0,0 -1.042962,0.729832 -3.84564,0.65083 -2.52719,-0.07124 -3.825774,-0.690006 -3.825774,-0.690006 l 0.412778,-7.82884 -9.609666,-1.627416 -0.984734,7.8124 c 0,0 -1.111662,0.339852 -3.7767,0.339852 -2.665037,0 -3.984572,-0.500758 -3.984572,-0.500758 l 0.908481,-8.231118 c 0,0 -7.861553,-0.76407 -8.319833,-0.854346 -7.3189634,-1.44176 -6.6601412,-3.015494 -6.6601412,-3.015494 z"/>
 <circle style="opacity:0.2" cx="51" cy="40" r="3"/>
 <circle style="fill:#8b9cbe" cx="51" cy="39" r="3"/>
 <circle style="fill:#17191e" cx="51" cy="39" r="2"/>
 <path style="opacity:0.2" d="m 58.225768,44.056288 c -4.34408,-2.12e-4 -8.266358,1.385406 -9.957454,3.209106 2.75427,-2.014616 10.191884,-1.102568 10.295788,-1.07226 l 0.622016,-2.113422 c -0.319196,-0.0142 -0.63963,-0.02212 -0.96035,-0.02342 z"/>
</svg>
