<svg xmlns="http://www.w3.org/2000/svg" width="64" height="64" version="1">
 <circle style="opacity:0.2" cx="32" cy="33" r="28"/>
 <circle style="fill:#664f41" cx="32" cy="32" r="28"/>
 <path style="opacity:0.2" d="m 32.824218,11 -0.308594,2.984375 a 19.037523,19.037523 0 0 0 -2.05078,0.04687 l -0.46875,-2.95312 -2.894532,0.457031 L 27.574218,14.5 a 19.037523,19.037523 0 0 0 -1.964842,0.582031 l -1.218752,-2.742187 -2.67578,1.195312 1.226562,2.746094 a 19.037523,19.037523 0 0 0 -1.746094,1.070312 l -1.894531,-2.335937 -2.273437,1.84375 1.882812,2.320313 A 19.037523,19.037523 0 0 0 17.5,20.671876 l -2.421875,-1.757814 -1.71875,2.371094 2.433594,1.765626 a 19.037523,19.037523 0 0 0 -0.976563,1.796874 l -2.804687,-1.074218 -1.046875,2.734374 2.800781,1.07422 a 19.037523,19.037523 0 0 0 -0.472656,1.992186 L 10.304688,29.261718 10,32.175782 l 2.984375,0.308594 a 19.037523,19.037523 0 0 0 0.04687,2.05078 l -2.953124,0.46875 0.457031,2.894532 L 13.5,37.425782 a 19.037523,19.037523 0 0 0 0.582031,1.964842 l -2.742187,1.218752 1.195312,2.67578 2.746094,-1.226562 a 19.037523,19.037523 0 0 0 1.070312,1.746094 l -2.335937,1.89453 1.84375,2.273438 2.320313,-1.882812 A 19.037523,19.037523 0 0 0 19.671875,47.5 l -1.757813,2.421876 2.371094,1.718748 1.765626,-2.433592 a 19.037523,19.037523 0 0 0 1.796874,0.976562 l -1.074218,2.804688 2.734374,1.046874 1.07422,-2.80078 a 19.037523,19.037523 0 0 0 1.992186,0.472656 l -0.3125,2.98828 L 31.175782,55 31.484376,52.015624 a 19.037523,19.037523 0 0 0 2.05078,-0.04688 l 0.46875,2.953126 2.894532,-0.457032 L 36.425782,51.5 a 19.037523,19.037523 0 0 0 1.964842,-0.582032 l 1.218752,2.742188 2.67578,-1.195312 -1.226562,-2.746094 a 19.037523,19.037523 0 0 0 1.746094,-1.070312 l 1.89453,2.335938 2.273438,-1.843752 -1.882812,-2.320312 A 19.037523,19.037523 0 0 0 46.5,45.328124 l 2.421876,1.757814 1.718748,-2.371094 -2.433592,-1.765626 a 19.037523,19.037523 0 0 0 0.976562,-1.796874 l 2.804688,1.074218 1.046874,-2.734374 -2.80078,-1.07422 a 19.037523,19.037523 0 0 0 0.472656,-1.992186 l 2.98828,0.3125 L 54,33.824218 51.015624,33.515624 a 19.037523,19.037523 0 0 0 -0.04688,-2.05078 L 53.921876,30.996094 53.464844,28.101562 50.5,28.574218 a 19.037523,19.037523 0 0 0 -0.582032,-1.964842 l 2.742188,-1.218752 -1.195312,-2.67578 -2.746094,1.226562 a 19.037523,19.037523 0 0 0 -1.070312,-1.746094 l 2.335938,-1.89453 -1.843752,-2.273438 -2.320312,1.882812 A 19.037523,19.037523 0 0 0 44.328124,18.5 l 1.757814,-2.421875 -2.371094,-1.71875 -1.765626,2.433594 a 19.037523,19.037523 0 0 0 -1.796874,-0.976563 l 1.074218,-2.804687 -2.734374,-1.046875 -1.07422,2.800781 a 19.037523,19.037523 0 0 0 -1.992186,-0.472656 l 0.3125,-2.988281 z m -0.703124,5.910156 -1.16797,2.023438 -2.472656,-1.429688 a 3.6666668,3.6666668 0 0 1 0.265626,-0.273437 16.108674,16.108674 0 0 1 0.722656,-0.140624 16.108674,16.108674 0 0 1 2.652344,-0.179689 z m 1.527344,0.28125 a 3.6666668,3.6666668 0 0 1 1.117186,1.792969 3.6666668,3.6666668 0 0 1 -0.07032,2.109375 l -2.472656,-1.429688 z m 1.976562,0.125 a 16.108674,16.108674 0 0 1 1.238282,0.34375 l -0.929688,0.25 A 5.1333336,5.1333336 0 0 0 35.625,17.316406 Z m -9.101562,0.546875 a 5.1333336,5.1333336 0 0 0 -0.0196,0.04687 l -0.0586,-0.01562 a 16.108674,16.108674 0 0 1 0.07812,-0.03125 z m 10.976562,0 a 16.108674,16.108674 0 0 1 10.410156,12.605469 16.108674,16.108674 0 0 1 -0.09374,5.464844 l -0.09374,0.02734 c -0.13452,-0.237762 -0.301334,-0.452984 -0.496094,-0.644532 l 0.78125,-1.355468 -1.26953,-0.734376 -0.78125,1.351562 c -0.263838,-0.0722 -0.535076,-0.1049 -0.808594,-0.10156 l -0.40625,-1.511718 -1.41797,0.378906 0.410158,1.511718 c -0.237762,0.13452 -0.456892,0.301334 -0.648438,0.496094 l -1.35547,-0.78125 -0.734374,1.269532 1.351562,0.78125 c -0.0722,0.263838 -0.1049,0.535076 -0.10156,0.808594 L 40.734376,37.835938 41.113282,39.25 42.625,38.847656 c 0.13452,0.23776 0.30132,0.456892 0.496094,0.648438 l -0.785156,1.351562 1.273438,0.734376 0.781248,-1.351564 c 0.263842,0.0722 0.535074,0.1049 0.808594,0.10156 l 0.35547,1.339844 a 16.108674,16.108674 0 0 1 -0.85547,1.218748 l -0.691406,-1.253906 -1.335936,0.734376 a 5.1333336,5.1333336 0 0 0 -0.835938,-0.875 l 0.785156,-1.300782 -1.257812,-0.757812 -0.785158,1.304688 a 5.1333336,5.1333336 0 0 0 -1.164062,-0.335938 l 0.03126,-1.523438 -1.46875,-0.02734 -0.02734,1.527344 a 5.1333336,5.1333336 0 0 0 -1.17578,0.285156 l -0.566406,-1.027344 0.285156,0.281252 1.03125,-1.04297 -1.07422,-1.058594 a 6.6000004,6.6000004 0 0 0 0.609376,-0.941406 l 1.402344,0.570312 0.554686,-1.355468 -1.398436,-0.570312 a 6.6000004,6.6000004 0 0 0 0.203124,-1.101562 l 1.519532,-0.0078 -0.0118,-1.46875 -1.511718,0.0118 a 6.6000004,6.6000004 0 0 0 -0.230468,-1.09375 l 1.398438,-0.589844 -0.570314,-1.351562 -1.39453,0.589842 a 6.6000004,6.6000004 0 0 0 -0.625,-0.929686 l 1.0625,-1.07422 -1.04297,-1.03125 -1.0625,1.07422 a 6.6000004,6.6000004 0 0 0 -0.9375,-0.609376 l 0.570314,-1.402344 -1.359376,-0.554686 -0.0156,0.03516 -0.367188,-1.375 a 5.1333336,5.1333336 0 0 0 1.05078,-0.601564 l 1.07422,1.078126 1.042968,-1.04297 -1.082032,-1.074218 a 5.1333336,5.1333336 0 0 0 0.609376,-1.046874 l 1.46875,0.39453 0.378906,-1.421874 -1.472656,-0.390626 a 5.1333336,5.1333336 0 0 0 0,-1.210936 l 1.472656,-0.394532 z m -12.765624,0.78125 -0.07812,0.289063 1.472656,0.398438 a 5.1333336,5.1333336 0 0 0 0,1.20703 l -1.472656,0.394532 0.378906,1.414062 1.476562,-0.394532 a 5.1333336,5.1333336 0 0 0 0.601564,1.050782 l -1.078126,1.074218 1.039062,1.04297 1.078126,-1.078126 a 5.1333336,5.1333336 0 0 0 1.042968,0.609376 l -0.371094,1.398438 -0.0156,-0.03516 -1.351562,0.570314 0.585936,1.39453 a 6.6000004,6.6000004 0 0 0 -0.92578,0.625 l -1.078126,-1.0625 -1.027344,1.04297 1.07422,1.0625 a 6.6000004,6.6000004 0 0 0 -0.613282,0.9375 l -1.402344,-0.570314 -0.55078,1.359376 1.39453,0.566406 a 6.6000004,6.6000004 0 0 0 -0.203124,1.101562 l -1.515626,0.0118 0.0078,1.464844 1.515626,-0.0078 a 6.6000004,6.6000004 0 0 0 0.226562,1.09375 l -1.39453,0.589844 0.570312,1.347656 1.390624,-0.585936 a 6.6000004,6.6000004 0 0 0 0.628906,0.92578 l -1.0625,1.078126 1.04297,1.027344 1.058594,-1.07422 a 6.6000004,6.6000004 0 0 0 0.941406,0.613282 l -0.570312,1.402344 1.355468,0.55078 0.570312,-1.39453 a 6.6000004,6.6000004 0 0 0 1.101562,0.203124 l 0.0078,1.515626 1.46875,-0.0078 -0.0118,-1.515626 a 6.6000004,6.6000004 0 0 0 1.09375,-0.226562 l 0.589844,1.39453 1.351562,-0.570312 -0.589842,-1.390624 a 6.6000004,6.6000004 0 0 0 0.929686,-0.628906 l 0.53125,0.527342 -1.199218,0.65625 0.738282,1.335938 a 5.1333336,5.1333336 0 0 0 -0.875,0.835938 l -1.300782,-0.785156 -0.757812,1.257812 1.30078,0.785156 a 5.1333336,5.1333336 0 0 0 -0.33203,1.164062 L 32,44.605468 l -0.03126,1.46875 1.527344,0.02734 a 5.1333336,5.1333336 0 0 0 0.289062,1.175782 l -1.332032,0.734374 0.582032,1.058594 A 16.108674,16.108674 0 0 1 16.089844,35.53125 16.108674,16.108674 0 0 1 24.734376,18.644531 Z m 3.011718,0.128906 2.472656,1.425781 -1.425782,2.476564 a 3.6666668,3.6666668 0 0 1 -1.11328,-1.79297 3.6666668,3.6666668 0 0 1 0.0664,-2.109375 z m 3.742188,2.160157 2.472656,1.429688 a 3.6666668,3.6666668 0 0 1 -1.79297,1.11328 3.6666668,3.6666668 0 0 1 -2.109374,-0.0664 z m 0.339842,4.089844 0.390626,1.472656 1.34375,-0.359376 -0.503906,1.246094 a 6.6000004,6.6000004 0 0 0 -1.101562,-0.203124 l -0.0118,-1.519532 -1.464844,0.0118 0.0078,1.511718 a 6.6000004,6.6000004 0 0 0 -1.09375,0.230468 l -0.535156,-1.277344 1.36328,0.359376 0.394532,-1.46875 a 5.1333336,5.1333336 0 0 0 1.210936,-0.004 z m -0.558592,3.574218 h 0.0118 a 5.1333336,5.1333336 0 0 1 1.988282,0.410156 5.1333336,5.1333336 0 0 1 2.390624,2.078126 l -4.003906,1.6875 -1.6875,-4 a 5.1333336,5.1333336 0 0 1 1.289062,-0.17188 5.1333336,5.1333336 0 0 1 0.0118,-0.004 z m -2.652344,0.742188 1.6875,4.003906 -3.996094,1.6875 a 5.1333336,5.1333336 0 0 1 -0.17578,-1.289062 5.1333336,5.1333336 0 0 1 0,-0.02344 5.1333336,5.1333336 0 0 1 0.40625,-1.988282 5.1333336,5.1333336 0 0 1 2.078126,-2.390624 z m 7.609374,3.097656 a 5.1333336,5.1333336 0 0 1 0.17188,1.289062 5.1333336,5.1333336 0 0 1 0.004,0.0118 v 0.0078 a 5.1333336,5.1333336 0 0 1 -0.410156,1.992188 5.1333336,5.1333336 0 0 1 -2.078126,2.386718 l -1.6875,-4 z m -5.351562,2.257812 1.6875,3.996094 a 5.1333336,5.1333336 0 0 1 -1.289062,0.17578 5.1333336,5.1333336 0 0 1 -0.0196,0 5.1333336,5.1333336 0 0 1 -1.992188,-0.40625 5.1333336,5.1333336 0 0 1 -2.386718,-2.078126 z m 14.324218,1.238282 a 1.4666667,1.4666667 0 0 1 1.464844,1.46875 1.4666667,1.4666667 0 0 1 -1.464844,1.464844 1.4666667,1.4666667 0 0 1 -1.464842,-1.464844 1.4666667,1.4666667 0 0 1 1.464842,-1.46875 z m -6.542968,5.867188 a 3.6666668,3.6666668 0 0 1 2.003906,0.648436 L 38.601562,44.429688 36.625,42.371094 a 3.6666668,3.6666668 0 0 1 2.03125,-0.570312 z m 5.980468,1.164062 a 16.108674,16.108674 0 0 1 -1.085936,1.242188 5.1333336,5.1333336 0 0 0 -0.16796,-0.550782 z m -9.070312,0.42578 1.98047,2.058594 -2.058594,1.976564 a 3.6666668,3.6666668 0 0 1 -0.570314,-2.03125 3.6666668,3.6666668 0 0 1 0.648438,-2.003908 z m 6.113282,0.11718 a 3.6666668,3.6666668 0 0 1 0.566406,1.898438 16.108674,16.108674 0 0 1 -1.589844,1.15625 l -1.035156,-1.074218 z m -3.117188,2.996094 0.78125,0.8125 a 16.108674,16.108674 0 0 1 -2.78125,1.11329 z M 34.496094,48.5625 A 5.1333336,5.1333336 0 0 0 34.75,48.867188 16.108674,16.108674 0 0 1 34.53125,48.910156 16.108674,16.108674 0 0 1 33.707032,49 Z"/>
 <path style="fill:#ca9159" d="m 27.45532,25.586124 0.587912,1.393482 a 6.6000004,6.6000004 0 0 0 -0.926222,0.627072 l -1.076542,-1.063054 -1.03014,1.044 1.075424,1.060404 a 6.6000004,6.6000004 0 0 0 -0.61127,0.938784 l -1.40356,-0.57064 -0.552326,1.35852 1.396046,0.567584 a 6.6000004,6.6000004 0 0 0 -0.203322,1.102456 l -1.516662,0.0088 0.0094,1.46664 1.512916,-0.0102 a 6.6000004,6.6000004 0 0 0 0.22854,1.094366 l -1.396182,0.589056 0.570126,1.35132 1.39348,-0.587914 a 6.6000004,6.6000004 0 0 0 0.627074,0.926224 l -1.063052,1.07654 1.043998,1.030142 1.060404,-1.075424 a 6.6000004,6.6000004 0 0 0 0.938782,0.61127 l -0.57064,1.40356 1.358522,0.552328 0.567584,-1.396048 a 6.6000004,6.6000004 0 0 0 1.102456,0.203322 l 0.0088,1.516662 1.46664,-0.0094 -0.0102,-1.512918 a 6.6000004,6.6000004 0 0 0 1.094368,-0.228542 l 0.589054,1.396184 1.351322,-0.570126 -0.587914,-1.393482 a 6.6000004,6.6000004 0 0 0 0.926226,-0.627072 l 1.07654,1.063052 1.03014,-1.044 -1.075424,-1.060404 a 6.6000004,6.6000004 0 0 0 0.611226,-0.938738 l 1.40356,0.57064 0.552326,-1.35852 -1.396046,-0.567586 a 6.6000004,6.6000004 0 0 0 0.203322,-1.102454 l 1.51666,-0.0088 -0.0094,-1.46664 -1.512916,0.0102 a 6.6000004,6.6000004 0 0 0 -0.228488,-1.094388 l 1.396184,-0.589054 -0.570128,-1.35132 -1.39348,0.587914 A 6.6000004,6.6000004 0 0 0 36.3933,28.583668 l 1.063052,-1.07654 -1.043998,-1.03014 -1.060404,1.075422 a 6.6000004,6.6000004 0 0 0 -0.938738,-0.611268 l 0.57064,-1.40356 -1.358524,-0.552328 -0.567582,1.396046 A 6.6000004,6.6000004 0 0 0 31.95529,26.177978 l -0.0088,-1.51666 -1.46664,0.0094 0.0102,1.512916 a 6.6000004,6.6000004 0 0 0 -1.094368,0.228544 l -0.58904,-1.396138 z m 1.162544,2.755476 1.688088,4.001126 -3.998558,1.687004 a 5.1333336,5.1333336 0 0 1 -0.17366,-1.288522 5.1333336,5.1333336 0 0 1 -0.0026,-0.02074 5.1333336,5.1333336 0 0 1 0.409576,-1.99166 5.1333336,5.1333336 0 0 1 2.07701,-2.38732 z m 1.352462,-0.56742 a 5.1333336,5.1333336 0 0 1 1.288524,-0.17366 5.1333336,5.1333336 0 0 1 0.0118,-0.0018 l 0.009,-6.6e-4 a 5.1333336,5.1333336 0 0 1 1.991578,0.409386 5.1333336,5.1333336 0 0 1 2.387324,2.07701 l -4.001126,1.688086 z m -3.095374,7.607954 4.001126,-1.688088 1.687004,3.99856 a 5.1333336,5.1333336 0 0 1 -1.288522,0.17366 5.1333336,5.1333336 0 0 1 -0.02074,0.0026 5.1333336,5.1333336 0 0 1 -1.991658,-0.409578 5.1333336,5.1333336 0 0 1 -2.38732,-2.077006 z m 5.352446,-2.258214 3.99856,-1.687004 a 5.1333336,5.1333336 0 0 1 0.17366,1.288524 5.1333336,5.1333336 0 0 1 0.0018,0.0118 l 6.6e-4,0.009 a 5.1333336,5.1333336 0 0 1 -0.40944,1.9916 5.1333336,5.1333336 0 0 1 -2.077008,2.387324 z"/>
 <path style="fill:#ca9159" d="m 37.97814,37.854562 -0.0296,1.526514 a 5.1333336,5.1333336 0 0 0 -1.174536,0.28666 l -0.736286,-1.332236 -1.285858,0.708536 0.736232,1.335096 a 5.1333336,5.1333336 0 0 0 -0.875714,0.833962 l -1.29987,-0.784466 -0.757854,1.257422 1.302688,0.787382 a 5.1333336,5.1333336 0 0 0 -0.33484,1.162484 l -1.523726,-0.02956 -0.02844,1.466392 1.526512,0.0296 a 5.1333336,5.1333336 0 0 0 0.28666,1.174536 l -1.332236,0.736286 0.708536,1.285856 1.335096,-0.736232 a 5.1333336,5.1333336 0 0 0 0.833962,0.875714 L 34.8197,49.28244 a 17.600001,17.600001 0 0 0 4.151484,-1.17442 3.6666668,3.6666668 0 0 1 -0.458916,0.0255 3.6666668,3.6666668 0 0 1 -2.007388,-0.649204 l 2.058376,-1.980064 1.853668,1.92698 a 17.600001,17.600001 0 0 0 4.67354,-3.571006 l -1.420566,-0.02756 a 5.1333336,5.1333336 0 0 0 -0.28666,-1.174534 L 44.715476,41.921848 44.00694,40.63599 42.671844,41.37222 A 5.1333336,5.1333336 0 0 0 41.83788,40.496516 l 0.784468,-1.299874 -1.257422,-0.757854 -0.787384,1.302692 A 5.1333336,5.1333336 0 0 0 39.41506,39.40664 l 0.02956,-1.523728 -1.46639,-0.02844 z m 0.676324,2.947002 a 3.6666668,3.6666668 0 0 1 2.007394,0.649202 l -2.05838,1.980066 -1.980062,-2.058376 a 3.6666668,3.6666668 0 0 1 2.031048,-0.570892 z m -3.08789,1.587496 1.980064,2.058378 -2.058376,1.980062 a 3.6666668,3.6666668 0 0 1 -0.570894,-2.03105 3.6666668,3.6666668 0 0 1 0.649206,-2.00739 z m 6.111918,0.11852 a 3.6666668,3.6666668 0 0 1 0.57089,2.03105 3.6666668,3.6666668 0 0 1 -0.649204,2.00739 l -1.980064,-2.058374 z"/>
 <path style="fill:#ca9159" d="m 44.743858,31.966272 -1.417972,0.378122 0.406764,1.512428 c -0.23776,0.13452 -0.455854,0.300812 -0.6474,0.495572 l -1.354952,-0.782028 -0.733332,1.26902 1.35209,0.782026 c -0.0722,0.263838 -0.10646,0.534292 -0.10312,0.80781 l -1.512426,0.406766 0.380996,1.415098 1.50964,-0.403904 c 0.13452,0.23776 0.300798,0.455854 0.495572,0.6474 l -0.782026,1.354952 1.271878,0.733332 0.779166,-1.352076 c 0.263842,0.0722 0.537152,0.10646 0.810672,0.10312 l 0.403904,1.50964 1.417974,-0.378122 -0.403906,-1.512426 c 0.237762,-0.13452 0.452996,-0.300798 0.644528,-0.495572 l 1.35495,0.782026 0.733334,-1.269018 -1.352092,-0.782026 c 0.0722,-0.26384 0.10932,-0.534292 0.106,-0.807812 l 1.50964,-0.406764 -0.380996,-1.4151 -1.50964,0.403906 C 47.588584,34.72488 47.422292,34.506788 47.227532,34.31524 l 0.782028,-1.35495 -1.27188,-0.733334 -0.779166,1.352092 c -0.263838,-0.0722 -0.537152,-0.10646 -0.81067,-0.10312 L 44.743938,31.96629 Z m 0.455474,2.967654 a 1.4666667,1.4666667 0 0 1 1.466666,1.466668 1.4666667,1.4666667 0 0 1 -1.466666,1.466666 1.4666667,1.4666667 0 0 1 -1.466666,-1.466666 1.4666667,1.4666667 0 0 1 1.466666,-1.466668 z"/>
 <path style="fill:#ca9159" d="m 31.999992,14.400006 a 17.600001,17.600001 0 0 0 -5.45996,0.890883 l 0.572908,0.57291 a 5.1333336,5.1333336 0 0 0 -0.610162,1.045572 l -1.466666,-0.392451 -0.378122,1.417973 1.4696,0.395311 a 5.1333336,5.1333336 0 0 0 0,1.208855 l -1.472386,0.395311 0.38098,1.415098 1.47532,-0.39531 a 5.1333336,5.1333336 0 0 0 0.601568,1.048432 l -1.07709,1.07709 1.036978,1.039838 1.07995,-1.07709 a 5.1333336,5.1333336 0 0 0 1.042712,0.610162 l -0.39245,1.466666 1.417972,0.378122 0.395312,-1.4696 a 5.1333336,5.1333336 0 0 0 1.211716,-0.003 l 0.39245,1.472388 1.417974,-0.378122 -0.395312,-1.47532 a 5.1333336,5.1333336 0 0 0 1.048432,-0.601568 l 1.077092,1.07709 1.039838,-1.039834 -1.079952,-1.077094 a 5.1333336,5.1333336 0 0 0 0.610164,-1.045572 l 1.466666,0.395312 0.380982,-1.420834 -1.472388,-0.392451 a 5.1333336,5.1333336 0 0 0 0,-1.211715 L 37.786506,17.934673 37.405524,16.5167 35.933138,16.912011 A 5.1333336,5.1333336 0 0 0 35.33157,15.863579 l 0.919526,-0.922402 a 17.600001,17.600001 0 0 0 -1.738734,-0.340883 l -0.223432,0.223432 a 5.1333336,5.1333336 0 0 0 -0.504166,-0.332288 17.600001,17.600001 0 0 0 -1.78464,-0.09167 z m -0.638808,0.870834 a 3.6666668,3.6666668 0 0 1 1.019788,0.186194 l -1.429428,2.475 -2.472066,-1.429428 a 3.6666668,3.6666668 0 0 1 1.793294,-1.111455 3.6666668,3.6666668 0 0 1 1.088544,-0.12031 z m 2.288734,0.919527 a 3.6666668,3.6666668 0 0 1 1.11433,1.793293 3.6666668,3.6666668 0 0 1 -0.06874,2.108332 l -2.472072,-1.426567 1.426568,-2.475 z m -5.90392,1.584146 2.472066,1.426568 -1.426568,2.474999 a 3.6666668,3.6666668 0 0 1 -1.111454,-1.793291 3.6666668,3.6666668 0 0 1 0.06587,-2.108334 z m 3.743962,2.159959 2.472064,1.429428 A 3.6666668,3.6666668 0 0 1 32.168732,22.475356 3.6666668,3.6666668 0 0 1 30.0604,22.40948 l 1.429426,-2.474999 z"/>
 <path style="fill:#ecc895" d="m 27.10299,10.536425 0.471328,2.963061 A 19.037523,19.037523 0 0 0 25.6106,14.081193 l -1.22065,-2.739625 -2.674492,1.192912 1.224828,2.747709 A 19.037523,19.037523 0 0 0 21.1963,16.353155 l -1.895051,-2.336968 -2.272672,1.844345 1.880621,2.31895 a 19.037523,19.037523 0 0 0 -1.407659,1.492434 l -2.422748,-1.75776 -1.719816,2.370446 2.435821,1.767246 a 19.037523,19.037523 0 0 0 -0.976803,1.797472 l -2.806301,-1.07411 -1.048139,2.732776 2.803553,1.074546 a 19.037523,19.037523 0 0 0 -0.473682,1.992652 l -2.989245,-0.312264 -0.30418,2.912634 2.983156,0.31034 a 19.037523,19.037523 0 0 0 0.04784,2.048638 l -2.954673,0.469992 0.460102,2.892488 2.963061,-0.471328 a 19.037523,19.037523 0 0 0 0.581707,1.963716 l -2.739624,1.220652 1.192913,2.674492 2.747709,-1.224828 a 19.037523,19.037523 0 0 0 1.070966,1.743984 l -2.336968,1.895052 1.844345,2.272672 2.318948,-1.88062 a 19.037523,19.037523 0 0 0 1.492437,1.407658 l -1.757764,2.422748 2.370446,1.719816 1.767246,-2.43582 a 19.037523,19.037523 0 0 0 1.797472,0.976802 l -1.07411,2.8063 2.732776,1.048142 1.074546,-2.803556 a 19.037523,19.037523 0 0 0 1.992654,0.473684 l -0.312266,2.989242 2.912634,0.304182 0.31034,-2.983154 a 19.037523,19.037523 0 0 0 2.048638,-0.04784 l 0.469992,2.954674 2.892488,-0.460104 -0.471328,-2.96306 A 19.037523,19.037523 0 0 0 38.3894,49.918812 l 1.22065,2.739622 2.674492,-1.19291 -1.224828,-2.74771 A 19.037523,19.037523 0 0 0 42.8037,47.646848 l 1.895054,2.336968 2.272672,-1.844344 -1.88062,-2.31895 a 19.037523,19.037523 0 0 0 1.407656,-1.492436 l 2.422748,1.757762 1.719818,-2.370444 -2.435824,-1.767246 a 19.037523,19.037523 0 0 0 0.976804,-1.797474 l 2.8063,1.07411 1.048142,-2.732774 -2.803554,-1.074544 A 19.037523,19.037523 0 0 0 50.706578,35.42482 L 53.695822,35.73708 54,32.824448 51.016846,32.514108 a 19.037523,19.037523 0 0 0 -0.04784,-2.04864 l 2.954674,-0.469992 -0.460104,-2.892486 -2.96306,0.471328 a 19.037523,19.037523 0 0 0 -0.5817,-1.963718 l 2.739624,-1.220652 -1.192912,-2.674492 -2.747708,1.22483 A 19.037523,19.037523 0 0 0 47.646844,21.1963 l 2.336968,-1.895053 -1.844346,-2.272672 -2.318948,1.880622 a 19.037523,19.037523 0 0 0 -1.492434,-1.407658 l 1.75776,-2.422749 -2.370446,-1.719816 -1.767244,2.435822 A 19.037523,19.037523 0 0 0 40.15068,14.817993 l 1.074108,-2.806301 -2.732772,-1.04814 -1.074546,2.803553 a 19.037523,19.037523 0 0 0 -1.992654,-0.473681 l 0.312264,-2.989245 -2.912632,-0.3041802 -0.31034,2.9831562 a 19.037523,19.037523 0 0 0 -2.04864,0.04784 l -0.469992,-2.954674 z m 2.366446,5.554918 A 16.108674,16.108674 0 0 1 47.908662,29.46945 16.108674,16.108674 0 0 1 34.530554,47.908674 16.108674,16.108674 0 0 1 16.09133,34.530568 16.108674,16.108674 0 0 1 29.469436,16.091343 Z"/>
 <path style="opacity:0.1;fill:#8b9cbe" d="M 32 4 A 28 28 0 0 0 4 32 A 28 28 0 0 0 4.0175781 32.492188 A 28 28 0 0 1 32 5 A 28 28 0 0 1 59.974609 32.492188 A 28 28 0 0 0 60 32 A 28 28 0 0 0 32 4 z"/>
</svg>
