<svg xmlns="http://www.w3.org/2000/svg" width="64" height="64" version="1.1">
 <path style="opacity:0.2" d="m 8.0804377,18.998905 a 2.0517976,2.0002305 0 1 0 0,4.000118 h 6.8361393 a 2.0517976,2.0002305 0 1 0 0,-4.000118 z m 12.6136533,0 c -2.704724,-0.03829 -2.704724,4.038407 0,4.000118 h 1.871149 1.464888 c 2.70463,-0.0382 2.70463,4.038311 0,4.000118 h -0.929716 -6.406439 -3.668077 c -2.704724,-0.03828 -2.704724,4.038407 0,4.000118 h 7.668195 2.238348 4.398568 c 2.70463,-0.0382 2.70463,4.038311 0,4.000118 h -4.265752 -0.101563 c -2.704724,-0.03828 -2.704724,4.038408 0,4.000119 h 1.9024 1.066438 c 2.70463,-0.0382 2.70463,4.038311 0,4.000118 h -3.265725 -4.640761 c -2.704724,-0.03828 -2.704724,4.038407 0,4.000118 h 19.172441 10.801101 0.667988 v -0.02344 C 56.129098,46.620585 61.99597,40.469315 62,32.999318 61.990415,25.533352 56.125078,19.389578 48.667574,19.034062 v -0.03516 H 47.999586 27.331007 21.33083 Z M 11.94774,34.999377 a 1.9229738,2.0002305 0 1 0 0,4.000119 h 5.101713 a 1.9229738,2.0002305 0 1 0 0,-4.000119 z m -7.863514,8.000237 a 2.0572934,2.0002305 0 1 0 0,4.000118 h 6.828327 a 2.0572934,2.0002305 0 1 0 0,-4.000118 z"/>
 <path style="fill:#4f4f4f" d="m 8.0804377,17.999113 a 2.0517976,2.0002305 0 1 0 0,4.000119 h 6.8361393 a 2.0517976,2.0002305 0 1 0 0,-4.000119 z m 12.6136533,0 c -2.704724,-0.03829 -2.704724,4.038408 0,4.000119 h 1.871149 1.464888 c 2.70463,-0.0382 2.70463,4.038311 0,4.000118 h -0.929716 -6.406439 -3.668077 c -2.704724,-0.03828 -2.704724,4.038407 0,4.000118 h 7.668195 2.238348 4.398568 c 2.70463,-0.0382 2.70463,4.038311 0,4.000118 h -4.265752 -0.101563 c -2.704724,-0.03828 -2.704724,4.038408 0,4.000118 h 1.9024 1.066438 c 2.70463,-0.0382 2.70463,4.038312 0,4.000119 h -3.265725 -4.640761 c -2.704724,-0.03828 -2.704724,4.038407 0,4.000118 h 19.172441 10.801101 0.667988 V 45.9765 C 56.129098,45.620794 61.99597,39.469524 62,31.999527 61.990415,24.533561 56.125078,18.389787 48.667574,18.034271 v -0.03516 H 47.999586 27.331007 21.33083 Z M 11.94774,33.999586 a 1.9229738,2.0002305 0 1 0 0,4.000118 h 5.101713 a 1.9229738,2.0002305 0 1 0 0,-4.000118 z m -7.863514,8.000237 a 2.0572934,2.0002305 0 1 0 0,4.000118 h 6.828327 a 2.0572934,2.0002305 0 1 0 0,-4.000118 z"/>
 <path style="opacity:0.2" d="m 48.999614,24.999082 v 0 c -3.869647,0 -7.000205,2.985798 -7.000205,6.666491 v 2.667491 c 0,3.685177 3.130558,6.666491 7.000205,6.666491 3.864946,0 7.000208,-2.981314 7.000208,-6.666491 v -2.667491 c 0,-3.680693 -3.135262,-6.666491 -7.000208,-6.666491 z"/>
 <path style="fill:#8b9cbe" d="m 48.999614,23.999291 v 0 c -3.869647,0 -7.000205,2.985798 -7.000205,6.666491 v 2.667491 c 0,3.685176 3.130558,6.666491 7.000205,6.666491 3.864946,0 7.000208,-2.981315 7.000208,-6.666491 v -2.667491 c 0,-3.680693 -3.135262,-6.666491 -7.000208,-6.666491 z"/>
 <path style="fill:none;stroke:#4f4f4f;stroke-width:4.00011826;stroke-linecap:round" d="m 45.999527,31.999527 h 6.000177"/>
 <path style="opacity:0.1;fill:#8b9cbe" d="M 8.0800781 18 A 2.0517976 2.0002305 0 0 0 6.0683594 20.5 A 2.0517976 2.0002305 0 0 1 8.0800781 18.998047 L 14.916016 18.998047 A 2.0517976 2.0002305 0 0 1 16.927734 20.501953 A 2.0517976 2.0002305 0 0 0 14.916016 18 L 8.0800781 18 z M 20.693359 18 C 19.114046 17.977642 18.465431 19.354803 18.730469 20.5 C 18.918771 19.683145 19.567103 18.982103 20.693359 18.998047 L 21.330078 18.998047 L 27.330078 18.998047 L 48 18.998047 L 48.667969 18.998047 L 48.667969 19.033203 C 55.959146 19.38079 61.711933 25.266243 61.974609 32.505859 C 61.980781 32.336494 61.999908 32.170798 62 32 C 61.990415 24.534034 56.125473 18.390672 48.667969 18.035156 L 48.667969 18 L 48 18 L 27.330078 18 L 21.330078 18 L 20.693359 18 z M 25.994141 24.5 C 25.805283 25.316044 25.154668 26.015892 24.029297 26 L 23.099609 26 L 16.693359 26 L 13.025391 26 C 11.446636 25.977656 10.798208 27.355044 11.0625 28.5 C 11.250802 27.683146 11.899134 26.98406 13.025391 27 L 16.693359 27 L 23.099609 27 L 24.029297 27 C 25.607709 27.022289 26.25804 25.64481 25.994141 24.5 z M 29.294922 32.5 C 29.106435 33.316568 28.456008 34.0159 27.330078 34 L 23.064453 34 L 22.962891 34 C 21.384136 33.977656 20.735708 35.355043 21 36.5 C 21.188302 35.683146 21.836634 34.98406 22.962891 35 L 23.064453 35 L 27.330078 35 C 28.908491 35.022289 29.558821 33.64481 29.294922 32.5 z M 11.947266 34 A 1.9229738 2.0002305 0 0 0 10.0625 36.496094 A 1.9229738 2.0002305 0 0 1 11.947266 35 L 17.048828 35 A 1.9229738 2.0002305 0 0 1 18.933594 36.498047 A 1.9229738 2.0002305 0 0 0 17.048828 34 L 11.947266 34 z M 27.896484 40.5 C 27.707998 41.316568 27.057571 42.0159 25.931641 42 L 22.666016 42 L 18.025391 42 C 16.446636 41.977656 15.798208 43.355044 16.0625 44.5 C 16.250802 43.683146 16.899134 42.98406 18.025391 43 L 22.666016 43 L 25.931641 43 C 27.510053 43.022289 28.160384 41.64481 27.896484 40.5 z M 4.0839844 42 A 2.0572934 2.0002305 0 0 0 2.0664062 44.501953 A 2.0572934 2.0002305 0 0 1 4.0839844 43 L 10.912109 43 A 2.0572934 2.0002305 0 0 1 12.929688 44.5 A 2.0572934 2.0002305 0 0 0 10.912109 42 L 4.0839844 42 z"/>
</svg>
