<svg xmlns="http://www.w3.org/2000/svg" width="64" height="64" version="1">
 <path style="opacity:0.2" d="m 32,4.9982329 c -4.432,0 -8,3.568 -8,8.0000001 l 0,9.339844 -3.542968,-3.54297 c -2.398191,-2.398188 -6.261967,-2.398188 -8.660157,0 -2.3981898,2.39819 -2.3981898,6.261968 0,8.660158 L 23.339844,38.998233 11.796875,50.541201 c -2.3981898,2.39819 -2.3981898,6.261969 0,8.660156 2.39819,2.39819 6.261967,2.39819 8.660157,0 l 7.390624,-7.390624 c 1.21215,0.738014 2.623654,1.1875 4.152344,1.1875 1.52869,0 2.940194,-0.449486 4.152344,-1.1875 l 7.390624,7.390624 c 2.39819,2.39819 6.261968,2.39819 8.660156,0 2.39819,-2.398187 2.39819,-6.261966 0,-8.660156 L 40.660156,38.998233 52.203124,27.455266 c 2.39819,-2.39819 2.39819,-6.261968 0,-8.660158 -2.398188,-2.398189 -6.261966,-2.398189 -8.660156,0 L 40,22.338077 40,12.998233 C 40,8.5662329 36.432,4.9982329 32,4.9982329 Z"/>
 <path style="fill:#2d5a37" d="m 32,4 c -4.432,0 -8,3.568 -8,8 l 0,9.339844 -3.542968,-3.542969 c -2.398191,-2.39819 -6.261967,-2.39819 -8.660157,0 -2.3981898,2.398189 -2.3981898,6.261967 0,8.660157 L 23.339844,38 11.796875,49.542968 c -2.3981898,2.39819 -2.3981898,6.261968 0,8.660156 2.39819,2.39819 6.261967,2.39819 8.660157,0 L 27.847656,50.8125 C 29.059806,51.550514 30.47131,52 32,52 c 1.52869,0 2.940194,-0.449486 4.152344,-1.1875 l 7.390624,7.390624 c 2.39819,2.39819 6.261968,2.39819 8.660156,0 2.39819,-2.398188 2.39819,-6.261966 0,-8.660156 L 40.660156,38 52.203124,26.457032 c 2.39819,-2.39819 2.39819,-6.261968 0,-8.660157 -2.398188,-2.39819 -6.261966,-2.39819 -8.660156,0 L 40,21.339844 40,12 C 40,7.568 36.432,4 32,4 Z"/>
 <path style="opacity:0.1;fill:#8b9cbe" d="M 32 4 C 27.568 4 24 7.568 24 12 L 24 13 C 24 8.568 27.568 5 32 5 C 36.432 5 40 8.568 40 13 L 40 12 C 40 7.568 36.432 4 32 4 z M 16.125 16 C 14.559508 16 12.99597 16.59778 11.796875 17.796875 C 10.477233 19.116516 9.9023555 20.878912 10.037109 22.597656 C 10.153348 21.213275 10.733248 19.860501 11.796875 18.796875 C 12.99597 17.59778 14.559508 17 16.125 17 C 17.690492 17 19.257935 17.59778 20.457031 18.796875 L 24 22.339844 L 24 21.339844 L 20.457031 17.796875 C 19.257935 16.59778 17.690492 16 16.125 16 z M 47.871094 16 C 46.305602 16 44.742065 16.59778 43.542969 17.796875 L 40 21.339844 L 40 22.339844 L 43.542969 18.796875 C 44.742065 17.59778 46.305602 17 47.871094 17 C 49.436586 17 51.004031 17.59778 52.203125 18.796875 C 53.266752 19.860501 53.846652 21.213275 53.962891 22.597656 C 54.097645 20.878912 53.522767 19.116516 52.203125 17.796875 C 51.004031 16.59778 49.436586 16 47.871094 16 z M 22.339844 39 L 11.796875 49.542969 C 10.477233 50.86261 9.9023555 52.625006 10.037109 54.34375 C 10.153348 52.959369 10.733248 51.606596 11.796875 50.542969 L 22.339844 40 L 22.839844 40.5 L 23.339844 40 L 22.339844 39 z M 41.660156 39 L 40.660156 40 L 41.160156 40.5 L 41.660156 40 L 52.203125 50.542969 C 53.266752 51.606596 53.846652 52.959369 53.962891 54.34375 C 54.097645 52.625006 53.522767 50.86261 52.203125 49.542969 L 41.660156 39 z"/>
 <rect style="opacity:0.2" width="42" height="40" x="-59" y="-52" rx="21" ry="20" transform="matrix(0,-1,-1,0,0,0)"/>
 <rect style="fill:#6d7481" width="42" height="40" x="-58" y="-52" rx="21" ry="20" transform="matrix(0,-1,-1,0,0,0)"/>
 <path style="opacity:0.2" d="m 21.058204,26.941762 a 2.0001998,2.0001998 0 0 0 -2.027344,2.03125 l -0.0039,0 0,7.6875 a 2.0001998,2.0001998 0 0 0 -0.0039,0.0196 2.0001998,2.0001998 0 0 0 -0.0078,0.07032 2.0001998,2.0001998 0 0 0 -0.01172,0.16406 2.0001998,2.0001998 0 0 0 0.0039,0.17968 2.0001998,2.0001998 0 0 0 0.0078,0.09374 2.0001998,2.0001998 0 0 0 0.01172,0.10156 l 0,7.683594 a 2.0001998,2.0001998 0 0 0 0.02734,0.339844 2.0001998,2.0001998 0 0 0 0.04297,0.19532 2.0001998,2.0001998 0 0 0 0.05859,0.1875 2.0001998,2.0001998 0 0 0 0,0.0078 2.0001998,2.0001998 0 0 0 0.07422,0.17188 2.0001998,2.0001998 0 0 0 0.0039,0.0118 2.0001998,2.0001998 0 0 0 0.09766,0.16796 2.0001998,2.0001998 0 0 0 0.113282,0.16406 2.0001998,2.0001998 0 0 0 0.128906,0.15234 2.0001998,2.0001998 0 0 0 0.132812,0.13282 2.0001998,2.0001998 0 0 0 0.01172,0.0078 2.0001998,2.0001998 0 0 0 0.0039,0.004 2.0001998,2.0001998 0 0 0 0.152344,0.11718 2.0001998,2.0001998 0 0 0 0.164062,0.10546 2.0001998,2.0001998 0 0 0 0.01172,0.0078 2.0001998,2.0001998 0 0 0 0.121094,0.0586 2.0001998,2.0001998 0 0 0 0.07422,0.03516 2.0001998,2.0001998 0 0 0 0.164062,0.0625 2.0001998,2.0001998 0 0 0 0.34375,0.07812 2.0001998,2.0001998 0 0 0 0.09766,0.0118 2.0001998,2.0001998 0 0 0 0.03125,0 2.0001998,2.0001998 0 0 0 0.148438,0.0078 2.0001998,2.0001998 0 0 0 0.14454,-0.0078 2.0001998,2.0001998 0 0 0 0.02344,0 2.0001998,2.0001998 0 0 0 0.0078,0 2.0001998,2.0001998 0 0 0 0.09766,-0.0118 2.0001998,2.0001998 0 0 0 0.34375,-0.07812 2.0001998,2.0001998 0 0 0 0.17968,-0.07032 2.0001998,2.0001998 0 0 0 0.004,0 2.0001998,2.0001998 0 0 0 0.0118,-0.004 2.0001998,2.0001998 0 0 0 0.16406,-0.08594 2.0001998,2.0001998 0 0 0 0.004,0 2.0001998,2.0001998 0 0 0 0.0078,-0.004 2.0001998,2.0001998 0 0 0 0.316406,-0.222658 2.0001998,2.0001998 0 0 0 0.0156,-0.0118 2.0001998,2.0001998 0 0 0 0.13282,-0.13282 2.0001998,2.0001998 0 0 0 0.1289,-0.15234 2.0001998,2.0001998 0 0 0 0.11328,-0.16406 2.0001998,2.0001998 0 0 0 0.09766,-0.16796 2.0001998,2.0001998 0 0 0 0.004,-0.0118 2.0001998,2.0001998 0 0 0 0.07422,-0.17188 2.0001998,2.0001998 0 0 0 0,-0.0078 2.0001998,2.0001998 0 0 0 0.0586,-0.1875 2.0001998,2.0001998 0 0 0 0.04296,-0.19532 2.0001998,2.0001998 0 0 0 0.02734,-0.339844 l 0,-6 3.996094,0 0,6 a 2.0001998,2.0001998 0 0 0 0.02734,0.339844 2.0001998,2.0001998 0 0 0 0.04296,0.19532 2.0001998,2.0001998 0 0 0 0.0586,0.1875 2.0001998,2.0001998 0 0 0 0,0.0078 2.0001998,2.0001998 0 0 0 0.07422,0.17188 2.0001998,2.0001998 0 0 0 0.004,0.0118 2.0001998,2.0001998 0 0 0 0.09766,0.16796 2.0001998,2.0001998 0 0 0 0.11328,0.16406 2.0001998,2.0001998 0 0 0 0.1289,0.15234 2.0001998,2.0001998 0 0 0 0.13282,0.13282 2.0001998,2.0001998 0 0 0 0.0118,0.0078 2.0001998,2.0001998 0 0 0 0.004,0.004 2.0001998,2.0001998 0 0 0 0.15234,0.11718 2.0001998,2.0001998 0 0 0 0.16406,0.10546 2.0001998,2.0001998 0 0 0 0.0078,0.004 2.0001998,2.0001998 0 0 0 0.004,0.004 2.0001998,2.0001998 0 0 0 0.1211,0.0586 2.0001998,2.0001998 0 0 0 0.05078,0.02734 2.0001998,2.0001998 0 0 0 0.02344,0.0078 2.0001998,2.0001998 0 0 0 0.16406,0.0625 2.0001998,2.0001998 0 0 0 0.34375,0.07812 2.0001998,2.0001998 0 0 0 0.09766,0.0118 2.0001998,2.0001998 0 0 0 0.03126,0 2.0001998,2.0001998 0 0 0 0.14844,0.0078 2.0001998,2.0001998 0 0 0 0.14454,-0.0078 2.0001998,2.0001998 0 0 0 0.02344,0 2.0001998,2.0001998 0 0 0 0.0078,0 2.0001998,2.0001998 0 0 0 0.09766,-0.0118 2.0001998,2.0001998 0 0 0 0.34375,-0.07812 2.0001998,2.0001998 0 0 0 0.17968,-0.07032 2.0001998,2.0001998 0 0 0 0.004,0 2.0001998,2.0001998 0 0 0 0.0118,-0.004 2.0001998,2.0001998 0 0 0 0.16406,-0.08594 2.0001998,2.0001998 0 0 0 0.004,0 2.0001998,2.0001998 0 0 0 0.0078,-0.004 2.0001998,2.0001998 0 0 0 0.316406,-0.222658 2.0001998,2.0001998 0 0 0 0.004,-0.004 2.0001998,2.0001998 0 0 0 0.0118,-0.0078 2.0001998,2.0001998 0 0 0 0.13282,-0.13282 2.0001998,2.0001998 0 0 0 0.1289,-0.15234 2.0001998,2.0001998 0 0 0 0.11328,-0.16406 2.0001998,2.0001998 0 0 0 0.09766,-0.16796 2.0001998,2.0001998 0 0 0 0,-0.004 2.0001998,2.0001998 0 0 0 0.004,-0.0078 2.0001998,2.0001998 0 0 0 0.07422,-0.17188 2.0001998,2.0001998 0 0 0 0,-0.004 2.0001998,2.0001998 0 0 0 0,-0.004 2.0001998,2.0001998 0 0 0 0.0586,-0.1875 2.0001998,2.0001998 0 0 0 0.04296,-0.19532 2.0001998,2.0001998 0 0 0 0.02734,-0.339844 l 0,-7.683594 a 2.0001998,2.0001998 0 0 0 0.0118,-0.10156 2.0001998,2.0001998 0 0 0 0.0078,-0.09374 2.0001998,2.0001998 0 0 0 0.004,-0.10938 2.0001998,2.0001998 0 0 0 -0.004,-0.11718 2.0001998,2.0001998 0 0 0 0,-0.0078 2.0001998,2.0001998 0 0 0 0,-0.0196 2.0001998,2.0001998 0 0 0 -0.0196,-0.16406 2.0001998,2.0001998 0 0 0 0,-0.0156 l 0,-7.6875 -0.004,0 a 2.0001998,2.0001998 0 0 0 -2.028446,-2.030834 2.0001998,2.0001998 0 0 0 -1.347656,0.554688 2.0001998,2.0001998 0 0 0 -0.14062,0.14452 2.0001998,2.0001998 0 0 0 -0.09766,0.125 2.0001998,2.0001998 0 0 0 -0.0664,0.08984 2.0001998,2.0001998 0 0 0 -0.02344,0.03516 2.0001998,2.0001998 0 0 0 -0.296874,1.390626 l 0,5.691406 -3.996094,0 0,-5.691406 a 2.0001998,2.0001998 0 0 0 -0.296874,-1.390626 2.0001998,2.0001998 0 0 0 -0.004,-0.0078 2.0001998,2.0001998 0 0 0 -0.0586,-0.08594 2.0001998,2.0001998 0 0 0 -0.02734,-0.03126 2.0001998,2.0001998 0 0 0 -0.09766,-0.125 2.0001998,2.0001998 0 0 0 -0.14062,-0.14452 2.0001998,2.0001998 0 0 0 -1.347656,-0.554688 z m 17.941406,4.058594 a 6,6 0 0 0 -6,6 6,6 0 0 0 6,6 6,6 0 0 0 1.484376,-0.19532 c -0.04444,0.16746 -0.07236,0.36409 -0.125,0.515624 -0.286496,0.824772 -0.64752,1.315902 -1.003908,1.554688 -0.356386,0.238786 -0.819636,0.40599 -1.941406,0.16796 a 2.0003554,2.0003554 0 1 0 -0.828124,3.914064 c 1.87823,0.39849 3.66498,0.13406 4.996094,-0.757814 1.331112,-0.891872 2.095092,-2.232054 2.558592,-3.566406 0.927016,-2.668646 0.859376,-5.632796 0.859376,-7.632796 a 2.0002,2.0002 0 0 0 -0.01172,-0.230468 6,6 0 0 0 -5.988282,-5.769532 z m 0,4 a 2,2 0 0 1 2,2 2,2 0 0 1 -2,2 2,2 0 0 1 -2,-2 2,2 0 0 1 2,-2 z"/>
 <path style="fill:#c4c4c4" d="m 21.058204,25.941406 a 2.0001998,2.0001998 0 0 0 -2.027344,2.03125 l -0.0039,0 0,7.6875 a 2.0001998,2.0001998 0 0 0 -0.0039,0.0196 2.0001998,2.0001998 0 0 0 -0.0078,0.07032 2.0001998,2.0001998 0 0 0 -0.01172,0.16406 2.0001998,2.0001998 0 0 0 0.0039,0.17968 2.0001998,2.0001998 0 0 0 0.0078,0.09374 2.0001998,2.0001998 0 0 0 0.01172,0.10156 l 0,7.683594 a 2.0001998,2.0001998 0 0 0 0.02734,0.339844 2.0001998,2.0001998 0 0 0 0.04297,0.19532 2.0001998,2.0001998 0 0 0 0.05859,0.1875 2.0001998,2.0001998 0 0 0 0,0.0078 2.0001998,2.0001998 0 0 0 0.07422,0.17188 2.0001998,2.0001998 0 0 0 0.0039,0.0118 2.0001998,2.0001998 0 0 0 0.09766,0.16796 2.0001998,2.0001998 0 0 0 0.113282,0.16406 2.0001998,2.0001998 0 0 0 0.128906,0.15234 2.0001998,2.0001998 0 0 0 0.132812,0.13282 2.0001998,2.0001998 0 0 0 0.01172,0.0078 2.0001998,2.0001998 0 0 0 0.0039,0.004 2.0001998,2.0001998 0 0 0 0.152344,0.11718 2.0001998,2.0001998 0 0 0 0.164062,0.10546 2.0001998,2.0001998 0 0 0 0.01172,0.0078 2.0001998,2.0001998 0 0 0 0.121094,0.0586 2.0001998,2.0001998 0 0 0 0.07422,0.03516 2.0001998,2.0001998 0 0 0 0.164062,0.0625 2.0001998,2.0001998 0 0 0 0.34375,0.07812 2.0001998,2.0001998 0 0 0 0.09766,0.0118 2.0001998,2.0001998 0 0 0 0.03125,0 2.0001998,2.0001998 0 0 0 0.148438,0.0078 2.0001998,2.0001998 0 0 0 0.14454,-0.0078 2.0001998,2.0001998 0 0 0 0.02344,0 2.0001998,2.0001998 0 0 0 0.0078,0 2.0001998,2.0001998 0 0 0 0.09766,-0.0118 2.0001998,2.0001998 0 0 0 0.34375,-0.07812 2.0001998,2.0001998 0 0 0 0.17968,-0.07032 2.0001998,2.0001998 0 0 0 0.004,0 2.0001998,2.0001998 0 0 0 0.0118,-0.004 2.0001998,2.0001998 0 0 0 0.16406,-0.08594 2.0001998,2.0001998 0 0 0 0.004,0 2.0001998,2.0001998 0 0 0 0.0078,-0.004 2.0001998,2.0001998 0 0 0 0.316406,-0.222658 2.0001998,2.0001998 0 0 0 0.0156,-0.0118 2.0001998,2.0001998 0 0 0 0.13282,-0.13282 2.0001998,2.0001998 0 0 0 0.1289,-0.15234 2.0001998,2.0001998 0 0 0 0.11328,-0.16406 2.0001998,2.0001998 0 0 0 0.09766,-0.16796 2.0001998,2.0001998 0 0 0 0.004,-0.0118 2.0001998,2.0001998 0 0 0 0.07422,-0.17188 2.0001998,2.0001998 0 0 0 0,-0.0078 2.0001998,2.0001998 0 0 0 0.0586,-0.1875 2.0001998,2.0001998 0 0 0 0.04296,-0.19532 2.0001998,2.0001998 0 0 0 0.02734,-0.339844 l 0,-6 3.996094,0 0,6 a 2.0001998,2.0001998 0 0 0 0.02734,0.339844 2.0001998,2.0001998 0 0 0 0.04296,0.19532 2.0001998,2.0001998 0 0 0 0.0586,0.1875 2.0001998,2.0001998 0 0 0 0,0.0078 2.0001998,2.0001998 0 0 0 0.07422,0.17188 2.0001998,2.0001998 0 0 0 0.004,0.0118 2.0001998,2.0001998 0 0 0 0.09766,0.16796 2.0001998,2.0001998 0 0 0 0.11328,0.16406 2.0001998,2.0001998 0 0 0 0.1289,0.15234 2.0001998,2.0001998 0 0 0 0.13282,0.13282 2.0001998,2.0001998 0 0 0 0.0118,0.0078 2.0001998,2.0001998 0 0 0 0.004,0.004 2.0001998,2.0001998 0 0 0 0.15234,0.11718 2.0001998,2.0001998 0 0 0 0.16406,0.10546 2.0001998,2.0001998 0 0 0 0.0078,0.004 2.0001998,2.0001998 0 0 0 0.004,0.004 2.0001998,2.0001998 0 0 0 0.1211,0.0586 2.0001998,2.0001998 0 0 0 0.05078,0.02734 2.0001998,2.0001998 0 0 0 0.02344,0.0078 2.0001998,2.0001998 0 0 0 0.16406,0.0625 2.0001998,2.0001998 0 0 0 0.34375,0.07812 2.0001998,2.0001998 0 0 0 0.09766,0.0118 2.0001998,2.0001998 0 0 0 0.03126,0 2.0001998,2.0001998 0 0 0 0.14844,0.0078 2.0001998,2.0001998 0 0 0 0.14454,-0.0078 2.0001998,2.0001998 0 0 0 0.02344,0 2.0001998,2.0001998 0 0 0 0.0078,0 2.0001998,2.0001998 0 0 0 0.09766,-0.0118 2.0001998,2.0001998 0 0 0 0.34375,-0.07812 2.0001998,2.0001998 0 0 0 0.17968,-0.07032 2.0001998,2.0001998 0 0 0 0.004,0 2.0001998,2.0001998 0 0 0 0.0118,-0.004 2.0001998,2.0001998 0 0 0 0.16406,-0.08594 2.0001998,2.0001998 0 0 0 0.004,0 2.0001998,2.0001998 0 0 0 0.0078,-0.004 2.0001998,2.0001998 0 0 0 0.316406,-0.222658 2.0001998,2.0001998 0 0 0 0.004,-0.004 2.0001998,2.0001998 0 0 0 0.0118,-0.0078 2.0001998,2.0001998 0 0 0 0.13282,-0.13282 2.0001998,2.0001998 0 0 0 0.1289,-0.15234 2.0001998,2.0001998 0 0 0 0.11328,-0.16406 2.0001998,2.0001998 0 0 0 0.09766,-0.16796 2.0001998,2.0001998 0 0 0 0,-0.004 2.0001998,2.0001998 0 0 0 0.004,-0.0078 2.0001998,2.0001998 0 0 0 0.07422,-0.17188 2.0001998,2.0001998 0 0 0 0,-0.004 2.0001998,2.0001998 0 0 0 0,-0.004 2.0001998,2.0001998 0 0 0 0.0586,-0.1875 2.0001998,2.0001998 0 0 0 0.04296,-0.19532 2.0001998,2.0001998 0 0 0 0.02734,-0.339844 l 0,-7.683594 a 2.0001998,2.0001998 0 0 0 0.0118,-0.10156 2.0001998,2.0001998 0 0 0 0.0078,-0.09374 2.0001998,2.0001998 0 0 0 0.004,-0.10938 2.0001998,2.0001998 0 0 0 -0.004,-0.11718 2.0001998,2.0001998 0 0 0 0,-0.0078 2.0001998,2.0001998 0 0 0 0,-0.0196 2.0001998,2.0001998 0 0 0 -0.0196,-0.16406 2.0001998,2.0001998 0 0 0 0,-0.0156 l 0,-7.6875 -0.004,0 a 2.0001998,2.0001998 0 0 0 -2.028446,-2.030834 2.0001998,2.0001998 0 0 0 -1.347656,0.554688 2.0001998,2.0001998 0 0 0 -0.14062,0.14452 2.0001998,2.0001998 0 0 0 -0.09766,0.125 2.0001998,2.0001998 0 0 0 -0.0664,0.08984 2.0001998,2.0001998 0 0 0 -0.02344,0.03516 2.0001998,2.0001998 0 0 0 -0.296874,1.390626 l 0,5.691406 -3.996094,0 0,-5.691406 a 2.0001998,2.0001998 0 0 0 -0.296874,-1.390626 2.0001998,2.0001998 0 0 0 -0.004,-0.0078 2.0001998,2.0001998 0 0 0 -0.0586,-0.08594 2.0001998,2.0001998 0 0 0 -0.02734,-0.03126 2.0001998,2.0001998 0 0 0 -0.09766,-0.125 2.0001998,2.0001998 0 0 0 -0.14062,-0.14452 2.0001998,2.0001998 0 0 0 -1.347656,-0.554688 z M 38.99961,30 a 6,6 0 0 0 -6,6 6,6 0 0 0 6,6 6,6 0 0 0 1.484376,-0.19532 c -0.04444,0.16746 -0.07236,0.36409 -0.125,0.515624 -0.286496,0.824772 -0.64752,1.315902 -1.003908,1.554688 -0.356386,0.238786 -0.819636,0.40599 -1.941406,0.16796 a 2.0003554,2.0003554 0 1 0 -0.828124,3.914064 c 1.87823,0.39849 3.66498,0.13406 4.996094,-0.757814 1.331112,-0.891872 2.095092,-2.232054 2.558592,-3.566406 C 45.06725,40.96415 44.99961,38 44.99961,36 A 2.0002,2.0002 0 0 0 44.987892,35.769532 6,6 0 0 0 38.99961,30 Z m 0,4 a 2,2 0 0 1 2,2 2,2 0 0 1 -2,2 2,2 0 0 1 -2,-2 2,2 0 0 1 2,-2 z"/>
</svg>
