<svg xmlns="http://www.w3.org/2000/svg" width="64" height="64" version="1.1">
 <path style="opacity:0.2;fill-rule:evenodd" d="M 32.500001,5 C 23.359,5 16,12.323541 16,21.464542 V 39 h 5 V 21.464542 C 21,14.862709 25.898166,10 32.500001,10 39.101834,10 44.184931,14.8653 44,21.464542 V 39 h 5 V 21.464542 C 49,12.323541 41.640999,5 32.500001,5 Z"/>
 <rect style="opacity:0.2" width="39" height="31" x="13" y="30" rx="2.786" ry="2.818"/>
 <path style="fill:#adadad;fill-rule:evenodd" d="M 32.500001,4 C 23.359,4 16,11.323541 16,20.464542 V 38 h 5 V 20.464542 C 21,13.862709 25.898166,9 32.500001,9 39.101834,9 44.184931,13.8653 44,20.464542 V 38 h 5 V 20.464542 C 49,11.323541 41.640999,4 32.500001,4 Z"/>
 <rect style="fill:#f74242" width="39" height="31" x="13" y="29" rx="2.786" ry="2.818"/>
 <path style="opacity:0.2" d="M 45,45.5 C 45,52.40356 39.403559,58 32.5,58 25.59644,58 20,52.40356 20,45.5 20,38.596443 25.59644,33 32.5,33 39.403559,33 45,38.596443 45,45.5 Z"/>
 <path style="fill:#8b9cbe" d="M 45,44.5 C 45,51.40356 39.403559,57 32.5,57 25.59644,57 20,51.40356 20,44.5 20,37.596443 25.59644,32 32.5,32 39.403559,32 45,37.596443 45,44.5 Z"/>
 <path style="fill:none;stroke:#6c0061;stroke-width:0.69444442;stroke-linecap:round;stroke-linejoin:round" d="m 32.347257,33.388889 v 2.777777"/>
 <path style="fill:none;stroke:#e0e0e0;stroke-width:2.08333325;stroke-linecap:round;stroke-linejoin:round" d="m 27.497474,37.528289 4.858198,8.414644"/>
 <path style="fill:none;stroke:#bfbfbf;stroke-width:2.08333325;stroke-linecap:round;stroke-linejoin:round" d="m 32.355542,36.226536 v 0.414621 9.301776"/>
 <path style="fill:none;stroke:#808080;stroke-width:2.08333325;stroke-linecap:round;stroke-linejoin:round" d="m 37.21374,37.528289 -4.858198,8.414644"/>
 <path style="fill:none;stroke:#444444;stroke-width:2.08333325;stroke-linecap:round;stroke-linejoin:round" d="m 25.935856,42.23631 6.419875,3.706623 8.414457,-4.858195"/>
 <path style="fill:none;stroke:#6c0061;stroke-width:0.69444442;stroke-linecap:round;stroke-linejoin:round" d="m 32.347257,52.833334 v 2.777777"/>
 <path style="fill:none;stroke:#6c0061;stroke-width:0.69444442;stroke-linecap:round;stroke-linejoin:round" d="M 43.611111,44.652743 H 40.833334"/>
 <path style="fill:none;stroke:#6c0061;stroke-width:0.69444442;stroke-linecap:round;stroke-linejoin:round" d="M 24.166667,44.652743 H 21.38889"/>
 <path style="fill:#8b9cbe;fill-rule:evenodd;opacity:0.2" d="M 32.5 4 C 23.358999 4 16 11.323843 16 20.464844 L 16 21.464844 C 16 12.323843 23.358999 5 32.5 5 C 41.640998 5 49 12.323843 49 21.464844 L 49 20.464844 C 49 11.323843 41.640998 4 32.5 4 z"/>
 <path style="fill:#8b9cbe;opacity:0.2" d="M 15.785156 29 C 14.241871 29 13 30.257087 13 31.818359 L 13 32.818359 C 13 31.257087 14.241871 30 15.785156 30 L 49.214844 30 C 50.758129 30 52 31.257087 52 32.818359 L 52 31.818359 C 52 30.257087 50.758129 29 49.214844 29 L 15.785156 29 z"/>
</svg>
