<svg xmlns="http://www.w3.org/2000/svg" width="64" height="64" version="1">
 <rect style="opacity:0.2" width="56" height="56" x="4" y="5" rx="2.8" ry="2.8"/>
 <rect style="fill:#b2bfd9" width="56" height="56" x="4" y="4" rx="2.8" ry="2.8"/>
 <g transform="matrix(2,0,0,2,1,1)">
  <rect style="fill:#d07517" width="3" height="3" x="14" y="14" ry=".721"/>
  <rect style="fill:#d07517" width="3" height="3" x="14" y="10" ry=".721"/>
  <rect style="fill:#d07517" width="3" height="3" x="14" y="22" ry=".721"/>
  <rect style="fill:#d07517" width="3" height="3" x="14" y="18" ry=".721"/>
  <rect style="fill:#d07517" width="3" height="3" x="14" y="6" ry=".721"/>
  <rect style="fill:#d07517" width="3" height="3" x="10" y="6" ry=".721"/>
  <rect style="fill:#d07517" width="3" height="3" x="6" y="6" ry=".721"/>
  <rect style="fill:#d07517" width="3" height="3" x="22" y="6" ry=".721"/>
  <rect style="fill:#d07517" width="3" height="3" x="18" y="6" ry=".721"/>
 </g>
 <path style="fill:#8b9cbe;opacity:0.2" d="M 6.8007812 4 C 5.2495813 4 4 5.2495813 4 6.8007812 L 4 7.8007812 C 4 6.2495813 5.2495813 5 6.8007812 5 L 57.199219 5 C 58.750419 5 60 6.2495813 60 7.8007812 L 60 6.8007812 C 60 5.2495813 58.750419 4 57.199219 4 L 6.8007812 4 z"/>
</svg>
