<svg xmlns="http://www.w3.org/2000/svg" width="64" height="64" version="1">
 <rect style="opacity:0.2" width="56" height="56" x="4" y="5" rx="2.8" ry="2.8"/>
 <rect style="fill:#d03d32" width="56" height="56" x="4" y="4" rx="2.8" ry="2.8"/>
 <path style="opacity:0.2" d="m 52.136854,11 c -0.255992,0 -2.121588,1.050296 -4.369956,2.459962 -3.336106,2.09165 -3.939816,2.537764 -4.030942,2.979634 -0.17764,0.861394 -0.422414,1.170494 -2.589464,3.26898 -7.406874,7.172534 -17.235134,17.022138 -17.235134,17.272468 0,0.457034 1.471094,2.256556 1.84469,2.256556 0.19706,0 4.167878,-4.003074 9.830876,-9.910454 5.225216,-5.450718 9.732438,-10.03016 10.015978,-10.176538 0.687552,-0.354922 1.636616,-0.336632 2.177988,0.04196 0.4306,0.30107 0.453974,0.292648 1.04325,-0.38786 0.356612,-0.411824 0.796892,-1.277712 1.078038,-2.12047 0.563852,-1.690134 0.869714,-2.016976 1.888484,-2.016976 0.990012,0 1.658576,-0.318072 1.982462,-0.943312 0.6637,-1.281212 -0.202958,-2.723894 -1.63627,-2.723894 z M 22.212186,28.49876 c -0.633412,0.787954 -1.348242,1.969176 -2.186226,3.60272 -1.164382,2.269786 -1.877478,4.23292 -3.996372,4.855928 -2.319397,0.681938 -3.237861,1.147552 -4.244039,2.151978 -2.0706768,2.374822 -2.171817,5.062184 -1.16128,7.41323 0.79557,1.836324 2.463527,4.276344 4.073635,5.958874 2.230787,2.33115 4.190438,3.0324 6.012304,2.151992 0.974866,-0.471098 2.47357,-2.042102 3.070918,-3.218852 0.252088,-0.496618 0.677884,-1.620754 0.94603,-2.498288 0.81101,-2.654252 1.850056,-3.856694 3.835776,-4.438264 1.34779,-0.394744 2.243316,-1.071698 2.877534,-2.175628 0.947558,-1.64934 0.650368,-2.679442 -0.622428,-2.15735 -2.248304,0.922208 -2.689088,0.931526 -3.483838,0.0759 -0.432284,-0.465396 -0.85131,-0.46483 -0.85131,0.0011 0,0.384308 1.086504,1.365776 1.75644,1.586498 0.676974,0.223034 1.589644,0.02938 2.42803,-0.514988 0.521602,-0.33869 0.67236,-0.203908 0.507276,0.452666 -0.206562,0.821542 -1.435358,1.843506 -2.628924,2.186376 -2.646824,0.76035 -3.52066,1.710358 -4.451042,4.839734 -0.687282,2.311696 -1.847602,4.217304 -2.56794,4.217304 -0.443996,0 -0.553732,-0.346954 -0.723962,-2.292022 -0.1349,-1.5411 -0.417486,-2.486582 -0.973295,-3.253942 -0.185232,-0.25575 -0.186238,-0.393706 -0.0047,-0.685096 0.367033,-0.586676 0.286247,-0.810542 -0.841267,-2.32496 -1.395768,-1.87473 -1.573082,-2.017338 -2.133503,-1.717932 -0.573328,0.306302 -0.837804,0.11612 -0.836953,-0.600946 0.0011,-1.24685 0.985823,-2.17514 3.723837,-3.511798 1.422405,-0.694382 2.540455,-2.952146 3.633669,-4.348454 0.50216,-0.641362 0.619136,-0.706138 0.930962,-0.516764 0.28288,0.17178 0.437084,0.16014 0.746566,-0.05626 0.501954,-0.350978 0.491424,-0.537522 -0.06878,-1.202236 -0.792516,-0.940202 -0.606198,-2.474466 0.464598,-3.824088 0.63458,-0.799826 0.685394,-1.189036 0.19012,-1.453636 -1.573724,-0.2583 -2.477988,0.34026 -3.421862,1.297244 z m -4.973605,14.772774 c 0.244185,0 2.264426,2.557972 2.264426,2.867166 0,0.19716 -1.323387,1.533496 -1.518586,1.533496 -0.06896,0 -0.540079,-0.515696 -1.046837,-1.145996 -1.244774,-1.548236 -1.305851,-1.842108 -0.544584,-2.626156 0.335661,-0.345714 0.716264,-0.62851 0.845581,-0.62851 z"/>
 <path style="fill:#8b9cbe" d="m 52.136854,10 c -0.255992,0 -2.121588,1.050296 -4.369956,2.459962 -3.336106,2.09165 -3.939816,2.537764 -4.030942,2.979634 -0.17764,0.861394 -0.422414,1.170494 -2.589464,3.26898 -7.406874,7.172534 -17.235134,17.022138 -17.235134,17.272468 0,0.457034 1.471094,2.256556 1.84469,2.256556 0.19706,0 4.167878,-4.003074 9.830876,-9.910454 5.225216,-5.450718 9.732438,-10.03016 10.015978,-10.176538 0.687552,-0.354922 1.636616,-0.336632 2.177988,0.04196 0.4306,0.30107 0.453974,0.292648 1.04325,-0.38786 0.356612,-0.411824 0.796892,-1.277712 1.078038,-2.12047 0.563852,-1.690134 0.869714,-2.016976 1.888484,-2.016976 0.990012,0 1.658576,-0.318072 1.982462,-0.943312 0.6637,-1.281212 -0.202958,-2.723894 -1.63627,-2.723894 z M 22.212186,27.49876 c -0.633412,0.787954 -1.348242,1.969176 -2.186226,3.60272 -1.164382,2.269786 -1.877478,4.23292 -3.996372,4.855928 -2.319397,0.681938 -3.237861,1.147552 -4.244039,2.151978 -2.0706768,2.374822 -2.171817,5.062184 -1.16128,7.41323 0.79557,1.836324 2.463527,4.276344 4.073635,5.958874 2.230787,2.33115 4.190438,3.0324 6.012304,2.151992 0.974866,-0.471098 2.47357,-2.042102 3.070918,-3.218852 0.252088,-0.496618 0.677884,-1.620754 0.94603,-2.498288 0.81101,-2.654252 1.850056,-3.856694 3.835776,-4.438264 1.34779,-0.394744 2.243316,-1.071698 2.877534,-2.175628 0.947558,-1.64934 0.650368,-2.679442 -0.622428,-2.15735 -2.248304,0.922208 -2.689088,0.931526 -3.483838,0.0759 -0.432284,-0.465396 -0.85131,-0.46483 -0.85131,0.0011 0,0.384308 1.086504,1.365776 1.75644,1.586498 0.676974,0.223034 1.589644,0.02938 2.42803,-0.514988 0.521602,-0.33869 0.67236,-0.203908 0.507276,0.452666 -0.206562,0.821542 -1.435358,1.843506 -2.628924,2.186376 -2.646824,0.76035 -3.52066,1.710358 -4.451042,4.839734 -0.687282,2.311696 -1.847602,4.217304 -2.56794,4.217304 -0.443996,0 -0.553732,-0.346954 -0.723962,-2.292022 -0.1349,-1.5411 -0.417486,-2.486582 -0.973295,-3.253942 -0.185232,-0.25575 -0.186238,-0.393706 -0.0047,-0.685096 0.367033,-0.586676 0.286247,-0.810542 -0.841267,-2.32496 -1.395768,-1.87473 -1.573082,-2.017338 -2.133503,-1.717932 -0.573328,0.306302 -0.837804,0.11612 -0.836953,-0.600946 0.0011,-1.24685 0.985823,-2.17514 3.723837,-3.511798 1.422405,-0.694382 2.540455,-2.952146 3.633669,-4.348454 0.50216,-0.641362 0.619136,-0.706138 0.930962,-0.516764 0.28288,0.17178 0.437084,0.16014 0.746566,-0.05626 0.501954,-0.350978 0.491424,-0.537522 -0.06878,-1.202236 -0.792516,-0.940202 -0.606198,-2.474466 0.464598,-3.824088 0.63458,-0.799826 0.685394,-1.189036 0.19012,-1.453636 -1.573724,-0.2583 -2.477988,0.34026 -3.421862,1.297244 z m -4.973605,14.772774 c 0.244185,0 2.264426,2.557972 2.264426,2.867166 0,0.19716 -1.323387,1.533496 -1.518586,1.533496 -0.06896,0 -0.540079,-0.515696 -1.046837,-1.145996 -1.244774,-1.548236 -1.305851,-1.842108 -0.544584,-2.626156 0.335661,-0.345714 0.716264,-0.62851 0.845581,-0.62851 z"/>
 <path style="opacity:0.2;fill:#8b9cbe" d="M 6.8007812 4 C 5.2495812 4 4 5.2495812 4 6.8007812 L 4 7.8007812 C 4 6.2495813 5.2495812 5 6.8007812 5 L 57.199219 5 C 58.750419 5 60 6.2495812 60 7.8007812 L 60 6.8007812 C 60 5.2495813 58.750419 4 57.199219 4 L 6.8007812 4 z"/>
</svg>
