<svg xmlns="http://www.w3.org/2000/svg" width="64" height="64" version="1.1">
 <circle style="opacity:0.2" cx="32" cy="33" r="28"/>
 <circle style="fill:#ecc138" cx="32" cy="32" r="28"/>
 <path style="opacity:0.1" d="m 34,15.016754 v 4.492974 C 31.469192,18.643078 28.283706,19.99652 26,23 c 0.326192,-4.116024 1.211852,-8.298304 8,-7.983246 z"/>
 <path style="fill:#17191e" d="m 34,14.016755 v 4.492974 C 31.469192,17.643079 28.283706,18.99652 26,22 c 0.326192,-4.116024 1.211852,-8.298304 8,-7.983245 z"/>
 <path style="opacity:0.1" d="M 39.30165,16.893215 36.578,21.610714 c 3.157352,0.60962 6.151884,3.742502 6.706174,8.267286 1.352466,-3.011114 1.359818,-12.353105 -3.982524,-12.984785 z"/>
 <path style="fill:#17191e" d="M 39.30165,15.893215 36.578,20.610714 c 3.157352,0.60962 6.151884,3.742502 6.706174,8.267286 1.352466,-3.011114 1.359818,-12.353105 -3.982524,-12.984785 z"/>
 <ellipse style="opacity:0.2" cx="32.426" cy="33.179" rx="8.459" ry="13.101" transform="rotate(9.3364133)"/>
 <ellipse style="fill:#8b9cbe" cx="32.264" cy="32.192" rx="8.459" ry="13.101" transform="rotate(9.3364133)"/>
 <path style="fill:#17191e" d="m 30.13159,32.00377 a 2.8605974,5.1736858 18.004805 0 0 -3.342758,3.199692 l 4.157128,3.152928 -4.787162,-1.180284 a 2.8605974,5.1736858 18.004805 0 0 1.4444,4.759652 2.8605974,5.1736858 18.004805 0 0 4.300194,-4.13787 2.8605974,5.1736858 18.004805 0 0 -1.19679,-5.73359 2.8605974,5.1736858 18.004805 0 0 -0.575012,-0.06052 z"/>
 <ellipse style="opacity:0.2" cx="37" cy="40" rx="7" ry="11"/>
 <ellipse style="fill:#8b9cbe" cx="37" cy="39" rx="7" ry="11"/>
 <path style="fill:#17191e" d="m 35.709834,35.000134 a 3.5177878,1.9758459 82.938009 0 0 -0.19606,0.0152 A 3.5177878,1.9758459 82.938009 0 0 34,37.591034 l 2.687858,0.445648 -2.434802,1.744828 a 3.5177878,1.9758459 82.938009 0 0 2.220502,2.203062 3.5177878,1.9758459 82.938009 0 0 1.468178,-3.811932 3.5177878,1.9758459 82.938009 0 0 -2.2319,-3.172412 z"/>
 <path style="opacity:0.2;fill:#8b9cbe" d="M 32 4 A 28 28 0 0 0 4 32 A 28 28 0 0 0 4.0175781 32.492188 A 28 28 0 0 1 32 5 A 28 28 0 0 1 59.974609 32.492188 A 28 28 0 0 0 60 32 A 28 28 0 0 0 32 4 z"/>
</svg>
