<svg xmlns="http://www.w3.org/2000/svg" width="64" height="64" version="1">
 <path style="opacity:0.2" d="m 48.94705,10.000398 c -0.200748,-0.0053 -0.399398,0.04141 -0.576226,0.135392 C 39.250182,14.990346 30.67749,21.309904 24.730286,28.427934 25.204372,23.14939 26.15841,18.991036 26.34416,13.167435 26.377902,12.093819 25.02385,11.577238 24.317682,12.394319 15.357531,22.769316 7.9810357,35.695512 2.0740031,51.167782 c -0.1561068,0.408952 -0.060932,0.87006 0.2448162,1.186076 1.035486,1.069976 2.0710494,2.140172 3.1065644,3.210178 0.5705444,0.589162 1.5651836,0.411382 1.8903336,-0.337876 1.6878108,-3.89212 3.6125697,-5.772944 5.7041177,-6.594258 2.091546,-0.821314 4.540153,-0.615694 7.366561,0.19716 5.652816,1.625698 13.005858,6.010162 20.281014,7.155212 1.163832,0.18284 1.82123,-1.274174 0.90518,-2.006182 -4.455252,-3.55824 -9.446536,-7.450438 -13.90181,-11.00868 10.24653,-0.306902 17.37659,0.34821 28.851594,5.017472 1.19072,0.484614 2.166116,-1.032488 1.215252,-1.890164 -4.363942,-3.936082 -9.337982,-6.200398 -13.701944,-10.136468 6.1154,-2.736368 11.092106,-5.20143 17.267388,-7.829828 1.169782,-0.498484 0.774502,-2.22604 -0.49871,-2.179596 -13.643654,0.504022 -21.968294,2.000318 -29.282264,4.820922 6.80859,-6.4766 13.604438,-12.910237 18.307078,-18.941976 0.573828,-0.736564 0.05872,-1.804821 -0.882124,-1.829372 z"/>
 <path style="fill:#23a0ff" d="m 48.94705,9.0003987 c -0.200748,-0.00528 -0.399398,0.041414 -0.576226,0.135392 C 39.250182,13.990347 30.67749,20.309904 24.730286,27.427934 25.204372,22.14939 26.15841,17.991037 26.34416,12.167436 26.377902,11.093819 25.02385,10.577238 24.317682,11.394319 15.357531,21.769316 7.9810357,34.695512 2.0740031,50.167782 c -0.1561068,0.408952 -0.060932,0.87006 0.2448162,1.186076 1.035486,1.069976 2.0710494,2.140172 3.1065644,3.210178 0.5705444,0.589162 1.5651836,0.411382 1.8903336,-0.337876 1.6878108,-3.89212 3.6125697,-5.772944 5.7041177,-6.594258 2.091546,-0.821314 4.540153,-0.615694 7.366561,0.19716 5.652816,1.625698 13.005858,6.010162 20.281014,7.155212 1.163832,0.18284 1.82123,-1.274174 0.90518,-2.006182 -4.455252,-3.55824 -9.446536,-7.450438 -13.90181,-11.00868 10.24653,-0.306902 17.37659,0.34821 28.851594,5.017472 1.19072,0.484614 2.166116,-1.032488 1.215252,-1.890164 -4.363942,-3.936082 -9.337982,-6.200398 -13.701944,-10.136468 6.1154,-2.736368 11.092106,-5.20143 17.267388,-7.829828 1.169782,-0.498484 0.774502,-2.22604 -0.49871,-2.179596 -13.643654,0.504022 -21.968294,2.000318 -29.282264,4.820922 6.80859,-6.4766 13.604438,-12.910236 18.307078,-18.941975 0.573828,-0.736564 0.05872,-1.8048219 -0.882124,-1.8293723 z"/>
 <path style="fill:#0064be" d="M 31.52326,29.938878 C 19.58303,34.425722 11.005036,38.33723 3.1052907,52.246554 c 0.5618584,0.58167 1.1240368,1.16235 1.685902,1.744024 8.3406523,-13.653266 14.4538993,-16.325 26.7320673,-24.0517 z"/>
 <path style="opacity:0.3;fill:#8b9cbe" d="M 4.8370179,49.564768 C 8.8869117,38.744546 17.796643,21.724942 23.755756,15.295952 20.052994,20.863916 17.533393,26.425694 15.804183,31.371738 11.612992,37.172192 8.2215579,43.020972 4.8370179,49.564768 Z"/>
 <path style="opacity:0.3;fill:#8b9cbe" d="m 55.181818,27.670588 c -5.81447,2.152564 -13.28334,4.36191 -15.602044,6.266936 -1.936612,1.591108 5.061788,4.212282 7.520658,6.881462 -4.397026,-2.870086 -14.6085,-3.710388 -22.91078,-0.553294 8.012998,-1.722052 19.150168,0.03604 26.729244,2.791322 -3.15311,-2.898788 -7.324444,-5.421022 -9.529116,-7.230022 -1.17287,-0.864624 -0.45427,-1.96789 0.59127,-2.255266 2.618662,-1.066768 11.029072,-4.811512 13.200768,-5.901138 z"/>
 <path style="opacity:0.2;fill:#8b9cbe" d="M 48.947266 9 C 48.746518 8.99472 48.547922 9.0427408 48.371094 9.1367188 C 39.31448 13.957195 30.801331 20.222401 24.859375 27.279297 C 24.81853 27.667228 24.766355 28.028175 24.730469 28.427734 C 30.677673 21.309704 39.250452 14.991276 48.371094 10.136719 C 48.547922 10.042737 48.746518 9.99472 48.947266 10 C 49.408399 10.012033 49.764856 10.277365 49.943359 10.628906 C 50.299251 9.9131658 49.806419 9.0224188 48.947266 9 z M 25.277344 10.996094 C 24.937664 10.968362 24.583172 11.088126 24.318359 11.394531 C 15.358208 21.769528 7.9812513 34.695699 2.0742188 50.167969 C 1.9615003 50.463257 1.9832093 50.783177 2.1171875 51.058594 C 8.0171347 35.635275 15.379549 22.744817 24.318359 12.394531 C 24.960177 11.651908 26.124743 12.016881 26.308594 12.894531 C 26.319327 12.649973 26.33576 12.418467 26.34375 12.167969 C 26.364839 11.496958 25.843477 11.042314 25.277344 10.996094 z M 60.804688 24.951172 C 48.178485 25.417607 40.121619 26.74855 33.191406 29.177734 C 32.632504 29.709869 32.081718 30.238568 31.521484 30.771484 C 38.835454 27.95088 47.161034 26.455194 60.804688 25.951172 C 61.334936 25.93183 61.700881 26.224402 61.876953 26.603516 C 62.230437 25.907487 61.774933 24.915779 60.804688 24.951172 z M 44.802734 35.607422 C 44.534396 35.728384 44.307815 35.838935 44.035156 35.960938 C 48.399118 39.897007 53.374339 42.161574 57.738281 46.097656 C 57.848454 46.197031 57.927167 46.305028 57.988281 46.417969 C 58.190801 46.0057 58.170133 45.487185 57.738281 45.097656 C 53.625752 41.388337 48.977711 39.145661 44.802734 35.607422 z M 28.90625 42.947266 C 28.489803 42.956489 28.09664 42.955969 27.669922 42.96875 C 32.125196 46.526992 37.117014 50.420276 41.572266 53.978516 C 41.713248 54.091174 41.804665 54.222946 41.875 54.361328 C 42.093286 53.922514 42.044751 53.356075 41.572266 52.978516 C 37.513127 49.736636 33.044526 46.23844 28.90625 42.947266 z"/>
</svg>
