<svg xmlns="http://www.w3.org/2000/svg" width="64" height="64" version="1">
 <path style="opacity:0.2" d="M 50.912,28.016 C 51.425,26.28 51.708,24.449 51.708,22.549 51.708,11.753 42.888,3.0011 32.002,3.0011 21.122,3.0011 12.298,11.751 12.298,22.549 12.298,24.449 12.583,26.28 13.094,28.016 10.613,29.994 0.98234,38.562 4.9443,49.672 4.9443,49.672 8.2959,49.388 11.049,44.338 11.885,47.57 13.442,50.505 15.566,52.959 12.455,53.868 10.345,55.631 10.345,57.654 10.345,60.607 14.837,63 20.375,63 24.134,63 27.407,61.896 29.123,60.267 30.068,60.391 31.021,60.476 31.999,60.476 32.978,60.476 33.933,60.391 34.874,60.267 36.594,61.895 39.865,63 43.625,63 49.165,63 53.659,60.605 53.659,57.654 53.659,55.633 51.547,53.868 48.436,52.959 50.558,50.505 52.119,47.57 52.955,44.338 55.706,49.386 59.053,49.672 59.053,49.672 63.021,38.559 53.391,29.991 50.911,28.016 Z"/>
 <path style="fill:#4f4f4f" d="m 50.911843,27.016163 c 0.512698,-1.736413 0.795836,-3.567785 0.795836,-5.467376 0,-10.795753 -8.819961,-19.5479142 -19.705913,-19.5479142 -10.879952,0 -19.703713,8.7503612 -19.703713,19.5479142 0,1.899611 0.285038,3.730983 0.795836,5.467376 -2.481189,1.977411 -12.11154649,10.545553 -8.1495639,21.655904 0,0 3.3515852,-0.284658 6.1045729,-5.334376 0.835997,3.231786 2.39319,6.167573 4.51678,8.621362 -3.110586,0.908996 -5.220777,2.671988 -5.220777,4.694979 0,2.952787 4.491781,5.345777 10.030156,5.345777 3.759184,0 7.032369,-1.104475 8.748362,-2.732788 0.945036,0.123359 1.897751,0.208759 2.875387,0.208759 0.979476,0 1.934092,-0.0854 2.875387,-0.208759 1.719833,1.628233 4.991178,2.732788 8.750362,2.732788 5.540176,0 10.033956,-2.39499 10.033956,-5.345777 0,-2.020991 -2.111991,-3.785983 -5.222577,-4.694979 2.12159,-2.453789 3.682584,-5.389576 4.51858,-8.621362 2.750988,5.047978 6.098773,5.334376 6.098773,5.334376 C 63.02087,37.559116 53.390712,28.990954 50.911323,27.016163 Z"/>
 <circle style="fill:#8b9cbe" cx="22" cy="16" r="4"/>
 <circle style="fill:#8b9cbe" cx="42" cy="16" r="4"/>
 <ellipse style="fill:#8b9cbe" cx="32" cy="38" rx="14" ry="16"/>
 <circle style="fill:#303030" cx="24" cy="17" r="2"/>
 <circle style="fill:#303030" cx="44" cy="17" r="2"/>
 <path style="opacity:0.2;fill:none;stroke:#000000;stroke-width:3;stroke-linecap:round;stroke-linejoin:round" d="M 37.5,46.5 V 33 L 34.5,36.5"/>
 <path style="fill:none;stroke:#f34235;stroke-width:3;stroke-linecap:round;stroke-linejoin:round" d="M 37.5,45.5 V 32.5 L 34.5,35.5"/>
 <rect style="opacity:0.2" width="8" height="3" x="24" y="39" rx="1.5" ry="1.5"/>
 <rect style="fill:#f34235" width="8" height="3" x="24" y="38" rx="1.5" ry="1.5"/>
 <path style="opacity:0.2" d="M 28,19 H 36 C 35.359,25.163 32,31 32,31 32,31 28,24.073 28,19 Z"/>
 <path style="fill:#cd5252" d="M 28,18 H 36 C 35.359,24.163 32,30 32,30 32,30 28,23.073 28,18 Z"/>
 <path style="fill:#8b9cbe;opacity:0.1" d="M 32.002 2 C 21.122 2 12.299 10.751 12.299 21.549 C 12.299 21.687 12.311 21.823 12.314 21.961 C 12.629 11.436 21.321 3.002 32.002 3.002 C 42.689 3.002 51.377 11.438 51.691 21.961 C 51.694 21.823 51.707 21.687 51.707 21.549 C 51.707 10.753 42.888 2 32.002 2 z M 12.883 27.195 C 10.585 29.063 3.7544 35.333 4.0117 43.801 C 4.2989 35.622 11.071 29.628 13.094 28.016 C 13.014 27.746 12.951 27.47 12.883 27.195 z M 51.123 27.195 C 51.055 27.47 50.992 27.746 50.912 28.016 C 52.935 29.626 59.702 35.618 59.988 43.795 C 60.247 35.328 53.419 29.06 51.123 27.195 z M 14.928 52.176 C 12.177 53.13 10.346 54.776 10.346 56.654 C 10.346 56.845 10.366 57.033 10.402 57.219 C 10.682 55.382 12.682 53.802 15.566 52.959 C 15.346 52.704 15.136 52.441 14.928 52.176 z M 49.074 52.176 C 48.866 52.441 48.656 52.704 48.436 52.959 C 51.319 53.801 53.321 55.383 53.602 57.219 C 53.638 57.033 53.658 56.845 53.658 56.654 C 53.658 54.778 51.825 53.131 49.074 52.176 z"/>
</svg>
