<svg xmlns="http://www.w3.org/2000/svg" width="64" height="64" version="1.1">
 <g transform="translate(0,-988.3622)">
  <path style="opacity:0.2" d="m 31.959041,993.36162 c -5.369531,0 -9.999983,4.99519 -9.999983,11.19998 0,14 -7.999986,15.4 -7.999986,25.2002 0,10.8245 8.05886,19.5997 17.999969,19.5997 9.941109,0 17.999969,-8.7752 17.999969,-19.5997 0,-9.8002 -7.999986,-11.2002 -7.999986,-25.2002 0,-6.20479 -4.630452,-11.19998 -9.999983,-11.19998 z"/>
  <path style="fill:#4f4f4f" d="m 31.959041,992.36222 c -5.369531,0 -9.999983,4.9952 -9.999983,11.19998 0,14 -7.999986,15.4 -7.999986,25.2002 0,10.8245 8.05886,19.5997 17.999969,19.5997 9.941109,0 17.999969,-8.7752 17.999969,-19.5997 0,-9.8002 -7.999986,-11.2002 -7.999986,-25.2002 0,-6.20478 -4.630452,-11.19998 -9.999983,-11.19998 z"/>
  <path style="opacity:0.1" d="m 31.959041,1009.3623 c -3.579684,0 -5.99999,3.0328 -5.99999,6.7998 0,8.5002 -5.99999,9.35 -5.99999,15.3 0,6.5721 5.372575,11.9001 11.99998,11.9001 6.627405,0 11.99998,-5.328 11.99998,-11.9001 0,-5.95 -5.99999,-6.7998 -5.99999,-15.3 0,-3.767 -2.420306,-6.7998 -5.99999,-6.7998 z"/>
  <path style="fill:#8b9cbe" d="m 31.959041,1008.3622 c -3.579684,0 -5.959041,3.0328 -5.959041,6.7998 0,8.5002 -6.040939,9.35 -6.040939,15.3 0,6.5721 5.372575,11.9001 11.99998,11.9001 6.627405,0 11.99998,-5.328 11.99998,-11.9001 0,-5.95 -5.959021,-6.7998 -5.959021,-15.3 0,-3.767 -2.461275,-6.7998 -6.040959,-6.7998 z"/>
  <path style="opacity:0.2" d="m 22.99578,1049.3205 c -0.602643,-0.096 -1.13555,-0.2754 -2.303188,-0.7792 -1.73842,-0.7504 -2.549049,-0.9938 -5.730818,-1.72 -1.587082,-0.3622 -2.17856,-0.523 -3.556047,-0.9686 -0.501079,-0.162 -1.168939,-0.3688 -1.4841334,-0.4594 -0.8556362,-0.2462 -1.0824808,-0.342 -1.3959697,-0.5888 -0.4276564,-0.3368 -0.6269587,-0.8562 -0.5505218,-1.4348 0.048974,-0.3708 0.1784037,-0.727 0.5356615,-1.4746 0.4774856,-0.9994 1.6630144,-1.3588 1.7357464,-2.342 0.04279,-0.5788 0.0077,-1.2296 -0.139152,-2.5844 -0.08691,-0.802 -0.106767,-1.0974 -0.1080394,-1.6074 -0.00131,-0.5535 0.00578,-0.168 0.06275,-0.3796 0.214083,-0.7929 0.377015,-1.2503 1.134875,-1.4475 0.219364,-0.058 -0.239605,-0.066 0.789891,-0.086 0.640865,-0.02 1.011891,-0.036 1.094053,-0.056 0.444032,-0.102 0.767311,-0.2678 1.068587,-0.5548 0.286982,-0.2736 0.483392,-1.7526 0.85798,-2.419 0.583106,-1.0284 1.733424,-1.0182 2.672782,-1.0564 0.266321,0.056 0.354868,0.092 0.646553,0.2608 0.293564,0.168 0.376588,0.2364 0.631859,0.5082 0.64239,0.6842 0.949057,1.1064 2.389858,3.2888 1.141952,1.7301 1.490866,2.2835 1.951179,3.0951 0.501445,0.8846 1.405405,2.3034 1.740519,2.732 0.05678,0.074 0.404463,0.5142 0.772609,0.9808 0.368163,0.4674 0.704848,0.9042 0.748206,0.9714 0.691375,0.9644 1.176726,2.0728 1.349378,3.1802 0.05804,0.386 0.06006,0.4512 0.02758,0.893 -0.0412,0.561 -0.077,0.8008 -0.13782,0.9232 -0.0244,0.05 -0.07802,0.184 -0.11914,0.2974 -0.528615,1.4728 -1.846244,2.5778 -3.372734,2.8288 -0.324611,0.054 -0.9683,0.054 -1.312508,0 z"/>
  <path style="fill:#eab108" d="m 22.99578,1048.3211 c -0.602643,-0.096 -1.13555,-0.2754 -2.303188,-0.7792 -1.73842,-0.7504 -2.549049,-0.9938 -5.730818,-1.72 -1.587082,-0.3622 -2.17856,-0.523 -3.556047,-0.9686 -0.501079,-0.162 -1.168939,-0.3688 -1.4841334,-0.4594 -0.8556362,-0.2462 -1.0824808,-0.342 -1.3959697,-0.5888 -0.4276564,-0.3368 -0.6269587,-0.8562 -0.5505218,-1.4348 0.048974,-0.3708 0.1784037,-0.727 0.5356615,-1.4746 0.4774856,-0.9994 1.6630144,-1.3588 1.7357464,-2.342 0.04279,-0.5788 0.0077,-1.2296 -0.139152,-2.5844 -0.08691,-0.8017 -0.106767,-1.0971 -0.1080394,-1.6073 -0.024094,-0.7511 0.4794544,-1.8027 1.1976254,-1.8272 0.219364,-0.058 0,0 0.789891,-0.086 0.640865,-0.02 1.011891,-0.036 1.094053,-0.056 0.444032,-0.102 0.767311,-0.2678 1.068587,-0.5548 0.286982,-0.2736 0.483392,-1.7526 0.85798,-2.419 0.583106,-1.0284 1.733424,-1.0182 2.672782,-1.0564 0.266321,0.056 0.354868,0.092 0.646553,0.2608 0.293564,0.168 0.376588,0.2364 0.631859,0.5082 0.64239,0.6842 0.949057,1.1064 2.389858,3.2888 1.141952,1.7302 1.490866,2.2836 1.951179,3.0952 0.501445,0.8845 1.405405,2.3033 1.740519,2.7319 0.05678,0.074 0.404463,0.5142 0.772609,0.9808 0.368163,0.4674 0.704848,0.9042 0.748206,0.9714 0.691375,0.9644 1.176726,2.0728 1.349378,3.1802 0.05804,0.386 0.06006,0.4512 0.02758,0.893 -0.0412,0.561 -0.077,0.8008 -0.13782,0.9232 -0.0244,0.05 -0.07802,0.184 -0.11914,0.2974 -0.528615,1.4728 -1.846244,2.5778 -3.372734,2.8288 -0.324611,0.054 -0.9683,0.054 -1.312508,0 z"/>
  <path style="opacity:0.2" d="m 46.382253,1048.6537 c 0.460037,-0.3232 0.82758,-0.6856 1.586979,-1.569 1.13055,-1.3152 1.101292,-1.8424 3.43904,-3.7262 1.16615,-0.9392 1.589943,-1.3104 2.547588,-2.2322 0.348399,-0.3352 0.816518,-0.7746 1.04033,-0.9764 0.607543,-0.5476 0.755987,-0.7176 0.913546,-1.0452 0.214998,-0.4468 0.16474,-0.9484 -0.138639,-1.3858 -0.19448,-0.2804 -0.449716,-0.5162 -1.056213,-0.976 -0.810704,-0.6148 -1.042564,-1.1434 -1.510959,-1.9099 -0.2756,-0.4512 0.08408,-1.5922 -0.356327,-2.7492 -0.260554,-0.6844 -0.366694,-0.9316 -0.577389,-1.3454 -0.228622,-0.4488 -0.275454,-0.526 -0.410238,-0.6732 -0.506591,-0.555 -1.069016,-0.7426 -1.779511,-0.594 -0.205713,0.044 -0.326625,0.094 -1.188902,0.4966 -0.537503,0.2496 -1.019858,0.4632 -1.095736,0.4814 -0.409837,0.1 -0.747615,0.094 -1.116606,-0.02 -0.351545,-0.104 -0.630237,0.6274 -1.217412,0.2402 -0.401687,-0.263 -0.832824,-0.5914 -1.14134,-0.6766 -0.428655,-0.118 -0.427241,-0.118 -0.827801,-0.074 -0.385587,0.048 -0.669674,0.158 -0.983354,0.4028 -0.197719,0.154 -0.255711,0.22 -0.428055,0.4746 -0.17312,0.2568 -0.214288,0.3448 -0.313216,0.6688 -0.248921,0.8156 -0.328073,1.2822 -0.617563,3.6359 -0.229225,1.8662 -0.288987,2.4562 -0.333921,3.301 -0.04892,0.9202 -0.209972,2.437 -0.310037,2.9206 -0.0168,0.082 -0.12212,0.5812 -0.233782,1.109 -0.11152,0.5284 -0.20943,1.019 -0.217524,1.091 -0.173239,1.0626 -0.115979,2.1574 0.20041,3.1246 0.11198,0.336 0.13742,0.3898 0.347693,0.7344 0.266918,0.4374 0.396108,0.617 0.49735,0.6912 0.0404,0.03 0.140699,0.116 0.222317,0.192 1.049596,0.9776 2.601004,1.3354 3.971257,0.9172 0.29119,-0.088 0.825145,-0.3514 1.088649,-0.5344 z"/>
  <path style="fill:#eab108" d="m 46.382253,1047.6543 c 0.460037,-0.3232 0.82758,-0.6856 1.586979,-1.569 1.13055,-1.3152 1.101292,-1.8424 3.43904,-3.7262 1.16615,-0.9392 1.589943,-1.3104 2.547588,-2.2322 0.348399,-0.3352 0.816518,-0.7746 1.04033,-0.9764 0.607543,-0.5476 0.755987,-0.7176 0.913546,-1.0452 0.214998,-0.4468 0.16474,-0.9484 -0.138639,-1.3858 -0.19448,-0.2804 -0.449716,-0.5162 -1.056213,-0.9759 -0.810704,-0.6148 -1.142326,-1.1434 -1.610721,-1.91 -0.275599,-0.4512 0.08408,-1.5922 -0.356327,-2.7492 -0.260554,-0.6844 -0.266932,-0.9316 -0.477627,-1.3454 -0.228622,-0.4488 -0.275454,-0.526 -0.410238,-0.6732 -0.506591,-0.555 -1.069016,-0.7424 -1.779511,-0.5938 -0.205713,0.044 -0.326625,0.094 -1.188902,0.4966 -0.537503,0.2494 -1.019858,0.463 -1.095736,0.4812 -0.409837,0.1 -0.747615,0.094 -1.116606,-0.02 -0.351545,-0.104 -0.630237,0.6276 -1.217412,0.2402 -0.401687,-0.263 -0.832824,-0.5914 -1.14134,-0.6766 -0.428655,-0.118 -0.427241,-0.118 -0.827801,-0.074 -0.385587,0.048 -0.669674,0.158 -0.983354,0.4028 -0.197719,0.154 -0.255711,0.22 -0.428055,0.4746 -0.17312,0.2568 -0.214288,0.3448 -0.313216,0.6688 -0.248921,0.8156 -0.328073,1.2822 -0.617563,3.636 -0.229225,1.8661 -0.288987,2.4561 -0.333921,3.3009 -0.04892,0.9202 -0.209972,2.4372 -0.310037,2.9208 -0.0168,0.082 -0.12212,0.581 -0.233782,1.109 -0.11152,0.5282 -0.20943,1.019 -0.217524,1.091 -0.173239,1.0626 -0.115979,2.1574 0.20041,3.1246 0.11198,0.336 0.13742,0.3898 0.347693,0.7344 0.266918,0.4374 0.396108,0.617 0.49735,0.6912 0.0404,0.03 0.140699,0.116 0.222317,0.192 1.049596,0.9774 2.601004,1.3354 3.971257,0.9172 0.29119,-0.088 0.825145,-0.3514 1.088649,-0.5344 z"/>
  <circle style="opacity:0.1" cx="27.959" cy="1003.362" r="4"/>
  <circle style="fill:#8b9cbe" cx="27.959" cy="1002.362" r="4"/>
  <circle style="fill:#8b9cbe" cx="27.959" cy="1002.362" r="2"/>
  <path style="opacity:0.1" d="m 37.959031,1008.3622 c 0,3.8662 -2.686288,7 -5.99999,7 -3.313702,0 -5.99999,-3.1338 -5.99999,-7 z"/>
  <path style="fill:#f77d00" d="m 37.959031,1007.5622 c 0,3.8662 -2.686288,6.8 -5.99999,6.8 -3.313702,0 -5.99999,-2.9338 -5.99999,-6.8 z"/>
  <circle style="opacity:0.1" cx="35.959" cy="1003.362" r="4"/>
  <circle style="fill:#8b9cbe" cx="35.959" cy="1002.362" r="4"/>
  <circle style="fill:#8b9cbe" cx="35.959" cy="1002.362" r="2"/>
  <path style="fill:#eab108" d="m 37.959031,1007.6956 c 0,0.6666 -2.686288,4.6666 -5.99999,4.6666 -3.313702,0 -5.99999,-4 -5.99999,-4.6666 0,-1.841 2.686288,-3.3334 5.99999,-3.3334 3.313702,0 5.99999,1.4924 5.99999,3.3334 z"/>
  <path style="fill:#8b9cbe;opacity:0.2" transform="translate(0,988.3622)" d="M 50.587891 40.0625 C 50.427334 40.057156 50.257702 40.072225 50.080078 40.109375 C 49.874365 40.153375 49.752902 40.202869 48.890625 40.605469 C 48.353122 40.854869 47.8708 41.069691 47.794922 41.087891 C 47.385085 41.187891 47.048679 41.182359 46.679688 41.068359 C 46.328142 40.964359 46.048113 41.695994 45.460938 41.308594 C 45.05925 41.045594 44.628828 40.716059 44.320312 40.630859 C 43.891658 40.512859 43.892747 40.512641 43.492188 40.556641 C 43.1066 40.604641 42.823446 40.716137 42.509766 40.960938 C 42.312047 41.114937 42.254375 41.180947 42.082031 41.435547 C 41.908911 41.692347 41.866506 41.779516 41.767578 42.103516 C 41.518657 42.919116 41.439881 43.386434 41.150391 45.740234 C 40.921166 47.606334 40.86134 48.196216 40.816406 49.041016 C 40.767486 49.961216 40.605924 51.477337 40.505859 51.960938 C 40.489059 52.042938 40.3851 52.542312 40.273438 53.070312 C 40.161918 53.598512 40.062781 54.088156 40.054688 54.160156 C 39.963724 54.718103 39.942141 55.285322 39.982422 55.837891 C 39.998168 55.611707 40.018035 55.38497 40.054688 55.160156 C 40.062781 55.088156 40.161918 54.598512 40.273438 54.070312 C 40.3851 53.542312 40.489059 53.042938 40.505859 52.960938 C 40.605924 52.477337 40.767486 50.959263 40.816406 50.039062 C 40.86134 49.194263 40.921166 48.604381 41.150391 46.738281 C 41.439881 44.384481 41.518657 43.919116 41.767578 43.103516 C 41.866506 42.779516 41.908911 42.690394 42.082031 42.433594 C 42.254375 42.178994 42.312047 42.112984 42.509766 41.958984 C 42.823446 41.714184 43.1066 41.604641 43.492188 41.556641 C 43.892747 41.512641 43.891658 41.512859 44.320312 41.630859 C 44.628828 41.716059 45.05925 42.043641 45.460938 42.306641 C 46.048113 42.694041 46.328142 41.962406 46.679688 42.066406 C 47.048679 42.180406 47.385085 42.187891 47.794922 42.087891 C 47.8708 42.069691 48.353122 41.854869 48.890625 41.605469 C 49.752902 41.202869 49.874365 41.153375 50.080078 41.109375 C 50.790573 40.960775 51.352784 41.148125 51.859375 41.703125 C 51.994159 41.850325 52.040909 41.928153 52.269531 42.376953 C 52.480226 42.790753 52.487493 43.036303 52.748047 43.720703 C 53.188454 44.877703 52.827917 46.019503 53.103516 46.470703 C 53.571911 47.237303 53.90414 47.766059 54.714844 48.380859 C 55.321341 48.840559 55.577004 49.077022 55.771484 49.357422 C 55.840749 49.457285 55.892815 49.560876 55.935547 49.666016 C 56.110606 49.238737 56.057923 48.770398 55.771484 48.357422 C 55.577004 48.077022 55.321341 47.840559 54.714844 47.380859 C 53.90414 46.766059 53.571911 46.237303 53.103516 45.470703 C 52.827917 45.019503 53.188454 43.879656 52.748047 42.722656 C 52.487493 42.038256 52.480226 41.790753 52.269531 41.376953 C 52.040909 40.928153 51.994159 40.850325 51.859375 40.703125 C 51.479432 40.286875 51.069559 40.078531 50.587891 40.0625 z"/>
  <path style="fill:#4f4f4f" d="m 46.861258,1034.4598 c -2.303424,0 -2.320588,-1.9136 -2.78048,-4.1708 -0.511647,-2.5112 -0.838676,-3.963 3.170903,-4.1708 3.646857,-1.71 4.008189,8.2078 -0.390423,8.3416 z"/>
  <path style="fill:#8b9cbe;opacity:0.2" transform="translate(0,988.3622)" d="M 17.679688 40 C 16.74033 40.0382 15.590919 40.028241 15.007812 41.056641 C 14.633224 41.723041 14.437373 43.202963 14.150391 43.476562 C 13.849115 43.763562 13.52411 43.92925 13.080078 44.03125 C 12.997916 44.05125 12.627193 44.065938 11.986328 44.085938 C 11.196437 44.171938 11.41663 44.113875 11.197266 44.171875 C 10.479095 44.196375 9.975906 45.2489 10 46 C 10.000519 46.208277 10.032958 46.470509 10.042969 46.65625 C 10.146363 45.962348 10.581998 45.192864 11.197266 45.171875 C 11.41663 45.113875 11.196437 45.171938 11.986328 45.085938 C 12.627193 45.065938 12.997916 45.049297 13.080078 45.029297 C 13.52411 44.927297 13.849115 44.761609 14.150391 44.474609 C 14.437373 44.201009 14.633224 42.723041 15.007812 42.056641 C 15.590919 41.028241 16.74033 41.0382 17.679688 41 C 17.946009 41.056 18.034487 41.090966 18.326172 41.259766 C 18.619736 41.427766 18.703713 41.497731 18.958984 41.769531 C 19.601374 42.453731 19.906855 42.874241 21.347656 45.056641 C 22.489608 46.786841 22.838515 47.340744 23.298828 48.152344 C 23.800273 49.036844 24.705902 50.456166 25.041016 50.884766 C 25.097796 50.958766 25.444354 51.398634 25.8125 51.865234 C 26.180663 52.332634 26.517189 52.768738 26.560547 52.835938 C 27.251922 53.800338 27.737504 54.910178 27.910156 56.017578 C 27.915619 56.053906 27.915434 56.06643 27.919922 56.097656 C 27.925941 56.027467 27.931341 55.994021 27.9375 55.910156 C 27.96998 55.468356 27.968196 55.403578 27.910156 55.017578 C 27.737504 53.910178 27.251922 52.802291 26.560547 51.837891 C 26.517189 51.770691 26.180663 51.332634 25.8125 50.865234 C 25.444354 50.398634 25.097796 49.958766 25.041016 49.884766 C 24.705902 49.456166 23.800273 48.038797 23.298828 47.154297 C 22.838515 46.342697 22.489608 45.788794 21.347656 44.058594 C 19.906855 41.876194 19.601374 41.453731 18.958984 40.769531 C 18.703713 40.497731 18.619736 40.429719 18.326172 40.261719 C 18.034487 40.092919 17.946009 40.056 17.679688 40 z M 10.246094 50.167969 C 10.245615 50.174759 10.246594 50.184637 10.246094 50.191406 C 10.173362 51.174606 8.9892043 51.533803 8.5117188 52.533203 C 8.154461 53.280803 8.0235834 53.637013 7.9746094 54.007812 C 7.9400579 54.269355 7.9692146 54.516235 8.0429688 54.742188 C 8.1146003 54.443458 8.2341428 54.11406 8.5117188 53.533203 C 8.9892043 52.533803 10.173362 52.174606 10.246094 51.191406 C 10.267779 50.898075 10.268823 50.580547 10.246094 50.167969 z"/>
  <path style="opacity:0.1;fill:#8b9cbe" transform="translate(0,988.3622)" d="M 31.958984 4 C 26.589453 4 21.958984 8.9944387 21.958984 15.199219 C 21.958984 29.199219 13.958984 30.600191 13.958984 40.400391 C 13.958984 40.577121 13.980105 40.74822 13.984375 40.923828 C 14.248381 31.567014 21.958984 29.960115 21.958984 16.199219 C 21.958984 9.9944387 26.589453 5 31.958984 5 C 37.328515 5 41.958984 9.9944387 41.958984 16.199219 C 41.958984 29.960115 49.669587 31.567014 49.933594 40.923828 C 49.937863 40.74822 49.958984 40.577121 49.958984 40.400391 C 49.958984 30.600191 41.958984 29.199219 41.958984 15.199219 C 41.958984 8.9944387 37.328515 4 31.958984 4 z"/>
 </g>
</svg>
