<svg xmlns="http://www.w3.org/2000/svg" width="64" height="64" version="1.1">
 <path style="opacity:0.2" d="m 7.0000028,55.491 c 0.00486,4.109 0.9821569,5.479171 13.4046812,5.47917 3.531559,0 7.830466,0.322543 10.093705,-1.153579 2.137028,-1.393805 1.366253,-3.439334 1.366254,-5.521057 C 31.864643,50.009139 27.826497,47 20.960318,47 14.094138,47 6.9948764,51.2 7.0000028,55.491 Z"/>
 <path style="fill:#9d7730" d="m 7.0000028,54.491 c 0.00486,4.109 0.9821569,5.479171 13.4046812,5.47917 3.531559,0 7.830466,0.322543 10.093705,-1.153579 2.137028,-1.393805 1.366253,-3.439334 1.366254,-5.521057 C 31.864643,49.009139 27.826497,46 20.960318,46 14.094138,46 6.9948764,50.2 7.0000028,54.491 Z"/>
 <path style="opacity:0.2" d="M 32,5 C 16.536027,5 4,17.536027 4,33 c 0,5.567598 1.6241919,10.755124 4.4257812,15.115234 0.127568,0.198534 0.2724519,0.373017 0.40625,0.5625 C 14.025184,56.356754 22.690526,60.995707 32,61 47.463973,61 60,48.463973 60,33 59.99352,30.625929 59.666236,28.268268 59.064453,25.974609 59.03572,25.761562 58.99929,25.54985 58.941406,25.345703 55.611684,13.602187 44.810334,5 32,5 Z"/>
 <path style="fill:#ffa500" d="m 32,3.9999998 c 12.810334,0 23.611382,8.6027772 26.941104,20.3462932 0.689747,2.432649 -0.848089,5.544922 -0.848089,8.19856 -3e-6,15.463973 -9.539335,23.096321 -25.00331,23.096321 -9.896374,0 -19.683305,-0.775341 -24.6631148,-8.525408 C 5.6250008,42.755656 4.0000002,37.567598 4.0000002,32 4.0000002,16.536027 16.536027,3.9999998 32,3.9999998 Z"/>
 <path style="fill:#8b9cbe;opacity:0.2" d="M 32 4 C 16.536027 4 4 16.536027 4 32 C 4 32.13867 4.0136158 32.273917 4.015625 32.412109 C 4.329576 17.220466 16.733129 5 32 5 C 44.810334 5 55.611684 13.602187 58.941406 25.345703 C 59.024797 25.639812 59.074685 25.943894 59.099609 26.255859 C 59.144142 25.589797 59.111637 24.946084 58.941406 24.345703 C 55.611684 12.602187 44.810334 4 32 4 z"/>
 <ellipse style="fill:#17191e" cx="-37" cy="28" rx="4" ry="7" transform="scale(-1,1)"/>
 <path style="fill:#f27300" d="M 58.802951,23.976129 C 58.101794,40.620214 44.414477,52.980598 27.755642,53 20.688052,52.989829 13.834552,51.351308 8.3233508,46.926648 13.448068,55.059909 22.386851,59.995567 32,60 47.463973,60 60,47.463973 60,32 59.99258,29.281447 59.589376,26.578459 58.802951,23.976129 Z"/>
 <path style="opacity:0.2" d="M 58.802734 23.976562 C 58.101577 40.620647 44.414694 52.980598 27.755859 53 C 20.688269 52.989829 13.83542 51.350441 8.3242188 46.925781 C 8.7784011 47.646598 9.2712909 48.334527 9.7832031 49.003906 C 15.022815 52.615255 21.298166 53.990707 27.755859 54 C 44.414694 53.980598 58.101577 41.620647 58.802734 24.976562 C 59.550857 27.452147 59.940669 30.019003 59.984375 32.603516 C 59.988646 32.402203 60 32.202337 60 32 C 59.99258 29.281447 59.589159 26.578892 58.802734 23.976562 z"/>
 <path style="opacity:0.2" d="m 56.999994,55.491 c -0.0049,4.109 -0.982156,5.479171 -13.404679,5.47917 -3.531559,0 -7.830465,0.322543 -10.093704,-1.153579 C 31.364583,58.422786 32.135358,56.377257 32.135357,54.295534 32.135357,50.009139 36.173503,47 43.03968,47 c 6.86618,0 13.96544,4.2 13.960314,8.491 z"/>
 <ellipse style="fill:#17191e" cx="-25" cy="28" rx="4" ry="7" transform="scale(-1,1)"/>
 <path style="fill:#9d7730" d="m 56.999994,54.491 c -0.0049,4.109 -0.982156,5.479171 -13.404679,5.47917 -3.531559,0 -7.830465,0.322543 -10.093704,-1.153579 C 31.364583,57.422786 32.135358,55.377257 32.135357,53.295534 32.135357,49.009139 36.173503,46 43.03968,46 c 6.86618,0 13.96544,4.2 13.960314,8.491 z"/>
 <path style="opacity:0.2" d="M 55.643661,51.189843 A 30.864194,31.111111 0 0 1 42.48177,59.980859 c 0.370147,-0.0043 0.754857,-0.01092 1.112195,-0.01092 12.422523,1e-6 13.401171,-1.370688 13.406032,-5.479688 0.0014,-1.132873 -0.502335,-2.255817 -1.356336,-3.300391 z"/>
 <path style="opacity:0.2" d="M 25 21 A 4 7 0 0 0 21 28 A 4 7 0 0 0 21.013672 28.460938 A 4 7 0 0 1 25 22 A 4 7 0 0 1 28.986328 28.539062 A 4 7 0 0 0 29 28 A 4 7 0 0 0 25 21 z M 37 21 A 4 7 0 0 0 33 28 A 4 7 0 0 0 33.013672 28.460938 A 4 7 0 0 1 37 22 A 4 7 0 0 1 40.986328 28.539062 A 4 7 0 0 0 41 28 A 4 7 0 0 0 37 21 z"/>
</svg>
