<svg width="64" height="64" version="1.1" xmlns="http://www.w3.org/2000/svg">
 <path d="m32.150418 5.0018636a6.3412168 6.367007 0 0 0-3.320888 0.8493728l-18.658644 10.81631a6.3412168 6.367007 0 0 0-3.170886 5.514554v21.634018a6.3412168 6.367007 0 0 0 3.170608 5.513994l18.658644 10.81687a6.3412168 6.367007 0 0 0 6.341218 0l18.658642-10.81687a6.3412168 6.367007 0 0 0 3.170888-5.514554v-21.634018a6.3412168 6.367007 0 0 0-3.170888-5.514554l-18.658642-10.81631a6.3412168 6.367007 0 0 0-3.020886-0.8493728z" style="opacity:.2"/>
 <path d="m32.150418 4.0018627a6.3412168 6.367007 0 0 0-3.320888 0.8493728l-18.658644 10.81631a6.3412168 6.367007 0 0 0-3.170886 5.514555v21.634018a6.3412168 6.367007 0 0 0 3.170608 5.513994l18.658644 10.81687a6.3412168 6.367007 0 0 0 6.341218 0l18.658642-10.81687a6.3412168 6.367007 0 0 0 3.170888-5.514554v-21.634018a6.3412168 6.367007 0 0 0-3.170888-5.514555l-18.658642-10.81631a6.3412168 6.367007 0 0 0-3.020886-0.8493728z" style="fill:#37384b"/>
 <path d="m32.148438 4a6.3412168 6.367007 0 0 0-3.320313 0.8515625l-18.65625 10.816406a6.3412168 6.367007 0 0 0-3.171875 5.515625v1a6.3412168 6.367007 0 0 1 3.171875-5.515625l18.65625-10.816406a6.3412168 6.367007 0 0 1 3.320313-0.8515625h0.0039a6.3412168 6.367007 0 0 1 3.019531 0.8515625l18.656256 10.816406a6.3412168 6.367007 0 0 1 3.171875 5.511719v-1a6.3412168 6.367007 0 0 0-3.171875-5.511719l-18.65625-10.816406a6.3412168 6.367007 0 0 0-3.019531-0.8515625z" style="fill:#8b9cbe;opacity:.1"/>
 <path d="m24 11-8 5v8l-8 5v8l8 5v8l8 5 8-5 8 5 8-5v-8l8-5v-8l-8-5v-8l-8-5-8 5z" style="opacity:.2"/>
 <path d="m32 41 8-5v-8l-8-5-8 5v8z" style="fill:#8b9cbe"/>
 <path d="m48 41 8-5v-8l-8-5-8 5v8z" style="fill:#fdfd67"/>
 <path d="m16 41 8-5v-8l-8-5-8 5v8z" style="fill:#37fb6e"/>
 <path d="m24 28 8-5v-8l-8-5-8 5v8z" style="fill:#be4c01"/>
 <path d="m40 28 8-5v-8l-8-5-8 5v8z" style="fill:#8b9cfd"/>
 <path d="m24 54 8-5v-8l-8-5-8 5v8z" style="fill:#fdd600"/>
 <path d="m40 54 8-5v-8l-8-5-8 5v8z" style="fill:#8a5ffd"/>
</svg>
