<svg xmlns="http://www.w3.org/2000/svg" height="64" width="64" version="1.1">
 <circle r="9.5" cy="26.5" cx="9.500001" style="opacity:.2"/>
 <circle r="9.5" cy="26.5" cx="54.5" style="opacity:.2"/>
 <circle r="9.5" cy="25.5" cx="9.500001" style="fill:#684c2a"/>
 <circle r="9.5" cy="25.5" cx="54.5" style="fill:#684c2a"/>
 <path style="opacity:.1;fill:#8b9cbe" d="m9.5 16a9.5 9.5 0 0 0 -9.5 9.5 9.5 9.5 0 0 0 0.01953125 0.585938 9.5 9.5 0 0 1 9.4804688 -9.085938 9.5 9.5 0 0 1 9.480469 8.914062 9.5 9.5 0 0 0 0.019531 -0.414062 9.5 9.5 0 0 0 -9.5 -9.5z"/>
 <path style="opacity:.1;fill:#8b9cbe" d="m54.5 16a9.5 9.5 0 0 0 -9.5 9.5 9.5 9.5 0 0 0 0.019531 0.585938 9.5 9.5 0 0 1 9.480469 -9.085938 9.5 9.5 0 0 1 9.480469 8.914062 9.5 9.5 0 0 0 0.019531 -0.414062 9.5 9.5 0 0 0 -9.5 -9.5z"/>
 <path style="opacity:.2" d="m32 7c-14.958 0-27 12.042-27 27s12.042 27 27 27 27-12.042 27-27-12.042-27-27-27z"/>
 <path style="fill:#9d672b" d="m32 6c-14.958 0-27 12.042-27 27s12.042 27 27 27 27-12.042 27-27-12.042-27-27-27z"/>
 <path style="opacity:.2" d="m22.666016 15.560547a9.333333 9.560976 0 0 0 -9.332032 9.560547 9.333333 9.560976 0 0 0 6.367188 9.05664 20 15 0 0 0 -7.701172 11.822266 20 15 0 0 0 3.306641 8.240234c4.587519 3.607122 10.377709 5.759766 16.693359 5.759766 6.306635 0 12.089417-2.146331 16.673828-5.744141a20 15 0 0 0 3.326172 -8.255859 20 15 0 0 0 -7.720703 -11.818359 9.333333 9.560976 0 0 0 6.386719 -9.060547 9.333333 9.560976 0 0 0 -9.332032 -9.560547 9.333333 9.560976 0 0 0 -9.328125 9.439453h-0.009765a9.333333 9.560976 0 0 0 -9.330078 -9.439453z"/>
 <ellipse style="fill:#e2bf56" rx="20" ry="15" cy="45" cx="32"/>
 <ellipse style="fill:#e2bf56" rx="9.333333" ry="9.560976" cy="24.121952" cx="22.666666"/>
 <rect style="fill:#e2bf56" height="11" width="16" y="24" x="24"/>
 <circle r="4" cy="23" cx="23" style="opacity:.1"/>
 <ellipse style="fill:#e2bf56" rx="9.333333" ry="9.560976" cy="24.121952" cx="41.333332"/>
 <circle r="4" cy="23" cx="41" style="opacity:.1"/>
 <circle r="4" cy="22" cx="23" style="fill:#17191e"/>
 <circle r="4" cy="22" cx="41" style="fill:#17191e"/>
 <path style="stroke-linejoin:round;opacity:.1;stroke:#000000;stroke-linecap:round;stroke-width:3;fill:none" d="m19.5 44.5s4.5 5 12.5 5c7.999999 0 11.5-5 11.5-5"/>
 <path style="stroke-linejoin:round;stroke:#17191e;stroke-linecap:round;stroke-width:3;fill:none" d="m19.5 43.5s4.5 5 12.5 5c7.999999 0 11.5-5 11.5-5"/>
 <path style="opacity:.2;fill:#8b9cbe" d="m32 6c-14.958 0-27 12.042-27 27 0 0.167824 0.0086999 0.332923 0.0117188 0.5 0.2660472-14.724341 12.198105-26.5 26.988281-26.5s26.722234 11.775659 26.988281 26.5c0.003019-0.167077 0.011719-0.332176 0.011719-0.5 0-14.958-12.042-27-27-27z"/>
</svg>
