<svg xmlns="http://www.w3.org/2000/svg" width="64" height="64" version="1.1">
 <path style="opacity:.2" d="m 28,10 c -2.883493,0 -5.408665,1.863326 -6.462891,4.419922 C 20.483401,13.632724 19.247013,13 18,13 H 10 C 7.8333333,13 5.3736285,14.821102 4.6523438,16.263672 3.931059,17.706241 4,19 4,19 V 48 C 4,48 3.931059,49.543759 4.7773438,51.236328 5.6236285,52.928898 8.3333333,55 11,55 h 36 c 5.25,0 9.306771,-2.446485 11.160156,-5.226562 C 60.013541,46.99336 60,44 60,44 V 20 c 0,0 0.06894,-1.543759 -0.777344,-3.236328 C 58.376371,15.071102 55.666667,13 53,13 H 41.548828 C 40.262362,11.240551 38.287704,10 36,10 Z"/>
 <path style="fill:#bfbfbf" d="M 28,9 C 25.116507,9 22.591335,10.863326 21.537109,13.419922 20.483401,12.632724 19.247013,12 18,12 H 10 C 7.8333333,12 5.3736285,13.821102 4.6523438,15.263672 3.931059,16.706241 4,18 4,18 V 47 C 4,47 3.931059,48.543759 4.7773438,50.236328 5.6236285,51.928898 8.3333333,54 11,54 h 36 c 5.25,0 9.306771,-2.446485 11.160156,-5.226562 C 60.013541,45.99336 60,43 60,43 V 19 c 0,0 0.06894,-1.543759 -0.777344,-3.236328 C 58.376371,14.071102 55.666667,12 53,12 H 41.548828 C 40.262362,10.240551 38.287704,9 36,9 Z"/>
 <path style="opacity:0.1" d="m 28,15 c -1.108,0 -2,0.892 -2,2 v 5 c 0,1.108 0.892,2 2,2 h 8 c 1.108,0 2,-0.892 2,-2 v -5 c 0,-1.108 -0.892,-2 -2,-2 z m -18,3 c -1,0 -1,1 -1,1 v 29 c 0,0 0,2 2,2 h 36 c 8,0 8,-6 8,-6 V 20 c 0,0 0,-2 -2,-2 h -8 v 19 c 0,4 -4,4 -4,4 H 21 c -2,0 -2,-2 -2,-2 V 19 c 0,0 0,-1 -1,-1 z"/>
 <path style="fill:#2e56b2" d="m 28,14 c -1.108,0 -2,0.892 -2,2 v 5 c 0,1.108 0.892,2 2,2 h 8 c 1.108,0 2,-0.892 2,-2 v -5 c 0,-1.108 -0.892,-2 -2,-2 z m -18,3 c -1,0 -1,1 -1,1 v 29 c 0,0 0,2 2,2 h 36 c 8,0 8,-6 8,-6 V 19 c 0,0 0,-2 -2,-2 h -8 v 19 c 0,4 -4,4 -4,4 H 21 c -2,0 -2,-2 -2,-2 V 18 c 0,0 0,-1 -1,-1 z"/>
 <path style="fill:#8b9cbe;opacity:.2" d="M 28 9 C 25.116507 9 22.591335 10.863326 21.537109 13.419922 C 20.483401 12.632724 19.247013 12 18 12 L 10 12 C 7.8333333 12 5.3736284 13.821102 4.6523438 15.263672 C 3.931059 16.706241 4 18 4 18 L 4 18.775391 C 4.0144206 18.3439 4.11138 17.345599 4.6523438 16.263672 C 5.3736278 14.821102 7.833333 13 10 13 L 18 13 C 19.247013 13 20.483401 13.632724 21.537109 14.419922 C 22.591335 11.863326 25.116507 10 28 10 L 36 10 C 38.287704 10 40.262362 11.240551 41.548828 13 L 53 13 C 55.666667 13 58.376371 15.071102 59.222656 16.763672 C 60.06894 18.456241 60 20 60 20 L 60 19 C 60 19 60.06894 17.456241 59.222656 15.763672 C 58.376371 14.071102 55.666667 12 53 12 L 41.548828 12 C 40.262362 10.240551 38.287704 9 36 9 L 28 9 z"/>
</svg>
