<svg xmlns="http://www.w3.org/2000/svg" width="64" height="64" version="1.1">
 <path style="opacity:0.2" d="m 25.538275,4.0048664 c -0.77674,0.00778 -1.56899,0.02605 -2.370028,0.05786 C 19.963424,4.1899938 16.616649,4.5414026 13.543656,5.3797603 10.470662,6.2181166 7.5796062,7.5689929 5.5347396,9.9604447 4.1605352,11.56756 3.3049851,13.637564 3.0660755,16.005571 h -0.033338 c 4.538e-4,0.111128 0.00328,0.222249 0.0042,0.333391 -0.065616,0.875053 -0.044064,1.788643 0.066682,2.736012 0.3404764,8.449602 1.9976084,16.816441 5.9028422,24.148818 4.3777993,8.219661 11.7216003,15.026753 22.4888703,18.587248 a 3.7010192,3.6701654 0 0 0 2.68952,-0.13364 C 52.982162,53.286389 60.40577,37.370365 60.902536,19.723848 a 2.494934,2.474135 0 0 0 0.02778,-0.239711 c 0.102881,-1.124336 0.08762,-2.191608 -0.018,-3.205791 -0.0024,-0.10627 -0.0014,-0.211877 -0.0042,-0.318237 l -0.03752,0.0014 C 60.54944,13.425738 59.604424,11.262512 58.129632,9.6077677 56.010616,7.2301911 53.08058,5.9515476 50.012355,5.2061769 43.876573,3.7155969 36.762244,4.2027726 31.939852,4.0916584 h -0.0028 c -1.877099,-0.043986 -4.068577,-0.110165 -6.398797,-0.086792 z"/>
 <path style="fill:#17aeff" d="m 25.538275,3.0048629 c -0.77674,0.00778 -1.56899,0.02605 -2.370028,0.05786 C 19.963424,3.1899903 16.616649,3.5413991 13.543656,4.3797568 10.470662,5.2181131 7.5796062,6.5689894 5.5347396,8.9604415 4.1605352,10.567556 3.3049851,12.637561 3.0660755,15.005567 h -0.033338 c 4.538e-4,0.111128 0.00328,0.222249 0.0042,0.333391 -0.065616,0.875054 -0.044064,1.788643 0.066682,2.736013 0.3404764,8.449601 1.9976084,16.81644 5.9028422,24.148817 4.3777993,8.21966 11.7216003,15.026753 22.4888703,18.587247 a 3.7010192,3.6701654 0 0 0 2.68952,-0.13364 C 52.982162,52.286385 60.40577,36.370361 60.902536,18.723844 a 2.494934,2.474135 0 0 0 0.02778,-0.239711 c 0.102881,-1.124336 0.08762,-2.191608 -0.018,-3.20579 -0.0024,-0.10627 -0.0014,-0.211877 -0.0042,-0.318238 l -0.03752,0.0014 C 60.54944,12.425735 59.604424,10.262508 58.129632,8.607764 56.010616,6.2301876 53.08058,4.9515441 50.012355,4.2061734 43.876573,2.7155934 36.762244,3.2027691 31.939852,3.0916549 h -0.0028 c -1.877099,-0.043986 -4.068577,-0.110165 -6.398797,-0.086792 z"/>
 <path style="opacity:0.1" d="m 18.499992,7.999994 c -0.831,0 -1.5,0.6228374 -1.5,1.3984377 V 19.999995 H 16.74218 10.249991 c 0.365538,7.288219 1.905427,14.923596 5.089845,20.667971 3.450929,6.225134 8.310619,11.089435 16.660158,14.082033 C 40.349532,51.757401 45.209223,46.8931 48.660151,40.667966 51.84457,34.923591 53.384458,27.288214 53.749996,19.999995 H 47.257807 46.999995 V 9.3984317 c 0,-0.7756005 -0.669,-1.3984377 -1.5,-1.3984377 z m 5.324219,1.9999997 h 4.351564 c 0.455392,-4.54e-4 0.824674,0.3688283 0.824218,0.8242193 v 4.351563 c 4.56e-4,0.455392 -0.368826,0.824674 -0.824218,0.824219 h -4.351564 c -0.455392,4.55e-4 -0.824674,-0.368827 -0.824218,-0.824219 v -4.351563 c -4.56e-4,-0.455391 0.368826,-0.8246733 0.824218,-0.8242193 z m 12.000001,0 h 4.351564 c 0.455392,-4.54e-4 0.824675,0.3688283 0.824218,0.8242193 v 4.351563 c 4.57e-4,0.455392 -0.368826,0.824674 -0.824218,0.824219 H 35.824212 C 35.36882,16.00045 34.999538,15.631168 34.999994,15.175776 V 10.824213 C 34.999538,10.368822 35.36882,9.9995397 35.824212,9.9999937 Z M 31.839838,21.999996 h 0.004 c 5.307096,-2e-6 10.307661,3.947002 11.914063,8.527345 0.0951,0.272412 -0.09828,0.562132 -0.378906,0.5625 h -5.144531 c -0.12978,-9.6e-5 -0.251902,-0.0674 -0.328126,-0.17578 -1.397338,-1.995639 -3.520548,-3.160157 -6.164062,-3.160157 -4.458981,0 -6.945313,2.892563 -6.945313,7.261719 0,4.41783 2.774658,7.500933 7.207031,7.375001 4.713252,-0.13392 6.175782,-2.410157 6.175782,-2.410157 h -6.746094 c -0.222858,-7.78e-4 -0.40159,-0.18414 -0.402344,-0.414062 v -5.136718 c 6e-6,-0.230478 0.17894,-0.417188 0.402344,-0.41797 h 13.164063 c 0.223404,7.56e-4 0.402336,0.18748 0.402344,0.41797 v 0.554688 c 6.86e-4,0.014 6.86e-4,0.02894 0,0.04296 2.88e-4,0.03402 -0.004,0.06848 -0.0118,0.10156 -0.05573,6.799369 -5.589467,12.871103 -12.734389,12.871103 -7.455881,0 -13.253908,-5.719454 -13.253908,-13.050783 0,-7.202023 5.724583,-12.949219 12.839846,-12.949219 z"/>
 <path style="fill:#173a4d" d="m 10.249991,18.999995 c 0.365538,7.288219 1.905427,14.923596 5.089845,20.66797 C 18.790765,45.8931 23.650455,50.7574 31.999994,53.749999 40.349532,50.7574 45.209223,45.8931 48.660151,39.667965 51.84457,33.923591 53.384458,26.288214 53.749996,18.999995 H 47.257807 31.999994 16.74218 Z m 21.589847,2 h 0.004 c 5.307096,-2e-6 10.307661,3.947003 11.914063,8.527345 0.0951,0.272412 -0.09828,0.562132 -0.378906,0.5625 h -5.144531 c -0.12978,-9.6e-5 -0.251902,-0.0674 -0.328126,-0.17578 -1.397338,-1.995638 -3.520548,-3.160156 -6.164062,-3.160156 -4.458981,0 -6.945313,2.892562 -6.945313,7.261719 0,4.41783 2.774658,7.500933 7.207031,7.375001 4.713252,-0.133921 6.175782,-2.410157 6.175782,-2.410157 h -6.746094 c -0.222858,-7.78e-4 -0.40159,-0.18414 -0.402344,-0.414062 v -5.136718 c 6e-6,-0.230478 0.17894,-0.417188 0.402344,-0.41797 h 13.164063 c 0.223404,7.56e-4 0.402336,0.18748 0.402344,0.41797 v 0.554688 c 6.86e-4,0.014 6.86e-4,0.02894 0,0.04296 2.88e-4,0.03402 -0.004,0.06848 -0.0118,0.10156 -0.05573,6.799368 -5.589467,12.871103 -12.734389,12.871103 -7.455881,0 -13.253908,-5.719455 -13.253908,-13.050783 0,-7.202023 5.724583,-12.94922 12.839846,-12.94922 z"/>
 <path style="fill:#173a4d" d="m 18.499992,6.9999941 c -0.831,0 -1.5,0.6228374 -1.5,1.3984377 V 19.601558 c 0,0.7756 0.669,1.398437 1.5,1.398437 h 27.000003 c 0.831,0 1.5,-0.622837 1.5,-1.398437 V 8.3984318 c 0,-0.7756003 -0.669,-1.3984377 -1.5,-1.3984377 z m 5.324219,2.0000002 h 4.351564 c 0.455392,-4.548e-4 0.824674,0.3688272 0.824218,0.8242189 v 4.3515628 c 4.56e-4,0.455392 -0.368826,0.824674 -0.824218,0.824219 h -4.351564 c -0.455392,4.55e-4 -0.824674,-0.368827 -0.824218,-0.824219 V 9.8242132 c -4.56e-4,-0.4553917 0.368826,-0.8246737 0.824218,-0.8242189 z m 12.000001,0 h 4.351564 c 0.455392,-4.548e-4 0.824675,0.3688272 0.824218,0.8242189 v 4.3515628 c 4.57e-4,0.455392 -0.368826,0.824674 -0.824218,0.824219 H 35.824212 C 35.36882,15.00045 34.999538,14.631168 34.999994,14.175776 V 9.8242132 C 34.999538,9.3688215 35.36882,8.9995395 35.824212,8.9999943 Z"/>
 <path style="opacity:0.2;fill:#8b9cbe" d="M 25.539062 3.0039062 C 24.762322 3.0116862 23.969007 3.03069 23.167969 3.0625 C 19.963146 3.1897672 16.615962 3.5405486 13.542969 4.3789062 C 10.469975 5.2172626 7.5800229 6.5694854 5.5351562 8.9609375 C 4.1609519 10.568052 3.3053158 12.6359 3.0664062 15.003906 L 3.03125 15.003906 C 3.0317038 15.115034 3.0342362 15.228701 3.0351562 15.339844 C 3.0012029 15.792652 3.0048295 16.260559 3.0214844 16.734375 C 3.0261633 16.602906 3.025449 16.469301 3.0351562 16.339844 C 3.0342362 16.228701 3.0317038 16.115034 3.03125 16.003906 L 3.0664062 16.003906 C 3.3053158 13.6359 4.1609519 11.568052 5.5351562 9.9609375 C 7.5800228 7.5694854 10.469975 6.2172626 13.542969 5.3789062 C 16.615962 4.5405485 19.963146 4.1897672 23.167969 4.0625 C 23.969007 4.03069 24.762322 4.0116863 25.539062 4.0039062 C 27.869283 3.9805337 30.060401 4.0458577 31.9375 4.0898438 L 31.941406 4.0898438 C 36.763798 4.200958 43.875937 3.7164513 50.011719 5.2070312 C 53.079944 5.9524019 56.00989 7.2317986 58.128906 9.609375 C 59.603698 11.264119 60.549844 13.425156 60.871094 15.960938 L 60.90625 15.960938 C 60.90905 16.067298 60.911662 16.171074 60.914062 16.277344 C 60.94796 16.602817 60.959748 16.940905 60.970703 17.279297 C 60.988451 16.592233 60.980799 15.918123 60.914062 15.277344 C 60.911662 15.171074 60.90905 15.067298 60.90625 14.960938 L 60.871094 14.960938 C 60.549844 12.425155 59.603698 10.264119 58.128906 8.609375 C 56.00989 6.2317986 53.079944 4.952402 50.011719 4.2070312 C 43.875937 2.7164514 36.763798 3.200958 31.941406 3.0898438 L 31.9375 3.0898438 C 30.060401 3.0458578 27.869283 2.9805336 25.539062 3.0039062 z"/>
</svg>
