<svg width="64" height="64" version="1.1" xmlns="http://www.w3.org/2000/svg">
 <path d="m26 12c-2.305556 0-3.591426 0.661116-5.650391 1.541016-2.058964 0.879899-4.398118 2.100698-6.693359 3.630859-4.5904827 3.060322-9.65625 7.328125-9.65625 13.828125 0 4.777778 2.671875 8.21875 2.671875 8.21875a4.0004 4.0004 0 1 0 6.65625-4.4375s-1.328125-2.559028-1.328125-3.78125c0-1.5 2.434233-4.732197 6.09375-7.171875 1.829759-1.219839 3.803105-2.24904 5.400391-2.931641 0.445666-0.190455 0.292585-0.126935 0.699218-0.25-0.226268 2.146296-1.090721 5.39521-1.988281 8.087891-1.457836 4.373509-3.185481 8.821738-4.570312 12.472656-0.692416 1.825459-1.298459 3.446157-1.757813 4.824219s-0.876953 2.135417-0.876953 3.96875a4.0004 4.0004 0 0 0 7.138672 2.478516c14.297877-18.110645 34.582031-27.867188 34.582031-27.867188a4.0004 4.0004 0 1 0-3.441406-7.222656s-11.937716 5.657199-24.507813 16.669922c0.352464-0.995143 0.68632-1.781615 1.023438-2.792969 1.005609-3.016827 2.089089-6.642352 2.408203-10.058594 0.159557-1.708121 0.226114-3.383885-0.521484-5.291015-0.747599-1.90713-3.310077-3.916016-5.681641-3.916016z" style="opacity:.2"/>
 <path d="m10 36s-2-3-2-6c0-8 15-15 18-15 4 0 1.923538 8.229385 0 14-3 9-7 18-7 20 15-19 36-29 36-29" style="fill:none;stroke-linecap:round;stroke-linejoin:round;stroke-width:8;stroke:#988a74"/>
 <path d="m26 15c-1.138889 0-2.584868 0.492916-4.470703 1.298828s-4.088299 1.955351-6.208985 3.369141c-4.24137 2.82758-8.320312 6.707031-8.320312 11.332031 0 3.444444 2.1679688 6.554688 2.1679688 6.554688a1.0001 1.0001 0 1 0 1.6640622-1.109376s-1.832031-2.889756-1.832031-5.445312c0-3.375 3.421058-6.995549 7.429688-9.667969 2.004314-1.33621 4.11435-2.436771 5.884765-3.193359s3.324436-1.138672 3.685547-1.138672c0.657109 0 0.792023 0.139929 1.027344 0.740234 0.235321 0.600306 0.321553 1.692313 0.199218 3.001954-0.244668 2.61928-1.224972 6.088978-2.175781 8.941406-1.489459 4.468377-3.23387 8.954458-4.611328 12.585937-0.688729 1.81574-1.285552 3.417204-1.716797 4.710938-0.431244 1.293734-0.722656 2.186198-0.722656 3.019531a1.0001 1.0001 0 0 0 1.785156 0.619141c14.82447-18.777662 35.644531-28.716797 35.644532-28.716797a1.0001 1.0001 0 1 0-0.859376-1.804688s-18.511351 8.925434-33.332031 25.822266c0.33742-0.936579 0.636728-1.793169 1.072266-2.941406 1.372542-3.618521 3.128131-8.130487 4.638672-12.66211 0.972729-2.918187 1.993131-6.448653 2.267578-9.386718 0.137223-1.469033 0.112107-2.794934-0.328125-3.917969-0.440232-1.123036-1.545781-2.011719-2.888672-2.011719z" style="opacity:.2"/>
 <path d="m10 36s-2-3-2-6c0-8 15-15 18-15 4 0 1.923538 8.229385 0 14-3 9-7 18-7 20 15-19 36-29 36-29" style="fill:none;stroke-linecap:round;stroke-linejoin:round;stroke-width:2;stroke:#c7b7a3"/>
 <path d="m26 11c-2.305556 0-3.591426 0.661116-5.650391 1.541016-2.058964 0.879899-4.398118 2.100698-6.693359 3.630859-4.5904827 3.060322-9.65625 7.328125-9.65625 13.828125 0 0.202388 0.0103486 0.398272 0.0195312 0.595703 0.2075463-6.270297 5.1434326-10.428304 9.6367188-13.423828 2.295241-1.530161 4.634395-2.75096 6.693359-3.630859 2.058965-0.8799 3.344835-1.541016 5.650391-1.541016 2.371564 0 4.934042 2.008886 5.681641 3.916016 0.43224 1.10265 0.578165 2.125511 0.605468 3.125 0.061381-1.317983-0.028507-2.653167-0.605468-4.125-0.747599-1.90713-3.310077-3.916016-5.681641-3.916016zm29.037109 4.988281a4.0004 4.0004 0 0 0-1.757812 0.400391s-11.602963 5.508503-23.974609 16.214844c-0.176619 0.466481-0.349577 0.936628-0.533204 1.455078 12.570097-11.012723 24.507813-16.669922 24.507813-16.669922a4.0004 4.0004 0 0 1 5.710937 3.111328 4.0004 4.0004 0 0 0-3.953125-4.511719zm-30.84375 4.658203c-0.096406 0.029177-0.117093 0.044522-0.166015 0.058594-0.34218 2.075838-1.057181 4.734041-1.822266 7.029297-1.457836 4.373509-3.185481 8.821738-4.570312 12.472656-0.692416 1.825459-1.298459 3.446157-1.757813 4.824219s-0.876953 2.135417-0.876953 3.96875a4.0004 4.0004 0 0 0 0.03125 0.476562c0.077203-1.44209 0.436472-2.21762 0.845703-3.445312 0.459354-1.378062 1.065397-2.99876 1.757813-4.824219 1.384831-3.650918 3.112476-8.099147 4.570312-12.472656 0.89776-2.693281 1.76226-5.941625 1.988281-8.087891zm-12.11914 9.933594c-0.03224 0.145347-0.074219 0.296591-0.074219 0.419922 0 1.222222 1.328125 3.78125 1.328125 3.78125a4.0004 4.0004 0 0 1 0.673828 1.748047 4.0004 4.0004 0 0 0-0.673828-2.748047s-0.980114-1.893681-1.253906-3.201172z" style="fill:#8b9cbe;opacity:.2"/>
</svg>
