<svg xmlns="http://www.w3.org/2000/svg" width="64" height="64" version="1.1">
 <g transform="translate(-34.289643,-34.041152)">
  <ellipse id="ellipse839" style="opacity:0.2" cx="66.29" cy="67.041" rx="28" ry="28"/>
  <ellipse style="fill:#545454" cx="66.29" cy="66.041" rx="28" ry="28"/>
  <ellipse id="ellipse841" style="opacity:0.2" cx="66.29" cy="67.041" rx="24" ry="24"/>
  <ellipse style="fill:#8b9cbe" cx="66.29" cy="66.041" rx="24" ry="24"/>
  <path style="fill:#545454" d="m 90.289642,66.04115 c 0,0 -10.745166,9.999998 -23.999994,9.999998 -13.254834,0 -23.999998,-9.999998 -23.999998,-9.999998 0,0 10.745164,-10.000002 23.999998,-10.000002 13.254828,0 23.999994,10.000002 23.999994,10.000002 z"/>
  <circle style="opacity:0.2" cx="66.29" cy="67.041" r="6"/>
  <circle style="fill:#8b9cbe" cx="66.29" cy="66.041" r="6"/>
  <path id="ellipse845" style="opacity:0.1;fill:#8b9cbe" transform="translate(34.289643,34.041152)" d="M 32 4 A 28 28.000002 0 0 0 4 32 A 28 28.000002 0 0 0 4.0175781 32.492188 A 28 28.000002 0 0 1 32 5 A 28 28.000002 0 0 1 59.974609 32.492188 A 28 28.000002 0 0 0 60 32 A 28 28.000002 0 0 0 32 4 z"/>
 </g>
</svg>
