<svg xmlns="http://www.w3.org/2000/svg" width="64" height="64" version="1">
 <rect style="opacity:0.2" width="56" height="56" x="4" y="5" rx="2.8" ry="2.8"/>
 <rect style="fill:#1159d4" width="56" height="56" x="4" y="4" rx="2.8" ry="2.8"/>
 <path style="fill:none;stroke:#1159d4;stroke-width:6;stroke-linecap:square" d="M 8.2,27 H 18 l 5.6,15.78 7,-20.58 4.9,11.2 L 40.4,20.8 46,37 h 8.4"/>
 <path style="opacity:0.2" d="M 12.199219,11 C 10.980419,11 10,11.980419 10,13.199219 V 25 H 20.117188 L 23.539062,34.644532 30.25,14.914062 35.335938,26.542968 40.566406,13.097656 48.136718,35 H 54 V 13.199219 C 54,11.980419 53.019582,11 51.800782,11 Z M 40.234376,30.5 35.664062,42.257812 30.953124,31.488282 23.660156,52.917968 15.882812,31 H 10 V 52.800782 C 10,54.019582 10.980419,55 12.199219,55 H 51.800782 C 53.019582,55 54,54.019582 54,52.800782 V 41 H 43.863282 Z"/>
 <path style="fill:#39dcff" d="M 12.199219,10 C 10.980419,10 10,10.980419 10,12.199219 V 24 H 20.117188 L 23.539062,33.644532 30.25,13.914062 35.335938,25.542968 40.566406,12.097656 48.136718,34 H 54 V 12.199219 C 54,10.980419 53.019582,10 51.800782,10 Z M 40.234376,29.5 35.664062,41.257812 30.953124,30.488282 23.660156,51.917968 15.882812,30 H 10 V 51.800782 C 10,53.019582 10.980419,54 12.199219,54 H 51.800782 C 53.019582,54 54,53.019582 54,51.800782 V 40 H 43.863282 Z"/>
 <path style="opacity:0.1;fill:#8b9cbe" d="M 6.8007812 4 C 5.2495812 4 4 5.2495812 4 6.8007812 L 4 7.8007812 C 4 6.2495813 5.2495812 5 6.8007812 5 L 57.199219 5 C 58.750419 5 60 6.2495812 60 7.8007812 L 60 6.8007812 C 60 5.2495813 58.750419 4 57.199219 4 L 6.8007812 4 z"/>
 <path style="fill:#8b9cbe;opacity:0.2" d="M 12.199219 10 C 10.980419 10 10 10.980419 10 12.199219 L 10 13.199219 C 10 11.980419 10.980419 11 12.199219 11 L 51.800781 11 C 53.019581 11 54 11.980419 54 13.199219 L 54 12.199219 C 54 10.980419 53.019581 10 51.800781 10 L 12.199219 10 z M 40.234375 29.5 L 35.664062 41.257812 L 30.953125 30.488281 L 23.660156 51.917969 L 15.882812 30 L 10 30 L 10 31 L 15.882812 31 L 23.660156 52.917969 L 30.953125 31.488281 L 35.664062 42.257812 L 40.234375 30.5 L 43.863281 41 L 54 41 L 54 40 L 43.863281 40 L 40.234375 29.5 z"/>
</svg>
