<svg xmlns="http://www.w3.org/2000/svg" width="64" height="64" version="1">
 <path style="opacity:0.2" d="m 31.99925,11.000003 c -1.36197,0 -2.724842,0.507646 -3.742946,1.525724 L 7.5257046,33.258667 c -2.0362044,2.036156 -2.0333166,5.443686 0.00294,7.479842 L 28.25928,61.471449 c 2.036204,2.036156 5.446766,2.039044 7.48297,0.0028 L 56.472848,40.741487 c 2.036202,-2.036158 2.036204,-5.4466 0,-7.482756 L 35.742192,12.525727 C 34.72409,11.507649 33.361214,11.000003 31.99925,11.000003 Z"/>
 <path style="fill:#a42a2a" d="m 31.99925,9.9999928 c -1.36197,0 -2.724842,0.5076462 -3.742946,1.5257242 L 7.5257046,32.258656 c -2.0362044,2.036156 -2.0333166,5.443686 0.00294,7.479842 L 28.25928,60.471438 c 2.036204,2.036156 5.446766,2.039044 7.48297,0.0028 L 56.472848,39.741476 c 2.036202,-2.036158 2.036204,-5.4466 0,-7.482756 L 35.742192,11.525717 C 34.72409,10.507639 33.361214,9.9999928 31.99925,9.9999928 Z"/>
 <path style="opacity:0.2" d="m 31.99925,3.0000115 c -1.36197,0 -2.724842,0.5076464 -3.742944,1.525725 L 7.5257054,25.258675 c -2.0362044,2.036156 -2.0333164,5.443684 0.00292,7.479842 L 28.259278,53.471455 c 2.036202,2.036158 5.446764,2.039044 7.482968,0.0028 l 20.7306,-20.73285 c 2.036204,-2.036158 2.036206,-5.4466 0,-7.482756 L 35.742192,4.5257365 C 34.72409,3.5076579 33.361214,3.0000115 31.99925,3.0000115 Z"/>
 <path style="fill:#cf3d3d" d="m 31.99925,2.000001 c -1.36197,0 -2.724842,0.5076464 -3.742944,1.525725 L 7.5257054,24.258664 C 5.489501,26.29482 5.492389,29.702348 7.5286254,31.738506 L 28.259278,52.471444 c 2.036202,2.036158 5.446764,2.039044 7.482968,0.0028 l 20.7306,-20.73285 c 2.036204,-2.036158 2.036206,-5.4466 0,-7.482756 L 35.742192,3.525726 C 34.72409,2.5076474 33.361214,2.000001 31.99925,2.000001 Z"/>
 <path style="opacity:0.2" d="M 32,17.00001 22,27.000011 30.753906,35.753917 32,37.000011 42.109376,47.109387 46.351562,42.867199 36.242188,32.757823 42,27.000011 Z"/>
 <path style="fill:#8b9cbe" d="M 32,16 22,26 30.753906,34.753906 32,36 42.109376,46.109376 46.351562,41.867188 36.242188,31.757812 42,26 Z"/>
 <path style="fill:#8b9cbe;opacity:0.2" d="M 32 2 C 30.63803 2 29.273961 2.507312 28.255859 3.5253906 L 7.5253906 24.257812 C 6.3819892 25.401187 5.9053507 26.975467 6.046875 28.498047 C 6.1561273 27.30917 6.6325877 26.150594 7.5253906 25.257812 L 28.255859 4.5253906 C 29.273961 3.507312 30.63803 3 32 3 C 33.361964 3 34.724085 3.507312 35.742188 4.5253906 L 56.472656 25.257812 C 57.36546 26.150594 57.843247 27.310494 57.953125 28.5 C 58.093845 26.976614 57.616059 25.401187 56.472656 24.257812 L 35.742188 3.5253906 C 34.724085 2.507312 33.361964 2 32 2 z"/>
</svg>
