<svg xmlns="http://www.w3.org/2000/svg" width="64" height="64" version="1">
 <rect style="fill:#407ec2" width="56" height="56" x="4" y="4" rx="2.8" ry="2.8"/>
 <rect style="opacity:0.2" width="40" height="6" x="12" y="48"/>
 <path style="fill:#17191e" d="M 29 40 L 29 47 L 12 47 L 12 53 L 52 53 L 52 47 L 35 47 L 35 40 L 29 40 z"/>
 <path style="opacity:0.2" d="m 19.33965,9.000744 c -1.849812,0 -3.339822,1.489978 -3.339822,3.339752 l 0,25.319638 c 0,1.849973 1.49001,3.339952 3.339822,3.339952 l 25.320156,0 c 1.850012,0 3.340022,-1.489979 3.340022,-3.339952 l 0,-25.319638 c 0,-1.849974 -1.49001,-3.339952 -3.340022,-3.339952 l -25.320156,0 z m 4.660228,7.999885 16.0001,0 0,15.999771 -16.0001,0 0,-15.999771 z"/>
 <path style="opacity:0.2;fill:#8b9cbe" d="M 6.8007812,4 C 5.2496034,4 4,5.2495827 4,6.8002055 L 4,7.8 C 4,6.2493772 5.2496034,4.9997945 6.8007812,4.9997945 l 50.3984378,0 C 58.749197,4.9997945 60,6.2493772 60,7.8 L 60,6.8002055 C 60,5.2495828 58.749197,4 57.199219,4 L 6.8007812,4 Z"/>
 <path style="opacity:0.2" d="m 4,57.199219 0,1 C 4,59.749197 5.2496034,61 6.8007812,61 L 57.199219,61 C 58.749197,61 60,59.749197 60,58.199219 l 0,-1 C 60,58.749197 58.749197,60 57.199219,60 L 6.8007812,60 C 5.2496034,60 4,58.749197 4,57.199219 Z"/>
 <path style="fill:#ffe270" d="m 19.33965,8.0007723 c -1.849812,0 -3.339822,1.4899787 -3.339822,3.3397527 l 0,25.319637 c 0,1.849974 1.49001,3.339953 3.339822,3.339953 l 25.320156,0 c 1.850012,0 3.340022,-1.489979 3.340022,-3.339953 l 0,-25.319637 c 0,-1.849974 -1.49001,-3.3399527 -3.340022,-3.3399527 l -25.320156,0 z m 4.660228,7.9998857 16.0001,0 0,15.999771 -16.0001,0 0,-15.999771 z"/>
 <circle style="opacity:0.2" cx="14" cy="51" r="6"/>
 <circle style="fill:#f7870d" cx="14" cy="50" r="6"/>
 <circle style="opacity:0.2" cx="32" cy="51" r="6"/>
 <circle style="fill:#f7870d" cx="32" cy="50" r="6"/>
 <circle style="opacity:0.2" cx="49.999" cy="51" r="6"/>
 <circle style="fill:#f7870d" cx="49.999" cy="50" r="6"/>
</svg>
