<svg xmlns="http://www.w3.org/2000/svg" width="64" height="64" version="1">
 <rect style="fill:#407ec2" width="56" height="56" x="4" y="4" rx="3" ry="3"/>
 <path style="opacity:0.1;fill:#8b9cbe" d="M 7 4 C 5.338 4 4 5.338 4 7 L 4 8 C 4 6.338 5.338 5 7 5 L 57 5 C 58.662 5 60 6.338 60 8 L 60 7 C 60 5.338 58.662 4 57 4 L 7 4 z"/>
 <path style="opacity:0.2" d="M 14.857422,13 C 13.274536,13 12,14.274476 12,15.857422 l 0,12.357422 C 12,29.79773 13.417054,31 15,31 c 1.582886,0 3,-1.20221 3,-2.785156 l 0,-5.482422 4,4.285156 L 22,31 l 5.714844,0 0,-0.857422 c 0,-0.791453 0.636281,-1.427734 1.427734,-1.427734 L 30,28.714844 30,23 l -3.982422,0 -4.285156,-4 5.482422,0 C 28.79773,19 30,17.582946 30,16 30,14.417114 28.79779,13 27.214844,13 l -12.357422,0 z m 21.927734,0 C 35.20221,13 34,14.417114 34,16 c 0,1.582946 1.20227,3 2.785156,3 l 5.482422,0 -4.285156,4 L 34,23 l 0,5.714844 0.857422,0 c 0.791453,0 1.427734,0.636281 1.427734,1.427734 L 36.285156,31 42,31 l 0,-3.982422 4,-4.285156 0,5.482422 C 46,29.79779 47.417114,31 49,31 c 1.582946,0 3,-1.20227 3,-2.785156 L 52,15.857422 C 52,14.274476 50.725464,13 49.142578,13 L 36.785156,13 Z M 22,35 22,40.142578 C 22,41.726604 23.273396,43 24.857422,43 L 30,43 l 0,-5.714844 -0.857422,0 c -0.791453,0 -1.427734,-0.636281 -1.427734,-1.427734 L 27.714844,35 22,35 Z m 14.285156,0 0,0.857422 c 0,0.791453 -0.636281,1.427734 -1.427734,1.427734 L 34,37.285156 34,43 l 3.982422,0 4.285156,4 -5.482422,0 C 35.20227,47 34,48.417054 34,50 c 0,1.582886 1.20221,3 2.785156,3 l 12.357422,0 C 50.725464,53 52,51.725524 52,50.142578 L 52,37.785156 C 52,36.20227 50.582946,35 49,35 c -1.582886,0 -3,1.20221 -3,2.785156 L 46,43.267578 42,38.982422 42,35 36.285156,35 Z"/>
 <path style="fill:#ffe270" d="M 14.857422 12 C 13.274536 12 12 13.274476 12 14.857422 L 12 27.214844 C 12 28.79773 13.417054 30 15 30 C 16.582886 30 18 28.79779 18 27.214844 L 18 21.732422 L 22 26.017578 L 22 30 L 27.714844 30 L 27.714844 29.142578 C 27.714844 28.351125 28.351125 27.714844 29.142578 27.714844 L 30 27.714844 L 30 22 L 26.017578 22 L 21.732422 18 L 27.214844 18 C 28.79773 18 30 16.582946 30 15 C 30 13.417114 28.79779 12 27.214844 12 L 14.857422 12 z M 36.785156 12 C 35.20221 12 34 13.417114 34 15 C 34 16.582946 35.20227 18 36.785156 18 L 42.267578 18 L 37.982422 22 L 34 22 L 34 27.714844 L 34.857422 27.714844 C 35.648875 27.714844 36.285156 28.351125 36.285156 29.142578 L 36.285156 30 L 42 30 L 42 26.017578 L 46 21.732422 L 46 27.214844 C 46 28.79779 47.417114 30 49 30 C 50.582946 30 52 28.79773 52 27.214844 L 52 14.857422 C 52 13.274476 50.725464 12 49.142578 12 L 36.785156 12 z M 22 34 L 22 39.142578 C 22 40.726604 23.273396 42 24.857422 42 L 30 42 L 30 36.285156 L 29.142578 36.285156 C 28.351125 36.285156 27.714844 35.648875 27.714844 34.857422 L 27.714844 34 L 22 34 z M 36.285156 34 L 36.285156 34.857422 C 36.285156 35.648875 35.648875 36.285156 34.857422 36.285156 L 34 36.285156 L 34 42 L 37.982422 42 L 42.267578 46 L 36.785156 46 C 35.20227 46 34 47.417054 34 49 C 34 50.582886 35.20221 52 36.785156 52 L 49.142578 52 C 50.725464 52 52 50.725524 52 49.142578 L 52 36.785156 C 52 35.20227 50.582946 34 49 34 C 47.417114 34 46 35.20221 46 36.785156 L 46 42.267578 L 42 37.982422 L 42 34 L 36.285156 34 z"/>
 <path style="opacity:0.2" d="m 4,57 0,1 c 0,1.662 1.338,3 3,3 l 50,0 c 1.662,0 3,-1.338 3,-3 l 0,-1 c 0,1.662 -1.338,3 -3,3 L 7,60 C 5.338,60 4,58.662 4,57 Z"/>
</svg>
