<svg xmlns="http://www.w3.org/2000/svg" width="64" height="64" version="1.1">
 <path style="opacity:0.2" d="m 32.130311,4.0030778 a 5.6072656,5.5774079 0 0 0 -2.93476,0.7450324 L 8.8033528,16.459495 a 5.6072656,5.5774079 0 0 0 -2.8033523,4.82964 v 23.42277 a 5.6072656,5.5774079 0 0 0 2.8033523,4.829639 L 29.195551,61.25293 a 5.6072656,5.5774079 0 0 0 5.606705,0 l 20.39439,-11.711386 a 5.6072656,5.5774079 0 0 0 2.803353,-4.829639 v -23.42277 a 5.6072656,5.5774079 0 0 0 -2.803353,-4.82964 L 34.802256,4.7481102 A 5.6072656,5.5774079 0 0 0 32.130311,4.0030778 Z"/>
 <path style="fill:#17191e" d="m 32.130311,3.0031302 a 5.6072656,5.5774079 0 0 0 -2.93476,0.7450324 L 8.8033528,15.459547 a 5.6072656,5.5774079 0 0 0 -2.8033523,4.829641 v 23.42277 a 5.6072656,5.5774079 0 0 0 2.8033523,4.829639 L 29.195551,60.252982 a 5.6072656,5.5774079 0 0 0 5.606705,0 l 20.39439,-11.711385 a 5.6072656,5.5774079 0 0 0 2.803353,-4.829639 V 20.289188 A 5.6072656,5.5774079 0 0 0 55.196646,15.459547 L 34.802256,3.7481626 A 5.6072656,5.5774079 0 0 0 32.130311,3.0031302 Z"/>
 <path style="opacity:0.2" d="m 32,16.000894 a 16.999553,16.999553 0 0 0 -9.838931,3.154213 l 4.092174,4.092178 A 11.333036,11.333036 0 0 1 32,21.667413 11.333036,11.333036 0 0 1 43.333036,33.000447 11.333036,11.333036 0 0 1 41.753163,38.747204 l 4.086643,4.086644 A 16.999553,16.999553 0 0 0 48.999553,33.000447 16.999553,16.999553 0 0 0 32,16.000894 Z"/>
 <path style="fill:#d895d8" d="m 32,15.001263 a 16.999553,16.999553 0 0 0 -9.838931,3.154213 l 4.092174,4.092178 A 11.333036,11.333036 0 0 1 32,20.667782 11.333036,11.333036 0 0 1 43.333036,32.000816 11.333036,11.333036 0 0 1 41.753163,37.747572 l 4.086643,4.086645 A 16.999553,16.999553 0 0 0 48.999553,32.000816 16.999553,16.999553 0 0 0 32,15.001263 Z"/>
 <path style="opacity:0.2" d="M 18.160195,23.167048 A 16.999553,16.999553 0 0 0 15.000447,33.000447 16.999553,16.999553 0 0 0 32,50 16.999553,16.999553 0 0 0 41.838935,46.845787 L 37.746757,42.753608 A 11.333036,11.333036 0 0 1 32,44.333483 11.333036,11.333036 0 0 1 20.666966,33.000447 11.333036,11.333036 0 0 1 22.246839,27.25369 Z"/>
 <path style="fill:#9e4174" d="m 18.160195,22.167416 a 16.999553,16.999553 0 0 0 -3.159748,9.8334 A 16.999553,16.999553 0 0 0 32,49.000368 16.999553,16.999553 0 0 0 41.838935,45.846155 L 37.746757,41.753977 A 11.333036,11.333036 0 0 1 32,43.333851 11.333036,11.333036 0 0 1 20.666966,32.000816 11.333036,11.333036 0 0 1 22.246839,26.254059 Z"/>
 <circle style="opacity:0.2" cx="32" cy="33" r="6"/>
 <circle style="fill:#d895d8" cx="32" cy="32" r="6"/>
 <path style="opacity:0.1;fill:#8b9cbe" d="M 32.130859 3.0019531 A 5.6072656 5.5774079 0 0 0 29.193359 3.7480469 L 8.8027344 15.458984 A 5.6072656 5.5774079 0 0 0 6 20.291016 L 6 21.291016 A 5.6072656 5.5774079 0 0 1 8.8027344 16.458984 L 29.193359 4.7480469 A 5.6072656 5.5774079 0 0 1 32.130859 4.0019531 A 5.6072656 5.5774079 0 0 1 34.802734 4.7480469 L 55.197266 16.458984 A 5.6072656 5.5774079 0 0 1 58 21.291016 L 58 20.291016 A 5.6072656 5.5774079 0 0 0 55.197266 15.458984 L 34.802734 3.7480469 A 5.6072656 5.5774079 0 0 0 32.130859 3.0019531 z"/>
 <path style="opacity:0.2;fill:#8b9cbe" d="M 32 15.001953 A 16.999553 16.999553 0 0 0 22.160156 18.154297 L 22.765625 18.759766 A 16.999553 16.999553 0 0 1 32 16.001953 A 16.999553 16.999553 0 0 1 48.974609 32.496094 A 16.999553 16.999553 0 0 0 49 32 A 16.999553 16.999553 0 0 0 32 15.001953 z M 43.28125 33 A 11.333036 11.333036 0 0 1 41.753906 37.746094 L 42.101562 38.09375 A 11.333036 11.333036 0 0 0 43.28125 34.001953 A 11.333036 11.333036 0 0 1 43.306641 34.492188 A 11.333036 11.333036 0 0 0 43.332031 34 A 11.333036 11.333036 0 0 0 43.28125 33 z"/>
 <path style="opacity:0.1;fill:#8b9cbe" d="M 18.160156 22.169922 A 16.999553 16.999553 0 0 0 15 32 A 16.999553 16.999553 0 0 0 15.021484 32.443359 A 16.999553 16.999553 0 0 1 18.160156 23.169922 L 21.900391 26.910156 A 11.333036 11.333036 0 0 1 22.246094 26.253906 L 18.160156 22.169922 z M 20.71875 33 A 11.333036 11.333036 0 0 0 20.667969 34 A 11.333036 11.333036 0 0 0 20.693359 34.503906 A 11.333036 11.333036 0 0 1 20.71875 34.001953 A 11.333036 11.333036 0 0 0 32 44.333984 A 11.333036 11.333036 0 0 0 37.746094 42.755859 L 41.226562 46.234375 A 16.999553 16.999553 0 0 0 41.839844 45.847656 L 37.746094 41.753906 A 11.333036 11.333036 0 0 1 32 43.332031 A 11.333036 11.333036 0 0 1 20.71875 33 z"/>
 <path style="opacity:0.2;fill:#8b9cbe" d="M 32 26 A 6 6 0 0 0 26 32 A 6 6 0 0 0 26.025391 32.498047 A 6 6 0 0 1 32 27 A 6 6 0 0 1 37.974609 32.501953 A 6 6 0 0 0 38 32 A 6 6 0 0 0 32 26 z"/>
</svg>
