<svg xmlns="http://www.w3.org/2000/svg" width="64" height="64" version="1">
 <path style="fill:#8e8e8e" d="m 44.6,56.2 -11.2,-28 h -2.8 l -11.2,28 z"/>
 <rect style="opacity:0.2" width="44" height="56" x="-50" y="-60" rx="2.75" ry="2.8" transform="matrix(0,-1,-1,0,0,0)"/>
 <rect style="opacity:0.2" width="32" height="4" x="16" y="56" rx="2.182" ry="2"/>
 <rect style="fill:#c0c0c0" width="32" height="4" x="16" y="55" rx="2.182" ry="2"/>
 <rect style="fill:#c0c0c0" width="44" height="56" x="-49" y="-60" rx="2.75" ry="2.8" transform="matrix(0,-1,-1,0,0,0)"/>
 <rect style="fill:#8032f1" width="36" height="48" x="-45" y="-56" rx="0" ry="0" transform="matrix(0,-1,-1,0,0,0)"/>
 <path style="opacity:0.3" d="m 50.533334,29.067334 c -6.272594,0 -0.335048,7.266 -18.533334,7.266 V 39 h 8 c 9.391464,0 7.676034,-7.455892 11.147916,-7.359748 3.385418,0.09376 2.857756,2.241632 4.71875,2.760414 -0.78536,-2.7564 -2.666666,-5.333332 -5.333332,-5.333332 z"/>
 <circle style="opacity:0.3" cx="32" cy="27" r="8"/>
 <path style="opacity:0.2" d="m 31.542969,16.007435 a 12.001612,12.000498 0 0 0 -11.134766,8.888672 12.001612,12.000498 0 0 0 8.486328,14.695313 12.001612,12.000498 0 0 0 14.697266,-8.484375 12.001612,12.000498 0 0 0 -8.486328,-14.697266 12.001612,12.000498 0 0 0 -3.5625,-0.402344 z m 0.648437,2.671876 a 9.3333336,9.3333336 0 0 1 0.910156,0.05859 l -1.554687,5.808594 -3.003906,-5.203125 a 9.3333336,9.3333336 0 0 1 3.648437,-0.664062 z m 3.484375,0.753906 a 9.3333336,9.3333336 0 0 1 3.648438,2.800781 l -5.203125,3 z m -9.441406,1.242187 3,5.203125 -5.800781,-1.554687 a 9.3333336,9.3333336 0 0 1 2.800781,-3.648438 z m 14.421875,3.867188 a 9.3333336,9.3333336 0 0 1 0.605469,4.558593 L 35.453125,27.546498 Z M 32,25.999623 a 2,2 0 0 1 2,2 2,2 0 0 1 -2,2 2,2 0 0 1 -2,-2 2,2 0 0 1 2,-2 z m -9.261719,0.898438 5.808594,1.554687 -5.203125,3.003906 a 9.3333336,9.3333336 0 0 1 -0.605469,-4.558593 z m 12.027344,3.222656 5.800781,1.554687 a 9.3333336,9.3333336 0 0 1 -2.800781,3.648438 z m -4.886719,0.644531 -1.554687,5.800781 a 9.3333336,9.3333336 0 0 1 -3.648438,-2.800781 z m 2.574219,0.6875 3.003906,5.203125 a 9.3333336,9.3333336 0 0 1 -4.558593,0.605469 z"/>
 <path style="fill:#8b9cbe" d="M 31.542969 15.007812 A 12.001612 12.000498 0 0 0 20.408203 23.896484 A 12.001612 12.000498 0 0 0 28.894531 38.591797 A 12.001612 12.000498 0 0 0 43.591797 30.107422 A 12.001612 12.000498 0 0 0 35.105469 15.410156 A 12.001612 12.000498 0 0 0 31.542969 15.007812 z M 32.191406 17.679688 A 9.3333336 9.3333336 0 0 1 33.101562 17.738281 L 31.546875 23.546875 L 28.542969 18.34375 A 9.3333336 9.3333336 0 0 1 32.191406 17.679688 z M 35.675781 18.433594 A 9.3333336 9.3333336 0 0 1 39.324219 21.234375 L 34.121094 24.234375 L 35.675781 18.433594 z M 26.234375 19.675781 L 29.234375 24.878906 L 23.433594 23.324219 A 9.3333336 9.3333336 0 0 1 26.234375 19.675781 z M 40.65625 23.542969 A 9.3333336 9.3333336 0 0 1 41.261719 28.101562 L 35.453125 26.546875 L 40.65625 23.542969 z M 32 25 A 2 2 0 0 1 34 27 A 2 2 0 0 1 32 29 A 2 2 0 0 1 30 27 A 2 2 0 0 1 32 25 z M 22.738281 25.898438 L 28.546875 27.453125 L 23.34375 30.457031 A 9.3333336 9.3333336 0 0 1 22.738281 25.898438 z M 34.765625 29.121094 L 40.566406 30.675781 A 9.3333336 9.3333336 0 0 1 37.765625 34.324219 L 34.765625 29.121094 z M 29.878906 29.765625 L 28.324219 35.566406 A 9.3333336 9.3333336 0 0 1 24.675781 32.765625 L 29.878906 29.765625 z M 32.453125 30.453125 L 35.457031 35.65625 A 9.3333336 9.3333336 0 0 1 30.898438 36.261719 L 32.453125 30.453125 z"/>
 <path style="opacity:0.2;fill:#8b9cbe" d="M 18.183594 55 C 16.974866 55 16 55.892 16 57 C 16 57.169003 16.034605 57.326214 16.083984 57.478516 C 16.33464 56.626658 17.173098 56 18.183594 56 L 45.816406 56 C 46.826902 56 47.66536 56.626658 47.916016 57.478516 C 47.965395 57.326214 48 57.169003 48 57 C 48 55.892 47.025134 55 45.816406 55 L 18.183594 55 z"/>
 <path style="opacity:0.2;fill:#8b9cbe" d="M 6.8007812 5 C 5.2495812 5 4 6.2265 4 7.75 L 4 8.75 C 4 7.2265 5.2495812 6 6.8007812 6 L 57.199219 6 C 58.750419 6 60 7.2265 60 8.75 L 60 7.75 C 60 6.2265 58.750419 5 57.199219 5 L 6.8007812 5 z"/>
 <rect style="opacity:0.1" width="48" height="1" x="8" y="9"/>
 <rect style="opacity:0.1;fill:#8b9cbe" width="48" height="1" x="8" y="45"/>
</svg>
