<svg xmlns="http://www.w3.org/2000/svg" width="64" height="64" version="1">
 <rect style="fill:#4f4f4f" width="56" height="56" x="4" y="4" rx="28" ry="28"/>
 <path style="opacity:0.2" d="m 26.409679,50.42388 c -3.517949,-0.871987 -6.528906,-2.669961 -9.608662,-5.737918 -2.431165,-2.421965 -2.80656,-2.959957 -3.755946,-5.379923 -0.940587,-2.399965 -1.053785,-3.015957 -1.044586,-5.697918 0.0144,-4.275939 0.847588,-6.853902 3.244954,-10.035857 2.255168,-2.993957 3.271153,-3.821945 6.858302,-5.58132 2.513964,-1.232382 4.137941,-1.711775 7.68389,-2.267567 1.443979,-0.226397 1.491979,-0.72519 0.153998,-1.657977 -1.711976,-1.194783 -3.539949,-2.859759 -3.351952,-3.052156 0.201497,-0.206597 6.939101,2.12537 10.029056,3.47115 3.924944,1.709476 8.754475,5.051528 10.962844,7.586292 0.867107,0.995266 1.274281,2.042371 0.794188,2.042371 -0.221657,0 -3.061956,-1.286682 -5.933515,-2.687962 -1.201743,-0.586452 -2.323767,-0.979826 -2.493364,-0.874187 -0.169598,0.105618 0.03634,0.341115 0.457673,0.523252 0.421334,0.182157 0.836708,0.426194 0.923087,0.542332 0.08638,0.116119 0.757669,0.391875 1.491779,0.612752 0.734109,0.220876 1.334741,0.521472 1.334741,0.66799 0,0.146538 0.176657,0.274616 0.392574,0.284656 0.215917,0.01 1.092044,0.351575 1.946932,0.758969 l 1.554378,0.740729 -1.240302,0.347035 c -1.916573,0.536253 -2.749161,0.435634 -6.29891,-0.761249 -4.150141,-1.39932 -8.37228,-1.739415 -12.172626,-0.980486 -3.748147,0.74849 -4.090142,1.327021 -2.233968,3.777146 1.431719,1.889693 2.877159,2.354767 5.028928,1.618557 0.882007,-0.301795 1.808614,-0.416614 2.302967,-0.285376 0.756409,0.200817 0.773829,0.239357 0.203897,0.450854 -0.572812,0.212577 -0.547412,0.272596 0.314056,0.742329 0.63675,0.347195 0.761029,0.515113 0.387654,0.523733 -0.598431,0.0138 -0.738209,0.490853 -0.235537,0.803928 0.594052,0.369995 0.321196,0.836208 -0.361574,0.617811 -0.545613,-0.174537 -0.636651,-0.113758 -0.473054,0.315876 0.160098,0.420474 0.07132,0.489993 -0.423574,0.331695 -0.467333,-0.149458 -0.628291,-0.05438 -0.634591,0.374935 -0.0064,0.442973 -0.209597,0.330835 -0.883367,-0.487753 -0.836528,-1.016326 -1.004966,-1.075645 -3.838745,-1.351901 -3.50055,-0.341255 -4.436337,-0.67013 -5.486722,-1.928212 l -0.782888,-0.937667 -0.837148,1.842854 c -1.090545,2.400565 -1.348461,5.975314 -0.595872,8.258882 1.703076,5.167526 5.286925,7.363494 8.946472,5.482121 2.483765,-1.276961 3.188155,-3.635748 1.722576,-5.767117 -0.848928,-1.234543 -0.855448,-2.591763 -0.0092,-1.883833 0.508452,0.425254 0.824328,0.155577 0.850948,-0.72649 0.018,-0.590871 0.0534,-0.577192 0.342375,0.131878 l 0.322455,0.791269 0.481073,-0.71215 c 0.596212,-0.882567 1.028985,-0.924867 0.809529,-0.07912 -0.185618,0.71531 0.207677,0.828648 0.823668,0.237377 0.336595,-0.323096 0.371234,-0.259337 0.188837,0.347755 -0.199617,0.66449 -0.145038,0.721269 0.514313,0.534952 0.632711,-0.178797 0.587051,-0.07866 -0.321016,0.70395 l -1.058645,0.912387 0.225797,3.48335 0.225797,3.48335 -0.960366,0.814409 c -0.952307,0.807548 -0.954347,0.815928 -0.241897,0.996126 1.023206,0.258816 5.412123,-0.295036 7.265696,-0.916907 3.114356,-1.044765 6.810503,-3.859945 8.337881,-6.35071 1.919513,-3.129955 2.987557,-9.209268 2.06677,-11.763231 -0.392394,-1.088225 -0.404994,-1.345161 -0.06598,-1.345161 0.847528,0 1.732236,3.45875 1.743815,6.817502 0.0142,4.148941 -1.491018,8.013086 -4.405337,11.308439 -4.572534,5.170326 -13.857001,7.786488 -21.183697,5.969314 z"/>
 <path style="fill:#fecd38" d="m 26.409679,49.42418 c -3.517949,-0.871988 -6.528906,-2.669962 -9.608662,-5.737918 -2.431165,-2.421965 -2.80656,-2.959958 -3.755946,-5.379923 -0.940587,-2.399966 -1.053785,-3.015957 -1.044586,-5.697919 0.0144,-4.275938 0.847588,-6.853902 3.244954,-10.035856 2.255168,-2.994757 3.271153,-3.821345 6.858302,-5.58132 2.513964,-1.232383 4.137941,-1.711776 7.68389,-2.267568 1.443979,-0.226397 1.491979,-0.725189 0.153998,-1.657976 -1.711976,-1.194783 -3.539949,-2.859759 -3.351952,-3.052156 0.201497,-0.206598 6.939101,2.125369 10.029056,3.47115 3.924944,1.709475 8.754475,5.051528 10.962844,7.586291 0.867107,0.995266 1.274281,2.042371 0.794188,2.042371 -0.221657,0 -3.061956,-1.286681 -5.933515,-2.687961 -1.201743,-0.586452 -2.323767,-0.979846 -2.493364,-0.874188 -0.169598,0.105619 0.03634,0.341115 0.457673,0.523253 0.421334,0.182157 0.836708,0.426194 0.923087,0.542332 0.08638,0.116118 0.757669,0.391874 1.491779,0.612751 0.734109,0.220877 1.334741,0.521473 1.334741,0.667991 0,0.146537 0.176657,0.274616 0.392574,0.284656 0.215917,0.01 1.092044,0.351574 1.946932,0.758969 l 1.554378,0.740729 -1.240302,0.347035 c -1.916573,0.536252 -2.749161,0.435634 -6.29891,-0.761249 -4.150141,-1.39932 -8.37228,-1.739415 -12.172626,-0.980486 -3.748147,0.748489 -4.090142,1.327021 -2.233968,3.777146 1.431719,1.889693 2.877159,2.354766 5.028928,1.618557 0.882007,-0.301796 1.808614,-0.416614 2.302967,-0.285376 0.756409,0.200817 0.773829,0.239356 0.203897,0.450853 -0.572812,0.212577 -0.547412,0.272597 0.314056,0.74233 0.63675,0.347195 0.761029,0.515112 0.387654,0.523732 -0.598431,0.0138 -0.738209,0.490853 -0.235537,0.803929 0.594052,0.369995 0.321196,0.836208 -0.361574,0.617811 -0.545613,-0.174537 -0.636651,-0.113758 -0.473054,0.315876 0.160098,0.420474 0.07132,0.489993 -0.423574,0.331695 -0.467333,-0.149458 -0.628291,-0.05438 -0.634591,0.374934 -0.0064,0.442974 -0.209597,0.330836 -0.883367,-0.487753 -0.836528,-1.016325 -1.004966,-1.075644 -3.838745,-1.3519 -3.50055,-0.341255 -4.436337,-0.670131 -5.486722,-1.928213 l -0.782888,-0.937666 -0.837148,1.842853 c -1.090545,2.400566 -1.348461,5.975315 -0.595872,8.258882 1.703076,5.167526 5.286925,7.363495 8.946472,5.482122 2.483765,-1.276962 3.188155,-3.635748 1.722576,-5.767118 -0.848928,-1.234542 -0.855448,-2.591763 -0.0092,-1.883833 0.508452,0.425254 0.824328,0.155578 0.850948,-0.726489 0.018,-0.590872 0.0534,-0.577192 0.342375,0.131878 l 0.322455,0.791268 0.481073,-0.712149 c 0.596212,-0.882568 1.028985,-0.924867 0.809529,-0.07912 -0.185618,0.71531 0.207677,0.828648 0.823668,0.237376 0.336595,-0.323095 0.371234,-0.259336 0.188837,0.347755 -0.199617,0.664491 -0.145038,0.72127 0.514313,0.534953 0.632711,-0.178798 0.587051,-0.07866 -0.321016,0.70395 l -1.058645,0.912387 0.225797,3.48335 0.225797,3.48335 -0.960366,0.814408 c -0.952307,0.807549 -0.954347,0.815929 -0.241897,0.996126 1.023206,0.258816 5.412123,-0.295036 7.265696,-0.916907 3.114356,-1.044765 6.810503,-3.859945 8.337881,-6.350709 1.919513,-3.129955 2.987557,-9.209268 2.06677,-11.763232 -0.392394,-1.088224 -0.404994,-1.34516 -0.06598,-1.34516 0.847528,0 1.732236,3.45875 1.743815,6.817502 0.0142,4.148941 -1.491018,8.013085 -4.405337,11.308438 -4.572534,5.170326 -13.857001,7.786489 -21.183697,5.969315 z"/>
 <path style="opacity:0.1;fill:#8b9cbe" d="M 32,4 C 16.488222,4 4,16.494419 4,32.013895 4,32.127506 4.011285,32.23804 4.017578,32.35 4.3691162,17.140916 16.710946,5.0004963 32,5.0004963 47.289055,5.0004963 59.630884,17.140916 59.982422,32.35 59.988797,32.23804 60,32.127506 60,32.013895 60,16.494419 47.511779,4 32,4 Z"/>
 <path style="opacity:0.2" d="M 4.0175781,32.664062 C 4.0112845,32.775966 4,32.886446 4,33 4,48.511779 16.488,61 32,61 47.512001,61 60,48.511779 60,33 60,32.886446 59.988797,32.775966 59.982422,32.664062 59.630879,47.865603 47.289273,60 32,60 16.710728,60 4.3691213,47.865603 4.0175781,32.664062 Z"/>
</svg>
