<svg xmlns="http://www.w3.org/2000/svg" width="64" height="64" version="1.1">
 <path style="opacity:0.2" d="M 16.65625,5.000008 C 9.6418658,5.000008 4,10.641869 4,17.656258 v 30.6875 c 0,2.451182 0.6992942,4.725386 1.8984376,6.65625 h -0.0039 c 0.00934,0.0152 0.02185,0.0279 0.03125,0.04296 0.2300256,0.367104 0.476961,0.721912 0.7421876,1.0625 0.0817,0.1053 0.172906,0.20212 0.2578124,0.304688 0.14733,0.17744 0.2887356,0.358216 0.4453126,0.527344 h 0.01562 c 0.020668,0.02232 0.045598,0.0403 0.066406,0.0625 h -0.01172 c 0.309651,0.329748 0.6377154,0.638202 0.9804688,0.933594 0.163644,0.14264 0.3406244,0.268318 0.5117188,0.402344 0.203593,0.15818 0.4078948,0.315158 0.6210938,0.460938 0.094002,0.0642 0.177352,0.14162 0.2734374,0.203124 h 0.042968 c 1.3c3f4c,1.255042 4.274872,2 6.785156,2 H 18 32 46 47.34375 c 2.510286,0 4.827604,-0.744958 6.785156,-2 h 0.04296 c 0.09608,-0.06152 0.17944,-0.13892 0.273436,-0.203124 0.2132,-0.14578 0.417502,-0.302762 0.621094,-0.460938 0.1711,-0.13402 0.348076,-0.259702 0.511718,-0.402344 0.342764,-0.295384 0.670828,-0.603838 0.98048,-0.933586 h -0.0118 c 0.0208,-0.0222 0.04574,-0.04018 0.0664,-0.0625 h 0.0156 c 0.15658,-0.16912 0.297982,-0.349896 0.445312,-0.527344 0.0849,-0.10256 0.17612,-0.1994 0.257814,-0.304688 0.265226,-0.340588 0.512162,-0.695396 0.742186,-1.0625 0.0094,-0.015 0.0219,-0.02786 0.03126,-0.04296 h -0.004 C 59.300706,53.069144 60,50.79494 60,48.343758 v -30.6875 C 60,10.641869 54.358134,5.000008 47.34375,5.000008 Z"/>
 <path style="fill:#515e6f" d="M 16.65625,4.000008 C 9.6418658,4.000008 4,9.641869 4,16.656258 v 30.6875 c 0,2.451182 0.6992942,4.725386 1.8984376,6.65625 h -0.0039 c 0.00934,0.0152 0.02185,0.0279 0.03125,0.04296 0.2300256,0.367104 0.476961,0.721912 0.7421876,1.0625 0.0817,0.1053 0.172906,0.20212 0.2578124,0.304688 0.14733,0.17744 0.2887356,0.358216 0.4453126,0.527344 h 0.01562 c 0.7250842,0.783238 1.5369544,1.48348 2.4414048,2.062508 h 44.343751 c 0.904448,-0.579028 1.71632,-1.27927 2.441406,-2.0625 h 0.0156 c 0.15658,-0.16912 0.297982,-0.349896 0.445312,-0.527344 0.0849,-0.10256 0.17612,-0.1994 0.257814,-0.304688 0.265226,-0.340588 0.512162,-0.695396 0.742186,-1.0625 0.0094,-0.015 0.0219,-0.02786 0.03126,-0.04296 h -0.004 C 59.300706,52.069144 60,49.79494 60,47.343758 v -30.6875 C 60,9.641869 54.358134,4.000008 47.34375,4.000008 Z"/>
 <g style="opacity:0.2" transform="matrix(2,0,0,2,2.0000002,-0.999992)">
  <path d="M 16.333984,11 A 4.3333333,4.3333333 0 0 0 12.884766,12.71875 3.3333333,3.3333333 0 0 0 11.333984,12.333984 3.3333333,3.3333333 0 0 0 8,15.666016 3.3333333,3.3333333 0 0 0 8.0742188,16.349609 2.3333333,2.3333333 0 0 0 6,18.666016 2.3333333,2.3333333 0 0 0 8.3339844,21 2.3333333,2.3333333 0 0 0 9.2246094,20.820312 C 9.0868605,20.45908 9,20.07391 9,19.666016 c -4e-7,-1.302483 0.7868385,-2.385469 1.896484,-2.917969 0.312769,-0.170582 0.65707,-0.285517 1.023438,-0.337891 0.250241,-1.085113 0.900456,-2.014148 1.783203,-2.630859 C 14.34543,13.2978 15.129783,13 16,13 a 0.66673333,0.66673333 0 0 0 0.002,0 c 0.0265,2.8e-5 0.05177,0.0052 0.07813,0.0059 C 16.09944,13.005645 16.11739,13 16.13677,13 c 1.231277,0.0013 2.310316,0.60637 3.132812,1.482422 0.2382,-0.07662 0.477203,-0.147785 0.728516,-0.148438 a 0.66673333,0.66673333 0 0 0 0.002,0 c 0.0495,0 0.09571,0.01111 0.144531,0.01367 0.02712,-0.0019 0.05262,-0.0136 0.08008,-0.01367 a 1.0001,1.0001 0 0 0 0.002,0 c 0.111457,0 0.217497,0.01948 0.326172,0.0293 A 4.3333333,4.3333333 0 0 0 16.333984,11 Z"/>
  <path d="m 16.136363,14 a 3.4090908,3.3333333 0 0 0 -3.40909,3.333333 3.4090908,3.3333333 0 0 0 0.0013,0.02734 2.3863635,2.3333333 0 0 0 -0.342274,-0.02734 A 2.3863635,2.3333333 0 0 0 10,19.666667 2.3863635,2.3333333 0 0 0 12.386363,22 H 22.954546 A 2.0454545,2 0 0 0 25,20 2.0454545,2 0 0 0 22.954546,18 2.7272727,2.6666667 0 0 0 20.227272,15.333333 2.7272727,2.6666667 0 0 0 19.044744,15.600261 3.4090908,3.3333333 0 0 0 16.136363,14 Z"/>
 </g>
 <g transform="matrix(2,0,0,2,2.0000002,-1.999992)">
  <path style="fill:#8b9cbe" d="M 16.333984,11 A 4.3333333,4.3333333 0 0 0 12.884766,12.71875 3.3333333,3.3333333 0 0 0 11.333984,12.333984 3.3333333,3.3333333 0 0 0 8,15.666016 3.3333333,3.3333333 0 0 0 8.0742188,16.349609 2.3333333,2.3333333 0 0 0 6,18.666016 2.3333333,2.3333333 0 0 0 8.3339844,21 2.3333333,2.3333333 0 0 0 9.2246094,20.820312 C 9.0868605,20.45908 9,20.07391 9,19.666016 c -4e-7,-1.302483 0.7868385,-2.385469 1.896484,-2.917969 0.312769,-0.170582 0.65707,-0.285517 1.023438,-0.337891 0.250241,-1.085113 0.900456,-2.014148 1.783203,-2.630859 C 14.34543,13.2978 15.129783,13 16,13 a 0.66673333,0.66673333 0 0 0 0.002,0 c 0.0265,2.8e-5 0.05177,0.0052 0.07813,0.0059 C 16.09944,13.005645 16.11739,13 16.13677,13 c 1.231277,0.0013 2.310316,0.60637 3.132812,1.482422 0.2382,-0.07662 0.477203,-0.147785 0.728516,-0.148438 a 0.66673333,0.66673333 0 0 0 0.002,0 c 0.0495,0 0.09571,0.01111 0.144531,0.01367 0.02712,-0.0019 0.05262,-0.0136 0.08008,-0.01367 a 1.0001,1.0001 0 0 0 0.002,0 c 0.111457,0 0.217497,0.01948 0.326172,0.0293 A 4.3333333,4.3333333 0 0 0 16.333984,11 Z"/>
  <path style="fill:#8b9cbe" d="m 16.136363,14 a 3.4090908,3.3333333 0 0 0 -3.40909,3.333333 3.4090908,3.3333333 0 0 0 0.0013,0.02734 2.3863635,2.3333333 0 0 0 -0.342274,-0.02734 A 2.3863635,2.3333333 0 0 0 10,19.666667 2.3863635,2.3333333 0 0 0 12.386363,22 H 22.954546 A 2.0454545,2 0 0 0 25,20 2.0454545,2 0 0 0 22.954546,18 2.7272727,2.6666667 0 0 0 20.227272,15.333333 2.7272727,2.6666667 0 0 0 19.044744,15.600261 3.4090908,3.3333333 0 0 0 16.136363,14 Z"/>
 </g>
 <path style="fill:#2bb563" d="m 18,56.000008 v 4 h 14 v -4 z"/>
 <path style="fill:#5057eb" d="m 7.4414062,56.000008 c 2.304947,2.454538 5.5649348,4 9.2148438,4 H 18 v -4 z"/>
 <path style="fill:#ffb73f" d="m 46,56.000008 v 4 h 1.34375 c 3.64991,0 6.909896,-1.545462 9.214844,-4 z"/>
 <path style="fill:#e8475b" d="m 32,56.000008 v 4 h 14 v -4 z"/>
 <path style="opacity:0.1;fill:#8b9cbe" d="M 16.65625 4 C 9.6418658 4 4 9.641861 4 16.65625 L 4 17.65625 C 4 10.641861 9.6418658 5 16.65625 5 L 47.34375 5 C 54.358134 5 60 10.641861 60 17.65625 L 60 16.65625 C 60 9.641861 54.358134 4 47.34375 4 L 16.65625 4 z"/>
 <path style="opacity:0.2;fill:#8b9cbe" d="M 7.4414062 56 C 7.7753104 56.355575 8.1335754 56.687728 8.5078125 57 L 55.492188 57 C 55.866425 56.687728 56.22469 56.355575 56.558594 56 L 7.4414062 56 z"/>
</svg>
