<svg xmlns="http://www.w3.org/2000/svg" width="64" height="64" version="1">
 <path style="opacity:0.2" d="M 32,5 A 28,28 0 0 0 4,33 28,28 0 0 0 7.3652,46.256 L 7.3145,46.215 C 8.7257,49.53 8.6224,50.434 8.4004,53.203 8.2457,55.133 7.7222,57.103 7.0684,58.213 6.4756,59.217 6,60.256 6,60.52 6,61.337 10.719,61.05 14.896,59.98 19.542,58.791 20.197,58.668 23.678,59.732 A 28,28 0 0 0 23.785,59.766 C 23.939,59.813 24.065,59.849 24.23,59.9 L 24.191,59.869 A 28,28 0 0 0 32,61 28,28 0 0 0 60,33 28,28 0 0 0 32,5 Z"/>
 <path style="fill:#47ad5d" d="M 32 4 A 28 28 0 0 0 4 32 A 28 28 0 0 0 7.3652 45.256 L 7.3145 45.215 C 8.7257 48.53 8.6224 49.434 8.4004 52.203 C 8.2457 54.133 7.7222 56.103 7.0684 57.213 C 6.4756 58.217 6 59.256 6 59.52 C 6 60.337 10.719 60.05 14.896 58.98 C 19.542 57.791 20.197 57.668 23.678 58.732 A 28 28 0 0 0 23.785 58.766 C 23.939 58.813 24.065 58.849 24.23 58.9 L 24.191 58.869 A 28 28 0 0 0 32 60 A 28 28 0 0 0 60 32 A 28 28 0 0 0 32 4 z"/>
 <path style="opacity:0.2" d="m 42.501273,45.331619 c 2.099033,-1.00243 3.074917,-2.26015 3.411421,-4.39661 0.256452,-1.62821 0.138182,-2.04476 -3.054911,-3.58214 -4.06,-1.95482 -3.809721,-1.96415 -5.558755,0.20739 -1.088514,1.35145 -1.556254,1.78993 -1.909502,1.78993 -4.137549,-1.11868 -8.347537,-4.35011 -9.686543,-8.5936 0,-0.1817 0.440383,-0.8465 0.978656,-1.47732 1.582699,-1.8548 1.584435,-1.90025 0.20258,-5.30473 -1.590819,-3.91937 -2.12892,-3.89276 -3.861981,-3.96445 -1.773547,-0.0733 -2.334009,0.20856 -3.456149,1.7384 -1.160979,1.5828 -1.57549,2.85611 -1.565928,4.81028 0.0126,2.48027 0.825412,4.47174 3.179496,7.78576 4.04124,5.68913 7.984114,8.77695 13.664444,10.70113 3.47407,1.17685 5.6237,1.25712 7.657172,0.28596 z"/>
 <path style="fill:#8b9cbe" d="m 42.501273,44.331841 c 2.099033,-1.002433 3.074917,-2.260154 3.411421,-4.396614 0.256452,-1.628209 0.138182,-2.044762 -3.054911,-3.582134 -4.06,-1.954828 -3.809721,-1.964158 -5.558755,0.20739 -1.088514,1.35145 -1.556254,1.78993 -1.909502,1.78993 -4.137549,-1.118683 -8.347537,-4.350119 -9.686543,-8.593602 0,-0.181703 0.440383,-0.846498 0.978656,-1.477319 1.582699,-1.854803 1.584435,-1.900255 0.20258,-5.304738 -1.590819,-3.91937 -2.12892,-3.892756 -3.861981,-3.964445 -1.773547,-0.07334 -2.334009,0.208556 -3.456149,1.738395 -1.160979,1.582809 -1.57549,2.856112 -1.565928,4.810281 0.0126,2.480269 0.825412,4.471743 3.179496,7.785766 4.04124,5.689125 7.984114,8.776943 13.664444,10.701129 3.47407,1.176845 5.6237,1.257117 7.657172,0.285961 z"/>
 <path style="fill:#8b9cbe;opacity:0.2" d="M 32 4 A 28 28 0 0 0 4 32 A 28 28 0 0 0 4.0215 32.406 A 28 28 0 0 1 32 5 A 28 28 0 0 1 59.979 32.586 A 28 28 0 0 0 60 32 A 28 28 0 0 0 32 4 z M 8.5156 50.508 C 8.4948 51.01 8.4528 51.549 8.4004 52.203 C 8.2457 54.133 7.7222 56.103 7.0684 57.213 C 6.4756 58.217 6 59.256 6 59.52 C 6 59.629 6.0969 59.716 6.2539 59.787 C 6.4494 59.344 6.7333 58.78 7.0684 58.213 C 7.7222 57.103 8.2457 55.133 8.4004 53.203 C 8.489 52.098 8.5535 51.29 8.5156 50.508 z"/>
</svg>
