<svg xmlns="http://www.w3.org/2000/svg" width="64" height="64" version="1.1">
 <circle style="opacity:0.2" cx="32" cy="33" r="28"/>
 <circle style="fill:#248afd" cx="32" cy="32" r="28"/>
 <path style="opacity:0.2;fill:#8b9cbe" d="M 32,4 A 28,28 0 0 0 4,32 28,28 0 0 0 4.0215,32.586 28,28 0 0 1 32,5 28,28 0 0 1 59.979,32.414 28,28 0 0 0 60,32 28,28 0 0 0 32,4 Z"/>
 <path style="opacity:0.2" d="M 26,17 C 26,17 24,23 33,32 42,41 50,39 50,39 50,39 40,45 30,35 20,25 26,17 26,17 Z M 18,19 C 18,19 16,29 26,39 36,49 48,47 48,47 48,47 32,53 22,43 12,33 18,19 18,19 Z"/>
 <path style="fill:#8b9cbe" d="M 26,16 C 26,16 24,22 33,31 42,40 50,38 50,38 50,38 40,44 30,34 20,24 26,16 26,16 Z M 18,18 C 18,18 16,28 26,38 36,48 48,46 48,46 48,46 32,52 22,42 12,32 18,18 18,18 Z"/>
</svg>
