<svg xmlns="http://www.w3.org/2000/svg" width="64" height="64" version="1">
 <path style="opacity:0.2" d="M 30.599609,5 C 27.497209,5 25,7.4972093 25,10.599609 v 2.625 a 21,21 0 0 0 -6.623047,3.826172 l -2.275391,-1.3125 c -2.686757,-1.5512 -6.09919,-0.635976 -7.6503901,2.050781 l -1.4003907,2.421876 c -1.5511999,2.686758 -0.6359758,6.09919 2.0507813,7.65039 l 2.2656255,1.308594 A 21,21 0 0 0 11,33 a 21,21 0 0 0 0.367188,3.830078 l -2.2656255,1.308594 c -2.6867571,1.5512 -3.6019813,4.963633 -2.0507813,7.65039 l 1.4003907,2.421876 c 1.5512001,2.686757 4.9636331,3.601981 7.6503901,2.050781 l 2.259766,-1.304688 A 21,21 0 0 0 25,52.769531 v 2.63086 C 25,58.502791 27.497209,61 30.599609,61 h 2.800782 C 36.502791,61 39,58.502791 39,55.400391 v -2.640625 a 21,21 0 0 0 6.623047,-3.810547 l 2.275391,1.3125 c 2.686757,1.5512 6.09919,0.635977 7.65039,-2.050781 l 1.400391,-2.421876 c 1.5512,-2.686757 0.635975,-6.09919 -2.050781,-7.65039 L 52.632812,36.830078 A 21,21 0 0 0 53,33 21,21 0 0 0 52.632812,29.169922 l 2.265626,-1.308594 c 2.686757,-1.5512 3.601981,-4.963632 2.050781,-7.65039 l -1.400391,-2.421876 c -1.5512,-2.686758 -4.963633,-3.601981 -7.65039,-2.050781 l -2.259766,1.304688 A 21,21 0 0 0 39,13.228516 V 10.599609 C 39,7.4972093 36.502791,5 33.400391,5 Z"/>
 <path style="fill:#4f4f4f" d="M 30.599609,4 C 27.497209,4 25,6.4972094 25,9.5996094 v 2.6249996 a 21,21 0 0 0 -6.623047,3.826172 l -2.275391,-1.3125 c -2.686757,-1.5512 -6.09919,-0.635976 -7.6503901,2.050781 l -1.4003907,2.421876 c -1.5511999,2.686758 -0.6359758,6.09919 2.0507813,7.65039 l 2.2656255,1.308594 A 21,21 0 0 0 11,32 a 21,21 0 0 0 0.367188,3.830078 l -2.2656255,1.308594 c -2.6867571,1.5512 -3.6019813,4.963633 -2.0507813,7.65039 l 1.4003907,2.421876 c 1.5512001,2.686757 4.9636331,3.601981 7.6503901,2.050781 l 2.259766,-1.304688 A 21,21 0 0 0 25,51.769531 v 2.63086 C 25,57.502791 27.497209,60 30.599609,60 h 2.800782 C 36.502791,60 39,57.502791 39,54.400391 v -2.640625 a 21,21 0 0 0 6.623047,-3.810547 l 2.275391,1.3125 c 2.686757,1.5512 6.09919,0.635976 7.65039,-2.050781 l 1.400391,-2.421876 c 1.5512,-2.686757 0.635975,-6.09919 -2.050781,-7.65039 L 52.632812,35.830078 A 21,21 0 0 0 53,32 21,21 0 0 0 52.632812,28.169922 l 2.265626,-1.308594 c 2.686757,-1.5512 3.601981,-4.963632 2.050781,-7.65039 l -1.400391,-2.421876 c -1.5512,-2.686758 -4.963634,-3.601981 -7.65039,-2.050781 l -2.259766,1.304688 A 21,21 0 0 0 39,12.228516 V 9.5996094 C 39,6.4972094 36.502791,4 33.400391,4 Z"/>
 <path style="opacity:0.1;fill:#8b9cbe" d="M 30.599609,4 C 27.497209,4 25,6.4972094 25,9.5996094 V 10.599609 C 25,7.4972094 27.497209,5 30.599609,5 h 2.800782 C 36.502791,5 39,7.4972094 39,10.599609 V 9.5996094 C 39,6.4972094 36.502791,4 33.400391,4 Z M 25,12.224609 a 21,21 0 0 0 -6.623047,3.826172 l -2.275391,-1.3125 c -2.686757,-1.5512 -6.09919,-0.635976 -7.6503901,2.050781 l -1.4003907,2.421876 c -0.6033566,1.045044 -0.8286088,2.200037 -0.7265624,3.3125 0.069736,-0.789767 0.3027074,-1.578362 0.7265624,-2.3125 l 1.4003907,-2.421876 c 1.5512001,-2.686757 4.9636331,-3.601981 7.6503901,-2.050781 l 2.275391,1.3125 A 21,21 0 0 1 25,13.224609 Z m 14,0.0039 v 1 a 21,21 0 0 1 6.638672,3.814453 l 2.259766,-1.304688 c 2.686757,-1.5512 6.09919,-0.635977 7.65039,2.050781 l 1.400391,2.421876 c 0.423855,0.734138 0.656827,1.522733 0.726562,2.3125 0.102046,-1.112463 -0.123206,-2.267456 -0.726562,-3.3125 l -1.400391,-2.421876 c -1.5512,-2.686758 -4.963633,-3.601981 -7.65039,-2.050781 l -2.259766,1.304688 A 21,21 0 0 0 39,12.228516 Z M 52.767578,29.09179 52.632812,29.16992 A 21,21 0 0 1 52.974609,32.541016 21,21 0 0 0 53,32 21,21 0 0 0 52.767578,29.091797 Z m -41.529297,0.0039 A 21,21 0 0 0 11,32 a 21,21 0 0 0 0.02539,0.458984 21,21 0 0 1 0.341797,-3.289062 z m 41.523438,6.808594 a 21,21 0 0 1 -0.128907,0.925781 l 2.265626,1.308594 c 1.641712,0.947843 2.617034,2.590267 2.777343,4.33789 0.185479,-2.100574 -0.824725,-4.210545 -2.777343,-5.33789 z m -41.529297,0.0039 -2.1308595,1.230469 c -1.9526187,1.127345 -2.9628223,3.237316 -2.7773437,5.33789 0.1603097,-1.747623 1.1356309,-3.390047 2.7773437,-4.33789 l 2.2656255,-1.308594 a 21,21 0 0 1 -0.134766,-0.921875 z"/>
 <circle style="fill:#48aeff" cx="46" cy="46" r="16"/>
 <path style="opacity:0.2" d="M 30.02539,46.5 A 16,16.001894 0 0 0 30,46.998106 16,16.001894 0 0 0 46,63 16,16.001894 0 0 0 62,46.998106 16,16.001894 0 0 0 61.98242,46.50586 16,16.001894 0 0 1 45.999998,61.999882 16,16.001894 0 0 1 30.02539,46.5 Z"/>
 <g>
  <path style="fill:#8b9cbe" d="m 38.50022,38.00021 h 5.99998 c 0.2765,0 0.4998,0.22302 0.4998,0.50001 V 44.5002 C 45,44.7767 44.7767,45 44.5002,45 H 38.50001 C 38.22302,45 38,44.7767 38,44.5002 V 38.50001 C 38,38.22302 38.22302,38 38.50001,38 Z"/>
  <path style="fill:#8b9cbe" d="m 47.49978,38 h 5.99974 C 53.77671,38 54,38.223027 54,38.500025 v 6.000159 C 54,44.776693 53.77671,45 53.50022,45 H 47.500481 C 47.223291,45 47,44.776693 47,44.500184 v -6.000159 c 0,-0.277006 0.22299,-0.500018 0.499983,-0.500018 z"/>
  <path style="fill:#8b9cbe" d="m 38.50022,47.000209 h 5.99998 c 0.2765,0 0.4998,0.223021 0.4998,0.50001 V 53.5002 c 0,0.276499 -0.2233,0.499799 -0.4998,0.499799 H 38.50001 C 38.22302,53.999999 38,53.776699 38,53.5002 v -6.000191 c 0,-0.27699 0.22302,-0.50001 0.50001,-0.50001 z"/>
  <path style="fill:#8b9cbe" d="m 47.49978,46.999999 h 5.99974 c 0.27719,0 0.50048,0.223027 0.50048,0.500026 v 6.000159 c 0,0.276509 -0.22329,0.499815 -0.49978,0.499815 H 47.500481 C 47.223291,53.999999 47,53.776693 47,53.500184 v -6.000159 c 0,-0.277006 0.22299,-0.500018 0.499983,-0.500018 z"/>
 </g>
</svg>
