<svg xmlns="http://www.w3.org/2000/svg" width="64" height="64" version="1">
 <rect style="opacity:0.2" width="44" height="56" x="-52" y="-60" rx="3" ry="3" transform="matrix(0,-1,-1,0,0,0)"/>
 <rect style="fill:#0245c5" width="44" height="56" x="-51" y="-60" rx="3" ry="3" transform="matrix(0,-1,-1,0,0,0)"/>
 <path style="opacity:0.2;fill:#8b9cbe" d="M 60,48 V 10 C 60,8.338 58.662,7 57,7 H 32 v 44 h 25 c 1.662,0 3,-1.338 3,-3 z"/>
 <path style="opacity:0.1;fill:#8b9cbe" d="M 60,29 V 10 C 60,8.338 58.662,7 57,7 H 7 C 5.338,7 4,8.338 4,10 v 19 z"/>
 <path style="opacity:0.1;fill:#8b9cbe" d="M 7 7 C 5.338 7 4 8.338 4 10 L 4 11 C 4 9.338 5.338 8 7 8 L 57 8 C 58.662 8 60 9.338 60 11 L 60 10 C 60 8.338 58.662 7 57 7 L 7 7 z"/>
 <rect style="opacity:0.2" width="24" height="30" x="-54" y="-32" rx="1" ry="1" transform="matrix(0,-1,-1,0,0,0)"/>
 <rect style="fill:#ebebeb" width="24" height="30" x="-53" y="-32" rx="1" ry="1" transform="matrix(0,-1,-1,0,0,0)"/>
</svg>
