<svg xmlns="http://www.w3.org/2000/svg" width="64" height="64" version="1">
 <rect style="opacity:0.2" width="56" height="56" x="4" y="5" rx="16.8" ry="16.8"/>
 <rect style="fill:#4f4f4f" width="56" height="56" x="4" y="4" rx="16.8" ry="16.8"/>
 <path style="opacity:0.2;fill:none;stroke:#101010;stroke-width:5.60023785;stroke-linecap:round;stroke-linejoin:round" d="m 22.113842,48.281089 a 18.200773,18.200773 0 0 1 -7.5763,-20.412944 18.200773,18.200773 0 0 1 17.414847,-13.069497 18.200773,18.200773 0 0 1 17.48304,12.978135 18.200773,18.200773 0 0 1 -7.469317,20.452334"/>
 <path style="fill:none;stroke:#ececec;stroke-width:5.60023785;stroke-linecap:round;stroke-linejoin:round" d="M 22.113842,47.281091 A 18.200773,18.200773 0 0 1 14.537542,26.868147 18.200773,18.200773 0 0 1 31.952389,13.79865 18.200773,18.200773 0 0 1 49.435429,26.776785 18.200773,18.200773 0 0 1 41.966112,47.229119"/>
 <path style="opacity:0.2;fill:none;stroke:#101010;stroke-width:5.77854633;stroke-linecap:round;stroke-linejoin:round" d="m 26.330624,41.32453 a 10.112456,10.112456 0 0 1 -4.005015,-11.317659 10.112456,10.112456 0 0 1 9.630328,-7.168425 10.112456,10.112456 0 0 1 9.692517,7.084113 10.112456,10.112456 0 0 1 -3.906098,11.352177"/>
 <path style="fill:none;stroke:#ececec;stroke-width:5.77854633;stroke-linecap:round;stroke-linejoin:round" d="m 26.330624,40.32453 a 10.112456,10.112456 0 0 1 -4.005015,-11.317659 10.112456,10.112456 0 0 1 9.630328,-7.168425 10.112456,10.112456 0 0 1 9.692517,7.084113 10.112456,10.112456 0 0 1 -3.906098,11.352177"/>
 <circle style="opacity:0.2" cx="32" cy="33" r="5"/>
 <circle style="fill:#8b9cbe" cx="32" cy="32" r="5"/>
 <path style="fill:#8b9cbe;opacity:0.1" d="M 20.800781 4 C 11.493582 4 4 11.493582 4 20.800781 L 4 21.800781 C 4 12.493582 11.493582 5 20.800781 5 L 43.199219 5 C 52.506418 5 60 12.493582 60 21.800781 L 60 20.800781 C 60 11.493582 52.506418 4 43.199219 4 L 20.800781 4 z"/>
</svg>
