<svg xmlns="http://www.w3.org/2000/svg" width="64" height="64" version="1">
 <path style="opacity:0.2" d="M 4.0545892,32.005868 C 4.0428516,32.34052 4.0038175,32.668054 4.0038175,33.005666 4.0038175,48.514527 16.489291,61 31.998152,61 47.507013,61 59.992486,48.514527 59.992486,33.005666 c 0,-0.337612 -0.03903,-0.665146 -0.05077,-0.999798 -0.527893,15.038956 -12.773415,26.994537 -27.944344,26.994537 -15.17133,0 -27.4164513,-11.955581 -27.9443445,-26.994537 z"/>
 <rect style="fill:#6573c3" width="56" height="56" x="-60" y="-59.99" rx="27.994" ry="27.994" transform="matrix(0,-1,-1,0,0,0)"/>
 <path style="opacity:0.1" d="M 51.776331,12.229073 12.222336,51.781068 c 10.956383,10.956383 28.598212,10.956383 39.553995,0 10.956382,-10.956382 10.956382,-28.598212 0,-39.553994 z"/>
 <path style="fill:#f2f2f2" d="m 12.222536,51.782068 17.304898,-22.249497 2.341726,2.341726 2.602473,2.602473 z"/>
 <path style="fill:#f34235" d="M 51.776331,12.229073 29.526834,29.533971 34.471033,34.47817 Z"/>
 <path style="opacity:0.2;fill:#8b9cbe" d="M 51.776331,12.229073 12.222336,51.781068 c -10.9563824,-10.956382 -10.9563824,-28.598212 0,-39.553994 10.956383,-10.9563829 28.598212,-10.9563829 39.553995,0 z"/>
 <path style="opacity:0.2;fill:#8b9cbe" d="m 32.000333,4.0117363 c -15.509661,0 -27.9943339,12.4854727 -27.9943339,27.9943337 0,0.146971 -0.011798,0.292641 0,0.437412 C 4.3049386,17.197768 16.680034,5.0110341 32.000333,5.0110341 c 15.3195,0 27.694395,12.1867339 27.994334,27.4324479 0.012,-0.144771 0,-0.290361 0,-0.437412 0,-15.508861 -12.485473,-27.9943337 -27.994334,-27.9943337 z"/>
</svg>
