<svg width="64" height="64" version="1.1" xmlns="http://www.w3.org/2000/svg">
 <path d="m13 12h17l5 8 7-8h18l-18 21 12 21h-19l-5-8-6 8h-20l19-22z" style="opacity:.2"/>
 <path d="m13 11h17l5 8 7-8h18l-18 21 12 21h-19l-5-8-6 8h-20l19-22z" style="fill:#ccab3c"/>
 <path d="m13 11 0.5 1h16.5l5 8 7-8h17.142578l0.857422-1h-18l-7 8-5-8h-17zm9.683594 20.367188-18.683594 21.632812h0.8632812l18.136719-21-0.316406-0.632812zm19.660156 1.232421-0.34375 0.400391 11.427734 20h0.572266l-11.65625-20.400391z" style="fill:#8b9cbe;opacity:.1"/>
 <circle cx="47" cy="48" r="15" style="opacity:.2"/>
 <circle cx="47" cy="47" r="15" style="fill:#498391"/>
 <path d="m43 40v6 2h5v6h3v-6-3-5h-3v5h-2v-5h-3z" style="fill:#8b9cbe"/>
</svg>
