<svg xmlns="http://www.w3.org/2000/svg" width="64" height="64" version="1.1">
 <rect style="opacity:0.2" width="55" height="55" x="5" y="5" rx="16.5" ry="16.5"/>
 <rect style="fill:#795548" width="55" height="55" x="5" y="4" rx="16.5" ry="16.5"/>
 <path style="fill:#6d4c41" d="m 21.5,3.9999999 c -1.933323,0 -3.778865,0.3450764 -5.5,0.9506836 V 15 H 27 V 3.9999999 Z M 27,15 V 26 H 37.999999 V 15 Z m 10.999999,0 h 11 V 4.9506835 c -1.721133,-0.6056072 -3.566676,-0.9506836 -5.5,-0.9506836 h -5.5 z m 11,0 v 11 h 10.999999 v -5.5 c 0,-1.933323 -0.345077,-3.778866 -0.950682,-5.5 z m 0,11 h -11 v 10.999999 h 11 z m 0,10.999999 v 11 h 10.049317 c 0.605605,-1.721134 0.950682,-3.566676 0.950682,-5.5 v -5.5 z m 0,11 h -11 v 10.999999 h 5.5 c 1.933324,0 3.778867,-0.345077 5.5,-0.950682 z m -11,0 v -11 H 27 v 11 z M 27,47.999999 H 16 v 10.049317 c 1.721135,0.605605 3.566677,0.950682 5.5,0.950682 H 27 Z m -11,0 v -11 H 5.0000001 v 5.5 c 0,1.933324 0.3450767,3.778866 0.9506836,5.5 z m 0,-11 H 27 V 26 H 16 Z M 16,26 V 15 H 5.9506837 C 5.3450768,16.721134 5.0000001,18.566677 5.0000001,20.5 V 26 Z"/>
 <path style="fill:#8b9cbe;opacity:0.1" d="M 21.5 4 C 12.359 4 5 11.359 5 20.5 L 5 21.5 C 5 12.359 12.359 5 21.5 5 L 43.5 5 C 52.641 5 60 12.359 60 21.5 L 60 20.5 C 60 11.359 52.641 4 43.5 4 L 21.5 4 z"/>
 <rect style="fill:#bdbdbd" width="15" height="25" x="26" y="21"/>
 <path style="opacity:0.2" d="m 21,13 v 7.8 c 0,2.8808 2.23,5.2 5,5.2 h 15 c 2.77,0 5,-2.3192 5,-5.2 V 13 h -5 v 5 h -5 v -5 h -5 v 5 h -5 v -5 z"/>
 <path style="fill:#8b9cbe" d="m 21,12 v 7.8 c 0,2.8808 2.23,5.2 5,5.2 h 15 c 2.77,0 5,-2.3192 5,-5.2 V 12 h -5 v 5 h -5 v -5 h -5 v 5 h -5 v -5 z"/>
 <path style="opacity:0.2" d="M 21.875,43 C 19.72825,43 18,44.784 18,47 v 4 h 31 v -4 c 0,-2.216 -1.72825,-4 -3.875,-4 z"/>
 <path style="fill:#8b9cbe" d="M 21.875,42 C 19.72825,42 18,43.784 18,46 v 4 h 31 v -4 c 0,-2.216 -1.72825,-4 -3.875,-4 z"/>
</svg>
