<svg xmlns="http://www.w3.org/2000/svg" width="64" height="64" version="1">
 <circle style="opacity:0.2" cx="32" cy="29" r="22"/>
 <path style="opacity:0.2" d="M 32,25 A 28,28.333333 0 0 0 4,53.333333 28,28.333333 0 0 0 4.3253907,57.472656 C 4.7918368,58.377648 5.7177453,59 6.8,59 h 50.4 c 1.073024,0 1.990568,-0.612863 2.460937,-1.505208 A 28,28.333333 0 0 0 60,53.333333 28,28.333333 0 0 0 32,25 Z"/>
 <circle style="fill:#2064cf" cx="32" cy="28" r="22"/>
 <path style="opacity:0.2" d="m 29.939074,6.1181393 a 22.000001,22.000001 0 0 0 -7.961801,2.30956 c 0.1111,0.3521101 -0.0187,0.7493201 -0.4235,1.1000001 -0.2739,0.2373801 -0.4983,0.6070906 -0.4983,0.8229106 0,0.65967 0.5962,1.67255 1.0725,1.81973 0.6325,0.1958 0.4202,0.870759 -0.3938,1.243659 -0.3762,0.172702 -0.8393,0.6699 -1.0285,1.104402 -0.1903,0.4356 -0.4697,0.8646 -0.6215,0.9537 -0.1507,0.0902 -0.275,0.430098 -0.275,0.756798 0,0.456502 0.209,0.677602 0.8943,0.951502 0.4906,0.1969 1.078,0.339898 1.3057,0.317898 1.3101,-0.1232 1.4014,0.6402 0.2563,2.1318 -0.6083,0.792 -0.9009,0.9911 -1.3156,0.891 -0.3861,-0.0924 -0.5973,0.0165 -0.7733,0.399302 -0.1848,0.4059 -0.4884,0.543399 -1.3035,0.5995 -0.8019,0.0561 -1.1605,0.218899 -1.4608,0.657801 -0.219999,0.3201 -0.536799,0.5797 -0.705099,0.5797 -0.16874,0 -0.56496,0.2156 -0.88088,0.4774 -0.64284,0.5335 -0.89386,0.5874 -1.11925,0.2387 -0.29788,-0.462 -0.940611,-0.2288 -1.897061,0.6875 -0.845901,0.8096 -0.948311,1.0263 -0.820711,1.7292 0.22704,1.2507 0.905411,2.3606 1.680031,2.7478 0.675951,0.3377 0.689151,0.374 0.27929,0.8074 -0.23573,0.2497 -0.6402,0.517 -0.89804,0.5951 -0.744701,0.2266 -0.32549,0.5104 1.00331,0.6798 1.360041,0.1727 1.782661,0.665501 1.147301,1.337599 -0.35431,0.3751 -0.3344,0.4455 0.23419,0.8019 1.111,0.6974 1.994519,0.2706 0.95172,-0.4598 -0.67023,-0.4697 -0.20152,-0.6611 0.7821,-0.3201 0.784299,0.2717 0.939399,0.2563 1.402499,-0.1463 0.9515,-0.823899 1.9855,0.3949 1.1154,1.3145 -0.5533,0.5863 -0.3861,1.2925 0.3311,1.3904 0.3168,0.0429 0.9746,0.3377 1.463,0.6556 0.4884,0.3168 1.0208,0.5775 1.1814,0.5775 0.1606,0 0.6138,0.3223 1.007601,0.7161 0.7986,0.7975 1.2419,0.8987 1.4674,0.3366 0.2706,-0.6754 0.1617,-1.0241 -0.5676,-1.8194 -0.5797,-0.6336 -1.522401,-2.3166 -1.522401,-2.7203 0,-0.2486 0.958101,-0.0374 1.494901,0.3289 0.3355,0.2299 0.8789,0.5258 1.2078,0.66 0.3498,0.143 0.7128,0.5874 0.8789,1.0736 0.2585,0.7634 0.3608,0.8294 1.276,0.8294 h 0.9944 l 0.1507,1.7875 c 0.1804,2.1505 0.3531,2.5861 1.0912,2.7632 0.5434,0.1309 1.1231,0.972401 1.1231,1.630201 0,0.1749 -0.3905,0.6039 -0.8679,0.9526 -0.5918,0.4323 -0.847,0.7997 -0.8074,1.1594 0.0495,0.4499 -0.0528,0.5203 -0.6897,0.473 -0.4103,-0.0308 -1.1231,0.1133 -1.5807,0.3201 -0.5423,0.2442 -1.1297,0.3223 -1.6808,0.2233 -0.6336,-0.1133 -0.8481,-0.0693 -0.8481,0.1782 0,0.1826 -0.2222,0.5236 -0.4928,0.759 -0.668801,0.5797 -0.3927,0.8866 0.6347,0.7018 0.638,-0.1144 0.8866,-0.0638 0.9966,0.2112 0.2343,0.5841 -0.3597,1.4201 -0.9108,1.2826 -0.3498,-0.088 -0.517,0.0319 -0.6259,0.4444 -0.0374,0.1463 -0.1067,0.2706 -0.1892,0.3762 a 22.000001,22.000001 0 0 0 3.4815,1.0285 c -0.11,-0.2101 -0.2354,-0.4015 -0.3575,-0.4873 -0.5665,-0.4004 -0.187,-1.441 0.5929,-1.628 0.7953,-0.1914 0.6699,-0.7073 -0.1947,-0.8063 -0.7579,-0.0858 -1.5642,-0.8536 -1.3112,-1.2463 0.1705,-0.2629 0.8954,-0.2244 2.3617,0.1232 0.6622,0.1562 1.1143,-0.1584 2.6488,-1.837 0.8877,-0.9724 1.5708,-1.3772 2.319901,-1.3772 0.286,0 1.3057,-0.2629 2.2671,-0.5841 1.815,-0.6083 2.5245,-0.5863 2.4574,0.077 -0.1386,1.3794 0.7491,1.3332 2.1956,-0.1122 0.6028,-0.6017 1.1539,-1.0373 1.2254,-0.9691 0.2761,0.2651 -0.2211,1.5554 -0.8019,2.0779 -0.7359,0.6622 -0.7722,1.0802 -0.1243,1.4113 0.3542,0.1826 0.5049,0.5511 0.561,1.3794 l 0.0748,1.1308 h 0.9196 c 0.322301,0 0.589601,0.044 0.805201,0.1265 a 22.000001,22.000001 0 0 0 10.659001,-18.1566 c -0.3366,-0.7194 -0.3124,-1.1539 0,-1.6434 a 22.000001,22.000001 0 0 0 -0.099,-1.2331 c -0.2002,-0.0099 -0.4048,-0.0187 -0.6402,-0.0088 -1.108801,0.0462 -2.058101,-0.3905 -2.058101,-0.9471 0,-0.1177 -0.3938,-0.602801 -0.8745,-1.076901 -0.5456,-0.5368 -0.825,-1.012 -0.7436,-1.2584 0.0748,-0.2244 -0.0858,-0.5863 -0.3696,-0.8316 -0.2761,-0.2398 -0.5027,-0.6248 -0.5027,-0.8558 0,-0.3685 -0.2343,-0.4147 -1.9294,-0.374 l -1.9294,0.0473 0.033,1.9019 c 0.0572,3.330801 0.5533,4.195401 2.0834,3.637701 0.7007,-0.2563 2.4222,-0.0627 2.9117,0.3256 0.1771,0.1408 0.4334,0.6512 0.5687,1.1352 0.1364,0.4829 0.6402,1.32 1.122,1.8579 0.974601,1.0912 1.050501,1.5169 0.4917,2.797298 -0.4873,1.1176 -1.0131,0.9889 -0.9086,-0.2233 l 0.077,-0.901998 -0.825,0.154 c -0.4565,0.0869 -1.0285,0.4235 -1.2848,0.756798 -0.3652,0.4741 -0.5357,0.5434 -0.8096,0.3267 -0.1914,-0.1518 -0.3465,-0.4719 -0.3465,-0.709498 0,-0.2376 -0.2354,-0.5016 -0.5214,-0.5885 -0.2871,-0.0869 -0.6798,-0.5192 -0.8723,-0.9625 -0.3091,-0.7084 -0.3014,-0.9251 0.0583,-1.7853 0.3641,-0.8723 0.3674,-1.0164 0.0319,-1.3387 -0.308,-0.2948 -0.4675,-0.3047 -0.8723,-0.0616 -0.407,0.2431 -0.5995,0.2255 -1.0835,-0.099 -0.3223,-0.2167 -0.8866,-0.396 -1.2518,-0.396 -0.742501,0 -0.966901,-0.3608 -0.966901,-1.5554 0,-1.103301 -0.6578,-1.503701 -2.2242,-1.359601 -1.0868,0.1001 -1.3266,0.0286 -2.2033,-0.6468 -0.5423,-0.4169 -1.3981,-1.4201 -1.9041,-2.2319 -0.506,-0.8118 -1.0505,-1.6599 -1.21,-1.8843 -0.2288,-0.3245 -0.1727,-0.6358 0.275,-1.5191 l 0.5654,-1.111 -1.1946,0.1617 c -2.125201,0.2871 -2.555301,0.5621 -1.641201,1.0527 0.356401,0.1903 0.371801,0.2882 0.0968,0.6061 -0.1804,0.2068 -0.2651,0.5357 -0.187,0.7304 0.0781,0.1936 -0.0209,0.6512 -0.2189,1.0153 -0.1991,0.3652 -0.3652,0.8767 -0.3718,1.1396 -0.0209,0.8195 -1.4245,1.4718 -2.9887,1.3849 -2.3694,-0.1309 -2.5619,-0.0935 -3.4034,0.6875 -1.0516,0.9768 -1.1869,1.4311 -0.6974,2.337501 0.4741,0.88 1.3167,1.2309 2.7753,1.1583 1.3046,-0.0649 1.452,0.0506 1.1539,0.913 -0.2541,0.7326 -1.1055,1.0142 -1.683,0.5566 -0.4444,-0.3531 -1.9767,-0.0803 -2.4464,0.4367 -0.1969,0.2156 -0.4895,0.7832 -0.649,1.2584 -0.275,0.8206 -0.3553,0.8712 -1.587301,0.99 -1.2298,0.1199 -1.3486,0.0803 -2.233,-0.7348 -0.9867,-0.9086 -1.1539,-1.6038 -0.6787,-2.8006 0.2112,-0.5302 0.3674,-0.6171 0.9306,-0.5137 1.1154,0.2035 1.5554,-0.1837 1.5554,-1.375 0,-0.5775 -0.1122,-1.117601 -0.2497,-1.199001 -0.1364,-0.0814 -0.2486,-0.3872 -0.2486,-0.6809 0,-0.2937 -0.1408,-0.6721 -0.3113,-0.8382 -0.2497,-0.242 -0.2134,-0.3718 0.1848,-0.6534 0.2728,-0.1925 0.7216,-0.3223 0.9966,-0.2893 0.2739,0.033 1.031801,-0.0858 1.684101,-0.2629 0.9427,-0.2541 1.2199,-0.4466 1.3475,-0.9427 0.242,-0.9416 0.8327,-1.6973 1.3277,-1.6973 0.7821,0 0.7986,-1.8392 0.0385,-4.514401 -0.1122,-0.3949 -0.4213,-0.6457 -0.9669,-0.781 -0.4422,-0.11 -0.9229,-0.411401 -1.0681,-0.670781 -0.1441,-0.25938 -0.4092,-0.47058 -0.5885,-0.47058 -0.1793,0 -0.5302,-0.21472 -0.7777,-0.47696 -0.249701,-0.264 -0.765601,-0.47696 -1.158301,-0.47696 -0.9295,0 -0.9449,-0.63998 -0.0231,-0.97746 0.9735,-0.3568398 2.489301,0.11088 2.855601,0.88077 0.4961,1.04401 1.0472,0.60841 1.2243,-0.96888 0.2189,-1.95085 0.8921,-2.5115199 3.014,-2.5115199 h 1.5257 l -0.6688,-0.66814 C 30.231674,6.62289 30.058974,6.36802 29.939074,6.1181 Z m 7.909001,0.69179 c -0.0429,0.03872 -0.0847,0.0704 -0.1265,0.1138501 -0.5104,0.52096 -0.7502,0.59521 -1.5389,0.47487 -1.3772,-0.20999 -1.2001,0.34452 0.3245,1.0140899 0.8239,0.3620101 1.3541,0.7747301 1.5345,1.1922901 0.869,2.0147596 1.4674,3.0994706 1.7677,3.2094706 0.6072,0.223299 0.9691,-0.22484 1.1044,-1.370381 0.1551,-1.314279 0.5995,-1.5929095 1.3981,-0.874389 0.3102,0.27885 0.743601,0.50699 0.962501,0.50699 0.6831,0 1.188,0.274229 1.188,0.644599 0,0.19514 0.231,0.665391 0.5137,1.045881 0.4169,0.559899 0.6996,0.694099 1.4784,0.694099 0.9559,0 1.5422,0.1793 2.739,0.8404 0.0187,0.0099 0.0374,0.0132 0.0561,0.0231 A 22.000001,22.000001 0 0 0 37.848075,6.8099293 Z M 10.021373,27.905732 a 22.000001,22.000001 0 0 0 -0.0043,0.0946 22.000001,22.000001 0 0 0 0.42966,4.226199 c 0.797061,0.3245 1.01728,0.1958 1.1,-0.5456 0.04279,-0.383898 0.24321,-0.818399 0.44693,-0.969099 0.31471,-0.2321 0.25795,-0.3509 -0.38676,-0.7909 -0.41734,-0.2849 -0.828631,-0.7821 -0.913111,-1.1044 -0.08184,-0.3124 -0.358599,-0.6534 -0.672429,-0.9108 z m 6.924611,7.272099 c -0.2057,-0.0209 -0.45353,0.0891 -0.72853,0.353099 -0.58179,0.556601 -0.4939,1.6753 0.16544,2.1175 0.75559,0.5071 1.047089,0.359701 1.142789,-0.575299 0.1177,-1.1528 -0.1287,-1.848001 -0.579699,-1.8953 z m 3.733399,3.3264 c -0.2244,0.0077 -0.4719,0.1683 -0.7194,0.5071 -0.2629,0.3586 -0.3344,0.8217 -0.2343,1.524601 0.1243,0.864599 0.0704,1.0494 -0.3817,1.2815 -0.5819,0.297 -0.7062,1.1814 -0.2299,1.636799 0.473,0.4532 0.924,0.334401 1.0868,-0.285999 0.231,-0.8844 1.5257,-0.987801 2.4101,-0.1936 0.3773,0.3388 0.6853,0.5104 0.6853,0.3806 0,-0.1298 -0.3927,-0.6017 -0.8723,-1.0461 -0.7337,-0.682 -0.8701,-0.9724 -0.8701,-1.850201 0,-1.238601 -0.3795,-1.970101 -0.8745,-1.9547 z m -6.131289,2.840201 a 22.000001,22.000001 0 0 0 0.50919,0.642399 c -0.14993,-0.232099 -0.32109,-0.4543 -0.50919,-0.642399 z m 7.413889,3.377 c -0.1111,0.0385 -0.1584,0.1782 -0.1584,0.4235 0,0.2486 -0.1584,0.5093 -0.352,0.5797 -0.2574,0.0946 -0.3168,0.3927 -0.2178,1.104399 0.0187,0.1331 0.0242,0.2398 0.0308,0.350901 a 22.000001,22.000001 0 0 0 0.9152,0.4697 c -0.0154,-0.380601 0.0539,-0.828301 0.253,-1.3893 0.3377,-0.9526 0.3498,-1.1913 0.0748,-1.3585 -0.2574,-0.1562 -0.4334,-0.2189 -0.5456,-0.1804 z"/>
 <path style="fill:#00aaf6" d="M 32,24 A 28,28.333333 0 0 0 4,52.333333 28,28.333333 0 0 0 4.3253907,56.472656 C 4.7918368,57.377648 5.7177453,58 6.8,58 h 50.4 c 1.073024,0 1.990568,-0.612863 2.460937,-1.505208 A 28,28.333333 0 0 0 60,52.333333 28,28.333333 0 0 0 32,24 Z"/>
 <path style="fill:#8b9cbe" d="M 32 24 A 28 28.333333 0 0 0 28 24.324219 L 28 46 L 36 46 L 36 24.318359 A 28 28.333333 0 0 0 32 24 z"/>
 <path style="opacity:0.2" d="m 25.825911,40 a 1.8253433,1.6542899 0 0 0 -1.825131,1.702657 1.8253433,1.6542899 0 0 0 0.243177,0.77956 l 3.088079,4.84317 3.085464,4.845644 a 1.8253433,1.6542899 0 0 0 3.163908,0 l 3.085466,-4.845644 3.088077,-4.84317 A 1.8253433,1.6542899 0 0 0 38.172998,40 h -6.173543 z"/>
 <path style="fill:#8b9cbe" d="m 25.825911,39 a 1.8253433,1.6542899 0 0 0 -1.825131,1.702657 1.8253433,1.6542899 0 0 0 0.243177,0.77956 l 3.088079,4.84317 3.085464,4.845644 a 1.8253433,1.6542899 0 0 0 3.163908,0 l 3.085466,-4.845644 3.088077,-4.84317 A 1.8253433,1.6542899 0 0 0 38.172998,39 h -6.173543 z"/>
 <path style="fill:#8b9cbe;opacity:0.1" d="M 32 6 A 22 22 0 0 0 10 28 A 22 22 0 0 0 10.021484 28.585938 A 22 22 0 0 1 32 7 A 22 22 0 0 1 53.978516 28.414062 A 22 22 0 0 0 54 28 A 22 22 0 0 0 32 6 z"/>
 <path style="fill:#8b9cbe;opacity:0.2" d="M 32 24 A 28 28.333333 0 0 0 4 52.333984 A 28 28.333333 0 0 0 4.0214844 52.722656 A 28 28.333333 0 0 1 32 25 A 28 28.333333 0 0 1 59.980469 52.943359 A 28 28.333333 0 0 0 60 52.333984 A 28 28.333333 0 0 0 32 24 z"/>
</svg>
