<svg xmlns="http://www.w3.org/2000/svg" width="64" height="64" version="1">
 <path style="opacity:0.2" d="m 4.0002398,55.999397 0,1.999934 c 0,2.474719 1.3654752,3.572483 2.9647026,3.886673 L 6.8009478,62 57.199292,62 57.007898,61.867184 C 59.968401,61.242485 60,58.000111 60,58.000111 l 0,-1.999934 c 0,0 -0.03158,3.242294 -2.992102,3.867073 l 0.191994,0.131996 -50.3983442,0 0.1639946,-0.113997 C 5.3663949,59.57126 4.0008398,58.473296 4.0008398,55.999377 Z"/>
 <path style="fill:#fe9700" d="m 5.274198,22.654525 c -0.057498,0.0374 -0.1096164,0.0816 -0.1640746,0.122996 l -0.032799,0.0246 0,0.004 c -0.6517785,0.511784 -1.0773246,1.298978 -1.0773246,2.195728 l 3e-5,24.397199 c 4e-6,3.999868 3.1540964,3.999868 3.9998686,3.999868 l 47.9984236,0 c 0,0 3.999868,0 3.999868,-3.999868 l -4e-5,-24.397199 c 0,-0.91699 -0.443745,-1.721063 -1.121043,-2.231126 l 0.012,-0.016 L 31.99999,3.0033709 c 0,0 -26.8891167,19.7765501 -26.7251221,19.6535541 z"/>
 <path style="opacity:0.1;fill:#8b9cbe" d="M 31.998047 3.0058594 C 31.995496 3.0077353 5.1094507 22.78024 5.2734375 22.65625 L 5.2734375 22.652344 C 5.2160395 22.690344 5.1637732 22.737301 5.109375 22.779297 L 5.078125 22.800781 L 5.078125 22.804688 C 4.4263464 23.316672 4 24.10403 4 25 L 4 26 C 4 25.10403 4.4263464 24.316672 5.078125 23.804688 L 5.078125 23.800781 L 5.109375 23.777344 C 5.1637732 23.735348 5.2160395 23.690344 5.2734375 23.652344 L 5.2734375 23.65625 C 5.1094507 23.78024 31.995496 4.0057821 31.998047 4.0039062 L 32 4.0039062 L 58.888672 23.753906 L 58.875 23.769531 C 59.552978 24.279514 59.998047 25.08203 59.998047 26 L 59.998047 25 C 59.998047 24.08203 59.552978 23.281467 58.875 22.771484 L 58.888672 22.753906 L 32 3.0058594 L 31.998047 3.0058594 z"/>
 <rect style="fill:#ebebeb" width="43.999" height="35.999" x="10" y="9" rx="3" ry="2.998"/>
 <path style="fill:#fec006" d="m 4.0002398,25.000448 51.9982922,35.998818 -47.9984236,0 C 6.0001741,60.99925 4.0002398,60.010298 4.0002398,57.043396 Z"/>
 <path style="fill:#fecd38" d="m 55.998532,60.999266 c 3.999868,0 3.999868,-3.95587 3.999868,-3.95587 l 0,-32.042948 -51.9982916,35.998818 z"/>
 <path style="fill:#848484" d="m 31.99932,15.000777 a 9.9996715,9.9996715 0 0 0 -9.999671,9.999671 9.9996715,9.9996715 0 0 0 9.999671,9.999672 l 6.99977,0 c 0.553982,0 0.999967,-0.445986 0.999967,-0.999967 0,-0.553982 -0.445985,-0.999968 -0.999967,-0.999968 l -6.99977,0 a 7.9997372,7.9997372 0 0 1 -7.999737,-7.999737 7.9997372,7.9997372 0 0 1 7.999737,-7.999737 7.9997372,7.9997372 0 0 1 7.999737,7.999737 l 0,2.999902 c 0,0.553982 -0.445985,0.999967 -0.999967,0.999967 -0.553982,0 -0.999967,-0.445985 -0.999967,-0.999967 l 0,-2.999902 a 5.9998029,5.9998029 0 0 0 -5.999803,-5.999803 5.9998029,5.9998029 0 0 0 -5.999803,5.999803 5.9998029,5.9998029 0 0 0 5.999803,5.999803 5.9998029,5.9998029 0 0 0 4.26166,-1.781181 c 0.465985,1.049965 1.51195,1.781941 2.73791,1.781941 1.661945,0 2.999902,-1.337956 2.999902,-2.999901 l 0,-2.999902 A 9.9996715,9.9996715 0 0 0 31.99912,15.001537 Z m 0,5.999803 a 3.9998686,3.9998686 0 0 1 3.999869,3.999868 3.9998686,3.9998686 0 0 1 -3.999869,3.999869 3.9998686,3.9998686 0 0 1 -3.999869,-3.999869 3.9998686,3.9998686 0 0 1 3.999869,-3.999868 z"/>
</svg>
