<svg xmlns="http://www.w3.org/2000/svg" width="64" height="64" version="1.1">
 <circle style="opacity:0.2" cx="32" cy="33" r="28"/>
 <circle style="fill:#285da4" cx="32" cy="32" r="28"/>
 <path style="opacity:0.2" d="M 7.5021036,20.899516 C 7.400023,21.09954 7.2979422,21.298184 7.2,21.498206 c 1.5519018,0.86217 6.024138,3.109324 8.14714,4.44051 2.683066,1.642948 6.309688,4.995054 6.595236,5.559258 -2.790664,4.859866 -1.52431,9.161048 -1.854004,9.619032 -0.237268,0.382114 -2.430623,2.790664 -1.724335,3.146566 0.700769,0.350386 1.815381,-0.200022 1.983675,-0.30762 0.350386,-0.215196 0.711806,-0.528338 0.560066,0.09104 -0.296586,1.266352 -1.642948,4.31084 0.215196,3.663868 0.226232,-0.12968 3.21692,-3.426598 3.578342,-3.539714 5.949646,1.5519 12.6042,0.840096 13.836064,0.263478 0.641454,0.04276 2.456834,1.184964 3.491436,1.729854 1.034602,0.53937 3.852856,1.89125 3.018276,-0.565582 -0.25934,-0.776642 -2.111966,-2.758936 -1.811242,-2.888608 0.662146,-0.263478 2.300954,0.684216 2.93137,0.862168 1.885734,0.528336 2.139556,-0.204162 0.949074,-1.81538 -1.175306,-1.61122 -1.351878,-1.362914 -1.724334,-2.106448 -0.29107,-0.59869 0,-1.260834 0.215196,-1.422232 0.382114,-0.291068 6.013102,-3.416944 7.333254,-4.612944 1.956086,-1.778132 0,-3.997698 -0.480056,-4.310836 -4.057016,-2.920334 -8.22301,-2.295436 -8.276808,-2.758938 -0.0276,-0.528334 -0.0164,-2.052648 -0.08692,-2.580986 -0.404186,-3.578342 -2.058168,-2.677548 -2.2844,-2.677548 -1.653984,0.25934 -1.045638,2.790666 -0.344868,5.173008 0.0538,0.608346 -0.576618,0.33935 -0.949074,-0.302104 -1.27187,-3.411426 -1.805724,-3.352108 -2.15611,-3.45419 -0.339348,-0.07588 -1.535346,0.65249 -1.514654,2.031958 0.0056,0.393148 0.474536,2.269226 0.474536,2.845844 -0.78078,0.684216 -0.819404,2.236118 -1.638808,2.8017 -2.38648,0.495228 -8.12093,-1.179446 -8.836874,-1.255318 -2.478906,-0.4635 -3.561788,1.396024 -3.960454,0.949076 -3.216906,-3.685936 -8.131952,-6.4228 -10.260471,-6.897338 -0.824922,-0.17796 -3.6100688,-1.40706 -4.6129422,-2.026442 -0.161398,-0.09656 -0.344867,-0.16692 -0.5228186,-0.25934 m 44.2395478,3.233476 c -0.77664,0.83458 -0.641452,3.954936 -0.480054,3.928726 0.791816,-0.1614 0.717324,-4.179788 0.480054,-3.928726 m 2.247156,0.474538 c -0.09104,-0.253822 -2.134038,2.614092 -1.772618,3.669386 0.1614,0.457982 2.04713,-2.866536 1.772618,-3.669386 M 43.3669,29.478432 c 0.0276,-0.0276 0.05932,0.0112 0.09104,0.04276 0.237268,0.786298 0.500744,1.535348 2.063684,1.724334 0.18348,0.02208 -0.867688,0.635936 -1.589148,0.259342 -0.658008,-0.398668 -0.717324,-1.848488 -0.565582,-2.02644 m 4.052878,3.960454 c 0.14484,-0.02208 0.248304,-0.0164 0.350386,0 0.382112,0.09656 -2.772732,1.740888 -3.018278,1.514656 -0.15036,-0.14484 1.681572,-1.331186 2.673408,-1.514656 M 48.244694,34.479 c 0.328314,0.0276 -1.826416,2.25819 -2.069204,2.026438 -0.17796,-0.1614 1.396024,-2.080236 2.069204,-2.026438"/>
 <path style="fill:#f9f9f9" d="M 7.5021036,19.899516 C 7.400023,20.09954 7.2979422,20.298184 7.2,20.498206 c 1.5519018,0.86217 6.024138,3.109324 8.14714,4.44051 2.683066,1.642948 6.309688,4.995054 6.595236,5.559258 -2.790664,4.859866 -1.52431,9.161048 -1.854004,9.619032 -0.237268,0.382114 -2.430623,2.790664 -1.724335,3.146566 0.700769,0.350386 1.815381,-0.200022 1.983675,-0.30762 0.350386,-0.215196 0.711806,-0.528338 0.560066,0.09104 -0.296586,1.266352 -1.642948,4.31084 0.215196,3.663868 0.226232,-0.12968 3.21692,-3.426598 3.578342,-3.539714 5.949646,1.5519 12.6042,0.840096 13.836064,0.263478 0.641454,0.04276 2.456834,1.184964 3.491436,1.729854 1.034602,0.53937 3.852856,1.89125 3.018276,-0.565582 -0.25934,-0.776642 -2.111966,-2.758936 -1.811242,-2.888608 0.662146,-0.263478 2.300954,0.684216 2.93137,0.862168 1.885734,0.528336 2.139556,-0.204162 0.949074,-1.81538 -1.175306,-1.61122 -1.351878,-1.362914 -1.724334,-2.106448 -0.29107,-0.59869 0,-1.260834 0.215196,-1.422232 0.382114,-0.291068 6.013102,-3.416944 7.333254,-4.612944 1.956086,-1.778132 0,-3.997698 -0.480056,-4.310836 -4.057016,-2.920334 -8.22301,-2.295436 -8.276808,-2.758938 -0.0276,-0.528334 -0.0164,-2.052648 -0.08692,-2.580986 -0.404186,-3.578342 -2.058168,-2.677548 -2.2844,-2.677548 -1.653984,0.25934 -1.045638,2.790666 -0.344868,5.173008 0.0538,0.608346 -0.576618,0.33935 -0.949074,-0.302104 -1.27187,-3.411426 -1.805724,-3.352108 -2.15611,-3.45419 -0.339348,-0.07588 -1.535346,0.65249 -1.514654,2.031958 0.0056,0.393148 0.474536,2.269226 0.474536,2.845844 -0.78078,0.684216 -0.819404,2.236118 -1.638808,2.8017 -2.38648,0.495228 -8.12093,-1.179446 -8.836874,-1.255318 -2.478906,-0.4635 -3.561788,1.396024 -3.960454,0.949076 C 19.669014,25.391182 14.753968,22.654318 12.625449,22.17978 11.800527,22.001828 9.0153802,20.77272 8.0125068,20.153338 7.851109,20.056776 7.6676398,19.986423 7.4896882,19.893999 m 44.2395478,3.233475 c -0.77664,0.83458 -0.641452,3.954936 -0.480054,3.928726 0.791816,-0.1614 0.717324,-4.179788 0.480054,-3.928726 m 2.247156,0.474538 c -0.09104,-0.253822 -2.134038,2.614092 -1.772618,3.669386 0.1614,0.457982 2.04713,-2.866536 1.772618,-3.669386 M 43.3669,28.478432 c 0.0276,-0.0276 0.05932,0.0112 0.09104,0.04276 0.237268,0.786298 0.500744,1.535348 2.063684,1.724334 0.18348,0.02208 -0.867688,0.635936 -1.589148,0.259342 -0.658008,-0.398668 -0.717324,-1.848488 -0.565582,-2.02644 m 4.052878,3.960454 c 0.14484,-0.02208 0.248304,-0.0164 0.350386,0 0.382112,0.09656 -2.772732,1.740888 -3.018278,1.514656 -0.15036,-0.14484 1.681572,-1.331186 2.673408,-1.514656 M 48.244694,33.479 c 0.328314,0.0276 -1.826416,2.25819 -2.069204,2.026438 -0.17796,-0.1614 1.396024,-2.080236 2.069204,-2.026438"/>
 <path style="opacity:0.1;fill:#8b9cbe" d="M 32 4 A 28 28 0 0 0 4 32 A 28 28 0 0 0 4.0175781 32.492188 A 28 28 0 0 1 32 5 A 28 28 0 0 1 59.974609 32.492188 A 28 28 0 0 0 60 32 A 28 28 0 0 0 32 4 z"/>
</svg>
