<svg xmlns="http://www.w3.org/2000/svg" width="64" height="64" version="1">
 <rect style="opacity:0.2" width="42" height="32" x="-56" y="-48" rx="2.5" ry="2.5" transform="matrix(0,-1,-1,0,0,0)"/>
 <rect style="fill:#8e8e8e" width="42" height="32" x="-55" y="-48" rx="2.5" ry="2.5" transform="matrix(0,-1,-1,0,0,0)"/>
 <rect style="opacity:0.2" width="40" height="52" x="-50" y="-58" rx="2.5" ry="2.5" transform="matrix(0,-1,-1,0,0,0)"/>
 <rect style="fill:#4f4f4f" width="40" height="52" x="-49" y="-58" rx="2.5" ry="2.5" transform="matrix(0,-1,-1,0,0,0)"/>
 <rect style="fill:#333333" width="32" height="44" x="-45" y="-54" rx="0" ry="0" transform="matrix(0,-1,-1,0,0,0)"/>
 <path style="opacity:0.1;fill:#8b9cbe" d="M 8.5,9 C 7.115,9 6,10.115 6,11.5 V 12.5 C 6,11.115 7.115,10 8.5,10 H 55.5 C 56.885,10 58,11.115 58,12.5 V 11.5 C 58,10.115 56.885,9 55.5,9 Z"/>
 <rect style="opacity:0.1;fill:#8b9cbe" width="44" height="1" x="10" y="45"/>
 <path style="opacity:0.2" d="M 32,20 C 28.676,20 26,22.676 26,26 V 28 H 24.5 C 23.669,28 23,28.669 23,29.5 V 38.5 C 23,39.331 23.669,40 24.5,40 H 39.5 C 40.331,40 41,39.331 41,38.5 V 29.5 C 41,28.669 40.331,28 39.5,28 H 38 V 26 C 38,22.676 35.324,20 32,20 Z M 32,23 C 33.662,23 35,24.338 35,26 V 28 H 29 V 26 C 29,24.338 30.338,23 32,23 Z"/>
 <path style="fill:#bcbcbc" d="M 32 19 C 28.676 19 26 21.676 26 25 L 26 27 L 24.5 27 C 23.669 27 23 27.669 23 28.5 L 23 37.5 C 23 38.331 23.669 39 24.5 39 L 39.5 39 C 40.331 39 41 38.331 41 37.5 L 41 28.5 C 41 27.669 40.331 27 39.5 27 L 38 27 L 38 25 C 38 21.676 35.324 19 32 19 z M 32 22 C 33.662 22 35 23.338 35 25 L 35 27 L 29 27 L 29 25 C 29 23.338 30.338 22 32 22 z"/>
</svg>
