<svg xmlns="http://www.w3.org/2000/svg" width="64" height="64" version="1">
 <path style="opacity:0.2" d="m 4.0507982,32.000818 c -0.0118,0.33399 -0.050799,0.661981 -0.050799,0.999972 C 3.9999996,48.512352 16.487647,61 31.99921,61 47.510773,61 59.99842,48.512352 59.99842,33.00079 c 0,-0.337671 -0.03904,-0.665262 -0.05078,-0.999972 C 59.419655,47.042394 47.172,59.000056 31.998428,59.000056 16.824456,59.000056 4.5772013,47.042394 4.0492162,32.000818 Z"/>
 <rect style="fill:#02a8f3" width="56" height="56" x="4" y="4" rx="27.999" ry="27.999"/>
 <path style="opacity:0.2;fill:#8b9cbe" d="M 32 4.0019531 C 16.488437 4.0019531 4 16.488437 4 32 C 4 32.113445 4.0112809 32.224116 4.0175781 32.335938 C 4.3691114 17.134609 16.711158 5 32 5 C 47.288842 5 59.630889 17.134609 59.982422 32.335938 C 59.988693 32.224116 60 32.113445 60 32 C 60 16.488437 47.511563 4.0019531 32 4.0019531 z"/>
 <path style="opacity:0.2" d="m 31.99921,13.001354 c -11.045402,0 -19.999436,8.954033 -19.999436,19.999436 0,11.045402 8.954034,19.999436 19.999436,19.999436 11.045403,0 19.999436,-8.954034 19.999436,-19.999436 0,-11.045403 -8.954033,-19.999436 -19.999436,-19.999436 z m -1.871041,3.988169 c 0.217606,-0.02278 0.491358,0.013 0.710918,0 0.02602,0.104077 -0.154156,0.477494 -0.402333,1.019501 -1.580387,3.452479 -1.673753,7.494845 -0.207026,9.655978 0.265424,0.391827 0.5078,0.764019 0.5078,0.812477 0,0.04848 -0.285708,0.101557 -0.609359,0.101557 -0.759779,2e-6 -1.480088,-0.461669 -2.949135,-1.624954 -0.652606,-0.516765 -1.499382,-0.949897 -1.828074,-1.015595 -0.516148,-0.103117 -0.65255,-0.05844 -1.320275,0.609359 -0.621253,0.62115 -0.812477,0.958653 -0.812477,1.527299 0,2.156385 2.561581,3.86618 7.320105,4.874862 6.462266,1.369637 8.051983,2.597833 8.230238,5.995925 0.2238,4.261114 -2.042602,7.473271 -7.011522,9.960657 -0.593075,0.296976 -0.969881,0.415746 -1.218716,0.511704 -0.110277,-0.0098 -0.198654,0.0098 -0.308585,0 -0.04228,-0.131737 -0.101557,-0.436476 -0.101557,-1.015596 0,-2.263206 -0.890111,-4.595542 -2.234311,-5.898271 -0.360824,-0.349737 -1.369144,-1.089388 -2.234313,-1.624955 -0.865138,-0.535534 -1.739025,-1.156409 -1.93354,-1.421833 -0.322273,-0.440456 -0.345322,-0.709716 -0.09766,-1.523396 0.451347,-1.486086 0.986796,-2.318742 2.031193,-3.25772 0.547536,-0.492268 1.097419,-0.900332 1.218715,-0.910132 0.121337,-0.0098 -0.69814,-0.259779 -1.929633,-0.511704 -1.231431,-0.252412 -3.037278,-0.780072 -3.968638,-1.117156 -1.703081,-0.616233 -4.00215,-1.9113 -4.878767,-2.847574 -0.03706,-0.0397 -0.06936,-0.06642 -0.101559,-0.101557 1.255988,-5.003071 4.780267,-9.101759 9.452858,-11.077812 0.977682,-0.413524 1.986784,-0.696426 3.050696,-0.914038 0.529939,-0.108317 1.077773,-0.151396 1.624954,-0.207026 z m 15.24957,7.624785 c 0.382039,0.236149 1.826446,3.360381 2.238219,4.882674 0.531623,1.965287 0.493144,5.363893 0,7.3162 -0.187695,0.743059 -0.431688,1.436878 -0.511706,1.523395 -0.08002,0.08652 -0.373471,-0.406776 -0.714824,-1.011691 -0.341374,-0.604821 -1.425778,-1.891427 -2.331964,-2.847576 -2.615676,-2.760066 -3.029199,-4.199394 -1.93354,-6.402163 0.552549,-1.110785 2.958139,-3.643314 3.253815,-3.460839 z"/>
 <path style="fill:#8b9cbe" d="m 31.99921,12.00141 c -11.045402,0 -19.999436,8.954033 -19.999436,19.999436 0,11.045403 8.954034,19.999436 19.999436,19.999436 11.045403,0 19.999436,-8.954033 19.999436,-19.999436 0,-11.045403 -8.954033,-19.999436 -19.999436,-19.999436 z m -1.871041,3.988169 c 0.217606,-0.02278 0.491358,0.013 0.710918,0 0.02602,0.104077 -0.154156,0.477495 -0.402333,1.019501 -1.580387,3.452479 -1.673753,7.494845 -0.207026,9.655978 0.265424,0.391827 0.5078,0.764019 0.5078,0.812478 0,0.04848 -0.285708,0.101557 -0.609359,0.101557 -0.759779,2e-6 -1.480088,-0.461669 -2.949135,-1.624954 -0.652606,-0.516766 -1.499382,-0.949898 -1.828074,-1.015596 -0.516148,-0.103117 -0.65255,-0.05844 -1.320275,0.609359 -0.621253,0.62115 -0.812477,0.958653 -0.812477,1.527299 0,2.156385 2.561581,3.866181 7.320105,4.874862 6.462266,1.369638 8.051983,2.597833 8.230238,5.995925 0.2238,4.261114 -2.042602,7.473272 -7.011522,9.960657 -0.593075,0.296976 -0.969881,0.415747 -1.218716,0.511704 -0.110277,-0.0098 -0.198654,0.0098 -0.308585,0 -0.04228,-0.131736 -0.101557,-0.436476 -0.101557,-1.015595 0,-2.263207 -0.890111,-4.595543 -2.234311,-5.898272 -0.360824,-0.349736 -1.369144,-1.089387 -2.234313,-1.624954 -0.865138,-0.535535 -1.739025,-1.15641 -1.93354,-1.421834 -0.322273,-0.440456 -0.345322,-0.709716 -0.09766,-1.523395 0.451347,-1.486086 0.986796,-2.318743 2.031193,-3.25772 0.547536,-0.492268 1.097419,-0.900333 1.218715,-0.910133 0.121337,-0.0098 -0.69814,-0.259778 -1.929633,-0.511703 -1.231431,-0.252413 -3.037278,-0.780072 -3.968638,-1.117157 -1.703081,-0.616232 -4.00215,-1.9113 -4.878767,-2.847573 -0.03706,-0.0397 -0.06936,-0.06642 -0.101559,-0.101557 1.255988,-5.003071 4.780267,-9.10176 9.452858,-11.077812 0.977682,-0.413525 1.986784,-0.696427 3.050696,-0.914039 0.529939,-0.108317 1.077773,-0.151395 1.624954,-0.207026 z m 15.24957,7.624786 c 0.382039,0.236149 1.826446,3.360381 2.238219,4.882674 0.531623,1.965286 0.493144,5.363893 0,7.316199 -0.187695,0.74306 -0.431688,1.436878 -0.511706,1.523396 -0.08002,0.08652 -0.373471,-0.406777 -0.714824,-1.011692 -0.341374,-0.604821 -1.425778,-1.891427 -2.331964,-2.847576 -2.615676,-2.760066 -3.029199,-4.199393 -1.93354,-6.402163 0.552549,-1.110785 2.958139,-3.643313 3.253815,-3.460838 z"/>
</svg>
