<svg xmlns="http://www.w3.org/2000/svg" width="64" height="64" version="1.1">
 <path style="opacity:0.2" d="m 26.4,26 c -1.4,3.13e-4 -2.8,3.000314 -5.496443,3 H 4.0000007 v 1.173872 L 4,53.826128 C 3.9999999,58 8.2,58 8.2,58 l 47.6,-3.13e-4 C 55.8,58 60,58 60,53.826128 V 26 Z"/>
 <path style="fill:#4456ac" d="M 4.0000007,35 H 60 V 15.200157 c 0,-4.199999 -4.2,-4.199999 -4.2,-4.199999 L 32,10.999843 C 30.6,11.000158 29.038192,6.9999797 26.479661,7.0000209 L 8.2,7.000315 c 0,0 -4.2,0 -4.2,4.2 z"/>
 <rect style="fill:#8b9cbe" width="52" height="12.6" x="6" y="16.1" rx="1.368" ry="1.4"/>
 <path style="fill:#5369cc" d="m 26.4,25 c -1.4,3.13e-4 -2.8,3.000314 -5.496443,3 H 4.0000007 v 1.173872 L 4,52.826128 C 3.9999999,57 8.2,57 8.2,57 l 47.6,-3.13e-4 C 55.8,57 60,57 60,52.826128 V 25 Z"/>
 <path style="fill:#8b9cbe;opacity:0.1" d="M 8.1992188 7 C 8.1992188 7 4 7.0011719 4 11.201172 L 4 12.201172 C 4 8.0011719 8.1992188 8 8.1992188 8 L 26.480469 8 C 29.039 7.9999588 30.6 12.000315 32 12 L 55.800781 12 C 55.800781 12 60 11.99922 60 16.199219 L 60 15.199219 C 60 10.99922 55.800781 11 55.800781 11 L 32 11 C 30.6 11.000315 29.039 6.9999588 26.480469 7 L 8.1992188 7 z"/>
</svg>
