<svg xmlns="http://www.w3.org/2000/svg" width="64" height="64" version="1">
 <rect style="opacity:0.2" width="56" height="56" x="4" y="5" rx="5.6" ry="5.6"/>
 <rect style="fill:#4caf50" width="56" height="56" x="4" y="4" rx="5.6" ry="5.6"/>
 <rect style="opacity:0.2" width="10" height="27" x="26" y="4"/>
 <rect style="fill:#8b9cbe" width="3" height="3" x="31" y="4"/>
 <rect style="fill:#8b9cbe" width="3" height="3" x="28" y="25"/>
 <path style="fill:#4b4b4b" d="m 31,25 c 3.75,0 3.75,5.6 5,5.6 v 7 c 0,0.7756 -0.5575,1.4 -1.25,1.4 h -7.5 C 26.5575,39 26,38.3756 26,37.6 v -7 c 1.25,0 1.25,-5.6 5,-5.6 z"/>
 <path style="opacity:0.2" d="M 30.667969,32 C 28.082636,32 26,34.102725 26,36.710938 v 9.578124 C 26,48.897276 28.082636,51 30.667969,51 h 0.664062 C 33.917364,51 36,48.897277 36,46.289062 V 36.710938 C 36,34.102725 33.917364,32 31.332031,32 Z M 31,42 c 2.209139,4e-6 4,1.792881 4,4.001953 C 35,48.211026 33.209139,50 31,50 28.790861,50 27,48.211026 27,46.001953 27,43.792881 28.790861,42.000004 31,42 Z"/>
 <path style="fill:#8b9cbe" d="M 30.667969,31 C 28.082636,31 26,33.102725 26,35.710938 v 9.578124 C 26,47.897276 28.082636,50 30.667969,50 h 0.664062 C 33.917364,50 36,47.897277 36,45.289062 V 35.710938 C 36,33.102725 33.917364,31 31.332031,31 Z M 31,41 c 2.209139,4e-6 4,1.792881 4,4.001953 C 35,47.211026 33.209139,49 31,49 28.790861,49 27,47.211026 27,45.001953 27,42.792881 28.790861,41.000004 31,41 Z"/>
 <path style="fill:#909090" d="M 30.984375,27.000122 A 1.0001,0.99660733 0 0 0 30,28.010254 V 33.9893 a 1.0001,0.99660733 0 1 0 2,0 v -5.979046 a 1.0001,0.99660733 0 0 0 -1.015625,-1.010132 z"/>
 <rect style="fill:#8b9cbe" width="3" height="3" x="28" y="7"/>
 <rect style="fill:#8b9cbe" width="3" height="3" x="31" y="10"/>
 <rect style="fill:#8b9cbe" width="3" height="3" x="28" y="13"/>
 <rect style="fill:#8b9cbe" width="3" height="3" x="31" y="16"/>
 <rect style="fill:#8b9cbe" width="3" height="3" x="28" y="19"/>
 <rect style="fill:#8b9cbe" width="3" height="3" x="31" y="22"/>
 <path style="opacity:0.2;fill:#8b9cbe" d="M 9.5996094 4 C 6.4972094 4 4 6.4972094 4 9.5996094 L 4 10.599609 C 4 7.4972094 6.4972094 5 9.5996094 5 L 54.400391 5 C 57.502791 5 60 7.4972094 60 10.599609 L 60 9.5996094 C 60 6.4972094 57.502791 4 54.400391 4 L 9.5996094 4 z"/>
</svg>
