<svg xmlns="http://www.w3.org/2000/svg" width="64" height="64" version="1">
 <path style="opacity:0.2" d="M 10.75,61 C 9.2265,61 8,59.751 8,58.2 V 7.8 C 8,6.2488 9.2265,5 10.75,5 H 49.25 C 50.774,5 52,6.2488 52,7.8 V 45 L 36,61 Z"/>
 <path style="fill:#b2bfd9" d="M 10.75,60 C 9.2265,60 8,58.751 8,57.2 V 6.8 C 8,5.2488 9.2265,4 10.75,4 H 49.25 C 50.774,4 52,5.2488 52,6.8 V 44 L 36,60 Z"/>
 <path style="opacity:0.2;fill:#8b9cbe" d="M 10.75,4 C 9.2265,4 8,5.2496 8,6.8008 V 7.8008 C 8,6.2496 9.2265,5 10.75,5 H 49.25 C 50.774,5 52,6.2496 52,7.8008 V 6.8008 C 52,5.2496 50.774,4 49.25,4 Z"/>
 <path style="opacity:0.1" d="M 55.785,5.0101 C 54.808,5.0989 54.098,5.8089 54.098,5.8089 L 25,34.906 V 44 H 34.094 L 63.191,14.902 C 63.191,14.902 65.009,13.083 63.191,11.264 L 57.736,5.8089 C 57.054,5.1269 56.371,4.9568 55.785,5.0101 Z"/>
 <path style="fill:#fafafa" d="M 36,60 V 46.667 C 36,45.194 37.194,44 38.667,44 H 52 Z"/>
 <path style="fill:#f3d491" d="M 25,43 V 33.907 L 34.093,43 Z"/>
 <path style="fill:#545454" d="M 25,43 V 39.363 L 28.637,43 Z"/>
 <path style="fill:#ffbb29" d="M 54.098,4.8083 25,33.907 34.093,43 63.192,13.902 C 63.192,13.902 65.01,12.083 63.192,10.264 L 57.736,4.8083 C 55.917,2.9896 54.098,4.8083 54.098,4.8083 Z"/>
</svg>
