<svg xmlns="http://www.w3.org/2000/svg" width="64" height="64" version="1.1">
 <circle style="opacity:0.2" cx="32" cy="33" r="28"/>
 <circle style="fill:#b2bfd9" cx="32" cy="32" r="28"/>
 <circle style="opacity:0.1" cx="32" cy="33" r="22"/>
 <circle style="fill:#c83737" cx="32" cy="32" r="22"/>
 <path style="opacity:0.2;fill-rule:evenodd" d="M 25.033687,20.000864 A 2.9626244,3.0043363 0 0 0 22,23.00099 l 0,9.99585 0.0018,9.995852 a 2.9626244,3.0043363 0 0 0 4.443494,2.605061 l 8.535978,-5.000858 8.535978,-4.996949 a 2.9626244,3.0043363 0 0 0 0.0018,-5.204257 l -8.537848,-4.994991 -8.535978,-4.998904 a 2.9626244,3.0043363 0 0 0 -0.825399,-0.32661 2.9626244,3.0043363 0 0 0 -0.586296,-0.07432 z"/>
 <path style="fill:#8b9cbe;fill-rule:evenodd" d="M 25.033687,19.000864 A 2.9626244,3.0043363 0 0 0 22,22.00099 l 0,9.99585 0.0018,9.995852 a 2.9626244,3.0043363 0 0 0 4.443494,2.605061 l 8.535978,-5.000858 8.535978,-4.996949 a 2.9626244,3.0043363 0 0 0 0.0018,-5.204257 l -8.537848,-4.994991 -8.535978,-4.998904 a 2.9626244,3.0043363 0 0 0 -0.825399,-0.32661 2.9626244,3.0043363 0 0 0 -0.586296,-0.07432 z"/>
 <path style="fill:#8b9cbe;opacity:0.2" d="M 32 4 A 28 28 0 0 0 4 32 A 28 28 0 0 0 4.0214844 32.585938 A 28 28 0 0 1 32 5 A 28 28 0 0 1 59.978516 32.414062 A 28 28 0 0 0 60 32 A 28 28 0 0 0 32 4 z"/>
</svg>
