<svg xmlns="http://www.w3.org/2000/svg" width="64" height="64" version="1.1">
 <path style="opacity:0.2" d="m 34.446764,5.0009409 c -0.483698,-0.0028 -0.672235,0.3804346 -1.653519,3.3669873 l -0.974879,2.9673028 -1.490312,0.13468 c -0.819657,0.07406 -1.764664,0.191575 -2.100047,0.261267 -0.443394,0.09212 -0.650237,0.0931 -0.758065,0.0028 -0.08154,-0.06776 -0.772021,-1.186986 -1.534504,-2.4872312 -1.523792,-2.598488 -1.836283,-3.0141745 -2.26478,-3.0141745 -0.450316,0 -3.466447,1.2016996 -3.686187,1.4686506 -0.107827,0.1310395 -0.194563,0.3963943 -0.192745,0.5899996 0.0014,0.1936053 0.272574,1.6136343 0.601636,3.1554205 0.329077,1.5418 0.578786,2.853736 0.554828,2.915406 -0.02392,0.0616 -0.382918,0.323287 -0.797669,0.58146 -0.414751,0.258173 -1.165556,0.800615 -1.668402,1.205409 -0.50283,0.404795 -0.962082,0.736076 -1.020597,0.736076 -0.05846,0 -1.234869,-0.63753 -2.614163,-1.416753 -2.836056,-1.602196 -2.971924,-1.663194 -3.372018,-1.510917 -0.432261,0.164514 -2.5522641,2.85704 -2.5522641,3.241492 0,0.416667 0.1013956,0.548812 2.2643471,2.955487 1.034121,1.1506 1.880182,2.173352 1.880182,2.272836 0,0.0994 -0.219277,0.621458 -0.487224,1.159854 -0.267946,0.538396 -0.623692,1.340957 -0.790663,1.783579 -0.166972,0.442608 -0.365928,0.856713 -0.442149,0.920035 -0.08517,0.07084 -1.333185,0.127819 -3.2390023,0.148279 -3.823592,0.04102 -3.4874113,-0.145199 -3.8478567,2.130694 -0.1395735,0.881535 -0.2567019,1.736008 -0.2601283,1.898771 -0.01258,0.60638 0.2452619,0.742095 3.3569274,1.766724 l 2.9624559,0.975446 0.131321,1.455505 c 0.0723,0.800489 0.185767,1.750035 0.252255,2.110114 0.06657,0.360092 0.09328,0.699521 0.05958,0.754261 -0.03385,0.05474 -1.1797801,0.762087 -2.5467823,1.572012 -1.3670161,0.809939 -2.5989472,1.594748 -2.7375704,1.743946 -0.1385955,0.149219 -0.2520307,0.404416 -0.2520307,0.567222 0,0.476292 1.2215679,3.483927 1.4920595,3.673598 0.3536345,0.247939 0.6596349,0.211609 3.7154989,-0.441082 1.539568,-0.328831 2.850125,-0.576238 2.912373,-0.549708 0.06223,0.0266 0.32442,0.386174 0.582828,0.799159 0.258394,0.41297 0.805124,1.168855 1.214869,1.679545 0.509824,0.635444 0.722458,0.987403 0.673396,1.11539 -0.03944,0.1029 -0.673578,1.256538 -1.409153,2.563685 -1.507653,2.679198 -1.593259,2.865635 -1.494899,3.257914 0.100561,0.401182 2.874487,2.618788 3.274442,2.61778 0.412513,-0.001 0.608671,-0.151399 2.920458,-2.241742 1.12539,-1.017586 2.131094,-1.864849 2.23481,-1.882783 0.10376,-0.018 0.640488,0.1911 1.192996,0.464729 0.552506,0.273629 1.39528,0.635583 1.872741,0.804185 0.477462,0.168579 0.87803,0.312535 0.890198,0.319968 0.0126,0.007 0.04992,1.463009 0.08406,3.234479 0.07608,3.956035 -0.10656,3.611244 2.103332,3.969041 1.66061,0.268855 2.31622,0.269569 2.582669,0.0028 0.09286,-0.09296 0.605287,-1.497211 1.138521,-3.120393 l 0.969399,-2.951091 1.114454,-0.08582 c 0.613005,-0.04718 1.56832,-0.16042 2.1228,-0.251635 1.003732,-0.16514 1.009046,-0.16472 1.216841,0.08582 0.11482,0.13846 0.831431,1.311277 1.592699,2.606385 0.761265,1.295107 1.492086,2.443047 1.623983,2.550972 0.361157,0.295525 0.619832,0.249857 2.364118,-0.41633 1.663494,-0.635346 1.995924,-0.866975 1.994806,-1.390251 -3.36e-4,-0.16276 -0.272883,-1.582162 -0.605789,-3.154329 -0.332909,-1.572166 -0.58122,-2.897695 -0.551766,-2.945407 0.02952,-0.04774 0.41542,-0.331252 0.857834,-0.630291 0.442401,-0.299039 1.182494,-0.853409 1.644542,-1.231688 0.462065,-0.378278 0.886479,-0.687817 0.943161,-0.687887 0.05664,-8.4e-5 1.266433,0.648267 2.68833,1.440832 2.906861,1.620257 2.890387,1.612781 3.274888,1.516167 0.409128,-0.10276 2.61482,-2.878487 2.61482,-3.290548 0,-0.385489 -0.09328,-0.505734 -2.293001,-2.957447 -0.987595,-1.100732 -1.811138,-2.092474 -1.830074,-2.204066 -0.019,-0.111579 0.17052,-0.610902 0.420933,-1.109482 0.250407,-0.49858 0.609986,-1.297921 0.798971,-1.776355 0.188979,-0.478434 0.392652,-0.920343 0.452652,-0.982013 0.06488,-0.06664 1.376875,-0.134819 3.237254,-0.168199 2.984649,-0.05348 3.138811,-0.06678 3.361948,-0.290401 0.183159,-0.183539 0.292645,-0.596874 0.505152,-1.906233 0.149239,-0.919516 0.272143,-1.779981 0.273037,-1.911903 0.0042,-0.533006 -0.315763,-0.695405 -3.358676,-1.706495 l -2.968371,-0.986185 -0.126299,-1.449148 c -0.06952,-0.796989 -0.18234,-1.74508 -0.250717,-2.106839 -0.0684,-0.361758 -0.09636,-0.702937 -0.0621,-0.758419 0.03428,-0.05544 1.180452,-0.762017 2.547007,-1.570038 1.366554,-0.808021 2.598078,-1.592242 2.736687,-1.74263 0.1386,-0.150379 0.252031,-0.399362 0.252031,-0.553431 0,-0.441825 -1.202771,-3.44053 -1.46799,-3.660007 -0.336963,-0.278837 -0.56894,-0.256339 -3.247756,0.315139 -3.14533,0.671017 -3.314944,0.701663 -3.430211,0.621766 -0.05398,-0.03738 -0.339721,-0.435007 -0.635106,-0.883691 -0.295373,-0.448686 -0.834649,-1.180338 -1.198452,-1.6259 -0.363802,-0.445548 -0.661509,-0.855789 -0.661593,-0.911495 -7e-5,-0.05572 0.649691,-1.266715 1.444161,-2.69114 0.794455,-1.42441 1.476214,-2.69674 1.515022,-2.82736 0.134259,-0.451834 -0.14838,-0.802981 -1.557244,-1.934247 -1.501431,-1.2056052 -1.765112,-1.3140492 -2.301324,-0.946102 -0.152319,0.10458 -1.217863,1.038012 -2.367825,2.074414 -1.149978,1.036402 -2.171666,1.884534 -2.270488,1.884534 -0.09888,0 -0.619705,-0.220457 -1.157543,-0.489914 -0.537836,-0.269444 -1.305578,-0.604575 -1.706034,-0.744616 -1.173222,-0.410283 -1.120118,-0.238167 -1.12058,-3.6275972 -3.78e-4,-2.6943876 -0.018,-2.9594766 -0.215921,-3.2846394 C 38.260826,5.7218262 38.049447,5.5544288 37.858966,5.513969 37.374918,5.4112094 34.654732,5.0015289 34.44692,5.0001849 Z"/>
 <path style="fill:#9d60ff" d="m 34.446764,4.0009625 c -0.483698,-0.0028 -0.672235,0.3804346 -1.653519,3.3669873 l -0.974879,2.9673032 -1.490312,0.134679 c -0.819657,0.07406 -1.764664,0.191576 -2.100047,0.261267 -0.443394,0.09212 -0.650237,0.0931 -0.758065,0.0028 -0.08154,-0.06776 -0.772021,-1.1869852 -1.534504,-2.4872304 -1.523792,-2.5984882 -1.836283,-3.0141747 -2.26478,-3.0141747 -0.450316,0 -3.466447,1.2016996 -3.686187,1.4686506 -0.107827,0.1310395 -0.194563,0.3963943 -0.192745,0.5899996 0.0014,0.1936053 0.272574,1.613634 0.601636,3.1554199 0.329077,1.541801 0.578786,2.853736 0.554828,2.915406 -0.02392,0.0616 -0.382918,0.323287 -0.797669,0.58146 -0.414751,0.258173 -1.165556,0.800615 -1.668402,1.20541 -0.50283,0.404794 -0.962082,0.736075 -1.020597,0.736075 -0.05846,0 -1.234869,-0.63753 -2.614163,-1.416753 -2.836056,-1.602196 -2.971924,-1.663194 -3.372018,-1.510916 -0.432261,0.164513 -2.5522641,2.857039 -2.5522641,3.241492 0,0.416666 0.1013956,0.548812 2.2643471,2.955487 1.034121,1.150599 1.880182,2.173352 1.880182,2.272835 0,0.0994 -0.219277,0.621458 -0.487224,1.159854 -0.267946,0.538396 -0.623692,1.340957 -0.790663,1.783579 -0.166972,0.442609 -0.365928,0.856713 -0.442149,0.920035 -0.08517,0.07084 -1.333185,0.127819 -3.2390023,0.148279 -3.823592,0.04102 -3.4874113,-0.145199 -3.8478567,2.130694 -0.1395735,0.881535 -0.2567019,1.736008 -0.2601283,1.898771 -0.01258,0.60638 0.2452619,0.742096 3.3569274,1.766724 l 2.9624559,0.975446 0.131321,1.455505 c 0.0723,0.800489 0.185767,1.750035 0.252255,2.110114 0.06657,0.360093 0.09328,0.699522 0.05958,0.754261 -0.03385,0.05474 -1.1797801,0.762088 -2.5467823,1.572013 -1.3670161,0.809939 -2.5989472,1.594748 -2.7375704,1.743945 -0.1385955,0.14922 -0.2520307,0.404417 -0.2520307,0.567222 0,0.476292 1.2215679,3.483927 1.4920595,3.673598 0.3536345,0.247939 0.6596349,0.21161 3.7154989,-0.441082 1.539568,-0.328831 2.850125,-0.576238 2.912373,-0.549708 0.06223,0.0266 0.32442,0.386175 0.582828,0.799159 0.258394,0.412971 0.805124,1.168856 1.214869,1.679546 0.509824,0.635444 0.722458,0.987402 0.673396,1.11539 -0.03944,0.102899 -0.673578,1.256537 -1.409153,2.563684 -1.507653,2.679198 -1.593259,2.865636 -1.494899,3.257914 0.100561,0.401183 2.874487,2.618789 3.274442,2.617781 0.412513,-10e-4 0.608671,-0.1514 2.920458,-2.241742 1.12539,-1.017586 2.131094,-1.864849 2.23481,-1.882783 0.10376,-0.018 0.640488,0.191099 1.192996,0.464728 0.552506,0.273629 1.39528,0.635584 1.872741,0.804185 0.477462,0.168579 0.87803,0.312535 0.890198,0.319969 0.0126,0.007 0.04992,1.463008 0.08406,3.234478 0.07608,3.956035 -0.10656,3.611245 2.103332,3.969041 1.66061,0.268855 2.31622,0.269569 2.582669,0.0028 0.09286,-0.09296 0.605287,-1.49721 1.138521,-3.120392 l 0.969399,-2.951091 1.114454,-0.08582 c 0.613005,-0.04718 1.56832,-0.160419 2.1228,-0.251635 1.003732,-0.165139 1.009046,-0.164719 1.216841,0.08582 0.11482,0.138459 0.831431,1.311277 1.592699,2.606384 0.761265,1.295107 1.492086,2.443047 1.623983,2.550973 0.361157,0.295524 0.619832,0.249857 2.364118,-0.416331 1.663494,-0.635346 1.995924,-0.866975 1.994806,-1.390251 -3.36e-4,-0.162759 -0.272883,-1.582162 -0.605789,-3.154328 -0.332909,-1.572166 -0.58122,-2.897695 -0.551766,-2.945407 0.02952,-0.04774 0.41542,-0.331253 0.857834,-0.630292 0.442401,-0.299039 1.182494,-0.853409 1.644542,-1.231687 0.462065,-0.378279 0.886479,-0.687818 0.943161,-0.687888 0.05664,-8.4e-5 1.266433,0.648268 2.68833,1.440833 2.906861,1.620256 2.890387,1.61278 3.274888,1.516166 0.409128,-0.102759 2.61482,-2.878487 2.61482,-3.290548 0,-0.385488 -0.09328,-0.505734 -2.293001,-2.957447 -0.987595,-1.100732 -1.811138,-2.092474 -1.830074,-2.204065 -0.019,-0.11158 0.17052,-0.610902 0.420933,-1.109482 0.250407,-0.49858 0.609986,-1.297922 0.798971,-1.776356 0.188979,-0.478434 0.392652,-0.920342 0.452652,-0.982012 0.06488,-0.06664 1.376875,-0.13482 3.237254,-0.1682 2.984649,-0.05348 3.138811,-0.06678 3.361948,-0.2904 0.183159,-0.18354 0.292645,-0.596874 0.505152,-1.906233 0.149239,-0.919517 0.272143,-1.779982 0.273037,-1.911903 0.0042,-0.533006 -0.315763,-0.695406 -3.358676,-1.706496 l -2.968371,-0.986184 -0.126299,-1.449149 c -0.06952,-0.796989 -0.18234,-1.74508 -0.250717,-2.106838 -0.0684,-0.361759 -0.09636,-0.702938 -0.0621,-0.758419 0.03428,-0.05544 1.180452,-0.762018 2.547007,-1.570039 1.366554,-0.808021 2.598078,-1.592242 2.736687,-1.742629 0.1386,-0.15038 0.252031,-0.399363 0.252031,-0.553432 0,-0.441824 -1.202771,-3.440529 -1.46799,-3.660007 -0.336963,-0.278837 -0.56894,-0.256339 -3.247756,0.315139 -3.14533,0.671018 -3.314944,0.701664 -3.430211,0.621766 -0.05398,-0.03738 -0.339721,-0.435006 -0.635106,-0.883691 -0.295373,-0.448686 -0.834649,-1.180337 -1.198452,-1.6259 -0.363802,-0.445548 -0.661509,-0.855789 -0.661593,-0.911494 -7e-5,-0.05572 0.649691,-1.266715 1.444161,-2.69114 0.794455,-1.424411 1.476214,-2.696741 1.515022,-2.827361 0.134259,-0.451834 -0.14838,-0.80298 -1.557244,-1.934246 C 48.02889,8.8632423 47.765209,8.7547987 47.228997,9.1227453 47.076678,9.2273249 46.011134,10.160757 44.861172,11.19716 c -1.149978,1.036402 -2.171666,1.884533 -2.270488,1.884533 -0.09888,0 -0.619705,-0.220457 -1.157543,-0.489914 C 40.895305,12.322335 40.127563,11.987205 39.727107,11.847163 38.553885,11.436881 38.606989,11.608996 38.606527,8.2195667 38.606149,5.5251788 38.588527,5.2600898 38.390606,4.934927 38.260826,4.7218478 38.049447,4.5544504 37.858966,4.5139906 37.374918,4.411231 34.654732,4.0015505 34.44692,4.0002065 Z"/>
 <path style="opacity:0.2" d="m 40.206299,20.001358 c 0.434171,0.0074 0.866679,0.04201 1.282616,0.08292 1.974546,0.123132 0.745252,1.594269 -0.459671,1.887668 -1.973535,0.562995 -1.962489,2.803995 -0.790056,4.210788 1.072906,1.821803 2.684884,0.09098 3.936459,-0.505002 1.865895,-0.309313 0.0637,2.283181 -0.529345,2.91865 -0.888862,1.37444 -2.401672,2.033681 -3.957268,1.796576 -1.95294,-0.279565 -3.326398,1.3844 -4.615494,2.638766 -3.631548,3.38536 -7.328219,7.089612 -10.98147,10.803685 -0.537059,0.459711 -1.123548,0.983962 -1.537008,1.572145 -2.006975,1.885203 -4.999834,-1.121083 -2.757903,-3.529359 4.643388,-4.276178 9.414839,-9.199649 13.705305,-13.384659 0.702206,-0.687736 1.357879,-1.414935 1.806144,-2.310239 0.75786,-1.569695 -0.05031,-3.666708 1.354577,-4.923451 0.923818,-1.053381 2.240587,-1.280038 3.543114,-1.258493 z"/>
 <path style="fill:#f1f1f1" d="m 40.206299,19.001361 c 0.434171,0.0074 0.866679,0.04201 1.282616,0.08292 1.974546,0.123132 0.745252,1.594269 -0.459671,1.887668 -1.973535,0.562995 -1.962489,2.803995 -0.790056,4.210788 1.072906,1.821803 2.684884,0.09098 3.936459,-0.505002 1.865895,-0.309313 0.0637,2.283181 -0.529345,2.91865 -0.888862,1.37444 -2.401672,2.033681 -3.957268,1.796576 -1.95294,-0.279565 -3.326398,1.3844 -4.615494,2.638766 -3.631548,3.38536 -7.328219,7.089612 -10.98147,10.803685 -0.537059,0.459711 -1.123548,0.983962 -1.537008,1.572145 -2.006975,1.885203 -4.999834,-1.121083 -2.757903,-3.529359 4.643388,-4.276178 9.414839,-9.199649 13.705305,-13.384659 0.702206,-0.687736 1.357879,-1.414935 1.806144,-2.310239 0.75786,-1.569695 -0.05031,-3.666708 1.354577,-4.923451 0.923818,-1.053381 2.240587,-1.280038 3.543114,-1.258493 z"/>
 <path style="opacity:0.2" d="m 28.654467,20.037852 c 1.371554,-0.181957 2.837348,0.297128 3.834264,1.328888 -0.26491,0.557904 -1.885982,0.280956 -2.470506,1.058891 -0.870482,0.749815 -2.367558,2.393311 -1.252666,3.52794 4.335219,4.238192 9.569697,9.439802 13.877273,13.712631 0.785665,0.992141 2.148023,1.650795 2.357169,3.030894 -0.256885,1.375151 -1.458826,2.358458 -2.413345,3.186367 -0.42644,0.22943 -1.009144,0.106774 -1.344282,-0.251121 -5.712716,-6.105725 -9.757985,-11.234696 -14.984825,-17.093038 -0.640422,-0.552225 -1.738681,-0.495629 -1.720917,0.661375 0.722727,1.257222 -1.106347,1.995193 -1.685553,2.919473 -0.665206,0.493146 -1.124264,-0.46694 -1.612653,-0.817968 -0.718897,-0.95435 -2.204834,-1.550552 -2.238427,-2.902324 0.82347,-0.8221 1.506127,-2.838882 2.751813,-2.317634 1.236394,-0.570524 0.719677,-2.65359 2.034411,-3.365973 1.037577,-0.858137 2.384479,-1.055284 3.335102,-2.154665 0.474102,-0.280133 0.996446,-0.452531 1.533142,-0.523736 z"/>
 <path style="fill:#8b9cbe" d="m 28.654467,19.037855 c 1.371554,-0.181957 2.837348,0.297128 3.834264,1.328888 -0.26491,0.557904 -1.885982,0.280956 -2.470506,1.058891 -0.870482,0.749815 -2.367558,2.393311 -1.252666,3.52794 4.335219,4.238192 9.569697,9.439802 13.877273,13.712631 0.785665,0.992141 2.148023,1.650795 2.357169,3.030894 -0.256885,1.375151 -1.458826,2.358458 -2.413345,3.186367 -0.42644,0.22943 -1.009144,0.106774 -1.344282,-0.251121 -5.712716,-6.105725 -9.757985,-11.234696 -14.984825,-17.093038 -0.640422,-0.552225 -1.738681,-0.495629 -1.720917,0.661375 0.722727,1.257222 -1.106347,1.995193 -1.685553,2.919473 -0.665206,0.493146 -1.124264,-0.46694 -1.612653,-0.817968 -0.718897,-0.95435 -2.204834,-1.550552 -2.238427,-2.902324 0.82347,-0.8221 1.506127,-2.838882 2.751813,-2.317634 1.236394,-0.570524 0.719677,-2.65359 2.034411,-3.365973 1.037577,-0.858137 2.384479,-1.055284 3.335102,-2.154665 0.474102,-0.280133 0.996446,-0.452531 1.533142,-0.523736 z"/>
 <path style="fill:#8b9cbe;opacity:0.1" d="M 34.447266 4 C 33.963568 3.9972 33.774253 4.3806348 32.792969 7.3671875 L 31.818359 10.335938 L 30.328125 10.470703 C 29.508468 10.544763 28.563899 10.660778 28.228516 10.730469 C 27.785122 10.822589 27.578531 10.824675 27.470703 10.734375 C 27.389163 10.666615 26.69803 9.546339 25.935547 8.2460938 C 24.411755 5.6476055 24.098419 5.2324219 23.669922 5.2324219 C 23.219606 5.2324219 20.204115 6.4342209 19.984375 6.7011719 C 19.876548 6.8322114 19.789198 7.0974103 19.791016 7.2910156 C 19.791406 7.3449791 19.852906 7.6680674 19.890625 7.8886719 C 19.920025 7.8199938 19.947194 7.7463575 19.984375 7.7011719 C 20.204115 7.4342209 23.219606 6.2324219 23.669922 6.2324219 C 24.098419 6.2324219 24.411755 6.6476055 25.935547 9.2460938 C 26.69803 10.546339 27.389163 11.666615 27.470703 11.734375 C 27.578531 11.824675 27.785122 11.822589 28.228516 11.730469 C 28.563899 11.660778 29.508468 11.544763 30.328125 11.470703 L 31.818359 11.335938 L 32.792969 8.3671875 C 33.774253 5.3806348 33.963568 4.9972 34.447266 5 C 34.655078 5.001344 37.375327 5.4109123 37.859375 5.5136719 C 38.049856 5.5541317 38.260845 5.7224677 38.390625 5.9355469 C 38.588546 6.2607097 38.607044 6.5243621 38.607422 9.21875 C 38.607884 12.608179 38.553341 12.437374 39.726562 12.847656 C 40.127019 12.987698 40.895758 13.322353 41.433594 13.591797 C 41.971432 13.861254 42.490964 14.082031 42.589844 14.082031 C 42.688666 14.082031 43.71135 13.233668 44.861328 12.197266 C 46.01129 11.160863 47.076197 10.227627 47.228516 10.123047 C 47.764728 9.7551004 48.029817 9.8627535 49.53125 11.068359 C 50.275344 11.66584 50.689869 12.041959 50.910156 12.333984 C 50.931418 12.289092 51.083354 12.019176 51.087891 12.003906 C 51.22215 11.552072 50.940114 11.199625 49.53125 10.068359 C 48.029817 8.8627537 47.764728 8.7551003 47.228516 9.1230469 C 47.076197 9.2276265 46.01129 10.160863 44.861328 11.197266 C 43.71135 12.233668 42.688666 13.082031 42.589844 13.082031 C 42.490964 13.082031 41.971432 12.861254 41.433594 12.591797 C 40.895758 12.322353 40.127018 11.987698 39.726562 11.847656 C 38.553341 11.437374 38.607884 11.608179 38.607422 8.21875 C 38.607044 5.5243621 38.588546 5.2607097 38.390625 4.9355469 C 38.260845 4.7224677 38.049856 4.5541317 37.859375 4.5136719 C 37.375327 4.4109123 34.655078 4.001344 34.447266 4 z M 11.771484 12.904297 C 11.65817 12.894958 11.574633 12.918962 11.474609 12.957031 C 11.042348 13.121544 8.9238281 15.814766 8.9238281 16.199219 C 8.9238281 16.366148 8.9781258 16.517663 9.1367188 16.757812 C 9.6720106 15.881733 11.122899 14.090888 11.474609 13.957031 C 11.874703 13.804753 12.0116 13.866554 14.847656 15.46875 C 16.22695 16.247973 17.402477 16.884766 17.460938 16.884766 C 17.519453 16.884766 17.979592 16.553231 18.482422 16.148438 C 18.985268 15.743642 19.73564 15.201532 20.150391 14.943359 C 20.565142 14.685186 20.923346 14.422928 20.947266 14.361328 C 20.958933 14.331295 20.902342 13.987646 20.806641 13.482422 C 20.670234 13.595915 20.44936 13.757258 20.150391 13.943359 C 19.73564 14.201532 18.985268 14.743642 18.482422 15.148438 C 17.979592 15.553232 17.519453 15.884766 17.460938 15.884766 C 17.402477 15.884766 16.22695 15.247973 14.847656 14.46875 C 12.720614 13.267103 12.111427 12.932313 11.771484 12.904297 z M 48.4375 17.947266 C 48.383212 18.055273 48.128891 18.509591 48.128906 18.521484 C 48.12899 18.577189 48.425261 18.988046 48.789062 19.433594 C 49.152866 19.879157 49.692908 20.609908 49.988281 21.058594 C 50.283666 21.507279 50.569067 21.905979 50.623047 21.943359 C 50.738314 22.023257 50.909357 21.991331 54.054688 21.320312 C 56.733504 20.748834 56.963818 20.727022 57.300781 21.005859 C 57.511789 21.180476 58.293233 23.064563 58.613281 24.070312 C 58.69995 23.931894 58.769531 23.778575 58.769531 23.666016 C 58.769531 23.224192 57.566 20.225337 57.300781 20.005859 C 56.963818 19.727022 56.733504 19.748834 54.054688 20.320312 C 50.909357 20.991331 50.738314 21.023257 50.623047 20.943359 C 50.569067 20.905979 50.283666 20.507279 49.988281 20.058594 C 49.692908 19.609908 49.152866 18.879157 48.789062 18.433594 C 48.595168 18.196131 48.558794 18.116341 48.4375 17.947266 z M 12.8125 22.083984 C 12.739677 22.246449 12.67058 22.406041 12.580078 22.587891 C 12.312132 23.126287 11.956033 23.928472 11.789062 24.371094 C 11.622091 24.813703 11.423877 25.227694 11.347656 25.291016 C 11.262486 25.361856 10.015192 25.418993 8.109375 25.439453 C 4.285783 25.480473 4.620211 25.29442 4.2597656 27.570312 C 4.1201921 28.451847 4.0034264 29.305987 4 29.46875 C 3.996836 29.621262 4.0118327 29.742826 4.0839844 29.857422 C 4.1295401 29.491765 4.1651404 29.167958 4.2597656 28.570312 C 4.620211 26.29442 4.285783 26.480473 8.109375 26.439453 C 10.015192 26.418993 11.262486 26.361856 11.347656 26.291016 C 11.423877 26.227694 11.622091 25.813703 11.789062 25.371094 C 11.956033 24.928472 12.312132 24.126287 12.580078 23.587891 C 12.848025 23.049495 13.068359 22.527134 13.068359 22.427734 C 13.068359 22.404701 12.895043 22.196133 12.8125 22.083984 z M 53.318359 28.480469 C 53.314874 28.483669 53.235499 28.529432 53.234375 28.53125 C 53.200115 28.586731 53.226522 28.929257 53.294922 29.291016 C 53.363299 29.652774 53.477355 30.599495 53.546875 31.396484 L 53.673828 32.845703 L 56.640625 33.832031 C 58.93195 34.593386 59.678634 34.873848 59.90625 35.193359 C 59.931297 35.004418 59.999694 34.584206 60 34.539062 C 60.0042 34.006056 59.683538 33.843121 56.640625 32.832031 L 53.673828 31.845703 L 53.546875 30.396484 C 53.483613 29.671244 53.387215 28.900286 53.318359 28.480469 z M 10.679688 36.582031 C 10.577315 36.67581 9.5389615 37.318203 8.2167969 38.101562 C 6.8497808 38.911501 5.6171388 39.696506 5.4785156 39.845703 C 5.3399201 39.994923 5.2265625 40.251258 5.2265625 40.414062 C 5.2265625 40.507306 5.3015724 40.752861 5.3789062 41 C 5.4115939 40.946536 5.4400726 40.887093 5.4785156 40.845703 C 5.6171388 40.696506 6.8497808 39.911501 8.2167969 39.101562 C 9.5837991 38.291638 10.729822 37.58599 10.763672 37.53125 C 10.797372 37.476511 10.769695 37.135484 10.703125 36.775391 C 10.697029 36.742377 10.686505 36.624387 10.679688 36.582031 z M 51.183594 42.994141 C 51.043261 43.318838 50.935923 43.605514 50.949219 43.683594 C 50.968155 43.795185 51.791702 44.785987 52.779297 45.886719 C 54.087511 47.344798 54.613848 47.945728 54.855469 48.300781 C 54.980878 48.094956 55.072266 47.921857 55.072266 47.845703 C 55.072266 47.460215 54.979018 47.338432 52.779297 44.886719 C 52.001433 44.019744 51.444922 43.34908 51.183594 42.994141 z M 15.566406 47.150391 C 15.372202 47.520112 15.012101 48.180755 14.408203 49.253906 C 12.90055 51.933104 12.815703 52.119441 12.914062 52.511719 C 12.92631 52.560581 12.980058 52.638913 13.0625 52.734375 C 13.260567 52.303482 13.656245 51.590184 14.408203 50.253906 C 15.143778 48.946759 15.778919 47.794305 15.818359 47.691406 C 15.848517 47.612735 15.742243 47.412126 15.566406 47.150391 z M 43.189453 51.625 C 43.166813 51.644503 43.053663 51.720696 43.048828 51.728516 C 43.019374 51.776228 43.268653 53.101662 43.601562 54.673828 C 43.871183 55.947124 44.013905 56.742054 44.091797 57.228516 C 44.172806 57.108353 44.207357 56.980613 44.207031 56.828125 C 44.206695 56.665366 43.934469 55.245994 43.601562 53.673828 C 43.434403 52.884416 43.289501 52.159505 43.189453 51.625 z"/>
</svg>
