<svg xmlns="http://www.w3.org/2000/svg" width="64" height="64" version="1">
 <path style="opacity:0.2" d="m 4.0507982,32.000818 c -0.0118,0.33399 -0.050799,0.661981 -0.050799,0.999972 C 3.9999996,48.512352 16.487647,61 31.99921,61 47.510773,61 59.99842,48.512352 59.99842,33.00079 c 0,-0.337671 -0.03904,-0.665262 -0.05078,-0.999972 C 59.419655,47.042394 47.172,59.000056 31.998428,59.000056 16.824456,59.000056 4.5772013,47.042394 4.0492162,32.000818 Z"/>
 <rect style="fill:#1da6e8" width="56" height="56" x="4" y="4" rx="28" ry="28"/>
 <path style="opacity:0.2;fill:#8b9cbe" d="M 32 4.0019531 C 16.488437 4.0019531 4 16.488437 4 32 C 4 32.113445 4.0112809 32.224116 4.0175781 32.335938 C 4.3701238 17.135523 16.711813 5.0019531 32 5.0019531 C 47.288187 5.0019531 59.629876 17.135523 59.982422 32.335938 C 59.988693 32.224116 60 32.113445 60 32 C 60 16.488437 47.511563 4.0019531 32 4.0019531 z"/>
 <path style="opacity:0.4;fill:none;stroke:#000000;stroke-width:4" d="m 37.999041,22.001128 -15.999549,9.999718 15.999549,9.999718"/>
 <path style="opacity:0.2;fill-rule:evenodd" d="m 37.999041,17.000903 a 5.9998308,5.9998308 0 0 0 -5.999831,5.999831 5.9998308,5.9998308 0 0 0 5.999831,5.99983 5.9998308,5.9998308 0 0 0 5.999831,-5.99983 5.9998308,5.9998308 0 0 0 -5.999831,-5.999831 z m -15.999549,9.999718 a 5.9998308,5.9998308 0 0 0 -5.999831,5.999831 5.9998308,5.9998308 0 0 0 5.999831,5.99983 5.9998308,5.9998308 0 0 0 5.999831,-5.99983 5.9998308,5.9998308 0 0 0 -5.999831,-5.999831 z m 15.999549,9.999718 A 5.9998308,5.9998308 0 0 0 31.99921,43.00017 5.9998308,5.9998308 0 0 0 37.999041,49 5.9998308,5.9998308 0 0 0 43.998872,43.00017 5.9998308,5.9998308 0 0 0 37.999041,37.000339 Z"/>
 <path style="fill:#8b9cbe;fill-rule:evenodd" d="m 37.999041,16.001297 a 5.9998308,5.9998308 0 0 0 -5.999831,5.999831 5.9998308,5.9998308 0 0 0 5.999831,5.999831 5.9998308,5.9998308 0 0 0 5.999831,-5.999831 5.9998308,5.9998308 0 0 0 -5.999831,-5.999831 z m -15.999549,9.999718 a 5.9998308,5.9998308 0 0 0 -5.999831,5.999831 5.9998308,5.9998308 0 0 0 5.999831,5.999831 5.9998308,5.9998308 0 0 0 5.999831,-5.999831 5.9998308,5.9998308 0 0 0 -5.999831,-5.999831 z m 15.999549,9.999718 a 5.9998308,5.9998308 0 0 0 -5.999831,5.999831 5.9998308,5.9998308 0 0 0 5.999831,5.999831 5.9998308,5.9998308 0 0 0 5.999831,-5.999831 5.9998308,5.9998308 0 0 0 -5.999831,-5.999831 z"/>
</svg>
