<svg width="64" height="64" version="1.1" xmlns="http://www.w3.org/2000/svg">
 <path d="m4 53v1c0 1.662 1.338 3 3 3h50c1.662 0 3-1.338 3-3v-1c0 1.662-1.338 3-3 3h-50c-1.662 0-3-1.338-3-3z" style="opacity:.2"/>
 <rect x="4" y="8" width="56" height="48" rx="3" ry="3" style="fill:#00a5c3"/>
 <path d="m7 8c-1.662 0-3 1.338-3 3v1c0-1.662 1.338-3 3-3h50c1.662 0 3 1.338 3 3v-1c0-1.662-1.338-3-3-3z" style="fill:#8b9cbe;opacity:.2"/>
 <path d="m30 13-2 10-2-4h-2v2l2 4h4l2-10v-2zm-22 2v6s0 2 2 2h6v4h-8v2h8c2 0 2-2 2-2v-12h-2v6h-6v-6zm14 12v2h12v-2z" style="opacity:.2"/>
 <path d="m30 12-2 10-2-4h-2v2l2 4h4l2-10v-2zm-22 2v6s0 2 2 2h6v4h-8v2h8c2 0 2-2 2-2v-12h-2v6h-6v-6zm14 12v2h12v-2z" style="fill:#8b9cbe"/>
</svg>
