<svg xmlns="http://www.w3.org/2000/svg" width="64" height="64" version="1.1">
 <path style="opacity:0.2" d="m 29.625,5 -2.230469,8.332031 16.66211,4.462891 2.230468,-8.3300782 z M 44.056641,17.794922 39.982422,33 H 9 V 61 H 55 V 33 h -6.089844 l 3.476563,-12.972656 z m -16.66211,-4.462891 -8.332031,-2.232422 -2.976562,11.107422 8.332031,2.232422 z"/>
 <path style="fill:#ae292f" d="M 29.625 4 L 27.394531 12.332031 L 44.056641 16.794922 L 46.287109 8.4648438 L 29.625 4 z M 44.056641 16.794922 L 39.591797 33.457031 L 47.921875 35.689453 L 52.386719 19.027344 L 44.056641 16.794922 z M 27.394531 12.332031 L 19.0625 10.099609 L 16.085938 21.207031 L 24.417969 23.439453 L 27.394531 12.332031 z"/>
 <path style="opacity:0.1;fill:#8b9cbe" d="M 29.625 4 L 27.394531 12.332031 L 27.644531 12.398438 L 29.625 5 L 46.037109 9.3984375 L 46.287109 8.4648438 L 29.625 4 z M 27.394531 12.332031 L 19.0625 10.099609 L 16.085938 21.207031 L 16.335938 21.273438 L 19.0625 11.099609 L 27.144531 13.265625 L 27.394531 12.332031 z M 44.306641 16.861328 L 44.056641 17.794922 L 52.136719 19.960938 L 52.386719 19.027344 L 44.306641 16.861328 z M 44.056641 17.794922 L 43.806641 17.728516 L 39.591797 33.457031 L 39.841797 33.523438 L 44.056641 17.794922 z"/>
 <rect style="fill:#ef4848" width="46" height="28" x="9" y="32"/>
 <rect style="opacity:0.2;fill:#8b9cbe" width="46" height="1" x="9" y="32"/>
</svg>
