<svg xmlns="http://www.w3.org/2000/svg" width="64" height="64" version="1">
 <circle style="opacity:0.2" cx="32" cy="22" r="17"/>
 <path style="opacity:0.2" d="M 14.278076,33.025475 C 11.916577,33.025256 10.001226,34.883258 10,37.174644 c 0.0012,1.702737 1.212067,2.950774 2.707031,3.856446 2.792563,1.691779 7.958477,7.19567 11.491456,8.983519 1.327567,0.640417 2.802768,0.857246 4.108886,0.883545 l 6.708496,-0.0027 c 1.456064,0.04022 3.222516,-0.126816 4.785644,-0.88086 3.532979,-1.787849 8.698893,-7.291738 11.491456,-8.983518 1.494965,-0.905608 2.705858,-2.153645 2.707031,-3.856382 -0.0012,-2.291386 -1.916577,-4.149388 -4.278076,-4.149169 -1.297869,2.96e-4 -2.523929,0.572136 -3.335449,1.554931 -1.562513,2.083456 -3.035139,4.613975 -4.736674,6.970646 -2.614401,3.964166 -6.944632,6.570654 -9.413473,6.57131 -4.527035,-0.14269 -6.920704,-2.531834 -9.765491,-6.405055 -1.75284,-2.403453 -3.257989,-5.004364 -4.857312,-7.136901 -0.81152,-0.982795 -2.03758,-1.554635 -3.335449,-1.554931 z"/>
 <ellipse style="opacity:0.2" cx="32" cy="55.5" rx="14" ry="5.5"/>
 <circle style="fill:#3949ab" cx="32" cy="21" r="17"/>
 <path style="fill:#9b9b9b" d="M 14.278076,32.025475 C 11.916577,32.025256 10.001226,33.883258 10,36.174644 c 0.0012,1.702737 1.212067,2.950774 2.707031,3.856446 2.792563,1.691779 7.958477,7.19567 11.491456,8.983519 1.327567,0.640417 2.802768,0.857246 4.108886,0.883545 l 6.708496,-0.0027 c 1.456064,0.04022 3.222516,-0.126816 4.785644,-0.88086 3.532979,-1.787849 8.698893,-7.291738 11.491456,-8.983518 1.494965,-0.905608 2.705858,-2.153645 2.707031,-3.856382 -0.0012,-2.291386 -1.916577,-4.149388 -4.278076,-4.149169 -1.297869,2.96e-4 -2.523929,0.572136 -3.335449,1.554931 -1.562513,2.083456 -3.035139,4.613975 -4.736674,6.970646 -2.614401,3.964166 -6.944632,6.570654 -9.413473,6.57131 -4.527035,-0.14269 -6.920704,-2.531834 -9.765491,-6.405055 -1.75284,-2.403453 -3.257989,-5.004364 -4.857312,-7.136901 -0.81152,-0.982795 -2.03758,-1.554635 -3.335449,-1.554931 z"/>
 <path style="opacity:0.1;fill:#8b9cbe" d="M 14.277344 32.025391 C 11.915845 32.025172 10.001226 33.882442 10 36.173828 C 10.000132 36.360511 10.020835 36.540897 10.048828 36.716797 C 10.287367 34.643433 12.077261 33.025187 14.277344 33.025391 C 15.575213 33.025687 16.801761 33.597283 17.613281 34.580078 C 19.212604 36.712615 20.717863 39.313344 22.470703 41.716797 C 25.31549 45.590018 27.709293 47.980357 32.236328 48.123047 C 34.705169 48.122391 39.03599 45.514947 41.650391 41.550781 C 43.351926 39.19411 44.824206 36.663534 46.386719 34.580078 C 47.198239 33.597283 48.424787 33.025687 49.722656 33.025391 C 51.922739 33.025187 53.712651 34.643433 53.951172 36.716797 C 53.979163 36.540897 53.999871 36.360511 54 36.173828 C 53.9988 33.882442 52.084155 32.025172 49.722656 32.025391 C 48.424787 32.025687 47.198239 32.597283 46.386719 33.580078 C 44.824206 35.663534 43.351926 38.19411 41.650391 40.550781 C 39.03599 44.514947 34.705169 47.122391 32.236328 47.123047 C 27.709293 46.980357 25.31549 44.590018 22.470703 40.716797 C 20.717863 38.313344 19.212604 35.712615 17.613281 33.580078 C 16.801761 32.597283 15.575213 32.025687 14.277344 32.025391 z"/>
 <ellipse style="fill:#f0e83c" cx="32" cy="54.5" rx="14" ry="5.5"/>
 <path style="opacity:0.1;fill:#8b9cbe" d="M 32 4 A 17 17 0 0 0 15 21 A 17 17 0 0 0 15.021484 21.580078 A 17 17 0 0 1 32 5 A 17 17 0 0 1 48.978516 21.419922 A 17 17 0 0 0 49 21 A 17 17 0 0 0 32 4 z"/>
 <path style="opacity:0.2;fill:#8b9cbe" d="M 32 49 A 14 5.5 0 0 0 18 54.5 A 14 5.5 0 0 0 18.066406 54.988281 A 14 5.5 0 0 1 32 50 A 14 5.5 0 0 1 45.933594 55.011719 A 14 5.5 0 0 0 46 54.5 A 14 5.5 0 0 0 32 49 z"/>
</svg>
