<svg xmlns="http://www.w3.org/2000/svg" width="64" height="64" version="1.1">
 <rect style="opacity:0.2" width="56" height="56" x="4" y="5" rx="16.8" ry="16.8"/>
 <rect style="fill:#4992fd" width="56" height="56" x="4" y="4" rx="16.8" ry="16.8"/>
 <path style="opacity:0.2" d="M 17.166016,23 C 15.965681,23 15,23.95547 15,25.142578 V 28.714844 33 37.285156 C 15,40.450777 17.576455,43 20.777344,43 H 28 35.222656 38.833984 C 40.034319,43 41,42.04453 41,40.857422 V 37.285156 33 28.714844 C 41,25.549223 38.423546,23 35.222656,23 H 28 20.777344 Z m 31.564453,0.0039 c -0.424857,-0.03143 -0.908457,0.175682 -1.369141,0.634766 -1.620058,1.614433 -3.519624,2.976695 -4.847656,4.90625 -0.546893,0.7946 -0.509368,1.84658 -0.513672,2.835937 -0.0024,0.542834 0.0028,1.083451 0,1.619141 0.0028,0.53569 -0.0024,1.076308 0,1.619141 0.0043,0.989355 -0.03322,2.041337 0.513672,2.835937 1.328032,1.929555 3.227598,3.291817 4.847656,4.90625 0.460684,0.459084 0.944284,0.666194 1.369141,0.634766 0.708094,-0.05239 1.251953,-0.771047 1.251953,-2.103516 0,-2.608588 0.0382,-5.248248 0,-7.892578 0.0382,-2.64433 0,-5.283991 0,-7.892578 0,-1.33247 -0.543859,-2.051132 -1.251953,-2.103516 z"/>
 <path style="fill:#8b9cbe" d="M 17.166016,22 C 15.965681,22 15,22.95547 15,24.142578 V 27.714844 32 36.285156 C 15,39.450777 17.576455,42 20.777344,42 H 28 35.222656 38.833984 C 40.034319,42 41,41.04453 41,39.857422 V 36.285156 32 27.714844 C 41,24.549223 38.423546,22 35.222656,22 H 28 20.777344 Z m 31.564453,0.0039 c -0.424857,-0.03143 -0.908457,0.175682 -1.369141,0.634766 -1.620058,1.614433 -3.519624,2.976695 -4.847656,4.90625 -0.546893,0.7946 -0.509368,1.84658 -0.513672,2.835937 -0.0024,0.542834 0.0028,1.083451 0,1.619141 0.0028,0.53569 -0.0024,1.076308 0,1.619141 0.0043,0.989355 -0.03322,2.041337 0.513672,2.835937 1.328032,1.929555 3.227598,3.291817 4.847656,4.90625 0.460684,0.459084 0.944284,0.666194 1.369141,0.634766 0.708094,-0.05239 1.251953,-0.771047 1.251953,-2.103516 0,-2.608588 0.0382,-5.248248 0,-7.892578 0.0382,-2.64433 0,-5.283991 0,-7.892578 0,-1.33247 -0.543859,-2.051132 -1.251953,-2.103516 z"/>
 <path style="fill:#8b9cbe;opacity:0.2" d="M 20.800781 4 C 11.493582 4 4 11.493582 4 20.800781 L 4 21.800781 C 4 12.493582 11.493582 5 20.800781 5 L 43.199219 5 C 52.506418 5 60 12.493582 60 21.800781 L 60 20.800781 C 60 11.493582 52.506418 4 43.199219 4 L 20.800781 4 z"/>
</svg>
