<svg xmlns="http://www.w3.org/2000/svg" width="24" height="24" version="1.1">
 <circle style="fill:#455a64" cx="12" cy="12" r="10"/>
 <path style="fill:#8b9cbe" d="m 13.905511,6.5737185 a 2,2 0 0 0 -1.6377,0.99805 2,2 0 0 0 -0.193361,1.5342 L 9.4269995,10.635268 A 2,2 0 0 0 8,10.035768 a 2,2 0 0 0 -2,2 2,2 0 0 0 2,2 2,2 0 0 0 1.4258005,-0.5996 l 2.6474505,1.5293 a 2,2 0 0 0 0.194,1.534 2,2 0 0 0 2.7325,0.7325 2,2 0 0 0 0.7325,-2.7325 2,2 0 0 0 -2.7325,-0.7315 2,2 0 0 0 -0.427,0.331 l -2.6480005,-1.5285 a 2,2 0 0 0 0.075,-0.535 2,2 0 0 0 -0.073,-0.535 L 12.574201,9.9721685 a 2,2 0 0 0 0.4255,0.3309995 2,2 0 0 0 2.7325,-0.7314995 2,2 0 0 0 -0.7325,-2.7325 2,2 0 0 0 -1.0945,-0.2655 z"/>
</svg>
