<svg xmlns="http://www.w3.org/2000/svg" width="24" height="24" version="1.1">
 <circle style="fill:#455a64" cx="12" cy="12" r="10"/>
 <path style="fill:#8b9cbe" d="m 11.999999,5.0000005 c -2,0 -3.5,1.000003 -3.5,3.499997 V 9.999998 H 7.8333325 C 7.371666,9.999998 6.999999,10.375144 6.999999,10.85 v 5.292857 C 6.999999,16.617714 7.371666,17 7.8333325,17 h 8.3333335 c 0.461666,0 0.833333,-0.382286 0.833333,-0.857143 v -5.292856 c 0,-0.474857 -0.371667,-0.850003 -0.833333,-0.850003 H 15.5 V 8.4999975 c 0,-2.499994 -1.5,-3.499997 -3.500001,-3.499997 z m 0,1.5 C 13,6.5000005 14,6.9999975 14,8.4999975 V 9.999998 H 9.999999 V 8.4999975 c 0,-1.5 1,-1.999997 2,-1.999997 z"/>
</svg>
