<svg xmlns="http://www.w3.org/2000/svg" width="24" height="24" version="1.1">
 <g transform="matrix(1,0,0,-1,0,24)">
  <circle style="fill:#455a64" cx="12" cy="12" r="10"/>
  <circle style="fill:#8b9cbe" cx="12" cy="18" r="1"/>
  <path style="fill:#8b9cbe;fill-rule:evenodd" d="m 11,15 2,0 0,-10 -2,0 z"/>
 </g>
</svg>
