<svg xmlns="http://www.w3.org/2000/svg" width="24" height="24" version="1.1">
 <circle style="fill:#1474e7" cx="19" cy="19" r="5"/>
 <path style="fill:#8b9cbe" d="m 19,15.999996 c 0.631262,0.0013 1.271365,0.198124 1.771365,0.587548 0.3515,0.404931 -0.318262,0.838598 -0.619906,0.443753 -0.908072,-0.549464 -2.188737,-0.356 -2.871954,0.465472 -0.363501,0.407655 -0.568299,0.951648 -0.565899,1.497743 h 0.600104 l -0.960165,1.440246 -0.960165,-1.440246 h 0.600104 c -0.01915,-1.30384 0.918618,-2.544207 2.177681,-2.88188 C 18.441212,16.038552 18.719568,15.997096 19,16 Z m 2.634453,1.560269 0.960164,1.440248 h -0.600103 c 0.01702,1.31951 -0.9447,2.573749 -2.225759,2.89365 -0.864425,0.241403 -1.841878,0.06524 -2.552284,-0.48703 -0.362486,-0.411694 0.316577,-0.841182 0.621037,-0.442713 0.879821,0.53379 2.111877,0.364492 2.806404,-0.397916 0.402071,-0.414302 0.63334,-0.988553 0.630341,-1.566039 h -0.600105 l 0.960165,-1.440246 z"/>
</svg>
