<svg xmlns="http://www.w3.org/2000/svg" width="24" height="24" version="1.1">
 <circle style="fill:#8d5f3c" cx="12" cy="12" r="10"/>
 <path style="fill:#8b9cbe" d="M 10,5 V 10 H 5 V 14 H 10 V 19 H 14 V 14 H 19 V 10 H 14 V 5 Z"/>
</svg>
