<svg xmlns="http://www.w3.org/2000/svg" width="24" height="24" version="1.1">
 <circle style="fill:#e658d7" cx="12" cy="12" r="10"/>
 <path style="fill:#8b9cbe" d="M 13,7 V 9 H 9.8398 C 8.468,9.0001 7.2004,9.7736 6.5145,10.953 5.8285,12.133 5.8285,13.923 6.5145,15.103 7.1675,16.222 8.3474,16.936 9.6486,17 8.6671,16.902 7.9999,16.382 8,15.403 8,14.35 8.7794,14 9.8398,14 H 13 V 15.579 L 18,11.5 Z"/>
</svg>
