<svg xmlns="http://www.w3.org/2000/svg" width="48" height="48" version="1.1">
 <path fill="#efb055" d="m8.8149 24.576c0 8.313-10.123 14.424-1.0123 14.424h32.394c9.111 0-1.012-6.111-1.012-14.424 0-9.273-4.049-19.576-15.185-19.576s-15.185 10.303-15.185 19.576z"/>
 <path fill="#ce903c" d="m17 39c1.0342 2.3167 3.7612 4 7 4s5.9658-1.6833 7-4h-14z"/>
 <path fill="#fff" opacity=".1" d="m24 5c-11.136 0-15.186 10.303-15.186 19.576 0.0005 6.146-5.5242 11.085-4.7281 13.244 0.5755-2.487 4.7286-6.905 4.7286-12.244 0-9.273 4.0495-19.576 15.186-19.576s15.186 10.303 15.186 19.576c0 5.339 4.153 9.757 4.728 12.244 0.796-2.159-4.728-7.098-4.728-13.244 0-9.273-4.05-19.576-15.186-19.576z"/>
 <path opacity=".2" d="m4.0859 37.82c-0.3207 1.386 0.4562 2.18 3.7168 2.18h32.394c3.261 0 4.038-0.794 3.717-2.18-0.281 0.762-1.341 1.18-3.717 1.18h-32.394c-2.376 0-3.4366-0.418-3.7174-1.18z"/>
 <path opacity=".2" d="m17 40c1.034 2.317 3.761 4 7 4s5.966-1.683 7-4h-0.594c-1.289 1.782-3.658 3-6.406 3s-5.117-1.218-6.406-3h-0.594z"/>
 <g transform="translate(3,0)">
  <circle style="fill:#db3c30" cx="34" cy="36" r="10"/>
  <path style="opacity:0.2" d="M 43.979,36.414 A 10,10 0 0 1 34,46 10,10 0 0 1 24.021,36.586 10,10 0 0 0 24,37 10,10 0 0 0 34,47 10,10 0 0 0 44,37 10,10 0 0 0 43.979,36.414 Z"/>
  <g style="fill:#8b9cbe" transform="matrix(0.70711,-0.70711,0.70711,0.70711,-15.497,34.846)">
   <rect width="12" height="2" x="28" y="35"/>
   <rect width="12" height="2" x="-42" y="33" transform="matrix(0,-1,1,0,0,0)"/>
  </g>
 </g>
</svg>
