<svg xmlns="http://www.w3.org/2000/svg" width="24" height="24" version="1.1">
 <defs>
  <linearGradient id="linearGradient3605" x1="7" x2="19" y1="12" y2="5" gradientTransform="matrix(0,-1,-1,0,24,24)" gradientUnits="userSpaceOnUse">
   <stop offset="0" stop-color="#323a41" stop-opacity=".5"/>
   <stop offset="1" stop-color="#323a41" stop-opacity="0"/>
  </linearGradient>
  <linearGradient id="linearGradient3611" x1="7" x2="17" y1="12" y2="12" gradientTransform="matrix(0,1,1,0,0,0)" gradientUnits="userSpaceOnUse">
   <stop offset="0" stop-color="#323a41"/>
   <stop offset="1" stop-color="#323a41" stop-opacity=".5"/>
  </linearGradient>
 </defs>
 <path style="fill:url(#linearGradient3611)" d="m12 5c-3.866 0-7 3.134-7 7s3.134 7 7 7v-2c-2.7614 0-5-2.239-5-5 0-2.7614 2.2386-5 5-5 1.3 0 1.3-2 0-2z"/>
 <path style="fill:url(#linearGradient3605)" d="m12 5v2c2.761 0 5 2.2386 5 5 0.754 0 1.431 0.296 1.955 0.764 0.028-0.251 0.045-0.505 0.045-0.764 0-3.866-3.134-7-7-7zm1 11.871c-0.324 0.074-0.654 0.129-1 0.129v2c0.341 0 0.673-0.034 1-0.082v-2.047z"/>
 <path fill="#323a41" d="m17 13c-1.108 0-2 0.91085-2 2.0312v0.96875h-1v4h6v-4h-1v-0.96875c0-1.12-0.892-2.031-2-2.031zm0 1c0.554 0 1 0.4424 1 1v1h-2v-1c0-0.5576 0.446-1 1-1z"/>
</svg>
