<svg xmlns="http://www.w3.org/2000/svg" width="32" height="32" version="1.1">
 <g>
  <circle style="fill:#455a64" cx="16" cy="16" r="14"/>
  <path style="fill:#8b9cbe" d="M 12 11 A 5 5 0 0 0 7 16 A 5 5 0 0 0 12 21 A 5 5 0 0 0 17 16 A 5 5 0 0 0 12 11 z M 12 14 A 2 2 0 0 1 14 16 A 2 2 0 0 1 12 18 A 2 2 0 0 1 10 16 A 2 2 0 0 1 12 14 z"/>
  <rect style="fill:#8b9cbe" width="10" height="2" x="16" y="15"/>
  <rect style="fill:#8b9cbe" width="2" height="2" x="22" y="17"/>
 </g>
</svg>
