<svg xmlns="http://www.w3.org/2000/svg" width="32" height="32" version="1.1">
 <circle style="fill:#455a64" cx="16" cy="16" r="14"/>
 <circle style="fill:#8b9cbe" cx="15.5" cy="23.5" r="1.5"/>
 <path style="fill:#8b9cbe;fill-rule:evenodd" d="m 14,20 h 3 V 7 h -3 z"/>
</svg>
