<svg xmlns="http://www.w3.org/2000/svg" width="32" height="32" version="1.1">
 <circle style="fill:#455a64" cx="16" cy="16" r="14"/>
 <path style="fill:#8b9cbe" d="m 6.454059,17.06066 4.24264,4.242641 2.121321,2.12132 L 25.545941,10.6967 23.424621,8.575379 12.81802,19.181981 8.5753786,14.93934 Z"/>
</svg>
