<svg xmlns="http://www.w3.org/2000/svg" width="32" height="32" version="1.1">
 <circle style="fill:#455a64" cx="16" cy="16" r="14"/>
 <path style="fill:#8b9cbe" d="M 17,9 V 12 H 12.76 C 10.702,12 8.8006,13.054 7.7717,14.706 6.7428,16.357 6.7428,18.692 7.7717,20.344 8.7512,21.911 10.521,22.911 12.473,23 11,22.863 10,21.715 10,20.344 10,18.87 11.169,17.982 12.76,18 H 17 V 21.011 L 25,15 Z"/>
</svg>
