<svg xmlns="http://www.w3.org/2000/svg" width="32" height="32" version="1.1">
 <circle style="fill:#999999" cx="16" cy="16" r="14"/>
 <path style="fill:#8b9cbe" d="M 16,6 A 10,10 0 0 0 6,16 10,10 0 0 0 16,26 10,10 0 0 0 26,16 10,10 0 0 0 25.385,12.586 L 25.406,12.57 25.354,12.496 A 10,10 0 0 0 16,6 Z M 16,7 A 9,9 0 0 1 23.988,11.861 L 17.748,16.32 7.102,17.287 A 9,9 0 0 1 7,16 9,9 0 0 1 16,7 Z M 24.539,13.189 A 9,9 0 0 1 25,16 9,9 0 0 1 22.393,22.326 L 18.959,17.176 Z M 17.648,17.734 21.322,23.244 A 9,9 0 0 1 16,25 9,9 0 0 1 7.4141,18.666 Z"/>
 <circle style="fill:#8b9cbe" cx="7" cy="18" r="2"/>
 <circle style="fill:#8b9cbe" cx="22" cy="23" r="2"/>
 <circle style="fill:#8b9cbe" cx="25" cy="12" r="2"/>
 <circle style="fill:#8b9cbe" cx="18" cy="17" r="2"/>
</svg>
