<svg xmlns="http://www.w3.org/2000/svg" width="32" height="32" version="1.1">
 <circle style="fill:#455a64" cx="16" cy="16" r="14"/>
 <path style="fill:#8b9cbe" d="m 15.999999,7.000001 c -2.800001,0 -5.142726,1.3363885 -4.999996,4.666663 v 2.333337 h -0.833338 c -0.6463334,0 -1.1666667,0.466857 -1.1666667,1.1 v 6.757142 C 8.9999983,22.490286 9.5203316,23 10.166665,23 h 11.666667 c 0.646333,0 1.166667,-0.509714 1.166667,-1.142857 v -6.757142 c 0,-0.633143 -0.511059,-1.1 -1.166667,-1.1 h -0.833338 v -2.333337 c 0,-3.3333259 -2.199995,-4.666663 -4.999995,-4.666663 z m 0,2 c 1.4,0 3.000001,0.480743 3.000001,2.666663 v 2.333337 h -6.000003 v -2.333337 c 0,-2.164286 1.600001,-2.666663 3.000002,-2.666663 z"/>
</svg>
