<svg xmlns="http://www.w3.org/2000/svg" width="32" height="32" version="1.1">
 <rect style="fill:#455a64" width="18" height="14" x="7" y="18"/>
 <circle style="fill:#455a64" cx="7" cy="25" r="7"/>
 <path style="fill:#8b9cbe" d="m 10,20 a 2,2 0 0 0 -2,2 2,2 0 0 0 0.046874,0.417968 L 5.5078124,23.6875 A 2,2 0 0 0 4,23 2,2 0 0 0 2,25 2,2 0 0 0 4,27 2,2 0 0 0 5.5078124,26.3125 l 2.5351564,1.265624 A 2,2 0 0 0 8,28 a 2,2 0 0 0 2,2 2,2 0 0 0 2,-2 2,2 0 0 0 -2,-2 2,2 0 0 0 -1.5117188,0.6875 L 5.953125,25.421876 A 2,2 0 0 0 6,25 2,2 0 0 0 5.953125,24.578124 l 2.5390626,-1.26953 A 2,2 0 0 0 10,24 2,2 0 0 0 12,22 2,2 0 0 0 10,20 Z"/>
 <circle style="fill:#14ad7a" cx="25" cy="25" r="7"/>
 <path style="fill:#8b9cbe" d="m 28.85,21.5 -4.55,4.55 -2.8,-2.8 -1.4,1.4 4.2,4.2 5.95,-5.95 z"/>
</svg>
