<svg xmlns="http://www.w3.org/2000/svg" width="32" height="32" version="1.1">
 <circle style="fill:#992067" cx="16" cy="16" r="14"/>
 <path style="fill:#8b9cbe" d="m 14,6 v 12 h 4 V 6 Z m 0,16 v 4 h 4 v -4 z"/>
</svg>
