<svg xmlns="http://www.w3.org/2000/svg" width="48" height="48" version="1.1">
 <rect style="opacity:0.2" width="12" height="40" x="18" y="5" rx="3" ry="2.857"/>
 <rect style="fill:#4caf50" width="12" height="40" x="18" y="4" rx="3" ry="2.857"/>
 <rect style="opacity:0.2" width="12" height="40" x="19" y="-44" rx="3" ry="2.857" transform="rotate(90)"/>
 <rect style="fill:#4caf50" width="12" height="40" x="18" y="-44" rx="3" ry="2.857" transform="rotate(90)"/>
 <path style="fill:#f4f4f7;opacity:0.2" d="M 21 4 C 19.338 4 18 5.2745648 18 6.8574219 L 18 7.8574219 C 18 6.2745648 19.338 5 21 5 L 27 5 C 28.662 5 30 6.2745648 30 7.8574219 L 30 6.8574219 C 30 5.2745648 28.662 4 27 4 L 21 4 z"/>
 <path style="fill:#f4f4f7;opacity:0.2" d="M 6.8574219 18 C 5.2745648 18 4 19.338 4 21 L 4 22 C 4 20.338 5.2745648 19 6.8574219 19 L 41.142578 19 C 42.725435 19 44 20.338 44 22 L 44 21 C 44 19.338 42.725435 18 41.142578 18 L 6.8574219 18 z"/>
</svg>
