<svg xmlns="http://www.w3.org/2000/svg" width="16" height="16" version="1.1">
 <path style="fill:#b2bfd9" d="M 2.8125,0 C 2.362375,0 2,0.3568 2,0.8 V 15.2 C 2,15.6432 2.362375,16 2.8125,16 h 11.375 C 14.637625,16 15,15.6432 15,15.2 V 5 L 11,4 10,0 Z"/>
 <path style="fill:#fafafa" d="M 15,5 10,0 V 4.1666667 C 10,4.6283333 10.371667,5 10.833333,5 Z"/>
 <path style="fill:#2c69c8" d="m 11.262953,10.25937 c -0.128061,-0.0061 -0.265996,0.01337 -0.408101,0.06333 -0.09987,0.03546 -0.152159,0.116978 -0.152159,0.116978 0,0 0.06232,-0.02521 0.203171,-0.05453 0.574651,-0.119796 1.398045,0.769565 -0.382596,1.694855 -0.0083,0.02203 -0.03606,0.04664 -0.03606,0.04662 2.080868,-0.547025 1.672176,-1.824317 0.775745,-1.867242 z"/>
 <path style="fill:#2c69c8" d="m 7.311225,10.165564 c -0.2270173,0.006 -0.7576897,0.05489 -1.3755851,0.35357 -0.9741744,0.471228 2.4094,0.685849 4.1610571,0.225161 0.182111,-0.124349 0.433608,-0.232197 0.433608,-0.232197 0,0 -0.7162533,0.128002 -1.4301156,0.18822 -0.8734876,0.07319 -1.811973,0.08761 -2.2823803,0.02463 -1.1141029,-0.148778 0.611273,-0.558501 0.611273,-0.558501 0,0 -0.042187,-0.0029 -0.1178571,-8.94e-4 z"/>
 <path style="fill:#2c69c8" d="M 7.0271367,11.397934 C 5.419526,11.931501 7.9215714,12.536784 10.167939,11.879916 9.9291659,11.795728 9.7774273,11.641563 9.7774273,11.641563 8.6795691,11.852965 8.0451381,11.8467 7.2417423,11.763818 6.6204826,11.699558 7.0271367,11.397934 7.0271367,11.397934 Z"/>
 <path style="fill:#2c69c8" d="M 7.2549353,12.354853 C 5.7956177,12.762614 8.1420029,13.604976 9.9999487,12.808691 9.6956374,12.690354 9.4783873,12.553627 9.4783873,12.553627 8.6495896,12.71049 8.264718,12.722102 7.5126372,12.636303 6.8918383,12.564932 7.2549353,12.354853 7.2549353,12.354853 Z"/>
 <path style="fill:#2c69c8" d="m 6.3111996,13.102478 c -0.6271424,-0.02417 -2.05097,0.602474 -0.8355538,0.799492 3.7881324,0.614328 6.9053462,-0.277118 5.9227562,-0.720335 0,0 0.268461,0.221185 -0.295523,0.392271 -1.07243,0.324878 -4.463547,0.423232 -5.4055918,0.01319 -0.338641,-0.147321 0.2962936,-0.35201 0.4960554,-0.39491 0.2083316,-0.04518 0.3280643,-0.03606 0.3280643,-0.03606 -0.047075,-0.03316 -0.1206158,-0.0502 -0.2102073,-0.05365 z"/>
 <path style="fill:#2c69c8" d="m 12,13.601152 c 0,0 -0.119459,0.306226 -1.412525,0.549707 -1.4588322,0.274534 -3.2583681,0.242789 -4.3255297,0.06684 2.64e-5,-2.5e-5 0.2188262,0.18039 1.3421632,0.252426 C 9.3133009,14.579538 11.937838,14.409895 12,13.601152 Z"/>
 <path style="fill:#fa7800" d="M 9.2272001,5.0090227 C 9.6250867,6.5759851 7.8243126,7.0498707 7.174377,8.0258107 6.7315703,8.6906598 7.3910994,9.4043612 8.2905002,10.215841 7.9397757,9.4231371 6.7505617,8.72988 8.2913946,7.5130444 10.212858,5.9961184 9.2272149,5.0090227 9.2272149,5.0090227 Z"/>
 <path style="fill:#fa7800" d="m 10.616575,6.9475066 c 0,0 -3.2484571,0.8117815 -1.6966135,2.599891 0.4577973,0.5270704 -0.1204952,1.0017854 -0.1204952,1.0017854 0,0 1.1627132,-0.6003972 0.628864,-1.3518383 C 8.929732,8.4965794 8.5466403,8.1479961 10.616575,6.9475066 Z"/>
</svg>
