<svg xmlns="http://www.w3.org/2000/svg" width="16" height="16" version="1.1">
 <path style="fill:#b2bfd9" d="M 2.8675333,-2e-7 C 2.3874,-2.1346332e-7 2,0.38143981 2,0.85418649 V 15.1456 C 2,15.618134 2.3874,16 2.8675333,16 H 14.13225 C 14.612166,16 15,15.618134 15,15.1456 V 5 L 10.666666,4.2666666 10,0 Z"/>
 <path style="fill:#f8f8f0" d="M 15,5 10,0 V 4.1992 C 10,4.6424 10.358,5 10.801,5 Z"/>
 <path style="fill:#4587cf" d="M 4.7371316,12.854768 3,8.5161855 4.3985919,7.8088364 l 0.0347,-0.047682 1.127337,2.9492566 1.3537355,-0.7432198 0.6085251,1.4011378 m -2.7853351,1.486439"/>
 <path style="fill:#dfa722" d="M 5.9419096,8.4803149 7.6908902,8.7349081 8.2101254,9.9055118 8.8630838,8.8937008 10.62349,9.1364829 9.0099253,11.622922 8.6146803,14 6.9799569,13.719598 7.2609448,11.587052 M 5.9419096,8.4803149"/>
 <path style="fill:#de5328" d="m 9.7982996,7.0004374 1.5272374,0.316273 0.328806,1.067804 L 12.325498,7.5608049 14,7.9418198 12.500692,9.7480315 13.347042,12.437445 11.545164,12.247594 11.224398,10.788276 10.409364,11.987752 9.0061168,11.517935 10.414442,9.3683289 M 9.7927983,7"/>
</svg>
