<svg xmlns="http://www.w3.org/2000/svg" width="16" height="16" version="1.1">
 <path style="fill:#b2bfd9" d="m 2.8000001,0 c -0.4450134,0 -0.8,0.35498668 -0.8,0.80000002 V 15.2 c 0,0.4448 0.3549866,0.800001 0.8,0.800001 H 14.2 c 0.445867,0 0.8,-0.354134 0.8,-0.800001 V 5 L 10.4,4.4000001 10,0 Z"/>
 <path style="fill:#fafafa" d="M 10,-4.7e-7 V 4.1666999 C 10,4.6251 10.3749,5 10.8333,5 H 15 Z"/>
 <g style="fill:#09a576" transform="matrix(0.06378673,0,0,0.06309016,5.4668422,7.9999996)">
  <g style="fill:#09a576">
   <g style="fill:#09a576">
    <g style="fill:#09a576">
     <g style="fill:#09a576">
      <g style="fill:#09a576">
       <path style="fill:#09a576" d="M 47.561,0 C 25.928,0 8.39,6.393 8.39,14.283 v 11.72 c 0,7.891 17.538,14.282 39.171,14.282 21.632,0 39.17,-6.392 39.17,-14.282 V 14.283 C 86.731,6.393 69.193,0 47.561,0 Z"/>
      </g>
     </g>
     <g style="fill:#09a576">
      <g style="fill:#09a576">
       <path style="fill:#09a576" d="m 47.561,47.115 c -20.654,0 -37.682,-5.832 -39.171,-13.227 -0.071,0.353 0,19.355 0,19.355 0,7.892 17.538,14.283 39.171,14.283 21.632,0 39.17,-6.393 39.17,-14.283 0,0 0.044,-19.003 -0.026,-19.355 -1.491,7.396 -18.491,13.227 -39.144,13.227 z"/>
      </g>
     </g>
     <path style="fill:#09a576" d="M 86.694,61.464 C 85.206,68.855 68.215,74.69 47.561,74.69 26.907,74.69 9.875,68.854 8.386,61.464 L 8.39,80.82 c 0,7.891 17.538,14.282 39.171,14.282 21.632,0 39.17,-6.393 39.17,-14.282 z"/>
    </g>
   </g>
  </g>
 </g>
</svg>
