<svg width="16" height="16" version="1.1" xmlns="http://www.w3.org/2000/svg">
 <path d="M 2.8125,0 C 2.362375,0 2,0.3568 2,0.8 V 15.2 C 2,15.6432 2.362375,16 2.8125,16 h 11.375 C 14.637625,16 15,15.6432 15,15.2 V 5 L 11,4 10,0 Z" style="fill:#119b94"/>
 <path d="M 15,5 10,0 V 4.1666667 C 10,4.6283333 10.371667,5 10.833333,5 Z" style="fill:#34c8c0"/>
 <path d="m6.7460938 6.9921875c-1.4995135 0.028352-2.6568992 1.19426-2.71875 3.2441405-0.0396293 1.313424 0.1440249 2.72798 2.4746093 2.763672 0.7034954 0.010775 1.5605469-0.558594 1.5605469-0.558594l-0.0625-2.441406h-1.53125l-0.40625 1h1.015625l-0.203125 0.953125s-0.4831794 0.058528-0.7304688 0.048828c-0.8110439-0.031716-1.1213243-0.918622-1.1152343-1.574219 0.0111804-1.2057834 0.5221753-2.2220117 1.9121093-2.2363278 0.6385941-0.0065764 0.8632813 0.375 0.8632813 0.375l0.1953125-1.1816406s-0.155368-0.4133501-1.2539062-0.3925781zm4.3808592 0.0078125-2.126953 0.0195312v5.9999998l2.71875-0.019531c0.253745 0 1.282205 0.018339 1.330078-1.380859-0.047873-1.10478-0.621094-1.59961-0.621094-1.59961s0.572266-6.2e-4 0.572266-1.4941404c-0.039506-1.098462-1.150191-1.5293906-1.873047-1.5253906zm-1.126953 1.0195312h1c0.249727 0.0036241 1.013167 0.0667252 0.998047 0.5488282-0.018174 0.579282-0.998047 0.4511718-0.998047 0.4511718h-1v-1zm1.085938 1.9843748c0.288279-0.003245 0.914062 0.015625 0.914062 1.015625 0.055252 1-0.779297 1-0.779297 1h-1.220703v-2s0.828018-0.012785 1.085938-0.015625z" style="fill:#f4f4f7"/>
</svg>
