<svg xmlns="http://www.w3.org/2000/svg" width="16" height="16" version="1.1">
 <path style="fill:#4caf50" d="M 2.8125,0 C 2.362375,0 2,0.3568 2,0.8 V 15.2 C 2,15.6432 2.362375,16 2.8125,16 h 11.375 C 14.637625,16 15,15.6432 15,15.2 V 5 L 11,4 10,0 Z"/>
 <path style="fill:#88cc8b" d="M 15,5 10,0 V 4.1666667 C 10,4.6283333 10.371667,5 10.833333,5 Z"/>
 <rect style="opacity:0.2" width="4" height="7" x="4" y="0"/>
 <rect style="fill:#f4f4f7" width="1" height="1" x="-7" y="4" transform="scale(-1,1)"/>
 <path style="fill:#4b4b4b" d="m 5.9999996,4 c 1.5,0 1.5,2 2,2 v 2.5 c 0,0.277 -0.223,0.5 -0.5,0.5 h -3 c -0.277,0 -0.5,-0.223 -0.5,-0.5 V 6 c 0.5,0 0.5,-2 2,-2 z"/>
 <path style="fill:#f4f4f7" d="m 5.9999996,6 c -1.105,0 -2,0.9 -2,2 v 4 c 0,1.1 0.895,2 2,2 1.105,0 2,-0.9 2,-2 V 8 c 0,-1.1 -0.895,-2 -2,-2 z m 0,5 a 1,1 0 0 1 1,1 1,1 0 0 1 -1,1 1,1 0 0 1 -1,-1 1,1 0 0 1 1,-1 z"/>
 <path style="fill:#909090" d="M 5.9921876,5.000061 A 0.50005,0.49772427 0 0 0 5.4999996,5.50454 v 1.990698 a 0.50005,0.49772427 0 1 0 1,0 V 5.50454 A 0.50005,0.49772427 0 0 0 5.9921876,5.000061 Z"/>
 <rect style="fill:#f4f4f7" width="1" height="1" x="-6" y="3" transform="scale(-1,1)"/>
 <rect style="fill:#f4f4f7" width="1" height="1" x="-7" y="2" transform="scale(-1,1)"/>
 <rect style="fill:#f4f4f7" width="1" height="1" x="-6" y="1" transform="scale(-1,1)"/>
 <rect style="fill:#f4f4f7" width="1" height="1" x="-7" y="0" transform="scale(-1,1)"/>
</svg>
