<svg xmlns="http://www.w3.org/2000/svg" width="16" height="16" version="1.1">
 <path style="fill:#b2bfd9" d="M 2.8125,0 C 2.362375,0 2,0.3568 2,0.8 V 15.2 C 2,15.6432 2.362375,16 2.8125,16 h 11.375 C 14.637625,16 15,15.6432 15,15.2 V 5 L 10.9375,4 10,0 Z"/>
 <path style="fill:#fafafa" d="M 15,5 10,0 V 4.1666667 C 10,4.6283333 10.371667,5 10.833333,5 Z"/>
 <path style="fill:#ff6600" d="m 9.2899451,9.3974064 c 0.028431,0.033647 0.1038978,0.1083392 0.2264108,0.2240792 1.7196951,1.7942174 2.5464491,2.5943864 2.4799291,2.8093904 -0.04781,0.158155 -0.185616,0.292263 -0.413421,0.402324 -0.227429,0.103662 -0.432322,0.150666 -0.61468,0.141014 -0.144381,-0.0077 -0.830075,-0.559319 -2.0567502,-2.063932 C 8.6639158,10.59511 8.5185409,10.417095 8.4753088,10.376239 8.2955807,10.572407 8.0269263,10.975964 7.6693445,11.586912 7.2090565,12.561708 6.6034122,13.461225 6.2565382,14.4912 6.1505899,14.851947 5.8810567,15.020863 5.4479396,14.997947 5.2199804,14.985887 5.0799215,14.907776 5.0277657,14.763616 4.9756061,14.619455 4.9969353,14.395632 5.0917531,14.092139 5.2737857,13.484754 6.1492203,12.011027 7.7180591,9.6709508 7.7091343,9.5676476 7.4843459,9.1926143 7.0436912,8.5458485 6.6030292,7.899095 6.2531837,7.4091832 5.9941522,7.1576615 5.7134966,6.8857293 5.5966779,6.6770897 5.643697,6.5317425 5.7496398,6.1710025 6.0837606,6.0055035 6.6460591,6.0352464 6.919606,6.0497283 7.4071556,6.6561897 8.1087108,7.7730815 8.4083764,8.2324251 8.6046603,8.5127551 8.6975628,8.614073 8.8593364,8.4619574 9.0899474,8.1817192 9.3893941,7.773356 9.6892222,7.3586008 9.8965713,7.0224995 10.011444,6.7650515 10.125127,6.5268388 10.304457,6.3370824 10.549436,6.1957811 10.794401,6.054497 11.027065,5.9896803 11.247433,6.0013308 c 0.341928,0.018098 0.465685,0.175689 0.371269,0.4727659 C 11.512748,6.8348531 10.896242,7.6281365 9.7691829,8.8539496 9.4752268,9.1726204 9.3154821,9.353772 9.2899447,9.3974064"/>
</svg>
