<svg xmlns="http://www.w3.org/2000/svg" width="16" height="16" version="1.1">
 <path style="fill:#b2bfd9" d="M 2.8125,0 C 2.362375,0 2,0.3568 2,0.8 V 15.2 C 2,15.6432 2.362375,16 2.8125,16 h 11.375 C 14.637625,16 15,15.6432 15,15.2 V 5 L 11,4 10,0 Z"/>
 <path style="fill:#fafafa" d="M 15,5 10,0 V 4.1666667 C 10,4.6283333 10.371667,5 10.833333,5 Z"/>
 <rect style="fill:#1190e6" width="5" height="5" x="7" y="9" rx=".385" ry=".385"/>
 <rect style="fill:#6eca60" width="5" height="5" x="6" y="8" rx=".385" ry=".385"/>
 <rect style="fill:#ffd748" width="5" height="5" x="5" y="7" rx=".385" ry=".385"/>
</svg>
