<svg xmlns="http://www.w3.org/2000/svg" width="16" height="16" version="1.1">
 <path style="fill:#b2bfd9" d="M 2.8125,0 C 2.362375,0 2,0.3568 2,0.8 V 15.2 C 2,15.6432 2.362375,16 2.8125,16 h 11.375 C 14.637625,16 15,15.6432 15,15.2 V 5 L 11,4 10,0 Z"/>
 <path style="fill:#fafafa" d="M 15,5 10,0 V 4.1666667 C 10,4.6283333 10.371667,5 10.833333,5 Z"/>
 <path style="fill:#e2222f" d="m 8.5,6.6111111 -3.5,1.75 V 9.9166667 L 10.133333,11.627778 8.5,12.444444 6.5555556,11.472222 V 10.888889 L 5,10.3705 V 12.25 L 8.5,14 12,12.25 V 10.694444 L 6.8666667,8.9833333 8.5,8.1666667 10.444444,9.1388889 V 9.7222222 L 12,10.240611 V 8.3611111 Z"/>
</svg>
