<svg xmlns="http://www.w3.org/2000/svg" width="16" height="16" version="1.1">
 <path style="fill:#4f4f4f" d="M 2.8125,0 C 2.3605333,0 2,0.35498668 2,0.80000002 V 15.2 c 0,0.4448 0.3605333,0.800001 0.8125,0.800001 h 11.375 C 14.640333,16.000001 15,15.645867 15,15.2 V 6 L 10.53125,4.4000001 9,0 Z"/>
 <path style="fill:#696969" d="M 9,0 V 5.00004 C 9,5.55012 9.44988,6 9.99996,6 H 15 Z"/>
 <g transform="matrix(0.17504504,0,0,0.17507601,11.634784,6.529961)">
  <circle style="fill:#f4f4f7;stroke:#000000;stroke-width:0;stroke-linecap:round;stroke-linejoin:round" cx="-17.917" cy="22.688" r="19.5"/>
  <path style="fill:#e040fb;stroke:#000000;stroke-width:0;stroke-linecap:round;stroke-linejoin:round" d="M -0.596414,12.688108 A 20,20 0 0 0 -27.916922,5.3676 a 20,20 0 0 0 -7.344002,7.408722 l 17.344002,9.911786 z"/>
  <path style="fill:#fdfd4b;stroke:#000000;stroke-width:0;stroke-linecap:round;stroke-linejoin:round" d="m -0.596414,12.688108 -17.320508,10 -0.08886,19.978907 a 20,20 0 0 0 10.088857,-2.658399 20,20 0 0 0 7.320508,-27.320508 z"/>
  <path style="fill:#18ffff;stroke:#000000;stroke-width:0;stroke-linecap:round;stroke-linejoin:round" d="m -17.916922,22.688108 -17.344002,-9.911786 a 20,20 0 0 0 0.02349,19.911786 20,20 0 0 0 17.231651,9.978907 z"/>
 </g>
</svg>
