<svg xmlns="http://www.w3.org/2000/svg" width="16" height="16" version="1">
 <path style="fill:#f17623" d="M 3.8437943,0.00184367 C 2.3447233,0.0681727 0.64781438,1.9145103 0.14602453,4.487426 0.0266388,5.1321233 0.00317088,5.6490641 -4e-8,6.231477 c 0.001396,0.052909 0.001456,0.1053606 0.003908,0.1586121 0.2023855,5.2288419 4.45976004,9.4523509 9.70249294,9.6042459 0.026736,0.0011 0.053072,0.0015 0.079721,0.0024 0.3437101,0.01344 0.7346761,-0.01709 1.0483271,-0.03833 3.949813,-0.385575 6.5267,-3.585568 4.400826,-5.35214 C 14.031973,9.6061059 11.814002,8.8900161 9.4930321,6.5893469 7.0448071,4.1618481 6.3481658,1.8618984 5.3225373,0.67535988 4.8997356,0.18625902 4.3849764,-0.02210185 3.8437943,0.00184367 Z"/>
 <path style="fill:#ffbf55" d="M 4.1367188 0.021484375 A 8.4000008 8.4000009 0 0 0 2 5.5996094 A 8.4000008 8.4000009 0 0 0 10.400391 14 A 8.4000008 8.4000009 0 0 0 15.972656 11.865234 C 15.909117 11.409003 15.679187 10.975101 15.234375 10.605469 C 14.031073 9.6053097 11.813157 8.8905129 9.4921875 6.5898438 C 7.0439625 4.162345 6.3478941 1.8623198 5.3222656 0.67578125 C 4.9768216 0.27616844 4.5691915 0.072698978 4.1367188 0.021484375 z"/>
 <path style="fill:#f4f4f7" d="M 4.1367188,0.02148438 C 2.7710415,1.554087 2.0009722,3.5339998 2,5.5996094 2,10.238802 5.761198,14 10.400391,14 c 2.063749,-0.0025 4.041156,-0.772049 5.572265,-2.136719 l -1.010582,-0.230543 c -1.30672,0.997703 -2.897406,1.564294 -4.561683,1.566481 -4.2065758,0 -7.5991821,-3.391184 -7.5996098,-7.5976565 v -0.00195 C 2.8017139,3.9298666 3.3739938,2.3347027 4.3769577,1.0247223 Z"/>
</svg>
