<svg xmlns="http://www.w3.org/2000/svg" width="16" height="16" version="1.1">
 <path style="fill:#f36128" d="M 2.8008,1 C 2.3576,1 2,1.3576 2,1.8008 V 15.199 C 2,15.642 2.3576,16 2.8008,16 H 13.199 C 13.642,16 14,15.642 14,15.199 V 6 L 9,1 Z"/>
 <path style="fill:#ebb9a1" d="M 14,6 9,1 V 5.1992 C 9,5.6424 9.358,6 9.801,6 Z"/>
 <path style="fill:#b2bfd9" d="M 5.9525,6 C 4.3673,5.999 3.0284,6.519 2,7.3231 V 8.8972 C 2.8406,8.0081 4.0684,7.3879 5.6346,7.3637 5.7391,7.362 5.8451,7.3632 5.9525,7.3669 8.3779,7.4524 9.9919,9.4242 9.9944,11.472 9.9974,13.734 8.6263,15.279 6.3147,15.249 4.7404,15.229 3.2064,14.131 3.2456,12.461 3.2766,11.135 4.1979,10.062 5.6622,10.026 6.8457,9.9979 7.3225,10.831 7.3225,11.346 7.3225,11.834 7.0391,12.464 6.3426,12.616 5.7801,12.738 4.9843,12.137 5.5852,11.317 4.9709,11.288 4.4353,11.684 4.4034,12.385 4.3419,13.744 5.7243,14.272 6.6078,14.128 8.2279,13.863 8.8283,12.788 8.821,11.329 8.8131,9.8017 7.4563,8.4509 5.6977,8.4329 4.29,8.4186 2.6096,9.2412 2,11.035 V 13.784 C 2.3256,14.648 2.9794,15.463 3.9049,16 H 9.0108 C 10.529,15.172 11.499,13.581 11.5,11.464 11.501,8.4173 9.3462,6.0021 5.9525,6 Z"/>
</svg>
