<svg xmlns="http://www.w3.org/2000/svg" width="16" height="16" version="1">
 <rect style="fill:#4f4f4f" width="16" height="16" x="0" y="0" rx=".8" ry=".8"/>
 <path style="fill:#f4f4f7" d="m 6.6838384,2 h 1.8898712 l 0.158094,0.5 h 0.541724 L 14,11.002652 12.982239,13 H 8.8454688 l 0.419204,1 h -0.18298 L 8.6625276,13 H 3.5275388 L 3.2646728,12.5 H 2.9395916 L 2,10.649214 v 0 L 3.2042516,8.5603692 4.3197244,7.9174232 6.165206,4.7220388 5.79398,4.0790536 Z M 7.7975164,5.365024 4.5328564,11 H 7.6572096 L 7.2966324,9.99805 10.502,10.00195 Z"/>
</svg>
