<svg xmlns="http://www.w3.org/2000/svg" width="16" height="16" version="1.1">
 <path style="fill:#b2bfd9" d="M 2.8125,0 C 2.3605333,0 2,0.35498668 2,0.80000002 V 15.2 c 0,0.4448 0.3605333,0.800001 0.8125,0.800001 h 11.375 C 14.640333,16.000001 15,15.645867 15,15.2 V 5 L 10.53125,4.4000001 10,0 Z"/>
 <path style="fill:#fafafa" d="M 10,0 V 4.1667 C 10,4.6251 10.3749,5 10.8333,5 H 15 Z"/>
 <path style="fill:#1c69d4" d="m 4,6 v 4 H 8 V 6 Z"/>
 <path style="fill:#1c69d4" d="m 9,10 v 4 h 4 v -4 z"/>
</svg>
