<svg xmlns="http://www.w3.org/2000/svg" width="16" height="16" version="1.1">
 <path style="fill:#00cc5c" d="M 2.75,1 C 2.3328,1 2,1.3328 2,1.75 V 15.25 C 2,15.667 2.3328,16 2.75,16 H 13.25 C 13.668,16 14,15.668 14,15.25 V 6 L 9.875,5.125 9,1 Z"/>
 <path style="fill:#6ef1a8" d="M 9,1 V 5.1667 C 9,5.6251 9.3749,6 9.8333,6 H 14 Z"/>
 <path style="fill:#f4f4f7" d="M 11,6.9999843 C 10.08807,8.0840371 8.2107761,9.1158306 7.0253214,9.5221456 3.8440768,10.84123 5.3618811,13.995492 5.3618811,13.995492 6.3269002,13.159879 10.667311,7.5730162 10.667311,7.5730162 c 0,0 -3.4097459,5.1118728 -4.9571165,6.4224758 v 0.0027 C 9.8630181,14.078851 10.029225,11.442603 10.336577,9.8336036 10.65268,8.1788434 11,6.9999843 11,6.9999843 Z"/>
</svg>
