<svg xmlns="http://www.w3.org/2000/svg" width="16" height="16" version="1.1">
 <path style="fill:#1ab5bc" d="M 2.8125,0 C 2.362375,0 2,0.3568 2,0.8 v 10.76 c 0,0.4432 0.4110495,1.00046 0.8125,0.8 L 14.1875,6.68 C 14.588951,6.4795396 15,6.3232 15,5.88 V 5 L 11,4 10,0 Z"/>
 <path style="fill:#df5b6f" d="M 11.620667,4.4976564 5.0048216,9.3242188 14.155762,16 H 14.1875 C 14.637625,16 15,15.6432 15,15.2 V 5 Z"/>
 <path style="fill:#445c5c" d="M 5.0175169,9.2882812 2,11.489844 V 15.2 C 2,15.6432 2.362375,16 2.8125,16 h 11.375 c 0.01657,0 0.03208,-0.0037 0.0484,-0.0047 z"/>
 <path style="fill:#9f327b" d="M 11.620667,4.4976564 5.0048216,9.3242188 15,5.5945312 V 5 Z"/>
 <path style="fill:#f4f4f7" d="M 6.5 6 C 6.2229996 6 6 6.223 6 6.5 C 6 6.7770003 6.2229996 7 6.5 7 C 6.7770004 7 7 6.7770003 7 6.5 C 7 6.223 6.7770004 6 6.5 6 z M 10.142578 6 L 9 7.2011719 L 10.714844 9 L 9 10.798828 L 10.142578 12 L 11.857422 10.201172 L 13 9 L 11.857422 7.7988281 L 10.142578 6 z M 5.25 9.5 C 4.8345034 9.5 4.5 9.834497 4.5 10.25 C 4.5 10.665497 4.8345034 11 5.25 11 C 5.665503 11 6 10.665497 6 10.25 C 6 9.834497 5.665503 9.5 5.25 9.5 z M 7 12 C 6.446 12 6 12.446 6 13 C 6 13.554 6.446 14 7 14 C 7.554 14 8 13.554 8 13 C 8 12.446 7.554 12 7 12 z"/>
 <path style="fill:#64d6db" d="M 10,0 V 4.1666667 C 10,4.6269167 10.373095,5 10.833333,5 H 15 Z"/>
</svg>
