<svg width="16" height="16" version="1.1" xmlns="http://www.w3.org/2000/svg">
 <path d="M 2.8008,1 C 2.3576,1 2,1.3576 2,1.8008 V 15.199 C 2,15.642 2.3576,16 2.8008,16 H 13.199 C 13.642,16 14,15.642 14,15.199 V 6 L 10,5 9,1 Z" style="fill:#df393f"/>
 <path d="M 14,6 9,1 V 5.1992 C 9,5.6424 9.358,6 9.801,6 Z" style="fill:#e76d71"/>
 <path d="m6 6c-0.554 0-1 0.446-1 1v2c0 0.554 0.446 1 1 1h4c0.554 0 1-0.446 1-1v-2c0-0.554-0.446-1-1-1h-4zm0.5253906 1h2.9492188c0.2910847 0 0.5253906 0.2343059 0.5253906 0.5253906v0.9492188c0 0.2910847-0.2343059 0.5253906-0.5253906 0.5253906h-2.9492188c-0.2910847 0-0.5253906-0.2343059-0.5253906-0.5253906v-0.9492188c0-0.2910847 0.2343059-0.5253906 0.5253906-0.5253906z" style="fill:#f4f4f7"/>
 <path d="m6 11c-0.554 0-1 0.446-1 1v2c0 0.554 0.446 1 1 1h4c0.554 0 1-0.446 1-1v-2c0-0.554-0.446-1-1-1h-4zm0.5253906 1h2.9492188c0.2910847 0 0.5253906 0.234306 0.5253906 0.525391v0.949218c0 0.291085-0.2343059 0.525391-0.5253906 0.525391h-2.9492188c-0.2910847 0-0.5253906-0.234306-0.5253906-0.525391v-0.949218c0-0.291085 0.2343059-0.525391 0.5253906-0.525391z" style="fill:#f4f4f7"/>
</svg>
