<svg xmlns="http://www.w3.org/2000/svg" width="16" height="16" version="1.1">
 <path style="fill:#ce5068" d="m2.75 1c-0.4172 0-0.75 0.3328-0.75 0.75v13.5c0 0.417 0.3328 0.75 0.75 0.75h10.5c0.418 0 0.75-0.332 0.75-0.75v-9.25l-4.125-0.875-0.875-4.125z"/>
 <path style="opacity:0.5;fill:#f4f4f7" d="m 8,8.9004 c -1.1578,0 -2.0996,0.9418 -2.0996,2.0996 0,1.158 0.9418,2.1 2.0996,2.1 1.1578,0 2.1,-0.942 2.1,-2.1 C 10.1,9.8422 9.1578,8.9004 8,8.9004 Z M 8,10 c 0.5521,0 1,0.4479 1,1 0,0.552 -0.4479,1 -1,1 -0.5521,0 -1,-0.448 -1,-1 0,-0.5521 0.4479,-1 1,-1 z"/>
 <path style="fill:#ef8b9d" d="m9 1v4.1667c0 0.4584 0.3749 0.8333 0.8333 0.8333h4.1667z"/>
 <path style="fill:#f4f4f7" d="m 8,7 c -2.2164,0 -4,1.7836 -4,4 0,2.216 1.7836,4 4,4 2.216,0 4,-1.784 4,-4 C 12,8.7836 10.216,7 8,7 Z m 0,2 c 1.1062,0 2,0.8938 2,2 0,1.106 -0.8938,2 -2,2 C 6.8938,13 6,12.106 6,11 6,9.8938 6.8938,9 8,9 Z"/>
</svg>
