<svg xmlns="http://www.w3.org/2000/svg" width="16" height="16" version="1.1">
 <path style="fill:#e61c61" d="M 2.8125,0 C 2.3605334,0 2,0.35498667 2,0.8 V 15.2 C 2,15.6448 2.3605334,16 2.8125,16 h 11.375 C 14.640334,16 15,15.645867 15,15.2 V 5 L 11,4 10,0 Z"/>
 <path style="fill:#f0709c" d="M 10,0 V 4.1667 C 10,4.6251 10.3749,5 10.8333,5 H 15 Z"/>
 <path style="fill:#f4f4f7" d="M 8.5,7 C 7.4502,7 6.5567,7.3907 6.1855,7.9375 6.1514,7.9844 6.1261,8.0312 6.1016,8.0781 6.0772,8.1251 6.0595,8.1718 6.0449,8.2188 6.0399,8.2344 6.03806,8.249416 6.033181,8.259816 6.023431,8.296349 6.014619,8.328225 6.009744,8.359425 c -0.0048,0.0469 -0.0097,0.0937 -0.0097,0.1406 0,0.046933 0.00393,0.099551 0.013672,0.14648 0.00487,0.0468 0.020406,0.093825 0.035156,0.14062 0.014625,0.046933 0.033234,0.093825 0.052734,0.14062 0.0245,0.046933 0.054734,0.087832 0.083984,0.13477 0.3809,0.5677 1.2989,0.9375 2.3145,0.9375 1.0156,0 1.9336,-0.3698 2.3145,-0.9375 0.02925,-0.041733 0.04886,-0.078701 0.06836,-0.11523 0.005,-0.0104 0.01077,-0.014991 0.01563,-0.025391 0.01462,-0.0312 0.02736,-0.068409 0.03711,-0.099609 0.0049,-0.0156 0.01466,-0.031142 0.01953,-0.046875 0.0099,-0.026 0.01661,-0.055898 0.02149,-0.082031 0.0049,-0.0208 0.0089,-0.042359 0.01367,-0.068359 0.0048,-0.0417 0.0097,-0.0834 0.0097,-0.125 0,-0.0521 -0.004,-0.0983 -0.0137,-0.1504 -0.0244,-0.1459 -0.084,-0.2818 -0.1718,-0.4121 -0.3712,-0.5468 -1.2647,-0.9375 -2.3145,-0.9375 z M 6.1855,10 C 6.0635,10.172 6,10.359 6,10.547 6,11.349 7.1181,12 8.5,12 9.8819,12 11,11.349 11,10.547 11,10.359 10.9365,10.172 10.8145,10 10.4336,10.547 9.5205,11 8.5,11 7.4795,11 6.5664,10.547 6.1855,10 Z m 0,2 C 6.0635,12.172 6,12.36 6,12.547 6,13.35 7.1181,14 8.5,14 9.8819,14 11,13.349 11,12.547 11,12.36 10.9365,12.172 10.8145,12 10.4336,12.547 9.5205,13 8.5,13 7.4795,13 6.5664,12.547 6.1855,12 Z"/>
</svg>
