<svg xmlns="http://www.w3.org/2000/svg" width="16" height="16" version="1">
 <rect style="fill:#b2bfd9" width="16" height="16" x="0" y="0" rx=".8" ry=".8"/>
 <path style="fill:#4e9a06" d="M 7 1 L 7 9 L 8 9 L 8 7 L 16 7 L 16 6 L 8 6 L 8 1 L 7 1 z M 0 11 L 0 12 L 5 12 L 5 11 L 0 11 z M 7 14 L 7 16 L 8 16 L 8 14 L 7 14 z"/>
 <rect style="fill:#e8cc8d" width="4.3" height="1.9" x="10.48" y="5.6"/>
 <rect style="fill:#e8cc8d" width="2.4" height="2.4" x="6.4" y="0"/>
 <path style="fill:#d71010" d="M 6 0 L 6 2.59375 C 6.0000207 2.8146548 6.1682318 2.9941185 6.375 2.9941406 L 8.5585938 2.9941406 C 8.6800951 3.0161896 8.8027914 2.973341 8.8886719 2.8789062 C 8.8886719 2.8789062 8.890625 2.8769531 8.890625 2.8769531 C 8.8916037 2.8759231 8.8935613 2.87605 8.8945312 2.875 C 8.8955099 2.87397 8.8955144 2.8721438 8.8964844 2.8710938 C 8.9773405 2.7805435 9.0147526 2.6547982 8.9960938 2.53125 L 8.9960938 0 L 8 0 L 8 2 L 7 2 L 7 0 L 6 0 z M 10.361328 5 A 0.35681864 0.37443981 0 0 0 10.005859 5.375 L 10.005859 7.5585938 A 0.35681864 0.37443981 0 0 0 10.107422 7.8886719 A 0.35681864 0.37443981 0 0 0 10.109375 7.890625 A 0.35681864 0.37443981 0 0 0 10.115234 7.8964844 A 0.35681864 0.37443981 0 0 0 10.417969 7.9960938 L 14.642578 7.9960938 A 0.35681864 0.37443981 0 0 0 15 7.6210938 L 15 5.375 A 0.35681864 0.37443981 0 0 0 14.642578 5 L 10.361328 5 z M 11 6 L 14 6 L 14 7 L 11 7 L 11 6 z M 5.4921875 7.9921875 A 0.50005 0.50005 0 0 0 5 8.5 L 5 11 L 4.5078125 11 A 0.50005 0.50005 0 1 0 4.5078125 12 L 5 12 L 5 12.306641 A 0.50005 0.50005 0 0 0 5 12.482422 L 5 13 A 0.50005 0.50005 0 0 0 5.9082031 13.296875 L 6.375 13.623047 L 5.9667969 13.75 A 0.50005 0.50005 0 1 0 6.2617188 14.705078 L 7.5605469 14.304688 A 0.50005 0.50005 0 0 0 7.9609375 13.587891 L 7.4824219 11.865234 A 0.50005 0.50005 0 0 0 6.9550781 11.494141 A 0.50005 0.50005 0 0 0 6.5175781 12.134766 L 6.6445312 12.589844 L 6 12.138672 L 6 11.617188 A 0.50005 0.50005 0 0 0 6 11.378906 L 6 10.835938 L 7.7832031 9.6132812 A 0.50005 0.50005 0 0 0 7.4824219 8.6972656 A 0.50005 0.50005 0 0 0 7.2167969 8.7871094 L 6 9.6210938 L 6 8.5 A 0.50005 0.50005 0 0 0 5.4921875 7.9921875 z"/>
 <path style="fill:#4e9a06" d="M 7.5,5 C 6.679743,5 6,5.6797425 6,6.5 6,7.3202575 6.679743,8 7.5,8 8.3202575,8 9,7.3202575 9,6.5 9,5.6797425 8.3202575,5 7.5,5 Z"/>
 <path style="fill:#3c3d3a" d="M 3.5 3 A 0.50005 0.50005 0 1 0 3.5 4 L 4.5 4 A 0.50005 0.50005 0 1 0 4.5 3 L 3.5 3 z M 2.5 5 A 0.50005 0.50005 0 1 0 2.5 6 L 4.5 6 A 0.50005 0.50005 0 1 0 4.5 5 L 2.5 5 z M 9.4726562 10 A 0.50005 0.50005 0 0 0 9.5078125 11 L 10.507812 11 A 0.50005 0.50005 0 1 0 10.507812 10 L 9.5078125 10 A 0.50005 0.50005 0 0 0 9.4726562 10 z M 9.4726562 12 A 0.50005 0.50005 0 0 0 9.5078125 13 L 11.507812 13 A 0.50005 0.50005 0 1 0 11.507812 12 L 9.5078125 12 A 0.50005 0.50005 0 0 0 9.4726562 12 z"/>
</svg>
