<svg xmlns="http://www.w3.org/2000/svg" width="16" height="16" version="1">
 <g transform="matrix(.57143 0 0 .57143 -1.1429 -1.1429)">
  <path fill="#e44545" d="m16 2h-12.5c-0.831 0-1.5 0.669-1.5 1.5v12.5h14z"/>
  <path fill="#38ac52" d="m16 2h12.5c0.831 0 1.5 0.669 1.5 1.5v12.5h-14z"/>
  <path fill="#f2ae37" d="m16 30h-12.5c-0.831 0-1.5-0.669-1.5-1.5v-12.5h14z"/>
  <path fill="#3776f2" d="m16 30h12.5c0.831 0 1.5-0.669 1.5-1.5v-12.5h-14z"/>
 </g>
 <rect style="fill:#f4f4f7" width="10" height="10" x="3" y="3"/>
</svg>
