<svg xmlns="http://www.w3.org/2000/svg" width="16" height="16" version="1.1">
 <path fill="#b2bfd9" d="m2.75 1c-0.4172 0-0.75 0.3328-0.75 0.75v13.5c0 0.417 0.3328 0.75 0.75 0.75h10.5c0.418 0 0.75-0.332 0.75-0.75v-9.25l-4.125-0.875-0.875-4.125z"/>
 <path fill="#fafafa" d="m9 1v4.1667c0 0.4584 0.3749 0.8333 0.8333 0.8333h4.1667z"/>
 <path opacity=".5" d="m5.3398 8.0313c-0.2859 0.1735-0.8515 0.4187-1.3203 0.5546l0.013672 0.041016c0.225-0.0234 0.45859-0.05619 0.68359-0.09375v0.57227h-0.69336l0.019531 0.060547h0.56641c-0.1126 0.4595-0.3141 0.947-0.6094 1.299l0.046875 0.04297c0.2718-0.1968 0.4964-0.42689 0.66992-0.68945v1.1816h0.070312c0.19219 0 0.31368-0.075 0.31836-0.09375v-1.3359c0.14063 0.12656 0.27265 0.32696 0.30078 0.48633 0.046876 0.04219 0.098828 0.06055 0.15039 0.06055 0.098437 0 0.18164-0.07344 0.18164-0.17188 0-0.14063-0.1547-0.31991-0.63281-0.42773v-0.35156h0.52148c0.0984 0.00012 0.14575-0.014521 0.17383-0.056641l-0.3613-0.242-0.1934 0.2383h-0.14062v-0.64648c0.16406-0.0375 0.32461-0.075781 0.45117-0.11328 0.046876 0.00937 0.088285 0.019531 0.12109 0.019531 0.046874 0 0.083984-0.010541 0.10742-0.029297l-0.4454-0.3047zm1.7109 0.44141-0.16406 0.1875h-0.64648l-0.41211-0.1543v2.4277c0.35156 0 0.39453-0.12618 0.39453-0.13086v-0.23047h0.70312v0.30469c0.29531 0 0.39844-0.08906 0.39844-0.09375v-1.9727c0.0798-0.01404 0.1348-0.042232 0.1582-0.070312l-0.4314-0.2673zm-0.82812 0.24805h0.70312v1.7871h-0.70312v-1.7871z"/>
 <path opacity=".5" d="m10.498 11.576v0.002c-0.4125 0-0.71172 0.09766-0.89453 0.28516-0.15469 0.15937-0.24414 0.40391-0.26758 0.72266h-0.70898v-0.60547c0-0.07969 0.015624-0.13516 0.039062-0.16797 0.023437-0.03281 0.060937-0.05196 0.11719-0.05664l0.10742-0.0039c0.042187-0.0047 0.060547-0.025 0.060547-0.0625 0-0.02813-0.00509-0.04609-0.00977-0.05078-0.00469-0.0047-0.022656-0.0098-0.050781-0.0098-0.00469 0-0.023828 0.0012-0.056641 0.0059-0.12187 0.0047-0.23906 0.0039-0.35156 0.0039-0.12187 0-0.24453 0.000794-0.37109-0.0039-0.028126-0.0047-0.046092-0.0059-0.050781-0.0059-0.028124 0-0.041405 0.0051-0.050781 0.0098-0.0047 0.004-0.0098 0.023-0.0098 0.05 0 0.0375 0.024217 0.0578 0.066406 0.0625l0.10156 0.0039c0.05625 0.0047 0.09375 0.02384 0.11719 0.05664 0.023437 0.03281 0.039063 0.08829 0.039063 0.16797v1.6172c0 0.07969-0.015626 0.1371-0.039063 0.16992-0.023437 0.03281-0.060937 0.05001-0.11719 0.05469l-0.10156 0.0059c-0.00469 0-0.00509 0.0039-0.00977 0.0039-0.0375-0.002-0.0566 0.017-0.0566 0.05 0 0.02813 0.00509 0.04727 0.00977 0.05664 0.00937 0.0047 0.027344 0.0098 0.050781 0.0098 0.00469 0 0.022655-0.0012 0.050781-0.0059 0.12656-0.0047 0.25-0.0051 0.36719-0.0098 0.11719 0 0.2336 0.0051 0.35547 0.0098 0.028126 0.0047 0.047266 0.0059 0.056641 0.0059 0.028124 0 0.041406-0.0051 0.050781-0.0098 0.00469-0.0094 0.00977-0.02853 0.00977-0.05664 0-0.03281-0.017968-0.05078-0.050781-0.05078-0.00469-0.0047-0.00509-0.0059-0.00977-0.0059l-0.10352-0.0039c-0.060937-0.0047-0.097659-0.02384-0.12109-0.05664-0.023438-0.03281-0.039063-0.08827-0.039062-0.16797v-0.66602h0.70312c0.01875 0.34687 0.1 0.61446 0.25 0.7832 0.1734 0.193 0.4489 0.286 0.8279 0.286 0.4125 0 0.71798-0.09883 0.91016-0.29102 0.1875-0.19219 0.28516-0.4961 0.28516-0.91797 0-0.43126-0.08828-0.73554-0.26172-0.92774-0.17344-0.19219-0.4547-0.28711-0.84375-0.28711zm-0.03711 0.11914c0.28594 0 0.48672 0.0832 0.61328 0.25195 0.12656 0.17344 0.1875 0.44999 0.1875 0.84375 0 0.38437-0.06094 0.6625-0.1875 0.83594-0.12656 0.16874-0.33202 0.25195-0.61328 0.25195-0.28594 0-0.49336-0.08319-0.61523-0.25195-0.12656-0.17344-0.19141-0.45001-0.19141-0.84375 0-0.37969 0.06484-0.65664 0.19141-0.83008s0.33398-0.25781 0.61523-0.25781z"/>
</svg>
