<svg xmlns="http://www.w3.org/2000/svg" width="16" height="16" version="1.1">
 <path style="fill:#764ebf" d="M 2.75,1 C 2.3328,1 2,1.3328 2,1.75 V 15.25 C 2,15.667 2.3328,16 2.75,16 H 13.25 C 13.668,16 14,15.668 14,15.25 V 6 L 9.875,5.125 9,1 Z"/>
 <path style="fill:#b7a2dd" d="M 9,1 V 5.1667 C 9,5.6251 9.3749,6 9.8333,6 H 14 Z"/>
 <path style="fill:#f4f4f7" d="M 4 8 L 4 9 L 5 9 L 5 8 L 4 8 z M 6 8 L 6 9 L 12 9 L 12 8 L 6 8 z M 4 10 L 4 11 L 5 11 L 5 10 L 4 10 z M 6 10 L 6 11 L 12 11 L 12 10 L 6 10 z M 4 12 L 4 13 L 5 13 L 5 12 L 4 12 z M 6 12 L 6 13 L 12 13 L 12 12 L 6 12 z"/>
</svg>
