<svg xmlns="http://www.w3.org/2000/svg" width="16" height="16" version="1.1">
 <path style="fill:#b2bfd9" d="M 2.8675333,0 C 2.3874,0 2,0.38144001 2,0.85418669 V 15.1456 c 0,0.472534 0.3874,0.854401 0.8675333,0.854401 H 14.13225 C 14.612166,16.000001 15,15.618134 15,15.1456 V 5 L 10,0 Z"/>
 <path style="fill:#f8f8f0" d="M 15,5 10,0 V 4.1992 C 10,4.6424 10.358,5 10.801,5 Z"/>
 <path style="fill:#d6342a" d="m 8.5000075,5.9999602 c -0.1511809,2.986e-4 -0.3022507,0.00822 -0.4526346,0.023721 -0.1429968,0.014387 -0.2839712,0.035756 -0.4227535,0.063283 -0.00616,8.872e-4 -0.01231,0.00179 -0.018463,0.0027 -0.1304521,0.026434 -0.2579445,0.06093 -0.3840805,0.098434 -0.0179,0.00458 -0.035772,0.00927 -0.053614,0.014066 C 7.0261967,6.2463796 6.8868655,6.2966123 6.7509813,6.3542147 6.6167337,6.4110798 6.4853291,6.4744356 6.3572322,6.5440577 6.1031315,6.6823471 5.8629583,6.8448175 5.6400471,7.0292131 5.5288066,7.1210027 5.422043,7.2180869 5.3201261,7.3201297 5.2229349,7.4174908 5.1302595,7.5192576 5.0423919,7.6251094 c -0.00514,0.00617 -0.010671,0.012214 -0.015827,0.018463 -0.071063,0.087944 -0.1387871,0.1785361 -0.2030267,0.2715819 -0.022821,0.032348 -0.046569,0.06372 -0.068554,0.096685 -0.048839,0.074768 -0.095442,0.1509744 -0.1397467,0.2285163 -0.031191,0.053396 -0.063257,0.1060841 -0.092288,0.1608387 C 4.4868307,8.4708905 4.4525418,8.5415199 4.420118,8.61301 4.390007,8.677797 4.360178,8.742611 4.333101,8.8090064 4.3062398,8.8769373 4.2810367,8.9455122 4.257514,9.0146701 4.231916,9.0874411 4.206458,9.1599889 4.184563,9.2343955 4.1660894,9.299628 4.1490924,9.3652696 4.133585,9.4312701 4.114364,9.5096211 4.095014,9.5878131 4.079971,9.6676956 4.0666061,9.7432693 4.0551767,9.8191725 4.045694,9.8953308 4.036184,9.9659678 4.026447,10.036399 4.020211,10.108025 4.0077764,10.238327 4.001033,10.369109 4,10.499999 c 3.029e-4,0.151182 0.00822,0.302252 0.023734,0.452636 0.077374,0.769027 0.3498446,1.481171 0.7664035,2.087397 0.00386,0.0055 0.00759,0.01118 0.011443,0.0167 0.032244,0.04632 0.065357,0.09203 0.099321,0.13711 2.391e-4,-0.0014 6.3e-4,-0.003 9e-4,-0.0044 C 5.7235432,14.285619 7.0287767,15 8.500016,15 c 0.8450828,0 1.634101,-0.238587 2.310639,-0.645994 l 9e-4,9e-4 c 0.0091,-0.0061 0.01818,-0.01227 0.02724,-0.01846 0.107332,-0.06571 0.211702,-0.134973 0.31289,-0.20918 0.02331,-0.01706 0.04645,-0.03434 0.06943,-0.05185 0.08886,-0.06781 0.174897,-0.138607 0.258397,-0.212695 0.03386,-0.03026 0.06727,-0.06102 0.100196,-0.09229 0.06957,-0.06556 0.136852,-0.133219 0.202148,-0.203027 0.03887,-0.04117 0.07697,-0.08307 0.114261,-0.125678 0.06134,-0.0707 0.119752,-0.143523 0.17666,-0.217968 0.03116,-0.0402 0.06163,-0.08093 0.0914,-0.122168 0.0598,-0.08393 0.115585,-0.170351 0.169628,-0.258397 0.02248,-0.03572 0.04445,-0.07176 0.06592,-0.108103 0.05352,-0.09296 0.102497,-0.188682 0.149414,-0.285644 0.01838,-0.03696 0.03625,-0.07417 0.05361,-0.111625 0.04206,-0.09342 0.07941,-0.188999 0.115135,-0.285644 0.01745,-0.04572 0.03416,-0.09172 0.05011,-0.137988 0.03101,-0.0932 0.05766,-0.18811 0.08262,-0.283886 0.0131,-0.04814 0.0254,-0.09649 0.03689,-0.145037 0.02035,-0.09054 0.03619,-0.182609 0.05098,-0.275098 0.01033,-0.06074 0.01941,-0.121695 0.02724,-0.182812 0.0094,-0.07925 0.01421,-0.1595 0.01934,-0.239941 0.008,-0.09562 0.01303,-0.191466 0.01494,-0.287401 0,-0.151725 -0.0081,-0.301197 -0.02285,-0.449121 l -9e-4,-0.0035 c -0.01439,-0.1429956 -0.03576,-0.2839713 -0.06328,-0.4227522 -0.0012,-0.00604 -0.0014,-0.012471 -0.0027,-0.018463 -0.02643,-0.1304521 -0.06093,-0.2579446 -0.09843,-0.3840818 -0.005,-0.017023 -0.008,-0.034907 -0.01318,-0.051853 l -0.0018,-0.00617 C 12.752937,9.0233351 12.702717,8.8855712 12.645685,8.7510408 12.58882,8.6167933 12.525465,8.4853886 12.455843,8.3572917 12.317553,8.1031905 12.155083,7.8630168 11.970687,7.6401053 11.878897,7.5288647 11.781812,7.4221012 11.679769,7.3201843 11.582408,7.2229932 11.480642,7.1303178 11.37479,7.0424502 c -0.005,-0.0044 -0.01,-0.0088 -0.01494,-0.013179 -0.0011,-9.45e-4 -0.0024,-0.00167 -0.0035,-0.0027 -0.08794,-0.071063 -0.178517,-0.1387864 -0.271553,-0.2030266 -0.03235,-0.022821 -0.06372,-0.046569 -0.09668,-0.068554 -0.07477,-0.048839 -0.150977,-0.095442 -0.22852,-0.1397454 -0.0534,-0.031204 -0.106084,-0.063257 -0.16084,-0.092288 -0.0697,-0.036119 -0.140325,-0.070408 -0.211815,-0.1028315 -0.06478,-0.030111 -0.129601,-0.05994 -0.195995,-0.087017 C 10.123026,6.3062527 10.054461,6.2810539 9.9853127,6.2575351 9.9125527,6.2319491 9.8399938,6.2064791 9.7655868,6.1845841 9.7003545,6.1661103 9.6347131,6.149113 9.5687128,6.1336053 9.4903608,6.114384 9.4121698,6.095034 9.3322868,6.0799912 9.2567128,6.0666263 9.1808093,6.0551968 9.1046508,6.0457142 9.0340108,6.0362042 8.9635838,6.0264672 8.8919568,6.0202312 8.7616491,6.007796 8.6308608,6.0010525 8.4999651,6.0000199 Z m -0.6837862,0.6495104 0.175727,1.42734 1.0081035,-0.883299 v 2.4679638 l 2.8749472,1.6637526 -0.740915,0.685545 -2.0592722,-0.0211 1.1531222,1.67081 c -0.5125332,0.27996 -1.1008322,0.439453 -1.7279265,0.439453 -1.5000714,0 -2.7800368,-0.909921 -3.3222572,-2.209565 C 5.4615569,10.793875 5.8854482,9.7352353 6.4925906,9.144676 6.751601,8.1914948 7.2570333,7.4025322 7.8162213,6.649468 Z m 0.2838322,3.4004794 0.43247,0.383202 0.8674787,0.06679 C 9.2883888,10.230154 8.6135668,10.105881 8.1000496,10.049946 Z"/>
</svg>
