<svg xmlns="http://www.w3.org/2000/svg" width="16" height="16" version="1.1">
 <path fill="#b2bfd9" d="m2.75 1c-0.4172 0-0.75 0.3328-0.75 0.75v13.5c0 0.417 0.3328 0.75 0.75 0.75h10.5c0.418 0 0.75-0.332 0.75-0.75v-9.25l-4.125-0.875-0.875-4.125z"/>
 <path fill="#fafafa" d="m9 1v4.1667c0 0.4584 0.3749 0.8333 0.8333 0.8333h4.1667z"/>
 <path style="opacity:0.5" d="M 7.5,8 C 6.5016,8 6,9.0781 6,10 H 6.9 C 6.914,9.8803 6.9,9.776 6.9,9.6667 6.9,9.2969 7.1672,9 7.5,9 c 0.33281,0 0.499685,0.29688 0.499685,0.66667 0,0.036459 -0.00469,0.072918 -0.00937,0.10937 v 0.020833 c -0.1031,0.6355 -0.9809,1.032962 -0.9903,2.027962 V 12 H 8.10003 c 0,-0.62533 -0.05628,-0.541527 0.21564,-0.843697 l 0.3375,-0.3852 c 0.2109,-0.2396 0.3469,-0.5729 0.3469,-0.9375 0,-0.9218 -0.5016,-1.8333 -1.5,-1.8333 z m -0.500015,5 v 1 H 8.1 v -1 z"/>
</svg>
