<svg xmlns="http://www.w3.org/2000/svg" width="16" height="16" version="1.1">
 <path style="fill:#b2bfd9" d="M 2.8675333,0 C 2.3874,0 2,0.38144001 2,0.85418669 V 15.1456 c 0,0.472534 0.3874,0.854401 0.8675333,0.854401 H 14.13225 C 14.612166,16.000001 15,15.618134 15,15.1456 V 5 L 10,0 Z"/>
 <path style="fill:#f8f8f0" d="M 15,5 10,0 V 4.1992 C 10,4.6424 10.358,5 10.801,5 Z"/>
 <path style="fill:#d6342a;fill-rule:evenodd" d="m 5.6074219,6.2183594 c 0,0 0.6283276,1.6841154 0.3125,2.7636718 C 5.6040946,10.061588 4,11.275 4,11.275 c 0,0 2.0965423,0.116964 2.8925781,0.630859 C 7.6886143,12.419754 8.4980469,14.4 8.4980469,14.4 c 0,0 1.0756807,-2.181862 1.5253911,-2.494141 C 10.473147,11.593581 13,11.275 13,11.275 c 0,0 -1.846835,-1.757981 -2.003906,-2.2480469 -0.157072,-0.4900682 0.396484,-2.8066406 0.396484,-2.8066406 0,0 -1.7733896,0.8164062 -2.9414061,0.8164063 -1.1680167,0 -2.84375,-0.8183594 -2.84375,-0.8183594 z m 1.2578125,1.4804687 c 0.4994124,0.1549403 0.9964158,0.3378906 1.5859375,0.3378907 0.5972307,0 1.1180129,-0.1818942 1.6347661,-0.3378907 -0.0313,0.1953089 -0.06833,0.3921502 -0.087891,0.5800781 -0.034445,0.3309079 -0.1163593,0.5514869 0.044922,1.0546876 0.160112,0.4995532 0.34372,0.6284502 0.564453,0.8925782 0.103455,0.123794 0.226794,0.248582 0.341797,0.375 -0.171928,0.03458 -0.348465,0.06385 -0.509766,0.103516 -0.338637,0.08327 -0.5789567,0.09603 -0.986328,0.378906 -0.4073292,0.28285 -0.5058471,0.508849 -0.6933594,0.792968 C 8.6589392,12.029335 8.5661837,12.199616 8.46875,12.364844 8.201421,11.905228 7.9822301,11.418936 7.4355469,11.066016 6.9516895,10.753653 6.456704,10.709765 5.9667969,10.616797 6.3143337,10.21949 6.7025928,9.864 6.8789062,9.2613281 7.0489089,8.6802282 6.9311178,8.1960672 6.8652344,7.6988281 Z"/>
</svg>
