<svg xmlns="http://www.w3.org/2000/svg" width="16" height="16" version="1.1">
 <path style="fill:#df393f" d="M 2.8125,0 C 2.362375,0 2,0.3568 2,0.8 V 15.2 C 2,15.6432 2.362375,16 2.8125,16 h 11.375 C 14.637625,16 15,15.6432 15,15.2 V 5 L 11,4 10,0 Z"/>
 <path style="fill:#e76d71" d="M 15,5 10,0 V 4.1666666 C 10,4.6283334 10.371666,5 10.833334,5 Z"/>
 <path style="fill:#f4f4f7" d="M 4.2905273,9 C 3.5457458,9 3,9.104004 3,9.104004 v 0.4599608 c 0.3380505,-0.093345 0.7172719,-0.1728514 1.1579591,-0.1728514 0.4729298,0 0.8342284,0.1612717 0.8342284,0.3889158 0,0.2744788 -0.3568489,0.4306638 -1.125,0.4306638 H 3.75 v 0.413818 h 0.092286 c 0.8091687,0 1.2692869,0.139095 1.2692869,0.478272 0,0.302798 -0.4117069,0.487061 -0.9243161,0.487061 -0.4469846,0 -0.8555951,-0.108758 -1.1872564,-0.213867 v 0.495849 C 3.159297,11.903086 3.5816689,12 4.3688966,12 5.2409261,12 6,11.679658 6,11.115234 6,10.641866 5.4740903,10.364502 5.1628418,10.364502 c 0,0 0.7287596,-0.133317 0.72876,-0.651123 C 5.8916018,9.2072265 5.1157211,9 4.2905273,9 Z"/>
 <path style="fill:#f4f4f7" d="M 7 9 L 7 12 L 8.3457031 12 C 8.6978907 12 9.0994297 11.918079 9.3125 11.789062 C 9.8322358 11.475488 10 10.975035 10 10.5 C 10 10.025297 9.8305107 9.5239612 9.3125 9.2109375 C 9.099264 9.0822528 8.6978907 9 8.3457031 9 L 7 9 z M 7.75 9.375 L 8.1777344 9.375 C 8.8350207 9.375 9.25 9.7738449 9.25 10.503906 C 9.25 11.234194 8.8350207 11.625 8.1777344 11.625 L 7.75 11.625 L 7.75 9.375 z"/>
 <path style="fill:#f4f4f7" d="m 12.358817,9 c -0.819436,0 -1.356724,0.2875777 -1.356724,0.7770997 0,0.4726593 0.446556,0.6824793 1.055385,0.9484863 0.455488,0.197341 0.614536,0.307488 0.614536,0.495849 0,0.209937 -0.171441,0.37793 -0.583844,0.37793 -0.376641,0 -0.859405,-0.08669 -1.08817,-0.193359 V 11.90625 C 11.321049,11.967253 11.609384,12 12.02818,12 13.04775,12 13.5,11.656582 13.5,11.18042 c 0,-0.462802 -0.361278,-0.674668 -1.010045,-0.949219 -0.466235,-0.196356 -0.731724,-0.3052323 -0.731724,-0.5324706 0,-0.156603 0.172759,-0.3083494 0.577567,-0.3083494 0.336872,0 0.566699,0.082306 0.807059,0.1442869 V 9.0776366 C 12.91683,9.0297071 12.748034,9 12.358817,9 Z"/>
</svg>
