<svg xmlns="http://www.w3.org/2000/svg" width="16" height="16" version="1.1">
 <path style="fill:#1fa872" d="M 2.8125,0 C 2.362375,0 2,0.3568 2,0.8 V 15.2 C 2,15.6432 2.362375,16 2.8125,16 h 11.375 C 14.637625,16 15,15.6432 15,15.2 V 5 L 10.9375,4 10,0 Z"/>
 <path style="fill:#49d19c" d="M 15,5 10,0 V 4.1666667 C 10,4.6283333 10.371667,5 10.833333,5 Z"/>
 <path style="fill:#f4f4f7" d="M 8.4999999,7.9999999 A 2.4999999,2.4999999 0 0 0 6.8878579,8.5932616 L 10.409179,12.114583 A 2.4999999,2.4999999 0 0 0 11,10.5 2.4999999,2.4999999 0 0 0 8.4999999,7.9999999 Z M 6.5908204,8.8854166 A 2.4999999,2.4999999 0 0 0 6,10.5 2.4999999,2.4999999 0 0 0 8.4999999,13 2.4999999,2.4999999 0 0 0 10.112142,12.406739 Z"/>
 <path style="fill:#f4f4f7" d="M 12.579273,6.0001206 A 0.40867603,0.40867603 0 0 0 12.298336,6.1238288 L 8.5655496,9.856615 c 0.4345128,-0.027947 0.546677,0.236446 0.6113566,0.544315 L 12.876171,6.7016643 A 0.40867603,0.40867603 0 0 0 12.579273,6.0001206 Z M 7.9310479,10.491116 4.1256328,14.296531 a 0.40867603,0.40867603 0 1 0 0.5778355,0.577836 l 3.7990301,-3.79903 C 8.2173695,11.023294 7.9590067,10.930687 7.9310479,10.491116 Z"/>
</svg>
