<svg xmlns="http://www.w3.org/2000/svg" width="16" height="16" version="1.1">
 <path fill="#b2bfd9" d="m2.75 1c-0.4172 0-0.75 0.3328-0.75 0.75v13.5c0 0.417 0.3328 0.75 0.75 0.75h10.5c0.418 0 0.75-0.332 0.75-0.75v-9.25l-4.125-0.875-0.875-4.125z"/>
 <path fill="#fafafa" d="m9 1v4.1667c0 0.4584 0.3749 0.8333 0.8333 0.8333h4.1667z"/>
 <path style="fill:#349634" d="m7.5 7c-0.1667 0-0.5052 0.1225-0.5 0.2713v3.7287h-1.5l2.5833 4 2.4167-4h-1.5v-3.7287c0-0.1531-0.3333-0.2713-0.5-0.2713z"/>
</svg>
