<svg xmlns="http://www.w3.org/2000/svg" width="16" height="16" version="1.1">
 <path style="fill:#b2bfd9" d="M 2.8125,0 C 2.362375,0 2,0.3568 2,0.8 V 15.2 C 2,15.6432 2.362375,16 2.8125,16 h 11.375 C 14.637625,16 15,15.6432 15,15.2 V 5 L 10.9375,4 10,0 Z"/>
 <path style="fill:#fafafa" d="M 15,5 10,0 V 4.1666667 C 10,4.6283333 10.371667,5 10.833333,5 Z"/>
 <path style="fill:#17191e" d="M 8.4999999,6.0000006 C 6.0147194,6.0000006 4,8.0147187 4,10.5 4,12.985281 6.0147194,15 8.4999999,15 10.985281,15 13,12.985281 13,10.5 13,8.0147187 10.985281,6.0000006 8.4999999,6.0000006 Z m 0,0.45 C 10.736753,6.4500006 12.55,8.2632472 12.55,10.5 c 0,1.887448 -1.292908,3.46887 -3.0401369,3.918164 -0.0212,-0.0051 -0.03601,-0.0054 -0.0624,-0.01234 -0.643015,-0.168057 -1.1678294,-0.590119 -1.463374,-1.17598 -0.3514204,-0.69663 -0.3155182,-1.50447 0.09756,-2.182324 C 8.1771001,10.8909 8.2159098,10.841088 8.4112394,10.627403 8.6703262,10.343967 8.8029296,10.1583 8.9148524,9.9225205 9.2091948,9.3024824 9.1953746,8.5458652 8.8779395,7.9230087 8.5529636,7.28536 7.9697405,6.8461047 7.2598732,6.7048445 c -0.029353,-0.00579 -0.084369,-0.0063 -0.12393,-0.010543 0.4272056,-0.1532289 0.884133,-0.2443359 1.3640619,-0.2443359 z m 0.841113,1.3499999 c 0.2584772,0.3348682 0.5614195,0.9745843 0.6169925,1.1663087 0.07581,0.2615439 0.07986,0.5729272 0.01144,0.8929683 C 9.9051754,10.160343 9.6650251,10.81423 9.4536311,11.26289 9.3274509,11.530695 9.0214316,12.114567 8.9131038,12.3 h 0.7549803 c 0.108206,-0.180492 0.2942913,-0.505644 0.4218749,-0.757617 0.145765,-0.287891 0.276244,-0.574446 0.365625,-0.803321 0.03749,-0.09602 0.08753,-0.222918 0.110739,-0.282128 0.02321,-0.05921 0.04865,-0.108103 0.05712,-0.108103 0.0235,0 0.132867,0.243715 0.279493,0.623145 0.111574,0.288718 0.339226,0.926467 0.399022,1.117088 0.02313,0.07375 0.04445,0.142432 0.06592,0.210939 h 0.700488 c -0.01759,-0.05895 -0.02806,-0.09786 -0.06416,-0.210939 C 11.774978,11.37115 11.47906,10.588374 11.232532,10.046488 10.932355,9.3866619 10.69149,8.9061609 10.487219,8.5602562 10.366028,8.3550447 10.155519,7.9352178 10.081165,7.8000031 Z m -4.5993162,0.9 h 0.7048826 c 0.018308,0.052727 0.028736,0.074507 0.05274,0.1538087 0.044537,0.1472233 0.1161,0.372078 0.1590814,0.5000979 0.1723461,0.5133688 0.489249,1.3392209 0.5255871,1.3684559 0.02268,0.01826 0.038327,0.0057 0.048343,-0.03867 0.00463,-0.02073 0.032734,-0.100722 0.062409,-0.177539 C 6.4708643,10.050272 6.906463,9.1853592 7.2001137,8.7079092 l 0.00527,-0.00797 h 0.7646477 c -0.017383,0.034187 -0.019196,0.044331 -0.045707,0.090527 -0.1359365,0.2369389 -0.4483727,0.839764 -0.5633773,1.0863266 -0.1285329,0.2755552 -0.255123,0.5876992 -0.3533207,0.8736322 -0.1549517,0.451196 -0.193239,0.632854 -0.1933599,0.909669 -1.453e-4,0.334721 0.078686,0.591692 0.2777349,0.900878 0.043123,0.06697 0.085564,0.135171 0.09405,0.151173 0.02673,0.05039 0.265086,0.393449 0.3251944,0.468456 0.00939,0.0117 0.00321,0.01041 0.00964,0.01934 H 6.7694247 C 6.7483775,13.180447 6.7267647,13.154283 6.5496974,12.881774 6.2232648,12.379362 5.9445143,11.8383 5.5943294,11.031676 5.2688508,10.281965 5.0245767,9.6249871 4.7910087,8.8678094 4.7625687,8.7755979 4.7532601,8.7421694 4.7417916,8.6999388 Z"/>
</svg>
