<svg xmlns="http://www.w3.org/2000/svg" width="16" height="16" version="1">
 <path style="fill:#634d9f" d="M 2.8125,0 C 2.362375,0 2,0.3568 2,0.8 V 15.2 C 2,15.6432 2.362375,16 2.8125,16 h 11.375 C 14.637625,16 15,15.6432 15,15.2 V 5 L 10.53125,4.4 10,0 Z"/>
 <path style="fill:#806cb8" d="M 10,0 V 4.1666667 C 10,4.6269167 10.373096,5 10.833333,5 H 15 Z"/>
 <path style="fill:#f4f4f7" d="M 7.0002324,13.999764 7,6.8 C 6.5037012,6.9874508 6.280072,7.1941956 6.001098,7.5934112 5.7252376,7.9927836 5.5873076,8.6891924 5.5873076,9.282918 c 0,0.1353724 0.00693,0.2465096 0.02078,0.333412 0.017124,0.08329 0.034328,0.15098 0.051607,0.203058 0.01728,0.04863 0.032848,0.08682 0.046703,0.114589 0.017124,0.02776 0.025688,0.05208 0.025688,0.07294 -0.1826092,0 -0.3445136,-0.01733 -0.4857128,-0.052 C 5.1050176,9.916643 4.98608,9.857584 4.88956,9.777741 4.7964652,9.698055 4.7240752,9.5921724 4.67239,9.4600944 4.62413,9.3283296 4.6,9.1651924 4.6,8.9706824 4.6,8.734604 4.6498948,8.3021172 4.749684,8.0729408 4.8530536,7.8439212 4.9926184,7.6269012 5.168378,7.4218816 5.3475628,7.2171756 5.5560928,7.0279992 5.7939676,6.8543524 6.0352672,6.6807056 6.2919792,6.531372 6.5641032,6.4063524 6.8396524,6.2778816 7.1256316,6.1789796 7.4220412,6.1096464 7.721876,6.0365484 8.019998,5.9999996 8.3164076,5.9999996 8.4279452,5.9858756 8.5914944,6.0200836 8.6,6.0207036 v 6.5623524 l 2.460922,-6.5312936 h 0.73908 L 8.8591008,14 H 7 Z"/>
</svg>
