<svg xmlns="http://www.w3.org/2000/svg" width="16" height="16" version="1.1">
 <path fill="#b2bfd9" d="m2.75 1c-0.4172 0-0.75 0.3328-0.75 0.75v13.5c0 0.417 0.3328 0.75 0.75 0.75h10.5c0.418 0 0.75-0.332 0.75-0.75v-9.25l-4.125-0.875-0.875-4.125z"/>
 <path fill="#fafafa" d="m9 1v4.1667c0 0.4584 0.3749 0.8333 0.8333 0.8333h4.1667z"/>
 <path style="stroke:#0180cd;stroke-linecap:square;fill:none" d="m9.5 13s0 0.5-1.5 0.5-1.5-1.534-1.5-2.5 0-2.5 1.5-2.5 1.5 0.5 1.5 0.5"/>
</svg>
