<svg xmlns="http://www.w3.org/2000/svg" width="16" height="16" version="1.1">
 <path fill="#b2bfd9" d="m2.75 1c-0.4172 0-0.75 0.3328-0.75 0.75v13.5c0 0.417 0.3328 0.75 0.75 0.75h10.5c0.418 0 0.75-0.332 0.75-0.75v-9.25l-4.125-0.875-0.875-4.125z"/>
 <path fill="#fafafa" d="m9 1v4.1667c0 0.4584 0.3749 0.8333 0.8333 0.8333h4.1667z"/>
 <path fill-rule="evenodd" opacity=".5" d="m6.1297 7.6h-0.0375c-0.032813 0.00469-0.065624 0.00937-0.098437 0.023437 0 0-0.23437 0.075-0.50156 0.21563-0.27187 0.14531-0.6 0.34219-0.81094 0.68437-0.23436 0.37968-0.14532 0.78756-0.07032 1.0313 0.07032 0.24372 0.11244 0.3516 0.0468 0.51564-0.03276 0.075-0.23904 0.25308-0.45936 0.36096-0.22032 0.10776-0.41712 0.16404-0.41712 0.16404-0.09852 0.0234-0.18288 0.08904-0.22968 0.1734-0.0516 0.08436-0.06564 0.18768-0.03756 0.28608-0.0468 0.1968 0.07032 0.3936 0.26724 0.4452 0 0 0.19687 0.05624 0.41719 0.16406 0.22031 0.1125 0.42656 0.28594 0.45937 0.36563 0.065624 0.16406 0.023437 0.26719-0.046876 0.51094-0.075 0.24374-0.16406 0.65156 0.070313 1.0312 0.21094 0.34219 0.53906 0.54376 0.81094 0.68437 0.26719 0.14063 0.50156 0.22031 0.50156 0.22031 0.12656 0.04687 0.27187 0.02344 0.375-0.06563 0.10312-0.08906 0.15-0.22969 0.12187-0.36563-0.028126-0.13126-0.13126-0.23906-0.2625-0.27656 0 0-0.17813-0.06094-0.38906-0.17344-0.21563-0.1125-0.44063-0.28594-0.52031-0.4125-0.09375-0.15-0.065624-0.20156 0.00469-0.42656 0.065626-0.225 0.1875-0.60469 0.01875-1.0125-0.15012-0.366-0.45012-0.558-0.71736-0.6936 0.26724-0.1404 0.56724-0.33276 0.71724-0.6984 0.16872-0.40788 0.0468-0.78288-0.01884-1.0126-0.07032-0.225-0.0984-0.27648-0.00468-0.4218 0.07968-0.13128 0.30468-0.30468 0.52032-0.41724 0.21096-0.11256 0.38904-0.1734 0.38904-0.1734 0.17352-0.0516 0.28128-0.225 0.25788-0.4032-0.0234-0.18276-0.1782-0.31872-0.35628-0.3234zm3.4406 0c-0.1829 0.0047-0.3329 0.1406-0.3563 0.3234-0.0234 0.1782 0.0844 0.3516 0.2579 0.4032 0 0 0.17813 0.060937 0.38906 0.17344 0.21563 0.1125 0.44063 0.28594 0.52031 0.41719 0.09375 0.14531 0.06562 0.19687-0.0047 0.42187-0.06563 0.22969-0.1875 0.60469-0.01875 1.0125 0.15 0.36563 0.45 0.55781 0.71719 0.69844-0.26719 0.13594-0.56719 0.32813-0.71719 0.69374-0.16874 0.40781-0.04688 0.7875 0.01875 1.0125 0.07031 0.225 0.09844 0.27656 0.0047 0.42187-0.07969 0.13124-0.30469 0.30469-0.52031 0.41719-0.21094 0.1125-0.38906 0.17344-0.38906 0.17344-0.13124 0.0375-0.23437 0.14531-0.2625 0.27656-0.028124 0.13594 0.018751 0.27656 0.12187 0.36563 0.10312 0.08906 0.24844 0.1125 0.375 0.06563 0 0 0.23437-0.07969 0.50156-0.22031 0.27187-0.14063 0.6-0.34219 0.81094-0.68437 0.23437-0.37969 0.14531-0.7875 0.07031-1.0312-0.07031-0.24376-0.1125-0.34687-0.04687-0.51094 0.03282-0.07969 0.23906-0.25313 0.45937-0.36563 0.2208-0.108 0.4176-0.1644 0.4176-0.1644 0.19687-0.05156 0.31406-0.24844 0.26719-0.44531 0.02813-0.09844 0.01406-0.20156-0.0375-0.28594-0.04687-0.08438-0.13126-0.15-0.22969-0.17344 0 0-0.19687-0.05625-0.41719-0.16406-0.2208-0.10788-0.4272-0.28596-0.4596-0.36564-0.066-0.15936-0.0228-0.26724 0.0468-0.51096 0.0756-0.24372 0.1644-0.6516-0.0696-1.0313-0.2112-0.34212-0.54-0.53904-0.81144-0.68436-0.26712-0.14064-0.50148-0.22032-0.50148-0.22032-0.03288-0.00936-0.06564-0.01404-0.09852-0.01872h-0.0375zm-1.7203 1.5c-0.4126 0-0.75 0.3374-0.75 0.75 0 0.413 0.3374 0.75 0.75 0.75s0.75-0.337 0.75-0.75c0-0.4126-0.3374-0.75-0.75-0.75zm0 2.25c-0.4125 0-0.75 0.3375-0.75 0.75s0.3375 0.75 0.75 0.75c0.26719 0 0.375 0.75 0.375 0.75s0.375-1.35 0.375-1.5c0-0.4125-0.3375-0.75-0.75-0.75z"/>
</svg>
