<svg xmlns="http://www.w3.org/2000/svg" width="16" height="16" version="1.1">
 <path fill="#1e94f0" d="m2.75 1c-0.4172 0-0.75 0.3328-0.75 0.75v13.5c0 0.417 0.3328 0.75 0.75 0.75h10.5c0.418 0 0.75-0.332 0.75-0.75v-9.25l-4.125-0.875-0.875-4.125z"/>
 <path fill="#7abff5" d="m9 1v4.1667c0 0.4584 0.3749 0.8333 0.8333 0.8333h4.1667z"/>
 <path style="fill:#f4f4f7" d="M 8 7 C 5.790857 7 4 8.7908574 4 11 C 4 13.209143 5.790857 15 8 15 C 10.209143 15 12 13.209143 12 11 C 12 8.7908574 10.209143 7 8 7 z M 7.6503906 7.9199219 C 7.6912032 7.9156515 7.7420271 7.9223819 7.7832031 7.9199219 C 7.7881141 7.9394476 7.7535773 8.0077206 7.7070312 8.109375 C 7.4106396 8.7568685 7.3928864 9.5165673 7.6679688 9.921875 C 7.7177498 9.9953551 7.765625 10.065119 7.765625 10.074219 C 7.765625 10.083289 7.7110846 10.091797 7.6503906 10.091797 C 7.5078986 10.091797 7.3731666 10.005274 7.0976562 9.7871094 C 6.9752643 9.6901955 6.8155503 9.6080261 6.7539062 9.5957031 C 6.6571102 9.5763695 6.6310868 9.5856984 6.5058594 9.7109375 C 6.3893472 9.8274301 6.3535156 9.8894478 6.3535156 9.9960938 C 6.3535156 10.400511 6.8321752 10.722937 7.7246094 10.912109 C 8.9365687 11.168978 9.2361012 11.399811 9.2695312 12.037109 C 9.3114972 12.836257 8.8869695 13.439755 7.9550781 13.90625 C 7.8438507 13.96195 7.7712784 13.982 7.7246094 14 C 7.7039314 13.9982 7.6885838 14.0018 7.6679688 14 C 7.6600687 13.975296 7.6503905 13.919162 7.6503906 13.810547 C 7.6503906 13.386096 7.4825655 12.949398 7.2304688 12.705078 C 7.1627959 12.639488 6.9728038 12.498881 6.8105469 12.398438 C 6.6482953 12.298001 6.4856988 12.180639 6.4492188 12.130859 C 6.3887628 12.048251 6.3832375 11.998303 6.4296875 11.845703 C 6.5143346 11.566995 6.6146756 11.412427 6.8105469 11.236328 C 6.9132359 11.144005 7.0163145 11.066253 7.0390625 11.064453 C 7.0618122 11.062633 6.9067402 11.017953 6.6757812 10.970703 C 6.444833 10.923368 6.1082665 10.822986 5.9335938 10.759766 C 5.6141916 10.644194 5.1839362 10.400202 5.0195312 10.224609 C 5.0125923 10.217129 5.00604 10.213631 5 10.207031 C 5.2355537 9.2687353 5.8951672 8.4975505 6.7714844 8.1269531 C 6.9548428 8.0493951 7.1442191 7.9978423 7.34375 7.9570312 C 7.4431402 7.9367153 7.547771 7.9303519 7.6503906 7.9199219 z M 10.509766 9.3496094 C 10.58141 9.3939027 10.850514 9.9781752 10.927734 10.263672 C 11.027444 10.63225 11.020224 11.270575 10.927734 11.636719 C 10.892534 11.776075 10.848984 11.905645 10.833984 11.921875 C 10.818974 11.938102 10.765192 11.84392 10.701172 11.730469 C 10.63715 11.617038 10.429716 11.376586 10.259766 11.197266 C 9.7692117 10.679632 9.6949059 10.409211 9.9003906 9.9960938 C 10.004019 9.7877735 10.454316 9.3153854 10.509766 9.3496094 z"/>
</svg>
