<svg xmlns="http://www.w3.org/2000/svg" width="16" height="16" version="1.1">
 <path fill="#b2bfd9" d="m2.75 1c-0.4172 0-0.75 0.3328-0.75 0.75v13.5c0 0.417 0.3328 0.75 0.75 0.75h10.5c0.418 0 0.75-0.332 0.75-0.75v-9.25l-4.125-0.875-0.875-4.125z"/>
 <path style="fill:#a341d1" d="m5.8438 9.0006s-0.8438 0-0.8438 0.7942v2.4132c0 0.438 0.3836 0.792 0.8566 0.792h1.8707l1.0909 1 1.0909-1h0.23437c-0.001 0 0.856 0.002 0.856-0.792v-2.4135c0-0.7945-0.857-0.7945-0.857-0.7945z"/>
 <path fill="#fafafa" d="m9 1v4.1667c0 0.4584 0.3749 0.8333 0.8333 0.8333h4.1667z"/>
</svg>
