<svg xmlns="http://www.w3.org/2000/svg" width="16" height="16" version="1">
 <rect style="fill:#d64141" width="16" height="16" x="-16" y="-16" rx=".8" ry=".8" transform="matrix(0,-1,-1,0,0,0)"/>
 <rect style="fill:#17191e" width="12" height="12" x="-14" y="-14" rx=".6" ry=".6" transform="matrix(0,-1,-1,0,0,0)"/>
 <rect style="fill:#dfa46d" width="8" height="8" x="-12" y="-12" rx=".4" ry=".4" transform="matrix(0,-1,-1,0,0,0)"/>
 <path style="opacity:0.3" d="M 7 4 L 7 7 L 4 7 L 4 9 L 7 9 L 7 12 L 9 12 L 9 9 L 12 9 L 12 7 L 9 7 L 9 4 L 7 4 z"/>
</svg>
