<svg xmlns="http://www.w3.org/2000/svg" width="32" height="32" version="1">
 <rect style="fill:#4795d1" width="28" height="28" x="-30" y="-30" rx="14" ry="14" transform="matrix(0,-1,-1,0,0,0)"/>
 <path style="opacity:0.2" d="M 16,6.9999995 C 10.477144,6.9999995 6,11.477142 6,17 6,22.522857 10.477144,27 16,27 21.522857,27 26,22.522857 26,17 26,11.477142 21.522857,6.9999995 16,6.9999995 Z m -0.935546,1.9941407 c 0.108806,-0.01139 0.245686,0.0065 0.355469,0 0.01301,0.05204 -0.07708,0.238754 -0.201172,0.509765 -0.790216,1.7262878 -0.8369,3.7475278 -0.103516,4.8281248 0.132716,0.195919 0.253907,0.38202 0.253907,0.40625 0,0.02424 -0.142858,0.05078 -0.304688,0.05078 -0.3799,1e-6 -0.740065,-0.230841 -1.474609,-0.8125 -0.326312,-0.25839 -0.749712,-0.474962 -0.914063,-0.507812 -0.258081,-0.05156 -0.326284,-0.02922 -0.660156,0.304688 -0.310635,0.310584 -0.40625,0.47934 -0.40625,0.763671 0,1.078223 1.280827,1.933146 3.660156,2.437501 3.231223,0.684838 4.026104,1.298953 4.115234,2.998047 0.111903,2.130617 -1.02133,3.736741 -3.505859,4.980469 -0.296546,0.148492 -0.484954,0.207879 -0.609375,0.255859 -0.05514,-0.0049 -0.09933,0.0049 -0.154297,0 -0.02114,-0.06587 -0.05078,-0.218244 -0.05078,-0.507812 0,-1.131635 -0.445068,-2.297836 -1.117187,-2.949219 -0.180417,-0.174873 -0.684591,-0.544709 -1.117188,-0.8125 -0.432581,-0.267775 -0.869537,-0.578221 -0.966797,-0.710937 -0.161141,-0.220234 -0.172666,-0.354868 -0.04883,-0.761719 0.22568,-0.743064 0.493412,-1.159404 1.015625,-1.628906 0.273776,-0.246141 0.548725,-0.450179 0.609375,-0.455079 0.06067,-0.0049 -0.34908,-0.129893 -0.964844,-0.255859 -0.615733,-0.12621 -1.518682,-0.390047 -1.984375,-0.558594 C 9.638669,16.260233 8.489102,15.61268 8.050781,15.14453 8.032251,15.12468 8.0161,15.11132 8,15.09375 c 0.628012,-2.501606 2.390201,-4.551008 4.726563,-5.539062 0.488855,-0.2067678 0.99342,-0.3482228 1.525391,-0.4570318 0.264977,-0.05416 0.538902,-0.0757 0.8125,-0.103516 z m 7.624999,3.8124998 c 0.191025,0.118078 0.913249,1.680238 1.119141,2.441406 0.265819,0.982672 0.246579,2.682023 0,3.658204 -0.09385,0.37154 -0.21585,0.718459 -0.25586,0.761719 -0.04001,0.04326 -0.186741,-0.203394 -0.357422,-0.50586 C 23.02462,18.85969 22.482403,18.216369 22.029297,17.738281 20.721422,16.358209 20.514655,15.638524 21.0625,14.537108 21.338782,13.9817 22.541611,12.7154 22.689453,12.80664 Z"/>
 <path style="opacity:0.2;fill:#8b9cbe" d="M 16,2 C 8.244,2 2,8.244 2,16 2,16.169 2.0195,16.333 2.0254,16.5 2.2895,8.9794 8.4132,3 16.0004,3 c 7.5872,0 13.711,5.9794 13.975,13.5 0.006,-0.16736 0.0254,-0.33116 0.0254,-0.5 0,-7.756 -6.244,-14 -14,-14 z"/>
 <path style="fill:#8b9cbe" d="m 16,5.9999995 c -5.522856,0 -10,4.4771425 -10,9.9999995 C 6,21.522857 10.477144,26 16,26 21.522857,26 26,21.522857 26,15.999999 26,10.477142 21.522857,5.9999995 16,5.9999995 Z m -0.935546,1.9941407 c 0.108806,-0.01139 0.245686,0.0065 0.355469,0 0.01301,0.05204 -0.07708,0.238754 -0.201172,0.509765 -0.790216,1.7262878 -0.8369,3.7475278 -0.103516,4.8281248 0.132716,0.195919 0.253907,0.38202 0.253907,0.40625 0,0.02424 -0.142858,0.05078 -0.304688,0.05078 -0.3799,1e-6 -0.740065,-0.230841 -1.474609,-0.8125 -0.326312,-0.25839 -0.749712,-0.474962 -0.914063,-0.507812 -0.258081,-0.05156 -0.326284,-0.02922 -0.660156,0.304688 -0.310635,0.310584 -0.40625,0.47934 -0.40625,0.763671 0,1.078223 1.280827,1.933145 3.660156,2.4375 3.231223,0.684839 4.026104,1.298954 4.115234,2.998048 0.111903,2.130617 -1.02133,3.736741 -3.505859,4.980469 -0.296546,0.148492 -0.484954,0.207879 -0.609375,0.255859 -0.05514,-0.0049 -0.09933,0.0049 -0.154297,0 -0.02114,-0.06587 -0.05078,-0.218244 -0.05078,-0.507812 0,-1.131635 -0.445068,-2.297836 -1.117187,-2.949219 -0.180417,-0.174873 -0.684591,-0.544709 -1.117188,-0.8125 -0.432581,-0.267775 -0.869537,-0.578221 -0.966797,-0.710937 -0.161141,-0.220234 -0.172666,-0.354868 -0.04883,-0.761719 0.22568,-0.743064 0.493412,-1.159404 1.015625,-1.628906 0.273776,-0.246141 0.548725,-0.450179 0.609375,-0.455079 0.06067,-0.0049 -0.34908,-0.129893 -0.964844,-0.255859 -0.615733,-0.12621 -1.518682,-0.390048 -1.984375,-0.558595 C 9.638669,15.260232 8.489102,14.61268 8.050781,14.14453 8.032251,14.12468 8.0161,14.11132 8,14.09375 c 0.628012,-2.501606 2.390201,-4.5510078 4.726563,-5.5390618 0.488855,-0.206768 0.99342,-0.348223 1.525391,-0.457032 0.264977,-0.05416 0.538902,-0.0757 0.8125,-0.103516 z m 7.624999,3.8124998 c 0.191025,0.118078 0.913249,1.680238 1.119141,2.441406 0.265819,0.982671 0.246579,2.682023 0,3.658204 -0.09385,0.37154 -0.21585,0.718459 -0.25586,0.761719 -0.04001,0.04326 -0.186741,-0.203394 -0.357422,-0.50586 C 23.02462,17.85969 22.482403,17.216369 22.029297,16.738281 20.721422,15.358208 20.514655,14.638524 21.0625,13.537108 21.338782,12.9817 22.541611,11.7154 22.689453,11.80664 Z"/>
 <path style="opacity:0.2" d="M 2.0254,16.5 C 2.0195,16.667 2,16.831 2,17 c 0,7.756 6.244,14 14,14 7.756,0 14,-6.244 14,-14 0,-0.16884 -0.01952,-0.33264 -0.02539,-0.5 -0.264,7.521 -6.388,13.5 -13.975,13.5 -7.5872,0 -13.711,-5.979 -13.975,-13.5 z"/>
 <circle style="fill:#db3c30" cx="25" cy="24" r="7"/>
 <path style="opacity:0.2" d="M 31.977,24.459 A 7,7 0 0 1 25,31 7,7 0 0 1 18.023,24.541 7,7 0 0 0 18,25 a 7,7 0 0 0 7,7 7,7 0 0 0 7,-7 7,7 0 0 0 -0.02344,-0.54102 z"/>
 <path style="fill:#8b9cbe" d="M 22.878906 20.464844 L 21.464844 21.878906 L 23.585938 24 L 21.464844 26.121094 L 22.878906 27.535156 L 25 25.414062 L 27.121094 27.535156 L 28.535156 26.121094 L 26.414062 24 L 28.535156 21.878906 L 27.121094 20.464844 L 25 22.585938 L 22.878906 20.464844 z"/>
</svg>
