<svg xmlns="http://www.w3.org/2000/svg" width="32" height="32" version="1.1">
 <rect style="opacity:0.2" width="16" height="21" x="8" y="8" rx="1.25" ry="1.25"/>
 <rect style="fill:#8e8e8e" width="16" height="21" x="8" y="7" rx="1.25" ry="1.25"/>
 <rect style="opacity:0.2" width="26" height="20" x="3" y="6" rx="1.25" ry="1.25"/>
 <rect style="fill:#4f4f4f" width="26" height="20" x="3" y="5" rx="1.25" ry="1.25"/>
 <rect style="fill:#497b92" width="22" height="16" x="5" y="7" rx="0" ry="0"/>
 <rect style="opacity:0.1;fill:#8b9cbe" width="22" height="1" x="5" y="23"/>
 <path style="fill:#8b9cbe;opacity:0.1" d="M 4.25 5 C 3.5575 5 3 5.5575 3 6.25 L 3 7.25 C 3 6.5575 3.5575 6 4.25 6 L 27.75 6 C 28.442 6 29 6.5575 29 7.25 L 29 6.25 C 29 5.5575 28.442 5 27.75 5 L 4.25 5 z"/>
 <path style="opacity:0.2" d="M 11,11 V 21 H 14 V 11 Z M 18,11 V 21 H 21 V 11 Z"/>
 <path style="fill:#99cbe4" d="M 11 10 L 11 20 L 14 20 L 14 10 L 11 10 z M 18 10 L 18 20 L 21 20 L 21 10 L 18 10 z"/>
</svg>
