<svg xmlns="http://www.w3.org/2000/svg" width="32" height="32" version="1.1">
 <g transform="translate(0,-288.53332)">
  <rect style="opacity:0.2" width="26" height="24" x="-319.53" y="-28" rx="2" ry="2" transform="matrix(0,-1,-1,0,0,0)"/>
  <rect style="fill:#e5a057" width="26" height="24" x="-318.53" y="-28" rx="2" ry="2" transform="matrix(0,-1,-1,0,0,0)"/>
  <path style="opacity:0.2" d="M 25,296.53332 H 7 v 3.60009 l 2,1.39991 2,-1 2.5,0.5 2.5,-1.5 2.5,1.5 4,-1.5 2.5,0.60009 z"/>
  <path style="opacity:0.2;fill:#8b9cbe" d="m 6,292.53332 c -1.108,0 -2,0.892 -2,2 v 1 c 0,-1.108 0.892,-2 2,-2 h 20 c 1.108,0 2,0.892 2,2 v -1 c 0,-1.108 -0.892,-2 -2,-2 z"/>
  <path style="fill:#8b9cbe" d="M 25,295.53332 H 7 v 3.60009 l 2,1.39991 2,-1 2.5,0.5 2.5,-1.5 2.5,1.5 4,-1.5 2.5,0.60009 z"/>
  <path style="fill:#cccccc" d="m 16,288.53332 c -1.662,0 -3,1.338 -3,3 v 2 h -2 c -0.554,0 -1,0.446 -1,1 v 3 h 12 v -3 c 0,-0.554 -0.446,-1 -1,-1 h -2 v -2 c 0,-1.662 -1.338,-3 -3,-3 z"/>
  <circle style="opacity:0.2" cx="16" cy="292.533" r="2"/>
  <circle style="fill:#8b9cbe" cx="16" cy="291.533" r="2"/>
  <path style="opacity:0.2;fill:#8b9cbe" d="m 16,288.53332 c -1.662,0 -3,1.338 -3,3 v 1 c 0,-1.662 1.338,-3 3,-3 1.662,0 3,1.338 3,3 v -1 c 0,-1.662 -1.338,-3 -3,-3 z m -5,5 c -0.554,0 -1,0.446 -1,1 v 1 c 0,-0.554 0.446,-1 1,-1 h 2 v -1 z m 8,0 v 1 h 2 c 0.554,0 1,0.446 1,1 v -1 c 0,-0.554 -0.446,-1 -1,-1 z"/>
  <path style="fill:#b3b3b3" d="m 10,296.53332 v 1 h 8 4 v -1 z"/>
 </g>
</svg>
