<svg xmlns="http://www.w3.org/2000/svg" width="32" height="32" version="1">
 <rect style="opacity:0.2" width="23" height="26" x="5" y="5" rx="1.534" ry="1.529"/>
 <rect style="fill:#8e8e8e" width="23" height="26" x="5" y="4" rx="1.534" ry="1.529"/>
 <rect style="fill:#9f9f9f" width="9" height="3" x="12" y="1"/>
 <path style="opacity:0.3;fill:none;stroke:#000000;stroke-width:3;stroke-linecap:round" d="m 10.50015,12.5 c 0,0 -1.5e-4,3.25 -1.5e-4,6.25 0,3 1.5e-4,5.75 1.5e-4,5.75"/>
 <rect style="opacity:0.2" width="27" height="6" x="3" y="3" rx="1.5" ry="1.5"/>
 <rect style="fill:#9f9f9f" width="27" height="6" x="3" y="2" rx="1.5" ry="1.5"/>
 <path style="opacity:0.3;fill:none;stroke:#000000;stroke-width:3;stroke-linecap:round" d="m 16.5,12.5 v 12"/>
 <path style="opacity:0.3;fill:none;stroke:#000000;stroke-width:3;stroke-linecap:round" d="m 22.50015,12.5 c 0,0 -1.5e-4,3.25 -1.5e-4,6.25 0,3 1.5e-4,5.75 1.5e-4,5.75"/>
 <path style="opacity:0.2;fill:#8b9cbe" d="M 4.5,2 C 3.669,2 3,2.669 3,3.5 v 1 C 3,3.669 3.669,3 4.5,3 h 24 C 29.331,3 30,3.669 30,4.5 v -1 C 30,2.669 29.331,2 28.5,2 Z"/>
</svg>
