<svg xmlns="http://www.w3.org/2000/svg" width="24" height="24" version="1">
 <rect style="opacity:0.2" width="20" height="12" x="2" y="9.5" rx="1" ry="1"/>
 <path style="fill:#17191e" d="M 2,17 C 2,17.554 2.446,18 3,18 H 21 C 21.554,18 22,17.554 22,17 V 6 C 22,5.446 21.554,5 21,5 H 12 C 10.5,5 10,3 8.5,3 H 3 C 2.446,3 2,3.446 2,4"/>
 <rect style="opacity:0.2" width="20" height="10" x="2" y="10.5" rx="1" ry="1"/>
 <rect style="fill:#dcdcdc" width="16" height="8" x="4" y="7" rx="1" ry="1"/>
 <rect style="fill:#4f4f4f" width="20" height="10" x="2" y="11" rx="1" ry="1"/>
 <path style="opacity:0.1;fill:#8b9cbe" d="M 3,3 C 2.446,3 2,3.446 2,4 V 4.5 C 2,3.946 2.446,3.5 3,3.5 H 8.5 C 10,3.5 10.5,5.5 12,5.5 H 21 C 21.554,5.5 22,5.946 22,6.5 V 6 C 22,5.446 21.554,5 21,5 H 12 C 10.5,5 10,3 8.5,3 Z"/>
 <path style="fill:#b2bfs9" d="M 9.5,12 C 9.223,12 9,12.223 9,12.5 V 17.5 H 9.5 V 17 H 10 V 13 H 12.5 V 15 H 14 V 19 19.5 H 14.5 V 19 H 15 V 14 L 13,12 Z M 14.5,19.5 V 20 H 15 V 19.5 Z M 14,19.5 H 13.5 V 20 H 14 Z M 13.5,19.5 V 19 H 13 V 19.5 Z M 13,19.5 H 12.5 V 20 H 13 Z M 12.5,19.5 V 19 H 12 V 19.5 Z M 12,19.5 H 11.5 V 20 H 12 Z M 11.5,19.5 V 19 H 11 V 19.5 Z M 11,19.5 H 10.5 V 20 H 11 Z M 10.5,19.5 V 19 H 10 V 19.5 Z M 10,19.5 H 9.5 V 20 H 10 Z M 9.5,19.5 V 19 H 9 V 19.5 Z M 9.5,19 H 10 V 18.5 H 9.5 Z M 9.5,18.5 V 18 H 9 V 18.5 Z M 9.5,18 H 10 V 17.5 H 9.5 Z"/>
</svg>
