<svg xmlns="http://www.w3.org/2000/svg" width="24" height="24" version="1">
 <rect style="opacity:0.2" width="20" height="12" x="2" y="9.5" rx="1" ry="1"/>
 <path style="fill:#c89e6b" d="M 2,17 C 2,17.554 2.446,18 3,18 H 21 C 21.554,18 22,17.554 22,17 V 6 C 22,5.446 21.554,5 21,5 H 12 C 10.5,5 10,3 8.5,3 H 3 C 2.446,3 2,3.446 2,4"/>
 <rect style="opacity:0.2" width="20" height="12" x="2" y="8.5" rx="1" ry="1"/>
 <rect style="fill:#b2bfd9" width="16" height="8" x="4" y="7" rx="1" ry="1"/>
 <rect style="fill:#eeca8f" width="20" height="12" x="2" y="9" rx="1" ry="1"/>
 <path style="opacity:0.1;fill:#8b9cbe" d="M 3,3 C 2.446,3 2,3.446 2,4 V 4.5 C 2,3.946 2.446,3.5 3,3.5 H 8.5 C 10,3.5 10.5,5.5 12,5.5 H 21 C 21.554,5.5 22,5.946 22,6.5 V 6 C 22,5.446 21.554,5 21,5 H 12 C 10.5,5 10,3 8.5,3 Z"/>
 <path style="fill:#917359" d="M 8 12 A 1 1 0 0 0 7.3027 13.717 L 7.9766 14.391 C 7.4972 15.013 7.1357 15.911 7.0098 17.223 C 6.973 17.993 7.7852 17.994 7.7852 17.994 L 15.215 18.025 C 15.215 18.025 16.05 18.027 16.01 17.219 C 15.878 15.908 15.514 15.014 15.035 14.398 L 15.717 13.717 A 1 1 0 0 0 14.99 12 A 1 1 0 0 0 14.303 12.303 L 13.342 13.264 C 12.702 13.072 12.058 13.043 11.553 13.035 C 11.008 13.026 10.33 13.05 9.6641 13.25 L 8.7168 12.303 A 1 1 0 0 0 8 12 z M 9.5 15 A 0.5 0.5 0 0 1 10 15.5 A 0.5 0.5 0 0 1 9.5 16 A 0.5 0.5 0 0 1 9 15.5 A 0.5 0.5 0 0 1 9.5 15 z M 13.5 15 A 0.5 0.5 0 0 1 14 15.5 A 0.5 0.5 0 0 1 13.5 16 A 0.5 0.5 0 0 1 13 15.5 A 0.5 0.5 0 0 1 13.5 15 z"/>
</svg>
