<svg xmlns="http://www.w3.org/2000/svg" width="24" height="24" version="1">
 <rect style="opacity:0.2" width="20" height="12" x="2" y="9.5" rx="1" ry="1"/>
 <path style="fill:#b58f1b" d="M 2,17 C 2,17.554 2.446,18 3,18 H 21 C 21.554,18 22,17.554 22,17 V 6 C 22,5.446 21.554,5 21,5 H 12 C 10.5,5 10,3 8.5,3 H 3 C 2.446,3 2,3.446 2,4"/>
 <rect style="opacity:0.2" width="20" height="12" x="2" y="8.5" rx="1" ry="1"/>
 <rect style="fill:#b2bfd9" width="16" height="8" x="4" y="7" rx="1" ry="1"/>
 <rect style="fill:#e2b322" width="20" height="12" x="2" y="9" rx="1" ry="1"/>
 <path style="opacity:0.1;fill:#8b9cbe" d="M 3,3 C 2.446,3 2,3.446 2,4 V 4.5 C 2,3.946 2.446,3.5 3,3.5 H 8.5 C 10,3.5 10.5,5.5 12,5.5 H 21 C 21.554,5.5 22,5.946 22,6.5 V 6 C 22,5.446 21.554,5 21,5 H 12 C 10.5,5 10,3 8.5,3 Z"/>
 <path style="fill:#4f3e0c" d="M 11.546,12.023 C 9.7682,12.023 10.182,13.647 9.2715,14.136 9.2402,14.154 9.2225,14.171 9.1944,14.188 9.7947,13.831 10.535,13.532 11.32,13.33 11.986,13.159 12.661,13.063 13.283,13.05 13.299,13.05 13.315,13.05 13.331,13.05 12.731,12.88 12.665,12.023 11.546,12.023 Z M 13.484,13.501 C 12.861,13.513 12.186,13.609 11.521,13.78 9.3273,14.344 7.7642,15.572 8.0293,16.521 8.1821,17.064 8.9181,17.422 10.015,17.487 10.014,17.483 10.013,17.48 10.013,17.475 9.9535,16.962 10.279,16.515 10.661,16.213 11.043,15.91 11.534,15.69 12.086,15.573 12.638,15.456 13.154,15.462 13.586,15.592 13.992,15.714 14.374,15.98 14.468,16.438 15.567,15.822 16.137,15.079 15.972,14.478 15.797,13.849 14.843,13.474 13.484,13.501 Z M 12.831,16 A 0.92931,1.7885 76.001 0 0 12.143,16.071 0.92931,1.7885 76.001 0 0 10.503,17.371 0.92931,1.7885 76.001 0 0 12.358,17.929 0.92931,1.7885 76.001 0 0 13.996,16.629 0.92931,1.7885 76.001 0 0 12.831,16 Z"/>
</svg>
