<svg xmlns="http://www.w3.org/2000/svg" width="24" height="24" version="1">
 <rect style="opacity:0.2" width="20" height="12" x="2" y="9.5" rx="1" ry="1"/>
 <path style="fill:#f4f4f7" d="M 2,17 C 2,17.554 2.446,18 3,18 H 21 C 21.554,18 22,17.554 22,17 V 6 C 22,5.446 21.554,5 21,5 H 12 C 10.5,5 10,3 8.5,3 H 3 C 2.446,3 2,3.446 2,4"/>
 <rect style="opacity:0.2" width="20" height="12" x="2" y="8.5" rx="1" ry="1"/>
 <rect style="fill:#b2bfd9" width="16" height="8" x="4" y="7" rx="1" ry="1"/>
 <rect style="fill:#323a41" width="20" height="12" x="2" y="9" rx="1" ry="1"/>
 <path style="opacity:0.1;fill:#8b9cbe" d="M 3,3 C 2.446,3 2,3.446 2,4 V 4.5 C 2,3.946 2.446,3.5 3,3.5 H 8.5 C 10,3.5 10.5,5.5 12,5.5 H 21 C 21.554,5.5 22,5.946 22,6.5 V 6 C 22,5.446 21.554,5 21,5 H 12 C 10.5,5 10,3 8.5,3 Z"/>
 <g style="fill:#f4f4f7" transform="matrix(0.5618517,0,0,0.5,-3.0330883,1.358696)">
  <path style="fill:#f4f4f7" d="m 29.573776,35.282608 -0.749596,-2 h -4.264944 l -0.723748,2 h -3.308562 c 0.758212,-3.153473 1.52504,-6.022617 2.300484,-8.607431 0.775445,-2.602047 1.525041,-5.066236 2.248789,-7.392569 h 3.463651 c 0.758212,2.343565 1.507808,4.833602 2.248788,7.470113 0.758213,2.619279 1.490577,5.462574 2.197092,8.529887 z M 26.73048,22.384385 25.153743,29.282608 h 3.127626 z"/>
 </g>
</svg>
