<svg xmlns="http://www.w3.org/2000/svg" width="24" height="24" version="1">
 <rect style="opacity:0.2" width="20" height="12" x="2" y="9.5" rx="1" ry="1"/>
 <path style="fill:#3c3f4c" d="M 2,17 C 2,17.554 2.446,18 3,18 H 21 C 21.554,18 22,17.554 22,17 V 6 C 22,5.446 21.554,5 21,5 H 12 C 10.5,5 10,3 8.5,3 H 3 C 2.446,3 2,3.446 2,4"/>
 <rect style="opacity:0.2" width="20" height="12" x="2" y="8.5" rx="1" ry="1"/>
 <rect style="fill:#b2bfd9" width="16" height="8" x="4" y="7" rx="1" ry="1"/>
 <rect style="fill:#555e70" width="20" height="12" x="2" y="9" rx="1" ry="1"/>
 <path style="opacity:0.1;fill:#8b9cbe" d="M 3,3 C 2.446,3 2,3.446 2,4 V 4.5 C 2,3.946 2.446,3.5 3,3.5 H 8.5 C 10,3.5 10.5,5.5 12,5.5 H 21 C 21.554,5.5 22,5.946 22,6.5 V 6 C 22,5.446 21.554,5 21,5 H 12 C 10.5,5 10,3 8.5,3 Z"/>
 <path style="fill:#8b9cbe" d="M 3 9 C 2.446 9 2 9.446 2 10 L 2 10.654 L 19.918 21 L 21 21 C 21.554 21 22 20.554 22 20 L 22 19.701 L 3.4629 9 L 3 9 z M 6.9277 9 L 22 17.701 L 22 15.201 L 11.258 9 L 6.9277 9 z M 14.723 9 L 22 13.201 L 22 10.701 L 19.053 9 L 14.723 9 z M 2 12.654 L 2 15.154 L 12.125 21 L 16.453 21 L 2 12.654 z M 2 17.154 L 2 19.654 L 4.3301 21 L 8.6602 21 L 2 17.154 z"/>
</svg>
