<svg xmlns="http://www.w3.org/2000/svg" width="24" height="24" version="1">
 <rect style="opacity:0.2" width="20" height="12" x="2" y="9.5" rx="1" ry="1"/>
 <path style="fill:#f4f4f7" d="M 2,17 C 2,17.554 2.446,18 3,18 H 21 C 21.554,18 22,17.554 22,17 V 6 C 22,5.446 21.554,5 21,5 H 12 C 10.5,5 10,3 8.5,3 H 3 C 2.446,3 2,3.446 2,4"/>
 <rect style="opacity:0.2" width="20" height="12" x="2" y="8.5" rx="1" ry="1"/>
 <rect style="fill:#b2bfd9" width="16" height="8" x="4" y="7" rx="1" ry="1"/>
 <rect style="fill:#323a41" width="20" height="12" x="2" y="9" rx="1" ry="1"/>
 <path style="opacity:0.1;fill:#8b9cbe" d="M 3,3 C 2.446,3 2,3.446 2,4 V 4.5 C 2,3.946 2.446,3.5 3,3.5 H 8.5 C 10,3.5 10.5,5.5 12,5.5 H 21 C 21.554,5.5 22,5.946 22,6.5 V 6 C 22,5.446 21.554,5 21,5 H 12 C 10.5,5 10,3 8.5,3 Z"/>
 <path style="fill:#f4f4f7" d="M 12,11 C 9.7908,11 8,12.791 8,15 8,17.209 9.7908,19 12,19 14.209,19 16,17.209 16,15 16,12.791 14.209,11 12,11 Z M 11.714,12.107 C 11.752,12.103 11.801,12.109 11.839,12.107 11.844,12.125 11.811,12.19 11.768,12.286 11.49,12.892 11.474,13.602 11.732,13.982 11.779,14.051 11.821,14.116 11.821,14.125 11.821,14.133 11.771,14.143 11.714,14.143 11.581,14.143 11.454,14.061 11.196,13.857 11.082,13.766 10.933,13.69 10.875,13.678 10.784,13.66 10.76,13.668 10.643,13.786 10.534,13.895 10.5,13.954 10.5,14.053 10.5,14.432 10.95,14.733 11.786,14.911 12.921,15.151 13.201,15.367 13.232,15.964 13.271,16.713 12.873,17.277 12,17.714 11.896,17.766 11.829,17.786 11.786,17.803 11.766,17.802 11.751,17.805 11.732,17.803 11.725,17.78 11.714,17.727 11.714,17.625 11.714,17.227 11.558,16.818 11.321,16.589 11.258,16.528 11.081,16.397 10.929,16.303 10.777,16.209 10.623,16.1 10.589,16.053 10.533,15.976 10.528,15.928 10.571,15.786 10.651,15.524 10.745,15.379 10.929,15.214 11.025,15.128 11.122,15.055 11.143,15.053 11.164,15.052 11.02,15.008 10.804,14.964 10.587,14.92 10.271,14.827 10.107,14.768 9.8079,14.659 9.404,14.432 9.25,14.268 9.2435,14.261 9.2378,14.256 9.2322,14.25 9.4528,13.371 10.072,12.651 10.893,12.303 11.065,12.231 11.242,12.181 11.429,12.143 11.522,12.124 11.618,12.117 11.714,12.107 Z M 14.393,13.446 C 14.46,13.488 14.713,14.036 14.786,14.303 14.879,14.649 14.872,15.246 14.786,15.589 14.753,15.72 14.71,15.842 14.696,15.857 14.682,15.872 14.631,15.785 14.571,15.678 14.511,15.572 14.32,15.346 14.161,15.178 13.701,14.694 13.629,14.44 13.821,14.053 13.918,13.858 14.341,13.414 14.393,13.446 Z"/>
</svg>
