<svg xmlns="http://www.w3.org/2000/svg" width="24" height="24" version="1.1">
 <defs>
  <style id="current-color-scheme" type="text/css">
   .ColorScheme-Text { color:#323a41; } .ColorScheme-Highlight { color:#4285f4; } .ColorScheme-NeutralText { color:#ff9800; } .ColorScheme-PositiveText { color:#4caf50; } .ColorScheme-NegativeText { color:#f44336; }
  </style>
 </defs>
 <path style="opacity:0.3;fill:currentColor" class="ColorScheme-Text" d="M 12.5,4 C 11.378027,4 10.336832,4.3638673 9.46875,4.9882812 L 12,7.5195312 V 6 h 0.5 c 0.20775,0 0.39305,0.13292 0.46875,0.3125 l 2.875,2.84375 L 16.25,9.53125 15.8125,9.875 15.015625,10.535156 18,13.519531 V 10 C 18,6.676 15.547,4 12.5,4 Z M 7,4.5 5.5,6 7.3652344,7.8652344 C 7.1329301,8.5279779 7,9.2453479 7,10 v 4 c 0,3.324 2.453,6 5.5,6 1.855025,0 3.474814,-1.004688 4.46875,-2.53125 L 18,18.5 19.5,17 17.855469,15.355469 13.933594,11.433594 13.240234,10.740234 13,10.5 12,9.5 8.4472656,5.9472656 Z m 6,3.1875 V 8.5195312 L 14.326172,9.8457031 14.78125,9.46875 Z M 11.613281,12.113281 13,13.5 v 2.8125 l 1.40625,-1.40625 0.683594,0.683594 -2.121094,2.097656 c -0.0252,0.0599 -0.0798,0.11106 -0.125,0.15625 C 12.75335,17.93415 12.6385,18 12.5,18 H 12 V 13.0625 L 9.84375,14.84375 C 9.75325,14.93425 9.63807,15 9.5,15 H 9 v -0.5 c 0,-0.15322 0.079,-0.28328 0.1875,-0.375 z"/>
</svg>
