<svg xmlns="http://www.w3.org/2000/svg" width="24" height="24" version="1.1">
 <defs>
  <style id="current-color-scheme" type="text/css">
   .ColorScheme-Text { color:#323a41; } .ColorScheme-Highlight { color:#4285f4; } .ColorScheme-NeutralText { color:#ff9800; } .ColorScheme-PositiveText { color:#4caf50; } .ColorScheme-NegativeText { color:#f44336; }
  </style>
 </defs>
 <path style="fill:currentColor" class="ColorScheme-Text" d="M 11.810547,3.9808219 A 8,8 0 0 0 3.9999999,12.023791 8.0000004,8.0000004 0 0 0 20,12.023791 8,8 0 0 0 11.810547,3.9808219 Z M 12,5.9788687 c 3.308423,0 6,2.6915772 6,6.0000003 0,3.308423 -2.691577,5.999999 -6,5.999999 -3.3084229,0 -6.0000001,-2.691576 -6.0000001,-5.999999 0,-3.3084231 2.6915772,-6.0000003 6.0000001,-6.0000003 z m 0.400391,1 C 12.000391,6.9788687 12,7.3968375 12,7.3968375 L 12,12.1859 c -0.384502,-0.136042 -0.670523,-0.206361 -1.099609,-0.207031 -1.5463969,0 -2.9003909,0.89543 -2.9003909,1.999999 0,1.10457 1.453603,2 2.9999999,2 1.546398,0 3.000001,-0.89543 3.000001,-2 l 0,-4.9999993 c 0,0 2.26729,1.1586683 1.324218,2.0234383 -0.259008,0.14857 -0.344328,0.378196 -0.298828,0.578125 0.06909,0.303608 0.439979,0.538683 0.953125,0.320312 C 16.749531,11.498755 17,10.778088 17,10.178088 17,8.3780875 14.000392,6.9788687 12.400391,6.9788687 Z"/>
</svg>
