<svg xmlns="http://www.w3.org/2000/svg" width="24" height="24" version="1.1">
 <defs>
  <style id="current-color-scheme" type="text/css">
   .ColorScheme-Text { color:#323a41; } .ColorScheme-Highlight { color:#4285f4; } .ColorScheme-NeutralText { color:#ff9800; } .ColorScheme-PositiveText { color:#4caf50; } .ColorScheme-NegativeText { color:#f44336; }
  </style>
 </defs>
 <path style="fill:currentColor" class="ColorScheme-Text" d="M 6,4 C 4.892,4 4,4.892 4,6 v 12 c 0,1.108 0.892,2 2,2 h 12 c 1.108,0 2,-0.892 2,-2 V 6 C 20,4.892 19.108,4 18,4 Z m 8.03125,0.9921875 1,0.015625 C 15.021062,5.6879602 15.043325,6.3455896 15.068359,7 H 18 v 1 h -2.882812 c 0.148824,2.308238 0.481442,4.400619 0.890624,6.033203 0.290301,1.158273 0.615781,2.093664 0.91211,2.708985 0.148164,0.307659 0.292885,0.534515 0.396484,0.65625 0.04618,0.05426 -0.0014,0.03006 0.01172,0.03906 0.23837,-0.0636 0.37119,-0.153757 0.478516,-0.429688 0.121643,-0.312741 0.176093,-0.811555 0.183593,-1.375 l 1,0.01172 c -0.0081,0.606847 -0.04696,1.197587 -0.251953,1.72461 -0.20499,0.527023 -0.660068,0.999054 -1.302734,1.111328 a 0.50005,0.50005 0 0 1 -0.08008,0.0059 c -0.371987,0.0048 -0.607553,-0.212401 -0.800781,-0.439453 C 16.361455,17.819863 16.19094,17.531748 16.01953,17.175821 15.676712,16.463967 15.341013,15.480194 15.039061,14.275431 14.609645,12.562043 14.265475,10.393081 14.115234,8 H 6 V 7 h 8.070312 C 14.045744,6.3399811 14.020971,5.6784048 14.03125,4.9921875 Z M 17,5 c 0.416833,0.3789393 0.758179,0.7765262 1.023438,1.1933594 l -0.966797,0.5683594 c -0.227364,-0.4168334 -0.531218,-0.8331668 -0.910157,-1.25 z M 7,9 h 6 v 1 H 7 Z m 0,2 h 6 v 1 H 7 Z m 0,2 h 1 5 v 3 H 12 V 14 H 8 v 2 H 7 v -2 z m 2.0097656,2 H 10.091797 C 10.008525,16.204012 9.7080472,17.115307 9.1621094,17.693359 8.5179127,18.413344 7.3626453,18.848424 5.6953125,19 L 5.2402344,18.033203 C 6.7559915,17.881627 7.7593321,17.540281 8.2519531,17.009766 8.6817255,16.579993 8.9281536,15.902276 9.0097656,15 Z m 1.6933594,0.998047 c 0.947348,0.454727 1.819462,0.985494 2.615234,1.591797 L 12.521484,18.5 c -0.757878,-0.644197 -1.590545,-1.19371 -2.5,-1.648438 z"/>
</svg>
