<svg xmlns="http://www.w3.org/2000/svg" width="24" height="24" version="1.1">
 <defs>
  <style id="current-color-scheme" type="text/css">
   .ColorScheme-Text { color:#323a41; } .ColorScheme-Highlight { color:#4285f4; } .ColorScheme-NeutralText { color:#ff9800; } .ColorScheme-PositiveText { color:#4caf50; } .ColorScheme-NegativeText { color:#f44336; }
  </style>
 </defs>
 <path style="fill:currentColor" class="ColorScheme-Text" d="m 4.0193186,4.986657 c -1.3498276,-0.025941 -1.3637275,2.0074845 -0.013672,2 v 11 c -0.019051,1.34715 2.0014782,1.350514 1.998047,0.01367 h -0.00391 V 5.9573601 C 5.9833803,5.4194197 5.5475538,4.9867112 5.0056468,4.986657 Z m 2.9804688,1 v 11 h 1.0058594 v 1.273438 c 0,0.726801 0.7265625,0.726562 0.7265625,0.726562 h 0.2734375 1.0000002 v -2 h 1.999999 v 1.996094 h 2 v -1.996094 h 2 v 1.998047 h 1 0.273438 c 0,0 0.726562,2.39e-4 0.726562,-0.726563 v -1.271484 h 0.300782 c 0.3878,0 0.699218,-0.306348 0.699218,-0.6875 v -9.625 c 0,-0.381152 -0.311418,-0.6875 -0.699218,-0.6875 z m 4.9999996,2.0136719 h 2 v 2.0000001 h -2 z m 0,3.0000001 h 2 v 4 h -2 z"/>
</svg>
