<svg xmlns="http://www.w3.org/2000/svg" width="24" height="24" version="1.1">
 <defs>
  <style id="current-color-scheme" type="text/css">
   .ColorScheme-Text { color:#323a41; } .ColorScheme-Highlight { color:#4285f4; } .ColorScheme-NeutralText { color:#ff9800; } .ColorScheme-PositiveText { color:#4caf50; } .ColorScheme-NegativeText { color:#f44336; }
  </style>
 </defs>
 <g style="fill:currentColor" class="ColorScheme-Text" transform="translate(4 -1029.4)">
  <rect width="9" height="9" x="5" y="1038.4" rx=".25" ry=".25"/>
  <rect width="1" height="2" x="13" y="1033.4" rx=".25" ry=".25"/>
  <rect width="1" height="2" x="9" y="1033.4" rx=".25" ry=".25"/>
  <rect width="1" height="2" x="5" y="1033.4" rx=".25" ry=".25"/>
  <g style="fill:currentColor" class="ColorScheme-Text" transform="matrix(0,1,-1,0,1033.4,1029.4)">
   <rect width="1" height="2" x="17" y="1031.4" rx=".25" ry=".25"/>
   <rect width="1" height="2" x="13" y="1031.4" rx=".25" ry=".25"/>
   <rect width="1" height="2" x="9" y="1031.4" rx=".25" ry=".25"/>
  </g>
  <path style="fill:currentColor" class="ColorScheme-Text" d="m3.25 5c-0.6925 0-1.25 0.5575-1.25 1.25v0.7754c0.5716 0.1154 1 0.618 1 1.2246v0.5c0 0.6066-0.4284 1.1092-1 1.2246v1.0504c0.5716 0.116 1 0.618 1 1.225v0.5c0 0.607-0.4284 1.109-1 1.225v1.05c0.5716 0.116 1 0.618 1 1.225v0.5c0 0.599-0.418 1.095-0.9785 1.219 0.1034 0.587 0.6111 1.031 1.2285 1.031h11.5c0.692 0 1.25-0.558 1.25-1.25v-11.5c0-0.6086-0.431-1.1113-1.006-1.2246-0.014 0.5414-0.449 0.9746-0.994 0.9746h-1c-0.554 0-1-0.446-1-1h-1c0 0.554-0.446 1-1 1h-1c-0.554 0-1-0.446-1-1h-1c0 0.554-0.446 1-1 1h-1c-0.554 0-1-0.446-1-1h-0.75zm1.75 2h9c0.554 0 1 0.446 1 1v9c0 0.554-0.446 1-1 1h-9c-0.554 0-1-0.446-1-1v-9c0-0.554 0.446-1 1-1z" transform="translate(0,1030.4)"/>
 </g>
</svg>
