<svg xmlns="http://www.w3.org/2000/svg" width="24" height="24" version="1.1">
 <defs>
  <style id="current-color-scheme" type="text/css">
   .ColorScheme-Text { color:#323a41; } .ColorScheme-Highlight { color:#4285f4; } .ColorScheme-NeutralText { color:#ff9800; } .ColorScheme-PositiveText { color:#4caf50; } .ColorScheme-NegativeText { color:#f44336; }
  </style>
 </defs>
 <path style="fill:currentColor" class="ColorScheme-Text" d="M 4.234375,4.9999999 A 1.2349999,1.3065444 0 0 0 3,6.3066409 V 16.693359 A 1.2349999,1.3065444 0 0 0 4.234375,18 h 16.53125 A 1.2349999,1.3065444 0 0 0 22,16.693359 V 6.3066409 a 1.2349999,1.3065444 0 0 0 -1.234375,-1.306641 z m 1.082032,3 a 0.33958423,0.34841185 0 0 1 0.002,0 0.33958423,0.34841185 0 0 1 0.0332,0 0.33958423,0.34841185 0 0 1 0.15625,0.04687 l 5.324218,3.1523441 a 0.33958423,0.34841185 0 0 1 0,0.601562 L 5.50786,14.953125 A 0.33958423,0.34841185 0 0 1 5.000047,14.652344 V 8.3476559 A 0.33958423,0.34841185 0 0 1 5.316454,7.9999999 Z M 13.591797,9 h 3.816406 A 0.59430874,0.50193597 0 0 1 18,9.5 0.59430874,0.50193597 0 0 1 17.408203,10 H 13.591797 A 0.59430874,0.50193597 0 0 1 13,9.5 0.5828356,0.49224609 0 0 1 13.173828,9.148438 0.5828356,0.49224609 0 0 1 13.591797,9 Z m -0.0332,2 h 5.884765 A 0.55759776,0.49999966 0 0 1 19.837891,11.851562 0.55975898,0.50193765 0 0 1 19.443359,12 H 13.558594 A 0.55975898,0.50193765 0 0 1 13,11.5 0.55975898,0.50193765 0 0 1 13.558594,11 Z m 0,2 h 5.884765 A 0.55759784,0.49999996 0 0 1 19.837891,13.851562 0.55975907,0.50193795 0 0 1 19.443359,14 H 13.558594 A 0.55975907,0.50193795 0 0 1 13,13.5 0.55975907,0.50193795 0 0 1 13.558594,13 Z"/>
</svg>
