<svg xmlns="http://www.w3.org/2000/svg" width="24" height="24" version="1.1">
 <defs>
  <style id="current-color-scheme" type="text/css">
   .ColorScheme-Text { color:#323a41; } .ColorScheme-Highlight { color:#4285f4; } .ColorScheme-NeutralText { color:#ff9800; } .ColorScheme-PositiveText { color:#4caf50; } .ColorScheme-NegativeText { color:#f44336; }
  </style>
 </defs>
 <path style="fill:currentColor" class="ColorScheme-Text" d="M 5.199219,4 C 4.534418,4 4,4.5344187 4,5.1992188 V 18.800781 C 4,19.465581 4.534418,20 5.199219,20 H 12 18.800781 C 19.465581,20 20,19.465581 20,18.800781 V 5.1992188 C 20,4.5344187 19.465581,4 18.800781,4 H 12 Z M 6,6 h 6 6 V 18 H 12 6 Z m 2.949219,0.9726562 c -0.194096,0 -0.46311,0.071972 -0.986329,0.2578126 -0.05063,0.017688 -0.05155,0.017444 -0.09375,0.035156 l 0.0332,0.1328125 c 0.329124,-0.088495 0.388261,-0.097656 0.472657,-0.097656 0.210972,0 0.262707,0.080353 0.380859,0.6113282 L 8.999997,9 8.308591,10.035156 c -0.177216,0.265485 -0.336858,0.425782 -0.429688,0.425782 -0.05063,0 -0.136315,-0.02699 -0.220703,-0.08008 -0.109702,-0.06195 -0.193593,-0.08789 -0.269531,-0.08789 -0.168777,0 -0.28711,0.131605 -0.28711,0.308594 0,0.23009 0.16026,0.371094 0.421875,0.371094 0.261615,0 0.363203,-0.0784 0.785157,-0.609375 0.227848,-0.292043 0.413773,-0.55821 0.759765,-1.0449219 l 0.251953,1.0624999 c 0.109705,0.460179 0.220191,0.591797 0.490235,0.591797 0.320689,0 0.539841,-0.211343 1.029297,-1.0078119 l -0.117188,-0.07031 c -0.06751,0.07965 -0.11155,0.1320879 -0.1875,0.2382809 -0.194095,0.265485 -0.293267,0.353513 -0.394531,0.353513 -0.118145,0 -0.194832,-0.113542 -0.253906,-0.361328 C 9.861396,10.02765 9.859996,10.008969 9.851556,9.9824211 9.640584,9.0797551 9.548821,8.6718169 9.548821,8.5390621 9.928577,7.8488098 10.223096,7.4687497 10.374993,7.4687497 c 0.05063,0 0.127176,0.026054 0.203125,0.070312 0.101267,0.061947 0.16038,0.080078 0.236328,0.080078 0.168779,2e-7 0.28711,-0.1325252 0.28711,-0.3183594 0,-0.1946903 -0.143171,-0.3281249 -0.345703,-0.328125 -0.371322,0 -0.684671,0.3187078 -1.275391,1.265625 L 9.388662,7.7519531 C 9.270518,7.1501757 9.177059,6.9726563 8.949209,6.9726563 Z M 12,10 v 1 h 5 V 10 Z M 9,13 C 8.405107,13 7.923008,13.167379 7.552734,13.5 7.184475,13.832621 7,14.232066 7,14.703125 c 0,0.424907 0.133364,0.77785 0.398437,1.056641 0.265054,0.278792 0.557185,0.448241 0.878907,0.509765 l 0.0059,0.195313 H 7.582071 c -0.167939,0 -0.290298,-0.0282 -0.367187,-0.08203 C 7.137994,16.328994 7.096025,16.234167 7.08793,16.097658 H 6.976602 V 17 H 8.546915 L 8.490275,16.128906 C 8.18677,16.023145 7.980328,15.841585 7.873088,15.582031 7.765847,15.320561 7.712931,15.030139 7.712931,14.712891 c 0,-0.438365 0.118659,-0.797418 0.357422,-1.078125 0.24078,-0.282639 0.543914,-0.423829 0.910157,-0.423829 0.343982,0 0.643496,0.131151 0.898437,0.396485 0.256974,0.265334 0.386719,0.64851 0.386719,1.146484 0,0.761365 -0.261174,1.219264 -0.783203,1.375 L 9.404333,17 h 1.572265 v -0.902344 h -0.113281 c -0.004,0.105745 -0.03688,0.192502 -0.09961,0.261719 -0.0607,0.06922 -0.186679,0.105469 -0.378906,0.105469 H 9.668004 l 0.0293,-0.195313 c 0.388502,-0.107675 0.697211,-0.299313 0.923828,-0.576172 0.22865,-0.278791 0.34375,-0.617633 0.34375,-1.015625 0,-0.490279 -0.184538,-0.891677 -0.550781,-1.205078 C 10.047857,13.15734 9.576701,13 9.000038,13 Z m 3,0 v 1 h 5 v -1 z"/>
</svg>
