<svg xmlns="http://www.w3.org/2000/svg" width="24" height="24" version="1.1">
 <defs>
  <style id="current-color-scheme" type="text/css">
   .ColorScheme-Text { color:#323a41; } .ColorScheme-Highlight { color:#4285f4; } .ColorScheme-NeutralText { color:#ff9800; } .ColorScheme-PositiveText { color:#4caf50; } .ColorScheme-NegativeText { color:#f44336; }
  </style>
 </defs>
 <path style="fill:currentColor" class="ColorScheme-Text" d="m 12,4.0002408 c -4.432,0 -8,3.568 -8,8.0000002 0,4.432 3.568,8 8,8 1.460633,0 2.823841,-0.393992 4,-1.072266 v -2.464843 a 6,6 0 0 1 -4,1.537109 6,6 0 0 1 -6,-6 6,6 0 0 1 6,-6.0000002 6,6 0 0 1 6,6.0000002 6,6 0 0 1 -0.365234,2.039062 c 0.109045,-0.02065 0.219856,-0.03729 0.333984,-0.03906 0.636232,-0.0099 1.148298,0.328633 1.523438,0.794922 C 19.815345,13.924768 20,12.985826 20,12.000241 20,7.5682408 16.432,4.0002408 12,4.0002408 Z m 2.5,3.9980469 -4.5,0.00391 v 4.0937463 c -0.16,-0.06 -0.32,-0.0957 -0.5,-0.0957 -0.8284,0 -1.5,0.6716 -1.5,1.5 0,0.8284 0.6716,1.5 1.5,1.5 0.8284,0 1.5,-0.6716 1.5,-1.5 v -3.5 h 3 v 2.09375 c -0.16,-0.06 -0.32,-0.0957 -0.5,-0.0957 -0.8284,0 -1.5,0.6716 -1.5,1.5 0,0.8284 0.6716,1.5 1.5,1.5 0.8284,0 1.5,-0.6716 1.5,-1.5 V 7.9982877 Z m 3.484375,7.0019533 A 1.0001,0.99544853 0 0 0 17,16.010007 v 3.980468 a 1.0001,0.99544853 0 1 0 2,0 v -3.980468 a 1.0001,0.99544853 0 0 0 -1.015625,-1.009766 z m 3,0 A 1.0001,0.99544853 0 0 0 20,16.010007 v 3.980468 a 1.0001,0.99544853 0 1 0 2,0 v -3.980468 a 1.0001,0.99544853 0 0 0 -1.015625,-1.009766 z"/>
</svg>
