<svg xmlns="http://www.w3.org/2000/svg" width="24" height="24" version="1.1">
 <defs>
  <style id="current-color-scheme" type="text/css">
   .ColorScheme-Text { color:#323a41; } .ColorScheme-Highlight { color:#4285f4; } .ColorScheme-NeutralText { color:#ff9800; } .ColorScheme-PositiveText { color:#4caf50; } .ColorScheme-NegativeText { color:#f44336; }
  </style>
 </defs>
 <path style="fill:currentColor" class="ColorScheme-Text" d="M 9.5,6 A 5.5,5.5 0 0 0 4,11.5 5.5,5.5 0 0 0 4.046875,12.158203 3,3 0 0 0 2,15 3,3 0 0 0 5,18 l 14,0 A 3,3 0 0 0 22,15 3,3 0 0 0 19.992188,12.171875 4,4 0 0 0 20,12 4,4 0 0 0 16,8 4,4 0 0 0 14.097656,8.4863281 5.5,5.5 0 0 0 9.5,6 Z M 6.984375,8 C 7.537375,8 8,8.448 8,9 8,9.552 7.537375,10 6.984375,10 6.431375,10 6,9.552 6,9 6,8.448 6.432275,8 6.984375,8 Z M 12,9 c 2.209139,0 4,1.790861 4,4 0,2.209139 -1.790861,4 -4,4 C 9.790861,17 8,15.209139 8,13 8,10.790861 9.790861,9 12,9 Z m 0,2 c -1.104569,0 -2,0.895431 -2,2 0,1.104569 0.895431,2 2,2 1.104569,0 2,-0.895431 2,-2 0,-1.104569 -0.895431,-2 -2,-2 z"/>
</svg>
