<svg xmlns="http://www.w3.org/2000/svg" width="24" height="24" version="1.1">
 <defs>
  <style id="current-color-scheme" type="text/css">
   .ColorScheme-Text { color:#323a41; } .ColorScheme-Highlight { color:#4285f4; } .ColorScheme-NeutralText { color:#ff9800; } .ColorScheme-PositiveText { color:#4caf50; } .ColorScheme-NegativeText { color:#f44336; }
  </style>
 </defs>
 <g>
  <path style="fill:currentColor" class="ColorScheme-Text" d="m5.0718 16a8 8 0 0 0 10.928 2.928 8 8 0 0 0 2.928 -10.928 8 8 0 0 0 -10.928 -2.9282 8 8 0 0 0 -2.9282 10.928zm1.732-1a6 6 0 0 1 -0.4908 -4.897 1.5 1.5 0 0 1 -0.1521 -0.2166 1.5 1.5 0 0 1 0.549 -2.0491 1.5 1.5 0 0 1 1.1285 -0.1508 6 6 0 0 1 1.1616 -0.8827 6 6 0 0 1 3.6637 -0.7598 1.5 1.5 0 0 1 0.51694 -0.49917 1.5 1.5 0 0 1 2.049 0.54904 1.5 1.5 0 0 1 0.18218 0.97961 6 6 0 0 1 1.7843 1.9265 6 6 0 0 1 -0.0041 5.9969 1.5 1.5 0 0 1 0.03103 0.04975 1.5 1.5 0 0 1 -0.54904 2.049 1.5 1.5 0 0 1 -1.5064 -0.0076 6 6 0 0 1 -0.16762 0.10809 6 6 0 0 1 -8.1962 -2.1962zm0.8661-0.5a5 5 0 0 0 6.8301 1.83 5 5 0 0 0 0.0186 -0.01074 1.5 1.5 0 0 1 0.12744 -1.3027l-2.2092-2.7209a1.5 1.5 0 0 1 -1.8029 -0.66182 1.5 1.5 0 0 1 -0.1993 -0.79832l-1.8408-0.719a1.5 1.5 0 0 1 -0.3843 0.318 1.5 1.5 0 0 1 -1.0113 0.178 5 5 0 0 0 0.4713 3.887zm1.2884-5.3153 1.8407 0.7191a1.5 1.5 0 0 1 0.384 -0.3189 1.5 1.5 0 0 1 0.928 -0.1887l0.745-1.5077a1.5 1.5 0 0 1 -0.224 -0.2946 1.5 1.5 0 0 1 -0.19 -0.5714 5 5 0 0 0 -2.942 0.6474 5 5 0 0 0 -0.8191 0.5969 1.5 1.5 0 0 1 0.078041 0.11957 1.5 1.5 0 0 1 0.1993 0.79832zm4.2527 2.4792 2.2108 2.7199a1.5 1.5 0 0 1 0.97335 -0.0094 5 5 0 0 0 -0.06507 -4.8744 5 5 0 0 0 -1.3972 -1.5411 1.5 1.5 0 0 1 -0.25234 0.18403 1.5 1.5 0 0 1 -0.92846 0.18873l-0.74428 1.5077a1.5 1.5 0 0 1 0.22418 0.29456 1.5 1.5 0 0 1 -0.02105 1.53z"/>
 </g>
</svg>
