<svg xmlns="http://www.w3.org/2000/svg" width="24" height="24" version="1.1">
 <defs>
  <style id="current-color-scheme" type="text/css">
   .ColorScheme-Text { color:#323a41; } .ColorScheme-Highlight { color:#4285f4; } .ColorScheme-NeutralText { color:#ff9800; } .ColorScheme-PositiveText { color:#4caf50; } .ColorScheme-NegativeText { color:#f44336; }
  </style>
 </defs>
 <path fill-rule="evenodd" style="fill:currentColor" class="ColorScheme-Text" d="m4 4.0004v14h4.0002v2.9999l2.9998-2.9999h4.9997l4-4v-10zm4.0002 4.0003h1.9999v5.9999h-1.9999zm5.9997 0h1.9999v5.9999h-1.9999z"/>
</svg>
