<svg xmlns="http://www.w3.org/2000/svg" width="24" height="24" version="1.1">
 <defs>
  <style id="current-color-scheme" type="text/css">
   .ColorScheme-Text { color:#323a41; } .ColorScheme-Highlight { color:#4285f4; } .ColorScheme-NeutralText { color:#ff9800; } .ColorScheme-PositiveText { color:#4caf50; } .ColorScheme-NegativeText { color:#f44336; }
  </style>
 </defs>
 <path style="opacity:0.3;fill:currentColor" class="ColorScheme-Text" d="m 12,4 a 8,8 0 0 0 -8,8 8,8 0 0 0 8,8 8,8 0 0 0 2,-0.265625 V 15.166016 C 14,14.51968 14.515064,14 15.154297,14 h 4.585937 A 8,8 0 0 0 20,12 8,8 0 0 0 12,4 Z M 10,8.4707031 13,10.234375 16,12 13,13.765625 10,15.529297 V 12 Z"/>
 <path style="fill:currentColor;fill-rule:evenodd" class="ColorScheme-Text" d="m 15,15 v 6 h 2 v -6 z m 3,0 v 6 h 2 v -6 z"/>
</svg>
