<svg xmlns="http://www.w3.org/2000/svg" width="24" height="24" version="1.1">
 <defs>
  <style id="current-color-scheme" type="text/css">
   .ColorScheme-Text { color:#323a41; } .ColorScheme-Highlight { color:#4285f4; } .ColorScheme-NeutralText { color:#ff9800; } .ColorScheme-PositiveText { color:#4caf50; } .ColorScheme-NegativeText { color:#f44336; }
  </style>
 </defs>
 <g transform="translate(1 -1029.4)">
  <path style="fill:currentColor" class="ColorScheme-Text" d="m10.998 4s-3.7785 0.0005531-6.2969 0.18945c-0.35178 0.044-1.1182 0.048016-1.8027 0.79102-0.53956 0.5664-0.71484 1.8516-0.71484 1.8516s-0.17709 1.511-0.17969 3.0215l-0.0039 2.2874c-0.0026 1.5106 0.17969 3.0215 0.17969 3.0215s0.17528 1.2851 0.71484 1.8516c0.68457 0.7435 1.5839 0.72093 1.9844 0.79883 1.4397 0.143 6.1191 0.187 6.1191 0.187s1.2112-0.01504 2.4082-0.03906c-0.26-0.604-0.406-1.265-0.406-1.961 0-2.7495 2.2504-5 5-5 0.71006 0 1.3847 0.15382 1.998 0.42383l0.002-1.5705c0.0026-1.5105-0.17969-3.0215-0.17969-3.0215s-0.17524-1.2852-0.71484-1.8516c-0.684-0.7434-1.452-0.7474-1.804-0.7909-2.518-0.1889-6.295-0.1895-6.295-0.1895h-0.0078zm-2.998 3 6 4.014-6 3.986v-8z" transform="translate(-9.5367e-7 1030.4)"/>
  <path style="fill:currentColor" class="ColorScheme-Text" d="m19.035 1042.5c-2.1338-0.5718-4.3272 0.6946-4.899 2.8284-0.57176 2.1339 0.6946 4.3272 2.8284 4.899s4.3272-0.6946 4.899-2.8284c0.57176-2.1339-0.6946-4.3272-2.8284-4.899zm-0.25882 0.9659a3 3 0 0 1 2.1213 3.6743l-0.96592-0.2589a2 2 0 0 0 -1.4142 -2.4495l0.25882-0.9659zm-3.6742 2.1213 0.96592 0.2589a2 2 0 0 0 1.4142 2.4495l-0.25882 0.9659a3 3 0 0 1 -2.1213 -3.6743z"/>
 </g>
</svg>
