<svg xmlns="http://www.w3.org/2000/svg" width="64" height="64" version="1.1">
 <path style="opacity:0.2" d="M 12.75,5 C 11.2265,5 10,6.2488 10,7.8 v 50.4 c 0,1.55008 1.2265,2.8 2.75,2.8 h 38.5 C 52.7724,61 54,59.75008 54,58.2 V 23 L 40,19 36,5 Z"/>
 <path style="fill:#764ebf" d="M 12.75,4 C 11.2265,4 10,5.2488 10,6.8 v 50.4 c 0,1.55008 1.2265,2.8 2.75,2.8 h 38.5 C 52.7724,60 54,58.75008 54,57.2 V 22 L 40,18 36,4 Z"/>
 <path style="opacity:0.2" d="M 54,23 36,5 V 20.1875 C 36,21.74675 37.2555,23 38.8125,23 Z"/>
 <path style="fill:#b7a2dd" d="M 54,22 36,4 V 19.1875 C 36,20.74675 37.2555,22 38.8125,22 Z"/>
 <path style="opacity:0.2;fill:#8b9cbe" d="M 12.75 4 C 11.2265 4 10 5.2495812 10 6.8007812 L 10 7.8007812 C 10 6.2495813 11.2265 5 12.75 5 L 36 5 L 36 4 L 12.75 4 z"/>
 <path style="opacity:0.2" d="m 18,33 v 3 h 3 v -3 z m 6,0 v 3 h 22 v -3 z m -6,7 v 3 h 3 v -3 z m 6,0 v 3 h 22 v -3 z m -6,7 v 3 h 3 v -3 z m 6,0 v 3 h 22 v -3 z"/>
 <path style="fill:#8b9cbe" d="M 18 32 L 18 35 L 21 35 L 21 32 L 18 32 z M 24 32 L 24 35 L 46 35 L 46 32 L 24 32 z M 18 39 L 18 42 L 21 42 L 21 39 L 18 39 z M 24 39 L 24 42 L 46 42 L 46 39 L 24 39 z M 18 46 L 18 49 L 21 49 L 21 46 L 18 46 z M 24 46 L 24 49 L 46 49 L 46 46 L 24 46 z"/>
</svg>
