<svg xmlns="http://www.w3.org/2000/svg" width="64" height="64" version="1">
 <path style="opacity:0.2" d="M 12.75,5 C 11.2265,5 10,6.2488 10,7.8 v 50.4 c 0,1.5512 1.2265,2.8 2.75,2.8 h 38.5 C 52.7735,61 54,59.7512 54,58.2 V 21 L 40,19 38,5 Z"/>
 <path style="fill:#a7a7a7" d="M 12.75,4 C 11.2265,4 10,5.2488 10,6.8 v 50.4 c 0,1.5512 1.2265,2.8 2.75,2.8 h 38.5 C 52.7735,60 54,58.7512 54,57.2 V 20 L 40,18 38,4 Z"/>
 <path style="opacity:0.2" d="M 38,5 V 18.333333 C 38,19.806134 39.193906,21 40.666666,21 H 54 Z"/>
 <path style="fill:#c0c0c0" d="M 38,4 V 17.333333 C 38,18.806133 39.193906,20 40.666666,20 H 54 Z"/>
 <path style="opacity:0.2;fill:#8b9cbe" d="M 12.75 4 C 11.2265 4 10 5.2495812 10 6.8007812 L 10 7.8007812 C 10 6.2495813 11.2265 5 12.75 5 L 38 5 L 38 4 L 12.75 4 z"/>
 <path style="opacity:0.1" d="M 45,29.6 C 42.623,30.9 37.732,31.171 33.105,31.117 29.474,31.138 22.385,30.384 21.166,33.933 21.627,33.299 30.069,30.42 29.22,33.995 28.221,36.907 27.034,38.384 25.505,41.02 24.017,41.132 21.959,41.197 20.682,42.084 21.015,41.879 23.846,41.316 24.981,41.935 23.243,44.807 20.852,48.131 19.578,51.259 19.227,52.333 18.437,54.061 19.651,54.839 20.68,55.319 19.959,54.629 20.376,53.957 22.123,50.202 25.127,46.042 27.322,42.555 28.604,43.088 29.847,44.076 31.245,44.23 33.148,44.456 36.427,41.766 36.932,39.917 34.765,41.544 31.025,41.036 28.555,40.984 L 33.291,33.711 C 33.816,33.873 34.743,33.916 36.276,33.933 39.849,34.035 44.417,33.369 44.999,29.6 Z"/>
 <path style="fill:#4f4f4f" d="M 45,28.6 C 42.623,29.9 37.732,30.171 33.105,30.117 29.474,30.138 22.385,29.384 21.166,32.933 21.627,32.299 30.069,29.42 29.22,32.995 28.221,35.907 27.034,37.384 25.505,40.02 24.017,40.132 21.959,40.197 20.682,41.084 21.015,40.879 23.846,40.316 24.981,40.935 23.243,43.807 20.852,47.131 19.578,50.259 19.227,51.333 18.437,53.061 19.651,53.839 20.68,54.319 19.959,53.629 20.376,52.957 22.123,49.202 25.127,45.042 27.322,41.555 28.604,42.088 29.847,43.076 31.245,43.23 33.148,43.456 36.427,40.766 36.932,38.917 34.765,40.544 31.025,40.036 28.555,39.984 L 33.291,32.711 C 33.816,32.873 34.743,32.916 36.276,32.933 39.849,33.035 44.417,32.369 44.999,28.6 Z"/>
</svg>
