<svg xmlns="http://www.w3.org/2000/svg" width="64" height="64" version="1.1">
 <path style="opacity:0.2" d="M 12.75,5 C 11.2265,5 10,6.2488 10,7.8 v 50.4 c 0,1.5512 1.2265,2.8 2.75,2.8 h 38.5 C 52.7735,61 54,59.7512 54,58.2 V 21 L 40.25,19 38,5 Z"/>
 <path style="fill:#b2bfd9" d="M 12.75,4 C 11.2265,4 10,5.2488 10,6.8 v 50.4 c 0,1.5512 1.2265,2.8 2.75,2.8 h 38.5 C 52.7735,60 54,58.7512 54,57.2 V 20 L 40.25,18 38,4 Z"/>
 <path style="opacity:0.2" d="M 54,21 38,5 V 18.333333 C 38,19.810666 39.189334,21 40.666666,21 Z"/>
 <path style="fill:#fafafa" d="M 54,20 38,4 V 17.333333 C 38,18.810667 39.189334,20 40.666666,20 Z"/>
 <path style="opacity:0.1" d="m 34.708384,38.324688 c 0.09748,0.11216 0.35622,0.361132 0.776264,0.746932 5.896098,5.980728 8.73068,8.647954 8.502614,9.364636 -0.16392,0.52718 -0.636396,0.974204 -1.41744,1.341082 -0.779758,0.345532 -1.482248,0.502214 -2.107476,0.470046 -0.495022,-0.02546 -2.84597,-1.8644 -7.051716,-6.879776 -0.848634,-1.050578 -1.347062,-1.643958 -1.495284,-1.780144 -0.616212,0.653892 -1.537312,1.999082 -2.763308,4.035578 -1.57813,3.24932 -3.654624,6.247706 -4.843906,9.680956 -0.363252,1.20249 -1.287366,1.765546 -2.77234,1.689158 -0.781574,-0.04022 -1.261776,-0.300572 -1.440596,-0.781102 -0.178834,-0.480534 -0.105704,-1.226616 0.219386,-2.238262 0.624112,-2.024614 3.625602,-6.93704 9.004478,-14.73729 -0.0306,-0.344342 -0.801302,-1.594454 -2.312118,-3.75034 -1.510842,-2.155844 -2.710312,-3.788884 -3.598422,-4.62729 -0.962246,-0.90644 -1.362766,-1.601906 -1.20156,-2.086396 0.363234,-1.202468 1.50879,-1.75413 3.436672,-1.654988 0.937874,0.04828 2.609472,2.069812 5.014806,5.792784 1.027424,1.531144 1.700398,2.46558 2.01892,2.803304 0.554652,-0.50705 1.34532,-1.44118 2.371992,-2.802388 1.027984,-1.382518 1.738894,-2.502856 2.132744,-3.361016 0.389772,-0.794044 1.004616,-1.426564 1.844544,-1.897568 0.83988,-0.470946 1.637588,-0.687002 2.393132,-0.648166 1.172324,0.06032 1.596634,0.58563 1.272922,1.575886 -0.36327,1.20252 -2.477004,3.846798 -6.341208,7.932842 -1.00785,1.062234 -1.555544,1.666074 -1.643102,1.811522"/>
 <path style="fill:#ff6600" d="m 34.708384,37.324688 c 0.09748,0.11216 0.35622,0.361132 0.776264,0.746932 5.896098,5.980728 8.73068,8.647954 8.502614,9.364636 -0.16392,0.52718 -0.636396,0.974204 -1.41744,1.341082 -0.779758,0.345532 -1.482248,0.502214 -2.107476,0.470046 -0.495022,-0.02546 -2.84597,-1.8644 -7.051716,-6.879776 -0.848634,-1.050578 -1.347062,-1.643958 -1.495284,-1.780144 -0.616212,0.653892 -1.537312,1.999082 -2.763308,4.035578 -1.57813,3.24932 -3.654624,6.247706 -4.843906,9.680956 -0.363252,1.20249 -1.287366,1.765546 -2.77234,1.689158 -0.781574,-0.04022 -1.261776,-0.300572 -1.440596,-0.781102 -0.178834,-0.480534 -0.105704,-1.226616 0.219386,-2.238262 0.624112,-2.024614 3.625602,-6.93704 9.004478,-14.73729 -0.0306,-0.344342 -0.801302,-1.594454 -2.312118,-3.75034 -1.510842,-2.155844 -2.710312,-3.788884 -3.598422,-4.62729 -0.962246,-0.90644 -1.362766,-1.601906 -1.20156,-2.086396 0.363234,-1.202468 1.50879,-1.75413 3.436672,-1.654988 0.937874,0.04828 2.609472,2.069812 5.014806,5.792784 1.027424,1.531144 1.700398,2.46558 2.01892,2.803304 0.554652,-0.50705 1.34532,-1.44118 2.371992,-2.802388 1.027984,-1.382518 1.738894,-2.502856 2.132744,-3.361016 0.389772,-0.794044 1.004616,-1.426564 1.844544,-1.897568 0.83988,-0.470946 1.637588,-0.687002 2.393132,-0.648166 1.172324,0.06032 1.596634,0.58563 1.272922,1.575886 -0.36327,1.20252 -2.477004,3.846798 -6.341208,7.932842 -1.00785,1.062234 -1.555544,1.666074 -1.643102,1.811522"/>
 <path style="opacity:0.2;fill:#8b9cbe" d="M 12.75 4 C 11.2265 4 10 5.2495812 10 6.8007812 L 10 7.8007812 C 10 6.2495813 11.2265 5 12.75 5 L 38 5 L 38 4 L 12.75 4 z"/>
</svg>
