<svg xmlns="http://www.w3.org/2000/svg" width="64" height="64" version="1">
 <path style="fill:#4f4f4f" d="M 32,10 C 16.488,10 4,23.75 4,32 4,40.25 16.488,54 32,54 47.512,54 60,40.25 60,32 60,23.75 47.512,10 32,10 Z"/>
 <path style="opacity:0.1;fill:#8b9cbe" d="M 32 10 C 16.488 10 4 23.75 4 32 C 4 32.110698 4.0215797 32.229381 4.03125 32.34375 C 4.6572978 24.042372 16.89117 11 32 11 C 47.10883 11 59.342702 24.042372 59.96875 32.34375 C 59.97836 32.229381 60 32.110698 60 32 C 60 23.75 47.512 10 32 10 z"/>
 <path style="opacity:0.2" d="m 29.77,13.0008 c -0.982,0 -1.77,1.0958 -1.77,2.457 l 0,2.0624 a 16,16 0 0 0 -4.114,1.7106 L 22.422,17.7664 C 21.46,16.8038 20.128,16.5886 19.4336,17.282 l -3.1524,3.1528 c -0.69354,0.69354 -0.47822,2.0256 0.48438,2.9882 l 1.46484,1.46484 a 16,16 0 0 0 -1.6992,4.114 l -2.0742,0 c -1.36132,0 -2.457,0.78872 -2.457,1.76954 l 0,4.461 c 0,0.98 1.0958,1.768 2.457,1.768 l 2.0624,0 a 16,16 0 0 0 1.71094,4.1132 l -1.46484,1.46484 c -0.9626,0.9626 -1.17792,2.2948 -0.48438,2.9882 l 3.1524,3.1524 c 0.69354,0.69354 2.0256,0.47822 2.9882,-0.48438 l 1.46484,-1.46484 a 16,16 0 0 0 4.114,1.698 l 0,2.0742 c 0,1.362 0.788,2.458 1.77,2.458 l 4.461,0 c 0.98,0 1.768,-1.096 1.768,-2.458 l 0,-2.0624 a 16,16 0 0 0 4.1132,-1.71094 l 1.46484,1.46484 c 0.9626,0.9626 2.2948,1.17792 2.9882,0.48438 l 3.1524,-3.1524 c 0.69354,-0.69354 0.47822,-2.0256 -0.48438,-2.9882 l -1.464,-1.464 a 16,16 0 0 0 1.698,-4.114 l 2.0742,0 c 1.362,0 2.458,-0.788 2.458,-1.77 l 0,-4.461 c 0,-0.98 -1.096,-1.768 -2.458,-1.768 l -2.0624,0 a 16,16 0 0 0 -1.71094,-4.1132 l 1.46484,-1.46484 c 0.9626,-0.9626 1.17792,-2.2948 0.48438,-2.9882 l -3.152,-3.1528 c -0.694,-0.6934 -2.026,-0.4782 -2.988,0.4844 l -1.464,1.4644 a 16,16 0 0 0 -4.114,-1.6988 l 0,-2.0742 c 0,-1.3612 -0.788,-2.457 -1.77,-2.457 l -4.461,0 z m 2.23,12 a 8,8 0 0 1 8,8 8,8 0 0 1 -8,8 8,8 0 0 1 -8,-8 8,8 0 0 1 8,-8 z"/>
 <path style="fill:#54b23f" d="m 29.77,12.0012 c -0.982,0 -1.77,1.0958 -1.77,2.457 l 0,2.0624 a 16,16 0 0 0 -4.114,1.711 L 22.422,16.7668 C 21.46,15.8042 20.128,15.589 19.4336,16.2824 l -3.1524,3.1524 c -0.69354,0.69354 -0.47822,2.0256 0.48438,2.9882 l 1.46484,1.46484 a 16,16 0 0 0 -1.6992,4.114 l -2.0742,0 c -1.36132,0 -2.457,0.78872 -2.457,1.76954 l 0,4.461 c 0,0.98 1.0958,1.768 2.457,1.768 l 2.0624,0 a 16,16 0 0 0 1.71094,4.1132 l -1.46484,1.46484 c -0.9626,0.9626 -1.17792,2.2948 -0.48438,2.9882 l 3.1524,3.1524 c 0.69354,0.69354 2.0256,0.47822 2.9882,-0.48438 l 1.46484,-1.46484 a 16,16 0 0 0 4.114,1.698 l 0,2.0742 c 0,1.362 0.788,2.458 1.77,2.458 l 4.461,0 c 0.98,0 1.768,-1.096 1.768,-2.458 l 0,-2.0624 a 16,16 0 0 0 4.1132,-1.71094 l 1.46484,1.46484 c 0.9626,0.9626 2.2948,1.17792 2.9882,0.48438 l 3.1524,-3.1524 c 0.69354,-0.69354 0.47822,-2.0256 -0.48438,-2.9882 l -1.464,-1.464 a 16,16 0 0 0 1.698,-4.114 l 2.0742,0 c 1.362,0 2.458,-0.788 2.458,-1.77 l 0,-4.461 c 0,-0.98 -1.096,-1.768 -2.458,-1.768 l -2.0624,0 a 16,16 0 0 0 -1.71094,-4.1132 l 1.46484,-1.46484 c 0.9626,-0.9626 1.17792,-2.2948 0.48438,-2.9882 l -3.152,-3.1526 c -0.694,-0.6934 -2.026,-0.4782 -2.988,0.4844 l -1.464,1.4648 a 16,16 0 0 0 -4.114,-1.6992 l 0,-2.0742 c 0,-1.3612 -0.788,-2.457 -1.77,-2.457 l -4.461,0 z m 2.23,12 a 8,8 0 0 1 8,8 8,8 0 0 1 -8,8 8,8 0 0 1 -8,-8 8,8 0 0 1 8,-8 z"/>
 <path style="opacity:0.2" d="M 4.0898438 33 C 4.0526437 33.336 4 33.678 4 34 C 4 34.214424 4.0145443 34.434733 4.03125 34.65625 C 4.0497089 34.437941 4.0654325 34.220489 4.0898438 34 C 5.0098438 42.312 17.0918 55 32 55 C 46.908 55 58.990156 42.312 59.910156 34 C 59.93462 34.220948 59.950297 34.438082 59.96875 34.65625 C 59.985456 34.434733 60 34.214424 60 34 C 60 33.67884 59.947436 33.3367 59.910156 33 C 58.990156 41.312 46.908 54 32 54 C 17.0918 54 5.0098438 41.312 4.0898438 33 z"/>
</svg>
