<svg xmlns="http://www.w3.org/2000/svg" width="64" height="64" version="1.1">
 <path style="opacity:0.2" d="M 12.75,5 C 11.2265,5 10,6.2488 10,7.8 v 50.4 c 0,1.55008 1.2265,2.8 2.75,2.8 h 38.5 C 52.7724,61 54,59.75008 54,58.2 V 23 L 40,19 36,5 Z"/>
 <path style="fill:#b2bfd9" d="M 12.75,4 C 11.2265,4 10,5.2488 10,6.8 v 50.4 c 0,1.55008 1.2265,2.8 2.75,2.8 h 38.5 C 52.7724,60 54,58.75008 54,57.2 V 22 L 40,18 36,4 Z"/>
 <path style="opacity:0.2" d="M 54,23 36,5 V 20.1875 C 36,21.74675 37.2555,23 38.8125,23 Z"/>
 <path style="fill:#fafafa" d="M 54,22 36,4 V 19.1875 C 36,20.74675 37.2555,22 38.8125,22 Z"/>
 <path style="opacity:0.2;fill:#8b9cbe" d="M 12.75 4 C 11.2265 4 10 5.2495812 10 6.8007812 L 10 7.8007812 C 10 6.2495813 11.2265 5 12.75 5 L 36 5 L 36 4 L 12.75 4 z"/>
 <path style="fill:#09a576" d="m 32,28 c -5.52278,0 -10,1.588326 -10,3.546876 v 2.906248 C 22,36.411918 26.47722,38 32,38 37.522522,38 42,36.411668 42,34.453124 V 31.546876 C 42,29.588326 37.522522,28 32,28 Z m -10,8.457032 0.004,5.433592 C 22.003814,44.161556 26.478102,46 32,46 37.521642,46 42,44.16098 42,41.890624 L 41.9882,36.585938 C 41.7899,38.482444 37.402224,40 32.003906,40 26.482608,40 22.0059,38.414044 22,36.457032 Z m 0,8 0.004,5.433592 C 22.003814,52.161556 26.478102,54 32,54 37.521642,54 42,52.16098 42,49.890624 L 41.9882,44.585938 C 41.7899,46.482444 37.402224,48 32.003906,48 26.482608,48 22.0059,46.414044 22,44.457032 Z"/>
</svg>
