<svg width="64" height="64" version="1.1" xmlns="http://www.w3.org/2000/svg">
 <path d="m12.75 5c-1.5235 0-2.75 1.2488-2.75 2.8v50.4c0 1.55008 1.2265 2.8 2.75 2.8h38.5c1.5224 0 2.75-1.24992 2.75-2.8v-35.2l-14-4-4-14z" style="opacity:.2"/>
 <path d="m12.75 4c-1.5235 0-2.75 1.2488-2.75 2.8v50.4c0 1.55008 1.2265 2.8 2.75 2.8h38.5c1.5224 0 2.75-1.24992 2.75-2.8v-35.2l-14-4-4-14z" style="fill:#5558c3"/>
 <path d="m54 23-18-18v15.1875c0 1.55925 1.2555 2.8125 2.8125 2.8125z" style="opacity:.2"/>
 <path d="m54 22-18-18v15.1875c0 1.55925 1.2555 2.8125 2.8125 2.8125z" style="fill:#7f81d2"/>
 <path d="m12.75 4c-1.5235 0-2.75 1.2495812-2.75 2.8007812v1c0-1.5511999 1.2265-2.8007812 2.75-2.8007812h23.25v-1h-23.25z" style="fill:#8b9cbe;opacity:.2"/>
 <path d="m28.097656 30.075c-5.075277 0.099232-11.880504 4.07659-12.089844 11.251172-0.134129 4.596985 1.342337 9.548907 9.230469 9.673828 2.381062 0.037712 5.261719-2 5.261719-2l1.5-8h-6.875l-1.125 3h3l-0.597656 2.9375s-1.637631 0.201809-2.47461 0.167969c-2.745071-0.111007-3.973725-2.814787-3.953125-5.109375 0.03784-4.220244 4.076858-7.977234 8.78125-8.027344 2.161396-0.02302 3.660157 1.09375 3.660157 1.09375l0.658203-4.136719s-1.258435-0.923481-4.976563-0.850781zm7.902344-0.075-3 20 9.234375 0.06836c2.44659 0.01386 6.659256-3.07921 6.792969-6.923828-0.0275-1.843894-2.527344-3.644532-2.527344-3.644532s2.474478-1.893636 2.472656-4.501953c-0.0022-2.955251-4.266173-4.929688-5.125-4.929688zm4 4 1.966797 0.05664s2.112206-0.05979 2.132812 1.537109c-0.118376 2.305484-1.803579 2.470342-2.779297 2.458984-0.872958-0.009899-2.320312-0.052733-2.320312-0.052733zm-1.345703 7.927734 3.21875 0.072266s2.100599-0.201319 2.162109 1.826172c0.05119 1.68736-1.590319 2.161142-2.435547 2.173828h-3.599609z" style="opacity:.2"/>
 <path d="m28.097656 29.075c-5.075277 0.099232-11.880503 4.07659-12.089844 11.251172-0.134129 4.596985 1.342337 9.548907 9.230469 9.673828 2.381062 0.037712 5.261719-2 5.261719-2l1.5-8h-6.875l-1.125 3h3l-0.597656 2.9375s-1.637631 0.201809-2.47461 0.167969c-2.745071-0.111007-3.973725-2.814787-3.953125-5.109375 0.03784-4.220244 4.076858-7.977234 8.78125-8.027344 2.161396-0.02302 3.660157 1.09375 3.660157 1.09375l0.658203-4.136719s-1.258435-0.923481-4.976563-0.850781zm7.902344-0.075-3 20 9.234375 0.06836c2.44659 0.01386 6.659256-3.07921 6.792969-6.923828-0.0275-1.843894-2.527344-3.644532-2.527344-3.644532s2.474478-1.893636 2.472656-4.501953c-0.0022-2.955251-4.266173-4.929688-5.125-4.929688zm4 4 1.966797 0.05664s2.112206-0.05979 2.132812 1.537109c-0.118376 2.305484-1.803579 2.470342-2.779297 2.458984-0.872958-0.009899-2.320312-0.052733-2.320312-0.052733zm-1.345703 7.927734 3.21875 0.072266s2.100599-0.201319 2.162109 1.826172c0.05119 1.68736-1.590319 2.161142-2.435547 2.173828h-3.599609z" style="fill:#8b9cbe"/>
</svg>
