<svg width="64" height="64" version="1.1" xmlns="http://www.w3.org/2000/svg">
 <path d="m12.75 5c-1.5235 0-2.75 1.2488-2.75 2.8v50.4c0 1.55008 1.2265 2.8 2.75 2.8h38.5c1.5224 0 2.75-1.24992 2.75-2.8v-35.2l-14-4-4-14z" style="opacity:.2"/>
 <path d="m12.75 4c-1.5235 0-2.75 1.2488-2.75 2.8v50.4c0 1.55008 1.2265 2.8 2.75 2.8h38.5c1.5224 0 2.75-1.24992 2.75-2.8v-35.2l-14-4-4-14z" style="fill:#6657ac"/>
 <path d="m54 23-18-18v15.1875c0 1.55925 1.2555 2.8125 2.8125 2.8125z" style="opacity:.2"/>
 <path d="m54 22-18-18v15.1875c0 1.55925 1.2555 2.8125 2.8125 2.8125z" style="fill:#877cbe"/>
 <path d="m12.75 4c-1.5235 0-2.75 1.2495812-2.75 2.8007812v1c0-1.5511999 1.2265-2.8007812 2.75-2.8007812h23.25v-1h-23.25z" style="fill:#8b9cbe;opacity:.1"/>
 <path d="m24.433594 28.585468a2.8179454 1.0793433 48.256471 0 0-0.316406 0.125 2.8179454 1.0793433 48.256471 0 0 1.097656 2.833984 2.8179454 1.0793433 48.256471 0 0 2.669922 1.357422 2.8179454 1.0793433 48.256471 0 0-1.095704-2.835938 2.8179454 1.0793433 48.256471 0 0-2.355468-1.480468zm14.115234 0.392578a1.0298973 2.683244 45.540585 0 0-2.251953 1.304687 1.0298973 2.683244 45.540585 0 0-1.162109 2.601563 1.0298973 2.683244 45.540585 0 0 2.65039-1.175782 1.0298973 2.683244 45.540585 0 0 1.16211-2.601562 1.0298973 2.683244 45.540585 0 0-0.398438-0.128906zm7.603516 4.033203a1.032825 2.7620134 64.497803 0 0-2.128906 0.595703 1.032825 2.7620134 64.497803 0 0-2.003907 2.117187 1.032825 2.7620134 64.497803 0 0 2.966797-0.289062 1.032825 2.7620134 64.497803 0 0 2.00586-2.117188 1.032825 2.7620134 64.497803 0 0-0.839844-0.30664zm-13.91211 1.054687c-5.051263 0.07728-12.133554 3.71942-12.240234 8.597656-0.120729 5.521004 8.074529 7.259439 12.859375 7.326172 4.059577 0.05661 8.604141-2.180728 10.144531-5.33789 0.334866-0.686331-0.102039-2.084206-0.148437-2.84961-0.0338-0.55753 0.226884-1.112411 0.169922-1.667968-0.406741-3.966957-6.995678-6.126342-10.785157-6.06836zm-16.230468 0.484375a2.8013428 1.0857401 31.888424 0 0-0.728516 0.269531 2.8013428 1.0857401 31.888424 0 0 1.830078 2.40625 2.8013428 1.0857401 31.888424 0 0 2.9375 0.53711 2.8013428 1.0857401 31.888424 0 0-1.830078-2.40625 2.8013428 1.0857401 31.888424 0 0-2.208984-0.806641zm15.660156 4.427735 2.533203 0.05469s-0.333216 0.751744-0.199219 1.097656c0.205938 0.531635 0.809172 0.884768 1.353516 1.017579 0.392294 0.09572 1.03724 0.176798 1.193359-0.203126 0.125319-0.304968-0.616521-0.489409-0.55664-0.814453 0.07075-0.384041 0.592031-0.779326 0.953125-0.65039 1.159453 0.206124 3.459253 0.718916 3.427734 1.699219-0.122647 3.814633-4.814743 5.338995-7.726562 5.283203-2.933853-0.05621-7.476911-1.206716-7.347657-3.708985 0.09671-1.871911 2.330976-3.57584 3.302735-3.560547 0.722297 0.01148 0.108066 1.768247 1.376953 1.81836 0.649859 0.02566 1.889317-0.0296 1.832031-0.691407-0.04628-0.534728-1.421028 0.234522-1.552734-0.285156-0.163008-0.643194 1.410156-1.05664 1.410156-1.05664zm15.707031 1.976562a2.7852995 1.0919936 4.0101176 0 0-2.376953 0.914063 2.7852995 1.0919936 4.0101176 0 0 2.705078 1.283203 2.7852995 1.0919936 4.0101176 0 0 2.851563-0.896485 2.7852995 1.0919936 4.0101176 0 0-2.705079-1.283203 2.7852995 1.0919936 4.0101176 0 0-0.474609-0.01758zm-18.734375 2.078125c-0.266824-0.01084-0.446879 0.04829-0.482422 0.222656-0.197448 0.968637 2.406002 1.576879 3.636719 1.667969 2.936809 0.217358 5.219071 0.163911 5.175781-0.917969-0.03141-0.784824-0.648784-0.306322-5.064453-0.289062-0.876143 0.0034-2.465153-0.651077-3.265625-0.683594zm-13.201172 0.929688a1.092053 2.7851491 87.256532 0 0-0.279297 0.0078 1.092053 2.7851491 87.256532 0 0-2.732421 1.222656 1.092053 2.7851491 87.256532 0 0 2.832031 0.958985 1.092053 2.7851491 87.256532 0 0 2.732422-1.222656 1.092053 2.7851491 87.256532 0 0-2.552735-0.966797zm28.365235 4.972656a2.8015024 1.0856783 32.060694 0 0-0.730469 0.269531 2.8015024 1.0856783 32.060694 0 0 1.824219 2.41211 2.8015024 1.0856783 32.060694 0 0 2.935547 0.544921 2.8015024 1.0856783 32.060694 0 0-1.824219-2.410156 2.8015024 1.0856783 32.060694 0 0-2.205078-0.816406zm-22.410157 1.115234a1.0834316 2.8073119 51.967371 0 0-2.328125 1.060547 1.0834316 2.8073119 51.967371 0 0-1.572265 2.589844 1.0834316 2.8073119 51.967371 0 0 2.865234-0.851563 1.0834316 2.8073119 51.967371 0 0 1.570313-2.591797 1.0834316 2.8073119 51.967371 0 0-0.535157-0.207031zm15.111328 0.957031a2.8376901 1.0718333 69.658308 0 0-0.103515 0.02539 2.8376901 1.0718333 69.658308 0 0-0.0059 3.046875 2.8376901 1.0718333 69.658308 0 0 1.990234 2.269531 2.8376901 1.0718333 69.658308 0 0 0.0059-3.046875 2.8376901 1.0718333 69.658308 0 0-1.886719-2.294921zm-7.011718 0.02344a1.0735521 2.8331464 26.155496 0 0-2.029297 2.09375 1.0735521 2.8331464 26.155496 0 0-0.302735 3.03125 1.0735521 2.8331464 26.155496 0 0 2.210938-2.046875 1.0735521 2.8331464 26.155496 0 0 0.302734-3.03125 1.0735521 2.8331464 26.155496 0 0-0.18164-0.04687z" style="opacity:.2"/>
 <path d="m24.433594 27.585938a2.8179454 1.0793433 48.256471 0 0-0.316406 0.125 2.8179454 1.0793433 48.256471 0 0 1.097656 2.833984 2.8179454 1.0793433 48.256471 0 0 2.669922 1.357422 2.8179454 1.0793433 48.256471 0 0-1.095704-2.835938 2.8179454 1.0793433 48.256471 0 0-2.355468-1.480468zm14.115234 0.392578a1.0298973 2.683244 45.540585 0 0-2.251953 1.304687 1.0298973 2.683244 45.540585 0 0-1.162109 2.601563 1.0298973 2.683244 45.540585 0 0 2.65039-1.175782 1.0298973 2.683244 45.540585 0 0 1.16211-2.601562 1.0298973 2.683244 45.540585 0 0-0.398438-0.128906zm7.603516 4.033203a1.032825 2.7620134 64.497803 0 0-2.128906 0.595703 1.032825 2.7620134 64.497803 0 0-2.003907 2.117187 1.032825 2.7620134 64.497803 0 0 2.966797-0.289062 1.032825 2.7620134 64.497803 0 0 2.00586-2.117188 1.032825 2.7620134 64.497803 0 0-0.839844-0.30664zm-13.91211 1.054687c-5.051263 0.07728-12.133554 3.71942-12.240234 8.597656-0.120729 5.521004 8.074529 7.259439 12.859375 7.326172 4.059577 0.05661 8.604141-2.180728 10.144531-5.33789 0.334866-0.686331-0.102039-2.084206-0.148437-2.84961-0.0338-0.55753 0.226884-1.112411 0.169922-1.667968-0.406741-3.966957-6.995678-6.126342-10.785157-6.06836zm-16.230468 0.484375a2.8013428 1.0857401 31.888424 0 0-0.728516 0.269531 2.8013428 1.0857401 31.888424 0 0 1.830078 2.40625 2.8013428 1.0857401 31.888424 0 0 2.9375 0.53711 2.8013428 1.0857401 31.888424 0 0-1.830078-2.40625 2.8013428 1.0857401 31.888424 0 0-2.208984-0.806641zm15.660156 4.427735 2.533203 0.054687s-0.333216 0.751744-0.199219 1.097656c0.205938 0.531635 0.809172 0.884768 1.353516 1.017579 0.392294 0.09572 1.03724 0.176798 1.193359-0.203126 0.125319-0.304968-0.616521-0.489409-0.55664-0.814453 0.07075-0.384041 0.592031-0.779326 0.953125-0.65039 1.159453 0.206124 3.459253 0.718916 3.427734 1.699219-0.122647 3.814633-4.814743 5.338995-7.726562 5.283203-2.933853-0.05621-7.476911-1.206716-7.347657-3.708985 0.09671-1.871911 2.330976-3.57584 3.302735-3.560547 0.722297 0.01148 0.108066 1.768247 1.376953 1.81836 0.649859 0.02566 1.889317-0.029597 1.832031-0.691407-0.04628-0.534728-1.421028 0.234522-1.552734-0.285156-0.163008-0.643194 1.410156-1.05664 1.410156-1.05664zm15.707031 1.976562a2.7852995 1.0919936 4.0101176 0 0-2.376953 0.914063 2.7852995 1.0919936 4.0101176 0 0 2.705078 1.283203 2.7852995 1.0919936 4.0101176 0 0 2.851563-0.896485 2.7852995 1.0919936 4.0101176 0 0-2.705079-1.283203 2.7852995 1.0919936 4.0101176 0 0-0.474609-0.017578zm-18.734375 2.078125c-0.266824-0.010839-0.446879 0.048287-0.482422 0.222656-0.197448 0.968637 2.406002 1.576879 3.636719 1.667969 2.936809 0.217358 5.219071 0.163911 5.175781-0.917969-0.031406-0.784824-0.648784-0.306322-5.064453-0.289062-0.876143 0.003421-2.465153-0.651077-3.265625-0.683594zm-13.201172 0.929688a1.092053 2.7851491 87.256532 0 0-0.279297 0.007812 1.092053 2.7851491 87.256532 0 0-2.732421 1.222656 1.092053 2.7851491 87.256532 0 0 2.832031 0.958985 1.092053 2.7851491 87.256532 0 0 2.732422-1.222656 1.092053 2.7851491 87.256532 0 0-2.552735-0.966797zm28.365235 4.972656a2.8015024 1.0856783 32.060694 0 0-0.730469 0.269531 2.8015024 1.0856783 32.060694 0 0 1.824219 2.41211 2.8015024 1.0856783 32.060694 0 0 2.935547 0.544921 2.8015024 1.0856783 32.060694 0 0-1.824219-2.410156 2.8015024 1.0856783 32.060694 0 0-2.205078-0.816406zm-22.410157 1.115234a1.0834316 2.8073119 51.967371 0 0-2.328125 1.060547 1.0834316 2.8073119 51.967371 0 0-1.572265 2.589844 1.0834316 2.8073119 51.967371 0 0 2.865234-0.851563 1.0834316 2.8073119 51.967371 0 0 1.570313-2.591797 1.0834316 2.8073119 51.967371 0 0-0.535157-0.207031zm15.111328 0.957031a2.8376901 1.0718333 69.658308 0 0-0.103515 0.025391 2.8376901 1.0718333 69.658308 0 0-0.005859 3.046875 2.8376901 1.0718333 69.658308 0 0 1.990234 2.269531 2.8376901 1.0718333 69.658308 0 0 0.005859-3.046875 2.8376901 1.0718333 69.658308 0 0-1.886719-2.294922zm-7.011718 0.023438a1.0735521 2.8331464 26.155496 0 0-2.029297 2.09375 1.0735521 2.8331464 26.155496 0 0-0.302735 3.03125 1.0735521 2.8331464 26.155496 0 0 2.210938-2.046875 1.0735521 2.8331464 26.155496 0 0 0.302734-3.03125 1.0735521 2.8331464 26.155496 0 0-0.18164-0.046875z" style="fill:#efd211"/>
</svg>
