<svg xmlns="http://www.w3.org/2000/svg" width="64" height="64" version="1.1">
 <path style="opacity:0.2" d="M 12.75,5 C 11.2265,5 10,6.2488 10,7.8 v 50.4 c 0,1.55008 1.2265,2.8 2.75,2.8 h 38.5 C 52.7724,61 54,59.75008 54,58.2 V 23 L 40,19 36,5 Z"/>
 <path style="fill:#1e98d1" d="M 12.75,4 C 11.2265,4 10,5.2488 10,6.8 v 50.4 c 0,1.55008 1.2265,2.8 2.75,2.8 h 38.5 C 52.7724,60 54,58.75008 54,57.2 V 22 L 40,18 36,4 Z"/>
 <path style="opacity:0.2" d="M 54,23 36,5 V 20.1875 C 36,21.74675 37.2555,23 38.8125,23 Z"/>
 <path style="fill:#67bbe9" d="M 54,22 36,4 V 19.1875 C 36,20.74675 37.2555,22 38.8125,22 Z"/>
 <path style="opacity:0.2;fill:#8b9cbe" d="M 12.75 4 C 11.2265 4 10 5.2495812 10 6.8007812 L 10 7.8007812 C 10 6.2495813 11.2265 5 12.75 5 L 36 5 L 36 4 L 12.75 4 z"/>
 <path style="opacity:0.2" d="M 24.098869,30.000567 A 2.0510081,2.0845584 0 0 0 22,32.084917 v 19.831178 a 2.0510081,2.0845584 0 0 0 3.076205,1.804807 l 16.899097,-9.91559 a 2.0510081,2.0845584 0 0 0 0,-3.609614 l -16.899097,-9.91559 a 2.0510081,2.0845584 0 0 0 -0.977336,-0.279541 z"/>
 <path style="fill:#8b9cbe" d="M 24.098869,29.000567 A 2.0510081,2.0845584 0 0 0 22,31.084917 v 19.831178 a 2.0510081,2.0845584 0 0 0 3.076205,1.804807 l 16.899097,-9.91559 a 2.0510081,2.0845584 0 0 0 0,-3.609614 l -16.899097,-9.91559 a 2.0510081,2.0845584 0 0 0 -0.977336,-0.279541 z"/>
</svg>
