<svg xmlns="http://www.w3.org/2000/svg" width="64" height="64" version="1">
 <path style="opacity:0.2" d="m 8,56.2 0,2 c 0,1.55 1.338,2.8 3,2.8 l 42,0 c 1.662,0 3,-1.24958 3,-2.8008 l 0,-2 c 0,1.55 -1.338,2.8 -3,2.8 l -42,0 c -1.662,0 -3,-1.25 -3,-2.8 z"/>
 <path style="fill:#b2bfd9" d="M 56,57.2 56,6.8 C 56,5.2488 54.662,4 53,4 L 11,4 C 9.338,4 8,5.2488 8,6.8 l 0,50.4 c 0,1.552 1.338,2.8 3,2.8 l 42,0 c 1.662,0 3,-1.2488 3,-2.8 z"/>
 <path style="fill:none;stroke:#4f4f4f;stroke-width:4" d="m 14,16 19.8,0 c 0,0 14.203,0.69958 14.2,16 C 47.997,47.30042 33.8,48 33.8,48 L 14,48"/>
 <path style="fill:#4f4f4f;fill-rule:evenodd" d="m 18,15.2 0,38.8 -4,0 6,4 6,-4 -4,0 0,-38.8 z"/>
 <path style="opacity:0.2;fill:#8b9cbe" d="M 11 4 C 9.338 4 8 5.2495812 8 6.8007812 L 8 7.8007812 C 8 6.2495813 9.338 5 11 5 L 53 5 C 54.662 5 56 6.2495812 56 7.8007812 L 56 6.8007812 C 56 5.2495812 54.662 4 53 4 L 11 4 z"/>
</svg>
