<svg xmlns="http://www.w3.org/2000/svg" width="64" height="64" version="1">
 <path style="opacity:0.2" d="m 58,54.3333 v -42.666 c 0,-1.4777 -1.16,-2.667 -2.6,-2.667 H 8.6 C 7.1596,9.0003 6,10.1896 6,11.667 V 54.333 C 6,55.811 7.1596,57 8.6,57 h 46.8 c 1.44,0 2.6,-1.189 2.6,-2.667 z"/>
 <path style="fill:#555e70" d="M 58,53.333 V 10.667 C 58,9.1893 56.84,8 55.4,8 H 8.6 C 7.1596,8 6,9.1893 6,10.6667 v 42.666 c 0,1.478 1.1596,2.667 2.6,2.667 h 46.8 c 1.44,0 2.6,-1.189 2.6,-2.667 z"/>
 <path style="opacity:0.2" d="m 19,23.0003 v 3 h 26 v -3 z m 0,6 v 3 h 26 v -3 z m 0,6 v 3 h 26 v -3 z m 0,6 v 3 h 16 v -3 z"/>
 <path style="fill:#8b9cbe" d="m 19,22 v 3 h 26 v -3 z m 0,6 v 3 h 26 v -3 z m 0,6 v 3 h 26 v -3 z m 0,6 v 3 h 16 v -3 z"/>
 <path style="fill:#8b9cbe;opacity:0.2" d="M 8.5996094 8 C 7.1592094 8 6 9.1886156 6 10.666016 L 6 11.667969 C 6 10.190569 7.1592094 9 8.5996094 9 L 55.400391 9 C 56.840391 9 58 10.190269 58 11.667969 L 58 10.667969 C 58 9.1902687 56.840391 8 55.400391 8 L 8.5996094 8 z"/>
</svg>
