<svg xmlns="http://www.w3.org/2000/svg" width="64" height="64" version="1.1">
 <path style="opacity:0.2" d="M 12.8125,5 C 11.254375,5 10,6.2488 10,7.8 v 50.4 c 0,1.5512 1.254375,2.8 2.8125,2.8 h 39.375 C 53.745625,61 55,59.7512 55,58.2 V 22 L 40.9375,19 38,5 Z"/>
 <path style="fill:#3f4077" d="M 12.8125,4 C 11.254375,4 10,5.2488 10,6.8 v 50.4 c 0,1.5512 1.254375,2.8 2.8125,2.8 h 39.375 C 53.745625,60 55,58.7512 55,57.2 V 21 L 40.9375,18 38,4 Z"/>
 <path style="opacity:0.2" d="m 42,32.999969 c -3.865993,0 -7,3.134007 -7,7 0.0017,1.202567 0.313099,2.384428 0.904297,3.431641 l -2.580078,2.568359 H 14.808594 L 10,51.003875 V 55.332 l 6.085938,-6.332031 H 34.5625 l 3.347656,-3.330078 c 1.189935,0.86154 2.620767,1.326868 4.089844,1.330078 3.865993,0 7,-3.134007 7,-7 0,-3.865993 -3.134007,-7 -7,-7 z m 0,2.800781 c 2.318986,4.31e-4 4.198788,1.880233 4.199219,4.199219 C 46.198788,42.318955 44.318986,44.198757 42,44.199188 39.681014,44.198757 37.801212,42.318955 37.800781,39.999969 37.801212,37.680983 39.681014,35.801181 42,35.80075 Z M 18.5,37 C 17.119288,37 16,38.119288 16,39.5 16,40.880712 17.119288,42 18.5,42 19.880712,42 21,40.880712 21,39.5 21,38.119288 19.880712,37 18.5,37 Z m 9,0 C 26.119288,37 25,38.119288 25,39.5 25,40.880712 26.119288,42 27.5,42 28.880712,42 30,40.880712 30,39.5 30,38.119288 28.880712,37 27.5,37 Z"/>
 <path style="opacity:0.2" d="M 55,22 38,5 V 19.166667 C 38,20.736333 39.263667,22 40.833333,22 Z"/>
 <path style="fill:#5c5da7" d="M 55,21 38,4 V 18.166667 C 38,19.736333 39.263667,21 40.833333,21 Z"/>
 <circle style="fill:#8b9cbe" cx="18.5" cy="38.5" r="2.5"/>
 <circle style="fill:#8b9cbe" cx="27.5" cy="38.5" r="2.5"/>
 <path style="fill:#8b9cbe" d="m 42,32 a 7,7 0 0 0 -7,7 7,7 0 0 0 7,7 7,7 0 0 0 7,-7 7,7 0 0 0 -7,-7 z m 0,2.8 A 4.2,4.2 0 0 1 46.2,39 4.2,4.2 0 0 1 42,43.2 4.2,4.2 0 0 1 37.8,39 4.2,4.2 0 0 1 42,34.8 Z"/>
 <path style="fill:#8b9cbe" d="M 36.847656 41.494141 L 33.324219 45 L 14.808594 45 L 10 50.003906 L 10 54.332031 L 16.085938 48 L 34.5625 48 L 38.964844 43.621094 L 36.847656 41.494141 z"/>
 <path style="fill:#8b9cbe;opacity:0.1" d="M 12.8125 4 C 11.254375 4 10 5.2495813 10 6.8007812 L 10 7.8007812 C 10 6.2495812 11.254375 5 12.8125 5 L 38 5 L 38 4 L 12.8125 4 z"/>
</svg>
