<svg xmlns="http://www.w3.org/2000/svg" width="64" height="64" version="1.1">
 <path style="opacity:0.2" d="m 4,56.000007 0,1.999997 C 4,59.662002 5.3379982,61 6.9999959,61 l 49.9999321,0 c 1.661998,0 2.999996,-1.337998 2.999996,-2.999996 l 0,-1.999997 c 0,1.661998 -1.337998,2.999996 -2.999996,2.999996 l -49.9999321,0 C 5.3379982,59.000003 4,57.662005 4,56.000007 Z"/>
 <rect style="fill:#e9e5dc" width="56" height="56" x="4" y="4" rx="3" ry="3"/>
 <path style="opacity:0.1;fill:#8b9cbe" d="m 7,3.9996064 c -1.6619977,0 -3,1.3380023 -3,3 l 0,1 c 0,-1.6619977 1.3380023,-3 3,-3 l 50,0 c 1.661998,0 3,1.3380023 3,3 l 0,-1 c 0,-1.6619977 -1.338002,-3 -3,-3 l -50,0 z"/>
 <path style="fill:#2095f2;fill-rule:evenodd" d="M 6.7999962,60 31.999962,34.800034 57.199928,60 Z"/>
 <path style="fill:#1ea362;fill-rule:evenodd" d="M 59.999924,57.200003 34.799958,32.000037 59.999924,6.8000714 Z"/>
 <path style="fill:#feea3a;fill-rule:evenodd" d="m 34.475959,29.400041 -4.953193,4.953193 25.527965,25.523966 1.949217,0 c 1.661998,0 2.999996,-1.337998 2.999996,-2.999996 l 0,-1.949198 -25.523965,-25.527965 z"/>
 <path style="fill:#8b9cbe;fill-rule:evenodd" d="M 55.049931,4.0000752 4,55.000006 4,56.949204 C 4,58.611201 5.3379982,59.9492 6.9999959,59.9492 l 1.9492174,0 51.0499307,-51.1999312 0,-1.9491974 c 0,-1.6619978 -1.337998,-2.999996 -2.999996,-2.999996 l -1.949217,0 z"/>
 <path style="opacity:0.2" d="m 48.000141,0.999459 c -8.836588,0 -16.000179,7.0339905 -16.000179,15.710579 0,0.542199 0.04544,1.042798 0.09984,1.570998 0.04384,0.525599 0.11456,1.056398 0.2,1.570998 C 34.131759,30.894819 41.599989,38.715208 48.000181,45 54.400172,38.715808 61.868162,30.895419 63.700159,19.852034 c 0.08544,-0.5146 0.15616,-1.045399 0.2,-1.570998 0.05472,-0.5282 0.09984,-1.028799 0.09984,-1.570998 0,-8.6759885 -7.16399,-15.709979 -15.999978,-15.709979 z"/>
 <path style="fill:#f34235" d="m 48.000141,-5.383e-4 c -8.836588,0 -16.000179,7.0339905 -16.000179,15.7105783 0,0.5422 0.04544,1.042799 0.09984,1.570998 0.04384,0.5256 0.11456,1.056399 0.2,1.570998 1.831957,11.042785 9.300187,18.863175 15.700379,25.147966 6.399991,-6.284191 13.867981,-14.104581 15.699978,-25.147966 0.08544,-0.514599 0.15616,-1.045398 0.2,-1.570998 0.05472,-0.528199 0.09984,-1.028798 0.09984,-1.570998 0,-8.6759878 -7.16399,-15.7099783 -15.999978,-15.7099783 z"/>
 <path style="opacity:0.2" d="m 48.000141,8.999448 c 3.313595,0 5.999991,2.686397 5.999991,5.999992 0,3.313796 -2.686196,5.999992 -5.999991,5.999992 -3.313796,0 -5.999992,-2.686196 -5.999992,-5.999992 0,-3.313595 2.686196,-5.999992 5.999992,-5.999992 z"/>
 <path style="fill:#8b9cbe" d="m 48.000141,7.9994509 c 3.313595,0 5.999991,2.6863961 5.999991,5.9999921 0,3.313795 -2.686196,5.999992 -5.999991,5.999992 -3.313796,0 -5.999992,-2.686197 -5.999992,-5.999992 0,-3.313596 2.686196,-5.9999921 5.999992,-5.9999921 z"/>
</svg>
