<svg xmlns="http://www.w3.org/2000/svg" width="64" height="64" version="1.1">
 <path style="opacity:0.2" d="M 12.75,5 C 11.2265,5 10,6.2488 10,7.8 v 50.4 c 0,1.55008 1.2265,2.8 2.75,2.8 h 38.5 C 52.7724,61 54,59.75008 54,58.2 V 23 L 40,19 36,5 Z"/>
 <path style="fill:#4caf50" d="M 12.75,4 C 11.2265,4 10,5.2488 10,6.8 v 50.4 c 0,1.55008 1.2265,2.8 2.75,2.8 h 38.5 C 52.7724,60 54,58.75008 54,57.2 V 22 L 40,18 36,4 Z"/>
 <rect style="opacity:0.2" width="10" height="27" x="18" y="4"/>
 <rect style="fill:#8b9cbe" width="3" height="3" x="23" y="4"/>
 <rect style="fill:#8b9cbe" width="3" height="3" x="20" y="25"/>
 <path style="fill:#4b4b4b" d="m 23,25 c 3.75,0 3.75,5.600001 5,5.600001 v 7 c 0,0.775599 -0.5575,1.4 -1.25,1.4 h -7.5 c -0.6925,0 -1.25,-0.624401 -1.25,-1.4 v -7 C 19.25,30.600001 19.25,25 23,25 Z"/>
 <path style="opacity:0.2" d="M 22.667969,32.000001 C 20.082636,32.000001 18,34.102726 18,36.710938 v 9.578125 c 0,2.608213 2.082636,4.710938 4.667969,4.710938 h 0.664062 C 25.917364,51.000001 28,48.897278 28,46.289063 v -9.578125 c 0,-2.608212 -2.082636,-4.710937 -4.667969,-4.710937 z m 0.332031,10 c 2.209139,3e-6 4,1.792881 4,4.001953 0,2.209072 -1.790861,3.998047 -4,3.998047 -2.209139,0 -4,-1.788975 -4,-3.998047 0,-2.209072 1.790861,-4.00195 4,-4.001953 z"/>
 <path style="fill:#8b9cbe" d="M 22.667969,31.000001 C 20.082636,31.000001 18,33.102726 18,35.710938 v 9.578125 c 0,2.608213 2.082636,4.710938 4.667969,4.710938 h 0.664062 C 25.917364,50.000001 28,47.897278 28,45.289063 v -9.578125 c 0,-2.608212 -2.082636,-4.710937 -4.667969,-4.710937 z m 0.332031,10 c 2.209139,3e-6 4,1.792881 4,4.001953 0,2.209072 -1.790861,3.998047 -4,3.998047 -2.209139,0 -4,-1.788975 -4,-3.998047 0,-2.209072 1.790861,-4.00195 4,-4.001953 z"/>
 <path style="fill:#909090" d="M 22.984375,27.000122 A 1.0001,0.99660733 0 0 0 22,28.010254 v 5.979047 a 1.0001,0.99660733 0 1 0 2,0 v -5.979047 a 1.0001,0.99660733 0 0 0 -1.015625,-1.010132 z"/>
 <rect style="fill:#8b9cbe" width="3" height="3" x="20" y="7"/>
 <rect style="fill:#8b9cbe" width="3" height="3" x="23" y="10"/>
 <rect style="fill:#8b9cbe" width="3" height="3" x="20" y="13"/>
 <rect style="fill:#8b9cbe" width="3" height="3" x="23" y="16"/>
 <rect style="fill:#8b9cbe" width="3" height="3" x="20" y="19"/>
 <rect style="fill:#8b9cbe" width="3" height="3" x="23" y="22"/>
 <path style="opacity:0.2" d="M 54,23 36,5 V 20.1875 C 36,21.74675 37.2555,23 38.8125,23 Z"/>
 <path style="fill:#88cc8b" d="M 54,22 36,4 V 19.1875 C 36,20.74675 37.2555,22 38.8125,22 Z"/>
 <path style="opacity:0.2;fill:#8b9cbe" d="M 12.75 4 C 11.2265 4 10 5.2495812 10 6.8007812 L 10 7.8007812 C 10 6.2495813 11.2265 5 12.75 5 L 36 5 L 36 4 L 12.75 4 z"/>
</svg>
