<svg xmlns="http://www.w3.org/2000/svg" width="64" height="64" version="1.1">
 <path style="opacity:0.2" d="M 12.75,5 C 11.2265,5 10,6.2488 10,7.8 v 50.4 c 0,1.55008 1.2265,2.8 2.75,2.8 h 38.5 C 52.7724,61 54,59.75008 54,58.2 V 23 L 40,19 36,5 Z"/>
 <path style="fill:#b2bfd9" d="M 12.75,4 C 11.2265,4 10,5.2488 10,6.8 v 50.4 c 0,1.55008 1.2265,2.8 2.75,2.8 h 38.5 C 52.7724,60 54,58.75008 54,57.2 V 22 L 40,18 36,4 Z"/>
 <path style="opacity:0.2" d="M 54,23 36,5 V 20.1875 C 36,21.74675 37.2555,23 38.8125,23 Z"/>
 <path style="fill:#fafafa" d="M 54,22 36,4 V 19.1875 C 36,20.74675 37.2555,22 38.8125,22 Z"/>
 <path style="opacity:0.2;fill:#8b9cbe" d="M 12.75 4 C 11.2265 4 10 5.2495812 10 6.8007812 L 10 7.8007812 C 10 6.2495813 11.2265 5 12.75 5 L 36 5 L 36 4 L 12.75 4 z"/>
 <path style="opacity:0.1" d="m 32,28 -12,7 v 5.5 L 37.585,45.776 32,49 25,45 V 44 L 20,42.5 V 48 l 12,7 12,-7 V 42.5 L 26.415,37.225 32,34 l 7,4 v 1 l 5,1.5 V 35 Z"/>
 <path style="fill:#e2222f" d="m 32,27 -12,7 v 5.5 L 37.585,44.776 32,48 25,44 V 43 L 20,41.5 V 47 l 12,7 12,-7 V 41.5 L 26.415,36.225 32,33 l 7,4 v 1 l 5,1.5 V 34 Z"/>
</svg>
