<svg xmlns="http://www.w3.org/2000/svg" width="64" height="64" version="1.1">
 <path style="opacity:0.2" d="M 12.75,5 C 11.2265,5 10,6.2488 10,7.8 v 50.4 c 0,1.55008 1.2265,2.8 2.75,2.8 h 38.5 C 52.7724,61 54,59.75008 54,58.2 V 23 L 40,19 36,5 Z"/>
 <path style="fill:#ce5068" d="M 12.75,4 C 11.2265,4 10,5.2488 10,6.8 v 50.4 c 0,1.55008 1.2265,2.8 2.75,2.8 h 38.5 C 52.7724,60 54,58.75008 54,57.2 V 22 L 40,18 36,4 Z"/>
 <path style="opacity:0.2" d="M 54,23 36,5 V 20.1875 C 36,21.74675 37.2555,23 38.8125,23 Z"/>
 <path style="fill:#ef8b9d" d="M 54,22 36,4 V 19.1875 C 36,20.74675 37.2555,22 38.8125,22 Z"/>
 <path style="opacity:0.2;fill:#8b9cbe" d="M 12.75 4 C 11.2265 4 10 5.2495812 10 6.8007812 L 10 7.8007812 C 10 6.2495813 11.2265 5 12.75 5 L 36 5 L 36 4 L 12.75 4 z"/>
 <path style="opacity:0.2" d="m 32,28 c -7.756,0 -14,6.244 -14,14 0,7.756 6.244,14 14,14 7.756,0 14,-6.244 14,-14 0,-7.756 -6.244,-14 -14,-14 z m 0,8 a 6,6 0 0 1 6,6 6,6 0 0 1 -6,6 6,6 0 0 1 -6,-6 6,6 0 0 1 6,-6 z"/>
 <path style="fill:#8b9cbe" d="M 32 27 C 24.244 27 18 33.244 18 41 C 18 48.756 24.244 55 32 55 C 39.756 55 46 48.756 46 41 C 46 33.244 39.756 27 32 27 z M 32 35 A 6 6 0 0 1 38 41 A 6 6 0 0 1 32 47 A 6 6 0 0 1 26 41 A 6 6 0 0 1 32 35 z"/>
 <path style="opacity:0.5;fill:#8b9cbe" d="M 32 34 A 7 7 0 0 0 25 41 A 7 7 0 0 0 32 48 A 7 7 0 0 0 39 41 A 7 7 0 0 0 32 34 z M 32 38 C 33.6569 38 35 39.3431 35 41 C 35 42.6569 33.6569 44 32 44 C 30.3431 44 29 42.6569 29 41 C 29 39.3431 30.3431 38 32 38 z"/>
</svg>
