<svg xmlns="http://www.w3.org/2000/svg" width="64" height="64" version="1">
 <path style="opacity:0.2" d="M 4,21.9 4,55.199219 C 4,56.750419 5.2495813,58 6.8007812,58 l 49.3988278,0 c 1.551201,0 2.754237,-1.250279 2.800782,-2.800781 l 0,-33.299219 z"/>
 <path style="fill:#b2bfd9" d="M 4,20.9 4,54.199219 C 4,55.750419 5.2495813,57 6.8007812,57 l 49.3988278,0 c 1.551201,0 2.800782,-1.249581 2.800782,-2.800781 l 0,-33.299219 z"/>
 <path style="opacity:0.2" d="m 59.000391,22 0,-11.2 c 0,-1.5512 -1.248801,-2.8 -2.8,-2.8 L 6.8,8 C 5.2488,8 4,9.2488 4,10.8 L 4,22 Z"/>
 <path style="fill:#f54b3e" d="m 59.000391,21 0,-11.2 c 0,-1.5512 -1.248801,-2.8 -2.8,-2.8 L 6.8,7 C 5.2488,7 4,8.2488 4,9.8 L 4,21 Z"/>
 <rect style="opacity:0.2" width="8" height="8" x="33" y="24"/>
 <rect style="opacity:0.2" width="8" height="8" x="44" y="24"/>
 <rect style="opacity:0.2" width="8" height="8" x="22" y="24"/>
 <rect style="opacity:0.2" width="8" height="8" x="11" y="24"/>
 <circle style="opacity:0.2" cx="37" cy="40" r="4"/>
 <circle style="fill:#f54b3e" cx="37" cy="39" r="4"/>
 <circle style="opacity:0.2" cx="14.5" cy="14.5" r="2.5"/>
 <circle style="fill:#8b9cbe" cx="14.5" cy="13.5" r="2.5"/>
 <circle style="opacity:0.2" cx="48.5" cy="14.5" r="2.5"/>
 <circle style="fill:#8b9cbe" cx="48.5" cy="13.5" r="2.5"/>
 <rect style="opacity:0.2" width="8" height="8" x="44" y="35"/>
 <rect style="opacity:0.2" width="8" height="8" x="22" y="35"/>
 <rect style="opacity:0.2" width="8" height="8" x="11" y="35"/>
 <rect style="opacity:0.2" width="8" height="8" x="33" y="46"/>
 <rect style="opacity:0.2" width="8" height="8" x="44" y="46"/>
 <rect style="opacity:0.2" width="8" height="8" x="22" y="46"/>
 <rect style="opacity:0.2" width="8" height="8" x="11" y="46"/>
 <path style="fill:#8b9cbe;opacity:0.2" d="M 6.8007812 7 C 5.2495813 7 4 8.2495812 4 9.8007812 L 4 10.800781 C 4 9.2495812 5.2495813 8 6.8007812 8 L 56.201172 8 C 57.752371 8 59 9.2495813 59 10.800781 L 59 9.8007812 C 59 8.2495813 57.752371 7 56.201172 7 L 6.8007812 7 z"/>
</svg>
