<svg xmlns="http://www.w3.org/2000/svg" width="64" height="64" version="1.1">
 <path style="opacity:0.2" d="M 12.75,5 C 11.2265,5 10,6.2488 10,7.8 v 50.4 c 0,1.55008 1.2265,2.8 2.75,2.8 h 38.5 C 52.7724,61 54,59.75008 54,58.2 V 23 L 40,19 36,5 Z"/>
 <path style="fill:#4f4f4f" d="M 12.75,4 C 11.2265,4 10,5.2488 10,6.8 v 50.4 c 0,1.55008 1.2265,2.8 2.75,2.8 h 38.5 C 52.7724,60 54,58.75008 54,57.2 V 22 L 40,18 36,4 Z"/>
 <path style="opacity:0.2" d="M 54,23 36,5 V 20.1875 C 36,21.74675 37.2555,23 38.8125,23 Z"/>
 <path style="fill:#696969" d="M 54,22 36,4 V 19.1875 C 36,20.74675 37.2555,22 38.8125,22 Z"/>
 <path style="opacity:0.1;fill:#8b9cbe" d="M 12.75 4 C 11.2265 4 10 5.2495812 10 6.8007812 L 10 7.8007812 C 10 6.2495813 11.2265 5 12.75 5 L 36 5 L 36 4 L 12.75 4 z"/>
 <path style="opacity:0.2" d="m 26.4048,31.00791 c -1.455175,-0.07679 -2.880237,0.405115 -3.936522,1.461297 -2.112431,2.112336 -1.923229,5.701918 0.42393,8.048957 l 1.482401,1.482333 -1.482401,1.482334 c -2.347145,2.34704 -2.536347,5.936622 -0.42393,8.048957 2.112418,2.112336 5.702175,1.923142 8.049321,-0.42391 L 32,49.625544 l 1.4824,1.482334 c 2.347146,2.347038 5.93689,2.536232 8.049321,0.42391 2.112431,-2.112322 1.92323,-5.701917 -0.42393,-8.048957 l -1.4824,-1.482334 1.4824,-1.482333 c 2.347146,-2.347039 2.536348,-5.936621 0.42393,-8.048957 -2.112417,-2.112335 -5.702175,-1.923143 -8.049321,0.423911 L 32,34.375451 30.517599,32.893118 c -1.1736,-1.173548 -2.657623,-1.808472 -4.112936,-1.885194 z m 5.595337,5.273896 a 1.3481444,1.3480834 0 0 1 0,1.906231 1.3481444,1.3480834 0 0 1 0,-1.906231 z m -1.927767,2.463911 a 1.3481444,1.3480834 0 0 1 0.368641,0.0474 1.3481444,1.3480834 0 0 1 -0.347562,1.30069 1.3481444,1.3480834 0 0 1 -1.300748,0.347546 1.3481444,1.3480834 0 0 1 0.347562,-1.300689 1.3481444,1.3480834 0 0 1 0.932121,-0.39494 z m 3.854847,0 a 1.3481444,1.3480834 0 0 1 0.93212,0.39494 1.3481444,1.3480834 0 0 1 0.347576,1.300689 1.3481444,1.3480834 0 0 1 -1.300748,-0.347546 1.3481444,1.3480834 0 0 1 -0.347562,-1.30069 1.3481444,1.3480834 0 0 1 0.368627,-0.0474 z m -1.927492,1.906229 a 1.3481444,1.3480834 0 0 1 0.09742,0.0052 1.3481444,1.3480834 0 0 1 0.01843,0 1.3481444,1.3480834 0 0 1 0.0052,0 1.3481444,1.3480834 0 0 1 0.105326,0.0158 1.3481444,1.3480834 0 0 1 0.03423,0.0052 1.3481444,1.3480834 0 0 1 0.08952,0.02107 1.3481444,1.3480834 0 0 1 0.03686,0.01059 1.3481444,1.3480834 0 0 1 0.118485,0.04213 1.3481444,1.3480834 0 0 1 0.100059,0.04476 1.3481444,1.3480834 0 0 1 0.03686,0.01843 1.3481444,1.3480834 0 0 1 0.05004,0.02895 1.3481444,1.3480834 0 0 1 0.08162,0.05529 1.3481444,1.3480834 0 0 1 0.0027,0 1.3481444,1.3480834 0 0 1 0.07635,0.05793 1.3481444,1.3480834 0 0 1 0.10006,0.08952 1.3481444,1.3480834 0 0 1 0.08952,0.100056 1.3481444,1.3480834 0 0 1 0.05793,0.07899 1.3481444,1.3480834 0 0 1 0.05529,0.08162 1.3481444,1.3480834 0 0 1 0.02895,0.05004 1.3481444,1.3480834 0 0 1 0.01843,0.03686 1.3481444,1.3480834 0 0 1 0.04476,0.100055 1.3481444,1.3480834 0 0 1 0.04213,0.118479 1.3481444,1.3480834 0 0 1 0.01059,0.03686 1.3481444,1.3480834 0 0 1 0.02107,0.08952 1.3481444,1.3480834 0 0 1 0.0052,0.03423 1.3481444,1.3480834 0 0 1 0.0158,0.10532 1.3481444,1.3480834 0 0 1 0,0.02369 1.3481444,1.3480834 0 0 1 0.0052,0.09741 1.3481444,1.3480834 0 0 1 -0.0052,0.09742 1.3481444,1.3480834 0 0 1 0,0.02369 1.3481444,1.3480834 0 0 1 -0.0158,0.105321 1.3481444,1.3480834 0 0 1 -0.0052,0.03423 1.3481444,1.3480834 0 0 1 -0.02107,0.08952 1.3481444,1.3480834 0 0 1 -0.01059,0.03686 1.3481444,1.3480834 0 0 1 -0.04213,0.11848 1.3481444,1.3480834 0 0 1 -0.04476,0.100054 1.3481444,1.3480834 0 0 1 -0.01843,0.03686 1.3481444,1.3480834 0 0 1 -0.02895,0.05002 1.3481444,1.3480834 0 0 1 -0.05529,0.08162 1.3481444,1.3480834 0 0 1 -0.05793,0.07899 1.3481444,1.3480834 0 0 1 -0.08952,0.100054 1.3481444,1.3480834 0 0 1 -0.10006,0.08952 1.3481444,1.3480834 0 0 1 -0.07635,0.05793 1.3481444,1.3480834 0 0 1 -0.0027,0 1.3481444,1.3480834 0 0 1 -0.08162,0.05528 1.3481444,1.3480834 0 0 1 -0.05004,0.02895 1.3481444,1.3480834 0 0 1 -0.03686,0.01843 1.3481444,1.3480834 0 0 1 -0.100059,0.04476 1.3481444,1.3480834 0 0 1 -0.118485,0.04213 1.3481444,1.3480834 0 0 1 -0.03686,0.01059 1.3481444,1.3480834 0 0 1 -0.08952,0.02107 1.3481444,1.3480834 0 0 1 -0.03423,0.0052 1.3481444,1.3480834 0 0 1 -0.105326,0.0158 1.3481444,1.3480834 0 0 1 -0.0052,0 1.3481444,1.3480834 0 0 1 -0.01843,0 1.3481444,1.3480834 0 0 1 -0.09742,0.0052 1.3481444,1.3480834 0 0 1 -0.09742,-0.0052 1.3481444,1.3480834 0 0 1 -0.02369,0 1.3481444,1.3480834 0 0 1 -0.105326,-0.0158 1.3481444,1.3480834 0 0 1 -0.03423,-0.0052 1.3481444,1.3480834 0 0 1 -0.08952,-0.02107 1.3481444,1.3480834 0 0 1 -0.03686,-0.01059 1.3481444,1.3480834 0 0 1 -0.118484,-0.04213 1.3481444,1.3480834 0 0 1 -0.10006,-0.04476 1.3481444,1.3480834 0 0 1 -0.03686,-0.01843 1.3481444,1.3480834 0 0 1 -0.05002,-0.02895 1.3481444,1.3480834 0 0 1 -0.08162,-0.05528 1.3481444,1.3480834 0 0 1 -0.0027,0 1.3481444,1.3480834 0 0 1 -0.07635,-0.05793 1.3481444,1.3480834 0 0 1 -0.10006,-0.08952 1.3481444,1.3480834 0 0 1 -0.08952,-0.100054 1.3481444,1.3480834 0 0 1 -0.05793,-0.07635 1.3481444,1.3480834 0 0 1 0,-0.0027 1.3481444,1.3480834 0 0 1 -0.05529,-0.08162 1.3481444,1.3480834 0 0 1 -0.02895,-0.05002 1.3481444,1.3480834 0 0 1 -0.01843,-0.03686 1.3481444,1.3480834 0 0 1 -0.04476,-0.100054 1.3481444,1.3480834 0 0 1 -0.04213,-0.11848 1.3481444,1.3480834 0 0 1 -0.01059,-0.03686 1.3481444,1.3480834 0 0 1 -0.02107,-0.08952 1.3481444,1.3480834 0 0 1 -0.0052,-0.03423 1.3481444,1.3480834 0 0 1 -0.0158,-0.105321 1.3481444,1.3480834 0 0 1 0,-0.02369 1.3481444,1.3480834 0 0 1 -0.0052,-0.09742 1.3481444,1.3480834 0 0 1 0.0052,-0.09741 1.3481444,1.3480834 0 0 1 0,-0.02369 1.3481444,1.3480834 0 0 1 0.0158,-0.105321 1.3481444,1.3480834 0 0 1 0.0052,-0.03423 1.3481444,1.3480834 0 0 1 0.02107,-0.08952 1.3481444,1.3480834 0 0 1 0.01059,-0.03686 1.3481444,1.3480834 0 0 1 0.04213,-0.118479 1.3481444,1.3480834 0 0 1 0.04476,-0.100055 1.3481444,1.3480834 0 0 1 0.01843,-0.03686 1.3481444,1.3480834 0 0 1 0.02895,-0.05004 1.3481444,1.3480834 0 0 1 0.05529,-0.08162 1.3481444,1.3480834 0 0 1 0.05793,-0.07899 1.3481444,1.3480834 0 0 1 0.08952,-0.100055 1.3481444,1.3480834 0 0 1 0.10006,-0.08952 1.3481444,1.3480834 0 0 1 0.07899,-0.05793 1.3481444,1.3480834 0 0 1 0.08162,-0.05528 1.3481444,1.3480834 0 0 1 0.05002,-0.02895 1.3481444,1.3480834 0 0 1 0.03686,-0.01843 1.3481444,1.3480834 0 0 1 0.10006,-0.04476 1.3481444,1.3480834 0 0 1 0.118485,-0.04213 1.3481444,1.3480834 0 0 1 0.03686,-0.01059 1.3481444,1.3480834 0 0 1 0.08952,-0.02107 1.3481444,1.3480834 0 0 1 0.03423,-0.0052 1.3481444,1.3480834 0 0 1 0.105326,-0.0158 1.3481444,1.3480834 0 0 1 0.02369,0 1.3481444,1.3480834 0 0 1 0.09742,-0.0052 z m -4.786967,0.953143 a 1.3481444,1.3480834 0 0 1 0.974237,0.394941 1.3481444,1.3480834 0 0 1 -1.906317,0 1.3481444,1.3480834 0 0 1 0.932121,-0.394941 z m 9.573934,0 a 1.3481444,1.3480834 0 0 1 0.932121,0.394941 1.3481444,1.3480834 0 0 1 -1.906317,0 1.3481444,1.3480834 0 0 1 0.974251,-0.394941 z m -7.667618,1.906231 a 1.3481444,1.3480834 0 0 1 0.974251,0.394941 1.3481444,1.3480834 0 0 1 0.347562,1.300688 1.3481444,1.3480834 0 0 1 -1.300747,-0.347546 1.3481444,1.3480834 0 0 1 -0.347562,-1.300688 1.3481444,1.3480834 0 0 1 0.32651,-0.0474 z m 5.761164,0 a 1.3481444,1.3480834 0 0 1 0.32651,0.0474 1.3481444,1.3480834 0 0 1 -0.347576,1.300688 1.3481444,1.3480834 0 0 1 -1.300747,0.347546 1.3481444,1.3480834 0 0 1 0.347562,-1.300688 1.3481444,1.3480834 0 0 1 0.974251,-0.394941 z m -2.880651,2.301254 a 1.3481444,1.3480834 0 0 1 0,1.906231 1.3481444,1.3480834 0 0 1 0,-1.906231 z"/>
 <path style="fill:#ffc510" d="m 26.4048,30.00791 c -1.455175,-0.07679 -2.880237,0.405115 -3.936522,1.461297 -2.112431,2.112336 -1.923229,5.701918 0.42393,8.048957 l 1.482401,1.482333 -1.482401,1.482334 c -2.347145,2.34704 -2.536347,5.936622 -0.42393,8.048957 2.112418,2.112336 5.702175,1.923142 8.049321,-0.42391 L 32,48.625544 l 1.4824,1.482334 c 2.347146,2.347038 5.93689,2.536232 8.049321,0.42391 2.112431,-2.112322 1.92323,-5.701917 -0.42393,-8.048957 l -1.4824,-1.482334 1.4824,-1.482333 c 2.347146,-2.347039 2.536348,-5.936621 0.42393,-8.048957 -2.112417,-2.112335 -5.702175,-1.923143 -8.049321,0.423911 L 32,33.375451 30.517599,31.893118 c -1.1736,-1.173548 -2.657623,-1.808472 -4.112936,-1.885194 z m 5.595337,5.273896 a 1.3481444,1.3480834 0 0 1 0,1.906231 1.3481444,1.3480834 0 0 1 0,-1.906231 z m -1.927767,2.463911 a 1.3481444,1.3480834 0 0 1 0.368641,0.0474 1.3481444,1.3480834 0 0 1 -0.347562,1.30069 1.3481444,1.3480834 0 0 1 -1.300748,0.347546 1.3481444,1.3480834 0 0 1 0.347562,-1.300689 1.3481444,1.3480834 0 0 1 0.932121,-0.39494 z m 3.854847,0 a 1.3481444,1.3480834 0 0 1 0.93212,0.39494 1.3481444,1.3480834 0 0 1 0.347576,1.300689 1.3481444,1.3480834 0 0 1 -1.300748,-0.347546 1.3481444,1.3480834 0 0 1 -0.347562,-1.30069 1.3481444,1.3480834 0 0 1 0.368627,-0.0474 z m -1.927492,1.906229 a 1.3481444,1.3480834 0 0 1 0.09742,0.0052 1.3481444,1.3480834 0 0 1 0.01843,0 1.3481444,1.3480834 0 0 1 0.0052,0 1.3481444,1.3480834 0 0 1 0.105326,0.0158 1.3481444,1.3480834 0 0 1 0.03423,0.0052 1.3481444,1.3480834 0 0 1 0.08952,0.02107 1.3481444,1.3480834 0 0 1 0.03686,0.01059 1.3481444,1.3480834 0 0 1 0.118485,0.04213 1.3481444,1.3480834 0 0 1 0.100059,0.04476 1.3481444,1.3480834 0 0 1 0.03686,0.01843 1.3481444,1.3480834 0 0 1 0.05004,0.02895 1.3481444,1.3480834 0 0 1 0.08162,0.05529 1.3481444,1.3480834 0 0 1 0.0027,0 1.3481444,1.3480834 0 0 1 0.07635,0.05793 1.3481444,1.3480834 0 0 1 0.10006,0.08952 1.3481444,1.3480834 0 0 1 0.08952,0.100056 1.3481444,1.3480834 0 0 1 0.05793,0.07899 1.3481444,1.3480834 0 0 1 0.05529,0.08162 1.3481444,1.3480834 0 0 1 0.02895,0.05004 1.3481444,1.3480834 0 0 1 0.01843,0.03686 1.3481444,1.3480834 0 0 1 0.04476,0.100055 1.3481444,1.3480834 0 0 1 0.04213,0.118479 1.3481444,1.3480834 0 0 1 0.01059,0.03686 1.3481444,1.3480834 0 0 1 0.02107,0.08952 1.3481444,1.3480834 0 0 1 0.0052,0.03423 1.3481444,1.3480834 0 0 1 0.0158,0.10532 1.3481444,1.3480834 0 0 1 0,0.02369 1.3481444,1.3480834 0 0 1 0.0052,0.09741 1.3481444,1.3480834 0 0 1 -0.0052,0.09742 1.3481444,1.3480834 0 0 1 0,0.02369 1.3481444,1.3480834 0 0 1 -0.0158,0.105321 1.3481444,1.3480834 0 0 1 -0.0052,0.03423 1.3481444,1.3480834 0 0 1 -0.02107,0.08952 1.3481444,1.3480834 0 0 1 -0.01059,0.03686 1.3481444,1.3480834 0 0 1 -0.04213,0.11848 1.3481444,1.3480834 0 0 1 -0.04476,0.100054 1.3481444,1.3480834 0 0 1 -0.01843,0.03686 1.3481444,1.3480834 0 0 1 -0.02895,0.05002 1.3481444,1.3480834 0 0 1 -0.05529,0.08162 1.3481444,1.3480834 0 0 1 -0.05793,0.07899 1.3481444,1.3480834 0 0 1 -0.08952,0.100054 1.3481444,1.3480834 0 0 1 -0.10006,0.08952 1.3481444,1.3480834 0 0 1 -0.07635,0.05793 1.3481444,1.3480834 0 0 1 -0.0027,0 1.3481444,1.3480834 0 0 1 -0.08162,0.05528 1.3481444,1.3480834 0 0 1 -0.05004,0.02895 1.3481444,1.3480834 0 0 1 -0.03686,0.01843 1.3481444,1.3480834 0 0 1 -0.100059,0.04476 1.3481444,1.3480834 0 0 1 -0.118485,0.04213 1.3481444,1.3480834 0 0 1 -0.03686,0.01059 1.3481444,1.3480834 0 0 1 -0.08952,0.02107 1.3481444,1.3480834 0 0 1 -0.03423,0.0052 1.3481444,1.3480834 0 0 1 -0.105326,0.0158 1.3481444,1.3480834 0 0 1 -0.0052,0 1.3481444,1.3480834 0 0 1 -0.01843,0 1.3481444,1.3480834 0 0 1 -0.09742,0.0052 1.3481444,1.3480834 0 0 1 -0.09742,-0.0052 1.3481444,1.3480834 0 0 1 -0.02369,0 1.3481444,1.3480834 0 0 1 -0.105326,-0.0158 1.3481444,1.3480834 0 0 1 -0.03423,-0.0052 1.3481444,1.3480834 0 0 1 -0.08952,-0.02107 1.3481444,1.3480834 0 0 1 -0.03686,-0.01059 1.3481444,1.3480834 0 0 1 -0.118484,-0.04213 1.3481444,1.3480834 0 0 1 -0.10006,-0.04476 1.3481444,1.3480834 0 0 1 -0.03686,-0.01843 1.3481444,1.3480834 0 0 1 -0.05002,-0.02895 1.3481444,1.3480834 0 0 1 -0.08162,-0.05528 1.3481444,1.3480834 0 0 1 -0.0027,0 1.3481444,1.3480834 0 0 1 -0.07635,-0.05793 1.3481444,1.3480834 0 0 1 -0.10006,-0.08952 1.3481444,1.3480834 0 0 1 -0.08952,-0.100054 1.3481444,1.3480834 0 0 1 -0.05793,-0.07635 1.3481444,1.3480834 0 0 1 0,-0.0027 1.3481444,1.3480834 0 0 1 -0.05529,-0.08162 1.3481444,1.3480834 0 0 1 -0.02895,-0.05002 1.3481444,1.3480834 0 0 1 -0.01843,-0.03686 1.3481444,1.3480834 0 0 1 -0.04476,-0.100054 1.3481444,1.3480834 0 0 1 -0.04213,-0.11848 1.3481444,1.3480834 0 0 1 -0.01059,-0.03686 1.3481444,1.3480834 0 0 1 -0.02107,-0.08952 1.3481444,1.3480834 0 0 1 -0.0052,-0.03423 1.3481444,1.3480834 0 0 1 -0.0158,-0.105321 1.3481444,1.3480834 0 0 1 0,-0.02369 1.3481444,1.3480834 0 0 1 -0.0052,-0.09742 1.3481444,1.3480834 0 0 1 0.0052,-0.09741 1.3481444,1.3480834 0 0 1 0,-0.02369 1.3481444,1.3480834 0 0 1 0.0158,-0.105321 1.3481444,1.3480834 0 0 1 0.0052,-0.03423 1.3481444,1.3480834 0 0 1 0.02107,-0.08952 1.3481444,1.3480834 0 0 1 0.01059,-0.03686 1.3481444,1.3480834 0 0 1 0.04213,-0.118479 1.3481444,1.3480834 0 0 1 0.04476,-0.100055 1.3481444,1.3480834 0 0 1 0.01843,-0.03686 1.3481444,1.3480834 0 0 1 0.02895,-0.05004 1.3481444,1.3480834 0 0 1 0.05529,-0.08162 1.3481444,1.3480834 0 0 1 0.05793,-0.07899 1.3481444,1.3480834 0 0 1 0.08952,-0.100055 1.3481444,1.3480834 0 0 1 0.10006,-0.08952 1.3481444,1.3480834 0 0 1 0.07899,-0.05793 1.3481444,1.3480834 0 0 1 0.08162,-0.05528 1.3481444,1.3480834 0 0 1 0.05002,-0.02895 1.3481444,1.3480834 0 0 1 0.03686,-0.01843 1.3481444,1.3480834 0 0 1 0.10006,-0.04476 1.3481444,1.3480834 0 0 1 0.118485,-0.04213 1.3481444,1.3480834 0 0 1 0.03686,-0.01059 1.3481444,1.3480834 0 0 1 0.08952,-0.02107 1.3481444,1.3480834 0 0 1 0.03423,-0.0052 1.3481444,1.3480834 0 0 1 0.105326,-0.0158 1.3481444,1.3480834 0 0 1 0.02369,0 1.3481444,1.3480834 0 0 1 0.09742,-0.0052 z m -4.786967,0.953143 a 1.3481444,1.3480834 0 0 1 0.974237,0.394941 1.3481444,1.3480834 0 0 1 -1.906317,0 1.3481444,1.3480834 0 0 1 0.932121,-0.394941 z m 9.573934,0 a 1.3481444,1.3480834 0 0 1 0.932121,0.394941 1.3481444,1.3480834 0 0 1 -1.906317,0 1.3481444,1.3480834 0 0 1 0.974251,-0.394941 z m -7.667618,1.906231 a 1.3481444,1.3480834 0 0 1 0.974251,0.394941 1.3481444,1.3480834 0 0 1 0.347562,1.300688 1.3481444,1.3480834 0 0 1 -1.300747,-0.347546 1.3481444,1.3480834 0 0 1 -0.347562,-1.300688 1.3481444,1.3480834 0 0 1 0.32651,-0.0474 z m 5.761164,0 a 1.3481444,1.3480834 0 0 1 0.32651,0.0474 1.3481444,1.3480834 0 0 1 -0.347576,1.300688 1.3481444,1.3480834 0 0 1 -1.300747,0.347546 1.3481444,1.3480834 0 0 1 0.347562,-1.300688 1.3481444,1.3480834 0 0 1 0.974251,-0.394941 z m -2.880651,2.301254 a 1.3481444,1.3480834 0 0 1 0,1.906231 1.3481444,1.3480834 0 0 1 0,-1.906231 z"/>
</svg>
