<svg xmlns="http://www.w3.org/2000/svg" width="64" height="64" version="1.1">
 <path style="opacity:0.2" d="M 12.75,5 C 11.2265,5 10,6.2488 10,7.8 v 50.4 c 0,1.55008 1.2265,2.8 2.75,2.8 h 38.5 C 52.7724,61 54,59.75008 54,58.2 V 23 L 40,19 36,5 Z"/>
 <path style="fill:#fe9700" d="M 12.75,4 C 11.2265,4 10,5.2488 10,6.8 v 50.4 c 0,1.55008 1.2265,2.8 2.75,2.8 h 38.5 C 52.7724,60 54,58.75008 54,57.2 V 22 L 40,18 36,4 Z"/>
 <path style="opacity:0.2" d="M 54,23 36,5 V 20.1875 C 36,21.74675 37.2555,23 38.8125,23 Z"/>
 <path style="fill:#ffbd63" d="M 54,22 36,4 V 19.1875 C 36,20.74675 37.2555,22 38.8125,22 Z"/>
 <path style="opacity:0.2;fill:#8b9cbe" d="M 12.75 4 C 11.2265 4 10 5.2495812 10 6.8007812 L 10 7.8007812 C 10 6.2495813 11.2265 5 12.75 5 L 36 5 L 36 4 L 12.75 4 z"/>
 <path style="opacity:0.2" d="m 25.999962,30.000018 -8.8e-5,1 v 13 c 0,0 -0.31144,7.7e-4 -0.99992,-1.8e-5 -2.7614,0 -5,2.2386 -5,5 0,2.7614 2.2386,5 5,5 2.7244,-0.0017 4.946,-2.1842 4.996,-4.9082 l 0.004,-0.0078 V 36 h 10 v 8 c 0,0 -0.31144,7.88e-4 -0.9999,0 -2.7614,0 -5,2.2386 -5,5 0,2.7614 2.2386,5 5,5 2.6622,-0.003 4.8552,-2.0912 4.9882,-4.75 l 0.0118,-0.02344 v -19.2266 h -18 z"/>
 <path style="fill:#8b9cbe" d="m 25.999962,29.000018 -8.8e-5,1 v 13 c 0,0 -0.31144,7.7e-4 -0.99992,-1.8e-5 -2.7614,0 -5,2.2386 -5,5 0,2.7614 2.2386,5 5,5 2.7244,-0.0017 4.946,-2.1842 4.996,-4.9082 l 0.004,-0.0078 V 35 h 10 v 8 c 0,0 -0.31144,7.88e-4 -0.9999,0 -2.7614,0 -5,2.2386 -5,5 0,2.7614 2.2386,5 5,5 2.6622,-0.003 4.8552,-2.0912 4.9882,-4.75 l 0.0118,-0.02344 v -19.2266 h -18 z"/>
</svg>
