<svg xmlns="http://www.w3.org/2000/svg" width="64" height="64" version="1.1">
 <path style="opacity:0.2" d="M 12.75,5 C 11.2265,5 10,6.2488 10,7.8 v 50.4 c 0,1.55008 1.2265,2.8 2.75,2.8 h 38.5 C 52.7724,61 54,59.75008 54,58.2 V 23 L 40,19 36,5 Z"/>
 <path style="fill:#b2bfd9" d="M 12.75,4 C 11.2265,4 10,5.2488 10,6.8 v 50.4 c 0,1.55008 1.2265,2.8 2.75,2.8 h 38.5 C 52.7724,60 54,58.75008 54,57.2 V 22 L 40,18 36,4 Z"/>
 <path style="opacity:0.2" d="M 54,23 36,5 V 20.1875 C 36,21.74675 37.2555,23 38.8125,23 Z"/>
 <path style="fill:#fafafa" d="M 54,22 36,4 V 19.1875 C 36,20.74675 37.2555,22 38.8125,22 Z"/>
 <path style="opacity:0.2;fill:#8b9cbe" d="M 12.75 4 C 11.2265 4 10 5.2495812 10 6.8007812 L 10 7.8007812 C 10 6.2495813 11.2265 5 12.75 5 L 36 5 L 36 4 L 12.75 4 z"/>
 <path style="opacity:0.1" d="M 29.980469,27 C 23.24158,26.999922 17.999791,32.673076 18,39.34375 18.000096,46.01421 22.733981,51.000079 29.472656,51 c 8.4951,-0.55027 10.18326,-12.77064 2.773438,-11.337891 -0.08941,0.290347 2.078007,1.128035 2.232422,2.650391 0.303504,2.992211 -2.061579,4.794611 -5.015625,4.226562 -2.158283,-0.415024 -4.76549,-2.240408 -5.271485,-4.058593 -0.467844,-1.681101 -0.235099,-3.699186 0.261719,-5.039063 C 26.798683,31.115648 35.080818,29.440207 38,29.519531 35.716144,27.799746 33.204567,27.003297 29.980469,27 Z m 4.546875,6 c -8.4951,0.55027 -10.18326,12.77064 -2.773438,11.337891 0.08941,-0.290347 -2.078007,-1.128035 -2.232422,-2.650391 -0.303504,-2.992211 2.061579,-4.79461 5.015625,-4.226562 2.158283,0.415024 4.76549,2.240408 5.271485,4.058593 0.467844,1.681101 0.235099,3.699186 -0.261719,5.039063 C 37.201317,52.884352 28.919182,54.559793 26,54.480469 28.283856,56.200254 30.795433,56.996703 34.019531,57 40.75842,57.000078 46.000209,51.326924 46,44.65625 45.999904,37.98579 41.266019,32.999921 34.527344,33 Z"/>
 <path style="fill:#d6342a" d="M 29.980469,26 C 23.24158,25.999922 17.999791,31.673076 18,38.34375 18.000096,45.01421 22.733981,50.000079 29.472656,50 c 8.4951,-0.55027 10.18326,-12.77064 2.773438,-11.337891 -0.08941,0.290347 2.078007,1.128035 2.232422,2.650391 0.303504,2.992211 -2.061579,4.794611 -5.015625,4.226562 -2.158283,-0.415024 -4.76549,-2.240408 -5.271485,-4.058593 -0.467844,-1.681101 -0.235099,-3.699186 0.261719,-5.039063 C 26.798683,30.115648 35.080818,28.440207 38,28.519531 35.716144,26.799746 33.204567,26.003297 29.980469,26 Z m 4.546875,6 c -8.4951,0.55027 -10.18326,12.77064 -2.773438,11.337891 0.08941,-0.290347 -2.078007,-1.128035 -2.232422,-2.650391 -0.303504,-2.992211 2.061579,-4.79461 5.015625,-4.226562 2.158283,0.415024 4.76549,2.240408 5.271485,4.058593 0.467844,1.681101 0.235099,3.699186 -0.261719,5.039063 C 37.201317,51.884352 28.919182,53.559793 26,53.480469 28.283856,55.200254 30.795433,55.996703 34.019531,56 40.75842,56.000078 46.000209,50.326924 46,43.65625 45.999904,36.98579 41.266019,31.999921 34.527344,32 Z"/>
</svg>
