<svg xmlns="http://www.w3.org/2000/svg" width="64" height="64" version="1">
 <path style="opacity:0.2" d="m 58,54.3326 v -42.666 c 0,-1.4777 -1.16,-2.667 -2.6,-2.667 H 8.6 c -1.4404,0 -2.6,1.1893 -2.6,2.6667 v 42.667 C 6,55.8106 7.1596,57 8.6,57 h 46.8 c 1.4404,0 2.6,-1.1893 2.6,-2.6667 z"/>
 <path fill="#36aca3" d="m58 53.333v-42.666c0-1.4777-1.16-2.667-2.6-2.667h-46.8c-1.4404 0-2.6 1.1893-2.6 2.6667v42.667c0 1.4773 1.1596 2.6667 2.6 2.6667h46.8c1.4404 0 2.6-1.1893 2.6-2.6667z"/>
 <path style="opacity:0.2" d="m 22,26.9996 12,15 9,-8 8,8 v 7 H 12 v -10 z"/>
 <path fill="#fff" d="m22 26 12 15 9-8 8 8v7h-39v-10z"/>
 <path style="fill:#8b9cbe;opacity:0.2" d="M 8.5996094 8 C 7.1592094 8 6 9.1886156 6 10.666016 L 6 11.666016 C 6 10.188616 7.1592094 9 8.5996094 9 L 55.400391 9 C 56.840391 9 58 10.188316 58 11.666016 L 58 10.667969 C 58 9.1902687 56.840391 8 55.400391 8 L 8.5996094 8 z"/>
</svg>
