<svg xmlns="http://www.w3.org/2000/svg" width="64" height="64" version="1.1">
 <path style="opacity:0.2" d="M 12.75,5 C 11.2265,5 10,6.2488 10,7.8 v 50.4 c 0,1.5512 1.2265,2.8 2.75,2.8 h 38.5 C 52.7735,61 54,59.7512 54,58.2 V 21 L 40.25,19 38,5 Z"/>
 <path style="fill:#2488d5" d="M 12.75,4 C 11.2265,4 10,5.2488 10,6.8 v 50.4 c 0,1.5512 1.2265,2.8 2.75,2.8 h 38.5 C 52.7735,60 54,58.7512 54,57.2 V 20 L 40.25,18 38,4 Z"/>
 <path style="opacity:0.2" d="M 54,21 38,5 V 18.333333 C 38,19.810666 39.189334,21 40.666666,21 Z"/>
 <path style="fill:#53a4e2" d="M 54,20 38,4 V 17.333333 C 38,18.810667 39.189334,20 40.666666,20 Z"/>
 <path style="opacity:0.2" d="m 24,26.999994 1.091346,1.128562 c 0.825254,0.93773 1.754836,1.788978 2.603364,2.70457 0.0094,0.0086 0.02382,0.0138 0.03366,0.02238 l 1.377404,1.424376 c -2.396286,2.520108 -5.141984,6.862516 -5.098558,10.41061 -0.09512,2.36206 0.82066,4.649734 2.283654,6.458158 2.379388,2.946468 5.941046,4.692274 9.540864,5.550834 0.518658,0.12512 3.165346,0.680432 1.716344,-0.13672 -2.484274,-1.211454 -5.137046,-2.582184 -6.524034,-5.13073 -1.51557,-2.416466 -0.46474,-5.888318 1.17548,-8.35981 0.69283,-0.896904 1.568102,-2.234216 2.509614,-2.997898 L 40,43.5456 v -8.605902 -7.939704 h -0.005 z"/>
 <path style="fill:#8b9cbe" d="m 24,26 1.091346,1.128562 c 0.825254,0.93773 1.754836,1.788978 2.603364,2.70457 0.0094,0.0086 0.02382,0.0138 0.03366,0.02238 l 1.377404,1.424376 c -2.396286,2.520108 -5.141984,6.862516 -5.098558,10.41061 -0.09512,2.36206 0.82066,4.649734 2.283654,6.458158 2.379388,2.946468 5.941046,4.692274 9.540864,5.550834 0.518658,0.12512 3.165346,0.680432 1.716344,-0.13672 -2.484274,-1.211454 -5.137046,-2.582184 -6.524034,-5.13073 -1.51557,-2.416466 -0.46474,-5.888318 1.17548,-8.35981 0.69283,-0.896904 1.568102,-2.234216 2.509614,-2.997898 L 40,42.545606 V 33.939704 26 h -0.005 z"/>
 <path style="opacity:0.2;fill:#8b9cbe" d="M 12.75 4 C 11.2265 4 10 5.2495812 10 6.8007812 L 10 7.8007812 C 10 6.2495813 11.2265 5 12.75 5 L 38 5 L 38 4 L 12.75 4 z"/>
</svg>
