<svg xmlns="http://www.w3.org/2000/svg" width="64" height="64" version="1.1">
 <path style="opacity:0.2" d="M 12.8125,5 C 11.254375,5 10,6.2488 10,7.8 v 50.4 c 0,1.5512 1.254375,2.8 2.8125,2.8 h 39.375 C 53.745625,61 55,59.7512 55,58.2 V 22 L 40,20 38,5 Z"/>
 <path style="fill:#794ec6" d="M 12.8125,4 C 11.254375,4 10,5.2488 10,6.8 v 50.4 c 0,1.5512 1.254375,2.8 2.8125,2.8 h 39.375 C 53.745625,60 55,58.7512 55,57.2 V 21 L 40,19 38,4 Z"/>
 <path style="opacity:0.2" d="M 55,22 38,5 V 19.166667 C 38,20.736333 39.263667,22 40.833333,22 Z"/>
 <path style="fill:#926fd2" d="M 55,21 38,4 V 18.166667 C 38,19.736333 39.263667,21 40.833333,21 Z"/>
 <path style="opacity:0.2" d="m 31,25 c -2.209139,0 -4,1.790861 -4,4 0,2.209139 1.790861,4 4,4 2.209139,0 4,-1.790861 4,-4 0,-2.209139 -1.790861,-4 -4,-4 z M 21,26.5 V 28 h -6 v 2 h 6 v 1.5 L 23,30.25 25,29 23,27.75 Z M 37,28 v 2 h 7 v 3 h -1.5 l 1.25,2 1.25,2 1.25,-2 1.25,-2 H 46 v -5 h -2 z m 8,10 c -2.209139,0 -4,1.790861 -4,4 0,2.209139 1.790861,4 4,4 2.209139,0 4,-1.790861 4,-4 0,-2.209139 -1.790861,-4 -4,-4 z m -1,10 v 4 h -4 v -1.5 l -2,1.25 -2,1.25 2,1.25 2,1.25 V 54 h 6 v -2 -4 z m -13,1 c -2.209139,0 -4,1.790861 -4,4 0,2.209139 1.790861,4 4,4 2.209139,0 4,-1.790861 4,-4 0,-2.209139 -1.790861,-4 -4,-4 z m -12,1.5 -2,1.25 -2,1.25 2,1.25 2,1.25 V 54 h 6 v -2 h -6 z"/>
 <path style="fill:#8b9cbe" d="m 31,24 c -2.209139,0 -4,1.790861 -4,4 0,2.209139 1.790861,4 4,4 2.209139,0 4,-1.790861 4,-4 0,-2.209139 -1.790861,-4 -4,-4 z M 21,25.5 V 27 h -6 v 2 h 6 v 1.5 L 23,29.25 25,28 23,26.75 Z M 37,27 v 2 h 7 v 3 h -1.5 l 1.25,2 1.25,2 1.25,-2 1.25,-2 H 46 v -5 h -2 z m 8,10 c -2.209139,0 -4,1.790861 -4,4 0,2.209139 1.790861,4 4,4 2.209139,0 4,-1.790861 4,-4 0,-2.209139 -1.790861,-4 -4,-4 z m -1,10 v 4 h -4 v -1.5 l -2,1.25 -2,1.25 2,1.25 2,1.25 V 53 h 6 v -2 -4 z m -13,1 c -2.209139,0 -4,1.790861 -4,4 0,2.209139 1.790861,4 4,4 2.209139,0 4,-1.790861 4,-4 0,-2.209139 -1.790861,-4 -4,-4 z m -12,1.5 -2,1.25 -2,1.25 2,1.25 2,1.25 V 53 h 6 v -2 h -6 z"/>
 <path style="opacity:0.2;fill:#8b9cbe" d="M 12.8125,4 C 11.254375,4 10,5.2495813 10,6.8007812 v 1 C 10,6.2495812 11.254375,5 12.8125,5 H 38 V 4 Z"/>
</svg>
