<svg xmlns="http://www.w3.org/2000/svg" width="64" height="64" version="1">
 <path style="opacity:0.2" d="m 26.999834,4.0003998 c -3.323977,0 -5.999958,2.6759815 -5.999958,5.9999582 l 0,5.999959 -13.9999035,0 c -2.2159847,0 -3.9999724,1.783988 -3.9999724,3.999972 l 0,11.999918 5.9999586,0 c 3.3239773,0 5.9999583,2.675981 5.9999583,5.999958 0,3.323977 -2.675981,5.999959 -5.9999583,5.999959 l -5.9999586,0 0,13.999903 C 3.0000001,60.216012 4.7839878,62 6.9999725,62 l 13.9999035,0 0,-3.999973 c 0,-3.323977 2.675981,-5.999958 5.999958,-5.999958 3.323978,0 5.999959,2.675981 5.999959,5.999958 l 0,3.999973 11.999917,0 c 2.215985,0 3.999973,-1.783988 3.999973,-3.999973 l 0,-13.999903 5.999958,0 c 3.323977,0 5.999959,-2.675982 5.999959,-5.999959 0,-3.323977 -2.675982,-5.999958 -5.999959,-5.999958 l -5.999958,0 0,-11.999918 c 0,-2.215984 -1.783988,-3.999972 -3.999973,-3.999972 l -11.999917,0 0,-5.999959 c 0,-3.3239767 -2.675981,-5.9999582 -5.999959,-5.9999582 z"/>
 <path style="fill:#2279bf" d="m 26.999834,3.0004136 c -3.323977,0 -5.999958,2.6759815 -5.999958,5.9999586 l 0,5.9999588 -13.9999035,0 c -2.2159847,0 -3.9999724,1.783987 -3.9999724,3.999972 l 0,11.999917 5.9999586,0 c 3.3239773,0 5.9999583,2.675982 5.9999583,5.999959 0,3.323977 -2.675981,5.999959 -5.9999583,5.999959 l -5.9999586,0 0,13.999903 c 0,2.215985 1.7839877,3.999972 3.9999724,3.999972 l 13.9999035,0 0,-3.999972 c 0,-3.323977 2.675981,-5.999959 5.999958,-5.999959 3.323978,0 5.999959,2.675982 5.999959,5.999959 l 0,3.999972 11.999917,0 c 2.215985,0 3.999973,-1.783987 3.999973,-3.999972 l 0,-13.999903 5.999958,0 c 3.323977,0 5.999959,-2.675982 5.999959,-5.999959 0,-3.323977 -2.675982,-5.999959 -5.999959,-5.999959 l -5.999958,0 0,-11.999917 c 0,-2.215985 -1.783988,-3.999972 -3.999973,-3.999972 l -11.999917,0 0,-5.9999588 c 0,-3.3239771 -2.675981,-5.9999586 -5.999959,-5.9999586 z"/>
 <path style="opacity:0.1;fill:#8b9cbe" d="M 27 3 C 23.676023 3 21 5.6760229 21 9 L 21 10 C 21 6.6760231 23.676023 4 27 4 C 30.323978 4 33 6.6760231 33 10 L 33 9 C 33 5.6760229 30.323978 3 27 3 z M 7 15 C 4.7840153 15 3 16.784015 3 19 L 3 20 C 3 17.784015 4.7840153 16 7 16 L 21 16 L 21 15 L 7 15 z M 33 15 L 33 16 L 45 16 C 47.215985 16 49 17.784015 49 20 L 49 19 C 49 16.784015 47.215985 15 45 15 L 33 15 z M 49 31 L 49 32 L 55 32 C 58.143924 32 60.704083 34.3949 60.972656 37.466797 C 60.988706 37.313315 61 37.158723 61 37 C 61 33.676023 58.323977 31 55 31 L 49 31 z M 14.898438 38 C 14.422441 40.839981 11.979979 43 9 43 L 3 43 L 3 44 L 9 44 C 11.979979 44 14.422441 41.839981 14.898438 39 C 14.928801 39.181739 14.953805 39.364367 14.972656 39.548828 C 14.98894 39.367892 15 39.185316 15 39 C 15 38.656003 14.953237 38.327998 14.898438 38 z"/>
</svg>
