<svg xmlns="http://www.w3.org/2000/svg" width="64" height="64" version="1.1">
 <path style="opacity:0.2" d="M 12.75,5 C 11.2265,5 10,6.2488 10,7.8 v 50.4 c 0,1.55008 1.2265,2.8 2.75,2.8 h 38.5 C 52.7724,61 54,59.75008 54,58.2 V 23 L 40,19 36,5 Z"/>
 <path style="fill:#fec006" d="M 12.75,4 C 11.2265,4 10,5.2488 10,6.8 v 50.4 c 0,1.55008 1.2265,2.8 2.75,2.8 h 38.5 C 52.7724,60 54,58.75008 54,57.2 V 22 L 40,18 36,4 Z"/>
 <path style="opacity:0.2" d="M 54,23 36,5 V 20.1875 C 36,21.74675 37.2555,23 38.8125,23 Z"/>
 <path style="fill:#fed861" d="M 54,22 36,4 V 19.1875 C 36,20.74675 37.2555,22 38.8125,22 Z"/>
 <path style="opacity:0.2;fill:#8b9cbe" d="M 12.75 4 C 11.2265 4 10 5.2495812 10 6.8007812 L 10 7.8007812 C 10 6.2495813 11.2265 5 12.75 5 L 36 5 L 36 4 L 12.75 4 z"/>
 <path style="opacity:0.2;fill:none;stroke:#000000;stroke-width:3;stroke-linecap:square" d="m 19.5,42.500097 1.80064,0.0238 c 4.23948,0.0924 8.2663,1.19318 9.76864,3.52516 3.50518,5.44068 -3.43742,7.20496 -6.22678,3.36252 -2.60666,-4.2175 -1.7059,-12.67996 2.04974,-13.69748 6.79574,-1.54882 7.321,8.63774 11.50476,6.532 3.23162,-1.62652 -1.942508,-8.81946 1.219,-10.578 1.355018,-0.75376 4.689048,2.12256 4.689048,2.12256"/>
 <path style="fill:none;stroke:#8b9cbe;stroke-width:3;stroke-linecap:square" d="m 19.5,41.500097 1.80064,0.0238 c 4.23948,0.0924 8.2663,1.19318 9.76864,3.52516 3.50518,5.44068 -3.43742,7.20496 -6.22678,3.36252 -2.60666,-4.2175 -1.7059,-12.67996 2.04974,-13.69748 6.79574,-1.54882 7.321,8.63774 11.50476,6.532 3.23162,-1.62652 -1.942508,-8.81946 1.219,-10.578 1.355018,-0.75376 4.689048,2.12256 4.689048,2.12256"/>
</svg>
