<svg xmlns="http://www.w3.org/2000/svg" width="64" height="64" version="1.1">
 <path style="opacity:0.2" d="M 12.75,5 C 11.2265,5 10,6.2488 10,7.8 v 50.4 c 0,1.55008 1.2265,2.8 2.75,2.8 h 38.5 C 52.7724,61 54,59.75008 54,58.2 V 23 L 40,19 36,5 Z"/>
 <path style="fill:#dc682a" d="M 12.75,4 C 11.2265,4 10,5.2488 10,6.8 v 50.4 c 0,1.55008 1.2265,2.8 2.75,2.8 h 38.5 C 52.7724,60 54,58.75008 54,57.2 V 22 L 40,18 36,4 Z"/>
 <path style="opacity:0.2" d="M 54,23 36,5 V 20.1875 C 36,21.74675 37.2555,23 38.8125,23 Z"/>
 <path style="fill:#e69367" d="M 54,22 36,4 V 19.1875 C 36,20.74675 37.2555,22 38.8125,22 Z"/>
 <path style="opacity:0.2;fill:#8b9cbe" d="M 12.75 4 C 11.2265 4 10 5.2495812 10 6.8007812 L 10 7.8007812 C 10 6.2495813 11.2265 5 12.75 5 L 36 5 L 36 4 L 12.75 4 z"/>
 <path style="opacity:0.2" d="m 20,48 h -4 v 4 h 14 v -4 h -4 v -4 h 2 c 4,0 4,8 8,8 h 8 c 4,0 4,-8 4,-8 h -5 c 0,0 1,4 -3,4 -2,0 -4,-4 -4,-4 h 1 c 3.32,0 6,-2.6 6,-6 0,-3.4 -2.68,-6 -6,-6 H 16 v 4 h 4 m 15,0 c 1.1,0 2,0.8 2,2 0,1.2 -0.9,2 -2,2 h -9 v -4"/>
 <path style="fill:#8b9cbe" d="m 20,47 h -4 v 4 h 14 v -4 h -4 v -4 h 2 c 4,0 4,8 8,8 h 8 c 4,0 4,-8 4,-8 h -5 c 0,0 1,4 -3,4 -2,0 -4,-4 -4,-4 h 1 c 3.32,0 6,-2.6 6,-6 0,-3.4 -2.68,-6 -6,-6 H 16 v 4 h 4 m 15,0 c 1.1,0 2,0.8 2,2 0,1.2 -0.9,2 -2,2 h -9 v -4"/>
</svg>
