<svg xmlns="http://www.w3.org/2000/svg" width="64" height="64" version="1.1">
 <path style="opacity:0.2" d="M 12.75,5 C 11.2265,5 10,6.2488 10,7.8 v 50.4 c 0,1.55008 1.2265,2.8 2.75,2.8 h 38.5 C 52.7724,61 54,59.75008 54,58.2 V 23 L 40,19 36,5 Z"/>
 <path style="fill:#b2bfd9" d="M 12.75,4 C 11.2265,4 10,5.2488 10,6.8 v 50.4 c 0,1.55008 1.2265,2.8 2.75,2.8 h 38.5 C 52.7724,60 54,58.75008 54,57.2 V 22 L 40,18 36,4 Z"/>
 <path style="opacity:0.2" d="M 54,23 36,5 V 20.1875 C 36,21.74675 37.2555,23 38.8125,23 Z"/>
 <path style="fill:#fafafa" d="M 54,22 36,4 V 19.1875 C 36,20.74675 37.2555,22 38.8125,22 Z"/>
 <path style="opacity:0.2;fill:#8b9cbe" d="M 12.75 4 C 11.2265 4 10 5.2495812 10 6.8007812 L 10 7.8007812 C 10 6.2495813 11.2265 5 12.75 5 L 36 5 L 36 4 L 12.75 4 z"/>
 <path style="fill:#0180cd" d="M 31 27 C 23.820298 27 18 32.820298 18 40 C 18 47.179702 23.820298 53 31 53 C 31.333993 52.998409 31.667231 52.966752 32 52.939453 L 32 48.900391 C 31.668017 48.939653 31.334546 48.966131 31 48.966797 C 26.213532 48.966798 22 44.786468 22 40 C 22 35.213532 26.213532 31.033203 31 31.033203 C 31.334623 31.035138 31.66809 31.062953 32 31.103516 L 32 27.066406 C 31.667264 27.037158 31.334111 27.003543 31 27 z"/>
 <path style="fill:#01559d" d="m 39,29 v 3 h -3 v 3 h 3 v 3 h 3 v -3 h 3 v -3 h -3 v -3 z"/>
 <path style="fill:#01559d" d="m 39,43 v 3 h -3 v 3 h 3 v 3 h 3 v -3 h 3 v -3 h -3 v -3 z"/>
</svg>
