<svg xmlns="http://www.w3.org/2000/svg" width="64" height="64" version="1">
 <path id="ellipse845" style="opacity:0.2" d="M 32.495443,5 A 12.950466,14 0 0 0 20.734731,13.179688 14.307895,12.671782 24.33594 0 0 7.573284,19 14.307895,12.671782 24.33594 0 0 8.97402,33 12.671782,14.307895 65.66406 0 0 7.573284,47 12.671782,14.307895 65.66406 0 0 20.736686,52.822266 12.950466,14 0 0 0 32.495443,61 12.950466,14 0 0 0 44.258108,52.822266 C 49.74097,53.537256 54.882466,51.262374 57.419556,47 60.034189,42.594688 59.292349,37.130681 56.022727,32.996094 a 12.671782,14.307895 65.66406 0 0 0.8127,-1.132813 12.671782,14.307895 65.664058 0 0 0.002,-0.0039 12.671782,14.307895 65.66406 0 0 0.685716,-1.179687 12.671782,14.307895 65.664058 0 0 0.0078,-0.01953 12.671782,14.307895 65.66406 0 0 0.529428,-1.15625 12.671782,14.307895 65.664058 0 0 0.03712,-0.0918 12.671782,14.307895 65.66406 0 0 0.378999,-1.113281 12.671782,14.307895 65.664058 0 0 0.05861,-0.195312 12.671782,14.307895 65.66406 0 0 0.23834,-1.041016 12.671782,14.307895 65.664058 0 0 0.05079,-0.275391 12.671782,14.307895 65.66406 0 0 0.119171,-0.992187 12.671782,14.307895 65.664058 0 0 0.0254,-0.320313 12.671782,14.307895 65.66406 0 0 0.01172,-0.955078 12.671782,14.307895 65.664058 0 0 -0.01172,-0.347656 12.671782,14.307895 65.66406 0 0 -0.08596,-0.892578 12.671782,14.307895 65.664058 0 0 -0.05665,-0.400391 A 12.671782,14.307895 65.66406 0 0 58.650327,22.048828 12.671782,14.307895 65.664058 0 0 58.537018,21.613281 12.671782,14.307895 65.66406 0 0 58.296725,20.890625 12.671782,14.307895 65.664058 0 0 58.103317,20.384766 12.671782,14.307895 65.66406 0 0 57.818091,19.769531 12.671782,14.307895 65.664058 0 0 57.419556,19 12.671782,14.307895 65.66406 0 0 56.810031,18.095703 12.671782,14.307895 65.664058 0 0 56.427123,17.613281 12.671782,14.307895 65.66406 0 0 55.999284,17.107422 12.671782,14.307895 65.664058 0 0 55.577305,16.683594 12.671782,14.307895 65.66406 0 0 55.075228,16.207031 12.671782,14.307895 65.664058 0 0 54.604408,15.826172 12.671782,14.307895 65.66406 0 0 54.065213,15.416016 12.671782,14.307895 65.664058 0 0 53.506481,15.056641 12.671782,14.307895 65.66406 0 0 52.961425,14.728516 12.671782,14.307895 65.664058 0 0 52.336271,14.412109 12.671782,14.307895 65.66406 0 0 51.77754,14.150391 12.671782,14.307895 65.664058 0 0 51.119175,13.896484 12.671782,14.307895 65.66406 0 0 50.503788,13.681641 12.671782,14.307895 65.664058 0 0 49.839562,13.5 12.671782,14.307895 65.66406 0 0 49.196825,13.34375 12.671782,14.307895 65.664058 0 0 48.509156,13.226562 12.671782,14.307895 65.66406 0 0 47.82344,13.128906 12.671782,14.307895 65.664058 0 0 46.651277,13.041016 12.671782,14.307895 65.66406 0 0 44.258108,13.177734 12.950466,14 0 0 0 32.495443,5 Z"/>
 <ellipse style="fill:#278df2" cx="32.498" cy="32" rx="23.017" ry="22.4"/>
 <ellipse id="ellipse8" style="fill:#34e0c4" cx="43.83" cy="-25.917" rx="12.688" ry="14.29" transform="matrix(0.51022897,0.8600386,-0.87181218,0.4898403,0,0)"/>
 <ellipse id="ellipse10" style="fill:#ffc107" cx="32.498" cy="46" rx="12.947" ry="14"/>
 <ellipse id="ellipse14" style="fill:#fb8300" cx="43.83" cy="2.664" rx="12.688" ry="14.29" transform="matrix(0.51022897,0.8600386,-0.87181218,0.4898403,0,0)"/>
 <ellipse id="ellipse18" style="fill:#fa3e30" cx="11.983" cy="30" rx="12.688" ry="14.29" transform="matrix(-0.51022897,0.8600386,0.87181218,0.4898403,0,0)"/>
 <path style="fill:#a544c9" d="M 32.498355,4 A 12.947274,14 0 0 0 19.551081,18 12.947274,14 0 0 0 32.498355,32 12.671251,14.304968 65.62011 0 1 38.483096,14.087109 12.671251,14.304968 65.62011 0 1 44.257108,12.178516 12.947274,14 0 0 0 32.498355,4 Z m 0,28 A 12.947274,14 0 0 0 44.805008,22.317578 12.947274,14 0 0 1 43.06578,26.055468 14.304968,12.671251 24.37989 0 0 32.498355,32 Z m 12.306653,-9.682422 a 12.947274,14 0 0 0 0.311883,-1.235937 12.947274,14 0 0 1 -0.311883,1.235937 z m -0.396172,-9.767187 a 12.947274,14 0 0 1 0.432697,1.276952 12.947274,14 0 0 0 -0.432697,-1.276952 z m 0.452367,1.334375 a 12.947274,14 0 0 1 0.264118,1.107421 12.947274,14 0 0 0 -0.264118,-1.107421 z m 0.337168,1.449218 a 12.947274,14 0 0 1 0.126433,0.894141 12.947274,14 0 0 0 -0.126433,-0.894141 z m 0.188253,1.451953 a 12.947274,14 0 0 1 0.059,1.214063 12.947274,14 0 0 0 -0.059,-1.214063 z m 0.03089,1.832031 a 12.947274,14 0 0 1 -0.05619,0.91875 12.947274,14 0 0 0 0.05619,-0.91875 z m -0.101146,1.241407 a 12.947274,14 0 0 1 -0.168585,1.085547 12.947274,14 0 0 0 0.168585,-1.085547 z"/>
 <path style="fill:#009688" d="M 43.265272,26.041797 C 38.664372,26.168472 34.635433,28.398009 32.498355,32 c 7.150582,0 12.947274,6.268013 12.947274,14 -0.005,2.010257 -0.410414,3.995761 -1.188521,5.821484 5.48151,0.71499 10.621541,-1.55911 13.158006,-5.821484 3.576034,-6.026629 0.896479,-14.046787 -5.984745,-17.912891 -2.510638,-1.410133 -5.356661,-2.123047 -8.165097,-2.045312 z m 0.991836,25.779687 z M 32.498355,32 Z"/>
 <path id="ellipse980" style="fill:#03a9f4" d="m 46.649603,12.041797 a 12.671251,14.304968 65.62011 0 0 -8.165803,2.04668 12.671251,14.304968 65.62011 0 0 -5.984743,17.91084 c 2.137203,-3.601511 6.165664,-5.830855 10.766215,-5.957521 2.808436,-0.07773 5.654459,0.63518 8.165097,2.045313 1.849727,1.039238 3.392704,2.380431 4.59533,3.900586 A 12.671251,14.304968 65.62011 0 0 57.415815,18 12.671251,14.304968 65.62011 0 0 46.649603,12.041797 Z M 32.499057,32 a 12.671251,14.304968 65.62011 0 0 10.586391,5.945215 C 40.742085,34.350418 36.875558,32.000252 32.499057,32 Z"/>
 <path style="fill:#ffc107" d="m 32.499057,31.999317 c -22.31516,22.400455 -11.157581,11.200228 0,0 z m 0,6.83e-4 c 2.271683,4.527431 6.178068,6.487701 10.586391,5.945215 C 40.742085,34.350418 36.875558,32.000252 32.499057,32 Z"/>
 <path style="fill:#8b9cbe;opacity:0.2" d="M 32.496094 4 A 12.950466 14 0 0 0 20.734375 12.179688 A 14.307895 12.671782 24.33594 0 0 7.5742188 18 A 14.307895 12.671782 24.33594 0 0 6.0253906 24.371094 A 14.307895 12.671782 24.33594 0 1 7.5742188 19 A 14.307895 12.671782 24.33594 0 1 20.734375 13.179688 A 12.950466 14 0 0 1 32.496094 5 A 12.950466 14 0 0 1 44.257812 13.177734 A 12.671782 14.307895 65.66406 0 1 46.650391 13.041016 A 12.671782 14.307895 65.664058 0 1 47.824219 13.128906 A 12.671782 14.307895 65.66406 0 1 48.509766 13.226562 A 12.671782 14.307895 65.664058 0 1 49.197266 13.34375 A 12.671782 14.307895 65.66406 0 1 49.839844 13.5 A 12.671782 14.307895 65.664058 0 1 50.503906 13.681641 A 12.671782 14.307895 65.66406 0 1 51.119141 13.896484 A 12.671782 14.307895 65.664058 0 1 51.777344 14.150391 A 12.671782 14.307895 65.66406 0 1 52.335938 14.412109 A 12.671782 14.307895 65.664058 0 1 52.960938 14.728516 A 12.671782 14.307895 65.66406 0 1 53.505859 15.056641 A 12.671782 14.307895 65.664058 0 1 54.064453 15.416016 A 12.671782 14.307895 65.66406 0 1 54.603516 15.826172 A 12.671782 14.307895 65.664058 0 1 55.076172 16.207031 A 12.671782 14.307895 65.66406 0 1 55.578125 16.683594 A 12.671782 14.307895 65.664058 0 1 56 17.107422 A 12.671782 14.307895 65.66406 0 1 56.427734 17.613281 A 12.671782 14.307895 65.664058 0 1 56.810547 18.095703 A 12.671782 14.307895 65.66406 0 1 57.419922 19 A 12.671782 14.307895 65.664058 0 1 57.818359 19.769531 A 12.671782 14.307895 65.66406 0 1 58.103516 20.384766 A 12.671782 14.307895 65.664058 0 1 58.296875 20.890625 A 12.671782 14.307895 65.66406 0 1 58.537109 21.613281 A 12.671782 14.307895 65.664058 0 1 58.650391 22.048828 A 12.671782 14.307895 65.66406 0 1 58.826172 22.878906 A 12.671782 14.307895 65.664058 0 1 58.882812 23.279297 A 12.671782 14.307895 65.66406 0 1 58.96875 24.171875 A 12.671782 14.307895 65.664058 0 1 58.970703 24.251953 A 12.671782 14.307895 65.66406 0 0 58.980469 23.519531 A 12.671782 14.307895 65.664058 0 0 58.96875 23.171875 A 12.671782 14.307895 65.66406 0 0 58.882812 22.279297 A 12.671782 14.307895 65.664058 0 0 58.826172 21.878906 A 12.671782 14.307895 65.66406 0 0 58.650391 21.048828 A 12.671782 14.307895 65.664058 0 0 58.537109 20.613281 A 12.671782 14.307895 65.66406 0 0 58.296875 19.890625 A 12.671782 14.307895 65.664058 0 0 58.103516 19.384766 A 12.671782 14.307895 65.66406 0 0 57.818359 18.769531 A 12.671782 14.307895 65.664058 0 0 57.419922 18 A 12.671782 14.307895 65.66406 0 0 56.810547 17.095703 A 12.671782 14.307895 65.664058 0 0 56.427734 16.613281 A 12.671782 14.307895 65.66406 0 0 56 16.107422 A 12.671782 14.307895 65.664058 0 0 55.578125 15.683594 A 12.671782 14.307895 65.66406 0 0 55.076172 15.207031 A 12.671782 14.307895 65.664058 0 0 54.603516 14.826172 A 12.671782 14.307895 65.66406 0 0 54.064453 14.416016 A 12.671782 14.307895 65.664058 0 0 53.505859 14.056641 A 12.671782 14.307895 65.66406 0 0 52.960938 13.728516 A 12.671782 14.307895 65.664058 0 0 52.335938 13.412109 A 12.671782 14.307895 65.66406 0 0 51.777344 13.150391 A 12.671782 14.307895 65.664058 0 0 51.119141 12.896484 A 12.671782 14.307895 65.66406 0 0 50.503906 12.681641 A 12.671782 14.307895 65.664058 0 0 49.839844 12.5 A 12.671782 14.307895 65.66406 0 0 49.197266 12.34375 A 12.671782 14.307895 65.664058 0 0 48.509766 12.226562 A 12.671782 14.307895 65.66406 0 0 47.824219 12.128906 A 12.671782 14.307895 65.664058 0 0 46.650391 12.041016 A 12.671782 14.307895 65.66406 0 0 44.257812 12.177734 A 12.950466 14 0 0 0 32.496094 4 z M 56.386719 32.490234 A 12.671782 14.307895 65.66406 0 1 56.023438 32.996094 C 57.842959 35.296962 58.877203 38.009947 58.988281 40.722656 C 59.113569 37.872796 58.186247 34.971651 56.386719 32.490234 z M 8.6054688 32.511719 A 12.671782 14.307895 65.66406 0 0 6.0214844 40.798828 A 12.671782 14.307895 65.66406 0 1 8.9746094 33 A 14.307895 12.671782 24.33594 0 1 8.6054688 32.511719 z"/>
</svg>
