<svg xmlns="http://www.w3.org/2000/svg" width="64" height="64" version="1.1">
 <path style="opacity:0.2" d="M 12.75,5 C 11.2265,5 10,6.2488 10,7.8 v 50.4 c 0,1.55008 1.2265,2.8 2.75,2.8 h 38.5 C 52.7724,61 54,59.75008 54,58.2 V 23 L 40,19 36,5 Z"/>
 <path style="fill:#404b8b" d="M 12.75,4 C 11.2265,4 10,5.2488 10,6.8 v 50.4 c 0,1.55008 1.2265,2.8 2.75,2.8 h 38.5 C 52.7724,60 54,58.75008 54,57.2 V 22 L 40,18 36,4 Z"/>
 <path style="opacity:0.2" d="M 54,23 36,5 V 20.1875 C 36,21.74675 37.2555,23 38.8125,23 Z"/>
 <path style="fill:#6672ba" d="M 54,22 36,4 V 19.1875 C 36,20.74675 37.2555,22 38.8125,22 Z"/>
 <path style="opacity:0.1;fill:#8b9cbe" d="M 12.75 4 C 11.2265 4 10 5.2495812 10 6.8007812 L 10 7.8007812 C 10 6.2495813 11.2265 5 12.75 5 L 36 5 L 36 4 L 12.75 4 z"/>
 <path style="opacity:0.2" d="m 24.000437,32.000042 v 2.000001 l 0.0081,0.8571 L 28.363446,42 24,49.142857 V 52 h 16 v -4 h -3 v 1 H 26.909091 l 4.363636,-7 -4.363636,-7 H 36 v 1 h 3 V 32 H 24.000291 Z"/>
 <path style="fill:#f26265" d="m 24.000437,31.000042 v 2.000001 l 0.0081,0.8571 L 28.363446,41 24,48.142857 V 51 h 16 v -4 h -3 v 1 H 26.909091 l 4.363636,-7 -4.363636,-7 H 36 v 1 h 3 V 31 H 24.000291 Z"/>
</svg>
