<svg xmlns="http://www.w3.org/2000/svg" width="64" height="64" version="1.1">
 <path style="opacity:0.2" d="M 12.75,5 C 11.2265,5 10,6.2488 10,7.8 v 50.4 c 0,1.55008 1.2265,2.8 2.75,2.8 h 38.5 C 52.7724,61 54,59.75008 54,58.2 V 23 L 40,19 36,5 Z"/>
 <path style="fill:#b2bfd9" d="M 12.75,4 C 11.2265,4 10,5.2488 10,6.8 v 50.4 c 0,1.55008 1.2265,2.8 2.75,2.8 h 38.5 C 52.7724,60 54,58.75008 54,57.2 V 22 L 40,18 36,4 Z"/>
 <path style="opacity:0.2" d="M 54,23 36,5 V 20.1875 C 36,21.74675 37.2555,23 38.8125,23 Z"/>
 <path style="fill:#fafafa" d="M 54,22 36,4 V 19.1875 C 36,20.74675 37.2555,22 38.8125,22 Z"/>
 <path style="opacity:0.2;fill:#8b9cbe" d="M 12.75 4 C 11.2265 4 10 5.2495812 10 6.8007812 L 10 7.8007812 C 10 6.2495813 11.2265 5 12.75 5 L 36 5 L 36 4 L 12.75 4 z"/>
 <path style="fill:#8d6e63" d="M 28.724609 28 L 28.433594 31.421875 A 10.305822 10.215091 0 0 0 25.423828 33.146484 L 22.283203 31.681641 L 19.001953 37.310547 L 21.855469 39.275391 A 10.305822 10.215091 0 0 0 21.697266 40.998047 A 10.305822 10.215091 0 0 0 21.847656 42.728516 L 19 44.683594 L 22.279297 50.314453 L 25.412109 48.853516 A 10.305822 10.215091 0 0 0 28.431641 50.568359 L 28.71875 54 L 35.279297 54 L 35.568359 50.574219 A 10.305822 10.215091 0 0 0 38.580078 48.847656 L 41.71875 50.314453 L 45 44.683594 L 42.146484 42.722656 A 10.305822 10.215091 0 0 0 42.306641 40.998047 A 10.305822 10.215091 0 0 0 42.15625 39.269531 L 45 37.316406 L 41.720703 31.6875 L 38.587891 33.148438 A 10.305822 10.215091 0 0 0 35.568359 31.431641 L 35.28125 28 L 28.724609 28 z M 32 36 A 5.0000005 5.0000005 0 0 1 37 41 A 5.0000005 5.0000005 0 0 1 32 46 A 5.0000005 5.0000005 0 0 1 27 41 A 5.0000005 5.0000005 0 0 1 32 36 z"/>
</svg>
