<svg xmlns="http://www.w3.org/2000/svg" width="64" height="64" version="1.1">
 <path style="opacity:0.2" d="M 12.75,5 C 11.2265,5 10,6.2488 10,7.8 v 50.4 c 0,1.55008 1.2265,2.8 2.75,2.8 h 38.5 C 52.7724,61 54,59.75008 54,58.2 V 23 L 40,19 36,5 Z"/>
 <path style="fill:#e47234" d="M 12.75,4 C 11.2265,4 10,5.2488 10,6.8 v 50.4 c 0,1.55008 1.2265,2.8 2.75,2.8 h 38.5 C 52.7724,60 54,58.75008 54,57.2 V 22 L 40,18 36,4 Z"/>
 <path style="opacity:0.2" d="M 39.199219,27 C 38.534419,27 38,27.534419 38,28.199219 v 3.601562 C 38,32.465581 38.534419,33 39.199219,33 h 3.601562 C 43.465581,33 44,32.465581 44,31.800781 V 28.199219 C 44,27.534419 43.465581,27 42.800781,27 Z m -22,9 C 15.980419,36 15,36.980419 15,38.199219 v 6.601562 C 15,46.019581 15.980419,47 17.199219,47 h 6.601562 C 25.019581,47 26,46.019581 26,44.800781 V 38.199219 C 26,36.980419 25.019581,36 23.800781,36 Z m 24.201172,8 C 40.624791,44 40,44.624791 40,45.400391 v 4.199218 C 40,50.375209 40.624791,51 41.400391,51 h 4.199218 C 46.375209,51 47,50.375209 47,49.599609 V 45.400391 C 47,44.624791 46.375209,44 45.599609,44 Z"/>
 <path style="opacity:0.2" d="M 54,23 36,5 V 20.1875 C 36,21.74675 37.2555,23 38.8125,23 Z"/>
 <path style="fill:#efaa85" d="M 54,22 36,4 V 19.1875 C 36,20.74675 37.2555,22 38.8125,22 Z"/>
 <path style="opacity:0.2;fill:#8b9cbe" d="M 12.75 4 C 11.2265 4 10 5.2495812 10 6.8007812 L 10 7.8007812 C 10 6.2495813 11.2265 5 12.75 5 L 36 5 L 36 4 L 12.75 4 z"/>
 <path style="opacity:0.5;fill:#8b9cbe" d="M 32,25 A 15,15 0 0 0 17,40 15,15 0 0 0 32,55 15,15 0 0 0 47,40 15,15 0 0 0 32,25 Z m 1,3 A 11,11 0 0 1 44,39 11,11 0 0 1 33,50 11,11 0 0 1 22,39 11,11 0 0 1 33,28 Z"/>
 <rect style="fill:#8b9cbe" width="11" height="11" x="15" y="35" rx="2.2" ry="2.2"/>
 <rect style="fill:#8b9cbe" width="7" height="7" x="40" y="43" rx="1.4" ry="1.4"/>
 <rect style="fill:#8b9cbe" width="6" height="6" x="38" y="26" rx="1.2" ry="1.2"/>
</svg>
