<svg xmlns="http://www.w3.org/2000/svg" width="64" height="64" version="1.1">
 <path style="opacity:0.2" d="M 12.75,5 C 11.2265,5 10,6.2488 10,7.8 v 50.4 c 0,1.55008 1.2265,2.8 2.75,2.8 h 38.5 C 52.7724,61 54,59.75008 54,58.2 V 23 L 40,19 36,5 Z"/>
 <path style="fill:#3a5cac" d="M 12.75,4 C 11.2265,4 10,5.2488 10,6.8 v 50.4 c 0,1.55008 1.2265,2.8 2.75,2.8 h 38.5 C 52.7724,60 54,58.75008 54,57.2 V 22 L 40,18 36,4 Z"/>
 <path style="opacity:0.2" d="M 54,23 36,5 V 20.1875 C 36,21.74675 37.2555,23 38.8125,23 Z"/>
 <path style="fill:#5b7cc8" d="M 54,22 36,4 V 19.1875 C 36,20.74675 37.2555,22 38.8125,22 Z"/>
 <path style="opacity:0.2;fill:#8b9cbe" d="M 12.75 4 C 11.2265 4 10 5.2495812 10 6.8007812 L 10 7.8007812 C 10 6.2495813 11.2265 5 12.75 5 L 36 5 L 36 4 L 12.75 4 z"/>
 <path style="opacity:0.2" d="M 30.625,26 23.75,47.75 19.51775,34 H 10 v 4 h 6.96025 l 6.78975,19.375 6.875,-22 4.125,13.75 L 40.25,34 44.375,48 H 54 V 43.9995 H 47.125 L 40.25,27.125 l -5.5,11 z"/>
 <path style="fill:#8b9cbe" d="M 30.625,25 23.75,46.75 19.51775,33 H 10 v 4 h 6.96025 l 6.78975,19.375 6.875,-22 4.125,13.75 L 40.25,33 44.375,47 H 54 V 42.9995 H 47.125 L 40.25,26.125 l -5.5,11 z"/>
</svg>
