<svg xmlns="http://www.w3.org/2000/svg" width="64" height="64" version="1">
 <path style="opacity:0.2" d="M 59.958,31.828 A 28,28 0 0 1 32,59 28,28 0 0 1 4.044,32.172 28,28 0 0 0 4,33 28,28 0 0 0 32,61 28,28 0 0 0 60,33 28,28 0 0 0 59.958,31.828 Z"/>
 <circle style="fill:#e65a2f" cx="32" cy="32" r="28"/>
 <rect style="opacity:0.2" width="40" height="40" x="-53" y="-52" rx="20" ry="20" transform="matrix(0,-1,-1,0,0,0)"/>
 <rect style="fill:#ff9907" width="40" height="40" x="-52" y="-52" rx="20" ry="20" transform="matrix(0,-1,-1,0,0,0)"/>
 <g style="opacity:0.2;enable-background:new" transform="translate(-461,-153.99994)">
  <path transform="matrix(2,0,0,2,269,-837)" d="m 110,507 0,0.5 -1e-5,4.7695 c -0.30389,-0.17609 -0.64878,-0.26905 -1,-0.26953 -1.1046,0 -2,0.89543 -2,2 0,1.10457 0.89543,2 2,2 1.10457,0 2,-0.89543 2,-2 l 1e-5,-5 4,0 -1e-5,3.2695 c -0.30389,-0.17609 -0.64878,-0.26905 -1,-0.26953 -1.1046,0 -2,0.89543 -2,2 0,1.10457 0.89543,2 2,2 1.10457,0 2,-0.89543 2,-2 l 1e-5,-7 -0.5,0 z"/>
 </g>
 <g style="fill:#8b9cbe;enable-background:new" transform="translate(-461,-154.99994)">
  <path style="fill:#8b9cbe" transform="matrix(2,0,0,2,269,-837)" d="m 110,507 0,0.5 -1e-5,4.7695 c -0.30389,-0.17609 -0.64878,-0.26905 -1,-0.26953 -1.1046,0 -2,0.89543 -2,2 0,1.10457 0.89543,2 2,2 1.10457,0 2,-0.89543 2,-2 l 1e-5,-5 4,0 -1e-5,3.2695 c -0.30389,-0.17609 -0.64878,-0.26905 -1,-0.26953 -1.1046,0 -2,0.89543 -2,2 0,1.10457 0.89543,2 2,2 1.10457,0 2,-0.89543 2,-2 l 1e-5,-7 -0.5,0 z"/>
 </g>
 <path style="opacity:0.2;fill:#8b9cbe" d="M 31.998047 4 A 28 28 0 0 0 4 32 A 28 28 0 0 0 4.0175781 32.492188 A 28 28 0 0 1 31.998047 5 L 32 5 A 28 28 0 0 1 59.972656 32.5 A 28 28 0 0 0 59.998047 32 A 28 28 0 0 0 32 4 L 31.998047 4 z"/>
 <path style="fill:#8b9cbe;opacity:0.2" d="M 32 12 C 20.92 12 12 20.92 12 32 C 12 32.167874 12.007647 32.333141 12.011719 32.5 C 12.27639 21.653863 21.087874 13 32 13 C 42.912126 13 51.72361 21.653863 51.988281 32.5 C 51.992353 32.333141 52 32.167874 52 32 C 52 20.92 43.08 12 32 12 z"/>
</svg>
