<svg xmlns="http://www.w3.org/2000/svg" width="64" height="64" version="1">
 <path style="opacity:0.2" d="M 32,5 A 28,28 0 0 0 4,33 28,28 0 0 0 32,61 28,28 0 0 0 60,33 28,28 0 0 0 32,5 Z M 32,21 A 12,12 0 0 1 44,33 12,12 0 0 1 32,45 12,12 0 0 1 20,33 12,12 0 0 1 32,21 Z"/>
 <path style="fill:#848484" d="M 32 17 A 15 15 0 0 0 17 32 A 15 15 0 0 0 32 47 A 15 15 0 0 0 47 32 A 15 15 0 0 0 32 17 z M 32 26 A 6 6 0 0 1 38 32 A 6 6 0 0 1 32 38 A 6 6 0 0 1 26 32 A 6 6 0 0 1 32 26 z"/>
 <path style="fill:#b2bfd9" d="M 32 4 A 28 28 0 0 0 4 32 A 28 28 0 0 0 32 60 A 28 28 0 0 0 60 32 A 28 28 0 0 0 32 4 z M 32 20 A 12 12 0 0 1 44 32 A 12 12 0 0 1 32 44 A 12 12 0 0 1 20 32 A 12 12 0 0 1 32 20 z"/>
 <path style="opacity:0.2;fill:#8b9cbe" d="M 32,4 A 28,28 0 0 0 4,32 28,28 0 0 0 4.0215,32.414 28,28 0 0 1 32,5 28,28 0 0 1 59.979,32.586 28,28 0 0 0 60,32 28,28 0 0 0 32,4 Z"/>
</svg>
