<svg xmlns="http://www.w3.org/2000/svg" width="32" height="32" version="1">
 <rect style="opacity:0.2" width="28" height="18" x="2" y="11" rx="1.4" ry="1.4"/>
 <path style="fill:#1f252a" d="M 2,22.6 C 2,23.376 2.6244,24 3.4,24 H 28.6 C 29.376,24 30,23.376 30,22.6 V 7.4 C 30,6.6244 29.376,6 28.6,6 H 16 C 13.9,6 13.2,3 11.1,3 H 3.4 C 2.6244,3 2,3.6244 2,4.4"/>
 <rect style="opacity:0.2" width="28" height="18" x="2" y="9" rx="1.4" ry="1.4"/>
 <rect style="fill:#e4e4e4" width="24" height="11" x="4" y="8" rx="1.4" ry="1.4"/>
 <rect style="fill:#323a41" width="28" height="18" x="2" y="10" rx="1.4" ry="1.4"/>
 <path style="opacity:0.1;fill:#ffffff" d="M 3.4004,3 C 2.6248,3 2,3.6248 2,4.4004 V 5.4004 C 2,4.6248 2.6248,4 3.4004,4 H 11.1 C 13.2,4 13.9,7 16,7 H 28.6 C 29.375,7 30,7.6248 30,8.4004 V 7.4004 C 30,6.6248 29.375,6 28.6,6 H 16 C 13.9,6 13.2,3 11.1,3 Z"/>
 <path style="fill:#1f252a" d="M 16 14 C 14.980124 14.0021 13.991205 14.350546 13.195312 14.988281 L 13.90625 15.699219 C 14.510473 15.246401 15.244932 15.001125 16 15 C 17.76162 15 19.2046 16.306127 19.449219 18 L 18 18 L 20 21.5 L 22 18 L 20.449219 18 C 20.197323 15.753391 18.313878 14 16 14 z M 12 15.5 L 10 19 L 11.550781 19 C 11.802677 21.246609 13.686122 23 16 23 C 17.019876 22.9979 18.008796 22.649454 18.804688 22.011719 L 18.09375 21.300781 C 17.489527 21.753599 16.755068 21.998875 16 22 C 14.23838 22 12.7954 20.693873 12.550781 19 L 14 19 L 12 15.5 z"/>
</svg>
