<svg xmlns="http://www.w3.org/2000/svg" width="32" height="32" version="1">
 <rect style="opacity:0.2" width="28" height="18" x="2" y="11" rx="1.4" ry="1.4"/>
 <path style="fill:#1f252a" d="M 2,22.6 C 2,23.376 2.6244,24 3.4,24 H 28.6 C 29.376,24 30,23.376 30,22.6 V 7.4 C 30,6.6244 29.376,6 28.6,6 H 16 C 13.9,6 13.2,3 11.1,3 H 3.4 C 2.6244,3 2,3.6244 2,4.4"/>
 <rect style="opacity:0.2" width="28" height="18" x="2" y="9" rx="1.4" ry="1.4"/>
 <rect style="fill:#e4e4e4" width="24" height="11" x="4" y="8" rx="1.4" ry="1.4"/>
 <rect style="fill:#323a41" width="28" height="18" x="2" y="10" rx="1.4" ry="1.4"/>
 <path style="opacity:0.1;fill:#ffffff" d="M 3.4004,3 C 2.6248,3 2,3.6248 2,4.4004 V 5.4004 C 2,4.6248 2.6248,4 3.4004,4 H 11.1 C 13.2,4 13.9,7 16,7 H 28.6 C 29.375,7 30,7.6248 30,8.4004 V 7.4004 C 30,6.6248 29.375,6 28.6,6 H 16 C 13.9,6 13.2,3 11.1,3 Z"/>
 <path style="fill:#1f252a" d="M 17,12 14.994,12.399 V 20.912 L 16.989,20.6 V 17 L 19.794,21 21.983,20 18.994,16.6 22.005,13 19.794,12 16.989,16.2 V 12 Z"/>
 <path style="fill:#1f252a" d="M 12.276,15.201 C 12.251,15.204 12.224,15.21 12.205,15.229 L 11.352,16.076 C 11.316,16.112 11.312,16.166 11.338,16.209 L 12.246,17.697 C 12.033,18.044 11.867,18.421 11.756,18.822 L 10.082,19.168 C 10.031,19.178 9.9943,19.227 9.9943,19.279 V 20.477 C 9.9943,20.527 10.033,20.57 10.082,20.582 L 11.705,20.973 C 11.807,21.424 11.98,21.849 12.209,22.236 L 11.264,23.666 C 11.235,23.71 11.241,23.768 11.278,23.805 L 12.131,24.652 C 12.167,24.688 12.223,24.692 12.266,24.666 L 13.742,23.775 C 14.107,23.993 14.505,24.16 14.928,24.266 L 15.274,25.912 C 15.284,25.963 15.327,26 15.379,26 H 16.586 C 16.637,26 16.68,25.967 16.692,25.918 L 17.102,24.26 C 17.528,24.149 17.925,23.971 18.291,23.746 L 19.773,24.711 C 19.817,24.739 19.875,24.734 19.912,24.697 L 20.762,23.852 C 20.798,23.816 20.806,23.76 20.779,23.717 L 20.199,22.77 20.01,22.828 C 19.982,22.837 19.952,22.825 19.935,22.801 19.935,22.801 19.756,22.557 19.613,22.363 19.554,22.273 19.062,21.676 18.723,21.242 A 3,3 0 0 1 15.994,23 3,3 0 0 1 12.994,20 3,3 0 0 1 14.395,17.465 V 15.875 C 14.172,15.958 14.025,16.059 13.82,16.176 L 12.344,15.217 C 12.322,15.202 12.3,15.199 12.276,15.201 Z"/>
</svg>
