<svg xmlns="http://www.w3.org/2000/svg" width="22" height="22" version="1.1">
 <circle style="fill:#455a64" cx="11" cy="11" r="10"/>
 <path style="fill:#8b9cbe" d="m 10.999999,4.0000005 c -2,0 -3.5,1.000003 -3.5,3.499997 v 1.5 H 6.8333325 C 6.371666,8.9999975 5.999999,9.375144 5.999999,9.85 v 5.292857 C 5.999999,15.617714 6.371666,16 6.8333325,16 h 8.3333335 c 0.461666,0 0.833333,-0.382286 0.833333,-0.857143 V 9.850001 c 0,-0.474857 -0.371667,-0.8500035 -0.833333,-0.8500035 H 14.5 v -1.5 c 0,-2.499994 -1.5,-3.499997 -3.500001,-3.499997 z m 0,1.5 C 12,5.5000005 13,5.9999975 13,7.4999975 v 1.5 H 8.999999 v -1.5 c 0,-1.5 1,-1.999997 2,-1.999997 z"/>
</svg>
