<svg xmlns="http://www.w3.org/2000/svg" width="22" height="22" version="1.1">
 <g transform="matrix(0.5,0,0,0.5,-1,-1)">
  <circle style="fill:#455a64" cx="24" cy="24" r="20"/>
  <path style="fill:#8b9cbe" d="m 24,12 c -6.627,0 -12,5.373 -12,12 0,6.627 5.373,12 12,12 l 7.5,0 c 0,0 1.4063,0 1.5,-1.5 C 33,33 31.5,33 31.5,33 L 24,33 c -4.9706,0 -9,-4.0294 -9,-9 0,-4.9706 4.0294,-9 9,-9 4.971,0 9,4.029 9,9 l 0,1.5 C 33,26.328 32.328,27 31.5,27 30.672,27 30,26.328 30,25.5 L 30,24 c 0,-3.314 -2.686,-6 -6,-6 -3.314,0 -6,2.686 -6,6 0,3.314 2.686,6 6,6 1.569,0 2.986,-0.616 4.055,-1.603 0.855,1.017 2.116,1.604 3.445,1.603 2.485,0 4.5,-2.015 4.5,-4.5 L 36,24 C 36,17.373 30.627,12 24,12 Z m 0,9 c 1.6568,0 3,1.3432 3,3 0,1.657 -1.343,3 -3,3 -1.657,0 -3,-1.343 -3,-3 0,-1.6568 1.3432,-3 3,-3 z"/>
 </g>
</svg>
