<svg xmlns="http://www.w3.org/2000/svg" width="22" height="22" version="1.1">
 <g transform="translate(-1,-1)">
  <circle style="fill:#455a64" cx="12" cy="12" r="10"/>
  <path style="fill:#8b9cbe;fill-rule:evenodd" d="m 13,7 0,2 -3.1601538,0 c -1.371845,8e-5 -2.6394518,0.7735688 -3.3253743,1.953268 -0.6859627,1.179767 -0.6859627,2.969738 0,4.149506 C 7.1674503,16.222129 8.3474229,16.93642 9.6485932,17 8.6670891,16.902435 7.9999107,16.382474 8,15.403 8.0000002,14.35005 8.7794398,14 9.8398462,14 L 13,14 13,15.579409 18,11.5 Z"/>
 </g>
</svg>
