<svg xmlns="http://www.w3.org/2000/svg" width="22" height="22" version="1.1">
 <circle style="fill:#455a64" cx="11" cy="11" r="10"/>
 <path style="fill:#8b9cbe" d="M 11,4 C 9.139634,4 7.713731,4.8671075 7.5234375,7 h 1.520508 C 9.2437845,5.8877625 10.120993,5.5 11,5.5 c 1.000001,0 2,0.5 2,2 V 9 H 11 9 7.5 6.833008 C 6.3713415,9 6,9.374753 6,9.84961 v 5.292968 C 6,15.617435 6.3713415,16 6.833008,16 h 8.333984 C 15.628659,16 16,15.617435 16,15.142578 V 9.84961 C 16,9.374753 15.628659,9 15.166992,9 H 14.5 V 7.5 C 14.5,5.000006 13.000001,4 11,4 Z"/>
</svg>
