<svg xmlns="http://www.w3.org/2000/svg" width="22" height="22" version="1.1">
 <circle style="fill:#455a64" cx="11" cy="11" r="10"/>
 <rect style="fill:#8b9cbe" width="3" height="10" x="7" y="6"/>
 <rect style="fill:#8b9cbe" width="3" height="10" x="12" y="6"/>
</svg>
