<svg xmlns="http://www.w3.org/2000/svg" width="22" height="22" version="1.1">
 <g transform="matrix(0.5,0,0,0.5,-1,-1)">
  <circle style="fill:#455a64" cx="24" cy="24" r="20"/>
  <path style="fill:#8b9cbe" d="M 11,27.221826 15.24264,31.464467 18.778174,35 37.16295,16.615224 33.627417,13.07969 18.778174,27.928933 14.535533,23.686292 11,27.221826 Z"/>
 </g>
</svg>
