<svg xmlns="http://www.w3.org/2000/svg" width="22" height="22" version="1.1">
 <rect style="fill:#455a64" width="12" height="10" x="5" y="12"/>
 <circle style="fill:#455a64" cx="5" cy="17" r="5"/>
 <path style="fill:#8b9cbe" d="M 7.5 13 A 1.5 1.5 0 0 0 6 14.5 A 1.5 1.5 0 0 0 6.0195312 14.736328 L 3.578125 15.957031 A 1.5 1.5 0 0 1 3.5761719 15.955078 A 1.5 1.5 0 0 0 2.5 15.5 A 1.5 1.5 0 0 0 1 17 A 1.5 1.5 0 0 0 2.5 18.5 A 1.5 1.5 0 0 0 3.5761719 18.041016 L 6.0195312 19.263672 A 1.5 1.5 0 0 0 6 19.5 A 1.5 1.5 0 0 0 7.5 21 A 1.5 1.5 0 0 0 9 19.5 A 1.5 1.5 0 0 0 7.5 18 A 1.5 1.5 0 0 0 6.4238281 18.458984 L 3.9804688 17.236328 A 1.5 1.5 0 0 0 4 17 A 1.5 1.5 0 0 0 3.9804688 16.761719 L 6.421875 15.541016 A 1.5 1.5 0 0 0 7.5 16 A 1.5 1.5 0 0 0 9 14.5 A 1.5 1.5 0 0 0 7.5 13 z"/>
 <circle style="fill:#f44336" cx="17" cy="17" r="5"/>
 <path style="fill:#8b9cbe" d="M 14.96,14 17,16.04 19.04,14 20,14.96 17.96,17 20,19.04 19.04,20 17,17.96 14.96,20 14,19.04 16.04,17 14,14.96 Z"/>
</svg>
