<svg xmlns="http://www.w3.org/2000/svg" width="48" height="48" version="1">
 <path style="opacity:0.2" d="M 24,5 C 12.92,5 4,13.92 4,25 4,36.08 12.92,45 24,45 35.08,45 44,36.08 44,25 44,13.92 35.08,5 24,5 Z"/>
 <path style="fill:#ffa50c" d="M 24,4 C 12.92,4 4,12.92 4,24 4,35.08 12.92,44 24,44 35.08,44 44,35.08 44,24 44,12.92 35.08,4 24,4 Z"/>
 <path style="opacity:0.2;fill:#f4f4f7" d="M 24,4 C 12.920985,4 4.0017778,12.92 4.0017778,24 c 0,0.168 -0.004,0.333 0,0.5 C 4.2661543,13.654 13.08897,5 24,5 c 10.91103,0 19.734246,8.654 19.998223,19.5 0.004,-0.167 0,-0.332 0,-0.5 C 43.998223,12.92 35.079015,4 24,4 Z"/>
 <ellipse style="opacity:0.1" cx="41.195" cy="-7.095" rx="5.197" ry="6.708" transform="matrix(0.44017042,0.89791425,-0.82693623,0.56229571,0,0)"/>
 <ellipse style="fill:#7f2a23" cx="40.36" cy="-7.54" rx="5.197" ry="6.708" transform="matrix(0.44017042,0.89791425,-0.82693623,0.56229571,0,0)"/>
 <path style="opacity:0.1" d="m 17,16.99962 c -1.656854,0 -3,1.343146 -3,3 0,1.656854 1.343146,0 3,0 1.656854,0 3,1.656854 3,0 0,-1.656854 -1.343146,-3 -3,-3 z"/>
 <path style="opacity:0.1" d="m 31,16.99962 c -1.656854,0 -3,1.343146 -3,3 0,1.656854 1.343146,0 3,0 1.656854,0 3,1.656854 3,0 0,-1.656854 -1.343146,-3 -3,-3 z"/>
 <path style="fill:#3f3f3f" d="m 20,18.99924 c 0,1.656854 -1.343146,0 -3,0 -1.656854,0 -3,1.656854 -3,0 0,-1.656854 1.343146,-3 3,-3 1.656854,0 3,1.343146 3,3 z"/>
 <path style="fill:#3f3f3f" d="m 34,18.99924 c 0,1.656854 -1.343146,0 -3,0 -1.656854,0 -3,1.656854 -3,0 0,-1.656854 1.343146,-3 3,-3 1.656854,0 3,1.343146 3,3 z"/>
</svg>
