<svg xmlns="http://www.w3.org/2000/svg" width="48" height="48" version="1">
 <path style="opacity:0.2" d="M 24,5 C 12.92,5 4,13.92 4,25 4,36.08 12.92,45 24,45 35.08,45 44,36.08 44,25 44,13.92 35.08,5 24,5 Z"/>
 <path style="fill:#ffa50c" d="M 24,4 C 12.92,4 4,12.92 4,24 4,35.08 12.92,44 24,44 35.08,44 44,35.08 44,24 44,12.92 35.08,4 24,4 Z"/>
 <path style="opacity:0.1;fill:none;stroke:#000000;stroke-width:2;stroke-linecap:round;stroke-linejoin:round" d="m 15.008585,31 c 0,0 3,4 9,4 6,0 9,-4 9,-4 v 0 0"/>
 <path style="opacity:0.2;fill:#f4f4f7" d="M 24,4 C 12.92,4 4,12.92 4,24 4,24.168 3.996,24.333 4,24.5 4.2644,13.654 13.088,5 24,5 34.912,5 43.736,13.654 44,24.5 44.004,24.333 44,24.168 44,24 44,12.92 35.08,4 24,4 Z"/>
 <path style="opacity:0.1" d="m 20,16 c 0,0 2,-1 4,-1 2,0 4,1 4,1 v 2 c 0,0 -2,-1 -4,-1 -2,0 -4,1 -4,1 z"/>
 <path style="fill:#682c76" d="m 20,15 c 0,0 2,-1 4,-1 2,0 4,1 4,1 v 2 c 0,0 -2,-1 -4,-1 -2,0 -4,1 -4,1 z"/>
 <rect style="opacity:0.1" width="3" height="4" x="3" y="15" rx="1" ry="1"/>
 <rect style="fill:#682c76" width="3" height="4" x="3" y="14" rx="1" ry="1"/>
 <rect style="opacity:0.1" width="3" height="4" x="42" y="15" rx="1" ry="1"/>
 <rect style="fill:#682c76" width="3" height="4" x="42" y="14" rx="1" ry="1"/>
 <path style="fill:none;stroke:#3f3f3f;stroke-width:2;stroke-linecap:round;stroke-linejoin:round" d="m 15.008585,30 c 0,0 3,4 9,4 6,0 9,-4 9,-4 v 0 0"/>
 <circle style="fill:#3f3f3f" cx="15" cy="19" r="2"/>
 <path style="opacity:0.3;fill:#0da3ff" d="M 20,17 A 7,7 0 0 1 13,24 7,7 0 0 1 6.0000002,17 7,7 0 0 1 13,10 a 7,7 0 0 1 7,7 z"/>
 <circle style="fill:#3f3f3f" cx="33" cy="19" r="2"/>
 <path style="opacity:0.3;fill:#0da3ff" d="m 42,17 a 7,7 0 0 1 -7,7 7,7 0 0 1 -7,-7 7,7 0 0 1 7,-7 7,7 0 0 1 7,7 z"/>
 <path style="opacity:0.1" d="m 13,10 a 8,8 0 0 0 -8,8 8,8 0 0 0 8,8 8,8 0 0 0 8,-8 8,8 0 0 0 -8,-8 z m 0,2 c 3.337398,0 6,2.662602 6,6 0,3.337398 -2.662602,6 -6,6 -3.3373978,0 -6,-2.662602 -6,-6 0,-3.337398 2.6626022,-6 6,-6 z"/>
 <path style="fill:#b62fb1" d="M 13 9 A 8 8 0 0 0 5 17 A 8 8 0 0 0 13 25 A 8 8 0 0 0 21 17 A 8 8 0 0 0 13 9 z M 13 11 C 16.337398 11 19 13.662602 19 17 C 19 20.337398 16.337398 23 13 23 C 9.6626022 23 7 20.337398 7 17 C 7 13.662602 9.6626022 11 13 11 z"/>
 <path style="opacity:0.1" d="m 35,10 a 8,8 0 0 0 -8,8 8,8 0 0 0 8,8 8,8 0 0 0 8,-8 8,8 0 0 0 -8,-8 z m 0,2 c 3.337398,0 6,2.662602 6,6 0,3.337398 -2.662602,6 -6,6 -3.337397,0 -6,-2.662602 -6,-6 0,-3.337398 2.662603,-6 6,-6 z"/>
 <path style="fill:#b62fb1" d="m 35,9 a 8,8 0 0 0 -8,8 8,8 0 0 0 8,8 8,8 0 0 0 8,-8 8,8 0 0 0 -8,-8 z m 0,2 c 3.337398,0 6,2.662602 6,6 0,3.337398 -2.662602,6 -6,6 -3.337397,0 -6,-2.662602 -6,-6 0,-3.337398 2.662603,-6 6,-6 z"/>
</svg>
