<svg xmlns="http://www.w3.org/2000/svg" width="48" height="48" version="1">
 <path style="opacity:0.2" d="M 24,5 C 12.92,5 4,13.92 4,25 4,36.08 12.92,45 24,45 35.08,45 44,36.08 44,25 44,13.92 35.08,5 24,5 Z"/>
 <path style="fill:#ffa50c" d="M 24,4 C 12.92,4 4,12.92 4,24 4,35.08 12.92,44 24,44 35.08,44 44,35.08 44,24 44,12.92 35.08,4 24,4 Z"/>
 <rect style="opacity:0.1" width="16" height="2" x="16" y="33" rx="1" ry="1"/>
 <rect style="opacity:0.1" width="16" height="12" x="5" y="13" rx="2" ry="2"/>
 <rect style="opacity:0.1" width="16" height="12" x="27" y="13" rx="2" ry="2"/>
 <path style="opacity:0.2;fill:#f4f4f7" d="M 24,4 C 12.92,4 4,12.92 4,24 4,24.168 3.996,24.333 4,24.5 4.2644,13.654 13.088,5 24,5 34.912,5 43.736,13.654 44,24.5 44.004,24.333 44,24.168 44,24 44,12.92 35.08,4 24,4 Z"/>
 <path style="opacity:0.1" d="m 20,16 c 0,0 2,-1 4,-1 2,0 4,1 4,1 v 2 c 0,0 -2,-1 -4,-1 -2,0 -4,1 -4,1 z"/>
 <path style="fill:#2d2d2d" d="m 20,15 c 0,0 2,-1 4,-1 2,0 4,1 4,1 v 2 c 0,0 -2,-1 -4,-1 -2,0 -4,1 -4,1 z"/>
 <rect style="fill:#3f3f3f" width="16" height="12" x="5" y="12" rx="2" ry="2"/>
 <rect style="fill:#3f3f3f" width="16" height="12" x="27" y="12" rx="2" ry="2"/>
 <rect style="opacity:0.1" width="3" height="4" x="3" y="15" rx="1" ry="1"/>
 <rect style="fill:#2d2d2d" width="3" height="4" x="3" y="14" rx="1" ry="1"/>
 <rect style="opacity:0.1" width="3" height="4" x="42" y="15" rx="1" ry="1"/>
 <rect style="fill:#2d2d2d" width="3" height="4" x="42" y="14" rx="1" ry="1"/>
 <rect style="fill:#3f3f3f" width="16" height="2" x="16" y="32" rx="1" ry="1"/>
</svg>
