<svg xmlns="http://www.w3.org/2000/svg" width="48" height="48" version="1">
 <path style="opacity:0.2" d="M 24,5 C 12.92,5 4,13.92 4,25 4,36.08 12.92,45 24,45 35.08,45 44,36.08 44,25 44,13.92 35.08,5 24,5 Z"/>
 <path style="fill:#d4453a" d="M 24,4 C 12.92,4 4,12.92 4,24 4,35.08 12.92,44 24,44 35.08,44 44,35.08 44,24 44,12.92 35.08,4 24,4 Z"/>
 <path style="opacity:0.1" d="m 15.785156,16.010094 c -0.250029,0.03982 -0.522218,0.198349 -0.83789,0.511718 -1.26269,1.253478 -1.26269,3.285585 0,4.539063 1.262691,1.253477 3.309574,1.253477 4.572265,0 1.262691,-1.253478 -0.221685,-2.039492 -1.484375,-3.292969 -0.947018,-0.940108 -1.499911,-1.877276 -2.25,-1.757812 z m 16.429688,0 c -0.750089,-0.119464 -1.302982,0.817704 -2.25,1.757812 -1.26269,1.253477 -2.747066,2.039491 -1.484375,3.292969 1.262691,1.253477 3.309574,1.253477 4.572265,0 1.26269,-1.253478 1.26269,-3.285585 0,-4.539063 -0.315672,-0.313369 -0.587861,-0.471897 -0.83789,-0.511718 z M 24,29.988609 c -6.444444,0 -9.800781,4.400391 -9.800781,4.400391 a 1.0003908,1.0003908 0 1 0 1.601562,1.199219 c 0,0 2.643663,-3.59961 8.199219,-3.59961 5.555556,0 8.199219,3.59961 8.199219,3.59961 A 1.0003908,1.0003908 0 0 0 33.800781,34.389 c 0,0 -3.356337,-4.400391 -9.800781,-4.400391 z"/>
 <path style="fill:#3f3f3f" d="m 19.519625,20.059892 c 1.262691,-1.253478 -0.222038,-2.039222 -1.484728,-3.292699 -1.262691,-1.253478 -1.825189,-2.500024 -3.08788,-1.246546 -1.26269,1.253478 -1.26269,3.285767 0,4.539245 1.262691,1.253477 3.309917,1.253477 4.572608,0 z"/>
 <path style="fill:none;stroke:#3f3f3f;stroke-width:2;stroke-linecap:round;stroke-linejoin:round" d="m 15,33.988586 c 0,0 3,-4 9,-4 6,0 9,4 9,4 v 0 0"/>
 <path style="fill:#f4f4f7;opacity:0.1" d="M 24 4 C 12.92 4 4 12.92 4 24 C 4 24.167874 4.007647 24.333141 4.0117188 24.5 C 4.2763904 13.653863 13.087874 5 24 5 C 34.912126 5 43.72361 13.653863 43.988281 24.5 C 43.992353 24.333141 44 24.167874 44 24 C 44 12.92 35.08 4 24 4 z"/>
 <path style="fill:#3f3f3f" d="m 28.480374,20.059892 c -1.262691,-1.253478 0.222038,-2.039222 1.484728,-3.292699 1.262691,-1.253478 1.825189,-2.500024 3.08788,-1.246546 1.26269,1.253478 1.26269,3.285767 0,4.539245 -1.262691,1.253477 -3.309917,1.253477 -4.572608,0 z"/>
</svg>
