<svg xmlns="http://www.w3.org/2000/svg" width="48" height="48" version="1">
 <path style="opacity:0.2" d="M 24,5 C 12.92,5 4,13.92 4,25 4,36.08 12.92,45 24,45 35.08,45 44,36.08 44,25 44,13.92 35.08,5 24,5 Z"/>
 <path style="fill:#ffa50c" d="M 24,4 C 12.92,4 4,12.92 4,24 4,35.08 12.92,44 24,44 35.08,44 44,35.08 44,24 44,12.92 35.08,4 24,4 Z"/>
 <path style="opacity:0.1" d="m 17,18 c -1.656854,0 -3,1.343146 -3,3 0,1.656854 1.343146,0 3,0 1.656854,0 3,1.656854 3,0 0,-1.656854 -1.343146,-3 -3,-3 z m 14,0 c -1.656854,0 -3,1.343146 -3,3 0,1.656854 1.343146,0 3,0 1.656854,0 3,1.656854 3,0 0,-1.656854 -1.343146,-3 -3,-3 z m 2.037109,11.988281 a 1.0001,1.0001 0 0 0 -0.83789,0.41211 C 32.199219,30.400391 29.555556,34 24,34 18.444444,34 15.800781,30.400391 15.800781,30.400391 a 1.0003905,1.0003905 0 1 0 -1.601562,1.199218 c 0,0 3.356337,4.400391 9.800781,4.400391 6.444444,0 9.800781,-4.400391 9.800781,-4.400391 a 1.0001,1.0001 0 0 0 -0.763672,-1.611328 z"/>
 <path style="opacity:0.2;fill:#f4f4f7" d="M 24,4 C 12.920985,4 4.0017778,12.92 4.0017778,24 c 0,0.168 -0.004,0.333 0,0.5 C 4.2661543,13.654 13.08897,5 24,5 c 10.91103,0 19.734246,8.654 19.998223,19.5 0.004,-0.167 0,-0.332 0,-0.5 C 43.998223,12.92 35.079015,4 24,4 Z"/>
 <path style="fill:#3f3f3f" d="m 20,19.99962 c 0,1.656854 -1.343146,0 -3,0 -1.656854,0 -3,1.656854 -3,0 0,-1.656854 1.343146,-3 3,-3 1.656854,0 3,1.343146 3,3 z"/>
 <path style="fill:#3f3f3f" d="m 34,19.99962 c 0,1.656854 -1.343146,0 -3,0 -1.656854,0 -3,1.656854 -3,0 0,-1.656854 1.343146,-3 3,-3 1.656854,0 3,1.343146 3,3 z"/>
 <path style="fill:none;stroke:#3f3f3f;stroke-width:2;stroke-linecap:round;stroke-linejoin:round" d="m 15,30 c 0,0 3,4 9,4 6,0 9,-4 9,-4 v 0 0"/>
</svg>
