<svg xmlns="http://www.w3.org/2000/svg" width="22" height="22" version="1.1">
 <defs>
  <linearGradient id="linearGradient3605" x1="7" x2="19" y1="12" y2="5" gradientTransform="matrix(0,-1,-1,0,23,23)" gradientUnits="userSpaceOnUse">
   <stop offset="0" stop-color="#323a41" stop-opacity=".5"/>
   <stop offset="1" stop-color="#323a41" stop-opacity="0"/>
  </linearGradient>
  <linearGradient id="linearGradient3611" x1="7" x2="17" y1="12" y2="12" gradientTransform="matrix(0,1,1,0,-1,-1)" gradientUnits="userSpaceOnUse">
   <stop offset="0" stop-color="#323a41"/>
   <stop offset="1" stop-color="#323a41" stop-opacity=".5"/>
  </linearGradient>
 </defs>
 <path fill="url(#linearGradient3611)" d="m11 4c-3.866 0-7 3.134-7 7s3.134 7 7 7v-2c-2.7614 0-5-2.239-5-5 0-2.7614 2.2386-5 5-5 1.3 0 1.3-2 0-2z"/>
 <path fill="url(#linearGradient3605)" d="m11 4v2c2.7614 0 5 2.2386 5 5s-2.2386 5-5 5v2c3.866 0 7-3.134 7-7s-3.134-7-7-7z"/>
</svg>
