<svg xmlns="http://www.w3.org/2000/svg" width="22" height="22" version="1.1">
 <defs>
  <linearGradient id="linearGradient3605" x1="7" x2="19" y1="12" y2="5" gradientTransform="matrix(-.44885 -.89361 -.89361 .44885 27.109 16.337)" gradientUnits="userSpaceOnUse">
   <stop offset="0" stop-color="#323a41" stop-opacity=".5"/>
   <stop offset="1" stop-color="#323a41" stop-opacity="0"/>
  </linearGradient>
  <linearGradient id="linearGradient3611" x1="7" x2="17" y1="12" y2="12" gradientTransform="matrix(.44885 .89361 .89361 -.44885 -5.1099 5.6633)" gradientUnits="userSpaceOnUse">
   <stop offset="0" stop-color="#323a41"/>
   <stop offset="1" stop-color="#323a41" stop-opacity=".5"/>
  </linearGradient>
 </defs>
 <path fill="url(#linearGradient3611)" d="m7.8576 4.7452c-3.4547 1.7353-4.8485 5.9425-3.1133 9.3972 1.7353 3.4547 5.9425 4.8485 9.3972 3.1133l-0.898-1.787c-2.467 1.239-5.4726 0.244-6.712-2.224-1.2395-2.467-0.2439-5.4726 2.2237-6.712 1.1613-0.5835 0.2643-2.3708-0.8977-1.7872z"/>
 <path fill="url(#linearGradient3605)" d="m7.8576 4.7452 0.8977 1.7872c2.4673-1.2395 5.4733-0.2439 6.7123 2.2237 1.239 2.4673 0.244 5.4733-2.224 6.7123l0.8977 1.7872c3.455-1.735 4.849-5.942 3.113-9.397-1.735-3.4546-5.942-4.8485-9.397-3.1132z"/>
</svg>
