<svg xmlns="http://www.w3.org/2000/svg" width="16" height="16" version="1.1">
 <path style="fill:#323a41" d="M 3,1 C 2.446,1 2,1.446 2,2 V 15 C 2,15.554 2.446,16 3,16 H 13 C 13.554,16 14,15.554 14,15 V 5 L 10,1 Z M 8,6 C 9.1,6 10,6.9 10,8 10,9.1 9.1,10 8,10 V 11 H 7 V 9 H 8 C 8.55,9 9,8.55 9,8 9,7.45 8.55,7 8,7 7.45,7 7,7.45 7,8 H 6 C 6,6.9 6.9,6 8,6 Z M 7,12 H 8 V 13 H 7 Z"/>
</svg>
