<svg xmlns="http://www.w3.org/2000/svg" width="16" height="16" version="1.1">
 <path style="fill:#323a41" d="M 15,2 1,7 H 15 Z M 9,9 V 10 H 1 V 12 H 9 V 13 H 11 V 9 Z M 12,10 V 12 H 15 V 10 Z"/>
</svg>
