<svg xmlns="http://www.w3.org/2000/svg" width="16" height="16" version="1.1">
 <path style="fill:#323a41" d="M 2,2 C 2,2 0,2 0,4 V 12 C 0,14 2,14 2,14 H 13 C 13,14 15,14 15,12 V 4 C 15,2 13,2 13,2 Z M 2.25,4 H 3.75 C 3.89,4 4,4.11 4,4.25 V 5.75 C 4,5.89 3.89,6 3.75,6 H 2.25 C 2.11,6 2,5.89 2,5.75 V 4.25 C 2,4.11 2.11,4 2.25,4 Z M 5.25,4 H 6.75 C 6.89,4 7,4.11 7,4.25 V 5.75 C 7,5.89 6.89,6 6.75,6 H 5.25 C 5.11,6 5,5.89 5,5.75 V 4.25 C 5,4.11 5.11,4 5.25,4 Z M 8.25,4 H 9.75 C 9.89,4 10,4.11 10,4.25 V 5.75 C 10,5.89 9.89,6 9.75,6 H 8.25 C 8.11,6 8,5.89 8,5.75 V 4.25 C 8,4.11 8.11,4 8.25,4 Z M 11.25,4 H 12.75 C 12.89,4 13,4.11 13,4.25 V 5.75 C 13,5.89 12.89,6 12.75,6 H 11.25 C 11.11,6 11,5.89 11,5.75 V 4.25 C 11,4.11 11.11,4 11.25,4 Z M 2.25,7 H 3.75 C 3.89,7 4,7.11 4,7.25 V 8.75 C 4,8.89 3.89,9 3.75,9 H 2.25 C 2.11,9 2,8.89 2,8.75 V 7.25 C 2,7.11 2.11,7 2.25,7 Z M 5.25,7 H 6.75 C 6.89,7 7,7.11 7,7.25 V 8.75 C 7,8.89 6.89,9 6.75,9 H 5.25 C 5.11,9 5,8.89 5,8.75 V 7.25 C 5,7.11 5.11,7 5.25,7 Z M 8.25,7 H 9.75 C 9.89,7 10,7.11 10,7.25 V 8.75 C 10,8.89 9.89,9 9.75,9 H 8.25 C 8.11,9 8,8.89 8,8.75 V 7.25 C 8,7.11 8.11,7 8.25,7 Z M 11.25,7 H 12.75 C 12.89,7 13,7.11 13,7.25 V 8.75 C 13,8.89 12.89,9 12.75,9 H 11.25 C 11.11,9 11,8.89 11,8.75 V 7.25 C 11,7.11 11.11,7 11.25,7 Z M 4.25,10 H 10.75 C 10.89,10 11,10.11 11,10.25 V 11.75 C 11,11.89 10.89,12 10.75,12 H 4.25 C 4.11,12 4,11.89 4,11.75 V 10.25 C 4,10.11 4.11,10 4.25,10 Z"/>
</svg>
