<svg xmlns="http://www.w3.org/2000/svg" width="16" height="16" version="1.1">
 <defs>
  <style id="current-color-scheme" type="text/css">
   .ColorScheme-Text { color:#323a41; } .ColorScheme-Highlight { color:#4285f4; } .ColorScheme-NeutralText { color:#ff9800; } .ColorScheme-PositiveText { color:#4caf50; } .ColorScheme-NegativeText { color:#f44336; }
  </style>
 </defs>
 <path style="fill:currentColor" class="ColorScheme-Text" d="M 3,1 C 2.446,1 2,1.446 2,2 V 14 C 2,14.554 2.446,15 3,15 H 13 C 13.554,15 14,14.554 14,14 V 2 C 14,1.446 13.554,1 13,1 Z M 8,3 A 4,4 0 0 1 12,7 4,4 0 0 1 8,11 H 4 V 7 A 4,4 0 0 1 8,3 Z M 8,5 A 2,2 0 0 0 6,7 2,2 0 0 0 8,9 2,2 0 0 0 10,7 2,2 0 0 0 8,5 Z"/>
</svg>
