<svg xmlns="http://www.w3.org/2000/svg" width="16" height="16" version="1.1">
 <defs>
  <style id="current-color-scheme" type="text/css">
   .ColorScheme-Text { color:#323a41; } .ColorScheme-Highlight { color:#4285f4; } .ColorScheme-NeutralText { color:#ff9800; } .ColorScheme-PositiveText { color:#4caf50; } .ColorScheme-NegativeText { color:#f44336; }
  </style>
 </defs>
 <path style="fill:currentColor" class="ColorScheme-Text" d="M 1.015625 2 C 0.4527806 2 0 2.4575152 0 3.0273438 L 0 12.972656 C 0 13.542656 0.4527806 14 1.015625 14 L 11 14 L 11 13.505859 L 11 11.515625 L 11 11.513672 C 11.001331 10.732556 11.62713 9.9765168 12.494141 10 L 12.496094 10 C 12.757522 10.007372 13.011521 10.089101 13.224609 10.226562 L 14.759766 11.222656 L 16 12.027344 L 16 3.0273438 C 16 2.4576866 15.547931 2 14.984375 2 L 1.015625 2 z M 5 4 C 7.209 4 9 5.7909 9 8 C 9 10.209 7.209 12 5 12 C 2.7909 12 1 10.209 1 8 C 1 5.7909 2.7909 4 5 4 z M 10 4 L 15 4 L 15 5 L 10 5 L 10 4 z M 5 6 C 3.8954736 6 3 6.8955403 3 8 C 3 9.1045927 3.8954736 10 5 10 C 6.1045263 10 7 9.1045927 7 8 C 7 6.8955403 6.1045263 6 5 6 z M 10 7 L 15 7 L 15 8 L 10 8 L 10 7 z M 12.472656 11 A 0.46106286 0.51474525 0 0 0 12 11.513672 L 12 13.5 L 12 15.486328 A 0.46106286 0.51474525 0 0 0 12.691406 15.931641 L 14.230469 14.939453 L 15.769531 13.945312 A 0.46106286 0.51474525 0 0 0 15.769531 13.054688 L 14.230469 12.060547 L 12.691406 11.068359 A 0.46106286 0.51474525 0 0 0 12.472656 11 z"/>
</svg>
