<svg xmlns="http://www.w3.org/2000/svg" width="16" height="16" version="1.1">
 <defs>
  <style id="current-color-scheme" type="text/css">
   .ColorScheme-Text { color:#323a41; } .ColorScheme-Highlight { color:#4285f4; } .ColorScheme-NeutralText { color:#ff9800; } .ColorScheme-PositiveText { color:#4caf50; } .ColorScheme-NegativeText { color:#f44336; }
  </style>
 </defs>
 <circle style="fill:currentColor" class="ColorScheme-Highlight" cx="14.5" cy="1.5" r="1.5"/>
 <path style="fill:currentColor" class="ColorScheme-Text" d="M 8 1 C 4.122 1 1 4.122 1 8 C 1 11.878 4.122 15 8 15 C 11.878 15 15 11.878 15 8 C 15 4.122 11.878 1 8 1 z M 8 3 C 10.761429 3 13 5.238572 13 8 C 13 10.76143 10.761429 13 8 13 C 5.2385716 13 3 10.76143 3 8 C 3 5.238572 5.2385716 3 8 3 z M 7.5 3.9550781 C 7.3534213 3.9699781 7.2064138 3.9807456 7.0644531 4.0097656 C 6.7794519 4.0680576 6.5079958 4.1450845 6.2460938 4.2558594 C 4.9943967 4.7852065 4.0512982 5.8824317 3.7148438 7.2226562 C 3.7234711 7.2320767 3.7322447 7.2393715 3.7421875 7.25 C 3.9770176 7.50081 4.592606 7.8466407 5.0488281 8.0117188 C 5.2983224 8.1020167 5.781457 8.2448838 6.1113281 8.3125 C 6.4412218 8.3799899 6.6594531 8.4465188 6.6269531 8.4492188 C 6.59446 8.4518617 6.447455 8.5614883 6.3007812 8.6933594 C 6.0210075 8.9448933 5.8767679 9.1663582 5.7558594 9.5644531 C 5.6895183 9.782422 5.6968531 9.8566193 5.7832031 9.9746094 C 5.83531 10.045709 6.0690277 10.21201 6.3007812 10.355469 C 6.5325438 10.498938 6.8037312 10.697323 6.9003906 10.791016 C 7.2604763 11.139992 7.5 11.762872 7.5 12.369141 C 7.5 12.524276 7.5160067 12.605335 7.5273438 12.640625 C 7.5567968 12.643325 7.5778849 12.637925 7.6074219 12.640625 C 7.6740787 12.614913 7.7747205 12.585409 7.9335938 12.505859 C 9.2646711 11.839537 9.8744031 10.97936 9.8144531 9.8378906 C 9.7667051 8.9276055 9.3385369 8.5973698 7.6074219 8.2304688 C 6.3327044 7.9602627 5.6484375 7.501482 5.6484375 6.9238281 C 5.6484375 6.771499 5.6988109 6.68202 5.8652344 6.515625 C 6.0441053 6.336742 6.0824368 6.3239296 6.2207031 6.3515625 C 6.3087531 6.3691625 6.534164 6.4865699 6.7089844 6.625 C 7.1025132 6.936622 7.2964701 7.0605469 7.5 7.0605469 C 7.5866996 7.0605469 7.6621094 7.0461731 7.6621094 7.0332031 C 7.6621094 7.0202171 7.5984447 6.9213708 7.5273438 6.8164062 C 7.1344319 6.2374802 7.1586794 5.1533695 7.5820312 4.2285156 C 7.6485154 4.0833236 7.6964431 3.9829481 7.6894531 3.9550781 C 7.6306394 3.9585781 7.558294 3.9489781 7.5 3.9550781 z M 11.583984 5.9980469 C 11.504779 5.949162 10.860908 6.6262721 10.712891 6.9238281 C 10.419385 7.513909 10.529781 7.8993039 11.230469 8.6386719 C 11.473219 8.8948049 11.764018 9.2403257 11.855469 9.4023438 C 11.946904 9.5643902 12.025447 9.6970086 12.046875 9.6738281 C 12.068313 9.6506501 12.131355 9.4646761 12.181641 9.265625 C 12.313747 8.7426381 12.324055 7.8311475 12.181641 7.3046875 C 12.071337 6.8968935 11.686327 6.0613169 11.583984 5.9980469 z"/>
</svg>
