<svg xmlns="http://www.w3.org/2000/svg" width="16" height="16" version="1.1">
 <defs>
  <style id="current-color-scheme" type="text/css">
   .ColorScheme-Text { color:#323a41; } .ColorScheme-Highlight { color:#4285f4; } .ColorScheme-NeutralText { color:#ff9800; } .ColorScheme-PositiveText { color:#4caf50; } .ColorScheme-NegativeText { color:#f44336; }
  </style>
 </defs>
 <path style="fill:currentColor" class="ColorScheme-Text" d="M 13,9 C 11.892,9 11,9.911 11,11.031 V 12 H 10 V 16 H 16 V 12 H 15 V 11.031 C 15,9.911 14.108,9 13,9 Z M 13,10 C 13.554,10 14,10.442 14,11 V 12 H 12 V 11 C 12,10.442 12.446,10 13,10 Z"/>
 <path style="opacity:0.3;fill:currentColor" class="ColorScheme-Text" d="M 8.029,2 8.031,2.002 C 4.9969,2.002 2.2653,3.2718 0,5.0156 L 8.031,13.996 9,12.9 V 11 H 10.014 C 10.033,9.365 11.356,8 13,8 13.104,8 13.203,8.021 13.305,8.031 L 16,4.9844 C 13.742,3.2633 11.04,2 8.029,2 Z"/>
 <path style="fill:currentColor" class="ColorScheme-Text" d="M 8.031,4.998 C 5.7884,4.998 3.4752,5.711 1.8008,7 L 8.031,14 9,12.9 V 11 H 10.014 C 10.033,9.365 11.356,8 13,8 13.1,8 13.194,8.021 13.291,8.031 L 14.199,7 C 12.532,5.7274 10.259,5.002 8.033,5.002 Z"/>
</svg>
