<svg xmlns="http://www.w3.org/2000/svg" width="16" height="16" version="1.1">
 <defs>
  <style id="current-color-scheme" type="text/css">
   .ColorScheme-Text { color:#323a41; } .ColorScheme-Highlight { color:#4285f4; } .ColorScheme-NeutralText { color:#ff9800; } .ColorScheme-PositiveText { color:#4caf50; } .ColorScheme-NegativeText { color:#f44336; }
  </style>
 </defs>
 <path style="fill:currentColor" class="ColorScheme-Text" d="M 8.4785156 1.0078125 C 6.2126984 1.0464486 5.3154352 3.4439951 6.5683594 5.25 C 6.3872084 4.9514995 6.2932945 4.5978158 6.3046875 4.2480469 C 6.3149475 3.8982771 6.4314794 3.5519182 6.6308594 3.2636719 C 6.8302404 2.9765647 7.113934 2.7513014 7.4375 2.6191406 C 7.761065 2.4869843 8.1227239 2.4495455 8.4667969 2.515625 C 8.81236 2.5809592 9.1305994 2.7574285 9.3847656 3 L 14.003906 3 L 10.486328 2.1835938 C 9.7119254 1.2990118 9.0957901 1.0061257 8.4785156 1.0078125 z M 1.875 2.2246094 C 1.314457 2.8033807 0.99316396 3.6066143 1 4.4121094 C 1.0068 5.2289979 1.353031 6.0366253 1.9375 6.6074219 C 2.02815 6.6959559 2.133405 6.7673474 2.234375 6.84375 L 1.4375 6.5996094 C 1.285972 7.1783807 1.3336604 7.8051793 1.5683594 8.3554688 C 1.8041974 8.904618 2.225916 9.3727237 2.75 9.6621094 C 3.149899 9.8831362 3.605636 10 4.0625 10 C 4.519365 10 4.975101 9.8831362 5.375 9.6621094 C 5.007002 9.6951494 4.6313447 9.6344403 4.2929688 9.4863281 C 3.9545928 9.3393572 3.6533184 9.1041642 3.4277344 8.8125 C 3.1679714 8.4752628 3.0096025 8.0624967 2.9765625 7.6386719 L 7.125 8.3496094 L 3.3457031 7.1875 C 3.2087031 7.099604 3.080373 6.9994341 2.96875 6.8808594 C 2.657717 6.5515977 2.4650065 6.1132787 2.4296875 5.6621094 C 2.3966475 5.2246128 2.510743 4.7789688 2.75 4.4121094 L 7.5625 7.0371094 L 1.875 2.2246094 z M 10.289062 4.6328125 C 10.051004 4.9142559 9.893809 5.2640312 9.84375 5.6289062 C 9.797029 5.9737582 9.8443749 6.3261572 9.9355469 6.6621094 C 10.026762 6.99695 10.161431 7.3210873 10.294922 7.6425781 C 10.428413 7.9640688 10.561668 8.2859823 10.648438 8.6230469 C 10.734098 8.9601114 10.772682 9.3155753 10.714844 9.6582031 C 10.618064 10.232214 10.252621 10.741604 9.7753906 11.074219 C 9.2981601 11.406834 8.7174035 11.571553 8.1367188 11.609375 C 7.4036308 11.657205 6.6585545 11.509534 6 11.183594 L 6.0175781 14.599609 L 6.8710938 12.900391 C 8.0002071 13.23078 9.2625153 13.068891 10.271484 12.464844 C 10.780975 12.16004 11.227584 11.745275 11.539062 11.240234 C 11.851653 10.735192 12.025857 10.138685 11.998047 9.546875 C 11.958 8.7025445 11.526831 7.9328508 11.115234 7.1953125 C 10.702524 6.457775 10.286813 5.6755198 10.28125 4.8300781 C 10.28125 4.7644471 10.284762 4.6984456 10.289062 4.6328125 z"/>
</svg>
