<svg xmlns="http://www.w3.org/2000/svg" width="16" height="16" version="1.1">
 <defs>
  <style id="current-color-scheme" type="text/css">
   .ColorScheme-Text { color:#323a41; } .ColorScheme-Highlight { color:#4285f4; } .ColorScheme-NeutralText { color:#ff9800; } .ColorScheme-PositiveText { color:#4caf50; } .ColorScheme-NegativeText { color:#f44336; }
  </style>
 </defs>
 <path style="fill:currentColor" class="ColorScheme-Text" d="M 7 0 L 7 1.1894531 A 6.5 6.5 0 0 0 2.1796875 6 L 4.265625 6 A 4.5 4.5 0 0 1 8.5 3 A 4.5 4.5 0 0 1 12.732422 6 L 14.808594 6 A 6.5 6.5 0 0 0 10 1.1894531 L 10 0 L 7 0 z M 8.5 4 A 3.5 3.5 0 0 0 5 7.5 A 3.5 3.5 0 0 0 5.0410156 8 L 5.4003906 8 L 6.0546875 8 L 10.949219 8 A 2.5 2.5 0 0 1 8.5 10 A 2.5 2.5 0 0 1 6.5019531 9 L 5.3417969 9 A 3.5 3.5 0 0 0 8.5 11 A 3.5 3.5 0 0 0 12 7.5 A 3.5 3.5 0 0 0 11.958984 7 L 11.400391 7 L 10.945312 7 L 6.0507812 7 A 2.5 2.5 0 0 1 8.5 5 A 2.5 2.5 0 0 1 10.498047 6 L 11.658203 6 A 3.5 3.5 0 0 0 8.5 4 z M 2.1835938 9 A 6.5 6.5 0 0 0 7 13.814453 L 7 15 L 8 15 L 9 15 L 10 15 L 10 13.808594 A 6.5 6.5 0 0 0 14.816406 9 L 12.736328 9 A 4.5 4.5 0 0 1 8.5 12 A 4.5 4.5 0 0 1 4.2636719 9 L 2.1835938 9 z"/>
</svg>
