<svg xmlns="http://www.w3.org/2000/svg" width="32" height="32" version="1.1">
 <path style="opacity:0.2" d="M 8.8,3 C 8.8,3 7,3 7,4.8666667 V 31 l 9,-5 9,5 V 4.8666667 C 25,4.8666667 25,3 23.2,3 Z"/>
 <path style="fill:#e84040" d="M 8.8,2 C 8.8,2 7,2 7,3.8666667 V 30 l 9,-5 9,5 V 3.8666667 C 25,3.8666667 25,2 23.2,2 Z"/>
 <path style="opacity:0.2" d="m 15.971404,5.0001731 c -0.09719,0.00149 -0.198404,0.013621 -0.304661,0.035541 v 0.012692 C 15.210848,5.1608268 14.878781,5.4897097 14.70719,5.9813208 l 0.0078,-0.02666 -0.990801,3.0473456 h -3.343466 c -0.0073,-1.13e-4 -0.01485,-1.13e-4 -0.02213,0 -0.3992706,0.01245 -0.7592866,0.191711 -1.0129366,0.488669 -0.5485695,0.6055326 -0.4323013,1.5576606 0.264301,2.0092596 l 2.6286836,1.84806 -1.019445,2.947429 c -0.0011,0.0034 -0.0028,0.0068 -0.004,0.01018 -0.155872,0.492392 -0.0093,0.999677 0.38278,1.346698 h 0.0014 c 0.0027,0.0022 0.0052,0.0054 0.0078,0.0076 h 0.0014 c 0.471152,0.40277 1.133148,0.453961 1.665224,0.120581 0.01012,-0.0063 0.02019,-0.01224 0.02995,-0.01904 l 2.69639,-1.873449 2.697687,1.873445 c 0.0098,0.0069 0.01982,0.01274 0.02995,0.01904 0.532075,0.33338 1.19407,0.282189 1.665223,-0.120581 0.0028,-0.0024 0.0062,-0.0052 0.0091,-0.0076 0.392076,-0.347021 0.538652,-0.854306 0.38278,-1.346698 -0.0011,-0.0034 -0.0027,-0.0068 -0.004,-0.01018 l -1.019521,-2.947426 2.628683,-1.84806 c 0.696603,-0.451599 0.812872,-1.403727 0.264301,-2.0092596 -0.25365,-0.296958 -0.613666,-0.476224 -1.012935,-0.488669 -0.0073,-1.13e-4 -0.01485,-1.13e-4 -0.02213,0 H 18.27581 l -0.990801,-3.0473446 0.0078,0.02666 C 17.108115,5.4518921 16.651771,4.9899338 15.971404,5.0001731 Z"/>
 <path style="fill:#ffdc40" d="m 15.971404,4.0001731 c -0.09719,0.00149 -0.198404,0.013621 -0.304661,0.035541 v 0.012692 C 15.210848,4.1608268 14.878781,4.4897097 14.70719,4.9813208 l 0.0078,-0.02666 -0.990801,3.0473456 h -3.343466 c -0.0073,-1.13e-4 -0.01485,-1.13e-4 -0.02213,0 -0.3992706,0.01245 -0.7592866,0.191711 -1.0129366,0.488669 -0.5485695,0.605533 -0.4323013,1.5576606 0.264301,2.0092596 l 2.6286836,1.84806 -1.019445,2.947429 c -0.0011,0.0034 -0.0028,0.0068 -0.004,0.01018 -0.155872,0.492392 -0.0093,0.999677 0.38278,1.346698 h 0.0014 c 0.0027,0.0022 0.0052,0.0054 0.0078,0.0076 h 0.0014 c 0.471152,0.40277 1.133148,0.453961 1.665224,0.120581 0.01012,-0.0063 0.02019,-0.01224 0.02995,-0.01904 l 2.69639,-1.873449 2.697687,1.873445 c 0.0098,0.0069 0.01982,0.01274 0.02995,0.01904 0.532075,0.33338 1.19407,0.282189 1.665223,-0.120581 0.0028,-0.0024 0.0062,-0.0052 0.0091,-0.0076 0.392076,-0.347021 0.538652,-0.854306 0.38278,-1.346698 -0.0011,-0.0034 -0.0027,-0.0068 -0.004,-0.01018 l -1.019521,-2.947426 2.628683,-1.84806 c 0.696603,-0.451599 0.812872,-1.4037266 0.264301,-2.0092596 -0.25365,-0.296958 -0.613666,-0.476224 -1.012935,-0.488669 -0.0073,-1.13e-4 -0.01485,-1.13e-4 -0.02213,0 H 18.27581 l -0.990801,-3.0473446 0.0078,0.02666 C 17.108115,4.4518921 16.651771,3.9899338 15.971404,4.0001731 Z"/>
 <path style="opacity:0.2;fill:#8b9cbe" d="M 8.8007812 2 C 8.8007812 2 7 2.0005208 7 3.8671875 L 7 4.8671875 C 7 3.0005208 8.8007812 3 8.8007812 3 L 23.199219 3 C 24.999219 3 25 4.8671875 25 4.8671875 L 25 3.8671875 C 25 3.8671875 24.999219 2 23.199219 2 L 8.8007812 2 z"/>
 <path style="fill:#8b9cbe;opacity:0.2" d="M 15.970703 4 C 15.873513 4.00149 15.772273 4.0132362 15.666016 4.0351562 L 15.666016 4.0488281 C 15.210121 4.1612488 14.878622 4.4888576 14.707031 4.9804688 L 13.724609 8.0019531 L 10.380859 8.0019531 C 10.373559 8.0018401 10.366655 8.0018401 10.359375 8.0019531 C 9.9601044 8.0144031 9.5993531 8.1932764 9.3457031 8.4902344 C 8.9864515 8.8867908 8.9181855 9.4307977 9.1054688 9.8867188 C 9.1626119 9.746247 9.2371031 9.6101113 9.3457031 9.4902344 C 9.5993531 9.1932764 9.9601044 9.0144031 10.359375 9.0019531 C 10.366655 9.0018401 10.373559 9.0018401 10.380859 9.0019531 L 13.724609 9.0019531 L 14.707031 5.9804688 C 14.878622 5.4888576 15.210121 5.1612488 15.666016 5.0488281 L 15.666016 5.0351562 C 15.772273 5.0132362 15.873513 5.00149 15.970703 5 C 16.65107 4.9897607 17.108275 5.4510401 17.292969 5.9804688 L 18.275391 9.0019531 L 21.619141 9.0019531 C 21.626421 9.0018401 21.633325 9.0018401 21.640625 9.0019531 C 22.039894 9.0143981 22.400647 9.1932764 22.654297 9.4902344 C 22.762897 9.6101113 22.837388 9.746247 22.894531 9.8867188 C 23.081815 9.4307977 23.01355 8.8867908 22.654297 8.4902344 C 22.400647 8.1932764 22.039894 8.0143981 21.640625 8.0019531 C 21.633325 8.0018401 21.626421 8.0018401 21.619141 8.0019531 L 18.275391 8.0019531 L 17.292969 4.9804688 C 17.108275 4.4510401 16.65107 3.9897607 15.970703 4 z M 11.960938 13.152344 L 11.21875 15.294922 C 11.21765 15.298322 11.216044 15.301308 11.214844 15.304688 C 11.121113 15.600778 11.149103 15.899194 11.261719 16.167969 L 12.238281 13.347656 L 11.960938 13.152344 z M 20.039062 13.152344 L 19.761719 13.347656 L 20.738281 16.167969 C 20.850897 15.899194 20.878887 15.600778 20.785156 15.304688 C 20.784056 15.301288 20.78255 15.298302 20.78125 15.294922 L 20.039062 13.152344 z"/>
</svg>
