<svg xmlns="http://www.w3.org/2000/svg" width="32" height="32" version="1.1">
 <circle style="opacity:0.2" cx="16" cy="17" r="14"/>
 <circle style="fill:#34a046" cx="16" cy="16" r="14"/>
 <path style="opacity:0.2;fill:#8b9cbe" d="M 16,2 A 14,14 0 0 0 2,16 14,14 0 0 0 2.0215,16.586 14,14 0 0 1 16,3 14,14 0 0 1 29.979,16.414 14,14 0 0 0 30,16 14,14 0 0 0 16,2 Z"/>
 <path style="opacity:0.2" d="M 22.91227,9.0066756 A 0.92466424,0.93414414 0 0 0 22.113442,10.40902 l 1.662109,2.908202 -3.070312,1.773437 -0.574219,-0.99414 a 1.0001,1.0001 0 0 0 -1.367187,-0.367188 l -6.646485,3.837891 -0.726562,-1.257813 a 1.0001,1.0001 0 0 0 -1.365235,-0.365234 l -5.5253903,3.189453 a 1.0001607,1.0001607 0 1 0 1,1.732422 l 4.6601563,-2.689453 0.724609,1.255859 a 1.0001,1.0001 0 0 0 1.367188,0.367188 l 6.646484,-3.837891 0.574219,0.996094 a 1.0001,1.0001 0 0 0 1.367187,0.365234 l 3.927735,-2.269531 1.419922,2.484375 a 0.92466424,0.93414414 0 0 0 1.601562,0.002 l 4.076172,-7.130858 A 0.92466424,0.93414414 0 0 0 31.838051,9.4324568 0.92466424,0.93414414 0 0 0 31.064614,9.0066756 Z"/>
 <path style="fill:#8b9cbe" d="m 22.91227,8.0066753 a 0.92466424,0.93414414 0 0 0 -0.798828,1.402344 l 1.662109,2.9082027 -3.070312,1.773437 -0.574219,-0.99414 a 1.0001,1.0001 0 0 0 -1.367187,-0.367188 l -6.646485,3.837891 -0.726562,-1.257813 a 1.0001,1.0001 0 0 0 -1.365235,-0.365234 l -5.5253903,3.189453 a 1.0001607,1.0001607 0 1 0 1,1.732422 l 4.6601563,-2.689453 0.724609,1.255859 a 1.0001,1.0001 0 0 0 1.367188,0.367188 l 6.646484,-3.837891 0.574219,0.996094 a 1.0001,1.0001 0 0 0 1.367187,0.365234 l 3.927735,-2.269531 1.419922,2.484375 a 0.92466424,0.93414414 0 0 0 1.601562,0.002 L 31.865395,9.4090663 A 0.92466424,0.93414414 0 0 0 31.838051,8.4324565 0.92466424,0.93414414 0 0 0 31.064614,8.0066753 Z"/>
</svg>
