<svg xmlns="http://www.w3.org/2000/svg" width="16" height="16" version="1.1">
 <path style="fill:#323a41" d="M 2,1 C 1,1 1,2 1,2 V 14 C 1,15 2,15 2,15 H 9 V 13 H 3 V 12.16 10.5 6 H 13 V 9 H 15 V 2 C 15,1 14,1 14,1 Z"/>
 <path style="fill:#323a41" d="M 12,10 V 12 H 10 V 14 H 12 V 16 H 14 V 14 H 16 V 12 H 14 V 10 Z"/>
</svg>
