<svg xmlns="http://www.w3.org/2000/svg" width="16" height="16" version="1.1">
 <path style="fill:#323a41" d="M 6 1 L 6 7 L 3.5 7 L 8 13 L 12.5 7 L 10 7 L 10 1 L 6 1 z M 1 14 L 1 16 L 15 16 L 15 14 L 1 14 z"/>
</svg>
