<svg xmlns="http://www.w3.org/2000/svg" width="16" height="16" version="1.1">
 <path style="fill:#323a41" d="M 7,2 2,5 7,8 V 6 H 10 C 11.68,6 13,7.321 13,9 13,10.679 11.68,12 10,12 H 5 V 14 H 10 C 12.75,14 15,11.753 15,9 15,6.247 12.75,4 10,4 H 7 Z"/>
</svg>
