<svg xmlns="http://www.w3.org/2000/svg" width="16" height="16" version="1.1">
 <path style="fill:#323a41" d="M 15,1 V 3 H 1 V 1 Z M 15,5 V 7 H 7 V 5 Z M 15,9 V 11 H 7 V 9 Z M 15,13 V 15 H 1 V 13 Z"/>
 <path style="fill:#323a41" d="M 1,5 V 11 L 6,8 Z"/>
</svg>
