<svg xmlns="http://www.w3.org/2000/svg" width="16" height="16" version="1.1">
 <path style="fill:#323a41" d="M 4,8 A 2,2 0 0 1 2,10 2,2 0 0 1 0,8 2,2 0 0 1 2,6 2,2 0 0 1 4,8 Z"/>
 <path style="fill:#323a41" d="M 16,7 H 9 L 12.5,3.5 11,2 5,8 11,14 12.5,12.5 9,9 H 16 Z"/>
</svg>
