<svg xmlns="http://www.w3.org/2000/svg" width="16" height="16" version="1.1">
 <path style="fill:#323a41" d="M 16,8 A 2,2 0 0 1 14,10 2,2 0 0 1 12,8 2,2 0 0 1 14,6 2,2 0 0 1 16,8 Z"/>
 <path style="fill:#323a41" d="M 0,9 H 7 L 3.5,12.5 5,14 11,8 5,2 3.5,3.5 7,7 H 0 Z"/>
</svg>
