<svg xmlns="http://www.w3.org/2000/svg" width="16" height="16" version="1.1">
 <path style="fill:#323a41" d="M 8 1 A 7 7 0 0 0 1 8 A 7 7 0 0 0 8 15 A 7 7 0 0 0 15 8 A 7 7 0 0 0 8 1 z M 8 3.75 A 1.25 1.25 0 0 1 9.25 5 A 1.25 1.25 0 0 1 8 6.25 A 1.25 1.25 0 0 1 6.75 5 A 1.25 1.25 0 0 1 8 3.75 z M 7 7 L 9 7 L 9 12 L 7 12 L 7 7 z"/>
</svg>
