<svg xmlns="http://www.w3.org/2000/svg" width="16" height="16" version="1.1" viewBox="0 0 16 16">
 <path style="fill:#323a41" d="m 1,15 h 2 10 2 V 13 3 1 H 13 3 1 v 2 10 z m 8,-2 v -1.003906 -8 V 3 H 9.9804688 C 9.9873593,2.999861 9.993075,2.996094 10,2.996094 h 2 c 0.0069,0 0.01264,0.0038 0.01953,0.0039 H 13 v 0.9961 8 V 13 Z"/>
</svg>
