<svg xmlns="http://www.w3.org/2000/svg" width="16" height="16" version="1.1">
 <path style="fill:#323a41" d="M 3,3 C 1.02036,3 -9.9999927e-7,4.1718311 0,6.6074219 V 8.5 A 1.5,1.5 0 0 0 1.5,10 1.5,1.5 0 0 0 3,8.5 1.5,1.5 0 0 0 1.5097656,7 l -0.00781,-0.4023438 c 0,-0.948207 0.1116447,-1.5979182 0.3378907,-1.9511718 C 2.0660618,4.29323 2.453243,4.0371834 3,4 Z M 7,3 C 5.02036,3 3.999999,4.1718311 4,6.6074219 V 8.5 A 1.5,1.5 0 0 0 5.5,10 1.5,1.5 0 0 0 7,8.5 1.5,1.5 0 0 0 5.5097656,7 l -0.00781,-0.4023438 c 0,-0.948207 0.1116447,-1.5979182 0.3378907,-1.9511718 C 6.0660608,4.29323 6.453243,4.0371834 7,4 Z M 9.5,5 A 1.5,1.5 0 0 0 8,6.5 1.5,1.5 0 0 0 9.490234,8 l 0.00781,0.4023438 c 0,0.948207 -0.111645,1.5979182 -0.337891,1.9511722 C 8.9339389,10.70677 8.5467573,10.962817 8,11 v 1 c 1.97964,0 3.000001,-1.171831 3,-3.6074219 V 6.5 A 1.5,1.5 0 0 0 9.5,5 Z m 4,0 A 1.5,1.5 0 0 0 12,6.5 1.5,1.5 0 0 0 13.490234,8 l 0.0078,0.4023438 c 0,0.948207 -0.111645,1.5979182 -0.337891,1.9511722 C 12.933938,10.70677 12.546757,10.962817 12,11 v 1 c 1.97964,0 3.000001,-1.171831 3,-3.6074219 V 6.5 A 1.5,1.5 0 0 0 13.5,5 Z"/>
</svg>
