<svg xmlns="http://www.w3.org/2000/svg" width="48" height="48" version="1">
 <rect style="opacity:0.2" width="40" height="26" x="4" y="17" rx="2" ry="2"/>
 <path style="fill:#3c3f4c" d="M 4,34 C 4,35.108 4.892,36 6,36 H 42 C 43.108,36 44,35.108 44,34 V 12 C 44,10.892 43.108,10 42,10 H 24 C 21,10 20,6 17,6 H 6 C 4.892,6 4,6.892 4,8"/>
 <rect style="opacity:0.2" width="40" height="26" x="4" y="15" rx="2" ry="2"/>
 <rect style="fill:#b2bfd9" width="36" height="16" x="6" y="13" rx="2" ry="2"/>
 <rect style="fill:#555e70" width="40" height="26" x="4" y="16" rx="2" ry="2"/>
 <path style="opacity:0.1;fill:#8b9cbe" d="M 6,6 C 4.892,6 4,6.892 4,8 V 9 C 4,7.892 4.892,7 6,7 H 17 C 20,7 21,11 24,11 H 42 C 43.108,11 44,11.892 44,13 V 12 C 44,10.892 43.108,10 42,10 H 24 C 21,10 20,6 17,6 Z"/>
 <path style="fill:#8b9cbe" d="m17.792969 23.990234a0.80008001 0.80008001 0 0 0-0.611328 1.316407l1.435547 1.755859c-1.449157 1.302677-2.418991 3.122492-2.615235 5.167969-0.036746 0.769972 0.775391 0.769531 0.775391 0.769531h14.425781s0.835451-1.68e-4 0.794922-0.808594c-0.204754-2.0309-1.171962-3.836209-2.613281-5.130859l1.433593-1.753906a0.80008001 0.80008001 0 0 0-0.634765-1.314453 0.80008001 0.80008001 0 0 0-0.603516 0.300781l-1.492187 1.826172c-1.198382-0.706725-2.592035-1.119141-4.085938-1.119141-1.49457 0-2.891106 0.411831-4.089844 1.119141l-1.492187-1.826172a0.80008001 0.80008001 0 0 0-0.626953-0.302735z"/>
 <circle style="fill:#555e70" cx="20" cy="30" r="1"/>
 <circle style="fill:#555e70" cx="-28" cy="30" r="1" transform="scale(-1,1)"/>
</svg>
