<svg xmlns="http://www.w3.org/2000/svg" width="48" height="48" version="1">
 <rect style="opacity:0.2" width="40" height="26" x="4" y="17" rx="2" ry="2"/>
 <path style="fill:#0badff" d="M 4,34 C 4,35.108 4.892,36 6,36 H 42 C 43.108,36 44,35.108 44,34 V 12 C 44,10.892 43.108,10 42,10 H 24 C 21,10 20,6 17,6 H 6 C 4.892,6 4,6.892 4,8"/>
 <rect style="opacity:0.2" width="40" height="26" x="4" y="15" rx="2" ry="2"/>
 <rect style="fill:#b2bfd9" width="36" height="16" x="6" y="13" rx="2" ry="2"/>
 <rect style="fill:#00caff" width="40" height="26" x="4" y="16" rx="2" ry="2"/>
 <path style="opacity:0.1;fill:#8b9cbe" d="M 6,6 C 4.892,6 4,6.892 4,8 V 9 C 4,7.892 4.892,7 6,7 H 17 C 20,7 21,11 24,11 H 42 C 43.108,11 44,11.892 44,13 V 12 C 44,10.892 43.108,10 42,10 H 24 C 21,10 20,6 17,6 Z"/>
 <path style="fill:#1d344f" d="M 22.172,21 C 22.172,21 22.996,21.465 22.414,22.688 21.533,24.53 23.227,24.951 23.227,24.951 23.227,24.951 22.689,24.519 23.406,22.998 24.199,21.313 22.172,21 22.172,21 Z M 25.371,22.84 C 25.371,22.84 23.729,23.47 24.787,25.191 25.487,26.332 24.711,26.898 24.711,26.898 24.711,26.898 26.696,26.335 25.738,24.76 24.878,23.336 25.371,22.84 25.371,22.84 Z M 20.643,22.887 C 20.643,22.887 19.205,23.982 20.629,25.328 21.57,26.224 20.953,27 20.953,27 20.953,27 22.736,25.867 21.447,24.629 20.284,23.512 20.643,22.887 20.643,22.887 Z M 20.953,27 H 17 L 19,35 H 27 L 27.275,33.902 C 27.508,33.96 27.749,34 28,34 29.657,34 31,32.657 31,31 31,29.594 30.03,28.423 28.725,28.098 L 29,27 Z M 28.484,29.062 A 1,2 15 0 1 28.518,29.068 1,2 15 0 1 28.967,31.26 1,2 15 0 1 27.516,32.938 Z"/>
</svg>
