<svg xmlns="http://www.w3.org/2000/svg" width="48" height="48" version="1">
 <rect style="opacity:0.2" width="40" height="26" x="4" y="17" rx="2" ry="2"/>
 <path style="fill:#8b9cbe" d="M 4,34 C 4,35.108 4.892,36 6,36 H 42 C 43.108,36 44,35.108 44,34 V 12 C 44,10.892 43.108,10 42,10 H 24 C 21,10 20,6 17,6 H 6 C 4.892,6 4,6.892 4,8"/>
 <rect style="opacity:0.2" width="40" height="26" x="4" y="15" rx="2" ry="2"/>
 <rect style="fill:#b2bfd9" width="36" height="16" x="6" y="13" rx="2" ry="2"/>
 <rect style="fill:#323a41" width="40" height="26" x="4" y="16" rx="2" ry="2"/>
 <path style="opacity:0.1;fill:#8b9cbe" d="M 6,6 C 4.892,6 4,6.892 4,8 V 9 C 4,7.892 4.892,7 6,7 H 17 C 20,7 21,11 24,11 H 42 C 43.108,11 44,11.892 44,13 V 12 C 44,10.892 43.108,10 42,10 H 24 C 21,10 20,6 17,6 Z"/>
 <path style="fill:#8b9cbe" d="M 24,22 C 21.784,22 20,23.821 20,26.062 V 28 H 19 C 18.446,28 18,28.446 18,29 V 35 C 18,35.554 18.446,36 19,36 H 29 C 29.554,36 30,35.554 30,35 V 29 C 30,28.446 29.554,28 29,28 H 28 V 26.062 C 28,23.822 26.216,22 24,22 Z M 24,24 C 25.108,24 26,24.891 26,26 V 28 H 22 V 26 C 22,24.891 22.892,24 24,24 Z"/>
</svg>
