<svg xmlns="http://www.w3.org/2000/svg" width="32" height="32" version="1.1">
 <path style="opacity:0.2" d="M 6.375,3 C 5.61325,3 5,3.6244 5,4.4 V 29.6 C 5,30.37504 5.61325,31 6.375,31 h 19.25 C 26.3862,31 27,30.37504 27,29.6 V 12 L 20,10 18,3 Z"/>
 <path style="fill:#ffba3a" d="M 6.375,2 C 5.61325,2 5,2.6244 5,3.4 V 28.6 C 5,29.37504 5.61325,30 6.375,30 h 19.25 C 26.3862,30 27,29.37504 27,28.6 V 11 L 20,9 18,2 Z"/>
 <path style="opacity:0.2" d="M 27,12 18,3 v 7.59375 C 18,11.373375 18.62775,12 19.40625,12 Z"/>
 <path style="fill:#ffdea2" d="M 27,11 18,2 V 9.59375 C 18,10.373375 18.62775,11 19.40625,11 Z"/>
 <path style="opacity:0.2;fill:#8b9cbe" d="M 6.375,2 C 5.61325,2 5,2.6247906 5,3.4003906 v 1 C 5,3.6247906 5.61325,3 6.375,3 H 18 V 2 Z"/>
 <path style="fill:#17191e" d="m 14,15 v 2.850342 C 14,17.850342 14,19 12.935128,19 12.420667,19 11.509319,18.632346 11.145,18.012694 10.648129,17.167727 11.5,16 11.5,16 9,16 7,18 7,20.476074 7,24 9,25 10.5,25 10.5,25 9.591109,22.438838 10.839564,22.075 11.516357,21.970441 12.61823,22.360844 13,23 13,23 12.648352,22.094069 13.63072,22.075 14.613088,22.05592 15.833713,23.552198 16,25 16.166287,23.552198 17.386912,22.055932 18.36928,22.075 19.351648,22.09408 19,23 19,23 19.38177,22.360844 20.483643,21.970441 21.160436,22.075 22.408891,22.438838 21.5,25 21.5,25 23,25 25,23 25,20.476074 25,18 23,16 20.5,16 c 0,0 0.851871,1.167727 0.355,2.012694 C 20.490681,18.632346 19.579333,19 19.064872,19 18,19 18,17.850342 18,17.850342 V 15 l -1,1 h -1 -1 z"/>
</svg>
