<svg xmlns="http://www.w3.org/2000/svg" width="32" height="32" version="1.1">
 <path style="opacity:0.2" d="M 6.375,3 C 5.61325,3 5,3.6244 5,4.4 V 29.6 C 5,30.37504 5.61325,31 6.375,31 h 19.25 C 26.3862,31 27,30.37504 27,29.6 V 12 L 20,10 18,3 Z"/>
 <path style="fill:#ce5068" d="M 6.375,2 C 5.61325,2 5,2.6244 5,3.4 V 28.6 C 5,29.37504 5.61325,30 6.375,30 h 19.25 C 26.3862,30 27,29.37504 27,28.6 V 11 L 20,9 18,2 Z"/>
 <path style="opacity:0.2" d="M 27,12 18,3 v 7.59375 C 18,11.373375 18.62775,12 19.40625,12 Z"/>
 <path style="fill:#ef8b9d" d="M 27,11 18,2 V 9.59375 C 18,10.373375 18.62775,11 19.40625,11 Z"/>
 <path style="opacity:0.2;fill:#8b9cbe" d="M 6.375,2 C 5.61325,2 5,2.6247906 5,3.4003906 v 1 C 5,3.6247906 5.61325,3 6.375,3 H 18 V 2 Z"/>
 <path style="opacity:0.2" d="m 16,14 c -3.878,0 -7,3.122 -7,7 0,3.878 3.122,7 7,7 3.878,0 7,-3.122 7,-7 0,-3.878 -3.122,-7 -7,-7 z m 0,4 a 3,3 0 0 1 3,3 3,3 0 0 1 -3,3 3,3 0 0 1 -3,-3 3,3 0 0 1 3,-3 z"/>
 <path style="fill:#8b9cbe" d="M 16 13 C 12.122 13 9 16.122 9 20 C 9 23.878 12.122 27 16 27 C 19.878 27 23 23.878 23 20 C 23 16.122 19.878 13 16 13 z M 16 17 A 3 3 0 0 1 19 20 A 3 3 0 0 1 16 23 A 3 3 0 0 1 13 20 A 3 3 0 0 1 16 17 z"/>
 <path style="opacity:0.5;fill:#8b9cbe" d="M 16 16.5 A 3.5 3.5 0 0 0 12.5 20 A 3.5 3.5 0 0 0 16 23.5 A 3.5 3.5 0 0 0 19.5 20 A 3.5 3.5 0 0 0 16 16.5 z M 16 19 C 16.5523 19 17 19.4477 17 20 C 17 20.5523 16.5523 21 16 21 C 15.4477 21 15 20.5523 15 20 C 15 19.4477 15.4477 19 16 19 z"/>
</svg>
