<svg xmlns="http://www.w3.org/2000/svg" width="32" height="32" version="1.1">
 <rect style="opacity:0.2" width="28" height="28" x="2" y="3" rx="8.4" ry="8.4"/>
 <rect style="fill:#4992fd" width="28" height="28" x="2" y="2" rx="8.4" ry="8.4"/>
 <path style="opacity:0.2" d="M 8.0839844,12 C 7.4838172,12 7,12.478712 7,13.072266 V 14.857422 17 19.142578 C 7,20.725388 8.2882266,22 9.8886719,22 H 13.5 17.111328 18.916016 C 19.516183,22 20,21.521288 20,20.927734 V 19.142578 17 14.857422 C 20,13.274611 18.711772,12 17.111328,12 H 13.5 9.8886719 Z m 16.2812496,0.002 c -0.212427,-0.01571 -0.455206,0.08882 -0.685546,0.318359 -0.81003,0.807217 -1.757858,1.486395 -2.421876,2.451172 C 20.984367,15.168785 21.002153,15.696728 21,16.191406 20.9988,16.462823 21.0014,16.732154 21,17 c 0.0014,0.267845 -0.0012,0.537178 0,0.808594 0.0021,0.494678 -0.01563,1.022621 0.257812,1.419922 0.664018,0.964777 1.611846,1.643956 2.421876,2.451172 0.23034,0.229541 0.473119,0.334073 0.685546,0.318359 0.354047,-0.02619 0.626954,-0.384546 0.626954,-1.050781 0,-1.304294 0.0191,-2.625101 0,-3.947266 0.0191,-1.322166 0,-2.642972 0,-3.947266 0,-0.666235 -0.272907,-1.024589 -0.626954,-1.050781 z"/>
 <path style="fill:#8b9cbe" d="M 8.0839844 11 C 7.4838172 11 7 11.478712 7 12.072266 L 7 13.857422 L 7 16 L 7 18.142578 C 7 19.725388 8.2882266 21 9.8886719 21 L 13.5 21 L 17.111328 21 L 18.916016 21 C 19.516183 21 20 20.521288 20 19.927734 L 20 18.142578 L 20 16 L 20 13.857422 C 20 12.274611 18.711772 11 17.111328 11 L 13.5 11 L 9.8886719 11 L 8.0839844 11 z M 24.365234 11.001953 C 24.152807 10.986243 23.910028 11.090772 23.679688 11.320312 C 22.869658 12.127529 21.92183 12.806707 21.257812 13.771484 C 20.984367 14.168785 21.002153 14.696728 21 15.191406 C 20.9988 15.462823 21.0014 15.732154 21 16 C 21.0014 16.267845 20.9988 16.537178 21 16.808594 C 21.0021 17.303272 20.984372 17.831215 21.257812 18.228516 C 21.92183 19.193293 22.869658 19.872472 23.679688 20.679688 C 23.910028 20.909229 24.152807 21.013761 24.365234 20.998047 C 24.719281 20.971857 24.992188 20.613501 24.992188 19.947266 C 24.992188 18.642972 25.011287 17.322165 24.992188 16 C 25.011288 14.677834 24.992188 13.357028 24.992188 12.052734 C 24.992188 11.386499 24.719281 11.028145 24.365234 11.001953 z"/>
 <path style="fill:#8b9cbe;opacity:0.2" d="M 10.400391 2 C 5.7467908 2 2 5.7467908 2 10.400391 L 2 11.400391 C 2 6.7467908 5.7467908 3 10.400391 3 L 21.599609 3 C 26.253209 3 30 6.7467908 30 11.400391 L 30 10.400391 C 30 5.7467908 26.253209 2 21.599609 2 L 10.400391 2 z"/>
</svg>
