<svg xmlns="http://www.w3.org/2000/svg" width="32" height="32" version="1">
 <path style="opacity:0.2" d="M 15.999196,3 A 6.3530557,7 0 0 0 10.228245,7.0898438 7.0450169,6.3124607 28.096451 0 0 3.7715787,10 7.0450169,6.3124607 28.096451 0 0 4.4592479,17 6.3124607,7.0450169 61.903549 0 0 3.7715787,24 6.3124607,7.0450169 61.903549 0 0 10.228245,26.912109 6.3530556,7 0 0 0 15.999196,31 a 6.3530556,7 0 0 0 5.77095,-4.089844 c 2.688969,0.35668 5.210407,-0.779488 6.454713,-2.910156 1.282653,-2.202662 0.91826,-4.934658 -0.685716,-7.001953 a 6.3124607,7.0450169 61.903549 0 0 0.398536,-0.566406 6.3124604,7.045017 61.90355 0 0 0,-0.002 6.3124607,7.0450169 61.903549 0 0 0.337974,-0.589844 6.3124604,7.045017 61.90355 0 0 0.0059,-0.01172 6.3124607,7.0450169 61.903549 0 0 0.269597,-0.603516 6.3124604,7.045017 61.90355 0 0 0.0039,-0.0098 6.3124607,7.0450169 61.903549 0 0 0.195361,-0.587891 6.3124604,7.045017 61.90355 0 0 0.01758,-0.05664 6.3124607,7.0450169 61.903549 0 0 0.128938,-0.578124 6.3124604,7.045017 61.90355 0 0 0.01367,-0.07227 6.3124607,7.0450169 61.903549 0 0 0.06447,-0.533203 6.3124604,7.045017 61.90355 0 0 0.0098,-0.144531 6.3124607,7.0450169 61.903549 0 0 0.0059,-0.472657 6.3124604,7.045017 61.90355 0 0 -0.0059,-0.197265 6.3124607,7.0450169 61.903549 0 0 -0.03907,-0.41211 6.3124604,7.045017 61.90355 0 0 -0.03321,-0.232422 6.3124607,7.0450169 61.903549 0 0 -0.08017,-0.384773 6.3124604,7.045017 61.90355 0 0 -0.06057,-0.238281 A 6.3124607,7.0450169 61.903549 0 0 28.648791,10.925781 6.3124604,7.045017 61.90355 0 0 28.56674,10.710938 6.3124607,7.0450169 61.903549 0 0 28.418266,10.376953 6.3124604,7.045017 61.90355 0 0 28.224859,10 6.3124607,7.0450169 61.903549 0 0 27.929864,9.5527344 6.3124604,7.045017 61.90355 0 0 27.730597,9.296875 6.3124607,7.0450169 61.903549 0 0 27.531329,9.0566406 6.3124604,7.045017 61.90355 0 0 27.312525,8.8320312 6.3124607,7.0450169 61.903549 0 0 27.078093,8.6074219 6.3124604,7.045017 61.90355 0 0 26.829985,8.4023438 6.3124607,7.0450169 61.903549 0 0 26.58383,8.2128906 6.3124604,7.045017 61.90355 0 0 26.306419,8.0292969 6.3124607,7.0450169 61.903549 0 0 26.032914,7.8632812 6.3124604,7.045017 61.90355 0 0 25.755501,7.71875 6.3124607,7.0450169 61.903549 0 0 25.440971,7.5683594 6.3124604,7.045017 61.90355 0 0 25.151838,7.4550781 6.3124607,7.0450169 61.903549 0 0 24.8334,7.3417969 6.3124604,7.045017 61.90355 0 0 24.530591,7.2558594 6.3124607,7.0450169 61.903549 0 0 24.173081,7.1679688 6.3124604,7.045017 61.90355 0 0 23.881994,7.1171875 6.3124607,7.0450169 61.903549 0 0 23.51667,7.0644531 6.3124604,7.045017 61.90355 0 0 22.942309,7.0214844 6.3124607,7.0450169 61.903549 0 0 21.768193,7.0878906 6.3530557,7 0 0 0 15.999196,3 Z"/>
 <ellipse style="fill:#278df2" cx="15.999" cy="16" rx="11.292" ry="11.2"/>
 <ellipse id="ellipse8" style="fill:#34e0c4" cx="21.836" cy="-12.822" rx="6.313" ry="7.043" transform="matrix(0.50305568,0.86425401,-0.86777886,0.49695055,0,0)"/>
 <ellipse id="ellipse10" style="fill:#ffc107" cx="15.999" cy="23" rx="6.351" ry="7"/>
 <ellipse id="ellipse14" style="fill:#fb8300" cx="21.836" cy="1.264" rx="6.313" ry="7.043" transform="matrix(0.50305568,0.86425401,-0.86777886,0.49695055,0,0)"/>
 <ellipse id="ellipse18" style="fill:#fa3e30" cx="5.934" cy="14.834" rx="6.313" ry="7.043" transform="matrix(-0.50305568,0.86425401,0.86777886,0.49695055,0,0)"/>
 <path style="fill:#a544c9" d="M 15.999194,2 A 6.351493,7 0 0 0 9.6477001,9 6.351493,7 0 0 0 15.999194,16 6.3121154,7.0436691 61.849933 0 1 18.935104,7.0435546 6.3121154,7.0436691 61.849933 0 1 21.767638,6.0892579 6.351493,7 0 0 0 15.999194,2 Z m 0,14 A 6.351493,7 0 0 0 22.03642,11.158789 6.351493,7 0 0 1 21.183213,13.027734 7.0436691,6.3121154 28.150067 0 0 15.999194,16 Z M 22.03642,11.158789 A 6.351493,7 0 0 0 22.189419,10.54082 6.351493,7 0 0 1 22.03642,11.158789 Z M 21.842071,6.2751954 a 6.351493,7 0 0 1 0.212267,0.6384763 6.351493,7 0 0 0 -0.212267,-0.6384763 z m 0.221916,0.6671875 a 6.351493,7 0 0 1 0.129567,0.5537105 6.351493,7 0 0 0 -0.129567,-0.5537105 z m 0.165403,0.7246092 a 6.351493,7 0 0 1 0.06202,0.4470704 6.351493,7 0 0 0 -0.06202,-0.4470704 z m 0.09235,0.7259763 A 6.351493,7 0 0 1 22.350686,9 6.351493,7 0 0 0 22.321744,8.3929684 Z m 0.01516,0.9160158 a 6.351493,7 0 0 1 -0.02757,0.459375 6.351493,7 0 0 0 0.02757,-0.459375 z m -0.04962,0.6207033 a 6.351493,7 0 0 1 -0.0827,0.5427735 6.351493,7 0 0 0 0.0827,-0.5427735 z"/>
 <path style="fill:#009688" d="M 21.281077,13.020899 C 19.024032,13.084236 17.047571,14.199004 15.999194,16 c 3.507832,0 6.351492,3.134006 6.351492,7 -0.0025,1.005129 -0.201335,1.99788 -0.583048,2.910742 2.689043,0.357495 5.210568,-0.779555 6.454871,-2.910742 1.754281,-3.013315 0.439783,-7.023393 -2.935912,-8.956445 -1.231634,-0.705067 -2.627796,-1.061524 -4.00552,-1.022656 z m 0.486561,12.889843 z M 15.999194,16 Z"/>
 <path id="ellipse980" style="fill:#03a9f4" d="m 22.941315,6.0208984 a 6.3121154,7.0436691 61.849933 0 0 -4.005866,1.0233401 6.3121154,7.0436691 61.849933 0 0 -2.935911,8.9554195 c 1.048439,-1.800755 3.024665,-2.915427 5.281539,-2.97876 1.377724,-0.03886 2.773886,0.31759 4.00552,1.022657 0.907413,0.519619 1.664345,1.190215 2.254313,1.950293 A 6.3121154,7.0436691 61.849933 0 0 28.222853,9 6.3121154,7.0436691 61.849933 0 0 22.941315,6.0208984 Z M 15.999538,16 a 6.3121154,7.0436691 61.849933 0 0 5.193324,2.972607 C 20.043288,17.175209 18.146501,16.000126 15.999538,16 Z"/>
 <path style="fill:#ffc107" d="m 15.999538,15.999658 c -10.9470602,11.200228 -5.47353,5.600114 0,0 z m 0,3.42e-4 c 1.11441,2.263715 3.03075,3.24385 5.193324,2.972607 C 20.043288,17.175209 18.146501,16.000126 15.999538,16 Z"/>
 <path id="ellipse845" style="fill:#8b9cbe;opacity:0.2" d="M 16 2 A 6.3530557 7 0 0 0 10.228516 6.0898438 A 7.0450169 6.3124607 28.096451 0 0 3.7714844 9 A 7.0450169 6.3124607 28.096451 0 0 3.0253906 12.367188 A 7.0450169 6.3124607 28.096451 0 1 3.7714844 10 A 7.0450169 6.3124607 28.096451 0 1 10.228516 7.0898438 A 6.3530557 7 0 0 1 16 3 A 6.3530557 7 0 0 1 21.767578 7.0878906 A 6.3124607 7.0450169 61.903549 0 1 22.941406 7.0214844 A 6.3124604 7.045017 61.90355 0 1 23.517578 7.0644531 A 6.3124607 7.0450169 61.903549 0 1 23.882812 7.1171875 A 6.3124604 7.045017 61.90355 0 1 24.173828 7.1679688 A 6.3124607 7.0450169 61.903549 0 1 24.53125 7.2558594 A 6.3124604 7.045017 61.90355 0 1 24.833984 7.3417969 A 6.3124607 7.0450169 61.903549 0 1 25.152344 7.4550781 A 6.3124604 7.045017 61.90355 0 1 25.441406 7.5683594 A 6.3124607 7.0450169 61.903549 0 1 25.755859 7.71875 A 6.3124604 7.045017 61.90355 0 1 26.033203 7.8632812 A 6.3124607 7.0450169 61.903549 0 1 26.306641 8.0292969 A 6.3124604 7.045017 61.90355 0 1 26.583984 8.2128906 A 6.3124607 7.0450169 61.903549 0 1 26.830078 8.4023438 A 6.3124604 7.045017 61.90355 0 1 27.078125 8.6074219 A 6.3124607 7.0450169 61.903549 0 1 27.3125 8.8320312 A 6.3124604 7.045017 61.90355 0 1 27.53125 9.0566406 A 6.3124607 7.0450169 61.903549 0 1 27.730469 9.296875 A 6.3124604 7.045017 61.90355 0 1 27.929688 9.5527344 A 6.3124607 7.0450169 61.903549 0 1 28.224609 10 A 6.3124604 7.045017 61.90355 0 1 28.417969 10.376953 A 6.3124607 7.0450169 61.903549 0 1 28.566406 10.710938 A 6.3124604 7.045017 61.90355 0 1 28.648438 10.925781 A 6.3124607 7.0450169 61.903549 0 1 28.771484 11.304688 A 6.3124604 7.045017 61.90355 0 1 28.832031 11.542969 A 6.3124607 7.0450169 61.903549 0 1 28.912109 11.927734 A 6.3124604 7.045017 61.90355 0 1 28.945312 12.160156 A 6.3124607 7.0450169 61.903549 0 1 28.970703 12.423828 A 6.3124607 7.0450169 61.903549 0 0 28.974609 12.386719 A 6.3124604 7.045017 61.90355 0 0 28.984375 12.242188 A 6.3124607 7.0450169 61.903549 0 0 28.990234 11.769531 A 6.3124604 7.045017 61.90355 0 0 28.984375 11.572266 A 6.3124607 7.0450169 61.903549 0 0 28.945312 11.160156 A 6.3124604 7.045017 61.90355 0 0 28.912109 10.927734 A 6.3124607 7.0450169 61.903549 0 0 28.832031 10.542969 A 6.3124604 7.045017 61.90355 0 0 28.771484 10.304688 A 6.3124607 7.0450169 61.903549 0 0 28.648438 9.9257812 A 6.3124604 7.045017 61.90355 0 0 28.566406 9.7109375 A 6.3124607 7.0450169 61.903549 0 0 28.417969 9.3769531 A 6.3124604 7.045017 61.90355 0 0 28.224609 9 A 6.3124607 7.0450169 61.903549 0 0 27.929688 8.5527344 A 6.3124604 7.045017 61.90355 0 0 27.730469 8.296875 A 6.3124607 7.0450169 61.903549 0 0 27.53125 8.0566406 A 6.3124604 7.045017 61.90355 0 0 27.3125 7.8320312 A 6.3124607 7.0450169 61.903549 0 0 27.078125 7.6074219 A 6.3124604 7.045017 61.90355 0 0 26.830078 7.4023438 A 6.3124607 7.0450169 61.903549 0 0 26.583984 7.2128906 A 6.3124604 7.045017 61.90355 0 0 26.306641 7.0292969 A 6.3124607 7.0450169 61.903549 0 0 26.033203 6.8632812 A 6.3124604 7.045017 61.90355 0 0 25.755859 6.71875 A 6.3124607 7.0450169 61.903549 0 0 25.441406 6.5683594 A 6.3124604 7.045017 61.90355 0 0 25.152344 6.4550781 A 6.3124607 7.0450169 61.903549 0 0 24.833984 6.3417969 A 6.3124604 7.045017 61.90355 0 0 24.53125 6.2558594 A 6.3124607 7.0450169 61.903549 0 0 24.173828 6.1679688 A 6.3124604 7.045017 61.90355 0 0 23.882812 6.1171875 A 6.3124607 7.0450169 61.903549 0 0 23.517578 6.0644531 A 6.3124604 7.045017 61.90355 0 0 22.941406 6.0214844 A 6.3124607 7.0450169 61.903549 0 0 21.767578 6.0878906 A 6.3530557 7 0 0 0 16 2 z M 4.109375 16.496094 A 6.3124607 7.0450169 61.903549 0 0 3.0273438 20.580078 A 6.3124607 7.0450169 61.903549 0 1 4.4589844 17 A 7.0450169 6.3124607 28.096451 0 1 4.109375 16.496094 z M 27.884766 16.509766 A 6.3124607 7.0450169 61.903549 0 1 27.539062 16.998047 C 28.368098 18.066555 28.858278 19.313482 28.96875 20.572266 C 29.079045 19.178354 28.691613 17.753981 27.884766 16.509766 z"/>
</svg>
