<svg xmlns="http://www.w3.org/2000/svg" width="32" height="32" version="1.1">
 <path style="opacity:0.2" d="M 6.375,3 C 5.61325,3 5,3.6244 5,4.4 V 29.6 C 5,30.37504 5.61325,31 6.375,31 h 19.25 C 26.3862,31 27,30.37504 27,29.6 V 12 L 20,10 18,3 Z"/>
 <path style="fill:#b2bfd9" d="M 6.375,2 C 5.61325,2 5,2.6244 5,3.4 V 28.6 C 5,29.37504 5.61325,30 6.375,30 h 19.25 C 26.3862,30 27,29.37504 27,28.6 V 11 L 20,9 18,2 Z"/>
 <path style="opacity:0.2" d="M 27,12 18,3 v 7.59375 C 18,11.373375 18.62775,12 19.40625,12 Z"/>
 <path style="fill:#fafafa" d="M 27,11 18,2 V 9.59375 C 18,10.373375 18.62775,11 19.40625,11 Z"/>
 <path style="opacity:0.2;fill:#8b9cbe" d="M 6.375,2 C 5.61325,2 5,2.6247906 5,3.4003906 v 1 C 5,3.6247906 5.61325,3 6.375,3 H 18 V 2 Z"/>
 <rect style="fill:#267edb" width="2" height="13" x="8" y="14"/>
 <rect style="fill:#267edb" width="3.5" height="2" x="8" y="14"/>
 <rect style="fill:#267edb" width="3.5" height="2" x="8" y="25"/>
 <rect style="fill:#267edb" width="2" height="13" x="-22" y="14" transform="scale(-1,1)"/>
 <rect style="fill:#267edb" width="3.5" height="2" x="-22" y="14" transform="scale(-1,1)"/>
 <rect style="fill:#267edb" width="3.5" height="2" x="-22" y="25" transform="scale(-1,1)"/>
 <path style="fill:none;stroke:#17191e;stroke-width:1.70000005" d="m 12.199999,17.437 3.5,6.141948"/>
 <path style="fill:none;stroke:#17191e;stroke-width:1.70000005" d="m 18.499999,17.437 c 0,0 -2.8,8.563 -4.9,8.563 h -0.6"/>
 <path style="fill:#267edb" d="m 24.999999,17 a 1,1 0 0 1 -1,1 1,1 0 0 1 -1,-1 1,1 0 0 1 1,-1 1,1 0 0 1 1,1 z"/>
 <path style="fill:#267edb" d="m 24.999999,24 a 1,1 0 0 1 -1,1 1,1 0 0 1 -1,-1 1,1 0 0 1 1,-1 1,1 0 0 1 1,1 z"/>
</svg>
