<svg xmlns="http://www.w3.org/2000/svg" width="32" height="32" version="1">
 <rect style="opacity:0.2" width="28" height="28" x="2" y="3" rx="2.8" ry="2.8"/>
 <rect style="fill:#4caf50" width="28" height="28" x="2" y="2" rx="2.8" ry="2.8"/>
 <rect style="opacity:0.2" width="6" height="13.3" x="13" y="2"/>
 <rect style="fill:#8b9cbe" width="2" height="2" x="16" y="10"/>
 <rect style="fill:#8b9cbe" width="2" height="2" x="14" y="12"/>
 <path style="fill:#4b4b4b" d="m 16,12 c 2.25,0 2.25,2.8 3,2.8 v 3.5 c 0,0.3878 -0.3345,0.7 -0.75,0.7 h -4.5 C 13.3345,19 13,18.6878 13,18.3 v -3.5 c 0.75,0 0.75,-2.8 3,-2.8 z"/>
 <rect style="fill:#8b9cbe" width="2" height="2" x="16" y="2"/>
 <path style="opacity:0.2" d="M 15.800781,16 C 14.249581,16 13,17.249581 13,18.800781 v 5.398438 C 13,25.750419 14.249581,27 15.800781,27 h 0.398438 C 17.750419,27 19,25.750419 19,24.199219 V 18.800781 C 19,17.249581 17.750419,16 16.199219,16 Z M 16,22 a 2,2 0 0 1 2,2 2,2 0 0 1 -2,2 2,2 0 0 1 -2,-2 2,2 0 0 1 2,-2 z"/>
 <path style="fill:#8b9cbe" d="M 15.800781 15 C 14.249581 15 13 16.249581 13 17.800781 L 13 23.199219 C 13 24.750419 14.249581 26 15.800781 26 L 16.199219 26 C 17.750419 26 19 24.750419 19 23.199219 L 19 17.800781 C 19 16.249581 17.750419 15 16.199219 15 L 15.800781 15 z M 16 21 A 2 2 0 0 1 18 23 A 2 2 0 0 1 16 25 A 2 2 0 0 1 14 23 A 2 2 0 0 1 16 21 z"/>
 <path style="fill:#909090" d="M 15.984376,13.0001 A 1,0.82954037 0 0 0 15.0001,13.840898 v 3.31783 a 1,0.82954037 0 1 0 1.9998,0 v -3.31783 A 1,0.82954037 0 0 0 15.984376,13.0001 Z"/>
 <rect style="fill:#8b9cbe" width="2" height="2" x="14" y="4"/>
 <rect style="fill:#8b9cbe" width="2" height="2" x="16" y="6"/>
 <rect style="fill:#8b9cbe" width="2" height="2" x="14" y="8"/>
 <path style="opacity:0.2;fill:#8b9cbe" d="M 4.8007812 2 C 3.2495813 2 2 3.2495813 2 4.8007812 L 2 5.8007812 C 2 4.2495813 3.2495813 3 4.8007812 3 L 27.199219 3 C 28.750419 3 30 4.2495813 30 5.8007812 L 30 4.8007812 C 30 3.2495813 28.750419 2 27.199219 2 L 4.8007812 2 z"/>
</svg>
