<svg xmlns="http://www.w3.org/2000/svg" width="32" height="32" version="1.1">
 <path style="opacity:0.2" d="M 6.375,3 C 5.61325,3 5,3.6244 5,4.4 V 29.6 C 5,30.37504 5.61325,31 6.375,31 h 19.25 C 26.3862,31 27,30.37504 27,29.6 V 12 L 20,10 18,3 Z"/>
 <path style="fill:#b2bfd9" d="M 6.375,2 C 5.61325,2 5,2.6244 5,3.4 V 28.6 C 5,29.37504 5.61325,30 6.375,30 h 19.25 C 26.3862,30 27,29.37504 27,28.6 V 11 L 20,9 18,2 Z"/>
 <path style="opacity:0.2" d="M 27,12 18,3 v 7.59375 C 18,11.373375 18.62775,12 19.40625,12 Z"/>
 <path style="fill:#fafafa" d="M 27,11 18,2 V 9.59375 C 18,10.373375 18.62775,11 19.40625,11 Z"/>
 <path style="opacity:0.2;fill:#8b9cbe" d="M 6.375,2 C 5.61325,2 5,2.6247906 5,3.4003906 v 1 C 5,3.6247906 5.61325,3 6.375,3 H 18 V 2 Z"/>
 <path style="fill:#09a576" d="M 16 14 C 13.23861 14 11 14.794163 11 15.773438 L 11 17.226562 C 11 18.205959 13.23861 19 16 19 C 18.761261 19 21 18.205834 21 17.226562 L 21 15.773438 C 21 14.794163 18.761261 14 16 14 z M 11 18.228516 L 11.001953 20.945312 C 11.001907 22.080778 13.239051 23 16 23 C 18.760821 23 21 22.08049 21 20.945312 L 20.994141 18.292969 C 20.894953 19.241222 18.701112 20 16.001953 20 C 13.241304 20 11.00295 19.207022 11 18.228516 z M 11 22.228516 L 11.001953 24.945312 C 11.001907 26.080778 13.239051 27 16 27 C 18.760821 27 21 26.08049 21 24.945312 L 20.994141 22.292969 C 20.894951 23.241222 18.701112 24 16.001953 24 C 13.241304 24 11.00295 23.207022 11 22.228516 z"/>
</svg>
