<svg xmlns="http://www.w3.org/2000/svg" width="32" height="32" version="1.1">
 <path style="opacity:0.2" d="M 6.375,3 C 5.61325,3 5,3.6244 5,4.4 V 29.6 C 5,30.37504 5.61325,31 6.375,31 h 19.25 C 26.3862,31 27,30.37504 27,29.6 V 12 L 20,10 18,3 Z"/>
 <path style="fill:#2095f2" d="M 6.375,2 C 5.61325,2 5,2.6244 5,3.4 V 28.6 C 5,29.37504 5.61325,30 6.375,30 h 19.25 C 26.3862,30 27,29.37504 27,28.6 V 11 L 20,9 18,2 Z"/>
 <path style="opacity:0.2" d="M 27,12 18,3 v 7.59375 C 18,11.373375 18.62775,12 19.40625,12 Z"/>
 <path style="fill:#7cc0f5" d="M 27,11 18,2 V 9.59375 C 18,10.373375 18.62775,11 19.40625,11 Z"/>
 <path style="opacity:0.2;fill:#8b9cbe" d="M 6.375,2 C 5.61325,2 5,2.6247906 5,3.4003906 v 1 C 5,3.6247906 5.61325,3 6.375,3 H 18 V 2 Z"/>
 <path style="opacity:0.2" d="m 16,14 c -3.866,0 -7,3.134 -7,7 0,3.866 3.134,7 7,7 3.866,0 7,-3.134 7,-7 0,-3.866 -3.134,-7 -7,-7 z m -0.701172,1.337891 c 0.08161,-0.0085 0.185238,0.0049 0.267578,0 0.0098,0.03904 -0.05926,0.177589 -0.152344,0.380859 -0.592693,1.294794 -0.626245,2.812551 -0.07617,3.623047 0.09954,0.146948 0.189453,0.286507 0.189453,0.304687 0,0.01817 -0.107136,0.03711 -0.228516,0.03711 -0.284942,0 -0.554529,-0.173105 -1.105469,-0.609375 -0.244747,-0.193805 -0.562277,-0.35622 -0.685547,-0.38086 -0.193573,-0.03867 -0.245674,-0.02193 -0.496093,0.228516 -0.232993,0.232951 -0.304688,0.359005 -0.304688,0.572266 0,0.808716 0.959536,1.449836 2.744141,1.828125 2.42356,0.51366 3.021041,0.975603 3.08789,2.25 0.08393,1.598058 -0.767351,2.803477 -2.630859,3.736328 -0.222422,0.111379 -0.363711,0.153463 -0.457031,0.189453 -0.04135,-0.0037 -0.07205,0.0037 -0.113281,0 -0.01586,-0.04941 -0.03906,-0.16367 -0.03906,-0.380859 0,-0.848777 -0.33377,-1.722371 -0.83789,-2.210938 -0.135323,-0.131163 -0.515377,-0.40852 -0.839844,-0.609375 -0.324455,-0.200843 -0.65166,-0.433663 -0.72461,-0.533203 -0.12089,-0.165186 -0.129989,-0.267109 -0.03711,-0.572266 0.169272,-0.557332 0.370036,-0.868556 0.761719,-1.220703 0.205344,-0.184618 0.411541,-0.338097 0.457031,-0.341797 0.0455,-0.0037 -0.260804,-0.09693 -0.722656,-0.191406 -0.461826,-0.09466 -1.138989,-0.293505 -1.488281,-0.419922 -0.638711,-0.231109 -1.499364,-0.715272 -1.828126,-1.066406 -0.01391,-0.01488 -0.02698,-0.02588 -0.03906,-0.03906 0.471037,-1.876316 1.792547,-3.413212 3.544922,-4.154297 0.366663,-0.155085 0.745529,-0.26214 1.144531,-0.34375 0.198745,-0.04062 0.404165,-0.05531 0.609375,-0.07617 z m 5.71875,2.859375 c 0.143276,0.08856 0.683464,1.259169 0.837891,1.830078 0.199379,0.737047 0.184947,2.01196 0,2.74414 -0.07039,0.278672 -0.159443,0.539816 -0.189453,0.572266 -0.03001,0.03245 -0.139563,-0.153996 -0.267578,-0.380859 -0.128029,-0.226827 -0.537105,-0.709773 -0.876954,-1.06836 -0.980964,-1.035115 -1.135518,-1.574279 -0.724609,-2.40039 0.207223,-0.41658 1.109815,-1.365315 1.220703,-1.296875 z"/>
 <path style="fill:#8b9cbe" d="m 16,13 c -3.866,0 -7,3.134 -7,7 0,3.866 3.134,7 7,7 3.866,0 7,-3.134 7,-7 0,-3.866 -3.134,-7 -7,-7 z m -0.701172,1.337891 c 0.08161,-0.0085 0.185238,0.0049 0.267578,0 0.0098,0.03904 -0.05926,0.177589 -0.152344,0.380859 -0.592693,1.294794 -0.626245,2.812551 -0.07617,3.623047 0.09954,0.146948 0.189453,0.286507 0.189453,0.304687 0,0.01817 -0.107136,0.03711 -0.228516,0.03711 -0.284942,0 -0.554529,-0.173105 -1.105469,-0.609375 -0.244747,-0.193805 -0.562277,-0.35622 -0.685547,-0.38086 -0.193573,-0.03867 -0.245674,-0.02193 -0.496093,0.228516 -0.232993,0.232951 -0.304688,0.359005 -0.304688,0.572266 0,0.808716 0.959536,1.449836 2.744141,1.828125 2.42356,0.51366 3.021041,0.975603 3.08789,2.25 0.08393,1.598058 -0.767351,2.803477 -2.630859,3.736328 -0.222422,0.111379 -0.363711,0.153463 -0.457031,0.189453 -0.04135,-0.0037 -0.07205,0.0037 -0.113281,0 -0.01586,-0.04941 -0.03906,-0.16367 -0.03906,-0.380859 0,-0.848777 -0.33377,-1.722371 -0.83789,-2.210938 -0.135323,-0.131163 -0.515377,-0.40852 -0.839844,-0.609375 -0.324455,-0.200843 -0.65166,-0.433663 -0.72461,-0.533203 -0.12089,-0.165186 -0.129989,-0.267109 -0.03711,-0.572266 0.169272,-0.557332 0.370036,-0.868556 0.761719,-1.220703 0.205344,-0.184618 0.411541,-0.338097 0.457031,-0.341797 0.0455,-0.0037 -0.260804,-0.09693 -0.722656,-0.191406 -0.461826,-0.09466 -1.138989,-0.293505 -1.488281,-0.419922 -0.638711,-0.231109 -1.499364,-0.715272 -1.828126,-1.066406 -0.01391,-0.01488 -0.02698,-0.02588 -0.03906,-0.03906 0.471037,-1.876316 1.792547,-3.413212 3.544922,-4.154297 0.366663,-0.155085 0.745529,-0.26214 1.144531,-0.34375 0.198745,-0.04062 0.404165,-0.05531 0.609375,-0.07617 z m 5.71875,2.859375 c 0.143276,0.08856 0.683464,1.259169 0.837891,1.830078 0.199379,0.737047 0.184947,2.01196 0,2.74414 -0.07039,0.278672 -0.159443,0.539816 -0.189453,0.572266 -0.03001,0.03245 -0.139563,-0.153996 -0.267578,-0.380859 -0.128029,-0.226827 -0.537105,-0.709773 -0.876954,-1.06836 -0.980964,-1.035115 -1.135518,-1.574279 -0.724609,-2.40039 0.207223,-0.41658 1.109815,-1.365315 1.220703,-1.296875 z"/>
</svg>
