<svg xmlns="http://www.w3.org/2000/svg" width="32" height="32" version="1.1">
 <path style="opacity:0.2" d="M 6.375,3 C 5.61325,3 5,3.6244 5,4.4 V 29.6 C 5,30.37504 5.61325,31 6.375,31 h 19.25 C 26.3862,31 27,30.37504 27,29.6 V 12 L 20,10 18,3 Z"/>
 <path style="fill:#13a553" d="M 6.375,2 C 5.61325,2 5,2.6244 5,3.4 V 28.6 C 5,29.37504 5.61325,30 6.375,30 h 19.25 C 26.3862,30 27,29.37504 27,28.6 V 11 L 20,9 18,2 Z"/>
 <path style="opacity:0.2" d="M 27,12 18,3 v 7.59375 C 18,11.373375 18.62775,12 19.40625,12 Z"/>
 <path style="fill:#70c896" d="M 27,11 18,2 V 9.59375 C 18,10.373375 18.62775,11 19.40625,11 Z"/>
 <path style="opacity:0.2;fill:#8b9cbe" d="M 6.375,2 C 5.61325,2 5,2.6247906 5,3.4003906 v 1 C 5,3.6247906 5.61325,3 6.375,3 H 18 V 2 Z"/>
 <path style="opacity:0.2" d="m 16,13.997981 c -0.84082,0.0014 -1.610719,0.471444 -1.996094,1.21875 -0.20414,-0.06086 -0.41589,-0.09243 -0.628906,-0.09375 -1.242641,0 -2.25,1.007359 -2.25,2.25 8.72e-4,0.212268 0.03178,0.423345 0.0918,0.626953 -0.747172,0.386232 -1.216535,1.156952 -1.216797,1.998047 2.62e-4,0.841095 0.469625,1.611815 1.216797,1.998047 -0.06002,0.203608 -0.09093,0.414685 -0.0918,0.626953 0,1.242641 1.007359,2.25 2.25,2.25 0.125763,-0.0012 0.501202,-0.01298 0.625,-0.03516 v 3.410156 c 2.62e-4,0.667978 0.558753,1.003418 1.03125,0.53125 L 16,27.808528 l 0.96875,0.970703 c 0.472497,0.472168 1.030988,0.136728 1.03125,-0.53125 v -3.410156 c 0.123798,0.02218 0.499237,0.03394 0.625,0.03516 1.242641,0 2.25,-1.007359 2.25,-2.25 -2.37e-4,-0.212175 -0.03048,-0.42325 -0.08984,-0.626953 0.746415,-0.386766 1.21496,-1.157379 1.214844,-1.998047 -9.91e-4,-0.840393 -0.470248,-1.610185 -1.216797,-1.996094 0.0602,-0.204236 0.09111,-0.415983 0.0918,-0.628906 0,-1.242641 -1.007359,-2.25 -2.25,-2.25 -0.212268,8.72e-4 -0.423345,0.03178 -0.626953,0.0918 C 17.611815,14.467606 16.841095,13.998243 16,13.997981 Z m 0,2.001953 c 2.209139,0 4,1.790861 4,4 0,2.209139 -1.790861,4 -4,4 -2.209139,0 -4,-1.790861 -4,-4 0,-2.209139 1.790861,-4 4,-4 z m 0,0.998047 c -1.656854,0 -3,1.343146 -3,3 0,1.656854 1.343146,3 3,3 1.656854,0 3,-1.343146 3,-3 0,-1.656854 -1.343146,-3 -3,-3 z"/>
 <path style="fill:#8b9cbe" d="m 16,12.998047 c -0.84082,0.0014 -1.610719,0.471444 -1.996094,1.21875 -0.20414,-0.06086 -0.41589,-0.09243 -0.628906,-0.09375 -1.242641,0 -2.25,1.007359 -2.25,2.25 8.72e-4,0.212268 0.03178,0.423345 0.0918,0.626953 -0.747172,0.386232 -1.216535,1.156952 -1.216797,1.998047 2.62e-4,0.841095 0.469625,1.611815 1.216797,1.998047 -0.06002,0.203608 -0.09093,0.414685 -0.0918,0.626953 0,1.242641 1.007359,2.25 2.25,2.25 0.125763,-0.0012 0.501202,-0.01298 0.625,-0.03516 v 3.410156 c 2.62e-4,0.667978 0.558753,1.003418 1.03125,0.53125 L 16,26.808594 l 0.96875,0.970703 c 0.472497,0.472168 1.030988,0.136728 1.03125,-0.53125 v -3.410156 c 0.123798,0.02218 0.499237,0.03394 0.625,0.03516 1.242641,0 2.25,-1.007359 2.25,-2.25 -2.37e-4,-0.212175 -0.03048,-0.42325 -0.08984,-0.626953 0.746415,-0.386766 1.21496,-1.157379 1.214844,-1.998047 -9.91e-4,-0.840393 -0.470248,-1.610185 -1.216797,-1.996094 0.0602,-0.204236 0.09111,-0.415983 0.0918,-0.628906 0,-1.242641 -1.007359,-2.25 -2.25,-2.25 -0.212268,8.72e-4 -0.423345,0.03178 -0.626953,0.0918 C 17.611815,13.467672 16.841095,12.998309 16,12.998047 Z M 16,15 c 2.209139,0 4,1.790861 4,4 0,2.209139 -1.790861,4 -4,4 -2.209139,0 -4,-1.790861 -4,-4 0,-2.209139 1.790861,-4 4,-4 z m 0,0.998047 c -1.656854,0 -3,1.343146 -3,3 0,1.656854 1.343146,3 3,3 1.656854,0 3,-1.343146 3,-3 0,-1.656854 -1.343146,-3 -3,-3 z"/>
</svg>
