<svg xmlns="http://www.w3.org/2000/svg" width="32" height="32" version="1">
 <path style="opacity:0.2" d="m 3.0054254,11.361575 c -0.00315,0.05326 -0.00495,0.106603 -0.00542,0.15996 v 10.886991 c 3.255e-4,1.13714 0.6047071,2.187762 1.5855577,2.756241 l 9.3288849,5.408575 c 0.981119,0.568877 2.189996,0.568877 3.171115,0 l 9.328883,-5.408575 C 27.395714,24.596043 28.000161,23.544788 28,22.407159 V 11.521535 C 27.9985,11.481385 27.9962,11.441285 27.9932,11.401223 28,11.399971 3.0054254,11.361575 3.0054254,11.361575 Z"/>
 <path style="fill:#e4ba75" d="m 3.0054254,10.361575 c -0.00315,0.05326 -0.00495,0.106603 -0.00542,0.15996 v 10.886991 c 3.255e-4,1.13714 0.6047071,2.187762 1.5855577,2.756241 l 9.3288849,5.408575 c 0.981119,0.568877 2.189996,0.568877 3.171115,0 l 9.328883,-5.408575 C 27.395714,23.596043 28.000161,22.544788 28,21.407159 V 10.521535 C 27.9985,10.481385 27.9962,10.441285 27.9932,10.401223 28,10.399971 3.0054254,10.361575 3.0054254,10.361575 Z"/>
 <path style="fill:#b89863" d="m 15.574656,1.9999999 v 0.00139 A 3.1730185,3.2214105 0 0 0 13.913237,2.4302546 L 4.5772613,7.9032045 A 3.1730185,3.2214105 0 0 0 3,10.486116 3.1730185,3.2214105 0 0 0 4.5772613,13.095314 l 9.3359757,5.47295 a 3.1730185,3.2214105 0 0 0 3.173525,0 l 9.335977,-5.47295 A 3.1730185,3.2214105 0 0 0 28,10.512402 3.1730185,3.2214105 0 0 0 26.422739,7.9032045 L 17.086762,2.4302546 A 3.1730185,3.2214105 0 0 0 15.574656,1.9999999 Z"/>
 <path style="opacity:0.07" d="M 15.574219,2 V 2.00197 A 3.1730185,3.2214105 0 0 0 15,2.0415038 V 18.955294 a 3.1730185,3.2214105 0 0 0 2.085938,-0.387368 l 9.335937,-5.472574 A 3.1730185,3.2214105 0 0 0 28,10.512233 3.1730185,3.2214105 0 0 0 26.421875,7.9034228 L 17.085938,2.430849 A 3.1730185,3.2214105 0 0 0 15.574219,2 Z"/>
 <path style="opacity:0.1" d="M 3.0039062 10.421875 C 3.003334 10.436183 3.0026458 10.450512 3.0019531 10.464844 A 3.1730185 3.2214105 0 0 1 3.0058594 10.435547 A 3.1730185 3.183519 0 0 1 3.0039062 10.421875 z M 3.0019531 10.496094 C 3.0016676 10.504572 3.0000746 10.513012 3 10.521484 L 3 21.408203 C 3.0003255 22.545343 3.6050869 23.595584 4.5859375 24.164062 L 13.914062 29.574219 C 14.254741 29.771753 14.62335 29.896679 15 29.957031 L 15 18.955078 A 3.1730185 3.2214105 0 0 1 13.914062 18.568359 L 4.578125 13.095703 A 3.1730185 3.2214105 0 0 1 3.0019531 10.496094 z"/>
 <path style="opacity:0.1;fill:#8b9cbe" d="M 15.574219 2 L 15.574219 2.0019531 A 3.1730185 3.2214105 0 0 0 13.914062 2.4296875 L 4.578125 7.9023438 A 3.1730185 3.2214105 0 0 0 3 10.486328 A 3.1730185 3.2214105 0 0 0 3.0722656 10.996094 A 3.1730185 3.2214105 0 0 1 4.578125 8.9023438 L 13.914062 3.4296875 A 3.1730185 3.2214105 0 0 1 15.574219 3.0019531 L 15.574219 3 A 3.1730185 3.2214105 0 0 1 17.085938 3.4296875 L 26.421875 8.9023438 A 3.1730185 3.2214105 0 0 1 27.927734 11.001953 A 3.1730185 3.2214105 0 0 0 28 10.511719 A 3.1730185 3.2214105 0 0 0 26.421875 7.9023438 L 17.085938 2.4296875 A 3.1730185 3.2214105 0 0 0 15.574219 2 z"/>
 <path style="opacity:0.1" d="M 3.0722656 9.9960938 A 3.1730185 3.2214105 0 0 0 3 10.486328 A 3.1730185 3.2214105 0 0 0 4.578125 13.095703 L 13.914062 18.568359 A 3.1730185 3.2214105 0 0 0 17.085938 18.568359 L 26.421875 13.095703 A 3.1730185 3.2214105 0 0 0 28 10.511719 A 3.1730185 3.2214105 0 0 0 27.927734 10.001953 A 3.1730185 3.2214105 0 0 1 26.421875 12.095703 L 17.085938 17.568359 A 3.1730185 3.2214105 0 0 1 13.914062 17.568359 L 4.578125 12.095703 A 3.1730185 3.2214105 0 0 1 3.0722656 9.9960938 z"/>
</svg>
