<svg xmlns="http://www.w3.org/2000/svg" width="32" height="32" version="1.1">
 <path style="opacity:0.2" d="M 6.375,3 C 5.61325,3 5,3.6244 5,4.4 V 29.6 C 5,30.37504 5.61325,31 6.375,31 h 19.25 C 26.3862,31 27,30.37504 27,29.6 V 12 L 20,10 18,3 Z"/>
 <path style="fill:#b2bfd9" d="M 6.375,2 C 5.61325,2 5,2.6244 5,3.4 V 28.6 C 5,29.37504 5.61325,30 6.375,30 h 19.25 C 26.3862,30 27,29.37504 27,28.6 V 11 L 20,9 18,2 Z"/>
 <path style="opacity:0.2" d="M 27,12 18,3 v 7.59375 C 18,11.373375 18.62775,12 19.40625,12 Z"/>
 <path style="fill:#fafafa" d="M 27,11 18,2 V 9.59375 C 18,10.373375 18.62775,11 19.40625,11 Z"/>
 <path style="opacity:0.2;fill:#8b9cbe" d="M 6.375,2 C 5.61325,2 5,2.6247906 5,3.4003906 v 1 C 5,3.6247906 5.61325,3 6.375,3 H 18 V 2 Z"/>
 <path style="fill:#129a4d" d="M 13 17 A 4 4 0 0 0 9 21 A 4 4 0 0 0 13 25 A 4 4 0 0 0 16.867188 22 L 19 22 L 19.029297 24 L 22 24 L 22 22 L 23 22 L 23 20 L 16.869141 20 A 4 4 0 0 0 13 17 z M 13 20 C 13.552284 20 14 20.447716 14 21 C 14 21.552284 13.552284 22 13 22 C 12.447715 22 12 21.552284 12 21 C 12 20.447716 12.447715 20 13 20 z"/>
</svg>
