<svg xmlns="http://www.w3.org/2000/svg" width="32" height="32" version="1">
 <path style="opacity:0.2" d="M 6.375,3 C 5.61325,3 5,3.6244 5,4.4 V 29.6 C 5,30.3756 5.61325,31 6.375,31 h 19.25 C 26.38675,31 27,30.3756 27,29.6 V 11.4 L 19.4375,10.7 18.75,3 Z"/>
 <path style="fill:#c63166" d="M 13.879761,2 C 12.752561,3.0761039 7.969989,8.0149684 5,11.112305 v 0.605663 C 5.4754534,11.280407 6.1680102,10.650936 6.4085692,10.446484 6.5500794,10.326214 7.0999502,9.8338148 7.6304932,9.3527342 8.1610363,8.8716543 8.8468657,8.256474 9.1545412,7.9855467 9.4622167,7.7146201 10.100314,7.1237452 10.57251,6.6730467 11.483269,5.8037504 14.296391,3.2635652 14.608886,3.028125 c 0.102087,-0.076914 0.196997,-0.1289249 0.210816,-0.1148437 0.03055,0.031118 -0.146704,0.3338804 -0.772095,1.3166015 -0.262417,0.4123547 -1.287,2.0294569 -2.277344,3.5929685 C 10.779919,9.3863629 9.5508677,11.326066 9.0390625,12.133593 8.5272579,12.941122 7.3961375,14.726657 6.5253906,16.101172 5.9992784,16.931665 5.5248957,17.679482 5,18.507422 V 28.6 C 5,29.3756 5.61325,30 6.375,30 h 9.066406 c 1.295382,-5.012718 2.635168,-13.108493 4.84607,-20.2207033 L 19.879196,9.2141343 19,2 Z"/>
 <path style="fill:#b8da6c" d="M 6.375,2 C 5.61325,2 5,2.6244 5,3.4 v 7.710937 C 7.9689729,8.0150174 12.75327,3.0750906 13.879761,2 Z m 8.444702,0.9132812 C 14.805883,2.8992001 14.710973,2.9512114 14.608886,3.028125 14.29639,3.2635652 11.483269,5.8037509 10.57251,6.6730467 10.100314,7.1237452 9.4622167,7.7146201 9.1545412,7.9855467 8.8468657,8.256474 8.1610363,8.8716543 7.6304932,9.3527342 7.0999502,9.8338148 6.5500794,10.326214 6.4085692,10.446484 6.1680103,10.650936 5.4754534,11.280407 5,11.717968 v 6.789454 c 0.5248957,-0.82794 0.9992784,-1.575757 1.5253906,-2.40625 0.8707469,-1.374515 2.0018673,-3.16005 2.5136719,-3.967579 C 9.5508677,11.326066 10.779919,9.3863629 11.770263,7.8228513 12.760607,6.2593397 13.78519,4.6422375 14.047607,4.2298828 14.672998,3.2471617 14.850248,2.9443991 14.819702,2.9132812 Z"/>
 <path style="fill:#778b3c" d="M 27,20.20957 17.54419,30 H 25.625 C 26.38675,30 27,29.3756 27,28.6 Z"/>
 <path style="fill:#eddf36" d="M 19.4375,9.6945316 C 17.048217,16.092746 15.432332,22.758033 15.136597,28.11875 c -0.03602,0.652895 -0.08448,1.454998 -0.107422,1.781445 L 15.02246,30 h 2.52173 L 27,20.20957 V 10 L 19.4375,9.7 Z"/>
 <path style="opacity:0.1" d="M 19,3 V 9.6666667 C 19,10.403067 19.596953,11 20.333333,11 H 27 Z"/>
 <path style="fill:#faf5bc" d="M 19,2 V 8.6666667 C 19,9.403067 19.596953,10 20.333333,10 H 27 Z"/>
 <path style="opacity:0.2;fill:#8b9cbe" d="M 6.375,1.999609 C 5.61325,1.999609 5,2.6243996 5,3.3999996 v 1 C 5,3.6243996 5.61325,2.999609 6.375,2.999609 H 19 v -1 z"/>
 <path style="opacity:0.2" d="M 12.892578 3 C 11.160779 4.7311849 7.5782575 8.4228301 5 11.111328 L 5 11.71875 C 5.4754534 11.281189 6.1676442 10.651718 6.4082031 10.447266 C 6.5497133 10.326996 7.1003164 9.8345956 7.6308594 9.3535156 C 7.7161597 9.2761679 7.7839149 9.2151051 7.875 9.1328125 C 10.43461 6.4832249 13.068117 3.7737943 13.878906 3 L 12.892578 3 z M 14.820312 3.9140625 C 14.806492 3.8999815 14.711462 3.9504305 14.609375 4.0273438 C 14.523532 4.0920193 13.995097 4.5681679 13.623047 4.8984375 C 13.201073 5.5631836 12.575662 6.5495821 11.769531 7.8222656 C 10.779187 9.385777 9.5508677 11.325285 9.0390625 12.132812 C 8.5272579 12.940341 7.3961375 14.727047 6.5253906 16.101562 C 5.9992784 16.932057 5.5248957 17.679872 5 18.507812 L 5 19.507812 C 5.5248957 18.679872 5.9992784 17.932057 6.5253906 17.101562 C 7.3961375 15.727047 8.5272579 13.940341 9.0390625 13.132812 C 9.5508677 12.325285 10.779187 10.385777 11.769531 8.8222656 C 12.759875 7.258754 13.784458 5.6428233 14.046875 5.2304688 C 14.672266 4.2477476 14.850859 3.9451804 14.820312 3.9140625 z M 27 20.208984 L 17.544922 30 L 15.083984 30 C 15.064249 30.327341 15.040894 30.735373 15.029297 30.900391 L 15.021484 31 L 17.544922 31 L 27 21.208984 L 27 20.208984 z"/>
</svg>
