<svg xmlns="http://www.w3.org/2000/svg" width="32" height="32" version="1.1">
 <path style="opacity:0.2" d="M 6.375,3 C 5.61325,3 5,3.6244 5,4.4 V 29.6 C 5,30.37504 5.61325,31 6.375,31 h 19.25 C 26.3862,31 27,30.37504 27,29.6 V 12 L 20,10 18,3 Z"/>
 <path style="fill:#636e73" d="M 6.375,2 C 5.61325,2 5,2.6244 5,3.4 V 28.6 C 5,29.37504 5.61325,30 6.375,30 h 19.25 C 26.3862,30 27,29.37504 27,28.6 V 11 L 20,9 18,2 Z"/>
 <path style="opacity:0.2" d="M 27,12 18,3 v 7.59375 C 18,11.373375 18.62775,12 19.40625,12 Z"/>
 <path style="fill:#909b9f" d="M 27,11 18,2 V 9.59375 C 18,10.373375 18.62775,11 19.40625,11 Z"/>
 <path style="opacity:0.1;fill:#8b9cbe" d="M 6.375,2 C 5.61325,2 5,2.6247906 5,3.4003906 v 1 C 5,3.6247906 5.61325,3 6.375,3 H 18 V 2 Z"/>
 <path style="opacity:0.2" d="M 16.25,17 14.150391,23.5 12.75,20 H 10 v 1 h 2 l 1.939453,5 H 14.5 L 17,18 h 4 v -1 z m 0.919922,3 1.832031,2.861328 L 17,26 h 0.998047 L 19.5,23.644531 21,26 h 1 L 20.037109,22.919922 21.904297,20 h -1 L 19.535156,22.136719 18.167969,20 Z"/>
 <path style="fill:#8b9cbe" d="M 16.25 16 L 14.150391 22.5 L 12.75 19 L 10 19 L 10 20 L 12 20 L 13.939453 25 L 14.5 25 L 17 17 L 21 17 L 21 16 L 16.25 16 z M 17.169922 19 L 19.001953 21.861328 L 17 25 L 17.998047 25 L 19.5 22.644531 L 21 25 L 22 25 L 20.037109 21.919922 L 21.904297 19 L 20.904297 19 L 19.535156 21.136719 L 18.167969 19 L 17.169922 19 z"/>
</svg>
