<svg xmlns="http://www.w3.org/2000/svg" width="32" height="32" version="1">
 <path style="opacity:0.2" d="M 16.078218,2.0009642 A 3.2974327,3.2972001 0 0 0 14.351356,2.4408179 L 4.6488608,8.0421214 A 3.2974327,3.2972001 0 0 0 3,10.897873 v 11.203331 a 3.2974327,3.2972001 0 0 0 1.6487164,2.855461 l 9.7024946,5.601594 a 3.2974327,3.2972001 0 0 0 3.297433,0 l 9.702495,-5.601594 A 3.2974327,3.2972001 0 0 0 29,22.100914 V 10.897583 A 3.2974327,3.2972001 0 0 0 27.351139,8.0418314 L 17.648644,2.4405279 A 3.2974327,3.2972001 0 0 0 16.077785,2.0006742 Z"/>
 <path style="fill:#0073d6" d="M 16.078125 1 A 3.2974327 3.2972001 0 0 0 14.351562 1.4414062 L 4.6484375 7.0429688 A 3.2974327 3.2972001 0 0 0 3 9.8984375 L 3 21.101562 A 3.2974327 3.2972001 0 0 0 3.7695312 23.214844 L 16 13.324219 L 28.228516 23.214844 A 3.2974327 3.2972001 0 0 0 29 21.101562 L 29 9.8984375 A 3.2974327 3.2972001 0 0 0 27.351562 7.0410156 L 17.648438 1.4414062 A 3.2974327 3.2972001 0 0 0 16.078125 1 z M 3.7695312 23.214844 A 3.2974327 3.2972001 0 0 0 3.9921875 23.457031 A 3.2974327 3.2972001 0 0 1 3.7695312 23.214844 z M 3.9921875 23.457031 A 3.2974327 3.2972001 0 0 0 4.1894531 23.632812 A 3.2974327 3.2972001 0 0 1 3.9921875 23.457031 z M 28.224609 23.220703 A 3.2974327 3.2972001 0 0 1 27.628906 23.777344 A 3.2974327 3.2972001 0 0 0 28.224609 23.220703 z M 15.59375 29.974609 A 3.2974327 3.2972001 0 0 0 16.251953 29.990234 A 3.2974327 3.2972001 0 0 1 15.59375 29.974609 z"/>
 <path style="fill:#8b9cbe;opacity:0.1" d="M 16.078125 1 A 3.2974327 3.2972001 0 0 0 14.351562 1.4414062 L 4.6484375 7.0429688 A 3.2974327 3.2972001 0 0 0 3 9.8984375 L 3 10.898438 A 3.2974327 3.2972001 0 0 1 4.6484375 8.0429688 L 14.351562 2.4414062 A 3.2974327 3.2972001 0 0 1 16.078125 2 A 3.2974327 3.2972001 0 0 1 17.648438 2.4414062 L 27.351562 8.0410156 A 3.2974327 3.2972001 0 0 1 29 10.898438 L 29 9.8984375 A 3.2974327 3.2972001 0 0 0 27.351562 7.0410156 L 17.648438 1.4414062 A 3.2974327 3.2972001 0 0 0 16.078125 1 z"/>
 <path style="opacity:0.3" d="M 16 1.0019531 A 3.2974327 3.2972001 0 0 0 14.351562 1.4394531 L 4.6484375 7.0429688 A 3.2974327 3.2972001 0 0 0 3 9.8984375 L 3 21.101562 A 3.2974327 3.2972001 0 0 0 3.7695312 23.214844 L 16 13.324219 L 16 1.0019531 z M 3.7695312 23.214844 A 3.2974327 3.2972001 0 0 0 3.9921875 23.457031 A 3.2974327 3.2972001 0 0 1 3.7695312 23.214844 z M 3.9921875 23.457031 A 3.2974327 3.2972001 0 0 0 4.1894531 23.632812 A 3.2974327 3.2972001 0 0 1 3.9921875 23.457031 z"/>
 <path style="fill:#ff9e43" d="M 16.000216,13.324919 3.7687845,23.215706 a 3.2974327,3.2972001 0 0 0 0.8802231,0.74057 l 9.7022014,5.601711 a 3.2974327,3.2972001 0 0 0 3.298015,0 l 9.702202,-5.601711 a 3.2974327,3.2972001 0 0 0 0.877402,-0.741986 z"/>
 <path style="opacity:0.1" transform="matrix(0.75055532,0,0,0.73363097,-1.712134,-1.6254315)" d="m 23.598706,12.423532 10.392304,6.000001 0,12 -10.392305,5.999999 -10.392305,-6 10e-7,-12 z"/>
 <path style="opacity:0.2;fill:#8b9cbe" d="M 16 13.324219 L 3.7695312 23.214844 A 3.2974327 3.2972001 0 0 0 4.3417969 23.751953 L 16 14.324219 L 27.658203 23.751953 A 3.2974327 3.2972001 0 0 0 28.228516 23.214844 L 16 13.324219 z"/>
 <path style="fill:#f13f3f" transform="matrix(0.75055532,0,0,0.73363097,-1.712134,-2.6250033)" d="m 23.598706,12.423532 10.392304,6.000001 0,12 -10.392305,5.999999 -10.392305,-6 10e-7,-12 z"/>
 <path style="opacity:0.3" d="M 23.8,10.89107 16,15.292856 v 8.803573 l 7.8,-4.401787 z"/>
 <path style="opacity:0.1" d="m 8.2000002,10.89107 v 8.803572 L 16,24.096429 v -8.803573 z"/>
 <path style="opacity:0.2;fill:#8b9cbe" d="M 16 6.4902344 L 8.1992188 10.890625 L 9.0859375 11.390625 L 16 7.4882812 L 22.914062 11.390625 L 23.800781 10.890625 L 16 6.4902344 z"/>
 <path style="opacity:0.1" d="M 8.1992188 10.890625 L 8.1992188 11.890625 L 16 16.292969 L 23.800781 11.890625 L 23.800781 10.890625 L 16 15.292969 L 8.1992188 10.890625 z"/>
</svg>
