<svg xmlns="http://www.w3.org/2000/svg" width="32" height="32" version="1.1">
 <path style="opacity:0.2" d="M 6.375,3 C 5.61325,3 5,3.6244 5,4.4 V 29.6 C 5,30.37504 5.61325,31 6.375,31 h 19.25 C 26.3862,31 27,30.37504 27,29.6 V 12 L 20,10 18,3 Z"/>
 <path style="fill:#9264c3" d="M 6.375,2 C 5.61325,2 5,2.6244 5,3.4 V 28.6 C 5,29.37504 5.61325,30 6.375,30 h 19.25 C 26.3862,30 27,29.37504 27,28.6 V 11 L 20,9 18,2 Z"/>
 <path style="opacity:0.2" d="M 27,12 18,3 v 7.59375 C 18,11.373375 18.62775,12 19.40625,12 Z"/>
 <path style="fill:#b783f6" d="M 27,11 18,2 V 9.59375 C 18,10.373375 18.62775,11 19.40625,11 Z"/>
 <path style="opacity:0.2;fill:#8b9cbe" d="M 6.375,2 C 5.61325,2 5,2.6247906 5,3.4003906 v 1 C 5,3.6247906 5.61325,3 6.375,3 H 18 V 2 Z"/>
 <path style="opacity:0.2" d="m 19,18 c -1.656854,0 -3,1.343146 -3,3 0,1.656854 1.343146,3 3,3 h 8 v -1 h -8 c -1.104569,0 -2,-0.895431 -2,-2 0,-1.104569 0.895431,-2 2,-2 h 2.232422 C 20.664145,18.364645 19.852416,18.001037 19,18 Z"/>
 <path style="opacity:0.2" d="m 19,16 c -2.761424,0 -5,2.238576 -5,5 0,2.761424 2.238576,5 5,5 h 8 v -1 h -8 c -2.209139,0 -4,-1.790861 -4,-4 0,-2.209139 1.790861,-4 4,-4 0.337602,0.0019 0.673607,0.04652 1,0.132812 V 16.105469 C 19.671058,16.036799 19.336031,16.001464 19,16 Z"/>
 <path style="opacity:0.2" d="m 19,14 c -3.865993,0 -7,3.134007 -7,7 0,3.865993 3.134007,7 7,7 h 8 v -1 h -8 c -3.313708,0 -6,-2.686292 -6,-6 0,-3.313708 2.686292,-6 6,-6 z"/>
 <path style="fill:#8b9cbe" d="m 19,13 c -3.865993,0 -7,3.134007 -7,7 0,3.865993 3.134007,7 7,7 h 8 v -1 h -8 c -3.313708,0 -6,-2.686292 -6,-6 0,-3.313708 2.686292,-6 6,-6 z"/>
 <path style="fill:#d7bdfb" d="m 19,15 c -2.761424,0 -5,2.238576 -5,5 0,2.761424 2.238576,5 5,5 h 8 v -1 h -8 c -2.209139,0 -4,-1.790861 -4,-4 0,-2.209139 1.790861,-4 4,-4 0.337602,0.0019 0.673607,0.04652 1,0.132812 V 15.105469 C 19.671058,15.036799 19.336031,15.001464 19,15 Z"/>
 <path style="fill:#c090f9" d="m 19,17 c -1.656854,0 -3,1.343146 -3,3 0,1.656854 1.343146,3 3,3 h 8 v -1 h -8 c -1.104569,0 -2,-0.895431 -2,-2 0,-1.104569 0.895431,-2 2,-2 h 2.232422 C 20.664145,17.364645 19.852416,17.001037 19,17 Z"/>
</svg>
