<svg xmlns="http://www.w3.org/2000/svg" width="32" height="32" version="1.1">
 <path style="opacity:0.2" d="M 6.375,3 C 5.61325,3 5,3.6244 5,4.4 V 29.6 C 5,30.37504 5.61325,31 6.375,31 h 19.25 C 26.3862,31 27,30.37504 27,29.6 V 12 L 20,10 18,3 Z"/>
 <path style="fill:#4f4f4f" d="M 6.375,2 C 5.61325,2 5,2.6244 5,3.4 V 28.6 C 5,29.37504 5.61325,30 6.375,30 h 19.25 C 26.3862,30 27,29.37504 27,28.6 V 11 L 20,9 18,2 Z"/>
 <path style="opacity:0.2" d="M 27,12 18,3 v 7.59375 C 18,11.373375 18.62775,12 19.40625,12 Z"/>
 <path style="fill:#696969" d="M 27,11 18,2 V 9.59375 C 18,10.373375 18.62775,11 19.40625,11 Z"/>
 <path style="opacity:0.1;fill:#8b9cbe" d="M 6.375,2 C 5.61325,2 5,2.6247906 5,3.4003906 v 1 C 5,3.6247906 5.61325,3 6.375,3 H 18 V 2 Z"/>
 <path style="opacity:0.2" d="m 12.948074,15.003771 c -0.793732,-0.04188 -1.571039,0.220983 -2.147194,0.797108 -1.1522353,1.152235 -1.0490353,3.110277 0.231234,4.390539 L 11.840697,21 11.032114,21.808583 c -1.2802613,1.28026 -1.3834623,3.238303 -0.231234,4.390538 1.152228,1.152235 3.110278,1.049035 4.390537,-0.231234 L 16,25.159304 l 0.808582,0.808583 c 1.280262,1.280261 3.238304,1.383462 4.390539,0.231234 1.152235,-1.152228 1.049034,-3.110278 -0.231234,-4.390538 L 20.159304,21 20.967887,20.191418 c 1.280261,-1.280262 1.383462,-3.238304 0.231234,-4.390539 -1.152228,-1.152236 -3.110277,-1.049034 -4.390539,0.231235 L 16,16.840695 15.191417,16.032114 C 14.551274,15.391968 13.741806,15.04563 12.947999,15.003779 Z m 3.052,2.876801 a 0.73535154,0.73535154 0 0 1 0,1.03981 0.73535154,0.73535154 0 0 1 0,-1.03981 z m -1.051508,1.344012 a 0.73535154,0.73535154 0 0 1 0.201077,0.02585 0.73535154,0.73535154 0 0 1 -0.18958,0.709499 0.73535154,0.73535154 0 0 1 -0.709497,0.18958 0.73535154,0.73535154 0 0 1 0.189578,-0.709499 0.73535154,0.73535154 0 0 1 0.508429,-0.215433 z m 2.102644,0 a 0.73535154,0.73535154 0 0 1 0.508429,0.215433 0.73535154,0.73535154 0 0 1 0.189587,0.709498 0.73535154,0.73535154 0 0 1 -0.709499,-0.189579 0.73535154,0.73535154 0 0 1 -0.18958,-0.709499 0.73535154,0.73535154 0 0 1 0.20107,-0.02585 z m -1.05136,1.03981 a 0.73535154,0.73535154 0 0 1 0.05315,0.0029 0.73535154,0.73535154 0 0 1 0.01008,0 0.73535154,0.73535154 0 0 1 0.0029,0 0.73535154,0.73535154 0 0 1 0.05746,0.0085 0.73535154,0.73535154 0 0 1 0.01866,0.0029 0.73535154,0.73535154 0 0 1 0.04884,0.01152 0.73535154,0.73535154 0 0 1 0.02011,0.0058 0.73535154,0.73535154 0 0 1 0.06463,0.02298 0.73535154,0.73535154 0 0 1 0.05458,0.02441 0.73535154,0.73535154 0 0 1 0.02011,0.01008 0.73535154,0.73535154 0 0 1 0.02729,0.01579 0.73535154,0.73535154 0 0 1 0.04452,0.03016 0.73535154,0.73535154 0 0 1 0.0014,0 0.73535154,0.73535154 0 0 1 0.04165,0.0316 0.73535154,0.73535154 0 0 1 0.05458,0.04884 0.73535154,0.73535154 0 0 1 0.04884,0.05458 0.73535154,0.73535154 0 0 1 0.0316,0.04308 0.73535154,0.73535154 0 0 1 0.03016,0.04452 0.73535154,0.73535154 0 0 1 0.01579,0.02729 0.73535154,0.73535154 0 0 1 0.01008,0.02011 0.73535154,0.73535154 0 0 1 0.02441,0.05458 0.73535154,0.73535154 0 0 1 0.02298,0.06463 0.73535154,0.73535154 0 0 1 0.0058,0.02011 0.73535154,0.73535154 0 0 1 0.01152,0.04884 0.73535154,0.73535154 0 0 1 0.0029,0.01866 0.73535154,0.73535154 0 0 1 0.0085,0.05746 0.73535154,0.73535154 0 0 1 0,0.01292 0.73535154,0.73535154 0 0 1 0.0029,0.05315 0.73535154,0.73535154 0 0 1 -0.0029,0.05315 0.73535154,0.73535154 0 0 1 0,0.01292 0.73535154,0.73535154 0 0 1 -0.0085,0.05746 0.73535154,0.73535154 0 0 1 -0.0029,0.01866 0.73535154,0.73535154 0 0 1 -0.01152,0.04884 0.73535154,0.73535154 0 0 1 -0.0058,0.02011 0.73535154,0.73535154 0 0 1 -0.02298,0.06463 0.73535154,0.73535154 0 0 1 -0.02441,0.05458 0.73535154,0.73535154 0 0 1 -0.01008,0.02011 0.73535154,0.73535154 0 0 1 -0.01579,0.02729 0.73535154,0.73535154 0 0 1 -0.03016,0.04452 0.73535154,0.73535154 0 0 1 -0.0316,0.04308 0.73535154,0.73535154 0 0 1 -0.04884,0.05458 0.73535154,0.73535154 0 0 1 -0.05458,0.04884 0.73535154,0.73535154 0 0 1 -0.04165,0.0316 0.73535154,0.73535154 0 0 1 -0.0014,0 0.73535154,0.73535154 0 0 1 -0.04452,0.03016 0.73535154,0.73535154 0 0 1 -0.02729,0.01579 0.73535154,0.73535154 0 0 1 -0.02011,0.01008 0.73535154,0.73535154 0 0 1 -0.05458,0.02441 0.73535154,0.73535154 0 0 1 -0.06463,0.02298 0.73535154,0.73535154 0 0 1 -0.02011,0.0058 0.73535154,0.73535154 0 0 1 -0.04884,0.01152 0.73535154,0.73535154 0 0 1 -0.01866,0.0029 0.73535154,0.73535154 0 0 1 -0.05746,0.0085 0.73535154,0.73535154 0 0 1 -0.0029,0 0.73535154,0.73535154 0 0 1 -0.01008,0 0.73535154,0.73535154 0 0 1 -0.05315,0.0029 0.73535154,0.73535154 0 0 1 -0.05315,-0.0029 0.73535154,0.73535154 0 0 1 -0.01292,0 0.73535154,0.73535154 0 0 1 -0.05746,-0.0085 0.73535154,0.73535154 0 0 1 -0.01866,-0.0029 0.73535154,0.73535154 0 0 1 -0.04884,-0.01152 0.73535154,0.73535154 0 0 1 -0.02011,-0.0058 0.73535154,0.73535154 0 0 1 -0.06463,-0.02298 0.73535154,0.73535154 0 0 1 -0.05458,-0.02441 0.73535154,0.73535154 0 0 1 -0.02011,-0.01008 0.73535154,0.73535154 0 0 1 -0.02729,-0.01579 0.73535154,0.73535154 0 0 1 -0.04452,-0.03016 0.73535154,0.73535154 0 0 1 -0.0014,0 0.73535154,0.73535154 0 0 1 -0.04165,-0.0316 0.73535154,0.73535154 0 0 1 -0.05458,-0.04884 0.73535154,0.73535154 0 0 1 -0.04884,-0.05458 0.73535154,0.73535154 0 0 1 -0.0316,-0.04165 0.73535154,0.73535154 0 0 1 0,-0.0014 0.73535154,0.73535154 0 0 1 -0.03016,-0.04452 0.73535154,0.73535154 0 0 1 -0.01579,-0.02729 0.73535154,0.73535154 0 0 1 -0.01008,-0.02011 0.73535154,0.73535154 0 0 1 -0.02442,-0.05458 0.73535154,0.73535154 0 0 1 -0.02298,-0.06463 0.73535154,0.73535154 0 0 1 -0.0058,-0.02011 0.73535154,0.73535154 0 0 1 -0.01152,-0.04884 0.73535154,0.73535154 0 0 1 -0.0029,-0.01866 0.73535154,0.73535154 0 0 1 -0.0085,-0.05746 0.73535154,0.73535154 0 0 1 0,-0.01292 0.73535154,0.73535154 0 0 1 -0.0029,-0.05315 0.73535154,0.73535154 0 0 1 0.0029,-0.05315 0.73535154,0.73535154 0 0 1 0,-0.01292 0.73535154,0.73535154 0 0 1 0.0085,-0.05744 0.73535154,0.73535154 0 0 1 0.0029,-0.01866 0.73535154,0.73535154 0 0 1 0.01152,-0.04884 0.73535154,0.73535154 0 0 1 0.0058,-0.02011 0.73535154,0.73535154 0 0 1 0.02298,-0.06463 0.73535154,0.73535154 0 0 1 0.02442,-0.05458 0.73535154,0.73535154 0 0 1 0.01008,-0.02011 0.73535154,0.73535154 0 0 1 0.01579,-0.02729 0.73535154,0.73535154 0 0 1 0.03016,-0.04452 0.73535154,0.73535154 0 0 1 0.0316,-0.04308 0.73535154,0.73535154 0 0 1 0.04884,-0.05458 0.73535154,0.73535154 0 0 1 0.05458,-0.04884 0.73535154,0.73535154 0 0 1 0.04308,-0.0316 0.73535154,0.73535154 0 0 1 0.04452,-0.03016 0.73535154,0.73535154 0 0 1 0.02729,-0.01579 0.73535154,0.73535154 0 0 1 0.02011,-0.01008 0.73535154,0.73535154 0 0 1 0.05458,-0.02441 0.73535154,0.73535154 0 0 1 0.06463,-0.02298 0.73535154,0.73535154 0 0 1 0.02011,-0.0058 0.73535154,0.73535154 0 0 1 0.04884,-0.01152 0.73535154,0.73535154 0 0 1 0.01866,-0.0029 0.73535154,0.73535154 0 0 1 0.05746,-0.0085 0.73535154,0.73535154 0 0 1 0.01292,0 0.73535154,0.73535154 0 0 1 0.05315,-0.0029 z m -2.611073,0.519919 a 0.73535154,0.73535154 0 0 1 0.531403,0.215432 0.73535154,0.73535154 0 0 1 -1.039809,0 0.73535154,0.73535154 0 0 1 0.508429,-0.215432 z m 5.222146,0 a 0.73535154,0.73535154 0 0 1 0.50843,0.215432 0.73535154,0.73535154 0 0 1 -1.039809,0 0.73535154,0.73535154 0 0 1 0.531409,-0.215432 z m -4.182336,1.03981 a 0.73535154,0.73535154 0 0 1 0.531409,0.215431 0.73535154,0.73535154 0 0 1 0.189578,0.709499 0.73535154,0.73535154 0 0 1 -0.709497,-0.189579 0.73535154,0.73535154 0 0 1 -0.189579,-0.709499 0.73535154,0.73535154 0 0 1 0.178096,-0.02585 z m 3.142452,0 a 0.73535154,0.73535154 0 0 1 0.178097,0.02585 0.73535154,0.73535154 0 0 1 -0.189587,0.709498 0.73535154,0.73535154 0 0 1 -0.709499,0.189579 0.73535154,0.73535154 0 0 1 0.18958,-0.709499 0.73535154,0.73535154 0 0 1 0.531409,-0.215431 z m -1.571265,1.255286 a 0.73535154,0.73535154 0 0 1 0,1.039808 0.73535154,0.73535154 0 0 1 0,-1.039808 z"/>
 <path style="fill:#ffc510" d="m 12.948074,14.003771 c -0.793732,-0.04188 -1.571039,0.220983 -2.147194,0.797108 -1.1522353,1.152235 -1.0490353,3.110277 0.231234,4.390539 L 11.840697,20 11.032114,20.808583 c -1.2802613,1.28026 -1.3834623,3.238303 -0.231234,4.390538 1.152228,1.152235 3.110278,1.049035 4.390537,-0.231234 L 16,24.159304 l 0.808582,0.808583 c 1.280262,1.280261 3.238304,1.383462 4.390539,0.231234 1.152235,-1.152228 1.049034,-3.110278 -0.231234,-4.390538 L 20.159304,20 20.967887,19.191418 c 1.280261,-1.280262 1.383462,-3.238304 0.231234,-4.390539 -1.152228,-1.152236 -3.110277,-1.049034 -4.390539,0.231235 L 16,15.840695 15.191417,15.032114 C 14.551274,14.391968 13.741806,14.04563 12.947999,14.003779 Z m 3.052,2.876801 a 0.73535154,0.73535154 0 0 1 0,1.03981 0.73535154,0.73535154 0 0 1 0,-1.03981 z m -1.051508,1.344012 a 0.73535154,0.73535154 0 0 1 0.201077,0.02585 0.73535154,0.73535154 0 0 1 -0.18958,0.709499 0.73535154,0.73535154 0 0 1 -0.709497,0.18958 0.73535154,0.73535154 0 0 1 0.189578,-0.709499 0.73535154,0.73535154 0 0 1 0.508429,-0.215433 z m 2.102644,0 a 0.73535154,0.73535154 0 0 1 0.508429,0.215433 0.73535154,0.73535154 0 0 1 0.189587,0.709498 0.73535154,0.73535154 0 0 1 -0.709499,-0.189579 0.73535154,0.73535154 0 0 1 -0.18958,-0.709499 0.73535154,0.73535154 0 0 1 0.20107,-0.02585 z m -1.05136,1.03981 a 0.73535154,0.73535154 0 0 1 0.05315,0.0029 0.73535154,0.73535154 0 0 1 0.01008,0 0.73535154,0.73535154 0 0 1 0.0029,0 0.73535154,0.73535154 0 0 1 0.05746,0.0085 0.73535154,0.73535154 0 0 1 0.01866,0.0029 0.73535154,0.73535154 0 0 1 0.04884,0.01152 0.73535154,0.73535154 0 0 1 0.02011,0.0058 0.73535154,0.73535154 0 0 1 0.06463,0.02298 0.73535154,0.73535154 0 0 1 0.05458,0.02441 0.73535154,0.73535154 0 0 1 0.02011,0.01008 0.73535154,0.73535154 0 0 1 0.02729,0.01579 0.73535154,0.73535154 0 0 1 0.04452,0.03016 0.73535154,0.73535154 0 0 1 0.0014,0 0.73535154,0.73535154 0 0 1 0.04165,0.0316 0.73535154,0.73535154 0 0 1 0.05458,0.04884 0.73535154,0.73535154 0 0 1 0.04884,0.05458 0.73535154,0.73535154 0 0 1 0.0316,0.04308 0.73535154,0.73535154 0 0 1 0.03016,0.04452 0.73535154,0.73535154 0 0 1 0.01579,0.02729 0.73535154,0.73535154 0 0 1 0.01008,0.02011 0.73535154,0.73535154 0 0 1 0.02441,0.05458 0.73535154,0.73535154 0 0 1 0.02298,0.06463 0.73535154,0.73535154 0 0 1 0.0058,0.02011 0.73535154,0.73535154 0 0 1 0.01152,0.04884 0.73535154,0.73535154 0 0 1 0.0029,0.01866 0.73535154,0.73535154 0 0 1 0.0085,0.05746 0.73535154,0.73535154 0 0 1 0,0.01292 0.73535154,0.73535154 0 0 1 0.0029,0.05315 0.73535154,0.73535154 0 0 1 -0.0029,0.05315 0.73535154,0.73535154 0 0 1 0,0.01292 0.73535154,0.73535154 0 0 1 -0.0085,0.05746 0.73535154,0.73535154 0 0 1 -0.0029,0.01866 0.73535154,0.73535154 0 0 1 -0.01152,0.04884 0.73535154,0.73535154 0 0 1 -0.0058,0.02011 0.73535154,0.73535154 0 0 1 -0.02298,0.06463 0.73535154,0.73535154 0 0 1 -0.02441,0.05458 0.73535154,0.73535154 0 0 1 -0.01008,0.02011 0.73535154,0.73535154 0 0 1 -0.01579,0.02729 0.73535154,0.73535154 0 0 1 -0.03016,0.04452 0.73535154,0.73535154 0 0 1 -0.0316,0.04308 0.73535154,0.73535154 0 0 1 -0.04884,0.05458 0.73535154,0.73535154 0 0 1 -0.05458,0.04884 0.73535154,0.73535154 0 0 1 -0.04165,0.0316 0.73535154,0.73535154 0 0 1 -0.0014,0 0.73535154,0.73535154 0 0 1 -0.04452,0.03016 0.73535154,0.73535154 0 0 1 -0.02729,0.01579 0.73535154,0.73535154 0 0 1 -0.02011,0.01008 0.73535154,0.73535154 0 0 1 -0.05458,0.02441 0.73535154,0.73535154 0 0 1 -0.06463,0.02298 0.73535154,0.73535154 0 0 1 -0.02011,0.0058 0.73535154,0.73535154 0 0 1 -0.04884,0.01152 0.73535154,0.73535154 0 0 1 -0.01866,0.0029 0.73535154,0.73535154 0 0 1 -0.05746,0.0085 0.73535154,0.73535154 0 0 1 -0.0029,0 0.73535154,0.73535154 0 0 1 -0.01008,0 0.73535154,0.73535154 0 0 1 -0.05315,0.0029 0.73535154,0.73535154 0 0 1 -0.05315,-0.0029 0.73535154,0.73535154 0 0 1 -0.01292,0 0.73535154,0.73535154 0 0 1 -0.05746,-0.0085 0.73535154,0.73535154 0 0 1 -0.01866,-0.0029 0.73535154,0.73535154 0 0 1 -0.04884,-0.01152 0.73535154,0.73535154 0 0 1 -0.02011,-0.0058 0.73535154,0.73535154 0 0 1 -0.06463,-0.02298 0.73535154,0.73535154 0 0 1 -0.05458,-0.02441 0.73535154,0.73535154 0 0 1 -0.02011,-0.01008 0.73535154,0.73535154 0 0 1 -0.02729,-0.01579 0.73535154,0.73535154 0 0 1 -0.04452,-0.03016 0.73535154,0.73535154 0 0 1 -0.0014,0 0.73535154,0.73535154 0 0 1 -0.04165,-0.0316 0.73535154,0.73535154 0 0 1 -0.05458,-0.04884 0.73535154,0.73535154 0 0 1 -0.04884,-0.05458 0.73535154,0.73535154 0 0 1 -0.0316,-0.04165 0.73535154,0.73535154 0 0 1 0,-0.0014 0.73535154,0.73535154 0 0 1 -0.03016,-0.04452 0.73535154,0.73535154 0 0 1 -0.01579,-0.02729 0.73535154,0.73535154 0 0 1 -0.01008,-0.02011 0.73535154,0.73535154 0 0 1 -0.02442,-0.05458 0.73535154,0.73535154 0 0 1 -0.02298,-0.06463 0.73535154,0.73535154 0 0 1 -0.0058,-0.02011 0.73535154,0.73535154 0 0 1 -0.01152,-0.04884 0.73535154,0.73535154 0 0 1 -0.0029,-0.01866 0.73535154,0.73535154 0 0 1 -0.0085,-0.05746 0.73535154,0.73535154 0 0 1 0,-0.01292 0.73535154,0.73535154 0 0 1 -0.0029,-0.05315 0.73535154,0.73535154 0 0 1 0.0029,-0.05315 0.73535154,0.73535154 0 0 1 0,-0.01292 0.73535154,0.73535154 0 0 1 0.0085,-0.05744 0.73535154,0.73535154 0 0 1 0.0029,-0.01866 0.73535154,0.73535154 0 0 1 0.01152,-0.04884 0.73535154,0.73535154 0 0 1 0.0058,-0.02011 0.73535154,0.73535154 0 0 1 0.02298,-0.06463 0.73535154,0.73535154 0 0 1 0.02442,-0.05458 0.73535154,0.73535154 0 0 1 0.01008,-0.02011 0.73535154,0.73535154 0 0 1 0.01579,-0.02729 0.73535154,0.73535154 0 0 1 0.03016,-0.04452 0.73535154,0.73535154 0 0 1 0.0316,-0.04308 0.73535154,0.73535154 0 0 1 0.04884,-0.05458 0.73535154,0.73535154 0 0 1 0.05458,-0.04884 0.73535154,0.73535154 0 0 1 0.04308,-0.0316 0.73535154,0.73535154 0 0 1 0.04452,-0.03016 0.73535154,0.73535154 0 0 1 0.02729,-0.01579 0.73535154,0.73535154 0 0 1 0.02011,-0.01008 0.73535154,0.73535154 0 0 1 0.05458,-0.02441 0.73535154,0.73535154 0 0 1 0.06463,-0.02298 0.73535154,0.73535154 0 0 1 0.02011,-0.0058 0.73535154,0.73535154 0 0 1 0.04884,-0.01152 0.73535154,0.73535154 0 0 1 0.01866,-0.0029 0.73535154,0.73535154 0 0 1 0.05746,-0.0085 0.73535154,0.73535154 0 0 1 0.01292,0 0.73535154,0.73535154 0 0 1 0.05315,-0.0029 z m -2.611073,0.519919 a 0.73535154,0.73535154 0 0 1 0.531403,0.215432 0.73535154,0.73535154 0 0 1 -1.039809,0 0.73535154,0.73535154 0 0 1 0.508429,-0.215432 z m 5.222146,0 a 0.73535154,0.73535154 0 0 1 0.50843,0.215432 0.73535154,0.73535154 0 0 1 -1.039809,0 0.73535154,0.73535154 0 0 1 0.531409,-0.215432 z m -4.182336,1.03981 a 0.73535154,0.73535154 0 0 1 0.531409,0.215431 0.73535154,0.73535154 0 0 1 0.189578,0.709499 0.73535154,0.73535154 0 0 1 -0.709497,-0.189579 0.73535154,0.73535154 0 0 1 -0.189579,-0.709499 0.73535154,0.73535154 0 0 1 0.178096,-0.02585 z m 3.142452,0 a 0.73535154,0.73535154 0 0 1 0.178097,0.02585 0.73535154,0.73535154 0 0 1 -0.189587,0.709498 0.73535154,0.73535154 0 0 1 -0.709499,0.189579 0.73535154,0.73535154 0 0 1 0.18958,-0.709499 0.73535154,0.73535154 0 0 1 0.531409,-0.215431 z m -1.571265,1.255286 a 0.73535154,0.73535154 0 0 1 0,1.039808 0.73535154,0.73535154 0 0 1 0,-1.039808 z"/>
</svg>
