<svg xmlns="http://www.w3.org/2000/svg" width="32" height="32" version="1">
 <path style="opacity:0.2" d="M 29,27.6667 V 6.3327 C 29,5.5944 28.42,4.9997 27.7,4.9997 H 4.3 C 3.5798,4.9997 3,5.59437 3,6.333 V 27.667 C 3,28.405 3.5798,29 4.3,29 h 23.4 c 0.72,0 1.3,-0.595 1.3,-1.333 z"/>
 <path fill="#555e70" d="m29 26.667v-21.334c0-0.7383-0.58-1.333-1.3-1.333h-23.4c-0.7202 0-1.3 0.59467-1.3 1.3333v21.334c0 0.738 0.5798 1.333 1.3 1.333h23.4c0.72 0 1.3-0.595 1.3-1.333z"/>
 <path style="fill:#8b9cbe" d="m 10,11.0003 v 1 h 12 v -1 z m 0,3 v 1 h 12 v -1 z m 0,3 v 1 h 12 v -1 z m 0,3 v 1 h 8 v -1 z"/>
 <path fill="#fff" opacity=".2" d="m4.2998 4c-0.7202 0-1.2998 0.5943-1.2998 1.333v1c0-0.7387 0.5796-1.333 1.2998-1.333h23.4c0.72 0 1.3 0.5943 1.3 1.333v-1c0-0.7387-0.58-1.333-1.3-1.333h-23.4z"/>
 <path style="opacity:0.2" d="m 10,12 v 1 h 12 v -1 z m 0,3 v 1 h 12 v -1 z m 0,3 v 1 h 12 v -1 z m 0,3 v 1 h 8 v -1 z"/>
</svg>
