<svg xmlns="http://www.w3.org/2000/svg" width="32" height="32" version="1.1">
 <path style="opacity:0.2" d="M 6.375,3 C 5.61325,3 5,3.6244 5,4.4 V 29.6 C 5,30.37504 5.61325,31 6.375,31 h 19.25 C 26.3862,31 27,30.37504 27,29.6 V 12 L 20,10 18,3 Z"/>
 <path style="fill:#b2bfd9" d="M 6.375,2 C 5.61325,2 5,2.6244 5,3.4 V 28.6 C 5,29.37504 5.61325,30 6.375,30 h 19.25 C 26.3862,30 27,29.37504 27,28.6 V 11 L 20,9 18,2 Z"/>
 <path style="opacity:0.2" d="M 27,12 18,3 v 7.59375 C 18,11.373375 18.62775,12 19.40625,12 Z"/>
 <path style="fill:#fafafa" d="M 27,11 18,2 V 9.59375 C 18,10.373375 18.62775,11 19.40625,11 Z"/>
 <path style="opacity:0.2;fill:#8b9cbe" d="M 6.375,2 C 5.61325,2 5,2.6247906 5,3.4003906 v 1 C 5,3.6247906 5.61325,3 6.375,3 H 18 V 2 Z"/>
 <path style="fill:#8d6e63" d="M 14.488281 14 L 14.353516 15.580078 A 4.7565336 4.7146572 0 0 0 12.964844 16.375 L 11.515625 15.699219 L 10.001953 18.296875 L 11.318359 19.203125 A 4.7565336 4.7146572 0 0 0 11.244141 20 A 4.7565336 4.7146572 0 0 0 11.314453 20.796875 L 10 21.699219 L 11.513672 24.298828 L 12.958984 23.625 A 4.7565336 4.7146572 0 0 0 14.353516 24.416016 L 14.486328 26 L 17.513672 26 L 17.646484 24.419922 A 4.7565336 4.7146572 0 0 0 19.037109 23.623047 L 20.486328 24.298828 L 22 21.699219 L 20.683594 20.794922 A 4.7565336 4.7146572 0 0 0 20.755859 20 A 4.7565336 4.7146572 0 0 0 20.6875 19.201172 L 22 18.300781 L 20.486328 15.703125 L 19.041016 16.376953 A 4.7565336 4.7146572 0 0 0 17.646484 15.583984 L 17.513672 14 L 14.488281 14 z M 16 18 A 2 2.0002222 0 0 1 18 20 A 2 2.0002222 0 0 1 16 22 A 2 2.0002222 0 0 1 14 20 A 2 2.0002222 0 0 1 16 18 z"/>
</svg>
