<svg xmlns="http://www.w3.org/2000/svg" width="32" height="32" version="1">
 <path style="opacity:0.2" d="M 30,26.5625 C 30,27.358875 29.3756,28 28.6,28 H 3.4 C 2.6244,28 2,27.358875 2,26.5625 V 6.4375 C 2,5.641125 2.6244,5 3.4,5 H 22 l 1,7 7,1 z"/>
 <path style="fill:#4f4f4f" d="M 30,25.5625 C 30,26.358875 29.3756,27 28.6,27 H 3.4 C 2.6244,27 2,26.358875 2,25.5625 V 5.4375 C 2,4.641125 2.6244,4 3.4,4 H 22 l 1,7 7,1 z"/>
 <path style="opacity:0.2" d="m 8,8 v 18 h 3 v -8 h 4 v -3 h -4 v -3 h 8 V 8 Z m 10.375,9 -0.09961,1.183594 a 3.5368762,3.5363009 0 0 0 -1.033203,0.597656 l -1.078126,-0.507812 -1.125,1.951171 0.978516,0.677735 a 3.5368762,3.5363009 0 0 0 -0.05469,0.595703 3.5368762,3.5363009 0 0 0 0.05273,0.597656 l -0.976563,0.679688 1.125,1.949218 1.076172,-0.505859 a 3.5368762,3.5363009 0 0 0 1.035157,0.59375 L 18.375,26 h 2.25 l 0.09961,-1.185547 a 3.5368762,3.5363009 0 0 0 1.033203,-0.597656 l 1.076172,0.507812 1.125,-1.949218 -0.976562,-0.679688 a 3.5368762,3.5363009 0 0 0 0.05469,-0.597656 3.5368762,3.5363009 0 0 0 -0.05078,-0.597656 l 0.97461,-0.675782 -1.125,-1.949218 -1.076172,0.505859 A 3.5368762,3.5363009 0 0 0 20.724609,18.1875 L 20.625,17 Z m 1.125,2.998047 a 1.5004884,1.5004882 0 0 1 1.5,1.5 1.5004884,1.5004882 0 0 1 -1.5,1.5 1.5004884,1.5004882 0 0 1 -1.501953,-1.5 1.5004884,1.5004882 0 0 1 1.501953,-1.5 z"/>
 <path style="opacity:0.1;fill:#8b9cbe" d="M 3.4003906,4 C 2.6247906,4 2,4.641125 2,5.4375 v 1 C 2,5.641125 2.6247906,5 3.4003906,5 H 22 V 4 Z"/>
 <path style="opacity:0.2" d="M 30,13 H 23.333333 C 22.596933,13 22,12.403047 22,11.666667 V 5 Z"/>
 <path style="fill:#676767" d="M 30,12 H 23.333333 C 22.596933,12 22,11.403047 22,10.666667 V 4 Z"/>
 <path style="fill:#3f92e7" d="m 12.850888,16.499999 -0.0014,0.0027 h 0.0014 z"/>
 <path style="fill:#ff6363" d="m 8,7 h 11 v 3.999929 H 11 V 14 h 3.99958 v 3 H 11 v 8 H 8 Z"/>
 <path style="fill:#3f92e7" d="m 18.375534,16 -0.09964,1.18398 a 3.5368762,3.5363009 0 0 0 -1.033051,0.59785 L 16.164367,17.273365 15.039,19.223706 16.017834,19.90215 a 3.5368762,3.5363009 0 0 0 -0.05422,0.596385 3.5368762,3.5363009 0 0 0 0.05129,0.597851 L 15.039,21.77483 l 1.125366,1.948876 1.075545,-0.505536 a 3.5368762,3.5363009 0 0 0 1.035982,0.593455 L 18.374059,25 h 2.250733 l 0.09964,-1.185444 a 3.5368762,3.5363009 0 0 0 1.033051,-0.597851 l 1.07701,0.507001 1.125367,-1.948876 -0.977369,-0.679909 a 3.5368762,3.5363009 0 0 0 0.05422,-0.596386 3.5368762,3.5363009 0 0 0 -0.05128,-0.59785 l 0.975903,-0.676979 -1.125366,-1.948876 -1.075546,0.505535 A 3.5368762,3.5363009 0 0 0 20.724443,17.188376 L 20.6248,16 Z m 1.123901,2.998047 a 1.5004884,1.5004882 0 0 1 1.500488,1.500488 1.5004884,1.5004882 0 0 1 -1.500488,1.500488 1.5004884,1.5004882 0 0 1 -1.500488,-1.500488 1.5004884,1.5004882 0 0 1 1.500488,-1.500488 z"/>
</svg>
