<svg xmlns="http://www.w3.org/2000/svg" width="32" height="32" version="1.1">
 <path style="opacity:0.2" d="M 6.375,3 C 5.61325,3 5,3.6244 5,4.4 V 29.6 C 5,30.37504 5.61325,31 6.375,31 h 19.25 C 26.3862,31 27,30.37504 27,29.6 V 12 L 20,10 18,3 Z"/>
 <path style="fill:#4f4f4f" d="M 6.375,2 C 5.61325,2 5,2.6244 5,3.4 V 28.6 C 5,29.37504 5.61325,30 6.375,30 h 19.25 C 26.3862,30 27,29.37504 27,28.6 V 11 L 20,9 18,2 Z"/>
 <path style="opacity:0.2" d="M 27,12 18,3 v 7.59375 C 18,11.373375 18.62775,12 19.40625,12 Z"/>
 <path style="fill:#696969" d="M 27,11 18,2 V 9.59375 C 18,10.373375 18.62775,11 19.40625,11 Z"/>
 <path style="opacity:0.1;fill:#8b9cbe" d="M 6.375,2 C 5.61325,2 5,2.6247906 5,3.4003906 v 1 C 5,3.6247906 5.61325,3 6.375,3 H 18 V 2 Z"/>
 <path style="opacity:0.2" d="M 12.492188,16.000428 A 0.50005,0.49936929 0 0 0 12,16.50824 v 2.492188 H 9.5058594 a 0.49936929,0.50005 0 1 0 0,1 H 12 v 3 H 9.5058594 a 0.49936929,0.50005 0 1 0 0,1 H 12 v 2.494141 a 0.50005,0.49936929 0 1 0 1,0 v -2.494141 h 3 v 2.494141 a 0.50005,0.49936929 0 1 0 1,0 v -2.494141 h 2.492188 A 0.49936929,0.50005 0 0 0 20,23.492616 0.49936929,0.50005 0 0 0 19.492188,23.000428 H 17 v -3 h 2.492188 A 0.49936929,0.50005 0 0 0 20,19.492616 0.49936929,0.50005 0 0 0 19.492188,19.000428 H 17 V 16.50824 A 0.50005,0.49936929 0 0 0 16.492188,16.000428 0.50005,0.49936929 0 0 0 16,16.50824 v 2.492188 H 13 V 16.50824 a 0.50005,0.49936929 0 0 0 -0.507812,-0.507812 z m 10,0 C 22.216043,16.004728 21.995679,16.232472 22,16.50824 v 6.986329 c -0.0096,0.675241 1.009563,0.675241 1,0 V 16.50824 c 0.0044,-0.281881 -0.225548,-0.512223 -0.507812,-0.507812 z m -9.492188,4 h 3 v 3 h -3 z m 9.5,6 a 0.5,0.5 0 0 0 -0.5,0.5 0.5,0.5 0 0 0 0.5,0.5 0.5,0.5 0 0 0 0.5,-0.5 0.5,0.5 0 0 0 -0.5,-0.5 z"/>
 <path style="fill:#8b9cbe" d="M 12.492188 15 A 0.50005 0.49936929 0 0 0 12 15.507812 L 12 18 L 9.5058594 18 A 0.49936929 0.50005 0 1 0 9.5058594 19 L 12 19 L 12 22 L 9.5058594 22 A 0.49936929 0.50005 0 1 0 9.5058594 23 L 12 23 L 12 25.494141 A 0.50005 0.49936929 0 1 0 13 25.494141 L 13 23 L 16 23 L 16 25.494141 A 0.50005 0.49936929 0 1 0 17 25.494141 L 17 23 L 19.492188 23 A 0.49936929 0.50005 0 0 0 20 22.492188 A 0.49936929 0.50005 0 0 0 19.492188 22 L 17 22 L 17 19 L 19.492188 19 A 0.49936929 0.50005 0 0 0 20 18.492188 A 0.49936929 0.50005 0 0 0 19.492188 18 L 17 18 L 17 15.507812 A 0.50005 0.49936929 0 0 0 16.492188 15 A 0.50005 0.49936929 0 0 0 16 15.507812 L 16 18 L 13 18 L 13 15.507812 A 0.50005 0.49936929 0 0 0 12.492188 15 z M 22.492188 15 C 22.216043 15.0043 21.995679 15.232044 22 15.507812 L 22 22.494141 C 21.9904 23.169382 23.009563 23.169382 23 22.494141 L 23 15.507812 C 23.004417 15.225931 22.774452 14.995589 22.492188 15 z M 13 19 L 16 19 L 16 22 L 13 22 L 13 19 z M 22.5 25 A 0.5 0.5 0 0 0 22 25.5 A 0.5 0.5 0 0 0 22.5 26 A 0.5 0.5 0 0 0 23 25.5 A 0.5 0.5 0 0 0 22.5 25 z"/>
</svg>
