<svg xmlns="http://www.w3.org/2000/svg" width="32" height="32" version="1">
 <path style="opacity:0.2" d="M 16,2.9999998 C 14.406386,2.9999998 1.9999999,15.546527 1.9999999,17 c 0,0.688975 3.226345,4.354512 6.603516,7.761523 C 11.808648,27.998967 15.14907,31 16,31 17.923902,31 30,18.263535 30,17 29.999794,16.101949 27.241283,12.845833 24.14707,9.7005861 20.790066,6.2857547 17.042105,2.9999998 16,2.9999998 Z"/>
 <path style="fill:#e74a99" d="M 24.147212,8.700631 C 20.790208,5.2858 17.042415,2 16.000308,2 14.406694,2 2.0000003,14.546422 2.0000003,15.999895 c 0,0.688975 3.2261232,4.355071 6.6032936,7.762083 C 8.8749338,23.586033 9.1410164,23.387443 9.3984554,23.162932 14.449703,18.425717 20.370402,14.461435 24.147212,8.700631 Z"/>
 <path style="fill:#8b9cbe;opacity:0.2" d="M 16 2 C 14.406386 2 2 14.546527 2 16 C 2 16.09996 2.08451 16.276775 2.2109375 16.492188 C 3.7870549 13.750992 14.523745 3 16 3 C 16.999816 3 20.488067 6.0356608 23.734375 9.296875 C 23.872375 9.0986036 24.013656 8.9037757 24.146484 8.7011719 C 20.78948 5.2863409 17.042107 2 16 2 z"/>
 <path style="fill:#27aae1" d="M 24.147212,8.700631 C 20.370197,14.461435 14.449497,18.425717 9.3984547,23.162932 9.1410157,23.387443 8.8749331,23.586033 8.6032939,23.761978 11.808427,26.999422 15.149585,30 16.000514,30 17.924418,30 30,17.26343 30,15.999895 29.999794,15.101844 27.241425,11.845878 24.147212,8.700631 Z"/>
 <path style="fill:#8b9cbe;opacity:0.2" d="M 24.146484 8.7011719 C 20.369469 14.461976 14.44948 18.424894 9.3984375 23.162109 C 9.1409985 23.38662 8.8751548 23.585774 8.6035156 23.761719 C 8.7968032 23.956955 8.9859865 24.133265 9.1796875 24.326172 C 9.251624 24.268359 9.3277408 24.223764 9.3984375 24.162109 C 14.44948 19.424894 20.369469 15.461976 24.146484 9.7011719 C 26.785049 12.383255 29.164414 15.131021 29.8125 16.443359 C 29.925247 16.248045 30 16.089284 30 16 C 29.999794 15.101949 27.240697 11.846419 24.146484 8.7011719 z"/>
 <path style="opacity:0.2" d="m 16.470031,13.442067 c 0,0 -1.423921,-3.029513 -4.387787,-2.33999 C 9.1188167,11.79182 2.929594,17.677447 16.005278,25 h -0.01055 c 13.07547,-7.322553 6.886687,-13.20797 3.92304,-13.897923 -2.963865,-0.689523 -4.387567,2.33999 -4.387567,2.33999 z"/>
 <path style="fill:#8b9cbe" d="m 16.470031,12.442067 c 0,0 -1.423921,-3.0295134 -4.387787,-2.33999 C 9.1188167,10.79182 2.929594,16.677447 16.005278,24 h -0.01055 c 13.07547,-7.322553 6.886687,-13.20797 3.92304,-13.897923 -2.963865,-0.6895234 -4.387567,2.33999 -4.387567,2.33999 z"/>
</svg>
