<svg xmlns="http://www.w3.org/2000/svg" width="32" height="32" version="1.1">
 <path style="opacity:0.2" d="M 6.375,3 C 5.61325,3 5,3.6244 5,4.4 V 29.6 C 5,30.37504 5.61325,31 6.375,31 h 19.25 C 26.3862,31 27,30.37504 27,29.6 V 12 L 20,10 18,3 Z"/>
 <path style="fill:#4f4f4f" d="M 6.375,2 C 5.61325,2 5,2.6244 5,3.4 V 28.6 C 5,29.37504 5.61325,30 6.375,30 h 19.25 C 26.3862,30 27,29.37504 27,28.6 V 11 L 20,9 18,2 Z"/>
 <path style="opacity:0.2" d="M 27,12 18,3 v 7.59375 C 18,11.373375 18.62775,12 19.40625,12 Z"/>
 <path style="fill:#696969" d="M 27,11 18,2 V 9.59375 C 18,10.373375 18.62775,11 19.40625,11 Z"/>
 <path style="opacity:0.1;fill:#8b9cbe" d="M 6.375,2 C 5.61325,2 5,2.6247906 5,3.4003906 v 1 C 5,3.6247906 5.61325,3 6.375,3 H 18 V 2 Z"/>
 <path style="opacity:0.2" d="m 15.98535,14 c -1.667839,0 -2.928731,0.404362 -3.896484,1.009766 C 14.556134,15.120243 14.98535,19 14.98535,19 c 0,0 -0.422645,4 -4,4 -0.858238,0 -1.464915,-0.415718 -1.902344,-1 0.296186,1.926066 1.548843,6 6.902344,6 7,0 7,-6 7,-6 0,0 0.02143,-0.298966 0.0293,-0.699219 C 22.571408,21.705573 21.925801,22 20.98535,22 c -2,0 -2,-3 -2,-3 0,0 0,-3 2,-3 0.108341,0 0.20403,0.01199 0.304688,0.01953 C 20.249489,14.864491 18.606795,14 15.98535,14 Z m -4.142578,2 c -2.142857,0 -2.857422,2.25 -2.857422,2.25 0,0 -2.79e-4,3.75 2.142578,3.75 2.555253,0 2.857422,-3 2.857422,-3 0,0 -0.311926,-3 -2.142578,-3 z m 9.357422,1.021484 c -1.2,0 -1.199219,2 -1.199219,2 0,0 -7.81e-4,2 1.199219,2 1.8,0 1.800781,-2 1.800781,-2 0,0 -7.81e-4,-2 -1.800781,-2 z M 10.98535,18 a 1,1 0 0 1 1,1 1,1 0 0 1 -1,1 1,1 0 0 1 -1,-1 1,1 0 0 1 1,-1 z m 11,0 a 1,1 0 0 1 1,1 1,1 0 0 1 -1,1 1,1 0 0 1 -1,-1 1,1 0 0 1 1,-1 z"/>
 <path style="fill:#8b9cbe" d="m 15.98535,13 c -1.667839,0 -2.928731,0.404362 -3.896484,1.009766 C 14.556134,14.120243 14.98535,18 14.98535,18 c 0,0 -0.422645,4 -4,4 -0.858238,0 -1.464915,-0.415718 -1.902344,-1 0.296186,1.926066 1.548843,6 6.902344,6 7,0 7,-6 7,-6 0,0 0.02143,-0.298966 0.0293,-0.699219 C 22.571408,20.705573 21.925801,21 20.98535,21 c -2,0 -2,-3 -2,-3 0,0 0,-3 2,-3 0.108341,0 0.20403,0.01199 0.304688,0.01953 C 20.249489,13.864491 18.606795,13 15.98535,13 Z m -4.142578,2 c -2.142857,0 -2.857422,2.25 -2.857422,2.25 0,0 -2.79e-4,3.75 2.142578,3.75 2.555253,0 2.857422,-3 2.857422,-3 0,0 -0.311926,-3 -2.142578,-3 z m 9.357422,1.021484 c -1.2,0 -1.199219,2 -1.199219,2 0,0 -7.81e-4,2 1.199219,2 1.8,0 1.800781,-2 1.800781,-2 0,0 -7.81e-4,-2 -1.800781,-2 z M 10.98535,17 a 1,1 0 0 1 1,1 1,1 0 0 1 -1,1 1,1 0 0 1 -1,-1 1,1 0 0 1 1,-1 z m 11,0 a 1,1 0 0 1 1,1 1,1 0 0 1 -1,1 1,1 0 0 1 -1,-1 1,1 0 0 1 1,-1 z"/>
</svg>
