<svg xmlns="http://www.w3.org/2000/svg" width="32" height="32" version="1">
 <path style="opacity:0.2" d="M 29,27.6667 V 6.3327 C 29,5.5944 28.42,4.9997 27.7,4.9997 H 4.3 C 3.5798,4.9997 3,5.59437 3,6.333 V 27.667 C 3,28.405 3.5798,29 4.3,29 h 23.4 c 0.72,0 1.3,-0.595 1.3,-1.333 z"/>
 <path fill="#a47a4a" d="m29 26.667v-21.334c0-0.7383-0.58-1.333-1.3-1.333h-23.4c-0.7202 0-1.3 0.59467-1.3 1.3333v21.334c0 0.738 0.5798 1.333 1.3 1.333h23.4c0.72 0 1.3-0.595 1.3-1.333z"/>
 <path style="opacity:0.1;fill:#8b9cbe" d="M 4.2998,4 C 3.5796,4 3,4.5943 3,5.333 l 0,1 C 3,5.5943 3.5796,5 4.2998,5 l 23.4,0 c 0.72,0 1.3,0.5943 1.3,1.333 l 0,-1 c 0,-0.7387 -0.58,-1.333 -1.3,-1.333 l -23.4,0 z"/>
 <path style="fill:none;stroke:#8b9cbe" d="m 8.5,16.5 6,6 9,-2"/>
 <circle style="opacity:0.2" cx="8.5" cy="17.5" r="2.5"/>
 <circle style="fill:#17191e" cx="8.5" cy="16.5" r="2.5"/>
 <circle style="opacity:0.2" cx="14.5" cy="23.5" r="2.5"/>
 <circle style="fill:#17191e" cx="14.5" cy="22.5" r="2.5"/>
 <circle style="opacity:0.2" cx="23.5" cy="21.5" r="2.5"/>
 <circle style="fill:#17191e" cx="23.5" cy="20.5" r="2.5"/>
</svg>
