<svg xmlns="http://www.w3.org/2000/svg" width="32" height="32" version="1.1">
 <path style="opacity:0.2" d="m 11.38482,3.9999955 c -0.04222,6.947e-4 -0.08484,0.0028 -0.126954,0.00586 l 0.0059,0.00977 C 10.491011,4.0578945 9.7836049,4.482517 9.3907189,5.1718755 L 1.3145469,19.353516 c -0.44425697,0.77999 -0.41681397,1.752573 0.07227,2.503906 l 4.617187,7.089844 c 0.169763,0.260601 0.387758,0.48491 0.642578,0.658203 0.37847,0.257543 0.822953,0.394505 1.277344,0.394531 l 16.1542971,0 c 0.771624,6.1e-5 1.491793,-0.395246 1.919922,-1.052734 l 4.615234,-7.089844 c 0.103243,-0.160121 0.187454,-0.332824 0.25,-0.513672 0.0012,-0.0033 0.0028,-0.0064 0.0039,-0.0098 0.226929,-0.654693 0.161274,-1.37989 -0.179688,-1.980468 L 22.609429,5.1718705 C 22.226319,4.4996666 21.545029,4.0837309 20.794976,4.023433 l 0.01367,-0.023437 -0.191406,0 -9.232422,0 z m 4.611328,8.6992185 4.707031,8.634765 -9.482422,0 4.775391,-8.634765 z"/>
 <path style="fill:#306ed2" d="M 3.7519531,20.009766 6.6214938,24.131541 6.075668,27.409053 C 6.024576,27.715846 6.3916644,28.432176 6.6464844,28.605469 7.0249538,28.863012 7.4694367,28.999974 7.9238281,29 l 16.1542969,0 c 0.771624,6.1e-5 1.491793,-0.395246 1.919922,-1.052734 l 4.615234,-7.089844 c 0.103243,-0.160121 0.187454,-0.332824 0.25,-0.513672 0.0011,-0.0033 0.0028,-0.0064 0.0039,-0.0098 0.03664,-0.105703 0.05276,-0.21566 0.07422,-0.324218 l -0.406776,-0.430571 -20.34776,0.430571 z"/>
 <path style="opacity:0.2" d="M 15.998047 11.699219 L 6.6464844 28.605469 C 6.7816522 28.697448 6.9267198 28.767651 7.0761719 28.828125 L 16.271484 12.203125 L 15.998047 11.699219 z M 1.0664062 20.011719 C 1.092512 20.14459 1.1252923 20.272834 1.1738281 20.400391 C 1.1304569 20.272702 1.0924259 20.143631 1.0664062 20.011719 z"/>
 <path style="fill:#05ab5f" d="M 11.385015,3 C 10.564248,2.9998872 9.8051682,3.4462096 9.3914039,4.1722006 L 1.314416,18.354275 c -0.44425664,0.77999 -0.41583335,1.751054 0.073246,2.502387 L 6.0034636,27.9477 c 0.1697628,0.260601 0.3884095,0.484042 0.6432295,0.657335 L 20.807857,3 Z"/>
 <path style="opacity:0.2;fill:#8b9cbe" d="M 11.384766 3 C 10.563999 2.9998872 9.8043893 3.445884 9.390625 4.171875 L 1.3144531 18.353516 C 1.0245988 18.862419 0.95717142 19.45033 1.0664062 20.007812 C 1.1179649 19.781837 1.1966822 19.560288 1.3144531 19.353516 L 9.390625 5.171875 C 9.8043893 4.445884 10.563999 3.9998872 11.384766 4 L 20.255859 4 L 20.808594 3 L 11.384766 3 z"/>
 <path style="opacity:0.2" d="M 11.384766 4 C 11.342546 4.0006947 11.299928 4.0027994 11.257812 4.0058594 L 20.527344 21.009766 L 30.513672 21.009766 L 30.613281 20.857422 C 30.716524 20.697301 30.800735 20.524598 30.863281 20.34375 C 30.864481 20.34045 30.866087 20.337384 30.867188 20.333984 C 30.899392 20.241075 30.911172 20.14402 30.931641 20.048828 C 30.929077 20.035975 30.930486 20.022581 30.927734 20.009766 L 20.527344 20.009766 L 11.798828 4 L 11.384766 4 z"/>
 <path style="fill:#ffbc3b" d="M 11.384766 3 C 11.342546 3.0006947 11.299928 3.0027994 11.257812 3.0058594 L 20.527344 20.009766 L 30.941406 20.009766 C 31.052828 19.446271 30.973412 18.857127 30.6875 18.353516 L 22.609375 4.171875 C 22.19561 3.445884 21.437955 2.9998872 20.617188 3 L 11.384766 3 z M 1.3105469 20.722656 C 1.3276099 20.754096 1.3448342 20.785796 1.3632812 20.816406 C 1.3448353 20.785786 1.3276099 20.754096 1.3105469 20.722656 z"/>
 <path style="opacity:0.2;fill:#8b9cbe" d="M 11.384766 3 C 11.342546 3.0006947 11.299929 3.0027994 11.257812 3.0058594 L 11.798828 4 L 20.617188 4 C 21.437954 3.9998872 22.19561 4.445884 22.609375 5.171875 L 30.6875 19.353516 C 30.804741 19.560023 30.878858 19.782161 30.927734 20.009766 L 30.941406 20.009766 C 31.052828 19.446271 30.973412 18.857127 30.6875 18.353516 L 22.609375 4.171875 C 22.19561 3.445884 21.437954 2.9998872 20.617188 3 L 11.384766 3 z M 1.3105469 20.722656 C 1.3276099 20.754096 1.3448342 20.785796 1.3632812 20.816406 C 1.3448353 20.785786 1.3276099 20.754096 1.3105469 20.722656 z M 1.3105469 21.722656 C 1.3276099 21.754096 1.3448353 21.785786 1.3632812 21.816406 C 1.3448342 21.785796 1.3276099 21.754096 1.3105469 21.722656 z"/>
 <path style="opacity:0.2" d="m 16.057287,11.001179 a 1.3333407,1.2501302 0 0 0 -1.209522,0.6189 l -2.333113,3.750015 -2.333113,3.750017 A 1.3333407,1.2501302 0 0 0 11.333774,21 l 4.666227,0 4.666225,0 a 1.3333407,1.2501302 0 0 0 1.152235,-1.879889 l -2.333113,-3.750017 -2.333112,-3.750015 a 1.3333407,1.2501302 0 0 0 -1.094949,-0.6189 z"/>
 <path style="fill:#8b9cbe" d="m 16.057287,10.001179 a 1.3333407,1.2501302 0 0 0 -1.209522,0.6189 l -2.333113,3.750015 -2.333113,3.750017 A 1.3333407,1.2501302 0 0 0 11.333774,20 l 4.666227,0 4.666225,0 a 1.3333407,1.2501302 0 0 0 1.152235,-1.879889 l -2.333113,-3.750017 -2.333112,-3.750015 a 1.3333407,1.2501302 0 0 0 -1.094949,-0.6189 z"/>
</svg>
