<svg xmlns="http://www.w3.org/2000/svg" width="32" height="32" version="1.1">
 <path style="opacity:0.2" d="M 3.0056,10.517 C 3.0024,10.571 3.0005,10.626 3,10.68 V 21.758 C 3.0004,22.915 3.6289,23.984 4.649,24.562 L 14.351,30.066 C 15.371,30.645 16.629,30.645 17.649,30.066 L 27.351,24.562 C 28.372,23.984 29,22.914 29,21.756 V 10.68 C 28.999,10.639 28.996,10.598 28.993,10.557 29,10.556 3.0057,10.517 3.0057,10.517 Z"/>
 <path style="fill:#c25824" d="M 3.0056,10.008 C 3.0024,10.062 3.0005,10.117 3,10.171 V 21.249 C 3.0004,22.406 3.6289,23.475 4.649,24.054 L 14.351,29.557 C 15.371,30.136 16.629,30.136 17.649,29.557 L 27.351,24.054 C 28.372,23.475 29,22.405 29,21.248 V 10.171 C 28.999,10.13 28.996,10.089 28.993,10.049 29,10.047 3.0057,10.008 3.0057,10.008 Z"/>
 <path style="fill:#f36128" d="M 16.078,1.5 V 1.5014 A 3.2999,3.2779 0 0 0 14.35,1.9378 L 4.6404,7.5068 A 3.2999,3.2779 0 0 0 3,10.135 3.2999,3.2779 0 0 0 4.6404,12.79 L 14.35,18.359 A 3.2999,3.2779 0 0 0 17.65,18.359 L 27.36,12.79 A 3.2999,3.2779 0 0 0 29,10.162 3.2999,3.2779 0 0 0 27.36,7.5068 L 17.65,1.9378 A 3.2999,3.2779 0 0 0 16.078,1.5 Z"/>
 <path style="opacity:0.2;fill:#8b9cbe" d="M 16.077,1.5 V 1.502 A 3.2999,3.2779 0 0 0 14.351,1.9372 L 4.6413,7.5059 A 3.2999,3.2779 0 0 0 3,10.135 3.2999,3.2779 0 0 0 3.0284,10.378 3.2999,3.2779 0 0 1 4.6413,8.0147 L 14.351,2.446 A 3.2999,3.2779 0 0 1 16.077,2.0108 V 2.0088 A 3.2999,3.2779 0 0 1 17.649,2.446 L 27.359,8.0147 A 3.2999,3.2779 0 0 1 28.972,10.401 3.2999,3.2779 0 0 0 29,10.161 3.2999,3.2779 0 0 0 27.359,7.5059 L 17.649,1.9372 A 3.2999,3.2779 0 0 0 16.077,1.5 Z"/>
 <path style="opacity:0.1" d="M 3.0061,10.008 C 3.004,10.044 3.003,10.08 3.002,10.115 A 3.2999,3.2779 0 0 1 3.0132,10.008 Z M 3.001,10.144 C 3.0009,10.153 3.0001,10.162 3,10.171 V 21.249 C 3.0004,22.406 3.6293,23.475 4.6494,24.054 L 14.351,29.557 C 14.876,29.855 15.414,30 16,29.991 V 18.795 A 3.2999,3.2779 0 0 1 14.35,18.359 L 4.6402,12.79 A 3.2999,3.2779 0 0 1 3.001,10.144 Z"/>
 <path style="opacity:0.1" d="M 3.0284,9.8957 A 3.2999,3.2779 0 0 0 3,10.135 3.2999,3.2779 0 0 0 4.6412,12.79 L 14.351,18.359 A 3.2999,3.2779 0 0 0 17.649,18.359 L 27.359,12.79 A 3.2999,3.2779 0 0 0 29,10.161 3.2999,3.2779 0 0 0 28.972,9.9186 3.2999,3.2779 0 0 1 27.359,12.282 L 17.649,17.85 A 3.2999,3.2779 0 0 1 14.351,17.85 L 4.6413,12.282 A 3.2999,3.2779 0 0 1 3.0284,9.8957 Z"/>
 <path style="opacity:0.2" d="M 21.994,14.677 C 19.937,15.852 17.413,16.533 16.13,16.718 15.108,16.866 13.837,16.882 12.334,16.694 11.123,15.999 10.371,15.57 9.6353,15.145 10.751,15.307 12.108,15.458 13.375,15.567 15.173,15.722 17.868,15.097 19.927,13.946 20.065,13.868 20.202,13.788 20.338,13.704 23.429,11.802 23.169,9.0968 20.627,7.5556 17.777,5.8274 13.966,5.7493 10.952,7.6285 8.9279,8.8898 8.3588,10.899 10.526,12.088 12.23,13.023 14.749,13.097 16.692,12.009 18.276,11.121 17.869,10.139 17.226,9.7576 16.614,9.3947 15.448,9.1478 14.342,9.5807 13.452,9.9291 13.175,10.989 14.985,11.127 14.222,11.62 13.033,11.742 12.111,11.255 10.311,10.304 11.432,8.831 12.772,8.2418 15.248,7.1528 17.41,7.4884 19.235,8.5941 21.124,9.7392 20.988,11.781 18.703,13.133 16.894,14.202 14.392,14.973 10.726,14.056 7.0606,13.139 6.1307,11.122 6.8573,8.9711 7.4477,7.2859 9.9645,5.4219 13.549,4.8791 17.134,4.3364 20.004,4.7238 22.674,6.3554 26.448,8.6621 26.478,12.115 21.994,14.677 V 14.677"/>
 <path style="fill:#b2bfd9" d="M 21.994,14.168 C 19.937,15.344 17.413,16.024 16.13,16.21 14.846,16.395 13.147,16.372 11.123,15.999 L 8.3856,14.429 C 9.5985,14.664 11.578,14.904 13.375,15.059 15.173,15.213 17.868,14.589 19.927,13.437 20.065,13.36 20.202,13.279 20.338,13.196 23.429,11.293 23.169,8.5882 20.627,7.0469 17.777,5.3187 13.966,5.2407 10.952,7.1198 8.9279,8.3811 8.3588,10.391 10.526,11.579 12.23,12.514 14.749,12.588 16.692,11.5 18.276,10.612 17.869,9.6305 17.226,9.249 16.614,8.886 15.448,8.6391 14.342,9.0721 13.452,9.4205 13.175,10.481 14.985,10.618 14.222,11.111 13.033,11.234 12.111,10.747 10.311,9.7957 11.432,8.3224 12.772,7.7331 15.248,6.6441 17.41,6.9798 19.235,8.0855 21.124,9.2306 20.988,11.272 18.703,12.624 16.894,13.694 14.392,14.464 10.726,13.547 7.0606,12.63 6.1307,10.614 6.8573,8.4625 7.4477,6.7773 9.9645,4.9132 13.549,4.3705 17.134,3.8277 20.004,4.2152 22.674,5.8467 26.448,8.1534 26.478,11.606 21.994,14.168"/>
</svg>
