<svg xmlns="http://www.w3.org/2000/svg" width="32" height="32" version="1.1">
 <circle style="opacity:0.2" cx="16" cy="17" r="14"/>
 <circle style="fill:#b2bfd9" cx="16" cy="16" r="14"/>
 <circle style="opacity:0.1" cx="16" cy="17" r="11"/>
 <circle style="fill:#c83737" cx="16" cy="16" r="11"/>
 <path style="opacity:0.2;fill-rule:evenodd" d="M 12.450889,11.000399 A 1.416903,1.3866169 0 0 0 11,12.385073 l 0,4.61347 8.94e-4,4.61347 a 1.416903,1.3866169 0 0 0 2.125141,1.202336 l 4.082412,-2.308089 4.082412,-2.306284 a 1.416903,1.3866169 0 0 0 8.94e-4,-2.401965 L 17.208421,13.49263 13.126009,11.185444 a 1.416903,1.3866169 0 0 0 -0.394775,-0.150743 1.416903,1.3866169 0 0 0 -0.280401,-0.0343 z"/>
 <path style="fill:#8b9cbe;fill-rule:evenodd" d="M 12.450889,10.000399 A 1.416903,1.3866169 0 0 0 11,11.385073 l 0,4.61347 8.94e-4,4.61347 a 1.416903,1.3866169 0 0 0 2.125141,1.202336 l 4.082412,-2.308089 4.082412,-2.306284 a 1.416903,1.3866169 0 0 0 8.94e-4,-2.401965 L 17.208421,12.49263 13.126009,10.185444 a 1.416903,1.3866169 0 0 0 -0.394775,-0.150743 1.416903,1.3866169 0 0 0 -0.280401,-0.0343 z"/>
 <path style="fill:#8b9cbe;opacity:0.2" d="M 16 2 A 14 14 0 0 0 2 16 A 14 14 0 0 0 2.0214844 16.585938 A 14 14 0 0 1 16 3 A 14 14 0 0 1 29.978516 16.414062 A 14 14 0 0 0 30 16 A 14 14 0 0 0 16 2 z"/>
</svg>
