<svg xmlns="http://www.w3.org/2000/svg" width="32" height="32" version="1.1">
 <path style="opacity:0.2" d="M 6.375,3 C 5.61325,3 5,3.6244 5,4.4 V 29.6 C 5,30.37504 5.61325,31 6.375,31 h 19.25 C 26.3862,31 27,30.37504 27,29.6 V 12 L 20,10 18,3 Z"/>
 <path style="fill:#1e98d1" d="M 6.375,2 C 5.61325,2 5,2.6244 5,3.4 V 28.6 C 5,29.37504 5.61325,30 6.375,30 h 19.25 C 26.3862,30 27,29.37504 27,28.6 V 11 L 20,9 18,2 Z"/>
 <path style="opacity:0.2" d="M 27,12 18,3 v 7.59375 C 18,11.373375 18.62775,12 19.40625,12 Z"/>
 <path style="fill:#67bbe9" d="M 27,11 18,2 V 9.59375 C 18,10.373375 18.62775,11 19.40625,11 Z"/>
 <path style="opacity:0.2;fill:#8b9cbe" d="M 6.375,2 C 5.61325,2 5,2.6247906 5,3.4003906 v 1 C 5,3.6247906 5.61325,3 6.375,3 H 18 V 2 Z"/>
 <path style="opacity:0.2" d="M 12.099407,15.000308 A 1.0743376,1.1291358 0 0 0 11,16.12933 v 10.741888 a 1.0743376,1.1291358 0 0 0 1.611346,0.977604 l 8.851908,-5.370944 a 1.0743376,1.1291358 0 0 0 0,-1.955207 l -8.851908,-5.370945 a 1.0743376,1.1291358 0 0 0 -0.511939,-0.151418 z"/>
 <path style="fill:#8b9cbe" d="M 12.099407,14.000308 A 1.0743376,1.1291358 0 0 0 11,15.12933 v 10.741888 a 1.0743376,1.1291358 0 0 0 1.611346,0.977604 l 8.851908,-5.370944 a 1.0743376,1.1291358 0 0 0 0,-1.955207 l -8.851908,-5.370945 a 1.0743376,1.1291358 0 0 0 -0.511939,-0.151418 z"/>
</svg>
