<svg xmlns="http://www.w3.org/2000/svg" width="32" height="32" version="1.1">
 <path style="opacity:0.2" d="M 6.375,3 C 5.61325,3 5,3.6244 5,4.4 V 29.6 C 5,30.37504 5.61325,31 6.375,31 h 19.25 C 26.3862,31 27,30.37504 27,29.6 V 12 L 20,10 18,3 Z"/>
 <path style="fill:#b2bfd9" d="M 6.375,2 C 5.61325,2 5,2.6244 5,3.4 V 28.6 C 5,29.37504 5.61325,30 6.375,30 h 19.25 C 26.3862,30 27,29.37504 27,28.6 V 11 L 20,9 18,2 Z"/>
 <path style="opacity:0.2" d="M 27,12 18,3 v 7.59375 C 18,11.373375 18.62775,12 19.40625,12 Z"/>
 <path style="fill:#fafafa" d="M 27,11 18,2 V 9.59375 C 18,10.373375 18.62775,11 19.40625,11 Z"/>
 <path style="opacity:0.2;fill:#8b9cbe" d="M 6.375,2 C 5.61325,2 5,2.6247906 5,3.4003906 v 1 C 5,3.6247906 5.61325,3 6.375,3 H 18 V 2 Z"/>
 <path style="opacity:0.1" d="m 16.000003,14.000037 c -0.235171,4.68e-4 -0.47017,0.01279 -0.704101,0.03691 -0.22244,0.02238 -0.441735,0.05561 -0.657618,0.09844 -0.0096,0.0013 -0.01914,0.0027 -0.02871,0.0041 -0.202925,0.04112 -0.401247,0.09479 -0.597461,0.153124 -0.02785,0.0071 -0.05565,0.01442 -0.0834,0.02188 -0.221302,0.06881 -0.438039,0.146938 -0.649414,0.236547 -0.20883,0.08846 -0.413238,0.187011 -0.6125,0.295313 -0.395269,0.215117 -0.768873,0.467849 -1.115625,0.754687 -0.173041,0.142785 -0.339118,0.293806 -0.497656,0.45254 -0.151187,0.151451 -0.295349,0.309755 -0.432032,0.474414 -0.0081,0.0097 -0.01659,0.01898 -0.02461,0.02871 -0.110543,0.136802 -0.215891,0.277722 -0.31582,0.42246 -0.0355,0.05032 -0.07245,0.09912 -0.106641,0.150391 -0.07597,0.116306 -0.148465,0.234849 -0.217382,0.355469 -0.04853,0.08306 -0.09839,0.165019 -0.143555,0.250195 -0.05619,0.108418 -0.109526,0.218288 -0.159965,0.329497 -0.04684,0.100768 -0.09323,0.201602 -0.135352,0.304883 -0.04178,0.10567 -0.08099,0.212342 -0.117577,0.319921 -0.03981,0.113192 -0.07942,0.226053 -0.113477,0.341797 -0.02874,0.101473 -0.05517,0.203582 -0.0793,0.30625 -0.0299,0.121877 -0.06,0.243512 -0.0834,0.367774 -0.02079,0.11756 -0.03857,0.235632 -0.05332,0.354101 -0.01489,0.109886 -0.02995,0.219439 -0.03965,0.330859 -0.01934,0.202692 -0.02983,0.406131 -0.03144,0.609738 4.68e-4,0.235171 0.01279,0.47017 0.03691,0.704101 0.120353,1.196269 0.544204,2.304051 1.192187,3.247071 0.006,0.0087 0.01179,0.01735 0.01777,0.02598 0.05016,0.07206 0.101662,0.143162 0.154492,0.213281 3.72e-4,-0.0022 9.8e-4,-0.0046 0.0014,-0.0069 C 11.681025,26.888737 13.711392,28 15.999993,28 c 1.314577,0 2.541941,-0.371136 3.594336,-1.004883 l 0.0014,0.0014 c 0.01416,-0.0095 0.02829,-0.01909 0.04238,-0.02871 0.166964,-0.102226 0.329316,-0.209958 0.486719,-0.325391 0.03626,-0.02654 0.07227,-0.05343 0.108008,-0.08066 0.13821,-0.105485 0.272062,-0.215611 0.401953,-0.330859 0.05267,-0.04706 0.104633,-0.09492 0.155859,-0.143555 0.108212,-0.101969 0.212883,-0.20723 0.314453,-0.31582 0.06047,-0.06405 0.119725,-0.129226 0.177735,-0.195508 0.09542,-0.109983 0.186271,-0.223258 0.274804,-0.339063 0.04847,-0.06254 0.09587,-0.125894 0.142188,-0.190039 0.09301,-0.130559 0.179795,-0.26499 0.263867,-0.401953 0.03497,-0.05557 0.06915,-0.111631 0.102539,-0.168164 0.08326,-0.144606 0.159436,-0.293504 0.232422,-0.444336 0.0286,-0.05749 0.0564,-0.115376 0.0834,-0.173633 0.06543,-0.145316 0.123518,-0.293997 0.179101,-0.444335 0.02714,-0.07112 0.05312,-0.14268 0.07793,-0.214649 0.04824,-0.14499 0.08971,-0.292615 0.128515,-0.441601 0.02038,-0.07488 0.03951,-0.150098 0.05739,-0.225616 0.03167,-0.140841 0.05629,-0.284057 0.0793,-0.42793 0.01608,-0.09449 0.03021,-0.189303 0.04239,-0.284375 0.01451,-0.123284 0.02209,-0.248111 0.03008,-0.373242 0.01251,-0.148737 0.02026,-0.297837 0.02324,-0.44707 0,-0.236016 -0.01258,-0.468529 -0.03555,-0.698633 l -0.0014,-0.0055 c -0.02238,-0.22244 -0.05561,-0.441734 -0.09844,-0.657617 -0.0019,-0.0094 -0.0022,-0.01931 -0.0041,-0.02871 -0.04112,-0.202926 -0.09479,-0.401248 -0.153125,-0.597461 -0.0079,-0.02649 -0.01233,-0.05431 -0.02051,-0.08066 l -0.0027,-0.0096 c -0.06831,-0.219007 -0.14644,-0.433308 -0.235156,-0.642578 -0.08846,-0.20883 -0.187011,-0.413238 -0.295313,-0.6125 -0.215117,-0.395269 -0.467849,-0.768873 -0.754687,-1.115625 -0.142785,-0.173041 -0.293806,-0.339118 -0.45254,-0.497656 -0.151451,-0.151187 -0.309755,-0.295349 -0.474414,-0.432032 -0.0077,-0.0069 -0.01548,-0.01369 -0.02324,-0.02051 -0.0017,-0.0015 -0.0037,-0.0027 -0.0055,-0.0041 -0.136802,-0.110543 -0.277722,-0.215891 -0.42246,-0.31582 -0.05032,-0.0355 -0.09912,-0.07245 -0.150391,-0.106641 -0.116306,-0.07597 -0.234849,-0.148465 -0.355469,-0.217382 -0.08306,-0.04853 -0.165019,-0.09839 -0.250195,-0.143556 -0.108417,-0.05619 -0.218285,-0.109523 -0.329492,-0.15996 -0.100769,-0.04684 -0.201603,-0.09323 -0.304883,-0.135352 -0.105654,-0.04177 -0.21231,-0.08097 -0.319872,-0.117554 -0.113192,-0.03981 -0.226053,-0.07942 -0.341797,-0.113477 -0.101473,-0.02874 -0.203582,-0.05518 -0.30625,-0.0793 -0.121877,-0.0299 -0.243512,-0.06 -0.367774,-0.0834 -0.11756,-0.02079 -0.235632,-0.03857 -0.354101,-0.05332 -0.109886,-0.01489 -0.219439,-0.02995 -0.330859,-0.03965 -0.202701,-0.01935 -0.40615,-0.02984 -0.609766,-0.03145 z m -1.063672,1.010351 0.495593,2.220313 1.568164,-1.374023 v 3.839062 l 4.249915,3.254056 -1.152539,1.066407 -3.20332,-0.03282 1.79375,1.933054 c -0.797276,0.435494 -1.71241,0.683596 -2.687891,0.683596 -2.333452,0 -4.324513,-1.415435 -5.167968,-3.437109 0.441476,-1.705666 1.100864,-3.352445 2.045311,-4.271094 0.402906,-1.482731 1.189136,-2.71001 2.058985,-3.881446 z m 1.063672,5.289649 0.05059,0.596093 1.349414,0.103907 c -0.173617,-0.419676 -0.601195,-0.612991 -1.4,-0.7 z"/>
 <path style="fill:#d6342a" d="m 16.000003,13.000037 c -0.235171,4.68e-4 -0.47017,0.01279 -0.704101,0.03691 -0.22244,0.02238 -0.441735,0.05561 -0.657618,0.09844 -0.0096,0.0013 -0.01914,0.0027 -0.02871,0.0041 -0.202925,0.04112 -0.401247,0.09479 -0.597461,0.153124 -0.02785,0.0071 -0.05565,0.01442 -0.0834,0.02188 -0.221302,0.06881 -0.438039,0.146938 -0.649414,0.236547 -0.20883,0.08846 -0.413238,0.187011 -0.6125,0.295313 -0.395269,0.215117 -0.768873,0.467849 -1.115625,0.754687 -0.173041,0.142785 -0.339118,0.293806 -0.497656,0.45254 -0.151187,0.151451 -0.295349,0.309755 -0.432032,0.474414 -0.0081,0.0097 -0.01659,0.01898 -0.02461,0.02871 -0.110543,0.136802 -0.215891,0.277722 -0.31582,0.42246 -0.0355,0.05032 -0.07245,0.09912 -0.106641,0.150391 -0.07597,0.116306 -0.148465,0.234849 -0.217382,0.355469 -0.04853,0.08306 -0.09839,0.165019 -0.143555,0.250195 -0.05619,0.108418 -0.109526,0.218288 -0.159965,0.329497 -0.04684,0.100768 -0.09323,0.201602 -0.135352,0.304883 -0.04178,0.10567 -0.08099,0.212342 -0.117577,0.319921 -0.03981,0.113192 -0.07942,0.226053 -0.113477,0.341797 -0.02874,0.101473 -0.05517,0.203582 -0.0793,0.30625 -0.0299,0.121877 -0.06,0.243512 -0.0834,0.367774 -0.02079,0.11756 -0.03857,0.235632 -0.05332,0.354101 -0.01489,0.109886 -0.02995,0.219439 -0.03965,0.330859 -0.01934,0.202692 -0.02983,0.406131 -0.03144,0.609738 4.68e-4,0.235171 0.01279,0.47017 0.03691,0.704101 0.120353,1.196269 0.544204,2.304051 1.192187,3.247071 0.006,0.0087 0.01179,0.01735 0.01777,0.02598 0.05016,0.07206 0.101662,0.143162 0.154492,0.213281 3.72e-4,-0.0022 9.8e-4,-0.0046 0.0014,-0.0069 C 11.681025,25.888737 13.711392,27 15.999993,27 c 1.314577,0 2.541941,-0.371136 3.594336,-1.004883 l 0.0014,0.0014 c 0.01416,-0.0095 0.02829,-0.01909 0.04238,-0.02871 0.166964,-0.102226 0.329316,-0.209958 0.486719,-0.325391 0.03626,-0.02654 0.07227,-0.05343 0.108008,-0.08066 0.13821,-0.105485 0.272062,-0.215611 0.401953,-0.330859 0.05267,-0.04706 0.104633,-0.09492 0.155859,-0.143555 0.108212,-0.101969 0.212883,-0.20723 0.314453,-0.31582 0.06047,-0.06405 0.119725,-0.129226 0.177735,-0.195508 0.09542,-0.109983 0.186271,-0.223258 0.274804,-0.339063 0.04847,-0.06254 0.09587,-0.125894 0.142188,-0.190039 0.09301,-0.130559 0.179795,-0.26499 0.263867,-0.401953 0.03497,-0.05557 0.06915,-0.111631 0.102539,-0.168164 0.08326,-0.144606 0.159436,-0.293504 0.232422,-0.444336 0.0286,-0.05749 0.0564,-0.115376 0.0834,-0.173633 0.06543,-0.145316 0.123518,-0.293997 0.179101,-0.444335 0.02714,-0.07112 0.05312,-0.14268 0.07793,-0.214649 0.04824,-0.14499 0.08971,-0.292615 0.128515,-0.441601 0.02038,-0.07488 0.03951,-0.150098 0.05739,-0.225616 0.03167,-0.140841 0.05629,-0.284057 0.0793,-0.42793 0.01608,-0.09449 0.03021,-0.189303 0.04239,-0.284375 0.01451,-0.123284 0.02209,-0.248111 0.03008,-0.373242 0.01251,-0.148737 0.02026,-0.297837 0.02324,-0.44707 0,-0.236016 -0.01258,-0.468529 -0.03555,-0.698633 l -0.0014,-0.0055 c -0.02238,-0.22244 -0.05561,-0.441734 -0.09844,-0.657617 -0.0019,-0.0094 -0.0022,-0.01931 -0.0041,-0.02871 -0.04112,-0.202926 -0.09479,-0.401248 -0.153125,-0.597461 -0.0079,-0.02649 -0.01233,-0.05431 -0.02051,-0.08066 l -0.0027,-0.0096 c -0.06831,-0.219007 -0.14644,-0.433308 -0.235156,-0.642578 -0.08846,-0.20883 -0.187011,-0.413238 -0.295313,-0.6125 -0.215117,-0.395269 -0.467849,-0.768873 -0.754687,-1.115625 -0.142785,-0.173041 -0.293806,-0.339118 -0.45254,-0.497656 -0.151451,-0.151187 -0.309755,-0.295349 -0.474414,-0.432032 -0.0077,-0.0069 -0.01548,-0.01369 -0.02324,-0.02051 -0.0017,-0.0015 -0.0037,-0.0027 -0.0055,-0.0041 -0.136802,-0.110543 -0.277722,-0.215891 -0.42246,-0.31582 -0.05032,-0.0355 -0.09912,-0.07245 -0.150391,-0.106641 -0.116306,-0.07597 -0.234849,-0.148465 -0.355469,-0.217382 -0.08306,-0.04853 -0.165019,-0.09839 -0.250195,-0.143556 -0.108417,-0.05619 -0.218285,-0.109523 -0.329492,-0.15996 -0.100769,-0.04684 -0.201603,-0.09323 -0.304883,-0.135352 -0.105654,-0.04177 -0.21231,-0.08097 -0.319872,-0.117554 -0.113192,-0.03981 -0.226053,-0.07942 -0.341797,-0.113477 -0.101473,-0.02874 -0.203582,-0.05518 -0.30625,-0.0793 -0.121877,-0.0299 -0.243512,-0.06 -0.367774,-0.0834 -0.11756,-0.02079 -0.235632,-0.03857 -0.354101,-0.05332 -0.109886,-0.01489 -0.219439,-0.02995 -0.330859,-0.03965 -0.202701,-0.01935 -0.40615,-0.02984 -0.609766,-0.03145 z m -1.063672,1.010351 0.495593,2.220313 1.568164,-1.374023 v 3.839062 l 4.249915,3.254056 -1.152539,1.066407 -3.20332,-0.03282 1.79375,1.933054 c -0.797276,0.435494 -1.71241,0.683596 -2.687891,0.683596 -2.333452,0 -4.324513,-1.415435 -5.167968,-3.437109 0.441476,-1.705666 1.100864,-3.352445 2.045311,-4.271094 0.402906,-1.482731 1.189136,-2.71001 2.058985,-3.881446 z m 1.063672,5.289649 0.05059,0.596093 1.349414,0.103907 c -0.173617,-0.419676 -0.601195,-0.612991 -1.4,-0.7 z"/>
</svg>
