<svg xmlns="http://www.w3.org/2000/svg" width="32" height="32" version="1.1">
 <path style="opacity:0.2" d="M 6.375,3 C 5.61325,3 5,3.6244 5,4.4 V 29.6 C 5,30.3756 5.61325,31 6.375,31 h 19.25 C 26.38675,31 27,30.3756 27,29.6 V 11 L 20.125,10 19,3 Z"/>
 <path style="fill:#b2bfd9" d="M 6.375,2 C 5.61325,2 5,2.6244 5,3.4 V 28.6 C 5,29.3756 5.61325,30 6.375,30 h 19.25 C 26.38675,30 27,29.3756 27,28.6 V 10 L 20.125,9 19,2 Z"/>
 <path style="opacity:0.2" d="M 27,11 19,3 V 9.6666667 C 19,10.405333 19.594667,11 20.333333,11 Z"/>
 <path style="fill:#fafafa" d="M 27,10 19,2 V 8.6666667 C 19,9.4053333 19.594667,10 20.333333,10 Z"/>
 <path style="opacity:0.1" d="m 17.354192,19.662344 c 0.04874,0.05608 0.17811,0.180566 0.388132,0.373466 2.948049,2.990364 4.36534,4.323977 4.251307,4.682318 -0.08196,0.26359 -0.318198,0.487102 -0.70872,0.670541 -0.389879,0.172766 -0.741124,0.251107 -1.053738,0.235023 -0.247511,-0.01273 -1.422985,-0.9322 -3.525858,-3.439888 -0.424317,-0.525289 -0.673531,-0.821979 -0.747642,-0.890072 -0.308106,0.326946 -0.768656,0.999541 -1.381654,2.017789 -0.789065,1.62466 -1.827312,3.123853 -2.421953,4.840478 -0.181626,0.601245 -0.643683,0.882773 -1.38617,0.844579 -0.390787,-0.02011 -0.630888,-0.150286 -0.720298,-0.390551 -0.089417,-0.240267 -0.052852,-0.613308 0.109693,-1.119131 0.312056,-1.012307 1.812801,-3.46852 4.502239,-7.368645 -0.0153,-0.172171 -0.400651,-0.797227 -1.156059,-1.87517 -0.755421,-1.077922 -1.355156,-1.894442 -1.799211,-2.313645 -0.481123,-0.45322 -0.681383,-0.800953 -0.60078,-1.043198 0.181617,-0.601234 0.754395,-0.877065 1.718336,-0.827494 0.468937,0.02414 1.304736,1.034906 2.507403,2.896392 0.513712,0.765572 0.850199,1.23279 1.00946,1.401652 0.277326,-0.253525 0.67266,-0.72059 1.185996,-1.401194 0.513992,-0.691259 0.869447,-1.251428 1.066372,-1.680508 0.194886,-0.397022 0.502308,-0.713282 0.922272,-0.948784 0.41994,-0.235473 0.818794,-0.343501 1.196566,-0.324083 0.586162,0.03016 0.798317,0.292815 0.636461,0.787943 -0.181635,0.60126 -1.238502,1.923399 -3.170604,3.966421 -0.503925,0.531117 -0.777772,0.833037 -0.821551,0.905761"/>
 <path style="fill:#ff6600" d="m 17.354192,18.662344 c 0.04874,0.05608 0.17811,0.180566 0.388132,0.373466 2.948049,2.990364 4.36534,4.323977 4.251307,4.682318 -0.08196,0.26359 -0.318198,0.487102 -0.70872,0.670541 -0.389879,0.172766 -0.741124,0.251107 -1.053738,0.235023 -0.247511,-0.01273 -1.422985,-0.9322 -3.525858,-3.439888 -0.424317,-0.525289 -0.673531,-0.821979 -0.747642,-0.890072 -0.308106,0.326946 -0.768656,0.999541 -1.381654,2.017789 -0.789065,1.62466 -1.827312,3.123853 -2.421953,4.840478 -0.181626,0.601245 -0.643683,0.882773 -1.38617,0.844579 -0.390787,-0.02011 -0.630888,-0.150286 -0.720298,-0.390551 -0.089417,-0.240267 -0.052852,-0.613308 0.109693,-1.119131 0.312056,-1.012307 1.812801,-3.46852 4.502239,-7.368645 -0.0153,-0.172171 -0.400651,-0.797227 -1.156059,-1.87517 -0.755421,-1.077922 -1.355156,-1.894442 -1.799211,-2.313645 -0.481123,-0.45322 -0.681383,-0.800953 -0.60078,-1.043198 0.181617,-0.601234 0.754395,-0.877065 1.718336,-0.827494 0.468937,0.02414 1.304736,1.034906 2.507403,2.896392 0.513712,0.765572 0.850199,1.23279 1.00946,1.401652 0.277326,-0.253525 0.67266,-0.72059 1.185996,-1.401194 0.513992,-0.691259 0.869447,-1.251428 1.066372,-1.680508 0.194886,-0.397022 0.502308,-0.713282 0.922272,-0.948784 0.41994,-0.235473 0.818794,-0.343501 1.196566,-0.324083 0.586162,0.03016 0.798317,0.292815 0.636461,0.787943 -0.181635,0.60126 -1.238502,1.923399 -3.170604,3.966421 -0.503925,0.531117 -0.777772,0.833037 -0.821551,0.905761"/>
 <path style="opacity:0.2;fill:#8b9cbe" d="M 6.375,2 C 5.61325,2 5,2.6247906 5,3.4003906 v 1 C 5,3.6247906 5.61325,3 6.375,3 H 19 V 2 Z"/>
</svg>
