<svg xmlns="http://www.w3.org/2000/svg" width="32" height="32" version="1.1">
 <path style="opacity:0.2" d="M 6.375,3 C 5.61325,3 5,3.6244 5,4.4 V 29.6 C 5,30.37504 5.61325,31 6.375,31 h 19.25 C 26.3862,31 27,30.37504 27,29.6 V 12 L 20,10 18,3 Z"/>
 <path style="fill:#e81d62" d="M 6.375,2 C 5.61325,2 5,2.6244 5,3.4 V 28.6 C 5,29.37504 5.61325,30 6.375,30 h 19.25 C 26.3862,30 27,29.37504 27,28.6 V 11 L 20,9 18,2 Z"/>
 <path style="opacity:0.2" d="M 27,12 18,3 v 7.59375 C 18,11.373375 18.62775,12 19.40625,12 Z"/>
 <path style="fill:#f0729d" d="M 27,11 18,2 V 9.59375 C 18,10.373375 18.62775,11 19.40625,11 Z"/>
 <path style="opacity:0.2;fill:#8b9cbe" d="M 6.375,2 C 5.61325,2 5,2.6247906 5,3.4003906 v 1 C 5,3.6247906 5.61325,3 6.375,3 H 18 V 2 Z"/>
 <path style="opacity:0.2" d="m 16,15 c -2.097474,0 -3.888485,0.776281 -4.630859,1.875 -0.06232,0.09224 -0.117033,0.186668 -0.164063,0.283203 -0.04469,0.09174 -0.08319,0.184141 -0.113281,0.279297 a 5.0001094,3.0001224 0 0 0 -0.02149,0.08789 c -0.01713,0.0645 -0.03671,0.129527 -0.04687,0.195312 A 5.0001094,3.0001224 0 0 0 11,18 c 2.75e-4,0.0975 0.0094,0.194344 0.02539,0.291016 a 5.0001094,3.0001224 0 0 0 0.06836,0.28125 5.0001094,3.0001224 0 0 0 0.115234,0.28125 A 5.0001094,3.0001224 0 0 0 11.369141,19.125 5.0001094,3.0001224 0 0 0 16,21 a 5.0001094,3.0001224 0 0 0 4.632812,-1.875 5.0001094,3.0001224 0 0 0 0,-0.0039 5.0001094,3.0001224 0 0 0 0.136719,-0.230469 c 0.008,-0.01521 0.01591,-0.02965 0.02344,-0.04492 a 5.0001094,3.0001224 0 0 0 0.08398,-0.199219 c 0.01165,-0.03138 0.0252,-0.06215 0.03516,-0.09375 a 5.0001094,3.0001224 0 0 0 0.04102,-0.167968 c 0.0096,-0.044 0.01901,-0.08661 0.02539,-0.13086 A 5.0001094,3.0001224 0 0 0 21,18 5.0001094,3.0001224 0 0 0 20.972656,17.701172 C 20.924806,17.41091 20.806577,17.13451 20.630859,16.875 19.8887,15.776204 18.097189,15 16,15 Z m -4.703125,5.001953 c -0.03089,0.05201 -0.06576,0.1028 -0.0918,0.15625 -0.04469,0.09174 -0.08319,0.184141 -0.113281,0.279297 a 5.0001094,3.0001224 0 0 0 -0.02149,0.08789 c -0.01713,0.0645 -0.03672,0.129527 -0.04687,0.195312 A 5.0001094,3.0001224 0 0 0 11,21 c 2.75e-4,0.0975 0.0094,0.194344 0.02539,0.291016 a 5.0001094,3.0001224 0 0 0 0.06836,0.28125 5.0001094,3.0001224 0 0 0 0.115234,0.28125 A 5.0001094,3.0001224 0 0 0 11.369141,22.125 5.0001094,3.0001224 0 0 0 16,24 a 5.0001094,3.0001224 0 0 0 4.632812,-1.875 5.0001094,3.0001224 0 0 0 0,-0.0039 5.0001094,3.0001224 0 0 0 0.136719,-0.230469 c 0.008,-0.01521 0.01591,-0.02965 0.02344,-0.04492 a 5.0001094,3.0001224 0 0 0 0.08398,-0.199219 c 0.01165,-0.03138 0.0252,-0.06215 0.03516,-0.09375 a 5.0001094,3.0001224 0 0 0 0.04102,-0.167968 c 0.0096,-0.044 0.01901,-0.08661 0.02539,-0.13086 A 5.0001094,3.0001224 0 0 0 21,21 5.0001094,3.0001224 0 0 0 20.972656,20.701172 c -0.04009,-0.243186 -0.140092,-0.473286 -0.271484,-0.695313 a 5.0001094,3.0001224 0 0 1 -0.06836,0.115235 5.0001094,3.0001224 0 0 1 0,0.0039 A 5.0001094,3.0001224 0 0 1 16,22 5.0001094,3.0001224 0 0 1 11.369141,20.125 5.0001094,3.0001224 0 0 1 11.296875,20.001953 Z m 0,3 c -0.03089,0.05201 -0.06576,0.1028 -0.0918,0.15625 -0.04469,0.09174 -0.08319,0.184141 -0.113281,0.279297 a 5.0001094,3.0001224 0 0 0 -0.02149,0.08789 c -0.01713,0.0645 -0.03671,0.129527 -0.04687,0.195312 A 5.0001094,3.0001224 0 0 0 11,24 c 2.75e-4,0.0975 0.0094,0.194344 0.02539,0.291016 a 5.0001094,3.0001224 0 0 0 0.06836,0.28125 5.0001094,3.0001224 0 0 0 0.115234,0.28125 A 5.0001094,3.0001224 0 0 0 11.369141,25.125 5.0001094,3.0001224 0 0 0 16,27 a 5.0001094,3.0001224 0 0 0 4.632812,-1.875 5.0001094,3.0001224 0 0 0 0,-0.0039 5.0001094,3.0001224 0 0 0 0.136719,-0.230469 c 0.008,-0.01521 0.01591,-0.02965 0.02344,-0.04492 a 5.0001094,3.0001224 0 0 0 0.08398,-0.199219 c 0.01165,-0.03138 0.0252,-0.06215 0.03516,-0.09375 a 5.0001094,3.0001224 0 0 0 0.04102,-0.167968 c 0.0096,-0.044 0.01901,-0.08661 0.02539,-0.13086 A 5.0001094,3.0001224 0 0 0 21,24 5.0001094,3.0001224 0 0 0 20.972656,23.701172 c -0.04009,-0.243186 -0.140092,-0.473286 -0.271484,-0.695313 a 5.0001094,3.0001224 0 0 1 -0.06836,0.115235 5.0001094,3.0001224 0 0 1 0,0.0039 A 5.0001094,3.0001224 0 0 1 16,25 5.0001094,3.0001224 0 0 1 11.369141,23.125 5.0001094,3.0001224 0 0 1 11.296875,23.001953 Z"/>
 <path style="fill:#8b9cbe" d="m 16,14 c -2.097474,0 -3.888485,0.776281 -4.630859,1.875 -0.06232,0.09224 -0.117033,0.186668 -0.164063,0.283203 -0.04469,0.09174 -0.08319,0.184141 -0.113281,0.279297 a 5.0001094,3.0001224 0 0 0 -0.02149,0.08789 c -0.01713,0.0645 -0.03671,0.129527 -0.04687,0.195312 A 5.0001094,3.0001224 0 0 0 11,17 c 2.75e-4,0.0975 0.0094,0.194344 0.02539,0.291016 a 5.0001094,3.0001224 0 0 0 0.06836,0.28125 5.0001094,3.0001224 0 0 0 0.115234,0.28125 A 5.0001094,3.0001224 0 0 0 11.369141,18.125 5.0001094,3.0001224 0 0 0 16,20 a 5.0001094,3.0001224 0 0 0 4.632812,-1.875 5.0001094,3.0001224 0 0 0 0,-0.0039 5.0001094,3.0001224 0 0 0 0.136719,-0.230469 c 0.008,-0.01521 0.01591,-0.02965 0.02344,-0.04492 a 5.0001094,3.0001224 0 0 0 0.08398,-0.199219 c 0.01165,-0.03138 0.0252,-0.06215 0.03516,-0.09375 a 5.0001094,3.0001224 0 0 0 0.04102,-0.167968 c 0.0096,-0.044 0.01901,-0.08661 0.02539,-0.13086 A 5.0001094,3.0001224 0 0 0 21,17 5.0001094,3.0001224 0 0 0 20.972656,16.701172 C 20.924806,16.41091 20.806577,16.13451 20.630859,15.875 19.8887,14.776204 18.097189,14 16,14 Z m -4.703125,5.001953 c -0.03089,0.05201 -0.06576,0.1028 -0.0918,0.15625 -0.04469,0.09174 -0.08319,0.184141 -0.113281,0.279297 a 5.0001094,3.0001224 0 0 0 -0.02149,0.08789 c -0.01713,0.0645 -0.03672,0.129527 -0.04687,0.195312 A 5.0001094,3.0001224 0 0 0 11,20 c 2.75e-4,0.0975 0.0094,0.194344 0.02539,0.291016 a 5.0001094,3.0001224 0 0 0 0.06836,0.28125 5.0001094,3.0001224 0 0 0 0.115234,0.28125 A 5.0001094,3.0001224 0 0 0 11.369141,21.125 5.0001094,3.0001224 0 0 0 16,23 a 5.0001094,3.0001224 0 0 0 4.632812,-1.875 5.0001094,3.0001224 0 0 0 0,-0.0039 5.0001094,3.0001224 0 0 0 0.136719,-0.230469 c 0.008,-0.01521 0.01591,-0.02965 0.02344,-0.04492 a 5.0001094,3.0001224 0 0 0 0.08398,-0.199219 c 0.01165,-0.03138 0.0252,-0.06215 0.03516,-0.09375 a 5.0001094,3.0001224 0 0 0 0.04102,-0.167968 c 0.0096,-0.044 0.01901,-0.08661 0.02539,-0.13086 A 5.0001094,3.0001224 0 0 0 21,20 5.0001094,3.0001224 0 0 0 20.972656,19.701172 c -0.04009,-0.243186 -0.140092,-0.473286 -0.271484,-0.695313 a 5.0001094,3.0001224 0 0 1 -0.06836,0.115235 5.0001094,3.0001224 0 0 1 0,0.0039 A 5.0001094,3.0001224 0 0 1 16,21 5.0001094,3.0001224 0 0 1 11.369141,19.125 5.0001094,3.0001224 0 0 1 11.296875,19.001953 Z m 0,3 c -0.03089,0.05201 -0.06576,0.1028 -0.0918,0.15625 -0.04469,0.09174 -0.08319,0.184141 -0.113281,0.279297 a 5.0001094,3.0001224 0 0 0 -0.02149,0.08789 c -0.01713,0.0645 -0.03671,0.129527 -0.04687,0.195312 A 5.0001094,3.0001224 0 0 0 11,23 c 2.75e-4,0.0975 0.0094,0.194344 0.02539,0.291016 a 5.0001094,3.0001224 0 0 0 0.06836,0.28125 5.0001094,3.0001224 0 0 0 0.115234,0.28125 A 5.0001094,3.0001224 0 0 0 11.369141,24.125 5.0001094,3.0001224 0 0 0 16,26 a 5.0001094,3.0001224 0 0 0 4.632812,-1.875 5.0001094,3.0001224 0 0 0 0,-0.0039 5.0001094,3.0001224 0 0 0 0.136719,-0.230469 c 0.008,-0.01521 0.01591,-0.02965 0.02344,-0.04492 a 5.0001094,3.0001224 0 0 0 0.08398,-0.199219 c 0.01165,-0.03138 0.0252,-0.06215 0.03516,-0.09375 a 5.0001094,3.0001224 0 0 0 0.04102,-0.167968 c 0.0096,-0.044 0.01901,-0.08661 0.02539,-0.13086 A 5.0001094,3.0001224 0 0 0 21,23 5.0001094,3.0001224 0 0 0 20.972656,22.701172 c -0.04009,-0.243186 -0.140092,-0.473286 -0.271484,-0.695313 a 5.0001094,3.0001224 0 0 1 -0.06836,0.115235 5.0001094,3.0001224 0 0 1 0,0.0039 A 5.0001094,3.0001224 0 0 1 16,24 5.0001094,3.0001224 0 0 1 11.369141,22.125 5.0001094,3.0001224 0 0 1 11.296875,22.001953 Z"/>
</svg>
