<svg xmlns="http://www.w3.org/2000/svg" width="32" height="32" version="1.1">
 <path style="opacity:0.2" d="M 6.375,3 C 5.61325,3 5,3.6244 5,4.4 V 29.6 C 5,30.37504 5.61325,31 6.375,31 h 19.25 C 26.3862,31 27,30.37504 27,29.6 V 12 L 20,10 18,3 Z"/>
 <path style="fill:#fec006" d="M 6.375,2 C 5.61325,2 5,2.6244 5,3.4 V 28.6 C 5,29.37504 5.61325,30 6.375,30 h 19.25 C 26.3862,30 27,29.37504 27,28.6 V 11 L 20,9 18,2 Z"/>
 <path style="opacity:0.2" d="M 27,12 18,3 v 7.59375 C 18,11.373375 18.62775,12 19.40625,12 Z"/>
 <path style="fill:#fed861" d="M 27,11 18,2 V 9.59375 C 18,10.373375 18.62775,11 19.40625,11 Z"/>
 <path style="opacity:0.2;fill:#8b9cbe" d="M 6.375,2 C 5.61325,2 5,2.6247906 5,3.4003906 v 1 C 5,3.6247906 5.61325,3 6.375,3 H 18 V 2 Z"/>
 <path style="opacity:0.2;fill:none;stroke:#000000;stroke-width:1.36583626;stroke-linecap:square" d="m 9.6978367,21.665174 1.0562323,0.0231 c 2.078825,0.04484 4.053373,0.857633 4.790044,1.989254 1.718762,2.640152 -1.685536,3.496289 -3.053296,1.631701 -1.278174,-2.04659 -0.836486,-5.998743 1.005088,-6.492505 3.332285,-0.751583 2.984593,4.382834 5.036095,3.361 1.584622,-0.789287 0.09776,-4.576718 1.648,-5.43007 0.664432,-0.365771 1.85426,0.981344 1.85426,0.981344"/>
 <path style="fill:none;stroke:#8b9cbe;stroke-width:1.36583626;stroke-linecap:square" d="m 9.6978367,20.66545 1.0562323,0.0231 c 2.078825,0.04484 4.053373,0.857633 4.790044,1.989254 1.718762,2.640152 -1.685536,3.496289 -3.053296,1.631701 -1.278174,-2.04659 -0.836486,-5.998743 1.005088,-6.492505 3.332285,-0.751583 2.984593,4.382834 5.036095,3.361 1.584622,-0.789287 0.09776,-4.576718 1.648,-5.43007 0.664432,-0.365771 1.85426,0.981344 1.85426,0.981344"/>
</svg>
