<svg xmlns="http://www.w3.org/2000/svg" width="32" height="32" version="1.1">
 <path style="opacity:0.2" d="M 6.375,3 C 5.61325,3 5,3.6244 5,4.4 V 29.6 C 5,30.3756 5.61325,31 6.375,31 h 19.25 C 26.38675,31 27,30.3756 27,29.6 V 11 L 20.125,10 19,3 Z"/>
 <path style="fill:#00879d" d="M 6.375,2 C 5.61325,2 5,2.6244 5,3.4 V 28.6 C 5,29.3756 5.61325,30 6.375,30 h 19.25 C 26.38675,30 27,29.3756 27,28.6 V 10 L 20.125,9 19,2 Z"/>
 <path style="opacity:0.2" d="M 27,11 19,3 V 9.6666667 C 19,10.405333 19.594667,11 20.333333,11 Z"/>
 <path style="fill:#00a6c1" d="M 27,10 19,2 V 8.6666667 C 19,9.4053333 19.594667,10 20.333333,10 Z"/>
 <path style="opacity:0.2" d="m 15.382812,13.005859 c -0.309889,-0.0093 -0.61613,-0.0066 -0.916015,0.0098 -0.399845,0.02174 -0.788921,0.06593 -1.152344,0.132813 -0.707822,0.231427 -1.297473,0.534617 -1.703125,1.271484 -0.436602,0.698914 -0.589772,1.393531 -0.603516,2.083984 -0.01042,0.537753 -0.107647,1.788769 0.923829,3.182329 0.378336,0.448381 0.936438,0.923873 1.603515,1.193359 1.555059,0.475451 2.038877,-0.574735 2.826172,-2.125 -0.188658,0.825325 -0.278701,1.674825 -0.927734,2.382812 0.525703,0.824436 1.39037,1.551097 2.207031,2.276656 0.163039,0.1465 0.419831,0.228757 0.181641,0.601563 -0.346241,0.577412 -0.570966,0.94777 -0.94054,1.40625 -0.242035,0.325992 -0.398232,0.550289 -0.478515,0.808594 -0.07386,0.571911 -0.02202,1.074982 0.28125,1.623047 0.140455,0.295491 0.312344,0.574259 0.550781,0.845703 0.247844,0.301465 0.409766,0.376156 0.820312,0.226562 0.34467,-0.122748 0.592496,-0.274849 0.865235,-0.552734 0.121374,-0.201919 0.151012,-0.642257 -0.197266,-0.826172 -0.126632,-0.08141 -0.262019,-0.168138 -0.347656,-0.261719 -0.150942,-0.164941 -0.300974,-0.323974 -0.320313,-0.578125 -0.01292,-0.169754 0.228516,-0.455078 0.228516,-0.455078 0.907745,-0.829953 1.836607,-1.641638 2.301868,-2.164062 1.022684,-1.174956 1.522267,-3.121782 1.394531,-4.998047 0.0256,-1.414474 -0.571583,-2.978505 -1.564453,-4.191406 -0.61691,-0.694937 -1.301096,-1.21222 -2.289063,-1.460938 -0.85921,-0.261601 -1.814471,-0.403727 -2.744141,-0.431641 z M 19.25,18 c 0.414214,0 0.75,0.335786 0.75,0.75 0,0.414214 -0.335786,0.75 -0.75,0.75 -0.414214,0 -0.75,-0.335786 -0.75,-0.75 0,-0.414214 0.335786,-0.75 0.75,-0.75 z m -0.482422,3.222656 c 0.07242,0.0079 0.144875,0.069 0.273438,0.171875 l 2.039062,1.544922 c -0.27878,-0.0072 -0.645469,0.0854 -1.050781,0.05273 -0.880924,-0.07099 -1.931984,-0.296414 -2.017578,-0.587891 -0.04831,-0.404442 0.04474,-0.72061 0.476562,-1.041016 0.133021,-0.104976 0.206873,-0.148511 0.279297,-0.140625 z"/>
 <path style="fill:#8b9cbe" d="m 15.382812,12.005859 c -0.309889,-0.0093 -0.61613,-0.0066 -0.916015,0.0098 -0.399845,0.02174 -0.788921,0.06593 -1.152344,0.132813 -0.707822,0.231427 -1.297473,0.534617 -1.703125,1.271484 -0.436602,0.698914 -0.589772,1.393531 -0.603516,2.083984 -0.01042,0.537753 -0.107647,1.788769 0.923829,3.182329 0.378336,0.448381 0.936438,0.923873 1.603515,1.193359 1.555059,0.475451 2.038877,-0.574735 2.826172,-2.125 -0.188658,0.825325 -0.278701,1.674825 -0.927734,2.382812 0.525703,0.824436 1.39037,1.551097 2.207031,2.276656 0.163039,0.1465 0.419831,0.228757 0.181641,0.601563 -0.346241,0.577412 -0.570966,0.94777 -0.94054,1.40625 -0.242035,0.325992 -0.398232,0.550289 -0.478515,0.808594 -0.07386,0.571911 -0.02202,1.074982 0.28125,1.623047 0.140455,0.295491 0.312344,0.574259 0.550781,0.845703 0.247844,0.301465 0.409766,0.376156 0.820312,0.226562 0.34467,-0.122748 0.592496,-0.274849 0.865235,-0.552734 0.121374,-0.201919 0.151012,-0.642257 -0.197266,-0.826172 -0.126632,-0.08141 -0.262019,-0.168138 -0.347656,-0.261719 -0.150942,-0.164941 -0.300974,-0.323974 -0.320313,-0.578125 -0.01292,-0.169754 0.228516,-0.455078 0.228516,-0.455078 0.907745,-0.829953 1.836607,-1.641638 2.301868,-2.164062 1.022684,-1.174956 1.522267,-3.121782 1.394531,-4.998047 0.0256,-1.414474 -0.571583,-2.978505 -1.564453,-4.191406 -0.61691,-0.694937 -1.301096,-1.21222 -2.289063,-1.460938 -0.85921,-0.261601 -1.814471,-0.403727 -2.744141,-0.431641 z M 19.25,17 c 0.414214,0 0.75,0.335786 0.75,0.75 0,0.414214 -0.335786,0.75 -0.75,0.75 -0.414214,0 -0.75,-0.335786 -0.75,-0.75 0,-0.414214 0.335786,-0.75 0.75,-0.75 z m -0.482422,3.222656 c 0.07242,0.0079 0.144875,0.069 0.273438,0.171875 l 2.039062,1.544922 c -0.27878,-0.0072 -0.645469,0.0854 -1.050781,0.05273 -0.880924,-0.07099 -1.931984,-0.296414 -2.017578,-0.587891 -0.04831,-0.404442 0.04474,-0.72061 0.476562,-1.041016 0.133021,-0.104976 0.206873,-0.148511 0.279297,-0.140625 z"/>
 <path style="opacity:0.1;fill:#8b9cbe" d="M 6.375,2 C 5.61325,2 5,2.6247906 5,3.4003906 v 1 C 5,3.6247906 5.61325,3 6.375,3 H 19 V 2 Z"/>
</svg>
