<svg xmlns="http://www.w3.org/2000/svg" width="32" height="32" version="1.1">
 <path style="opacity:0.2" d="M 6.375,3 C 5.61325,3 5,3.6244 5,4.4 V 29.6 C 5,30.37504 5.61325,31 6.375,31 h 19.25 C 26.3862,31 27,30.37504 27,29.6 V 12 L 20,10 18,3 Z"/>
 <path style="fill:#4f4f4f" d="M 6.375,2 C 5.61325,2 5,2.6244 5,3.4 V 28.6 C 5,29.37504 5.61325,30 6.375,30 h 19.25 C 26.3862,30 27,29.37504 27,28.6 V 11 L 20,9 18,2 Z"/>
 <path style="opacity:0.2" d="M 27,12 18,3 v 7.59375 C 18,11.373375 18.62775,12 19.40625,12 Z"/>
 <path style="fill:#696969" d="M 27,11 18,2 V 9.59375 C 18,10.373375 18.62775,11 19.40625,11 Z"/>
 <path style="opacity:0.1;fill:#8b9cbe" d="M 6.375,2 C 5.61325,2 5,2.6247906 5,3.4003906 v 1 C 5,3.6247906 5.61325,3 6.375,3 H 18 V 2 Z"/>
 <path style="opacity:0.2" d="m 16.064453,15.032907 c 0,0 -0.613274,0.485584 -1.238281,0.966797 -0.642951,-0.02043 -1.9046,0.122594 -2.587891,0.371094 -0.629452,-0.398776 -1.183593,-0.837891 -1.183593,-0.837891 0,0 -0.472313,0.811903 -0.769532,1.289063 C 9.8443706,17.056402 9.4022432,17.320761 9.0078125,17.669626 8.5490472,17.487454 8.0173573,17.264857 8,17.257516 c 0.6075413,1.22543 1.0159361,2.451936 2.126953,3.189454 1.768803,-2.793539 9.987597,-2.535848 11.792969,-0.01563 1.166749,-0.60856 1.621229,-1.918151 2.080078,-3.126953 -0.05031,0.01657 -0.67536,0.226499 -1.080078,0.380859 -0.241644,-0.263077 -0.811049,-0.668029 -1.134766,-0.863281 -0.30706,-0.562285 -0.753906,-1.322266 -0.753906,-1.322266 0,0 -0.529046,0.394683 -1.142578,0.824219 -0.82887,-0.153002 -1.83063,-0.338997 -2.673828,-0.292969 -0.573998,-0.471795 -1.150391,-0.998047 -1.150391,-0.998047 z m 7.417969,4.808594 c -0.723757,1.072196 -1.901522,1.812247 -2.626953,2.210937 -0.515479,0.282394 -1.705078,0.453125 -1.705078,0.453125 l -3.123047,-1.617187 -3.140625,1.585937 c 0,0 -1.17378,-0.189144 -1.705078,-0.4375 -1.072309,-0.572418 -1.7923881,-1.24995 -2.5527348,-2.175781 0,0 0.8609387,2.08635 1.4589848,3.535156 2.534158,3.343329 9.005055,3.575479 11.826171,0.06445 0.667588,-1.504498 1.56836,-3.619141 1.56836,-3.619141 z"/>
 <path style="fill:#ffa700" d="m 16.063493,14.033712 c 0,0 -0.613089,0.484493 -1.238096,0.965706 -0.642951,-0.02043 -1.904011,0.123538 -2.587302,0.372038 -0.629452,-0.398776 -1.182539,-0.839061 -1.182539,-0.839061 0,0 -0.472622,0.813091 -0.769841,1.290251 -0.4407857,0.234432 -0.883347,0.49811 -1.2777777,0.846975 C 8.549172,16.487449 8.0173573,16.265348 8,16.258008 c 0.6075413,1.22543 1.015966,2.452481 2.126983,3.189999 1.768803,-2.793539 9.98828,-2.536063 11.793652,-0.01584 1.166749,-0.60856 1.620516,-1.917871 2.079365,-3.126674 -0.05031,0.01657 -0.674645,0.225594 -1.079363,0.379954 -0.241644,-0.263077 -0.811207,-0.667555 -1.134924,-0.862807 -0.30706,-0.562285 -0.753968,-1.321912 -0.753968,-1.321912 0,0 -0.529325,0.393691 -1.142857,0.823227 -0.82887,-0.153002 -1.831406,-0.33891 -2.674604,-0.292882 -0.573998,-0.471795 -1.150791,-0.997368 -1.150791,-0.997368 z"/>
 <path style="fill:#ffc504" d="m 8.6281673,18.862241 c 0,0 0.8611,2.084998 1.4591457,3.533804 2.534158,3.343329 9.005365,3.575755 11.826481,0.06473 0.667587,-1.504497 1.568241,-3.618841 1.568241,-3.618841 -0.723757,1.072196 -1.901626,1.81234 -2.627057,2.21103 -0.515479,0.282394 -1.704878,0.453089 -1.704878,0.453089 l -3.122627,-1.618172 -3.140568,1.585805 c 0,0 -1.173583,-0.188552 -1.704881,-0.436908 -1.072309,-0.572418 -1.79351,-1.248705 -2.5538567,-2.174536 z"/>
</svg>
