<svg xmlns="http://www.w3.org/2000/svg" width="32" height="32" version="1.1">
 <path style="opacity:0.2" d="M 6.375,3 C 5.61325,3 5,3.6244 5,4.4 V 29.6 C 5,30.3756 5.61325,31 6.375,31 h 19.25 C 26.38675,31 27,30.3756 27,29.6 V 11 L 20,10 19,3 Z"/>
 <path style="fill:#4f4f4f" d="M 6.375,2 C 5.61325,2 5,2.6244 5,3.4 V 28.6 C 5,29.3756 5.61325,30 6.375,30 h 19.25 C 26.38675,30 27,29.3756 27,28.6 V 10 L 20,9 19,2 Z"/>
 <path style="opacity:0.2" d="M 27,11 19,3 V 9.6666667 C 19,10.405333 19.594667,11 20.333333,11 Z"/>
 <path style="fill:#696969" d="M 27,10 19,2 V 8.6666667 C 19,9.4053333 19.594667,10 20.333333,10 Z"/>
 <g style="opacity:0.2" transform="matrix(-0.56298194,0,0,0.54059961,3.2173906,8.0769236)">
  <path d="m -12.04765,27.905301 h -0.94792 c -0.682502,6.332105 -3.260844,7.653505 -9.213781,7.653505 H -32.674386 L -23.15727,24.49279 c 0.341251,-0.379168 0.341251,-0.606669 0.341251,-0.606669 0,-0.189584 -0.151667,-0.379168 -0.265418,-0.530835 L -30.85438,12.131915 h 8.75878 c 6.407938,0 8.303778,1.365004 9.10003,7.355858 h 0.94792 l -1.06167,-8.531279 h -21.043821 c -0.910003,0 -0.985836,0 -0.985836,0.872086 l 9.441281,13.72588 -9.024196,10.275451 c -0.379168,0.417085 -0.379168,0.492918 -0.379168,0.606669 0,0.417084 0.379168,0.417084 0.947919,0.417084 h 21.043821 z"/>
 </g>
 <g style="fill:#b4b4b4" transform="matrix(-0.56298194,0,0,0.54059961,3.2173906,7.0769236)">
  <path style="fill:#b4b4b4" d="m -12.04765,27.905301 h -0.94792 c -0.682502,6.332105 -3.260844,7.653505 -9.213781,7.653505 H -32.674386 L -23.15727,24.49279 c 0.341251,-0.379168 0.341251,-0.606669 0.341251,-0.606669 0,-0.189584 -0.151667,-0.379168 -0.265418,-0.530835 L -30.85438,12.131915 h 8.75878 c 6.407938,0 8.303778,1.365004 9.10003,7.355858 h 0.94792 l -1.06167,-8.531279 h -21.043821 c -0.910003,0 -0.985836,0 -0.985836,0.872086 l 9.441281,13.72588 -9.024196,10.275451 c -0.379168,0.417085 -0.379168,0.492918 -0.379168,0.606669 0,0.417084 0.379168,0.417084 0.947919,0.417084 h 21.043821 z"/>
 </g>
 <path style="opacity:0.1;fill:#8b9cbe" d="M 6.375,2 C 5.61325,2 5,2.6247906 5,3.4003906 v 1 C 5,3.6247906 5.61325,3 6.375,3 H 19 V 2 Z"/>
</svg>
