<svg xmlns="http://www.w3.org/2000/svg" width="32" height="32" version="1.1">
 <path style="opacity:0.2" d="M 6.375,3 C 5.61325,3 5,3.6244 5,4.4 V 29.6 C 5,30.37504 5.61325,31 6.375,31 h 19.25 C 26.3862,31 27,30.37504 27,29.6 V 12 L 20,10 18,3 Z"/>
 <path style="fill:#b2bfd9" d="M 6.375,2 C 5.61325,2 5,2.6244 5,3.4 V 28.6 C 5,29.37504 5.61325,30 6.375,30 h 19.25 C 26.3862,30 27,29.37504 27,28.6 V 11 L 20,9 18,2 Z"/>
 <path style="opacity:0.2" d="M 27,12 18,3 v 7.59375 C 18,11.373375 18.62775,12 19.40625,12 Z"/>
 <path style="fill:#fafafa" d="M 27,11 18,2 V 9.59375 C 18,10.373375 18.62775,11 19.40625,11 Z"/>
 <path style="opacity:0.2;fill:#8b9cbe" d="M 6.375,2 C 5.61325,2 5,2.6247906 5,3.4003906 v 1 C 5,3.6247906 5.61325,3 6.375,3 H 18 V 2 Z"/>
 <path style="fill:#0c49a0" d="m 18.038868,13.802 c 0,0 -1.105667,1.918302 -1.886922,2.683277 -0.480114,0.470114 -1.059899,0.850287 -1.673337,1.124517 -1.293264,0.578139 -4.118985,1.048134 -4.118985,1.048134 l 0.72563,0.991553 -0.806254,2.199526 c 0,0 2.536092,0.320318 3.756875,0.678954 0.616851,0.181215 1.248242,0.378239 1.780835,0.738362 0.915596,0.619095 2.318343,2.370677 2.318343,2.370677 l 0.557308,-1.116028 1.971795,-0.124476 c 0,0 -0.728593,-2.448431 -0.892543,-3.710195 -0.08284,-0.637559 -0.158693,-1.29678 -0.04385,-1.929358 0.197441,-1.087482 1.234847,-3.076506 1.234847,-3.076506 l -1.901068,-0.09336 z m -0.589842,3.348088 c 0.101058,0.01045 0.166137,0.03213 0.196617,0.04525 0.07844,0.05988 0.159422,0.115962 0.244703,0.166907 0.16224,0.09668 0.328625,0.173167 0.497899,0.229152 0.198219,0.211891 0.563275,0.813277 0.601158,2.394722 0.03873,1.593532 -0.378022,2.207214 -0.605403,2.424427 -0.234343,0.119148 -0.453879,0.278033 -0.650658,0.471024 -0.216103,0.08581 -0.832222,0.181119 -2.131634,-0.601154 -1.407173,-0.848059 -1.615939,-1.556863 -1.646458,-1.769523 0.02001,-0.258004 0.0069,-0.515578 -0.03253,-0.766652 l 0.0087,0.01555 c 0,0 -0.11502,-0.68953 1.495111,-1.811958 1.080857,-0.752973 1.719485,-0.828995 2.022714,-0.797767 z"/>
 <path style="opacity:0.1" d="M 19.5,14 A 2.5,2.5 0 0 0 17,16.5 2.5,2.5 0 0 0 19.5,19 2.5,2.5 0 0 0 22,16.5 2.5,2.5 0 0 0 19.5,14 Z m -8,5 A 2.5,2.5 0 0 0 9,21.5 2.5,2.5 0 0 0 11.5,24 2.5,2.5 0 0 0 14,21.5 2.5,2.5 0 0 0 11.5,19 Z m 8,4 A 2.5,2.5 0 0 0 17,25.5 2.5,2.5 0 0 0 19.5,28 2.5,2.5 0 0 0 22,25.5 2.5,2.5 0 0 0 19.5,23 Z"/>
 <circle style="fill:#246dd4" cx="11.5" cy="20.5" r="2.5"/>
 <circle style="fill:#246dd4" cx="19.5" cy="15.5" r="2.5"/>
 <circle style="fill:#246dd4" cx="19.5" cy="24.5" r="2.5"/>
</svg>
