<svg xmlns="http://www.w3.org/2000/svg" width="32" height="32" version="1">
 <path style="opacity:0.2" d="M 2,11.9 2,28.599609 C 2,29.375209 2.6247906,30 3.4003906,30 L 28.599609,30 C 29.375209,30 30,29.375209 30,28.599609 L 30,11.9 Z"/>
 <path style="fill:#b2bfd9" d="M 2,10.9 2,27.599609 C 2,28.375209 2.6247906,29 3.4003906,29 L 28.599609,29 C 29.375209,29 30,28.375209 30,27.599609 L 30,10.9 Z"/>
 <path style="opacity:0.2" d="M 30,12 30,6.4 C 30,5.6244 29.3756,5 28.6,5 L 3.4,5 C 2.6244,5 2,5.6244 2,6.4 L 2,12 Z"/>
 <path style="fill:#f54b3e" d="M 30,11 30,5.4 C 30,4.6244 29.3756,4 28.6,4 L 3.4,4 C 2.6244,4 2,4.6244 2,5.4 L 2,11 Z"/>
 <rect style="opacity:0.2" width="4" height="4" x="17" y="12"/>
 <rect style="opacity:0.2" width="4" height="4" x="23" y="12"/>
 <rect style="opacity:0.2" width="4" height="4" x="11" y="12"/>
 <rect style="opacity:0.2" width="4" height="4" x="5" y="12"/>
 <circle style="opacity:0.2" cx="19" cy="21" r="2"/>
 <circle style="fill:#f54b3e" cx="19" cy="20" r="2"/>
 <circle style="opacity:0.2" cx="7.5" cy="8.5" r="1.5"/>
 <circle style="fill:#8b9cbe" cx="7.5" cy="7.5" r="1.5"/>
 <circle style="opacity:0.2" cx="24.5" cy="8.5" r="1.5"/>
 <circle style="fill:#8b9cbe" cx="24.5" cy="7.5" r="1.5"/>
 <rect style="opacity:0.2" width="4" height="4" x="23" y="18"/>
 <rect style="opacity:0.2" width="4" height="4" x="11" y="18"/>
 <rect style="opacity:0.2" width="4" height="4" x="5" y="18"/>
 <rect style="opacity:0.2" width="4" height="4" x="17" y="24"/>
 <rect style="opacity:0.2" width="4" height="4" x="23" y="24"/>
 <rect style="opacity:0.2" width="4" height="4" x="11" y="24"/>
 <rect style="opacity:0.2" width="4" height="4" x="5" y="24"/>
 <path style="fill:#8b9cbe;opacity:0.2" d="M 3.4003906 4 C 2.6247906 4 2 4.6247906 2 5.4003906 L 2 6.4003906 C 2 5.6247906 2.6247906 5 3.4003906 5 L 28.599609 5 C 29.375209 5 30 5.6247906 30 6.4003906 L 30 5.4003906 C 30 4.6247906 29.375209 4 28.599609 4 L 3.4003906 4 z"/>
</svg>
