<svg xmlns="http://www.w3.org/2000/svg" width="32" height="32" version="1.1">
 <path style="opacity:0.2" d="M 6.375,3 C 5.61325,3 5,3.6244 5,4.4 V 29.6 C 5,30.37504 5.61325,31 6.375,31 h 19.25 C 26.3862,31 27,30.37504 27,29.6 V 12 L 20,10 18,3 Z"/>
 <path style="fill:#b2bfd9" d="M 6.375,2 C 5.61325,2 5,2.6244 5,3.4 V 28.6 C 5,29.37504 5.61325,30 6.375,30 h 19.25 C 26.3862,30 27,29.37504 27,28.6 V 11 L 20,9 18,2 Z"/>
 <path style="opacity:0.2" d="M 27,12 18,3 v 7.59375 C 18,11.373375 18.62775,12 19.40625,12 Z"/>
 <path style="fill:#fafafa" d="M 27,11 18,2 V 9.59375 C 18,10.373375 18.62775,11 19.40625,11 Z"/>
 <path style="opacity:0.2;fill:#8b9cbe" d="M 6.375,2 C 5.61325,2 5,2.6247906 5,3.4003906 v 1 C 5,3.6247906 5.61325,3 6.375,3 H 18 V 2 Z"/>
 <path style="fill:#3173c9" d="M 11.6875 15 C 11.6875 15 10 15.012461 10 16.755859 L 10 22.257812 C 10 23.224006 10.764727 23.999501 11.714844 24 L 15.646484 24 L 17.765625 26 L 19.882812 24 L 20.285156 24 C 20.285156 24 22 24.001209 22 22.257812 L 22 16.755859 C 22 15.012463 20.285156 15 20.285156 15 L 11.6875 15 z M 12 17 L 20 17 L 20 18 L 12 18 L 12 17 z M 12 19 L 16 19 L 16 20 L 12 20 L 12 19 z M 12 21 L 19 21 L 19 22 L 12 22 L 12 21 z"/>
</svg>
