<svg xmlns="http://www.w3.org/2000/svg" width="32" height="32" version="1.1">
 <path style="opacity:0.2" d="M 6.375,3 C 5.61325,3 5,3.6244 5,4.4 V 29.6 C 5,30.37504 5.61325,31 6.375,31 h 19.25 C 26.3862,31 27,30.37504 27,29.6 V 12 L 20,10 18,3 Z"/>
 <path style="fill:#b2bfd9" d="M 6.375,2 C 5.61325,2 5,2.6244 5,3.4 V 28.6 C 5,29.37504 5.61325,30 6.375,30 h 19.25 C 26.3862,30 27,29.37504 27,28.6 V 11 L 20,9 18,2 Z"/>
 <path style="opacity:0.2" d="M 27,12 18,3 v 7.59375 C 18,11.373375 18.62775,12 19.40625,12 Z"/>
 <path style="fill:#fafafa" d="M 27,11 18,2 V 9.59375 C 18,10.373375 18.62775,11 19.40625,11 Z"/>
 <path style="opacity:0.2;fill:#8b9cbe" d="M 6.375,2 C 5.61325,2 5,2.6247906 5,3.4003906 v 1 C 5,3.6247906 5.61325,3 6.375,3 H 18 V 2 Z"/>
 <path style="fill:#d74c4c" d="m 11,24 h 1 V 20.299714 L 14.000001,21.728286 16,20.299714 V 24 h 1 V 19 H 16 L 14.000001,20.428571 12,19 h -1"/>
 <path style="fill:#d74c4c" d="m 19,19 v 3 h -1.5 l 1.5,2 h 1 l 1.5,-2 H 20 v -3 z"/>
 <path style="fill:#d74c4c" d="M 8.9010409,17.000001 C 8.4111919,17.000001 8,17.397126 8,17.872539 v 7.252974 C 8,25.600926 8.4111919,26 8.9010409,26 H 23.098958 C 23.588808,26 23.999999,25.600926 24,25.125513 v -7.252974 c 0,-0.475413 -0.411192,-0.872538 -0.901042,-0.872538 z M 9,18 h 14 v 7 H 9 Z"/>
</svg>
