<svg xmlns="http://www.w3.org/2000/svg" width="32" height="32" version="1.1">
 <path style="opacity:0.2" d="M 6.375,3 C 5.61325,3 5,3.6244 5,4.4 V 29.6 C 5,30.37504 5.61325,31 6.375,31 h 19.25 C 26.3862,31 27,30.37504 27,29.6 V 12 L 20,10 18,3 Z"/>
 <path style="fill:#b2bfd9" d="M 6.375,2 C 5.61325,2 5,2.6244 5,3.4 V 28.6 C 5,29.37504 5.61325,30 6.375,30 h 19.25 C 26.3862,30 27,29.37504 27,28.6 V 11 L 20,9 18,2 Z"/>
 <path style="opacity:0.2" d="M 27,12 18,3 v 7.59375 C 18,11.373375 18.62775,12 19.40625,12 Z"/>
 <path style="fill:#fafafa" d="M 27,11 18,2 V 9.59375 C 18,10.373375 18.62775,11 19.40625,11 Z"/>
 <path style="opacity:0.2;fill:#8b9cbe" d="M 6.375,2 C 5.61325,2 5,2.6247906 5,3.4003906 v 1 C 5,3.6247906 5.61325,3 6.375,3 H 18 V 2 Z"/>
 <path style="fill:#3084e0" d="M 16.175781 14 C 14.398181 14 13.05967 15.023019 13 16.291016 L 13 17 L 11.291016 17 C 10.021616 17 9 18.497791 9 20.275391 L 9 21.791016 C 9 23.568616 10.021616 25 11.291016 25 L 13 25 L 13 23.166016 C 13 22.150349 13.783161 21 14.798828 21 L 18.166016 21 C 18.166016 21 20 21.034506 20 19.201172 L 20 16.291016 C 20 15.021616 18.568616 14 16.791016 14 L 16.175781 14 z M 14.5 16 C 14.776143 16 15 16.223857 15 16.5 C 15 16.776143 14.776143 17 14.5 17 C 14.223857 17 14 16.776143 14 16.5 C 14 16.223857 14.223857 16 14.5 16 z"/>
 <path style="fill:#ffa923" d="M 16.824219,28 C 18.601819,28 19.94033,26.976981 20,25.708984 V 25 h 1.708984 C 22.978384,25 24,23.502209 24,21.724609 V 20.208984 C 24,18.431384 22.978384,17 21.708984,17 H 20 v 1.833984 C 20,19.849651 19.216839,21 18.201172,21 H 14.833984 C 14.833984,21 13,20.965494 13,22.798828 v 2.910156 C 13,26.978384 14.431384,28 16.208984,28 Z M 18.5,26 C 18.223857,26 18,25.776143 18,25.5 18,25.223857 18.223857,25 18.5,25 c 0.276143,0 0.5,0.223857 0.5,0.5 0,0.276143 -0.223857,0.5 -0.5,0.5 z"/>
</svg>
