<svg xmlns="http://www.w3.org/2000/svg" width="32" height="32" version="1.1">
 <path style="opacity:0.2" d="M 6.375,3 C 5.61325,3 5,3.6244 5,4.4 V 29.6 C 5,30.37504 5.61325,31 6.375,31 h 19.25 C 26.3862,31 27,30.37504 27,29.6 V 12 L 20,10 18,3 Z"/>
 <path style="fill:#b2bfd9" d="M 6.375,2 C 5.61325,2 5,2.6244 5,3.4 V 28.6 C 5,29.37504 5.61325,30 6.375,30 h 19.25 C 26.3862,30 27,29.37504 27,28.6 V 11 L 20,9 18,2 Z"/>
 <path style="opacity:0.2" d="M 27,12 18,3 v 7.59375 C 18,11.373375 18.62775,12 19.40625,12 Z"/>
 <path style="fill:#fafafa" d="M 27,11 18,2 V 9.59375 C 18,10.373375 18.62775,11 19.40625,11 Z"/>
 <path style="opacity:0.2;fill:#8b9cbe" d="M 6.375,2 C 5.61325,2 5,2.6247906 5,3.4003906 v 1 C 5,3.6247906 5.61325,3 6.375,3 H 18 V 2 Z"/>
 <path style="fill:#1e62b2;fill-rule:evenodd" d="m 19.210469,21.800169 c 0,0 0.349302,-0.0104 0.697645,0.172641 0.120884,0.06305 0.330026,0.190581 0.480892,0.357177 0.147777,0.163215 0.219828,0.328641 0.219828,0.328641 L 23,27 H 18.578932 C 17.838719,25.542043 17.209664,23.567582 16.266082,22.269525 16.078502,22.111575 15.922502,22 15.736817,22 h -0.73709 l 5.47e-4,4.997465 H 11 V 14 h 6.837497 c 0.741224,0 4.052923,0.650003 4.162503,3.90002 -0.109623,3.250016 -2.789761,3.900019 -2.789761,3.900019 z M 15.000187,16.999155 V 20 h 2.315538 c 0,0 0.631582,0.149889 0.631582,-1.602 0,-1.498127 -0.631582,-1.397155 -0.631582,-1.397155 z"/>
</svg>
