<svg xmlns="http://www.w3.org/2000/svg" width="32" height="32" version="1.1">
 <path style="opacity:0.2" d="M 6.375,3 C 5.61325,3 5,3.6244 5,4.4 V 29.6 C 5,30.37504 5.61325,31 6.375,31 h 19.25 C 26.3862,31 27,30.37504 27,29.6 V 12 L 20,10 18,3 Z"/>
 <path style="fill:#404b8b" d="M 6.375,2 C 5.61325,2 5,2.6244 5,3.4 V 28.6 C 5,29.37504 5.61325,30 6.375,30 h 19.25 C 26.3862,30 27,29.37504 27,28.6 V 11 L 20,9 18,2 Z"/>
 <path style="opacity:0.2" d="M 27,12 18,3 v 7.59375 C 18,11.373375 18.62775,12 19.40625,12 Z"/>
 <path style="fill:#6672ba" d="M 27,11 18,2 V 9.59375 C 18,10.373375 18.62775,11 19.40625,11 Z"/>
 <path style="opacity:0.1;fill:#8b9cbe" d="M 6.375,2 C 5.61325,2 5,2.6247906 5,3.4003906 v 1 C 5,3.6247906 5.61325,3 6.375,3 H 18 V 2 Z"/>
 <path style="opacity:0.2" d="m 11.99995,16 v 1 h 0.004 l 2.2959,3.9746 -2.2998,3.9824 V 26 h 8 v -2 h -1 v 1 h -5.869 l 2.0205,-3.5 0.30274,-0.5244 v -0.001 L 15.15155,20.4502 13.15935,17 h 4.8408 v 0.5 h 1 V 16 h -7 z"/>
 <path style="fill:#f26265" d="m 11.99995,15 v 1 h 0.004 l 2.2959,3.9746 -2.2998,3.9824 V 25 h 8 v -2 h -1 v 1 h -5.869 l 2.0205,-3.5 0.30274,-0.5244 v -0.001 L 15.15155,19.4502 13.15935,16 h 4.8408 v 0.5 h 1 V 15 h -7 z"/>
</svg>
