<svg xmlns="http://www.w3.org/2000/svg" width="32" height="32" version="1">
 <path fill="#b2bfd9" d="m12 3-2 2v3h-8v18.5c0 0.831 0.669 1.5 1.5 1.5h25c0.831 0 1.5-0.669 1.5-1.5v-18.5h-8v-3l-2-2zm0 2h8v3h-8z"/>
 <path opacity=".2" d="m12 5v1h8v-1h-8zm-10 21.5v1c0 0.831 0.669 1.5 1.5 1.5h25c0.831 0 1.5-0.669 1.5-1.5v-1c0 0.831-0.669 1.5-1.5 1.5h-25c-0.831 0-1.5-0.669-1.5-1.5z"/>
 <circle fill="#4ab3e4" cx="24.5" cy="23.5" r="7.5"/>
 <path fill="#fff" d="m26 18.96v4.04l1.5-0.04-3 4.04-3-4.04h1.5v-4h3zm-5 8.0402h7v1h-7z"/>
 <path fill-rule="evenodd" opacity=".2" d="m31.979 23.947a7.5 7.5 0 0 1 -7.479 7.053 7.5 7.5 0 0 1 -7.479 -6.947 7.5 7.5 0 0 0 -0.021 0.447 7.5 7.5 0 0 0 7.5 7.5 7.5 7.5 0 0 0 7.5 -7.5 7.5 7.5 0 0 0 -0.021 -0.553z"/>
</svg>
