<svg xmlns="http://www.w3.org/2000/svg" width="16" height="16" version="1">
 <path style="fill:#ffa50c" d="M 8,1 C 4.122,1 1,4.122 1,8 c 0,3.878 3.122,7 7,7 3.878,0 7,-3.122 7,-7 C 15,4.122 11.878,1 8,1 Z"/>
 <ellipse style="fill:#7f2a23" cx="13.732" cy="-2.365" rx="1.732" ry="2.236" transform="matrix(0.44017042,0.89791425,-0.82693623,0.56229572,0,0)"/>
 <path style="fill:#17191e" d="m 7,6.0615402 c 0,0.5522847 -0.4477153,0 -1,0 -0.5522847,0 -1,0.5522847 -1,0 0,-0.5522847 0.4477153,-1 1,-1 0.5522847,0 1,0.4477153 1,1 z"/>
 <path style="fill:#17191e" d="m 11.1,6.0492672 c 0,0.5798989 -0.470101,0 -1.05,0 -0.5798989,0 -1.05,0.5798989 -1.05,0 0,-0.5798989 0.4701011,-1.05 1.05,-1.05 0.579899,0 1.05,0.4701011 1.05,1.05 z"/>
</svg>
