<svg xmlns="http://www.w3.org/2000/svg" width="16" height="16" version="1">
 <path style="fill:#ffa50c" d="M 8,1 C 4.122,1 1,4.122 1,8 c 0,3.878 3.122,7 7,7 3.878,0 7,-3.122 7,-7 C 15,4.122 11.878,1 8,1 Z"/>
 <path style="fill:#7f2a23" d="M 11,10.485714 C 11,11.274692 9.6568543,12 8,12 6.3431456,12 5,11.274692 5,10.485714 5,10 6.3431456,10 8,10 c 1.6568543,0 3,0 3,0.485714 z"/>
 <path style="fill:#2e84d7" d="M 2.5256195,9.8649474 C 2.013272,9.5691435 1.8797495,8.8836275 2.1063888,8.4910766 2.2636973,8.2186104 2.5770646,7.9821361 3.0111115,7.6541216 3.0737937,7.6063904 3.1397288,7.5572245 3.2070971,7.5055743 3.5518776,7.2419634 3.9773635,6.9896148 4.2647187,6.8275648 4.2531897,7.14334 4.2335267,7.620054 4.2015759,8.0907774 4.1423153,8.946567 4.0804381,9.2719231 3.9250423,9.5410766 3.698403,9.9336278 3.0379677,10.160752 2.5256195,9.8649474 Z"/>
 <path style="fill:#2e84d7" d="M 13.489099,9.8649474 C 14.001447,9.5691435 14.134969,8.8836275 13.90833,8.4910766 13.751021,8.2186104 13.437654,7.9821361 13.003607,7.6541216 12.940925,7.6063904 12.87499,7.5572245 12.807622,7.5055743 12.462841,7.2419634 12.037355,6.9896148 11.75,6.8275648 c 0.01153,0.3157752 0.03119,0.7924892 0.06314,1.2632126 0.05926,0.8557896 0.121138,1.1811458 0.276533,1.4502992 0.22664,0.3925512 0.887075,0.6196754 1.399423,0.3238708 z"/>
 <path style="fill:#17191e" d="m 7,7.0115401 c 0,0.5522847 -0.4477153,0 -1,0 -0.5522847,0 -1,0.5522847 -1,0 0,-0.5522847 0.4477153,-1 1,-1 0.5522847,0 1,0.4477153 1,1 z"/>
 <path style="fill:#17191e" d="m 11,7.0115401 c 0,0.5522847 -0.447715,0 -1,0 -0.552285,0 -1,0.5522847 -1,0 0,-0.5522847 0.447715,-1 1,-1 0.552285,0 1,0.4477153 1,1 z"/>
</svg>
