<svg xmlns="http://www.w3.org/2000/svg" width="16" height="16" viewBox="0 0 16 16">
 <defs>
  <style id="current-color-scheme" type="text/css">
   .ColorScheme-Text { color:#323a41; } .ColorScheme-Highlight { color:#4285f4; } .ColorScheme-NeutralText { color:#ff9800; } .ColorScheme-PositiveText { color:#4caf50; } .ColorScheme-NegativeText { color:#f44336; }
  </style>
 </defs>
 <path style="fill:currentColor" class="ColorScheme-Text" d="M 1 1 L 1 11 L 2.1660156 11 L 5 11 L 5 15 L 5.6660156 15 L 12.666016 15 L 13.349609 15 L 15 15 L 5 6 L 5 2.1660156 L 5 1 L 2.1660156 1 L 1 1 z"/>
</svg>
