<svg xmlns="http://www.w3.org/2000/svg" width="48" height="48" version="1.1">
 <circle style="fill:#455a64" cx="24" cy="24" r="20"/>
 <path style="fill:#f4f4f7" d="M 22 10 L 22 19.171875 L 15.515625 12.685547 L 12.685547 15.515625 L 19.171875 22 L 10 22 L 10 26 L 19.171875 26 L 12.685547 32.484375 L 15.515625 35.314453 L 22 28.828125 L 22 38 L 26 38 L 26 28.828125 L 32.484375 35.314453 L 35.314453 32.484375 L 28.828125 26 L 38 26 L 38 22 L 28.828125 22 L 35.314453 15.515625 L 32.484375 12.685547 L 26 19.171875 L 26 10 L 22 10 z"/>
</svg>
