<svg xmlns="http://www.w3.org/2000/svg" width="48" height="48" version="1.1">
 <circle style="fill:#455a64" cx="24" cy="24" r="20"/>
 <path style="fill:#f4f4f7" d="M 11,27.221826 15.24264,31.464467 18.778174,35 37.16295,16.615224 33.627417,13.07969 18.778174,27.928933 14.535533,23.686292 11,27.221826 Z"/>
</svg>
