<svg xmlns="http://www.w3.org/2000/svg" width="48" height="48" version="1.1">
 <circle style="fill:#455a64" cx="24" cy="24" r="20"/>
 <path style="fill:#f4f4f7" d="m 24,11 c -3.720732,0 -6.572538,1.734215 -6.953125,6 h 3.041016 C 20.487569,14.775525 22.241985,14 24,14 c 2.000001,0 4,1 4,4 v 3 H 24 20 17 15.666016 C 14.742683,21 14,21.749505 14,22.699219 V 33.285156 C 14,34.23487 14.742683,35 15.666016,35 H 32.333984 C 33.257317,35 34,34.23487 34,33.285156 V 22.699219 C 34,21.749505 33.257317,21 32.333984,21 H 31 v -3 c 0,-4.999988 -2.999999,-7 -7,-7 z"/>
</svg>
