<svg xmlns="http://www.w3.org/2000/svg" width="48" height="48" version="1.1">
 <circle style="fill:#455a64" cx="24" cy="24" r="20"/>
 <path style="fill:#f4f4f7" d="m 19,14 -2,2 -2,0 c -2.441832,-0.02623 -3,0 -3,1.855469 L 12,32 c 0,2 1.088775,2 3.427734,2 l 17.144532,0 C 35.25751,34.005896 36,34 36,32 l 0,-14 c 0,-2 -0.724781,-2 -3,-2 l -2,0 -2,-2 z m 5,5 c 2.761333,0 5,2.238667 5,5 0,2.761334 -2.238667,5 -5,5 -2.761334,0 -5,-2.238666 -5,-5 0,-2.761333 2.238666,-5 5,-5 z"/>
</svg>
