<svg xmlns="http://www.w3.org/2000/svg" width="48" height="48" version="1.1">
 <circle style="fill:#4caf50" cx="24" cy="24" r="20"/>
 <path style="fill:#f4f4f7" d="M 35,14 22,27 14,19 10,23 22,35 39,18 Z"/>
</svg>
