<svg xmlns="http://www.w3.org/2000/svg" width="48" height="48" version="1.1">
 <circle style="fill:#455a64" cx="24" cy="24" r="20"/>
 <rect style="fill:#f4f4f7" width="6" height="24" x="-27" y="12" transform="rotate(-90)"/>
</svg>
