<svg xmlns="http://www.w3.org/2000/svg" width="48" height="48" version="1.1">
 <rect style="fill:#455a64" width="24" height="20" x="14" y="28"/>
 <circle style="fill:#455a64" cx="14" cy="38" r="10"/>
 <circle style="fill:#ea8500" cx="38" cy="38" r="10"/>
 <rect style="fill:#f4f4f7" width="2" height="10" x="37" y="31"/>
 <rect style="fill:#f4f4f7" width="2" height="2" x="37" y="43"/>
 <path style="fill:#f4f4f7" d="m 19,30 a 3,3 0 0 0 -3,3 3,3 0 0 0 0.03906,0.472656 l -4.882812,2.441406 a 3,3 0 0 1 -0.0039,-0.004 A 3,3 0 0 0 9,35 a 3,3 0 0 0 -3,3 3,3 0 0 0 3,3 3,3 0 0 0 2.152344,-0.917968 l 4.886718,2.445312 A 3,3 0 0 0 16,43 a 3,3 0 0 0 3,3 3,3 0 0 0 3,-3 3,3 0 0 0 -3,-3 3,3 0 0 0 -2.152344,0.917968 L 11.960938,38.472656 A 3,3 0 0 0 12,38 3,3 0 0 0 11.960938,37.523438 L 16.84375,35.082032 A 3,3 0 0 0 19,36 3,3 0 0 0 22,33 3,3 0 0 0 19,30 Z"/>
</svg>
