<svg xmlns="http://www.w3.org/2000/svg" width="16" height="16" version="1.1">
 <path style="fill:#323a41" d="M 8,1 C 4.69,1 2,3.68 2,7 2,9.08 3.07,10.92 4.69,12 H 4 C 2,12 2,14 2,14 V 15 H 14 V 14 C 14,14 14,12 12,12 H 11.31 C 12.93,10.92 14,9.08 14,7 14,3.68 11.31,1 8,1 Z M 8,5 A 2,2 0 0 1 10,7 2,2 0 0 1 8,9 2,2 0 0 1 6,7 2,2 0 0 1 8,5 Z"/>
</svg>
