<svg xmlns="http://www.w3.org/2000/svg" width="32" height="32" version="1">
 <rect style="opacity:0.2" width="22" height="28" x="5" y="3" rx="1.5" ry="1.5"/>
 <rect style="fill:#4f4f4f" width="22" height="28" x="5" y="2" rx="1.5" ry="1.5"/>
 <g style="opacity:0.2" transform="translate(0,1)">
  <rect width="4" height="4" x="14" y="11" rx=".5" ry=".5"/>
  <rect width="4" height="4" x="8" y="11" rx=".5" ry=".5"/>
  <rect width="4" height="4" x="20" y="11" rx=".5" ry=".5"/>
  <rect width="4" height="4" x="14" y="5" rx=".5" ry=".5"/>
  <rect width="4" height="4" x="8" y="5" rx=".5" ry=".5"/>
  <rect width="4" height="4" x="20" y="5" rx=".5" ry=".5"/>
  <rect width="4" height="4" x="14" y="17" rx=".5" ry=".5"/>
  <rect width="4" height="4" x="8" y="17" rx=".5" ry=".5"/>
  <rect width="4" height="4" x="20" y="17" rx=".5" ry=".5"/>
  <rect width="4" height="4" x="14" y="23" rx=".5" ry=".5"/>
  <rect width="4" height="4" x="20" y="23" rx=".5" ry=".5"/>
  <rect width="4" height="4" x="8" y="23" rx=".5" ry=".5"/>
 </g>
 <g style="fill:#b2bfd9">
  <rect width="4" height="4" x="14" y="11" rx=".5" ry=".5"/>
  <rect width="4" height="4" x="8" y="11" rx=".5" ry=".5"/>
  <rect width="4" height="4" x="20" y="11" rx=".5" ry=".5"/>
  <rect width="4" height="4" x="14" y="5" rx=".5" ry=".5"/>
  <rect width="4" height="4" x="8" y="5" rx=".5" ry=".5"/>
  <rect width="4" height="4" x="20" y="5" rx=".5" ry=".5"/>
  <rect width="4" height="4" x="14" y="17" rx=".5" ry=".5"/>
  <rect width="4" height="4" x="8" y="17" rx=".5" ry=".5"/>
  <rect width="4" height="4" x="20" y="17" rx=".5" ry=".5"/>
  <rect width="4" height="4" x="14" y="23" rx=".5" ry=".5"/>
 </g>
 <rect style="fill:#ff5a5a" width="4" height="4" x="20" y="23" rx=".5" ry=".5"/>
 <rect style="fill:#64c90e" width="4" height="4" x="8" y="23" rx=".5" ry=".5"/>
 <path style="fill:#8b9cbe;opacity:0.2" d="M 8.5 5 C 8.223 5 8 5.223 8 5.5 L 8 6.5 C 8 6.223 8.223 6 8.5 6 L 11.5 6 C 11.777 6 12 6.223 12 6.5 L 12 5.5 C 12 5.223 11.777 5 11.5 5 L 8.5 5 z M 14.5 5 C 14.223 5 14 5.223 14 5.5 L 14 6.5 C 14 6.223 14.223 6 14.5 6 L 17.5 6 C 17.777 6 18 6.223 18 6.5 L 18 5.5 C 18 5.223 17.777 5 17.5 5 L 14.5 5 z M 20.5 5 C 20.223 5 20 5.223 20 5.5 L 20 6.5 C 20 6.223 20.223 6 20.5 6 L 23.5 6 C 23.777 6 24 6.223 24 6.5 L 24 5.5 C 24 5.223 23.777 5 23.5 5 L 20.5 5 z M 8.5 11 C 8.223 11 8 11.223 8 11.5 L 8 12.5 C 8 12.223 8.223 12 8.5 12 L 11.5 12 C 11.777 12 12 12.223 12 12.5 L 12 11.5 C 12 11.223 11.777 11 11.5 11 L 8.5 11 z M 14.5 11 C 14.223 11 14 11.223 14 11.5 L 14 12.5 C 14 12.223 14.223 12 14.5 12 L 17.5 12 C 17.777 12 18 12.223 18 12.5 L 18 11.5 C 18 11.223 17.777 11 17.5 11 L 14.5 11 z M 20.5 11 C 20.223 11 20 11.223 20 11.5 L 20 12.5 C 20 12.223 20.223 12 20.5 12 L 23.5 12 C 23.777 12 24 12.223 24 12.5 L 24 11.5 C 24 11.223 23.777 11 23.5 11 L 20.5 11 z M 8.5 17 C 8.223 17 8 17.223 8 17.5 L 8 18.5 C 8 18.223 8.223 18 8.5 18 L 11.5 18 C 11.777 18 12 18.223 12 18.5 L 12 17.5 C 12 17.223 11.777 17 11.5 17 L 8.5 17 z M 14.5 17 C 14.223 17 14 17.223 14 17.5 L 14 18.5 C 14 18.223 14.223 18 14.5 18 L 17.5 18 C 17.777 18 18 18.223 18 18.5 L 18 17.5 C 18 17.223 17.777 17 17.5 17 L 14.5 17 z M 20.5 17 C 20.223 17 20 17.223 20 17.5 L 20 18.5 C 20 18.223 20.223 18 20.5 18 L 23.5 18 C 23.777 18 24 18.223 24 18.5 L 24 17.5 C 24 17.223 23.777 17 23.5 17 L 20.5 17 z M 8.5 23 C 8.223 23 8 23.223 8 23.5 L 8 24.5 C 8 24.223 8.223 24 8.5 24 L 11.5 24 C 11.777 24 12 24.223 12 24.5 L 12 23.5 C 12 23.223 11.777 23 11.5 23 L 8.5 23 z M 14.5 23 C 14.223 23 14 23.223 14 23.5 L 14 24.5 C 14 24.223 14.223 24 14.5 24 L 17.5 24 C 17.777 24 18 24.223 18 24.5 L 18 23.5 C 18 23.223 17.777 23 17.5 23 L 14.5 23 z M 20.5 23 C 20.223 23 20 23.223 20 23.5 L 20 24.5 C 20 24.223 20.223 24 20.5 24 L 23.5 24 C 23.777 24 24 24.223 24 24.5 L 24 23.5 C 24 23.223 23.777 23 23.5 23 L 20.5 23 z"/>
 <path style="fill:#8b9cbe;opacity:0.1" d="M 6.5 2 C 5.669 2 5 2.669 5 3.5 L 5 4.5 C 5 3.669 5.669 3 6.5 3 L 25.5 3 C 26.331 3 27 3.669 27 4.5 L 27 3.5 C 27 2.669 26.331 2 25.5 2 L 6.5 2 z"/>
</svg>
