<svg xmlns="http://www.w3.org/2000/svg" width="32" height="32" version="1">
 <path style="opacity:0.2" d="M 16.5,2 C 12.910149,2 10,4.9101491 10,8.5 V 17 H 23 V 8.5 C 23,4.9101491 20.089851,2 16.5,2 Z m 0,3 C 18.466161,5 20,6.5338386 20,8.5 V 14 H 13 V 8.5 C 13,6.5338386 14.533839,5 16.5,5 Z"/>
 <rect style="opacity:0.2" width="3" height="29" x="27" y="-31" rx="1.5" ry="1.45" transform="rotate(90)"/>
 <rect style="fill:#828282" width="3" height="6" x="15" y="21.5"/>
 <path style="fill:#b2bfd9" d="M 16.5 1 C 12.910149 1 10 3.9101491 10 7.5 L 10 16 L 23 16 L 23 7.5 C 23 3.9101491 20.089851 1 16.5 1 z M 16.5 4 C 18.466161 4 20 5.5338386 20 7.5 L 20 13 L 13 13 L 13 7.5 C 13 5.5338386 14.533839 4 16.5 4 z"/>
 <rect style="opacity:0.2" width="12" height="17" x="-23" y="-25" rx="1.2" ry="1.214" transform="matrix(0,-1,-1,0,0,0)"/>
 <rect style="fill:#fecd38" width="12" height="17" x="-22" y="-25" rx="1.2" ry="1.214" transform="matrix(0,-1,-1,0,0,0)"/>
 <rect style="opacity:0.3;fill:#8b9cbe" width="17" height="8" x="8" y="12" rx="0" ry="0"/>
 <rect style="fill:#828282" width="3" height="29" x="26" y="-31" rx="1.5" ry="1.45" transform="rotate(90)"/>
 <rect style="fill:#afafb1" width="9" height="5" x="12" y="25"/>
 <rect style="opacity:0.2" width="9" height="1" x="12" y="30"/>
 <rect style="opacity:0.2;fill:#8b9cbe" width="9" height="1" x="12" y="25"/>
 <path style="opacity:0.2;fill:#8b9cbe" d="M 16.5,1 C 12.910149,1 10,3.9101491 10,7.5 v 1 C 10,4.9101491 12.910149,2 16.5,2 20.089851,2 23,4.9101491 23,8.5 v -1 C 23,3.9101491 20.089851,1 16.5,1 Z"/>
</svg>
