<svg xmlns="http://www.w3.org/2000/svg" width="32" height="32" version="1">
 <g>
  <rect style="opacity:0.2" width="9" height="28" x="-30" y="-30" rx="1.25" ry="1.25" transform="matrix(0,-1,-1,0,0,0)"/>
  <rect style="fill:#8e8e8e" width="9" height="28" x="-29" y="-30" rx="1.25" ry="1.25" transform="matrix(0,-1,-1,0,0,0)"/>
  <path style="opacity:0.5;fill:none;stroke:#000000;stroke-width:1.99919999;stroke-linecap:round" d="m 12,23 -2,3"/>
  <path style="opacity:0.5;fill:none;stroke:#000000;stroke-width:1.99919999;stroke-linecap:round" d="M 9,23 7,26"/>
  <path style="opacity:0.5;fill:none;stroke:#000000;stroke-width:1.99919999;stroke-linecap:round" d="M 6,23 4,26"/>
  <path style="opacity:0.5;fill:none;stroke:#000000;stroke-width:1.99919999;stroke-linecap:round" d="m 15,23 -2,3"/>
  <circle style="opacity:0.2" cx="19.5" cy="23.5" r="1.5"/>
  <circle style="opacity:0.2" cx="23.5" cy="23.5" r="1.5"/>
  <circle style="opacity:0.2" cx="27.5" cy="23.5" r="1.5"/>
  <circle style="fill:#76ff03" cx="19.5" cy="22.5" r="1.5"/>
  <circle style="fill:#ffff00" cx="23.5" cy="22.5" r="1.5"/>
  <circle style="fill:#ffcd40" cx="27.5" cy="22.5" r="1.5"/>
 </g>
 <rect style="opacity:0.2" width="12" height="28" x="-21" y="-30" rx="1.412" ry="1.4" transform="matrix(0,-1,-1,0,0,0)"/>
 <path style="fill:#b2bfd9" d="M 6.375,2 C 5.61325,2 5,2.6371429 5,3.4285714 L 5,12 27,12 27,3.4285714 C 27,2.6371429 26.38675,2 25.625,2 L 6.375,2 Z"/>
 <rect style="fill:#4f4f4f" width="12" height="28" x="-20" y="-30" rx="1.412" ry="1.4" transform="matrix(0,-1,-1,0,0,0)"/>
 <rect style="opacity:0.2" width="24" height="2" x="4" y="15"/>
 <rect style="opacity:0.2" width="3" height="3" x="4" y="11" rx="1.125" ry="1.125"/>
 <rect style="fill:#76ff03" width="3" height="3" x="4" y="10" rx="1.125" ry="1.125"/>
 <path style="opacity:0.2;fill:#8b9cbe" d="M 5.125,10 C 4.50175,10 4,10.50175 4,11.125 v 0.75 C 4,11.91935 4.020447,11.95702 4.025391,12 4.089925,11.438945 4.546097,11 5.1250004,11 h 0.75 c 0.5789034,0 1.0350753,0.438945 1.0996094,1 C 6.979553,11.957021 7,11.919347 7,11.875 v -0.75 C 7,10.50175 6.49825,10 5.875,10 Z"/>
 <path style="opacity:0.1;fill:#8b9cbe" d="M 3.4003906,8 C 2.6247906,8 2,8.629992 2,9.412109 v 1 C 2,9.629992 2.6247906,9 3.4003906,9 H 28.599609 C 29.375209,9 30,9.629992 30,10.412109 v -1 C 30,8.629992 29.375209,8 28.599609,8 Z"/>
 <path style="fill:#8b9cbe;opacity:0.2" d="M 6.375 2 C 5.61325 2 5 2.6363059 5 3.4277344 L 5 4.4277344 C 5 3.6363059 5.61325 3 6.375 3 L 25.625 3 C 26.38675 3 27 3.6363059 27 4.4277344 L 27 3.4277344 C 27 2.6363059 26.38675 2 25.625 2 L 6.375 2 z"/>
</svg>
