<svg xmlns="http://www.w3.org/2000/svg" width="32" height="32" version="1">
 <rect style="opacity:0.2" width="28" height="18" x="2" y="11" rx="1.4" ry="1.4"/>
 <path style="fill:#bf4b4b" d="M 2,22.6 C 2,23.376 2.6244,24 3.4,24 H 28.6 C 29.376,24 30,23.376 30,22.6 V 7.4 C 30,6.6244 29.376,6 28.6,6 H 16 C 13.9,6 13.2,3 11.1,3 H 3.4 C 2.6244,3 2,3.6244 2,4.4"/>
 <rect style="opacity:0.2" width="28" height="18" x="2" y="9" rx="1.4" ry="1.4"/>
 <rect style="fill:#b2bfd9" width="24" height="11" x="4" y="8" rx="1.4" ry="1.4"/>
 <rect style="fill:#e25252" width="28" height="18" x="2" y="10" rx="1.4" ry="1.4"/>
 <path style="opacity:0.1;fill:#8b9cbe" d="M 3.4004,3 C 2.6248,3 2,3.6248 2,4.4004 V 5.4004 C 2,4.6248 2.6248,4 3.4004,4 H 11.1 C 13.2,4 13.9,7 16,7 H 28.6 C 29.375,7 30,7.6248 30,8.4004 V 7.4004 C 30,6.6248 29.375,6 28.6,6 H 16 C 13.9,6 13.2,3 11.1,3 Z"/>
 <path style="fill:#4f1d1d" d="m 16.543,21.196 c -0.8,0.373 -1.544,0.369 -2.044,0.333 -0.596,-0.043 -1.076,-0.207 -1.286,-0.349 -0.13,-0.088 -0.307,-0.054 -0.395,0.076 -0.088,0.13 -0.054,0.306 0.076,0.394 0.339,0.229 0.938,0.4 1.564,0.445 0.106,0.008 0.223,0.013 0.348,0.013 0.545,0 1.237,-0.052 1.977,-0.397 0.142,-0.066 0.204,-0.235 0.138,-0.377 -0.066,-0.142 -0.235,-0.204 -0.378,-0.138 z m 3.158,-0.421 c 0.027,-2.467 0.281,-7.13 -4.443,-6.754 -4.6645,0.376 -3.428,5.303 -3.497,6.953 C 11.699,21.847 11.409,22.914 11,24 h 1.261 c 0.129,-0.46 0.225,-0.915 0.266,-1.349 0.076,0.053 0.157,0.104 0.244,0.153 0.141,0.083 0.262,0.194 0.391,0.311 0.3,0.274 0.64,0.584 1.306,0.623 0.044,0.002 0.089,0.004 0.133,0.004 0.673,0 1.133,-0.295 1.503,-0.531 0.177,-0.114 0.33,-0.212 0.474,-0.259 0.409,-0.128 0.767,-0.335 1.034,-0.598 0.042,-0.041 0.081,-0.083 0.117,-0.126 0.149,0.545 0.353,1.159 0.579,1.772 H 21 c -0.646,-0.998 -1.313,-1.976 -1.299,-3.224 z m -7.489,-1.342 c 0,0 0,0 0,0 -0.046,-0.806 0.339,-1.483 0.861,-1.513 0.521,-0.031 0.982,0.598 1.028,1.403 0,0 0,0 0,0 0.002,0.044 0.004,0.087 0.004,0.129 -0.166,0.042 -0.315,0.102 -0.448,0.172 -10e-4,-0.006 -10e-4,-0.012 -0.002,-0.017 v -10e-4 c -0.044,-0.457 -0.288,-0.802 -0.545,-0.771 -0.257,0.031 -0.429,0.427 -0.384,0.884 0,10e-4 0,10e-4 0,10e-4 0.019,0.199 0.077,0.377 0.157,0.512 -0.02,0.016 -0.076,0.057 -0.141,0.104 -0.049,0.035 -0.108,0.079 -0.179,0.131 -0.194,-0.255 -0.327,-0.621 -0.351,-1.034 z m 5.285,1.99 c -0.019,0.426 -0.576,0.827 -1.09,0.987 l -0.003,0.001 C 16.19,22.48 16,22.603 15.798,22.732 c -0.34,0.217 -0.69,0.441 -1.197,0.441 -0.033,0 -0.067,-10e-4 -0.101,-0.003 C 14.036,23.143 13.819,22.945 13.545,22.695 13.4,22.563 13.25,22.426 13.056,22.313 l -0.004,-0.002 c -0.417,-0.236 -0.676,-0.529 -0.692,-0.784 -0.008,-0.126 0.048,-0.236 0.168,-0.326 0.26,-0.195 0.434,-0.322 0.549,-0.407 0.128,-0.093 0.167,-0.121 0.196,-0.149 0.02,-0.019 0.042,-0.041 0.066,-0.064 0.239,-0.232 0.638,-0.62 1.252,-0.62 0.375,0 0.79,0.144 1.232,0.428 0.208,0.136 0.389,0.198 0.619,0.278 0.157,0.054 0.336,0.116 0.576,0.218 l 0.004,0.002 c 0.223,0.092 0.487,0.259 0.475,0.536 z m -0.123,-0.999 c -0.043,-0.022 -0.088,-0.042 -0.135,-0.062 -0.216,-0.092 -0.389,-0.155 -0.532,-0.205 0.079,-0.155 0.128,-0.349 0.133,-0.559 v 0 c 0.011,-0.512 -0.247,-0.927 -0.576,-0.928 -0.33,0 -0.605,0.414 -0.616,0.925 v 0 c -10e-4,0.017 -10e-4,0.034 -10e-4,0.05 -0.202,-0.093 -0.402,-0.161 -0.597,-0.202 -0.001,-0.02 -0.002,-0.039 -0.002,-0.058 v -0.001 c -0.019,-0.931 0.553,-1.703 1.277,-1.722 0.724,-0.02 1.326,0.719 1.345,1.651 v 0.001 c 0.009,0.421 -0.104,0.809 -0.297,1.11 z"/>
</svg>
