<svg xmlns="http://www.w3.org/2000/svg" width="32" height="32" version="1">
 <rect style="opacity:0.2" width="28" height="18" x="2" y="11" rx="1.4" ry="1.4"/>
 <path style="fill:#727272" d="M 2,22.6 C 2,23.376 2.6244,24 3.4,24 H 28.6 C 29.376,24 30,23.376 30,22.6 V 7.4 C 30,6.6244 29.376,6 28.6,6 H 16 C 13.9,6 13.2,3 11.1,3 H 3.4 C 2.6244,3 2,3.6244 2,4.4"/>
 <rect style="opacity:0.2" width="28" height="18" x="2" y="9" rx="1.4" ry="1.4"/>
 <rect style="fill:#b2bfd9" width="24" height="11" x="4" y="8" rx="1.4" ry="1.4"/>
 <rect style="fill:#8e8e8e" width="28" height="18" x="2" y="10" rx="1.4" ry="1.4"/>
 <path style="opacity:0.1;fill:#8b9cbe" d="M 3.4004,3 C 2.6248,3 2,3.6248 2,4.4004 V 5.4004 C 2,4.6248 2.6248,4 3.4004,4 H 11.1 C 13.2,4 13.9,7 16,7 H 28.6 C 29.375,7 30,7.6248 30,8.4004 V 7.4004 C 30,6.6248 29.375,6 28.6,6 H 16 C 13.9,6 13.2,3 11.1,3 Z"/>
 <path style="fill:#8b9cbe" d="M 16,13 C 12.687,13 10,15.687 10,19 10,22.314 12.687,25 16,25 H 19.75 C 19.75,25 20.453,24.699 20.5,23.949 20.5,23.199 19.75,23 19.75,23 H 16 C 15.805,22.999 15.611,22.983 15.418,22.953 14.718,22.874 14.162,22.654 13.742,22.301 L 13.736,22.297 C 12.65,21.551 12,20.318 12,19 12,16.791 13.791,15 16,15 18.209,15 20,16.791 20,19 20,19.454 19.908,19.745 19.76,20.002 19.756,20.002 19.753,20 19.75,20 H 18.816 C 18.928,19.686 19,19.352 19,19 19,17.343 17.657,16 16,16 14.344,16 13,17.343 13,19 13,20.657 14.343,22 16,22 H 19.75 C 20.292,21.95 20.673,21.629 21.02,21.424 21.782,20.88 22,20.114 22,19 22,15.686 19.314,13 16,13 Z M 16,18 C 16.552,18 17,18.448 17,19 17,19.552 16.552,20 16,20 15.448,20 15,19.552 15,19 15,18.448 15.448,18 16,18 Z"/>
</svg>
