<svg xmlns="http://www.w3.org/2000/svg" width="32" height="32" version="1">
 <rect style="opacity:0.2" width="28" height="18" x="2" y="11" rx="1.4" ry="1.4"/>
 <path style="fill:#3c3f4c" d="M 2,22.6 C 2,23.376 2.6244,24 3.4,24 H 28.6 C 29.376,24 30,23.376 30,22.6 V 7.4 C 30,6.6244 29.376,6 28.6,6 H 16 C 13.9,6 13.2,3 11.1,3 H 3.4 C 2.6244,3 2,3.6244 2,4.4"/>
 <rect style="opacity:0.2" width="28" height="18" x="2" y="9" rx="1.4" ry="1.4"/>
 <rect style="fill:#b2bfd9" width="24" height="11" x="4" y="8" rx="1.4" ry="1.4"/>
 <rect style="fill:#555e70" width="28" height="18" x="2" y="10" rx="1.4" ry="1.4"/>
 <path style="opacity:0.1;fill:#8b9cbe" d="M 3.4004,3 C 2.6248,3 2,3.6248 2,4.4004 V 5.4004 C 2,4.6248 2.6248,4 3.4004,4 H 11.1 C 13.2,4 13.9,7 16,7 H 28.6 C 29.375,7 30,7.6248 30,8.4004 V 7.4004 C 30,6.6248 29.375,6 28.6,6 H 16 C 13.9,6 13.2,3 11.1,3 Z"/>
 <path style="fill:#8b9cbe" d="M 14.738,14 V 14.002 L 14.627,15.318 A 3.9641,3.9283 0 0 0 13.469,15.982 L 12.262,15.418 11,17.584 12.098,18.34 A 3.9641,3.9283 0 0 0 12.035,19.002 3.9641,3.9283 0 0 0 12.094,19.668 L 11,20.418 12.262,22.584 13.467,22.02 A 3.9641,3.9283 0 0 0 14.629,22.682 L 14.738,24 H 17.262 L 17.373,22.684 A 3.9641,3.9283 0 0 0 18.531,22.02 L 19.738,22.582 21,20.418 19.904,19.664 A 3.9641,3.9283 0 0 0 19.963,19 3.9641,3.9283 0 0 0 19.904,18.336 L 20.998,17.582 19.738,15.418 18.531,15.98 A 3.9641,3.9283 0 0 0 17.371,15.32 L 17.262,14 Z M 16,17 A 2,2 0 0 1 18,19 2,2 0 0 1 16,21 2,2 0 0 1 14,19 2,2 0 0 1 16,17 Z"/>
</svg>
