<svg xmlns="http://www.w3.org/2000/svg" width="32" height="32" version="1">
 <rect style="opacity:0.2" width="28" height="18" x="2" y="11" rx="1.4" ry="1.4"/>
 <path style="fill:#b58f1b" d="M 2,22.6 C 2,23.376 2.6244,24 3.4,24 H 28.6 C 29.376,24 30,23.376 30,22.6 V 7.4 C 30,6.6244 29.376,6 28.6,6 H 16 C 13.9,6 13.2,3 11.1,3 H 3.4 C 2.6244,3 2,3.6244 2,4.4"/>
 <rect style="opacity:0.2" width="28" height="18" x="2" y="9" rx="1.4" ry="1.4"/>
 <rect style="fill:#b2bfd9" width="24" height="11" x="4" y="8" rx="1.4" ry="1.4"/>
 <rect style="fill:#e2b322" width="28" height="18" x="2" y="10" rx="1.4" ry="1.4"/>
 <path style="opacity:0.1;fill:#8b9cbe" d="M 3.4004,3 C 2.6248,3 2,3.6248 2,4.4004 V 5.4004 C 2,4.6248 2.6248,4 3.4004,4 H 11.1 C 13.2,4 13.9,7 16,7 H 28.6 C 29.375,7 30,7.6248 30,8.4004 V 7.4004 C 30,6.6248 29.375,6 28.6,6 H 16 C 13.9,6 13.2,3 11.1,3 Z"/>
 <path style="fill:#4f3e0c" d="m 12.40809,15 c -0.44417,0 -0.88635,0.08893 -1.2978,0.2627 -0.4115,0.17376 -0.7873,0.4296 -1.1045,0.75295 -0.3171998,0.3234 -0.5712998,0.7102 -0.7441998,1.1355 -0.1725,0.426 -0.2615,0.885 -0.2615,1.347 0,0.46216 0.08879,0.92105 0.26172,1.3467 0.17294,0.4256 0.42698,0.8124 0.7441498,1.1358 0.31717,0.323321 0.693,0.579151 1.1045,0.752951 0.4021,0.1698 0.8337,0.25774 1.2676,0.26172 0.01025,3.71e-4 0.02008,6e-4 0.03027,10e-4 1.055,0.04997 1.9052,-0.36871 2.5274,-0.97655 0.42532,-0.415521 0.7595,-0.906201 1.0644,-1.406201 0.30496,0.50005 0.6391,0.99075 1.0644,1.406201 0.6222,0.60785 1.4723,1.0265 2.5274,0.97655 0.0102,-3.71e-4 0.02003,-4.9e-4 0.03028,-10e-4 0.43388,-0.0037 0.8645,-0.09192 1.2666,-0.26172 0.4115,-0.17376 0.7883,-0.4296 1.1054,-0.752951 l 0.002,-0.0039 c 0.31586,-0.32274 0.56975,-0.7075 0.7422,-1.1318 0.1725,-0.4255 0.2615,-0.8845 0.2615,-1.3465 0,-0.46216 -0.0888,-0.9211 -0.26172,-1.3467 l -0.0029,-0.0059 c -0.173,-0.423 -0.426,-0.808 -0.7415,-1.13 -0.317,-0.323 -0.693,-0.579 -1.1045,-0.753 -0.4115,-0.1735 -0.8535,-0.2625 -1.2975,-0.2625 -1.1116,0 -1.9894,0.45712 -2.6377,1.0928 -0.375,0.367 -0.679,0.787 -0.9545,1.2165 -0.2755,-0.4295 -0.5795,-0.8495 -0.954,-1.2165 -0.6485,-0.636 -1.5265,-1.093 -2.638,-1.093 z m -0.01172,1 c 0.88675,0 1.4532,0.31778 1.9726,0.84375 0.41181,0.41692 0.7729,0.9841 1.1308,1.6026 -0.40852,0.72255 -0.80335,1.3825 -1.247,1.8301 -0.48913,0.49341 -0.996,0.765501 -1.8242,0.71775 h -0.03222 c -0.31584,0 -0.63425,-0.06666 -0.9248,-0.19336 -0.28667,-0.125 -0.5512,-0.31072 -0.76955,-0.5381 l -0.0088,-0.0088 c -0.22,-0.231 -0.397,-0.51 -0.515,-0.809 -0.1175,-0.2995 -0.1784998,-0.6255 -0.1784998,-0.9475 0,-0.32214 0.06099,-0.64815 0.1787098,-0.94725 0.1177,-0.29914 0.29461,-0.577 0.51465,-0.8086 l 0.0088,-0.0098 c 0.21833,-0.22736 0.48286,-0.41309 0.76955,-0.5381 0.2905,-0.1265 0.6085,-0.193 0.9245,-0.193 z m 7.207,0 c 0.31585,0 0.63425,0.06666 0.9248,0.19336 0.28666,0.125 0.5512,0.31072 0.76955,0.5381 l 0.0088,0.0098 c 0.22004,0.23162 0.39694,0.50945 0.51465,0.8086 0.1175,0.299 0.1785,0.625 0.1785,0.947 0,0.32216 -0.06099,0.6481 -0.17871,0.94725 -0.1177,0.29914 -0.2946,0.57795 -0.51465,0.80955 l -0.0088,0.0088 c -0.21833,0.22736 -0.48286,0.41308 -0.76955,0.5381 -0.29057,0.1267 -0.60895,0.19336 -0.9248,0.19336 h -0.03223 c -0.828,0.0475 -1.335,-0.2245 -1.824,-0.718 -0.4435,-0.4475 -0.8385,-1.1075 -1.247,-1.83 0.358,-0.6185 0.719,-1.186 1.131,-1.6025 0.5195,-0.526 1.086,-0.844 1.9725,-0.844 z m -0.6035,1 v 1 h -1 v 1 h 1 v 1 h 1 v -1 h 1 v -1 h -1 v -1 z m -8,1 v 1 h 3 v -1 z"/>
</svg>
