<svg xmlns="http://www.w3.org/2000/svg" width="48" height="48" version="1">
 <rect style="opacity:0.2" width="40" height="26" x="4" y="17" rx="2" ry="2"/>
 <path style="fill:#c89e6b" d="M 4,34 C 4,35.108 4.892,36 6,36 H 42 C 43.108,36 44,35.108 44,34 V 12 C 44,10.892 43.108,10 42,10 H 24 C 21,10 20,6 17,6 H 6 C 4.892,6 4,6.892 4,8"/>
 <rect style="opacity:0.2" width="40" height="26" x="4" y="15" rx="2" ry="2"/>
 <rect style="fill:#b2bfd9" width="36" height="16" x="6" y="13" rx="2" ry="2"/>
 <rect style="fill:#eeca8f" width="40" height="26" x="4" y="16" rx="2" ry="2"/>
 <path style="opacity:0.1;fill:#f4f4f7" d="M 6,6 C 4.892,6 4,6.892 4,8 V 9 C 4,7.892 4.892,7 6,7 H 17 C 20,7 21,11 24,11 H 42 C 43.108,11 44,11.892 44,13 V 12 C 44,10.892 43.108,10 42,10 H 24 C 21,10 20,6 17,6 Z"/>
 <path style="fill:#917359" d="M 24.56,32.076 C 23.44,32.597 22.897,32.591 22.198,32.541 21.363,32.481 20.692,32.252 20.397,32.052 20.215,31.929 19.968,31.977 19.845,32.159 19.722,32.341 19.769,32.588 19.951,32.711 20.426,33.032 21.264,33.271 22.141,33.334 22.289,33.345 21.953,33.351 22.128,33.351 22.891,33.351 23.859,33.279 24.895,32.797 25.094,32.704 25.181,32.468 25.088,32.269 24.995,32.069 24.759,31.983 24.56,32.076 Z M 28.979,31.487 C 29.017,28.032 29.373,21.505 22.76,22.032 16.231,22.558 18.462,29.455 18.364,31.765 18.278,32.986 17.573,34.48 17,36 H 19.064 C 19.246,35.356 19.379,34.719 19.437,34.112 19.543,34.186 19.657,34.257 19.778,34.326 19.976,34.443 20.146,34.598 20.326,34.761 20.746,35.144 21.222,35.578 22.153,35.633 22.216,35.636 21.779,35.638 21.841,35.638 22.783,35.638 23.427,35.226 23.944,34.895 24.192,34.736 24.407,34.599 24.608,34.533 25.181,34.354 25.682,34.064 26.056,33.696 26.114,33.638 26.169,33.579 26.219,33.519 26.428,34.283 26.713,35.142 27.03,36 H 30.998 C 30.093,34.603 28.96,33.234 28.979,31.487 Z M 18.996,29.607 C 18.996,29.607 18.996,29.607 18.996,29.607 18.931,28.48 19.471,27.531 20.201,27.489 20.931,27.446 21.575,28.326 21.64,29.453 21.64,29.453 21.641,29.454 21.641,29.454 21.644,29.514 21.645,29.575 21.645,29.634 21.414,29.692 21.205,29.777 21.018,29.875 21.018,29.867 21.017,29.859 21.016,29.85 V 29.85 C 20.954,29.21 20.612,28.727 20.253,28.771 19.894,28.814 19.653,29.368 19.716,30.009 19.716,30.009 19.716,30.009 19.716,30.009 19.743,30.288 19.823,30.537 19.935,30.726 19.907,30.748 19.828,30.805 19.738,30.871 19.67,30.921 19.587,30.982 19.488,31.055 19.216,30.698 19.029,30.186 18.996,29.607 Z M 25.894,32.394 C 25.868,32.989 25.089,33.55 24.369,33.775 L 24.365,33.776 C 24.066,33.873 23.799,34.044 23.516,34.225 23.041,34.529 22.55,34.843 21.841,34.843 21.795,34.843 22.246,34.842 22.2,34.839 21.55,34.801 21.246,34.524 20.862,34.173 20.659,33.989 20.449,33.798 20.178,33.639 L 20.173,33.635 C 19.589,33.306 19.226,32.896 19.203,32.539 19.192,32.362 19.271,32.208 19.438,32.083 19.802,31.81 20.046,31.631 20.207,31.513 20.387,31.382 20.441,31.342 20.481,31.304 20.509,31.277 20.541,31.247 20.574,31.215 20.908,30.89 20.968,30.346 21.826,30.346 22.351,30.346 22.932,30.548 23.551,30.946 23.843,31.136 24.096,31.223 24.417,31.334 24.638,31.411 24.889,31.497 25.224,31.64 L 25.229,31.643 C 25.542,31.771 25.911,32.006 25.894,32.394 Z M 25.722,30.994 C 25.662,30.964 25.599,30.935 25.534,30.908 25.232,30.779 24.989,30.691 24.788,30.621 24.899,30.404 24.968,30.133 24.975,29.839 V 29.838 C 24.99,29.122 24.629,28.541 24.168,28.54 23.707,28.539 23.321,29.118 23.306,29.834 V 29.835 C 23.306,29.858 23.306,29.881 23.306,29.905 23.022,29.774 22.743,29.679 22.469,29.621 22.468,29.594 22.467,29.567 22.466,29.54 V 29.539 C 22.44,28.235 23.24,27.155 24.254,27.128 25.267,27.1 26.11,28.135 26.137,29.44 V 29.44 C 26.149,30.03 25.991,30.573 25.722,30.994 Z"/>
</svg>
