<svg xmlns="http://www.w3.org/2000/svg" width="48" height="48" version="1">
 <rect style="opacity:0.2" width="40" height="26" x="4" y="17" rx="2" ry="2"/>
 <path style="fill:#value_dark" d="M 4,34 C 4,35.108 4.892,36 6,36 H 42 C 43.108,36 44,35.108 44,34 V 12 C 44,10.892 43.108,10 42,10 H 24 C 21,10 20,6 17,6 H 6 C 4.892,6 4,6.892 4,8"/>
 <rect style="opacity:0.2" width="40" height="26" x="4" y="15" rx="2" ry="2"/>
 <rect style="fill:#b2bfd9" width="36" height="16" x="6" y="13" rx="2" ry="2"/>
 <rect style="fill:#value_light" width="40" height="26" x="4" y="16" rx="2" ry="2"/>
 <path style="opacity:0.1;fill:#f4f4f7" d="M 6,6 C 4.892,6 4,6.892 4,8 V 9 C 4,7.892 4.892,7 6,7 H 17 C 20,7 21,11 24,11 H 42 C 43.108,11 44,11.892 44,13 V 12 C 44,10.892 43.108,10 42,10 H 24 C 21,10 20,6 17,6 Z"/>
 <path style="fill:#323232" d="M 35,24 A 5,5 0 0 0 30,29 5,5 0 0 0 35,34 5,5 0 0 0 40,29 5,5 0 0 0 35,24 Z M 35,27 A 2,2 0 0 1 37,29 2,2 0 0 1 35,31 2,2 0 0 1 33,29 2,2 0 0 1 35,27 Z M 13,24 A 5,5 0 0 0 8,29 5,5 0 0 0 13,34 5,5 0 0 0 18,29 5,5 0 0 0 13,24 Z M 13,27 A 2,2 0 0 1 15,29 2,2 0 0 1 13,31 2,2 0 0 1 11,29 2,2 0 0 1 13,27 Z M 24,23 A 6,6 0 0 0 18,29 6,6 0 0 0 24,35 6,6 0 0 0 30,29 6,6 0 0 0 24,23 Z M 24,26 A 3,3 0 0 1 27,29 3,3 0 0 1 24,32 3,3 0 0 1 21,29 3,3 0 0 1 24,26 Z"/>
</svg>
