<svg xmlns="http://www.w3.org/2000/svg" width="48" height="48" version="1">
 <rect style="opacity:0.2" width="40" height="26" x="4" y="17" rx="2" ry="2"/>
 <path style="fill:#957552" d="M 4,34 C 4,35.108 4.892,36 6,36 H 42 C 43.108,36 44,35.108 44,34 V 12 C 44,10.892 43.108,10 42,10 H 24 C 21,10 20,6 17,6 H 6 C 4.892,6 4,6.892 4,8"/>
 <rect style="opacity:0.2" width="40" height="26" x="4" y="15" rx="2" ry="2"/>
 <rect style="fill:#b2bfd9" width="36" height="16" x="6" y="13" rx="2" ry="2"/>
 <rect style="fill:#ae8e6c" width="40" height="26" x="4" y="16" rx="2" ry="2"/>
 <path style="opacity:0.1;fill:#f4f4f7" d="M 6,6 C 4.892,6 4,6.892 4,8 V 9 C 4,7.892 4.892,7 6,7 H 17 C 20,7 21,11 24,11 H 42 C 43.108,11 44,11.892 44,13 V 12 C 44,10.892 43.108,10 42,10 H 24 C 21,10 20,6 17,6 Z"/>
 <path style="fill:#3d3226" d="m18.86896 24c-0.634 0-1.2655 0.127-1.8534 0.375-0.5878 0.248-1.125 0.614-1.5781 1.076s-0.8174 1.015-1.0645 1.623c-0.247 0.608-0.373 1.264-0.373 1.924 0 0.66023 0.126 1.3158 0.37305 1.9238 0.24706 0.60801 0.61137 1.1592 1.0645 1.6211 0.4531 0.4619 0.99026 0.82794 1.5781 1.0762 0.57443 0.24257 1.1907 0.36735 1.8105 0.37305 0.01464 5.3e-4 0.0284 0.0014 0.04297 2e-3 1.5072 0.07139 2.7205-0.52617 3.6094-1.3945 0.60761-0.59359 1.0858-1.2954 1.5215-2.0098 0.43566 0.71438 0.91387 1.4162 1.5215 2.0098 0.88887 0.86836 2.1022 1.4659 3.6094 1.3945 0.01457-5.3e-4 0.02833-0.0013 0.04297-2e-3 0.61984-0.0053 1.2361-0.13048 1.8105-0.37305 0.58786-0.24823 1.125-0.61427 1.5781-1.0762l0.0039-0.0059c0.452-0.461 0.815-1.009 1.061-1.615 0.247-0.608 0.373-1.264 0.373-1.924s-0.126-1.316-0.373-1.924l-0.0059-0.0098c-0.247-0.604-0.608-1.153-1.059-1.613-0.453-0.462-0.99-0.828-1.578-1.076-0.587-0.248-1.219-0.375-1.853-0.375-1.588 0-2.842 0.652-3.768 1.561-0.535 0.524-0.969 1.124-1.363 1.738-0.394-0.614-0.828-1.214-1.363-1.738-0.926-0.909-2.18-1.561-3.768-1.561zm0.18164 2c1.1286 0 1.8486 0.38049 2.5098 1.0117 0.52412 0.50036 0.98387 1.1816 1.4395 1.9238-0.51994 0.86712-1.0232 1.6601-1.5879 2.1973-0.62253 0.59215-1.2662 0.91858-2.3203 0.86133h-0.04102c-0.40198 0-0.80791-0.08036-1.1777-0.23242-0.36485-0.15001-0.70064-0.37362-0.97852-0.64648l-0.01172-0.0098c-0.2803-0.278-0.5067-0.613-0.6565-0.972-0.1499-0.359-0.2266-0.75-0.2266-1.137 0-0.38661 0.07674-0.77772 0.22656-1.1367 0.14981-0.35901 0.3762-0.69274 0.65625-0.9707l0.01172-0.01172c0.2779-0.273 0.6137-0.495 0.9785-0.645 0.37-0.152 0.776-0.232 1.178-0.232zm9.8984 0c0.40199 0 0.80792 0.08037 1.1777 0.23242 0.36485 0.15001 0.70064 0.37167 0.97852 0.64453l0.01172 0.01172c0.28005 0.27797 0.50644 0.61169 0.65625 0.9707 0.15 0.358 0.227 0.749 0.227 1.136 0 0.38662-0.07674 0.77771-0.22656 1.1367-0.14981 0.359-0.37619 0.69468-0.65625 0.97266l-0.01172 0.0098c-0.27788 0.27286-0.61367 0.49647-0.97852 0.64648-0.36982 0.15206-0.77575 0.23242-1.1777 0.23242h-0.04101c-1.0541 0.05725-1.6978-0.26918-2.3203-0.86133-0.565-0.537-1.068-1.33-1.588-2.197 0.456-0.743 0.915-1.424 1.439-1.924 0.662-0.632 1.382-1.012 2.51-1.012zm-0.949 1v1h-1v2h1v1h2v-1h1v-2h-1v-1zm-11 1v2h4v-2z"/>
</svg>
