<svg xmlns="http://www.w3.org/2000/svg" width="48" height="48" version="1">
 <rect style="opacity:0.2" width="40" height="26" x="4" y="17" rx="2" ry="2"/>
 <path style="fill:#1f252a" d="M 4,34 C 4,35.108 4.892,36 6,36 H 42 C 43.108,36 44,35.108 44,34 V 12 C 44,10.892 43.108,10 42,10 H 24 C 21,10 20,6 17,6 H 6 C 4.892,6 4,6.892 4,8"/>
 <rect style="opacity:0.2" width="40" height="26" x="4" y="15" rx="2" ry="2"/>
 <rect style="fill:#b2bfd9" width="36" height="16" x="6" y="13" rx="2" ry="2"/>
 <rect style="fill:#323a41" width="40" height="26" x="4" y="16" rx="2" ry="2"/>
 <path style="opacity:0.1;fill:#f4f4f7" d="M 6,6 C 4.892,6 4,6.892 4,8 V 9 C 4,7.892 4.892,7 6,7 H 17 C 20,7 21,11 24,11 H 42 C 43.108,11 44,11.892 44,13 V 12 C 44,10.892 43.108,10 42,10 H 24 C 21,10 20,6 17,6 Z"/>
 <path style="fill:#1f252a" d="M 19,22 C 18.446,22 18,22.446 18,23 V 32 H 19 V 31 H 20 V 24 H 25 V 27 H 28 V 35 36 H 29 V 35 H 30 V 26 L 26,22 Z M 29,36 V 37 H 30 V 36 Z M 28,36 H 27 V 37 H 28 Z M 27,36 V 35 H 26 V 36 Z M 26,36 H 25 V 37 H 26 Z M 25,36 V 35 H 24 V 36 Z M 24,36 H 23 V 37 H 24 Z M 23,36 V 35 H 22 V 36 Z M 22,36 H 21 V 37 H 22 Z M 21,36 V 35 H 20 V 36 Z M 20,36 H 19 V 37 H 20 Z M 19,36 V 35 H 18 V 36 Z M 19,35 H 20 V 34 H 19 Z M 19,34 V 33 H 18 V 34 Z M 19,33 H 20 V 32 H 19 Z"/>
</svg>
