<svg xmlns="http://www.w3.org/2000/svg" width="48" height="48" version="1">
 <rect style="opacity:0.2" width="40" height="26" x="4" y="17" rx="2" ry="2"/>
 <path style="fill:#e95420" d="M 4,34 C 4,35.108 4.892,36 6,36 H 42 C 43.108,36 44,35.108 44,34 V 12 C 44,10.892 43.108,10 42,10 H 24 C 21,10 20,6 17,6 H 6 C 4.892,6 4,6.892 4,8"/>
 <rect style="opacity:0.2" width="40" height="26" x="4" y="15" rx="2" ry="2"/>
 <rect style="fill:#b2bfd9" width="36" height="16" x="6" y="13" rx="2" ry="2"/>
 <rect style="fill:#eb6637" width="40" height="26" x="4" y="16" rx="2" ry="2"/>
 <path style="opacity:0.1;fill:#f4f4f7" d="M 6,6 C 4.892,6 4,6.892 4,8 V 9 C 4,7.892 4.892,7 6,7 H 17 C 20,7 21,11 24,11 H 42 C 43.108,11 44,11.892 44,13 V 12 C 44,10.892 43.108,10 42,10 H 24 C 21,10 20,6 17,6 Z"/>
 <path style="fill:#522413" d="M 27,21 C 26.65,21.13 26.29,21.299 26,21.539 24.62,22.649 24.701,24.559 26.051,25.699 26.331,25.939 26.66,26.1 27,26.25 V 28.596 C 27.893,28.983 28.651,29.54 29.248,30.211 29.552,30.553 29.791,30.931 30,31.322 V 26.25 C 30.34,26.12 30.659,25.929 30.949,25.699 32.329,24.579 32.34,22.75 31,21.6 30.71,21.36 30.35,21.14 30,21 V 23.25 C 30,23.71 29.55,24 29,24 H 28 C 27.44,24 27,23.71 27,23.25 Z M 24,29 C 20,29 18,32 18,35 H 16.25 C 16,35 16,35.25 16,35.25 V 36.75 C 16,37 16.25,37 16.25,37 H 31.75 C 31.75,37 32,37 32,36.75 V 35.25 C 32,35.25 32,35 31.75,35 H 30 C 30,32 28,29 24,29 Z M 24,32 C 26.35,32 27,33.76 27,35 H 21 C 21,33.8 21.7,32 24,32 Z"/>
</svg>
