<svg xmlns="http://www.w3.org/2000/svg" width="48" height="48" version="1">
 <rect style="opacity:0.2" width="40" height="26" x="4" y="17" rx="2" ry="2"/>
 <path style="fill:#b58f1b" d="M 4,34 C 4,35.108 4.892,36 6,36 H 42 C 43.108,36 44,35.108 44,34 V 12 C 44,10.892 43.108,10 42,10 H 24 C 21,10 20,6 17,6 H 6 C 4.892,6 4,6.892 4,8"/>
 <rect style="opacity:0.2" width="40" height="26" x="4" y="15" rx="2" ry="2"/>
 <rect style="fill:#b2bfd9" width="36" height="16" x="6" y="13" rx="2" ry="2"/>
 <rect style="fill:#e2b322" width="40" height="26" x="4" y="16" rx="2" ry="2"/>
 <path style="opacity:0.1;fill:#f4f4f7" d="M 6,6 C 4.892,6 4,6.892 4,8 V 9 C 4,7.892 4.892,7 6,7 H 17 C 20,7 21,11 24,11 H 42 C 43.108,11 44,11.892 44,13 V 12 C 44,10.892 43.108,10 42,10 H 24 C 21,10 20,6 17,6 Z"/>
 <g>
  <circle style="fill:#4f3e0c;stroke:#e2b322;stroke-width:0.5;stroke-linecap:round;stroke-linejoin:round" cx="26.5" cy="27.5" r="3.25"/>
  <circle style="fill:#4f3e0c;stroke:#e2b322;stroke-width:0.5;stroke-linecap:round;stroke-linejoin:round" cx="34" cy="34" r="1.75"/>
  <circle style="fill:#4f3e0c;stroke:#e2b322;stroke-width:0.5;stroke-linecap:round;stroke-linejoin:round" cx="30" cy="32" r="3.75"/>
  <circle style="fill:#4f3e0c;stroke:#e2b322;stroke-width:0.5;stroke-linecap:round;stroke-linejoin:round" cx="15.5" cy="32.5" r="3.25"/>
  <circle style="fill:#4f3e0c;stroke:#e2b322;stroke-width:0.5;stroke-linecap:round;stroke-linejoin:round" cx="18.5" cy="26" r="1.75"/>
  <circle style="fill:#4f3e0c;stroke:#e2b322;stroke-width:0.5;stroke-linecap:round;stroke-linejoin:round" cx="19" cy="30" r="3.75"/>
  <circle style="fill:#4f3e0c;stroke:#e2b322;stroke-width:0.5;stroke-linecap:round;stroke-linejoin:round" cx="19" cy="34" r="1.75"/>
  <circle style="fill:#4f3e0c;stroke:#e2b322;stroke-width:0.5;stroke-linecap:round;stroke-linejoin:round" cx="22.5" cy="25.5" r="3.25"/>
  <circle style="fill:#4f3e0c;stroke:#e2b322;stroke-width:0.5;stroke-linecap:round;stroke-linejoin:round" cx="24" cy="31" r="4.75"/>
 </g>
</svg>
