<svg xmlns="http://www.w3.org/2000/svg" width="16" height="16" version="1.1">
 <path style="fill:#323a41" d="M 8,1 C 4.13,1 1,4.13 1,8 1,11.86 4.13,15 8,15 11.87,15 15,11.86 15,8 15,4.13 11.87,1 8,1 Z M 5,5 C 5.55,5 6,5.45 6,6 6,6.55 5.55,7 5,7 4.45,7 4,6.55 4,6 4,5.45 4.45,5 5,5 Z M 11,5 C 11.55,5 12,5.45 12,6 12,6.55 11.55,7 11,7 10.45,7 10,6.55 10,6 10,5.45 10.45,5 11,5 Z M 10.77,8.99 C 11.11,9.02 11.44,9.12 11.72,9.31 12.09,9.55 12.34,9.92 12.47,10.34 12.83,11.03 11.66,11.42 11.53,10.65 11.47,10.45 11.33,10.27 11.16,10.15 10.98,10.04 10.77,9.98 10.56,10 10.27,10.02 9.92,10.23 9.53,10.46 9.33,10.58 9.1,10.7 8.84,10.81 8.59,10.91 8.31,11 8,11 7.69,11 7.41,10.91 7.16,10.81 6.91,10.7 6.67,10.58 6.47,10.46 6.08,10.23 5.73,10.02 5.44,10 5.23,9.98 5.02,10.04 4.84,10.15 4.67,10.27 4.53,10.45 4.47,10.65 4.34,11.42 3.17,11.03 3.53,10.34 3.66,9.92 3.91,9.55 4.28,9.31 4.56,9.12 4.88,9.02 5.22,9 5.33,8.99 5.45,8.99 5.56,9 6.17,9.05 6.62,9.36 7,9.59 7.19,9.71 7.36,9.83 7.53,9.9 7.7,9.97 7.86,10 8,10 8.14,10 8.3,9.97 8.47,9.9 8.64,9.83 8.81,9.71 9,9.59 9.38,9.36 9.83,9.05 10.44,9 10.55,8.99 10.66,8.99 10.77,8.99 Z"/>
</svg>
