<svg xmlns="http://www.w3.org/2000/svg" width="22" height="22" version="1">
 <path style="opacity:0.2" d="m 11,1.5 c -5.5400001,0 -10,4.4599999 -10,10 0,5.54 4.4599999,10 10,10 5.54,0 10,-4.46 10,-10 0,-5.5400001 -4.46,-10 -10,-10 z"/>
 <path style="fill:#ffa50c" d="M 11,1 C 5.4599999,1 1,5.4599999 1,11 1,16.54 5.4599999,21 11,21 16.54,21 21,16.54 21,11 21,5.4599999 16.54,1 11,1 Z"/>
 <path style="opacity:0.1" d="m 7.4999998,7.4998108 c -0.828427,0 -1.4999999,0.671573 -1.4999999,1.4999994 0,0.8284268 0.6715729,0 1.4999999,0 0.828427,0 1.5,0.8284268 1.5,0 0,-0.8284264 -0.671573,-1.4999994 -1.5,-1.4999994 z"/>
 <path style="opacity:0.1" d="m 14.5,7.4998108 c -0.828427,0 -1.5,0.671573 -1.5,1.4999994 0,0.8284268 0.671573,0 1.5,0 0.828427,0 1.5,0.8284268 1.5,0 0,-0.8284264 -0.671573,-1.4999994 -1.5,-1.4999994 z"/>
 <path style="opacity:0.1" d="M 11,14.5 C 8.7908607,14.5 6.9999999,14.499665 6.9999999,15.228236 6.9999999,16.411704 8.7908607,17.5 11,17.5 c 2.209139,0 4,-1.088296 4,-2.271764 C 15,14.499665 13.209139,14.5 11,14.5 Z"/>
 <path style="opacity:0.2;fill:#8b9cbe" d="M 11,1 C 5.4604924,1 1.0008889,5.4599999 1.0008889,11 c 0,0.084 -0.002,0.1665 0,0.25 C 1.1330771,5.8269999 5.5444849,1.5 11,1.5 c 5.455515,0 9.867123,4.3269999 9.999111,9.75 0.002,-0.0835 0,-0.166 0,-0.25 C 20.999111,5.4599999 16.539507,1 11,1 Z"/>
 <path style="fill:#17191e" d="m 8.9999998,8.4996208 c 0,0.8284262 -0.671573,0 -1.5,0 -0.828427,0 -1.4999999,0.8284262 -1.4999999,0 0,-0.828427 0.6715729,-1.5 1.4999999,-1.5 0.828427,0 1.5,0.671573 1.5,1.5 z"/>
 <path style="fill:#17191e" d="m 16,8.4996208 c 0,0.8284262 -0.671573,0 -1.5,0 -0.828427,0 -1.5,0.8284262 -1.5,0 0,-0.828427 0.671573,-1.5 1.5,-1.5 0.828427,0 1.5,0.671573 1.5,1.5 z"/>
 <path style="fill:#7f2a23" d="M 15,14.728571 C 15,15.912039 13.209139,17 11,17 8.7908607,17 6.9999999,15.912039 6.9999999,14.728571 6.9999999,14 8.7908607,14 11,14 c 2.209139,0 4,0 4,0.728571 z"/>
 <path style="opacity:0.1" d="M 3.750885,14.307068 C 3.01896,13.884491 2.8282136,12.905182 3.151984,12.344395 3.3767105,11.955158 3.824378,11.617337 4.444445,11.148745 4.533991,11.080555 4.628184,11.010321 4.7244245,10.936535 5.216968,10.559948 5.824805,10.19945 6.2353125,9.96795 c -0.01647,0.451107 -0.04456,1.132127 -0.090204,1.804589 -0.084658,1.222557 -0.173054,1.687351 -0.395048,2.071856 C 5.42629,14.405182 4.482811,14.729645 3.750885,14.307068 Z"/>
 <path style="fill:#2e84d7" d="M 3.750885,13.807068 C 3.01896,13.384491 2.8282136,12.405182 3.151984,11.844395 3.3767105,11.455158 3.824378,11.117337 4.444445,10.648745 4.533991,10.580555 4.628184,10.510321 4.7244245,10.436535 5.216968,10.059948 5.824805,9.69945 6.2353125,9.46795 c -0.01647,0.451107 -0.04456,1.132127 -0.090204,1.804589 -0.084658,1.222557 -0.173054,1.687351 -0.395048,2.071856 C 5.42629,13.905182 4.482811,14.229645 3.750885,13.807068 Z"/>
 <path style="opacity:0.1" d="m 18.284427,14.307068 c 0.731925,-0.422577 0.922672,-1.401886 0.598901,-1.962673 -0.224726,-0.389237 -0.672394,-0.727058 -1.292461,-1.19565 -0.08955,-0.06819 -0.183739,-0.138424 -0.279979,-0.21221 C 16.818344,10.559948 16.210507,10.19945 15.8,9.96795 c 0.01647,0.451107 0.04456,1.132127 0.0902,1.804589 0.08466,1.222557 0.173054,1.687351 0.395048,2.071856 0.32377,0.560787 1.267249,0.88525 1.999175,0.462673 z"/>
 <path style="fill:#2e84d7" d="m 18.284427,13.807068 c 0.731925,-0.422577 0.922672,-1.401886 0.598901,-1.962673 -0.224726,-0.389237 -0.672394,-0.727058 -1.292461,-1.19565 -0.08955,-0.06819 -0.183739,-0.138424 -0.279979,-0.21221 C 16.818344,10.059948 16.210507,9.69945 15.8,9.46795 c 0.01647,0.451107 0.04456,1.132127 0.0902,1.804589 0.08466,1.222557 0.173054,1.687351 0.395048,2.071856 0.32377,0.560787 1.267249,0.88525 1.999175,0.462673 z"/>
</svg>
