<svg xmlns="http://www.w3.org/2000/svg" width="22" height="22" version="1">
 <path style="opacity:0.2" d="m 11,1.5 c -5.5400001,0 -10,4.4599999 -10,10 0,5.54 4.4599999,10 10,10 5.54,0 10,-4.46 10,-10 0,-5.5400001 -4.46,-10 -10,-10 z"/>
 <path style="fill:#ffa50c" d="M 11,1 C 5.4599999,1 1,5.4599999 1,11 1,16.54 5.4599999,21 11,21 16.54,21 21,16.54 21,11 21,5.4599999 16.54,1 11,1 Z"/>
 <circle style="opacity:0.1" cx="7.5" cy="9" r="1.5"/>
 <path style="opacity:0.2;fill:#8b9cbe" d="M 11,1 C 5.4604924,1 1.0008889,5.4599999 1.0008889,11 c 0,0.084 -0.002,0.1665 0,0.25 C 1.1330771,5.8269999 5.5444849,1.5 11,1.5 c 5.455515,0 9.867123,4.3269999 9.999111,9.75 0.002,-0.0835 0,-0.166 0,-0.25 C 20.999111,5.4599999 16.539507,1 11,1 Z"/>
 <circle style="opacity:0.1" cx="14.5" cy="9" r="1.5"/>
 <circle style="fill:#17191e" cx="7.5" cy="8.5" r="1.5"/>
 <circle style="fill:#17191e" cx="14.5" cy="8.5" r="1.5"/>
 <path style="opacity:0.1" d="M 15.522847,17.499795 A 0.50004999,0.50004999 0 0 1 15.103902,17.29374 c 0,0 -1.321832,-1.799804 -4.099609,-1.799804 -2.7777784,0 -4.0996099,1.799804 -4.0996099,1.799804 a 0.50019525,0.50019525 0 1 1 -0.800781,-0.599609 c 0,0 1.6781685,-2.200195 4.9003909,-2.200195 3.222221,0 4.90039,2.200195 4.90039,2.200195 a 0.50004999,0.50004999 0 0 1 -0.381836,0.805664 z"/>
 <path style="fill:none;stroke:#17191e;stroke-linecap:round;stroke-linejoin:round" d="m 6.5042926,16.494293 c 0,0 1.5,-2 4.5000004,-2 2.999999,0 4.499999,2 4.499999,2 v 0 0"/>
</svg>
