<svg xmlns="http://www.w3.org/2000/svg" width="22" height="22" version="1">
 <path style="opacity:0.2" d="m 11,1.5 c -5.5400001,0 -10,4.4599999 -10,10 0,5.54 4.4599999,10 10,10 5.54,0 10,-4.46 10,-10 0,-5.5400001 -4.46,-10 -10,-10 z"/>
 <path style="fill:#ffa50c" d="M 11,1 C 5.4599999,1 1,5.4599999 1,11 1,16.54 5.4599999,21 11,21 16.54,21 21,16.54 21,11 21,5.4599999 16.54,1 11,1 Z"/>
 <path style="opacity:0.2;fill:#8b9cbe" d="M 11,1 C 5.4604924,1 1.0008889,5.4599999 1.0008889,11 c 0,0.084 -0.002,0.1665 0,0.25 C 1.1330771,5.8269999 5.5444849,1.5 11,1.5 c 5.455515,0 9.867123,4.3269999 9.999111,9.75 0.002,-0.0835 0,-0.166 0,-0.25 C 20.999111,5.4599999 16.539507,1 11,1 Z"/>
 <ellipse style="fill:#ff6843" cx="4" cy="-12.5" rx="2" ry="2.5" transform="scale(1,-1)"/>
 <ellipse style="fill:#ff6843" cx="17.5" cy="-12.5" rx="2" ry="2.5" transform="scale(1,-1)"/>
 <path style="opacity:0.1" d="M 5.9892579,12.739258 A 2,2.5 0 0 1 3.9999999,15 2,2.5 0 0 1 2.0107421,12.760742 2,2.5 0 0 0 1.9999999,13 a 2,2.5 0 0 0 2,2.5 2,2.5 0 0 0 2,-2.5 2,2.5 0 0 0 -0.01074,-0.260742 z"/>
 <path style="opacity:0.1" d="M 19.489258,12.739258 A 2,2.5 0 0 1 17.5,15 2,2.5 0 0 1 15.510742,12.760742 2,2.5 0 0 0 15.5,13 a 2,2.5 0 0 0 2,2.5 2,2.5 0 0 0 2,-2.5 2,2.5 0 0 0 -0.01074,-0.260742 z"/>
 <rect style="opacity:0.1" width="4" height="1" x="9" y="15.5" rx=".5" ry=".5"/>
 <rect style="fill:#17191e" width="4" height="1" x="9" y="15" rx=".5" ry=".5"/>
 <path style="opacity:0.1" d="m 7.4999998,7.4998108 c -0.828427,0 -1.4999999,0.671573 -1.4999999,1.4999994 0,0.8284268 0.6715729,0 1.4999999,0 0.828427,0 1.5,0.8284268 1.5,0 0,-0.8284264 -0.671573,-1.4999994 -1.5,-1.4999994 z"/>
 <path style="opacity:0.1" d="m 14.5,7.4998108 c -0.828427,0 -1.5,0.671573 -1.5,1.4999994 0,0.8284268 0.671573,0 1.5,0 0.828427,0 1.5,0.8284268 1.5,0 0,-0.8284264 -0.671573,-1.4999994 -1.5,-1.4999994 z"/>
 <path style="fill:#17191e" d="m 8.9999998,8.4996208 c 0,0.8284262 -0.671573,0 -1.5,0 -0.828427,0 -1.4999999,0.8284262 -1.4999999,0 0,-0.828427 0.6715729,-1.5 1.4999999,-1.5 0.828427,0 1.5,0.671573 1.5,1.5 z"/>
 <path style="fill:#17191e" d="m 16,8.4996208 c 0,0.8284262 -0.671573,0 -1.5,0 -0.828427,0 -1.5,0.8284262 -1.5,0 0,-0.828427 0.671573,-1.5 1.5,-1.5 0.828427,0 1.5,0.671573 1.5,1.5 z"/>
</svg>
