<svg xmlns="http://www.w3.org/2000/svg" width="24" height="24" version="1">
 <path style="opacity:0.2" d="m 12,2.5 c -5.5400001,0 -10,4.4599999 -10,10 0,5.54 4.4599999,10 10,10 5.54,0 10,-4.46 10,-10 0,-5.5400001 -4.46,-10 -10,-10 z"/>
 <path style="fill:#ffa50c" d="M 12,2 C 6.4599999,2 2,6.4599999 2,12 2,17.54 6.4599999,22 12,22 17.54,22 22,17.54 22,12 22,6.4599999 17.54,2 12,2 Z"/>
 <path style="opacity:0.1" d="M 9.4829797,16.5 C 9.4012867,16.57752 9.3244675,16.656236 9.2603236,16.739062 9.1964856,16.81275 9.124721,16.946874 9.124721,16.946875 9.04525,17.095222 8.9999999,17.250288 8.9999999,17.411718 8.9999999,18.012544 9.7750597,18.5 10.731026,18.5 H 12 13.268973 C 14.22494,18.5 15,18.012544 15,17.411718 c 0,-0.16143 -0.04525,-0.316496 -0.124721,-0.464843 0,0 -0.0726,-0.134129 -0.13644,-0.207813 C 14.674662,16.656194 14.597927,16.577554 14.516183,16.5 Z"/>
 <path style="opacity:0.2;fill:#8b9cbe" d="M 12,2 C 6.4604924,2 2.0008889,6.4599999 2.0008889,12 c 0,0.084 -0.002,0.1665 0,0.25 C 2.1330771,6.8269999 6.5444849,2.5 12,2.5 c 5.455515,0 9.867123,4.3269999 9.999111,9.75 0.002,-0.0835 0,-0.166 0,-0.25 C 21.999111,6.4599999 17.539507,2 12,2 Z"/>
 <path style="fill:#c2352a" d="M 9.4829797,16 C 9.4012867,16.07752 9.3244675,16.156236 9.2603236,16.239062 9.1964856,16.31275 9.124721,16.446874 9.124721,16.446875 9.04525,16.595222 8.9999999,16.750288 8.9999999,16.911718 8.9999999,17.512544 9.7750597,18 10.731026,18 H 12 13.268973 C 14.22494,18 15,17.512544 15,16.911718 c 0,-0.16143 -0.04525,-0.316496 -0.124721,-0.464843 0,0 -0.0726,-0.134129 -0.13644,-0.207813 C 14.674662,16.156194 14.597927,16.077554 14.516183,16 Z"/>
 <path style="opacity:0.1" d="m 10.731026,14.5 c -0.9559663,0 -1.7310261,0.486674 -1.7310261,1.0875 0,0.161431 0.04525,0.317277 0.1247211,0.465625 0,0 0.071764,0.133347 0.1356026,0.207031 0.064049,0.0827 0.1411059,0.162434 0.2226561,0.239844 h 5.0332033 c 0.0816,-0.07745 0.158573,-0.157097 0.222656,-0.239844 0.06384,-0.07368 0.13644,-0.207031 0.13644,-0.207031 C 14.95475,15.904777 15,15.748931 15,15.5875 15,14.986674 14.22494,14.5 13.268973,14.5 12.767621,14.5 12.316199,14.617176 12,14.83125 11.6838,14.617176 11.232379,14.5 10.731026,14.5 Z"/>
 <path style="fill:#db493d" d="m 10.731026,14 c -0.9559663,0 -1.7310261,0.486674 -1.7310261,1.0875 0,0.161431 0.04525,0.317277 0.1247211,0.465625 0,0 0.071764,0.133347 0.1356026,0.207031 0.064049,0.0827 0.1411059,0.162434 0.2226561,0.239844 h 5.0332033 c 0.0816,-0.07745 0.158573,-0.157097 0.222656,-0.239844 0.06384,-0.07368 0.13644,-0.207031 0.13644,-0.207031 C 14.95475,15.404777 15,15.248931 15,15.0875 15,14.486674 14.22494,14 13.268973,14 12.767621,14 12.316199,14.117176 12,14.33125 11.6838,14.117176 11.232379,14 10.731026,14 Z"/>
 <path style="opacity:0.1" d="m 8.5,9.5003639 c -0.828353,0 -1.5,0.7185911 -1.5,1.6054691 0,0.886876 0.671647,0 1.5,0 0.828353,0 1.5,0.886876 1.5,0 C 10,10.218956 9.328353,9.5003639 8.5,9.5003639 Z"/>
 <path style="opacity:0.1" d="m 15.5,9.5003639 c -0.828353,0 -1.5,0.7185911 -1.5,1.6054691 0,0.886876 0.671647,0 1.5,0 0.828353,0 1.5,0.886876 1.5,0 0,-0.886877 -0.671647,-1.6054691 -1.5,-1.6054691 z"/>
 <path style="fill:#17191e" d="m 10.000178,10.606197 c 0,0.886876 -0.671514,0 -1.499867,0 -0.828353,0 -1.499867,0.886876 -1.499867,0 0,-0.8868774 0.671514,-1.6058333 1.499867,-1.6058333 0.828353,0 1.499867,0.7189559 1.499867,1.6058333 z"/>
 <path style="fill:#17191e" d="m 16.999556,10.606197 c 0,0.886876 -0.671514,0 -1.499867,0 -0.828353,0 -1.499867,0.886876 -1.499867,0 0,-0.8868774 0.671514,-1.6058333 1.499867,-1.6058333 0.828353,0 1.499867,0.7189559 1.499867,1.6058333 z"/>
</svg>
