<svg xmlns="http://www.w3.org/2000/svg" width="24" height="24" version="1">
 <path style="opacity:0.2" d="m 12,2.5 c -5.54,0 -10,4.46 -10,10 0,5.54 4.46,10 10,10 5.54,0 10,-4.46 10,-10 0,-5.54 -4.46,-10 -10,-10 z"/>
 <path style="fill:#ffa50c" d="M 12,2 C 6.46,2 2,6.46 2,12 2,17.54 6.46,22 12,22 17.54,22 22,17.54 22,12 22,6.46 17.54,2 12,2 Z"/>
 <path style="opacity:0.1" d="m 7.240187,11.029946 c -0.6313455,-0.626739 0.111019,-1.019611 0.742364,-1.6463495 0.6313455,-0.626739 0.9125945,-1.250012 1.54394,-0.623273 0.631345,0.626739 0.631345,1.6428835 0,2.2696225 -0.6313455,0.626739 -1.6549585,0.626739 -2.286304,0 z"/>
 <path style="fill:#17191e" d="M 7.240187,10.529946 C 6.6088415,9.903207 7.351206,9.510335 7.982551,8.8835965 c 0.6313455,-0.626739 0.9125945,-1.250012 1.54394,-0.623273 0.631345,0.626739 0.631345,1.6428835 0,2.2696225 -0.6313455,0.626739 -1.6549585,0.626739 -2.286304,0 z"/>
 <path style="opacity:0.1;fill:none;stroke:#000000;stroke-linecap:round;stroke-linejoin:round" d="m 7.5,17.994293 c 0,0 1.5,-2 4.5,-2 3,0 4.5,2 4.5,2 v 0 0"/>
 <path style="fill:none;stroke:#17191e;stroke-linecap:round;stroke-linejoin:round" d="m 7.5,17.494293 c 0,0 1.5,-2 4.5,-2 3,0 4.5,2 4.5,2 v 0 0"/>
 <path style="opacity:0.2;fill:#8b9cbe" d="M 12,2 C 6.46,2 2,6.46 2,12 2,12.08394 2.00382,12.166571 2.00586,12.25 2.1381952,6.8269315 6.543937,2.5 12,2.5 c 5.456063,0 9.861805,4.3269315 9.99414,9.75 C 21.996176,12.166571 22,12.083937 22,12 22,6.46 17.54,2 12,2 Z"/>
 <path style="opacity:0.1" d="m 16.759812,11.029946 c 0.631346,-0.626739 -0.111019,-1.019611 -0.742364,-1.6463495 -0.631345,-0.626739 -0.912594,-1.250012 -1.543939,-0.623273 -0.631345,0.626739 -0.631345,1.6428835 0,2.2696225 0.631345,0.626739 1.654958,0.626739 2.286303,0 z"/>
 <path style="fill:#17191e" d="m 16.759812,10.529946 c 0.631346,-0.626739 -0.111019,-1.019611 -0.742364,-1.6463495 -0.631345,-0.626739 -0.912594,-1.250012 -1.543939,-0.623273 -0.631345,0.626739 -0.631345,1.6428835 0,2.2696225 0.631345,0.626739 1.654958,0.626739 2.286303,0 z"/>
 <path style="opacity:0.1" d="m 17.5,16.5 c -0.845155,0 -1.5,-0.752732 -1.5,-1.400274 0,-0.449453 0.218781,-0.965847 0.521479,-1.681694 0.04346,-0.103825 0.08991,-0.211748 0.136364,-0.323769 0.238261,-0.572406 0.584415,-1.188525 0.824175,-1.594263 0.211288,0.398906 0.527471,1.002732 0.824175,1.607922 C 18.844156,14.209017 19,14.655739 19,15.099726 19,15.747268 18.345154,16.5 17.5,16.5 Z"/>
 <path style="fill:#2e84d7" d="M 17.5,16 C 16.654845,16 16,15.247268 16,14.599726 c 0,-0.449453 0.218781,-0.965847 0.521479,-1.681694 0.04346,-0.103825 0.08991,-0.211748 0.136364,-0.323769 0.238261,-0.572406 0.584415,-1.188525 0.824175,-1.594263 0.211288,0.398906 0.527471,1.002732 0.824175,1.607922 C 18.844156,13.709017 19,14.155739 19,14.599726 19,15.247268 18.345154,16 17.5,16 Z"/>
</svg>
