<svg xmlns="http://www.w3.org/2000/svg" width="24" height="24" version="1">
 <path style="opacity:0.2" d="m 12,2.5 c -5.54,0 -10,4.46 -10,10 0,5.54 4.46,10 10,10 5.54,0 10,-4.46 10,-10 0,-5.54 -4.46,-10 -10,-10 z"/>
 <path style="fill:#ffa50c" d="M 12,2 C 6.46,2 2,6.46 2,12 2,17.54 6.46,22 12,22 17.54,22 22,17.54 22,12 22,6.46 17.54,2 12,2 Z"/>
 <path style="opacity:0.1;fill:none;stroke:#000000;stroke-linecap:round;stroke-linejoin:round" d="m 7.5042925,16 c 0,0 1.5,2 4.5000005,2 3,0 4.499999,-2 4.499999,-2 v 0 0"/>
 <path style="opacity:0.2;fill:#8b9cbe" d="M 12,2 C 6.46,2 2,6.46 2,12 2,12.084 1.998,12.1665 2,12.25 2.1322,6.827 6.544,2.5 12,2.5 c 5.456,0 9.868,4.327 10,9.75 C 22.002,12.1665 22,12.084 22,12 22,6.46 17.54,2 12,2 Z"/>
 <path style="opacity:0.1" d="m 10,9 c 0,0 1,-0.5 2,-0.5 1,0 2,0.5 2,0.5 v 1 c 0,0 -1,-0.5 -2,-0.5 -1,0 -2,0.5 -2,0.5 z"/>
 <path style="fill:#682c76" d="m 10,8.5 c 0,0 1,-0.5 2,-0.5 1,0 2,0.5 2,0.5 v 1 C 14,9.5 13,9 12,9 11,9 10,9.5 10,9.5 Z"/>
 <rect style="opacity:0.1" width="1.5" height="2" x="1" y="8.5" rx=".5" ry=".5"/>
 <rect style="fill:#682c76" width="1.5" height="2" x="1" y="8" rx=".5" ry=".5"/>
 <rect style="opacity:0.1" width="1.5" height="2" x="21.5" y="8.5" rx=".5" ry=".5"/>
 <rect style="fill:#682c76" width="1.5" height="2" x="21.5" y="8" rx=".5" ry=".5"/>
 <path style="fill:none;stroke:#17191e;stroke-linecap:round;stroke-linejoin:round" d="m 7.5042925,15.5 c 0,0 1.5,2 4.5000005,2 3,0 4.499999,-2 4.499999,-2 v 0 0"/>
 <circle style="fill:#17191e" cx="7" cy="10" r="1"/>
 <path style="opacity:0.3;fill:#0da3ff" d="M 9.5,9 A 3.5,3.5 0 0 1 6,12.5 3.5,3.5 0 0 1 2.5000001,9 3.5,3.5 0 0 1 6,5.5 3.5,3.5 0 0 1 9.5,9 Z"/>
 <circle style="fill:#17191e" cx="17" cy="10" r="1"/>
 <path style="opacity:0.3;fill:#0da3ff" d="M 21.5,9 A 3.5,3.5 0 0 1 18,12.5 3.5,3.5 0 0 1 14.5,9 3.5,3.5 0 0 1 18,5.5 3.5,3.5 0 0 1 21.5,9 Z"/>
 <path style="opacity:0.1" d="m 6,5.5 a 4,4 0 0 0 -4,4 4,4 0 0 0 4,4 4,4 0 0 0 4,-4 4,4 0 0 0 -4,-4 z m 0,1 c 1.668699,0 3,1.331301 3,3 0,1.668699 -1.331301,3 -3,3 -1.6686989,0 -3,-1.331301 -3,-3 0,-1.668699 1.3313011,-3 3,-3 z"/>
 <path style="fill:#b62fb1" d="M 6,5 A 4,4 0 0 0 2,9 4,4 0 0 0 6,13 4,4 0 0 0 10,9 4,4 0 0 0 6,5 Z M 6,6 C 7.668699,6 9,7.331301 9,9 9,10.668699 7.668699,12 6,12 4.3313011,12 3,10.668699 3,9 3,7.331301 4.3313011,6 6,6 Z"/>
 <path style="opacity:0.1" d="m 18,5.5 a 4,4 0 0 0 -4,4 4,4 0 0 0 4,4 4,4 0 0 0 4,-4 4,4 0 0 0 -4,-4 z m 0,1 c 1.668699,0 3,1.331301 3,3 0,1.668699 -1.331301,3 -3,3 -1.668698,0 -3,-1.331301 -3,-3 0,-1.668699 1.331302,-3 3,-3 z"/>
 <path style="fill:#b62fb1" d="m 18,5 a 4,4 0 0 0 -4,4 4,4 0 0 0 4,4 4,4 0 0 0 4,-4 4,4 0 0 0 -4,-4 z m 0,1 c 1.668699,0 3,1.331301 3,3 0,1.668699 -1.331301,3 -3,3 -1.668698,0 -3,-1.331301 -3,-3 0,-1.668699 1.331302,-3 3,-3 z"/>
</svg>
