<svg xmlns="http://www.w3.org/2000/svg" width="24" height="24" version="1">
 <path style="opacity:0.2" d="m 12,2.5 c -5.5400001,0 -10,4.4599999 -10,10 0,5.54 4.4599999,10 10,10 5.54,0 10,-4.46 10,-10 0,-5.5400001 -4.46,-10 -10,-10 z"/>
 <path style="fill:#ffa50c" d="M 12,2 C 6.4599999,2 2,6.4599999 2,12 2,17.54 6.4599999,22 12,22 17.54,22 22,17.54 22,12 22,6.4599999 17.54,2 12,2 Z"/>
 <circle style="opacity:0.1" cx="8.5" cy="10" r="1.5"/>
 <path style="opacity:0.2;fill:#8b9cbe" d="M 12,2 C 6.4604924,2 2.0008889,6.4599999 2.0008889,12 c 0,0.084 -0.002,0.1665 0,0.25 C 2.1330771,6.8269999 6.5444849,2.5 12,2.5 c 5.455515,0 9.867123,4.3269999 9.999111,9.75 0.002,-0.0835 0,-0.166 0,-0.25 C 21.999111,6.4599999 17.539507,2 12,2 Z"/>
 <circle style="opacity:0.1" cx="15.5" cy="10" r="1.5"/>
 <circle style="fill:#17191e" cx="8.5" cy="9.5" r="1.5"/>
 <circle style="fill:#17191e" cx="15.5" cy="9.5" r="1.5"/>
 <path style="opacity:0.1" d="M 16.522847,18.499795 A 0.50004999,0.50004999 0 0 1 16.103902,18.29374 c 0,0 -1.321832,-1.799804 -4.099609,-1.799804 -2.7777784,0 -4.0996099,1.799804 -4.0996099,1.799804 a 0.50019525,0.50019525 0 1 1 -0.800781,-0.599609 c 0,0 1.6781685,-2.200195 4.9003909,-2.200195 3.222221,0 4.90039,2.200195 4.90039,2.200195 a 0.50004999,0.50004999 0 0 1 -0.381836,0.805664 z"/>
 <path style="fill:none;stroke:#17191e;stroke-linecap:round;stroke-linejoin:round" d="m 7.5042926,17.494293 c 0,0 1.5,-2 4.5000004,-2 2.999999,0 4.499999,2 4.499999,2 v 0 0"/>
</svg>
