<svg xmlns="http://www.w3.org/2000/svg" width="24" height="24" version="1">
 <path style="opacity:0.2" d="M 1.1445301,1.0001595 C 1.0518388,1.4022162 1.0036964,1.8089404 1,2.2169474 1.0041299,3.5484687 1.4999963,7.000115 1.9999926,7.000115 L 4.9999703,5.0001298 C 3.5289472,3.9111312 1.498576,2.5270555 1.1445301,1.0001595 Z"/>
 <path style="opacity:0.2" d="M 18.855441,1.0001595 C 18.501394,2.5270555 16.471023,3.9111312 15,5.0001298 l 2.999978,1.9999852 c 0.499996,0 0.995863,-3.4516462 0.999993,-4.7831676 -0.0037,-0.408007 -0.05184,-0.8147312 -0.14453,-1.2167879 z"/>
 <path style="opacity:0.2" d="m 10.95402,13.202217 -1.9081886,0.595699 c 0,0 0.6489467,2.093675 1.9072126,4.212859 0.629133,1.059592 1.41182,2.141108 2.400372,2.996072 0.988553,0.854964 2.225172,1.493153 3.646458,1.493153 2.546277,0 4.039826,-1.311235 4.603481,-2.59959 0.563656,-1.288355 0.388669,-2.524395 0.388669,-2.524395 l -1.98436,0.248045 c 0,0 0.07501,0.763944 -0.236326,1.475575 -0.311339,0.71163 -0.817775,1.40038 -2.771464,1.40038 -0.828697,0 -1.592063,-0.361804 -2.337873,-1.006829 -0.74581,-0.645024 -1.431862,-1.563494 -1.99022,-2.503887 -1.116717,-1.880786 -1.717761,-3.787082 -1.717761,-3.787082 z"/>
 <path style="fill:#892b26" d="m 18.855144,0.50016324 c 0.09269,0.40205672 0.14113,0.80914526 0.144827,1.21715216 -0.0041,1.3315214 -0.499997,4.7828033 -0.999993,4.7828033 L 15,4.5001336 c 1.471023,-1.0889987 3.501098,-2.4730744 3.855144,-3.99997036 z"/>
 <path style="fill:#892b26" d="M 1.1448264,0.50016324 C 1.0521351,0.90221996 1.0036964,1.3093085 1,1.7173154 1.0041299,3.0488368 1.4999963,6.5001187 1.9999926,6.5001187 L 4.9999703,4.5001336 C 3.5289472,3.4111349 1.4988723,2.0270592 1.1448264,0.50016324 Z"/>
 <path style="fill:none;stroke:#892b26;stroke-width:1.99998522" d="m 9.9999258,13.00007 c 0,0 2.4999812,7.999941 6.9999482,7.999941 4.499966,0 3.99997,-3.99997 3.99997,-3.99997"/>
 <path style="opacity:0.1;fill:#8b9cbe" d="M 1.1445301,0.50016324 C 1.0518388,0.90221996 1.0036964,1.3089441 1,1.7169511 1.0002701,1.8040467 1.0083537,1.9208875 1.0126952,2.024566 1.0276139,1.6812806 1.0664488,1.3388441 1.1445301,1.0001595 1.471799,2.4115742 3.2193248,3.6893704 4.6454809,4.7364599 L 4.9999703,4.5001336 C 3.5289472,3.4111349 1.498576,2.0270592 1.1445301,0.50016324 Z"/>
 <path style="opacity:0.1;fill:#8b9cbe" d="M 18.855441,0.50016324 C 18.501394,2.0270592 16.471023,3.4111349 15,4.5001336 l 0.35449,0.2363263 c 1.426156,-1.0470895 3.173681,-2.3248857 3.500951,-3.7363004 0.07808,0.3386846 0.116916,0.6811211 0.131834,1.0244065 0.0043,-0.1036785 0.01243,-0.2205193 0.0127,-0.3076149 -0.0037,-0.408007 -0.05184,-0.81473114 -0.14453,-1.21678786 z"/>
 <path style="opacity:0.1;fill:#8b9cbe" d="M 10.95402,12.702221 9.0458314,13.29792 c 0,0 0.058751,0.179615 0.1552723,0.451168 L 10.95402,13.202217 c 0,0 0.601044,1.906296 1.717761,3.787082 0.558358,0.940393 1.24441,1.858863 1.99022,2.503887 0.74581,0.645025 1.509176,1.006829 2.337873,1.006829 1.953689,0 2.460125,-0.68875 2.771464,-1.40038 0.311338,-0.711631 0.236326,-1.475575 0.236326,-1.475575 l 1.98436,-0.248045 c 0,0 0.0092,0.07969 0.0166,0.194334 0.01553,-0.411686 -0.0166,-0.694331 -0.0166,-0.694331 l -1.98436,0.248045 c 0,0 0.07501,0.763945 -0.236326,1.475575 -0.311339,0.711631 -0.817775,1.400381 -2.771464,1.400381 -0.828697,0 -1.592063,-0.361804 -2.337873,-1.006829 -0.74581,-0.645025 -1.431862,-1.563494 -1.99022,-2.503887 -1.116717,-1.880786 -1.717761,-3.787082 -1.717761,-3.787082 z"/>
 <path style="opacity:0.2" d="M 9.9999258,2.5001484 C 4.4599669,2.5001484 0,6.9601153 0,12.500074 0,18.040033 4.4599669,22.5 9.9999258,22.5 c 5.5399592,0 9.9999262,-4.459967 9.9999262,-9.999926 0,-5.5399587 -4.459967,-9.9999256 -9.9999262,-9.9999256 z"/>
 <path style="fill:#d4453a" d="M 9.9999258,2.0001521 C 4.4599669,2.0001521 0,6.460119 0,12.000078 c 0,5.539959 4.4599669,9.999926 9.9999258,9.999926 5.5399592,0 9.9999262,-4.459967 9.9999262,-9.999926 0,-5.539959 -4.459967,-9.9999259 -9.9999262,-9.9999259 z"/>
 <path style="opacity:0.1" d="m 5.8925343,8.5045774 c -0.1250136,0.01991 -0.2611071,0.099174 -0.4189419,0.2558571 -0.6313403,0.6267343 -0.6313403,1.6427795 0,2.2695145 0.6313408,0.626735 1.6547747,0.626735 2.2861155,0 C 8.3910487,10.403214 7.6488662,10.010211 7.0175259,9.3834768 6.5440204,8.9134263 6.267576,8.4448458 5.8925343,8.5045774 Z"/>
 <path style="opacity:0.1" d="m 14.107317,8.5045774 c -0.375041,-0.059732 -0.651486,0.4088489 -1.124991,0.8788994 -0.631341,0.6267342 -1.373523,1.0197372 -0.742182,1.6464722 0.63134,0.626734 1.654774,0.626734 2.286115,0 0.631341,-0.626735 0.631341,-1.6427802 0,-2.2695145 C 14.368424,8.6037511 14.232331,8.5244877 14.107317,8.5045774 Z"/>
 <path style="opacity:0.1" d="m 14.518447,15.494163 a 0.50004629,0.50004629 0 0 0 -0.418942,0.206054 c 0,0 -1.321822,1.799791 -4.0995792,1.799791 -2.7777574,0 -4.0995791,-1.799791 -4.0995791,-1.799791 a 0.50019154,0.50019154 0 1 0 -0.800775,0.599604 c 0,0 1.678156,2.200179 4.9003541,2.200179 3.2221982,0 4.9003542,-2.200179 4.9003542,-2.200179 a 0.50004629,0.50004629 0 0 0 -0.381833,-0.805658 z"/>
 <path style="fill:#17191e" d="M 7.7597549,10.529626 C 8.3910957,9.902891 7.6487367,9.5100219 7.0173964,8.883288 6.3860556,8.2565537 6.1048087,7.6332853 5.4734679,8.2600197 c -0.6313403,0.6267343 -0.6313403,1.6428713 0,2.2696063 0.6313408,0.626733 1.6549462,0.626733 2.286287,0 z"/>
 <path style="fill:none;stroke:#17191e;stroke-width:0.99999261;stroke-linecap:round;stroke-linejoin:round" d="m 5.4999592,15.500023 c 0,0 1.4999889,1.999985 4.4999666,1.999985 2.9999782,0 4.4999662,-1.999985 4.4999662,-1.999985 v 0 0"/>
 <path style="fill:#17191e" d="m 12.240096,10.529626 c -0.631341,-0.626735 0.111018,-1.0196041 0.742359,-1.646338 0.63134,-0.6267343 0.912587,-1.2500027 1.543928,-0.6232683 0.631341,0.6267343 0.631341,1.6428713 0,2.2696063 -0.631341,0.626733 -1.654946,0.626733 -2.286287,0 z"/>
 <path style="opacity:0.2" d="m 20.97593,15.000674 a 0.44800686,0.4375345 0 0 0 -0.363969,0.218175 l -0.775768,1.312472 -0.776351,1.312473 a 0.44800686,0.4375345 0 0 0 0.388468,0.656236 h 1.551534 1.551536 a 0.44800686,0.4375345 0 0 0 0.388467,-0.656236 l -0.77635,-1.312473 -0.775769,-1.312472 A 0.44800686,0.4375345 0 0 0 20.97593,15.000674 Z"/>
 <path style="fill:#d4453a" d="m 20.97593,14.500677 a 0.44800686,0.4375345 0 0 0 -0.363969,0.218176 l -0.775768,1.312472 -0.776351,1.312472 a 0.44800686,0.4375345 0 0 0 0.388468,0.656236 h 1.551534 1.551536 a 0.44800686,0.4375345 0 0 0 0.388467,-0.656236 l -0.77635,-1.312472 -0.775769,-1.312472 A 0.44800686,0.4375345 0 0 0 20.97593,14.500677 Z"/>
 <path style="opacity:0.1;fill:#8b9cbe" d="M 9.9999258,2.0001521 C 4.4599669,2.0001521 0,6.460119 0,12.000078 0,12.084014 0.00382497,12.166647 0.00585946,12.250076 0.13819417,6.8270478 4.5439033,2.5001484 9.9999258,2.5001484 c 5.4560222,0 9.8617322,4.3268994 9.9940662,9.7499276 0.002,-0.08343 0.0059,-0.166062 0.0059,-0.249998 0,-5.539959 -4.459967,-9.9999259 -9.9999262,-9.9999259 z"/>
 <path style="opacity:0.1;fill:#8b9cbe" d="m 20.976407,14.501036 a 0.44800686,0.4375345 0 0 0 -0.364255,0.217772 l -0.776362,1.31249 -0.776361,1.31249 a 0.44800686,0.4375345 0 0 0 0.01953,0.466794 l 0.75683,-1.279288 0.776362,-1.31249 a 0.44800686,0.4375345 0 0 1 0.364255,-0.217772 0.44800686,0.4375345 0 0 1 0.41113,0.217772 l 0.776361,1.31249 0.75683,1.279288 a 0.44800686,0.4375345 0 0 0 0.01953,-0.466794 l -0.776361,-1.31249 -0.776361,-1.31249 a 0.44800686,0.4375345 0 0 0 -0.41113,-0.217772 z"/>
</svg>
