<svg xmlns="http://www.w3.org/2000/svg" width="16" height="16" version="1">
 <path style="fill:#fa8900" d="M 4e-8,3.6188715 C 10.947852,0.49882159 12.641469,1.2415366 16,11.648825 7.3812864,15.061679 3.702575,14.734974 1.6200853,10.825913 0.93768955,9.5449818 0.821741,7.8116995 0.48195299,5.6612777 0.35724154,4.8720144 0.08860451,4.5401489 4e-8,3.6188715 Z"/>
 <path style="fill:#ffeb0e" d="M 1.4648438 3.2304688 C 0.96619918 3.3654671 0.542814 3.464443 0 3.6191406 C 0.07182045 4.3659038 0.25866803 4.7358836 0.39453125 5.265625 L 5.1113281 7.6425781 L 6.1230469 5.7050781 L 1.4648438 3.2304688 z"/>
 <path style="fill:#ffeb0e" d="M 8.7189775,7.8762466 C 10.829808,8.0468247 11.836138,8.9932011 13,9.8289311 L 10.281757,9.9999998 8.1629727,8.7632988 Z"/>
 <path style="fill:#17191e" d="M 6.1234614,5.7045523 9.3213338,7.9326145 8.772916,9.1449876 5.1118195,7.6434 Z"/>
</svg>
