<svg xmlns="http://www.w3.org/2000/svg" width="16" height="16" version="1">
 <rect style="fill:#1e3d7d" width="16" height="14" x="-16" y="-14" rx="1" ry="1" transform="matrix(0,-1,-1,0,0,0)"/>
 <path style="fill:#f4f4f7" d="m 13.2,2 v 10.8 h -6 z"/>
 <path style="fill:#f4f4f7" d="M 0,2 V 5 H 3 V 2 Z"/>
 <path style="fill:#f4f4f7" d="m 0,11 v 1 h 8 v -1 z"/>
 <path style="fill:#f4f4f7" d="m 0,9 v 1 H 9 V 9 Z"/>
 <path style="fill:#f4f4f7" d="M 0,7 V 8 H 10 V 7 Z"/>
 <path style="fill:#ff950e" d="M 12.434375,0 6,12.211719 V 14 h 7 v 2 h 2 v -2 h 1 V 12 H 15 V 0 H 13.8 Z M 13,3.981 V 12 H 8.6523436 Z"/>
</svg>
