<svg xmlns="http://www.w3.org/2000/svg" width="16" height="16" version="1.1">
 <path style="fill:#a1252b" d="m 5.000852,1.9999994 c -2.1726303,0 -3.9982062,1.8263949 -3.9982062,4 0,0.7443578 0.2715309,1.4082039 0.6403377,2.0117188 L 0.32131087,10.648437 c -0.99802573,1.99383 0.4496194,4.341503 2.67848583,4.34375 l 9.9955153,0.0078 c 2.230045,0.0014 3.681444,-2.346186 2.684343,-4.341797 L 13.180776,5.6582025 C 12.343489,3.9904501 10.203651,3.4839844 8.7081731,4.5996088 8.1261088,3.1007331 6.6798952,1.9999994 5.000852,1.9999994 Z"/>
 <path style="fill:#f4f4f7" d="m 5,4.9999994 a 1,1 0 0 0 -1,1 1,1 0 0 0 1,1 1,1 0 0 0 1,-1 1,1 0 0 0 -1,-1 z m 5.5,2 -1.5,3 -1.5,-2 -2,2.9999996 -1,-1.9999996 -1.5,2.9921876 10,0.0078 z"/>
</svg>
