<svg xmlns="http://www.w3.org/2000/svg" width="16" height="16" version="1">
 <rect fill="#b2bfd9" width="16" height="16" x="0" y="0" rx="1.5" ry="1.5"/>
 <path style="fill:#17191e" d="m 10.28353,10.038045 c -1.1001,1.1e-5 -1.8621999,0.12238 -2.2865,0.36713 -0.42425,0.24476 -0.63637,0.66227 -0.63637,1.2526 0,0.47031 0.15786,0.544425 0.47358,0.822785 0.32064,0.27355 0.7547501,0.41032 1.3023,0.41032 0.75475,0 1.359,-0.25915 1.8129,-0.77744 0.45876,-0.5231 0.68815,-0.916385 0.68816,-1.780185 l 0,-0.29514 -1.3541,0 m 2.716,-0.5469997 0,4.5087147 -1.3615,0 0,-1.43283 c -0.31,0.49 -0.698,0.852 -1.161,1.087 C 10.013,13.885 9.446,14 8.7750001,14 7.926,14 7.251,13.77 6.747,13.309 6.249,12.843 6,12.522215 6,11.745215 c 0,-0.90702 0.31078,-1.5909 0.93235,-2.0515997 0.6265,-0.4607 1.5604951,-0.626291 2.797,-0.69106 l 1.9091,0 0,-0.12958 c -1.1e-5,-0.60947 -0.20719,-0.979878 -0.62156,-1.310978 -0.40945,-0.33592 -0.98661,-0.5039 -1.7315,-0.5039 -0.4735699,10e-6 -0.9348099,0.0552 -1.3837,0.16557 -0.44891,0.11038 -0.88055,0.576165 -1.2949,0.796915 l 0,-1.524015 c 0.49824,-0.18716 0.98167,-0.32632 1.4503,-0.41752 0.4686401,-0.09597 0.9249501,-0.14396 1.3689,-0.14397 1.1987,1e-5 2.0941,0.30235 2.686,0.90702 0.59196,0.60469 0.88794,1.421378 0.88795,2.649978 m -4.5869999,-7.491215 2.0866999,2.99897 -1.1321,0 -2.412,-2.99867 1.4577001,0"/>
</svg>
