<svg xmlns="http://www.w3.org/2000/svg" height="16" width="16" version="1.1">
 <rect style="fill:#c2352a" rx=".85699999" ry=".85699999" height="16" width="16" y="0" x=".00030000001"/>
 <path style="fill:#f4f4f7" d="m9 3c-1.4142136 0-1.9999669 3.0000331-2.5253906 3.4746094-0.6258804 0.6081171-1.0372589 1.0731006-1.9746094 1.5253906-0.7461112 0.3600133-1.5 0.6715729-1.5 1.5 0 0.828427 0.6715729 1.5 1.5 1.5 1.5 0 2.3994475-0.330911 3.5 0 0.6076077 0.206719 1.5585501 0.506559 2.126953 1.097656 0.413361 0.429865 0.776683 0.901252 1.373047 0.902344 0.0078 0.000061 0.01563 0.000061 0.02344 0h0.002c0.818396-0.013857 1.474677-0.681388 1.47456-1.5-0.000464-0.01368-0.0011-0.02735-0.002-0.04102l0.002-0.002-0.002-0.0039c-0.013178-0.422217-0.291086-0.742076-0.525344-1.093705-0.43005-0.6455199-0.724771-1.5803772-1.015625-2.359375-0.384667-1.0302674-0.457031-1.6579691-0.457031-3 0-0.1043102-0.014233-0.1816773-0.019531-0.2753906 0.012136-0.0742738 0.018664-0.1493557 0.019531-0.2246094 0.00005-0.3382181-0.114204-0.666527-0.324219-0.9316406l-0.002-0.00195c-0.172122-0.2552595-0.399492-0.4000673-0.662062-0.4746125-0.1639299-0.0601506-0.3371031-0.0912161-0.511719-0.0917969-0.0620723 0.0007135-0.1240404 0.0052796-0.1855469 0.0136719-0.1058252-0.0024537-0.207401-0.0136719-0.3144531-0.0136719zm-0.5 4c0.8284271 0 1.5 0.6715729 1.5 1.5s-0.6715729 1.5-1.5 1.5-1.5-0.6715729-1.5-1.5 0.6715729-1.5 1.5-1.5z"/>
</svg>
