<svg xmlns="http://www.w3.org/2000/svg" width="16" height="16" version="1.1">
 <circle style="fill:#1940ae" cx="8" cy="8" r="8"/>
 <path style="fill:#f4f4f7" d="M 7.6223481,13.620403 C 7.1778688,12.755398 7.1604152,12.275328 7.5485683,11.591058 L 7.7688418,11.20274 7.2900485,10.794756 C 6.5543717,10.167879 6.3101582,9.4645216 6.3101582,8.8771202 c 0,-0.4830587 0.2582671,-1.1042889 0.4590894,-1.1042889 0.048159,0 0.08756,-0.054949 0.08756,-0.1221095 0,-0.067159 -0.235741,-0.1666003 -0.5238716,-0.2209783 C 5.6730017,7.3051947 5.3151197,7.0305018 5.3093637,6.6440996 5.3054837,6.3862851 5.6666337,6.0861428 6.3737393,5.7594295 6.9186765,5.5076451 7.1174425,5.3612172 7.0291242,5.2766159 6.9594044,5.2098299 6.7691165,5.1921259 6.6062596,5.2372729 6.435846,5.2845139 6.3101582,5.2616239 6.3101582,5.1833479 6.3101582,5.1085429 6.1154159,5.0452965 5.8773944,5.0428005 5.0721587,5.0343577 4.9324406,5.0185177 4.8317807,4.9242817 4.7765424,4.8725677 4.6107333,4.8158831 4.4633159,4.798316 4.3158987,4.7807488 4.1345567,4.674386 4.0603333,4.5619533 3.9411371,4.3813944 3.9768379,4.3460998 4.3661278,4.2596347 4.960786,4.1275541 5.5336584,4.0300883 5.9501006,3.460174 6.6924135,2.4442972 6.920355,2.3747606 7.1031669,3.1084197 7.1922463,3.4659117 7.5617467,3.8593309 7.6686441,3.710503 7.689228,3.681853 7.6307281,3.446518 7.5386607,3.1875404 7.3803507,2.7422448 7.3796699,2.6972268 7.5261248,2.3586502 7.7123068,1.9282194 8.120511,1.8756236 8.3459765,2.2530155 8.5385665,2.5753779 8.5378569,2.9451858 8.3440165,3.2696234 8.110073,3.6612083 8.3213646,3.910162 8.6287319,3.6050877 8.7565785,3.4781954 8.8611814,3.3137011 8.8611814,3.2395454 c 0,-0.074156 0.082936,-0.2604626 0.1843048,-0.4140142 0.2214047,-0.3353854 0.3732391,-0.2449539 1.0001008,0.5956565 0.484437,0.6496196 0.972352,0.6970304 1.58374,0.8282851 0.399415,0.085746 0.430634,0.1171016 0.305435,0.3067543 -0.0767,0.1161849 -0.256402,0.2253711 -0.399335,0.2426366 -0.142933,0.017267 -0.331717,0.079121 -0.419522,0.1374557 -0.0878,0.058336 -0.259536,0.068086 -0.381625,0.021669 -0.122092,-0.046418 -0.249204,-0.017679 -0.282471,0.063859 -0.03684,0.090281 -0.195684,0.1136554 -0.406222,0.059774 -0.2144973,-0.054896 -0.3692688,-0.030788 -0.4077398,0.063502 -0.037231,0.091247 -0.1824323,0.1177615 -0.3633511,0.066349 -0.1729876,-0.049159 -0.3262633,-0.024544 -0.3598548,0.057786 -0.035184,0.086235 0.2058635,0.2610707 0.6045467,0.4384882 0.797679,0.3549733 1.073049,0.6015883 1.073049,0.9609981 0,0.3754034 -0.325094,0.6566856 -0.8883062,0.768589 -0.2630739,0.05227 -0.4783166,0.1254151 -0.4783166,0.1625443 0,0.037132 0.1229954,0.2797098 0.2733238,0.5390658 C 9.7966218,8.6525269 9.8277764,8.8745565 9.6666974,9.3345273 9.5443351,9.6839339 9.3693239,10.190454 8.7015222,10.772246 l -0.4843461,0.421962 0.1878219,0.328045 c 0.103301,0.180424 0.2106271,0.48738 0.2385035,0.682124 0.027876,0.194744 0.066822,0.433099 0.08655,0.529679 0.048471,0.237302 -0.5811847,1.275451 -0.7677754,1.265878 -0.081862,-0.0042 -0.2348323,-0.174988 -0.3399353,-0.37953 z m 0.9655163,-0.982249 c 0,-0.308013 -0.3420761,-1.114781 -0.4726746,-1.114781 -0.040687,0 -0.073975,0.530053 -0.073975,1.177895 v 1.177894 l 0.2733247,-0.471557 c 0.1503291,-0.259356 0.2733248,-0.605609 0.2733249,-0.769451 z m -0.644163,0.153675 c -0.00352,-0.431981 -0.03862,-0.909628 -0.077998,-1.06144 -0.065462,-0.25236 -0.088512,-0.234613 -0.2689113,0.207017 -0.2100631,0.51425 -0.1978936,0.92019 0.044608,1.488014 0.2013388,0.471436 0.3094654,0.244816 0.3023013,-0.633591 z M 7.8589988,9.221945 c 0,-1.3036493 -0.00132,-1.311103 -0.2259283,-1.311103 -0.4005726,0 -0.9558403,0.4190649 -1.0130909,0.7645878 -0.092736,0.5597028 0.051059,1.1727254 0.6294758,1.6693742 0.3101937,0.266342 0.5742387,0.485217 0.5867651,0.486388 0.012524,0.0012 0.02278,-0.8881406 0.02278,-1.609247 z m 0.8747356,1.115052 C 9.3370512,9.852659 9.4078378,9.4496081 9.4078378,9.0579624 9.4078378,8.5156712 9.2471746,8.2089105 8.882893,8.055661 8.1414186,7.7437308 8.1323235,7.7570298 8.1323235,9.1529394 c 0,0.683154 0.034888,1.5423696 0.077538,1.5423696 0.042646,0 0.278389,-0.16124 0.5238729,-0.358312 z M 7.8248329,6.9275148 C 7.7935129,6.6903086 7.7678909,6.19347 7.7678909,5.8234285 c 0,-0.3700414 -0.040517,-0.6728032 -0.090036,-0.6728032 -0.049518,0 -0.080267,0.1339547 -0.06833,0.2976768 0.019464,0.2669618 -0.072304,0.3348626 -0.8893796,0.6580774 -1.2216309,0.4832473 -1.2216309,0.6919913 0,0.9964279 1.2534476,0.3123651 1.1708033,0.325479 1.1046876,-0.1752926 z M 9.5825818,7.0364872 C 9.9041854,6.9480875 10.183509,6.801924 10.2033,6.7116797 10.23882,6.5497247 9.3772539,6.0993857 8.6561959,5.9030087 8.2994647,5.8058554 8.2122565,5.6154505 8.4588395,5.4721156 8.575024,5.4045796 8.5794632,5.3654969 8.4816195,5.2715433 8.2507876,5.049893 8.2234328,5.1549595 8.2234328,6.2631681 V 7.3757114 L 8.6106423,7.2864624 C 8.8236071,7.2373755 9.2609805,7.1248867 9.5825834,7.0364874 Z"/>
</svg>
