<svg xmlns="http://www.w3.org/2000/svg" width="16" height="16" version="1">
 <rect style="fill:#4949b1" width="16" height="16" x="0" y="0" rx=".8" ry=".8"/>
 <path style="fill:#f4f4f7" d="M 8.4735568,1.9999997 A 0.47374253,0.47374253 0 0 0 8.1386394,2.8086121 L 13.191388,7.8613606 A 0.47374253,0.47374253 0 0 0 14,7.5264432 V 2.473695 A 0.47374253,0.47374253 0 0 0 13.526305,1.9999997 Z"/>
</svg>
