<svg xmlns="http://www.w3.org/2000/svg" width="16" height="16" version="1">
 <path style="fill:#2d79c7" d="M 13.987,0 C 13.606,0 12.867,0.93207 12.59,1.0792 12.312,1.2264 10.119,2.8941 9.9115,3.1885 9.7035,3.4828 9.4265,3.6054 9.1265,3.5809 8.826,3.5564 7.8775,3.5463 7.554,3.7425 7.231,3.9388 5.7555,5.5432 5.3858,5.7393 5.0164,5.9355 4.5345,6.036 4.3036,6.0605 4.0727,6.085 3.3078,6.9901 3.1,7.1618 2.8922,7.3335 1.2502,8.0883 1.0193,8.2353 0.78833,8.3825 2.7038,10.444 2.9808,10.493 3.2579,10.542 2.2628,11.193 2.2568,11.659 2.2509,12.124 2.7332,13.509 5.5309,15.14 7.9495,16.549 10.505,15.87 11.469,15.583 11.852,15.469 11.711,14.161 11.782,13.465 11.828,13.024 11.989,9.3205 12.59,8.3395 13.19,7.3585 14.906,6.1808 15.506,6.0582 16.107,5.9356 15.991,5.6903 15.991,5.4696 15.991,5.2489 15.899,4.7583 15.737,4.6848 15.575,4.6112 14.945,5.0531 14.737,5.1021 14.529,5.1511 13.536,5.2248 13.398,4.9795 13.259,4.7344 14.518,2.2327 14.679,1.9384 14.841,1.6441 14.91,1.2516 14.61,0.8347 14.311,0.41728 14.103,3.4e-4 13.988,3.4e-4 Z"/>
 <path style="fill:#f4f4f7" d="M 8.988,5.0136 C 8.988,5.0136 8.2286,4.9009 7.7904,5.3237 7.3521,5.7466 6.9723,6.6767 7.0016,6.9585 7.0308,7.2404 7.9072,6.0002 8.2869,5.9157 8.6667,5.8311 9.0756,5.211 8.988,5.0137 Z"/>
</svg>
