<svg width="16" height="16" version="1.1" xmlns="http://www.w3.org/2000/svg">
 <path d="m11.150319 13.619546c-3.6687784 2.181457-8.0503355 1.694257-10.808126-0.874601-0.08195321-0.076325-0.13793541-0.176186-0.16112365-0.287414-0.20528748-0.983804-0.23365061-1.996212-0.097118-2.9938476 0.38250606-2.7949491 3.5903481-1.0082453 6.2968281-2.6175196 3.6687787-2.1814575 5.3071137-4.5969676 8.0649047-2.0281095 0.08196 0.076323 1.350057-1.3868133 1.373245-1.2755858 0.780415 3.7400032-0.996042 7.8933665-4.66861 10.077078z" style="fill:#b0a4a4"/>
 <path d="m9.8789062 1c-1.6822882-0.01805262-3.4242064 0.4264715-5.0292968 1.3808594-2.7769873 1.6511979-4.4679188 4.4274859-4.7910156 7.3007812 0.029691757 0.260003 0.06944552 0.5185154 0.12304687 0.7753904 0.02318824 0.111228 0.07820305 0.210785 0.16015626 0.28711 2.7577906 2.568858 7.1398153 3.056457 10.808594 0.875 2.77701-1.6512121 4.467925-4.4274905 4.791015-7.3007816-0.029692-0.2600029-0.069445-0.5185156-0.123047-0.7753906-0.023188-0.1112276-0.078196-0.2107864-0.160156-0.2871094-1.551257-1.4449827-3.616355-2.2326489-5.7792968-2.2558594z" style="fill:#c2352a"/>
 <circle transform="rotate(-30)" cx="2.928" cy="10.928" r="4" style="fill:#b47764"/>
 <ellipse transform="rotate(-30)" cx="2.928" cy="10.928" rx="2" ry="2" style="fill:#17191e;opacity:.95700001"/>
</svg>
