<svg xmlns="http://www.w3.org/2000/svg" width="16" height="16" version="1.1">
 <path style="fill:#0a455f" d="M 7.9534531,2 H 3.5987833 A 1.6032619,1.502423 0 0 0 2.0006984,3.5024235 1.5515437,1.4539578 0 0 0 3.5522433,4.9999999 h 4.4477548 z"/>
 <path style="fill:#3ddc84" d="M 5.5802735,0.10000024 A 0.2250225,0.2250225 0 0 0 5.3851562,0.44628928 L 6.1462889,1.6697267 A 4.4999999,4.4999999 0 0 0 4,5.5000001 4.4999999,4.4999999 0 0 0 8.4999999,10 4.4999999,4.4999999 0 0 0 13,5.5000001 4.4999999,4.4999999 0 0 0 10.852832,1.6706057 L 11.614843,0.44628928 A 0.2250225,0.2250225 0 0 0 11.419726,0.10000024 0.2250225,0.2250225 0 0 0 11.233398,0.20898465 L 10.458203,1.4543948 A 4.4999999,4.4999999 0 0 0 8.4999999,1.0000002 4.4999999,4.4999999 0 0 0 6.5409178,1.4526369 L 5.7666014,0.20898462 A 0.2250225,0.2250225 0 0 0 5.5802735,0.10000024 Z"/>
 <path style="fill:#4285f4" d="M 15,14 H 3.3046745 C 2.5844137,13.995361 2.0023267,13.412004 2.0000192,12.692496 V 3.427 C 2.0000192,4.5199375 3,5 3.594,5 h 9.499847 C 13.093847,5 15,4.8780689 15,6.312515 Z"/>
 <path style="fill:#073042" d="M 8.8802006,8.2279334 A 0.6725945,0.68055508 0 1 0 9.1382883,9.5336498 0.66868411,0.6765984 0 0 0 8.8802006,8.2279334 Z"/>
 <path style="fill:#0a455f" d="M 8.4939214,7.0000478 C 8.2795492,7.003365 8.108317,7.177674 8.1110892,7.3897587 V 7.8430343 C 7.6454935,8.0070254 7.3339644,8.4452782 7.3332715,8.9372524 7.33378,9.28172 7.4876322,9.6082188 7.7533234,9.828669 l -2.6874209,5.297398 c -0.1022286,0.196948 -0.084571,0.431123 0.046335,0.612188 0.132817,0.17937 0.3559928,0.277965 0.5864018,0.259554 0.2304829,-0.02097 0.4308772,-0.159037 0.5233558,-0.360199 l 1.797944,-3.3216 c 0.086723,-0.168198 0.2665655,-0.278448 0.4641078,-0.27923 0.0055,-1.6e-5 0.010477,0.0021 0.015953,0.0023 0.00549,-1.55e-4 0.01043,-0.0023 0.015953,-0.0023 0.1975423,7.74e-4 0.377385,0.111032 0.4641079,0.27923 l 1.7979422,3.3216 c 0.09248,0.201162 0.292873,0.339224 0.523356,0.360199 0.230409,0.01841 0.453586,-0.08019 0.586402,-0.259554 0.130906,-0.181065 0.148564,-0.41524 0.04634,-0.612188 L 9.2474324,9.8301827 C 9.513248,9.6092483 9.6668546,9.2821256 9.6667246,8.9372524 9.6663531,8.4450005 9.354765,8.0063615 8.8889069,7.8422776 V 7.3897587 C 8.8917406,7.1729662 8.7130522,6.9966641 8.4939214,7.0000478 Z m 0.00608,1.1623227 c 0.4295763,8e-7 0.7778163,0.346927 0.7778163,0.7748819 0,0.4279554 -0.3482409,0.7748817 -0.7778177,0.7748818 -0.4295768,-10e-8 -0.7778177,-0.3469264 -0.7778177,-0.7748818 0,-0.4279559 0.3482417,-0.7748826 0.7778191,-0.7748819 z"/>
 <path style="fill:#f4f4f7" d="M 10.505829,3.9998613 A 0.49417099,0.49852818 0 0 1 10.147564,3.1461327 0.50034812,0.50475979 0 0 1 11,3.501334 0.49417099,0.49852818 0 0 1 10.505829,3.9998613"/>
 <path style="fill:#f4f4f7" d="M 6.4828668,3.9999388 A 0.47766904,0.48014176 0 0 1 6.1425299,3.1776968 0.48363991,0.48614354 0 1 1 6.8232186,3.8618985 0.47169818,0.47413998 0 0 1 6.4828668,3.9999388"/>
 <path style="fill:#0a455f" d="M 13.676126,8 H 13.07565 C 13.03385,8 13,8.0858345 13,8.1230485 V 15.92662 c -8e-5,0.03563 0.03101,0.06516 0.07092,0.06738 h 0.619387 C 14.414394,15.9917 15.000006,15.468177 15,14.823208 V 6.745 C 15.000021,7.3949141 14.405749,8.0046754 13.676122,8 Z"/>
</svg>
