<svg xmlns="http://www.w3.org/2000/svg" height="16" width="16" version="1.1">
 <rect style="fill:#6c4ac4" rx="1" ry="1" height="16" width="16" y="0" x="0"/>
 <path style="fill:#b2bfd9" d="m2 13 1-10h10l1 10s0 1-1 1h-10c-1 0-1-1-1-1z"/>
 <circle r="1.5" style="fill:#cccccc" cx="5.5" cy="6.5"/>
 <circle r="1.5" style="fill:#cccccc" cx="10.5" cy="6.5"/>
 <path style="stroke-linejoin:round;stroke:#6c4ac4;stroke-linecap:round;fill:none" d="m5.5 6.5s0.499982 2.9999989 2.5 3c2 0.0000011 2.5-3 2.5-3"/>
</svg>
