<svg xmlns="http://www.w3.org/2000/svg" width="16" height="16" version="1">
 <path style="fill:#138985" d="M 13.52381,8.047619 A 2.4761905,2.4761905 0 0 0 11.11756,9.9523809 H 3.8095238 V 13 H 13.52381 A 2.4761905,2.4761905 0 0 0 16,10.523809 2.4761905,2.4761905 0 0 0 13.52381,8.047619 Z"/>
 <circle style="fill:#16aca8" cx="4" cy="9" r="4"/>
 <circle style="fill:#16aca8" cx="12.5" cy="7.5" r="2.5"/>
 <circle style="fill:#1bd0cb" cx="8" cy="7" r="5"/>
 <path style="fill:#f4f4f7" d="M 8 3 A 4 4 0 0 0 4 7 A 4 4 0 0 0 8 11 A 4 4 0 0 0 12 7 A 4 4 0 0 0 8 3 z M 8 4 A 3 3 0 0 1 11 7 A 3 3 0 0 1 8 10 A 3 3 0 0 1 5 7 A 3 3 0 0 1 8 4 z"/>
 <path style="fill:#f4f4f7" d="M 6,5 V 8 9.5 H 7 V 8 h 3 V 5 H 7 Z M 7,6 H 9 V 7 H 7 Z"/>
</svg>
