<svg xmlns="http://www.w3.org/2000/svg" width="16" height="16" version="1.1">
 <circle style="fill:#473fd9" cx="8" cy="8" r="8"/>
 <circle style="fill:#78ffb8" cx="8" cy="8" r="6"/>
 <path style="opacity:0.2;fill:#f4f4f7" d="M 8,2.0000001 A 5.9999999,5.9999999 0 0 0 2.0000001,8 5.9999999,5.9999999 0 0 0 2.0080568,8.2175292 5.9999999,5.9999999 0 0 1 8,2.3750001 5.9999999,5.9999999 0 0 1 13.991943,8.1574707 5.9999999,5.9999999 0 0 0 14,8 5.9999999,5.9999999 0 0 0 8,2.0000001 Z"/>
 <path style="fill:#5952d2" d="M 5.155178,10.422395 4.572149,10.649847 4.0891798,10.254086 4.1892392,9.6308709 4.7722682,9.403418 5.2552374,9.7991802 Z"/>
 <path style="fill:#f99e00" d="M 6.262925,6.329153 6.0604359,8.4426474 4.128851,9.3240335 2.3997562,8.0919252 2.6022458,5.9784313 4.5338304,5.0970452 Z"/>
 <path style="fill:#ea6f2a" d="M 12.442671,9.6775441 11.30928,10.491253 10.037892,9.9165631 9.8998953,8.5281639 11.033285,7.7144551 12.304673,8.2891452 Z"/>
 <path style="fill:#0478f5" d="M 13.329232,7.307336 12.33316,8.0224584 11.21581,7.517396 11.094532,6.2972113 12.090603,5.5820889 13.207954,6.0871513 Z"/>
 <path style="fill:#00c75f" d="M 13.543651,8.7210792 13.091939,9.0496925 12.585228,8.8176061 12.53023,8.2569065 12.981942,7.9282936 13.488653,8.16038 Z"/>
 <path style="fill:#569100" d="M 3.86309,10.371496 3.1400923,10.679228 2.5188487,10.201013 2.6206027,9.4150647 3.3436003,9.107333 3.964844,9.5855484 Z"/>
 <path style="fill:#17191e" d="M 5.3942524,3 C 5.1760555,3 5.0000001,3.1467129 5.0000001,3.3285435 V 12.671456 C 5.0000001,12.853288 5.1760555,13 5.3942524,13 H 10.605747 C 10.823945,13 11,12.853288 11,12.671456 V 3.3285435 C 11,3.1467129 10.823945,3 10.605747,3 Z"/>
 <rect style="fill:#bb0eff" width="4" height="7" x="6" y="5" ry=".229"/>
 <path style="fill:#5be19b" d="m 9.2539061,9.551956 c -0.016633,0 -0.022547,0.00202 -0.033854,0.011011 -0.019333,0.01537 -0.021563,0.017685 -0.059896,0.090044 -0.053543,0.1010669 -0.070794,0.1340525 -0.096354,0.1813823 -0.013046,0.024154 -0.064756,0.1210663 -0.1145833,0.2150697 -0.050669,0.09559 -0.092352,0.171017 -0.095052,0.171017 -0.00412,0 -0.018023,-0.0066 -0.066407,-0.03111 -0.018897,-0.0096 -0.1293981,-0.05201 -0.1686196,-0.06479 -0.057855,-0.01882 -0.085078,-0.02697 -0.1302084,-0.03821 -0.027067,-0.0067 -0.059698,-0.01488 -0.072266,-0.01814 -0.012567,-0.0032 -0.026417,-0.0065 -0.03125,-0.0072 -0.021916,-0.0028 -0.08828,-0.01343 -0.1041666,-0.01684 -0.016373,-0.0034 -0.056284,-0.0081 -0.1282553,-0.01425 -0.039188,-0.0033 -0.2669953,-0.0033 -0.3053383,0 -0.016433,0.0014 -0.041154,0.0041 -0.054687,0.0052 -0.013533,10e-4 -0.036281,0.0034 -0.050781,0.0058 -0.014499,0.0024 -0.032297,0.0051 -0.039062,0.0058 -0.039018,0.0042 -0.1426434,0.02579 -0.2161457,0.04534 -0.070821,0.01886 -0.1887154,0.06027 -0.2460941,0.08615 -0.019333,0.0088 -0.040762,0.018 -0.047525,0.02073 -0.00677,0.0028 -0.01855,0.0083 -0.026693,0.01295 -0.00814,0.0047 -0.017733,0.0084 -0.020833,0.0078 -0.0032,-6.96e-4 -0.032207,-0.05136 -0.066406,-0.115956 C 7.0191106,9.9899614 6.9788466,9.9132253 6.9186183,9.8000622 6.9012884,9.7675006 6.86858,9.7066837 6.8463526,9.6646732 6.791405,9.5608136 6.7812716,9.5498851 6.7421859,9.5526048 c -0.025569,0.00176 -0.043911,0.014624 -0.054688,0.037571 -0.014596,0.031094 -0.013147,0.050374 0.00781,0.089396 0.013147,0.024478 0.05278,0.098147 0.1874999,0.3517532 0.010044,0.0189 0.03283,0.06161 0.05078,0.09522 0.085691,0.160454 0.084683,0.158709 0.080729,0.163892 -0.0021,0.0028 -0.024577,0.01868 -0.05013,0.03498 -0.048155,0.03073 -0.129318,0.08824 -0.1660156,0.1179 -0.0116,0.0094 -0.029124,0.0238 -0.039062,0.03174 -0.086168,0.06878 -0.2358736,0.22495 -0.309245,0.323249 -0.00771,0.01032 -0.021276,0.029 -0.0306,0.04146 -0.043582,0.0582 -0.1166624,0.172996 -0.1432291,0.224786 -0.00593,0.01155 -0.016596,0.03079 -0.023437,0.0434 -0.058127,0.107101 -0.1291689,0.283099 -0.1627602,0.402929 -0.00618,0.02206 -0.012524,0.04464 -0.014324,0.04988 -0.00812,0.02379 -0.033749,0.13693 -0.045572,0.202113 -0.00442,0.02435 -0.00755,0.05608 -0.01172,0.08681 0.031421,0.07826 0.1033673,0.131917 0.190104,0.143811 0.029454,0.005 0.04848,0.0065 1.7916696,0.0065 1.4262999,0 1.6925931,-9.29e-4 1.7799485,-0.0039 0.093073,-0.0081 0.1701544,-0.06584 0.2024727,-0.148993 -0.00311,-0.02369 -0.00607,-0.05317 -0.00845,-0.06478 -0.00194,-0.0095 -0.00782,-0.04121 -0.013673,-0.07061 C 9.9071947,11.442374 9.799352,11.171687 9.656909,10.951207 9.612257,10.882096 9.60038,10.865345 9.574877,10.831364 9.56328,10.815906 9.54969,10.797507 9.544277,10.789908 9.498919,10.726238 9.3737597,10.592372 9.291673,10.519778 c -0.050579,-0.04474 -0.05755,-0.05064 -0.1048175,-0.08874 -0.03093,-0.02493 -0.1246004,-0.09036 -0.1640627,-0.11466 -0.017663,-0.01086 -0.034192,-0.02228 -0.036459,-0.02527 -0.00334,-0.0045 0.011287,-0.03374 0.074219,-0.151585 0.042992,-0.08049 0.081658,-0.1535435 0.085938,-0.1619483 0.00429,-0.00834 0.016323,-0.031189 0.026693,-0.050525 C 9.3200767,9.653058 9.321558,9.6500776 9.3216007,9.6264825 c 4.83e-5,-0.041442 -0.02969,-0.074496 -0.067709,-0.074496 z m -2.1744793,1.468553 c 0.037732,0 0.06259,0.0073 0.091797,0.02785 0.03139,0.02208 0.053094,0.05209 0.067058,0.09393 0.00993,0.02976 0.00895,0.09298 -0.00197,0.12049 -0.02176,0.05491 -0.065011,0.09809 -0.110026,0.110773 v 6.63e-4 c -0.025901,0.0072 -0.072438,0.0069 -0.095052,-6.63e-4 -0.038358,-0.01271 -0.076134,-0.04498 -0.095703,-0.08163 -0.044075,-0.08253 -0.021573,-0.189604 0.051432,-0.242925 0.02815,-0.02056 0.054381,-0.02851 0.092448,-0.02851 z m 1.7890627,0.0065 c 0.024117,-0.0094 0.081018,-0.0094 0.1048176,0 0.026507,0.01042 0.044956,0.02319 0.066407,0.04728 0.050475,0.05672 0.06245,0.129455 0.033203,0.198226 -0.00702,0.0165 -0.018636,0.03705 -0.025391,0.04599 -0.01545,0.02048 -0.04931,0.04568 -0.072917,0.05377 -0.026187,0.009 -0.076912,0.0095 -0.1009114,0.0012 -0.075567,-0.02591 -0.1238396,-0.101383 -0.1184896,-0.185268 0.00487,-0.07646 0.045957,-0.134999 0.1132814,-0.161301 z"/>
</svg>
