<svg xmlns="http://www.w3.org/2000/svg" width="16" height="16" version="1.1">
 <path style="fill:#fad83b" d="m 7.9855687,4e-8 c -0.4150981,0 -0.8288323,0.1124474 -1.1978085,0.33672524 L 5.5861546,1.0586142 4.2789714,1.8351916 2.2016056,3.0820908 C 1.4531119,3.5306468 0.99999994,4.3514276 0.99999994,5.2485388 V 10.75177 c 0,0.886171 0.45311156,1.717892 1.20160566,2.166448 l 4.5967884,2.745365 c 0.748494,0.448556 1.6652603,0.448556 2.403212,0 l 4.596788,-2.745365 C 14.546888,12.469662 15,11.648881 15,10.75177 V 5.2485388 C 14.989457,4.3514276 14.525712,3.5306468 13.78776,3.0820908 L 9.1909722,0.33672528 C 8.816725,0.11244744 8.4006664,4e-8 7.9855687,4e-8 Z"/>
 <path style="fill:#17191e" d="M 6 0.80859375 L 5.5859375 1.0585938 L 4.2792969 1.8359375 L 4 2.0039062 L 4 4.5703125 L 4 6.7519531 L 4 7.6015625 L 4 8.4511719 C 4 9.4181874 4.4880887 10.301649 5.2949219 10.785156 L 6.7050781 11.634766 C 7.1028125 11.882416 7.55681 12 8 12 C 8.4431895 12 8.8971875 11.870623 9.2949219 11.634766 L 10.703125 10.785156 C 11.509958 10.301649 12 9.4063943 12 8.4511719 L 12 7.765625 C 12 6.7986094 11.509958 5.9131951 10.703125 5.4296875 L 9.2949219 4.5800781 C 8.8971875 4.3324278 8.4431895 4.2148437 8 4.2148438 L 8 6 A 2 2 0 0 1 10 8 A 2 2 0 0 1 8 10 A 2 2 0 0 1 6 8 A 2 2 0 0 1 6.0175781 7.7441406 C 6.0119411 7.6960955 6 7.6583156 6 7.6015625 L 6 7.4746094 L 6 4.3574219 L 6 3.5683594 L 6 0.80859375 z M 7.4003906 4.2792969 C 7.271005 4.3146759 7.1293856 4.3492382 7 4.4082031 L 7 6.2714844 A 2 2 0 0 1 7.4003906 6.09375 L 7.4003906 4.2792969 z M 6.7109375 4.7773438 C 6.5815519 4.8127227 6.4399325 4.9488476 6.3105469 5.0078125 L 6.3105469 6.9335938 A 2 2 0 0 1 6.7109375 6.4726562 L 6.7109375 4.7773438 z"/>
</svg>
