<svg xmlns="http://www.w3.org/2000/svg" width="16" height="16" version="1">
 <rect style="fill:#2a7bdb" width="16" height="16" x="0" y="0" rx=".8" ry=".8"/>
 <path style="fill:#f4f4f7" d="m 8,2.99993 a 3.5,3.5 0 0 0 -3.5,3.5 3.5,3.5 0 0 0 0.039063,0.5019531 C 4.526045,7.0011662 4.5130272,7.0004431 4.5,6.99993 c -1.3807119,0 -2.5,1.1192881 -2.5,2.5 0,1.380712 1.1192881,2.5 2.5,2.5 H 4.6738281 L 4.90625,12.013602 C 4.961891,12.208893 5.0137634,12.406501 5,12.599539 c 0.00676,0.485265 -0.2592719,0.779624 -0.5859375,1.0625 -0.083084,0.04407 -0.146617,0.09675 -0.140625,0.115235 0.019748,0.06089 0.4007308,0.190397 0.625,0.21289 0.2893512,0.02901 0.6913526,-0.0073 0.921875,-0.09375 0.3665072,-0.137411 0.6599011,-0.36537 0.8671875,-0.675781 0.1772484,-0.265432 0.2709925,-0.529162 0.2988281,-0.835937 l 0.023437,-0.371094 1.4355469,-0.01367 H 11.5 v -0.01563 a 2.25,2.25 0 0 0 0.25,0.01563 2.25,2.25 0 0 0 0.421875,-0.04102 c 0.02518,-0.0048 0.04934,-0.01196 0.07422,-0.01758 a 2.25,2.25 0 0 0 0.367187,-0.115234 c 0.0092,-0.0038 0.01822,-0.0078 0.02734,-0.01172 a 2.25,2.25 0 0 0 0.347656,-0.189453 c 0.01729,-0.01144 0.03383,-0.02326 0.05078,-0.03516 a 2.25,2.25 0 0 0 0.289063,-0.236328 c 0.01385,-0.01363 0.02557,-0.02899 0.03906,-0.04297 a 2.25,2.25 0 0 0 0.246093,-0.298828 2.25,2.25 0 0 0 0.002,-0.0039 c 0.0019,-0.0029 0.002,-0.0069 0.0039,-0.0098 a 2.25,2.25 0 0 0 0.203125,-0.371094 2.25,2.25 0 0 0 0,-0.002 2.25,2.25 0 0 0 0.125,-0.398437 c 0.0022,-0.01002 0.0058,-0.01923 0.0078,-0.0293 a 2.25,2.25 0 0 0 0.002,-0.01172 A 2.25,2.25 0 0 0 14,9.74993 2.25,2.25 0 0 0 11.75,7.49993 2.25,2.25 0 0 0 11.337891,7.5389925 3.5,3.5 0 0 0 11.5,6.49993 3.5,3.5 0 0 0 8,2.99993 Z"/>
</svg>
