<svg xmlns="http://www.w3.org/2000/svg" width="16" height="16" version="1">
 <rect style="fill:#532e85" width="15" height="15" x="1" y="1" rx="7.5" ry="7.5"/>
 <path style="fill:#f4f4f7;fill-rule:evenodd" d="m 8.5062718,2.9230877 c -0.066742,-2.445e-4 -0.1290884,0.033281 -0.1650507,0.089616 a 0.07579776,0.07584771 0 0 0 0,7.308e-4 L 3.5281007,10.64782 a 0.07579776,0.07584771 0 0 0 -7.307e-4,7.3e-4 c -0.055253,0.09021 -0.024,0.210284 0.068093,0.262182 l 4.8131207,2.75513 a 0.07579776,0.07584771 0 0 0 0,7.31e-4 c 0.060533,0.03427 0.1348627,0.03427 0.1953965,0 l 4.8027488,-2.724745 c 0.04442,-0.02516 0.07757,-0.06699 0.09104,-0.116278 0.0078,-0.02923 -0.0067,-0.057 -0.01332,-0.08591 a 0.07579776,0.07584771 0 0 0 -0.0096,-0.06073 v -7.31e-4 a 0.07579776,0.07584771 0 0 0 -0.0052,-0.0074 L 8.672803,3.0134438 A 0.07579776,0.07584771 0 0 0 8.6720722,3.012713 C 8.6361272,2.9563946 8.5737634,2.9228525 8.5070218,2.9230973 Z M 8.7001884,3.7844363 12.850884,10.409338 11.124142,9.6516774 a 0.07579776,0.07584771 0 0 0 -7.31e-4,0 l -0.0015,-7.308e-4 C 10.91126,9.5582389 10.783046,9.4764308 10.700773,9.3709905 10.618232,9.2652051 10.574294,9.1271501 10.546083,8.9043955 a 0.07579776,0.07584771 0 0 0 -7.3e-4,-0.00223 c 6.6e-5,4.231e-4 -6.93e-4,-0.00586 -0.0015,-0.01185 -5.77e-4,-0.00417 -0.0011,-0.00995 -0.0022,-0.015554 l -7.31e-4,-0.0015 C 10.424154,8.1121197 9.8523241,7.5026739 9.1042987,7.2898201 H 9.103568 l -0.0074,-0.00223 -0.2294427,0.3347631 0.066613,0.014812 c 0.6217846,0.151002 1.1006867,0.6361639 1.2138267,1.2472143 a 0.07579776,0.07584771 0 0 0 0.0015,0.00741 l 0.0148,0.090357 0.0059,0.037773 c 0.03692,0.2851257 0.114399,0.4837627 0.256828,0.6361984 0.142429,0.152435 0.3404,0.2551769 0.610614,0.3740161 a 0.07579776,0.07584771 0 0 0 0.0015,7.31e-4 c 2.6e-5,10e-6 0.0013,-5.9e-5 0.0015,0 2.94e-4,9.7e-5 0.0016,5e-4 0.0022,7.31e-4 l 1.801497,0.790988 -4.1403343,2.349267 v -1.294615 c 0,-0.259616 0.010758,-0.40001 0.065132,-0.499182 0.054374,-0.09917 0.163312,-0.180063 0.3937539,-0.306619 0.092094,-0.05056 0.1856096,-0.103197 0.2871734,-0.160716 l 0.061432,-0.03481 0.0015,-7.31e-4 c 0.3020104,-0.160771 0.547613,-0.397692 0.728297,-0.677673 0.0023,-0.0035 0.01493,-0.02266 0.02738,-0.04148 L 9.9651749,9.8990308 C 9.8190776,10.165017 9.6073576,10.390318 9.3375376,10.538191 a 0.07579776,0.07584771 0 0 0 -7.308e-4,0 l -0.072533,0.04148 v -7.31e-4 c -0.099371,0.05613 -0.2007647,0.112196 -0.292355,0.162198 -0.2910523,0.159818 -0.4612116,0.29509 -0.5543635,0.472519 -0.093152,0.177429 -0.1028796,0.380649 -0.1028796,0.664342 v 1.293874 L 4.1343734,10.779645 5.8885019,10.0168 6.0113642,9.9642155 a 0.07579776,0.07584771 0 0 0 0.00369,-0.0015 c 0.03937,-0.019019 0.193525,-0.07805 0.2856934,-0.080728 a 0.07579776,0.07584771 0 0 0 0.00223,0 c 0.1114777,-0.0068 0.2635492,0.00594 0.3338023,0.0948 l 0.2708908,0.3399475 c 0.2139342,0.275832 0.4940246,0.502007 0.828955,0.639901 0.00265,0.0018 0.00525,0.0038 0.00814,0.0052 a 0.07579776,0.07584771 0 0 0 0.00518,0.0022 c 0.065603,0.02666 0.1309781,0.03987 0.1961366,0.05555 L 8.1725707,10.689279 C 8.049063,10.662702 7.9148191,10.624829 7.8121238,10.575963 a 0.07579776,0.07584771 0 0 0 -0.0015,0 C 7.5722703,10.463249 7.3677949,10.305856 7.2111118,10.104925 a 0.07579776,0.07584771 0 0 0 -0.00296,-0.0037 c -0.00539,-0.0061 -0.00972,-0.01241 -0.014065,-0.01926 a 0.07579776,0.07584771 0 0 0 -0.00444,-0.0052 c -0.017131,-0.02227 -0.032731,-0.04245 -0.045888,-0.06221 a 0.07579776,0.07584771 0 0 0 -0.00223,-0.0037 C 7.0973411,9.9516885 7.0300126,9.8637485 6.9365095,9.7464805 6.8626269,9.6530955 6.7621588,9.5939339 6.6596972,9.5568805 a 0.07579776,0.07584771 0 0 0 -0.032565,-0.00444 c -0.1036431,-0.032558 -0.2157785,-0.0513 -0.337577,-0.050368 a 0.07579776,0.07584771 0 0 0 -0.0015,0 c -0.1086023,0.00358 -0.215533,0.032835 -0.2975357,0.060731 -0.041001,0.013946 -0.075727,0.028035 -0.1006585,0.038512 -0.012469,0.00524 -0.022469,0.00938 -0.029604,0.012592 -0.00714,0.00323 -0.018012,0.00857 -0.010362,0.00518 l -0.064392,0.027404 -0.00369,0.0015 a 0.07579776,0.07584771 0 0 0 -0.00296,7.308e-4 l -0.1724523,0.074063 0.014804,-0.00444 c -2.369e-4,4.69e-5 -0.017531,0.00822 -0.026642,0.012592 0.00196,-0.00154 0.00503,-0.00431 0.00518,-0.00444 L 4.1742415,10.347125 8.3108753,3.7851771 v 2.6973607 c 0,0.2538238 -0.012054,0.3958927 -0.068833,0.4991819 -0.056778,0.1032896 -0.1684081,0.1881354 -0.4004154,0.3155073 -0.0357,0.019158 -0.071963,0.037177 -0.1088,0.054065 a 0.07579776,0.07584771 0 0 0 -0.0015,7.308e-4 l -0.061432,0.030365 c -0.016381,0.00743 -0.029981,0.014277 -0.041448,0.019996 a 0.07579776,0.07584771 0 0 0 -0.00296,0.0015 C 7.0044842,7.7003489 6.5665707,8.2946197 6.5041769,8.9917874 l 0.37599,0.1347938 C 6.8933361,8.5203416 7.2630622,7.9979366 7.7986788,7.7438316 a 0.07579776,0.07584771 0 0 0 0.00223,-0.0015 c 0.00138,-5.769e-4 0.00154,-2.11e-5 0.00296,-7.307e-4 a 0.07579776,0.07584771 0 0 0 7.307e-4,0 c 0.031927,-0.016235 0.064524,-0.032185 0.096958,-0.0474 0.1232762,-0.057098 0.2416112,-0.1241777 0.3537862,-0.2007092 l 0.0015,-7.308e-4 c 0.020888,-0.013635 0.035681,-0.026042 0.048108,-0.034808 a 0.07579776,0.07584771 0 0 0 7.308e-4,-7.308e-4 C 8.3418705,7.4310721 8.3758955,7.4039111 8.406341,7.3772351 8.421822,7.3638231 8.438079,7.3491081 8.45371,7.3305751 8.555213,7.2276947 8.6203249,7.1131497 8.6557707,6.9765559 8.6914168,6.839192 8.7001788,6.6816786 8.7001791,6.4825582 Z M 7.6454907,7.3964701 h 0.00518 a 0.07579776,0.07584771 0 0 0 -0.0074,0.0015 z"/>
</svg>
