<svg xmlns="http://www.w3.org/2000/svg" width="16" height="16" version="1.1">
 <circle style="fill:#ff6c10" cx="8" cy="8" r="8"/>
 <g transform="matrix(0.70356951,0,0,0.72727273,-298.16336,-537.22494)">
  <path style="fill:#f4f4f7" transform="matrix(1.4213237,0,0,1.375,402.46679,737.30929)" d="m 23.279297,2.9824219 c -0.722031,7.2e-6 -1.325438,0.2307237 -1.808594,0.5898437 C 20.211093,4.405261 20.006469,5.6587048 20,6.9296875 v 9.4804685 a 8,8 0 0 0 2,0.519532 v -1.480469 -1.158203 c 0.47773,0.589236 1.089578,0.728515 1.849609,0.728515 C 25.503152,15.008273 26.927926,13.508898 27,11.865234 26.999993,10.423039 26.308157,9.0933328 24.923828,8.4199219 25.852139,7.7745837 26.316399,6.7464369 26.316406,5.7363281 26.316399,4.8721463 26.023798,4.2060161 25.4375,3.7402344 24.856612,3.2688597 24.137032,2.9824291 23.279297,2.9824219 Z M 23.5,3.7089844 c 0.483148,7.2e-6 0.685787,0.092779 0.984375,0.46875 0.304005,0.3759855 0.455071,0.917931 0.455078,1.625 -7e-6,0.7912437 -0.192682,1.7250411 -0.578125,2.3984375 -0.428868,-0.1347491 -0.7865,-0.2031178 -1.074219,-0.203125 -0.461449,7.2e-6 -0.69142,0.1349441 -0.691406,0.4042969 -1.4e-5,0.2974327 0.273953,0.4453197 0.822266,0.4453124 0.260581,7.3e-6 0.553181,-0.042816 0.878906,-0.1269531 0.7608,0.8023869 1.180701,2.0494789 1.205078,2.9179689 -1.4e-5,0.791244 -0.169713,1.465935 -0.511719,2.021484 -0.342012,0.549957 -0.757354,0.63086 -1.490234,0.63086 -0.760038,0 -1.5,-0.04547 -1.5,-0.892578 V 6.2832031 c -7.27e-4,-1.8465909 0.8,-2.5742187 1.5,-2.5742187 z"/>
 </g>
</svg>
