<svg xmlns="http://www.w3.org/2000/svg" height="16" width="16" version="1.1">
 <path style="fill:#7478ce" d="m0 8s1 1 2 1 0-3 1-3-1 0-1-1v-2s0.6610169 1 1 1 3.5762712-2 5-2 4 0 4 2c0 5-1 6.644068-1 8s1 2 1 2-2 0-2-1c-1 1-1 2-1 2l-1-1-1 1-1-1-2 1s1-1 1-2c-2-1-2.9854993-1.985499-4-3-1-1-1-2-1-2z"/>
 <path style="fill:#fecd38" d="m15 9s1-1 1-3-1-3-3-3-5 4-5 5 1 3 2 3 4 0 4-3c1 0 1 1 1 1z"/>
 <circle r="1" style="fill:#f4f4f7" cx="8" cy="5"/>
</svg>
