<svg xmlns="http://www.w3.org/2000/svg" width="16" height="16" version="1.1">
 <path style="fill:#f5a34d" d="m 13.710335,1.0121972 c 0.181523,0 0.324392,0.1925235 0.324392,0.4382263 0,0.3064203 -0.423601,1.4904163 -1.001448,2.8004821 -0.513884,1.1650523 -0.636159,1.4993127 -0.571405,1.5616927 0.06765,0.065174 0.209844,-0.1613588 0.6778,-1.0788254 0.450105,-0.8824748 0.569129,-1.0255383 0.755921,-0.9084452 0.170137,0.1066532 0.158985,0.2593057 -0.0744,1.0036795 -0.217599,0.6940211 -0.272454,1.0565051 -0.15922,1.0565051 0.115105,0 0.472728,-0.3647788 1.174804,-1.1986125 0.734678,-0.872556 0.931634,-1.0180617 1.088497,-0.803539 0.124241,0.169909 0.104731,0.2767214 -0.143595,0.7752666 -0.17499,0.3513127 -0.362293,0.5896596 -0.817676,1.0416246 -0.640221,0.6354166 -1.104356,0.9412416 -1.88534,1.2402771 -0.271429,0.1039288 -0.534954,0.2292498 -0.585542,0.2782627 -0.05528,0.053567 -1.30824,0.574304 -1.758113,1.0312082 h -0.652504 c 4.19e-4,-0.011421 -0.01014,-0.00993 -0.02827,0 H 9.9046847 V 7.5818723 L 11.33543,5.27765 c 0.0549,-0.054901 -0.0076,-0.4573312 -0.226925,-1.4582744 -0.243757,-1.112354 0.02143,-2.0614076 0.464267,-1.6606474 0.22986,0.2080206 0.320541,0.7172676 0.327368,1.8451637 0.0039,0.6379293 0.03018,1.0576369 0.06771,1.070641 0.09375,0.032494 0.306674,-0.5540024 0.583309,-1.6041017 0.137242,-0.5209619 0.336451,-1.1754379 0.442691,-1.4545543 0.198644,-0.5218774 0.54273,-1.0036797 0.716489,-1.0036797 z"/>
 <circle style="fill:#af5d2d" cx="8" cy="14.476" r="1.524"/>
 <path style="fill:#f5a34d" d="m 2.289665,1.0121972 c -0.1815233,0 -0.3243917,0.1925235 -0.3243917,0.4382263 0,0.3064203 0.4236007,1.4904163 1.0014475,2.8004821 0.513884,1.1650523 0.6361587,1.4993127 0.5714055,1.5616927 C 3.4704738,5.8777724 3.3282815,5.6512395 2.8603263,4.7337729 2.410221,3.8512981 2.2911964,3.7082346 2.1044046,3.8253277 1.9342675,3.9319809 1.9454202,4.0846334 2.1788064,4.8290072 2.3964047,5.5230283 2.45126,5.8855123 2.3380262,5.8855123 2.2229212,5.8855123 1.8652977,5.5207335 1.1632224,4.6868998 0.42854365,3.8143438 0.23158776,3.6688381 0.07472473,3.8833608 -0.04951563,4.0532698 -0.03000563,4.1600822 0.21832011,4.6586274 0.39330968,5.0099401 0.58061316,5.248287 1.0359954,5.700252 1.6762169,6.3356686 2.1403517,6.6414936 2.921336,6.9405291 3.1927647,7.0444579 3.4562896,7.1697789 3.5068777,7.2187918 3.5621585,7.2723584 4.8151182,7.7930958 5.264991,8.25 h 0.6525036 c -4.191e-4,-0.011421 0.010144,-0.00993 0.028273,0 H 6.0953148 V 7.5818723 L 4.6645692,5.27765 C 4.6096685,5.222749 4.6721536,4.8203188 4.8914945,3.8193756 5.1352511,2.7070216 4.870063,1.757968 4.4272275,2.1587282 4.1973675,2.3667488 4.1066862,2.8759958 4.0998598,4.0038919 4.0959971,4.6418212 4.069682,5.0615288 4.032154,5.0745329 3.9384042,5.1070268 3.7254791,4.5205305 3.4488442,3.4704312 3.3116033,2.9494693 3.1123942,2.2949933 3.0061539,2.0158769 2.8075101,1.4939995 2.4634239,1.0121972 2.289665,1.0121972 Z"/>
 <path style="fill:#af5d2d" d="m 11.047496,8.3812602 c 0,1.6830858 -3.0474962,5.4854928 -3.0474962,5.4854928 0,0 -3.047496,-3.802407 -3.047496,-5.4854928 0,-1.6830855 1.3644104,-3.0474959 3.047496,-3.0474959 1.6830855,0 3.0474962,1.3644104 3.0474962,3.0474959 z"/>
 <ellipse id="ellipse911" style="fill:#f4f4f7" cx="-12.536" cy="1.86" rx=".742" ry="1.063" transform="matrix(-0.80749798,-0.58987034,-0.51619146,0.85647322,0,0)"/>
 <ellipse id="ellipse913" style="fill:#17191e" cx="-12.537" cy="2.014" rx=".466" ry=".668" transform="matrix(-0.80749798,-0.58987034,-0.51619146,0.85647322,0,0)"/>
 <ellipse style="fill:#f4f4f7" cx="1.2" cy="11.32" rx=".742" ry="1.063" transform="matrix(0.80749798,-0.58987034,0.51619146,0.85647322,0,0)"/>
 <ellipse id="ellipse909" style="fill:#17191e" cx="1.199" cy="11.474" rx=".466" ry=".668" transform="matrix(0.80749798,-0.58987034,0.51619146,0.85647322,0,0)"/>
 <path style="fill:#cf7642" d="M 7.9999999,9.0033869 C 7.6259636,8.9788256 7.3415337,9.0852509 6.9724122,9.408728 6.1038702,10.33216 5,12.534409 5,13.283334 c 0.037459,1.075507 0.3855604,1.768913 1.1191406,1.713581 0.7558593,0.02822 1.2934559,-0.510721 1.8808593,-0.522861 0.5874033,0.01214 1.1249999,0.551075 1.8808593,0.522861 C 10.614439,15.052246 10.962541,14.358841 11,13.283334 11,12.534409 9.8961295,10.33216 9.0275876,9.408728 8.658466,9.0852509 8.374036,8.9788246 7.9999999,9.0033869 Z"/>
 <path style="opacity:0.5" d="M 6.4781186,13.898475 C 6.1437299,13.728787 5.980416,13.350881 6.0018712,12.796449 c 0.00962,-0.248518 0.045187,-0.461001 0.079043,-0.472183 0.033855,-0.01118 0.1103262,0.116981 0.1699328,0.284807 0.1350712,0.380302 0.3879963,0.673759 0.7032097,0.815901 0.3563276,0.160681 0.3943218,0.372921 0.091461,0.510915 -0.2071013,0.09437 -0.3227478,0.08674 -0.5673986,-0.03742 z"/>
 <path style="opacity:0.5" d="m 9.5622426,13.898475 c 0.3343888,-0.169688 0.4977024,-0.547594 0.4762464,-1.102026 -0.0096,-0.248518 -0.04518,-0.461001 -0.07904,-0.472183 -0.03385,-0.01118 -0.1103256,0.116981 -0.1699326,0.284807 -0.135071,0.380302 -0.3879961,0.673759 -0.7032094,0.815901 -0.3563276,0.160681 -0.3943219,0.372921 -0.091461,0.510915 0.2071013,0.09437 0.3227479,0.08674 0.5673985,-0.03742 z"/>
 <path style="fill:none;stroke:#5b5b5b;stroke-width:0.76187396;stroke-linecap:round;stroke-linejoin:round" d="m 4.391,7.62 c 0,0 -0.2003701,-3.2478584 3.6089998,-3.2478584 C 11.80937,4.3721416 11.609,7.62 11.609,7.62"/>
 <path style="fill:#4b4b4b" d="M 4.75,7 C 4.3357866,7 4,7.4477153 4,8 4,8.5522847 4.3357866,9 4.75,9 H 5.0000002 5.2499999 C 5.3885002,9 5.5,8.8513333 5.5,8.6666667 V 8 7.3333333 C 5.5,7.1486667 5.3885002,7 5.2499999,7 H 5.0000002 Z"/>
 <path style="fill:#4b4b4b" d="M 11.25,7 C 11.664213,7 12,7.4477153 12,8 12,8.5522847 11.664213,9 11.25,9 H 11 10.75 C 10.6115,9 10.5,8.8513333 10.5,8.6666667 V 8 7.3333333 C 10.5,7.1486667 10.6115,7 10.75,7 H 11 Z"/>
</svg>
