<svg xmlns="http://www.w3.org/2000/svg" width="16" height="16" version="1">
 <circle style="fill:#17a0db" cx="8" cy="8" r="8"/>
 <path style="fill:#f4f4f7" d="M 9.8836412,1.999999 A 0.63419591,0.61275858 0 0 0 9.4193019,2.1996697 0.63419591,0.61275858 0 0 0 9.2611202,2.6778949 c 0.018288,0.180483 -0.030532,0.4904123 -0.061231,0.6014783 -0.00263,0.00694 -0.058841,0.1671908 -0.4873017,0.369761 a 0.77592667,0.74969848 0 0 0 -0.063785,0.022189 C 8.4267352,3.7426325 8.0128911,3.8757276 7.7405334,4.2259656 7.5334893,4.4670303 7.4797477,4.7123542 7.4216185,4.9950686 a 2.7314186,2.63909 0 0 0 -0.063786,0.6532449 v 0.046838 l -0.048476,0.012326 C 6.6157323,5.8551452 6.1151437,6.1586065 5.8244976,6.604765 5.5234011,7.0685936 5.4714967,7.6451056 5.6739699,8.3253876 c 0.00196,0.00947 0.00759,0.022523 0.010208,0.034511 l 0.030612,0.091208 -0.09695,-0.01479 c -0.035268,-0.00694 -0.068682,-0.00974 -0.1046038,-0.01479 a 0.99015557,0.95668591 0 0 0 -0.089296,-0.00492 c -0.3363657,0 -0.696673,0.2069876 -0.9618463,0.5521767 -0.2044317,0.2688312 -0.4519913,0.7395627 -0.4617881,1.4741157 -0.00522,0.552177 0.056392,1.059884 0.1811433,1.511091 0.094705,0.332569 0.1993292,0.536933 0.239824,0.608874 l 0.793459,1.437137 0.362287,-1.589974 c 0.1476092,-0.638001 0.2906665,-0.879853 0.4617889,-1.045192 l 0.033164,-0.03204 0.040821,0.02465 c 0.3931885,0.229707 0.8622838,0.350042 1.3547492,0.350042 A 3.272216,3.1616072 0 0 0 9.0901794,11.273626 C 9.4115218,11.09062 9.6845952,10.86679 9.9040488,10.608056 l 0.028064,-0.01972 0.051029,-0.0024 c 0.1273622,-0.0025 0.3063212,-0.06653 0.4898522,-0.172555 0.152834,-0.08835 0.390596,-0.254158 0.625072,-0.532456 a 3.5530649,3.4329627 0 0 0 0.57915,-1.0230489 c 0.170467,-0.4631979 0.27599,-1.005712 0.311261,-1.6121602 0.04115,-0.5572253 -0.02854,-1.0160443 -0.199005,-1.3656509 A 1.5296467,1.4779409 0 0 0 10.723017,5.0641193 l -0.03826,-0.00986 -0.0077,-0.039442 A 1.9097724,1.8452174 0 0 0 10.575028,4.647501 l -0.01024,-0.02958 0.01531,-0.024649 A 1.6570084,1.6009975 0 0 0 10.791912,3.1659792 C 10.661935,2.771571 10.559862,2.5199556 10.472995,2.3697637 10.296648,2.0643307 10.056722,2.0000027 9.8836408,2.0000027 Z m -0.00893,0.4683648 a 0.13715875,0.13252245 0 0 1 0.00893,0 c 0.092093,0 0.1681828,1.93e-5 0.4490318,0.8405902 0.148262,0.4411103 0.03854,0.8576885 -0.326568,1.2325374 l -0.012757,0.01479 c 0.00263,0.00255 0.00247,0.00486 0.0051,0.0074 0.153487,0.2435884 0.237231,0.549317 0.211759,0.7764984 a 1.1952406,1.1548386 0 0 1 -0.02551,0.1479045 v 0.00244 c 0.0307,-0.00255 0.06601,-0.00492 0.107155,-0.00492 0.180919,0 0.440867,0.027139 0.653137,0.1577648 0.127362,0.078882 0.290646,0.1996114 0.40821,0.4387831 0.1352,0.2764039 0.186451,0.6581157 0.150528,1.1339346 -0.03135,0.5616428 -0.125198,1.0629999 -0.280645,1.486441 a 3.0645185,2.9609303 0 0 1 -0.500064,0.8824963 c -0.337017,0.3994529 -0.689037,0.5330209 -0.7628418,0.5349139 -0.050944,0 -0.075988,-0.01743 -0.1811429,-0.08874 -0.0098,-0.0051 -0.023372,-0.01524 -0.033164,-0.02219 -0.1992069,0.342663 -0.5081406,0.638177 -0.8980635,0.86031 A 2.7843226,2.6902058 0 0 1 7.4675457,11.24155 c -0.540797,0 -1.0233423,-0.170031 -1.3930184,-0.488085 -0.444133,0.276404 -0.7324114,0.522418 -0.9694995,1.555463 l -0.081643,0.354975 -0.1760413,-0.32046 A 2.5753188,2.4882669 0 0 1 4.6483377,11.830728 5.194398,5.0188149 0 0 1 4.4850536,10.44782 C 4.4928936,9.871031 4.6708909,9.4962807 4.8243781,9.2867693 5.0000725,9.0381315 5.2299566,8.8849616 5.4239379,8.8849619 h 0.035719 c 0.3089345,0.03471 0.5025273,0.1598352 0.8597934,0.3870166 l 0.1122629,0.071486 C 6.5545033,9.4198225 6.6998053,9.4989815 6.7455249,9.51602 6.7768775,9.49898 6.8502311,9.383261 6.873091,9.2103503 l 0.0051,-0.024649 v -0.0074 c -0.00265,-0.00255 -0.00247,-0.00244 -0.0051,-0.00244 C 6.6333899,9.0969832 6.3049237,8.731915 6.1357613,8.1898359 5.9750896,7.6471242 6.008032,7.1989545 6.2327109,6.8537655 6.5971614,6.2921219 7.37866,6.1632872 7.633383,6.1216375 c 0.07903,-0.015146 0.1607944,-0.029291 0.2398248,-0.04191 0.015676,-0.00255 0.02716,-0.00796 0.038264,-0.00986 a 0.17569384,0.16975495 0 0 1 -0.00766,-0.024653 c -0.00457,-0.02209 -0.01388,-0.049798 -0.020412,-0.081349 C 7.8037206,5.616152 7.8446278,5.3254111 7.8936118,5.0887639 7.9497814,4.8249806 7.9829283,4.667058 8.1181274,4.5168659 8.2996995,4.2751701 8.6131237,4.1744376 8.8018801,4.1125937 A 1.5805912,1.5271636 0 0 0 8.9141385,4.0731531 C 9.4497107,3.8245153 9.6177915,3.5705728 9.6667755,3.4001862 9.7046555,3.2594603 9.7688496,2.8879245 9.7407648,2.6310833 a 0.1521809,0.14703682 0 0 1 0.038263,-0.1183234 0.13715875,0.13252245 0 0 1 0.095674,-0.04437 z M 10.01376,3.4198824 C 9.9628148,3.737936 9.883398,4.0415942 9.7305648,4.3615413 9.8964612,4.1791652 9.9938601,3.9821365 10.026517,3.7625278 c 0.01306,-0.090873 0.02643,-0.179832 -0.01276,-0.3426454 z M 9.6438192,3.9621985 C 9.386483,4.2013701 9.0693849,4.3324728 8.868219,4.4157723 A 1.9724735,1.9057991 0 0 0 8.702382,4.4872603 C 8.689319,4.4967303 8.671477,4.5042783 8.65646,4.5143763 8.5336696,4.5831613 8.3496688,4.6873451 8.3222375,4.7485582 v 0.00492 C 8.2379831,4.9238685 8.1918959,5.179605 8.1742611,5.3253799 8.3708547,5.2117891 8.5696536,5.1358452 8.7355505,5.0714772 8.8909969,5.0127885 9.0235634,4.9631715 9.0901834,4.9038521 9.388667,4.6451178 9.5674019,4.2158793 9.6438192,3.9621936 Z M 9.7739364,4.7904641 C 9.7073168,4.8346384 9.5751171,4.933497 9.4856379,5.0098553 a 0.36967549,0.35717957 0 0 0 -0.094398,0.1183245 c -0.00265,0.00504 -0.00503,0.0098 -0.00766,0.012326 -0.048332,0.1382026 0.017417,0.3280925 0.1454252,0.3968776 0.032656,0.019564 0.066253,0.031987 0.09695,0.034511 h 0.012756 c 0.096664,0 0.1765917,-0.068924 0.2347209,-0.2046019 A 0.6159081,0.59508891 0 0 0 9.888744,5.0320433 0.87650974,0.84688162 0 0 0 9.7739355,4.7904664 Z m -0.6990623,0.411668 c -0.5995789,0.1918421 -0.780927,0.3007384 -0.8802038,0.3796208 -0.053557,0.041648 -0.08454,0.1599349 0.066334,0.4880854 0.076418,0.1647064 0.3392436,0.3914742 0.4515828,0.4116683 a 0.07837644,0.07572712 0 0 0 0.025513,0.00244 c 0.1887556,0 0.612377,-0.2658536 0.6914066,-0.3870169 l 0.00766,-0.00986 0.00766,-0.0074 C 9.4729059,6.0550509 9.5498091,5.9194367 9.5876911,5.8405539 9.1847066,5.7225628 9.1415378,5.5121641 9.1003902,5.3253702 a 0.36836922,0.35591745 0 0 0 -0.012756,-0.059162 0.50944683,0.49222628 0 0 0 -0.012756,-0.064091 z m 1.5295139,0.6532441 a 0.11821779,0.11422174 0 0 0 -0.04209,0.00986 c -0.05356,0.020194 -0.139937,0.2584189 -0.102058,0.4338537 0.02613,0.1205321 0.173021,0.5223987 0.247478,0.7148723 0.02482,0.073834 0.04076,0.1081073 0.04338,0.1232536 a 0.24819202,0.23980254 0 0 1 0.01531,0.04437 c 0.05878,0.1703861 0.206861,0.6091298 0.25258,0.9663095 A 5.4079736,5.225171 0 0 0 11.141439,6.7649873 1.3663624,1.3201761 0 0 0 10.942444,6.096955 C 10.842513,5.9467637 10.717763,5.855378 10.615874,5.855378 a 0.11821779,0.11422174 0 0 0 -0.01148,0 z m -0.376319,0.054234 A 1.5022149,1.4514364 0 0 0 9.8606792,6.1092809 l -0.00766,0.00492 A 3.3309983,3.2184025 0 0 0 9.6540199,6.2719701 C 9.2431975,6.6291498 8.9341001,6.8146807 8.7355465,6.8241461 H 8.7253385 C 8.5522568,6.8089961 8.2890227,6.5657452 8.1819083,6.4420581 a 0.1397713,0.13504669 0 0 0 -0.081642,-0.022189 c -0.032656,0 -0.071825,0.00722 -0.1097073,0.014794 -0.025476,0.00442 -0.053556,0.00917 -0.081642,0.012326 a 2.5635623,2.4769078 0 0 0 -0.3240175,0.06163 8.7912226,8.4940582 0 0 0 -0.2347206,0.051765 C 7.0595371,6.6417933 6.8405323,6.7375766 6.7327647,6.82908 l -0.00766,0.0074 C 6.6506527,6.885704 6.4769591,7.0261738 6.4240551,7.2678704 v 0.00244 c -0.1097268,0.4461593 0.056679,0.9958906 0.2780934,1.3114202 0.1045013,0.1476679 0.2140652,0.2393876 0.3061577,0.2539024 0.022204,0.00255 0.050945,0.00492 0.081642,0.00492 0.3546529,0 1.1021071,-0.2045026 1.5945721,-0.3401802 L 8.883524,8.4461398 a 0.4180076,0.40387796 0 0 0 0.02806,-0.0074 C 8.8861109,8.4115997 8.8374113,8.3723987 8.7636069,8.3105548 8.4344259,8.0959944 8.1234714,7.9950253 7.7864526,7.9950253 c -0.074458,0 -0.1498132,0.00467 -0.2347209,0.01479 -0.2854209,0.031553 -0.5228769,0.096 -0.6378289,0.1281833 a 0.36314413,0.35086898 0 0 1 -0.0944,0.0222 0.08229524,0.07951348 0 0 1 -0.07654,-0.051765 0.08556094,0.08266876 0 0 1 0.025516,-0.086278 h 0.00252 C 6.96694,7.8618658 7.3370024,7.5636905 8.0338998,7.4305369 c 0.1195241,-0.022088 0.2493961,-0.034515 0.3852486,-0.034515 0.3108933,0 0.6352786,0.061825 0.9618459,0.1848811 0.4415217,0.167862 0.7443927,0.3817313 0.9873597,0.5546423 0.132587,0.090874 0.245151,0.1721217 0.344428,0.2169267 0.02613,0.012623 0.03815,0.014794 0.04338,0.014794 a 0.17634698,0.17038602 0 0 0 0.02806,-0.061629 c 0.0046,-0.00947 0.03273,-0.1235295 -0.165835,-0.7691033 A 11.913217,11.510522 0 0 0 10.291831,6.6096697 C 10.151407,6.2796257 10.184941,6.0484209 10.228046,5.909588 Z M 8.401326,7.6524177 c -0.3063209,0 -0.573597,0.056304 -0.7832534,0.1257192 0.051598,-0.00255 0.1045632,-0.00244 0.1607323,-0.00244 0.064009,0 0.1323213,5.25e-4 0.2015541,0.00492 0.2188009,0.015146 0.7809883,0.1107904 1.2858628,0.6951512 0.1025429,0.116115 0.2120661,0.2144614 0.5255718,0.2144614 0.1097272,0 0.2400064,-0.012364 0.3954544,-0.036971 l 0.04338,-0.012326 c 0.10711,-0.027133 0.191773,-0.051343 0.255127,-0.069016 C 10.355781,8.4860924 10.204784,8.3745917 10.001005,8.2218756 9.4980899,7.8445018 8.9604153,7.6524432 8.4013299,7.6524428 Z m 0.6709961,0.9835652 c -0.00718,0.00255 -0.01992,0.0048 -0.040821,0.00986 l -0.00766,0.00244 C 8.9193425,8.6855166 8.7304233,8.7470635 8.5135816,8.8183728 8.2510211,8.9048279 7.9542518,9.0006108 7.7073649,9.0870663 7.3905949,9.2006569 7.2890925,9.2451071 7.2557824,9.2596215 l -0.020416,0.056694 c -0.073804,0.219609 -0.2449057,0.7226425 -1.0894111,1.0747725 0.176346,0.170387 0.5539822,0.475761 1.3011708,0.47576 0.064008,0 0.1323824,-0.0023 0.199002,-0.0074 A 2.3003482,2.2225909 0 0 0 9.1386486,10.181546 C 9.5011399,9.819325 9.7049184,9.365298 9.7101431,8.9317604 A 1.1906685,1.1504212 0 0 1 9.332549,8.8405529 c 0,-0.00255 -0.1584676,-0.076674 -0.255132,-0.1972061 -0.00265,-0.00255 -0.0051,-0.00486 -0.0051,-0.0074 z m 1.7757159,0.036971 a 1.431023,1.3826509 0 0 1 -0.405661,0.1651608 c -0.176345,0.049222 -0.346731,0.076062 -0.438824,0.091207 -0.00784,0.088348 -0.023065,0.258852 -0.045922,0.3894822 A 2.1501268,2.0774473 0 0 1 9.8504756,9.67624 L 9.9856957,9.794563 C 10.116323,9.710633 10.549556,9.3923614 10.84804,8.6729541 Z M 5.4137351,9.279363 c -0.061394,0.015146 -0.4800554,0.2883942 -0.571495,1.104354 -0.045719,0.394412 0.032871,0.899299 0.099502,1.207886 0.053557,-0.183006 0.1377712,-0.382224 0.3010548,-0.586687 0.1528344,-0.192473 0.3185273,-0.342607 0.5255717,-0.475761 A 0.49573091,0.47897401 0 0 1 5.5821216,10.40344 0.42062017,0.40640219 0 0 1 5.4877227,10.085446 c 0.053557,-0.6140211 -0.020263,-0.7615124 -0.053577,-0.7962205 -0.00784,-0.010099 -0.013352,-0.00987 -0.015308,-0.00986 z M 5.8678692,9.4346622 C 5.8652192,9.5652916 5.8478252,9.685725 5.8321482,9.806889 a 4.5771837,4.4224639 0 0 0 -0.025511,0.199672 c -0.0098,0.135677 0.020756,0.18275 0.033168,0.19474 0.00784,0.0101 0.020448,0.01725 0.045922,0.01725 a 0.18810344,0.18174508 0 0 0 0.068885,-0.01479 C 6.2047629,10.102796 6.4417698,9.924995 6.5567222,9.829074 6.3803753,9.752085 6.1127933,9.5892717 5.8678668,9.4346625 Z"/>
</svg>
