<svg xmlns="http://www.w3.org/2000/svg" width="16" height="16" version="1.1">
 <circle style="fill:#aaaaaa" cx="8" cy="8" r="8"/>
 <path style="fill:#17191e" d="M 8 2 A 6 6 0 0 0 2 8 A 6 6 0 0 0 8 14 A 6 6 0 0 0 12.464844 12 L 9.5 12 L 7.5 8 L 9.5 4 L 12.462891 4 A 6 6 0 0 0 8 2 z"/>
 <path style="fill:#17191e" transform="matrix(0.3712759,0,0,0.42871248,-0.98584582,-2.5096581)" d="m 24.20261,24.514467 4.040122,-2.332565 4.040122,-2.332566 0,4.665131 0,4.665131 -4.040122,-2.332565 z"/>
 <path style="fill:#17191e" transform="matrix(0.3712759,0,0,0.42871248,2.0141542,-2.5096581)" d="m 24.20261,24.514467 4.040122,-2.332565 4.040122,-2.332566 0,4.665131 0,4.665131 -4.040122,-2.332565 z"/>
 <path style="fill:#f4f4f7" d="M 4.766944,4 C 4.4728472,4.0000513 4.2028117,4.143392 4.0649293,4.3726443 L 0.0938106,10.969633 C -0.18706149,11.436818 0.19654884,11.999853 0.79582494,12 H 7.2042243 c 0.598515,-1.75e-4 0.9821526,-0.561935 0.7027605,-1.029051 L 5.9994588,8 7.7488268,5.0316847 C 8.0311836,4.5644323 7.6475996,4.0001147 7.0475584,4 Z"/>
</svg>
