<svg xmlns="http://www.w3.org/2000/svg" width="16" height="16" version="1">
 <rect style="fill:#17191e" width="16" height="16" x="0" y="0" rx=".8" ry=".8"/>
 <path style="opacity:0.2;fill:#20ee03" d="m 0.982031,-3.01e-5 v 0.05 0.4320312 h 0.288281 v -0.4320312 -0.05 z m 1.964063,0 v 0.06875 0.41875 0.41875 0.41875 0.41875 0.4195312 0.41875 0.4054688 0.4187502 0.4195312 0.41875 0.432031 h 0.288281 v -0.432031 -0.41875 -0.4195312 -0.4187502 -0.41875 -0.41875 -0.41875 -0.4195312 -0.41875 -0.41875 -0.41875 -0.055469 z m 0.982031,0 v 0.065625 0.41875 h 0.2875 v -0.43125 -0.053125 z m 1.964063,0 v 0.06875 0.41875 0.41875 0.41875 0.41875 0.4195312 0.41875 0.41875 0.4187502 0.41875 0.419531 0.41875 h 0.2875 v -0.432031 -0.41875 -0.4195312 -0.4187502 -0.41875 -0.41875 -0.41875 -0.4195312 -0.41875 -0.41875 -0.41875 -0.055469 z m 1.964062,0 v 0.06875 0.4054688 0.41875 0.4320312 0.40625 0.41875 0.41875 0.4320312 0.4187502 0.41875 0.419531 0.41875 0.41875 h 0.2875 v -0.432031 -0.41875 -0.41875 -0.4195312 -0.4187502 -0.41875 -0.41875 -0.41875 -0.4195312 -0.41875 -0.41875 -0.41875 -0.055469 z m 0.982031,0 v 0.063281 0.41875 0.41875 h 0.2875 v -0.4320312 -0.41875 -0.05 z m 2.946094,0 v 0.06875 0.41875 0.41875 0.41875 0.41875 0.4195312 0.41875 0.4054688 0.4187502 0.4195312 0.41875 0.432031 h 0.2875 v -0.432031 -0.41875 -0.4195312 -0.4187502 -0.41875 -0.41875 -0.41875 -0.4195312 -0.41875 -0.41875 -0.41875 -0.055469 z m 0.98125,0 v 0.065625 0.41875 h 0.288281 v -0.43125 -0.053125 z m 0.982031,0 v 0.06875 0.4054688 0.41875 0.4320312 0.40625 0.41875 0.41875 0.4320312 0.4187502 0.41875 0.419531 0.41875 0.41875 h 0.288282 v -0.432031 -0.41875 -0.41875 -0.4195312 -0.4187502 -0.41875 -0.41875 -0.41875 -0.4195312 -0.41875 -0.41875 -0.41875 -0.055469 z m 0.982032,0 v 0.06875 h 0.288281 V -3.01e-5 Z M 0.288281,0.1882511 C 0.113212,0.3347743 0,0.5527791 0,0.7999699 V 0.9007511 H 0.288281 V 0.4687199 Z m 15.423438,0 v 0.296094 0.4195312 0.41875 0.41875 H 16 V 0.7999699 C 16,0.5527791 15.886788,0.3347743 15.711719,0.1882511 Z M 1.964062,0.4718451 v 0.4320312 0.41875 0.41875 h 0.288282 v -0.4320312 -0.41875 -0.41875 z m 8.838282,0 v 0.4320312 0.41875 0.41875 h 0.2875 v -0.4320312 -0.41875 -0.41875 z m -5.892188,0.00469 v 0.4320312 0.4195312 0.41875 0.41875 0.41875 0.4187496 0.4195318 h 0.2875 V 2.9905951 2.5710639 2.1523143 v -0.41875 -0.41875 -0.41875 -0.4195312 z m 9.819532,0.4195312 v 0.4320312 0.41875 0.41875 0.41875 0.4187496 0.4195318 0.4187504 0.41875 0.41875 0.41875 0.419531 h 0.288281 v -0.432033 -0.419532 -0.41875 -0.41875 -0.4187496 -0.4187506 -0.4195312 -0.4187496 -0.41875 -0.41875 -0.41875 z M 0.982031,1.3093475 v 0.4320312 0.40625 0.43125 0.4195312 h 0.288281 v -0.4320312 -0.41875 -0.4195312 -0.41875 z m 8.838281,0 v 0.4320312 0.40625 0.43125 0.4195312 h 0.2875 v -0.4320312 -0.41875 -0.4195312 -0.41875 z m -5.892187,0.00236 v 0.4195288 0.4320312 h 0.2875 V 1.7312363 1.3117051 Z m 2.946094,0 v 0.4195288 0.4320312 h 0.2875 V 1.7312363 1.3117051 Z M 0,1.7281135 v 0.4320312 0.41875 h 0.288281 v -0.43125 -0.4195312 z m 8.838281,0 v 0.4320312 0.41875 h 0.2875 v -0.43125 -0.4195312 z m 1.964063,0.8406248 v 0.41875 0.4320314 0.4187496 0.419532 h 0.2875 V 3.8257673 3.4062365 2.9874863 2.5687363 Z m 4.909375,0 v 0.4320312 0.4187502 0.4187496 0.419532 H 16 V 3.8257673 3.4062365 2.9874863 2.5687363 Z M 3.928125,2.9906131 v 0.4320318 0.4187504 0.41875 0.41875 h 0.2875 V 4.2468613 3.8281113 3.4093617 2.9906111 Z m 2.946094,0 v 0.4320318 0.4187504 0.41875 0.41875 h 0.2875 V 4.2468613 3.8281113 3.4093617 2.9906111 Z m 5.891406,0 v 0.4320318 0.4187504 0.41875 0.41875 h 0.288281 V 4.2468613 3.8281113 3.4093617 2.9906111 Z M 0,3.4062385 v 0.4320308 0.419532 0.41875 0.41875 h 0.288281 v -0.432032 -0.41875 -0.41875 -0.4195308 z m 8.838281,0 v 0.4195308 0.41875 0.41875 0.432032 h 0.2875 v -0.432032 -0.41875 -0.41875 -0.4195308 z m -7.85625,0.4195308 v 0.432032 h 0.288281 v -0.432032 z m 8.838281,0 v 0.432032 h 0.2875 v -0.432032 z m -4.910156,0.424219 v 0.432031 0.41875 h 0.2875 v -0.432031 -0.41875 z m -3.928125,0.835157 v 0.432031 0.41875 h 0.288281 v -0.432031 -0.41875 z m 0.982031,0 v 0.41875 0.432031 h 0.288282 v -0.432031 -0.41875 z m 7.85625,0 v 0.432031 0.41875 h 0.2875 v -0.432031 -0.41875 z m 0.982032,0 v 0.41875 0.432031 h 0.2875 v -0.432031 -0.41875 z m 4.909375,0 v 0.432031 0.41875 0.41875 H 16 v -0.432031 -0.41875 -0.41875 z m -12.765625,0.41875 v 0.432031 0.41875 0.41875 0.41875 0.419531 0.41875 0.41875 h 0.288281 v -0.432031 -0.41875 -0.41875 -0.419531 -0.41875 -0.41875 -0.41875 z m 2.946094,0 v 0.432031 0.41875 0.41875 0.41875 0.419531 0.41875 0.41875 h 0.2875 v -0.432031 -0.41875 -0.41875 -0.419531 -0.41875 -0.41875 -0.41875 z m 5.892187,0 v 0.432031 0.405469 0.432031 0.41875 0.419531 0.41875 0.41875 h 0.2875 v -0.432031 -0.41875 -0.41875 -0.419531 -0.41875 -0.41875 -0.41875 z m -4.910156,0.0024 v 0.432031 0.41875 0.419531 0.41875 0.41875 h 0.2875 v -0.432048 -0.41875 -0.41875 -0.419531 -0.41875 z m 5.891406,0 v 0.432031 0.41875 0.419531 0.41875 0.41875 h 0.288281 v -0.432048 -0.41875 -0.41875 -0.419531 -0.41875 z M 0,5.9226853 v 0.432031 h 0.288281 v -0.432031 z m 7.85625,0 v 0.432031 0.41875 h 0.2875 v -0.432031 -0.41875 z m 0.982031,0 v 0.432031 h 0.2875 v -0.432031 z m -3.928125,0.0055 v 0.432031 0.41875 0.41875 0.41875 0.41875 0.419531 h 0.2875 v -0.432031 -0.41875 -0.419531 -0.41875 -0.41875 -0.41875 z m 9.819532,0.416406 v 0.41875 0.41875 0.432031 0.405469 0.419531 0.41875 0.432031 h 0.288281 v -0.43203 -0.41875 -0.419532 -0.41875 -0.41875 -0.41875 -0.41875 z m -13.747657,0.41875 v 0.432032 0.405468 0.432032 0.41875 h 0.288281 v -0.432032 -0.41875 -0.41875 -0.41875 z m 0.982031,0 v 0.41875 0.41875 0.41875 0.432032 0.419531 h 0.288282 v -0.432031 -0.419532 -0.41875 -0.41875 -0.41875 z m 7.85625,0 v 0.432032 0.405468 0.41875 0.432032 h 0.2875 v -0.432032 -0.41875 -0.41875 -0.41875 z m 0.982032,0 v 0.41875 0.41875 0.41875 0.419532 0.432031 h 0.2875 v -0.432031 -0.419532 -0.41875 -0.41875 -0.41875 z M 0,7.1820913 v 0.432032 0.41875 h 0.288281 v -0.432048 -0.41875 z m 8.838281,0 v 0.432032 0.41875 h 0.2875 v -0.432048 -0.41875 z m 6.873438,0 v 0.41875 0.432032 H 16 v -0.432048 -0.41875 z M 7.85625,7.6008253 v 0.432031 0.41875 0.419531 0.41875 0.41875 h 0.2875 v -0.432031 -0.41875 -0.41875 -0.419531 -0.41875 z m 5.891406,0 v 0.432031 0.41875 0.419531 0.41875 0.41875 h 0.288282 v -0.432031 -0.41875 -0.41875 -0.419531 -0.41875 z m -9.819531,0.840625 v 0.432031 0.41875 0.41875 0.4187497 h 0.2875 v -0.4312497 -0.419531 -0.41875 -0.41875 z m 2.946094,0 v 0.41875 0.432031 0.41875 0.4187497 h 0.2875 v -0.4312497 -0.419531 -0.41875 -0.41875 z m 5.891406,0 v 0.432031 0.41875 0.41875 0.4187497 h 0.288281 v -0.4312497 -0.419531 -0.41875 -0.41875 z m -3.927344,0.41875 v 0.432031 0.40625 0.4312497 0.419532 h 0.2875 v -0.432032 -0.4187497 -0.419531 -0.41875 z m 6.873438,0 v 0.432031 0.40625 0.4312497 0.419532 0.405468 0.432031 0.41875 0.41875 0.419532 H 16 v -0.432032 -0.41875 -0.419531 -0.41875 -0.41875 -0.41875 -0.4187497 -0.419531 -0.41875 z M 2.946094,9.2766063 v 0.432031 0.4187497 0.41875 h 0.288281 v -0.432031 -0.4187497 -0.41875 z m 2.946094,0 v 0.432031 0.4187497 0.41875 h 0.2875 v -0.432031 -0.4187497 -0.41875 z m 5.892187,0 v 0.432031 0.4187497 0.41875 h 0.2875 v -0.432031 -0.4187497 -0.41875 z m -10.802344,0.0024 v 0.419531 0.4187497 0.432032 0.41875 0.418749 0.41875 0.41875 0.419532 0.41875 0.41875 0.418734 h 0.288281 v -0.432032 -0.41875 -0.41875 -0.41875 -0.41875 -0.419531 -0.41875 -0.41875 -0.41875 -0.4187497 -0.419531 z m 8.838281,0 v 0.419531 0.4187497 0.432032 0.405468 0.432031 0.41875 0.41875 0.419532 0.41875 0.41875 0.418734 h 0.2875 v -0.432032 -0.41875 -0.41875 -0.41875 -0.41875 -0.419531 -0.41875 -0.41875 -0.41875 -0.4187497 -0.419531 z m -4.910156,0.0031 v 0.432031 0.4187497 0.41875 0.41875 0.40625 0.41875 0.432031 h 0.2875 v -0.432031 -0.41875 -0.419531 -0.41875 -0.41875 -0.4187497 -0.41875 z m -2.946094,0.416407 v 0.4187497 0.41875 0.41875 0.418749 0.419532 0.41875 0.41875 0.432031 h 0.288282 v -0.432031 -0.41875 -0.41875 -0.419532 -0.418749 -0.41875 -0.41875 -0.4187497 z m 8.838282,0 v 0.4187497 0.41875 0.41875 0.418749 0.419532 0.41875 0.41875 0.432031 h 0.2875 v -0.432031 -0.41875 -0.41875 -0.419532 -0.418749 -0.41875 -0.41875 -0.4187497 z m 3.927344,0.4187497 v 0.432031 h 0.288281 v -0.432125 z m -6.873438,0.41875 v 0.432031 0.41875 0.41875 h 0.2875 v -0.432126 -0.418749 -0.41875 z m -3.928125,0.421093 v 0.432031 0.419531 0.41875 0.41875 0.41875 0.40625 0.432032 h 0.2875 v -0.432032 -0.419531 -0.41875 -0.41875 -0.41875 -0.41875 -0.419531 z m 2.946094,0 v 0.432031 0.419531 0.405469 0.41875 0.432031 0.40625 0.432032 h 0.2875 v -0.432032 -0.419531 -0.41875 -0.41875 -0.41875 -0.41875 -0.419531 z m 5.891406,0 v 0.432031 0.419531 0.41875 0.41875 0.41875 0.40625 0.432032 h 0.288281 v -0.432032 -0.419531 -0.41875 -0.41875 -0.41875 -0.41875 -0.419531 z m -9.819531,0.416406 v 0.419532 0.43125 h 0.288281 v -0.43125 -0.419532 z m 8.838281,0 v 0.419532 0.43125 h 0.2875 V 11.793032 11.373501 Z M 0,11.376612 v 0.432032 0.41875 0.41875 0.41875 0.41875 0.419531 0.41875 0.41875 0.41875 h 0.288281 v -0.432038 -0.41875 -0.41875 -0.41875 -0.419531 -0.41875 -0.41875 -0.41875 -0.41875 z m 8.838281,0 v 0.41875 0.41875 0.432032 0.405468 0.419532 0.41875 0.432031 0.41875 0.41875 h 0.2875 v -0.432038 -0.41875 -0.41875 -0.41875 -0.419531 -0.41875 -0.41875 -0.41875 -0.41875 z m 5.891407,0 v 0.41875 0.432032 h 0.288281 v -0.432032 -0.41875 z m -6.873438,1.25625 v 0.41875 0.432032 h 0.2875 v -0.432032 -0.41875 z m 5.891406,0 v 0.41875 0.432032 h 0.288282 v -0.432032 -0.41875 z m -7.855468,0.41875 v 0.432032 0.419531 0.41875 h 0.2875 v -0.432038 -0.41875 -0.419531 z m 5.892187,0 v 0.432032 0.419531 0.41875 h 0.2875 v -0.432038 -0.41875 -0.419531 z m 2.945313,0.0031 v 0.432032 0.41875 0.41875 0.40625 0.41875 0.41875 0.432036 h 0.288281 v -0.432038 -0.41875 -0.41875 -0.419531 -0.41875 -0.41875 -0.41875 z m 0.982031,0.416406 v 0.432032 0.41875 0.41875 H 16 v -0.432033 -0.41875 -0.41875 z M 1.964062,13.889874 v 0.41875 0.432031 0.41875 h 0.288282 v -0.432038 -0.41875 -0.41875 z m 8.838282,0 v 0.41875 0.432031 0.41875 h 0.2875 v -0.432038 -0.41875 -0.41875 z M 7.85625,14.310968 v 0.432031 0.40625 0.41875 0.432031 h 0.2875 v -0.432031 -0.41875 -0.41875 -0.419531 z m 5.891406,0 v 0.432031 0.40625 0.41875 0.432031 h 0.288282 v -0.432038 -0.41875 -0.41875 -0.419531 z M 0.982031,14.727367 v 0.432032 h 0.288281 v -0.432032 z m 8.838281,0 v 0.432032 h 0.2875 v -0.432032 z m -5.892187,0.0031 v 0.432037 0.405468 0.432032 h 0.2875 v -0.432032 -0.41875 -0.41875 z m -0.982031,0.41875 v 0.432037 0.41875 h 0.288281 v -0.432032 -0.41875 z m 2.946094,0 v 0.418755 0.432032 h 0.2875 v -0.432032 -0.41875 z m 9.819531,0.41875 v 0.24375 c 0.08035,-0.06725 0.146493,-0.149948 0.195312,-0.24375 z"/>
 <path style="fill:#20ee03" d="M 6,3 V 9 H 3.1999999 L 7.9999996,13.6 12.799999,9 H 10 V 3 Z"/>
</svg>
