<svg xmlns="http://www.w3.org/2000/svg" width="16" height="16" version="1.1">
 <rect style="fill:#4f4f4f" width="16" height="16" x="0" y="0" rx="1.2" ry="1.2"/>
 <path style="fill:#f4f4f7;stroke:#000000;stroke-width:0;stroke-linecap:round;stroke-linejoin:round" d="m 10.670747,2.0008098 a 0.7395304,0.7395304 0 0 0 -0.605706,0.3691835 0.7395304,0.7395304 0 0 0 0.27056,1.0106731 0.7395304,0.7395304 0 0 0 1.010673,-0.2705604 0.7395304,0.7395304 0 0 0 -0.27056,-1.010673 0.7395304,0.7395304 0 0 0 -0.404967,-0.098623 z M 5.9106348,3.157236 A 0.4666834,0.4666834 0 0 0 5.4436996,3.6241708 0.4666834,0.4666834 0 0 0 5.9106348,4.0902316 0.4666834,0.4666834 0 0 0 6.3766952,3.6241708 0.4666834,0.4666834 0 0 0 5.9106348,3.157236 Z M 7.0853892,3.2759336 A 0.40735516,0.40735516 0 0 0 6.6778032,3.6835192 0.40735516,0.40735516 0 0 0 7.0853892,4.0902316 0.40735516,0.40735516 0 0 0 7.4921016,3.6835192 0.40735516,0.40735516 0 0 0 7.0853892,3.2759336 Z m -2.5397744,0.04713 A 0.54974292,0.54974292 0 0 0 3.9957668,3.8729112 0.54974292,0.54974292 0 0 0 4.5456148,4.4227588 0.54974292,0.54974292 0 0 0 5.0954624,3.8729112 0.54974292,0.54974292 0 0 0 4.5456148,3.3230636 Z M 8.0524228,3.60846 A 0.35395973,0.35395973 0 0 0 7.6980764,3.9619344 0.35395973,0.35395973 0 0 0 8.0524228,4.3162804 0.35395973,0.35395973 0 0 0 8.4058964,3.9619344 0.35395973,0.35395973 0 0 0 8.0524228,3.60846 Z M 10.874976,3.9924812 A 0.63280252,0.63280252 0 0 0 10.356548,4.308426 0.63280252,0.63280252 0 0 0 10.588706,5.172472 0.63280252,0.63280252 0 0 0 11.452752,4.9411872 0.63280252,0.63280252 0 0 0 11.221467,4.0762676 0.63280252,0.63280252 0 0 0 10.874976,3.9924812 Z M 8.788172,4.058812 A 0.30649713,0.30649713 0 0 0 8.4809552,4.365156 0.30649713,0.30649713 0 0 0 8.788172,4.6723728 0.30649713,0.30649713 0 0 0 9.0945164,4.365156 0.30649713,0.30649713 0 0 0 8.788172,4.058812 Z M 12.4835,4.2194028 A 0.63280252,0.63280252 0 0 0 11.965944,4.5353468 0.63280252,0.63280252 0 0 0 12.19723,5.399394 0.63280252,0.63280252 0 0 0 13.062149,5.1681088 0.63280252,0.63280252 0 0 0 12.829991,4.3040616 0.63280252,0.63280252 0 0 0 12.4835,4.2194028 Z M 6.1235904,4.5100368 A 0.4666834,0.4666834 0 0 0 5.6575296,4.9769708 0.4666834,0.4666834 0 0 0 6.1235904,5.4430328 0.4666834,0.4666834 0 0 0 6.5905256,4.9769708 0.4666834,0.4666834 0 0 0 6.1235904,4.5100368 Z M 9.3336564,4.59295 A 0.25903447,0.25903447 0 0 0 9.0744424,4.852164 0.25903447,0.25903447 0 0 0 9.3336564,5.1113788 0.25903447,0.25903447 0 0 0 9.5928696,4.852164 0.25903447,0.25903447 0 0 0 9.3336564,4.59295 Z M 7.298346,4.628734 A 0.40735516,0.40735516 0 0 0 6.8916324,5.0363192 0.40735516,0.40735516 0 0 0 7.298346,5.4430324 0.40735516,0.40735516 0 0 0 7.7059316,5.0363192 0.40735516,0.40735516 0 0 0 7.298346,4.628734 Z M 4.7594444,4.675864 A 0.54974292,0.54974292 0 0 0 4.2095964,5.225712 0.54974292,0.54974292 0 0 0 4.7594444,5.77556 0.54974292,0.54974292 0 0 0 5.3092928,5.225712 0.54974292,0.54974292 0 0 0 4.7594444,4.675864 Z M 8.26538,4.9612612 A 0.35395973,0.35395973 0 0 0 7.911906,5.3147348 0.35395973,0.35395973 0 0 0 8.26538,5.6690816 0.35395973,0.35395973 0 0 0 8.6197264,5.3147348 0.35395973,0.35395973 0 0 0 8.26538,4.9612612 Z M 3.264382,5.2222204 A 0.63280252,0.63280252 0 0 0 2.63162,5.8549816 0.63280252,0.63280252 0 0 0 3.264382,6.4877436 0.63280252,0.63280252 0 0 0 3.8971428,5.8549816 0.63280252,0.63280252 0 0 0 3.264382,5.2222204 Z m 5.7367472,0.189392 A 0.30649713,0.30649713 0 0 0 8.6947848,5.717956 0.30649713,0.30649713 0 0 0 9.0011292,6.0243 0.30649713,0.30649713 0 0 0 9.3074728,5.717956 0.30649713,0.30649713 0 0 0 9.0011292,5.4116124 Z m 1.6748538,0.2731784 a 0.54974292,0.54974292 0 0 0 -0.450351,0.274052 0.54974292,0.54974292 0 0 0 0.20161,0.751458 A 0.54974292,0.54974292 0 0 0 11.177829,6.50869 0.54974292,0.54974292 0 0 0 10.97709,5.758104 0.54974292,0.54974292 0 0 0 10.675983,5.6847908 Z M 12.284507,5.911712 A 0.54974292,0.54974292 0 0 0 11.835028,6.1857636 0.54974292,0.54974292 0 0 0 12.035766,6.9372224 0.54974292,0.54974292 0 0 0 12.787225,6.7356116 0.54974292,0.54974292 0 0 0 12.585614,5.9850256 0.54974292,0.54974292 0 0 0 12.284507,5.911712 Z M 6.7319148,6.0173172 A 0.4666834,0.4666834 0 0 0 6.2649804,6.4833788 0.4666834,0.4666834 0 0 0 6.7319148,6.9503136 0.4666834,0.4666834 0 0 0 7.1988496,6.4833788 0.4666834,0.4666834 0 0 0 6.7319148,6.0173172 Z M 7.9066696,6.135142 A 0.40735516,0.40735516 0 0 0 7.499084,6.542728 0.40735516,0.40735516 0 0 0 7.9066696,6.9503136 0.40735516,0.40735516 0 0 0 8.3133828,6.542728 0.40735516,0.40735516 0 0 0 7.9066696,6.135142 Z m -2.539774,0.048002 a 0.54974292,0.54974292 0 0 0 -0.549848,0.5498484 0.54974292,0.54974292 0 0 0 0.549848,0.549848 0.54974292,0.54974292 0 0 0 0.549848,-0.549848 0.54974292,0.54974292 0 0 0 -0.549848,-0.5498484 z m 8.1962264,0.21994 A 0.54974292,0.54974292 0 0 0 13.11277,6.6771348 0.54974292,0.54974292 0 0 0 13.314381,7.4285944 0.54974292,0.54974292 0 0 0 14.064966,7.2269832 0.54974292,0.54974292 0 0 0 13.864229,6.4763968 0.54974292,0.54974292 0 0 0 13.563122,6.403084 Z M 8.873704,6.4676704 A 0.35395973,0.35395973 0 0 0 8.5193572,6.8220168 0.35395973,0.35395973 0 0 0 8.873704,7.1754904 0.35395973,0.35395973 0 0 0 9.227178,6.8220168 0.35395973,0.35395973 0 0 0 8.873704,6.4676704 Z M 3.8718328,6.72863 A 0.63280252,0.63280252 0 0 0 3.2390712,7.3613912 0.63280252,0.63280252 0 0 0 3.8718328,7.9941528 0.63280252,0.63280252 0 0 0 4.5045944,7.3613912 0.63280252,0.63280252 0 0 0 3.8718328,6.72863 Z M 10.213413,7.0742484 A 0.4666834,0.4666834 0 0 0 9.8311372,7.3072792 0.4666834,0.4666834 0 0 0 10.002201,7.9444048 0.4666834,0.4666834 0 0 0 10.639326,7.7733412 0.4666834,0.4666834 0 0 0 10.469135,7.1362156 0.4666834,0.4666834 0 0 0 10.213413,7.0742484 Z M 11.821936,7.30117 A 0.4666834,0.4666834 0 0 0 11.440534,7.5342012 0.4666834,0.4666834 0 0 0 11.610725,8.171326 0.4666834,0.4666834 0 0 0 12.248722,8.0002628 0.4666834,0.4666834 0 0 0 12.077659,7.3631368 0.4666834,0.4666834 0 0 0 11.821936,7.30117 Z M 6.7912636,7.6712264 A 0.35395973,0.35395973 0 0 0 6.6219452,7.7192288 0.35395973,0.35395973 0 0 0 6.4927748,8.2027456 0.35395973,0.35395973 0 0 0 6.976292,8.3319172 0.35395973,0.35395973 0 0 0 7.1054624,7.8483996 0.35395973,0.35395973 0 0 0 6.7912636,7.6712264 Z M 2.3392402,7.7366852 A 0.7395304,0.7395304 0 0 0 1.6000004,8.476798 0.7395304,0.7395304 0 0 0 2.3392402,9.216038 0.7395304,0.7395304 0 0 0 3.0793528,8.476798 0.7395304,0.7395304 0 0 0 2.3392402,7.7366852 Z M 13.100551,7.7925432 A 0.4666834,0.4666834 0 0 0 12.718276,8.025574 0.4666834,0.4666834 0 0 0 12.889339,8.6626988 0.4666834,0.4666834 0 0 0 13.526465,8.4916356 0.4666834,0.4666834 0 0 0 13.356274,7.8545096 0.4666834,0.4666834 0 0 0 13.100551,7.7925432 Z M 9.57716,8.120706 A 0.40735516,0.40735516 0 0 0 9.2437604,8.3240624 0.40735516,0.40735516 0 0 0 9.3930044,8.8808928 0.40735516,0.40735516 0 0 0 9.9498344,8.7316476 0.40735516,0.40735516 0 0 0 9.8005904,8.1748176 0.40735516,0.40735516 0 0 0 9.57716,8.120706 Z M 5.772736,8.159978 A 0.30649713,0.30649713 0 0 0 5.6261096,8.200996 0.30649713,0.30649713 0 0 0 5.5143948,8.619928 0.30649713,0.30649713 0 0 0 5.9333264,8.7316432 0.30649713,0.30649713 0 0 0 6.0450412,8.3135844 0.30649713,0.30649713 0 0 0 5.772736,8.1599756 Z m 5.41382,0.1885192 a 0.40735516,0.40735516 0 0 0 -0.333399,0.2024836 0.40735516,0.40735516 0 0 0 0.148371,0.5568308 0.40735516,0.40735516 0 0 0 0.55683,-0.149244 A 0.40735516,0.40735516 0 0 0 11.409114,8.40261 0.40735516,0.40735516 0 0 0 11.186556,8.3484972 Z m -6.3293608,0.00434 A 0.25903447,0.25903447 0 0 0 4.734134,8.3877532 0.25903447,0.25903447 0 0 0 4.639002,8.7412272 0.25903447,0.25903447 0 0 0 4.993348,8.8363588 0.25903447,0.25903447 0 0 0 5.087608,8.4820128 0.25903447,0.25903447 0 0 0 4.8571952,8.3528424 Z m 2.174954,0.2426316 A 0.40735516,0.40735516 0 0 0 6.8375204,8.649584 0.40735516,0.40735516 0 0 0 6.688276,9.2064148 0.40735516,0.40735516 0 0 0 7.2451068,9.354786 0.40735516,0.40735516 0 0 0 7.3943508,8.7988288 0.40735516,0.40735516 0 0 0 7.0321492,8.5954728 Z m 5.4321488,0.2443764 a 0.40735516,0.40735516 0 0 0 -0.3334,0.202484 0.40735516,0.40735516 0 0 0 0.149245,0.5568296 0.40735516,0.40735516 0 0 0 0.55683,-0.1492444 0.40735516,0.40735516 0 0 0 -0.149244,-0.5559576 0.40735516,0.40735516 0 0 0 -0.223431,-0.054112 z M 8.8545028,8.8721412 A 0.35395973,0.35395973 0 0 0 8.5647416,9.0493148 0.35395973,0.35395973 0 0 0 8.6947848,9.5328316 0.35395973,0.35395973 0 0 0 9.178302,9.402788 0.35395973,0.35395973 0 0 0 9.0482584,8.9192708 0.35395973,0.35395973 0 0 0 8.8545028,8.8721412 Z M 5.7901912,8.9515636 A 0.35395973,0.35395973 0 0 0 5.6208732,8.9986936 0.35395973,0.35395973 0 0 0 5.4917024,9.4822108 0.35395973,0.35395973 0 0 0 5.9752192,9.6113812 0.35395973,0.35395973 0 0 0 6.10439,9.127864 0.35395973,0.35395973 0 0 0 5.7901912,8.9515636 Z M 4.7079508,9.0213856 A 0.30649713,0.30649713 0 0 0 4.5621972,9.062404 0.30649713,0.30649713 0 0 0 4.4496092,9.4813356 0.30649713,0.30649713 0 0 0 4.8685416,9.5930508 0.30649713,0.30649713 0 0 0 4.9802564,9.1741192 0.30649713,0.30649713 0 0 0 4.7079508,9.0213832 Z m 5.7559482,0.077677 a 0.35395973,0.35395973 0 0 0 -0.289761,0.1771732 0.35395973,0.35395973 0 0 0 0.12917,0.4835172 0.35395973,0.35395973 0 0 0 0.483518,-0.1300436 0.35395973,0.35395973 0 0 0 -0.129171,-0.4835168 0.35395973,0.35395973 0 0 0 -0.193756,-0.04713 z M 7.5662876,9.58258 A 0.4666834,0.4666834 0 0 0 7.34373,9.6454196 0.4666834,0.4666834 0 0 0 7.1735388,10.282545 0.4666834,0.4666834 0 0 0 7.8106644,10.453609 0.4666834,0.4666834 0 0 0 7.9817284,9.8156104 0.4666834,0.4666834 0 0 0 7.5662876,9.58258 Z m 2.1828084,0 A 0.30649713,0.30649713 0 0 0 9.4977372,9.7353152 0.30649713,0.30649713 0 0 0 9.610326,10.154247 0.30649713,0.30649713 0 0 0 10.028384,10.04166 0.30649713,0.30649713 0 0 0 9.9166692,9.6227272 0.30649713,0.30649713 0 0 0 9.749096,9.5825824 Z m 1.993418,0.00786 A 0.35395973,0.35395973 0 0 0 11.451879,9.7676092 0.35395973,0.35395973 0 0 0 11.581923,10.251126 0.35395973,0.35395973 0 0 0 12.06544,10.121083 0.35395973,0.35395973 0 0 0 11.935397,9.637566 0.35395973,0.35395973 0 0 0 11.742514,9.590436 Z M 4.725406,9.8129896 A 0.35395973,0.35395973 0 0 0 4.5569608,9.8601196 0.35395973,0.35395973 0 0 0 4.4269176,10.343636 0.35395973,0.35395973 0 0 0 4.9104344,10.472807 0.35395973,0.35395973 0 0 0 5.040478,9.98929 0.35395973,0.35395973 0 0 0 4.725406,9.8129896 Z m 1.3047988,0.061967 A 0.40735516,0.40735516 0 0 0 5.836448,9.9290688 0.40735516,0.40735516 0 0 0 5.687204,10.485898 0.40735516,0.40735516 0 0 0 6.244034,10.635143 0.40735516,0.40735516 0 0 0 6.3932784,10.078313 0.40735516,0.40735516 0 0 0 6.0302048,9.8749566 Z m 4.9966332,0.1989924 a 0.30649713,0.30649713 0 0 0 -0.250486,0.152735 0.30649713,0.30649713 0 0 0 0.111715,0.418932 0.30649713,0.30649713 0 0 0 0.418932,-0.112588 0.30649713,0.30649713 0 0 0 -0.111715,-0.418932 0.30649713,0.30649713 0 0 0 -0.168446,-0.04014 z m -0.69211,0.276673 a 0.25903447,0.25903447 0 0 0 -0.212084,0.12917 0.25903447,0.25903447 0 0 0 0.09513,0.353474 0.25903447,0.25903447 0 0 0 0.354346,-0.09426 0.25903447,0.25903447 0 0 0 -0.09513,-0.354347 0.25903447,0.25903447 0 0 0 -0.142263,-0.03404 z m -1.8721012,0.205975 a 0.54974292,0.54974292 0 0 0 -0.261832,0.07419 0.54974292,0.54974292 0 0 0 -0.2016108,0.750586 0.54974292,0.54974292 0 0 0 0.751458,0.20161 0.54974292,0.54974292 0 0 0 0.2007384,-0.751458 0.54974292,0.54974292 0 0 0 -0.4887536,-0.274924 z M 4.966292,10.736388 a 0.40735516,0.40735516 0 0 0 -0.1946288,0.05411 0.40735516,0.40735516 0 0 0 -0.149244,0.556831 0.40735516,0.40735516 0 0 0 0.55683,0.149244 0.40735516,0.40735516 0 0 0 0.149244,-0.55683 A 0.40735516,0.40735516 0 0 0 4.966292,10.736386 Z M 6.565214,10.86294 A 0.4666834,0.4666834 0 0 0 6.3426576,10.92491 0.4666834,0.4666834 0 0 0 6.1724664,11.562909 0.4666834,0.4666834 0 0 0 6.8095916,11.7331 0.4666834,0.4666834 0 0 0 6.9806556,11.095974 0.4666834,0.4666834 0 0 0 6.565214,10.86294 Z m 3.1873732,0.590869 a 0.63280252,0.63280252 0 0 0 -0.3011064,0.08466 0.63280252,0.63280252 0 0 0 -0.232158,0.86492 0.63280252,0.63280252 0 0 0 0.8649192,0.231285 0.63280252,0.63280252 0 0 0 0.231285,-0.864047 0.63280252,0.63280252 0 0 0 -0.5629398,-0.316818 z M 5.50043,11.723496 a 0.4666834,0.4666834 0 0 0 -0.2225576,0.06284 0.4666834,0.4666834 0 0 0 -0.1701912,0.637126 0.4666834,0.4666834 0 0 0 0.637126,0.171063 A 0.4666834,0.4666834 0 0 0 5.9158708,11.9574 0.4666834,0.4666834 0 0 0 5.50043,11.723496 Z m 1.961124,0.113461 a 0.54974292,0.54974292 0 0 0 -0.2618324,0.07331 0.54974292,0.54974292 0 0 0 -0.2016108,0.750586 0.54974292,0.54974292 0 0 0 0.7514596,0.201611 0.54974292,0.54974292 0 0 0 0.200738,-0.751459 0.54974292,0.54974292 0 0 0 -0.4887544,-0.274051 z m 4.020001,0.280161 a 0.7395304,0.7395304 0 0 0 -0.351729,0.0995 0.7395304,0.7395304 0 0 0 -0.27056,1.0098 0.7395304,0.7395304 0 0 0 1.0098,0.27056 0.7395304,0.7395304 0 0 0 0.27056,-1.0098 0.7395304,0.7395304 0 0 0 -0.658071,-0.370056 z m -5.0847858,0.581268 a 0.54974292,0.54974292 0 0 0 -0.261832,0.07331 0.54974292,0.54974292 0 0 0 -0.2016108,0.750585 0.54974292,0.54974292 0 0 0 0.7514584,0.201611 0.54974292,0.54974292 0 0 0 0.2007384,-0.751458 0.54974292,0.54974292 0 0 0 -0.488754,-0.274051 z m 2.354746,0.03578 a 0.63280252,0.63280252 0 0 0 -0.3011072,0.08466 0.63280252,0.63280252 0 0 0 -0.2321584,0.864047 0.63280252,0.63280252 0 0 0 0.86492,0.232157 0.63280252,0.63280252 0 0 0 0.2312852,-0.864919 0.63280252,0.63280252 0 0 0 -0.5629396,-0.315945 z"/>
</svg>
