<svg xmlns="http://www.w3.org/2000/svg" width="16" height="16" version="1">
 <circle style="fill:#455259" cx="8" cy="8" r="8"/>
 <path style="fill:none;stroke:#ff5e49;stroke-width:0.80000001" d="M 3.4,5.6 8,13 10.36,9.2 Z"/>
 <path style="fill:none;stroke:#5cd262;stroke-width:0.80000001" d="M 12.6,5.6 8,13 5.64,9.2 Z"/>
 <path style="fill:none;stroke:#f4f4f7;stroke-width:0.80000001" d="M 8,13 5.64,9.2 8,7.98 10.36,9.2 Z"/>
</svg>
