<svg width="16" height="16" version="1.1" xmlns="http://www.w3.org/2000/svg">
 <circle cx="8" cy="8" r="8" style="fill:#31aae4"/>
 <path d="m8 1.0000001c-3.8659933 0-7 3.1340067-7 7 0 3.8659929 3.1340067 6.9999999 7 6.9999999 3.865993 0 7-3.134007 7-6.9999999 0-3.8659933-3.134007-7-7-7zm0 0.875c3.382743 0 6.125 2.7422561 6.125 6.125-0.0026 2.8121569-1.919973 5.2611839-4.649292 5.9387209-0.03881-0.09798-0.05479-0.202551-0.04444-0.236695 0.05247-0.172996 0.08979-0.406358 0.102539-0.645996 0.0202-0.379653-0.027727-0.981908 0.2130195-1.256103 0.211759-0.241182 0.25218-0.433508 0.2563475-1.216796 0.0035-0.648425 0.01061-0.7243977 0.094-1.0151379 0.141859-0.4949206 0.576652-0.8440618 0.748283-1.0946045 0.08723-0.1273282 0.226264-0.3546156 0.309327-0.5050049 0.08306-0.1503924 0.204001-0.3531609 0.268311-0.450317 0.168-0.2538091 0.701745-0.6045117 0.879071-0.6878664 0.198173-0.093151 0.41652-0.3438794 0.488768-0.5614013 0.07427-0.2235971 0.05175-0.5763389-0.04529-0.7058104-0.05718-0.076296-0.0936-0.089722-0.240112-0.089722-0.134185 0-0.192191-0.017749-0.258911-0.080322-0.09177-0.086069-0.158935-0.074545-0.158935 0.027344 0 0.079909-0.29661 0.2319958-0.332196 0.1965329-0.01482-0.01477 2.05e-4 -0.099366 0.03418-0.1879881 0.124477-0.324795 0.16514-0.531841 0.145264-0.7416992-0.032774-0.3460193-0.248004-1.0751401-0.365463-1.0977723-0.028241-0.0054469-0.181706 0.0992872-0.340943 0.2332763-0.830387 0.6987351-1.462113 0.8032966-1.9015096 1.068902-0.2096773 0.1267363-0.2103423 0.126448-0.5639648 0.1187747-0.4186809-0.0090781-0.3459881 0.0571204-1.0443388 0.4804879-0.2418751 0.1466355-0.5146257 0.4262155-0.6058346 0.4608721-0.0916672 0.0348337-0.3821804 0.0852381-0.6502683 0.1127927-0.5505971 0.0565898-0.6980437 0.0903556-0.9040529 0.2093508-0.2037306 0.1176779-0.2552576 0.2053271-0.211914 0.3623047 0.042442 0.1537047 0.267991 0.4563492 0.5391844 0.7229005l0.2042239 0.2008055-0.1572266 0.2435304c-0.0867912 0.1340124-0.2177479 0.3817118-0.2905177 0.5502928-0.1446231 0.3350414-0.1842435 0.3979491-0.4725341 0.7528075-0.2497456 0.3074085-0.657339 1.1496222-0.9158665 1.6561132-0.2210814 0.43313-0.3273191 0.545394-0.7331542 0.777589-0.1015164 0.058078-0.2266503 0.155684-0.3554687 0.216186-0.8353957-1.074038-1.2893694-2.3956717-1.2902855-3.7563479 0-3.3827439 2.7422561-6.125 6.125-6.125zm1.461 4.1834511-0.7157884 0.8045488-0.7082116-0.0295387 0.616-0.8044613z" style="fill:#f4f4f7"/>
</svg>
