<svg xmlns="http://www.w3.org/2000/svg" width="16" height="16" version="1">
 <rect style="fill:#17191e" width="16" height="16" x="0" y="0" rx=".8" ry=".8"/>
 <path style="fill:none;stroke:#ffb81b;stroke-width:0.40000001" d="M 2,7.8 H 8.2398116 L 5.8174794,4.2 H 6.8185086 L 9.4810812,8 6.7874986,11.8 H 7.8085198 L 10.442042,8 7.8395298,4.2 H 8.8305206 L 11.403003,8 8.8295406,11.8 H 9.7905014 L 12.264,8.2 H 14"/>
</svg>
