<svg xmlns="http://www.w3.org/2000/svg" width="16" height="16" version="1">
 <rect style="fill:#9d9d9d" width="16" height="16" x="0" y="0" rx="8" ry="8"/>
 <circle style="fill:#707070" cx="-8" cy="-8" r="6" transform="matrix(0,-1,-1,0,0,0)"/>
 <circle style="fill:#17191e" cx="-8" cy="-8" r="4" transform="matrix(0,-1,-1,0,0,0)"/>
 <circle style="fill:#4f4f4f" cx="-8" cy="-8" r="2" transform="matrix(0,-1,-1,0,0,0)"/>
</svg>
