<svg xmlns="http://www.w3.org/2000/svg" width="16" height="16" version="1">
 <path style="fill:#7282d9" d="M 16,14.4 V 1.6 C 16,1.1568 15.6432,0.8 15.2,0.8 H 0.8 C 0.3568,0.8 0,1.1568 0,1.6 v 12.8 c 0,0.4432 0.3568,0.8 0.8,0.8 h 14.4 c 0.4432,0 0.8,-0.3568 0.8,-0.8 z"/>
 <path style="fill:none;stroke:#f4f4f7;stroke-linecap:round;stroke-linejoin:round" d="M 1.5022876,11.5 4,4.5 l 2.5,7"/>
 <path style="fill:none;stroke:#f4f4f7;stroke-linecap:round;stroke-linejoin:round" d="m 13.5,4.5 v 7"/>
 <path style="fill:none;stroke:#f4f4f7;stroke-linecap:round;stroke-linejoin:round" d="M 6.5024264,4.5068086 9.0001388,11.506809 11.500138,4.5068086"/>
</svg>
