<svg width="16" height="16" version="1.1" xmlns="http://www.w3.org/2000/svg">
 <circle cx="8" cy="8" r="8" style="fill:#fecd38"/>
 <path d="M 8.0000001,1 C 4.1340068,1 1,4.1340068 1,8 1,11.865993 4.1340068,15 8.0000001,15 11.865993,15 15,11.865993 15,8 15,4.1340068 11.865993,1.0000001 8.0000001,1 Z m 0,0.978 C 11.436438,1.9780002 14.022,4.5635617 14.022,8 c 0,3.436438 -2.585562,6.022 -6.0219999,6.022 -3.4364384,0 -6.022,-2.585562 -6.0220001,-6.022 0,-3.4364384 2.5855616,-6.022 6.0220001,-6.022 z" style="fill:#4f4f4f"/>
 <path d="m10.748121 9.6779994s-0.241192 0.3595866-0.598232 0.7166296c-0.357041 0.357038-0.8204888 0.641851-1.0863688 0.641851h-1.0635202v1.06352h1.0635202c0.7976398 0 1.3977128-0.512829 1.8383108-0.953431 0.440598-0.440597 0.731169-0.87865 0.731169-0.87865z" style="fill:#4f4f4f"/>
 <path d="m5.5000008 6h-2.5000008v1s0.3571435 0 0.3571435 0.4 0.3571427 1.6 1.7857145 1.6c2.1428579 0 1.9588369-0.879661 2.1428579-1.3 0.2245521-0.5129199 0.3571429-0.8 0.7142861-0.8 0.3571428 0 0.4823939 0.2903564 0.7142859 0.8 0.1846043 0.4057164 0 1.3 2.1428631 1.3 1.428567 0 1.785717-1.2 1.785717-1.6s0.357132-0.4 0.357132-0.4l-0.0339-0.9627119s-0.475014-0.047034-1.44141 0.015056l-0.310406 0.3476559 0.357152 0.4-1.7857193 1.2 0.7142843-1.2-0.357142-0.4 0.357142-0.4c-1.0714273 0-1.7857131 0.1-2.499999 0.1z" style="fill:#4f4f4f"/>
 <circle cx="11.5" cy="11.5" r="4.5" style="fill:#c03630"/>
 <path d="m11.5 8.9999996s-0.354375-7e-3 -0.723635 0.17775c-0.369255 0.1846-0.776365 0.6556009-0.776365 1.3222504h1c0-0.500001 0.5-0.500001 0.5-0.500001s0.5 0 0.5 0.500001c0 0.2639-0.0698 0.41145-0.203125 0.578099-0.133325 0.166701-0.34668 0.334-0.59668 0.5215s-0.536645 0.395201-0.77832 0.6973c-0.241675 0.302051-0.421875 0.717001-0.421875 1.203101v0.5h3v-1h-1.82422c0.01565-0.022 0.0094-0.0556 0.02735-0.0781 0.133325-0.1667 0.34668-0.334 0.59668-0.5215s0.536645-0.3952 0.77832-0.6973c0.241675-0.30205 0.421875-0.717 0.421875-1.2031 0-0.6666495-0.40711-1.1376504-0.776365-1.3222504-0.369265-0.18465-0.72364-0.17775-0.72364-0.17775z" style="fill-rule:evenodd;fill:#f4f4f7"/>
</svg>
