<svg xmlns="http://www.w3.org/2000/svg" width="16" height="16" version="1">
 <rect style="fill:#ff5722" width="16" height="16" x="0" y="0" rx="8" ry="8"/>
 <g style="fill:#f4f4f7">
  <circle cx="5.25" cy="5.75" r=".75"/>
  <circle cx="7.25" cy="5.75" r=".75"/>
  <circle cx="9.25" cy="5.75" r=".75"/>
  <circle cx="11.25" cy="5.75" r=".75"/>
  <circle cx="3.25" cy="7.75" r=".75"/>
  <circle cx="5.25" cy="7.75" r=".75"/>
  <circle cx="7.25" cy="7.75" r=".75"/>
  <circle cx="9.25" cy="7.75" r=".75"/>
  <circle cx="11.25" cy="7.75" r=".75"/>
  <circle cx="13.25" cy="7.75" r=".75"/>
  <circle cx="3.25" cy="9.75" r=".75"/>
  <circle cx="5.25" cy="9.75" r=".75"/>
  <circle cx="11.25" cy="9.75" r=".75"/>
  <circle cx="13.25" cy="9.75" r=".75"/>
 </g>
</svg>
