<svg xmlns="http://www.w3.org/2000/svg" height="16" width="16" version="1.1">
 <circle style="fill:#3fafff" cx="8" r="7" cy="8"/>
 <path style="fill:#6fbfff" d="m0.5 7c-0.527041 0.00111-0.694013 0.7114775-0.222656 0.9472656l3.722656 2.0527344h-1.5c-0.494564 0.000183-0.688746 0.641532-0.277344 0.916016l4.5 3c0.082132 0.054755 0.178633 0.083977 0.277344 0.083984h2c0.09871-0.000006 0.195211-0.02923 0.277344-0.08398l4.5-3c0.411412-0.274482 0.217227-0.915843-0.277344-0.91602h-1.5l3.722656-2.0527344c0.471357-0.2357881 0.304385-0.9461522-0.222656-0.9472656z"/>
 <path style="fill:#f0f0f0" d="m6 3v2l-1 2h6l-1-4s0-1-2-1-2 1-2 1z"/>
 <path style="fill:#f2d12d" d="m6 3-2 1 0.474576 1 0.525424-0.5932203 2 0.5932203z"/>
 <circle style="fill:#4f4f4f" cx="7.5" cy="3.5"/>
 <path style="fill:#4f4f4f" d="m5 7h-1l1 1h-2l4 6h2l4-6h-2l1-1h-1z"/>
 <path style="fill:#f4f4f7" d="m6 7h4l-1 7h-2z"/>
 <path style="fill:#4f4f4f" d="m7 10 1 1 1-1-1-3z"/>
 <circle style="fill:#4f4f4f" cx="7.5" cy="3.5"/>
 <path style="fill:#4f4f4f" d="m8 3.5a0.5 0.5 0 0 1 -0.5 0.5 0.5 0.5 0 0 1 -0.5 -0.5 0.5 0.5 0 0 1 0.5 -0.5 0.5 0.5 0 0 1 0.5 0.5z"/>
</svg>
