<svg xmlns="http://www.w3.org/2000/svg" width="16" height="16" version="1">
 <rect style="fill:#635d4c" width="16" height="14" x="0" y="1" rx="1.2" ry="1.167"/>
 <path style="fill:#f4f4f7" d="m 2.1882122,4 a 0.18716889,0.16650675 0 0 0 -0.1191406,0.041016 0.18716889,0.16650675 0 0 0 -0.00781,0.00586 0.18716889,0.16650675 0 0 0 -0.00586,0.00391 0.18716889,0.16650675 0 0 0 0,0.00195 0.18716889,0.16650675 0 0 0 -0.013672,0.00977 0.18716889,0.16650675 0 0 0 0,0.00195 0.18716889,0.16650675 0 0 0 -0.039063,0.1328125 V 5.8339844 A 0.18716889,0.16650675 0 0 0 2.1901653,6 h 1.1230469 a 0.18716889,0.16650675 0 0 0 0.1875,-0.1660156 V 4.1699219 a 0.18716889,0.16650675 0 0 0 -0.1875,-0.1660157 H 2.2214153 A 0.18716889,0.16650675 0 0 0 2.1882122,4 Z m 3,0 a 0.18716889,0.16650675 0 0 0 -0.1191406,0.041016 0.18716889,0.16650675 0 0 0 -0.00781,0.00586 0.18716889,0.16650675 0 0 0 -0.00586,0.00391 0.18716889,0.16650675 0 0 0 0,0.00195 0.18716889,0.16650675 0 0 0 -0.013672,0.00977 0.18716889,0.16650675 0 0 0 0,0.00195 0.18716889,0.16650675 0 0 0 -0.039063,0.1328125 V 5.8339844 A 0.18716889,0.16650675 0 0 0 5.1901653,6 h 1.1230469 a 0.18716889,0.16650675 0 0 0 0.1875,-0.1660156 V 4.1699219 a 0.18716889,0.16650675 0 0 0 -0.1875,-0.1660157 H 5.2214153 A 0.18716889,0.16650675 0 0 0 5.1882122,4 Z M 8.246806,4 A 0.25,0.16604525 0 0 0 8.0007122,4.1699219 v 1.6601562 a 0.25,0.16604525 0 1 0 0.5,0 V 4.1699219 A 0.25,0.16604525 0 0 0 8.246806,4 Z m 1.941406,0 a 0.18716889,0.16650675 0 0 0 -0.119141,0.041016 0.18716889,0.16650675 0 0 0 -0.0078,0.00586 0.18716889,0.16650675 0 0 0 -0.0059,0.00391 0.18716889,0.16650675 0 0 0 0,0.00195 0.18716889,0.16650675 0 0 0 -0.01367,0.00977 0.18716889,0.16650675 0 0 0 0,0.00195 0.18716889,0.16650675 0 0 0 -0.03906,0.1328125 V 5.8339844 A 0.18716889,0.16650675 0 0 0 10.190165,6 h 1.123048 a 0.18716889,0.16650675 0 0 0 0.1875,-0.1660156 V 4.1699219 a 0.18716889,0.16650675 0 0 0 -0.1875,-0.1660157 H 10.221415 A 0.18716889,0.16650675 0 0 0 10.188212,4 Z m 3.058595,0 a 0.25,0.16604525 0 0 0 -0.246094,0.1699219 v 1.6601562 a 0.25,0.16604525 0 1 0 0.5,0 V 4.1699219 A 0.25,0.16604525 0 0 0 13.246807,4 Z M 2.1882122,7 a 0.18716889,0.16650675 0 0 0 -0.1191406,0.041016 0.18716889,0.16650675 0 0 0 -0.00781,0.00586 0.18716889,0.16650675 0 0 0 -0.00586,0.00391 0.18716889,0.16650675 0 0 0 0,0.00195 0.18716889,0.16650675 0 0 0 -0.013672,0.00977 0.18716889,0.16650675 0 0 0 0,0.00195 0.18716889,0.16650675 0 0 0 -0.039063,0.1328125 V 8.8339844 A 0.18716889,0.16650675 0 0 0 2.1901653,9 h 1.1230469 a 0.18716889,0.16650675 0 0 0 0.1875,-0.1660156 V 7.1699219 a 0.18716889,0.16650675 0 0 0 -0.1875,-0.1660157 H 2.2214153 A 0.18716889,0.16650675 0 0 0 2.1882122,7 Z M 5.246806,7 A 0.25,0.16604525 0 0 0 5.0007122,7.1699219 v 1.6601562 a 0.25,0.16604525 0 1 0 0.5,0 V 7.1699219 A 0.25,0.16604525 0 0 0 5.246806,7 Z m 1.9414062,0 a 0.18716889,0.16650675 0 0 0 -0.1191406,0.041016 0.18716889,0.16650675 0 0 0 -0.00781,0.00586 0.18716889,0.16650675 0 0 0 -0.00586,0.00391 0.18716889,0.16650675 0 0 0 0,0.00195 0.18716889,0.16650675 0 0 0 -0.013672,0.00977 0.18716889,0.16650675 0 0 0 0,0.00195 0.18716889,0.16650675 0 0 0 -0.039063,0.1328125 V 8.8339844 A 0.18716889,0.16650675 0 0 0 7.1901653,9 h 1.1230469 a 0.18716889,0.16650675 0 0 0 0.1875,-0.1660156 V 7.1699219 a 0.18716889,0.16650675 0 0 0 -0.1875,-0.1660157 H 7.2214153 A 0.18716889,0.16650675 0 0 0 7.1882122,7 Z m 2.9999998,0 a 0.18716889,0.16650675 0 0 0 -0.119141,0.041016 0.18716889,0.16650675 0 0 0 -0.0078,0.00586 0.18716889,0.16650675 0 0 0 -0.0059,0.00391 0.18716889,0.16650675 0 0 0 0,0.00195 0.18716889,0.16650675 0 0 0 -0.01367,0.00977 0.18716889,0.16650675 0 0 0 0,0.00195 0.18716889,0.16650675 0 0 0 -0.03906,0.1328125 V 8.8339844 A 0.18716889,0.16650675 0 0 0 10.190165,9 h 1.123048 a 0.18716889,0.16650675 0 0 0 0.1875,-0.1660156 V 7.1699219 a 0.18716889,0.16650675 0 0 0 -0.1875,-0.1660157 H 10.221415 A 0.18716889,0.16650675 0 0 0 10.188212,7 Z m 3.000001,0 a 0.18716889,0.16650675 0 0 0 -0.119141,0.041016 0.18716889,0.16650675 0 0 0 -0.0078,0.00586 0.18716889,0.16650675 0 0 0 -0.0059,0.00391 0.18716889,0.16650675 0 0 0 0,0.00195 0.18716889,0.16650675 0 0 0 -0.01367,0.00977 0.18716889,0.16650675 0 0 0 0,0.00195 0.18716889,0.16650675 0 0 0 -0.03906,0.1328125 V 8.8339844 A 0.18716889,0.16650675 0 0 0 13.190166,9 h 1.123047 a 0.18716889,0.16650675 0 0 0 0.1875,-0.1660156 V 7.1699219 a 0.18716889,0.16650675 0 0 0 -0.1875,-0.1660157 H 13.221416 A 0.18716889,0.16650675 0 0 0 13.188213,7 Z M 2.1882122,10 a 0.18716889,0.16650675 0 0 0 -0.1191406,0.04102 0.18716889,0.16650675 0 0 0 -0.00781,0.0059 0.18716889,0.16650675 0 0 0 -0.00586,0.0039 0.18716889,0.16650675 0 0 0 0,0.0019 0.18716889,0.16650675 0 0 0 -0.013672,0.0098 0.18716889,0.16650675 0 0 0 0,0.0019 0.18716889,0.16650675 0 0 0 -0.039063,0.132813 v 1.636715 A 0.18716889,0.16650675 0 0 0 2.1901653,12 h 1.1230469 a 0.18716889,0.16650675 0 0 0 0.1875,-0.166016 v -1.664062 a 0.18716889,0.16650675 0 0 0 -0.1875,-0.166016 H 2.2214153 A 0.18716889,0.16650675 0 0 0 2.1882122,10 Z m 3.0585938,0 a 0.25,0.16604525 0 0 0 -0.2460938,0.169922 v 1.660156 a 0.25,0.16604525 0 1 0 0.5,0 V 10.169922 A 0.25,0.16604525 0 0 0 5.246806,10 Z m 2,0 a 0.25,0.16604525 0 0 0 -0.2460938,0.169922 v 1.660156 a 0.25,0.16604525 0 1 0 0.5,0 V 10.169922 A 0.25,0.16604525 0 0 0 7.246806,10 Z m 1.9414062,0 a 0.18716889,0.16650675 0 0 0 -0.1191406,0.04102 0.18716889,0.16650675 0 0 0 -0.00781,0.0059 0.18716889,0.16650675 0 0 0 -0.00586,0.0039 0.18716889,0.16650675 0 0 0 0,0.0019 0.18716889,0.16650675 0 0 0 -0.013672,0.0098 0.18716889,0.16650675 0 0 0 0,0.0019 0.18716889,0.16650675 0 0 0 -0.039063,0.132813 v 1.636715 A 0.18716889,0.16650675 0 0 0 9.1901653,12 h 1.1230467 a 0.18716889,0.16650675 0 0 0 0.1875,-0.166016 v -1.664062 a 0.18716889,0.16650675 0 0 0 -0.1875,-0.166016 H 9.2214153 A 0.18716889,0.16650675 0 0 0 9.1882122,10 Z m 3.0585948,0 a 0.25,0.16604525 0 0 0 -0.246094,0.169922 v 1.660156 a 0.25,0.16604525 0 1 0 0.5,0 V 10.169922 A 0.25,0.16604525 0 0 0 12.246807,10 Z"/>
 <path style="fill:#ea5a67" d="m 13.124613,8.8518687 1.116941,-0.8248894 c 0,0 0.447345,-0.2571571 1.245881,0.8163887 l 1.9e-5,-1.99e-5 c 5.72e-4,7.636e-4 0.001,0.00149 0.0017,0.00225 2.19e-4,2.8e-4 4.28e-4,5.454e-4 6.06e-4,8.363e-4 v 0 c 0.796979,1.0747455 0.422229,1.4296556 0.422229,1.4296556 l -1.11706,0.82474 z"/>
 <path style="fill:#9e9e9e" d="M 13.124613,8.8518687 11.99924,9.6898422 13.67284,11.943223 14.794924,11.1008 Z"/>
 <path style="fill:#ffb505" d="m 11.999241,9.6898426 1.6736,2.2533814 L 8.8882737,15.505617 9.0231396,14.627518 8.0953282,14.420017 8.193937,13.47509 7.2639292,13.282622 Z"/>
 <path style="fill:#fbe289" d="M 7.2639292,13.282622 8.193937,13.47509 8.0953282,14.420017 9.0231396,14.627518 8.8882737,15.505617 7.0842405,15.83368 6.4742379,15.012353 Z"/>
 <path style="fill:#17191e" d="M 7.0842405,15.83368 6.4742379,15.012353 6,16 Z"/>
</svg>
