<svg xmlns="http://www.w3.org/2000/svg" width="16" height="16" version="1">
 <rect style="fill:#b2bfd9" width="16" height="16" x="0" y="0" rx="8" ry="8"/>
 <path style="fill:#60ab1a" d="M 8,2 C 4.6862915,2 2,4.6862915 2,8 2,8.4000257 2.0386089,8.7918048 2.1132812,9.1699219 2.0551315,8.9943471 5.1139253,5.3453191 5.2792969,5.9082031 5.3734183,6.228569 2.5726055,10.581905 2.7304688,10.871094 3.748249,12.73556 5.7261919,14 8,14 c 2.927056,-9.84e-4 5.42622,-2.113883 5.914062,-5 H 10.353516 C 10.000793,10.197185 9.0581703,10.998218 8,11 6.6192881,11 5.5,9.6568542 5.5,8 h 5 2.5 1 C 14,5.5896631 12.575597,3.5165651 10.525391,2.5625 9.5592217,3.173527 8.5607445,4.0003721 7.5996094,5.0390625 7.730465,5.0134133 7.8643471,5.0002284 8,5 9.0581703,5.00178 10.000793,5.8028154 10.353516,7 H 5.6464844 C 5.7186237,6.7551501 5.9961251,5.9288573 6.1135563,5.7205971 L 5.5820312,6.0800781 C 6.807161,4.4893981 8.1986057,3.1588342 9.5625,2.2128906 9.063618,2.0784808 8.5413484,2 8,2 Z"/>
 <path style="fill:#60ab1a" d="M 12.967,0.00631425 C 10.747718,0.13774919 7.701623,2.2811598 5.2968193,5.4035013 2.0771196,9.5839717 1.0367459,14.13705 2.9730197,15.573349 3.4554202,15.926357 4.096309,16.062569 4.8559773,15.973545 4.4761649,15.925207 4.1447358,15.796259 3.8695545,15.589763 2.073728,14.221993 3.3027928,9.9214414 6.288726,5.9395592 9.2743333,1.958021 12.88583,-0.19717245 14.681125,1.1709499 15.251969,1.6099615 15.560712,2.3765609 15.576097,3.3931373 15.697582,2.0185476 15.367773,0.98345253 14.633445,0.43465005 14.198943,0.11216171 13.63386,-0.03308478 12.967,0.00631425 Z"/>
</svg>
