<svg xmlns="http://www.w3.org/2000/svg" width="16" height="16" version="1">
 <circle style="fill:#7a1ea9" cx="8" cy="8" r="8"/>
 <circle style="fill:none;stroke:#f4f4f7;stroke-width:1.05882359;stroke-linecap:round;stroke-linejoin:round" cx="8" cy="8" r="5.471"/>
 <circle style="fill:none;stroke:#f4f4f7;stroke-width:1.09090912;stroke-linecap:round;stroke-linejoin:round" cx="8" cy="8" r="3.455"/>
 <circle style="fill:#f4f4f7" cx="8" cy="8" r="2"/>
 <path style="fill:#7a1ea9" d="M 8,15.6 C 3.581722,15.6 0.4,12.418278 0.4,8 0.4,3.581722 3.581722,0.4 8,0.4 Z"/>
</svg>
