<svg xmlns="http://www.w3.org/2000/svg" width="16" height="16" version="1.1">
 <circle style="fill:#17191e" cx="7" cy="9" r="7"/>
 <circle style="fill:#4f4f4f" cx="14" cy="12" r="2"/>
 <circle style="fill:#a27a40" cx="12" cy="4" r="4"/>
 <circle style="fill:#f1b100" cx="12" cy="4" r="2.5"/>
 <circle style="fill:#f4f4f7" cx="12" cy="4" r="1"/>
</svg>
