<svg width="16" height="16" version="1.1" xmlns="http://www.w3.org/2000/svg">
 <g>
  <path d="m8 12s4 0 5-2c0.447214-0.8944272 0-4-1-5-2-1-4-1-4-1s-2 0-4 1c-1 1-1.4472136 4.1055728-1 5 1 2 5 2 5 2z" style="fill:#20b28f"/>
  <rect x="5" y="7" width="6" height="5" rx="1" ry="1" style="fill:#f4f4f7"/>
  <path d="m1 13c0-2 2-2 2-2h10s2 0 2 2-6 3-6 3h-2s-6-1-6-3z" style="fill:#48deba"/>
  <circle cx="8" cy="3" r="3" style="fill:#48deba"/>
 </g>
</svg>
