<svg xmlns="http://www.w3.org/2000/svg" width="16" height="16" version="1.1">
 <rect style="fill:#795548" width="15" height="15" x="1" y="1" rx="4.5" ry="4.5"/>
 <path style="fill:#6d4c41" d="M 5.5,1 C 4.9727301,1 4.4694003,1.0941118 4,1.2592773 V 4 H 7 V 1 Z M 7,4 v 3 h 3 V 4 Z m 3,0 h 3 V 1.2592773 C 12.5306,1.0941118 12.02727,1 11.5,1 H 10 Z m 3,0 v 3 h 3 V 5.5 C 16,4.9727301 15.905888,4.4694002 15.740723,4 Z m 0,3 h -3 v 3 h 3 z m 0,3 v 3 h 2.740723 C 15.905888,12.5306 16,12.02727 16,11.5 V 10 Z m 0,3 h -3 v 3 h 1.5 c 0.52727,0 1.0306,-0.09411 1.5,-0.259277 z m -3,0 V 10 H 7 v 3 z M 7,13 H 4 v 2.740723 C 4.4694003,15.905888 4.9727301,16 5.5,16 H 7 Z M 4,13 V 10 H 1 v 1.5 c 0,0.52727 0.094112,1.0306 0.2592773,1.5 z M 4,10 H 7 V 7 H 4 Z M 4,7 V 4 H 1.2592773 C 1.0941118,4.4694003 1,4.9727301 1,5.5 V 7 Z"/>
 <rect style="fill:#bdbdbd" width="5" height="7" x="6" y="6"/>
 <path style="fill:#f4f4f7" d="M 5,3 V 5.4 C 5,6.2864 5.6244,7 6.4,7 h 4.2 C 11.3756,7 12,6.2864 12,5.4 V 3 H 11 V 5 H 10 V 3 H 7 V 5 H 6 V 3 Z"/>
 <path style="fill:#f4f4f7" d="M 5.125,12 C 4.50175,12 4,12.446 4,13 v 1 h 9 v -1 c 0,-0.554 -0.50175,-1 -1.125,-1 z"/>
</svg>
