<svg xmlns="http://www.w3.org/2000/svg" width="16" height="16" version="1">
 <rect style="fill:#0081cc" width="16" height="16" x="0" y="0" rx=".8" ry=".8"/>
 <rect style="fill:#f4f4f7" width="5" height="11" x="2" y="2" rx="1.5" ry="1.5"/>
 <rect style="fill:#f4f4f7" width="5" height="5" x="9" y="2" rx="1.5" ry="1.5"/>
</svg>
