<svg xmlns="http://www.w3.org/2000/svg" width="16" height="16" version="1">
 <path style="fill:#4384f1" d="M 1,0 H 15 C 15.554,0 16,0.446 16,1 V 10 L 11,11 10,16 H 1 C 0.446,16 0,15.554 0,15 V 1 C 0,0.446 0.446,0 1,0 Z"/>
 <path style="fill:#f4f4f7" d="M 4.2773438,5.0174688 C 3.9378544,5.0273388 3.6566743,5.0565318 3.5,5.0565308 l 0,1 c 0.4883313,0 1.1750625,-0.089282 1.6992188,0.019531 0.2620779,0.054407 0.457164,0.1495028 0.5820312,0.28125 C 5.9061172,6.4890596 6,6.6716923 6,7.0565308 6,7.4630622 5.912975,7.578671 5.8203125,7.7031242 5.7276505,7.8275774 5.6114664,7.8956288 5.4257812,7.9433586 c -0.254364,0.065384 -0.6269438,0.027373 -0.9765624,0.00977 -0.1365135,-0.00551 -0.3216885,-0.035962 -0.4199219,-0.03125 -0.059164,0.00284 -0.1114718,0.00747 -0.1601563,0.013672 -0.024342,0.0031 -0.045995,0.00722 -0.076172,0.013672 -0.030177,0.00645 -0.051218,-0.00402 -0.1640626,0.060547 -0.014106,0.00807 -0.048502,0.03101 -0.048828,0.03125 -3.262e-4,2.399e-4 -0.064225,0.056404 -0.064453,0.056641 -2.279e-4,2.371e-4 -0.077996,0.107188 -0.078125,0.1074219 -1.287e-4,2.34e-4 -0.058565,0.179457 -0.058594,0.1796875 -2.85e-5,2.305e-4 0.019459,0.214617 0.019531,0.2148438 7.23e-5,2.267e-4 0.081857,0.1560274 0.082031,0.15625 1.741e-4,2.226e-4 0.085662,0.085719 0.085937,0.085937 2.769e-4,2.181e-4 0.04763,0.032438 0.066406,0.042969 0.15021,0.08425 0.1640964,0.060088 0.1972656,0.064453 0.066338,0.00873 0.1088795,0.00781 0.1699219,0.00781 0.0767,0 0.2946064,-0.020827 0.4101562,-0.011719 0.1493167,0.00656 0.26734,-2.643e-4 0.4472657,0.033203 0.3142444,0.058456 0.6310052,0.1739568 0.8320327,0.3300808 C 5.8904806,9.4647162 6,9.6200612 6,9.9570302 6,10.320178 5.902595,10.48224 5.7382812,10.624999 5.5739671,10.767759 5.2992616,10.877323 4.9648438,10.935547 4.2960081,11.051995 3.4883391,10.957027 3,10.957027 l 0,1 c 0.3133609,0 1.2559794,0.116234 2.1367188,-0.03711 C 5.5770883,11.843247 6.027861,11.699425 6.3945312,11.380855 6.7612016,11.062286 7,10.554299 7,9.9570262 7,9.3335762 6.6957225,8.8227786 6.3027344,8.5175733 c -0.00303,-0.00235 -0.00673,-0.00157 -0.00977,-0.00391 C 6.4010587,8.4305416 6.5356625,8.4181455 6.6230469,8.3007808 6.873869,7.9639054 7,7.61042 7,7.0565312 7,6.4809499 6.8201828,5.9974409 6.5078125,5.6678594 6.1954422,5.3382779 5.7900556,5.178035 5.4023438,5.0975469 c -0.387712,-0.080488 -0.7855107,-0.089946 -1.125,-0.080078 z m 5.7167972,-0.017469 -1.494141,0.5 0,1 1.5,-0.5 L 10.0059,11 9,11 l 0,1 3,0 0,-1 -1,0 0,-6.0000006 z"/>
 <circle style="opacity:0.4" cx="3" cy="2" r="1"/>
 <circle style="opacity:0.4" cx="13" cy="2" r="1"/>
 <path style="fill:#9bcdff" d="M 11,10 H 16 L 10,16 V 11 C 10,10.446 10.446,10 11,10 Z"/>
</svg>
