<svg xmlns="http://www.w3.org/2000/svg" width="16" height="16" version="1">
 <circle style="fill:#28a4e2" cx="8" cy="8" r="8"/>
 <path style="fill:#f4f4f7" d="M 10.782878,11.651823 C 10.941398,11.356747 11.852265,6.311277 11.982477,5.0070118 12.123346,3.7145966 11.388839,3.9549322 10.712975,4.1732618 9.0548176,4.7107646 3.8122513,6.8894722 2.3772588,7.6085302 2.0239771,7.7491654 1.8712737,7.987781 2.1283279,8.1943086 2.3496513,8.3693654 3.1595171,8.6098002 3.8126534,8.7318158 4.3694225,8.8937442 4.8018955,8.7386398 5.2011042,8.5224598 6.1604793,7.9764054 9.0191989,6.2397654 9.1731443,6.1429642 c 0.1539454,-0.096801 0.3224363,0.082847 0.2362784,0.1698152 -0.086158,0.086968 -2.1107493,1.8299668 -2.7754689,2.618034 -0.3521583,0.4333144 -0.34161,0.6646552 0.020158,0.9378992 0.8116,0.6109664 2.9800302,2.0038124 3.3026852,2.0880014 0.411433,0.107353 0.652397,0.01842 0.826084,-0.304891 z"/>
</svg>
