<svg xmlns="http://www.w3.org/2000/svg" width="16" height="16" version="1">
 <path fill="#e03c3b" d="m12.838 0.83333a5.4167 5.5559 0 0 1 -1.749 3.2437c-1.028-0.6794-2.2598-1.077-3.589-1.077-1.3298 0-2.5632 0.39785-3.5907 1.078a5.4167 5.5559 0 0 1 -1.7466 -3.2087 5.4167 5.5559 0 0 0 -0.0794 0.9077 5.4167 5.5559 0 0 0 0.895 3.0522c-1.2191 1.1803-1.9783 2.8318-1.9783 4.6708 0 3.601 2.899 6.5 6.5 6.5s6.5-2.899 6.5-6.5c0-1.8384-0.759-3.4894-1.977-4.6698a5.4167 5.5559 0 0 0 0.89375 -3.0532 5.4167 5.5559 0 0 0 -0.07908 -0.94369z"/>
 <path style="fill:#f4f4f7" d="m 7.0000204,10.999958 c -0.5919999,0.956 -1.903,1.284 -2.9279999,0.732 C 3.3842926,11.360957 2.9998362,10.691189 3.0000001,10 c 8.04e-5,-0.33907 0,-1 0,-1.0000419 L 7,10 Z"/>
 <path style="fill:#2c2c2c" d="m 5.0097656,9.5019531 c -5.913e-4,0.5834099 0.3200812,1.5501619 0.9941406,2.2343749 0.00789,-8.71e-4 0.023437,-0.002 0.023438,-0.002 C 5.684946,11.248082 5.7649015,10.331437 6.0097656,9.7519531 Z"/>
 <path style="fill:#f4f4f7" d="m 7.9999997,10.999958 c 0.592,0.956 1.9030004,1.284 2.9280003,0.732 0.687727,-0.371001 1.072184,-1.040769 1.07202,-1.731958 -8e-5,-0.33907 0,-1 0,-1.0000419 L 8.0000201,10 Z"/>
 <path style="fill:#2c2c2c" d="m 9.9902541,9.5019531 c 5.92e-4,0.5834099 -0.320081,1.5501619 -0.9941402,2.2343749 -0.00789,-8.71e-4 -0.023437,-0.002 -0.023438,-0.002 0.3423982,-0.486296 0.2624422,-1.402941 0.017579,-1.9824249 z"/>
</svg>
