<svg xmlns="http://www.w3.org/2000/svg" width="16" height="16" version="1">
 <rect style="fill:#2ac4c4" width="16" height="16" x="0" y="0" rx=".8" ry=".8"/>
 <path style="fill:#f4f4f7" d="M 8.0097656 3 C 7.0702359 2.9809287 6.3321843 3.3166135 5.8515625 3.8339844 C 5.3709407 4.3513552 5.1386702 5.0083431 5.0214844 5.6328125 C 4.9220802 6.1625258 4.9130211 6.6646909 4.9257812 7.0898438 C 4.4082195 7.2661079 4 7.6807028 4 8.1367188 L 4 10.908203 C 4 11.512555 4.5953284 12 5.3339844 12 L 10.666016 12 C 11.404673 12 12 11.512555 12 10.908203 L 12 8.1367188 C 12 7.6812348 11.592874 7.2664584 11.076172 7.0898438 C 11.087599 6.6776143 11.076258 6.1948092 10.978516 5.6816406 C 10.861103 5.0652126 10.626833 4.4150919 10.150391 3.8945312 C 9.6739474 3.3739706 8.9467328 3.0190193 8.0097656 3 z M 7.9902344 4 C 8.7025302 4.014459 9.1125185 4.2388929 9.4140625 4.5683594 C 9.7156065 4.8978259 9.9008204 5.3689382 9.9960938 5.8691406 C 10.072028 6.2678086 10.082863 6.6565893 10.076172 7 L 9.4550781 7 L 6.5449219 7 L 5.9238281 7 C 5.9157445 6.6413977 5.9258975 6.2321055 6.0039062 5.8164062 C 6.0994044 5.3075062 6.2866194 4.835727 6.5839844 4.515625 C 6.8813494 4.195523 7.280501 3.9855933 7.9902344 4 z"/>
</svg>
