<svg xmlns="http://www.w3.org/2000/svg" width="16" height="16" version="1">
 <rect style="fill:#8e8e8e" width="12" height="10" x="-15" y="-13" rx=".75" ry=".833" transform="matrix(0,-1,-1,0,0,0)"/>
 <rect style="fill:#17191e" width="12" height="16" x="-13" y="-16" rx=".75" ry=".8" transform="matrix(0,-1,-1,0,0,0)"/>
 <rect style="fill:#2584d4" width="8" height="12" x="-11" y="-14" rx="0" ry="0" transform="matrix(0,-1,-1,0,0,0)"/>
 <rect style="fill:#5ebae6" width="4" height="6" x="3" y="4" rx=".6" ry=".6"/>
 <rect style="fill:#5ebae6" width="4" height="2" x="9" y="4" rx=".6" ry=".6"/>
 <rect style="fill:#5ebae6" width="4" height="2" x="9" y="8" rx=".6" ry=".6"/>
</svg>
