<svg xmlns="http://www.w3.org/2000/svg" width="16" height="16" version="1.1">
 <circle style="fill:#2fbd8c" cx="8" cy="8" r="8"/>
 <path style="opacity:0.3;fill:#f4f4f7;fill-rule:evenodd" d="M 13.6,13.2 6.212942,9.4262724 9.5262432,6.6127896 Z"/>
 <path style="opacity:0.3;fill-rule:evenodd" d="M 2.4,2.8 9.5225952,6.6325616 6.1842308,9.4066736 Z"/>
 <path style="fill:#f4f4f7;fill-rule:evenodd" d="M 4.3277898,11.399916 C 4.1549374,10.594322 4.0074998,9.7929206 4.0000266,9.0400842 4,6 5.5961898,5.2272652 7.3808302,5.033092 9.618327,4.7896468 12.115961,5.9335916 13.800218,7.0143632 c 0.260315,0.1531372 0.228938,0.3361376 0.115846,0.5146052 -0.715604,0.9662476 -1.772849,2.2386142 -2.67887,2.7543046 -2.069983,1.168348 -3.7279566,0.447163 -5.7158038,0.800486 -0.201382,0.03579 -0.9928348,0.256903 -1.1936004,0.316157 z"/>
 <circle style="fill:#f7785b" cx="7" cy="8" r="2"/>
 <circle style="fill:#17191e" cx="7" cy="8" r="1"/>
</svg>
