<svg xmlns="http://www.w3.org/2000/svg" width="16" height="16" version="1">
 <rect style="fill:#4f4f4f" width="16" height="12" x="-16" y="-14" rx=".8" ry=".75" transform="matrix(0,-1,-1,0,0,0)"/>
 <rect style="fill:#b2bfd9" width="12" height="8" x="-14" y="-12" rx="0" ry="0" transform="matrix(0,-1,-1,0,0,0)"/>
 <rect style="fill:#f34235" width="16" height="2" x="0" y="5" rx=".4" ry=".5"/>
</svg>
