<svg xmlns="http://www.w3.org/2000/svg" width="16" height="16" version="1.1">
 <rect style="fill:#c29875" width="14" height="16" x="1" y="0" rx="1.273" ry="1.231"/>
 <rect style="fill:#885e3d" width="10" height="3.056" x="3" y="2" rx="0" ry="0"/>
 <rect style="fill:#bd916c" width="10" height="2.778" x="3" y="4.22" rx="0" ry="0"/>
 <path style="fill:#f9f06b" d="M 10.483874,3.0000192 C 10.21405,3.0022135 9.9998497,3.0593866 10,3.1290509 v 3.870949 h 1 v -3.870949 c 0,-0.071264 -0.223849,-0.1290317 -0.5,-0.1290317 -0.0053,-2.57e-5 -0.0108,-2.57e-5 -0.01599,0 z"/>
 <rect style="fill:#3584e4" width="1" height="4.5" x="-12" y="2.5" transform="scale(-1,1)"/>
 <rect style="fill:#1a5fb4" width="1" height="1" x="11" y="3"/>
 <rect style="fill:#1a5fb4" width="1" height=".3" x="11" y="6.4"/>
 <rect style="fill:#1a5fb4" width="1" height=".15" x="11" y="5.95"/>
 <rect style="fill:#f4f4f7" width="1" height="4" x="-13" y="3" transform="scale(-1,1)"/>
 <rect style="fill:#ff7800" width="1" height="1.538" x="-13" y="5.46" transform="scale(-1,1)"/>
 <rect style="fill:#ff7800" width="1" height=".3" x="-13" y="4.7" transform="scale(-1,1)"/>
 <path style="fill:#ed333b" d="m 8.0000003,2.4999999 c -0.1726496,0 -0.3452993,0.00618 -0.4999996,0.018377 -0.3091553,0.024339 -0.4997164,0.069306 -0.5,0.1179855 V 6.9999999 H 9 V 2.6363636 C 8.9997144,2.5876845 8.8091557,2.5427171 8.5000007,2.5183776 8.3453001,2.5062004 8.1726501,2.5 8.0000003,2.4999999 Z"/>
 <circle style="fill:#c01c28" cx="-8" cy="5.5" r=".3" transform="scale(-1,1)"/>
 <path style="fill:#c01c28" d="M 8.0000001,3.4081523 C 7.8273503,3.4081523 7.6547007,3.4143443 7.5,3.4265296 7.190845,3.4508684 7.000284,3.4958358 7,3.5445153 v 1.0909092 c 2.857e-4,-0.048679 0.190845,-0.093647 0.5,-0.117986 0.1547007,-0.012192 0.3273503,-0.018375 0.5000001,-0.018375 0.1726496,0 0.3452996,0.00619 0.5000003,0.018375 C 8.809155,4.5417773 8.9997144,4.5867447 9,4.6354245 V 3.5445166 C 8.9997144,3.4958374 8.809155,3.4508704 8.5000004,3.4265308 8.3452997,3.4143532 8.1726497,3.4081523 8.0000001,3.4081523 Z"/>
 <path style="fill:#c01c28" d="M 8.0000001,6.3181815 C 7.8273503,6.3181815 7.6547007,6.3243735 7.5,6.3365569 7.190845,6.3608958 7.000284,6.4058641 7,6.4545431 V 6.72727 C 7.0002857,6.678591 7.190845,6.633624 7.5,6.609284 7.6547007,6.597095 7.8273503,6.590909 8.0000001,6.590909 c 0.1726496,0 0.3452996,0.00619 0.5000003,0.018375 C 8.809155,6.6336228 8.9997144,6.6785902 9,6.72727 V 6.4545432 C 8.9997144,6.4058637 8.809155,6.3608964 8.5000004,6.3365571 8.3452997,6.3243795 8.1726497,6.3181818 8.0000001,6.3181815 Z"/>
 <rect style="fill:#ff7800" width="1" height="4.5" x="3" y="2.5"/>
 <ellipse style="fill:#c64600" cx="3.479" cy="6.226" rx=".25" ry=".234"/>
 <path style="fill:#2ec27e" d="m 4.5000003,2.4999999 c 0.086317,0 0.1726497,0.00579 0.2500001,0.017331 C 4.9045667,2.5402805 4.9998503,2.5826837 5,2.6285708 V 6.9999999 H 4 V 2.6285715 c 1.336e-4,-0.045887 0.095417,-0.08829 0.2500003,-0.11124 0.077349,-0.011442 0.1636667,-0.017331 0.25,-0.017332 z"/>
 <path style="fill:#26a269" d="m 4.5000003,3.3999996 c -0.086333,0 -0.1726503,0.006 -0.25,0.017973 C 4.0954166,3.4417716 4.0001336,3.4857464 4,3.5333331 v 2.133333 c 1.336e-4,-0.047586 0.095417,-0.09156 0.2500003,-0.1153602 0.077349,-0.011865 0.1636667,-0.017973 0.25,-0.017973 0.086317,0 0.1726497,0.006 0.2500001,0.017973 C 4.9045667,5.5751053 4.9998503,5.619079 5,5.6666661 V 3.5333331 C 4.9998503,3.4857462 4.9045667,3.4417728 4.7500004,3.4179726 4.67265,3.4061076 4.5863174,3.3999996 4.5000003,3.3999996 Z"/>
 <path style="fill:#deddda" d="m 6.25,2.4999999 c -0.4142137,0 -0.75,0.06499 -0.75,0.1451613 V 6.9999999 H 6.9999999 V 2.6451612 C 6.9999999,2.5649902 6.6642133,2.4999999 6.25,2.4999999 Z"/>
 <path style="fill:#5e5c64" d="M 6.2499996,2.8391858 C 5.8357859,2.8391858 5.5,2.9041772 5.5,2.9843472 v 0.2903229 c 0,-0.08017 0.3357859,-0.1451612 0.7499996,-0.1451612 0.4142137,0 0.75,0.064991 0.75,0.1451612 V 2.9843472 c 0,-0.08017 -0.3357863,-0.1451614 -0.75,-0.1451614 z"/>
 <path style="fill:#5e5c64" d="M 6.2499996,6.0315427 C 5.8357859,6.0315427 5.5,6.0965351 5.5,6.176704 v 0.5806446 c 0,-0.08017 0.3357859,-0.1451606 0.7499996,-0.1451606 0.4142137,0 0.75,0.064991 0.75,0.1451606 V 6.176704 c 0,-0.080169 -0.3357863,-0.1451613 -0.75,-0.1451613 z"/>
 <rect style="fill:#9a9996" width=".3" height="1.5" x="6" y="3.8"/>
 <rect style="fill:#885e3d" width="10" height="2.778" x="3" y="9" rx="0" ry="0"/>
 <rect style="fill:#bd916c" width="10" height="2.778" x="3" y="11.22" rx="0" ry="0"/>
 <path style="fill:#3d3846" d="m 7.4999993,9.4999989 c -0.086332,0 -0.1726494,0.0062 -0.2499993,0.01838 -0.1545834,0.02434 -0.249867,0.06931 -0.25,0.117983 V 14 H 8 V 9.6363619 C 7.9998666,9.5876919 7.904567,9.5427219 7.75,9.5183799 7.67265,9.5062499 7.5863163,9.4999999 7.4999993,9.4999989 Z"/>
 <rect style="fill:#f6d32d" width="1" height="4" x="-9" y="10" transform="scale(-1,1)"/>
 <rect style="fill:#77767b" width="1" height=".3" x="-9" y="13" transform="scale(-1,1)"/>
 <rect style="fill:#77767b" width="1" height=".1" x="-9" y="13.6" transform="scale(-1,1)"/>
 <rect style="fill:#3584e4" width="2" height="4.5" x="-7" y="9.5" transform="scale(-1,1)"/>
 <rect style="fill:#1a5fb4" width="1" height=".5" x="-6.5" y="10" transform="scale(-1,1)"/>
 <rect style="fill:#ed333b" width="1" height="4.5" x="3" y="9.5"/>
 <rect style="fill:#5e5c64" width="1" height=".5" x="-4" y="10" transform="scale(-1,1)"/>
 <rect style="fill:#5e5c64" width="1" height=".3" x="-4" y="13.4" transform="scale(-1,1)"/>
 <rect style="fill:#5e5c64" width="1" height=".1" x="-4" y="12.9" transform="scale(-1,1)"/>
 <rect style="fill:#f4f4f7" width="1" height="4" x="4" y="10"/>
 <rect style="fill:#c061cb" width="1" height="1.333" x="4" y="12.67"/>
 <rect style="fill:#c061cb" width="1" height=".333" x="4" y="12"/>
 <rect style="fill:#3584e4" width=".5" height="4.5" x="10" y="9.5"/>
 <rect style="fill:#1a5fb4" width=".5" height=".5" x="10" y="10"/>
 <rect style="fill:#1a5fb4" width=".5" height=".3" x="10" y="10.7"/>
 <path style="fill:#57e389" d="m 11.250001,9.6666669 c -0.129496,0 -0.258976,0.0065 -0.375001,0.01947 -0.231871,0.02578 -0.37479,0.07342 -0.375,0.124973 V 14 H 12 V 9.8111119 c -1.5e-4,-0.05155 -0.143145,-0.09919 -0.375,-0.124973 -0.116024,-0.01285 -0.245521,-0.01947 -0.374999,-0.01947 z"/>
 <path style="fill:#8c3ea6" d="m 12.5,9.4999819 c -0.08633,0 -0.17265,0.0062 -0.25,0.01838 -0.154582,0.02434 -0.249866,0.06931 -0.25,0.117982 v 4.3636391 h 1 V 9.6363449 c -1.33e-4,-0.04867 -0.09543,-0.09364 -0.25,-0.117983 -0.07735,-0.01213 -0.163683,-0.01838 -0.25,-0.01838 z"/>
 <rect style="fill:#613583" width=".333" height="3.214" x="12.33" y="9.99"/>
 <rect style="fill:#ed333b" width="1" height="4" x="9" y="10"/>
 <rect style="fill:#a51d2d" width=".3" height="1" x="9.4" y="12"/>
 <rect style="fill:#a51d2d" width="1" height=".3" x="9" y="10.7"/>
 <rect style="fill:#1a5fb4" width="1" height="4" x="-10" y="3" transform="scale(-1,1)"/>
 <rect style="fill:#e01b24" width=".5" height="4" x="5" y="3"/>
</svg>
