<svg xmlns="http://www.w3.org/2000/svg" width="16" height="16" version="1.1">
 <rect style="fill:#345784" width="16" height="16" x="0" y="0" rx=".8" ry=".8"/>
 <path style="fill:#8d8069" d="m 8.2148436,3.0009368 c -0.041702,0.00136 -0.084804,0.00553 -0.13125,0.01172 C 7.561214,3.0822344 7.4178288,3.2086236 7.0984376,3.8790632 6.8830096,4.3312688 6.7752368,4.6426647 6.4976564,4.7023463 6.3319791,4.4523512 6.1121968,4.3486131 5.9858391,4.2273448 5.1602333,3.4349923 5.177327,5.0399907 4.9445312,5.6000015 4.5943532,5.2927571 4.1395808,4.7976783 3.6898772,4.4262587 3.2878152,4.0941871 2.8898048,3.8929959 2.5742188,4.1025795 2.3241384,4.2779375 2.1116634,4.6541779 2.034375,5.5174231 c -0.105588,1.1793224 0.0011,1.6176256 0.7500002,2.5942984 0.846848,1.1044132 1.5300952,2.2846775 3.5277788,3.6715465 0.8652796,0.60071 1.5904028,1.092187 1.6117188,1.092187 0.1198176,0 -1.1580796,-1.659972 -1.9320312,-2.509376 C 5.066453,9.2924659 4.635266,8.0890286 5.3638189,7.1 6.2117729,6.7163302 6.698384,7.5606213 7.1757012,7.9916559 7.6224576,8.4744119 8.0306792,9.1840014 8.38742,9.680923 8.8084617,10.075453 9.4547979,9.996906 9.7408295,9.647862 10.352516,8.9014224 9.9622436,7.7425583 9.2414064,6.7960951 9.16031,6.4499563 9.3136076,6.3972939 9.6679688,6.3976579 c 0.4482222,4.4e-4 1.3990122,0.4742004 1.9104842,0.9171872 0.632066,0.547432 0.678483,0.6576392 1.382094,2.0531252 0.415334,0.8237407 0.827279,1.3921847 0.915625,1.5071997 0.157335,0.204838 0.160641,0.203704 0.163281,-0.05234 C 13.906684,8.6906999 13.22677,6.7484879 11.626891,5.2921891 11.356262,5.0556311 10.462596,4.2787504 9.7625,3.810312 8.742478,3.1278064 8.5067556,2.9912988 8.2148436,3.0009368 Z"/>
 <ellipse style="fill:#f4f4f7" cx=".92" cy="12.192" rx=".725" ry="1.067" transform="matrix(0.4366245,-0.89964384,0.68883367,0.72491943,0,0)"/>
</svg>
