<svg xmlns="http://www.w3.org/2000/svg" width="16" height="16" version="1">
 <rect style="fill:#44bb23" width="15" height="15" x="1" y="1" rx=".75" ry=".75"/>
 <path style="opacity:0.2" d="M 11,1 V 16 H 15.25 C 15.666,16 16,15.666 16,15.25 V 1.7499 C 16,1.3344 15.666,1 15.25,1 Z"/>
 <rect style="opacity:0.1" width="5" height="15" x="6" y="1"/>
 <path style="opacity:0.2" d="M 16,11 H 1 V 15.25 C 1,15.666 1.3344,16 1.7499,16 H 15.25 C 15.666,16 16,15.666 16,15.25 Z"/>
 <rect style="opacity:0.1" width="5" height="15" x="6" y="-16" transform="rotate(90)"/>
 <circle style="fill:#f4f4f7" cx="8.5" cy="8.5" r="1.5"/>
 <circle style="fill:#f4f4f7" cx="3.5" cy="8.5" r="1.5"/>
 <circle style="fill:#17191e" cx="13.5" cy="8.5" r="1.5"/>
 <circle style="fill:#f4f4f7" cx="8.5" cy="3.5" r="1.5"/>
 <circle style="fill:#f4f4f7" cx="3.5" cy="3.5" r="1.5"/>
 <circle style="fill:#f4f4f7" cx="13.5" cy="3.5" r="1.5"/>
 <circle style="fill:#17191e" cx="8.5" cy="13.5" r="1.5"/>
 <circle style="fill:#17191e" cx="3.5" cy="13.5" r="1.5"/>
 <circle style="fill:#f4f4f7" cx="13.5" cy="13.5" r="1.5"/>
</svg>
