<svg xmlns="http://www.w3.org/2000/svg" width="16" height="16" version="1">
 <circle style="fill:#cd4242" cx="8" cy="8" r="8"/>
 <path style="fill:#f4f4f7" d="m 7.999999,3 a 1,1 0 0 0 -1,1 l 0,3.5 0,0.75 0,0.75 5,0 a 1,1 0 0 0 1,-1 1,1 0 0 0 -1,-1 l -3,0 0,-3 a 1,1 0 0 0 -1,-1 z"/>
</svg>
