<svg xmlns="http://www.w3.org/2000/svg" width="16" height="16" version="1.1">
 <rect style="fill:#8e8e8e" width="12.8" height="10" x="-15" y="-13.2" rx=".8" ry=".833" transform="matrix(0,-1,-1,0,0,0)"/>
 <rect style="fill:#4f4f4f" width="12" height="16" x="-13" y="-16" rx=".75" ry=".8" transform="matrix(0,-1,-1,0,0,0)"/>
 <path style="fill:#303f9f" d="M 2,8.7133412 V 11 h 2.6229321 z"/>
 <path style="fill:#2357cd" d="M 2,6.4002403 V 8.7133412 L 4.6229321,11 h 2.6532628 z"/>
 <path style="fill:#9844e8" d="M 2,4.0871394 V 6.4002403 L 7.2761949,11 h 2.6525739 z"/>
 <path style="fill:#f845c5" d="M 2,3 V 4.0871394 L 9.9287688,11 H 12.582721 L 3.4055607,3 Z"/>
 <path style="fill:#ffb86c" d="m 3.4055607,3 9.1771603,8 H 14 V 9.9230769 L 6.0588235,3 Z"/>
 <path style="fill:#359435" d="M 6.0588235,3 14,9.9230769 V 7.609976 L 8.7120863,3 Z"/>
 <path style="fill:#17aab6" d="M 8.7120863,3 14,7.609976 V 5.2968751 L 11.365349,3 Z"/>
 <path style="fill:#1bbcff" d="M 11.365349,3 14,5.2968751 V 3 Z"/>
 <path style="fill:#f4f4f7" d="M 11,5 C 10.451171,5 10,5.4511713 10,5.9999993 10,6.5488286 10.451171,7 11,7 11.548828,7 12,6.5488286 12,5.9999993 12,5.4511713 11.548828,5 11,5 Z m 0,0"/>
 <path style="fill:#f4f4f7" d="m 11.90592,4.1765106 0.219998,0.1270156 c 0.06101,0.035228 0.08171,0.1124912 0.04649,0.1735063 l -0.254034,0.4399947 c -0.03523,0.061014 -0.112491,0.081718 -0.173506,0.04649 L 11.524874,4.8365021 c -0.02922,-0.016868 -0.05045,-0.044597 -0.05916,-0.077127 -0.0087,-0.032535 -0.0042,-0.06716 0.01268,-0.096377 l 0.254034,-0.4399946 c 0.03523,-0.061014 0.112491,-0.081718 0.173506,-0.04649 z m -1.651202,2.859965 0.219998,0.1270156 c 0.06101,0.035228 0.08171,0.1124915 0.04649,0.1735063 l -0.254031,0.4399947 c -0.03523,0.061015 -0.112491,0.081718 -0.173507,0.04649 L 9.8736722,7.6964667 c -0.029219,-0.016868 -0.050451,-0.044597 -0.059161,-0.077127 -0.00869,-0.032531 -0.00419,-0.06716 0.012678,-0.096378 L 10.08122,7.0829672 c 0.03523,-0.061014 0.112491,-0.081718 0.173507,-0.04649 z m 0.09647,-2.9664001 0.245349,-0.065741 c 0.03254,-0.00871 0.06716,-0.0042 0.09638,0.012677 0.02922,0.016868 0.05045,0.044598 0.05916,0.077127 l 0.131485,0.4906978 c 0.0087,0.032531 0.0042,0.06716 -0.01268,0.096378 -0.01687,0.029216 -0.0446,0.050449 -0.07713,0.059168 l -0.245348,0.065741 c -0.03254,0.00872 -0.06716,0.0042 -0.09638,-0.012677 -0.02922,-0.016868 -0.05045,-0.044596 -0.05916,-0.077127 L 10.261388,4.2256208 c -0.0087,-0.032534 -0.0042,-0.067161 0.01268,-0.09638 0.01687,-0.029216 0.0446,-0.050449 0.07714,-0.059165 z m 0.854386,3.1899663 0.245598,-0.06617 c 0.03254,-0.00872 0.06716,-0.0042 0.09638,0.012677 0.02922,0.016868 0.05045,0.044598 0.05916,0.077127 l 0.131912,0.4909462 c 0.0087,0.032535 0.0042,0.06716 -0.01268,0.096378 -0.01687,0.029216 -0.0446,0.050449 -0.07713,0.059168 l -0.245778,0.065493 c -0.03254,0.00872 -0.06716,0.0042 -0.09638,-0.012677 -0.02922,-0.016868 -0.05045,-0.044597 -0.05916,-0.077127 L 11.116022,7.4151587 c -0.0087,-0.032535 -0.0042,-0.06716 0.01268,-0.096378 0.01687,-0.029216 0.0446,-0.050449 0.07713,-0.059168 z M 9.0698736,6.6485997 9.0041323,6.4032512 c -0.00872,-0.032535 -0.0042,-0.067162 0.012674,-0.09638 0.016868,-0.02922 0.044598,-0.050449 0.077132,-0.059165 L 9.5846339,6.1162234 c 0.032534,-0.00872 0.067157,-0.0042 0.096378,0.012677 0.029218,0.016868 0.050446,0.044598 0.059166,0.077127 l 0.065743,0.2453499 c 0.00869,0.032534 0.00419,0.067159 -0.012678,0.096377 -0.016866,0.02922 -0.044599,0.050449 -0.077124,0.059167 L 9.2254178,6.738404 c -0.032531,0.00872 -0.06716,0.0042 -0.096378,-0.012677 C 9.0998238,6.708859 9.0785908,6.68113 9.0698736,6.6485997 Z M 12.259839,5.7942142 12.193674,5.548617 c -0.0087,-0.032535 -0.0042,-0.06716 0.01268,-0.096378 0.01687,-0.02922 0.0446,-0.050449 0.07713,-0.059168 l 0.490698,-0.131482 c 0.03254,-0.00872 0.06716,-0.0042 0.09638,0.012677 0.02922,0.016868 0.05044,0.044597 0.05916,0.077127 l 0.06616,0.2455965 c 0.0087,0.032534 0.0042,0.06716 -0.01268,0.096378 -0.01687,0.029221 -0.0446,0.050449 -0.07713,0.059168 l -0.491128,0.1312337 c -0.03254,0.00872 -0.06716,0.0042 -0.09638,-0.012678 -0.02922,-0.016868 -0.05045,-0.044596 -0.05917,-0.077126 z m 0.563442,1.1119079 -0.127015,0.2199975 c -0.03523,0.061014 -0.112491,0.081718 -0.173507,0.04649 L 12.082764,6.918579 c -0.02922,-0.016868 -0.05044,-0.044597 -0.05916,-0.077127 -0.0087,-0.032535 -0.0042,-0.06716 0.01268,-0.096378 l 0.127015,-0.2199975 c 0.03523,-0.061014 0.112491,-0.081718 0.173507,-0.04649 l 0.439995,0.254031 c 0.06101,0.035228 0.08171,0.1124916 0.04649,0.1735066 z M 9.9633164,5.2549209 9.8363001,5.4749181 c -0.035229,0.061015 -0.1124922,0.081717 -0.1735058,0.04649 L 9.2227991,5.2673775 c -0.029219,-0.016868 -0.050449,-0.044598 -0.059166,-0.077127 -0.00872,-0.032538 -0.0042,-0.067162 0.012677,-0.09638 L 9.3033252,4.8738726 c 0.035228,-0.061015 0.1124916,-0.081718 0.1735067,-0.04649 L 9.916826,5.0814136 C 9.97784,5.1166416 9.998538,5.1939051 9.96332,5.2549202 Z m 0,0"/>
 <path style="fill:#f4f4f7" d="M 4.5000003,7 C 3.6717357,7 3,7.6717357 3,8.4999997 3,9.328264 3.6717357,10 4.5000003,10 5.3282643,10 6,9.328264 6,8.4999997 6,8.4112727 5.99205,8.3225446 5.976564,8.2354912 5.8740249,8.7025669 5.4605208,9.0357142 4.9821448,9.0357142 c -0.5620816,0 -1.0178572,-0.4557756 -1.0178572,-1.0178571 0,-0.4783761 0.3331471,-0.8918805 0.800223,-0.9944196 -0.087054,-0.015486 -0.1757811,-0.023436 -0.2645088,-0.023436 z m 0,0"/>
</svg>
