<svg xmlns="http://www.w3.org/2000/svg" width="16" height="16" version="1">
 <path style="fill:#1f56a8" d="M 13,3.9642857 16,2 v 11 l -3,-1.964286 z"/>
 <rect style="fill:#1c6bdd" width="13" height="13" x="0" y="1" rx="1.529" ry="1.529"/>
 <rect style="fill:none" width="13.176" height="13.176" x="1.65" y="1.41"/>
 <path style="fill:#f4f4f7" d="m 4,4 v 3 1 3 H 7.3320312 C 8.2525055,11 9,9.764702 9,9 9,8.6332914 8.8253577,7.7753407 8.5449219,7.5 8.8253577,7.2246593 9,6.3667085 9,6 9,5.2352979 8.2525055,4 7.3320312,4 Z M 5,5 H 7.3320312 C 7.7199555,5 8,5.4713643 8,6 8,6.5286355 7.7199556,7 7.3320312,7 H 5 Z M 5,8 H 7.3320312 C 7.7199555,8 8,8.4314637 8,9 8,9.5120407 7.7199556,10 7.3320312,10 H 5 Z"/>
</svg>
