<svg xmlns="http://www.w3.org/2000/svg" width="16" height="16" version="1">
 <path style="fill:#8e8e8e" d="m 5.9998283,2.00001 c -0.3142998,0 -0.6288097,0.1171491 -0.8637562,0.3520899 L 0.35208613,7.1366193 c -0.46989372,0.4698817 -0.46922697,1.256233 6.75e-4,1.7261155 L 5.1367471,13.647254 c 0.4698941,0.469883 1.2569463,0.470548 1.7268404,6.74e-4 L 11.64758,8.8634169 c 0.469893,-0.4698825 0.469894,-1.2569069 0,-1.726789 L 6.8635848,2.3520999 C 6.6286387,2.1171591 6.3141282,2.00001 5.9998283,2.00001 Z"/>
 <rect style="fill:#f4f4f7" width="5.843" height="5.843" x="6.98" y="-1.51" rx=".318" ry=".318" transform="rotate(45)"/>
 <path style="fill:#e52e38" d="m 9.9998284,2.0000097 c -0.3142998,0 -0.6288097,0.1171491 -0.8637562,0.3520899 L 4.352086,7.1366191 C 3.8821924,7.6065008 3.8828591,8.3928522 4.352761,8.8627346 l 4.7839862,4.7845194 c 0.4698942,0.469883 1.2569458,0.470548 1.7268398,6.74e-4 L 15.64758,8.8634167 c 0.469892,-0.4698825 0.469893,-1.2569069 0,-1.726789 L 10.863584,2.3520996 C 10.628639,2.1171588 10.314128,2.0000097 9.9998284,2.0000097 Z"/>
</svg>
