<svg width="16" height="16" version="1.1" xmlns="http://www.w3.org/2000/svg">
 <path d="m4 0v1h-2v1h-1v2h-1v8h1v2h1v1h2v1h8v-1h2v-1h1v-2h1v-8h-1v-2h-1v-1h-2v-1h-8z" style="fill:#17191e"/>
 <path d="m4 1v1h-2v2h-1v8h1v2h2v1h8v-1h2v-2h1v-8h-1v-2h-2v-1h-8z" style="fill:#b2bfd9"/>
 <path d="m5 2v12h-1v-1h-1v-1h-1v-8h1v-1h1v-1z" style="fill:#3465a4"/>
 <rect x="5" y="2" width="6" height="12" style="fill:#73d216"/>
 <path d="m11 2v12h1v-1h1v-1h1v-8h-1v-1h-1v-1z" style="fill:#ef2929"/>
 <path d="m5 3v1h-1v1h-1v6h1v1h1v1h6v-1h1v-1h1v-6h-1v-1h-1v-1h-6z" style="fill:#17191e"/>
 <path d="m10 10h1v1h-1z" style="fill:#f4f4f7"/>
 <path d="m6 5v1h-1v2h1v1h2v-1h1v-2h-1v-1h-2z" style="fill:#f4f4f7"/>
</svg>
