<svg xmlns="http://www.w3.org/2000/svg" width="16" height="16" version="1">
 <rect style="fill:#4b5b69" width="16" height="16" x="0" y="0" rx=".8" ry=".8"/>
 <path style="fill:#f4f4f7" d="M 2,3 V 6 H 3 V 3 Z"/>
 <path style="fill:#f4f4f7" d="M 5.2,6 A 0.8,0.8 0 0 0 4.4,6.8 0.8,0.8 0 0 0 5.2,7.6 0.8,0.8 0 0 0 6,6.8 0.8,0.8 0 0 0 5.2,6 Z"/>
 <path style="fill:#f4f4f7" d="m 7,8 v 1 h 3 V 8 Z"/>
 <path style="fill:#f4f4f7" d="m 11,8 v 1 h 3 V 8 Z"/>
 <path style="fill:#f4f4f7" d="M 5.2,9 C 4.7581722,9 4.4,9.3581722 4.4,9.8 c 4.574e-4,0.342076 0.2183612,0.646011 0.5421876,0.75625 L 4.6523436,12 H 5.2 C 5.5898048,11.344446 6.1027172,10.594213 6,9.8 6,9.3581722 5.6418278,9 5.2,9 Z"/>
</svg>
