<svg xmlns="http://www.w3.org/2000/svg" width="16" height="16" version="1">
 <rect style="fill:#226ccc" width="15" height="15" x="1" y="1" rx=".75" ry=".75"/>
 <path style="opacity:0.3" d="M 1.7496995,1.0000002 C 1.3341995,1.0000002 1,1.3341997 1,1.7496997 V 6.0000001 H 5.9999999 V 1.0000002 Z M 5.9999999,6.0000001 V 11 H 11 V 6.0000001 Z m 5.0000001,0 h 5 V 1.7496997 c 0,-0.4155 -0.3342,-0.7496995 -0.7497,-0.7496995 H 11 Z M 11,11 v 5 h 4.2503 C 15.6658,16 16,15.6658 16,15.2503 V 11 Z M 5.9999999,11 H 1 v 4.2503 C 1,15.6658 1.3341995,16 1.7496995,16 h 4.2503004 z"/>
 <path style="fill:#f4f4f7" d="m 13.627653,2.0000003 c -0.09555,0 -0.219634,0.00878 -0.339192,0.026042 -0.119552,0.017247 -0.234566,0.042943 -0.311849,0.077474 -0.151755,0.066298 -0.286265,0.1481065 -0.404297,0.2447916 l 0.197917,0.2441406 c 0.115222,-0.088398 0.227638,-0.1573075 0.33724,-0.2070312 0.1096,-0.049723 0.371237,-0.07487 0.520181,-0.07487 0.07869,0 0.15026,0.011144 0.214194,0.032552 0.06406,0.021522 0.120741,0.053537 0.169921,0.096354 0.09836,0.082873 0.147136,0.2055061 0.147136,0.3684895 0,0.1353591 -0.02669,0.2586433 -0.08008,0.3691406 -0.0534,0.1104973 -0.133444,0.2231707 -0.240234,0.3391927 -0.103981,0.116022 -0.230612,0.2486146 -0.379558,0.3977867 L 12.538459,4.6972656 V 5 h 1.989583 V 4.6686197 h -1.521483 v -0.016927 l 0.760415,-0.608724 c 0.154566,-0.146409 0.289727,-0.2860233 0.404949,-0.4186197 0.115221,-0.1325966 0.204894,-0.2663335 0.26953,-0.4016926 0.06464,-0.1353598 0.09701,-0.2808511 0.09701,-0.4355472 0,-0.121547 -0.02045,-0.2301774 -0.06119,-0.3261718 -0.04075,-0.095994 -0.102096,-0.1789069 -0.183594,-0.2493489 -0.04089,-0.035346 -0.08514,-0.06597 -0.133464,-0.092448 -0.04795,-0.026347 -0.09967,-0.048794 -0.154948,-0.066407 0,0 -6.66e-4,0 -6.66e-4,0 -0.0555,-0.017644 -0.114205,-0.030884 -0.177083,-0.039713 -0.06285,-0.00881 -0.129597,-0.013021 -0.199855,-0.013021 z"/>
 <path style="fill:#f4f4f7" d="m 8.571664,7.000001 c -0.2042553,0 -0.4541828,0.029897 -0.6158851,0.089844 C 7.7969137,7.149791 7.6631901,7.2209919 7.5553884,7.3027356 l 0.1875,0.2447915 c 0.1134752,-0.070845 0.2280889,-0.1294596 0.3444008,-0.1757813 0.1163123,-0.046321 0.3237422,-0.06901 0.4882811,-0.06901 0.1702129,0 0.3050061,0.039471 0.4042968,0.1184897 0.099291,0.076294 0.1490883,0.1851331 0.1490883,0.3268228 3e-7,0.1662122 -0.065467,0.2995729 -0.1959632,0.4003901 C 8.8053325,8.2492553 8.549825,8.3326826 8.3001798,8.3326826 h -0.095052 v 0.2734373 h 0.090495 c 0.2695036,0 0.4781328,0.041303 0.625651,0.1230469 0.1503543,0.079019 0.2259113,0.2093655 0.2259113,0.3919268 0,0.1798366 -0.060957,0.3215879 -0.1829426,0.4251301 -0.119149,0.1008173 -0.3148991,0.1510417 -0.5872394,0.1510417 -0.1361703,0 -0.2782635,-0.01613 -0.4257811,-0.048828 C 7.803704,9.6157404 7.6661211,9.5678784 7.5384615,9.5052081 V 9.840495 C 7.6632841,9.900445 7.793567,9.941092 7.9297373,9.96289 8.0659076,9.98742 8.2135801,10 8.3724454,10 8.6419489,10 8.8617375,9.96289 9.0319504,9.889323 9.205,9.815753 9.3324932,9.7141251 9.4147626,9.5833348 9.4970326,9.4525446 9.5384605,9.3012209 9.5384605,9.129559 9.5384605,8.9360984 9.4775035,8.7793982 9.355518,8.6595072 9.2363689,8.5396145 9.0562881,8.4660503 8.8151535,8.4388023 V 8.4225254 C 9.0052245,8.3843782 9.2238136,8.3078002 9.3372886,8.1933589 9.4536008,8.0761926 9.5117678,7.9194924 9.5117678,7.7233071 9.5117678,7.5134979 9.4340721,7.340667 9.278044,7.204427 9.1248527,7.0681896 8.8893942,7.000001 8.571664,7.000001 Z"/>
 <path style="fill:#f4f4f7" d="M 3.4240901,12 C 3.2283115,12 3.0569608,12.03948 2.9094175,12.11851 2.7647115,12.19754 2.6519565,12.309946 2.5725101,12.457111 2.4930641,12.604275 2.454,12.780933 2.454,12.985327 c 0,0.280703 0.079821,0.498158 0.2387133,0.653499 0.1617301,0.152615 0.372144,0.228555 0.6331827,0.228555 0.1844286,0 0.3356993,-0.03279 0.4520315,-0.09819 0.1163322,-0.06813 0.205621,-0.147748 0.2708804,-0.240406 h 0.025395 c -0.00568,0.158066 -0.025208,0.309285 -0.059255,0.453725 -0.034049,0.141713 -0.089305,0.266835 -0.1659141,0.375846 -0.076609,0.106285 -0.1793001,0.191268 -0.3098194,0.25395 -0.1276815,0.06268 -0.2906616,0.09311 -0.4892776,0.09311 -0.1390312,0 -0.263496,-0.01706 -0.3741535,-0.05248 V 14.95937 C 2.7211813,14.973 2.7820186,14.98271 2.8586276,14.98815 2.9352376,14.99625 3.0016544,15 3.0584018,15 c 0.2865747,0 0.521004,-0.04918 0.7025959,-0.147291 0.184429,-0.09811 0.3256366,-0.22926 0.4249435,-0.392777 0.1021457,-0.166241 0.1713538,-0.348556 0.2082392,-0.550226 0.039725,-0.204396 0.059255,-0.411486 0.059255,-0.621332 0,-0.291604 -0.044644,-0.531482 -0.1354402,-0.719525 C 4.2271991,12.378086 4.1032831,12.234872 3.9472277,12.142213 3.7911721,12.046828 3.6170316,12 3.4240901,12 Z m 0,0.303048 c 0.1447061,0 0.2658317,0.03712 0.3623024,0.113431 0.09647,0.07631 0.1684693,0.171655 0.2167043,0.286117 0.048236,0.114461 0.071106,0.229879 0.071106,0.347066 0,0.08721 -0.027901,0.172191 -0.08465,0.25395 -0.053911,0.08176 -0.1292473,0.150348 -0.2285552,0.204853 -0.099308,0.05178 -0.2176438,0.07788 -0.3538375,0.07788 -0.198616,0 -0.3470958,-0.05286 -0.4435665,-0.159142 -0.093633,-0.109008 -0.1388262,-0.258908 -0.1388262,-0.446952 0,-0.228922 0.055257,-0.397859 0.1659142,-0.509594 0.1134949,-0.111736 0.2574917,-0.167607 0.4334085,-0.167607 z"/>
</svg>
