<svg xmlns="http://www.w3.org/2000/svg" width="16" height="16" version="1">
 <circle style="fill:#623bb2" cx="8" cy="8" r="8"/>
 <path style="fill:#f4f4f7" d="M 6.7222654,0.571875 4.5386722,8.966406 C 3.909649,5.479428 3.3674586,3.627034 2.6285158,2.15 A 8,8 0 0 0 0.9964846,4.242969 c 0.5216568,1.339776 1.0239418,3.141682 1.6976564,5.985156 0.7251924,3.09532 1.8995528,4.212603 4.5843744,4.742187 l 1.923438,0.457813 2.1828116,-8.395313 c 0.648832,3.596797 1.206517,5.454662 1.982032,6.954688 a 8,8 0 0 0 1.636718,-2.028907 C 14.453928,10.601599 13.935779,8.753634 13.229297,5.771875 12.504108,2.676551 11.329747,1.559271 8.6449224,1.029687 Z m 1.835938,2.234375 c 1.36119,0.363391 1.8803446,1.026211 2.2999996,2.382031 H 9.9355474 L 7.3660154,13.19375 C 6.0048262,12.830358 5.4856742,12.167539 5.0660158,10.811719 h 0.9226564 z"/>
</svg>
