<svg xmlns="http://www.w3.org/2000/svg" width="16" height="16" version="1">
 <rect style="fill:#b2bfd9" width="16" height="16" x="0" y="0" rx=".8" ry=".8"/>
 <path style="fill:#d87d00" d="M 2.9999998,3.5 8.954038,8.0526657 2.9999998,12.5 V 10.794864 L 6.7454835,8 2.9999998,5.1874257 Z M 13,4.9237655 8.954038,8.0526657 13,11.111257 V 9.4063201 L 11.18026,7.999934 13,6.5937459 Z"/>
</svg>
