<svg xmlns="http://www.w3.org/2000/svg" width="16" height="16" version="1">
 <rect style="fill:#4f4f4f" width="16" height="16" x="0" y="0" rx=".8" ry=".8"/>
 <path style="fill:#f4f4f7" d="M 12.000469,5 9.8226564,9.0172526 7.2218752,5.0045574 H 5 L 6,5.8620877 V 11.364258 L 5,12 H 6 6.9995782 8 L 6.9995782,11.364258 V 7.2611762 L 8.9335936,10.477865 9.3929688,11.232856 12.000469,6.5099824 V 11.364258 L 11.389531,12 H 12.000469 14 15 L 14,11.364258 V 5.6410592 L 15,5 l -1,0.00456 z"/>
 <path style="fill:#f4f4f7" d="M 4.2463908,7.0027562 C 3.6902564,7.0404117 3.2589176,7.1549849 2.9995156,7.608531 V 7.0060073 L 0.36,8.0220376 0.9998438,8.5975174 V 11.330233 L 0.4045313,12 H 0.9998438 2.9995156 4 L 2.9995156,11.330233 V 8.079663 C 3.5065388,7.9536846 3.879614,7.8420555 4.4557656,8.219469 L 4.8424844,7.1035462 C 4.6311184,7.0199647 4.4317688,6.9902042 4.2463908,7.0027562 Z"/>
</svg>
