<svg xmlns="http://www.w3.org/2000/svg" width="16" height="16" version="1">
 <rect style="fill:#17191e" width="16" height="16" x="0" y="0" rx="8" ry="8"/>
 <path style="fill:#137fb0" d="M 3,5.8120087 H 4 V 8.327486 L 4.4383077,8.5306279 V 10.812009 L 3,9.9220538 Z"/>
 <path style="fill:#0ea3e7" d="M 3,3.9865879 9.6924581,7.8507706 7.9947415,8.8303379 3,5.9464737 Z"/>
 <g transform="matrix(1.1142856,0,0,1.1142856,-0.91428497,-1.19577)">
  <path style="fill:#0ea3e7" d="M 10.692308,8.8889317 6.4675481,11.328085 8,12.213 10.692308,10.658012 Z"/>
  <path style="fill:#35cfee" d="M 5.3076923,8.8889317 V 10.658012 L 8,12.212249 9.5324519,11.328085 Z"/>
 </g>
 <path style="fill:#229eb5" d="M 13,5.8120087 H 12 V 8.327486 L 11.561692,8.5306279 V 10.812009 L 13,9.9220538 Z"/>
 <path style="fill:#35cfee" d="M 13,3.9865879 6.3075419,7.8507706 8.0052585,8.8303379 13,5.9464737 Z"/>
</svg>
