<svg xmlns="http://www.w3.org/2000/svg" width="16" height="16" version="1">
 <rect fill="#8e8e8e" width="12" height="10" x="-15" y="-13" rx=".75" ry=".833" transform="matrix(0,-1,-1,0,0,0)"/>
 <rect style="fill:#4f4f4f" width="12" height="16" x="-13" y="-16" rx=".75" ry=".8" transform="matrix(0,-1,-1,0,0,0)"/>
 <rect style="fill:#dc4f47" width="8" height="12" x="-11" y="-14" rx="0" ry="0" transform="matrix(0,-1,-1,0,0,0)"/>
 <path style="fill:#f4f4f7" d="m 5.3361,5.000305 4.3539,0 c 0.33621,0 0.31,0.35589 0.31,0.35589 l 0,3.2878 c 0,0.356 -0.31,0.356 -0.31,0.356 l -4.3539001,0 c 0,0 -0.3362,0 -0.3362,-0.356 l 0,-3.2881 c 0,0 0,-0.3559 0.3362,-0.3559 z M 12,5.5 l 0,3 -2,-1.49969 z"/>
</svg>
