<svg xmlns="http://www.w3.org/2000/svg" width="16" height="16" version="1.1">
 <path style="fill:#b2bfd9" d="M 1,4.56 V 14.2 C 1,14.6432 1.3345,15 1.75,15 h 13.5 C 15.6655,15 16,14.6432 16,14.2 V 4.56 Z"/>
 <path style="fill:#31b7cf" d="M 16,5 V 1.8 C 16,1.3568 15.6655,1 15.25,1 H 1.75 C 1.3345,1 1,1.3568 1,1.8 V 5 Z"/>
 <rect style="opacity:0.2" width="2" height="2" x="3" y="6"/>
 <circle style="fill:#f4f4f7" cx="4" cy="3" r="1"/>
 <circle style="fill:#f4f4f7" cx="13" cy="3" r="1"/>
 <rect style="opacity:0.2" width="2" height="2" x="6" y="6"/>
 <rect style="opacity:0.2" width="2" height="2" x="9" y="6"/>
 <rect style="opacity:0.2" width="2" height="2" x="12" y="6"/>
 <rect style="opacity:0.2" width="2" height="2" x="3" y="9"/>
 <rect style="opacity:0.2" width="2" height="2" x="6" y="9"/>
 <rect style="opacity:0.2" width="2" height="2" x="9" y="9"/>
 <rect style="opacity:0.2" width="2" height="2" x="12" y="9"/>
 <rect style="opacity:0.2" width="2" height="2" x="3" y="12"/>
 <rect style="opacity:0.2" width="2" height="2" x="6" y="12"/>
 <rect style="opacity:0.2" width="2" height="2" x="9" y="12"/>
 <rect style="opacity:0.2" width="2" height="2" x="12" y="12"/>
</svg>
