<svg xmlns="http://www.w3.org/2000/svg" width="16" height="16" version="1">
 <rect style="fill:#c2352a" width="3" height="12" x="13" y="2" rx=".5" ry=".5"/>
 <rect style="fill:#c2352a" width="3" height="12" x="7" y="2" rx=".5" ry=".5"/>
 <rect style="fill:#c2352a" width="3" height="12" x="0" y="2" rx=".5" ry=".5"/>
 <rect style="fill:#d8564d" width="3" height="6" x="2" y="-6" rx=".5" ry=".5" transform="matrix(0,1,-1,0,0,0)"/>
 <rect style="fill:#d8564d" width="3" height="6" x="11" y="-6" rx=".5" ry=".5" transform="matrix(0,1,-1,0,0,0)"/>
 <path style="fill:#d8564d" d="M 7.5858032,2 A 0.58598657,0.51584312 0 0 0 7.0784568,2.7736876 l 1.9576707,2.9839347 1.9569065,2.9839346 a 0.58598657,0.51584312 0 0 0 0.479882,0.2578956 0.58598657,0.51584312 0 0 0 0.534812,-0.2578956 L 13.964636,5.7576223 15.921543,2.7736876 A 0.58598657,0.51584312 0 0 0 15.414198,2 L 11.500382,2 7.5858032,2 Z"/>
 <circle style="fill:#f29312" cx="7.5" cy="11.5" r="4.5"/>
 <path style="fill:#f4f4f7;fill-rule:evenodd" d="M 7.5,9 C 7.5,9 7.146,8.993 6.776,9.1777 6.407,9.3623 6,9.8334 6,10.5 H 7 C 7,10 7.5,10 7.5,10 7.5,10 8,10 8,10.5 8,10.764 7.93,10.911 7.797,11.078 7.664,11.245 7.45,11.412 7.2,11.6 6.95,11.787 6.664,11.995 6.422,12.297 6.18,12.599 6,13.014 6,13.5 V 14 H 9 V 13 H 7.176 C 7.191,12.978 7.185,12.944 7.203,12.922 7.336,12.755 7.55,12.588 7.8,12.4 8.05,12.213 8.336,12.005 8.578,11.703 8.82,11.401 9,10.986 9,10.5 9,9.8334 8.593,9.3623 8.224,9.1777 7.854,8.9931 7.5,9 7.5,9 Z"/>
</svg>
