<svg xmlns="http://www.w3.org/2000/svg" width="16" height="16" version="1">
 <rect style="fill:#2f9a2f" width="16" height="16" x="0" y="0" rx="4.8" ry="4.8"/>
 <path style="fill:#f4f4f7" d="m 11,11.426727 c -0.389508,0.18937 -0.795546,0.332257 -1.21811,0.428664 C 9.359311,11.951797 8.9183673,12 8.4590554,12 7.0884475,12 6.002622,11.64192 5.2015747,10.925759 4.4005242,10.206156 3.9999996,9.2317649 4,8.0025827 3.9999996,6.7699644 4.4005242,5.7955733 5.2015747,5.0794062 6.002622,4.3598098 7.0884475,4.0000084 8.4590554,4 8.9183673,4.0000084 9.359311,4.048211 9.78189,4.1446093 10.204454,4.2410233 10.610492,4.3839116 11,4.5732733 V 6.0801058 C 10.606817,5.8287667 10.219154,5.6445618 9.837007,5.5274907 9.45485,5.4104324 8.892706,5.3519 8.4701393,5.3518938 7.7131798,5.3519 7.1179049,5.5791436 6.6843129,6.033624 6.2507133,6.4881156 6.0338574,7.203792 6.0338607,8.0025827 c -3.3e-6,0.7953546 0.2168525,1.5093093 0.6504521,1.9637933 0.4335921,0.454488 1.028867,0.681732 1.7858264,0.681731 0.4225668,1e-6 0.9847108,-0.05853 1.3668678,-0.175598 C 10.219154,10.355446 10.606817,10.171241 11,9.9198942 v 1.5068328"/>
</svg>
