<svg xmlns="http://www.w3.org/2000/svg" width="16" height="16" version="1.1">
 <g transform="translate(0,-1036.3622)">
  <circle style="fill:#e96ca2" cx="8" cy="1043.362" r="7"/>
  <path style="fill:#4f84be" transform="translate(0,1036.3622)" d="M 1.0898438 4 A 8 8 0 0 0 0 8 A 8 8 0 0 0 8 16 A 8 8 0 0 0 16 8 A 8 8 0 0 0 14.917969 4 L 1.0898438 4 z"/>
  <circle style="fill:#f4f4f7" cx="10" cy="1045.362" r="3"/>
  <circle style="fill:#f4f4f7" cx="6" cy="1045.362" r="3"/>
  <path style="fill:#fcb700;fill-rule:evenodd" d="m 7.9964976,1045.362 0,0 c -0.1472975,0 -0.2972818,0.054 -0.4194275,0.1894 l -2.4051097,2.0052 c -0.013967,0.015 -0.025179,0.032 -0.037393,0.048 -0.00339,0 -0.00711,0.011 -0.010264,0.013 -0.032623,0.046 -0.055662,0.094 -0.075526,0.144 -0.00765,0.019 -0.012287,0.04 -0.01833,0.059 -0.011752,0.04 -0.023212,0.078 -0.027862,0.1188 -0.0039,0.029 -0.00223,0.059 -0.00223,0.089 2.478e-4,0.03 -0.00154,0.06 0.00223,0.089 0.00465,0.041 0.016115,0.079 0.027862,0.1186 0.00601,0.02 0.010671,0.041 0.01833,0.059 0.01986,0.049 0.042909,0.099 0.075526,0.1439 0.003,0 0.007,0.011 0.010264,0.013 0.012206,0.016 0.023452,0.033 0.037393,0.049 l 2.4051097,2.6718 c 0.1221449,0.1356 0.27213,0.1893 0.4194275,0.1895 l 0,0 c 9.857e-4,0 0.00193,0 0.00291,0 9.857e-4,0 0.00193,0 0.00291,0 l 0,0 c 0.1473674,-2e-4 0.2972209,-0.054 0.419427,-0.1895 l 2.4065864,-2.6718 c 0.01395,-0.015 0.02519,-0.032 0.03739,-0.049 0.0032,0 0.0073,-0.011 0.01029,-0.013 0.03264,-0.046 0.05562,-0.094 0.07553,-0.1439 0.0076,-0.019 0.01232,-0.04 0.01833,-0.059 0.01175,-0.04 0.02248,-0.078 0.02713,-0.1187 0.0038,-0.03 0.0027,-0.059 0.0029,-0.089 0,-0.03 9.43e-4,-0.06 -0.0029,-0.089 -0.0046,-0.041 -0.01539,-0.079 -0.02713,-0.1188 -0.006,-0.02 -0.01071,-0.041 -0.01833,-0.059 -0.01988,-0.049 -0.04288,-0.099 -0.07553,-0.144 -0.0031,0 -0.0069,-0.011 -0.01029,-0.013 -0.01222,-0.016 -0.02342,-0.032 -0.03739,-0.048 l -2.4065767,-2.005 c -0.1222066,-0.1356 -0.2720588,-0.1881 -0.4194275,-0.1894 l 0,0 c -9.857e-4,0 -0.00193,0 -0.00291,0 -9.857e-4,0 -0.00193,0 -0.00291,0 z"/>
  <rect style="opacity:0.6" width="1" height="1" x="5" y="1045.36"/>
  <rect style="opacity:0.6" width="1" height="1" x="10" y="1045.36"/>
 </g>
</svg>
