<svg xmlns="http://www.w3.org/2000/svg" width="16" height="16" version="1.1">
 <circle style="fill:#fb6651" cx="8" cy="8" r="8"/>
 <path style="fill:#f4f4f7" d="M 0.17383,9.6095 A 8,8 0 0 0 0.29102,10.141 8,8 0 0 0 0.33008,10.26 C 0.53884,10.158 0.73963,10.057 0.84961,9.9689 1.5064,9.4422 2.5549,8.6134 2.6719,8.6134 2.789,8.6134 2.8905,8.5799 2.9746,8.8712 3.0587,9.1624 2.9082,9.4649 2.9082,9.4649 2.9082,9.4649 2.7529,9.8994 2.7617,10.139 2.882,10.999 3.0317,11.861 3.7363,11.979 4.2438,12.048 4.9922,12.002 4.9922,12.002 L 5.0098,11.873 C 4.9934,11.68 4.5957,11.598 4.5957,11.598 4.5925,11.6 4.0925,11.694 3.873,11.594 3.5028,11.424 3.6699,10.76 3.6699,10.676 3.6699,10.592 3.793,10.322 3.793,10.322 3.793,10.322 4.2025,10.379 4.3379,10.379 4.4734,10.379 4.8242,10.395 4.8242,10.395 L 5.0859,10.885 C 5.1683,11.044 5.2695,10.965 5.4062,11.002 L 5.9902,11.01 6.3945,11.002 V 10.797 C 6.3945,11.003 6.3944,10.601 6.1328,10.596 5.906,10.584 5.6111,10.556 5.5859,10.475 5.5445,10.34 5.6035,10.076 5.6035,10.076 5.6035,10.076 5.8965,9.9353 6.5117,10.059 7.127,10.18 8.3965,10.801 8.3965,10.801 8.2206,11.126 8.0609,11.368 8.0293,11.701 7.9974,12.002 7.9971,12.004 8.1953,12.004 H 9.1973 C 9.1973,12.004 9.1973,11.603 8.9258,11.623 8.7355,11.615 8.5156,11.605 8.5156,11.59 8.5156,11.514 8.8789,11.021 8.8789,11.021 8.9974,11 9.201,11.036 9.4434,11.039 9.9197,11.045 10.223,11.1 10.223,11.1 10.403,11.209 10.438,11.572 10.527,11.725 10.598,12.004 10.599,12.003 10.756,12.008 11.096,12.016 11.639,12.002 11.973,11.979 11.973,11.979 11.798,11.602 11.244,11.602 11.244,11.602 11.043,11.474 11.006,11.283 10.97,11.093 10.992,10.021 10.992,10.021 L 12,10 C 12,10 12,10.902 12.363,10.977 12.363,10.977 12.698,11.019 12.906,10.939 13.114,10.86 13.489,10.808 13.707,10.572 13.925,10.337 14.07,9.4784 13.996,9.1642 13.922,8.8498 13.52,8.4747 13.52,8.4747 12.658,7.6579 11.999,5.9981 10.998,5.9981 9.997,5.9981 10.189,6.4346 9.998,6.297 8.8064,5.4754 7.6143,5.0563 6.1855,4.9981 6.1855,4.9981 6.0279,4.9965 5.959,5.004 4.3937,4.9965 3.5171,6.2776 2.7461,7.2345 2.4057,7.6587 2.1328,7.9962 2.1328,7.9962 1.5418,8.6077 0.83168,9.229 0.17383,9.6095 Z M 12.5,7.9981 C 12.776,7.9981 13,8.2236 13,8.5001 13,8.7766 12.776,9.0001 12.5,9.0001 12.224,9.0001 12,8.7762 12,8.5001 12,8.2239 12.224,7.9981 12.5,7.9981 Z"/>
</svg>
