<svg xmlns="http://www.w3.org/2000/svg" width="16" height="16" version="1">
 <rect style="fill:#f06a05" width="13" height="16" x="2" y="0" rx=".813" ry=".8"/>
 <path style="opacity:0.7;stroke:#fafafa;stroke-width:0.13598238px;stroke-opacity:0.49710987" d="m 4,3.0679916 h 0.8479898 z m 0.9723616,0 h 0.7914576 z m 0.915829,0 h 0.7010051 z m 0.8140709,0 h 0.3052763 z m 0.4296481,0 h 0.6783918 z m 0.8140704,0 h 1.7864321 z m 1.8994971,0 h 1.3680909 z m 1.4811559,0 h 0.418342 z M 4,3.8827926 h 1.3228642 z m 1.4698493,0 h 0.6331656 z m 0.7462309,0 h 0.3165832 z m 0.440955,0 h 0.5766333 z m 0.7010047,0 H 7.94598 Z m 0.7010055,0 h 0.9384423 z m 1.0628137,0 h 1.2211059 z m 1.3341709,0 h 0.814071 z m 0.927136,0 h 0.203518 z M 4,4.6919751 h 1.1193468 z m 1.2324121,0 h 1.8316584 z m 1.9447237,0 h 0.8932161 z m 1.006281,0 h 0.8366838 z m 0.9497487,0 h 0.7123116 z m 0.825377,0 1.1193465,0.011236 z m 1.2211055,0.011237 H 13 Z M 4,5.5123949 h 1.5489949 z m 1.6733671,0 h 1.6733664 z m 1.7864317,0 H 8.126885 Z m 0.7801511,0 h 1.5716078 z m 1.6733667,0 h 1.0741204 z m 1.1984924,0 h 0.429648 z m 0.542714,0 h 0.237437 z m 0.361809,0 h 0.667085 z M 4,6.3271962 h 0.5766333 z m 0.7575378,0 H 6.8944724 Z M 4,7.6851981 h 0.8479898 z m 0.9723616,0 h 0.7801511 z m 0.915829,0 h 0.7010051 z m 0.8140709,0 h 0.3052763 z m 0.4296481,0 h 0.6783918 z m 0.8140704,0 h 1.7751257 z m 1.8994971,0 h 1.3567839 z m 1.4698499,0 h 0.429648 z m 0.542713,0 h 1.017588 z M 4,8.4999994 h 1.4246231 z m 1.5376885,0 h 1.526382 z m 1.6394473,0 h 0.5879397 z m 0.7010051,0 h 1.4359296 z m 1.5489945,0 h 1.8090456 z m 1.9334176,0 h 0.667085 z M 4,9.3148007 h 1.5489949 z m 1.6733671,0 h 1.6733664 z m 1.7864317,0 H 8.126885 Z m 0.7801511,0 h 1.5716078 z m 1.6733667,0 h 1.0741204 z m 1.1984924,0 h 0.429648 z m 0.542714,0 h 0.237437 z m 0.361809,0 h 0.667085 z M 4,10.129602 h 1.3228642 z m 1.4698493,0 h 0.6331656 z m 0.7462309,0 h 0.3165832 z m 0.440955,0 h 0.5766333 z m 0.7010047,0 H 7.94598 Z m 0.7010055,0 h 0.9384423 z m 1.0628137,0 h 1.2211059 z m 1.3341709,0 h 0.814071 z m 0.927136,0 h 0.203518 z M 4,11.481988 h 1.1193468 z m 1.2324121,0 h 1.8316584 z m 1.9447237,0 h 0.8932161 z m 1.006281,0 h 0.8366838 z m 0.9497487,0 h 0.7123116 z m 0.825377,0 1.1193465,0.01123 z m 1.2211055,0.01124 H 13 Z M 4,12.302406 h 1.3228642 z m 1.4698493,0 h 0.6331656 z m 0.7462309,0 h 0.3165832 z m 0.440955,0 h 0.5766333 z m 0.7010047,0 H 7.94598 Z m 0.7010055,0 h 0.9384423 z m 1.0628137,0 h 1.2211059 z m 1.3341709,0 h 0.814071 z m 0.927136,0 h 0.203518 z M 4,13.117207 h 1.4020102 z m 1.5263816,0 h 0.440955 z m 0.5540204,0 h 1.0062814 z m 1.1193467,0 h 1.4811558 z m 1.605528,0 h 1.006281 z m 1.1080399,0 h 0.2148244 z m 0.3278894,0 h 1.277638 z m 1.413317,0 h 0.667086 z M 4,13.932009 h 1.4020102 z m 1.5263816,0 H 6.159548 Z m 0.7462313,0 h 0.994975 z m 1.1080403,0 h 1.0741206 z m 1.1984924,0 h 0.4296485 z m 0.5427135,0 h 0.2374376 z m 0.3618094,0 h 0.6670855 z"/>
 <path style="fill:#f4f4f7" d="M 8.3808594 4 C 6.1914219 4.0623406 5.0006184 5.7943922 5 7.9082031 L 5 8.7207031 L 5 10 L 4.2519531 10 C 4.1120564 10 4 10.064213 4 10.199219 L 4 11.744141 C 4 11.879147 4.1121966 11.993986 4.2519531 12 L 4.6484375 12 L 4.7734375 12 L 5 12 L 5 12.755859 C 5 12.890869 5.0632283 13 5.203125 13 L 6.8066406 13 C 6.946537 13 7 12.890866 7 12.755859 L 7 9.2480469 C 7 9.1130414 6.9465317 8.9988272 6.8066406 9 L 6.0039062 9 L 6.0039062 8.6484375 L 6.0039062 8.3222656 L 5.9960938 8.3222656 L 5.9960938 7.9082031 C 6.0788734 6.2900009 6.7128975 5 8.5 5 C 10.287103 5 10.921146 6.2900009 11.003906 7.9082031 L 11.003906 8.3222656 L 10.996094 8.3222656 L 10.996094 8.6484375 L 10.996094 9 L 10.193359 9 C 10.053463 8.9988272 10 9.1130414 10 9.2480469 L 10 12.755859 C 10 12.890866 10.053462 13 10.193359 13 L 11.796875 13 C 11.936771 13 12 12.890869 12 12.755859 L 12 12 L 12.226562 12 L 12.351562 12 L 12.748047 12 C 12.887803 11.993986 13 11.879147 13 11.744141 L 13 10.199219 C 13 10.064213 12.887943 10 12.748047 10 L 12 10 L 12 8.7207031 L 12 7.9082031 C 11.999382 5.7943922 10.808578 4.0623406 8.6191406 4 C 8.57905 3.998848 8.539842 4 8.5 4 C 8.460158 4 8.42095 3.998848 8.3808594 4 z"/>
</svg>
