<svg xmlns="http://www.w3.org/2000/svg" width="16" height="16" version="1">
 <path style="fill:#848484" d="m 12.97793,3.1294955 c 0.0893,1.4262956 -0.0835,2.9108568 -0.681582,4.0219148 -0.287819,0.5289212 -0.617267,1.0452568 -0.890051,1.572348 -0.787528,1.5217097 0.223879,0.9355888 -1.4502389,0.9355888 H 5.9405816 c -1.6741172,0 -0.2796935,3.2329259 -1.2790069,-0.2826692 C 4.368482,8.3455743 3.0027379,6.1393243 3.0000006,3.0178503 2.9990006,1.8775567 4.0063728,1.1370051 5.0428762,0.6768779 6.199495,0.09077906 7.3854104,0.00913586 8.6052122,0.00741074 10.795903,-0.10425094 12.916994,1.0510265 12.97793,3.1294955 Z"/>
 <ellipse style="fill:#f4f4f7" cx="6.6" cy="7.4" rx="1.6" ry="2.4"/>
 <ellipse id="ellipse857" style="fill:#f4f4f7" cx="9.4" cy="7.4" rx="1.6" ry="2.4"/>
 <ellipse id="ellipse861" style="fill:#17191e" cx="9.2" cy="7.2" rx=".8" ry="1.2"/>
 <ellipse id="ellipse859" style="fill:#17191e" cx="6.8" cy="7.2" rx=".8" ry="1.2"/>
 <path style="fill:#b7b7b7" d="m 3.1979924,7.9999999 h 9.5852866 c 1.771688,0 3.197992,1.4027068 3.197992,3.1450821 C 16.41525,15.90076 9.1714068,16.010566 8.3425888,15.999448 7.5137708,15.98833 0,15.757946 0,11.145082 0,9.4027067 1.4263046,7.9999999 3.1979924,7.9999999 Z"/>
</svg>
