<svg xmlns="http://www.w3.org/2000/svg" width="16" height="16" version="1">
 <path style="fill:#1c71d8" d="m 8.0000004,0.19047536 c -0.3717237,0 -0.741574,0.1381579 -1.017113,0.41369045 L 0.60416751,6.9836297 C 0.32827069,7.2595192 0.19011298,7.6285485 0.19047706,7.9999987 0.1908486,8.3710681 0.32939576,8.7401259 0.60491155,9.0156238 L 5.4858638,13.89732 5.3407743,14.020832 6.848959,15.52976 c 0.6265253,0.62651 1.6763008,0.627211 2.3028273,7.62e-4 l 3.2224697,-3.223214 -0.12872,-0.140625 3.149553,-3.1502973 c 0.137937,-0.137936 0.241097,-0.2985992 0.310268,-0.471726 0.06917,-0.1731452 0.104167,-0.3589132 0.104167,-0.544661 0,-0.3713919 -0.138702,-0.7406414 -0.414435,-1.016369 L 9.0171135,0.60416581 C 8.7415745,0.32863326 8.3717246,0.19047536 8.0000004,0.19047536 Z"/>
 <path style="fill:#f5c211" d="m 8.0000004,-8.2e-7 c -0.4190666,0 -0.8385233,0.15623904 -1.1517858,0.46949403 L 3.658483,3.6592253 5.8288695,5.8296118 10.170387,1.4880943 9.1502979,0.4680051 C 8.8371985,0.15575677 8.4183943,-8.2e-7 8.0000004,-8.2e-7 Z"/>
 <path style="fill:#2ec27e" d="M 10.170089,1.4884328 12.340637,3.6589811 3.6589828,12.340635 1.4884344,10.170087 Z"/>
 <path style="fill:#ff7800" d="M 12.340774,3.6592253 8.0000004,7.9999987 10.171131,10.169641 14.511161,5.8296118 Z"/>
 <path style="fill:#c061cb" d="M 5.8288695,10.17113 3.659227,12.340772 5.8296135,14.511159 Z"/>
 <path style="fill:#e01b24" d="m 14.511161,5.8296118 -2.170387,2.1703869 2.170387,2.1703873 1.018601,-1.0193458 C 15.68639,8.9944128 15.804037,8.8115583 15.88244,8.6153259 15.96084,8.4190936 16,8.2094833 16,7.9999987 16,7.5810296 15.843023,7.1622121 15.529762,6.8489573 Z"/>
 <path style="fill:#813d9c" d="M 3.658483,7.9999987 1.488096,10.170386 3.659227,12.340772 5.8288695,10.17113 Z"/>
 <path style="opacity:0.2;fill:#f4f4f7" d="M 10.170387,1.4880943 8.0000004,3.6592253 10.170387,5.8296118 12.340774,3.6592253 Z"/>
 <path style="fill:#e01b24" d="m 12.340774,3.6592253 v 4.3407734 l 2.170387,2.1703873 1.018601,-1.0193458 C 15.68639,8.9944128 15.804037,8.8115583 15.88244,8.6153259 15.96084,8.4190936 16,8.2094833 16,7.9999987 16,7.5810296 15.843023,7.1622121 15.529762,6.8489573 L 14.511161,5.8296118 Z"/>
 <path style="fill:#e5a50a" d="M 3.658483,3.6592253 5.8288695,5.8296118 7.9992564,3.6592253 Z"/>
 <path style="fill:#ffa348" d="m 12.340774,7.9999987 -2.171131,2.1711313 2.170387,2.169642 7.62e-4,-7.62e-4 z"/>
 <path style="fill:#f66151" d="m 12.340774,7.9999987 v 4.3400293 l 2.170387,-2.169642 z"/>
 <path style="fill:#26a269" d="M 8.0000004,3.6592253 5.8288695,5.8296118 8.0000004,7.9999987 Z"/>
 <path style="fill:#1a5fb4" d="M 5.8288695,5.8296118 3.658483,7.9999987 h 4.3415174 z"/>
 <path style="fill:#3584e4" d="M 3.658483,7.9999987 5.8288695,10.17113 8.0000004,7.9999987 Z"/>
 <path style="fill:#613583" d="M 3.658483,3.6592253 0.46949491,6.8489573 C 0.15604731,7.1623965 -4.0978664e-4,7.5810068 8.8e-7,7.9999987 4.199276e-4,8.4184966 0.1571483,8.8372261 0.47023895,9.1502962 L 1.4888401,10.169641 5.8288695,5.8296118 Z"/>
 <path style="fill:#98c1f1" d="M 8.0000004,7.9999987 5.8288695,10.17113 5.8296314,14.511159 10.171149,10.169641 Z"/>
</svg>
