<svg xmlns="http://www.w3.org/2000/svg" width="16" height="16" version="1.1">
 <path style="fill:#b2bfd9" d="m 10.769423,4.021273 c -0.669175,-0.669176 -1.746672,-0.669176 -2.4158905,0 L 2.917788,9.4570176 C 2.4699624,9.9048428 2.3286023,10.533788 2.4801268,11.10256 l -1.97823017,1.97823 c -0.66917569,0.669218 -0.66921841,1.746673 9.64e-6,2.415891 0.66917573,0.669176 1.74667303,0.669176 2.41589133,0 l 1.9782301,-1.97823 c 0.5688144,0.151567 1.1977172,0.01025 1.6455428,-0.437661 L 11.977315,7.6450455 c 0.669218,-0.6691756 0.669218,-1.7466728 1.2e-5,-2.4158484 L 10.769359,4.0212302 Z"/>
 <path style="fill:#ff9913" d="M 5.6,5.3844605 7.8291288,7.6135897 8.3864107,8.1708716 10.615538,10.4 l 2.22913,-2.2291284 1.337696,-1.3376948 0.891433,-0.891434 c 1.234937,-1.2349372 1.234937,-3.2233204 0,-4.458258 L 14.516516,0.9262027 c -1.234939,-1.23493718 -3.223322,-1.23493718 -4.458258,0 L 9.1668238,1.8176365 7.8291288,3.1553316 Z"/>
 <path style="fill:#ffbc48" d="M 5.2229676,2.9998167 A 1.2232659,1.2232659 0 0 0 4.3709077,5.1005019 L 10.89434,11.623934 A 1.2232659,1.2232659 0 1 0 12.623941,9.8943329 L 6.1005094,3.3709002 A 1.2232659,1.2232659 0 0 0 5.2229676,2.9998167 Z"/>
 <rect style="fill:#4e79ff" width="1.601" height="6.406" x="10.51" y="3.16" rx=".801" ry=".801" transform="rotate(45)"/>
</svg>
