<svg xmlns="http://www.w3.org/2000/svg" width="16" height="16" version="1">
 <circle style="fill:#249eff" cx="8.5" cy="8.5" r="7.5"/>
 <rect style="fill:#f4f4f7" width="3" height="3" x="9" y="5" rx=".75" ry=".75"/>
 <rect style="fill:#f4f4f7" width="3" height="3" x="5" y="9" rx=".75" ry=".75"/>
 <rect style="opacity:0.6;fill:#f4f4f7" width="3" height="3" x="5" y="5" rx=".75" ry=".75"/>
 <rect style="opacity:0.6;fill:#f4f4f7" width="3" height="3" x="9" y="9" rx=".75" ry=".75"/>
</svg>
