<svg xmlns="http://www.w3.org/2000/svg" width="16" height="16" version="1.1">
 <circle style="fill:#17191e" cx="8" cy="8" r="8"/>
 <path style="fill:#f14c21" d="M 3.6699219 1.2734375 C 3.4500766 1.4152655 3.2381021 1.5677925 3.0332031 1.7304688 L 4.7539062 6.8984375 L 0.30859375 10.191406 A 8 8 0 0 0 0.50585938 10.785156 L 5.921875 10.810547 L 7.484375 15.974609 C 7.6561877 15.988766 7.8276317 15.996972 8 16 C 8.1292613 15.9984 8.2576847 15.994188 8.3867188 15.986328 L 10.042969 10.798828 L 11.199219 10.798828 L 15.484375 10.798828 A 8 8 0 0 0 15.710938 10.097656 L 11.302734 6.8417969 L 13.078125 1.8242188 C 12.86122 1.6465791 12.63669 1.4800738 12.402344 1.3261719 L 8.0703125 4.4824219 L 3.6699219 1.2734375 z M 4.1777344 2.6328125 L 7.390625 4.9785156 L 5.4335938 6.4042969 L 4.1777344 2.6328125 z M 11.935547 2.65625 L 10.626953 6.3496094 L 8.7480469 4.9785156 L 11.935547 2.65625 z M 8.0683594 5.4726562 L 10.347656 7.1367188 L 9.4765625 10 L 9.4589844 10 L 6.4960938 10 L 5.6972656 7.2011719 L 8.0683594 5.4726562 z M 11.023438 7.6289062 L 14.203125 10 L 11.199219 10 L 10.326172 10 L 11.023438 7.6289062 z M 5.0195312 7.6953125 L 5.6523438 10 L 4.8007812 10 L 4.8007812 10.005859 L 1.9746094 9.9921875 L 5.0195312 7.6953125 z M 6.7617188 10.798828 L 9.1757812 10.798828 L 7.9316406 14.789062 L 7.8964844 14.6875 L 6.7617188 10.798828 z"/>
</svg>
