<svg xmlns="http://www.w3.org/2000/svg" width="16" height="16" version="1.1">
 <path style="fill:#b2bfd9" d="M 0.70117188 0 C 0.31312934 0 0.02152472 0.31396896 0 0.70117188 L 0 7 L 0 13.298828 C 0 13.686628 0.31312935 14 0.70117188 14 L 6.0644531 14 C 9.9328647 14 13.068359 10.865994 13.068359 7 C 13.068359 3.1340064 9.9328647 5.9211895e-16 6.0644531 0 L 0.70117188 0 z M 4 4 L 6.1054688 4 C 7.7517099 4 9 5.2800477 9 7 C 9 8.7199518 7.7517094 10 6.1054688 10 L 4 10 L 4 7 L 4 4 z"/>
 <path style="fill:#fe5400" d="m 13,7 -4,5 v 2 H 9.75 13 v 2 h 2 v -2 h 1 V 12 H 15 V 7.75 7 Z m 0,3.375 V 12 h -1.319824 z"/>
</svg>
