<svg xmlns="http://www.w3.org/2000/svg" width="16" height="16" version="1.1">
 <path style="fill:#00d177" d="M 1.0909092,1 C 0.48654553,1 8e-8,1.5017499 8e-8,2.125 v 12.75 C 8e-8,15.49825 0.48654553,16 1.0909092,16 H 8.7272727 A 7.2727272,7.5 0 0 0 16,8.5 7.2727272,7.5 0 0 0 8.7272727,1 Z"/>
 <path style="fill:none;stroke:#17191e;stroke-linecap:round" d="m 4.5,6.49995 h 6"/>
 <path style="fill:none;stroke:#17191e;stroke-linecap:round" d="m 4.5,8.49995 h 6"/>
 <path style="fill:none;stroke:#17191e;stroke-linecap:round" d="m 4.5,10.49995 h 4"/>
</svg>
