<svg width="16" height="16" version="1.1" xmlns="http://www.w3.org/2000/svg">
 <rect width="16" height="16" rx="1" ry="1" style="fill:#aeea66"/>
 <path d="M 0.20898438 0.41796875 C 0.087033869 0.58371729 0 0.77753456 0 1 L 0 15 C 0 15.554 0.446 16 1 16 L 8 16 L 0.20898438 0.41796875 z " style="fill:#f8d057"/>
 <path d="M 0.234375 0.38085938 C 0.2249215 0.39256144 0.21791038 0.405837 0.20898438 0.41796875 L 8 16 L 15.791016 0.41796875 C 15.78209 0.405837 15.775079 0.39256144 15.765625 0.38085938 L 8 13 L 0.234375 0.38085938 z " style="fill:#f4f4f7"/>
 <path d="m15.791016 0.41796875-7.791016 15.582031h7c0.554 0 1-0.446 1-1v-14c0-0.22246544-0.087034-0.41628271-0.208984-0.58203125z" style="fill:#3195d2"/>
</svg>
