<svg width="16" height="16" version="1.1" xmlns="http://www.w3.org/2000/svg">
 <rect width="16" height="16" rx="2" ry="2" style="fill:#24b8eb"/>
 <path d="m2 1c-0.554 0-1 0.446-1 1v6c0 0.554 0.446 1 1 1h11v4h-4v-3h-2v4c0 0.554 0.446 1 1 1h6c0.554 0 1-0.446 1-1v-6c0-0.554-0.446-1-1-1h-11v-4h4v3h2v-4c0-0.554-0.446-1-1-1z" style="fill:#17191e"/>
</svg>
