<svg xmlns="http://www.w3.org/2000/svg" width="16" height="16" version="1.1">
 <path style="fill:none;stroke:#2e9551;stroke-width:1.60000002;stroke-linecap:round" d="M 3.6,6 1.8,3.8"/>
 <path style="fill:none;stroke:#2e9551;stroke-width:1.60000002;stroke-linecap:round" d="M 12.4,6 14.2,3.8"/>
 <path style="fill:#30dd81" d="M 15.203514,12 H 0.776772 c 0,0 -0.81230828,0 -0.77556188,-0.769972 C 0.3904452,7.1729872 3.82384,4 8.0017824,4 12.166516,4 15.591402,7.1529556 15.998572,11.191574 16.039101,12 15.203514,12 15.203514,12 Z"/>
 <circle style="fill:#f4f4f7" cx="4" cy="9" r="1"/>
 <circle style="fill:#f4f4f7" cx="-12" cy="9" r="1" transform="scale(-1,1)"/>
</svg>
