<svg xmlns="http://www.w3.org/2000/svg" width="16" height="16" version="1.1">
 <path style="fill:#f77d00" d="M 12,12 13,14 H 15 L 12,16 10,13 Z"/>
 <path style="fill:#eab108" d="M 10,16 11,15 10,13 H 12 V 15 L 14,16 Z"/>
 <path style="fill:#f77d00" d="M 4,12 3,14 H 1 L 4,16 6,13 Z"/>
 <path style="fill:#eab108" d="M 6,16 5,15 6,13 H 4 V 15 L 2,16 Z"/>
 <path style="fill:#4f4f4f" d="M 1,4 6,9 H 10 L 15,4 14,3 10,5 H 6 L 2,3"/>
 <path style="fill:#cbcbcb" d="M 8,0 C 6.5085,0 5,1.338 5,3 5,4.3541 4.7356,5.2612 4.4023,6 H 0 V 7 L 3,9 3.0605,9.1211 C 3.0321,9.3216 3,9.5183 3,9.75 3,12.65 5.2386,15 8,15 10.761,15 13,12.65 13,9.75 13,9.5183 12.968,9.3216 12.939,9.1211 L 13,9 16,7 V 6 H 11.598 C 11.264,5.2612 11,4.3541 11,3 11,1.338 9.4915,0 8,0 Z"/>
 <path style="fill:#f4f4f7" d="M 8,5 C 7.1051,5 6.5,5.8029 6.5,6.8 6.5,9.05 5,9.275 5,10.85 5,12.59 6.3431,14 8,14 9.6569,14 11,12.59 11,10.85 11,9.275 9.5,9.05 9.5,6.8 9.5,5.8029 8.8949,5 8,5 Z"/>
 <circle style="fill:#f4f4f7" cx="7" cy="3" r="1"/>
 <circle style="fill:#323232" cx="6.992" cy="3" r=".35"/>
 <path style="fill:#f77d00" d="M 10,5.1 C 10,6.2046 9.1046,7 8,7 6.8954,7 6,6.2046 6,5.1 Z"/>
 <circle style="fill:#f4f4f7" cx="9.001" cy="3" r="1"/>
 <circle style="fill:#323232" cx="8.992" cy="3" r=".35"/>
 <path style="fill:#eab108" d="M 10,5.2499 C 10,5.5 9.1046,6 8,6 6.8954,6 6,5.5 6,5.2499 6,4.5596 6.8954,4 8,4 9.1046,4 10,4.5596 10,5.2499 Z"/>
</svg>
