<svg width="16" height="16" version="1.1" xmlns="http://www.w3.org/2000/svg">
 <path d="m2.3945312-0.00390625c-1.7158154 0.07091773-2.8906086 2.0111878-2.1582031 3.5644532l4.9726563 10.939453c0.2668874 0.61784 0.8743523 1.190752 1.5292968 1.398438 0.6549446 0.207685 1.2784503 0.124345 1.8007813-0.113282 0.522331-0.237626 0.9957652-0.654967 1.2695313-1.285156 0.2737662-0.630189 0.2415722-1.463169-0.0488282-2.070312l-2.0292968-4.4628911c0.1117729 0.0028656 0.1519101 0.0332031 0.2695312 0.0332031 1.1666667 0 1.8945312-0.4609375 2.394531-0.7109375 0.5-0.25 0.772136-0.2890625 0.605469-0.2890625 0.666667 0 1.093983 0.1583195 1.355469 0.2890625s0.230469 0.125 0.230469 0.125a2.0002 2.0002 0 0 0 3.203124-2.3085937s-0.06579-0.086493-0.06836-0.091797a2.0002 2.0002 0 0 0 0.06836-1.9082031s-0.298551-0.372636-0.380859-0.515625l0.0059-0.00391s-0.01545-0.011558-0.01562-0.011719c-0.422789-0.7297207-1.634887-2.5742147-4.398483-2.5742147-1.1666667 0-1.8945312 0.4609375-2.3945312 0.7109375s-0.7721355 0.2890625-0.6054688 0.2890625c-1.3888889 0-2.3310135-0.11469421-2.8925781-0.21679688-0.5615647-0.10210266-0.6152344-0.140625-0.6152344-0.140625a2.0002 2.0002 0 0 0-0.5546875-0.1328125c-0.447806-0.3258239-0.9696754-0.53725542-1.5429688-0.51367187z" style="fill:#f16813"/>
 <path d="m2.4765625 1.9941406c-0.3574875 0.0147756-0.5842362 0.3892701-0.4316406 0.7128906l5 11c0.2695182 0.62393 1.2034189 0.199066 0.9101562-0.414062l-5-11c-0.0827234-0.1886672-0.2726837-0.3072955-0.4785156-0.2988282zm1.2734375 0.5058594 1.5 3s0.75 0.5 2.75 0.5c1 0 2-1 3-1 2 0 3 1 3 1s-1-2-3-2h-2s1.057191-1 2-1c2 0 3 1 3 1s-1-2-3-2c-1 0-2 1-3 1-3 0-4.25-0.5-4.25-0.5z" style="fill:#f4f4f7"/>
</svg>
