<svg width="16" height="16" version="1.1" xmlns="http://www.w3.org/2000/svg">
 <circle cx="8" cy="10" r="6" style="fill:#b2bfd9"/>
 <path d="m9 0s0.2 0.8 0.2 1.6c0 1.2292724-1.1844288 1.8802424-2 2.8-1.2 1.353296-1.2 2.8-1.6 2.8-0.8 0-1.2-1.2-1.2-1.2s0.0565756 1.1707192 0.4 1.6c1.6 2 0.4 2.4 0.4 2.4s-1.4 0.214522-1.4-1.2c0-0.8 0.2-1.0502528 0.2-1.6 0-0.4-0.5867188-0.8-0.5867188-0.8s0.1867188 0.4 0.1867188 0.8-0.6 0.4-0.6 2.4c0 1.2 1.4 1.6 1.8 2 0.2981424 0.298142 0.4 1.2-0.4 1.2-0.2981424 0-0.4-0.4-0.4-0.8v-0.4s-0.4059612 0.399495-0.4 0.8c0.023816 1.6 2.8 2.6 2.8 2.6s-0.4-1-0.4-1.8c0-1.6 0.9998594-1.280242 0.9998594-2.4 0-1.6-0.5998594-2-0.5998594-2s1.1670922 0.8 1.1881406 2c0.012188 0.694836-0.7602574 1.32659-0.5886094 2 0.093148 0.365439 0.4 0.8 0.8 0.8 0.8 0 0.818074-0.380279 0.9104688-0.8 0.1605988-0.729551-0.7087593-1.252984-0.7104141-2-6.8e-4 -0.298142 0.8864141-0.8 0.8864141-0.8s-0.286 0.4-0.286 0.8c0 0.85375 1 1.019191 1 2 0 0.924754-1.0392342 1.2-1.391 1.8 0.00392 0.147787 0.046623 0.368196 0.191 0.4 1.815848 0.4 4.4-1.4 4.4-3.4s-1.6-2.9601564-1.6-2.9601564 1.2-0.6398436 1.2-1.8398436c0-0.8-0.157102-1.2713064-0.8-3.2-0.4-1.2 0.4-2 0.4-2s-1 0.8-1 1.6c0 1.6-0.0016 1.6-0.0016 2.8 3.8e-5 0.48074-0.1984 1.2-0.5984 1.2-0.279388 0-0.393818-0.4-0.436964-0.8-0.029962-0.2777772 0.036964-0.8 0.036964-0.8s-0.4 0.4-0.4002452 1.2c-8.16e-5 0.2666668 0.4002452 0.8-0.3997548 0.8s-1.2-0.4-1.2-1.2c0-0.8944272 1.2-2.4 1.2-2.4s0.8-1.156726 0.8-2c0-0.8-1-2-1-2zm1 8.4s1 0.6 1 1.8c0 0.377124-0.4 0.8-0.8 0.8-0.5790732 0-1-0.31926-1-0.8 0-0.8 0.632398-1 0.992969-1 0.206897-0.4-0.192969-0.8-0.192969-0.8z" style="fill:#f34235"/>
</svg>
