<svg width="16" height="16" version="1.1" xmlns="http://www.w3.org/2000/svg">
 <path d="M 8,5 6.888672,7 8,8 6.460937,7.7695312 3,14 C 3,14 5.202573,12.538951 7.091797,12.119141 7.0321263,11.924935 7.0008277,11.713836 7,11.5 7,10.671573 7.4477153,10 8,10 c 0.5522847,0 1,0.671573 1,1.5 -2.146e-4,0.213622 -0.030846,0.424712 -0.089844,0.619141 C 10.79898,12.539484 13,14 13,14 L 11.845703,11.923828 10,11 h 1.333984 z" style="fill:#17191e"/>
 <path d="m7 3h2v10l-2 3z" style="fill:#8e8e8e"/>
 <path d="M 8,5 6.8886719,7 8,8 6.4609375,7.7695312 3,14 C 3,14 5.2025734,12.538951 7.0917969,12.119141 7.0321262,11.924935 7.0008276,11.713836 7,11.5 7,10.671573 7.4477153,10 8,10 c 0.5522847,0 1,0.671573 1,1.5 -2.146e-4,0.213622 -0.030846,0.424712 -0.089844,0.619141 C 10.79898,12.539484 13,14 13,14 L 11.845703,11.923828 10,11 h 1.333984 z" style="fill:none;stroke-linecap:round;stroke-linejoin:round;stroke:#3db0ea"/>
 <path d="M 8 0 C 7.446 0 7 0.51180474 7 1.1464844 L 7 2.8535156 C 7 2.9054694 7.0195989 2.9499168 7.0253906 3 L 7 3 L 7 3.0683594 A 2 0.5 0 0 0 6 3.5 A 2 0.5 0 0 0 7 3.9335938 L 7 4 L 9 4 L 9 3.9316406 A 2 0.5 0 0 0 10 3.5 A 2 0.5 0 0 0 9 3.0664062 L 9 3 L 8.9746094 3 C 8.9804009 2.9499175 9 2.9054686 9 2.8535156 L 9 1.1464844 C 9 0.51180473 8.554 -1.4802974e-16 8 0 z " style="fill:#4f4f4f"/>
</svg>
