<svg xmlns="http://www.w3.org/2000/svg" width="16" height="16" version="1.1">
 <circle style="fill:#0094f0" cx="8" cy="8" r="8"/>
 <g style="fill:none;stroke:#f4f4f7;stroke-linecap:round">
  <circle cx="8" cy="8" r="1.5"/>
  <path d="M 5.5081,5.5422 A 3.5,3.5 0 0 1 9.3273,4.7614 3.5,3.5 0 0 1 11.5,7.9979 3.5,3.5 0 0 1 9.3311,11.237 3.5,3.5 0 0 1 5.511,10.461"/>
  <path d="M 4.6193,8.9058 A 3.5,3.5 0 0 1 4.6193,7.0941"/>
  <path d="M 2.7067,9.4935 A 5.5,5.5 0 0 1 2.7061,6.5086"/>
  <path d="M 12.235,11.509 A 5.5,5.5 0 0 1 9.3602,13.329"/>
  <path d="M 9.3581,2.6703 A 5.5,5.5 0 0 1 12.24,4.497"/>
 </g>
</svg>
