<svg xmlns="http://www.w3.org/2000/svg" width="16" height="16" version="1.1">
 <circle style="fill:#55ddff" cx="8" cy="8" r="8"/>
 <path style="fill:#17191e" d="m6 2-2 1 1 3v-2h1l2 4h2v7l1-5 1 3v-5l2 2-1-2-3-5h-2z"/>
</svg>
