<svg xmlns="http://www.w3.org/2000/svg" width="16" height="16" version="1.1">
 <path style="fill:#1da0f8" d="M 1.8,1 H 8 L 9,2 V 15 H 1.8 C 1.3568,15 1,14.643 1,14.2 V 1.8 C 1,1.3568 1.3568,1 1.8,1 Z"/>
 <path style="fill:#b2bfd9" d="M 8 1 C 8 1 7 3 7 8 L 8 8 C 8 8 8 12 9 15 L 14.199 15 C 14.642 15 15 14.642 15 14.199 L 15 1.8008 C 15 1.3576 14.642 1 14.199 1 L 8 1 z"/>
 <rect style="fill:#4c4c4c" width="1" height="2" x="4" y="4" rx=".5" ry=".5"/>
 <rect style="fill:#4c4c4c" width="1" height="2" x="11" y="4" rx=".5" ry=".5"/>
 <path style="fill:#4c4c4c" d="M 4,11 V 10 H 5 L 5.5,11 H 10.5 L 11,10 H 12 V 11 L 10,12 H 6 Z"/>
</svg>
