<svg xmlns="http://www.w3.org/2000/svg" width="16" height="16" version="1.1">
 <path style="fill:#db3d7f" d="M 15.65018,0.27406503 C 15.62042,0.18526323 15.62301,0.0733794 15.56705,-3.436e-5 14.802018,0.11024654 14.044749,0.29907061 13.33665,0.61099894 12.586498,0.93318594 11.771379,1.6743457 11.198171,2.253 c 0.93404,0.9725523 1.657528,1.958685 2.504598,2.8810204 0.394647,0.5716014 0.792192,1.4584917 1.129259,2.0643956 0.07472,-0.1352865 0.526053,-0.7139955 0.588485,-0.8560141 C 15.913817,5.3264706 16.017978,4.176215 15.991776,3.0634674 15.980453,2.1247971 15.841034,1.1925385 15.65018,0.27406503 Z"/>
 <path style="fill:#db3d7f" d="M 0.34971411,0.27406503 C 0.3794743,0.18526327 0.37688646,0.0733794 0.43284863,-3.436e-5 1.1978807,0.11024654 1.9551491,0.29907061 2.6632482,0.61099894 3.4134002,0.93318594 4.2285196,1.6743457 4.8017277,2.253 3.8676877,3.2255523 3.1441996,4.211685 2.2971292,5.1340204 1.9024827,5.7056218 1.5049378,6.5925121 1.1678708,7.198416 1.0931467,7.0631295 0.64181722,6.4844205 0.57938545,6.3424019 0.08607727,5.3264706 -0.01808358,4.176215 0.00811835,3.0634674 0.01944021,2.1247971 0.15886043,1.1925385 0.34971411,0.27406503 Z"/>
 <path style="fill:#b2bfd9" d="M 5.2189574,1.8919323 C 5.064481,1.9918432 4.9143519,2.0974917 4.7677958,2.2075751 4.4222301,2.4598054 4.1064182,2.7502192 3.7987042,3.0445237 3.6816877,3.1617861 3.5672291,3.2812115 3.4549437,3.4024558 3.4035068,3.4575582 3.352429,3.5129523 3.3019969,3.5688371 c -0.038496,0.043439 -0.076735,0.087082 -0.1146981,0.1309394 -2.441e-4,2.749e-4 -4.801e-4,5.444e-4 -7.2e-4,8.166e-4 -7.2e-4,8.556e-4 -0.00148,0.00171 -0.0022,0.00253 C 2.1253267,4.9164878 1.284763,6.3040955 0.61199362,7.7514186 0.54188056,7.9069949 0.47404597,8.0635195 0.40816008,8.2208117 c -0.0145415,0.033981 -0.0291927,0.067927 -0.0435424,0.1019751 -0.004948,0.013249 -0.0101451,0.026425 -0.015166,0.039652 -0.0745897,0.1823388 -0.14622929,0.3658254 -0.21456412,0.5504548 -0.008098,0.021696 -0.0159795,0.043469 -0.0238458,0.065238 -0.03285942,0.089913 -0.06520957,0.1799813 -0.0964826,0.2704378 -0.01204073,0.026036 -0.01570952,0.052156 -0.0142599273,0.078194 -9.720356e-5,3.696e-4 -1.8899413e-4,7.39e-4 -2.86157671e-4,0.00113 1.80679551e-4,5.444e-4 3.91515721e-4,0.00109 5.71995171e-4,0.00167 0.00389998,0.056098 0.0308622398,0.1117495 0.0484545798,0.1650856 0.11576014,0.3182546 0.25101657,0.630027 0.40451947,0.933048 3.8215e-4,7.39e-4 7.6399e-4,0.0016 0.001144,0.0022 0.0244979,0.04832 0.049475,0.09641 0.0749234,0.144265 0.002096,0.0039 0.004194,0.0079 0.006295,0.0118 0.27240689,0.510271 0.59839828,0.993378 0.97724678,1.435477 0.2491966,0.297832 0.5227909,0.575024 0.8141897,0.833524 0.026074,0.02327 0.052559,0.04608 0.07893,0.06903 0.00886,0.0077 0.01762,0.01548 0.026516,0.02313 0.1052271,0.09081 0.2127101,0.179102 0.3224427,0.264701 0.6727464,0.532026 1.461333,0.96635 2.2689259,1.259611 0.027332,0.0099 0.054614,0.01982 0.082077,0.02934 0.2261352,0.08111 0.4557763,0.152625 0.6883319,0.214036 0.057136,0.01509 0.1144238,0.02974 0.1718799,0.04363 0.5628122,0.137209 1.1404194,0.215667 1.7203763,0.236246 0.00236,9.5e-5 0.00473,2.4e-4 0.0071,3.24e-4 0.050601,0.0018 0.1012226,0.0028 0.15185,0.0037 0.017135,3.1e-4 0.034272,8.15e-4 0.051411,9.72e-4 0.034256,3.86e-4 0.068516,2.49e-4 0.102775,2.37e-4 0.034244,1.7e-5 0.068486,1.67e-4 0.1027274,-2.37e-4 0.017155,-2.13e-4 0.034308,-7e-4 0.051459,-9.72e-4 0.050588,-8.56e-4 0.1011454,-0.0019 0.1517068,-0.0037 0.00252,-9.4e-5 0.00505,-2.36e-4 0.00758,-3.24e-4 0.5798308,-0.02061 1.1573521,-0.09906 1.7200431,-0.236246 0.0567,-0.01372 0.113198,-0.0282 0.16959,-0.04308 8.01e-4,-2.13e-4 0.0016,-3.88e-4 0.0024,-5.83e-4 0.232735,-0.06147 0.462599,-0.133027 0.688903,-0.214223 0.02689,-0.0093 0.05364,-0.01907 0.0804,-0.02874 3.89e-4,-1.42e-4 7.61e-4,-3.22e-4 0.0012,-4.66e-4 0.816971,-0.29334 1.598235,-0.733926 2.269738,-1.260352 0.109753,-0.08564 0.217292,-0.173986 0.322537,-0.26484 0.03499,-0.0302 0.06992,-0.06048 0.104397,-0.09124 0.29138,-0.258489 0.564959,-0.535664 0.814142,-0.833479 0.378505,-0.441697 0.704226,-0.92433 0.976484,-1.434089 0.0027,-0.005 0.0053,-0.01 0.008,-0.01495 0.02512,-0.04726 0.04978,-0.09474 0.07397,-0.142461 3.98e-4,-7.78e-4 8e-4,-0.0016 0.0012,-0.0023 0.153491,-0.303004 0.288718,-0.6147668 0.404472,-0.9330021 0.01759,-0.053335 0.0446,-0.1089876 0.0485,-0.1650856 1.71e-4,-5.444e-4 3.91e-4,-0.00109 5.6e-4,-0.00167 -9.8e-5,-3.694e-4 -1.95e-4,-7.388e-4 -2.86e-4,-0.00113 0.0014,-0.026036 -0.0022,-0.052158 -0.01426,-0.078194 -0.03116,-0.090115 -0.06342,-0.179844 -0.09614,-0.2694209 -0.0081,-0.022501 -0.01633,-0.044986 -0.0247,-0.067413 -0.06838,-0.1846895 -0.139981,-0.3682428 -0.214613,-0.5506399 -0.0048,-0.012775 -0.0099,-0.025515 -0.01464,-0.038309 -0.01401,-0.033227 -0.02825,-0.066361 -0.04244,-0.099523 C 15.526614,8.0651209 15.45842,7.9077849 15.387941,7.7513972 14.715186,6.3041048 13.874624,4.9165402 12.815604,3.7031917 c -5.2e-4,-5.833e-4 -9.6e-4,-0.00117 -0.0015,-0.00175 -3.49e-4,-3.889e-4 -7.19e-4,-8.166e-4 -0.001,-0.00121 -1.47e-4,-1.657e-4 -2.83e-4,-3.411e-4 -4.4e-4,-5.056e-4 -0.03798,-0.043824 -0.07621,-0.087468 -0.114712,-0.1309066 C 12.64979,3.515477 12.601029,3.4625547 12.55196,3.4099058 12.437462,3.2860851 12.320661,3.1641999 12.201237,3.0445241 11.893676,2.7503693 11.578024,2.4600858 11.232665,2.2079452 11.085947,2.0977225 10.935635,1.9919597 10.780979,1.8919323 9.8335617,1.2869793 9.0421124,1.028226 7.9675594,0.99999995 6.9917275,1.0056266 5.9067797,1.4540701 5.2189574,1.8919323 Z"/>
 <path style="fill:#17191e" d="M 7.9675606,1.0000167 C 7.5537256,1.002404 7.1203544,1.0845638 6.7058818,1.2116483 7.076473,2.5177792 7.4284411,3.8288238 7.7941543,5.1361321 7.8449443,5.1307642 7.8957394,5.126009 7.9465291,5.1209572 8.0462877,3.752136 8.1927162,2.3852021 8.2874752,1.0160734 8.1834214,1.0082909 8.077026,1.0028935 7.9675606,1.0000184 Z M 6.5304719,1.2684658 C 6.0340118,1.4377123 5.5736359,1.6661455 5.2189554,1.8919323 5.0127661,2.0373642 4.6001635,2.3109648 4.9740119,2.0640968 5.7055767,3.2011886 6.4459648,4.333197 7.1804601,5.4687089 7.2266913,5.4510221 7.2729155,5.4330242 7.3191469,5.4143901 7.2130094,4.8992245 7.1309387,4.3802672 7.0231737,3.8654173 6.9336406,3.4361649 6.8675717,3.0031421 6.778039,2.5742058 6.6865307,2.1402168 6.6167955,1.7028892 6.5304719,1.2684658 Z"/>
 <path style="fill:#17191e" d="m 4.0235203,8.0000009 c -0.320166,2.341e-4 -0.6405364,0.04523 -0.946227,0.1381575 -0.088911,0.5380548 -0.1335401,1.1035953 0.049062,1.6285426 0.1430862,0.463464 0.5057558,0.856997 0.9640128,1.039886 0.5583214,0.231264 1.1947057,0.239703 1.7791581,0.10675 C 5.9447336,10.576585 6.0075224,10.233922 5.9985993,9.8878061 6.0132581,9.4630418 5.9138081,9.0207646 5.6556798,8.6727763 5.3583544,8.262057 4.843056,8.052036 4.3430524,8.0145844 4.2369331,8.0048305 4.1302418,7.9999218 4.0235203,8.0000009 Z m -0.00658,0.4428633 c 0.1715219,-0.00323 0.3433398,0.010395 0.5106449,0.044529 0.073296,0.030274 0.1838809,0.013744 0.2355064,0.074292 -0.2342236,0.090508 -0.4347083,0.2796295 -0.4997184,0.5218168 -0.07935,0.2537347 -9.374e-4,0.544014 0.1886855,0.7322088 0.273106,0.3033582 0.8145216,0.3173952 1.098781,0.023085 -0.00733,0.2331372 -0.014989,0.4709332 -0.072029,0.6959552 -0.2364582,0.02372 -0.4798946,0.03343 -0.7157156,-0.004 C 4.3322394,10.484537 3.8873581,10.275714 3.670658,9.8921471 3.4243209,9.4717524 3.422078,8.9696191 3.4826263,8.5033465 3.5520981,8.4652702 3.6333796,8.4736692 3.7095436,8.466177 3.8112414,8.4528344 3.9140255,8.4448096 4.016939,8.4428591 Z"/>
 <path style="fill:#17191e" d="m 6.5043481,12.16232 c -0.021371,0.04335 0.041726,0.07279 0.065813,0.106509 0.3511115,0.331038 0.6978133,0.665018 1.0550313,0.992042 0.072258,0.06878 0.1801355,0.09875 0.2846209,0.123904 6.75e-4,0.195091 0.00236,0.390449 -6.75e-4,0.585807 0.040707,0.03987 0.1153413,0.03399 0.1682622,0.01311 -0.00375,-0.197231 0.00408,-0.394729 -0.00441,-0.591692 0.1075386,-0.03399 0.2228799,-0.06368 0.3022616,-0.135679 0.3582357,-0.341208 0.7222383,-0.67947 1.0794563,-1.02148 0.01323,-0.02248 0.059367,-0.04255 0.041049,-0.07038 -0.4019975,-0.09983 -0.8209569,-0.141844 -1.2392373,-0.160308 -0.5906141,-0.0182 -1.1856379,0.02141 -1.7521664,0.158159 z"/>
 <g transform="matrix(0.39977745,0,0,0.39991391,-1.5947115,-1.59969)">
  <path style="fill:none;stroke:#db3d7f;stroke-width:2;stroke-linecap:round;stroke-linejoin:round" d="M 14.000263,36 5.0002634,43"/>
  <path style="fill:none;stroke:#db3d7f;stroke-width:2;stroke-linecap:round;stroke-linejoin:round" d="m 19.000263,36 -9,7"/>
  <path style="fill:none;stroke:#db3d7f;stroke-width:2;stroke-linecap:round;stroke-linejoin:round" d="m 29,36 9,7"/>
  <path style="fill:none;stroke:#db3d7f;stroke-width:2;stroke-linecap:round;stroke-linejoin:round" d="m 34,36 9,7"/>
 </g>
 <path style="fill:#17191e" d="m 11.976479,8.0000009 c 0.320166,2.341e-4 0.640537,0.04523 0.946227,0.1381575 0.08891,0.5380548 0.13354,1.1035953 -0.04906,1.6285426 -0.143086,0.463464 -0.505755,0.856997 -0.964012,1.039886 -0.558322,0.231264 -1.194706,0.239703 -1.779158,0.10675 -0.07521,-0.336752 -0.1379984,-0.679415 -0.129075,-1.0255309 -0.014659,-0.4247643 0.08479,-0.8670415 0.342919,-1.2150298 0.297325,-0.4107193 0.812624,-0.6207403 1.312627,-0.6581919 0.10612,-0.00975 0.212811,-0.014663 0.319532,-0.014584 z m 0.0066,0.4428633 c -0.171522,-0.00323 -0.343339,0.010395 -0.510645,0.044529 -0.0733,0.030274 -0.18388,0.013744 -0.235506,0.074292 0.234224,0.090508 0.434708,0.2796295 0.499718,0.5218168 0.07935,0.2537347 9.38e-4,0.544014 -0.188685,0.7322088 -0.273106,0.3033582 -0.814522,0.3173952 -1.098781,0.023085 0.0073,0.2331372 0.01499,0.4709332 0.07203,0.6959552 0.236458,0.02372 0.479895,0.03343 0.715716,-0.004 0.430855,-0.04621 0.875737,-0.255037 1.092437,-0.6386039 0.246337,-0.4203947 0.24858,-0.922528 0.188031,-1.3888006 -0.06947,-0.038076 -0.150753,-0.029677 -0.226917,-0.037169 -0.101698,-0.013343 -0.204482,-0.021367 -0.307395,-0.023318 z"/>
</svg>
