<svg xmlns="http://www.w3.org/2000/svg" width="16" height="16" version="1.1">
 <path style="fill:#4f4f4f" d="m 1,0 h 7.0328906 l 6.0499684,0.66413662 c 0.550692,0.0604523 0.809848,0.73888398 0.905123,1.28462998 L 16,7.7457306 v 1.4231499 l -0.56926,5.0404805 c -0.06217,0.5505 0.152016,1.038561 -0.399114,1.094877 L 8.2226439,16 H 1 C 0.446,16 0,15.554 0,15 V 1 C 0,0.446 0.446,0 1,0 Z"/>
 <path style="fill:#edd20c" d="m1 1v14h4s2 0 2-2v-10c0-2-2-2-2-2h-4zm2 3h2v8h-2v-8z"/>
 <path style="fill:#b2bfd9" d="m8 0v16h7c0.554 0 1-0.446 1-1v-14c0-0.554-0.446-1-1-1h-7zm2 1h4l1 14h-2l-0.199219-2h-1.601562l-0.199219 2h-2l1-14zm2 4-0.599609 6h1.199218l-0.599609-6z"/>
 <rect style="fill:#4f4f4f" width="16" height="1" y="8"/>
</svg>
