<svg xmlns="http://www.w3.org/2000/svg" width="16" height="16" version="1">
 <rect fill="#2b7fb7" width="14" height="16" x="-15" y="-16" rx=".875" ry=".857" transform="matrix(0,-1,-1,0,0,0)"/>
 <path fill="none" stroke="#f4f4f7" stroke-width=".5" style="stroke:#17191e" d="m5 5.5 6 2-2.5 3.5z"/>
 <rect fill="#f4f4f7" width="4" height="3" x="3" y="4" rx=".566" ry=".526"/>
 <rect fill="#f4f4f7" width="4" height="3" x="9" y="6" rx=".566" ry=".526"/>
 <rect fill="#f4f4f7" width="3" height="2" x="7" y="10" rx=".425" ry=".35"/>
</svg>
