<svg xmlns="http://www.w3.org/2000/svg" width="16" height="16" version="1.1">
 <path style="fill:#ba2c00" d="M 8.6666667,12.804596 8,13.189361 v 0.750457 L 8.6666667,14.325234 9.3333335,14.71 10.000001,14.325234 V 13.574778 L 9.3333335,13.189361 Z"/>
 <path style="fill:#ff7900" d="M 8.6666667,12.804401 8,13.189167 8.6666667,13.574583 9.3333335,13.959349 10.000001,13.574583 9.3333335,13.189167 Z"/>
 <path style="fill:#ff4200" d="m 8.6666667,10.634565 0.6666668,0.3849 v 2.169896 L 8.6666667,13.574262 8,13.189361 v -2.169896 z"/>
 <path style="fill:#ff4200" d="M 9.3333335,14.71 10.000001,14.325234 V 13.574583 L 9.3333335,13.959349 Z"/>
 <path style="fill:#ba2c00" d="m 8.6666667,10.634565 v 2.939697 L 8,13.189361 v -2.169896 z"/>
 <path style="fill:#ba2c00" d="M 6.6666666,14.094596 6,14.479362 v 0.750456 L 6.6666666,15.615234 7.3333334,16 8,15.615234 V 14.864778 L 7.3333334,14.479362 Z"/>
 <path style="fill:#ff4200" d="M 7.3333334,16 8,15.615234 v -0.750651 l -0.6666666,0.384766 z"/>
 <path style="fill:#ff7900" d="M 6.6666666,14.094401 6,14.479167 6.6666666,14.864583 7.3333334,15.249349 8,14.864583 7.3333334,14.479167 Z"/>
 <path style="fill:#ff4200" d="m 6.6666666,11.924566 0.6666668,0.3849 v 2.169895 L 6.6666666,14.864262 6,14.479361 v -2.169895 z"/>
 <path style="fill:#ba2c00" d="m 6.6666666,11.924566 v 2.939696 L 6,14.479361 v -2.169895 z"/>
 <path style="fill:#ffce00" d="M 7.0000002,2.2919946 12,5.1787461 12,10.952249 6.9999998,13.839 l -5,-2.886751 L 2,5.1787459 Z"/>
 <path style="fill:#ff6700" d="m 2,5.1784166 v 5.7739254 l 4.9999997,2.886555 V 8.065786 Z"/>
 <path style="fill:#ffc200" d="M 6.9999997,2.2918601 2,5.1784166 6.9999997,8.065786 11.999999,5.1784166 Z"/>
 <path style="fill:#ff9e02" d="M 3,2.3395989 4,2.9169492 4,4.0716497 3,4.6489999 2,4.0716496 2,2.9169491 Z"/>
 <path style="fill:#ff9e02" d="M 9.0000001,0.05901241 13,2.3684136 13,6.9872156 8.9999999,9.2966166 5,6.9872154 l 1e-7,-4.6188021 z"/>
 <path style="fill:#ba2c00" d="m 12.000001,7.2536451 v 1.999997 l -1.999998,-0.9999985 -2e-6,-0.6666657 z"/>
 <path style="fill:#ff7900" d="M 12.000001,7.253645 V 9.253642 L 13.999998,8.2536435 14,7.5869778 Z"/>
 <rect style="fill:#ff4200" width="2.236" height="2.236" x="14.07" y=".66" transform="matrix(0.89442719,0.44721359,-0.89442719,0.44721359,0,0)"/>
 <path style="fill:#ff6700" d="m 5,2.3680936 v 4.61875 L 9,9.297 V 4.6774688 Z"/>
 <path style="fill:#ffc200" d="M 9,0.05871861 5,2.3680936 9,4.6774688 13,2.3680936 Z"/>
 <path style="fill:#17191e" d="M 11.555619,4.8767936 12.000001,4.597 v 1.0799999 l -0.444382,0.2797937 z"/>
 <path style="fill:#ff6700" d="m 2,2.9168828 v 1.1547851 l 0.9999999,0.5771485 c 0,1.833e-4 0,-1.154297 0,-1.154297 z"/>
 <path style="fill:#ffc200" d="M 2.9999999,2.3397343 2,2.9168828 l 0.9999999,0.5776366 1,-0.5776366 z"/>
 <path style="fill:#17191e" d="M 10,5.677 10.444382,5.3972064 V 6.4772063 L 10,6.757 Z"/>
</svg>
