<svg width="16" height="16" version="1.1" xmlns="http://www.w3.org/2000/svg">
 <circle transform="scale(1,-1)" cx="7.9999995" cy="-8" r="8" style="fill:#4456f3"/>
 <g transform="matrix(1,0,0,-1,-12,29)" style="fill:#f4f4f7">
  <rect x="19" y="20" width="3" height="6"/>
  <rect x="19" y="16" width="3" height="3"/>
 </g>
</svg>
