<svg xmlns="http://www.w3.org/2000/svg" width="16" height="16" version="1.1">
 <rect style="fill:#e64031" width="16" height="16" x="0" y="0" rx=".8" ry=".8"/>
 <path style="fill:#f4f4f7" d="m 1,6 v 4 H 3.4 V 9.2 H 1.8 V 8.4 H 3.4 V 7.6 H 1.8 V 6.8 H 3.4 V 6 Z"/>
 <path style="fill:#f4f4f7" d="M 5.6070312,6 C 5.244462,6 4.9434612,6.0831068 4.7039064,6.25 4.4675888,6.4168932 4.2915404,6.6493696 4.175,6.9468752 4.0584596,7.2443804 4,7.5930948 4,7.9921876 4,8.3949084 4.05846,8.7465224 4.175,9.0476564 4.2915404,9.34879 4.4675888,9.5831068 4.7039064,9.75 4.9434612,9.9168932 5.2430116,10 5.602344,10 5.9519644,10 6.2449324,9.9168932 6.48125,9.75 6.5460556,9.7042328 6.605652,9.6524944 6.6617188,9.5968752 L 6.1164064,8.9984376 C 5.9909776,9.1311352 5.8205348,9.2 5.6015624,9.2 5.3263668,9.2 5.1241688,9.0936176 4.9945312,8.8804688 4.864894,8.6645516 4.8,8.369796 4.8,7.9960936 4.8,7.6223912 4.864894,7.3299116 4.9945312,7.1195312 5.1264432,6.9063824 5.3302732,6.8 5.6054688,6.8 5.822646,6.8 5.9914856,6.868865 6.1164064,7.0015624 l 0.5460936,-0.6 C 6.606214,6.346088 6.546356,6.29498 6.48125,6.25 6.2449324,6.0831068 5.9534148,6 5.6070312,6 Z"/>
 <path style="fill:#f4f4f7" d="m 8,6 v 4 H 8.8571428 V 8.4 H 10.142858 V 10 H 11 V 6 H 10.142858 V 7.6 H 8.8571428 V 6 Z"/>
 <path style="fill:#f4f4f7" d="M 13.506406,6 C 13.166622,6 12.88527,6.0831068 12.66077,6.25 12.439303,6.4168932 12.273952,6.64976 12.164735,6.9472656 12.055519,7.2447712 12,7.5930947 12,7.9921875 12,8.3949083 12.055517,8.745741 12.164735,9.046875 12.273952,9.3480086 12.439303,9.5831068 12.66077,9.75 12.88527,9.9168932 13.165995,10 13.502746,10 13.830395,10 14.104952,9.916893 14.326419,9.75 14.547886,9.5831068 14.713863,9.3502408 14.826113,9.0527344 14.941397,8.7516008 15,8.4007677 15,7.9980469 15,7.5953257 14.9414,7.2447712 14.826113,6.9472656 14.713863,6.6461316 14.547886,6.4132652 14.326419,6.25 14.104952,6.0831068 13.831023,6 13.506406,6 Z m -0.0019,0.8007812 c 0.257902,0 0.44623,0.1052106 0.565589,0.3183594 0.119392,0.2103804 0.179378,0.5032508 0.179378,0.8769532 0,0.3737023 -0.06002,0.6688484 -0.179378,0.8847656 -0.11936,0.2131488 -0.309217,0.3183594 -0.569249,0.3183594 -0.257901,0 -0.447759,-0.1052106 -0.56925,-0.3183594 -0.12149,-0.2159172 -0.181208,-0.5110632 -0.181208,-0.8847656 0,-0.3737024 0.05972,-0.6665728 0.181208,-0.8769532 0.123622,-0.2131488 0.315008,-0.3183594 0.57291,-0.3183594 z"/>
</svg>
