<svg xmlns="http://www.w3.org/2000/svg" height="16" width="16" version="1.1">
 <circle r="5" style="fill:#003d82" cx="8" cy="8"/>
 <path style="fill:#0075f8" d="m8 1a7 7 0 0 0 -7 7 7 7 0 0 0 7 7 7 7 0 0 0 7 -7 7 7 0 0 0 -7 -7zm0 3a4 4 0 0 1 4 4 4 4 0 0 1 -4 4 4 4 0 0 1 -4 -4 4 4 0 0 1 4 -4z"/>
 <path style="fill:#a1ccfe" d="m8 0a8 8 0 0 0 -8 8 8 8 0 0 0 8 8 8 8 0 0 0 8 -8 8 8 0 0 0 -8 -8zm0 2a6 6 0 0 1 6 6 6 6 0 0 1 -6 6 6 6 0 0 1 -6 -6 6 6 0 0 1 6 -6z"/>
 <path style="fill:#f4f4f7" d="m5.765625 3.5292969a5 5 0 0 0 -2.765625 4.4707031h3a2 2 0 0 0 0.9726562 1.7128906l-1.5429687 2.5703124a5 5 0 0 0 2.5703125 0.716797 5 5 0 0 0 2.570312 -0.716797l-1.5429682-2.5703124a2 2 0 0 0 0.9726562 -1.7128906h3a5 5 0 0 0 -2.765625 -4.4667969l-1.3398438 2.6796875a2 2 0 0 0 -0.8945312 -0.2128906 2 2 0 0 0 -0.8945312 0.2109375l-1.3398438-2.6816406zm2.234375 3.4707031a1 1 0 0 1 1 1 1 1 0 0 1 -1 1 1 1 0 0 1 -1 -1 1 1 0 0 1 1 -1z"/>
</svg>
