<svg xmlns="http://www.w3.org/2000/svg" width="16" height="16" version="1">
 <circle style="fill:#2c80a2" cx="10.5" cy="10.5" r="5.5"/>
 <circle style="fill:#f4f4f7" cx="10.5" cy="10.5" r="3.5"/>
 <circle style="fill:#37abc8" cx="5.5" cy="5.5" r="5.5"/>
 <circle style="fill:#f4f4f7" cx="5.5" cy="5.5" r="3.5"/>
 <path style="stroke:#ff6e4c;stroke-linecap:round;fill:none" d="m10.5 11.5s-0.159105-3.1859204-1.5-4.5c-1.340894-1.3140808-4.5-1.5-4.5-1.5"/>
 <path style="stroke:#ff6e4c;stroke-linecap:round;fill:none" d="m6.5066173 4.4839946s0.1524878 2.7462696 1.4933827 4.0603492c1.340894 1.3140812 4.506617 1.9396512 4.506617 1.9396512"/>
</svg>
