<svg xmlns="http://www.w3.org/2000/svg" width="16" height="16" version="1">
 <path style="fill:#be3c3c" d="M 7,13 C 7,12.446 6.554,12 6,12 5.446,12 5,12.446 5,13 l 0,2 c 0,0.554 0.446,1 1,1 0.554,0 1,-0.446 1,-1 l 0,-2 z"/>
 <path style="fill:#be3c3c" d="M 6.5,8 4,9.6 4,12 5,12 5,10.4995 6.5,9.9125 Z"/>
 <path style="fill:#09dbed" d="M 4.75,14 C 4.3345,14 4,14.446 4,15 c 0,0.554 0.3345,1 0.75,1 l 1.5,0 C 6.6655,16 7,15.554 7,15 7,14.446 6.6655,14 6.25,14 l -1.5,0 z"/>
 <path style="fill:#be3c3c" d="m 10,13 c 0,-0.554 0.446,-1 1,-1 0.554,0 1,0.446 1,1 l 0,2 c 0,0.554 -0.446,1 -1,1 -0.554,0 -1,-0.446 -1,-1 l 0,-2 z"/>
 <path style="fill:#be3c3c" d="m 10.5,8 2.5,1.6 0,2.4 -1,0 0,-1.5005 -1.5,-0.587 z"/>
 <path style="fill:#09dbed" d="m 12.25,14 c 0.4155,0 0.75,0.446 0.75,1 0,0.554 -0.3345,1 -0.75,1 l -1.5,0 C 10.3345,16 10,15.554 10,15 c 0,-0.554 0.3345,-1 0.75,-1 l 1.5,0 z"/>
 <rect style="fill:#3ce63c" width="5" height="6" x="6" y="7" rx=".388" ry=".309"/>
 <ellipse style="fill:#9f9f9f" cx="8.5" cy="5.5" rx="5.5" ry="3.5"/>
 <rect style="fill:#17191e" width="1" height="1" x="5" y="5"/>
 <rect style="fill:#17191e" width="1" height="1" x="11" y="5"/>
 <rect style="fill:#17191e" width="5.027" height="1" x="5.97" y="7"/>
 <path style="fill:#ffc901" d="M 1.7903099,0 C 1.0360966,6.5868e-4 0.7121568,0.97025192 1.3108261,1.4351562 L 3.08,5 C 3.08,5 3.9902528,3.3264452 4.7173197,3.1 5.9296845,2.7224088 7.2145616,4 8.5,4 9.7854384,4 11.070315,2.7224088 12.28268,3.1 13.009747,3.3264452 13.92,5 13.92,5 L 15.689174,1.4351562 C 16.287843,0.97025192 15.963903,6.6e-4 15.209689,0 L 8.5,0 Z"/>
 <rect style="fill:#17191e" width="1" height="1" x="8" y="9"/>
 <rect style="fill:#17191e" width="1" height="1" x="8" y="11"/>
</svg>
