<svg xmlns="http://www.w3.org/2000/svg" width="16" height="16" version="1">
 <rect style="fill:#2869b6" width="16" height="16" x="0" y="0" rx="8" ry="8"/>
 <path style="fill:#659cdb" d="M 8 0 C 6.9399606 0 5.9320016 0.20885097 5.0078125 0.58007812 L 6 1.7148438 L 6 2.8574219 L 7.25 4 L 8 4 L 8 3.4277344 L 8.5 2.5722656 L 8.5 2 L 9 1.4277344 L 9 0.068359375 C 8.6718897 0.027710503 8.3394628 0 8 0 z M 2.7109375 2 C 1.1583477 3.368777 0.148532 5.3294253 0.0234375 7.5390625 L 3 10.298828 L 3 9.4726562 L 2.1816406 8.6210938 L 3 8 L 3.5449219 8 L 4.0917969 8.3457031 L 4.1074219 7.1855469 L 4.9082031 6.5 L 5.5 6.5 L 5.5 5.8613281 L 6 5.3105469 L 6 4.4824219 L 5.4179688 3.9492188 L 4 3.9316406 L 4 5 L 3.5449219 5 L 3 4.4824219 L 3 3.9316406 L 3.8183594 3 L 4.5 3 L 4.5 2.5507812 L 4.0917969 2 L 2.7109375 2 z M 11.800781 2 L 10.960938 2.75 L 10.960938 3.25 L 12 3.25 L 12 2.9824219 L 13.060547 2.9824219 L 13.060547 3.515625 L 12.779297 3.75 L 11 3.75 L 11 4.25 L 10 4.25 L 10 5 L 9 5 L 9 6 L 10 6 L 10 5.5 L 11.419922 5.5 L 11.419922 5.8496094 L 11.980469 6.3496094 L 12.259766 6.3496094 L 12.259766 6.0996094 L 11.980469 5.8496094 L 11.980469 5.5 L 12.640625 5.5 L 13.480469 6 L 14.320312 6 L 14.320312 6.4003906 L 14.039062 6.6503906 L 13.480469 6.6503906 L 15.939453 8.9433594 C 15.975595 8.6335583 16 8.3198151 16 8 C 16 5.6023209 14.949442 3.4638053 13.289062 2 L 12.080078 2 L 11.800781 2 z M 10.042969 7 L 9 8.1035156 L 9 9.2070312 L 10.042969 10.009766 L 11.125 10.009766 L 11.646484 10.5625 L 11.646484 10.837891 L 12 11.113281 L 12 13.068359 L 12.919922 14.306641 C 13.311087 14.001489 13.672294 13.660776 14 13.289062 L 14 10.861328 L 15 10.310547 L 15 9.2070312 L 13.695312 8.0273438 L 13.695312 7.5 L 12.130859 7.5 L 11.869141 7 L 10.042969 7 z M 3.5 10 L 3 10.5 L 3 11.75 L 4.0078125 12.767578 L 3.9980469 14.925781 C 4.3188526 15.11093 4.6527732 15.276102 5 15.416016 L 5 15 L 6 14.25 L 6 13.75 L 6.5 13 L 6.5 12.5 L 7 12 L 7 11 L 6.5 10.5 L 5.5 10.5 L 5 10 L 3.5 10 z"/>
 <path style="fill:#f4f4f7" d="m 5.6443056,8.0001133 c -0.082297,0.00189 -0.1612088,0.031924 -0.2226219,0.0847 L 0.116419,12.229536 c -0.22021124,0.188959 -0.11039419,0.539515 0.18161268,0.57974 l 2.05716052,0.285347 -0.964137,1.640543 c -0.2154568,0.366673 -0.087791,0.832657 0.2853912,1.044355 l 0.2067204,0.117593 c 0.3731818,0.211699 0.8474373,0.08626 1.062894,-0.280413 l 1.0009619,-1.703862 1.4671285,1.168527 c 0.2258645,0.180516 0.5679893,0.02605 0.5682717,-0.256566 L 5.9999986,8.3348006 C 6.0005557,8.1466829 5.8396319,7.9952741 5.6443039,8.0001133 Z"/>
</svg>
