<svg xmlns="http://www.w3.org/2000/svg" width="16" height="16" version="1">
 <rect style="fill:#307ada" width="15" height="15" x="-15" y="-16" rx="7.5" ry="7.5" transform="matrix(0,-1,-1,0,0,0)"/>
 <path style="fill:#17191e" d="M 8.5,2 C 5.4624284,2 3,4.4624285 3,7.5 3,10.537572 5.4624284,13 8.5,13 11.537572,13 14,10.537572 14,7.5 14,4.4624285 11.537572,2 8.5,2 Z"/>
 <path style="fill:none;stroke:#22d3ff;stroke-linecap:round;stroke-linejoin:round" d="m 1.5071212,7.500097 4.8060031,0 1.4526646,-3 1.4526646,6 1.4526655,-3 4.806003,0"/>
</svg>
