<svg xmlns="http://www.w3.org/2000/svg" width="16" height="16" version="1">
 <path fill="#1ed760" d="M8,0L8,0c4.4,0,8,3.6,8,8l0,0c0,4.4-3.6,8-8,8l0,0c-4.4,0-8-3.6-8-8l0,0C0,3.6,3.6,0,8,0z"/>
 <path style="fill:none;stroke:#f4f4f7;stroke-width:1.5;stroke-linecap:round" d="M 2.75,5.25 C 6,4.5 10,4.5 13.226,6.2562"/>
 <path style="fill:none;stroke:#f4f4f7;stroke-width:1.5;stroke-linecap:round" d="M 3.75,8.25 C 6,7.5 10,7.5 12.226,9.2562"/>
 <path style="fill:none;stroke:#f4f4f7;stroke-width:1.5;stroke-linecap:round" d="M 4.7552,11 C 7,10.5 10,10.8 11.25,11.55"/>
</svg>
