<svg xmlns="http://www.w3.org/2000/svg" width="16" height="16" version="1.1">
 <path style="fill:#a8a8a8" d="M 0,11.699 V 15.199 C 0,15.642 0.35758,16 0.80078,16 H 15.199 C 15.642,16 16,15.642 16,15.199 V 11.699 C 16,12.142 15.642,12.5 15.199,12.5 H 0.80078 C 0.35758,12.5 0,12.142 0,11.699 Z"/>
 <rect style="fill:#b2bfd9" width="16" height="13" x="0" y="0" rx=".8" ry=".8"/>
 <path style="fill:#434343" d="M 2.8535,9.4471 C 2.5019,10.212 2.206,11.024 2,11.914 L 2.1602,12 C 2.1602,12 2.3024,11.692 2.4297,11.6 2.557,11.507 2.9648,11.332 2.9648,11.332 2.9648,11.332 3.0401,10.773 3.2168,10.082 3.1708,10.088 3.1371,10.1 3.0898,10.105 L 2.9395,10.064 C 2.9011,9.8533 2.8769,9.6493 2.8535,9.4471 Z"/>
 <path style="fill:#4976a8" d="M 7.6719,2.0096 C 7.4082,2.0259 7.2429,2.0636 7.2363,2.1287 7.2159,2.3288 7.1062,2.7417 7.0898,3.1795 7.0086,2.8632 6.961,2.5376 6.9473,2.201 6.2011,2.252 4.9266,2.9603 4.9219,3.2947 4.9192,3.4881 5.0929,5.0687 5.3027,5.8455 4.9135,5.0812 4.7458,4.3024 4.5684,3.5232 4.3437,3.7647 3.2514,3.7539 4.0098,7.0506 3.6981,6.5384 3.6465,5.9675 3.4902,5.4197 2.9835,6.2608 2.6493,7.683 2.8535,9.4471 4.0871,6.7658 6.1468,4.7936 8.6484,3.1853 8.7108,3.1568 8.7202,3.2047 8.6973,3.2283 6.7686,4.6996 5.6112,6.0708 5.3613,6.3455 5.17,6.5558 4.2809,7.5031 3.7031,8.6853 3.4771,9.1479 3.3304,9.6375 3.2168,10.082 4.6879,9.8914 5.5371,9.3259 6.043,8.6072 5.1485,7.4338 5.3835,7.6172 6.1367,8.3631 6.4911,8.7141 7.0555,9.0358 7.4434,7.9432 7.7412,7.1044 8.0898,6.8728 8.0898,6.8728 7.5587,6.6532 6.5703,5.8934 8.166,6.5623 8.6719,5.7792 9.3774,5.2498 10.025,4.6463 8.5771,4.6443 8.9886,4.0176 10.262,4.4646 10.869,3.3156 12.34,3.3355 14,3.6072 12.781,2.9847 11.424,2.1713 11.031,2.6853 L 10.975,2.3006 C 10.13,2.1063 8.463,1.9605 7.6719,2.0096 Z"/>
</svg>
