<svg xmlns="http://www.w3.org/2000/svg" width="16" height="16" version="1">
 <rect style="fill:#ff670b" width="16" height="13" x="0" y="2" rx=".8" ry=".722"/>
 <rect style="fill:#5e473a" width="16" height="7" x="0" y="5"/>
 <path style="fill:#f4f4f7" d="M 0 3 L 0 5 L 1 5 L 1 3 L 0 3 z M 3 3 L 3 5 L 4 5 L 4 3 L 3 3 z M 6 3 L 6 5 L 7 5 L 7 3 L 6 3 z M 9 3 L 9 5 L 10 5 L 10 3 L 9 3 z M 12 3 L 12 5 L 13 5 L 13 3 L 12 3 z M 15 3 L 15 5 L 16 5 L 16 3 L 15 3 z M 0 12 L 0 14 L 1 14 L 1 12 L 0 12 z M 3 12 L 3 14 L 4 14 L 4 12 L 3 12 z M 6 12 L 6 14 L 7 14 L 7 12 L 6 12 z M 9 12 L 9 14 L 10 14 L 10 12 L 9 12 z M 12 12 L 12 14 L 13 14 L 13 12 L 12 12 z M 15 12 L 15 14 L 16 14 L 16 12 L 15 12 z"/>
 <path style="fill:#f4f4f7" d="M 2.6766917,11 H 2 V 6 H 5 V 6.5532217 H 2.6766917 v 1.6342785 h 1.989975 v 0.625 h -1.989975 z"/>
 <g transform="matrix(0.85937506,0,0,0.85937506,1.3124996,1.2343746)">
  <path style="fill:#f4f4f7" d="m 5.8217124,5.5454546 q 0.1412178,0 0.2471313,0.090909 0.1129745,0.084416 0.1129745,0.2727273 0,0.1883116 -0.1129745,0.2792207 -0.1059135,0.084416 -0.2471313,0.084416 -0.15534,0 -0.2612535,-0.084416 -0.1059134,-0.090909 -0.1059134,-0.2792207 0,-0.1883116 0.1059134,-0.2727273 0.1059135,-0.090909 0.2612535,-0.090909 z"/>
  <path style="fill:#f4f4f7" d="M 6.1818182,7.0000001 V 11.363636 H 5.4545455 V 7.0000001 Z"/>
 </g>
 <path style="fill:#f4f4f7" d="M 8.625,11 H 8 V 6 h 0.625 z"/>
 <path style="fill:#f4f4f7" d="m 13.823147,6.9999997 q 0.591678,0 0.884265,0.3443223 Q 15,7.6886448 15,8.4432235 V 11 H 14.43433 V 8.4725271 q 0,-0.9304027 -0.708713,-0.9304027 -0.507151,0 -0.728218,0.32967 -0.214564,0.3296707 -0.214564,0.9597074 V 11 h -0.56567 V 8.4725271 q 0,-0.9304027 -0.715214,-0.9304027 -0.526659,0 -0.728219,0.3663004 -0.20156,0.3663003 -0.20156,1.054945 V 11 H 10 V 7.07326 h 0.461638 l 0.08453,0.5347984 h 0.03251 q 0.162548,-0.3076924 0.43563,-0.4542124 0.279585,-0.1538463 0.591678,-0.1538463 0.819246,0 1.066319,0.6593407 h 0.03251 q 0.17555,-0.3369964 0.47464,-0.4981684 0.29909,-0.1611723 0.643693,-0.1611723 z"/>
</svg>
