<svg xmlns="http://www.w3.org/2000/svg" width="16" height="16" version="1.1">
 <circle cx="8" cy="8" r="8" style="fill:#b2bfd9"/>
 <path style="fill:#f03b43" d="M 7.2255594,13.886432 C 5.7649352,13.4414 4.6333748,12.011519 4.1613276,10.01435 3.9218202,9.0010454 3.9538766,6.9194308 4.2250202,5.8782564 4.6275849,4.3324405 5.4230721,3.1117942 6.3761017,2.5775002 l 0.5172278,-0.2899697 0.020926,0.8905264 c 0.04284,1.8240063 0.6694758,2.7678881 2.448641,3.6883022 1.8173015,0.9401425 2.4704995,1.7342232 2.6187205,3.1835289 0.215445,2.106619 -1.491811,3.979234 -3.6009901,3.949769 -0.4516008,-0.0063 -0.9713789,-0.05726 -1.1550539,-0.113225 z"/>
 <path style="fill:#ffff00" d="M 9.5955432,12.974797 C 10.664413,11.84013 9.4640871,9.3044919 7.7530103,9.0825136 L 7.1169678,8.9999998 7.3581393,9.4510776 c 0.3194781,0.5975434 0.3034031,1.0207754 -0.060712,1.5983964 -0.165415,0.262411 -0.2992516,0.721427 -0.297408,1.020035 0.00842,1.36387 1.6305637,1.929654 2.5955239,0.905288 z"/>
 <path style="fill:#404040" d="M 8.2832031 2 C 7.5991633 2 7.5071838 2.0334681 7.4355469 2.3007812 C 7.194613 3.1998136 7.486614 4.6304795 8.0664062 5.390625 C 8.2673403 5.6540614 8.8514252 6.0647373 9.5117188 6.40625 C 10.12143 6.7216027 10.789981 7.1203834 10.998047 7.2929688 C 11.206117 7.4655544 11.426708 7.5751623 11.488281 7.5371094 C 11.763861 7.3667934 12.052638 6.0809381 11.984375 5.328125 C 11.806835 3.3702018 10.283754 2 8.2832031 2 z M 10.5 4 A 0.50000006 0.5 0 0 1 11 4.5 A 0.50000006 0.5 0 0 1 10.5 5 A 0.50000006 0.5 0 0 1 10 4.5 A 0.50000006 0.5 0 0 1 10.5 4 z"/>
 <path style="fill:#404040" d="M 12.394257,4.8966552 C 12.351046,4.5813805 12.275972,4.2199268 12.22743,4.0934246 12.15227,3.8975447 12.18599,3.8817077 12.454681,3.9866803 c 0.173532,0.067794 0.485447,0.1893565 0.693149,0.2701405 l 0.377637,0.1468805 -0.422219,0.5330896 c -0.232215,0.293199 -0.46906,0.5330893 -0.526317,0.5330893 -0.05726,0 -0.139459,-0.2579516 -0.182674,-0.573225 z"/>
</svg>
