<svg xmlns="http://www.w3.org/2000/svg" width="16" height="16" version="1">
 <rect style="fill:#4f4f4f" width="15" height="12" x="1" y="2" rx="1.125" ry="1.286"/>
 <rect style="fill:#f4f4f7" width="2" height="2" x="3" y="4"/>
 <rect style="fill:#f4f4f7" width="11" height="2" x="3" y="10"/>
 <rect style="fill:#f4f4f7" width="2" height="2" x="6" y="4"/>
 <rect style="fill:#f4f4f7" width="2" height="2" x="9" y="4"/>
 <rect style="fill:#f4f4f7" width="2" height="2" x="12" y="4"/>
 <rect style="fill:#f4f4f7" width="2" height="2" x="3" y="7"/>
 <rect style="fill:#f4f4f7" width="2" height="2" x="6" y="7"/>
 <rect style="fill:#f4f4f7" width="2" height="2" x="9" y="7"/>
 <rect style="fill:#f4f4f7" width="2" height="2" x="12" y="7"/>
</svg>
