<svg xmlns="http://www.w3.org/2000/svg" width="16" height="16" version="1">
 <rect style="fill:#3c3a2d" width="15" height="15" x="1" y="1" rx=".75" ry=".75"/>
 <circle style="fill:#ed253e" cx="5" cy="3" r="1"/>
 <circle style="fill:#f68f33" cx="8.5" cy="3" r="1"/>
 <circle style="fill:#72be44" cx="12" cy="3" r="1"/>
 <path style="fill:#f5e1d8" d="M 9.75,5 C 9.3345,5 9,5.3345 9,5.75 V 13.25 C 9,13.666 9.3345,14 9.75,14 H 13.25 C 13.666,14 14,13.666 14,13.25 V 5.75 C 14,5.3345 13.666,5 13.25,5 Z"/>
 <path style="fill:#f4f4f7" d="M 3.75,5 C 3.3345,5 3,5.3345 3,5.75 V 13.25 C 3,13.666 3.3345,14 3.75,14 H 7.2498 C 7.6653,14 7.9998,13.666 7.9998,13.25 V 5.75 C 7.9998,5.3345 7.6653,5 7.2498,5 Z M 4.6016,6 H 6.4002 C 6.7326,6 7.0018,6.223 7.0018,6.5 7.0018,6.777 6.7326,7 6.4002,7 H 4.6016 C 4.2692,7 4.002,6.777 4.002,6.5 4.002,6.223 4.2692,6 4.6016,6 Z M 4.6016,8 H 6.4002 C 6.7326,8 7.0018,8.223 7.0018,8.5 7.0018,8.777 6.7326,9 6.4002,9 H 4.6016 C 4.2692,9 4.002,8.777 4.002,8.5 4.002,8.223 4.2692,8 4.6016,8 Z M 4.6328,10 H 6.4314 C 6.7638,10 7.0311,10.223 7.0311,10.5 7.0311,10.777 6.7638,11 6.4314,11 H 4.6328 C 4.3004,11 4.0312,10.777 4.0312,10.5 4.0312,10.223 4.3004,10 4.6328,10 Z M 4.6328,12 H 6.4314 C 6.7638,12 7.0311,12.223 7.0311,12.5 7.0311,12.777 6.7638,13 6.4314,13 H 4.6328 C 4.3004,13 4.0312,12.777 4.0312,12.5 4.0312,12.223 4.3004,12 4.6328,12 Z"/>
</svg>
