<svg xmlns="http://www.w3.org/2000/svg" width="16" height="16" version="1">
 <rect style="fill:#b2bfd9" width="16" height="16" x="0" y="0" rx="8" ry="8"/>
 <circle style="fill:#17191e" cx="8" cy="8" r="6"/>
 <path style="fill:#f4f4f7" d="M 6,4 6,7 6,9 6,12 8,12 8,9 9,9 9,7 8,7 8,6 10,6 10,4 8,4 6.8,4 Z"/>
</svg>
