<svg xmlns="http://www.w3.org/2000/svg" width="16" height="16" version="1.1">
 <circle style="fill:#235b92" cx="8" cy="8" r="7"/>
 <path style="fill:#f4f4f7" d="M 6.8951228,3.0999998 C 6.20207,3.2583455 5.5504783,3.5618728 4.9833515,3.9905483 L 4.9063065,4.1325528 C 5.4180698,3.8001848 6.2278235,3.833835 6.8346954,3.7699885 Z m 2.2101317,0.00229 0.1087694,1.1987282 C 10.130372,4.8513084 10.778101,5.7563239 11.00343,6.8011928 l 1.927634,0.2265871 C 12.543983,5.0780034 11.04443,3.5393698 9.1052545,3.1022661 Z M 3.6516828,5.4967166 C 3.3762932,5.9717641 3.1805858,6.4887173 3.0723351,7.02704 L 3.4152607,6.9870067 C 3.417465,6.404177 3.6516828,5.4967166 3.6516828,5.4967166 Z"/>
 <path style="fill:#363636" d="M 3.0689362,8.9720311 C 3.456017,10.921808 4.9559479,12.46082 6.8951228,12.897923 L 6.7642598,11.450121 C 5.357805,11.280533 4.1551222,10.354961 3.6318551,9.0385012 Z m 9.8583498,0 -2.191436,0.2575717 C 10.423537,9.9087104 9.9197914,10.483513 9.2880473,10.883048 L 9.1052545,12.9 C 11.043687,12.46162 12.541199,10.921553 12.927286,8.9720311 Z"/>
 <path style="fill:#f75151" d="M 8,8e-8 7,7 1.8181819,8 7,9 8,16 9,9 14.181818,8 9,7 Z"/>
</svg>
