<svg xmlns="http://www.w3.org/2000/svg" width="16" height="16" version="1.1">
 <rect style="fill:#4f4f4f" width="15" height="15" x="1" y="1" rx=".75" ry=".75"/>
 <path style="fill:#f4f4f7" d="m 2,6 v 5 H 3 V 9 H 4 V 8.1425781 H 3 V 7 H 5 V 6 Z m 4,0 v 1 h 2 v 4 H 9 V 7 h 2 V 6 Z m 6,0 v 5 h 3 V 10 H 13 V 6 Z"/>
</svg>
