<svg xmlns="http://www.w3.org/2000/svg" width="16" height="16" version="1">
 <circle style="fill:#4f4f4f" cx="8.5" cy="8.5" r="7.5"/>
 <path style="fill:#d08e3b" d="M 8.5,3 A 5.5,5.5 0 0 0 3,8.5 5.5,5.5 0 0 0 8.5,14 5.5,5.5 0 0 0 13.973,9 H 15.975 A 7.5,7.5 0 0 0 16,8.5 7.5,7.5 0 0 0 15.982,8 H 13.975 12.967 11 V 9 H 12.969 A 4.5,4.5 0 0 1 8.5,13 4.5,4.5 0 0 1 4,8.5 4.5,4.5 0 0 1 8.5,4 H 11.648 A 5.5,5.5 0 0 0 8.5,3 Z"/>
 <path style="fill:#f4f4f7" d="M 8.5,6 A 2.5,2.5 0 0 0 6,8.5 2.5,2.5 0 0 0 8.5,11 2.5,2.5 0 0 0 10,10.496 V 11 H 11 V 8.5 6 H 10 V 6.502 A 2.5,2.5 0 0 0 8.5,6 Z M 8.5,7 A 1.5,1.5 0 0 1 10,8.5 1.5,1.5 0 0 1 8.5,10 1.5,1.5 0 0 1 7,8.5 1.5,1.5 0 0 1 8.5,7 Z"/>
</svg>
