<svg width="16" height="16" version="1.1" xmlns="http://www.w3.org/2000/svg">
 <circle cx="8" cy="8" r="8" style="fill:#284c5e"/>
 <path d="m7.878797 3.0000604c-0.559067 0.018876-3.4864842 2.5426649-3.378797 4.3871129 0.032256 0.5524472 0.699966 1.6114016 0.699966 1.6114016s-1.2080256 1.4193421-1.199966 2.4163201c0.00745 0.921175 0.6100744 1.36286 1.5999548 1.384774 0.8535172 0.018892 1.5650552-0.772567 1.5999552-2.000576 0.01836-0.646037-1.019503-2.5491713-1.019503-2.5491713s2.9592-3.2831529 4.219412-3.2528641c0.549402 0.013204 0.812165 0.6073521 0.799977 1.4007689-0.02216 1.4424652-0.301802 3.5995837-1.899796 3.6011845-0.9872525 9.89e-4 -1.349982-0.4264593-1.300113-0.8003785 0.02032-0.1523488 0.194988-0.437194 0.399989-0.4289236 0.232166 0.00937 0.396828-0.1389 0.399988-0.3713068 0.0039-0.2896248-0.211441-0.4019956-0.399988-0.4001152-0.671602 0.0067-0.847347 0.7218072-0.799978 1.2003456 0.05574 0.5630944 0.400102 1.4050975 1.700102 1.4003565 1.986361-0.016652 3.078623-2.4069541 3.099762-4.2011625 0.01723-1.4622968-1.096474-1.7861157-1.999943-1.8008841-1.082825-0.0177-2.720189 1.3820989-4.3998754 3.2012869-0.3218084-2.3904632 2.3597244-4.3768597 1.9601004-4.7762873-0.01627-0.016264-0.04398-0.02314-0.08125-0.021884zm-2.5327414 6.5579396s1.0013114 0.934495 0.9549444 1.957699c-0.03308 0.729837-0.411056 0.80671-0.8541656 0.816301-0.52976 0.01146-0.9453144-0.348514-0.9468344-0.974153-0.0018-0.73787 0.8460556-1.799847 0.8460556-1.799847z" style="fill:#f4f4f7"/>
</svg>
