<svg xmlns="http://www.w3.org/2000/svg" width="16" height="16" version="1.1">
 <circle style="fill:#b2bfd9" cx="8" cy="8" r="8"/>
 <path style="fill:#356899" d="m 10.094811,2.4829916 c 0,0 -0.3854254,0.8753524 -0.5724034,1.2920492 C 9.322,4.1658564 9.1051672,4.6326288 8.9170996,5.029484 8.7219036,5.4413812 8.5317312,5.8557504 8.3431296,6.2708692 8.0171868,6.9882812 7.6959952,7.7080008 7.3619492,8.4214044 6.9012244,9.492754 6.2952632,10.519631 6.0358544,11.665796 c -0.1170188,0.494584 -0.04687,1.194216 0.5592028,1.309665 0.3203856,0.07006 0.68214,-0.01083 0.9290448,-0.230718 0.41091,-0.472796 0.4328892,-1.146322 0.4790044,-1.741757 -0.00128,-0.187758 -0.00673,-0.439459 -0.013816,-0.702458 C 7.9718424,9.652829 7.9444192,8.9364004 7.9444192,8.9364004 L 7.50568,9.828836 c -0.045699,0.318114 -0.0538,0.64595 -0.086988,0.969405 -0.00914,0.08914 -0.020196,0.177962 -0.034472,0.26614 C 7.333862,11.39521 7.0944552,12.484839 6.7409252,12.00202 6.4180172,11.561022 6.8860552,10.951111 7.0676056,10.466005 7.7375844,8.9573136 8.5531344,7.5191708 9.4299608,6.1213464 9.7265136,5.648586 9.9337936,5.3368816 10.241106,4.872174 10.430668,4.5400496 10.989052,3.7147856 10.989052,3.7147856 Z M 4.8632152,4.034594 C 4.636716,4.032914 4.409372,4.071602 4.2014504,4.146558 3.4436692,4.4365332 3.1074448,5.2406196 3.0997588,6.055074 c -0.00184,0.1951256 0.015168,0.3908532 0.049762,0.5802376 L 3.1987124,6.917406 3.5224964,6.4561124 C 3.5393484,5.88404 3.7033248,5.3204136 4.2514968,5.1124492 4.789378,4.8443896 5.3757844,5.1879508 5.711682,5.6494776 6.3551667,6.5336323 6.9532032,7.4185864 7.1846012,8.4445284 7.3411676,8.121244 7.6366832,7.5184276 7.6366832,7.5184276 7.1270222,5.9093841 5.8411219,4.0428657 4.8632152,4.034594 Z"/>
 <path style="fill:#75b4f4" d="m 12.177066,1.8000018 -2.082255,0.6829898 0.894239,1.231794 z"/>
 <path style="fill:#7fb9f5" d="m 10.383644,1.9534404 0.890604,0.1444228 -1.179449,0.385126 z"/>
 <path style="fill:#5fa4e9" d="M 10.094799,2.4829892 10.989062,3.7147988 9.52239,3.7750332 Z"/>
 <path style="fill:#4993dd" d="M 9.52239,3.7750332 10.989062,3.7147988 10.241114,4.872178 Z"/>
 <path style="fill:#3c8ce0" d="M 9.52239,3.7750332 10.241114,4.872178 8.9171164,5.029486 Z"/>
 <path style="fill:#3d81c3" d="M 8.9171164,5.029486 10.241114,4.872178 9.4299592,6.121346 Z"/>
 <path style="fill:#3b73ac" d="M 8.9171164,5.029486 9.4299592,6.121346 8.3431316,6.2708592 Z"/>
 <path style="fill:#407ebc" d="M 7.9444196,8.936402 7.9893076,10.300545 7.505658,9.828839 Z"/>
 <path style="fill:#3871ab" d="M 7.9893076,10.300545 7.505658,9.828839 7.418702,10.798242 Z"/>
 <path style="fill:#547fa9" d="M 3.1495316,6.6353108 3.522478,6.45613 3.1987116,6.9173844 Z"/>
 <path style="fill:#3771aa" d="m 3.0997588,6.055074 c -0.00184,0.1951256 0.015168,0.3908532 0.049762,0.5802376 L 3.5224964,6.4561124 Z"/>
</svg>
