<svg xmlns="http://www.w3.org/2000/svg" width="16" height="16" version="1">
 <path style="fill:#c2352a" d="M 7.999768,7.3783858e-6 C 7.580701,7.3783858e-6 7.161355,0.15620588 6.848093,0.46946058 L 0.46944614,6.8488182 c -0.6265247,0.6265088 -0.6256359,1.6749775 9.143e-4,2.301487 L 6.849007,15.529663 c 0.626525,0.626509 1.675928,0.627398 2.302453,9.14e-4 l 6.378647,-6.3793571 c 0.626524,-0.6265095 0.626524,-1.6758758 0,-2.3023849 L 9.151443,0.46946058 C 8.838181,0.15620588 8.418834,7.3783858e-6 7.999768,7.3783858e-6 Z"/>
 <path style="fill:#17191e" d="M 4.3359375 2.9804688 L 3.9804688 3.3359375 L 6.25 5.6054688 L 6.25 10.5 L 6.75 10.5 L 6.75 6.1054688 L 9.8222656 9.1777344 L 10.177734 8.8222656 L 4.3359375 2.9804688 z"/>
 <circle fill="#fff" cx="9.5" cy="8.5" r="1.5"/>
 <circle fill="#fff" cx="6.5" cy="10.5" r="1.5"/>
 <circle fill="#fff" cx="6.5" cy="5.5" r="1.5"/>
</svg>
