<svg xmlns="http://www.w3.org/2000/svg" width="16" height="16" version="1.1">
 <path style="fill:#2b5fa9" d="m 11.586058,9.9999949 a 1.5876451,1.5874603 0 0 0 -1.105691,2.7251111 l 2.777803,2.77748 a 1.5876451,1.5874603 0 1 0 2.244357,-2.244095 l -2.777803,-2.77748 A 1.5876451,1.5874603 0 0 0 11.586058,9.9999949 Z"/>
 <path style="fill:#2b5fa9" d="M 9.5449219,8.8378906 8.8378906,9.5449219 10.835938,11.542969 11.542969,10.835938 Z"/>
 <path style="fill:#4c8fe8" d="M 1.7645734,0 C 0.80463565,0 0,0.791256 0,1.7540565 V 3 H 1 V 4 H 0 V 8.2459437 C 0,9.2087446 0.80463565,10 1.7645734,10 H 8.2354269 C 9.1953646,10 10,9.2087446 10,8.2459437 V 1.7540565 C 10,0.791256 9.1953646,0 8.2354269,0 Z"/>
 <path style="fill:#f4f4f7" d="M 2.4116588,0.99999945 C 1.6437085,0.99999945 1,1.6330044 1,2.403245 V 7.5967546 C 1,8.3669955 1.6437085,9 2.4116588,9 H 7.5883416 C 8.3562919,9 9.0000003,8.3669955 9.0000003,7.5967546 V 2.403245 c 0,-0.7702406 -0.6437084,-1.40324555 -1.4116587,-1.40324555 z"/>
 <path style="fill:none;stroke:#feae12" d="M 6.3333336,6.7331113 3.6666668,3.5 M 1,3.5 h 5.3333336"/>
 <circle style="fill:#feae12" cx="7" cy="3.5" r="1"/>
 <circle style="fill:#feae12" cx="6" cy="6.5" r="1"/>
 <circle style="fill:#feae12" cx="4" cy="3.5" r="1"/>
</svg>
