<svg xmlns="http://www.w3.org/2000/svg" width="16" height="16" version="1.1">
 <path style="fill:#b2bfd9" d="M 2.1538462,2 H 14.846154 C 15.483361,2 16,2.5014843 16,3.12 V 14.88 C 16,15.498515 15.483361,16 14.846154,16 H 2.1538462 C 1.5166391,16 1,15.498515 1,14.88 V 3.12 C 1,2.5014843 1.5166391,2 2.1538462,2 Z m 0,0"/>
 <path style="fill:none;stroke:#e9a119;stroke-linejoin:round" d="M 8.5,3.4285713 V 16"/>
 <path style="fill:none;stroke:#e22e28" d="M 8.5,16 V 12.778571 C 8.5,12.06875 9.1116072,11.5 9.8214286,11.5 H 11.279 c 0.709822,0 1.221,-0.61875 1.221,-1.328571 V 7.1428571"/>
 <path style="fill:none;stroke:#1a5fb4;stroke-linejoin:round" d="m 8.471,16 c 0,-0.709821 -0.5401785,-1.450285 -1.25,-1.450285 H 5.6785715 C 4.96875,14.549715 4.5,13.938108 4.5,13.228286 V 7.7142856 C 4.5,7.0044642 4.96875,6.5 5.6785715,6.5 H 7.221 C 7.9308215,6.5 8.5,5.8526785 8.5,5.1428571 V 4.2857142"/>
 <path style="fill:#f65d5a" d="M 11,6.5 C 11,5.6760255 11.676026,5 12.5,5 13.323974,5 14,5.6760255 14,6.5 14,7.3239744 13.323974,8 12.5,8 11.676026,8 11,7.3239744 11,6.5 Z m 0,0"/>
 <path style="fill:#5292de" d="M 3,10.5 C 3,11.323974 3.6760256,12 4.5,12 5.3239745,12 6,11.323974 6,10.5 6,9.6760254 5.3239745,9 4.5,9 3.6760256,9 3,9.6760254 3,10.5 Z m 0,0"/>
 <path style="fill:#ffc425" d="M 7,4.5 C 7,5.3239745 7.6760257,6 8.5,6 9.3239745,6 10,5.3239745 10,4.5 10,3.6760255 9.3239745,3 8.5,3 7.6760257,3 7,3.6760255 7,4.5 Z m 0,0"/>
 <path style="fill:#f4f4f7" d="M 9,4.5 C 9,4.7763674 8.7763674,5 8.5,5 8.2236327,5 8,4.7763674 8,4.5 8,4.2236327 8.2236327,4 8.5,4 8.7763674,4 9,4.2236327 9,4.5 Z m 0,0"/>
 <path style="fill:#f4f4f7" d="M 5,10.5 C 5,10.776367 4.7763674,11 4.5,11 4.2236327,11 4,10.776367 4,10.5 4,10.223632 4.2236327,10 4.5,10 4.7763674,10 5,10.223632 5,10.5 Z m 0,0"/>
 <path style="fill:#f4f4f7" d="M 13,6.5 C 13,6.776367 12.776367,7 12.5,7 12.223633,7 12,6.776367 12,6.5 12,6.223632 12.223633,6 12.5,6 12.776367,6 13,6.223632 13,6.5 Z m 0,0"/>
</svg>
