<svg xmlns="http://www.w3.org/2000/svg" width="16" height="16" version="1.1">
 <circle stroke-miterlimit="10" style="fill:#b2bfd9" cx="8" cy="8" r="8"/>
 <path style="fill:#444444" d="M 6.9914196,14.482008 6.9914036,16 H 8 v -3.184483 c 0,0 0.9994828,-0.795247 1.0864612,-0.842474 -0.06711,-0.01988 -0.2863872,-0.04951 -0.2863872,-0.04951 -0.065718,-0.05285 -0.1880824,-0.05933 -0.270108,-0.08705 l -0.03228,0.0267 L 8,12.235795 V 8.2331726 C 7.99952,7.7882578 8.2177604,7.2487838 8.588108,7.0025742 l 0.0038,-0.00304 C 8.604684,6.9907142 8.609696,6.9868022 8.622136,6.9771902 8.685978,6.9182426 8.8490332,6.7958022 8.8928888,6.7732954 8.8779848,6.698435 8.8105112,6.6373794 8.736222,6.5868274 8.674798,6.5450234 8.284972,6.6251194 8.2166316,6.5958434 8.150328,6.5674314 8.14287,6.5780834 8.1019448,6.6432158 L 7.9128368,6.8190042 C 7.4745012,7.1571158 7.008948,8.119668 7.0085964,8.6734232 V 9.2732223 C 6.9305544,9.1448999 6.724129,8.9945148 6.6444788,8.8858894 L 5.9499389,8.8726863 c 0.0576,0.00252 0.4521145,0.4411692 0.5072085,0.496278 0.055109,0.055124 0.5342682,0.5597484 0.5342682,0.5597484 v 4.5532953"/>
 <path style="fill:#ff6d00" d="m 8.2716512,6.9988809 c 0.081088,0.00481 0.1945148,-0.00593 0.3012744,-0.03135 C 8.7293724,6.9344267 8.8978496,6.8917096 9.0697112,6.8389796 9.243624,6.7876408 9.4164824,6.7209529 9.5942928,6.6501525 9.7713416,6.5798654 9.943218,6.4927178 10.114786,6.4019562 c 0.168492,-0.096659 0.336031,-0.1943617 0.492903,-0.3090313 0.15655,-0.1184651 0.312352,-0.2276147 0.454849,-0.3619276 0.288454,-0.2543205 0.547675,-0.5364497 0.773898,-0.8443014 0.114408,-0.1433255 0.219967,-0.3157609 0.32066,-0.4706697 0.10128,-0.1536234 0.19579,-0.3274192 0.286739,-0.4860634 0.09093,-0.1556042 0.178309,-0.3138551 0.25843,-0.4694143 0.08526,-0.1593696 0.159289,-0.298325 0.221021,-0.4124046 0.06642,-0.1125221 0.118717,-0.233558 0.158001,-0.3031788 0.03867,-0.079602 0.05921,-0.1215959 0.05921,-0.1215959 0,0 -0.02969,-0.032783 -0.08767,-0.079904 C 12.995657,2.5011108 12.907443,2.4196792 12.79535,2.3581941 12.68392,2.2946525 12.53518,2.1964504 12.374132,2.1461699 12.212029,2.0914595 12.025486,2.0464564 11.817915,2.0148516 11.614272,1.9916245 11.401134,1.9981422 11.170734,2.0172266 10.94013,2.0364599 10.719694,2.1022724 10.48424,2.175462 10.252551,2.254035 10.033684,2.3656954 9.8116364,2.4918879 9.5988644,2.6250967 9.3920856,2.7785688 9.1971312,2.9469513 9.0118328,3.1228947 8.8259488,3.3052193 8.67063,3.5086698 8.5121608,3.7099123 8.3680808,3.9209686 8.2502436,4.1428524 8.005558,4.5799512 7.849946,5.0503938 7.7591724,5.479206 c -0.042185,0.2179971 -0.070699,0.422778 -0.083769,0.6140551 -0.015664,0.1888271 -0.00882,0.3682034 -0.00482,0.5123605 -1.468e-4,0.067671 0.00536,0.1329821 0.01206,0.1913676 0.044895,-0.067217 0.09366,-0.1384863 0.1472302,-0.2156384 C 8.096714,6.199659 8.4725708,5.7089681 8.887096,5.2625089 9.0940364,5.0385834 9.3131968,4.8308084 9.5240056,4.6452625 c 0.1092652,-0.08742 0.2150576,-0.171543 0.314872,-0.2510842 0.1043712,-0.071799 0.2031164,-0.1395296 0.2938304,-0.201938 0.09504,-0.053485 0.182427,-0.1019667 0.259705,-0.1454875 0.0755,-0.047242 0.148886,-0.068427 0.205724,-0.09433 0.115185,-0.048027 0.180756,-0.075156 0.180756,-0.075156 0,0 -0.06399,0.033104 -0.175554,0.090685 -0.05515,0.031317 -0.12575,0.058159 -0.197695,0.1114938 -0.07334,0.049313 -0.155934,0.1047346 -0.246282,0.165313 -0.08553,0.06953 -0.178104,0.1443687 -0.276204,0.2236979 C 9.790714,4.554985 9.6928632,4.6465179 9.5913932,4.7413021 9.3963656,4.9414101 9.1961216,5.1630068 9.0088012,5.3993468 8.6326516,5.8695023 8.280166,6.349532 8.0161972,6.7302562 7.9746864,6.8008304 7.8840884,6.9144717 7.8779636,6.9196733 c 0,1.55e-5 0.2976844,0.080327 0.3936892,0.079208 z"/>
 <path style="fill:#444444" d="m 8.708578,11.994866 c 0.076018,0.0032 0.1573116,0.0069 0.2426928,0.0042 0.1246948,-0.0012 0.259734,-0.0073 0.3984072,-0.01969 0.1401388,-0.01117 0.2810244,-0.03284 0.4262036,-0.05662 0.1445344,-0.02353 0.2867824,-0.05917 0.4291924,-0.09725 0.140622,-0.04249 0.280614,-0.08583 0.4141,-0.142041 0.133618,-0.05882 0.265698,-0.111471 0.390085,-0.18288 0.249946,-0.132718 0.480111,-0.288151 0.687359,-0.465423 0.103536,-0.0813 0.203218,-0.183445 0.297318,-0.274405 0.09442,-0.09003 0.185679,-0.194577 0.272614,-0.289394 0.08661,-0.09275 0.170733,-0.187782 0.248949,-0.281976 0.0826,-0.09606 0.154381,-0.179872 0.214047,-0.2485408 0.06315,-0.066987 0.116211,-0.1416312 0.153883,-0.1833184 0.03822,-0.04851 0.05849,-0.074079 0.05849,-0.074079 0,0 -0.01962,-0.026134 -0.05969,-0.065773 C 12.842289,9.5814 12.782359,9.5145107 12.701825,9.4578781 12.622024,9.3999733 12.516891,9.3135902 12.397252,9.2579038 12.277261,9.1990815 12.137313,9.1435083 11.979679,9.0941504 11.824228,9.0509662 11.65833,9.0265981 11.477736,9.008361 c -0.180756,-0.018165 -0.35845,-0.00353 -0.548554,0.014111 -0.187731,0.021754 -0.368956,0.067567 -0.554166,0.1227727 -0.178734,0.061182 -0.354918,0.1368708 -0.5234824,0.2242004 -0.161854,0.093742 -0.324836,0.1917234 -0.466308,0.3080681 -0.1436844,0.1144524 -0.277244,0.2374512 -0.3915644,0.3713135 -0.2349416,0.262016 -0.4042976,0.558557 -0.5190724,0.83576 -0.05527,0.141447 -0.098598,0.275832 -0.1285188,0.403195 -0.031696,0.125344 -0.044969,0.247354 -0.056794,0.345208 -0.00711,0.04566 -0.00961,0.0905 -0.010476,0.13081 0.04176,-0.03931 0.086949,-0.08083 0.1364608,-0.125682 0.2463852,-0.221616 0.5885556,-0.502096 0.9561336,-0.747485 0.1836128,-0.123211 0.3750212,-0.233878 0.5576528,-0.330643 0.093748,-0.04426 0.1844778,-0.08676 0.2700938,-0.126968 0.08834,-0.03437 0.171905,-0.06675 0.248685,-0.09664 0.07921,-0.02327 0.151978,-0.04419 0.216392,-0.06313 0.06342,-0.02168 0.122511,9.75e-4 0.169253,-0.0088 0.09426,-0.01687 0.147905,-0.05337 0.147905,-0.05337 0,0 -0.05303,0.0137 -0.145487,0.03751 -0.04599,0.01369 -0.103492,0.02228 -0.164799,0.04857 -0.06195,0.02339 -0.131728,0.04964 -0.208039,0.07833 -0.07351,0.03538 -0.153019,0.0734 -0.237287,0.113704 -0.08062,0.04592 -0.165941,0.09451 -0.2544292,0.144782 -0.1719056,0.108745 -0.3500824,0.231277 -0.5197608,0.36552 -0.34028,0.26658 -0.6520164,0.565834 -0.8746204,0.799513 -0.034316,0.03617 -0.065864,0.06988 -0.09555,0.102162"/>
 <path style="fill:#444444" d="M 6.6444788,8.8858894 C 6.6077148,8.8424761 6.5686364,8.7971117 6.5261728,8.7484095 6.2507164,8.4337564 5.8659948,8.0297024 5.4481872,7.6671937 5.2397964,7.4847178 5.0216616,7.3171765 4.8115268,7.1679242 4.7035804,7.0985531 4.5994876,7.0315305 4.5011092,6.9681652 4.3985696,6.9120039 4.3018324,6.8590217 4.2123776,6.8097448 4.1198016,6.7690915 4.0351676,6.7318915 3.960014,6.6987635 3.885534,6.6618658 3.816256,6.6482729 3.7605904,6.6284823 3.6488344,6.5935489 3.5847288,6.5734392 3.5847288,6.5734392 c 0,0 0.064677,0.014587 0.1783528,0.040524 0.056428,0.014742 0.1274492,0.022938 0.2043028,0.053909 0.077938,0.027427 0.1659856,0.057774 0.2618292,0.091462 0.093176,0.042231 0.1945732,0.088011 0.3017872,0.1366013 0.1041368,0.056098 0.2145012,0.1154053 0.3285576,0.1771252 0.22256,0.1340457 0.4561684,0.2866047 0.6808532,0.4552478 0.4497648,0.3359611 0.7839348,0.7299845 1.0874948,1.0298465 0.061028,0.060666 0.1018656,0.1168111 0.15337,0.1699057 -0.00248,-0.052728 0.00212,-0.1109011 -0.00244,-0.171391 0.0022,-0.1038411 -0.02214,-0.285151 -0.050874,-0.4535549 C 6.6975864,7.9343278 6.6552556,7.745479 6.6010256,7.55746 6.4533264,7.1903668 6.2543428,6.7957688 5.9630612,6.4435632 5.8210912,6.2638665 5.6564532,6.097555 5.479976,5.9420253 5.3060776,5.7840996 5.10705,5.6492872 4.9095168,5.5200651 4.7041588,5.3989416 4.4900976,5.2927372 4.2735012,5.2053644 4.0493584,5.1255626 3.83033,5.0581725 3.6043556,5.0219938 3.3757,4.9911183 3.1620196,4.9971227 2.9458628,5.0133805 2.7299112,5.0297538 2.531792,5.0547671 2.3468892,5.1047782 2.1595984,5.1627924 1.9937296,5.2296399 1.8519351,5.3015825 1.7104485,5.3694358 1.5874537,5.4454834 1.4938375,5.5179211 1.3992982,5.5886211 1.329815,5.6735815 1.2832194,5.7193921 1.2365798,5.7695476 1.214,5.8028992 1.214,5.8028992 c 0,0 0.025247,0.034262 0.072839,0.099257 0.046684,0.056049 0.113031,0.1558168 0.1912033,0.2459847 0.074055,0.092229 0.1631726,0.204743 0.2657269,0.3337092 0.097221,0.126363 0.2015628,0.2540514 0.3087916,0.3788646 0.107712,0.1275289 0.220948,0.2679639 0.3374516,0.3895349 0.1161668,0.1227844 0.2394256,0.2604243 0.3665524,0.3709741 0.2550012,0.2402665 0.5366996,0.4529637 0.8413,0.6367654 0.1517728,0.09849 0.3121028,0.1727643 0.4744988,0.2551696 0.1621472,0.079002 0.3316348,0.1414253 0.5018408,0.2027777 0.172184,0.055667 0.3441044,0.1081055 0.5183252,0.1448599 0.1749972,0.037089 0.344778,0.071224 0.5132696,0.091621 0.1668064,0.021916 0.3289828,0.035458 0.4786016,0.0422 0.1025252,0.00711 0.1998924,0.00548 0.2909588,0.00448"/>
</svg>
