<svg xmlns="http://www.w3.org/2000/svg" height="16" width="16" version="1.1">
 <rect style="fill:#17191e" rx="1" ry="1" height="16" width="10" y="0" x="3"/>
 <circle r="3" style="fill:#4f4f4f" cx="8" cy="12"/>
 <rect style="fill:#0f92db" rx="1" ry="1" height="7" width="8" y="1" x="4"/>
 <path style="fill:#0f92db" d="m8 10a2 2 0 0 0 -2 2 2 2 0 0 0 2 2 2 2 0 0 0 2 -2 2 2 0 0 0 -2 -2zm0 1a1 1 0 0 1 1 1 1 1 0 0 1 -1 1 1 1 0 0 1 -1 -1 1 1 0 0 1 1 -1z"/>
</svg>
