<svg xmlns="http://www.w3.org/2000/svg" width="16" height="16" version="1">
 <rect fill="#8e8e8e" width="12" height="10" x="-15" y="-13" rx=".75" ry=".833" transform="matrix(0,-1,-1,0,0,0)"/>
 <rect style="fill:#4f4f4f" width="12" height="16" x="-13" y="-16" rx=".75" ry=".8" transform="matrix(0,-1,-1,0,0,0)"/>
 <rect style="fill:#2c80c2" width="8" height="12" x="-11" y="-14" rx="0" ry="0" transform="matrix(0,-1,-1,0,0,0)"/>
 <path style="fill:#f4f4f7" d="m 4.5000002,4.0004998 c -0.2770001,0 -0.5,0.223 -0.5,0.5 l 0,4.9995 c 0,0.277 0.2695573,0.346295 0.5,0.5 l 2.5,0 0,0.5000002 0,0.5 0.5,0 1,0 0.5,0 0,-0.5 0,-0.5000002 2.4999998,0 c 0.230443,-0.153705 0.5,-0.223 0.5,-0.5 l 0,-4.9995 c 0,-0.277 -0.24283,-0.3970804 -0.5,-0.5 l -2.4999998,0 -2.0000001,0 z m 0.9003906,1 1.5996094,0 2,0 1.5996088,0 c 0.2216,0 0.400391,0.16725 0.400391,0.375 l 0,3.2495 c 0,0.20775 -0.178791,0.375 -0.400391,0.375 l -1.5996088,0 -2.0000001,0 -1.5996094,0 c -0.2216,0 -0.4003906,-0.16725 -0.4003906,-0.375 l 0,-3.2495 c 0,-0.20775 0.2125136,-0.2574895 0.4003906,-0.375 z"/>
</svg>
