<svg xmlns="http://www.w3.org/2000/svg" width="16" height="16" version="1">
 <rect style="fill:#55b65a" width="6" height="5" x="8" y="2" ry=".417"/>
 <rect style="fill:#fec006" width="6" height="5" x="9" y="6" ry=".417"/>
 <rect style="fill:#fe6c06" width="6" height="5" x="10" y="10" ry=".417"/>
 <path style="fill:#3f89db" d="M 1.75,0 C 1.3345,0 1,0.3568 1,0.8 V 15.2 C 1,15.643 1.3345,16 1.75,16 H 3.2419 12.25 C 12.666,16 13,15.643 13,15.2 V 0.8 C 13,0.3568 12.666,0 12.25,0 H 6.9919 3.2419 Z"/>
 <path style="fill:#f4f4f7" d="M 6.9999,4.0002 C 4.7908,4.0002 3,5.791 3,8.0001 3,10.209 4.7908,12 6.9999,12 H 9.4998 C 9.4998,12 9.9685,12 9.9998,11.5 9.9998,11 9.4998,11 9.4998,11 H 6.9999 C 5.3431,11 4,9.6569 4,8.0001 4,6.3433 5.3431,5.0002 6.9999,5.0002 8.6567,5.0002 9.9998,6.3433 9.9998,8.0001 V 8.5001 C 9.9998,8.7762 9.7759,9.0001 9.4998,9.0001 9.2237,9.0001 8.9998,8.7762 8.9998,8.5001 V 8.0001 C 8.9998,6.8956 8.1044,6.0001 6.9998,6.0001 5.8953,6.0001 4.9998,6.8955 4.9998,8.0001 4.9998,9.1046 5.8952,10 6.9998,10 7.5229,10 7.9949,9.7947 8.3513,9.4659 8.6363,9.8044 9.0568,9.9999 9.4998,9.9999 10.328,9.9999 11,9.3283 11,8.4999 V 7.9999 C 11,5.791 9.2088,4 6.9998,4 Z M 6.9999,7.0001 C 7.5522,7.0001 7.9999,7.4478 7.9999,8.0001 7.9999,8.5523 7.5522,9 6.9999,9 6.4476,9 5.9999,8.5523 5.9999,8 5.9999,7.4477 6.4476,7 6.9999,7 Z"/>
</svg>
