<svg xmlns="http://www.w3.org/2000/svg" width="16" height="16" version="1">
 <path style="fill:#5e576c" d="M 5.001213,0 4.9987869,1.377738 1,4.6080414 1.6840016,6.0230158 3.6562239,5.4763526 C 3.9225224,5.8235182 4.327504,6.0259134 4.7559547,6.0259586 5.4922281,6.0250786 5.947728,5.3959586 6,4.6364902 v -6e-4 1.3871216 C 6,7 4.5705345,6.943222 3.8281041,7.1754112 2.7320912,7.5181806 1.979144,8.6365512 1.979,9.8184268 L 2.9565239,12 H 8.4347907 L 10,9.84896 V 5.3852252 C 10,3.0201332 8.6461673,1.2147748 6.3597296,1.2147748 c -0.02448,0.00104 -0.04896,0.00224 -0.07344,0.00372 0.00364,-0.117218 -0.0072,-0.034242 -0.032255,-0.1486247 C 6.1155054,0.44474872 5.6212785,0.00119156 5.001213,0 Z"/>
 <path style="fill:#756a89" d="M 2.1947668,12 C 1.6364827,12 1,12.576607 1,13 h 9 C 10,12.576607 9.3635173,12 8.8052332,12 Z"/>
 <path style="fill:#cccccc" d="m 11,9.2 -3.2,6.4 h 6.4 z"/>
 <path style="fill:#b2bfd9" d="M 8.0620148,15 C 7.5657624,15 7,15.576607 7,16 h 8 c 0,-0.423393 -0.565762,-1 -1.062015,-1 z"/>
 <circle style="fill:#b2bfd9" cx="11" cy="8" r="3"/>
</svg>
