<svg width="16" xmlns="http://www.w3.org/2000/svg" version="1.1" height="16">
 <path style="fill:#c2352a" d="m6.5 5c-0.277 0-0.5 0.223-0.5 0.5v0.5h-1s-1 4-3 4v2s0 2 2 2h8c2 0 2-2 2-2v-2c-2 0-3-4-3-4h-1v-0.5c0-0.277-0.223-0.5-0.5-0.5s-0.5 0.223-0.5 0.5v0.5h-2v-0.5c0-0.277-0.223-0.5-0.5-0.5z"/>
 <path style="fill:#c2352a" d="m1 8 3-2v-1c1-1 3-1 3-1h2s2 0 3 1v1l3 2s1 0 1-1v-2s-1-3-8-3-8 3-8 3v2c0 1 1 1 1 1z"/>
 <path style="fill:#f4f4f7" d="m8 7a3 3 0 0 0 -3 3 3 3 0 0 0 3 3 3 3 0 0 0 0.9472656 -0.15625l-0.3164062-0.949219a2 2 0 0 1 -0.6308594 0.105469 2 2 0 0 1 -2 -2 2 2 0 0 1 2 -2 2 2 0 0 1 2 2 2 2 0 0 1 -0.3378906 1.109375l0.8320316 0.552734a3 3 0 0 0 0.505859 -1.662109 3 3 0 0 0 -3 -3z"/>
</svg>
