<svg xmlns="http://www.w3.org/2000/svg" width="16" height="16" version="1">
 <rect fill="#4f4f4f" width="12" height="6" x="2" y="5"/>
 <path fill="#b2bfd9" d="m8 0c-3.3668 0-6.2188 2.0664-7.4004 5h14.802c-1.182-2.9337-4.035-5-7.402-5zm-7.4004 11c1.1819 2.934 4.0338 5 7.4004 5 3.367 0 6.22-2.066 7.402-5h-14.802z"/>
 <circle fill="#ff6363" cx="8" cy="8" r="2"/>
 <circle fill="#ff6363" cx="12" cy="8" r="2"/>
 <circle fill="#ff6363" cx="4" cy="8" r="2"/>
</svg>
