<svg xmlns="http://www.w3.org/2000/svg" width="16" height="16" version="1">
 <rect style="fill:#4f4f4f" width="16" height="14" x="0" y="1" rx="1.2" ry="1.167"/>
 <rect style="fill:#f4f4f7" width="4" height="1" x="7" y="8" rx=".3" ry=".3"/>
 <rect style="fill:#a2a2a2" width="4.531" height="1.133" x="-4.75" y="7.32" rx=".34" ry=".34" transform="matrix(0.72149705,-0.69241751,0.72149705,0.69241751,0,0)"/>
 <rect style="fill:#f4f4f7" width="4.531" height="1.133" x="3.92" y="-1.35" rx=".34" ry=".34" transform="matrix(0.72149705,0.69241751,0.72149705,-0.69241751,0,0)"/>
</svg>
