<svg xmlns="http://www.w3.org/2000/svg" width="16" height="16" version="1">
 <rect style="fill:#b2bfd9" width="16" height="16" x="0" y="0" rx=".8" ry=".8"/>
 <path style="fill:#539710" d="M 0.8,2e-7 C 0.52480236,2e-7 0.28290032,0.13803876 0.13906248,0.34843772 L 1.6,4.0000002 l 1.6,-4 z"/>
 <path style="fill:#e64040" transform="matrix(0.20737479,0,0,-0.29931972,4.8,20.435374)" d="M 2.3871817e-7,54.909093 7.715499,68.27273 l -15.4309982,-10e-7 z"/>
 <path style="fill:#539710" transform="matrix(0.20737479,0,0,-0.29931972,8,20.435374)" d="M 2.3871817e-7,54.909093 7.715499,68.27273 l -15.4309982,-10e-7 z"/>
 <path style="fill:#e64040" transform="matrix(0.20737479,0,0,-0.29931972,11.2,20.435374)" d="M 2.3871817e-7,54.909093 7.715499,68.27273 l -15.4309982,-10e-7 z"/>
 <path style="fill:#539710" d="m 12.8,2e-7 1.6,4 1.460938,-3.65156248 C 15.7171,0.13803876 15.475198,2e-7 15.2,2e-7 Z"/>
 <path style="fill:#17191e" d="M 5,9.607489 C 4.8383232,9.736604 4.6556885,9.834732 4.4520958,9.901872 4.2504992,9.967291 4.031936,10 3.796407,10 3.229541,10 2.7884233,9.825264 2.473054,9.4757911 2.1576845,9.1245968 2,8.6330968 2,8.0012911 2,7.3712074 2.1596806,6.8805684 2.4790423,6.529374 2.7984031,6.176458 3.2425148,6 3.8113772,6 3.999002,6 4.1786428,6.02324 4.3502993,6.069722 4.521956,6.114482 4.6876247,6.1833443 4.8473053,6.2763073 V 6.8108454 C 4.6856285,6.678287 4.5199598,6.58102 4.3502993,6.5190444 4.1806385,6.4553474 4.0009978,6.423499 3.8113772,6.423499 c -0.3932134,0 -0.6886227,0.131698 -0.8862274,0.3950937 -0.1956087,0.261674 -0.2934131,0.6559067 -0.2934131,1.1826984 0,0.5353993 0.09481,0.9322147 0.2844311,1.1904457 0.1916167,0.2565097 0.4850299,0.3847643 0.8802392,0.3847643 0.1337325,0 0.250499,-0.012913 0.3502995,-0.038735 0.101796,-0.027543 0.1936127,-0.069722 0.2754492,-0.126533 V 8.4423318 H 3.875 V 8.0136684 H 5 Z"/>
 <path style="fill:#17191e" d="M 6,6 H 6.8041887 L 8.3874345,9.2926995 V 6 H 9 v 4 H 8.1958113 L 6.6125655,6.707301 V 10 H 6 Z"/>
 <path style="fill:#17191e" d="M 10,8.4178714 V 6 h 0.649254 v 2.6596584 q 0,0.2864654 0.01919,0.4099871 0.01919,0.1208936 0.06716,0.1865966 0.102342,0.155059 0.294244,0.2339027 0.195095,0.078843 0.470148,0.078843 0.278252,0 0.470148,-0.078843 0.191898,-0.078843 0.297442,-0.2339027 0.04797,-0.065703 0.06716,-0.1865966 0.01919,-0.1208937 0.01919,-0.4047307 V 6 H 13 V 8.4178714 Q 13,9.0197111 12.907255,9.2746391 12.817705,9.5269385 12.593823,9.69251 12.382736,9.847569 12.110881,9.923785 11.839017,10 11.499998,10 11.164179,10 10.892324,9.92378 10.620468,9.84756 10.406183,9.692505 10.185501,9.5295665 10.092751,9.2720108 10,9.0118268 10,8.4178714 Z"/>
 <path style="fill:#e64040" d="M 1.6,12 0.13906248,15.651563 C 0.28290032,15.861962 0.52480236,16 0.8,16 h 2.4 z"/>
 <path style="fill:#539710" transform="matrix(0.20737479,0,0,0.29931972,4.8,-4.4353742)" d="M 2.3871817e-7,54.909093 7.715499,68.27273 l -15.4309982,-10e-7 z"/>
 <path style="fill:#e64040" transform="matrix(0.20737479,0,0,0.29931972,8,-4.4353742)" d="M 2.3871817e-7,54.909093 7.715499,68.27273 l -15.4309982,-10e-7 z"/>
 <path style="fill:#539710" transform="matrix(0.20737479,0,0,0.29931972,11.2,-4.4353742)" d="M 2.3871817e-7,54.909093 7.715499,68.27273 l -15.4309982,-10e-7 z"/>
 <path style="fill:#e64040" d="m 14.4,12 -1.6,4 h 2.4 c 0.275198,0 0.5171,-0.138038 0.660938,-0.348437 z"/>
</svg>
