<svg xmlns="http://www.w3.org/2000/svg" width="16" height="16" version="1">
 <path fill="#b2bfd9" d="m8 3c-2.0709 0-3.8347 1.2679-4.5938 3.0624-1.9278 0.2866-3.4062 1.93-3.4062 3.9375 0 2.2091 1.7909 4.0001 4 4.0001h8.5003c1.933 0 3.5-1.567 3.5-3.5 0-1.7965-1.351-3.2688-3.094-3.4685-0.454-2.2937-2.479-4.0315-4.906-4.0315z"/>
 <path opacity=".5" d="m7.25 6c-0.6905 0-1.25 0.5595-1.25 1.25s0.5595 1.25 1.25 1.25 1.25-0.5595 1.25-1.25-0.5595-1.25-1.25-1.25zm2.25 0.5c-0.236 0-0.45 0.085-0.621 0.2215 0.0755 0.161 0.121 0.339 0.121 0.5285 0 0.3175-0.1225 0.604-0.3175 0.824 0.181 0.2575 0.479 0.426 0.8175 0.426 0.5525 0 1-0.4475 1-1s-0.4475-1-1-1zm-2.25 2.5c-2.2501 0.0015-2.25 1.6-2.25 1.6v0.4h4.5v-0.3995s0-1.6015-2.25-1.6005zm2.25 0c-0.3115 0-0.5555 0.0535-0.751 0.1355 1.0955 0.338 1.221 1.1555 1.2375 1.3645h1.0135v-0.3s0-1.201-1.5-1.2z"/>
</svg>
