<svg xmlns="http://www.w3.org/2000/svg" width="16" height="16" version="1">
 <rect style="fill:#b2bfd9" width="16" height="16" x="0" y="0" rx="4.8" ry="4.8"/>
 <circle style="fill:#296ec6" cx="4.5" cy="8.5" r="2.5"/>
 <circle style="fill:#e03c90" cx="11.5" cy="8.5" r="2.5"/>
</svg>
