<svg xmlns="http://www.w3.org/2000/svg" width="16" height="16" version="1">
 <path style="fill:#b2bfd9" d="m 11.629513,3.2720776 c 1.093468,1.093468 1.493461,2.86633 0.399993,3.959798 -0.286428,0.2849008 -0.64061,0.5044548 -1.019892,0.6435776 V 15.03049 L 10.963324,15.08628 10,16 9.0955224,15.086285 9.018024,15.03049 v -0.399104 l -0.017676,-0.08983 -0.7961332,-1.0326 0.8138108,-0.970502 v -1.00729 L 8.2141584,10.49083 9.0180256,9.7446142 9.0397296,7.8754532 C 8.6604484,7.7363304 8.3557144,7.5167804 8.0692904,7.2318756 c -1.093468,-1.093468 -1.093468,-2.86633 0,-3.959798 C 8.5873348,2.7544028 8.221838,5.3433244 8.954164,5.3358512 v 0 L 9.6147096,5.06446 C 10.345955,5.07192 11.111659,2.7557452 11.629516,3.2720776 Z M 9.915682,4.1807156 C 9.4470528,3.7120864 9.8090788,4.2013516 9.3404492,4.6699828 8.8718204,5.1386116 8.7320296,4.5005048 9.2006588,4.969134 c 0.4686292,0.4686292 0.8288542,0.4686292 1.2974832,0 0.468629,-0.4686292 -0.113831,-0.3197892 -0.58246,-0.7884184 z"/>
 <path style="fill:#379dc7" d="M 10,1 C 8.9762334,1 7.9529825,1.3907967 7.171875,2.171875 c -1.5622153,1.5621563 -1.5622153,4.0940936 0,5.65625 1.5622154,1.5621563 4.094035,1.5621563 5.65625,0 1.562216,-1.5621564 1.562216,-4.0940937 0,-5.65625 C 12.047018,1.3907967 11.023766,1 10,1 Z m 0,1 c 0.255942,0 0.511753,0.097699 0.707031,0.2929688 0.390552,0.390539 0.390552,1.0235233 0,1.4140624 -0.390556,0.3905393 -1.0235087,0.3905392 -1.4140622,0 -0.3905543,-0.390539 -0.3905543,-1.0235233 0,-1.4140624 C 9.4882455,2.0976989 9.744059,2 10,2 Z"/>
 <path style="fill:#b2bfd9" d="m 10.361055,3.9171638 c 0,1.5463972 -0.9707652,3.0828377 -2.5171625,3.0828377 C 7.439902,6.9989216 7.4343456,6.9037253 7.067778,6.7339071 L 2.008403,11.99284 1.936222,11.99954 0.209,12 0.2156733,10.979125 0.2003267,10.884875 0.88188642,10.102787 0.93290701,10.026767 1,9 H 2 L 3,8 V 7 H 4 L 5.2747232,5.3409884 C 5.1049056,4.9744215 5.0446714,4.6036967 5.0435972,4.1997062 c 0,-1.5463973 1.2536027,-2.8 2.8,-2.8 C 8.5759613,1.3999676 6.486872,2.9721663 7.009989,3.4847146 v 0 L 7.6689678,3.7598884 C 8.1807614,4.282232 10.359979,3.1858835 10.361057,3.9171659 Z M 8.5066891,3.3478063 c 0,-0.6627418 -0.089972,-0.060788 -0.7527151,-0.060787 -0.6627413,0 -0.3103786,-0.5500567 -0.3103786,0.1126851 0,0.6627417 0.2547175,0.9174593 0.9174591,0.9174591 0.6627417,-1e-7 0.1456345,-0.3066158 0.1456346,-0.9693572 z"/>
 <path style="fill:#ffbb30" d="M 10.815417,1.1583226 C 10.091504,0.43441027 9.0916216,-0.01280238 7.9869894,-0.01282303 5.777725,-0.01286475 3.987375,1.7774853 3.9874167,3.9867497 c 4.18e-5,2.2092644 1.7903086,3.9995312 3.9995727,3.9995727 2.2092646,4.22e-5 3.9996146,-1.7903079 3.9995726,-3.9995727 -2e-5,-1.1046318 -0.447234,-2.1045152 -1.171145,-2.8284271 z M 10.10831,1.8654294 c 0.180978,0.1809783 0.29278,0.4309476 0.292786,0.7071066 9e-6,0.5523147 -0.4475784,0.9999022 -0.9998932,0.9998931 C 8.848885,3.5724173 8.40132,3.1248521 8.4013098,2.5725361 8.401299,2.0202198 8.8488865,1.5726323 9.401203,1.572643 c 0.2761581,4.8e-6 0.5261291,0.1118087 0.707107,0.2927864 z"/>
 <path style="fill:#b2bfd9" d="M 12 0 A 3 3 0 0 0 9 3 L 9.0234375 3 C 9.028081 3.1830463 9.0712645 3.3658464 9.1738281 3.5273438 C 9.2487704 3.5452752 9.3199445 3.5722639 9.4003906 3.5722656 C 9.6430869 3.5722697 9.8577196 3.4771225 10.029297 3.3320312 A 2 2 0 0 1 10 3 A 2 2 0 0 1 12 1 A 2 2 0 0 1 14 3 A 2 2 0 0 1 13.804688 3.8574219 C 13.94301 4.314502 13.998753 4.7876716 13.970703 5.2597656 A 3 3 0 0 0 15 3 A 3 3 0 0 0 12 0 z"/>
</svg>
