<svg xmlns="http://www.w3.org/2000/svg" width="16" height="16" version="1">
 <rect fill="#fabd7f" width="16" height="16" x="0" y="0" rx=".857" ry=".857"/>
 <path style="fill:#17191e" d="M 3 3 L 3 5 L 13 5 L 13 3 L 3 3 z M 3 7 L 3 9 L 13 9 L 13 7 L 3 7 z M 3 11 L 3 13 L 13 13 L 13 11 L 3 11 z"/>
</svg>
