<svg xmlns="http://www.w3.org/2000/svg" width="16" height="16" version="1">
 <path style="fill:#0e427e" d="M 2.8586429,1.1860349 C 2.7611933,1.1859054 2.6638688,1.2240707 2.5876467,1.3002927 L 0.30029313,3.5869141 c -0.15244403,0.1524442 -0.15244417,0.3902801 0,0.5427243 L 11.870362,15.699707 c 0.152445,0.152445 0.39028,0.152445 0.542724,0 l 2.286622,-2.286621 c 0.152437,-0.152444 0.152444,-0.39028 0,-0.542724 L 3.1296389,1.3010251 C 3.0534168,1.2248031 2.9560923,1.1861644 2.8586429,1.1860349 Z"/>
 <g transform="matrix(0.37500001,0,0,0.37500001,-0.74999985,-1.2500003)">
  <path style="fill:#1565c0" d="m 2.4472027,12.546241 c -0.5962707,0.596271 -0.5962707,1.556331 0,2.152602 L 5.4967215,17.748362 9.6225411,13.622543 5.4967215,9.4967227 Z"/>
  <rect style="fill:#1565c0" width="5.835" height="5.835" x="-8.66" y="22.27" transform="rotate(-45)"/>
  <rect style="fill:#039be5" width="5.835" height="5.835" x="-2.83" y="22.27" transform="rotate(-45)"/>
  <rect style="fill:#1565c0" width="5.835" height="5.835" x="-3.01" y="16.44" transform="matrix(-0.70710678,0.70710678,0.70710678,0.70710678,0,0)"/>
  <rect style="fill:#039be5" width="5.835" height="5.835" x="2.83" y="16.44" transform="matrix(-0.70710678,0.70710678,0.70710678,0.70710678,0,0)"/>
  <path style="fill:#039be5" d="M 5.4967215,9.4967227 9.6225411,13.622543 13.748361,9.4967227 10.698842,6.4472039 c -0.59627,-0.5962707 -1.5563311,-0.5962707 -2.1526017,0 z"/>
  <path style="fill:#039be5" d="m 30.251639,42.503279 3.049519,3.049519 c 0.59627,0.596271 1.556331,0.596271 2.152601,0 l 3.049519,-3.049519 -4.125819,-4.125819 z"/>
  <path style="fill:#1565c0" d="m 34.377459,38.37746 4.125819,4.125819 3.049519,-3.049519 c 0.596271,-0.59627 0.596271,-1.55633 0,-2.152601 L 38.503278,34.25164 Z"/>
  <rect style="fill:#039be5" width="5.835" height="5.835" x="-3.01" y="45.61" transform="matrix(-0.70710678,0.70710678,0.70710678,0.70710678,0,0)"/>
  <rect style="fill:#1565c0" width="5.835" height="5.835" x="2.83" y="45.61" transform="matrix(-0.70710678,0.70710678,0.70710678,0.70710678,0,0)"/>
  <rect style="fill:#039be5" width="5.835" height="5.835" x="-8.66" y="39.78" transform="rotate(-45)"/>
  <rect style="fill:#1565c0" width="5.835" height="5.835" x="-2.83" y="39.78" transform="rotate(-45)"/>
 </g>
 <circle style="fill:#455a64" cx="-5.054" cy="11.314" r="1.426" transform="rotate(-45)"/>
 <path style="fill:#455a64" transform="matrix(0.03249336,-0.03249336,0.02211006,0.02211006,11.336154,3.6025628)" d="m 66.045453,24 -42.045454,24.274954 -42.045452,24.274953 0,-48.549908 0,-48.549906 42.045454,24.27495403 z"/>
 <circle style="fill:#555e70" cx="8.485" cy="11.314" r="1" transform="rotate(-45)"/>
 <rect style="fill:#555e70" width="4.433" height="8.963" x="9.1" y="-3.66" rx=".771" ry=".771" transform="rotate(45)"/>
 <path style="fill:#b2bfd9" d="m 15.617489,6.6930455 c -1.742606,1.742606 -4.567928,1.742606 -6.3105346,0 -1.7426059,-1.7426059 -1.7426059,-4.5679282 0,-6.31053413 z"/>
</svg>
