<svg xmlns="http://www.w3.org/2000/svg" width="16" height="16" version="1">
 <path style="fill:#f28b42" d="M 16,14.222222 V 1.7777778 C 16,1.3468889 15.6432,1 15.2,1 H 0.8 C 0.3568,1 0,1.3468889 0,1.7777778 V 14.222222 C 0,14.653111 0.3568,15 0.8,15 h 14.4 c 0.4432,0 0.8,-0.346889 0.8,-0.777778 z"/>
 <path style="fill:none;stroke:#f4f4f7;stroke-width:0.7" d="M 3,11 6,7 9,9 13,6"/>
 <circle style="fill:#17191e" cx="3" cy="11" r="1"/>
 <circle style="fill:#17191e" cx="6" cy="7" r="1"/>
 <circle style="fill:#17191e" cx="9" cy="9" r="1"/>
 <circle style="fill:#17191e" cx="13" cy="6" r="1"/>
</svg>
