<svg xmlns="http://www.w3.org/2000/svg" width="16" height="16" version="1">
 <rect style="fill:#8e8e8e" width="13" height="9" x="2" y="4" rx=".8" ry=".8"/>
 <path style="fill:#2bd677" d="M 4.6484,6 H 12.352 C 12.707,6 13.052,6.2835 12.993,6.625 L 12.352,10.375 C 12.293,10.717 12.065,11 11.71,11 H 5.2904 C 4.9347,11 4.7069,10.717 4.6484,10.375 L 4.0065,6.625 C 3.9481,6.2835 4.2928,6 4.6484,6 Z"/>
 <rect style="fill:#b3b3b3" width="3" height="3" x="1" y="7" rx=".682" ry=".643"/>
 <rect style="opacity:0.5" width="1" height="1" x="2" y="8"/>
 <rect style="fill:#b3b3b3" width="3" height="3" x="13" y="7" rx=".682" ry=".643"/>
 <rect style="opacity:0.5" width="1" height="1" x="14" y="8"/>
 <rect style="fill:#f4f4f7" width="1" height="1" x="5" y="7"/>
 <rect style="fill:#f4f4f7" width="1" height="1" x="7" y="7"/>
 <rect style="fill:#f4f4f7" width="1" height="1" x="9" y="7"/>
 <rect style="fill:#f4f4f7" width="1" height="1" x="11" y="7"/>
 <rect style="fill:#f4f4f7" width="1" height="1" x="6" y="9"/>
 <rect style="fill:#f4f4f7" width="1" height="1" x="8" y="9"/>
 <rect style="fill:#f4f4f7" width="1" height="1" x="10" y="9"/>
</svg>
