<svg xmlns="http://www.w3.org/2000/svg" width="16" height="16" version="1">
 <rect style="fill:#17191e" width="15" height="15" x="1" y="1" rx=".75" ry=".75"/>
 <path style="opacity:0.2;fill:#57c400" d="M 3,1 V 3 H 1 V 4 H 3 V 6 H 1 V 7 H 3 V 9 H 1 V 10 H 3 V 12 H 1 V 13 H 3 V 16 H 4 V 13 H 6 V 16 H 7 V 13 H 9 V 16 H 10 V 13 H 12 V 16 H 13 V 13 H 16 V 12 H 13 V 10 H 16 V 9 H 13 V 7 H 16 V 6 H 13 V 4 H 16 V 3 H 13 V 1 H 12 V 3 H 10 V 1 H 9 V 3 H 7 V 1 H 6 V 3 H 4 V 1 Z M 4,4 H 6 V 6 H 4 Z M 7,4 H 9 V 6 H 7 Z M 10,4 H 12 V 6 H 10 Z M 4,7 H 6 V 9 H 4 Z M 7,7 H 9 V 9 H 7 Z M 10,7 H 12 V 9 H 10 Z M 4,10 H 6 V 12 H 4 Z M 7,10 H 9 V 12 H 7 Z M 10,10 H 12 V 12 H 10 Z"/>
 <path style="fill:none;stroke:#85fc0e;stroke-linecap:round;stroke-linejoin:round" d="M 14.5,13.5 H 12.704 L 10.231,3.5 H 8.3077 M 2.5,13.5 H 4.2963 L 6.7692,3.5 H 8.6923"/>
</svg>
