<svg xmlns="http://www.w3.org/2000/svg" width="16" height="16" version="1">
 <path style="opacity:0.2;fill:#f4f4f7" d="m 106.53763,-42.516129 c -1.108,0 -2,0.892 -2,2 v 1 c 0,-1.108 0.892,-2 2,-2 h 36 c 1.108,0 2,0.892 2,2 v -1 c 0,-1.108 -0.892,-2 -2,-2 z"/>
 <path style="fill:#17191e" d="M 4.5905984,2.759e-4 C 4.425888,-0.0023361 4.2609868,0.0135679 4.0985748,0.04957726 3.3492944,0.2157043 2.675306,0.72680954 2.3503696,1.5137509 2.2953623,1.6469686 2.1654342,2.0395632 2.1764848,2.4645641 1.9540231,2.5582805 1.7365377,2.6646809 1.5612602,2.8190645 0.91358532,3.3895121 0.61404664,4.2133685 0.78852552,5.0884949 c 0.0171104,0.085865 0.0196272,0.035592 0.0343092,0.092342 -0.23978676,0.2078876 -0.4399278,0.4405992 -0.54036844,0.6354408 -0.5300498,1.0282368 -0.21318404,1.9032016 0.12943892,2.7131424 0.34262288,0.8099408 0.8714775,1.7056979 1.6242243,2.8493079 0.6949553,1.055819 1.2435325,1.752067 1.9166313,2.395423 1.9091808,1.824827 4.2610444,2.624839 6.5655152,2.033879 1.854206,-0.475498 3.444886,-1.665611 4.367394,-3.320411 0.892974,-1.601833 1.225459,-3.6576441 1.082296,-5.6673145 C 15.896043,5.8106801 15.81487,5.0728913 15.499334,4.3333225 15.341566,3.9635381 15.097674,3.5651905 14.689952,3.2557345 14.28223,2.9462781 13.740209,2.7999409 13.30901,2.8002833 h -7.6e-4 c -0.663418,7.2e-4 -1.510776,0.394872 -1.962637,0.952378 C 10.343555,2.1802807 9.5879124,1.1069349 8.5330268,0.49485514 7.8637032,0.10649194 6.8892848,-0.09818794 6.0167656,0.49876794 5.5792688,0.1844067 5.0847288,0.00811762 4.5905984,2.759e-4 Z"/>
 <path style="fill:#ffca34" d="m 9.9834648,13.845973 c 1.3549832,-0.346228 2.5099252,-1.21742 3.1641622,-2.38678 0.616372,-1.101687 0.94419,-2.8653161 0.829855,-4.4645587 C 13.851737,5.2358184 13.57576,4.6245264 12.977065,4.625 c -0.554088,6e-4 -0.89003,0.3923273 -1.175288,1.5172984 -0.05857,0.2309868 -0.13956,0.4711376 -0.179973,0.5336718 -0.09646,0.1492579 -0.327627,0.1492579 -0.500592,0 C 11.048747,6.613436 10.699202,6.0996485 10.344446,5.5342182 9.1254859,3.5913823 8.3504719,2.6190695 7.7390899,2.265599 7.4081509,2.0742669 7.0646689,2.0632359 6.8785013,2.2379615 c -0.240789,0.2259851 -0.167235,0.6250306 0.2419166,1.3124611 1.850547,3.1091515 1.84284,3.0935016 1.54077,3.1284419 C 8.4967549,6.6978732 8.6297666,6.8730518 6.9034943,4.3641302 6.1481393,3.2663233 5.4533544,2.2955874 5.3595264,2.2069415 4.9644444,1.8336791 4.2790194,1.9866197 4.0683264,2.4950514 3.912086,2.8720783 3.950786,2.9470911 5.5062354,5.2821485 6.4450043,6.6914442 6.9502823,7.4943293 6.9403103,7.5608877 6.9144803,7.7331664 6.7715543,7.7867198 6.6441263,7.6718532 6.5837573,7.6174366 6.0003683,6.851327 5.3477064,5.9693851 4.6950474,5.0874425 4.0940394,4.3094915 4.0121364,4.2406029 3.6846504,3.9651669 3.2653551,3.9764934 2.9311401,4.2698117 2.7321712,4.4444267 2.6359282,4.7207349 2.6863312,4.9726314 c 0.02097,0.1048571 0.5885339,0.9421282 1.5191402,2.2410757 1.266354,1.7675962 1.483425,2.0963242 1.470609,2.227084 -0.01308,0.1334224 -0.034793,0.1534054 -0.166698,0.1534054 -0.135327,0 -0.205044,-0.070765 -0.647187,-0.6569164 C 3.0285231,6.5063832 2.9184861,6.3854142 2.5410292,6.3854142 c -0.250575,0 -0.372504,0.065446 -0.468837,0.2516479 -0.268044,0.5181082 0.200784,1.6224131 1.5665132,3.6898489 0.623625,0.944046 1.037787,1.462458 1.583817,1.982486 1.5656969,1.491146 3.0561595,1.972185 4.7609424,1.536579 z"/>
</svg>
