<svg xmlns="http://www.w3.org/2000/svg" width="16" height="16" version="1.1">
 <path style="fill:#17191e" d="M 5.9296875 0 C 5.7040558 0 2.1555038 1.8879615 2.0332031 2.0820312 C 1.9809057 2.1649742 1.9723965 2.4742175 2.0136719 2.7695312 C 2.1843806 3.9909724 1.8668163 4.8174934 0.68945312 5.328125 L 0 5.6269531 L 0 7.71875 C 0 8.8690263 0.04383833 9.8538581 0.09765625 9.9082031 C 0.41291221 10.226567 2.7335263 9.6635246 3.6738281 9.0410156 L 4.109375 8.7539062 L 4.0644531 7.78125 C 4.0279908 6.9993225 4.0734026 6.6884348 4.2988281 6.1875 C 4.6749013 5.3517907 5.3719548 4.8796614 6.203125 4.5488281 C 6.7930209 4.3140289 6.8997838 4.2159815 6.96875 3.8554688 C 7.1220102 3.0542844 6.670371 0.72442965 6.2265625 0.16015625 C 6.1573792 0.07219285 6.0235615 0 5.9296875 0 z M 9.0703125 0 C 8.9764385 0 8.8426208 0.07219285 8.7734375 0.16015625 C 8.329629 0.72442965 7.8779898 3.0542844 8.03125 3.8554688 C 8.100216 4.2159815 8.2069791 4.3140289 8.796875 4.5488281 C 9.6280457 4.8796614 10.325099 5.3517907 10.701172 6.1875 C 10.926597 6.6884348 10.972009 6.9993225 10.935547 7.78125 L 10.890625 8.7539062 L 11.326172 9.0410156 C 12.266474 9.6635246 14.587088 10.226567 14.902344 9.9082031 C 14.956162 9.8538581 15 8.8690263 15 7.71875 L 15 5.6269531 L 14.310547 5.328125 C 13.133184 4.8174934 12.81562 3.9909724 12.986328 2.7695312 C 13.027604 2.4742175 13.019094 2.1649742 12.966797 2.0820312 C 12.844496 1.8879615 9.2959442 0 9.0703125 0 z M 4.4277344 9.5996094 L 3.7578125 9.9101562 C 2.9000643 10.309276 1.1492901 12.162397 1.0332031 12.570312 C 0.91607515 12.981879 1.0054749 13.047516 3.1484375 14.126953 C 3.7669974 14.43853 4.3596725 14.714878 4.75 14.878906 C 5.0565277 14.995643 5.1916925 15.118775 5.4160156 14.775391 C 5.7294699 14.455979 6.3953773 14 7.5 14 C 8.5132276 14 9.1893359 14.377415 9.5546875 14.693359 C 9.8029735 14.947042 9.8558923 15.116055 10.292969 14.875 C 10.689144 14.697547 11.323811 14.391379 12.007812 14.044922 C 14.465523 12.800055 14.467962 12.792182 12.998047 11.53125 C 12.412637 11.029067 11.632393 10.077993 11.263672 9.9082031 L 10.59375 9.5996094 L 9.8867188 10.052734 C 9.0611221 10.69639 8.3976877 10.800069 7.4511719 10.792969 C 6.5081235 10.785812 5.8043868 10.561338 5.0371094 10.025391 L 4.4277344 9.5996094 z"/>
 <circle style="fill:#f4f4f7" cx="7.5" cy="7.5" r="3.5"/>
</svg>
