<svg xmlns="http://www.w3.org/2000/svg" width="16" height="16" version="1">
 <path style="fill:#f746b3" d="m 4.8,0 h 6.4 C 13.8592,0 16,2.1408 16,4.8 V 8 H 0 V 4.8 C 0,2.1408 2.1408,0 4.8,0 Z"/>
 <path style="fill:#fbb54c" d="m 4.8,16 h 6.4 C 13.8592,16 16,13.8592 16,11.2 V 8 H 0 v 3.2 C 0,13.8592 2.1408,16 4.8,16 Z"/>
 <path style="fill:#17191e" d="m 5,2 h 6 c 1.687946,0 3,1.3120541 3,3 v 6 c 0,1.687946 -1.312054,3 -3,3 H 5 C 3.3120541,14 2,12.687946 2,11 V 5 C 2,3.3120541 3.3120541,2 5,2 Z"/>
 <path style="fill:#f4f4f7" d="M 5.625 3 L 3 5.2675781 L 4.125 5.8574219 L 3.375 8 L 6 5.7324219 L 4.875 5.1425781 L 5.625 3 z M 7 7 L 7 8 L 10 8 L 10 7 L 7 7 z"/>
</svg>
