<svg xmlns="http://www.w3.org/2000/svg" width="16" height="16" version="1.1">
 <rect style="fill:#b2bfd9" width="16" height="16" x="0" y="0" rx=".8" ry=".8"/>
 <path style="fill:#a11d21" d="M 5,7.0000004 10.4,13 H 5 Z"/>
 <path style="fill:#e02a32" d="m 5,7.0000004 5.2,-6 L 5,13 Z"/>
 <circle style="fill:#e02a32" cx="9.5" cy="8.5" r="1.5"/>
</svg>
