<svg xmlns="http://www.w3.org/2000/svg" width="16" height="16" version="1">
 <circle style="fill:#62a325" cx="8.5" cy="7.5" r="7.5"/>
 <path style="opacity:0.3" d="m 7.791625,0.040274 a 7.5,7.5 0 0 0 -2.71425,0.78735 c 0.03787,0.120038 -0.0064,0.25545 -0.144375,0.375 -0.09337,0.08093 -0.169875,0.206962 -0.169875,0.280538 0,0.224887 0.20325,0.570187 0.365625,0.620362 C 5.344375,2.170274 5.272,2.400374 4.9945,2.527499 4.86625,2.586369 4.708375,2.755874 4.643875,2.903999 4.578995,3.052499 4.48375,3.198749 4.432,3.229124 c -0.05138,0.03075 -0.09375,0.146625 -0.09375,0.258 0,0.155625 0.07125,0.231 0.304875,0.324375 0.16725,0.06713 0.3675,0.115875 0.445125,0.108375 0.446625,-0.042 0.47775,0.21825 0.08738,0.72675 -0.207375,0.27 -0.307125,0.337875 -0.4485,0.30375 -0.131625,-0.0315 -0.203625,0.0056 -0.263625,0.136125 -0.063,0.138375 -0.1665,0.18525 -0.444375,0.204375 -0.273375,0.01912 -0.395625,0.07462 -0.498,0.22425 -0.075,0.109125 -0.183,0.197625 -0.240375,0.197625 -0.05753,0 -0.1926,0.0735 -0.3003,0.16275 -0.21915,0.181875 -0.304725,0.20025 -0.381562,0.08137 -0.10155,-0.1575 -0.320663,-0.078 -0.646725,0.234375 -0.288375,0.276 -0.323288,0.349875 -0.279788,0.5895 0.0774,0.426375 0.308663,0.80475 0.572738,0.93675 0.230437,0.115125 0.234937,0.1275 0.09521,0.27525 -0.08036,0.08513 -0.21825,0.17625 -0.30615,0.202875 -0.253875,0.07725 -0.110962,0.174 0.342038,0.23175 0.46365,0.05888 0.607725,0.226875 0.391125,0.456 -0.120788,0.127875 -0.114,0.151875 0.07984,0.273375 0.37875,0.23775 0.67995,0.09225 0.32445,-0.15675 -0.228487,-0.160125 -0.0687,-0.225375 0.266625,-0.109125 0.267375,0.09263 0.32025,0.08738 0.478125,-0.04988 0.324375,-0.280875 0.676875,0.134625 0.38025,0.448125 -0.188625,0.199875 -0.131625,0.440625 0.112875,0.474 0.108,0.01462 0.33225,0.115125 0.49875,0.2235 0.1665,0.108 0.348,0.196875 0.40275,0.196875 0.05475,0 0.20925,0.109875 0.3435,0.244125 0.27225,0.271875 0.423375,0.306375 0.50025,0.11475 0.09225,-0.23025 0.05513,-0.349125 -0.1935,-0.62025 -0.197625,-0.216 -0.519,-0.78975 -0.519,-0.927375 0,-0.08475 0.326625,-0.01275 0.509625,0.112125 0.114375,0.07838 0.299625,0.17925 0.41175,0.225 0.11925,0.04875 0.243,0.20025 0.299625,0.366 0.08812,0.26025 0.123,0.28275 0.435,0.28275 h 0.339 l 0.05138,0.609375 c 0.0615,0.733125 0.120375,0.881625 0.372,0.942 0.18525,0.04463 0.382875,0.3315 0.382875,0.55575 0,0.05962 -0.133125,0.205875 -0.295875,0.32475 -0.20175,0.147375 -0.28875,0.272625 -0.27525,0.39525 0.01688,0.153375 -0.018,0.177375 -0.235125,0.16125 -0.139875,-0.0105 -0.382875,0.03862 -0.538875,0.109125 -0.184875,0.08325 -0.385125,0.109875 -0.573,0.07613 -0.216,-0.03862 -0.289125,-0.02362 -0.289125,0.06075 0,0.06225 -0.07575,0.1785 -0.168,0.25875 -0.228,0.197625 -0.133875,0.30225 0.216375,0.23925 0.2175,-0.039 0.30225,-0.02175 0.33975,0.072 0.07987,0.199125 -0.122625,0.484125 -0.3105,0.43725 -0.11925,-0.03 -0.17625,0.01087 -0.213375,0.1515 -0.01275,0.04988 -0.03637,0.09225 -0.0645,0.12825 a 7.5,7.5 0 0 0 1.186875,0.350625 c -0.0375,-0.07163 -0.08025,-0.136875 -0.121875,-0.166125 -0.193125,-0.1365 -0.06375,-0.49125 0.202125,-0.555 0.271125,-0.06525 0.228375,-0.241125 -0.06637,-0.274875 -0.258375,-0.02925 -0.53325,-0.291 -0.447,-0.424875 0.05813,-0.08962 0.30525,-0.0765 0.805125,0.042 0.22575,0.05325 0.379875,-0.054 0.903,-0.62625 0.302625,-0.3315 0.5355,-0.4695 0.790875,-0.4695 0.0975,0 0.445125,-0.08962 0.772875,-0.199125 0.61875,-0.207375 0.860625,-0.199875 0.83775,0.02625 -0.04725,0.47025 0.255375,0.4545 0.7485,-0.03825 0.2055,-0.205125 0.393375,-0.353625 0.41775,-0.330375 0.09413,0.09038 -0.07537,0.53025 -0.273375,0.708375 -0.250875,0.22575 -0.26325,0.36825 -0.04237,0.481125 0.12075,0.06225 0.172125,0.187875 0.19125,0.47025 l 0.0255,0.3855 h 0.3135 c 0.109875,0 0.201,0.015 0.2745,0.04312 a 7.5,7.5 0 0 0 3.63375,-6.18975 c -0.11475,-0.24525 -0.1065,-0.393375 0,-0.56025 a 7.5,7.5 0 0 0 -0.03375,-0.420375 c -0.06825,-0.0034 -0.138,-0.0064 -0.21825,-0.003 -0.378,0.01575 -0.701625,-0.133125 -0.701625,-0.322875 0,-0.04012 -0.13425,-0.2055 -0.298125,-0.367125 -0.186,-0.183 -0.28125,-0.345 -0.2535,-0.429 0.0255,-0.0765 -0.02925,-0.199875 -0.126,-0.2835 -0.09413,-0.08175 -0.171375,-0.213 -0.171375,-0.29175 0,-0.125625 -0.07988,-0.141375 -0.65775,-0.1275 l -0.65775,0.01612 0.01125,0.648375 c 0.0195,1.1355 0.188625,1.43025 0.71025,1.240125 0.238875,-0.08737 0.82575,-0.02137 0.992625,0.111 0.06038,0.048 0.14775,0.222 0.193875,0.387 0.0465,0.164625 0.21825,0.45 0.3825,0.633375 0.33225,0.372 0.358125,0.517125 0.167625,0.953625 -0.166125,0.381 -0.345375,0.337125 -0.30975,-0.07613 l 0.02625,-0.3075 -0.28125,0.0525 c -0.155625,0.02962 -0.350625,0.144375 -0.438,0.258 -0.1245,0.161625 -0.182625,0.18525 -0.276,0.111375 -0.06525,-0.05175 -0.118125,-0.160875 -0.118125,-0.241875 0,-0.081 -0.08025,-0.171 -0.17775,-0.200625 -0.09788,-0.02962 -0.23175,-0.177 -0.297375,-0.328125 -0.105375,-0.2415 -0.10275,-0.315375 0.01988,-0.608625 0.124125,-0.297375 0.12525,-0.3465 0.01088,-0.456375 -0.105,-0.1005 -0.159375,-0.103875 -0.297375,-0.021 -0.13875,0.08287 -0.204375,0.07687 -0.369375,-0.03375 -0.109875,-0.07388 -0.30225,-0.135 -0.42675,-0.135 -0.253125,0 -0.329625,-0.123 -0.329625,-0.53025 0,-0.376125 -0.22425,-0.512625 -0.75825,-0.4635 -0.3705,0.03412 -0.45225,0.0098 -0.751125,-0.2205 C 10.369781,5.575854 10.078031,5.233854 9.905531,4.957104 9.733031,4.680354 9.547406,4.391229 9.493031,4.314729 9.415031,4.204104 9.434161,4.097979 9.586781,3.796854 l 0.19275,-0.37875 -0.40725,0.05512 c -0.7245,0.09788 -0.871125,0.191625 -0.5595,0.358875 0.1215,0.06488 0.12675,0.09825 0.033,0.206625 -0.0615,0.0705 -0.09037,0.182625 -0.06375,0.249 0.02662,0.066 -0.0071,0.222 -0.07463,0.346125 -0.06787,0.1245 -0.1245,0.298875 -0.12675,0.3885 -0.0071,0.279375 -0.485625,0.50175 -1.018875,0.472125 -0.80775,-0.04462 -0.873375,-0.03187 -1.16025,0.234375 -0.3585,0.333 -0.404625,0.487875 -0.23775,0.796875 0.161625,0.3 0.448875,0.419625 0.946125,0.394875 0.44475,-0.02212 0.495,0.01725 0.393375,0.31125 -0.08663,0.24975 -0.376875,0.34575 -0.57375,0.18975 -0.1515,-0.120375 -0.673875,-0.02737 -0.834,0.148875 -0.06713,0.0735 -0.166875,0.267 -0.22125,0.429 -0.09375,0.27975 -0.121125,0.297 -0.541125,0.3375 -0.41925,0.04087 -0.45975,0.02737 -0.76125,-0.2505 -0.336375,-0.30975 -0.393375,-0.54675 -0.231375,-0.95475 0.072,-0.18075 0.12525,-0.210375 0.31725,-0.175125 0.38025,0.06938 0.53025,-0.06263 0.53025,-0.46875 0,-0.196875 -0.03825,-0.381 -0.08512,-0.40875 -0.0465,-0.02775 -0.08475,-0.132 -0.08475,-0.232125 0,-0.100125 -0.048,-0.229125 -0.106125,-0.28575 -0.08512,-0.0825 -0.07275,-0.12675 0.063,-0.22275 0.093,-0.06563 0.246,-0.109875 0.33975,-0.09863 0.09337,0.01125 0.35175,-0.02925 0.574125,-0.08962 0.321375,-0.08663 0.415875,-0.15225 0.459375,-0.321375 0.0825,-0.321 0.283875,-0.578625 0.452625,-0.578625 0.266625,0 0.27225,-0.627 0.01312,-1.539 C 6.775776,2.576599 6.670401,2.491099 6.484401,2.444974 6.333651,2.407474 6.169776,2.304724 6.120276,2.216299 6.071146,2.127879 5.980776,2.055874 5.919651,2.055874 c -0.06113,0 -0.18075,-0.0732 -0.265125,-0.1626 -0.08512,-0.09 -0.261,-0.1626 -0.394875,-0.1626 -0.316875,0 -0.322125,-0.218175 -0.0079,-0.333225 0.331875,-0.12165 0.848625,0.0378 0.9735,0.300263 0.169125,0.355912 0.357,0.207412 0.417375,-0.3303 0.07463,-0.665063 0.304125,-0.8562 1.0275,-0.8562 h 0.520125 l -0.228,-0.227775 C 7.891371,0.212337 7.832501,0.125449 7.791626,0.040249 Z m 2.69625,0.235838 c -0.01462,0.0132 -0.02887,0.024 -0.04312,0.03881 -0.174,0.1776 -0.25575,0.202913 -0.524625,0.161887 -0.4695,-0.07159 -0.409125,0.117451 0.110625,0.345713 0.280875,0.123413 0.461625,0.264113 0.523125,0.406463 0.29625,0.68685 0.50025,1.056637 0.602625,1.094137 0.207,0.07613 0.330375,-0.07665 0.3765,-0.467175 0.05288,-0.44805 0.204375,-0.543037 0.476625,-0.298087 0.10575,0.09506 0.2535,0.172837 0.328125,0.172837 0.232875,0 0.405,0.09349 0.405,0.21975 0,0.06653 0.07875,0.226838 0.175125,0.35655 0.142125,0.190875 0.2385,0.236625 0.504,0.236625 0.325875,0 0.52575,0.06113 0.93375,0.2865 0.0064,0.0034 0.01275,0.0045 0.01913,0.0079 A 7.5,7.5 0 0 0 10.487885,0.276135 Z M 1.0015,7.467861 A 7.5,7.5 0 0 0 1,7.500111 7.5,7.5 0 0 0 1.146475,8.940861 c 0.271725,0.110625 0.3468,0.06675 0.375,-0.186 0.01459,-0.130875 0.08291,-0.279 0.152362,-0.330375 C 1.781125,8.345356 1.761777,8.304861 1.541987,8.154861 1.399712,8.057741 1.2595,7.888236 1.2307,7.778361 1.2028,7.671862 1.10845,7.555611 1.001462,7.467861 Z M 3.362163,9.946986 C 3.292043,9.939886 3.20755,9.977366 3.1138,10.067361 2.915463,10.257112 2.945425,10.638487 3.1702,10.789237 3.427788,10.962112 3.527163,10.911862 3.559788,10.593112 3.599908,10.200111 3.515918,9.963111 3.362163,9.946986 Z m 1.272749,1.134 c -0.0765,0.0026 -0.160874,0.05738 -0.245249,0.172876 -0.08963,0.12225 -0.114,0.280124 -0.07987,0.51975 0.04237,0.29475 0.024,0.357749 -0.130125,0.436874 -0.198375,0.101251 -0.24075,0.402751 -0.07838,0.558 0.16125,0.154501 0.315,0.114001 0.3705,-0.0975 0.07875,-0.301499 0.520125,-0.33675 0.821625,-0.066 0.128625,0.115501 0.233624,0.174 0.233624,0.12975 0,-0.04425 -0.133874,-0.205125 -0.297374,-0.356625 -0.250125,-0.2325 -0.296625,-0.3315 -0.296625,-0.63075 0,-0.42225 -0.129375,-0.671625 -0.298126,-0.666375 z M 2.5447,12.049237 a 7.5,7.5 0 0 0 0.173588,0.219 c -0.05111,-0.07912 -0.109463,-0.154875 -0.173588,-0.219 z m 2.527462,1.151249 c -0.03787,0.01313 -0.054,0.06075 -0.054,0.144376 0,0.08475 -0.054,0.173624 -0.120001,0.197624 -0.08775,0.03225 -0.107999,0.133876 -0.07425,0.3765 0.0064,0.04537 0.0083,0.08175 0.0105,0.119625 a 7.5,7.5 0 0 0 0.312,0.160125 c -0.0053,-0.129749 0.01838,-0.282374 0.08625,-0.473625 0.115125,-0.324749 0.119249,-0.406124 0.0255,-0.463124 -0.08775,-0.05325 -0.147749,-0.07463 -0.186,-0.0615 z"/>
 <path style="fill:#b2bfd9;fill-rule:evenodd" d="M 7.3859652,11.659262 C 6.6804908,9.0246028 3.5680512,10.660224 2.2957064,8.6545622 1.0233615,6.648901 1.7564746,4.417353 1.1007239,5.15 0.44497304,5.8826471 0.71470691,7.1812557 0.71470691,7.1812557 c 0,0 -0.23116062,-1.388424 -0.50125568,-0.617145 -0.27009502,0.7712786 0.42389325,2.1673018 0.42389325,2.1673018 0,0 -0.77110159,-1.3113837 -0.61697497,-0.5014662 0.15412796,0.8099175 0.92530815,1.8084367 0.92530815,1.8084367 0,0 -0.65550195,-0.7328699 -0.57847414,-0.1157966 0.077028,0.6170726 1.27249578,1.1186376 1.27249578,1.1186376 0,0 -1.00275521,0.19266 -0.3472208,0.732699 0.6555342,0.540039 2.0054317,0.07747 2.0054317,0.07747 0,0 -1.0414332,0.84828 0.038376,1.118428 1.0798091,0.270147 2.1212025,-0.346735 2.1212025,-0.346735 0,0 -0.4243991,1.00265 0.6554689,0.925701 1.0798683,-0.07695 1.5332842,-0.917502 1.273008,-1.889529 z"/>
 <path style="fill:#f4f4f7;fill-rule:evenodd" d="M 9.995699,0.17032813 C 9.4748597,0.17702511 11.054094,1.8856399 10.949549,4.4476719 10.839359,7.1480187 7.2067712,7.371506 7.6073034,10.131594 7.2438656,9.950079 6.9518383,8.8444595 7.0426966,7.8571621 7.1661941,6.5151987 6.4011221,5.9708116 5.6617554,5.974838 5.4501624,5.975998 5.2572269,6.016746 5.1127418,6.1030118 3.4054029,7.1223938 3.8489684,10.616067 5.1901578,13.020266 5.8055586,14.123426 6.7589114,14.759089 7.7953101,14.9751 7.9830191,14.98994 8.1719779,15 8.3635004,15 8.9818485,15 9.5808367,14.91916 10.1533,14.770752 c 1.542303,-0.591697 2.841439,-2.074453 3.016381,-4.301514 0.961681,0.127738 2.657525,-0.900072 2.813962,-1.5036619 C 16.130912,8.3973609 15.242,8.739863 14.99073,8.8740253 15.223429,8.739932 16.192938,7.8266147 15.843726,7.1214651 15.604403,6.6382093 15.123835,7.044868 14.772687,7.453252 c -0.204234,0.3161111 -0.420461,0.9586154 -0.420461,0.9586154 0,4e-7 0.180202,-0.6791943 0.420461,-0.9586154 0.303773,-0.4701754 0.576611,-1.144782 0.0419,-1.3930665 -0.340999,-0.1583397 -0.597369,0.1041855 -0.783393,0.437256 -0.07622,0.5862641 -0.392762,1.551877 -0.392762,1.551877 2e-6,0 0.09097,-1.0115362 0.392762,-1.551877 0.04932,-0.3793474 -0.01946,-0.5546573 -0.358671,-0.4606935 -0.132145,0.036608 -0.0849,0.068809 -0.242158,0.104004 0.153864,-0.220677 0.806454,-0.7719267 0.560378,-1.3756134 -0.0038,-0.00932 -0.0076,-0.014797 -0.01136,-0.023437 -0.01342,-0.030679 -0.02662,-0.060929 -0.03977,-0.083496 -0.181181,-0.3385878 -0.334129,0.054679 -0.412648,0.328125 0.06349,-0.422277 0.228765,-1.3606211 -0.0015,-2.0441895 -0.02396,-0.071157 -0.04548,-0.1210586 -0.06605,-0.1618653 -0.20334,-0.4553952 -0.255296,0.3741626 -0.26918,0.7851562 -0.02281,-0.3692047 -0.02996,-1.2941614 -0.309664,-1.8208006 -8.73e-4,-0.00163 -0.0013,-0.0035 -0.0021,-0.00513 -0.02309,-0.045231 -0.04923,-0.087942 -0.07527,-0.1303711 C 12.730177,1.490132 12.646801,1.3816633 12.548254,1.2941915 11.964139,0.7757195 12.228489,1.6939342 12.347257,2.0566426 12.25832,1.837423 11.445441,1.4493088 11.168301,1.0843907 10.955464,0.79713377 10.710814,0.47021217 10.38562,0.2926426 10.257208,0.24829431 10.12724,0.20739988 9.995699,0.17032813 Z"/>
 <path style="fill:#17191e" d="M 5,8.4398266 A 0.28124086,0.28124086 0 1 1 4.4807015,8.2236908 0.28124086,0.28124086 0 1 1 5,8.4398266 Z"/>
 <path style="fill:#17191e" d="M 6,8.5827653 A 0.28123049,0.28099607 0 1 0 6.5577727,8.5103577 0.28123049,0.28099607 0 1 0 6,8.5827653 Z"/>
 <path style="fill:#838383" transform="matrix(0.48713944,0,0,0.28125009,-2.3320912,1.1249976)" d="m 14.999999,28 1.1547,0 1.1547,0 -0.57735,0.999999 -0.57735,1 -0.57735,-1 z"/>
</svg>
