<svg xmlns="http://www.w3.org/2000/svg" width="16" height="16" version="1">
 <path style="fill:#80cbc4" d="m 6.1061211,9.932913 c 0,1.619397 7.3439779,2.177445 6.4207199,3.363426 C 11.246002,14.941654 9.246596,16 7,16 3.1340068,16 0,12.865993 0,9 c 0,-1 4.2822073,1.396217 8.1482006,1.396217 3.8659934,0 -2.0420795,-4.3292973 -2.0420795,-0.463304 z"/>
 <path style="fill:#455a64;fill-rule:evenodd" d="m 15.368649,15.673332 c 0,0 0.783429,-1.137891 0.604891,-1.442316 -0.156956,-0.267598 -1.597816,-0.202031 -1.597816,-0.202031 0,0 0.79146,-1.364869 0.598276,-1.694235 -0.190194,-0.324263 -1.830689,-0.3395 -1.830689,-0.3395 0,0 1.829973,-1.321761 1.894689,-1.692964 0.06791,-0.38903 -1.594647,-1.794882 -1.594647,-1.794882 0,0 1.702278,-2.8620556 1.556647,-3.207404 -0.182798,-0.4333624 -2.7996,-0.3004946 -2.7996,-0.3004946 0,0 0.978672,-2.7063125 0.5756,-2.9615054 -0.338664,-0.2143248 -3.8325937,0.6636916 -3.8325937,0.6636916 0,0 -1.1239476,-2.701691679999982 -1.7497672,-2.701691679999982 C 6.5638647,-7.9999996e-8 5.2334111,2.7056032 5.2334111,2.7056032 c 0,0 -2.7252917,-1.8780336 -3.1342165,-1.6456032 C 1.7376718,1.2654582 1.9008054,4.2864952 1.9008054,4.2864952 Z"/>
 <path style="fill:#80cbc4;fill-rule:evenodd" d="m 12.614982,10.76655 c 0,0 3.354008,4.715108 2.995418,5.1752 -0.34822,0.446737 -6.8708369,-1.822766 -6.8708369,-1.822766 z"/>
 <path style="fill:#009688;fill-rule:evenodd" d="M 6.8007812,2 C 6.7570237,2 6.7213675,2.0143019 6.6796875,2.0175781 3.2730948,2.1723374 0.50637722,4.7548678 0.06835937,8.0800781 0.02721102,8.3086114 0,8.5467447 0,8.8007812 0,8.8263693 0.00362225,8.84948 0.00390625,8.875 0.00358641,8.901813 0,8.9281901 0,8.9550781 0,8.9610683 0.00193697,8.9666697 0.00195313,8.9726562 0.00191726,8.9818996 0,8.9907482 0,9 c 0,0.00991 0.00559331,0.019403 0.00585938,0.029297 0.00377498,0.332423 0.02734567,0.6612047 0.07812499,0.9804691 0.0175732,0.08341 0.04484542,0.15373 0.06835938,0.230468 0.3315498,1.082015 1.19531245,1.517578 1.19531245,1.517578 0.2095527,0.169284 0.4707231,0.341113 0.7714844,0.511719 H 2.09375 c 0,0 0.6324165,3.758969 1.7890625,3.730469 0.8747888,-0.02156 1.5596786,-2.034963 2.671875,-2 1.1112312,0.03494 1.5621876,1.988451 2.6679687,2 0.6386116,0.0067 1.1943548,-1.108837 1.5449218,-2 h 0.330078 c 1.051397,0.978711 3.442863,1.629085 4.478516,1.966797 0.01416,-0.0074 0.0253,0.04334 0.0332,0.0332 C 15.84055,15.703438 14.393938,13.353299 13.382812,11.84375 13.77148,10.973056 14,10.015113 14,9 14,5.1340068 10.865993,2 7,2 c -0.033023,0 -0.064742,0.0054 -0.097656,0.00586 C 6.8681667,2.0053533 6.8350787,2 6.8007812,2 Z"/>
 <rect style="fill:#f4f4f7" width="1" height="1" x="3" y="6"/>
</svg>
