<svg xmlns="http://www.w3.org/2000/svg" width="16" height="16" version="1">
 <path style="fill:#4f4f4f;fill-rule:evenodd" d="M 7.9991491,8.14e-6 C 7.5431964,1.9412095e-4 7.0993537,0.17127347 6.7499168,0.53274623 L 0.53128539,6.9553651 C 0.1886295,7.3098561 0.0068644,7.7769571 4.554e-5,8.2395914 c -1.02514285e-4,0.00704 0,0.024305 0,0.031992 C -1.8993333e-5,9.647996 3.6774674,8.3111994 4.009,9.9940535 4.1883923,10.904828 2.0046371,10.487657 2.0046371,11.404024 c 0,1.074928 3.1942776,0.19834 3.9143629,1.221726 0.5512069,0.783376 -1.3281053,0.816999 -0.8907762,1.566964 0.3751471,0.643332 1.7167132,0.231346 1.9404392,1.095982 0.2555463,0.987659 2.0008269,0.877598 2.930337,0.0945 C 10.468796,14.903143 9.1524775,14.60257 9.6702482,14.06697 10.187985,13.531333 13.109223,13.632057 12.971417,12.4695 12.880217,11.700106 12.043743,11.615366 12.029,10.746286 c -0.05148,-0.736008 0.225475,-0.521251 2.877012,-1.2537202 1.060233,-0.498128 1.097767,-0.7629722 1.093729,-1.2217261 -8.4e-5,-0.00909 0,-0.021547 0,-0.031249 -0.006,-0.4625966 -0.219868,-0.9297466 -0.562489,-1.2842263 L 9.2491251,0.53274623 C 8.8996124,0.17123553 8.4556177,1.9415905e-4 7.9998931,8.14e-6 Z"/>
 <path style="fill:#4f4f4f;fill-rule:evenodd" d="m 15.347135,11.000795 c -0.106012,-0.0038 -0.212997,0.0063 -0.288428,0.0306 -0.142184,0.04719 -0.815977,0.07438 -0.760465,0.664115 0.610247,0.29473 1.540899,0.529113 1.651795,-0.06055 0.08325,-0.442189 -0.284815,-0.620631 -0.602902,-0.634165 z"/>
 <path style="fill:#4f4f4f;fill-rule:evenodd" d="m 2.7074185,13.005376 c -0.059435,0.0081 -0.1000881,0.03659 -0.1581752,0.06314 -0.4644974,0.212244 -0.7756974,0.658951 -0.3417368,0.854032 0.4340248,0.195036 0.7241662,-0.01135 1.1046236,-0.253215 0.3805216,-0.24198 0.3699093,-0.286153 0.3423876,-0.379498 -0.052746,0.01267 -0.3985958,-0.245986 -0.7628867,-0.28446 -0.060705,-0.0061 -0.1247941,-0.0081 -0.1842125,10e-7 z"/>
 <path style="fill:#f4f4f7;fill-rule:evenodd" d="m 8.0286158,2.0044571 c 0.4692191,0.00399 1.7549333,1.5950858 2.9020572,2.7866668 0.322667,0.4329523 -0.124808,0.8766857 -0.124808,0.8766857 L 8.4031987,4.352762 7.3422463,5.7931429 6.4062463,4.384381 5.8443415,6.576 4.1906272,5.5740953 4.6275796,5.0102858 7.2172939,2.3490666 C 7.4159415,2.1465676 7.5680596,2.0010628 8.0286082,2.0046476 Z"/>
</svg>
