<svg xmlns="http://www.w3.org/2000/svg" width="16" height="16" version="1">
 <rect style="fill:#1e87e4" width="16" height="16" x="0" y="0" rx="1" ry="1"/>
 <path style="stroke:#f4f4f7;stroke-linecap:square;fill:none" d="m6.5 8.5a4 4 0 0 1 4 -4"/>
 <path style="stroke:#f4f4f7;stroke-linecap:square;fill:none" d="m8.5 8.5a2 2 0 0 1 2 -2"/>
 <path style="stroke:#f4f4f7;stroke-linecap:square;fill:none" d="m4.5 8.5a6 6 0 0 1 6 -6"/>
 <rect style="fill:#f4f4f7" width="2" height="3" x="10" y="11"/>
 <circle style="fill:#f4f4f7" cx="11" cy="9" r="1"/>
</svg>
