<svg xmlns="http://www.w3.org/2000/svg" width="16" height="16" version="1">
 <rect style="fill:#0071c5" width="16" height="16" x="0" y="0" rx="4.8" ry="4.8"/>
 <path style="fill:#f4f4f7" d="M 2,7 H 1.0009797 L 1,9.940144 C 1,10.469453 1.2528053,10.927529 1.9999963,11 Z"/>
 <path style="fill:#f4f4f7" d="M 1,6 H 2 V 5 H 1 Z"/>
 <path style="fill:#f4f4f7" d="m 4.690469,7.817206 c 0.271316,0 0.384592,0.146409 0.384592,0.384513 V 11 H 6 V 8.195473 C 6,7.627572 5.72366,7.001207 4.910628,7.001207 L 3,7.000007 V 10.99955 H 3.924939 V 7.817256 Z"/>
 <path style="fill:#f4f4f7" d="M 7,6 V 7 H 7.002 L 7,9.939453 C 7,10.468762 7.252809,10.927529 8,11 H 9 V 10 H 8 V 8 H 9 V 7 H 8 V 6 Z"/>
 <path style="fill:#f4f4f7" d="m 14,5 v 2 h 0.002 L 14,9.939453 C 14,10.468762 14.252809,10.927529 15,11 V 7 5 Z"/>
 <path style="fill:#f4f4f7" d="M 11.572481,7 C 10.680779,7 10,7.7209 10,8.9967 10,10.4888 10.778241,11 11.591318,11 c 0.621655,0 0.974711,-0.2324 1.311221,-0.6161 l -0.52498,-0.5774 c -0.217842,0.2487 -0.403741,0.3695 -0.780507,0.3695 -0.480761,0 -0.751844,-0.3696 -0.751844,-0.8703 H 13 V 8.9523 C 13,7.8439 12.479278,7 11.572481,7 Z m -0.03767,0.8108 c 0.43673,0 0.60199,0.4054 0.618344,0.8268 h -1.307942 c 0.0056,-0.172 0.02615,-0.2816 0.08109,-0.4214 0.09498,-0.2325 0.317923,-0.4054 0.608517,-0.4054 z"/>
</svg>
