<svg xmlns="http://www.w3.org/2000/svg" width="16" height="16" version="1.1">
 <path style="fill:#3475d5" d="M 8.0000012,0 C 3.5858772,0 -4e-8,3.5858752 -4e-8,7.9999996 -4e-8,12.414124 3.5858772,16.000001 8.0000012,16 12.414123,16 16.000004,12.414124 16,7.9999996 16,3.5858752 12.414123,0 8.0000012,0 Z"/>
 <path style="fill:none;stroke:#2c4043;stroke-width:2.00098801;stroke-linecap:round;stroke-linejoin:round" d="M 3.5131765,11.988825 A 6.0027931,6.0027931 0 0 1 3.8371902,3.6805166 6.0027931,6.0027931 0 0 1 12.151805,3.6660059 6.0027931,6.0027931 0 0 1 12.504816,11.973132"/>
 <path style="fill:none;stroke:#19eab8;stroke-width:2.00098801;stroke-linecap:round;stroke-linejoin:round" d="M 3.5131765,11.988825 A 6.0027931,6.0027931 0 0 1 2.7068287,5.1760264 6.0027931,6.0027931 0 0 1 8.8167263,2.0561593"/>
 <path style="fill:none;stroke:#f4f4f7;stroke-linecap:round;stroke-linejoin:round" d="M 4.5,8.5002635 H 5.6 L 6.8,5.5 l 0.8,6 0.8,-4.6 0.8,2.6 1.2,-0.9997365 h 1.1"/>
 <path style="fill:none" d="M 3.5132112,11.983557 A 6,6 0 0 1 2.7072388,5.1739284 6,6 0 0 1 8.8142936,2.055513"/>
</svg>
