<svg xmlns="http://www.w3.org/2000/svg" width="16" height="16" version="1">
 <path style="fill:#b2bfd9" d="M 1.2,-5.0000003e-8 C 0.5352,-5.0000003e-8 0,0.53519995 0,1.1999999 V 4.8 11.2 14.8 C 0,15.4648 0.5352,16 1.2,16 H 4.8 8.560156 11.2 C 13.8592,16 16,13.8592 16,11.2 V 9.120312 4.8 1.1999999 C 16,0.53519995 15.4648,-5.0000003e-8 14.8,-5.0000003e-8 H 11.2 4.8 Z"/>
 <path style="fill:#f04242" d="M 3.75,3 C 3.3345,3 3,3.3185714 3,3.7142857 V 11.214286 C 3,12.285714 4.5,13 5.25,13 H 6 V 12.285714 11.214286 3.7142857 C 6,3.3185714 5.6655,3 5.25,3 Z"/>
 <path style="fill:#f04242" d="M 7,5.25 C 7,5.6655 7.2816842,6 7.6315789,6 H 11.421053 C 12.368421,6 13,4.5 13,3.75 V 3 H 12.368421 11.421053 7.6315789 C 7.2816842,3 7,3.3345 7,3.75 Z"/>
 <path style="fill:#14a4df" d="M 7.3108881,7 A 0.30383907,0.26858172 0 0 0 7.0000002,7.2688537 v 1.7314859 1.7314854 a 0.30383907,0.26858172 0 0 0 0.4555639,0.232218 L 9.1519191,10.0983 10.848275,9.2325573 a 0.30383907,0.26858172 0 0 0 0,-0.4649987 L 9.1519191,7.9018157 7.4555641,7.0360727 A 0.30383907,0.26858172 0 0 0 7.3108881,7 Z"/>
</svg>
