<svg xmlns="http://www.w3.org/2000/svg" width="16" height="16" version="1">
 <rect style="fill:#3cae48" width="16" height="16" x="0" y="0" rx=".8" ry=".8"/>
 <path style="fill:#f4f4f7;stroke:#552200;stroke-width:0.05298011;stroke-opacity:0" d="m 7.0515884,0.02649044 c 0.092104,0.14308348 0.1471504,0.3517114 0.147946,0.52637624 C 7.2012144,0.91828504 7.0380916,1.0346758 6.8647092,0.7911376 6.7675584,0.65467844 6.5808872,0.53962944 6.4559112,0.53962944 c -0.090822,0 -0.4718704,0.2327318 -0.4718704,0.28810532 0,0.020756 0.086926,0.0275572 0.1931088,0.0155732 0.2032144,-0.022908 0.266566,0.0177256 0.26786,0.17208464 0.00132,0.1402892 -0.2595528,0.4424718 -0.6898952,0.7996869 -0.5540868,0.459931 -0.7358364,0.6618993 -0.7358364,0.8191541 0,0.09011 -0.040292,0.1557912 -0.1526184,0.2483932 L 4.7140416,3.0087704 4.7825644,3.15438 c 0.094138,0.198418 0.088067,0.2439532 -0.055285,0.4243712 -0.1683152,0.2118384 -0.1868892,0.2931592 -0.09889,0.4274864 0.087552,0.1336452 0.091883,0.460178 0.01168,0.8853396 -0.069226,0.3669444 -0.0285,0.9094772 0.1012256,1.3533168 0.057314,0.1961024 0.2360316,0.705362 0.3971188,1.132176 0.342998,0.9088184 0.4100336,1.1304312 0.467976,1.5448676 C 5.6893408,9.515272 5.5434956,9.9944364 5.17501,10.342998 4.9196632,10.584536 4.7580316,10.639463 4.5520796,10.553237 4.1354176,10.378787 3.8646392,9.8219544 3.3794128,8.1417172 2.8865944,6.4351876 2.4662464,5.73147 1.5168511,5.0255072 1.1455746,4.7494264 0.5447186,4.3267752 0.02649004,3.9034536 V 9.2458612 C 0.6410578,9.8350896 1.3961994,10.33298 2.1195364,10.706633 2.328308,10.81448 2.50922,10.919077 2.521326,10.938675 c 0.012116,0.0196 -0.076338,0.04812 -0.1970012,0.06385 -0.9338112,0.121721 -1.74415636,0.430582 -2.29783476,0.925052 v 3.248582 c 0,0.307568 0.17442928,0.570813 0.42826472,0.703912 0.11613376,0.05336 0.24170464,0.08748 0.36908628,0.09344 H 13.227165 c 0.232752,-0.351032 0.367513,-0.775275 0.306015,-1.003696 -0.16157,-0.600138 -1.194013,-0.829232 -2.3648,-0.524819 -0.210304,0.05468 -0.701844,0.215786 -1.092464,0.357406 -0.5186264,0.188023 -0.7675808,0.256972 -0.922716,0.256959 -0.248646,-3e-5 -0.4351104,-0.06117 -0.4710912,-0.154954 -0.041192,-0.107354 0.065613,-0.650233 0.1744208,-0.888454 0.2745516,-0.601111 0.6689708,-0.805028 1.1960264,-0.619038 0.21271,0.07506 0.20946,0.07496 0.20946,0.01791 0,-0.02486 -0.0556,-0.100754 -0.123029,-0.168191 -0.1699338,-0.169961 -0.4335986,-0.168132 -0.8876754,0.007 -0.1853544,0.07149 -0.3454164,0.121779 -0.3558492,0.111348 -0.010424,-0.01043 -0.03098,-0.169565 -0.045162,-0.353513 -0.043339,-0.562147 0.086341,-0.792395 0.439166,-0.779442 l 0.1962228,0.0078 -0.1253644,-0.103561 C 9.1886092,11.99586 9.0751884,12.00713 8.8814468,12.182196 8.6843852,12.36026 8.5839972,12.62196 8.5839972,12.960859 c 0,0.380107 -0.1231344,0.372212 -0.3223664,-0.02102 -0.176918,-0.349188 -0.1302652,-0.778795 0.078645,-0.724157 0.094714,0.02476 0.094695,0.01806 -0.00312,-0.173641 C 8.1909968,11.75549 8.2045736,11.491775 8.374532,11.30854 8.4435024,11.234184 8.6222216,10.967444 8.7724292,10.715198 9.1339496,10.108096 9.4435248,9.7072628 9.9264076,9.2209444 10.8188,8.3222024 11.733929,7.7273108 13.742635,6.7409024 14.9577,6.1442248 15.588874,5.8658668 15.9735,5.661674 V 5.0083756 C 15.541758,5.2141376 14.989534,5.4346288 14.434862,5.678804 12.971842,6.3228548 11.816278,6.900452 11.201074,7.2960872 10.190513,7.9459744 9.256834,8.789054 8.6493948,9.6001516 8.4679792,9.8423952 8.3020804,10.040875 8.2803088,10.040875 c -0.02178,0 -0.099424,-0.081968 -0.1720852,-0.1822074 C 7.983224,9.6862172 7.9754756,9.652434 7.9618352,9.2357368 L 7.9470512,8.7957932 7.7804176,8.6283804 C 7.6340848,8.4820284 7.6181644,8.448104 7.6511596,8.3496188 7.7150596,8.1588784 7.6430316,7.9698576 7.4183396,7.7391468 7.2338848,7.549744 7.21098,7.5079004 7.2299028,7.3879704 7.2563148,7.2204852 7.17538,7.084544 6.9721656,6.9589268 6.8665816,6.8936652 6.8226624,6.8369436 6.8226624,6.7634824 c 0,-0.056996 -0.036068,-0.1732 -0.080202,-0.2585164 C 6.3378776,5.7227484 6.3432924,5.4990756 6.762704,5.6585596 6.934736,5.7239768 7.0056796,5.6776956 7.0874068,5.4475416 7.130044,5.3274724 7.2064184,5.2084232 7.2657208,5.1695592 7.415478,5.0714184 7.654684,5.1197372 7.7874248,5.274678 7.9407304,5.4536208 8.1025884,5.54376 8.2094604,5.5098348 c 0.082388,-0.026152 0.089156,-0.048761 0.066186,-0.2445004 -0.074548,-0.6351788 -0.081035,-0.824604 -0.026476,-0.824604 0.03002,0 0.2079232,0.1561712 0.3955612,0.3465052 0.2886744,0.2928168 0.3782872,0.4197364 0.5808824,0.8253828 0.1316892,0.2636756 0.2390496,0.5234392 0.2390496,0.5769892 0,0.053546 0.0174,0.097333 0.038152,0.097333 0.05026,0 0.079466,-0.364358 0.042826,-0.5341628 C 9.5223384,5.6448276 9.5310664,5.613426 9.5900264,5.5947092 9.655912,5.5737852 9.6470664,5.5369652 9.5035948,5.2513188 9.3478272,4.9412012 9.158054,4.4405524 9.1859,4.412698 9.193448,4.40515 9.355048,4.377254 9.5448636,4.3504056 c 0.4214552,-0.059614 0.7291004,-0.012512 1.1251684,0.1728632 0.149777,0.070101 0.278956,0.1277004 0.287327,0.1277004 0.0084,0 -0.0042,-0.051798 -0.02803,-0.115242 C 10.869936,4.3774304 10.575244,4.0801596 10.052554,3.653502 9.6048288,3.2880304 9.3437028,3.0297016 9.340856,2.9488116 9.33536,2.7922516 9.1904728,2.4542272 9.0465212,2.2612523 8.7678892,1.8877333 8.8149956,1.8014025 9.3502004,1.7060655 9.526982,1.6745835 9.6139652,1.6348247 9.6749028,1.5573409 9.7779152,1.4263638 9.7823068,1.3600517 9.6850228,1.4008296 9.5669716,1.4503072 9.2068804,1.5121357 9.1820068,1.4872612 9.1694588,1.4747144 9.23595,1.3805771 9.3299528,1.2785795 9.5159396,1.0767724 9.6756696,0.79724016 9.6725644,0.67823024 9.6715644,0.63686644 9.6253456,0.69071504 9.5690028,0.79892304 9.4427984,1.0413258 9.3257456,1.1267402 9.1204924,1.1267402 c -0.087135,0 -0.1588476,-0.00698 -0.1588476,-0.016352 0,-0.0094 0.056832,-0.14371708 0.126144,-0.29822804 C 9.26511,0.41687864 9.2818232,0.22035284 9.1648764,0.03894792 l -0.00779,-0.0124584 h -0.100448 l -0.016352,0.1876578 C 8.9889608,0.70421108 8.8165552,1.0854724 8.645506,1.0854724 c -0.033932,0 -0.094567,-0.038734 -0.1347092,-0.085653 C 8.4519304,0.9310054 8.4375252,0.83159976 8.43683,0.48590164 8.4365096,0.30070208 8.427762,0.13323292 8.406462,0.02649044 H 8.1915512 C 8.2144152,0.33305908 8.1396728,0.61910256 7.9688536,0.78023628 7.8887636,0.85578004 7.81087,0.91745976 7.7952116,0.917281 7.7795556,0.9171188 7.7644196,0.7955318 7.7617316,0.6478636 7.7572236,0.39948752 7.7015628,0.16949476 7.5982108,0.02649044 Z m 0.7623108,12.74515756 0.1440528,0.0841 c 0.2234804,0.130542 0.3324896,0.324582 0.3324896,0.591004 0,0.355183 -0.069624,0.445301 -0.513918,0.660307 C 7.563592,14.210095 7.2194792,14.343734 7.011876,14.403726 6.6190808,14.51724 6.0233352,14.575914 5.8804792,14.515074 5.8078944,14.484158 5.830514,14.455467 6.0689152,14.279918 6.218156,14.170025 6.4634548,14.007291 6.61398,13.91784 6.7645016,13.828392 6.999696,13.664402 7.1364624,13.554204 7.3617892,13.372644 7.455412,13.267796 7.7274676,12.891562 Z m -0.07553,1.734861 c 0.1287896,-6.8e-4 0.2011448,0.08316 0.3387188,0.269418 0.093354,0.126392 0.1889964,0.241604 0.2125748,0.25618 0.077096,0.04766 0.045139,0.105119 -0.0584,0.105119 -0.055754,0 -0.3000076,0.09688 -0.542728,0.214911 C 7.2143104,15.582745 6.9396084,15.642172 6.8016376,15.545246 6.7555052,15.512838 6.60957,15.442118 6.4769352,15.387956 6.3442996,15.333794 6.2355496,15.277879 6.2355496,15.26337 c 0,-0.05485 0.23824,-0.246065 0.4196988,-0.337161 0.1038032,-0.05211 0.3838844,-0.176049 0.6229308,-0.274868 0.2255192,-0.09323 0.360018,-0.144355 0.46019,-0.144832 z"/>
</svg>
