<svg xmlns="http://www.w3.org/2000/svg" width="16" height="16" version="1">
 <path style="fill:#c9c9c9" d="M 7.9384,3.6e-5 7.9376,0.0016 C 3.5348,0.03516 0,3.58884 0,8 c 0,4.432 3.568,8 8,8 4.272,0 7.7404,-3.3156 7.9852,-7.5244 L 16,8.4616 V 1.6 C 16,0.7136 15.2864,0 14.4,0 H 7.9384 Z"/>
 <path style="fill:#2669ee;stroke:#f4f4f7;stroke-width:0;stroke-linecap:square;stroke-opacity:0" d="M 14,2.0000004 C 9.0243092,2.1715758 5.9798512,1.78467 3.705652,4.0588697 c -2.2741998,2.2741996 -2.2742055,5.9612733 0,8.2354783 2.2742052,2.274206 5.9612787,2.2742 8.235478,0 C 14.21533,10.020148 13.828424,6.9756919 14,2.0000004 Z"/>
 <path style="fill:#f4f4f7;stroke:#f4f4f7;stroke-width:0;stroke-linecap:square;stroke-opacity:0" d="M 8 4 C 6.9762265 4 5.9529884 4.3907623 5.171875 5.171875 C 3.6096488 6.7341004 3.6096492 9.2659007 5.171875 10.828125 C 6.7341008 12.390351 9.265898 12.390351 10.828125 10.828125 C 12.390351 9.2659007 12.39035 6.7341004 10.828125 5.171875 C 10.047012 4.3907623 9.023774 4 8 4 z M 8.0292969 6 A 2.0003296 2.0000706 0 0 1 9.4140625 6.5859375 A 2.0003296 2.0000706 0 0 1 9.4140625 9.4140625 A 2.0003296 2.0000706 0 0 1 6.5859375 9.4140625 A 2.0003296 2.0000706 0 0 1 6.5859375 6.5859375 A 2.0003296 2.0000706 0 0 1 8.0292969 6 z"/>
</svg>
