<svg xmlns="http://www.w3.org/2000/svg" width="16" height="16" version="1">
 <path style="fill:#426bcd" d="M 16,13.6 C 16,5.6 10.4,0 2.4,0 1.2,0 0,1.2 0,2.4 V 13.6 C 0,14.8 1.2,16 2.4,16 h 11.2 c 1.2,0 2.4,-1.2 2.4,-2.4 z"/>
 <path style="fill:#f4f4f7" d="m 3,3 v 0.833333 c 0,0.458467 0.377892,0.833334 0.833333,0.833334 4.142167,0 7.5,3.357833 7.5,7.5 0,0.458466 0.377892,0.833333 0.833334,0.833333 H 13 V 12.166667 C 13,7.104167 8.895833,3 3.833333,3 Z"/>
 <path style="fill:#f4f4f7" d="M 3,6.333333 V 7.166667 C 3,7.625133 3.377892,8 3.833333,8 6.1345,8 8,9.8655 8,12.166667 8,12.625133 8.377892,13 8.833333,13 H 9.666667 V 12.166667 C 9.666667,8.945 7.055,6.333333 3.833333,6.333333 Z"/>
 <path style="fill:#f4f4f7" d="M 4.5,10 C 3.67155,10 3,10.671572 3,11.5 3,12.328427 3.671573,13 4.5,13 5.328428,13 6,12.328427 6,11.5 6,10.671572 5.328451,10 4.5,10 Z"/>
</svg>
