<svg xmlns="http://www.w3.org/2000/svg" width="16" height="16" version="1">
 <rect fill="#b2bfd9" width="16" height="16" x="0" y="0" rx=".8" ry=".8"/>
 <path opacity=".6" d="m12.25 3h-8.5l-0.25 4h0.75c0.1002-0.6925 0.2068-1.3684 0.3642-1.8116 0.372-1.0111 0.6628-1.1657 1.6358-1.1657 0.47218 0 0.75 0.15235 0.75 0.49861v6.8556c0 0.58172 0 0.62315-1.0819 0.62315h-0.41812v1h5v-1h-0.41812c-1.1448 0-1.082-0.041-1.082-0.623v-6.8556c0-0.34626 0.27782-0.49861 0.75-0.49861 0.87281 0 1.1924 0.09919 1.5502 0.93022 0.215 0.5124 0.336 1.2575 0.45 2.047h0.75z"/>
</svg>
