<svg xmlns="http://www.w3.org/2000/svg" width="16" height="16" version="1.1">
 <g transform="translate(0,-1036.3622)">
  <path style="fill:#4f4f4f" d="m 10.858011,1037.3644 c -0.773039,0.077 -1.2593276,0.3384 -1.7679205,0.7439 -0.9359658,-0.3971 -1.6048837,0.052 -2.3051305,0.5401 -0.560604,-0.08 -1.0259903,0.2086 -1.3225214,0.4352 -0.083742,-0.099 -0.2272943,-0.2775 -0.3008396,-0.3614 -0.5559694,-0.6418 -0.9367624,-0.9577 -1.3811267,-1.1247 l -0.00195,0 c -0.6238289,-0.2294 -1.3947932,-0.1669 -1.9300611,0.07 -1.02153376,0.4643 -1.67044944,1.1974 -1.78550186,2.0397 -0.18933878,0.7754 0.0880196,1.4866 0.30865349,1.8862 0.44126777,0.7992 1.00695997,1.4443 2.21527257,2.9857 0.0829,0.1057 0.1340612,0.1727 0.2148853,0.2758 -0.00109,0 -0.00281,8e-4 -0.00391,0 -0.5337145,0.562 -0.7491957,1.3006 -0.7657732,1.8997 -0.043451,1.5697 0.9559138,2.2469 1.7132223,2.6516 0.3801078,0.2034 0.4085553,0.1868 0.6778655,0.2934 0.2693103,0.1065 0.6156851,0.2405 1.0158216,0.3885 0.8002732,0.2958 1.812581,0.6524 2.8169516,0.9693 0.4824843,0.1522 0.886384,0.2779 1.4514529,0.303 0.5650686,0.025 1.3908866,-0.2138 1.8597346,-0.5944 0.647689,-0.5163 1.322043,-1.1591 1.832387,-1.6048 0.773738,-0.686 1.332258,-1.161 1.744477,-1.5753 0.119736,-0.1204 0.293731,-0.2818 0.49033,-0.6022 0.196598,-0.3206 0.350643,-0.821 0.363352,-1.218 0.02541,-0.7938 -0.162906,-1.1165 -0.328189,-1.62 -0.378965,-1.1546 -0.878525,-2.3904 -1.377219,-3.448 -0.249348,-0.5288 -0.496821,-1.0113 -0.746239,-1.4336 -0.249418,-0.4224 -0.380711,-0.7428 -0.963077,-1.2258 -0.582945,-0.484 -1.162661,-0.6831 -1.724943,-0.6759 z"/>
  <path style="fill:#f4f4f7" d="m 10.303181,1049.2066 c 0.424575,-0.3459 3.146415,-2.7728 3.419724,-3.0491 0.359909,-0.3639 0.362944,-0.4593 0.04558,-1.4317 -0.694498,-2.1278 -1.916142,-4.7672 -2.466044,-5.2259 -0.228894,-0.1911 -0.651252,-0.1882 -0.948017,0.01 -0.4138565,0.2712 -0.3954716,0.6362 0.07569,1.5026 0.169723,0.312 0.308584,0.6888 0.308584,0.7148 0,0.026 -0.05895,0.048 -0.131002,0.048 -0.09224,0 -0.303054,-0.2752 -0.7125606,-0.9301 -0.6231169,-0.9966 -0.8029782,-1.155 -1.2123906,-1.0682 -0.308655,0.065 -0.6603,0.3167 -0.7762059,0.5544 -0.1340429,0.2748 -0.078685,0.4138 0.5453592,1.3689 0.3833096,0.5867 0.4878906,0.7965 0.42837,0.8596 -0.043313,0.046 -0.1005862,0.084 -0.127276,0.084 -0.02669,0 -0.3757106,-0.4718 -0.7755921,-1.0488 -0.2557065,-0.3689 -0.4551719,-0.6401 -0.6039636,-0.8204 -0.2558309,-0.3665 -0.4984668,-0.2526 -0.8122225,-0.1312 -0.2245799,0.1163 -0.4517311,0.2838 -0.5637137,0.4394 -0.2632791,0.3662 -0.2244075,0.5974 0.2079421,1.2365 0.2078447,0.3071 0.5163134,0.7388 0.6854873,0.959 0.2961693,0.3857 0.3676911,0.6575 0.1893711,0.7197 -0.1036801,0.036 -0.049872,0.098 -2.038053,-2.3624 -1.2312955,-1.524 -1.8094855,-2.1869 -1.9540658,-2.2404 -0.2723019,-0.1007 -0.5688402,0.031 -0.85981,0.3828 -0.4302002,0.5198 -0.4807251,0.4277 1.9389258,3.5318 1.1877528,1.5238 2.1897043,2.8121 2.226562,2.8627 0.136762,0.1881 0.2669746,0.1747 -0.3820557,-0.053 -0.5463779,-0.1921 -0.7444118,-0.2289 -1.1021473,-0.2048 -0.5928055,0.052 -0.8624079,0.3952 -0.8754608,0.8696 -0.00912,0.3313 0.2924667,0.6505 0.6614216,0.8487 0.2111162,0.1136 2.2466725,0.9054 4.1672929,1.5148 0.8392641,0.2663 1.1740686,0.2813 1.4402736,0.064 z"/>
 </g>
</svg>
