<svg xmlns="http://www.w3.org/2000/svg" width="16" height="16" version="1.1">
 <path style="fill:#fe4b71" d="m8.0419413 5.3203445e-4c-0.3258058-0.0080753844-0.6474957 0.075883426-0.9298256 0.24267798l-5.2242898 3.0903743c-0.5494191 0.3249675-0.88786613 0.925595-0.88782597 1.5755869v6.1811488c-4.5e-7 0.649918 0.33840727 1.250468 0.88774817 1.575427l5.2242898 3.090534c0.3061739 0.181115 0.6519462 0.261286 0.9931767 0.240513 0.2710089-0.0165 0.3938042-0.423704 0.6369708-0.567548l4.9699296-3.126871c0.549419-0.324968 0.633505-0.453211 0.633465-1.103203l0.39971-6.2174864c1.4e-5 -0.2269675 0.213116-0.5205905 0.136016-0.7258852-0.143701-0.3826303-0.411912-0.7108825-0.769482-0.9223761l-5.2242898-3.0903743c-0.2576547-0.15219858-0.5484965-0.23564471-0.8458262-0.24267798z"/>
 <path style="fill:#ff8c2a" d="m1.1793686 4.1138934a1.7754963 1.8191449 0 0 0-0.179252 0.7953062v6.1811984a1.7754963 1.8191449 0 0 0 0.8879049 1.574987l5.2241319 3.090599a1.7754963 1.8191449 0 0 0 0.8879049 0.242967v-7.98509z"/>
 <path style="fill:#17191e" d="m14.825305 4.1287373-6.8260062 3.9023111 7.595e-4 7.9679026a1.7754963 1.8191449 0 0 0 0.8871454-0.242967l5.2248913-3.090599a1.7754963 1.8191449 0 0 0 0.887905-1.574987v-6.1811984a1.7754963 1.8191449 0 0 0-0.174695-0.7804623z"/>
 <path style="fill:#f4f4f7" d="m12 12.056-3 1.699022v0.744978l3-1.658204z"/>
</svg>
