<svg width="16" height="16" version="1.1" xmlns="http://www.w3.org/2000/svg">
 <path d="m5 2c-0.8604214 3.903e-4 -1.6241829 0.5509908-1.8964844 1.3671875l-3 9.0000005c-0.43166903 1.294794 0.53162897 2.632102 1.8964844 2.632812h9c0.860421-3.91e-4 1.624183-0.550991 1.896484-1.367188l3-8.9999995c0.431669-1.2947945-0.531628-2.6321022-1.896484-2.6328125z" style="fill:#447490"/>
 <path d="m0 0v5l4 2s-1 1 1 3c6 3.630694 7 6 7 6l4-3s-3-1-5-2c0 0 1 0 0-1 0 0-1.9998345-4-2.6269531-5-0.4202286-0.6700943-2.3730469 0-2.3730469 0l-3-3v1zm2 0 4 4h2l-4-4z" style="fill:#f4f4f7"/>
 <path d="m8 7 2 3s-1 0-2-1 0-2 0-2z" style="fill:#447490"/>
</svg>
