<svg width="16" height="16" version="1.1" xmlns="http://www.w3.org/2000/svg">
 <circle cx="8" cy="8" r="8" style="fill:#54749d"/>
 <path d="m13 2s-12 1-12 6 12 6 12 6-11-2-11-6 11-6 11-6zm-1 1s-9 2-9 5 9 5 9 5-8-3-8-5 8-5 8-5zm-2 2s-5 1-5 3 5 3 5 3-4-2-4-3 4-3 4-3z" style="fill:#f4f4f7"/>
</svg>
