<svg xmlns="http://www.w3.org/2000/svg" width="16" height="16" version="1">
 <path style="fill:#ecd09e" d="M 6.4609375 4.8007812 C 3.3900776 4.8007812 1 5.6962117 1 6.8007812 L 1 14 C 1 15.104569 3.3900776 16 6.4609375 16 C 9.5317974 16 12 15.104569 12 14 L 12 13 L 12.419922 13 C 13.955351 13 15 11.946788 15 10.400391 C 15 8.8539933 13.955351 8 12.419922 8 L 12 8 L 12 6.8007812 C 12 5.6962117 9.5317974 4.8007812 6.4609375 4.8007812 z M 12 9 L 12.464844 9 C 13.435132 9 14 9.3651634 14 10.384766 C 14 11.404369 13.435133 12 12.464844 12 L 12 12 L 12 9 z"/>
 <ellipse style="opacity:0.2;fill:#f4f4f7" cx="6.5" cy="6.85" rx="5.5" ry="2.15"/>
 <ellipse style="fill:#c64e27" cx="6.487" cy="6.75" rx="4.5" ry="1.25"/>
 <path style="fill:#989898" d="M 7.0016213,0 C 7.8154835,0.67893295 8.8094238,1.3827756 8.9910549,2.3828798 9.1538664,3.27936 7.0441451,3.561558 6.7346397,4.6514029 6.598747,5.1299141 7.6374496,6.3046147 7.5059847,7 H 5.4605109 C 4.5090147,6.2835286 3.950477,4.9492804 4.003461,3.9795954 4.0790419,2.5963503 6.7694614,2.5999473 7.6160368,1.6127162 7.9460669,1.227852 7.0016213,0 7.0016213,0 Z"/>
</svg>
