<svg width="16" height="16" version="1.1" xmlns="http://www.w3.org/2000/svg">
 <circle cx="8" cy="8" r="8" style="fill:#5c8ba2"/>
 <path d="m9 13v-6h5v4h-5" style="fill:none;stroke-linecap:round;stroke-linejoin:round;stroke-width:2;stroke:#f4f4f7"/>
</svg>
