<svg width="16" height="16" version="1.1" xmlns="http://www.w3.org/2000/svg">
 <circle cx="8.5" cy="8.5" r="7.5" style="fill:#2b6beb"/>
 <path d="m0 2 7-2 4 4-2 1 3 3-2 1 6 7-11-6 2-1-5-3 2-1z" style="fill:#f4f4f7"/>
</svg>
