<svg xmlns="http://www.w3.org/2000/svg" width="16" height="16" version="1.1">
 <rect style="fill:#de554c" width="15" height="15" x="1" y="1" rx=".75" ry=".75"/>
 <path style="fill:none;stroke:#17191e" d="M 12.5,5.5 4.5,11.5 V 11.5 11.5 M 4.5,5.5 12.5,11.5 V 11.5 11.5"/>
 <path style="fill:#ffaa4f" d="M 4.5,4 A 1.5,1.5 0 0 0 3,5.5 1.5,1.5 0 0 0 4.5,7 1.5,1.5 0 0 0 6,5.5 1.5,1.5 0 0 0 4.5,4 Z M 12.5,4 A 1.5,1.5 0 0 0 11,5.5 1.5,1.5 0 0 0 12.5,7 1.5,1.5 0 0 0 14,5.5 1.5,1.5 0 0 0 12.5,4 Z M 8.5,6 A 2.5,2.5 0 0 0 6,8.5 2.5,2.5 0 0 0 8.5,11 2.5,2.5 0 0 0 11,8.5 2.5,2.5 0 0 0 8.5,6 Z M 4.5,10 A 1.5,1.5 0 0 0 3,11.5 1.5,1.5 0 0 0 4.5,13 1.5,1.5 0 0 0 6,11.5 1.5,1.5 0 0 0 4.5,10 Z M 12.5,10 A 1.5,1.5 0 0 0 11,11.5 1.5,1.5 0 0 0 12.5,13 1.5,1.5 0 0 0 14,11.5 1.5,1.5 0 0 0 12.5,10 Z"/>
</svg>
