<svg xmlns="http://www.w3.org/2000/svg" width="16" height="16" version="1">
 <path style="fill:#abb5bc" d="m 16,8 c 0,1.8633528 -0.637054,3.577914 -1.705242,4.937764 C 12.830117,14.802316 10.554925,15.167455 8,15.167455 c -4.418278,0 -6.5619678,-2.78702 -6.5619678,-7.2052978 0,-1.991512 -0.7103334,-3.775218 0.4936683,-5.175408 C 3.398842,1.0805418 5.573234,0 8,0 c 4.418278,0 8,3.581722 8,8 z"/>
 <path style="fill:#1d9ba1" d="M 1.694,3.0928 C 0.5996,4.4948 0.0032,6.2216 0,8 c 0,4.42 3.5816,8 8,8 2.6524,-4e-4 5.1324,-1.3156 6.6208,-3.5112 C 13.7204,12.478 7.9384,12.3444 7.1824,10.4536 6.3644,8.4088 9.2272,8 8.818,5.9552 8.306,3.3952 3.3544,3.1124 1.694,3.0924"/>
 <path style="fill:#3c3f3f" d="M 1.6936,3.0928 C 1.6908,3.0968 1.688,3.1008 1.6852,3.1044 3.6044,3.162 8.1386,3.5592 8.6178,5.9552 9.0266,8 5.9464,8.3912 6.7644,10.436 c 0.7564,1.8904 6.7352,2.253 7.636,2.2634 l 0.2204,-0.7108 C 13.7204,11.9778 7.9388,12.3444 7.1824,10.4536 6.3644,8.4088 9.427,8 9.0182,5.9552 8.5062,3.3952 3.3544,3.1124 1.694,3.0928"/>
 <circle style="fill:#f4f4f7" cx="2" cy="3" r="1"/>
 <circle style="fill:#f4f4f7" cx="8.75" cy="5.75" r="1.25"/>
 <circle style="fill:#f4f4f7" cx="7.5" cy="10.5" r="1.5"/>
 <circle style="fill:#f4f4f7" cx="14" cy="12" r="2"/>
</svg>
