<svg xmlns="http://www.w3.org/2000/svg" xmlns:xlink="http://www.w3.org/1999/xlink" width="16" height="16" version="1">
 <defs>
  <linearGradient id="linearGradient939">
   <stop style="stop-color:#00ffec" offset="0"/>
   <stop style="stop-color:#f4f4f7;stop-opacity:0" offset="1"/>
  </linearGradient>
  <linearGradient id="linearGradient940" x1="22.26" x2="21.73" y1="32.569" y2="30.835" gradientTransform="matrix(1.1631932,0.71996165,-0.67156989,1.2470102,13.839308,-27.700175)" gradientUnits="userSpaceOnUse" xlink:href="#linearGradient938"/>
  <linearGradient id="linearGradient938">
   <stop style="stop-color:#2bb5fe" offset="0"/>
   <stop style="stop-color:#2bb5fe;stop-opacity:0" offset="1"/>
  </linearGradient>
  <linearGradient id="linearGradient941" x1="-17.139" x2="-17.115" y1="28.185" y2="25.295" gradientTransform="matrix(1.2465271,0,0,1.1126096,3.1765718,-4.4649809)" gradientUnits="userSpaceOnUse" xlink:href="#linearGradient939"/>
  <linearGradient id="linearGradient967" x1="-17.139" x2="-17.115" y1="28.185" y2="25.295" gradientTransform="matrix(1.0318994,0,0,0.92103985,47.612354,0.58017691)" gradientUnits="userSpaceOnUse" xlink:href="#linearGradient939"/>
 </defs>
 <rect style="fill:#10798b" width="16" height="16" x="0" y="0" rx="4.8" ry="4.8"/>
 <ellipse id="ellipse24" style="fill:#fcd0b8" cx="8.063" cy="7.122" rx="5.022" ry="4.878"/>
 <path style="fill:#f4f4f7" d="m 5.1206762,7.1555282 c 0.5675583,-0.3224062 1.5424615,-0.017475 1.866871,0.5849104 -0.033517,0.3665681 -0.15168,0.7408634 -0.2381156,1.0737096 -3.75e-4,0.00169 -8.25e-4,0.00338 -0.00128,0.00507 -0.00467,0.00995 -0.00777,0.020738 -0.012686,0.030585 C 6.6384676,9.1155053 6.460214,9.3380391 6.22988,9.480991 5.6677682,9.8289112 4.9489979,9.62244 4.6244624,9.0198233 4.4582009,8.7335641 4.4075523,8.3760376 4.3625414,8.0979103 4.4266822,7.7241118 4.8046536,7.3350715 5.1206609,7.1555612 Z"/>
 <ellipse id="ellipse28" style="fill:#006280" cx="-5.931" cy="8.203" rx=".898" ry="1.072" transform="scale(-1,1)"/>
 <ellipse id="ellipse34" style="fill:#f4f4f7;stroke:#f4f4f7;stroke-width:0.25188094;stroke-linecap:round;stroke-linejoin:round;stroke-opacity:0" cx="8.303" cy="4.086" rx=".303" ry=".462" transform="matrix(0.87274678,0.48817318,-0.44247192,0.89678236,0,0)"/>
 <path style="fill:#26a7b4" d="M 6.0566461,8.1404533 A 1.0853011,0.99596325 0 0 0 5.1127896,8.6446974 0.8984917,1.0719374 0 0 0 5.9308558,9.2750025 0.8984917,1.0719374 0 0 0 6.8088226,8.420417 1.0853011,0.99596325 0 0 0 6.0566461,8.1404533 Z"/>
 <path id="ellipse942" style="fill:#84fafe" d="M 6.1233924,8.6230426 A 1.0853011,0.99596325 0 0 0 5.3019032,8.9687434 0.8984917,1.0719374 0 0 0 5.9308558,9.2750025 0.8984917,1.0719374 0 0 0 6.6915893,8.772305 1.0853011,0.99596325 0 0 0 6.1233924,8.6230426 Z"/>
 <ellipse id="ellipse885" style="fill:#17191e" cx="-5.935" cy="8.193" rx=".239" ry=".288" transform="scale(-1,1)"/>
 <path style="fill:#534735" d="m 5.6057859,7.0261694 c 0.5288366,-0.022016 1.3491115,0.3583424 1.5924183,0.81013 -0.0068,0.074349 -0.210657,-0.095861 -0.021615,0.2671875 0.050322,0.096644 -0.022012,0.2184577 -0.041257,0.301122 C 6.8634128,7.8482544 5.8994814,7.2447419 5.3417496,7.3876198 4.9896842,7.4778107 4.5225865,7.7538823 4.3625017,8.0977025 4.4266428,7.7239041 4.804429,7.3347081 5.1204362,7.1551979 5.2623257,7.0745965 5.4295086,7.0335081 5.6057878,7.0261694 Z"/>
 <path style="fill:#f4f4f7" d="M 10.827527,7.1555282 C 10.259969,6.833122 9.2850658,7.1380532 8.9606564,7.7404386 8.9941744,8.1070067 9.1123363,8.481302 9.198772,8.8141482 c 3.75e-4,0.00169 8.25e-4,0.00338 0.00127,0.00507 0.00467,0.00995 0.00777,0.020738 0.012686,0.030585 0.097003,0.2656983 0.2752564,0.4882321 0.5055907,0.631184 C 10.280435,9.8289112 10.999206,9.62244 11.323741,9.0198233 11.490002,8.7335641 11.540652,8.3760376 11.585662,8.0979103 11.521521,7.7241118 11.14355,7.3350715 10.827542,7.1555612 Z"/>
 <ellipse id="ellipse955" style="fill:#006280" cx="-10.602" cy="8.241" rx=".899" ry="1.034" transform="scale(-1,1)"/>
 <ellipse id="ellipse957" style="fill:#f4f4f7;stroke:#f4f4f7;stroke-width:0.24736388;stroke-linecap:round;stroke-linejoin:round;stroke-opacity:0" cx="12.543" cy="2.04" rx=".3" ry=".449" transform="matrix(0.88008622,0.4748139,-0.4554192,0.89027712,0,0)"/>
 <path style="fill:#26a7b4" d="M 10.727822,8.1801436 A 1.0858566,0.96112116 0 0 0 9.7834824,8.6667473 0.89895168,1.0344374 0 0 0 10.601968,9.2750025 0.89895168,1.0344374 0 0 0 11.480383,8.4503131 1.0858566,0.96112116 0 0 0 10.727822,8.1801436 Z"/>
 <path style="fill:#84fafe" d="M 10.794602,8.6458505 A 1.0858566,0.96112116 0 0 0 9.9726924,8.9794576 0.89895168,1.0344374 0 0 0 10.601968,9.2750025 0.89895168,1.0344374 0 0 0 11.36309,8.7898913 1.0858566,0.96112116 0 0 0 10.794602,8.6458505 Z"/>
 <ellipse id="ellipse963" style="fill:#17191e" cx="-10.607" cy="8.231" rx=".24" ry=".278" transform="scale(-1,1)"/>
 <path style="fill:#534735" d="m 10.342418,7.0261694 c -0.528837,-0.022015 -1.3491119,0.3583424 -1.5924186,0.81013 0.0068,0.074349 0.210657,-0.095861 0.021619,0.2671875 -0.050322,0.096644 0.022013,0.2184577 0.041257,0.301122 0.27192,-0.5563545 1.2358516,-1.159867 1.7935826,-1.0169891 0.352066,0.090191 0.819163,0.3662625 0.979249,0.7100827 C 11.521564,7.7239041 11.143778,7.3347081 10.827771,7.1551979 10.685881,7.0745965 10.518699,7.0335081 10.34242,7.0261694 Z"/>
 <path style="fill:#c9d6e1" d="M 7.9227018,-5.7599993e-6 C 6.3296214,-6.5424744e-4 0.62666841,0.94290613 2.3062589,10.687649 c 0.100302,0.815308 0.1725469,1.220411 0.7833703,1.745481 l 0.7470666,0.642187 c -0.3812883,1.969486 0.2437515,1.691051 0.6395284,1.924676 0.092483,-0.59193 0.7062029,-1.012658 -0.2584249,-1.951859 C 4.6997058,12.667826 5.5244349,12.145181 5.1487202,11.464356 4.4772805,10.247655 4.0658006,9.1009851 4.019859,8.1619825 4.0004677,7.7656484 4.3534679,5.8412203 4.8798531,5.7034055 4.9741776,5.6787118 5.2655582,6.4086604 5.358547,6.7756755 5.4708414,6.0452667 6.2662269,3.6166796 6.2896655,3.9916053 6.3135155,4.3731419 6.147902,4.9959047 6.2401479,5.6544748 6.3882751,6.712002 6.8431564,7.7977379 7.1240468,7.6435496 7.7342734,7.3085786 8.2456319,8.1244375 8.9729522,8.0075527 9.2725255,7.9594094 9.1624337,4.7915954 9.3323169,4.9378592 c 0.059369,0.051114 0.1655168,0.430809 0.4082261,0.8735047 -3.461e-4,0.00782 2.022e-4,0.00987 0.00206,0.00375 0.1199666,0.2182897 0.272595,0.4514148 0.470288,0.6684614 0.570583,0.5092575 0.839666,0.7758202 1.714404,1.1428942 0.03897,0.2398664 0.05768,0.4359622 0.0528,0.5355202 -0.04594,0.9390025 -0.457355,2.0856723 -1.128796,3.3023733 -0.375716,0.680825 0.449013,1.203471 0.93092,1.583778 C 10.817575,13.987343 11.431294,14.40807 11.523778,15 c 0.395776,-0.233624 1.02075,0.04481 0.639463,-1.924675 l 0.882564,-0.758623 c 0.508393,-0.308168 0.50827,-0.876782 0.598716,-1.35258 0.306224,-1.668632 0.399943,-3.0854343 0.336364,-4.2884361 0.0047,-0.00371 0.0088,-0.00741 0.01359,-0.011134 C 14.119834,2.7641325 12.086129,1.1636485 10.385194,0.49894564 9.3983061,0.06715032 8.4716283,-0.00905815 7.9999994,8.3558992e-4 7.9753957,3.1808997e-4 7.9497292,3.0899998e-6 7.9227018,-4.4099994e-6 Z M 5.358547,6.7756755 c 0,0 -0.023869,-0.00999 0,0 0.037264,0.0156 0,0 0,0 z"/>
 <path style="opacity:0.5;fill:#f4f4f7" d="m 9.0810538,2.2155699 0.1706547,3.0820309 c 0.017846,-0.2390246 0.041465,-0.3932842 0.080566,-0.359619 0.059369,0.051114 0.1652497,0.4303511 0.4079591,0.8730468 -3.462e-4,0.00782 3.367e-4,0.010508 0.00221,0.0044 0.1199666,0.2182897 0.2725224,0.4509221 0.4702154,0.6679687 0.242832,0.25311 0.444802,0.4358235 0.742672,0.6210929 C 10.321926,5.850332 9.736922,4.363456 9.0810538,2.2155699 Z M 5.6260104,3.1938574 C 5.1025615,4.3075934 4.8622679,4.7923232 4.5275875,6.0783624 4.632778,5.8789933 4.750972,5.7371131 4.8798827,5.7033624 4.9173077,5.6935636 4.9874834,5.8178146 5.0622557,5.9758235 5.202013,4.898926 5.2537693,4.4578184 5.6260104,3.1938574 Z M 7.1767575,4.5476009 7.3444819,7.568841 C 7.6804425,7.5209745 7.9981466,7.7591013 8.3530267,7.9072199 7.9689716,6.9759338 7.586964,5.8909767 7.1767575,4.5476009 Z m 5.3834665,0.6989879 c 0.672699,1.4779416 0.807388,4.6249154 -0.890792,7.4733752 0.11674,0.271667 0.998238,1.06362 0.96179,0.498556 1.396392,-4.8802346 1.056768,-6.4022837 -0.071,-7.9719312 z m -0.890792,7.4733752 c -0.03154,0.05923 -0.05769,0.112826 -0.08862,0.171386 0.0057,0.0044 0.01116,0.0088 0.01685,0.01318 0.02405,-0.06103 0.04864,-0.120057 0.07178,-0.18457 z M 3.236328,5.7297298 C 3.0210443,8.0025464 3.315599,10.407659 3.9334275,13.027639 l 0.2843718,0.02049 c 0.451215,0.204012 0.0024,-0.01253 0,-10e-7 0.070577,0.296999 -0.08194,-0.30173 0,0 l -2.62e-5,-4.5e-5 c 0.012971,-0.274902 0.4327124,0.421306 0,0 0.1738747,-0.137217 0.3916304,-0.29373 0.5822755,-0.46875 C 3.9746145,10.793784 3.4039856,8.5919181 3.236328,5.7297298 Z"/>
 <path style="fill:#b96b6b" d="M 8.7591408,10.929009 C 8.5501701,11.133154 8.2373152,11.210641 7.9415088,11.131517 7.6460314,11.051996 7.4140973,10.828562 7.3352513,10.547479 v 0 c 0.1149768,0.17695 0.4448583,0.347084 0.6545969,0.403635 0.2095901,0.0555 0.5816036,0.07347 0.7692926,-0.02211 z"/>
 <g transform="matrix(0.37499996,0,0,0.37499996,-0.99999969,-1.5000059)">
  <path style="fill:#ff616f" d="m 10.345657,37.743498 c -0.245477,0.06171 -0.3948521,0.317319 -0.330827,0.566037 0,0 0.616545,1.102755 0.762065,1.681215 0.145502,0.578464 -0.178817,1.395297 0.118499,1.726809 0.505041,0.563132 0.82936,0.166309 1.316924,-0.173007 0.825323,-0.631783 1.304717,-1.403953 1.889358,-2.133336 0.857981,0.328517 1.645443,0.748661 2.664805,0.867856 0.585844,0.04105 1.058037,0.216538 1.223904,-0.533021 0.09765,-0.441261 -0.577057,-0.980493 -0.729944,-1.556905 -0.152894,-0.57641 -0.15062,-1.851119 -0.15062,-1.851119 -0.06447,-0.248594 -0.317069,-0.392485 -0.559413,-0.318662 -1.062916,0.493015 -1.731409,1.638991 -2.646869,2.625005 -1.268211,-0.37923 -2.399666,-1.025049 -3.557882,-0.900872 z"/>
  <path style="fill:#e53c64" d="m 13.532929,38.063006 c -0.284633,0.0789 -0.453551,0.382308 -0.377122,0.677385 0.261537,0.382028 0.194447,0.743617 0.288141,1.115181 0.0765,0.294651 0.368768,0.469274 0.652941,0.390115 0.318527,-0.186988 0.516046,-0.156622 0.761005,-0.211462 0.284266,-0.07879 0.453187,-0.381571 0.377373,-0.676412 -0.178794,-0.348734 -0.380407,-0.691127 -0.28814,-1.115182 -0.07608,-0.295175 -0.368655,-0.470349 -0.653193,-0.391088 z"/>
  <path style="fill:#ff616f" d="m 37.654343,37.743498 c 0.245477,0.06171 0.394852,0.317319 0.330827,0.566037 0,0 -0.616545,1.102755 -0.762065,1.681215 -0.145502,0.578464 0.178817,1.395297 -0.118499,1.726809 -0.505041,0.563132 -0.82936,0.166309 -1.316924,-0.173007 -0.825323,-0.631783 -1.304717,-1.403953 -1.889358,-2.133336 -0.857981,0.328517 -1.645443,0.748661 -2.664805,0.867856 -0.585844,0.04105 -1.058037,0.216538 -1.223904,-0.533021 -0.09765,-0.441261 0.577057,-0.980493 0.729944,-1.556905 0.152894,-0.57641 0.15062,-1.851119 0.15062,-1.851119 0.06447,-0.248594 0.317069,-0.392485 0.559413,-0.318662 1.062916,0.493015 1.731409,1.638991 2.646869,2.625005 1.268211,-0.37923 2.399666,-1.025049 3.557882,-0.900872 z"/>
  <path style="fill:#e53c64" d="m 34.467071,38.063006 c 0.284633,0.0789 0.453551,0.382308 0.377122,0.677385 -0.261537,0.382028 -0.194447,0.743617 -0.288141,1.115181 -0.0765,0.294651 -0.368768,0.469274 -0.652941,0.390115 -0.318527,-0.186988 -0.516046,-0.156622 -0.761005,-0.211462 -0.284266,-0.07879 -0.453187,-0.381571 -0.377373,-0.676412 0.178794,-0.348734 0.380407,-0.691127 0.28814,-1.115182 0.07608,-0.295175 0.368655,-0.470349 0.653193,-0.391088 z"/>
  <path style="fill:#ff616f" d="m 18.82264,12.520348 c 0.183081,0.130355 0.232687,0.403233 0.109885,0.60429 0,0 -0.816291,0.789011 -1.099133,1.257666 -0.282828,0.468664 -0.249339,1.293565 -0.58622,1.496285 -0.572249,0.344356 -0.724774,-0.107731 -1.026979,-0.559034 -0.495286,-0.814898 -0.668139,-1.647901 -0.939112,-2.475329 -0.794131,0.02744 -1.556612,0.15792 -2.423277,-0.05013 -0.490306,-0.143938 -0.925853,-0.133553 -0.848943,-0.849953 0.04527,-0.421742 0.749377,-0.692646 1.037657,-1.157215 0.288286,-0.464565 0.647696,-1.596736 0.647696,-1.596736 0.123131,-0.2008101 0.370301,-0.2507595 0.547389,-0.1106168 0.728744,0.7648762 0.950161,1.9879018 1.418702,3.1449788 1.143688,0.05385 2.251192,-0.171032 3.162335,0.295794 z"/>
  <path style="fill:#e53c64" d="m 16.127883,11.822625 c 0.210202,0.157669 0.262229,0.478992 0.116153,0.71738 -0.321964,0.258575 -0.369626,0.600189 -0.551485,0.901153 -0.146013,0.237988 -0.434305,0.303002 -0.644058,0.145244 -0.207262,-0.264047 -0.377254,-0.297907 -0.561859,-0.422005 -0.209933,-0.157459 -0.262141,-0.478226 -0.116634,-0.716594 0.244921,-0.254498 0.506691,-0.496342 0.551485,-0.901154 0.145818,-0.238583 0.434517,-0.303992 0.644539,-0.146031 z"/>
  <path style="fill:#ff616f" d="m 30.17736,12.520348 c -0.183081,0.130355 -0.232687,0.403233 -0.109885,0.60429 0,0 0.816291,0.789011 1.099133,1.257666 0.282828,0.468664 0.249339,1.293565 0.58622,1.496285 0.572249,0.344356 0.724774,-0.107731 1.026979,-0.559034 0.495286,-0.814898 0.668139,-1.647901 0.939112,-2.475329 0.794131,0.02744 1.556612,0.15792 2.423277,-0.05013 0.490306,-0.143938 0.925853,-0.133553 0.848943,-0.849953 -0.04527,-0.421742 -0.749377,-0.692646 -1.037657,-1.157215 C 35.665196,10.322363 35.305786,9.190192 35.305786,9.190192 35.182655,8.9893819 34.935485,8.9394325 34.758397,9.0795752 c -0.728744,0.7648762 -0.950161,1.9879018 -1.418702,3.1449788 -1.143688,0.05385 -2.251192,-0.171032 -3.162335,0.295794 z"/>
  <path style="fill:#e53c64" d="m 32.872117,11.822625 c -0.210202,0.157669 -0.262229,0.478992 -0.116153,0.71738 0.321964,0.258575 0.369626,0.600189 0.551485,0.901153 0.146013,0.237988 0.434305,0.303002 0.644058,0.145244 0.207262,-0.264047 0.377254,-0.297907 0.561859,-0.422005 0.209933,-0.157459 0.262141,-0.478226 0.116634,-0.716594 -0.244921,-0.254498 -0.506691,-0.496342 -0.551485,-0.901154 -0.145818,-0.238583 -0.434517,-0.303992 -0.644539,-0.146031 z"/>
 </g>
</svg>
