<svg xmlns="http://www.w3.org/2000/svg" width="16" height="16" version="1.1">
 <g style="fill:none" transform="matrix(0.61538,0,0,0.61538,-1.536983,-630.08689)">
  <path style="fill:#4f4f4f" d="m 8.9817957,1023.883 c -2.7038947,7e-4 -5.1181035,1.8304 -6.0207972,4.053 -0.9026938,2.2226 -0.4491773,5.2205 1.4885366,7.1063 l 1.8567033,1.8567 -1.8344863,1.8345 c -1.2830214,1.2327 -2.1125567,3.2191 -2.0217438,4.9956 0.090813,1.7766 0.867547,3.2257 1.929702,4.2879 1.0621551,1.0622 2.5113474,1.8389 4.287874,1.9297 1.7765267,0.091 3.7628837,-0.7387 4.9956427,-2.0217 l 1.834487,-1.8345 1.805921,1.8059 c 1.227186,1.2997 3.223045,2.1484 5.011512,2.063 1.788469,-0.085 3.247262,-0.8637 4.313265,-1.9297 1.066005,-1.066 1.844251,-2.5248 1.929702,-4.3133 0.08545,-1.7884 -0.763301,-3.7843 -2.063003,-5.0115 l -1.805922,-1.8059 1.866226,-1.8662 c 1.954202,-1.9105 2.38524,-4.9537 1.440927,-7.1825 -0.944311,-2.2287 -3.431731,-4.0359 -6.163619,-3.9609 h -0.0032 c -1.685091,0.047 -3.290685,0.7493 -4.468783,1.9551 l -1.863051,1.863 -1.856704,-1.8567 c -1.222259,-1.2564 -2.906352,-1.9677 -4.6592143,-1.9678 z"/>
 </g>
 <g style="fill:#f4f4f7" transform="matrix(0.61538,0,0,0.61538,-1.536983,-630.08689)">
  <path style="fill:#f4f4f7" transform="matrix(1.6250122,0,0,1.6250122,2.4976161,1023.8989)" d="M 3.9902344,2.9902344 A 1.0000925,1.0000925 0 0 0 3.2929688,4.7070312 L 6.5859375,8 3.2929688,11.292969 a 1.0000925,1.0000925 0 1 0 1.4140624,1.414062 L 8,9.4140625 11.292969,12.707031 a 1.0003045,1.0003045 0 1 0 1.414062,-1.414062 L 9.4140625,8 12.707031,4.7070312 a 1.0000925,1.0000925 0 0 0 -0.726562,-1.7148437 1.0000925,1.0000925 0 0 0 -0.6875,0.3007813 L 8,6.5859375 4.7070312,3.2929688 A 1.0000925,1.0000925 0 0 0 3.9902344,2.9902344 Z"/>
 </g>
</svg>
