<svg xmlns="http://www.w3.org/2000/svg" width="16" height="16" version="1">
 <path style="fill:#008374" d="m7.6000001 0c-0.8864 0-1.6 0.7136-1.6 1.6v0.75a6 6 0 0 0-1.8921876 1.0929688l-0.65-0.375c-0.7676448-0.4432-1.7427374-0.1817076-2.1859374 0.5859376l-0.4 0.6921872c-0.4432 0.7676452-0.1817074 1.7427376 0.5859375 2.1859376l0.646875 0.3734376a6 6 0 0 0-0.1046875 1.0945312 6 6 0 0 0 0.1046875 1.0945312l-0.646875 0.3734376c-0.7676449 0.4432-1.0291375 1.4182922-0.5859375 2.1859372l0.4 0.692188c0.4432 0.767645 1.4182926 1.029137 2.1859374 0.585937l0.6453124-0.372656a6 6 0 0 0 3.8968752 1.440625 6 6 0 0 0 3.8921879-1.442969l0.65 0.375c0.767644 0.4432 1.742737 0.181708 2.185937-0.585937l0.4-0.692188c0.4432-0.767645 0.181707-1.7427372-0.585937-2.1859372l-0.646875-0.3734376a6 6 0 0 0 0.104687-1.0945312 6 6 0 0 0-0.104687-1.0945312l0.646875-0.3734376c0.767644-0.4432 1.029137-1.4182924 0.585937-2.1859376l-0.4-0.6921872c-0.4432-0.7676452-1.418293-1.0291376-2.185937-0.5859376l-0.645313 0.372656a6 6 0 0 0-1.896875-1.0898436v-0.7507812c0-0.8864-0.7135999-1.6-1.5999999-1.6z"/>
 <rect style="fill:#b2bfd9" width="4" height="6.4" x="6" y="9.6" rx="1.6" ry="1.6"/>
 <rect style="opacity:.4" width="2" height="4.8" x="7" y="10.2" rx="1" ry=".8"/>
 <path style="fill:#f4f4f7" d="m10 4.546875v2.453125l-2 1.5-2-1.5v-2.4511719c-1.2237425 0.7080671-1.9981599 2.0148597-2 3.4511719 0 2.209138 1.7908612 4 4 4 2.209139 0 4-1.790862 4-4-7.23e-4 -1.437267-0.775574-2.7444472-2-3.453125z"/>
</svg>
