<svg xmlns="http://www.w3.org/2000/svg" width="16" height="16" version="1">
 <rect style="fill:#38a334" width="16" height="16" x="0" y="0" rx=".8" ry=".8"/>
 <path style="fill:#f4f4f7" d="M 11 3 A 3 3 0 0 0 8 6 A 3 3 0 0 0 8.2910156 7.28125 L 3 12.572266 L 3 14 L 4.4277344 14 L 5.4277344 13 L 7 13 L 7 11.427734 L 7.4277344 11 L 9 11 L 9 9.4277344 L 9.71875 8.7089844 A 3 3 0 0 0 11 9 A 3 3 0 0 0 14 6 A 3 3 0 0 0 11 3 z M 12 4 A 1 1 0 0 1 13 5 A 1 1 0 0 1 12 6 A 1 1 0 0 1 11 5 A 1 1 0 0 1 12 4 z"/>
 <path style="fill:#454545" d="M 3,5.4285715 V 3.9999999 H 4.4285716 L 13.000001,12.571428 V 14 h -1.428572 z"/>
</svg>
