<svg xmlns="http://www.w3.org/2000/svg" width="16" height="16" version="1">
 <path style="fill:#b2bfd9" d="M 15,15.280303 15,6.4403614 13.859456,5.3141004 C 13.579765,5.0379121 11.848393,3.5319658 11.467035,3.4595943 L 8.1057554,1.0089336 4.312215,3.5730752 C 3.9881702,3.7921044 2.3375425,5.1419615 2.066961,5.4275814 L 1,6.5538423 1,15.280303 C 1,15.679015 1.3122,16 1.7000001,16 L 14.300001,16 C 14.6878,16 15,15.679015 15,15.280303 Z"/>
 <rect style="opacity:0.15" width="14" height="1" x="1" y="6"/>
 <path style="fill:#4f4f4f" d="m 2.5070386,1 1,0 c 0.277,0 0.5,0.223 0.5,0.5 l 0,3.6 c 0,0.277 -0.223,0.5 -0.5,0.5 l -1,0 c -0.277,0 -0.5,-0.223 -0.5,-0.5 l 0,-3.6 c 0,-0.277 0.223,-0.5 0.5,-0.5 z"/>
 <rect style="fill:#956a42" width="4" height="6" x="2" y="9" rx=".6" ry=".563"/>
 <path style="fill:#956a42" d="M 10.041667,9 C 9.4717904,9 9,9.4717904 9,10.041667 l 0,2.916667 C 9,13.52821 9.4717904,14 10.041667,14 l 2.916667,0 C 13.52821,14 14,13.52821 14,12.958334 l 0,-2.916667 C 14,9.4717904 13.52821,9 12.958334,9 l -2.916667,0 z"/>
 <path style="fill:#c2eeff" d="m 10.1875,9.997894 c -0.110361,0 -0.1875,0.07719 -0.1875,0.187632 l 0,2.626842 C 10,12.922807 10.07714,13 10.1875,13 l 2.625001,0 c 0.110361,0 0.1875,-0.0772 0.1875,-0.187632 l 0,-2.626842 c 0,-0.110439 -0.07714,-0.187632 -0.1875,-0.187632 l -2.625001,0 z"/>
 <circle style="fill:#f4f4f7" cx="4.5" cy="12.5" r=".5"/>
 <path style="opacity:0.05" d="M 2.4065896,5.2303082 C 2.1731975,5.4244231 1.9813336,5.5890025 1.9048098,5.6676237 l -1.0964238,1.1260874 0,-0.3896636 1.5982036,0 z"/>
 <path style="opacity:0.15" d="M 4.0047932,3.56195 C 3.6351727,3.8344278 2.9262039,4.394091 2.4065896,4.8262607 l 0,1.1737393 1.5982036,0 z"/>
 <path style="opacity:0.05" d="M 6,2.4936506 4.2587891,3.4088897 C 4.21217,3.4333982 4.0844544,3.5121994 4,3.56195 L 4,6 6,6 Z"/>
 <path style="opacity:0.15" d="M 8,1.4417508 6,2.4936506 6,6 8,6 Z"/>
 <path style="opacity:0.05" d="M 9.135742,1.3442978 8,1.9417021 8,6 10,6 10,1.834716 Z"/>
 <path style="opacity:0.15" d="M 10,2.8351971 10,6 12,6 12,3.9690935 Z"/>
 <path style="opacity:0.05" d="M 12,3.9690935 12,6 l 1.598203,0 0,-0.9711971 C 13.409969,4.9037213 13.250777,4.8119144 13.165096,4.7960887 Z"/>
 <path style="opacity:0.05" d="m 13.594015,5.1787675 0,1.22528 1.598203,0 0,0.2764302 -1.17212,-1.1268683 c -0.06799,-0.065352 -0.22921,-0.2070686 -0.426083,-0.3748419 z"/>
 <path style="fill:none;stroke:#5d5d5d;stroke-width:2;stroke-linecap:round;stroke-linejoin:round" d="M 8.0003022,1 1,7"/>
 <path style="fill:none;stroke:#5d5d5d;stroke-width:2;stroke-linecap:round;stroke-linejoin:round" d="m 8,1 7,6"/>
</svg>
