<svg xmlns="http://www.w3.org/2000/svg" width="16" height="16" version="1">
 <circle style="fill:#5db41e" cx="8" cy="8" r="8"/>
 <path style="fill:#f4f4f7" d="m8 3a5 5 0 0 0 -5 5 5 5 0 0 0 5 5 5 5 0 0 0 5 -5 5 5 0 0 0 -5 -5zm0 1a4 4 0 0 1 4 4 4 4 0 0 1 -4 4 4 4 0 0 1 -4 -4 4 4 0 0 1 4 -4z"/>
 <path style="fill:#f4f4f7" d="m11 3.5-2 1.25-2 1.25v-5l2 1.25z"/>
 <path style="fill:#f4f4f7" d="m5 12.5 2 1.25 2 1.25v-5l-2 1.25z"/>
</svg>
