<svg xmlns="http://www.w3.org/2000/svg" width="16" height="16" version="1">
 <path style="fill:#3c79ff" d="M 15,15.2 V 0.8 C 15,0.3568 14.637625,0 14.1875,0 H 2.8125 C 2.362375,0 2,0.3568 2,0.8 V 15.2 C 2,15.6432 2.362375,16 2.8125,16 h 11.375 C 14.637625,16 15,15.6432 15,15.2 Z"/>
 <path style="fill:#f4f4f7" d="m 8.519779,3.9910027 a 3.519779,3.519779 0 0 1 3.519779,3.5197788 3.519779,3.519779 0 0 1 -0.608399,1.9781573 l 2.174942,2.1749442 a 0.66002455,0.66002455 0 1 1 -0.933225,0.933221 L 10.495357,10.419586 A 3.519779,3.519779 0 0 1 8.519779,11.030563 3.519779,3.519779 0 0 1 5,7.5107815 3.519779,3.519779 0 0 1 8.519779,3.9910027 Z m 0,1.319917 A 2.1998618,2.1998618 0 0 0 6.3199171,7.5107815 2.1998618,2.1998618 0 0 0 8.519779,9.7106438 2.1998618,2.1998618 0 0 0 10.719641,7.5107815 2.1998618,2.1998618 0 0 0 8.519779,5.3109197 Z"/>
</svg>
