<svg xmlns="http://www.w3.org/2000/svg" width="16" height="16" version="1">
 <rect style="fill:#b2bfd9" width="14" height="16" x="-15" y="-16" rx=".778" ry=".8" transform="matrix(0,-1,-1,0,0,0)"/>
 <rect style="fill:#a6a6a6" width="6" height="3" x="1" y="9" rx=".375" ry=".375"/>
 <rect style="fill:#a6a6a6" width="6" height="3" x="9" y="9" rx=".375" ry=".375"/>
 <path style="fill:none;stroke:#17191e;stroke-width:0.60000002" d="M 6.999777,6.4 4,10 v 0"/>
 <path style="fill:none;stroke:#17191e;stroke-width:0.60000002" d="M 9.099777,6.4 12,10"/>
 <path style="fill:#525252" d="m 3.109517,10.938188 a 0.2735118,0.2519065 34.165177 0 0 0.2527668,0.05097 l 0.7330438,-0.217557 0.7334415,-0.217217 a 0.2735118,0.2519065 34.165177 0 0 0.07264,-0.435991 L 4.2919819,9.5949319 3.681761,9.0707898 A 0.2735118,0.2519065 34.165177 0 0 3.2502118,9.1985062 l -0.1236164,0.74102 -0.1232192,0.7413618 a 0.2735118,0.2519065 34.165177 0 0 0.106142,0.2573 z"/>
 <rect style="fill:#a6a6a6" width="6" height="3" x="5" y="4" rx=".375" ry=".375"/>
 <path style="fill:#525252" d="m 12.890483,10.938181 a 0.2519065,0.27351181 55.834823 0 1 -0.252767,0.05098 l -0.733043,-0.217566 -0.733442,-0.217218 a 0.2519065,0.27351181 55.834823 0 1 -0.07264,-0.43599 L 11.708018,9.5949261 12.318239,9.070784 a 0.2519065,0.27351181 55.834823 0 1 0.43155,0.1277164 l 0.123615,0.7410201 0.12322,0.7413605 a 0.2519065,0.27351181 55.834823 0 1 -0.106142,0.2573 z"/>
</svg>
