<svg xmlns="http://www.w3.org/2000/svg" width="16" height="16" version="1.1">
 <rect style="fill:#3363c1" width="16" height="16" x="0" y="0" rx=".8" ry=".8"/>
 <path style="fill:#f4f4f7" d="m 4.2726564,4.19996 c -0.02452,0.003 -0.050212,0.00874 -0.06875,0.027344 L 3.3531248,5.07496 c -0.035672,0.0357 -0.039508,0.089609 -0.01328,0.1328124 L 4.2437512,6.6960536 C 4.0311212,7.042526 3.8679044,7.4212672 3.7570324,7.8226164 L 2.0882812,8.1679288 C 2.0376095,8.1783296 2,8.2268624 2,8.2788664 V 9.4757412 C 2,9.5264452 2.039126,9.5695092 2.088281,9.58121 L 3.70625,9.9733976 C 3.8080364,10.42495 3.980176,10.84887 4.2085936,11.235898 l -0.35625,0.540624 -0.02422,-0.0078 -0.3437496,0.565626 -0.2187504,0.332031 c -0.00902,0.01372 -0.00865,0.02984 -0.010936,0.04531 l -0.00312,0.0055 c -0.026312,0.0429 -0.017912,0.09789 0.017968,0.133594 l 0.8453124,0.846875 c 0.037076,0.0363 0.093845,0.04148 0.1375,0.01328 l 0.8039064,-0.525 L 5.735942,12.775 c 0.3634732,0.217992 0.7603508,0.384388 1.1820312,0.489844 l 0.34375,1.647656 C 7.2724862,14.96331 7.3149612,15 7.3671876,15 h 0.064062 1.1375 0.064062 c 0.052226,0 0.094704,-0.0367 0.1054688,-0.0875 l 0.34375,-1.647656 c 0.42168,-0.105456 0.818558,-0.271852 1.1820306,-0.489844 l 0.679688,0.410938 0.803906,0.525 c 0.04366,0.0282 0.100424,0.02302 0.1375,-0.01328 l 0.845313,-0.846876 c 0.03588,-0.0357 0.04428,-0.09069 0.01797,-0.133593 l -0.0031,-0.0055 c -0.0023,-0.01547 -0.0019,-0.03159 -0.01094,-0.04531 l -0.218751,-0.332031 -0.343749,-0.565625 -0.02422,0.0078 -0.35625,-0.540625 c 0.228417,-0.387027 0.400557,-0.810947 0.502343,-1.2624998 L 13.911723,9.5819928 C 13.960882,9.5702884 14,9.5264448 14,9.4757412 V 8.2788664 C 14,8.2268624 13.96239,8.1783296 13.91172,8.1679288 L 12.242969,7.8226164 C 12.132097,7.4212672 11.96888,7.042526 11.75625,6.6960536 l 0.903906,-1.4882812 c 0.02622,-0.043203 0.02239,-0.09711 -0.01328,-0.1328124 L 11.796094,4.2273036 c -0.01854,-0.018604 -0.04423,-0.024348 -0.06875,-0.027344 v 8e-4 c -0.02422,-0.0024 -0.04692,4.4e-4 -0.06875,0.014844 L 10.186719,5.1757604 C 9.9830548,5.0593116 9.8372532,4.957152 9.6148436,4.874198 V 6.240604 A 3.2,3.2 0 0 1 11.2,8.99996 a 3.2,3.2 0 0 1 -3.2,3.2 3.2,3.2 0 0 1 -3.2,-3.2 3.2,3.2 0 0 1 1.5851564,-2.7578124 V 4.8741788 C 6.1627468,4.9571328 6.0169452,5.0592924 5.8132812,5.1757412 L 4.3414064,4.2155848 c -0.021828,-0.0144 -0.04453,-0.017244 -0.06875,-0.014844 z"/>
 <rect style="fill:#f4f4f7" width="2" height="7" x="7" y="4"/>
 <rect style="fill:#f4f4f7" width="2" height="6" x="2" y="-11" transform="rotate(90)"/>
</svg>
