<svg width="16" height="16" version="1.1" xmlns="http://www.w3.org/2000/svg">
 <path d="M 16,2.7 C 14.915257,3.10478 14.428875,4.3988652 14.432,5.4104 14.44,8 13.096392,10.250053 10.763308,11.058762 9.9595204,11.337376 9.0657904,11.117018 8.3465504,11.554724 7.5410816,12.191404 6.978512,12.905175 6.7209904,13.894757 6.2313808,14.544181 5.2554096,14.001601 4.6480812,13.787243 3.9576476,13.420143 3.159092,13.041545 2.9024,12.289452 3.0701288,11.461253 4.1890956,11.564147 4.7016,10.964164 5.2217768,10.588954 5.789918,10.065063 6.1968752,9.56875 4.1340876,9.3294488 2.1352721,8.492438 1.0139306,6.6632348 0.16388212,5.302758 0,3.6 0,2 1.5800664,3.0016612 3.6068644,2.6216158 5.3530064,2.2699018 6.4684336,2.0355522 7.6716472,1.846915 8.7454096,2.3580982 9.398348,2.6170314 9.8623988,3.1870204 10.4,3.6 10.856736,2.6189036 11,1 13.013078,1.0020748 13.688703,0.9938628 14.537708,1.7 14.692065,2.134 15.091494,2.3365408 15.556781,2.7720656 16,2.7 Z" style="fill:#2ba5f7"/>
 <path d="m14 2.5a0.5 0.5 0 0 1-0.5 0.5 0.5 0.5 0 0 1-0.5-0.5 0.5 0.5 0 0 1 0.5-0.5 0.5 0.5 0 0 1 0.5 0.5z" style="fill:#17191e"/>
 <path d="m0.03828124 3.2015624c0.0192844 0.2764372 0.05097788 0.5511944 0.08984376 0.825l2.20625-0.032031c0.5353253 0.1006342 0.670327-0.7109848 0.1312498-0.7890626h-2.3999998c-0.0090667-0.00162-0.01818666-0.00293-0.0273436-0.00392zm2.4726564 1.898c-0.022488-3.288e-4 -0.044963 0.00124-0.067188 0.00469l-1.9648434 0.4230916c0.09124784 0.2621164 0.20338868 0.5147384 0.33046876 0.7609376l1.746875-0.391844c0.4937244-0.0625655 0.4523218-0.790681-0.0453124-0.7968752zm1.1 0.8973908c-0.0764-0.00103-0.151496 0.019849-0.2164064 0.060156l-1.7328124 1.439766c0.1926729 0.2020356 0.3994375 0.3894184 0.6203124 0.560156l1.5234376-1.3139844c0.3510019-0.2034577 0.2111279-0.7399224-0.1945312-0.7460936zm0.98125 1.0986874c-0.1039195 0.0031-0.2025514 0.046528-0.275 0.121094l-0.8593752 1.5598278c0.25982 0.125294 0.5290292 0.2318728 0.802344 0.3289064l0.622656-1.3231094c0.2616413-0.2543261 0.0740974-0.6974747-0.2906248-0.6867188zm1.9 0.900453c-0.1039195 0.0031-0.2025514 0.046528-0.275 0.121094l-0.9 1.2c-0.023643 0.022885-0.044373 0.0486-0.061719 0.076562 0.3139092 0.073023 0.6278156 0.1324812 0.9414064 0.175l0.5859374-0.8859372c0.2616413-0.2543261 0.0740974-0.6974747-0.2906248-0.6867188z" style="opacity:.2"/>
</svg>
