<svg xmlns="http://www.w3.org/2000/svg" width="16" height="16" version="1.1">
 <path style="fill:#969696" d="M 0,6 3,16 16,12 13,2 Z"/>
 <path style="fill:#a8a8a8" d="M 0,5 2,15 16,12 14,2 Z"/>
 <rect style="fill:#9a62d9" width="16" height="12" x="0" y="2" rx=".8" ry=".8"/>
 <circle style="fill:#f4f4f7" cx="12.5" cy="11.5" r="3.5"/>
 <circle style="fill:#945e8d" cx="12.5" cy="11.5" r="2.5"/>
</svg>
