<svg xmlns="http://www.w3.org/2000/svg" height="16" width="16" version="1.1">
 <rect style="fill:#b2bfd9" rx="1.2" ry="1.2" height="16" width="16" y="0" x="0"/>
 <path style="fill:#8a8eab" d="m1.1992188 0c-0.66480008 0-1.1992188 0.53441872-1.1992188 1.1992188v13.601562c0 0.3324 0.13466249 0.630756 0.3515625 0.847657l15.296876-15.296876c-0.216901-0.21689951-0.515257-0.351562-0.847657-0.351562h-13.601562z"/>
</svg>
