<svg xmlns="http://www.w3.org/2000/svg" width="16" height="16" version="1.1">
 <circle style="fill:#285da4" cx="8" cy="8" r="8"/>
 <path style="fill:#f4f4f7" d="M 7.8529372,2.45625 C 7.7009068,2.459506 7.5809908,2.5049476 7.5388748,2.5046876 6.5656735,2.6399092 7.1874116,3.660003 7.5998124,4.925 7.6350228,5.2488122 6.2169986,5.1141234 5.9953125,4.775 5.2476411,2.9655054 5.0475269,3.1666814 4.8390625,3.1140625 4.6393814,3.0733406 3.9455293,3.4226881 3.9609375,4.1546875 3.9635695,4.3649677 4.0980208,5.8736675 4.1,6.18125 3.2234634,7.6700456 2.7857257,9.1436968 3.884375,10.667187 c 0.7872584,1.031587 2.6790506,1.353441 3.9203122,1.331251 2.6415998,10e-4 3.9271508,-1.433232 5.4406258,-2.6046876 C 14.401296,8.448364 13.215169,7.2567232 12.935938,7.0906248 10.540902,5.5415805 9.027422,5.8644159 8.9951252,5.61875 8.9781812,5.3347996 8.9879252,4.2257446 8.9466852,3.9453125 8.7841324,2.6403171 8.1874012,2.448438 7.8529372,2.45625 Z M 12.59375,2.7765625 c -0.490614,0.076208 -0.731745,2.8549415 -0.5125,3.275 0.752607,-0.4730477 0.608732,-2.5712941 0.5125,-3.275 z m 1.7,0.64375 C 12.74018,5.4625929 13.10879,5.0814261 12.720313,6.7203128 12.868527,6.9231112 14.878238,3.6624023 14.29375,3.4203125 Z M 8.8,6.4 C 9.241828,6.4 9.6,6.758172 9.6,7.2 9.6,7.641828 9.241828,8 8.8,8 8.358172,8 8,7.641828 8,7.2 8,6.758172 8.358172,6.4 8.8,6.4 Z"/>
</svg>
