<svg xmlns="http://www.w3.org/2000/svg" width="16" height="16" version="1">
 <path style="fill:#b2bfd9" d="M 7.5,0 A 7.5,7.5 0 0 0 0,7.5 7.5,7.5 0 0 0 7.5,15 h 6.75 C 14.6655,15 15,14.6655 15,14.25 V 7.5 0.75 C 15,0.3345 14.6655,0 14.25,0 Z"/>
 <path style="fill:#adadad;fill-rule:evenodd" d="M 7.4285714,3 C 7.193614,3 7,3.1694124 7,3.375 v 1.25 C 7,4.8305876 7.193614,5 7.4285714,5 H 12.571428 C 12.806386,5 13,4.8305876 13,4.625 V 3.375 C 13,3.1694124 12.806386,3 12.571428,3 Z"/>
 <path style="fill:#adadad;fill-rule:evenodd" d="M 8.4772728,7 C 8.2156155,7 8,7.1129415 8,7.25 v 0.5 C 8,7.8870585 8.2156155,8 8.4772728,8 H 14.522727 C 14.784385,8 15,7.8870585 15,7.75 V 7.25 C 15,7.1129415 14.784385,7 14.522727,7 Z"/>
 <g transform="matrix(0.84848485,0,0,0.84848485,0.49999999,1.1363637)">
  <path style="fill:#305483" d="M 7.125,7.5 3.7714286,8.25 v -1.5 z"/>
  <g style="fill:#2f5d97" transform="matrix(0.30593156,0,0,0.30396032,0.09346166,0.08674793)">
   <path style="fill:#305483;fill-rule:evenodd" d="M 4.9763661,19.632289 C 6.6130595,17.531008 10.222513,7.6141185 22.117392,11.866741 c 0,0 -10.85914,-1.452094 -12.12183,7.891816"/>
   <path style="fill:#305483;fill-rule:evenodd" d="m 4.5975588,28.796049 c 1.6366934,2.101281 5.6249542,12.396978 17.5198332,8.144355 0,0 -11.174812,0.410374 -12.184965,-7.670846"/>
  </g>
 </g>
 <path style="fill:#3594f3;fill-rule:evenodd" d="M 2.4999997,6 C 1.6731881,6 1,6.673188 1,7.5000003 1,8.3268123 1.6731881,9 2.4999997,9 3.3268117,9 4,8.3268123 4,7.5000003 4,6.673188 3.3268117,6 2.4999997,6 Z"/>
 <path style="fill:#adadad;fill-rule:evenodd" d="M 7.4285714,10 C 7.193614,10 7,10.169412 7,10.375 v 1.25 C 7,11.830588 7.193614,12 7.4285714,12 H 12.571428 C 12.806386,12 13,11.830588 13,11.625 v -1.25 C 13,10.169412 12.806386,10 12.571428,10 Z"/>
</svg>
