<svg xmlns="http://www.w3.org/2000/svg" width="16" height="16" version="1">
 <rect fill="#c2352a" width="16" height="16" x="0" y="0" rx="8" ry="8"/>
 <path style="fill:#f4f4f7" d="m 6.0268516,10.976182 c -0.160061,-0.022 -0.444786,-0.116 -0.634705,-0.2088 -1.237395,-0.602201 -1.743434,-2.1189008 -1.133971,-3.3964008 0.696267,-1.4608 2.596069,-1.8332 3.739275,-0.7329 0.330588,0.3176 0.477414,0.5887 0.975142,1.7906 0.519584,1.2569 0.61562,1.4545 0.783992,1.6220998 0.180377,0.1782 0.3475184,0.2382 0.6673334,0.2382 0.525431,0 0.900652,-0.3297998 0.900652,-0.7900998 0,-0.3896 -0.134821,-0.5143 -0.822469,-0.7622 -1.0471694,-0.3837 -1.3863764,-0.7304 -1.3876074,-1.4267 0,-0.3714 0.09265,-0.6191 0.328125,-0.8758 0.337976,-0.3664 0.9209684,-0.4874 1.4368574,-0.3054 0.220085,0.079 0.680568,0.4933 0.680568,0.6118 0,0.058 -0.266871,0.2333 -0.414928,0.2749 -0.07818,0.021 -0.145594,-0.01 -0.235782,-0.094 -0.182839,-0.1783001 -0.306579,-0.2333001 -0.525432,-0.2333001 -0.377683,0 -0.6119264,0.2308001 -0.6119264,0.6034001 0,0.3715 0.14898,0.4972 0.8932654,0.7523 1.025623,0.3517 1.328508,0.6694 1.334664,1.4045 0.0062,0.6349998 -0.27549,1.0930008 -0.835704,1.3641008 -0.254867,0.1223 -0.341362,0.1379 -0.757521,0.1379 -0.5940734,0 -0.8609444,-0.1123 -1.1939954,-0.493401 -0.223778,-0.2564 -0.450941,-0.7375998 -1.178296,-2.4940998 -0.301654,-0.7278 -0.688879,-1.0846 -1.334665,-1.2250001 -0.327202,-0.071 -0.78276,0 -1.079797,0.1539001 -0.289649,0.1538 -0.613158,0.5008 -0.76583,0.8182 -0.126202,0.2576 -0.138207,0.3298 -0.138207,0.7779 0,0.4274 0.01693,0.5287 0.122508,0.7632 0.160062,0.358 0.47495,0.6888 0.821236,0.8669998 0.25025,0.1282 0.328126,0.1441 0.727355,0.1441 0.383532,0 0.482031,-0.018 0.710734,-0.1294 0.261023,-0.1295 0.611926,-0.4470998 0.755058,-0.6850998 l 0.07449,-0.1235 0.146825,0.3408 c 0.08188,0.1883 0.147749,0.3651998 0.147749,0.3970998 0,0.094 -0.331819,0.4018 -0.635936,0.593501 -0.461715,0.2895 -0.992071,0.398 -1.558442,0.3198 m -0.0012,0"/>
</svg>
