<svg xmlns="http://www.w3.org/2000/svg" width="16" height="16" version="1.1">
 <path style="opacity:.2;fill:#f4f4f7" d="m8.0000002-3.4e-7a8.000143 8.0061478 0 0 0 -8.0000001 8.0062818 8.000143 8.0061478 0 0 0 0.00613836 0.1160491 8.000143 8.0061478 0 0 1 7.9938617 -7.8366713 8.000143 8.0061478 0 0 1 7.9938618 7.8857691 8.000143 8.0061478 0 0 0 0.006138 -0.1651469 8.000143 8.0061478 0 0 0 -7.9999998 -8.0062818z"/>
 <path style="fill:#4f4f4f" d="M 8.0000002,-1.9714286e-7 A 8.0000001,8.0000001 0 0 0 1e-7,7.9999998 8.0000001,8.0000001 0 0 0 8.0000002,16 8.0000001,8.0000001 0 0 0 15.999999,7.9999998 8.0000001,8.0000001 0 0 0 8.0000002,-1.9714286e-7 Z"/>
 <path style="fill:#f4f4f7" d="M 8.0000007,1.9999994 A 6.0000008,6.0000008 0 0 1 14,7.9999998 6.0000008,6.0000008 0 0 1 8.0000007,14.000001 6.0000008,6.0000008 0 0 1 2.0000001,7.9999998 6.0000008,6.0000008 0 0 1 8.0000007,1.9999994 Z"/>
 <path style="fill:#4f4f4f" d="m6.4274764 3-1.1468858 4.252141-0.748985 0.2621448-0.5316055 2.1142857 0.7062963-0.2472036-0.7062963 2.6186321h7.4683949l0.531605-2h-3.8880372l0.5348636-1.9830356 1.0674595-0.3883929 0.5316051-2.1142857-1.0212747 0.3604911 0.7753837-2.8747769z"/>
</svg>
