<svg xmlns="http://www.w3.org/2000/svg" width="16" height="16" version="1.1">
 <rect style="fill:#4d5a98" width="16" height="16" x="0" y="0" rx="1.2" ry="1.2"/>
 <path style="fill:#17191e" d="M 2.0318046,12.924548 C 1.9568255,12.789782 2.0196299,12.407488 2.1654845,12.11082 2.3212571,11.793981 2.6542446,11.475815 3.1768839,11.144441 3.9000336,10.685935 5.5550437,9.1791304 6.674764,7.9597941 6.8867966,7.7288978 6.9220995,7.6671451 6.900754,7.564482 6.8778779,7.4544642 6.9406231,7.3776496 7.5559347,6.762365 7.9301977,6.3881187 8.2288211,6.0602382 8.2195426,6.0337412 8.2102633,6.0072451 8.1538797,5.9895658 8.0942443,5.9944551 8.0346094,5.9993435 7.5712503,6.0351897 7.0645578,6.0741109 6.1477762,6.1445324 6.1420393,6.145607 5.8842279,6.2952152 5.7417393,6.3779014 5.5900685,6.4391214 5.5471818,6.4312595 5.4086701,6.4058672 5.4338531,6.2522925 5.6022765,6.0952659 5.7573597,5.9506766 5.761313,5.9386839 5.761313,5.6127822 c 0,-0.3095633 0.00873,-0.340816 0.1184092,-0.4238029 0.1759513,-0.1331336 0.266844,-0.1126162 0.3831808,0.086495 0.1099596,0.1881978 0.1368951,0.1931697 0.4284294,0.079082 0.1180752,-0.046207 0.1631858,-0.046093 0.2539654,6.538e-4 0.099828,0.051392 0.2365472,0.016492 1.4293025,-0.3648602 C 9.1000042,4.7584218 9.7662117,4.533602 9.8550603,4.4907509 10.055012,4.3943147 10.207489,4.222875 10.524897,3.7376066 10.719305,3.4403861 10.833273,3.3176572 11.058819,3.1626367 11.331466,2.9752428 11.348602,2.9695286 11.4071,3.046484 c 0.03977,0.05231 0.06152,0.2015497 0.06152,0.4219364 v 0.3409982 l 0.273684,0.2528494 c 0.303977,0.280837 0.302927,0.2738328 0.09939,0.663308 -0.0746,0.1427623 -0.128309,0.3567725 -0.168142,0.6700384 l -0.05853,0.4602794 0.287078,1.1671641 c 0.157892,0.6419399 0.338436,1.3811441 0.401207,1.642675 0.06277,0.2615313 0.133005,0.5197733 0.156078,0.5738718 l 0.04195,0.09836 0.18456,-0.09057 c 0.321336,-0.157692 0.430191,0.00595 0.16461,0.2474609 -0.213891,0.1945047 -0.931474,0.7050294 -1.101902,0.7839494 -0.131229,0.06077 -0.154214,0.06105 -0.21499,0.0026 -0.06078,-0.05846 -0.05348,-0.08311 0.0683,-0.230498 0.07499,-0.090769 0.136347,-0.1785976 0.136347,-0.1951718 0,-0.050952 -1.466389,-2.4293531 -1.625975,-2.6372409 C 9.9882959,7.0569506 9.9336661,7.0207575 9.7973486,7.0098179 9.5728404,6.9918025 9.3893012,7.0896006 8.6475827,7.622472 7.9291095,8.1386449 7.8942206,8.1589692 7.7277866,8.158295 7.5752287,8.1576796 7.427987,8.2648412 6.7356597,8.8803753 5.3807109,10.085032 4.3988057,11.117384 4.0760828,11.676592 c -0.4567324,0.791417 -0.994125,1.181428 -1.8054249,1.310282 -0.1628547,0.02586 -0.194365,0.01764 -0.2388533,-0.06232 z"/>
 <path style="fill:#f44336" d="m 6.8994686,7.5562393 c 4.714e-4,0.00277 7.464e-4,0.00549 0.00134,0.00827 0.021344,0.1026666 -0.013982,0.1644101 -0.226014,0.3953064 C 6.151185,8.5300028 5.5109659,9.162047 4.90328,9.721368 5.0317239,9.8592939 5.1968686,10.03562 5.3440734,10.187254 5.7408876,9.7891415 6.2097184,9.3480009 6.7357044,8.880358 7.2578295,8.4161474 7.4698181,8.2412296 7.6079868,8.1834703 7.374316,7.9634868 7.1095769,7.7347694 6.8994878,7.5562381 Z"/>
 <path style="fill:#f44336" d="m 11.634439,5.9348404 c -0.334279,0.2525405 -0.692334,0.6010445 -0.93776,0.8371262 l 0.138768,0.3137428 c 0.168772,0.3815064 0.170226,0.4198848 0.02098,0.5697353 l -0.117879,0.1183712 0.165013,0.2838548 c 0.09076,0.1561239 0.18496,0.2838543 0.209337,0.2838543 0.02438,0 0.09519,-0.032062 0.157376,-0.071259 0.135351,-0.085309 0.152051,-0.071719 0.325724,0.2650262 l 0.133413,0.2586102 -0.08786,0.165652 c -0.08632,0.1627631 -0.08637,0.16813 -0.003,0.3033582 0.074,0.12013 0.105721,0.1360851 0.249361,0.1250412 0.149392,-0.011485 0.171676,0.0015 0.240584,0.140492 0.08498,0.1714043 0.155381,0.1903674 0.275957,0.074383 0.05961,-0.057339 0.108569,-0.084125 0.06785,-0.3331621 l -0.01282,-0.030058 C 12.436343,9.185511 12.36613,8.9272676 12.30336,8.6657367 12.240591,8.4042055 12.060046,7.6650016 11.902152,7.0230613 Z"/>
 <path style="fill:#f44336" d="M 9.4492571,4.6366405 C 9.1700762,4.7319056 8.7891488,4.8577687 8.3745716,4.9903188 7.4611559,5.2823589 7.1676534,5.3708547 7.0351646,5.373379 L 6.609732,5.5056814 5.9817205,5.9010681 6.2962967,5.8673796 6.2082609,5.9887062 6.6303582,5.9692023 6.8159094,5.7817669 c 0.1664419,-0.031812 0.2673209,-0.043044 0.4220977,-0.055217 0.056067,-0.0044 -0.1727924,0.209339 -0.1174396,0.2069386 0.1551959,-0.00673 0.3202156,-0.015596 0.4906474,-0.025246 0.090533,-0.00513 0.3134408,-0.2844851 0.4031388,-0.3084236 0.1423113,-0.037981 0.2890058,-0.0359 0.4377208,-0.013258 0.3359409,-0.09399 0.9558592,-0.8961208 0.9971826,-0.9499247 z"/>
</svg>
