<svg width="16" height="16" version="1.1" xmlns="http://www.w3.org/2000/svg">
 <path d="m8 0s-1.7273286 0.031989-3.1462051 0.7566966c-1.1681167 0.596628-2.4863858 1.7300628-3.4553574 3.1484373l-1.3549107 3.4129467c-0.00957 0.081908-0.015013 0.1642663-0.021205 0.2466514l0.547991 3.277902v0.0011c0.4904093 0.973575 1.2692642 1.578259 2.2299104 1.956489 2.0000002 0.7 5.1997768 0.800223 5.1997768 0.800223s3.199777-0.100223 5.199777-0.800223c0.960646-0.37823 1.739501-0.982914 2.22991-1.956473 1.5e-4 -2.97e-4 -1.49e-4 -8e-4 0-0.0011l0.547992-3.2779449c-0.0062-0.0823851-0.01164-0.1647428-0.02121-0.2466514l-1.354907-3.4129198c-0.968971-1.4183745-2.28724-2.5518093-3.455357-3.1484373-1.418876-0.7247063-3.146205-0.7566966-3.146205-0.7566966z" style="fill:#26a1db"/>
 <path d="m13 12c0 4-2.917267 4-5 4-2.0827331 0-5 0-5-4 0 0 1-1.714286 5-1.714286s5 1.714286 5 1.714286z" style="fill:#b2bfd9"/>
 <ellipse cx="8" cy="5" rx="4.5" ry="4" style="fill:#f4f4f7"/>
 <path d="M 1.3984375,3.9051339 C 1.3579812,3.9643537 1.3148589,4.0212706 1.2756697,4.0814732 0.515148,5.2497874 0,6.6 0,8 0,9.1937371 0.2058514,10.120224 0.5703125,10.84375 0.5688554,10.818841 0.423299,8.324616 0.5011161,7.6473211 0.6841669,6.0541011 0.9653706,5.4214331 1.3984375,3.9051339 Z m 13.2031245,0 c 0.433067,1.5162992 0.714271,2.1489667 0.897322,3.7421872 0.07782,0.6772949 -0.06774,3.1715199 -0.0692,3.1964289 C 15.794149,10.120224 16,9.1937371 16,8 16,6.6 15.484852,5.2497874 14.72433,4.0814732 14.68514,4.0212706 14.64202,3.9643537 14.601562,3.9051339 Z" style="fill:#b2bfd9"/>
 <path d="m6.5 12c-0.277 0-0.5 0.223-0.5 0.5v1c0 0.277 0.223 0.5 0.5 0.5s0.5-0.223 0.5-0.5v-1c0-0.277-0.223-0.5-0.5-0.5zm3 0c-0.277 0-0.5 0.223-0.5 0.5v1c0 0.277 0.223 0.5 0.5 0.5s0.5-0.223 0.5-0.5v-1c0-0.277-0.223-0.5-0.5-0.5z" style="fill:#17191e"/>
</svg>
