<svg xmlns="http://www.w3.org/2000/svg" width="16" height="16" version="1.1">
 <circle style="fill:#b2bfd9" cx="8" cy="8" r="8"/>
 <path style="fill:#9e2323" d="M 4.8613281,1.8339844 C 4.8098521,1.8658092 4.7970529,1.9982487 4.8417969,2.0429688 4.8932305,2.0944128 4.9740251,2.072752 5.0019531,2 5.0341227,1.91618 4.9293811,1.7919534 4.8613281,1.8339844 Z m 5.1718749,0.039063 c -0.1272553,-0.048824 -0.300408,0.201573 -0.205078,0.296875 0.04523,0.045204 0.163037,0.034235 0.21875,-0.021484 0.07246,-0.072477 0.06414,-0.2453946 -0.01367,-0.2753906 z M 6.7597656,2.0488281 c -0.050077,0.00789 -0.070312,0.037469 -0.070312,0.089844 0,0.0512 -0.025544,0.062506 -0.095703,0.044922 -0.1607484,-0.040031 -0.9684843,0.1073433 -1.2304688,0.2246093 -0.1013947,0.045446 -0.2005671,0.371787 -0.2207031,0.359375 -0.02014,-0.01241 -0.1011266,-0.00931 -0.1816406,0.00586 -0.1178004,0.022102 -0.1875,0.1669159 -0.1875,0.2480469 0,0.1282648 -0.2343061,0.034136 -0.3417969,0 -0.042231,-0.013448 -0.090193,-0.00334 -0.1054687,0.021484 -0.040421,0.065408 0.093882,0.09375 0,0.09375 -0.044179,-1e-7 -0.113826,0.039079 -0.15625,0.085937 -0.04242,0.046894 -0.098359,0.083984 -0.1230469,0.083984 -0.062505,0 -0.3671875,0.3049515 -0.3671875,0.3671875 0,0.028067 -0.1148594,0.1530094 -0.2539063,0.2773438 -0.2621088,0.2344282 -0.2823055,0.2929687 -0.1054687,0.2929687 0.1367952,0 0.1313507,0.050028 -0.017578,0.1601563 C 3.1911864,4.4867725 3.177766,4.5219991 3.15625,4.8359375 3.1282732,5.2441095 2.608924,5.6739655 2.3417265,5.9824219 2.1210901,6.2371587 2.0648225,6.3639863 1.9979765,6.7519531 1.9700097,6.9142839 1.8691675,7.2597381 1.7753202,7.5175781 1.6214418,7.9403005 1.603847,8.0278318 1.599539,8.4121094 1.594759,8.8359698 1.595689,8.8395578 1.7968046,9.265625 c 0.2241948,0.4749592 0.2350602,0.5498235 0.1816406,1.298828 -0.033852,0.474649 0.00596,0.682531 0.1835938,0.974609 0.09081,0.149333 0.3572682,0.353377 0.5820312,0.447266 0.083534,0.03493 0.1503907,0.08523 0.1503907,0.109375 0,0.09127 0.7234029,0.253437 0.9551485,0.279297 0.3531596,0.03955 0.084504,0.108711 0.2506484,0.193359 0.1569661,0.07999 0.044703,0.363603 0.2792969,0.669922 0.1646308,0.214981 0.3228929,0.308605 0.4765625,0.279297 0.080224,-0.01534 0.1397382,0.0066 0.2128906,0.08203 0.1057808,0.109025 0.3656045,0.193929 0.6542969,0.212891 0.1634652,0.01062 0.1715567,0.0041 0.2304687,-0.164062 0.0838,-0.239225 0.045998,-0.314454 -0.15625,-0.314454 -0.1848424,0 -0.265625,-0.05905 -0.265625,-0.195312 0,-0.05138 -0.033353,-0.107527 -0.074219,-0.123047 -0.066146,-0.02538 -0.06237,-0.03684 0.03125,-0.107422 0.100552,-0.07585 0.102092,-0.08384 0.03125,-0.162109 -0.074786,-0.08265 -0.2089537,-0.520507 -0.1972657,-0.644532 0.011351,-0.12054 -0.00352,-0.173828 -0.046875,-0.173828 -0.023442,0 -0.042969,0.05665 -0.042969,0.126954 0,0.07103 -0.036633,0.16551 -0.083984,0.21289 -0.1101516,0.110026 -0.1206187,0.108324 -0.1367187,-0.03125 -0.016657,-0.14433 -0.1418893,-0.180356 -0.1757813,-0.05078 -0.013199,0.05054 -0.046796,0.08392 -0.076172,0.07422 -0.090993,-0.03034 -0.093485,-0.123035 -0.00391,-0.146485 0.048244,-0.01262 0.095307,-0.07245 0.109375,-0.136719 0.013669,-0.06237 0.037702,-0.156264 0.052734,-0.208984 0.02026,-0.07107 0.010107,-0.0957 -0.041016,-0.0957 -0.1087937,0 -0.096441,-0.384509 0.015625,-0.480469 0.089417,-0.07655 0.1140287,-0.282455 0.042969,-0.353515 -0.04894,-0.04893 0.035695,-0.615235 0.091797,-0.615235 0.019972,0 0.035156,-0.0201 0.035156,-0.04492 0,-0.02493 -0.1603074,-0.119841 -0.3574218,-0.2109371 C 4.508609,9.8757357 4.3342118,9.7803394 4.3190078,9.7558594 4.2741014,9.6831064 4.1256484,9.702464 4.1256484,9.78125 c 0,0.1262652 -0.029931,0.040923 -0.060547,-0.1699219 L 4.0338516,9.40625 4.2408828,9.4375 C 4.3539044,9.4542232 4.4916254,9.503293 4.5475234,9.546875 4.6034154,9.590458 4.7024595,9.625 4.7682266,9.625 c 0.06577,0 0.1320043,0.019525 0.1464843,0.042969 0.014485,0.023309 0.05452,0.042969 0.089844,0.042969 0.044924,0 0.060231,-0.035194 0.050781,-0.1171875 -0.0097,-0.084441 -0.036361,-0.1171875 -0.097656,-0.1171875 -0.1056736,0 -0.1430444,-0.1613478 -0.1464844,-0.6308594 -0.00252,-0.3419708 0.053053,-0.4141552 0.1054687,-0.1347656 0.015233,0.0812 0.049484,0.1484375 0.076172,0.1484375 0.048651,0 0.2604131,0.237737 0.3574219,0.4023438 0.028476,0.048272 0.051694,0.1308741 0.052734,0.1835937 0.00151,0.096097 0.061566,0.127669 0.1054687,0.056641 C 5.5327553,9.4626463 5.203783,8.8918583 4.9029922,8.4511719 4.7509878,8.2285011 4.6076595,7.8935956 4.4615859,7.4160156 4.4229099,7.289578 4.4297308,7.2592852 4.5221328,7.1601562 4.6159992,7.059475 4.6298459,6.9017072 4.6490859,6.497914 c 0.012959,-0.2719768 0.00498,-0.3798431 0.042969,-0.4550781 0.034621,-0.06858 0.076593,-0.2500117 0.091797,-0.4023437 0.01996,-0.200086 0.062219,-0.3341243 0.1542968,-0.4824219 0.070108,-0.1128872 0.1269532,-0.2218435 0.1269532,-0.2421875 0,-0.020343 0.082028,-0.090899 0.1816406,-0.1582031 L 5.4283828,4.6346328 V 4.2108047 3.7869766 l 0.1113281,-0.013672 c 0.099978,-0.01162 0.1169119,0.00794 0.1601563,0.1796875 0.026524,0.1053704 0.048828,0.2310939 0.048828,0.2792968 0,0.105679 0.010173,0.1061912 0.2421875,0.017578 0.18063,-0.068959 0.2426958,-0.1425782 0.1191406,-0.1425782 -0.098737,1e-7 -0.075511,-0.082211 0.068359,-0.2460937 C 6.2659273,3.761479 6.3008042,3.684229 6.2858042,3.62682 6.2705122,3.568342 6.3022432,3.5034572 6.3834602,3.4276013 6.4492102,3.3661583 6.5172669,3.272841 6.5338509,3.22057 c 0.016592,-0.052271 0.057905,-0.09375 0.091797,-0.09375 0.033897,0 0.097334,-0.024462 0.1425782,-0.052734 0.06777,-0.04248 0.097611,-0.036146 0.1699218,0.029297 0.073466,0.066408 0.1065805,0.070604 0.1972656,0.029297 0.4085688,-0.1861568 0.8748588,0.1566054 0.8867188,0.6503906 0.00445,0.1850876 -0.012959,0.2501881 -0.087891,0.3300781 -0.051613,0.05503 -0.121738,0.1682828 -0.15625,0.25 -0.093654,0.2216708 -0.3387446,0.4667969 -0.4648438,0.4667969 -0.1016536,0 -0.1046797,0.00719 -0.058594,0.140625 0.026532,0.076821 0.1091829,0.2350553 0.1835937,0.3515625 0.187646,0.2941476 0.2810592,0.5017918 0.2285156,1.0566406 -0.026965,0.285148 -0.026756,0.6057522 0,0.7247422 0.02276,0.1011292 0.030818,0.2012803 0.017578,0.2226563 -0.01324,0.021412 0.0048,0.1397635 0.041016,0.2617187 0.036233,0.1219896 0.066406,0.2783173 0.066406,0.3476563 0,0.069339 0.029562,0.1469321 0.066406,0.1738281 0.07044,0.051513 0.046476,0.28125 -0.029297,0.28125 -0.060011,0 -0.044143,0.1614628 0.019531,0.1992188 0.031601,0.018757 0.1111712,0.1211233 0.1777343,0.2265624 0.06656,0.1054737 0.1922167,0.2675828 0.2792969,0.3613282 0.196828,0.2119128 0.3378907,0.4741262 0.3378907,0.6289062 -10e-8,0.1364712 -0.064864,0.158572 -0.097656,0.033203 -0.030025,-0.1147497 -0.1061869,-0.1090864 -0.1230469,0.00977 -0.030325,0.2135341 -0.375,0.068122 -0.375,-0.1582032 0,-0.057857 -0.044923,-0.1867729 -0.097656,-0.2871093 L 7.854164,9.2207031 7.8424453,9.4472656 c -0.00713,0.1243688 0.018201,0.379858 0.056641,0.5683594 0.052028,0.254978 0.062772,0.442102 0.041016,0.732422 -0.026118,0.348315 -0.02157,0.397924 0.048828,0.458984 0.043372,0.03762 0.6972482,0.383438 1.453125,0.767578 0.7558777,0.384174 1.3750007,0.719194 1.3750007,0.746094 0,0.0268 -0.03128,0.06203 -0.06836,0.07617 -0.154871,0.05941 0.01081,0.13138 -2.7597667,-1.230469 -0.746788,-0.367073 -1.36583,-0.65969 -1.375,-0.65039 -0.00918,0.0092 0.2753049,0.167039 0.6328125,0.349609 0.3575108,0.182606 0.6752861,0.35121 0.7050781,0.375 0.041697,0.03324 0.052122,0.287827 0.044922,1.103516 -0.00788,0.891268 0.00129,1.069637 0.054687,1.123047 0.035359,0.03534 0.2039126,0.07984 0.3808593,0.101562 0.1747989,0.02171 0.4999995,0.0348 0.7226563,0.0293 0.5086115,-0.01248 0.6528395,0.117671 1.1367185,-0.345703 0.265123,-0.253909 0.435346,-0.37637 0.683594,-0.492188 0.35468,-0.165468 1.000766,-0.175813 1.536461,-0.121094 0.341073,0.03482 0.349309,0.03252 0.417969,-0.07226 0.04772,-0.07282 0.07363,-0.221724 0.08203,-0.470703 0.0069,-0.205293 0.03528,-0.392595 0.06445,-0.427735 0.03026,-0.03648 0.03972,-0.107085 0.02344,-0.171875 -0.01728,-0.06886 0.115277,-0.147451 0.154297,-0.207031 0.03458,-0.05275 0.09554,-0.436907 0.134766,-0.609375 0.07115,-0.312801 0.236875,-0.601562 0.345703,-0.601562 0.03029,0 0.106469,-0.05971 0.167969,-0.132813 L 14.01367,10.212897 13.99804,9.1621154 C 13.98246,8.100551 13.9283,7.5006317 13.738274,6.8105529 c -0.03422,-0.1243 -0.194527,-0.4231298 -0.210937,-0.6621094 -0.0164,-0.2389796 -0.04972,-0.456103 -0.07227,-0.484375 -0.06348,-0.079578 0.0034,-0.1441984 0.119141,-0.1152344 0.183016,0.045962 0.432853,-0.1931375 0.371093,-0.3554687 -0.01106,-0.029101 -0.09589,-0.075932 -0.1875,-0.1035156 -0.242627,-0.072718 -0.285998,-0.1418181 -0.166015,-0.2695313 0.08105,-0.086269 0.08977,-0.1158579 0.04492,-0.1699219 -0.07184,-0.086612 -0.12485,-0.081734 -0.16211,0.013672 -0.03426,0.087751 -0.247896,0.3476563 -0.285156,0.3476563 -0.06426,0 -0.01055,-0.1943051 0.08399,-0.3066407 0.154622,-0.183777 0.128963,-0.2332654 -0.04883,-0.097656 -0.112297,0.085682 -0.161927,0.1026211 -0.185547,0.064453 -0.04438,-0.071822 -0.007,-0.4145298 0.06641,-0.609375 0.03329,-0.088372 0.06055,-0.214566 0.06055,-0.28125 0,-0.066684 0.03906,-0.1708877 0.08594,-0.2304688 0.04687,-0.059616 0.08399,-0.1373121 0.08399,-0.1738281 -1e-6,-0.1004052 0.231695,-0.3446621 0.492187,-0.5175781 C 13.902682,2.8098964 13.960511,2.764912 14,2.7246094 13.95955,2.6766024 13.91853,2.6290724 13.876953,2.5820312 c -0.09193,0.048827 -0.207746,0.1335184 -0.355469,0.28125 -0.243131,0.2431176 -0.333685,0.2768604 -0.421875,0.15625 -0.04956,-0.06782 -0.06099,-0.067681 -0.132812,-0.00586 -0.04313,0.037169 -0.110794,0.078922 -0.152344,0.09375 -0.04155,0.014758 -0.08869,0.061968 -0.103515,0.1035156 -0.06184,0.1732958 -0.102285,0.1840046 -0.253907,0.068359 -0.0803,-0.061341 -0.149097,-0.1046632 -0.154297,-0.095703 -0.0052,0.00914 -0.03218,0.054704 -0.05859,0.1015624 -0.05068,0.090026 -0.05815,0.090383 -0.515625,0.03125 -0.223601,-0.028894 -0.290959,-0.057821 -0.425782,-0.1875 -0.212141,-0.2040168 -0.57425,-0.4277055 -0.61914,-0.3828124 -0.01967,0.019654 -0.01591,0.086028 0.0078,0.1484374 0.0236,0.062409 0.03355,0.1132813 0.02149,0.1132813 -0.042,0 -0.381946,-0.1791261 -0.447266,-0.2363281 C 10.229455,2.7398316 10.077117,2.6811941 9.9257812,2.6425781 9.7744393,2.6039265 9.5615982,2.8263064 9.453125,2.7714844 9.3446478,2.7166264 9.2444687,2.3843015 9.2304688,2.3984375 9.2164587,2.4125055 9.1776673,2.402584 9.1445312,2.375 9.1113997,2.3475198 8.9049421,2.2951776 8.6855469,2.2597656 8.4661553,2.2243892 8.1917555,2.1669485 8.0761719,2.1328125 7.8374615,2.0621305 7.4698779,2.0522661 7.3144531,2.1113281 7.2422111,2.1389121 7.1459803,2.1306796 7.0039062,2.0878906 6.8896662,2.053514 6.8098429,2.0409409 6.7597656,2.0488281 Z m 7.6367184,1.3476563 c -0.119921,-7.371e-4 -0.238456,0.1070765 -0.193359,0.2246094 0.03403,0.089364 0.215144,0.089532 0.302734,0.00195 0.08298,-0.082993 0.08455,-0.1202429 0.0059,-0.1855469 -0.03376,-0.028024 -0.07526,-0.04077 -0.115235,-0.041016 z M 6.6217422,3.6033828 c -0.032901,-0.032894 -0.1900463,0.1608171 -0.1914063,0.2363281 -5.21e-4,0.029135 0.018192,0.054687 0.041016,0.054687 0.054099,0 0.1860506,-0.2553636 0.1503903,-0.2910151 z M 13.896484,3.794922 c -0.02772,0.01396 -0.04883,0.045631 -0.04883,0.085937 0,0.031446 -0.107485,0.1538959 -0.238281,0.2734375 -0.199463,0.1822962 -0.222388,0.21875 -0.142578,0.21875 0.223698,0 0.635835,-0.4461996 0.519531,-0.5625 -0.02681,-0.026808 -0.06212,-0.029585 -0.08984,-0.015625 z M 3.125,3.9042969 c -0.046875,0 -0.083984,0.017572 -0.083984,0.041016 0,0.023309 0.037109,0.042969 0.083984,0.042969 0.046875,0 0.085937,-0.019521 0.085937,-0.042969 0,-0.023309 -0.039061,-0.041016 -0.085937,-0.041016 z M 14.566406,4.59375 c -0.134541,-0.01124 -0.171692,0.00841 -0.287109,0.1484375 -0.1388,0.1683648 -0.18218,0.4138751 -0.08008,0.4550781 0.09892,0.039893 0.118954,0.028841 0.332031,-0.1953125 C 14.788577,4.7312175 14.797969,4.613058 14.566406,4.59375 Z M 5.8443984,4.7811172 c -0.049889,-0.049892 -0.3515625,0.038936 -0.3515625,0.1035156 0,0.020352 0.033202,0.02861 0.074219,0.017578 0.041014,-0.011104 0.1294236,-0.033656 0.1972656,-0.048828 0.08581,-0.01924 0.1110741,-0.041234 0.080078,-0.072266 z m 7.6927106,0.2891953 c 0.01455,0.014523 -0.01088,0.054118 -0.05469,0.087891 -0.106497,0.082295 -0.1875,0.083486 -0.1875,0.00391 0,-0.0652 0.194627,-0.1393789 0.242187,-0.091797 z m 0.378907,0.453125 c -0.03709,0 -0.06836,0.02927 -0.06836,0.066406 0,0.037134 0.02296,0.060091 0.05078,0.050781 0.07901,-0.026343 0.09284,-0.1171875 0.01758,-0.117187 z M 5.5592422,7.453125 c -0.033468,0 -0.013699,0.6787573 0.023437,0.8007812 0.023546,0.077407 0.065073,0.1339601 0.091797,0.125 0.092092,-0.030687 0.1302266,-0.2776283 0.072266,-0.46875 C 5.6888714,7.719345 5.5796902,7.453125 5.5592422,7.453125 Z M 4.0924453,9.9453125 4.135414,10.109375 c 0.030798,0.116227 0.030022,0.176797 -0.00391,0.210937 -0.035162,0.03514 -0.046089,-0.0085 -0.042969,-0.164062 z m 2.4726563,0.3710935 c -0.046782,0.0089 -0.078821,0.06101 -0.087891,0.140625 -0.014371,0.12613 -0.014301,0.127005 0.074219,0.04687 0.108799,-0.09844 0.1163839,-0.20715 0.013672,-0.1875 z m -2.46875,0.134766 c 0.00448,-0.0045 0.00883,0.0025 0.015625,0.01953 0.012248,0.03075 0.012219,0.06789 -0.00195,0.08203 -0.014136,0.01417 -0.025158,-0.01171 -0.023437,-0.05664 0.00103,-0.02482 0.00528,-0.0404 0.00977,-0.04492 z m 2.2460937,0.453125 c -0.023442,0 -0.042969,0.01952 -0.042969,0.04297 0,0.02331 0.019521,0.04297 0.042969,0.04297 0.023442,0 0.042969,-0.01952 0.042969,-0.04297 0,-0.02331 -0.019521,-0.04297 -0.042969,-0.04297 z M 4.104164,11.146484 c 0.023436,0.0047 0.059229,0.07305 0.078125,0.150391 0.018892,0.07734 0.045458,0.183568 0.058594,0.236328 0.035332,0.141785 -0.1053643,0.124595 -0.1601562,-0.01953 -0.052011,-0.136781 -0.036881,-0.379258 0.023437,-0.367188 z m 0.2747422,1.003907 c 0.026226,0.0037 -0.3445548,0.02689 -0.3313828,0.06641 0.00928,0.02786 -0.013669,0.05078 -0.050781,0.05078 -0.037098,0 0.3313828,-0.02931 0.3313828,-0.06641 0,-0.03761 0.024555,-0.05453 0.050781,-0.05078 z m 0.1940078,0.501953 c 0.035166,0 0.064453,0.02733 0.064453,0.0625 0,0.0353 -0.029293,0.06445 -0.064453,0.06445 -0.035166,0 -0.0625,-0.02928 -0.0625,-0.06445 0,-0.03531 0.027344,-0.0625 0.0625,-0.0625 z m 0.6972657,0.21875 c 0.03513,0.02653 0.056641,0.120064 0.056641,0.277344 0,0.116955 -0.022749,0.211041 -0.056641,0.232421 -0.077807,0.04949 -0.1963476,0.04621 -0.2285157,-0.0059 -0.030111,-0.04872 4.629e-4,-0.168801 0.091797,-0.371094 0.052963,-0.117283 0.1015886,-0.159345 0.1367188,-0.132812 z m 1.8125,0.101562 c -0.035335,-0.0034 -0.058594,0.019 -0.058594,0.06836 0,0.02427 -0.039419,0.09991 -0.087891,0.167968 -0.078845,0.110682 -0.1122857,0.125 -0.3203125,0.125 -0.2103996,0 -0.2377826,0.01049 -0.2753906,0.109375 -0.047512,0.12499 -0.053953,0.373776 -0.011719,0.416016 0.043127,0.0432 0.1753222,0.03255 0.2050782,-0.01563 0.014485,-0.02331 0.071123,-0.04102 0.1269531,-0.04102 0.05583,0 0.1144262,0.01758 0.1289062,0.04102 0.014485,0.02331 0.089827,0.04297 0.1679688,0.04297 0.1495182,0 0.1933593,-0.0528 0.1933593,-0.234375 0,-0.0553 0.019525,-0.112473 0.042969,-0.126953 0.023442,-0.01441 0.042969,-0.0047 0.042969,0.02148 0,0.02618 0.019525,0.03596 0.042969,0.02148 0.023445,-0.01448 0.042969,-0.108303 0.042969,-0.208984 0,-0.13623 -0.027977,-0.213078 -0.1074218,-0.298828 -0.050241,-0.05425 -0.097478,-0.08446 -0.1328125,-0.08789 z"/>
</svg>
