<svg width="16" height="16" version="1.1" xmlns="http://www.w3.org/2000/svg">
 <g>
  <path d="m2 15c0 1 1 1 1 1h7s1 0 1-1-1-1-1-1-3 0-3-2c0-3 4-3 4-3s2 0 2-3c0-4-2-5-2-5s-2-1-8-1c-0.4714045 0-1 0-1 1s0.6101695 1 1 1c1 0 1 1 1 1v10c0 1-1 1-1 1s-1 0-1 1z" style="fill:#ec4040"/>
  <path d="m6 8s5 0 5-3-5-3-5-3 1 2 1 3-1 3-1 3z" style="fill:#4f4f4f"/>
 </g>
 <circle cx="11.5" cy="11.5" r="4.5" style="fill:#42cd68"/>
 <path d="m10 9v5h1v-2l1 2h1l-1-2s1 0 1-1v-1c0-1-1-1-1-1zm1.5 1c0.276142 0 0.5 0.223858 0.5 0.5s-0.223858 0.5-0.5 0.5-0.5-0.223858-0.5-0.5 0.223858-0.5 0.5-0.5z" style="fill:#f4f4f7"/>
</svg>
