<svg xmlns="http://www.w3.org/2000/svg" width="16" height="16" version="1">
 <path style="fill:#b81c42" d="m 0.80000004,5e-8 c -0.4432,0 -0.8,0.3568 -0.8,0.8 V 11.007813 c 0,0.592169 -1.8728205e-4,0.592 0.34843754,0.980468 L 4.0382811,15.678125 C 4.4002068,16.000207 4.3999779,16 4.9390626,16 H 8 15.2 C 15.6432,16 16,15.6432 16,15.2 V 4.9921875 C 16,4.4000177 16.000187,4.4001871 15.651562,4.011719 L 11.961719,0.32187504 C 11.599793,-2.0712949e-4 11.600022,5e-8 11.060937,5e-8 H 8 Z"/>
 <path style="fill:#f4f4f7" d="M 8.0000002,5 A 3.0000002,3.0000002 0 0 0 5,8.0000002 3.0000002,3.0000002 0 0 0 8.0000002,11 3.0000002,3.0000002 0 0 0 11.000001,8.0000002 3.0000002,3.0000002 0 0 0 8.0000002,5 Z m 0,0.8571428 A 2.1428573,2.1428573 0 0 1 10.142857,8.0000002 2.1428573,2.1428573 0 0 1 8.0000002,10.142857 2.1428573,2.1428573 0 0 1 5.8571429,8.0000002 2.1428573,2.1428573 0 0 1 8.0000002,5.8571428 Z"/>
 <path style="fill:#f4f4f7" d="M 7.8199781,1.8601817 C 5.7694249,1.956853 4.1556157,3.642024 4.1441818,5.6925551 3.7778801,5.8740951 3.4319323,6.1100713 3.1268486,6.4151546 1.694318,7.8511471 1.6181626,10.150992 2.9526879,11.678493 2.1182687,10.655698 2.1935738,9.1672634 3.1268486,8.2337944 c 1.0045145,-1.0045145 2.6327654,-1.0045136 3.63728,0 1.0045144,1.0045154 1.0045144,2.6327666 0,3.6372806 -0.9546856,0.954482 -2.4845182,1.008691 -3.5041475,0.123922 1.3331949,1.213149 3.2944416,1.323329 4.740019,0.355857 1.4455769,0.967472 3.4068239,0.857292 4.7400179,-0.355857 -1.019629,0.884769 -2.549461,0.83056 -3.5041467,-0.123922 -1.0045146,-1.004514 -1.0045146,-2.6327656 0,-3.6372806 1.0045147,-1.0045136 2.6327647,-1.0045145 3.6372797,0 0.933274,0.933469 1.00858,2.4219036 0.174161,3.4446986 1.334525,-1.527501 1.25837,-3.8273459 -0.174161,-5.2633384 C 12.569032,6.1110351 12.224168,5.8755852 11.859168,5.6942295 11.847584,3.6738462 10.279084,2.002936 8.2612412,1.8668801 c 1.3132487,0.133202 2.3125168,1.2388365 2.3126538,2.5588231 0,1.4205977 -1.1516227,2.57222 -2.5722204,2.57222 -1.4205977,0 -2.57222,-1.1516223 -2.57222,-2.57222 C 5.4295977,3.0757177 6.4733648,1.955542 7.8199781,1.8601817 Z m 0.1816965,5.5664449 0.6430551,0.6430551 -0.6430551,0.643055 -0.643055,-0.643055 z"/>
</svg>
