<svg width="16" height="16" version="1.1" xmlns="http://www.w3.org/2000/svg">
 <path d="m10 0.265625v5.1992188l-4 4.5351562-1 5.410156a8 8 0 0 0 0 0.001953 8 8 0 0 0 3 0.587891 8 8 0 0 0 8-8 8 8 0 0 0-6-7.734375z" style="fill:#56aad4"/>
 <path d="M 8 0 A 8 8 0 0 0 0 8 A 8 8 0 0 0 5 15.410156 L 6 9 L 10 7 L 10.919922 0.56054688 A 8 8 0 0 0 8 0 z " style="fill:#f37b21"/>
 <path d="m10 0.265625v1.734375h-7.28125a8 8 0 0 0-0.9628906 1h8.2441406v2.4648438l-1.5351562-0.6582032-1.6601563 0.1933594h-6.2167969a8 8 0 0 0-0.328125 1h5.2050782l-0.4296876 1h-4.9628906a8 8 0 0 0-0.072265625 1h4.859375l0.1171875 1h-4.9042969a8 8 0 0 0 0.19335938 1h4.734375v0.535156 0.464844h-4.4082031a8 8 0 0 0 1.1777343 2h3.2304688v2.410156a8 8 0 0 0 1 0.324219v-5.199219l3.1054688 5.378906a8 8 0 0 0 1.0371092-0.205078l-2.6054686-4.513672 5.3847656 3.109376a8 8 0 0 0 0.779297-0.703126l-4.5058595-2.601562h6.2148435a8 8 0 0 0 0.324219-1h-5.199219l5.378906-3.1054688a8 8 0 0 0-0.205078-1.0371093l-4.513672 2.6054687 3.109376-5.3847656a8 8 0 0 0-0.703126-0.7792969l-2.601562 4.5058594v-6.2148438a8 8 0 0 0-1-0.32421875zm5.955078 6.9550781a8 8 0 0 1 0.044922 0.7792969 8 8 0 0 0-0.044922-0.7792969zm0.017578 1.3183594a8 8 0 0 1-0.064453 0.6015625 8 8 0 0 0 0.064453-0.6015625zm-9.113281 7.3691405a8 8 0 0 0 0.6015625 0.064453 8 8 0 0 1-0.6015625-0.064453z" style="fill:#f4f4f7"/>
</svg>
