<svg xmlns="http://www.w3.org/2000/svg" width="16" height="16" version="1.1">
 <path style="fill:#b2bfd9" d="m 7.5,0 0,7.5 7.5,0 A 7.5,7.5 0 0 0 7.5,0 Z m 0,7.5 -7.5,0 A 7.5,7.5 0 0 0 7.5,15 l 0,-7.5 z"/>
 <circle style="fill:#f4f4f7" cx="7.5" cy="7.5" r="5.5"/>
 <circle style="fill:#3ca2e4" cx="7.5" cy="7.5" r="3.5"/>
 <path style="fill:none;stroke:#ffc34c;stroke-linecap:round;stroke-linejoin:round" d="m 6.5,5.5 2,0 0,2 -2,0 0,2 2,0"/>
</svg>
