<svg width="16" height="16" version="1.1" xmlns="http://www.w3.org/2000/svg">
 <circle cx="8" cy="8" r="8" style="fill:#3b6ec5"/>
 <path d="m2 2.71875a8 8 0 0 0-2 5.28125 8 8 0 0 0 8 8 8 8 0 0 0 7.410156-5h-0.410156v-1-4h0.740234a8 8 0 0 0-1.740234-3.2773438v0.2773438h-1v2h1v4h-1v1h-2v-2h1v-1h-3v2h1v2h-1v1h1v1h-2v-1h-2v-2h1v-1h-2v-2h1v-1h-1v-1h-1v2h-2v-1h1v-2h-1v-1.28125z" style="fill:#53c457"/>
 <circle cx="9" cy="5" r="1" style="fill:#f4f4f7"/>
</svg>
