<svg xmlns="http://www.w3.org/2000/svg" width="16" height="16" version="1">
 <path fill="#fecd38" d="m8 4e-8c-4.432 0-8 3.568-8 8 4e-8 4.432 3.568 8 8 8s8-3.568 8-8-3.568-8-8-8z"/>
 <path fill="#17191e" d="m7.9575 2.09c-1.7811 0-2.8437 1.1112-2.8437 1.1112l1.6343 3.1055a2.182 2.182 0 0 1 1.252 -0.3982 2.182 2.182 0 0 1 1.1913 0.3568l1.6141-3.064s-1.0675-1.1112-2.848-1.1112zm0.042549 4.9095c-0.60223 0-1.091 0.48877-1.091 1.091 0 0.60278 0.48877 1.091 1.091 1.091 0.60278 0 1.091-0.48822 1.091-1.091s-0.48822-1.091-1.091-1.091zm2.212 1.0261c-0.0054 0.15983-0.03164 0.32075-0.07037 0.47949a2.182 2.182 0 0 1 -0.01637 0.070369c-0.0028 0.01091-0.0049 0.022366-0.0082 0.033821a2.182 2.182 0 0 1 -1.0908 1.4037l2.0031 2.9419s1.5356-0.33221 2.4258-1.8132c0.89025-1.481 0.41949-2.9206 0.41949-2.9206v-0.00109l-3.6636-0.19474zm-4.425 0.0447-3.6638 0.1959s-0.46853 1.4439 0.42189 2.925c0.8903 1.481 2.4236 1.809 2.4236 1.809l2.0086-2.95c-0.1948-0.1162-0.3721-0.2614-0.5308-0.4283a2.182 2.182 0 0 1 -0.0818 -0.0905c-0.0235-0.0278-0.0491-0.0535-0.0715-0.0824a2.182 2.182 0 0 1 -0.0022 -0.0022 2.182 2.182 0 0 1 -0.1511 -0.2204c-0.00491-0.00764-0.011456-0.014183-0.015819-0.022366-0.00982-0.015815-0.015816-0.03218-0.024544-0.047999a2.182 2.182 0 0 1 -0.0714 -0.1374c-0.1495-0.3055-0.2302-0.6273-0.2411-0.9481z"/>
</svg>
