<svg xmlns="http://www.w3.org/2000/svg" width="16" height="16" x="0" y="0" version="1.1" xml:space="preserve">
 <path style="fill:#ff5555" d="M 11.150319,13.619546 C 7.4815406,15.801003 3.0999835,15.313803 0.34219288,12.744945 0.26023967,12.66862 0.20425747,12.568759 0.18106923,12.457531 -0.02421825,11.473727 -0.05258138,10.461319 0.08395123,9.4636834 0.46645729,6.6687343 3.6742993,8.4554381 6.3807793,6.8461638 10.049558,4.6647063 11.687893,2.2491962 14.445684,4.8180543 c 0.08196,0.076323 1.350057,-1.3868133 1.373245,-1.2755858 0.780415,3.7400032 -0.996042,7.8933665 -4.66861,10.0770775 z"/>
 <path style="fill:#b2bfd9" d="M 9.8789062 1 C 8.196618 0.98194738 6.4546998 1.4264715 4.8496094 2.3808594 C 2.0726221 4.0320573 0.38169065 6.8083453 0.05859375 9.6816406 C 0.088285507 9.9416436 0.12803927 10.200156 0.18164062 10.457031 C 0.20482886 10.568259 0.25984367 10.667816 0.34179688 10.744141 C 3.0995875 13.312999 7.4816122 13.800598 11.150391 11.619141 C 13.927401 9.9679289 15.618316 7.1916505 15.941406 4.3183594 C 15.911714 4.0583565 15.871961 3.7998438 15.818359 3.5429688 C 15.795171 3.4317412 15.740163 3.3321824 15.658203 3.2558594 C 14.106946 1.8108767 12.041848 1.0232105 9.8789062 1 z"/>
 <circle style="fill:#1c93e1" cx="2.928" cy="10.928" r="4" transform="rotate(-30)"/>
 <ellipse style="opacity:0.95700001;fill:#17191e" cx="2.928" cy="10.928" rx="2" ry="2" transform="rotate(-30)"/>
</svg>
