<svg xmlns="http://www.w3.org/2000/svg" width="16" height="16" version="1">
 <path style="fill:#b2bfd9" d="M 15,15.2 V 0.8 C 15,0.3568 14.637857,0 14.1875,0 H 2.8125 C 2.3623286,0 2,0.3568 2,0.8 V 15.2 C 2,15.643 2.3623286,16 2.8125,16 h 11.375 C 14.637857,16 15,15.643 15,15.2 Z"/>
 <path style="fill:#4587cf" d="M 4.7371316,10.854768 3,6.5161855 4.3985919,5.8088364 l 0.0347,-0.047682 1.127337,2.9492564 1.3537355,-0.7432196 0.6085251,1.4011373 M 4.7375548,10.854768"/>
 <path style="fill:#dfa722" d="M 5.9419096,6.4803149 7.6908902,6.7349081 8.2101254,7.9055118 8.8630838,6.8937008 10.62349,7.1364829 9.0099253,9.6229221 8.6146803,12 6.9799569,11.719598 7.2609448,9.5870516 M 5.9419096,6.4803149"/>
 <path style="fill:#de5328" d="m 9.7982996,5.0004374 1.5272374,0.316273 0.328806,1.067804 L 12.325498,5.5608049 14,5.9418197 12.500692,7.7480315 13.347042,10.437445 11.545164,10.247594 11.224398,8.7882764 10.409364,9.9877515 9.0061168,9.5179352 10.414442,7.3683289 M 9.7927983,5"/>
</svg>
