<svg xmlns="http://www.w3.org/2000/svg" width="16" height="16" version="1">
 <circle style="fill:#8255cc" cx="8" cy="8" r="8"/>
 <path style="fill:#f4f4f7" d="M 7,4 6.9118,5.0536 A 3.1429,3.1429 0 0 0 5.99328,5.58486 l -0.95759,-0.4509 -1,1.7321 0.86941,0.6038 a 3.1429,3.1429 0 0 0 -0.048,0.53013 3.1429,3.1429 0 0 0 0.0457,0.53237 l -0.86719,0.60156 1,1.7321 0.95536,-0.44978 a 3.1429,3.1429 0 0 0 0.92075,0.5279 l 0.0882,1.0558 h 2 l 0.0882,-1.0536 a 3.1429,3.1429 0 0 0 0.91854,-0.53126 l 0.95758,0.4509 1,-1.7321 -0.86942,-0.6038 a 3.1429,3.1429 0 0 0 0.048,-0.53013 3.1429,3.1429 0 0 0 -0.0457,-0.53237 l 0.86719,-0.60156 -1,-1.7321 -0.95536,0.44978 a 3.1429,3.1429 0 0 0 -0.921,-0.528 l -0.088,-1.056 h -2 z M 8,6.8572 A 1.1429,1.1429 0 0 1 9.143,8.0002 1.1429,1.1429 0 0 1 8,9.1432 1.1429,1.1429 0 0 1 6.857,8.0002 1.1429,1.1429 0 0 1 8,6.8572 Z"/>
</svg>
