<svg xmlns="http://www.w3.org/2000/svg" width="16" height="16" version="1">
 <path style="fill:#e23a3d" d="M 4.8,0 C 2.1408,0 0,2.1408 0,4.8 v 3.2 3.2 4 C 0,15.6432 0.3568,16 0.8,16 h 4 3.2 3.2 C 13.8592,16 16,13.8592 16,11.2 V 8 4.8 0.8 C 16,0.3568 15.6432,0 15.2,0 H 11.2 8 Z"/>
 <path style="fill:#f4f4f7" d="m 4.6329424,11 c 0,0 1.1247522,-2.8121314 1.2250755,-3.0854402 C 5.8916295,7.8229555 4.98528,5.5007545 4.6476786,4.8135267 4.4095359,4.3287654 4.2095626,4.2405476 4.0198202,4.5365519 L 1.3888888,11 Z"/>
 <path style="fill:#f4f4f7" d="m 14.611111,11 c 0,0 -0.900052,-2.3068419 -0.982962,-2.4124065 C 13.596561,8.547361 13.472037,8.4842307 13.351462,8.4473034 13.160785,8.3889078 13.06777,8.4007086 12.637247,8.5379154 11.612356,8.8645491 10.71125,9.2296508 10.71125,9.3182739 10.71125,9.4158177 11.356826,11 11.356826,11 Z"/>
 <path style="fill:#f4f4f7" d="m 10.506193,9.0425779 c 1.759065,-0.6333153 2.519818,-0.8810915 2.705239,-0.8810915 0.173793,0 0.257968,-0.024998 0.257968,-0.076608 0,-0.098979 -1.73317,-2.2012383 -1.976535,-2.3749398 C 11.204719,5.5042716 10.904915,5.5364949 9.9206048,5.878926 9.4445076,6.0445553 9.0914155,6.2229666 9.0408016,6.2753951 8.9452925,6.3743261 7.5712589,9.6430865 7.5712589,9.7696232 c 0,0.1470762 0.1412577,0.221878 0.3545843,0.1877705 0.1160149,-0.01855 1.2343508,-0.4302151 2.5803498,-0.9148158 z"/>
 <path style="fill:#f4f4f7" d="M 7.3441315,9.6152059 C 7.5312812,9.317998 8.7765057,6.4178505 8.7753251,6.28193 8.7745862,6.2011678 8.5996052,5.7320753 8.3863965,5.2395028 7.9964564,4.3386312 7.8235203,4.0915183 7.5320757,4.0187456 7.4634014,4.0015956 6.737592,3.995 5.919164,4.0040767 L 4.4311083,4.020585 4.5830678,4.2051311 c 0.19089,0.2318275 0.3938566,0.6771224 1.1473945,2.5173163 1.1119504,2.7154555 1.2625126,3.0249108 1.4717018,3.0249108 0.032324,0 0.096196,-0.05947 0.1419674,-0.1321562 z"/>
</svg>
