<svg xmlns="http://www.w3.org/2000/svg" width="16" height="16" version="1">
 <circle style="fill:#b2bfd9" cx="8" cy="8" r="8"/>
 <g transform="translate(-10,-7)">
  <path fill="#2a58ae" d="m17 12c-2.7621 0-5 2.2373-5 5s2.2373 5 5 5 5-2.2373 5-5-2.2373-5-5-5zm-0.89425 2.6424c1.8783 0 3.4144 1.516 3.4144 3.3943s-1.5362 3.4144-3.4144 3.4144c-1.8783 0-3.3943-1.5362-3.3943-3.4144 0-1.8783 1.516-3.3943 3.3943-3.3943z"/>
  <path fill="#d24646" d="m23 11.5a2.5 2.5 0 0 1 -5 0 2.5 2.5 0 1 1 5 0z"/>
  <path fill="#606060" d="m16 19.501a1.5 1.5 0 0 1 -3 0 1.5 1.5 0 1 1 3 0z"/>
 </g>
</svg>
