<svg xmlns="http://www.w3.org/2000/svg" width="16" height="16" version="1">
 <rect style="fill:#b2bfd9" width="16" height="16" x="0" y="0" rx="4.8" ry="4.8"/>
 <path style="fill:none;stroke:#ff8d00;stroke-width:2;stroke-linecap:round;stroke-linejoin:round" d="m 2,5.3998164 c 0,0 2.360144,-2.4 6,-2.4 3.639856,0 6,2.4 6,2.4"/>
 <path style="fill:none;stroke:#919191;stroke-width:2;stroke-linecap:round;stroke-linejoin:round" d="m 2,10.6 c 0,0 2.360144,2.4 6,2.4 3.639856,0 6,-2.4 6,-2.4"/>
 <circle style="fill:#919191" cx="8" cy="8" r="3"/>
 <path style="fill:#f4f4f7" d="M 8.6010545,6.0000101 A 0.59080558,0.58198709 0 0 0 8.171263,6.991676 L 8.9800783,7.8179694 A 0.59080558,0.58198709 0 1 0 9.8304294,7.0098612 L 9.0216152,6.1835678 A 0.59080558,0.58198709 0 0 0 8.6010545,6.0000101 Z"/>
</svg>
