<svg xmlns="http://www.w3.org/2000/svg" width="16" height="16" version="1">
 <rect style="fill:#4f4f4f" width="16" height="16" x="0" y="0" rx="8" ry="8"/>
 <path style="fill:#ffe485" d="m 8,2.0000002 c -3.324,0 -6,2.676 -6,6 C 2,9.0956759 2.2953204,10.117771 2.8041991,11 H 13.195801 C 13.70468,10.117771 14,9.0956759 14,8.0000002 c 0,-3.324 -2.676,-6 -6,-6 z"/>
 <path style="fill:none;stroke:#17191e;stroke-width:1.5;stroke-linecap:round" d="M 8,11 5.75,7.2500002"/>
 <circle style="fill:#4f4f4f" cx="8" cy="11" r="2"/>
 <path style="opacity:0.3;fill:none;stroke:#000000;stroke-width:0.75;stroke-linecap:round" d="m 3.125,6.4999465 c 0,0 1.5,-1.875 4.875,-1.875 3.375,0 4.875,1.875 4.875,1.875"/>
 <path style="fill:none;stroke:#e93232;stroke-width:0.75;stroke-linecap:round" d="M 10.019413,4.872619 C 11.980683,5.3820505 12.875,6.4999465 12.875,6.4999465"/>
</svg>
