<svg xmlns="http://www.w3.org/2000/svg" width="16" height="16" version="1.1">
 <circle style="fill:#2e3192" cx="8" cy="8" r="8"/>
 <path style="fill:#f4f4f7" d="M 11.905574,8.7865126 C 11.774854,9.3599872 11.366894,9.9582598 10.763837,9.9767268 10.373698,10.050002 9.9590589,9.808445 9.8530727,9.3937652 9.7424153,8.9861698 9.7170292,8.5423352 9.8121304,8.1288129 9.6565492,8.3651424 9.5471079,8.7136873 9.3481551,8.9537212 8.87951,9.627122 8.0948007,10.132799 7.2847786,9.9872358 6.7158869,9.873506 6.4443426,9.2175954 6.4416591,8.6575594 6.4070386,8.383502 6.5060804,7.9057104 6.3561597,8.0367508 5.9601676,9.1211506 5.8069685,10.300234 5.6822064,11.449408 5.7323174,11.893259 6.0274592,12.363134 5.7834503,12.797535 5.5830514,13.182904 4.9772304,12.973044 5.0006612,12.545964 5.0079112,11.669011 5.302493,10.815385 5.5129317,9.9767258 5.7463128,9.1569812 6.025014,8.3511509 6.2382763,7.5255316 6.3829549,6.5980045 6.4235655,5.6677613 6.6185579,4.7490867 6.7064911,4.3589218 7.006067,3.9078477 7.4374227,4.0164147 7.8406473,4.1179605 7.7384743,4.6574949 7.6764612,4.9752003 7.507303,5.6665811 7.2415072,6.3062554 6.9747535,6.9596452 6.7903747,7.4686489 6.5600943,8.0936961 6.8840221,8.5954622 7.242072,9.1181082 8.0321857,9.1137772 8.4417003,8.6609753 9.1421455,8.0312173 9.5613662,7.0961948 9.6839598,6.1407642 9.8113674,5.5852138 9.8383241,5.0170754 10.039988,4.4837647 c 0.124811,-0.3400024 0.490775,-0.575721 0.825984,-0.4204052 0.320297,0.1851417 0.229693,0.6496086 0.156653,0.9585238 -0.251456,0.9786737 -0.656327,1.8831335 -1.0324809,2.811712 -0.088429,0.4678537 0.1173459,1.0582799 0.5972369,1.1754986 0.476181,0.1007679 0.976821,-0.2142031 1.120598,-0.7083817 0.08959,-0.1262736 0.145749,-0.8262638 0.287558,-0.5249775 0.01616,0.3391615 -0.01104,0.6813391 -0.08996,1.0107779 z"/>
</svg>
