<svg xmlns="http://www.w3.org/2000/svg" width="16" height="16" version="1">
 <rect fill="#687df9" width="16" height="16" x="0" y="0" rx=".857" ry=".857"/>
 <path style="fill:#f4f4f7" d="M 7.243,14 C 7.0056,14 7,13.794 7,13.5383 V 6.0001 H 5 L 8,2 11,6 H 9 v 7.5382 c 0,0.2553 -0.006,0.4614 -0.243,0.4614 z"/>
</svg>
