<svg xmlns="http://www.w3.org/2000/svg" width="16" height="16" version="1.1">
 <rect style="fill:#009e70" width="16" height="16" x="0" y="0" rx=".8" ry=".8"/>
 <path style="fill:#f4f4f7" d="M 5 2 L 5 4 L 6 4 L 6 4.4003906 L 6 5 L 7 5 L 7 8 L 6 8 L 6 7 L 6 6 L 5 6 L 5 5 L 5 4 L 4 4 L 3 4 L 2 4 L 2 5 L 2 6 L 4 6 L 4 7 L 2 7 L 2 8 L 2 9 L 4 9 L 4 10 L 5 10 L 5 11 L 4 11 L 4 12 L 5 12 L 5 12.400391 L 5 12.800781 L 5 13 L 5 14 L 6 14 L 8 14 L 10 14 L 11 14 L 11 13 L 11 12.800781 L 11 12.400391 L 11 12 L 12 12 L 12 11 L 11 11 L 11 10 L 12 10 L 12 9 L 14 9 L 14 8 L 14 7 L 12 7 L 12 6 L 14 6 L 14 5 L 14 4 L 13 4 L 12 4 L 11 4 L 11 5 L 11 6 L 10 6 L 10 7 L 10 8 L 9 8 L 9 5 L 10 5 L 10 4.4003906 L 10 4 L 11 4 L 11 2 L 10 2 L 9 2 L 8 2 L 7 2 L 6 2 L 5 2 z M 7 9 L 8 9 L 9 9 L 9 10 L 9 11 L 9 12 L 8 12 L 7 12 L 7 11 L 7 10 L 7 9 z"/>
</svg>
