<svg xmlns="http://www.w3.org/2000/svg" width="16" height="16" version="1">
 <rect style="fill:#b2bfd9" width="15.8" height="15.8" x=".1" y=".1" rx=".79" ry=".79"/>
 <path style="fill:#f73a3a" d="M 0.8,0 C 0.3568,0 0,0.3568 0,0.8 v 9.589844 L 4.0000312,9.4998954 5,4 2.4484376,0 Z"/>
 <path style="fill:#b2bfd9" d="M 2.4484376,0 5,4 h 6.5 L 15.235938,0.00390624 C 15.223757,0.00336064 15.21232,0 15.2,0 Z"/>
 <path style="fill:#357cca" d="M 13,10 7,12 6.5,16 H 9.1171876 15.2 C 15.6432,16 16,15.6432 16,15.2 V 13.90625 C 15.9918,13.8635 15.98024,13.81834 15.97891,13.780469 15.979394,13.737434 15.992599,13.693616 16,13.65 v -2.267969 z"/>
 <path style="fill:#cccccc" d="M 15.235938,0.00390624 11.5,4 13,10 16,11.382031 V 0.8 C 16,0.36912008 15.661944,0.02298832 15.235938,0.00390624 Z"/>
 <path style="fill:#fece00" d="M 5,4 3.9999688,9.5001046 7,12 13,10 11.5,4 Z"/>
 <path style="fill:#b2bfd9" d="M 4.0000312,9.4998954 0,10.389844 V 15.2 C 0,15.6432 0.3568,16 0.8,16 H 5.6065676 6.5 L 7,12 Z"/>
</svg>
