<svg xmlns="http://www.w3.org/2000/svg" width="16" height="16" version="1.1">
 <rect style="fill:#0e6f3a" width="16" height="16" x="0" y="0" rx="1.35" ry="1.35"/>
 <path style="fill:#f4f4f7" d="M 3.5335,13 6.7692,7.986 3.8054,3 H 6.1904 L 8.136,6.8633 10.2,3 H 12.39 L 9.3494,7.9582 12.467,13 H 10.137 L 8.0174,9.0321 5.8766,13 Z"/>
</svg>
