<svg xmlns="http://www.w3.org/2000/svg" width="16" height="16" version="1">
 <path style="fill:#1370ba" d="m8 0c-4.432 0-8 3.568-8 8s3.568 8 8 8 8-3.568 8-8-3.568-8-8-8z"/>
 <path style="fill:#f4f4f7" d="m 10.75,3.99975 c -0.8722,0 -1.3637,0.4532 -1.5712,0.8935 C 8.9718,5.33375 9.0003,5.9645 9.0003,5.9645 l 0.5,-0.029 c 0,0 -0.015,-0.51975 0.131,-0.82925 0.1455,-0.31 0.4037,-0.6065 1.1187,-0.6065 0.715,0 0.9735,0.2965 1.119,0.6065 C 12.015,5.41575 12,5.9355 12,5.9355 l 0.5,0.029 c 0,0 0.0285,-0.63075 -0.1785,-1.07125 -0.208,-0.4403 -0.699,-0.8935 -1.572,-0.8935 z m 0,1.5 c -0.138071,0 -0.25,0.1119288 -0.25,0.25 0,0.1380712 0.111929,0.25 0.25,0.25 0.138071,0 0.25,-0.1119288 0.25,-0.25 0,-0.1380712 -0.111929,-0.25 -0.25,-0.25 z M 4.7513,7 C 3.879,7 3.3873,7.4535 3.18,7.8935 2.9726,8.334 3.0013,8.7645 3.0013,8.7645 V 12 h 0.5 V 8.7355 c 0,0 -0.01505,-0.3195 0.13085,-0.629 C 3.778,7.7965 4.0365,7.5 4.75135,7.5 c 0.7145,0 0.973,0.2965 1.119,0.6065 0.146,0.3095 0.131,0.629 0.131,0.629 V 12 h 0.5 V 8.7355 c 0,0 -0.015,-0.3195 0.131,-0.629 0.1455,-0.31 0.404,-0.6065 1.119,-0.6065 0.7145,0 0.973,0.2965 1.119,0.6065 0.146,0.3095 0.131,0.629 0.131,0.629 V 8.742 l -0.001,1.008 v 0.4855 c 0,0 -0.0285,0.4305 0.1785,0.871 0.2075,0.44 0.699,0.8935 1.5715,0.8935 0.8725,0 1.364,-0.4535 1.5715,-0.8935 0.207,-0.4405 0.1785,-0.871 0.1785,-0.871 V 7 h -0.5 v 3.2645 c 0,0 0.015,0.3195 -0.131,0.629 -0.1455,0.31 -0.404,0.6065 -1.119,0.6065 -0.715,0 -0.9735,-0.2965 -1.119,-0.6065 -0.146,-0.3095 -0.131,-0.629 -0.131,-0.629 V 9.75 l 0.001,-0.9855 c 0,0 0.0285,-0.4305 -0.1785,-0.871 -0.2072,-0.4405 -0.6987,-0.894 -1.5712,-0.894 -0.7865,0 -1.262,0.3685 -1.5,0.7635 -0.238,-0.395 -0.7135,-0.7635 -1.5,-0.7635 z"/>
</svg>
