<svg width="16" height="16" version="1.1" xmlns="http://www.w3.org/2000/svg">
 <rect width="16" height="16" rx="1" ry="1" style="fill:#b2bfd9"/>
 <path d="m0.77265087 15.770309c-0.05653593-0.135309-0.12483268-0.623259-0.16621053-1.1875-0.03863185-0.526795-0.08541612-0.956925-0.10396503-0.955845-0.1038621 6e-3 -0.28497125 0.387847-0.38105454 0.803305-0.1076944 0.465664-0.11020332 0.342204-0.11575059-5.695894l-0.00567018-6.171875h0.29936883c0.43037804 0 0.91727907 0.1412927 1.9818812 0.5751177 1.1173687 0.4553274 1.3618163 0.4768671 2.4375 0.2147819 0.9218557-0.2246057 1.9199806-0.5358669 1.891605-0.5898895-0.34975-0.6658689-0.4459106-1.2282714-0.2686288-1.5710963 0.1016132-0.19649786 0.1203569-0.2050348 0.3738819-0.1702854 0.1467981 0.020121 0.4270263 0.0964924 0.6227294 0.1697144 0.3114394 0.1165244 0.37295 0.1685662 0.4931181 0.4172118 0.0755119 0.1562447 0.1654194 0.2872568 0.1997944 0.2911383 0.034375 0.0038812 0.0871638-0.0913804 0.1173081-0.2116929 0.0479507-0.1913794 0.1342982-0.2671609 0.6901019-0.605657 0.3494112-0.21279888 0.7677162-0.50347039 0.9295669-0.64593669 0.2282837-0.20094339 0.2942731-0.23390259 0.2942731-0.14697814 0 0.0616283-0.1054687 0.22266906-0.234375 0.35786827l-0.234375 0.24581681 0.40625-0.2674255c0.223437-0.147084 0.496756-0.35256706 0.607376-0.45662901 0.16563-0.15581272 0.207791-0.17183229 0.238897-0.09077222 0.04528 0.11800819-0.106328 0.42924758-0.300065 0.61599679-0.07698 0.0741999-0.364958 0.30342313-0.639958 0.50938509-0.275 0.205962-0.5 0.3950705-0.5 0.4202411 0 0.025171 0.2109375 0.2137079 0.46875 0.4189718 0.257813 0.2052638 0.675227 0.6026831 0.927587 0.883154 0.468389 0.5205625 2.272748 2.0190143 2.646751 2.1980263 0.200887 0.096152 0.206403 0.1089898 0.189442 0.4408622-0.0096 0.1880044-0.04757 0.4754199-0.08436 0.6387012-0.065901 0.2924987-0.070511 0.296875-0.312668 0.296875-0.17532 0-0.258641 0.0313556-0.290641 0.109375-0.024674 0.0601563-0.101111 0.1165637-0.169861 0.1253506-0.64075 0.0818894-0.995864 0.0864282-1.247604 0.015945-0.268554-0.07519-0.297495-0.0706162-0.531017 0.0839213-0.244014 0.1614806-0.262607 0.163645-1.5466809 0.1800519-1.212595 0.0154931-1.3193044 0.0262643-1.5922544 0.1607162-0.6347212 0.3126563-1.8595038 1.800515-2.6410025 3.208275-0.6856956 1.235184-1.7817359 2.211336-2.6248961 2.337776l-0.2713374 0.040689-0.0437481 0.603325c-0.0240615 0.331829-0.0975145 0.879611-0.1632289 1.217294-0.0657144 0.337684-0.1194807 0.794715-0.1194807 1.015625v0.401656h-1.1313783z" style="fill:#17191e"/>
</svg>
