<svg xmlns="http://www.w3.org/2000/svg" width="16" height="16" version="1">
 <path style="fill:#b2bfd9" d="M 0.85742188,1 C 0.50003121,1 0.19535194,1.2209975 0.06640625,1.5371094 0.19617734,1.2292812 0.50138938,1.0136719 0.85742188,1.0136719 l 14.28515612,0 c 0.35625,0 0.661313,0.2156093 0.791016,0.5234375 C 15.804648,1.2209975 15.499969,1 15.142578,1 Z M 0,2.9 0,14.125 C 0,14.60975 0.38264388,15 0.85742188,15 L 15.142578,15 C 15.617356,15 16,14.60975 16,14.125 L 16,2.9 Z"/>
 <path fill="#636e73" d="m16 3v-1.1286c0-0.4748-0.382-0.8571-0.857-0.8571h-14.286c-0.47471 0-0.857 0.3823-0.857 0.8571l4e-8 1.1286z"/>
 <path opacity=".15" d="m16 14.125v-11.125h-8v12h7.143c0.475 0 0.857-0.39 0.857-0.875z"/>
 <g fill="#636e73">
  <path d="m2 5.0003v0.4997h1v1.5h-2v-2h1z"/>
  <path d="m2 8.0003v0.4997h1v1.5h-2v-2h1z"/>
  <path d="m2 11v0.5h1v1.5h-2v-2h1z"/>
 </g>
 <g fill="#636e73" opacity=".9" transform="translate(8)">
  <path d="m2 5.0003v0.4997h1v1.5h-2v-2h1z"/>
  <path d="m2 8.0003v0.4997h1v1.5h-2v-2h1z"/>
  <path d="m2 11v0.5h1v1.5h-2v-2h1z"/>
 </g>
</svg>
