<svg xmlns="http://www.w3.org/2000/svg" width="16" height="16" version="1">
 <rect style="fill:#863ea7" width="12" height="16" x="-13" y="-16" rx=".75" ry=".8" transform="matrix(0,-1,-1,0,0,0)"/>
 <rect style="opacity:0.3" width="2" height="2" x="13" y="3" rx=".45" ry=".436"/>
 <rect style="opacity:0.3" width="2" height="2" x="13" y="6" rx=".45" ry=".436"/>
 <rect style="opacity:0.3" width="2" height="2" x="13" y="9" rx=".45" ry=".436"/>
 <rect style="opacity:0.3" width="2" height="2" x="1" y="3" rx=".45" ry=".436"/>
 <rect style="opacity:0.3" width="2" height="2" x="1" y="6" rx=".45" ry=".436"/>
 <rect style="opacity:0.3" width="2" height="2" x="1" y="9" rx=".45" ry=".436"/>
 <path style="fill:#f4f4f7" d="M 6.4026054,4.0001133 A 0.39344328,0.41770765 0 0 0 6,4.4174774 V 7.0004672 9.582197 A 0.39344328,0.41770765 0 0 0 6.5900964,9.94408 L 8.6965752,8.6529001 10.803053,7.3617204 a 0.39344328,0.41770765 0 0 0 0,-0.7237672 L 8.6965752,5.3467735 6.5900964,4.0562241 a 0.39344328,0.41770765 0 0 0 -0.187491,-0.056111 z"/>
 <g>
  <path style="fill:none;stroke:#ff5722;stroke-width:2;stroke-linejoin:round" d="M 8,14 V 8.3716667 L 14,7 v 6"/>
  <circle style="fill:#ff9800" cx="7" cy="14" r="2"/>
  <circle style="fill:#ff9800" cx="13" cy="13" r="2"/>
 </g>
</svg>
