<svg xmlns="http://www.w3.org/2000/svg" width="16" height="16" version="1">
 <path style="fill:none;stroke:#d24343;stroke-width:5;stroke-linecap:round;stroke-linejoin:round" d="m 2.5,12.5 0,-10 4.5,5 4.5,-5 0,10.452307"/>
 <circle style="fill:#6c9832" cx="11.5" cy="11.5" r="4.5"/>
 <rect style="fill:#f4f4f7" width="1" height="5" x="11" y="9" rx=".5" ry=".5"/>
 <rect style="fill:#f4f4f7" width="1" height="5" x="11" y="-14" rx=".5" ry=".5" transform="matrix(0,1,-1,0,0,0)"/>
</svg>
