<svg xmlns="http://www.w3.org/2000/svg" width="16" height="16" version="1.1">
 <circle style="fill:#ff395d" cx="8" cy="8" r="8"/>
 <path style="fill:#f4f4f7;fill-opacity:0.7" d="M 10.703049,4.1794227 8.0230727,6.0655961 c -0.00769,0.00542 -0.02308,0.016244 -0.02308,0.016244 L 5.2716465,4.1959598 C 5.121256,4.0895241 4.9462116,4.0417061 4.7750658,4.0416903 4.3774458,4.0416434 4.0005636,4.2996442 4.0005636,4.6799888 V 6.1101791 L 4,10.361686 C 4,10.741999 4.3769167,11 4.7745025,11 c 0.17118,0 0.3461728,-0.04782 0.4965804,-0.154285 L 8,8.9433143 C 9.3578462,9.904353 10.702485,10.845715 10.702485,10.845715 10.852876,10.95215 11.027938,11 11.199066,11 11.596704,11 12,10.742031 12,10.361686 V 6.1101788 4.6511012 c 0,-0.3803131 -0.402779,-0.625948 -0.800365,-0.625948 -0.17118,0 -0.346172,0.047818 -0.49658,0.1542695 z"/>
 <polygon style="fill:#f4f4f7;fill-opacity:0.6" transform="matrix(0.37559055,0,0,0.3524745,3.9999942,3.9947238)" points="15.95 9.99 10.65 5.92 5.32 9.99 10.65 14.04"/>
 <polyline style="fill:#f4f4f7;fill-opacity:0.6" transform="matrix(0.37559055,0,0,0.3524745,3.9999942,3.9947238)" points="0 5.99 0 13.99 5.32 9.99 0 5.99"/>
 <polyline style="fill:#f4f4f7;fill-opacity:0.6" transform="matrix(0.37559055,0,0,0.3524745,3.9999942,3.9947238)" points="15.95 9.99 21.3 14.04 21.3 5.92 15.95 9.99"/>
 <path style="fill:#f4f4f7" d="M 10.666661,4.2039955 7.9999938,6.0818393 9.9894827,7.5149608 11.999994,6.0818393 V 4.6511012 c 0,-0.5436679 -0.761905,-0.8942115 -1.333333,-0.4471057 z"/>
 <path style="fill:#f4f4f7" d="M 5.2743807,4.1847682 C 4.7739102,3.8312857 4.0015258,4.1248055 4.0015258,4.6684735 V 6.105101 L 5.9977076,7.5153622 7.9999945,6.0818393 Z"/>
</svg>
