<svg xmlns="http://www.w3.org/2000/svg" width="16" height="16" version="1.1">
 <rect style="fill:#17191e" width="16" height="16" x="0" y="0" rx=".8" ry=".8"/>
 <ellipse style="fill:#dadf18" cx="4.813" cy="12.892" rx="2.014" ry=".971" transform="matrix(0.9894682,-0.14475038,0.17353525,0.98482766,0,0)"/>
 <ellipse style="fill:#dadf18" cx="10.087" cy="11.637" rx="2.014" ry=".971" transform="matrix(0.9894682,-0.14475038,0.17353525,0.98482766,0,0)"/>
 <path style="fill:none;stroke:#dadf18;stroke-linejoin:round" d="M 8.5,11.7 V 6.1 l 5,-1.6 v 5.3"/>
 <path style="fill:none;stroke:#eecc7b;stroke-width:0.40000001px;stroke-linecap:round;stroke-linejoin:round" d="M 2.2024758,6.2 4.802,8 2.2024758,9.7"/>
</svg>
