<svg width="16" height="16" version="1.1" xmlns="http://www.w3.org/2000/svg">
 <circle cx="8" cy="8" r="8" style="fill:#6c9832"/>
 <rect x="3" y="7" width="10" height="2" rx="1" ry="1" style="fill:#f4f4f7"/>
 <rect x="7" y="3" width="2" height="10" rx="1" ry="1" style="fill:#f4f4f7"/>
</svg>
