<svg xmlns="http://www.w3.org/2000/svg" width="16" height="16" version="1.1">
 <rect style="fill:#0072c0" width="16" height="16" rx="2" ry="2"/>
 <path style="fill:#00ade5" d="m2 0c-1.108 0-2 0.892-2 2v12c0 0.554 0.22248438 1.054516 0.58398438 1.416016l14.832032-14.832032c-0.3615-0.3615-0.862016-0.58398438-1.416016-0.58398438h-12z"/>
 <path style="fill:#f4f4f7" d="m1 13v2h2v-2h-2zm3 0v2h2v-2h-2zm3 0v2h2v-2h-2zm3 0v2h2v-2h-2zm3 0v2h2v-2h-2z"/>
 <path style="fill:#4f4f4f" d="m1 1v2h2v-2h-2zm0 3v2h2v-2h-2zm0 3v2h2v-2h-2zm0 3v2h2v-2h-2zm0 3v2l2-2h-2z"/>
 <path style="fill:#f4f4f7" d="m 3.7,4 c 0,0 3,-3 6,-3 4,0 4,5 2,8 l 2,1 -5,2 -1,-5 2,1 c 1,-2 1,-4 0,-5 -3,-1 -6,1 -6,1 z"/>
</svg>
