<svg xmlns="http://www.w3.org/2000/svg" width="16" height="16" version="1">
 <path style="fill:#974fa4" d="m7.478 1.00125c-0.2798 0.011-0.5257 0.1627-0.7187 0.3876s-0.3455 0.5244-0.474 0.8759c-0.2568 0.703-0.4147 2.6193874-0.5022 3.5676874-0.0874 0.9483-0.1024 1.9262-0.0625 2.7437 0.039903 0.81753 0.11784 0.4542964 0.28273 0.8094964 0.14422 0.3107 0.31176 0.6658202 0.38391 0.9865402 0.072147 0.32071 0.057057 0.57631-0.12797 0.78304s-0.59322 0.301826-1.3779 0.344786c-0.7847 0.04297-1.9314-0.163014-3.5571-0.47188-0.26186-0.04974-0.48032-0.0542-0.67036 0.01011-0.19004 0.06425-0.33881 0.20716-0.4293 0.38765-0.18098 0.36097-0.19724 2.056837-0.22395 2.742927-0.0086343 0.22186 0.071177 0.43336 0.2113 0.60662s0.33632 0.3153 0.57959 0.43949c0.48654 0.24839 1.1679 0.42746 2.0141 0.55478 1.6923 0.25465 4.0419 0.29478 6.711 0.13695l0.00223-0.000758h0.00297c0.98234-0.08258 2.5363-0.14051 3.8763-0.48824 0.67002-0.17386 1.2896-0.41878 1.7626-0.7931 0.47302-0.37431 0.79694-0.89399 0.82884-1.5568 0.02965-0.61622-0.0015-2.228294-0.12276-2.524794-0.12124-0.29651-0.38105-0.537265-0.64804-0.542955-0.53398-0.01138-1.1632 0.427785-1.9798 0.623425-0.93716 0.22451-1.29856 0.411405-1.74856 0.376575-0.44995-0.03483-0.67487-0.07918-0.81396-0.261804-0.139-0.182-0.202-0.452-0.231-0.7955002-0.029-0.3435-0.026-0.7501-0.07-1.1783996-0.0848-0.8212-0.2449-1.7438968-0.6077-3.4604968-0.1815-0.8583-0.412-2.6654874-0.721-3.2728874-0.1545-0.3036-0.3285-0.5591-0.5372-0.7435-0.2087-0.1845-0.75964-0.29625-1.03184-0.2855z"/>
 <path style="fill:#4d4d4d" d="m7.4961 0.00857002c-0.1656 0.00267-0.3333 0.01343-0.5016 0.03203-2.6373 0.29158-4.5585 2.4671-4.3773 4.8961l-0.6172 0.0688 0.3531 3.1945 2.0586-0.2273-0.3531-3.1954-0.7625 0.0844c-0.1413-2.0814 1.5085-3.9398 3.7703-4.1898 2.2603-0.24989998 4.2856 1.1996 4.6046 3.2593l-0.67109 0.074219 0.35312 3.1945 1.9875-0.21953-0.35313-3.1945-0.63828 0.070313c-0.337-2.2508-2.4263-3.8868-4.8529-3.8476z"/>
 <path style="fill:#f4f4f7" d="m6.9915 6.5882886a1.9934 3.5013 3.205 1 1 -3.983 -0.176 1.9934 3.5013 3.205 1 1 3.983 0.176z"/>
 <path style="fill:#4d4d4d" d="m5.9953 7.0242886a0.96379 1.0356 44.722 0 1 -1.9908 -0.048 0.96379 1.0356 44.722 0 1 1.9908 0.048z"/>
 <path style="fill:#f4f4f7" d="m11.964 6.3154886a3.5145 1.9724 83.477 1 1 -3.9279 0.3696 3.5145 1.9724 83.477 1 1 3.9279 -0.3696z"/>
 <path style="fill:#4d4d4d" d="m10.965 7.0690886a0.89655502 1.0939648 45 0 1 -1.9302 -0.1355 0.89655502 1.0939648 45 0 1 1.9302 0.1355z"/>
</svg>
