<svg xmlns="http://www.w3.org/2000/svg" width="16" height="16" version="1">
 <rect style="fill:#aedeec" width="16" height="16" x="0" y="0" rx=".857" ry=".857"/>
 <path style="fill:#e37739" d="m 2.0002,4 0,0.7 0.0028,0.29998 1.497,2.5 -1.5,2.5 0,1 5.5,0 0,-1.5 -1,0 0,0.5 -3.5,0 1.5,-2.5 -1.5,-2.5 3,0 0,0.5 1,0 0,-1.5 -4.9999,0 z"/>
 <rect style="fill:#f4f4f7" width="1" height="16" x="10" y="0"/>
</svg>
