<svg xmlns="http://www.w3.org/2000/svg" width="16" height="16" version="1">
 <rect style="fill:#64b515" width="16" height="16" x="0" y="0" rx=".8" ry=".8"/>
 <path style="fill:#17191e;fill-rule:evenodd;stroke:#17191e;stroke-width:0.73733753px" d="m 4,8.342626 h 8"/>
 <path style="fill:#17191e;fill-rule:evenodd;stroke:#17191e;stroke-width:0.74246204px" d="m 3.9575,12.625 8.085,-8.251298"/>
 <path style="fill:#17191e;fill-rule:evenodd;stroke:#17191e;stroke-width:0.74246216px" d="M 12.0425,12.625002 3.9575,4.375001"/>
 <ellipse style="fill:#17191e" cx="8" cy="6.25" rx="1.5" ry="2.25"/>
 <ellipse style="fill:#17191e" cx="8" cy="10.375" rx="2" ry="2.625"/>
</svg>
