<svg xmlns="http://www.w3.org/2000/svg" width="16" height="16" version="1.1">
 <path style="fill:#cb3300" d="M 8,0 C 3.5868,0 0,3.5867 0,8 0,12.413 3.5868,16 8,16 12.413,16 16,12.413 16,8 16,3.5867 12.413,0 8,0 Z"/>
 <path style="fill:#2a334d" d="M 14,8 C 14,8.798 13.844,9.5596 13.561,10.256 12.67,12.452 10.492,12.876 7.9766,12.876 5.4475,12.876 3.3073,12.435 2.4245,10.221 2.1506,9.5341 2,8.7846 2,8 2,4.6863 4.6863,2 8,2 11.314,2 14,4.6863 14,8 Z"/>
 <path style="fill:#dbc464" d="M 8,8 A 8.8235,8.8235 0 0 0 2.3647,10.044 6,6 0 0 0 8,14 6,6 0 0 0 13.635,10.038 8.8235,8.8235 0 0 0 8,8 Z"/>
 <path style="fill:#d37b1d" d="M 6,11 V 13.646 A 6,6 0 0 0 8,14 6,6 0 0 0 10,13.645 V 11 Z"/>
 <path style="fill:#c95419" d="M 7,11 V 13.912 A 6,6 0 0 0 8,14 6,6 0 0 0 9,13.906 V 11 Z"/>
 <path style="fill:#dbc464" d="M 12,4.5 10.755,4.7546 10.5,6 10.245,4.7546 9,4.5 10.245,4.2454 10.5,3 10.755,4.2454 Z"/>
 <path style="fill:#f4f4f7" d="M 11.022,4.5 10.589,4.5886 10.5,5.0222 10.411,4.5886 9.9778,4.5 10.411,4.4114 10.5,3.9778 10.589,4.4114 Z"/>
 <path style="fill:#f4f4f7" d="M 12,5.5 11.585,5.5849 11.5,6 11.415,5.5849 11,5.5 11.415,5.4151 11.5,5 11.585,5.4151 Z"/>
 <path style="fill:#f4f4f7" d="M 11.43,6.9412 11.137,7.0011 11.077,7.2941 11.017,7.0011 10.724,6.9412 11.017,6.8813 11.077,6.5882 11.137,6.8813 Z"/>
 <path style="fill:#ac00ff" d="M 6.9604,11.56 C 6.9362,11.663 6.9469,11.943 6.9604,12.048 7.0192,12.502 7.3016,13.429 7.3016,13.429 7.3016,13.429 7.5472,12.521 7.5946,12.078 7.6067,11.965 7.636,11.674 7.5946,11.564 7.5616,11.477 7.3671,11.329 7.3671,11.329 H 7.131 C 7.131,11.329 6.9791,11.48 6.9604,11.56 Z"/>
 <path style="fill:#f4f4f7" d="M 7.1111,11.702 C 7.0983,11.757 7.1039,11.906 7.1111,11.961 7.1422,12.202 7.2919,12.693 7.2919,12.693 7.2919,12.693 7.4221,12.212 7.4472,11.977 7.4536,11.917 7.4692,11.763 7.4472,11.705 7.4297,11.658 7.3266,11.58 7.3266,11.58 H 7.2015 C 7.2015,11.58 7.121,11.66 7.1111,11.702 Z"/>
 <path style="fill:#ac00ff" d="M 8.3805,11.56 C 8.3563,11.663 8.367,11.943 8.3805,12.048 8.4392,12.502 8.7216,13.429 8.7216,13.429 8.7216,13.429 8.9673,12.521 9.0147,12.078 9.0268,11.965 9.0561,11.674 9.0147,11.564 8.9817,11.477 8.7872,11.329 8.7872,11.329 H 8.5511 C 8.5511,11.329 8.3992,11.48 8.3805,11.56 Z"/>
 <path style="fill:#f4f4f7" d="M 8.5312,11.702 C 8.5184,11.757 8.524,11.906 8.5312,11.961 8.5623,12.202 8.712,12.693 8.712,12.693 8.712,12.693 8.8422,12.212 8.8673,11.977 8.8737,11.917 8.8892,11.763 8.8673,11.705 8.8498,11.658 8.7467,11.58 8.7467,11.58 H 8.6216 C 8.6216,11.58 8.5411,11.66 8.5312,11.702 Z"/>
 <path style="fill:#787878" d="M 8.9146,11.839 C 9.4749,11.46 10.232,11.391 10.232,11.391 L 10.982,11.034 C 10.982,11.034 10.955,9.8231 10.805,9.2401 10.659,8.6719 10.385,8.1386 10.109,7.6174 9.6434,6.7386 8.4983,5.0976 8.4983,5.0976 L 8.2779,5 H 7.9913 7.7047 L 7.4842,5.0976 C 7.4842,5.0976 6.3392,6.7386 5.8737,7.6174 5.5976,8.1386 5.324,8.6719 5.1776,9.2401 5.0273,9.8231 5.0001,11.034 5.0001,11.034 L 5.7508,11.391 C 5.7508,11.391 6.5077,11.46 7.0679,11.839 7.7494,12.301 7.9913,13 7.9913,13 7.9913,13 8.2331,12.301 8.9146,11.839 Z"/>
 <path style="fill:#717171" d="M 7.702,5.0013 7.4841,5.0976 C 7.4841,5.0976 6.3391,6.7388 5.8736,7.6176 5.5975,8.1388 5.3238,8.6719 5.1773,9.24 5.0271,9.823 5,11.034 5,11.034 L 5.4879,11.266 5.8049,9.1396 6.3262,7.4975 Z"/>
 <path style="fill:#717171" d="M 8.298,5.0013 8.5159,5.0976 C 8.5159,5.0976 9.6609,6.7388 10.126,7.6176 10.402,8.1388 10.676,8.6719 10.823,9.24 10.973,9.823 11,11.034 11,11.034 L 10.512,11.266 10.195,9.1396 9.6738,7.4975 Z"/>
 <path style="fill:#4a49ac" d="M 7.867,5 C 7.867,5 7.85,5.8939 7.708,6.626 7.606,7.1515 7.3237,7.4854 6.9244,8.1029 6.6806,8.4797 6.5,8.6027 6.5,8.9905 V 10.14 C 6.5,10.493 7.0279,10.997 7.2468,11.355 7.4459,11.64 7.6159,11.981 7.751,12.263 7.8861,12.544 7.9997,13 7.9997,13 7.9997,13 8.1133,12.544 8.2484,12.263 8.3835,11.981 8.5535,11.64 8.7526,11.355 8.9715,10.997 9.5,10.493 9.5,10.14 V 8.9905 C 9.5,8.6027 9.3194,8.4797 9.0756,8.1029 8.6763,7.4854 8.394,7.1515 8.292,6.626 8.15,5.8939 8.133,5 8.133,5 H 7.9997 Z M 7.9985,7.9161 C 8.6327,8.1217 8.7879,8.5399 9.0425,8.9535 9.0425,9.1622 9.0621,9.371 9.0621,9.5797 9.0621,9.7884 9.0425,9.9966 9.0425,10.205 8.6241,10.648 8.2456,11.109 7.9985,11.645 7.7513,11.109 7.3729,10.648 6.9545,10.205 6.9545,9.9966 6.9348,9.7884 6.9348,9.5797 6.9348,9.371 6.9545,9.1622 6.9545,8.9535 7.2091,8.5399 7.3642,8.1217 7.9985,7.9161 Z"/>
 <path style="fill:#f4f4f7" d="M 7.551,3.119 7.3387,3.1342 7.3925,3.9269 7.489,3.92 7.4669,3.5926 7.6199,3.5816 7.8281,3.8959 7.9412,3.8876 7.7061,3.5478 C 7.7313,3.5371 7.7553,3.5223 7.7771,3.5037 7.7996,3.485 7.817,3.4612 7.8302,3.432 7.8434,3.4028 7.8489,3.3666 7.846,3.3245 7.841,3.249 7.8145,3.1948 7.7661,3.1611 7.7183,3.1266 7.6464,3.1122 7.551,3.119 Z M 7.5517,3.2066 C 7.6149,3.2021 7.6621,3.2093 7.6937,3.2293 7.7253,3.2486 7.7426,3.2844 7.7461,3.3362 7.7494,3.3858 7.7379,3.4247 7.711,3.4527 7.6839,3.4799 7.639,3.4958 7.5765,3.5002 L 7.4614,3.5085 7.4414,3.2142 Z M 6.8493,3.2162 6.4329,3.3279 6.6259,4.0972 7.043,3.9855 7.0216,3.9007 6.699,3.9869 6.6294,3.7119 6.9334,3.6305 6.9127,3.5471 6.6087,3.6284 6.548,3.3879 6.8707,3.3017 Z M 5.9711,3.4933 5.5795,3.6788 5.9001,4.4012 6.2916,4.2158 6.2564,4.1365 5.9531,4.2792 5.8387,4.0214 6.1241,3.8863 6.0889,3.8077 5.8036,3.9421 5.7029,3.7167 6.0062,3.5733 Z M 5.1018,3.9538 5.0287,4.0083 5.2845,4.3709 C 5.2985,4.3907 5.314,4.4119 5.3307,4.4343 5.3475,4.4556 5.3627,4.4755 5.3769,4.4943 5.3916,4.5126 5.4026,4.5265 5.4099,4.5356 L 5.4065,4.5384 4.6992,4.2557 4.6082,4.324 5.0618,4.9664 5.1342,4.912 4.8805,4.5535 C 4.8572,4.5205 4.834,4.489 4.8102,4.4591 4.7865,4.4292 4.7662,4.4041 4.7502,4.384 L 4.7537,4.3812 5.4637,4.6645 5.5554,4.5956 Z M 4.2263,4.8265 C 4.196,4.8264 4.1662,4.8314 4.1367,4.841 4.0774,4.8596 4.023,4.8988 3.9727,4.9589 3.92,5.0217 3.8887,5.0846 3.8789,5.1484 3.8696,5.2117 3.879,5.2741 3.9072,5.3346 3.9348,5.3946 3.9782,5.4505 4.0375,5.5034 4.0978,5.5573 4.1587,5.5943 4.2208,5.6144 4.2829,5.6345 4.3441,5.6358 4.4035,5.6172 4.4634,5.598 4.5195,5.5568 4.5717,5.4945 4.6221,5.4344 4.6513,5.373 4.6606,5.3097 4.6704,5.2459 4.6623,5.1835 4.6351,5.1229 4.6079,5.0613 4.5638,5.0038 4.5035,4.9499 4.4431,4.896 4.3812,4.8595 4.3187,4.841 4.2874,4.8312 4.2567,4.8266 4.2263,4.8265 Z M 4.2243,4.923 C 4.292,4.9285 4.3632,4.9643 4.4366,5.0299 4.51,5.0954 4.554,5.1627 4.5696,5.2325 4.5852,5.3013 4.5645,5.3701 4.5076,5.438 4.4506,5.5058 4.3881,5.5371 4.3194,5.5317 4.2501,5.5258 4.1784,5.4904 4.105,5.4249 4.0316,5.3593 3.9879,5.2918 3.9733,5.2229 3.9583,5.1535 3.9793,5.0845 4.0368,5.0161 4.0937,4.9482 4.156,4.9171 4.2243,4.923 Z M 3.5108,5.6186 3.3688,5.866 3.4171,5.895 3.4819,5.8261 4.012,6.15 3.9837,6.241 4.0319,6.2707 4.1733,6.0239 4.125,5.9943 4.0616,6.0639 3.5315,5.7399 3.5591,5.6482 Z M 3.2978,6.2996 C 3.2676,6.3 3.2392,6.3079 3.2123,6.3224 3.1585,6.3514 3.1124,6.4141 3.0751,6.5106 L 3,6.7057 3.7155,7 3.7514,6.9069 3.4729,6.7925 3.506,6.7077 C 3.5344,6.634 3.546,6.571 3.5411,6.5195 3.5365,6.4673 3.5207,6.4253 3.4936,6.3934 3.466,6.3605 3.4323,6.3365 3.3929,6.3203 3.3595,6.3066 3.3279,6.2992 3.2978,6.2996 Z M 3.295,6.4044 C 3.3152,6.4037 3.3368,6.408 3.3598,6.4175 3.4126,6.4392 3.4435,6.4719 3.4522,6.5154 3.461,6.5589 3.4518,6.616 3.4246,6.6864 L 3.3957,6.7608 3.1131,6.6443 3.1496,6.5506 C 3.1746,6.4858 3.2041,6.4426 3.2385,6.4216 3.2559,6.4108 3.2748,6.4051 3.295,6.4044 Z"/>
</svg>
