<svg xmlns="http://www.w3.org/2000/svg" width="16" height="16" version="1.1">
 <g transform="translate(0,-32)">
  <rect style="fill:#2968b4" width="16" height="16" x="0" y="32" rx="8" ry="8"/>
  <path style="fill:#f4f4f7" d="M 7.9999998,35 C 5.2385714,35 3,37.238571 3,39.999999 3,42.761429 5.2385714,45 7.9999998,45 10.761429,45 13,42.761429 13,39.999999 13,37.238571 10.761429,35 7.9999998,35 Z m -0.5008367,0.955637 c 0.058294,-0.0061 0.132313,0.0035 0.1911267,0 0.00699,0.02787 -0.042332,0.126849 -0.1088175,0.272041 -0.4233518,0.924854 -0.4473175,2.008965 -0.054406,2.587891 0.0711,0.104964 0.1353238,0.204648 0.1353238,0.217634 0,0.01297 -0.076526,0.02651 -0.1632256,0.02651 -0.20353,0 -0.3960925,-0.123647 -0.7896213,-0.435269 C 6.5347235,38.486014 6.3079166,38.370003 6.2198666,38.352403 6.0816004,38.32477 6.0443854,38.336745 5.8655145,38.515628 5.699091,38.682023 5.6478804,38.772061 5.6478804,38.92439 c 0,0.577654 0.6853831,1.035597 1.9601006,1.305803 1.731115,0.366901 2.157888,0.69686 2.205636,1.607145 0.05995,1.141469 -0.548108,2.002483 -1.8791854,2.668805 -0.1588731,0.07956 -0.2597938,0.109616 -0.3264506,0.135323 -0.029537,-0.0027 -0.051462,0.0027 -0.080915,0 -0.011332,-0.03529 -0.0279,-0.116908 -0.0279,-0.272043 0,-0.606269 -0.2384075,-1.230265 -0.5984932,-1.579241 C 6.8040143,42.696489 6.5325474,42.498378 6.3007848,42.354909 6.0690312,42.21145 5.8353132,42.04515 5.7832062,41.97405 c -0.08635,-0.11799 -0.092849,-0.190792 -0.026508,-0.408761 0.1209086,-0.398095 0.2643119,-0.620397 0.5440856,-0.871931 0.1466737,-0.131871 0.2939575,-0.241497 0.3264506,-0.24414 0.0325,-0.0027 -0.1862894,-0.06923 -0.5161831,-0.13672 C 5.7811802,40.244882 5.2974925,40.102853 5.0479982,40.012555 4.5917761,39.847477 3.977024,39.501647 3.742194,39.250837 c -0.00994,-0.01063 -0.019272,-0.01848 -0.0279,-0.0279 0.3364549,-1.340225 1.2803906,-2.438008 2.5320877,-2.967355 0.2619019,-0.110775 0.5325206,-0.187243 0.8175218,-0.245535 0.1419607,-0.02902 0.2886888,-0.03951 0.4352675,-0.05441 z m 4.0848209,2.04241 c 0.102339,0.06327 0.488188,0.899406 0.598493,1.3072 0.142414,0.52646 0.132106,1.437112 0,1.960099 -0.05028,0.199051 -0.113887,0.385583 -0.135324,0.408761 -0.02143,0.02318 -0.09969,-0.109997 -0.191126,-0.272043 -0.09145,-0.162018 -0.383646,-0.50698 -0.626396,-0.763113 -0.700688,-0.739368 -0.811083,-1.124484 -0.517578,-1.714565 0.148017,-0.297556 0.792726,-0.975224 0.871931,-0.926339 z"/>
 </g>
</svg>
