<svg xmlns="http://www.w3.org/2000/svg" width="16" height="16" version="1.1">
 <path style="fill:#ff3c3c" d="M 2.0107639e-4,5.3301792 C 0.49819063,4.2052829 1.6784189,4.8174723 2.1047231,4.128592 2.5082203,3.4765663 1.1674248,2.4627907 0.339608,2.5079515 0.63312038,2.2279549 2.5243628,2.570362 3.1121492,2.5876315 3.8255931,2.6085929 2.7148975,1.2011532 2.7148975,1.2011532 2.9758989,0.68736902 4.3416184,1.0172014 4.8830393,1.7330679 5.4986011,2.5469637 6.4290639,0.37185897 5.8712754,1.3084104e-8 7.0300068,0.05463852 7.1999286,1.7643666 7.7962182,1.8209692 8.7742999,1.9138133 8.9713554,1.4347552 9.1488618,0.83403888 9.838754,1.5163362 9.2911973,2.4052853 9.6445476,2.4552759 10.801158,3.1014375 11.649371,1.3387889 12.285839,1.9206058 c -0.946687,0.6431023 -1.80246,2.502763 -0.417967,2.5085808 0.675466,0.040869 0.522591,0.3773737 1.312837,1.0330991 C 11.382209,4.841868 11.6712,6.1164547 12.496437,5.9445355 14.21744,5.5860037 14.641296,7.0086407 14.451133,7.0466732 13.942177,6.792195 11.148435,6.6841419 11.401716,7.1226249 12.703221,9.375809 10.180348,10.322759 8.0671427,10.855004 l -4.3981602,0.03062 C 2.8644459,10.400914 0.11835591,8.985127 2.0107639e-4,6.9234807 -0.01614094,6.6383328 0.96850644,6.9875946 1.1754524,6.6635687 1.7374568,5.78361 1.10116,5.3180577 2.0107639e-4,5.3301792 Z"/>
 <circle style="fill:#f4f4f7" cx="7" cy="7" r="5"/>
 <circle style="fill:#4f4f4f" cx="10" cy="10" r="6"/>
</svg>
