<svg xmlns="http://www.w3.org/2000/svg" width="16" height="16" version="1">
 <rect fill="#c2352a" width="16" height="16" x="0" y="0" rx=".857" ry=".857"/>
 <path style="fill:#f4f4f7" d="m 5.8321849,4.9233893 c -0.0236,3.4e-4 -0.0501,0.002 -0.0807,0.004 -0.1157,0.007 -2.29911,0.39841 -2.43807,0.43701 -0.14691,0.0408 -0.27238,0.12698 -0.30299,0.20873 -0.0522,0.13893 0.0991,0.5904499 0.29878,0.8936299 0.34361,0.52145 0.8439,0.85459 1.89591,1.25994 0.57776,0.22262 0.69808,0.27877 0.77381,0.36376 0.0995,0.11164 0.0171,0.16553 -0.7461,0.48899 -1.19274,0.50557 -1.72875,0.93558 -1.95719,1.5717398 -0.0674,0.18798 -0.0988,0.68506 -0.0513,0.81014 0.0617,0.162151 0.099,0.160721 1.25136,-0.0486 1.15766,-0.21022 1.21189,-0.22253 1.30843,-0.31008 0.0786,-0.0713 0.0831,-0.0885 0.11747,-0.42596 0.0198,-0.1933498 0.0607,-0.4340998 0.0906,-0.5341298 0.0695,-0.23227 0.24434,-0.47485 0.43473,-0.60314 0.72208,-0.48648 2.08115,-0.24389 2.8166,0.50262 0.27712,0.28128 0.45114,0.5800498 0.59001,1.0163098 0.0801,0.2517 0.1615098,0.36099 0.2878901,0.38505 0.11625,0.0221 0.11911,0.0215 1.5921,-0.2462 0.81935,-0.14893 1.16035,-0.22135 1.20856,-0.25726 0.10356,-0.0772 0.10397,-0.2662 5e-4,-0.5784398 -0.17708,-0.53651 -0.48426,-0.92738 -1.05327,-1.34002 -0.28149,-0.20414 -0.63695,-0.39713 -1.23877,-0.67301 -0.57243,-0.26238 -0.6898803,-0.33338 -0.6898803,-0.41486 0,-0.0674 0.0696,-0.0974 0.5237103,-0.22745 0.99494,-0.28503 1.38312,-0.68488 1.38312,-1.4252199 0,-0.32489 -0.0641,-0.58707 -0.16366,-0.67214 -0.13247,-0.11314 -0.27382,-0.11673 -0.83005,-0.0204 -1.7829901,0.30863 -1.7315601,0.2966 -1.8144901,0.42509 -0.0439,0.0679 -0.0419,0.0839 0.0387,0.39273 0.0462,0.1770499 0.0834,0.3643399 0.0831,0.4157199 -5e-4,0.10928 -0.0777,0.29185 -0.15023,0.35694 -0.1775,0.15919 -0.57987,0.2675 -0.99202,0.2675 -0.49849,0 -0.87408,-0.16404 -1.24716,-0.54436 -0.26958,-0.27481 -0.4072,-0.5065399 -0.59085,-0.9958699 -0.16128,-0.42975 -0.1834,-0.48578 -0.34915,-0.48302 z"/>
</svg>
