<svg xmlns="http://www.w3.org/2000/svg" width="16" height="16" version="1.1">
 <path style="fill:#b2bfd9" d="m 8,15.2 c 3.976453,0 7.2,-3.223547 7.2,-7.2 C 15.2,4.0235468 11.976453,0.8 8,0.8 4.0235468,0.8 0.8,4.0235468 0.8,8 c 0,3.976453 3.2235468,7.2 7.2,7.2 z"/>
 <path style="fill:#0bbe5b" class="st0" d="M 14.973718,3.2800588 6.8893245,11.966566 c -0.039795,0.04276 -0.1092286,0.04477 -0.1516908,0.0045 L 3.0305548,8.446673 C 2.9965038,8.414298 2.9901848,8.363949 3.0152738,8.324859 L 4.0202587,6.7588577 C 4.0554267,6.7040597 4.135222,6.6950247 4.1829245,6.7404407 L 6.4056869,8.85657 c 0.031924,0.030388 0.084697,0.026957 0.1119774,-0.00728 L 12.740705,1.0391462 c 0.0348,-0.043684 0.100614,-0.052038 0.146474,-0.018849 0.820158,0.5935703 1.530375,1.3177847 2.095971,2.1400097 0.02566,0.03729 0.02162,0.086387 -0.0094,0.1197525 z"/>
 <path style="fill:#17191e" d="M 8 0 C 3.5820596 1.7763568e-15 0.00059884 3.5802469 0 7.9980469 C -0.00059852 12.413168 3.5848796 16.000047 8 16 C 12.418126 15.999953 16 12.418281 16 8 C 16 6.9961684 15.816044 6.0355666 15.478516 5.1503906 C 15.451384 5.0792396 15.357121 5.0621296 15.306641 5.1191406 L 13.791016 6.4375 A 6 6 0 0 1 14 8 A 6 6 0 0 1 8 14 A 6 6 0 0 1 2 8 A 6 6 0 0 1 8 2 A 6 6 0 0 1 10.162109 2.4101562 L 11.300781 0.83984375 C 11.338891 0.78956645 11.321675 0.7164564 11.265625 0.6875 C 10.167227 0.12006316 9.3213224 0 8 0 z"/>
</svg>
