<svg xmlns="http://www.w3.org/2000/svg" width="16" height="16" version="1">
 <rect style="fill:#4ca341" width="14" height="14" x="-15" y="-15" rx="7" ry="7" transform="matrix(0,-1,-1,0,0,0)"/>
 <path style="fill:#b2bfd9" d="M 8 0 A 8 8 0 0 0 4.0039062 1.0820312 A 8 8 0 0 1 8 8 A 8 8 0 0 1 3.9960938 14.917969 A 8 8 0 0 0 8 16 A 8 8 0 0 0 16 8 A 8 8 0 0 0 8 0 z"/>
</svg>
