<svg xmlns="http://www.w3.org/2000/svg" width="16" height="16" version="1">
 <path style="fill:#18a8df" d="M 6.3081379,15.783103 C 5.6507955,15.640119 4.7071024,15.333943 4.2110404,15.102713 L 3.3091106,14.682294 2.3328541,15.087126 C 1.2055857,15.55458 0,16.237608 0,16 0,15.91459 0.53417835,14.747907 0.91206218,13.99782 L 1.5991234,12.634027 1.3232259,12.168238 C 0.80835142,11.298991 0.58307119,10.236623 0.57900517,8.6586558 0.57277103,6.2412269 1.1432113,4.7987193 2.7269754,3.22691 4.6807027,1.2879298 7.1573647,0.62129717 10.24621,1.202989 14.059885,1.9211804 16.194252,4.7329421 15.957131,8.7264123 15.824679,10.957074 15.14187,12.593549 13.775854,13.954241 12.420491,15.30432 10.984809,15.898296 8.863737,15.9865 7.8549559,16.028449 7.1943739,15.975876 6.3081379,15.783103 Z"/>
 <path style="fill:#f4f4f7" d="m 11.237199,13.749768 c 0.861495,-0.331878 0.933867,-0.527409 0.5126,-1.384913 -0.194271,-0.395448 -0.530517,-0.930116 -0.747211,-1.188152 -0.380541,-0.551855 -0.441779,-0.443773 -0.995756,-0.149559 L 9.725225,11.176703 C 9.0262829,11.547908 8.7921125,11.615877 8.6036153,11.502255 8.469868,11.421636 8.1947357,10.838209 7.9763041,10.172022 7.626519,9.1052207 7.5011402,8.898568 6.7347246,8.1256118 6.2658478,7.6527328 5.8822207,7.161784 5.8822207,7.0346149 c 0,-0.2462856 0.5002456,-0.766124 1.1073547,-1.150726 C 7.4488333,5.5929506 7.4524009,5.3230259 7.0087113,4.4365206 6.601601,3.6231126 6.057121,3.0000001 5.7534682,3.0000001 c -0.3435559,0 -1.1982918,0.7851885 -1.5020786,1.3798604 C 3.6702588,5.517438 4.0411831,6.7242449 5.949071,9.9032825 8.2257206,13.696771 9.3160545,14.48986 11.237202,13.749768 Z"/>
</svg>
