<svg xmlns="http://www.w3.org/2000/svg" width="16" height="16" version="1">
 <rect style="fill:#4f4f4f" width="16" height="16" x="0" y="0" rx=".8" ry=".8"/>
 <path style="fill:#f4f4f7" d="m 1.5804376,2.3261719 0.011719,0.080078 c 0.2845536,1.8859169 0.4465407,3.2222928 0.6582031,4.1679688 0.2116624,0.9456759 0.4762996,1.5082565 0.9707032,1.8203124 0.4944036,0.3120561 1.1984076,0.3661673 2.28125,0.3320313 1.0828427,-0.03412 2.54809,-0.1584591 4.5703121,-0.2207031 h 0.06445 l -0.0078,-0.064453 C 9.938782,6.9920447 9.875378,5.988597 9.746453,5.265625 9.6175268,4.5426494 9.4157404,4.0908439 8.9534844,3.7851562 8.4912276,3.4794678 7.7831515,3.3182354 6.6331719,3.1308594 5.4831923,2.9434834 3.8892211,2.7329931 1.6585626,2.3417969 Z m 12.0625004,2.7382812 -0.119141,0.070312 c -0.95258,0.569588 -1.656564,0.6716312 -2.201172,0.9707032 -0.272302,0.149536 -0.503221,0.3509715 -0.691406,0.6796874 -0.188186,0.32872 -0.334414,0.7839166 -0.453125,1.4453126 l -0.01953,0.099609 0.0957,-0.035156 C 11.732944,7.7414815 12.389478,7.694502 12.787469,7.40625 12.986465,7.262122 13.110157,7.0563184 13.223016,6.71875 13.335875,6.381182 13.441147,5.9061908 13.609735,5.1992188 Z m -0.123047,2.4746094 -0.15625,0.052734 c -1.580124,0.527248 -2.228695,0.6782378 -2.560547,0.9199219 -0.165926,0.1208392 -0.244192,0.2686545 -0.304687,0.4765624 -0.06049,0.2079116 -0.107811,0.4800783 -0.216797,0.8789063 l -0.02539,0.09375 0.09375,-0.019531 C 11.306911,9.7302262 11.748207,9.6791556 12.121453,9.4160156 12.4947,9.152876 12.776998,8.6938395 13.430047,7.6796875 Z M 10.182,8.9880859 l -0.08008,0.00391 C 7.6986235,9.1172361 6.4471331,8.9885642 5.6136407,9.521289 5.1968943,9.787649 4.89478,10.218242 4.6195,10.911914 4.34422,11.605586 4.0920183,12.370886 3.7698907,13.710938 l -0.023437,0.09766 0.097656,-0.0293 C 5.2784652,13.357891 6.294486,13.175769 7.0374688,13.056641 7.7804512,12.937517 8.250808,12.884543 8.5999688,12.707031 8.9491296,12.52952 9.1615004,12.22608 9.3714532,11.646484 9.5814064,11.066888 9.797395,10.397562 10.162469,9.0662109 Z m 2.884766,0.103711 c -0.705784,0.74048 -1.308439,0.8752505 -1.775391,1.0390621 -0.233477,0.08191 -0.436979,0.172204 -0.589844,0.353516 -0.152865,0.181312 -0.248637,0.448373 -0.287109,0.869141 l -0.0059,0.07226 0.07031,-0.0078 c 0.858333,-0.111084 1.340224,-0.197494 1.705078,-0.503907 0.364854,-0.306411 0.596435,-0.817857 0.978516,-1.7597651 z M 4.4124688,10.330078 4.3089532,10.357418 C 3.2191292,10.630474 2.7164603,10.96571 2.4046563,11.519527 2.0928519,12.073343 1.9685434,12.830023 1.5941094,13.96484 L 1.557,14.074219 1.6683282,14.035156 c 0.4947421,-0.1636 0.8447292,-0.279998 1.1132812,-0.414062 0.268552,-0.134044 0.4561911,-0.28784 0.6074219,-0.513672 0.3024616,-0.451661 0.4709736,-1.178909 0.9882813,-2.675781 z m 8.4238282,0.810547 -0.105469,0.03906 c -0.874694,0.333043 -1.356579,0.482897 -1.61914,0.710937 -0.131281,0.11402 -0.202967,0.251886 -0.228516,0.427734 -0.02555,0.175847 -0.0092,0.18879 0.02539,0.47461 l 0.0078,0.06445 0.06445,-0.01563 c 0.298541,-0.07548 0.515264,-0.07397 0.689453,-0.06641 0.174189,0.0076 0.311755,0.02464 0.439454,-0.03516 0.127699,-0.05981 0.224983,-0.191998 0.328125,-0.449218 0.103142,-0.257224 0.215847,-0.443984 0.371093,-1.041016 z"/>
 <path style="fill:#f4f4f7" d="M 11.5,2 C 10.67418,2 10,2.6698559 10,3.5 10,4.3302359 10.67419,5 11.5,5 12.32581,5 13,4.3302359 13,3.5 13,2.6698554 12.32582,2 11.5,2 Z"/>
</svg>
