<svg xmlns="http://www.w3.org/2000/svg" width="16" height="16" version="1.1">
 <path style="fill:#b2bfd9" d="m 0.8,2.9999999 c -0.4432,0 -0.8,0.3627958 -0.8,0.7992545 V 11.289796 C 0,11.726254 0.3568,12 0.8,12 H 6 v 3.605689 c 4e-4,0.358794 0.4201004,0.530328 0.6666876,0.2662 L 10.4245,12 H 15.2 C 15.6432,12 16,11.726254 16,11.289796 V 3.7992544 C 16,3.3627957 15.6432,2.9999999 15.2,2.9999999 Z"/>
 <path style="fill:#ff8a46" d="M 15.367265,6.5544533e-4 C 15.168148,0.00950945 14.986245,0.11508779 14.881067,0.28284922 L 10.150878,8.2923468 c -0.4344731,0.6725275 0.164361,1.0159058 0.598834,0.3433787 l 5.149381,-7.7074163 c 0.271668,-0.40838721 -0.0387,-0.94975415 -0.531828,-0.92765375467 z"/>
</svg>
