<svg xmlns="http://www.w3.org/2000/svg" width="16" height="16" version="1.1">
 <circle style="fill:#8e8e8e" cx="8" cy="8" r="8"/>
 <circle style="fill:#17191e" cx="8" cy="8" r="6"/>
 <path style="fill:#e13535" d="M 8,2.4 A 5.6,5.6 0 0 0 2.4,8 5.6,5.6 0 0 0 8,13.6 5.6,5.6 0 0 0 9.9820312,13.230469 L 9.6796876,12.0625 A 4.4,4.4 0 0 1 8,12.4 4.4,4.4 0 0 1 3.6,8 4.4,4.4 0 0 1 8,3.6 4.4,4.4 0 0 1 9.6820312,3.9367188 L 9.9859376,2.7664064 A 5.6,5.6 0 0 0 8,2.4 Z"/>
 <path style="fill:#e13535" d="M 8,4 A 4,4 0 0 0 4,8 4,4 0 0 0 8,12 4,4 0 0 0 9.5796876,11.674219 L 9.2742188,10.492969 A 2.8,2.8 0 0 1 8,10.8 2.8,2.8 0 0 1 5.2,8 2.8,2.8 0 0 1 8,5.2 2.8,2.8 0 0 1 9.2742188,5.5101564 L 9.5796876,4.3304688 A 4,4 0 0 0 8,4 Z"/>
 <path style="fill:#ffa92e" d="m 8.9806906,6.2555815 a 2.0012008,2.0012008 0 0 0 -1.9604513,0.00183 L 7.2924729,7.292457 6.2555891,7.0193018 a 2.0012008,2.0012008 0 0 0 0.00183,1.9604513 L 7.2924646,8.7075195 7.0193094,9.7444035 a 2.0012008,2.0012008 0 0 0 1.9604513,-0.0018 L 8.707527,8.7075278 9.7444109,8.980683 a 2.0012008,2.0012008 0 0 0 -0.00183,-1.9604513 l -1.035041,0.2722337 z"/>
</svg>
