<svg xmlns="http://www.w3.org/2000/svg" width="16" height="16" version="1">
 <rect style="fill:#17191e" width="16" height="16" x="0" y="0" rx=".8" ry=".8"/>
 <path style="fill:#fda83c" d="M 5.825308,4.4927 C 7.2379372,3.8271384 8.949572,3.8664812 10.350918,4.5454044 11.320236,5.005938 12.135151,5.77483 12.655961,6.7132668 12.331717,6.8768736 12.006136,7.0367688 11.681298,7.198 11.1642,6.2649076 10.334438,5.5124948 9.3522048,5.095016 8.0580492,4.5296672 6.512842,4.5462952 5.248676,5.1876572 4.5416936,5.5283804 3.9552632,6.0695296 3.4706784,6.6801596 4.0118276,5.7356356 4.834018,4.9495216 5.825308,4.4927 Z"/>
 <path style="fill:#ed4b2a" d="M 8.0078125 6.0058594 C 6.7225649 5.9930914 5.5147682 6.7387203 4.828125 7.8046875 C 5.4966558 7.1156691 6.4236498 6.6383904 7.4003906 6.6777344 C 8.4303603 6.6858866 9.4053393 7.229692 10.017578 8.046875 C 10.340766 7.8853981 10.663129 7.7220529 10.986328 7.5605469 C 10.301992 6.617964 9.1836876 5.9920758 8.0078125 6.0058594 z"/>
 <path style="fill:#96cc1c" d="M 2,7.1534616 C 3.9989112,8.1558864 5.9994556,9.1546 8,10.154204 9.9996536,9.1547484 12.000198,8.1560352 14,7.1549464 A 100.18132,100.18132 0 0 0 13.99912,7.9998516 6106.1172,6106.1172 0 0 0 7.99912,11 9409.3168,9409.3168 0 0 0 2.0007531,7.9998516 c 0,-0.282526 0,-0.564458 -7.44e-4,-0.84639 z"/>
 <path style="fill:#c42198" d="M 7.8476562 7.9863281 C 7.1957535 8.0255225 6.6595016 8.4658254 6.2910156 8.9746094 C 6.6225344 8.7629006 7.0016872 8.5840934 7.40625 8.6308594 C 7.7083419 8.6483709 7.9816864 8.7689014 8.2207031 8.9433594 C 8.5498232 8.7788739 8.8798266 8.6156372 9.2089844 8.4511719 C 8.8267243 8.1349455 8.3523769 7.9339191 7.8476562 7.9863281 z"/>
</svg>
