<svg xmlns="http://www.w3.org/2000/svg" width="16" height="16" version="1.1">
 <circle style="fill:#e74c3c" cx="8" cy="8" r="8"/>
 <path style="fill:#f4f4f7" d="M 3,5.1132492 3.9247719,8.564545 5.0752042,8.2562877 4.1504319,4.8049915 Z M 5.2177277,4.5190104 6.1424996,7.9703069 7.2929319,7.6620496 6.3681596,4.2107531 Z M 7.435455,3.9247723 8.3602273,7.3760684 11.811523,6.4512965 10.886751,3.0000004 Z M 4.2107527,9.6318404 5.1132485,13 6.2636804,12.691743 5.361185,9.3235831 Z M 6.4284804,9.0376019 6.7367377,10.188035 12.405762,8.6690234 12.097504,7.5185919 Z M 7.0227188,11.25533 7.3309765,12.405763 13,10.886751 12.691742,9.7363192 Z"/>
</svg>
