<svg xmlns="http://www.w3.org/2000/svg" xmlns:xlink="http://www.w3.org/1999/xlink" width="16" height="16" version="1.1">
 <g transform="translate(0,-1036.3622)">
  <g style="fill:none" transform="matrix(-1.9832395,0,0,1.9484438,52.491622,1032.9675)">
   <use width="100%" height="100%" x="0" y="0" xlink:href="#path-2"/>
   <use style="fill:#f4f4f7" width="100%" height="100%" x="0" y="0" xlink:href="#path-2"/>
  </g>
  <path style="fill:#048eea;fill-rule:evenodd" d="m 7.9863284,1036.3662 c -0.022447,0.05 -0.04902,0.1031 -0.075955,0.153 -0.019203,0.04 -0.045492,0.086 -0.065321,0.1268 -0.1373735,0.2478 -0.5548301,0.9735 -1.3899736,1.5376 -0.9955232,0.6255 -2.3949421,1.1973 -3.512912,1.181 0,0 -1.8356991,5.1399 -1.9087456,5.3154 -0.010989,0.01 -0.02247,0.018 -0.03342,0.025 l 0.025065,0 c -7.478e-4,0 -0.024949,0.074 -0.025065,0.074 l 0.00456,0.018 0.00456,0 c 0.039458,-0.028 0.080808,-0.062 0.120768,-0.092 l 13.8070738,0 c 0.02069,0.015 0.04249,0.031 0.06304,0.046 l 0,-0.011 -0.01291,-0.037 0.01291,0 c -0.0054,0 -0.01124,-0.011 -0.01671,-0.013 l -1.920897,-5.3292 c -1.061771,0.022 -2.279977,-0.4658 -3.0685776,-0.9191 -0.9111182,-0.535 -1.5111205,-1.2649 -1.7545568,-1.6888 -0.00569,-0.012 -0.013362,-0.026 -0.018989,-0.039 -0.04939,-0.1083 -0.098721,-0.216 -0.1481117,-0.3197 -0.03143,-0.01 -0.058889,-0.023 -0.085829,-0.032 z"/>
  <path style="fill-rule:evenodd;opacity:0.3" d="m 7.9863284,1036.3662 c -0.022447,0.05 -0.04902,0.1031 -0.075955,0.153 -0.019203,0.04 -0.045492,0.086 -0.065321,0.1268 -0.1373735,0.2478 -0.5548301,0.9735 -1.3899736,1.5376 -0.9955232,0.6255 -2.3949421,1.1973 -3.512912,1.181 0,0 -1.8356991,5.1399 -1.9087456,5.3154 -0.010989,0.01 -0.02247,0.018 -0.03342,0.025 l 0.025065,0 c -7.478e-4,0 -0.024949,0.074 -0.025065,0.074 l 0.00456,0.018 0.00456,0 c 0.039458,-0.028 0.080808,-0.062 0.120768,-0.092 l 13.8070738,0 c 0.02069,0.015 0.04249,0.031 0.06304,0.046 l 0,-0.011 -0.01291,-0.037 0.01291,0 c -0.0054,0 -0.01124,-0.011 -0.01671,-0.013 l -1.920897,-5.3292 c -1.061771,0.022 -2.279977,-0.4658 -3.0685776,-0.9191 -0.9111182,-0.535 -1.5111205,-1.2649 -1.7545568,-1.6888 -0.00569,-0.012 -0.013362,-0.026 -0.018989,-0.039 -0.04939,-0.1083 -0.098721,-0.216 -0.1481117,-0.3197 -0.03143,-0.01 -0.058889,-0.023 -0.085829,-0.032 z"/>
  <path style="fill:#048eea;fill-rule:evenodd" d="m 15,1044.7052 0,0 c -1.104554,-0.7533 -2.406671,-1.84 -3.753688,-3.3734 -1.468249,-1.6687 -2.415651,-3.3195 -3.0262991,-4.6139 -0.04939,-0.1082 -0.098781,-0.2165 -0.1481721,-0.3202 -0.03143,-0.01 -0.058371,-0.023 -0.085311,-0.031 -0.022447,0.05 -0.049392,0.1042 -0.076328,0.1534 -0.6375876,1.3214 -1.6164209,2.9947 -3.1026296,4.7041 -1.3515074,1.556 -2.6805674,2.6878 -3.8075719,3.4817"/>
  <path style="fill:#0364a4;fill-rule:evenodd" d="m 1.3038332,1044.3625 a 0.30400883,0.38541936 0 0 0 -0.2947174,0.4775 l 0.177742,0.9208 0.060007,0.3076 a 0.30400883,0.38541936 0 0 0 0.2947174,0.294 l 0.2544598,0 a 0.30400883,0.38541936 0 0 0 7.583e-4,0 l 3.846519,-0.012 a 0.30400883,0.38541936 0 0 0 0.013675,0 l 0.4587872,10e-4 a 0.30400883,0.38541936 0 0 0 0.042537,0 l 0.2711707,0 1.5708137,0 1.5708135,0 0.2711708,0 a 0.30400883,0.38541936 0 0 0 0.042536,0 l 0.4587868,-10e-4 a 0.30400883,0.38541936 0 0 0 0.01367,0 l 3.846518,0.012 a 0.30400883,0.38541936 0 0 1 7.77e-4,0 l 0.25446,0 a 0.30400883,0.38541936 0 0 0 0.294717,-0.294 l 0.06001,-0.3076 0.177742,-0.9208 a 0.30400883,0.38541936 0 0 0 -0.294736,-0.4775 l -4.666866,0 -4.0592018,0 -4.6668667,0 z"/>
  <polygon style="fill:#315165;fill-rule:evenodd" transform="matrix(0.87656106,0,0,0.74024522,0.91881674,1046.3624)" points="11.5 6.75 4.66 6.75 8.08 0"/>
  <path style="fill:#048eea;fill-rule:evenodd" d="m 5.462,1052.3622 2.5380002,-5.9998 2.5379998,5.9998 1.581284,0 c 1.505717,0 1.505717,-4.8748 1.880716,-5.9998 l -12,0 c 0.375,1.125 0.3580173,5.9978 1.8732851,5.9998 z"/>
  <path style="fill:#f4f4f7;fill-rule:evenodd" d="m 5.4619987,1052.3622 -1.4488485,-2.5077 c -0.023091,-0.04 -0.015013,-0.095 0.018274,-0.1233 0,0 1.3544363,-1.1498 2.0316537,-1.7247 0.087007,-0.074 1.9369224,-1.6441 1.9369224,-1.6441 l -2.537999,5.9998 z"/>
  <path style="fill:#f4f4f7;fill-rule:evenodd" d="m 10.538002,1052.3622 1.448848,-2.5077 c 0.02309,-0.04 0.01501,-0.095 -0.01827,-0.1233 0,0 -1.354436,-1.1498 -2.0316536,-1.7247 C 9.8499154,1047.9325 8,1046.3624 8,1046.3624 l 2.537999,5.9998 z"/>
 </g>
</svg>
