<svg xmlns="http://www.w3.org/2000/svg" width="16" height="16" version="1.1">
 <path style="fill:#42a5f5" d="m 15.001465,7.5007325 c 0,2.4460327 -1.170838,4.6186015 -2.982643,5.9878375 -1.256623,0.949668 -2.4499757,-0.916839 -4.1464831,-0.916839 -3.8967602,0 -7.46121601,-0.663571 -7.83654284,-4.3532069 C 0.01212315,7.9858082 -2e-8,7.7465124 -2e-8,7.5007325 -2e-8,3.3581924 3.3581923,8e-8 7.5007324,8e-8 11.643272,8e-8 15.001465,3.3581924 15.001465,7.5007325 Z"/>
 <path style="fill:#b2bfd9;fill-rule:evenodd" d="M 4.6352182,5.2695575 C 3.4069118,5.1653333 1.1167665,6.8543677 0.0739818,8.4852036 A 7.5007324,7.5007324 0 0 0 7.4655727,15 c 0.1884296,-10e-4 0.377336,-0.006 0.5654847,-0.01758 a 7.5007324,7.5007324 0 0 0 0.0044,-7.5e-4 7.5007324,7.5007324 0 0 0 4.0624086,-1.558746 C 11.933675,12.35019 11.376782,11.163396 10.177996,9.784647 8.668026,8.0204762 6.347737,5.5552476 4.6352182,5.2695575 Z"/>
 <path style="fill:#424242;fill-rule:evenodd" d="M 7.1067958,2.0590037 C 6.8646331,2.0616665 6.6117857,2.0799833 6.3458952,2.1189964 4.4232265,2.4010907 3.1914334,3.5476245 1.6132443,5.4522772 0.97203118,6.2261311 0.40535013,7.1588525 9.2510985e-8,7.8748461 0.01407709,8.1392004 0.0419227,8.4026175 0.08342088,8.6639993 1.1909353,7.1313488 4.0738147,4.9029082 4.768,5.9019514 5.5627945,7.0457872 3.7736601,8.4104821 4.081,8.8426135 4.4103178,9.3056468 5.5527243,8.7582711 6.8912975,8.6621388 8.3857067,8.5548157 9.1796611,9.0172227 10.177894,9.7845094 9.9264925,9.3101368 9.7616148,8.9636532 9.6659771,8.6234807 9.4671844,7.9163856 9.9977712,7.108904 10.196205,6.7219348 10.511477,6.107126 10.776987,5.2505788 11.245678,4.788204 12.06598,3.9789545 13.498057,3.5601215 14.763355,3.1402548 15.159335,3.0088559 15.510342,3.0366832 15.923335,2.9462075 15.540046,2.7322664 15.061632,2.6530185 14.670863,2.6472302 12.587773,2.6163759 11.318287,2.932033 10.477627,2.8404637 9.4114048,2.724325 8.4144739,2.0445907 7.1067958,2.0590037 Z"/>
 <ellipse style="opacity:0.4;fill:#f4f4f7" cx="8.236" cy="2.919" rx=".5" ry=".5" transform="matrix(0.98003409,0.19882952,-0.19571033,0.98066175,0,0)"/>
 <path style="fill:#424242;fill-rule:evenodd" d="M 1.8320312 9.9667969 C 1.5611822 9.9619873 1.0302691 10.179182 0.58984375 10.373047 A 7.5007324 7.5007324 0 0 0 1.2246094 11.578125 C 1.5657514 10.803586 2.1132069 10.24864 1.9765625 10.023438 C 1.9536565 9.9856875 1.9031294 9.9680569 1.8320312 9.9667969 z"/>
 <path style="fill:#ffc107;fill-rule:evenodd" d="M 9.3906349,4.5866068 C 9.8322417,4.3575892 10.045638,4.167167 11.077047,3.9094827 c 1.001234,-0.2501449 2.246757,-0.854785 3.248801,-1.0894649 -1.71438,0.2065769 -3.782851,0.6390399 -4.9352131,1.766589 z"/>
</svg>
