<svg xmlns="http://www.w3.org/2000/svg" width="16" height="16" version="1">
 <rect style="fill:#b2bfd9" width="16" height="16" x="0" y="0" rx=".8" ry=".8"/>
 <path style="opacity:0.3" d="M 0.77734375,9 C 0.34645486,9 0,9.3464549 0,9.7773437 V 15.222656 C 0,15.653545 0.34645486,16 0.77734375,16 H 6.2226562 C 6.6535452,16 7,15.653545 7,15.222656 V 9.7773437 C 7,9.3464549 6.6535451,9 6.2226562,9 Z M 2,10 h 3 c 0.554,0 1,0.446 1,1 v 3 c 0,0.554 -0.446,1 -1,1 H 2 C 1.446,15 1,14.554 1,14 v -3 c 0,-0.554 0.446,-1 1,-1 z"/>
 <path style="opacity:0.3" d="M 0.77734375 0 C 0.34645486 0 -7.4014868e-17 0.34645486 0 0.77734375 L 0 6.2226562 C 0 6.6535452 0.34645486 7 0.77734375 7 L 6.2226562 7 C 6.6535452 7 7 6.6535451 7 6.2226562 L 7 0.77734375 C 7 0.34645486 6.6535451 -7.4014868e-17 6.2226562 0 L 0.77734375 0 z M 2 1 L 5 1 C 5.554 1 6 1.446 6 2 L 6 5 C 6 5.554 5.554 6 5 6 L 2 6 C 1.446 6 1 5.554 1 5 L 1 2 C 1 1.446 1.446 1 2 1 z"/>
 <path style="opacity:0.3" d="M 9.7773437,0 C 9.3464549,0 9,0.34645486 9,0.77734375 V 6.2226562 C 9,6.6535452 9.3464549,7 9.7773437,7 H 15.222656 C 15.653545,7 16,6.6535451 16,6.2226562 V 0.77734375 C 16,0.34645486 15.653545,0 15.222656,0 Z M 11,1 h 3 c 0.554,0 1,0.446 1,1 v 3 c 0,0.554 -0.446,1 -1,1 H 11 C 10.446,6 10,5.554 10,5 V 2 c 0,-0.554 0.446,-1 1,-1 z"/>
 <path style="fill:none;stroke:#c5251a;stroke-width:3.20000005;stroke-linecap:round" d="M 3.6,12.4 12.4,3.6"/>
 <path style="opacity:0.3" d="M 9.7773437,9 C 9.3464549,9 9,9.3464549 9,9.7773437 V 15.222656 C 9,15.653545 9.3464549,16 9.7773437,16 H 15.222656 C 15.653545,16 16,15.653545 16,15.222656 V 9.7773437 C 16,9.3464549 15.653545,9 15.222656,9 Z M 11,10 h 3 c 0.554,0 1,0.446 1,1 v 3 c 0,0.554 -0.446,1 -1,1 h -3 c -0.554,0 -1,-0.446 -1,-1 v -3 c 0,-0.554 0.446,-1 1,-1 z"/>
 <path style="fill:none;stroke:#f44336;stroke-width:3.20000005;stroke-linecap:round" d="M 12.4,12.4 3.6,3.6"/>
</svg>
