<svg xmlns="http://www.w3.org/2000/svg" width="16" height="16" version="1">
 <rect style="fill:#b2bfd9" width="15" height="15" x="1" y="1" rx=".75" ry=".75"/>
 <path style="opacity:0.1" d="M 8 1 L 8 8 L 1 8 L 1 9 L 8 9 L 8 16 L 15.25 16 C 15.6655 16 16 15.6655 16 15.25 L 16 8 L 9 8 L 9 1 L 8 1 z"/>
 <path style="fill:#21a286" d="M 3,2 V 7 H 4 V 5.1043939 L 7,3.7521723 Z"/>
 <path style="fill:#2a74d0" d="M 2.9999937,15 H 5.9999746 V 14 H 4.9999778 V 10 H 4.5679521 l -1.567968,1.004808 0.341499,1.001153 0.6600644,-0.4675 L 3.9984075,14 h -0.998437 z" font-weight="800" letter-spacing="0" word-spacing="0"/>
 <path style="fill:#cc1319" d="m 12.922144,10.002585 c -0.103336,0.01426 -0.192554,0.08869 -0.221336,0.19611 l -0.337699,1.261286 -0.653427,-1.13109 c -0.07414,-0.128404 -0.236961,-0.171782 -0.365367,-0.09765 l -0.231913,0.133452 c -0.128406,0.07414 -0.171784,0.237774 -0.09765,0.36618 l 0.652614,1.131089 -1.261286,-0.338513 c -0.143217,-0.03837 -0.289559,0.04556 -0.327934,0.188787 l -0.06917,0.258766 c -0.038376,0.143217 0.04638,0.289559 0.1896,0.327935 l 1.261286,0.337699 -1.131089,0.653428 c -0.128405,0.07414 -0.171783,0.23696 -0.09765,0.365366 l 0.133452,0.231913 c 0.07414,0.128406 0.237775,0.171784 0.36618,0.09765 l 1.130276,-0.652614 -0.3377,1.261286 c -0.03837,0.143217 0.04556,0.288746 0.188787,0.32712 l 0.258767,0.06998 c 0.143217,0.03838 0.289558,-0.04639 0.327934,-0.1896 l 0.337699,-1.261287 0.653428,1.13109 c 0.07414,0.128405 0.23696,0.171782 0.365366,0.09765 l 0.231913,-0.133452 c 0.128406,-0.07414 0.171784,-0.237774 0.09765,-0.36618 l -0.652614,-1.131088 1.261287,0.338512 c 0.143216,0.03838 0.288745,-0.04556 0.32712,-0.188786 l 0.06998,-0.258767 c 0.03837,-0.143217 -0.04638,-0.289559 -0.189601,-0.327934 l -1.261286,-0.3377 1.131089,-0.653426 c 0.128405,-0.07414 0.171782,-0.236961 0.09765,-0.365367 l -0.133453,-0.231914 c -0.07414,-0.128406 -0.237774,-0.171783 -0.36618,-0.09765 l -1.130275,0.652613 0.337699,-1.261286 c 0.03837,-0.143217 -0.04556,-0.289559 -0.188786,-0.327933 l -0.258767,-0.06917 c -0.03581,-0.0096 -0.07215,-0.011267 -0.106602,-0.0066 z"/>
 <circle style="fill:#ed333b" cx="4.575" cy="17.075" r="2" transform="rotate(-30.000001)"/>
 <path style="fill:#cc1319" d="M 11.983263,12.0833 A 0.41663134,0.41663134 0 0 1 11.566632,12.499932 0.41663134,0.41663134 0 0 1 11.15,12.0833 0.41663134,0.41663134 0 0 1 11.566632,11.666669 0.41663134,0.41663134 0 0 1 11.983263,12.0833 Z"/>
 <path style="fill:#cc1319" d="m 13.333079,11.450369 a 0.41663134,0.41663134 0 0 1 -0.416631,0.416631 0.41663134,0.41663134 0 0 1 -0.416632,-0.416631 0.41663134,0.41663134 0 0 1 0.416632,-0.416632 0.41663134,0.41663134 0 0 1 0.416631,0.416632 z"/>
 <path style="fill:#cc1319" d="m 13.849262,12.916563 a 0.41663134,0.41663134 0 0 1 -0.416631,0.416631 0.41663134,0.41663134 0 0 1 -0.416631,-0.416631 0.41663134,0.41663134 0 0 1 0.416631,-0.416631 0.41663134,0.41663134 0 0 1 0.416631,0.416631 z"/>
 <path style="fill:#cc1319" d="m 12.499816,13.549369 a 0.41663134,0.41663134 0 0 1 -0.416631,0.416631 0.41663134,0.41663134 0 0 1 -0.416631,-0.416631 0.41663134,0.41663134 0 0 1 0.416631,-0.416632 0.41663134,0.41663134 0 0 1 0.416631,0.416632 z"/>
</svg>
