<svg xmlns="http://www.w3.org/2000/svg" width="16" height="16" version="1">
 <path style="fill:#4caf50" d="M 7.9999999,1.5491465e-6 C 7.278787,0.010678 6.7644428,0.46063125 6.5230617,1.2054762 L 6.5319917,1.1718822 5.3988044,4.999987 H 1.5773646 c -0.00833,-1.384e-4 -0.016222,-1.384e-4 -0.024553,0 -0.4563468,0.015321 -0.86783037,0.2360025 -1.15774157,0.6015655 -0.62699168,0.7454257 -0.49410117,1.918301 0.30208407,2.474231 l 3.0044719,2.2742295 -1.1659256,3.55162 c -0.0013,0.0042 -0.0025,0.0083 -0.00372,0.01249 -0.1781548,0.606147 -0.010624,1.230629 0.4375013,1.657821 0.00324,0.0031 0.0071,0.0063 0.010415,0.0093 0.5385061,0.49582 1.2951393,0.558837 1.9032783,0.148438 0.01157,-0.0078 0.023074,-0.01584 0.034225,-0.02422 l 3.0825999,-2.305394 3.0825971,2.30548 c 0.01115,0.0084 0.02266,0.01646 0.03423,0.02422 0.608139,0.410399 1.364772,0.347382 1.903278,-0.148439 0.0033,-0.003 0.0072,-0.0062 0.01042,-0.0093 0.448126,-0.427191 0.615657,-1.051673 0.437502,-1.65782 -0.0012,-0.0042 -0.0024,-0.0084 -0.0037,-0.01249 l -1.165953,-3.551706 3.004472,-2.2742295 c 0.796185,-0.55593 0.929076,-1.7288053 0.302084,-2.474231 -0.289911,-0.365563 -0.701395,-0.5862453 -1.157741,-0.6015655 -0.0083,-1.383e-4 -0.01622,-1.383e-4 -0.02455,0 h -3.821438 l -1.1331872,-3.8281047 0.00893,0.033594 C 9.2355569,0.46063125 8.7212127,0.010678 7.9999999,1.5491465e-6 Z"/>
 <g style="font-size:19.90416336px;line-height:1.25;letter-spacing:0px;word-spacing:0px;fill:#f4f4f7" transform="matrix(0.43687607,0,0,0.42042465,-2.2857141,-2.2857141)">
  <path style="fill:#f4f4f7" d="m 27.623437,33.97925 -1.263019,-4.724135 h -5.632579 l -1.263716,4.724135 h -3.244378 l 5.472948,-16.649833 h 3.68227 l 5.492852,16.649833 z m -1.979569,-7.135643 -2.100088,-7.304828 -2.059583,7.304828 z"/>
 </g>
</svg>
