<svg xmlns="http://www.w3.org/2000/svg" width="16" height="16" version="1">
 <rect style="fill:#00b4ed" width="11" height="9" x="5" y="0" rx="1.179" ry="1.227"/>
 <circle style="fill:#4f4f4f" cx="5.5" cy="8.5" r="5.5"/>
 <circle style="fill:#17191e" cx="5.5" cy="8.5" r="4.5"/>
 <circle style="opacity:0.2" cx="5.5" cy="8.5" r="1.5"/>
 <rect style="fill:#17191e" width="2" height="2" x="9" y="13.6" rx=".286" ry=".4"/>
 <rect style="fill:#1d64bc" width="8" height="6" x="6" y="9" rx=".857" ry=".818"/>
 <rect style="fill:#4f4f4f" width="4" height=".7" x="8" y="15.3" rx=".3" ry=".3"/>
</svg>
