<svg xmlns="http://www.w3.org/2000/svg" width="16" height="16" version="1.1">
 <path style="fill:#65b457" d="m15 10.5h-15c0-4.1421358 3.3578642-7.5000001 7.4999999-7.5000001 4.142136 0 7.5 3.3578643 7.5 7.5000001z"/>
 <path style="fill:#f4f4f7" d="m7.8611102 4.001585v0.727865a5.777777 5.777777 0 0 1 2.3429898 0.657335l0.612902-0.478896a6.4999991 6.4999991 0 0 0-2.9558918-0.906304zm-0.7222222 0.0056a6.4999991 6.4999991 0 0 0-2.9558915 0.900662l0.6129015 0.479601a5.777777 5.777777 0 0 1 2.34299-0.66298zm4.309353 1.323839-0.590332 0.461968a5.777777 5.777777 0 0 1 1.637695 1.807008h0.818142a6.4999991 6.4999991 0 0 0-1.865505-2.268934zm-7.8936623 0.0021a6.4999991 6.4999991 0 0 0-1.8739687 2.266876h0.8216683a5.777777 5.777777 0 0 1 1.6419269-1.805555zm-2.1758357 2.989024a6.4999991 6.4999991 0 0 0-0.378743 2.166741 6.4999991 6.4999991 0 0 0 0.018337 0.361111h0.717285a5.777777 5.777777 0 0 1-0.0134-0.361111 5.777777 5.777777 0 0 1 0.4259981-2.166666zm11.47374 0a5.777777 5.777777 0 0 1 0.425293 2.166741 5.777777 5.777777 0 0 1-0.01834 0.361111h0.727864a6.4999991 6.4999991 0 0 0 0.0127-0.361111 6.4999991 6.4999991 0 0 0-0.380154-2.166666z"/>
 <path style="fill:#17191e" d="m13 10v1h-6v-1z"/>
 <path style="fill:#17191e" d="m12.425903 9.000159a0.41382186 0.3721504 0 0 1 0.194768 0.049421l1.086173 0.5639842 1.086174 0.5639834a0.41382186 0.3721504 0 0 1 0 0.644657l-1.086174 0.563985-1.086173 0.563984a0.41382186 0.3721504 0 0 1-0.620671-0.3223276v-2.255937a0.41382186 0.3721504 0 0 1 0.425903-0.37175z"/>
 <path style="fill:#17191e" d="m2 10v1h6v-1z"/>
 <path style="fill:#17191e" d="m2.5740972 9.000159a0.41382186 0.3721504 0 0 0-0.1947678 0.0494214l-1.0861738 0.5639842-1.0861737 0.5639834a0.41382186 0.3721504 0 0 0 0 0.644657l1.0861737 0.563985 1.0861738 0.563984a0.41382186 0.3721504 0 0 0 0.6206706-0.322328v-2.255937a0.41382186 0.3721504 0 0 0-0.4259028-0.37175z"/>
 <circle style="fill:#4f4f4f" cx="7.5" cy="10.5" r="2.5"/>
 <circle style="fill:#f4f4f7" cx="7.5" cy="10.5" r="1.5"/>
</svg>
