<svg xmlns="http://www.w3.org/2000/svg" width="16" height="16" version="1.1">
 <path style="fill:#ffc107" d="M 1.0112896,1.8462083 V 13.965171 c 0,0 -0.11125566,0.654517 0.3647464,0.79218 L 6,16 l 4.333333,-1.365875 4.004323,1.175563 c 0.708207,0.247732 0.658041,-0.494393 0.658041,-0.494393 V 3.0998941 c 0.06547,-0.6348332 -0.63778,-0.7657056 -0.63778,-0.7657056 L 10.333333,1.170504 6,2.5363784 1.6201542,1.3465927 c 0,0 -0.6088646,-0.1695589 -0.6088646,0.4996156 z"/>
 <path style="fill:#0c7bd4" d="M 9.8203125 1.3320312 L 8.0351562 1.8945312 C 7.5902045 2.3725881 7.3339844 2.8612771 7.3339844 3.6972656 C 7.3339844 4.7926269 7.772649 5.0239974 7.9160156 5.5507812 C 8.1882821 6.5512669 8.2936406 7.2575464 8.6191406 8.0800781 C 9.0670573 9.2123441 8.6888651 10.999307 9.1660156 12.125 C 9.4382156 12.767219 9.5839848 12.881717 10.333984 13.21875 C 10.500651 13.387267 10.750651 13.724062 10.833984 13.892578 C 11.018069 14.264822 10.968172 14.579912 11.101562 14.859375 L 14.337891 15.808594 C 14.426417 15.83956 14.501961 15.855946 14.568359 15.859375 C 14.701156 15.866234 14.794172 15.824437 14.857422 15.761719 C 15.015547 15.604922 14.996094 15.316406 14.996094 15.316406 L 14.996094 15.314453 L 14.996094 15.126953 C 14.651389 11.954614 12.494277 11.463994 11.595703 10.705078 C 10.583803 9.8504605 11.231151 9.0308999 10.833984 7.8261719 C 10.739568 7.5397773 10.500651 6.5630481 10.333984 6.3945312 C 9.5839848 5.88898 9.1660156 5.3836006 8.9160156 4.5410156 C 8.4106984 2.8378731 9.9350641 1.9267821 9.8203125 1.3320312 z M 4.2226562 13.712891 C 4.1501842 13.707291 4.0762709 13.710469 4 13.724609 C 3.3042833 13.853642 3.3326824 14.650939 2.6660156 14.482422 C 2.3272761 14.396829 1.8654666 14.522399 1.5683594 14.808594 L 5.984375 15.996094 L 6.1054688 15.966797 L 8.1621094 15.318359 C 7.5923153 14.515251 6.3365363 13.305597 5.9667969 13.978516 C 5.4563803 14.199695 4.7299626 13.752045 4.2226562 13.712891 z"/>
 <path style="fill:#4caf50" d="M 1.4824219 1.3339844 C 1.4387048 1.3321777 1.3915803 1.3327482 1.3398438 1.34375 C 1.3299298 1.3458756 1.3204897 1.3467925 1.3105469 1.3496094 C 1.2445342 1.3685235 1.1797477 1.4093683 1.1269531 1.4707031 C 1.1067764 1.4943631 1.089905 1.5226873 1.0742188 1.5546875 C 1.0652944 1.5728565 1.0539945 1.5882168 1.046875 1.609375 C 1.0251934 1.6740487 1.0117188 1.7491825 1.0117188 1.8457031 L 1.0117188 5.6425781 C 1.1716426 5.5680443 1.3876779 5.46875 1.5 5.46875 C 1.8617834 5.46875 2.084125 5.5520502 2.453125 5.5039062 C 2.6808583 5.4741302 2.8350083 5.2566798 3.046875 5.203125 C 3.2470415 5.1525701 3.5110749 5.1674105 3.703125 5.0703125 C 3.9652917 4.9378581 4.3327731 4.5421169 4.5351562 3.6875 C 4.5937063 3.4402182 4.4648438 3.1687913 4.4648438 2.9160156 C 4.4648438 2.7569626 4.5162703 2.3955727 4.6074219 2.1582031 L 1.6269531 1.3476562 L 1.6210938 1.3457031 C 1.6210938 1.3457031 1.6191705 1.3457114 1.6191406 1.3457031 C 1.6191406 1.3457031 1.5461894 1.3389232 1.4824219 1.3339844 z"/>
 <path style="fill:#81c784" d="M 7.9166665,6.647306 7.75,5.9732383 6.8333333,6.7315648 7.0000002,7.4056326 Z"/>
 <path style="fill:#4d7687" d="M 3.3333334,12.461142 6,12.292626 6.7500002,11.618558 V 10.017646 L 6,10.691714 3.3333334,10.94449 Z"/>
 <path style="fill:#df5050" d="M 6.8833333,8.6695099 6.6333334,7.4224847 6,7.9111841 4.6666669,8.1639595 4.2500001,6.0574967 2.5,6.4787894 3.1666665,10.059775 6,9.4278365 Z"/>
 <path style="fill:#ff8a65" d="M 13,3.6982589 V 5.2149121 L 14.416666,5.636204 V 4.1195516 Z"/>
 <path style="fill:#00bcd4" d="M 6,3.1927081 7.75,2.51864 V 3.1927081 L 7.2499997,3.361225 V 3.5850661 L 6,4.1195516 5.7170001,4.0352928 V 3.1084494 Z"/>
 <path style="fill:#b89b00" d="m 11.916666,8.8380273 1.416667,0.9268435 0.5,-0.6740681 -1.416666,-0.9268432 z"/>
 <path style="fill:#b89b00" d="M 13.749783,6.3100645 13.25,6.9846177 14.666558,7.9114612 14.995442,7.4678567 V 7.1248634 Z"/>
 <path style="fill:#b89b00" d="M 12.583333,7.9111841 14,8.8380273 14.499999,8.1639595 13.083333,7.237116 Z"/>
 <path style="fill:#646464" d="m 2.2167969,6.7651021 -0.2498915,0.084605 0.5666233,3.2858729 -0.078234,2.740896 0.2840711,-0.04345 0.077474,-2.714219 z m 0.5225694,6.0679289 -0.00608,0.201222 -0.2833115,0.01677 0.00532,-0.174545 -0.038737,0.0061 -1.4051648,0.993918 v 0.08841 c 0,0 -0.0295474,0.187384 0.013672,0.382628 L 2.5001103,13.30407 2.6664513,13.253 6.0000008,13.051015 7.1667769,12.124171 7.0832259,11.702671 5.9999991,12.629521 2.75,12.831506 Z"/>
 <ellipse style="fill:#222222;stroke:#f4f4f7;stroke-width:0.13407141;stroke-linecap:round;stroke-linejoin:round" cx="2.592" cy="13.059" rx=".225" ry=".228"/>
 <ellipse style="fill:#222222;stroke:#f4f4f7;stroke-width:0.13407141;stroke-linecap:round;stroke-linejoin:round" cx="7.167" cy="11.88" rx=".225" ry=".228"/>
 <ellipse style="fill:#222222;stroke:#f4f4f7;stroke-width:0.13407141;stroke-linecap:round;stroke-linejoin:round" cx="2.083" cy="6.824" rx=".225" ry=".228"/>
 <ellipse style="fill:#222222;stroke:#f4f4f7;stroke-width:0.13407141;stroke-linecap:round;stroke-linejoin:round" cx="2.667" cy="10.127" rx=".225" ry=".228"/>
 <path style="fill:#f4f4f7;opacity:0.3" d="M 1.0112896,1.8462083 V 13.965171 c 0,0 -0.11125566,0.654517 0.3647464,0.79218 L 6,16 C 5.984375,15.996094 6,2.5363784 6,2.5363784 L 1.6201542,1.3465927 c 0,0 -0.6088646,-0.1695589 -0.6088646,0.4996156 z"/>
 <path style="fill:#f4f4f7;opacity:0.3" d="m 10.333333,14.634125 4.004323,1.175563 c 0.708207,0.247732 0.658041,-0.494393 0.658041,-0.494393 V 3.0998941 c 0.06547,-0.6348332 -0.63778,-0.7657056 -0.63778,-0.7657056 L 10.333333,1.170504 Z"/>
 <path style="fill:#b1a390" d="M 7.1686198,9.0155623 7.0448132,11.204672 7.6152342,11.542959 9.3075087,10.28512 Z"/>
 <path style="fill:#505050" d="M 7.0448132,11.204672 7,12 7.6152342,11.542959 Z"/>
 <path style="fill:#a15f34" d="M 12.903972,5.291665e-4 C 12.264404,0.02078759 11.696511,0.62795816 11.479058,1.0232069 L 7.1686198,9.0155623 9.3075087,10.28512 9.3621962,10.244495 13.765299,2.1857314 C 14.261425,1.330786 13.897477,0.33158157 13.355143,0.08959356 13.203393,0.02188297 13.051564,-0.00414585 12.903972,5.291665e-4 Z"/>
</svg>
