<svg xmlns="http://www.w3.org/2000/svg" width="16" height="16" version="1">
 <rect style="fill:#a5a5a5" width="12" height="10" x="-15" y="-13" rx=".75" ry=".75" transform="matrix(0,-1,-1,0,0,0)"/>
 <rect style="fill:#b2bfd9" width="12" height="16" x="-13" y="-16" rx=".75" ry=".75" transform="matrix(0,-1,-1,0,0,0)"/>
 <rect style="fill:#8c5edc" width="8" height="12" x="-11" y="-14" rx="0" ry="0" transform="matrix(0,-1,-1,0,0,0)"/>
 <path style="fill:none;stroke:#f4f4f7;stroke-width:0.750076;stroke-linecap:round;stroke-linejoin:round" d="m 4.9472757,5.3504225 a 5.2505317,5.2505317 0 0 1 6.1054543,0.00533"/>
 <path style="fill:#f4f4f7" d="M 8,7.9999993 A 0.99999991,0.99999991 0 0 0 7,8.9999999 0.99999991,0.99999991 0 0 0 8,10 0.99999991,0.99999991 0 0 0 9,8.9999999 0.99999991,0.99999991 0 0 0 8,7.9999993 Z"/>
 <path style="fill:none;stroke:#f4f4f7;stroke-width:0.750076;stroke-linecap:round;stroke-linejoin:round" d="m 5.8130928,7.080632 a 3.7503798,3.7503798 0 0 1 4.3928922,0.019168"/>
</svg>
