<svg xmlns="http://www.w3.org/2000/svg" width="16" height="16" version="1">
 <rect fill="#597123" width="4.633" height="4.633" x="-2.31" y="1.86" rx=".772" ry=".772" transform="matrix(.70738 -.70684 .70738 .70684 0 0)"/>
 <rect fill="#96ba42" width="15" height="15" x="1" y="1" rx="7.5" ry="7.5"/>
 <circle fill="#f4f4f7" cx="8.5" cy="8.5" r="5.5"/>
 <rect fill="#f45246" width=".999" height="5" x="11.11" y="-1.38" rx=".5" ry=".504" transform="matrix(.86630 .49952 -.50017 .86593 0 0)"/>
 <circle fill="#4d4d4d" cx="8.5" cy="8.5" r="1.5"/>
 <circle fill="#4d4d4d" cx="8.5" cy="3.5"/>
 <circle fill="#4d4d4d" cx="8.5" cy="13.5"/>
 <circle fill="#4d4d4d" cx="8.5" cy="-13.5" transform="rotate(90)"/>
 <circle fill="#4d4d4d" cx="8.5" cy="-3.5" transform="rotate(90)"/>
</svg>
