<svg xmlns="http://www.w3.org/2000/svg" width="16" height="16" version="1">
 <path style="fill:#b2bfd9" d="M 11,16 H 3.076923 C 2.4803077,16 2,15.479667 2,14.833333 V 3.1666669 C 2,2.5203336 2.4803077,2.0000002 3.076923,2.0000002 H 14.923077 C 15.519692,2.0000002 16,2.5203336 16,3.1666669 V 11 Z"/>
 <path style="fill:#b0b0b0" d="M 3.5,4 C 3.2238576,4 3,4.2238574 3,4.5 3,4.7761424 3.2238576,5 3.5,5 3.7761419,5 4,4.7761424 4,4.5 4,4.2238574 3.7761419,4 3.5,4 Z M 5,4 v 1 h 8 V 4 Z m 9.5,0 C 14.223858,4 14,4.2238574 14,4.5 14,4.7761424 14.223858,5 14.5,5 14.776142,5 15,4.7761424 15,4.5 15,4.2238574 14.776142,4 14.5,4 Z M 3.5,7 C 3.2238576,7 3,7.2238574 3,7.5 3,7.7761424 3.2238576,8 3.5,8 3.7761419,8 4,7.7761424 4,7.5 4,7.2238574 3.7761419,7 3.5,7 Z M 5,7 v 1 h 8 V 7 Z m 9.5,0 C 14.223858,7 14,7.2238574 14,7.5 14,7.7761424 14.223858,8 14.5,8 14.776142,8 15,7.7761424 15,7.5 15,7.2238574 14.776142,7 14.5,7 Z m -11,3 C 3.2238576,10 3,10.223857 3,10.5 3,10.776142 3.2238576,11 3.5,11 3.7761419,11 4,10.776142 4,10.5 4,10.223857 3.7761419,10 3.5,10 Z M 5,10 v 1 h 8 v -1 z m 9.5,0 C 14.223858,10 14,10.223857 14,10.5 14,10.776142 14.223858,11 14.5,11 14.776142,11 15,10.776142 15,10.5 15,10.223857 14.776142,10 14.5,10 Z m -11,3 C 3.2238576,13 3,13.223857 3,13.5 3,13.776142 3.2238576,14 3.5,14 3.7761419,14 4,13.776142 4,13.5 4,13.223857 3.7761419,13 3.5,13 Z M 5,13 v 1 h 8 v -1 z"/>
 <path style="fill:#fafafa" d="M 12.153971,11 C 11.514741,11 11,11.5575 11,12.25 V 16 l 5,-5 z"/>
 <path style="fill:none;stroke:#6e6e6e;stroke-width:0.79999989" d="M 3.2000082,10.8 5,9"/>
 <path style="fill:#4f4f4f" d="M 3.0555054,10.000391 A 0.91776935,0.91754787 0 0 0 2.4251995,10.278137 L 0.28410153,12.418719 A 0.91776935,0.91754787 0 1 0 1.5813068,13.716357 L 3.722405,11.575029 A 0.91776935,0.91754787 0 0 0 3.0555054,10.000391 Z"/>
 <circle style="opacity:0.3;fill:#328fff" cx="-8" cy="6" r="4.615" transform="scale(-1,1)"/>
 <path style="fill:#328fff" d="M 8 1 C 5.2420177 1 3 3.242018 3 6 C 3 8.7579824 5.2420177 11 8 11 C 10.757982 11 13 8.7579824 13 6 C 13 3.242018 10.757982 1 8 1 z M 8 2 C 10.212332 2 12 3.7876688 12 6 C 12 8.2123318 10.212332 10 8 10 C 5.7876684 10 4 8.2123318 4 6 C 4 3.7876688 5.7876684 2 8 2 z"/>
</svg>
