<svg xmlns="http://www.w3.org/2000/svg" width="16" height="16" version="1">
 <path style="fill:#4a4034" d="M 8.0187135,3.0568e-4 C 7.8697967,-0.00297832 7.7228107,0.03366008 7.5937627,0.10623352 L 0.40701762,2.3760672 C 0.15515394,2.5179254 -4.2e-7,2.780091 6e-8,3.0638074 v 8.0947836 c -4.8e-7,0.283716 0.15515388,0.545882 0.40701756,0.68774 l 7.18674508,4.047391 c 0.2516648,0.141567 0.56159,0.141567 0.8132548,0 L 15.592982,11.846331 C 15.844846,11.704473 16,11.442307 16,11.158591 V 3.0638074 C 16,2.780091 15.844846,2.5179254 15.592982,2.3760672 L 8.4070175,0.10623352 C 8.2887363,0.03971652 8.1552055,0.00328992 8.0187135,3.0568e-4 Z"/>
 <path style="opacity:0.06000001;fill:#f4f4f7" d="M 8.0190971,3.154e-4 C 7.8700491,-0.0030486 7.7229167,0.0335826 7.5937503,0.10621424 L 0.40711802,2.3762727 C 0.21066422,2.4872478 0.07063694,2.6732098 0.0208333,2.8892746 0.07063694,3.1053394 0.21066422,3.2913014 0.40711802,3.4022762 L 7.5937503,7.4498686 c 0.2516936,0.1416068 0.561674,0.1416068 0.813368,0 L 15.592882,3.4022762 C 15.789336,3.2913014 15.929363,3.1053394 15.979166,2.8892746 15.929363,2.6732098 15.789336,2.4872478 15.592882,2.3762727 L 8.4071183,0.10621424 C 8.2889183,0.03975232 8.1554907,0.00333728 8.0190971,3.154e-4 Z"/>
 <path style="opacity:0.07999998" d="m 0.11892358,2.6514362 c -0.04221288,0.067658 -0.07381244,0.1410948 -0.09375,0.2178736 0.0199376,-0.076779 0.05153724,-0.150216 0.09375,-0.2178736 z M 0.0208333,2.8892746 C 0.0072969,2.9465018 3.097e-4,3.005017 1e-7,3.063747 v 8.095185 c 1.1432e-4,0.283641 0.15529712,0.545689 0.40711804,0.687474 l 7.18663216,4.047593 c 0.123658,0.0691 0.2637432,0.105314 0.4062496,0.10503 V 7.5557674 C 7.8574131,7.5557866 7.7173227,7.5192674 7.5937503,7.4498686 L 0.40711802,3.4022762 C 0.21066422,3.2913014 0.07063694,3.1053394 0.0208333,2.8892746 Z"/>
 <path style="fill:#564c3d" d="M 7.9999999,3.0001276 13,4.8448006 V 10.481092 L 7.9999995,13 2.9999998,10.481092 V 4.8448002 Z"/>
 <path style="opacity:0.05;fill:#f4f4f7" d="M 7.9999999,3.0001276 2.9999998,4.8446231 V 10.481092 L 7.9999999,8.4167249 Z"/>
 <path style="opacity:0.12999998;fill:#f4f4f7" d="M 7.9999999,3.0001276 13,4.8446231 V 10.481092 L 7.9999999,8.4167249 Z"/>
 <path style="fill:#ff2a2a" d="m 8.0070183,5.7831267 a 0.30526231,0.23451985 0 0 0 -0.1593562,0.031279 l -2.6950296,1.19526 A 0.30526231,0.23451985 0 0 0 5,7.2127658 v 2.3905187 a 0.30526231,0.23451985 0 0 0 0.1526325,0.2031004 l 2.6950296,1.1952601 a 0.30526231,0.23451985 0 0 0 0.3049698,0 L 10.847369,9.8063871 A 0.30526231,0.23451985 0 0 0 11,9.6032859 V 7.2127689 A 0.30526231,0.23451985 0 0 0 10.847369,7.0096673 L 8.1526319,5.8144088 A 0.30526231,0.23451985 0 0 0 8.0070183,5.78313 Z"/>
 <path style="fill:#ffbd30" d="m 8.0070322,5.7831244 a 0.30526231,0.23451985 0 0 0 -0.1593751,0.03162 L 5.1523445,7.0092957 a 0.30526231,0.23451985 0 0 0 -0.1113285,0.086301 0.30526231,0.23451985 0 0 0 0.1113285,0.085447 l 2.6953126,1.1954067 a 0.30526231,0.23451985 0 0 0 0.3046876,0 L 10.847658,7.1810427 a 0.30526231,0.23451985 0 0 0 0.111327,-0.085446 0.30526231,0.23451985 0 0 0 -0.111327,-0.086302 L 8.1523447,5.8147425 A 0.30526231,0.23451985 0 0 0 8.0070322,5.7831262 Z"/>
 <path style="fill:#ff6f2a" d="M 5.041016,7.0955937 C 5.014226,7.1311757 5.000084,7.1715487 5,7.2126559 v 2.3908127 c 2.149e-4,0.083529 0.058243,0.1606665 0.1523438,0.2025097 l 2.6953126,1.1954067 c 0.046302,0.02062 0.098834,0.03152 0.1523445,0.03161 V 8.4080619 C 7.9464935,8.4079633 7.8939543,8.3970594 7.8476576,8.3764419 L 5.1523449,7.1810367 C 5.1061505,7.1605205 5.0677678,7.1310582 5.041016,7.0955896 Z"/>
</svg>
