<svg xmlns="http://www.w3.org/2000/svg" width="16" height="16" version="1">
 <circle style="fill:#00796b" cx="8" cy="8" r="8"/>
 <path style="fill:#18c28c" d="M 8.9862509,3.000185 C 8.813096,2.9961856 8.6867603,3.0585181 8.5733021,3.1878257 8.4762441,3.2984627 8.3679609,3.4963907 8.3326479,3.6286764 8.2031039,4.113981 7.5969815,4.4263053 7.0624116,4.2822795 6.8001144,4.2116105 6.6757201,4.0998763 6.2511627,3.5568289 6.0579223,3.3096521 5.8930188,3.3152128 5.4189872,3.585429 4.9686142,3.8422091 4.9143036,4.009274 5.1176462,4.5152615 5.2016681,4.724412 5.2729463,4.9918689 5.2745946,5.1102703 5.2787107,5.4030088 5.0195631,5.8666997 4.7591059,6.0338249 4.5456214,6.1708096 4.0982339,6.2020045 3.740685,6.1056718 3.4006831,6.0140673 3.2264342,6.1759945 3.0828966,6.714632 c -0.1117678,0.4194185 -0.1113364,0.4812442 0.00628,0.6152379 0.071859,0.081926 0.3049418,0.2235755 0.5182787,0.3152918 0.2133484,0.09172 0.4495058,0.2354578 0.5238591,0.320175 C 4.2882932,8.1442135 4.3884398,8.6604725 4.3182573,8.9314416 4.2674813,9.1281995 4.0241441,9.434125 3.827183,9.550167 3.6125114,9.676642 3.4056988,9.95699 3.4121417,10.111694 c 0.00826,0.198193 0.2894963,0.693263 0.4687527,0.824503 0.1026677,0.07519 0.1896396,0.0855 0.3215701,0.03628 0.3866854,-0.144245 1.00943,-0.246545 1.1969933,-0.196011 0.2827745,0.07619 0.6852961,0.452837 0.7331235,0.687085 0.022504,0.110324 0.022118,0.353028 0,0.539205 -0.053691,0.45153 -0.00967,0.683368 0.145788,0.763118 0.070699,0.03617 0.1841296,0.09505 0.251815,0.13114 0.067562,0.03655 0.229852,0.08006 0.3606324,0.09696 0.3410613,0.04424 0.5825427,-0.154052 0.7700937,-0.635467 0.1714882,-0.440173 0.2322267,-0.502258 0.6215161,-0.626399 0.3953076,-0.126066 0.6703871,-0.09764 0.8977452,0.09347 0.1885057,0.158473 0.2624122,0.233841 0.5524582,0.565712 0.2125024,0.243196 0.3809411,0.258072 0.7533531,0.06347 0.559964,-0.292631 0.616687,-0.469946 0.339705,-1.051206 -0.263673,-0.553218 -0.120708,-1.10851 0.369701,-1.432067 0.187797,-0.123894 0.332699,-0.145093 0.783348,-0.115794 0.680412,0.04425 0.814001,-0.03361 0.956338,-0.5601312 0.142173,-0.5258825 0.08222,-0.6346867 -0.498745,-0.8935603 -0.5528,-0.24631 -0.703037,-0.4262485 -0.783347,-0.9402954 -0.06677,-0.4274146 0.039,-0.638983 0.538508,-1.0665522 0.256146,-0.219236 0.400257,-0.3907494 0.40109,-0.479216 0.0018,-0.1974409 -0.448865,-0.9095028 -0.601987,-0.9507577 -0.07091,-0.019107 -0.286284,0.032518 -0.479217,0.1137003 -0.532209,0.2240109 -0.816421,0.2310367 -1.166301,0.027904 C 9.933955,4.8681575 9.8265999,4.6369329 9.8595822,4.0632511 9.897461,3.4043984 9.8441857,3.2703469 9.4898817,3.1299311 9.3718685,3.0830526 9.2683365,3.0479049 9.1759849,3.026694 V 3.0259797 C 9.106722,3.0100689 9.0439698,3.0015046 8.9862516,3.0001689 Z"/>
 <circle style="fill:#f4f4f7" cx="8" cy="8" r="2"/>
</svg>
