<svg xmlns="http://www.w3.org/2000/svg" width="16" height="16" version="1">
 <rect style="fill:#007777" width="16" height="16" x="0" y="0" rx="8" ry="8"/>
 <path style="opacity:0.3;fill:#f4f4f7" d="M 8.489892,2.0494877 C 11.194563,1.6931368 12.17893,3.3458666 13.237037,4.2981008 11.351053,3.9804976 11.180286,1.6864643 7.7063832,3.1595958 4.9336966,4.3353726 5.3721391,6.756872 4.6219752,8.3790516 L 3.2818604,7.6548491 C 3.9589564,5.1308677 6.1130591,2.3626447 8.489892,2.0494877 Z"/>
 <path style="fill:#f4f4f7" d="M 2.7848609,7.6251908 C 2.4185087,7.6452207 2.1146965,7.6666255 2.038872,7.8607955 1.8228026,8.5419828 2.5779526,8.4412068 2.5779526,8.4412068 L 2.3418338,8.1839943 c -0.1250789,-0.5511087 2.2643796,0.509946 2.9068935,1.2951161 1.7889013,2.1860886 1.9289287,4.9994876 5.7748397,4.4515706 0.593476,-0.08455 1.179495,-0.148025 1.739355,-0.661025 -0.766323,0.200123 -1.453755,0.213028 -2.063326,0.281278 C 8.5578165,13.77623 7.9271753,12.975277 7.1854762,11.3359 6.7324169,10.313135 6.0456174,9.2401577 5.1407367,8.5122994 L 5.1922978,7.6638281 4.8154373,8.2725284 C 4.2211449,7.8734614 3.5434613,7.6251189 2.7848609,7.6251908 Z"/>
 <path style="fill:none;stroke:#f4f4f7;stroke-linecap:square;stroke-linejoin:round" d="m 9.5000163,4.5 c 0,6 0.199903,7 0.9999837,7"/>
 <rect style="fill:#f4f4f7" width="3" height="1" x="8" y="6"/>
</svg>
