<svg xmlns="http://www.w3.org/2000/svg" width="16" height="16" version="1">
 <path style="fill:#b2bfd9" d="m 3.2,0 h 9.6 C 13.462696,0 14,0.54068392 14,1.2075472 V 14.792453 C 14,15.459316 13.462696,16 12.8,16 H 3.2 C 2.5373048,16 2.0000001,15.459316 2.0000001,14.792453 V 1.2075472 C 2.0000001,0.54068392 2.5373048,0 3.2,0 Z m 0,0"/>
 <path style="fill:#3faf7f" d="M 4.5329862,4 H 11.467014 C 11.761614,4 12,3.7763673 12,3.5 v -1 C 12,2.2236328 11.761614,2 11.467014,2 H 4.5329862 C 4.2383865,2 4,2.2236328 4,2.5 v 1 C 4,3.7763673 4.2383865,4 4.5329862,4 Z m 0,0"/>
 <circle style="fill:#4f4f4f" cx="8" cy="13" r="1"/>
 <path style="fill:#ff7800" d="m 11,9 c 0.552455,0 1,0.435113 1,0.972222 v 3.055556 C 12,13.564887 11.552455,14 11,14 10.447545,14 10,13.564887 10,13.027778 V 9.972222 C 10,9.435113 10.447545,9 11,9 Z m 0,0"/>
 <circle style="fill:#858585" cx="8" cy="7" r="1"/>
 <circle style="fill:#858585" cx="11" cy="7" r="1"/>
 <circle style="fill:#858585" cx="5" cy="7" r="1"/>
 <circle style="fill:#4f4f4f" cx="8" cy="10" r="1"/>
 <circle style="fill:#4f4f4f" cx="5" cy="10" r="1"/>
 <circle style="fill:#4f4f4f" cx="5" cy="13" r="1"/>
</svg>
