<svg xmlns="http://www.w3.org/2000/svg" width="16" height="16" version="1.1">
 <path style="fill:#b2bfd9" d="M 2.1538461,1.0000002 C 1.5146154,1.0000002 1,1.5146156 1,2.1538463 V 6.0000001 H 5.9999999 V 1.0000002 Z"/>
 <rect style="fill:#f3f3f3" width="5" height="5" x="6" y="1"/>
 <path style="fill:#b2bfd9" d="M 14.846154,1.0000002 C 15.485384,1.0000002 16,1.5146156 16,2.1538463 V 6.0000001 H 11 V 1.0000002 Z"/>
 <rect style="fill:#b2bfd9" width="5" height="5" x="6" y="6"/>
 <rect style="fill:#f3f3f3" width="5" height="5" x="1" y="6"/>
 <rect style="fill:#f3f3f3" width="5" height="5" x="11" y="6"/>
 <path style="fill:#bebebb" d="M 2.1538461,16 C 1.5146154,16 1,15.485385 1,14.846154 V 11 h 4.9999999 v 5 z"/>
 <rect style="fill:#f3f3f3" width="5" height="5" x="6" y="-16" transform="scale(1,-1)"/>
 <path style="fill:#b2bfd9" d="M 14.846154,16 C 15.485384,16 16,15.485385 16,14.846154 V 11 h -5 v 5 z"/>
 <path style="fill:#2e7bdd" d="m 16,2.9230771 a 6.420983,5.8888199 0 0 0 -3.076923,3.076923 h 1.095252 A 5.3813407,4.9353419 0 0 1 16,3.9777648 Z"/>
 <path style="fill:#2e7bdd" d="m 5.9999999,3.4006858 v 1.0066104 c 0.8,0.3783823 1.7016916,0.5926985 2.65625,0.5926985 A 6.2194111,6.2194111 0 0 0 11,4.5447662 V 3.5704574 c -0.698677,0.3485292 -1.4958086,0.546875 -2.3437501,0.546875 -0.9770588,0 -1.8871323,-0.2628231 -2.65625,-0.7166466 z"/>
 <path style="fill:#2e7bdd" d="M 2.4932836,6.0000001 A 5.3245311,5.3245311 0 0 1 3.0281393,8.3332332 5.3171876,5.3171872 0 0 1 2.316,11 H 3.4367932 A 6.2928126,6.2928122 0 0 0 4.0279889,8.3332332 6.2957811,6.2957811 0 0 0 3.5802728,6.0000001 Z"/>
 <path style="fill:#2e7bdd" d="m 5.9999999,7.923077 v 0.97506 C 6.9079279,9.3660297 7.6394576,10.102031 8.0890926,11 H 8.470346 C 8.1743836,11.742282 8.0224399,12.534123 8.0226298,13.333233 8.0220644,14.254719 8.2238836,15.165085 8.6138256,16 H 9.7353702 C 9.2671119,15.189339 9.0211938,14.269414 9.0224794,13.333233 c 0,-0.8375 0.1926685,-1.628858 0.5348558,-2.333233 H 9.076923 C 8.509981,9.6196006 7.4037602,8.5133798 5.9999999,7.923077 Z"/>
 <path style="fill:#2e7bdd" d="m 13.65625,8.0006911 c -0.954558,0 -1.856396,0.2150666 -2.65625,0.5934493 V 9.6 c 0.769119,-0.4538235 1.679046,-0.7166469 2.65625,-0.7166466 0.847796,0 1.645073,0.1981981 2.34375,0.5468746 V 8.4559176 A 6.2194118,6.2194118 0 0 0 13.65625,8.0006895 Z"/>
 <path style="fill:#2e7bdd" d="M 12.923077,11 A 6.7414403,6.5482222 0 0 0 16,14.076923 V 12.905048 A 5.6482195,5.4863345 0 0 1 14.109224,11 Z"/>
</svg>
