<svg xmlns="http://www.w3.org/2000/svg" width="16" height="16" version="1.1">
 <circle style="fill:#008f7e" cx="8" cy="8" r="8"/>
 <path style="opacity:0.4;fill:none;stroke:#f4f4f7;stroke-width:0.80000001;stroke-linejoin:bevel" d="M 5,10.6 H 2.3998307 L 5.1998308,7.4 h 8.8000002 l -2.4,3.2 H 11"/>
 <path style="fill:#f4f4f7" d="M 4.9999999,4.0000002 V 9.5714286 10 H 5.8571427 V 9.5714286 5.9520093 L 7.6107699,10 H 8.3892296 L 10.142857,5.9520093 V 9.5714286 10 H 11 V 9.5714286 4.0000002 H 10.09933 L 7.9999998,8.8058629 5.9006693,4.0000002 Z"/>
</svg>
