<svg xmlns="http://www.w3.org/2000/svg" width="16" height="16" version="1">
 <path style="fill:#add439" d="M 8.0417752,3.7925978e-4 C 8.0160696,-2.567726e-4 7.9906942,0.00300739 7.9650606,0.00350342 L 7.9817708,3.8318243 8,8.0000054 11.518229,5.9319313 14.766819,4.0232405 C 14.613631,3.7422314 14.393555,3.4998482 14.112088,3.3333613 L 8.8879122,0.24257911 C 8.6302508,0.09037128 8.3391126,0.0074127 8.0417752,3.7925978e-4 Z"/>
 <path style="fill:#ac1248" d="M 1.2643229,3.9583932 C 1.09557,4.2401087 0.9999789,4.5672982 0.99999994,4.9092232 v 3.0907822 3.0907826 c -1.6e-7,0.342436 0.0965278,0.668824 0.26660156,0.950048 L 4.5,10.100112 8,8.0000054 4.5,5.8998984 Z"/>
 <path style="fill:#3471b9" d="M 14.733398,3.9591748 11.5,5.8998984 8,8.0000054 l 3.5,2.1001066 3.237196,1.942287 A 1.7755407,1.8192526 0 0 0 15,11.090788 V 4.9092232 A 1.7755407,1.8192526 0 0 0 14.98557,4.6928058 c -0.0027,-0.023113 -0.0063,-0.04585 -0.0099,-0.068754 A 1.7755407,1.8192526 0 0 0 14.94911,4.4873265 c -0.0072,-0.031034 -0.01477,-0.061692 -0.02355,-0.092192 A 1.7755407,1.8192526 0 0 0 14.89214,4.2943482 C 14.8798,4.2592262 14.86855,4.2238622 14.85416,4.1896552 a 1.7755407,1.8192526 0 0 0 -0.0061,-0.014065 l -7.77e-4,8.001e-4 C 14.814873,4.1010124 14.775267,4.0293848 14.733374,3.959192 Z"/>
 <path style="fill:#86b02f" d="M 8.0349393,3.7925978e-4 C 7.7114732,-0.00636468 7.3924431,0.07694528 7.1120877,0.24257911 L 1.8879123,3.3333613 C 1.6063884,3.4998814 1.3814689,3.7392392 1.2278645,4.0201151 L 4.4817708,5.9319313 8,8.0000054 8.0182291,3.8318243 Z"/>
 <path style="fill:#2e90e8" d="M 8,8.0000054 7.981773,12.168186 7.965063,15.999632 A 1.7755407,1.8192526 0 0 0 8.8879138,15.75665 l 5.2241752,-3.090782 a 1.7755407,1.8192526 0 0 0 0.659288,-0.685972 l -3.253146,-1.911817 z"/>
 <path style="fill:#eb2f6a" d="M 8,8.0000054 4.4817708,10.068079 1.2331814,11.97677 c 0.062199,0.112576 0.1323068,0.220642 0.2164713,0.317985 a 1.7755407,1.8192526 0 0 0 0.03342,0.03985 c 0.02906,0.03171 0.059793,0.06179 0.091146,0.09141 a 1.7755407,1.8192526 0 0 0 0.060764,0.05469 c 0.02885,0.02487 0.05758,0.0496 0.088108,0.07266 a 1.7755407,1.8192526 0 0 0 0.1648221,0.112506 l 5.2241752,3.090782 a 1.7755407,1.8192526 0 0 0 0.9228516,0.240638 l -0.016711,-3.829102 z"/>
 <g transform="matrix(0.93506491,0,0,0.94018257,0.51948063,0.47890165)">
  <path style="fill:#f4f4f7" d="m 8,2.9474045 4.277778,2.5527511 V 10.499129 L 8,13.051825 3.7222222,10.499129 V 5.5001556 Z"/>
  <path style="fill:#cedbe6" d="m 8,2.9474045 4.277778,2.4675947 V 10.499129 L 8,13.051825 Z"/>
  <path style="fill:#dee5c0" d="M 8,2.9474045 3.7222222,5.5001556 8,8.0315345 12.277778,5.5001556 Z"/>
 </g>
</svg>
