<svg xmlns="http://www.w3.org/2000/svg" width="16" height="16" version="1.1">
 <path style="fill:#3476cc" d="M 5.9945056,2.1340843e-4 A 1.4958847,1.4979092 0 0 0 4.5396694,1.2132425 L 2.0467775,13.195316 a 1.4961524,1.4981772 0 1 0 2.929148,0.612366 L 7.4688174,1.8256076 A 1.4958847,1.4979092 0 0 0 5.9945056,2.1340843e-4 Z"/>
 <path style="fill:#7cce44" d="M 11.478868,2.1340843e-4 A 1.4958847,1.4979092 0 0 0 10.024032,1.2132425 L 7.5311397,13.195316 a 1.4961525,1.4981773 0 1 0 2.9291483,0.612366 L 12.95318,1.8256076 A 1.4958847,1.4979092 0 0 0 11.478868,2.1340843e-4 Z"/>
 <path style="fill:#b2bfd9" d="m 2.5141947,3.0171844 a 1.4958847,1.4979092 0 1 0 0,2.9955188 H 13.482919 a 1.4958847,1.4979092 0 1 0 0,-2.9955188 z"/>
 <path style="fill:#f56666" d="m 1.517038,8.0097157 a 1.4958847,1.4979092 0 1 0 0,2.9955173 h 10.968725 a 1.4958847,1.4979092 0 1 0 0,-2.9955173 z"/>
 <path style="fill:#7cce44" d="M 9.6484375 3.0175781 L 9.0253906 6.0136719 L 12.082031 6.0136719 L 12.705078 3.0175781 L 9.6484375 3.0175781 z"/>
 <path style="fill:#3476cc" d="M 3.125 8.0097656 L 2.5019531 11.005859 L 5.5585938 11.005859 L 6.1835938 8.0097656 L 3.125 8.0097656 z"/>
</svg>
