<svg xmlns="http://www.w3.org/2000/svg" width="16" height="16" version="1.1">
 <g transform="translate(0,-316.3)">
  <path style="fill:#ff7c70" d="m 12,328.3 h 2 c 1.108,0 2,0.892 2,2 0,1.108 -0.892,2 -2,2 h -2 z"/>
  <path style="fill:#7a0000" d="M 4,328.3 H 2 C 0.89200004,328.3 4e-8,329.192 4e-8,330.3 c 0,1.108 0.892,2 1.99999996,2 h 2 z"/>
  <path style="fill:#ed5353" d="m 12,328.3 v 4 H 8 c -1.289764,-1.44082 -1.534224,-2.79452 0,-4 z"/>
  <path style="fill:#c6262e" d="m 8,328.3 v 4 H 4 v -4 z"/>
  <path style="fill:#ffc27d" d="m 9.6620068,323.5662 1.7320512,-1 c 0.959556,-0.554 2.17805,-0.2275 2.73205,0.73206 0.554,0.95955 0.227506,2.17804 -0.73205,2.73204 l -1.732051,1 z"/>
  <path style="fill:#cc3b02" d="m 2.7338032,327.5662 -1.7320507,1 c -0.9595561,0.554 -1.28605078,1.7725 -0.73205078,2.73206 0.55400008,0.95955 1.77249478,1.28604 2.73205108,0.73204 l 1.7320508,-1 z"/>
  <path style="fill:#ffa154" d="m 9.6620064,323.5662 2.0000006,3.4641 -3.4641018,2 c -1.837376,-0.6029 -2.7259372,-1.65301 -2.0000004,-3.4641 z"/>
  <path style="fill:#f37329" d="m 6.1979048,325.5662 2.0000004,3.4641 -3.4641016,2 -2.0000004,-3.4641 z"/>
  <path style="fill:#8cd5ff" d="m 5.2697008,320.638 1,-1.73205 c 0.554,-0.95955 1.7724948,-1.28605 2.7320508,-0.73205 0.959556,0.554 1.2860504,1.7725 0.7320508,2.73205 l -1,1.73205 z"/>
  <path style="fill:#0d52bf" d="m 1.2697002,327.5662 -0.99999996,1.73206 c -0.554,0.95955 -0.22750532,2.17804 0.73205076,2.73204 0.9595564,0.554 2.178051,0.22751 2.732051,-0.73204 l 1,-1.73206 z"/>
  <path style="fill:#64baff" d="m 5.2697004,320.638 3.4641016,2 -2,3.4641 c -1.8926644,0.39656 -3.1872376,-0.0686 -3.4641016,-2 z"/>
  <path style="fill:#3689e6" d="m 3.2697004,324.1021 3.4641016,2 -2,3.4641 -3.4641018,-2 z"/>
  <path style="fill:#e2ffb4" d="m 6.52e-6,320.3 v -2 c 0,-1.108 0.892,-2 2.00000008,-2 1.1079998,0 1.9999998,0.892 1.9999998,2 v 2 z"/>
  <path style="fill:#3a9104" d="m 5.84e-6,328.3 v 2 c 0,1.108 0.892,2 1.99999996,2 1.1080002,0 2.0000002,-0.892 2.0000002,-2 v -2 z"/>
  <path style="fill:#9bdb4d" d="M 5.84e-6,320.3 H 4.000006 v 4 c -1.4408152,1.28976 -2.7945202,1.53422 -4.00000016,0 z"/>
  <path style="fill:#68b723" d="M 5.84e-6,324.3 H 4.000006 v 4 H 5.84e-6 Z"/>
  <circle style="fill:#f4f4f7" cx="2" cy="330.3" r="1"/>
 </g>
</svg>
