<svg xmlns="http://www.w3.org/2000/svg" width="16" height="16" version="1.1">
 <path style="fill:#3391d9;fill-rule:evenodd" d="M 3.5594394,5.582642 A 2.5002631,2.4174619 0 0 0 1.000584,7.9991972 v 5.5821288 a 2.5002631,2.4174619 0 0 0 3.7499259,2.093411 L 9.7504107,12.88322 a 2.5002631,2.4174619 0 0 0 0,-4.1866721 L 4.7505099,5.905786 A 2.5002631,2.4174619 0 0 0 3.5594394,5.582642 Z" overflow="visible"/>
 <path style="fill:#9c5ac9;fill-rule:evenodd" d="M 3.5594394,6.6455998e-4 A 2.5002631,2.4174619 0 0 0 1.000584,2.4169181 V 13.581175 H 6.0004849 V 6.6035896 L 12.250361,10.092458 14.750312,5.905786 4.7505099,0.32365775 A 2.5002631,2.4174619 0 0 0 3.5594394,6.6455998e-4 Z" overflow="visible"/>
 <path style="fill:#3391d9;fill-rule:evenodd" d="M 8.5593407,2.7917289 A 2.5002631,2.4174619 0 0 0 6.0004849,5.207982 v 5.582128 a 2.5002631,2.4174619 0 0 0 3.7499258,2.093261 l 4.9999013,-2.790913 a 2.5002631,2.4174619 0 0 0 0,-4.186672 L 9.7504107,3.1147217 a 2.5002631,2.4174619 0 0 0 -1.19107,-0.3229928 z" overflow="visible"/>
 <path style="fill:#41caba;fill-rule:evenodd" d="M 9.6899432,12.905729 C 11.379754,11.97044 13.063002,11.023971 14.750156,10.0843 15.85154,9.4955703 16.322,8.0550944 15.761386,6.9641996 15.505141,6.3982824 14.990151,6.0039832 14.437974,5.7231392 c -1.334661,-0.506848 -3.049471,0.2735924 -3.359777,1.6778112 -0.09094,0.1891428 -0.07969,0.3870476 -0.07781,0.5982468 -0.0073,1.0079559 0.01515,2.0168178 -0.01281,3.0241688 -0.07656,0.784671 -0.578114,1.511934 -1.2976308,1.882363 z" overflow="visible"/>
 <path style="opacity:0.2;fill:#f4f4f7;fill-rule:evenodd" d="m 1.0030994,2.5138917 c -0.00625,1.8288832 -7.917e-4,3.6580691 -0.00267,5.4869523 v 5.582129 a 2.5002631,2.4174619 0 0 0 3.7499259,2.093411 l 4.9999009,-2.791367 a 2.5002631,2.4174619 0 0 0 0,-4.1865203 L 4.7503586,5.9074328 A 2.5002631,2.4174619 0 0 0 4.5669244,5.8164872 C 3.7244411,5.3422704 2.8713332,4.884974 2.0407244,4.3918737 1.4182369,3.9643385 1.0271507,3.2499165 1.0032448,2.5138917 Z" overflow="visible"/>
 <path style="fill:#f7d838;fill-rule:evenodd" d="m 1.0035523,7.9334808 c -0.007029,1.8823631 -0.00108,3.7651792 -0.00313,5.6478452 -0.023125,1.216435 1.0318546,2.330595 2.2891734,2.406735 0.6349875,0.06844 1.2456004,-0.165726 1.7734025,-0.487662 C 6.1842307,14.636265 6.3426653,12.810101 5.2400307,11.848222 5.1159707,11.67751 4.9331619,11.587924 4.7431657,11.483986 3.8439648,10.973815 2.929139,10.488419 2.040719,9.9611755 1.3762011,9.5046347 0.97558399,8.7210215 1.0035523,7.9334808 Z" overflow="visible"/>
</svg>
