<svg xmlns="http://www.w3.org/2000/svg" width="16" height="16" version="1.1">
 <rect style="fill:#b2bfd9" width="16" height="16" x="0" y="0" rx="1.2" ry="1.2"/>
 <g style="font-weight:bold;font-size:15.23467541px;line-height:0%;font-family:FreeSans;text-align:center;text-anchor:middle;fill:#5e5c64;enable-background:new" transform="matrix(0.96956769,0,0,0.90040779,-6.4516541,-20.800832)">
  <path style="fill:#5e5c64" d="m 16.984789,35.318255 h -4.159067 l -0.746499,2.221216 H 9.748318 l 3.945781,-11.106079 h 2.528956 l 3.839138,11.106079 h -2.34614 z m -0.624622,-2.221216 -1.447294,-4.043283 -1.447294,4.043283 z"/>
 </g>
</svg>
