<svg xmlns="http://www.w3.org/2000/svg" width="16" height="16" version="1.1">
 <path style="fill:#b2bfd9" d="M 0,2.5 V 14.772727 C 0,15.452635 0.5352,16 1.2,16 H 9 l 5,-5 V 2.5 Z"/>
 <path style="fill:#00aade" d="M 1.2726564,0 C 0.56754972,0 0,0.53490709 0,1.199707 v 1.4780274 0.021971 H 0.0046876 C 0.01638056,2.8674401 0.15017908,3 0.31875,3 H 6.4 13.68125 c 0.168571,0 0.30237,-0.1325584 0.314062,-0.3002929 H 14 V 2.6777344 1.199707 C 14,0.53490709 13.43245,0 12.727344,0 H 6.4 Z"/>
 <path style="fill:#e6cb8c" d="m 2.0000004,15 0.858632,-3.453247 2.5758954,2.589936 z"/>
 <path style="fill:#4e4e4e" d="m 2,15 0.3450701,-1.387805 1.0462608,1.038077 z"/>
 <path style="fill:#e0b902" d="M 5.4345286,14.136687 2.8586332,11.546751 13.41637,1.0077776 l 2.575895,2.589936 z"/>
 <path style="fill:#f4d507" d="M 3.7172657,12.410063 2.8586321,11.546753 13.424104,1.0000001 14.275002,1.871089 Z"/>
 <path style="fill:#daa502" d="M 4.5758969,13.273376 5.4345278,14.136687 16,3.5899363 15.133633,2.7344005 Z"/>
 <path style="fill:#c6c6c6" d="M 14,11 H 10.333369 C 9.5946725,11 9,11.597168 9,12.338911 V 16 Z"/>
</svg>
