<svg xmlns="http://www.w3.org/2000/svg" width="16" height="16" version="1">
 <rect style="fill:#b2bfd9" width="16" height="16" x="0" y="0" rx="4.8" ry="4.8"/>
 <path style="fill:#329289" d="M 7.542934,12.982981 C 6.0487459,12.838711 4.6698415,12.017931 3.8499982,10.784798 3.0807589,9.6277805 2.8222632,8.2560722 3.1210703,6.916726 3.2322832,6.4182341 3.5131096,5.6960341 3.5707803,5.7602134 c 0.012625,0.014043 0.052104,0.1442957 0.087728,0.289425 0.2101083,0.8559586 0.7575262,1.4818837 1.678232,1.9189045 0.58785,0.279025 1.1490565,0.4416043 2.2968134,0.665375 1.0644376,0.2075208 1.3397055,0.3158083 1.7692977,0.5312083 0.4697581,0.2355373 0.7629096,0.5079503 0.9391696,0.8727218 0.15978,0.330671 0.197649,0.547083 0.181985,1.040016 -0.01196,0.376534 -0.02329,0.451942 -0.09888,0.659684 -0.273454,0.706177 -0.8498527,0.994746 -1.3741292,1.125567 -0.4700493,0.116225 -1.031694,0.165863 -1.5080608,0.119866 z m 4.839451,-2.835995 C 12.195604,9.0401512 11.580205,8.2306304 10.527718,7.7072846 9.9176788,7.4039428 9.3890974,7.2790178 7.9661523,6.989122 6.8968057,6.7712635 6.3446203,6.6477177 5.9509271,6.4595091 5.4812277,6.2349716 5.193197,5.8857384 5.0978477,5.4251633 5.0507395,5.1976258 5.0576363,4.6423714 5.1100977,4.4359175 5.2157481,4.02033 5.523047,3.5789838 5.817241,3.4203256 c 0.078506,-0.042342 0.2648039,-0.1176043 0.4139904,-0.16725 2.1220584,-0.7061917 4.6794216,0.10235 5.9225896,1.9664584 0.764818,1.1468337 1.024113,2.5281881 0.724943,3.8619883 -0.112045,0.4995502 -0.370986,1.1754087 -0.45033,1.1754087 -0.01512,0 -0.03584,-0.04947 -0.04605,-0.109945 z"/>
</svg>
