<svg xmlns="http://www.w3.org/2000/svg" width="16" height="16" version="1">
 <path style="fill:#b2bfd9;fill-rule:evenodd" d="m 16,8.0000062 c 0,4.4182778 -3.581722,7.9999998 -8.0000002,7.9999998 -0.2608564,0 -0.070145,-0.734898 -0.2962777,-0.759833 C 5.0622761,14.948914 4.2296035,13.72032 3.1076283,11.082814 2.698773,10.121689 0.77989605,8.9948331 0.77989605,7.884466 0.77989605,7.6094838 0.01387383,7.4532821 0.04095961,7.1854425 0.44907471,3.1497678 3.8567041,6.2799999e-6 7.9999998,6.2799999e-6 8.1735869,6.2799999e-6 8.0508276,0.64673327 8.2102857,0.66812863 9.9725791,0.90458501 11.213575,1.7439865 12.5208,2.9495127 14.105904,4.4112994 16,5.6737582 16,8.0000062 Z"/>
 <path style="fill:#4f4f4f;fill-rule:evenodd" d="m 8.0000258,-5.9199998e-6 0,6.0000061199998 c 2.8895752,0 5.6000832,0.3232164 7.9404902,1.1094908 C 15.487482,3.0648379 12.069968,0.00497628 8.0000258,-5.9199998e-6 Z"/>
 <path style="fill:#4f4f4f;fill-rule:evenodd" d="m 8.0000258,6.0000002 c -2.8920088,0 -5.6047186,0.3239404 -7.946472,1.111444 -0.0343196,0.2949604 -0.05218996,0.5916024 -0.0535278,0.8885496 0,4.4182782 3.581721900001,8.0000002 7.999999800001,8.0000002 z"/>
</svg>
