<svg xmlns="http://www.w3.org/2000/svg" width="16" height="16" version="1.1">
 <path style="fill:#bcc5ca" d="M 9,13.426575 H 8 V 11.38112 h 1 z"/>
 <path style="fill:#bcc5ca" d="m 1.3455408,14.00005 a 0.3407226,0.5 0 1 0 0,0.9999 H 15.654459 a 0.3407226,0.5 0 1 0 0,-0.9999 z"/>
 <rect style="fill:#a0aab0" width="5" height="3" x="6" y="13" ry=".6"/>
 <path style="fill:#dadfe1" d="m 2,8 v 3.090169 C 2,11.59434 2.4461088,12 3.0001085,12 H 13.999891 C 14.553891,12 15,11.59434 15,11.090169 V 8 Z"/>
 <path style="fill:#f4f4f7" d="M 2,7.9166665 V 8.1296658 C 2,8.611748 2.4461088,9 3.0001085,9 H 13.999891 C 14.553891,9 15,8.611748 15,8.1296658 V 7.9166665 Z"/>
 <path style="fill:#00aade" d="M 2.9999996,0 C 2.4459998,0 2,0.383334 2,0.8594929 V 8 H 14.999993 V 0.8594929 C 14.999993,0.383334 14.553993,0 13.999994,0 Z"/>
 <circle style="fill:#5eb904" cx="6.5" cy="10.5" r=".5"/>
 <path style="fill:#f4f4f7" d="M 9.2499998,1 A 1.5,1.4285715 0 0 0 7.7756345,2.1739675 1.6874999,1.6071429 0 0 0 7.1874998,2.0714285 1.6874999,1.6071429 0 0 0 5.4999999,3.6785714 1.6874999,1.6071429 0 0 0 5.5219727,3.9275951 1.125,1.0714286 0 0 0 5.1249999,3.8571429 1.125,1.0714286 0 0 0 4,4.9285714 1.125,1.0714286 0 0 0 5.1249999,6 H 12.25 V 5.980468 A 0.93749997,0.89285715 0 0 0 13,5.107143 0.93749997,0.89285715 0 0 0 12.062499,4.2142858 0.93749997,0.89285715 0 0 0 11.874267,4.2338178 1.5,1.4285715 0 0 0 11.875,4.2142858 1.5,1.4285715 0 0 0 10.692138,2.818499 1.5,1.4285715 0 0 0 10.749998,2.4285715 1.5,1.4285715 0 0 0 9.2499986,1.0000001 Z"/>
 <circle style="fill:#5eb904" cx="8.5" cy="10.5" r=".5"/>
 <circle style="fill:#e6461d" cx="10.5" cy="10.5" r=".5"/>
</svg>
