<svg xmlns="http://www.w3.org/2000/svg" width="16" height="16" version="1">
 <path style="fill:#4f4f4f" d="M 9.2490088,2.3263529 C 8.355158,2.3854486 7.5454376,2.4657988 6.7316615,2.8518675 5.0016821,3.7935928 4.3366273,5.045273 3.7828603,6.6303528 3.7495027,6.7155422 3.6335305,6.7554545 3.5976433,6.8321896 3.2780552,7.5155423 2.8392473,7.8839456 1.9443369,8.2987402 1.3918412,8.5545609 0.78843803,8.8358226 0.29023387,9.2538795 -0.19148353,9.5388511 -0.01534836,9.985567 0.39505742,10 l 3.51262318,0 c 0.052113,0.221843 0.241727,0.511537 0.2997822,0.749835 0.2673677,1.136721 0.3368669,2.036545 -0.3249408,2.892403 -0.2910994,0.376671 -0.1687861,1.107411 0.2871607,1.203749 0,0 1.6649084,0.09036 2.5286444,-0.02093 3.2766593,-0.459596 8.8052899,-2.882394 8.8052899,-2.882394 0.355704,-0.140302 0.34441,-0.372307 0.157385,-0.716193 C 14.610935,9.6611997 13.781631,7.9741363 12.613594,6.6320188 12.485835,6.4841117 12.204776,6.4330402 12.084834,6.2486037 11.996327,6.1125061 12.063681,5.8480459 11.993871,5.7058398 11.710885,5.1293876 11.631883,4.5508267 12.165268,4.3599453 l 0.526135,-0.056322 C 13.276192,4.076599 13.340525,3.6902712 13.111377,3.2524328 12.860982,2.8714696 12.45059,2.684546 12.047892,2.5514559 11.887411,2.4984176 11.74175,2.521919 11.594326,2.4771061 10.875478,2.2596016 10.007034,2.3330887 9.2490088,2.3263529 Z"/>
 <path style="fill:#3f83d0" d="M 9.290105,1.9999999 C 8.3962542,2.0590956 7.4774138,2.3024555 6.6636378,2.6885242 5.5992127,3.2679508 4.9343277,4.0123902 4.4501136,4.8676065 c 0,0 1.4825498,0.5735213 2.2998329,0.5735213 1.0662483,0 2.3088986,-0.279241 2.6688775,-0.3651717 C 9.5496077,4.8722088 9.7014263,4.6823209 9.8845944,4.5106491 10.735602,3.8324342 10.846226,3.8635519 11.830263,3.3867565 11.979071,3.3146545 12.194714,2.8183875 12.12416,2.5832293 11.937801,2.5182365 11.752079,2.4612319 11.581009,2.4092313 10.862161,2.1917268 10.04813,2.0067358 9.290105,1.9999999 Z m 2.852656,0.5899504 c -0.0186,-0.00672 0,0 0,0 z M 11.961959,5.6323016 C 11.12878,7.1044023 10.449324,8.4901705 9.486532,9.6238007 9.4340276,10.222897 9.3617402,10.79098 9.253647,11.242804 c -0.2939809,1.228819 -1.5379345,3.462784 -1.5379345,3.462784 3.3211005,-0.737795 7.8831225,-2.55919 7.8831225,-2.55919 0.355704,-0.140303 0.507707,-0.576137 0.320681,-0.920023 C 14.86945,9.6611083 13.781776,7.9743473 12.613739,6.6322298 12.375323,6.3562135 12.127127,5.9916016 11.961959,5.6323016 Z M 7.7157125,14.705588 Z"/>
 <path style="fill:#f4f4f7" d="M 4.4426729,4.8803016 C 4.1434471,5.411471 3.9129522,5.9847197 3.7016076,6.5896639 3.5287815,6.9293663 3.4205523,7.3328186 3.4285442,7.7121594 3.4650696,8.4924799 3.6214044,9.3460153 3.8496719,10.029298 l 0.020087,0 c 0.1611911,0.658426 0.2959752,1.277173 0.3310998,1.931936 l -0.010416,7.65e-4 c 0.030705,0.646909 -0.2303307,1.205703 -0.5498486,1.693679 -0.042189,0.05459 -0.075405,0.121088 -0.103422,0.191921 -0.00784,0.01984 -0.01339,0.04124 -0.020087,0.06198 -0.016609,0.05144 -0.029943,0.104616 -0.039434,0.159809 -0.0049,0.02862 -0.00896,0.05752 -0.011905,0.08663 -0.00546,0.05415 -0.00735,0.10869 -0.00595,0.162796 6.476e-4,0.02473 1.23e-4,0.04955 0.00225,0.07393 0.00683,0.07883 0.019265,0.155893 0.041666,0.226272 l 0,7.65e-4 c 0.017512,0.05497 0.041176,0.104258 0.068452,0.150101 0.00766,0.01286 0.016857,0.02388 0.025299,0.03585 0.023093,0.03275 0.04911,0.06165 0.078125,0.08663 0.010644,0.0091 0.021288,0.01818 0.032739,0.02614 0.041177,0.02863 0.085893,0.05254 0.1376477,0.06348 0,0 1.7843085,0.0635 2.6480445,-0.04779 0.1950667,-0.02736 0.4009648,-0.06259 0.6123464,-0.102307 9.905e-4,-1.85e-4 0.00202,-5.74e-4 0.00297,-7.65e-4 0.1967581,-0.03741 0.39935,-0.07946 0.6063941,-0.125458 0,0 1.2439535,-2.233965 1.5379344,-3.462784 C 9.3617513,10.791034 9.4340387,10.22295 9.486543,9.6238539 8.8279818,10.399271 8.5385182,10.558121 7.4713993,11.041039 c -0.036832,0.01162 -0.075217,0.01772 -0.1138493,0.01787 -0.2103927,0 -0.3809494,-0.171182 -0.3809494,-0.382347 C 6.9554922,10.500028 7.2258535,10.330505 7.4713883,10.091091 9.1933804,8.336615 8.4601516,6.5694671 9.418824,5.0759561 9.0588451,5.1618868 7.8161948,5.4411278 6.7499465,5.4411278 c -0.628264,0 -1.793731,-0.3815687 -2.3072736,-0.5608262 z"/>
 <circle style="fill:#17191e" cx="7" cy="7" r="1"/>
</svg>
