<svg xmlns="http://www.w3.org/2000/svg" width="16" height="16" version="1">
 <path fill="#4f4f4f" d="m4 1c-2.216 0-4 1.784-4 4l0.0078125 1.9102c-0.0008522 0.0304-0.0078125 0.0591-0.0078125 0.0898 0 0.0261 0.0073196 0.0502 0.0078125 0.0762l0.021484 6.0668c-0.25174 1.482 1.1865 2.419 2.3945 0.798l2.1289-2.941h6.8943l2.129 2.941c1.208 1.621 2.646 0.684 2.395-0.798l0.021-6.0668c0.001-0.026 0.008-0.0501 0.008-0.0762 0-0.0241-0.007-0.0463-0.008-0.0703l0.008-1.9297c0-2.216-1.784-4-4-4h-8z"/>
 <g fill="#b2bfd9">
  <rect width="2" height="4" x="3" y="3" ry="0"/>
  <rect width="2" height="4" x="4" y="2" ry="0" transform="matrix(0,1,1,0,0,0)"/>
 </g>
 <path fill="#ee5353" d="m12.023 2.8051a0.75 0.75 0 0 0 -0.75 0.75 0.75 0.75 0 0 0 0.75 0.75 0.75 0.75 0 0 0 0.75 -0.75 0.75 0.75 0 0 0 -0.75 -0.75z"/>
 <path fill="#ffca58" d="m13.46 4.2113a0.75 0.75 0 0 0 -0.75 0.75 0.75 0.75 0 0 0 0.75 0.75 0.75 0.75 0 0 0 0.75 -0.75 0.75 0.75 0 0 0 -0.75 -0.75z"/>
 <path fill="#ee5353" d="m10.5 4.2426a0.75 0.75 0 0 0 -0.75 0.75 0.75 0.75 0 0 0 0.75 0.75 0.75 0.75 0 0 0 0.75 -0.75 0.75 0.75 0 0 0 -0.75 -0.75z"/>
 <path fill="#ffca58" d="m12.024 5.7192a0.75 0.75 0 0 0 -0.75 0.75 0.75 0.75 0 0 0 0.75 0.75 0.75 0.75 0 0 0 0.75 -0.75 0.75 0.75 0 0 0 -0.75 -0.75z"/>
</svg>
