<svg xmlns="http://www.w3.org/2000/svg" width="16" height="16" version="1">
 <rect style="fill:#4f4f4f" width="16" height="16" x="0" y="0" rx=".857" ry=".857"/>
 <path style="fill:none;stroke:#000000;stroke-width:0.5;opacity:0.3" d="M 3,12.3 H 8.3 V 8.2 H 13"/>
 <circle style="fill:#f4f4f7" cx="3" cy="12" r="1"/>
 <circle style="fill:#f4f4f7" cx="8" cy="12" r="1"/>
 <path style="fill:none;stroke:#000000;stroke-width:0.5;opacity:0.3" d="M 8.3,4 V 8"/>
 <circle style="fill:#f4f4f7" cx="8" cy="8" r="1"/>
 <circle style="fill:#f4f4f7" cx="13" cy="8" r="1"/>
 <circle style="fill:#f4f4f7" cx="8" cy="4" r="1"/>
</svg>
