<svg xmlns="http://www.w3.org/2000/svg" width="16" height="16" version="1">
 <rect style="fill:#4f4f4f" width="13" height="16" x="-14" y="-16" rx=".813" ry=".8" transform="matrix(0,-1,-1,0,0,0)"/>
 <rect style="fill:#f4f4f7" width="8" height="11" x="4" y="2"/>
 <rect style="fill:#f4f4f7" width="7" height="14" x="4" y="-15" transform="rotate(90)"/>
 <path style="fill:#17191e" d="M 3.8439562,4.9999995 H 4.6879123 V 10.571428 H 3.8439562 Z"/>
 <path style="fill:#17191e" transform="rotate(90)" d="M 10.142858,-5.5318685 H 11 V -3 h -0.857142 z"/>
 <path style="fill:#17191e" transform="rotate(90)" d="m 4.9999995,-4.6879125 h 0.8571429 v 1.6879123 H 4.9999995 Z"/>
 <path style="fill:#17191e" d="M 5.7428575,4.9999999 A 1.8989012,1.9285715 0 0 0 3.8439563,6.9285714 1.8989012,1.9285715 0 0 0 5.7428575,8.8571429 1.8989012,1.9285715 0 0 0 7.6417586,6.9285714 1.8989012,1.9285715 0 0 0 5.7428575,4.9999999 Z m 0,0.8228237 A 1.0549451,1.0714286 0 0 1 6.7978026,6.8942522 1.0549451,1.0714286 0 0 1 5.7428575,7.9656808 1.0549451,1.0714286 0 0 1 4.6879124,6.8942522 1.0549451,1.0714286 0 0 1 5.7428575,5.8228236 Z"/>
 <path style="fill:#17191e" transform="scale(-1)" d="m -11.797802,-9 h 0.843956 v 5.5714283 h -0.843956 z"/>
 <path style="fill:#17191e" transform="rotate(-90)" d="m -3.857142,10.10989 h 0.8571429 v 1.691452 H -3.857142 Z"/>
 <path style="fill:#17191e" transform="rotate(-90)" d="m -9,10.953846 h 0.8571429 v 1.687912 H -9 Z"/>
 <path style="fill:#17191e" d="M 9.8989011,8.9999997 A 1.8989012,1.9285715 0 0 0 11.797802,7.0714282 1.8989012,1.9285715 0 0 0 9.8989011,5.1428567 1.8989012,1.9285715 0 0 0 8,7.0714282 1.8989012,1.9285715 0 0 0 9.8989011,8.9999997 Z m 0,-0.8228237 A 1.0549451,1.0714286 0 0 1 8.843956,7.1057474 1.0549451,1.0714286 0 0 1 9.8989011,6.0343188 1.0549451,1.0714286 0 0 1 10.953846,7.1057474 1.0549451,1.0714286 0 0 1 9.8989011,8.177176 Z"/>
</svg>
