<svg xmlns="http://www.w3.org/2000/svg" width="16" height="16" version="1.1">
 <circle style="fill:#005cc0" cx="8" cy="8" r="6"/>
 <circle style="fill:#0179ff" cx="8" cy="8" r="5"/>
 <circle style="fill:#419cff" cx="8" cy="8" r="4"/>
 <path style="fill:#bb7739" d="M 9.960937,3.0641928 3.612926,6.7100912 7.1164768,12.735742 13.920454,8.8284508 c 2.6e-5,-2.387e-4 -2.6e-5,-4.767e-4 0,-7.334e-4 C 14.221377,6.0490832 13.198646,3.5209748 9.9616472,3.0641755 Z"/>
 <path style="fill:#4f4f4f" d="M 3.5268635,12.911372 C 3.9572198,11.340623 3.4810305,10.192002 1.6184957,9.6888268 0.9753924,10.685901 0.36228387,11.686435 0.10619072,12.255242 c -0.19648461,0.492491 -0.13590047,0.658316 0.31343108,0.707854 2.7959591,0.106722 3.1073518,-0.052 3.1072417,-0.05173 z"/>
 <path style="fill:#e4af64" d="M 1.5808856,9.677238 3.6130569,6.7100274 c 3.5793621,0.180154 4.8736715,3.5455446 3.503305,6.0256216 L 3.5269736,12.911096 C 3.9603485,11.32933 3.4761186,10.174801 1.5808856,9.677238 Z"/>
 <path style="fill:#e15c7d" d="M 12.556528,2.0009173 C 11.936474,1.9854385 11.517219,2.1709724 11.517219,2.1709724 L 9.9607487,3.0644704 C 13.198591,3.5210368 14.221864,6.0495096 13.920666,8.8286307 L 14.86737,8.2844545 c 0,0 2.071207,-1.5025413 0.611903,-4.4065535 C 14.483087,2.3730507 13.353742,2.0208188 12.556528,2.0009173 Z"/>
 <path style="fill:#b2bfs9" d="M 9.9607487,3.0644704 7.5758233,4.4341229 c 3.7775257,-0.028941 4.7998027,3.781172 3.4427557,6.0603401 l 2.902087,-1.6658323 c 2.5e-5,-2.36e-4 -2.6e-5,-4.766e-4 0,-7.332e-4 0.300947,-2.7788421 -0.722349,-5.3069241 -3.9599173,-5.763452 z"/>
 <path style="opacity:0.3" d="M 9.6115054,3.2647137 9.0994316,3.5590494 A 4.3636362,4.4000001 0 0 1 12.904119,7.9182293 4.3636362,4.4000001 0 0 1 12.566051,9.6061848 L 13.06321,9.320443 A 4.7272726,4.7666669 0 0 0 13.28125,7.9046227 4.7272726,4.7666669 0 0 0 9.6115054,3.2647137 Z M 8.8146302,3.723047 8.3068178,4.0145184 A 4.3636362,4.4000001 0 0 1 12.075994,8.3679691 4.3636362,4.4000001 0 0 1 11.725852,10.088151 L 12.223011,9.8024095 A 4.7272726,4.7666669 0 0 0 12.453125,8.3543621 4.7272726,4.7666669 0 0 0 8.8146302,3.723047 Z"/>
</svg>
