<svg xmlns="http://www.w3.org/2000/svg" width="16" height="16" version="1">
 <rect style="fill:#6e85e9" width="16" height="16" x="0" y="0" rx=".8" ry=".8"/>
 <path style="fill:#17191e;fill-rule:evenodd" d="m 9.1145408,3.9998784 -0.5,0.3644808 L 7.5414878,4.8654944 7.2596702,5.1570496 7.0414894,5.3210644 6.9960346,5.7037548 7.0869426,5.9042004 7.1725114,6.5908085 7.4816022,7.1921661 7.8179654,7.6204177 7.490908,8.4860129 6.8909088,9.7798593 6.527272,10.362991 6.016436,11.101024 5.989164,11.438145 5.6,11.729722 6.0727276,12.157973 5.9944726,12.668221 6.0399266,13.749448 6.218181,15.052387 6.3999992,16 8.370728,16 8.2434548,15.96355 l 0.163636,-0.145788 -0.027272,-0.410026 0.1727268,-0.355347 -0.145454,0.01815 0.2236712,-0.45557 0,-0.45559 0.1727276,-0.236898 0,-0.309782 0.3545448,-0.443417 0.027276,-0.410025 -0.072727,-0.337122 0.1237824,-0.382686 0.1909096,-0.309802 0,-0.191332 0.2181812,-0.02734 0.1909088,-0.191354 0.1727278,-0.482909 0.381817,-0.428251 0.454545,-0.173107 0.281819,0.246011 0.7,0.209559 0.554545,0.291576 0.263635,0.337121 0.454546,0.04556 1.436363,0.628697 0.736364,0.264238 0.599998,0.45557 L 16,12.677239 l 0,-0.173108 -0.318182,-0.24601 0.318182,0.082 0,-0.683354 -0.05454,0 -0.281819,-0.11847 -0.19091,-0.100223 0.281819,-0.236898 0.07273,-0.173107 -0.04546,-0.118469 -0.263634,0.04556 -0.554546,0.291576 -0.07273,0.145789 -0.19091,-0.04556 -0.690908,-0.391799 -0.02727,-0.264237 -0.409092,-0.209559 -0.690908,-0.36446 -0.172727,0.118449 0.02728,-0.164014 -0.381818,-0.3644603 -0.336364,-0.09111 -0.309091,-0.36446 -0.1,-0.1184492 0.309091,0.2186716 -0.04546,-0.2460108 0.245454,0.1275624 -0.07273,-0.3644604 0.336364,0.3097816 -0.145455,-0.2095588 0.336364,0.1366752 -0.290909,-0.4009124 0.218182,0.072884 -0.1,-0.3917788 0.172727,0.145768 -0.245454,-0.3553472 0.245454,0.072904 -0.218181,-0.2915764 0.290908,-0.02734 -0.318181,-0.1913328 0.190908,-0.09113 -0.20909,-0.027336 0.281818,-0.2642368 -0.263636,0.027336 0.02728,-0.1731068 0.02727,-0.4737964 -0.145456,0.3280084 -0.172726,-0.4737964 0.02727,0.3826868 -0.100001,0.027336 -0.236363,0 -0.263637,-0.3917992 -0.263635,0 -0.309092,-0.2642376 -0.145454,0.1457884 -0.363636,0.1258296 -0.352589,0 -0.1,0.2368984 0.1,0.3844184 -0.05455,0.2824428 L 9.7656004,7.3834409 9.5746912,7.0189605 9.0454624,6.9278509 8.881826,6.7547437 8.5181896,6.5907297 8.2689856,5.8767824 8.2962616,5.5670008 8.9054632,4.7925116 9.37819,5.0111836 l 0.072727,0.164014 0,0.2004496 0.1272736,0.164014 0.2363626,0.072884 0.163636,-0.145788 0.02727,-0.1639976 -0.07273,-0.1457884 -0.145455,-0.072884 -0.09091,-0.1184488 0.209091,-0.1002228 -0.04546,-0.236918 0,-0.145768 -0.145465,-0.145788 -0.07273,-0.2186724 -0.2818174,-0.063791 -0.245454,-0.054678 z"/>
</svg>
