<svg width="16" height="16" version="1.1" xmlns="http://www.w3.org/2000/svg">
 <path d="m3 10s0 5 2 5c1 0 2-1 3-1s2.029319 1 3 1c2 0 2-5 2-5z" style="fill:#4f4f4f"/>
 <path d="m6 1c-2.0000002 0-3 5-3 5v0.1632812c-2.0118097 0.5280991-2.9970518 0.9565536-3 1.8367192 6.311825e-7 1.5463971 3.5817225 2.9999996 8 2.9999996 4.418278 0 7.999999-1.4536025 8-2.9999996-0.0036-0.8798906-0.988817-1.308004-3-1.835938v-0.1640624s-1-5-3-5c-0.8 0-1.2 1-2 1s-1.2-1-2-1z" style="fill:#4ea9fa"/>
 <path d="m4 11s0.4 2 1.2 2c1.2 0 1.8-0.5 1.8-0.5zm8 0-3 1.5s0.6 0.5 1.8 0.5c0.8 0 1.2-2 1.2-2z" style="fill:#f4f4f7"/>
 <path d="m3 6s0.9999998 1 5 1c4 0 5-1 5-1v1s-1.4 1.0000004-5 1.0000004-5-1.0000004-5-1.0000004z" style="fill:#f4f4f7"/>
</svg>
