<svg xmlns="http://www.w3.org/2000/svg" width="16" height="16" version="1">
 <circle style="fill:#546e7a" cx="8" cy="8" r="8"/>
 <path style="fill:#768b95" d="m 8.5240296,2.0000711 c -0.1036492,-6e-4 -0.1437963,0.081562 -0.3540708,0.7215342 L 7.9606972,3.3577608 7.6417826,3.3862233 c -0.1756391,0.01587 -0.3784638,0.041142 -0.4503311,0.056082 -0.095013,0.01974 -0.139281,0.020186 -0.162387,8.625e-4 C 7.0115965,3.4286478 6.8634938,3.1885898 6.7001052,2.909967 6.37358,2.3531508 6.3072762,2.263767 6.2154556,2.263767 c -0.096496,0 -0.743086,0.257526 -0.7901721,0.3147295 -0.023104,0.02808 -0.041404,0.085745 -0.041014,0.1272311 2.996e-4,0.041485 0.058393,0.3451153 0.1289055,0.6754966 0.070516,0.3303844 0.1239937,0.6120592 0.1188604,0.6252742 -0.00513,0.0132 -0.081882,0.06856 -0.1707574,0.1238824 C 5.372403,4.1857038 5.2107747,4.3022871 5.1030218,4.3890284 4.9952734,4.4757694 4.8970921,4.54723 4.8845528,4.54723 4.8720208,4.54723 4.6201306,4.410358 4.3245687,4.2433821 3.7168455,3.9000561 3.6879315,3.8868145 3.6021975,3.9194455 3.5095703,3.9546992 3.0547696,4.5318114 3.0547696,4.6141936 c 0,0.089286 0.021994,0.1170938 0.4854865,0.6328076 0.2215969,0.2465557 0.4026195,0.4658433 0.4026195,0.4871609 0,0.0213 -0.046378,0.133233 -0.1037936,0.2486029 -0.057417,0.1153702 -0.1341409,0.2876831 -0.1699207,0.3825303 -0.035783,0.094844 -0.078254,0.1831369 -0.094586,0.1967059 -0.018248,0.01518 -0.2855246,0.027424 -0.6939112,0.031808 -0.8193382,0.00879 -0.7472535,-0.030664 -0.8244915,0.4570271 -0.02991,0.1888987 -0.055348,0.3719272 -0.056081,0.4068048 -0.0027,0.1299379 0.052239,0.1587832 0.7190227,0.3783453 l 0.6353177,0.2092611 0.027623,0.3113809 c 0.015491,0.1715328 0.040165,0.3756832 0.054408,0.4528424 0.014261,0.077162 0.019774,0.14982 0.012555,0.16155 -0.00726,0.01173 -0.2528261,0.1629379 -0.5457539,0.3364927 -0.2929302,0.1735575 -0.5562282,0.3421889 -0.585933,0.3741599 -0.0297,0.03198 -0.054408,0.08648 -0.054408,0.121371 0,0.102063 0.2617893,0.7461806 0.3197519,0.7868246 0.075778,0.05313 0.1412063,0.04527 0.7960317,-0.09459 0.3299054,-0.07046 0.6110977,-0.122872 0.6244364,-0.117187 0.013331,0.0057 0.069347,0.08226 0.1247201,0.170757 0.055371,0.08849 0.1725191,0.250497 0.2603216,0.35993 0.1092476,0.136166 0.1544854,0.21197 0.1439719,0.239395 -0.00846,0.02205 -0.1437139,0.269002 -0.3013369,0.549103 -0.3230669,0.574111 -0.3416654,0.614037 -0.3205889,0.698096 0.021548,0.08597 0.6157413,0.561038 0.7014453,0.560822 0.088395,-2.22e-4 0.1307306,-0.03253 0.6261108,-0.480465 0.2411531,-0.218053 0.4565662,-0.399614 0.4787906,-0.403457 0.022234,-0.0038 0.1369053,0.04098 0.2552992,0.09961 0.1183935,0.05863 0.2994693,0.136303 0.4017821,0.172432 0.1023123,0.03612 0.1882394,0.06704 0.1908468,0.06864 0.0027,0.0015 0.010271,0.313476 0.01758,0.693075 0.016298,0.847718 -0.022376,0.773769 0.4511681,0.850439 0.3558438,0.05761 0.4961917,0.058 0.5532877,8.62e-4 0.019897,-0.01992 0.1293168,-0.320976 0.2435808,-0.6688 l 0.2075876,-0.63197 0.2393948,-0.01841 c 0.1313583,-0.01011 0.3356999,-0.03486 0.4545164,-0.05441 0.2150842,-0.03539 0.2166315,-0.03528 0.2611586,0.01841 0.024604,0.02967 0.1775497,0.280788 0.3406781,0.558309 0.1631272,0.277523 0.3199481,0.524302 0.3482111,0.547429 0.077391,0.06333 0.1326401,0.05319 0.5064136,-0.08956 0.356461,-0.136144 0.427971,-0.185858 0.427731,-0.297989 -7.2e-5,-0.03488 -0.05841,-0.338604 -0.129743,-0.675496 -0.07133,-0.336891 -0.124335,-0.621746 -0.118023,-0.63197 0.0063,-0.01023 0.08851,-0.07069 0.183314,-0.134765 0.0948,-0.06408 0.253385,-0.18261 0.352395,-0.263669 0.09901,-0.08106 0.19042,-0.147304 0.202566,-0.147319 0.01214,-1.9e-5 0.271197,0.139035 0.575888,0.308869 0.622896,0.347196 0.619053,0.345476 0.701445,0.324774 0.08767,-0.02202 0.560821,-0.617332 0.560821,-0.70563 0,-0.0826 -0.01998,-0.10828 -0.491346,-0.633644 -0.211626,-0.235871 -0.388517,-0.448182 -0.392575,-0.472094 -0.0041,-0.02391 0.03674,-0.130884 0.0904,-0.237722 0.05366,-0.1068376 0.13026,-0.2783346 0.170756,-0.3808556 0.0405,-0.1025214 0.08424,-0.1968838 0.0971,-0.2100988 0.01391,-0.01428 0.29526,-0.028841 0.693912,-0.035992 0.639564,-0.01146 0.672882,-0.014857 0.720696,-0.062779 0.03924,-0.03933 0.06245,-0.1279031 0.10798,-0.4084788 0.03198,-0.1970385 0.05841,-0.3810469 0.05859,-0.4093159 9e-4,-0.1142148 -0.06781,-0.1491277 -0.719859,-0.3657888 L 12.643977,7.9674268 12.61719,7.6568826 C 12.6023,7.4861001 12.57828,7.2823967 12.56362,7.2048771 12.54897,7.1273581 12.54288,7.0543791 12.55023,7.0424905 c 0.0073,-0.01188 0.252923,-0.1633462 0.545754,-0.3364927 0.292832,-0.1731465 0.55623,-0.3410973 0.585932,-0.373323 0.0297,-0.032224 0.05441,-0.085846 0.05441,-0.1188607 0,-0.094676 -0.257897,-0.7372818 -0.31473,-0.7843124 -0.07221,-0.059751 -0.121556,-0.054658 -0.695586,0.067801 -0.673996,0.1437885 -0.710227,0.1502111 -0.734927,0.1330905 -0.01157,-0.00801 -0.07314,-0.093026 -0.136438,-0.1891725 -0.06331,-0.096146 -0.179026,-0.2527344 -0.256983,-0.3482116 -0.07796,-0.095474 -0.141443,-0.1839319 -0.141461,-0.1958689 -1.5e-5,-0.01194 0.139466,-0.2706555 0.309707,-0.5758878 0.17024,-0.305229 0.315622,-0.5780325 0.323937,-0.6060221 0.02877,-0.096821 -0.03125,-0.1719251 -0.333144,-0.4143382 -0.321733,-0.2583427 -0.378118,-0.2822475 -0.493021,-0.2034018 -0.03264,0.02241 -0.261667,0.2223862 -0.508086,0.4444713 -0.246422,0.2220851 -0.46515,0.4042938 -0.486325,0.4042938 -0.02119,0 -0.132516,-0.047726 -0.247766,-0.105468 C 9.9062598,3.7830448 9.7415326,3.7117521 9.6557203,3.6817435 9.4043177,3.5938262 9.4155872,3.6304304 9.4154882,2.9041274 9.4154072,2.3267611 9.4118507,2.2698486 9.3694506,2.2001711 9.3416406,2.154509 9.2964298,2.1192743 9.2556126,2.1106043 9.1518842,2.0885416 8.5685594,2.0003591 8.5240296,2.0000711 Z"/>
 <path style="fill:#f4f4f7" d="m 7,5 h 2 v 3 h 1.625 L 8,11 5.375,8 H 7 Z"/>
</svg>
