<svg xmlns="http://www.w3.org/2000/svg" width="16" height="16" version="1">
 <rect style="fill:#b87425" width="15" height="15" x="-16" y="1" rx="7.5" ry="7.5" transform="rotate(-90)"/>
 <path style="fill:#f4f4f7" d="M 8,4.9999 A 3,3 0 0 1 11,7.9999 3,3 0 0 1 8,11 3,3 0 0 1 5,7.9999 3,3 0 0 1 8,4.9999 Z M 8,5.9999 A 2,2 0 0 0 6,7.9999 2,2 0 0 0 8,9.9999 2,2 0 0 0 10,7.9999 2,2 0 0 0 8,5.9999 Z"/>
 <path style="fill:none;stroke:#f4f4f7;stroke-width:1px;stroke-linecap:round" d="M 12,12 10,9.9999"/>
</svg>
