<svg xmlns="http://www.w3.org/2000/svg" width="16" height="16" version="1">
 <rect style="fill:#3c94e7" width="13" height="13" x="2" y="1" rx="1.444" ry="1.444"/>
 <rect style="fill:#4f4f4f" width="15" height="3" x="1" y="12" rx=".682" ry=".75"/>
 <path style="fill:#f4f4f7" d="M 9.7008757,11 H 7.2991276 c -0.165714,0 -0.2991277,0.133411 -0.2991277,0.299127 v 2.401745 C 6.9999999,13.866588 7.1334136,14 7.2991276,14 h 2.4017481 c 0.1657185,0 0.2991303,-0.133412 0.2991303,-0.299128 V 11.299127 C 10.000006,11.133411 9.8665942,11 9.7008757,11 Z"/>
 <path style="fill:#f4f4f7" d="M 13.70087,11.000006 H 11.299127 C 11.133414,11.000006 11,11.133417 11,11.299133 v 2.401739 C 11,13.866588 11.133414,14 11.299127,14 H 13.70087 C 13.866588,14 14,13.866588 14,13.700872 v -2.401739 c 0,-0.165716 -0.133412,-0.299127 -0.29913,-0.299127 z"/>
 <path style="fill:#f4f4f7" d="M 5.7008706,11.000006 H 3.2991271 c -0.1657137,0 -0.2991272,0.13341 -0.2991272,0.299127 v 2.401739 C 2.9999999,13.866588 3.1334134,14 3.2991271,14 h 2.4017435 c 0.1657181,0 0.2991293,-0.133412 0.2991293,-0.299128 v -2.401739 c 0,-0.165717 -0.1334112,-0.299127 -0.2991293,-0.299127 z"/>
 <path style="opacity:0.32" d="m 8.4997817,2.0176542 c -0.6024727,0 -1.0909091,0.4884363 -1.0909091,1.090909 3.455e-4,0.462 0.2916873,0.8737091 0.7272728,1.0277091 V 5.0263636 H 7 v 0.7272727 h 1.1361454 v 2.8095451 c 0,0.3636363 -0.5008728,0.5790181 -0.7403637,0.5476363 C 6.3222908,8.9701268 5.3512545,8.7387814 4.8500181,8.2741268 L 5.5855818,8.3110359 4.9584545,7.7265268 4.3313272,7.1420177 C 4.0946,7.6776541 4.0666,8.2096541 4.0364182,8.7820177 l 0.388509,-0.3828363 c 0.1869091,0.7698181 2.8348545,1.254909 3.1948545,1.5716363 l 0.88,0.7741823 0.8792727,-0.773455 C 9.739782,9.6540904 12.387999,9.167545 12.571999,8.3969995 l 0.391273,0.3850909 c 0,-0.5825454 -0.126909,-1.0927272 -0.294909,-1.6399999 l -0.626909,0.5843636 -0.532727,0.5847273 0.642545,-0.037091 c -0.5,0.462909 -1.46749,0.6956363 -2.536945,0.8367272 -0.2425453,0.032 -0.7509089,-0.184 -0.7509089,-0.5476363 V 5.7536363 H 10 V 5.0263636 H 8.8634181 V 4.1356178 c 0.4352727,-0.1538182 0.726545,-0.5650909 0.727273,-1.0269091 0,-0.6025455 -0.4883639,-1.0909091 -1.0909094,-1.0909091 z m 0,0.7272727 c 0.2008291,0 0.3636364,0.1628 0.3636364,0.3636363 0,0.2008364 -0.1628073,0.3636364 -0.3636364,0.3636364 -0.2008291,0 -0.3636363,-0.1628 -0.3636363,-0.3636364 0,-0.2008363 0.1628072,-0.3636363 0.3636363,-0.3636363 z"/>
</svg>
