<svg xmlns="http://www.w3.org/2000/svg" width="16" height="16" version="1">
 <rect style="fill:#17191e" width="16" height="16" x="0" y="0" rx=".8" ry=".8"/>
 <path style="fill:#3ffe3f" d="M 1.8007812 2 C 1.3575812 2 1 2.3825647 1 2.8574219 L 1 8.1425781 C 1 8.6174353 1.3575813 9 1.8007812 9 L 11.199219 9 C 11.642419 9 12 8.6174353 12 8.1425781 L 12 2.8574219 C 12 2.3825647 11.642419 2 11.199219 2 L 1.8007812 2 z M 2 3 L 11 3 L 11 8 L 2 8 L 2 3 z M 3 4 L 3 5 L 4 5 L 4 4 L 3 4 z M 5 4 L 5 5 L 6 5 L 6 4 L 5 4 z M 7 4 L 7 5 L 8 5 L 8 4 L 7 4 z M 9 4 L 9 5 L 10 5 L 10 4 L 9 4 z M 3 6 L 3 7 L 4 7 L 4 6 L 3 6 z M 5 6 L 5 7 L 6 7 L 6 6 L 5 6 z M 7 6 L 7 7 L 8 7 L 8 6 L 7 6 z M 9 6 L 9 7 L 10 7 L 10 6 L 9 6 z"/>
 <path style="fill:#3ffe3f" d="m 7.8206602,11.097202 c -0.663208,-0.328317 -1.7325464,0.201673 -2.3973092,1.188932 -0.6647624,0.987261 -0.5323472,2.112172 0.2966632,2.522569 l 0.084756,0.04196 c 0.82901,0.410396 2.0313896,-0.05373 2.696152,-1.040993 0.6647624,-0.98726 0.6653892,-2.04631 0.00216,-2.374627 z m -0.0038,0.675569 0.00585,0.0029 c 0.1538856,0.07618 0.1981304,0.255554 0.099211,0.402462 l -0.2611274,0.387786 c -0.09892,0.14691 -0.302634,0.204368 -0.4565192,0.128188 l -0.00585,-0.0029 c -0.1539072,-0.07618 -0.1977308,-0.25618 -0.098812,-0.403089 l 0.261126,-0.387807 c 0.09892,-0.146909 0.302212,-0.20374 0.4560968,-0.127561 z"/>
 <path style="fill:none;stroke:#3ffe3f;stroke-width:0.40000001px" d="m 8.1,11.3 c 0,0 1.3091476,-1.8004644 2.507548,-1.3366652 2.032587,0.7866412 4.129069,-0.3535544 4.222987,-2.3557684 C 14.924455,5.6053532 12.697408,5.3132332 11.992,5.216"/>
</svg>
