<svg xmlns="http://www.w3.org/2000/svg" width="16" height="16" version="1.1">
 <path style="fill:#56aad4" d="m 16.00009,8 a 8,8 0 0 1 -8,8 8,8 0 0 1 -8,-8 8,8 0 0 1 8,-8 8,8 0 0 1 8,8 z"/>
 <path style="fill:#f4f4f7" d="M 8.00009,0 A 8,8 0 0 0 7.22079,0.044922 8,8 0 0 1 8.00009,0 Z m 0.5391,0.027344 a 8,8 0 0 1 0.6015,0.064453 8,8 0 0 0 -0.6015,-0.064453 z m -1.6446,0.058594 a 8,8 0 0 0 -1.0351,0.20508 l 2.6054,4.5156 -5.3867,-3.1113 a 8,8 0 0 0 -0.7793,0.7031 l 4.5059,2.6016 -6.2149,0 a 8,8 0 0 0 -0.32418,1 l 5.1992,0 -5.3789,3.1055 a 8,8 0 0 0 0.20512,1.0375 l 4.5137,-2.6059 -3.1094,5.3849 a 8,8 0 0 0 0.7031,0.779 l 2.6016,-4.5057 0,6.2147 a 8,8 0 0 0 1,0.324 l 0,-5.199 3.1055,5.379 a 8,8 0 0 0 1.0375,-0.205 l -2.6059,-4.514 5.3849,3.11 a 8,8 0 0 0 0.779,-0.703 l -4.5057,-2.602 6.2147,0 a 8,8 0 0 0 0.324,-1 l -5.199,0 5.379,-3.1055 a 8,8 0 0 0 -0.205,-1.0371 l -4.514,2.6055 3.11,-5.3848 a 8,8 0 0 0 -0.703,-0.7793 l -2.602,4.5059 0,-6.2149 a 8,8 0 0 0 -1,-0.32418 l 0,5.1992 -3.1055,-5.3789 z m 3.1055,0.17968 a 8,8 0 0 0 -0.7246,-0.15429 8,8 0 0 1 0.7246,0.15429 z m 1,0.32422 a 8,8 0 0 1 0.664,0.30469 8,8 0 0 0 -0.664,-0.30469 z m 2.602,1.709 a 8,8 0 0 0 -0.598,-0.5312 8,8 0 0 1 0.598,0.5312 z m -0.598,-0.5312 a 8,8 0 0 0 -0.647,-0.4688 8,8 0 0 1 0.647,0.4688 z m -0.647,-0.4688 a 8,8 0 0 0 -0.691,-0.40232 8,8 0 0 1 0.691,0.40232 z m 3.377,8.7012 a 8,8 0 0 0 0.155,-0.7246 8,8 0 0 1 -0.155,0.7246 z m -0.324,1 a 8,8 0 0 1 -0.305,0.664 8,8 0 0 0 0.305,-0.664 z m -1.709,2.602 a 8,8 0 0 0 0.531,-0.598 8,8 0 0 1 -0.531,0.598 z m 0.531,-0.598 a 8,8 0 0 0 0.469,-0.647 8,8 0 0 1 -0.469,0.647 z m 0.469,-0.647 a 8,8 0 0 0 0.403,-0.691 8,8 0 0 1 -0.403,0.691 z m -8.701,3.377 a 8,8 0 0 0 0.7246,0.155 8,8 0 0 1 -0.7246,-0.155 z m -1,-0.324 a 8,8 0 0 1 -0.6641,-0.305 8,8 0 0 0 0.6641,0.305 z m -2.6016,-1.709 a 8,8 0 0 0 0.5977,0.531 8,8 0 0 1 -0.5977,-0.531 z m 0.5977,0.531 a 8,8 0 0 0 0.6465,0.469 8,8 0 0 1 -0.6465,-0.469 z m 0.6465,0.469 a 8,8 0 0 0 0.6914,0.403 8,8 0 0 1 -0.6914,-0.403 z m -3.377,-8.701 a 8,8 0 0 0 -0.15429,0.7246 8,8 0 0 1 0.15429,-0.7246 z m 0.32422,-1 a 8,8 0 0 1 0.30469,-0.6641 8,8 0 0 0 -0.30469,0.6641 z m 1.709,-2.6016 a 8,8 0 0 0 -0.5312,0.5977 8,8 0 0 1 0.5312,-0.5977 z m -0.5312,0.5977 a 8,8 0 0 0 -0.4688,0.6465 8,8 0 0 1 0.4688,-0.6465 z m -0.4688,0.6465 a 8,8 0 0 0 -0.40232,0.6914 8,8 0 0 1 0.40232,-0.6914 z m -1.207,3.2168 a 8,8 0 0 0 -0.064453,0.6015 8,8 0 0 1 0.064453,-0.6015 z m 15.863,0.3613 a 8,8 0 0 1 0.045,0.7793 8,8 0 0 0 -0.045,-0.7793 z M -9e-5,8.000038 A 8,8 0 0 0 0.044832,8.779338 8,8 0 0 1 -9e-5,8.000038 Z m 15.973,0.5391 a 8,8 0 0 1 -0.065,0.6015 8,8 0 0 0 0.065,-0.6015 z m -9.1136,7.3689 a 8,8 0 0 0 0.6015,0.065 8,8 0 0 1 -0.6015,-0.065 z m 1.9199,0.047 a 8,8 0 0 1 -0.7793,0.045 8,8 0 0 0 0.7793,-0.045 z"/>
 <circle style="fill:#ab49d8" cx="11.5" cy="11.5" r="4.5"/>
 <path style="fill:#f4f4f7;fill-rule:evenodd" d="m 11.5,8.9999996 c 0,0 -0.354375,-0.007 -0.723635,0.17775 C 10.40711,9.3623496 10,9.8333505 10,10.5 l 1,0 c 0,-0.500001 0.5,-0.500001 0.5,-0.500001 0,0 0.5,0 0.5,0.500001 0,0.2639 -0.0698,0.41145 -0.203125,0.578099 -0.133325,0.166701 -0.34668,0.334 -0.59668,0.5215 -0.25,0.1875 -0.536645,0.395201 -0.77832,0.6973 C 10.1802,12.59895 10,13.0139 10,13.5 l 0,0.5 3,0 0,-1 -1.82422,0 c 0.01565,-0.022 0.0094,-0.0556 0.02735,-0.0781 0.133325,-0.1667 0.34668,-0.334 0.59668,-0.5215 0.25,-0.1875 0.536645,-0.3952 0.77832,-0.6973 0.241675,-0.30205 0.421875,-0.717 0.421875,-1.2031 0,-0.6666495 -0.40711,-1.1376504 -0.776365,-1.3222504 C 11.854375,8.9930996 11.5,8.9999996 11.5,8.9999996 Z"/>
</svg>
