<svg xmlns="http://www.w3.org/2000/svg" width="16" height="16" version="1.1">
 <circle style="fill:#ff6c37" cx="8" cy="8" r="8"/>
 <path style="fill:#f4f4f7" d="m 11.712359,3.0011179 c -0.293973,0.012533 -0.58391,0.1300496 -0.811661,0.3505784 -0.500063,0.4861671 -0.519421,1.2886559 -0.03917,1.7948705 l -0.0054,-0.010104 c 0.376285,0.3909383 0.960728,0.49088 1.445938,0.2503029 L 11.44048,4.5200351 c -0.02971,-0.035083 -0.02971,-0.085404 0,-0.1204871 L 12.54936,3.2817338 C 12.304279,3.0812546 12.006332,2.9885875 11.712359,3.0011179 Z m 0.956024,0.3956642 -1.054315,1.06806 0.827019,0.8364147 c 0.06931,-0.045108 0.12872,-0.099558 0.188133,-0.15469 0.48026,-0.4811551 0.494666,-1.2535938 0.03917,-1.7497847 z m -0.05682,0.6428571 c 0.02635,-10e-5 0.05133,0.012275 0.0668,0.034204 0.08911,0.1704087 0.06465,0.3754662 -0.05912,0.520815 -0.01485,0.020046 -0.04513,0.034979 -0.06987,0.034979 -0.0198,0.00501 -0.0447,0.00501 -0.0645,0 l -0.0046,-0.00467 c -0.03466,-0.035083 -0.03005,-0.095508 0.0046,-0.1305929 0.07427,-0.085204 0.08483,-0.2099167 0.03532,-0.3101571 0,-0.00501 -0.0054,-0.00509 -0.0054,-0.010104 -0.0198,-0.045108 0.0053,-0.1004396 0.04992,-0.1204875 0.01485,-0.0094 0.03103,-0.013933 0.04684,-0.013992 z M 10.137416,4.9164747 C 9.6057109,4.8730113 8.7322888,5.4603676 6.474577,7.7420927 L 7.1280516,8.4043836 10.188096,5.306698 C 10.29702,5.1964334 10.440825,5.1360301 10.59431,5.1310201 10.454441,5.015743 10.314649,4.930963 10.137416,4.9164747 Z m 0.466109,0.4065471 c -0.108924,0 -0.217611,0.040896 -0.30178,0.1235962 L 7.2516821,8.5139886 7.6625038,8.9500745 10.886109,6.0731514 C 10.975239,5.9929594 11.024753,5.883283 11.029703,5.7629943 11.034703,5.647718 10.990243,5.5318226 10.906073,5.446618 10.821903,5.36392 10.712449,5.3230218 10.603525,5.3230218 Z m 0.475325,0.7757821 c -0.02475,0.035083 -0.05399,0.065109 -0.0837,0.090171 l -3.2236078,2.871481 0.5743821,0.581448 C 9.677778,8.3538128 10.974875,7.0310406 11.07885,6.0988039 Z m -4.7232963,1.7435659 -0.807053,0.8169805 -0.014592,0.020213 c -0.014854,0.015038 -0.019542,0.030479 -0.014592,0.050527 0.00495,0.030075 0.034029,0.050096 0.063735,0.045085 L 6.964487,8.4743465 Z M 7.1380346,8.6593503 6.6773004,9.125752 c -0.00991,0.015038 -0.00991,0.035488 0,0.050527 0.014854,0.010021 0.029683,0.010021 0.044537,0 l 0.757908,-0.1958891 z m 0.4853066,0.4765075 -1.2524296,0.2705129 -2.5847197,2.6211783 0.841608,0.877613 c 0.024754,0.02506 0.069351,0.02506 0.099058,0 0.029704,-0.02004 0.049834,-0.06018 0.039929,-0.100281 L 4.6277986,12.203227 c -0.014854,-0.07017 0.020104,-0.140595 0.084469,-0.175678 h 0.0046 v -0.0101 C 5.9744603,11.410985 7.1528529,10.644342 8.2222954,9.7421766 Z M 3.652579,12.152701 3.0037114,12.814991 c -0.00495,0.01504 -0.00495,0.03436 0,0.05442 0.00495,0.01504 0.024733,0.03075 0.044537,0.03576 l 1.445938,0.09483 z"/>
</svg>
