<svg xmlns="http://www.w3.org/2000/svg" width="16" height="16" version="1">
 <path style="fill:#4daaf5" d="M 1.8889,1 C 1.3964,1 1,1.3903 1,1.875 V 12 C 1,12.485 1.3967,12.985 1.8889,13 H 10 L 11.5,15 13,13 H 15.112 C 15.604,13 16,12.485 16,12 V 1.875 C 16,1.3903 15.604,1 15.111,1 Z"/>
 <path style="fill:#f4f4f7" d="M 8,3 V 9 H 9 V 3 Z M 8,10 V 11 H 9 V 10 Z"/>
</svg>
