<svg xmlns="http://www.w3.org/2000/svg" width="16" height="16" version="1">
 <path style="fill:#1ab5bc" d="M 8,0 C 3.568,0 0,3.568 0,8 0,9.4697072 0.39236212,10.844403 1.0784811,12.025482 9.3383796,12.312162 13.6,3.2 13.87874,2.5633752 12.419314,0.98524548 10.328947,0 8,0 Z"/>
 <path style="fill:#df5b6f" d="M 15.483594,5.1835936 4.5578124,9.3234376 12.067188,14.8875 C 14.422021,13.498181 16,10.943005 16,8 16,7.006174 15.811924,6.060042 15.483594,5.1835936 Z"/>
 <path style="fill:#445c5c" d="M 4.5710936,9.2882812 1.0226562,11.917969 C 2.3902264,14.356427 4.9944352,16 8,16 c 1.5077636,0 2.910411,-0.42042 4.111719,-1.139844 z"/>
 <path style="fill:#9f327b" d="M 13.792969,2.4820312 4.5585936,9.3242188 15.483594,5.1835936 C 15.103062,4.1678008 14.526112,3.2517372 13.792969,2.4820312 Z"/>
 <path style="fill:#f4f4f7" d="M 5.2,2 C 4.7568,2 4.4,2.3568 4.4,2.8 4.4,3.2432 4.7568,3.6 5.2,3.6 5.6432,3.6 6,3.2432 6,2.8 6,2.3568 5.6432,2 5.2,2 Z"/>
 <path style="fill:#f4f4f7" d="M 9.7142857,2 8,3.6 10.571429,6 8,8.4 9.7142857,10 12.285714,7.6 14,6 12.285714,4.4 Z"/>
 <path style="fill:#f4f4f7" d="M 3,7 C 2.446004,7 2,7.445996 2,8 2,8.553996 2.446004,9 3,9 3.554004,9 4,8.553996 4,8 4,7.445996 3.554004,7 3,7 Z"/>
 <path style="fill:#f4f4f7" d="M 6.5,11 C 5.669,11 5,11.669 5,12.5 5,13.331 5.669,14 6.5,14 7.331,14 8,13.331 8,12.5 8,11.669 7.331,11 6.5,11 Z"/>
</svg>
