<svg xmlns="http://www.w3.org/2000/svg" width="16" height="16" version="1">
 <path style="fill:#546e7a" d="M 8.0000003,-3.4778404e-8 C 7.6932692,-3.4778404e-8 7.3867686,0.11754548 7.1517352,0.35274029 L 5.6885496,2.0163513 H 3.260738 c -0.6840046,0 -1.2066954,0.5517595 -1.2348071,1.235656 V 5.6814618 L 0.36348864,7.1456532 c -0.49902013,0.4395106 -0.47006655,1.2273065 0,1.6976964 L 2.0259309,10.307541 v 2.429506 c 0,0.684475 0.5513804,1.207525 1.2348071,1.235656 h 2.4278116 l 1.4631856,1.66356 c 0.4392125,0.49936 1.2264634,0.470389 1.6965302,0 l 1.4631866,-1.66356 h 2.427811 c 0.684004,0 1.234807,-0.551181 1.234807,-1.235656 v -2.429506 l 1.662442,-1.4641914 c 0.49902,-0.4395107 0.470066,-1.2273064 0,-1.6976964 L 13.97407,5.6814618 V 3.2520073 c 0,-0.684475 -0.550803,-1.235656 -1.234807,-1.235656 H 10.311452 L 8.8482654,0.35274029 C 8.628663,0.10305707 8.3067314,-3.4778404e-8 8.0000003,-3.4778404e-8 Z"/>
 <path style="fill:#f4f4f7" d="M 8,4 A 4,4 0 0 0 4,8 4,4 0 0 0 8,12 Z"/>
</svg>
