<svg xmlns="http://www.w3.org/2000/svg" width="16" height="16" version="1.1">
 <circle style="fill:#808080" cx="8" cy="8" r="8"/>
 <path style="fill:#f4f4f7" d="M 6.0521178,4.1515856 C 5.9342701,4.1650241 5.8759001,4.3008375 5.9469493,4.395726 L 9.945598,9.705222 C 9.3575718,9.6204431 8.7274295,9.5742681 8.0886264,9.5700047 c 2.092e-4,-0.013039 -0.00215,-0.026173 -0.00826,-0.039062 L 5.7546436,4.6210872 c -0.015896,-0.033331 -0.050339,-0.053427 -0.087139,-0.050331 -0.059645,0.00462 -0.098553,0.065348 -0.076623,0.1209438 l 0.003,0.00526 1.9673977,4.8798073 C 6.8873542,9.5968249 6.3327088,9.6629114 5.7364434,9.7713287 L 5.2363297,4.7262545 v -0.00601 c -0.00335,-0.046506 -0.042708,-0.082803 -0.089393,-0.082633 v 7.693e-4 C 5.0978387,4.6383289 5.0235,4.6772168 5.0235565,4.7262718 V 9.9230701 C 4.7549289,9.9879835 4.5824593,10.023311 4.3566551,10.10486 L 4.7322558,4.7548006 C 4.738402,4.6621522 4.6612281,4.5855979 4.5684939,4.5917899 4.4998931,4.5964014 4.4424608,4.6456164 4.4280193,4.7127333 L 3.0217692,11.158046 c -0.00515,0.01904 -0.00952,0.03801 -0.012769,0.0571 l -0.00526,0.02404 c -0.00177,0.0081 0.00127,0.01533 7.692e-4,0.02329 C 3.0025481,11.27619 3.0009712,11.290046 3,11.303786 2.9999188,12.240609 5.2384655,13.000046 8.0000002,13 10.761402,12.999982 13.00008,12.240563 13,11.303786 12.999538,11.07315 12.860613,10.844738 12.591346,10.632962 L 6.1926121,4.2124341 6.178339,4.1966571 C 6.145389,4.1631264 6.0988901,4.1465133 6.052137,4.1515852 Z m 1.3709435,5.7714845 c 1.8054313,1.9e-6 3.2690657,0.5165789 3.2692307,1.1538459 -1.65e-4,0.637268 -1.4637994,1.153845 -3.2692307,1.153846 -1.8054312,-1e-6 -3.2690659,-0.516578 -3.2692309,-1.153846 1.65e-4,-0.637267 1.4637997,-1.153844 3.2692309,-1.1538459 z"/>
 <path style="fill:#f4f4f7" d="m 4.1593114,2 c -0.086732,-4.1e-4 -0.15727,0.08627 -0.1574509,0.1934841 l -0.00186,1.6120268 C 3.9997508,3.9365772 4.1025878,4.0301862 4.2037636,3.9909876 L 5.8894164,3.3418275 c 0.1098612,-0.04203 0.1470178,-0.211029 0.069464,-0.3159924 L 5.2466481,2.0652604 C 5.2171367,2.0253994 5.1755096,2.0025794 5.1318018,2.0022864 Z"/>
</svg>
