<svg xmlns="http://www.w3.org/2000/svg" width="16" height="16" version="1.1">
 <circle style="fill:#e55252" cx="8" cy="8" r="8"/>
 <path style="fill:#f4f4f7" d="m 3,9 h 9 l -2,2 H 3 Z"/>
 <path style="fill:#f4f4f7" d="M 13,9 9,13 V 9 Z"/>
 <path style="fill:#f4f4f7" d="M 13,7 H 4 L 6,5 h 7 z"/>
 <path style="fill:#f4f4f7" d="M 3,7 7,3 v 4 z"/>
</svg>
