<svg xmlns="http://www.w3.org/2000/svg" width="16" height="16" version="1.1">
 <path style="fill:#cccccc;fill-rule:evenodd" d="M 9.0312226,5.8671875 C 10.912485,6.5494663 11.752261,8.3096254 11.999973,10 c -0.169807,0.539837 0.124702,0.520921 0.179687,0.742188 l 0.0098,0.0059 c -0.118485,-0.241751 0.151572,0.29177 0.160156,0.308594 0.04167,0.191134 0.0073,0.467081 -0.25,0.761718 -0.253366,0.290148 -1.162461,0.770848 -1.568359,1.125 -0.202949,0.177084 -0.35461,0.347334 -0.488281,0.488282 -0.06682,0.07046 -0.117816,0.132145 -0.152344,0.183593 -0.034579,0.05145 -0.048858,0.09358 -0.048858,0.101563 0.0013,0.01015 0.06783,0.565166 0.101563,1.138672 0.01701,0.289376 0.02491,0.428797 0.0098,0.658203 -0.0076,0.114712 -0.01766,0.215338 -0.04102,0.294922 -0.01169,0.0398 -0.02747,0.07389 -0.04883,0.105468 -0.02135,0.03158 -0.051594,0.06095 -0.095704,0.07227 -0.1913408,0.04912 -0.3958944,-0.05033 -0.5566494,-0.177779 -0.1607549,-0.127452 -0.2889554,-0.282485 -0.296875,-0.447266 -0.012433,-0.258449 0.1600147,-0.387919 0.1796875,-0.410156 0.00467,-0.01776 0.03221,0.02256 0.048828,-0.117188 0.00897,-0.07541 0.015911,-0.150891 0.00977,-0.214843 -0.00614,-0.06395 -0.026615,-0.112499 -0.041016,-0.126953 -0.020098,-0.0202 -0.048838,-0.02805 -0.1015625,-0.02734 -0.052726,6.91e-4 -0.1213031,0.01086 -0.1953125,0.02734 -0.073992,0.01649 -0.1556846,0.03995 -0.234375,0.04687 -0.078673,0.0069 -0.1594135,-0.0016 -0.2324219,-0.04687 C 8.2575522,14.436218 8.1273107,14.339325 8,14.232422 V 11.384766 C 8.487893,8.393634 8.094816,6.2531672 8.4804688,5.8828125 8.8910649,5.8765125 9.0263151,5.8676565 9.03125,5.8671875 Z"/>
 <path style="fill:#cccccc;fill-rule:evenodd" d="M 6.96875 5.8671875 C 5.0874879 6.5494663 4.247712 8.3096254 4 10 C 4.1698064 10.539837 3.8752973 10.520921 3.8203125 10.742188 L 3.8105469 10.748047 C 3.929032 10.506296 3.6589754 11.039817 3.6503906 11.056641 C 3.6087216 11.247775 3.6431413 11.523722 3.9003906 11.818359 C 4.1537575 12.108507 5.0628519 12.589207 5.46875 12.943359 C 5.6716991 13.120443 5.8233604 13.290693 5.9570312 13.431641 C 6.0238502 13.502101 6.074847 13.563786 6.109375 13.615234 C 6.143924 13.666684 6.1582031 13.708815 6.1582031 13.716797 C 6.1569331 13.726947 6.0903734 14.281963 6.0566406 14.855469 C 6.0396336 15.144845 6.03173 15.284266 6.046875 15.513672 C 6.054465 15.628384 6.0645366 15.72901 6.0878906 15.808594 C 6.0995776 15.848394 6.1153648 15.882479 6.1367188 15.914062 C 6.1580718 15.945642 6.1883119 15.975008 6.2324219 15.986328 C 6.4237539 16.035488 6.6283075 15.936041 6.7890625 15.808594 C 6.9498174 15.681142 7.0780179 15.526109 7.0859375 15.361328 C 7.0983705 15.102879 6.9259228 14.973409 6.90625 14.951172 C 6.90158 14.933412 6.8740399 14.973732 6.8574219 14.833984 C 6.8484519 14.758574 6.8415112 14.683093 6.8476562 14.619141 C 6.8537963 14.555191 6.8742709 14.506642 6.8886719 14.492188 C 6.9087699 14.471987 6.93751 14.464134 6.9902344 14.464844 C 7.0429604 14.465535 7.1115375 14.475708 7.1855469 14.492188 C 7.2595389 14.508677 7.3412315 14.532143 7.4199219 14.539062 C 7.4985949 14.545962 7.5793354 14.537467 7.6523438 14.492188 C 7.7424478 14.436222 7.8726893 14.339325 8 14.232422 L 8 11.384766 C 7.512107 8.393634 7.9051843 6.2531672 7.5195312 5.8828125 C 7.1089351 5.8765107 6.9736849 5.8676566 6.96875 5.8671875 z"/>
 <path style="fill:#b2bfd9;fill-rule:evenodd" d="m 4.0275801,9.9999136 c 0,0 1.9755071,0.06875 3.1074102,-1.6436522 1.1319031,-1.7124029 0.8278818,-2.7852127 0.8278818,-2.7852127 0,0 -0.5872944,-0.019511 -0.588313,-0.0196 C 7.3132461,5.5460087 7.2799203,5.4637687 7.1917888,5.3986032 6.863662,5.1068087 6.4103154,5.0585931 6.0380522,5.0005656 c -0.049166,0.012732 0.0072,-6.072e-4 -0.00572,0 -0.012902,6.071e-4 -0.021166,-6.428e-4 -0.057116,0 -0.035931,6.429e-4 -0.116187,-8.571e-4 -0.1998957,0 -0.1674174,0.00168 -0.3984391,0.00592 -0.6739652,0.015818 C 4.5502833,5.0361477 3.8259101,5.0862877 3.0965841,5.2061122 2.367276,5.3259364 1.6324028,5.5129162 1.0575502,5.8280013 0.48436831,6.1421586 0.06287645,6.6427782 9.1010097e-4,7.253857 c -1.8095235e-4,0.00179 1.7363903e-4,0.0035 0,0.00527 -4.6095231e-4,0.00457 -0.001794285,0.014404 0,0.031621 C 0.00300152,7.310816 0.0114541,7.338307 0.02375619,7.369794 0.04836076,7.43275 0.09798829,7.5191657 0.2008148,7.6175041 c 0.20565303,0.1966602 0.61506741,0.455029 1.4564445,0.753637 0,0 0.1500909,0.058521 0.2741645,0.1475666 0.06205,0.044523 0.1127874,0.098508 0.1370776,0.1423053 0.024309,0.043781 0.028566,0.067156 0,0.1106667 v 0.00527 c 0,0 -0.020068,0.029547 -0.028549,0.068505 -0.00848,0.038958 -0.00972,0.091929 0.0057,0.1581073 0.03087,0.1323549 0.1323075,0.4068429 0.3941075,0.6221556 7.3e-5,6.74e-5 0.018076,0.013525 0.022846,0.015804 0.00477,0.00229 0.00852,0.0043 0.011423,0.00527 0.00577,0.00192 0.00852,-6.072e-4 0.011423,0 0.00581,0.00122 0.00797,0.0048 0.011423,0.00526 0.00689,8.929e-4 0.00962,-7.142e-4 0.017125,0 0.015024,0.00142 0.039697,0.00275 0.062836,0.00527 0.046277,0.00501 0.107414,0.01125 0.1713471,0.026343 0.1278477,0.030204 0.2552568,0.092588 0.3084248,0.1844674 0.02864,0.049481 0.072853,0.060831 0.1142313,0.073783 0.041379,0.012936 0.086194,0.020372 0.1370777,0.026343 0.1017479,0.011958 0.2243138,0.018822 0.342694,0.021082 0.1183619,0.00229 0.2324473,10e-4 0.3141272,0.00527"/>
 <path style="fill:#b2bfd9;fill-rule:evenodd" d="m 11.97242,9.9999136 c 0,0 -1.9755068,0.06875 -3.1074103,-1.6436522 C 7.7331066,6.6438585 8.0371279,5.5710487 8.0371279,5.5710487 c 0,0 0.5872944,-0.019511 0.588313,-0.0196 0.061313,-0.00544 0.094639,-0.08768 0.1827703,-0.1528455 0.3281268,-0.2917945 0.7814734,-0.3400101 1.153737,-0.3980376 0.04917,0.012732 -0.0072,-6.072e-4 0.0057,0 0.0129,6.071e-4 0.02117,-6.428e-4 0.05712,0 0.03593,6.429e-4 0.116187,-8.571e-4 0.199895,0 0.167418,0.00168 0.398439,0.00592 0.673965,0.015818 0.551072,0.019764 1.275446,0.069904 2.004772,0.1897286 0.729308,0.1198242 1.464181,0.306804 2.039034,0.6218891 0.573181,0.3141573 0.994673,0.8147769 1.05664,1.4258557 1.81e-4,0.00179 -1.74e-4,0.0035 0,0.00527 4.61e-4,0.00457 0.0018,0.014404 0,0.031621 -0.0021,0.020068 -0.01054,0.047559 -0.02285,0.079046 -0.0246,0.062956 -0.07423,0.1493717 -0.177059,0.2477101 -0.205653,0.1966602 -0.615067,0.455029 -1.456444,0.753637 0,0 -0.150091,0.058521 -0.274165,0.1475666 -0.06205,0.044523 -0.112787,0.098508 -0.137078,0.1423053 -0.02431,0.043781 -0.02857,0.067156 0,0.1106667 v 0.00527 c 0,0 0.02007,0.029547 0.02855,0.068505 0.0085,0.038958 0.0097,0.091929 -0.0057,0.1581073 -0.03087,0.1323549 -0.132307,0.4068429 -0.394107,0.6221556 -7.3e-5,6.74e-5 -0.01808,0.013525 -0.02285,0.015804 -0.0048,0.00229 -0.0085,0.0043 -0.01142,0.00527 -0.0058,0.00192 -0.0085,-6.072e-4 -0.01142,0 -0.0058,0.00122 -0.008,0.0048 -0.01142,0.00526 -0.0069,8.929e-4 -0.0096,-7.142e-4 -0.01713,0 -0.01502,0.00142 -0.0397,0.00275 -0.06284,0.00527 -0.04628,0.00501 -0.107414,0.01125 -0.171347,0.026343 -0.127848,0.030204 -0.255257,0.092588 -0.308425,0.1844674 -0.02864,0.049481 -0.07285,0.060831 -0.114231,0.073783 -0.04138,0.012936 -0.08619,0.020372 -0.137078,0.026343 -0.101748,0.011958 -0.224314,0.018822 -0.342694,0.021082 -0.118362,0.00229 -0.232447,10e-4 -0.314127,0.00527"/>
 <path style="fill:#4f4f4f" d="M 6.2382812,1.0280747 C 6.1066187,1.0280747 6,1.1464844 6,1.2917465 c 0,0.1187264 0.071429,0.2172711 0.1699219,0.25 0.1310942,0.4917843 0.4254672,1.253288 0.8242187,1.6894532 C 6.7864942,3.535269 6.6721398,3.9233806 6.671875,4.3249497 6.6726514,4.7294867 6.7891896,5.1200285 7,5.424559 v 8.575734 c 0,0.552285 0.4477153,1 1,1 0.5522847,0 1,-0.447715 1,-1 V 5.4265121 C 9.2111597,5.1214749 9.3277218,4.7301594 9.328125,4.3249497 9.3278602,3.9233806 9.2135058,3.535269 9.0058594,3.2311997 9.4043395,2.7950917 9.6989463,2.0334914 9.8300781,1.5417465 9.9287414,1.5090142 10,1.4104428 10,1.2917465 10,1.1464843 9.8933817,1.0280747 9.7617188,1.0280747 c -0.1321926,0 -0.2402344,0.1186697 -0.2402344,0.2636718 0,0.080024 0.032662,0.1512036 0.083984,0.1992188 C 9.4847007,1.9295435 9.2177637,2.6481943 8.8574219,3.0436997 8.6177268,2.7876117 8.3139326,2.6471328 8,2.6472153 7.6865445,2.6482616 7.3834967,2.7894071 7.1445312,3.0456528 6.7830381,2.6506419 6.5154957,1.9304096 6.3945312,1.4909653 c 0.051332,-0.047999 0.083984,-0.1192213 0.083984,-0.1992188 0,-0.1450289 -0.1082385,-0.2636718 -0.240234,-0.2636718 z"/>
</svg>
