<svg xmlns="http://www.w3.org/2000/svg" xmlns:xlink="http://www.w3.org/1999/xlink" width="16" height="16" version="1.1">
 <path style="fill:none;stroke:#37474f;stroke-width:0.59210527" d="M 6.7,0.7 8.403,3.368421"/>
 <path style="fill:none;stroke:#37474f;stroke-width:0.59210527" d="M 10.3,0.7 8.692,3.368421"/>
 <ellipse style="fill:#37474f" cx="8.5" cy="3.216" rx="2.5" ry="1.237"/>
 <circle style="fill:#455a64" cx="6.75" cy=".75" r=".75"/>
 <path style="fill:#455a64" d="M 8.5,3 C 9.5227272,3 16,3 16,7.5861473 V 11.413852 C 16,16 15.659091,16 8.5,16 7.1363638,16 1.0000001,16 1,11.413852 V 7.5861473 C 1.0000001,3 7.4772727,3 8.5,3 Z"/>
 <circle style="fill:#f4f4f7" cx="14" cy="14" r="1"/>
 <path style="opacity:0.3" d="M 7.5000001,5 C 8.2500004,5 13.000001,5 13.000001,8.1750255 V 10.824975 C 13.000001,14 8.5000002,14 7.5000001,14 6.5000003,14 2,14 2,10.824975 V 8.1750255 C 2,5 6.7499996,5 7.5000001,5 Z"/>
 <path style="opacity:0.5;fill:none;stroke:#26a69a;stroke-width:1.18421054;stroke-linecap:round" d="M 7.5110263,7.6 5.7346651,12.399784"/>
 <path style="opacity:0.5;fill:none;stroke:#26a69a;stroke-width:1.18421054;stroke-linecap:round" d="M 11.260981,7.6 9.6820335,12.399784"/>
 <path style="fill:none;stroke:#26a69a;stroke-width:1.18421054;stroke-linecap:round" d="m 3.7609809,7.6 1.9736842,4.799784"/>
 <path style="fill:none;stroke:#26a69a;stroke-width:1.18421054;stroke-linecap:round" d="m 7.5110263,7.6 2.1710072,4.799784"/>
 <circle style="fill:#455a64" cx="10.25" cy=".75" r=".75"/>
</svg>
