<svg xmlns="http://www.w3.org/2000/svg" width="16" height="16" version="1.1">
 <circle style="fill:#b2bfd9" cx="8" cy="8" r="8"/>
 <path style="fill:#3e4f9c" d="M 11.789371,6.62884 9.020066,4.6170277 5.7036384,4.7198001 3.5205453,7.1265583 3.6002463,9.6825347 6.0731921,11.597381 7.7883972,11.595756 9.2012616,10.987705 10.111563,9.219213 9.5924159,7.2331303 8.1260463,6.3198011 6.7537918,6.4277394 5.6472543,7.5170654 5.5147121,8.8362813 6.9365882,9.9021016 7.9677076,9.6380306 7.9075893,9.063434 7.1865984,8.9539758 6.423035,8.2852864 6.8345531,7.3219881 7.9893705,7.222177 9.0815107,8.0298991 9.1112021,9.3923516 8.4974081,10.479434 6.3703614,10.864223 4.4439098,9.3304067 4.478744,6.9386256 6.3936487,5.3711749 8.9914314,5.498911 11.049689,7.235424 11.194094,10.206634 9.3892168,12.380833 6.6445717,13 3.3139807,11.574126 2,9.1952243 2.5179483,5.9076473 5.7020879,3.2679439 9.1470362,3 11.771993,4.0509224 13.377387,6.0122777 14,8.8537534 12.316205,9.264783 Z"/>
</svg>
