<svg xmlns="http://www.w3.org/2000/svg" width="16" height="16" version="1.1">
 <circle style="fill:#17191e" cx="8.5" cy="7.5" r="7.5"/>
 <path style="fill:none;stroke:#236ae4;stroke-width:1.5" d="m 9.5,13.5 -7,-7 10,-3 z"/>
 <circle style="fill:#71d1ff" cx="2.5" cy="6.5" r="2.5"/>
 <circle style="fill:#71d1ff" cx="12.5" cy="3.5" r="2.5"/>
 <circle style="fill:#71d1ff" cx="9.5" cy="13.5" r="2.5"/>
</svg>
