<svg xmlns="http://www.w3.org/2000/svg" width="16" height="16" version="1.1">
 <g transform="translate(0 -1036.4)">
  <circle fill="#b2bfd9" cx="8" cy="1044.4" r="8"/>
  <path opacity=".2" transform="translate(0 1036.4)" d="m8 2a7 5 0 0 0 -7 5 7 5 0 0 0 7 5 7 5 0 0 0 7 -5 7 5 0 0 0 -7 -5zm1 1a5 4 0 0 1 5 4 5 4 0 0 1 -5 4 5 4 0 0 1 -5 -4 5 4 0 0 1 5 -4z"/>
  <path fill="#1e62b2" fill-rule="evenodd" d="m12.2 1045.2s0.22122-0.063 0.44186 0.049c0.07656 0.039 0.20902 0.1173 0.30456 0.2198 0.09359 0.1005 0.13923 0.2022 0.13923 0.2022l0.914 2.7h-2.5s-0.56705-1.8662-1.1646-2.6651c-0.1189-0.097-0.219-0.3513-0.33538-0.3347h-1.0002l0.0003463 2.9983h-2.0002v-7.9985h4.3306c0.46943 0 2.1 0.5002 2.1694 2.5002-0.06943 2-1.3 2.3569-1.3 2.3569zm-3.1998-2.8576v1.5005h1.9998s0.51586-0.044 0.5-0.8c-0.01506-0.7177-0.5-0.6995-0.5-0.6995z"/>
 </g>
</svg>
