<svg xmlns="http://www.w3.org/2000/svg" width="16" height="16" version="1">
 <rect style="fill:#4f4f4f" width="16" height="16" x="0" y="0" rx=".8" ry=".8"/>
 <path style="fill:#f4f4f7" d="M 10.96675,9.5125 9.3982185,10.4875 12.099782,14 h 2.318531 z"/>
 <rect style="fill:#9c9c9c" width="2" height="7" x="2" y="7"/>
 <path style="fill:#9c9c9c" d="M 6,7 V 8.9999393 H 2.4 v 0 C 3.3216184,7.6966634 4.5051744,6.9924107 6,7 Z"/>
 <path style="fill:#f4f4f7" d="m 7,5 v 6 h 4.117647 A 2.8823529,3 0 0 0 14,8 2.8823529,3 0 0 0 11.117647,5 Z m 1.6470588,1.7142857 h 2.0588232 c 0.701743,0 1.235294,0.5553287 1.235294,1.2857143 0,0.7303856 -0.533551,1.2857143 -1.235294,1.2857143 H 8.6470588 Z"/>
 <rect style="fill:#f4f4f7" width="2" height="9" x="7" y="5"/>
</svg>
