<svg xmlns="http://www.w3.org/2000/svg" width="16" height="16" version="1">
 <path style="fill:#d5b380" d="M 16,15.210526 16,1.7894737 C 16,1.3521053 15.6432,1 15.2,1 L 0.8,1 C 0.3568,1 0,1.3521053 0,1.7894737 L 0,15.210526 C 0,15.647895 0.3568,16 0.8,16 l 14.4,0 c 0.4432,0 0.8,-0.352105 0.8,-0.789474 z"/>
 <path style="fill:none;stroke:#ff4141" d="m 1.0001591,11.499829 c 0,0 1.2066516,3.84e-4 2.4000768,0 1.193422,-3.84e-4 2.0999232,-0.7 2.0999232,-1.4999997 0,-3.2321552 -4,0.3097437 -4,-3 -0.00968,-0.8053676 0.690262,-1.5 1.9000768,-1.5 l 2.3999232,0"/>
 <path style="fill:none;stroke:#f4f4f7" d="m 10.5,7.5 4,0 m -2,4.5 0,-4.5"/>
 <rect style="fill:#353535" width="1" height="2" x="8" y="8"/>
 <rect style="fill:#353535" width="1" height="2" x="8" y="5"/>
 <rect style="fill:#353535" width="1" height="2" x="8" y="11"/>
</svg>
