<svg xmlns="http://www.w3.org/2000/svg" width="16" height="16" version="1">
 <rect style="fill:#7843b1" width="16" height="16" x="0" y="0" rx="4.8" ry="4.8"/>
 <path style="fill:#f4f4f7" d="m 11.198206,5.799978 c 0.44617,0.540634 0.716746,1.231632 0.716746,1.9873444 0,1.7272796 -1.400256,3.1276076 -3.127608,3.1276076 C 8.031632,10.91493 7.340648,10.644361 6.8,10.198192 7.17818,11.8102 8.623832,13 10.351112,13 12.36632,13 14,11.36632 14,9.351112 14,7.6237596 12.8102,6.1781436 11.198192,5.8 Z"/>
 <path style="fill:#f4f4f7" d="M 3.5,7.5 3.0032764,5.9967232 1.5,5.5 3.0032764,5.0032764 3.5,3.4999996 3.9967236,5.0032764 5.5,5.5 3.9967236,5.9967232 Z"/>
 <path style="fill:#f4f4f7" d="M 7.5,5.74 7.201966,4.8380336 6.3,4.54 7.201966,4.241966 7.5,3.3399996 7.798034,4.241966 8.7,4.54 7.798034,4.8380336 Z"/>
 <path style="fill:#f4f4f7" d="M 10.5,5.2 10.350983,4.7490168 9.9,4.6 10.350983,4.4509832 10.5,3.9999996 10.649017,4.4509832 11.1,4.6 10.649017,4.7490168 Z"/>
</svg>
