<svg width="16" height="16" version="1.1" xmlns="http://www.w3.org/2000/svg">
 <circle cx="9.500021" cy="6.5" r="6.5" style="fill:#28b628"/>
 <rect x="3.0000212" y="6" width="7.1999998" height="8" rx="1.137" ry="1.263" style="fill:#28b628"/>
 <rect x="6.000021" y="9" width="7" height="7" rx="1.105" ry="1.105" style="fill:#28b628"/>
 <path d="m3.8782211 5.7273a0.80008 0.80008 0 0 0-0.65 0.3993l-1.0609 1.8367-1.0602 1.8367a0.80008 0.80008 0 0 0 0.693 1.2h4.2414a0.80008 0.80008 0 0 0 0.693-1.2l-1.0602-1.8367-1.0609-1.8367a0.80008 0.80008 0 0 0-0.6555-0.3993 0.80008 0.80008 0 0 0-0.0797 0z" style="fill:#28b628"/>
 <path d="m9 2s-2 1-2 3 2 2 2 2v9h2v-9s2 0 2-2-2-3-2-3v3h-2v-3z" style="fill:#f4f4f7"/>
</svg>
