<svg xmlns="http://www.w3.org/2000/svg" width="16" height="16" version="1.1">
 <circle style="fill:#2ec14a" cx="8" cy="8" r="8"/>
 <path style="fill:#f4f4f7" d="M 12,4 2,8.625 5.4585936,9.6304688 9.9796876,5.8085936 6.6304688,10.029688 8.3742188,10.605469 10.217188,11.2 Z"/>
 <path style="fill:#f4f4f7" d="M 6.00625,10.797656 6,12.8 7.0609376,11.157812 6.7210936,11.033594 Z"/>
</svg>
