<svg xmlns="http://www.w3.org/2000/svg" width="16" height="16" version="1.1">
 <rect style="fill:#55448e" width="16" height="16" x="0" y="0" rx=".8" ry=".8"/>
 <path style="fill:#f4f4f7" d="m 2.5425408,13.974471 c -0.00857,-0.01359 0.1604141,-0.219433 0.3751711,-0.45747 1.4640842,-1.623045 1.6759268,-1.896122 1.8423838,-2.374986 0.052543,-0.151148 0.1089427,-0.279295 0.125357,-0.284764 0.016286,-0.0055 0.1084285,0.09452 0.2045141,0.222206 0.096128,0.127679 0.3427282,0.432903 0.5480994,0.678286 0.2074284,0.247898 0.3616711,0.457277 0.3471425,0.471201 -0.014571,0.0138 -0.1281856,0.05901 -0.252814,0.1005 -0.1245856,0.04149 -0.3511282,0.146537 -0.5033138,0.233443 -0.3057854,0.174582 -0.7196992,0.532028 -0.6836564,0.590369 0.017143,0.02756 0.7450278,0.03596 3.1185396,0.03596 2.7538689,0 3.1037109,-0.0051 3.1630249,-0.04669 0.03686,-0.02567 0.06664,-0.06987 0.06664,-0.09819 0,-0.02833 -0.105728,-0.199663 -0.235028,-0.380773 C 10.529347,12.482452 9.986905,11.720067 9.4531623,10.969374 8.4121634,9.505229 5.6682805,5.6617315 5.251838,5.0843093 5.1128096,4.8915595 4.6211101,4.2046888 4.1591106,3.5579366 3.4320399,2.5400333 3.2919829,2.3602221 3.1166974,2.2197408 3.0053546,2.1304823 2.9142404,2.0445281 2.9142404,2.028731 c 0,-0.016329 0.1269856,-0.028714 0.2947283,-0.028714 0.2676426,0 0.3003426,0.00621 0.3555425,0.067496 0.033428,0.037114 1.6849697,2.3555804 3.6701105,5.1521304 1.9851408,2.7965496 3.8702533,5.4518316 4.1891533,5.9006226 0.318899,0.448786 0.579813,0.830133 0.579813,0.847439 0,0.03827 -9.4374329,0.04502 -9.4610472,0.0067 z m 9.6099332,-0.22281 C 11.031032,12.2065 3.794911,2.0393038 3.8046824,2.0225038 c 0.00729,-0.012386 2.0573122,-0.0225 4.5559239,-0.0225 3.9064247,0 4.5428957,0.00596 4.5428957,0.042643 0,0.023443 -0.212614,0.2422155 -0.472457,0.4861452 C 11.222818,3.6629494 10.699832,4.2503531 10.44239,4.7623369 10.37673,4.8929396 10.306276,4.9992595 10.285876,4.9986038 10.230336,4.9968938 9.3499196,3.8015064 9.3817624,3.7711293 9.3967624,3.7569433 9.5032623,3.6945603 9.6187193,3.6324609 9.92009,3.4704268 10.262861,3.2250827 10.408233,3.06739 c 0.137185,-0.1488384 0.149485,-0.1818041 0.078,-0.2092326 -0.02614,-0.010029 -1.0836849,-0.018214 -2.3501979,-0.018214 -2.2349549,0 -2.3042548,0.00171 -2.3549976,0.057763 -0.028714,0.031757 -0.0477,0.076247 -0.042,0.098841 0.00557,0.022586 0.2328427,0.3609768 0.505071,0.7519707 0.527528,0.7576749 0.5759565,0.826752 1.1099131,1.5832784 0.1897284,0.2688211 0.406971,0.5774522 0.4827852,0.6858378 0.075771,0.1083899 0.2702569,0.3860525 0.432171,0.6170394 0.3183425,0.4542124 0.5571423,0.8025206 1.0827846,1.579387 0.1859141,0.2747011 0.4039286,0.5919294 0.4845426,0.7049478 0.1662,0.2329969 1.313656,1.9048485 2.136426,3.1128315 0.302528,0.444124 0.640457,0.93992 0.751028,1.10177 0.224871,0.329173 0.364628,0.489403 0.593871,0.680867 0.0858,0.07167 0.148457,0.142538 0.139242,0.157487 -0.0094,0.01496 -0.266099,0.02717 -0.570727,0.02717 h -0.553928 z"/>
</svg>
