<svg xmlns="http://www.w3.org/2000/svg" width="16" height="16" version="1.1">
 <circle style="fill:#97302c" cx="8" cy="8" r="8"/>
 <path style="fill:#f4f4f7" d="M 7.3252477,1.9999594 C 6.0916796,1.9996245 5.1583148,2.5610571 4.7132569,3.5698378 4.5645548,3.9068907 4.5360461,4.0272892 4.5157819,4.4147901 4.4742269,5.2093465 4.7206229,5.8519757 5.255555,6.3455421 5.6459321,6.7057312 5.7937724,6.7901736 7.1156203,7.4027264 8.7483276,8.1593333 9.0270649,8.3202219 9.405574,8.7261934 9.920328,9.2782951 10.184245,10.033516 10.056483,10.588586 9.892528,11.300899 9.436739,12.018807 8.8875809,12.302614 8.0636251,12.728439 6.9643628,12.716364 6.2079931,12.273204 5.8977427,12.091428 5.3570491,11.444941 5.1697287,11.106049 5.0865214,10.955512 4.9736078,10.640019 4.9190872,10.404969 4.6913033,9.4229552 5.0136673,8.7325366 5.7993713,8.5518961 6.319806,8.4322432 7.0071199,8.6403111 7.3579073,9.0781039 7.5221491,9.2830823 7.6803797,9.756561 7.5816346,10.066511 7.5041132,9.6923631 7.1879294,9.4253256 6.8221141,9.4250478 c -0.4295384,0 -0.7777488,0.3644183 -0.7777488,0.8139522 0,0.449532 0.3482103,0.761 0.7777488,0.761 C 7.4200848,11 7.989,10.039109 7.989,9.0582326 7.989,8.0042281 5.6876474,7.5074559 4.6221146,8.7116668 4.0132088,9.4076239 3.7890105,10.296496 4.2327848,11.439897 c 0.079066,0.203717 0.1320922,0.476832 0.1481063,0.703217 0.015878,0.224443 0.04472,0.354899 0.06456,0.3899 0.028416,0.05012 0.1355368,0.05226 0.5028026,0.0088 0.4356149,-0.05162 0.4959869,0.0343 0.9190197,0.151411 0.7175255,0.338396 1.5289253,0.355493 2.3056,0.248249 1.1145239,-0.166134 2.1168336,-0.822251 2.5170516,-1.648572 0.244936,-0.505716 0.314248,-0.840921 0.309884,-1.4983402 -0.0068,-1.024065 -0.254896,-1.7402482 -0.81041,-2.3385796 C 9.809834,7.0471617 9.4376286,6.8296138 8.234394,6.3113619 6.7823551,5.6859464 6.3151941,5.4169362 5.8669687,4.9473563 5.5182859,4.5820615 5.4406906,3.8675373 5.6778482,3.3230267 5.8050518,3.0309678 6.1784087,2.6773672 6.5004087,2.5440491 6.8653785,2.3929403 7.4680485,2.3566086 7.8485571,2.4629719 8.4888975,2.6419669 9.1000239,3.1228649 9.3432933,3.639387 9.4901898,3.9512858 9.537521,4.7020538 9.4458282,5.1731008 9.4133542,5.3399713 9.3994282,5.4903109 9.4146812,5.5069486 9.4690712,5.5662416 9.765586,5.4695116 9.95546,5.3304861 10.172098,5.17187 10.337509,4.9302236 10.421051,4.6516625 c 0.07864,-0.2622266 -0.0465,-0.8358113 -0.134784,-1.2508423 -0.041,-0.192727 -0.06996,-0.4838293 -0.06456,-0.6470283 0.01015,-0.3067847 -0.04433,-0.4111277 -0.192159,-0.366438 -0.03846,0.011627 -0.227714,0.048762 -0.420016,0.082668 C 9.2601641,2.5316232 9.3767018,2.4906649 8.9574572,2.3099601 8.4362389,2.0853058 7.986433,2.0001386 7.3252477,1.9999594 Z"/>
</svg>
