<svg xmlns="http://www.w3.org/2000/svg" width="16" height="16" version="1">
 <circle style="fill:#3a76f0" cx="8" cy="8" r="8"/>
 <path style="fill:#3a76f0" d="M 4.4604008,3.2002359 A 2.2945098,2.2943434 0 0 0 2.278146,4.9006579 L 0.07796708,13.112645 A 2.2945098,2.2943434 0 0 0 2.8875644,15.922039 L 11.100147,13.72202 A 2.2945098,2.2943434 0 0 0 12.12854,9.8843075 L 6.1161364,3.8723395 A 2.2945098,2.2943434 0 0 0 4.4604008,3.2002359 Z"/>
 <g transform="matrix(0.89285716,0,0,0.89285716,0.85714272,0.85714272)">
  <circle style="fill:#f4f4f7" cx="8" cy="8" r="5.6"/>
  <path style="fill:#f4f4f7" d="M 3.6861575,8.7999935 7.2000012,12.313837 2.4000013,13.599993 Z"/>
 </g>
 <path style="opacity:0.5;fill:#f4f4f7" d="m 7.3068716,1.0337917 -0.039499,0.0038 -0.6547658,0.1010254 -0.037981,0.0076 -0.2119256,0.05469 0.1952149,0.7527531 0.1876186,-0.048614 0.6228642,-0.095709 0.6517277,-0.033422 -0.039499,-0.7763005 z m 1.3619439,0.4246104 -0.053931,0.3478921 0.6403338,0.098747 0.5962781,0.1549562 0.1974926,0.072921 0.268135,-0.7299655 -0.221799,-0.082036 -0.03646,-0.011394 L 9.4261268,1.1462113 9.3881458,1.1386113 8.73338,1.037586 8.693881,1.033786 h -0.00381 z m -3.3702987,0.085834 -0.03494,0.015192 -0.5780479,0.2787694 -0.032661,0.01823 L 4.1310305,2.1739353 4.5358919,2.8385764 5.0410161,2.530183 5.5909591,2.2650863 5.8514979,2.1693779 5.5833629,1.4394124 Z m 5.4310652,0.8750471 0.230155,0.1109001 0.51804,0.3159892 0.489177,0.3668816 0.189137,-0.2529431 0.310672,-0.3410556 -0.0053,-0.00456 -0.02811,-0.023548 -0.509685,-0.3820736 -0.03038,-0.020509 -0.545385,-0.3319406 -0.03266,-0.01823 -0.246867,-0.1192556 z M 3.0691216,3.0413866 3.0425357,3.0679725 2.6156465,3.5381586 2.592098,3.5662613 2.3528273,3.8852891 2.9749311,4.3516771 3.2043272,4.0455623 3.60615,3.6050006 3.9775893,3.2662236 3.4549917,2.6912142 Z M 12.482714,3.70147 12.796424,4.0455638 13.153432,4.5218267 13.372194,4.8811125 14.036835,4.4762511 13.811236,4.106331 13.790729,4.0759455 13.408656,3.5662609 13.385107,3.5381583 13.058483,3.1781129 Z M 1.8575765,4.6517164 1.8393463,4.684377 1.560577,5.2624249 1.5453853,5.2973646 1.3220659,5.9042767 1.3106719,5.940737 1.2681348,6.1055678 2.0216476,6.3000227 2.0611465,6.147348 2.2662357,5.5898096 2.5313324,5.0398666 2.5723503,4.9730228 1.908469,4.5681614 Z m 11.8526345,0.8872005 0.02355,0.050132 0.205849,0.5582983 0.154956,0.5970377 0.02658,0.170148 0.768705,-0.1177366 -0.02887,-0.1853397 -0.0076,-0.037981 -0.163312,-0.632738 -0.0114,-0.03646 -0.223318,-0.606912 -0.01519,-0.03494 -0.02963,-0.062287 z M 1.0387391,7.2662233 1.0349411,7.3057221 1.0007596,7.9794781 1,8.0128998 1.012913,8.3775028 1.014434,8.4025678 1.029626,8.5499285 1.8036457,8.4724516 1.7892135,8.3349658 1.7778196,7.9969487 1.810482,7.3672488 1.8636532,7.020876 1.0949487,6.9023803 Z m 13.1659649,0.381314 0.01823,0.35169 -0.03266,0.6319785 -0.07444,0.4861372 0.768704,0.1177363 0.07748,-0.502848 0.0038,-0.039499 L 15,8.0189767 V 7.9794777 L 14.98101,7.6080385 Z m -13.0444306,1.715153 0.032662,0.1481202 0.00836,0.030385 0.2111659,0.6859095 0.012913,0.0357 0.2635773,0.632738 L 2.4075198,10.596262 2.1507781,9.9802363 1.9494869,9.3300281 1.9191033,9.1940617 Z m 12.7846506,0.472465 h -7.78e-4 l -0.0038,0.01367 -0.205848,0.5598167 -0.265098,0.549944 -0.114698,0.187618 0.664641,0.404861 0.123814,-0.20433 0.01823,-0.03266 0.278769,-0.578047 0.01519,-0.03494 0.223319,-0.606913 0.0114,-0.03646 0.0068,-0.02811 -0.654766,-0.1693887 -0.09342,-0.03418 z M 1.0911507,12.89706 l 0.751234,0.20205 0.4033421,-1.503226 -0.751234,-0.201291 z m 11.7045143,-0.943411 -0.401063,0.439803 -0.440562,0.401823 -0.0084,0.0061 7.78e-4,7.78e-4 -0.0076,0.0068 0.0714,0.079 0.401823,0.536271 0.02127,-0.01671 0.02811,-0.02355 0.470186,-0.42689 0.02658,-0.02658 0.42689,-0.470186 0.02355,-0.02811 0.154956,-0.206608 -0.622863,-0.466387 z m -1.835928,1.514622 -0.549942,0.265097 -0.392708,0.144322 0.268135,0.729966 0.417014,-0.153438 0.03494,-0.01519 0.578048,-0.278768 0.03266,-0.01823 0.401063,-0.244588 -0.404101,-0.663882 z m -9.5252518,0.294721 -0.3828331,0.0828 v 7.78e-4 l 0.023547,0.07216 0.1177364,0.272693 0.050133,0.08432 0.1807824,0.232434 0.067603,0.0676 0.2324344,0.180783 0.084315,0.05013 0.2726927,0.117737 0.072161,0.02355 0.1481199,0.0319 0.051652,0.0076 0.1534371,0.01213 0.053172,7.78e-4 0.066844,-0.0038 -0.044816,-0.776301 -0.035701,0.0023 -0.1063423,-0.0084 -0.085833,-0.01899 L 2.1621719,14.112403 2.0079753,13.991628 1.8872005,13.837431 1.7884539,13.609555 Z M 3.2597788,14.060751 3.46107,14.811985 4.9635379,14.409403 4.7622467,13.658168 Z m 2.1876177,0.394227 0.2886438,0.120015 0.03494,0.01291 0.6874284,0.211166 0.030386,0.0084 0.3509304,0.07748 0.022028,0.0046 0.1625518,0.02582 0.1238133,-0.767945 -0.140524,-0.02203 -0.00456,-7.78e-4 -0.334977,-0.07446 L 6.01481,13.848865 5.746675,13.737205 Z m 3.8070624,-0.361564 -0.6221037,0.09571 -0.6312189,0.03266 -0.1283706,-0.0046 -0.026586,0.77706 0.139005,0.0053 0.033423,-7.78e-4 0.675275,-0.03419 0.039499,-0.0038 0.6547659,-0.101025 0.037981,-0.0076 0.0752,-0.01975 -0.1944549,-0.752752 z"/>
</svg>
