<svg width="16" height="16" version="1.1" xmlns="http://www.w3.org/2000/svg">
 <path d="m4.6171875 0c-2.5493696 0-4.6171875 2.3527098-4.6171875 5.2539062 0 0.7794984 0.12009741 1.5297702 0.33203125 2.2460938 0 0 0.19303813 0.6442028 0.36328125 1 0.09200831 0.2151173 0.19834205 0.4230362 0.3046875 0.6308594v2.8691406a1.0001 1.0001 0 1 0 2 0v-0.044922c2.2719144 2.519457 5 4.044922 5 4.044922s2.000427-1.110676 4-3.003906v1.003906a1.0001 1.0001 0 1 0 2 0v-3.25c0.507868-0.695885 0.961256-1.4470501 1.304688-2.25 0.170242-0.3557972 0.363281-1 0.363281-1 0.211933-0.7163236 0.332031-1.4665953 0.332031-2.2460938 0-2.9011964-2.067819-5.2539062-4.617188-5.2539062-1.337004 0-2.539572 0.56591397-3.382812 1.5996094-0.84324-1.0336954-2.0458093-1.5996094-3.3828125-1.5996094z" style="fill:#ed1b24"/>
 <path d="m8 3a5 4 0 0 0-5 4 5 4 0 0 0 1.8769531 3.123047l-0.8769531 0.876953h1a3 2 0 0 0 3 2 3 2 0 0 0 3-2h1l-0.882812-0.882812a5 4 0 0 0 1.882812-3.117188 5 4 0 0 0-5-4z" style="fill:#f4f4f7"/>
 <path d="m6 10v1h-1a3 2 0 0 0 0.4042969 1h5.1875001a3 2 0 0 0 0.408203-1v-1h-1v1h-1v-1h-1v1h-1v-1h-1z" style="fill:#17191e"/>
 <path d="m4.53125 6.3554688a1.5 1.5 0 0 0-0.4433594 0.6445312h-1.0878906l1 0.5a1.5 1.5 0 0 0 1.5 1.5 1.5 1.5 0 0 0 1.4277344-1.046875l-2.3964844-1.5976562zm6.935547 0-2.3964845 1.5976562a1.5 1.5 0 0 0 1.4296875 1.046875 1.5 1.5 0 0 0 1.5-1.5l1-0.5h-1.087891a1.5 1.5 0 0 0-0.445312-0.6445312z" style="fill:#17191e"/>
</svg>
