<svg xmlns="http://www.w3.org/2000/svg" width="16" height="16" version="1.1">
 <path style="fill:#b2bfd9" d="M 10.361064,0.09179818 C 10.152513,0.00199782 9.9123236,0.0975987 9.8225236,0.30614998 L 8.0499316,4.4227961 6.3924728,0.25857158 C 6.3085032,0.04760514 6.0711208,-0.0546097 5.8601548,0.0293599 L 4.07729,0.73898166 C 3.8663236,0.82295118 3.7641084,1.0603337 3.848078,1.2713001 L 5.5055368,5.4355245 1.3888906,3.6629329 c -0.2085512,-0.089801 -0.44874044,0.0058 -0.5385408,0.214352 L 0.0917982,5.6389357 C 0.00199784,5.8474869 0.0975986,6.0876765 0.30614996,6.1774765 L 4.422796,7.9500685 0.25857156,9.6075273 c -0.21096644,0.08397 -0.31318128,0.321352 -0.22921168,0.5323177 l 0.7096218,1.782865 c 0.0839696,0.210967 0.32135212,0.313182 0.53231842,0.229212 l 4.1642243,-1.657459 -1.7725912,4.116646 c -0.089801,0.208552 0.0058,0.448741 0.2143516,0.538541 l 1.7616512,0.758552 c 0.2085512,0.0898 0.4487404,-0.0058 0.5385408,-0.214351 l 1.772592,-4.116647 1.6574584,4.164225 c 0.08397,0.210966 0.3213524,0.313181 0.5323188,0.229211 l 1.782864,-0.709621 c 0.210967,-0.08397 0.313182,-0.321353 0.229212,-0.532319 l -1.657458,-4.164224 4.116646,1.772591 c 0.208551,0.0898 0.44874,-0.0058 0.53854,-0.214352 l 0.758552,-1.761651 c 0.0898,-0.208551 -0.0058,-0.4487403 -0.214352,-0.5385407 L 11.577204,8.0499313 15.741429,6.3924729 C 15.952395,6.3085033 16.05461,6.0711205 15.97064,5.8601545 L 15.261019,4.0772897 C 15.177049,3.8663233 14.939666,3.7641085 14.7287,3.8480781 l -4.164224,1.6574584 1.772591,-4.1166459 c 0.0898,-0.2085513 -0.0058,-0.44874042 -0.214352,-0.53854078 z"/>
 <circle style="fill:#b2bfd9" cx="8" cy="8" r="6"/>
 <path style="fill:#4f4f4f" d="M 6.9500004,2.3551125 4.5,6.8921488 6.9499973,11.429185 V 9.6143707 C 6.4998067,9.5662309 6.3707932,9.3506196 6.3408826,9.0304711 6.3063026,8.660163 6.5876843,8.3694075 6.4542647,8.0744224 6.9741963,8.207102 6.9871043,8.4183612 7.1173463,8.7305927 c 0.06449,-0.2179855 0.046192,-0.3766245 0.027475,-0.5166226 0.6751006,0.309766 0.8662422,0.6591332 0.8570971,1.4046826 -0.00245,0.1992723 -0.5341416,0.8399553 -0.5238341,1.0299763 0.010325,0.190023 0.213598,0.404781 0.2370581,0.564129 0.023026,0.156549 -0.3951006,0.360998 -0.3951006,0.674049 0,0.296774 0.6799446,1.357193 0.6799446,1.357193 l 0.6999988,-1.209876 c -0.3717307,0.205801 -0.6119882,0.225077 -0.7860428,0.216129 -0.2493715,0.01243 -0.3779156,-0.225961 -0.344169,-0.371789 0.053361,-0.230574 0.430213,-0.497995 0.430213,-0.66922 0,-0.204494 -0.1542874,-0.334963 -0.1371094,-0.533893 C 7.880062,10.476423 8.6261636,9.910586 8.5534476,9.4906815 8.4398971,8.8349786 8.2908325,8.4581301 8.9004442,8.1842788 8.8238049,8.4097726 8.8704492,8.5409393 8.9107692,8.7602836 8.9834399,8.3390438 9.2013112,8.2834128 9.5669842,8.0447311 9.4613087,8.4947557 9.6773703,8.6640736 9.6631778,9.0037498 9.6490028,9.3434256 9.2756757,9.6068713 9.0500027,9.6143707 v 0.9074083 c 0.150654,-0.07174 0.2116345,1.05e-4 0.35,0 L 11.5,6.8921488 9.0500023,2.3551125 v 0.604938 c -0.2152111,0.121114 -0.2322456,0.2059933 -0.2263201,0.4020917 0,0 0.1198155,-0.10853 0.2263201,-0.099623 0.1065054,0.00891 0.6965626,1.6663598 0.6999996,1.814815 -3.1e-6,0.1840837 -0.6999996,0.3024688 -0.6999996,0.604938 0.1681925,-0.1451901 0.443709,-0.096142 0.6948126,0.0043 0.195244,0.078099 0.3443861,0.8516511 0.3718711,1.0268276 C 10.1099,6.8915468 9.8899319,7.0489088 9.6150769,7.051878 9.3402262,7.0548724 9.2165401,7.0103127 9.2131062,6.9034255 9.2095673,6.7965374 9.5669768,6.5144736 9.5669768,6.5144736 9.1573792,6.4950291 8.9742491,6.7392599 8.8214391,6.9123326 8.8418441,6.8084141 8.8626551,6.7341865 8.8832876,6.6451138 8.674947,6.6798649 8.5783011,6.821401 8.501928,6.9360851 8.398363,6.7048899 7.7841313,6.2225063 7.7941794,6.0198081 7.7565505,5.6867772 8.9197121,5.7077014 9.0432652,4.9331187 9.0364052,4.6391782 8.7205726,4.3546862 8.429779,4.2881648 8.1961509,4.234721 8.1205684,4.216906 8.1205684,4.216906 8.2774415,4.1439527 8.7482751,3.9356603 8.635915,3.6468396 8.592662,3.7608645 8.539217,3.9053597 8.0552899,3.9289042 7.5604533,3.7228638 7.6247273,3.4135712 7.7048528,3.1628767 7.3785797,3.3686537 7.4270578,3.5690171 7.5090212,3.8635833 7.5322962,4.0090678 7.3591858,4.1310984 7.3086497,4.2275907 c 0.010006,0.1215138 0.01806,0.253652 -0.060739,0.3099779 -0.1958491,0.184681 0.043274,0.465983 0.1545989,0.4483332 -0.01526,-0.365106 0.4126842,-0.5072981 0.5840613,-0.546313 0.2817255,-3.1e-6 0.7887071,0.3272605 0.7852697,0.5083754 C 8.7683795,5.1290787 8.4297724,5.3072244 8.0106229,5.4289575 7.5914707,5.5506906 7.2547742,5.7110213 7.2650821,6.1029424 7.2782071,6.4859466 7.4861491,6.8402901 7.5261922,6.9449922 7.3864691,6.8289361 7.3094656,6.6610726 7.1070434,6.6362063 7.1553116,6.7251327 7.2051236,6.8240338 7.2479111,6.9271776 7.0360459,6.6309687 6.8168304,6.544684 6.4336578,6.4996277 7.1075054,6.9645518 6.6419144,7.0617312 6.3924348,7.0578178 6.1545188,7.0540845 5.8589726,6.970207 5.8908296,6.7312173 c 0.01918,-0.1438364 0.1265141,-0.939248 0.3714752,-1.0438929 0.258244,-0.1103192 0.5301271,-0.1042841 0.6877006,-0.00505 0,-0.3024688 -0.7045597,-0.4678636 -0.6999992,-0.6049384 0.00455,-0.1370744 0.5880552,-1.8148146 0.6999992,-1.8148146 0.111944,0 0.1514832,0.020253 0.21875,0.1086999 0.064011,-0.2865749 -0.1472173,-0.3081462 -0.21875,-0.4111687 3.2e-6,-0.071258 0,-0.6049384 0,-0.6049384 z"/>
</svg>
