<svg xmlns="http://www.w3.org/2000/svg" width="16" height="16" version="1">
 <path style="fill:#8d49bc" d="m 8.0000004,-4.22e-6 c -0.4190666,0 -0.8385233,0.15623904 -1.1517858,0.46949403 L 0.46949491,6.8489539 C 0.15604746,7.1623931 -4.0951998e-4,7.5810034 8.8e-7,7.9999953 H 16 C 16,7.5810262 15.843024,7.1622087 15.529762,6.8489539 L 9.1517863,0.46948981 C 8.8385238,0.15623486 8.4190675,-4.22e-6 8.0000004,-4.22e-6 Z M 16,7.9999953 C 16,8.2094799 15.960842,8.4190902 15.88244,8.6153225 15.960756,8.4190525 16,8.2094799 16,7.9999953 Z M 15.88244,8.6153225 C 15.80404,8.8115549 15.686393,8.9944094 15.529762,9.1510368 15.686393,8.9944094 15.804125,8.811593 15.88244,8.6153225 Z"/>
 <path style="fill:#3a497d" d="M 8.8e-7,7.9999953 C 4.1230855e-4,8.4184932 0.15714834,8.8372227 0.47023895,9.1502928 L 6.848959,15.529757 c 0.6265253,0.62651 1.6763016,0.627228 2.3028273,7.62e-4 L 15.529762,9.1510368 C 15.843024,8.837782 16,8.4189645 16,7.9999953 Z"/>
 <path style="fill:#f4f4f7" transform="matrix(0.29266674,0,0,0.38018524,-17.876466,6.5458534)" d="M 98.666715,3.8248372 84.999292,11.715727 v -15.78178 z"/>
</svg>
