<svg xmlns="http://www.w3.org/2000/svg" width="16" height="16" version="1">
 <path style="fill:#fefdfd" d="M -2402.1486,37.744886 V -962.25511 h 1000 1000 V 37.744886 1037.7449 h -1000 -1000 z"/>
 <rect style="fill:#e78451" width="16" height="16" x="0" y="0" rx="4.8" ry="4.8"/>
 <circle style="fill:#f4f4f7" cx="8" cy="8" r="6"/>
 <path style="fill:#f80000" d="M 3.0000002,9.5871012 5.7635324,4 8.0075734,6.5770549 10.251615,4 13,9.5754646 11.225257,10.998832 9.7374621,6.8978955 8.0075734,8.9895338 6.2777387,6.8978778 4.7745071,11 Z"/>
</svg>
