<svg width="16" height="16" version="1.1" xmlns="http://www.w3.org/2000/svg">
 <path d="m8.0003267 0a7.9999002 8 0 0 0-7.9999 8 7.9999002 8 0 0 0 7.9999 8 7.9999002 8 0 0 0 0.397651-0.01406l-1.197641-6.38594 2.3999703-9.2 1.364045 0.1757812a7.9999002 8 0 0 0-2.9640253-0.5757812z" style="fill:#365849"/>
 <path d="m3.9589844-0.01367188a1.0001 1.0001 0 0 0-0.9082032 1.3300781s1.2135634 2.5195568 3.8847657 5.6816407c-1.5835548-0.0659156-2.8481375-0.4071728-3.6113281-0.9414063-1.0593958-0.741577-1.4296876-1.5039062-1.4296876-1.5039062a1.0001163 1.0001163 0 1 0-1.7890624 0.8945312s0.62970821 1.2376708 2.0703124 2.2460938c1.4406043 1.008423 3.7572341 1.8314766 6.9882813 1.2929687a1.0001 1.0001 0 0 0 0.5429687-1.6933593c-3.8821488-3.8821489-4.7578125-6.609375-4.7578124-6.609375a1.0001 1.0001 0 0 0-0.9902344-0.69726563z" style="fill:#786764"/>
 <path d="M 10.000302,0 C 9.200312,0 6,2 6,7.6 6,10.478271 7.40001,16 8.2,16 c 1.8,0 7.800227,-0.4 7.800227,-7.6 0,-6.8 -5.199935,-8.4 -5.999925,-8.4 z" style="fill:#afd1dc"/>
 <path d="m8 7s1e-5 3 0.8 3c0.3999953 0 1.20001-0.4 1.20001-0.4l-5e-6 1.9s0.09999 0.5 0.499995 0.5c0.399995 0 0.5-0.5 0.5-0.5l5e-6 -1.5s0.6 1 0.999995 1 1-1.8 1-1.8 5e-6 0.9 0.4 0.9c0.79999 0 0.6-3.1 0.6-3.1z" style="fill:#2a3054"/>
 <path d="m8 7-1-1s2-2 3.6-2c2.4 0 3.4 3 3.4 3z" style="fill:#17191e"/>
 <path d="m11.000281 5c-1.999968 0-2.9547508 1.8210936-2.9547508 1.8210936-0.060332 0.112624-0.060332 0.2451888 0 0.3578128 0 0 0.9547828 1.8210936 2.9547508 1.8210936 1.999969 0 2.954751-1.8210936 2.954751-1.8210936 0.06033-0.112624 0.06033-0.2451888 0-0.3578128 0 0-0.954782-1.8210936-2.954751-1.8210936z" style="fill:#b2bfd9"/>
 <path d="m15.588513 8c-0.136361 0.00412-0.261223 0.077446-0.331245 0.1945312l-2.199848 4.4002808c-0.07026 0.117184-0.07586 0.262124-0.01484 0.384376 0 0 0.390686 1.020375 1.45734 1.020375 0.333325 0 0.6441-0.191891 0.845298-0.460156 0.201197-0.268267 0.335255-0.612533 0.442863-1.042969 0.215215-0.860873 0.212146-2.479771 0.212146-4.096438 7.4e-5 -0.2255628-0.18625-0.4065852-0.411714-0.4z" style="fill:#78b2a1"/>
 <circle cx="11" cy="7" r="1" style="fill:#17191e"/>
</svg>
