<svg xmlns="http://www.w3.org/2000/svg" width="16" height="16" version="1">
 <path style="fill:#4f4f4f" d="m 13.087922,2 c -1.403495,0 -2.652333,0.8671735 -3.00708,2.1445312 -0.0305,0.1089569 0.07022,0.2005341 0.05854,0.3144532 C 9.519395,4.1790315 8.8006404,4.0097656 7.9616408,4.0097656 l -0.8956846,0 -0.00391,0 C 5.0431379,4.0032606 3.0294799,4 0.99910786,4 0.44733868,4.0000552 5.5168643e-5,4.4477381 0,5 L 0.00195139,8.0019531 C 0.00308254,8.5534521 0.45005109,8.999946 1.0010592,9 l 1.2527877,0 -1.15717,3.052734 c -0.011285,0.03075 -0.021054,0.06204 -0.029271,0.09375 -0.12861208,0.476364 0.046218,1.070348 0.4078389,1.404297 C 1.8368665,13.884731 2.2909017,14 2.7416925,14 l 2.9017058,0 c 3.0296148,0 5.0232197,-1.780906 5.6882807,-3.919922 l 0,-0.002 L 11.663413,9 11.950267,9 c 0.0737,0 0.143197,-2.112e-4 0.210749,0 0.756941,0.00355 1.447693,-0.2963384 1.922112,-0.7441406 0.47372,-0.4471421 0.751234,-1.0069038 0.905441,-1.5644532 0.134594,-0.4861266 -0.01511,-0.9776038 -0.210749,-1.40625 0.392224,-0.1428319 0.756493,-0.3442137 0.9874,-0.6640624 C 16.111517,4.1414015 15.999824,3.725791 15.899864,3.4433594 15.799907,3.1609278 15.640951,2.9320005 15.431533,2.7226562 15.0127,2.3039679 14.354087,1.9930498 13.560158,2 c -0.159355,7e-6 -0.313989,2.183e-4 -0.470284,0 z"/>
 <path style="fill:#f4f4f7" d="m 6.5652054,7.0021015 -3.3514907,0 L 1,7.0021015 1.00221,8 3.1163787,8 6.9592767,8 C 7.0996744,7.4829788 6.8547007,6.9627411 6.5654157,7.0021015 Z"/>
 <path style="fill:#f4f4f7" d="m 11.278354,7.9999674 0.681925,0 c 0.07169,0 0.143225,-2.242e-4 0.214991,0 1.038068,0.00487 1.631521,-0.7359014 1.86373,-1.5767054 0.453391,-1.6361027 -1.856853,-1.0845408 -1.584454,-2.046465 0.07914,-0.3036633 0.36862,-0.6032035 0.663479,-0.6075473 0.270345,-0.00487 0.482525,0.413521 0.568884,0.4856913 0.441582,0.3690173 0.977839,0.2014561 1.282285,-0.219882 0.160989,-0.222804 -0.310023,-1.0443707 -1.389107,-1.0349327 -0.161363,0 -0.32029,2.245e-4 -0.481166,0 l 0,0 c -1.038202,0 -1.813621,0.5741432 -2.045826,1.4149091 -0.44141,1.5755429 2.022481,1.0884738 1.749107,2.0656414 -0.105328,0.3787171 -0.424128,0.5421591 -0.854455,0.5500613 l -0.600218,0"/>
 <path style="fill:#f35654" d="m 1.0000432,5 4.629e-4,1 1.7253722,0 1.1596523,0 2.6232877,0 0.2251745,0 0.1801398,0 C 8.0810698,6.083311 8.5702592,7.1787187 8.2244161,8.3137678 L 7.7086611,9.8075397 C 7.3599987,10.943316 6.4881112,11.5 5.1485596,11.5 L 4.9909384,11.5 6.0497974,9 3.3265839,9 2.033416,12.40813 C 1.9524733,12.707665 2.1994883,13 2.7441382,13 l 2.9033527,0 c 2.6791082,0 4.180014,-1.41982 4.7393451,-3.2171783 L 10.816045,8.3890015 C 11.395607,6.516696 10.648014,5.0095278 7.9689101,5.0095278 l -0.9007001,0 c -2.0209633,-0.00651 -4.0357526,-0.00945 -6.0681778,-0.00945 l -3.22e-5,0 2.89e-5,1.821e-4 2.6e-6,-1.821e-4 z"/>
</svg>
