<svg xmlns="http://www.w3.org/2000/svg" width="16" height="16" version="1">
 <rect style="fill:#3c6290" width="16" height="16" x="0" y="0" rx=".8" ry=".8"/>
 <path style="fill:#f4f4f7" d="m11.528917 1.0000477c-0.379928-0.00298-0.762317 0.1337561-1.048077 0.3949282-0.5057129 0.462207-0.6290169 1.2476402-0.291052 1.8539156 0.189965 0.34079 0.675504 0.6727625 1.073128 0.733692 0.906353 0.1388829 1.737084-0.5709145 1.737084-1.4842334 0-0.5673617-0.375129-1.1466809-0.890294-1.3749273-0.183442-0.0813108-0.381779-0.121604-0.580789-0.1233751z"/>
 <path style="stroke-linejoin:round;stroke:#f4f4f7;stroke-linecap:round;fill:none" d="m5.5 6.5 1.7-2h2.8l1.5 2 2-2"/>
 <path style="stroke-linejoin:round;stroke:#f4f4f7;stroke-linecap:round;stroke-width:2;fill:none" d="m3 10h2.6l1.9-2 2.5 1.5-1 3.5"/>
 <rect style="fill:#f4f4f7" width="4.551" height="2.188" x="-2.35" y="9.87" transform="matrix(.62845685 -.77784445 .79675103 .6043077 0 0)"/>
</svg>
