<svg xmlns="http://www.w3.org/2000/svg" width="16" height="16" version="1.1">
 <g transform="translate(0,-1106.5197)">
  <circle style="fill:#8e8e8e" cx="8" cy="1114.52" r="7"/>
  <ellipse style="fill:#17191e" cx="8" cy="1117.645" rx="1" ry=".875"/>
  <path style="fill:none;stroke:#17191e;stroke-width:0.69999999;stroke-linecap:round;stroke-linejoin:round" d="m 3.65,1115.1697 c 0,0 -0.9631312,-5.0292 0.375,-5.25 1.3436076,-0.2216 2.651,2.323 2.651,2.323"/>
  <path style="fill:none;stroke:#17191e;stroke-width:0.69999999;stroke-linecap:round;stroke-linejoin:round" d="m 5.65,1117.3197 c 0,0 -0.4260082,-0.4681 -1.7273726,-0.4683 -1.3617719,-2e-4 -3.5676274,0.4683 -3.5676274,0.4683"/>
  <path style="fill:none;stroke:#17191e;stroke-width:0.69999999;stroke-linecap:round;stroke-linejoin:round" d="m 5.65,1118.0197 c 0.052888,-0.013 -0.6529118,-0.5572 -2.0631241,-0.3148 C 2.3709617,1117.9139 1.4,1118.7197 1.4,1118.7197"/>
  <path style="fill:none;stroke:#17191e;stroke-width:0.69999999;stroke-linecap:round;stroke-linejoin:round" d="m 5.65,1118.7197 c 0,0 -0.075983,-0.2801 -0.6581594,-0.2717 C 3.6448793,1118.468 2.75,1119.2197 2.75,1119.2197"/>
  <ellipse style="fill:#17191e" cx="6" cy="1114.72" rx="1" ry="1.25"/>
  <ellipse style="fill:#f4f4f7" cx="6.35" cy="1115.02" rx=".35" ry=".5"/>
  <path style="fill:none;stroke:#17191e;stroke-width:0.69999999;stroke-linecap:round;stroke-linejoin:round" d="m 12.35,1115.1697 c 0,0 0.963131,-5.0292 -0.375,-5.25 -1.343608,-0.2216 -2.651,2.323 -2.651,2.323"/>
  <path style="fill:none;stroke:#17191e;stroke-width:0.69999999;stroke-linecap:round;stroke-linejoin:round" d="m 10.35,1117.3197 c 0,0 0.426008,-0.4681 1.727373,-0.4683 1.361771,-2e-4 3.567627,0.4683 3.567627,0.4683"/>
  <path style="fill:none;stroke:#17191e;stroke-width:0.69999999;stroke-linecap:round;stroke-linejoin:round" d="m 10.35,1118.0197 c -0.05289,-0.013 0.652912,-0.5572 2.063124,-0.3148 1.215914,0.209 2.186876,1.0148 2.186876,1.0148"/>
  <path style="fill:none;stroke:#17191e;stroke-width:0.69999999;stroke-linecap:round;stroke-linejoin:round" d="m 10.35,1118.7197 c 0,0 0.07598,-0.2801 0.658159,-0.2717 1.346962,0.02 2.241841,0.7717 2.241841,0.7717"/>
  <ellipse style="fill:#17191e" cx="-10" cy="1114.72" rx="1" ry="1.25" transform="scale(-1,1)"/>
  <ellipse style="fill:#f4f4f7" cx="-9.65" cy="1115.02" rx=".35" ry=".5" transform="scale(-1,1)"/>
 </g>
</svg>
