<svg width="16" height="16" version="1.1" xmlns="http://www.w3.org/2000/svg">
 <path d="m6.9999996-0.03244998c-3.8423036 1.5e-7 -6.9999996 3.1576961-6.9999996 7 0 3.842304 3.157696 7 6.9999996 7h0.0039c0.797734-0.0013 1.568283-0.177376 2.3125-0.441406l1.5332034 1.533203c0.584189 0.608468 1.489216 0.978967 2.302735 0.9375 0.813519-0.04147 1.488818-0.397022 1.984375-0.892578 0.495556-0.495557 0.851111-1.170856 0.892578-1.984375 0.04147-0.813519-0.329032-1.718546-0.9375-2.302735l-1.533197-1.5332028c0.26403-0.744217 0.440131-1.514766 0.441406-2.3125v-0.0039c0-3.8423039-3.157696-6.9999998-7.0000004-7z" style="fill:#018787"/>
 <path d="m6.9992409 1.9667969a5.0000002 5.0000002 0 0 1 5.0000001 5 5.0000002 5.0000002 0 0 1-0.830078 2.7558593l2.537109 2.5371098a1.0001 1.0001 0 1 1-1.414062 1.414062l-2.5371098-2.537109a5.0000002 5.0000002 0 0 1-2.7558593 0.830078 5.0000002 5.0000002 0 0 1-4.9999999-5.0000001 5.0000002 5.0000002 0 0 1 4.9999999-5zm0 2a3.0000001 3.0000001 0 0 0-2.9999999 3 3.0000001 3.0000001 0 0 0 2.9999999 3 3.0000001 3.0000001 0 0 0 3-3 3.0000001 3.0000001 0 0 0-3-3z" style="fill:#f4f4f7"/>
</svg>
