<svg xmlns="http://www.w3.org/2000/svg" width="16" height="16" version="1">
 <rect style="fill:#325f78" width="16" height="16" x="0" y="0" rx="8" ry="8"/>
 <rect style="fill:#5c8ba2" width="12" height="12" x="-14" y="-14" rx="6" ry="6" transform="matrix(0,-1,-1,0,0,0)"/>
 <path style="fill:#f4f4f7" d="m7.9998 3.8751-1.1133 1.336c-1.107 0.4415-1.8865 1.5245-1.8865 2.789 0 1.6567 1.3432 2.9999 3 2.9999 1.6569 0 3-1.3432 3-3 0-1.2647-0.77945-2.3477-1.8867-2.789l-1.1135-1.336z"/>
</svg>
