<svg xmlns="http://www.w3.org/2000/svg" width="16" height="16" version="1">
 <rect style="fill:#b2bfd9" width="16" height="16" x="0" y="0" rx=".8" ry=".8"/>
 <path style="fill:#17191e" d="M 4,5 V 7 9 H 2 v 2 H 6 V 9 7 h 4 v 4 h 2 V 7 h 2 V 5 H 12 10 6 Z"/>
</svg>
