<svg xmlns="http://www.w3.org/2000/svg" width="16" height="16" x="0" y="0" version="1.1" xml:space="preserve">
 <path style="fill:#ff9d20" d="m 2.1405449,2.6638781 c 4.6e-5,0.011628 -7.8e-4,0.023688 -7.8e-4,0.035156 -1.2e-6,0.199184 -1.14139453,0.5600448 -1.1397625,1.5592284 0.4669388,-0.2661224 1.4727319,-0.2664064 1.5396707,-0.2664064 0.00828,0.011608 0.018128,0.021364 0.026562,0.032812 C 2.2972081,3.6815233 2.1477824,3.0998505 2.1405449,2.6638781 Z"/>
 <path style="fill:#ff9d20" d="m 6.9789559,13.334375 c -0.00324,0.0024 0.00401,0.02427 0.02584,0.05 -0.01166,-0.02845 -0.02334,-0.05189 -0.02584,-0.05 z m 0.02584,0.05 c 0.00312,0.0076 0.00352,0.0029 0.00705,0.01328 C 7.2482039,14.043214 6.8788827,14.51149 6.7831711,14.61953 6.0111707,14.70035 5.2786159,15.00834 5.2204119,15.066405 4.9536507,15.267221 4.9537943,15.599964 5.0896299,15.80078 5.2238319,15.933026 5.4237431,16 5.5579419,16 5.6921407,16 5.8247027,15.933345 5.9589019,15.866406 6.0914639,15.799468 6.6792687,15.5 7.1473279,15.5 c 0.4680592,0 0.7744008,0.232529 0.9085996,0.366406 0.2667612,0.199184 0.602258,0.131996 0.8019196,-0.06719 0.1996616,-0.199184 0.1994124,-0.531997 -0.067349,-0.732813 -0.026188,-0.02612 -0.1873924,-0.10583 -0.4017428,-0.189844 -7.6e-4,-0.0041 7.2e-5,-0.0067 -8e-4,-0.01094 0,0 -0.4402916,-0.199466 -0.4402916,-1.066406 0,-0.133877 -0.2683624,-0.399751 -0.6022228,-0.332812 -0.1985768,0.03315 -0.29822,-0.03201 -0.3406608,-0.08203 z"/>
 <path style="fill:#e53d3d" d="M 4,-3.0000003e-8 C 3.448211,-3.0000003e-8 3,0.448211 3,1 3,1.5517891 3.448211,2 4,2 4.5517895,2 5,1.5517891 5,1 5,0.448211 4.5517895,-3.0000003e-8 4,-3.0000003e-8 Z"/>
 <path style="fill:#e53d3d" d="M 5.9138154,1.0899331 C 5.4110338,0.8613961 4.8184702,1.0834031 4.589933,1.5861848 4.3613962,2.0889661 4.583403,2.6815298 5.086185,2.910067 5.5889662,3.1386038 6.1831622,2.916597 6.410067,2.4138151 6.6386038,1.9126662 6.416597,1.31847 5.9138154,1.0899331 Z"/>
 <path style="fill:#e53d3d" d="M 2.4145408,1.0990431 C 2.0281917,1.310912 1.8857588,1.7987447 2.0994082,2.185094 2.3130575,2.5732236 2.7973296,2.7138761 3.1854592,2.5002267 3.5718084,2.2883578 3.7142412,1.8005251 3.500592,1.4141759 3.2887232,1.0278266 2.8008904,0.8853938 2.4145408,1.0990431 Z"/>
 <path style="fill:#d8bfa2" d="m 3.9993646,1.0000043 c -1.0605455,0.00125 -1.9357048,0.817571 -1.9945312,1.8604402 -0.00568,0.047068 -0.00487,0.094224 -0.00469,0.1408026 1.3e-5,7.879e-4 -1.39e-5,0.00154 0,0.00232 0.00773,0.4285458 0.1572365,0.8429397 0.4257812,1.1802791 C 2.7568352,4.6261089 3,4.9540674 3,5.5310724 3,6.6469664 2,7.4345998 2,9.010357 2,12.293722 6.7199582,14 8.586081,14 c 0.9359908,0 1.683054,-0.17946 2.157812,-0.360854 1.980237,-0.842972 2.758448,-2.972477 4.855469,-4.0601 -0.200816,-0.26209 -0.266122,-0.456398 -0.8,-0.5882471 0.267755,-0.3280148 0.333061,-0.3280123 0.8,-0.3939369 -0.333059,-0.3939351 -0.612747,-0.985908 -1.079685,-0.985908 0.8,-0.1977737 1.479687,-2.1739357 1.479687,-3.1595882 C 15.733242,5.1073954 13.851425,7 9.9853022,7 7.2878786,6.7714179 6.6148158,3.7750757 5.707177,1.947921 5.3504722,1.3687533 4.7075838,1.000757 3.9993646,1.0000043 Z"/>
 <circle style="fill:#17191e" cx="3.5" cy="2.5" r=".5"/>
</svg>
