<svg xmlns="http://www.w3.org/2000/svg" width="16" height="16" version="1.1">
 <path style="fill:#4f4f4f" d="M 8.0419413,5.3203445e-4 A 1.7754963,1.8191449 0 0 0 7.1121157,0.24321001 L 1.8878259,3.3335843 A 1.7754963,1.8191449 0 0 0 0.99999993,4.9091712 V 11.09032 a 1.7754963,1.8191449 0 0 0 0.88774817,1.575427 l 5.2242898,3.090534 a 1.7754963,1.8191449 0 0 0 1.7754963,0 L 14.111824,12.665747 A 1.7754963,1.8191449 0 0 0 14.99965,11.09016 V 4.9090112 A 1.7754963,1.8191449 0 0 0 14.111824,3.3334243 L 8.8875342,0.24305002 A 1.7754963,1.8191449 0 0 0 8.041708,3.7203578e-4 Z"/>
 <path style="opacity:0.3" d="m 2.039189,3.6426514 v 0 C 1.598805,3.9039696 1.1378667,4.0371213 1.0373342,4.548265 L 7.222287,8.0841732 v 0.906242 L 8.0000583,8.3997954 7.6111727,7.3568352 8.0000583,7.599802 7.219249,6.2521568 2.4493233,3.5248359 l 0.00911,-0.00547 z"/>
 <ellipse style="fill:#f4f4f7" cx=".319" cy="5.249" rx="1.112" ry="1.444" transform="matrix(0.94234867,-0.33463262,0.35552158,0.93466807,0,0)"/>
 <ellipse style="fill:#f4f4f7" cx="3.757" cy="9.262" rx="1.112" ry="1.444" transform="matrix(0.94234867,-0.33463262,0.35552158,0.93466807,0,0)"/>
 <ellipse style="fill:#f4f4f7" cx="2.031" cy="7.275" rx="1.112" ry="1.444" transform="matrix(0.94234867,-0.33463262,0.35552158,0.93466807,0,0)"/>
 <path style="fill:#d87900" d="m 1.1793686,4.1138934 a 1.7754963,1.8191449 0 0 0 -0.179252,0.7953062 v 6.1811984 a 1.7754963,1.8191449 0 0 0 0.8879049,1.574987 l 5.2241319,3.090599 a 1.7754963,1.8191449 0 0 0 0.8879049,0.242967 v -7.98509 z"/>
 <path style="fill:#ad6200" d="M 14.825305,4.1287373 7.9992988,8.0310484 8.0000583,15.998951 A 1.7754963,1.8191449 0 0 0 8.8872037,15.755984 L 14.112095,12.665385 A 1.7754963,1.8191449 0 0 0 15,11.090398 V 4.9091996 A 1.7754963,1.8191449 0 0 0 14.825305,4.1287373 Z"/>
 <path style="opacity:0.1;fill:#f4f4f7" d="M 14.825305,4.1287373 7.9992988,8.0310484 V 10.432591 L 14.825305,6.5302797 A 1.7754963,1.8191449 0 0 1 15,7.310742 V 4.9091996 A 1.7754963,1.8191449 0 0 0 14.825305,4.1287373 Z"/>
 <path style="opacity:0.2;fill:none;stroke:#f4f4f7;stroke-width:0.39440203px" d="M 3.8139644,3.3510674 6.9276797,2.6320986 8.135039,0.86735746 v 0"/>
 <path style="opacity:0.2;fill:none;stroke:#f4f4f7;stroke-width:0.39440203px" d="M 5.7203208,4.4622005 8.7704909,3.7759126 9.9778498,1.8477693"/>
 <path style="opacity:0.2;fill:none;stroke:#f4f4f7;stroke-width:0.39440203px" d="M 7.4995866,5.5079734 10.517984,4.7890046 11.725343,2.9589026"/>
 <path style="opacity:0.35;fill:#f4f4f7" d="M 4.2,7.076 4,8.981232 1.0091818,7.334187 V 9.238933 L 4,10.885978 3.9,12.991 8.000058,12.367 4.2,7.076"/>
</svg>
