<svg width="16" height="16" version="1.1" xmlns="http://www.w3.org/2000/svg">
 <circle cx="8" cy="8" r="8" style="fill:#4f4f4f"/>
 <path d="m8.2616073 2.0001685c-0.1676959-0.0019274-0.3330953 0.0127501-0.4931646 0.0456486-0.3960821 0.0814058-0.9264246 0.3296317-1.1888077 0.5577079-0.3093531 0.2689021-0.2588703 0.4405458 0.0741752 0.25206 0.1515243-0.0857543 0.9285849-0.1053368 1.178784-0.0297708 0.2098954 0.0633934 0.0526699 0.1018112-0.5192263 0.1270224-0.4348254 0.0191687-0.5204266 0.0407626-0.7257139 0.1845795-0.3485806 0.2442027-0.3741687 0.3129007-0.196464 0.5219827 0.082688 0.097289 0.1646017 0.2437976 0.1824308 0.325495 0.060788 0.2785441 0.2463092 0.6767913 0.3147433 0.6767913 0.025656 0 0.046109 0.040713 0.046109 0.091298 0 0.1705933-0.2137569-0.081338-0.3307812-0.390991-0.093787-0.2481693-0.43128-0.7006086-0.5232362-0.7006086-0.017659 0-0.046171 0.036972-0.064152 0.083358-0.049851 0.1286138 0.1366861 0.4723647 0.2566061 0.4723647 0.1572786 0 0.3382873 0.5919507 0.2846723 0.9308361-0.015747 0.09953-0.011163 0.3183457 0.010032 0.4862577l0.038085 0.305648h0.2726439c0.1499381 0 0.3060232 0.032085 0.3468191 0.07145 0.040797 0.039366 0.1752138 0.1162905 0.2987054 0.1706864 0.1234918 0.054396 0.2750498 0.1214347 0.3367955 0.1488543 0.061745 0.02742 0.1880442 0.056777 0.2806629 0.065496 0.2434382 0.022918 0.209043 0.1179558-0.1263008 0.3413731-0.2878209 0.1917561-0.3058143 0.1943858-0.7016572 0.1627474-0.2606443-0.0208329-0.45972-0.0687719-0.5553115-0.1349613-0.1687346-0.1168353-0.2877782-0.1289783-0.445051-0.0456487-0.1441372 0.07637-0.1519798 0.3848462-0.010032 0.3909908 0.2267223 0.00982 0.3237899 0.054181 0.4731173 0.2123656 0.1206788 0.1278374 0.1583741 0.2215742 0.1583741 0.3989299 0 0.2192911-0.00708 0.2304039-0.1443409 0.2044266-0.1258207-0.023812-0.142064-0.013223-0.1142699 0.089313 0.017626 0.065027 0.03366 0.2267883 0.03408 0.3592354 9.993e-4 0.3134884 0.092 0.2858273 0.2987054-0.091298 0.08686-0.1584711 0.1815839-0.2877852 0.2104971-0.2877852 0.028913 0 0.053151 0.1312896 0.054128 0.2917547l2e-3 0.2917546 0.1383267-0.1567933c0.1716555-0.1931564 0.1713427-0.2099299-0.0019913-0.3711435-0.1621989-0.1508571-0.2062035-0.555723-0.0601421-0.555723 0.044487 0 0.097898 0.026894 0.1182795 0.059542 0.020382 0.032649 0.069503 0.046478 0.1082554 0.031756 0.048995-0.018614 0.068303 0.035112 0.064151 0.1726711-0.00965 0.3196508 0.1148949 0.2752665 0.3728807-0.1329765l0.2385634-0.3790826 0.0180422 0.2977088c0.02174 0.3764752-0.00777 0.4505326-0.1804262 0.4505326-0.1908024 0-0.2376459 0.1001445-0.1062512 0.2302282 0.071019 0.07031 0.2200062 0.1201738 0.4229991 0.1409155 0.369748 0.037781 0.390459 0.1642038 0.036086 0.2203044-0.1201219 0.019017-0.2185158 0.056699-0.2185158 0.083358 0 0.026658-0.072546 0.047633-0.1603788 0.047633-0.090864 0-0.2040237 0.050804-0.264625 0.1170989-0.090402 0.0988968-0.1482172 0.1111422-0.3748851 0.0813738-0.2584658-0.033945-0.2666296-0.030829-0.2666296 0.1071752 0 0.1581654 0.1398053 0.2446419 0.2385633 0.1468696 0.034972-0.034623 0.110403-0.063511 0.1663931-0.063511 0.05599 0 0.1511747-0.031547 0.2125018-0.069465 0.089342-0.055239 0.1362334-0.054337 0.2305445 0.00397 0.064737 0.040026 0.2352404 0.068337 0.3788949 0.063511 0.3549834-0.011923 0.3861733-0.00482 0.2886817 0.057557-0.046309 0.029629-0.1641053 0.055104-0.2626202 0.055572-0.098515 4.446e-4 -0.1954259 0.025008-0.2145067 0.055572-0.019081 0.030565-0.1349849 0.055572-0.2586107 0.055572-0.2197775 0-0.2256909 0.00401-0.2084924 0.18061 0.01752 0.179897 0.01977 0.1805395 0.2967007 0.1627474 0.2315716-0.014878 0.4420117-0.079812 0.717695-0.2203044 0.023155-0.0118 0.0421 0.016013 0.0421 0.061527 0 0.094095-0.4788266 0.4271873-0.6134487 0.426716-0.355901-0.00124-0.7064942-0.2413006-0.6375061-0.43664 0.025527-0.072282 0.017966-0.077003-0.040095-0.023816-0.050679 0.046423-0.1044417 0.050044-0.1764166 0.011909-0.1240457-0.065724-0.3287765 0.023069-0.3287765 0.1429002 0 0.1291945 0.456265 0.694285 0.5833778 0.72244 0.064535 0.0143 0.2445778 0.0337 0.3989421 0.04167 0.2358562 0.0122 0.280663 0.03196 0.280663 0.123053 0 0.07931-0.078607 0.138955-0.2946961 0.222289-0.238464 0.09197-0.3344628 0.168248-0.4931647 0.4029-0.2320526 0.343104-0.5147258 0.633533-0.8018939 0.821676-0.2574328 0.16866-0.8109429 0.360086-1.042462 0.36122-0.095504 4.45e-4 -0.2128437 0.02494-0.2586108 0.05358-0.070198 0.04394-0.060621 0.07726 0.060143 0.208396 0.078735 0.0855 0.1879239 0.22358 0.2405681 0.307633 0.1816835 0.29008-0.03681 0.182067-0.9963531-0.492212-0.1897336-0.133316-0.9158742-1.028923-1.1888084-1.466698-0.1903249-0.305271-0.2253854-0.333434-0.4069612-0.333433-0.1089539 0-0.2433967-0.03976-0.2987054-0.08931-0.1006852-0.09021-0.2726439-0.07317-0.2726439 0.02778 0 0.09197 0.6705567 0.899542 1.1747744 1.415109 0.505813 0.517197 1.1338851 1.023595 1.639873 1.319842 0.309417 0.181157 0.9459545 0.438623 1.0825567 0.438624 0.1551364 0 0.1368124-0.17652-0.046109-0.460457-0.2425898-0.37655-0.4420983-0.765058-0.4089658-0.797859 0.047924-0.04745 0.431018 0.324759 0.431018 0.418777 0 0.09034 0.451948 0.742233 0.687624 0.992363 0.1478408 0.156908 0.4752056 0.172318 0.5352642 0.0258 0.022161-0.05406 0.1460157-0.235364 0.2746486-0.402899 0.1286328-0.167535 0.3014618-0.478715 0.384909-0.692669 0.083446-0.213953 0.1749946-0.447155 0.2024782-0.518014 0.060177-0.155144 0.2884352-0.149479 0.3187528 0.0079 0.010747 0.05581-0.1444918 0.381837-0.3448143 0.724424-0.2003232 0.342585-0.372119 0.684796-0.3829044 0.76015l-0.020048 0.136946 0.589392-6e-3c1.5917506-0.01672 3.2154376-0.696526 4.4565246-1.867626 0.375709-0.354523 0.426199-0.428707 0.425005-0.599388-2e-3 -0.272884-0.168616-0.60854-0.406962-0.815721-0.249035-0.216474-0.95386-0.6291583-1.074538-0.6291583-0.114641 0-0.110317 0.046364 0.02004 0.2580133 0.105633 0.171501 0.104863 0.176075-4e-3 0.353282l-0.110261 0.178625-0.481135-0.03969-0.479133-0.03969-0.212501 0.206412c-0.235845 0.227995-0.449061 0.234736-0.449061 0.01389 0-0.06474-0.05528-0.175486-0.122289-0.246106-0.155265-0.163624-0.08752-0.240753 0.08019-0.09129 0.209981 0.187134 0.25388 0.193238 0.400947 0.04763 0.07777-0.077 0.195436-0.140915 0.260615-0.140915 0.06517 0 0.164046-0.02366 0.220521-0.05358 0.07459-0.03952 0.120351-0.03192 0.170401 0.02778 0.07975 0.09515 0.351359 0.107445 0.509204 0.02382 0.107272-0.05684 0.106513-0.06133-4e-3 -0.275876-0.08358-0.162033-0.205549-0.2672277-0.479142-0.4187022-0.201737-0.111692-0.480822-0.323315-0.621468-0.4703799-0.328613-0.3436136-0.544924-0.4410617-0.691633-0.3096171-0.1416028 0.1268704-0.1779014 0.2905213-0.0821942 0.3691589 0.043123 0.035431 0.078185 0.1253888 0.078185 0.1984725 0 0.073085 0.03205 0.1817206 0.07016 0.2421365 0.05823 0.092309 0.04702 0.1520481-0.07016 0.3691593-0.076703 0.142099-0.2413702 0.330281-0.364862 0.418776-0.3782851 0.27108-0.4032025 0.301605-0.4410415 0.535876-0.02016 0.124815-0.08328 0.257835-0.1403316 0.297709-0.057052 0.03987-0.1467689 0.15471-0.1984687 0.254045-0.078441 0.150718-0.1255687 0.18061-0.286677 0.18061-0.1061841 0-0.3090965 0.03961-0.4510653 0.08733-0.1419683 0.04772-0.3133974 0.07898-0.3808995 0.06947-0.153727-0.02167-0.1613522-0.176202-0.010032-0.200457 0.061745-0.0099 0.2083689-0.05523 0.324767-0.09924 0.1164025-0.04401 0.27042-0.07939 0.3428141-0.07939 0.1885718 0 0.3981272-0.183705 0.5392737-0.472365 0.067196-0.137423 0.1457939-0.250074 0.1744119-0.250076 0.028619 0 0.094818-0.08752 0.1463456-0.194503 0.051528-0.106976 0.1119868-0.194503 0.136322-0.194503 0.072827 0 0.4410415-0.5729868 0.4410415-0.6867142 0-0.057929-0.050944-0.1883316-0.1142697-0.2897699-0.1049137-0.1680615-0.1088539-0.1996259-0.0340803-0.3413748 0.045132-0.085558 0.1612314-0.2277845 0.256606-0.317556 0.095375-0.089771 0.172407-0.1991875 0.172407-0.2421365s0.04917-0.1380065 0.108256-0.2123656c0.05908-0.074359 0.137961-0.3170334 0.17642-0.5378606 0.08042-0.4617813 0.171572-0.6671794 0.378894-0.8574013 0.136052-0.1248304 0.147572-0.1753763 0.168399-0.6886997 0.01889-0.4656069 0.0085-0.5654209-0.06816-0.621219-0.074064-0.0539229-0.095936-0.2147367-0.120286-0.8454929-0.034532-0.8945047-0.036513-0.9030453-0.270639-1.2900715-0.217838-0.3600998-0.341902-0.3751856-0.6154533-0.0754195-0.1481389 0.1623355-0.1899256 0.25096-0.166393 0.3473269 0.025519 0.1045006 0.0169633 0.1161379-0.0420994 0.0615265-0.1274726-0.1178647-0.0791289-0.3661856 0.136322-0.6986233 0.2757127-0.4254203 0.2605427-0.5664418-0.0922179-0.7998443-0.4410524-0.2918215-0.9623728-0.4507048-1.4654611-0.4564868zm1.3692339 4.3783039c0.2423833-0.00111 0.4814608 0.018187 0.5212308 0.057557 0.05704 0.056474-0.3570717 0.337403-0.497174 0.337403-0.061656 0-0.081559 0.044469-0.070166 0.1508391 0.0275658 0.2573536-0.1542085 0.2244292-0.4650981-0.0833581-0.1525651-0.1510415-0.2766535-0.3171875-0.2766535-0.3711436 0-0.080901 0.014763-0.086822 0.084198-0.029771 0.066712 0.054813 0.1024265 0.054204 0.1683977 0 0.048412-0.039777 0.2928807-0.060414 0.5352651-0.061526zm-0.4169849 1.0320572c0.0682374 0.023686 0.1735865 0.1648089 0.2606156 0.3632047 0.1093807 0.2493497 0.1093774 0.2493212 0.1944592 0.1250377 0.0915695-0.1337625 0.2924237-0.1706314 0.3027149-0.055572 0.0175846 0.1965987-0.0287518 0.3525253-0.1242935 0.4187771-0.058619 0.040648-0.1062512 0.1172858-0.1062512 0.1706863 0 0.092217-0.3254523 0.4525174-0.4089659 0.4525174-0.021684 0-0.040095-0.036602-0.040095-0.081374s0.05052-0.1082002 0.1122652-0.1409156c0.1154999-0.061196 0.1561798-0.2222892 0.056132-0.2222892-0.030873 0-0.056132 0.025008-0.056132 0.055572 0 0.030565-0.05052 0.055572-0.1122652 0.055572-0.1499032 0-0.1424865-0.091069 0.014033-0.1726711 0.260133-0.1356232 0.2783607-0.2870424 0.032076-0.2619838-0.1064679 0.010832-0.1864348-0.00999-0.2004735-0.051603-0.012888-0.038206 0.017273-0.069465 0.066156-0.069465 0.1111577 0 0.1129443-0.1611306 0.00602-0.3651894-0.044729-0.085356-0.066723-0.1758428-0.050118-0.202442 0.012672-0.020298 0.031382-0.025758 0.054128-0.017862z" style="fill:#f4f4f7"/>
</svg>
