<svg xmlns="http://www.w3.org/2000/svg" width="16" height="16" version="1">
 <circle style="fill:#ffb310" cx="8.5" cy="8.5" r="7.5"/>
 <path style="fill:#f4f4f7" d="m 4.4051786,1.9553242 c -0.062774,-0.00248 -0.1256422,-0.00101 -0.1882324,0.00439 L 0.64224097,2.2652954 c 0,0 -0.70700422,0.7940809 -0.6374223,1.6077308 0.0679348,0.8436296 0.73650323,1.3946392 0.73650323,1.3946392 L 3.3058132,5.0483418 4.2997099,7.948 7.1371121,6.9746114 5.7638212,2.9675312 C 5.5630492,2.3822065 5.0234786,1.9802189 4.4051786,1.9553242 Z"/>
 <path style="fill:#df4418" d="M 3.2259795,2.0446797 1.3912627,2.2014179 C 1.2058195,2.7132966 1.0409776,3.2686218 1.0418974,3.6450217 1.0429512,4.0755666 1.2570833,4.6924169 1.4725615,5.2050801 L 3.3058132,5.0483418 3.6800809,6.1396503 h 0.2124026 c 0,0 -0.096554,-0.168261 -0.2248538,-0.4028321 0.369663,-0.3804327 1.00821,-0.9931943 1.4443362,-1.1264648 0.313389,-0.095765 0.8092248,-0.035077 1.2319335,0.050537 L 5.895657,3.3520529 C 5.4220729,3.3202942 4.855248,3.3114693 4.5267608,3.4157733 4.0354076,3.5717827 3.3453833,4.2021355 3.0611846,4.4755878 2.8980507,4.0711566 2.7723714,3.6709919 2.7748076,3.3820822 2.7779995,3.0035491 2.9892252,2.4992081 3.2259795,2.0446797 Z"/>
 <path style="fill:#b2bfd9" d="M 14.95,7.25 C 14.95,10.977922 11.927922,14 8.2,14 4.4720781,14 1.45,10.977922 1.45,7.25 1.45,6.125 4.4720781,5 8.2,5 c 3.727922,0 6.75,0.375 6.75,2.25 z"/>
 <path style="fill:#f4f4f7" d="M 11.431641 5.15625 C 11.258177 5.6110115 11.15871 6.1278289 11.158203 6.6640625 C 11.158316 8.312837 12.172073 9.6503326 13.238281 9.6503906 C 13.75055 9.6497906 14.241669 9.3341756 14.603516 8.7734375 C 14.791647 8.2058302 14.890621 7.6013073 14.921875 6.9785156 C 14.731146 5.8856313 13.364151 5.3773358 11.431641 5.15625 z"/>
 <path style="fill:#b2bfd9" d="M 3,7 A 3,3 0 0 0 0,10 3,3 0 0 0 3,13 3,3 0 0 0 6,10 3,3 0 0 0 3,7 Z M 2.625,8.875 A 1.125,1.125 0 0 1 3.75,10 1.125,1.125 0 0 1 2.625,11.125 1.125,1.125 0 0 1 1.5,10 1.125,1.125 0 0 1 2.625,8.875 Z"/>
 <path style="fill:#17191e" d="m 9.9349305,12.12147 c -0.256943,0.799746 -1.7513276,1.113415 -3.3803198,0.689043 -1.6289922,-0.424372 -2.7749163,-1.425855 -2.5187834,-2.22583 0.4307178,-1.3452534 1.423962,-0.0059 3.0529545,0.418547 1.6289922,0.424371 3.2598062,-0.169292 2.8461487,1.11824 z"/>
 <path style="fill:#df4418" d="m 4.6210937,10.880214 c -0.2248376,0.01169 -0.4212197,0.06947 -0.5838694,0.18099 0.1998896,0.686063 1.2004848,1.406255 2.517463,1.749343 0.41168,0.107248 0.8144911,0.166554 1.1911764,0.183594 0.1655671,-0.725952 -0.4285278,-1.25141 -1.344899,-1.660152 0.045297,0.221646 0.08797,0.443674 0.1399359,0.664061 L 5.8315715,11.10938 C 5.3840428,10.954151 4.9690596,10.86212 4.6210937,10.880214 Z"/>
 <path style="fill:#17191e" d="M 12.090659,5.5 A 1.0236588,1.75 0 0 0 11.067,7.25 1.0236588,1.75 0 0 0 12.090659,9 1.0236588,1.75 0 0 0 13.067,7.7729494 L 12.263934,7.0804687 12.999689,6.4454103 A 1.0236588,1.75 0 0 0 12.090659,5.5 Z"/>
 <path style="fill:#f4f4f7" d="M 8.1992188 5 C 6.6600434 5 5.2585528 5.1975805 4.1230469 5.5019531 A 3.9375 3.9375 0 0 0 4.0742188 6.0878906 A 3.9375 3.9375 0 0 0 8.0117188 10.025391 A 3.9375 3.9375 0 0 0 11.949219 6.0878906 A 3.9375 3.9375 0 0 0 11.84375 5.2011719 C 10.791414 5.0507777 9.5439604 5 8.1992188 5 z"/>
 <path style="fill:#17191e" d="M 8.0236588,5.5 A 1.0236588,1.75 0 0 0 7,7.25 1.0236588,1.75 0 0 0 8.0236588,9 1.0236588,1.75 0 0 0 9,7.7729494 L 8.1969342,7.0804687 8.932689,6.4454103 A 1.0236588,1.75 0 0 0 8.0236588,5.5 Z"/>
 <circle style="fill:#df4418" cx="12" cy="9" r="1"/>
</svg>
