<svg width="16" height="16" version="1.1" xmlns="http://www.w3.org/2000/svg">
 <circle cx="12" cy="4" r="3" style="fill:#17191e"/>
 <path d="m8 2v14a8 7 0 0 0 8-7 8 7 0 0 0-8-7z" style="fill:#4f4f4f"/>
 <circle cx="4" cy="4" r="3" style="fill:#c9c9c9"/>
 <path d="m8 2a8 7 0 0 0-8 7 8 7 0 0 0 8 7v-14z" style="fill:#b2bfd9"/>
 <rect x="7" y="11" width="1" height="2" style="fill:#17191e"/>
 <circle cx="5" cy="7" r="1" style="fill:#17191e"/>
 <path d="m8 11v2c4 0 6-3 6-3s-2 1-6 1z" style="fill:#f4f4f7"/>
 <path d="m6 11s0.6175768 0.724365 1 1c0.6046642 0.435817 1.2303701 0.882105 1.9661017 0.762712 0.4653175-0.07551 1.0338983-0.271187 1.0338983-0.271187s-0.2928932 1.272773-1 1.508475-1.4729537-0.472954-2-1-1-2-1-2z" style="fill:#b3b3b3"/>
 <path d="m8 9c-2 0-3 1-3 1 0 1 0 2 2 2 0.3426548 0 1-1 1-1s0.5285955 1 1 1c2 0 2-1 2-2 0 0-1-1-3-1z" style="fill:#b3b3b3"/>
 <ellipse cx="8" cy="9.5" rx="1" ry=".5" style="fill:#17191e"/>
 <path d="M 11,6 9,8 C 9,8 10.534073,7.347561 11,7.347561 11.20718,7.7620168 11.227712,8 11.227712,8 c 0,0 0.57764,-0.486407 1.136945,-0.5502452 C 12.792794,7.6143069 12.772288,8 12.772288,8 L 14,5.5254237 C 14,5.5254237 12.714795,7 11.445642,7 11,7 11,6 11,6 Z" style="fill:#f00e0e"/>
</svg>
