<svg width="16" height="16" version="1.1" xmlns="http://www.w3.org/2000/svg">
 <rect width="16" height="16" rx="1" ry="1" style="fill:#17191e"/>
 <rect x="1" y="5" width="2" height="5" style="fill:#f4f4f7"/>
 <path d="m4 10 5-5v7h-2v-2z" style="fill:#f4f4f7"/>
 <circle cx="12.5" cy="7.5" r="2.5" style="fill:#f4f4f7"/>
</svg>
