<svg width="16" height="16" version="1.1" xmlns="http://www.w3.org/2000/svg">
 <circle cx="8" cy="8" r="8" style="fill:#55458f"/>
 <path d="M 8,2 C 5.6666667,2 4.2247257,3.3142205 3.6054688,4.5527344 2.9862118,5.7912483 3,7 3,7 v 4 c 0,0 0.00862,0.314915 0.1132812,0.628906 0.1046638,0.313991 0.3118364,0.710274 0.6796876,1.078125 C 4.528671,13.442734 5.8333333,14 8,14 c 2.166667,0 3.471329,-0.557266 4.207031,-1.292969 0.367851,-0.367851 0.575024,-0.764134 0.679688,-1.078125 C 12.991382,11.314915 13,11 13,11 V 7 C 13,7 13.013788,5.7912483 12.394531,4.5527344 11.775274,3.3142205 10.333333,2 8,2 Z" style="fill:#efefef"/>
 <path d="m3 8s0-2 1-2c2 0 1 1 4 1s2-1 4-1c1 0 1 2 1 2v2s-1 2-5 2-5-2-5-2z" style="fill:#4f4f4f"/>
 <path d="m11 6.1445312c-0.612665 0.2271627-0.708158 0.6583514-2 0.8046876v4.9882812c0.8130913-0.078132 1.470994-0.239097 2-0.445312v-5.3476568z" style="fill:#f4f4f7;opacity:.2"/>
</svg>
