<svg width="16" height="16" version="1.1" xmlns="http://www.w3.org/2000/svg">
 <path d="m2.65 3c-0.3601 0-0.65 0.2726-0.65 0.6111v9.7779c0 0.338 0.2899 0.611 0.65 0.611h10.725c0.36 0 0.65-0.273 0.65-0.611v-9.7779c0-0.3385-0.29-0.6111-0.65-0.6111zm10.4 0c-0.36 0-0.65 0.2726-0.65 0.6111v9.7779c0 0.338 0.29 0.611 0.65 0.611h1.3c0.36 0 0.65-0.273 0.65-0.611v-9.7779c0-0.3385-0.29-0.6111-0.65-0.6111z" style="fill:#5ecff3"/>
 <rect x="1" y="1" width="3" height="15" rx=".75" ry=".833" style="fill:#868686"/>
 <rect x="13" y="1" width="3" height="15" rx=".75" ry=".833" style="fill:#868686"/>
 <path d="m3.5 11.5h10" style="fill:none;stroke-linecap:round;stroke-linejoin:round;stroke:#c48f61"/>
 <path d="m3.5 10a1.5 1.5 0 0 0-1.5 1.5 1.5 1.5 0 0 0 1.5 1.5 1.5 1.5 0 0 0 1.5-1.5 1.5 1.5 0 0 0-1.5-1.5z" style="fill:#f4f4f7"/>
 <path d="m8.5 10a1.5 1.5 0 0 0-1.5 1.5 1.5 1.5 0 0 0 1.5 1.5 1.5 1.5 0 0 0 1.5-1.5 1.5 1.5 0 0 0-1.5-1.5z" style="fill:#f4f4f7"/>
 <path d="m13.5 10a1.5 1.5 0 0 0-1.5 1.5 1.5 1.5 0 0 0 1.5 1.5 1.5 1.5 0 0 0 1.5-1.5 1.5 1.5 0 0 0-1.5-1.5z" style="fill:#f4f4f7"/>
</svg>
