<svg xmlns="http://www.w3.org/2000/svg" width="16" height="16" version="1.1">
 <g transform="translate(0,-1036.3622)">
  <path style="fill:#4f4f4f" d="m2.0012201 1045.3605c-0.02228-1.6552 0.2607042-3.2297 0.8400087-4.674 0.7258331-1.832 1.7844269-3.7007 3.6579595-4.2053 0.4318084-0.1104 0.9308963-0.1603 1.0128524-0.078 0.02076 0.021-0.1366562 0.2289-0.3498524 0.4625-0.4585564 0.5024-0.8266088 1.1781-0.9902289 1.8179-0.1498002 0.5857-0.1481562 0.5806 0.01688 0.6883 0.3588243 0.2344 4.4187996 0.2886 4.7916996 0.084 0.07432-0.041 0.321164-0.1801 0.548537-0.4075 0.521072-0.521 1.456623-1.5227 2.147128-1.6291 0.49624-0.076 1.284922-0.013 1.323694 0.1044-0.608142 0.4934-0.954608 1.2017-1.283358 1.9591-0.08546 0.1801-0.08145 0.2342 0.05665 0.7638 0.218028 0.836 0.30194 2.1095 0.21446 3.1302-0.09532 1.1123-0.405752 3.1874-0.647993 4.3318-0.611468 2.8884-2.130294 4.2739-3.7528198 4.6146-0.3927523 0.082-1.6467015 0.01-1.6467015 0.01-3.8844357-0.2151-5.8660055-3.5401-5.9389296-6.9709z"/>
  <circle style="fill:#f4f4f7" cx="6.5" cy="1047.862"/>
  <circle style="fill:#f4f4f7" cx="11.5" cy="1048.862"/>
 </g>
 <path style="fill:#f4f4f7" d="m7 11.5a0.5 0.5 0 0 1 -0.5 0.5 0.5 0.5 0 0 1 -0.5 -0.5 0.5 0.5 0 0 1 0.5 -0.5 0.5 0.5 0 0 1 0.5 0.5z"/>
 <path style="fill:#f4f4f7" d="m12 12.5a0.5 0.5 0 0 1 -0.5 0.5 0.5 0.5 0 0 1 -0.5 -0.5 0.5 0.5 0 0 1 0.5 -0.5 0.5 0.5 0 0 1 0.5 0.5z"/>
</svg>
