<svg xmlns="http://www.w3.org/2000/svg" height="16" width="16" version="1.1">
 <path style="fill:#d01818" d="m3 12s-1 0-1-2 1-2 1-2h10s1 0 1 2-1 2-1 2z"/>
 <path style="fill:#f15555" d="m8 0c5 0 5 2 5 2v12l-5 2-5-2v-12s0-2 5-2z"/>
 <path style="fill:#b2bfd9" d="m6 2v6h-3v4h3v3.199219l2 0.800781 2-0.800781v-3.199219h3v-4h-3v-6l-2 2z"/>
 <path style="fill:#17191e" d="m5 9a1 1 0 0 0 -1 1 1 1 0 0 0 1 1 1 1 0 0 0 1 -1l-1-1zm6 0l-1 1a1 1 0 0 0 1 1 1 1 0 0 0 1 -1 1 1 0 0 0 -1 -1z"/>
</svg>
