<svg xmlns="http://www.w3.org/2000/svg" width="16" height="16" version="1.1">
 <rect style="fill:#4f4f4f" width="16" height="16" x="0" y="0" rx=".8" ry=".8"/>
 <path style="fill:#f4f4f7" d="m 12.716839,6.1759176 c 0.129874,-0.13751 0.327329,-0.256498 0.27123,-0.474577 -0.0085,-0.284369 0.01735,-0.572556 -0.01356,-0.854452 -0.52205,0.279384 0.137007,-0.403403 0.0085,-0.62383 -0.0018,-0.262534 0.11548,-1.098803 -0.266857,-0.592416 -0.825355,0.79577 -1.654959,1.589495 -2.413236,2.450344 -0.8423227,0.726382 -1.5819957,1.561823 -2.3699817,2.343547 -0.639821,0.580972 -1.22938,1.215791 -1.847651,1.8198404 -0.103667,0.326791 0.310236,0.575245 0.557717,0.840813 0.09449,0.251144 0.45314,0.635852 0.676379,0.691636 0.153314,-0.137766 0.639175,-0.650592 0.57594,-0.526143 -0.09887,0.203654 -0.580614,0.561288 -0.413202,0.661761 0.193177,-0.181871 -0.120849,0.194107 0.157865,0.223765 0.394111,0.619594 0.781971,-0.377463 1.146413,-0.576067 1.3852187,-1.376137 2.7802347,-2.7423924 4.1610147,-4.1230004 0.08445,-0.269541 0.02099,-0.570803 0.04068,-0.854031 0.02563,-0.209503 -0.004,-0.298886 -0.164669,-0.103306 -0.08178,0.07165 -0.368785,0.309177 -0.328287,0.253595 0.279933,-0.197107 0.659323,-0.640911 0.43602,-0.728374 -0.06942,0.0594 -0.155015,0.100953 -0.214285,0.170895 z M 7.9431843,3.7619666 c -0.402473,0.358169 -0.764272,0.756685 -1.168622,1.112892 -0.439096,0.487106 -0.938688,0.915778 -1.386665,1.395778 -0.771814,0.788581 -1.573703,1.552967 -2.33703,2.346354 0.06459,0.252421 -0.1413,0.988365 0.245292,0.519169 0.139551,-0.09729 0.600465,-0.554932 0.571756,-0.417679 -0.245246,0.351862 -0.664175,0.609288 -0.813661,1.008863 -0.01961,0.9325894 -0.01897,1.8736724 0.0047,2.8019374 0.378964,-0.120647 0.67418,-0.652878 1.020506,-0.922608 0.569936,-0.584788 1.16435,-1.145491 1.70748,-1.7555804 0.63404,-0.458682 1.03377,-1.168646 1.671881,-1.626111 0.880918,-0.86262 1.784225,-1.721292 2.6169507,-2.622035 -0.2906737,-0.189635 -0.4634207,-0.504449 -0.7492737,-0.742492 -0.184842,0.09662 -0.560169,0.556294 -0.257668,0.09684 0.266182,-0.30949 -0.0042,-0.05762 -0.14918,0.02521 0.318227,-0.230557 0.151516,-0.508143 -0.179266,-0.57234 0.01189,-0.298307 -0.328121,-0.405969 -0.439481,-0.42612 0.110978,-0.431583 -0.332075,0.09552 -0.247224,-0.262265 0.01388,-0.0864 -0.131155,-0.01219 -0.110455,0.04019 z m -2.658058,1.857928 c -0.739974,-0.722862 -1.466538,-1.459765 -2.203748,-2.185099 -0.146991,0.09438 -0.04359,0.351534 -0.07459,0.51683 0.0065,0.304947 -0.01316,0.612055 0.01017,0.915607 0.138436,0.211962 0.213526,0.278558 0.02373,0.127142 0.09892,0.144301 0.128445,0.247324 -0.02035,0.04238 -0.09839,0.208136 0.460096,0.686557 0.05297,0.31658 -0.132304,-0.100531 -0.03834,0.305339 -0.06654,0.429088 0.0091,0.536979 -0.01819,1.082131 0.01356,1.614039 0.130563,0.08878 0.261793,0.405431 0.382985,0.145912 0.489796,-0.498356 1.000303,-0.982875 1.476638,-1.490199 -0.07112,-0.123118 -0.36155,-0.456511 -0.0695,-0.162738 0.161093,0.270011 0.308614,-0.105755 0.461503,-0.202139 0.02048,-0.03075 0.07034,-0.03665 0.01315,-0.0674 z m 7.3503437,2.766551 c -0.659994,0.659993 -1.319988,1.319988 -1.979982,1.9799824 0.198448,0.258366 0.484819,0.480755 0.713251,0.728208 0.499723,0.487736 0.981003,0.999956 1.495582,1.468757 0.181851,0.03058 0.07517,-0.334319 0.08306,-0.461091 -0.148384,-0.143347 -0.530789,-0.557142 -0.503127,-0.551228 0.18085,0.08058 0.615375,0.700548 0.543811,0.239415 0,-0.623864 0,-1.247728 0,-1.8715924 -0.07974,-0.151987 -0.532933,-0.59651 -0.162738,-0.27123 0.246133,0.347548 0.140968,-0.148062 0.162741,-0.31171 0,-0.244175 0,-0.488351 0,-0.732526 -0.112206,-0.03038 -0.23592,-0.388144 -0.352598,-0.216985 z"/>
</svg>
