<svg xmlns="http://www.w3.org/2000/svg" width="16" height="16" x="0" y="0" version="1.1" xml:space="preserve">
 <path style="fill:#4b4e30" d="M 11.150319,13.619546 C 7.4815406,15.801003 3.0999835,15.313803 0.34219288,12.744945 0.26023967,12.66862 0.20425747,12.568759 0.18106923,12.457531 -0.59934609,8.7175277 1.1771416,4.5641465 4.8496788,2.3804541 8.518457,0.19899607 12.900014,0.68619775 15.657805,3.2550559 c 0.08196,0.076323 0.137936,0.1761851 0.161124,0.2874126 0.780415,3.7400032 -0.996042,7.8933665 -4.66861,10.0770775 z"/>
 <circle style="fill:#97c800" cx="2.928" cy="10.928" r="4" transform="rotate(-30)"/>
 <ellipse style="opacity:0.95700001;fill:#17191e" cx="2.928" cy="10.928" rx="2" ry="2" transform="rotate(-30)"/>
</svg>
