<svg xmlns="http://www.w3.org/2000/svg" width="16" height="16" version="1">
 <rect style="fill:#5838cf" width="16" height="16" x="0" y="0" rx=".8" ry=".8"/>
 <path style="fill:#1f8ce5" d="m 14.400391,8 c -1.6,0 -2.001172,2 -3.201172,2 -1.2000002,0 -2.3996096,-1 -3.5996096,-1 -1.2,0 -1.9992188,1.400391 -3.1992188,1.400391 -1.2,0 -1.6007812,-2 -2.8007812,-2 C 1.1319429,8.400391 0.54494136,8.582229 0,8.804688 V 11 11.199219 13 H 16 V 11.199219 11 8.451172 C 15.510349,8.198207 14.957633,8 14.400391,8 Z"/>
 <path style="fill:#61aeec" d="M 14.400391 10 C 12.800391 10 12.399219 12 11.199219 12 C 9.9992188 12 8.7996094 11 7.5996094 11 C 6.3996094 11 5.6003906 12.400391 4.4003906 12.400391 C 3.2003906 12.400391 2.7996094 10.400391 1.5996094 10.400391 C 1.1319429 10.400391 0.54494136 10.582229 0 10.804688 L 0 13 L 0 13.199219 L 0 15 L 16 15 L 16 13.199219 L 16 13 L 16 10.451172 C 15.510349 10.198207 14.957633 10 14.400391 10 z"/>
 <path style="fill:#d54b3e" d="m 5,11 h 9.6 c 0,0.4 -2.413861,3.2 -3.6,3.2 H 7.5108912 C 5,14.2 5,12.2 5,11 Z"/>
 <rect style="fill:#d54b3e" width=".4" height="6.2" x="11.6" y="5"/>
 <rect style="fill:#d54b3e" width=".4" height="3.6" x="9.6" y="-11.6" transform="rotate(90)"/>
 <path style="fill:#fed7ea" d="m 10.317301,2 c 0,0 1.751608,2.7397288 1.680597,8 H 8.4 C 9.5271852,7.6019288 10.135974,4.8279468 10.317301,2 Z"/>
 <path style="fill:#a8d0f1" d="m 14.4,12 c -1.6,0 -2,2 -3.2,2 -1.2,0 -2.4,-1 -3.6,-1 -1.2,0 -2,1.4 -3.2,1.4 -1.2,0 -1.6,-2 -2.8,-2 -0.4676665,0 -1.05505864,0.18301 -1.6,0.405469 V 15.2 C 0,15.6432 0.3568,16 0.8,16 H 15.2 C 15.6432,16 16,15.6432 16,15.2 V 12.451562 C 15.510349,12.198597 14.957242,12 14.4,12 Z"/>
 <circle style="fill:#f4f4f7" cx="4" cy="4" r="2"/>
</svg>
