<svg xmlns="http://www.w3.org/2000/svg" width="16" height="16" version="1">
 <path style="fill:#17191e" d="M 16,8 A 8,8 0 0 1 8,16 8,8 0 0 1 0,8 8,8 0 0 1 8,0 8,8 0 0 1 16,8 Z"/>
 <path style="fill:#ffd737" d="M 8,4 C 7.1989611,4.0003686 6.4164842,4.2412354 5.7539062,4.6914062 5.9451653,4.9791072 6.1909016,5.2243882 6.4765625,5.4199219 6.9377212,5.1463146 7.463785,5.0013098 8,5 8.5370595,5.0015518 9.0638554,5.1472469 9.5253906,5.421875 9.8094977,5.2268653 10.055499,4.9816059 10.246094,4.6953125 9.5839601,4.243759 8.8014484,4.0015206 8,4 Z M 4.0078125,7.7519531 C 4.0026434,7.8345347 4.000038,7.9172568 4,8 c 0.002,1.4543708 0.7932474,2.793054 2.0664062,3.496094 C 6.2060759,11.180722 6.2859607,10.833142 6.2949219,10.466797 5.516413,9.9280981 5.0378618,9.0535296 5.0039062,8.1074219 4.7013714,7.9217962 4.3639417,7.8073091 4.0078125,7.7519531 Z m 7.9804685,0 c -0.356536,0.056033 -0.691472,0.1743741 -0.99414,0.3613281 -0.03654,0.9422693 -0.513984,1.8125262 -1.2890629,2.3496098 0.00853,0.369798 0.088883,0.71924 0.2304688,1.037109 C 11.209175,10.795772 11.99981,9.4553576 12,8 c -0.0013,-0.082784 -0.0052,-0.1655058 -0.01172,-0.2480469 z"/>
 <path style="fill:#ff950a" d="M 7.7695312,0.00859376 A 8,8 0 0 0 5.4289064,0.43515624 4.4,4.4 0 0 0 3.6,4 4.4,4.4 0 0 0 3.9156248,5.6320312 4.4,4.4 0 0 0 0.090625,9.14375 8,8 0 0 0 0.40234376,10.474219 3.2,3.2 0 0 1 0.4,10.4 3.2,3.2 0 0 1 3.6,7.2 3.2,3.2 0 0 1 6.3281248,8.7320312 L 6.875,8.4164064 A 1.2,1.2 0 0 1 6.8,8 1.2,1.2 0 0 1 7.8,6.8164064 V 6.3898436 A 3.2,3.2 0 0 1 4.8,3.2 3.2,3.2 0 0 1 7.7695312,0.00859376 Z m 0.5531252,0.0078124 A 3.2,3.2 0 0 1 11.2,3.2 3.2,3.2 0 0 1 8.2,6.3929688 V 6.81875 A 1.2,1.2 0 0 1 9.2,8 1.2,1.2 0 0 1 9.1476564,8.35 L 9.7093752,8.6742188 A 3.2,3.2 0 0 1 12.4,7.2 3.2,3.2 0 0 1 15.6,10.4 3.2,3.2 0 0 1 15.5953,10.49453 8,8 0 0 0 15.910937,9.1234376 4.4,4.4 0 0 0 12.083593,5.6289064 4.4,4.4 0 0 0 12.4,4 4.4,4.4 0 0 0 10.560938,0.42890624 8,8 0 0 0 8.3226564,0.01640616 Z M 8.9671876,8.7078124 A 1.2,1.2 0 0 1 8,9.2 1.2,1.2 0 0 1 7.075,8.7632812 L 6.5140624,9.0875 A 3.2,3.2 0 0 1 6.8,10.4 3.2,3.2 0 0 1 3.6,13.6 3.2,3.2 0 0 1 1.7953125,13.042969 8,8 0 0 0 2.8390624,14.111719 4.4,4.4 0 0 0 4.4,14.4 4.4,4.4 0 0 0 8.0015624,12.523438 4.4,4.4 0 0 0 11.6,14.4 4.4,4.4 0 0 0 13.147656,14.1125 8,8 0 0 0 14.207812,13.036719 3.2,3.2 0 0 1 12.4,13.6 3.2,3.2 0 0 1 9.2,10.4 3.2,3.2 0 0 1 9.5148436,9.0242188 Z"/>
</svg>
