<svg width="16" height="16" version="1.1" xmlns="http://www.w3.org/2000/svg">
 <path d="m7.9165 0-0.0067 0.0044629c-4.3897 0.048687-7.9098 3.5941-7.9098 7.9955 8.2399e-8 4.4321001 3.5681 8.0001001 8.0001 8.0001001 4.365 0 7.8841-3.4629 7.9898-7.8013001 0 0 0.0069-0.1367 0.01005-0.19867v-6.2857c0-0.9497-0.765-1.7143-1.714-1.7143h-6.2858z" style="fill:#57b339"/>
 <path d="m8 2a6 6 0 0 0-3 0.8125v2.5488281a4 4 0 0 1 3-1.3613281v1a3 3 0 0 0-2.8242188 2h-1.1757812v-3.4628906a6 6 0 0 0-2 4.4628906 6 6 0 0 0 0.8125 3h2.5488281a4 4 0 0 1-1.3613281-3h1a3 3 0 0 0 2 2.824219v1.175781h-3.4628906a6 6 0 0 0 4.4628906 2 6 6 0 0 0 3-0.8125v-2.548828a4 4 0 0 1-3 1.361328v-1a3 3 0 0 0 2.824219-2h1.175781v3.462891a6 6 0 0 0 2-4.462891 6 6 0 0 0-0.8125-3h-2.548828a4 4 0 0 1 1.361328 3h-1a3 3 0 0 0-2-2.8242188v-1.1757812h3.462891a6 6 0 0 0-4.462891-2zm0 4a2 2 0 0 1 2 2 2 2 0 0 1-2 2 2 2 0 0 1-2-2 2 2 0 0 1 2-2z" style="fill:#f4f4f7"/>
</svg>
