<svg xmlns="http://www.w3.org/2000/svg" width="16" height="16" version="1">
 <rect style="fill:#b2bfd9" width="16" height="16" x="0" y="0" rx=".8" ry=".8"/>
 <path style="fill:#ca1010" d="M 8.7732823,13.963184 C 8.4652251,13.746223 8.09947,13.670469 8.1795351,13.175434 7.7883858,12.772155 8.0096871,12.173911 7.9292418,11.63957 7.7422345,10.943419 7.5789138,10.238829 7.4309039,9.5328861 7.0129702,9.1788347 7.7207377,8.2966833 7.2165671,8.1906716 7.2554467,7.957821 7.1024895,7.8438926 7.2280346,7.5533142 7.067322,7.3285958 7.3685621,7.2608067 7.0784456,7.0858767 7.0075417,6.7105531 6.3932127,7.1681498 6.3032213,6.9374645 6.067997,7.0468673 5.8306351,6.9120357 5.5770669,7.064204 5.2750843,6.9753252 4.9800339,7.1144221 4.6397023,7.1141089 4.4165084,7.1543056 4.2173376,7.5234357 4.1041105,7.3855557 3.8212289,7.7522715 3.5558456,7.54905 3.1968416,7.4975929 2.6668818,7.1764583 3.3655762,6.7439251 3.4497082,6.4111048 4.0130328,6.0107132 4.7475336,6.1260448 5.3902599,6.2326573 5.8653031,6.3279062 6.4975759,6.5419779 6.9060611,6.4440298 6.6280148,6.316166 6.1510219,6.2448523 5.8344035,6.0195242 5.616491,5.9620194 5.4915725,5.9065168 5.4646719,5.7279643 5.2160698,5.8331533 4.7208017,5.9179854 5.1124464,5.5358729 5.1630935,5.2809445 4.7312533,5.8861974 4.5531081,5.9063304 4.3981322,6.1545714 4.4030541,5.521834 4.2151345,5.9919568 3.877351,6.1660877 4.6444296,5.4334637 4.1068578,5.5580102 3.8866784,5.717356 3.9104388,5.3863637 3.7019887,5.5080621 3.456354,4.938235 4.2978764,4.7537864 4.5092425,4.6860509 4.6712912,4.3466632 5.368766,4.6050011 5.7147642,4.5615273 6.0029176,4.4314342 5.7423605,4.0237519 6.1081051,4.2975056 6.2911718,4.1837681 5.400935,3.20915 5.9748185,3.6956663 6.0244021,3.8331829 6.4448603,4.3925703 6.3113119,4.0915492 5.9824947,3.8931743 6.6033038,3.7058993 6.0834889,3.6094497 5.9401977,3.4081741 5.5167391,3.0569375 6.046814,3.1310135 6.5370319,3.093257 7.1129696,3.1849602 7.5259788,3.4787101 7.745098,3.6528259 7.9687034,3.8279153 8.1461586,3.7086263 7.9303593,3.85551 7.6496257,4.3509491 8.1171824,4.0957481 8.3293896,4.0037861 8.5423986,3.8120531 8.6449412,3.8898176 8.7804677,3.7678872 8.958914,4.2865665 9.2472485,3.9877586 9.5036026,3.8958908 10.183678,3.7801647 10.238624,3.9355676 9.8930704,3.8978186 9.7587241,4.2629951 10.092883,4.0991842 c 0.283985,-0.088764 0.677576,-0.030488 0.46726,0.1833132 0.325533,-0.093519 0.611954,-0.1870467 0.894771,0.018559 -0.01253,0.245901 0.892435,0.5518398 0.219015,0.5100356 -0.505502,-0.1590866 -0.927353,2.82e-4 -1.380382,0.2371665 -0.1935,0.1680022 -0.07672,0.8554285 0.37464,0.572425 0.447088,-0.1728881 1.133013,-0.071612 1.248809,0.3193732 0.588923,-0.1692138 0.619566,1.3272993 0.11809,0.5288415 0.15468,0.26769 0.06637,0.5056083 -0.192347,0.209457 -0.311342,-0.1688962 -0.777089,-0.057035 -1.128763,-0.2605597 -0.182883,0.154776 -0.38125,0.00559 -0.515298,0.064821 C 10.069981,6.3694344 10.31804,6.9530521 10.044243,6.5098753 9.8389508,6.7402314 9.6067178,6.7742097 9.40337,6.6626386 9.257393,6.8458475 8.7430956,6.8304429 8.6403167,6.6898186 8.4763015,6.8055275 7.903459,6.614162 8.0864601,7.0326826 8.579488,7.5601602 7.654939,7.9116945 7.8137474,8.5492739 c 0.00719,0.3851839 0.4111301,0.7630436 0.065855,1.0350194 0.058845,0.2842653 0.2071031,0.5971567 -0.1282879,0.5333317 -0.073324,0.323736 0.1094317,0.204536 0.2241761,0.240075 0.130062,0.04029 0.1778235,0.06266 -0.1135065,0.143824 -0.1564995,0.400297 0.4486324,-0.171491 0.3586714,0.353634 0.1349354,0.239895 0.6336981,0.587763 0.6875766,-0.06978 C 8.7497229,10.192293 8.9827857,9.6203008 9.0030271,9.0398387 8.7570061,9.154526 8.483009,9.1800384 8.771705,8.8612003 8.8677342,8.7250645 8.9260497,8.6046662 9.0427812,8.4696505 9.0944363,8.409905 9.1901896,8.413879 9.2531577,8.3571899 9.3085017,8.3073644 9.3571467,8.1220145 9.4046712,8.0657189 9.8711483,7.8124015 9.8777111,9.5220418 10.046295,10.05336 10.140117,10.386904 9.9717037,10.581756 9.9020888,10.156673 9.8894775,9.9280141 9.7719525,9.2297694 9.6287993,9.2920189 c -0.077869,0.5060473 0.3741707,1.0491481 0.091659,1.5002281 0.1968563,0.557582 -0.034849,1.121637 -0.087058,1.674034 -0.1445985,0.327503 -0.6060246,0.869682 -0.5837927,1.229125 -0.2715555,-0.0647 0.061573,0.442456 -0.2763247,0.267777 z m 0.7178912,-2.277346 c 0.1717253,-0.20117 -0.045664,-1.01139 -0.1889471,-1.034748 -0.057503,0.253729 -0.2901292,0.617084 -0.3328229,0.809805 -0.021679,0.09786 0.173967,0.213774 0.3122711,0.383763 0.063818,-0.03488 0.1316606,-0.125246 0.2094989,-0.15882 z M 8.0761473,10.722185 c -0.073618,-0.110591 -0.064423,0.106849 0,0 z M 9.6148853,5.7986807 C 9.8776883,5.7767545 10.401058,5.6358643 9.9356982,5.5668216 9.7052742,5.1868026 8.9185704,6.0696939 9.6148853,5.7986807 Z M 6.1829468,4.8016571 c 0.2305684,0.2017691 0.1205344,-0.4058933 -0.086182,-1.275e-4 -0.015799,0.1886527 -0.017779,0.3224572 0.086182,1.275e-4 z M 7.2730942,4.4784622 c -0.1493659,-0.1478947 0.022226,0.2383192 0,0 z m 3.2919018,-0.066558 c 0.267528,-0.2475157 -0.5848318,0.2592225 0,1.1e-6 z M 6.353265,4.3689405 c -0.1694152,-0.107097 0.096264,0.1382947 0,0 z M 7.1235528,4.1452661 c -0.030187,-0.2273103 -0.3299212,-0.5208592 -0.09028,-0.135333 0.03963,0.1120009 0.2156992,0.4337554 0.09028,0.135333 z m 2.6475894,-0.056337 c -0.1490122,-0.1443622 -0.1088831,0.3308408 0,0 z M 12.829264,4.4399936 C 12.965674,4.16253 11.954703,3.9262684 12.647737,3.9583418 c 0.125735,0.073424 0.261965,0.1421069 0.375092,0.1971573 0.05267,0.00836 0.125468,-0.04495 0.175171,-0.035843 0.155076,0.028414 0.282729,0.07018 0.301998,0.1861976 -0.279018,-0.062565 -0.351678,0.068047 -0.41695,0.1969114 -0.08657,-0.010001 -0.18421,0.00375 -0.253784,-0.062772 z M 4.3701962,3.4662957 c -0.773455,-0.4741102 0.6212359,0.1752825 0,0 z M 3.9821872,3.4479732 C 3.838663,3.2992516 3.5683166,3.3276064 3.9496484,3.2601046 4.2024033,3.161123 4.3233539,3.4810189 3.9821872,3.4479732 Z M 5.1577479,2.8558981 C 5.1725267,2.6148248 4.3881996,2.3370636 4.9613068,2.5160747 5.234348,2.8444861 6.0744106,1.9895556 5.543882,2.5287385 5.3850316,2.637942 5.4319141,2.9720326 5.1577479,2.8558981 Z M 8.6912661,2.4754091 C 8.5213071,2.4503103 8.3373812,2.4331476 8.1942734,2.4116875 8.1213524,2.4007524 8.2392876,2.3991496 8.1611031,2.2824661 8.1464646,2.2606192 8.089714,2.2340009 8.0585598,2.2084024 7.9675349,2.1576245 7.8762171,2.0543135 7.8804835,2.006882 7.8057535,1.966307 8.1275654,2.1126514 8.4634678,2.2491686 8.7330144,2.3587179 9.0585969,2.4385974 9.1612771,2.4971192 9.0208363,2.5067098 8.8276333,2.5116729 8.6912492,2.4754095 Z M 5.383001,2.6523247 C 5.5114284,2.4426044 6.2164954,2.0081292 5.7314386,2.4327258 5.6188677,2.5031484 5.5119226,2.6226165 5.383001,2.6523247 Z"/>
</svg>
