<svg xmlns="http://www.w3.org/2000/svg" height="16" width="16" version="1.1">
 <path style="fill:#00a1fd" d="m8 0-8 8 8 8 8-8z"/>
 <rect style="fill:#47bcff" rx=".85714281" ry=".85714281" height="12" width="12" y="2" x="2"/>
 <path style="fill:#f4f4f7" d="m5 7v-2h2l1 1 1-1h2v2l-1 1 1 1v2h-2l-1-1-1 1h-2v-2l1-1z"/>
</svg>
