<svg xmlns="http://www.w3.org/2000/svg" xmlns:xlink="http://www.w3.org/1999/xlink" width="16" height="16" version="1.1">
 <defs>
  <linearGradient id="linearGradient933">
   <stop style="stop-color:#814f24" offset="0"/>
   <stop style="stop-color:#814f24;stop-opacity:0" offset="1"/>
  </linearGradient>
  <linearGradient id="linearGradient935" x1="18.282" x2="30.205" y1="18.229" y2="14.071" gradientTransform="matrix(0.36363635,0,0,0.34531838,-0.72727218,-0.17503369)" gradientUnits="userSpaceOnUse" xlink:href="#linearGradient933"/>
 </defs>
 <path style="fill:#c7b198" d="m 5.5997507,6.6606667 c -0.3131789,0 -0.5655015,0.3004382 -0.5655015,0.6738598 V 11.19273 C 4.8666908,11.443093 4.3983467,11.641989 4.230788,11.614251 4.1073748,11.593821 4.0000004,11.746327 4.0000004,11.910319 v 0.693931 c 0,0.163991 0.1056952,0.296069 0.2307876,0.296069 h 0.7769374 c 0.2026177,0.257664 -0.084215,1.09815 0.1820499,1.098247 L 9.5045003,14 13.819225,13.9986 c 0.266265,-9.8e-5 -0.02057,-0.840583 0.18205,-1.098248 h 0.776938 C 14.903305,12.90035 15.009,12.768273 15.009,12.604281 V 11.91035 c 0,-0.163991 -0.107374,-0.316498 -0.230787,-0.296068 -0.167559,0.02774 -0.535904,-0.171157 -0.703462,-0.421521 V 7.3345265 c 0,-0.3734216 -0.252323,-0.6738598 -0.565501,-0.6738598 H 9.5045003 Z"/>
 <rect style="fill:#17191e" width="1" height="3" x="7" y="10" rx=".457" ry=".481"/>
 <path style="fill:#17191e" d="M 6.9922707,9.0107685 C 6.8801732,9.0051504 6.8365147,9.1541831 6.9339256,9.2099376 7.3220005,9.3376954 7.6591343,9.5673351 7.9674776,9.8545565 8.0898543,9.9271165 8.1587568,9.6337227 8.0363801,9.5611627 7.6701503,9.2953373 7.3571608,9.1626125 7.042766,9.0263725 c -0.015258,-0.00935 -0.032622,-0.01472 -0.050495,-0.015604 z"/>
 <path style="fill:#17191e" d="m 12.02337,8.9917688 c 0.112097,-0.00562 0.155756,0.1434145 0.05834,0.1991691 -0.38807,0.1277578 -0.725204,0.357397 -1.033547,0.6446185 -0.122377,0.07256 -0.191279,-0.2208335 -0.0689,-0.2933938 0.36623,-0.2658251 0.679219,-0.3985498 0.993614,-0.5347898 0.01526,-0.00935 0.03262,-0.01472 0.0505,-0.015604 z"/>
 <rect style="fill:#17191e" width="1" height="3" x="11" y="10" rx=".457" ry=".481"/>
 <rect style="fill:#a8271e" width="9.455" height="2.909" x="4.73" y="5.64"/>
 <path style="fill:#5c2e07" d="m 1.096084,4.3676585 c 0,0 2.5874722,0.8756746 3.4911471,0.4185044 0.6785421,-0.3432749 0.3995378,-2.1869522 0.3995378,-2.1869522 1.0746508,0.1922369 1.7956484,0.5772816 2.7638283,0.379126 0.4885935,-0.1271516 0.10448,-0.6943152 0.2148055,-0.7866733 0,0 1.9341385,-0.4607127 2.7935253,-0.5245805 C 12.532227,1.6036393 14.332385,3.6965291 16,6.2751814 l -1.95905,5.0448516 0.0061,-1.7256637 C 12.617198,8.6039133 11.631539,7.644565 11.726199,6.1690479 11.217147,7.6569508 9.1895445,8.9685962 7.1944148,8.5939387 6.2974985,8.4255108 6.0507864,8.3279489 5.713581,8.019593 4.6021785,8.6902184 5.3480588,10.063224 5.0274607,11.218207 4.5467763,9.5850791 3.3775702,9.203798 3.1005541,8.7262249 2.9331297,7.9575595 2.3658232,7.0222763 2.9684189,6.5744526 Z"/>
 <path style="fill:url(#linearGradient935)" d="M 8.363638e-8,5.1197758 C 0.88641394,5.4260134 1.593225,6.0487585 2.6779007,5.9387739 5.0790341,5.695301 7.2072562,3.9126398 9.8951867,4.0033438 L 11.726198,6.5465474 C 9.0485958,8.1452735 3.3424066,9.2959631 8.363638e-8,5.1197758 Z"/>
</svg>
