<svg xmlns="http://www.w3.org/2000/svg" width="16" height="16" version="1">
 <rect style="fill:#4f4f4f" width="15" height="15" x="0" y="0" rx=".75" ry=".75"/>
 <path style="fill:#f4f4f7" d="M 6.6030132,3 5.6846972,6.3388633 4.9340195,6.3278034 4.2023828,6.6666667 H 1.6282903 L 1,7 H 6.6611078 L 7.7660288,3 Z M 9.5038702,3 9.0920544,4.718876 9.2765693,5.3137906 8.8087487,5 H 7.4987032 L 7.2045702,6 H 8.4878834 L 8.6851666,6.2702737 8.465183,7 h 1.096782 l 1.104848,-4 z"/>
 <path style="fill:#dc384b" d="M 3.6,8 3.9320976,8.3333333 H 8.2952463 L 8.9286102,8.6666666 H 9.6377305 L 9.6528525,8.9999999 8.9434381,11.305634 9.5472175,12 h 2.3547075 l 0.218022,-1 H 10.075534 L 9.905008,10.705342 10.483022,8.9999999 H 12.68394 L 12.913268,8 Z"/>
 <path style="fill:#ffc208" d="m 11.115412,13.320769 c -0.390449,0.412748 -0.697837,0.565728 -0.697837,0.347316 0,-0.0428 0.134954,-0.339175 0.2999,-0.658606 0.303548,-0.587844 0.344953,-0.724906 0.244183,-0.808883 -0.07735,-0.06446 -0.202362,-0.02819 -0.618987,0.179613 L 9.9866147,12.557763 H 9.5313472 c -0.3950878,0 -0.4657331,0.0095 -0.5342725,0.07176 -0.111068,0.100838 -0.1042221,0.286582 0.014721,0.398781 0.1233628,0.116376 0.1235798,0.315502 9.176e-4,0.703894 C 8.8476679,14.254733 8.5714323,14.638856 8.3142905,14.70327 8.196711,14.73273 8.093317,14.64572 8.093317,14.517335 c 0,-0.04764 0.082986,-0.296256 0.1842888,-0.552515 0.2290001,-0.579303 0.3761423,-1.1417 0.3149109,-1.203179 -0.031948,-0.03209 -0.1189821,-0.01733 -0.3453701,0.05837 -0.4511093,0.150858 -0.4648786,0.167629 -0.4964131,0.600671 -0.033169,0.45548 -0.1581899,0.746941 -0.4431174,1.033051 -0.3720975,0.373641 -0.4222674,0.14423 -0.1222726,-0.559646 0.2823889,-0.662569 0.3250757,-0.788602 0.2814475,-0.83241 -0.05035,-0.05056 -0.7384474,0.176506 -0.8600154,0.283792 -0.056414,0.04979 -0.1199823,0.187591 -0.1751346,0.380033 -0.076407,0.266606 -0.083656,0.350201 -0.062016,0.715218 0.016337,0.275542 0.045952,0.454627 0.088741,0.537294 0.073412,0.141907 0.2615018,0.270941 0.3953736,0.271148 0.1566528,3.5e-4 0.3873393,-0.13917 0.6185443,-0.373783 l 0.222436,-0.225711 0.1246154,0.128736 c 0.2322359,0.240117 0.5693837,0.20725 0.9713806,-0.0947 0.2236065,-0.167951 0.5521723,-0.59265 0.7274183,-0.940192 0.067858,-0.134574 0.1714381,-0.322418 0.2302726,-0.417455 0.1070301,-0.172902 0.2783172,-0.2912 0.3367282,-0.232549 0.01707,0.01715 -0.06977,0.249724 -0.1930735,0.516783 -0.2313539,0.501082 -0.2697182,0.684427 -0.1652566,0.789327 0.095452,0.09583 0.2872231,0.07279 0.4509491,-0.05419 0.257668,-0.199821 0.629308,-0.440846 0.771936,-0.500608 l 0.138532,-0.05808 0.07453,0.126824 c 0.09466,0.161105 0.241998,0.19242 0.611516,0.13006 0.411462,-0.06944 0.7611,-0.195894 1.391139,-0.503181 0.756454,-0.368943 0.771508,-0.373025 1.254588,-0.341728 0.256992,0.01665 0.457362,0.01117 0.554626,-0.01522 0.507209,-0.13757 0.978885,-0.794324 1.020142,-1.420436 0.03699,-0.350267 -0.12408,-0.707148 -0.418805,-0.86998 -0.172114,-0.09038 -0.52371,-0.07894 -0.760807,0.02478 -0.667448,0.376761 -0.880748,0.987898 -0.793092,1.729814 0.02274,0.164218 0.01741,0.220282 -0.0238,0.251664 -0.09676,0.07366 -0.767853,0.331041 -0.79419,0.3046 -0.01424,-0.0143 0.01145,-0.07666 0.05704,-0.138589 0.198865,-0.270091 0.265979,-0.390416 0.339585,-0.609272 0.133986,-0.398369 0.09291,-0.631162 -0.147005,-0.833881 -0.138348,-0.116897 -0.382905,-0.189441 -0.547892,-0.162556 -0.06591,0.01074 -0.129812,0.0095 -0.141968,-0.0027 0.25194,-0.52753 0.58059,-1.108918 0.844858,-1.5582889 0.146907,-0.2492835 0.267099,-0.4938461 0.267099,-0.5433955 0,-0.1372844 -0.100558,-0.2623685 -0.281666,-0.3504042 -0.293053,-0.037235 -0.484377,0.1457561 -0.635564,0.3876651 -0.754494,1.2680395 -1.298506,2.7435105 -1.843073,3.9282695 z M 4.6572103,11.894753 c -0.3200343,0.133409 -0.9036967,0.190726 -0.5438384,0.611765 0.17161,0.192861 0.3942904,0.191426 0.9997168,-0.0064 0.2680368,-0.08758 0.5109784,-0.168271 0.5398362,-0.179319 -0.06551,0.616238 -1.8346929,3.131305 -1.4743176,3.622184 0.089055,0.08941 0.2575802,0.07198 0.3906199,-0.04044 0.2829753,-0.239094 0.8875222,-1.251278 1.6144535,-2.702872 L 6.8047852,11.959447 7.5708651,11.654186 C 8.8656819,11.138272 9.0591923,11.121554 8.9476513,10.783177 8.8160435,10.383916 7.2354458,11.040506 6.8287439,11.156515 6.0914545,11.367876 5.3788575,11.616783 4.6572103,11.894755 Z M 15.211365,11.296722 c 0.221688,0 0.283913,0.226664 0.176017,0.641475 -0.0731,0.281141 -0.222606,0.536811 -0.406138,0.694559 -0.198785,0.170857 -0.337489,0.177012 -0.403136,0.01787 -0.165752,-0.401817 0.279538,-1.353899 0.633257,-1.353899 z m -2.437346,0.640225 c 0.06531,-0.0012 0.122814,0.01708 0.155368,0.05647 0.121374,0.146852 -0.124789,0.889174 -0.391498,1.180682 -0.20858,0.22797 -0.529226,0.349076 -0.603752,0.22799 -0.08866,-0.144056 0.350017,-1.168957 0.585522,-1.367941 0.07352,-0.06212 0.1704,-0.09569 0.25436,-0.0972 z"/>
</svg>
