<svg width="16" height="16" version="1.1" xmlns="http://www.w3.org/2000/svg">
 <circle cx="8" cy="8" r="8" style="fill:#e4accb"/>
 <circle cx="8" cy="8" r="6" style="fill:#b2bfd9"/>
 <path d="m0 11h3v-3l1 1 1-1v3h3l-1-6-2-1-1 1-1-1-2 1z" style="fill:#f48b97"/>
 <path d="m8.5 5a3.5 3 0 0 0-3.5 3 3.5 3 0 0 0 3.5 3 3.5 3 0 0 0 3.5-3 3.5 3 0 0 0-3.5-3zm0 2a1.5 1 0 0 1 1.5 1 1.5 1 0 0 1-1.5 1 1.5 1 0 0 1-1.5-1 1.5 1 0 0 1 1.5-1z" style="fill:#a9cc37"/>
 <path d="m9 2v3l1-3zm-2 1 1 2v-2zm4 0-1 2 2-1z" style="fill:#a9cc37"/>
 <path d="m10 12 1-8 5-1v3h-3v1h2v2h-2v1h2l1 2z" style="fill:#90ccf2"/>
</svg>
