<svg width="16" height="16" version="1.1" xmlns="http://www.w3.org/2000/svg">
 <path d="m2.8 2h4.4l1.6 2.5 2-2.5h5.2l-5.2 6 3.2 6h-4.8l-1.6-2.4-2 2.4h-5.6l5.6-6.4z" style="fill:#d07336"/>
 <circle cx="11.5" cy="11.5" r="4.5" style="fill:#707070"/>
 <path d="m11.65625 9s-0.355349-7e-3 -0.724609 0.177734c-0.369255 0.1846-0.775391 0.655617-0.775391 1.322266h1c0-0.5 0.5-0.5 0.5-0.5s0.5 0 0.5 0.5c0 0.22307-0.0603 0.361384-0.15625 0.5h-0.84375v1h0.84375c0.09595 0.138616 0.15625 0.27693 0.15625 0.5 0 0.5-0.5 0.5-0.5 0.5s-0.5 0-0.5-0.5h-1c0 0.666649 0.406136 1.137666 0.775391 1.322266 0.36926 0.18475 0.724609 0.177734 0.724609 0.177734s0.355344 0.0069 0.724609-0.177734c0.369255-0.1846 0.775391-0.655617 0.775391-1.322266 0-0.385787-0.11555-0.724712-0.283203-1h-2e-3c0.168405-0.275655 0.285203-0.613228 0.285203-1 0-0.666649-0.406136-1.137666-0.775391-1.322266-0.369265-0.18465-0.724609-0.177734-0.724609-0.177734z" style="fill-rule:evenodd;fill:#f4f4f7"/>
</svg>
