<svg xmlns="http://www.w3.org/2000/svg" width="16" height="16" version="1.1">
 <rect style="fill:#f79042" width="16" height="16" x="0" y="0" rx=".8" ry=".8"/>
 <path style="fill:#f4f4f7" d="m 9.0164735,1.2714279 c -0.025324,0.028828 -0.018902,0.2445324 0.00203,0.460075 0.00483,-0.1533637 0.00491,-0.3067212 0.012215,-0.460075 -0.00577,-0.00615 -0.010037,-0.00479 -0.01425,0 z m 0.00203,0.460075 c -0.046705,1.483992 0.012363,2.9680818 0.0855,4.4501062 0.063909,2.6823675 -0.032529,4.8258409 0.034607,7.5077709 0.4324582,0.02091 1.2982475,-0.04084 1.5745165,0.0855 0.128205,-0.04194 0.186141,0.997182 0.368467,0.425469 -0.02925,-0.279304 -0.102948,-0.437072 -0.234109,-0.37661 0.655425,-0.554039 0.147386,1.295288 0.358288,1.054507 0.06932,-0.713286 -0.08179,-1.440869 0.06922,-2.14566 0.232166,0.511824 0.250432,1.0995 0.246323,1.665228 0.04044,-0.196194 0.08386,-0.404612 0.08144,-0.472289 0.08416,-0.318907 0.777382,-0.280812 0.771542,0.07532 0.06151,-0.453093 -0.05076,-0.132441 0.374575,-0.276859 0.25197,-0.107864 0.445984,-0.136256 0.477499,0.09364 0.08183,-0.19911 0.08345,0.434757 0.171002,-0.03461 0.353825,-0.07431 0.728355,-0.273506 0.561862,-0.773577 -0.07482,-0.58471 0.104604,-1.159896 -0.651434,-0.958829 -0.677863,0.01478 -1.06605,-0.06113 -1.737618,0.02239 -0.37368,0.385026 -0.274687,-0.02572 -0.411217,-0.16693 C 10.563,12.178699 10.929418,11.148892 11.057176,10.90449 11.002946,8.1330896 11.049576,5.9012929 11.034786,3.1280034 11.105692,2.802025 10.808456,2.7696022 10.72739,2.5152475 10.629064,2.9996167 9.3236186,2.8570408 9.5396561,2.2750428 9.2963672,2.2865331 9.2695344,1.3890826 9.2037606,2.1182916 9.1181435,2.3786831 9.0497822,2.0533543 9.0185092,1.7315029 Z M 11.521315,14.397815 c -0.06078,0.294822 -0.116255,0.558628 -0.0021,0.25243 9.59e-4,-0.08302 0.0014,-0.168035 0.0021,-0.25243 z"/>
 <path style="fill:#f4f4f7" d="m 2.757516,1.9997076 c -0.8684794,0.026177 -0.5928398,1.0199251 -0.5838474,1.6029649 0.014657,1.153693 0.02428,2.3098038 -0.027204,3.4612322 -0.07062,0.923588 0.077781,1.857345 -0.014649,2.7853084 0.019084,0.6806629 -0.030742,1.1809029 0.023019,1.8122289 0.00905,0.423239 0.05265,0.980131 -0.027204,1.330921 0.025358,-0.288772 -0.1769312,-1.304338 -0.1025395,-0.602681 -0.080284,0.429776 0.032981,1.045634 0.3599347,1.209547 0.041563,0.294012 0.1031826,0.556341 0.2071717,0.290878 0.3655469,0.221324 0.3268843,-0.739987 0.5419947,-0.11928 0.1500734,-0.187684 0.6748613,-0.373074 0.6529047,0.08371 0.4051844,-0.556874 1.3114505,-0.297123 1.9482509,-0.334823 0.2236703,0.0765 1.1980626,-0.546043 1.5652973,-0.962617 C 8.2001368,11.442236 7.9786381,10.000883 7.9702908,8.7024445 7.9632708,7.0903405 8.104777,5.4626002 7.8175279,3.8642529 7.4458519,2.5217704 5.7749802,1.8802127 4.3814073,2.0478384 3.9016443,2.0598556 3.4240446,2.0336683 2.945854,2.0080782 2.8773645,2.0008053 2.8154147,1.9979638 2.757516,1.9997076 Z m 1.7620058,1.5108886 c 0.04526,0.00189 0.094323,0.00826 0.146485,0.018834 C 5.6536774,3.4850769 6.4797662,4.4387158 6.185266,5.3123622 6.1388783,5.6141738 6.2393137,6.2038993 6.0701706,5.8962097 6.0034091,5.685421 6.2554475,5.1897094 5.9843722,5.0842641 5.925587,5.8920962 5.9516531,6.7106698 6.1099308,7.5096378 6.146771,8.0600413 5.9209346,8.4652381 5.9236856,9.0477306 5.8191887,9.6964746 6.1172868,10.25789 5.9341488,10.82857 5.8137085,11.304976 5.8748565,10.226029 5.8337019,10.037551 5.6903681,9.3554611 5.5820158,10.47946 5.8106828,10.707197 c 0.080182,0.291899 -0.1950434,0.01873 -0.1402071,0.393416 0.013856,0.240185 -0.070633,0.856579 -0.1150953,0.322267 -0.1277368,0.113509 -0.2561279,0.281294 -0.2678584,0.341102 -0.4697048,0.184114 -1.0719956,0.322692 -1.2995315,-0.152763 -0.1763392,-0.661746 -0.01513,-1.319664 -0.073243,-1.9817334 0.214417,-0.02646 0.0482,-0.7888229 0.00209,-0.3662127 C 3.8635252,8.7380117 4.1156407,8.3718509 4.1512166,8.0286134 4.0465174,7.8972135 3.9397642,7.1352018 4.0591403,6.8818447 4.0524803,6.5071318 4.2338587,5.9024084 4.0214728,5.8229672 4.1448996,5.4190689 3.8913586,4.8936368 4.0340286,4.602956 4.0785526,5.0154935 4.1242883,5.0384623 4.1470313,4.5841223 3.9185781,4.375974 3.840632,3.4820987 4.5195218,3.5105962 Z"/>
 <path style="fill:#f4f4f7" d="m 5.4860724,13.152344 c -0.00932,0.09885 0.040581,0.0081 0,0 z"/>
</svg>
