<svg xmlns="http://www.w3.org/2000/svg" width="16" height="16" version="1.1">
 <path style="fill:#f4b400" d="m8.0000001-2.4e-7a8.0000001 8.0000001 0 0 0 -8.00000014 8.00000014 8.0000001 8.0000001 0 0 0 8.00000014 8.0000001 8.0000001 8.0000001 0 0 0 7.9999999 -8.0000001 8.0000001 8.0000001 0 0 0 -7.9999999 -8.00000014z"/>
 <path style="fill:#f4f4f7" d="m4.857143 7.8319132-0.7063247-1.4311696-1.5793894-0.2294988 1.1428569-1.1140104-0.2697919-1.5730077 1.4126491 0.7426734 1.4126489-0.7426734-0.2697918 1.5730078 1.1428569 1.1140102-1.5793896 0.2294989z"/>
 <path style="fill:#f4f4f7" d="m10.285714 6.4595573-0.7063245-1.4311697-1.5793894-0.2294987 1.1428569-1.1140105-0.2697919-1.5730076l1.4126489 0.7426734 1.412649-0.7426735-0.269792 1.5730078 1.142857 1.1140102-1.579389 0.229499z"/>
 <path style="fill:#f4f4f7" d="m5.4285718 13.546199-0.7063247-1.43117-1.5793895-0.229499 1.142857-1.11401-0.2697919-1.5730079 1.4126491 0.7426734 1.4126488-0.7426735-0.2697917 1.573008 1.1428569 1.11401-1.5793896 0.229499z"/>
 <path style="fill:#f4f4f7" d="m11.714286 11.831914-0.706325-1.43117-1.5793892-0.229499 1.1428572-1.1140101-0.269792-1.5730077 1.412649 0.7426734 1.412649-0.7426735-0.269792 1.5730079 1.142857 1.11401-1.57939 0.229499z"/>
 <g transform="matrix(.27231798 0 0 .29526478 -.34131027 -1.7228413)">
  <path style="stroke-linejoin:round;stroke:#c2352a;stroke-linecap:round;stroke-width:4.55467606;fill:none" d="m57.721022 39.515725-5.693342 18.218703-5.693346-18.218703"/>
  <path style="stroke:#c2352a;stroke-width:4.55467606;stroke-linecap:round;fill:none" d="m40.639906 39.499973-11.386675 18.218703m0-18.218703 11.386675 18.218703"/>
 </g>
</svg>
