<svg xmlns="http://www.w3.org/2000/svg" width="16" height="16" version="1">
 <circle style="fill:#ffb522" cx="-8" cy="8" r="8" transform="scale(-1,1)"/>
 <path style="fill:#f4f4f7" d="M 13,10.327 13,13 10.3272,13 5.576,8.2493 8.2493,5.5765 Z M 3.212,5.8933 C 2.92929,5.61059 2.92929,5.16512 3.212,4.8824 L 4.883,3.212 c 0.28271,-0.28271 0.72818,-0.28271 1.0109,0 L 7.2903,4.617 4.6175,7.2898 Z"/>
</svg>
