<svg xmlns="http://www.w3.org/2000/svg" width="16" height="16" version="1.1">
 <path style="fill:#3a8eed" d="m 15.356483,8.1611222 c 0,4.4195638 -2.897333,7.3158348 -7.3185175,7.3158348 -1.2650409,0 -2.4942486,0.229718 -3.5578687,-0.292607 C 1.8264754,13.881206 4e-8,11.152659 4e-8,7.9976715 4e-8,4.6697556 2.0321857,1.8163078 4.9237324,0.60972312 5.8722392,0.2139302 6.880513,0.58376637 7.9725609,0.58376637 c 4.4211851,0 7.3839221,3.15779193 7.3839221,7.57735583 z"/>
 <path style="fill:#ffd32c" d="M 8.0175781,0 C 7.8461065,8.6615058e-5 7.6730623,0.00653781 7.5019531,0.01757813 a 8,8 0 0 0 -0.068359,0.0019531 c -0.00116,4.723e-5 -0.00275,-4.701e-5 -0.00391,0 A 8,8 0 0 0 4.4550781,0.83398438 L 6,1.8671875 V 3.4003906 L 7.1269531,3.3515625 6.7089844,4.0410156 10.847656,6.5117188 12.662109,8.8183594 12.988281,7.6621094 14.75,8.6445312 15.986328,7.6152344 a 8,8 0 0 0 -0.0059,-0.171875 c -2.67e-4,-0.00322 2.72e-4,-0.00654 0,-0.00977 a 8,8 0 0 0 -0.002,-0.021484 8,8 0 0 0 -0.09375,-0.7636719 c -4.65e-4,-0.00263 -0.0015,-0.00518 -0.002,-0.00781 a 8,8 0 0 0 -0.0039,-0.013672 8,8 0 0 0 -0.152344,-0.6875 c -0.01315,-0.050151 -0.02664,-0.1005395 -0.04089,-0.150389 A 8,8 0 0 0 15.179688,4.4824219 c -0.02389,-0.04869 -0.04544,-0.098272 -0.07031,-0.1464844 a 8,8 0 0 0 -0.375,-0.65625 c -4.89e-4,-7.623e-4 -0.0015,-0.00119 -0.002,-0.00195 A 8,8 0 0 0 14.296875,3.0683594 C 14.253402,3.0129133 14.205172,2.9606273 14.160156,2.90625 A 8,8 0 0 0 13.816406,2.5136719 C 13.649411,2.3528697 13.47872,2.1894365 13.306641,2.0234375 a 8,8 0 0 0 -1.470703,-1.04492188 8,8 0 0 0 -0.714844,-0.34375 c -0.0021,-8.7744e-4 -0.0037,-0.003033 -0.0059,-0.003906 a 8,8 0 0 0 -0.02539,-0.009766 8,8 0 0 0 -0.72461,-0.26367187 c -6.01e-4,-1.8475e-4 -0.0014,1.8444e-4 -0.002,0 A 8,8 0 0 0 9.5976562,0.16210938 c -0.00263,-5.1746e-4 -0.00518,-0.001443 -0.00781,-0.001953 A 8,8 0 0 0 9.5644531,0.15625 8,8 0 0 0 8.8535156,0.046875 C 8.8165236,0.04312284 8.7791261,0.04048348 8.7421875,0.03710937 A 8,8 0 0 0 8.7304688,0.03515625 8,8 0 0 0 8.0175781,0 Z"/>
 <path style="fill:#f14f4f" d="M 15.986328,7.625 14.75,8.6542969 12.988281,7.6621094 12.662109,8.8261719 12.164062,8.1914062 8.3867188,11.181641 6,12.5 l -1.5,0.914062 0.035156,1.78125 c 0,0 -0.1184812,-0.06094 0.3984376,0.191407 l -0.019531,-0.01953 c 0.04027,0.01633 0.080729,0.03467 0.1210937,0.05078 0.012961,0.0052 0.026074,0.01048 0.039063,0.01563 0.2712125,0.104834 0.5470516,0.200642 0.828125,0.27539 0.3277914,0.09083 0.6601621,0.156688 0.9960937,0.205078 0.024721,0.004 0.049461,0.0079 0.074219,0.01172 0.0265,0.0036 0.053543,0.0026 0.080078,0.0059 -0.031877,-0.0051 -0.063777,-0.0092 -0.095703,-0.01367 0.061798,0.0084 0.1235752,0.01259 0.1855469,0.01953 0.1425771,0.01609 0.2863517,0.02284 0.4296875,0.03125 0.172303,0.0084 0.3448089,0.0175 0.5175782,0.01563 l -0.00195,0.01172 c 0.2332205,-0.0042 0.465298,-0.01848 0.6972656,-0.04297 v -0.0059 c 0.3680076,-0.03624 0.7344984,-0.09588 1.0957032,-0.181641 0.3612046,-0.08576 0.7176566,-0.197892 1.0664066,-0.335937 0.0068,-0.0021 0.01275,-0.0038 0.01953,-0.0059 0.0016,-8e-4 0.0042,-0.0012 0.0059,-0.002 0.270806,-0.127814 0.542315,-0.255948 0.824219,-0.388672 0.129612,-0.07003 0.257265,-0.143625 0.382813,-0.220703 0.04147,-0.02541 0.08452,-0.04932 0.125,-0.07617 0.0022,-0.0014 0.0037,-0.0025 0.0059,-0.0039 0.03764,-0.02386 0.07584,-0.04834 0.113281,-0.07227 0.141138,-0.09454 0.279229,-0.193546 0.414063,-0.296875 0.03873,-0.0295 0.07708,-0.0577 0.115234,-0.08789 0.02892,-0.02181 0.05732,-0.04421 0.08594,-0.06641 0.158791,-0.129464 0.312551,-0.264981 0.460938,-0.40625 0.03979,-0.03694 0.08011,-0.07356 0.119141,-0.111328 0.14993,-0.148543 0.293922,-0.30296 0.43164,-0.46289 0.03669,-0.04137 0.07159,-0.08481 0.107422,-0.126954 0.134863,-0.162819 0.26322,-0.330919 0.384766,-0.503906 0.03096,-0.04335 0.0617,-0.08692 0.0918,-0.130859 0.125903,-0.186991 0.243847,-0.37922 0.353515,-0.576172 0.0183,-0.03212 0.03487,-0.06528 0.05274,-0.09766 0.112204,-0.207585 0.215169,-0.420032 0.308593,-0.636719 0.01037,-0.02402 0.02114,-0.04817 0.03125,-0.07227 l 0.0039,-0.0098 c 0.193745,-0.466628 0.342848,-0.950561 0.445312,-1.4453128 0.0066,-0.03168 0.01133,-0.063935 0.01758,-0.095703 0.04911,-0.2429049 0.08692,-0.4879609 0.113282,-0.734375 0.02267,-0.2408806 0.0344,-0.4826655 0.03516,-0.7246093 5.63e-4,-0.098729 -9.63e-4,-0.1977673 -0.0039,-0.296875 -0.0015,-0.050799 -0.0034,-0.1015823 -0.0059,-0.1523438 z m -8.4140624,8.34375 c -0.066968,-0.0033 -0.134306,-9.17e-4 -0.2011718,-0.0059 0.1333822,0.01243 0.2685357,0.01381 0.4023437,0.01953 -0.067201,-0.0022 -0.1340875,-0.0097 -0.2011719,-0.01367 z m 0.2011719,0.01367 C 7.8491727,15.984957 7.9241595,15.999616 8,16 c 0.00195,10e-6 0.00391,-8e-6 0.00586,0 0.018231,-5.89e-4 0.036461,-0.0012 0.054687,-0.002 C 7.964928,15.997312 7.8689505,15.98646 7.7734376,15.98237 Z M 7.3710938,15.96289 c -0.076592,-0.0063 -0.1521447,-0.01684 -0.2285157,-0.02539 -0.029796,-0.0034 -0.060089,-0.0022 -0.089844,-0.0059 0.040985,0.0066 0.081817,0.0133 0.1230468,0.01758 0.021882,0.0019 0.044508,0.0042 0.066406,0.0059 0.043432,0.0041 0.085401,0.0046 0.1289063,0.0078 z m -1.46875,-0.253907 C 5.72459,15.659852 5.5469824,15.604249 5.3730469,15.542969 c 0.118136,0.04063 0.237886,0.08183 0.3574219,0.117187 0.057144,0.01705 0.114364,0.03306 0.171875,0.04883 z m -0.828125,-0.27539 c -0.042227,-0.01632 -0.086953,-0.02593 -0.1289063,-0.04297 0.06355,0.02373 0.1292264,0.04625 0.1933594,0.06836 -0.021459,-0.0083 -0.043067,-0.01693 -0.064453,-0.02539 z M 4.7265625,15.285156 c 0.045516,0.01965 0.090909,0.03978 0.1367187,0.05859 1.313e-4,0.0017 -3.15e-4,0.0042 0,0.0059 l -0.011719,-0.0059 c -0.041938,-0.01797 -0.083531,-0.03988 -0.1249997,-0.05859 z m 1.265625,0.447266 c 0.1492608,0.04213 0.299715,0.0799 0.4511719,0.113281 0.00112,-1.01e-4 0.00285,-0.008 0.00391,-0.0078 0.055139,0.01048 0.1087155,0.02 0.1640625,0.0293 0.021774,0.0039 0.044616,0.0061 0.066406,0.0098 -0.2302862,-0.03845 -0.4595014,-0.08612 -0.6855469,-0.144531 z"/>
 <path style="fill:#f4f4f7" d="M 8,3 A 5,5 0 0 0 3,8 5,5 0 0 0 8,13 5,5 0 0 0 13,8 5,5 0 0 0 12.988281,7.6621094 L 6,12.5 v -9 l 6.988281,4.1464844 A 5,5 0 0 0 8,3 Z"/>
 <path style="fill:#ff7d2c" d="M 13,7.653846 6,12.5 v -9 z"/>
</svg>
