<svg xmlns="http://www.w3.org/2000/svg" width="16" height="16" version="1">
 <rect style="fill:#3f51b5" width="16" height="16" x="0" y="0" rx="4.8" ry="4.8"/>
 <path style="fill:#f4f4f7" d="M 5 3 L 2.5 6 L 4 6 A 1.0001 0.99660735 0 0 0 4 6.0097656 L 4 11.990234 A 1.0001 0.99660735 0 1 0 6 11.990234 L 6 6.0097656 A 1.0001 0.99660735 0 0 0 6 6 L 7.5 6 L 5 3 z M 11.015625 3 A 1.0001 0.99660735 0 0 0 10 4.0097656 L 10 9.9902344 A 1.0001 0.99660735 0 0 0 10 10 L 8.5 10 L 11 13 L 13.5 10 L 12 10 A 1.0001 0.99660735 0 0 0 12 9.9902344 L 12 4.0097656 A 1.0001 0.99660735 0 0 0 11.015625 3 z"/>
</svg>
