<svg xmlns="http://www.w3.org/2000/svg" width="16" height="16" version="1">
 <circle style="fill:#dc587f" cx="8" cy="8" r="8"/>
 <path style="opacity:0.2" d="M 8 2 A 6 6 0 0 0 2 8 A 6 6 0 0 0 2.0898438 9 L 3 9 L 4.1308594 9 L 11.867188 9 A 4 4 0 0 1 8 12 A 4 4 0 0 1 5.3613281 11 L 2.8105469 11 A 6 6 0 0 0 8 14 A 6 6 0 0 0 14 8 A 6 6 0 0 0 13.910156 7 L 13 7 L 11.869141 7 L 4.1328125 7 A 4 4 0 0 1 8 4 A 4 4 0 0 1 10.638672 5 L 13.189453 5 A 6 6 0 0 0 8 2 z"/>
 <rect style="fill:#f4f4f7" width="2" height="4" x="7" y="5"/>
 <path style="fill:#f4f4f7" transform="matrix(0.41602515,-0.18490006,0.24019224,0.32025632,0.84134707,-2.4303381)" d="M -6.6055512,28.755002 4.2111025,35 -6.6055513,41.244998 Z"/>
</svg>
