<svg xmlns="http://www.w3.org/2000/svg" width="16" height="16" version="1.1">
 <rect style="fill:#20b293" width="15" height="15" x="1" y="1" rx="7.5" ry="7.5"/>
 <path style="fill:#f4f4f7" d="M 8,3 V 4.0312 A 4.5,4.5 0 0 0 4.2637,7 H 5.3418 A 3.5,3.5 0 0 1 8.5,5 3.5,3.5 0 0 1 11.658,7 H 12.736 A 4.5,4.5 0 0 0 9,4.0332 V 3 Z M 8.5,6 A 2.5,2.5 0 0 0 6,8.5 2.5,2.5 0 0 0 6.0508,9 H 7.0879 9.9121 A 1.5,1.5 0 0 1 8.5,10 H 6.5039 A 2.5,2.5 0 0 0 8.5,11 2.5,2.5 0 0 0 11,8.5 2.5,2.5 0 0 0 10.949,8 H 10 7.0879 A 1.5,1.5 0 0 1 8.5,7 H 10.496 A 2.5,2.5 0 0 0 8.5,6 Z M 4.2637,10 A 4.5,4.5 0 0 0 8,12.967 V 14 H 9 V 12.969 A 4.5,4.5 0 0 0 12.736,10 H 11.658 A 3.5,3.5 0 0 1 8.5,12 3.5,3.5 0 0 1 5.3418,10 Z"/>
</svg>
