<svg xmlns="http://www.w3.org/2000/svg" width="16" height="16" version="1">
 <rect style="fill:#ff5722" width="16" height="16" x="0" y="0" rx="4.8" ry="4.8"/>
 <path style="fill:#f4f4f7" d="M 8 3 C 6.5226667 3 5 4.2745647 5 5.8574219 L 5 7 L 4.6660156 7 C 4.2966823 7 4 7.3035044 4 7.6992188 L 4 12.285156 C 4 12.680871 4.2966823 13 4.6660156 13 L 11.333984 13 C 11.703317 13 12 12.680871 12 12.285156 L 12 7.6992188 C 12 7.3035044 11.703317 7 11.333984 7 L 11 7 L 11 5.8574219 C 11 4.2745647 9.4773332 3 8 3 z M 8 5 C 8.554 5 9 5.4957725 9 6.1113281 L 9 7 L 7 7 L 7 6.1113281 C 7 5.4957725 7.446 5 8 5 z"/>
</svg>
