<svg xmlns="http://www.w3.org/2000/svg" width="16" height="16" version="1">
 <rect style="fill:#797979" width="12" height="16" x="-12" y="-16" rx=".8" ry=".8" transform="matrix(0,-1,-1,0,0,0)"/>
 <rect style="opacity:0.2" width="14" height="2" x="1" y="8"/>
 <path style="fill:#b2bfd9" d="m 2,9 0,6.2 C 2,15.6432 2.3345,16 2.75,16 l 10.5,0 C 13.6655,16 14,15.6432 14,15.2 L 14,9 Z"/>
 <rect style="opacity:0.5" width="8.4" height="1" x="4" y="13"/>
 <rect style="opacity:0.5" width="6.8" height="1" x="4" y="11"/>
 <rect style="fill:#f4f4f7" width="1" height="1" x="14" y="1" rx=".375" ry=".375"/>
 <rect style="fill:#f4f4f7" width="1" height="1" x="12" y="1" rx=".375" ry=".375"/>
 <rect style="fill:#f4f4f7" width="1" height="1" x="10" y="1" rx=".375" ry=".375"/>
 <rect style="fill:#f4f4f7" width="1" height="1" x="14" y="3" rx=".375" ry=".375"/>
 <rect style="fill:#f4f4f7" width="1" height="1" x="12" y="3" rx=".375" ry=".375"/>
 <rect style="fill:#f4f4f7" width="1" height="1" x="10" y="3" rx=".375" ry=".375"/>
 <rect style="fill:#ff5a5a" width="1" height="1" x="14" y="5" rx=".375" ry=".375"/>
 <rect style="fill:#f4f4f7" width="1" height="1" x="12" y="5" rx=".375" ry=".375"/>
 <rect style="fill:#6bd70f" width="1" height="1" x="10" y="5" rx=".375" ry=".375"/>
 <rect style="fill:#48cdff" width="6" height="3" x="2" y="2"/>
</svg>
