<svg xmlns="http://www.w3.org/2000/svg" width="16" height="16" version="1">
 <circle style="fill:#4eabab" cx="8" cy="8" r="7"/>
 <path style="fill:#f4f4f7" d="M 9.6776196,11.994857 C 9.61726,11.393856 9.2894567,10.851097 9.0447541,10.306275 8.6611589,9.3664393 8.3017083,8.4142204 7.9838483,7.45052 7.8746352,7.1164738 7.8934222,6.5232193 8.2629396,7.0175127 8.8769552,7.0232291 9.5055643,7.1845047 9.5951323,7.9005691 9.7833538,8.1669713 9.8718614,9.287824 10.20008,8.5617025 10.549918,8.0077676 10.643713,7.3327826 10.980989,6.7786822 11.257077,6.1796004 11.914955,6.2050164 12.46361,6.3156171 12.249488,7.0312822 11.924142,7.7239767 11.771381,8.4637625 11.592472,9.137376 11.229667,9.7464127 10.998837,10.404489 c -0.274214,0.556043 -0.591528,1.145282 -1.0976061,1.521137 -0.071978,0.0205 -0.143484,0.09433 -0.2236113,0.06923 z M 7.9439131,11.463932 C 7.6670051,11.047491 7.5471243,10.481931 7.2594793,10.109892 6.79262,10.043652 6.3364396,10.108001 6.3493956,10.691929 6.2867753,11.282416 5.6856698,11.447269 5.1939022,11.267057 4.6213164,11.170217 5.5554713,10.219581 5.0044855,10.10302 4.8832491,9.8617171 5.0863516,9.3145709 5.4778491,9.3734578 5.8680305,8.4115902 6.0457218,7.3467302 6.6477891,6.4781466 6.8034076,6.4513066 7.5467502,6.1020375 7.1034945,6.5346029 6.8313789,6.9796226 7.2200989,7.4458273 7.3857847,7.8503578 7.7151072,8.3910462 7.869512,9.0507782 8.304484,9.5196323 8.7041552,9.7344131 8.224039,10.166978 8.6127192,10.480233 c 0.1526819,0.295004 0.3915851,0.57327 -0.098821,0.571161 -0.2104647,0.09943 -0.323164,0.418513 -0.5699851,0.412538 z M 6.9896313,9.3796894 C 6.9461796,9.0436905 6.6775756,8.8469658 6.680136,9.3242531 6.648929,9.4582633 6.9191513,9.3728821 6.9896313,9.3796894 Z m 5.6494997,1.9981666 c -0.253634,-0.207202 -0.572019,-0.203356 -0.79497,-0.178268 0.01711,-0.600337 0.482019,-1.067518 0.465808,-1.6871186 0.0267,-0.5804098 0.296922,-1.1995087 0.105614,-1.7635261 -0.304923,-0.3292069 0.382467,-0.8399691 0.384988,-1.2798484 0.854428,0.4172735 1.834307,-0.1775422 2.698678,0.2133018 0.306167,0.1472266 0.817965,0.6461233 0.233451,0.4943895 -0.253775,0.411592 -0.51144,0.8059014 -1.043018,0.5496287 -0.499466,0.040843 -1.08361,0.00953 -0.979061,0.6915066 0.204307,0.4044763 1.284684,-0.1123204 1.239844,0.6913876 0.44248,0.4448062 -0.932405,0.2237367 -1.209324,0.3663818 -0.43434,0.08004 -0.310564,0.8005201 0.191655,0.5781661 0.516999,0.08168 1.340149,-0.04304 1.687494,0.142483 -0.460793,0.32195 -0.243572,1.270351 -1.057948,1.110016 -0.639946,0.04659 -1.282086,0.06042 -1.923211,0.0715 z M 2.0984017,11.301496 C 1.3383775,11.233413 0.64474757,10.771158 0.28276336,10.105039 -0.00674133,9.3633607 0.02781518,8.5386116 8.6363636e-8,7.7531251 0.0941047,6.9449709 0.19141583,6.1194142 0.60460946,5.3998589 1.2126014,4.1847709 2.8474615,3.685639 4.0753138,4.2023597 4.8012073,4.6427673 5.3428851,5.4942291 5.2844036,6.356492 5.2136567,7.0428098 4.423716,7.2847996 3.8706506,7.4989946 3.5362818,7.3702047 4.3161229,7.1720306 4.004876,6.7984109 3.9298073,6.2447782 3.2689887,5.4025349 2.6802364,5.8223167 1.9476302,6.4512589 1.8211176,7.4852458 1.9543194,8.3853087 2.1823039,9.0218258 2.7686626,9.5829978 3.4884386,9.5250865 3.8754895,9.6524203 4.6410924,9.227472 4.7959444,9.5056683 4.376384,9.9655683 4.6661207,10.588959 4.1187946,10.9579 3.6195793,11.388974 2.8550125,11.317802 2.2282294,11.319443 L 2.098432,11.301467 Z M 10.139928,6.57594 C 9.6550607,6.4710284 8.5396541,6.6545604 9.0092025,5.8352753 9.1764232,5.417876 8.9601596,4.6316371 9.6518538,4.9615186 9.9450941,5.0117095 10.876285,4.9325331 10.563372,5.3469164 10.289781,5.4558811 9.4099923,5.0225691 9.6484221,5.5444909 10.095517,5.4537055 10.23371,6.0515775 9.701689,5.8555113 9.1106294,6.1028091 10.120173,6.2398833 10.400055,6.219824 10.824974,6.1271622 10.58142,6.7689556 10.139928,6.57594 Z M 8.4265331,6.2656164 C 7.7013934,6.4558109 8.4648887,5.4743557 7.8781858,5.3823964 7.5961811,5.4059382 7.7633185,6.0818691 7.2576607,6.0227542 6.9887945,6.0697473 7.6433785,5.1278877 7.0298349,5.1172538 7.4153309,4.993584 7.4257385,4.6349622 7.499208,4.3028709 c 0.3568956,0.1311797 0.3269298,0.4201735 0.4014294,0.6539186 0.239704,0.254184 0.4004858,0.149584 0.3893324,-0.1662862 0.7720513,0.016753 0.25074,0.9943345 0.2346538,1.4879673 -0.00399,0.065878 -0.086425,-0.00723 -0.09809,-0.012858 z M 6.2344513,6.1454986 C 5.8205342,5.9324593 6.3774011,5.0875458 6.1309953,4.6559833 5.6971142,4.6552924 5.3699665,4.729904 5.2963553,4.2496746 5.4782309,4.125424 6.3366473,4.2449146 6.6227258,4.2007753 6.7352371,4.4517306 7.6630392,4.1764917 7.0607382,4.6269437 6.2707873,4.5616979 6.7770854,5.6111408 6.5938938,6.0684222 6.5136902,6.17442 6.3500665,6.1415542 6.2344513,6.1454986 Z"/>
</svg>
