<svg xmlns="http://www.w3.org/2000/svg" width="16" height="16" version="1.1">
 <rect style="fill:#5793fc" width="16" height="16" x="0" y="0" rx="4" ry="4"/>
 <path style="fill:#f4f4f7" d="M 3,4.9999999 V 6 h 2 v 5 H 6 V 6 H 8 V 4.9999999 Z"/>
 <path style="fill:#f4f4f7" d="m 9,5 v 6 h 1 V 8.7015265 c 0.221007,-1.004607 1.896719,-0.8268501 2,-0.041053 V 11 h 1 V 8.3736147 C 12.918029,7.3269378 12.284825,6.7510096 11.432,6.686 10.878726,6.6438248 10.508182,6.7664114 10,7.2857658 V 5 Z"/>
</svg>
