<svg xmlns="http://www.w3.org/2000/svg" width="16" height="16" version="1.1">
 <circle style="fill:#127bca" cx="8" cy="8" r="7"/>
 <path style="fill:#f4f4f7" d="M 7.9446672,0 4.6049113,8 H 7.9133906 L 5.9968982,11.742975 5.0462738,10.608738 4.5903615,16 8.7891848,12.495438 7.2163582,12.331919 11.297393,6 H 7.8233167 L 11.409639,0 Z"/>
</svg>
