<svg xmlns="http://www.w3.org/2000/svg" width="16" height="16" version="1">
 <path style="fill:#17191e" d="M 8.2349042,0.08764108 C 7.8257467,-0.14449248 7.2427867,0.10020865 6.9278175,0.63630018 L 4.4641613,4.8295578 2.0005045,9.0228147 1.4319673,9.99049 c -0.83991905,1.429576 -0.4181186,3.203401 0.9457377,3.977183 l 2.9542017,1.676061 c 1.3638555,0.773785 3.1380152,0.24583 3.977933,-1.183748 L 9.8783504,13.492297 12.342006,9.2990395 14.805663,5.1057817 c 0.314948,-0.536106 0.239139,-1.1545585 -0.170018,-1.3866934 z"/>
 <path style="fill:#d7dcd7" d="M 13.308726,4.6925895 8.0410604,1.7031725 5.9429697,5.270766 11.228929,8.2324047 Z"/>
 <rect style="fill:#6771f2" width="1.005" height=".661" x="7.88" y="3.02" transform="matrix(0.87218818,0.4891705,-0.51090824,0.85963525,0,0)"/>
 <rect style="fill:#6771f2" width="1.005" height=".661" x="9.55" y="3.02" transform="matrix(0.87218818,0.4891705,-0.51090824,0.85963525,0,0)"/>
 <rect style="fill:#6771f2" width="1.005" height=".661" x="11.23" y="3.02" transform="matrix(0.87218818,0.4891705,-0.51090824,0.85963525,0,0)"/>
 <rect style="fill:#6771f2" width="1.005" height=".661" x="12.91" y="3.02" transform="matrix(0.87218818,0.4891705,-0.51090824,0.85963525,0,0)"/>
 <rect style="fill:#ffb845" width="1.005" height=".661" x="7.88" y="4.34" transform="matrix(0.87218818,0.4891705,-0.51090824,0.85963525,0,0)"/>
 <rect style="fill:#ff45ea" width="1.005" height=".661" x="9.55" y="4.34" transform="matrix(0.87218818,0.4891705,-0.51090824,0.85963525,0,0)"/>
 <rect style="fill:#6771f2" width="1.005" height=".661" x="11.23" y="4.34" transform="matrix(0.87218818,0.4891705,-0.51090824,0.85963525,0,0)"/>
 <rect style="fill:#6771f2" width="1.005" height=".661" x="12.91" y="4.34" transform="matrix(0.87218818,0.4891705,-0.51090824,0.85963525,0,0)"/>
 <rect style="opacity:0.4;fill:#f4f4f7" width="1.005" height=".661" x="7.88" y="5.67" transform="matrix(0.87218818,0.4891705,-0.51090824,0.85963525,0,0)"/>
 <rect style="opacity:0.4;fill:#f4f4f7" width="1.005" height=".661" x="9.55" y="5.67" transform="matrix(0.87218818,0.4891705,-0.51090824,0.85963525,0,0)"/>
 <rect style="opacity:0.4;fill:#f4f4f7" width="1.005" height=".661" x="11.23" y="5.67" transform="matrix(0.87218818,0.4891705,-0.51090824,0.85963525,0,0)"/>
 <rect style="opacity:0.4;fill:#f4f4f7" width="1.005" height=".661" x="12.91" y="5.67" transform="matrix(0.87218818,0.4891705,-0.51090824,0.85963525,0,0)"/>
 <rect style="opacity:0.4;fill:#f4f4f7" width="1.005" height=".661" x="7.88" y="6.99" transform="matrix(0.87218818,0.4891705,-0.51090824,0.85963525,0,0)"/>
 <rect style="opacity:0.4;fill:#f4f4f7" width="1.005" height=".661" x="9.55" y="6.99" transform="matrix(0.87218818,0.4891705,-0.51090824,0.85963525,0,0)"/>
 <rect style="opacity:0.4;fill:#f4f4f7" width="1.005" height=".661" x="11.23" y="6.99" transform="matrix(0.87218818,0.4891705,-0.51090824,0.85963525,0,0)"/>
 <rect style="opacity:0.4;fill:#f4f4f7" width="1.005" height=".661" x="12.91" y="6.99" transform="matrix(0.87218818,0.4891705,-0.51090824,0.85963525,0,0)"/>
</svg>
