<svg xmlns="http://www.w3.org/2000/svg" width="16" height="16" version="1.1">
 <path style="fill:#00a1f1" d="m 0.8,0 12.523827,1.8761726 c 0.4432,0 0.8,0.3568 0.8,0.8000002 L 16,15.2 C 16,15.6432 15.6432,16 15.2,16 H 0.8 C 0.3568,16 0,15.6432 0,15.2 V 0.8 C 0,0.3568 0.3568,0 0.8,0 Z"/>
 <path style="fill:#008aee" d="M 0.8,0 C 0.5784,0 0.37819376,0.08899376 0.23359376,0.23359376 L 15.766406,15.766406 C 15.911006,15.621806 16,15.4216 16,15.2 V 0.8 C 16,0.3568 15.6432,0 15.2,0 Z"/>
 <path style="fill:#f4f4f7" d="m 7.8279187,2.0000265 c -0.015656,-3.108e-4 -0.030724,0.00279 -0.044173,0.00984 C 7.0291111,2.4895586 5.9708093,3.1572276 5.709932,3.9744761 5.628345,4.2451039 5.664432,4.3452545 5.708902,4.5633977 5.782685,4.8258727 5.9368531,5.1699782 6.108474,5.455926 6.2196382,5.6411443 6.5857713,6.1298882 6.6133786,6.1298882 7.1205095,5.7969985 7.620449,5.2835328 8.0287171,4.8669187 V 3.5953268 c 0,-1.1843043 -0.012034,-1.4182215 -0.077471,-1.5148322 -0.024617,-0.048489 -0.07638,-0.079711 -0.123336,-0.080471 z m -2.3170928,2.357816 c -0.026696,6.857e-4 -0.0687,0.1045907 -0.093435,0.2312112 C 5.3532329,4.9173954 5.0676413,6.0866681 4.9406895,6.541371 4.8376228,6.9105144 4.8011317,7.3069154 4.8608425,7.4068346 4.9050925,7.4808876 5.6556497,7.7615999 6.7295875,8.1057482 7.250719,8.2727457 7.3330377,8.2694251 7.4380119,8.0786882 7.5979315,7.7880976 7.6228139,7.838531 6.6194999,6.4215391 5.8275525,5.3030637 5.7224724,5.1139193 5.6147948,4.6136473 5.5843662,4.4722908 5.5375272,4.3572374 5.5108259,4.3578395 Z m 5.4733801,0.2142659 c -0.03773,-7.714e-4 -0.08224,0.00137 -0.128774,0.00703 -0.321767,0.038366 -1.4850932,0.1185839 -1.9424708,0.1342264 -0.3713223,0.01269 -0.7904131,0.099442 -0.8638535,0.1890526 -0.054419,0.066404 -0.037654,1.0199096 -0.022273,2.1825471 0.00747,0.5641771 0.036116,0.644065 0.2439598,0.6883677 0.3166486,0.0675 0.2780344,-0.020979 1.2710824,-1.4456848 0.7838371,-1.1245646 0.9251681,-1.2863133 1.3519481,-1.5468118 0.120596,-0.073608 0.21199,-0.1552427 0.203188,-0.1813174 -0.0055,-0.016299 -0.04992,-0.02604 -0.112805,-0.027407 z m 0.526985,0.104715 c -0.274088,0.00339 -0.355073,0.069803 -0.541933,0.1809625 -0.218574,0.1536809 -0.48762,0.4115329 -0.697556,0.6686915 C 10.135731,5.6930532 9.7997287,6.2042131 9.8082587,6.2313614 10.2711,6.6272957 10.792608,7.1712679 11.301892,7.4440835 l 1.287735,-0.4329093 c 1.089103,-0.3659745 1.300314,-0.5787769 1.368941,-0.672991 0.03699,-0.039193 0.04983,-0.099755 0.03602,-0.1461753 -0.0046,-0.015467 -0.01209,-0.029366 -0.02277,-0.04041 C 13.297487,5.557596 12.343362,4.680873 11.511191,4.6768234 Z m -9.3314839,1.891605 c -0.025299,0 -0.044795,0.003 -0.06184,0.00842 -0.052194,0.00922 -0.096917,0.050679 -0.1121258,0.096625 -0.00508,0.01533 -0.00711,0.030969 -0.00478,0.046386 0.2079445,0.8904724 0.4815671,2.180039 1.1525116,2.6891761 0.2236643,0.1638768 0.3269054,0.159415 0.5412575,0.1830751 0.2641765,0.00853 0.6282289,-0.036924 0.9442273,-0.1173653 C 4.8436352,9.4226443 5.4064654,9.21376 5.4149961,9.1866104 5.2655743,8.5849371 5.0793991,7.931855 4.8224338,7.4015576 L 3.5347041,6.9689964 C 2.6157736,6.660213 2.3163245,6.5686787 2.1796925,6.5684194 Z M 11.257722,7.478166 C 11.105409,7.4774803 10.369209,7.7006314 9.3713113,8.0516312 8.8547895,8.233315 8.7902617,8.2861021 8.8137427,8.5042209 c 0.035777,0.3323055 -0.012973,0.3065077 1.6040643,0.842979 1.276389,0.4234567 1.468762,0.512843 1.840202,0.8521191 0.104957,0.09586 0.208088,0.160433 0.229347,0.143717 0.02126,-0.01671 -0.0038,-0.126385 -0.05572,-0.243864 C 12.296921,9.7945422 11.863305,8.6748167 11.70758,8.2297913 11.581158,7.868489 11.385583,7.5258707 11.280487,7.4813285 c -0.0049,-0.00206 -0.01262,-0.00309 -0.02276,-0.00313 z M 7.2011889,8.8159062 C 7.0130119,8.8154776 6.6429209,8.9446571 5.685128,9.2705958 4.4118368,9.7039079 4.2054026,9.7486782 3.712076,9.6999934 c -0.1393975,-0.013766 -0.2597,-0.00321 -0.2674032,0.023194 -0.00769,0.026439 0.07502,0.099936 0.1838194,0.1633984 0.2821233,0.1645632 1.1693802,0.5350622 1.5483006,0.8004342 0.3076194,0.215449 0.6609369,0.373972 0.7712791,0.346119 0.081771,-0.02065 0.6713667,-0.400416 1.3197084,-1.3503581 C 7.5823953,9.2218137 7.6047595,9.1397303 7.4617945,8.9775444 7.3733083,8.8771597 7.3299394,8.8162297 7.2011889,8.8159083 Z m 1.2337118,0.4037389 c -0.038713,0.00124 -0.079083,0.01533 -0.127416,0.03795 -0.2945398,0.1378787 -0.2859778,0.081848 -0.2796311,1.8381109 0.00504,1.386275 -0.017516,1.603365 -0.2147339,2.07354 -0.055726,0.132861 -0.083439,0.254125 -0.061504,0.269867 0.021939,0.01575 0.1152878,-0.04261 0.2072665,-0.130012 0.2385115,-0.226636 1.1338546,-0.999259 1.4949936,-1.289949 0.2931909,-0.235989 0.5480602,-0.53434 0.5565432,-0.65147 0.0063,-0.08681 -0.4412129,-0.770179 -1.1144469,-1.7014202 C 8.6509563,9.3273417 8.5510366,9.215965 8.4349007,9.2196426 Z m 2.1572083,0.358766 c -0.0017,3.103e-4 -0.003,4.714e-4 -0.0038,0.00107 -0.221082,0.5775889 -0.441627,1.2191559 -0.535138,1.8043789 l 0.795743,1.132875 c 0.673104,0.958118 0.815996,1.13982 0.923841,1.178206 0.04747,0.02426 0.107004,0.0181 0.145423,-0.0099 0.01281,-0.0093 0.02338,-0.02088 0.03024,-0.03478 0.337874,-0.846814 0.849385,-2.056363 0.59596,-2.876113 -0.08774,-0.268481 -0.173956,-0.32768 -0.333929,-0.477122 C 12.001585,10.129531 11.68141,9.945095 11.380048,9.8180832 11.190944,9.7383835 10.646276,9.5733947 10.592117,9.5784325 Z M 6.8430293,11.03138 c -0.310295,0.0015 -0.6165173,0.01916 -0.9000535,0.0636 l -0.69649,1.404528 c -0.6731029,0.958121 -0.7961495,1.154785 -0.7981274,1.272727 -0.00764,0.05418 0.016466,0.110695 0.054026,0.139854 0.012514,0.0097 0.026546,0.01652 0.041447,0.01897 0.8831538,0.07064 2.1533978,0.200033 2.8289392,-0.302546 0.2198198,-0.169352 0.2476966,-0.27261 0.3356964,-0.476134 0.089487,-0.257192 0.1601357,-0.629247 0.1838164,-0.964909 0.015334,-0.21742 -0.1027631,-1.106985 -0.1250762,-1.123771 -0.2997414,-0.01948 -0.6138829,-0.03388 -0.9241805,-0.03231 z"/>
</svg>
