<svg xmlns="http://www.w3.org/2000/svg" width="16" height="16" version="1.1">
 <path style="fill:#00a1f1" d="m 0.8,0 12.523827,1.8761726 c 0.4432,0 0.8,0.3568 0.8,0.8000002 L 16,15.2 C 16,15.6432 15.6432,16 15.2,16 H 0.8 C 0.3568,16 0,15.6432 0,15.2 V 0.8 C 0,0.3568 0.3568,0 0.8,0 Z"/>
 <path style="fill:#008aee" d="M 0.8,0 C 0.5784,0 0.37819376,0.08899376 0.23359376,0.23359376 L 15.766406,15.766406 C 15.911006,15.621806 16,15.4216 16,15.2 V 0.8 C 16,0.3568 15.6432,0 15.2,0 Z"/>
 <path style="fill:#f4f4f7" d="M 8,2 A 6,6 0 0 0 2,8 6,6 0 0 0 8,14 6,6 0 0 0 14,8 6,6 0 0 0 8,2 Z M 8,3.125 A 4.875,4.875 0 0 1 12.875,8 4.875,4.875 0 0 1 8,12.875 4.875,4.875 0 0 1 3.125,8 4.875,4.875 0 0 1 8,3.125 Z"/>
 <path style="fill:none;stroke:#f4f4f7" d="M 2.75,7.5 H 5 l 0.75,-1.9374441 1.875,3.75 1.125,-1.875 L 9.5,8.5 h 3.75"/>
 <path style="fill:none;stroke:#f4f4f7;stroke-width:2.2" d="M 14.4,14.4 12,12"/>
</svg>
