<svg xmlns="http://www.w3.org/2000/svg" width="16" height="16" version="1.1">
 <path style="fill:#e88332" d="M 3.1022652,5.000203 A 0.40255256,0.38242621 0 0 0 2.794878,5.1473326 C 0.68417966,7.7174098 1.0462882,10.164138 1.0000816,12.609873 a 0.40255256,0.38242621 0 0 0 0.7657168,0.172523 c 0,0 0.611598,-1.207402 1.2201156,-2.719286 C 3.5944316,8.551225 4.2145492,6.7554486 4.19974,5.428149 A 0.40255256,0.38242621 0 0 0 3.827888,5.050989 L 3.1431452,5.0009498 a 0.40255256,0.38242621 0 0 0 -0.04088,-7.6e-4 z"/>
 <path style="fill:#e88332" d="m 12.897735,5.0002044 a 0.40255256,0.38242621 0 0 1 0.307387,0.1471296 c 2.110698,2.5700772 1.74859,5.016806 1.794796,7.462541 a 0.40255256,0.38242621 0 0 1 -0.765716,0.172523 c 0,0 -0.611598,-1.207402 -1.220116,-2.719286 C 12.405568,8.5512264 11.785451,6.75545 11.80026,5.4281504 a 0.40255256,0.38242621 0 0 1 0.371852,-0.37716 l 0.684743,-0.050039 a 0.40255256,0.38242621 0 0 1 0.04088,-7.6e-4 z"/>
 <path style="fill:#ffb20c" d="M 8,0 C 5.3445592,-5.016e-5 3.5099944,2.0299077 2.96875,4.5554688 2.6474876,5.649732 1.6397484,8.3870216 1.6,10.458594 1.6000628,13.519095 4.465458,15.99995 8,16 c 3.534542,-5e-5 6.399937,-2.480905 6.4,-5.541406 C 14.360252,8.3870216 13.352512,5.649732 13.03125,4.5554688 12.490006,2.0299077 10.655441,-5.016e-5 8,0 Z"/>
 <path style="fill:#eb5b0a" d="M 6.0003413,7.2420268 C 6.5737033,7.2868928 7.4042341,7.0728404 8.0212449,6.3999732 8.7401561,7.1013664 9.4694665,7.139752 9.992249,7.2335732 10.109578,8.3207772 10,10 8.0960937,9.9998517 6.1921874,9.9997034 5.9753917,8.5424732 6.0003413,7.2420268 Z"/>
 <path style="opacity:0.7" d="M 7.6,3 7.5351352,3.3714288 C 6.906012,3.4625688 6.4623028,3.63538 6,3.8 6,3.8 6.6271544,3 7.6,3 Z"/>
 <path style="opacity:0.7" d="M 8.4,3 8.463298,3.366056 C 9.093454,3.4607372 9.53739,3.6343252 10,3.8 10,3.8 9.3750944,3.0077092 8.4,3 Z"/>
 <g transform="translate(-1.0000006)">
  <ellipse style="fill:#f4f4f7" cx="8.858" cy="4.038" rx="1.506" ry="2.038" transform="matrix(0.97145609,0.23721945,-0.25985795,0.96564685,0,0)"/>
  <ellipse style="fill:#17191e" cx="9.391" cy="5.012" rx=".773" ry="1.021" transform="matrix(0.97295699,0.23098635,-0.26676097,0.96376272,0,0)"/>
 </g>
 <path style="opacity:0.4;fill:none;stroke:#000000;stroke-width:0.40000001px;stroke-linecap:round;stroke-linejoin:bevel" d="m 7.1000207,8.9999806 c 0,0 0.2,-0.1998704 1,-0.1998704 0.8,0 1,0.1998704 1,0.1998704"/>
 <g transform="matrix(-1,0,0,1,17.011111,0)">
  <ellipse style="fill:#f4f4f7" cx="8.858" cy="4.038" rx="1.506" ry="2.038" transform="matrix(0.97145609,0.23721945,-0.25985795,0.96564685,0,0)"/>
  <ellipse style="fill:#17191e" cx="9.391" cy="5.012" rx=".773" ry="1.021" transform="matrix(0.97295699,0.23098635,-0.26676097,0.96376272,0,0)"/>
 </g>
</svg>
