<svg xmlns="http://www.w3.org/2000/svg" width="16" height="16" version="1.1">
 <circle style="fill:#ecc138" cx="8" cy="8" r="8"/>
 <path style="fill:#17191e" d="M 9,2.7050264 V 4.0529188 C 8.240758,3.7929236 7.285112,4.198956 6.6,5.1 6.697858,3.8651928 6.9635552,2.6105088 9,2.7050264 Z"/>
 <path style="fill:#17191e" d="M 10.657186,3.4266183 9.879,4.7744751 c 0.9021,0.1741772 1.757681,1.0692864 1.91605,2.3620816 0.386419,-0.8603184 0.388519,-3.5294584 -1.137864,-3.7099384 z"/>
 <ellipse style="fill:#f4f4f7" cx="7.777" cy="8.349" rx="2.278" ry="3.527" transform="rotate(9.3364139)"/>
 <path style="fill:#17191e" d="M 7.2394776,8.0011315 A 0.85817944,1.5521061 18.004805 0 0 6.2366496,8.9610404 L 7.4837883,9.9069181 6.0476388,9.5528327 A 0.85817944,1.5521061 18.004805 0 0 6.4809597,10.980727 0.85817944,1.5521061 18.004805 0 0 7.7710181,9.7393672 0.85817944,1.5521061 18.004805 0 0 7.4119806,8.0192897 0.85817944,1.5521061 18.004805 0 0 7.2394776,8.0011315 Z"/>
 <ellipse style="fill:#f4f4f7" cx="9.937" cy="10" rx="1.937" ry="3"/>
 <path style="fill:#17191e" d="M 9.2895395,9.0000193 A 1.006956,0.62233297 81.349429 0 0 9.2276717,9.0043393 1.006956,0.62233297 81.349429 0 0 8.75,9.7402703 L 9.5981552,9.8675976 8.8298525,10.366131 A 1.006956,0.62233297 81.349429 0 0 9.5305328,10.995591 1.006956,0.62233297 81.349429 0 0 9.993816,9.9064436 1.006956,0.62233297 81.349429 0 0 9.2895395,9.0000193 Z"/>
</svg>
