<svg xmlns="http://www.w3.org/2000/svg" width="16" height="16" version="1.1">
 <g transform="translate(0,-1036.3622)">
  <path style="fill:#d24343" transform="translate(0,1036.3622)" d="M 2.1171875 0 C 2.0098961 0 1.9640537 1.1167688 2.03125 2.1054688 C 2.123005 3.4554687 2.3700963 4.2140437 2.8085938 4.5898438 C 3.0296685 4.7793437 3.7545411 5.0253906 4.0644531 5.0253906 C 4.5671839 5.5600906 4.3524673 6.403625 4.3515625 6.953125 C 4.0441821 8.153125 3.9369816 8.2177344 4 8.6152344 C 4.0412879 8.8756406 4.1929074 9.1988286 4.3730469 9.5078125 A 5.4999995 5.4999995 0 0 1 7.25 6.4863281 C 7.3781356 5.8302722 7.5123247 5.0338623 7.546875 5 C 7.596341 4.952 7.4096724 5.025 8.7070312 5 C 10.815042 4.959 10.959947 4.5747281 11.439453 4.1738281 C 11.721123 3.9384281 11.99898 3.4429281 12 3.1738281 C 12.0006 3.0155281 11.989919 3.0110031 11.484375 2.9707031 C 8.3176599 2.7179031 5.7575017 2.3118125 3.0703125 0.5703125 C 2.5871081 0.2572125 2.1588987 0 2.1171875 0 z"/>
  <path style="fill:#4f4f4f;fill-rule:evenodd" d="M 9.5000001,1043.3622 A 4.5000001,4.5000001 0 0 0 5,1047.8622 a 4.5000001,4.5000001 0 0 0 4.5000001,4.5 4.5000001,4.5000001 0 0 0 4.5000009,-4.5 4.5000001,4.5000001 0 0 0 -4.5000009,-4.5 z"/>
  <path style="fill:#f4f4f7;fill-rule:evenodd" d="M 9.4999998,1045.3622 A 2.4999998,2.4999954 0 0 1 12,1047.8621 2.4999998,2.4999954 0 0 1 9.4999998,1050.3622 2.4999998,2.4999954 0 0 1 7,1047.8621 a 2.4999998,2.4999954 0 0 1 2.4999998,-2.4999 z"/>
  <path style="fill:#d24343;fill-rule:evenodd" d="M 9.4729125,1046.3628 A 1.5000126,1.5000126 0 0 0 8,1047.5859 l 1.3154405,0.3524 c 0.1003366,0.027 0.1594547,0.1296 0.1325696,0.2299 l -0.309817,1.155 a 1.5000126,1.5000126 0 0 0 0.3347194,0.039 1.5000126,1.5000126 0 0 0 1.5000125,-1.5 1.5000126,1.5000126 0 0 0 -1.5000125,-1.5 z"/>
 </g>
</svg>
