<svg width="16" height="16" version="1.1" xmlns="http://www.w3.org/2000/svg">
 <rect x="9" width="7" height="7" ry="1" style="fill:#3bde3b"/>
 <rect x="9" y="9" width="7" height="7" ry="1" style="fill:#ff3376"/>
 <rect y="9" width="7" height="7" ry="1" style="fill:#3679ff"/>
 <path d="m5.9707031 0c-0.25501 0.00763696-0.4974603 0.1124426-0.6777343 0.29296875l-5 5c-0.62955614 0.6299946-0.18360561 1.7066818 0.70703125 1.7070312h5c0.5522619-5.52e-5 0.9999448-0.4477381 1-1v-5c1.84e-4 -0.56390668-0.4656305-1.0164627-1.0292969-1z" style="fill:#fcff20"/>
 <path d="m11 1c-0.554 0-1 0.446-1 1v3c0 0.554 0.446 1 1 1h3c0.554 0 1-0.446 1-1v-3c0-0.554-0.446-1-1-1h-3zm-6.0292969 1a1.0001 1.0001 0 0 0-0.6777343 0.2929688l-2 2a1.0001 1.0001 0 0 0 0.7070312 1.7070312h2a1.0001 1.0001 0 0 0 1-1v-2a1.0001 1.0001 0 0 0-1.0292969-1zm-2.9707031 8c-0.554 0-1 0.446-1 1v3c0 0.554 0.446 1 1 1h3c0.554 0 1-0.446 1-1v-3c0-0.554-0.446-1-1-1h-3zm9 0c-0.554 0-1 0.446-1 1v3c0 0.554 0.446 1 1 1h3c0.554 0 1-0.446 1-1v-3c0-0.554-0.446-1-1-1h-3z" style="fill:#f4f4f7;opacity:.6"/>
</svg>
