<svg xmlns="http://www.w3.org/2000/svg" width="16" height="16" version="1">
 <rect style="fill:#20c88c" width="16" height="16" x="0" y="0" rx=".8" ry=".8"/>
 <rect style="fill:#f4f4f7" width="8" height="8" x="-12" y="-12" rx=".8" ry=".8" transform="matrix(0,-1,-1,0,0,0)"/>
</svg>
