<svg xmlns="http://www.w3.org/2000/svg" width="16" height="16" version="1">
 <rect style="fill:#17191e" width="16" height="16" x="0" y="0" rx="8" ry="8"/>
 <path style="fill:#f4f4f7" d="M 4 3.0097656 L 4 4 C 5.1626245 5.4652805 6.3682401 6.8700178 7.609375 8.21875 C 7.7830876 8.0350514 7.9508444 7.842441 8.1230469 7.65625 C 6.8046078 6.2235045 5.5249291 4.7268818 4.2949219 3.1582031 A 0.37527293 0.38478324 0 0 0 4.0136719 3.0097656 A 0.37527293 0.38478324 0 0 0 4 3.0097656 z M 8.8847656 8.4804688 C 8.7121838 8.6669099 8.5413191 8.8570068 8.3671875 9.0410156 C 8.8508471 9.549816 9.3402558 10.049842 9.8359375 10.539062 L 10.367188 9.9941406 C 9.8666561 9.5003279 9.3734068 8.9944412 8.8847656 8.4804688 z M 10.5 10.128906 L 9.9707031 10.671875 C 10.065424 10.76481 10.162693 10.855006 10.257812 10.947266 L 10.244141 10.962891 A 0.18776836 0.19254266 0 1 0 10.517578 11.224609 L 10.533203 11.210938 C 11.143794 11.796423 11.759482 12.3719 12.388672 12.925781 A 0.3755445 0.38506166 0 0 0 12.878906 12.341797 C 12.258106 11.795304 11.648215 11.226427 11.044922 10.648438 L 11.082031 10.609375 A 0.18770339 0.19247602 0 0 0 10.939453 10.283203 A 0.18770339 0.19247602 0 0 0 10.806641 10.345703 L 10.771484 10.386719 C 10.682032 10.299995 10.58908 10.216276 10.5 10.128906 z"/>
 <path style="fill:#f4f4f7" d="M 12.48607,3.000069 A 0.37527293,0.38478324 0 0 0 12.204543,3.1474186 C 10.288165,5.591454 8.2647217,7.8806655 6.1333849,9.9833931 L 6.6634476,10.527685 C 8.7101401,8.5076706 10.653604,6.3164694 12.5,3.989417 V 3.000069 a 0.37527293,0.38478324 0 0 0 -0.01393,0 z M 5.99922,10.117963 C 5.910137,10.205333 5.8188752,10.2891 5.7294234,10.375824 l -0.036656,-0.03985 a 0.18770339,0.19247602 0 0 0 -0.1326988,-0.06315 0.18770339,0.19247602 0 0 0 -0.1414965,0.326275 l 0.035925,0.0391 c -0.6032932,0.57799 -1.212058,1.146526 -1.8328576,1.693019 a 0.3755445,0.38506166 0 0 0 0.4897396,0.583384 c 0.6291907,-0.553881 1.2457274,-1.129335 1.856318,-1.714821 l 0.013932,0.01504 a 0.18776772,0.192542 0 1 0 0.2741952,-0.263125 l -0.013197,-0.01504 c 0.095118,-0.09226 0.1919378,-0.181467 0.2866587,-0.274402 z"/>
</svg>
