<svg xmlns="http://www.w3.org/2000/svg" width="16" height="16" version="1.1">
 <g transform="translate(0,-1036.3622)">
  <path style="fill:#4f4f4f" d="m 8.0000001,1036.3622 c -1.4915385,0 -3.0000001,1.338 -3.0000001,3 0,3.75 -2,4.125 -2,6.75 0,2.8995 2.2385762,5.25 5.0000001,5.25 2.7614239,0 4.9999999,-2.3505 4.9999999,-5.25 0,-2.625 -2,-3 -2,-6.75 0,-1.662 -1.5084614,-3 -2.9999999,-3 z"/>
  <path style="fill:#f4f4f7" d="m 8.0000001,1041.3622 c -0.8949229,0 -1.5,0.8029 -1.5,1.8 0,2.25 -1.5,2.475 -1.5,4.05 0,1.7397 1.3431458,3.15 3,3.15 1.6568543,0 2.9999999,-1.4103 2.9999999,-3.15 0,-1.575 -1.4999999,-1.8 -1.4999999,-4.05 0,-0.9971 -0.6050771,-1.8 -1.5,-1.8 z"/>
  <path style="fill:#eab108" transform="translate(0,1036.3622)" d="M 2.3007812,11 C 2.1345812,11 2,11.134581 2,11.300781 l 0,0.582031 C 2.0271908,12.032747 1.8725668,11.982111 1.8496094,12 0.93386089,12.037826 1.0562783,12.239425 1,12.849609 c 0.045917,0.136614 0.1393497,0.141884 0.2148436,0.218751 0.2224874,0.117 0.4394337,0.20811 0.4335937,0.28711 -0.019857,0.2679 -0.3910493,0.337175 -0.5214844,0.609375 -0.097592,0.2037 -0.13310605,0.301343 -0.14648435,0.402344 -0.0208803,0.1577 0.0335673,0.298624 0.15039065,0.390624 0.085636,0.0675 0.1471245,0.09316 0.3808594,0.160157 0.086102,0.0247 0.2693696,0.08295 0.40625,0.126953 0.3762891,0.1214 0.5371586,0.164672 0.9707031,0.263672 0.8691666,0.1978 1.0895674,0.26425 1.5644531,0.46875 0.3189646,0.1373 0.9662348,0.184937 1.1308594,0.210937 l 0,0.002 c 0.094028,0.014 0.2687478,0.014 0.3574218,0 0.4169928,-0.0684 0.7774724,-0.370184 0.921875,-0.771484 0.011231,-0.031 0.026533,-0.06708 0.033203,-0.08008 0.016609,-0.0334 0.025854,-0.09905 0.037109,-0.251953 0.00888,-0.1204 0.00804,-0.138941 -0.00781,-0.244141 C 6.87862,14.340824 6.7455058,14.04019 6.5566424,13.77739 6.5447984,13.75909 6.4540886,13.639065 6.3535174,13.511765 6.2529505,13.384565 6.1580919,13.264187 6.1425799,13.244187 5.1381289,11.838055 3.4047911,11.01312 2.3007812,11 Z"/>
  <path style="fill:#eab108" d="m 12.144474,1052.1635 c 0.129133,-0.091 0.232304,-0.1924 0.445468,-0.4404 0.317348,-0.3692 0.47774,-0.5172 1.133951,-1.0459 0.327341,-0.2637 0.4463,-0.3679 0.715114,-0.6266 0.0978,-0.094 0.229198,-0.2175 0.292022,-0.2741 0.170539,-0.1537 0.212208,-0.2014 0.256435,-0.2934 0.06035,-0.1254 0.04624,-0.2662 -0.03891,-0.389 -0.05459,-0.079 -0.126236,-0.1449 -0.296482,-0.274 -0.227566,-0.1725 -0.29265,-0.3209 -0.424129,-0.5361 -0.07736,-0.1266 -0.145002,-0.2786 -0.268626,-0.6034 -0.07314,-0.1921 -0.102932,-0.2615 -0.162075,-0.3776 -0.06417,-0.126 -0.07732,-0.1477 -0.115154,-0.189 -0.142201,-0.1558 -0.300075,-0.2084 -0.499513,-0.1667 -0.05774,0.012 -0.09168,0.026 -0.333727,0.1394 -0.150879,0.07 -0.286277,0.13 -0.307576,0.1351 -0.115042,0.028 -0.209857,0.026 -0.313433,0 -0.09868,-0.029 -0.17691,0.01 -0.341731,-0.1009 -0.112754,-0.074 -0.233775,-0.166 -0.320377,-0.1899 -0.120324,-0.033 -0.119927,-0.033 -0.232365,-0.021 -0.108235,0.013 -0.487882,0.044 -0.575933,0.1131 -0.0555,0.043 -0.07178,0.062 -0.120155,0.1332 -0.04859,0.072 -0.06015,0.097 -0.08792,0.1878 -0.06987,0.2289 -0.09209,0.3599 -0.173351,1.0206 -0.06434,0.5238 -0.08112,0.6894 -0.09373,0.9266 -0.01373,0.2583 -0.05894,0.6841 -0.08703,0.8199 -0.0047,0.023 -0.03428,0.163 -0.06562,0.3113 -0.0313,0.1482 -0.05879,0.286 -0.06106,0.3062 -0.04863,0.2983 -0.03255,0.6056 0.05626,0.8771 0.03143,0.094 0.03857,0.1094 0.0976,0.2061 0.07492,0.1228 0.111188,0.1732 0.139607,0.194 0.01134,0.01 0.0395,0.033 0.06241,0.054 0.294625,0.2744 1.030011,0.3749 1.414644,0.2575 0.08174,-0.025 0.23162,-0.099 0.305586,-0.15 z"/>
  <g transform="translate(0.34145975,-0.29270723)">
   <circle style="fill:#f4f4f7" cx="6.659" cy="1039.655" r="1"/>
   <circle style="fill:#323232" cx="6.65" cy="1039.712" r=".35"/>
  </g>
  <path style="fill:#f77d00" d="m 10,1041.4622 c 0,1.1046 -0.8954305,1.9 -2,1.9 -1.1045695,0 -2,-0.7954 -2,-1.9 z"/>
  <g transform="translate(2.3414598,-0.29270723)">
   <circle style="fill:#f4f4f7" cx="6.659" cy="1039.655" r="1"/>
   <circle style="fill:#323232" cx="6.65" cy="1039.712" r=".35"/>
  </g>
  <path style="fill:#eab108" d="m 10,1041.6121 c 0,0.2501 -0.8954305,0.7501 -2,0.7501 -1.1045695,0 -2,-0.5 -2,-0.7501 0,-0.6903 0.8954305,-1.2499 2,-1.2499 1.1045695,0 2,0.5596 2,1.2499 z"/>
  <path style="fill:#4f4f4f" d="m 11.902435,1048.4597 c -0.646576,0 -0.480576,-0.5978 -0.780487,-1.1707 -0.427409,-0.8164 0.04523,-1.1124 1.17073,-1.1707 1.121155,-0.448 0.844457,2.3039 -0.390243,2.3414 z"/>
 </g>
</svg>
