<svg xmlns="http://www.w3.org/2000/svg" width="16" height="16" version="1.1">
 <path style="fill:#9d7730" d="m 1.0000008,14.426 c 0.00136,1.174 0.2750039,1.565478 3.7533106,1.565477 0.9888367,0 2.1925307,0.09216 2.8262376,-0.329594 0.5983678,-0.39823 0.3825508,-0.982667 0.3825512,-1.577445 C 7.9621002,12.859754 6.8314193,12 4.9088891,12 2.9863585,12 0.99856539,13.2 1.0000008,14.426 Z"/>
 <path style="fill:#ffa500" d="m 8,-6e-8 c 3.660096,0 6.746109,2.45793636 7.697458,5.81322676 0.197071,0.6950424 -0.242311,1.5842632 -0.242311,2.3424456 -1e-6,4.4182777 -2.725524,6.5989487 -7.1438026,6.5989487 -2.8275356,0 -5.6238016,-0.221526 -7.0466043,-2.435831 C 0.46428596,11.073045 8e-8,9.5907423 8e-8,7.9999999 8e-8,3.5817219 3.581722,-6e-8 8,-6e-8 Z"/>
 <ellipse style="fill:#17191e" cx="-9" cy="7" rx="1" ry="2" transform="scale(-1,1)"/>
 <path style="fill:#f27300" d="M 15.657986,5.7074655 C 15.457656,10.462918 11.546994,13.994457 6.7873264,14 4.7680148,13.997094 2.809872,13.528945 1.2352431,12.264757 2.699448,14.588546 5.253386,15.998734 8,16 12.418278,16 16,12.418278 16,7.9999999 15.99788,7.2232707 15.882679,6.4509883 15.657986,5.7074655 Z"/>
 <ellipse style="fill:#17191e" cx="-6" cy="7" rx="1" ry="2" transform="scale(-1,1)"/>
 <path style="fill:#9d7730" d="m 14.999998,14.426 c -0.0014,1.174 -0.275003,1.565478 -3.75331,1.565477 -0.988836,0 -2.1925301,0.09216 -2.8262369,-0.329594 C 7.8220834,15.263653 8.0379003,14.679216 8.0378999,14.084438 8.0378999,12.859754 9.1685807,12 11.09111,12 c 1.922531,0 3.910324,1.2 3.908888,2.426 z"/>
 <path style="opacity:0.2" d="m 14.620225,13.482812 a 8.6419744,8.8888888 0 0 1 -3.685329,2.511719 c 0.10364,-0.0012 0.21136,-0.0031 0.311414,-0.0031 3.478306,0 3.752328,-0.391625 3.753689,-1.565625 3.8e-4,-0.323678 -0.140653,-0.644519 -0.379774,-0.942969 z"/>
</svg>
