<svg xmlns="http://www.w3.org/2000/svg" width="16" height="16" version="1">
 <circle style="fill:#1da1f2" cx="8" cy="8" r="8"/>
 <g transform="matrix(0.07589286,0,0,0.07589286,37.752347,216.59648)">
  <path style="fill:#f4f4f7" d="m -339.32503,-2801.2712 c -55.10161,0 -105.41176,50.3102 -105.41176,105.4118 0,0 7.18716,-19.166 23.95721,-31.1444 16.77003,-11.9786 50.78911,0 60.3722,-21.5601 -16.77027,0 -26.83207,-3.8767 -26.83207,-3.8767 19.16575,0 47.91442,-20.8805 47.91442,-48.8306 z"/>
 </g>
</svg>
