<svg xmlns="http://www.w3.org/2000/svg" width="16" height="16" version="1.1">
 <g transform="matrix(0.4,0,0,0.4,-1.6,-1.6)">
  <circle style="fill:#7ea043" cx="24" cy="24" r="20"/>
  <path style="fill:#f4f4f7" d="M 27.342,9.408 35.111,14 27.3332,18.592 27.3422,9.408 Z M 24,11.769 c 0.56979,0 1.127,0.0454 1.6754,0.12153 v 1.7014 c -0.545,-0.088 -1.104,-0.139 -1.675,-0.139 -4.4425,0 -8.2418,2.7226 -9.8004,6.5972 l -1.441,-0.8507 c 1.871,-4.361 6.205,-7.43 11.241,-7.43 z m 0,4.158 c 0.57054,0 1.1282,0.0679 1.6667,0.18228 v 1.7274 c -0.532,-0.141 -1.09,-0.216 -1.667,-0.216 -2.9175,0 -5.3533,1.9387 -6.1198,4.6007 l -1.493,-0.886 c 1.105,-3.142 4.105,-5.408 7.613,-5.408 z m 9.809,0.77256 c 1.5213,2.0395 2.4219,4.5686 2.4219,7.3004 0,2.7743 -0.93503,5.3403 -2.5,7.3958 l -1.45,-0.86 c 1.419,-1.795 2.266,-4.062 2.266,-6.536 0,-2.4276 -0.8167,-4.6616 -2.1875,-6.441 z m -3.6198,2.1441 c 1.172,1.4019 1.8837,3.198 1.8837,5.1562 0,2.0025 -0.74213,3.8448 -1.9618,5.2604 l -1.484,-0.877 c 1.085,-1.14 1.753,-2.675 1.753,-4.384 0,-1.6603 -0.62798,-3.1642 -1.658,-4.2969 z m -20.347,0.564 7.769,4.592 -7.7778,4.592 0.009,-9.184 z m 8.0382,6.3715 c 0.76646,2.6599 3.2023,4.592 6.1198,4.592 0.57698,0 1.1351,-0.0774 1.6667,-0.21702 v 1.7361 c -0.538,0.114 -1.095,0.182 -1.666,0.182 -3.5108,0 -6.5107,-2.2703 -7.6128,-5.4167 z m -3.6806,2.1701 c 1.5585,3.8746 5.3578,6.5972 9.8004,6.5972 0.56591,0 1.1174,-0.0449 1.658,-0.1302 v 1.6927 c -0.541,0.075 -1.094,0.121 -1.657,0.121 -5.0364,0 -9.3702,-3.0686 -11.241,-7.4306 z m 13.134,1.6059 7.7691,4.5833 -7.7778,4.592 0.009,-9.1754 z"/>
 </g>
</svg>
