<svg xmlns="http://www.w3.org/2000/svg" width="16" height="16" version="1.1">
 <ellipse style="fill:#5c3a62" cx="8" cy="7" rx="8" ry="7"/>
 <circle style="fill:#f4f4f7" cx="6" cy="6" r="3"/>
 <circle style="fill:#f4f4f7" cx="10" cy="6" r="3"/>
 <circle style="fill:#3465a4" cx="6" cy="6" r="1"/>
 <circle style="fill:#3465a4" cx="10" cy="6" r="1"/>
 <path style="fill:#7e7a81" d="M 7.9692808,7.0000475 C 7.36279,7.0184075 6.9926344,7.5133585 6.7028516,7.9093837 6.2200528,8.6302743 5.8814332,9.4692465 6.0391232,10.309249 c 0.1229596,0.734969 0.2807196,1.467296 0.4745544,2.190663 0.341614,1.139216 0.6513996,2.3022 1.2787948,3.356405 0.2678204,0.430076 0.51648,-0.222858 0.6300896,-0.42726 0.6460416,-1.37733 1.095168,-2.81898 1.4375328,-4.27254 C 10.044481,10.371736 10.07824,9.5422632 9.7662436,8.7770037 9.5119808,8.1223226 9.1383768,7.4127424 8.3883972,7.0800927 8.2571904,7.0290803 8.1138444,6.9986548 7.9692808,7.0000475 Z"/>
</svg>
