<svg xmlns="http://www.w3.org/2000/svg" width="16" height="16" version="1">
 <circle fill="#3cd240" cx="8" cy="8" r="8"/>
 <path style="fill:#f4f4f7" d="m3.5 8.0715 4.5 4.9285 4.5-5h-2.5v-5h-4v5.0714z"/>
</svg>
