<svg xmlns="http://www.w3.org/2000/svg" width="16" height="16" version="1">
 <rect fill="#eb5555" width="16" height="16" x="0" y="0" rx="8" ry="8"/>
 <path style="fill:#f4f4f7" d="M 8,3 C 9.1045333,3 10,3.8954667 10,5 10,6.1044 9.1044,7 8,7 6.8956,7 6,6.1044 6,5 6,3.8956 6.8956,3 8,3 Z"/>
 <path style="fill:#f4f4f7" d="m 7.9999999,8.000001 c -3.9996001,0.00231 -4.0000001,2.461538 -4.0000001,2.461538 v 1 c 0,0 0.738457,1.538461 4.0000001,1.538461 C 11.261543,13 12,11.461539 12,11.461539 v -1 c 0,0 0,-2.4630764 -3.9992001,-2.461538 z"/>
</svg>
