<svg xmlns="http://www.w3.org/2000/svg" width="16" height="16" version="1.1">
 <path style="fill:#4f4f4f" d="M 7.9867187,4.000063 C 7.7648434,4.002463 7.5530222,4.064084 7.3960933,4.1719405 L 0.24999676,9.0842603 c -0.33332917,0.229305 -0.33332917,0.6009237 0,0.8302297 l 7.14609654,4.913856 c 0.3334761,0.228872 0.8735559,0.228872 1.2070321,0 L 15.750003,9.91449 c 0.333329,-0.229306 0.333329,-0.6009247 0,-0.8302297 L 8.6031254,4.1719405 C 8.4398765,4.0597444 8.217528,3.9977455 7.9867187,4.000063 Z"/>
 <path style="fill:#b2bfd9" d="M 7.9867187,1.0000242 C 7.7648434,1.002401 7.5530222,1.0640447 7.3960933,1.1719017 L 0.24999676,6.0842223 c -0.33332917,0.2293054 -0.33332917,0.6009242 0,0.8302296 L 7.3960933,11.828307 c 0.3334761,0.228872 0.8735559,0.228872 1.2070321,0 L 15.750003,6.9144519 c 0.333329,-0.2293054 0.333329,-0.6009242 0,-0.8302296 L 8.6031254,1.1719017 C 8.4398765,1.0597058 8.217528,0.99770664 7.9867187,1.0000242 Z"/>
 <path style="opacity:0.4" d="M 5.4218741,2.5282842 5.0742176,2.767685 13.405471,8.526348 13.753909,8.2869472 Z M 2.5937478,4.4734157 2.2453101,4.7120492 10.577345,10.470713 10.925001,10.231312 Z"/>
 <path style="fill:#17191e" d="M 5.7742178,2.2865815 4.728905,3.0055513 9.0210939,5.9566264 10.066407,5.2376564 Z m -2.8289075,1.9443639 -1.0453128,0.71897 4.2921893,2.9510748 1.046094,-0.7189696 z"/>
</svg>
