<svg xmlns="http://www.w3.org/2000/svg" width="16" height="16" version="1">
 <rect style="fill:#288cf4" width="16" height="16" x="0" y="0" rx=".8" ry=".8"/>
 <path style="fill:#f4f4f7" d="m 2.7,4 2.53125,8.394531 c 0.00276,0.0051 0.00508,0.0068 0.00781,0.01172 C 5.3302095,12.747848 5.6382718,13 6.0085938,13 c 0.35137,0 0.6464226,-0.227991 0.7539062,-0.542969 0.00236,-0.0047 0.00772,-0.0111 0.00977,-0.01563 L 9.3171875,4 H 8.48125 L 6.0085938,12.203125 3.5359375,4 Z"/>
 <path style="fill:#f4f4f7" d="m 12,4 a 2,2 0 0 0 -2,2 v 2 h 0.8 V 7.2 6.8 6 c 0,-0.6722176 0.527782,-1.2 1.2,-1.2 0.672218,0 1.2,0.5277824 1.2,1.2 V 6.8 7.2 8 H 14 V 6 A 2,2 0 0 0 12,4 Z"/>
 <path style="fill:#f4f4f7" d="m 12,9 a 2,2 0 0 0 -2,2 2,2 0 0 0 2,2 h 2 V 12.2 H 13.2 12.8 12 c -0.672218,0 -1.2,-0.527782 -1.2,-1.2 0,-0.672218 0.527782,-1.2 1.2,-1.2 h 0.8 0.4 0.8 V 9 Z"/>
</svg>
