<svg xmlns="http://www.w3.org/2000/svg" width="16" height="16" version="1">
 <rect style="fill:#ffb943" width="11" height="16" x="-14" y="-16" rx=".917" ry="1" transform="matrix(0,-1,-1,0,0,0)"/>
 <path style="fill:none;stroke:#17191e;stroke-width:1.60000002;stroke-linecap:round;stroke-linejoin:round" d="m 3.805901,0.8048909 2.4,4"/>
 <path style="fill:#4f4f4f" d="m 4.2558353,4.8636686 a 0.510789,0.50390184 0 0 0 -5.2e-4,0.8729892 l 1.4891672,0.8479728 1.489168,0.8479736 A 0.510789,0.50390184 0 0 0 7.9996333,6.996327 l 1.8e-4,-1.6962552 1.804e-4,-1.6962544 A 0.510789,0.50390184 0 0 0 7.2333725,3.1677622 L 5.7446013,4.0157154 Z"/>
 <path style="fill:none;stroke:#17191e;stroke-width:1.60000002;stroke-linecap:round;stroke-linejoin:round" d="m 9.105901,9.8052185 2.4,3.9999995"/>
 <path style="fill:#4f4f4f" d="m 9.255836,13.368559 a 0.510789,0.50390184 0 0 0 -5.2e-4,0.87299 l 1.489167,0.847972 1.489168,0.847974 a 0.510789,0.50390184 0 0 0 0.765983,-0.436277 l 1.8e-4,-1.696255 1.8e-4,-1.696255 a 0.510789,0.50390184 0 0 0 -0.766621,-0.436055 l -1.488771,0.847953 z"/>
</svg>
