<svg xmlns="http://www.w3.org/2000/svg" width="16" height="16" version="1">
 <rect style="fill:#4c459c" width="16" height="16" x="0" y="0" rx="4.8" ry="4.8"/>
 <path style="fill:#f4f4f7" d="M 11.75 3 A 1.25 1.25 0 0 0 10.5 4.25 A 1.25 1.25 0 0 0 10.570312 4.6621094 L 8.96875 6.2519531 C 8.6724099 6.087212 8.3390528 6.0005122 8 6 C 6.8954305 6 6 6.8954305 6 8 C 6.0008958 8.09153 6.0080704 8.1828907 6.0214844 8.2734375 L 3.1894531 8.6796875 C 3.0436761 8.4935593 2.8204051 8.3848049 2.5839844 8.3847656 C 2.1589152 8.3845995 1.814287 8.7292277 1.8144531 9.1542969 C 1.8142871 9.579366 2.1589153 9.9239942 2.5839844 9.9238281 C 2.8977671 9.9234724 3.1798808 9.7325628 3.296875 9.4414062 L 6.2578125 8.9804688 C 6.6118661 9.6099431 7.2777869 9.9996411 8 10 C 8.6812454 10.000107 9.3156947 9.6534415 9.6835938 9.0800781 L 9.6855469 9.078125 C 9.7365714 9.0119622 9.7763719 8.9341617 9.8085938 8.8476562 C 9.9337507 8.5825477 9.9990953 8.2931656 10 8 C 9.9998291 7.681282 9.92349 7.3672201 9.7773438 7.0839844 L 11.404297 5.4511719 A 1.25 1.25 0 0 0 11.75 5.5 A 1.25 1.25 0 0 0 13 4.25 A 1.25 1.25 0 0 0 11.75 3 z M 11.75 3.75 A 0.5 0.5 0 0 1 12.25 4.25 A 0.5 0.5 0 0 1 11.75 4.75 A 0.5 0.5 0 0 1 11.25 4.25 A 0.5 0.5 0 0 1 11.75 3.75 z M 5.25 4 A 0.75000002 0.75000002 0 0 0 4.5 4.75 A 0.75000002 0.75000002 0 0 0 5.25 5.5 A 0.75000002 0.75000002 0 0 0 6 4.75 A 0.75000002 0.75000002 0 0 0 5.25 4 z M 6.0527344 5.2519531 L 5.7050781 5.5429688 L 5.9707031 5.8769531 L 6.3164062 5.5859375 L 6.0527344 5.2519531 z M 6.4492188 5.7519531 L 6.0996094 6.0429688 L 6.4492188 6.4804688 L 6.7988281 6.1914062 L 6.4492188 5.7519531 z M 8 7 C 8.5522847 7 9 7.4477153 9 8 C 9 8.5522847 8.5522847 9 8 9 C 7.4477153 9 7 8.5522847 7 8 C 7 7.4477153 7.4477153 7 8 7 z M 2.5566406 8.7695312 C 2.5657506 8.7692071 2.5748724 8.7692071 2.5839844 8.7695312 C 2.7965187 8.7694485 2.9688331 8.9417624 2.96875 9.1542969 C 2.968833 9.3668315 2.796519 9.5391455 2.5839844 9.5390625 C 2.3714498 9.5391455 2.1991356 9.3668315 2.1992188 9.1542969 C 2.1986332 8.9520038 2.3548529 8.7838333 2.5566406 8.7695312 z M 9.6542969 9.4980469 L 9.2265625 9.890625 L 9.7324219 10.439453 L 10.158203 10.046875 L 9.6542969 9.4980469 z M 6.9472656 10.125 L 6.4707031 11.029297 L 6.9941406 11.277344 L 7.46875 10.371094 L 6.9472656 10.125 z M 10.339844 10.246094 L 9.9160156 10.636719 L 10.5 11.269531 L 10.923828 10.878906 L 10.339844 10.246094 z M 11.5 11 A 0.99999996 0.99999996 0 0 0 10.5 12 A 0.99999996 0.99999996 0 0 0 11.5 13 A 0.99999996 0.99999996 0 0 0 12.5 12 A 0.99999996 0.99999996 0 0 0 11.5 11 z M 6.25 11.5 A 0.74999978 0.74999978 0 0 0 5.5 12.25 A 0.74999978 0.74999978 0 0 0 6.25 13 A 0.74999978 0.74999978 0 0 0 7 12.25 A 0.74999978 0.74999978 0 0 0 6.25 11.5 z"/>
</svg>
