<svg width="16" height="16" version="1.1" xmlns="http://www.w3.org/2000/svg">
 <path d="m8 10c5 0 8 6 8 6s-4-2-8-2-8 2-8 2 3-6 8-6z" style="fill:#8c8c8c"/>
 <circle cx="8" cy="6" r="6" style="fill:#b2bfd9"/>
 <circle cx="8" cy="6" r="4" style="fill:#a6a6a6"/>
 <circle cx="8" cy="6" r="2" style="fill:#0086cc"/>
</svg>
