<svg xmlns="http://www.w3.org/2000/svg" width="16" height="16" version="1">
 <rect style="fill:#b2bfd9" width="16" height="11" x="0" y="3" rx=".727" ry=".786"/>
 <rect style="fill:#4f4f4f" width="12" height="7" x="2" y="5"/>
 <path style="fill:#b2bfd9" d="M 2.7272728,6 3.836,11 H 5.8181818 6.9090909 9.0909091 10.181818 12.164 L 13.272727,6 H 11.090909 L 10.571733,9 H 9 V 6 H 7 V 9 H 5.4282669 L 4.9090909,6 Z"/>
</svg>
