<svg xmlns="http://www.w3.org/2000/svg" width="16" height="16" version="1">
 <rect style="fill:#dc4c3a" width="16" height="16" x="0" y="0" rx=".8" ry=".8"/>
 <path style="fill:none;stroke:#f4f4f7;stroke-width:2;stroke-linecap:round;stroke-linejoin:round" d="M 7,6 V 2.9941716 H 9.6 C 9.6,2.9941716 12,3.0986992 12,6 12,8.9013008 9.6,9 9.6,9 H 5.4 c 0,0 -1.3928596,0.40212 -1.4,2 -0.00714,1.597873 1.4,2 1.4,2 H 7 v -1"/>
</svg>
