<svg xmlns="http://www.w3.org/2000/svg" width="16" height="16" version="1">
 <rect style="fill:#46b146" width="16" height="16" x="0" y="0" rx=".8" ry=".8"/>
 <path style="fill:none;stroke:#f4f4f7;stroke-width:2;stroke-linecap:round;stroke-linejoin:round" d="m 4.0056968,12 h 5.6 c 0,0 2.4000002,0.2 2.4000002,-2 0,-2.2 -2.4000002,-2 -2.4000002,-2 H 7.2855996 M 11.994303,4 H 6.3943028 c 0,0 -2.4,-0.2 -2.4,2 0,2.2 2.4,1.9943432 2.4,1.9943432 h 2.2400968"/>
</svg>
