<svg xmlns="http://www.w3.org/2000/svg" width="16" height="16" version="1">
 <circle style="fill:#5b5b5b" cx="8" cy="8" r="8"/>
 <path style="fill:#f4f4f7;fill-rule:evenodd" d="M 8 4 C 6.8368999 4.01208 5.6654438 4.2957573 4.6523438 4.9082031 C 4.2485364 5.188762 3.7637626 5.550945 3.3984375 5.9160156 C 2.8235701 6.5164775 2.3320251 7.2162429 2 8 C 2.9111751 10.144073 4.9134624 11.717139 7.1171875 11.949219 C 8.5627375 12.123754 10.076931 11.856738 11.347656 11.09375 C 11.751448 10.813191 12.236238 10.451008 12.601562 10.085938 C 13.176438 9.4854669 13.667975 8.7836771 14 8 C 13.088751 5.8560077 11.086613 4.2846536 8.8828125 4.0527344 C 8.5904025 4.0163344 8.2943825 4 8 4 z M 8.0019531 6 C 9.0717933 5.976299 10.020173 6.9337661 10 7.9980469 C 10.034279 9.1743081 8.8616415 10.190403 7.703125 9.9707031 C 6.5330248 9.8333101 5.7109067 8.5202187 6.0957031 7.4082031 C 6.3414733 6.589587 7.144816 5.9898806 8.0019531 6 z M 8 7 A 1.0000051 1 0 0 0 7 8 A 1.0000051 1 0 0 0 8 9 A 1.0000051 1 0 0 0 9 8 A 1.0000051 1 0 0 0 8 7.0019531 L 8 7 z"/>
</svg>
