<svg width="16" height="16" version="1.1" xmlns="http://www.w3.org/2000/svg">
 <path d="m2.8 2h4.4l1.6 2.5 2-2.5h5.2l-5.2 6 3.2 6h-4.8l-1.6-2.4-2 2.4h-5.6l5.6-6.4z" style="fill:#ccab3c"/>
 <circle cx="11.5" cy="11.5" r="4.5" style="fill:#498391"/>
 <path d="m10 9v3h2v2h1v-5h-1v2h-1v-2z" style="fill:#f4f4f7"/>
</svg>
