<svg xmlns="http://www.w3.org/2000/svg" width="16" height="16" version="1">
 <rect style="fill:#936ff6" width="15" height="15" x="1" y="1" rx="7.5" ry="7.5"/>
 <path style="fill:#f4f4f7" d="M 8.4918,2.9921 A 0.50005,0.50005 0 0 0 7.9996,3.4999 V 4.4999 L 6.8004,3.5995 A 0.5008,0.5008 0 1 0 6.1988,4.4003 L 7.9996,5.7499 V 7.6327 L 6.3707,6.6913 6.1031,4.4569 A 0.50078,0.50078 0 0 0 5.109,4.578 L 5.2887,6.0663 4.4234,5.5663 A 0.50005,0.50005 0 0 0 3.7379,5.7382 0.50005,0.50005 0 0 0 3.9234,6.4335 L 4.7887,6.9335 3.4098,7.5214 A 0.50099,0.50099 0 1 0 3.8023,8.4432 L 5.8707,7.5585 7.4996,8.4999 5.8707,9.4393 3.8023,8.5546 A 0.50099,0.50099 0 1 0 3.4098,9.4764 L 4.7887,10.064 3.9195,10.566 A 0.5005,0.5005 0 1 0 4.4195,11.433 L 5.2887,10.932 5.109,12.42 A 0.50078,0.50078 0 1 0 6.1031,12.541 L 6.3707,10.307 7.9996,9.3651 V 11.246 L 6.1988,12.596 A 0.50078,0.50078 0 1 0 6.8004,13.396 L 7.9996,12.496 V 13.5 A 0.50005,0.50005 0 1 0 8.9996,13.5 V 12.496 L 10.199,13.396 A 0.50078,0.50078 0 1 0 10.8,12.596 L 8.9996,11.246 V 9.3651 L 10.631,10.307 10.9,12.541 A 0.50078,0.50078 0 1 0 11.894,12.42 L 11.714,10.932 12.584,11.433 A 0.5005,0.5005 0 0 0 13.084,10.566 L 12.214,10.064 13.593,9.4764 A 0.50099,0.50099 0 1 0 13.201,8.5546 L 11.13,9.4393 9.5016,8.4999 11.13,7.5585 13.201,8.4432 A 0.50099,0.50099 0 1 0 13.593,7.5214 L 12.212,6.9335 13.08,6.4335 A 0.50005,0.50005 0 0 0 13.265,5.7382 0.50005,0.50005 0 0 0 12.58,5.5663 L 11.712,6.0663 11.894,4.578 A 0.50078,0.50078 0 0 0 10.9,4.4569 L 10.631,6.6913 8.9996,7.6327 V 5.7499 L 10.8,4.4003 A 0.5008,0.5008 0 1 0 10.199,3.5995 L 8.9996,4.4999 V 3.4999 A 0.50005,0.50005 0 0 0 8.4918,2.9921 Z"/>
</svg>
