<svg xmlns="http://www.w3.org/2000/svg" width="16" height="16" version="1">
 <rect style="fill:#435ece" width="15" height="15" x="1" y="1" rx=".803" ry=".803"/>
 <path style="fill:#f4f4f7" d="M 9.125,13 H 7.875 V 11.75 H 9.125 Z M 10.419,7.9563 9.8562,8.5313 C 9.4062,8.9875 9.125,9.3625 9.125,10.3 H 7.875 V 9.9875 C 7.875,9.3 8.1562,8.675 8.6063,8.2188 L 9.3812,7.4313 C 9.6125,7.2063 9.75,6.8938 9.75,6.55 9.75,5.8625 9.1875,5.3 8.5,5.3 7.8125,5.3 7.25,6 7.25,7 H 6 C 6,5 7.1188,4.05 8.5,4.05 9.8812,4.05 11,5.1688 11,6.55 11,7.1 10.775,7.6 10.419,7.9563 Z"/>
</svg>
