<svg xmlns="http://www.w3.org/2000/svg" width="16" height="16" version="1">
 <rect fill="#325f78" width="16" height="16" x="0" y="0" rx=".8" ry=".8"/>
 <path style="fill:#f4f4f7" d="M 2.375,3 C 2.1672,3 2,3.1672 2,3.375 l 0,2.25 C 2,5.8328 2.1672,6 2.375,6 l 2.25,0 C 4.8328,6 5,5.8328 5,5.625 L 5,3.375 C 5,3.1672 4.8328,3 4.625,3 l -2.25,0 z m 4,0 C 6.1672,3 6,3.1672 6,3.375 l 0,2.25 C 6,5.8328 6.1672,6 6.375,6 l 2.25,0 C 8.8328,6 9,5.8328 9,5.625 L 9,3.375 C 9,3.1672 8.8328,3 8.625,3 l -2.25,0 z m -4,4 C 2.1672,7 2,7.1672 2,7.375 l 0,2.25 C 2,9.8328 2.1672,10 2.375,10 l 2.25,0 C 4.8328,10 5,9.8328 5,9.625 L 5,7.375 C 5,7.1672 4.8328,7 4.625,7 l -2.25,0 z m 4,0 C 6.1672,7 6,7.1672 6,7.375 l 0,2.25 C 6,9.8328 6.1672,10 6.375,10 l 2.25,0 C 8.8328,10 9,9.8328 9,9.625 L 9,7.375 C 9,7.1672 8.8328,7 8.625,7 l -2.25,0 z m -4,4 C 2.1672,11 2,11.167 2,11.375 l 0,2.25 C 2,13.833 2.1672,14 2.375,14 l 2.25,0 C 4.8328,14 5,13.833 5,13.625 l 0,-2.25 C 5,11.167 4.8328,11 4.625,11 l -2.25,0 z"/>
</svg>
