<svg xmlns="http://www.w3.org/2000/svg" style="enable-background:new" width="16" height="16" version="1.0">
 <rect style="fill:#007dde" width="12" height="10" x="4" y="1" rx=".923" ry=".8"/>
 <rect style="fill:#2fbce5" width="12" height="10" x="2" y="3" rx=".923" ry=".8"/>
 <rect style="fill:#b2bfd9" width="12" height="10" x="0" y="5" rx=".923" ry=".8"/>
 <path style="fill:#189ce1;fill-rule:evenodd" d="M 8.4621788,8.4823158 6.9341908,9.9625149 8.5,11.5132 7.5015129,12.45066 5.9962179,10.822441 4.4984871,12.5 3.5,11.555492 5.1480992,10.017193 3.6258404,8.5055259 4.7512429,7.4999995 6.1225958,9.0805892 7.4485629,7.5501941 Z"/>
</svg>
