<svg xmlns="http://www.w3.org/2000/svg" width="16" height="16" version="1.1">
 <rect style="fill:#4f4f4f" width="16" height="16" x="0" y="0" rx="4.8" ry="4.8"/>
 <path style="fill:#ffc42e" d="m 10.687012,3.7900388 c -0.273263,0.050914 -0.546163,0.1098636 -0.6870121,0.1098636 -1.1543951,0 -2.4978719,0.4859111 -3.2939451,1.4609372 C 6.0263087,6.1933889 5.8086212,7.4401289 5.7592773,8.4135743 5.8083308,7.9305496 6.4539598,7.8343779 6.784668,7.5629882 7.1444494,7.2677403 7.4604327,6.2001953 8.0000002,6.2001953 c 0.067675,-1.25e-5 0.1353082,0.00339 0.2026368,0.010254 0.002,1.01e-4 0.00388,3.571e-4 0.00586,5e-4 C 10.320111,6.3200221 11.875,7.8612357 11.875,10 c 0,0.428621 -0.0695,0.84045 -0.194336,1.227539 0.03507,0.01559 0.06833,0.02763 0.101563,0.03906 a 5.0000002,5.0000002 0 0 0 0.002,-0.0025 c 0.07054,-0.08168 0.134936,-0.16733 0.199707,-0.25293 a 5.0000002,5.0000002 0 0 0 0.09326,-0.122559 c 0.05476,-0.07719 0.104657,-0.157394 0.154785,-0.237304 A 5.0000002,5.0000002 0 0 0 12.33302,10.48627 c 0.04378,-0.07621 0.08438,-0.154151 0.124023,-0.232423 a 5.0000002,5.0000002 0 0 0 0.09082,-0.187988 c 0.03597,-0.079036 0.06978,-0.1589848 0.101563,-0.2397456 a 5.0000002,5.0000002 0 0 0 0.07422,-0.2021487 c 0.02687,-0.077958 0.05318,-0.1561136 0.07617,-0.2353514 a 5.0000002,5.0000002 0 0 0 0.06006,-0.2368165 c 0.01696,-0.07128 0.035,-0.1422871 0.04883,-0.2143553 a 5.0000002,5.0000002 0 0 0 0.04248,-0.2807618 c 0.0084,-0.062603 0.0194,-0.1244811 0.02539,-0.1875 A 5.0000002,5.0000002 0 0 0 13,8 c -4.29e-4,-0.1050725 -0.0042,-0.210105 -0.01123,-0.3149414 -3.1e-5,-4.643e-4 3.2e-5,-9.643e-4 0,-0.00146 -0.002,-0.029707 -0.0054,-0.059246 -0.0079,-0.088868 -0.01097,-0.1389868 -0.02775,-0.2774539 -0.0503,-0.4150389 -0.0052,-0.030943 -0.0117,-0.061515 -0.01758,-0.092285 a 5.0000002,5.0000002 0 0 0 -9.82e-4,-0.00537 c -0.02134,-0.1131425 -0.04658,-0.2255143 -0.07569,-0.3369143 -9e-5,-3.5e-4 -3.93e-4,-6.072e-4 -5e-4,-9.643e-4 -0.01497,-0.057296 -0.03087,-0.1142443 -0.04785,-0.1708982 -0.02819,-0.093825 -0.05912,-0.1868015 -0.09277,-0.2788086 -0.02613,-0.071597 -0.05366,-0.1426072 -0.08301,-0.2128907 -0.03355,-0.080673 -0.06921,-0.1604532 -0.106934,-0.2392575 -0.02796,-0.05819 -0.05579,-0.1167093 -0.08594,-0.1738283 a 5.0000002,5.0000002 0 0 0 -0.0014,-0.00343 l -5e-4,-5e-4 c -0.04644,-0.087032 -0.09546,-0.1726929 -0.146973,-0.2568361 -8.93e-4,-0.0015 -0.0021,-0.00289 -0.0029,-0.00439 -0.04024,-0.06597 -0.08167,-0.1311857 -0.125,-0.1953125 l -9.82e-4,-0.00146 a 5.0000002,5.0000002 0 0 0 -9.82e-4,-0.00196 C 12.090061,5.1299049 12.037028,5.056336 11.982394,4.9843485 11.931737,4.9176035 11.879279,4.8523517 11.825167,4.7880595 a 5.0000002,5.0000002 0 0 0 -0.002,-0.00246 c -0.01789,-0.020654 -0.03596,-0.041164 -0.0542,-0.061523 -0.100841,-0.1157646 -0.206402,-0.2276996 -0.31836,-0.3344725 -0.0014,-0.00136 -0.0029,-0.00257 -0.0044,-0.00391 A 5.0000002,5.0000002 0 0 0 11.421817,4.36278 c -0.05995,-0.056342 -0.120965,-0.111949 -0.184021,-0.1655326 0.0013,-0.00121 0.0017,-0.00218 0.0029,-0.00343 a 5.0000002,5.0000002 0 0 0 -0.553702,-0.403804 z m 0.939453,7.5039072 c -0.02428,0.02728 -0.04886,0.0543 -0.07373,0.08105 0.02487,-0.02675 0.04945,-0.05377 0.07373,-0.08105 z m -0.283691,0.293456 c -0.03087,0.02954 -0.06212,0.05867 -0.09375,0.0874 -0.0018,0.0038 -0.0031,0.0079 -0.0049,0.01171 0.03334,-0.03258 0.06622,-0.06562 0.09863,-0.09912 z"/>
 <path style="fill:#ff8514" d="m 8.2045898,6.0102539 c 1.0085126,0.10242 1.4702151,0.9791143 1.4702151,2.0146482 1.25e-5,0.067676 -0.00339,0.1353083 -0.010254,0.2026368 -1.011e-4,0.002 -3.571e-4,0.00387 -5e-4,0.00586 -0.1090732,2.1116151 -1.5252868,3.6665021 -3.6640512,3.6665021 -0.4286204,0 -1.0513879,-0.324869 -1.4384765,-0.449706 0.012682,0.0108 -0.00518,0.0638 -0.036133,0.137695 A 5.0000002,5.0000002 0 0 0 8.0000002,13 c 0.1050725,-4.28e-4 0.210105,-0.0042 0.3149414,-0.01123 4.643e-4,-3.1e-5 9.643e-4,3.2e-5 0.00146,0 0.029707,-0.002 0.059246,-0.0054 0.088867,-0.0079 0.1389871,-0.01097 0.2774543,-0.02775 0.4150393,-0.0503 0.030943,-0.0052 0.061515,-0.0117 0.092285,-0.01758 a 5.0000002,5.0000002 0 0 0 0.00537,-9.82e-4 c 0.1131425,-0.02134 0.2255143,-0.04658 0.3369143,-0.07569 3.5e-4,-9e-5 6.071e-4,-3.93e-4 9.643e-4,-5e-4 0.057296,-0.01497 0.1142442,-0.03087 0.1708982,-0.04785 0.093825,-0.02819 0.1868014,-0.05912 0.2788086,-0.09277 0.071597,-0.02613 0.1426075,-0.05366 0.2128905,-0.08301 0.08067,-0.03355 0.1604542,-0.06921 0.2392582,-0.106933 0.05819,-0.02796 0.116709,-0.05579 0.173828,-0.08594 a 5.0000002,5.0000002 0 0 0 0.0034,-0.0014 l 5e-4,-5e-4 c 0.08704,-0.04645 0.172693,-0.09546 0.256836,-0.146973 0.0015,-8.93e-4 0.0029,-0.0021 0.0044,-0.0029 0.06597,-0.04024 0.131186,-0.08167 0.195313,-0.125 l 0.0014,-9.82e-4 a 5.0000002,5.0000002 0 0 0 0.002,-9.82e-4 c 0.07466,-0.05054 0.148227,-0.103569 0.220214,-0.158203 0.06674,-0.05065 0.131997,-0.103115 0.196289,-0.157227 a 5.0000002,5.0000002 0 0 0 0.0025,-0.002 c 0.02065,-0.01789 0.04116,-0.03596 0.06153,-0.0542 0.115765,-0.100842 0.2277,-0.206403 0.334472,-0.31836 0.0013,-0.0014 0.0026,-0.0029 0.0039,-0.0044 a 5.0000002,5.0000002 0 0 0 0.02295,-0.02441 c 0.05634,-0.06001 0.111944,-0.121028 0.165528,-0.184082 C 11.929622,10.847783 12,10.432349 12,10 12,7.8598964 10.31807,6.1173864 8.2045898,6.0102539 Z M 4.3134765,11.269043 c 0.032579,0.03334 0.065623,0.06622 0.099121,0.09863 -0.029532,-0.03087 -0.05867,-0.06212 -0.087402,-0.09375 -0.00382,-0.0018 -0.0079,-0.0031 -0.011718,-0.0049 z"/>
 <path style="fill:#ff5757" d="m 4.7309572,4.3134763 c -0.033339,0.032579 -0.066219,0.065623 -0.098633,0.099121 0.030875,-0.029532 0.062128,-0.05867 0.09375,-0.087402 0.00179,-0.00382 0.00311,-0.0079 0.00488,-0.011718 z M 4.4223633,4.6249999 c -0.024871,0.026746 -0.04945,0.053768 -0.07373,0.081055 0.024279,-0.027286 0.048858,-0.054306 0.07373,-0.081055 z M 4.260254,4.6879881 A 5.0000002,5.0000002 0 0 0 3,8 5.0000002,5.0000002 0 0 0 3.0112286,8.3149414 c 0.00196,0.030196 0.00532,0.060226 0.00781,0.090332 a 5.0000002,5.0000002 0 0 0 0.050291,0.4150389 c 0.0055,0.032739 0.012414,0.065072 0.018554,0.097656 A 5.0000002,5.0000002 0 0 0 3.16357,9.2548829 c 0.01505,0.057648 0.031264,0.1148789 0.04834,0.171875 a 5.0000002,5.0000002 0 0 0 0.092773,0.2788086 c 0.026125,0.071597 0.053661,0.1426068 0.083008,0.2128907 a 5.0000002,5.0000002 0 0 0 0.106934,0.2392568 c 0.0285,0.0593 0.056575,0.119095 0.087402,0.177247 1.022e-4,1.93e-4 3.929e-4,3e-4 5e-4,5e-4 a 5.0000002,5.0000002 0 0 0 0.1469729,0.256836 c 0.041094,0.06751 0.083612,0.13412 0.1279296,0.199707 0.051207,0.07578 0.1047268,0.150598 0.1601565,0.223633 0.051286,0.06757 0.1043518,0.133664 0.1591796,0.19873 a 5.0000002,5.0000002 0 0 0 0.054199,0.06153 c 0.1008411,0.115764 0.2064018,0.227699 0.3183593,0.334472 a 5.0000002,5.0000002 0 0 0 0.028807,0.02686 c 0.060011,0.05634 0.1210271,0.111944 0.1840821,0.165528 0.3900125,0.126885 0.8054379,0.197252 1.2377872,0.197252 2.1401036,0 3.8826139,-1.681931 3.989746,-3.7954107 -0.1024196,1.0085126 -0.954212,1.7202149 -1.9897459,1.7202149 -0.067675,1.25e-5 -0.1353083,-0.00339 -0.2026368,-0.01025 -0.002,-1.009e-4 -0.00387,-3.571e-4 -0.00586,-5e-4 C 5.679888,9.8049652 4.1000976,8.1387643 4.1000976,5.9999999 c 0,-0.4286203 0.069499,-0.8404503 0.194336,-1.2275389 C 4.2830876,4.741168 4.2716306,4.717455 4.2602556,4.687988 Z"/>
 <path style="fill:#baff41" d="M 7.7954105,9.9897465 C 7.5292712,9.9627179 8.9470438,9.6516654 8.732412,9.5306604 8.133713,9.1931279 6.1000001,8.762264 6.1000001,8 6.0999876,7.932325 6.0034101,7.8646918 6.0102551,7.7973632 c 1.011e-4,-0.002 3.572e-4,-0.00388 5e-4,-0.00586 0.1090975,-2.111619 1.8504808,-3.7915062 3.9892448,-3.7915062 0.4286201,0 0.8404511,0.069499 1.2275391,0.1943361 C 10.32691,3.4268566 9.1832774,3.0036609 8.0000002,2.9999998 6.535518,3.0021427 5.1456029,3.6462459 4.1972654,4.762207 4.0703668,5.1522253 4.0000001,5.5676506 4.0000001,5.9999999 c 0,2.1401037 1.6819307,3.8826136 3.7954104,3.9897466 z m 3.8911135,-5.358887 c -0.03258,-0.033339 -0.06563,-0.06622 -0.09912,-0.098633 0.02953,0.030875 0.05867,0.062128 0.0874,0.09375 0.0038,0.00179 0.0079,0.00311 0.01172,0.00488 z M 11.375,4.3222652 c -0.02675,-0.024871 -0.05377,-0.04945 -0.08105,-0.07373 0.02729,0.024279 0.0543,0.048858 0.08105,0.07373 z"/>
 <circle style="fill:#17191e" cx="8" cy="8" r="2"/>
 <circle style="fill:#f44336" cx="13.5" cy="3.5" r=".5"/>
</svg>
