<svg xmlns="http://www.w3.org/2000/svg" width="16" height="16" version="1">
 <path style="fill:#b2bfd9" d="M 14,15.212121 14,2.8879394 C 14,2.4514545 13.6655,2.1000606 13.25,2.1000606 l -10.5,0 C 2.3345,2.1000606 2,2.4514545 2,2.8879394 L 2,15.212121 C 2,15.648606 2.3345,16 2.75,16 l 10.5,0 C 13.6655,16 14,15.648606 14,15.212121 Z"/>
 <path style="fill:#4f4f4f" d="M 14,3 14,1.6666667 C 14,1.2973333 13.6655,1 13.25,1 L 2.75,1 C 2.3345,1 2,1.2973333 2,1.6666667 L 2,3 Z"/>
 <path style="fill:#f7c13e" d="M 6.234375,0 C 6.1045807,0 6,0.1359549 6,0.3046875 l 0,1.390625 C 6,1.8640451 6.1045807,2 6.234375,2 l 0.53125,0 C 6.8954192,2 7,1.8640451 7,1.6953125 L 7,0.3046875 C 7,0.1359549 6.8954192,0 6.765625,0 Z"/>
 <path style="fill:#f7c13e" d="M 3.234375,0 C 3.1045807,0 3,0.1359549 3,0.3046875 l 0,1.390625 C 3,1.8640451 3.1045807,2 3.234375,2 l 0.53125,0 C 3.8954192,2 4,1.8640451 4,1.6953125 L 4,0.3046875 C 4,0.1359549 3.8954192,0 3.765625,0 Z"/>
 <path style="fill:#f7c13e" d="M 12.234375,0 C 12.104581,0 12,0.1359549 12,0.3046875 l 0,1.390625 C 12,1.8640451 12.104581,2 12.234375,2 l 0.53125,0 C 12.895419,2 13,1.8640451 13,1.6953125 l 0,-1.390625 C 13,0.1359549 12.895419,0 12.765625,0 Z"/>
 <path style="fill:#f7c13e" d="M 9.234375,0 C 9.104581,0 9,0.1359549 9,0.3046875 l 0,1.390625 C 9,1.8640451 9.104581,2 9.234375,2 l 0.53125,0 C 9.895419,2 10,1.8640451 10,1.6953125 l 0,-1.390625 C 10,0.1359549 9.895419,0 9.765625,0 Z"/>
 <path style="fill:#ff6600" d="m 9.2899457,8.3974061 c 0.02843,0.033647 0.103898,0.1083392 0.226411,0.2240792 1.7196943,1.7942177 2.5464483,2.5943867 2.4799283,2.8093907 -0.04781,0.158155 -0.185616,0.292263 -0.413421,0.402324 -0.227429,0.103662 -0.432322,0.150666 -0.61468,0.141014 -0.144381,-0.0077 -0.830074,-0.559319 -2.0567493,-2.0639321 -0.247518,-0.315172 -0.392893,-0.4931872 -0.436125,-0.5340432 -0.179729,0.1961682 -0.448383,0.5997252 -0.805965,1.2106733 -0.460288,0.974796 -1.065932,1.874313 -1.412806,2.904288 -0.105948,0.360747 -0.375482,0.529663 -0.808599,0.506747 -0.227959,-0.01206 -0.368018,-0.09017 -0.420174,-0.234331 -0.05216,-0.144161 -0.03083,-0.367984 0.06399,-0.671477 0.182032,-0.607385 1.057467,-2.081112 2.626306,-4.4211885 C 7.7091347,8.5676473 7.4843467,8.192614 7.0436917,7.5458482 6.6030297,6.8990947 6.2531837,6.4091829 5.9941527,6.1576612 5.7134967,5.885729 5.5966787,5.6770894 5.6436977,5.5317422 c 0.105943,-0.36074 0.440063,-0.526239 1.002362,-0.4964961 0.273547,0.014482 0.761096,0.6209433 1.462652,1.7378351 0.299665,0.4593436 0.495949,0.7396736 0.588852,0.8409915 0.161773,-0.1521156 0.392384,-0.4323538 0.691831,-0.840717 0.299828,-0.4147552 0.507177,-0.7508565 0.6220503,-1.0083045 0.113683,-0.2382127 0.293013,-0.4279691 0.537991,-0.5692704 0.244965,-0.1412841 0.477629,-0.2061008 0.697997,-0.1944503 0.341928,0.018098 0.465685,0.175689 0.371269,0.4727659 -0.105954,0.3607564 -0.72246,1.1540398 -1.8495183,2.3798529 -0.293956,0.3186708 -0.453701,0.4998224 -0.479239,0.5434568"/>
</svg>
