<svg xmlns="http://www.w3.org/2000/svg" width="16" height="16" version="1">
 <rect style="fill:#00c8c8" width="16" height="16" x="0" y="0" rx=".8" ry=".8"/>
 <path style="fill:#17191e" d="M 4.6037598,12.939488 C 4.0350847,12.777978 3.8961828,12.091842 4.1241434,11.621779 4.4689675,10.77383 5.215738,10.173589 5.9605885,9.655354 5.502502,9.505926 5.6096298,8.9813385 5.7227309,8.8681785 5.7949222,8.7959499 5.451412,8.6924092 5.3114279,8.6345546 3.9734414,7.8631035 2.728184,6.7758742 2.1571344,5.3441492 1.8981191,4.6532485 1.9040358,3.7158899 2.6013605,3.2638952 3.4136238,2.7432293 4.4582759,3.1049502 5.208121,3.5655495 6.1757995,4.1606952 6.9145484,5.0364567 7.5188676,5.9657849 7.7885898,5.6229232 8.370649,5.7189228 8.5066622,5.9754706 9.3207137,4.7128485 10.465833,3.4433949 12.010337,3.058457 c 0.729456,-0.1908142 1.649564,0.08496 1.894078,0.8354086 0.326532,0.9959629 -0.239326,2.0127075 -0.854939,2.7852818 -0.739416,0.9054586 -1.704086,1.6239072 -2.755616,2.1621794 0.287454,0.3060371 0.08273,0.6942252 -0.231041,0.7993272 0.799151,0.570328 1.722538,1.325601 1.907045,2.322769 0.158389,0.68541 -0.631524,1.23727 -1.2759,0.966126 -1.1534508,-0.384592 -1.9527734,-1.380899 -2.5489724,-2.362807 -0.093139,-0.25627 -0.1868377,-0.261369 -0.2811217,-0.0027 -0.5965958,0.98108 -1.3845986,1.973637 -2.5318391,2.365708 -0.2351955,0.06476 -0.493077,0.08627 -0.728271,0.0097 z M 5.5757467,11.990855 C 6.3164541,11.576947 6.7999383,10.829447 7.0945791,10.071093 6.3395706,10.253608 5.6436063,10.709331 5.1598788,11.298932 4.764802,11.717936 4.894483,12.380643 5.5757467,11.990855 Z m 5.4402283,0.02452 c 0.244645,-0.498941 -0.409382,-1.042888 -0.77245,-1.344483 -0.3361999,-0.279272 -1.3005139,-0.61 -1.3005139,-0.61 0.3337166,0.771808 0.8243351,1.643287 1.6375269,2.005844 0.139444,0.05069 0.364489,0.09333 0.435437,-0.05135 z M 5.7022454,6.6203524 C 4.6204998,7.2835057 7.2893571,8.5611207 7.3570825,8.3213625 7.4925933,8.364976 6.5867946,6.0780888 5.7022454,6.6203524 Z M 9.2952415,8.1855042 C 9.8440619,7.9759249 10.518119,7.5710817 10.517059,6.9313431 10.289578,6.279271 9.4453124,6.786212 9.201478,7.1784649 9.0143785,7.4615449 8.6496452,8.1550174 8.7364319,8.3276642 8.9147744,8.2984927 9.1250387,8.2434325 9.2952415,8.1855042 Z M 5.8735979,5.8561477 C 5.4660194,5.5356285 4.931002,5.052726 4.4118059,5.2580332 3.9008823,5.4600677 4.50556,6.3443096 4.7316142,6.7027799 4.9076819,5.8149389 5.6336617,5.8967145 5.8735979,5.8561477 Z M 11.220226,5.2653152 c -0.355873,0.06028 -1.05558,0.4546694 -1.093752,0.6380368 0.462395,-0.055243 1.059716,0.068158 1.192022,0.8055715 0,0 1.116505,-1.6826032 -0.09827,-1.4436083 z M 3.4013782,5.0959556 C 3.5807508,4.5820399 4.146325,4.3361495 4.6778902,4.3675063 5.0777418,4.3864848 4.3343369,4.1203713 4.2675385,4.0571024 3.8545585,3.8550405 3.0328709,3.6881231 2.9236008,4.3072538 c -0.074777,0.3945139 0.1431503,1.0989547 0.383103,1.2368336 0.01407,-0.1521075 0.04108,-0.3040085 0.094674,-0.4481318 z M 12.611951,3.8818931 c -0.532769,-0.049408 -1.014547,0.2202707 -1.453349,0.4772143 1.104397,-0.1541161 1.593531,0.6057521 1.585354,1.2198793 0.572317,-1.0068661 0.406091,-1.6004615 -0.132005,-1.6970936 z"/>
</svg>
