<svg xmlns="http://www.w3.org/2000/svg" width="16" height="16" version="1">
 <rect style="fill:#546e7a" width="16" height="16" x="0" y="0" rx=".8" ry=".8"/>
 <path style="fill:#f4f4f7" d="M 7,3 V 7 H 5 l 3,3 3,-3 H 9 V 3 Z m -4,7 v 3 h 2 6 2 v -3 h -2 v 1 H 5 v -1 z"/>
</svg>
