<svg xmlns="http://www.w3.org/2000/svg" width="16" height="16" version="1.1">
 <path style="fill:#b2bfd9" d="M 8.0420001,2.7312742e-4 A 1.7755,1.8192 0 0 0 7.1122001,0.24293313 L 1.8878,3.3334331 a 1.7755,1.8192 0 0 0 -0.88780004,1.5755 l 0,6.1810999 a 1.7755,1.8192 0 0 0 0.88780004,1.576 l 5.2245001,3.0905 a 1.7755,1.8192 0 0 0 1.7755,0 l 5.2241999,-3.09 a 1.7755,1.8192 0 0 0 0.888,-1.576 l 0,-6.1807998 a 1.7755,1.8192 0 0 0 -0.888,-1.5755 L 8.8878001,0.24373313 a 1.7755,1.8192 0 0 0 -0.8458,-0.24267 z"/>
 <path style="fill:none;stroke:#a81717;stroke-linecap:round;stroke-linejoin:round" d="M 4.5071497,4.5 11.5,4.5 l -6.9928503,7 6.9857003,0"/>
</svg>
