<svg xmlns="http://www.w3.org/2000/svg" width="16" height="16" version="1.1">
 <circle style="fill:#8d5f3c" cx="8" cy="8" r="7"/>
 <path style="fill:#f4f4f7" d="M 7,3 V 7 H 3 V 9 H 7 V 13 H 9 V 9 H 13 V 7 H 9 V 3 Z"/>
</svg>
