<svg xmlns="http://www.w3.org/2000/svg" width="16" height="16" version="1.1">
 <g transform="scale(0.5,0.5)">
  <circle style="fill:#455a64" cx="16" cy="16" r="14"/>
  <g transform="matrix(0.70710678,0.70710678,-0.70710678,0.70710678,16,-6.627417)">
   <rect style="fill:#f4f4f7" width="4" height="20" x="-18" y="6" transform="matrix(0,-1,1,0,0,0)"/>
   <rect style="fill:#f4f4f7" width="4" height="20" x="14" y="6"/>
  </g>
 </g>
</svg>
