<svg xmlns="http://www.w3.org/2000/svg" width="16" height="16" version="1.1">
 <rect style="fill:#1ea771" width="14" height="14" x="1" y="1" rx="2" ry="2"/>
 <path style="fill:#f4f4f7" d="m 3,6 a 5,5 0 0 0 5,5 5,5 0 0 0 5,-5 z"/>
 <rect style="fill:#f4f4f7" width="2" height="3" x="5" y="3"/>
 <rect style="fill:#f4f4f7" width="4" height="3.5" x="6" y="9.5"/>
 <rect style="fill:#f4f4f7" width="2" height="3" x="9" y="3"/>
</svg>
