<svg xmlns="http://www.w3.org/2000/svg" width="16" height="16" version="1.1">
 <circle style="fill:#385ec3" cx="8" cy="8" r="7"/>
 <path style="fill:#f4f4f7" d="M 13,8 H 11 A 3,3 0 0 1 8,11 3,3 0 0 1 5,8 3,3 0 0 1 8,5 V 6 L 11,4 8,2 V 3 A 5,5 0 0 0 3,8 5,5 0 0 0 8,13 5,5 0 0 0 13,8 Z"/>
</svg>
