<svg xmlns="http://www.w3.org/2000/svg" width="16" height="16" version="1.1">
 <rect style="fill:#455a64" width="9" height="7" x="3.5" y="9"/>
 <circle style="fill:#455a64" cx="3.5" cy="12.5" r="3.5"/>
 <path style="fill:#f4f4f7" d="M 5 10 A 1 1 0 0 0 4 11 A 1 1 0 0 0 4.0234375 11.208984 L 2.7539062 11.84375 A 1 1 0 0 0 2 11.5 A 1 1 0 0 0 1 12.5 A 1 1 0 0 0 2 13.5 A 1 1 0 0 0 2.7539062 13.15625 L 4.0214844 13.789062 A 1 1 0 0 0 4 14 A 1 1 0 0 0 5 15 A 1 1 0 0 0 6 14 A 1 1 0 0 0 5 13 A 1 1 0 0 0 4.2441406 13.34375 L 2.9765625 12.710938 A 1 1 0 0 0 3 12.5 A 1 1 0 0 0 2.9765625 12.289062 L 4.2460938 11.654297 A 1 1 0 0 0 5 12 A 1 1 0 0 0 6 11 A 1 1 0 0 0 5 10 z"/>
 <circle style="fill:#1474e7" cx="12.5" cy="12.5" r="3.5"/>
 <path style="fill:#f4f4f7" d="m 12.475515,10.000119 c 0.526051,0.0011 1.05947,0.165103 1.476137,0.489623 0.292916,0.337442 -0.265218,0.698831 -0.516588,0.369794 -0.756727,-0.457886 -1.823947,-0.296666 -2.393295,0.387893 -0.302917,0.339712 -0.473581,0.79304 -0.471581,1.248118 h 0.500086 L 10.270137,13.695752 9.47,12.495547 h 0.500086 c -0.01596,-1.086532 0.765515,-2.120171 1.814733,-2.401565 0.225039,-0.06174 0.457002,-0.09628 0.690696,-0.09386 z m 2.195376,1.300223 0.800137,1.200206 h -0.500086 c 0.01418,1.099591 -0.78725,2.14479 -1.854798,2.411374 -0.720354,0.201169 -1.534898,0.05437 -2.126903,-0.405858 -0.302071,-0.343078 0.263815,-0.700985 0.517531,-0.368928 0.733184,0.444825 1.759897,0.303744 2.338669,-0.331596 0.335058,-0.345251 0.527783,-0.823794 0.525283,-1.305031 h -0.500086 l 0.800137,-1.200205 z"/>
</svg>
