<svg xmlns="http://www.w3.org/2000/svg" width="16" height="16" version="1.1">
 <rect style="fill:#455a64" width="9" height="7" x="3.5" y="9"/>
 <circle style="fill:#455a64" cx="3.5" cy="12.5" r="3.5"/>
 <circle style="fill:#f44336" cx="12.5" cy="12.5" r="3.5"/>
 <path style="fill:#f4f4f7" d="m 11.14,10.5 1.36,1.36 1.36,-1.36 0.64,0.64 -1.36,1.36 1.36,1.36 L 13.86,14.5 12.5,13.14 11.14,14.5 10.5,13.86 11.86,12.5 10.5,11.14 Z"/>
 <path style="fill:#f4f4f7" d="M 5 10 A 1 1 0 0 0 4 11 A 1 1 0 0 0 4.0234375 11.208984 L 2.7539062 11.84375 A 1 1 0 0 0 2 11.5 A 1 1 0 0 0 1 12.5 A 1 1 0 0 0 2 13.5 A 1 1 0 0 0 2.7539062 13.15625 L 4.0214844 13.789062 A 1 1 0 0 0 4 14 A 1 1 0 0 0 5 15 A 1 1 0 0 0 6 14 A 1 1 0 0 0 5 13 A 1 1 0 0 0 4.2441406 13.34375 L 2.9765625 12.710938 A 1 1 0 0 0 3 12.5 A 1 1 0 0 0 2.9765625 12.289062 L 4.2460938 11.654297 A 1 1 0 0 0 5 12 A 1 1 0 0 0 6 11 A 1 1 0 0 0 5 10 z"/>
</svg>
