<svg xmlns="http://www.w3.org/2000/svg" width="24" height="24" version="1">
 <path style="opacity:0.2" d="m 6.001,14.5 0,7 3,0 0,-7 -3,0 z m 9,0 0,7 3,0 0,-7 -3,0 z"/>
 <path style="opacity:0.2" d="m 12,2.5 c -4.986,0 -9,4.015 -9,9.0025 l 0,6.0015 c 0,0 0,3.00075 3,3.00075 l 0.001,0 0,-7.502 -0.001,0 0,-1.5004 c 0,-3.32485 2.676,-6.0015 6,-6.0015 3.324,0 6,2.6767 6,6.0015 l 0,0.99535 0.001,0 0,8.007 C 18.0065,20.5037 21,20.5007 21,17.5032 l 0,-6.0015 C 21,6.5142 16.986,2.4992 12,2.4992 Z"/>
 <path style="fill:#4f4f4f" d="M 12,2 C 7.014,2 3,6.015 3,11.0025 l 0,6.0015 c 0,0 0,3.00075 3,3.00075 l 0.001,0 0,-7.502 -0.001,0 0,-1.5004 c 0,-3.32485 2.676,-6.0015 6,-6.0015 3.324,0 6,2.6767 6,6.0015 l 0,0.99535 0.001,0 0,8.007 C 18.0065,20.0037 21,20.0007 21,17.0032 l 0,-6.0015 C 21,6.0142 16.986,1.9992 12,1.9992 Z"/>
 <path style="opacity:0.1;fill:#8b9cbe" d="M 12,2 C 7.014,2 3,6.015 3,11.0025 l 0,0.49524 c 0,-4.9873 4.014,-9.0025 9,-9.0025 4.986,0 9,4.01505 9,9.0025 l 0,-0.495 c 0,-4.9875 -4.014,-9.0025 -9,-9.0025 z m -6,10.5025 0,0.49524 0.001,0 0,-0.49524 -0.001,0 z"/>
 <path style="fill:#8e8e8e" d="m 6.001,14 0,7 3,0 0,-7 -3,0 z m 9,0 0,7 3,0 0,-7 -3,0 z"/>
 <path style="fill:#8b9cbe;opacity:0.1" d="M 6.0019531 14 L 6.0019531 14.5 L 9.0019531 14.5 L 9.0019531 14 L 6.0019531 14 z M 15.001953 14 L 15.001953 14.5 L 18.001953 14.5 L 18.001953 14 L 15.001953 14 z"/>
</svg>
