<svg xmlns="http://www.w3.org/2000/svg" width="24" height="24" version="1">
 <rect style="opacity:0.2" width="16" height="20" x="-21.5" y="-22" rx="1" ry="1" transform="matrix(0,-1,-1,0,0,0)"/>
 <rect style="fill:#4f4f4f" width="3.5" height="2" x="4" y="4" rx=".5" ry=".5"/>
 <rect style="fill:#4f4f4f" width="16" height="20" x="-21" y="-22" rx="1" ry="1" transform="matrix(0,-1,-1,0,0,0)"/>
 <circle style="opacity:0.40" cx="12" cy="13" r="7"/>
 <circle style="opacity:0.2" cx="12" cy="-13.5" r="5" transform="scale(1,-1)"/>
 <circle style="fill:#009587" cx="12" cy="-13" r="5" transform="scale(1,-1)"/>
 <circle style="opacity:0.40" cx="19.5" cy="8" r="1"/>
 <circle style="opacity:0.2" cx="12" cy="13.5" r="3"/>
 <circle style="fill:#66bfb7" cx="12" cy="13" r="3"/>
 <path style="opacity:0.1;fill:#8b9cbe" d="M 21,5 C 21.554,5 22,5.446 22,6 V 6.5 C 22,5.946 21.554,5.5 21,5.5 H 3 C 2.446,5.5 2,5.946 2,6.5 V 6 C 2,5.446 2.446,5 3,5 Z"/>
</svg>
