<svg xmlns="http://www.w3.org/2000/svg" width="48" height="48" version="1">
 <g style="opacity:0.2" transform="matrix(0.090632,0,0,0.098526,4,3.2582009)">
  <g>
   <path d="M 127.31153,17.678582 C 56.992971,17.678582 2e-6,77.356443 2e-6,150.97144 c 0,19.779 3.3341628,38.81641 9.1798766,56.99241 0,0 5.3029694,16.38566 9.9987394,25.41366 53.668377,115.43 201.483222,190.28527 201.483222,190.28527 0,0 147.81484,-74.85527 201.48322,-190.28527 4.69577,-9.028 9.99874,-25.41366 9.99874,-25.41366 5.84571,-18.176 9.20142,-37.21341 9.20142,-56.99241 0,-73.614997 -57.01451,-133.292858 -127.33308,-133.292858 -36.8782,0 -70.09144,14.36942 -93.3503,40.59842 -23.25886,-26.229 -56.4721,-40.59842 -93.35031,-40.59842 z"/>
  </g>
 </g>
 <g fill="#c2352a" transform="matrix(.090632 0 0 .098526 4 2.2582)">
  <g>
   <path d="M 127.31153,17.678582 C 56.992971,17.678582 2e-6,77.356443 2e-6,150.97144 c 0,19.779 3.3341628,38.81641 9.1798766,56.99241 0,0 5.3029694,16.38566 9.9987394,25.41366 53.668377,115.43 201.483222,190.28527 201.483222,190.28527 0,0 147.81484,-74.85527 201.48322,-190.28527 4.69577,-9.028 9.99874,-25.41366 9.99874,-25.41366 5.84571,-18.176 9.20142,-37.21341 9.20142,-56.99241 0,-73.614997 -57.01451,-133.292858 -127.33308,-133.292858 -36.8782,0 -70.09144,14.36942 -93.3503,40.59842 -23.25886,-26.229 -56.4721,-40.59842 -93.35031,-40.59842 z"/>
  </g>
 </g>
 <g style="fill:#8b9cbe;opacity:0.1" transform="matrix(.090632 0 0 .098526 4 2.2582)">
  <g style="fill:#8b9cbe">
   <path style="fill:#8b9cbe" transform="matrix(11.033631,0,0,10.149605,-44.134522,-22.919838)" d="M 15.539062 4 C 9.1659509 4 4 9.8798213 4 17.132812 C 4 17.312951 4.014426 17.489088 4.0195312 17.667969 C 4.2365407 10.632248 9.3039322 5 15.539062 5 C 18.881408 5 21.892003 6.4157615 24 9 C 26.107997 6.4157615 29.116639 5 32.458984 5 C 38.694099 5 43.7614 10.632274 43.978516 17.667969 C 43.983652 17.489073 44 17.312967 44 17.132812 C 44 9.8798213 38.832097 4 32.458984 4 C 29.116639 4 26.107997 5.4157615 24 8 C 21.892003 5.4157615 18.881408 4 15.539062 4 z"/>
  </g>
 </g>
</svg>
