<svg xmlns="http://www.w3.org/2000/svg" width="48" height="48" version="1">
 <path style="opacity:0.2" d="M 4.2890625,2 C 4.1036785,2.8041194 4.007393,3.6175738 4,4.4335938 4.00826,7.0966562 5,14 6,14 l 6,-4 C 9.057932,7.8219865 4.9971595,5.0538146 4.2890625,2 Z M 37.710938,2 C 37.00284,5.0538146 32.942068,7.8219865 30,10 l 6,4 C 37,14 37.99174,7.0966563 38,4.4335938 37.992607,3.6175738 37.896322,2.8041194 37.710938,2 Z m -14.802735,24.404297 -3.816406,1.191406 c 0,0 1.297903,4.187381 3.814453,8.425781 1.258275,2.1192 2.823662,4.282247 4.800781,5.992188 C 29.68415,43.723613 32.157407,45 35,45 c 5.092593,0 8.079713,-2.62249 9.207031,-5.199219 1.127319,-2.576728 0.777344,-5.048828 0.777344,-5.048828 l -3.96875,0.496094 c 0,0 0.150025,1.5279 -0.472656,2.951172 C 39.920287,39.62249 38.907407,41 35,41 33.342593,41 31.81585,40.276387 30.324219,38.986328 28.832588,37.696269 27.460475,35.859316 26.34375,33.978516 24.1103,30.216916 22.908203,26.404297 22.908203,26.404297 Z"/>
 <path style="fill:#892b26" d="M 37.710345,1 C 37.895729,1.8041194 37.992607,2.6183025 38,3.4343224 37.99174,6.0973849 37,13 36,13 L 30,9 c 2.942068,-2.1780135 7.002248,-4.9461854 7.710345,-8 z"/>
 <path style="fill:#892b26" d="M 4.289655,1 C 4.104271,1.8041194 4.007393,2.6183025 4,3.4343224 4.00826,6.0973849 5,13 6,13 L 12,9 C 9.057932,6.8219865 4.997752,4.0538146 4.289655,1 Z"/>
 <path style="fill:none;stroke:#892b26;stroke-width:4" d="m 21,26 c 0,0 5,16 14,16 9,0 8,-8 8,-8"/>
 <path style="fill:#8b9cbe;opacity:0.1" d="M 4.2890625 1 C 4.1036785 1.8041194 4.007393 2.6175738 4 3.4335938 C 4.0005403 3.6077863 4.0167075 3.8414697 4.0253906 4.0488281 C 4.0552282 3.3622522 4.1328987 2.6773741 4.2890625 2 C 4.9436051 4.8228502 8.4386826 7.3784617 11.291016 9.4726562 L 12 9 C 9.057932 6.8219865 4.9971595 4.0538146 4.2890625 1 z M 37.710938 1 C 37.00284 4.0538146 32.942068 6.8219865 30 9 L 30.708984 9.4726562 C 33.561317 7.3784617 37.056394 4.8228502 37.710938 2 C 37.867101 2.6773741 37.944772 3.3622522 37.974609 4.0488281 C 37.983292 3.8414697 37.99946 3.6077863 38 3.4335938 C 37.992607 2.6175738 37.896321 1.8041194 37.710938 1 z M 22.908203 25.404297 L 19.091797 26.595703 C 19.091797 26.595703 19.209301 26.954937 19.402344 27.498047 L 22.908203 26.404297 C 22.908203 26.404297 24.1103 30.216916 26.34375 33.978516 C 27.460475 35.859316 28.832588 37.696269 30.324219 38.986328 C 31.81585 40.276387 33.342593 41 35 41 C 38.907407 41 39.920287 39.62249 40.542969 38.199219 C 41.16565 36.775947 41.015625 35.248047 41.015625 35.248047 L 44.984375 34.751953 C 44.984375 34.751953 45.002843 34.911332 45.017578 35.140625 C 45.048629 34.317246 44.984375 33.751953 44.984375 33.751953 L 41.015625 34.248047 C 41.015625 34.248047 41.16565 35.775947 40.542969 37.199219 C 39.920287 38.62249 38.907407 40 35 40 C 33.342593 40 31.81585 39.276387 30.324219 37.986328 C 28.832588 36.696269 27.460475 34.859316 26.34375 32.978516 C 24.1103 29.216916 22.908203 25.404297 22.908203 25.404297 z"/>
 <path style="opacity:0.2" d="M 21,5 C 9.92,5 1,13.92 1,25 1,36.08 9.92,45 21,45 32.08,45 41,36.08 41,25 41,13.92 32.08,5 21,5 Z"/>
 <path style="fill:#d4453a" d="M 21,4 C 9.92,4 1,12.92 1,24 1,35.08 9.92,44 21,44 32.08,44 41,35.08 41,24 41,12.92 32.08,4 21,4 Z"/>
 <path style="opacity:0.1" d="m 12.785156,16.009766 c -0.250029,0.03982 -0.522218,0.198349 -0.83789,0.511718 -1.26269,1.253478 -1.26269,3.285585 0,4.539063 1.262691,1.253477 3.309574,1.253477 4.572265,0 1.262691,-1.253478 -0.221685,-2.039492 -1.484375,-3.292969 -0.947018,-0.940108 -1.499911,-1.877276 -2.25,-1.757812 z m 16.429688,0 c -0.750089,-0.119464 -1.302982,0.817704 -2.25,1.757812 -1.26269,1.253477 -2.747066,2.039491 -1.484375,3.292969 1.262691,1.253477 3.309574,1.253477 4.572265,0 1.26269,-1.253478 1.26269,-3.285585 0,-4.539063 -0.315672,-0.313369 -0.587861,-0.471897 -0.83789,-0.511718 z m 0.822265,13.978515 a 1.0001,1.0001 0 0 0 -0.83789,0.41211 C 29.199219,30.400391 26.555556,34 21,34 15.444444,34 12.800781,30.400391 12.800781,30.400391 a 1.0003905,1.0003905 0 1 0 -1.601562,1.199218 c 0,0 3.356337,4.400391 9.800781,4.400391 6.444444,0 9.800781,-4.400391 9.800781,-4.400391 a 1.0001,1.0001 0 0 0 -0.763672,-1.611328 z"/>
 <path style="fill:#17191e" d="m 16.519625,20.059892 c 1.262691,-1.253478 -0.222038,-2.039222 -1.484728,-3.292699 -1.262691,-1.253478 -1.825189,-2.500024 -3.08788,-1.246546 -1.26269,1.253478 -1.26269,3.285767 0,4.539245 1.262691,1.253477 3.309917,1.253477 4.572608,0 z"/>
 <path style="fill:none;stroke:#17191e;stroke-width:2;stroke-linecap:round;stroke-linejoin:round" d="m 12,30 c 0,0 3,4 9,4 6,0 9,-4 9,-4 v 0 0"/>
 <path style="fill:#17191e" d="m 25.480374,20.059892 c -1.262691,-1.253478 0.222038,-2.039222 1.484728,-3.292699 1.262691,-1.253478 1.825189,-2.500024 3.08788,-1.246546 1.26269,1.253478 1.26269,3.285767 0,4.539245 -1.262691,1.253477 -3.309917,1.253477 -4.572608,0 z"/>
 <path style="opacity:0.2" d="m 42.952171,30.001236 a 0.89602037,0.8750755 0 0 0 -0.727943,0.436354 l -1.551547,2.624964 -1.552714,2.624964 A 0.89602037,0.8750755 0 0 0 39.896908,37 H 43 46.103094 a 0.89602037,0.8750755 0 0 0 0.77694,-1.312482 L 45.327322,33.062554 43.775774,30.43759 a 0.89602037,0.8750755 0 0 0 -0.823603,-0.436354 z"/>
 <path style="fill:#d4453a" d="m 42.952171,29.001236 a 0.89602037,0.8750755 0 0 0 -0.727943,0.436354 l -1.551547,2.624964 -1.552714,2.624964 A 0.89602037,0.8750755 0 0 0 39.896908,36 H 43 46.103094 a 0.89602037,0.8750755 0 0 0 0.77694,-1.312482 L 45.327322,32.062554 43.775774,29.43759 a 0.89602037,0.8750755 0 0 0 -0.823603,-0.436354 z"/>
 <path style="fill:#8b9cbe;opacity:0.1" d="M 21 4 C 9.92 4 1 12.92 1 24 C 1 24.167874 1.007647 24.333141 1.0117188 24.5 C 1.2763904 13.653863 10.087874 5 21 5 C 31.912126 5 40.72361 13.653863 40.988281 24.5 C 40.992353 24.333141 41 24.167874 41 24 C 41 12.92 32.08 4 21 4 z"/>
 <path style="opacity:0.1;fill:#8b9cbe" d="M 42.953125 29.001953 A 0.89602037 0.8750755 0 0 0 42.224609 29.4375 L 40.671875 32.0625 L 39.119141 34.6875 A 0.89602037 0.8750755 0 0 0 39.158203 35.621094 L 40.671875 33.0625 L 42.224609 30.4375 A 0.89602037 0.8750755 0 0 1 42.953125 30.001953 A 0.89602037 0.8750755 0 0 1 43.775391 30.4375 L 45.328125 33.0625 L 46.841797 35.621094 A 0.89602037 0.8750755 0 0 0 46.880859 34.6875 L 45.328125 32.0625 L 43.775391 29.4375 A 0.89602037 0.8750755 0 0 0 42.953125 29.001953 z"/>
</svg>
