<svg xmlns="http://www.w3.org/2000/svg" width="16" height="16" version="1.1">
 <defs>
  <style id="current-color-scheme" type="text/css">
   .ColorScheme-Text { color:#323a41; } .ColorScheme-Highlight { color:#4285f4; } .ColorScheme-NeutralText { color:#ff9800; } .ColorScheme-PositiveText { color:#4caf50; } .ColorScheme-NegativeText { color:#f44336; }
  </style>
 </defs>
 <circle style="fill:currentColor" class="ColorScheme-Text" cx="8" cy="2" r="2"/>
 <path style="fill:currentColor" class="ColorScheme-Text" d="M 7,16 V 9 L 3.5,12.5 2,11 8,5 14,11 12.5,12.5 9,9 V 16 Z"/>
</svg>
