<svg xmlns="http://www.w3.org/2000/svg" width="16" height="16" version="1.1">
 <defs>
  <style id="current-color-scheme" type="text/css">
   .ColorScheme-Text { color:#323a41; } .ColorScheme-Highlight { color:#4285f4; } .ColorScheme-NeutralText { color:#ff9800; } .ColorScheme-PositiveText { color:#4caf50; } .ColorScheme-NegativeText { color:#f44336; }
  </style>
 </defs>
 <path style="opacity:0.3;fill:currentColor" class="ColorScheme-Text" d="M 2,3 V 6 H 12 V 3 Z"/>
 <path style="opacity:0.3;fill:currentColor" class="ColorScheme-Text" d="M 5,3 V 6 H 12 V 3 Z"/>
 <path style="opacity:0.3;fill:currentColor" class="ColorScheme-Text" d="M 8,3 V 6 H 12 V 3 Z"/>
 <path style="fill:currentColor" class="ColorScheme-Text" d="M 10,3 V 6 H 12 V 3 Z M 11,9 V 11 H 9 V 13 H 11 V 15 L 15,12 Z M 2,11 V 13 H 4 V 11 Z M 5,11 V 13 H 8 V 11 Z M 2,7 V 8 H 9 V 9 H 10 V 7 Z M 2,1 V 2 H 13 V 9 H 14 V 1 Z"/>
</svg>
