<svg xmlns="http://www.w3.org/2000/svg" width="64" height="64" version="1">
 <rect style="opacity:0.2" width="52" height="40" x="6" y="13" rx="2.5" ry="2.5"/>
 <rect style="fill:#4f4f4f" width="8" height="8" x="10" y="10" rx="2" ry="2"/>
 <rect style="fill:#4f4f4f" width="52" height="40" x="6" y="12" rx="2.5" ry="2.5"/>
 <circle style="opacity:0.40" cx="52" cy="18" r="2"/>
 <circle style="opacity:0.40" cx="32" cy="32" r="16"/>
 <circle style="opacity:0.2" cx="32" cy="-33" r="12" transform="scale(1,-1)"/>
 <circle style="fill:#009587" cx="32" cy="-32" r="12" transform="scale(1,-1)"/>
 <circle style="opacity:0.2" cx="32" cy="33" r="8"/>
 <circle style="fill:#66bfb7" cx="32" cy="32" r="8"/>
 <path style="opacity:0.1;fill:#8b9cbe" d="M 8.5,12 C 7.115,12 6,13.115 6,14.5 V 15.5 C 6,14.115 7.115,13 8.5,13 H 55.5 C 56.88,13 58,14.115 58,15.5 V 14.5 C 58,13.115 56.88,12 55.5,12 Z"/>
</svg>
