<svg xmlns="http://www.w3.org/2000/svg" width="64" height="64" version="1">
 <rect style="opacity:0.2" width="56" height="44" x="-61" y="-54" rx="4" ry="4" transform="matrix(0,-1,-1,0,0,0)"/>
 <rect style="fill:#8e8e8e" width="56" height="44" x="-60" y="-54" rx="4" ry="4" transform="matrix(0,-1,-1,0,0,0)"/>
 <path style="opacity:0.2;fill:#8b9cbe" d="M 14 4 C 11.784 4 10 5.784 10 8 L 10 9 C 10 6.784 11.784 5 14 5 L 50 5 C 52.216 5 54 6.784 54 9 L 54 8 C 54 5.784 52.216 4 50 4 L 14 4 z"/>
 <g style="opacity:0.5">
  <rect width="8" height="3" x="28" y="40"/>
  <rect width="8" height="3" x="28" y="45"/>
  <path d="M 32,24 A 7,7 0 0 0 25,31 7,7 0 0 0 32,38 7,7 0 0 0 39,31 7,7 0 0 0 32,24 Z M 32,27 A 4,4 0 0 1 36,31 4,4 0 0 1 32,35 4,4 0 0 1 28,31 4,4 0 0 1 32,27 Z"/>
  <rect width="8" height="8" x="-48.5" y="9.75" transform="rotate(-135)"/>
  <rect width="8" height="3" x="-4.75" y="-35.5" transform="rotate(135)"/>
  <rect width="8" height="3" x="-4.75" y="-30.5" transform="rotate(135)"/>
 </g>
</svg>
