<svg xmlns="http://www.w3.org/2000/svg" width="64" height="64" version="1">
 <path style="opacity:0.2" d="M 32,4.0000015 C 24.820298,4.0000015 19.000001,9.8202995 19.000001,17 V 34 H 44.999999 V 17 C 44.999999,9.8202995 39.179702,4.0000015 32,4.0000015 Z m 0,5.9999995 c 3.932322,0 7,3.067677 7,6.999999 V 28 H 25 V 17 c 0,-3.932322 3.067678,-6.999999 7,-6.999999 z"/>
 <rect style="opacity:0.2" width="6" height="58" x="54" y="-61" rx="3" ry="2.9" transform="rotate(90)"/>
 <rect style="fill:#828282" width="6" height="12" x="29" y="44"/>
 <path style="fill:#b2bfd9" d="M 32,3.0000011 C 24.820298,3.0000011 19.000001,8.820299 19.000001,16 V 33 H 44.999999 V 16 C 44.999999,8.820299 39.179702,3.0000011 32,3.0000011 Z m 0,5.9999997 c 3.932322,0 7,3.0676772 7,6.9999992 V 27 H 25 V 16 c 0,-3.932322 3.067678,-6.9999992 7,-6.9999992 z"/>
 <rect style="opacity:0.2" width="24" height="34" x="-46" y="-49" rx="2.4" ry="2.429" transform="matrix(0,-1,-1,0,0,0)"/>
 <rect style="fill:#fecd38" width="24" height="34" x="-45" y="-49" rx="2.4" ry="2.429" transform="matrix(0,-1,-1,0,0,0)"/>
 <rect style="opacity:0.3;fill:#8b9cbe" width="34" height="16" x="15" y="25" rx="0" ry="0"/>
 <rect style="fill:#828282" width="6" height="58" x="53" y="-61" rx="3" ry="2.9" transform="rotate(90)"/>
 <rect style="fill:#afafb1" width="20" height="10" x="22" y="51"/>
 <rect style="opacity:0.2" width="20" height="1" x="22" y="61"/>
 <rect style="opacity:0.2;fill:#8b9cbe" width="20" height="1" x="22" y="51"/>
 <path style="opacity:0.2;fill:#8b9cbe" d="M 32 3 C 24.820298 3 19 8.820299 19 16 L 19 17 C 19 9.820299 24.820298 4 32 4 C 39.179702 4 45 9.820299 45 17 L 45 16 C 45 8.820299 39.179702 3 32 3 z"/>
</svg>
