<svg xmlns="http://www.w3.org/2000/svg" width="64" height="64" version="1">
 <path style="opacity:0.2" d="m 10,37 0,20.2 c 0,1.5512 1.2265,2.8 2.75,2.8 l 38.5,0 C 52.7735,60 54,58.7512 54,57.2 L 54,37 Z"/>
 <rect style="opacity:0.2" width="24" height="56" x="-45" y="-60" rx="2.824" ry="2.8" transform="matrix(0,-1,-1,0,0,0)"/>
 <path style="fill:#b2bfd9" d="M 12.75,4 C 11.2265,4 10,5.2742857 10,6.8571429 L 10,24 54,24 54,6.8571429 C 54,5.2742857 52.7735,4 51.25,4 l -38.5,0 z"/>
 <rect style="fill:#4f4f4f" width="24" height="56" x="-44" y="-60" rx="2.824" ry="2.8" transform="matrix(0,-1,-1,0,0,0)"/>
 <rect style="opacity:0.2" width="50" height="6" x="7" y="33"/>
 <rect style="opacity:0.2" width="5" height="5" x="7" y="24" rx="1.875" ry="1.875"/>
 <rect style="fill:#76ff03" width="5" height="5" x="7" y="23" rx="1.875" ry="1.875"/>
 <path style="fill:#b2bfd9" d="m 10,36 0,20.2 c 0,1.5512 1.2265,2.8 2.75,2.8 l 38.5,0 C 52.7735,59 54,57.7512 54,56.2 L 54,36 Z"/>
 <rect style="opacity:0.5" width="29" height="3" x="15" y="52"/>
 <rect style="opacity:0.5" width="24" height="3" x="15" y="46"/>
 <rect style="opacity:0.5" width="34" height="3" x="15" y="40"/>
 <path style="fill:#8b9cbe;opacity:0.2" d="M 12.75 4 C 11.2265 4 10 5.2745647 10 6.8574219 L 10 7.8574219 C 10 6.2745647 11.2265 5 12.75 5 L 51.25 5 C 52.7735 5 54 6.2745647 54 7.8574219 L 54 6.8574219 C 54 5.2745647 52.7735 4 51.25 4 L 12.75 4 z"/>
 <path style="fill:#8b9cbe;opacity:0.1" d="M 6.8007812 20 C 5.2495813 20 4 21.259983 4 22.824219 L 4 23.824219 C 4 22.259983 5.2495813 21 6.8007812 21 L 57.199219 21 C 58.750419 21 60 22.259983 60 23.824219 L 60 22.824219 C 60 21.259983 58.750419 20 57.199219 20 L 6.8007812 20 z"/>
 <path style="fill:#8b9cbe;opacity:0.2" d="M 8.875 23 C 7.83625 23 7 23.83625 7 24.875 L 7 25.875 C 7 24.83625 7.83625 24 8.875 24 L 10.125 24 C 11.16375 24 12 24.83625 12 25.875 L 12 24.875 C 12 23.83625 11.16375 23 10.125 23 L 8.875 23 z"/>
</svg>
