<svg xmlns="http://www.w3.org/2000/svg" width="64" height="64" version="1.1">
 <g>
  <rect style="opacity:0.2" width="18" height="56" x="-60" y="-60" rx="2.5" ry="2.5" transform="matrix(0,-1,-1,0,0,0)"/>
  <rect style="fill:#8e8e8e" width="18" height="56" x="-59" y="-60" rx="2.5" ry="2.5" transform="matrix(0,-1,-1,0,0,0)"/>
  <path style="opacity:0.5;fill:none;stroke:#000000;stroke-width:3;stroke-linecap:round" d="M 24,47 20,53"/>
  <path style="opacity:0.5;fill:none;stroke:#000000;stroke-width:3;stroke-linecap:round" d="M 18,47 14,53"/>
  <path style="opacity:0.5;fill:none;stroke:#000000;stroke-width:3;stroke-linecap:round" d="M 12,47 8,53"/>
  <path style="opacity:0.5;fill:none;stroke:#000000;stroke-width:3;stroke-linecap:round" d="M 30,47 26,53"/>
  <circle style="opacity:0.2" cx="40.5" cy="47.5" r="2.5"/>
  <circle style="opacity:0.2" cx="47.5" cy="47.5" r="2.5"/>
  <circle style="opacity:0.2" cx="54.5" cy="47.5" r="2.5"/>
  <circle style="fill:#76ff03" cx="40.5" cy="46.5" r="2.5"/>
  <circle style="fill:#ffff00" cx="47.5" cy="46.5" r="2.5"/>
  <circle style="fill:#ffcd40" cx="54.5" cy="46.5" r="2.5"/>
 </g>
 <g>
  <rect style="opacity:0.2" width="18" height="56" x="-42" y="-60" rx="2.5" ry="2.5" transform="matrix(0,-1,-1,0,0,0)"/>
  <rect style="fill:#8e8e8e" width="18" height="56" x="-41" y="-60" rx="2.5" ry="2.5" transform="matrix(0,-1,-1,0,0,0)"/>
  <path style="opacity:0.5;fill:none;stroke:#000000;stroke-width:3;stroke-linecap:round" d="M 24,29 20,35"/>
  <path style="opacity:0.5;fill:none;stroke:#000000;stroke-width:3;stroke-linecap:round" d="M 18,29 14,35"/>
  <path style="opacity:0.5;fill:none;stroke:#000000;stroke-width:3;stroke-linecap:round" d="M 12,29 8,35"/>
  <path style="opacity:0.5;fill:none;stroke:#000000;stroke-width:3;stroke-linecap:round" d="M 30,29 26,35"/>
  <circle style="opacity:0.2" cx="40.5" cy="29.5" r="2.5"/>
  <circle style="opacity:0.2" cx="47.5" cy="29.5" r="2.5"/>
  <circle style="opacity:0.2" cx="54.5" cy="29.5" r="2.5"/>
  <circle style="fill:#76ff03" cx="40.5" cy="28.5" r="2.5"/>
  <circle style="fill:#ffff00" cx="47.5" cy="28.5" r="2.5"/>
  <circle style="fill:#ffcd40" cx="54.5" cy="28.5" r="2.5"/>
 </g>
 <g>
  <rect style="opacity:0.2" width="18" height="56" x="-24" y="-60" rx="2.5" ry="2.5" transform="matrix(0,-1,-1,0,0,0)"/>
  <rect style="fill:#8e8e8e" width="18" height="56" x="-23" y="-60" rx="2.5" ry="2.5" transform="matrix(0,-1,-1,0,0,0)"/>
  <path style="opacity:0.5;fill:none;stroke:#000000;stroke-width:3;stroke-linecap:round" d="M 24,11 20,17"/>
  <path style="opacity:0.5;fill:none;stroke:#000000;stroke-width:3;stroke-linecap:round" d="M 18,11 14,17"/>
  <path style="opacity:0.5;fill:none;stroke:#000000;stroke-width:3;stroke-linecap:round" d="M 12,11 8,17"/>
  <path style="opacity:0.5;fill:none;stroke:#000000;stroke-width:3;stroke-linecap:round" d="M 30,11 26,17"/>
  <circle style="opacity:0.2" cx="39.5" cy="11.5" r="2.5"/>
  <circle style="opacity:0.2" cx="47.5" cy="11.5" r="2.5"/>
  <circle style="opacity:0.2" cx="54.5" cy="11.5" r="2.5"/>
  <circle style="fill:#76ff03" cx="39.5" cy="10.5" r="2.5"/>
  <circle style="fill:#ffff00" cx="47.5" cy="10.5" r="2.5"/>
  <circle style="fill:#ffcd40" cx="54.5" cy="10.5" r="2.5"/>
  <path style="opacity:0.2;fill:#8b9cbe" d="M 6.5,5 C 5.115,5 4,6.115 4,7.5 V 8.5 C 4,7.115 5.115,6 6.5,6 H 57.5 C 58.885,6 60,7.115 60,8.5 V 7.5 C 60,6.115 58.885,5 57.5,5 Z"/>
 </g>
</svg>
