<svg xmlns="http://www.w3.org/2000/svg" width="64" height="64" version="1">
 <path style="opacity:0.2" d="m 19,56.2 0,2 c 0,1.55 1.1612,2.8 2.602,2.8 l 20.796,0 C 43.838,61 45,59.75 45,58.2 l 0,-2 C 45,57.75 43.838,59 42.398,59 L 21.602,59 C 20.1612,59 19,57.75 19,56.2 Z"/>
 <rect style="fill:#b2bfd9" width="56" height="26" x="4" y="-45" rx="2.8" ry="2.6" transform="matrix(0,1,-1,0,0,0)"/>
 <path style="fill:#4f4f4f" d="m 39,15.6 c -4e-6,-0.7756 -0.6244,-1.600053 -1.4,-1.600053 l -2.599983,3.6e-5 -3.4e-5,-2.599947 c 0,-0.7756 -0.824017,-1.4 -1.600017,-1.4 l -2.8,3.4e-5 c -0.7756,6e-6 -1.599983,0.6244 -1.599983,1.4 l 3.4e-5,2.599947 -2.600017,3.6e-5 c -0.776,0 -1.4,0.824453 -1.4,1.600053 l 3.6e-5,2.8 c 2e-6,0.7756 0.6244,1.600074 1.4,1.600074 l 2.599946,-3.6e-5 3.6e-5,2.599926 c 2e-6,0.7756 0.824454,1.4 1.600054,1.4 l 2.8,-3.6e-5 c 0.7756,-4e-6 1.600028,-0.6244 1.600028,-1.4 l -0.0022,-2.600126 2.598972,-8.8e-5 c 0.77586,1.54e-4 1.40146,-0.823474 1.40134,-1.599254 l -3.8e-5,-2.8 z"/>
 <circle style="fill:#4f4f4f" cx="51" cy="-36" r="3" transform="matrix(0,1,-1,0,0,0)"/>
 <circle style="fill:#4f4f4f" cx="43" cy="-36" r="3" transform="matrix(0,1,-1,0,0,0)"/>
 <circle style="fill:#4f4f4f" cx="51" cy="-28" r="3" transform="matrix(0,1,-1,0,0,0)"/>
 <circle style="fill:#4f4f4f" cx="43" cy="-28" r="3" transform="matrix(0,1,-1,0,0,0)"/>
 <path style="opacity:0.2;fill:#8b9cbe" d="M 21.601562 4 C 20.160763 4 19 5.2495812 19 6.8007812 L 19 7.8007812 C 19 6.2495813 20.160763 5 21.601562 5 L 42.398438 5 C 43.838437 5 45 6.2495812 45 7.8007812 L 45 6.8007812 C 45 5.2495812 43.838437 4 42.398438 4 L 21.601562 4 z"/>
</svg>
