<svg xmlns="http://www.w3.org/2000/svg" width="48" height="48" version="1">
 <path style="opacity:0.2" d="m 24.1275,5.0665894 c 3.761552,-0.1291838 7.555027,0.8026255 10.900391,2.7792969 L 32.094297,10.781433 C 26.151566,7.8012355 18.696474,8.8179287 13.729063,13.785339 8.761653,18.75275 7.744959,26.205889 10.725157,32.148621 L 7.791563,35.084167 C 3.273457,27.43762 4.215624,17.445261 10.803281,10.857605 14.508839,7.1520484 19.291219,5.2326829 24.1275,5.0665894 Z m 13.947266,6.0917966 0.302734,15.859375 5.353516,5.353516 c 0.707107,0.707106 0,1.416015 0,1.416015 l -9.898438,9.898438 c 0,0 -0.708909,0.707107 -1.416015,0 L 27.063047,38.332214 11.203672,38.02948 Z m -13.494141,3.84375 c 0.834086,0.02707 1.668976,0.164349 2.480469,0.410156 L 15.357969,27.115417 c -0.963469,-3.226208 -0.219425,-6.850887 2.316406,-9.386718 1.901874,-1.901874 4.403993,-2.807776 6.90625,-2.726563 z"/>
 <path style="fill:#ababab" d="M 10.802867,9.8578644 C 17.390524,3.270208 27.381633,2.3276491 35.02818,6.8457552 L 32.093411,9.7805246 C 26.15068,6.8003269 18.696761,7.8169363 13.72935,12.784347 8.76194,17.751758 7.745331,25.205676 10.725528,31.148408 l -2.93477,2.934769 C 3.272652,26.43663 4.21521,16.445521 10.802867,9.8578644 Z m 6.871068,6.8706016 c 2.535831,-2.535831 6.141146,-3.299281 9.387119,-2.316051 l -11.70317,11.70317 c -0.963469,-3.226208 -0.21978,-6.851288 2.316051,-9.387119 z"/>
 <path style="fill:#7e7e7e" d="m 38.074345,10.158818 0.302453,15.858803 5.354401,5.354401 c 0.707107,0.707106 0,1.414213 0,1.414213 l -9.899495,9.899495 c 0,0 -0.707107,0.707107 -1.414213,0 L 27.06309,37.331329 11.204287,37.028876 Z"/>
 <path style="opacity:0.2;fill:#8b9cbe" d="m 24.1275,4.0664062 c 3.761552,-0.1291838 7.555027,0.8026255 10.900391,2.7792969 L 34.379453,7.4941406 C 31.195179,5.7675265 27.649989,4.9454326 24.1275,5.0664062 19.291219,5.2324998 14.508839,7.1518653 10.803281,10.857422 7.11674,14.543963 5.201162,19.296191 5.018125,24.107422 4.956995,18.959534 6.861454,13.799249 10.803281,9.8574219 14.508839,6.1518652 19.291219,4.2324998 24.1275,4.0664062 Z m 13.947266,6.0917968 0.302734,15.859375 5.353516,5.353516 c 0.475809,0.475808 0.308938,0.93441 0.15039,1.195312 -0.0429,-0.06493 -0.08493,-0.129851 -0.15039,-0.195312 L 38.3775,27.017578 38.074766,11.158203 12.184141,37.048828 11.203672,37.029298 Z m -13.494141,3.84375 c 0.834086,0.02707 1.668976,0.164349 2.480469,0.410156 l -0.810547,0.810547 c -0.553165,-0.116929 -1.110166,-0.202536 -1.669922,-0.220703 -2.502257,-0.08121 -5.004376,0.824689 -6.90625,2.726563 -1.712868,1.712868 -2.587588,3.923791 -2.691406,6.171875 -0.149938,-2.583234 0.724324,-5.204793 2.691406,-7.171875 1.901874,-1.901874 4.403993,-2.807776 6.90625,-2.726563 z M 9.074766,24.556641 c 0.07006,2.267841 0.612219,4.521606 1.650391,6.591797 l -0.310547,0.3125 C 9.446702,29.272545 9.000002,26.911389 9.074766,24.556641 Z"/>
</svg>
