<svg xmlns="http://www.w3.org/2000/svg" width="48" height="48" version="1">
 <rect style="opacity:0.2" width="40" height="32" x="-45" y="-40" rx="2" ry="2" transform="matrix(0,-1,-1,0,0,0)"/>
 <rect style="fill:#8e8e8e" width="40" height="32" x="-44" y="-40" rx="2" ry="2" transform="matrix(0,-1,-1,0,0,0)"/>
 <path style="fill:#8b9cbe;opacity:0.2" d="m10 4c-1.108 0-2 0.892-2 2v1c0-1.108 0.892-2 2-2h28c1.108 0 2 0.892 2 2v-1c0-1.108-0.892-2-2-2h-28z"/>
 <g style="opacity:0.5">
  <path d="M 24,18 A 5,5 0 0 0 19,23 5,5 0 0 0 24,28 5,5 0 0 0 29,23 5,5 0 0 0 24,18 Z M 24,20 A 3,3 0 0 1 27,23 3,3 0 0 1 24,26 3,3 0 0 1 21,23 3,3 0 0 1 24,20 Z"/>
  <rect width="6" height="2" x="-3.75" y="-26.25" transform="rotate(135)"/>
  <rect width="6" height="2" x="-3.75" y="-22.25" transform="rotate(135)"/>
  <rect width="6" height="2" x="21" y="30"/>
  <rect width="6" height="2" x="21" y="34"/>
  <rect width="6" height="6" x="-36.25" y="7.75" transform="rotate(-135)"/>
 </g>
</svg>
