<svg xmlns="http://www.w3.org/2000/svg" width="48" height="48" version="1">
 <g>
  <rect style="opacity:0.2" width="13" height="40" x="-45" y="-44" rx="2" ry="2" transform="matrix(0,-1,-1,0,0,0)"/>
  <rect style="fill:#8e8e8e" width="13" height="40" x="-44" y="-44" rx="2" ry="2" transform="matrix(0,-1,-1,0,0,0)"/>
  <path style="opacity:0.5;stroke:#000000;stroke-width:2;stroke-linecap:round" d="m 19,35 -3,5"/>
  <path style="opacity:0.5;stroke:#000000;stroke-width:2;stroke-linecap:round" d="m 15,35 -3,5"/>
  <path style="opacity:0.5;stroke:#000000;stroke-width:2;stroke-linecap:round" d="M 11,35 8,40"/>
  <path style="opacity:0.5;stroke:#000000;stroke-width:2;stroke-linecap:round" d="m 23,35 -3,5"/>
  <circle style="opacity:0.2" cx="30" cy="36" r="2"/>
  <circle style="opacity:0.2" cx="35" cy="36" r="2"/>
  <circle style="opacity:0.2" cx="40" cy="36" r="2"/>
  <circle style="fill:#76ff03" cx="30" cy="35" r="2"/>
  <circle style="fill:#ffff00" cx="35" cy="35" r="2"/>
  <circle style="fill:#ffcd40" cx="40" cy="35" r="2"/>
 </g>
 <path style="fill:#b2bfd9" d="M 10 4 C 8.892 4 8 4.892 8 6 L 8 18 L 40 18 L 40 6 C 40 4.892 39.108 4 38 4 L 10 4 z"/>
 <path style="fill:#8b9cbe;opacity:0.2" d="M 10 4 C 8.892 4 8 4.892 8 6 L 8 7 C 8 5.892 8.892 5 10 5 L 38 5 C 39.108 5 40 5.892 40 7 L 40 6 C 40 4.892 39.108 4 38 4 L 10 4 z"/>
 <rect style="opacity:0.2" width="17" height="40" x="-32" y="-44" rx="2" ry="2" transform="matrix(0,-1,-1,0,0,0)"/>
 <rect style="fill:#4f4f4f" width="17" height="40" x="-31" y="-44" rx="2" ry="2" transform="matrix(0,-1,-1,0,0,0)"/>
 <path style="opacity:0.1;fill:#8b9cbe" d="m 6,14.004 c -1.108,0 -2,0.892 -2,2 v 1 c 0,-1.108 0.892,-2 2,-2 h 36 c 1.108,0 2,0.892 2,2 v -1 c 0,-1.108 -0.892,-2 -2,-2 z"/>
 <rect style="opacity:0.2" width="36" height="4" x="6" y="24"/>
 <rect style="opacity:0.2" width="4" height="4" x="6" y="17" rx="1.5" ry="1.5"/>
 <rect style="fill:#76ff03" width="4" height="4" x="6" y="16" rx="1.5" ry="1.5"/>
 <path style="opacity:0.2;fill:#8b9cbe" d="M 7.5,16 C 6.669,16 6,16.669 6,17.5 v 1 C 6,17.669 6.669,17 7.5,17 h 1 c 0.831,0 1.5,0.669 1.5,1.5 v -1 C 10,16.669 9.331,16 8.5,16 Z"/>
</svg>
