<svg xmlns="http://www.w3.org/2000/svg" width="48" height="48" version="1">
 <path style="opacity:0.2" d="M 24,5 A 20,20 0 0 0 4,25 20,20 0 0 0 24,45 20,20 0 0 0 44,25 20,20 0 0 0 24,5 Z M 24,17 A 8,8 0 0 1 32,25 8,8 0 0 1 24,33 8,8 0 0 1 16,25 8,8 0 0 1 24,17 Z"/>
 <path style="fill:#848484" d="M 24,14 A 10,10 0 0 0 14,24 10,10 0 0 0 24,34 10,10 0 0 0 34,24 10,10 0 0 0 24,14 Z M 24,20 A 4,4 0 0 1 28,24 4,4 0 0 1 24,28 4,4 0 0 1 20,24 4,4 0 0 1 24,20 Z"/>
 <path style="fill:#b2bfd9" d="M 24,4 A 20,20 0 0 0 4,24 20,20 0 0 0 24,44 20,20 0 0 0 44,24 20,20 0 0 0 24,4 Z M 24,16 A 8,8 0 0 1 32,24 8,8 0 0 1 24,32 8,8 0 0 1 16,24 8,8 0 0 1 24,16 Z"/>
 <path style="opacity:0.2;fill:#8b9cbe" d="M 24,4 A 20,20 0 0 0 4,24 20,20 0 0 0 4.0215,24.418 20,20 0 0 1 24,5 20,20 0 0 1 43.979,24.582 20,20 0 0 0 44,24 20,20 0 0 0 24,4 Z"/>
</svg>
