<svg xmlns="http://www.w3.org/2000/svg" width="48" height="48" version="1">
 <rect style="opacity:0.2" width="40" height="24" x="4" y="19" rx="2" ry="2"/>
 <rect style="fill:#b7b7b7" width="30" height="14" x="9" y="6"/>
 <rect style="fill:#4f4f4f" width="40" height="24" x="4" y="18" rx="2" ry="2"/>
 <rect style="opacity:0.4" width="24" height="3" x="12" y="24" rx="1.5" ry="1.5"/>
 <rect style="opacity:0.4" width="20" height="3" x="14" y="29" rx="1.5" ry="1.5"/>
 <rect style="opacity:0.4" width="16" height="3" x="16" y="34" rx="1.5" ry="1.5"/>
 <rect style="opacity:0.5" width="6" height="4" x="12" y="11"/>
 <rect style="opacity:0.5" width="6" height="4" x="30" y="11"/>
 <path style="opacity:0.2;fill:#8b9cbe" d="M 9 6 L 9 7 L 39 7 L 39 6 L 9 6 z"/>
</svg>
