<svg xmlns="http://www.w3.org/2000/svg" width="48" height="48" version="1.1">
 <g>
  <rect style="opacity:0.2" width="13" height="40" x="-45" y="-44" rx="2" ry="2" transform="matrix(0,-1,-1,0,0,0)"/>
  <rect style="fill:#8e8e8e" width="13" height="40" x="-44" y="-44" rx="2" ry="2" transform="matrix(0,-1,-1,0,0,0)"/>
  <path style="opacity:0.5;stroke:#000000;stroke-width:2;stroke-linecap:round" d="M 19,35 16,40"/>
  <path style="opacity:0.5;stroke:#000000;stroke-width:2;stroke-linecap:round" d="M 15,35 12,40"/>
  <path style="opacity:0.5;stroke:#000000;stroke-width:2;stroke-linecap:round" d="M 11,35 8,40"/>
  <path style="opacity:0.5;stroke:#000000;stroke-width:2;stroke-linecap:round" d="M 23,35 20,40"/>
  <circle style="opacity:0.2" cx="30" cy="36" r="2"/>
  <circle style="opacity:0.2" cx="35" cy="36" r="2"/>
  <circle style="opacity:0.2" cx="40" cy="36" r="2"/>
  <circle style="fill:#76ff03" cx="30" cy="35" r="2"/>
  <circle style="fill:#ffff00" cx="35" cy="35" r="2"/>
  <circle style="fill:#ffcd40" cx="40" cy="35" r="2"/>
 </g>
 <g>
  <rect style="opacity:0.2" width="13" height="40" x="-32" y="-44" rx="2" ry="2" transform="matrix(0,-1,-1,0,0,0)"/>
  <rect style="fill:#8e8e8e" width="13" height="40" x="-31" y="-44" rx="2" ry="2" transform="matrix(0,-1,-1,0,0,0)"/>
  <path style="opacity:0.5;stroke:#000000;stroke-width:2;stroke-linecap:round" d="M 19,22 16,27"/>
  <path style="opacity:0.5;stroke:#000000;stroke-width:2;stroke-linecap:round" d="M 15,22 12,27"/>
  <path style="opacity:0.5;stroke:#000000;stroke-width:2;stroke-linecap:round" d="M 11,22 8,27"/>
  <path style="opacity:0.5;stroke:#000000;stroke-width:2;stroke-linecap:round" d="M 23,22 20,27"/>
  <circle style="opacity:0.2" cx="30" cy="23" r="2"/>
  <circle style="opacity:0.2" cx="35" cy="23" r="2"/>
  <circle style="opacity:0.2" cx="40" cy="23" r="2"/>
  <circle style="fill:#76ff03" cx="30" cy="22" r="2"/>
  <circle style="fill:#ffff00" cx="35" cy="22" r="2"/>
  <circle style="fill:#ffcd40" cx="40" cy="22" r="2"/>
 </g>
 <g>
  <rect style="opacity:0.2" width="13" height="40" x="-19" y="-44" rx="2" ry="2" transform="matrix(0,-1,-1,0,0,0)"/>
  <rect style="fill:#8e8e8e" width="13" height="40" x="-18" y="-44" rx="2" ry="2" transform="matrix(0,-1,-1,0,0,0)"/>
  <path style="opacity:0.5;stroke:#000000;stroke-width:2;stroke-linecap:round" d="M 19,9 16,14"/>
  <path style="opacity:0.5;stroke:#000000;stroke-width:2;stroke-linecap:round" d="M 15,9 12,14"/>
  <path style="opacity:0.5;stroke:#000000;stroke-width:2;stroke-linecap:round" d="M 11,9 8,14"/>
  <path style="opacity:0.5;stroke:#000000;stroke-width:2;stroke-linecap:round" d="M 23,9 20,14"/>
  <circle style="opacity:0.2" cx="30" cy="10" r="2"/>
  <circle style="opacity:0.2" cx="35" cy="10" r="2"/>
  <circle style="opacity:0.2" cx="40" cy="10" r="2"/>
  <circle style="fill:#76ff03" cx="30" cy="9" r="2"/>
  <circle style="fill:#ffff00" cx="35" cy="9" r="2"/>
  <circle style="fill:#ffcd40" cx="40" cy="9" r="2"/>
  <path style="opacity:0.2;fill:#8b9cbe" d="M 6,5 C 4.892,5 4,5.892 4,7 V 8 C 4,6.892 4.892,6 6,6 H 42 C 43.108,6 44,6.892 44,8 V 7 C 44,5.892 43.108,5 42,5 Z"/>
 </g>
</svg>
