<svg xmlns="http://www.w3.org/2000/svg" width="16" height="16" version="1.1">
 <defs>
  <style id="current-color-scheme" type="text/css">
   .ColorScheme-Text { color:#323a41; } .ColorScheme-Highlight { color:#4285f4; } .ColorScheme-NeutralText { color:#ff9800; } .ColorScheme-PositiveText { color:#4caf50; } .ColorScheme-NegativeText { color:#f44336; }
  </style>
 </defs>
 <path style="fill:currentColor;opacity:0.3" class="ColorScheme-Text" d="M 8,0 C 5.244762,0 3,2.3005656 3,5.1347656 3,6.5800456 3.5191375,7.419701 4.0234375,7.994141 4.2755879,8.281381 4.522119,8.507297 4.6933594,8.710938 4.864599,8.914657 5,10.078871 5,10.275391 c 0,1.724328 1,2.724328 3,2.722656 2,0.0017 3,-0.998328 3,-2.722656 0,-0.22148 0.249776,-1.375774 0.408203,-1.564453 C 11.566627,8.522297 11.796772,8.317875 12.035156,8.046875 12.511925,7.504795 13,6.6795656 13,5.1347656 13,2.3005656 10.755238,0 8,0 Z m 0,2 c 1.641933,0 3,1.3566012 3,3.1347656 0,1.1235373 -0.207767,1.2972833 -0.466797,1.5917969 -0.146187,0.1661891 -0.34198,0.3230555 -0.65625,0.6972655 v 0.002 C 9.35784,8.04407 9.451259,8.158122 9.378906,8.377 9.306556,8.595878 9.251357,8.802407 9.201172,9.009813 9.150992,9.217219 9.108342,9.417952 9.074219,9.605516 9.040099,9.792986 9,9.844101 9,10.275391 c 0,0.47554 -0.08235,0.516134 -0.113281,0.544921 -0.03093,0.02879 -0.218378,0.178292 -0.884766,0.177735 H 8 7.998 C 7.331706,10.998604 7.144214,10.849101 7.113281,10.820312 7.082348,10.791526 7,10.750931 7,10.275391 7,9.717802 6.9529655,9.596857 6.8847656,9.175781 6.8506657,8.965243 6.8107844,8.748173 6.7480469,8.507812 6.7334,8.451698 6.7201021,8.386086 6.7128906,8.330078 L 7.179688,9.863281 c 0.03485,0.109161 0.139586,0.180892 0.24414,0.144531 C 7.52838,9.971412 7.59735,9.863026 7.5625,9.753906 L 6.3847656,5.8808594 C 6.6416836,6.034593 6.9941898,6.2115923 7.421875,6.3125 8.078334,6.467352 8.881693,6.4170494 9.578125,5.9667969 L 8.439453,9.710938 c -0.03485,0.109158 0.03412,0.217506 0.138672,0.253906 0.104553,0.0364 0.209291,-0.03541 0.244141,-0.144532 l 1.289062,-4.2402339 c 0.01256,-0.039342 -3.79e-4,-0.075399 -0.01172,-0.1113281 0.0029,-0.022957 0.0087,-0.044949 0.0039,-0.068359 -0.01566,-0.07636 -0.07205,-0.13701 -0.144532,-0.15625 C 9.886496,5.224941 9.810371,5.249151 9.761711,5.308594 9.109621,5.972714 8.243065,6.0938424 7.505851,5.9199221 6.7686463,5.7460019 6.1992185,5.2773438 6.1992188,5.2773438 6.15929,5.2497407 6.1120331,5.2373406 6.0644531,5.2441406 c -0.082211,0.0148 -0.1480174,0.082129 -0.1621093,0.1679688 -0.00302,0.018408 0.00612,0.03476 0.00781,0.052734 C 5.8818753,5.5112324 5.872594,5.568526 5.890625,5.625 L 6.6152344,8.003906 C 6.5490475,7.859812 6.4456752,7.686825 6.2246094,7.423828 5.9137575,7.054161 5.6961093,6.8660795 5.5273438,6.6738281 5.2115667,6.3141318 5,6.1011188 5,5.1347656 5,3.3566012 6.3580672,2 8,2 Z M 9.695312,13.734375 C 9.181562,13.911185 8.61175,13.998558 8,13.998047 c -0.598749,5e-4 -1.1587243,-0.08088 -1.6640625,-0.25 -0.2092336,0.204633 -0.347996,0.415934 -0.3339844,0.611328 0.014952,0.208529 0.1855393,0.356306 0.4433594,0.449219 C 8.106928,14.992252 9.141475,14.224481 9.695312,13.734375 Z M 9.75,13.878906 c -0.04997,0.07265 -0.10974,0.145734 -0.201172,0.214844 -0.909077,0.687625 -2.028855,0.888222 -3.0976561,0.71875 0.1334479,0.04723 0.2825808,0.08282 0.4609375,0.0957 0.023664,0.0061 0.062583,0.0081 0.087891,0.01367 v 0.17188 C 7,15.573745 7.470589,16 8,16 8.529412,16 9,15.573745 9,15.09375 V 14.912109 C 9.584664,14.810949 9.95629,14.625027 9.996094,14.361328 10.022134,14.188763 9.926464,14.023717 9.75,13.878906 Z"/>
</svg>
