<svg xmlns="http://www.w3.org/2000/svg" width="16" height="16" version="1.1">
 <defs>
  <style id="current-color-scheme" type="text/css">
   .ColorScheme-Text { color:#323a41; } .ColorScheme-Highlight { color:#4285f4; } .ColorScheme-NeutralText { color:#ff9800; } .ColorScheme-PositiveText { color:#4caf50; } .ColorScheme-NegativeText { color:#f44336; }
  </style>
 </defs>
 <path style="fill:currentColor" class="ColorScheme-Text" d="M 9.4199219 1 A 0.99995354 0.99995354 0 0 0 8.5429688 1.484375 L 6.6796875 4.5898438 L 2.5058594 2.1367188 A 0.99995354 0.99995354 0 0 0 1.0195312 3.2011719 L 1.9882812 7.9140625 A 0.99995354 0.99995354 0 0 0 2 8.0234375 L 2 10.054688 A 2.5 2.5 0 0 1 2.5 10 A 2.5 2.5 0 0 1 4 10.503906 L 4 9.4921875 L 7 11.017578 L 7 13.310547 L 4.9804688 12.207031 A 2.5 2.5 0 0 1 5 12.5 A 2.5 2.5 0 0 1 4.3730469 14.154297 L 7.3847656 15.798828 L 7.3886719 15.802734 A 0.99995354 0.99995354 0 0 0 8.2832031 15.955078 A 0.99995354 0.99995354 0 0 0 8.3046875 15.947266 L 8.3085938 15.945312 L 13.304688 14.349609 A 0.99995354 0.99995354 0 0 0 14 13.396484 L 14 9.1132812 L 15.910156 4.9140625 A 0.99995354 0.99995354 0 0 0 15.408203 3.5859375 L 9.8085938 1.0859375 A 0.99995354 0.99995354 0 0 0 9.4199219 1 z M 9.8007812 3.2734375 L 13.673828 5.0019531 L 12.513672 7.5527344 L 8.8261719 5.7714844 A 0.99995354 0.99995354 0 0 0 8.4824219 5.4707031 L 9.8007812 3.2734375 z M 3.4316406 5.0019531 L 5.328125 6.1171875 L 3.7578125 6.5898438 L 3.4316406 5.0019531 z M 8.4941406 7.8320312 L 10.251953 8.6796875 L 8.7597656 9.1289062 L 8.4941406 7.8320312 z M 6.4609375 7.8652344 L 6.6054688 8.5722656 L 5.6757812 8.1015625 L 6.4609375 7.8652344 z M 12 10.242188 L 12 12.666016 L 9 13.625 L 9 11.146484 L 12 10.242188 z"/>
 <circle style="fill:currentColor" class="ColorScheme-Highlight" cx="2.5" cy="12.5" r="1.5"/>
</svg>
