<svg xmlns="http://www.w3.org/2000/svg" width="16" height="16" version="1.1">
 <defs>
  <style id="current-color-scheme" type="text/css">
   .ColorScheme-Text { color:#323a41; } .ColorScheme-Highlight { color:#4285f4; } .ColorScheme-NeutralText { color:#ff9800; } .ColorScheme-PositiveText { color:#4caf50; } .ColorScheme-NegativeText { color:#f44336; }
  </style>
 </defs>
 <path style="opacity:0.3;fill:currentColor" class="ColorScheme-Text" d="m 10,-1e-7 v 2 H 7 v 5.0000002 h 3 v 2 L 15.5,4.4999999 Z M 6,6.0000001 0.5,10.5 6,15 V 13 H 9 V 8.0000001 H 6 Z"/>
</svg>
