<svg xmlns="http://www.w3.org/2000/svg" width="16" height="16" version="1.1">
 <defs>
  <style id="current-color-scheme" type="text/css">
   .ColorScheme-Text { color:#323a41; } .ColorScheme-Highlight { color:#4285f4; } .ColorScheme-NeutralText { color:#ff9800; } .ColorScheme-PositiveText { color:#4caf50; } .ColorScheme-NegativeText { color:#f44336; }
  </style>
 </defs>
 <circle style="fill:currentColor" class="ColorScheme-Text" cx="3" cy="8" r="2"/>
 <circle style="fill:currentColor" class="ColorScheme-Text" cx="8" cy="8" r="2"/>
 <circle style="fill:currentColor" class="ColorScheme-Text" cx="13" cy="8" r="2"/>
 <path style="opacity:0.3;fill:currentColor" class="ColorScheme-Text" d="M 8,2 C 4.9494,2 2.0806,3.0732 0,5 H 16 C 13.919,3.0731 11.051,2 8,2 Z M 5.334,11 8,14 10.666,11 Z"/>
</svg>
