<svg xmlns="http://www.w3.org/2000/svg" width="16" height="16" version="1.1">
 <defs>
  <style id="current-color-scheme" type="text/css">
   .ColorScheme-Text { color:#323a41; } .ColorScheme-Highlight { color:#4285f4; } .ColorScheme-NeutralText { color:#ff9800; } .ColorScheme-PositiveText { color:#4caf50; } .ColorScheme-NegativeText { color:#f44336; }
  </style>
 </defs>
 <path style="fill:currentColor" class="ColorScheme-Text" d="M 8 1 C 4.1343025 1 1.0005241 4.1324718 1 7.9980469 C 0.99947673 11.861278 4.13677 15.000041 8 15 C 11.86586 14.999959 15 11.865996 15 8 C 15 7.121647 14.838306 6.2803884 14.542969 5.5058594 C 14.519229 5.4436034 14.436748 5.4286316 14.392578 5.4785156 L 12.865234 6.8691406 A 5 5 0 0 1 13 8 A 5 5 0 0 1 8 13 A 5 5 0 0 1 3 8 A 5 5 0 0 1 8 3 A 5 5 0 0 1 9.6640625 3.2910156 L 10.888672 1.734375 C 10.922022 1.690383 10.906472 1.6268993 10.857422 1.6015625 C 9.8963238 1.1050552 9.156158 1 8 1 z M 12.175781 2 C 12.153661 2.00278 12.131678 2.0153331 12.117188 2.0332031 L 6.9316406 8.421875 C 6.9089066 8.449888 6.8644976 8.4545505 6.8378906 8.4296875 L 4.9863281 6.6972656 C 4.9465764 6.6601064 4.8789173 6.6680575 4.8496094 6.7128906 L 4.0117188 7.9921875 C 3.9908087 8.0241685 3.9970066 8.0672614 4.0253906 8.09375 L 7.1152344 10.976562 C 7.1506194 11.009502 7.207071 11.007536 7.2402344 10.972656 L 13.978516 3.8652344 C 14.004366 3.8379384 14.007728 3.7980851 13.986328 3.7675781 C 13.514988 3.0948973 12.921777 2.5031916 12.238281 2.0175781 C 12.219171 2.0040011 12.197891 1.997218 12.175781 2 z"/>
</svg>
