<svg xmlns="http://www.w3.org/2000/svg" width="16" height="16" version="1.1">
 <defs>
  <style id="current-color-scheme" type="text/css">
   .ColorScheme-Text { color:#323a41; } .ColorScheme-Highlight { color:#4285f4; } .ColorScheme-NeutralText { color:#ff9800; } .ColorScheme-PositiveText { color:#4caf50; } .ColorScheme-NegativeText { color:#f44336; }
  </style>
 </defs>
 <path style="fill:currentColor;opacity:0.3" class="ColorScheme-Text" d="M 8.5 0 C 5.4627564 0 3.0004562 2.3276432 3 5.1992188 C 3.00172 5.3328938 3.0088804 5.4664566 3.0214844 5.5996094 L 3 5.5996094 L 3 6 L 1.8339844 6 C 1.3723177 6 1 6.3464546 1 6.7773438 L 1 12.222656 C 1 12.653545 1.3723177 13 1.8339844 13 L 3 13 L 3 15.199219 C 3 15.642419 3.3769338 16 3.8457031 16 L 6.8085938 16 L 8.0761719 14 L 8.9238281 14 L 10.191406 16 L 13.154297 16 C 13.623066 16 14 15.642419 14 15.199219 L 14 13 L 15.166016 13 C 15.627682 13 16 12.653545 16 12.222656 L 16 6.7773438 C 16 6.3464546 15.627682 6 15.166016 6 L 14 6 L 14 5.5996094 L 13.982422 5.5996094 C 13.993723 5.466409 13.999584 5.3328462 14 5.1992188 C 13.999544 2.3276432 11.537244 -5.9211895e-16 8.5 0 z M 8.5 2 C 10.432663 1.9999999 12 2.9990235 12 5.9765625 C 11.999442 5.9915405 11.998847 6.0084675 11.998047 6.0234375 L 5 6.0214844 C 4.9999069 6.0065104 4.9999069 5.9915365 5 5.9765625 C 5 2.9990235 6.567337 1.9999998 8.5 2 z M 6 4 L 6 5 L 7 5 L 7 4 L 6 4 z M 10 4 L 10 5 L 11 5 L 11 4 L 10 4 z M 4.5 8 A 1.5 1.5 0 0 1 6 9.5 A 1.5 1.5 0 0 1 4.5 11 A 1.5 1.5 0 0 1 3 9.5 A 1.5 1.5 0 0 1 4.5 8 z M 8.5 8 A 1.5 1.5 0 0 1 10 9.5 A 1.5 1.5 0 0 1 8.5 11 A 1.5 1.5 0 0 1 7 9.5 A 1.5 1.5 0 0 1 8.5 8 z M 12.5 8 A 1.5 1.5 0 0 1 14 9.5 A 1.5 1.5 0 0 1 12.5 11 A 1.5 1.5 0 0 1 11 9.5 A 1.5 1.5 0 0 1 12.5 8 z"/>
 <path style="fill:currentColor" class="ColorScheme-Text" d="M 4 9 L 4 10 L 5 10 L 5 9 L 4 9 z M 8 9 L 8 10 L 9 10 L 9 9 L 8 9 z M 12 9 L 12 10 L 13 10 L 13 9 L 12 9 z"/>
</svg>
