<svg xmlns="http://www.w3.org/2000/svg" width="16" height="16" version="1.1">
 <defs>
  <style id="current-color-scheme" type="text/css">
   .ColorScheme-Text { color:#323a41; } .ColorScheme-Highlight { color:#4285f4; } .ColorScheme-NeutralText { color:#ff9800; } .ColorScheme-PositiveText { color:#4caf50; } .ColorScheme-NegativeText { color:#f44336; }
  </style>
 </defs>
 <path style="fill:currentColor" class="ColorScheme-Text" d="M 8 1 A 7 7 0 0 0 1 8 A 7 7 0 0 0 8 15 A 7 7 0 0 0 11 14.314453 L 11 11.521484 C 10.987896 10.704631 11.662129 10.01268 12.476562 10 C 12.874232 9.9938016 13.232864 10.167365 13.507812 10.423828 C 13.770326 10.183055 14.100453 10.0059 14.476562 10 C 14.551188 9.9988368 14.623165 10.009623 14.695312 10.019531 A 7 7 0 0 0 15 8 A 7 7 0 0 0 8 1 z M 10.5 3.9980469 L 11 3.9980469 L 11 9.4980469 C 11 10.326447 10.3284 10.998047 9.5 10.998047 C 8.6716 10.998047 8 10.326447 8 9.4980469 C 8 8.6696469 8.6716 7.9980469 9.5 7.9980469 C 9.68 7.9980469 9.84 8.03375 10 8.09375 L 10 6 L 7 6 L 7 9.5 C 7 10.3284 6.3284 11 5.5 11 C 4.6716 11 4 10.3284 4 9.5 C 4 8.6716 4.6716 8 5.5 8 C 5.68 8 5.84 8.0357031 6 8.0957031 L 6 4.0019531 L 10.5 3.9980469 z M 12.492188 11 A 0.50005 0.49855489 0 0 0 12 11.505859 L 12 15.494141 A 0.50005 0.49855489 0 1 0 13 15.494141 L 13 11.505859 A 0.50005 0.49855489 0 0 0 12.492188 11 z M 14.492188 11 A 0.50005 0.49855489 0 0 0 14 11.505859 L 14 15.494141 A 0.50005 0.49855489 0 1 0 15 15.494141 L 15 11.505859 A 0.50005 0.49855489 0 0 0 14.492188 11 z"/>
</svg>
