<svg xmlns="http://www.w3.org/2000/svg" width="16" height="16" version="1.1">
 <defs>
  <style id="current-color-scheme" type="text/css">
   .ColorScheme-Text { color:#323a41; } .ColorScheme-Highlight { color:#4285f4; } .ColorScheme-NeutralText { color:#ff9800; } .ColorScheme-PositiveText { color:#4caf50; } .ColorScheme-NegativeText { color:#f44336; }
  </style>
 </defs>
 <path style="fill:currentColor" class="ColorScheme-Text" d="M 7.9746094 1 L 7.3125 1.0351562 L 7.2617188 1.0390625 L 6.6191406 1.1386719 L 6.5703125 1.1484375 L 5.9492188 1.3105469 L 5.9003906 1.3242188 L 5.578125 1.4433594 L 5.9238281 2.3828125 L 6.2324219 2.2695312 L 6.7988281 2.1230469 L 7.3828125 2.0332031 L 8.0253906 2 L 8.0078125 1.6542969 L 8.0410156 1.0019531 L 8.0253906 1 L 8 1.5 L 7.9746094 1 z M 9.0878906 1.09375 L 8.9355469 2.0820312 L 9.2011719 2.1230469 L 9.7675781 2.2695312 L 10.330078 2.4746094 L 10.851562 2.7285156 L 11.337891 3.0253906 L 11.460938 3.1152344 L 12.060547 2.3144531 L 11.925781 2.2148438 L 11.886719 2.1875 L 11.351562 1.8613281 L 11.308594 1.8378906 L 10.740234 1.5625 L 10.695312 1.5449219 L 10.099609 1.3242188 L 10.050781 1.3105469 L 9.4296875 1.1484375 L 9.3808594 1.1386719 L 9.0878906 1.09375 z M 4.5820312 1.9023438 L 4.1132812 2.1875 L 4.0742188 2.2148438 L 3.5722656 2.5898438 L 3.5371094 2.6210938 L 3.0742188 3.0410156 L 3.0410156 3.0742188 L 2.6210938 3.5371094 L 2.5898438 3.5722656 L 2.2441406 4.0332031 L 3.0449219 4.6328125 L 3.3789062 4.1875 L 3.7636719 3.7636719 L 4.1875 3.3789062 L 4.6621094 3.0234375 L 5.1035156 2.7558594 L 4.5820312 1.9023438 z M 12.863281 2.984375 L 12.191406 3.7246094 L 12.236328 3.765625 L 12.621094 4.1875 L 12.976562 4.6621094 L 13.271484 5.1484375 L 13.525391 5.6699219 L 13.658203 6.03125 L 14.595703 5.6875 L 14.455078 5.3046875 L 14.4375 5.2597656 L 14.162109 4.6914062 L 14.138672 4.6484375 L 13.8125 4.1132812 L 13.785156 4.0742188 L 13.410156 3.5722656 L 13.378906 3.5371094 L 12.958984 3.0742188 L 12.925781 3.0410156 L 12.863281 2.984375 z M 8 3 A 5 5.0006976 0 0 0 3 8 A 5 5.0006976 0 0 0 3.671875 10.494141 L 3.4824219 11.201172 A 2.5 2.5 0 0 1 4.796875 12.519531 L 5.5039062 12.330078 A 5 5.0006976 0 0 0 8 13.001953 A 5 5.0006976 0 0 0 13 8 A 5 5.0006976 0 0 0 8 3 z M 1.6972656 4.9804688 L 1.5625 5.2597656 L 1.5449219 5.3046875 L 1.3242188 5.9003906 L 1.3105469 5.9492188 L 1.1484375 6.5703125 L 1.1386719 6.6191406 L 1.0390625 7.2617188 L 1.0351562 7.3125 L 1 7.9746094 L 1.0019531 8.0449219 L 1.0117188 8.1445312 L 2.0078125 8.0546875 L 2.0019531 7.9921875 L 2.0332031 7.3828125 L 2.1230469 6.7988281 L 2.2695312 6.2324219 L 2.4765625 5.6699219 L 2.5976562 5.4160156 L 1.6972656 4.9804688 z M 14.880859 6.7480469 L 13.892578 6.8984375 L 13.966797 7.3828125 L 13.998047 8 L 13.966797 8.6191406 L 13.876953 9.203125 L 13.757812 9.6679688 L 14.724609 9.9199219 L 14.851562 9.4316406 L 14.861328 9.3828125 L 14.960938 8.7402344 L 14.964844 8.6894531 L 15 8.0253906 L 15 7.9746094 L 14.964844 7.3125 L 14.960938 7.2617188 L 14.880859 6.7480469 z M 2.15625 8.9667969 L 1.1855469 9.2050781 L 1.21875 9.3457031 L 1.2363281 9.4023438 L 1.6210938 10.423828 L 1.3964844 11.257812 A 2.5 2.5 0 0 1 2.5 11 L 2.6269531 10.525391 L 2.6132812 10.220703 L 2.1835938 9.0800781 L 2.15625 8.9667969 z M 13.4375 10.509766 L 13.271484 10.853516 L 12.976562 11.339844 L 12.621094 11.814453 L 12.236328 12.238281 L 11.8125 12.623047 L 11.753906 12.666016 L 12.353516 13.466797 L 12.427734 13.412109 L 12.462891 13.380859 L 12.925781 12.960938 L 12.958984 12.927734 L 13.378906 12.464844 L 13.410156 12.429688 L 13.785156 11.927734 L 13.8125 11.888672 L 14.138672 11.353516 L 14.162109 11.310547 L 14.337891 10.945312 L 13.4375 10.509766 z M 10.96875 13.203125 L 10.851562 13.273438 L 10.330078 13.527344 L 9.7675781 13.732422 L 9.2011719 13.878906 L 8.6171875 13.96875 L 8.3574219 13.982422 L 8.4082031 14.982422 L 8.6875 14.966797 L 8.7382812 14.962891 L 9.3808594 14.863281 L 9.4296875 14.853516 L 10.050781 14.691406 L 10.099609 14.677734 L 10.695312 14.457031 L 10.740234 14.439453 L 11.308594 14.164062 L 11.351562 14.140625 L 11.488281 14.056641 L 10.96875 13.203125 z M 5.4746094 13.375 L 5 13.501953 A 2.5 2.5 0 0 1 4.7382812 14.607422 L 5.5761719 14.382812 L 6.5996094 14.765625 L 6.65625 14.783203 L 7.2597656 14.929688 L 7.3320312 14.943359 L 7.3398438 14.943359 L 7.390625 14.398438 L 7.4960938 13.958984 L 6.921875 13.820312 L 5.7792969 13.388672 L 5.4746094 13.375 z"/>
 <circle style="fill:currentColor" class="ColorScheme-Highlight" cx="2.5" cy="13.5" r="1.5"/>
</svg>
