<svg xmlns="http://www.w3.org/2000/svg" width="16" height="16" version="1.1">
 <defs>
  <style id="current-color-scheme" type="text/css">
   .ColorScheme-Text { color:#323a41; } .ColorScheme-Highlight { color:#4285f4; } .ColorScheme-NeutralText { color:#ff9800; } .ColorScheme-PositiveText { color:#4caf50; } .ColorScheme-NegativeText { color:#f44336; }
  </style>
 </defs>
 <path style="fill:currentColor" class="ColorScheme-Text" d="M 8,1 C 5.9289,1 4.1653,2.2679 3.4062,4.0625 1.4784,4.3491 0,5.9924 0,8 0,10.209 1.7909,12 4,12 H 4.4062 C 4.8601,11.199 5.6472,10.573 6.5312,10.313 7.151,8.99 8.506,7.974 10,8 11.908,7.969 13.582,9.485 13.875,11.344 14.018,11.389 14.144,11.435 14.281,11.5 15.312,10.891 16,9.784 16,8.5 16,6.7035 14.649,5.2313 12.906,5.0312 12.452,2.7379 10.427,1 8,1 Z M 10,9 C 8.688,9 7.595,9.858 7.188,11.031 5.9567,11.187 5,12.227 5,13.5 5,14.881 6.1193,16 7.5,16 H 13 C 14.105,16 15,15.105 15,14 15,12.895 14.105,12 13,12 13,10.343 11.657,9 10,9 Z"/>
</svg>
