<svg xmlns="http://www.w3.org/2000/svg" width="16" height="16" version="1.1">
 <defs>
  <style id="current-color-scheme" type="text/css">
   .ColorScheme-Text { color:#323a41; } .ColorScheme-Highlight { color:#4285f4; } .ColorScheme-NeutralText { color:#ff9800; } .ColorScheme-PositiveText { color:#4caf50; } .ColorScheme-NegativeText { color:#f44336; }
  </style>
 </defs>
 <path style="fill:currentColor" class="ColorScheme-Text" d="M 8.091333,6.5428781e-4 C 5.7696025,-0.02407371 3.4797634,0.96181539 1.9001763,2.8209668 c -2.40698998,2.832993 -2.54074118,6.9648805 -0.3242057,9.9492192 2.2165355,2.98434 6.2127234,4.04971 9.6207064,2.564453 3.407983,-1.485257 5.345263,-5.13593 4.66778,-8.7910157 a 1.0003003,1.0002238 0 1 0 -1.964764,0.363282 c 0.509861,2.750751 -0.93898,5.4759717 -3.503766,6.5937497 C 7.831143,14.618432 4.8494989,13.82474 3.1813747,11.57878 1.5132502,9.3328203 1.6140485,6.2479483 3.4255054,4.1158887 5.2369624,1.98383 8.2652,1.3855064 10.751382,2.6686231 A 1.0004025,1.000326 0 1 0 11.669314,0.89127929 C 10.84343,0.46504099 9.969941,0.19522609 9.087387,0.07487309 8.756428,0.02974009 8.423009,0.00418709 8.091333,6.5428781e-4 Z M 15.009024,1.0006543 A 0.99775018,0.99921588 0 0 0 14.245382,1.3522168 L 7.835484,8.6842493 5.5719034,7.1725303 A 0.99775018,0.99921588 0 1 0 4.4645262,8.8346393 L 7.458546,10.832686 A 0.99775018,0.99921588 0 0 0 8.763181,10.658858 L 15.745322,2.6666699 A 0.99775018,0.99921588 0 0 0 15.009024,1.0006543 Z"/>
</svg>
