<svg xmlns="http://www.w3.org/2000/svg" width="16" height="16" version="1.1">
 <defs>
  <style id="current-color-scheme" type="text/css">
   .ColorScheme-Text { color:#323a41; } .ColorScheme-Highlight { color:#4285f4; } .ColorScheme-NeutralText { color:#ff9800; } .ColorScheme-PositiveText { color:#4caf50; } .ColorScheme-NegativeText { color:#f44336; }
  </style>
 </defs>
 <path style="fill:currentColor" class="ColorScheme-Text" d="M 5.6152344,2 C 4.7475164,2 4.3800613,2.0133915 4.0976562,2.5 L 0.0117188,7.775391 C 0.5436227,7.298911 1.237417,7 2,7 h 5.9996172 5.9999998 c 0.762583,0 1.456377,0.298911 1.988281,0.775391 L 11.901961,2.5 C 11.619556,2.0133915 11.252101,2 10.384383,2 H 7.9996172 Z M 2,8 C 0.892,8 0,8.892 0,10 v 2 c 0,1.108 0.892,2 2,2 h 11.999617 c 1.108,0 2,-0.892 2,-2 v -2 c 0,-1.108 -0.892,-2 -2,-2 z m 7.9996172,1 c 0.5744048,6.49e-4 1.1208028,0.248235 1.4999998,0.679688 0.379197,-0.431453 0.925595,-0.679039 1.5,-0.679688 1.104569,0 2,0.895431 2,2 0,1.104569 -0.895431,2 -2,2 -0.574405,-6.49e-4 -1.120803,-0.248235 -1.5,-0.679688 C 11.12042,12.751765 10.574022,12.999351 9.9996172,13 c -1.104569,0 -2,-0.895431 -2,-2 0,-1.104569 0.895431,-2 2,-2 z"/>
 <path style="fill:currentColor" class="ColorScheme-Highlight" d="m 9.9996172,10 a 1,1 0 0 0 -1,1 1,1 0 0 0 1,1 1,1 0 0 0 0.9999998,-1 1,1 0 0 0 -0.9999998,-1 z m 2.9999998,0 a 1,1 0 0 0 -1,1 1,1 0 0 0 1,1 1,1 0 0 0 1,-1 1,1 0 0 0 -1,-1 z"/>
</svg>
