<svg xmlns="http://www.w3.org/2000/svg" width="16" height="16" version="1.1">
 <defs>
  <style id="current-color-scheme" type="text/css">
   .ColorScheme-Text { color:#323a41; } .ColorScheme-Highlight { color:#4285f4; } .ColorScheme-NeutralText { color:#ff9800; } .ColorScheme-PositiveText { color:#4caf50; } .ColorScheme-NegativeText { color:#f44336; }
  </style>
 </defs>
 <path style="fill:currentColor" class="ColorScheme-Text" d="m 6.9999989,0 v 2.0859371 a 6,6 0 0 1 1,-0.085937 6,6 0 0 1 1.0000001,0.08984 V 0 Z M 3.0507801,1.636719 1.636718,3.0507811 3.1132801,4.5273441 a 6,6 0 0 1 1.4160159,-1.41211 z m 9.8984379,0 -1.476563,1.4765621 a 6,6 0 0 1 1.41211,1.416016 L 14.36328,3.0507811 Z M 7.999999,3.0000001 a 5,5 0 0 0 -5,4.9999999 5,5 0 0 0 4.9999999,5 5,5 0 0 0 5.0000001,-5 5,5 0 0 0 -5,-4.9999999 z M -9.5e-7,7 V 9 H 2.085936 A 6,6 0 0 1 1.999996,8 6,6 0 0 1 2.089836,7 Z M 13.914061,7 a 6,6 0 0 1 0.08594,1 6,6 0 0 1 -0.08984,1 h 2.08984 V 7 Z M 3.115233,11.470703 1.6367179,12.949219 3.05078,14.363281 4.5273429,12.886719 A 6,6 0 0 1 3.115233,11.470703 Z m 9.771485,0.002 a 6,6 0 0 1 -1.416016,1.41211 l 1.478516,1.478515 1.414062,-1.414062 z M 6.9999989,13.910156 V 16 H 8.999999 v -2.085938 a 6,6 0 0 1 -1.0000001,0.08594 6,6 0 0 1 -1,-0.08984 z"/>
</svg>
