<svg xmlns="http://www.w3.org/2000/svg" width="16" height="16" version="1.1">
 <defs>
  <style id="current-color-scheme" type="text/css">
   .ColorScheme-Text { color:#323a41; } .ColorScheme-Highlight { color:#4285f4; } .ColorScheme-NeutralText { color:#ff9800; } .ColorScheme-PositiveText { color:#4caf50; } .ColorScheme-NegativeText { color:#f44336; }
  </style>
 </defs>
 <path style="fill:currentColor" class="ColorScheme-Text" d="M 8,0 C 5.93,0 4.17,1.27 3.41,3.07 1.48,3.35 0,5 0,7 0,9.21 1.79,11 4,11 L 6,11 6,8.5 C 6,7.67 6.67,7 7.5,7 8.33,7 9,7.67 9,8.5 l 0,2.5 3.5,0 C 14.43,11 16,9.44 16,7.5 16,5.71 14.65,4.23 12.91,4.03 12.45,1.74 10.43,0 8,0 Z"/>
 <path style="fill:currentColor" class="ColorScheme-Highlight" d="m 7.34,8.029287 c -0.2,0.07 -0.35,0.28 -0.34,0.5 l 0,3.78 -0.03,0.09 -0.63,0.63 -0.03,0 -1.81,0 -0.22,0 -0.12,0.16 -1,1 c -0.26,0.15 -0.31,0.56 -0.1,0.78 0.22,0.21 0.63,0.16 0.78,-0.1 l 0.85,-0.84 1.31,0 0,1.4 c 0,0.26 0.24,0.51 0.5,0.51 0.26,0 0.5,-0.25 0.5,-0.51 l 0,-1.71 0.69,-0.69 2.12,0 0.75,0.75 -1.4,1.31 c -0.26,0.15 -0.31,0.56 -0.1,0.78 0.22,0.21 0.63,0.16 0.78,-0.1 l 1.41,-1.3 1.41,1.3 c 0.15,0.26 0.56,0.31 0.78,0.1 0.21,-0.22 0.16,-0.63 -0.1,-0.78 l -3,-2.9 -0.12,-0.16 -0.22,0 -2,0 0,-3.5 c 0,-0.3 -0.3,-0.56 -0.59,-0.5 z"/>
</svg>
