<svg xmlns="http://www.w3.org/2000/svg" width="16" height="16" version="1">
 <defs>
  <style id="current-color-scheme" type="text/css">
   .ColorScheme-Text { color:#323a41; } .ColorScheme-Highlight { color:#4285f4; } .ColorScheme-NeutralText { color:#ff9800; } .ColorScheme-PositiveText { color:#4caf50; } .ColorScheme-NegativeText { color:#f44336; }
  </style>
 </defs>
 <path style="fill:currentColor" class="ColorScheme-Text" d="M 8,1 C 5.7909,1 4,2.7909 4,5 4,7.2091 5.7909,9 8,9 10.209,9 12,7.2091 12,5 12,2.7909 10.209,1 8,1 Z M 7,3 H 9 V 4 H 10 V 6 H 9 V 7 H 7 V 6 H 6 V 4 H 7 Z M 11.494,9.9941 C 11.045,9.9942 10.824,10.541 11.146,10.854 L 12.793,12.5 11.146,14.146 C 10.656,14.618 11.382,15.344 11.854,14.854 L 13.5,13.207 15.146,14.854 C 15.618,15.344 16.344,14.618 15.854,14.146 L 14.207,12.5 15.854,10.854 C 16.179,10.536 15.945,9.9836 15.49,9.9961 15.36,9.9997 15.237,10.054 15.146,10.146 L 13.5,11.793 11.854,10.146 C 11.759,10.049 11.63,9.9941 11.494,9.9941 Z M 8,10 C -4e-4,10.004 1,15 1,15 H 10.074 C 10.027,14.868 9.9921,14.729 9.9844,14.576 9.9636,14.169 10.149,13.718 10.453,13.426 L 11.379,12.5 10.451,11.572 C 10.055,11.189 9.9406,10.62 10.055,10.137 9.4308,10.055 8.7622,9.9996 8,10 Z"/>
</svg>
