<svg xmlns="http://www.w3.org/2000/svg" width="22" height="22" version="1.1">
 <defs>
  <style id="current-color-scheme" type="text/css">
   .ColorScheme-Text { color:#323a41; } .ColorScheme-Highlight { color:#4285f4; } .ColorScheme-NeutralText { color:#ff9800; } .ColorScheme-PositiveText { color:#4caf50; } .ColorScheme-NegativeText { color:#f44336; }
  </style>
 </defs>
 <rect style="fill:currentColor" class="ColorScheme-Text" width="7" height="2" x="3" y="17" rx=".538" ry=".5"/>
 <rect style="fill:currentColor;opacity:0.3" class="ColorScheme-Text" width="7" height="2" x="3" y="15" rx=".538" ry=".5"/>
 <rect style="fill:currentColor" class="ColorScheme-Text" width="7" height="2" x="3" y="13" rx=".538" ry=".5"/>
 <rect style="fill:currentColor;opacity:0.3" class="ColorScheme-Text" width="7" height="2" x="3" y="11" rx=".538" ry=".5"/>
 <rect style="fill:currentColor" class="ColorScheme-Text" width="7" height="2" x="3" y="9" rx=".538" ry=".5"/>
 <rect style="fill:currentColor;opacity:0.3" class="ColorScheme-Text" width="7" height="2" x="3" y="7" rx=".538" ry=".5"/>
 <rect style="fill:currentColor" class="ColorScheme-Text" width="7" height="2" x="3" y="5" rx=".538" ry=".5"/>
 <rect style="fill:currentColor;opacity:0.3" class="ColorScheme-Text" width="7" height="2" x="3" y="3" rx=".538" ry=".5"/>
 <rect style="fill:currentColor;opacity:0.3" class="ColorScheme-Text" width="7" height="2" x="12" y="17" rx=".538" ry=".5"/>
 <rect style="fill:currentColor" class="ColorScheme-Text" width="7" height="2" x="12" y="15" rx=".538" ry=".5"/>
 <rect style="fill:currentColor;opacity:0.3" class="ColorScheme-Text" width="7" height="2" x="12" y="13" rx=".538" ry=".5"/>
 <rect style="fill:currentColor" class="ColorScheme-Text" width="7" height="2" x="12" y="11" rx=".538" ry=".5"/>
</svg>
