<svg xmlns="http://www.w3.org/2000/svg" width="22" height="22" version="1.1">
 <defs>
  <style id="current-color-scheme" type="text/css">
   .ColorScheme-Text { color:#323a41; } .ColorScheme-Highlight { color:#4285f4; } .ColorScheme-NeutralText { color:#ff9800; } .ColorScheme-PositiveText { color:#4caf50; } .ColorScheme-NegativeText { color:#f44336; }
  </style>
 </defs>
 <g transform="translate(3,3)">
  <path style="fill:currentColor" class="ColorScheme-Text" d="M 1,3 V 13 H 5 V 3 Z M 11,3 V 13 H 15 V 3 Z M 6,6 V 10 H 7 V 9 H 9 V 10 H 10 V 6 H 9 V 7 H 7 V 6 Z"/>
 </g>
</svg>
