<svg xmlns="http://www.w3.org/2000/svg" width="22" height="22" version="1.1">
 <defs>
  <style id="current-color-scheme" type="text/css">
   .ColorScheme-Text { color:#323a41; } .ColorScheme-Highlight { color:#4285f4; } .ColorScheme-NeutralText { color:#ff9800; } .ColorScheme-PositiveText { color:#4caf50; } .ColorScheme-NegativeText { color:#f44336; }
  </style>
 </defs>
 <g transform="translate(3,3)">
  <path style="fill:currentColor" class="ColorScheme-Text" d="M 10,1 12,3 H 7 V 4 H 12 L 10,6 H 11.5 L 14,3.5 11.5,1 Z M 4.5,3 2,5.5 4.5,8 H 6 L 4,6 H 9 V 5 H 4 L 6,3 Z M 2,8 V 14 C 2,15 3,15 3,15 H 13 C 13,15 14,15 14,14 V 8 H 12 V 13 H 4 V 8 Z"/>
 </g>
</svg>
