<svg xmlns="http://www.w3.org/2000/svg" width="22" height="22" version="1.1">
 <defs>
  <style id="current-color-scheme" type="text/css">
   .ColorScheme-Text { color:#323a41; } .ColorScheme-Highlight { color:#4285f4; } .ColorScheme-NeutralText { color:#ff9800; } .ColorScheme-PositiveText { color:#4caf50; } .ColorScheme-NegativeText { color:#f44336; }
  </style>
 </defs>
 <g transform="translate(3,3)">
  <path style="fill:currentColor" class="ColorScheme-Text" d="M 3,0 C 2,0 2,1 2,1 V 9 C 2,10 3,10 3,10 H 13 C 13,10 14,10 14,9 V 1 C 14,0 13,0 13,0 Z M 6,3.5 9,6.5 10.5,5 12,6.5 V 8 H 4 V 5.5 Z M 5,12 8,16 11,12 Z"/>
 </g>
</svg>
