<svg xmlns="http://www.w3.org/2000/svg" width="22" height="22" version="1.1">
 <defs>
  <style id="current-color-scheme" type="text/css">
   .ColorScheme-Text { color:#323a41; } .ColorScheme-Highlight { color:#4285f4; } .ColorScheme-NeutralText { color:#ff9800; } .ColorScheme-PositiveText { color:#4caf50; } .ColorScheme-NegativeText { color:#f44336; }
  </style>
 </defs>
 <g transform="translate(3,3)">
  <path style="fill:currentColor" class="ColorScheme-Text" d="M 2,2 C 2,2 1,2 1,3 V 4 C 1,5 2,5 2,5 H 5 V 11 H 2 C 2,11 1,11 1,12 V 13 C 1,14 2,14 2,14 H 7 C 7,14 8,14 8,13 V 10 H 10 V 12 L 15,8 10,4 V 6 H 8 V 3 C 8,2 7,2 7,2 Z"/>
 </g>
</svg>
