<svg xmlns="http://www.w3.org/2000/svg" width="22" height="22" version="1.1">
 <defs>
  <style id="current-color-scheme" type="text/css">
   .ColorScheme-Text { color:#323a41; } .ColorScheme-Highlight { color:#4285f4; } .ColorScheme-NeutralText { color:#ff9800; } .ColorScheme-PositiveText { color:#4caf50; } .ColorScheme-NegativeText { color:#f44336; }
  </style>
 </defs>
 <path style="fill:currentColor" class="ColorScheme-Text" d="m 11,4 a 7,7 0 0 0 -7,7 7,7 0 0 0 7,7 7,7 0 0 0 7,-7 7,7 0 0 0 -0.771484,-3.175781 L 15.710938,9.341797 A 5,5 0 0 1 16,11 5,5 0 0 1 11,16 5,5 0 0 1 6,11 5,5 0 0 1 11,6 5,5 0 0 1 14.994141,8 L 16.419922,6.5761719 A 7,7 0 0 0 11,4 Z m 0,3 C 9.892,7 8.8929219,7.446922 8.1699219,8.169922 L 8.8769531,8.876953 C 9.4192031,8.334703 10.169,8 11,8 c 1.662,0 3,1.338 3,3 0,1.662 -1.338,3 -3,3 -1.662,0 -3,-1.338 -3,-3 0,-0.30185 0.056502,-0.586928 0.1386719,-0.861328 l -0.78125,-0.78125 C 7.1318319,9.859002 7,10.41251 7,11 c 0,2.216 1.784,4 4,4 2.216,0 4,-1.784 4,-4 0,-2.216 -1.784,-4 -4,-4 z m 0,2 c -1.1045695,0 -2,0.895431 -2,2 0,1.10457 0.8954305,2 2,2 0.911645,-4.31e-4 1.707636,-0.617304 1.935547,-1.5 H 11.863281 C 11.68514,11.808554 11.356285,11.999022 11,12 c -0.552285,0 -1,-0.447715 -1,-1 0,-0.552285 0.447715,-1 1,-1 0.356983,2.82e-4 0.686743,0.190844 0.865234,0.5 h 1.06836 C 12.705865,9.618007 11.910917,9.00132 11,9 Z"/>
</svg>
