<svg xmlns="http://www.w3.org/2000/svg" width="22" height="22" viewBox="0 0 22 22">
 <defs>
  <style id="current-color-scheme" type="text/css">
   .ColorScheme-Text { color:#323a41; } .ColorScheme-Highlight { color:#4285f4; } .ColorScheme-NeutralText { color:#ff9800; } .ColorScheme-PositiveText { color:#4caf50; } .ColorScheme-NegativeText { color:#f44336; }
  </style>
 </defs>
 <path style="fill:currentColor" class="ColorScheme-Text" d="M 0 1 L 0 15 L 15 15 L 15 1 L 0 1 z M 2 3 L 4 3 L 4 13 L 2 13 L 2 3 z M 5 3 L 7 3 L 7 13 L 5 13 L 5 3 z M 8 3 L 10 3 L 10 13 L 8 13 L 8 3 z M 11 3 L 13 3 L 13 13 L 11 13 L 11 3 z" transform="translate(3 3)"/>
</svg>
