<svg xmlns="http://www.w3.org/2000/svg" width="22" height="22" version="1.1">
 <defs>
  <style id="current-color-scheme" type="text/css">
   .ColorScheme-Text { color:#323a41; } .ColorScheme-Highlight { color:#4285f4; } .ColorScheme-NeutralText { color:#ff9800; } .ColorScheme-PositiveText { color:#4caf50; } .ColorScheme-NegativeText { color:#f44336; }
  </style>
 </defs>
 <g transform="translate(3,3)">
  <path style="fill:currentColor" class="ColorScheme-Text" d="M 10,10 V 16 H 15 V 10 Z M 11,12 H 12 V 13 H 11 Z M 13,12 H 14 V 13 H 13 Z M 11,14 H 12 V 15 H 11 Z M 13,14 H 14 V 15 H 13 Z M 5,10 V 12 H 9 V 10 Z M 3,1 C 1,1 1,3 1,3 V 15 H 9 V 13 H 3 V 6 H 7 V 4 H 3 V 3 H 13 V 7 H 7 V 9 H 15 V 3 C 15,3 15,1 13,1 Z"/>
 </g>
</svg>
