<svg xmlns="http://www.w3.org/2000/svg" width="22" height="22" version="1.1">
 <defs>
  <style id="current-color-scheme" type="text/css">
   .ColorScheme-Text { color:#323a41; } .ColorScheme-Highlight { color:#4285f4; } .ColorScheme-NeutralText { color:#ff9800; } .ColorScheme-PositiveText { color:#4caf50; } .ColorScheme-NegativeText { color:#f44336; }
  </style>
 </defs>
 <path style="opacity:0.3;fill:currentColor" class="ColorScheme-Text" d="M 11.5,3 C 10.378027,3 9.336832,3.3638673 8.46875,3.9882812 L 11,6.5195312 V 5 h 0.5 c 0.20775,0 0.39305,0.13292 0.46875,0.3125 l 2.875,2.84375 L 15.25,8.53125 14.8125,8.875 14.015625,9.535156 17,12.519531 V 9 C 17,5.676 14.547,3 11.5,3 Z M 6,3.5 4.5,5 6.3652344,6.8652344 C 6.1329301,7.5279779 6,8.2453479 6,9 v 4 c 0,3.324 2.453,6 5.5,6 1.855025,0 3.474814,-1.004688 4.46875,-2.53125 L 17,17.5 18.5,16 16.855469,14.355469 12.933594,10.433594 12.240234,9.740234 12,9.5 11,8.5 7.4472656,4.9472656 Z m 6,3.1875 V 7.5195312 L 13.326172,8.8457031 13.78125,8.46875 Z M 10.613281,11.113281 12,12.5 v 2.8125 l 1.40625,-1.40625 0.683594,0.683594 -2.121094,2.097656 c -0.0252,0.0599 -0.0798,0.11106 -0.125,0.15625 C 11.75335,16.93415 11.6385,17 11.5,17 H 11 V 12.0625 L 8.84375,13.84375 C 8.75325,13.93425 8.63807,14 8.5,14 H 8 v -0.5 c 0,-0.15322 0.079,-0.28328 0.1875,-0.375 z"/>
</svg>
