<svg xmlns="http://www.w3.org/2000/svg" width="22" height="22" version="1.1">
 <defs>
  <style id="current-color-scheme" type="text/css">
   .ColorScheme-Text { color:#323a41; } .ColorScheme-Highlight { color:#4285f4; } .ColorScheme-NeutralText { color:#ff9800; } .ColorScheme-PositiveText { color:#4caf50; } .ColorScheme-NegativeText { color:#f44336; }
  </style>
 </defs>
 <path style="fill:currentColor" class="ColorScheme-Text" d="M 6.8460479,3.0008999 C 5.3460806,3.0672352 3.6486616,4.9144931 3.1465717,7.4876519 3.0271146,8.1324101 3.0031726,8.6494895 2.9999998,9.2319574 c 0.0014,0.052914 0.00146,0.1049616 0.00391,0.1582181 0.2025066,5.2293355 4.463059,9.4525135 9.7089267,9.6044235 0.02675,0.0011 0.05151,0.0011 0.07817,0.002 0.343915,0.01344 0.735616,-0.01587 1.049454,-0.03711 3.126398,-0.30504 5.383977,-2.371319 5.141745,-4.09609 -1.532025,1.364752 -3.510614,2.134374 -5.575597,2.136874 -4.6419667,0 -8.4054131,-3.761553 -8.4054131,-8.4011839 9.724e-4,-2.0658088 0.7715022,-4.0459087 2.137996,-5.5786561 -0.096905,-0.01147 -0.1940677,-0.023915 -0.293144,-0.019533 z"/>
 <path style="fill:currentColor;opacity:0.3" class="ColorScheme-Text" d="M 8.0930475,3.1042529 7.5771142,3.8250241 C 6.5735507,5.1351283 6.0009332,6.7297714 5.9999999,8.3996751 v 0.00195 C 6.0004279,12.608495 9.3950622,16 13.604153,16 c 1.665272,-0.0022 3.257727,-0.568758 4.565228,-1.566555 l 0.699636,-0.550833 C 18.754772,13.71651 18.619694,13.554402 18.441027,13.406008 17.237006,12.405754 15.017764,11.69089 12.695407,9.3900031 10.245718,6.9622749 9.5492337,4.6620324 8.5229919,3.4753817 8.3892492,3.3207447 8.2431103,3.2042996 8.0930475,3.1042529 Z"/>
</svg>
