<svg xmlns="http://www.w3.org/2000/svg" width="22" height="22" version="1">
 <defs>
  <style id="current-color-scheme" type="text/css">
   .ColorScheme-Text { color:#323a41; } .ColorScheme-Highlight { color:#4285f4; } .ColorScheme-NeutralText { color:#ff9800; } .ColorScheme-PositiveText { color:#4caf50; } .ColorScheme-NegativeText { color:#f44336; }
  </style>
 </defs>
 <g transform="matrix(.73240 0 0 .73240 3 3)">
  <path style="fill:currentColor" class="ColorScheme-Text" d="m3.035 15.779c-1.679 0-3.035 1.359-3.035 3.033 0 1.676 1.356 3.033 3.035 3.033 1.675 0 3.032-1.357 3.032-3.033-0.001-1.674-1.357-3.033-3.032-3.033z"/>
  <path style="fill:currentColor" class="ColorScheme-Text" d="m0 0v3.62c9.817 0.197 17.741 8.238 17.741 18.104 0 0.041-0.002 0.083-0.002 0.122h3.623c0-0.041 0.003-0.081 0.003-0.122 0-11.861-9.552-21.527-21.365-21.724z"/>
  <path style="fill:currentColor" class="ColorScheme-Text" d="m0 7.255v3.622c5.815 0.194 10.486 4.981 10.486 10.847 0 0.041-0.001 0.083-0.004 0.122h3.623c0-0.039 0.004-0.081 0.004-0.122-0.001-7.861-6.297-14.272-14.109-14.469z"/>
 </g>
</svg>
