<svg xmlns="http://www.w3.org/2000/svg" width="22" height="22" version="1.1">
 <defs>
  <style id="current-color-scheme" type="text/css">
   .ColorScheme-Text { color:#323a41; } .ColorScheme-Highlight { color:#4285f4; } .ColorScheme-NeutralText { color:#ff9800; } .ColorScheme-PositiveText { color:#4caf50; } .ColorScheme-NegativeText { color:#f44336; }
  </style>
 </defs>
 <path style="fill:currentColor" class="ColorScheme-Text" d="M 16.435547 3 C 16.381727 3.00219 16.328163 3.0087203 16.275391 3.0195312 L 5.9765625 5.1894531 C 5.9667425 5.1925531 5.9569806 5.1958087 5.9472656 5.1992188 C 4.5107247 5.5456846 3.4983224 6.6303201 2.8164062 7.8769531 C 2.1344904 9.123486 1.7241851 10.586308 1.4550781 12.013672 C 1.2780766 12.952436 1.1822106 13.838429 1.1132812 14.669922 A 3 3 0 0 1 3 14 A 3 3 0 0 1 3.1816406 14.009766 C 3.4580086 11.390387 4.1610322 7.9960936 5.9726562 7.9960938 C 8.9200093 7.9960938 9 16.992187 9 16.992188 L 6 16.992188 A 3 3 0 0 1 6 17 A 3 3 0 0 1 5.2871094 18.943359 L 11.078125 19 C 11.152265 19.001 11.226284 18.993796 11.298828 18.978516 L 21.191406 16.849609 C 21.634904 16.754449 21.958795 16.372834 21.980469 15.919922 C 21.980469 15.919922 22.128042 12.946857 21.611328 9.8789062 C 21.352971 8.3449638 20.93849 6.7745224 20.177734 5.4746094 C 19.416979 4.1746964 18.181579 3.0986784 16.537109 3.0078125 C 16.503279 3.0060925 16.469379 3.0060925 16.435547 3.0078125 L 16.435547 3 z M 16.486328 5.0195312 C 17.328821 5.0895053 17.909406 5.5489562 18.451172 6.4746094 C 19.007797 7.4257531 19.403272 8.8054484 19.638672 10.203125 C 20.046607 12.625117 19.95382 14.459887 19.935547 15.068359 L 11.275391 16.929688 C 11.268692 14.427172 10.967762 8.410465 8.0625 6.7929688 L 16.486328 5.0195312 z M 13.539062 7 L 11.080078 7.2109375 L 11 7.3007812 L 12.181641 11.917969 L 12.294922 12 L 13.683594 11.933594 L 13.722656 11.792969 L 12.822266 8.3984375 L 13.984375 8.3222656 L 14 8.2246094 L 13.603516 7.0742188 L 13.539062 7 z"/>
 <path style="opacity:0.3;fill:currentColor" class="ColorScheme-Text" d="M 5.9726562 7.9960938 C 4.1610323 7.9960938 3.4580086 11.390231 3.1816406 14.009766 A 3 3 0 0 1 6 16.992188 L 9 16.992188 C 9 16.992188 8.9200092 7.9960938 5.9726562 7.9960938 z"/>
 <circle style="fill:currentColor" class="ColorScheme-Highlight" cx="3" cy="17" r="2"/>
</svg>
