<svg xmlns="http://www.w3.org/2000/svg" width="22" height="22" version="1.1">
 <defs>
  <style id="current-color-scheme" type="text/css">
   .ColorScheme-Text { color:#323a41; } .ColorScheme-Highlight { color:#4285f4; } .ColorScheme-NeutralText { color:#ff9800; } .ColorScheme-PositiveText { color:#4caf50; } .ColorScheme-NegativeText { color:#f44336; }
  </style>
 </defs>
 <path style="opacity:0.3;fill:currentColor" class="ColorScheme-Text" d="M 11,3 A 3,3 0 0 0 8,6 V 8 H 7 C 6.446,8 6,8.446 6,9 v 2 A 2,2 0 0 1 8,9 2,2 0 0 1 9.5,9.679688 2,2 0 0 1 11,9 2,2 0 0 1 12.5,9.679688 2,2 0 0 1 14,9 2,2 0 0 1 16,11 V 9 C 16,8.446 15.554,8 15,8 H 14 V 6 A 3,3 0 0 0 11,3 Z m 5,8 A 2,2 0 0 1 14,13 2,2 0 0 1 12.5,12.320313 2,2 0 0 1 11,13 2,2 0 0 1 9.5,12.320313 2,2 0 0 1 8,13 2,2 0 0 1 6,11 v 2 c 0,0.554 0.446,1 1,1 h 8 c 0.554,0 1,-0.446 1,-1 z M 11,5 c 0.575974,0 1,0.424026 1,1 V 8 H 10 V 6 c 0,-0.575974 0.424026,-1 1,-1 z m -1,10 v 1 H 8 v 1 2 h 6 v -2 -1 h -2 v -1 z m -6,2 c -0.554,0 -1,0.446 -1,1 0,0.554 0.446,1 1,1 h 3 v -2 z m 11,0 v 2 h 3 c 0.554,0 1,-0.446 1,-1 0,-0.554 -0.446,-1 -1,-1 z"/>
 <path style="fill:currentColor" class="ColorScheme-Text" d="m 8,10 a 1,1 0 0 0 -1,1 1,1 0 0 0 1,1 1,1 0 0 0 1,-1 1,1 0 0 0 -1,-1 z m 3,0 a 1,1 0 0 0 -1,1 1,1 0 0 0 1,1 1,1 0 0 0 1,-1 1,1 0 0 0 -1,-1 z m 3,0 a 1,1 0 0 0 -1,1 1,1 0 0 0 1,1 1,1 0 0 0 1,-1 1,1 0 0 0 -1,-1 z"/>
</svg>
