<svg xmlns="http://www.w3.org/2000/svg" width="22" height="22" version="1.1">
 <defs>
  <style id="current-color-scheme" type="text/css">
   .ColorScheme-Text { color:#323a41; } .ColorScheme-Highlight { color:#4285f4; } .ColorScheme-NeutralText { color:#ff9800; } .ColorScheme-PositiveText { color:#4caf50; } .ColorScheme-NegativeText { color:#f44336; }
  </style>
 </defs>
 <path style="fill:currentColor" class="ColorScheme-Text" d="m 6.0249899,4.0004759 v 0.00195 c -2.4887083,0 -4.3597989,2.0010688 -4.4906099,4.4804688 L 1.0362914,16.943508 c -0.3150264,1.85 1.482765,3.017141 2.9943906,0.994141 0.9425788,-1.279 2.9689984,-3.9375 2.9689984,-3.9375 l 8.0006696,0.04102 2.988531,4.021484 c 1.499025,2.012 3.186861,0.357874 2.996345,-1.003906 L 20.48909,8.5844603 c 7.84e-4,-0.034624 0.0098,-0.066745 0.0098,-0.1015625 -3e-5,-2.4824 -2.002332,-4.4824219 -4.490641,-4.4824219 z m -1.0254769,2 h 2.0001674 v 2 H 8.9998478 V 10.000476 H 6.9996804 v 2 H 4.999513 v -2 H 2.9993456 V 8.0004759 H 4.999513 Z m 11.000921,0 c 0.552331,4e-7 1.000083,0.4477155 1.000083,1 0,0.5522845 -0.447752,0.9999996 -1.000083,1 -0.552331,2e-7 -1.000084,-0.4477151 -1.000084,-1 0,-0.5522849 0.447753,-1.0000002 1.000084,-1 z m -2.000168,2 c 0.552331,-2e-7 1.000084,0.4477151 1.000084,1 0,0.552285 -0.447753,1.0000001 -1.000084,1.0000001 -0.552331,0 -1.000083,-0.4477155 -1.000083,-1.0000001 0,-0.5522845 0.447752,-0.9999996 1.000083,-1 z m 4.000335,0 c 0.552331,-2e-7 1.000084,0.4477151 1.000084,1 0,0.552285 -0.447753,1.0000001 -1.000084,1.0000001 -0.552331,0 -1.000084,-0.4477151 -1.000084,-1.0000001 0,-0.5522849 0.447753,-1.0000002 1.000084,-1 z m -2.000167,2.0000001 c 0.552331,10e-7 1.000083,0.447716 1.000083,1 0,0.552284 -0.447752,1 -1.000083,1 -0.552331,0 -1.000084,-0.447715 -1.000084,-1 0,-0.552285 0.447753,-1 1.000084,-1 z"/>
</svg>
