<svg xmlns="http://www.w3.org/2000/svg" width="22" height="22" version="1.1">
 <defs>
  <style id="current-color-scheme" type="text/css">
   .ColorScheme-Text { color:#323a41; } .ColorScheme-Highlight { color:#4285f4; } .ColorScheme-NeutralText { color:#ff9800; } .ColorScheme-PositiveText { color:#4caf50; } .ColorScheme-NegativeText { color:#f44336; }
  </style>
 </defs>
 <path style="fill:currentColor" class="ColorScheme-Text" d="M 11 3 C 6.568 3 3 6.568 3 11 C 3 15.432 6.568 19 11 19 C 12.460633 19 13.823841 18.606008 15 17.927734 L 15 15.462891 A 6 6 0 0 1 11 17 A 6 6 0 0 1 5 11 A 6 6 0 0 1 11 5 A 6 6 0 0 1 17 11 A 6 6 0 0 1 16.634766 13.039062 C 16.743811 13.018408 16.854622 13.001774 16.96875 13 C 17.604982 12.990101 18.117048 13.328633 18.492188 13.794922 C 18.815345 12.924527 19 11.985585 19 11 C 19 6.568 15.432 3 11 3 z M 13.5 6.9980469 L 9 7.0019531 L 9 11.095703 C 8.84 11.035703 8.68 11 8.5 11 C 7.6716 11 7 11.6716 7 12.5 C 7 13.3284 7.6716 14 8.5 14 C 9.3284 14 10 13.3284 10 12.5 L 10 9 L 13 9 L 13 11.09375 C 12.84 11.03375 12.68 10.998047 12.5 10.998047 C 11.6716 10.998047 11 11.669647 11 12.498047 C 11 13.326447 11.6716 13.998047 12.5 13.998047 C 13.3284 13.998047 14 13.326447 14 12.498047 L 14 6.9980469 L 13.5 6.9980469 z M 16.984375 14 A 1.0001 0.99544853 0 0 0 16 15.009766 L 16 18.990234 A 1.0001 0.99544853 0 1 0 18 18.990234 L 18 15.009766 A 1.0001 0.99544853 0 0 0 16.984375 14 z M 19.984375 14 A 1.0001 0.99544853 0 0 0 19 15.009766 L 19 18.990234 A 1.0001 0.99544853 0 1 0 21 18.990234 L 21 15.009766 A 1.0001 0.99544853 0 0 0 19.984375 14 z"/>
</svg>
