<svg xmlns="http://www.w3.org/2000/svg" width="22" height="22" version="1.1">
 <defs>
  <style id="current-color-scheme" type="text/css">
   .ColorScheme-Text { color:#323a41; } .ColorScheme-Highlight { color:#4285f4; } .ColorScheme-NeutralText { color:#ff9800; } .ColorScheme-PositiveText { color:#4caf50; } .ColorScheme-NegativeText { color:#f44336; }
  </style>
 </defs>
 <g transform="translate(-545 -933.27)">
  <path style="fill:currentColor" class="ColorScheme-Text" d="m556 936.27c-2.8404 0-5.1429 2.3091-5.1429 5.1557 0 1.6879 0.79443 3.1613 2.0411 4.1014 0.57344 0.43406 1.0479 0.99321 1.0479 1.7646l0.0539 0.97822h4l0.0571-0.97822c0.045-0.77013 0.4722-1.3306 1.0446-1.7646 1.2477-0.94012 2.0411-2.4135 2.0411-4.1014 0-2.8466-2.3024-5.1557-5.1429-5.1557zm0 2.0604c1.7033 0 3.0857 1.3895 3.0857 3.0954 0 0.97457-0.4438 1.8715-1.2214 2.4557-1.1602 0.87789-1.5999 1.8586-1.7614 2.6743h-0.2057c-0.16047-0.81566-0.60069-1.7964-1.7614-2.6743-0.77554-0.58474-1.2214-1.4816-1.2214-2.4557 0-1.7059 1.3829-3.0954 3.0857-3.0954zm-2 10.94v1h4v-1zm1 2v1h2v-1z"/>
 </g>
</svg>
