<svg xmlns="http://www.w3.org/2000/svg" width="22" height="22" version="1.1">
 <defs>
  <style id="current-color-scheme" type="text/css">
   .ColorScheme-Text { color:#323a41; } .ColorScheme-Highlight { color:#4285f4; } .ColorScheme-NeutralText { color:#ff9800; } .ColorScheme-PositiveText { color:#4caf50; } .ColorScheme-NegativeText { color:#f44336; }
  </style>
 </defs>
 <path style="fill:currentColor" class="ColorScheme-Text" d="M 11.851562 3 C 11.291666 2.98828 10.728516 3.1503914 10.259766 3.4589844 C 9.7923176 3.7662764 9.4192703 4.216146 9.2070312 4.734375 C 8.9947872 5.253906 8.944011 5.8365876 9.0625 6.3847656 C 9.18099 6.9316406 9.4674482 7.4420569 9.875 7.8261719 C 9.6679692 7.4850259 9.5611988 7.0813796 9.5742188 6.6816406 C 9.5859388 6.2819006 9.7174477 5.8860676 9.9453125 5.5566406 C 10.173178 5.2285156 10.497396 4.9694014 10.867188 4.8183594 C 12.090201 4.4008214 13.02255 4.9218597 13.4375 6 L 18.851562 6 L 14.351562 4.6660156 C 14.13802 4.1816406 13.782552 3.761719 13.34375 3.46875 C 12.903645 3.175781 12.380208 3.01042 11.851562 3 z M 4 4 C 3.3593749 4.6698897 2.992188 5.5989423 3 6.53125 C 3.0078 7.4767447 3.4023434 8.4135591 4.0703125 9.0742188 C 4.1739185 9.1766906 4.2947613 9.2572721 4.4101562 9.3457031 L 3.5 9.0644531 C 3.326823 9.7343428 3.3802085 10.460732 3.6484375 11.097656 C 3.9179695 11.73326 4.401042 12.272478 5 12.607422 C 5.457031 12.863246 5.9778648 13 6.5 13 C 7.022135 13 7.542969 12.863246 8 12.607422 C 7.579427 12.645662 7.1503909 12.575723 6.7636719 12.404297 C 6.3769539 12.234188 6.0332026 11.962582 5.7753906 11.625 C 5.4785156 11.23467 5.2955725 10.756174 5.2578125 10.265625 L 10 11.089844 L 5.6816406 9.7441406 C 5.5250686 9.6424071 5.377571 9.5278674 5.25 9.390625 C 4.894531 9.0095262 4.6731765 8.5026675 4.6328125 7.9804688 C 4.5950525 7.4740952 4.726563 6.9558656 5 6.53125 L 10.5 9.5703125 L 4 4 z M 13.003906 7.171875 C 12.72617 7.5002258 12.544731 7.9082967 12.486328 8.3339844 C 12.431818 8.7363116 12.48342 9.1471182 12.589844 9.5390625 C 12.696266 9.9297104 12.85598 10.306568 13.011719 10.681641 C 13.167459 11.056713 13.322598 11.43293 13.423828 11.826172 C 13.523758 12.219414 13.569426 12.633471 13.501953 13.033203 C 13.389042 13.702883 12.961066 14.299449 12.404297 14.6875 C 11.847528 15.075551 11.169655 15.26642 10.492188 15.310547 C 9.6369184 15.366357 8.7683146 15.192764 8 14.8125 L 8.0195312 18.800781 L 9.015625 16.816406 C 10.332923 17.201861 11.807243 17.013315 12.984375 16.308594 C 13.57878 15.952988 14.099499 15.468121 14.462891 14.878906 C 14.827581 14.289692 15.028539 13.594743 14.996094 12.904297 C 14.949374 11.919245 14.446994 11.02257 13.966797 10.162109 C 13.485302 9.301648 13.002583 8.3886926 12.996094 7.4023438 C 12.996094 7.3257747 12.998706 7.2484471 13.003906 7.171875 z"/>
</svg>
