<svg xmlns="http://www.w3.org/2000/svg" width="22" height="22" version="1.1">
 <defs>
  <style id="current-color-scheme" type="text/css">
   .ColorScheme-Text { color:#323a41; } .ColorScheme-Highlight { color:#4285f4; } .ColorScheme-NeutralText { color:#ff9800; } .ColorScheme-PositiveText { color:#4caf50; } .ColorScheme-NegativeText { color:#f44336; }
  </style>
 </defs>
 <path style="fill:currentColor" class="ColorScheme-Text" d="M 11.091797 3 C 8.7700662 2.9752717 6.4799777 3.9611611 4.9003906 5.8203125 C 2.4934006 8.653305 2.3596364 12.785192 4.5761719 15.769531 C 6.7927074 18.753871 10.789283 19.819241 14.197266 18.333984 C 17.605249 16.848727 19.542717 13.198054 18.865234 9.5429688 C 18.679854 8.1528364 16.576367 8.5417525 16.900391 9.90625 C 17.410252 12.657001 15.96127 15.382222 13.396484 16.5 C 10.8317 17.617777 7.8497648 16.824085 6.1816406 14.578125 C 4.5135161 12.332165 4.6143244 9.2472931 6.4257812 7.1152344 C 8.2372383 4.9831757 11.265771 4.3848521 13.751953 5.6679688 C 14.946802 6.3112706 15.886218 4.4923994 14.669922 3.890625 C 13.844038 3.4643867 12.970445 3.1945718 12.087891 3.0742188 C 11.756932 3.0290863 11.423473 3.0035326 11.091797 3 z M 9.7480469 8 A 0.73085587 0.79027464 0 0 0 9 8.7929688 L 9 13.208984 A 0.73085587 0.79027464 0 0 0 10.095703 13.894531 L 13.634766 11.685547 A 0.73085587 0.79027464 0 0 0 13.634766 10.316406 L 10.095703 8.1054688 A 0.73085587 0.79027464 0 0 0 9.7480469 8 z"/>
</svg>
