<svg xmlns="http://www.w3.org/2000/svg" width="22" height="22" version="1.1">
 <defs>
  <style id="current-color-scheme" type="text/css">
   .ColorScheme-Text { color:#323a41; } .ColorScheme-Highlight { color:#4285f4; } .ColorScheme-NeutralText { color:#ff9800; } .ColorScheme-PositiveText { color:#4caf50; } .ColorScheme-NegativeText { color:#f44336; }
  </style>
 </defs>
 <path fill-rule="evenodd" style="fill:currentColor" class="ColorScheme-Text" d="m6.4062 3.9874c-0.25562 0-0.52288 0.085381-0.71875 0.28125l-1.4062 1.4062c-0.39174 0.39174-0.39174 1.0458 0 1.4375l0.875 0.875h5.6875l-3.7188-3.7188c-0.1959-0.1959-0.46305-0.28125-0.71875-0.28125zm9.1875 0c-0.26144 0-0.52288 0.085381-0.71875 0.28125l-3.7188 3.7188h5.6875l0.875-0.875c0.39174-0.39174 0.39174-1.0458 0-1.4375l-1.4062-1.4062c-0.19587-0.19587-0.45731-0.28125-0.71875-0.28125zm-8.1155 4.5079a0.50005 0.50005 0 0 0 -0.4785 0.4921v1.5 2a0.50005 0.50005 0 1 0 1 0v-1.5h1v1.5a0.50005 0.50005 0 1 0 1 0v-2a0.50005 0.50005 0 0 0 -0.5 -0.4996h-1.5v-1a0.50005 0.50005 0 0 0 -0.5215 -0.4921zm11 0a0.50005 0.50005 0 0 0 -0.478 0.4921v1h-0.5a0.50005 0.50005 0 0 0 0 1h0.5v1.5a0.50005 0.50005 0 0 0 0.5 0.5h1.5a0.50005 0.50005 0 1 0 0 -1h-1v-1h1a0.50005 0.50005 0 1 0 0 -1h-1v-1a0.50005 0.50005 0 0 0 -0.521 -0.4917zm-15.978 1.4921a0.50005 0.50005 0 0 0 -0.5 0.4996v2a0.50005 0.50005 0 0 0 0.5 0.5h2a0.50005 0.50005 0 1 0 0 -1h-1.5v-1h1.5a0.50005 0.50005 0 1 0 0 -1h-2zm10 0a0.50005 0.50005 0 0 0 -0.5 0.4996v2a0.50005 0.50005 0 0 0 0.5 0.5h0.75a0.50005 0.50005 0 1 0 0 -1h-0.25v-1h1v1.5a0.50005 0.50005 0 1 0 1 0v-2a0.50005 0.50005 0 0 0 -0.5 -0.4996h-2zm-7.3438 4-0.875 0.875c-0.39174 0.39174-0.39174 1.0458 0 1.4375l1.4062 1.4062c0.39174 0.39174 1.0458 0.39174 1.4375 0l3.7188-3.7187h-5.6875zm6 0 3.7188 3.7187c0.39174 0.39174 1.0458 0.39174 1.4375 0l1.4062-1.4062c0.39174-0.39174 0.39174-1.0458 0-1.4375l-0.875-0.875h-5.6875z"/>
</svg>
