<svg xmlns="http://www.w3.org/2000/svg" width="22" height="22" version="1">
 <defs>
  <style id="current-color-scheme" type="text/css">
   .ColorScheme-Text { color:#323a41; } .ColorScheme-Highlight { color:#4285f4; } .ColorScheme-NeutralText { color:#ff9800; } .ColorScheme-PositiveText { color:#4caf50; } .ColorScheme-NegativeText { color:#f44336; }
  </style>
 </defs>
 <path style="fill:currentColor" class="ColorScheme-Text" d="m 10.091993,5.0465707 c -3.5555565,0 -2.7283825,3.24817 -4.5488294,4.226563 -0.062744,0.0356 -0.098024,0.06839 -0.1542969,0.103515 1.2005478,-0.714589 2.6803078,-1.312067 4.2519528,-1.716797 1.3309085,-0.342378 2.6808405,-0.534458 3.9257815,-0.558593 0.03199,-1.14e-4 0.0639,-1.14e-4 0.0957,0 -1.20058,-0.3411657 -1.331857,-2.054688 -3.570308,-2.054688 z"/>
 <path style="fill:currentColor" class="ColorScheme-Text" d="m 13.966992,8.0016487 c -1.244941,0.02414 -2.594873,0.216215 -3.925781,0.558594 -4.3864738,1.128761 -7.5126424,3.5833483 -6.9824225,5.4824213 0.3055214,1.085203 1.7775692,1.801316 3.970703,1.931641 -10e-4,-0.0082 -0.003,-0.01523 -0.0039,-0.02344 -0.118387,-1.026756 0.533079,-1.919941 1.296875,-2.525392 0.763796,-0.605453 1.7462705,-1.045085 2.8496105,-1.279297 1.10334,-0.234211 2.136414,-0.222891 2.999999,0.03711 0.811893,0.244438 1.575746,0.777805 1.763672,1.69336 2.198075,-1.232334 3.338167,-2.718164 3.007816,-3.9199183 -0.349958,-1.258197 -2.258558,-2.008004 -4.976562,-1.955079 z"/>
 <path style="opacity:0.3;fill:currentColor" class="ColorScheme-Text" d="m 12.662305,12.999695 a 1.8585774,3.5769585 76.001371 0 0 -1.376953,0.142578 1.8585774,3.5769585 76.001371 0 0 -3.2792975,2.599611 1.8585774,3.5769585 76.001371 0 0 3.7089845,1.115234 1.8585774,3.5769585 76.001371 0 0 3.277344,-2.599611 1.8585774,3.5769585 76.001371 0 0 -2.330078,-1.257812 z"/>
</svg>
