<svg xmlns="http://www.w3.org/2000/svg" width="16" height="16" version="1">
 <path style="fill:#ffa50c" d="M 8,1 C 4.122,1 1,4.122 1,8 c 0,3.878 3.122,7 7,7 3.878,0 7,-3.122 7,-7 C 15,4.122 11.878,1 8,1 Z"/>
 <ellipse style="fill:#ff6843" cx="12.5" cy="-9.25" rx="1.5" ry="1.75" transform="scale(1,-1)"/>
 <path style="fill:#17191e" d="m 7,6.0115401 c 0,0.5522847 -0.4477153,0 -1,0 -0.5522847,0 -1,0.5522847 -1,0 0,-0.5522847 0.4477153,-1 1,-1 0.5522847,0 1,0.4477153 1,1 z"/>
 <path style="fill:#17191e" d="m 11,6.0115401 c 0,0.5522847 -0.447715,0 -1,0 -0.5522847,0 -1,0.5522847 -1,0 0,-0.5522847 0.4477153,-1 1,-1 0.552285,0 1,0.4477153 1,1 z"/>
 <ellipse style="fill:#ff6843" cx="3.5" cy="-9.25" rx="1.5" ry="1.75" transform="scale(1,-1)"/>
 <path style="fill:none;stroke:#17191e;stroke-width:1px;stroke-linecap:round" d="m 6.5,11.49995 h 3"/>
</svg>
