<svg xmlns="http://www.w3.org/2000/svg" width="16" height="16" version="1">
 <path style="fill:#ffa50c" d="M 8,1 C 4.122,1 1,4.122 1,8 c 0,3.878 3.122,7 7,7 3.878,0 7,-3.122 7,-7 C 15,4.122 11.878,1 8,1 Z"/>
 <path style="fill:none;stroke:#17191e;stroke-linecap:round;stroke-linejoin:round" d="m 5.55,11.497572 4.9,-1.7500003"/>
 <circle style="fill:#17191e" cx="5" cy="6" r="1"/>
 <circle style="fill:#17191e" cx="11" cy="6" r="1"/>
</svg>
