<svg width="48" height="48" version="1.1" xmlns="http://www.w3.org/2000/svg">
 <rect x="4" y="5" width="40" height="40" rx="3" ry="3.0000002" style="opacity:.2"/>
 <rect x="4.0000014" y="3.9999998" width="40" height="40" rx="3" ry="3.0000002" style="fill:#3f3f3f"/>
 <path d="m9 18v11h6v-11zm18 0-11 11h5v6h6zm6.5 0a5.5 5.5 0 0 0-5.5 5.5 5.5 5.5 0 0 0 5.5 5.5 5.5 5.5 0 0 0 5.5-5.5 5.5 5.5 0 0 0-5.5-5.5z" style="opacity:.2"/>
 <path d="m9 17v11h6v-11h-6zm18 0-11 11h5v6h6v-17zm6.5 0a5.5 5.5 0 0 0-5.5 5.5 5.5 5.5 0 0 0 5.5 5.5 5.5 5.5 0 0 0 5.5-5.5 5.5 5.5 0 0 0-5.5-5.5z" style="fill:#f4f4f7"/>
 <path d="m7 4c-1.662 0-3 1.3379999-3 3v1c0-1.6620001 1.338-3 3-3h34c1.662 0 3 1.3379999 3 3v-1c0-1.6620001-1.338-3-3-3h-34z" style="fill:#f4f4f7;opacity:.1"/>
</svg>
