<svg width="48" height="48" version="1.1" xmlns="http://www.w3.org/2000/svg">
 <rect x="4" y="5" width="40" height="40" rx="2" ry="2" style="opacity:.2"/>
 <path d="m4 9v33l40-7v-19l-40-7z" style="fill:#40c412"/>
 <path d="m6 4c-1.108 0-2 0.892-2 2v3.1660156l40 6.6679684v-9.833984c0-1.108-0.892-2-2-2h-36z" style="fill:#fbc72b"/>
 <path d="m44 35-40 7c0 1.108 0.892 2 2 2h36c1.108 0 2-0.892 2-2v-7z" style="fill:#80d511"/>
 <path d="M 4,8.986328 V 11 l 39.828125,6.970703 A 1.0001,1.0001 0 0 0 44,17.992187 V 15.972656 L 4.171875,9.001953 A 1.0001,1.0001 0 0 0 4,8.986328 Z m 39.996094,25.998047 a 1.0001,1.0001 0 0 0 -0.167969,0.01758 L 4,41.972656 v 2.019531 a 1.0001,1.0001 0 0 0 0.171875,-0.02148 L 44,37 v -2.015625 a 1.0001,1.0001 0 0 0 -0.0039,0 z" style="opacity:.2"/>
 <path d="m4 8v2.013672l39.828125 6.970703a1.0001 1.0001 0 0 0 0.171875 0.021484v-2.019531l-39.828125-6.970703a1.0001 1.0001 0 0 0-0.171875-0.015625zm39.996094 25.998047a1.0001 1.0001 0 0 0-0.167969 0.017578l-39.828125 6.970703v2.019531a1.0001 1.0001 0 0 0 0.171875-0.021484l39.828125-6.970703v-2.015625a1.0001 1.0001 0 0 0-0.003906 0z" style="fill:#f4f4f7"/>
 <path d="m22 38h4l1-12 5-2h1l1-7-1-4-5-4h-7l-5 3-2 4 1 8 6 2z" style="fill:#1ca3f4"/>
 <path d="m24 8.9863281c-3.678571 0-6.283754 1.0079632-7.996094 2.6132809-1.712339 1.605318-2.475894 3.727409-2.746094 5.753907-0.540399 4.052995 0.792969 7.949218 0.792969 7.949218 0.133931 0.401701 0.506325 0.67552 0.929688 0.683594 0 0 1.277941 0.02702 2.599609 0.271484 0.660834 0.122234 1.326629 0.303778 1.792969 0.521485s0.652954 0.449095 0.677734 0.523437c0.405132 1.215395 0.702463 4.257588 0.826172 6.855469 0.123709 2.597882 0.123047 3.841797 0.123047 3.841797 5.5e-5 0.552262 0.447738 0.999945 1 1h4c0.552262-5.5e-5 0.999945-0.447738 1-1 0 0-6.62e-4 -1.243915 0.123047-3.841797 0.123709-2.597881 0.42104-5.640074 0.826172-6.855469 0.02478-0.07434 0.211394-0.30573 0.677734-0.523437s1.132135-0.399251 1.792969-0.521485c1.321668-0.244466 2.599609-0.271484 2.599609-0.271484 0.423363-0.0081 0.795757-0.281893 0.929688-0.683594 0 0 1.333368-3.896223 0.792969-7.949218-0.2702-2.026498-1.033755-4.148589-2.746094-5.753907-1.71234-1.6053177-4.317523-2.6132809-7.996094-2.6132809zm0 1.9999999c3.321429 0 5.341246 0.867037 6.628906 2.074219 1.287661 1.207182 1.899106 2.835091 2.128906 4.558594 0.397667 2.982496-0.336197 5.667755-0.564453 6.449218-0.484464 0.02172-1.027434 0.01711-2.138671 0.222657-0.76011 0.140596-1.555485 0.34061-2.273438 0.675781s-1.439021 0.828783-1.730469 1.703125c-0.594868 1.784605-0.797537 4.742413-0.923828 7.394531-0.100632 2.113281-0.09745 2.262532-0.101562 2.935547h-2.050782c-0.0041-0.673015-9.3e-4 -0.822266-0.101562-2.935547-0.126291-2.652118-0.32896-5.609926-0.923828-7.394531-0.291448-0.874342-1.012516-1.367954-1.730469-1.703125s-1.513328-0.535185-2.273438-0.675781c-1.111237-0.205544-1.654207-0.20094-2.138671-0.222657-0.228256-0.781463-0.96212-3.466722-0.564453-6.449218 0.2298-1.723503 0.841245-3.351412 2.128906-4.558594 1.28766-1.207182 3.307477-2.074219 6.628906-2.074219z" style="opacity:.2"/>
 <path d="m15 24s5.367544 0.102633 6 2c1 3 1 12 1 12h4s0-9 1-12c0.632456-1.897367 6-2 6-2s5-15-9-15-9 15-9 15z" style="fill:none;stroke-linecap:round;stroke-linejoin:round;stroke-width:2;stroke:#f4f4f7"/>
 <path d="m6 4c-1.108 0-2 0.892-2 2v1c0-1.108 0.892-2 2-2h36c1.108 0 2 0.892 2 2v-1c0-1.108-0.892-2-2-2h-36z" style="fill:#f4f4f7;opacity:.2"/>
</svg>
