<svg xmlns="http://www.w3.org/2000/svg" width="48" height="48" version="1.1">
 <rect style="fill:#2c9bff" width="40" height="40" x="4" y="4" rx="2" ry="2"/>
 <path style="opacity:0.2;fill:#f4f4f7" d="M 6,4 C 4.892,4 4,4.892 4,6 V 7 C 4,5.892 4.892,5 6,5 h 36 c 1.108,0 2,0.892 2,2 V 6 C 44,4.892 43.108,4 42,4 Z"/>
 <path style="opacity:0.2" d="M 6,45 C 4.892,45 4,44.108 4,43 v -1 c 0,1.108 0.892,2 2,2 h 36 c 1.108,0 2,-0.892 2,-2 v 1 c 0,1.108 -0.892,2 -2,2 z"/>
 <path style="opacity:0.2" d="M 26.028,8.0004 21,8.4973 v 21.282 l 5,-0.779 v -9 l 7,10 5.943,-2 -7.943,-9 8,-9 -6,-2 -7,10 v -10 z"/>
 <path style="opacity:0.2" d="m 14.701,14.002 c -0.0615,0.0075 -0.12733,0.02186 -0.17383,0.06836 l -2.1328,2.1191 c -0.08948,0.08925 -0.09898,0.22403 -0.0332,0.33203 l 2.2676,3.7207 c -0.53334,0.86612 -0.9446,1.8131 -1.2227,2.8164 l -4.1855,0.86328 c -0.1271,0.026 -0.2205,0.148 -0.2205,0.278 v 2.9922 c 0,0.12675 0.097403,0.23442 0.2207,0.26367 l 4.0586,0.97852 c 0.25531,1.1288 0.68686,2.1887 1.2598,3.1562 l -2.3652,3.5762 c -0.0717,0.10875 -0.05731,0.25345 0.03516,0.3457 l 2.1309,2.1172 c 0.09,0.08925 0.22989,0.10041 0.33789,0.03516 l 3.6934,-2.2266 c 0.9117,0.54494 1.9071,0.96098 2.9648,1.2246 l 0.86133,4.1191 c 0.027,0.127 0.135,0.219 0.266,0.219 h 3.0137 c 0.126,0 0.23563,-0.08478 0.26563,-0.20703 l 1.0234,-4.1445 c 1.0661,-0.27618 2.0598,-0.72303 2.9746,-1.2852 l 3.709,2.4141 c 0.1095,0.0705 0.2527,0.05755 0.3457,-0.0332 l 2.1211,-2.1172 c 0.09,-0.08925 0.11092,-0.22673 0.04492,-0.33398 l -1.4473,-2.3711 -0.47461,0.15039 c -0.069,0.021 -0.14505,-0.01106 -0.18555,-0.07031 0,0 -0.4496,-0.60826 -0.80664,-1.0918 -0.16655,-0.25344 -0.97368,-1.4388 -1.8066,-2.5254 -1.314,2.814 -4.137,4.613 -7.241,4.616 -4.4183,0 -8,-3.5817 -8,-8 0.0029,-3.0337 1.4205,-5.7296 4,-7.0803 v -3.2342 c -0.55787,0.20737 -0.92465,0.46281 -1.4355,0.75391 l -3.6914,-2.4004 c -0.05475,-0.036 -0.11113,-0.04311 -0.17188,-0.03711 z"/>
 <path style="fill:#f4f4f7" d="M 26.028,7.0004 21,7.4973 v 21.282 l 5,-0.779 v -9 l 7,10 5.943,-2 -7.943,-9 8,-9 -6,-2 -7,10 v -10 z"/>
 <path style="fill:#f4f4f7" d="m 14.701,13.002 c -0.0615,0.0075 -0.12733,0.02186 -0.17383,0.06836 l -2.1328,2.1191 c -0.08948,0.08925 -0.09898,0.22403 -0.0332,0.33203 l 2.2676,3.7207 c -0.53334,0.86612 -0.9446,1.8131 -1.2227,2.8164 l -4.1855,0.86328 c -0.1271,0.026 -0.2205,0.148 -0.2205,0.278 v 2.9922 c 0,0.12675 0.097403,0.23442 0.2207,0.26367 l 4.0586,0.97852 c 0.25531,1.1288 0.68686,2.1887 1.2598,3.1562 l -2.3652,3.5762 c -0.0717,0.10875 -0.05731,0.25345 0.03516,0.3457 l 2.1309,2.1172 c 0.09,0.08925 0.22989,0.10041 0.33789,0.03516 l 3.6934,-2.2266 c 0.9117,0.54494 1.9071,0.96098 2.9648,1.2246 l 0.86133,4.1191 c 0.027,0.127 0.135,0.219 0.266,0.219 h 3.0137 c 0.126,0 0.23563,-0.08478 0.26563,-0.20703 l 1.0234,-4.1445 c 1.0661,-0.27618 2.0598,-0.72303 2.9746,-1.2852 l 3.709,2.4141 c 0.1095,0.0705 0.2527,0.05755 0.3457,-0.0332 l 2.1211,-2.1172 c 0.09,-0.08925 0.11092,-0.22673 0.04492,-0.33398 l -1.4473,-2.3711 -0.47461,0.15039 c -0.069,0.021 -0.14505,-0.01106 -0.18555,-0.07031 0,0 -0.4496,-0.60826 -0.80664,-1.0918 -0.16655,-0.25344 -0.97368,-1.4388 -1.8066,-2.5254 -1.314,2.814 -4.137,4.613 -7.241,4.616 -4.4183,0 -8,-3.5817 -8,-8 0.0029,-3.0337 1.4205,-5.7296 4,-7.0803 v -3.2342 c -0.55787,0.20737 -0.92465,0.46281 -1.4355,0.75391 l -3.6914,-2.4004 c -0.05475,-0.036 -0.11113,-0.04311 -0.17188,-0.03711 z"/>
</svg>
