<svg xmlns="http://www.w3.org/2000/svg" xmlns:xlink="http://www.w3.org/1999/xlink" width="48" height="48" version="1">
 <path style="opacity:0.2" d="m 24.108302,5.000997 a 4.5656761,4.5479 0 0 0 -2.39104,0.6067 l -13.434224,7.726 A 4.5656761,4.5479 0 0 0 6,17.272697 v 15.453 a 4.5656761,4.5479 0 0 0 2.282838,3.9386 l 13.434224,7.7264 a 4.5656761,4.5479 0 0 0 4.565676,0 l 13.434224,-7.7264 A 4.5656761,4.5479 0 0 0 42,32.725297 v -15.453 a 4.5656761,4.5479 0 0 0 -2.283038,-3.939 l -13.434224,-7.726 a 4.5656761,4.5479 0 0 0 -2.175036,-0.6067 z"/>
 <path style="fill:#413e4d" d="M 24.107422 4 L 24.107422 4.0019531 A 4.5656761 4.5479 0 0 0 21.716797 4.6074219 L 8.2832031 12.333984 A 4.5656761 4.5479 0 0 0 6 16.273438 L 6 31.726562 A 4.5656761 4.5479 0 0 0 8.2832031 35.664062 L 21.716797 43.390625 A 4.5656761 4.5479 0 0 0 26.283203 43.390625 L 39.716797 35.664062 A 4.5656761 4.5479 0 0 0 42 31.726562 L 42 16.273438 A 4.5656761 4.5479 0 0 0 39.716797 12.333984 L 26.283203 4.6074219 A 4.5656761 4.5479 0 0 0 24.107422 4 z"/>
 <path style="opacity:0.1;fill:#f4f4f7" d="m 24.106698,4.002 a 4.5655239,4.5479 0 0 0 -2.38996,0.6054 L 8.2829619,12.334 A 4.5655239,4.5479 0 0 0 6,16.273 v 1 A 4.5655239,4.5479 0 0 1 8.2831619,13.334 L 21.716938,5.6074 a 4.5655239,4.5479 0 0 1 2.39056,-0.60547 4.5655239,4.5479 0 0 1 2.175764,0.60547 L 39.717038,13.334 A 4.5655239,4.5479 0 0 1 42,17.273 v -1 A 4.5655239,4.5479 0 0 0 39.717038,12.334 L 26.283262,4.6074 A 4.5655239,4.5479 0 0 0 24.107298,4.002 Z"/>
 <path style="opacity:0.2" d="m 27.150185,36.953462 c 0,-0.0313 0.2159,-0.1312 0.47978,-0.22206 0.31063,-0.10695 0.50765,-0.22866 0.55883,-0.34523 0.0435,-0.099 0.32509,-0.32211 0.6258,-0.49576 0.30071,-0.17365 0.8222,-0.4996 1.15887,-0.72434 0.52786,-0.35235 0.60548,-0.4351 0.56382,-0.60111 -0.0321,-0.12773 -0.006,-0.20859 0.0763,-0.2403 0.15092,-0.0579 0.16589,-0.22006 0.0203,-0.21956 -0.0574,1.6e-4 -0.27326,0.11485 -0.47978,0.2548 -0.51948,0.35203 -1.10854,0.64571 -1.21719,0.60684 -0.0499,-0.0179 -0.29397,0.0621 -0.54235,0.17774 -0.24839,0.11562 -0.55014,0.21059 -0.67058,0.21104 -0.12043,4.2e-4 -0.3786,0.0571 -0.57371,0.12597 -0.1951,0.0688 -0.39411,0.12516 -0.44223,0.12516 -0.15133,0 0.28544,-0.40534 0.83299,-0.77303 0.54874,-0.3685 0.67915,-0.53225 0.31305,-0.39306 -0.28286,0.10755 -0.70381,0.10399 -0.70381,-0.006 0,-0.048 0.11609,-0.15128 0.25797,-0.22946 0.58373,-0.32162 1.00995,-0.61255 0.9643,-0.65819 -0.0267,-0.0267 -0.30985,0.10661 -0.62916,0.29631 -0.31931,0.1897 -0.62093,0.3449 -0.67027,0.3449 -0.21982,0 -0.046,-0.19464 0.49536,-0.55459 0.60674,-0.40346 0.74585,-0.60843 0.19058,-0.28081 -0.4461,0.26321 -1.10941,0.51425 -1.10941,0.41987 0,-0.0436 0.32248,-0.29171 0.71662,-0.55127 0.39415,-0.25957 0.78363,-0.58211 0.86552,-0.71677 0.0819,-0.13466 0.39615,-0.44879 0.69835,-0.69806 0.3022,-0.24926 0.58502,-0.51939 0.62848,-0.60028 0.0435,-0.0809 0.30879,-0.42868 0.58961,-0.77287 0.61528,-0.75411 1.36912,-2.22291 1.58448,-3.08727 0.0926,-0.37174 0.18034,-1.1339 0.21607,-1.87739 0.0534,-1.1116 0.0395,-1.35351 -0.1244,-2.16274 -0.48173,-2.37836 -1.32485,-3.95311 -2.67154,-4.9898 -1.36462,-1.0505 -2.4941,-1.43007 -4.25543,-1.43007 -1.31998,0 -2.127718,0.18939 -3.514852,0.82409 -1.326567,0.60699 -1.712513,0.87271 -2.637151,1.81567 -0.784402,0.79995 -0.793508,0.81455 -1.521434,2.43838 l -0.261828,0.58408 0.05369,-0.4172 c 0.06822,-0.53007 0.497886,-1.46543 0.963167,-2.09674 0.716627,-0.97236 2.027861,-2.04594 2.788142,-2.2828 0.183568,-0.0572 0.686955,-0.29673 1.118637,-0.5323 l 0.784878,-0.4283 -0.36768,-0.0229 c -0.202223,-0.0126 -0.452108,-0.0658 -0.555299,-0.11833 -0.136837,-0.0696 -0.266701,-0.0712 -0.479779,-0.006 -0.450082,0.13814 -0.34937,-0.0353 0.167757,-0.28897 0.463663,-0.2274 0.516083,-0.31723 0.274167,-0.46983 -0.166112,-0.10478 -0.940221,0.21763 -1.790012,0.74552 -0.947176,0.58838 -1.917643,1.53425 -1.185929,1.15587 l 0.261332,-0.13514 -0.05757,0.22938 c -0.03716,0.14808 -0.02084,0.25208 0.04605,0.29342 0.07443,0.046 0.01116,0.17287 -0.22462,0.45041 -0.482166,0.56755 -1.047281,1.31305 -1.308196,1.72578 -0.125949,0.19923 -0.371538,0.54022 -0.545753,0.75775 -0.326245,0.40738 -0.768883,1.56671 -0.768883,2.01383 0,0.12649 -0.03686,0.29885 -0.08191,0.38303 -0.0595,0.11118 -0.05097,0.16492 0.03118,0.19645 0.168653,0.0647 0.23647,0.55206 0.257533,1.85068 0.02245,1.3842 0.138709,1.76946 0.845319,2.80123 0.247385,0.36122 0.44979,0.67732 0.44979,0.70245 0,0.0251 -0.103257,0.0225 -0.229459,-0.006 -0.195145,-0.0438 -0.137844,0.0398 0.383156,0.55907 0.336939,0.33582 0.57747,0.62231 0.534515,0.63662 -0.04295,0.0143 -0.248273,-0.0469 -0.456261,-0.13606 -0.34167,-0.14646 -0.544871,-0.34194 -1.137957,-1.09473 -0.201202,-0.25538 -0.326389,-0.16564 -0.18914,0.13559 0.169701,0.37246 0.04566,0.31024 -0.288189,-0.14455 -0.175224,-0.2387 -0.332344,-0.39274 -0.349155,-0.34231 -0.04036,0.12108 0.06257,0.3048 0.586069,1.04604 0.240451,0.34046 0.501528,0.73711 0.580172,0.88144 0.09423,0.17294 0.227565,0.27934 0.391004,0.31203 0.136409,0.0273 0.268495,0.10297 0.293525,0.1682 0.05792,0.15094 1.126035,0.63428 1.275193,0.57704 0.06162,-0.0236 0.300363,0.0312 0.530531,0.12196 0.230168,0.0907 0.614222,0.16498 0.853456,0.16502 1.184764,1.7e-4 2.643174,1.29021 2.645334,2.33994 0.001,0.5143 -0.410741,1.20136 -0.927261,1.54704 -0.651988,0.43634 -2.072699,0.59241 -2.969199,0.32618 -1.107885,-0.329 -4.239249,-3.08822 -5.491691,-4.83902 -0.743083,-1.03877 -1.141498,-1.90336 -1.499556,-3.25415 -0.48576,-2.15862 0.145652,-5.13924 0.717056,-6.83098 0.474038,-1.39296 0.616497,-1.69093 0.835837,-1.74829 0.204501,-0.0535 0.243002,0.01 0.151906,0.24931 -0.148074,0.38946 -0.106317,0.47132 0.213926,0.41935 0.369936,-0.06 0.369862,-0.0427 -0.0046,1.0766 -0.294787,0.88109 -0.354988,1.32781 -0.0755,0.56024 0.450577,-1.23743 0.78967,-1.75139 0.672638,-1.01951 -0.07652,0.47854 0.09828,0.39497 0.37866,-0.18105 0.121126,-0.24884 0.340578,-0.56509 0.48767,-0.70276 l 0.267441,-0.25032 -0.232729,0.47744 c -0.128002,0.2626 -0.206023,0.50416 -0.173381,0.5368 0.09233,0.0923 0.192292,-0.0502 0.469156,-0.66879 0.192086,-0.42919 0.223566,-0.55987 0.125832,-0.52237 -0.07806,0.03 -0.01974,-0.10436 0.145397,-0.33486 0.151656,-0.21168 0.320654,-0.40227 0.375548,-0.42353 0.05489,-0.0213 0.270314,-0.27009 0.478709,-0.55295 0.675592,-0.917 1.54586,-1.4876 3.51803,-2.30661 0.454517,-0.18876 1.075939,-0.49358 1.380935,-0.67738 0.775644,-0.46744 1.046746,-0.52975 2.256856,-0.51873 1.3012,0.0119 2.02189,0.12652 3.14815,0.50088 1.57848,0.52466 2.96545,1.32991 4.21788,2.44883 0.36592,0.3269 0.67922,0.55263 0.69622,0.50161 0.0973,-0.29195 -1.3751,-1.796 -2.2552,-2.30364 -0.61946,-0.3573 -0.79595,-0.53729 -0.52685,-0.53729 0.0677,0 0.47447,0.18774 0.90392,0.4172 0.84547,0.45175 0.94931,0.48232 0.99027,0.29155 0.0475,-0.22135 0.72312,0.19065 1.36468,0.83222 1.68525,1.68525 2.88226,4.42601 3.20803,7.34536 0.18712,1.67677 0.10729,2.52531 -0.46706,4.96467 -0.25542,1.08479 -1.06718,2.77919 -1.7389,3.62962 -0.25374,0.32125 -0.61525,0.78432 -0.80337,1.02907 -0.3856,0.50168 -2.13657,1.84371 -2.9966,2.29674 -0.85355,0.44962 -2.75351,1.07041 -2.75351,0.89967 z m 2.17276,-0.9313 c 0.18174,-0.0927 0.33043,-0.18566 0.33043,-0.20654 0,-0.0579 -0.41112,0.11107 -0.61096,0.25105 -0.25182,0.17638 -0.1076,0.1535 0.28053,-0.0445 z m 0.66833,-18.97586 c -0.19881,-0.23955 -1.04247,-0.74622 -1.62606,-0.97656 -0.91808,-0.36235 -0.92027,-0.27502 -0.005,0.20469 0.45892,0.24056 1.02126,0.55621 1.24964,0.70144 0.42182,0.26822 0.56814,0.29523 0.38157,0.0704 z m -2.95117,-1.43249 c -0.30653,-0.16616 -1.37329,-0.38775 -1.4974,-0.31105 -0.10444,0.0645 0.0845,0.1313 0.89825,0.31746 0.70135,0.16043 0.90296,0.15827 0.59915,-0.006 z m 2.4464,15.19327 c 0,-0.0412 0.7771,-1.07206 0.94215,-1.24981 0.10575,-0.11388 -0.25284,0.59418 -0.49652,0.98042 -0.10857,0.17209 -0.25326,0.3129 -0.32152,0.3129 -0.0683,0 -0.12411,-0.0196 -0.12411,-0.0435 z m 1.38424,-2.27194 c 0.236,-0.62301 0.4284,-1.33502 0.58887,-2.17928 0.0207,-0.10867 0.0538,-0.18132 0.0737,-0.16145 0.0605,0.0605 -0.18589,1.41659 -0.33814,1.86095 -0.14298,0.41729 -0.5178,1.20987 -0.57217,1.20987 -0.0159,0 0.0956,-0.32854 0.24774,-0.73009 z m 0.63935,-3.14985 c 9.3e-4,-0.18357 0.018,-0.24884 0.038,-0.14505 0.02,0.10379 0.0192,0.25398 -0.002,0.33376 -0.0209,0.0798 -0.0372,-0.005 -0.0363,-0.18871 z m -0.0971,-1.39803 c -0.0648,-0.40178 -0.0954,-0.75289 -0.0681,-0.78024 0.0927,-0.0927 0.23618,0.63966 0.21095,1.07646 -0.0246,0.42639 -0.0272,0.42101 -0.14289,-0.29622 z m -15.294033,-6.62728 c 0.40405,-0.57275 2.104813,-2.01416 1.973837,-1.67284 -0.03727,0.0971 -1.044785,1.00932 -1.910404,1.72966 l -0.250673,0.20859 z m 4.689828,-0.11006 c 0,-0.0459 0.05854,-0.0834 0.130084,-0.0834 0.07155,0 0.106878,0.0375 0.07852,0.0834 -0.02836,0.0459 -0.0869,0.0834 -0.130085,0.0834 -0.04318,0 -0.07851,-0.0376 -0.07851,-0.0834 z m -5.089822,-0.41115 c 0,-0.0885 0.103256,-0.24222 0.229459,-0.34172 0.190641,-0.15029 0.233862,-0.15921 0.255485,-0.0527 0.03434,0.16914 -0.222523,0.55527 -0.369381,0.55527 -0.06356,0 -0.115563,-0.0724 -0.115563,-0.16083 z m 8.093647,-3.01882 c 0,-0.0805 0.32937,-0.1555 0.68838,-0.1568 0.1721,-6.7e-4 0.3129,0.0364 0.3129,0.0823 0,0.0897 -0.009,0.0913 -0.60494,0.11429 -0.21798,0.008 -0.39634,-0.01 -0.39634,-0.0398 z m -0.16687,-0.40027 c 0,-0.24587 1.24858,-0.52199 1.57365,-0.34801 0.26218,0.14032 0.22744,0.34002 -0.0592,0.34002 -0.13075,0 -0.525,0.0243 -0.87612,0.054 -0.47027,0.0398 -0.63838,0.0276 -0.63838,-0.046 z"/>
 <path style="fill:#b648b6" d="m 27.150185,35.95392 c 0,-0.0313 0.2159,-0.1312 0.47978,-0.22206 0.31063,-0.10695 0.50765,-0.22866 0.55883,-0.34523 0.0435,-0.099 0.32509,-0.32211 0.6258,-0.49576 0.30071,-0.17365 0.8222,-0.4996 1.15887,-0.72434 0.52786,-0.35235 0.60548,-0.4351 0.56382,-0.60111 -0.0321,-0.12773 -0.006,-0.20859 0.0763,-0.2403 0.15092,-0.0579 0.16589,-0.22006 0.0203,-0.21956 -0.0574,1.6e-4 -0.27326,0.11485 -0.47978,0.2548 -0.51948,0.35203 -1.10854,0.64571 -1.21719,0.60684 -0.0499,-0.0179 -0.29397,0.0621 -0.54235,0.17774 -0.24839,0.11562 -0.55014,0.21059 -0.67058,0.21104 -0.12043,4.2e-4 -0.3786,0.0571 -0.57371,0.12597 -0.1951,0.0688 -0.39411,0.12516 -0.44223,0.12516 -0.15133,0 0.28544,-0.40534 0.83299,-0.77303 0.54874,-0.3685 0.67915,-0.53225 0.31305,-0.39306 -0.28286,0.10755 -0.70381,0.10399 -0.70381,-0.006 0,-0.048 0.11609,-0.15128 0.25797,-0.22946 0.58373,-0.32162 1.00995,-0.61255 0.9643,-0.65819 -0.0267,-0.0267 -0.30985,0.10661 -0.62916,0.29631 -0.31931,0.1897 -0.62093,0.3449 -0.67027,0.3449 -0.21982,0 -0.046,-0.19464 0.49536,-0.55459 0.60674,-0.40346 0.74585,-0.60843 0.19058,-0.28081 -0.4461,0.26321 -1.10941,0.51425 -1.10941,0.41987 0,-0.0436 0.32248,-0.29171 0.71662,-0.55127 0.39415,-0.25957 0.78363,-0.58211 0.86552,-0.71677 0.0819,-0.13466 0.39615,-0.44879 0.69835,-0.69806 0.3022,-0.24926 0.58502,-0.51939 0.62848,-0.60028 0.0435,-0.0809 0.30879,-0.42868 0.58961,-0.77287 0.61528,-0.75411 1.36912,-2.22291 1.58448,-3.08727 0.0926,-0.37174 0.18034,-1.1339 0.21607,-1.87739 0.0534,-1.1116 0.0395,-1.35351 -0.1244,-2.16274 -0.48173,-2.37836 -1.32485,-3.95311 -2.67154,-4.9898 -1.36462,-1.0505 -2.4941,-1.43007 -4.25543,-1.43007 -1.31998,0 -2.127718,0.18939 -3.514852,0.82409 -1.326567,0.60699 -1.712513,0.87271 -2.637151,1.81567 -0.784402,0.79995 -0.793508,0.81455 -1.521434,2.43838 l -0.261828,0.58408 0.05369,-0.4172 c 0.06822,-0.53007 0.497886,-1.46543 0.963167,-2.09674 0.716627,-0.97236 2.027861,-2.04594 2.788142,-2.2828 0.183568,-0.0572 0.686955,-0.29673 1.118637,-0.5323 l 0.784878,-0.4283 -0.36768,-0.0229 c -0.202223,-0.0126 -0.452108,-0.0658 -0.555299,-0.11833 -0.136837,-0.0696 -0.266701,-0.0712 -0.479779,-0.006 -0.450082,0.13814 -0.34937,-0.0353 0.167757,-0.28897 0.463663,-0.2274 0.516083,-0.31723 0.274167,-0.46983 -0.166112,-0.10478 -0.940221,0.21763 -1.790012,0.74552 -0.947176,0.58838 -1.917643,1.53425 -1.185929,1.15587 l 0.261332,-0.13514 -0.05757,0.22938 c -0.03716,0.14808 -0.02084,0.25208 0.04605,0.29342 0.07443,0.046 0.01116,0.17287 -0.22462,0.45041 -0.482166,0.56755 -1.047281,1.31305 -1.308196,1.72578 -0.125949,0.19923 -0.371538,0.54022 -0.545753,0.75775 -0.326245,0.40738 -0.768883,1.56671 -0.768883,2.01383 0,0.12649 -0.03686,0.29885 -0.08191,0.38303 -0.0595,0.11118 -0.05097,0.16492 0.03118,0.19645 0.168653,0.0647 0.23647,0.55206 0.257533,1.85068 0.02245,1.3842 0.138709,1.76946 0.845319,2.80123 0.247385,0.36122 0.44979,0.67732 0.44979,0.70245 0,0.0251 -0.103257,0.0225 -0.229459,-0.006 -0.195145,-0.0438 -0.137844,0.0398 0.383156,0.55907 0.336939,0.33582 0.57747,0.62231 0.534515,0.63662 -0.04295,0.0143 -0.248273,-0.0469 -0.456261,-0.13606 -0.34167,-0.14646 -0.544871,-0.34194 -1.137957,-1.09473 -0.201202,-0.25538 -0.326389,-0.16564 -0.18914,0.13559 0.169701,0.37246 0.04566,0.31024 -0.288189,-0.14455 -0.175224,-0.2387 -0.332344,-0.39274 -0.349155,-0.34231 -0.04036,0.12108 0.06257,0.3048 0.586069,1.04604 0.240451,0.34046 0.501528,0.73711 0.580172,0.88144 0.09423,0.17294 0.227565,0.27934 0.391004,0.31203 0.136409,0.0273 0.268495,0.10297 0.293525,0.1682 0.05792,0.15094 1.126035,0.63428 1.275193,0.57704 0.06162,-0.0236 0.300363,0.0312 0.530531,0.12196 0.230168,0.0907 0.614222,0.16498 0.853456,0.16502 1.184764,1.7e-4 2.643174,1.29021 2.645334,2.33994 0.001,0.5143 -0.410741,1.20136 -0.927261,1.54704 -0.651988,0.43634 -2.072699,0.59241 -2.969199,0.32618 -1.107885,-0.329 -4.239249,-3.08822 -5.491691,-4.83902 -0.743083,-1.03877 -1.141498,-1.90336 -1.499556,-3.25415 -0.48576,-2.15862 0.145652,-5.13924 0.717056,-6.83098 0.474038,-1.39296 0.616497,-1.69093 0.835837,-1.74829 0.204501,-0.0535 0.243002,0.01 0.151906,0.24931 -0.148074,0.38946 -0.106317,0.47132 0.213926,0.41935 0.369936,-0.06 0.369862,-0.0427 -0.0046,1.0766 -0.294787,0.88109 -0.354988,1.32781 -0.0755,0.56024 0.450577,-1.23743 0.78967,-1.75139 0.672638,-1.01951 -0.07652,0.47854 0.09828,0.39497 0.37866,-0.18105 0.121126,-0.24884 0.340578,-0.56509 0.48767,-0.70276 l 0.267441,-0.25032 -0.232729,0.47744 c -0.128002,0.2626 -0.206023,0.50416 -0.173381,0.5368 0.09233,0.0923 0.192292,-0.0502 0.469156,-0.66879 0.192086,-0.42919 0.223566,-0.55987 0.125832,-0.52237 -0.07806,0.03 -0.01974,-0.10436 0.145397,-0.33486 0.151656,-0.21168 0.320654,-0.40227 0.375548,-0.42353 0.05489,-0.0213 0.270314,-0.27009 0.478709,-0.55295 0.675592,-0.917 1.54586,-1.4876 3.51803,-2.30661 0.454517,-0.18876 1.075939,-0.49358 1.380935,-0.67738 0.775644,-0.46744 1.046746,-0.52975 2.256856,-0.51873 1.3012,0.0119 2.02189,0.12652 3.14815,0.50088 1.57848,0.52466 2.96545,1.32991 4.21788,2.44883 0.36592,0.3269 0.67922,0.55263 0.69622,0.50161 0.0973,-0.29195 -1.3751,-1.796 -2.2552,-2.30364 -0.61946,-0.3573 -0.79595,-0.53729 -0.52685,-0.53729 0.0677,0 0.47447,0.18774 0.90392,0.4172 0.84547,0.45175 0.94931,0.48232 0.99027,0.29155 0.0475,-0.22135 0.72312,0.19065 1.36468,0.83222 1.68525,1.68525 2.88226,4.42601 3.20803,7.34536 0.18712,1.67677 0.10729,2.52531 -0.46706,4.96467 -0.25542,1.08479 -1.06718,2.77919 -1.7389,3.62962 -0.25374,0.32125 -0.61525,0.78432 -0.80337,1.02907 -0.3856,0.50168 -2.13657,1.84371 -2.9966,2.29674 -0.85355,0.44962 -2.75351,1.07041 -2.75351,0.89967 z m 2.17276,-0.9313 c 0.18174,-0.0927 0.33043,-0.18566 0.33043,-0.20654 0,-0.0579 -0.41112,0.11107 -0.61096,0.25105 -0.25182,0.17638 -0.1076,0.1535 0.28053,-0.0445 z m 0.66833,-18.97586 c -0.19881,-0.23955 -1.04247,-0.74622 -1.62606,-0.97656 -0.91808,-0.36235 -0.92027,-0.27502 -0.005,0.20469 0.45892,0.24056 1.02126,0.55621 1.24964,0.70144 0.42182,0.26822 0.56814,0.29523 0.38157,0.0704 z m -2.95117,-1.43249 c -0.30653,-0.16616 -1.37329,-0.38775 -1.4974,-0.31105 -0.10444,0.0645 0.0845,0.1313 0.89825,0.31746 0.70135,0.16043 0.90296,0.15827 0.59915,-0.006 z m 2.4464,15.19327 c 0,-0.0412 0.7771,-1.07206 0.94215,-1.24981 0.10575,-0.11388 -0.25284,0.59418 -0.49652,0.98042 -0.10857,0.17209 -0.25326,0.3129 -0.32152,0.3129 -0.0683,0 -0.12411,-0.0196 -0.12411,-0.0435 z m 1.38424,-2.27194 c 0.236,-0.62301 0.4284,-1.33502 0.58887,-2.17928 0.0207,-0.10867 0.0538,-0.18132 0.0737,-0.16145 0.0605,0.0605 -0.18589,1.41659 -0.33814,1.86095 -0.14298,0.41729 -0.5178,1.20987 -0.57217,1.20987 -0.0159,0 0.0956,-0.32854 0.24774,-0.73009 z m 0.63935,-3.14985 c 9.3e-4,-0.18357 0.018,-0.24884 0.038,-0.14505 0.02,0.10379 0.0192,0.25398 -0.002,0.33376 -0.0209,0.0798 -0.0372,-0.005 -0.0363,-0.18871 z m -0.0971,-1.39803 c -0.0648,-0.40178 -0.0954,-0.75289 -0.0681,-0.78024 0.0927,-0.0927 0.23618,0.63966 0.21095,1.07646 -0.0246,0.42639 -0.0272,0.42101 -0.14289,-0.29622 z M 16.118962,16.36044 c 0.40405,-0.57275 2.104813,-2.01416 1.973837,-1.67284 -0.03727,0.0971 -1.044785,1.00932 -1.910404,1.72966 l -0.250673,0.20859 z m 4.689828,-0.11006 c 0,-0.0459 0.05854,-0.0834 0.130084,-0.0834 0.07155,0 0.106878,0.0375 0.07852,0.0834 -0.02836,0.0459 -0.0869,0.0834 -0.130085,0.0834 -0.04318,0 -0.07851,-0.0376 -0.07851,-0.0834 z m -5.089822,-0.41115 c 0,-0.0885 0.103256,-0.24222 0.229459,-0.34172 0.190641,-0.15029 0.233862,-0.15921 0.255485,-0.0527 0.03434,0.16914 -0.222523,0.55527 -0.369381,0.55527 -0.06356,0 -0.115563,-0.0724 -0.115563,-0.16083 z m 8.093647,-3.01882 c 0,-0.0805 0.32937,-0.1555 0.68838,-0.1568 0.1721,-6.7e-4 0.3129,0.0364 0.3129,0.0823 0,0.0897 -0.009,0.0913 -0.60494,0.11429 -0.21798,0.008 -0.39634,-0.01 -0.39634,-0.0398 z m -0.16687,-0.40027 c 0,-0.24587 1.24858,-0.52199 1.57365,-0.34801 0.26218,0.14032 0.22744,0.34002 -0.0592,0.34002 -0.13075,0 -0.525,0.0243 -0.87612,0.054 -0.47027,0.0398 -0.63838,0.0276 -0.63838,-0.046 z"/>
</svg>
