<svg xmlns="http://www.w3.org/2000/svg" width="48" height="48" version="1">
 <rect style="opacity:0.2" width="40" height="40" x="4" y="5" rx="2" ry="2"/>
 <rect style="fill:#4949b1" width="40" height="40" x="4" y="4" rx="2" ry="2"/>
 <path style="opacity:0.1;fill:#f4f4f7" d="M 6,4 C 4.892,4 4,4.892 4,6 V 7 C 4,5.892 4.892,5 6,5 h 36 c 1.108,0 2,0.892 2,2 V 6 C 44,4.892 43.108,4 42,4 Z"/>
 <path style="opacity:0.2" d="M 25.262818,8.9999991 A 1.2633134,1.2633134 0 0 0 24.369705,11.156299 L 37.8437,24.630295 A 1.2633134,1.2633134 0 0 0 40,23.737182 V 10.263186 A 1.2633134,1.2633134 0 0 0 38.736813,8.9999991 Z"/>
 <path style="fill:#f4f4f7" d="M 25.262818,7.9999994 A 1.2633134,1.2633134 0 0 0 24.369705,10.156299 L 37.8437,23.630295 A 1.2633134,1.2633134 0 0 0 40,22.737182 V 9.2631867 A 1.2633134,1.2633134 0 0 0 38.736813,7.9999994 Z"/>
</svg>
