<svg xmlns="http://www.w3.org/2000/svg" width="48" height="48" version="1">
 <rect style="opacity:0.2" width="40" height="40" x="4" y="5" rx="2" ry="2"/>
 <rect fill="#3f5979" width="40" height="40" x="4" y="4" rx="2" ry="2"/>
 <path fill="#fff" opacity=".1" d="m6 4c-1.108 0-2 0.892-2 2v1c0-1.108 0.892-2 2-2h36c1.108 0 2 0.892 2 2v-1c0-1.108-0.892-2-2-2h-36z"/>
 <path style="fill-rule:evenodd;opacity:0.2" d="M 25.861,23.175 C 25.861,24.542 25.896,25.679 25.236,26.89 24.705,27.874 23.861,28.48 22.92,28.48 21.635,28.48 20.889,27.457 20.889,25.945 20.889,22.961 23.444,22.418 25.862,22.418 V 23.176 M 29.237,31.707 C 29.018,31.914 28.698,31.93 28.448,31.793 27.339,30.828 27.139,30.379 26.526,29.457 24.69,31.418 23.393,32.004 21.01,32.004 18.194,32.004 16,30.188 16,26.551 16,23.711 17.473,21.774 19.566,20.828 21.379,19.992 23.918,19.844 25.859,19.613 V 19.16 C 25.859,18.328 25.922,17.344 25.457,16.625 25.047,15.98 24.266,15.715 23.578,15.715 22.301,15.715 21.164,16.399 20.887,17.817 20.828,18.133 20.61,18.442 20.305,18.458 L 17.059,18.095 C 16.786,18.029 16.485,17.798 16.559,17.361 17.309,13.252 20.864,12.009 24.043,12.009 25.672,12.009 27.801,12.462 29.083,13.751 30.712,15.341 30.556,17.462 30.556,19.771 V 25.224 C 30.556,26.865 31.204,27.583 31.818,28.47 32.033,28.783 32.08,29.165 31.81,29.4 31.126,30.002 29.912,31.103 29.244,31.724 L 29.232,31.712"/>
 <path style="fill:#f4f4f7;fill-rule:evenodd" d="M 25.861,22.175 C 25.861,23.542 25.896,24.679 25.236,25.89 24.705,26.874 23.861,27.48 22.92,27.48 21.635,27.48 20.889,26.457 20.889,24.945 20.889,21.961 23.444,21.418 25.862,21.418 V 22.176 M 29.237,30.707 C 29.018,30.914 28.698,30.93 28.448,30.793 27.339,29.828 27.139,29.379 26.526,28.457 24.69,30.418 23.393,31.004 21.01,31.004 18.194,31.004 16,29.188 16,25.551 16,22.711 17.473,20.774 19.566,19.828 21.379,18.992 23.918,18.844 25.859,18.613 V 18.16 C 25.859,17.328 25.922,16.344 25.457,15.625 25.047,14.98 24.266,14.715 23.578,14.715 22.301,14.715 21.164,15.399 20.887,16.817 20.828,17.133 20.61,17.442 20.305,17.458 L 17.059,17.095 C 16.786,17.029 16.485,16.798 16.559,16.361 17.309,12.252 20.864,11.009 24.043,11.009 25.672,11.009 27.801,11.462 29.083,12.751 30.712,14.341 30.556,16.462 30.556,18.771 V 24.224 C 30.556,25.865 31.204,26.583 31.818,27.47 32.033,27.783 32.08,28.165 31.81,28.4 31.126,29.002 29.912,30.103 29.244,30.724 L 29.232,30.712"/>
 <path style="opacity:0.2" d="M 35.092,31.998 C 34.182,32.011 33.107,32.221 32.295,32.807 32.041,32.987 32.084,33.236 32.365,33.201 33.279,33.087 35.323,32.837 35.686,33.314 36.053,33.79 35.279,35.76 34.939,36.639 34.834,36.905 35.057,37.014 35.291,36.811 36.822,35.503 37.213,32.76 36.9,32.365 36.746,32.168 36.001,31.985 35.092,31.998 Z M 11.189,32.525 C 11,32.551 10.916,32.786 11.115,32.971 14.509,36.114 18.995,38 23.975,38 27.529,38 31.652,36.851 34.5,34.703 L 34.502,34.699 C 34.975,34.339 34.572,33.809 34.088,34.016 30.9,35.407 27.427,36.074 24.275,36.074 19.599,36.074 15.068,34.762 11.408,32.578 11.328,32.53 11.253,32.517 11.189,32.525 Z"/>
 <path style="fill:#ff9900" d="M 35.092,30.998 C 34.182,31.011 33.107,31.221 32.295,31.807 32.041,31.987 32.084,32.236 32.365,32.201 33.279,32.087 35.323,31.837 35.686,32.314 36.053,32.79 35.279,34.76 34.939,35.639 34.834,35.905 35.057,36.014 35.291,35.811 36.822,34.503 37.213,31.76 36.9,31.365 36.746,31.168 36.001,30.985 35.092,30.998 Z M 11.189,31.525 C 11,31.551 10.916,31.786 11.115,31.971 14.509,35.114 18.995,37 23.975,37 27.529,37 31.652,35.851 34.5,33.703 L 34.502,33.699 C 34.975,33.339 34.572,32.809 34.088,33.016 30.9,34.407 27.427,35.074 24.275,35.074 19.599,35.074 15.068,33.762 11.408,31.578 11.328,31.53 11.253,31.517 11.189,31.525 Z"/>
</svg>
