<svg width="48" height="48" version="1.1" xmlns="http://www.w3.org/2000/svg">
 <circle cx="24" cy="25" r="20" style="opacity:.2"/>
 <circle cx="24" cy="24" r="20" style="fill:#f14223"/>
 <path d="M 24,4 A 20,20 0 0 0 4,24 20,20 0 0 0 4.0215,24.582 20,20 0 0 1 24,5 20,20 0 0 1 43.979,24.418 20,20 0 0 0 44,24 20,20 0 0 0 24,4 Z" style="fill:#f4f4f7;opacity:.2"/>
 <circle cx="24" cy="24" r="13" style="fill:#4e59b3"/>
 <path d="m24 11a14 14 0 0 0-14 14 14 14 0 0 0 14 14 14 14 0 0 0 14-14 14 14 0 0 0-14-14zm0 2a12 12 0 0 1 3.703125 0.591797l-1.703125 3.408203-2 4-2-4-1.699219-3.400391a12 12 0 0 1 3.699219-0.599609zm-5.449219 1.308594 1.207031 3.621094 1.414063 4.242187-4.242187-1.414063-3.609376-1.203124a12 12 0 0 1 2.31836-3.16211 12 12 0 0 1 2.912109-2.083984zm10.894531 0.01172a12 12 0 0 1 3.16211 2.31836 12 12 0 0 1 2.083984 2.912109l-3.621094 1.207031-4.242187 1.414063 1.414063-4.242187zm-16.853515 6.976561 3.408203 1.703125 4 2-4 2-3.400391 1.699219a12 12 0 0 1-0.599609-3.699219 12 12 0 0 1 0.591797-3.703125zm22.808594 0.0039a12 12 0 0 1 0.599609 3.699225 12 12 0 0 1-0.591797 3.703125l-3.408203-1.703125-4-2 4-2zm-11.400391 0.699225a1 1 0 0 1 1 1 1 1 0 0 1-1 1 1 1 0 0 1-1-1 1 1 0 0 1 1-1zm-2 2a1 1 0 0 1 1 1 1 1 0 0 1-1 1 1 1 0 0 1-1-1 1 1 0 0 1 1-1zm4 0a1 1 0 0 1 1 1 1 1 0 0 1-1 1 1 1 0 0 1-1-1 1 1 0 0 1 1-1zm-2 2a1 1 0 0 1 1 1 1 1 0 0 1-1 1 1 1 0 0 1-1-1 1 1 0 0 1 1-1zm-2.828125 1.828125-1.414063 4.242187-1.203124 3.609376a12 12 0 0 1-3.16211-2.31836 12 12 0 0 1-2.083984-2.912109l3.621094-1.207031zm5.65625 0 4.242187 1.414063 3.609376 1.203124a12 12 0 0 1-2.31836 3.16211 12 12 0 0 1-2.912109 2.083984l-1.207031-3.621094zm-2.828125 1.171875 2 4 1.699219 3.400391a12 12 0 0 1-3.699219 0.599609 12 12 0 0 1-3.703125-0.591797l1.703125-3.408203z" style="opacity:.2"/>
 <path d="m24 10a14 14 0 0 0-14 14 14 14 0 0 0 14 14 14 14 0 0 0 14-14 14 14 0 0 0-14-14zm0 2a12 12 0 0 1 3.703125 0.591797l-1.703125 3.408203-2 4-2-4-1.699219-3.400391a12 12 0 0 1 3.699219-0.599609zm-5.449219 1.308594 1.207031 3.621094 1.414063 4.242187-4.242187-1.414063-3.609376-1.203124a12 12 0 0 1 2.31836-3.16211 12 12 0 0 1 2.912109-2.083984zm10.894531 0.01172a12 12 0 0 1 3.16211 2.31836 12 12 0 0 1 2.083984 2.912109l-3.621094 1.207031-4.242187 1.414063 1.414063-4.242187zm-16.853515 6.976561 3.408203 1.703125 4 2-4 2-3.400391 1.699219a12 12 0 0 1-0.599609-3.699219 12 12 0 0 1 0.591797-3.703125zm22.808594 0.0039a12 12 0 0 1 0.599609 3.699225 12 12 0 0 1-0.591797 3.703125l-3.408203-1.703125-4-2 4-2zm-11.400391 0.699225a1 1 0 0 1 1 1 1 1 0 0 1-1 1 1 1 0 0 1-1-1 1 1 0 0 1 1-1zm-2 2a1 1 0 0 1 1 1 1 1 0 0 1-1 1 1 1 0 0 1-1-1 1 1 0 0 1 1-1zm4 0a1 1 0 0 1 1 1 1 1 0 0 1-1 1 1 1 0 0 1-1-1 1 1 0 0 1 1-1zm-2 2a1 1 0 0 1 1 1 1 1 0 0 1-1 1 1 1 0 0 1-1-1 1 1 0 0 1 1-1zm-2.828125 1.828125-1.414063 4.242187-1.203124 3.609376a12 12 0 0 1-3.16211-2.31836 12 12 0 0 1-2.083984-2.912109l3.621094-1.207031zm5.65625 0 4.242187 1.414063 3.609376 1.203124a12 12 0 0 1-2.31836 3.16211 12 12 0 0 1-2.912109 2.083984l-1.207031-3.621094zm-2.828125 1.171875 2 4 1.699219 3.400391a12 12 0 0 1-3.699219 0.599609 12 12 0 0 1-3.703125-0.591797l1.703125-3.408203z" style="fill:#f4f4f7"/>
</svg>
