<svg xmlns="http://www.w3.org/2000/svg" width="48" height="48" x="0" y="0" version="1.1" xml:space="preserve">
 <path style="opacity:0.2" d="M 31.875799,38.647469 C 22.703853,43.945294 11.749961,42.762092 4.8554847,36.523437 4.6506017,36.338078 4.5106462,36.095558 4.4526756,35.825433 2.5016374,26.742567 6.9428565,16.655784 16.124199,11.352531 c 9.171945,-5.2978267 20.125838,-4.1146226 27.020315,2.124033 0.204888,0.185356 0.344839,0.427878 0.402809,0.698002 1.951037,9.082865 -2.490105,19.169605 -11.671524,24.472903 z"/>
 <path style="fill:#4b4e30" d="M 31.875799,37.64747 C 22.703853,42.945295 11.749961,41.762093 4.8554847,35.523438 4.6506017,35.338079 4.5106462,35.095559 4.4526756,34.825434 2.5016374,25.742568 6.9428565,15.655785 16.124199,10.352532 c 9.171945,-5.2978268 20.125838,-4.1146227 27.020315,2.124033 0.204888,0.185356 0.344839,0.427878 0.402809,0.698002 1.951037,9.082865 -2.490105,19.169605 -11.671524,24.472903 z"/>
 <circle style="opacity:0.2" cx="8.285" cy="33.651" r="12" transform="rotate(-30)"/>
 <circle style="fill:#97c800" cx="8.785" cy="32.785" r="12" transform="rotate(-30)"/>
 <circle style="opacity:0.95700001;fill:#3f3f3f" cx="8.785" cy="32.785" r="6" transform="rotate(-30)"/>
 <path style="fill:#f4f4f7;opacity:0.1" d="M 28.697266 7.0019531 C 24.491545 6.9581111 20.137726 8.0337633 16.125 10.351562 C 8.3343 14.851564 3.97299 22.795908 4.0175781 30.648438 C 4.3328082 23.128043 8.6651592 15.660456 16.125 11.351562 C 25.296945 6.0537358 36.250054 7.2379069 43.144531 13.476562 C 43.349419 13.661919 43.488905 13.903704 43.546875 14.173828 C 43.790755 15.309186 43.935071 16.461762 43.982422 17.617188 C 43.992868 16.126621 43.861062 14.636497 43.546875 13.173828 C 43.488905 12.903704 43.349419 12.661919 43.144531 12.476562 C 39.266388 8.9673187 34.104621 7.0583215 28.697266 7.0019531 z"/>
 <path style="opacity:0.2;fill:#f4f4f7" d="M 23.716797 12.003906 A 12 12 0 0 0 18 13.607422 A 12 12 0 0 0 12.023438 24.544922 A 12 12 0 0 1 18 14.607422 A 12 12 0 0 1 34.392578 19 A 12 12 0 0 1 35.976562 24.455078 A 12 12 0 0 0 34.392578 18 A 12 12 0 0 0 23.716797 12.003906 z"/>
</svg>
