<svg xmlns="http://www.w3.org/2000/svg" width="48" height="48" version="1">
 <path style="fill:#17c7e1" d="m 24.108,4.0016669 c -0.837807,-0.020189 -1.665031,0.1897102 -2.39104,0.6067 L 8.28274,12.334367 c -1.412828,0.812425 -2.2831429,2.314006 -2.28304,3.939 v 15.453 c -7e-7,1.62481 0.8702132,3.126196 2.28284,3.9386 l 13.815318,4.220302 c 1.412626,0.812406 3.153053,0.812406 4.56568,0 l 8.784829,-5.211156 c 1.412828,-0.812425 2.283143,-2.314006 2.28304,-3.939 L 41.9997,16.272967 c 1.03e-4,-1.624994 -0.870212,-3.126575 -2.28304,-3.939 L 26.28244,4.6079669 C 25.619882,4.2274667 24.871982,4.0188496 24.1074,4.0012669 Z"/>
 <path style="opacity:0.2" d="m 5.9997,31.726367 v 1 a 4.5656,4.5479 0 0 0 2.2832,3.9375 l 13.434,7.7266 a 4.5656,4.5479 0 0 0 4.5664,0 l 13.434,-7.727 a 4.5656,4.5479 0 0 0 2.283,-3.938 v -1 a 4.5656,4.5479 0 0 1 -2.2832,3.9375 l -13.434,7.7266 a 4.5656,4.5479 0 0 1 -4.5664,0 l -13.434,-7.727 a 4.5656,4.5479 0 0 1 -2.283,-3.938 z"/>
 <path style="fill:#546bdc" d="M 41.60908,14.43982 6.927434,34.463258 A 4.5656761,4.5479 0 0 0 8.2829,35.664429 l 13.4336,7.726563 a 4.5656761,4.5479 0 0 0 4.5664,0 l 13.4336,-7.726563 a 4.5656761,4.5479 0 0 0 2.2832,-3.9375 V 16.273805 A 4.5656761,4.5479 0 0 0 41.60908,14.43982 Z"/>
 <path style="opacity:0.2;fill:#f4f4f7" d="m 24.1067,4.0023669 a 4.5656,4.5479 0 0 0 -2.39,0.6054 L 8.2827,12.334367 a 4.5656,4.5479 0 0 0 -2.283,3.939 v 1 a 4.5656,4.5479 0 0 1 2.2832,-3.939 l 13.434,-7.7266001 a 4.5656,4.5479 0 0 1 2.3906,-0.60547 4.5656,4.5479 0 0 1 2.1758,0.60547 l 13.434,7.7266001 a 4.5656,4.5479 0 0 1 2.283,3.939 v -1 a 4.5656,4.5479 0 0 0 -2.283,-3.939 L 26.2833,4.6077669 a 4.5656,4.5479 0 0 0 -2.176,-0.6054 z"/>
 <path style="opacity:0.1" d="M 41.609375 14.439453 L 6.9277344 34.462891 A 4.5656761 4.5479 0 0 0 7.5292969 35.115234 L 41.609375 15.439453 A 4.5656761 4.5479 0 0 1 42 17.273438 L 42 16.273438 A 4.5656761 4.5479 0 0 0 41.609375 14.439453 z"/>
</svg>
