<svg xmlns="http://www.w3.org/2000/svg" width="48" height="48" version="1">
 <path style="opacity:0.2" d="M 12.8,6 C 8.4788,6 5,9.4788 5,13.8 V 25.5 43.05 C 5,44.1303 5.8697,45 6.95,45 H 24.5 36.2 C 40.5212,45 44,41.5212 44,37.2 V 25.5 7.95 C 44,6.8697 43.1303,6 42.05,6 H 24.5 Z"/>
 <path style="fill:#80b436" d="M 12.8,5 C 8.4788,5 5,8.4788 5,12.8 V 24.5 42.05 C 5,43.1303 5.8697,44 6.95,44 H 24.5 36.2 C 40.5212,44 44,40.5212 44,36.2 V 24.5 6.95 C 44,5.8697 43.1303,5 42.05,5 H 24.5 Z"/>
 <path style="opacity:0.2;fill:#f4f4f7" d="M 12.800781,5 C 8.4795812,5 5,8.4795812 5,12.800781 v 1 C 5,9.4795812 8.4795812,6 12.800781,6 H 24.5 42.050781 C 43.131081,6 44,6.8689187 44,7.9492188 v -1 C 44,5.8689187 43.131081,5 42.050781,5 H 24.5 Z"/>
 <path style="fill:#b2cf42" d="M 43.430616,5.5693848 5.5693848,43.430616 C 5.9218473,43.783078 6.40985,44 6.95,44 H 24.5 36.2 C 40.5212,44 44,40.5212 44,36.2 V 24.5 6.95 C 44,6.40985 43.783078,5.9218473 43.430616,5.5693848 Z"/>
 <path style="opacity:0.2" d="m 15,11 c -5.018462,0 -5,5 -5,5 h 5 z m 1,0 v 5 h 5 v -5 z m 6,0 v 5 h 5 v -5 z m 6,0 v 5 h 5 v -5 z m 6,0 v 5 h 5 v -5 z m -24,6 v 5 h 5 v -5 z m 6,0 v 5 h 5 v -5 z m 6,0 v 5 h 5 v -5 z m 6,0 v 5 h 5 v -5 z m 6,0 v 5 h 5 v -5 z m -24,6 v 5 h 5 v -5 z m 6,0 v 5 h 5 v -5 z m 6,0 v 5 h 5 v -5 z m 6,0 v 5 h 5 v -5 z m 6,0 v 5 h 5 v -5 z m -24,6 v 5 h 5 v -5 z m 6,0 v 5 h 5 v -5 z m 6,0 v 5 h 5 v -5 z m 6,0 v 5 h 5 v -5 z m 6,0 v 5 h 5 v -5 z m -24,6 v 5 h 5 v -5 z m 6,0 v 5 h 5 v -5 z m 6,0 v 5 h 5 v -5 z m 6,0 v 5 h 5 v -5 z m 6,0 v 5 c 5.01846,0 5,-5 5,-5 z"/>
 <path style="fill:#f4f7e2" d="m 15,10 c -5.018462,0 -5,5 -5,5 h 5 z m 1,0 v 5 h 5 v -5 z m 6,0 v 5 h 5 v -5 z m 6,0 v 5 h 5 v -5 z m 6,0 v 5 h 5 v -5 z m -24,6 v 5 h 5 v -5 z m 6,0 v 5 h 5 v -5 z m 6,0 v 5 h 5 v -5 z m 6,0 v 5 h 5 v -5 z m 6,0 v 5 h 5 v -5 z m -24,6 v 5 h 5 v -5 z m 6,0 v 5 h 5 v -5 z m 6,0 v 5 h 5 v -5 z m 6,0 v 5 h 5 v -5 z m 6,0 v 5 h 5 v -5 z m -24,6 v 5 h 5 v -5 z m 6,0 v 5 h 5 v -5 z m 6,0 v 5 h 5 v -5 z m 6,0 v 5 h 5 v -5 z m 6,0 v 5 h 5 v -5 z m -24,6 v 5 h 5 v -5 z m 6,0 v 5 h 5 v -5 z m 6,0 v 5 h 5 v -5 z m 6,0 v 5 h 5 v -5 z m 6,0 v 5 c 5.01846,0 5,-5 5,-5 z"/>
</svg>
