<svg xmlns="http://www.w3.org/2000/svg" width="48" height="48" version="1.1">
 <path style="opacity:0.2" d="m 24.013672,5.0008059 c -0.41079,-0.01784 -0.776403,0.306692 -1.626953,0.890625 -2.35326,1.6156123 -4.259125,3.5166729 -5.44336,5.3574221 -0.238078,0.370064 -0.450805,0.737429 -0.626953,1.099609 -3.78e-4,7.62e-4 -0.0016,0.0012 -0.002,0.002 -0.175727,0.361574 -0.328409,0.720319 -0.4375,1.06836 -0.19381,0.618298 -0.321613,1.150478 -0.283203,1.183593 l -0.0059,0.796876 c -1.136912,-0.30418 -2.170902,-0.338817 -3.333985,-0.138672 -2.3818468,0.40987 -5.6879564,2.035182 -8.1503904,4.003906 L 3,20.145337 3.390625,21.5594 c 0.7931791,2.876467 1.9445228,5.263465 3.3574219,7.046875 0.00176,0.0022 0.0041,0.0036 0.00586,0.0059 0.2933511,0.3698 0.5964915,0.713984 0.9121094,1.029297 0.00126,0.0013 0.00265,0.0026 0.00391,0.0039 0.051851,0.05175 0.1018692,0.107965 0.1542969,0.158203 0.092288,0.08843 0.185251,0.174105 0.2792968,0.257813 0.237872,0.211725 0.4778575,0.418818 0.7265625,0.599609 l 0.7617188,0.552735 0.6542971,0.496093 c -0.8952599,1.504702 -1.1362937,3.040937 -1.0078128,5.533204 0.1173731,2.276817 0.3363331,3.367762 1.2187498,6.078124 0.429059,1.317867 0.546786,1.503848 1.00586,1.574219 1.048642,0.160745 3.285185,0.133061 4.884765,-0.06055 1.594989,-0.193049 2.939941,-0.518705 4.126953,-0.99414 0.428728,-0.171719 0.839025,-0.362655 1.228516,-0.576172 0.02979,-0.01615 0.0583,-0.03438 0.08789,-0.05078 0.378621,-0.212233 0.745144,-0.438389 1.09375,-0.69336 l 0.828125,-0.607422 0.449218,-0.52539 c 0.771526,0.866294 1.658741,1.574136 2.638672,2.037109 0.69239,0.327125 1.852465,0.741166 2.578125,0.919922 1.63787,0.403476 5.001638,0.68535 6.523438,0.546875 l 1.142578,-0.103516 0.496094,-1.382812 c 1.067625,-2.976382 1.529006,-5.672279 1.376953,-7.875 -0.01636,-0.23698 -0.03556,-0.470211 -0.06641,-0.695313 -0.03094,-0.249942 -0.06953,-0.493979 -0.121093,-0.726562 -0.257565,-1.161749 -0.660156,-2.177735 -0.660157,-2.177734 l -0.330078,-0.615235 c 0.524984,-0.230069 1.018003,-0.507156 1.5,-0.853515 1.99534,-1.433829 3.848528,-4.426255 5.117188,-8.263672 L 45,20.254712 44.179688,19.500806 c -1.258541,-1.154616 -2.919422,-2.22525 -4.863282,-3.134766 -1.024477,-0.479346 -1.790067,-0.781637 -2.507812,-0.974609 -6.34e-4,-1.7e-4 -0.0013,1.7e-4 -0.002,0 -0.362299,-0.09733 -0.718068,-0.164671 -1.080079,-0.208984 -0.02502,-0.0031 -0.04907,-0.01083 -0.07422,-0.01367 -0.0024,-2.83e-4 -0.0054,2.8e-4 -0.0078,0 -0.3898,-0.0437 -0.794044,-0.06445 -1.25,-0.06445 H 33.054688 L 32.25,15.297681 c -0.10633,-1.131432 -0.36161,-2.164724 -0.755859,-2.964844 -0.95767,-1.94019 -2.923399,-4.1726776 -5.142579,-5.8398436 -1.348609,-1.013139 -1.87231,-1.4719655 -2.33789,-1.4921875 z"/>
 <path style="fill:#9a1b29" d="m 15.59375,13.601562 9.301728,2.459649 8.159962,-1.958301 1.295918,9.886407 3.719489,6.940025 -8.932989,3.626523 -5.424828,6.357017 -14.120857,-10.699786 5.950855,-9.39432 z"/>
 <path style="fill:#ef344a" d="m 24.01432,4.000703 c -0.41079,-0.01784 -0.77735,0.305464 -1.6279,0.889397 -3.2997,2.265384 -5.74751,5.096015 -6.50961,7.527403 -0.19381,0.618298 -0.32099,1.151227 -0.28258,1.184342 0.0385,0.03312 0.81071,0.408485 1.71614,0.834165 2.98781,1.40468 5.04823,3.321442 6.22307,5.78904 0.8496,1.784467 0.66056,1.907544 -0.21958,0.142918 -1.05415,-2.113487 -2.79676,-3.767083 -5.26614,-4.997012 -2.29342,-1.142287 -3.86148,-1.442792 -5.793542,-1.110321 -2.381847,0.40987 -5.688983,2.03384 -8.151417,4.002564 L 3,19.144908 3.390095,20.559569 c 1.15441,4.186473 3.055085,7.365884 5.44033,9.09979 l 0.761748,0.553737 1.680386,-1.711032 c 2.701861,-2.751316 5.235001,-3.929345 8.330721,-3.874166 l 1.67754,0.02989 -1.84011,0.137509 c -3.0529,0.228121 -5.24614,1.340071 -7.598756,3.852528 -2.237907,2.389952 -2.789244,3.998803 -2.603845,7.595161 0.117373,2.276817 0.336096,3.367646 1.218513,6.078009 0.429059,1.317866 0.54808,1.504007 1.007154,1.574378 1.048642,0.160745 3.283834,0.132968 4.883414,-0.06064 2.77897,-0.336353 4.81916,-1.05892 6.53713,-2.315445 l 0.82871,-0.606406 -0.48655,-0.64 c -0.77086,-1.014177 -1.77803,-3.391528 -2.14453,-5.061639 -0.39607,-1.804883 -0.31261,-4.307054 0.17901,-5.365695 0.17374,-0.37413 0.26904,-0.514557 0.21165,-0.312028 -1.34861,4.75888 1.20788,10.943977 5.32798,12.890537 0.69239,0.327125 1.85238,0.741102 2.57804,0.919858 1.63787,0.403476 5.00114,0.685664 6.52294,0.547189 l 1.14333,-0.1042 0.4962,-1.383061 c 1.30876,-3.64863 1.723,-6.887341 1.18901,-9.295946 -0.257565,-1.161749 -0.659263,-2.178555 -0.659263,-2.178555 0,0 -0.735814,0.208798 -1.492637,0.388947 -3.8707,0.921365 -8.17253,0.02777 -10.49738,-2.1805 l -0.92658,-0.88 0.96829,0.772955 c 2.13523,1.704258 4.02774,2.257511 7.26285,2.123273 2.68854,-0.11156 4.3046,-0.578836 5.85482,-1.692811 1.99534,-1.433828 3.84854,-4.426785 5.1172,-8.264202 L 45,19.253375 44.1798,18.500919 C 42.92126,17.346303 41.2601,16.27563 39.31624,15.366114 37.18074,14.366927 36.15236,14.10291 34.39368,14.10291 h -1.33824 l -0.11632,1.516014 c -0.22203,2.889436 -1.51551,5.942152 -3.29382,7.774238 -0.76838,0.791622 -2.41331,1.98235 -2.7386,1.98235 -0.0827,0 0.37198,-0.350163 1.01056,-0.778079 1.85018,-1.239835 3.08387,-3.063571 3.94492,-5.832315 0.750977,-2.696745 0.517045,-5.636483 -0.36797,-7.4326 C 30.53654,9.392328 28.57039,7.159682 26.35121,5.492516 25.0026,4.479377 24.4799,4.020921 24.01432,4.000699 Z"/>
 <path style="fill:#c62937" d="m 16.943359,10.248047 c -0.476279,0.740318 -0.847816,1.472536 -1.066406,2.169922 -0.19381,0.618298 -0.283203,1.183593 -0.283203,1.183593 0,0 0.811367,0.408305 1.716797,0.833985 2.98781,1.40468 5.047816,3.321464 6.222656,5.789062 l 0.597656,1.460938 c 0,0 -0.263366,-4.900181 -7.1875,-11.4375 z m 16.111329,3.855469 -0.115235,1.515625 c -0.22203,2.889436 -1.516612,5.941351 -3.294922,7.773437 -0.654963,0.674774 -1.900192,1.595131 -2.46875,1.865234 -0.02568,0.03045 -0.160156,0.197266 -0.160156,0.197266 0,0 4.188148,-0.641992 9.792969,-11.064453 -0.77838,-0.209274 -1.499085,-0.287109 -2.414063,-0.287109 z m -14.140626,10.21875 c -2.093417,0.05649 -5.837673,0.716122 -12.1660151,3.283203 0.00176,0.0022 0.0041,0.0036 0.00586,0.0059 0.2944386,0.371215 0.6006607,0.713334 0.9160157,1.033203 0.051851,0.05175 0.1018693,0.107965 0.1542969,0.158203 0.091642,0.08928 0.1858571,0.173348 0.2792968,0.257813 0.237872,0.211725 0.4778575,0.418818 0.7265625,0.599609 l 0.7617188,0.552735 1.6816411,-1.710938 c 2.70186,-2.751316 5.234358,-3.930179 8.330078,-3.875 l 1.677734,0.03125 c 0,0 -0.410985,-0.263444 -1.568359,-0.326172 -0.2344,-0.0127 -0.499769,-0.01784 -0.798829,-0.0098 z m 6.240235,3.935546 c 0,0 1.676409,4.161852 13.763672,6.271485 -0.03434,-0.497509 -0.08911,-0.978098 -0.1875,-1.421875 -0.257565,-1.161749 -0.660156,-2.177735 -0.660157,-2.177734 0,0 -0.735364,0.208522 -1.492187,0.388671 -3.8707,0.921365 -8.173197,0.02858 -10.498047,-2.179687 z m -3.738281,1.205079 c 0,0 -1.787147,0.819181 -0.941407,13.376953 0.881136,-0.352922 1.678215,-0.78497 2.410157,-1.320313 l 0.828125,-0.607422 -0.486329,-0.638671 c -0.770859,-1.014178 -1.778031,-3.39239 -2.144531,-5.0625 -0.39607,-1.804883 -0.311932,-4.306594 0.179688,-5.365235 0.05049,-0.108732 0.07591,-0.150225 0.111328,-0.216797 0.01783,-0.05693 0.02391,-0.108469 0.04297,-0.166015 z"/>
 <path style="opacity:0.2;fill:#f4f4f7" d="M 24.013672 4 C 23.602882 3.98216 23.237269 4.306692 22.386719 4.890625 C 20.033459 6.5062373 18.127594 8.4072978 16.943359 10.248047 C 16.705281 10.618111 16.492554 10.985476 16.316406 11.347656 C 16.316406 11.347656 16.314453 11.349609 16.314453 11.349609 C 16.138726 11.711183 15.986044 12.069928 15.876953 12.417969 C 15.683143 13.036267 15.55534 13.568447 15.59375 13.601562 L 15.587891 14.398438 C 14.450979 14.094257 13.416989 14.059621 12.253906 14.259766 C 9.8720595 14.669636 6.5659496 16.294948 4.1035156 18.263672 L 3 19.144531 L 3.2265625 19.962891 L 4.1035156 19.263672 C 6.5659496 17.294948 9.8720595 15.669636 12.253906 15.259766 C 13.416989 15.059621 14.450979 15.094257 15.587891 15.398438 L 15.59375 14.601562 C 15.55534 14.568447 15.683143 14.036267 15.876953 13.417969 C 15.986044 13.069928 16.138726 12.711183 16.314453 12.349609 C 16.314453 12.349609 16.316406 12.347656 16.316406 12.347656 C 16.492554 11.985476 16.705281 11.618111 16.943359 11.248047 C 18.127594 9.4072977 20.033459 7.5062373 22.386719 5.890625 C 23.237269 5.306692 23.602882 4.98216 24.013672 5 C 24.479252 5.020222 25.002954 5.4790485 26.351562 6.4921875 C 28.570742 8.1593535 30.536471 10.391841 31.494141 12.332031 C 31.88839 13.132151 32.14367 14.165443 32.25 15.296875 L 33.054688 15.103516 L 34.394531 15.103516 C 34.850487 15.103516 35.254731 15.124269 35.644531 15.167969 C 35.646931 15.168249 35.649944 15.167686 35.652344 15.167969 C 35.677494 15.170809 35.701543 15.178541 35.726562 15.181641 C 36.088574 15.225954 36.444342 15.293295 36.806641 15.390625 C 36.806641 15.390625 36.808594 15.390625 36.808594 15.390625 C 37.526339 15.583597 38.291929 15.885888 39.316406 16.365234 C 41.260266 17.27475 42.921146 18.345384 44.179688 19.5 L 44.746094 20.021484 L 45 19.253906 L 44.179688 18.5 C 42.921146 17.345384 41.260266 16.27475 39.316406 15.365234 C 38.291929 14.885888 37.526339 14.583597 36.808594 14.390625 C 36.808594 14.390625 36.806641 14.390625 36.806641 14.390625 C 36.444342 14.293299 36.088573 14.225954 35.726562 14.181641 C 35.701543 14.178578 35.677496 14.170812 35.652344 14.167969 C 35.649916 14.167686 35.64696 14.168249 35.644531 14.167969 C 35.254731 14.124266 34.850487 14.103516 34.394531 14.103516 L 33.054688 14.103516 L 32.25 14.296875 C 32.14367 13.165443 31.88839 12.132151 31.494141 11.332031 C 30.536471 9.3918414 28.570742 7.1593535 26.351562 5.4921875 C 25.002954 4.4790485 24.479252 4.020222 24.013672 4 z M 38.136719 31.115234 C 38.004581 31.181569 37.876302 31.254823 37.740234 31.314453 L 38.070312 31.929688 C 38.070313 31.929687 38.472904 32.945673 38.730469 34.107422 C 38.782032 34.340005 38.820622 34.584042 38.851562 34.833984 C 38.882413 35.059086 38.901609 35.292317 38.917969 35.529297 C 38.926052 35.646396 38.92507 35.77077 38.929688 35.890625 C 38.947232 35.420498 38.947896 34.962836 38.917969 34.529297 C 38.90161 34.292317 38.882413 34.059086 38.851562 33.833984 C 38.820622 33.584042 38.782035 33.340005 38.730469 33.107422 C 38.509517 32.110819 38.225415 31.347938 38.136719 31.115234 z M 9.8769531 31.429688 C 9.3803216 32.527037 9.206045 33.75118 9.2265625 35.365234 C 9.2986385 33.901438 9.6007249 32.793684 10.246094 31.708984 L 9.8769531 31.429688 z"/>
</svg>
