<svg xmlns="http://www.w3.org/2000/svg" width="48" height="48" version="1">
 <path style="opacity:0.2" d="M 22.666016,5 C 22.297842,5.0000523 22.000037,5.4271615 22,5.953125 L 21.746094,9.1757812 A 16,16 0 0 0 18.035156,10.162109 L 16.208984,7.5039062 C 15.94597,7.0484266 15.473171,6.82963 15.154297,7.0136719 l -2.308594,1.3320312 c -0.318822,0.1841321 -0.364512,0.7026866 -0.101562,1.1582031 l 1.386718,2.9082028 a 16,16 0 0 0 -2.707031,2.72461 L 8.5039062,13.744141 c -0.4555166,-0.26295 -0.974071,-0.21726 -1.1582031,0.101562 l -1.3320312,2.308594 c -0.1840419,0.318874 0.034755,0.791673 0.4902343,1.054687 l 2.6621094,1.830078 A 16,16 0 0 0 8.1796875,22.746094 L 4.953125,23 C 4.427159,23.000036 4.0000519,23.297842 4,23.666016 v 2.667968 C 4.000052,26.702158 4.4271621,26.999963 4.953125,27 l 3.2226562,0.253906 a 16,16 0 0 0 0.9863282,3.710938 L 6.5039062,32.791016 C 6.0484243,33.05403 5.8296299,33.526829 6.0136719,33.845703 l 1.3320312,2.308594 c 0.184132,0.318822 0.7026873,0.364511 1.1582031,0.101562 l 2.9082028,-1.386718 a 16,16 0 0 0 2.72461,2.707031 l -1.392578,2.919922 c -0.262949,0.455516 -0.21726,0.974071 0.101562,1.158203 l 2.308594,1.332031 c 0.318874,0.184042 0.791673,-0.03475 1.054687,-0.490234 l 1.830078,-2.66211 a 16,16 0 0 0 3.707032,0.986328 L 22,44.046875 c 3.7e-5,0.525964 0.297842,0.953073 0.666016,0.953125 h 2.667968 C 25.702158,44.999948 25.999963,44.572839 26,44.046875 l 0.253906,-3.222656 a 16,16 0 0 0 3.710938,-0.986328 l 1.826172,2.658203 c 0.263014,0.455479 0.735813,0.674276 1.054687,0.490234 l 2.308594,-1.332031 c 0.318822,-0.184132 0.364511,-0.702687 0.101562,-1.158203 l -1.386718,-2.908203 a 16,16 0 0 0 2.707031,-2.72461 l 2.919922,1.392578 c 0.455516,0.262949 0.974071,0.21726 1.158203,-0.101562 l 1.332031,-2.308594 c 0.184042,-0.318874 -0.03475,-0.791673 -0.490234,-1.054687 l -2.66211,-1.830078 a 16,16 0 0 0 0.986328,-3.707032 L 43.046875,27 C 43.57284,26.999963 43.999948,26.702158 44,26.333984 V 23.666016 C 43.999948,23.297842 43.572839,23.000037 43.046875,23 l -3.222656,-0.253906 a 16,16 0 0 0 -0.986328,-3.710938 l 2.658203,-1.826172 c 0.455481,-0.263014 0.674276,-0.735813 0.490234,-1.054687 L 40.654297,13.845703 C 40.470165,13.526881 39.95161,13.481191 39.496094,13.744141 l -2.908203,1.386718 a 16,16 0 0 0 -2.72461,-2.707031 l 1.392578,-2.9199218 c 0.26295,-0.4555165 0.21726,-0.974071 -0.101562,-1.1582031 L 32.845703,7.0136719 C 32.526829,6.82963 32.05403,7.0484267 31.791016,7.5039062 L 29.960938,10.166016 A 16,16 0 0 0 26.253906,9.1796875 L 26,5.953125 C 25.999963,5.4271615 25.702158,5.0000523 25.333984,5 Z"/>
 <path style="fill:#ff8dcb" d="M 22.666016 4 C 22.297842 4.0000523 22.000037 4.4271615 22 4.953125 L 21.746094 8.1757812 A 16 16 0 0 0 18.035156 9.1621094 L 16.208984 6.5039062 C 15.94597 6.0484266 15.473171 5.82963 15.154297 6.0136719 L 12.845703 7.3457031 C 12.526881 7.5298352 12.481191 8.0483897 12.744141 8.5039062 L 14.130859 11.412109 A 16 16 0 0 0 11.423828 14.136719 L 8.5039062 12.744141 C 8.0483896 12.481191 7.5298352 12.526881 7.3457031 12.845703 L 6.0136719 15.154297 C 5.82963 15.473171 6.0484265 15.94597 6.5039062 16.208984 L 9.1660156 18.039062 A 16 16 0 0 0 8.1796875 21.746094 L 4.953125 22 C 4.427159 22.000036 4.0000519 22.297842 4 22.666016 L 4 25.333984 C 4.000052 25.702158 4.4271621 25.999963 4.953125 26 L 8.1757812 26.253906 A 16 16 0 0 0 9.1621094 29.964844 L 6.5039062 31.791016 C 6.0484243 32.05403 5.8296299 32.526829 6.0136719 32.845703 L 7.3457031 35.154297 C 7.5298351 35.473119 8.0483904 35.518808 8.5039062 35.255859 L 11.412109 33.869141 A 16 16 0 0 0 14.136719 36.576172 L 12.744141 39.496094 C 12.481192 39.95161 12.526881 40.470165 12.845703 40.654297 L 15.154297 41.986328 C 15.473171 42.17037 15.94597 41.951573 16.208984 41.496094 L 18.039062 38.833984 A 16 16 0 0 0 21.746094 39.820312 L 22 43.046875 C 22.000037 43.572839 22.297842 43.999948 22.666016 44 L 25.333984 44 C 25.702158 43.999948 25.999963 43.572839 26 43.046875 L 26.253906 39.824219 A 16 16 0 0 0 29.964844 38.837891 L 31.791016 41.496094 C 32.05403 41.951573 32.526829 42.17037 32.845703 41.986328 L 35.154297 40.654297 C 35.473119 40.470165 35.518808 39.95161 35.255859 39.496094 L 33.869141 36.587891 A 16 16 0 0 0 36.576172 33.863281 L 39.496094 35.255859 C 39.95161 35.518808 40.470165 35.473119 40.654297 35.154297 L 41.986328 32.845703 C 42.17037 32.526829 41.951576 32.05403 41.496094 31.791016 L 38.833984 29.960938 A 16 16 0 0 0 39.820312 26.253906 L 43.046875 26 C 43.57284 25.999963 43.999948 25.702158 44 25.333984 L 44 22.666016 C 43.999948 22.297842 43.572839 22.000037 43.046875 22 L 39.824219 21.746094 A 16 16 0 0 0 38.837891 18.035156 L 41.496094 16.208984 C 41.951575 15.94597 42.17037 15.473171 41.986328 15.154297 L 40.654297 12.845703 C 40.470165 12.526881 39.95161 12.481191 39.496094 12.744141 L 36.587891 14.130859 A 16 16 0 0 0 33.863281 11.423828 L 35.255859 8.5039062 C 35.518809 8.0483897 35.473119 7.5298352 35.154297 7.3457031 L 32.845703 6.0136719 C 32.526829 5.82963 32.05403 6.0484267 31.791016 6.5039062 L 29.960938 9.1660156 A 16 16 0 0 0 26.253906 8.1796875 L 26 4.953125 C 25.999963 4.4271615 25.702158 4.0000523 25.333984 4 L 22.666016 4 z"/>
 <circle style="opacity:0.2" cx="24" cy="25" r="12"/>
 <circle style="fill:#fdcfea" cx="24" cy="24" r="12"/>
 <path style="opacity:0.1" d="M 19.401622,18 C 16.427229,18 14,20.233333 14,23 c 0,1.4396 0.651081,2.752934 1.696489,3.666667 L 23.865352,34 32.302797,26.666667 C 33.348548,25.753332 34,24.440001 34,23 c 0,-2.766666 -2.42723,-5 -5.401622,-5 -1.96007,0 -3.657273,0.961332 -4.598736,2.416 C 23.056752,18.961333 21.359549,18 19.399478,18 Z"/>
 <path style="fill:#03adee" d="M 19.401622,17 C 16.427229,17 14,19.233333 14,22 c 0,1.4396 0.651081,2.752934 1.696489,3.666667 L 23.865352,33 32.302797,25.666667 C 33.348548,24.753332 34,23.440001 34,22 c 0,-2.766666 -2.42723,-5 -5.401622,-5 -1.96007,0 -3.657273,0.961332 -4.598736,2.416 C 23.056752,17.961333 21.359549,17 19.399478,17 Z"/>
 <path style="opacity:0.3;fill:none;stroke:#000000;stroke-width:0.48887578;stroke-dasharray:0.97775154, 0.48887577" d="m 19.525316,18.243027 c -2.40569,9.74e-4 -4.280878,1.787314 -4.280878,3.930751 0,1.118387 0.498721,2.1397 1.318654,2.863612 l 0.0038,0.0038 7.313403,6.631222 7.556612,-6.635062 c 0.820103,-0.723506 1.318656,-1.744918 1.318656,-2.863612 0,-2.144019 -1.876143,-3.930751 -4.282777,-3.930751 -1.588744,0 -2.923398,0.782047 -3.65575,1.925069 L 24,21.44252 23.182964,20.168096 c -0.733563,-1.14318 -2.067879,-1.924417 -3.65575,-1.925069 z"/>
 <path style="fill:#f4f4f7;opacity:0.2" d="M 22.666016 4 C 22.297842 4.0000523 22.000037 4.4271615 22 4.953125 L 21.746094 8.1757812 A 16 16 0 0 0 18.035156 9.1621094 L 16.208984 6.5039062 C 15.94597 6.0484266 15.473171 5.82963 15.154297 6.0136719 L 12.845703 7.3457031 C 12.535438 7.5248933 12.488721 8.0204917 12.728516 8.4667969 C 12.764765 8.4234498 12.796095 8.374354 12.845703 8.3457031 L 15.154297 7.0136719 C 15.473171 6.82963 15.94597 7.0484266 16.208984 7.5039062 L 18.035156 10.162109 A 16 16 0 0 1 21.746094 9.1757812 L 22 5.953125 C 22.000037 5.4271615 22.297842 5.0000523 22.666016 5 L 25.333984 5 C 25.702158 5.0000523 25.999963 5.4271615 26 5.953125 L 26.253906 9.1796875 A 16 16 0 0 1 29.960938 10.166016 L 31.791016 7.5039062 C 32.05403 7.0484268 32.526829 6.82963 32.845703 7.0136719 L 35.154297 8.3457031 C 35.203905 8.374354 35.235235 8.4234498 35.271484 8.4667969 C 35.511279 8.0204917 35.464562 7.5248933 35.154297 7.3457031 L 32.845703 6.0136719 C 32.526829 5.82963 32.05403 6.0484268 31.791016 6.5039062 L 29.960938 9.1660156 A 16 16 0 0 0 26.253906 8.1796875 L 26 4.953125 C 25.999963 4.4271615 25.702158 4.0000523 25.333984 4 L 22.666016 4 z M 34.207031 11.703125 L 33.863281 12.423828 A 16 16 0 0 1 36.587891 15.130859 L 39.496094 13.744141 C 39.95161 13.481191 40.470165 13.526881 40.654297 13.845703 L 41.841797 15.904297 C 42.03882 15.658839 42.111981 15.372005 41.986328 15.154297 L 40.654297 12.845703 C 40.470165 12.526881 39.95161 12.481191 39.496094 12.744141 L 36.587891 14.130859 A 16 16 0 0 0 34.207031 11.703125 z M 13.794922 11.707031 A 16 16 0 0 0 11.423828 14.136719 L 8.5039062 12.744141 C 8.0483897 12.481191 7.5298352 12.526881 7.3457031 12.845703 L 6.0136719 15.154297 C 5.8880188 15.372005 5.9611802 15.658839 6.1582031 15.904297 L 7.3457031 13.845703 C 7.5298352 13.526881 8.0483897 13.481191 8.5039062 13.744141 L 11.423828 15.136719 A 16 16 0 0 1 14.130859 12.412109 L 13.794922 11.707031 z M 39.125 18.837891 L 38.837891 19.035156 A 16 16 0 0 1 39.824219 22.746094 L 43.046875 23 C 43.572839 23.000037 43.999948 23.297842 44 23.666016 L 44 22.666016 C 43.999948 22.297842 43.572839 22.000037 43.046875 22 L 39.824219 21.746094 A 16 16 0 0 0 39.125 18.837891 z M 8.8886719 18.847656 A 16 16 0 0 0 8.1796875 21.746094 L 4.953125 22 C 4.427159 22.000036 4.0000519 22.297842 4 22.666016 L 4 23.666016 C 4.0000519 23.297842 4.427159 23.000036 4.953125 23 L 8.1796875 22.746094 A 16 16 0 0 1 9.1660156 19.039062 L 8.8886719 18.847656 z M 39.111328 30.152344 A 16 16 0 0 1 38.833984 30.960938 L 41.496094 32.791016 C 41.6406 32.874459 41.750244 32.981643 41.841797 33.095703 L 41.986328 32.845703 C 42.17037 32.526829 41.951576 32.05403 41.496094 31.791016 L 39.111328 30.152344 z M 8.875 30.162109 L 6.5039062 31.791016 C 6.0484243 32.05403 5.8296299 32.526829 6.0136719 32.845703 L 6.1582031 33.095703 C 6.2497564 32.981643 6.3594008 32.874459 6.5039062 32.791016 L 9.1621094 30.964844 A 16 16 0 0 1 8.875 30.162109 z M 34.205078 37.292969 A 16 16 0 0 1 33.869141 37.587891 L 35.255859 40.496094 C 35.262917 40.508319 35.264871 40.520894 35.271484 40.533203 C 35.468199 40.297969 35.477894 39.880732 35.255859 39.496094 L 34.205078 37.292969 z M 13.792969 37.296875 L 12.744141 39.496094 C 12.522106 39.880732 12.531801 40.297969 12.728516 40.533203 C 12.735129 40.520894 12.737083 40.508319 12.744141 40.496094 L 14.136719 37.576172 A 16 16 0 0 1 13.792969 37.296875 z"/>
 <path style="opacity:0.2;fill:#f4f4f7" d="M 24 12 A 12 12 0 0 0 12 24 A 12 12 0 0 0 12.019531 24.59375 A 12 12 0 0 1 24 13 A 12 12 0 0 1 35.980469 24.40625 A 12 12 0 0 0 36 24 A 12 12 0 0 0 24 12 z"/>
</svg>
