<svg xmlns="http://www.w3.org/2000/svg" width="48" height="48" version="1.1">
 <circle style="opacity:0.2" cx="24" cy="25" r="20"/>
 <circle style="fill:#473fd9" cx="24" cy="24" r="20"/>
 <circle style="opacity:0.2" cx="24" cy="25" r="16"/>
 <circle style="fill:#78ffb8" cx="24" cy="24" r="16"/>
 <path style="fill:#f4f4f7;opacity:0.2" d="M 24 8 A 16 16 0 0 0 8 24 A 16 16 0 0 0 8.0214844 24.580078 A 16 16 0 0 1 24 9 A 16 16 0 0 1 39.978516 24.419922 A 16 16 0 0 0 40 24 A 16 16 0 0 0 24 8 z"/>
 <path style="fill:#5952d2" d="m 16.413808,30.45972 -1.554744,0.606541 -1.287918,-1.055366 0.266825,-1.661906 1.554744,-0.606541 1.287918,1.055366 z"/>
 <path style="fill:#f99e00" d="M 19.3678,19.544408 18.827829,25.180393 13.676936,27.530756 9.0660164,24.245134 9.6059887,18.60915 14.756881,16.258787 Z"/>
 <path style="fill:#ea6f2a" d="m 35.847122,28.473451 -3.022374,2.169891 -3.390367,-1.532507 -0.367994,-3.702398 3.022374,-2.16989 3.390367,1.532507 z"/>
 <path style="fill:#3f3f3f" d="M 17.919922 10 C 17.410796 10 17 10.410796 17 10.919922 L 17 37.080078 C 17 37.589204 17.410796 38 17.919922 38 L 30.080078 38 C 30.589204 38 31 37.589204 31 37.080078 L 31 10.919922 C 31 10.410796 30.589204 10 30.080078 10 L 17.919922 10 z"/>
 <rect style="fill:#bb0eff" width="12" height="22" x="18" y="14" ry=".721"/>
 <path style="fill:#0478f5" d="m 38.211285,22.152896 -2.656192,1.906993 -2.9796,-1.346833 -0.323409,-3.253826 2.656192,-1.906993 2.979601,1.346833 z"/>
 <path style="fill:#00c75f" d="m 38.78307,25.922878 -1.204565,0.876302 -1.351229,-0.618897 -0.146663,-1.495199 1.204565,-0.876301 1.351229,0.618897 z"/>
 <path style="fill:#569100" d="m 12.96824,30.323989 -1.927994,0.820619 -1.6566496,-1.275241 0.2713442,-2.095861 1.9279934,-0.820618 1.65665,1.275241 z"/>
 <path style="opacity:0.1;fill:#f4f4f7" d="M 24,4.0000024 A 20.000001,20.000001 0 0 0 4.0000002,24.000002 20.000001,20.000001 0 0 0 4.0214846,24.582033 20.000001,20.000001 0 0 1 24,5.0000024 20.000001,20.000001 0 0 1 43.978516,24.417971 20.000001,20.000001 0 0 0 44,24.000002 20.000001,20.000001 0 0 0 24,4.0000024 Z"/>
 <path style="fill:#5be19b" d="M 27.761719 28.619141 C 27.711823 28.619141 27.694076 28.625244 27.660156 28.652344 C 27.60216 28.698683 27.595471 28.705661 27.480469 28.923828 C 27.319839 29.228547 27.268086 29.328 27.191406 29.470703 C 27.152267 29.543532 26.997135 29.83572 26.847656 30.119141 C 26.695649 30.407355 26.5706 30.634766 26.5625 30.634766 C 26.550125 30.634766 26.508432 30.614686 26.363281 30.541016 C 26.306591 30.512245 25.975087 30.384193 25.857422 30.345703 C 25.683856 30.288944 25.602188 30.264409 25.466797 30.230469 C 25.385593 30.210109 25.2877 30.185581 25.25 30.175781 C 25.2123 30.165971 25.17075 30.156097 25.15625 30.154297 C 25.090498 30.145847 24.89141 30.113826 24.84375 30.103516 C 24.794635 30.092896 24.674899 30.079147 24.458984 30.060547 C 24.341421 30.050415 23.657998 30.050367 23.542969 30.060547 C 23.493671 30.064867 23.419506 30.072872 23.378906 30.076172 C 23.338303 30.079462 23.270063 30.08665 23.226562 30.09375 C 23.183059 30.10091 23.129675 30.109228 23.109375 30.111328 C 22.992323 30.123731 22.681445 30.189077 22.460938 30.248047 C 22.248473 30.304876 21.894792 30.429752 21.722656 30.507812 C 21.664657 30.534113 21.600368 30.562113 21.580078 30.570312 C 21.559778 30.578542 21.52443 30.595405 21.5 30.609375 C 21.47558 30.623345 21.4468 30.634912 21.4375 30.632812 C 21.427925 30.630666 21.340884 30.477965 21.238281 30.283203 C 21.057336 29.93974 20.936544 29.708376 20.755859 29.367188 C 20.703871 29.269015 20.605743 29.085648 20.539062 28.958984 C 20.374219 28.645844 20.343819 28.612894 20.226562 28.621094 C 20.149857 28.626428 20.09483 28.665185 20.0625 28.734375 C 20.01871 28.828124 20.023058 28.886256 20.085938 29.003906 C 20.125382 29.077698 20.24428 29.299824 20.648438 30.064453 C 20.678567 30.121456 20.746931 30.250225 20.800781 30.351562 C 21.057852 30.835338 21.054829 30.830073 21.042969 30.845703 C 21.036641 30.85403 20.969238 30.902002 20.892578 30.951172 C 20.748112 31.043834 20.504624 31.217191 20.394531 31.306641 C 20.35973 31.334921 20.307164 31.378404 20.277344 31.402344 C 20.018841 31.609694 19.569723 32.080575 19.349609 32.376953 C 19.326479 32.408099 19.285782 32.464413 19.257812 32.501953 C 19.127064 32.677432 18.907825 33.023539 18.828125 33.179688 C 18.810345 33.214518 18.778333 33.272547 18.757812 33.310547 C 18.583429 33.633461 18.370305 34.164101 18.269531 34.525391 C 18.250981 34.591894 18.231963 34.659971 18.226562 34.675781 C 18.20221 34.74747 18.125314 35.088628 18.089844 35.285156 C 18.076589 35.358578 18.067164 35.454257 18.054688 35.546875 C 18.148948 35.782822 18.36479 35.944611 18.625 35.980469 C 18.713354 35.995693 18.770431 36 24 36 C 28.2789 36 29.077779 35.997009 29.339844 35.988281 C 29.619064 35.964064 29.850311 35.789743 29.947266 35.539062 C 29.937992 35.467637 29.92901 35.378736 29.921875 35.34375 C 29.916055 35.31525 29.898259 35.219529 29.880859 35.130859 C 29.721547 34.318776 29.398033 33.502646 28.970703 32.837891 C 28.836751 32.629526 28.801129 32.579006 28.724609 32.476562 C 28.689809 32.429961 28.649052 32.374482 28.632812 32.351562 C 28.496737 32.159586 28.12126 31.755983 27.875 31.537109 C 27.723265 31.402241 27.702349 31.384405 27.560547 31.269531 C 27.467753 31.194355 27.186746 30.997068 27.068359 30.923828 C 27.015373 30.891048 26.965784 30.856656 26.958984 30.847656 C 26.94898 30.83449 26.992847 30.745898 27.181641 30.390625 C 27.310616 30.147929 27.426613 29.927684 27.439453 29.902344 C 27.452293 29.877006 27.488421 29.80831 27.519531 29.75 C 27.960272 28.923876 27.964716 28.91489 27.964844 28.84375 C 27.964989 28.718803 27.875772 28.619141 27.761719 28.619141 z M 21.238281 33.046875 C 21.351479 33.046875 21.426052 33.068919 21.513672 33.130859 C 21.607842 33.197434 21.672954 33.28792 21.714844 33.414062 C 21.744634 33.503776 21.741684 33.694414 21.708984 33.777344 C 21.643706 33.94292 21.513952 34.073108 21.378906 34.111328 L 21.378906 34.113281 C 21.301209 34.135161 21.16159 34.133908 21.09375 34.111328 C 20.978676 34.073027 20.865351 33.975711 20.806641 33.865234 C 20.674414 33.61641 20.741922 33.293571 20.960938 33.132812 C 21.045385 33.070822 21.124077 33.046875 21.238281 33.046875 z M 26.605469 33.066406 C 26.677821 33.038132 26.848522 33.038176 26.919922 33.066406 C 26.999437 33.097846 27.054791 33.136324 27.119141 33.208984 C 27.270565 33.379953 27.30649 33.599296 27.21875 33.806641 C 27.1977 33.856394 27.162838 33.918332 27.142578 33.945312 C 27.09623 34.00707 26.994648 34.083032 26.923828 34.107422 C 26.845272 34.134392 26.693094 34.136138 26.621094 34.111328 C 26.394393 34.033197 26.249575 33.805649 26.265625 33.552734 C 26.28025 33.322217 26.403497 33.145706 26.605469 33.066406 z"/>
</svg>
