<svg xmlns="http://www.w3.org/2000/svg" width="48" height="48" version="1.1">
 <path style="fill:#b2bfd9" d="M 24,4 C 12.954305,4 4,12.954305 4,24 4.0033295,29.822009 6.5434158,35.353577 10.957031,39.150391 10.332105,38.035052 10.002666,36.778478 10,35.5 10,31.357864 13.357864,28 17.5,28 c 4.142136,0 7.5,3.357864 7.5,7.5 -0.0027,4.036065 -3.198926,7.34624 -7.232422,7.490234 C 19.778486,43.654681 21.882166,43.995516 24,44 35.045695,44 44,35.045695 44,24 44,12.954305 35.045695,4 24,4 Z"/>
 <path style="fill:#263547" d="m 24,7 c 9.424375,0 17,7.575625 17,17 0,8.614012 -6.352003,15.611601 -14.636719,16.763672 C 27.308229,39.189325 27.998695,37.452935 28,35.501953 A 3.0003,3.0003 0 0 0 28,35.5 C 28,29.736544 23.263456,25 17.5,25 13.533849,25 10.173322,27.32441 8.3886719,30.601562 7.5118533,28.531384 7.0015814,26.301501 7,24 v -0.002 C 7.0010659,14.574642 14.576288,7 24,7 Z"/>
 <path style="opacity:0.2" d="M 24 7 C 14.576288 7 7.0010659 14.574736 7 23.998047 L 7 24 C 7.0001106 24.160906 7.0203558 24.31834 7.0253906 24.478516 C 7.3012349 15.300118 14.751716 8 24 8 C 33.262126 8 40.72188 15.321633 40.976562 24.519531 C 40.981785 24.345632 41 24.175274 41 24 C 41 14.575625 33.424375 7 24 7 z M 4.0136719 24.478516 C 4.0092096 24.652328 4 24.825112 4 25 C 4.0033295 30.822009 6.5434162 36.353577 10.957031 40.150391 C 10.673297 39.643995 10.459763 39.10619 10.300781 38.552734 C 6.4111672 34.894332 4.1448143 29.827912 4.0136719 24.478516 z M 43.988281 24.5 C 43.722116 35.313936 34.878024 44 24 44 C 22.649343 43.99714 21.307032 43.841523 19.988281 43.568359 C 19.289665 43.814085 18.545353 43.962468 17.767578 43.990234 C 19.778486 44.654681 21.882166 44.995516 24 45 C 35.045695 45 44 36.045695 44 25 C 44 24.832329 43.992384 24.666684 43.988281 24.5 z M 17.5 28 C 13.357864 28 10 31.357864 10 35.5 C 10.000306 35.646724 10.02043 35.791533 10.029297 35.9375 C 10.317664 32.058799 13.547592 29 17.5 29 C 21.475471 29 24.719264 32.09496 24.974609 36.005859 C 24.985956 35.838048 24.999886 35.670589 25 35.5 C 25 31.357864 21.642136 28 17.5 28 z M 27.976562 36.042969 C 27.86165 37.774807 27.21956 39.337053 26.363281 40.763672 C 26.566317 40.735438 26.762242 40.687537 26.962891 40.652344 C 27.583907 39.379281 27.998994 38.006015 28 36.501953 A 3.0003 3.0003 0 0 0 28 36.5 C 28 36.345903 27.983264 36.195526 27.976562 36.042969 z"/>
 <path style="opacity:0.2;fill:#f4f4f7" d="M 24 4 C 12.954305 4 4 12.954305 4 24 C 4.0000915 24.16006 4.0097594 24.318925 4.0136719 24.478516 C 4.2910388 13.67458 13.129193 5 24 5 C 34.878024 5 43.722116 13.686064 43.988281 24.5 C 43.992384 24.333316 44 24.167671 44 24 C 44 12.954305 35.045695 4 24 4 z M 7.0253906 24.478516 C 7.0201582 24.652618 7.0000198 24.822626 7 24.998047 L 7 25 C 7.0015814 27.301501 7.5118533 29.531384 8.3886719 31.601562 C 10.173322 28.32441 13.533849 26 17.5 26 C 23.109359 26 27.732635 30.489635 27.976562 36.042969 C 27.988462 35.863635 27.999878 35.685023 28 35.501953 A 3.0003 3.0003 0 0 0 28 35.5 C 28 29.736544 23.263456 25 17.5 25 C 13.533849 25 10.173322 27.32441 8.3886719 30.601562 C 7.5731547 28.676118 7.092371 26.609396 7.0253906 24.478516 z M 40.976562 24.519531 C 40.73141 32.682662 34.782981 39.280711 26.962891 40.652344 C 26.77836 41.030625 26.579745 41.403029 26.363281 41.763672 C 34.647997 40.611601 41 33.614012 41 25 C 41 24.837751 40.981024 24.680655 40.976562 24.519531 z M 10.029297 35.9375 C 10.015454 36.123689 10 36.310272 10 36.5 C 10.001456 37.198013 10.109605 37.887201 10.300781 38.552734 C 10.515977 38.755139 10.732007 38.956814 10.957031 39.150391 C 10.403825 38.163053 10.097688 37.063412 10.029297 35.9375 z M 24.974609 36.005859 C 24.717508 39.808392 21.630593 42.852326 17.767578 42.990234 C 18.496021 43.230928 19.239228 43.413202 19.988281 43.568359 C 22.912648 42.539765 24.997821 39.757794 25 36.5 C 25 36.333335 24.985314 36.169817 24.974609 36.005859 z"/>
 <circle style="opacity:0.2" cx="35" cy="14" r="11"/>
 <circle style="fill:#ff6c10" cx="35" cy="13" r="11"/>
 <g transform="matrix(1.0050993,0,0,1,-403.09052,-736.68429)">
  <path style="fill:#f4f4f7" transform="matrix(0.99492657,0,0,1,401.04547,736.68429)" d="M 34.683594 5 C 33.652121 5.00001 32.791784 5.31871 32.101562 5.8125 C 30.302119 6.9578687 30.009242 8.6820871 30 10.429688 L 30 22.785156 A 11 11 0 0 0 33 23.808594 L 33 21.867188 L 33 20 C 33.682472 20.8102 34.414241 21 35.5 21 C 37.862204 20.98452 39.897037 18.924099 40 16.664062 C 39.99999 14.681043 39.010816 13.127112 37.033203 12.201172 C 38.359361 11.313832 39.023427 10.176009 39.023438 8.7871094 C 39.023427 7.5988594 38.605147 6.6834187 37.767578 6.0429688 C 36.937738 5.3948286 35.90893 5.00001 34.683594 5 z M 35 6 C 35.690212 6.00001 35.979696 6.1275712 36.40625 6.6445312 C 36.840543 7.1615113 37.056631 7.9066864 37.056641 8.8789062 C 37.056631 9.9668663 36.781102 10.974471 36.230469 11.900391 C 35.6178 11.715111 35.106338 11.623057 34.695312 11.623047 C 34.036098 11.623057 33.707011 11.807374 33.707031 12.177734 C 33.707011 12.586704 34.099508 12.791026 34.882812 12.791016 C 35.255071 12.791026 35.673351 12.732876 36.138672 12.617188 C 37.225529 13.72047 37.824551 15.159343 37.859375 16.353516 C 37.859355 17.441476 37.617485 18.366979 37.128906 19.130859 C 36.640317 19.887049 36.046972 20 35 20 C 33.914231 20 33.001953 19.938215 33.001953 18.773438 L 33.001953 9.5390625 C 33.000914 7 34 6 35 6 z"/>
 </g>
</svg>
