<svg xmlns="http://www.w3.org/2000/svg" width="48" height="48" version="1.1">
 <circle style="opacity:.2" cx="24" cy="25" r="20"/>
 <circle style="fill:#b2bfd9" cx="24" cy="24" r="20"/>
 <circle style="opacity:0.2" cx="24" cy="24" r="6"/>
 <path style="opacity:.2;fill:#f4f4f7" d="m24 4a20 20 0 0 0 -20 20 20 20 0 0 0 0.0196 0.586 20 20 0 0 1 19.9804 -19.586 20 20 0 0 1 19.98 19.414 20 20 0 0 0 0.02 -0.414 20 20 0 0 0 -20 -20z"/>
 <path style="opacity:0.1" d="m 22,16 c -0.554,0 -1,0.446 -1,1 v 4.052734 c 0,0 1.083984,0.952682 1.083984,1.595704 C 22.083984,23.291459 21,24.244141 21,24.244141 V 33 c 0,0.554 0.446,1 1,1 h 4 c 0.554,0 1,-0.446 1,-1 v -4.037109 l -0.0098,-0.01367 c 0,0 -1.130676,-0.993413 -1.130859,-1.664063 -1.83e-4,-0.671189 1.130859,-1.666015 1.130859,-1.666015 L 27,25.605469 V 17 c 0,-0.554 -0.446,-1 -1,-1 z"/>
 <path style="fill:#394045" d="m 22,15 c -0.554,0 -1,0.446 -1,1 v 4.052734 c 0,0 1.083984,0.952682 1.083984,1.595704 C 22.083984,22.291459 21,23.244141 21,23.244141 V 32 c 0,0.554 0.446,1 1,1 h 4 c 0.554,0 1,-0.446 1,-1 v -4.037109 l -0.0098,-0.01367 c 0,0 -1.130676,-0.993413 -1.130859,-1.664063 -1.83e-4,-0.671189 1.130859,-1.666015 1.130859,-1.666015 L 27,24.605469 V 16 c 0,-0.554 -0.446,-1 -1,-1 z"/>
 <path style="opacity:0.1" d="M 24,9 C 15.187133,9 8,16.187133 8,25 8,33.812867 15.187133,41 24,41 32.812867,41 40,33.812867 40,25 40,16.187133 32.812867,9 24,9 Z m 0,4 c 6.651106,0 12,5.348894 12,12 0,6.651106 -5.348894,12 -12,12 -6.651106,0 -12,-5.348894 -12,-12 0,-6.651106 5.348894,-12 12,-12 z"/>
 <path style="fill:#0076e2" d="M 24,8 C 15.187133,8 8,15.187133 8,24 8,32.812867 15.187133,40 24,40 32.812867,40 40,32.812867 40,24 40,15.187133 32.812867,8 24,8 Z m 0,4 c 6.651106,0 12,5.348894 12,12 0,6.651106 -5.348894,12 -12,12 -6.651106,0 -12,-5.348894 -12,-12 0,-6.651106 5.348894,-12 12,-12 z"/>
</svg>
