<svg xmlns="http://www.w3.org/2000/svg" width="48" height="48" version="1">
 <path style="opacity:0.2" d="M 23,5 C 16.906,5 12,10.406 12,16.5 V 20 h 4 V 16.5 C 16,12.553 19.053,9 23,9 h 2 c 3.947,0 7,3.553 7,7.5 V 20 h 4 V 16.5 C 36,10.406 31.094,5 25,5 Z"/>
 <path style="fill:#1d8b59" d="M 23,4 C 16.906,4 12,9.406 12,15.5 V 20 h 4 V 15.5 C 16,11.553 19.053,8 23,8 h 2 c 3.947,0 7,3.553 7,7.5 V 20 h 4 V 15.5 C 36,9.406 31.094,4 25,4 Z"/>
 <path style="opacity:0.2" d="m 8,42 v 1 c 0,1.108 0.892,2 2,2 h 28 c 1.108,0 2,-0.892 2,-2 v -1 c 0,1.108 -0.892,2 -2,2 H 10 C 8.892,44 8,43.108 8,42 Z"/>
 <rect style="fill:#40d630" width="32" height="24" x="8" y="20" rx="2" ry="2"/>
 <path style="opacity:0.2;fill:#f4f4f7" d="m 10,20 c -1.108,0 -2,0.892 -2,2 v 1 c 0,-1.108 0.892,-2 2,-2 h 28 c 1.108,0 2,0.892 2,2 v -1 c 0,-1.108 -0.892,-2 -2,-2 z"/>
 <rect style="fill:#7fe375" width="32" height="14" x="8" y="24" rx="0" ry="0"/>
 <path style="opacity:0.2;fill:#f4f4f7" d="M 23,4 C 16.906,4 12,9.406 12,15.5 v 1 C 12,10.406 16.906,5 23,5 h 2 c 6.094,0 11,5.406 11,11.5 v -1 C 36,9.406 31.094,4 25,4 Z"/>
</svg>
