<svg xmlns="http://www.w3.org/2000/svg" width="48" height="48" version="1">
 <rect fill="#189bc1" width="40" height="40" x="4" y="4" rx="20" ry="20"/>
 <path opacity=".2" d="m24 12c-2.117 1.108-3.042 3.112-4 5-0.609-0.823-0.764-1.977-1-3-1.871 2.464-2.696 6.558-3.449 9.021-1.067 3.502-2.425 5.651-4.365 6.903-1.153 0.744-2.1869 1.125-4.4204 1.631-0.4372 0.13-0.8458 0.22-1.1718 0.295 3.0401 7.155 10.117 12.15 18.406 12.15 0.47 0 0.935-0.021 1.396-0.053 0.682-1.73 0.738-3.888 0.416-5.258-0.237-0.938-0.853-2.623-0.812-2.689s1.045 0.035 1.9 0.035c1.01 0 1.751 0.037 2.286-0.125 0.452-0.137 0.993-0.36 1.314-0.344 1.427 0.072 3.234-0.576 3.711-1.845 0.148-0.395 0.404-0.903 0.568-1.129 0.269-0.371 0.278-0.476 0.106-1.059-0.244-0.824-0.741-1.508-1.793-2.469-0.797-0.727-1.052-0.802-1.092-1.582-0.029-0.572 0.125-0.973-0.186-1.265-0.351-0.332-1.387-0.119-1.445-0.125-0.369-0.43-0.721-0.878-0.041-1.498 0.514-0.47 0.608-0.646 0.608-1.16 0-0.506-0.092-0.686-0.538-1.077-0.294-0.258-0.611-0.468-0.705-0.468-0.093 0-0.567-0.378-1.05-0.838-0.938-0.892-1.663-1.051-2.393-1.051-0.591 0-1.25-0.146-1.25-1 0.786-2.845 3.821-4.343 5-5-2.986-0.423-5.019 0.202-7 2-0.093-1.045 0.889-3.325 1-4z"/>
 <path fill="#f4f4f7" d="m24 11c-2.117 1.108-3.042 3.112-4 5-0.609-0.823-0.764-1.977-1-3-1.871 2.464-2.696 6.558-3.449 9.021-1.067 3.502-2.425 5.651-4.365 6.903-1.153 0.744-2.1869 1.125-4.4204 1.631-0.5641 0.168-1.2666 0.325-1.5117 0.381 0.6938 1.884 1.6619 3.634 2.8555 5.201 0.288 0.378 0.5886 0.745 0.9023 1.101 0.0351 0.04 0.072 0.078 0.1074 0.117 0.8819 0.986 1.8649 1.877 2.9259 2.67 0.127 0.095 0.25 0.194 0.379 0.286 0.296 0.21 0.601 0.409 0.908 0.603 0.172 0.108 0.346 0.213 0.522 0.316 0.3 0.178 0.601 0.352 0.912 0.514 0.205 0.107 0.417 0.201 0.627 0.301 0.485 0.232 0.981 0.444 1.488 0.637 0.29 0.11 0.58 0.221 0.877 0.318 0.268 0.088 0.541 0.164 0.814 0.24 0.297 0.083 0.595 0.159 0.897 0.229 0.361 0.083 0.721 0.169 1.09 0.232 1.011 0.175 2.048 0.274 3.107 0.291h0.008c0.109 0.002 0.216 0.008 0.326 0.008 0.298 0 0.594-0.009 0.889-0.021 1.163-1.808 1.313-4.632 0.923-6.29-0.237-0.938-0.853-2.623-0.812-2.689s1.045 0.035 1.9 0.035c1.01 0 1.751 0.037 2.286-0.125 0.452-0.137 0.993-0.36 1.314-0.344 1.427 0.072 3.234-0.576 3.711-1.845 0.148-0.395 0.404-0.903 0.568-1.129 0.269-0.371 0.278-0.476 0.106-1.059-0.244-0.824-0.741-1.508-1.793-2.469-0.797-0.727-1.052-0.802-1.092-1.582-0.029-0.572 0.125-0.973-0.186-1.265-0.351-0.332-1.387-0.119-1.445-0.125-0.369-0.43-0.721-0.878-0.041-1.498 0.514-0.47 0.608-0.646 0.608-1.16 0-0.506-0.092-0.686-0.538-1.077-0.294-0.258-0.611-0.468-0.705-0.468-0.093 0-0.567-0.378-1.05-0.838-0.938-0.892-1.663-1.051-2.393-1.051-0.591 0-1.25-0.146-1.25-1 0.786-2.845 3.821-4.343 5-5-2.986-0.423-5.019 0.202-7 2-0.093-1.045 0.889-3.325 1-4z"/>
 <path fill="#fff" opacity=".2" d="m24 4c-11.079 0-19.998 8.92-19.998 20 0 0.16772-0.004 0.33329 0 0.5 0.2642-10.846 9.087-19.5 19.998-19.5s19.734 8.6536 19.998 19.5c0.004-0.16671 0-0.33228 0-0.5 0-11.08-8.919-20-19.998-20z"/>
 <path opacity=".2" d="m4.0117 24.5c-0.0041 0.167-0.0117 0.332-0.0117 0.5 0 11.08 8.92 20 20 20s20-8.92 20-20c0-0.168-0.008-0.333-0.012-0.5-0.264 10.846-9.076 19.5-19.988 19.5s-19.724-8.654-19.988-19.5z"/>
</svg>
