<svg xmlns="http://www.w3.org/2000/svg" width="48" height="48" version="1">
 <circle style="opacity:0.2" cx="24" cy="25" r="20"/>
 <circle style="fill:#e53935" cx="24" cy="24" r="20"/>
 <path style="opacity:0.2" transform="matrix(0.98149552,0,0,1,-0.11555152,0.33384955)" d="m 35.777597,24.666151 -8.660253,5 -8.660254,4.999999 0,-9.999999 0,-9.999999 8.660254,4.999999 z"/>
 <path style="fill:#f4f4f7" transform="matrix(0.98149552,0,0,1,-0.11555152,-0.66615105)" d="m 35.777597,24.666151 -8.660253,5 -8.660254,4.999999 0,-9.999999 0,-9.999999 8.660254,4.999999 z"/>
 <path style="opacity:0.2;fill:#f4f4f7" d="M 24 4 A 20 20 0 0 0 4 24 A 20 20 0 0 0 4.0214844 24.582031 A 20 20 0 0 1 24 5 A 20 20 0 0 1 43.978516 24.417969 A 20 20 0 0 0 44 24 A 20 20 0 0 0 24 4 z"/>
</svg>
