<svg xmlns="http://www.w3.org/2000/svg" width="48" height="48" version="1.1">
 <path style="opacity:0.2" d="M 7 11 C 4.23 11 2 13.23 2 16 L 2 34 C 2 36.77 4.23 39 7 39 L 32 39 C 34.77 39 37 36.77 37 34 L 37 29.488281 C 37.057121 29.553803 37.110673 29.634908 37.171875 29.681641 L 44.558594 33.746094 C 45.422285 34.237179 45.986984 33.999874 46 33.154297 L 46 16.826172 C 46.0078 15.968069 45.203721 15.792569 44.558594 16.234375 L 37.171875 21.107422 C 37.112952 21.152376 37.057033 21.224103 37 21.287109 L 37 16 C 37 13.23 34.77 11 32 11 L 7 11 z"/>
 <path style="fill:#6f7a9c" d="m 7.862069,11.005747 24.20977,-0.143678 c 2.769951,-0.01644 3.901696,1.586179 3.778736,4.353448 L 35.060345,33 c -0.12296,2.76727 -1.799086,3.660864 -4.568966,3.635057 L 7.3591954,36.41954 C 4.5893156,36.393734 2,35.77 2,33 V 15 c 0,-0.425436 0.052603,-0.838134 0.1516873,-1.231971 0.5460486,-2.170423 3.3658588,-2.748368 5.7103817,-2.762282 z"/>
 <path style="fill:#6f7a9c" d="m 44.55833,15.234066 -7.386845,4.872532 c -0.798748,0.609384 -1.441858,2.99647 -1.441858,3.934063 0.03789,0.785502 0.493932,3.916496 1.441858,4.640311 l 7.386643,4.066072 c 0.863691,0.491085 1.4288,0.253174 1.441816,-0.592403 V 15.826476 c 0.0078,-0.858103 -0.796487,-1.034216 -1.441614,-0.59241 z"/>
 <path style="opacity:0.1;fill:#f4f4f7" d="M 45.300781 15.001953 C 45.065313 14.990462 44.800516 15.068698 44.558594 15.234375 L 37.171875 20.107422 C 36.373127 20.716806 35.730469 23.103423 35.730469 24.041016 C 35.735603 24.147445 35.768392 24.377869 35.789062 24.558594 C 35.927615 23.462307 36.477198 21.637407 37.171875 21.107422 L 44.558594 16.234375 C 45.203721 15.792569 46.0078 15.968069 46 16.826172 L 46 15.826172 C 46.004875 15.289858 45.693228 15.021105 45.300781 15.001953 z"/>
 <path style="fill:#565f7c" d="M 7 10 C 4.5314507 10 2.4967414 11.773171 2.0820312 14.119141 C 2.6060252 12.913978 3.7862896 12.228848 4.953125 12.236328 C 5.4738413 12.239828 6.0479814 12.380359 6.6503906 12.673828 L 29.744141 23.902344 L 32.697266 22.222656 C 34.946438 21.126916 36.764944 18.305164 37 15.699219 L 37 15 C 37 12.23 34.77 10 32 10 L 7 10 z"/>
 <path style="fill:#434a61" d="M 37 15.699219 C 36.764944 18.305167 34.946438 21.126911 32.697266 22.222656 L 29.472656 23.792969 L 6.6503906 34.912109 C 6.2057063 35.128768 5.7764947 35.26201 5.3730469 35.318359 C 5.3730469 35.318359 5.3710938 35.318359 5.3710938 35.318359 C 5.3553007 35.320659 5.3399508 35.322319 5.3242188 35.324219 C 5.3229234 35.324376 5.3216073 35.324064 5.3203125 35.324219 C 5.2748005 35.329719 5.2284352 35.334381 5.1835938 35.337891 C 5.1820638 35.337998 5.1811575 35.337711 5.1796875 35.337891 C 5.1640925 35.338891 5.1483825 35.340697 5.1328125 35.341797 C 4.8066175 35.363017 4.4983825 35.332183 4.2148438 35.251953 C 4.1569367 35.235833 4.1007972 35.217636 4.0449219 35.197266 C 3.7969361 35.106906 3.5700649 34.975609 3.3671875 34.808594 C 3.3671875 34.808594 3.3652344 34.806641 3.3652344 34.806641 C 3.3172314 34.767051 3.2698122 34.725445 3.2246094 34.681641 C 2.7703916 34.242194 2.2187356 33.594028 2 32.777344 L 2 33 C 2 35.77 4.23 38 7 38 L 32 38 C 34.77 38 37 35.77 37 33 L 37 15.699219 z"/>
 <path style="opacity:0.1;fill:#f4f4f7" d="M 7 10 C 4.5314507 10 2.4967414 11.773171 2.0820312 14.119141 C 2.3202408 13.571269 2.6979848 13.137026 3.1445312 12.820312 C 4.0586849 11.708883 5.4415378 11 7 11 L 32 11 C 34.692319 11 36.868005 13.107942 36.988281 15.769531 C 36.990633 15.746216 36.9979 15.722501 37 15.699219 L 37 15 C 37 12.23 34.77 10 32 10 L 7 10 z"/>
 <path style="opacity:0.2" d="M 13,16.76136 V 32.818 l 16.472656,-8.02539 0.02344,-0.01172 z"/>
 <path style="fill:#f4f4f7" d="M 13 15.761719 L 13 31.818359 L 29.472656 23.792969 L 29.496094 23.78125 L 13 15.761719 z"/>
</svg>
