<svg xmlns="http://www.w3.org/2000/svg" width="48" height="48" version="1.1">
 <circle style="opacity:0.2" cx="24" cy="25" r="20"/>
 <circle style="fill:#1a73e8" cx="24" cy="24" r="20"/>
 <path style="opacity:0.2" d="m 12.267578,17 a 1.265414,1.1166608 0 0 0 -1.097656,1.675781 L 14,22.998047 V 30 c 0,2.216 1.784,4 4,4 h 13 c 2.216,0 4,-1.784 4,-4 v -9 c 0,-2.216 -1.784,-4 -4,-4 H 23.736328 18 Z"/>
 <path style="opacity:0.2;fill:#f4f4f7" d="M 24,4 A 20,20 0 0 0 4,24 20,20 0 0 0 4.0215,24.582 20,20 0 0 1 24,5 20,20 0 0 1 43.979,24.418 20,20 0 0 0 44,24 20,20 0 0 0 24,4 Z"/>
 <rect style="fill:#f4f4f7" width="21" height="17" x="14" y="16" rx="4" ry="4"/>
 <path style="fill:#f4f4f7" d="m 12.266666,16.000001 a 1.265414,1.1166608 0 0 0 -1.097242,1.674824 l 2.86914,4.383329 2.866667,4.383326 a 1.265414,1.1166608 0 0 0 2.19201,0 l 2.866667,-4.383326 2.866668,-4.383329 a 1.265414,1.1166608 0 0 0 -1.09477,-1.674824 h -5.735805 z"/>
 <rect style="fill:#8ab4f8" width="15" height="2" x="17" y="19" rx="1" ry="1"/>
 <rect style="fill:#8ab4f8" width="15" height="2" x="17" y="23" rx="1" ry="1"/>
 <rect style="fill:#8ab4f8" width="11" height="2" x="17" y="27" rx="1" ry="1"/>
</svg>
