<svg xmlns="http://www.w3.org/2000/svg" width="48" height="48" version="1">
 <circle style="opacity:0.2" cx="24" cy="25" r="20"/>
 <circle style="fill:#17a0db" cx="24" cy="24" r="20"/>
 <path style="opacity:0.2;fill:#f4f4f7" d="M 24,4 C 12.921,4 4.002,12.92 4.002,24 4.002,24.168 3.998,24.333 4.002,24.5 4.2662,13.654 13.089,5 24,5 34.911,5 43.734,13.654 43.998,24.5 44.002,24.333 43.998,24.168 43.998,24 43.998,12.92 35.079,4 24,4 Z"/>
 <path style="opacity:0.2" d="m 28.709103,9.000006 a 1.5854893,1.6340226 0 0 0 -1.160848,0.5324551 1.5854893,1.6340226 0 0 0 -0.395454,1.2752669 c 0.04572,0.481288 -0.07633,1.307766 -0.153078,1.603942 -0.0066,0.01851 -0.147103,0.445842 -1.218254,0.986029 a 1.9398161,1.9991956 0 0 0 -0.159463,0.05917 c -0.555167,0.190159 -1.589777,0.545079 -2.270671,1.479047 -0.51761,0.642839 -0.651964,1.297036 -0.797287,2.050941 a 6.8285444,7.0375723 0 0 0 -0.159464,1.741986 v 0.1249 l -0.121189,0.03287 c -1.734062,0.393781 -2.985533,1.203011 -3.712148,2.392767 -0.752741,1.236876 -0.882502,2.774241 -0.376319,4.588326 0.0049,0.02524 0.01898,0.06006 0.02552,0.09203 l 0.07653,0.243221 -0.242374,-0.03944 c -0.08817,-0.01851 -0.171704,-0.02598 -0.26151,-0.03944 a 2.4753882,2.5511621 0 0 0 -0.22324,-0.01313 c -0.840914,0 -1.741682,0.551967 -2.404615,1.472471 -0.511079,0.716883 -1.129978,1.972166 -1.15447,3.930975 -0.01306,1.472471 0.140978,2.826355 0.452858,4.029575 0.236763,0.886849 0.498323,1.43182 0.59956,1.623662 L 17.036833,41 17.94255,36.760071 c 0.369023,-1.701336 0.726666,-2.346276 1.154472,-2.787177 l 0.08291,-0.08545 0.102053,0.06573 c 0.982971,0.612548 2.155709,0.933443 3.386872,0.933443 a 8.1805375,8.4309511 0 0 0 4.056592,-1.156943 c 0.803356,-0.488017 1.486039,-1.084896 2.034673,-1.774853 l 0.07016,-0.0526 0.127573,-0.0065 c 0.318404,-0.0068 0.765803,-0.177432 1.224631,-0.460147 0.382084,-0.235598 0.97649,-0.677756 1.56268,-1.419884 a 8.8826594,9.1545656 0 0 0 1.447874,-2.728015 c 0.426168,-1.235194 0.689975,-2.681898 0.778149,-4.299093 0.102874,-1.485934 -0.07134,-2.709451 -0.497508,-3.641735 a 3.8241155,3.9411751 0 0 0 -2.666138,-2.175855 l -0.09566,-0.0263 -0.01914,-0.105178 a 4.7744294,4.920579 0 0 0 -0.255116,-0.97951 l -0.02553,-0.07888 0.03827,-0.06573 A 4.1425197,4.2693259 0 0 0 30.97978,12.109286 C 30.654837,11.057531 30.399655,10.386557 30.182487,9.986045 29.74162,9.1715573 29.141805,9.0000157 28.709102,9.0000157 Z m -0.02232,1.248973 a 0.34289677,0.35339315 0 0 1 0.02232,0 c 0.230232,0 0.420458,5.1e-5 1.122579,2.241573 0.370655,1.176294 0.09634,2.287169 -0.81642,3.286766 l -0.03189,0.03944 c 0.0066,0.0068 0.0062,0.01296 0.01274,0.01973 0.383717,0.649569 0.593078,1.464845 0.529397,2.070662 a 2.9881005,3.0795689 0 0 1 -0.06378,0.394412 v 0.0065 c 0.07675,-0.0068 0.165019,-0.01313 0.267889,-0.01313 0.452296,0 1.102168,0.07237 1.632841,0.420706 0.318405,0.210353 0.726615,0.532297 1.020527,1.170088 0.337998,0.737077 0.466126,1.754975 0.376318,3.023825 -0.07838,1.497714 -0.312995,2.834666 -0.701612,3.963842 a 7.6612937,7.8958128 0 0 1 -1.250143,2.353323 c -0.842548,1.065228 -1.722598,1.42141 -1.90711,1.426458 -0.127361,0 -0.18997,-0.04648 -0.452857,-0.236647 -0.02449,-0.01346 -0.05843,-0.04065 -0.08291,-0.05917 -0.498017,0.913772 -1.270351,1.701807 -2.245158,2.294162 a 6.9608045,7.173881 0 0 1 -3.450648,0.992629 c -1.351992,0 -2.558355,-0.453416 -3.482545,-1.30156 -1.110332,0.737077 -1.831028,1.393116 -2.423748,4.1479 l -0.204106,0.946589 -0.440103,-0.854559 a 6.4382952,6.6353772 0 0 1 -0.497516,-1.367241 12.985991,13.383504 0 0 1 -0.40821,-3.687752 c 0.0196,-1.538103 0.464593,-2.537438 0.848311,-3.096135 0.439236,-0.663034 1.013946,-1.071487 1.498899,-1.071486 h 0.0893 c 0.772336,0.09256 1.256318,0.426227 2.149483,1.032044 l 0.280657,0.190629 c 0.306974,0.203621 0.670229,0.414712 0.784528,0.460148 0.07838,-0.04544 0.261766,-0.354024 0.318915,-0.815119 l 0.01274,-0.06573 v -0.01973 c -0.0066,-0.0068 -0.0062,-0.0065 -0.01274,-0.0065 -0.599254,-0.210352 -1.420419,-1.183867 -1.843325,-2.629411 -0.401679,-1.447231 -0.319323,-2.64235 0.242374,-3.562854 0.911126,-1.497716 2.864872,-1.841275 3.501679,-1.952341 0.197575,-0.04039 0.401986,-0.07811 0.599562,-0.11176 0.03919,-0.0068 0.0679,-0.02123 0.09566,-0.0263 a 0.43923444,0.4526798 0 0 1 -0.01914,-0.06574 c -0.01143,-0.0589 -0.0347,-0.13279 -0.05103,-0.216925 -0.199208,-0.927236 -0.09694,-1.702545 0.02552,-2.333604 0.140424,-0.703422 0.223291,-1.124549 0.561289,-1.525061 0.45393,-0.644522 1.23749,-0.913142 1.709381,-1.078059 a 3.9514771,4.0724354 0 0 0 0.280646,-0.105176 c 1.33893,-0.663033 1.759132,-1.340213 1.881592,-1.794577 0.0947,-0.375269 0.255185,-1.366031 0.184973,-2.050941 a 0.38045215,0.39209813 0 0 1 0.09566,-0.315529 0.34289677,0.35339315 0 0 1 0.239184,-0.11832 z m 0.347616,2.537382 c -0.127362,0.848143 -0.325904,1.657898 -0.707987,2.51109 0.414741,-0.486336 0.658238,-1.011746 0.73988,-1.597369 0.03266,-0.242327 0.06608,-0.479552 -0.03189,-0.913721 z m -0.924851,1.446176 c -0.64334,0.637791 -1.436085,0.987398 -1.939,1.20953 a 4.9311822,5.0821301 0 0 0 -0.414592,0.190635 c -0.03266,0.02524 -0.07726,0.04538 -0.114804,0.07231 -0.306976,0.183427 -0.766978,0.46125 -0.835556,0.624485 v 0.01313 c -0.210637,0.454363 -0.325855,1.136327 -0.369942,1.52506 0.491484,-0.302909 0.988481,-0.505426 1.403223,-0.677074 0.388616,-0.156503 0.720032,-0.288815 0.886582,-0.447 0.746209,-0.689958 1.193046,-1.834594 1.384089,-2.511089 z m 0.325293,2.208708 c -0.166549,0.117798 -0.497048,0.381421 -0.720746,0.585043 a 0.92418846,0.9524787 0 0 0 -0.235994,0.315532 c -0.0066,0.01346 -0.01258,0.02614 -0.01914,0.03287 -0.12083,0.36854 0.04354,0.874913 0.363563,1.05834 0.08164,0.05217 0.165633,0.0853 0.242374,0.09203 h 0.03189 c 0.24166,0 0.441479,-0.183797 0.586802,-0.545605 a 1.5397698,1.5869035 0 0 0 0.03827,-0.893999 2.1912737,2.2583506 0 0 0 -0.287021,-0.644205 z m -1.747655,1.097781 c -1.498947,0.511579 -1.952317,0.801969 -2.200509,1.012322 -0.133893,0.111063 -0.211351,0.426493 0.165835,1.301561 0.191044,0.439217 0.848109,1.043931 1.128957,1.097782 a 0.19594102,0.20193895 0 0 0 0.06378,0.0065 c 0.471889,0 1.530942,-0.708943 1.728516,-1.032045 l 0.01914,-0.0263 0.01914,-0.01973 c 0.07022,-0.06564 0.262478,-0.427278 0.357183,-0.637632 -1.007461,-0.314643 -1.115383,-0.875706 -1.218252,-1.373823 a 0.92092278,0.94911305 0 0 0 -0.03189,-0.157765 1.2736167,1.3126032 0 0 0 -0.03189,-0.170911 z m 3.823783,1.741984 a 0.29554437,0.30459125 0 0 0 -0.105235,0.0263 c -0.133894,0.05385 -0.349838,0.689117 -0.255133,1.156943 0.06532,0.321419 0.432551,1.393063 0.618694,1.906326 0.06204,0.19689 0.101909,0.288286 0.10844,0.328676 a 0.62047988,0.63947333 0 0 1 0.03827,0.118319 c 0.146956,0.454363 0.517151,1.624346 0.631451,2.576825 a 13.51993,13.933787 0 0 0 0.306157,-3.687753 3.415905,3.5204689 0 0 0 -0.497505,-1.781426 c -0.249827,-0.40051 -0.561701,-0.644205 -0.816423,-0.644205 a 0.29554437,0.30459125 0 0 0 -0.02871,0 z m -0.940797,0.144624 a 3.7555362,3.8704965 0 0 0 -0.918474,0.532456 l -0.01914,0.01313 a 8.3274932,8.5824052 0 0 0 -0.497508,0.420707 c -1.027056,0.952479 -1.799799,1.447228 -2.296183,1.472469 h -0.02552 c -0.432704,-0.0404 -1.090789,-0.689069 -1.358575,-1.018901 a 0.34942815,0.36012446 0 0 0 -0.204105,-0.05917 c -0.08164,0 -0.179563,0.01925 -0.274268,0.03945 -0.06369,0.01178 -0.133891,0.02445 -0.204104,0.03287 a 6.408904,6.6050863 0 0 0 -0.810043,0.164345 21.97805,22.650818 0 0 0 -0.586801,0.138041 c -0.726606,0.217091 -1.274118,0.472513 -1.543537,0.716522 l -0.01914,0.01973 c -0.186144,0.13126 -0.620377,0.505845 -0.752637,1.150369 v 0.0065 c -0.274317,1.189758 0.141698,2.655708 0.695233,3.49712 0.261254,0.393781 0.535163,0.638367 0.765394,0.677073 0.05551,0.0068 0.127363,0.01313 0.204106,0.01313 0.886632,0 2.755267,-0.54534 3.986429,-0.907147 l 0.497509,-0.144623 a 1.0450187,1.0770077 0 0 0 0.07015,-0.01973 c -0.06368,-0.07237 -0.185429,-0.176906 -0.36994,-0.341823 -0.822952,-0.572161 -1.600338,-0.841412 -2.442885,-0.841412 -0.186144,0 -0.374533,0.01246 -0.586802,0.03944 -0.713552,0.08414 -1.307192,0.256 -1.594572,0.341822 a 0.90786005,0.93565046 0 0 1 -0.235999,0.0592 0.20573806,0.21203589 0 0 1 -0.19135,-0.138041 0.21390227,0.22045001 0 0 1 0.06379,-0.230075 h 0.0063 c 0.489852,-0.427438 1.415008,-1.222572 3.157251,-1.577648 0.29881,-0.0589 0.62349,-0.09204 0.963121,-0.09204 0.777233,0 1.588196,0.164867 2.404614,0.493016 1.103804,0.447632 1.860982,1.01795 2.468398,1.479046 0.331468,0.242329 0.612879,0.458991 0.861071,0.578471 0.06532,0.03366 0.09538,0.03945 0.10844,0.03945 a 0.4408673,0.45436264 0 0 0 0.07016,-0.164346 c 0.01143,-0.02524 0.0818,-0.329412 -0.414588,-2.050942 a 29.783036,30.694721 0 0 0 -0.81639,-2.471634 c -0.35106,-0.880117 -0.267225,-1.496663 -0.159463,-1.866884 z m -4.566856,4.647486 c -0.765802,0 -1.433992,0.150142 -1.958133,0.335251 0.128994,-0.0068 0.261408,-0.0065 0.401831,-0.0065 0.16002,0 0.330803,0.0014 0.503885,0.01313 0.547002,0.04039 1.95247,0.295441 3.214656,1.853736 0.256357,0.30964 0.530165,0.571897 1.313929,0.571897 0.274318,0 0.600017,-0.03297 0.988635,-0.09859 l 0.10844,-0.03287 c 0.267787,-0.07237 0.479443,-0.136931 0.63783,-0.184057 -0.324936,-0.228865 -0.702429,-0.5262 -1.211877,-0.933443 -1.257287,-1.00633 -2.601473,-1.518486 -3.999186,-1.518487 z m 1.67749,2.62284 c -0.01796,0.0068 -0.0498,0.0128 -0.102053,0.0263 l -0.01914,0.0065 c -0.261256,0.09929 -0.733554,0.263415 -1.275658,0.453573 -0.656401,0.230547 -1.398324,0.485968 -2.015541,0.716516 -0.791925,0.302908 -1.045681,0.421442 -1.128956,0.460147 l -0.05104,0.151185 c -0.184511,0.585624 -0.612264,1.927045 -2.723527,2.86606 0.440865,0.454364 1.384955,1.268694 3.252926,1.268693 0.160018,0 0.330956,-0.0062 0.497505,-0.01973 a 5.7508688,5.9269081 0 0 0 3.7313,-1.807723 C 27.75285,29.851539 28.262296,28.6408 28.275358,27.4847 a 2.9766706,3.0677892 0 0 1 -0.943985,-0.24322 c 0,-0.0068 -0.396169,-0.204464 -0.63783,-0.525883 -0.0066,-0.0068 -0.01274,-0.01296 -0.01274,-0.01973 z m 4.439288,0.09859 a 3.5775564,3.6870686 0 0 1 -1.014148,0.440428 c -0.440865,0.13126 -0.866832,0.202832 -1.097064,0.24322 -0.01959,0.235595 -0.05766,0.690272 -0.114805,1.038619 a 5.3753153,5.5398585 0 0 1 -0.267888,0.953161 l 0.33805,0.315529 c 0.326569,-0.223815 1.409651,-1.072538 2.15586,-2.990957 z m -13.585753,1.61709 c -0.153486,0.04039 -1.200138,0.769051 -1.428737,2.944944 -0.114298,1.051764 0.08218,2.398129 0.248754,3.221029 0.133893,-0.488017 0.344428,-1.019266 0.752637,-1.564501 0.382086,-0.51326 0.796318,-0.913616 1.313929,-1.268693 a 1.2393269,1.2772638 0 0 1 -0.465617,-0.33524 1.0515501,1.083739 0 0 1 -0.235997,-0.847987 c 0.133894,-1.637387 -0.05066,-2.030697 -0.133941,-2.123252 -0.0196,-0.02693 -0.03338,-0.02631 -0.03827,-0.02629 z m 1.135335,0.414131 c -0.0066,0.348345 -0.05011,0.669502 -0.0893,0.992604 a 11.442956,11.793235 0 0 0 -0.06378,0.532457 c -0.02449,0.361808 0.05189,0.487335 0.08292,0.519309 0.01959,0.02693 0.05112,0.04601 0.114805,0.04601 a 0.47025844,0.48465347 0 0 0 0.172213,-0.03944 c 0.625376,-0.26925 1.217893,-0.743386 1.505274,-0.999174 -0.440867,-0.205305 -1.109822,-0.639474 -1.722138,-1.051765 z"/>
 <path style="fill:#f4f4f7" d="M 28.709103,8.000003 A 1.5854893,1.6340226 0 0 0 27.548255,8.5324581 1.5854893,1.6340226 0 0 0 27.152801,9.807725 c 0.04572,0.481288 -0.07633,1.307766 -0.153078,1.603942 -0.0066,0.01851 -0.147103,0.445842 -1.218254,0.986029 a 1.9398161,1.9991956 0 0 0 -0.159463,0.05917 c -0.555167,0.190159 -1.589777,0.545079 -2.270671,1.479047 -0.51761,0.642839 -0.651964,1.297036 -0.797287,2.050941 a 6.8285444,7.0375723 0 0 0 -0.159464,1.741986 v 0.1249 l -0.121189,0.03287 c -1.734062,0.393781 -2.985533,1.203011 -3.712148,2.392767 -0.752741,1.236876 -0.882502,2.774241 -0.376319,4.588326 0.0049,0.02524 0.01898,0.06006 0.02552,0.09203 l 0.07653,0.243221 -0.242374,-0.03944 c -0.08817,-0.01851 -0.171704,-0.02598 -0.26151,-0.03944 a 2.4753882,2.5511621 0 0 0 -0.22324,-0.01313 c -0.840914,0 -1.741682,0.551967 -2.404615,1.472471 -0.511079,0.716883 -1.129978,1.972166 -1.15447,3.930975 -0.01306,1.472471 0.140978,2.826355 0.452858,4.029575 0.236763,0.886849 0.498323,1.43182 0.59956,1.623662 l 1.983646,3.83237 0.905717,-4.239929 c 0.369023,-1.701336 0.726666,-2.346276 1.154472,-2.787177 l 0.08291,-0.08545 0.102053,0.06573 c 0.982971,0.612548 2.155709,0.933443 3.386872,0.933443 a 8.1805375,8.4309511 0 0 0 4.056592,-1.156943 c 0.803356,-0.488017 1.486039,-1.084896 2.034673,-1.774853 l 0.07016,-0.0526 0.127573,-0.0065 c 0.318404,-0.0068 0.765803,-0.177432 1.224631,-0.460147 0.382084,-0.235598 0.97649,-0.677756 1.56268,-1.419884 a 8.8826594,9.1545656 0 0 0 1.447874,-2.728015 c 0.426168,-1.235194 0.689975,-2.681898 0.778149,-4.299093 0.102874,-1.485934 -0.07134,-2.709451 -0.497508,-3.641735 a 3.8241155,3.9411751 0 0 0 -2.666138,-2.175855 l -0.09566,-0.0263 -0.01914,-0.105178 a 4.7744294,4.920579 0 0 0 -0.255116,-0.97951 l -0.02553,-0.07888 0.03827,-0.06573 A 4.1425197,4.2693259 0 0 0 30.97978,11.109283 C 30.654837,10.057528 30.399655,9.3865538 30.182487,8.986042 29.74162,8.1715543 29.141805,8.0000127 28.709102,8.0000127 Z m -0.02232,1.2489726 a 0.34289677,0.35339315 0 0 1 0.02232,0 c 0.230232,0 0.420458,5.15e-5 1.122579,2.2415734 0.370655,1.176294 0.09634,2.287169 -0.81642,3.286766 l -0.03189,0.03944 c 0.0066,0.0068 0.0062,0.01296 0.01274,0.01973 0.383717,0.649569 0.593078,1.464845 0.529397,2.070662 a 2.9881005,3.0795689 0 0 1 -0.06378,0.394412 v 0.0065 c 0.07675,-0.0068 0.165019,-0.01313 0.267889,-0.01313 0.452296,0 1.102168,0.07237 1.632841,0.420706 0.318405,0.210353 0.726615,0.532297 1.020527,1.170088 0.337998,0.737077 0.466126,1.754975 0.376318,3.023825 -0.07838,1.497714 -0.312995,2.834666 -0.701612,3.963842 a 7.6612937,7.8958128 0 0 1 -1.250143,2.353323 c -0.842548,1.065228 -1.722598,1.42141 -1.90711,1.426458 -0.127361,0 -0.18997,-0.04648 -0.452857,-0.236647 -0.02449,-0.01346 -0.05843,-0.04065 -0.08291,-0.05917 -0.498017,0.913772 -1.270351,1.701807 -2.245158,2.294162 a 6.9608045,7.173881 0 0 1 -3.450648,0.992629 c -1.351992,0 -2.558355,-0.453416 -3.482545,-1.30156 -1.110332,0.737077 -1.831028,1.393116 -2.423748,4.1479 l -0.204106,0.946589 -0.440103,-0.854559 a 6.4382952,6.6353772 0 0 1 -0.497516,-1.367241 12.985991,13.383504 0 0 1 -0.40821,-3.687752 c 0.0196,-1.538103 0.464593,-2.537438 0.848311,-3.096135 0.439236,-0.663034 1.013946,-1.071487 1.498899,-1.071486 h 0.0893 c 0.772336,0.09256 1.256318,0.426227 2.149483,1.032044 l 0.280657,0.190629 c 0.306974,0.203621 0.670229,0.414712 0.784528,0.460148 0.07838,-0.04544 0.261766,-0.354024 0.318915,-0.815119 l 0.01274,-0.06573 v -0.01973 c -0.0066,-0.0068 -0.0062,-0.0065 -0.01274,-0.0065 -0.599254,-0.210352 -1.420419,-1.183867 -1.843325,-2.629411 -0.401679,-1.447231 -0.319323,-2.64235 0.242374,-3.562854 0.911126,-1.497716 2.864872,-1.841275 3.501679,-1.952341 0.197575,-0.04039 0.401986,-0.07811 0.599562,-0.11176 0.03919,-0.0068 0.0679,-0.02123 0.09566,-0.0263 a 0.43923444,0.4526798 0 0 1 -0.01914,-0.06574 c -0.01143,-0.0589 -0.0347,-0.13279 -0.05103,-0.216925 -0.199208,-0.927236 -0.09694,-1.702545 0.02552,-2.333604 0.140424,-0.703422 0.223291,-1.124549 0.561289,-1.525061 0.45393,-0.644522 1.23749,-0.913142 1.709381,-1.078059 a 3.9514771,4.0724354 0 0 0 0.280646,-0.105176 c 1.33893,-0.663033 1.759132,-1.340213 1.881592,-1.794577 0.0947,-0.375269 0.255185,-1.366031 0.184973,-2.0509407 a 0.38045215,0.39209813 0 0 1 0.09566,-0.315529 0.34289677,0.35339315 0 0 1 0.239184,-0.11832 z m 0.347616,2.5373824 c -0.127362,0.848143 -0.325904,1.657898 -0.707987,2.51109 0.414741,-0.486336 0.658238,-1.011746 0.73988,-1.597369 0.03266,-0.242327 0.06608,-0.479552 -0.03189,-0.913721 z m -0.924851,1.446176 c -0.64334,0.637791 -1.436085,0.987398 -1.939,1.20953 a 4.9311822,5.0821301 0 0 0 -0.414592,0.190635 c -0.03266,0.02524 -0.07726,0.04538 -0.114804,0.07231 -0.306976,0.183427 -0.766978,0.46125 -0.835556,0.624485 v 0.01313 c -0.210637,0.454363 -0.325855,1.136327 -0.369942,1.52506 0.491484,-0.302909 0.988481,-0.505426 1.403223,-0.677074 0.388616,-0.156503 0.720032,-0.288815 0.886582,-0.447 0.746209,-0.689958 1.193046,-1.834594 1.384089,-2.511089 z m 0.325293,2.208708 c -0.166549,0.117798 -0.497048,0.381421 -0.720746,0.585043 a 0.92418846,0.9524787 0 0 0 -0.235994,0.315532 c -0.0066,0.01346 -0.01258,0.02614 -0.01914,0.03287 -0.12083,0.36854 0.04354,0.874913 0.363563,1.05834 0.08164,0.05217 0.165633,0.0853 0.242374,0.09203 h 0.03189 c 0.24166,0 0.441479,-0.183797 0.586802,-0.545605 a 1.5397698,1.5869035 0 0 0 0.03827,-0.893999 2.1912737,2.2583506 0 0 0 -0.287021,-0.644205 z m -1.747655,1.097781 c -1.498947,0.511579 -1.952317,0.801969 -2.200509,1.012322 -0.133893,0.111063 -0.211351,0.426493 0.165835,1.301561 0.191044,0.439217 0.848109,1.043931 1.128957,1.097782 a 0.19594102,0.20193895 0 0 0 0.06378,0.0065 c 0.471889,0 1.530942,-0.708943 1.728516,-1.032045 l 0.01914,-0.0263 0.01914,-0.01973 c 0.07022,-0.06564 0.262478,-0.427278 0.357183,-0.637632 -1.007461,-0.314643 -1.115383,-0.875706 -1.218252,-1.373823 a 0.92092278,0.94911305 0 0 0 -0.03189,-0.157765 1.2736167,1.3126032 0 0 0 -0.03189,-0.170911 z m 3.823783,1.741984 a 0.29554437,0.30459125 0 0 0 -0.105235,0.0263 c -0.133894,0.05385 -0.349838,0.689117 -0.255133,1.156943 0.06532,0.321419 0.432551,1.393063 0.618694,1.906326 0.06204,0.19689 0.101909,0.288286 0.10844,0.328676 a 0.62047988,0.63947333 0 0 1 0.03827,0.118319 c 0.146956,0.454363 0.517151,1.624346 0.631451,2.576825 a 13.51993,13.933787 0 0 0 0.306157,-3.687753 3.415905,3.5204689 0 0 0 -0.497505,-1.781426 c -0.249827,-0.40051 -0.561701,-0.644205 -0.816423,-0.644205 a 0.29554437,0.30459125 0 0 0 -0.02871,0 z m -0.940797,0.144624 a 3.7555362,3.8704965 0 0 0 -0.918474,0.532456 l -0.01914,0.01313 a 8.3274932,8.5824052 0 0 0 -0.497508,0.420707 c -1.027056,0.952479 -1.799799,1.447228 -2.296183,1.472469 h -0.02552 c -0.432704,-0.0404 -1.090789,-0.689069 -1.358575,-1.018901 a 0.34942815,0.36012446 0 0 0 -0.204105,-0.05917 c -0.08164,0 -0.179563,0.01925 -0.274268,0.03945 -0.06369,0.01178 -0.133891,0.02445 -0.204104,0.03287 a 6.408904,6.6050863 0 0 0 -0.810043,0.164345 21.97805,22.650818 0 0 0 -0.586801,0.138041 c -0.726606,0.217091 -1.274118,0.472513 -1.543537,0.716522 l -0.01914,0.01973 c -0.186144,0.13126 -0.620377,0.505845 -0.752637,1.150369 v 0.0065 c -0.274317,1.189758 0.141698,2.655708 0.695233,3.49712 0.261254,0.393781 0.535163,0.638367 0.765394,0.677073 0.05551,0.0068 0.127363,0.01313 0.204106,0.01313 0.886632,0 2.755267,-0.54534 3.986429,-0.907147 l 0.497509,-0.144623 a 1.0450187,1.0770077 0 0 0 0.07015,-0.01973 c -0.06368,-0.07237 -0.185429,-0.176906 -0.36994,-0.341823 -0.822952,-0.572161 -1.600338,-0.841412 -2.442885,-0.841412 -0.186144,0 -0.374533,0.01246 -0.586802,0.03944 -0.713552,0.08414 -1.307192,0.256 -1.594572,0.341822 a 0.90786005,0.93565046 0 0 1 -0.235999,0.0592 0.20573806,0.21203589 0 0 1 -0.19135,-0.138041 0.21390227,0.22045001 0 0 1 0.06379,-0.230075 h 0.0063 c 0.489852,-0.427438 1.415008,-1.222572 3.157251,-1.577648 0.29881,-0.0589 0.62349,-0.09204 0.963121,-0.09204 0.777233,0 1.588196,0.164867 2.404614,0.493016 1.103804,0.447632 1.860982,1.01795 2.468398,1.479046 0.331468,0.242329 0.612879,0.458991 0.861071,0.578471 0.06532,0.03366 0.09538,0.03945 0.10844,0.03945 a 0.4408673,0.45436264 0 0 0 0.07016,-0.164346 c 0.01143,-0.02524 0.0818,-0.329412 -0.414588,-2.050942 a 29.783036,30.694721 0 0 0 -0.81639,-2.471634 c -0.35106,-0.880117 -0.267225,-1.496663 -0.159463,-1.866884 z m -4.566856,4.647486 c -0.765802,0 -1.433992,0.150142 -1.958133,0.335251 0.128994,-0.0068 0.261408,-0.0065 0.401831,-0.0065 0.16002,0 0.330803,0.0014 0.503885,0.01313 0.547002,0.04039 1.95247,0.295441 3.214656,1.853736 0.256357,0.30964 0.530165,0.571897 1.313929,0.571897 0.274318,0 0.600017,-0.03297 0.988635,-0.09859 l 0.10844,-0.03287 c 0.267787,-0.07237 0.479443,-0.136931 0.63783,-0.184057 -0.324936,-0.228865 -0.702429,-0.5262 -1.211877,-0.933443 -1.257287,-1.00633 -2.601473,-1.518486 -3.999186,-1.518487 z m 1.67749,2.62284 c -0.01796,0.0068 -0.0498,0.0128 -0.102053,0.0263 l -0.01914,0.0065 c -0.261256,0.09929 -0.733554,0.263415 -1.275658,0.453573 -0.656401,0.230547 -1.398324,0.485968 -2.015541,0.716516 -0.791925,0.302908 -1.045681,0.421442 -1.128956,0.460147 l -0.05104,0.151185 c -0.184511,0.585624 -0.612264,1.927045 -2.723527,2.86606 0.440865,0.454364 1.384955,1.268694 3.252926,1.268693 0.160018,0 0.330956,-0.0062 0.497505,-0.01973 a 5.7508688,5.9269081 0 0 0 3.7313,-1.807723 c 0.906228,-0.965942 1.415674,-2.176681 1.428736,-3.332781 a 2.9766706,3.0677892 0 0 1 -0.943985,-0.24322 c 0,-0.0068 -0.396169,-0.204464 -0.63783,-0.525883 -0.0066,-0.0068 -0.01274,-0.01296 -0.01274,-0.01973 z m 4.439288,0.09859 a 3.5775564,3.6870686 0 0 1 -1.014148,0.440428 c -0.440865,0.13126 -0.866832,0.202832 -1.097064,0.24322 -0.01959,0.235595 -0.05766,0.690272 -0.114805,1.038619 a 5.3753153,5.5398585 0 0 1 -0.267888,0.953161 l 0.33805,0.315529 c 0.326569,-0.223815 1.409651,-1.072538 2.15586,-2.990957 z m -13.585753,1.61709 c -0.153486,0.04039 -1.200138,0.769051 -1.428737,2.944944 -0.114298,1.051764 0.08218,2.398129 0.248754,3.221029 0.133893,-0.488017 0.344428,-1.019266 0.752637,-1.564501 0.382086,-0.51326 0.796318,-0.913616 1.313929,-1.268693 a 1.2393269,1.2772638 0 0 1 -0.465617,-0.33524 1.0515501,1.083739 0 0 1 -0.235997,-0.847987 c 0.133894,-1.637387 -0.05066,-2.030697 -0.133941,-2.123252 -0.0196,-0.02693 -0.03338,-0.02631 -0.03827,-0.02629 z m 1.135335,0.414131 c -0.0066,0.348345 -0.05011,0.669502 -0.0893,0.992604 a 11.442956,11.793235 0 0 0 -0.06378,0.532457 c -0.02449,0.361808 0.05189,0.487335 0.08292,0.519309 0.01959,0.02693 0.05112,0.04601 0.114805,0.04601 a 0.47025844,0.48465347 0 0 0 0.172213,-0.03944 c 0.625376,-0.26925 1.217893,-0.743386 1.505274,-0.999174 -0.440867,-0.205305 -1.109822,-0.639474 -1.722138,-1.051765 z"/>
</svg>
