<svg xmlns="http://www.w3.org/2000/svg" width="48" height="48" version="1">
 <circle style="opacity:0.2" class="cls-1" cx="24" cy="25" r="20"/>
 <circle style="fill:#6a84e2" class="cls-1" cx="24" cy="24" r="20"/>
 <path style="opacity:0.2" d="M 11.820312,16 A 1.8199999,1.8090615 0 0 0 10,17.808594 V 32.191406 A 1.8199999,1.8090615 0 0 0 11.820312,34 H 36.179688 A 1.8199999,1.8090615 0 0 0 38,32.191406 V 17.808594 A 1.8199999,1.8090615 0 0 0 36.179688,16 Z m 1.65625,4 a 0.50939596,0.49773122 0 0 1 0.05078,0 0.50939596,0.49773122 0 0 1 0.234375,0.06641 l 7.986328,4.503906 a 0.50939596,0.49773122 0 0 1 0,0.859376 l -7.986328,4.503906 A 0.50939596,0.49773122 0 0 1 13,29.503906 V 20.496094 A 0.50939596,0.49773122 0 0 1 13.476562,20 Z m 12.351563,1 h 5.34375 A 0.83203262,1.0038729 0 0 1 32,22 0.83203262,1.0038729 0 0 1 31.171875,23 h -5.34375 A 0.83203262,1.0038729 0 0 1 25,22 0.81597021,0.98449311 0 0 1 25.244141,21.294922 0.81597021,0.98449311 0 0 1 25.828125,21 Z m -0.03125,3 h 8.40625 A 0.79650931,0.99999933 0 0 1 34.767578,25.705078 0.79959655,1.0038753 0 0 1 34.203125,26 h -8.40625 A 0.79959655,1.0038753 0 0 1 25,25 0.79959655,1.0038753 0 0 1 25.796875,24 Z m 0,3 h 8.40625 A 0.79650937,0.99999993 0 0 1 34.767578,28.705078 0.79959661,1.0038759 0 0 1 34.203125,29 h -8.40625 A 0.79959661,1.0038759 0 0 1 25,28 0.79959661,1.0038759 0 0 1 25.796875,27 Z"/>
 <path style="fill:#f4f4f7" d="M 11.820312 15 A 1.8199999 1.8090615 0 0 0 10 16.808594 L 10 31.191406 A 1.8199999 1.8090615 0 0 0 11.820312 33 L 36.179688 33 A 1.8199999 1.8090615 0 0 0 38 31.191406 L 38 16.808594 A 1.8199999 1.8090615 0 0 0 36.179688 15 L 11.820312 15 z M 13.476562 19 A 0.50939596 0.49773122 0 0 1 13.527344 19 A 0.50939596 0.49773122 0 0 1 13.761719 19.066406 L 21.748047 23.570312 A 0.50939596 0.49773122 0 0 1 21.748047 24.429688 L 13.761719 28.933594 A 0.50939596 0.49773122 0 0 1 13 28.503906 L 13 19.496094 A 0.50939596 0.49773122 0 0 1 13.476562 19 z M 25.828125 20 L 31.171875 20 A 0.83203262 1.0038729 0 0 1 32 21 A 0.83203262 1.0038729 0 0 1 31.171875 22 L 25.828125 22 A 0.83203262 1.0038729 0 0 1 25 21 A 0.81597021 0.98449311 0 0 1 25.244141 20.294922 A 0.81597021 0.98449311 0 0 1 25.828125 20 z M 25.796875 23 L 34.203125 23 A 0.79650931 0.99999933 0 0 1 34.767578 24.705078 A 0.79959655 1.0038753 0 0 1 34.203125 25 L 25.796875 25 A 0.79959655 1.0038753 0 0 1 25 24 A 0.79959655 1.0038753 0 0 1 25.796875 23 z M 25.796875 26 L 34.203125 26 A 0.79650937 0.99999993 0 0 1 34.767578 27.705078 A 0.79959661 1.0038759 0 0 1 34.203125 28 L 25.796875 28 A 0.79959661 1.0038759 0 0 1 25 27 A 0.79959661 1.0038759 0 0 1 25.796875 26 z"/>
 <path style="fill:#f4f4f7;opacity:0.2" d="M 24 4 A 20 20 0 0 0 4 24 A 20 20 0 0 0 4.0214844 24.582031 A 20 20 0 0 1 24 5 A 20 20 0 0 1 43.978516 24.417969 A 20 20 0 0 0 44 24 A 20 20 0 0 0 24 4 z"/>
</svg>
