<svg xmlns="http://www.w3.org/2000/svg" width="48" height="48" version="1.1">
 <circle style="opacity:0.2" cx="24" cy="25" r="20"/>
 <circle style="fill:#2f6663" cx="24" cy="24" r="20"/>
 <circle style="opacity:0.1" cx="24" cy="25" r="16"/>
 <path style="opacity:0.1;fill:#f4f4f7" d="M 24,4 A 20,20 0 0 0 4,24 20,20 0 0 0 4.0215,24.582 20,20 0 0 1 24,5 20,20 0 0 1 43.979,24.418 20,20 0 0 0 44,24 20,20 0 0 0 24,4 Z"/>
 <path style="fill:#73d216" d="M 15.992188 10.169922 A 16 16 0 0 0 8 24 L 24 24 L 15.992188 10.169922 z"/>
 <path style="fill:#ffe721" d="M 8 24 A 16 16 0 0 0 15.992188 37.833984 L 24 24 L 8 24 z"/>
 <path style="fill:#f57900" d="M 24 24 L 15.992188 37.833984 A 16 16 0 0 0 24 40 A 16 16 0 0 0 32.007812 37.830078 L 24 24 z"/>
 <path style="fill:#ef298c" d="M 24 24 L 32.007812 37.830078 A 16 16 0 0 0 40 24 L 24 24 z"/>
 <path style="fill:#8c398d" d="M 32.007812 10.166016 L 24 24 L 40 24 A 16 16 0 0 0 32.007812 10.166016 z"/>
 <path style="fill:#0874ff" d="M 24 8 A 16 16 0 0 0 15.994141 10.169922 L 24 24 L 32.009766 10.166016 A 16 16 0 0 0 24 8 z"/>
 <path style="opacity:0.1" d="M 23.96875 14.921875 C 22.185727 14.923875 20.232759 15.531265 18.671875 16.998047 C 16.703015 18.848208 15.828059 21.092951 16.070312 23.121094 C 16.312566 25.149236 17.381032 26.747318 18.433594 28.181641 C 19.486156 29.615963 20.590489 30.925066 21.263672 32.076172 C 21.90118 33.166275 22.095638 33.942894 21.9375 34.726562 C 21.71108 35.197398 20.987206 35.84091 19.783203 36.300781 C 18.517707 36.78414 16.912425 37.026546 15.796875 37.015625 C 15.282273 37.010625 13.598678 36.60474 12.441406 36.142578 L 11.166016 39.335938 A 20 20 0 0 0 12.630859 40.447266 C 13.643957 40.764468 14.70219 41.005291 15.757812 41.015625 C 17.417841 41.031875 19.367618 40.741169 21.210938 40.037109 C 23.054256 39.33305 24.940089 38.186725 25.746094 36.066406 A 2.0002 2.0002 0 0 0 25.814453 35.853516 C 26.368624 33.688396 25.655593 31.66193 24.716797 30.056641 C 23.778001 28.451351 22.585273 27.077768 21.658203 25.814453 C 20.731134 24.551139 20.137302 23.436238 20.042969 22.646484 C 19.948639 21.856731 20.061859 21.179119 21.410156 19.912109 C 22.218779 19.152237 22.995342 18.922956 23.972656 18.921875 C 24.949971 18.920775 26.100927 19.236455 27.181641 19.716797 C 29.343068 20.67748 31.076172 22.169922 31.076172 22.169922 L 33.710938 19.160156 C 33.710938 19.160156 31.636606 17.320327 28.806641 16.0625 C 27.391658 15.433587 25.751773 14.919902 23.96875 14.921875 z"/>
 <path style="fill:#2f6663" d="M 23.96875 13.921875 C 22.185727 13.923875 20.232759 14.531265 18.671875 15.998047 C 16.703015 17.848208 15.828059 20.092951 16.070312 22.121094 C 16.312566 24.149236 17.381032 25.747318 18.433594 27.181641 C 19.486156 28.615963 20.590489 29.925066 21.263672 31.076172 C 21.90118 32.166275 22.095638 32.942895 21.9375 33.726562 C 21.71108 34.197398 20.987206 34.84091 19.783203 35.300781 C 18.517707 35.78414 16.912425 36.026546 15.796875 36.015625 C 15.267837 36.010425 12.009464 35.448993 11.242188 35.142578 L 9.9980469 38.255859 A 20 20 0 0 0 11.136719 39.3125 C 12.73171 39.759513 14.496558 40.003277 15.757812 40.015625 C 17.417841 40.031875 19.367618 39.741169 21.210938 39.037109 C 23.054256 38.33305 24.940089 37.186725 25.746094 35.066406 A 2.0002 2.0002 0 0 0 25.814453 34.853516 C 26.368624 32.688396 25.655593 30.66193 24.716797 29.056641 C 23.778001 27.451351 22.585273 26.077768 21.658203 24.814453 C 20.731134 23.551139 20.137302 22.436238 20.042969 21.646484 C 19.948639 20.856731 20.061859 20.179119 21.410156 18.912109 C 22.218779 18.152237 22.995342 17.922956 23.972656 17.921875 C 24.949971 17.920775 26.100927 18.236455 27.181641 18.716797 C 29.343068 19.67748 31.076172 21.169922 31.076172 21.169922 L 33.710938 18.160156 C 33.710938 18.160156 31.636606 16.320327 28.806641 15.0625 C 27.391658 14.433587 25.751774 13.919902 23.96875 13.921875 z"/>
 <path style="opacity:0.2;fill:#f4f4f7" d="M 24 8 A 16 16 0 0 0 8 24 A 16 16 0 0 0 8.0214844 24.580078 A 16 16 0 0 1 24 9 A 16 16 0 0 1 39.978516 24.419922 A 16 16 0 0 0 40 24 A 16 16 0 0 0 24 8 z"/>
</svg>
