<svg xmlns="http://www.w3.org/2000/svg" width="48" height="48" version="1">
 <path style="opacity:0.2" d="m 24.108302,5.000997 a 4.5656761,4.5479 0 0 0 -2.39104,0.6067 l -13.434224,7.726 A 4.5656761,4.5479 0 0 0 6,17.272697 v 15.453 a 4.5656761,4.5479 0 0 0 2.282838,3.9386 l 13.434224,7.7264 a 4.5656761,4.5479 0 0 0 4.565676,0 l 13.434224,-7.7264 A 4.5656761,4.5479 0 0 0 42,32.725297 v -15.453 a 4.5656761,4.5479 0 0 0 -2.283038,-3.939 l -13.434224,-7.726 a 4.5656761,4.5479 0 0 0 -2.175036,-0.6067 z"/>
 <path style="fill:#c8f178" d="M 24.108302,4.0013 A 4.5656761,4.5479 0 0 0 21.717262,4.608 L 8.283038,12.334 A 4.5656761,4.5479 0 0 0 6,16.273 v 15.453 a 4.5656761,4.5479 0 0 0 2.282838,3.9386 l 13.434224,7.7264 a 4.5656761,4.5479 0 0 0 4.565676,0 L 39.716962,35.6646 A 4.5656761,4.5479 0 0 0 42,31.7256 v -15.453 a 4.5656761,4.5479 0 0 0 -2.283038,-3.939 L 26.282738,4.6076 A 4.5656761,4.5479 0 0 0 24.107702,4.0009 Z"/>
 <path style="fill:#86bd1f" d="m 24.044103,8.0005603 c -0.342434,-0.00836 -0.681842,0.076934 -0.982611,0.2518265 L 10.929687,15.316026 C 10.388286,15.631216 9.9999608,16.313528 10,16.937717 v 14.130851 c -3e-7,0.624244 0.394562,1.308332 0.929687,1.619905 l 12.133569,7.065425 c 0.563571,0.328137 1.309919,0.328134 1.873488,0 L 37.070312,32.688473 C 37.605392,32.376963 38.000041,31.692761 38,31.068568 v -14.130851 -0.0018 c 4.1e-5,-0.624144 -0.394608,-1.308396 -0.929688,-1.619905 L 24.938508,8.2523868 a 1.3549742,1.3717871 0 0 0 -0.0018,0 C 24.661164,8.0921372 24.357898,8.0078187 24.045867,8.0005603 a 1.3549742,1.3717871 0 0 0 -0.0018,0 z"/>
 <path style="fill:#f4f4f7;opacity:0.2" d="M 24.107422 4 L 24.107422 4.0019531 A 4.5656761 4.5479 0 0 0 21.716797 4.6074219 L 8.2832031 12.333984 A 4.5656761 4.5479 0 0 0 6 16.273438 L 6 17.273438 A 4.5656761 4.5479 0 0 1 8.2832031 13.333984 L 21.716797 5.6074219 A 4.5656761 4.5479 0 0 1 24.107422 5.0019531 L 24.107422 5 A 4.5656761 4.5479 0 0 1 26.283203 5.6074219 L 39.716797 13.333984 A 4.5656761 4.5479 0 0 1 42 17.271484 L 42 16.273438 A 4.5656761 4.5479 0 0 0 39.716797 12.333984 L 26.283203 4.6074219 A 4.5656761 4.5479 0 0 0 24.107422 4 z"/>
 <path style="opacity:0.1" d="M 24.044922 8 C 23.702488 7.99164 23.361316 8.0770606 23.060547 8.2519531 L 10.929688 15.316406 C 10.388287 15.631596 9.9999608 16.313311 10 16.9375 L 10 17.9375 C 9.9999608 17.313311 10.388287 16.631596 10.929688 16.316406 L 23.060547 9.2519531 C 23.361316 9.0770606 23.702488 8.99164 24.044922 9 C 24.356953 9.0072584 24.661956 9.0917035 24.9375 9.2519531 A 1.3549742 1.3717871 0 0 0 24.939453 9.2519531 L 37.070312 16.316406 C 37.605393 16.627915 38.000041 17.311403 38 17.935547 L 38 16.9375 L 38 16.935547 C 38.000041 16.311403 37.605393 15.627915 37.070312 15.316406 L 24.939453 8.2519531 A 1.3549742 1.3717871 0 0 0 24.9375 8.2519531 C 24.661956 8.0917035 24.356953 8.0072584 24.044922 8 z"/>
 <path style="opacity:0.2;fill:#f4f4f7" d="M 10 31.068359 L 10 32.068359 C 9.9999997 32.692603 10.394562 33.375927 10.929688 33.6875 L 23.0625 40.753906 C 23.626071 41.082043 24.373931 41.08204 24.9375 40.753906 L 37.070312 33.6875 C 37.605393 33.37599 38.000041 32.692552 38 32.068359 L 38 31.068359 C 38.000041 31.692552 37.605393 32.37599 37.070312 32.6875 L 24.9375 39.753906 C 24.373931 40.08204 23.626071 40.082043 23.0625 39.753906 L 10.929688 32.6875 C 10.394562 32.375927 9.9999997 31.692603 10 31.068359 z"/>
 <path style="opacity:0.1" d="M 37.675781 15.925781 L 24 23.84375 L 10.324219 15.927734 C 10.126523 16.236533 9.9999783 16.592346 10 16.9375 L 10 18.050781 L 23 25.578125 L 23 39.716797 L 23.0625 39.753906 C 23.626071 40.082043 24.373931 40.08204 24.9375 39.753906 L 25 39.716797 L 25 25.578125 L 38 18.050781 L 38 16.9375 L 38 16.935547 C 38.000023 16.591178 37.873358 16.234043 37.675781 15.925781 z"/>
 <path style="fill:#c8f178" d="M 7.2519531 13.148438 A 4.5656761 4.5479 0 0 0 6.2285156 14.867188 L 23 24.578125 L 23 43.888672 A 4.5656761 4.5479 0 0 0 23.892578 44 A 4.5656761 4.5479 0 0 0 25 43.884766 L 25 24.578125 L 41.773438 14.865234 A 4.5656761 4.5479 0 0 0 40.746094 13.148438 L 24 22.84375 L 7.2519531 13.148438 z"/>
</svg>
