<svg xmlns="http://www.w3.org/2000/svg" width="48" height="48" version="1.1">
 <rect width="40" height="40" x="4" y="5" rx="12" ry="12" style="opacity:0.2"/>
 <rect width="40" height="40" x="4" y="4" rx="12" ry="12" style="fill:#176fd0"/>
 <path d="m24 14v-4h11v4h-2s-1 0-1 1v18c0 2-1 7-9 7-7 0-10-5.544644-10-10.5 0-10 11-7 11-7v5.5s-1-1-3-1c-1.20185 0-3 1-3 3 0 2.603417 3 4 5 4 3 0 4-2 4-3v-16c0-1-1-1-1-1z" style="opacity:0.2"/>
 <path d="m24 13v-4h11v4h-2s-1 0-1 1v18c0 2-1 7-9 7-7 0-10-5.544644-10-10.5 0-10 11-7 11-7v5.5s-1-1-3-1c-1.20185 0-3 1-3 3 0 2.603417 3 4 5 4 3 0 4-2 4-3v-16c0-1-1-1-1-1z" style="fill:#f4f4f7"/>
 <path style="fill:#f4f4f7;opacity:0.1" d="M 16 4 C 9.352 4 4 9.352 4 16 L 4 17 C 4 10.352 9.352 5 16 5 L 32 5 C 38.648 5 44 10.352 44 17 L 44 16 C 44 9.352 38.648 4 32 4 L 16 4 z"/>
</svg>
