<svg xmlns="http://www.w3.org/2000/svg" width="48" height="48" version="1.1">
 <g transform="translate(0,32)">
  <g transform="matrix(0.07871412,0,0,0.07871412,-13.603644,-21.886191)">
   <path style="opacity:0.2" d="m 528.52459,-64.966862 c -104.65222,0 -190.57954,85.969621 -190.57954,190.673362 a 50.826292,50.851313 0 0 0 0,0.14896 c 0.0295,9.40568 2.78465,18.48296 4.19374,27.75687 l -84.07337,125.15423 c -8.91167,10.90858 -16.92176,24.44088 -20.10018,40.1705 -3.59769,17.8045 -0.60393,34.20398 3.12669,46.79938 a 50.826292,50.851313 0 0 0 0.0744,0.19863 c 11.26116,37.4484 47.74101,68.85999 83.50262,75.07763 15.82278,3.08213 35.01499,3.54643 51.98752,-2.83031 17.36896,-6.52567 27.53795,-16.00723 36.30441,-23.66038 a 50.826292,50.851313 0 0 0 0.0248,0 l 112.61067,-98.34077 c 0.83118,0.018 1.65,0.19146 2.48151,0.19861 a 50.826292,50.851313 0 0 0 0.44667,0 c 104.65221,0 190.57953,-85.96962 190.57953,-190.67335 0,-104.703741 -85.92732,-190.673362 -190.57953,-190.673362 z"/>
   <path style="fill:#f16d00" d="m 528.52459,-77.67106 c -104.65222,0 -190.57954,85.9696212 -190.57954,190.67336 a 50.826292,50.851313 0 0 0 0,0.14896 c 0.0295,9.40568 2.78465,18.48296 4.19374,27.75687 l -84.07337,125.15423 c -8.91167,10.90858 -16.92176,24.44088 -20.10018,40.1705 -3.59769,17.8045 -0.60393,34.20398 3.12669,46.79938 a 50.826292,50.851313 0 0 0 0.0744,0.19863 c 11.26116,37.4484 47.74101,68.85999 83.50262,75.07763 15.82278,3.08213 35.01499,3.54643 51.98752,-2.83031 17.36896,-6.52567 27.53795,-16.00723 36.30441,-23.66038 a 50.826292,50.851313 0 0 0 0.0248,0 l 112.61067,-98.34077 c 0.83118,0.018 1.65,0.19146 2.48151,0.19861 a 50.826292,50.851313 0 0 0 0.44667,0 c 104.65221,0 190.57953,-85.96962 190.57953,-190.67335 0,-104.7037388 -85.92732,-190.67336 -190.57953,-190.67336 z"/>
   <path style="fill:#325481" d="m 400.6691,144.80009 -101.23454,150.6518 c -13.24348,14.77056 -14.60175,25.93368 -9.57967,42.88099 7.34193,24.40319 21.85123,36.24462 43.86064,39.8146 21.79817,4.46387 29.83889,-0.91756 45.86887,-14.90489 l 140.79928,-122.85768 3.11841,2.22986 z"/>
   <circle style="opacity:0.2" cx="528.541" cy="125.596" r="139.746"/>
   <circle style="fill:#bfbfbf" cx="528.541" cy="112.892" r="139.746"/>
   <path style="opacity:0.4" d="m 408.53439,40.766999 -6.84304,13.829393 c 6.89855,51.725228 23.89164,88.136708 59.1836,119.913428 33.54159,30.20067 80.24747,49.87578 140.85313,57.59746 l 15.98541,-11.44791 C 554.33524,214.05154 502.30597,194.52388 469.48347,164.97067 436.66098,135.41745 415.12256,90.165201 408.53439,40.766999 Z"/>
   <path style="opacity:0.2;fill:#f4f4f7" transform="matrix(12.704201,0,0,12.704201,172.82343,-128.48786)" d="M 27.998047 4 C 19.760439 4 12.998047 10.76615 12.998047 19.007812 A 4.0007468 4.0027164 0 0 0 12.998047 19.019531 C 12.998496 19.162776 13.013153 19.305657 13.027344 19.447266 C 13.328186 11.463815 19.949646 5 27.998047 5 C 36.066897 5 42.705338 11.496346 42.974609 19.507812 C 42.980227 19.340468 43 19.176437 43 19.007812 C 43 10.76615 36.235653 4 27.998047 4 z M 13.179688 21.425781 L 6.7089844 31.056641 C 6.0075101 31.9153 5.3771397 32.980607 5.1269531 34.21875 C 4.9980635 34.856608 4.9866803 35.466781 5.0292969 36.041016 C 5.0481053 35.770931 5.0702825 35.499205 5.1269531 35.21875 C 5.3771397 33.980607 6.0075101 32.9153 6.7089844 32.056641 L 13.328125 22.205078 C 13.288397 21.943611 13.231874 21.685176 13.179688 21.425781 z"/>
   <path style="opacity:0.2;fill:#f4f4f7" transform="matrix(12.704201,0,0,12.704201,172.82343,-128.48786)" d="M 28 8 A 11 11 0 0 0 17 19 A 11 11 0 0 0 17.021484 19.585938 A 11 11 0 0 1 28 9 A 11 11 0 0 1 38.978516 19.414062 A 11 11 0 0 0 39 19 A 11 11 0 0 0 28 8 z"/>
  </g>
 </g>
</svg>
