<svg xmlns="http://www.w3.org/2000/svg" width="48" height="48" version="1">
 <circle style="opacity:0.2" cx="24" cy="25" r="20"/>
 <circle style="fill:#455259" cx="24" cy="24" r="20"/>
 <path style="opacity:0.2;fill:none;stroke:#000000;stroke-width:2" d="m 24,37.499572 -5.9,-9.5 5.9,-3.05 5.9,3.05 z m 11.5,-18.5 -11.5,18.5 -5.9,-9.5 z m -23,0 11.5,18.5 5.9,-9.5 z"/>
 <path style="opacity:0.1;fill:#f4f4f7" d="M 24 4 A 20 20 0 0 0 4 24 A 20 20 0 0 0 4.0214844 24.582031 A 20 20 0 0 1 24 5 A 20 20 0 0 1 43.978516 24.417969 A 20 20 0 0 0 44 24 A 20 20 0 0 0 24 4 z"/>
 <path style="fill:none;stroke:#ff5e49;stroke-width:2" d="M 12.5,18 24,36.5 29.9,27 Z"/>
 <path style="fill:none;stroke:#5cd262;stroke-width:2" d="M 35.5,18 24,36.5 18.1,27 Z"/>
 <path style="fill:none;stroke:#f4f4f7;stroke-width:2" d="M 24,36.5 18.1,27 24,23.95 29.9,27 Z"/>
</svg>
