<svg xmlns="http://www.w3.org/2000/svg" width="48" height="48" version="1.1">
 <circle style="opacity:0.2" cx="24" cy="25" r="20"/>
 <circle style="fill:#454564" cx="24" cy="24" r="20"/>
 <path style="opacity:0.2" d="m 12,21 a 4,4 0 0 0 -4,4 4,4 0 0 0 4,4 4,4 0 0 0 4,-4 4,4 0 0 0 -4,-4 z m 12,0 a 4,4 0 0 0 -4,4 4,4 0 0 0 4,4 4,4 0 0 0 4,-4 4,4 0 0 0 -4,-4 z m 12,0 a 4,4 0 0 0 -4,4 4,4 0 0 0 4,4 4,4 0 0 0 4,-4 4,4 0 0 0 -4,-4 z"/>
 <path style="opacity:0.1;fill:#f4f4f7" d="M 24,4 A 20,20 0 0 0 4,24 20,20 0 0 0 4.0215,24.582 20,20 0 0 1 24,5 20,20 0 0 1 43.979,24.418 20,20 0 0 0 44,24 20,20 0 0 0 24,4 Z"/>
 <circle style="fill:#2196f3" cx="24" cy="24" r="4"/>
 <circle style="fill:#2196f3" cx="36" cy="24" r="4"/>
 <circle style="fill:#2196f3" cx="12" cy="24" r="4"/>
 <path style="opacity:0.2;fill:#f4f4f7" d="M 12 20 A 4 4 0 0 0 8 24 A 4 4 0 0 0 8.0351562 24.505859 A 4 4 0 0 1 12 21 A 4 4 0 0 1 15.964844 24.494141 A 4 4 0 0 0 16 24 A 4 4 0 0 0 12 20 z M 24 20 A 4 4 0 0 0 20 24 A 4 4 0 0 0 20.035156 24.505859 A 4 4 0 0 1 24 21 A 4 4 0 0 1 27.964844 24.494141 A 4 4 0 0 0 28 24 A 4 4 0 0 0 24 20 z M 36 20 A 4 4 0 0 0 32 24 A 4 4 0 0 0 32.035156 24.505859 A 4 4 0 0 1 36 21 A 4 4 0 0 1 39.964844 24.494141 A 4 4 0 0 0 40 24 A 4 4 0 0 0 36 20 z"/>
</svg>
