<svg width="48" height="48" version="1.1" xmlns="http://www.w3.org/2000/svg">
 <path d="m22 5-2 9-4 5h3l-2 5-3 2h-3l-4 4 5 2-1 2-4 3v4l10-3 7-2 7 2 10 3v-4l-4-3-1-2 5-2-4-4h-3l-3-2-2-5h3l-4-5-2-9h-4z" style="opacity:.2"/>
 <path d="m22 4-2 9-4 5h3l-2 5-3 2h-3l-4 4 5 2-1 2-4 3v4l10-3 7-2 7 2 10 3v-4l-4-3-1-2 5-2-4-4h-3l-3-2-2-5h3l-4-5-2-9z" style="fill:#54d032"/>
 <path d="m23 10-2 11h6l-2-11 1 10h-4zm-4 11-1 5-3 4 4-3 1-6zm9 0 1 6 4 3-3-4-1-5z" style="opacity:.2"/>
 <path d="m23 9-2 11h6l-2-11 1 10h-4zm-4 11-1 5-3 4 4-3 1-6zm9 0 1 6 4 3-3-4-1-5z" style="fill:#b2bfd9"/>
 <path d="m 24,32 c -8,0 -14,3 -14,7 0,2.048883 1.522396,3.249134 3.650391,3.962891 A 5,4 0 0 0 18,45 5,4 0 0 0 21.337891,43.970703 C 22.286643,43.99102 23.202134,44 24,44 c 0.797866,0 1.713357,-0.009 2.662109,-0.0293 A 5,4 0 0 0 30,45 5,4 0 0 0 34.355469,42.960938 C 36.48037,42.246926 38,41.046998 38,39 38,35 32,32 24,32 Z" style="opacity:.2"/>
 <path d="m10 38c0-4 6-7 14-7s14 3 14 7c0 5-9 5-14 5s-14 0-14-5z" style="fill:#b2bfd9"/>
 <path d="m24 33a5 4 0 0 0-5 4 5 4 0 0 0 0.003906 0.082031 5 4 0 0 0-1.003906-0.082031 5 4 0 0 0-5 4 5 4 0 0 0 0.095703 0.771484c2.57192 1.026277 6.256633 1.193153 9.232422 1.220704a5 4 0 0 0 0.671875-1.992188 5 4 0 0 0-0.003906-0.082031 5 4 0 0 0 1.003906 0.082031 5 4 0 0 0 1.005859-0.085938 5 4 0 0 0-0.005859 0.085938 5 4 0 0 0 0.667969 1.992188c2.975522-0.027426 6.661375-0.192889 9.234375-1.21875a5 4 0 0 0 0.097656-0.773438 5 4 0 0 0-5-4 5 4 0 0 0-1.005859 0.085938 5 4 0 0 0 0.005859-0.085938 5 4 0 0 0-5-4z" style="opacity:.1"/>
 <path d="m24 32a5 4 0 0 0-5 4 5 4 0 0 0 0.003906 0.082031 5 4 0 0 0-1.003906-0.082031 5 4 0 0 0-5 4 5 4 0 0 0 5 4 5 4 0 0 0 5-4 5 4 0 0 0-0.003906-0.082031 5 4 0 0 0 1.003906 0.082031 5 4 0 0 0 1.005859-0.085938 5 4 0 0 0-0.005859 0.085938 5 4 0 0 0 5 4 5 4 0 0 0 5-4 5 4 0 0 0-5-4 5 4 0 0 0-1.005859 0.085938 5 4 0 0 0 0.005859-0.085938 5 4 0 0 0-5-4z" style="fill:#54d032"/>
 <path d="m24 36a2 1.5 0 0 0-2 1.5 2 1.5 0 0 0 2 1.5 2 1.5 0 0 0 2-1.5 2 1.5 0 0 0-2-1.5zm-6 4a2 1.5 0 0 0-2 1.5 2 1.5 0 0 0 2 1.5 2 1.5 0 0 0 2-1.5 2 1.5 0 0 0-2-1.5zm12 0a2 1.5 0 0 0-2 1.5 2 1.5 0 0 0 2 1.5 2 1.5 0 0 0 2-1.5 2 1.5 0 0 0-2-1.5z" style="opacity:.2"/>
 <path d="m24 35a2 1.5 0 0 0-2 1.5 2 1.5 0 0 0 2 1.5 2 1.5 0 0 0 2-1.5 2 1.5 0 0 0-2-1.5zm-6 4a2 1.5 0 0 0-2 1.5 2 1.5 0 0 0 2 1.5 2 1.5 0 0 0 2-1.5 2 1.5 0 0 0-2-1.5zm12 0a2 1.5 0 0 0-2 1.5 2 1.5 0 0 0 2 1.5 2 1.5 0 0 0 2-1.5 2 1.5 0 0 0-2-1.5z" style="fill:#b2bfd9"/>
 <path d="m24 31c-8 0-14 3-14 7 0 0.192094 0.017138 0.375117 0.042969 0.552734 0.431675-3.772908 6.259965-6.552734 13.957031-6.552734s13.525356 2.779826 13.957031 6.552734c0.025831-0.177617 0.042969-0.36064 0.042969-0.552734 0-4-6-7-14-7z" style="fill:#f4f4f7;opacity:.2"/>
 <path d="M 24 32 A 5 4 0 0 0 19 36 A 5 4 0 0 0 19.003906 36.082031 A 5 4 0 0 0 18 36 A 5 4 0 0 0 13 40 A 5 4 0 0 0 13.044922 40.501953 A 5 4 0 0 1 18 37 A 5 4 0 0 1 19.003906 37.082031 A 5 4 0 0 1 19 37 A 5 4 0 0 1 24 33 A 5 4 0 0 1 29 37 A 5 4 0 0 1 28.994141 37.085938 A 5 4 0 0 1 30 37 A 5 4 0 0 1 34.955078 40.498047 A 5 4 0 0 0 35 40 A 5 4 0 0 0 30 36 A 5 4 0 0 0 28.994141 36.085938 A 5 4 0 0 0 29 36 A 5 4 0 0 0 24 32 z " style="fill:#f4f4f7;opacity:.2"/>
 <path d="m22 4-2 9-4 5h0.800781l3.199219-4 2-9h4l2 9 3.199219 4h0.800781l-4-5-2-9zm-3.400391 15-1.599609 4-3 2h-3l-4 4 0.7148438 0.285156 3.2851562-3.285156h3l3-2 2-5zm10.400391 0 2 5 3 2h3l3.285156 3.285156 0.714844-0.285156-4-4h-3l-3-2-1.599609-4zm-17.416016 12.833984-0.583984 1.166016-4 3v1l4-3 1-2zm24.832032 0-0.416016 0.166016 1 2 4 3v-1l-4-3z" style="fill:#f4f4f7;opacity:.2"/>
</svg>
