<svg xmlns="http://www.w3.org/2000/svg" width="48" height="48" version="1.1">
 <circle style="opacity:0.2" cx="24" cy="25" r="17"/>
 <circle style="fill:#f4f4f7" cx="24" cy="24" r="17"/>
 <path style="opacity:0.2" d="M 26,5.0996094 V 12.171875 A 13,13 0 0 1 37,25 13,13 0 0 1 36.027344,29.917969 l 6.083984,3.513672 A 20,20 0 0 0 44,25 20,20 0 0 0 26,5.0996094 Z"/>
 <path style="fill:#6ecc6e" d="M 26,4.0996094 V 11.171875 A 13,13 0 0 1 37,24 13,13 0 0 1 36.027344,28.917969 l 6.083984,3.513672 A 20,20 0 0 0 44,24 20,20 0 0 0 26,4.0996094 Z"/>
 <path style="opacity:0.2" d="M 22,5.1210938 A 20,20 0 0 0 4,25 20,20 0 0 0 5.8945312,33.441406 L 11.980469,29.927734 A 13,13 0 0 1 11,25 13,13 0 0 1 22,12.164062 Z"/>
 <path style="fill:#ff6065" d="M 22,4.1210938 A 20,20 0 0 0 4,24 20,20 0 0 0 5.8945312,32.441406 L 11.980469,28.927734 A 13,13 0 0 1 11,24 13,13 0 0 1 22,11.164062 Z"/>
 <path style="opacity:0.2" d="M 33.964844,33.347656 A 13,13 0 0 1 24,38 13,13 0 0 1 14.054688,33.349609 l -6.1152349,3.53125 A 20,20 0 0 0 24,45 20,20 0 0 0 40.066406,36.871094 Z"/>
 <path style="fill:#cc74cc" d="M 33.964844,32.347656 A 13,13 0 0 1 24,37 13,13 0 0 1 14.054688,32.349609 l -6.1152349,3.53125 A 20,20 0 0 0 24,44 20,20 0 0 0 40.066406,35.871094 Z"/>
 <path style="opacity:0.1;fill:none;stroke:#000000;stroke-width:4;stroke-linecap:round;stroke-linejoin:round" d="m 16,27.00012 6,5 8,-13"/>
 <path style="fill:none;stroke:#3f3f3f;stroke-width:4;stroke-linecap:round;stroke-linejoin:round" d="m 16,26 6,5 8,-13"/>
 <path style="fill:#f4f4f7;opacity:0.2" d="M 26 4.0996094 L 26 5.0996094 A 20 20 0 0 1 43.986328 24.708984 A 20 20 0 0 0 44 24 A 20 20 0 0 0 26 4.0996094 z M 36.976562 24.470703 A 13 13 0 0 1 36.027344 28.917969 L 36.324219 29.089844 A 13 13 0 0 0 37 25 A 13 13 0 0 0 36.976562 24.470703 z"/>
 <path style="fill:#f4f4f7;opacity:0.2" d="M 22 4.1210938 A 20 20 0 0 0 4 24 A 20 20 0 0 0 4.0214844 24.408203 A 20 20 0 0 1 22 5.1210938 L 22 4.1210938 z M 11.023438 24.527344 A 13 13 0 0 0 11 25 A 13 13 0 0 0 11.685547 29.097656 L 11.980469 28.927734 A 13 13 0 0 1 11.023438 24.527344 z"/>
</svg>
