<svg width="48" height="48" version="1.1" xmlns="http://www.w3.org/2000/svg">
 <path d="m30.226562 5c-0.20287 0.00345-0.493151 0.023821-0.841796 0.087891-0.697288 0.1281391-1.671709 0.4292333-2.820313 1.1113278-0.079479 0.0471986-0.155081 0.1088562-0.234375 0.1601562-0.753338-0.2289042-1.531934-0.359375-2.330078-0.359375-6 0-11 6-11 13 0 4.807401 8 11 8 12 0 0.176 0.01535 0.388926 0.01758 0.580078-2.093543-0.585462-3.61071-1.580078-6.01758-1.580078-2.15441 0-3.131196 1.155778-3.589844 2.226562-0.545218-0.741046-1.4155413-1.226562-2.410156-1.226562-1.662 0-3 1.338-3 3v10c0 0.554 0.446 1 1 1h4c0.186367 0 0.350945-0.06427 0.5-0.152344 0.149055 0.088077 0.313633 0.152344 0.5 0.152344h24c0.186367 0 0.350945-0.06427 0.5-0.152344 0.149055 0.088077 0.313633 0.152344 0.5 0.152344h4c0.554 0 1-0.446 1-1v-10c0-1.662-1.338-3-3-3-0.994615 0-1.864938 0.485516-2.410156 1.226562-0.458648-1.070784-1.435434-2.226562-3.589844-2.226562-2.40687 0-3.924037 0.994616-6.017578 1.580078 0.002227-0.191152 0.017578-0.404078 0.017578-0.580078 0-1 8-7.192599 8-12 0-4.774049-3.170305-10.169366-7.486328-12.179688 0.844922-0.4439364 1.552241-0.6619316 2.052734-0.7539063 0.586444-0.1077697 0.859375-0.0683593 0.859375-0.0683593a0.49835974 0.49842091 0 1 0 0.119141-0.9882813s-0.115489-0.013216-0.31836-0.00977z" style="opacity:.2"/>
 <path d="m9 30c-1.662 0-3 1.338-3 3v4 6c0 0.554 0.446 1 1 1h2 2c0.554 0 1-0.446 1-1v-6-4c0-1.662-1.338-3-3-3zm30 0c-1.662 0-3 1.338-3 3v4 6c0 0.554 0.446 1 1 1h2 2c0.554 0 1-0.446 1-1v-6-4c0-1.662-1.338-3-3-3z" style="fill:#14d014"/>
 <path d="m9 30c-1.662 0-3 1.338-3 3v1c0-1.662 1.338-3 3-3s3 1.338 3 3v-1c0-1.662-1.338-3-3-3zm30 0c-1.662 0-3 1.338-3 3v1c0-1.662 1.338-3 3-3s3 1.338 3 3v-1c0-1.662-1.338-3-3-3z" style="fill:#f4f4f7;opacity:.1"/>
 <path d="m24 5c-6 0-11 6-11 13 0 4.807401 8 11 8 12 0 1.94365 0 5 3 5s3-3.05635 3-5c0-1 8-7.192599 8-12 0-6-5-13-11-13z" style="fill:#d2b575"/>
 <path d="m15 29c-4 0-4 4-4 4v2 1 7c0 0.554 0.446 1 1 1h24c0.554 0 1-0.446 1-1v-7-1-2s0-4-4-4c-3.399346 0-5 2-9 2s-5.600654-2-9-2z" style="fill:#37e137"/>
 <path d="M 24 5 C 18 5 13 11 13 18 C 13 18.103157 13.024041 18.210086 13.03125 18.314453 C 13.346052 11.614443 18.197937 6 24 6 C 29.783788 6 34.624436 12.502456 34.966797 18.345703 C 34.975485 18.230877 35 18.113372 35 18 C 35 12 30 5 24 5 z " style="fill:#f4f4f7;opacity:.2"/>
 <path d="m19 12c-1.656854 0-3 1.343146-3 3s1.343146 3 3 3 3-1.343146 3-3-1.343146-3-3-3zm10 0c-1.656854 0-3 1.343146-3 3s1.343146 3 3 3 3-1.343146 3-3-1.343146-3-3-3zm-5 3s-2 5-2 7c0 0.942809 0 2 2 2s2-1.057191 2-2c0-2-2-7-2-7z" style="opacity:.2"/>
 <path d="m27.388672 5.7578125c-0.262678 0.1257787-0.538402 0.2716751-0.824219 0.4414063-1.195851 0.7101527-2.412109 1.9433593-2.412109 1.9433593a0.49835974 0.49842091 0 1 0 0.705078 0.7050781s1.209599-1.192894 2.216797-1.7910156c0.535043-0.3177336 1.020126-0.5387432 1.445312-0.6953125-0.367518-0.2251748-0.743918-0.4301521-1.130859-0.6035156z" style="opacity:.1"/>
 <path d="m30.545568 4.009728s-0.462839-0.050269-1.160129 0.07787c-0.697288 0.1281395-1.671907 0.4295067-2.820511 1.1116012-1.195851 0.7101527-2.411743 1.9428685-2.411743 1.9428685a0.49835974 0.49842091 0 1 0 0.704643 0.7047278s1.209891-1.1928995 2.217089-1.7910211c1.047362-0.6219719 1.905105-0.8811852 2.49155-0.9889551 0.586444-0.1077697 0.858416-0.068136 0.858416-0.068136a0.49835974 0.49842091 0 1 0 0.120685-0.9889553z" style="fill:#684322"/>
 <path d="m24 14s2 5 2 7c0 0.942809 0 2-2 2s-2-1.057191-2-2c0-2 2-7 2-7z" style="fill:#e7cf9c"/>
 <path d="m19 11a3 3 0 0 0-3 3 3 3 0 0 0 3 3 3 3 0 0 0 3-3 3 3 0 0 0-3-3zm10 0a3 3 0 0 0-3 3 3 3 0 0 0 3 3 3 3 0 0 0 3-3 3 3 0 0 0-3-3z" style="fill:#f4f4f7"/>
 <path d="m24 26c-3 0-6-1-6-1s4 3 6 3 6-3 6-3-3 1-6 1z" style="opacity:.1"/>
 <path d="m24 25c-3 0-6-1-6-1s4 3 6 3 6-3 6-3-3 1-6 1z" style="fill:#e43a31"/>
 <circle cx="19" cy="14" r="1" style="fill:#323232"/>
 <circle cx="29" cy="14" r="1" style="fill:#323232"/>
 <path d="m15 29c-4 0-4 4-4 4v1s0-4 4-4c3.399346 0 5 2 9 2s5.600654-2 9-2c4 0 4 4 4 4v-1s0-4-4-4c-3.399346 0-5 2-9 2s-5.600654-2-9-2z" style="fill:#f4f4f7;opacity:.2"/>
</svg>
