<svg xmlns="http://www.w3.org/2000/svg" width="48" height="48" version="1.1">
 <path style="opacity:0.2" d="m 24.019531,5.0002547 a 1.7896526,1.8183735 0 0 0 -1.046875,0.328125 C 20.94859,6.7691148 18.996081,7.8726389 16.939453,8.2268172 14.882826,8.5809955 12.638717,8.2802351 9.6835938,6.5471297 A 1.7896526,1.8183735 0 0 0 7,8.1213485 V 28.562755 c 0,1.623753 0.6852237,3.104373 1.6523438,4.652344 0.9671201,1.547972 2.2803102,3.133432 3.8183592,4.65625 3.0761,3.045637 7.016602,5.840312 11.017578,7.052734 a 1.7896526,1.8183735 0 0 0 1.023438,0 c 4.000976,-1.212422 7.941479,-4.007097 11.017578,-7.052734 1.53805,-1.522818 2.851239,-3.108278 3.818359,-4.65625 C 40.314777,31.667128 41,30.186508 41,28.562755 V 8.1213485 A 1.7896526,1.8183735 0 0 0 38.316406,6.5471297 C 35.361283,8.2802351 33.117174,8.5809955 31.060547,8.2268172 29.003919,7.8726389 27.05141,6.7691148 25.027344,5.3283797 a 1.7896526,1.8183735 0 0 0 -1.007813,-0.328125 z"/>
 <path style="fill:#f84300" d="M 24.019531,4 C 23.645394,3.9954942 23.279276,4.1102476 22.972656,4.328125 20.94859,5.7688601 18.996081,6.4728217 16.939453,6.827 14.882826,7.1811783 12.638717,7.2799804 9.6835938,5.546875 8.490893,4.8481399 7.0008007,5.7222406 7,7.1210938 V 27.5625 c 0,1.623753 0.6852237,3.104373 1.6523438,4.652344 0.9671201,1.547972 2.2803102,3.133432 3.8183592,4.65625 3.0761,3.045637 7.016602,5.840312 11.017578,7.052734 0.333873,0.101223 0.689565,0.101223 1.023438,0 4.000976,-1.212422 7.941479,-4.007097 11.017578,-7.052734 1.53805,-1.522818 2.851239,-3.108278 3.818359,-4.65625 C 40.314777,30.666873 41,29.186253 41,27.5625 V 7.1210938 C 40.999199,5.7222405 39.509107,4.8481396 38.316406,5.546875 35.361283,7.2799804 33.117174,7.1811783 31.060547,6.827 29.003919,6.4728217 27.05141,5.7688601 25.027344,4.328125 24.731644,4.1180229 24.380343,4.0036459 24.019531,4 Z"/>
 <path style="opacity:0.2" d="m 23.103516,10.949763 c -4.030827,-0.02401 -5.699599,0.482277 -10.582032,1.208984 -1.396813,0.01747 -2.520359,0.962391 -2.521484,2.368852 1.74e-4,1.419415 1.142947,2.570058 2.552734,2.570312 0.02605,-2.5e-4 0.0521,-9.01e-4 0.07813,-0.002 C 12,15.000255 13.605092,15.17693 14.658208,14.967005 c 0.208299,-0.0019 0.133631,-0.0016 0.341797,-0.0039 v 17.144531 l 5,4.21289 V 14.849864 c 3.043387,-0.05776 6.293041,0.03509 9.447995,0.988282 5.265762,1.590916 1.585415,5.417345 -1.612057,7.414062 1.801138,1.124752 4.156176,3.481484 4.164057,5.699055 0.0061,1.719173 -1.63179,3.354708 -4.550776,4.267742 -2.800418,0.724036 -5.493685,1.103947 -7.449219,3.101562 0,0 1.502722,-0.275792 4.865234,-0.414062 4.064196,-0.167124 7.981293,-1.573568 10.826761,-4.533203 1.43238,-3.058641 -0.474053,-5.556183 -4.701761,-7.982422 4.318483,-2.451077 6.218329,-5.279911 4.242761,-8.064453 -2.375671,-3.348482 -6.160452,-4.180438 -10.225188,-4.333695 -0.695136,-0.02621 -1.324571,-0.03952 -1.904296,-0.04297 z m 4.732422,12.302445 -2.520649,-3.140625 c -2.626653,1.855633 -3.361729,3.833002 -0.142578,6.06836 z"/>
 <path style="fill:#f4f4f7" d="M 23.103516,9.949508 C 19.072689,9.925502 17.403917,10.431785 12.521484,11.158492 11.124671,11.175962 10.001125,12.120883 10,13.527344 c 1.74e-4,1.419415 1.142947,2.570058 2.552734,2.570312 0.02605,-2.5e-4 0.0521,-9.01e-4 0.07813,-0.002 C 12,14 13.605092,14.176675 14.658208,13.96675 c 0.208299,-0.0019 0.133631,-0.0016 0.341797,-0.0039 v 17.144531 l 5,4.21289 V 13.849609 c 3.043387,-0.05776 6.293041,0.03509 9.447995,0.988282 5.265762,1.590916 1.585415,5.417345 -1.612057,7.414062 1.801138,1.124752 4.156176,3.481484 4.164057,5.699055 0.0061,1.719173 -1.63179,3.354708 -4.550776,4.267742 -2.800418,0.724036 -5.493685,1.103947 -7.449219,3.101562 0,0 1.502722,-0.275792 4.865234,-0.414062 C 28.929435,34.739126 32.846532,33.332682 35.692,30.373047 37.12438,27.314406 35.217947,24.816864 30.990239,22.390625 35.308722,19.939548 37.208568,17.110714 35.233,14.326172 32.857329,10.97769 29.072548,10.145734 25.007812,9.9924768 24.312676,9.9662668 23.683241,9.9529608 23.103516,9.949508 Z m 4.732422,12.302445 -2.520649,-3.140625 c -2.626653,1.855633 -3.361729,3.833002 -0.142578,6.06836 z"/>
 <path style="opacity:0.2;fill:#f4f4f7" d="M 24.019531 4 C 23.645394 3.9954942 23.279276 4.1102476 22.972656 4.328125 C 20.94859 5.7688601 18.996081 6.4719936 16.939453 6.8261719 C 14.882826 7.1803502 12.638717 7.2799804 9.6835938 5.546875 C 8.4908929 4.8481399 7.0008007 5.7222406 7 7.1210938 L 7 8.1210938 C 7.0008007 6.7222405 8.4908929 5.8481399 9.6835938 6.546875 C 12.638717 8.2799804 14.882826 8.1823033 16.939453 7.828125 C 18.996081 7.4739467 20.94859 6.7688601 22.972656 5.328125 C 23.279276 5.1102476 23.645394 4.9954942 24.019531 5 C 24.380343 5.0036459 24.731644 5.1180229 25.027344 5.328125 C 27.05141 6.7688601 29.003919 7.4739467 31.060547 7.828125 C 33.117174 8.1823033 35.361283 8.2799804 38.316406 6.546875 C 39.509107 5.8481396 40.999199 6.7222405 41 8.1210938 L 41 7.1210938 C 40.999199 5.7222405 39.509107 4.8481396 38.316406 5.546875 C 35.361283 7.2799804 33.117174 7.1803502 31.060547 6.8261719 C 29.003919 6.4719936 27.05141 5.7688601 25.027344 4.328125 C 24.731644 4.1180229 24.380343 4.0036459 24.019531 4 z"/>
</svg>
