<svg xmlns="http://www.w3.org/2000/svg" width="48" height="48" version="1">
 <rect style="opacity:0.2" width="40" height="40" x="4" y="5" rx="20" ry="20"/>
 <path style="fill:#4f4f4f" transform="matrix(0,-1,-1,0,0,0)" d="m -24,-44 c 11.08,0 20,8.92 20,20 0,1.982847 -2.2996799,2.933296 -2.8322756,4.739049 -1.9944919,6.762276 -5.4378454,12.9743319 -12.3233894,14.6750295 C -20.705798,-4.2030459 -22.328315,-4 -24,-4 c -11.08,0 -20,-8.92 -20,-20 0,-1.017877 1.826593,-2.192655 1.97191,-3.168833 1.09353,-7.34583 4.401811,-13.187488 11.194162,-15.641927 C -28.703451,-43.580615 -26.402503,-44 -24,-44 Z"/>
 <circle style="opacity:0.2" cx="24" cy="25" r="12"/>
 <circle style="fill:#f4d6b6" cx="24" cy="24" r="12"/>
 <path style="opacity:0.2" d="M 24,5 C 17.87776,5 12.42071,7.7288269 8.7578125,12.035156 L 6.0800781,9.3574219 A 1.2189053,1.2189053 0 0 0 5.2011719,9 1.2189053,1.2189053 0 0 0 4,10.21875 v 10.5625 A 1.2189053,1.2189053 0 0 0 5.21875,22 h 10.5625 a 1.2189053,1.2189053 0 0 0 0.861328,-2.080078 l -2.1875,-2.1875 C 16.647412,14.857916 20.105807,13 24,13 Z"/>
 <path style="fill:#f4f4f7;opacity:0.1" d="M 24 4 C 12.92 4 4 12.92 4 24 C 4 24.167874 4.007647 24.333141 4.0117188 24.5 C 4.2763904 13.653863 13.087874 5 24 5 C 34.912126 5 43.72361 13.653863 43.988281 24.5 C 43.992353 24.333141 44 24.167874 44 24 C 44 12.92 35.08 4 24 4 z"/>
 <g>
  <path style="fill:#fb4848" d="M 24,4 C 15.681827,4 8.5810444,9.0273749 5.5579517,16.221826 l 7.4939403,2.857798 C 14.930611,14.905851 19.125956,12 24,12 Z"/>
  <path style="fill:#fb4848" d="M 5.2013268,7.9996439 A 1.2189053,1.2189053 0 0 0 4,9.218427 v 10.56279 A 1.2189053,1.2189053 0 0 0 5.2187834,21 H 15.781573 a 1.2189053,1.2189053 0 0 0 0.861718,-2.080501 L 6.0805013,8.3567094 A 1.2189053,1.2189053 0 0 0 5.2013268,7.9996439 Z"/>
 </g>
 <path style="fill:#486afb" d="m 24,44 c 8.318173,0 15.418956,-5.027375 18.442048,-12.221826 l -7.49394,-2.857798 C 33.069389,33.094149 28.874044,36 24,36 Z"/>
 <path style="fill:#486afb" d="M 42.798673,40.000356 A 1.2189053,1.2189053 0 0 0 44,38.781573 V 28.218783 A 1.2189053,1.2189053 0 0 0 42.781217,27 l -10.56279,0 a 1.2189053,1.2189053 0 0 0 -0.861718,2.080501 l 10.56279,10.56279 a 1.2189053,1.2189053 0 0 0 0.879174,0.357065 z"/>
 <circle style="opacity:0.2" cx="24" cy="25" r="4"/>
 <circle style="fill:#f4f4f7" cx="24" cy="24" r="4"/>
 <path style="opacity:0.2;fill:#f4f4f7" d="M 32.21875 27 A 1.2189053 1.2189053 0 0 0 31.109375 28.71875 A 1.2189053 1.2189053 0 0 1 32.21875 28 L 42.78125 28 A 1.2189053 1.2189053 0 0 1 44 29.21875 L 44 28.21875 A 1.2189053 1.2189053 0 0 0 42.78125 27 L 32.21875 27 z"/>
 <path style="opacity:0.2;fill:#f4f4f7" d="M 24,4 C 17.87776,4 12.42071,6.7288271 8.7578125,11.035156 L 6.0800781,8.3574219 C 5.8474064,8.124467 5.5303896,7.9955468 5.2011719,8 4.534985,8.0096931 4.0000144,8.5524926 4,9.21875 v 1 C 4.0000144,9.5524926 4.534985,9.0096931 5.2011719,9 5.5303896,8.9955468 5.8474064,9.124467 6.0800781,9.3574219 L 8.7578125,12.035156 C 12.42071,7.7288271 17.87776,5 24,5 Z"/>
</svg>
