<svg width="48" height="48" version="1.1" xmlns="http://www.w3.org/2000/svg">
 <path d="m33 7a5 5 0 0 0-5 5 5 5 0 0 0 0.068359 0.818359l-7.357421 4.783203a10 10 0 0 0-6.710938-2.601562 10 10 0 0 0-10 10 10 10 0 0 0 10 10 10 10 0 0 0 7.689453-3.611328l8.341797 4.003906a7 7 0 0 0-0.03125 0.607422 7 7 0 0 0 7 7 7 7 0 0 0 7-7 7 7 0 0 0-5.529297-6.839844l-2.613281-13.066406a5 5 0 0 0 2.142578-4.09375 5 5 0 0 0-5-5zm-2.748047 9.171875a5 5 0 0 0 1.685547 0.710937l2.519531 12.595704a7 7 0 0 0-2.945312 2.189453l-7.933594-3.808594a10 10 0 0 0 0.421875-2.859375 10 10 0 0 0-0.921875-4.164062l7.173828-4.664063z" style="opacity:.2"/>
 <path d="m32.947266 9a2.0002 2.0002 0 0 0-1.03711 0.3222656l-20 13a2.0002 2.0002 0 0 0 0.22461 3.480468l25 12a2.0002 2.0002 0 0 0 2.826172-2.195312l-5-25a2.0002 2.0002 0 0 0-2.013672-1.607422zm-1.330078 5.285156 3.636718 18.177735-18.179687-8.72461z" style="fill:#353535;font-variant-east_asian:normal"/>
 <path d="m32.947266 9a2.0002 2.0002 0 0 0-1.03711 0.3222656l-3.90625 2.5390624a5 5 0 0 0-0.003906 0.138672 5 5 0 0 0 1.558594 3.623047l2.058594-1.337891 0.529296 2.640625a5 5 0 0 0 0.853516 0.074219 5 5 0 0 0 3.033203-1.033203l-1.072265-5.359375a2.0002 2.0002 0 0 0-2.013672-1.607422zm-12.908204 8.039062-8.128906 5.283204a2.0002 2.0002 0 0 0 0.22461 3.480468l10.101562 4.84961a10 10 0 0 0 1.558594-3.6875l-6.720703-3.226563 5.625-3.65625a10 10 0 0 0-2.660157-3.042969zm16.960938 11.960938a7 7 0 0 0-2.355469 0.417969l0.609375 3.044922-3.111328-1.492188a7 7 0 0 0-1.96289 3.494141l6.955078 3.33789a2.0002 2.0002 0 0 0 2.826172-2.195312l-1.279297-6.394531a7 7 0 0 0-1.681641-0.212891z" style="opacity:.2"/>
 <path d="m32.947266 9a2.0002 2.0002 0 0 0-1.03711 0.3222656l-20 13a2.0002 2.0002 0 0 0-0.84375 2.175781 2.0002 2.0002 0 0 1 0.84375-1.175781l20-13a2.0002 2.0002 0 0 1 1.03711-0.322266 2.0002 2.0002 0 0 1 2.013672 1.607422l4.976562 24.882812a2.0002 2.0002 0 0 0 0.023438-0.882812l-5-25a2.0002 2.0002 0 0 0-2.013672-1.607422zm-14.988282 15.162109-0.884765 0.576172 18.179687 8.72461-0.220703-1.105469-17.074219-8.195313z" style="fill:#f4f4f7;opacity:.1"/>
 <circle cx="14" cy="24" r="10" style="fill:#fe6501"/>
 <circle cx="33" cy="11" r="5" style="fill:#fe6501"/>
 <circle cx="37" cy="35" r="7" style="fill:#fe6501"/>
 <path d="M 33 6 A 5 5 0 0 0 28 11 A 5 5 0 0 0 28.027344 11.515625 A 5 5 0 0 1 33 7 A 5 5 0 0 1 37.972656 11.484375 A 5 5 0 0 0 38 11 A 5 5 0 0 0 33 6 z M 14 14 A 10 10 0 0 0 4 24 A 10 10 0 0 0 4.0214844 24.414062 A 10 10 0 0 1 14 15 A 10 10 0 0 1 23.978516 24.585938 A 10 10 0 0 0 24 24 A 10 10 0 0 0 14 14 z M 37 28 A 7 7 0 0 0 30 35 A 7 7 0 0 0 30.023438 35.458984 A 7 7 0 0 1 37 29 A 7 7 0 0 1 43.976562 35.541016 A 7 7 0 0 0 44 35 A 7 7 0 0 0 37 28 z " style="fill:#f4f4f7;opacity:.2"/>
</svg>
