<svg width="48" height="48" version="1.1" xmlns="http://www.w3.org/2000/svg">
 <circle cx="24" cy="25" r="20" style="opacity:.2"/>
 <circle cx="24" cy="24" r="20" style="fill:#fecd38"/>
 <path d="M 24,4 A 20,20 0 0 0 4,24 20,20 0 0 0 4.0215,24.582 20,20 0 0 1 24,5 20,20 0 0 1 43.979,24.418 20,20 0 0 0 44,24 20,20 0 0 0 24,4 Z" style="fill:#f4f4f7;opacity:.2"/>
 <path d="m24 7a18 18 0 0 0-18 18 18 18 0 0 0 18 18 18 18 0 0 0 18-18 18 18 0 0 0-18-18zm0 2a16 16 0 0 1 16 16 16 16 0 0 1-16 16 16 16 0 0 1-16-16 16 16 0 0 1 16-16zm-7 11c-5 0-7 1-7 1v3s1 0 1 1 1 4 5 4c6 0 5-1 6-4 0.447214-1.341641 1-2 2-2s1.552786 0.658359 2 2c1 3 0 4 6 4 4 0 5-3 5-4s1-1 1-1v-3s-1.235117-0.600634-4.130859-0.869141l-0.869141 0.869141 1 1-5 3 2-3-1-1 1-1c-3 0-5 1-7 1s-4-1-7-1zm13.167969 11.445312s-0.453568 0.676224-1.125 1.347657c-0.671433 0.671432-1.542969 1.207031-2.042969 1.207031h-2v2h2c1.5 0 2.628464-0.964401 3.457031-1.792969 0.828568-0.828567 1.375-1.652344 1.375-1.652343l-1.664062-1.109376z" style="opacity:.1"/>
 <path d="m24 6a18 18 0 0 0-18 18 18 18 0 0 0 18 18 18 18 0 0 0 18-18 18 18 0 0 0-18-18zm0 2a16 16 0 0 1 16 16 16 16 0 0 1-16 16 16 16 0 0 1-16-16 16 16 0 0 1 16-16zm-7 11c-5 0-7 1-7 1v3s1 0 1 1 1 4 5 4c6 0 5-1 6-4 0.447214-1.341641 1-2 2-2s1.552786 0.658359 2 2c1 3 0 4 6 4 4 0 5-3 5-4s1-1 1-1v-3s-1.235117-0.600634-4.130859-0.869141l-0.869141 0.869141 1 1-5 3 2-3-1-1 1-1c-3 0-5 1-7 1s-4-1-7-1zm13.167969 11.445312s-0.453568 0.676224-1.125 1.347657c-0.671433 0.671432-1.542969 1.207031-2.042969 1.207031h-2v2h2c1.5 0 2.628464-0.964401 3.457031-1.792969 0.828568-0.828567 1.375-1.652344 1.375-1.652343l-1.664062-1.109376z" style="fill:#4f4f4f"/>
 <circle cx="36" cy="36" r="11" style="opacity:.2"/>
 <circle cx="36" cy="35" r="11" style="fill:#c03630"/>
 <path d="m36 30.000001s-0.70875-0.014-1.44727 0.3555c-0.73851 0.3692-1.55273 1.3112-1.55273 2.6445h2c0-1 1-1 1-1s1 0 1 1c0 0.5278-0.1396 0.8229-0.40625 1.1562-0.26665 0.3334-0.69336 0.668-1.19336 1.043s-1.07329 0.7904-1.55664 1.3946c-0.48335 0.6041-0.84375 1.434-0.84375 2.4062v0.999999h6v-1.999999h-3.64844c0.0313-0.044 0.0187-0.1112 0.0547-0.1562 0.26665-0.3334 0.69336-0.668 1.19336-1.043s1.07329-0.7904 1.55664-1.3946c0.48335-0.6041 0.84375-1.434 0.84375-2.4062 0-1.3333-0.81422-2.2753-1.55273-2.6445-0.73853-0.3693-1.44728-0.3555-1.44728-0.3555z" style="fill-rule:evenodd;fill:#f4f4f7"/>
</svg>
