<svg xmlns="http://www.w3.org/2000/svg" width="48" height="48" version="1.1">
 <path style="opacity:0.2" d="m 23.962891,5.0000003 c -1.067395,0 -2.131283,0.2811185 -3.080079,0.8418131 L 17.792969,7.6465357 14.431641,9.5879794 9.089843,12.705227 C 7.165145,13.826617 6,15.878569 6,18.121347 v 13.758077 c 0,2.215428 1.165144,4.294731 3.089843,5.416121 l 11.820313,6.863413 c 1.924699,1.121389 4.282098,1.121389 6.179688,0 L 38.910156,37.295545 C 40.834854,36.174155 42,34.122202 42,31.879424 V 18.121347 c -0.02711,-2.242778 -1.219597,-4.29473 -3.117188,-5.41612 L 27.0625,5.8418134 C 26.10015,5.2811188 25.030285,5.0000003 23.962891,5.0000003 Z"/>
 <path style="fill:#fad83b" d="m 23.962891,4.0000001 c -1.067395,0 -2.131283,0.2811185 -3.080079,0.8418131 L 17.792969,6.6465355 14.431641,8.5879791 9.089843,11.705227 C 7.165145,12.826617 6,14.878569 6,17.121347 v 13.758077 c 0,2.215428 1.165144,4.294731 3.089843,5.416121 l 11.820313,6.863413 c 1.924699,1.121389 4.282098,1.121389 6.179688,0 L 38.910156,36.295545 C 40.834854,35.174155 42,33.122202 42,30.879424 V 17.121347 c -0.02711,-2.242778 -1.219597,-4.29473 -3.117188,-5.41612 L 27.0625,4.8418132 C 26.10015,4.2811186 25.030285,4.0000001 23.962891,4.0000001 Z"/>
 <path style="opacity:0.1" d="M 18,7.5253908 17.792969,7.6464846 14.431641,9.5878908 14,9.8398441 v 7.1035149 5.302735 2.0625 2.064453 c 0,2.350385 1.221198,4.500589 3.238281,5.675781 l 3.523438,2.0625 C 21.756055,34.713256 22.890072,35 23.998047,35 c 1.107974,0 2.243945,-0.315407 3.238281,-0.888672 l 3.523438,-2.0625 C 32.776849,30.873635 34,28.694768 34,26.373047 v -4.097656 c 0,-2.350385 -1.223151,-4.502543 -3.240234,-5.677735 l -3.523438,-2.0625 C 26.241992,13.933228 25.107974,13.646484 24,13.646484 V 18 a 6,6 0 0 1 6,6 6,6 0 0 1 -6,6 6,6 0 0 1 -5.902344,-4.9375 C 18.035429,24.855683 18,24.609135 18,24.308594 V 24 16.425781 14.505859 Z m 5,6.2753902 c -0.323464,0.08599 -0.676536,0.171135 -1,0.314453 v 4.234375 a 6,6 0 0 1 1,-0.263671 z m -2,0.736328 -1,0.572266 v 4.427734 A 6,6 0 0 1 21,18.8125 Z"/>
 <path style="fill:#3f3f3f" d="M 18 6.5253906 L 17.792969 6.6464844 L 14.431641 8.5878906 L 14 8.8398438 L 14 15.943359 L 14 21.246094 L 14 23.308594 L 14 25.373047 C 14 27.723432 15.221198 29.873636 17.238281 31.048828 L 20.761719 33.111328 C 21.756055 33.713256 22.890072 34 23.998047 34 C 25.106021 34 26.241992 33.684593 27.236328 33.111328 L 30.759766 31.048828 C 32.776849 29.873635 34 27.694768 34 25.373047 L 34 21.275391 C 34 18.925006 32.776849 16.772848 30.759766 15.597656 L 27.236328 13.535156 C 26.241992 12.933228 25.107974 12.646484 24 12.646484 L 24 17 A 6 6 0 0 1 30 23 A 6 6 0 0 1 24 29 A 6 6 0 0 1 18.097656 24.0625 C 18.035429 23.855683 18 23.609135 18 23.308594 L 18 23 L 18 15.425781 L 18 13.505859 L 18 6.5253906 z M 23 12.800781 C 22.676536 12.886771 22.323464 12.971916 22 13.115234 L 22 17.349609 A 6 6 0 0 1 23 17.085938 L 23 12.800781 z M 21 13.537109 L 20 14.109375 L 20 18.537109 A 6 6 0 0 1 21 17.8125 L 21 13.537109 z"/>
 <path style="fill:#f4f4f7;opacity:0.2" d="M 23.962891 4 C 22.895496 4 21.831609 4.2811023 20.882812 4.8417969 L 17.792969 6.6464844 L 14.431641 8.5878906 L 9.0898438 11.705078 C 7.1651457 12.826468 6 14.878316 6 17.121094 L 6 18.121094 C 6 15.878316 7.1651457 13.826468 9.0898438 12.705078 L 14.431641 9.5878906 L 17.792969 7.6464844 L 20.882812 5.8417969 C 21.831609 5.2811023 22.895496 5 23.962891 5 C 25.030285 5 26.10015 5.2811023 27.0625 5.8417969 L 38.882812 12.705078 C 40.780403 13.826468 41.97289 15.878316 42 18.121094 L 42 17.121094 C 41.97289 14.878316 40.780403 12.826468 38.882812 11.705078 L 27.0625 4.8417969 C 26.10015 4.2811023 25.030285 4 23.962891 4 z"/>
</svg>
