<svg width="48" height="48" version="1.1" xmlns="http://www.w3.org/2000/svg">
 <rect x="15" y="12" width="18" height="10" style="fill:#4d4d4d"/>
 <rect x="15" y="21" width="18" height="20" style="fill:#25257e"/>
 <rect x="13" y="13" width="3" height="28" style="fill:#3455b3"/>
 <rect x="22" y="4" width="4" height="6" ry="2" style="fill:#f6e036"/>
 <rect x="32" y="13" width="3" height="28" style="fill:#3455b3"/>
 <path d="m13 11c-0.554 0-1 0.446-1 1v2c0 0.554 0.446 1 1 1h22c0.554 0 1-0.446 1-1v-2c0-0.554-0.446-1-1-1h-22zm0 30c-0.554 0-1 0.446-1 1v2c0 0.554 0.446 1 1 1h22c0.554 0 1-0.446 1-1v-2c0-0.554-0.446-1-1-1h-22z" style="opacity:.2"/>
 <path d="m14 11v-2s1 0 1-1h18c0 1 1 1 1 1v2z" style="fill:#3455b3"/>
 <rect x="12" y="10" width="24" height="4" ry="1" style="fill:#01a7f1"/>
 <rect x="12" y="40" width="24" height="4" ry="1" style="fill:#01a7f1"/>
 <path d="m17 16v2h2v-2zm3 0v2h2v-2zm3 0v2h2v-2zm3 0v2h2v-2zm3 0v2h2v-2zm-12 3v2h2v-2zm3 0v2h2v-2zm3 0v2h2v-2zm3 0v2h2v-2zm3 0v2h2v-2zm-9 5c-0.554 0-1 0.446-1 1v2c0 0.554 0.446 1 1 1h2c0.554 0 1-0.446 1-1v-2c0-0.554-0.446-1-1-1zm6 0c-0.554 0-1 0.446-1 1v2c0 0.554 0.446 1 1 1h2c0.554 0 1-0.446 1-1v-2c0-0.554-0.446-1-1-1zm-6 5c-0.554 0-1 0.446-1 1v2c0 0.554 0.446 1 1 1h2c0.554 0 1-0.446 1-1v-2c0-0.554-0.446-1-1-1zm6 0c-0.554 0-1 0.446-1 1v2c0 0.554 0.446 1 1 1h2c0.554 0 1-0.446 1-1v-2c0-0.554-0.446-1-1-1zm-6 5c-0.554 0-1 0.446-1 1v2c0 0.554 0.446 1 1 1h2c0.554 0 1-0.446 1-1v-2c0-0.554-0.446-1-1-1zm6 0c-0.554 0-1 0.446-1 1v2c0 0.554 0.446 1 1 1h2c0.554 0 1-0.446 1-1v-2c0-0.554-0.446-1-1-1z" style="opacity:.2"/>
 <path d="m17 15v2h2v-2h-2zm3 0v2h2v-2h-2zm3 0v2h2v-2h-2zm3 0v2h2v-2h-2zm3 0v2h2v-2h-2zm-12 3v2h2v-2h-2zm3 0v2h2v-2h-2zm3 0v2h2v-2h-2zm3 0v2h2v-2h-2zm3 0v2h2v-2h-2z" style="fill:#f6e036"/>
 <rect x="19" y="23" width="4" height="4" ry="1" style="fill:#f4f4f7"/>
 <rect x="19" y="28" width="4" height="4" ry="1" style="fill:#01a7f1"/>
 <rect x="19" y="33" width="4" height="4" ry="1" style="fill:#01a7f1"/>
 <rect x="25" y="23" width="4" height="4" ry="1" style="fill:#01a7f1"/>
 <rect x="25" y="28" width="4" height="4" ry="1" style="fill:#01a7f1"/>
 <rect x="25" y="33" width="4" height="4" ry="1" style="fill:#01a7f1"/>
 <path d="m24 4c-1.108 0-2 0.892-2 2v1c0-1.108 0.892-2 2-2s2 0.892 2 2v-1c0-1.108-0.892-2-2-2z" style="fill:#f4f4f7;opacity:.2"/>
 <path d="m15 8c0 1-1 1-1 1v1s1 0 1-1h18c0 1 1 1 1 1v-1s-1 0-1-1h-18z" style="fill:#f4f4f7;opacity:.1"/>
 <path d="m13 10c-0.554 0-1 0.446-1 1v1c0-0.554 0.446-1 1-1h22c0.554 0 1 0.446 1 1v-1c0-0.554-0.446-1-1-1h-22z" style="fill:#f4f4f7;opacity:.2"/>
 <path d="m13 40c-0.554 0-1 0.446-1 1v1c0-0.554 0.446-1 1-1h22c0.554 0 1 0.446 1 1v-1c0-0.554-0.446-1-1-1h-22z" style="fill:#f4f4f7;opacity:.2"/>
</svg>
