<svg xmlns="http://www.w3.org/2000/svg" width="48" height="48" version="1">
 <circle style="opacity:0.2" cx="24" cy="25" r="20"/>
 <circle style="fill:#3f3f3f" cx="24" cy="24" r="20"/>
 <path style="opacity:0.1;fill:#f4f4f7" d="M 24 4 A 20 20 0 0 0 4 24 A 20 20 0 0 0 4.0214844 24.582031 A 20 20 0 0 1 24 5 A 20 20 0 0 1 43.978516 24.417969 A 20 20 0 0 0 44 24 A 20 20 0 0 0 24 4 z"/>
 <path style="opacity:0.2" d="M 24,8 A 17,17 0 0 0 7,25 17,17 0 0 0 24,42 17,17 0 0 0 41,25 17,17 0 0 0 24,8 Z M 10,20 h 14 14 v 4.683594 c 0,0.811717 -0.0018,1.535198 -0.179688,2.388672 -0.177852,0.853475 -0.678826,1.980637 -1.589843,2.716796 -1.822034,1.472319 -3.388712,1.191547 -5.316407,1.185547 -1.566901,-0.0049 -2.664467,0.01435 -3.972656,-0.427734 C 25.64191,30.107734 24.493738,28.868177 24,27.962891 c -0.493738,0.905286 -1.64191,2.144843 -2.941406,2.583984 -1.308189,0.442084 -2.405755,0.422834 -3.972656,0.427734 -1.927695,0.006 -3.494373,0.286772 -5.316407,-1.185547 -0.911017,-0.736158 -1.41199,-1.863321 -1.589843,-2.716796 C 10.001799,26.218792 10,25.495311 10,24.683594 Z"/>
 <path style="fill:#f54636" d="M 24 7 A 17 17 0 0 0 7 24 A 17 17 0 0 0 24 41 A 17 17 0 0 0 41 24 A 17 17 0 0 0 24 7 z M 10 19 L 24 19 L 38 19 L 38 23.683594 C 38 24.495311 37.998163 25.218792 37.820312 26.072266 C 37.64246 26.925741 37.141486 28.052903 36.230469 28.789062 C 34.408435 30.261381 32.841757 29.980609 30.914062 29.974609 C 29.347161 29.969687 28.249595 29.988955 26.941406 29.546875 C 25.64191 29.107734 24.493738 27.868177 24 26.962891 C 23.506262 27.868177 22.35809 29.107734 21.058594 29.546875 C 19.750405 29.988959 18.652839 29.969709 17.085938 29.974609 C 15.158243 29.980609 13.591565 30.261381 11.769531 28.789062 C 10.858514 28.052904 10.357541 26.925741 10.179688 26.072266 C 10.001799 25.218792 10 24.495311 10 23.683594 L 10 19 z"/>
 <path style="opacity:0.2" d="m 20.273201,27.618197 c 0.418391,-0.181722 0.81765,-0.588619 1.182702,-1.205336 0.705736,-1.192268 1.492735,-1.606527 2.832616,-1.491025 1.153412,0.09943 1.788712,0.528813 2.363097,1.597165 0.657159,1.222314 1.302479,1.44066 4.285571,1.450041 3.678868,0.01156 4.062812,-0.299073 4.062812,-3.287111 V 22.999997 L 24.030405,23 H 13.060813 l -0.05236,1.640107 c -0.07661,2.257769 0.349013,2.940308 2.038628,3.269245 1.095369,0.213247 4.501732,0.02348 5.226126,-0.291144 z"/>
 <path style="fill:#f4f4f7" d="m 20.273201,26.618197 c 0.418391,-0.181722 0.81765,-0.588619 1.182702,-1.205336 0.705736,-1.192268 1.492735,-1.606527 2.832616,-1.491025 1.153412,0.09943 1.788712,0.528813 2.363097,1.597165 0.657159,1.222314 1.302479,1.44066 4.285571,1.450041 3.678868,0.01156 4.062812,-0.299073 4.062812,-3.287111 V 21.999997 L 24.030405,22 H 13.060813 l -0.05236,1.640107 c -0.07661,2.257769 0.349013,2.940308 2.038628,3.269245 1.095369,0.213247 4.501732,0.02348 5.226126,-0.291144 z"/>
 <path style="opacity:0.2;fill:#f4f4f7" d="M 24 7 A 17 17 0 0 0 7 24 A 17 17 0 0 0 7.0214844 24.419922 A 17 17 0 0 1 24 8 A 17 17 0 0 1 40.978516 24.580078 A 17 17 0 0 0 41 24 A 17 17 0 0 0 24 7 z M 10 23.683594 L 10 24.683594 C 10 25.495311 10.001799 26.218792 10.179688 27.072266 C 10.35754 27.925741 10.858514 29.052905 11.769531 29.789062 C 13.591565 31.261381 15.158243 30.980609 17.085938 30.974609 C 18.652839 30.969709 19.750405 30.988959 21.058594 30.546875 C 22.35809 30.107734 23.506262 28.868177 24 27.962891 C 24.493738 28.868177 25.64191 30.107734 26.941406 30.546875 C 28.249595 30.988959 29.347161 30.969709 30.914062 30.974609 C 32.841757 30.980609 34.408435 31.261381 36.230469 29.789062 C 37.141486 29.052904 37.64246 27.925741 37.820312 27.072266 C 37.9982 26.218792 38 25.495311 38 24.683594 L 38 23.683594 C 38 24.495311 37.998163 25.218792 37.820312 26.072266 C 37.64246 26.925741 37.141486 28.052904 36.230469 28.789062 C 34.408435 30.261381 32.841757 29.980609 30.914062 29.974609 C 29.347161 29.969687 28.249595 29.988955 26.941406 29.546875 C 25.64191 29.107734 24.493738 27.868177 24 26.962891 C 23.506262 27.868177 22.35809 29.107734 21.058594 29.546875 C 19.750405 29.988959 18.652839 29.969709 17.085938 29.974609 C 15.158243 29.980609 13.591565 30.261381 11.769531 28.789062 C 10.858514 28.052905 10.35754 26.925741 10.179688 26.072266 C 10.001798 25.218792 10 24.495311 10 23.683594 z"/>
</svg>
