<svg xmlns="http://www.w3.org/2000/svg" width="48" height="48" version="1.1">
 <path style="opacity:0.2" d="M 24.763686,5.0140485 A 20.000379,20.000002 0 0 0 18.824121,5.6820172 20.000379,20.000002 0 0 0 4.6812768,30.176158 20.000379,20.000002 0 0 0 29.175878,44.318736 20.000379,20.000002 0 0 0 43.318723,19.824596 20.000379,20.000002 0 0 0 24.763686,5.0140485 Z"/>
 <path style="fill:#2d4dc0" d="M 24.763686,4.0142404 A 20.000379,20.000002 0 0 0 18.824121,4.6822091 20.000379,20.000002 0 0 0 4.6812768,29.17635 20.000379,20.000002 0 0 0 29.175878,43.318928 20.000379,20.000002 0 0 0 43.318723,18.824788 20.000379,20.000002 0 0 0 24.763686,4.0142404 Z"/>
 <path style="opacity:0.1;fill:#f4f4f7" d="M 24.763672,4.0136719 A 20.000379,20.000002 0 0 0 18.824219,4.6816406 20.000379,20.000002 0 0 0 4.0234375,24.412109 20.000379,20.000002 0 0 1 18.824219,5.6816406 20.000379,20.000002 0 0 1 24.763672,5.0136719 20.000379,20.000002 0 0 1 43.318359,19.824219 20.000379,20.000002 0 0 1 43.976562,24.587891 20.000379,20.000002 0 0 0 43.318359,18.824219 20.000379,20.000002 0 0 0 24.763672,4.0136719 Z"/>
 <path style="opacity:0.2" d="m 23.335937,34.004569 c -0.163326,0.0101 -0.326205,0.0377 -0.484376,0.08008 -0.632681,0.169526 -1.190077,0.59877 -1.517578,1.166016 -0.3275,0.567248 -0.419526,1.265755 -0.25,1.898438 0.169526,0.632682 0.59877,1.190077 1.166016,1.517578 0.567248,0.3275 1.265756,0.419526 1.898439,0.25 0.632681,-0.169526 1.190077,-0.59877 1.517578,-1.166016 0.3275,-0.567248 0.419526,-1.265755 0.25,-1.898438 C 25.74649,35.219543 25.317246,34.662148 24.75,34.334647 24.324564,34.089022 23.825913,33.974268 23.335937,34.004569 Z m 7.033204,-10.002286 c -0.716724,0.01964 -1.429365,0.248711 -2.009766,0.669922 -0.673054,0.488451 -1.15074,1.191506 -1.675781,1.835937 -0.262521,0.322217 -0.541231,0.633527 -0.863282,0.896485 -0.32205,0.262958 -0.68991,0.478443 -1.091796,0.585937 -0.401886,0.107495 -0.827668,0.104107 -1.238283,0.03711 -0.410616,-0.06698 -0.808522,-0.197683 -1.197265,-0.345703 -0.777486,-0.296038 -1.541599,-0.666826 -2.369141,-0.753907 -1.141794,-0.12015 -2.330393,0.353235 -3.076172,1.22461 -0.745778,0.871376 -1.027624,2.117577 -0.730468,3.224609 0.297155,1.107034 1.16377,2.043376 2.246093,2.425781 1.082325,0.382405 2.348702,0.199328 3.277344,-0.474609 0.673054,-0.488451 1.15074,-1.191506 1.675781,-1.835937 0.26252,-0.322217 0.541233,-0.633527 0.863283,-0.896485 0.32205,-0.262958 0.68991,-0.478442 1.091796,-0.585937 0.401886,-0.107494 0.827667,-0.104106 1.238282,-0.03711 0.410616,0.06699 0.808521,0.197683 1.197265,0.345703 0.777485,0.296039 1.541599,0.666826 2.369141,0.753907 1.141793,0.120149 2.330393,-0.353234 3.076172,-1.22461 0.745779,-0.871375 1.027624,-2.117577 0.730468,-3.224609 -0.297156,-1.107034 -1.163768,-2.043376 -2.246093,-2.425781 -0.405872,-0.143402 -0.837544,-0.207095 -1.267578,-0.195313 z m -0.210938,-9.999667 c -0.955631,0.02553 -1.90582,0.323521 -2.679687,0.871094 -0.897406,0.634987 -1.532368,1.550912 -2.232422,2.388672 -0.350027,0.41888 -0.722944,0.822216 -1.152344,1.164062 -0.4294,0.341846 -0.91923,0.620023 -1.455079,0.759766 -0.535848,0.139742 -1.102904,0.137868 -1.650391,0.05078 -0.547488,-0.08709 -1.079332,-0.256794 -1.597656,-0.449219 -1.036648,-0.384851 -2.056767,-0.867264 -3.160156,-0.980468 -1.522391,-0.156194 -3.107192,0.459009 -4.101563,1.591797 -0.994371,1.132787 -1.370816,2.752263 -0.974609,4.191406 0.396207,1.439142 1.554947,2.657171 2.998047,3.154297 1.443099,0.497127 3.130952,0.258929 4.36914,-0.617188 0.897407,-0.634986 1.532368,-1.550912 2.232422,-2.388672 0.350027,-0.41888 0.722944,-0.822216 1.152344,-1.164062 0.429399,-0.341846 0.91923,-0.620024 1.455078,-0.759766 0.535848,-0.139743 1.102905,-0.137869 1.650392,-0.05078 0.547488,0.08709 1.079332,0.256793 1.597656,0.449219 1.036649,0.38485 2.056767,0.867264 3.160156,0.980468 1.522391,0.156194 3.107191,-0.459008 4.101563,-1.591797 0.994371,-1.132787 1.370815,-2.752263 0.974609,-4.191406 -0.396208,-1.439142 -1.554948,-2.657171 -2.998047,-3.154297 -0.541162,-0.186422 -1.116074,-0.269223 -1.689453,-0.253906 z"/>
 <path style="fill:#f4f4f7" d="m 23.335937,33.003906 c -0.163326,0.0101 -0.326205,0.0377 -0.484376,0.08008 -0.632681,0.169526 -1.190077,0.59877 -1.517578,1.166016 -0.3275,0.567248 -0.419526,1.265755 -0.25,1.898438 0.169526,0.632682 0.59877,1.190077 1.166016,1.517578 0.567248,0.3275 1.265756,0.419526 1.898439,0.25 0.632681,-0.169526 1.190077,-0.59877 1.517578,-1.166016 0.3275,-0.567248 0.419526,-1.265755 0.25,-1.898438 C 25.74649,34.21888 25.317246,33.661485 24.75,33.333984 24.324564,33.088359 23.825913,32.973605 23.335937,33.003906 Z M 30.369141,23.00162 c -0.716724,0.01964 -1.429365,0.248711 -2.009766,0.669922 -0.673054,0.488451 -1.15074,1.191506 -1.675781,1.835937 -0.262521,0.322217 -0.541231,0.633527 -0.863282,0.896485 -0.32205,0.262958 -0.68991,0.478443 -1.091796,0.585937 -0.401886,0.107495 -0.827668,0.104107 -1.238283,0.03711 -0.410616,-0.06698 -0.808522,-0.197683 -1.197265,-0.345703 -0.777486,-0.296038 -1.541599,-0.666826 -2.369141,-0.753907 -1.141794,-0.12015 -2.330393,0.353235 -3.076172,1.22461 -0.745778,0.871376 -1.027624,2.117577 -0.730468,3.224609 0.297155,1.107034 1.16377,2.043376 2.246093,2.425781 1.082325,0.382405 2.348702,0.199328 3.277344,-0.474609 0.673054,-0.488451 1.15074,-1.191506 1.675781,-1.835937 0.26252,-0.322217 0.541233,-0.633527 0.863283,-0.896485 0.32205,-0.262958 0.68991,-0.478442 1.091796,-0.585937 0.401886,-0.107494 0.827667,-0.104106 1.238282,-0.03711 0.410616,0.06699 0.808521,0.197683 1.197265,0.345703 0.777485,0.296039 1.541599,0.666826 2.369141,0.753907 1.141793,0.120149 2.330393,-0.353234 3.076172,-1.22461 0.745779,-0.871375 1.027624,-2.117577 0.730468,-3.224609 -0.297156,-1.107034 -1.163768,-2.043376 -2.246093,-2.425781 -0.405872,-0.143402 -0.837544,-0.207095 -1.267578,-0.195313 z m -0.210938,-9.999667 c -0.955631,0.02553 -1.90582,0.323521 -2.679687,0.871094 -0.897406,0.634987 -1.532368,1.550912 -2.232422,2.388672 -0.350027,0.41888 -0.722944,0.822216 -1.152344,1.164062 -0.4294,0.341846 -0.91923,0.620023 -1.455079,0.759766 -0.535848,0.139742 -1.102904,0.137868 -1.650391,0.05078 -0.547488,-0.08709 -1.079332,-0.256794 -1.597656,-0.449219 -1.036648,-0.384851 -2.056767,-0.867264 -3.160156,-0.980468 -1.522391,-0.156194 -3.107192,0.459009 -4.101563,1.591797 -0.994371,1.132787 -1.370816,2.752263 -0.974609,4.191406 0.396207,1.439142 1.554947,2.657171 2.998047,3.154297 1.443099,0.497127 3.130952,0.258929 4.36914,-0.617188 0.897407,-0.634986 1.532368,-1.550912 2.232422,-2.388672 0.350027,-0.41888 0.722944,-0.822216 1.152344,-1.164062 0.429399,-0.341846 0.91923,-0.620024 1.455078,-0.759766 0.535848,-0.139743 1.102905,-0.137869 1.650392,-0.05078 0.547488,0.08709 1.079332,0.256793 1.597656,0.449219 1.036649,0.38485 2.056767,0.867264 3.160156,0.980468 1.522391,0.156194 3.107191,-0.459008 4.101563,-1.591797 0.994371,-1.132787 1.370815,-2.752263 0.974609,-4.191406 -0.396208,-1.439142 -1.554948,-2.657171 -2.998047,-3.154297 -0.541162,-0.186422 -1.116074,-0.269223 -1.689453,-0.253906 z"/>
</svg>
