<svg xmlns="http://www.w3.org/2000/svg" width="48" height="48" version="1.1">
 <path style="opacity:0.2" d="m 22,5 a 16,16 0 0 1 16,16 16,16 0 0 1 -0.01562,0.507812 L 39.082031,23.410156 41.730469,28 A 2.0002,2.0002 0 0 1 40,31 h -2 v 5.15625 C 38,37.730776 36.730776,39 35.15625,39 H 30 v 3.15625 C 30,43.730776 28.730776,45 27.15625,45 H 14.84375 C 13.269224,45 12,43.730776 12,42.15625 V 33.488282 A 16,16 0 0 1 6,21 16,16 0 0 1 22,5 Z"/>
 <circle style="fill:#4897e1" cx="-22" cy="20" r="16" transform="scale(-1,1)"/>
 <rect style="fill:#4897e1" width="18" height="18" x="-38" y="20" rx="2.842" ry="2.842" transform="scale(-1,1)"/>
 <rect style="fill:#4897e1" width="18" height="18" x="-30" y="26" rx="2.842" ry="2.842" transform="scale(-1,1)"/>
 <path style="fill:#4897e1" d="m 34.804463,16.818359 a 2.0002,2.0002 0 0 1 1.625,0.998047 L 39.081807,22.408204 41.732197,27 a 2.0002,2.0002 0 0 1 -1.732421,3 H 29.396259 a 2.0002,2.0002 0 0 1 -1.732421,-3 l 2.65039,-4.591796 2.652344,-4.591798 a 2.0002,2.0002 0 0 1 1.638672,-0.998047 2.0002,2.0002 0 0 1 0.199219,0 z"/>
 <path style="opacity:0.2;fill:#f4f4f7" d="M 22,4 A 16,16 0 0 1 38,20 16,16 0 0 1 37.98438,20.507812 16,16 0 0 0 22,5 16,16 0 0 0 6.023438,20.5 16,16 0 0 1 6,20 16,16 0 0 1 22,4 Z M 37.984375,20.507812 39.082031,22.410156 41.730469,27 A 2.0002,2.0002 0 0 1 41.933594,28.5 2.0002,2.0002 0 0 0 41.730469,28 L 39.082031,23.410156 37.984375,21.507812 A 16,16 0 0 0 38,21 16,16 0 0 0 37.98438,20.507812 Z"/>
 <path style="opacity:0.3" d="M 11.4375 8 A 16 16 0 0 0 8.1660156 12 L 35.839844 12 A 16 16 0 0 0 32.552734 8 L 11.4375 8 z M 6.5214844 16 A 16 16 0 0 0 6 20 L 38 20 A 16 16 0 0 0 37.470703 16 L 6.5214844 16 z M 6.53125 24 A 16 16 0 0 0 8.1640625 28 L 41.998047 28 A 2.0002 2.0002 0 0 0 41.732422 27 L 40 24 L 6.53125 24 z M 11.451172 32 A 16 16 0 0 0 12 32.484375 L 12 36 L 37.859375 36 C 37.942387 35.732372 38 35.453847 38 35.158203 L 38 32 L 11.451172 32 z M 12 40 L 12 41.158203 C 12 42.732671 13.267329 44 14.841797 44 L 27.158203 44 C 28.732671 44 30 42.732671 30 41.158203 L 30 40 L 12 40 z"/>
 <path style="opacity:0.2" d="M 11.4375 8 A 16 16 0 0 0 8.1660156 12 L 8.8183594 12 A 16 16 0 0 1 11.4375 9 L 32.552734 9 A 16 16 0 0 1 35.191406 12 L 35.839844 12 A 16 16 0 0 0 32.552734 8 L 11.4375 8 z M 6.5214844 16 A 16 16 0 0 0 6 20 L 6.0410156 20 A 16 16 0 0 1 6.5214844 17 L 37.470703 17 A 16 16 0 0 1 37.945312 20 L 38 20 A 16 16 0 0 0 37.470703 16 L 6.5214844 16 z M 6.53125 24 A 16 16 0 0 0 6.84375 25 L 40 25 L 41.732422 28 L 41.998047 28 A 2.0002 2.0002 0 0 0 41.732422 27 L 40 24 L 6.53125 24 z M 11.451172 32 A 16 16 0 0 0 12 32.484375 L 12 33 L 38 33 L 38 32 L 11.451172 32 z M 12 40 L 12 41 L 30 41 L 30 40 L 12 40 z"/>
</svg>
