<svg xmlns="http://www.w3.org/2000/svg" width="48" height="48" version="1.1">
 <path style="opacity:0.2" d="M 17.727,5 14.389,8.5664 C 14.345,8.5811 14.019,8.3065 13.663,8.2012 12.71,7.9188 11.5,7.967 10.677,8.3437 10.139,8.5902 9.9306,8.7636 8.6512,10.031 7.2722,11.397 7,11.725 7,12.016 7,12.091 7.4983,12.824 7.7436,13.398 L 8.1886,14.443 7.6168,16.025 C 7.3023,16.895 7.031,17.655 7.0117,17.715 6.9629,17.867 11.428,35.064 11.661,35.623 12.084,36.637 12.75,37.546 13.613,38.291 14.391,38.963 22.294,44.403 23.077,44.805 23.308,44.924 23.681,44.992 24,45 24.319,44.992 24.692,44.924 24.923,44.805 25.706,44.403 33.609,38.963 34.387,38.291 35.25,37.546 35.916,36.637 36.339,35.623 36.572,35.064 41.037,17.867 40.988,17.715 40.969,17.655 40.698,16.895 40.383,16.025 L 39.811,14.443 40.256,13.398 C 40.502,12.824 41,12.091 41,12.016 41,11.725 40.728,11.397 39.349,10.031 38.069,8.7636 37.861,8.5902 37.323,8.3437 36.5,7.967 35.29,7.9188 34.337,8.2012 33.981,8.3065 33.655,8.5811 33.611,8.5664 L 30.273,5 H 24 Z"/>
 <path style="fill:#ee5132" d="M 17.727,4 14.389,7.5664 C 14.345,7.5811 14.019,7.3065 13.663,7.2012 12.71,6.9188 11.5,6.967 10.677,7.3437 10.139,7.5902 9.9306,7.7636 8.6512,9.0312 7.2722,10.398 7,10.725 7,11.016 7,11.091 7.4983,11.824 7.7436,12.398 L 8.1886,13.443 7.6168,15.025 C 7.3023,15.895 7.031,16.655 7.0117,16.715 6.9629,16.867 11.428,34.064 11.661,34.623 12.084,35.637 12.75,36.546 13.613,37.291 14.391,37.963 22.294,43.403 23.077,43.805 23.308,43.924 23.681,43.992 24,44 24.319,43.992 24.692,43.924 24.923,43.805 25.706,43.403 33.609,37.963 34.387,37.291 35.25,36.546 35.916,35.637 36.339,34.623 36.572,34.064 41.037,16.867 40.988,16.715 40.969,16.655 40.698,15.895 40.383,15.025 L 39.811,13.443 40.256,12.398 C 40.502,11.824 41,11.091 41,11.016 41,10.725 40.728,10.398 39.349,9.0312 38.069,7.7636 37.861,7.5902 37.323,7.3437 36.5,6.967 35.29,6.9188 34.337,7.2012 33.981,7.3065 33.655,7.5811 33.611,7.5664 L 30.273,4 H 24 Z"/>
 <path style="opacity:0.2" d="M 25.58,34.924 C 25.58,34.924 27.298,33.769 28.827,32.653 29.687,32.025 29.823,31.864 29.682,31.642 29.57,31.465 26.794,30.072 25.467,29.527 24.071,28.955 23.924,28.954 22.57,29.516 21.356,30.019 18.624,31.396 18.395,31.622 18.158,31.855 18.278,32.068 18.874,32.48 20.103,33.328 22.459,34.959 22.459,34.959 24.061,36.352 23.937,36.353 25.58,34.925 Z M 19.14,29.943 C 20.806,29.144 21.055,28.979 22.329,27.828 23.4,26.861 23.598,26.573 23.445,26.207 23.394,26.083 22.589,25.326 21.657,24.524 19.455,22.631 19.547,22.898 20.385,20.843 20.883,19.622 21.013,19.214 21.011,18.875 21.008,18.364 20.823,17.981 20.449,17.715 20.297,17.608 18.967,17.061 17.492,16.499 16.017,15.938 14.819,15.441 14.829,15.396 14.853,15.292 16.479,15.111 17.66,15.081 L 18.553,15.058 20.195,15.643 C 21.627,16.153 21.852,16.258 21.96,16.465 22.027,16.596 22.082,16.771 22.081,16.855 22.08,16.939 21.814,18.152 21.491,19.55 20.924,21.999 20.908,22.098 21.056,22.248 21.289,22.485 23.579,23.036 24.294,22.98 25.111,22.917 26.779,22.409 26.947,22.238 27.084,22.1 27.058,21.944 26.503,19.55 26.179,18.152 25.913,16.939 25.912,16.855 25.911,16.771 25.966,16.595 26.034,16.464 26.142,16.256 26.353,16.155 27.629,15.7 29.686,14.966 29.644,14.972 31.513,15.141 32.384,15.22 33.132,15.318 33.175,15.359 33.221,15.403 33.169,15.466 33.047,15.512 32.935,15.556 31.732,16.016 30.376,16.535 29.019,17.054 27.767,17.573 27.592,17.688 27.183,17.958 26.984,18.343 26.982,18.872 26.98,19.207 27.109,19.612 27.593,20.794 27.931,21.617 28.207,22.369 28.207,22.463 28.207,22.845 27.927,23.154 26.379,24.482 25.49,25.245 24.7,25.982 24.625,26.119 24.549,26.256 24.506,26.465 24.529,26.584 24.568,26.788 25.633,27.838 26.718,28.743 27.174,29.123 29.934,30.885 30.376,30.957 30.747,31.017 31.142,30.453 31.79,29.906 32.425,29.369 32.804,28.832 33.061,28.102 33.302,27.417 33.242,26.956 32.764,25.847 32.4,25.001 32.303,24.536 32.426,24.219 32.454,24.146 33.439,23.195 34.616,22.105 37.179,19.73 37.79,19.305 37.931,18.881 38.087,18.41 37.977,17.789 37.626,17.165 36.789,15.673 33.31,11 33.015,11 31.493,11.248 30.219,11.797 28.616,12.049 28.49,12.05 27.954,11.916 27.425,11.752 25.166,11.053 24.434,11 23.996,11 23.559,11 22.827,11.053 20.568,11.752 20.039,11.916 19.497,12.05 19.364,12.05 17.785,11.817 16.613,11.19 14.978,11 14.723,11.172 12.461,14.338 11.524,15.721 10.423,17.347 10.111,17.556 10.022,18.176 9.8965,19.042 10.215,19.188 13.506,22.23 14.613,23.254 15.541,24.15 15.568,24.221 15.692,24.542 15.594,25.026 15.235,25.873 14.742,27.036 14.698,27.359 14.936,28.062 15.195,28.826 15.633,29.443 16.296,29.977 16.912,30.472 17.15,30.969 17.514,30.977 17.644,30.98 18.376,30.309 19.14,29.942 Z"/>
 <path style="fill:#f4f4f7" d="M 25.58,33.924 C 25.58,33.924 27.298,32.769 28.827,31.653 29.687,31.025 29.823,30.864 29.682,30.642 29.57,30.465 26.794,29.072 25.467,28.527 24.071,27.955 23.924,27.954 22.57,28.516 21.356,29.018 18.624,30.396 18.395,30.622 18.158,30.855 18.278,31.068 18.874,31.48 20.103,32.328 22.459,33.959 22.459,33.959 24.061,35.352 23.937,35.353 25.58,33.925 Z M 19.14,28.943 C 20.806,28.144 21.055,27.979 22.329,26.828 23.4,25.861 23.598,25.573 23.445,25.207 23.394,25.083 22.589,24.326 21.657,23.524 19.455,21.631 19.547,21.898 20.385,19.843 20.883,18.622 21.013,18.214 21.011,17.875 21.008,17.364 20.823,16.981 20.449,16.715 20.297,16.608 18.967,16.061 17.492,15.499 16.017,14.938 14.819,14.441 14.829,14.396 14.853,14.292 16.479,14.111 17.66,14.081 L 18.553,14.058 20.195,14.643 C 21.627,15.153 21.852,15.258 21.96,15.465 22.027,15.596 22.082,15.771 22.081,15.855 22.08,15.939 21.814,17.152 21.491,18.55 20.924,20.999 20.908,21.098 21.056,21.247 21.289,21.485 23.579,22.036 24.294,21.98 25.111,21.917 26.779,21.409 26.947,21.238 27.084,21.1 27.058,20.944 26.503,18.55 26.179,17.152 25.913,15.939 25.912,15.855 25.911,15.771 25.966,15.595 26.034,15.464 26.142,15.256 26.353,15.155 27.629,14.7 29.686,13.966 29.644,13.972 31.513,14.141 32.384,14.22 33.132,14.318 33.175,14.359 33.221,14.403 33.169,14.466 33.047,14.512 32.935,14.556 31.732,15.016 30.376,15.535 29.019,16.054 27.767,16.573 27.592,16.688 27.183,16.958 26.984,17.343 26.982,17.872 26.98,18.207 27.109,18.612 27.593,19.794 27.931,20.617 28.207,21.369 28.207,21.463 28.207,21.845 27.927,22.154 26.379,23.482 25.49,24.245 24.7,24.982 24.625,25.119 24.549,25.256 24.506,25.465 24.529,25.584 24.568,25.788 25.633,26.838 26.718,27.743 27.174,28.123 29.934,29.885 30.376,29.957 30.747,30.017 31.142,29.453 31.79,28.906 32.425,28.369 32.804,27.832 33.061,27.102 33.302,26.417 33.242,25.956 32.764,24.847 32.4,24.001 32.303,23.536 32.426,23.219 32.454,23.146 33.439,22.195 34.616,21.105 37.179,18.73 37.79,18.305 37.931,17.881 38.087,17.41 37.977,16.789 37.626,16.165 36.789,14.673 33.31,9.9997 33.015,9.9997 31.493,10.248 30.219,10.797 28.616,11.049 28.49,11.05 27.954,10.916 27.425,10.752 25.166,10.053 24.434,9.9996 23.996,9.9996 23.559,9.9996 22.827,10.053 20.568,10.752 20.039,10.916 19.497,11.05 19.364,11.05 17.785,10.817 16.613,10.19 14.978,9.9997 14.723,10.172 12.461,13.338 11.524,14.721 10.423,16.347 10.111,16.556 10.022,17.175 9.8965,18.042 10.215,18.188 13.506,21.23 14.613,22.254 15.541,23.15 15.568,23.221 15.692,23.542 15.594,24.026 15.235,24.873 14.742,26.036 14.698,26.359 14.936,27.062 15.195,27.826 15.633,28.443 16.296,28.977 16.912,29.472 17.15,29.969 17.514,29.977 17.644,29.98 18.376,29.309 19.14,28.942 Z"/>
 <path style="opacity:0.1;fill:#f4f4f7" d="M 17.727,4 14.389,7.5664 C 14.344,7.5811 14.02,7.3065 13.664,7.2012 12.711,6.9188 11.5,6.967 10.678,7.3437 10.14,7.5902 9.9298,7.7636 8.6504,9.0312 7.2714,10.398 7,10.725 7,11.016 7,11.051 7.1203,11.249 7.2637,11.492 7.4925,11.202 7.8971,10.778 8.6504,10.031 9.9298,8.7636 10.14,8.5902 10.678,8.3437 11.5,7.967 12.711,7.9188 13.664,8.2012 14.02,8.3065 14.344,8.5811 14.389,8.5664 L 17.727,5 H 24 30.273 L 33.611,8.5664 C 33.656,8.5811 33.98,8.3065 34.336,8.2012 35.289,7.9188 36.5,7.967 37.322,8.3437 37.86,8.5902 38.07,8.7636 39.35,10.031 40.103,10.778 40.508,11.202 40.736,11.492 40.88,11.249 41,11.051 41,11.016 41,10.725 40.729,10.398 39.35,9.0312 38.07,7.7636 37.86,7.5902 37.322,7.3437 36.5,6.967 35.289,6.9188 34.336,7.2012 33.98,7.3065 33.656,7.5811 33.611,7.5664 L 30.273,4 H 24 Z M 7.9941,13.984 7.6172,15.025 C 7.3028,15.895 7.031,16.655 7.0117,16.715 7.0091,16.723 7.1342,17.211 7.1563,17.312 7.2534,17.038 7.3777,16.688 7.6172,16.025 L 8.1895,14.443 Z M 40.006,13.984 39.811,14.443 40.383,16.025 C 40.622,16.688 40.747,17.038 40.844,17.312 40.866,17.211 40.991,16.723 40.988,16.715 40.969,16.655 40.697,15.895 40.383,15.025 Z"/>
</svg>
