<svg width="48" height="48" version="1.1" xmlns="http://www.w3.org/2000/svg">
 <g transform="matrix(2,0,0,2,2,2)">
  <ellipse cx="11" cy="11.5" rx="10" ry="9" style="opacity:.2"/>
  <ellipse cx="11" cy="11" rx="10" ry="9" style="fill:#356376"/>
  <path d="M 11,2 A 10,9 0 0 0 1,11 10,9 0 0 0 1.0117188,11.292969 10,9 0 0 1 11,2.5 10,9 0 0 1 20.988281,11.207031 10,9 0 0 0 21,11 10,9 0 0 0 11,2 Z" style="fill:#f4f4f7;opacity:.1"/>
  <ellipse cx="11" cy="11.5" rx="6" ry="5" style="opacity:.2"/>
  <ellipse cx="11" cy="11" rx="6" ry="5" style="fill:#3786a6"/>
  <path d="m 11,2.5 -2,4 H 1 L 6.9082025,10.931152 3,18.5 l 8,-4 8,4 L 15.091796,10.931152 21,6.5 h -8 z" style="opacity:.2"/>
  <path d="M 11,2 9,6 H 1 L 6.9082025,10.431152 3,18 11,14 19,18 15.091796,10.431152 21,6 h -8 z" style="fill:#4da2c4"/>
  <path d="m3 18 8-10 8 10-8-4z" style="fill:#b04f08;opacity:.5"/>
  <path d="m11 8-10-2 5.9082025 4.431152z" style="fill:#b04f08;opacity:.5"/>
  <path d="m11 8 10-2-5.908204 4.431152z" style="fill:#b04f08;opacity:.5"/>
  <path d="m11 8v-6l-2 4z" style="fill:#b3d1ca"/>
  <path d="M 11,2 9,6 H 1 L 1.6660156,6.5 H 9 l 2,-4 2,4 h 7.333984 L 21,6 H 13 Z M 6.7226562,10.792969 3,18 3.3476562,17.826172 6.9082031,10.931641 Z m 8.5546878,0 -0.185547,0.138672 3.560547,6.894531 L 19,18 Z" style="fill:#f4f4f7;opacity:.2"/>
 </g>
</svg>
