<svg xmlns="http://www.w3.org/2000/svg" width="48" height="48" version="1.1">
 <circle style="opacity:0.2" cx="24" cy="25" r="20"/>
 <circle style="fill:#395a95" cx="24" cy="24" r="20"/>
 <path style="opacity:0.1;fill:#f4f4f7" d="M 24,4 A 20,20 0 0 0 4,24 20,20 0 0 0 4.0215,24.582 20,20 0 0 1 24,5 20,20 0 0 1 43.979,24.418 20,20 0 0 0 44,24 20,20 0 0 0 24,4 Z"/>
 <path style="opacity:0.2" d="m 12,15.000341 c -0.552262,5.5e-5 -0.999945,0.447738 -1,1 v 3 c -0.03144,-2.31e-4 -1,-0.0038 -1,0.988281 v 13.511719 c 8.3e-5,0.828393 0.671607,1.499917 1.5,1.5 h 8.648438 c 2.74715,0.08946 2.290311,2.065909 3.851562,1.99933 1.561251,0.06658 1.104411,-1.909872 3.851562,-1.99933 H 36.5 c 0.828393,-8.3e-5 1.499917,-0.671607 1.5,-1.5 V 19.988622 c 0,-0.992047 -0.968557,-0.988512 -1,-0.988281 v -3 c -5.5e-5,-0.552262 -0.447738,-0.999945 -1,-1 h -8 c -1.833333,0 -3.212675,1.004734 -3.972656,2.220703 -0.0107,0.01711 -0.01684,0.03555 -0.02734,0.05274 -0.0105,-0.01718 -0.01665,-0.03562 -0.02734,-0.05274 C 23.212675,16.005075 21.833333,15.000341 20,15.000341 Z m 1,2 h 7 c 1.166667,0 1.787325,0.495266 2.277344,1.279297 C 22.767363,19.063668 23,20.167008 23,21.000341 V 29 c -0.01912,1.352323 2.019125,1.352323 2,0 v -7.999659 c 0,-0.833333 0.232637,-1.936673 0.722656,-2.720703 C 26.212675,17.495607 26.833333,17.000341 28,17.000341 h 7 v 2 1.828125 11.171875 H 27.548828 C 25.974524,32.009461 25.043985,33.214056 24,33.972328 22.956015,33.214056 22.025476,32.009461 20.451172,32.000341 H 13 v -13 z"/>
 <path style="fill:#f4f4f7" d="M 11.007812,18.000341 C 10.999702,18.000341 10,17.984417 10,18.988622 v 13.511719 c 8.3e-5,0.828393 0.671607,1.499917 1.5,1.5 h 8.648438 c 2.747151,0.08946 2.290311,2.065909 3.851562,1.99933 1.561251,0.06658 1.104411,-1.909872 3.851562,-1.99933 H 36.5 c 0.828393,-8.3e-5 1.499917,-0.671607 1.5,-1.5 V 18.988622 c 0,-1.004205 -0.999702,-0.988281 -1.007812,-0.988281 H 35 v 13 H 27.548828 C 25.974524,31.009461 25.043985,32.214056 24,32.972328 22.956015,32.214056 22.025476,31.009461 20.451172,31.000341 H 13 v -13 z"/>
 <path style="fill:#f4f4f7" d="m 12,14.000341 c -0.552262,5.5e-5 -0.999945,0.447738 -1,1 v 4.828125 c -0.01913,1.352323 2.019125,1.352323 2,0 v -3.828125 h 7 c 1.166667,0 1.787325,0.495266 2.277344,1.279297 C 22.767363,18.063668 23,19.167008 23,20.000341 V 28 c -0.01912,1.352323 2.019125,1.352323 2,0 V 20.000341 C 25,18.833674 24.732637,17.437014 23.972656,16.221044 23.212675,15.005075 21.833333,14.000341 20,14.000341 Z"/>
 <path style="fill:#f4f4f7" d="m 28,14.000341 c -1.833333,0 -3.212675,1.004734 -3.972656,2.220703 C 23.267363,17.437014 23,18.833674 23,20.000341 V 28 c -0.01912,1.352323 2.019125,1.352323 2,0 v -7.999659 c 0,-0.833333 0.232637,-1.936673 0.722656,-2.720703 C 26.212675,16.495607 26.833333,16.000341 28,16.000341 h 7 v 3.828125 c -0.01913,1.352323 2.019125,1.352323 2,0 v -4.828125 c -5.5e-5,-0.552262 -0.447738,-0.999945 -1,-1 z"/>
</svg>
