<svg xmlns="http://www.w3.org/2000/svg" width="48" height="48" version="1">
 <rect style="fill:#26ace2" width="40" height="40" x="4" y="4" rx="2" ry="2"/>
 <path opacity=".2" d="m6 45c-1.108 0-2-0.892-2-2v-1c0 1.108 0.892 2 2 2h36c1.108 0 2-0.892 2-2v1c0 1.108-0.892 2-2 2h-36z"/>
 <path style="opacity:0.2" d="m 11,12 v 12 h 2.947266 V 19.072266 H 18 V 17.042969 H 13.947266 V 14.027344 H 19 V 12 Z M 24.378906,12 20.4375,24 h 2.625 l 0.818359,-2.935547 H 27.9375 L 28.755859,24 h 2.615235 L 27.439453,12 Z m 1.529297,1.619141 0.0625,0.310547 c 0.03559,0.148257 0.07756,0.318041 0.125,0.507812 0.04744,0.18977 0.09702,0.397695 0.150391,0.623047 0.05931,0.219422 0.118434,0.434946 0.177734,0.648437 l 0.960938,3.38086 h -2.953125 l 0.960937,-3.38086 c 0.0593,-0.213491 0.116549,-0.429015 0.169922,-0.648437 0.05931,-0.225352 0.112716,-0.433277 0.160156,-0.623047 0.04744,-0.189771 0.08558,-0.359554 0.115235,-0.507812 0.03558,-0.148261 0.05845,-0.251247 0.07031,-0.310547 z M 11,26 v 12 h 3.736328 c 0.828403,0 1.567862,-0.129691 2.21875,-0.390625 0.656805,-0.260934 1.210452,-0.646242 1.660156,-1.15625 0.449703,-0.515937 0.79261,-1.154981 1.029297,-1.914063 C 19.881217,33.779981 20,32.902543 20,31.90625 20,30.880304 19.873579,29.997149 19.619141,29.255859 19.37062,28.50864 19.00089,27.894419 18.509766,27.414062 18.018642,26.933706 17.411347,26.578938 16.689453,26.347656 15.96756,26.116374 15.139989,26 14.205078,26 Z m 14.791016,0 c -0.830153,0 -1.54534,0.129679 -2.146485,0.388672 -0.601145,0.258993 -1.099101,0.641962 -1.49414,1.148437 -0.389313,0.500719 -0.678257,1.122789 -0.867188,1.865235 C 21.094276,30.139035 21,30.986115 21,31.947266 c 0,0.880575 0.09427,1.693101 0.283203,2.435546 0.194656,0.736691 0.489727,1.372952 0.884766,1.908204 0.395038,0.535251 0.890908,0.954729 1.486328,1.259765 C 24.255442,37.850062 24.958374,38 25.765625,38 c 0.475191,0 0.921905,-0.05677 1.339844,-0.171875 0.417939,-0.115107 0.805193,-0.258978 1.160156,-0.431641 0.360687,-0.178417 0.684444,-0.372884 0.970703,-0.580078 C 29.528313,36.609211 29.782443,36.414642 30,36.230469 V 31.013672 H 25 V 33 h 2.681641 v 2.324219 c -0.06298,0.0518 -0.151121,0.114633 -0.265625,0.189453 -0.108779,0.06907 -0.241906,0.137971 -0.396485,0.207031 -0.148855,0.06331 -0.320968,0.120075 -0.515625,0.171875 -0.188931,0.04605 -0.391818,0.07031 -0.609375,0.07031 -0.784351,0 -1.368365,-0.348519 -1.751953,-1.044922 -0.383588,-0.696403 -0.574219,-1.68725 -0.574219,-2.970703 0,-0.644605 0.03899,-1.21001 0.119141,-1.699219 0.08015,-0.494964 0.209239,-0.906318 0.386719,-1.234375 0.177481,-0.333814 0.409053,-0.585047 0.695312,-0.751953 0.28626,-0.172663 0.636614,-0.259766 1.048828,-0.259766 0.366411,0 0.68404,0.141814 0.953125,0.423828 0.269083,0.276259 0.480185,0.701805 0.634766,1.277344 l 2.353516,-0.464844 c -0.137405,-0.483454 -0.315647,-0.925143 -0.533204,-1.322265 -0.217557,-0.397122 -0.48603,-0.735563 -0.80664,-1.017578 -0.314886,-0.287769 -0.689886,-0.51062 -1.125,-0.666016 C 26.865532,26.077028 26.363535,26 25.791016,26 Z M 32,26 v 12 h 3 V 26 Z m -17.947266,2.027344 h 0.107422 c 0.544379,0 1.017555,0.0744 1.419922,0.222656 0.402367,0.142327 0.733786,0.37124 0.994141,0.685547 0.266273,0.308377 0.463572,0.708955 0.59375,1.201172 0.130176,0.486286 0.195312,1.075683 0.195312,1.769531 0,1.352112 -0.233717,2.368794 -0.701172,3.050781 -0.467456,0.676057 -1.180092,1.015625 -2.138671,1.015625 h -0.470704 z"/>
 <path style="fill:#f4f4f7" d="m 13.947485,13.02817 v 3.015746 H 18 v 2.028168 H 13.947485 V 23 H 11 V 11.000001 h 8 v 2.028169 z"/>
 <path style="fill:#f4f4f7" d="M 31.370644,23 H 28.755373 L 27.936989,20.064493 H 23.880652 L 23.062267,23 h -2.624165 l 3.940696,-11.999999 h 3.060044 z M 25.90882,12.618978 q -0.01779,0.08895 -0.07116,0.311341 -0.04448,0.222387 -0.115642,0.507043 -0.07116,0.284655 -0.160119,0.622683 -0.08006,0.329133 -0.169014,0.64937 l -0.960711,3.380281 h 2.953298 l -0.960711,-3.380281 q -0.08895,-0.320237 -0.177909,-0.64937 -0.08006,-0.338028 -0.151223,-0.622683 -0.07116,-0.284656 -0.124537,-0.507043 -0.04448,-0.222387 -0.06227,-0.311341 z"/>
 <path style="fill:#f4f4f7" d="m 20,30.906598 c 0,0.996293 -0.118343,1.87398 -0.355029,2.633061 -0.236687,0.759081 -0.579883,1.39659 -1.029586,1.912527 -0.449704,0.510008 -1.002958,0.895479 -1.659763,1.156413 C 16.304734,36.869533 15.565089,37 14.736686,37 H 11 V 25 h 3.204142 c 0.934911,0 1.763314,0.115641 2.485207,0.346923 0.721894,0.231282 1.328403,0.587101 1.819527,1.067457 C 19,26.894737 19.369822,27.508525 19.618343,28.255744 19.872781,28.997034 20,29.880652 20,30.906598 Z m -2.636094,0 c 0,-0.693848 -0.06509,-1.283915 -0.195266,-1.770201 -0.130178,-0.492217 -0.328403,-0.892513 -0.594676,-1.20089 -0.260355,-0.314307 -0.591715,-0.542624 -0.994082,-0.684951 -0.402367,-0.148258 -0.87574,-0.222387 -1.420119,-0.222387 h -0.107248 v 7.943662 h 0.471154 c 0.95858,0 1.671598,-0.338028 2.139054,-1.014085 0.467455,-0.681987 0.701183,-1.699036 0.701183,-3.051148 z"/>
 <path style="fill:#f4f4f7" d="m 30,35.230216 c -0.217557,0.184173 -0.472328,0.379856 -0.764313,0.587051 -0.286259,0.207194 -0.609732,0.399999 -0.970419,0.578416 -0.354963,0.172663 -0.741413,0.316548 -1.159352,0.431655 C 26.687977,36.942446 26.241412,37 25.766221,37 24.95897,37 24.254771,36.85036 23.653626,36.551079 23.058206,36.246043 22.562977,35.825899 22.167939,35.290648 21.7729,34.755396 21.478053,34.119424 21.283397,33.382733 21.094466,32.640288 21,31.828777 21,30.948202 c 0,-0.961151 0.09447,-1.810072 0.283397,-2.546763 0.188931,-0.742446 0.478053,-1.364029 0.867366,-1.864748 0.395039,-0.506475 0.89313,-0.889208 1.494275,-1.148201 C 24.246183,25.129497 24.961832,25 25.791985,25 c 0.572519,0 1.073473,0.0777 1.502863,0.233094 0.435114,0.155396 0.810114,0.376979 1.125,0.664748 0.32061,0.282015 0.589694,0.621583 0.807252,1.018705 0.217557,0.397122 0.395038,0.83741 0.532443,1.320864 l -2.353054,0.466186 c -0.154581,-0.575539 -0.366413,-1.001439 -0.635496,-1.277698 -0.269085,-0.282014 -0.586833,-0.423021 -0.953244,-0.423021 -0.412214,0 -0.761451,0.08633 -1.047711,0.258993 -0.286259,0.166906 -0.51813,0.417266 -0.695611,0.75108 -0.17748,0.328057 -0.306297,0.739567 -0.38645,1.234531 -0.08015,0.489209 -0.120229,1.056115 -0.120229,1.70072 0,1.283453 0.191794,2.273381 0.575382,2.969784 0.383588,0.696403 0.967558,1.044604 1.751909,1.044604 0.217557,0 0.420801,-0.02302 0.609732,-0.06907 0.194657,-0.0518 0.366413,-0.109354 0.515268,-0.172661 0.154579,-0.06906 0.286258,-0.13813 0.395037,-0.207195 0.114504,-0.07482 0.203245,-0.138129 0.266222,-0.189928 V 32 H 25 v -1.987008 h 5 z"/>
 <rect style="fill:#f4f4f7" width="3" height="12" x="32" y="25"/>
 <path style="opacity:0.3" d="m 33,4 v 4 7 h 7 4 V 8 6 C 44,4.892 43.108,4 42,4 h -2 z"/>
 <rect style="opacity:0.2" width="7" height="7" x="33" y="8"/>
 <rect style="opacity:0.1" width="11" height="1" x="33" y="14"/>
 <path style="fill:#f4f4f7;opacity:0.2" d="M 6 4 C 4.892 4 4 4.892 4 6 L 4 7 C 4 5.892 4.892 5 6 5 L 42 5 C 43.108 5 44 5.892 44 7 L 44 6 C 44 4.892 43.108 4 42 4 L 6 4 z"/>
 <rect style="opacity:0.1;fill:#f4f4f7" width="11" height="1" x="33" y="15"/>
</svg>
