<svg xmlns="http://www.w3.org/2000/svg" width="48" height="48" version="1">
 <rect style="opacity:0.2" width="40" height="40" x="4" y="5" rx="2" ry="2"/>
 <rect style="fill:#752828" width="40" height="40" x="4" y="4" rx="2" ry="2"/>
 <path style="opacity:0.2;fill:none;stroke:#000000;stroke-width:2" d="m 15,11 c 7.316897,0 10.683103,14 18,14"/>
 <path style="opacity:0.1;fill:#f4f4f7" d="M 4,7 V 6 C 4,4.892 4.892,4 6,4 h 36 c 1.108,0 2,0.892 2,2 V 7 C 44,5.892 43.108,5 42,5 H 6 C 4.892,5 4,5.892 4,7 Z"/>
 <path style="fill:none;stroke:#6c7f94;stroke-width:2" d="m 15,10 c 7.316897,0 10.683103,14 18,14"/>
 <path style="opacity:0.2;fill:none;stroke:#000000;stroke-width:2" d="m 15,25 c 7.316897,0 10.683103,14 18,14"/>
 <path style="opacity:0.2;fill-rule:evenodd" d="M 12.016079,9 11.983921,9.03664 10,11.000245 12.016079,13 H 16 V 9 Z"/>
 <path style="fill:#4c66cc;fill-rule:evenodd" d="M 12.016079,8 11.983921,8.03664 10,10.000245 12.016079,12 H 16 V 8 Z"/>
 <path style="opacity:0.2;fill-rule:evenodd" d="m 32,23 v 4 h 4.022725 L 38,25 36.022725,23 h -0.04545 z"/>
 <path style="fill:#4c66cc;fill-rule:evenodd" d="m 32,22 v 4 h 4.022725 L 38,24 36.022725,22 h -0.04545 z"/>
 <path style="fill:none;stroke:#6c7f94;stroke-width:2" d="m 15,24 c 7.316897,0 10.683103,14 18,14"/>
 <path style="opacity:0.2;fill-rule:evenodd" d="M 12.016079,23 11.983921,23.03664 10,25.000245 12.016079,27 H 16 v -4 z"/>
 <path style="fill:#4c66cc;fill-rule:evenodd" d="M 12.016079,22 11.983921,22.03664 10,24.000245 12.016079,26 H 16 v -4 z"/>
 <path style="opacity:0.2;fill-rule:evenodd" d="m 32,37 v 4 h 4.022725 L 38,39 36.022725,37 h -0.04545 z"/>
 <path style="fill:#4c66cc;fill-rule:evenodd" d="m 32,36 v 4 h 4.022725 L 38,38 36.022725,36 h -0.04545 z"/>
 <circle style="fill:#3f3f3f" cx="36" cy="35" r="12"/>
 <path style="fill:#f4f4f7" d="m 33.923,40.423 c 0,-0.29059 0.0417,-0.53611 0.12512,-0.73723 0.0834,-0.20045 0.19911,-0.36256 0.34776,-0.48633 0.14798,-0.12377 0.32287,-0.21323 0.524,-0.26906 0.20045,-0.0552 0.41503,-0.0834 0.64373,-0.0834 0.21659,0 0.42243,0.0283 0.61683,0.0834 0.19439,0.0559 0.36592,0.14529 0.51458,0.26906 0.14799,0.12377 0.26503,0.28588 0.3518,0.48633 0.0868,0.20112 0.12982,0.44664 0.12982,0.73723 0,0.27848 -0.043,0.5166 -0.12982,0.71436 -0.0868,0.19709 -0.20381,0.36189 -0.3518,0.49171 -0.14866,0.12915 -0.32019,0.22332 -0.51458,0.28252 -0.1944,0.0585 -0.40024,0.0881 -0.61683,0.0881 -0.2287,0 -0.44328,-0.0296 -0.64373,-0.0881 -0.20113,-0.0592 -0.37602,-0.15337 -0.524,-0.28252 -0.149,-0.13 -0.264,-0.295 -0.348,-0.492 -0.083,-0.197 -0.125,-0.436 -0.125,-0.714 m 0.30606,-3.1709 v -0.68544 c 0,-0.31548 0.0323,-0.60136 0.0975,-0.85764 0.0645,-0.25695 0.16346,-0.50045 0.29664,-0.73252 0.13251,-0.23139 0.30404,-0.4574 0.51391,-0.67669 0.21054,-0.21929 0.46413,-0.44665 0.76077,-0.6814 0.25965,-0.20382 0.47894,-0.38611 0.65786,-0.54754 0.1796,-0.1601 0.32422,-0.31952 0.43589,-0.47759 0.11098,-0.1574 0.1917,-0.3222 0.2408,-0.49508 0.0498,-0.17354 0.0747,-0.37467 0.0747,-0.6027 0,-0.35247 -0.11973,-0.64373 -0.35719,-0.87176 -0.23812,-0.2287 -0.60135,-0.34305 -1.0897,-0.34305 -0.4258,0 -0.88522,0.0895 -1.3769,0.26839 -0.49037,0.17959 -0.99957,0.39888 -1.5249,0.65853 l -0.944,-2.049 c 0.26503,-0.15471 0.55427,-0.30135 0.86638,-0.43991 0.31279,-0.13924 0.63701,-0.26301 0.97334,-0.37131 0.337,-0.10762 0.67871,-0.19305 1.0244,-0.25494 0.34642,-0.0619 0.68611,-0.0928 1.0204,-0.0928 0.63028,0 1.1987,0.076 1.7052,0.22736 0.50719,0.15134 0.93701,0.37197 1.2888,0.66256 0.35314,0.29059 0.62288,0.64373 0.81122,1.0574 0.18902,0.41435 0.28319,0.88656 0.28319,1.418 0,0.38946 -0.0438,0.73723 -0.12982,1.0433 -0.0861,0.30606 -0.21525,0.59059 -0.38409,0.85292 -0.17085,0.26301 -0.38409,0.5166 -0.64037,0.76011 -0.25628,0.24417 -0.55494,0.50247 -0.89463,0.77422 -0.25965,0.20382 -0.47153,0.38207 -0.63566,0.53342 -0.16346,0.15135 -0.29194,0.2953 -0.38409,0.4305 -0.0928,0.13655 -0.15605,0.27714 -0.19036,0.42243 -0.0337,0.14462 -0.0511,0.31615 -0.0511,0.51391 v 0.55629 h -2.4471 z"/>
 <path style="opacity:0.2" d="M 47.98,35.406 A 12,12 0 0 1 36,47 12,12 0 0 1 24.02,35.594 12,12 0 0 0 24,36 12,12 0 0 0 36,48 12,12 0 0 0 48,36 12,12 0 0 0 47.98,35.406 Z"/>
</svg>
