<svg xmlns="http://www.w3.org/2000/svg" height="48" width="48" version="1.1">
 <rect style="opacity:.2" rx="7" ry="7" height="40" width="40" y="5" x="4"/>
 <rect style="fill:#b2bfd9" rx="7" ry="7" height="40" width="40" y="4" x="4"/>
 <path style="opacity:.2" d="m33.982422 15a1.50015 1.50015 0 0 0 -1.076172 0.474609l-7.5 8a1.50015 1.50015 0 1 0 2.1875 2.050782l6.326172-6.746094 5.416016 6.666015a1.50015 1.50015 0 1 0 2.328124 -1.890624l-6.5-8a1.50015 1.50015 0 0 0 -1.18164 -0.554688zm-20.125 0.002a1.50015 1.50015 0 0 0 -1.201172 0.527344l-6.7988281 8a1.50015 1.50015 0 1 0 2.2851562 1.941406l5.6894529-6.693359 6.052735 6.726562a1.5005246 1.5005246 0 1 0 2.230468 -2.007812l-7.201172-8a1.50015 1.50015 0 0 0 -1.05664 -0.494141zm-3.371094 15.984375a1.50015 1.50015 0 0 0 -0.8183592 2.761719s0.8226662 0.549029 1.9121092 1.09375c1.089443 0.544674 2.419922 1.158156 3.919922 1.158156 3.166667 0 5.472083-0.529976 7.011719-1.089844 0.979182-0.356066 1.152672-0.540123 1.542969-0.787109 0.945609 0.466976 4.033551 1.876953 9.445312 1.876953 1.5 0 2.704024-0.666615 3.582031-1.251953 0.878008-0.585339 1.478516-1.1875 1.478516-1.1875a1.50015 1.50015 0 0 0 -1.089844 -2.574219 1.50015 1.50015 0 0 0 -1.03125 0.453125s-0.399492 0.397839-1.021484 0.8125c-0.621993 0.414662-1.417969 0.748047-1.917969 0.748047-5.666667 0-8.755859-1.802734-8.755859-1.802734a1.50015 1.50015 0 0 0 -1.681641 0.130859s-0.363854 0.321586-1.574219 0.761719c-1.210364 0.440132-3.154948 0.910156-5.988281 0.910156-0.5 0-1.669521-0.386518-2.580078-0.841797s-1.587891-0.90625-1.587891-0.90625a1.50015 1.50015 0 0 0 -0.845703 -0.265625z"/>
 <path d="m7 23.5 6.8-8 7.2 8" style="stroke-linejoin:round;stroke:#32b7ff;stroke-linecap:round;stroke-width:3;fill:none"/>
 <path d="m40.5 23.5-6.5-8-7.5 8" style="stroke-linejoin:round;stroke:#32b7ff;stroke-linecap:round;stroke-width:3;fill:none"/>
 <path d="m10.5 31.5s3 2 5 2c6 0 8.5-2 8.5-2s3.5 2 9.5 2c2 0 4-2 4-2" style="stroke-linejoin:round;stroke:#32b7ff;stroke-linecap:round;stroke-width:3;fill:none"/>
 <path style="opacity:.2;fill:#f4f4f7" d="m11 4c-3.878 0-7 3.122-7 7v1c0-3.878 3.122-7 7-7h26c3.878 0 7 3.122 7 7v-1c0-3.878-3.122-7-7-7h-26z"/>
</svg>
