<svg xmlns="http://www.w3.org/2000/svg" height="48" width="48" version="1.1">
 <g transform="matrix(2,0,0,2,2,2)">
  <rect style="opacity:.2" ry="6" height="20" width="20" y="1.5" x="1"/>
  <rect style="fill:#80cb1e" ry="6" height="20" width="20" y="1" x="1"/>
  <path style="opacity:.1" d="m9 7.5v1.5s0 1.5 2 1.5 2-1.5 2-1.5v-1.5z"/>
  <path style="opacity:.1" d="m7 7.5c-1.0832239 0-2.1063044 0.1082747-2.9082031 0.8085938s-1.0917969 1.8043122-1.0917969 3.1855472v4.005859a1 1 0 1 0 2 0l-0.00195-4.005859c0-1.114281 0.2099822-1.5065763 0.4082031-1.6796879 0.1982178-0.1731115 0.6767315-0.3164062 1.5937469-0.3164062h8c0.875463 0 1.335222 0.1685707 1.568359 0.3867188 0.233138 0.2181483 0.433594 0.6347003 0.433594 1.6093753l-0.001953 4.005859a1 1 0 1 0 2 0v-4.005859c0-1.27129-0.299424-2.3506893-1.066406-3.0683597-0.766983-0.7176705-1.808818-0.9257813-2.933594-0.9257813z"/>
  <path style="fill:#4f4f4f" d="m7 7.0000001c-1.0832239 0-2.1063044 0.1082747-2.9082031 0.8085938s-1.0917969 1.8043118-1.0917969 3.1855471v4.005859a1 1 0 1 0 2 0l-0.00195-4.005859c0-1.1142812 0.2099822-1.5065762 0.4082031-1.6796878 0.1982178-0.1731115 0.6767315-0.3164062 1.5937469-0.3164062h8c0.875463 0 1.335222 0.1685707 1.568359 0.3867188 0.233138 0.218148 0.433594 0.6347002 0.433594 1.6093752l-0.001953 4.005859a1 1 0 1 0 2 0v-4.005859c0-1.2712903-0.299424-2.3506892-1.066406-3.0683596-0.766983-0.7176705-1.808818-0.9257813-2.933594-0.9257813z"/>
  <path style="fill:#4f4f4f" d="m9 7v1.5s0 1.5 2 1.5 2-1.5 2-1.5v-1.5z"/>
  <circle r="1" style="opacity:.1" cx="7" cy="12.5"/>
  <circle r="1" style="fill:#4f4f4f" cx="7" cy="12"/>
  <circle r="1" style="opacity:.1" cx="15" cy="12.5"/>
  <circle r="1" style="fill:#4f4f4f" cx="15" cy="12"/>
  <circle r="1" style="opacity:.1" cx="9.5" cy="12.5"/>
  <circle r="1" style="fill:#4f4f4f" cx="9.5" cy="12"/>
  <circle r="1" style="opacity:.1" cx="12.5" cy="12.5"/>
  <circle r="1" style="fill:#4f4f4f" cx="12.5" cy="12"/>
  <path style="opacity:.2;fill:#f4f4f7" d="m7 1c-3.324 0-6 2.676-6 6v0.5c0-3.324 2.676-6 6-6h8c3.324 0 6 2.676 6 6v-0.5c0-3.324-2.676-6-6-6z"/>
 </g>
</svg>
