<svg xmlns="http://www.w3.org/2000/svg" width="48" height="48" version="1.1">
 <circle style="opacity:.2" cx="24" cy="25" r="20"/>
 <circle style="fill:#bfee00" cx="24" cy="24" r="20"/>
 <path style="fill:#f4f4f7;opacity:.2" d="M 24,4 A 20,20 0 0 0 4,24 20,20 0 0 0 4.0215,24.582 20,20 0 0 1 24,5 20,20 0 0 1 43.979,24.418 20,20 0 0 0 44,24 20,20 0 0 0 24,4 Z"/>
 <path style="opacity:.2" d="m18 9c-4 0-6 2-6 2l1 1s2-2 5-2 5 2 5 2l1-1s-2-2-6-2zm0 3c-1.374369 0-4 1-4 1l1 1s1.945907-1 3-1 3 1 3 1l1-1s-2.625631-1-4-1zm0 2-2 5h-11.074219a20 20 0 0 0-0.925781 6 20 20 0 0 0 0.945313 6h16.054687l3 4 3-4h16.074219a20 20 0 0 0 0.925781-6 20 20 0 0 0-0.945312-6h-11.054688l-2-5-2 5h-8z"/>
 <path style="fill:#162d50" d="m18 8c-4 0-6 2-6 2l1 1s2-2 5-2 5 2 5 2l1-1s-2-2-6-2zm0 3c-1.374369 0-4 1-4 1l1 1s1.945907-1 3-1 3 1 3 1l1-1s-2.625631-1-4-1zm0 2-2 5h-11.074219a20 20 0 0 0-0.9257812 6 20 20 0 0 0 0.9453125 6h16.054688l3 4 3-4h16.074219a20 20 0 0 0 0.925781-6 20 20 0 0 0-0.945312-6h-11.054688l-2-5-2 5h-8l-2-5z"/>
 <path style="opacity:.2" d="m19 24v4h2v-4zm8 0v4h2v-4z"/>
 <path style="fill:#ffaaee" d="m19 23v4h2v-4h-2zm8 0v4h2v-4h-2z"/>
</svg>
