<svg xmlns="http://www.w3.org/2000/svg" width="48" height="48" version="1">
 <path opacity=".2" d="m6 45c-1.108 0-2-0.892-2-2v-1c0 1.108 0.892 2 2 2h36c1.108 0 2-0.892 2-2v1c0 1.108-0.892 2-2 2h-36z"/>
 <rect fill="#c2352a" width="40" height="40" x="4" y="4" rx="2" ry="2"/>
 <path fill="#fff" style="opacity:0.1" d="m6 4c-1.108 0-2 0.892-2 2v1c0-1.108 0.892-2 2-2h36c1.108 0 2 0.892 2 2v-1c0-1.108-0.892-2-2-2h-36z"/>
 <path style="opacity:0.2" d="m24.175 16.001c-3.0379 0-7.5204 0.18399-8.8639 0.22699-1.4605 0.12899-1.9993 0.20299-2.796 0.87495-1.2266 1.0659-1.5155 3.1598-1.5155 6.3666v3.0508c0 3.6558 0.49183 5.5157 1.3125 6.1946 0.93767 0.79295 1.5585 0.85495 2.1792 0.94894 0.24192 0.035 1.9603 0.33598 9.5706 0.33598 4.7443 0 8.8209-0.22299 9.2428-0.27298 0.67976-0.08599 1.6444-0.20699 2.3902-1.0119 1.0896-1.2189 1.3045-3.2418 1.3045-6.1756v-3.5508c0-1.8979-0.10496-4.5777-1.3045-5.7027-0.90968-0.75796-1.2416-0.96894-3.1199-1.0629-0.53081-0.023-5.1622-0.22299-8.3991-0.22299m-3.1764 4.9997 6.9999 3.9998-6.9999 4.0005"/>
 <path style="fill:#f9f9f9" d="m24.175 15.001c-3.0379 0-7.5204 0.18399-8.8639 0.22699-1.4605 0.12899-1.9993 0.20299-2.796 0.87495-1.2266 1.0659-1.5155 3.1598-1.5155 6.3666v3.0508c0 3.6558 0.49183 5.5157 1.3125 6.1946 0.93767 0.79295 1.5585 0.85495 2.1792 0.94894 0.24192 0.035 1.9603 0.33598 9.5706 0.33598 4.7443 0 8.8209-0.22299 9.2428-0.27298 0.67976-0.08599 1.6444-0.20699 2.3902-1.0119 1.0896-1.2189 1.3045-3.2418 1.3045-6.1756v-3.5508c0-1.8979-0.10496-4.5777-1.3045-5.7027-0.90968-0.75795-1.2416-0.96894-3.1199-1.0629-0.53081-0.023-5.1622-0.22299-8.3991-0.22299m-3.1764 4.9997 6.9999 3.9998-6.9999 4.0005"/>
 <g>
  <circle style="opacity:0.2" cx="36" cy="37" r="11"/>
  <circle style="fill:#03a9f4" cx="36" cy="36" r="11"/>
  <path style="fill:#f4f4f7" d="m 38,30 5,5 h -2 l -3,3 c 2,2 0,3 0,3 L 35.5,38.5 32,42 H 31 V 41 L 34.5,37.5 32,35 c 0,0 1,-2 3,0 l 3,-3 z"/>
 </g>
</svg>
