<svg xmlns="http://www.w3.org/2000/svg" width="48" height="48" version="1">
 <rect style="opacity:0.2" width="12" height="12" x="-46" y="-19" rx="6" ry="6" transform="matrix(0,-1,-1,0,0,0)"/>
 <ellipse style="opacity:0.2" cx="10.168" cy="32.755" rx="19.833" ry="14.82" transform="matrix(0.84603999,-0.53311944,0.43955441,0.89821596,0,0)"/>
 <ellipse style="fill:#6e6e6e" cx="10.61" cy="31.904" rx="19.833" ry="14.82" transform="matrix(0.84603999,-0.53311944,0.43955441,0.89821596,0,0)"/>
 <rect style="opacity:0.2" width="12" height="12" x="-28" y="-14" rx="6" ry="6" transform="matrix(0,-1,-1,0,0,0)"/>
 <path style="opacity:0.1;fill:#f4f4f7" d="M 28.828125,6.0078125 A 14.632778,19.972025 50.459792 0 0 16.486328,9.6875 14.632778,19.972025 50.459792 0 0 5.0253906,28.34375 14.632778,19.972025 50.459792 0 1 16.486328,10.6875 14.632778,19.972025 50.459792 0 1 39.779297,13.425781 14.632778,19.972025 50.459792 0 1 40.974609,18.65625 14.632778,19.972025 50.459792 0 0 39.779297,12.425781 14.632778,19.972025 50.459792 0 0 28.828125,6.0078125 Z"/>
 <rect style="opacity:0.2" width="12" height="12" x="-16" y="-29" rx="6" ry="6" transform="matrix(0,-1,-1,0,0,0)"/>
 <rect style="fill:#3e3e3e" width="12" height="12" x="-15" y="-29" rx="6" ry="6" transform="matrix(0,-1,-1,0,0,0)"/>
 <rect style="opacity:0.2" width="8" height="8" x="-14" y="-27" rx="4" ry="4" transform="matrix(0,-1,-1,0,0,0)"/>
 <rect style="fill:#6666ff" width="8" height="8" x="-13" y="-27" rx="4" ry="4" transform="matrix(0,-1,-1,0,0,0)"/>
 <rect style="opacity:0.2" width="12" height="12" x="-26" y="-46" rx="6" ry="6" transform="matrix(0,-1,-1,0,0,0)"/>
 <rect style="fill:#3e3e3e" width="12" height="12" x="-25" y="-46" rx="6" ry="6" transform="matrix(0,-1,-1,0,0,0)"/>
 <rect style="opacity:0.2" width="8" height="8" x="-24" y="-44" rx="4" ry="4" transform="matrix(0,-1,-1,0,0,0)"/>
 <rect style="fill:#6666ff" width="8" height="8" x="-23" y="-44" rx="4" ry="4" transform="matrix(0,-1,-1,0,0,0)"/>
 <rect style="opacity:0.2" width="12" height="12" x="-42" y="-37" rx="6" ry="6" transform="matrix(0,-1,-1,0,0,0)"/>
 <rect style="fill:#3e3e3e" width="12" height="12" x="-41" y="-37" rx="6" ry="6" transform="matrix(0,-1,-1,0,0,0)"/>
 <rect style="opacity:0.2" width="8" height="8" x="-40" y="-35" rx="4" ry="4" transform="matrix(0,-1,-1,0,0,0)"/>
 <rect style="fill:#6666ff" width="8" height="8" x="-39" y="-35" rx="4" ry="4" transform="matrix(0,-1,-1,0,0,0)"/>
 <rect style="fill:#3e3e3e" width="12" height="12" x="-45" y="-19" rx="6" ry="6" transform="matrix(0,-1,-1,0,0,0)"/>
 <rect style="opacity:0.2" width="8" height="8" x="-44" y="-17" rx="4" ry="4" transform="matrix(0,-1,-1,0,0,0)"/>
 <rect style="fill:#6666ff" width="8" height="8" x="-43" y="-17" rx="4" ry="4" transform="matrix(0,-1,-1,0,0,0)"/>
 <rect style="fill:#3e3e3e" width="12" height="12" x="-27" y="-14" rx="6" ry="6" transform="matrix(0,-1,-1,0,0,0)"/>
 <rect style="opacity:0.2" width="8" height="8" x="-26" y="-12" rx="4" ry="4" transform="matrix(0,-1,-1,0,0,0)"/>
 <rect style="fill:#6666ff" width="8" height="8" x="-25" y="-12" rx="4" ry="4" transform="matrix(0,-1,-1,0,0,0)"/>
</svg>
