<svg xmlns="http://www.w3.org/2000/svg" width="48" height="48" version="1">
 <rect fill="#0286c2" width="40" height="40" x="4" y="4" rx="20" ry="20"/>
 <path style="opacity:0.2" d="M 22.785715,5.039174 C 21.103661,5.1390772 19.48061,5.446487 17.93856,5.9337026 14.961465,14.444374 11.97137,23.776272 9.0002752,32.008534 c 0.2159869,0.06353 0.4291237,0.03739 0.6523608,0.04102 1.229639,-0.0073 2.464079,0.0036 3.697418,0 0.166985,0 0.146025,-0.241488 0.216807,-0.347671 1.481947,-4.182634 2.987495,-8.343867 4.476743,-12.5234 0.08893,-0.258638 0.187626,-0.535477 0.304699,-0.783225 0.773185,0.01452 1.535249,-0.01089 2.304774,0 -1.616252,4.533845 -3.226903,9.09439 -4.871255,13.613434 0.173335,0.06716 0.344811,0.03739 0.525406,0.04102 1.290441,-0.01089 2.576883,0.01815 3.867324,0 1.460146,-4.119132 2.969294,-8.230863 4.437641,-12.350394 0.31218,-0.840347 0.356652,-1.917361 -0.175785,-2.607483 C 23.306372,15.626988 20.797392,15.38268 19.17454,15.322278 20.357978,11.970571 21.585317,8.4645593 22.785955,5.03895 Z m 5.867387,10.881347 c -0.03146,0.06797 -0.05241,0.235988 -0.08398,0.30274 -3.045297,8.543372 -6.627311,18.296583 -9.787412,27.070863 1.114336,0.29893 2.259972,0.521747 3.44351,0.62502 1.412945,-3.682717 3.182602,-7.793948 4.425941,-11.258359 1.612652,-0.03176 3.215903,-0.01512 4.832154,-0.04687 1.024533,-0.03539 2.571882,-0.651291 2.912193,-1.650453 1.361244,-3.832322 2.722587,-7.629243 4.041129,-11.479366 0.215987,-0.581709 0.348071,-1.219839 0.173836,-1.824258 -0.230508,-0.773185 -0.93475,-1.360444 -1.693454,-1.56645 -0.659751,-0.206007 -1.323042,-0.116344 -2.000064,-0.130865 -2.069966,-0.0036 -4.193834,-0.02119 -6.2639,-0.04297 z m 3.892724,2.427778 c 0.06556,0.0071 0.131344,0.0169 0.195317,0.0078 0.598949,0.01089 1.187937,-0.01452 1.783256,0 -1.389344,3.966626 -2.803489,7.935953 -4.172033,11.91438 -0.775904,0.05354 -1.57485,0.0036 -2.351675,0 1.414745,-3.942126 2.80859,-7.882952 4.218935,-11.832378 0.03176,-0.03539 0.08821,-0.07504 0.130864,-0.08594 v 0.0039 c 0.06398,-0.01951 0.129754,-0.01497 0.195316,-0.0078 z"/>
 <path style="fill:#f4f4f7" d="M 22.785715,4.0392463 C 21.103661,4.1391495 19.48061,4.4465593 17.93856,4.9337749 14.961465,13.444446 11.97137,22.776344 9.0002752,31.008607 c 0.2159869,0.06353 0.4291237,0.03739 0.6523608,0.04102 1.229639,-0.0073 2.464079,0.0036 3.697418,0 0.166985,0 0.146025,-0.241488 0.216807,-0.347671 1.481947,-4.182634 2.987495,-8.343866 4.476743,-12.5234 0.08893,-0.258638 0.187626,-0.535477 0.304699,-0.783225 0.773185,0.01452 1.535249,-0.01089 2.304774,0 -1.616252,4.533845 -3.226903,9.09439 -4.871255,13.613435 0.173335,0.06716 0.344811,0.03739 0.525406,0.04102 1.290441,-0.01089 2.576883,0.01815 3.867324,0 1.460146,-4.119131 2.969294,-8.230863 4.437641,-12.350394 0.31218,-0.840347 0.356652,-1.917361 -0.175785,-2.607483 -1.130036,-1.464847 -3.639016,-1.709155 -5.261868,-1.769557 1.183438,-3.351707 2.410777,-6.8577184 3.611415,-10.2833277 z m 5.867387,10.8813467 c -0.03146,0.06797 -0.05241,0.235988 -0.08398,0.30274 -3.1478,8.831182 -6.884419,18.989606 -10.119322,27.986893 1.099135,0.31519 2.231371,0.551867 3.400508,0.675801 1.457647,-3.908424 3.44991,-8.460469 4.800953,-12.22539 1.612652,-0.03176 3.215903,-0.01511 4.832154,-0.04687 1.024533,-0.03539 2.571882,-0.651291 2.912193,-1.650453 1.361244,-3.832322 2.722587,-7.629243 4.041129,-11.479366 0.215987,-0.581708 0.348071,-1.219839 0.173836,-1.824258 -0.230508,-0.773185 -0.93475,-1.360443 -1.693454,-1.56645 -0.659751,-0.206007 -1.323042,-0.116344 -2.000064,-0.130864 -2.069966,-0.0036 -4.193834,-0.02119 -6.2639,-0.04297 z m 3.892724,2.427778 c 0.06556,0.0071 0.131344,0.01689 0.195317,0.0078 0.598949,0.01089 1.187937,-0.01452 1.783256,0 -1.389344,3.966627 -2.803489,7.935953 -4.172033,11.91438 -0.775904,0.05354 -1.57485,0.0036 -2.351675,0 1.414745,-3.942126 2.80859,-7.882951 4.218935,-11.832377 0.03176,-0.03539 0.08821,-0.07504 0.130864,-0.08594 v 0.0039 c 0.06398,-0.01951 0.129754,-0.01496 0.195316,-0.0078 z"/>
 <path fill="#fff" opacity=".2" d="m24 4c-11.079 0-19.998 8.92-19.998 20 0 0.16772-0.004 0.33329 0 0.5 0.2642-10.846 9.087-19.5 19.998-19.5s19.734 8.6536 19.998 19.5c0.004-0.16671 0-0.33228 0-0.5 0-11.08-8.919-20-19.998-20z"/>
 <path opacity=".2" d="m4.0117 24.5c-0.0041 0.167-0.0117 0.332-0.0117 0.5 0 11.08 8.92 20 20 20s20-8.92 20-20c0-0.168-0.008-0.333-0.012-0.5-0.264 10.846-9.076 19.5-19.988 19.5s-19.724-8.654-19.988-19.5z"/>
</svg>
