<svg xmlns="http://www.w3.org/2000/svg" width="48" height="48" version="1.1">
 <path opacity=".2" d="m4.0215 24.418a20 20 0 0 0 -0.0215 0.582 20 20 0 0 0 20 20 20 20 0 0 0 20 -20 20 20 0 0 0 -0.021 -0.418 20 20 0 0 1 -19.979 19.418 20 20 0 0 1 -19.978 -19.582z"/>
 <path fill="#248afd" d="m24 4a20 20 0 0 0 -20 20 20 20 0 0 0 20 20 20 20 0 0 0 20 -20 20 20 0 0 0 -20 -20z"/>
 <path fill="#f4f4f7" opacity=".2" d="m24 4a20 20 0 0 0 -20 20 20 20 0 0 0 0.0215 0.418 20 20 0 0 1 19.978 -19.418 20 20 0 0 1 19.979 19.582 20 20 0 0 0 0.021 -0.582 20 20 0 0 0 -20 -20z"/>
 <path style="opacity:.2" d="m24 8a17 17 0 0 0 -17 17 17 17 0 0 0 17 17 17 17 0 0 0 17 -17 17 17 0 0 0 -17 -17zm0 1a16 16 0 0 1 11.601562 4.994141c-0.433606 0.003908-0.866648 0.005859-0.902343 0.005859-1.586422 0-2.712891 1.35493-2.712891 2.839844 0 1.330612 0.769012 2.05806 1.587891 3.388672 0.615081 1.076109 1.332031 2.458698 1.332031 4.455078 0 1.382867-0.530132 2.98837-1.228516 5.222656l-1.613281 5.384766-5.837891-17.265625c0.971957-0.05102 2.248047-0.05469 2.248047-0.05469 0.870212-0.102968 0.76988-2.082581-0.101562-2.03125 0 0-3.017633 0.205078-4.707031 0.205078-1.587346 0-4.955079-0.205078-4.955078-0.205078-0.87052-0.05133-0.972083 1.980234-0.101563 2.03125 0 0 1.524627 0.0037 2.394531 0.05469l2.517578 6.794921-3.537109 10.603516-5.880859-17.298828c0.973802-0.05102 2.349609-0.152344 2.349609-0.152344 0.869905-0.10297 0.767312-1.982971-0.103516-1.93164 0 0-3.116934 0.205078-4.80664 0.205078-0.265756 0.000001-0.583438-0.0084-0.910157-0.01758a16 16 0 0 1 13.367188 -7.228514zm13.966797 8.232422a16 16 0 0 1 2.033203 7.767578 16 16 0 0 1 -7.578125 13.589844l4.634766-13.392578c0.922162-2.30406 0.927734-4.147894 0.927734-5.78711-0.0507-0.724488-0.01842-1.45144-0.01758-2.177734zm-28.453125 1.019531c-0.1300128 0.320426-0.2675781 0.673828-0.2675781 0.673828l7.3964842 20.265625c0.479614 0.248473 0.971037 0.471426 1.472656 0.669922s1.013434 0.372536 1.533204 0.519531l4.636718-13.470703 4.828125 13.228516c0.569775-0.190977 1.128045-0.414621 1.671875-0.667969a16 16 0 0 1 -1.671875 0.667969 16 16 0 0 1 -5.113281 0.861328 16 16 0 0 1 -4.351562 -0.619141 16 16 0 0 1 -1.533204 -0.519531 16 16 0 0 1 -1.472656 -0.669922 16 16 0 0 1 -8.642578 -14.191406 16 16 0 0 1 1.5136719 -6.748047zm22.109375 20.796875a16 16 0 0 1 -0.804688 0.40625c0.272156-0.127547 0.540043-0.263516 0.804688-0.40625z"/>
 <path style="fill:#f4f4f7" d="m36.51 12.986328c-0.06978-0.004-1.739159 0.013672-1.810781 0.013672-1.586422 0-2.712891 1.354932-2.712891 2.839846 0 1.330612 0.769012 2.05806 1.587891 3.388672 0.615081 1.076109 1.332031 2.458698 1.332031 4.455078 0 1.382867-0.530132 2.98837-1.228516 5.222656l-1.613281 5.384766-5.837891-17.265625c0.971957-0.05102 2.248047-0.05469 2.248047-0.05469 0.870212-0.102968 0.76988-2.082581-0.101562-2.03125 0 0-3.017633 0.205078-4.707031 0.205078-1.587346 0-4.955078-0.205078-4.955078-0.205078-0.87052-0.05133-0.972083 1.980234-0.101563 2.03125 0 0 1.524627 0.0037 2.394531 0.05469l2.517578 6.794919-3.537109 10.603516-5.880859-17.298828c0.973802-0.05102 2.349609-0.152344 2.349609-0.152344 0.869905-0.10297 0.767312-1.982971-0.103516-1.93164 0 0-3.116934 0.205078-4.80664 0.205078-0.265756 0.000001-0.583438-0.0084-0.910157-0.01758-0.8748224 1.142899-1.3867182 2.697265-1.3867182 2.697265l7.3964842 20.265625c0.959228 0.496945 1.96632 0.895462 3.00586 1.189453l4.636718-13.470703 4.828125 13.228516c1.15838-0.388265 2.268479-0.907927 3.308594-1.548828l4.634766-13.392578c0.922162-2.30406 0.928046-4.147894 0.928046-5.78711-0.05688-0.812777-0.0051-1.628147-0.01569-2.442842z"/>
 <path style="fill:#f4f4f7" d="m24 7a17 17 0 0 0 -17 17 17 17 0 0 0 17 17 17 17 0 0 0 17 -17 17 17 0 0 0 -17 -17zm0 1a16 16 0 0 1 16 16 16 16 0 0 1 -16 16 16 16 0 0 1 -16 -16 16 16 0 0 1 16 -16z"/>
</svg>
