<svg xmlns="http://www.w3.org/2000/svg" width="48" height="48" version="1">
 <path fill="#fe9700" d="m24 3-19.09 14.324c-0.0411 0.0267-0.0783 0.0583-0.11719 0.0879l-0.0234 0.0176v0.002c-0.4654 0.365-0.7694 0.927-0.7694 1.568v8c0 1.108 0.892 2 2 2h36c1.108 0 2-0.892 2-2v-8c0-0.65501-0.31697-1.2294-0.80078-1.5938l0.008-0.0117z"/>
 <path fill="#fff" opacity=".1" d="m24 3-19.09 14.324c-0.0411 0.0267-0.0783 0.0583-0.11719 0.0879l-0.0234 0.0176v0.002c-0.4654 0.365-0.7694 0.927-0.7694 1.568v1c0-0.64051 0.30392-1.2029 0.76953-1.5684v-0.002l0.0234-0.0176c0.0389-0.0296 0.0761-0.0612 0.11719-0.0879l19.09-14.324 19.207 14.395-0.008 0.0117c0.484 0.364 0.801 0.938 0.801 1.593v-1c0-0.65501-0.31697-1.2294-0.80078-1.5938l0.008-0.0117-19.207-14.394z"/>
 <path style="fill:#4f4f4f" d="M 10 7 C 8.892 7 8 7.892 8 9 L 8 43 L 40 43 L 40 9 C 40 7.892 39.108 7 38 7 L 10 7 z"/>
 <path style="opacity:0.5;fill:#f4f4f7" d="M 11.5,12 A 0.50005,0.50005 0 0 0 11,12.5 v 5 a 0.50005,0.50005 0 0 0 0.5,0.5 h 3 A 0.50005,0.50005 0 0 0 15,17.5 v -5 A 0.50005,0.50005 0 0 0 14.5,12 Z m 0.5,1 h 2 v 4 h -2 z"/>
 <path style="opacity:0.5;fill:#f4f4f7;fill-rule:evenodd" d="m 18.492,12.0001 a 0.50005,0.4988 0 0 0 -0.49219,0.50655 v 4.9875 a 0.50005,0.4988 0 1 0 1,0 v -4.9875 a 0.50005,0.4988 0 0 0 -0.508,-0.5064 z"/>
 <path style="opacity:0.5;fill:#f4f4f7;fill-rule:evenodd" d="m 22.492,12.0001 a 0.50005,0.4988 0 0 0 -0.49219,0.50655 v 4.9875 a 0.50005,0.4988 0 1 0 1,0 v -4.9875 a 0.50005,0.4988 0 0 0 -0.508,-0.5064 z"/>
 <path style="opacity:0.5;fill:#f4f4f7" d="M 26.5,12 A 0.50005,0.50005 0 0 0 26,12.5 v 5 a 0.50005,0.50005 0 0 0 0.5,0.5 h 3 A 0.50005,0.50005 0 0 0 30,17.5 v -5 A 0.50005,0.50005 0 0 0 29.5,12 Z m 0.5,1 h 2 v 4 h -2 z"/>
 <path style="opacity:0.5;fill:#f4f4f7" d="M 33.5,12 A 0.50005,0.50005 0 0 0 33,12.5 v 5 a 0.50005,0.50005 0 0 0 0.5,0.5 h 3 A 0.50005,0.50005 0 0 0 37,17.5 v -5 A 0.50005,0.50005 0 0 0 36.5,12 Z m 0.5,1 h 2 v 4 h -2 z"/>
 <path style="opacity:0.5;fill:#f4f4f7" d="m 36.5,21 a 0.50005,0.50005 0 0 1 0.5,0.5 v 5 A 0.50005,0.50005 0 0 1 36.5,27 h -3 A 0.50005,0.50005 0 0 1 33,26.5 v -5 A 0.50005,0.50005 0 0 1 33.5,21 Z M 36,22 h -2 v 4 h 2 z"/>
 <path style="opacity:0.5;fill:#f4f4f7;fill-rule:evenodd" d="m 29.508,21 a 0.50005,0.4988 0 0 1 0.49219,0.50655 v 4.9875 a 0.50005,0.4988 0 1 1 -1,0 v -4.9875 a 0.50005,0.4988 0 0 1 0.508,-0.506 z"/>
 <path style="opacity:0.5;fill:#f4f4f7;fill-rule:evenodd" d="m 25.508,21 a 0.50005,0.4988 0 0 1 0.49219,0.50655 v 4.9875 a 0.50005,0.4988 0 1 1 -1,0 v -4.9875 a 0.50005,0.4988 0 0 1 0.508,-0.506 z"/>
 <path style="opacity:0.5;fill:#f4f4f7" d="m 21.5,21 a 0.50005,0.50005 0 0 1 0.5,0.5 v 5 A 0.50005,0.50005 0 0 1 21.5,27 h -3 A 0.50005,0.50005 0 0 1 18,26.5 v -5 A 0.50005,0.50005 0 0 1 18.5,21 Z M 21,22 h -2 v 4 h 2 z"/>
 <path style="opacity:0.5;fill:#f4f4f7;fill-rule:evenodd" d="m 13.508,21 a 0.50005,0.4988 0 0 1 0.49219,0.50655 v 4.9875 a 0.50005,0.4988 0 1 1 -1,0 v -4.9875 a 0.50005,0.4988 0 0 1 0.508,-0.506 z"/>
 <path style="opacity:0.5;fill:#f4f4f7" d="m 36.5,29 a 0.50005,0.50005 0 0 1 0.5,0.5 v 5 A 0.50005,0.50005 0 0 1 36.5,35 h -3 A 0.50005,0.50005 0 0 1 33,34.5 v -5 A 0.50005,0.50005 0 0 1 33.5,29 Z M 36,30 h -2 v 4 h 2 z"/>
 <path style="opacity:0.5;fill:#f4f4f7;fill-rule:evenodd" d="m 29.508,29 a 0.50005,0.4988 0 0 1 0.49219,0.50655 v 4.9875 a 0.50005,0.4988 0 1 1 -1,0 v -4.9875 a 0.50005,0.4988 0 0 1 0.508,-0.5064 z"/>
 <path style="opacity:0.5;fill:#f4f4f7;fill-rule:evenodd" d="m 25.508,29 a 0.50005,0.4988 0 0 1 0.49219,0.50655 v 4.9875 a 0.50005,0.4988 0 1 1 -1,0 v -4.9875 a 0.50005,0.4988 0 0 1 0.508,-0.5064 z"/>
 <path style="opacity:0.5;fill:#f4f4f7" d="m 21.5,29 a 0.50005,0.50005 0 0 1 0.5,0.5 v 5 A 0.50005,0.50005 0 0 1 21.5,35 h -3 A 0.50005,0.50005 0 0 1 18,34.5 v -5 A 0.50005,0.50005 0 0 1 18.5,29 Z M 21,30 h -2 v 4 h 2 z"/>
 <path style="opacity:0.5;fill:#f4f4f7" d="m 14.5,29 a 0.50005,0.50005 0 0 1 0.5,0.5 v 5 A 0.50005,0.50005 0 0 1 14.5,35 h -3 A 0.50005,0.50005 0 0 1 11,34.5 v -5 A 0.50005,0.50005 0 0 1 11.5,29 Z M 14,30 h -2 v 4 h 2 z"/>
 <path style="opacity:0.5;fill:#f4f4f7" d="M 11.5,38 A 0.50005,0.50005 0 0 0 11,38.5 v 5 a 0.50005,0.50005 0 0 0 0.5,0.5 h 3 A 0.50005,0.50005 0 0 0 15,43.5 v -5 A 0.50005,0.50005 0 0 0 14.5,38 Z m 0.5,1 h 2 v 4 h -2 z"/>
 <path style="opacity:0.5;fill:#f4f4f7;fill-rule:evenodd" d="m 18.492,38 a 0.50005,0.4988 0 0 0 -0.49219,0.50655 v 4.9875 a 0.50005,0.4988 0 1 0 1,0 v -4.9875 a 0.50005,0.4988 0 0 0 -0.508,-0.506 z"/>
 <path style="opacity:0.5;fill:#f4f4f7;fill-rule:evenodd" d="m 22.492,38 a 0.50005,0.4988 0 0 0 -0.49219,0.50655 v 4.9875 a 0.50005,0.4988 0 1 0 1,0 v -4.9875 a 0.50005,0.4988 0 0 0 -0.508,-0.506 z"/>
 <path style="opacity:0.5;fill:#f4f4f7" d="M 26.5,38 A 0.50005,0.50005 0 0 0 26,38.5 v 5 a 0.50005,0.50005 0 0 0 0.5,0.5 h 3 A 0.50005,0.50005 0 0 0 30,43.5 v -5 A 0.50005,0.50005 0 0 0 29.5,38 Z m 0.5,1 h 2 v 4 h -2 z"/>
 <path style="opacity:0.5;fill:#f4f4f7;fill-rule:evenodd" d="m 34.492,38 a 0.50005,0.4988 0 0 0 -0.49219,0.50655 v 4.9875 a 0.50005,0.4988 0 1 0 1,0 v -4.9875 a 0.50005,0.4988 0 0 0 -0.508,-0.506 z"/>
 <path fill="#fec006" d="m4 19 38 26h-36c-1.108 0-2-0.892-2-2z"/>
 <path style="fill:#fecd38" d="m 40.728246,44.531459 c 1.065303,-0.304621 0.920111,-1.008989 1.531459,-1.933065 L 44,39.967871 V 19 L 6,45 h 33.089692 z"/>
 <path style="opacity:0.2" d="m 4,43 v 1 c 0,1.108 0.892,2 2,2 h 31.951807 l 2.441767,-0.468541 c 1.088148,-0.2088 2.123156,-1.130153 1.531459,-2.066934 L 41,42 c 0,1.108 0.495318,2.61468 -0.606426,2.732262 L 37.884873,45 H 6 C 4.892,45 4,44.108 4,43 Z"/>
 <circle style="opacity:0.2" cx="36" cy="37" r="11"/>
 <circle style="fill:#1aa348" cx="36" cy="36" r="11"/>
 <path style="fill:#f4f4f7" d="M 30,39.327 V 42 h 2.6728 l 6.7507,-6.7507 -2.6728,-2.6728 z m 11.788,-6.4337 c 0.28271,-0.28271 0.28271,-0.72818 0,-1.0109 l -1.6705,-1.6705 c -0.28271,-0.28271 -0.72818,-0.28271 -1.0109,0 l -1.3964,1.405 2.6728,2.6728 z"/>
</svg>
