<svg xmlns="http://www.w3.org/2000/svg" width="48" height="48" version="1">
 <rect style="opacity:0.2" width="26" height="26" x="18" y="19" rx="2" ry="2"/>
 <rect style="fill:#1190e6" width="26" height="26" x="18" y="18" rx="2" ry="2"/>
 <path style="opacity:0.2;fill:#f4f4f7" d="M 20 18 C 18.892 18 18 18.892 18 20 L 18 21 C 18 19.892 18.892 19 20 19 L 42 19 C 43.108 19 44 19.892 44 21 L 44 20 C 44 18.892 43.108 18 42 18 L 20 18 z"/>
 <rect style="opacity:0.2" width="26" height="26" x="11" y="12" rx="2" ry="2"/>
 <rect style="fill:#6eca60" width="26" height="26" x="11" y="11" rx="2" ry="2"/>
 <path style="opacity:0.2;fill:#f4f4f7" d="M 13 11 C 11.892 11 11 11.892 11 13 L 11 14 C 11 12.892 11.892 12 13 12 L 35 12 C 36.108 12 37 12.892 37 14 L 37 13 C 37 11.892 36.108 11 35 11 L 13 11 z"/>
 <rect style="opacity:0.2" width="26" height="26" x="4" y="5" rx="2" ry="2"/>
 <rect style="fill:#ffd748" width="26" height="26" x="4" y="4" rx="2" ry="2"/>
 <path style="opacity:0.2;fill:#f4f4f7" d="M 6 4 C 4.892 4 4 4.892 4 6 L 4 7 C 4 5.892 4.892 5 6 5 L 28 5 C 29.108 5 30 5.892 30 7 L 30 6 C 30 4.892 29.108 4 28 4 L 6 4 z"/>
</svg>
