<svg xmlns="http://www.w3.org/2000/svg" width="48" height="48" version="1.1">
 <path style="opacity:0.2" d="m 18,18.461151 5.572822,5.572823 1.393205,1.393205 L 30.538848,31 l 5.572823,-5.572821 3.344237,-3.344237 2.228584,-2.228585 c 3.087343,-3.087343 3.087343,-8.058301 0,-11.1456445 L 40.291287,7.3155076 c -3.087344,-3.087343 -8.058301,-3.087343 -11.145644,0 l -2.228584,2.2285842 -3.344237,3.3442372 z"/>
 <path style="opacity:0.2" d="m 30.923558,15.056776 c -1.672939,-1.67294 -4.366681,-1.67294 -6.039727,0 L 11.29447,28.646137 c -1.119564,1.119563 -1.4729642,2.691927 -1.094153,4.113856 l -4.9455753,4.945575 c -1.6729392,1.673046 -1.673046,4.366682 2.41e-5,6.039728 1.6729392,1.672939 4.3666824,1.672939 6.0397282,0 l 4.945575,-4.945575 c 1.422036,0.378918 2.994293,0.02562 4.113857,-1.094153 L 33.943287,24.116207 c 1.673046,-1.672939 1.673046,-4.366682 2.9e-5,-6.039621 l -3.019918,-3.019917 z"/>
 <path style="fill:#b2bfd9" d="m 30.923558,14.04959 c -1.672939,-1.67294 -4.366681,-1.67294 -6.039727,0 L 11.29447,27.638951 c -1.119564,1.119563 -1.4729642,2.691927 -1.094153,4.113856 l -4.9455753,4.945575 c -1.6729392,1.673046 -1.673046,4.366682 2.41e-5,6.039728 1.6729392,1.672939 4.3666824,1.672939 6.0397282,0 l 4.945575,-4.945575 c 1.422036,0.378918 2.994293,0.02562 4.113857,-1.094153 L 33.943287,23.109021 c 1.673046,-1.672939 1.673046,-4.366682 2.9e-5,-6.039621 l -3.019918,-3.019917 z"/>
 <path style="fill:#f4f4f7;opacity:0.2" d="M 27.904297 12.794922 C 26.812613 12.794922 25.721289 13.212358 24.884766 14.048828 L 11.294922 27.638672 C 10.338872 28.594721 9.9457138 29.880303 10.085938 31.121094 C 10.196769 30.217721 10.597245 29.34416 11.294922 28.646484 L 24.884766 15.056641 C 26.557812 13.383701 29.250889 13.383701 30.923828 15.056641 L 33.943359 18.076172 C 34.650965 18.783744 35.0394 19.675428 35.148438 20.59375 C 35.29786 19.34026 34.909268 18.036176 33.943359 17.070312 L 30.923828 14.048828 C 30.087359 13.212358 28.995981 12.794922 27.904297 12.794922 z M 10.068359 31.884766 L 5.2539062 36.699219 C 4.2880427 37.665144 3.899423 38.969165 4.0488281 40.222656 C 4.1578748 39.304333 4.5463337 38.412696 5.2539062 37.705078 L 10.201172 32.759766 C 10.124729 32.472827 10.084889 32.179 10.068359 31.884766 z"/>
 <path style="fill:#ff9913" d="m 18,17.461151 5.572822,5.572823 1.393205,1.393205 L 30.538848,30 l 5.572823,-5.572821 3.344237,-3.344237 2.228584,-2.228585 c 3.087343,-3.087343 3.087343,-8.058301 0,-11.1456449 L 40.291287,6.3155072 c -3.087344,-3.087343 -8.058301,-3.087343 -11.145644,0 l -2.228584,2.2285842 -3.344237,3.3442376 z"/>
 <path style="fill:#f4f4f7;opacity:0.2" d="M 34.71875 4 C 32.704175 4 30.690156 4.7727347 29.146484 6.3164062 L 26.917969 8.5449219 L 23.572266 11.888672 L 18 17.460938 L 18.5 17.960938 L 23.572266 12.888672 L 26.917969 9.5449219 L 29.146484 7.3164062 C 32.233827 4.2290632 37.203672 4.2290632 40.291016 7.3164062 L 41.683594 8.7089844 C 43.099283 10.124674 43.857238 11.936667 43.974609 13.78125 C 44.113203 11.603156 43.355248 9.3806389 41.683594 7.7089844 L 40.291016 6.3164062 C 38.747344 4.7727347 36.733325 4 34.71875 4 z"/>
 <path style="opacity:0.1" d="m 16.989479,12.999561 a 2.9902081,2.9902081 0 0 0 -2.082815,5.135013 l 15.946182,15.946182 a 2.9902081,2.9902081 0 1 0 4.227919,-4.227918 L 19.134583,13.906655 a 2.9902081,2.9902081 0 0 0 -2.145104,-0.907094 z"/>
 <path style="fill:#ffbc48" d="m 16.989479,11.999561 a 2.9902081,2.9902081 0 0 0 -2.082815,5.135013 l 15.946182,15.946182 a 2.9902081,2.9902081 0 1 0 4.227919,-4.227918 L 19.134583,12.906655 a 2.9902081,2.9902081 0 0 0 -2.145104,-0.907094 z"/>
 <rect style="fill:#4e79ff" width="4.164" height="16.655" x="31.86" y="7.94" rx="2.082" ry="2.082" transform="rotate(45)"/>
 <path style="opacity:0.2;fill:#f4f4f7" d="M 16.990234 12 A 2.9902081 2.9902081 0 0 0 14.042969 15.478516 A 2.9902081 2.9902081 0 0 1 16.990234 13 A 2.9902081 2.9902081 0 0 1 19.134766 13.90625 L 35.080078 29.853516 A 2.9902081 2.9902081 0 0 1 35.955078 31.517578 A 2.9902081 2.9902081 0 0 0 35.080078 28.853516 L 19.134766 12.90625 A 2.9902081 2.9902081 0 0 0 16.990234 12 z"/>
</svg>
