<svg xmlns="http://www.w3.org/2000/svg" width="48" height="48" version="1">
 <path style="opacity:0.2" d="M 6.9492188,6 C 5.8690188,6 5,6.8690188 5,7.9492188 V 19 32 43.050781 C 5,44.130781 5.8690188,45 6.9492188,45 H 18 31 l 0.08203,-0.03516 A 12,12 0 0 1 21.607422,39 12,12 0 0 1 26,22.607422 12,12 0 0 1 42.392578,27 12,12 0 0 1 43.951172,32.09375 L 44,32 V 19 7.9492188 C 44,6.8689187 43.130781,6 42.050781,6 H 31 18 Z"/>
 <path style="fill:#b0b0b0" d="m 31,5 v 13 13 13 l 6.760063,-2.889667 c 0.993075,-0.424502 1.446635,-0.993285 1.949219,-1.949219 L 44,31 V 18 6.9492188 C 44,5.8689187 43.130781,5 42.050781,5 Z"/>
 <path style="fill:#cccccc" d="M 18,5 V 18 31 44 H 31 V 31 18 5 Z"/>
 <path style="fill:#b2bfd9" d="M 6.9492188,5 C 5.8690188,5 5,5.8690188 5,6.9492188 V 18 31 42.050781 C 5,43.130781 5.8690188,44 6.9492188,44 H 18 V 31 18 5 Z"/>
 <circle style="opacity:0.2" cx="11.213" cy="44.579" r="12" transform="rotate(-30)"/>
 <circle style="fill:#0d89f4" cx="32" cy="32" r="12"/>
 <path style="fill:none;stroke:#f4f4f7;stroke-width:4;stroke-linecap:round;stroke-linejoin:round" d="m 31.999993,26.000018 v 5.999999 h 6"/>
 <path style="opacity:0.2;fill:#f4f4f7" d="M 6.9492188,5 C 5.8690188,5 5,5.8690188 5,6.9492188 v 1 C 5,6.8690188 5.8690188,6 6.9492188,6 H 18 31 42.050781 C 43.130781,6 44,6.8689187 44,7.9492188 v -1 C 44,5.8689187 43.130781,5 42.050781,5 H 31 18 Z"/>
</svg>
