<svg width="48" height="48" version="1.1" xmlns="http://www.w3.org/2000/svg">
 <circle cx="24" cy="25" r="20" style="opacity:.2"/>
 <circle cx="24" cy="24" r="20" style="fill:#fda324"/>
 <path d="M 24,4 A 20,20 0 0 0 4,24 20,20 0 0 0 4.0215,24.582 20,20 0 0 1 24,5 20,20 0 0 1 43.979,24.418 20,20 0 0 0 44,24 20,20 0 0 0 24,4 Z" style="fill:#f4f4f7;opacity:.2"/>
 <path d="m33.996915 20.949961c0.0021 1.483475 0.05091 3.005065-0.331758 4.450357-0.442278 1.465534-1.309093 2.505958-2.625194 3.194501-0.039963 2.405181 0.06652 3.201791-0.133963 5.528429-0.217101 1.578755-2.354866 2.381406-3.826965 2.564484-0.900795 0.434307-1.92171 0.201717-2.908429 0.306045-2.264373 0.03668-4.639517-0.06118-6.712373-1.054891-0.926128-0.36531-1.126062-1.397804-1.421871-2.216176 0.03001-2.058161-0.13639-4.116661 0.0646-6.171271 0.209748-3.612736 0.911685-7.193223 1.532445-10.755085-0.0148-0.429821-1.268713-0.147289-0.63842-0.949426 0.725915-0.746476 0.983758-1.868803 2.010026-2.309281 2.273986-0.782955 4.583055-0.535257 6.934337-0.339489 1.082405 0.154038 2.108657 0.895532 3.229507 0.738443 1.23646-0.14505 2.315121 0.491589 3.313597 1.120799 0.994724 0.441489 1.122782 1.665705 1.382351 2.5886 0.184289 1.189815 0.109349 2.104373 0.132106 3.303961zm-1.953161 1.898851c-0.153816-1.575106 0.201673-3.220808-0.299507-4.747131-0.204082-0.924282-1.744247-1.101681-1.886285-0.01607 0.426019 2.611726 0.22077 5.264562 0.468037 7.888397 1.091008-0.604033 1.62836-2.037865 1.717755-3.125195z" style="opacity:.1"/>
 <path d="m33.996915 19.949961c0.0021 1.483475 0.05091 3.005065-0.331758 4.450357-0.442278 1.465534-1.309093 2.505958-2.625194 3.194501-0.039963 2.405181 0.06652 3.201791-0.133963 5.528429-0.217101 1.578755-2.354866 2.381406-3.826965 2.564484-0.900795 0.434307-1.92171 0.201717-2.908429 0.306045-2.264373 0.03668-4.639517-0.06118-6.712373-1.054891-0.926128-0.36531-1.126062-1.397804-1.421871-2.216176 0.03001-2.058161-0.13639-4.116661 0.0646-6.171271 0.209748-3.612736 0.911685-7.193223 1.532445-10.755085-0.0148-0.429821-1.268713-0.147289-0.63842-0.949426 0.725915-0.746476 0.983758-1.868803 2.010026-2.309281 2.273986-0.782955 4.583055-0.535257 6.934337-0.339489 1.082405 0.154038 2.108657 0.895532 3.229507 0.738443 1.23646-0.14505 2.315121 0.491589 3.313597 1.120799 0.994724 0.441489 1.122782 1.665705 1.382351 2.5886 0.184289 1.189815 0.109349 2.104373 0.132106 3.303961zm-1.953161 1.898851c-0.153816-1.575106 0.201673-3.220808-0.299507-4.747131-0.204082-0.924282-1.744247-1.101681-1.886285-0.01607 0.426019 2.611726 0.22077 5.264562 0.468037 7.888397 1.091008-0.604033 1.62836-2.037865 1.717755-3.125195z" style="fill:#623f0f"/>
</svg>
