<svg xmlns="http://www.w3.org/2000/svg" width="48" height="48" version="1.1">
 <g transform="translate(0,-1004.3622)">
  <path style="opacity:0.2" d="m 6.6153731,1009.3636 c -1.434427,-0.046 -2.615431,1.0334 -2.615373,2.9923 l 0,16.9606 0,16.9631 c -5.78e-4,2.6871 2.130559,3.8698 3.83442,2.5249 l 10.4435639,-8.2334 10.445556,-8.2333 c 1.701946,-1.3433 1.701946,-4.6976 0,-6.0408 l -10.445556,-8.2334 -10.4435639,-8.2333 c -0.371245,-0.2928 -0.79046,-0.4532 -1.219047,-0.4667 z"/>
  <path style="fill:#358be1" d="m 6.6153731,1008.3636 c -1.434427,-0.046 -2.615431,1.0334 -2.615373,2.9923 l 0,16.9606 0,16.9631 c -5.78e-4,2.6871 2.130559,3.8698 3.83442,2.5249 l 10.4435639,-8.2334 10.445556,-8.2333 c 1.701946,-1.3433 1.701946,-4.6976 0,-6.0408 l -10.445556,-8.2334 -10.4435639,-8.2333 c -0.371245,-0.2928 -0.79046,-0.4532 -1.219047,-0.4667 z"/>
  <path style="opacity:0.2;fill:#f4f4f7" transform="translate(0,1004.3622)" d="M 6.6152344 4.0019531 C 5.1808074 3.9559531 3.999942 5.0352406 4 6.9941406 L 4 7.9941406 C 3.999942 6.0352406 5.1808074 4.9559531 6.6152344 5.0019531 C 7.0438214 5.0154531 7.4627394 5.17595 7.8339844 5.46875 L 18.277344 13.701172 L 28.722656 21.935547 C 29.451811 22.511006 29.850698 23.457638 29.955078 24.455078 C 30.094335 23.124348 29.695448 21.703288 28.722656 20.935547 L 18.277344 12.701172 L 7.8339844 4.46875 C 7.4627394 4.17595 7.0438214 4.0154531 6.6152344 4.0019531 z"/>
  <path style="opacity:0.2" d="m 13.615373,1009.3636 c -1.434427,-0.046 -2.615431,1.0334 -2.615373,2.9923 l 0,16.9606 0,16.9631 c -5.78e-4,2.6871 2.130559,3.8698 3.83442,2.5249 l 10.443564,-8.2334 10.445556,-8.2333 c 1.701946,-1.3433 1.701946,-4.6976 0,-6.0408 l -10.445556,-8.2334 -10.443564,-8.2333 c -0.371245,-0.2928 -0.79046,-0.4532 -1.219047,-0.4667 z"/>
  <path style="fill:#b2bfd9" d="m 13.615373,1008.3636 c -1.434427,-0.046 -2.615431,1.0334 -2.615373,2.9923 l 0,16.9606 0,16.9631 c -5.78e-4,2.6871 2.130559,3.8698 3.83442,2.5249 l 10.443564,-8.2334 10.445556,-8.2333 c 1.701946,-1.3433 1.701946,-4.6976 0,-6.0408 l -10.445556,-8.2334 -10.443564,-8.2333 c -0.371245,-0.2928 -0.79046,-0.4532 -1.219047,-0.4667 z"/>
  <path style="opacity:0.2;fill:#f4f4f7" transform="translate(0,1004.3622)" d="M 13.615234 4.0019531 C 12.180807 3.9559531 10.999942 5.0352406 11 6.9941406 L 11 7.9941406 C 10.999942 6.0352406 12.180807 4.9559531 13.615234 5.0019531 C 14.043821 5.0154531 14.462739 5.17595 14.833984 5.46875 L 25.277344 13.701172 L 35.722656 21.935547 C 36.451811 22.511006 36.850698 23.457638 36.955078 24.455078 C 37.094335 23.124348 36.695448 21.703288 35.722656 20.935547 L 25.277344 12.701172 L 14.833984 4.46875 C 14.462739 4.17595 14.043821 4.0154531 13.615234 4.0019531 z"/>
  <path style="opacity:0.2" d="m 20.615373,1009.3636 c -1.434427,-0.046 -2.615431,1.0334 -2.615373,2.9923 l 0,16.9606 0,16.9631 c -5.78e-4,2.6871 2.130559,3.8698 3.83442,2.5249 l 10.443564,-8.2334 10.445556,-8.2333 c 1.701946,-1.3433 1.701946,-4.6976 0,-6.0408 l -10.445556,-8.2334 -10.443564,-8.2333 c -0.371245,-0.2928 -0.79046,-0.4532 -1.219047,-0.4667 z"/>
  <path style="fill:#f47329" d="m 20.615373,1008.3636 c -1.434427,-0.046 -2.615431,1.0334 -2.615373,2.9923 l 0,16.9606 0,16.9631 c -5.78e-4,2.6871 2.130559,3.8698 3.83442,2.5249 l 10.443564,-8.2334 10.445556,-8.2333 c 1.701946,-1.3433 1.701946,-4.6976 0,-6.0408 l -10.445556,-8.2334 -10.443564,-8.2333 c -0.371245,-0.2928 -0.79046,-0.4532 -1.219047,-0.4667 z"/>
  <path style="opacity:0.2;fill:#f4f4f7" transform="translate(0,1004.3622)" d="M 20.615234 4.0019531 C 19.180807 3.9559531 17.999942 5.0352406 18 6.9941406 L 18 7.9941406 C 17.999942 6.0352406 19.180807 4.9559531 20.615234 5.0019531 C 21.043821 5.0154531 21.462739 5.17595 21.833984 5.46875 L 32.277344 13.701172 L 42.722656 21.935547 C 43.451811 22.511006 43.850698 23.457638 43.955078 24.455078 C 44.094335 23.124348 43.695448 21.703288 42.722656 20.935547 L 32.277344 12.701172 L 21.833984 4.46875 C 21.462739 4.17595 21.043821 4.0154531 20.615234 4.0019531 z"/>
 </g>
</svg>
