<svg xmlns="http://www.w3.org/2000/svg" width="48" height="48" version="1">
 <path style="fill:#14ddb1" d="m24 4h-18c-1.108 0-2 0.892-2 2v18h20z"/>
 <path style="fill:#f7c73c" d="m24 4h18c1.108 0 2 0.892 2 2v18h-20z"/>
 <path style="fill:#2086e7" d="m24 44h-18c-1.108 0-2-0.892-2-2v-18h20z"/>
 <path style="fill:#14ddb1" d="m24 44h18c1.108 0 2-0.892 2-2v-18h-20z"/>
 <path fill="#fff" opacity=".2" d="m6 4c-1.108 0-2 0.892-2 2v1c0-1.108 0.892-2 2-2h36c1.108 0 2 0.892 2 2v-1c0-1.108-0.892-2-2-2h-36z"/>
 <path opacity=".2" d="m6 45c-1.108 0-2-0.892-2-2v-1c0 1.108 0.892 2 2 2h36c1.108 0 2-0.892 2-2v1c0 1.108-0.892 2-2 2h-36z"/>
 <rect style="fill:#3f3f3f" width="28" height="28" x="10" y="10"/>
 <path style="opacity:0.2;fill:none;stroke:#000000;stroke-width:2;stroke-linecap:round" d="m 16,32.9999 h 8"/>
 <path style="fill:none;stroke:#f4f4f7;stroke-width:2;stroke-linecap:round" d="m 16,32 h 8"/>
 <path style="opacity:0.2;fill:none;stroke:#000000;stroke-width:1.99999988;stroke-linecap:round;stroke-linejoin:bevel" d="m 23.999998,16.9999 -3e-6,6.000001 c 0,1.514679 -1.043948,2.024798 -1.999998,2.000001 -0.89596,0.0036 -2.000001,-0.466262 -2.000001,-2.000001 L 20,16.9999 m -4e-6,0 -4e-6,6.000001 c 0,1.514679 -1.043947,2.024798 -1.999997,2.000001 -0.89596,0.0036 -2.000002,-0.466262 -2.000002,-2.000001 l 4e-6,-6.000001"/>
 <path style="fill:none;stroke:#f4f4f7;stroke-width:1.99999988;stroke-linecap:round;stroke-linejoin:bevel" d="m 23.999998,16 -3e-6,6.000001 c 0,1.514679 -1.043948,2.024798 -1.999998,2.000001 -0.89596,0.0036 -2.000001,-0.466262 -2.000001,-2.000001 L 20,16 m -4e-6,0 -4e-6,6.000001 c 0,1.514679 -1.043947,2.024798 -1.999997,2.000001 -0.89596,0.0036 -2.000002,-0.466262 -2.000002,-2.000001 L 15.999997,16"/>
 <path style="opacity:0.2;fill:none;stroke:#000000;stroke-width:1.99999988;stroke-linecap:round;stroke-linejoin:round" d="m 28.000115,23.9999 c 0,0 0.504386,1.000966 2.000001,1.000482 1.495612,-4.8e-4 1.999998,-1.000482 1.999998,-2.000481 0,-4.214385 -3.999999,0.211162 -3.988018,-3.990705 -0.0121,-1.009296 0.471867,-2.009295 1.98802,-2.009295 C 31.516266,16.999901 32,17.9999 32,17.9999"/>
 <path style="fill:none;stroke:#f4f4f7;stroke-width:1.99999988;stroke-linecap:round;stroke-linejoin:round" d="m 28.000115,23 c 0,0 0.504386,1.000966 2.000001,1.000482 1.495612,-4.8e-4 1.999998,-1.000482 1.999998,-2.000481 0,-4.214385 -3.999999,0.211162 -3.988018,-3.990705 C 27.999996,17 28.483963,16.000001 30.000116,16.000001 31.516266,16.000001 32,17 32,17"/>
</svg>
