<svg xmlns="http://www.w3.org/2000/svg" width="48" height="48" version="1.1">
 <g transform="translate(0,-1004.3622)">
  <path style="opacity:.2" d="m43.999998 1029.3622a20 20 0 0 1 -20 20 20 20 0 0 1 -20 -20 20 20 0 0 1 20 -20 20 20 0 0 1 20 20z"/>
  <path style="fill:#834366" d="m43.999998 1028.3622c0 2.879-0.608303 5.6159-1.703391 8.0892-3.106417 7.0159-10.974161 8.8151-19.140887 8.8151-11.045695 0-17.467167-5.3896-17.467167-16.4353 0-1.7992-1.4509615-4.012-1.0054368-5.6706 2.2895562-8.5237 10.070449-14.7984 19.316881-14.7984 11.045695 0 20 8.9543 20 20z"/>
  <circle style="opacity:.2" class="st11" cx="21" cy="1030.362" r="12"/>
  <circle style="fill:#ff87a3" class="st11" cx="21" cy="1029.362" r="12"/>
  <path style="opacity:.1;fill:#f4f4f7" transform="translate(0,1004.3622)" d="m21 13a12 12 0 0 0 -12 12 12 12 0 0 0 0.0195312 0.59375 12 12 0 0 1 11.980469 -11.59375 12 12 0 0 1 11.980469 11.40625 12 12 0 0 0 0.019531 -0.40625 12 12 0 0 0 -12 -12z"/>
  <path style="fill:#db4b73" transform="translate(0,1004.3622)" d="m14.634766 31 6.253906 8.650391s3.259139-0.172273 7.000952 1.287633c3.066306-0.87988 7.431919-0.178474 9.705283-2.292932 2.245486-2.088528 4.011318-4.693434 5.114077-7.645092z"/>
  <path style="fill:#3a2e31" transform="translate(0,1004.3622)" d="m4.9472656 17.941406a20 20 0 0 0 -0.9472656 6.058594 20 20 0 0 0 20 20 20 20 0 0 0 13.798828 -5.533203c-2.27373-0.118292-3.926591-0.466797-8.24414-0.466797-2.031747 0-7.396485 1.651297-9.396485-2.158203-1.555556-3.0159-4.379805-5.430003-6.697265-6.033203-1.968254-0.5079-2.509238-2.411566-2.667969-4.697266-0.190476-2.4127-2.1271394-2.47575-3.3652346-4.03125-0.9667682-1.2622-1.525079-2.629372-2.4804688-3.138672z"/>
  <path style="opacity:.1;fill:#f4f4f7" transform="translate(0,1004.3622)" d="m24 4a20 20 0 0 0 -20 20 20 20 0 0 0 0.0214844 0.582031 20 20 0 0 1 19.978516 -19.582031 20 20 0 0 1 19.978516 19.417969 20 20 0 0 0 0.021484 -0.417969 20 20 0 0 0 -20 -20z"/>
 </g>
</svg>
