<svg xmlns="http://www.w3.org/2000/svg" width="48" height="48" version="1">
 <path style="opacity:0.2" d="m 8.999688,5 a 5.0109231,5.0175 0 0 0 -4.9996878,5 v 30 c 0,2.75 2.2495474,5 4.9996878,5 H 39.000312 C 41.750452,45 44,42.75 44,40 V 10 C 44,7.25 41.750452,5 39.000312,5 Z"/>
 <path style="fill:#e44332" d="M 8.999688,4 A 5.0109231,5.0175 0 0 0 4.0000002,9 v 30 c 0,2.75 2.2495474,5 4.9996878,5 H 39.000312 C 41.750452,44 44,41.75 44,39 V 9 C 44,6.25 41.750452,4 39.000312,4 Z"/>
 <path style="opacity:0.2" d="M 26.709662,11.000023 A 1.263579,1.2983606 0 0 0 26.067065,11.1758 c -0.193815,0.116387 -13.129271,7.838127 -13.560952,8.091591 -0.518521,0.305193 -1.157875,0.310365 -1.673878,0 L 4,15.146402 v 3.501865 c 1.6625377,1.0061 5.7972291,3.505243 6.799031,4.093645 0.597808,0.349159 1.170427,0.341274 1.748099,-0.0039 l 16.189936,-9.671628 c 0.346101,-0.206911 0.363498,-0.843343 -0.02539,-1.072238 -0.387635,-0.230187 -1.122166,-0.66519 -1.396527,-0.832011 a 1.263579,1.2983606 0 0 0 -0.605487,-0.162112 z m 0,6.999822 a 1.263579,1.2983606 0 0 0 -0.642597,0.175777 c -0.193815,0.116387 -13.129271,7.838127 -13.560952,8.09159 -0.518521,0.305194 -1.157875,0.310366 -1.673878,0 L 4,22.146223 v 3.501865 c 1.6625377,1.0061 5.7972291,3.505244 6.799031,4.093646 0.597808,0.349159 1.170427,0.341273 1.748099,-0.0039 l 16.189936,-9.671629 c 0.346101,-0.20691 0.363498,-0.843342 -0.02539,-1.072237 -0.387635,-0.230187 -1.122166,-0.66519 -1.396527,-0.832011 a 1.263579,1.2983606 0 0 0 -0.605487,-0.162112 z m 0,6.999822 a 1.263579,1.2983606 0 0 0 -0.642597,0.175776 c -0.193815,0.116387 -13.129271,7.838128 -13.560952,8.091591 -0.518521,0.305193 -1.157875,0.310365 -1.673878,0 L 4,29.146045 v 3.501865 c 1.6625377,1.006099 5.7972291,3.505245 6.799031,4.093646 0.597808,0.34916 1.170427,0.341273 1.748099,-0.0039 l 16.189936,-9.671629 c 0.346101,-0.206911 0.363498,-0.843342 -0.02539,-1.072238 -0.387635,-0.230187 -1.122166,-0.66519 -1.396527,-0.83201 a 1.263579,1.2983606 0 0 0 -0.605487,-0.162112 z"/>
 <path style="fill:#f4f4f7" d="M 26.709662,10.000023 A 1.263579,1.2983606 0 0 0 26.067065,10.1758 c -0.193815,0.116387 -13.129271,7.838127 -13.560952,8.091591 -0.518521,0.305193 -1.157875,0.310365 -1.673878,0 L 4,14.146402 v 3.501865 c 1.6625377,1.0061 5.7972291,3.505243 6.799031,4.093645 0.597808,0.349159 1.170427,0.341274 1.748099,-0.0039 l 16.189936,-9.671628 c 0.346101,-0.206911 0.363498,-0.843343 -0.02539,-1.072238 -0.387635,-0.230187 -1.122166,-0.66519 -1.396527,-0.832011 a 1.263579,1.2983606 0 0 0 -0.605487,-0.162112 z m 0,6.999822 a 1.263579,1.2983606 0 0 0 -0.642597,0.175777 c -0.193815,0.116387 -13.129271,7.838127 -13.560952,8.09159 -0.518521,0.305194 -1.157875,0.310366 -1.673878,0 L 4,21.146223 v 3.501865 c 1.6625377,1.0061 5.7972291,3.505244 6.799031,4.093646 0.597808,0.349159 1.170427,0.341273 1.748099,-0.0039 l 16.189936,-9.671629 c 0.346101,-0.20691 0.363498,-0.843342 -0.02539,-1.072237 -0.387635,-0.230187 -1.122166,-0.66519 -1.396527,-0.832011 a 1.263579,1.2983606 0 0 0 -0.605487,-0.162112 z m 0,6.999822 a 1.263579,1.2983606 0 0 0 -0.642597,0.175776 c -0.193815,0.116387 -13.129271,7.838128 -13.560952,8.091591 -0.518521,0.305193 -1.157875,0.310365 -1.673878,0 L 4,28.146045 v 3.501865 c 1.6625377,1.006099 5.7972291,3.505245 6.799031,4.093646 0.597808,0.34916 1.170427,0.341273 1.748099,-0.0039 l 16.189936,-9.671629 c 0.346101,-0.206911 0.363498,-0.843342 -0.02539,-1.072238 -0.387635,-0.230187 -1.122166,-0.66519 -1.396527,-0.83201 a 1.263579,1.2983606 0 0 0 -0.605487,-0.162112 z"/>
 <path style="fill:#f4f4f7;opacity:0.2" d="M 9 4 A 5.0109231 5.0175 0 0 0 4 9 L 4 10 A 5.0109231 5.0175 0 0 1 9 5 L 39 5 C 41.75014 5 44 7.25 44 10 L 44 9 C 44 6.25 41.75014 4 39 4 L 9 4 z"/>
</svg>
