<svg xmlns="http://www.w3.org/2000/svg" width="48" height="48" version="1">
 <rect fill="#b2bfd9" width="40" height="40" x="4" y="4" rx="2" ry="2"/>
 <path fill="#fff" opacity=".2" d="m6 4c-1.108 0-2 0.892-2 2v1c0-1.108 0.892-2 2-2h36c1.108 0 2 0.892 2 2v-1c0-1.108-0.892-2-2-2h-36z"/>
 <path opacity=".2" d="m6 45c-1.108 0-2-0.892-2-2v-1c0 1.108 0.892 2 2 2h36c1.108 0 2-0.892 2-2v1c0 1.108-0.892 2-2 2h-36z"/>
 <path style="opacity:0.2" d="m 40,9 0,12 -12,0 0,-12 z m -16,0 0,2 -2,0 0,-2 z m 0,2 2,0 0,4 -2,0 0,2 -2,0 0,-4 2,0 z m 0,6 2,0 0,4 -2,0 z m 0,4 0,2 -2,0 0,-2 z m -2,2 0,4 -4,0 0,-2 2,0 0,-2 z m -4,2 -4,0 0,-2 4,0 z m -4,0 0,2 -6,0 0,-4 4,0 0,2 z m 8,2 4,0 0,4 -2,0 0,-2 -2,0 z m 4,4 2,0 0,2 -2,0 z m 0,2 0,2 0,2 -2,0 0,-2 -2,0 0,-2 z m -2,4 0,4 -2,0 0,-4 z m 2,0 4,0 0,4 -4,0 z m 4,0 0,-2 2,0 0,2 z m 2,0 2,0 0,4 -2,0 z m 0,-2 0,-2 4,0 0,2 z m 4,0 2,0 0,2 2,0 0,2 -2,0 0,2 -2,0 z m -6,0 -2,0 0,-2 2,0 z m -2,-4 0,-2 2,0 0,2 z m 2,-2 0,-2 4,0 0,4 -2,0 0,-2 z m 0,-2 -4,0 0,-2 2,0 0,-2 2,0 z m -4,-2 -2,0 0,-2 2,0 z M 20,9 20,21 8,21 8,9 Z m 18,2 -8,0 0,8 8,0 z m -20,0 -8,0 0,8 8,0 z m 18,2 0,4 -4,0 0,-4 z m -20,0 0,4 -4,0 0,-4 z m 22,10 0,2 2,0 0,2 -4,0 0,-2 -4,0 0,-2 4,0 z m 2,6 0,4 -2,0 0,-2 -2,0 0,-2 2,0 z M 20,29 20,41 8,41 8,29 Z m -2,2 -8,0 0,8 8,0 z m -2,2 0,4 -4,0 0,-4 z"/>
 <path style="fill:#3f3f3f" d="M 40,8 V 20 H 28 V 8 Z M 24,8 v 2 H 22 V 8 Z m 0,2 h 2 v 4 h -2 v 2 h -2 v -4 h 2 z m 0,6 h 2 v 4 h -2 z m 0,4 v 2 h -2 v -2 z m -2,2 v 4 h -4 v -2 h 2 v -2 z m -4,2 h -4 v -2 h 4 z m -4,0 v 2 H 8 v -4 h 4 v 2 z m 8,2 h 4 v 4 h -2 v -2 h -2 z m 4,4 h 2 v 2 h -2 z m 0,2 v 2 2 h -2 v -2 h -2 v -2 z m -2,4 v 4 h -2 v -4 z m 2,0 h 4 v 4 h -4 z m 4,0 v -2 h 2 v 2 z m 2,0 h 2 v 4 h -2 z m 0,-2 v -2 h 4 v 2 z m 4,0 h 2 v 2 h 2 v 2 h -2 v 2 h -2 z m -6,0 h -2 v -2 h 2 z m -2,-4 v -2 h 2 v 2 z m 2,-2 v -2 h 4 v 4 h -2 v -2 z m 0,-2 h -4 v -2 h 2 v -2 h 2 z m -4,-2 h -2 v -2 h 2 z M 20,8 V 20 H 8 V 8 Z m 18,2 h -8 v 8 h 8 z m -20,0 h -8 v 8 h 8 z m 18,2 v 4 h -4 v -4 z m -20,0 v 4 h -4 v -4 z m 22,10 v 2 h 2 v 2 h -4 v -2 h -4 v -2 h 4 z m 2,6 v 4 h -2 v -2 h -2 v -2 h 2 z M 20,28 V 40 H 8 V 28 Z m -2,2 h -8 v 8 h 8 z m -2,2 v 4 h -4 v -4 z"/>
</svg>
