<svg width="48" height="48" version="1.1" xmlns="http://www.w3.org/2000/svg">
 <rect x="4" y="5" width="40" height="40" rx="2" ry="2" style="opacity:.2"/>
 <rect x="4" y="4" width="40" height="40" rx="2" ry="2" style="fill:#959595"/>
 <rect x="7" y="7" width="34" height="34" rx="1.7" ry="1.7" style="fill:#4d4d4d"/>
 <path d="m11 13v1h1v8h-1v1h5v-1h1v-1h1v-6h-1v-1h-1v-1zm10 0v1h-1v8h1v1h5v-1h1v-8h-1v-1zm9 0v1h-1v2h1v1h1v1h2v1h1v3h-3v-2h-2v2h1v1h5v-1h1v-3h-1v-1h-1v-1h-2v-1h-1v-2h3v2h2v-2h-1v-1zm-16 1h1v1h1v6h-1v1h-1zm8 0h3v8h-3zm-11 13v1h1v8h-1v1h6v-1h1v-4h-1v-1h1v-3h-1v-1zm10 0v1h-1v8h1v1h5v-1h1v-8h-1v-1zm8 0v2h1v2h1v2h-1v2h-1v2h2v-2h1v-1h1v1h1v2h2v-2h-1v-2h-1v-2h1v-2h1v-2h-2v2h-1v1h-1v-1h-1v-2zm-15 1h2v3h-2zm8 0h3v8h-3zm-8 4h2v4h-2z" style="opacity:.2"/>
 <path d="m29 26v2h1v2h1v2h-1v2h-1v2h2v-2h1v-1h1v1h1v2h2v-2h-1v-2h-1v-2h1v-2h1v-2h-2v2h-1v1h-1v-1h-1v-2z" style="fill:#73ff44"/>
 <path d="m6 4c-1.108 0-2 0.892-2 2v1c0-1.108 0.892-2 2-2h36c1.108 0 2 0.892 2 2v-1c0-1.108-0.892-2-2-2h-36z" style="fill:#f4f4f7;opacity:.2"/>
 <path d="m11 12v1h1v8h-1v1h5v-1h1v-1h1v-6h-1v-1h-1v-1zm3 1h1v1h1v6h-1v1h-1z" style="fill:#e73d3d"/>
 <path d="m21 12v1h-1v8h1v1h5v-1h1v-8h-1v-1zm1 1h3v8h-3zm-1 13v1h-1v8h1v1h5v-1h1v-8h-1v-1zm1 1h3v8h-3z" style="fill:#bd66ff"/>
 <path d="m30 12v1h-1v2h1v1h1v1h2v1h1v3h-3v-2h-2v2h1v1h5v-1h1v-3h-1v-1h-1v-1h-2v-1h-1v-2h3v2h2v-2h-1v-1z" style="fill:#ffeb3b"/>
 <path d="m11 26v1h1v8h-1v1h6v-1h1v-4h-1v-1h1v-3h-1v-1zm3 1h2v3h-2zm0 4h2v4h-2z" style="fill:#5964ff"/>
</svg>
