<svg xmlns="http://www.w3.org/2000/svg" width="48" height="48" version="1">
 <rect style="opacity:0.2" width="36" height="36" x="-45" y="-44" rx="1.8" ry="1.8" transform="matrix(0,-1,-1,0,0,0)"/>
 <rect style="fill:#4f4f4f" width="36" height="36" x="-44" y="-44" rx="1.8" ry="1.8" transform="matrix(0,-1,-1,0,0,0)"/>
 <rect style="opacity:0.2" width="36" height="36" x="-41" y="-40" rx="1.8" ry="1.8" transform="matrix(0,-1,-1,0,0,0)"/>
 <rect style="fill:#2d50e6" width="36" height="36" x="-40" y="-40" rx="1.8" ry="1.8" transform="matrix(0,-1,-1,0,0,0)"/>
 <path style="opacity:0.1" d="M 38.869141 5.1308594 L 4.5253906 39.474609 C 4.2000406 39.149259 4 38.697819 4 38.199219 L 4 39.199219 C 4 39.697819 4.2000406 40.149259 4.5253906 40.474609 L 39.474609 5.5253906 C 39.304011 5.3547921 39.097696 5.2217771 38.869141 5.1308594 z"/>
 <path style="opacity:0.1;fill:#f4f4f7" d="M 5.8007812 4 C 4.8035812 4 4 4.8035813 4 5.8007812 L 4 38.199219 C 4 38.697819 4.2000406 39.149259 4.5253906 39.474609 L 39.474609 4.5253906 C 39.149259 4.2000406 38.697819 4 38.199219 4 L 5.8007812 4 z"/>
 <path style="opacity:0.2" d="m 7,12 v 22 h 6 7 v -3 h 2 v -3 h 3 V 18 h -3 v -3 h -2 v -3 h -7 z m 22,0 v 3 h 6 v -3 z m -16,3 h 4 v 3 h 2 v 10 h -2 v 3 h -4 z m 16,4 v 12 h 2 v 3 h 7 V 31 H 35 V 19 Z"/>
 <rect style="fill:#f4f4f7" width="6" height="22" x="7" y="11"/>
 <rect style="fill:#f4f4f7" width="7" height="3" x="13" y="11"/>
 <rect style="fill:#f4f4f7" width="5" height="3" x="17" y="14"/>
 <rect style="fill:#f4f4f7" width="7" height="3" x="13" y="30"/>
 <rect style="fill:#f4f4f7" width="5" height="3" x="17" y="27"/>
 <rect style="fill:#f4f4f7" width="6" height="10" x="19" y="17"/>
 <rect style="fill:#f4f4f7" width="6" height="12" x="29" y="18"/>
 <rect style="fill:#f4f4f7" width="7" height="3" x="31" y="30"/>
 <rect style="fill:#f4f4f7" width="6" height="3" x="29" y="11"/>
 <path style="fill:#f4f4f7;opacity:0.1" d="M 5.8007812 4 C 4.8035813 4 4 4.8035813 4 5.8007812 L 4 6.8007812 C 4 5.8035813 4.8035813 5 5.8007812 5 L 38.199219 5 C 39.196419 5 40 5.8035813 40 6.8007812 L 40 5.8007812 C 40 4.8035813 39.196419 4 38.199219 4 L 5.8007812 4 z"/>
</svg>
