<svg xmlns="http://www.w3.org/2000/svg" width="48" height="48" version="1.1">
 <g transform="translate(0,-1004.3622)">
  <path style="opacity:0.2" d="m 10.065341,1029.364 -5.53267,5.5309 c -0.3409723,0.3409 -0.5325747,0.8033 -0.5326705,1.2855 v 11.3636 c 9.03e-5,1.0041 0.8140622,1.8181 1.8181818,1.8182 H 17.181819 c 0.481926,4e-4 0.944291,-0.1906 1.285511,-0.5309 L 24,1043.2986 l 13.934659,-13.9346 5.53267,-5.5327 c 0.341414,-0.3414 0.533053,-0.8045 0.532671,-1.2873 v -11.3636 c -9e-5,-1.0041 -0.814062,-1.8181 -1.818182,-1.8182 H 30.818182 c -0.482184,10e-5 -0.944586,0.1917 -1.285511,0.5327 L 24,1015.4275 Z"/>
  <path style="fill:#005aeb" d="m 10.065341,1028.364 -5.53267,5.5309 c -0.3409723,0.3409 -0.5325747,0.8033 -0.5326705,1.2855 v 11.3636 c 9.03e-5,1.0041 0.8140622,1.8181 1.8181818,1.8182 H 17.181819 c 0.481926,4e-4 0.944291,-0.1906 1.285511,-0.5309 L 24,1042.2986 l 13.934659,-13.9346 5.53267,-5.5327 c 0.341414,-0.3414 0.533053,-0.8045 0.532671,-1.2873 v -11.3636 c -9e-5,-1.0041 -0.814062,-1.8181 -1.818182,-1.8182 H 30.818182 c -0.482184,10e-5 -0.944586,0.1917 -1.285511,0.5327 L 24,1014.4275 Z"/>
  <path style="opacity:0.1;fill:#f4f4f7" d="m 30.818359,1008.3622 c -0.482184,10e-5 -0.944231,0.1922 -1.285156,0.5332 L 24,1014.4267 l -13.935547,13.9375 -5.5312499,5.5312 C 4.1922308,1034.2363 4.0000958,1034.6984 4,1035.1806 v 1 c 9.58e-5,-0.4822 0.1922308,-0.9443 0.5332031,-1.2852 L 10.064453,1029.3642 24,1015.4267 l 5.533203,-5.5313 c 0.340925,-0.341 0.802972,-0.5331 1.285156,-0.5332 h 11.363282 c 1.00412,10e-5 1.818269,0.8143 1.818359,1.8184 v -1 c -9e-5,-1.0041 -0.814239,-1.8183 -1.818359,-1.8184 z"/>
  <path style="opacity:0.2" d="m 37.93466,1029.364 5.53267,5.5309 c 0.340972,0.3409 0.532575,0.8033 0.532671,1.2855 v 11.3636 c -9.1e-5,1.0041 -0.814063,1.8181 -1.818182,1.8182 H 30.818182 c -0.481926,4e-4 -0.944291,-0.1906 -1.285511,-0.5309 l -5.53267,-5.5327 -13.934659,-13.9346 -5.5326699,-5.5327 c -0.341414,-0.3414 -0.533053,-0.8045 -0.532671,-1.2873 v -11.3636 c 9e-5,-1.0041 0.814062,-1.8181 1.818182,-1.8182 H 17.181819 c 0.482184,10e-5 0.944586,0.1917 1.285511,0.5327 l 5.532671,5.5326 z"/>
  <path style="fill:#00d5e6" d="m 37.93466,1028.364 5.53267,5.5309 c 0.340972,0.3409 0.532575,0.8033 0.532671,1.2855 v 11.3636 c -9.1e-5,1.0041 -0.814063,1.8181 -1.818182,1.8182 H 30.818182 c -0.481926,4e-4 -0.944291,-0.1906 -1.285511,-0.5309 l -5.53267,-5.5327 -13.934659,-13.9346 -5.5326699,-5.5327 c -0.341414,-0.3414 -0.533053,-0.8045 -0.532671,-1.2873 v -11.3636 c 9e-5,-1.0041 0.814062,-1.8181 1.818182,-1.8182 H 17.181819 c 0.482184,10e-5 0.944586,0.1917 1.285511,0.5327 l 5.532671,5.5326 z"/>
  <path style="opacity:0.2;fill-rule:evenodd" d="m 32.717157,1014.3625 v 0 a 0.31051083,0.31051083 0 0 0 -0.211514,0.091 l -0.838296,0.8383 a 0.31051083,0.31051083 0 0 0 -0.0912,0.2192 v 4.8125 h -4.812436 a 0.31051083,0.31051083 0 0 0 -0.219276,0.091 l -3.102858,3.1028 a 0.31051083,0.31051083 0 0 0 0,0.4385 l 5.146202,5.1482 -0.752913,0.7529 -3.357062,-3.359 c -1.10654,-1.1065 -2.910294,-1.1065 -4.016833,0 -1.106541,1.1066 -1.106542,2.9104 0,4.0169 l 3.357066,3.359 -1.32342,1.3234 -2.637138,-0.2794 c 0.821972,-1.1106 0.85418,-2.6446 -0.151359,-3.6501 -1.10654,-1.1065 -2.908354,-1.1065 -4.014892,0 l -5.367419,5.369 c -1.7651331,1.7651 -1.7651337,4.6366 0,6.4018 1.765122,1.7649 4.636568,1.765 6.401705,0 0.859148,-0.8592 1.195549,-1.9855 1.218634,-3.1126 l 0.727687,0.7276 a 0.31051083,0.31051083 0 0 0 0.438552,0 l 0.595733,-0.5976 a 0.31051083,0.31051083 0 0 0 0,-0.4387 l -2.980606,-2.9805 a 0.31051083,0.31051083 0 0 0 -0.438553,0 l -1.789139,1.7891 a 0.31051083,0.31051083 0 0 0 0,0.4385 l 0.595732,0.5958 a 0.31051083,0.31051083 0 0 0 0.440494,0 l 0.725746,-0.7257 c 0.435015,1.0997 0.323828,2.3755 -0.568566,3.2677 -1.198538,1.1987 -3.132642,1.1987 -4.331193,0 -1.198528,-1.1983 -1.198528,-3.1328 0,-4.3311 l 5.365479,-5.3656 c 0.539945,-0.5399 1.406375,-0.5399 1.946321,0 0.539953,0.54 0.539953,1.4064 0,1.9464 l -1.193407,1.1915 a 0.31051083,0.31051083 0 0 0 0,0.4404 l 2.982546,2.9806 a 0.31051083,0.31051083 0 0 0 0.438553,0 l 0.595733,-0.5957 a 0.31051083,0.31051083 0 0 0 0,-0.4405 l -1.410742,-1.4108 2.807902,0.2912 a 0.31051083,0.31051083 0 0 0 0.252264,-0.091 l 2.524588,-2.5246 a 0.31051083,0.31051083 0 0 0 0,-0.4405 l -2.165596,-2.1636 1.94632,-1.9464 2.165597,2.1656 a 0.31051083,0.31051083 0 0 0 0.438552,0 l 2.384874,-2.3849 a 0.31051083,0.31051083 0 0 0 0,-0.4405 l -2.165597,-2.1656 1.569863,-1.5679 a 0.31051083,0.31051083 0 0 0 0,-0.4385 l -0.595733,-0.5977 a 0.31051083,0.31051083 0 0 0 -0.440493,0 l -1.567923,1.5698 -1.94632,-1.9463 1.954082,-1.9541 h 4.329252 v 5.6528 a 0.31051083,0.31051083 0 0 0 0.531697,0.2192 l 0.838296,-0.8383 a 0.31051083,0.31051083 0 0 0 0.0912,-0.2192 v -4.8144 h 4.812437 a 0.31051083,0.31051083 0 0 0 0.219276,-0.089 l 0.838296,-0.8382 a 0.31051083,0.31051083 0 0 0 -0.21928,-0.5318 H 33.03734 v -5.6507 a 0.31051083,0.31051083 0 0 0 -0.320182,-0.3105 z m -10.247774,12.7686 c 0.351485,0 0.702218,0.1356 0.97219,0.4055 l 0.97219,0.9722 -1.94632,1.9463 -0.97219,-0.9722 c -0.539953,-0.54 -0.539953,-1.4063 0,-1.9463 0.269973,-0.2699 0.622646,-0.4055 0.97413,-0.4055 z"/>
  <path style="fill:#f4f4f7;fill-rule:evenodd" transform="translate(0,1004.3622)" d="M 33.289062 8.4375 L 33.289062 8.4394531 A 0.31253125 0.31253125 0 0 0 33.076172 8.53125 L 32.232422 9.375 A 0.31253125 0.31253125 0 0 0 32.140625 9.5957031 L 32.140625 14.439453 L 27.296875 14.439453 A 0.31253125 0.31253125 0 0 0 27.076172 14.53125 L 23.953125 17.654297 A 0.31253125 0.31253125 0 0 0 23.953125 18.095703 L 29.132812 23.277344 L 28.375 24.035156 L 24.996094 20.654297 C 23.882354 19.540597 22.066864 19.540597 20.953125 20.654297 C 19.839384 21.767997 19.839383 23.583566 20.953125 24.697266 L 24.332031 28.078125 L 23 29.410156 L 20.345703 29.128906 C 21.173023 28.011106 21.205441 26.467178 20.193359 25.455078 C 19.079619 24.341378 17.266082 24.341378 16.152344 25.455078 L 10.75 30.857422 C 8.9733812 32.634022 8.9733806 35.524181 10.75 37.300781 C 12.526608 39.077281 15.416737 39.077381 17.193359 37.300781 C 18.058097 36.436081 18.396688 35.302469 18.419922 34.167969 L 19.152344 34.900391 A 0.31253125 0.31253125 0 0 0 19.59375 34.900391 L 20.193359 34.298828 A 0.31253125 0.31253125 0 0 0 20.193359 33.857422 L 17.193359 30.857422 A 0.31253125 0.31253125 0 0 0 16.751953 30.857422 L 14.951172 32.658203 A 0.31253125 0.31253125 0 0 0 14.951172 33.099609 L 15.550781 33.699219 A 0.31253125 0.31253125 0 0 0 15.994141 33.699219 L 16.724609 32.96875 C 17.162455 34.07555 17.050544 35.359713 16.152344 36.257812 C 14.946007 37.464213 12.999318 37.464213 11.792969 36.257812 C 10.586642 35.051612 10.586642 33.104638 11.792969 31.898438 L 17.193359 26.498047 C 17.736818 25.954547 18.608885 25.954547 19.152344 26.498047 C 19.695811 27.041547 19.695811 27.913531 19.152344 28.457031 L 17.951172 29.65625 A 0.31253125 0.31253125 0 0 0 17.951172 30.099609 L 20.953125 33.099609 A 0.31253125 0.31253125 0 0 0 21.394531 33.099609 L 21.994141 32.5 A 0.31253125 0.31253125 0 0 0 21.994141 32.056641 L 20.574219 30.636719 L 23.400391 30.929688 A 0.31253125 0.31253125 0 0 0 23.654297 30.837891 L 26.195312 28.296875 A 0.31253125 0.31253125 0 0 0 26.195312 27.853516 L 24.015625 25.675781 L 25.974609 23.716797 L 28.154297 25.896484 A 0.31253125 0.31253125 0 0 0 28.595703 25.896484 L 30.996094 23.496094 A 0.31253125 0.31253125 0 0 0 30.996094 23.052734 L 28.816406 20.873047 L 30.396484 19.294922 A 0.31253125 0.31253125 0 0 0 30.396484 18.853516 L 29.796875 18.251953 A 0.31253125 0.31253125 0 0 0 29.353516 18.251953 L 27.775391 19.832031 L 25.816406 17.873047 L 27.783203 15.90625 L 32.140625 15.90625 L 32.140625 21.595703 A 0.31253125 0.31253125 0 0 0 32.675781 21.816406 L 33.519531 20.972656 A 0.31253125 0.31253125 0 0 0 33.611328 20.751953 L 33.611328 15.90625 L 38.455078 15.90625 A 0.31253125 0.31253125 0 0 0 38.675781 15.816406 L 39.519531 14.972656 A 0.31253125 0.31253125 0 0 0 39.298828 14.4375 L 33.611328 14.4375 L 33.611328 8.75 A 0.31253125 0.31253125 0 0 0 33.289062 8.4375 z M 22.974609 21.289062 C 23.328381 21.289062 23.681396 21.425566 23.953125 21.697266 L 24.931641 22.675781 L 22.972656 24.634766 L 21.994141 23.65625 C 21.450674 23.11275 21.450674 22.240766 21.994141 21.697266 C 22.26587 21.425566 22.620838 21.289062 22.974609 21.289062 z"/>
  <path style="opacity:0.2;fill:#f4f4f7" d="M 5.8183594,1008.3622 C 4.8142394,1008.3623 4.00009,1009.1765 4,1010.1806 v 1 c 9e-5,-1.0041 0.8142394,-1.8183 1.8183594,-1.8184 H 17.181641 c 0.482184,10e-5 0.944231,0.1922 1.285156,0.5332 L 24,1015.4267 l 13.935547,13.9375 5.53125,5.5312 c 0.340972,0.3409 0.533107,0.803 0.533203,1.2852 v -1 c -9.6e-5,-0.4822 -0.192231,-0.9443 -0.533203,-1.2852 l -5.53125,-5.5312 L 24,1014.4267 l -5.533203,-5.5313 c -0.340925,-0.341 -0.802972,-0.5331 -1.285156,-0.5332 z"/>
  <path style="opacity:0.2;fill-rule:evenodd" d="m 31.040375,1032.3622 c -1.036361,0 -2.07238,0.3925 -2.85958,1.1798 -1.574408,1.5744 -1.574378,4.1451 0,5.7197 l 0.427765,0.4297 1.670042,-1.6682 -0.429719,-0.4298 c -0.662747,-0.6628 -0.662733,-1.7184 0,-2.3812 0.662709,-0.6627 1.718293,-0.6627 2.38103,0 0.274418,0.2746 0.425009,0.6101 0.468784,0.9631 v 7.6047 l 1.582144,1.5822 0.593792,-0.5938 1.455183,-1.4553 3.670184,-3.6705 -1.668088,-1.6682 -3.279532,3.2778 c -0.0034,-1.7529 0.0054,-3.5074 0,-5.2703 v -0.035 l -0.0039,-0.035 c -0.10469,-0.8613 -0.484468,-1.7053 -1.148519,-2.3695 -0.787199,-0.7873 -1.82322,-1.1798 -2.85958,-1.1798 z"/>
  <path style="fill:#f4f4f7;fill-rule:evenodd" d="m 31.040375,1031.3622 c -1.036361,0 -2.07238,0.3925 -2.85958,1.1798 -1.574408,1.5744 -1.574378,4.1451 0,5.7197 l 0.427765,0.4297 1.670042,-1.6682 -0.429719,-0.4298 c -0.662747,-0.6628 -0.662733,-1.7184 0,-2.3812 0.662709,-0.6627 1.718293,-0.6627 2.38103,0 0.274418,0.2746 0.425009,0.6101 0.468784,0.9631 v 7.6047 l 1.582144,1.5822 0.593792,-0.5938 1.455183,-1.4553 3.670184,-3.6705 -1.668088,-1.6682 -3.279532,3.2778 c -0.0034,-1.7529 0.0054,-3.5074 0,-5.2703 v -0.035 l -0.0039,-0.035 c -0.10469,-0.8613 -0.484468,-1.7053 -1.148519,-2.3695 -0.787199,-0.7873 -1.82322,-1.1798 -2.85958,-1.1798 z"/>
 </g>
</svg>
