<svg xmlns="http://www.w3.org/2000/svg" width="48" height="48" version="1.1">
 <circle style="opacity:0.2" cx="24" cy="25" r="20"/>
 <circle style="fill:#6d37ae" cx="24" cy="24" r="20"/>
 <circle style="opacity:0.1;fill:none;stroke:#000000;stroke-width:1.35899997;stroke-linecap:round;stroke-linejoin:round;stroke-dasharray:10.87199974, 5.43599987;stroke-dashoffset:13.45409966" cx="22.722" cy="26.167" r="8.32" transform="rotate(-2.8607949)"/>
 <circle style="opacity:0.1;fill:none;stroke:#000000;stroke-width:1.35468566;stroke-linecap:round;stroke-linejoin:round;stroke-dasharray:10.83748473, 5.41874237;stroke-dashoffset:40.00289154" cx="10.746" cy="32.947" r="12.322" transform="rotate(-25.767261)"/>
 <path style="opacity:0.1;fill:#f4f4f7" d="M 24,4 A 20,20 0 0 0 4,24 20,20 0 0 0 4.0215,24.582 20,20 0 0 1 24,5 20,20 0 0 1 43.979,24.418 20,20 0 0 0 44,24 20,20 0 0 0 24,4 Z"/>
 <circle style="opacity:0.1;fill:none;stroke:#000000;stroke-width:1.39806843;stroke-linecap:round;stroke-linejoin:round;stroke-dasharray:11.18454741, 5.5922737;stroke-dashoffset:40" cx="31.915" cy="-13.507" r="16.301" transform="rotate(69.107061)"/>
 <circle style="fill:none;stroke:#07e6d2;stroke-width:1.35468566;stroke-linecap:round;stroke-linejoin:round;stroke-dasharray:10.83748473, 5.41874237000000036;stroke-dashoffset:40.00289154" cx="11.18" cy="32.047" r="12.322" transform="rotate(-25.767261)"/>
 <circle style="fill:none;stroke:#07a8e6;stroke-width:1.39806843;stroke-linecap:round;stroke-linejoin:round;stroke-dasharray:11.18454741, 5.59227369999999979;stroke-dashoffset:40" cx="30.981" cy="-13.863" r="16.301" transform="rotate(69.107061)"/>
 <circle style="fill:none;stroke:#07e690;stroke-width:1.35899997;stroke-linecap:round;stroke-linejoin:round;stroke-dasharray:10.87199974, 5.43599986999999985;stroke-dashoffset:13.45409966" cx="22.772" cy="25.168" r="8.32" transform="rotate(-2.8607949)"/>
 <g transform="matrix(0.28153679,0,0,0.28153679,6.6099078,6.9816366)">
  <path style="opacity:0.2" d="m 50.173076,46.241062 a 2.4973435,2.4570409 0 0 0 -2.556914,2.454292 l -0.02772,15.298426 -0.02772,15.305239 a 2.4973435,2.4570409 0 0 0 3.741823,2.133874 l 13.484433,-7.62876 13.484428,-7.62876 a 2.4973435,2.4570409 0 0 0 0.0069,-4.260924 L 64.821627,54.244783 51.364915,46.568301 a 2.4973435,2.4570409 0 0 0 -1.191839,-0.327239 z"/>
 </g>
 <g transform="matrix(0.28153679,0,0,0.28153679,6.6099078,5.9816368)">
  <path style="fill:#9bdb4d" d="m 50.173076,46.241062 a 2.4973435,2.4570409 0 0 0 -2.556914,2.454292 l -0.02772,15.298426 -0.02772,15.305239 a 2.4973435,2.4570409 0 0 0 3.741823,2.133874 l 13.484433,-7.62876 13.484428,-7.62876 a 2.4973435,2.4570409 0 0 0 0.0069,-4.260924 L 64.821627,54.244783 51.364915,46.568301 a 2.4973435,2.4570409 0 0 0 -1.191839,-0.327239 z"/>
 </g>
 <g style="fill:#f4f4f7;opacity:0.2" transform="matrix(0.28153679,0,0,0.28153679,6.6099078,5.9816368)">
  <path style="fill:#f4f4f7" transform="matrix(3.5519337,0,0,3.5519337,-23.477954,-21.246377)" d="M 20.736328 19 A 0.70309407 0.69174741 0 0 0 20.015625 19.691406 L 20.007812 23.998047 L 20 28.306641 A 0.70309407 0.69174741 0 0 0 20.001953 28.337891 L 20.007812 24.998047 L 20.015625 20.691406 A 0.70309407 0.69174741 0 0 1 20.736328 20 A 0.70309407 0.69174741 0 0 1 21.070312 20.091797 L 24.859375 22.253906 L 28.648438 24.412109 A 0.70309407 0.69174741 0 0 1 28.78125 24.511719 A 0.70309407 0.69174741 0 0 0 28.648438 23.412109 L 24.859375 21.253906 L 21.070312 19.091797 A 0.70309407 0.69174741 0 0 0 20.736328 19 z"/>
 </g>
</svg>
