<svg xmlns="http://www.w3.org/2000/svg" width="48" height="48" version="1.1">
 <path fill="#886c38" d="m24 4a20 20 0 0 0 -20 20 20 20 0 0 0 20 20 20 20 0 0 0 20 -20 20 20 0 0 0 -20 -20z"/>
 <path fill="#fff" opacity=".2" d="m24 4a20 20 0 0 0 -19.859 17.852 20 19 0 0 1 19.859 -16.852 20 19 0 0 1 19.922 17.447 20 20 0 0 0 -19.922 -18.447zm19.922 18.447a20 20 0 0 1 0.078 1.553 20 19 0 0 0 -0.078 -1.553zm-39.781-0.595a20 19 0 0 0 -0.0488 0.392 20 20 0 0 1 0.0488 -0.392zm-0.0488 0.392a20 20 0 0 0 -0.0918 1.756 20 19 0 0 1 0.0918 -1.756z"/>
 <path opacity=".2" d="m24 45a20 20 0 0 1 -19.859 -17.852 20 19 0 0 0 19.859 16.852 20 19 0 0 0 19.922 -17.447 20 20 0 0 1 -19.922 18.447zm19.922-18.447a20 20 0 0 0 0.078 -1.553 20 19 0 0 1 -0.078 1.553zm-39.781 0.595a20 19 0 0 1 -0.0488 -0.392 20 20 0 0 0 0.0488 0.392zm-0.0488-0.392a20 20 0 0 1 -0.0918 -1.756 20 19 0 0 0 0.0918 1.756z"/>
 <path opacity=".2" d="m26 9.1402v13.859h13.854a16 16 0 0 0 -13.854 -13.859zm-4 0.00586a16 16 0 0 0 -13.859 13.854h13.859v-13.854zm-13.854 17.854a16 16 0 0 0 13.854 13.859v-13.859h-13.854zm17.854 0v13.854a16 16 0 0 0 13.859 -13.854h-13.859z"/>
 <path fill="#f4f4f7" d="m26 8.1406v13.859h13.854a16 16 0 0 0 -13.854 -13.859zm-4 0.0059a16 16 0 0 0 -13.859 13.854h13.859v-13.854zm-13.854 17.854a16 16 0 0 0 13.854 13.859v-13.859h-13.854zm17.854 0v13.854a16 16 0 0 0 13.859 -13.854h-13.859z"/>
</svg>
