<svg xmlns="http://www.w3.org/2000/svg" width="48" height="48" version="1">
 <path style="opacity:0.2" d="M 6,44 C 4.892,44 4,43.108 4,42 V 6 C 4,4.892 4.892,4 6,4 h 22 l 16,16 v 22 c 0,1.108 -0.892,2 -2,2 z"/>
 <path style="fill:#2663b2" d="M 6,43 C 4.892,43 4,42.108 4,41 V 5 C 4,3.892 4.892,3 6,3 h 22 l 16,16 v 22 c 0,1.108 -0.892,2 -2,2 z"/>
 <path style="opacity:0.2" d="m 24,11 a 14,14 0 0 0 -0.107422,0.0039 c -0.377637,0.0029 -0.749263,0.02802 -1.11914,0.06055 a 14,14 0 0 0 -0.71875,0.08594 c -0.239175,0.03368 -0.477769,0.06953 -0.712891,0.115234 a 14,14 0 0 0 -0.679688,0.152344 c -0.241291,0.05969 -0.480614,0.123206 -0.716797,0.195312 a 14,14 0 0 0 -0.609374,0.203125 c -0.262823,0.0938 -0.523955,0.191912 -0.779297,0.300782 a 14,14 0 0 0 -0.464844,0.208984 c -0.302879,0.14248 -0.60195,0.291964 -0.892578,0.455078 a 14,14 0 0 0 -0.265625,0.152344 c -0.353842,0.208892 -0.700027,0.429766 -1.033203,0.667968 a 14,14 0 0 0 -0.06055,0.04297 c -0.37201,0.268934 -0.732577,0.554252 -1.076172,0.857422 -0.352278,0.310832 -0.688009,0.638361 -1.007813,0.982422 a 14,14 0 0 0 -1.273437,1.5625 c 0.0012,8.27e-4 0.0027,0.0011 0.0039,0.002 -0.106941,0.154398 -0.203835,0.315833 -0.304687,0.47461 a 14,14 0 0 0 -0.324219,0.529296 c -0.101335,0.176245 -0.197209,0.356191 -0.291016,0.53711 a 14,14 0 0 0 -0.320312,0.666015 c -0.06162,0.135975 -0.126231,0.269973 -0.183594,0.408203 a 14,14 0 0 0 -0.427734,1.173829 c -0.0137,0.04373 -0.02383,0.0889 -0.03711,0.132812 A 14,14 0 0 0 10.3125,22.085938 c -0.02102,0.09843 -0.03966,0.197691 -0.05859,0.296874 a 14,14 0 0 0 -0.158203,1.048829 c -0.0098,0.08662 -0.02114,0.172679 -0.0293,0.259765 A 14,14 0 0 0 10,25 a 14,14 0 0 0 0.01367,0.402344 c 0.006,0.208323 0.01028,0.417119 0.02539,0.623047 a 14,14 0 0 0 0.158204,1.302734 c 0.01225,0.07232 0.0296,0.142905 0.04297,0.214844 a 14,14 0 0 0 0.228516,1.017578 c 0.03652,0.137746 0.07658,0.2741 0.117188,0.410156 a 14,14 0 0 0 0.253906,0.769531 c 0.05834,0.160588 0.113735,0.322654 0.177734,0.480469 a 14,14 0 0 0 0.322266,0.71875 c 0.160389,0.339178 0.331527,0.672323 0.517578,0.996094 a 14,14 0 0 0 0.177734,0.306641 c 0.152254,0.250223 0.311494,0.494612 0.478516,0.734374 a 14,14 0 0 0 1.322266,1.640626 c 0.003,-0.0019 0.0048,-0.0039 0.0078,-0.0059 0.956228,1.009958 2.059131,1.879992 3.275391,2.572266 0.337807,0.192274 0.690439,0.361192 1.044921,0.52539 a 14,14 0 0 0 0.25586,0.123047 c 0.277342,0.121641 0.565226,0.222402 0.851562,0.326172 a 14,14 0 0 0 0.5,0.183594 c 0.214194,0.0684 0.435775,0.117614 0.654297,0.175781 a 14,14 0 0 0 0.751953,0.19336 c 0.171714,0.03548 0.349486,0.05295 0.523438,0.08203 a 14,14 0 0 0 0.873047,0.132812 c 0.227599,0.02327 0.460695,0.02498 0.691406,0.03711 A 14,14 0 0 0 24,39 a 14,14 0 0 0 0.119141,-0.0039 c 0.363545,-0.0031 0.72173,-0.0261 1.078125,-0.05664 a 14,14 0 0 0 0.767578,-0.0918 c 0.219246,-0.03115 0.438444,-0.06421 0.654297,-0.105468 a 14,14 0 0 0 0.714843,-0.160157 C 27.557797,38.526807 27.78056,38.470203 28,38.404297 A 14,14 0 0 0 28.652344,38.1875 c 0.234229,-0.08325 0.468935,-0.166493 0.697265,-0.261719 a 14,14 0 0 0 0.554688,-0.25 c 0.256203,-0.120272 0.510311,-0.243828 0.757812,-0.378906 a 14,14 0 0 0 0.382813,-0.21875 c 0.298514,-0.17535 0.592992,-0.356448 0.876953,-0.552734 a 14,14 0 0 0 0.197266,-0.140625 c 0.325875,-0.233642 0.642903,-0.478307 0.947265,-0.738282 a 14,14 0 0 0 0.07617,-0.06641 c 0.326837,-0.283229 0.641844,-0.580857 0.941406,-0.892578 a 14,14 0 0 0 1.306641,-1.566406 c -0.0012,-8.28e-4 -0.0027,-0.0011 -0.0039,-0.002 0.178183,-0.249195 0.345708,-0.506784 0.507812,-0.767579 a 14,14 0 0 0 0.126953,-0.207031 c 0.151218,-0.252847 0.294165,-0.510742 0.429688,-0.773437 a 14,14 0 0 0 0.162109,-0.335938 c 0.109223,-0.226265 0.221121,-0.450844 0.31836,-0.683594 a 14,14 0 0 0 0.0039,-0.0098 14,14 0 0 0 0.396484,-1.087891 c 0.04283,-0.132954 0.07828,-0.269653 0.117188,-0.404297 a 14,14 0 0 0 0.226562,-0.890625 c 0.02625,-0.120309 0.04916,-0.24184 0.07227,-0.363281 a 14,14 0 0 0 0.152344,-1.005859 c 0.01051,-0.09147 0.02449,-0.181436 0.0332,-0.273438 A 14,14 0 0 0 38,25 14,14 0 0 0 37.978516,24.408203 c -0.0058,-0.138024 -0.0058,-0.277109 -0.01563,-0.414062 a 14,14 0 0 0 -0.160157,-1.324219 c -0.01161,-0.06845 -0.02841,-0.135013 -0.04102,-0.203125 A 14,14 0 0 0 37.53125,21.433594 c -0.0336,-0.126504 -0.07038,-0.251874 -0.107422,-0.376953 a 14,14 0 0 0 -0.273437,-0.820313 c -0.05398,-0.147741 -0.103334,-0.297969 -0.16211,-0.443359 a 14,14 0 0 0 -0.361328,-0.806641 c -0.141095,-0.293973 -0.292641,-0.58096 -0.453125,-0.863281 A 14,14 0 0 0 35.96875,17.763672 c -0.147824,-0.243185 -0.303069,-0.481521 -0.464844,-0.714844 a 14,14 0 0 0 -1.308594,-1.628906 c -0.0025,0.0017 -0.0034,0.0042 -0.0059,0.0059 -0.958354,-1.019381 -2.065159,-1.89703 -3.287109,-2.595703 -0.349849,-0.200032 -0.71425,-0.377025 -1.082032,-0.546875 A 14,14 0 0 0 29.597656,12.175781 C 29.325245,12.055815 29.042843,11.95623 28.761719,11.853516 A 14,14 0 0 0 28.222656,11.65625 c -0.205179,-0.06543 -0.417797,-0.113878 -0.626953,-0.169922 a 14,14 0 0 0 -0.773437,-0.197266 c -0.160315,-0.03314 -0.326011,-0.05056 -0.488282,-0.07812 a 14,14 0 0 0 -0.923828,-0.138672 c -0.182533,-0.01846 -0.370137,-0.01799 -0.554687,-0.0293 A 14,14 0 0 0 24,11 Z m -1.007812,2.1875 v 4.707031 c -1.338171,-0.0463 -2.615345,-0.186866 -3.796876,-0.410156 0.17746,-0.41597 0.363497,-0.816401 0.566407,-1.181641 0.93546,-1.68383 2.064908,-2.729744 3.230469,-3.115234 z m 2,0 c 1.16608,0.38549 2.296951,1.431404 3.232421,3.115234 0.19914,0.35847 0.381981,0.750824 0.556641,1.158204 -1.17633,0.229169 -2.453073,0.37867 -3.789062,0.43164 z m 4.273437,1.035156 c 1.14743,0.56035 2.192346,1.291985 3.097656,2.171875 -0.49938,0.21209 -1.037907,0.407791 -1.617187,0.582031 -0.23505,-0.577139 -0.489088,-1.132681 -0.773438,-1.644531 -0.21791,-0.39223 -0.457951,-0.757165 -0.707031,-1.109375 z m -10.552734,0.0098 c -0.24644,0.34921 -0.483439,0.711199 -0.699219,1.099609 -0.29041,0.52274 -0.550123,1.089058 -0.789063,1.679688 -0.58491,-0.17155 -1.130998,-0.364299 -1.636718,-0.574219 0.91044,-0.89449 1.96625,-1.636348 3.125,-2.205078 z m 15.013671,3.746094 c 1.243981,1.72193 2.04103,3.783573 2.22461,6.027343 h -3.765625 c -0.0736,-1.82846 -0.347926,-3.558479 -0.791016,-5.130859 0.79866,-0.24481 1.548675,-0.525713 2.234375,-0.845703 0.0338,-0.0158 0.06406,-0.03478 0.09766,-0.05078 z m -19.49414,0.05664 c 0.71776,0.33409 1.508979,0.62334 2.349609,0.875 -0.43738,1.56303 -0.70828,3.280423 -0.78125,5.095703 h -3.751953 c 0.18157,-2.21912 0.963004,-4.260213 2.183594,-5.970703 z m 15.220703,1.333985 c 0.39808,1.40097 0.655579,2.968298 0.730469,4.636718 h -5.191406 v -4.113281 c 1.57326,-0.0565 3.072057,-0.234977 4.460937,-0.523437 z m -10.927734,0.0293 c 1.39169,0.280789 2.894176,0.448776 4.466797,0.498046 v 4.109375 h -5.191407 c 0.0744,-1.65697 0.33116,-3.213751 0.72461,-4.607421 z m -6.476563,6.607421 h 3.751953 c 0.075,1.86515 0.357646,3.629123 0.816407,5.226563 -0.82134,0.24427 -1.593819,0.524756 -2.298829,0.847656 -1.26669,-1.73084 -2.082001,-3.808909 -2.269531,-6.074219 z m 5.751953,0 h 5.191407 v 4.25 c -1.55913,0.0489 -3.050031,0.213685 -4.431641,0.490235 -0.41433,-1.42612 -0.683346,-3.031535 -0.759766,-4.740235 z m 7.191407,0 h 5.191406 c -0.0769,1.72015 -0.346575,3.336292 -0.765625,4.769532 -1.37889,-0.28415 -2.866001,-0.459615 -4.425781,-0.515625 z m 7.193359,0 h 3.765625 c -0.18937,2.28747 -1.018621,4.38423 -2.306641,6.125 -0.005,-0.003 -0.01033,-0.0048 -0.01563,-0.0078 -0.69553,-0.32458 -1.457921,-0.608299 -2.269531,-0.855469 0.46474,-1.60655 0.750782,-3.382629 0.826172,-5.261719 z m -9.193359,6.251953 v 4.56836 c -1.16545,-0.38598 -2.295489,-1.432264 -3.230469,-3.115234 -0.18215,-0.32787 -0.349939,-0.683825 -0.511719,-1.052735 1.16655,-0.21756 2.424237,-0.35481 3.742188,-0.400391 z m 2,0.002 c 1.31642,0.0522 2.574388,0.196371 3.736328,0.419922 -0.15917,0.361339 -0.325147,0.709469 -0.503907,1.03125 -0.93571,1.68428 -2.066542,2.731947 -3.232421,3.117187 z M 17.277344,33.125 c 0.2255,0.54459 0.466548,1.071031 0.736328,1.556641 0.21127,0.38028 0.442984,0.735345 0.683594,1.078125 -1.1066,-0.54514 -2.115154,-1.251794 -2.996094,-2.095704 0.48858,-0.19769 1.016142,-0.376592 1.576172,-0.539062 z m 13.417968,0.03516 c 0.554211,0.16496 1.072488,0.349168 1.554688,0.548828 -0.8752,0.82921 -1.87393,1.523897 -2.96875,2.060547 0.24338,-0.34581 0.478006,-0.70378 0.691406,-1.08789 0.26416,-0.47549 0.500926,-0.989495 0.722656,-1.521485 z"/>
 <path style="fill:#f4f4f7" d="M 24 10 A 14 14 0 0 0 23.892578 10.003906 C 23.514941 10.006811 23.143315 10.031925 22.773438 10.064453 A 14 14 0 0 0 22.054688 10.150391 C 21.815513 10.184071 21.576919 10.219917 21.341797 10.265625 A 14 14 0 0 0 20.662109 10.417969 C 20.420818 10.477659 20.181495 10.541175 19.945312 10.613281 A 14 14 0 0 0 19.335938 10.816406 C 19.073115 10.910211 18.811983 11.008318 18.556641 11.117188 A 14 14 0 0 0 18.091797 11.326172 C 17.788918 11.468652 17.489847 11.618136 17.199219 11.78125 A 14 14 0 0 0 16.933594 11.933594 C 16.579752 12.142486 16.233567 12.36336 15.900391 12.601562 A 14 14 0 0 0 15.839844 12.644531 C 15.467834 12.913465 15.107267 13.198783 14.763672 13.501953 C 14.411394 13.812785 14.075663 14.140314 13.755859 14.484375 A 14 14 0 0 0 12.482422 16.046875 C 12.483626 16.047702 12.485123 16.048002 12.486328 16.048828 C 12.379387 16.203226 12.282493 16.364661 12.181641 16.523438 A 14 14 0 0 0 11.857422 17.052734 C 11.756087 17.228979 11.660213 17.408925 11.566406 17.589844 A 14 14 0 0 0 11.246094 18.255859 C 11.184473 18.391834 11.119863 18.525832 11.0625 18.664062 A 14 14 0 0 0 10.634766 19.837891 C 10.62107 19.881625 10.610932 19.926787 10.597656 19.970703 A 14 14 0 0 0 10.3125 21.085938 C 10.291476 21.184371 10.272838 21.283629 10.253906 21.382812 A 14 14 0 0 0 10.095703 22.431641 C 10.085941 22.518257 10.074568 22.60432 10.066406 22.691406 A 14 14 0 0 0 10 24 A 14 14 0 0 0 10.013672 24.402344 C 10.019668 24.610667 10.023949 24.819463 10.039062 25.025391 A 14 14 0 0 0 10.197266 26.328125 C 10.209519 26.400445 10.226866 26.47103 10.240234 26.542969 A 14 14 0 0 0 10.46875 27.560547 C 10.505273 27.698293 10.545334 27.834647 10.585938 27.970703 A 14 14 0 0 0 10.839844 28.740234 C 10.898188 28.900822 10.953579 29.062888 11.017578 29.220703 A 14 14 0 0 0 11.339844 29.939453 C 11.500233 30.278631 11.671371 30.611776 11.857422 30.935547 A 14 14 0 0 0 12.035156 31.242188 C 12.18741 31.492411 12.34665 31.7368 12.513672 31.976562 A 14 14 0 0 0 13.835938 33.617188 C 13.8389 33.615269 13.840781 33.613245 13.84375 33.611328 C 14.799978 34.621286 15.902881 35.49132 17.119141 36.183594 C 17.456948 36.375868 17.80958 36.544786 18.164062 36.708984 A 14 14 0 0 0 18.419922 36.832031 C 18.697264 36.953672 18.985148 37.054433 19.271484 37.158203 A 14 14 0 0 0 19.771484 37.341797 C 19.985678 37.410193 20.207259 37.459411 20.425781 37.517578 A 14 14 0 0 0 21.177734 37.710938 C 21.349448 37.746422 21.52722 37.763885 21.701172 37.792969 A 14 14 0 0 0 22.574219 37.925781 C 22.801818 37.949049 23.034914 37.950761 23.265625 37.962891 A 14 14 0 0 0 24 38 A 14 14 0 0 0 24.119141 37.996094 C 24.482686 37.992998 24.840871 37.969993 25.197266 37.939453 A 14 14 0 0 0 25.964844 37.847656 C 26.18409 37.81651 26.403288 37.783442 26.619141 37.742188 A 14 14 0 0 0 27.333984 37.582031 C 27.557797 37.526807 27.78056 37.470203 28 37.404297 A 14 14 0 0 0 28.652344 37.1875 C 28.886573 37.104249 29.121279 37.021007 29.349609 36.925781 A 14 14 0 0 0 29.904297 36.675781 C 30.1605 36.555509 30.414608 36.431953 30.662109 36.296875 A 14 14 0 0 0 31.044922 36.078125 C 31.343436 35.902775 31.637914 35.721677 31.921875 35.525391 A 14 14 0 0 0 32.119141 35.384766 C 32.445016 35.151124 32.762044 34.906459 33.066406 34.646484 A 14 14 0 0 0 33.142578 34.580078 C 33.469415 34.296849 33.784422 33.999221 34.083984 33.6875 A 14 14 0 0 0 35.390625 32.121094 C 35.389426 32.120266 35.387918 32.119968 35.386719 32.119141 C 35.564902 31.869946 35.732427 31.612357 35.894531 31.351562 A 14 14 0 0 0 36.021484 31.144531 C 36.172702 30.891684 36.315649 30.633789 36.451172 30.371094 A 14 14 0 0 0 36.613281 30.035156 C 36.722504 29.808891 36.834402 29.584312 36.931641 29.351562 A 14 14 0 0 0 36.935547 29.341797 A 14 14 0 0 0 37.332031 28.253906 C 37.374861 28.120952 37.410309 27.984253 37.449219 27.849609 A 14 14 0 0 0 37.675781 26.958984 C 37.70203 26.838675 37.724942 26.717144 37.748047 26.595703 A 14 14 0 0 0 37.900391 25.589844 C 37.910897 25.498373 37.924881 25.408408 37.933594 25.316406 A 14 14 0 0 0 38 24 A 14 14 0 0 0 37.978516 23.408203 C 37.972669 23.270179 37.972755 23.131094 37.962891 22.994141 A 14 14 0 0 0 37.802734 21.669922 C 37.791128 21.601468 37.774324 21.534909 37.761719 21.466797 A 14 14 0 0 0 37.53125 20.433594 C 37.497649 20.30709 37.460874 20.18172 37.423828 20.056641 A 14 14 0 0 0 37.150391 19.236328 C 37.096408 19.088587 37.047057 18.938359 36.988281 18.792969 A 14 14 0 0 0 36.626953 17.986328 C 36.485858 17.692355 36.334312 17.405368 36.173828 17.123047 A 14 14 0 0 0 35.96875 16.763672 C 35.820926 16.520487 35.665681 16.282151 35.503906 16.048828 A 14 14 0 0 0 34.195312 14.419922 C 34.19286 14.4216 34.19191 14.424104 34.189453 14.425781 C 33.231099 13.4064 32.124294 12.528751 30.902344 11.830078 C 30.552495 11.630046 30.188094 11.453053 29.820312 11.283203 A 14 14 0 0 0 29.597656 11.175781 C 29.325245 11.055815 29.042843 10.95623 28.761719 10.853516 A 14 14 0 0 0 28.222656 10.65625 C 28.017477 10.590822 27.804859 10.542372 27.595703 10.486328 A 14 14 0 0 0 26.822266 10.289062 C 26.661951 10.255917 26.496255 10.238505 26.333984 10.210938 A 14 14 0 0 0 25.410156 10.072266 C 25.227623 10.053811 25.040019 10.054274 24.855469 10.042969 A 14 14 0 0 0 24 10 z M 22.992188 12.1875 L 22.992188 16.894531 C 21.654017 16.848231 20.376843 16.707665 19.195312 16.484375 C 19.372772 16.068405 19.558809 15.667974 19.761719 15.302734 C 20.697179 13.618904 21.826627 12.57299 22.992188 12.1875 z M 24.992188 12.1875 C 26.158268 12.57299 27.289139 13.618904 28.224609 15.302734 C 28.423749 15.661204 28.60659 16.053558 28.78125 16.460938 C 27.60492 16.690107 26.328177 16.839608 24.992188 16.892578 L 24.992188 12.1875 z M 29.265625 13.222656 C 30.413055 13.783006 31.457971 14.514641 32.363281 15.394531 C 31.863901 15.606621 31.325374 15.802322 30.746094 15.976562 C 30.511044 15.399423 30.257006 14.843881 29.972656 14.332031 C 29.754746 13.939801 29.514705 13.574866 29.265625 13.222656 z M 18.712891 13.232422 C 18.466451 13.581632 18.229452 13.943621 18.013672 14.332031 C 17.723262 14.854771 17.463549 15.421089 17.224609 16.011719 C 16.639699 15.840169 16.093611 15.64742 15.587891 15.4375 C 16.498331 14.54301 17.554141 13.801152 18.712891 13.232422 z M 33.726562 16.978516 C 34.970543 18.700446 35.767592 20.762089 35.951172 23.005859 L 32.185547 23.005859 C 32.111947 21.177399 31.837621 19.44738 31.394531 17.875 C 32.193191 17.63019 32.943206 17.349287 33.628906 17.029297 C 33.662706 17.013497 33.692962 16.994516 33.726562 16.978516 z M 14.232422 17.035156 C 14.950182 17.369246 15.741401 17.658496 16.582031 17.910156 C 16.144651 19.473186 15.873751 21.190579 15.800781 23.005859 L 12.048828 23.005859 C 12.230398 20.786739 13.011832 18.745646 14.232422 17.035156 z M 29.453125 18.369141 C 29.851205 19.770111 30.108704 21.337439 30.183594 23.005859 L 24.992188 23.005859 L 24.992188 18.892578 C 26.565448 18.836078 28.064245 18.657601 29.453125 18.369141 z M 18.525391 18.398438 C 19.917081 18.679227 21.419567 18.847214 22.992188 18.896484 L 22.992188 23.005859 L 17.800781 23.005859 C 17.875181 21.348889 18.131941 19.792108 18.525391 18.398438 z M 12.048828 25.005859 L 15.800781 25.005859 C 15.875781 26.871009 16.158427 28.634982 16.617188 30.232422 C 15.795848 30.476692 15.023369 30.757178 14.318359 31.080078 C 13.051669 29.349238 12.236358 27.271169 12.048828 25.005859 z M 17.800781 25.005859 L 22.992188 25.005859 L 22.992188 29.255859 C 21.433058 29.304759 19.942157 29.469544 18.560547 29.746094 C 18.146217 28.319974 17.877201 26.714559 17.800781 25.005859 z M 24.992188 25.005859 L 30.183594 25.005859 C 30.106694 26.726009 29.837019 28.342151 29.417969 29.775391 C 28.039079 29.491241 26.551968 29.315776 24.992188 29.259766 L 24.992188 25.005859 z M 32.185547 25.005859 L 35.951172 25.005859 C 35.761802 27.293329 34.932551 29.390089 33.644531 31.130859 C 33.639531 31.127859 33.634206 31.126047 33.628906 31.123047 C 32.933376 30.798467 32.170985 30.514748 31.359375 30.267578 C 31.824115 28.661028 32.110157 26.884949 32.185547 25.005859 z M 22.992188 31.257812 L 22.992188 35.826172 C 21.826738 35.440192 20.696699 34.393908 19.761719 32.710938 C 19.579569 32.383068 19.41178 32.027113 19.25 31.658203 C 20.41655 31.440643 21.674237 31.303393 22.992188 31.257812 z M 24.992188 31.259766 C 26.308608 31.311966 27.566576 31.456137 28.728516 31.679688 C 28.569346 32.041027 28.403369 32.389157 28.224609 32.710938 C 27.288899 34.395218 26.158067 35.442885 24.992188 35.828125 L 24.992188 31.259766 z M 17.277344 32.125 C 17.502844 32.66959 17.743892 33.196031 18.013672 33.681641 C 18.224942 34.061921 18.456656 34.416986 18.697266 34.759766 C 17.590666 34.214626 16.582112 33.507972 15.701172 32.664062 C 16.189752 32.466372 16.717314 32.28747 17.277344 32.125 z M 30.695312 32.160156 C 31.249523 32.325116 31.7678 32.509324 32.25 32.708984 C 31.3748 33.538194 30.37607 34.232881 29.28125 34.769531 C 29.52463 34.423721 29.759256 34.065751 29.972656 33.681641 C 30.236816 33.206151 30.473582 32.692146 30.695312 32.160156 z"/>
 <path style="opacity:0.2" d="m 28,17 v 1 c 0,1.10456 0.8954,2 2,2 H 44 V 19 H 30 c -1.1046,0 -2,-0.89544 -2,-2 z"/>
 <path style="fill:#5491dc" d="M 44,19 H 30 c -1.1046,0 -2,-0.89544 -2,-2 V 3 Z"/>
 <path style="fill:#f4f4f7;opacity:0.1" d="M 6 3 C 4.892 3 4 3.892 4 5 L 4 6 C 4 4.892 4.892 4 6 4 L 28 4 L 43 19 L 44 19 L 28 3 L 6 3 z"/>
</svg>
