<svg xmlns="http://www.w3.org/2000/svg" width="48" height="48" version="1">
 <path style="fill:#4f4f4f" d="M 6 6 C 4.8912 6 4 6.892 4 8 L 4 11 L 4 40 C 4 41.1088 4.89125 42 6 42 L 42.001953 42 C 43.109953 42 44 41.109 44 40 L 44 11 L 44 8 C 44 6.892 43.109 6 42 6 L 6 6 z"/>
 <rect style="opacity:0.2" width="32" height="4" x="8" y="23" rx="1.523" ry="1.658"/>
 <path fill="#fff" opacity=".1" d="m6 6c-1.1088 0-2 0.892-2 2v1c0-1.108 0.8912-2 2-2h36c1.1088 0 2 0.892 2 2v-1c0-1.108-0.891-2-2-2h-36z"/>
 <path style="opacity:0.2" d="m4 40v1c0 1.1088 0.89125 2 2 2h36.002c1.107 0 1.998-0.891 1.998-2v-1c0 1.1088-0.89055 2-1.998 2h-36.002c-1.1088 0-2-0.891-2-2z"/>
 <rect style="fill:#f4f4f7" width="32" height="4" x="8" y="22" rx="1.523" ry="1.658"/>
 <path style="opacity:0.1;fill-rule:evenodd" d="m 24,25 c 0,3.311997 -2.688003,6 -6,6 -3.312,0 -6,-2.688003 -6,-6 0,-3.312 2.688,-6 6,-6 3.311997,0 6,2.688 6,6 z"/>
 <path style="fill:#5294e2;fill-rule:evenodd" d="m 24,24 c 0,3.311997 -2.688003,6 -6,6 -3.312,0 -6,-2.688003 -6,-6 0,-3.312 2.688,-6 6,-6 3.311997,0 6,2.688 6,6 z"/>
 <path style="fill:#f4f4f7;fill-rule:evenodd;opacity:0.2" d="M 18 18 C 14.688 18 12 20.688 12 24 C 12 24.168763 12.011705 24.334751 12.025391 24.5 C 12.28028 21.4222 14.856763 19 18 19 C 21.143234 19 23.719719 21.4222 23.974609 24.5 C 23.988295 24.334751 24 24.168763 24 24 C 24 20.688 21.311997 18 18 18 z"/>
</svg>
