<svg xmlns="http://www.w3.org/2000/svg" width="48" height="48" version="1.1">
 <path style="fill:#cccccc" d="m 4,16 18,-9 8,4 5,12 4.999985,2.055419 5e-6,8.890475 L 22,43 4,34 Z"/>
 <path style="opacity:0.2" d="M 22,8.0273438 21.650391,8.2109375 13,12.527344 17.109375,14.582031 21.650391,16.861328 22,17.027344 22.349609,16.861328 28.554688,13.759766 28.945312,13.554688 29.335938,13.369141 31,12.527344 27.240234,10.65625 26.890625,10.472656 26.541016,10.306641 22.349609,8.2109375 Z M 13,12.552734 12.650391,12.738281 4.0273438,17.041016 4,17.027344 V 26 34.972656 l 0.041016,0.01953 0.3867188,0.183593 L 8.5,37.224609 13,39.5 v -0.02734 l 0.04102,0.01953 0.386718,0.185546 L 17.5,41.724609 22,44 26.5,41.724609 30.572266,39.677734 30.958984,39.492188 31,39.472656 35.5,37.199219 39.572266,35.150391 39.958984,34.964844 40,34.945312 V 25.972656 L 39.91797,26.013676 36.240234,24.183594 35.890625,24 35.541016,23.835938 31.349609,21.740234 31,21.554688 30.650391,21.740234 22,26.054688 l 4.109375,2.054687 4.541016,2.28125 0.292968,0.136719 -4.28125,2.144531 -4.234375,2.130859 -0.386718,0.203125 L 22,35.027344 v -8.972656 l -0.04102,-0.02148 -0.386718,-0.205078 -4.234375,-2.128906 -4.3125,-2.158203 0.324218,-0.152344 6.205079,-3.101563 0.390624,-0.207031 0.390626,-0.183594 L 22,17.054688 18.240234,15.183594 17.890625,15 17.541016,14.833984 13.349609,12.738281 Z m 9,13.501954 4.5,-2.275391 4.072266,-2.048828 0.386718,-0.183594 L 31,21.527344 v -8.972656 l -4.337891,2.169921 -4.234375,2.13086 -0.386718,0.205078 L 22,17.082031 Z"/>
 <path style="fill:#c5c5c5" d="m 30.99999,20.554761 -0.349158,0.18512 -8.650847,4.315538 4.109186,2.054704 4.541661,2.280525 0.349158,0.164114 0.349146,-0.164114 6.205445,-3.102408 0.390158,-0.206126 0.391472,-0.18512 1.663774,-0.841575 -3.760019,-1.870899 -0.34917,-0.183808 -0.349146,-0.165427 -4.192514,-2.095404 z"/>
 <path style="fill:#c5c5c5" d="m 13,11.553445 -0.349158,0.18512 -8.650847,4.315538 4.109186,2.054704 4.541661,2.280525 L 13,20.553446 l 0.349146,-0.164114 6.205445,-3.102408 0.390158,-0.206126 0.391472,-0.18512 1.663774,-0.841575 -3.760019,-1.870899 -0.34917,-0.183808 -0.349146,-0.165427 -4.192514,-2.095404 z"/>
 <path style="fill:#b2bfd9" d="m 4.000003,16.026395 v 8.972944 l 0.04066,0.01964 0.387881,0.184538 4.071473,2.048231 L 13,29.526392 v -8.972948 l -0.04068,-0.02094 -0.38788,-0.204169 -4.23397,-2.130682 z"/>
 <path style="fill:#b2bfd9" d="m 30.999992,20.527055 v 8.972944 l -0.04066,0.01964 -0.387881,0.184538 -4.071474,2.048231 -4.499983,2.274644 v -8.972948 l 0.04068,-0.02094 0.38788,-0.204169 4.23397,-2.130682 z"/>
 <path style="fill:#d4d4d4" d="m 30.999992,11.554111 v 8.972944 l -0.04066,0.01964 -0.387881,0.184538 -4.071473,2.048231 -4.499983,2.274644 V 16.08116 l 0.04068,-0.02094 0.38788,-0.204169 4.23397,-2.130682 z"/>
 <path style="fill:#a0a0a0" d="m 21.999997,7.026394 -0.349158,0.18512 -8.650847,4.315538 4.109186,2.054704 4.541661,2.280525 0.349158,0.164114 0.349146,-0.164114 6.205445,-3.102408 0.390158,-0.206126 0.391472,-0.18512 1.663774,-0.841575 L 27.239973,9.656153 26.890803,9.472345 26.541657,9.306918 22.349143,7.211514 Z"/>
 <path style="opacity:0.2;fill:#f4f4f7" d="M 22,7.0273438 21.650391,7.2109375 13,11.527344 l 1.001953,0.5 L 21.650391,8.2109375 22,8.0273438 l 0.349609,0.1835937 4.191407,2.0957035 0.349609,0.166015 0.349609,0.183594 2.763672,1.375 L 31,11.527344 27.240234,9.65625 26.890625,9.4726562 26.541016,9.3066406 22.349609,7.2109375 Z M 13,11.552734 12.650391,11.738281 4.0273438,16.041016 4,16.027344 v 1 l 0.027344,0.01367 8.623047,-4.302733 L 13,12.552734 13.349609,12.738281 17.541016,14.833984 17.890625,15 l 0.349609,0.183594 2.763672,1.375 0.02148,-0.01172 L 17.109375,14.582031 13,12.527344 13.964844,12.046875 13.349609,11.738281 Z m -8.9589844,14.466797 4.1347656,2.06836 -3.7480468,-1.884766 z"/>
 <path style="fill:#a0a0a0" d="m 21.999995,16.054103 -0.349158,0.18512 -8.650847,4.315538 4.109186,2.054704 4.541661,2.280525 0.349158,0.164114 0.349146,-0.164114 6.205445,-3.102408 0.390158,-0.206126 0.391472,-0.18512 1.663774,-0.841575 -3.760019,-1.870899 -0.34917,-0.183808 -0.349146,-0.165427 -4.192514,-2.095404 z"/>
 <path style="fill:#f06826" d="m 35.000002,4.9986821 -0.349158,0.18512 -8.650847,4.3155389 4.109186,2.054704 4.541661,2.280525 0.349158,0.164114 0.349146,-0.164114 6.205445,-3.102408 0.390158,-0.206126 0.391472,-0.18512 L 43.999997,9.499341 40.239978,7.628442 39.890808,7.444634 39.541662,7.279207 35.349148,5.1838021 Z"/>
 <path style="opacity:0.2" d="m 43.999998,10.499003 v 8.972944 l -0.04066,0.01964 -0.387881,0.184538 -4.071474,2.048231 L 35,23.999 v -8.972948 l 0.04068,-0.02094 0.38788,-0.204169 4.23397,-2.130682 z"/>
 <path style="fill:#f06826" d="M 35,4.9980469 34.650391,5.1835938 26.029297,9.4863281 26,9.4707031 V 9.5 18.445312 l 0.04102,0.01953 0.386718,0.183594 L 30.5,20.697266 35,22.970703 V 23 l 4.5,-2.275391 4.072266,-2.048828 0.386718,-0.183593 L 44,18.472656 V 9.5 L 40.240234,7.6289062 39.890625,7.4453125 39.541016,7.2792969 35.349609,5.1835938 Z m 7.025391,5.4902341 -0.16211,0.08008 0.08203,-0.04297 z m -4.871094,2.44336 -1.726563,0.86914 -0.386718,0.205078 L 35,14.027344 v -0.0293 l 0.349609,-0.164063 z"/>
 <path style="fill:#f38854" d="m 43.999998,9.499343 v 8.972944 l -0.04066,0.01964 -0.387881,0.184538 -4.071474,2.048231 L 35,22.99934 v -8.972948 l 0.04068,-0.02094 0.38788,-0.204169 4.23397,-2.130682 z"/>
 <path style="fill:#b2bfd9" d="m 39.99999,24.97295 v 8.972944 l -0.04066,0.01964 -0.387881,0.184538 -4.071474,2.048231 -4.499983,2.274644 v -8.972948 l 0.04068,-0.02094 0.38788,-0.204169 4.23397,-2.130682 z"/>
 <path style="fill:#c5c5c5" d="m 30.999992,29.500003 v 8.972944 l -0.04066,0.01964 -0.387881,0.184538 -4.071474,2.048231 L 21.999994,43 v -8.972948 l 0.04068,-0.02094 0.38788,-0.204169 4.23397,-2.130682 z"/>
 <path style="fill:#c5c5c5" d="m 12.999997,20.527055 v 8.972944 l 0.04066,0.01964 0.387881,0.184538 4.071473,2.048231 4.499983,2.274644 v -8.972948 l -0.04068,-0.02094 -0.38788,-0.204169 -4.23397,-2.130682 z"/>
 <path style="fill:#c5c5c5" d="m 4.000003,24.999343 v 8.972944 l 0.04066,0.01964 0.387881,0.184538 4.071473,2.048231 L 13,38.49934 v -8.972948 l -0.04068,-0.02094 -0.38788,-0.204169 -4.23397,-2.130682 z"/>
 <path style="fill:#b2bfd9" d="m 12.999997,29.500003 v 8.972944 l 0.04066,0.01964 0.387881,0.184538 4.071473,2.048231 L 21.999994,43 v -8.972948 l -0.04068,-0.02094 -0.38788,-0.204169 -4.23397,-2.130682 z"/>
 <path style="opacity:0.2" d="m 26.000005,10.471295 v 8.972944 l 0.04066,0.01964 0.387881,0.184538 4.071473,2.048231 4.499983,2.274644 v -8.972948 l -0.04068,-0.02094 -0.38788,-0.204169 -4.23397,-2.130682 z"/>
 <path style="fill:#c85319" d="m 26.000005,9.471635 v 8.972944 l 0.04066,0.01964 0.387881,0.184538 4.071473,2.048231 4.499983,2.274644 v -8.972948 l -0.04068,-0.02094 -0.38788,-0.204169 -4.23397,-2.130682 z"/>
 <path style="opacity:0.1;fill:#f4f4f7" d="m 44,9.5 -4.337891,2.169922 -4.234375,2.130859 -0.386718,0.205078 L 35,14.027344 v 0.998047 l 0.04102,-0.01953 0.386718,-0.205078 4.234375,-2.130859 L 44,10.498047 Z"/>
 <path style="opacity:0.1" d="m 26,9.4707031 v 1.0019529 l 4.337891,2.169922 4.234375,2.13086 0.386718,0.205078 L 35,15 v -1.001953 l -0.04102,-0.01953 -0.386718,-0.205078 -4.234375,-2.13086 z"/>
 <path style="opacity:0.1;fill:#f4f4f7" d="M 35,4.9980469 34.650391,5.1835938 26,9.5 27.001953,10 34.650391,6.1835938 35,5.9980469 l 0.349609,0.1855469 4.191407,2.0957031 0.349609,0.1660156 0.349609,0.1835937 2.763672,1.3749998 L 44,9.5 40.240234,7.6289062 39.890625,7.4453125 39.541016,7.2792969 35.349609,5.1835938 Z"/>
</svg>
