<svg xmlns="http://www.w3.org/2000/svg" width="48" height="48" version="1">
 <path style="opacity:0.2" d="m 39.953125,6.0527344 c -0.293001,-0.00432 -0.62883,0.025377 -1.011719,0.09375 L 17.138672,10.439453 C 13.909968,10.76111 14,13 14,14 V 28.265625 A 8,8 0 0 0 12,28 a 8,8 0 0 0 -8,8 8,8 0 0 0 8,8 8,8 0 0 0 8,-8 V 15.929688 l 16,-3.257813 v 10.59375 A 8,8 0 0 0 34,23 a 8,8 0 0 0 -8,8 8,8 0 0 0 8,8 8,8 0 0 0 8,-8 V 8.5996094 c 2.54e-4,-0.875 0.0041,-2.5166422 -2.046875,-2.546875 z"/>
 <path style="fill:#4f4f4f" d="M 39.953125 5.0527344 C 39.660124 5.0484154 39.324295 5.0781114 38.941406 5.1464844 L 17.138672 9.4394531 C 13.909968 9.7611104 14 12 14 13 L 14 27.265625 A 8 8 0 0 0 12 27 A 8 8 0 0 0 4 35 A 8 8 0 0 0 12 43 A 8 8 0 0 0 20 35 L 20 14.929688 L 36 11.671875 L 36 22.265625 A 8 8 0 0 0 34 22 A 8 8 0 0 0 26 30 A 8 8 0 0 0 34 38 A 8 8 0 0 0 42 30 L 42 7.5996094 C 42.000254 6.7246094 42.004132 5.0829672 39.953125 5.0527344 z"/>
 <path style="fill:#f4f4f7;opacity:0.1" d="M 39.953125 5.0527344 C 39.660124 5.0484154 39.324295 5.0781114 38.941406 5.1464844 L 17.138672 9.4394531 C 13.909968 9.7611104 14 12 14 13 L 14 14 C 14 13 13.909968 10.76111 17.138672 10.439453 L 38.941406 6.1464844 C 39.324295 6.0781114 39.660124 6.0484144 39.953125 6.0527344 C 42.0041 6.0829672 42.000254 7.7246094 42 8.5996094 L 42 7.5996094 C 42.000254 6.7246094 42.004132 5.0829672 39.953125 5.0527344 z M 34 22 A 8 8 0 0 0 26 30 A 8 8 0 0 0 26.021484 30.423828 A 8 8 0 0 1 34 23 A 8 8 0 0 1 36 23.265625 L 36 22.265625 A 8 8 0 0 0 34 22 z M 12 27 A 8 8 0 0 0 4 35 A 8 8 0 0 0 4.0214844 35.423828 A 8 8 0 0 1 12 28 A 8 8 0 0 1 14 28.265625 L 14 27.265625 A 8 8 0 0 0 12 27 z"/>
</svg>
