<svg width="48" height="48" version="1.1" xmlns="http://www.w3.org/2000/svg">
 <g transform="matrix(2,0,0,2,2,2)">
  <path d="m12 1.5c1 0 9 6 9 15 0 4-7 5-10 5s-10-1-10-5c0-9 8-15 9-15h2z" style="opacity:.2"/>
  <path d="m12 1c1 0 9 6 9 15 0 4-7 5-10 5s-10-1-10-5c0-9 8-15 9-15h2z" style="fill:#4584e7"/>
  <circle cx="8" cy="9.5" r="3" style="opacity:.2"/>
  <circle cx="8" cy="9" r="3" style="fill:#f4f4f7"/>
  <circle cx="14" cy="9.5" r="3" style="opacity:.2"/>
  <circle cx="14" cy="9" r="3" style="fill:#f4f4f7"/>
  <path d="m9 14.5h4l-2 5z" style="opacity:.2"/>
  <path d="m9 14h4l-2 5z" style="fill:#f0e24b"/>
  <circle cx="9" cy="9" r="2" style="fill:#494949"/>
  <circle cx="13" cy="9" r="2" style="fill:#494949"/>
  <path d="M 10,1 C 9,1 1,7 1,16 1,16.05735 1.014733,16.107944 1.017578,16.164062 1.2158917,7.3541537 9.0127054,1.5 10,1.5 h 2 c 0.987295,0 8.784108,5.8541537 8.982422,14.664062 C 20.985267,16.107944 21,16.057346 21,16 21,7 13,1 12,1 Z" style="fill:#f4f4f7;opacity:.2"/>
  <path d="m 9,14 0.1992188,0.5 H 12.800781 L 13,14 Z" style="fill:#f4f4f7;opacity:.2"/>
 </g>
</svg>
