<svg xmlns="http://www.w3.org/2000/svg" width="48" height="48" version="1">
 <circle style="opacity:0.2" cx="-34.648" cy="-7.778" r="17" transform="rotate(-135)"/>
 <circle style="fill:#33b67a" cx="-33.941" cy="-7.071" r="17" transform="rotate(-135)"/>
 <path style="opacity:0.2" d="m 8.1791026,42.09163 a 17,17 0 0 0 5.6122784,3.088388 c 0.131688,-0.253098 0.419646,-0.399211 0.832441,-0.36964 0.279364,0.01995 0.603986,-0.05944 0.72191,-0.177367 0.360444,-0.360445 0.588119,-1.239647 0.408287,-1.580317 -0.238613,-0.452584 0.246187,-0.705381 0.89471,-0.464364 0.299919,0.111193 0.824627,0.09256 1.165418,-0.04147 0.341992,-0.134032 0.729062,-0.215773 0.86069,-0.181514 0.131628,0.03306 0.385267,-0.08475 0.563776,-0.263256 0.249432,-0.249432 0.256044,-0.484439 0.03125,-1.008546 -0.160478,-0.375651 -0.403298,-0.774742 -0.539734,-0.887137 -0.783156,-0.648522 -0.415921,-1.115531 1.024774,-1.304859 0.765125,-0.100374 1.03379,-0.04929 1.205688,0.232002 0.160478,0.261452 0.335381,0.317349 0.640709,0.204354 0.322759,-0.12081 0.563777,-0.03005 1.039801,0.384666 0.468812,0.407505 0.753705,0.514491 1.157604,0.438759 0.295111,-0.05469 0.610057,-0.02344 0.702016,0.06852 0.0922,0.0922 0.426499,0.190891 0.742165,0.220462 0.642753,0.05974 0.809362,0.16745 0.741985,0.481133 -0.08967,0.415199 0.388933,0.638966 1.412205,0.660904 0.904567,0.01984 1.078929,-0.04261 1.393273,-0.496399 0.559328,-0.807438 0.795117,-1.78455 0.58343,-2.41937 -0.18482,-0.553859 -0.172198,-0.580905 0.28856,-0.593768 0.265239,-0.0076 0.632295,0.06732 0.815853,0.165527 0.530719,0.28309 0.45673,-0.101035 -0.176766,-0.919653 -0.648764,-0.83749 -0.610417,-1.337676 0.10398,-1.357751 0.39855,-0.01136 0.426137,-0.0607 0.310197,-0.56612 -0.225992,-0.988111 -0.941951,-1.237663 -0.771256,-0.268785 0.10957,0.622858 -0.251115,0.471336 -0.602243,-0.252437 -0.280085,-0.577 -0.373246,-0.653332 -0.846265,-0.686389 -0.97008,-0.06972 -0.869105,-1.300652 0.108788,-1.327699 0.622679,-0.01803 0.917189,-0.495258 0.578803,-0.940629 -0.14966,-0.19654 -0.348003,-0.717041 -0.441164,-1.157604 -0.09376,-0.439962 -0.24222,-0.873313 -0.329972,-0.961065 -0.08775,-0.08775 -0.159275,-0.511485 -0.159275,-0.94183 -6.02e-4,-0.872111 -0.187525,-1.169626 -0.61787,-0.985707 -0.516895,0.221183 -0.647922,0.471216 -0.683985,1.304258 -0.02945,0.662948 -0.433951,2.097632 -0.654533,2.318214 -0.135835,0.135836 -0.543942,-0.503071 -0.637103,-0.996525 -0.0577,-0.308935 -0.192934,-0.767529 -0.299319,-1.020567 -0.112995,-0.269267 -0.06852,-0.710431 0.106385,-1.066848 0.275877,-0.558367 0.256043,-0.650326 -0.244023,-1.150392 l -0.543341,-0.543341 0.894349,-1.059033 c 1.076464,-1.273606 1.220113,-1.605981 0.913582,-2.106047 -0.225391,-0.368438 -0.08234,-1.144983 0.27708,-1.504405 0.09557,-0.09557 0.54334,-0.116602 0.994722,-0.04628 0.559569,0.08715 0.899758,0.02584 1.074661,-0.192333 0.218779,-0.272873 0.313142,-0.255443 0.6353,0.118405 0.207359,0.241017 0.67557,0.551755 1.038598,0.688792 0.429745,0.162882 0.793374,0.441164 1.040402,0.796379 0.284292,0.408107 0.425537,0.501268 0.560771,0.366034 0.09977,-0.09977 0.407506,-0.164685 0.683984,-0.145452 0.682182,0.04868 0.699011,-0.269867 0.03666,-0.730264 -0.411112,-0.286096 -0.519299,-0.449579 -0.429143,-0.659943 0.191131,-0.447174 0.972484,-0.579403 1.198475,-0.203152 0.143048,0.239214 0.299919,0.265059 0.584813,0.09917 0.100373,-0.0595 0.206157,-0.08956 0.308935,-0.102177 a 17,17 0 0 0 -1.340321,-2.464267 c -0.0547,0.174903 -0.09076,0.348002 -0.07092,0.461599 0.09076,0.528315 -0.685187,0.889541 -1.213501,0.56558 -0.539134,-0.329972 -0.752503,0.02043 -0.334179,0.546947 0.367236,0.460998 0.388272,1.321087 0.03546,1.397419 -0.23681,0.05049 -0.611859,-0.366634 -1.223118,-1.357751 -0.276478,-0.447174 -0.695404,-0.522304 -2.451044,-0.443568 -1.01636,0.04628 -1.610789,-0.105783 -2.020098,-0.515092 -0.15627,-0.15627 -0.857084,-0.569786 -1.557897,-0.919592 -1.324093,-0.659342 -1.699744,-1.059034 -1.300653,-1.384798 0.829437,-0.677974 0.319153,-1.13777 -1.260983,-1.138371 -0.65814,-6.01e-4 -1.197273,-0.06371 -1.199076,-0.140043 -0.006,-0.295712 0.97068,-0.729062 1.573524,-0.697207 0.763923,0.04027 1.012153,-0.168291 0.839053,-0.703218 -0.09376,-0.293308 0.02524,-0.576999 0.447174,-1.060236 l 0.577,-0.65874 -0.50247,-0.50247 c -0.176105,-0.176105 -0.298117,-0.3462 -0.370843,-0.509082 A 17,17 0 0 0 7.3746696,16.620965 C 7.1655074,17.197964 6.9148734,17.422152 6.4767147,17.51892 a 17,17 0 0 0 -0.619673,0.72786 c 0.1039801,0.114799 0.2109653,0.231401 0.3449974,0.354614 0.6310928,0.580606 0.9111778,1.337917 0.6070512,1.642044 -0.064311,0.06431 -0.1141978,0.544543 -0.1105915,1.066246 0.00481,0.591424 -0.102177,1.003738 -0.2812871,1.093894 -0.1634831,0.08174 -0.2734736,0.367236 -0.2524371,0.656337 0.019834,0.281888 -0.066716,0.616066 -0.1929341,0.742285 -0.2013487,0.201349 -0.098571,0.354614 0.8498716,1.258579 l 1.0800703,1.028381 1.0211682,-1.057231 c 1.7886974,-1.851205 1.9900464,-2.594693 0.8492706,-3.126013 -0.5229054,-0.24282 -1.3577511,-1.289232 -1.4130468,-1.768863 -0.019834,-0.1737 0.1190061,-0.592626 0.309536,-0.931012 0.1893278,-0.338386 0.3714432,-1.071054 0.4020962,-1.628219 0.06371,-1.128755 0.2548413,-1.402829 1.2597814,-1.797112 0.876919,-0.344396 1.093894,0.01322 0.374448,0.618471 l -0.534926,0.450781 0.534926,0.366634 c 0.296915,0.20195 0.793374,0.330573 1.115532,0.2885 0.458594,-0.0595 0.589621,-0.0042 0.620875,0.263857 0.02164,0.187525 -0.06852,0.447174 -0.198343,0.576999 -0.129825,0.129825 -0.145452,0.402697 -0.03666,0.60645 0.10939,0.204354 0.08775,0.655135 -0.04928,1.002536 -0.218178,0.555963 -0.34079,0.670161 -1.007344,0.943634 -0.67557,0.277681 -0.75611,0.354614 -0.748897,0.714037 0.0072,0.32937 0.08895,0.42193 0.442967,0.510283 0.355215,0.08956 0.45078,0.204354 0.537931,0.646119 0.0577,0.29451 0.268065,0.700813 0.46761,0.900359 0.405703,0.405703 0.331174,0.725456 -0.321557,1.378186 -0.602844,0.602844 -0.4622,1.181046 0.472418,1.958191 0.648523,0.539134 0.740483,0.709228 0.850473,1.557297 0.06852,0.524107 -0.01202,1.539866 -0.17911,2.259913 -0.167089,0.720047 -0.332977,1.480965 -0.368438,1.690728 -0.05229,0.302323 -0.253038,0.441765 -0.980298,0.679777 l -0.915986,0.298116 0.741084,0.564377 c 1.318082,1.00434 1.703349,1.089086 1.471948,0.321557 -0.09076,-0.298717 -0.04568,-0.360624 0.278282,-0.384065 0.211567,-0.01443 0.437558,-0.147856 0.501268,-0.296914 0.06311,-0.148457 0.367236,-0.344396 0.674368,-0.435153 0.308334,-0.09076 0.678575,-0.279484 0.82583,-0.419527 0.459195,-0.436356 1.58254,-0.02585 2.389738,0.876317 1.223118,1.366166 1.348735,1.450913 2.235271,1.48397 1.108319,0.04087 1.430477,-0.133431 1.658271,-0.896152 0.221784,-0.739881 -0.04688,-1.39201 -0.88353,-2.149321 -0.748296,-0.677373 -0.765726,-0.821022 -0.131628,-1.129356 0.539134,-0.261453 1.158206,0.04989 1.223719,0.615466 0.04989,0.435754 1.036194,1.123946 1.575328,1.098101 0.22539,-0.01022 0.695404,-0.160478 1.042205,-0.332976 0.598636,-0.298117 0.67016,-0.281888 1.408238,0.326365 0.737477,0.60645 0.780752,0.693 0.818618,1.621608 0.04267,1.035593 -0.245826,1.506809 -1.159408,1.901092 -0.405101,0.174301 -0.537931,0.136436 -0.789166,-0.227795 -0.498263,-0.720648 -0.950246,-0.749498 -1.601173,-0.09857 -0.315546,0.315546 -0.549351,0.671963 -0.518698,0.79157 0.03005,0.119006 -0.07573,0.347402 -0.236209,0.50788 -0.160478,0.160478 -0.290303,0.444169 -0.287899,0.628087 0.0042,0.268665 -0.08655,0.319754 -0.457993,0.256044 -0.25424,-0.04388 -0.570387,-0.218178 -0.702616,-0.38647 -0.131628,-0.16769 -0.610658,-0.516895 -1.063843,-0.776544 -0.653932,-0.376252 -0.910576,-0.422532 -1.251366,-0.221183 -0.64672,0.382262 -1.382394,0.472418 -1.652863,0.201949 -0.42734,-0.42734 -1.441295,0.568585 -2.487707,2.445635 -0.154468,0.27708 -0.122613,0.58301 0.101576,0.955054 0.181514,0.301723 0.279484,0.729062 0.217096,0.950125 -0.06299,0.220462 -0.03354,0.480713 0.06443,0.578682 0.09797,0.09797 0.172379,0.407025 0.164325,0.685547 -0.0078,0.280686 0.157713,0.678936 0.372284,0.893508 0.50788,0.507879 0.166609,0.865979 -0.521463,0.546706 -0.726898,-0.336943 -1.29957,-1.42074 -1.079048,-2.041555 0.299378,-0.841517 -0.239755,-0.904626 -1.198355,-0.139562 -1.185553,0.946339 -1.859741,0.884853 -3.0191481,-0.274555 L 8.2950433,40.697877 8.295404,41.428381 C 8.2950433,41.655935 8.2501456,41.88956 8.1791026,42.09163 Z M 4.235614,37.392152 c 0.044597,0.0023 0.084747,0.0078 0.1313274,0.0069 0.5635359,-0.0058 0.735133,0.08469 1.1003254,0.581387 0.6377643,0.867242 0.8439814,0.46749 0.3767924,-0.731406 C 5.5916822,36.601062 5.5274911,36.08585 5.6570754,35.759125 6.2831195,34.183436 6.5488396,33.263784 6.4448596,33.039595 6.2350963,32.58581 5.7924899,32.632931 5.0926381,33.184927 4.2897678,33.818304 3.8947037,33.727727 3.850948,32.898772 3.8338183,32.576914 3.7216641,32.215448 3.602057,32.095841 3.2288107,31.722595 3.1027724,31.296878 3.3051428,31.094507 3.4117675,30.987883 3.5424938,30.604719 3.5959264,30.242352 3.6740617,29.708628 3.5929212,29.480833 3.1673843,29.055296 2.6450799,28.532992 2.4226948,28.114667 2.1299879,27.09951 2.1251779,27.08388 2.1167649,27.07186 2.1119569,27.05624 A 17,17 0 0 0 4.235614,37.392152 Z m 26.731288,3.677769 a 17,17 0 0 0 0.05403,-0.04935 17,17 0 0 0 2.074432,-2.543965 c -0.258207,-0.612821 -0.448857,-0.662828 -0.899156,-0.302924 -0.233144,0.186382 -0.580065,0.314284 -0.77372,0.285314 -0.298778,-0.04514 -0.332676,0.05079 -0.220823,0.643474 0.07237,0.383704 0.02542,0.880104 -0.104521,1.102369 -0.125978,0.215413 -0.161079,0.552957 -0.130245,0.865078 z m 0.189869,-7.757092 c 0.100974,0.123814 0.296493,0.199124 0.591003,0.205135 0.622017,0.01376 1.185252,-0.645518 1.066607,-1.2474 -0.135775,-0.689935 -0.37559,-0.768671 -0.938766,-0.310077 -0.694202,0.565579 -0.939426,1.08007 -0.718844,1.352342 z m -0.222385,-3.85748 c 0.126819,0.118405 0.349805,0.165887 0.67016,0.116001 0.339588,-0.05229 0.631694,-0.266261 0.961064,-0.705021 0.404501,-0.540336 0.534926,-0.611859 0.908774,-0.491651 0.480231,0.155669 1.031386,-0.25965 1.019966,-0.768731 -0.01082,-0.506077 -0.322158,-0.687591 -0.750099,-0.437558 -0.609455,0.357018 -1.373378,-0.293909 -1.422663,-1.211097 -0.02104,-0.391278 -0.09557,-0.653332 -0.166489,-0.582409 -0.07092,0.07092 -0.114197,0.543341 -0.09496,1.048215 0.02825,0.77354 -0.0559,1.006744 -0.535527,1.486374 -0.676772,0.676772 -0.869105,1.283823 -0.590222,1.545877 z m 4.902028,1.798254 a 17,17 0 0 0 0.07279,-0.62923 c -0.0449,0.208742 -0.07279,0.423674 -0.07279,0.62923 z m -2.20576,-5.89615 c 0.08174,0.03967 0.183919,-0.01082 0.317951,-0.144851 0.135835,-0.135835 0.364832,-0.191732 0.509081,-0.124415 0.192334,0.08895 0.387672,-0.04147 0.722451,-0.484439 0.06251,-0.08294 0.117804,-0.14425 0.174903,-0.208561 a 17,17 0 0 0 -0.243421,-0.75671 c -0.199546,0.216374 -0.482035,0.423132 -0.897354,0.620875 -0.705021,0.335981 -0.842058,0.459796 -0.783156,0.701414 0.0553,0.225992 0.117203,0.356417 0.199545,0.396687 z"/>
 <path style="fill:#f4f4f7;opacity:0.1" d="M 19.248047 12.001953 A 17 17 0 0 0 6.9785156 16.978516 A 17 17 0 0 0 2.0253906 29.396484 A 17 17 0 0 1 6.9785156 17.978516 A 17 17 0 0 1 31.021484 17.978516 A 17 17 0 0 1 35.974609 29.603516 A 17 17 0 0 0 31.021484 16.978516 A 17 17 0 0 0 19.248047 12.001953 z"/>
 <path style="opacity:0.2" d="M 41.4375 3.0253906 C 41.183189 3.0193106 40.920682 3.0250142 40.648438 3.0429688 C 35.96732 3.3539683 29.327932 7.1735109 23.59375 12.648438 C 23.977584 12.75626 24.355724 12.879363 24.730469 13.013672 C 27.522527 10.813581 30.556333 9.1300436 33.097656 8.0253906 C 34.27225 7.5148223 36.682807 6.5782242 38.455078 6.46875 C 40.719352 6.3288844 42.213705 7.267427 41.683594 9.2460938 C 41.004318 11.705622 38.837396 15.577815 35.322266 19.470703 C 31.807135 23.363591 27.018323 27.474378 23.447266 29.363281 L 25.574219 33.238281 C 29.752857 30.586378 34.345578 26.52005 38.291016 22.150391 C 45.932027 13.687616 48.250046 5.294307 43.46875 3.4023438 C 42.881816 3.1696186 42.200433 3.0436387 41.4375 3.0253906 z M 22.755859 13.435547 C 23.127161 13.519367 23.499149 13.601945 23.865234 13.710938 C 23.865937 13.710345 23.866485 13.709577 23.867188 13.708984 C 23.500148 13.599659 23.128143 13.519569 22.755859 13.435547 z"/>
 <path style="fill:#a91f1f" d="M 41.4375,2.0253906 C 41.183189,2.0193106 40.920682,2.025014 40.648438,2.0429686 35.740462,2.36904 28.667722,6.5294496 22.755859,12.435547 c 0.371302,0.08382 0.74329,0.166399 1.109375,0.275391 3.017221,-2.548057 6.426923,-4.4660637 9.232422,-5.6855476 1.174594,-0.5105683 3.585469,-1.4478774 5.35774,-1.5573516 2.264274,-0.1398656 3.758309,0.799388 3.228198,2.7780548 -0.679276,2.4595284 -2.846198,6.3317214 -6.361328,10.2246094 -3.515131,3.892888 -8.303795,8.002895 -11.874852,9.891798 L 25.57374,32.2389 C 29.752378,29.586997 34.345578,25.52005 38.291016,21.150391 45.932027,12.687616 48.250046,4.2943071 43.46875,2.4023438 42.881816,2.1696186 42.200433,2.0436387 41.4375,2.0253906 Z"/>
 <path style="opacity:0.1;fill:#f4f4f7" d="M 41.4375 2.0253906 C 41.183189 2.0193106 40.920682 2.0250142 40.648438 2.0429688 C 35.740462 2.3690402 28.667722 6.5294495 22.755859 12.435547 C 23.037606 12.49915 23.317999 12.570275 23.597656 12.644531 C 29.33093 7.1716591 35.96841 3.3538959 40.648438 3.0429688 C 40.920682 3.0250142 41.183189 3.0193106 41.4375 3.0253906 C 42.200433 3.0436387 42.881816 3.1696186 43.46875 3.4023438 C 45.020221 4.0162624 45.812532 5.3226883 45.929688 7.0859375 C 46.083064 4.8125568 45.30145 3.1275448 43.46875 2.4023438 C 42.881816 2.1696186 42.200433 2.0436387 41.4375 2.0253906 z M 41.724609 7.9824219 C 41.70842 8.07182 41.708806 8.1519893 41.683594 8.2460938 C 41.004318 10.705622 38.837396 14.577815 35.322266 18.470703 C 31.807135 22.363591 27.018323 26.474378 23.447266 28.363281 L 23.863281 29.121094 C 27.385088 27.146181 31.938622 23.217974 35.322266 19.470703 C 38.837396 15.577815 41.004318 11.705622 41.683594 9.2460938 C 41.813285 8.7620158 41.81886 8.3414946 41.724609 7.9824219 z"/>
 <circle style="opacity:0.2" cx="25" cy="31" r="9"/>
 <circle style="fill:#e13c3c" cx="25" cy="30" r="9"/>
 <circle style="opacity:0.2" cx="25" cy="31" r="6"/>
 <circle style="fill:#ffa833" cx="25" cy="30" r="6"/>
 <circle style="opacity:0.2" cx="25" cy="31" r="3"/>
 <circle style="fill:#f4f4f7" cx="25" cy="30" r="3"/>
 <path style="opacity:0.2;fill:#f4f4f7" d="M 25 24 A 6 6 0 0 0 19 30 A 6 6 0 0 0 19.025391 30.498047 A 6 6 0 0 1 25 25 A 6 6 0 0 1 30.974609 30.501953 A 6 6 0 0 0 31 30 A 6 6 0 0 0 25 24 z"/>
</svg>
