<svg xmlns="http://www.w3.org/2000/svg" width="48" height="48" version="1.1">
 <rect style="opacity:0.2" width="32" height="24" x="-43" y="-36" rx="2" ry="2" transform="matrix(0,-1,-1,0,0,0)"/>
 <rect fill="#8e8e8e" width="32" height="24" x="-42" y="-36" rx="2" ry="2" transform="matrix(0,-1,-1,0,0,0)"/>
 <rect style="opacity:0.2" width="32" height="40" x="-39" y="-44" rx="2" ry="2" transform="matrix(0,-1,-1,0,0,0)"/>
 <rect style="fill:#4f4f4f" width="32" height="40" x="-38" y="-44" rx="2" ry="2" transform="matrix(0,-1,-1,0,0,0)"/>
 <path style="fill:#333333" transform="matrix(0,-1,-1,0,0,0)" d="M -34.029126,-39.58782 -9,-41 l 0,34 -26,0 z"/>
 <path fill="#f4f4f7" style="opacity:0.1" d="m6 6c-1.108 0-2 0.892-2 2v1c0-1.108 0.892-2 2-2h36c1.108 0 2 0.892 2 2v-1c0-1.108-0.892-2-2-2h-36z"/>
 <path style="opacity:0.2" d="M 41,10 7,36 39.255859,36 C 39.255859,36 41,36 41,34.375 L 41,10 Z m -7,14 0,6 -8,0 8,-6 z"/>
 <path style="fill:#cd3840" d="M 41 9 L 7 35 L 39.255859 35 C 39.255859 35 41 35 41 33.375 L 41 9 z M 34 23 L 34 29 L 26 29 L 34 23 z"/>
 <path style="fill:#f4f4f7;opacity:0.2" d="M 41 9 L 7 35 L 8.3085938 35 L 41 10 L 41 9 z M 27.333984 29 L 26 30 L 34 30 L 34 29 L 27.333984 29 z"/>
</svg>
