<svg xmlns="http://www.w3.org/2000/svg" width="48" height="48" version="1">
 <rect style="opacity:0.2" width="40" height="40" x="4" y="5" rx="12" ry="12"/>
 <rect style="fill:#b2bfd9" width="40" height="40" x="4" y="4" rx="12" ry="12"/>
 <path style="opacity:0.2;fill:#f4f4f7" d="M 16,4 C 9.352,4 4,9.352 4,16 v 1 C 4,10.352 9.352,5 16,5 h 16 c 6.648,0 12,5.352 12,12 V 16 C 44,9.352 38.648,4 32,4 Z"/>
 <path style="opacity:0.1" d="m 21.949493,15.000141 c -0.21239,0.0231 -0.39947,0.19653 -0.43828,0.40625 l -0.42263,2.1406 c -0.75874,0.29619 -1.4718,0.70312 -2.0975,1.2031 l -2.0818,-0.70312 c -0.21628,-0.0745 -0.4786,0.022 -0.59481,0.21875 l -2.0036,3.4688 c -0.11286,0.19951 -0.06441,0.4756 0.10957,0.625 l 1.6592,1.4531 c -0.0584,0.38964 -0.09392,0.78161 -0.09392,1.1875 0,0.40589 0.03551,0.79786 0.09392,1.1875 l -1.6592,1.4531 c -0.17403,0.14939 -0.22243,0.42549 -0.10957,0.625 l 2.0036,3.468699 c 0.11621,0.19672 0.37852,0.2932 0.59481,0.21875 l 2.0818,-0.70312 c 0.62572,0.5 1.3387,0.90693 2.0975,1.2031 l 0.42263,2.1406 c 0.04278,0.22408 0.25672,0.40314 0.48524,0.40625 h 4.0071 c 0.22852,-0.003 0.44239,-0.18217 0.48524,-0.40625 l 0.42263,-2.1406 c 0.75873,-0.2962 1.4718,-0.70312 2.0975,-1.2031 l 2.0818,0.70312 c 0.21628,0.0745 0.47861,-0.02209 0.59481,-0.21875 l 2.0036,-3.468699 c 0.11285,-0.19951 0.06442,-0.47561 -0.10957,-0.625 l -1.6592,-1.4531 c 0.0584,-0.38964 0.09392,-0.78161 0.09392,-1.1875 0,-0.40589 -0.03551,-0.79786 -0.09392,-1.1875 l 1.6592,-1.4531 c 0.17402,-0.1494 0.22242,-0.42549 0.10957,-0.625 l -2.0036,-3.4688 c -0.1162,-0.19672 -0.37852,-0.2932 -0.59481,-0.21875 l -2.0818,0.70312 c -0.62572,-0.5 -1.3388,-0.90694 -2.0975,-1.2031 l -0.42263,-2.1406 c -0.04288,-0.22408 -0.25672,-0.40315 -0.48524,-0.40625 h -4.0071 c -0.01563,-5.1e-4 -0.03134,-5.1e-4 -0.04695,0 z m 2.0505,6 c 2.2132,0 4.0071,1.7908 4.0071,4 0,2.2092 -1.794,4 -4.0071,4 -2.2131,0 -4.0071,-1.7908 -4.0071,-4 0,-2.2092 1.794,-4 4.0071,-4 z"/>
 <path style="fill:#757575" d="m 21.949493,14.000262 c -0.21239,0.0231 -0.39947,0.19653 -0.43828,0.40625 l -0.42263,2.1406 c -0.75874,0.29619 -1.4718,0.70312 -2.0975,1.2031 l -2.0818,-0.70312 c -0.21628,-0.0745 -0.4786,0.022 -0.59481,0.21875 l -2.0036,3.4688 c -0.11286,0.19951 -0.06441,0.4756 0.10957,0.625 l 1.6592,1.4531 c -0.0584,0.38964 -0.09392,0.78161 -0.09392,1.1875 0,0.40589 0.03551,0.79786 0.09392,1.1875 l -1.6592,1.4531 c -0.17403,0.14939 -0.22243,0.42549 -0.10957,0.625 l 2.0036,3.468699 c 0.11621,0.19672 0.37852,0.2932 0.59481,0.21875 l 2.0818,-0.70312 c 0.62572,0.5 1.3387,0.90693 2.0975,1.2031 l 0.42263,2.1406 c 0.04278,0.22408 0.25672,0.40314 0.48524,0.40625 h 4.0071 c 0.22852,-0.003 0.44239,-0.18217 0.48524,-0.40625 l 0.42263,-2.1406 c 0.75873,-0.2962 1.4718,-0.70312 2.0975,-1.2031 l 2.0818,0.70312 c 0.21628,0.0745 0.47861,-0.02209 0.59481,-0.21875 l 2.0036,-3.468699 c 0.11285,-0.19951 0.06442,-0.47561 -0.10957,-0.625 l -1.6592,-1.4531 c 0.0584,-0.38964 0.09392,-0.78161 0.09392,-1.1875 0,-0.40589 -0.03551,-0.79786 -0.09392,-1.1875 l 1.6592,-1.4531 c 0.17402,-0.1494 0.22242,-0.42549 0.10957,-0.625 l -2.0036,-3.4688 c -0.1162,-0.19672 -0.37852,-0.2932 -0.59481,-0.21875 l -2.0818,0.70312 c -0.62572,-0.5 -1.3388,-0.90694 -2.0975,-1.2031 l -0.42263,-2.1406 c -0.04288,-0.22408 -0.25672,-0.40315 -0.48524,-0.40625 h -4.0071 c -0.01563,-5.1e-4 -0.03134,-5.1e-4 -0.04695,0 z m 2.0505,6 c 2.2132,0 4.0071,1.7908 4.0071,4 0,2.2092 -1.794,4 -4.0071,4 -2.2131,0 -4.0071,-1.7908 -4.0071,-4 0,-2.2092 1.794,-4 4.0071,-4 z"/>
</svg>
