<svg xmlns="http://www.w3.org/2000/svg" width="48" height="48" version="1">
 <path style="opacity:0.2" d="m 8,31 v 6.444445 C 8,38.306222 8.7136,39 9.6,39 H 38.4 C 39.2864,39 40,38.306222 40,37.444445 V 31 Z"/>
 <path style="fill:#ff766a" d="M 40,36.444445 V 11.555556 C 40,10.693778 39.2864,10 38.4,10 H 9.6 C 8.7136,10 8,10.693778 8,11.555556 V 36.444445 C 8,37.306222 8.7136,38 9.6,38 h 28.8 c 0.8864,0 1.6,-0.693778 1.6,-1.555555 z"/>
 <path style="fill:#f4f4f7;opacity:0.2" d="M 9.5996094 10 C 8.7132094 10 8 10.692909 8 11.554688 L 8 12.554688 C 8 11.692909 8.7132094 11 9.5996094 11 L 38.400391 11 C 39.286791 11 40 11.69291 40 12.554688 L 40 11.554688 C 40 10.69291 39.286791 10 38.400391 10 L 9.5996094 10 z"/>
 <path style="opacity:0.2;fill-rule:evenodd" d="M 30.5,17 C 32.985275,17 35,19.014725 35,21.5 35,23.985275 32.985275,26 30.5,26 28.014725,26 26,23.985275 26,21.5 26,19.014725 28.014725,17 30.5,17 Z"/>
 <path style="fill:#fffee4;fill-rule:evenodd" d="M 30.5,16 C 32.985275,16 35,18.014725 35,20.5 35,22.985275 32.985275,25 30.5,25 28.014725,25 26,22.985275 26,20.5 26,18.014725 28.014725,16 30.5,16 Z"/>
 <path style="fill:#d22f7a" d="m 8,30 v 6.444445 C 8,37.306222 8.7136,38 9.6,38 H 38.4 C 39.2864,38 40,37.306222 40,36.444445 V 30 Z"/>
 <path style="fill:#3f3f3f" d="m 8,30 v -1.04258 c 0,0 2.3076,-1.737361 2.9564,-1.888868 0.648776,-0.15158 1.41496,-0.0282 2.20232,0.141246 0.787416,0.168883 1.96296,0.972625 2.32984,0.9869 0.366896,0.01459 1.0308,-0.03649 1.80224,-0.08966 0.771424,-0.05208 2.04872,-0.10008 2.44712,-0.09486 0.3984,0 1.39296,0.06257 2.4532,0.136348 1.06016,0.07398 2.5164,0.197651 2.84672,0.232258 0.330392,0.03439 0.718752,0.09799 1.15952,0.167316 0.44072,0.06878 1.20368,0.172731 1.47368,0.201301 0.269912,0.02809 0.89568,0.126241 1.62176,0.202441 0.726064,0.07607 1.888,0.102159 2.22352,0.07398 0.335552,-0.0282 1.03888,-0.311205 1.82272,-0.572343 0.7838,-0.261027 1.64808,-0.500064 2.30544,-0.440957 C 36.30188,28.071892 40,28.957347 40,28.957347 v 1.042489 H 11.8864 Z"/>
 <path style="opacity:0.2" d="M 5.9785156,6.98081 A 2.0002,2.0002 0 0 0 4,9.2601068 v 7.7402342 a 2.0002,2.0002 0 1 0 4,0 v -3.171875 l 6.585938,6.585937 a 2.0002,2.0002 0 1 0 2.828124,-2.828124 L 10.828125,11.000341 H 14 A 2.0002,2.0002 0 1 0 14,7.0003412 H 6.2460938 A 2.0002,2.0002 0 0 0 5.9785156,6.98081 Z m 26.0000004,22 a 2.0002,2.0002 0 0 0 -1.392578,3.433593 l 6.585937,6.585938 H 34 a 2.0002,2.0002 0 1 0 0,4 h 7.753906 A 2.0002,2.0002 0 0 0 44,40.740575 v -7.740234 a 2.0002,2.0002 0 1 0 -4,0 v 3.171875 L 33.414062,29.586279 A 2.0002,2.0002 0 0 0 31.978516,28.98081 Z"/>
 <path style="fill:none;stroke:#b2bfd9;stroke-width:4;stroke-linecap:round;stroke-linejoin:round" d="M 6.0002265,7.9998708 16.000227,18 M 6.0002265,15.999871 V 7.9998708 h 8.0000005 v 0 0 0"/>
 <path style="fill:none;stroke:#b2bfd9;stroke-width:4;stroke-linecap:round;stroke-linejoin:round" d="M 42,40 32,30 m 10,2 v 8 h -8 v 0 0 0"/>
 <rect style="opacity:0.1;fill:#f4f4f7" width="32" height="1" x="8" y="30"/>
 <path style="opacity:0.2;fill:#f4f4f7" d="M 5.9785156 5.9804688 A 2.0002 2.0002 0 0 0 4 8.2597656 L 4 8.71875 A 2.0002 2.0002 0 0 1 5.9785156 6.9804688 A 2.0002 2.0002 0 0 1 6.2460938 7 L 14 7 A 2.0002 2.0002 0 0 1 15.962891 8.5 A 2.0002 2.0002 0 0 0 14 6 L 6.2460938 6 A 2.0002 2.0002 0 0 0 5.9785156 5.9804688 z M 10.828125 11 L 17.414062 17.585938 A 2.0002 2.0002 0 0 1 17.962891 18.53125 A 2.0002 2.0002 0 0 0 17.414062 16.585938 L 11.828125 11 L 10.828125 11 z M 31.978516 27.980469 A 2.0002 2.0002 0 0 0 30.044922 30.480469 A 2.0002 2.0002 0 0 1 31.978516 28.980469 A 2.0002 2.0002 0 0 1 33.414062 29.585938 L 40 36.171875 L 40 35.171875 L 33.414062 28.585938 A 2.0002 2.0002 0 0 0 31.978516 27.980469 z M 41.970703 29.972656 A 2.0002 2.0002 0 0 0 40 32 L 40 33 A 2.0002 2.0002 0 1 1 44 33 L 44 32 A 2.0002 2.0002 0 0 0 41.970703 29.972656 z M 34 38 A 2.0002 2.0002 0 0 0 32.037109 40.5 A 2.0002 2.0002 0 0 1 34 39 L 37.171875 39 L 36.171875 38 L 34 38 z M 44 39.740234 L 44 40.277344 A 2.0002 2.0002 0 0 0 44 39.740234 z"/>
</svg>
