<svg xmlns="http://www.w3.org/2000/svg" width="48" height="48" version="1.1">
 <path style="opacity:0.2" d="m 17.826474,7.0059785 c -0.199279,0.01217 -0.400873,0.043915 -0.601534,0.097719 -1.60529,0.4304355 -2.551128,2.0717515 -2.12099,3.6781585 l 1.165958,4.358286 c -1.011478,0.602668 -1.949053,1.294704 -2.822128,2.042336 l -3.322105,-3.324414 c -1.1751551,-1.175972 -3.0687811,-1.175972 -4.2439357,0 -1.1751546,1.175972 -1.1751546,3.068959 0,4.244931 l 3.3553063,3.357638 c -1.4831433,1.663519 -2.843738,3.220563 -4.1931563,4.241023 -1.3918483,1.02265 -1.3918484,3.579932 0,4.602583 5.9563047,3.708624 9.9559927,12.721761 18.9541607,12.695705 6.61e-4,-2e-6 0.0032,2e-6 0.0039,0 8.998168,0.02606 12.997856,-8.987081 18.954161,-12.695705 1.391848,-1.022651 1.391848,-3.579933 0,-4.602583 -1.348879,-1.020041 -2.708778,-2.576333 -4.191204,-4.239069 l 3.35726,-3.359592 c 1.175154,-1.175972 1.175154,-3.068959 0,-4.244931 -1.175155,-1.175972 -3.066828,-1.175972 -4.241983,0 l -3.32601,3.328323 c -0.867939,-0.743479 -1.797953,-1.434006 -2.802593,-2.034518 l 1.169865,-4.370013 c 0.430136,-1.6064067 -0.5157,-3.2477226 -2.120991,-3.6781581 -1.60529,-0.4304354 -3.243514,0.518013 -3.67365,2.1244198 l -1.042919,3.8970503 c -0.667375,-0.09172 -1.360352,-0.144536 -2.083883,-0.144625 l -0.002,0 c -0.714394,8.6e-5 -1.39692,0.05318 -2.056541,0.142671 L 20.898591,9.2281177 C 20.522221,7.8225117 19.221418,6.9207913 17.826474,7.0059785 Z"/>
 <path style="fill:#ef9202" d="m 17.826474,6.0059789 c -0.199279,0.01217 -0.400873,0.043915 -0.601534,0.097719 -1.60529,0.4304355 -2.551128,2.0717515 -2.12099,3.6781584 l 1.165958,4.3582857 c -1.011478,0.602668 -1.949053,1.294704 -2.822128,2.042336 l -3.322105,-3.324414 c -1.1751551,-1.175972 -3.0687811,-1.175972 -4.2439357,0 -1.1751546,1.175972 -1.1751546,3.068959 0,4.244931 l 3.3553063,3.357638 c -1.4831433,1.663519 -2.843738,3.220563 -4.1931563,4.241023 -1.3918483,1.02265 -1.3918484,3.579932 0,4.602583 5.9563047,3.708624 9.9559927,12.721761 18.9541607,12.695705 6.61e-4,-2e-6 0.0032,2e-6 0.0039,0 8.998168,0.02606 12.997856,-8.987081 18.954161,-12.695705 1.391848,-1.022651 1.391848,-3.579933 0,-4.602583 -1.348879,-1.020041 -2.708778,-2.576333 -4.191204,-4.239069 l 3.35726,-3.359592 c 1.175154,-1.175972 1.175154,-3.068959 0,-4.244931 -1.175155,-1.175972 -3.066828,-1.175972 -4.241983,0 l -3.32601,3.328323 c -0.867939,-0.743479 -1.797953,-1.434006 -2.802593,-2.034518 l 1.169865,-4.3700123 c 0.430136,-1.606407 -0.5157,-3.2477229 -2.120991,-3.6781584 -1.60529,-0.4304354 -3.243514,0.518013 -3.67365,2.1244198 l -1.042919,3.8970499 c -0.667375,-0.09172 -1.360352,-0.144536 -2.083883,-0.144625 l -0.002,0 c -0.714394,8.6e-5 -1.39692,0.05318 -2.056541,0.142671 L 20.898591,8.2281181 C 20.522221,6.8225121 19.221418,5.9207917 17.826474,6.0059789 Z"/>
 <path style="fill:#278cd7" d="M 24 16 A 11 11 0 0 0 13 27 A 11 11 0 0 0 24 38 A 11 11 0 0 0 34.572266 30 L 29.189453 30 A 6 6 0 0 1 24 33 A 6 6 0 0 1 18 27 A 6 6 0 0 1 24 21 A 6 6 0 0 1 29.1875 24 L 34.580078 24 A 11 11 0 0 0 24 16 z"/>
 <path style="opacity:0.2;fill:#f4f4f7" d="M 17.826172 6.0058594 C 17.626893 6.0180294 17.42527 6.0497116 17.224609 6.1035156 C 15.72092 6.5067085 14.812235 7.9723617 15.054688 9.4765625 C 15.252368 8.3665022 16.060937 7.4155377 17.224609 7.1035156 C 17.42527 7.0497116 17.626893 7.0180294 17.826172 7.0058594 C 19.221116 6.9206722 20.522067 7.8229096 20.898438 9.2285156 L 21.941406 13.123047 C 22.601027 13.033556 23.283653 12.980555 23.998047 12.980469 L 24 12.980469 C 24.723531 12.980558 25.416609 13.03328 26.083984 13.125 L 27.126953 9.2285156 C 27.557089 7.6221088 29.195491 6.6730802 30.800781 7.1035156 C 31.964454 7.4155377 32.773023 8.3665024 32.970703 9.4765625 C 33.213155 7.9723617 32.304472 6.5067085 30.800781 6.1035156 C 29.195491 5.6730802 27.557089 6.6221088 27.126953 8.2285156 L 26.083984 12.125 C 25.416609 12.03328 24.723531 11.980558 24 11.980469 L 23.998047 11.980469 C 23.283653 11.980555 22.601027 12.033556 21.941406 12.123047 L 20.898438 8.2285156 C 20.522067 6.8229096 19.221116 5.9206722 17.826172 6.0058594 z M 8.0039062 11.976562 C 7.236711 11.976562 6.4684367 12.269436 5.8808594 12.857422 C 5.1649596 13.57382 4.8905278 14.556086 5.046875 15.480469 C 5.1471728 14.887471 5.4216046 14.316996 5.8808594 13.857422 C 7.056014 12.68145 8.9498449 12.68145 10.125 13.857422 L 13.447266 17.181641 C 14.320341 16.434009 15.258053 15.743293 16.269531 15.140625 L 16.042969 14.291016 C 15.120441 14.85955 14.252642 15.49198 13.447266 16.181641 L 10.125 12.857422 C 9.5374225 12.269436 8.7711015 11.976562 8.0039062 11.976562 z M 40.001953 11.976562 C 39.235246 11.976562 38.468437 12.269436 37.880859 12.857422 L 34.554688 16.185547 C 33.754447 15.500058 32.894132 14.869146 31.978516 14.302734 L 31.751953 15.152344 C 32.756593 15.752856 33.686749 16.442068 34.554688 17.185547 L 37.880859 13.857422 C 39.056014 12.68145 40.947892 12.68145 42.123047 13.857422 C 42.582301 14.316996 42.856733 14.887471 42.957031 15.480469 C 43.113378 14.556086 42.838946 13.57382 42.123047 12.857422 C 41.535469 12.269436 40.76866 11.976562 40.001953 11.976562 z M 8.7597656 20.984375 C 7.4640758 22.437682 6.2427171 23.793896 5.0429688 24.701172 C 4.2160396 25.308752 3.8931619 26.456601 4.0488281 27.503906 C 4.1549344 26.78789 4.477669 26.116522 5.0429688 25.701172 C 6.392387 24.680712 7.7531848 23.124457 9.2363281 21.460938 L 8.7597656 20.984375 z M 39.242188 20.986328 L 38.765625 21.462891 C 40.248051 23.125627 41.608152 24.681131 42.957031 25.701172 C 43.522331 26.116522 43.845066 26.78789 43.951172 27.503906 C 44.106838 26.456601 43.78396 25.308752 42.957031 24.701172 C 41.757892 23.794366 40.537087 22.438765 39.242188 20.986328 z"/>
 <path style="opacity:0.1" d="M 24 16 A 11 11 0 0 0 13 27 A 11 11 0 0 0 13.021484 27.414062 A 11 11 0 0 1 24 17 A 11 11 0 0 1 34.242188 24 L 34.580078 24 A 11 11 0 0 0 24 16 z M 18.025391 27.498047 A 6 6 0 0 0 18 28 A 6 6 0 0 0 24 34 A 6 6 0 0 0 29.189453 31 L 34.236328 31 A 11 11 0 0 0 34.572266 30 L 29.189453 30 A 6 6 0 0 1 24 33 A 6 6 0 0 1 18.025391 27.498047 z"/>
</svg>
