<svg xmlns="http://www.w3.org/2000/svg" width="48" height="48" version="1">
 <path opacity=".2" d="m43.979 24.418a20 20 0 0 1 -19.979 19.582 20 20 0 0 1 -19.978 -19.418 20 20 0 0 0 -0.022 0.418 20 20 0 0 0 20 20 20 20 0 0 0 20 -20 20 20 0 0 0 -0.021 -0.582z"/>
 <path fill="#4f4f4f" d="m44 24a20 20 0 0 1 -20 20 20 20 0 0 1 -20 -20 20 20 0 0 1 20 -20 20 20 0 0 1 20 20z"/>
 <path style="opacity:0.2" d="M 35.160156 15.003906 C 33.180742 14.934666 31.318465 16.84554 30.099609 17.701172 C 28.640133 17.259383 26.527542 17.014494 24.941406 17 C 23.372281 16.98566 21.331372 17.196607 19.599609 17.701172 C 17.98855 16.943468 16.389805 14.962414 14.580078 15.046875 C 13.549378 17.731075 14.201264 19.713731 14.396484 20.207031 C 13.185684 21.569427 13 23.310853 13 25.439453 C 13 32.912453 16.867313 34.586025 21.070312 35.078125 C 20.529972 35.565395 20.201297 36.428 20.029297 37.6875 C 18.950997 38.18674 16.448166 39.046206 14.759766 36.066406 C 14.759766 36.066406 13.759255 34.192287 11.859375 34.054688 C 11.859375 34.054687 10.011879 34.031048 11.730469 35.240234 C 11.730469 35.240234 12.971031 35.84059 13.832031 38.09375 C 13.832031 38.09375 14.727086 41.887084 19.992188 40.708984 C 19.994044 41.031287 19.994729 42.370383 19.996094 43.59375 A 20 20 0 0 0 24 44 A 20 20 0 0 0 30.003906 43.054688 C 30.006796 41.25872 30.009766 39.415092 30.009766 38.675781 C 30.009766 36.857181 29.336843 35.666653 28.658203 35.064453 C 32.874003 34.581973 37 32.931653 37 25.439453 C 37 23.310853 36.865474 21.569431 35.652344 20.207031 C 35.846404 19.713781 36.497864 17.731075 35.464844 15.046875 C 35.464844 15.046875 35.365314 15.013526 35.160156 15.003906 z"/>
 <path style="fill:#f4f4f7" d="M 35.160156 14.003906 C 33.180742 13.934666 31.318465 15.84554 30.099609 16.701172 C 28.640133 16.259383 26.527542 16.014494 24.941406 16 C 23.372281 15.98566 21.331372 16.196607 19.599609 16.701172 C 17.98855 15.943468 16.389805 13.962414 14.580078 14.046875 C 13.549378 16.731075 14.201264 18.713731 14.396484 19.207031 C 13.185684 20.569427 13 22.310853 13 24.439453 C 13 31.912453 16.867313 33.586025 21.070312 34.078125 C 20.529972 34.565395 20.201297 35.428 20.029297 36.6875 C 18.950997 37.18674 16.448166 38.046206 14.759766 35.066406 C 14.759766 35.066406 13.759255 33.192287 11.859375 33.054688 C 11.859375 33.054687 10.011879 33.031048 11.730469 34.240234 C 11.730469 34.240234 12.971031 34.84059 13.832031 37.09375 C 13.832031 37.09375 14.727087 40.887084 19.992188 39.708984 C 19.994656 40.143013 19.995892 41.823179 19.998047 43.59375 A 20 20 0 0 0 24 44 A 20 20 0 0 0 30.001953 43.054688 C 30.005222 40.773198 30.009766 38.583926 30.009766 37.675781 C 30.009766 35.857181 29.336843 34.666653 28.658203 34.064453 C 32.874003 33.581973 37 31.931653 37 24.439453 C 37 22.310853 36.865474 20.569431 35.652344 19.207031 C 35.846404 18.713781 36.497864 16.731075 35.464844 14.046875 C 35.464844 14.046875 35.365314 14.013526 35.160156 14.003906 z"/>
 <path fill="#fff" opacity=".1" d="m24 4c-11.079 0-19.998 8.92-19.998 20 0 0.16772-0.004 0.33329 0 0.5 0.2642-10.846 9.087-19.5 19.998-19.5s19.734 8.6536 19.998 19.5c0.004-0.16671 0-0.33228 0-0.5 0-11.08-8.919-20-19.998-20z"/>
</svg>
