<svg xmlns="http://www.w3.org/2000/svg" width="48" height="48" version="1">
 <path style="fill:#21d789" d="m24 4h-18c-1.108 0-2 0.892-2 2v18h20z"/>
 <path style="fill:#cf4f8c" d="m24 4h18c1.108 0 2 0.892 2 2v18h-20z"/>
 <path style="fill:#2086e7" d="m24 44h-18c-1.108 0-2-0.892-2-2v-18h20z"/>
 <path style="fill:#6655e4" d="m24 44h18c1.108 0 2-0.892 2-2v-18h-20z"/>
 <path fill="#fff" opacity=".2" d="m6 4c-1.108 0-2 0.892-2 2v1c0-1.108 0.892-2 2-2h36c1.108 0 2 0.892 2 2v-1c0-1.108-0.892-2-2-2h-36z"/>
 <path opacity=".2" d="m6 45c-1.108 0-2-0.892-2-2v-1c0 1.108 0.892 2 2 2h36c1.108 0 2-0.892 2-2v1c0 1.108-0.892 2-2 2h-36z"/>
 <rect style="fill:#3f3f3f" width="28" height="28" x="10" y="10"/>
 <path style="opacity:0.2;fill:none;stroke:#000000;stroke-width:2;stroke-linecap:round" d="m 16,32.9999 h 8"/>
 <path style="fill:none;stroke:#f4f4f7;stroke-width:2;stroke-linecap:round" d="m 16,32 h 8"/>
 <path style="opacity:0.2;fill:none;stroke:#000000;stroke-width:1.99999988;stroke-linecap:round;stroke-linejoin:bevel" d="m 16.014098,25.006314 c 0,0 4.043783,0.350249 4,-3.999999 -0.04378,-4.350263 -4,-4.000002 -4,-4.000002 M 16,24.9999 v -7.999998"/>
 <path style="fill:none;stroke:#f4f4f7;stroke-width:1.99999988;stroke-linecap:round;stroke-linejoin:bevel" d="m 16.014098,24.006414 c 0,0 4.043783,0.350249 4,-3.999999 -0.04378,-4.350263 -4,-4.000002 -4,-4.000002 M 16,24 v -7.999998"/>
 <path style="opacity:0.2;fill:none;stroke:#000000;stroke-width:1.99999988;stroke-linecap:round;stroke-linejoin:bevel" d="m 27,21.9999 h 1.999998 m -0.999999,0 c 0,0 0.490904,3 -2.000001,3 C 24,24.9999 24,22.999899 24,20.999898 c 0,-1.999998 0,-3.999999 1.999998,-3.999999 2.000001,0 1.992378,0.999999 1.992378,0.999999"/>
 <path style="fill:none;stroke:#f4f4f7;stroke-width:1.99999988;stroke-linecap:round;stroke-linejoin:bevel" d="m 27,21 h 1.999998 m -0.999999,0 c 0,0 0.490904,3 -2.000001,3 C 24,24 24,21.999999 24,19.999998 24,18 24,15.999999 25.999998,15.999999 c 2.000001,0 1.992378,0.999999 1.992378,0.999999"/>
</svg>
