<svg xmlns="http://www.w3.org/2000/svg" width="48" height="48" version="1">
 <rect style="fill:#647fa6" width="40" height="40" x="4" y="4" rx="2" ry="2"/>
 <path style="opacity:0.2;fill:#f4f4f7" d="M 6,4 C 4.892,4 4,4.892 4,6 V 7 C 4,5.892 4.892,5 6,5 h 36 c 1.108,0 2,0.892 2,2 V 6 C 44,4.892 43.108,4 42,4 Z"/>
 <path style="opacity:0.2" d="M 6,45 C 4.892,45 4,44.108 4,43 v -1 c 0,1.108 0.892,2 2,2 h 36 c 1.108,0 2,-0.892 2,-2 v 1 c 0,1.108 -0.892,2 -2,2 z"/>
 <path style="opacity:0.2" d="m 39.966445,22.266818 -4.243417,-8.046789 c -0.0067,-0.0095 -0.01244,-0.01798 -0.01913,-0.02651 -0.02965,-0.03693 -0.06314,-0.07007 -0.100442,-0.09657 -0.15114,-0.108881 -0.356807,-0.131604 -0.534732,-0.03977 -0.104268,0.05397 -0.180794,0.139178 -0.225754,0.237644 -0.0067,0.0085 -0.0096,0.01893 -0.01339,0.02935 l -2.293895,5.445949 -4.551438,2.351833 c -0.02965,0.01515 -0.06027,0.03125 -0.08896,0.04734 l -1.547757,0.80004 -1.348787,0.69684 -0.35298,-0.668436 c -0.199927,-0.378717 -0.670567,-0.52547 -1.053202,-0.32759 -0.381678,0.196933 -0.530905,0.663701 -0.330979,1.042418 l 0.352981,0.668435 -1.302871,0.67317 -1.124946,-2.133123 2.019354,-1.043365 c 0.51847,-0.26889 0.719353,-0.902294 0.448639,-1.415455 -0.04305,-0.08332 -0.09757,-0.158115 -0.15975,-0.223444 l -0.09183,-0.08805 c -0.3195,-0.269836 -0.784401,-0.336111 -1.178515,-0.132551 l -5.96336,3.080862 c -0.519426,0.26889 -0.720309,0.902294 -0.449595,1.416402 0.04305,0.08048 0.09375,0.153381 0.15401,0.217763 0.03061,0.03503 0.06505,0.06722 0.100442,0.09562 0.319499,0.267942 0.783444,0.334217 1.176601,0.130657 l 2.018397,-1.042419 1.124946,2.133123 -1.437749,0.743233 -0.352981,-0.668435 c -0.199926,-0.377771 -0.67248,-0.524524 -1.053201,-0.327591 -0.100442,0.05207 -0.184622,0.122136 -0.251583,0.205454 -0.184621,0.231964 -0.226711,0.557661 -0.0794,0.836965 l 0.35298,0.668435 -2.189626,1.131418 c -0.02965,0.0142 -0.06027,0.0303 -0.08992,0.04545 l -5.21627,2.693627 -1.7792503,-0.382504 c -0.00478,-0.0019 -0.00957,-0.0019 -0.013392,-0.0029 -0.049742,-0.0095 -0.1023548,-0.0019 -0.1501841,0.02178 -0.1061811,0.05491 -0.1520973,0.178943 -0.1100074,0.286878 l 1.9514355,3.699118 c 0.00478,0.0066 0.00957,0.0142 0.015305,0.01988 l 0.00287,0.0029 0.028698,0.02652 c 0.06887,0.0568 0.168359,0.06911 0.254452,0.02557 0.04783,-0.02557 0.08322,-0.06343 0.104268,-0.109829 0.0019,-0.0038 0.0038,-0.0076 0.0057,-0.0123 l 0.714569,-1.694759 2.087272,-1.079344 c 0.0086,0.587012 0.151141,1.180651 0.443856,1.736418 1.001546,1.898319 3.369098,2.633977 5.28801,1.642685 0.02965,-0.01515 0.06026,-0.03125 0.08896,-0.04734 l 2.189626,-1.131417 0.409419,0.77637 c 0.19897,0.37777 0.672481,0.524523 1.053202,0.32759 0.381678,-0.196933 0.530906,-0.664647 0.330979,-1.042418 l -0.409419,-0.775423 1.43775,-0.743232 1.19382,2.26378 c 0.278366,0.527364 0.933628,0.730924 1.466447,0.455407 0.149227,-0.07669 0.272627,-0.18273 0.365416,-0.30676 0.243929,-0.320963 0.294628,-0.764061 0.0947,-1.143725 l -1.19382,-2.263781 1.302871,-0.67317 0.409419,0.775424 c 0.19897,0.37777 0.671523,0.525469 1.053201,0.32759 0.382635,-0.19788 0.529949,-0.665596 0.330979,-1.042419 l -0.409419,-0.77637 3.0209,-1.56126 c 0.208536,-0.110775 0.402723,-0.236699 0.582562,-0.37777 1.449228,-1.132365 1.927521,-3.1585 1.042679,-4.836216 -0.292716,-0.554821 -0.703091,-1.010228 -1.184254,-1.353914 l 1.424357,-0.735657 5.859092,1.256394 c 0.01148,0.0029 0.02105,0.0056 0.03157,0.0066 0.108094,0.01988 0.222884,0.0066 0.326196,-0.04734 0.229581,-0.117403 0.328109,-0.387239 0.237233,-0.62299 z M 17.951564,33.644423 c -0.01339,0.0085 -0.02583,0.0142 -0.04018,0.02177 -0.862841,0.445939 -1.925609,0.115509 -2.375204,-0.738498 -0.449596,-0.85306 -0.116704,-1.904946 0.744224,-2.349939 L 18.561863,29.399 20.19093,32.487436 Z m 3.622593,-1.871809 -1.629067,-3.088437 0.09566,-0.04829 1.343048,-0.693999 1.629067,3.088437 -0.306108,0.158114 z m 3.365271,-1.738311 -1.629067,-3.088437 1.302871,-0.673169 1.629067,3.088436 z m 5.403757,-2.795878 c -0.01913,0.01231 -0.03826,0.02367 -0.05835,0.03314 l -2.65931,1.374743 -1.629067,-3.088438 1.983004,-1.025376 0.635173,-0.32759 c 0.03348,-0.01704 0.06792,-0.03314 0.102355,-0.04923 0.841796,-0.371143 1.840472,-0.03314 2.27285,0.786784 0.381678,0.721456 0.200883,1.585878 -0.385505,2.10472 -0.07844,0.07101 -0.165489,0.135392 -0.261148,0.191252 z"/>
 <path style="fill:#f4f4f7" d="m 39.966445,21.266826 -4.243417,-8.046789 c -0.0067,-0.0095 -0.01244,-0.01798 -0.01913,-0.02651 -0.02965,-0.03693 -0.06314,-0.07007 -0.100442,-0.09657 -0.15114,-0.108881 -0.356807,-0.131604 -0.534732,-0.03977 -0.104268,0.05397 -0.180794,0.139178 -0.225754,0.237644 -0.0067,0.0085 -0.0096,0.01893 -0.01339,0.02935 l -2.293895,5.445949 -4.551438,2.351833 c -0.02965,0.01515 -0.06027,0.03125 -0.08896,0.04734 l -1.547757,0.80004 -1.348787,0.69684 -0.35298,-0.668436 c -0.199927,-0.378717 -0.670567,-0.52547 -1.053202,-0.32759 -0.381678,0.196933 -0.530905,0.663701 -0.330979,1.042418 l 0.352981,0.668435 -1.302871,0.67317 -1.124946,-2.133123 2.019354,-1.043365 c 0.51847,-0.26889 0.719353,-0.902294 0.448639,-1.415455 -0.04305,-0.08332 -0.09757,-0.158115 -0.15975,-0.223444 l -0.09183,-0.08805 c -0.3195,-0.269836 -0.784401,-0.336111 -1.178515,-0.132551 l -5.96336,3.080862 c -0.519426,0.26889 -0.720309,0.902294 -0.449595,1.416402 0.04305,0.08048 0.09375,0.153381 0.15401,0.217763 0.03061,0.03503 0.06505,0.06722 0.100442,0.09562 0.319499,0.267942 0.783444,0.334217 1.176601,0.130657 l 2.018397,-1.042419 1.124946,2.133123 -1.437749,0.743233 -0.352981,-0.668435 c -0.199926,-0.377771 -0.67248,-0.524524 -1.053201,-0.327591 -0.100442,0.05207 -0.184622,0.122136 -0.251583,0.205454 -0.184621,0.231964 -0.226711,0.557661 -0.0794,0.836965 l 0.35298,0.668435 -2.189626,1.131418 c -0.02965,0.0142 -0.06027,0.0303 -0.08992,0.04545 l -5.21627,2.693627 -1.7792503,-0.382504 c -0.00478,-0.0019 -0.00957,-0.0019 -0.013392,-0.0029 -0.049742,-0.0095 -0.1023548,-0.0019 -0.1501841,0.02178 -0.1061811,0.05491 -0.1520973,0.178943 -0.1100074,0.286878 l 1.9514355,3.699118 c 0.00478,0.0066 0.00957,0.0142 0.015305,0.01988 l 0.00287,0.0029 0.028698,0.02652 c 0.06887,0.0568 0.168359,0.06911 0.254452,0.02557 0.04783,-0.02557 0.08322,-0.06343 0.104268,-0.109829 0.0019,-0.0038 0.0038,-0.0076 0.0057,-0.0123 l 0.714569,-1.694759 2.087272,-1.079344 c 0.0086,0.587012 0.151141,1.180651 0.443856,1.736418 1.001546,1.898319 3.369098,2.633977 5.28801,1.642685 0.02965,-0.01515 0.06026,-0.03125 0.08896,-0.04734 l 2.189626,-1.131417 0.409419,0.77637 c 0.19897,0.37777 0.672481,0.524523 1.053202,0.32759 0.381678,-0.196933 0.530906,-0.664647 0.330979,-1.042418 l -0.409419,-0.775423 1.43775,-0.743232 1.19382,2.26378 c 0.278366,0.527364 0.933628,0.730924 1.466447,0.455407 0.149227,-0.07669 0.272627,-0.18273 0.365416,-0.30676 0.243929,-0.320963 0.294628,-0.764061 0.0947,-1.143725 l -1.19382,-2.263781 1.302871,-0.67317 0.409419,0.775424 c 0.19897,0.37777 0.671523,0.525469 1.053201,0.32759 0.382635,-0.19788 0.529949,-0.665596 0.330979,-1.042419 l -0.409419,-0.77637 3.0209,-1.56126 c 0.208536,-0.110775 0.402723,-0.236699 0.582562,-0.37777 1.449228,-1.132365 1.927521,-3.1585 1.042679,-4.836216 -0.292716,-0.554821 -0.703091,-1.010228 -1.184254,-1.353914 l 1.424357,-0.735657 5.859092,1.256394 c 0.01148,0.0029 0.02105,0.0056 0.03157,0.0066 0.108094,0.01988 0.222884,0.0066 0.326196,-0.04734 0.229581,-0.117403 0.328109,-0.387239 0.237233,-0.62299 z M 17.951564,32.644431 c -0.01339,0.0085 -0.02583,0.0142 -0.04018,0.02177 -0.862841,0.445939 -1.925609,0.115509 -2.375204,-0.738498 -0.449596,-0.85306 -0.116704,-1.904946 0.744224,-2.349939 l 2.281459,-1.178756 1.629067,3.088436 z m 3.622593,-1.871809 -1.629067,-3.088437 0.09566,-0.04829 1.343048,-0.693999 1.629067,3.088437 -0.306108,0.158114 z m 3.365271,-1.738311 -1.629067,-3.088437 1.302871,-0.673169 1.629067,3.088436 z m 5.403757,-2.795878 c -0.01913,0.01231 -0.03826,0.02367 -0.05835,0.03314 l -2.65931,1.374743 -1.629067,-3.088438 1.983004,-1.025376 0.635173,-0.32759 c 0.03348,-0.01704 0.06792,-0.03314 0.102355,-0.04923 0.841796,-0.371143 1.840472,-0.03314 2.27285,0.786784 0.381678,0.721456 0.200883,1.585878 -0.385505,2.10472 -0.07844,0.07101 -0.165489,0.135392 -0.261148,0.191252 z"/>
</svg>
