<svg xmlns="http://www.w3.org/2000/svg" width="48" height="48" version="1">
 <rect style="opacity:0.2" width="40" height="40" x="4" y="5" rx="12" ry="12"/>
 <rect style="fill:#b2bfd9" width="40" height="40" x="4" y="4" rx="12" ry="12"/>
 <path style="opacity:0.2;fill:#f4f4f7" d="m 15.999999,4 c -6.648,0 -12,5.352 -12,12 v 1 c 0,-6.648 5.352,-12 12,-12 h 16 c 6.648,0 12,5.352 12,12 v -1 c 0,-6.648 -5.352,-12 -12,-12 z"/>
 <path style="opacity:0.1" d="m 24.294922,13.029301 c -0.258394,-0.0097 -0.520953,0.0025 -0.78125,0.0039 1.367554,1.330323 1.599262,3.528491 0.550781,5.164063 -0.162767,0.253907 -0.355163,0.475326 -0.558594,0.68164 -0.02654,0.02824 -0.04876,0.06045 -0.07617,0.08789 5.300927,-0.06287 10.069859,3.263266 11.128906,8.646484 7e-4,0.0028 5.53e-4,0.0053 0.002,0.0098 l 0.0098,-0.002 c 0.312789,1.59843 1.881648,2.640533 3.496094,2.322265 1.447428,-0.284914 2.443506,-1.566106 2.410156,-2.980468 -0.02924,-0.16497 -0.05135,-0.328973 -0.08398,-0.496094 -1.55751,-7.921174 -8.365226,-13.148281 -16.097656,-13.4375 z"/>
 <path style="fill:#4062d0" d="m 24.294922,12.029299 c -0.258394,-0.0097 -0.520953,0.0025 -0.78125,0.0039 1.367554,1.330323 1.599262,3.528491 0.550781,5.164063 -0.162767,0.253907 -0.355163,0.475326 -0.558594,0.68164 -0.02654,0.02824 -0.04876,0.06045 -0.07617,0.08789 5.300927,-0.06287 10.069859,3.263266 11.128906,8.646484 7e-4,0.0028 5.53e-4,0.0053 0.002,0.0098 l 0.0098,-0.002 c 0.312789,1.59843 1.881648,2.640533 3.496094,2.322265 1.447428,-0.284914 2.443506,-1.566106 2.410156,-2.980468 -0.02924,-0.16497 -0.05135,-0.328973 -0.08398,-0.496094 -1.55751,-7.921174 -8.365226,-13.148281 -16.097656,-13.4375 z"/>
 <path style="opacity:0.1" d="m 23.427734,18.955082 c -1.040818,1.002124 -2.517414,1.41112 -3.916015,1.152344 -0.571125,-0.105673 -1.1281,-0.321456 -1.634766,-0.650391 -0.135074,-0.08769 -0.264109,-0.182339 -0.386719,-0.28125 -0.04121,5.21396 -3.732144,9.872555 -9.0429684,10.917969 -0.083325,0.01676 -0.1692162,0.02628 -0.2539062,0.04297 -1.4911709,0.394647 -2.4404461,1.899587 -2.1367188,3.449219 0.2987082,1.511955 1.6849669,2.537257 3.171875,2.402343 0.1223425,-0.02078 0.2441612,-0.04029 0.3671875,-0.0625 C 17.812901,34.309081 23.491575,27.040305 23.427734,18.955082 Z"/>
 <path style="opacity:0.1;fill-rule:evenodd" transform="scale(-1)" d="m -20.602097,-15.695878 c 0.180791,0.132826 -0.08985,0.309234 -0.220765,0.300486 -0.35477,-0.02371 -0.477145,-0.454762 -0.380207,-0.742017 0.173399,-0.513831 0.804264,-0.667405 1.263268,-0.459928 0.673608,0.30448 0.862395,1.158179 0.53965,1.78452 -0.430168,0.834815 -1.513617,1.059345 -2.305772,0.619371 -0.996847,-0.553662 -1.257298,-1.869771 -0.699092,-2.827024 0.676062,-1.159362 2.226325,-1.455829 3.348276,-0.778813 1.32218,0.797841 1.654724,2.583129 0.858533,3.869527 -0.919233,1.485198 -2.940099,1.853862 -4.390778,0.938255 -1.648354,-1.04037 -2.053168,-3.297187 -1.017976,-4.91203 1.161329,-1.81161 3.65436,-2.252598 5.433282,-1.097697 1.97494,1.282159 2.45212,4.011598 1.177418,5.954534"/>
 <path style="fill:#4d8a17" d="m 23.427734,17.95508 c -1.040818,1.002124 -2.517414,1.41112 -3.916015,1.152344 -0.571125,-0.105673 -1.1281,-0.321456 -1.634766,-0.650391 -0.135074,-0.08769 -0.264109,-0.182339 -0.386719,-0.28125 -0.04121,5.21396 -3.732144,9.872555 -9.0429684,10.917969 -0.083325,0.01676 -0.1692162,0.02628 -0.2539062,0.04297 -1.4911709,0.394647 -2.4404461,1.899587 -2.1367188,3.449219 0.2987082,1.511955 1.6849669,2.537257 3.171875,2.402343 0.1223425,-0.02078 0.2441612,-0.04029 0.3671875,-0.0625 C 17.812901,33.309079 23.491575,26.040303 23.427734,17.95508 Z"/>
 <path style="opacity:0.1" class="st0" d="m 19.468282,33.944789 c 1.595346,0.314043 3.153941,-0.743574 3.471418,-2.357696 0.291833,-1.482719 -0.565596,-2.92732 -1.945568,-3.394256 -0.133488,-0.01949 -0.266036,-0.04306 -0.39744,-0.06807 -5.35294,-1.053531 -8.667743,-5.775527 -8.649688,-11.039689 -0.861588,0.876914 -2.1401789,1.31749 -3.4409038,1.060337 -1.0748879,-0.211149 -1.952375,-0.858719 -2.4916836,-1.718944 -0.3418405,8.309554 5.0283024,15.878548 13.4358824,17.53143 0.0034,0.0014 0.0097,0.0014 0.01519,0.0014 z"/>
 <path style="fill:#06aff2" class="st0" d="m 19.468282,32.944787 c 1.595346,0.314043 3.153941,-0.743574 3.471418,-2.357696 0.291833,-1.482719 -0.565596,-2.92732 -1.945568,-3.394256 -0.133488,-0.01949 -0.266036,-0.04306 -0.39744,-0.06807 -5.35294,-1.053531 -8.667743,-5.775527 -8.649688,-11.039689 -0.861588,0.876914 -2.1401789,1.31749 -3.4409038,1.060337 -1.0748879,-0.211149 -1.952375,-0.858719 -2.4916836,-1.718944 -0.3418405,8.309554 5.0283024,15.878548 13.4358824,17.53143 0.0034,0.0014 0.0097,0.0014 0.01519,0.0014 z"/>
 <path style="opacity:0.1;fill-rule:evenodd" d="m 27.545055,35.997707 c 0.225989,0.166033 -0.112313,0.386543 -0.275956,0.375608 -0.443463,-0.02963 -0.596432,-0.568453 -0.47526,-0.927521 0.21675,-0.642289 1.005331,-0.834257 1.579086,-0.574911 0.84201,0.380601 1.077994,1.447724 0.674562,2.230651 -0.53771,1.043518 -1.892021,1.324181 -2.882215,0.774213 -1.246058,-0.692077 -1.571622,-2.337213 -0.873865,-3.53378 0.845078,-1.449202 2.782907,-1.819786 4.185345,-0.973516 1.652725,0.997301 2.068406,3.228912 1.073167,4.83691 -1.149042,1.856497 -3.675124,2.317327 -5.488474,1.172818 -2.060442,-1.300463 -2.56646,-4.121484 -1.27247,-6.140038 1.451662,-2.264513 4.567951,-2.815748 6.791604,-1.372122 2.468675,1.602699 3.06515,5.014499 1.471772,7.443168"/>
 <path style="opacity:0.1" class="st2" d="m 38.780314,16.173636 c 1.484155,-0.131625 2.866851,0.891568 3.162903,2.401441 0.304981,1.554012 -0.648357,3.062483 -2.14426,3.454407 -0.04729,0.0079 -0.0925,0.01276 -0.137567,0.02186 -5.357237,1.054001 -9.074637,5.783447 -9.048275,11.052884 -0.864376,-0.853056 -2.126203,-1.278546 -3.410303,-1.026054 -1.093591,0.213373 -1.984339,0.880792 -2.518055,1.76183 -0.387698,-8.344032 5.391994,-15.96361 13.829381,-17.622195 0.08827,-0.01702 0.177194,-0.02769 0.266176,-0.04417"/>
 <path style="fill:#00b7b7" class="st2" d="m 38.780314,15.173634 c 1.484155,-0.131625 2.866851,0.891568 3.162903,2.401441 0.304981,1.554012 -0.648357,3.062483 -2.14426,3.454407 -0.04729,0.0079 -0.0925,0.01276 -0.137567,0.02186 -5.357237,1.054001 -9.074637,5.783447 -9.048275,11.052884 -0.864376,-0.853056 -2.126203,-1.278546 -3.410303,-1.026054 -1.093591,0.213373 -1.984339,0.880792 -2.518055,1.76183 -0.387698,-8.344032 5.391994,-15.96361 13.829381,-17.622195 0.08827,-0.01702 0.177194,-0.02769 0.266176,-0.04417"/>
 <path style="fill:#4062d0;fill-rule:evenodd" d="m 27.545055,34.997707 c 0.225989,0.166033 -0.112313,0.386543 -0.275956,0.375608 -0.443463,-0.02963 -0.596432,-0.568453 -0.47526,-0.927521 0.21675,-0.642289 1.005331,-0.834257 1.579086,-0.574911 0.84201,0.380601 1.077994,1.447724 0.674562,2.230651 -0.53771,1.043518 -1.892021,1.324181 -2.882215,0.774213 -1.246058,-0.692077 -1.571622,-2.337213 -0.873865,-3.53378 0.845078,-1.449202 2.782907,-1.819786 4.185345,-0.973516 1.652725,0.997301 2.068406,3.228912 1.073167,4.83691 -1.149042,1.856497 -3.675124,2.317327 -5.488474,1.172818 -2.060442,-1.300463 -2.56646,-4.121484 -1.27247,-6.140038 1.451662,-2.264513 4.567951,-2.815748 6.791604,-1.372122 2.468675,1.602699 3.06515,5.014499 1.471772,7.443168"/>
 <path style="fill:#06aff2;fill-rule:evenodd" transform="scale(-1)" d="m -20.602097,-14.695876 c 0.180791,0.132826 -0.08985,0.309234 -0.220765,0.300486 -0.35477,-0.02371 -0.477145,-0.454762 -0.380207,-0.742017 0.173399,-0.513831 0.804264,-0.667405 1.263268,-0.459928 0.673608,0.30448 0.862395,1.158179 0.53965,1.78452 -0.430168,0.834815 -1.513617,1.059345 -2.305772,0.619371 -0.996847,-0.553662 -1.257298,-1.869771 -0.699092,-2.827024 0.676062,-1.159362 2.226325,-1.455829 3.348276,-0.778813 1.32218,0.797841 1.654724,2.583129 0.858533,3.869527 -0.919233,1.485198 -2.940099,1.853862 -4.390778,0.938255 -1.648354,-1.04037 -2.053168,-3.297187 -1.017976,-4.91203 1.161329,-1.81161 3.65436,-2.252598 5.433282,-1.097697 1.97494,1.282159 2.45212,4.011598 1.177418,5.954534"/>
 <path style="opacity:0.1;fill-rule:evenodd" transform="scale(1,-1)" d="m 8.9715118,-14.240579 c 0.1265137,0.09295 -0.062876,0.216396 -0.1544869,0.210274 -0.2482608,-0.01659 -0.3338964,-0.318233 -0.2660612,-0.519248 0.1213414,-0.359568 0.5628072,-0.467036 0.8840089,-0.321848 0.4713764,0.213069 0.6034854,0.810469 0.3776354,1.24877 -0.3010227,0.584186 -1.0591972,0.741307 -1.6135308,0.433423 -0.6975722,-0.387442 -0.8798304,-1.308426 -0.4892097,-1.978292 0.4730941,-0.811297 1.5579354,-1.018759 2.3430525,-0.544997 0.925234,0.558312 1.157942,1.807619 0.600784,2.707814 -0.64326,1.03931 -2.0574196,1.297293 -3.0725745,0.656571 -1.1534835,-0.72803 -1.436764,-2.307303 -0.7123581,-3.437336 0.8126738,-1.267727 2.5572447,-1.576321 3.8020966,-0.768145 1.382022,0.897228 1.715942,2.807232 0.823932,4.166857"/>
 <path style="fill:#00b7b7;fill-rule:evenodd" transform="scale(1,-1)" d="m 8.9715118,-13.240577 c 0.1265137,0.09295 -0.062876,0.216396 -0.1544869,0.210274 -0.2482608,-0.01659 -0.3338964,-0.318233 -0.2660612,-0.519248 0.1213414,-0.359568 0.5628072,-0.467036 0.8840089,-0.321848 0.4713764,0.213069 0.6034854,0.810469 0.3776354,1.24877 -0.3010227,0.584186 -1.0591972,0.741307 -1.6135308,0.433422 -0.6975722,-0.387441 -0.8798304,-1.308426 -0.4892097,-1.978291 0.4730941,-0.811298 1.5579354,-1.018759 2.3430525,-0.544997 0.925234,0.558312 1.157942,1.807619 0.600784,2.707814 -0.64326,1.03931 -2.0574196,1.297293 -3.0725745,0.656571 -1.1534835,-0.72803 -1.436764,-2.307303 -0.7123581,-3.437336 0.8126738,-1.267727 2.5572447,-1.576321 3.8020966,-0.768145 1.382022,0.897228 1.715942,2.807232 0.823932,4.166857"/>
</svg>
