<svg xmlns="http://www.w3.org/2000/svg" width="48" height="48" version="1.1">
 <rect style="opacity:0.2" width="40" height="40" x="4" y="5" rx="12" ry="12"/>
 <rect style="fill:#f8a084" width="40" height="40" x="4" y="4" rx="12" ry="12"/>
 <circle style="opacity:0.2" cx="24" cy="25" r="14"/>
 <path style="opacity:0.2;fill:#f4f4f7" d="M 16,3.9999999 C 9.352,3.9999999 4,9.3519999 4,16 v 1 C 4,10.352 9.352,4.9999999 16,4.9999999 H 32 C 38.648,4.9999999 44,10.352 44,17 V 16 C 44,9.3519999 38.648,3.9999999 32,3.9999999 Z"/>
 <path style="fill:#cccccc" d="m 31.523633,12.212109 c -0.765137,0.142559 -1.529256,0.307618 -1.923633,0.307618 -3.232307,0 -6.994042,1.360551 -9.223047,4.090624 -1.903289,2.331138 -2.512814,5.82201 -2.650977,8.547657 0.137351,-1.352469 1.945111,-1.62175 2.871094,-2.381641 1.007388,-0.826694 1.892141,-3.81582 3.40293,-3.81582 0.189491,-3.5e-5 0.378863,0.0095 0.567383,0.02871 0.0056,2.83e-4 0.01084,0.001 0.01641,0.0014 C 30.496311,19.296062 34.85,23.61146 34.85,29.6 c 0,1.200137 -0.194598,2.353261 -0.544141,3.437109 0.09819,0.04364 0.191338,0.07734 0.284375,0.109375 a 14,14 0 0 0 0.0055,-0.0069 c 0.197496,-0.228703 0.377821,-0.468524 0.55918,-0.708203 a 14,14 0 0 0 0.261133,-0.343164 c 0.153312,-0.216138 0.293039,-0.440705 0.433398,-0.664453 a 14,14 0 0 0 0.283008,-0.46211 c 0.122612,-0.213383 0.236258,-0.431622 0.347265,-0.650781 a 14,14 0 0 0 0.254297,-0.526367 c 0.100713,-0.221312 0.195367,-0.445159 0.284375,-0.671289 a 14,14 0 0 0 0.207813,-0.566016 c 0.07523,-0.218282 0.148902,-0.437118 0.213281,-0.658984 a 14,14 0 0 0 0.168164,-0.663086 c 0.04747,-0.199585 0.09801,-0.398404 0.136719,-0.600195 a 14,14 0 0 0 0.118945,-0.786133 c 0.02339,-0.175288 0.05433,-0.348547 0.07109,-0.525 A 14,14 0 0 0 38,24 c -0.0012,-0.294203 -0.0117,-0.588294 -0.03144,-0.881836 -8.8e-5,-0.0013 9e-5,-0.0027 0,-0.0041 -0.0055,-0.08318 -0.01501,-0.165887 -0.02188,-0.248829 -0.03072,-0.389163 -0.0777,-0.776871 -0.14082,-1.162109 -0.01454,-0.08664 -0.03276,-0.172242 -0.04922,-0.258398 a 14,14 0 0 0 -0.0027,-0.01504 c -0.05975,-0.316799 -0.130436,-0.63144 -0.211915,-0.94336 -2.53e-4,-9.8e-4 -0.0011,-0.0017 -0.0014,-0.0027 -0.04192,-0.160431 -0.08646,-0.319884 -0.133984,-0.478515 -0.07892,-0.26271 -0.165548,-0.523044 -0.259766,-0.780664 -0.07315,-0.200472 -0.150249,-0.3993 -0.232422,-0.596094 -0.09393,-0.225885 -0.193774,-0.449269 -0.299414,-0.669921 -0.0783,-0.162933 -0.156212,-0.326786 -0.240625,-0.486719 a 14,14 0 0 0 -0.0041,-0.0096 l -0.0014,-0.0014 c -0.130017,-0.243689 -0.267284,-0.48354 -0.411524,-0.719141 -0.0026,-0.0042 -0.0057,-0.0081 -0.0082,-0.01231 -0.112674,-0.184716 -0.228672,-0.36732 -0.35,-0.546875 l -0.0027,-0.0041 a 14,14 0 0 0 -0.0027,-0.0055 C 35.452169,15.963734 35.303677,15.757741 35.150702,15.556176 35.008864,15.36929 34.86198,15.186585 34.710467,15.006567 a 14,14 0 0 0 -0.0055,-0.0069 c -0.05011,-0.05783 -0.100702,-0.11526 -0.151758,-0.172266 -0.282356,-0.324141 -0.577926,-0.637559 -0.891407,-0.936523 -0.004,-0.0038 -0.0083,-0.0072 -0.01231,-0.01094 a 14,14 0 0 0 -0.06829,-0.06416 c -0.168032,-0.157743 -0.338876,-0.313442 -0.51543,-0.463476 0.0034,-0.0034 0.0048,-0.0061 0.0082,-0.0096 a 14,14 0 0 0 -1.550391,-1.130664 z m 2.630468,21.010938 c -0.06798,0.0764 -0.136803,0.152058 -0.206444,0.226953 0.06964,-0.0749 0.13846,-0.15055 0.206444,-0.226953 z m -0.794335,0.821679 c -0.08645,0.08269 -0.173958,0.164276 -0.2625,0.244727 -0.005,0.01071 -0.0087,0.02212 -0.01367,0.03281 0.09335,-0.09122 0.185414,-0.183747 0.276172,-0.277539 z"/>
 <path style="fill:#f4f4f7" d="m 24.572851,18.428711 c 2.823835,0.286776 4.116602,2.74152 4.116602,5.641015 3.5e-5,0.189492 -0.0095,0.378863 -0.02871,0.567383 -2.83e-4,0.0056 -0.001,0.01084 -0.0014,0.01641 C 28.353938,30.566039 24.38854,34.919726 18.4,34.919726 c -1.200137,0 -2.943886,-0.909636 -4.027734,-1.259179 0.03551,0.03026 -0.01449,0.178663 -0.101173,0.385546 A 14,14 0 0 0 24,38 c 0.294203,-0.0012 0.588294,-0.0117 0.881836,-0.03144 0.0013,-8.8e-5 0.0027,9e-5 0.0041,0 0.08318,-0.0055 0.165887,-0.01501 0.248828,-0.02188 0.389164,-0.03072 0.776872,-0.0777 1.16211,-0.14082 0.08664,-0.01454 0.172242,-0.03276 0.258398,-0.04922 a 14,14 0 0 0 0.01504,-0.0027 c 0.316799,-0.05975 0.63144,-0.130436 0.94336,-0.211915 9.8e-4,-2.53e-4 0.0017,-0.0011 0.0027,-0.0014 0.16043,-0.04192 0.319884,-0.08646 0.478515,-0.133984 0.26271,-0.07892 0.523044,-0.165548 0.780664,-0.259766 0.200472,-0.07315 0.3993,-0.150249 0.596094,-0.232422 0.225885,-0.09393 0.449269,-0.193774 0.669921,-0.299414 0.162933,-0.0783 0.326786,-0.156212 0.486719,-0.240625 a 14,14 0 0 0 0.0096,-0.0041 l 0.0014,-0.0014 c 0.243721,-0.13005 0.48354,-0.267284 0.719141,-0.411524 0.0042,-0.0026 0.0081,-0.0057 0.01231,-0.0082 0.184715,-0.112674 0.36732,-0.228672 0.546875,-0.35 l 0.0041,-0.0027 a 14,14 0 0 0 0.0055,-0.0027 c 0.209043,-0.141492 0.415037,-0.289993 0.616601,-0.442968 0.186887,-0.141838 0.369592,-0.288722 0.54961,-0.440235 a 14,14 0 0 0 0.0069,-0.0055 c 0.05783,-0.05011 0.11526,-0.100702 0.172265,-0.151758 0.324142,-0.282356 0.63756,-0.577926 0.936523,-0.891407 0.0038,-0.004 0.0072,-0.0083 0.01094,-0.01231 a 14,14 0 0 0 0.06426,-0.06836 c 0.157743,-0.168031 0.313442,-0.338876 0.463476,-0.515429 C 35.002942,31.973793 35.2,30.810578 35.2,29.6 35.2,23.60771 30.490594,18.728682 24.572851,18.428711 Z M 13.677734,33.15332 c 0.09122,0.09335 0.183744,0.185413 0.277539,0.276172 -0.08269,-0.08645 -0.164276,-0.173958 -0.244726,-0.2625 -0.01071,-0.005 -0.02212,-0.0087 -0.03281,-0.01367 z"/>
 <path style="fill:#cccccc" d="m 14.84668,13.677734 c -0.09335,0.09122 -0.185413,0.183744 -0.276172,0.277539 0.08645,-0.08269 0.173958,-0.164276 0.2625,-0.244726 0.005,-0.01071 0.0087,-0.02212 0.01367,-0.03281 z M 13.982617,14.55 c -0.06964,0.07489 -0.138461,0.15055 -0.206445,0.226953 0.06798,-0.0764 0.136803,-0.152058 0.206445,-0.226953 z m -0.453906,0.176367 A 14,14 0 0 0 10,24 a 14,14 0 0 0 0.03144,0.881836 c 0.0055,0.08455 0.01489,0.168632 0.02187,0.25293 a 14,14 0 0 0 0.140821,1.162109 c 0.01539,0.09167 0.03476,0.182203 0.05195,0.273437 a 14,14 0 0 0 0.211914,0.94336 c 0.04214,0.161414 0.08754,0.321661 0.135352,0.48125 a 14,14 0 0 0 0.259765,0.780664 c 0.07315,0.200472 0.150249,0.3993 0.232422,0.596094 a 14,14 0 0 0 0.299414,0.669921 c 0.0798,0.166053 0.158411,0.333464 0.244726,0.49629 2.86e-4,5.39e-4 0.0011,8.4e-4 0.0014,0.0014 a 14,14 0 0 0 0.411524,0.719141 c 0.115063,0.189035 0.234113,0.375535 0.358203,0.559179 0.143381,0.212192 0.293235,0.421673 0.448438,0.626172 0.1436,0.18921 0.292185,0.37426 0.445703,0.556445 a 14,14 0 0 0 0.151758,0.172266 c 0.282355,0.324141 0.577925,0.637559 0.891406,0.936523 a 14,14 0 0 0 0.08066,0.0752 c 0.168031,0.157744 0.338876,0.313443 0.51543,0.463477 C 16.026231,35.002973 17.189422,35.2 18.4,35.2 24.39229,35.2 29.271318,30.490594 29.571289,24.572851 29.284513,27.396686 26.899495,29.389453 24,29.389453 c -0.189491,3.5e-5 -0.378863,-0.0095 -0.567383,-0.02871 -0.0056,-2.83e-4 -0.01084,-10e-4 -0.01641,-0.0014 C 17.503686,29.053902 13.080273,24.38854 13.080273,18.4 c 0,-1.200137 0.194598,-2.353261 0.544141,-3.437109 -0.03177,-0.08762 -0.06385,-0.154018 -0.0957,-0.236524 z"/>
 <path style="fill:#f4f4f7" d="m 23.427149,29.571289 c -0.74519,-0.07568 3.224573,-0.946626 2.623604,-1.28544 C 24.374396,27.340758 18.68,26.134339 18.68,24 c -3.5e-5,-0.189491 -0.270452,-0.378863 -0.251286,-0.567383 2.83e-4,-0.0056 0.001,-0.01084 0.0014,-0.01641 C 18.735587,17.503684 23.61146,12.8 29.6,12.8 c 1.200137,0 2.353261,0.194598 3.437109,0.544141 C 30.515346,11.195199 27.313176,10.010251 24,10 19.89945,10.006 16.007688,11.809489 13.352343,14.93418 12.997027,16.026231 12.8,17.189422 12.8,18.4 c 0,5.99229 4.709406,10.871318 10.627149,11.171289 z M 34.322266,14.566407 c -0.09122,-0.09335 -0.183744,-0.185414 -0.27754,-0.276173 0.08269,0.08645 0.164276,0.173958 0.244727,0.2625 0.01071,0.005 0.02212,0.0087 0.03281,0.01367 z M 33.45,13.702343 c -0.0749,-0.06964 -0.15055,-0.13846 -0.226953,-0.206444 0.0764,0.06798 0.152058,0.136803 0.226953,0.206444 z"/>
 <circle style="fill:#4f4f4f" cx="24" cy="24" r="6"/>
 <path style="opacity:0.1" d="m 40.4375,5 c -0.533204,0 -1.066041,0.204713 -1.474609,0.6132812 l -3.6875,3.6875 -11.0625,11.0624998 -1.107422,3.31836 -0.367188,1.105468 L 22,27 l 2.212891,-0.738281 1.105468,-0.367188 3.31836,-1.107422 11.0625,-11.0625 3.6875,-3.6875 c 0.817136,-0.8171361 0.817136,-2.1320819 0,-2.9492184 L 41.912109,5.6132812 C 41.503541,5.204713 40.970704,5 40.4375,5 Z"/>
 <path style="fill:#b94141" d="M 35.275391 8.3007812 L 24.212891 19.363281 L 28.636719 23.787109 L 39.699219 12.724609 L 35.275391 8.3007812 z"/>
 <path style="fill:#f6b473" d="M 24.212891 19.363281 L 23.105469 22.681641 L 22.738281 23.787109 L 24.212891 25.261719 L 25.318359 24.894531 L 28.636719 23.787109 L 26.425781 21.574219 L 24.212891 19.363281 z"/>
 <path style="fill:#8a5f5a" d="m 35.274782,8.3002923 4.424927,4.4249267 3.687439,-3.6874389 c 0.817136,-0.8171365 0.817136,-2.1328148 0,-2.9499513 L 41.912172,4.6128531 c -0.817136,-0.8171365 -2.132815,-0.8171365 -2.949951,0 z"/>
 <rect style="fill:#f4f4f7" width="1.043" height="6.258" x="19.07" y="30.81" transform="rotate(-45)"/>
 <path style="fill:#7d5651" d="M 22.737488,23.787537 22,26 24.212464,25.262513 Z"/>
</svg>
