<svg width="48" height="48" version="1.1" xmlns="http://www.w3.org/2000/svg">
 <g transform="matrix(1.9999614,0,0,2,1.9995444,2)">
  <path d="M 11,3.5 C 8.1525,3.5 5.7275,5.3443 4.6835,7.9544 2.0328,8.3715 0,10.762 0,13.682 0,16.895 2.4624,19.5 5.5,19.5 H 17.188 C 19.846,19.5 22,17.221 22,14.409 22,11.796 20.142,9.6547 17.746,9.3635 17.121,6.028 14.337,3.5 11,3.5 Z" style="opacity:.2"/>
  <path d="M 11,3 C 8.1525,3 5.7275,4.8443 4.6835,7.4544 2.0328,7.8715 0,10.262 0,13.182 0,16.395 2.4624,19 5.5,19 H 17.188 C 19.846,19 22,16.721 22,13.909 22,11.296 20.142,9.1547 17.746,8.8635 17.121,5.528 14.337,3 11,3 Z" style="fill:#b2bfd9"/>
  <rect transform="rotate(90)" x="6.5" y="-9.0004015" width="10.5" height="6" rx="1" ry="1" style="opacity:.2"/>
  <path d="m11 3c-2.8475 0-5.2724 1.8449-6.3164 4.4551-2.6507 0.417-4.6836 2.8069-4.6836 5.7269 0 0.107 0.010201 0.212 0.015625 0.318 0.084092-2.835 2.0738-5.1367 4.668-5.5449 1.044-2.6102 3.4689-4.4551 6.3164-4.4551 3.337 0 6.1211 2.5278 6.7461 5.8633 2.3408 0.28443 4.1546 2.3388 4.2383 4.8691 7e-3 -0.107 0.016-0.213 0.016-0.322 0-2.613-1.857-4.7555-4.254-5.0467-0.625-3.3355-3.409-5.8633-6.746-5.8633z" style="fill:#f4f4f7;opacity:.2"/>
  <path d="m20.999114 13.44296a1.0231226 0.9161922 0 0 1-0.136869 0.431212l-1.988096 3.083788-1.988096 3.083787a1.0231226 0.9161922 0 0 1-1.772303 0l-1.988096-3.083787-1.989095-3.083788a1.0231226 0.9161922 0 0 1 0.886151-1.374151h7.953384a1.0231226 0.9161922 0 0 1 1.02302 0.942939z" style="opacity:.2"/>
  <rect transform="rotate(90)" x="6" y="-9.0004015" width="10.5" height="6" rx="1" ry="1" style="fill:#7f25d8"/>
  <rect transform="matrix(0,-1,-1,0,0,0)" x="-14.499998" y="-19" width="10.5" height="6" rx="1" ry="1" style="fill:#1984b8"/>
  <path d="m10.999539 8.5570942a1.0231226 0.9161922 0 0 0-0.136869-0.4312114l-1.9880964-3.0837881-1.988096-3.0837876a1.0231226 0.9161922 0 0 0-1.772303 0l-1.988096 3.0837876-1.989095 3.0837881a1.0231226 0.9161922 0 0 0 0.886151 1.3741505h7.953384a1.0231226 0.9161922 0 0 0 1.0230204-0.9429391z" style="opacity:.2"/>
  <path d="m10.999539 8.0570955a1.0231226 0.9161922 0 0 0-0.136869-0.4312114l-1.9880964-3.0837881-1.988096-3.0837876a1.0231226 0.9161922 0 0 0-1.772303 0l-1.988096 3.0837876-1.989095 3.0837881a1.0231226 0.9161922 0 0 0 0.886151 1.3741505h7.953384a1.0231226 0.9161922 0 0 0 1.0230204-0.9429391z" style="fill:#9c56e2"/>
  <path d="m20.999114 12.942961a1.0231226 0.9161922 0 0 1-0.136869 0.431212l-3.976192 6.167576a1.0231226 0.9161922 0 0 1-1.772303 0l-1.988096-3.083788-1.989095-3.083788a1.0231226 0.9161922 0 0 1 0.886151-1.374151h7.953384a1.0231226 0.9161922 0 0 1 1.02302 0.942939z" style="fill:#28a4e2"/>
  <path d="m17.999558 4.000024c0.553998 0 0.999997 0.4459989 0.999997 0.9999975v0.4999987c0-0.5539986-0.445999-0.9999975-0.999997-0.9999975h-3.99999c-0.553998 0-0.999997 0.4459989-0.999997 0.9999975v-0.4999987c0-0.5539986 0.445999-0.9999975 0.999997-0.9999975z" style="fill:#f4f4f7;opacity:.1"/>
  <path d="m6.0488156 1.0010316a1.0231226 0.9161922 0 0 1 0.837889 0.4570301l1.988276 3.0839763 1.9872994 3.0839766a1.0231226 0.9161922 0 0 1 0.137695 0.4306629 1.0231226 0.9161922 0 0 1-0.04004 0.2792963 1.0231226 0.9161922 0 0 0-0.09766-0.2099605l-1.9872984-3.0839766-1.988276-3.0839763a1.0231226 0.9161922 0 0 0-1.772457 0l-1.988276 3.0839763-1.989253 3.0839766a1.0231226 0.9161922 0 0 0-0.09668 0.208984 1.0231226 0.9161922 0 0 1 0.09668-0.7089827l1.989257-3.0839766 1.988276-3.0839763a1.0231226 0.9161922 0 0 1 0.934568-0.4570301z" style="fill:#f4f4f7;opacity:.2"/>
  <path d="m19.976115 12.000022a1.0231226 0.9161922 0 0 1 1.023435 0.943357 1.0231226 0.9161922 0 0 1-0.04004 0.220703 1.0231226 0.9161922 0 0 0-0.983396-0.664061h-7.953104a1.0231226 0.9161922 0 0 0-0.983396 0.665037 1.0231226 0.9161922 0 0 1 0.983396-1.165036z" style="fill:#f4f4f7;opacity:.2"/>
 </g>
</svg>
