<svg xmlns="http://www.w3.org/2000/svg" width="48" height="48" version="1.1">
 <path style="opacity:0.2" d="M 24,5 A 20,20 0 0 0 4,25 20,20 0 0 0 6.9941406,35.498047 C 20.37012,37.112866 32.532055,34.812327 43.638672,28.720703 A 20,20 0 0 0 44,25 20,20 0 0 0 24,5 Z M 41.763672,34.148438 C 32.138715,38.6295 21.718532,40.556569 10.636719,39.851562 A 20,20 0 0 0 24,45 20,20 0 0 0 41.763672,34.148438 Z"/>
 <path style="fill:#4f4f4f" d="M 24,4 A 20,20 0 0 0 4,24 20,20 0 0 0 6.9941406,34.498047 C 20.37012,36.112866 32.532055,33.812327 43.638672,27.720703 A 20,20 0 0 0 44,24 20,20 0 0 0 24,4 Z M 41.763672,33.148438 C 32.138715,37.6295 21.718532,39.556569 10.636719,38.851562 A 20,20 0 0 0 24,44 20,20 0 0 0 41.763672,33.148438 Z"/>
 <path style="opacity:0.2" d="m 14,12 v 2 h -1 c -1.662,0 -3,1.338 -3,3 0,1.662 1.338,3 3,3 h 1 v 2 h -3.8164 c 0.412,1.164 1.508,2 2.8164,2 h 1 v 2 h 2 v -2 h 1 c 1.662,0 3,-1.338 3,-3 0,-1.662 -1.338,-3 -3,-3 h -1 v -2 h 3.816 C 19.404,14.836 18.308,14 17,14 h -1 v -2 z m -1,4 h 1 v 2 h -1 c -0.554,0 -1,-0.446 -1,-1 0,-0.554 0.446,-1 1,-1 z m 3,4 h 1 c 0.554,0 1,0.446 1,1 0,0.554 -0.446,1.026 -1,1 h -1 z"/>
 <path style="fill:#f4f4f7" d="m 14,11 v 2 h -1 c -1.662,0 -3,1.338 -3,3 0,1.662 1.338,3 3,3 h 1 v 2 h -3.8164 c 0.412,1.164 1.508,2 2.8164,2 h 1 v 2 h 2 v -2 h 1 c 1.662,0 3,-1.338 3,-3 0,-1.662 -1.338,-3 -3,-3 h -1 v -2 h 3.816 C 19.404,13.836 18.308,13 17,13 h -1 v -2 z m -1,4 h 1 v 2 h -1 c -0.554,0 -1,-0.446 -1,-1 0,-0.554 0.446,-1 1,-1 z m 3,4 h 1 c 0.554,0 1,0.446 1,1 0,0.554 -0.446,1.026 -1,1 h -1 z"/>
 <rect style="opacity:0.2" width="8" height="2" x="20" y="27"/>
 <path style="opacity:0.2;fill:none;stroke:#000000;stroke-width:2" d="m 28,19.999507 5,-3 5,3"/>
 <path style="fill:none;stroke:#f4f4f7;stroke-width:2" d="m 28,19 5,-3 5,3"/>
 <rect style="fill:#f4f4f7" width="8" height="2" x="20" y="26"/>
 <path style="opacity:0.1;fill:#f4f4f7" d="M 24,4 A 20,20 0 0 0 4,24 20,20 0 0 0 4.0214844,24.408203 20,20 0 0 1 24,5 20,20 0 0 1 43.976562,24.513672 20,20 0 0 0 44,24 20,20 0 0 0 24,4 Z M 41.763672,33.148438 C 32.138715,37.6295 21.718532,39.55657 10.636719,38.851562 a 20,20 0 0 0 1.304687,1.064454 c 10.301192,0.464917 20.019933,-1.363867 29.048828,-5.421875 a 20,20 0 0 0 0.773438,-1.345703 z"/>
</svg>
