<svg xmlns="http://www.w3.org/2000/svg" width="48" height="48" version="1">
 <path style="opacity:0.2" d="m 24.8125,5 c -0.09597,0 -0.341689,0.1259719 -0.544922,0.2792969 -0.488091,0.36823 -2.826623,1.8182103 -3.638672,2.2558593 L 19.986328,7.8808594 19.384766,7.7617188 C 19.053184,7.6961128 18.728002,7.6425471 18.664062,7.6425781 18.600127,7.6426091 18.3025,7.8396162 18.001953,8.0820312 17.364806,8.5959463 16.696825,9.109741 16.366015,9.109375 16.239087,9.109225 16.025954,9.0434706 15.893359,8.9628906 15.760761,8.8823066 15.57599,8.8164062 15.48125,8.8164062 c -0.227815,1e-7 -2.799356,1.2784528 -3.527344,1.7539068 -0.559954,0.36571 -1.12197,0.808192 -1.9960934,1.568359 -0.487821,0.424223 -0.6861361,0.788787 -0.9238281,1.701172 -0.296489,1.13808 -0.123607,2.176909 0.5,2.62807 0.355033,0.256852 0.9025285,0.852513 1.1425775,1.242188 0.193601,0.314283 0.238776,0.332684 0.837892,0.333984 h 0.533203 l 0.943359,-0.828125 c 0.91958,-0.894147 2.032384,-1.249793 3.24961,-1.186961 1.520475,0.07848 1.661374,0.729737 1.768749,1.777639 -0.05314,0.6442 -0.200657,1.017642 -0.576172,1.453125 -0.237347,0.275244 -0.248455,0.277699 -1.087891,0.380859 -0.465723,0.05723 -2.790527,0.370393 -4.679296,0.695313 -1.8887787,0.324921 -3.5006585,0.589843 -3.5800785,0.589843 -0.099409,0 -0.2725387,-0.192636 -0.5585937,-0.621093 -0.455695,-0.682535 -0.6506349,-0.804144 -0.9667969,-0.597657 -0.472077,0.308318 -1.1420634,1.495084 -1.4121094,2.503907 -0.213605,0.797963 -0.1930856,2.948871 0.037109,4.02539 0.30366,1.420106 0.8797794,3.063243 1.6308593,4.650391 0.3384271,0.715148 0.4971842,0.887033 0.6269532,0.677734 0.026399,-0.04257 0.077461,-0.760288 0.1132812,-1.595703 0.088666,-2.068263 0.2606463,-3.541596 0.4726563,-4.050781 0.309912,-0.744304 0.3087743,-0.81237 -0.056641,-1.5625 -0.381837,-0.783841 -0.4664241,-1.069368 -0.3300781,-1.117188 0.051614,-0.0181 1.0372203,-0.06647 2.1914063,-0.107422 2.4804243,-0.08801 3.4057723,-0.168984 4.6191403,-0.410156 1.067278,-0.212129 1.222709,-0.218168 1.386719,-0.05469 0.129288,0.128825 0.128186,0.216951 -0.0078,1.636718 -0.0638,0.666036 0.115854,1.176147 0.769531,2.189454 0.653661,1.013282 1.044419,1.846981 1.375,2.933593 0.292515,0.961485 0.306413,1.135639 0.105469,1.335938 -0.479904,0.478348 -1.211098,-0.126139 -3.021484,-2.5 -1.405971,-1.84358 -1.802078,-2.271485 -2.105469,-2.271485 -0.495909,0 -1.258377,0.721754 -2.05664,1.945313 -0.484367,0.742421 -0.691877,1.159013 -1.3847658,2.765625 -0.74185,1.720155 -0.8888275,2.186039 -1.2109375,3.876953 -0.248445,1.304238 -0.270725,1.538992 -0.265625,2.642578 0.00579,1.236389 0.1068282,2.587475 0.4726562,5.171302 0.133598,0.943576 0.2428507,1.4837 0.3066406,1.525391 0.1883311,0.123104 0.6317839,-0.508486 1.2675775,-1.800782 1.210588,-2.460617 1.775351,-4.332595 1.929688,-5.667395 0.188056,-1.626399 0.55933,-2.933245 1.107422,-3.910157 0.258685,-0.461079 0.655734,-0.970703 0.757812,-0.970703 0.02923,0 0.214442,0.255516 0.41211,0.56836 0.451597,0.71473 1.488672,1.395426 1.867267,1.566406 0.207642,0.09371 0.390478,0.119144 0.638672,0.08984 l 0.347657,-0.04102 0.0918,0.300781 c 0.07918,0.263413 0.06669,0.392025 -0.08789,1.019532 -0.236561,0.960326 -0.235611,2.087511 0,3.596982 0.193323,1.238548 0.245532,1.408203 0.447265,1.408203 0.287545,0 1.062522,-0.948195 1.535157,-1.878906 0.08372,-0.164873 0.368768,-1.027712 0.634765,-1.917969 0.544961,-1.823915 1.12346,-3.245941 1.22461,-3.348935 0.0416,-0.04236 0.370481,0.07417 0.859375,0.304687 0.782883,0.369141 0.408958,0.375849 1.777263,0.541016 1.05975,0.127921 1.400396,0.19337 1.447266,0.28125 0.03368,0.06318 0.16587,0.64319 0.294922,1.289062 0.815369,4.080638 1.775619,7.746191 2.291015,8.467654 0.244317,0.342011 0.400257,0.276164 0.683594,-0.285156 0.333028,-0.659789 1.312085,-2.954811 2.357422,-5.523438 0.468198,-1.150458 0.894275,-2.374549 0.947266,-2.475466 0.08191,-0.156029 0.167554,-0.190338 0.572265,-0.236328 1.510662,-0.171661 1.806435,-0.219399 2.134766,-0.34375 0.496471,-0.188037 0.886284,-0.513169 1.333984,-1.113281 0.208579,-0.279587 0.403054,-0.507813 0.433594,-0.507813 0.06621,0 0.560089,1.108829 0.882812,1.982422 0.377114,1.020834 0.658018,2.108684 0.775391,3.007812 0.06071,0.465019 0.162696,1.009103 0.228516,1.210938 0.387872,1.189171 1.468719,2.808839 3.146484,4.716797 C 41.520083,44.661804 41.859456,45 41.910156,45 c 0.104733,0 0.190009,-0.27736 0.617188,-1.982422 0.274984,-1.097586 0.358853,-1.314574 0.888672,-2.326172 L 44,39.574219 V 38.15625 c 0,-2.916282 -0.373834,-5.722841 -1.035156,-7.767578 -0.454467,-1.40517 -1.359888,-2.936708 -2.207032,-3.878243 -0.631826,-0.702226 -0.966199,-0.771094 -1.320312,-0.27539 -0.189831,0.265732 -0.420134,0.885371 -0.490234,1.322265 -0.02715,0.169267 -0.09607,0.325387 -0.154297,0.347657 -0.06363,0.02434 -0.257493,0.09476 -0.486328,-0.127781 -0.780531,-0.759066 -1.464628,-1.025275 -1.699219,-0.660156 -0.05835,0.09083 -0.207321,0.429017 -0.332031,0.751953 -0.291184,0.754007 -0.622475,1.022497 -0.857422,1.175945 -0.276777,0.180764 -0.735745,0.09857 -1.379639,-0.197266 -0.480846,-0.220923 -0.541624,-0.274309 -0.773438,-0.6875 -0.372497,-0.663984 -0.433414,-1.050263 -0.333984,-2.117187 0.04598,-0.493321 0.09141,-1.07579 0.09961,-1.54001 l 0.01367,-0.84375 -0.3125,-0.560546 c -0.172598,-0.308584 -0.612554,-0.985662 -0.976562,-1.503907 -0.364004,-0.518245 -0.66211,-0.972002 -0.66211,-1.007812 0,-0.03697 0.359703,-0.04386 0.830078,-0.01563 0.460941,0.02766 1.050689,0.01706 1.330078,-0.02344 l 0.501954,-0.07227 0.904296,-0.939453 c 1.764972,-1.836957 2.238692,-2.469409 2.306641,-3.070313 0.03044,-0.269251 0.0037,-0.381415 -0.146484,-0.605469 -0.294446,-0.439162 -0.695225,-0.809138 -0.933594,-0.861328 -0.344808,-0.07549 -3.292499,0.790816 -4.146485,1.21875 -0.789017,0.395373 -1.532191,0.249731 -2.351562,-0.460937 -0.598478,-0.519075 -2.076627,-1.678487 -3.987547,-3.042022 -1.466386,-1.046344 -1.869469,-1.417014 -1.75,-1.607422 0.04778,-0.07614 0.367981,-0.206203 0.80664,-0.328125 1.413816,-0.392955 2.1513,-0.65341 2.298828,-0.8125001 0.173647,-0.187254 0.677735,-1.9266478 0.677735,-2.3398438 0,-0.225835 -0.06205,-0.3499102 -0.310547,-0.6289062 C 26.024006,5.7641159 25.140746,5 24.8125,5 Z"/>
 <path style="fill:#4f4f4f" d="m 24.8125,4 c -0.09597,0 -0.341689,0.1259719 -0.544922,0.2792969 -0.488091,0.36823 -2.826623,1.8182103 -3.638672,2.2558593 L 19.986328,6.8808594 19.384766,6.7617188 C 19.053184,6.6961128 18.728002,6.6425471 18.664062,6.6425781 18.600127,6.6426091 18.3025,6.8396162 18.001953,7.0820312 17.364806,7.5959463 16.696825,8.109741 16.366015,8.109375 16.239087,8.109225 16.025954,8.0434706 15.893359,7.9628906 15.760761,7.8823066 15.57599,7.8164062 15.48125,7.8164062 c -0.227815,10e-8 -2.799356,1.2784523 -3.527344,1.7539063 -0.559954,0.36571 -1.12197,0.8081925 -1.9960934,1.5683595 -0.487821,0.424223 -0.6861361,0.788787 -0.9238281,1.701172 -0.296489,1.13808 -0.123607,2.176909 0.5,2.62807 0.355033,0.256852 0.9025285,0.852513 1.1425775,1.242188 0.193601,0.314283 0.238776,0.332684 0.837892,0.333984 h 0.533203 l 0.943359,-0.828125 c 0.91958,-0.894147 2.032384,-1.249793 3.24961,-1.186961 1.520475,0.07848 1.661374,0.729737 1.768749,1.777639 -0.05314,0.6442 -0.200657,1.017642 -0.576172,1.453125 -0.237347,0.275244 -0.248455,0.277699 -1.087891,0.380859 -0.465723,0.05723 -2.790527,0.370393 -4.679296,0.695313 -1.8887787,0.324921 -3.5006585,0.589843 -3.5800785,0.589843 -0.099409,0 -0.2725387,-0.192636 -0.5585937,-0.621093 -0.455695,-0.682535 -0.6506349,-0.804144 -0.9667969,-0.597657 -0.472077,0.308318 -1.1420634,1.495084 -1.4121094,2.503907 -0.213605,0.797963 -0.1930856,2.948871 0.037109,4.02539 0.30366,1.420106 0.8797794,3.063243 1.6308593,4.650391 0.3384271,0.715148 0.4971842,0.887033 0.6269532,0.677734 0.026399,-0.04257 0.077461,-0.760288 0.1132812,-1.595703 0.088666,-2.068263 0.2606463,-3.541596 0.4726563,-4.050781 0.309912,-0.744304 0.3087743,-0.81237 -0.056641,-1.5625 -0.381837,-0.783841 -0.4664241,-1.069368 -0.3300781,-1.117188 0.051614,-0.0181 1.0372203,-0.06647 2.1914063,-0.107422 2.4804243,-0.08801 3.4057723,-0.168984 4.6191403,-0.410156 1.067278,-0.212129 1.222709,-0.218168 1.386719,-0.05469 0.129288,0.128825 0.128186,0.216951 -0.0078,1.636718 -0.0638,0.666036 0.115854,1.176147 0.769531,2.189454 0.653661,1.013282 1.044419,1.846981 1.375,2.933593 0.292515,0.961485 0.306413,1.135639 0.105469,1.335938 -0.479904,0.478348 -1.211098,-0.126139 -3.021484,-2.5 -1.405971,-1.84358 -1.802078,-2.271485 -2.105469,-2.271485 -0.495909,0 -1.258377,0.721754 -2.05664,1.945313 -0.484367,0.742421 -0.691877,1.159013 -1.3847658,2.765625 -0.74185,1.720155 -0.8888275,2.186039 -1.2109375,3.876953 -0.248445,1.304238 -0.270725,1.538992 -0.265625,2.642578 0.00579,1.236389 0.1068282,2.587475 0.4726562,5.171302 0.133598,0.943576 0.2428507,1.4837 0.3066406,1.525391 0.1883311,0.123104 0.6317839,-0.508486 1.2675775,-1.800782 1.210588,-2.460617 1.775351,-4.332595 1.929688,-5.667395 0.188056,-1.626399 0.55933,-2.933245 1.107422,-3.910157 0.258685,-0.461079 0.655734,-0.970703 0.757812,-0.970703 0.02923,0 0.214442,0.255516 0.41211,0.56836 0.451597,0.71473 1.488672,1.395426 1.867267,1.566406 0.207642,0.09371 0.390478,0.119144 0.638672,0.08984 l 0.347657,-0.04102 0.0918,0.300781 c 0.07918,0.263413 0.06669,0.392025 -0.08789,1.019532 -0.236561,0.960326 -0.235611,2.087511 0,3.596982 0.193323,1.238548 0.245532,1.408203 0.447265,1.408203 0.287545,0 1.062522,-0.948195 1.535157,-1.878906 0.08372,-0.164873 0.368768,-1.027712 0.634765,-1.917969 0.544961,-1.823915 1.12346,-3.245941 1.22461,-3.348935 0.0416,-0.04236 0.370481,0.07417 0.859375,0.304687 0.782883,0.369141 0.408958,0.375849 1.777263,0.541016 1.05975,0.127921 1.400396,0.19337 1.447266,0.28125 0.03368,0.06318 0.16587,0.64319 0.294922,1.289062 0.815369,4.080638 1.775619,7.746191 2.291015,8.467654 0.244317,0.342011 0.400257,0.276164 0.683594,-0.285156 0.333028,-0.659789 1.312085,-2.954811 2.357422,-5.523438 0.468198,-1.150458 0.894275,-2.374549 0.947266,-2.475466 0.08191,-0.156029 0.167554,-0.190338 0.572265,-0.236328 1.510662,-0.171661 1.806435,-0.219399 2.134766,-0.34375 0.496471,-0.188037 0.886284,-0.513169 1.333984,-1.113281 0.208579,-0.279587 0.403054,-0.507813 0.433594,-0.507813 0.06621,0 0.560089,1.108829 0.882812,1.982422 0.377114,1.020834 0.658018,2.108684 0.775391,3.007812 0.06071,0.465019 0.162696,1.009103 0.228516,1.210938 0.387872,1.189171 1.468719,2.808839 3.146484,4.716797 C 41.520083,43.661804 41.859456,44 41.910156,44 c 0.104733,0 0.190009,-0.27736 0.617188,-1.982422 0.274984,-1.097586 0.358853,-1.314574 0.888672,-2.326172 L 44,38.574219 V 37.15625 c 0,-2.916282 -0.373834,-5.722841 -1.035156,-7.767578 -0.454467,-1.40517 -1.359888,-2.936708 -2.207032,-3.878243 -0.631826,-0.702226 -0.966199,-0.771094 -1.320312,-0.27539 -0.189831,0.265732 -0.420134,0.885371 -0.490234,1.322265 -0.02715,0.169267 -0.09607,0.325387 -0.154297,0.347657 -0.06363,0.02434 -0.257493,0.09476 -0.486328,-0.127781 -0.780531,-0.759066 -1.464628,-1.025275 -1.699219,-0.660156 -0.05835,0.09083 -0.207321,0.429017 -0.332031,0.751953 -0.291184,0.754007 -0.622475,1.022497 -0.857422,1.175945 -0.276777,0.180764 -0.735745,0.09857 -1.379639,-0.197266 -0.480846,-0.220923 -0.541624,-0.274309 -0.773438,-0.6875 -0.372497,-0.663984 -0.433414,-1.050263 -0.333984,-2.117187 0.04598,-0.493321 0.09141,-1.07579 0.09961,-1.54001 l 0.01367,-0.84375 -0.3125,-0.560546 c -0.172598,-0.308584 -0.612554,-0.985662 -0.976562,-1.503907 -0.364004,-0.518245 -0.66211,-0.972002 -0.66211,-1.007812 0,-0.03697 0.359703,-0.04386 0.830078,-0.01563 0.460941,0.02766 1.050689,0.01706 1.330078,-0.02344 l 0.501954,-0.07227 0.904296,-0.939453 c 1.764972,-1.836957 2.238692,-2.469409 2.306641,-3.070313 0.03044,-0.269251 0.0037,-0.381415 -0.146484,-0.605469 -0.294446,-0.439162 -0.695225,-0.809138 -0.933594,-0.861328 -0.344808,-0.07549 -3.292499,0.790816 -4.146485,1.21875 -0.789017,0.395373 -1.532191,0.249731 -2.351562,-0.460937 -0.598478,-0.519075 -2.076627,-1.678487 -3.987547,-3.042022 -1.466386,-1.046344 -1.869469,-1.417014 -1.75,-1.607422 0.04778,-0.07614 0.367981,-0.2062031 0.80664,-0.3281251 1.413816,-0.392955 2.1513,-0.65341 2.298828,-0.8125 0.173647,-0.187254 0.677735,-1.9266478 0.677735,-2.3398438 0,-0.225835 -0.06205,-0.3499102 -0.310547,-0.6289062 C 26.024006,4.7641159 25.140746,4 24.8125,4 Z"/>
 <path style="opacity:0.2" d="m 11,12.999844 c 1.964282,0.911743 0.963385,2.346732 -1.328125,3.597656 0.347857,0.28955 0.790945,0.767579 1.003906,1.113282 0.14839,0.240888 0.215599,0.305447 0.50586,0.324218 C 11.86551,17.285493 13.669573,16.357929 13.9375,15.115078 14.223919,13.786443 14.157735,12.961124 11,12.999844 Z"/>
 <path style="fill:#b2bfd9" d="M 11 12 C 12.964282 12.911743 11.963385 14.346732 9.671875 15.597656 C 10.019732 15.887206 10.46282 16.365235 10.675781 16.710938 C 10.824171 16.951826 10.89138 17.016385 11.181641 17.035156 C 11.86551 16.285649 13.669573 15.358085 13.9375 14.115234 C 14.223919 12.786599 14.157735 11.96128 11 12 z"/>
 <path style="fill:#f4f4f7;opacity:0.1" d="M 24.8125 4 C 24.71653 4 24.470811 4.1259719 24.267578 4.2792969 C 23.779487 4.6475269 21.440955 6.0975072 20.628906 6.5351562 L 19.986328 6.8808594 L 19.384766 6.7617188 C 19.053184 6.6961128 18.728002 6.6425471 18.664062 6.6425781 C 18.600127 6.6426091 18.3025 6.8396162 18.001953 7.0820312 C 17.364806 7.5959463 16.696044 8.109741 16.365234 8.109375 C 16.238306 8.109225 16.025173 8.0434706 15.892578 7.9628906 C 15.75998 7.8823066 15.575209 7.8164062 15.480469 7.8164062 C 15.252654 7.8164064 12.681113 9.0948585 11.953125 9.5703125 C 11.393171 9.9360225 10.831155 10.378505 9.9570312 11.138672 C 9.4692102 11.562895 9.2708951 11.927459 9.0332031 12.839844 C 8.8849586 13.408884 8.8553429 13.953747 8.9394531 14.412109 C 8.9627522 14.223908 8.981973 14.036492 9.0332031 13.839844 C 9.2708951 12.927459 9.4692102 12.562895 9.9570312 12.138672 C 10.831155 11.378505 11.393171 10.936022 11.953125 10.570312 C 12.681113 10.094859 15.252654 8.8164063 15.480469 8.8164062 C 15.575209 8.8164062 15.75998 8.8823066 15.892578 8.9628906 C 16.025173 9.0434706 16.238306 9.109225 16.365234 9.109375 C 16.696044 9.109741 17.364806 8.5959464 18.001953 8.0820312 C 18.3025 7.8396163 18.600127 7.6426091 18.664062 7.6425781 C 18.728002 7.6425471 19.053184 7.6961128 19.384766 7.7617188 L 19.986328 7.8808594 L 20.628906 7.5351562 C 21.440955 7.0975072 23.779487 5.6475269 24.267578 5.2792969 C 24.470811 5.1259719 24.71653 5 24.8125 5 C 25.140746 5 26.024006 5.7641279 27.123047 6.9980469 C 27.221862 7.1089904 27.27264 7.1855829 27.320312 7.2636719 C 27.385313 6.9891273 27.433594 6.747404 27.433594 6.6269531 C 27.433594 6.4011181 27.371544 6.2770429 27.123047 5.9980469 C 26.024006 4.7641279 25.140746 4 24.8125 4 z M 24.261719 10.84375 C 23.939384 10.944823 23.689698 11.044783 23.650391 11.107422 C 23.530922 11.29783 23.934005 11.6685 25.400391 12.714844 C 27.311311 14.078379 28.790194 15.238738 29.388672 15.757812 C 30.208043 16.46848 30.951217 16.614123 31.740234 16.21875 C 32.59422 15.790816 35.541911 14.92451 35.886719 15 C 36.125088 15.05219 36.525866 15.422166 36.820312 15.861328 C 36.829596 15.875177 36.829535 15.883427 36.837891 15.896484 C 36.905097 15.743665 36.951419 15.602789 36.966797 15.466797 C 36.997237 15.197546 36.970497 15.085382 36.820312 14.861328 C 36.525866 14.422166 36.125088 14.05219 35.886719 14 C 35.541911 13.92451 32.59422 14.790816 31.740234 15.21875 C 30.951217 15.614123 30.208043 15.468481 29.388672 14.757812 C 28.790194 14.238737 27.311311 13.078379 25.400391 11.714844 C 24.832231 11.309432 24.542081 11.075111 24.261719 10.84375 z M 17.933594 17.298828 C 17.849221 17.66675 17.701274 17.949338 17.433594 18.259766 C 17.196247 18.53501 17.185139 18.537465 16.345703 18.640625 C 15.87998 18.697855 13.554785 19.011018 11.666016 19.335938 C 9.7772369 19.660858 8.1653575 19.925781 8.0859375 19.925781 C 7.9865285 19.925781 7.8133988 19.733144 7.5273438 19.304688 C 7.0716487 18.622152 6.8767089 18.500544 6.5605469 18.707031 C 6.0884699 19.015349 5.4184835 20.202115 5.1484375 21.210938 C 5.0238043 21.676529 4.9876558 22.597326 5.0175781 23.501953 C 5.0350532 22.979183 5.0717685 22.49735 5.1484375 22.210938 C 5.4184835 21.202115 6.0884699 20.015349 6.5605469 19.707031 C 6.8767089 19.500544 7.0716487 19.622152 7.5273438 20.304688 C 7.8133988 20.733144 7.9865285 20.925781 8.0859375 20.925781 C 8.1653575 20.925781 9.7772369 20.660858 11.666016 20.335938 C 13.554785 20.011018 15.87998 19.697855 16.345703 19.640625 C 17.185139 19.537465 17.196247 19.53501 17.433594 19.259766 C 17.809109 18.824283 17.956626 18.450841 18.009766 17.806641 C 17.990543 17.619042 17.962688 17.459992 17.933594 17.298828 z M 31.332031 20.554688 C 31.183309 20.557503 31.09375 20.569406 31.09375 20.587891 C 31.09375 20.623701 31.391855 21.077458 31.755859 21.595703 C 32.119867 22.113948 32.559824 22.791025 32.732422 23.099609 L 33.023438 23.621094 C 33.024478 23.584463 33.030626 23.539257 33.03125 23.503906 L 33.044922 22.660156 L 32.732422 22.099609 C 32.559824 21.791025 32.119867 21.113948 31.755859 20.595703 C 31.745231 20.580571 31.746839 20.58142 31.736328 20.566406 C 31.589772 20.560521 31.433632 20.552764 31.332031 20.554688 z M 15.878906 22.724609 C 15.861965 22.923519 15.862209 22.987663 15.832031 23.302734 C 15.811965 23.512218 15.828007 23.709061 15.863281 23.908203 C 15.931468 23.157924 15.94665 22.826396 15.878906 22.724609 z M 7.9160156 23.224609 C 7.8819762 23.227737 7.6490187 23.236023 7.6425781 23.238281 C 7.5062321 23.286101 7.5908193 23.571628 7.9726562 24.355469 C 8.037812 24.489221 8.0787992 24.581605 8.1210938 24.679688 C 8.3183755 24.167377 8.2900059 24.006929 7.9726562 23.355469 C 7.9426786 23.29393 7.9423659 23.280131 7.9160156 23.224609 z M 39.84375 24.919922 C 39.699783 24.943398 39.570292 25.048486 39.4375 25.234375 C 39.247669 25.500107 39.017366 26.119747 38.947266 26.556641 C 38.920116 26.725908 38.851196 26.882027 38.792969 26.904297 C 38.729339 26.928637 38.535476 26.999885 38.306641 26.777344 C 37.52611 26.018278 36.842013 25.752069 36.607422 26.117188 C 36.549072 26.208018 36.400101 26.546205 36.275391 26.869141 C 35.984207 27.623148 35.652916 27.891474 35.417969 28.044922 C 35.141192 28.225686 34.682956 28.143492 34.039062 27.847656 C 33.558217 27.626733 33.497439 27.573347 33.265625 27.160156 C 33.074839 26.820075 32.967554 26.549707 32.919922 26.226562 C 32.847742 27.141417 32.917998 27.540504 33.265625 28.160156 C 33.497439 28.573347 33.558217 28.626733 34.039062 28.847656 C 34.682956 29.143492 35.141192 29.225686 35.417969 29.044922 C 35.652916 28.891474 35.984207 28.623148 36.275391 27.869141 C 36.400101 27.546205 36.549072 27.208018 36.607422 27.117188 C 36.842013 26.752069 37.52611 27.018278 38.306641 27.777344 C 38.535476 27.999885 38.729339 27.928637 38.792969 27.904297 C 38.851196 27.882027 38.920116 27.725908 38.947266 27.556641 C 39.017366 27.119747 39.247669 26.500107 39.4375 26.234375 C 39.791613 25.738671 40.125987 25.80754 40.757812 26.509766 C 41.604957 27.451301 42.510377 28.983502 42.964844 30.388672 C 43.626166 32.433409 44 35.239968 44 38.15625 L 44 37.15625 C 44 34.239968 43.626166 31.433409 42.964844 29.388672 C 42.510377 27.983502 41.604957 26.451301 40.757812 25.509766 C 40.362921 25.070874 40.083696 24.880796 39.84375 24.919922 z M 12.955078 24.990234 C 12.459169 24.990234 11.6967 25.711988 10.898438 26.935547 C 10.41407 27.677968 10.206561 28.09456 9.5136719 29.701172 C 8.7718219 31.421327 8.6248444 31.887211 8.3027344 33.578125 C 8.0542894 34.882363 8.0320094 35.117117 8.0371094 36.220703 C 8.0376367 36.3333 8.0524523 36.484266 8.0546875 36.599609 C 8.0703729 36.005786 8.1162032 35.55734 8.3027344 34.578125 C 8.6248444 32.887211 8.7718219 32.421327 9.5136719 30.701172 C 10.206561 29.09456 10.41407 28.677968 10.898438 27.935547 C 11.6967 26.711988 12.459169 25.990234 12.955078 25.990234 C 13.258469 25.990234 13.654576 26.418139 15.060547 28.261719 C 16.870933 30.63558 17.602127 31.240067 18.082031 30.761719 C 18.246303 30.597974 18.222186 30.346675 18.064453 29.773438 C 17.584249 30.221794 16.850265 29.608479 15.060547 27.261719 C 13.654576 25.418139 13.258469 24.990234 12.955078 24.990234 z M 17.185547 33.886719 C 17.169072 33.958068 17.17061 33.982258 17.148438 34.072266 C 16.996906 34.687414 16.953464 35.384658 16.996094 36.193359 C 17.019906 35.795333 17.063458 35.417241 17.148438 35.072266 C 17.303018 34.444759 17.315508 34.316147 17.236328 34.052734 L 17.185547 33.886719 z"/>
</svg>
