<svg xmlns="http://www.w3.org/2000/svg" width="48" height="48" version="1.1">
 <path style="opacity:0.2" d="m 24,4.999585 -0.07617,0.013672 c -9.430078,0.3035516 -12.405168,7.179488 -12.785158,13.060547 -0.288733,4.468701 0.632812,8.363281 0.632812,8.363281 0.09222,0.510081 0.210501,1.035967 0.332032,1.5625 h 0.0039 l -0.0098,0.0039 c 0.147053,0.636388 0.313368,1.282649 0.488282,1.933594 l -5.515626,4.757812 c -2.0481146,2.123971 -0.9486442,5.35306 1.544922,6.201172 0.299512,0.10187 0.737509,-0.310343 1.074219,-0.283203 0.437009,0.03522 0.783575,0.481234 1.271485,0.367188 0.673904,-2.515992 1.878114,-3.971765 3.27539,-5.041016 0.52524,2.092074 0.892897,4.068481 0.78711,5.726563 0,0 0.961617,0.804903 1.072265,1.367187 0.05624,0.285796 -0.06092,0.702925 -0.195312,1.054688 0,0 -0.403465,0.923661 0.5625,0.912109 h 4.86914 c 0.690397,0.02812 0.801953,0.08643 0.90625,-0.628906 l 0.591797,-2.601563 c 0.128169,-0.520763 0.133724,-0.69214 0.517578,-0.701172 v 0.02149 L 24,40.999585 l 0.652344,0.08984 v -0.02149 c 0.383854,0.009 0.389409,0.180409 0.517578,0.701172 l 0.591797,2.601563 c 0.104297,0.715334 0.215853,0.657026 0.90625,0.628906 h 4.86914 c 0.965965,0.01155 0.5625,-0.912109 0.5625,-0.912109 -0.134396,-0.351763 -0.251552,-0.768892 -0.195312,-1.054688 0.110648,-0.562284 1.072265,-1.367187 1.072265,-1.367187 -0.105794,-1.658186 0.261816,-3.634342 0.78711,-5.726563 1.397276,1.069251 2.601486,2.525024 3.27539,5.041016 0.48791,0.114046 0.834476,-0.331968 1.271485,-0.367188 0.33671,-0.02714 0.774707,0.385073 1.074219,0.283203 2.493567,-0.848112 3.593036,-4.077201 1.544922,-6.201172 l -5.513672,-4.757812 c 0.170911,-0.636091 0.332088,-1.268328 0.476562,-1.890625 l -0.111328,-0.04687 h 0.115234 c 0.121531,-0.526533 0.239811,-1.052419 0.332032,-1.5625 0,0 0.921545,-3.89458 0.632812,-8.363281 C 36.481338,12.192745 33.506248,5.3168086 24.076172,5.0132569 Z m -0.01172,2.0117188 a 2.0002,2.0002 0 0 0 0.0078,0 2.0002,2.0002 0 0 0 0.01563,0 c 4.236452,0.1363703 6.654757,1.6241503 8.28125,3.6816402 1.626493,2.057491 2.400692,4.854338 2.572265,7.509766 0.266257,4.120837 -0.582031,7.773437 -0.582031,7.773437 a 2.0002,2.0002 0 0 0 -0.02344,0.105469 c -0.06786,0.375335 -0.166365,0.773047 -0.25586,1.164063 L 24,22.999585 13.988281,27.208569 c -0.0861,-0.378182 -0.182346,-0.76356 -0.248047,-1.126953 a 2.0002,2.0002 0 0 0 -0.02344,-0.105469 c 0,0 -0.848288,-3.6526 -0.582031,-7.773437 0.171573,-2.655428 0.945772,-5.452275 2.572265,-7.509766 1.626493,-2.0574899 4.044798,-3.5452699 8.28125,-3.6816402 z"/>
 <path style="fill:#b2bfd9" d="m 12.096741,27.003954 c 1.08847,4.710486 3.162838,9.960865 2.926697,13.662062 0,0 0.961617,0.804903 1.072265,1.367187 0.05624,0.285796 -0.06092,0.702925 -0.195312,1.054688 0,0 -0.403465,0.923661 0.5625,0.912109 h 4.86914 c 0.690397,0.02812 0.801953,0.08643 0.90625,-0.628906 l 0.591797,-2.601563 c 0.128169,-0.520763 0.133724,-0.69214 0.517578,-0.701172 v 0.02148 L 24,40 l 0.652344,0.08984 v -0.02148 c 0.383854,0.009 0.389409,0.180409 0.517578,0.701172 l 0.591797,2.601563 C 25.866016,44.086429 25.977572,44.02812 26.667969,44 h 4.86914 c 0.965965,0.01155 0.5625,-0.912109 0.5625,-0.912109 -0.134396,-0.351763 -0.251552,-0.768892 -0.195312,-1.054688 0.110648,-0.562284 1.072265,-1.367187 1.072265,-1.367187 -0.235434,-3.690113 1.825824,-8.920145 2.916892,-13.61973 L 24,22 Z"/>
 <path style="fill:#b2bfd9" d="m 7.070108,33.695654 6.106148,-5.268048 2.57416,5.507507 c -2.011084,1.186019 -3.88075,2.654869 -4.789135,6.046282 -0.48791,0.114046 -0.833961,-0.332059 -1.27097,-0.367279 C 9.353601,39.586976 8.914242,39.998367 8.61473,39.896497 6.1211634,39.048385 5.0219929,35.819625 7.070108,33.695654 Z"/>
 <path style="fill:#bac61d" d="m 24,10 c -5.522798,-10e-7 -10,3.986929 -10,8.904969 v 7.658643 c 6.578864,0.766646 13.263794,0.451117 20,-0.38759 V 18.904969 C 34,13.98693 29.522798,10 24,10 Z"/>
 <circle style="opacity:0.2" cx="24" cy="19" r="5"/>
 <circle style="fill:#f4f4f7" cx="24" cy="18" r="5"/>
 <circle style="fill:#4d4d4d" cx="24" cy="18" r="3"/>
 <circle style="fill:#f4f4f7" cx="22.371" cy="16.36" r="1.64"/>
 <ellipse style="fill:#bac61d" cx="24" cy="7.19" rx="2" ry="1"/>
 <path style="fill:#bac61d" d="m 23.506,7.4719543 h 1.036 l 0.482692,2.9481927 h -2.06555 z"/>
 <path style="fill:none;stroke:#5e742c;stroke-linecap:round;stroke-linejoin:round" d="m 19.5,24.473381 c 3.468179,1.782186 6.16577,1.229077 9,0"/>
 <path style="opacity:0.4" d="m 11.586945,29.799287 -0.474609,0.408203 c -0.02575,0.987885 0.339687,1.799827 0.900391,2.478515 0.660645,0.799659 1.580086,1.4367 2.46289,2.076172 0.01115,-0.0081 0.02204,-0.01541 0.0332,-0.02344 l 0.06836,-0.0957 0.164062,-0.226563 c -0.08542,-0.0619 -0.17064,-0.121904 -0.255859,-0.183594 -0.80282,-0.581164 -1.586695,-1.158454 -2.136719,-1.824218 -0.593798,-0.718741 -0.921383,-1.524108 -0.761719,-2.609375 z m -1.841796,1.58789 -0.359375,0.310547 c 0.356515,1.208588 0.913409,2.067966 1.585937,2.705078 0.676379,0.640764 1.459032,1.061129 2.25,1.431641 0.109592,-0.112157 0.220506,-0.221791 0.333984,-0.326172 -0.828405,-0.382299 -1.621965,-0.793607 -2.285156,-1.421875 -0.654383,-0.619924 -1.193138,-1.449884 -1.52539,-2.699219 z m -1.742188,1.50586 -0.339844,0.291015 c 1.342973,2.634436 2.95829,3.400249 4.529297,3.941406 0.08248,-0.127668 0.167268,-0.251747 0.253907,-0.371093 -1.603,-0.541124 -3.113936,-1.174238 -4.44336,-3.861328 z"/>
 <path style="opacity:0.4" d="m 14.984375,38.628906 c 0.0074,0.08973 0.01251,0.178283 0.01953,0.267578 0.0049,0.07227 0.01364,0.147249 0.01758,0.21875 2.508706,1.006334 5.112098,1.618178 7.882813,1.408204 0.07394,-0.278759 0.147484,-0.438515 0.421875,-0.451172 l -0.002,-0.02148 c -2.930091,0.318993 -5.670945,-0.326686 -8.339798,-1.42188 z m 0.04492,1.904297 c -0.0022,0.04236 -0.0033,0.08497 -0.0059,0.126953 -7.8e-5,0.0013 8e-5,0.0026 0,0.0039 0,0 0.220201,0.198489 0.441406,0.425782 0.0261,0.02683 0.02606,0.0203 0.05273,0.04883 0.0031,0.0033 0.0028,0.0026 0.0059,0.0059 2.295745,0.668666 4.644004,0.991358 7.072265,0.65625 l 0.103516,-0.455078 c -2.626349,0.395004 -5.163709,-0.01367 -7.669922,-0.8125 z m 7.443359,1.808594 c -2.126307,0.531175 -4.25905,0.521653 -6.40625,0.205078 -0.03046,0.140536 -0.07598,0.283292 -0.125,0.421875 2.137038,0.320377 4.280053,0.348717 6.421875,-0.150391 z"/>
 <path style="opacity:0.4;fill:none;stroke:#000000;stroke-width:0.38432804" d="m 18.177671,32.015963 c 4.474877,0.669412 7.689412,0.422212 10.416367,-0.179593 m -9.278948,-1.616333 -1.137419,1.795926 1.01769,5.507809 c 3.203685,0.544324 6.134916,0.45292 8.859899,-0.119728 l 0.538778,-5.567674 -0.718371,-1.616333 z"/>
 <path style="fill:#b2bfd9" d="m 40.929892,33.695654 -6.106148,-5.268048 -2.57416,5.507507 c 2.011084,1.186019 3.88075,2.654869 4.789135,6.046282 0.48791,0.114046 0.833961,-0.332059 1.27097,-0.367279 0.33671,-0.02714 0.776069,0.384251 1.075581,0.282381 2.493567,-0.848112 3.592737,-4.076872 1.544622,-6.200843 z"/>
 <path style="opacity:0.4" d="m 36.413055,29.799287 0.474609,0.408203 c 0.02575,0.987885 -0.339687,1.799827 -0.900391,2.478515 -0.660645,0.799659 -1.580086,1.4367 -2.46289,2.076172 -0.01115,-0.0081 -0.02204,-0.01541 -0.0332,-0.02344 l -0.06836,-0.0957 -0.164062,-0.226563 c 0.08542,-0.0619 0.17064,-0.121904 0.255859,-0.183594 0.80282,-0.581164 1.586695,-1.158454 2.136719,-1.824218 0.593798,-0.718741 0.921383,-1.524108 0.761719,-2.609375 z m 1.841796,1.58789 0.359375,0.310547 c -0.356515,1.208588 -0.913409,2.067966 -1.585937,2.705078 -0.676379,0.640764 -1.459032,1.061129 -2.25,1.431641 -0.109592,-0.112157 -0.220506,-0.221791 -0.333984,-0.326172 0.828405,-0.382299 1.621965,-0.793607 2.285156,-1.421875 0.654383,-0.619924 1.193138,-1.449884 1.52539,-2.699219 z m 1.742188,1.50586 0.339844,0.291015 c -1.342973,2.634436 -2.95829,3.400249 -4.529297,3.941406 -0.08248,-0.127668 -0.167268,-0.251747 -0.253907,-0.371093 1.603,-0.541124 3.113936,-1.174238 4.44336,-3.861328 z"/>
 <path style="opacity:0.4" d="m 33.015625,38.628906 c -0.0074,0.08973 -0.01251,0.178283 -0.01953,0.267578 -0.0049,0.07227 -0.01364,0.147249 -0.01758,0.21875 -2.508706,1.006334 -5.112098,1.618178 -7.882813,1.408204 -0.07394,-0.278759 -0.147484,-0.438515 -0.421875,-0.451172 l 0.002,-0.02148 c 2.930091,0.318993 5.670945,-0.326686 8.339798,-1.42188 z m -0.04492,1.904297 c 0.0022,0.04236 0.0033,0.08497 0.0059,0.126953 7.8e-5,0.0013 -8e-5,0.0026 0,0.0039 0,0 -0.220201,0.198489 -0.441406,0.425782 -0.0261,0.02683 -0.02606,0.0203 -0.05273,0.04883 -0.0031,0.0033 -0.0028,0.0026 -0.0059,0.0059 -2.295745,0.668666 -4.644004,0.991358 -7.072265,0.65625 L 25.300788,41.34574 c 2.626349,0.395004 5.163709,-0.01367 7.669922,-0.8125 z m -7.443359,1.808594 c 2.126307,0.531175 4.25905,0.521653 6.40625,0.205078 0.03046,0.140536 0.07598,0.283292 0.125,0.421875 -2.137038,0.320377 -4.280053,0.348717 -6.421875,-0.150391 z"/>
 <path style="fill:#b2bfd9" d="m 24,4 -0.07617,0.013672 c -9.430078,0.3035516 -12.405168,7.179488 -12.785158,13.060547 -0.288733,4.468701 0.632812,8.363281 0.632812,8.363281 0.09222,0.510081 0.210501,1.035967 0.332032,1.5625 h 2.058593 c -0.163221,-0.655684 -0.310062,-1.299527 -0.421875,-1.917969 a 2.0002,2.0002 0 0 0 -0.02344,-0.105469 c 0,0 -0.848288,-3.6526 -0.582031,-7.773437 0.171573,-2.655428 0.945772,-5.452275 2.572265,-7.5097656 1.626493,-2.0574903 4.044798,-3.5452703 8.28125,-3.6816406 a 2.0002,2.0002 0 0 0 0.0078,0 2.0002,2.0002 0 0 0 0.01563,0 c 4.236452,0.1363703 6.654757,1.6241503 8.28125,3.6816406 1.626493,2.0574906 2.400692,4.8543376 2.572265,7.5097656 0.266257,4.120837 -0.582031,7.773437 -0.582031,7.773437 a 2.0002,2.0002 0 0 0 -0.02344,0.105469 C 34.147953,25.700473 34.001112,26.344316 33.837891,27 h 2.058593 c 0.121531,-0.526533 0.239811,-1.052419 0.332032,-1.5625 0,0 0.921545,-3.89458 0.632812,-8.363281 C 36.481338,11.19316 33.506248,4.3172236 24.076172,4.0136719 Z"/>
 <path style="opacity:0.2;fill:#f4f4f7" d="m 24,4 -0.07617,0.013672 c -9.430078,0.3035516 -12.405168,7.179488 -12.785158,13.060547 -0.05047,0.781181 -0.05508,1.531412 -0.04297,2.259765 0.0073,-0.414921 0.01529,-0.831365 0.04297,-1.259765 C 11.518662,12.19316 14.49375,5.3172235 23.923828,5.0136719 L 24,5 24.07617,5.013672 c 9.430076,0.3035517 12.405166,7.179492 12.785156,13.060547 0.02768,0.4284 0.03566,0.844844 0.04297,1.259765 0.01211,-0.728353 0.0075,-1.478584 -0.04297,-2.259765 C 36.481338,11.19316 33.506248,4.3172236 24.076172,4.0136719 Z m 11.623047,25.115234 c -0.07007,0.27467 -0.132704,0.545638 -0.207031,0.822266 l 5.513672,4.757812 c 0.607639,0.630146 0.931923,1.358142 1.03125,2.091797 0.149098,-1.04935 -0.146105,-2.173868 -1.03125,-3.091797 z m -23.244141,0.002 -5.308594,4.578124 C 6.1851669,34.613287 5.8899635,35.737805 6.0390625,36.787155 6.1383885,36.0535 6.4626723,35.325504 7.070312,34.695358 L 12.585938,29.9375 c -0.0742,-0.276149 -0.136738,-0.546246 -0.207032,-0.820312 z m 3.617188,13.660156 c -0.03158,0.104795 -0.05794,0.211709 -0.0957,0.310547 0,0 -0.228354,0.52299 0.06836,0.777343 0.09672,-0.295576 0.171867,-0.603792 0.126953,-0.832031 -0.01596,-0.08109 -0.05369,-0.167818 -0.09961,-0.255859 z m 16.007812,0 c -0.04592,0.08804 -0.08365,0.174768 -0.09961,0.255859 -0.04491,0.228239 0.03023,0.536455 0.126953,0.832031 0.296713,-0.254354 0.06836,-0.777343 0.06836,-0.777343 -0.03776,-0.09884 -0.06413,-0.205752 -0.0957,-0.310547 z"/>
</svg>
