<svg xmlns="http://www.w3.org/2000/svg" width="48" height="48" version="1.1">
 <rect style="opacity:0.2" width="32" height="40" x="8" y="5" rx="2.955" ry="2.902"/>
 <rect style="fill:#b2bfd9" width="32" height="40" x="8" y="4" rx="2.955" ry="2.902"/>
 <path style="opacity:0.15" d="m 11,7 7.23e-4,17 H 36.999437 L 36.998714,7 Z m 7.23e-4,20 7.22e-4,8 H 20 v -2 h 17 v -6 z"/>
 <path style="opacity:0.1" d="m 13,10 v 2 h 18 v -2 z m 9,6 v 2 h 13 v -2 z m -8,3 v 2 h 6 v -2 z"/>
 <rect style="fill:#8ff0a4" width="18" height="2" x="13" y="9"/>
 <rect style="fill:#8ff0a4" width="6" height="2" x="14" y="18"/>
 <rect style="fill:#8ff0a4" width="13" height="2" x="22" y="15"/>
 <path style="opacity:0.1" d="m 19.910156,17.892783 -1.009765,3.029297 1.009765,1.009766 1.009766,5.050781 1.009766,1.011719 7.072265,7.070312 4.515625,4.515625 c 0.559625,0.559622 1.459906,0.559622 2.019531,0 l 4.041016,-4.041016 c 0.559622,-0.559623 0.559622,-1.459907 0,-2.019531 L 35.0625,29.004111 27.992188,21.931846 26.982422,20.92208 h -0.002 l -5.050781,-1.009766 z"/>
 <path style="fill:#33d17a" d="m 26.98154,19.922351 -1.007254,1.007254 c -0.0011,0.0011 -0.0024,0.0017 -0.0035,0.0028 l -4.040179,4.040164 c -0.0011,0.0011 -0.0017,0.0024 -0.0028,0.0035 l -1.007255,1.007255 1.010045,1.010045 7.07101,7.071008 4.515904,4.515906 c 0.559625,0.559622 1.460464,0.559622 2.020089,0 l 4.04088,-4.040878 c 0.559622,-0.559624 0.559622,-1.460464 0,-2.020088 l -4.515901,-4.51591 -7.071009,-7.071011 z"/>
 <path style="fill:#33d17a" d="m 19.910153,16.891622 2.020305,2.020306 -2.020305,2.020305 L 18.9,19.92208 Z"/>
 <path style="fill:#3d3846" d="m 19.910153,20.932233 1.010152,5.050762 6.060915,-6.060915 -5.050762,-1.010152 z"/>
 <path style="opacity:0.2;fill:#f4f4f7" d="M 10.955078 4 C 9.3182599 4 8 5.2947544 8 6.9023438 L 8 7.9023438 C 8 6.2947544 9.3182599 5 10.955078 5 L 37.044922 5 C 38.68174 5 40 6.2947544 40 7.9023438 L 40 6.9023438 C 40 5.2947544 38.68174 4 37.044922 4 L 10.955078 4 z"/>
</svg>
