<svg xmlns="http://www.w3.org/2000/svg" width="48" height="48" version="1">
 <rect style="opacity:0.2" width="40" height="40" x="4" y="5" rx="2" ry="2"/>
 <rect style="fill:#b2bfd9" width="40" height="40" x="4" y="4" rx="2" ry="2"/>
 <path style="opacity:0.2;fill:#f4f4f7" d="M 6,4 C 4.892,4 4,4.892 4,6 V 7 C 4,5.892 4.892,5 6,5 h 36 c 1.108,0 2,0.892 2,2 V 6 C 44,4.892 43.108,4 42,4 Z"/>
 <path style="opacity:0.1;fill:none;stroke:#000000;stroke-width:8;stroke-linecap:round;stroke-linejoin:round" d="m 15.046433,27 7.000401,5.000202 11,-14"/>
 <path style="fill:none;stroke:#3b89e1;stroke-width:8;stroke-linecap:round;stroke-linejoin:round" d="m 15.046433,26 7.000401,5.000202 11,-14"/>
</svg>
