<svg width="48" height="48" version="1" xmlns="http://www.w3.org/2000/svg">
 <rect transform="matrix(0,-1,-1,0,0,0)" x="-40" y="-44" width="32" height="40" rx="2" ry="2" style="fill:#dd2d2d"/>
 <path d="m6 8c-1.108 0-2 0.892-2 2v1c0-1.108 0.892-2 2-2h36c1.108 0 2 0.892 2 2v-1c0-1.108-0.892-2-2-2h-36z" style="fill:#f4f4f7;opacity:.2"/>
 <path d="m4 38v1c0 1.108 0.892 2 2 2h36c1.108 0 2-0.892 2-2v-1c0 1.108-0.892 2-2 2h-36c-1.108 0-2-0.892-2-2z" style="opacity:.2"/>
 <rect x="6" y="13" width="4" height="4" rx=".899" ry=".871" style="opacity:.4"/>
 <rect x="6" y="31" width="4" height="4" rx=".899" ry=".871" style="opacity:.4"/>
 <rect x="6" y="25" width="4" height="4" rx=".899" ry=".871" style="opacity:.4"/>
 <rect x="6" y="19" width="4" height="4" rx=".899" ry=".871" style="opacity:.4"/>
 <rect x="38" y="13" width="4" height="4" rx=".899" ry=".871" style="opacity:.4"/>
 <rect x="38" y="31" width="4" height="4" rx=".899" ry=".871" style="opacity:.4"/>
 <rect x="38" y="25" width="4" height="4" rx=".899" ry=".871" style="opacity:.4"/>
 <rect x="38" y="19" width="4" height="4" rx=".899" ry=".871" style="opacity:.4"/>
 <path d="m18.603175 17.00012c-0.544617-0.01067-0.638296 0.689704-0.59328 1.195302 4e-3 4.731926-7e-3 9.464493 5e-3 14.196207 0.04789 0.565758 0.655619 0.791805 1.001143 0.440948 3.692794-2.422603 9.064213-4.828566 12.751497-7.261624 0.402343-0.334889 0.248247-1.114768-0.200836-1.276901-3.692895-2.413003-9.050587-4.839233-12.746487-7.244023-0.06903-0.03285-0.143225-0.04981-0.217458-0.04992z" style="opacity:.1"/>
 <path d="m18.603175 16.00012c-0.544617-0.01067-0.638296 0.689704-0.59328 1.195302 4e-3 4.731926-7e-3 9.464493 5e-3 14.196207 0.04789 0.565758 0.655619 0.791805 1.001143 0.440948 3.692794-2.422603 9.064213-4.828566 12.751497-7.261624 0.402343-0.334889 0.248247-1.114768-0.200836-1.276901-3.692895-2.413003-9.050587-4.839233-12.746487-7.244023-0.06903-0.03285-0.143225-0.04981-0.217458-0.04992z" style="fill:#3f3f3f"/>
</svg>
