<svg xmlns="http://www.w3.org/2000/svg" width="48" height="48" version="1.1">
 <g transform="translate(0,-1074.5197)">
  <path style="opacity:0.2" d="m 24,1081.2539 -17,9.0664 v 1.1992 17.0586 l 13.45851,9.1495 3.54149,0.7921 3.68713,-1.0794 L 41,1108.5918 v -18.2715 z m -2,5.5996 v 9.334 l -8.75,-4.668 z m 4,0 8.751953,4.666 L 26,1096.1875 Z m -15,8 8.75,4.666 -8.75,4.668 z m 26,0 v 9.334 l -8.75,-4.668 z m -15,8 v 11.084 l -9.136719,-6.2109 z m 4,0 9.101562,4.8555 L 26,1113.7578 Z"/>
  <path style="fill:none;stroke:#364451;stroke-width:4" d="m 24,1082.5197 v 16"/>
  <path style="fill:none;stroke:#364451;stroke-width:4" d="m 9,1106.5197 15,-8 15,8"/>
  <path style="fill:none;stroke:#7e8f99;stroke-width:4" d="m 9,1090.5197 15,8 15,-8"/>
  <path style="fill:none;stroke:#7e8f99;stroke-width:4" d="m 24,1114.5197 v -16"/>
  <path style="fill:none;stroke:#53626c;stroke-width:4" d="m 9,1090.5197 15,-8 15,8 v 16 L 23.831074,1116.6018 9,1106.5197 Z"/>
  <path style="opacity:0.2" d="m 24,1078.5197 a 4.9999971,4.9999971 0 0 0 -5,5 4.9999971,4.9999971 0 0 0 5,5 4.9999971,4.9999971 0 0 0 5,-5 4.9999971,4.9999971 0 0 0 -5,-5 z m 14.882812,8.002 a 4.9999981,4.9999981 0 0 0 -2.382812,0.6679 4.9999981,4.9999981 0 0 0 -1.830078,6.8301 4.9999981,4.9999981 0 0 0 6.830078,1.8301 4.9999981,4.9999981 0 0 0 1.830078,-6.8301 4.9999981,4.9999981 0 0 0 -4.447266,-2.498 z m -30.1191401,0 a 4.999886,4.999886 0 0 0 -4.09375,2.4941 4.999886,4.999886 0 0 0 1.8300781,6.8301 4.999886,4.999886 0 0 0 6.830078,-1.8301 4.999886,4.999886 0 0 0 -1.830078,-6.8301 4.999886,4.999886 0 0 0 -2.7363281,-0.664 z M 24,1094.5197 a 4.9999976,4.9999976 0 0 0 -5,5 4.9999976,4.9999976 0 0 0 5,5 4.9999976,4.9999976 0 0 0 5,-5 4.9999976,4.9999976 0 0 0 -5,-5 z m -15.1171875,8.002 A 5,5 0 0 0 6.5,1103.1896 a 5,5 0 0 0 -1.8300781,6.8301 5,5 0 0 0 6.8300781,1.8301 5,5 0 0 0 1.830078,-6.8301 5,5 0 0 0 -4.4472655,-2.498 z m 29.8808595,0 a 4.9999981,4.9999981 0 0 0 -4.09375,2.4941 4.9999981,4.9999981 0 0 0 1.830078,6.8301 4.9999981,4.9999981 0 0 0 6.830078,-1.8301 4.9999981,4.9999981 0 0 0 -1.830078,-6.8301 4.9999981,4.9999981 0 0 0 -2.736328,-0.664 z M 24,1110.5197 a 5,5 0 0 0 -5,5 5,5 0 0 0 5,5 5,5 0 0 0 5,-5 5,5 0 0 0 -5,-5 z"/>
  <circle style="fill:#9bdb4d" cx="24" cy="1082.52" r="5"/>
  <circle style="fill:#9bdb4d" cx="24" cy="1114.52" r="5"/>
  <circle style="fill:#9bdb4d" cx="963.918" cy="511.485" r="5" transform="rotate(59.999999)"/>
  <circle style="fill:#9bdb4d" cx="962.774" cy="545.466" r="5" transform="rotate(59.999999)"/>
  <circle style="fill:#9bdb4d" cx="938.774" cy="-587.035" r="5" transform="rotate(120)"/>
  <circle style="fill:#9bdb4d" cx="939.918" cy="-553.054" r="5" transform="rotate(120)"/>
  <circle style="fill:#9bdb4d" cx="24" cy="1098.52" r="5"/>
  <path style="opacity:0.2;fill:#f4f4f7" d="m 24,1077.5197 a 4.9999971,4.9999971 0 0 0 -5,5 4.9999971,4.9999971 0 0 0 0.02734,0.5156 4.9999971,4.9999971 0 0 1 4.972656,-4.5156 4.9999971,4.9999971 0 0 1 4.972656,4.4844 4.9999971,4.9999971 0 0 0 0.02734,-0.4844 4.9999971,4.9999971 0 0 0 -5,-5 z m -14.8828125,8.002 a 4.999886,4.999886 0 0 0 -0.3535156,0 4.999886,4.999886 0 0 0 -4.09375,2.4941 4.999886,4.999886 0 0 0 -0.640625,3.0039 4.999886,4.999886 0 0 1 0.640625,-2.0078 4.999886,4.999886 0 0 1 4.09375,-2.4942 4.999886,4.999886 0 0 1 2.7363281,0.6641 4.999886,4.999886 0 0 1 2.470703,3.8262 4.999886,4.999886 0 0 0 -2.470703,-4.8223 4.999886,4.999886 0 0 0 -2.3828125,-0.6679 z m 29.7656245,0 a 4.9999981,4.9999981 0 0 0 -2.382812,0.6679 4.9999981,4.9999981 0 0 0 -2.46875,4.8301 4.9999981,4.9999981 0 0 1 2.46875,-3.8301 4.9999981,4.9999981 0 0 1 2.382812,-0.6679 4.9999981,4.9999981 0 0 1 4.447266,2.498 4.9999981,4.9999981 0 0 1 0.638672,2 4.9999981,4.9999981 0 0 0 -0.638672,-3 4.9999981,4.9999981 0 0 0 -4.447266,-2.498 z M 24,1093.5197 a 4.9999976,4.9999976 0 0 0 -5,5 4.9999976,4.9999976 0 0 0 0.02734,0.5156 4.9999976,4.9999976 0 0 1 4.97266,-4.5156 4.9999976,4.9999976 0 0 1 4.972656,4.4844 4.9999976,4.9999976 0 0 0 0.02734,-0.4844 4.9999976,4.9999976 0 0 0 -5,-5 z m -15.1171875,8.002 A 5,5 0 0 0 6.5,1102.1896 a 5,5 0 0 0 -2.46875,4.8301 5,5 0 0 1 2.46875,-3.8301 5,5 0 0 1 2.3828125,-0.6679 5,5 0 0 1 4.4472655,2.498 5,5 0 0 1 0.638672,2 5,5 0 0 0 -0.638672,-3 5,5 0 0 0 -4.4472655,-2.498 z m 30.2343755,0 a 4.9999981,4.9999981 0 0 0 -0.353516,0 4.9999981,4.9999981 0 0 0 -4.09375,2.4941 4.9999981,4.9999981 0 0 0 -0.640625,3.0039 4.9999981,4.9999981 0 0 1 0.640625,-2.0078 4.9999981,4.9999981 0 0 1 4.09375,-2.4942 4.9999981,4.9999981 0 0 1 2.736328,0.6641 4.9999981,4.9999981 0 0 1 2.470703,3.8262 4.9999981,4.9999981 0 0 0 -2.470703,-4.8223 4.9999981,4.9999981 0 0 0 -2.382812,-0.6679 z M 24,1109.5197 a 5,5 0 0 0 -5,5 5,5 0 0 0 0.02734,0.5156 5,5 0 0 1 4.97266,-4.5156 5,5 0 0 1 4.972656,4.4844 5,5 0 0 0 0.02734,-0.4844 5,5 0 0 0 -5,-5 z"/>
 </g>
</svg>
