<svg xmlns="http://www.w3.org/2000/svg" width="48" height="48" version="1">
 <circle style="opacity:0.2" cx="24" cy="25" r="20"/>
 <circle style="fill:#4caf50" cx="24" cy="24" r="20"/>
 <path style="opacity:0.2;fill:#f4f4f7" d="M 24,4 A 20,20 0 0 0 4,24 20,20 0 0 0 4.0215,24.582 20,20 0 0 1 23.9995,5 20,20 0 0 1 43.9785,24.418 20,20 0 0 0 43.9995,24 a 20,20 0 0 0 -20,-20 z"/>
 <path style="opacity:0.2" d="m 23.636719,11.005402 c -0.418068,0.01156 -0.834932,0.04139 -1.25,0.08985 -3.320545,0.387712 -6.502274,1.949858 -8.863281,4.609474 -4.7220147,5.31923 -4.6946101,13.374386 0.06445,18.660556 4.759073,5.286169 12.774362,6.167624 18.568359,2.039106 a 2.0037307,2.0016465 0 1 0 -2.326172,-3.259835 c -4.161534,2.965304 -9.845472,2.343629 -13.263672,-1.453157 -3.418199,-3.796786 -3.438458,-9.50983 -0.04687,-13.330363 3.391581,-3.820531 9.071752,-4.48507 13.253907,-1.548862 a 2.0034271,2.0013432 0 1 0 2.304687,-3.273508 C 29.53069,11.750155 26.563197,10.924528 23.636719,11.005402 Z M 33,17.999693 V 22.9998 h -7 a 2,2.0000429 0 0 0 -2,2.000043 2,2.0000429 0 0 0 2,2.000043 h 7 v 5.000107 l 9,-7.00015 z"/>
 <path style="fill:#f4f4f7" d="m 23.636719,10.005259 c -0.418068,0.01156 -0.834932,0.04139 -1.25,0.08985 -3.320545,0.387712 -6.502274,1.949858 -8.863281,4.609474 -4.7220147,5.31923 -4.6946101,13.374386 0.06445,18.660556 4.759073,5.286169 12.774362,6.167624 18.568359,2.039106 A 2.0037307,2.0016465 0 1 0 29.830075,32.14441 c -4.161534,2.965304 -9.845472,2.343629 -13.263672,-1.453157 -3.418199,-3.796786 -3.438458,-9.50983 -0.04687,-13.330363 3.391581,-3.820531 9.071752,-4.48507 13.253907,-1.548862 A 2.0034271,2.0013432 0 1 0 32.078127,12.53852 C 29.53069,10.750012 26.563197,9.9243845 23.636719,10.005259 Z M 33,16.99955 v 5.000107 h -7 a 2,2.0000429 0 0 0 -2,2.000043 2,2.0000429 0 0 0 2,2.000043 h 7 v 5.000107 l 9,-7.00015 z"/>
</svg>
