<svg xmlns="http://www.w3.org/2000/svg" width="48" height="48" version="1">
 <path opacity=".2" d="m2.0234 28.568c-0.0083 0.175-0.0234 0.347-0.0234 0.524 0 6.025 4.9249 10.908 11 10.908h23.375c5.316 0 9.625-4.273 9.625-9.545 0-0.173-0.014-0.343-0.023-0.514-0.258 5.044-4.452 9.059-9.602 9.059h-23.375c-5.9129 0-10.723-4.63-10.977-10.432z"/>
 <path fill="#b2bfd9" d="m24 9c-5.695 0-10.545 3.458-12.633 8.352-5.3013 0.782-9.367 5.264-9.367 10.739 0 6.025 4.9249 10.909 11 10.909h23.375c5.316 0 9.625-4.274 9.625-9.545 0-4.9-3.715-8.915-8.508-9.461-1.25-6.254-6.818-10.994-13.492-10.994z"/>
 <path fill="#fff" opacity=".2" d="m24 9c-5.695 0-10.545 3.457-12.633 8.352-5.3013 0.781-9.367 5.265-9.367 10.74 0 0.161 0.0165 0.317 0.0234 0.476 0.2507-5.234 4.213-9.46 9.3436-10.216 2.088-4.895 6.938-8.352 12.633-8.352 6.674 0 12.242 4.739 13.492 10.994 4.624 0.526 8.234 4.284 8.485 8.947 0.008-0.162 0.023-0.322 0.023-0.486 0-4.9-3.715-8.915-8.508-9.461-1.25-6.255-6.818-10.994-13.492-10.994z"/>
 <g opacity=".5" transform="translate(-408,-493)">
  <path d="m435 512.95c-0.38828 0-0.75331 0.0893-1.084 0.23828 0.0546 0.26205 0.084 0.53308 0.084 0.81054 0 1.1021-0.45422 2.1042-1.1836 2.8301 0.46 0.7 1.26 1.17 2.18 1.17 1.4327 0 2.5938-1.1303 2.5938-2.5254s-1.1611-2.5273-2.5938-2.5273zm0 6.05c-0.1961 0-0.37171 0.0126-0.55273 0.0215 0.69756 0.39966 1.2291 0.87712 1.6035 1.377 0.94 1.26 0.95 2.6 0.95 2.6h3v-1s0-3-5-3z"/>
  <path d="m430 511c1.6569 0 3 1.3432 3 3s-1.3431 3-3 3-3-1.3432-3-3 1.3431-3 3-3z"/>
  <path d="m430 519c6-0.01 6 4 6 4v1h-12v-1s0-4 6.0002-4.0034z"/>
 </g>
</svg>
