<svg xmlns="http://www.w3.org/2000/svg" width="48" height="48" version="1">
 <rect style="opacity:0.2" width="40" height="32" x="-45" y="-40" rx="2" ry="2" transform="matrix(0,-1,-1,0,0,0)"/>
 <rect style="fill:#8e8e8e" width="40" height="32" x="-44" y="-40" rx="2" ry="2" transform="matrix(0,-1,-1,0,0,0)"/>
 <path style="fill:#f4f4f7;opacity:0.2" d="m10 4c-1.108 0-2 0.892-2 2v1c0-1.108 0.892-2 2-2h28c1.108 0 2 0.892 2 2v-1c0-1.108-0.892-2-2-2h-28z"/>
 <path style="opacity:0.5" d="m 12.741669,13.500001 1.830127,6.830127 6.830127,-1.830127 -2.598076,-1.5 C 20.460701,14.130246 24.130244,13.146995 27,14.803849 c 2.869755,1.656854 3.853006,5.326397 2.196152,8.196152 C 27.539298,25.869757 23.869755,26.853008 21,25.196154 20.063145,24.652489 19.290979,23.865296 18.765382,22.918186 L 14.832723,23.97194 C 15.683042,25.941207 17.144035,27.584872 19,28.660255 23.782925,31.421679 29.89883,29.782927 32.660254,25.000001 35.421677,20.217076 33.782925,14.101171 29,11.339747 24.217074,8.5783238 18.101169,10.217076 15.339746,15.000001 Z"/>
 <circle style="opacity:0.2" cx="36" cy="37" r="11"/>
 <circle style="fill:#3583f3" cx="36" cy="36" r="11"/>
 <path style="fill:#f4f4f7;fill-rule:evenodd" d="m 38,31 v 2 h -3.160154 c -1.371845,8e-5 -2.639452,0.773569 -3.325374,1.953268 -0.685963,1.179767 -0.685963,2.969738 0,4.149506 C 32.16745,40.222129 33.347423,40.93642 34.648593,41 33.667089,40.902435 32.999911,40.382474 33,39.403 33,38.35005 33.77944,38 34.839846,38 H 38 v 2 l 5,-4.5 z"/>
</svg>
