<svg xmlns="http://www.w3.org/2000/svg" width="48" height="48" version="1.1">
 <path style="opacity:0.2" d="m 23.999995,24.999947 c -12.999996,0 -19.9999947,20.000008 -19.9999947,20.000008 h 6.9999987 c 4.999999,0 5.999998,-7.000024 12.999996,-14.000009 6.999999,6.999985 7.999999,14.000009 12.999997,14.000009 h 7.000001 c 0,0 -4.498794,-12.83497 -12.974608,-17.937483 0.0059,5.67e-4 0.01168,-6.42e-4 0.01758,0 -0.57655,-0.384377 -1.420271,-0.806891 -2.371093,-1.169952 -0.121671,-0.04724 -0.246089,-0.08693 -0.369143,-0.130772 -0.215203,-0.07635 -0.430141,-0.148535 -0.652343,-0.216944 -0.102406,-0.03024 -0.20527,-0.05972 -0.308595,-0.08806 -1.139266,-0.32504 -2.32457,-0.528907 -3.341796,-0.457059 z"/>
 <path style="fill:#eba43c" d="m 43.999993,43.999968 c 0,0 -6.999999,-20.000008 -19.999996,-20.000008 v 5.999998 c 6.999998,6.999986 7.999998,14.00001 12.999997,14.00001 z"/>
 <path style="opacity:0.1;fill:#f4f4f7" d="m 24.000001,23.999965 v 1 c 11.274061,0 18.016634,15.005923 19.613281,19 h 0.386719 c 0,0 -7,-20 -20,-20 z"/>
 <path style="fill:#4f4f4f" d="m 3.9999999,43.999968 c 0,0 6.9999991,-20.000008 19.9999961,-20.000008 2.332379,-0.164788 5.563049,1.074519 7.04379,2.061694 -3.658791,-0.385625 -7.043789,3.938304 -7.043789,3.938304 C 16.999998,36.999944 15.999999,43.999968 11,43.999968 Z"/>
 <path style="opacity:0.1;fill:#f4f4f7" d="m 24.000001,23.999965 c -13,0 -19.9999997,20 -19.9999997,20 h 0.3867188 c 1.5966474,-3.994077 8.3392199,-19 19.6132809,-19 1.664557,-0.117604 3.777536,0.4827 5.394531,1.193359 0.536717,-0.12964 1.087656,-0.189964 1.648438,-0.130859 -1.480742,-0.987175 -4.71059,-2.227287 -7.042969,-2.0625 z"/>
 <path style="opacity:0.2" d="m 4.0000003,4.9995609 c 0,0 4.4987899,12.8349701 12.9746057,17.9374821 -0.0059,-5.66e-4 -0.01168,6.43e-4 -0.01757,0 0.576549,0.384378 1.42027,0.806892 2.371093,1.169953 0.121671,0.04724 0.246089,0.08693 0.369143,0.130772 0.215202,0.07635 0.430141,0.148535 0.652343,0.216944 0.102406,0.03024 0.205273,0.05972 0.308594,0.08769 1.139267,0.32504 2.324571,0.528907 3.341797,0.457059 C 36.999998,24.999456 44,4.9994475 44,4.9994475 h -7.000008 c -4.999998,0 -5.999998,7.0000235 -12.999997,14.0000095 C 16.999997,11.999471 15.999998,4.9994475 10.999999,4.9994475 Z"/>
 <path style="fill:#568cbf" d="m 4.0000003,3.9999517 c 0,0 6.9999977,20.0000083 19.9999947,20.0000083 l 1e-6,-5.999999 C 16.999998,10.999975 15.999998,3.9999517 10.999999,3.9999517 Z"/>
 <path style="opacity:0.1;fill:#f4f4f7" d="m 4.0000013,3.9999652 c 0,0 0.142289,0.3885493 0.3867188,1 h 6.6132809 c 5,0 6,7.0000128 13,13.9999998 v -1 c -7,-6.999987 -8,-13.9999998 -13,-13.9999998 z"/>
 <path style="fill:#4f4f4f" d="m 43.999993,3.9999517 c 0,0 -6.999999,20.0000083 -19.999997,20.0000083 -2.332379,0.164787 -5.563048,-1.07452 -7.04379,-2.061694 3.658792,0.385625 7.04379,-3.938305 7.04379,-3.938305 6.999998,-6.999986 7.999998,-14.0000093 12.999997,-14.0000093 z"/>
 <path style="opacity:0.1;fill:#f4f4f7" d="m 37.000001,3.9999652 c -5,0 -6,7.0000128 -13,13.9999998 0,0 -3.384177,4.323125 -7.042969,3.9375 0.423976,0.282654 0.999698,0.584023 1.648438,0.869141 2.96506,-0.716189 5.394531,-3.806641 5.394531,-3.806641 7,-6.999987 8,-13.9999998 13,-13.9999998 h 6.613281 c 0.24443,-0.6114507 0.386719,-1 0.386719,-1 z"/>
</svg>
