<svg xmlns="http://www.w3.org/2000/svg" width="48" height="48" version="1">
 <circle style="opacity:0.2" cx="24" cy="25" r="20"/>
 <circle style="fill:#546e7a" cx="24" cy="24" r="20"/>
 <path style="opacity:0.1" d="m 25.39741,9.0003621 c -0.276398,-0.0016 -0.383457,0.2174976 -0.944189,1.9240919 l -0.558031,1.696414 -0.850439,0.0759 c -0.468371,0.04232 -1.009237,0.109713 -1.200883,0.149552 -0.253367,0.05264 -0.371416,0.05383 -0.433032,0.0023 -0.04658,-0.03872 -0.441522,-0.678875 -0.877225,-1.421869 -0.870734,-1.4848432 -1.047544,-1.7232001 -1.292399,-1.7232001 -0.257324,0 -1.981563,0.6867361 -2.107126,0.8392791 -0.06161,0.07488 -0.11041,0.228652 -0.10937,0.339283 7.99e-4,0.110627 0.155714,0.920307 0.343748,1.801324 0.188043,0.881025 0.33065,1.632158 0.316961,1.667398 -0.01367,0.0352 -0.218352,0.182827 -0.455353,0.330353 -0.236999,0.147527 -0.668009,0.458417 -0.95535,0.689727 -0.287329,0.23131 -0.549146,0.421871 -0.582584,0.421871 -0.03342,0 -0.705126,-0.364992 -1.493291,-0.810261 -1.620596,-0.915536 -1.6977,-0.950847 -1.926324,-0.863831 -0.247006,0.09401 -1.459808,1.632976 -1.459808,1.852662 0,0.238094 0.05865,0.31225 1.294631,1.687487 0.590925,0.657482 1.073652,1.242249 1.073652,1.299096 0,0.0568 -0.123675,0.355288 -0.276783,0.662941 -0.153111,0.307654 -0.357709,0.767155 -0.453122,1.020081 -0.09542,0.252918 -0.208676,0.488365 -0.25223,0.524549 -0.04866,0.04048 -0.761399,0.07313 -1.85043,0.08482 -2.1849022,0.02344 -1.9926762,-0.08177 -2.1986442,1.218739 -0.07976,0.50373 -0.147594,0.991806 -0.149551,1.084813 -0.0072,0.346501 0.139306,0.423422 1.917394,1.008921 l 1.6941822,0.558031 0.07366,0.830349 c 0.04131,0.457421 0.107108,1.001822 0.145088,1.20758 0.03803,0.205766 0.05273,0.39952 0.03348,0.4308 -0.01934,0.03128 -0.674203,0.434501 -1.455344,0.897314 -0.7811472,0.46282 -1.4832752,0.912504 -1.5624882,0.997759 -0.0792,0.08527 -0.145088,0.230627 -0.145088,0.323658 0,0.272166 0.698105,1.989815 0.852672,2.098198 0.202076,0.141679 0.37655,0.120735 2.1227512,-0.25223 0.879748,-0.187903 1.629594,-0.327658 1.665164,-0.312498 0.03555,0.0152 0.184925,0.219364 0.332587,0.455354 0.147654,0.235982 0.460051,0.667991 0.694191,0.959812 0.291327,0.363109 0.411961,0.565253 0.383925,0.638388 -0.02254,0.0588 -0.383237,0.717336 -0.803565,1.464274 -0.861512,1.530962 -0.911108,1.637433 -0.854904,1.861591 0.05746,0.229246 1.641977,1.4961 1.870521,1.495524 0.23572,-5.92e-4 0.348615,-0.08675 1.669629,-1.28124 0.643075,-0.581475 1.21751,-1.065636 1.276775,-1.075884 0.05929,-0.01029 0.365081,0.109268 0.680798,0.265623 0.315716,0.156359 0.798585,0.363475 1.071419,0.459818 0.272833,0.09633 0.501972,0.178786 0.508925,0.183034 0.0072,0.004 0.02739,0.835936 0.04688,1.848199 0.04346,2.260582 -0.05967,2.063385 1.203115,2.267839 0.948917,0.15363 1.323178,0.154671 1.475434,0.0023 0.05306,-0.05312 0.344845,-0.855939 0.649549,-1.783468 l 0.553567,-1.685254 0.638386,-0.04911 c 0.350289,-0.02696 0.8952,-0.09296 1.212044,-0.14509 0.573558,-0.09438 0.577684,-0.09407 0.696423,0.04911 0.06561,0.07912 0.473466,0.748769 0.908475,1.488827 0.435006,0.740058 0.853195,1.398137 0.928563,1.459809 0.206376,0.16887 0.353707,0.14184 1.350436,-0.238837 0.950564,-0.363053 1.141255,-0.495623 1.140616,-0.794637 -1.92e-4,-0.09302 -0.155749,-0.902947 -0.34598,-1.801323 -0.190234,-0.898377 -0.33156,-1.657991 -0.314729,-1.685255 0.01687,-0.02728 0.236029,-0.188493 0.488835,-0.359372 0.252799,-0.170878 0.675697,-0.48696 0.939724,-0.703119 0.264035,-0.216158 0.507784,-0.392813 0.540174,-0.392853 0.03238,-4.8e-5 0.723193,0.370761 1.535702,0.823653 1.661056,0.925856 1.650808,0.92127 1.87052,0.866064 0.233788,-0.05872 1.495523,-1.646218 1.495523,-1.88168 0,-0.220279 -0.05328,-0.288747 -1.310257,-1.689719 -0.564336,-0.628987 -1.036046,-1.19515 -1.046866,-1.258918 -0.01097,-0.06376 0.09798,-0.349022 0.24107,-0.633923 0.143089,-0.284902 0.347361,-0.742226 0.455352,-1.015616 0.107988,-0.273391 0.224642,-0.525024 0.258927,-0.560264 0.03709,-0.03808 0.787363,-0.07691 1.850432,-0.09598 1.705506,-0.03056 1.794352,-0.03962 1.921858,-0.16741 0.104651,-0.104879 0.166511,-0.341075 0.287944,-1.089277 0.08528,-0.525436 0.155737,-1.016125 0.156249,-1.091509 0.0024,-0.304573 -0.180826,-0.397674 -1.919627,-0.975437 l -1.696414,-0.562496 -0.07143,-0.828118 c -0.03971,-0.45542 -0.10377,-0.998629 -0.142856,-1.205348 -0.03907,-0.206717 -0.0553,-0.401328 -0.03571,-0.433031 0.01959,-0.03168 0.674461,-0.43559 1.455345,-0.897314 0.780885,-0.461724 1.483282,-0.909593 1.562486,-0.995528 0.0792,-0.08593 0.145089,-0.228923 0.145089,-0.316962 0,-0.25247 -0.687724,-1.966085 -0.839278,-2.0915 -0.19255,-0.159335 -0.32415,-0.145756 -1.854896,0.180802 -1.797322,0.383436 -1.89394,0.400563 -1.959805,0.354908 -0.03086,-0.02136 -0.195046,-0.24807 -0.363836,-0.50446 -0.168791,-0.25639 -0.477377,-0.673958 -0.685263,-0.928564 -0.207886,-0.254598 -0.377181,-0.490485 -0.377229,-0.522317 -4e-5,-0.03184 0.371907,-0.721748 0.825886,-1.535701 0.453972,-0.813944 0.841656,-1.54142 0.863833,-1.616059 0.07672,-0.25819 -0.08333,-0.458467 -0.888386,-1.104902 -0.857955,-0.688914 -1.008316,-0.75266 -1.314722,-0.542405 -0.08704,0.05976 -0.69778,0.59303 -1.354898,1.185257 -0.657126,0.592227 -1.240397,1.078117 -1.296865,1.078117 -0.0565,0 -0.353375,-0.127271 -0.660709,-0.281248 -0.307333,-0.15398 -0.746606,-0.344094 -0.975439,-0.424117 C 27.744845,13.250376 27.774897,13.347987 27.774633,11.411179 27.774417,9.8715355 27.764933,9.7197688 27.651866,9.5339623 27.577706,9.4121964 27.457144,9.3182371 27.348298,9.2951173 27.071689,9.2362835 25.516156,9.00113 25.39741,9.0003621 Z"/>
 <path style="fill:#768b95" d="m 25.39741,8.0001919 c -0.276398,-0.0016 -0.383457,0.2174976 -0.944189,1.9240914 l -0.558031,1.6964147 -0.850439,0.0759 c -0.468371,0.04232 -1.009237,0.109713 -1.200883,0.149552 -0.253367,0.05264 -0.371416,0.05383 -0.433032,0.0023 -0.04658,-0.03872 -0.441522,-0.678875 -0.877225,-1.421869 -0.870734,-1.4848434 -1.047544,-1.7232003 -1.292399,-1.7232003 -0.257324,0 -1.981563,0.6867361 -2.107126,0.8392788 -0.06161,0.074879 -0.11041,0.2286518 -0.10937,0.3392829 7.99e-4,0.1106277 0.155714,0.9203076 0.343748,1.8013246 0.188043,0.881025 0.33065,1.632158 0.316961,1.667398 -0.01367,0.0352 -0.218352,0.182827 -0.455353,0.330353 -0.236999,0.147527 -0.668009,0.458417 -0.95535,0.689727 -0.287329,0.23131 -0.549146,0.421871 -0.582584,0.421871 -0.03342,0 -0.705126,-0.364992 -1.493291,-0.810261 -1.620596,-0.915536 -1.6977,-0.950847 -1.926324,-0.863831 -0.247006,0.09401 -1.459808,1.632976 -1.459808,1.852662 0,0.238094 0.05865,0.31225 1.294631,1.687487 0.590925,0.657482 1.073652,1.242249 1.073652,1.299096 0,0.0568 -0.123675,0.355288 -0.276783,0.662941 -0.153111,0.307654 -0.357709,0.767155 -0.453122,1.020081 -0.09542,0.252918 -0.208676,0.488365 -0.25223,0.524549 -0.04866,0.04048 -0.761399,0.07313 -1.85043,0.08482 -2.1849022,0.02344 -1.9926762,-0.08177 -2.1986442,1.218739 -0.07976,0.50373 -0.147594,0.991806 -0.149551,1.084813 -0.0072,0.346501 0.139306,0.423422 1.917394,1.008921 l 1.6941822,0.558031 0.07366,0.830349 c 0.04131,0.457421 0.107108,1.001822 0.145088,1.20758 0.03803,0.205766 0.05273,0.39952 0.03348,0.4308 -0.01934,0.03128 -0.674203,0.434501 -1.455344,0.897314 -0.7811472,0.46282 -1.4832752,0.912504 -1.5624882,0.997759 -0.0792,0.08527 -0.145088,0.230627 -0.145088,0.323658 0,0.272166 0.698105,1.989815 0.852672,2.098198 0.202076,0.141679 0.37655,0.120735 2.1227512,-0.25223 0.879748,-0.187903 1.629594,-0.327658 1.665164,-0.312498 0.03555,0.0152 0.184925,0.219364 0.332587,0.455354 0.147654,0.235982 0.460051,0.667991 0.694191,0.959812 0.291327,0.363109 0.411961,0.565253 0.383925,0.638388 -0.02254,0.0588 -0.383237,0.717336 -0.803565,1.464274 -0.861512,1.530962 -0.911108,1.637433 -0.854904,1.861591 0.05746,0.229246 1.641977,1.4961 1.870521,1.495524 0.23572,-5.92e-4 0.348615,-0.08675 1.669629,-1.28124 0.643075,-0.581475 1.21751,-1.065636 1.276775,-1.075884 0.05929,-0.01029 0.365081,0.109268 0.680798,0.265623 0.315716,0.156359 0.798585,0.363475 1.071419,0.459818 0.272833,0.09633 0.501972,0.178786 0.508925,0.183034 0.0072,0.004 0.02739,0.835936 0.04688,1.848199 0.04346,2.260582 -0.05967,2.063385 1.203115,2.267839 0.948917,0.15363 1.323178,0.154671 1.475434,0.0023 0.05306,-0.05312 0.344845,-0.855939 0.649549,-1.783468 l 0.553567,-1.685254 0.638386,-0.04911 c 0.350289,-0.02696 0.8952,-0.09296 1.212044,-0.14509 0.573558,-0.09438 0.577684,-0.09407 0.696423,0.04911 0.06561,0.07912 0.473466,0.748769 0.908475,1.488827 0.435006,0.740058 0.853195,1.398137 0.928563,1.459809 0.206376,0.16887 0.353707,0.14184 1.350436,-0.238837 0.950564,-0.363053 1.141255,-0.495623 1.140616,-0.794637 -1.92e-4,-0.09302 -0.155749,-0.902947 -0.34598,-1.801323 -0.190234,-0.898377 -0.33156,-1.657991 -0.314729,-1.685255 0.01687,-0.02728 0.236029,-0.188493 0.488835,-0.359372 0.252799,-0.170878 0.675697,-0.48696 0.939724,-0.703119 0.264035,-0.216158 0.507784,-0.392813 0.540174,-0.392853 0.03238,-4.8e-5 0.723193,0.370761 1.535702,0.823653 1.661056,0.925856 1.650808,0.92127 1.87052,0.866064 0.233788,-0.05872 1.495523,-1.646218 1.495523,-1.88168 0,-0.220279 -0.05328,-0.288747 -1.310257,-1.689719 -0.564336,-0.628987 -1.036046,-1.19515 -1.046866,-1.258918 -0.01097,-0.06376 0.09798,-0.349022 0.24107,-0.633923 0.143089,-0.284902 0.347361,-0.742226 0.455352,-1.015616 0.107988,-0.273391 0.224642,-0.525024 0.258927,-0.560264 0.03709,-0.03808 0.787363,-0.07691 1.850432,-0.09598 1.705506,-0.03056 1.794352,-0.03962 1.921858,-0.16741 0.104651,-0.104879 0.166511,-0.341075 0.287944,-1.089277 0.08528,-0.525436 0.155737,-1.016125 0.156249,-1.091509 0.0024,-0.304573 -0.180826,-0.397674 -1.919627,-0.975437 l -1.696414,-0.562496 -0.07143,-0.828118 c -0.03971,-0.45542 -0.10377,-0.998629 -0.142856,-1.205348 -0.03907,-0.206717 -0.0553,-0.401328 -0.03571,-0.433031 0.01959,-0.03168 0.674461,-0.43559 1.455345,-0.897314 0.780885,-0.461724 1.483282,-0.909593 1.562486,-0.995528 0.0792,-0.08593 0.145089,-0.228923 0.145089,-0.316962 0,-0.25247 -0.687724,-1.966085 -0.839278,-2.0915 -0.19255,-0.159335 -0.32415,-0.145756 -1.854896,0.180802 -1.797322,0.383436 -1.89394,0.400563 -1.959805,0.354908 -0.03086,-0.02136 -0.195046,-0.24807 -0.363836,-0.50446 -0.168791,-0.25639 -0.477377,-0.673958 -0.685263,-0.928564 -0.207886,-0.254598 -0.377181,-0.490485 -0.377229,-0.522317 -4e-5,-0.03184 0.371907,-0.721748 0.825886,-1.535701 0.453972,-0.813944 0.841656,-1.54142 0.863833,-1.616059 0.07672,-0.25819 -0.08333,-0.458467 -0.888386,-1.104902 -0.857955,-0.688914 -1.008316,-0.75266 -1.314722,-0.542405 -0.08704,0.05976 -0.69778,0.59303 -1.354898,1.185257 -0.657126,0.592227 -1.240397,1.078117 -1.296865,1.078117 -0.0565,0 -0.353375,-0.127271 -0.660709,-0.281248 C 29.083358,12.754789 28.644085,12.564675 28.415252,12.484652 27.744845,12.250206 27.774897,12.347817 27.774633,10.411009 27.774417,8.8713653 27.764933,8.7195986 27.651866,8.5337921 27.577706,8.4120262 27.457144,8.3180669 27.348298,8.2949471 27.071689,8.2361133 25.516156,8.0009598 25.39741,8.0001919 Z"/>
 <path style="opacity:0.2" d="m 21,17 h 6 v 8 h 4 l -7,8 -7,-8 h 4 z"/>
 <path style="fill:#f4f4f7" d="m 21,16 h 6 v 8 h 4 l -7,8 -7,-8 h 4 z"/>
 <path style="opacity:0.1;fill:#f4f4f7" d="M 24 4 A 20 20 0 0 0 4 24 A 20 20 0 0 0 4.0214844 24.582031 A 20 20 0 0 1 24 5 A 20 20 0 0 1 43.978516 24.417969 A 20 20 0 0 0 44 24 A 20 20 0 0 0 24 4 z"/>
 <path style="opacity:0.1;fill:#f4f4f7" d="M 25.396484 8 C 25.120086 7.9984 25.013857 8.2172343 24.453125 9.9238281 L 23.894531 11.621094 L 23.044922 11.697266 C 22.576551 11.739586 22.035396 11.805864 21.84375 11.845703 C 21.590383 11.898343 21.471772 11.899186 21.410156 11.847656 C 21.363576 11.808936 20.968906 11.168775 20.533203 10.425781 C 19.662469 8.9409379 19.487043 8.703125 19.242188 8.703125 C 18.984863 8.703125 17.260329 9.390426 17.134766 9.5429688 C 17.073156 9.6178477 17.024351 9.7721814 17.025391 9.8828125 C 17.02568 9.9228934 17.115396 10.341407 17.150391 10.535156 C 17.308946 10.372827 18.98769 9.703125 19.242188 9.703125 C 19.487043 9.703125 19.662469 9.940938 20.533203 11.425781 C 20.968906 12.168775 21.363576 12.808936 21.410156 12.847656 C 21.471772 12.899186 21.590383 12.898343 21.84375 12.845703 C 22.035396 12.805864 22.576551 12.739586 23.044922 12.697266 L 23.894531 12.621094 L 24.453125 10.923828 C 25.013857 9.2172338 25.120086 8.9984 25.396484 9 C 25.51523 9.0007679 27.071047 9.2360881 27.347656 9.2949219 C 27.456502 9.3180417 27.578184 9.4114372 27.652344 9.5332031 C 27.765411 9.7190096 27.775175 9.8724659 27.775391 11.412109 C 27.775655 13.348917 27.745609 13.249929 28.416016 13.484375 C 28.644849 13.564398 29.083292 13.754223 29.390625 13.908203 C 29.697959 14.06218 29.994281 14.189453 30.050781 14.189453 C 30.107249 14.189453 30.69053 13.703555 31.347656 13.111328 C 32.004774 12.519101 32.616085 11.987494 32.703125 11.927734 C 33.009531 11.717479 33.159623 11.779836 34.017578 12.46875 C 34.32632 12.71666 34.518117 12.888099 34.660156 13.033203 C 34.718693 12.919423 34.899944 12.595443 34.90625 12.574219 C 34.98297 12.316029 34.822634 12.115185 34.017578 11.46875 C 33.159623 10.779836 33.009531 10.715526 32.703125 10.925781 C 32.616085 10.985541 32.004774 11.519101 31.347656 12.111328 C 30.69053 12.703555 30.107249 13.189453 30.050781 13.189453 C 29.994281 13.189453 29.697959 13.06218 29.390625 12.908203 C 29.083292 12.754223 28.644849 12.564398 28.416016 12.484375 C 27.745609 12.249929 27.775655 12.346964 27.775391 10.410156 C 27.775175 8.8705126 27.765411 8.7190096 27.652344 8.5332031 C 27.578184 8.4114372 27.456502 8.3180417 27.347656 8.2949219 C 27.071047 8.2360881 25.51523 8.0007679 25.396484 8 z M 12.441406 13.087891 C 12.376706 13.082512 12.330593 13.097387 12.273438 13.119141 C 12.026431 13.213151 10.8125 14.751017 10.8125 14.970703 C 10.8125 15.099421 10.874896 15.227816 11.085938 15.492188 C 11.45681 14.95816 12.099361 14.185394 12.273438 14.119141 C 12.502061 14.032125 12.578623 14.066886 14.199219 14.982422 C 14.987384 15.427691 15.657986 15.792969 15.691406 15.792969 C 15.724844 15.792969 15.988062 15.602404 16.275391 15.371094 C 16.562732 15.139784 16.99347 14.829168 17.230469 14.681641 C 17.46747 14.534115 17.671877 14.386762 17.685547 14.351562 C 17.692759 14.332996 17.582875 13.802953 17.519531 13.472656 C 17.435713 13.537598 17.380842 13.588038 17.230469 13.681641 C 16.99347 13.829168 16.562732 14.139784 16.275391 14.371094 C 15.988062 14.602404 15.724844 14.792969 15.691406 14.792969 C 15.657986 14.792969 14.987384 14.427691 14.199219 13.982422 C 12.983772 13.29577 12.635508 13.104028 12.441406 13.087891 z M 33.525391 16.152344 C 33.436701 16.320062 33.216782 16.714668 33.216797 16.726562 C 33.216845 16.758395 33.385864 16.993449 33.59375 17.248047 C 33.801636 17.502653 34.110506 17.921344 34.279297 18.177734 C 34.448087 18.434124 34.611718 18.660281 34.642578 18.681641 C 34.708443 18.727296 34.806194 18.709608 36.603516 18.326172 C 38.134262 17.999614 38.264481 17.987149 38.457031 18.146484 C 38.557593 18.229702 38.884468 18.997009 39.099609 19.587891 C 39.103665 19.584193 39.149679 19.557579 39.152344 19.554688 C 39.231544 19.468757 39.296875 19.324367 39.296875 19.236328 C 39.296875 18.983858 38.608585 17.269946 38.457031 17.144531 C 38.264481 16.985196 38.134262 16.999614 36.603516 17.326172 C 34.806194 17.709608 34.708443 17.727296 34.642578 17.681641 C 34.611718 17.660281 34.448087 17.432171 34.279297 17.175781 C 34.110506 16.919391 33.801636 16.502653 33.59375 16.248047 C 33.555754 16.201513 33.560011 16.196496 33.525391 16.152344 z M 12.914062 18.597656 C 12.908738 18.608478 12.909699 18.610239 12.904297 18.621094 C 12.751186 18.928748 12.546585 19.387699 12.451172 19.640625 C 12.355752 19.893543 12.242773 20.129832 12.199219 20.166016 C 12.150559 20.206496 11.436687 20.23831 10.347656 20.25 C 8.1627541 20.27344 8.3563586 20.168241 8.1503906 21.46875 C 8.0706306 21.97248 8.001957 22.461681 8 22.554688 C 7.9977961 22.660752 8.0325746 22.740494 8.1015625 22.818359 C 8.1229706 22.672074 8.1247084 22.630948 8.1503906 22.46875 C 8.3563586 21.168241 8.1627541 21.27344 10.347656 21.25 C 11.436687 21.23831 12.150559 21.206496 12.199219 21.166016 C 12.242773 21.129832 12.355752 20.893543 12.451172 20.640625 C 12.546585 20.387699 12.751186 19.928748 12.904297 19.621094 C 13.057405 19.313441 13.181641 19.013831 13.181641 18.957031 C 13.181641 18.932953 13.058809 18.776566 12.914062 18.597656 z M 36.230469 22.388672 C 36.223856 22.393867 36.136051 22.445187 36.134766 22.447266 C 36.115176 22.478969 36.130852 22.672189 36.169922 22.878906 C 36.209008 23.085625 36.27279 23.630517 36.3125 24.085938 L 36.384766 24.914062 L 38.080078 25.476562 C 39.290823 25.878865 39.725814 26.045545 39.890625 26.212891 C 39.94036 25.885201 39.999643 25.503769 40 25.451172 C 40.0024 25.146599 39.818879 25.054326 38.080078 24.476562 L 36.384766 23.914062 L 36.3125 23.085938 C 36.289562 22.82287 36.26015 22.628549 36.230469 22.388672 z M 11.769531 26.648438 C 11.676535 26.721478 11.138816 27.053452 10.408203 27.486328 C 9.6270559 27.949148 8.9249161 28.39912 8.8457031 28.484375 C 8.7665031 28.569645 8.7011719 28.715563 8.7011719 28.808594 C 8.7011719 28.898277 8.787354 29.158834 8.8945312 29.453125 C 9.0084886 29.348791 9.6514806 28.934677 10.408203 28.486328 C 11.189344 28.023515 11.843941 27.621124 11.863281 27.589844 C 11.882531 27.558564 11.868108 27.363969 11.830078 27.158203 C 11.81404 27.071315 11.791552 26.82405 11.769531 26.648438 z M 35.089844 30.421875 C 35.082727 30.436273 35.075213 30.457057 35.068359 30.470703 C 34.925269 30.755604 34.817155 31.041709 34.828125 31.105469 C 34.838945 31.169237 35.310664 31.734294 35.875 32.363281 C 36.450142 33.00431 36.724918 33.317699 36.90625 33.542969 C 37.064387 33.315399 37.185547 33.121485 37.185547 33.052734 C 37.185547 32.832455 37.131977 32.764253 35.875 31.363281 C 35.452266 30.892118 35.253837 30.63777 35.089844 30.421875 z M 14.474609 32.902344 C 14.328599 33.172241 14.223946 33.371174 13.949219 33.859375 C 13.087707 35.390337 13.037546 35.496545 13.09375 35.720703 C 13.105743 35.768551 13.213205 35.878801 13.332031 35.996094 C 13.462035 35.740845 13.604797 35.471435 13.949219 34.859375 C 14.369547 34.112437 14.729413 33.453331 14.751953 33.394531 C 14.775244 33.333774 14.669154 33.159494 14.474609 32.902344 z M 30.478516 35.580078 C 30.433491 35.614827 30.320127 35.691997 30.314453 35.701172 C 30.297622 35.728436 30.438672 36.488342 30.628906 37.386719 C 30.744467 37.932459 30.77693 38.140892 30.839844 38.480469 C 30.928731 38.392052 30.974855 38.302603 30.974609 38.1875 C 30.974417 38.09448 30.819137 37.285095 30.628906 36.386719 C 30.537869 35.956798 30.535178 35.881388 30.478516 35.580078 z"/>
</svg>
