<svg xmlns="http://www.w3.org/2000/svg" width="48" height="48" version="1">
 <path style="opacity:0.2" d="M 43,20 C 43,28.284271 34.49341,45 24,45 13.50659,45 5,28.284271 5,20 5,11.715729 9.950402,5 24,5 38.049598,5 43,11.715729 43,20 Z"/>
 <path style="fill:#2c5771" d="M 43,19 C 43,27.284271 34.49341,44 24,44 13.50659,44 5,27.284271 5,19 5,10.715729 9.950402,4 24,4 38.049598,4 43,10.715729 43,19 Z"/>
 <path style="opacity:0.2" d="m 21.591036,38.511955 c -0.122627,-0.268424 -0.289799,-0.774507 -0.371494,-1.124626 -0.272337,-1.167128 -0.155057,-1.05309 -1.149293,-1.117535 -1.820017,-0.117978 -3.114449,-0.832031 -4.066985,-2.243507 -1.309781,-1.940848 -1.372161,-4.717543 -0.181682,-8.087614 0.23985,-0.678987 0.421749,-1.248405 0.404222,-1.265374 -0.01755,-0.01697 -0.360877,-0.117169 -0.762998,-0.222669 -1.958328,-0.513774 -3.650101,-1.698848 -4.569443,-3.200841 -0.668495,-1.092167 -1.013568,-2.714842 -0.855315,-4.022056 0.188507,-1.557112 0.733083,-2.621516 1.931814,-3.775818 0.993301,-0.95649 1.894815,-1.507896 3.140082,-1.920615 2.394983,-0.793773 5.114119,-0.69456 7.50381,0.273789 1.326772,0.537635 2.94578,1.623716 3.718685,2.494612 0.207632,0.233956 0.435164,0.425374 0.505627,0.425374 0.07047,0 0.556616,-0.208024 1.080329,-0.462277 2.685301,-1.303659 5.645161,-2.168922 7.41937,-2.168922 0.628306,0 1.475196,0.227308 1.875875,0.503487 0.639992,0.441141 0.938318,1.446462 0.710262,2.393512 -0.164316,0.682348 -0.734235,1.682576 -1.369131,2.402875 -2.370805,2.689703 -8.133067,5.66193 -13.09877,6.756469 -1.000819,0.2206 -3.105316,0.553222 -3.857993,0.609766 -0.283059,0.02127 -0.328777,0.06589 -0.588767,0.57476 -0.40568,0.794009 -0.956078,2.476252 -1.214664,3.712511 -0.399358,1.909267 -0.379129,3.603561 0.05648,4.730578 0.233783,0.604862 0.915715,1.329955 1.511083,1.606731 0.531613,0.247138 1.352795,0.409806 1.433182,0.283901 0.02941,-0.04606 0.04585,-0.706418 0.03659,-1.467489 -0.03888,-3.195433 0.870561,-5.50231 2.916762,-7.398411 1.202937,-1.114699 2.417931,-1.601662 3.82835,-1.534389 1.582834,0.07551 2.560122,0.911934 2.80595,2.401545 0.292614,1.773103 -0.602729,3.682938 -2.612819,5.573353 -1.641251,1.543537 -3.463702,2.506097 -5.454028,2.880648 -0.313468,0.059 -0.623414,0.146283 -0.68878,0.193983 -0.158623,0.115765 -0.07191,0.852753 0.211848,1.800647 C 22.087636,38.94824 22.093174,39 21.933545,39 c -0.06576,0 -0.219882,-0.21962 -0.34251,-0.488045 z m 1.3676,-3.028525 c 1.652574,-0.405802 3.085095,-1.206846 4.459502,-2.493689 1.657282,-1.551694 2.438621,-3.014051 2.438621,-4.564135 0,-0.98194 -0.335357,-1.65639 -1.008337,-2.02791 -0.466824,-0.257712 -0.804632,-0.308306 -1.4182,-0.212413 -0.827364,0.129305 -1.689118,0.596635 -2.471738,1.340422 -1.46949,1.396572 -2.663017,3.497403 -3.202903,5.637701 -0.225291,0.89314 -0.381953,2.269937 -0.276998,2.434327 0.09296,0.145611 0.57236,0.108585 1.480053,-0.114306 z m 0.979611,-12.733318 c 4.444744,-0.653002 9.06397,-2.651518 11.62205,-5.028295 1.390116,-1.291596 2.015145,-2.34015 2.010521,-3.372876 -0.0033,-0.794115 -0.559228,-1.544525 -1.288979,-1.740697 -0.827652,-0.22249 -2.219959,-0.0649 -3.743349,0.423701 -1.440241,0.46193 -4.961453,2.264559 -4.961453,2.539937 0,0.04881 0.290625,0.556194 0.645832,1.127536 0.876896,1.41047 1.127281,1.906636 1.062254,2.104975 -0.0297,0.0905 -0.08725,0.16455 -0.127924,0.16455 -0.133234,0 -0.474011,-0.457584 -1.097476,-1.473657 -0.337333,-0.549766 -0.725242,-1.130995 -0.862015,-1.29162 l -0.248685,-0.292047 -0.277839,0.187761 c -1.482445,1.001805 -3.984694,3.298578 -4.968388,4.560391 -0.611699,0.784646 -1.491013,2.105377 -1.491013,2.239505 0,0.118454 2.618209,0.01366 3.726469,-0.149164 z M 18.269715,21.7772 c 2.080049,-2.603174 4.282438,-4.466783 7.800684,-6.600752 0.261371,-0.158535 0.229354,-0.196164 -0.921224,-1.082602 -1.519654,-1.170786 -2.761165,-1.793849 -4.335628,-2.175879 -1.036247,-0.251436 -3.15714,-0.316875 -4.257651,-0.131372 -2.591423,0.436817 -4.718933,1.937112 -5.427833,3.82764 -0.894895,2.386552 0.320494,4.954077 2.946001,6.223465 0.899008,0.434654 2.536541,0.930503 3.118643,0.944331 0.242515,0.0057 0.348544,-0.09316 1.077008,-1.004831 z"/>
 <path style="fill:#f4f4f7" d="m 21.591036,37.511955 c -0.122627,-0.268424 -0.289799,-0.774507 -0.371494,-1.124626 -0.272337,-1.167128 -0.155057,-1.05309 -1.149293,-1.117535 -1.820017,-0.117978 -3.114449,-0.832031 -4.066985,-2.243507 -1.309781,-1.940848 -1.372161,-4.717543 -0.181682,-8.087614 0.23985,-0.678987 0.421749,-1.248405 0.404222,-1.265374 -0.01755,-0.01697 -0.360877,-0.117169 -0.762998,-0.222669 -1.958328,-0.513774 -3.650101,-1.698848 -4.569443,-3.200841 -0.668495,-1.092167 -1.013568,-2.714842 -0.855315,-4.022056 0.188507,-1.557112 0.733083,-2.621516 1.931814,-3.775818 0.993301,-0.95649 1.894815,-1.507896 3.140082,-1.920615 2.394983,-0.7937731 5.114119,-0.6945601 7.50381,0.273789 1.326772,0.537635 2.94578,1.623716 3.718685,2.494612 0.207632,0.233956 0.435164,0.425374 0.505627,0.425374 0.07047,0 0.556616,-0.208024 1.080329,-0.462277 2.685301,-1.303659 5.645161,-2.168922 7.41937,-2.168922 0.628306,0 1.475196,0.227308 1.875875,0.503487 0.639992,0.441141 0.938318,1.446462 0.710262,2.393512 -0.164316,0.682348 -0.734235,1.682576 -1.369131,2.402875 -2.370805,2.689703 -8.133067,5.66193 -13.09877,6.756469 -1.000819,0.2206 -3.105316,0.553222 -3.857993,0.609766 -0.283059,0.02127 -0.328777,0.06589 -0.588767,0.57476 -0.40568,0.794009 -0.956078,2.476252 -1.214664,3.712511 -0.399358,1.909267 -0.379129,3.603561 0.05648,4.730578 0.233783,0.604862 0.915715,1.329955 1.511083,1.606731 0.531613,0.247138 1.352795,0.409806 1.433182,0.283901 0.02941,-0.04606 0.04585,-0.706418 0.03659,-1.467489 -0.03888,-3.195433 0.870561,-5.50231 2.916762,-7.398411 1.202937,-1.114699 2.417931,-1.601662 3.82835,-1.534389 1.582834,0.07551 2.560122,0.911934 2.80595,2.401545 0.292614,1.773103 -0.602729,3.682938 -2.612819,5.573353 -1.641251,1.543537 -3.463702,2.506097 -5.454028,2.880648 -0.313468,0.059 -0.623414,0.146283 -0.68878,0.193983 -0.158623,0.115765 -0.07191,0.852753 0.211848,1.800647 C 22.087636,37.94824 22.093174,38 21.933545,38 c -0.06576,0 -0.219882,-0.21962 -0.34251,-0.488045 z m 1.3676,-3.028525 c 1.652574,-0.405802 3.085095,-1.206846 4.459502,-2.493689 1.657282,-1.551694 2.438621,-3.014051 2.438621,-4.564135 0,-0.98194 -0.335357,-1.65639 -1.008337,-2.02791 -0.466824,-0.257712 -0.804632,-0.308306 -1.4182,-0.212413 -0.827364,0.129305 -1.689118,0.596635 -2.471738,1.340422 -1.46949,1.396572 -2.663017,3.497403 -3.202903,5.637701 -0.225291,0.89314 -0.381953,2.269937 -0.276998,2.434327 0.09296,0.145611 0.57236,0.108585 1.480053,-0.114306 z m 0.979611,-12.733318 c 4.444744,-0.653002 9.06397,-2.651518 11.62205,-5.028295 1.390116,-1.291596 2.015145,-2.34015 2.010521,-3.372876 -0.0033,-0.794115 -0.559228,-1.544525 -1.288979,-1.740697 -0.827652,-0.22249 -2.219959,-0.0649 -3.743349,0.423701 -1.440241,0.46193 -4.961453,2.264559 -4.961453,2.539937 0,0.04881 0.290625,0.556194 0.645832,1.127536 0.876896,1.41047 1.127281,1.906636 1.062254,2.104975 -0.0297,0.0905 -0.08725,0.16455 -0.127924,0.16455 -0.133234,0 -0.474011,-0.457584 -1.097476,-1.473657 -0.337333,-0.549766 -0.725242,-1.130995 -0.862015,-1.29162 l -0.248685,-0.292047 -0.277839,0.187761 c -1.482445,1.001805 -3.984694,3.298578 -4.968388,4.560391 -0.611699,0.784646 -1.491013,2.105377 -1.491013,2.239505 0,0.118454 2.618209,0.01366 3.726469,-0.149164 z M 18.269715,20.7772 c 2.080049,-2.603174 4.282438,-4.466783 7.800684,-6.600752 0.261371,-0.158535 0.229354,-0.196164 -0.921224,-1.082602 -1.519654,-1.170786 -2.761165,-1.793849 -4.335628,-2.175879 -1.036247,-0.251436 -3.15714,-0.316875 -4.257651,-0.131372 -2.591423,0.436817 -4.718933,1.937112 -5.427833,3.82764 -0.894895,2.386552 0.320494,4.954077 2.946001,6.223465 0.899008,0.434654 2.536541,0.930503 3.118643,0.944331 0.242515,0.0057 0.348544,-0.09316 1.077008,-1.004832 z"/>
 <path style="opacity:0.1;fill:#f4f4f7" d="M 24 4 C 9.950402 4 5 10.715729 5 19 C 5 19.123456 5.0196807 19.26546 5.0234375 19.392578 C 5.2650065 11.392271 10.298291 5 24 5 C 37.701709 5 42.734994 11.392271 42.976562 19.392578 C 42.980319 19.26546 43 19.123456 43 19 C 43 10.715729 38.049598 4 24 4 z"/>
</svg>
