<svg xmlns="http://www.w3.org/2000/svg" xmlns:xlink="http://www.w3.org/1999/xlink" width="48" height="48" version="1.1">
 <defs>
  <linearGradient id="linearGradient905">
   <stop style="stop-color:#bc967a" offset="0"/>
   <stop style="stop-color:#ac7f5c" offset="1"/>
  </linearGradient>
  <linearGradient id="linearGradient891" x1="31.481" x2="29.742" y1="17.359" y2="16.444" gradientTransform="matrix(1.025601,0,0,0.99313526,-0.21423864,0.15676218)" gradientUnits="userSpaceOnUse" xlink:href="#linearGradient905"/>
  <linearGradient id="linearGradient899" x1="22.864" x2="24.858" y1="14.263" y2="15.577" gradientTransform="matrix(1.025601,0,0,0.99313526,-0.21423864,0.15676218)" gradientUnits="userSpaceOnUse" xlink:href="#linearGradient905"/>
 </defs>
 <rect style="opacity:0.2" width="40" height="40" x="4" y="5" rx="3" ry="3"/>
 <rect style="fill:#e4d811" width="40" height="40" x="4" y="4" rx="3" ry="3"/>
 <path style="opacity:0.1" d="m 17,5 -1.105469,6.845703 c -0.474869,0.105545 -0.864031,0.731988 -1.146484,1.263672 -0.06383,0.120155 -0.148808,0.496629 -0.21875,0.755859 h -0.01172 l -0.002,0.04492 c -0.0099,0.0354 -0.0225,0.09236 -0.03125,0.119141 -0.04696,0.0079 -0.102226,0.01101 -0.136719,0.02539 -0.464297,0.193589 -0.927469,0.6824 -1.455078,1.255859 0,0 -0.601413,0.107562 -0.804687,0.310547 -0.126726,0.126543 -0.19336,0.5 -0.19336,0.5 -0.309259,0.162404 -0.481623,0.131778 -0.501953,0.626953 l -0.162109,0.441406 -0.148438,1.021485 c -0.414646,0.750895 -0.654157,1.617951 -0.382812,2.826171 L 8.5195312,28 c -0.6700549,0.06031 -1.5647583,6.45574 1.3378907,7.4375 0,0 0.5248551,0.552652 2.3476561,-0.53125 0.943083,-1.012569 2.370007,-1.930262 3.583984,-3.279297 0.648687,-1.341481 0.579911,-0.24033 0.957032,0.505859 -0.322765,-0.624441 0.03542,0.771433 -0.31836,1.482422 -0.183664,1.63808 -0.395476,2.980914 -0.625,4.580078 -0.430365,0.840199 -0.166009,1.057929 0.150391,0.681641 0.03929,0.616641 -0.492778,0.422156 -0.257813,0.925781 0.03449,1.295376 -1.641095,3.237025 -0.146484,4.083985 0.584847,0.222999 0.282411,0.623967 0.08789,1.113281 0,0 2.394339,-7.8e-5 3.107422,0 h 12.603515 1.013672 0.738281 c -0.08651,-0.425252 -0.189585,-1.081535 -0.27539,-1.582031 0.80447,-1.525543 0.611051,-2.963766 0.253906,-4.611328 1.066017,0.219965 0.867632,1.778102 0.785156,2.875 -0.435476,0.902413 -0.662876,1.881264 -0.746093,2.841797 0.165846,-0.631231 1.23856,-1.582683 1.923828,-0.740235 0.05028,0.344805 -0.245442,0.578716 -0.410157,0.910156 C 34.470665,44.99901 34.75,45 34.75,45 h 3.583984 c 1.194589,0 0.519409,-1.072749 1.46875,-1.830078 0.351147,-1.058168 0.363347,-2.301254 0.455078,-3.458984 0.148934,-1.212221 -0.809693,-0.700222 -0.06641,-1.337891 -0.911373,-0.1199 0.645905,-0.21142 -0.267578,-1.089844 1.270055,-0.689518 -0.446417,-1.170918 0.46875,-1.712891 -0.410109,-1.772232 -0.337173,-1.018922 -0.507812,-2.992187 0.653094,-0.423588 1.142747,-1.354804 0.617187,-2.318359 -0.838976,0.05207 -0.640708,-1.431524 -0.900391,-0.775391 -0.157676,-0.05759 -0.130916,-0.369059 -0.0098,-0.736328 0.02122,-0.007 0.03444,-0.02132 0.05469,-0.0293 0.01027,0.09565 0.03884,0.263659 0.0957,0.410156 l 0.07227,0.107422 c -0.116126,-0.478547 -0.152151,-0.538248 -0.164062,-0.519531 1.068767,-0.426958 0.799474,-2.179217 -0.05664,-2.541016 -0.350842,-0.08538 -0.550788,-0.387613 -0.736328,-0.748047 -0.01964,-0.02064 -0.03321,-0.04743 -0.05469,-0.105468 -0.03045,-0.06209 -0.06479,-0.125771 -0.0957,-0.191407 -0.447121,-0.578971 -0.458109,-0.734356 -0.162109,-0.324218 -0.351241,-0.706134 -0.861406,-1.47639 -2.185547,-1.808594 -0.02985,-0.181555 1.023119,0.532213 -0.01563,-0.15625 0.06192,0.04148 -0.129904,-0.07091 -0.193359,-0.103516 0.0061,10e-4 0.01306,0.0027 0,0.02344 -0.144992,0.08296 -0.04493,-0.0079 -0.0039,-0.02539 -0.230855,-0.119412 -0.882013,-0.494281 -1.132812,-0.742187 -0.341928,-0.376845 -0.137307,0.05185 -0.373047,-0.814453 0.158035,-1.476864 0.297832,-3.315851 -1.205078,-4.160157 -0.451604,-0.08447 -0.957031,-0.55664 -0.957031,-0.55664 -0.109152,-0.06032 -0.22024,-0.113835 -0.330078,-0.171875 0.02476,-0.431405 0.107708,-0.860021 0.210937,-1.394532 0.11072,-0.573313 -0.17629,-0.591869 -0.04297,-2.367187 0.05184,-0.690311 -0.134319,-1.358506 -0.46289,-1.972656 -0.06162,-0.115658 -0.128618,-0.227005 -0.201172,-0.337891 -0.08454,-0.128783 -0.171358,-0.2536246 -0.269532,-0.375 C 31.290389,9.7289912 31.191386,9.6209299 31.087891,9.5136719 30.983593,9.4059472 30.880047,9.3004352 30.765625,9.2011719 30.648941,9.0995549 30.524586,9.0078524 30.398438,8.9160156 30.278358,8.8288436 30.160808,8.74158 30.033203,8.6640625 29.887602,8.5753175 29.734177,8.5027198 29.580078,8.4277344 29.457452,8.3681972 29.340031,8.302122 29.212891,8.2519531 29.014682,8.1735508 28.808556,8.1200683 28.601562,8.0664062 c -0.09543,-0.024707 -0.186358,-0.062929 -0.283203,-0.082031 -0.03693,-0.00729 -0.07422,-0.011125 -0.111328,-0.017578 -0.269193,-0.046802 -0.54114,-0.076172 -0.816406,-0.076172 -0.984122,0 -1.901569,0.2747337 -2.660156,0.7441406 -0.758876,0.4699625 -1.361745,1.1357864 -1.722657,1.9179684 -0.240704,0.521529 -0.373046,1.09547 -0.373046,1.697266 0,0.221273 0.0166,0.494985 0.04492,0.796875 0.0038,0.03871 0.01132,0.08128 0.01562,0.121094 0.02978,0.287159 0.07452,0.59864 0.132813,0.933593 0.0029,0.0162 0.0048,0.03254 0.0078,0.04883 0.02011,0.113401 0.04277,0.228347 0.06641,0.345703 -0.01266,0.02302 -0.02669,0.03886 -0.03906,0.06445 -0.02154,0.115404 -0.03353,0.230299 -0.05078,0.345703 -0.116232,0.02701 -0.228437,0.03988 -0.345703,0.07031 -2.207,0.414059 -3.416924,1.921425 -4.320313,3.337891 -0.116428,0.412259 -0.207107,0.682593 -0.300781,0.880859 -0.716491,0.349952 -0.86388,0.125976 -1.269531,0.732422 -0.153108,0.24769 -0.467151,0.507301 -0.761719,0.291016 -0.52683,-0.282593 -1.21589,0.99583 -1.519531,1.464844 0.348237,0.236778 0.418435,0.61667 0.238281,0.957031 -0.438815,0.06134 -0.489549,0.08429 -0.609375,-0.105469 l -0.427734,-0.0098 -0.0059,0.134765 0.01367,-0.783203 0.410156,-1.205078 c 1.028237,-0.592268 1.235636,-0.867545 1.423829,-1.136719 0.640565,-0.477766 1.087565,-1.341364 1.609375,-2.05664 -0.05596,-0.23781 -0.05205,-0.527251 -0.234375,-0.669922 -0.143927,-0.112628 -0.261832,-0.242562 -0.390625,-0.351563 h 0.353515 c -0.08809,-0.752522 0.144296,-1.204345 0.796875,-1.259765 L 19,5 Z m -2.085938,9.845703 c 0.01858,0.0056 0.03246,0.01859 0.04883,0.0293 -0.02877,-0.0169 -0.06166,-0.02355 -0.0957,-0.02734 0.01515,0.0017 0.03263,-0.0063 0.04687,-0.002 z m 0.06055,0.03516 c 0.03345,0.02543 0.06283,0.05902 0.08008,0.113282 -0.01725,-0.05429 -0.04577,-0.08977 -0.08008,-0.113282 z m -0.488281,0.105469 v 0.03711 c -0.0015,-0.0022 -0.01862,-0.01378 -0.01953,-0.01563 -0.0019,-0.0039 0.01589,-0.01512 0.01953,-0.02148 z m 1.646484,0.01563 c 0.139849,0.19935 0.213165,0.408309 0.226563,0.548828 -0.01332,-0.140585 -0.08679,-0.349412 -0.226563,-0.548828 z m -1.591796,0.06445 h 0.01953 c 0.0015,0.0065 0.0025,0.01262 0.0039,0.01953 -0.0043,-0.0042 -0.01983,-0.01579 -0.02344,-0.01953 z m 0.0332,0.02734 c 0.198673,0.187444 0.987418,0.727622 1.023437,0.814453 0.05801,0.139851 0.09256,0.256228 0.109375,0.355469 -0.01796,-0.09992 -0.05172,-0.216483 -0.109375,-0.355469 -0.03599,-0.08676 -0.822797,-0.62588 -1.023437,-0.814453 z m 1.480469,1.216797 c 0.04656,0.002 0.09451,0.0146 0.140624,0.04102 -0.06733,-0.03856 -0.138299,-0.04117 -0.207031,-0.03125 0.02232,-0.0034 0.04351,-0.01074 0.06641,-0.0098 z m -0.105469,0.01758 c -0.02755,0.0068 -0.05059,0.02037 -0.07617,0.03125 0.02667,-0.01226 0.04705,-0.02377 0.07617,-0.03125 z"/>
 <ellipse style="fill:#876044" cx="26.262" cy="19.573" rx="6.216" ry="4.11"/>
 <path style="fill:#ac7f5c" d="m 11.082363,17.210868 0.147774,-1.022155 0.161632,-0.440949 c 0.02033,-0.495175 0.192887,-0.464079 0.502146,-0.626483 0,0 0.06778,-0.374272 0.194506,-0.500815 0.203274,-0.202985 0.803788,-0.31086 0.803788,-0.31086 0.527609,-0.573459 0.991321,-1.060855 1.455618,-1.254444 0.250115,-0.104286 0.864669,-0.03729 1.311777,0.206491 0.154712,0.08435 0.08279,0.352194 0.212886,0.458665 0.415599,0.340117 0.552684,0.876027 0.46248,0.980823 -0.214714,0.249445 -1.102223,-0.146139 -1.280297,-0.706426 -0.10893,-0.342731 -0.614515,-0.03917 -0.588585,0.01306 0.05338,0.107519 1.092088,0.805219 1.131825,0.901013 0.127955,0.308453 0.174144,0.541668 0.06756,0.606619 -0.135415,0.08252 0.237835,-0.330262 0.529877,-0.163003 0.190642,0.109184 0.326935,0.306959 0.517517,0.456096 0.18232,0.142671 0.178128,0.431484 0.23409,0.669294 -0.52181,0.715276 -0.969217,1.579357 -1.609782,2.057123 -0.188193,0.269174 -0.393962,0.545108 -1.422198,1.137376 l -0.410411,1.204495 -0.08644,4.909496 -0.179662,2.420703 C 12.117268,29.011969 6.8509963,29.422111 8.5195312,27 l 2.1788248,-6.963166 c -0.271345,-1.20822 -0.03064,-2.07507 0.384006,-2.825965 z"/>
 <path style="opacity:0.2;fill:#f4f4f7" d="M 7,4 C 5.338,4 4,5.3379999 4,7 V 8 C 4,6.3379999 5.338,5 7,5 h 34 c 1.662,0 3,1.3379999 3,3 V 7 C 44,5.3379999 42.662,4 41,4 Z"/>
 <path style="fill:#413c2d" d="m 12.314172,16.95441 c 0.10122,-0.144005 0.17085,-0.295907 0.545095,-0.371655 0.283863,0.105478 0.58655,0.286246 0.803607,0.124499 0.39715,0.980988 0.804889,0.778223 0.804889,0.778223 0.28082,-0.186143 0.144404,-0.311535 0.144404,-0.311535 0,0 0.245185,0.300923 0.508652,0.07454 0.152098,-0.130689 0.02358,-0.710163 0.02358,-0.710163 0,0 0.297704,0.06621 0.383201,0.0332 0.165498,-0.06391 0.293389,-0.299755 0.306604,-0.244069 0.119137,0.502033 -1.316795,2.23333 -2.516485,3.314893 0,0 -0.171755,0.115287 -0.350749,0.08676 -0.202404,-0.104368 -0.275094,-0.141874 -0.518379,-0.269345 -0.334868,-0.170446 -0.133814,-0.44321 -0.212034,-0.733876 z"/>
 <path style="fill:#35363c" d="M 22.041016 18.083984 L 17.349609 44 L 31.347656 44 L 31.253906 20.214844 C 28.351002 22.819851 23.142329 24.063254 22.041016 18.083984 z"/>
 <path style="fill:#494640" d="m 25.205078,13.5625 c -0.882139,0.03566 -1.793264,0.168805 -2.738281,0.414062 -2.207,0.414059 -3.416924,1.921425 -4.320313,3.337891 -0.116428,0.412259 -0.207107,0.682593 -0.300781,0.880859 -0.716491,0.349952 -0.86388,0.125976 -1.269531,0.732422 -0.153108,0.24769 -0.467151,0.507301 -0.761719,0.291016 -0.52683,-0.282593 -1.21589,0.99583 -1.519531,1.464844 0.348237,0.236778 0.418435,0.61667 0.238281,0.957031 -0.438815,0.06134 -0.489549,0.08429 -0.609375,-0.105469 l -0.428017,-0.01001 -0.22799,5.22302 c -0.06176,1.00475 -0.625206,2.125255 -3.197509,2.042848 C 8.8697568,28.752509 7.9539064,28.110348 8.5195312,27 c -0.6700549,0.06031 -1.5647583,6.45574 1.3378907,7.4375 0,0 0.5248551,0.552652 2.3476561,-0.53125 0.943083,-1.012569 2.370006,-1.930262 3.583984,-3.279297 0.648687,-1.341481 0.579911,-0.24033 0.957032,0.505859 -0.322765,-0.624441 0.03542,0.771433 -0.31836,1.482422 -0.183664,1.63808 -0.395476,2.980914 -0.625,4.580078 -0.430365,0.840199 -0.166009,1.057929 0.150391,0.681641 0.03929,0.616641 -0.492778,0.422156 -0.257813,0.925781 0.03449,1.295376 -1.641095,3.237025 -0.146484,4.083985 0.584847,0.222999 0.28241,0.623967 0.08789,1.113281 0,0 2.394339,-7.8e-5 3.107422,0 l 4.386718,-18.486328 -1.513671,-1.980469 0.384659,-4.701722 c 0.190909,-2.333495 6.8795,-0.692402 9.275346,-0.08609 -0.417782,1.965232 -1.705085,3.26178 -3.492037,3.795623 -0.301995,0.09022 -0.619918,0.135497 -0.941406,0.158203 C 25.180885,29.062783 24.388785,35.91342 25.802734,44 c 2.38501,1.2e-5 3.62932,4.84e-4 5.365235,0 h 1.193359 0.738281 c -0.08651,-0.425252 -0.189585,-1.081535 -0.27539,-1.582031 0.80447,-1.525543 0.611051,-2.963766 0.253906,-4.611328 1.066017,0.219965 0.867632,1.778102 0.785156,2.875 -0.435476,0.902413 -0.662876,1.881264 -0.746093,2.841797 0.165846,-0.631231 1.23856,-1.582683 1.923828,-0.740235 0.05028,0.344805 -0.245442,0.578716 -0.410157,0.910156 C 34.470665,43.99901 34.75,44 34.75,44 h 3.583984 c 1.194589,0 0.519409,-1.072749 1.46875,-1.830078 0.351147,-1.058168 0.363347,-2.301254 0.455078,-3.458984 0.148934,-1.212221 -0.809697,-0.700222 -0.06641,-1.337891 -0.911373,-0.1199 0.645905,-0.21142 -0.267578,-1.089844 1.270055,-0.689518 -0.446417,-1.170919 0.46875,-1.712891 -0.410109,-1.772233 -0.337173,-1.018922 -0.507812,-2.992187 0.653094,-0.423588 1.142747,-1.354804 0.617187,-2.318359 -0.838976,0.05207 -0.640709,-1.431524 -0.900391,-0.775391 -0.157676,-0.05759 -0.130951,-0.369059 -0.0098,-0.736328 0.02122,-0.007 0.03444,-0.02132 0.05469,-0.0293 0.01027,0.09565 0.03884,0.263659 0.0957,0.410156 l 0.07227,0.107422 c -0.116126,-0.478547 -0.152151,-0.538248 -0.164062,-0.519531 1.068767,-0.426958 0.799475,-2.179217 -0.05664,-2.541016 -0.350842,-0.08538 -0.550788,-0.387613 -0.736328,-0.748047 -0.01964,-0.02064 -0.03321,-0.04743 -0.05469,-0.105468 -0.03045,-0.06209 -0.06479,-0.125771 -0.0957,-0.191407 -0.447121,-0.578971 -0.458109,-0.734356 -0.162109,-0.324218 -0.351241,-0.706134 -0.861406,-1.47639 -2.185547,-1.808594 -0.02985,-0.181555 1.023114,0.532213 -0.01563,-0.15625 0.06192,0.04148 -0.129904,-0.07091 -0.193359,-0.103516 0.0061,10e-4 0.01306,0.0027 0,0.02344 -0.144992,0.08296 -0.04492,-0.0079 -0.0039,-0.02539 -0.230855,-0.119412 -0.882013,-0.494281 -1.132812,-0.742187 -0.341928,-0.376845 -0.137307,0.05185 -0.373047,-0.814453 0.158035,-1.476864 0.297832,-3.315851 -1.205078,-4.160157 -0.451604,-0.08447 -0.957031,-0.55664 -0.957031,-0.55664 -2.242484,-1.239223 -4.62699,-2.007381 -7.273407,-1.900391 z"/>
 <path style="fill:#9f7251" d="m 23.791016,15.671875 0.285067,1.300264 c -0.0076,-0.02479 -1.527864,0.233378 -1.910062,1.623564 0.832796,3.420975 3.144756,4.167659 5.449218,3.597656 l 1.183594,-2.251953 -2.019531,-1.082031 z"/>
 <path style="fill:#2fcbff" d="m 24.294922,14.541016 c -2.536201,0.104662 -4.592036,1.156274 -5.720703,4.384765 v 2.376953 c 0.367532,-1.041187 0.796131,-1.880182 1.387769,-2.442155 1.265483,-1.202032 2.647675,-1.636675 4.291819,-1.92778 1.228847,-0.147664 4.555218,0.06966 6.108621,1.049957 0.518896,0.209173 1.032534,0.643326 2.227416,1.735994 l 0.941406,-1.585938 c -0.518213,-1.737961 -2.645013,-2.881164 -6.556641,-3.425781 -0.935493,-0.130249 -1.834287,-0.200903 -2.679687,-0.166015 z"/>
 <path style="fill:#2d2d2d" d="m 32.841386,43.523933 c 5e-6,-1.1e-5 0,0 0,0 z"/>
 <path style="fill:#413c2d" d="M 17 4 L 15.894531 10.845703 C 15.419662 10.951248 15.0305 11.577691 14.748047 12.109375 C 14.684215 12.22953 14.599239 12.606004 14.529297 12.865234 L 14.517578 12.865234 L 14.515625 12.910156 C 14.505736 12.945552 14.493129 13.00252 14.484375 13.029297 C 14.492163 13.027995 14.505603 13.032382 14.513672 13.03125 L 14.484375 14.066406 L 14.560547 14.066406 C 14.561998 14.072883 14.56309 14.079022 14.564453 14.085938 C 14.754348 14.268726 15.561325 14.820619 15.597656 14.908203 C 15.700792 15.156826 15.747324 15.352932 15.707031 15.455078 C 15.807644 15.36888 16.010846 15.245915 16.195312 15.351562 C 16.241983 15.378292 16.280516 15.421697 16.322266 15.457031 L 16.675781 15.457031 C 16.587689 14.704509 16.820077 14.252686 17.472656 14.197266 L 19 4 L 17 4 z M 14.869141 13.042969 C 15.127906 13.067075 15.408866 13.124706 15.660156 13.261719 C 15.814868 13.346069 15.742951 13.614232 15.873047 13.720703 C 16.288646 14.06082 16.426141 14.596376 16.335938 14.701172 C 16.121223 14.950617 15.23276 14.554428 15.054688 13.994141 C 15.018826 13.881307 14.936503 13.846429 14.847656 13.841797 L 14.869141 13.042969 z"/>
 <path style="opacity:0.2" d="m 17.893942,28.133996 c 0.01682,-0.02161 0.03413,-0.04274 0.05097,-0.06435 0.01252,-0.0055 0.05741,-0.04578 0.02379,-0.04706 -0.238794,-0.01252 -0.504356,0.0078 -0.763876,0 -0.285424,0.230154 -0.581644,0.468515 -0.850231,0.700829 -0.03671,0.03198 -0.0721,0.08076 -0.126095,0.08676 -0.005,-0.328175 0.03969,-0.554445 0.04706,-0.842462 -0.02419,-0.04147 -0.02594,-0.105363 -0.07858,-0.118316 h -0.0078 a 1.847235,1.847235 0 0 0 -0.37006,0.228433 c -0.02893,0.03413 -0.08549,0.04059 -0.09458,0.09458 a 1.9626281,1.9626281 0 0 0 0.01809,0.595466 c 0.0037,0.05223 0.0088,0.104067 0.01342,0.154589 l 0.05269,0.130409 c 0.123496,0.08118 0.197768,0.199496 0.331198,0.270743 a 1.592362,1.592362 0 0 0 0.168408,-0.107086 c -0.173158,0.197337 -0.352358,0.389494 -0.520336,0.594171 -0.116588,0.142066 -0.223678,0.29579 -0.338537,0.44088 -0.11702,0.147678 -0.237065,0.290176 -0.346315,0.440877 -0.328606,0.452971 -0.675353,0.893416 -1.015616,1.322638 -0.116591,0.146816 -0.250022,0.279812 -0.346315,0.440876 a 0.32886712,0.32886712 0 0 0 -0.09457,0.09458 c 0.05312,-0.02592 0.103206,-0.05439 0.157615,-0.07858 0.05486,-0.07858 0.11875,-0.158476 0.185241,-0.237496 -0.08637,0.116154 -0.161496,0.242672 -0.265995,0.340698 -0.0035,0.0088 -0.0095,0.01898 0,0.0083 0.0479,-0.02029 0.08764,-0.0488 0.133868,-0.07081 0.186537,-0.243541 0.374378,-0.486217 0.582939,-0.708601 0.07425,-0.0069 0.09328,-0.07558 0.149406,-0.10234 a 0.28061096,0.28061096 0 0 1 0.118316,-0.02377 1.418869,1.418869 0 0 1 0.448652,-0.212451 c 0.03413,-0.005 0.04401,0.01341 0.06303,0.02377 0.914577,-1.124435 1.855493,-2.222963 2.763595,-3.354306 -0.03066,-4.32e-4 -0.06049,-8.87e-4 -0.08939,-8.87e-4 z m -3.891481,4.08234 c 0.06993,-0.08294 0.141636,-0.164521 0.208568,-0.243542 a 0.95633124,0.95633124 0 0 1 -0.208568,0.243542 z m 17.554407,-4.70458 c -0.0035,-0.06606 0.03062,-0.09544 0.03928,-0.149406 -0.0099,-4.31e-4 -0.01077,-0.0099 -0.0233,-0.0078 -0.02113,0.05526 -0.06691,0.08549 -0.08677,0.141634 0.0358,-0.0074 0.04449,0.01293 0.07081,0.01555 z M 14.86608,29.574947 c 0.105799,-0.0074 0.227999,0.01252 0.307022,-0.01594 0.07341,0.03198 0.169701,-0.02113 0.243971,-0.0078 0.05138,0.0092 0.05269,0.04753 0.102344,0.05526 0.129105,-0.101908 0.221948,-0.240086 0.338536,-0.354517 -0.01342,-0.04449 -0.02113,-0.09412 -0.0315,-0.141633 l -0.04707,-0.07081 h -0.04922 a 0.21432153,0.21432153 0 0 0 -0.03024,-0.09586 0.26631845,0.26631845 0 0 1 -0.0786,0 c -0.03539,-0.0015 -0.06907,0.0092 -0.08676,0 a 1.2354687,1.2354687 0 0 1 -0.180951,-0.149875 c -0.03969,-0.03582 -0.142933,-0.127815 -0.196908,-0.133861 -0.0522,-0.0055 -0.113562,0.03022 -0.173151,0.04753 a 1.6057029,1.6057029 0 0 1 -0.180933,0.04704 c -0.112701,0.01643 -0.24527,0.01125 -0.37006,0.01595 -0.782009,0.0272 -1.649517,0.08377 -2.414256,0.09328 0.955166,-0.508674 1.92933,-1.074779 2.887521,-1.595542 0.07208,-0.03931 0.16366,-0.102771 0.21245,-0.110112 0.07041,-0.01124 0.159338,0.01467 0.228431,0.02378 a 1.2865864,1.2865864 0 0 1 0.212449,0.03931 c 0.190428,-0.106228 0.404173,-0.189134 0.590718,-0.299247 a 0.27439546,0.27439546 0 0 1 -0.102342,-0.07904 0.07073451,0.07073451 0 0 0 4.3e-4,-0.01898 q 0.05053,-0.02463 0.101048,-0.04534 c -0.057,-0.07512 -0.162794,-0.120476 -0.262113,-0.177044 -0.0092,-0.01037 -0.02677,-0.01858 -0.01591,-0.03325 -0.104073,-0.06387 -0.203815,-0.132131 -0.314793,-0.189133 -0.109681,0.03755 -0.167109,0.07384 -0.277222,0.110112 -0.01731,0.0093 -0.04665,-0.02073 -0.07081,-0.02376 a 3.4104591,3.4104591 0 0 1 -0.511699,0.252176 2.5729318,2.5729318 0 0 0 -0.377831,0.196905 c -0.03935,0.02504 -0.08422,0.04753 -0.126094,0.07081 l -0.109243,0.08118 c -1.345095,0.67276 -2.440168,1.14948 -3.736896,1.743221 a 0.25515053,0.25515053 0 0 1 0.0596,0.04967 l -0.56355,0.202499 C 9.680093,29.150876 9.41237,29.250627 9.189119,29.180242 A 0.77616441,0.77616441 0 0 0 9,29.290346 c 0.0652,0.03453 0.135155,0.06905 0.207272,0.103201 a 0.33204438,0.33204438 0 0 0 -0.03279,0.01642 c 0.215906,0.09846 0.46592,0.220657 0.693054,0.314791 a 1.8684379,1.8684379 0 0 0 0.243971,0.09458 0.63497781,0.63497781 0 0 0 0.180929,0 c 0.252181,-0.01124 0.491406,-0.02548 0.732354,-0.04705 0.13861,-0.01252 0.281541,-0.0397 0.417128,-0.03931 0.222813,4.32e-4 0.444771,0.0083 0.669311,0.0078 0.22627,0 0.455557,-0.02895 0.684853,-0.03931 0.450377,-0.01986 0.912847,-0.04234 1.377905,-0.07081 0.233607,-0.01467 0.466359,-0.04019 0.692189,-0.0557 z m 16.084521,-0.268153 c 0.02766,-0.04967 0.05871,-0.101045 0.08677,-0.149407 0.171431,-0.30097 0.348045,-0.595035 0.519907,-0.889961 -0.0432,-0.114431 -0.129977,-0.184816 -0.126093,-0.346312 0.0062,-0.03066 0.04881,-0.02463 0.05527,-0.05526 -0.04185,-0.09932 0.01161,-0.196905 0.02379,-0.307018 a 0.02265798,0.02265798 0 0 1 -0.02809,-0.0074 0.10849765,0.10849765 0 0 0 -0.0015,-0.04099 0.05426611,0.05426611 0 0 1 -0.01811,0.02027 c -6.34e-4,0 -0.002,8.86e-4 -0.0027,0.0015 a 0.15586515,0.15586515 0 0 1 -0.08159,0.01769 c -0.276359,0.455995 -0.582508,0.925802 -0.866212,1.377907 a 1.3456465,1.3456465 0 0 1 -0.126147,0.196948 c -0.06651,0.06954 -0.174453,0.115294 -0.259952,0.173157 -0.266859,0.181792 -0.515582,0.361854 -0.787188,0.527671 a 0.03483158,0.03483158 0 0 0 -0.01425,0.0045 c 0.06174,-0.158905 0.141202,-0.316084 0.193453,-0.475855 0.03413,-0.104498 0.06992,-0.206405 0.05097,-0.298813 a 0.79759516,0.79759516 0 0 0 0.0069,-0.176178 c 0.264698,-0.09328 0.527235,-0.188702 0.784595,-0.288882 0.03798,-0.21936 0.07081,-0.44347 0.133865,-0.637783 0.0041,-0.0078 0.0406,-0.035 0.0078,-0.0315 -0.01512,0.0015 -0.03024,0.0024 -0.04537,0.0037 0.0027,-0.01467 0.005,-0.02933 0.0083,-0.04403 -4.31e-4,-0.01898 0.02809,-0.07513 0,-0.07082 h -0.03935 c -0.143791,0.0138 -0.295789,0.01945 -0.440881,0.0315 -0.06954,0.06305 -0.174015,0.04618 -0.307015,0.05526 -0.06778,0.0039 -0.141203,0.01076 -0.21245,0.01594 -0.193884,0.0138 -0.396402,0.04186 -0.511693,0 -0.701266,0.06738 -1.44355,0.09412 -2.181083,0.12609 -0.194747,0.443036 -0.420584,0.854983 -0.630011,1.283342 -0.222813,0.07384 -0.430081,0.163222 -0.653328,0.236197 0.0073,0.04147 0.05611,0.06348 0.08637,0.08637 a 0.07396014,0.07396014 0 0 1 0.0062,0.0045 c -0.02893,0.01164 -0.05869,0.02329 -0.08724,0.03582 0.06691,0.04362 0.130407,0.09975 0.196907,0.149839 a 0.96443478,0.96443478 0 0 0 0.150704,0.103634 c -0.101047,0.202952 -0.196045,0.410221 -0.282408,0.619218 -0.01947,0.04665 -0.05138,0.08764 -0.07081,0.133859 -0.01077,0.02546 -0.01294,0.05486 -0.02378,0.07859 -0.01036,0.02378 -0.02718,0.04618 -0.03929,0.07081 -0.326023,0.668442 -0.628283,1.338183 -0.953008,2.000148 0.04275,-0.0055 0.05137,-0.04489 0.08676,-0.07081 a 0.26784145,0.26784145 0 0 1 0.03845,-0.0233 c -0.02204,0.04751 -0.04359,0.09499 -0.06436,0.142065 0.0363,-0.09155 0.13861,-0.08765 0.196907,-0.157612 a 0.84448681,0.84448681 0 0 0 0.07858,-0.16538 c 0.07775,-0.170567 0.153727,-0.343291 0.252181,-0.480174 0.07815,-0.0092 0.0894,-0.08812 0.165379,-0.07859 a 1.6305231,1.6305231 0 0 1 0.354517,-0.275494 0.90968284,0.90968284 0 0 0 0.133866,-0.07858 c 0.04318,-0.04147 0.07942,-0.144223 0.118318,-0.220222 0.19906,-0.392085 0.379123,-0.768192 0.566966,-1.141707 0.07816,-0.155453 0.138611,-0.317384 0.236199,-0.448652 0.805762,-0.267724 1.62836,-0.519037 2.432392,-0.788486 -0.162362,0.361423 -0.331631,0.716804 -0.453836,1.118388 0.02419,0.01945 0.04881,0.03844 0.07296,0.05789 -0.0064,0.02592 -0.01426,0.05053 -0.01989,0.07728 0.108818,0.101046 0.236633,0.183522 0.354517,0.275498 0.153296,-0.138612 0.33163,-0.24786 0.503923,-0.362291 0.132139,-0.08811 0.256929,-0.182656 0.385608,-0.267722 0.01514,-0.0099 0.03024,-0.02161 0.04574,-0.03281 -0.04963,0.09888 -0.101911,0.195176 -0.145951,0.299674 a 0.23222398,0.23222398 0 0 0 0.06007,0.02463 0.23236432,0.23236432 0 0 0 -0.02288,0.102773 c 0.01732,0.0024 0.06691,0.02247 0.102337,0.0315 0.107524,0.07641 0.223252,0.130838 0.338114,0.200362 0.02628,-0.08893 0.08293,-0.152863 0.110976,-0.231884 0.05052,-0.06348 0.253472,-0.53156 0.405038,-0.760419 z m 0.513424,-1.690107 a 0.05026494,0.05026494 0 0 0 0.0062,0.02895 c -0.0095,0.01293 -0.01989,0.02592 -0.03024,0.03844 0.0078,-0.02289 0.01641,-0.04489 0.02413,-0.06738 z m -4.442466,1.492771 a 0.37842042,0.37842042 0 0 0 0.05485,-0.141204 c 0.08206,-0.117451 0.127814,-0.271178 0.220653,-0.377833 0.590716,-0.04665 1.228938,-0.09155 1.856788,-0.132134 q -1.042171,0.349766 -2.132282,0.651171 z m -2.118463,1.252679 c 0.114858,0.03151 0.227991,0.06866 0.330764,0.08678 a 1.7592456,1.7592456 0 0 0 0.252176,-0.22843 c 0.03929,-0.03931 0.07815,-0.07903 0.117886,-0.117882 0.03969,-0.03884 0.09888,-0.07256 0.110113,-0.133862 -0.02028,-0.0083 -0.04144,-0.01595 -0.06222,-0.02377 a 0.61849126,0.61849126 0 0 0 0.06435,-0.08765 c -0.287153,-0.134289 -0.598919,-0.215039 -0.897732,-0.330763 -0.255205,-0.09888 -0.507381,-0.203384 -0.752215,-0.309178 0.324722,-0.08158 0.648144,-0.170131 0.962938,-0.264267 0.320834,-0.0963 0.660235,-0.189565 0.937024,-0.322994 a 0.76424771,0.76424771 0 0 1 0.126095,-0.05526 c -0.01376,-0.02377 -0.02932,-0.04577 -0.04449,-0.06825 a 0.23822008,0.23822008 0 0 0 0.04665,-0.05096 c -0.08509,-0.122203 -0.18007,-0.234473 -0.252181,-0.370063 -0.98064,-0.09026 -1.99108,-0.150699 -3.047289,-0.165382 -0.03886,0.0268 -0.04791,0.08377 -0.09458,0.102338 -0.713778,-0.0078 -1.447861,-0.02933 -2.141778,-0.03151 -0.04922,0.06522 -0.100611,0.128249 -0.149838,0.196906 -0.04834,0.06824 -0.08549,0.149407 -0.149407,0.204678 -0.04575,-0.09586 -0.10277,-0.180928 -0.149407,-0.275495 -0.347179,-0.0095 -0.701258,-0.01213 -1.048003,-0.02113 0.330335,-0.404175 0.683554,-0.838578 1.022525,-1.245344 0.05312,-0.06348 0.147251,-0.149837 0.157615,-0.204677 a 1.0965174,1.0965174 0 0 0 -0.0078,-0.228428 c -0.0056,-0.03583 -0.02809,-0.06219 -0.0315,-0.09458 -0.0078,-0.07256 0.02378,-0.128679 0.02378,-0.204678 0.05611,-0.04664 0.06435,-0.135156 0.110113,-0.189133 0.02379,-0.02807 0.05485,-0.02895 0.07081,-0.06306 0.05137,-0.08509 0.134298,-0.170566 0.180928,-0.251746 0.0088,-0.01513 0.02634,-0.02289 0.0078,-0.03931 -0.09975,0.09242 -0.09673,0.126521 -0.132567,0.161929 -0.02628,0.02592 -0.0027,-0.02245 -0.0328,-0.0039 a 0.29994918,0.29994918 0 0 1 -0.07425,0.0894 0.05382608,0.05382608 0 0 0 0.01342,-0.01985 c 0.05005,-0.08637 0.134724,-0.170996 0.180927,-0.252178 0.0088,-0.01515 0.02594,-0.02245 0.0078,-0.03931 -0.111833,0.115292 -0.07384,0.08294 -0.110109,0.118314 -0.01036,0.03412 -0.04922,0.0039 -0.05527,0.0315 a 1.5103935,1.5103935 0 0 0 -0.149415,0.173129 c -0.02161,0.03581 -0.02717,0.07425 -0.04706,0.110109 -0.03413,0.06172 -0.105792,0.108385 -0.15761,0.173156 -0.07425,0.09329 -0.12264,0.215908 -0.20468,0.291474 -0.002,0.02416 -0.01731,0.03542 -0.02378,0.05526 -0.02379,-0.0092 -0.04539,0.04489 -0.04706,0.0078 0.002,-0.01125 0.01296,-0.0134 0.01592,-0.02377 0.0121,-0.0034 0.0015,-0.0095 -0.0078,0 -0.06651,0.01252 -0.09068,0.0669 -0.133865,0.102339 a 0.13385531,0.13385531 0 0 1 -0.102336,0 c -0.4819,0.577762 -0.997051,1.124868 -1.472479,1.708676 -0.477148,0.585967 -0.949981,1.174956 -1.393885,1.795471 0.01947,0.01293 0.03845,0.02592 0.05742,0.03884 -0.01557,0.02377 -0.03024,0.04791 -0.04359,0.07209 0.246997,0.170564 0.484493,0.350198 0.747895,0.503925 0.849375,-0.640809 1.738041,-1.27773 2.584821,-1.912924 q -0.353653,0.496152 -0.700831,0.998779 c 0.0242,0.01555 0.04665,0.03325 0.06954,0.05053 a 0.12149215,0.12149215 0 0 0 -0.01641,0.06866 c 0.0092,0.04402 0.113571,0.10061 0.165387,0.141635 a 1.2007065,1.2007065 0 0 0 0.173156,0.13386 c 0.04017,-0.0177 0.08333,-0.03198 0.12609,-0.04706 0.02161,-0.01164 0.04016,0.0039 0.07081,-0.0078 0.570856,-0.171861 1.196983,-0.288449 1.842538,-0.385605 0.05917,-0.127386 0.143794,-0.228862 0.180929,-0.377835 -0.01426,0.0015 -0.02893,0.0028 -0.04321,0.0039 a 1.0900036,1.0900036 0 0 0 0.06086,-0.146817 c -0.550125,0.08637 -1.103704,0.168841 -1.628788,0.280249 0.05789,-0.107092 0.123495,-0.217635 0.185684,-0.310472 0.463325,-0.05614 0.942207,-0.09717 1.401655,-0.157613 a 2.0595844,2.0595844 0 0 0 0.157608,-0.243971 c 0.01513,-0.02463 0.04359,-0.04921 0.03929,-0.07857 -0.01947,0.0015 -0.03886,0.0024 -0.05826,0.0034 0.01898,-0.02848 0.03886,-0.05654 0.0604,-0.08293 0.002,-0.01295 0.06132,-0.02848 0.02379,-0.03151 -0.468079,0.01555 -0.863623,0.02895 -1.321342,0.05223 0.01947,-0.03844 0.03929,-0.07641 0.05917,-0.113997 0.238355,0.0069 0.464191,-0.02113 0.66153,-0.03149 0.02809,-0.02632 0.04664,-0.07256 0.09458,-0.08677 0.06738,-0.01985 0.200358,-0.0028 0.322996,-0.0078 0.211584,-0.0092 0.401155,0.0095 0.574737,0.0078 a 0.3970362,0.3970362 0 0 0 0.07861,-0.09458 c 4.3e-4,0 6.34e-4,-4.3e-4 0.0015,-4.3e-4 -0.233608,0.514717 -0.458151,1.026412 -0.692197,1.534654 -0.08636,0.187839 -0.193013,0.371357 -0.252173,0.574741 0.01211,0.01555 0.02419,0.03064 0.03671,0.04618 -0.0078,0.0216 -0.01641,0.04317 -0.02329,0.06522 0.04617,0.07425 0.07471,0.08594 0.148543,0.181792 a 2.5614844,2.5614844 0 0 0 0.245268,0.243541 c 0.168404,-0.364446 0.31436,-0.744009 0.496152,-1.10241 l 0.149406,-0.33077 a 2.3067831,2.3067831 0 0 1 0.228423,0.08677 c 0.173591,0.07688 0.344155,0.151132 0.511702,0.220225 0.08245,0.03412 0.157608,0.07558 0.2362,0.110541 l 1.045844,0.379131 c 0.05137,0.01769 0.120045,0.04535 0.174885,0.06043 z m -4.71451,-4.308174 a 1.0706433,1.0706433 0 0 0 0.102335,-0.181359 0.32213087,0.32213087 0 0 1 0.05871,-0.04536 0.30969731,0.30969731 0 0 0 -0.06088,0.06993 c -0.02412,0.04186 -0.02809,0.0937 -0.05527,0.133863 a 0.38400935,0.38400935 0 0 1 -0.05396,0.06132 c 0.0035,-0.01252 0.005,-0.02548 0.0093,-0.03844 z m -1.684929,3.078812 c -0.227997,0.153724 -0.459014,0.309176 -0.682257,0.462039 0.262537,-0.320406 0.535012,-0.655492 0.806184,-0.964667 a 0.03920843,0.03920843 0 0 1 0.02378,-0.02378 c 0.186976,0.01037 0.376108,0.01858 0.557901,0.03453 -0.221951,0.164087 -0.466787,0.330334 -0.70558,0.491833 z m 4.161796,-0.99187 c -0.0035,0 -0.0069,-4.31e-4 -0.0099,-4.31e-4 a 0.07431206,0.07431206 0 0 1 0.01376,-0.0078 0.04792797,0.04792797 0 0 0 -0.0037,0.0083 z m 0.531123,0.723716 c -0.07342,-0.03325 -0.1507,-0.06219 -0.230155,-0.08893 a 3.4202244,3.4202244 0 0 1 0.149411,-0.342858 c 0.519464,-0.0069 1.093337,0.0088 1.606334,0.03282 -0.499175,0.142497 -1.015623,0.267722 -1.52559,0.398992 z M 33.63647,28.20395 c 0.02113,-0.0397 0.04275,-0.07858 0.06437,-0.118317 -0.193451,-0.01077 -0.411519,0.03453 -0.566967,0.0078 -0.231886,0.337675 -0.422745,0.74444 -0.630017,1.094207 a 1.430394,1.430394 0 0 1 -0.09759,0.160634 c -0.09675,-0.404638 -0.193465,-0.840768 -0.327322,-1.208238 h -0.173156 c 0.02288,-0.04833 -0.0092,-0.06306 -0.0315,-0.08676 0.0121,-0.04319 0.04755,-0.06307 0.04706,-0.118317 l -0.0315,0.02377 c -0.106658,0.177042 -0.201661,0.357538 -0.291475,0.543218 -0.08853,0.183953 -0.201222,0.356677 -0.299244,0.535448 -0.197339,0.359697 -0.398993,0.71767 -0.574743,1.094639 0.03712,-0.01341 0.04235,-0.02029 0.07081,-0.01427 -0.01898,0.03931 -0.03845,0.07816 -0.05701,0.117453 0.03455,-0.03198 0.04185,-0.01212 0.09458,-0.0078 0.155024,-0.03884 0.36445,-0.05007 0.543224,-0.08677 0.167538,-0.302267 0.3394,-0.600219 0.511693,-0.897735 0.08333,0.3312 0.159338,0.67017 0.243971,1.000074 a 4.1048514,4.1048514 0 0 0 0.456853,-0.01596 c 0.370067,-0.674918 0.745312,-1.343792 1.11019,-2.023464 -0.02072,0 -0.04144,0 -0.06222,4.33e-4 z m 5.310406,3.593958 c 0.01772,0.0092 0.03539,0.01858 0.05312,0.02767 -0.01251,-0.02161 -0.04144,-0.02679 -0.04754,-0.05526 a 0.21151217,0.21151217 0 0 1 0,-0.110113 0.5485582,0.5485582 0 0 1 -0.07081,-0.07081 c -0.01251,0.0064 0,-0.06306 0,-0.06306 q -0.04537,-0.03047 -0.09329,-0.05958 a 0.07297602,0.07297602 0 0 0 0.0041,-0.03413 c -0.790211,-0.460311 -1.594678,-0.900324 -2.377981,-1.362362 -0.14811,-0.08765 -0.297951,-0.172292 -0.446493,-0.258654 -0.01036,-0.04577 -0.02072,-0.09111 -0.03198,-0.136021 -0.08076,-0.04318 -0.158904,-0.08812 -0.235767,-0.134727 a 0.06439163,0.06439163 0 0 0 0.005,-0.0059 c 0.02765,-0.01427 0.05396,-0.02161 0.08677,-0.03931 -0.03108,-0.02027 -0.06304,-0.04017 -0.09499,-0.06004 a 0.44673246,0.44673246 0 0 1 0.09673,-0.04362 c -0.06304,-0.04059 -0.133857,-0.09241 -0.204678,-0.133863 -0.147678,-0.08637 -0.293628,-0.177471 -0.433104,-0.25995 -0.04235,-0.02505 -0.08677,-0.04536 -0.128246,-0.06993 0.217627,-0.118747 0.442601,-0.232314 0.669303,-0.354517 0.123933,-0.06651 0.253478,-0.129113 0.378268,-0.196907 0.178335,-0.09673 0.376108,-0.164517 0.496153,-0.299243 0.285423,-0.137317 0.565238,-0.279812 0.850231,-0.41756 0.123501,-0.162792 0.196907,-0.375245 0.401587,-0.456857 0.01947,-0.04449 0.07209,-0.103634 0.07859,-0.133862 0,4.33e-4 -0.0073,-4.32e-4 -0.0078,0 -0.06304,0.03716 -0.12868,0.07169 -0.194313,0.105795 a 0.39209674,0.39209674 0 0 1 0.11745,-0.07557 c 0.02246,-0.02719 0.03108,-0.06823 0.06304,-0.08676 -4.26e-4,-0.02377 0.01682,-0.03065 0.02379,-0.04705 0.0083,-0.0045 0.05005,-0.03281 0.01557,-0.0315 -0.574746,0.311335 -1.179705,0.575606 -1.771722,0.866214 -0.56351,0.27679 -1.130478,0.549262 -1.690539,0.826483 0.118318,-0.223676 0.240517,-0.443035 0.357975,-0.66758 l -0.05959,0.0028 c 0.02027,-0.03799 0.04101,-0.076 0.06132,-0.113999 -0.215043,-0.0078 -0.389489,0.02504 -0.60626,0.01595 -0.04185,-0.005 -0.04017,-0.05439 -0.07081,-0.07081 -0.296227,0.546243 -0.592016,1.092916 -0.881762,1.645632 0.01036,0.02161 0.02204,0.04664 0.03365,0.07209 l -0.0037,0.0078 c -0.09412,0.177905 -0.202951,0.351494 -0.275493,0.543219 0.11486,0.137314 0.311335,0.260813 0.4724,0.377834 a 1.9941853,1.9941853 0 0 1 0.149521,-0.299309 c 0.160633,-0.288452 0.322564,-0.575175 0.480171,-0.866213 0.281544,0.138178 0.546243,0.293628 0.810941,0.448649 0.0246,0.02289 0.03754,0.05702 0.07081,0.07081 0.644689,0.358401 1.304931,0.701691 1.960853,1.055345 0.655486,0.353222 1.31443,0.706443 1.968624,1.039368 -0.01425,0.0024 0.03886,0.04402 0.04706,0.02378 a 0.14392255,0.14392255 0 0 1 -0.02627,-0.11403 z"/>
 <path id="blue" style="fill:#2fcbff" d="m 17.893942,27.133996 c 0.01682,-0.02161 0.03413,-0.04274 0.05097,-0.06435 0.01252,-0.0055 0.05741,-0.04578 0.02379,-0.04706 -0.238794,-0.01252 -0.504356,0.0078 -0.763876,0 -0.285424,0.230154 -0.581644,0.468515 -0.850231,0.700829 -0.03671,0.03198 -0.0721,0.08076 -0.126095,0.08676 -0.005,-0.328175 0.03969,-0.554445 0.04706,-0.842462 -0.02419,-0.04147 -0.02594,-0.105363 -0.07858,-0.118316 h -0.0078 a 1.847235,1.847235 0 0 0 -0.37006,0.228433 c -0.02893,0.03413 -0.08549,0.04059 -0.09458,0.09458 a 1.9626281,1.9626281 0 0 0 0.01809,0.595466 c 0.0037,0.05223 0.0088,0.104067 0.01342,0.154589 l 0.05269,0.130409 c 0.123496,0.08118 0.197768,0.199496 0.331198,0.270743 a 1.592362,1.592362 0 0 0 0.168408,-0.107086 c -0.173158,0.197337 -0.352358,0.389494 -0.520336,0.594171 -0.116588,0.142066 -0.223678,0.29579 -0.338537,0.44088 -0.11702,0.147678 -0.237065,0.290176 -0.346315,0.440877 -0.328606,0.452971 -0.675353,0.893416 -1.015616,1.322638 -0.116591,0.146816 -0.250022,0.279812 -0.346315,0.440876 a 0.32886712,0.32886712 0 0 0 -0.09457,0.09458 c 0.05312,-0.02592 0.103206,-0.05439 0.157615,-0.07858 0.05486,-0.07858 0.11875,-0.158476 0.185241,-0.237496 -0.08637,0.116154 -0.161496,0.242672 -0.265995,0.340698 -0.0035,0.0088 -0.0095,0.01898 0,0.0083 0.0479,-0.02029 0.08764,-0.0488 0.133868,-0.07081 0.186537,-0.243541 0.374378,-0.486217 0.582939,-0.708601 0.07425,-0.0069 0.09328,-0.07558 0.149406,-0.10234 a 0.28061096,0.28061096 0 0 1 0.118316,-0.02377 1.418869,1.418869 0 0 1 0.448652,-0.212451 c 0.03413,-0.005 0.04401,0.01341 0.06303,0.02377 0.914577,-1.124435 1.855493,-2.222963 2.763595,-3.354306 -0.03066,-4.32e-4 -0.06049,-8.87e-4 -0.08939,-8.87e-4 z m -3.891481,4.08234 c 0.06993,-0.08294 0.141636,-0.164521 0.208568,-0.243542 a 0.95633124,0.95633124 0 0 1 -0.208568,0.243542 z m 17.554407,-4.70458 c -0.0035,-0.06606 0.03062,-0.09544 0.03928,-0.149406 -0.0099,-4.31e-4 -0.01077,-0.0099 -0.0233,-0.0078 -0.02113,0.05526 -0.06691,0.08549 -0.08677,0.141634 0.0358,-0.0074 0.04449,0.01293 0.07081,0.01555 z M 14.86608,28.574947 c 0.105799,-0.0074 0.227999,0.01252 0.307022,-0.01594 0.07341,0.03198 0.169701,-0.02113 0.243971,-0.0078 0.05138,0.0092 0.05269,0.04753 0.102344,0.05526 0.129105,-0.101908 0.221948,-0.240086 0.338536,-0.354517 -0.01342,-0.04449 -0.02113,-0.09412 -0.0315,-0.141633 l -0.04707,-0.07081 h -0.04922 a 0.21432153,0.21432153 0 0 0 -0.03024,-0.09586 0.26631845,0.26631845 0 0 1 -0.0786,0 c -0.03539,-0.0015 -0.06907,0.0092 -0.08676,0 a 1.2354687,1.2354687 0 0 1 -0.180951,-0.149875 c -0.03969,-0.03582 -0.142933,-0.127815 -0.196908,-0.133861 -0.0522,-0.0055 -0.113562,0.03022 -0.173151,0.04753 a 1.6057029,1.6057029 0 0 1 -0.180933,0.04704 c -0.112701,0.01643 -0.24527,0.01125 -0.37006,0.01595 -0.782009,0.0272 -1.649517,0.08377 -2.414256,0.09328 0.955166,-0.508674 1.92933,-1.074779 2.887521,-1.595542 0.07208,-0.03931 0.16366,-0.102771 0.21245,-0.110112 0.07041,-0.01124 0.159338,0.01467 0.228431,0.02378 a 1.2865864,1.2865864 0 0 1 0.212449,0.03931 c 0.190428,-0.106228 0.404173,-0.189134 0.590718,-0.299247 a 0.27439546,0.27439546 0 0 1 -0.102342,-0.07904 0.07073451,0.07073451 0 0 0 4.3e-4,-0.01898 q 0.05053,-0.02463 0.101048,-0.04534 c -0.057,-0.07512 -0.162794,-0.120476 -0.262113,-0.177044 -0.0092,-0.01037 -0.02677,-0.01858 -0.01591,-0.03325 -0.104073,-0.06387 -0.203815,-0.132131 -0.314793,-0.189133 -0.109681,0.03755 -0.167109,0.07384 -0.277222,0.110112 -0.01731,0.0093 -0.04665,-0.02073 -0.07081,-0.02376 a 3.4104591,3.4104591 0 0 1 -0.511699,0.252176 2.5729318,2.5729318 0 0 0 -0.377831,0.196905 c -0.03935,0.02504 -0.08422,0.04753 -0.126094,0.07081 l -0.109243,0.08118 c -1.345095,0.67276 -2.440168,1.14948 -3.736896,1.743221 a 0.25515053,0.25515053 0 0 1 0.0596,0.04967 l -0.56355,0.202499 C 9.680093,28.150876 9.41237,28.250627 9.189119,28.180242 A 0.77616441,0.77616441 0 0 0 9,28.290346 c 0.0652,0.03453 0.135155,0.06905 0.207272,0.103201 a 0.33204438,0.33204438 0 0 0 -0.03279,0.01642 c 0.215906,0.09846 0.46592,0.220657 0.693054,0.314791 a 1.8684379,1.8684379 0 0 0 0.243971,0.09458 0.63497781,0.63497781 0 0 0 0.180929,0 c 0.252181,-0.01124 0.491406,-0.02548 0.732354,-0.04705 0.13861,-0.01252 0.281541,-0.0397 0.417128,-0.03931 0.222813,4.32e-4 0.444771,0.0083 0.669311,0.0078 0.22627,0 0.455557,-0.02895 0.684853,-0.03931 0.450377,-0.01986 0.912847,-0.04234 1.377905,-0.07081 0.233607,-0.01467 0.466359,-0.04019 0.692189,-0.0557 z m 16.084521,-0.268153 c 0.02766,-0.04967 0.05871,-0.101045 0.08677,-0.149407 0.171431,-0.30097 0.348045,-0.595035 0.519907,-0.889961 -0.0432,-0.114431 -0.129977,-0.184816 -0.126093,-0.346312 0.0062,-0.03066 0.04881,-0.02463 0.05527,-0.05526 -0.04185,-0.09932 0.01161,-0.196905 0.02379,-0.307018 a 0.02265798,0.02265798 0 0 1 -0.02809,-0.0074 0.10849765,0.10849765 0 0 0 -0.0015,-0.04099 0.05426611,0.05426611 0 0 1 -0.01811,0.02027 c -6.34e-4,0 -0.002,8.86e-4 -0.0027,0.0015 a 0.15586515,0.15586515 0 0 1 -0.08159,0.01769 c -0.276359,0.455995 -0.582508,0.925802 -0.866212,1.377907 a 1.3456465,1.3456465 0 0 1 -0.126147,0.196948 c -0.06651,0.06954 -0.174453,0.115294 -0.259952,0.173157 -0.266859,0.181792 -0.515582,0.361854 -0.787188,0.527671 a 0.03483158,0.03483158 0 0 0 -0.01425,0.0045 c 0.06174,-0.158905 0.141202,-0.316084 0.193453,-0.475855 0.03413,-0.104498 0.06992,-0.206405 0.05097,-0.298813 a 0.79759516,0.79759516 0 0 0 0.0069,-0.176178 c 0.264698,-0.09328 0.527235,-0.188702 0.784595,-0.288882 0.03798,-0.21936 0.07081,-0.44347 0.133865,-0.637783 0.0041,-0.0078 0.0406,-0.035 0.0078,-0.0315 -0.01512,0.0015 -0.03024,0.0024 -0.04537,0.0037 0.0027,-0.01467 0.005,-0.02933 0.0083,-0.04403 -4.31e-4,-0.01898 0.02809,-0.07513 0,-0.07082 h -0.03935 c -0.143791,0.0138 -0.295789,0.01945 -0.440881,0.0315 -0.06954,0.06305 -0.174015,0.04618 -0.307015,0.05526 -0.06778,0.0039 -0.141203,0.01076 -0.21245,0.01594 -0.193884,0.0138 -0.396402,0.04186 -0.511693,0 -0.701266,0.06738 -1.44355,0.09412 -2.181083,0.12609 -0.194747,0.443036 -0.420584,0.854983 -0.630011,1.283342 -0.222813,0.07384 -0.430081,0.163222 -0.653328,0.236197 0.0073,0.04147 0.05611,0.06348 0.08637,0.08637 a 0.07396014,0.07396014 0 0 1 0.0062,0.0045 c -0.02893,0.01164 -0.05869,0.02329 -0.08724,0.03582 0.06691,0.04362 0.130407,0.09975 0.196907,0.149839 a 0.96443478,0.96443478 0 0 0 0.150704,0.103634 c -0.101047,0.202952 -0.196045,0.410221 -0.282408,0.619218 -0.01947,0.04665 -0.05138,0.08764 -0.07081,0.133859 -0.01077,0.02546 -0.01294,0.05486 -0.02378,0.07859 -0.01036,0.02378 -0.02718,0.04618 -0.03929,0.07081 -0.326023,0.668442 -0.628283,1.338183 -0.953008,2.000148 0.04275,-0.0055 0.05137,-0.04489 0.08676,-0.07081 a 0.26784145,0.26784145 0 0 1 0.03845,-0.0233 c -0.02204,0.04751 -0.04359,0.09499 -0.06436,0.142065 0.0363,-0.09155 0.13861,-0.08765 0.196907,-0.157612 a 0.84448681,0.84448681 0 0 0 0.07858,-0.16538 c 0.07775,-0.170567 0.153727,-0.343291 0.252181,-0.480174 0.07815,-0.0092 0.0894,-0.08812 0.165379,-0.07859 a 1.6305231,1.6305231 0 0 1 0.354517,-0.275494 0.90968284,0.90968284 0 0 0 0.133866,-0.07858 c 0.04318,-0.04147 0.07942,-0.144223 0.118318,-0.220222 0.19906,-0.392085 0.379123,-0.768192 0.566966,-1.141707 0.07816,-0.155453 0.138611,-0.317384 0.236199,-0.448652 0.805762,-0.267724 1.62836,-0.519037 2.432392,-0.788486 -0.162362,0.361423 -0.331631,0.716804 -0.453836,1.118388 0.02419,0.01945 0.04881,0.03844 0.07296,0.05789 -0.0064,0.02592 -0.01426,0.05053 -0.01989,0.07728 0.108818,0.101046 0.236633,0.183522 0.354517,0.275498 0.153296,-0.138612 0.33163,-0.24786 0.503923,-0.362291 0.132139,-0.08811 0.256929,-0.182656 0.385608,-0.267722 0.01514,-0.0099 0.03024,-0.02161 0.04574,-0.03281 -0.04963,0.09888 -0.101911,0.195176 -0.145951,0.299674 a 0.23222398,0.23222398 0 0 0 0.06007,0.02463 0.23236432,0.23236432 0 0 0 -0.02288,0.102773 c 0.01732,0.0024 0.06691,0.02247 0.102337,0.0315 0.107524,0.07641 0.223252,0.130838 0.338114,0.200362 0.02628,-0.08893 0.08293,-0.152863 0.110976,-0.231884 0.05052,-0.06348 0.253472,-0.53156 0.405038,-0.760419 z m 0.513424,-1.690107 a 0.05026494,0.05026494 0 0 0 0.0062,0.02895 c -0.0095,0.01293 -0.01989,0.02592 -0.03024,0.03844 0.0078,-0.02289 0.01641,-0.04489 0.02413,-0.06738 z m -4.442466,1.492771 a 0.37842042,0.37842042 0 0 0 0.05485,-0.141204 c 0.08206,-0.117451 0.127814,-0.271178 0.220653,-0.377833 0.590716,-0.04665 1.228938,-0.09155 1.856788,-0.132134 q -1.042171,0.349766 -2.132282,0.651171 z m -2.118463,1.252679 c 0.114858,0.03151 0.227991,0.06866 0.330764,0.08678 a 1.7592456,1.7592456 0 0 0 0.252176,-0.22843 c 0.03929,-0.03931 0.07815,-0.07903 0.117886,-0.117882 0.03969,-0.03884 0.09888,-0.07256 0.110113,-0.133862 -0.02028,-0.0083 -0.04144,-0.01595 -0.06222,-0.02377 a 0.61849126,0.61849126 0 0 0 0.06435,-0.08765 c -0.287153,-0.134289 -0.598919,-0.215039 -0.897732,-0.330763 -0.255205,-0.09888 -0.507381,-0.203384 -0.752215,-0.309178 0.324722,-0.08158 0.648144,-0.170131 0.962938,-0.264267 0.320834,-0.0963 0.660235,-0.189565 0.937024,-0.322994 a 0.76424771,0.76424771 0 0 1 0.126095,-0.05526 c -0.01376,-0.02377 -0.02932,-0.04577 -0.04449,-0.06825 a 0.23822008,0.23822008 0 0 0 0.04665,-0.05096 c -0.08509,-0.122203 -0.18007,-0.234473 -0.252181,-0.370063 -0.98064,-0.09026 -1.99108,-0.150699 -3.047289,-0.165382 -0.03886,0.0268 -0.04791,0.08377 -0.09458,0.102338 -0.713778,-0.0078 -1.447861,-0.02933 -2.141778,-0.03151 -0.04922,0.06522 -0.100611,0.128249 -0.149838,0.196906 -0.04834,0.06824 -0.08549,0.149407 -0.149407,0.204678 -0.04575,-0.09586 -0.10277,-0.180928 -0.149407,-0.275495 -0.347179,-0.0095 -0.701258,-0.01213 -1.048003,-0.02113 0.330335,-0.404175 0.683554,-0.838578 1.022525,-1.245344 0.05312,-0.06348 0.147251,-0.149837 0.157615,-0.204677 a 1.0965174,1.0965174 0 0 0 -0.0078,-0.228428 c -0.0056,-0.03583 -0.02809,-0.06219 -0.0315,-0.09458 -0.0078,-0.07256 0.02378,-0.128679 0.02378,-0.204678 0.05611,-0.04664 0.06435,-0.135156 0.110113,-0.189133 0.02379,-0.02807 0.05485,-0.02895 0.07081,-0.06306 0.05137,-0.08509 0.134298,-0.170566 0.180928,-0.251746 0.0088,-0.01513 0.02634,-0.02289 0.0078,-0.03931 -0.09975,0.09242 -0.09673,0.126521 -0.132567,0.161929 -0.02628,0.02592 -0.0027,-0.02245 -0.0328,-0.0039 a 0.29994918,0.29994918 0 0 1 -0.07425,0.0894 0.05382608,0.05382608 0 0 0 0.01342,-0.01985 c 0.05005,-0.08637 0.134724,-0.170996 0.180927,-0.252178 0.0088,-0.01515 0.02594,-0.02245 0.0078,-0.03931 -0.111833,0.115292 -0.07384,0.08294 -0.110109,0.118314 -0.01036,0.03412 -0.04922,0.0039 -0.05527,0.0315 a 1.5103935,1.5103935 0 0 0 -0.149415,0.173129 c -0.02161,0.03581 -0.02717,0.07425 -0.04706,0.110109 -0.03413,0.06172 -0.105792,0.108385 -0.15761,0.173156 -0.07425,0.09329 -0.12264,0.215908 -0.20468,0.291474 -0.002,0.02416 -0.01731,0.03542 -0.02378,0.05526 -0.02379,-0.0092 -0.04539,0.04489 -0.04706,0.0078 0.002,-0.01125 0.01296,-0.0134 0.01592,-0.02377 0.0121,-0.0034 0.0015,-0.0095 -0.0078,0 -0.06651,0.01252 -0.09068,0.0669 -0.133865,0.102339 a 0.13385531,0.13385531 0 0 1 -0.102336,0 c -0.4819,0.577762 -0.997051,1.124868 -1.472479,1.708676 -0.477148,0.585967 -0.949981,1.174956 -1.393885,1.795471 0.01947,0.01293 0.03845,0.02592 0.05742,0.03884 -0.01557,0.02377 -0.03024,0.04791 -0.04359,0.07209 0.246997,0.170564 0.484493,0.350198 0.747895,0.503925 0.849375,-0.640809 1.738041,-1.27773 2.584821,-1.912924 q -0.353653,0.496152 -0.700831,0.998779 c 0.0242,0.01555 0.04665,0.03325 0.06954,0.05053 a 0.12149215,0.12149215 0 0 0 -0.01641,0.06866 c 0.0092,0.04402 0.113571,0.10061 0.165387,0.141635 a 1.2007065,1.2007065 0 0 0 0.173156,0.13386 c 0.04017,-0.0177 0.08333,-0.03198 0.12609,-0.04706 0.02161,-0.01164 0.04016,0.0039 0.07081,-0.0078 0.570856,-0.171861 1.196983,-0.288449 1.842538,-0.385605 0.05917,-0.127386 0.143794,-0.228862 0.180929,-0.377835 -0.01426,0.0015 -0.02893,0.0028 -0.04321,0.0039 a 1.0900036,1.0900036 0 0 0 0.06086,-0.146817 c -0.550125,0.08637 -1.103704,0.168841 -1.628788,0.280249 0.05789,-0.107092 0.123495,-0.217635 0.185684,-0.310472 0.463325,-0.05614 0.942207,-0.09717 1.401655,-0.157613 a 2.0595844,2.0595844 0 0 0 0.157608,-0.243971 c 0.01513,-0.02463 0.04359,-0.04921 0.03929,-0.07857 -0.01947,0.0015 -0.03886,0.0024 -0.05826,0.0034 0.01898,-0.02848 0.03886,-0.05654 0.0604,-0.08293 0.002,-0.01295 0.06132,-0.02848 0.02379,-0.03151 -0.468079,0.01555 -0.863623,0.02895 -1.321342,0.05223 0.01947,-0.03844 0.03929,-0.07641 0.05917,-0.113997 0.238355,0.0069 0.464191,-0.02113 0.66153,-0.03149 0.02809,-0.02632 0.04664,-0.07256 0.09458,-0.08677 0.06738,-0.01985 0.200358,-0.0028 0.322996,-0.0078 0.211584,-0.0092 0.401155,0.0095 0.574737,0.0078 a 0.3970362,0.3970362 0 0 0 0.07861,-0.09458 c 4.3e-4,0 6.34e-4,-4.3e-4 0.0015,-4.3e-4 -0.233608,0.514717 -0.458151,1.026412 -0.692197,1.534654 -0.08636,0.187839 -0.193013,0.371357 -0.252173,0.574741 0.01211,0.01555 0.02419,0.03064 0.03671,0.04618 -0.0078,0.0216 -0.01641,0.04317 -0.02329,0.06522 0.04617,0.07425 0.07471,0.08594 0.148543,0.181792 a 2.5614844,2.5614844 0 0 0 0.245268,0.243541 c 0.168404,-0.364446 0.31436,-0.744009 0.496152,-1.10241 l 0.149406,-0.33077 a 2.3067831,2.3067831 0 0 1 0.228423,0.08677 c 0.173591,0.07688 0.344155,0.151132 0.511702,0.220225 0.08245,0.03412 0.157608,0.07558 0.2362,0.110541 l 1.045844,0.379131 c 0.05137,0.01769 0.120045,0.04535 0.174885,0.06043 z m -4.71451,-4.308174 a 1.0706433,1.0706433 0 0 0 0.102335,-0.181359 0.32213087,0.32213087 0 0 1 0.05871,-0.04536 0.30969731,0.30969731 0 0 0 -0.06088,0.06993 c -0.02412,0.04186 -0.02809,0.0937 -0.05527,0.133863 a 0.38400935,0.38400935 0 0 1 -0.05396,0.06132 c 0.0035,-0.01252 0.005,-0.02548 0.0093,-0.03844 z m -1.684929,3.078812 c -0.227997,0.153724 -0.459014,0.309176 -0.682257,0.462039 0.262537,-0.320406 0.535012,-0.655492 0.806184,-0.964667 a 0.03920843,0.03920843 0 0 1 0.02378,-0.02378 c 0.186976,0.01037 0.376108,0.01858 0.557901,0.03453 -0.221951,0.164087 -0.466787,0.330334 -0.70558,0.491833 z m 4.161796,-0.99187 c -0.0035,0 -0.0069,-4.31e-4 -0.0099,-4.31e-4 a 0.07431206,0.07431206 0 0 1 0.01376,-0.0078 0.04792797,0.04792797 0 0 0 -0.0037,0.0083 z m 0.531123,0.723716 c -0.07342,-0.03325 -0.1507,-0.06219 -0.230155,-0.08893 a 3.4202244,3.4202244 0 0 1 0.149411,-0.342858 c 0.519464,-0.0069 1.093337,0.0088 1.606334,0.03282 -0.499175,0.142497 -1.015623,0.267722 -1.52559,0.398992 z M 33.63647,27.20395 c 0.02113,-0.0397 0.04275,-0.07858 0.06437,-0.118317 -0.193451,-0.01077 -0.411519,0.03453 -0.566967,0.0078 -0.231886,0.337675 -0.422745,0.74444 -0.630017,1.094207 a 1.430394,1.430394 0 0 1 -0.09759,0.160634 c -0.09675,-0.404638 -0.193465,-0.840768 -0.327322,-1.208238 h -0.173156 c 0.02288,-0.04833 -0.0092,-0.06306 -0.0315,-0.08676 0.0121,-0.04319 0.04755,-0.06307 0.04706,-0.118317 l -0.0315,0.02377 c -0.106658,0.177042 -0.201661,0.357538 -0.291475,0.543218 -0.08853,0.183953 -0.201222,0.356677 -0.299244,0.535448 -0.197339,0.359697 -0.398993,0.71767 -0.574743,1.094639 0.03712,-0.01341 0.04235,-0.02029 0.07081,-0.01427 -0.01898,0.03931 -0.03845,0.07816 -0.05701,0.117453 0.03455,-0.03198 0.04185,-0.01212 0.09458,-0.0078 0.155024,-0.03884 0.36445,-0.05007 0.543224,-0.08677 0.167538,-0.302267 0.3394,-0.600219 0.511693,-0.897735 0.08333,0.3312 0.159338,0.67017 0.243971,1.000074 a 4.1048514,4.1048514 0 0 0 0.456853,-0.01596 c 0.370067,-0.674918 0.745312,-1.343792 1.11019,-2.023464 -0.02072,0 -0.04144,0 -0.06222,4.33e-4 z m 5.310406,3.593958 c 0.01772,0.0092 0.03539,0.01858 0.05312,0.02767 -0.01251,-0.02161 -0.04144,-0.02679 -0.04754,-0.05526 a 0.21151217,0.21151217 0 0 1 0,-0.110113 0.5485582,0.5485582 0 0 1 -0.07081,-0.07081 c -0.01251,0.0064 0,-0.06306 0,-0.06306 q -0.04537,-0.03047 -0.09329,-0.05958 a 0.07297602,0.07297602 0 0 0 0.0041,-0.03413 c -0.790211,-0.460311 -1.594678,-0.900324 -2.377981,-1.362362 -0.14811,-0.08765 -0.297951,-0.172292 -0.446493,-0.258654 -0.01036,-0.04577 -0.02072,-0.09111 -0.03198,-0.136021 -0.08076,-0.04318 -0.158904,-0.08812 -0.235767,-0.134727 a 0.06439163,0.06439163 0 0 0 0.005,-0.0059 c 0.02765,-0.01427 0.05396,-0.02161 0.08677,-0.03931 -0.03108,-0.02027 -0.06304,-0.04017 -0.09499,-0.06004 a 0.44673246,0.44673246 0 0 1 0.09673,-0.04362 c -0.06304,-0.04059 -0.133857,-0.09241 -0.204678,-0.133863 -0.147678,-0.08637 -0.293628,-0.177471 -0.433104,-0.25995 -0.04235,-0.02505 -0.08677,-0.04536 -0.128246,-0.06993 0.217627,-0.118747 0.442601,-0.232314 0.669303,-0.354517 0.123933,-0.06651 0.253478,-0.129113 0.378268,-0.196907 0.178335,-0.09673 0.376108,-0.164517 0.496153,-0.299243 0.285423,-0.137317 0.565238,-0.279812 0.850231,-0.41756 0.123501,-0.162792 0.196907,-0.375245 0.401587,-0.456857 0.01947,-0.04449 0.07209,-0.103634 0.07859,-0.133862 0,4.33e-4 -0.0073,-4.32e-4 -0.0078,0 -0.06304,0.03716 -0.12868,0.07169 -0.194313,0.105795 a 0.39209674,0.39209674 0 0 1 0.11745,-0.07557 c 0.02246,-0.02719 0.03108,-0.06823 0.06304,-0.08676 -4.26e-4,-0.02377 0.01682,-0.03065 0.02379,-0.04705 0.0083,-0.0045 0.05005,-0.03281 0.01557,-0.0315 -0.574746,0.311335 -1.179705,0.575606 -1.771722,0.866214 -0.56351,0.27679 -1.130478,0.549262 -1.690539,0.826483 0.118318,-0.223676 0.240517,-0.443035 0.357975,-0.66758 l -0.05959,0.0028 c 0.02027,-0.03799 0.04101,-0.076 0.06132,-0.113999 -0.215043,-0.0078 -0.389489,0.02504 -0.60626,0.01595 -0.04185,-0.005 -0.04017,-0.05439 -0.07081,-0.07081 -0.296227,0.546243 -0.592016,1.092916 -0.881762,1.645632 0.01036,0.02161 0.02204,0.04664 0.03365,0.07209 l -0.0037,0.0078 c -0.09412,0.177905 -0.202951,0.351494 -0.275493,0.543219 0.11486,0.137314 0.311335,0.260813 0.4724,0.377834 a 1.9941853,1.9941853 0 0 1 0.149521,-0.299309 c 0.160633,-0.288452 0.322564,-0.575175 0.480171,-0.866213 0.281544,0.138178 0.546243,0.293628 0.810941,0.448649 0.0246,0.02289 0.03754,0.05702 0.07081,0.07081 0.644689,0.358401 1.304931,0.701691 1.960853,1.055345 0.655486,0.353222 1.31443,0.706443 1.968624,1.039368 -0.01425,0.0024 0.03886,0.04402 0.04706,0.02378 a 0.14392255,0.14392255 0 0 1 -0.02627,-0.11403 z"/>
 <path style="fill:#ac7f5c" d="m 32.930302,11.607162 c -0.136734,1.763131 0.156496,1.780954 0.04294,2.350331 -0.124263,0.623053 -0.240545,1.104152 -0.237461,1.610956 0.0041,0.681864 -0.446831,1.108901 -0.641941,1.756121 -0.2638,0.875083 -0.316321,1.939808 -0.550673,2.583337 -0.315328,0.865891 -0.933264,1.277209 -1.634502,1.012711 -1.624101,-0.612589 -2.942515,-1.016398 -3.975335,-1.982193 -2.244958,-2.099272 -2.933122,-6.032057 -2.933122,-7.609752 0,-2.3906602 2.18331,-4.3286731 4.876558,-4.328673 2.693247,-1e-7 5.238417,2.2232148 5.053536,4.607162 z"/>
 <path style="fill:url(#linearGradient891)" d="m 30.469967,15.54634 1.019126,-0.385599 c -0.164489,0.02275 0.232378,1.398555 0.571073,2.199679 0.09383,0.221945 0.02039,0.424933 -0.04013,0.510451 -0.144569,0.204284 -0.713351,-0.130396 -1.165528,-0.256745 -0.353952,-0.09891 -0.406662,0.106792 -0.406662,0.106792 -0.447087,0.04093 -0.193942,-0.326441 -0.06275,-0.874329 0.100879,-0.421296 0.03924,-0.993108 0.08487,-1.300249 z"/>
 <path style="opacity:0.6" d="m 28.168981,15.351133 1.791926,-0.107112 0.309715,0.06427 c 0,0 -0.199103,0.655529 -2.101641,0.04284 z"/>
 <path style="opacity:0.6" d="m 32.644851,14.742799 -0.595583,0.333825 -0.180561,0.149016 c 0,0 0.470438,0.47423 0.776144,-0.482843 z"/>
 <path style="fill:#67553c" d="M 27.877614,7.0000848 C 25.184366,7.0000847 23,8.9388739 23,11.329534 c 0,0.913142 0.243894,2.613705 0.873363,4.292595 0.841011,0.02585 1.864912,-0.4151 1.864912,-0.4151 -1e-6,0 2.012568,-1.746361 2.071233,-4.009395 1.124841,0.567202 2.806094,1.258531 4.244626,1.035808 0.492056,-0.07618 0.679746,-0.617768 0.857338,-1.235599 C 32.668624,8.8581917 30.339181,7.0000847 27.877614,7.0000848 Z"/>
 <path style="fill:url(#linearGradient899)" d="m 23.233516,13.623951 c 0.324515,-0.649716 0.746427,-0.450594 1.175052,-0.192986 0.587911,0.204352 0.551616,0.551247 0.587667,0.804474 l 0.155812,1.67645 c 0.01646,0.338327 -0.363836,0.331768 -0.363836,0.331768 l -0.465368,-0.140824 c -1.400804,-0.826294 -1.248628,-1.652588 -1.089327,-2.478882 z"/>
 <path style="fill:#ac5c5c" d="m 31.092511,18.668056 c 0.307129,-0.100553 0.813162,-0.516746 0.813162,-0.516746 0,0 -0.189901,0.6892 -0.660694,0.88585 -0.470793,0.196651 -1.931261,-0.246069 -1.931261,-0.246069 0,0 1.215666,0.06133 1.778793,-0.123035 z"/>
</svg>
