<svg xmlns="http://www.w3.org/2000/svg" width="48" height="48" version="1.1">
 <circle style="opacity:0.2" cx="24" cy="25" r="20"/>
 <path style="fill:#4f4f4f" d="m 24.6116,44 -1.1858,0 c -0.055,-0.02 -0.1102,-0.025 -0.1657,-0.025 -0.6331,-0.03 -1.2616,-0.081 -1.8846,-0.1657 -1.1654,-0.1508 -2.3113,-0.4071 -3.4267,-0.7634 -1.9143,-0.6126 -3.698,-1.4917 -5.3511,-2.6373 -1.5329,-1.0652 -2.889,-2.3209 -4.07,-3.7673 C 7.1354,34.9433 6.0505,33.0694 5.2814,31.0103 4.5928,29.1818 4.1809,27.2884 4.055,25.3341 4.055,25.2286 4.035,25.1231 4,25.0176 L 4,22.953 c 0.035,-0.091 0.05,-0.186 0.055,-0.2813 0.025,-0.4673 0.075,-0.9346 0.136,-1.3964 0.3017,-2.2302 0.9645,-4.3455 1.9847,-6.3499 0.7034,-1.3816 1.5577,-2.667 2.5622,-3.8532 0.995,-1.1752 2.1105,-2.2255 3.3462,-3.1445 2.015,-1.4972 4.231,-2.5771 6.6526,-3.2398 1.1756,-0.3211 2.3769,-0.5321 3.5924,-0.6329 0.2158,-0.02 0.4424,0 0.6582,-0.055 l 2.0299,0 c 0.1556,0.045 0.3166,0.02 0.4721,0.035 0.8044,0.07 1.6032,0.1711 2.3966,0.3266 2.4974,0.4923 4.8134,1.4269 6.9543,2.8076 1.6634,1.0699 3.1305,2.3608 4.4116,3.8627 1.0303,1.2057 1.9041,2.5169 2.6178,3.9329 0.8441,1.6731 1.4468,3.4258 1.7892,5.2692 0.1806,0.9744 0.3166,1.959 0.3212,2.9537 0,0.066 0.015,0.136 0.02,0.2008 l 0,1.1856 c -0.02,0.075 -0.02,0.1555 -0.025,0.2359 0,0.1907 0,0.3822 -0.015,0.5728 -0.091,1.2159 -0.2814,2.4162 -0.5831,3.6016 -0.5777,2.2255 -1.5078,4.2901 -2.7991,6.1936 -0.9599,1.4167 -2.08,2.6928 -3.3666,3.8227 -1.2811,1.1253 -2.6834,2.0748 -4.206,2.8429 -1.754,0.8838 -3.5979,1.4972 -5.5325,1.8332 -0.7434,0.1305 -1.4922,0.2157 -2.2457,0.261 -0.1985,0.023 -0.4096,0.018 -0.6159,0.062 z"/>
 <path style="opacity:0.1;fill:#f4f4f7" d="M 24,4 A 20,20 0 0 0 4,24 20,20 0 0 0 4.0215,24.582 20,20 0 0 1 24,5 20,20 0 0 1 43.979,24.418 20,20 0 0 0 44,24 20,20 0 0 0 24,4 Z"/>
 <path style="opacity:0.2" d="m 16.328867,34.998602 c 0.326366,0.0094 0.692813,-0.02901 1.059162,-0.103114 1.08388,-0.225968 2.004479,-0.69531 2.711965,-1.527419 0.430263,-0.507424 0.791983,-1.057328 1.103773,-1.635678 0.366546,-0.681463 0.672821,-1.391464 0.939901,-2.110167 0.326366,-0.869349 0.603491,-1.757692 0.8168,-2.65558 0.118473,-0.503026 -0.01477,-0.818166 -0.598862,-0.991456 -0.742053,-0.220822 -1.489621,-0.418253 -2.251665,-0.57835 -1.261638,-0.263302 -2.533322,-0.432194 -3.830413,-0.390556 -0.366447,0.01404 -0.732106,0.05146 -1.093826,0.112563 -1.049215,0.174132 -1.939778,0.634772 -2.667157,1.363019 -1.242434,1.240817 -1.736611,2.721358 -1.430237,4.408967 0.440308,2.411459 2.687246,4.126765 5.240559,4.107771 z"/>
 <path style="fill:#e9ff61" d="m 16.328867,33.998602 c 0.326366,0.0094 0.692813,-0.02901 1.059162,-0.103114 1.08388,-0.225968 2.004479,-0.69531 2.711965,-1.527419 0.430263,-0.507424 0.791983,-1.057328 1.103773,-1.635678 0.366546,-0.681463 0.672821,-1.391464 0.939901,-2.110167 0.326366,-0.869349 0.603491,-1.757692 0.8168,-2.65558 0.118473,-0.503026 -0.01477,-0.818166 -0.598862,-0.991456 -0.742053,-0.220822 -1.489621,-0.418253 -2.251665,-0.57835 -1.261638,-0.263302 -2.533322,-0.432194 -3.830413,-0.390556 -0.366447,0.01404 -0.732106,0.05146 -1.093826,0.112563 -1.049215,0.174132 -1.939778,0.634772 -2.667157,1.363019 -1.242434,1.240817 -1.736611,2.721358 -1.430237,4.408967 0.440308,2.411459 2.687246,4.126765 5.240559,4.107771 z"/>
 <path style="opacity:0.2" d="m 19.001877,16.331527 c -0.01399,0.371571 0.05129,0.777764 0.159553,1.184055 0.206271,0.773029 0.548129,1.481351 0.951253,2.150415 0.918335,1.521497 2.075859,2.824116 3.331763,4.033521 0.102856,0.09943 0.225295,0.183369 0.356406,0.247385 0.131297,0.06905 0.262408,0.06905 0.398088,0.0099 0.131111,-0.05918 0.24842,-0.143421 0.346894,-0.25281 0.435855,-0.455611 0.866674,-0.911912 1.279216,-1.382812 0.580954,-0.669064 1.134212,-1.357363 1.635622,-2.095769 0.454878,-0.668966 0.862292,-1.372751 1.161907,-2.135817 0.299616,-0.758431 0.445274,-1.540732 0.346894,-2.363277 -0.164029,-1.357363 -0.712065,-2.507388 -1.691666,-3.40914 -1.15827,-1.064505 -2.507425,-1.490722 -4.025737,-1.253299 -2.469472,0.386958 -4.259704,2.68612 -4.250193,5.267487 z"/>
 <path style="fill:#10b7d6" d="m 19.001877,15.331527 c -0.01399,0.371571 0.05129,0.777764 0.159553,1.184055 0.206271,0.773029 0.548129,1.481351 0.951253,2.150415 0.918335,1.521497 2.075859,2.824116 3.331763,4.033521 0.102856,0.09943 0.225295,0.183369 0.356406,0.247385 0.131297,0.06905 0.262408,0.06905 0.398088,0.0099 0.131111,-0.05918 0.24842,-0.143421 0.346894,-0.25281 0.435855,-0.455611 0.866674,-0.911912 1.279216,-1.382812 0.580954,-0.669064 1.134212,-1.357363 1.635622,-2.095769 0.454878,-0.668966 0.862292,-1.372751 1.161907,-2.135817 0.299616,-0.758431 0.445274,-1.540732 0.346894,-2.363277 -0.164029,-1.357363 -0.712065,-2.507388 -1.691666,-3.40914 -1.15827,-1.064505 -2.507425,-1.4907218 -4.025737,-1.253299 -2.469472,0.386958 -4.259704,2.68612 -4.250193,5.267487 z"/>
 <path style="opacity:0.2" d="m 31.671133,34.998602 c -0.326366,0.0094 -0.692813,-0.02901 -1.059162,-0.103114 -1.08388,-0.225968 -2.004479,-0.69531 -2.711965,-1.527419 -0.430263,-0.507424 -0.791983,-1.057328 -1.103773,-1.635678 -0.366546,-0.681463 -0.672821,-1.391464 -0.939901,-2.110167 -0.326366,-0.869349 -0.603491,-1.757692 -0.8168,-2.65558 -0.118473,-0.503026 0.01477,-0.818166 0.598862,-0.991456 0.742053,-0.220822 1.489621,-0.418253 2.251665,-0.57835 1.261638,-0.263302 2.533322,-0.432194 3.830413,-0.390556 0.366447,0.01404 0.732106,0.05146 1.093826,0.112563 1.049215,0.174132 1.939778,0.634772 2.667157,1.363019 1.242434,1.240817 1.736611,2.721358 1.430237,4.408967 -0.440308,2.411459 -2.687246,4.126765 -5.240559,4.107771 z"/>
 <path style="fill:#ff5e5e" d="m 31.671133,33.998602 c -0.326366,0.0094 -0.692813,-0.02901 -1.059162,-0.103114 -1.08388,-0.225968 -2.004479,-0.69531 -2.711965,-1.527419 -0.430263,-0.507424 -0.791983,-1.057328 -1.103773,-1.635678 -0.366546,-0.681463 -0.672821,-1.391464 -0.939901,-2.110167 -0.326366,-0.869349 -0.603491,-1.757692 -0.8168,-2.65558 -0.118473,-0.503026 0.01477,-0.818166 0.598862,-0.991456 0.742053,-0.220822 1.489621,-0.418253 2.251665,-0.57835 1.261638,-0.263302 2.533322,-0.432194 3.830413,-0.390556 0.366447,0.01404 0.732106,0.05146 1.093826,0.112563 1.049215,0.174132 1.939778,0.634772 2.667157,1.363019 1.242434,1.240817 1.736611,2.721358 1.430237,4.408967 -0.440308,2.411459 -2.687246,4.126765 -5.240559,4.107771 z"/>
 <path style="opacity:0.1;fill:#f4f4f7" d="m 16.279297,24.005859 c -0.366447,0.01404 -0.73203,0.05218 -1.09375,0.113282 -1.049215,0.174132 -1.94059,0.635034 -2.667969,1.363281 -1.132385,1.130911 -1.634729,2.462335 -1.484375,3.966797 0.114851,-1.099527 0.609859,-2.093419 1.484375,-2.966797 0.727379,-0.728247 1.618754,-1.189149 2.667969,-1.363281 0.36172,-0.0611 0.727303,-0.09924 1.09375,-0.113282 1.297091,-0.04164 2.56844,0.127323 3.830078,0.390625 0.762044,0.160097 1.5099,0.357303 2.251953,0.578125 0.254696,0.07556 0.410011,0.185035 0.509766,0.31836 0.02788,-0.109178 0.06384,-0.216694 0.08984,-0.326172 0.118473,-0.503026 -0.01552,-0.818898 -0.59961,-0.992188 -0.742053,-0.220822 -1.489909,-0.418028 -2.251953,-0.578125 -1.261638,-0.263302 -2.532987,-0.432263 -3.830078,-0.390625 z"/>
 <path style="opacity:0.1;fill:#f4f4f7" d="m 23.8125,10.005859 c -0.18446,0.009 -0.370758,0.02892 -0.560547,0.05859 -2.469472,0.386958 -4.259511,2.686211 -4.25,5.267578 -0.007,0.187054 0.0067,0.381834 0.03516,0.582031 0.17435,-2.405964 1.880761,-4.483866 4.214844,-4.849609 1.518312,-0.237423 2.867121,0.187448 4.025391,1.251953 0.975182,0.897685 1.520761,2.043201 1.6875,3.392578 0.03463,-0.322213 0.0439,-0.648004 0.0039,-0.982422 C 28.804721,13.3692 28.256945,12.218158 27.277344,11.316406 26.263858,10.384964 25.103723,9.9429392 23.8125,10.005859 Z"/>
 <path style="opacity:0.1;fill:#f4f4f7" d="m 31.720703,24.005859 c -1.297091,-0.04164 -2.56844,0.127323 -3.830078,0.390625 -0.762044,0.160097 -1.5099,0.357303 -2.251953,0.578125 -0.584092,0.17329 -0.718083,0.489162 -0.59961,0.992188 0.02601,0.109478 0.06196,0.216994 0.08984,0.326172 0.09975,-0.133325 0.25507,-0.242796 0.509766,-0.31836 0.742053,-0.220822 1.489909,-0.418028 2.251953,-0.578125 1.261638,-0.263302 2.532987,-0.432263 3.830078,-0.390625 0.366447,0.01404 0.73203,0.05218 1.09375,0.113282 1.049215,0.174132 1.94059,0.635034 2.667969,1.363281 0.874516,0.873378 1.369524,1.86727 1.484375,2.966797 0.150354,-1.504462 -0.35199,-2.835886 -1.484375,-3.966797 -0.727379,-0.728247 -1.618754,-1.189149 -2.667969,-1.363281 -0.36172,-0.0611 -0.727303,-0.09924 -1.09375,-0.113282 z"/>
</svg>
