<svg xmlns="http://www.w3.org/2000/svg" width="48" height="48" version="1">
 <path style="fill:#b2bfd9" d="M 4,15.9 4,40 c 0,1.108 0.892,2 2,2 l 36,0 c 1.108,0 2,-0.892 2,-2 l 0,-24.1 z"/>
 <path style="opacity:0.2" d="M 44,17 44,9 C 44,7.892 43.108,7 42,7 L 6,7 C 4.892,7 4,7.892 4,9 l 0,8 z"/>
 <path style="fill:#f54b3e" d="M 44,16 44,8 C 44,6.892 43.108,6 42,6 L 6,6 C 4.892,6 4,6.892 4,8 l 0,8 z"/>
 <path fill="#fff" style="opacity:0.2" d="m6 6c-1.108 0-2 0.892-2 2v1c0-1.108 0.892-2 2-2h36c1.108 0 2 0.892 2 2v-1c0-1.108-0.892-2-2-2h-36z"/>
 <path opacity=".2" d="m4 40v1c0 1.108 0.892 2 2 2h36c1.108 0 2-0.892 2-2v-1c0 1.108-0.892 2-2 2h-36c-1.108 0-2-0.892-2-2z"/>
 <rect style="opacity:0.2" width="6" height="6" x="33" y="26"/>
 <rect style="opacity:0.2" width="6" height="6" x="17" y="26"/>
 <rect style="opacity:0.2" width="6" height="6" x="9" y="26"/>
 <rect style="opacity:0.2" width="6" height="6" x="25" y="34"/>
 <rect style="opacity:0.2" width="6" height="6" x="33" y="34"/>
 <rect style="opacity:0.2" width="6" height="6" x="17" y="34"/>
 <rect style="opacity:0.2" width="6" height="6" x="9" y="34"/>
 <rect style="opacity:0.2" width="6" height="6" x="25" y="18"/>
 <rect style="opacity:0.2" width="6" height="6" x="33" y="18"/>
 <rect style="opacity:0.2" width="6" height="6" x="17" y="18"/>
 <rect style="opacity:0.2" width="6" height="6" x="9" y="18"/>
 <circle style="opacity:0.2" cx="28" cy="30" r="3"/>
 <circle style="fill:#f54b3e" cx="28" cy="29" r="3"/>
 <circle style="opacity:0.2" cx="12" cy="12" r="2"/>
 <circle style="fill:#f4f4f7" cx="12" cy="11" r="2"/>
 <circle style="opacity:0.2" cx="36" cy="12" r="2"/>
 <circle style="fill:#f4f4f7" cx="36" cy="11" r="2"/>
</svg>
