<svg xmlns="http://www.w3.org/2000/svg" width="48" height="48" version="1">
 <rect style="opacity:0.2" width="34.299" height="34.299" x="-17.86" y="17.5" rx="10.29" ry="10.29" transform="rotate(-45)"/>
 <rect style="fill:#4f4f4f" width="34.299" height="34.299" x="-17.15" y="16.79" rx="10.29" ry="10.29" transform="rotate(-45)"/>
 <path style="opacity:0.2;fill-rule:evenodd" d="M 18,13 V 25 L 24.75,20.5 31.5,25 18,34 v 3 L 36,25 27,19 Z"/>
 <path style="fill:#79ce24;fill-rule:evenodd" d="M 18,12 V 24 L 24.75,19.5 31.5,24 18,33 v 3 L 36,24 27,18 Z"/>
 <path style="fill:#f4f4f7;opacity:0.1" d="M 24 4 C 21.369793 4 18.74001 5.0080371 16.724609 7.0234375 L 7.0234375 16.724609 C 4.8800797 18.867967 3.8873561 21.705438 4.0234375 24.5 C 4.1432709 22.039106 5.1359945 19.612052 7.0234375 17.724609 L 16.724609 8.0234375 C 20.75541 3.9926366 27.24459 3.9926366 31.275391 8.0234375 L 40.976562 17.724609 C 42.864006 19.612052 43.856729 22.039106 43.976562 24.5 C 44.112644 21.705438 43.11992 18.867967 40.976562 16.724609 L 31.275391 7.0234375 C 29.25999 5.0080371 26.630207 4 24 4 z"/>
 <path style="fill:#f4f4f7;fill-rule:evenodd;opacity:0.2" d="M 18 12 L 18 13 L 27 19 L 35.25 24.5 L 36 24 L 27 18 L 18 12 z M 30.75 24.5 L 18 33 L 18 34 L 31.5 25 L 30.75 24.5 z"/>
</svg>
