<svg xmlns="http://www.w3.org/2000/svg" width="48" height="48" version="1">
 <path style="opacity:0.2" d="M 23.999645,44.9992 C 12.888842,44.9992 4,36.110378 4,24.9996 4,13.888822 12.888742,5 23.999645,5 c 1.777768,0 3.333241,1.5555689 3.333241,3.3332333 0,0.8888723 -0.222216,1.5555689 -0.888874,2.2221557 -0.443993,0.666987 -0.887985,1.333973 -0.887985,2.222955 0,1.777765 1.555573,3.333234 3.333241,3.333234 h 3.999929 C 39.111087,16.111578 44,21.00048 44,27.222356 44,37.00016 35.111158,45 24.000355,45 Z"/>
 <path style="fill:#b2bfd9" d="M 23.999645,43.9992 C 12.888842,43.9992 4,35.110378 4,23.9996 4,12.888822 12.888742,4 23.999645,4 c 1.777768,0 3.333241,1.5555689 3.333241,3.3332333 0,0.8888723 -0.222216,1.5555689 -0.888874,2.2221556 -0.443993,0.6669871 -0.887985,1.3339731 -0.887985,2.2229551 0,1.777765 1.555573,3.333234 3.333241,3.333234 h 3.999929 C 39.111087,15.111578 44,20.00048 44,26.222356 44,36.00016 35.111158,44 24.000355,44 Z"/>
 <path style="opacity:0.1;fill-rule:evenodd" d="m 21.021726,24.109808 c -1.829562,0.171173 -4.355028,1.901825 -5.296213,4.523002 -1.659999,4.623062 1.226083,10.625875 -4.025513,10.458833 0.336445,0.172032 0.673091,0.309521 1.010295,0.430669 0.01036,0.0065 0.02097,0.01305 0.03133,0.01949 0.06785,0.02408 0.135788,0.04026 0.203625,0.06236 0.101187,0.03296 0.202351,0.06492 0.303479,0.09354 0.134697,0.03813 0.268834,0.07267 0.403335,0.103283 0.09669,0.022 0.19323,0.04415 0.289774,0.06236 0.13617,0.02569 0.271466,0.04599 0.40725,0.0643 0.09274,0.01251 0.185515,0.02398 0.278027,0.03313 0.1341,0.01327 0.26783,0.02089 0.401377,0.02728 0.09941,0.0048 0.198553,0.01066 0.297606,0.01169 0.127122,0.0014 0.253386,-0.0032 0.379839,-0.0078 0.0026,-9.6e-5 0.0052,9.8e-5 0.0078,0 0.0045,0.0019 0.0091,0.004 0.0137,0.0059 0.02566,-9.98e-4 0.05073,-0.0066 0.07636,-0.0078 0.06264,-0.003 0.125503,-0.0053 0.187962,-0.0098 0.144208,-0.01031 0.28763,-0.02711 0.430746,-0.04482 0.07828,-0.0097 0.157023,-0.01739 0.234952,-0.02923 0.04651,-0.0071 0.09265,-0.01556 0.139013,-0.02339 0.06376,-0.01075 0.126428,-0.02487 0.18992,-0.03703 0.318652,-0.06098 0.634611,-0.133438 0.945682,-0.228001 0.01382,-0.0042 0.02732,-0.0094 0.04112,-0.01364 0.0073,-0.0023 0.01428,-0.0055 0.02153,-0.0078 0.002,-6.11e-4 0.0039,-0.0013 0.0059,-0.002 0.02563,-0.008 0.05079,-0.01712 0.07636,-0.02533 0.237175,-0.07622 0.469161,-0.169013 0.700941,-0.263079 0.122549,-0.04974 0.245243,-0.09756 0.366133,-0.152001 0.138262,-0.06225 0.271303,-0.134552 0.407251,-0.202668 0.01618,-0.0081 0.0328,-0.0152 0.04895,-0.02339 0.116329,-0.05897 0.234002,-0.112338 0.348512,-0.175386 0.107972,-0.05946 0.212874,-0.124157 0.319144,-0.187079 0.131915,-0.0781 0.260475,-0.160428 0.389628,-0.24359 0.128217,-0.08254 0.260373,-0.158303 0.385714,-0.24554 0.03867,-0.02692 0.07516,-0.05645 0.11356,-0.08379 0.05414,-0.03856 0.105021,-0.08143 0.158592,-0.120822 0.131757,-0.09689 0.261479,-0.194552 0.389629,-0.296207 0.128736,-0.10211 0.25689,-0.203295 0.381797,-0.309848 0.08526,-0.07272 0.165256,-0.149457 0.248658,-0.224104 0.0027,-0.0025 0.0051,-0.0054 0.0078,-0.0078 0.105046,-0.09416 0.211284,-0.185565 0.313269,-0.282566 0.02869,-0.02729 0.05967,-0.0524 0.0881,-0.0799 -2.86e-4,0.0012 2.88e-4,0.0027 0,0.0039 0.007,-0.0068 0.01259,-0.01466 0.01958,-0.02143 0.09071,-0.08802 0.17426,-0.180805 0.262362,-0.270874 0.09682,-0.09897 0.192288,-0.196932 0.285859,-0.298155 0.07611,-0.08233 0.155195,-0.161857 0.229078,-0.245541 0.01892,-0.02142 0.03801,-0.0428 0.05678,-0.0643 0.08298,-0.09511 0.156875,-0.193722 0.23691,-0.29036 0.02959,-0.03573 0.05893,-0.07126 0.0881,-0.10718 0.07767,-0.09562 0.156336,-0.18959 0.231035,-0.286464 0.05106,-0.06621 0.106997,-0.13009 0.156635,-0.196821 0.0219,-0.02944 0.03907,-0.06011 0.06069,-0.08964 0.074,-0.101098 0.138851,-0.203876 0.2095,-0.305951 0.04351,-0.06286 0.08702,-0.125852 0.129224,-0.189026 0.05779,-0.08651 0.122868,-0.170227 0.178171,-0.257232 0.02803,-0.04408 0.0529,-0.08833 0.08028,-0.132514 0.02951,-0.04763 0.05936,-0.09452 0.0881,-0.142258 0.06167,-0.102419 0.114217,-0.205131 0.172298,-0.307899 0.08569,-0.151603 0.174941,-0.302172 0.252573,-0.454054 0.01896,-0.03707 0.0344,-0.07401 0.05286,-0.111077 0.0022,-0.0044 0.0037,-0.0093 0.0059,-0.01364 0.02819,-0.05678 0.05913,-0.112799 0.08615,-0.169539 0.03978,-0.08351 0.07047,-0.16609 0.107686,-0.249438 0.07172,-0.160663 0.141721,-0.319849 0.203625,-0.479387 0.02628,-0.06771 0.05385,-0.13525 0.07832,-0.202667 0.01486,-0.04094 0.03085,-0.08196 0.04503,-0.122771 0.02156,-0.06202 0.0368,-0.121482 0.05678,-0.18318 0.04711,-0.145492 0.08716,-0.289274 0.125307,-0.432619 0.0016,0.0047 0.0062,0.0089 0.0078,0.01364 0.01941,-0.07233 0.03188,-0.142673 0.04895,-0.214361 0.01008,-0.04228 0.02207,-0.08463 0.03133,-0.126667 0.0058,-0.02656 0.01211,-0.05343 0.01762,-0.0799 0.0045,-0.02173 0.0074,-0.04265 0.01174,-0.06431 0.01164,-0.05853 0.02525,-0.117406 0.03525,-0.175385 0.0029,-0.01712 0.0031,-0.03359 0.0059,-0.05067 0.03214,-0.19551 0.05385,-0.386697 0.06657,-0.574876 0.0018,-0.02648 0.0064,-0.05358 0.0078,-0.0799 3.43e-4,-0.0065 0.0016,-0.013 0.002,-0.01949 0.0011,-0.0226 -8.31e-4,-0.04378 0,-0.06626 0.0018,-0.04874 0.0015,-0.09607 0.002,-0.144206 5.35e-4,-0.06352 0.0039,-0.12856 0.002,-0.190976 -0.0053,-0.172886 -0.01859,-0.343149 -0.04307,-0.506669 -0.155207,-1.036449 -0.515495,-1.860423 -0.992672,-2.511913 l -3.97265,-1.929243 -0.276069,-0.134462 -0.02545,-0.01169 -0.0078,-0.0039 -0.002,-0.002 z"/>
 <path style="opacity:0.1" d="m 32.947266,4.9762293 a 2.0002,2.0002 0 0 0 -1.71875,1.0957031 L 18.464844,30.458651 a 2.0002,2.0002 0 1 0 3.544922,1.853516 L 34.771484,7.9274012 A 2.0002,2.0002 0 0 0 32.947266,4.9762293 Z"/>
 <path style="fill:#ff9008" d="m 11,23.9992 c -1.6,0 -3,1.4 -3,3 0,1.6 1.4,3 3,3 1.6,0 3,-1.4 3,-3 0,-1.6 -1.4,-3 -3,-3 z"/>
 <path style="fill:#3d81db" d="m 29,32.9992 c -1.6,0 -3,1.4 -3,3 0,1.6 1.4,3 3,3 1.6,0 3,-1.4 3,-3 0,-1.6 -1.4,-3 -3,-3 z"/>
 <path style="fill:#ef5454" d="m 36,23.9992 c -1.6,0 -3,1.4 -3,3 0,1.6 1.4,3 3,3 1.6,0 3,-1.4 3,-3 0,-1.6 -1.4,-3 -3,-3 z"/>
 <path style="fill:#f4f4f7;opacity:0.2" d="M 24 4 C 12.889097 4 4 12.889222 4 24 C 4 24.167705 4.0076914 24.33333 4.0117188 24.5 C 4.2745049 13.624487 13.056804 5 24 5 C 25.641784 5 27.076508 6.3304884 27.289062 7.9335938 C 27.317507 7.7434343 27.332031 7.5465108 27.332031 7.3339844 C 27.332031 5.55632 25.777768 4 24 4 z M 25.613281 12.308594 C 25.585106 12.460829 25.556641 12.612973 25.556641 12.779297 C 25.556641 14.557062 27.111004 16.111328 28.888672 16.111328 L 32.888672 16.111328 C 38.988425 16.111328 43.795593 20.814238 43.982422 26.861328 C 43.9909 26.648692 44 26.437068 44 26.222656 C 44 20.00078 39.110562 15.111328 32.888672 15.111328 L 28.888672 15.111328 C 27.291284 15.111328 25.884473 13.853233 25.613281 12.308594 z"/>
 <path style="fill:none;stroke:#806121;stroke-width:4;stroke-linecap:round" d="M 20.237352,30.386009 33,6"/>
 <path style="fill:#4f4f4f;fill-rule:evenodd" d="m 21.021726,23.109812 c -1.829562,0.171173 -4.355028,1.901825 -5.296213,4.523002 -1.659999,4.623062 1.226083,10.625875 -4.025513,10.458833 0.336445,0.172032 0.673091,0.309521 1.010295,0.430669 0.01036,0.0065 0.02097,0.01305 0.03133,0.01949 0.06785,0.02408 0.135788,0.04026 0.203625,0.06236 0.101187,0.03296 0.202351,0.06492 0.303479,0.09354 0.134697,0.03813 0.268834,0.07267 0.403335,0.103283 0.09669,0.022 0.19323,0.04415 0.289774,0.06236 0.13617,0.02569 0.271466,0.04599 0.40725,0.0643 0.09274,0.01251 0.185515,0.02398 0.278027,0.03313 0.1341,0.01327 0.26783,0.02089 0.401377,0.02728 0.09941,0.0048 0.198553,0.01066 0.297606,0.01169 0.127122,0.0014 0.253386,-0.0032 0.379839,-0.0078 0.0026,-9.6e-5 0.0052,9.8e-5 0.0078,0 0.0045,0.0019 0.0091,0.004 0.0137,0.0059 0.02566,-9.98e-4 0.05073,-0.0066 0.07636,-0.0078 0.06264,-0.003 0.125503,-0.0053 0.187962,-0.0098 0.144208,-0.01031 0.28763,-0.02711 0.430746,-0.04482 0.07828,-0.0097 0.157023,-0.01739 0.234952,-0.02923 0.04651,-0.0071 0.09265,-0.01556 0.139013,-0.02339 0.06376,-0.01075 0.126428,-0.02487 0.18992,-0.03703 0.318652,-0.06098 0.634611,-0.133438 0.945682,-0.228001 0.01382,-0.0042 0.02732,-0.0094 0.04112,-0.01364 0.0073,-0.0023 0.01428,-0.0055 0.02153,-0.0078 0.002,-6.11e-4 0.0039,-0.0013 0.0059,-0.002 0.02563,-0.008 0.05079,-0.01712 0.07636,-0.02533 0.237175,-0.07622 0.469161,-0.169013 0.700941,-0.263079 0.122549,-0.04974 0.245243,-0.09756 0.366133,-0.152001 0.138262,-0.06225 0.271303,-0.134552 0.407251,-0.202668 0.01618,-0.0081 0.0328,-0.0152 0.04895,-0.02339 0.116329,-0.05897 0.234002,-0.112338 0.348512,-0.175386 0.107972,-0.05946 0.212874,-0.124157 0.319144,-0.187079 0.131915,-0.0781 0.260475,-0.160428 0.389628,-0.24359 0.128217,-0.08254 0.260373,-0.158303 0.385714,-0.24554 0.03867,-0.02692 0.07516,-0.05645 0.11356,-0.08379 0.05414,-0.03856 0.105021,-0.08143 0.158592,-0.120822 0.131757,-0.09689 0.261479,-0.194552 0.389629,-0.296207 0.128736,-0.10211 0.25689,-0.203295 0.381797,-0.309848 0.08526,-0.07272 0.165256,-0.149457 0.248658,-0.224104 0.0027,-0.0025 0.0051,-0.0054 0.0078,-0.0078 0.105046,-0.09416 0.211284,-0.185565 0.313269,-0.282566 0.02869,-0.02729 0.05967,-0.0524 0.0881,-0.0799 -2.86e-4,0.0012 2.88e-4,0.0027 0,0.0039 0.007,-0.0068 0.01259,-0.01466 0.01958,-0.02143 0.09071,-0.08802 0.17426,-0.180805 0.262362,-0.270874 0.09682,-0.09897 0.192288,-0.196932 0.285859,-0.298155 0.07611,-0.08233 0.155195,-0.161857 0.229078,-0.245541 0.01892,-0.02142 0.03801,-0.0428 0.05678,-0.0643 0.08298,-0.09511 0.156875,-0.193722 0.23691,-0.29036 0.02959,-0.03573 0.05893,-0.07126 0.0881,-0.10718 0.07767,-0.09562 0.156336,-0.18959 0.231035,-0.286464 0.05106,-0.06621 0.106997,-0.13009 0.156635,-0.196821 0.0219,-0.02944 0.03907,-0.06011 0.06069,-0.08964 0.074,-0.101098 0.138851,-0.203876 0.2095,-0.305951 0.04351,-0.06286 0.08702,-0.125852 0.129224,-0.189026 0.05779,-0.08651 0.122868,-0.170227 0.178171,-0.257232 0.02803,-0.04408 0.0529,-0.08833 0.08028,-0.132514 0.02951,-0.04763 0.05936,-0.09452 0.0881,-0.142258 0.06167,-0.102419 0.114217,-0.205131 0.172298,-0.307899 0.08569,-0.151603 0.174941,-0.302172 0.252573,-0.454054 0.01896,-0.03707 0.0344,-0.07401 0.05286,-0.111077 0.0022,-0.0044 0.0037,-0.0093 0.0059,-0.01364 0.02819,-0.05678 0.05913,-0.112799 0.08615,-0.169539 0.03978,-0.08351 0.07047,-0.16609 0.107686,-0.249438 0.07172,-0.160663 0.141721,-0.319849 0.203625,-0.479387 0.02628,-0.06771 0.05385,-0.13525 0.07832,-0.202667 0.01486,-0.04094 0.03085,-0.08196 0.04503,-0.122771 0.02156,-0.06202 0.0368,-0.121482 0.05678,-0.18318 0.04711,-0.145492 0.08716,-0.289274 0.125307,-0.432619 0.0016,0.0047 0.0062,0.0089 0.0078,0.01364 0.01941,-0.07233 0.03188,-0.142673 0.04895,-0.214361 0.01008,-0.04228 0.02207,-0.08463 0.03133,-0.126667 0.0058,-0.02656 0.01211,-0.05343 0.01762,-0.0799 0.0045,-0.02173 0.0074,-0.04265 0.01174,-0.06431 0.01164,-0.05853 0.02525,-0.117406 0.03525,-0.175385 0.0029,-0.01712 0.0031,-0.03359 0.0059,-0.05067 0.03214,-0.19551 0.05385,-0.386697 0.06657,-0.574876 0.0018,-0.02648 0.0064,-0.05358 0.0078,-0.0799 3.43e-4,-0.0065 0.0016,-0.013 0.002,-0.01949 0.0011,-0.0226 -8.31e-4,-0.04378 0,-0.06626 0.0018,-0.04874 0.0015,-0.09607 0.002,-0.144206 5.35e-4,-0.06352 0.0039,-0.12856 0.002,-0.190976 -0.0053,-0.172886 -0.01859,-0.343149 -0.04307,-0.506669 -0.155207,-1.036449 -0.515495,-1.860423 -0.992672,-2.511913 l -3.97265,-1.929243 -0.276069,-0.134462 -0.02545,-0.01169 -0.0078,-0.0039 -0.002,-0.002 z"/>
 <path style="opacity:0.1;fill-rule:evenodd" d="m 23.247677,20.51785 c -0.325618,-0.04379 -0.660639,0.07506 -0.886944,0.331284 l -1.67795,1.898063 c -0.05521,0.0625 -0.103008,0.132413 -0.140971,0.206565 -0.25135,0.490983 -0.05473,1.092507 0.438577,1.342675 l 4.513039,2.287809 c 0.08082,0.04099 0.165643,0.07168 0.254532,0.08964 0.542584,0.109594 1.072482,-0.239458 1.182592,-0.779492 l 0.511021,-2.506066 c 0.08978,-0.440327 -0.127741,-0.884657 -0.530601,-1.087391 L 23.56682,20.617234 c -0.10196,-0.05131 -0.210604,-0.08479 -0.319143,-0.09939 z"/>
 <path style="fill:#808080;fill-rule:evenodd" d="m 23.247677,19.518183 c -0.325618,-0.04379 -0.660639,0.07506 -0.886944,0.331284 l -1.67795,1.898063 c -0.05521,0.0625 -0.103008,0.132413 -0.140971,0.206565 -0.25135,0.490983 -0.05473,1.092507 0.438577,1.342675 l 4.513039,2.287809 c 0.08082,0.04099 0.165643,0.07168 0.254532,0.08964 0.542584,0.109594 1.072482,-0.239458 1.182592,-0.779492 l 0.511021,-2.506066 c 0.08978,-0.440327 -0.127741,-0.884657 -0.530601,-1.087391 L 23.56682,19.617567 c -0.10196,-0.05131 -0.210604,-0.08479 -0.319143,-0.09939 z"/>
</svg>
