<svg xmlns="http://www.w3.org/2000/svg" width="48" height="48" version="1.1">
 <rect style="opacity:0.2" width="40" height="40" x="4" y="5" rx="3" ry="3"/>
 <rect style="fill:#047dff" width="40" height="40" x="4" y="4" rx="3" ry="3"/>
 <path style="fill-rule:evenodd;opacity:0.3" d="M 8 8 L 8 12 L 12 12 L 12 8 L 8 8 z M 15 8 L 15 12 L 19 12 L 19 8 L 15 8 z M 22 8 L 22 12 L 26 12 L 26 8 L 22 8 z M 29 8 L 29 12 L 33 12 L 33 8 L 29 8 z M 36 8 L 36 12 L 40 12 L 40 8 L 36 8 z M 8 36 L 8 40 L 12 40 L 12 36 L 8 36 z M 15 36 L 15 40 L 19 40 L 19 36 L 15 36 z M 22 36 L 22 40 L 26 40 L 26 36 L 22 36 z M 29 36 L 29 40 L 33 40 L 33 36 L 29 36 z M 36 36 L 36 40 L 40 40 L 40 36 L 36 36 z"/>
 <path style="opacity:0.2;fill-rule:evenodd" d="m 20,30.491807 v -10.983684 0 c 0,-0.280626 0.225552,-0.508119 0.503785,-0.508119 0.092,0 0.182242,0.02541 0.260938,0.07347 l 8.992357,5.491841 v 0 c 0.238002,0.145353 0.314114,0.457784 0.170002,0.697833 -0.04212,0.07015 -0.100445,0.128984 -0.170002,0.171463 l -8.992357,5.491843 v 0 c -0.238001,0.145352 -0.547765,0.06859 -0.691879,-0.171464 -0.04765,-0.07938 -0.07284,-0.170395 -0.07284,-0.263187 z"/>
 <path style="fill:#f4f4f7;fill-rule:evenodd" d="m 20,29.491805 v -10.983684 0 c 0,-0.280626 0.225552,-0.508119 0.503785,-0.508119 0.092,0 0.182242,0.02541 0.260938,0.07347 l 8.992357,5.491841 v 0 c 0.238002,0.145353 0.314114,0.457784 0.170002,0.697833 -0.04212,0.07015 -0.100445,0.128984 -0.170002,0.171463 l -8.992357,5.491843 v 0 c -0.238001,0.145352 -0.547765,0.06859 -0.691879,-0.171464 -0.04765,-0.07938 -0.07284,-0.170395 -0.07284,-0.263187 z"/>
 <path style="fill:#f4f4f7;opacity:0.1" d="M 7 4 C 5.338 4 4 5.338 4 7 L 4 8 C 4 6.338 5.338 5 7 5 L 41 5 C 42.662 5 44 6.338 44 8 L 44 7 C 44 5.338 42.662 4 41 4 L 7 4 z"/>
</svg>
