<svg xmlns="http://www.w3.org/2000/svg" width="48" height="48" version="1">
 <circle style="opacity:0.2" cx="24" cy="25" r="20"/>
 <circle style="fill:#b2bfd9" cx="24" cy="24" r="20"/>
 <path opacity=".1" d="m26.047 9.9844c0.957 1.8374 1.7322 3.5693 2.3438 5.2031-1.7699-0.14388-3.4234-0.21901-4.9062-0.19336-12.729 0.21911-14.862 6.6836-6.4277 19.379 0.675-0.10105 1.3245-0.21654 1.9395-0.34961-2.909-9.368 0.436-15.05 10.008-17.064 3.533 11.377-2.134 17.334-17.004 17.865 2.1189 0.35977 4.0817 0.6279 5.9199 0.82226 1.1734 1.6833 2.5118 3.4643 4.0332 5.3535-0.955-1.8329-1.7288-3.5586-2.3398-5.1895-0.05826-0.0047-0.12418-0.01413-0.18359-0.01953 17.131 1.442 20.967-4.954 11.509-19.186 1.55-0.229 3.234-0.378 5.061-0.443-2.121-0.36-4.074-0.62-5.914-0.814-1.174-1.686-2.515-3.472-4.039-5.3636z"/>
 <path fill="#f37421" d="m26.046 8.9847c16.94 21.026 12.258 29.305-14.046 24.839 17.66-0.631 22.342-8.911 14.046-24.839"/>
 <path fill="#2183f3" d="m23.484 13.993c-12.729 0.21911-14.861 6.6853-6.427 19.381 0.675-0.10105 1.324-0.21711 1.939-0.35018-3.532-11.376 2.134-17.331 17.004-17.862-4.932-0.838-9.104-1.228-12.516-1.169zm-5.576 20.638c1.176 1.6878 2.519 3.4747 4.045 5.3697-0.955-1.8329-1.729-3.5598-2.34-5.1906-0.541-0.04402-1.136-0.11906-1.705-0.17909z"/>
 <path style="opacity:0.2;fill:#f4f4f7" d="M 24 4 A 20 20 0 0 0 4 24 A 20 20 0 0 0 4.0215 24.582 A 20 20 0 0 1 24 5 A 20 20 0 0 1 43.979 24.418 A 20 20 0 0 0 44 24 A 20 20 0 0 0 24 4 z"/>
</svg>
