<svg xmlns="http://www.w3.org/2000/svg" width="48" height="48" version="1.1">
 <rect style="opacity:0.2" width="40" height="40" x="4" y="5" rx="2" ry="2"/>
 <rect style="fill:#9293ff" width="40" height="40" x="4" y="4" rx="2" ry="2"/>
 <path style="fill:#6469bb" transform="matrix(0,-1,-1,0,0,0)" d="M -41.999996,-44 H -23 v 40 h -18.999996 c -1.108,0 -2,-0.892 -2,-2 v -36 c 0,-1.108 0.892,-2 2,-2 z"/>
 <path style="fill:#3e3e3e" d="M 12,7 H 36 V 20 H 12 M 12,7"/>
 <path style="fill:#3e3e3e" d="M 16,28 H 32 V 41 H 16 m 0,-13"/>
 <g style="opacity:0.2" transform="translate(-4.0200005,18.07)">
  <rect width="3" height="9" x="13.02" y="12.93" ry="0"/>
  <rect width="3" height="9" x="15.93" y="-19.02" ry="0" transform="rotate(90)"/>
 </g>
 <g style="fill:#b2bfd9" transform="translate(-4.0200005,17.07)">
  <rect width="3" height="9" x="13.02" y="12.93" ry="0"/>
  <rect width="3" height="9" x="15.93" y="-19.02" ry="0" transform="rotate(90)"/>
 </g>
 <g style="opacity:0.2" transform="translate(8.5359798,1.7821423)">
  <circle cx="31.964" cy="33.718" r="1.5"/>
  <g transform="translate(-4.5559803,16.287855)">
   <circle cx="30.52" cy="17.43" r="1.5"/>
   <circle cx="14.43" cy="-33.52" r="1.5" transform="rotate(90)"/>
  </g>
  <circle cx="36.718" cy="-28.964" r="1.5" transform="rotate(90)"/>
 </g>
 <g style="fill:#b2bfd9" transform="translate(8.5359798,0.78214264)">
  <circle style="fill:#b2bfd9" cx="31.964" cy="33.718" r="1.5"/>
  <g style="fill:#b2bfd9" transform="translate(-4.5559803,16.287855)">
   <circle style="fill:#b2bfd9" cx="30.52" cy="17.43" r="1.5"/>
   <circle style="fill:#b2bfd9" cx="14.43" cy="-33.52" r="1.5" transform="rotate(90)"/>
  </g>
  <circle style="fill:#b2bfd9" cx="36.718" cy="-28.964" r="1.5" transform="rotate(90)"/>
 </g>
 <g style="opacity:0.2">
  <rect width="4" height="1" x="6" y="15"/>
  <rect width="4" height="1" x="6" y="17"/>
  <rect width="4" height="1" x="6" y="19"/>
 </g>
 <g style="opacity:0.2" transform="translate(32)">
  <rect width="4" height="1" x="6" y="15"/>
  <rect width="4" height="1" x="6" y="17"/>
  <rect width="4" height="1" x="6" y="19"/>
 </g>
 <rect style="opacity:0.2" width="40" height="2" x="4" y="23"/>
 <path style="fill:#f4f4f7;opacity:0.2" d="M 6 4 C 4.892 4 4 4.892 4 6 L 4 7 C 4 5.892 4.892 5 6 5 L 42 5 C 43.108 5 44 5.892 44 7 L 44 6 C 44 4.892 43.108 4 42 4 L 6 4 z"/>
</svg>
