<svg xmlns="http://www.w3.org/2000/svg" width="48" height="48" version="1">
 <path fill="#b2bfd9" d="m40 41v-36c0-1.108-0.892-2-2-2h-28c-1.108 0-2 0.892-2 2v36c0 1.108 0.892 2 2 2h28c1.108 0 2-0.892 2-2z"/>
 <path fill="none" stroke="#4f4f4f" stroke-width="3" d="m11 11.5h14s9.5021 0.57112 9.5 11.5c-0.002 10.929-9.5 11.5-9.5 11.5h-14"/>
 <path fill="#fff" opacity=".2" d="m10 3c-1.108 0-2 0.892-2 2v1c0-1.108 0.892-2 2-2h28c1.108 0 2 0.892 2 2v-1c0-1.108-0.892-2-2-2z"/>
 <path fill="#4f4f4f" fill-rule="evenodd" d="m14 11v27h-3l4.5 4 4.5-4h-3v-27z"/>
 <path opacity=".2" d="m8 41v1c0 1.108 0.892 2 2 2h28c1.108 0 2-0.892 2-2v-1c0 1.108-0.892 2-2 2h-28c-1.108 0-2-0.892-2-2z"/>
</svg>
