<svg xmlns="http://www.w3.org/2000/svg" width="48" height="48" version="1">
 <path style="opacity:0.2" d="m 7,10 c -1.662,0 -3,1.338 -3,3 v 27 c 0,1.662 1.338,3 3,3 h 14 c 1.662,0 3,-1.338 3,-3 0,1.662 1.338,3 3,3 h 14 c 1.662,0 3,-1.338 3,-3 V 13 c 0,-1.662 -1.338,-3 -3,-3 H 27 c -1.662,0 -3,1.338 -3,3 0,-1.662 -1.338,-3 -3,-3 z"/>
 <rect style="fill:#ff881b" width="20" height="33" x="4" y="9" rx="3" ry="3"/>
 <rect style="fill:#ff881b" width="20" height="33" x="24" y="9" rx="3" ry="3"/>
 <path style="opacity:0.2" d="M 9,7 C 7.892,7 7,7.892 7,9 v 29 c 0,1.108 0.892,2 2,2 h 13 c 1.108,0 2,-0.892 2,-2 0,1.108 0.892,2 2,2 h 13 c 1.108,0 2,-0.892 2,-2 V 9 C 41,7.892 40.108,7 39,7 H 26 C 24.892,7 24,7.892 24,9 24,7.892 23.108,7 22,7 Z"/>
 <rect style="fill:#b2bfd9" width="17" height="33" x="7" y="6" rx="2" ry="2"/>
 <rect style="fill:#cccccc" width="17" height="33" x="24" y="6" rx="2" ry="2"/>
 <path style="fill:#3f3f3f" d="m 13.20202,28 v -0.877629 q 0,-1.235182 0.229798,-2.112811 0.262627,-0.910134 0.853536,-1.722753 0.623737,-0.81262 1.674242,-1.690249 1.280303,-1.072658 1.969697,-1.787763 0.722222,-0.715105 1.017677,-1.397705 0.295454,-0.682601 0.295454,-1.657745 0,-1.560229 -1.017677,-2.405353 -1.017676,-0.845125 -2.954545,-0.845125 -1.608586,0 -2.85606,0.422563 -1.247475,0.390057 -2.396465,0.942638 L 9.0000004,12.592733 Q 10.313132,11.910133 11.888889,11.455066 13.497475,11 15.467172,11 18.585859,11 20.292929,12.527724 22,14.055449 22,16.688336 q 0,1.462715 -0.492424,2.502868 -0.459596,1.007648 -1.34596,1.885278 -0.853535,0.845124 -2.035353,1.820268 -1.083334,0.910133 -1.674243,1.592733 -0.558081,0.682601 -0.75505,1.365201 Q 15.5,26.50478 15.5,27.447419 V 28 Z"/>
 <path style="fill:#3f3f3f" d="M 12,31.985185 Q 12,30.888889 12.552846,30.444444 13.138211,30 14.01626,30 14.829268,30 15.414633,30.444444 16,30.888889 16,31.985185 16,33.051852 15.414633,33.525926 14.829268,34 14.01626,34 13.138211,34 12.552846,33.525926 12,33.051852 12,31.985185 Z"/>
 <rect style="fill:#3f3f3f" width="13" height="2" x="26" y="15"/>
 <rect style="fill:#3f3f3f" width="11" height="2" x="28" y="21"/>
 <rect style="fill:#3f3f3f" width="6" height="2" x="26" y="27"/>
 <rect style="fill:#3f3f3f" width="5" height="2" x="34" y="27"/>
 <path style="opacity:0.1" d="m 36,33 c -1.108,0 -2,0.892 -2,2 v 5 l 7,-7 z"/>
 <path style="fill:#b2bfd9" d="m 36,32 c -1.108,0 -2,0.892 -2,2 v 5 l 7,-7 z"/>
 <path style="opacity:0.2;fill:#f4f4f7" d="M 9 6 C 7.892 6 7 6.892 7 8 L 7 9 C 7 7.892 7.892 7 9 7 L 22 7 C 23.108 7 24 7.892 24 9 C 24 7.892 24.892 7 26 7 L 39 7 C 40.108 7 41 7.892 41 9 L 41 8 C 41 6.892 40.108 6 39 6 L 26 6 C 24.892 6 24 6.892 24 8 C 24 6.892 23.108 6 22 6 L 9 6 z"/>
</svg>
