<svg xmlns="http://www.w3.org/2000/svg" height="48" width="48" version="1.1">
 <path style="opacity:.2;fill-rule:evenodd" d="m24 5c-1.780588 4.3649454-2.853058 7.218378-4.835465 11.453125 1.215428 1.288284 2.705449 2.789996 5.128404 4.484375-2.604874-1.071787-4.38254-2.149039-5.710379-3.265625-2.537066 5.293535-6.510252 12.836307-14.576701 27.328125 6.188121-3.572002 9.595698-5.797516 14.014256-6.703124a7.9992188 8 0 0 1 -2.019334 -5.296876 7.9992188 8 0 0 1 7.999219 -8 7.9992188 8 0 0 1 7.999219 8 7.9992188 8 0 0 1 -2.027146 5.304688c4.422162 0.91582 7.878834 3.144676 14.02988 6.695312-1.233232-2.270072-2.335278-4.316648-3.386388-6.265624-1.655774-1.283184-3.382803-2.953744-6.905575-4.76172 2.421353 0.629092 4.15593 1.352774 5.507274 2.164062-10.687122-19.89575-11.551878-22.536825-15.217264-31.136718z"/>
 <path style="fill-rule:evenodd;fill:#af0500" d="m24.003906 4c-1.780589 4.3649454-2.853058 7.218378-4.835466 11.453125 1.215429 1.288284 2.70545 2.789996 5.128405 4.484375-2.604875-1.071787-4.382541-2.149039-5.710379-3.265625-2.537066 5.293534-6.510253 12.836307-14.576702 27.328125 6.188121-3.572002 9.595699-5.797516 14.014257-6.703124a7.9992188 8 0 0 1 -2.019334 -5.296876 7.9992188 8 0 0 1 7.999219 -8 7.9992188 8 0 0 1 7.999218 8 7.9992188 8 0 0 1 -2.027146 5.304688c4.422163 0.91582 7.878835 3.144676 14.02988 6.695312-1.233231-2.270072-2.335278-4.316648-3.386387-6.265624-1.655774-1.283184-3.382804-2.953744-6.905576-4.76172 2.421354 0.629092 4.15593 1.352774 5.507274 2.164062-10.687122-19.89575-11.551877-22.536825-15.217263-31.136718z"/>
 <path style="opacity:.2" d="m24.003906 29-1.999805 4h-3.99961l2.667709 2.667968-2.667709 5.332032 5.999415-2 5.999414 2-2.667708-5.332032 2.667708-2.667968h-3.99961z"/>
 <path style="opacity:.2" d="m24.003906 24.999282a7.9992188 8 0 0 0 -7.999219 8 7.9992188 8 0 0 0 1.870911 5.136718c0.366426-0.11758 0.732935-0.229536 1.097549-0.33203a5.9994141 7 0 0 1 -0.968656 -3.804688 5.9994141 7 0 0 1 5.999415 -7 5.9994141 7 0 0 1 5.999414 7 5.9994141 7 0 0 1 -0.968656 3.804688c0.363425 0.10216 0.728413 0.214878 1.093643 0.33203a7.9992188 8 0 0 0 1.874817 -5.136718 7.9992188 8 0 0 0 -7.999218 -8z"/>
 <path style="fill:#c2c2c2" d="m24.003906 24a7.9992188 8 0 0 0 -7.999219 8 7.9992188 8 0 0 0 1.870911 5.136718c0.366426-0.11758 0.732935-0.229536 1.097549-0.33203a5.9994141 7 0 0 1 -0.968656 -3.804688 5.9994141 7 0 0 1 5.999415 -7 5.9994141 7 0 0 1 5.999414 7 5.9994141 7 0 0 1 -0.968656 3.804688c0.363425 0.10216 0.728413 0.214878 1.093643 0.33203a7.9992188 8 0 0 0 1.874817 -5.136718 7.9992188 8 0 0 0 -7.999218 -8z"/>
 <path style="fill:#e6e6e6" d="m24.003906 28-1.999805 4h-3.99961l2.667709 2.667968-2.667709 5.332032 5.999415-2 5.999414 2-2.667708-5.332032 2.667708-2.667968h-3.99961z"/>
 <path d="m24.003906 28v6l5.999414-2h-3.99961z" style="fill:#f4f4f4"/>
 <path d="m24.003906 34v4l-5.999415 2z" style="fill:#9f9f9f"/>
 <path style="opacity:.2;fill:#f4f4f7" d="m24.003906 28-1.999805 4h-3.99961l0.999903 1h2.999707l1.999805-4 1.999804 4h2.999707l0.999903-1h-3.99961zm-3.663705 7.335938-2.33571 4.664062 0.601504-0.199218 2.066205-4.132814zm7.327409 0-0.331998 0.33203 2.066204 4.132814l0.601504 0.199218z"/>
 <path style="opacity:.1;fill-rule:evenodd;fill:#f4f4f7" d="m24.003906 4c-1.780589 4.3649454-2.853057 7.218378-4.835466 11.453125 0.08754 0.09279 0.21402 0.205784 0.304658 0.300781 1.760814-3.824415 2.856019-6.6578942 4.526902-10.753906 3.55837 8.348811 4.642497 11.374501 14.471243 29.730468 0.256349 0.13418 0.517743 0.266858 0.749926 0.40625-10.687122-19.895749-11.551877-22.536825-15.217263-31.136718zm-5.41744 12.671875c-2.537066 5.293534-6.510253 12.836307-14.576702 27.328125 0.2946996-0.17011 0.5143014-0.296932 0.7967976-0.460938 7.3919774-13.313054 11.34727-20.799698 13.775998-25.867187 1.327838 1.116586 3.105504 2.193838 5.710379 3.265625-1.280161-0.895221-2.280011-1.727126-3.136412-2.511719-1.017886-0.576871-1.863636-1.159869-2.570061-1.753906zm13.393223 15.761719a7.9992188 8 0 0 1 -2.003711 4.871094c0.221235 0.04582 0.431516 0.11168 0.648375 0.16406a7.9992188 8 0 0 0 1.374866 -4.46875 7.9992188 8 0 0 0 -0.0196 -0.566406zm-15.951567 0.0196a7.9992188 8 0 0 0 -0.027341 0.546806 7.9992188 8 0 0 0 1.378772 4.457032c0.215562-0.05166 0.424356-0.11504 0.644468-0.16016a7.9992188 8 0 0 1 -1.995899 -4.843748zm17.681868 1.519532c3.522772 1.807976 5.249801 3.478536 6.905575 4.76172 0.806068 1.494618 1.695231 3.138494 2.597403 4.804686 0.281198 0.16316 0.499857 0.291786 0.79289 0.460938-1.233231-2.270072-2.335278-4.316648-3.386387-6.265624-0.940614-0.728952-1.946932-1.590288-3.249683-2.523438-1.023818-0.44399-2.207162-0.860872-3.659798-1.238282z"/>
 <path style="opacity:.2;fill:#f4f4f7" d="m24.003906 24a7.9992188 8 0 0 0 -7.999219 8 7.9992188 8 0 0 0 0.01954 0.421876 7.9992188 8 0 0 1 7.979679 -7.421876 7.9992188 8 0 0 1 7.975783 7.492188 7.9992188 8 0 0 0 0.023435 -0.492188 7.9992188 8 0 0 0 -7.999218 -8zm5.979884 9.457032a5.9994141 7 0 0 1 -0.949126 3.347656c0.135147 0.03798 0.270706 0.0844 0.406211 0.125a5.9994141 7 0 0 0 0.562445 -2.929688 5.9994141 7 0 0 0 -0.0196 -0.542968zm-11.959769 0.10156a5.9994141 7 0 0 0 -0.01953 0.441408 5.9994141 7 0 0 0 0.562446 2.929688c0.13556-0.0404 0.271069-0.08702 0.40621-0.125a5.9994141 7 0 0 1 -0.949126 -3.246094z"/>
</svg>
