<svg width="48" height="48" version="1.1" xmlns="http://www.w3.org/2000/svg">
 <path d="m19.32931 34.023892 10.029884-17.933936 12.806159 9.117587-16.706021 13.956663z" style="opacity:.2"/>
 <circle cx="24" cy="35" r="7" style="opacity:.2"/>
 <circle cx="9" cy="24" r="7" style="opacity:.2"/>
 <path d="m19.32931 33.023892 10.029884-17.933936 12.806159 9.117587-16.706021 13.956663z" style="fill:#2d1c84"/>
 <circle cx="36" cy="20" r="10" style="opacity:.2"/>
 <circle cx="36" cy="19" r="10" style="fill:#9d2acd"/>
 <circle cx="24" cy="34" r="7" style="fill:#9d2acd"/>
 <circle cx="9" cy="23" r="7" style="fill:#9d2acd"/>
 <path d="m9 24.000147 15 11" style="fill:none;opacity:.2;stroke-linecap:round;stroke-width:8;stroke:#000000"/>
 <path d="m 24,27 a 7,7 0 0 0 -7,7 7,7 0 0 0 0.02344,0.541016 A 7,7 0 0 1 24,28 7,7 0 0 1 30.976562,34.458984 7,7 0 0 0 31,34 7,7 0 0 0 24,27 Z" style="fill:#f4f4f7;opacity:.2"/>
 <path d="m9 23 15 11" style="fill:none;stroke-linecap:round;stroke-width:8;stroke:#e5acf3"/>
 <circle cx="36" cy="20" r="6" style="opacity:.2"/>
 <circle cx="36" cy="19" r="6" style="fill:#e5acf3"/>
 <path d="M 36,9 A 10,10 0 0 0 26,19 10,10 0 0 0 26.021484,19.585938 10,10 0 0 1 36,10 10,10 0 0 1 45.978516,19.414062 10,10 0 0 0 46,19 10,10 0 0 0 36,9 Z" style="fill:#f4f4f7;opacity:.2"/>
 <path d="M 9,16 A 7,7 0 0 0 2,23 7,7 0 0 0 2.0234375,23.541016 7,7 0 0 1 9,17 7,7 0 0 1 15.976562,23.458984 7,7 0 0 0 16,23 7,7 0 0 0 9,16 Z" style="fill:#f4f4f7;opacity:.2"/>
 <path d="m9.1425781 18.970703a4.0004 4.0004 0 0 0-4.1542969 4.480469 4.0004 4.0004 0 0 1 4.1542969-3.480469 4.0004 4.0004 0 0 1 2.2226559 0.802735l15 11a4.0006292 4.0006292 0 0 1 1.59961 2.724609 4.0006292 4.0006292 0 0 0-1.59961-3.724609l-15-11a4.0004 4.0004 0 0 0-2.2226559-0.802735z" style="fill:#f4f4f7;opacity:.2"/>
 <path d="m 36,13 a 6,6 0 0 0 -6,6 6,6 0 0 0 0.02539,0.498047 A 6,6 0 0 1 36,14 6,6 0 0 1 41.974609,19.501953 6,6 0 0 0 42,19 6,6 0 0 0 36,13 Z" style="fill:#f4f4f7;opacity:.2"/>
</svg>
