<svg width="48" height="48" version="1.1" xmlns="http://www.w3.org/2000/svg">
 <path d="m17 5c-0.558739-5e-7 -1.092009 0.233703-1.470703 0.644531l-11.033203 11.966797c-0.340355 0.369345-0.529302 0.853217-0.529297 1.355469v24.066406c1.1e-4 1.104524 0.895476 1.99989 2 2h26.066406c0.495707 3.31e-4 0.973877-0.18342 1.341797-0.515625l11.031251-9.96875c0.419402-0.379477 0.658539-0.918777 0.658203-1.484375v-26.064453c-1.1e-4 -1.104524-0.895476-1.99989-2-2z" style="opacity:.2"/>
 <path d="m17 4c-0.558739-5e-7 -1.092009 0.2337034-1.470703 0.6445312l-11.033203 11.966797c-0.3403545 0.369345-0.5293017 0.853217-0.5292969 1.355469v24.066406c1.104e-4 1.104524 0.8954762 1.99989 2 2h26.066406c0.495707 3.31e-4 0.973877-0.18342 1.341797-0.515625l11.03125-9.96875c0.419402-0.379477 0.658539-0.918777 0.658203-1.484375v-26.064453c-1.1e-4 -1.1045238-0.895476-1.9998896-2-2z" style="fill:#b2bfd9"/>
 <path d="m19 9c-0.566883 1.09e-4 -1.107096 0.240756-1.486328 0.662109l-9.0000001 10c-0.327904 0.364204-0.510692 0.836114-0.513672 1.326172l-0.09766 17.96875c-0.0064 1.107572 0.888505 2.009463 1.996094 2.011719l20.09766 0.03125c0.491052 6.05e-4 0.965168-0.179448 1.332031-0.505859l9-8c0.427003-0.379284 0.671503-0.923013 0.671875-1.494141v-20c-1.1e-4 -1.104524-0.895476-1.99989-2-2z" style="opacity:.2"/>
 <path d="m19 8c-0.566883 1.089e-4 -1.107096 0.2407556-1.486328 0.6621094l-9.0000001 9.9999996c-0.3279043 0.364204-0.5106915 0.836114-0.5136719 1.326172l-0.097656 17.96875c-0.00638 1.107572 0.8885053 2.009463 1.9960935 2.011719l20.097656 0.03125c0.491052 6.05e-4 0.965168-0.179448 1.332031-0.505859l9-8c0.427003-0.379284 0.671503-0.923013 0.671875-1.494141v-20c-1.1e-4 -1.1045238-0.895476-1.9998896-2-2z" style="fill:#489ad4"/>
 <path d="m17 4c-0.558739 0-1.092009 0.2337035-1.470703 0.6445312l-11.033203 11.966797c-0.340355 0.369345-0.5293019 0.853217-0.5292969 1.355469v1c-5e-6 -0.502252 0.1889419-0.986124 0.5292969-1.355469l11.033203-11.966797c0.378694-0.4108277 0.911964-0.6445312 1.470703-0.6445312h26.064453c1.104524 1.104e-4 1.99989 0.8954762 2 2v-1c-1.1e-4 -1.1045238-0.895476-1.9998896-2-2h-26.064453z" style="fill:#f4f4f7;opacity:.2"/>
 <path d="m19 8c-0.566883 1.089e-4 -1.107096 0.2407556-1.486328 0.6621094l-9.0000001 9.9999996c-0.3279043 0.364204-0.5106915 0.836114-0.5136719 1.326172l-0.0976562 17.96875c-1.042e-4 0.018084 0.005486 0.034764 0.0058593 0.052735l0.0917969-17.021485c0.00298-0.490058 0.1857679-0.961968 0.5136719-1.326172l9.0000001-9.9999996c0.379232-0.4213538 0.919445-0.6620005 1.486328-0.6621094h20c1.104524 1.104e-4 1.99989 0.8954762 2 2v-1c-1.1e-4 -1.1045238-0.895476-1.9998896-2-2h-20z" style="fill:#f4f4f7;opacity:.2"/>
</svg>
