<svg width="48" height="48" version="1.1" xmlns="http://www.w3.org/2000/svg">
 <circle cx="24" cy="25" r="20" style="opacity:.2"/>
 <circle cx="24" cy="24" r="20" style="fill:#95e000"/>
 <path d="M 24,4 A 20,20 0 0 0 4,24 20,20 0 0 0 4.0215,24.582 20,20 0 0 1 24,5 20,20 0 0 1 43.979,24.418 20,20 0 0 0 44,24 20,20 0 0 0 24,4 Z" style="fill:#f4f4f7;opacity:.2"/>
 <path d="m24 7a18 18 0 0 0-18 18 18 18 0 0 0 18 18 18 18 0 0 0 18-18 18 18 0 0 0-18-18zm0 2a16 16 0 0 1 16 16 16 16 0 0 1-16 16 16 16 0 0 1-16-16 16 16 0 0 1 16-16zm-9 11-3 9h2l0.572266-2h3.855468l0.572266 2h2l-3-9zm7 0v9h2v-9zm3 0 3.5 4.5-3.5 4.5h2l2.5-3.214844 2.5 3.214844h2l-3.5-4.5 3.5-4.5h-2l-2.5 3.214844-2.5-3.214844zm-9 2h1l0.857422 3h-2.714844z" style="opacity:.2"/>
 <path d="m24 6a18 18 0 0 0-18 18 18 18 0 0 0 18 18 18 18 0 0 0 18-18 18 18 0 0 0-18-18zm0 2a16 16 0 0 1 16 16 16 16 0 0 1-16 16 16 16 0 0 1-16-16 16 16 0 0 1 16-16zm-9 11-3 9h2l0.572266-2h3.855468l0.572266 2h2l-3-9h-3zm7 0v9h2v-9h-2zm3 0 3.5 4.5-3.5 4.5h2l2.5-3.214844 2.5 3.214844h2l-3.5-4.5 3.5-4.5h-2l-2.5 3.214844-2.5-3.214844h-2zm-9 2h1l0.857422 3h-2.714844l0.857422-3z" style="fill:#f4f4f7"/>
</svg>
