<svg xmlns="http://www.w3.org/2000/svg" width="48" height="48" version="1.1">
 <path style="opacity:0.2" d="M 24,5 A 20,20 0 0 0 4,25 20,20 0 0 0 24,45 20,20 0 0 0 44,25 20,20 0 0 0 24,5 Z"/>
 <path style="fill:#4f4f4f" d="m24 4a20 20 0 0 0 -20 20 20 20 0 0 0 20 20 20 20 0 0 0 20 -20 20 20 0 0 0 -20 -20z"/>
 <path style="opacity:0.2" d="m 24,9 a 16,16 0 0 0 -9.396484,3.068359 l 3.59375,3.59375 A 11,11 0 0 1 24,14 11,11 0 0 1 35,25 11,11 0 0 1 33.332031,30.796875 l 3.595703,3.595703 A 16,16 0 0 0 40,25 16,16 0 0 0 24,9 Z M 11.072266,15.607422 A 16,16 0 0 0 8,25 16,16 0 0 0 24,41 16,16 0 0 0 33.396484,37.931641 l -3.59375,-3.59375 A 11,11 0 0 1 24,36 11,11 0 0 1 13,25 11,11 0 0 1 14.667969,19.203125 Z M 24,19 a 6,6 0 0 0 -6,6 6,6 0 0 0 6,6 6,6 0 0 0 6,-6 6,6 0 0 0 -6,-6 z"/>
 <path fill="#f4f4f7" style="opacity:0.1" d="m24 4a20 20 0 0 0 -19.859 17.852 20 19 0 0 1 19.859 -16.852 20 19 0 0 1 19.922 17.447 20 20 0 0 0 -19.922 -18.447zm19.922 18.447a20 20 0 0 1 0.078 1.553 20 19 0 0 0 -0.078 -1.553zm-39.781-0.595a20 19 0 0 0 -0.0488 0.392 20 20 0 0 1 0.0488 -0.392zm-0.0488 0.392a20 20 0 0 0 -0.0918 1.756 20 19 0 0 1 0.0918 -1.756z"/>
 <path style="fill:#91cd91" d="m 24,8 a 16,16 0 0 0 -9.396484,3.068359 l 3.59375,3.59375 A 11,11 0 0 1 24,13 11,11 0 0 1 35,24 11,11 0 0 1 33.332031,29.796875 l 3.595703,3.595703 A 16,16 0 0 0 40,24 16,16 0 0 0 24,8 Z"/>
 <path style="fill:#33855a" d="M 11.072266,14.607422 A 16,16 0 0 0 8,24 16,16 0 0 0 24,40 16,16 0 0 0 33.396484,36.931641 l -3.59375,-3.59375 A 11,11 0 0 1 24,35 11,11 0 0 1 13,24 11,11 0 0 1 14.667969,18.203125 Z"/>
 <circle style="fill:#91cd91" cx="24" cy="24" r="6"/>
 <path style="opacity:0.2;fill:#f4f4f7" d="M 24 8 A 16 16 0 0 0 14.603516 11.068359 L 15.201172 11.666016 A 16 16 0 0 1 24 9 A 16 16 0 0 1 39.980469 24.599609 A 16 16 0 0 0 40 24 A 16 16 0 0 0 24 8 z M 11.072266 14.607422 A 16 16 0 0 0 8 24 A 16 16 0 0 0 8.0195312 24.400391 A 16 16 0 0 1 11.072266 15.607422 L 14.306641 18.841797 A 11 11 0 0 1 14.667969 18.203125 L 11.072266 14.607422 z M 24 18 A 6 6 0 0 0 18 24 A 6 6 0 0 0 18.025391 24.501953 A 6 6 0 0 1 24 19 A 6 6 0 0 1 29.974609 24.498047 A 6 6 0 0 0 30 24 A 6 6 0 0 0 24 18 z M 34.978516 24.396484 A 11 11 0 0 1 33.332031 29.796875 L 33.693359 30.158203 A 11 11 0 0 0 35 25 A 11 11 0 0 0 34.978516 24.396484 z M 13.021484 24.603516 A 11 11 0 0 0 13 25 A 11 11 0 0 0 24 36 A 11 11 0 0 0 29.802734 34.337891 L 32.798828 37.333984 A 16 16 0 0 0 33.396484 36.931641 L 29.802734 33.337891 A 11 11 0 0 1 24 35 A 11 11 0 0 1 13.021484 24.603516 z"/>
</svg>
