<svg xmlns="http://www.w3.org/2000/svg" width="48" height="48" version="1.1">
 <circle style="opacity:0.2" cx="24" cy="25" r="20"/>
 <circle style="fill:#448aff" cx="24" cy="24" r="20"/>
 <path style="opacity:0.2" d="m 23,12.042797 c -6.385213,0.497599 -11.456703,5.571575 -11.951172,11.957031 h 9.083984 C 20.496805,22.593855 21.594275,21.495637 23,21.130687 Z m 2,0.0059 v 9.083984 c 1.405973,0.363953 2.504191,1.461463 2.869141,2.867188 h 9.08789 C 36.459432,17.614615 31.385456,12.543125 25,12.048656 Z m 3.621094,13.330078 -4.242188,4.242188 7,7 4.242188,-4.242188 z M 11.042969,25.999828 C 11.540568,32.385041 16.614544,37.456531 23,37.951 v -9.083984 c -1.405973,-0.363993 -2.504191,-1.461463 -2.869141,-2.867188 z"/>
 <path style="fill:#f4f4f7" d="M 23,11.042969 C 16.614787,11.540568 11.543297,16.614544 11.048828,23 h 9.083984 C 20.496805,21.594027 21.594275,20.495809 23,20.130859 Z m 2,0.0059 v 9.083984 C 26.405973,20.496805 27.504191,21.594275 27.869141,23 h 9.08789 C 36.459432,16.614787 31.385456,11.543297 25,11.048828 Z M 11.042969,25 C 11.540568,31.385213 16.614544,36.456703 23,36.951172 V 27.867188 C 21.594027,27.503195 20.495809,26.405725 20.130859,25 Z"/>
 <path style="fill:none;stroke:#f4f4f7;stroke-width:6" d="m 26.5,26.5 7,7"/>
 <path style="fill:#f4f4f7;opacity:0.2" d="M 24 4 A 20 20 0 0 0 4 24 A 20 20 0 0 0 4.0214844 24.582031 A 20 20 0 0 1 24 5 A 20 20 0 0 1 43.978516 24.417969 A 20 20 0 0 0 44 24 A 20 20 0 0 0 24 4 z"/>
</svg>
