<svg xmlns="http://www.w3.org/2000/svg" width="48" height="48" version="1">
 <rect style="opacity:0.2" width="40" height="40" x="4" y="5" rx="2" ry="2"/>
 <rect style="fill:#48aeff" width="40" height="40" x="4" y="4" rx="2" ry="2"/>
 <path style="fill:#f4f4f7;opacity:0.2" d="m6 4c-1.108 0-2 0.892-2 2v1c0-1.108 0.892-2 2-2h36c1.108 0 2 0.892 2 2v-1c0-1.108-0.892-2-2-2h-36z"/>
 <rect style="opacity:0.2" width="14" height="14" x="8" y="9"/>
 <rect style="fill:#f4f4f7" width="14" height="14" x="8" y="8"/>
 <rect style="opacity:0.2" width="14" height="14" x="26" y="9"/>
 <rect style="fill:#f4f4f7" width="14" height="14" x="26" y="8"/>
 <rect style="opacity:0.2" width="14" height="14" x="26" y="27"/>
 <rect style="fill:#f4f4f7" width="14" height="14" x="26" y="26"/>
 <rect style="opacity:0.2" width="14" height="14" x="8" y="27"/>
 <rect style="fill:#f4f4f7" width="14" height="14" x="8" y="26"/>
</svg>
