<svg xmlns="http://www.w3.org/2000/svg" width="48" height="48" version="1">
 <path style="opacity:0.2" d="M 21.501953 33.666016 C 14.248876 35.902402 9.076364 40.138938 4 44 L 21 44 L 21 43 L 27 43 L 27 38.464844 L 28.105469 37.703125 L 28.039062 35.861328 L 25.449219 34.619141 C 25.449219 34.619141 23.940804 34.753379 23.199219 34.71875 C 22.513347 34.161135 22.317518 33.96454 21.501953 33.666016 z"/>
 <path style="fill:#b2bfd9" d="M 17.671128,31 H 29.678777 L 34,36 H 14 Z"/>
 <path style="fill:#d59f5b" d="m 28.039756,34.860555 -2.59087,-1.240711 c 0,0 -1.508503,0.133389 -2.250088,0.09876 C 22.512926,33.160989 22.317422,32.964656 21.501857,32.666132 14.24878,34.902518 9.076364,39.138938 4,43 h 23.022828 l 0.0082,-5.535795 1.073869,-0.760916 z"/>
 <path style="opacity:0.2" d="m 20,36.660175 3.110524,-2.040331 c 0,0 1.508503,0.133389 2.250089,0.09876 0.685872,-0.557615 0.881374,-0.753948 1.69694,-1.052472 C 34.310631,35.902518 38.923636,40.138938 44,44 H 21 v -4.736175 l -1,-0.760916 z"/>
 <path style="fill:#febd6a" d="m 20,35.660175 3.110524,-2.040331 c 0,0 1.508503,0.133389 2.250089,0.09876 0.685872,-0.557615 0.881374,-0.753948 1.69694,-1.052472 C 34.310631,34.902518 38.923636,39.138938 44,43 H 21 v -4.736175 l -1,-0.760916 z"/>
 <path style="opacity:0.1" d="M 17,14 23.750564,11.8 30,14 l 4,5 0.999152,6.402756 c 0.08812,5.353472 -6.716261,9.276016 -11.207693,9.397221 -3.708807,0.0096 -7.423888,-3.008695 -9.053632,-5.059543 -1.77587,-1.94706 -1.604311,-2.819718 -1.641407,-5.320462 L 14,18 Z"/>
 <path style="fill:#3f3f3f" d="M 17,13 23.750564,10.8 30,13 l 4,5 0.999152,6.402756 c 0.08812,5.353472 -6.716261,9.276016 -11.207693,9.397221 -3.708807,0.0096 -7.423888,-3.008695 -9.053632,-5.059543 -1.77587,-1.94706 -1.604311,-2.819718 -1.641407,-5.320462 L 14,17 Z"/>
 <path style="opacity:0.1" d="M 16,21.541563 18.662801,19 h 1.345515 L 21,21.091634 l -4e-6,2.833012 L 17.681971,26 16,25 Z"/>
 <path style="fill:#bddff5" d="M 16,20.541563 18.662801,18 h 1.345515 L 21,20.091634 l -4e-6,2.833012 L 17.681971,25 16,24 Z"/>
 <path style="fill:#3f3f3f" d="m 16.251953,34.771484 c -0.835799,0.412568 -1.642315,0.850991 -2.427734,1.306641 L 12.625,43 h 2.201172 z"/>
 <path style="fill:#3f3f3f" d="M 31.470703,34.402344 34.513672,43 h 2.300781 l -2.505859,-7.072266 c -0.903526,-0.54 -1.848274,-1.050245 -2.837891,-1.52539 z"/>
 <path style="opacity:0.2;fill:#f4f4f7" d="M 21.501953 32.666016 C 14.248876 34.902402 9.076364 39.138938 4 43 L 5.3164062 43 C 9.987736 39.425685 14.867926 35.711526 21.501953 33.666016 C 22.261614 33.944077 22.508744 34.157527 23.089844 34.632812 L 23.111328 34.619141 C 23.111328 34.619141 23.66777 34.658653 24.279297 34.689453 C 24.891004 34.658663 25.449219 34.619141 25.449219 34.619141 L 25.474609 34.630859 C 26.052623 34.15806 26.298787 33.943415 27.056641 33.666016 C 33.690657 35.711522 38.12134 39.425691 42.712891 43 L 44 43 C 38.923636 39.138938 34.309719 34.902402 27.056641 32.666016 C 26.298787 32.943415 26.052623 33.15806 25.474609 33.630859 L 25.449219 33.619141 C 25.449219 33.619141 24.891004 33.658659 24.279297 33.689453 C 23.66777 33.658657 23.111328 33.619141 23.111328 33.619141 L 23.089844 33.632812 C 22.508744 33.157526 22.261614 32.944077 21.501953 32.666016 z"/>
 <circle style="fill:#ec503a" cx="22.5" cy="36.5" r="1.5"/>
 <path style="opacity:0.2" d="m 14.120117,16.8015 c 1.22986,-3.12563 5.238159,-5.496444 8.206387,-7.2003115 L 23.285655,7 h 1.981951 l 1.10745,2.4107606 c 2.976117,1.7564454 6.510069,4.4915234 7.756523,7.3682754 1.080949,2.491535 2.336896,4.389405 1.692845,7.016582 L 35.284021,26 C 34.712978,25.312152 34.362582,23.945346 34.037367,22.054054 33.215774,16.548502 28.859573,14.940583 24.427536,15 c -5.028382,0.387963 -8.119085,2.266251 -10.030426,6.657793 -0.420608,0.983816 -0.699933,2.048866 -1.127854,3.616815 L 12.587843,24.33967 c -1.68966,-2.064277 0.718536,-5.28887 1.532274,-7.53817 z"/>
 <path style="fill:#ed5e4a" d="m 14.120117,15.8015 c 1.22986,-3.12563 5.238159,-5.496444 8.206387,-7.2003115 L 23.285655,6 h 1.981951 l 1.10745,2.4107606 c 2.976117,1.7564454 6.510069,4.4915234 7.756523,7.3682754 1.080949,2.491535 2.336896,4.389405 1.692845,7.016582 L 35.284021,25 C 34.712978,24.312152 34.362582,22.945346 34.037367,21.054054 33.215774,15.548502 28.859573,13.940583 24.427536,14 c -5.028382,0.387963 -8.119085,2.266251 -10.030426,6.657793 -0.420608,0.983816 -0.699933,2.048866 -1.127854,3.616815 L 12.587843,23.33967 c -1.68966,-2.064277 0.718536,-5.28887 1.532274,-7.53817 z"/>
 <path style="opacity:0.1" d="M 32,21.541563 29.337199,19 H 27.991684 L 27,21.091634 l 4e-6,2.833012 L 30.318029,26 32,25 Z"/>
 <path style="fill:#bddff5" d="M 32,20.541563 29.337199,18 H 27.991684 L 27,20.091634 l 4e-6,2.833012 L 30.318029,25 32,24 Z"/>
 <path style="opacity:0.1" d="m 22,27 -2,1.859375 v 4.025391 L 22,35 h 2 2 l 2,-2.115234 V 28.859375 L 26,27 h -2 z m 0.785156,2 H 24 25.214844 L 26,29.730469 v 2.359375 L 25.138672,33 H 24 22.861328 L 22,32.089844 v -2.359375 z"/>
 <path style="fill:#bddff5" d="m 22,26 -2,1.859375 v 4.025391 L 22,34 h 2 2 l 2,-2.115234 V 27.859375 L 26,26 h -2 z m 0.785156,2 H 24 25.214844 L 26,28.730469 v 2.359375 L 25.138672,32 H 24 22.861328 L 22,31.089844 v -2.359375 z"/>
 <path style="opacity:0.1;fill:#f4f4f7" d="m 23.285156,6 -0.958984,2.6015625 c -2.968228,1.7038675 -6.977171,4.0735885 -8.207031,7.1992185 -0.664061,1.835569 -2.387849,4.32097 -2.082032,6.294922 0.229047,-1.766243 1.526048,-3.758095 2.082032,-5.294922 1.22986,-3.12563 5.238803,-5.495351 8.207031,-7.1992185 L 23.285156,7 h 1.982422 L 26.375,9.4101562 c 2.976117,1.7564458 6.509405,4.4923888 7.755859,7.3691408 0.800618,1.845384 1.694227,3.366078 1.84375,5.097656 0.190571,-2.173305 -0.892933,-3.90607 -1.84375,-6.097656 C 32.884405,12.902545 29.351117,10.166602 26.375,8.4101562 L 25.267578,6 Z"/>
</svg>
