<svg xmlns="http://www.w3.org/2000/svg" width="48" height="48" version="1.1">
 <path style="fill:#1e88e5" d="M 6,6 C 4.892,6 4,6.892 4,8 v 2 29 c 0,1.108 0.892,2 2,2 h 36 c 1.108,0 2,-0.892 2,-2 V 10 8 C 44,6.892 43.108,6 42,6 Z"/>
 <rect style="opacity:0.1" width="40" height="8" x="4" y="33" rx="2" ry="2"/>
 <rect style="fill:#253951" width="40" height="8" x="4" y="34" rx="2" ry="2"/>
 <path style="opacity:0.2;fill:#f4f4f7" d="M 6,6 C 4.892,6 4,6.892 4,8 V 9 C 4,7.892 4.892,7 6,7 h 36 c 1.108,0 2,0.892 2,2 V 8 C 44,6.892 43.108,6 42,6 Z"/>
 <path style="opacity:0.2" d="m 4,40 v 1 c 0,1.108 0.892,2 2,2 h 36 c 1.108,0 2,-0.892 2,-2 v -1 c 0,1.108 -0.892,2 -2,2 H 6 C 4.892,42 4,41.108 4,40 Z"/>
 <rect style="opacity:0.2;fill:#f4f4f7" width="10" height="8" x="19" y="34" rx="2" ry="2"/>
 <rect style="opacity:0.1;fill:#f4f4f7" width="10" height="8" x="7" y="34" rx="2" ry="2"/>
 <rect style="opacity:0.1;fill:#f4f4f7" width="10" height="8" x="31" y="34" rx="2" ry="2"/>
 <path style="opacity:0.2;fill:#f4f4f7" d="M 24 37 A 5 5 0 0 0 19.160156 40.785156 C 19.464503 41.499986 20.171514 42 21 42 L 27 42 C 27.828486 42 28.535497 41.499986 28.839844 40.785156 A 5 5 0 0 0 24 37 z"/>
 <path style="opacity:0.2;fill:#f4f4f7" d="M 24 40 A 2 2 0 0 0 22 42 L 26 42 A 2 2 0 0 0 24 40 z"/>
 <path style="opacity:0.2" d="m 12,14 v 13.5 c 0,0.831 0.669,1.5 1.5,1.5 h 21 C 35.331,29 36,28.331 36,27.5 V 14 Z"/>
 <path style="fill:#f4f4f7" d="m 12,13.9 v 12.6 c 0,0.831 0.669,1.5 1.5,1.5 h 21 C 35.331,28 36,27.331 36,26.5 V 13.9 Z"/>
 <path style="fill:#253951" d="m 13.5,10 h 21 c 0.831,0 1.5,0.669 1.5,1.5 V 14 H 12 V 11.5 C 12,10.669 12.669,10 13.5,10 Z"/>
 <path style="opacity:0.2;fill:#f4f4f7" d="M 24 37 A 5 5 0 0 0 19.160156 40.785156 C 19.214466 40.912715 19.294691 41.024462 19.373047 41.136719 A 5 5 0 0 1 24 38 A 5 5 0 0 1 28.625 41.140625 C 28.704425 41.02736 28.784959 40.914065 28.839844 40.785156 A 5 5 0 0 0 24 37 z"/>
 <path style="opacity:0.2;fill:#f4f4f7" d="M 24 40 A 2 2 0 0 0 22 42 L 22.271484 42 A 2 2 0 0 1 24 41 A 2 2 0 0 1 25.730469 42 L 26 42 A 2 2 0 0 0 24 40 z"/>
</svg>
