<svg xmlns="http://www.w3.org/2000/svg" width="48" height="48" version="1.1">
 <rect style="opacity:.2" width="40" height="40" x="4" y="5" rx="2" ry="2"/>
 <rect style="fill:#b76728" width="40" height="40" x="4" y="4" rx="2" ry="2"/>
 <rect style="fill:#4d4d4d" width="34" height="34" x="7" y="7" rx="1.7" ry="1.7"/>
 <path style="opacity:.2" d="m11 13v1h1v8h-1v1h5v-1h1v-1h1v-6h-1v-1h-1v-1zm10 0v1h-1v8h1v1h5v-1h1v-8h-1v-1zm9 0v1h-1v2h1v1h1v1h2v1h1v3h-3v-2h-2v2h1v1h5v-1h1v-3h-1v-1h-1v-1h-2v-1h-1v-2h3v2h2v-2h-1v-1zm-16 1h1v1h1v6h-1v1h-1zm8 0h3v8h-3zm-11 13v1h1v8h-1v1h6v-1h1v-4h-1v-1h1v-3h-1v-1zm10 0v1h-1v8h1v1h5v-1h1v-8h-1v-1zm8 0v2h1v2h1v2h-1v2h-1v2h2v-2h1v-1h1v1h1v2h2v-2h-1v-2h-1v-2h1v-2h1v-2h-2v2h-1v1h-1v-1h-1v-2zm-15 1h2v3h-2zm8 0h3v8h-3zm-8 4h2v4h-2z"/>
 <path style="fill:#b2bfd9" d="m11 12v1h1v8h-1v1h5v-1h1v-1h1v-6h-1v-1h-1v-1zm10 0v1h-1v8h1v1h5v-1h1v-8h-1v-1zm9 0v1h-1v2h1v1h1v1h2v1h1v3h-3v-2h-2v2h1v1h5v-1h1v-3h-1v-1h-1v-1h-2v-1h-1v-2h3v2h2v-2h-1v-1zm-16 1h1v1h1v6h-1v1h-1zm8 0h3v8h-3zm-11 13v1h1v8h-1v1h6v-1h1v-4h-1v-1h1v-3h-1v-1zm10 0v1h-1v8h1v1h5v-1h1v-8h-1v-1zm8 0v2h1v2h1v2h-1v2h-1v2h2v-2h1v-1h1v1h1v2h2v-2h-1v-2h-1v-2h1v-2h1v-2h-2v2h-1v1h-1v-1h-1v-2zm-15 1h2v3h-2zm8 0h3v8h-3zm-8 4h2v4h-2z"/>
 <path style="opacity:.2;fill:#f4f4f7" d="m6 4c-1.108 0-2 0.892-2 2v1c0-1.108 0.892-2 2-2h36c1.108 0 2 0.892 2 2v-1c0-1.108-0.892-2-2-2h-36z"/>
</svg>
