<svg xmlns="http://www.w3.org/2000/svg" width="48" height="48" version="1">
 <path style="fill:#cf4f8c" d="m24 4h-18c-1.108 0-2 0.892-2 2v18h20z"/>
 <path style="fill:#14ddb1" d="m24 4h18c1.108 0 2 0.892 2 2v18h-20z"/>
 <path style="fill:#14ddb1" d="m24 44h-18c-1.108 0-2-0.892-2-2v-18h20z"/>
 <path style="fill:#6655e4" d="m24 44h18c1.108 0 2-0.892 2-2v-18h-20z"/>
 <path fill="#fff" opacity=".2" d="m6 4c-1.108 0-2 0.892-2 2v1c0-1.108 0.892-2 2-2h36c1.108 0 2 0.892 2 2v-1c0-1.108-0.892-2-2-2h-36z"/>
 <path opacity=".2" d="m6 45c-1.108 0-2-0.892-2-2v-1c0 1.108 0.892 2 2 2h36c1.108 0 2-0.892 2-2v1c0 1.108-0.892 2-2 2h-36z"/>
 <rect style="fill:#3f3f3f" width="28" height="28" x="10" y="10"/>
 <path style="opacity:0.2;fill:none;stroke:#000000;stroke-width:2;stroke-linecap:round" d="m 16,32.9999 h 8"/>
 <path style="fill:none;stroke:#f4f4f7;stroke-width:2;stroke-linecap:round" d="m 16,32 h 8"/>
 <path style="opacity:0.2;fill:none;stroke:#000000;stroke-width:1.99999988;stroke-linecap:round;stroke-linejoin:bevel" d="m 16,24.9999 c 0,0 4.043782,0.350249 3.999999,-3.999999 C 19.956219,16.649638 16,16.999899 16,16.999899 m -0.0141,7.993587 v -7.999998"/>
 <path style="fill:none;stroke:#f4f4f7;stroke-width:1.99999988;stroke-linecap:round;stroke-linejoin:bevel" d="m 16,24 c 0,0 4.043782,0.350249 3.999999,-3.999999 C 19.956219,15.649738 16,15.999999 16,15.999999 m -0.0141,7.993587 v -7.999998"/>
 <path style="opacity:0.2;fill:none;stroke:#000000;stroke-width:1.99999988;stroke-linecap:round;stroke-linejoin:bevel" d="m 23.999902,20.9998 c 0,0 4.000003,0.464501 4.000003,-1.999997 0,-2.464501 -4.000003,-2.000001 -4.000003,-2.000001 M 24,24.999901 V 16.9999"/>
 <path style="fill:none;stroke:#f4f4f7;stroke-width:1.99999988;stroke-linecap:round;stroke-linejoin:bevel" d="m 23.999902,19.9999 c 0,0 4.000003,0.464501 4.000003,-1.999997 0,-2.464501 -4.000003,-2.000001 -4.000003,-2.000001 M 24,24.000001 V 16"/>
</svg>
