<svg xmlns="http://www.w3.org/2000/svg" width="48" height="48" version="1.1">
 <g transform="matrix(2,0,0,2,2,2)">
  <rect style="opacity:.2" width="20" height="20" x="1" y="1.5" rx="1" ry="1"/>
  <path style="fill:#4f4f4f" d="m 2,1 h 9.06764 l 8.009993,0.8839354 c 0.550657,0.060767 0.432675,0.264103 0.538816,0.8078402 L 21,9.7794005 v 2.4212145 l -0.538048,6.72329 c -0.04419,0.552234 -0.06303,1.422473 -0.61568,1.461183 L 11.06764,21 H 2 C 1.446,21 1,20.554 1,20 V 2 C 1,1.446 1.446,1 2,1 Z"/>
  <path style="fill:#f4f4f7;opacity:.1" d="m2 1c-0.554 0-1 0.446-1 1v0.5c0-0.554 0.446-1 1-1h18c0.554 0 1 0.446 1 1v-0.5c0-0.554-0.446-1-1-1z"/>
  <path style="opacity:.2" d="m2 2.5v8h3v-5h2v5h3v-6c0-2-2-2-2-2zm0 10v8h6s2 0 2-2v-6h-3v5h-2v-5z"/>
  <path style="fill:#edd20c" d="m2 2v8h3v-5h2v5h3v-6c0-2-2-2-2-2zm0 10v8h6s2 0 2-2v-6h-3v5h-2v-5z"/>
  <path style="opacity:.2" d="m11 1.5v9h2.111328l0.888672-8h4l0.888672 8h2.111328v-8c0-0.554-0.446-1-1-1zm5 5-0.285156 4h0.570312zm-5 6v7.5h1.054688l0.833984-7.5zm4.570312 0-0.142578 2h1.144532l-0.142578-2zm3.541016 0 0.833984 7.5h1.054688v-7.5zm-3.896484 5-0.179688 2.5h1.929688l-0.179688-2.5z"/>
  <path style="fill:#b2bfd9" d="m11 1v9h2.111328l0.888672-8h4l0.888672 8h2.111328v-8c0-0.554-0.446-1-1-1zm5 5-0.285156 4h0.570312zm-5 6v9h9c0.554 0 1-0.446 1-1v-8h-1.888672l0.888672 8h-3l-0.214844-3h-1.570312l-0.214844 3h-3l0.888672-8zm4.570312 0-0.142578 2h1.144532l-0.142578-2z"/>
  <path style="fill:#f4f4f7;opacity:.2" d="m11 1v0.5h9c0.554 0 1 0.446 1 1v-0.5c0-0.554-0.446-1-1-1zm5 5-0.285156 4h0.035156l0.25-3.5 0.25 3.5h0.03516zm-5 6v0.5h1.833984l0.05469-0.5zm4.570312 0-0.142578 2h0.03516l0.107421-1.5h0.859376l0.107421 1.5h0.03516l-0.142578-2zm3.541016 0 0.05469 0.5h1.833982v-0.5zm-3.896484 5-0.214844 3h-2.945312l-0.054688 0.5h3l0.214844-3h1.570312l0.214844 3h3l-0.054688-0.5h-2.945312l-0.214844-3z"/>
  <path style="fill:#f4f4f7;opacity:.2" d="m2 2v0.5h6s2 0 2 2v-0.5c0-2-2-2-2-2zm0 10v0.5h3v-0.5zm5 0v0.5h3v-0.5zm-2 5v0.5h2v-0.5z"/>
 </g>
</svg>
