<svg xmlns="http://www.w3.org/2000/svg" width="48" height="48" version="1">
 <rect style="fill:#2979ff" width="40" height="40" x="4" y="4" rx="2" ry="2"/>
 <path fill="#fff" style="opacity:0.1" d="m6 4c-1.108 0-2 0.892-2 2v1c0-1.108 0.892-2 2-2h36c1.108 0 2 0.892 2 2v-1c0-1.108-0.892-2-2-2h-36z"/>
 <path opacity=".2" d="m6 45c-1.108 0-2-0.892-2-2v-1c0 1.108 0.892 2 2 2h36c1.108 0 2-0.892 2-2v1c0 1.108-0.892 2-2 2h-36z"/>
 <path style="opacity:0.2" d="m 19,12 -6,6 v 12 6 h 6 11 l 6,-6 H 22.841797 L 35.916016,16.890625 31.667969,12.652344 19,25.355469 Z"/>
 <path style="fill:#f4f4f7" d="M 19 11 L 13 17 L 13 29 L 13 35 L 19 35 L 30 35 L 36 29 L 22.841797 29 L 35.916016 15.890625 L 31.667969 11.652344 L 19 24.355469 L 19 11 z"/>
</svg>
