<svg xmlns="http://www.w3.org/2000/svg" width="48" height="48" version="1">
 <rect style="opacity:0.2" width="40" height="40" x="-45" y="-44" rx="2" ry="2" transform="matrix(0,-1,-1,0,0,0)"/>
 <rect style="fill:#b2bfd9" width="40" height="40" x="-44" y="-44" rx="2" ry="2" transform="matrix(0,-1,-1,0,0,0)"/>
 <path style="fill:#f4f4f7;opacity:0.2" d="M 6 4 C 4.892 4 4 4.892 4 6 L 4 7 C 4 5.892 4.892 5 6 5 L 42 5 C 43.108 5 44 5.892 44 7 L 44 6 C 44 4.892 43.108 4 42 4 L 6 4 z"/>
 <path style="fill:#3f3f3f" d="M 15.572266 14 C 15.908169 14.003348 16.011742 14.028266 16.09375 14.169922 C 16.15758 14.273639 16.445039 14.895168 16.740234 15.804688 C 17.035429 16.714205 17.305647 17.481759 17.353516 17.513672 C 17.393406 17.537602 17.47345 17.520379 17.529297 17.480469 C 17.585147 17.440579 18.168051 17.162381 18.822266 16.867188 C 22.9151 15.032193 24.14266 14.465779 24.796875 14.138672 C 24.940437 14.065182 25.008792 14.048227 25.113281 14 L 15.572266 14 z M 26.78125 14 C 26.473365 14.16551 26.018381 14.38377 25.205078 14.751953 C 24.502994 15.063104 23.712501 15.423129 23.449219 15.550781 C 23.185937 15.678433 22.124895 16.156237 21.095703 16.626953 C 18.335234 17.879535 17.585937 18.246389 17.585938 18.326172 C 17.585938 18.405952 18.423295 20.974668 18.542969 21.253906 C 18.574879 21.341666 18.66257 21.614169 18.734375 21.853516 C 18.941809 22.539644 18.941891 22.538637 19.388672 22.371094 C 19.604084 22.291314 20.24962 21.996035 20.832031 21.716797 C 21.414442 21.445537 21.909825 21.214844 21.925781 21.214844 C 21.941741 21.214844 22.435002 20.98415 23.025391 20.712891 C 23.607803 20.433652 24.390648 20.06598 24.765625 19.898438 C 26.77614 19.004874 28.92926 18.015342 30.078125 17.464844 C 31.027535 17.010085 31.036908 16.993455 31.140625 16.650391 C 31.348059 15.924372 31.722916 15.088401 31.898438 14.59375 C 32.06598 14.0991 32.090234 14.074716 32.353516 14.050781 C 32.493998 14.043367 32.665033 14.016756 32.773438 14 L 26.78125 14 z M 30.605469 18.095703 C 30.573559 18.063793 30.205884 18.199148 29.791016 18.390625 C 29.376148 18.590081 28.78576 18.860464 28.474609 18.996094 C 28.171436 19.131724 27.668574 19.356392 27.357422 19.5 C 27.05425 19.643608 26.568466 19.866323 26.28125 20.001953 C 25.994033 20.129604 25.299042 20.457421 24.724609 20.720703 C 24.158155 20.991963 22.698855 21.652627 21.494141 22.203125 C 20.289428 22.753623 19.291348 23.23338 19.275391 23.28125 C 19.251461 23.36103 20.521614 27.279095 20.609375 27.382812 C 20.641285 27.414722 20.864169 27.342165 21.103516 27.230469 C 21.741775 26.919318 23.45607 26.128954 24.724609 25.5625 C 25.338933 25.29124 26.114298 24.940649 26.441406 24.789062 C 26.768513 24.637477 27.309611 24.389867 27.636719 24.238281 C 28.689846 23.767565 29.026183 23.560784 29.082031 23.361328 C 29.201705 22.954438 29.791903 21.054808 30.03125 20.296875 C 30.174858 19.858072 30.317696 19.387418 30.349609 19.259766 C 30.389499 19.124136 30.47719 18.821378 30.541016 18.582031 C 30.604846 18.342684 30.637379 18.119637 30.605469 18.095703 z M 28.621094 24.644531 C 28.516379 24.639665 28.271343 24.715875 27.996094 24.853516 C 27.661008 25.013081 25.827406 25.850649 24.263672 26.552734 C 24.048259 26.648474 23.513187 26.903894 23.066406 27.111328 C 22.619624 27.326741 21.981405 27.612251 21.654297 27.755859 C 20.776691 28.130836 20.792696 28.091311 21.087891 28.960938 C 21.231499 29.375806 21.46153 30.093737 21.621094 30.564453 C 21.772681 31.035168 21.932764 31.442862 21.972656 31.466797 C 22.044456 31.514667 22.68224 31.235431 25.003906 30.150391 C 25.769817 29.791371 26.600497 29.408571 26.839844 29.296875 C 27.079191 29.18518 27.286943 29.090009 27.294922 29.082031 C 27.318852 29.066071 28.211032 26.153717 28.394531 25.523438 C 28.450381 25.323981 28.540021 25.061079 28.587891 24.941406 C 28.635761 24.813754 28.673828 24.701669 28.673828 24.677734 C 28.673828 24.657789 28.655999 24.646153 28.621094 24.644531 z M 26.853516 30.105469 C 26.779716 30.104469 26.663471 30.146708 26.503906 30.230469 C 26.344342 30.318229 25.611117 30.661008 24.869141 30.996094 C 22.858627 31.905613 22.212891 32.21759 22.212891 32.273438 C 22.212891 32.345238 23.026681 34.809718 23.058594 34.849609 C 23.082534 34.873549 23.225201 34.841144 23.384766 34.777344 C 23.656026 34.681604 25.523496 33.827533 25.802734 33.667969 C 25.866564 33.636059 26.017211 33.325651 26.128906 32.974609 C 26.392188 32.192742 26.935215 30.389867 26.951172 30.238281 C 26.959152 30.150521 26.927315 30.106469 26.853516 30.105469 z M 25.599609 34.638672 C 25.515838 34.584445 25.169 34.716903 24.367188 35.087891 C 23.816689 35.335216 23.361659 35.600237 23.345703 35.664062 C 23.321763 35.823628 24.238245 38.552071 24.333984 38.583984 C 24.373874 38.599944 24.461731 38.439856 24.517578 38.232422 C 24.581408 38.01701 24.678527 37.689689 24.734375 37.490234 C 24.893939 36.939735 25.53969 34.913471 25.603516 34.753906 C 25.627451 34.696064 25.627533 34.656747 25.599609 34.638672 z"/>
 <rect style="fill:#3f3f3f" width="18" height="5" x="15" y="9"/>
 <rect style="opacity:0.1" width="18" height="1" x="15" y="14"/>
</svg>
