<svg xmlns="http://www.w3.org/2000/svg" width="48" height="48" version="1.1">
 <path style="opacity:0.2" d="m 26,28.103563 -2,1.154296 v 6.509766 2.251953 l 2,1.15625 2,1.154297 2,-1.154297 v -2.251953 l -2,-1.15625 v -6.509766 z m -7,4.796875 -2,1.154297 v 6.509765 2.251953 l 2,1.15625 2,1.154297 2,-1.154297 V 41.72075 L 21,40.5645 v -6.509765 z"/>
 <path style="fill:#ba2c00" d="m 26,33.613787 -2,1.154297 v 2.251369 l 2,1.15625 2,1.154297 2,-1.154297 v -2.251369 l -2,-1.15625 z"/>
 <path style="fill:#ff7900" d="m 26,33.613203 -2,1.154297 2,1.15625 2,1.154297 2,-1.154297 -2,-1.15625 z"/>
 <path style="fill:#ff4200" d="m 26,27.103697 2,1.1547 v 6.509686 l -2,1.154701 -2,-1.154701 v -6.509686 z"/>
 <path style="fill:#ff4200" d="m 28,39.33 2,-1.154297 V 35.92375 l -2,1.154297 z"/>
 <path style="fill:#ba2c00" d="m 26,27.103697 v 8.819087 l -2,-1.154701 v -6.509686 z"/>
 <path style="fill:#ba2c00" d="m 19,38.41074 -2,1.154297 v 2.251369 l 2,1.15625 2,1.154297 2,-1.154297 v -2.251369 l -2,-1.15625 z"/>
 <path style="fill:#ff4200" d="m 21,44.126953 2,-1.154297 V 40.720703 L 21,41.875 Z"/>
 <path style="fill:#ff7900" d="M 19 38.410156 L 17 39.564453 L 19 40.720703 L 21 41.875 L 23 40.720703 L 21 39.564453 L 19 38.410156 z"/>
 <path style="fill:#ff4200" d="m 19,31.90065 2,1.1547 v 6.509686 l -2,1.154701 -2,-1.154701 V 33.05535 Z"/>
 <path style="fill:#ba2c00" d="m 19,31.90065 v 8.819087 L 17,39.565036 V 33.05535 Z"/>
 <path style="opacity:0.2" d="M 20,9.6421881 32,16.570391 32,30.426798 20,37.355 8,30.426797 l 4e-7,-13.856406 z"/>
 <path style="fill:#ffce00" d="M 20,8.6421881 32,15.570391 32,29.426798 20,36.355 8,29.426797 l 4e-7,-13.856406 z"/>
 <path style="fill:#ff6700" d="M 8,15.569599 V 29.42702 l 12,6.927735 V 22.499286 Z"/>
 <path style="opacity:0.2" d="m 27,4.5089912 10,5.7735028 -10e-7,11.547005 L 27,27.603001 17,21.829498 l 1e-6,-11.547005 z"/>
 <path style="fill:#ffc200" d="M 20,8.6418633 8,15.569599 20,22.499286 32,15.569599 Z"/>
 <path style="opacity:0.2" d="m 12,5.0403957 4,2.3094012 0,4.6188021 -4,2.309401 -4,-2.309401 10e-8,-4.6188023 z"/>
 <path style="fill:#ff9e02" d="m 12,4.040473 4,2.3094011 0,4.6188019 -4,2.309401 -4,-2.309401 10e-8,-4.6188021 z"/>
 <path style="fill:#ff9e02" d="M 27,3.5085487 37,9.2820514 36.999999,20.829056 27,26.602558 17,20.829056 l 1e-6,-11.5470052 z"/>
 <path style="opacity:0.2" d="m 35,22 -6,1 v 2 l 6,3 6,-3 v -2 z"/>
 <path style="fill:#ba2c00" transform="matrix(0.89442719,0.44721359,-0.89442719,0.44721359,0,0)" d="m 43.044312,3.9131148 6.708204,6.7082042 H 43.044312 L 40.808239,8.3852558 Z"/>
 <path style="fill:#ff7900" d="m 35.000007,20.999999 v 6 l 6,-3 9e-6,-2 z"/>
 <rect style="fill:#ff4200" width="6.708" height="6.708" x="40.81" y="1.68" transform="matrix(0.89442719,0.44721359,-0.89442719,0.44721359,0,0)"/>
 <path style="fill:#3f3f3f" d="m 29,17.8 2,-1.2 v 2.7 l -2,1.2 z"/>
 <path style="fill:#ff6700" d="m 17,9.28125 v 11.546875 l 10,5.775391 V 15.054688 Z"/>
 <path style="fill:#ffc200" d="M 27 3.5078125 L 17 9.28125 L 27 15.054688 L 37 9.28125 L 27 3.5078125 z"/>
 <path style="fill:#3f3f3f" d="m 33,15.553 2,-1.2 v 2.7 l -2,1.2 z"/>
 <path style="fill:#ff6700" d="M 8,6.3496094 V 10.96875 l 4,2.308594 c 0,7.33e-4 0,-4.6171878 0,-4.6171878 z"/>
 <path style="fill:#ffc200" d="M 12 4.0410156 L 8 6.3496094 L 12 8.6601562 L 16 6.3496094 L 12 4.0410156 z"/>
 <path style="opacity:0.2;fill:#f4f4f7" d="M 27 3.5078125 L 17 9.28125 L 17.865234 9.78125 L 27 4.5078125 L 36.134766 9.78125 L 37 9.28125 L 27 3.5078125 z"/>
 <path style="opacity:0.2;fill:#f4f4f7" d="M 12 4.0410156 L 8 6.3496094 L 8.8652344 6.8496094 L 12 5.0410156 L 15.134766 6.8496094 L 16 6.3496094 L 12 4.0410156 z"/>
</svg>
