<svg xmlns="http://www.w3.org/2000/svg" width="48" height="48" version="1.1">
 <path style="opacity:0.2" d="M 24.000632,6 C 12.450392,6 3.0012894,15.4497 3.0012892,27.0007 c -0.00508,1.7007 0,3.0001 0.1074186,4.9026 0.3044778,4.7956 3.2413902,8.2155 5.8845815,9.8733 2.7019367,1.6948 5.3565777,2.1464 5.3689717,2.1486 3.070187,0.5579 5.640391,-2.0987 5.638496,-4.8049 v -15.2369 0 c 2.95e-4,-1.7469 -1.052243,-3.4432 -2.656167,-4.2951 1.774266,-1.5982 4.092841,-2.5794 6.654089,-2.584 2.564367,0 4.885376,0.9828 6.661901,2.5821 -1.606197,0.8511 -2.660453,2.5487 -2.660073,4.297 v 15.2408 c -0.0019,2.7062 2.568308,5.3628 5.638495,4.8048 0.0014,-2e-4 0.0025,3e-4 0.0039,0 0.01818,0 2.666091,-0.4556 5.365066,-2.1485 2.646565,-1.66 5.588608,-5.0856 5.886535,-9.891 C 44.999975,30.0008 45,28.6491 45,27.0007 44.999975,15.4497 35.550872,6 24.000632,6 Z"/>
 <path style="fill:#b2bfd9" d="M 24.000632,5 C 12.450392,5 3.0012894,14.4497 3.0012892,26.0007 c -0.00508,1.7007 0,3.0001 0.1074186,4.9026 0.3044778,4.7956 3.2413902,8.2155 5.8845815,9.8733 2.7019367,1.6948 5.3565777,2.1464 5.3689717,2.1486 3.070187,0.5579 5.640391,-2.0987 5.638496,-4.8049 v -15.2369 0 c 2.95e-4,-1.7469 -1.052243,-3.4432 -2.656167,-4.2951 1.774266,-1.5982 4.092841,-2.5794 6.654089,-2.584 2.564367,0 4.885376,0.9828 6.661901,2.5821 -1.606197,0.8511 -2.660453,2.5487 -2.660073,4.297 v 15.2408 c -0.0019,2.7062 2.568308,5.3628 5.638495,4.8048 0.0014,-2e-4 0.0025,3e-4 0.0039,0 0.01818,0 2.666091,-0.4556 5.365066,-2.1485 2.646565,-1.66 5.588608,-5.0856 5.886535,-9.891 C 44.999975,29.0008 45,27.6491 45,26.0007 44.999975,14.4497 35.550872,5 24.000632,5 Z"/>
 <path style="opacity:0.1" d="M 24,10 A 17,17 0 0 0 7,27 v 4 H 7.00586 C 7.00481,31.062 6.99977,31.1221 7,31.1855 c 0.013569,3.6597 2.1268998,5.9529 4.117188,7.2012 1.990287,1.2483 3.958984,1.6016 3.958984,1.6016 A 0.79435527,0.87825159 0 0 0 16,39.1211 V 23.8789 A 0.79435527,0.87825159 0 0 0 15.183594,23 a 0.79435527,0.87825159 0 0 0 -0.04492,0 c 0,0 -1.985105,0.1805 -3.996094,1.2656 -0.322035,0.1738 -0.64535,0.3861 -0.964844,0.6172 A 14,14 0 0 1 24,13 14,14 0 0 1 37.830078,24.8906 c -0.322006,-0.2335 -0.647988,-0.4479 -0.972656,-0.623 -2.010989,-1.0851 -3.996094,-1.2657 -3.996094,-1.2657 a 0.79435516,0.87825158 0 0 0 -0.04492,0 A 0.79435516,0.87825158 0 0 0 32,23.8789 v 15.2422 a 0.79435516,0.87825158 0 0 0 0.923828,0.8672 c 0,0 1.968702,-0.3533 3.958984,-1.6016 C 38.8731,37.1384 40.98643,34.8452 41,31.1855 41.000235,31.1225 40.9952,31.0625 40.9941,31 H 41 V 27 A 17,17 0 0 0 24,10 Z"/>
 <path style="opacity:0.2;fill:#f4f4f7" d="M 24,5 C 12.44976,5 3.0019533,14.449 3.0019531,26 c -8.953e-4,0.2997 0.00367,0.5576 0.00391,0.8379 C 3.0942361,15.3611 12.504129,6 24,6 c 11.488015,0 20.895019,9.3484 20.996094,20.8145 5.46e-4,-0.2716 0.0039,-0.5295 0.0039,-0.8145 -2.5e-5,-11.551 -9.44976,-21 -21,-21 z m 5.984375,14.0234 C 28.768167,19.9474 27.999677,21.3919 28,22.8789 v 1 c -3.8e-4,-1.7484 1.053959,-3.4457 2.660156,-4.2969 -0.217231,-0.1955 -0.442818,-0.3822 -0.675781,-0.5586 z m -11.962891,0 C 17.788033,19.2002 17.56138,19.386 17.34375,19.582 18.947674,20.4339 20.000295,22.1301 20,23.877 v -0.9961 0 c 2.51e-4,-1.4856 -0.764351,-2.9294 -1.978516,-3.8536 z"/>
 <path style="fill:#4f4f4f" d="M 24,9 C 14.611159,9 7,16.611159 7,26 v 4 H 7.00586 C 7.0048094,30.062 6.99977,30.122147 7,30.185547 c 0.013569,3.6597 2.7890085,0.08178 4.779297,1.330078 1.990287,1.2483 1.6875,2.974609 1.6875,2.974609 0.484097,0.08842 1.254293,0.479983 1.253906,-0.0625 L 13.916016,25.625 c 2.55e-4,-0.251543 -0.03459,-0.427118 -0.126954,-0.539062 0.08616,-0.222777 0.164153,-0.406345 0.259766,-0.671876 0,0 -0.199477,0.195158 -0.654297,0.527344 -0.02106,-4.5e-4 -0.03399,-0.0066 -0.05664,-0.0059 -0.01057,0.02252 -0.01703,0.04019 -0.02734,0.0625 -0.442093,0.318143 -1.084874,0.742511 -2.025391,1.25 -0.322035,0.1738 -1.024255,-0.986959 -1.3437498,-0.755859 C 9.9815322,25.22989 10.264222,23.360288 10.318363,23.103475 11.673926,16.67341 17.357203,12.007934 24,12 c 6.642797,0.0079 12.326074,4.67341 13.681641,11.103516 0.05414,0.256813 0.336833,2.126415 0.376953,2.388672 -0.319494,-0.2311 -1.021715,0.929659 -1.34375,0.755859 -0.940517,-0.507489 -1.583298,-0.931857 -2.025391,-1.25 -0.01031,-0.02231 -0.01677,-0.03998 -0.02734,-0.0625 -0.02265,-6.96e-4 -0.03558,0.0054 -0.05664,0.0059 -0.45482,-0.332186 -0.654297,-0.527344 -0.654297,-0.527344 0.09561,0.265531 0.17361,0.449099 0.259766,0.671876 -0.09237,0.111944 -0.127209,0.287519 -0.126954,0.539062 l -0.804687,8.802734 c -3.87e-4,0.542483 0.769809,0.15092 1.253906,0.0625 0,0 -0.302787,-1.726309 1.6875,-2.974609 C 38.210991,30.267327 40.98643,33.845247 41,30.185547 41.0002,30.122147 40.995141,30.062 40.994141,30 H 41 V 26 C 41,16.611159 33.388841,9 24,9 Z"/>
 <path style="fill:#e91e63" d="m 15.074219,22.011719 c 0,0 -1.97522,0.353262 -3.970703,1.601562 C 9.1679603,24.82409 7.1339045,27.029551 7,30.5 c 0.1339045,3.470449 2.1679603,5.67591 4.103516,6.886719 1.995483,1.2483 3.970703,1.601562 3.970703,1.601562 C 15.559574,39.076701 16.00038,38.663568 16,38.121094 V 30.5 22.878906 c 3.81e-4,-0.542474 -0.440425,-0.955606 -0.925781,-0.867187 z m 17.851562,0 C 32.440425,21.9233 31.999619,22.336432 32,22.878906 V 30.5 38.121094 c -3.8e-4,0.542474 0.440426,0.955607 0.925781,0.867187 0,0 1.97522,-0.353262 3.970703,-1.601562 C 38.832039,36.17591 40.866095,33.970449 41,30.5 c -0.133905,-3.470449 -2.167961,-5.67591 -4.103516,-6.886719 -1.995483,-1.2483 -3.970703,-1.601562 -3.970703,-1.601562 z"/>
</svg>
