<svg xmlns="http://www.w3.org/2000/svg" width="48" height="48" version="1.1">
 <path style="opacity:0.2" d="M 24,5 A 20,20 0 0 0 4,25 20,20 0 0 0 24,45 20,20 0 0 0 44,25 20,20 0 0 0 24,5 Z"/>
 <path style="fill:#3f3f3f" d="m24 4a20 20 0 0 0 -20 20 20 20 0 0 0 20 20 20 20 0 0 0 20 -20 20 20 0 0 0 -20 -20z"/>
 <path fill="#f4f4f7" style="opacity:0.1" d="m24 4a20 20 0 0 0 -19.859 17.852 20 19 0 0 1 19.859 -16.852 20 19 0 0 1 19.922 17.447 20 20 0 0 0 -19.922 -18.447zm19.922 18.447a20 20 0 0 1 0.078 1.553 20 19 0 0 0 -0.078 -1.553zm-39.781-0.595a20 19 0 0 0 -0.0488 0.392 20 20 0 0 1 0.0488 -0.392zm-0.0488 0.392a20 20 0 0 0 -0.0918 1.756 20 19 0 0 1 0.0918 -1.756z"/>
 <path style="opacity:0.2;fill:none;stroke:#000000;stroke-width:3" d="m 28.5,27 2e-6,1.5 -2,2 h -5 l -2,-2 v -8 l 2,-2 h 5 l 2,2 0.04334,4 h -8.186726"/>
 <path style="fill:none;stroke:#eaeaeb;stroke-width:3" d="m 28.5,26 2e-6,1.5 -2,2 h -5 l -2,-2 v -8 l 2,-2 h 5 l 2,2 0.04334,4 h -8.186726"/>
 <path style="opacity:0.2;fill:none;stroke:#000000;stroke-width:2" d="M 13,14 V 36 H 35 V 14 Z"/>
 <path style="fill:none;stroke:#eaeaeb;stroke-width:2" d="M 13,13 V 35 H 35 V 13 Z"/>
</svg>
