<svg xmlns="http://www.w3.org/2000/svg" width="48" height="48" version="1">
 <rect style="opacity:0.2" width="40" height="40" x="4" y="5" rx="20" ry="20"/>
 <rect style="fill:#2869b6" width="40" height="40" x="4" y="4" rx="20" ry="20"/>
 <path style="opacity:0.2" d="m 24,5.000391 c -2.900585,0 -5.645657,0.623282 -8.128906,1.7246094 L 19,9.000391 v 2.666016 l 2.333984,2.333984 H 23 V 12.69961 l 2,-1.699219 V 9.6664066 L 26,8.3343754 V 5.1000004 C 25.342322,5.0352709 24.675253,5.000391 24,5.000391 Z m -13.224609,5 C 6.9262552,13.393854 4.3916668,18.237565 4.0449219,23.705469 L 11,29.666407 v -2 L 9.3339844,26.334375 11.333984,24.033594 h 1.332032 L 14,25.365625 l 0.04102,-2.5 L 16,21.000391 h 1 v -1.333984 l 2,-1.332032 v -2 L 17.242188,15.041407 14,15.000391 v 3 H 12.666016 L 11,16.334375 v -1.333984 l 2.333984,-2 H 15 v -1.333984 l -1,-1.666016 z m 23.224609,1 -2,2 v 1.033203 h 2 v -1.013672 h 1.033203 v 2.322266 l -0.667969,0.658203 H 31 v 1 h -1 v 2 h -3 v 2.966797 h 4 v -0.933594 h 2 v 0.666016 l 1.666016,1.333984 H 35 V 22.365625 L 34.666016,21.69961 V 21.033594 H 36 l 2,1.966797 h 2 v 0.300781 l -0.666016,0.699219 H 38 l 5.544922,5.236328 C 43.837452,27.871082 44,26.4559 44,25.000391 c 0,-5.464559 -2.176667,-10.397175 -5.705078,-14 h -3.628906 z m 4,13 h -4 l -1,-1 H 28.666016 L 26,25.666407 v 2.667968 l 2.666016,2.666016 h 2 L 32,32.334375 v 0.666016 l 1,0.666016 v 4 l 3.052734,3.289062 C 37.548805,39.825493 38.875551,38.493066 40,36.992579 v -4.658204 l 1,-1.333984 v -2.666016 l -3,-3.033203 z m -25,5 -1.666016,1.333984 v 3.332032 l 2.707032,2.714843 -0.02734,5.947266 C 14.962125,42.874547 15.96065,43.338261 17,43.725 v -1.390625 l 2,-2 v -1.333984 l 2,-2 v -1.333984 l 1,-1.332032 v -2.96875 L 20.666016,30.033594 H 18 l -1.333984,-1.033203 z"/>
 <path style="fill:#659cdb" d="M 24 4 C 21.099415 4 18.354343 4.623282 15.871094 5.7246094 L 19 8 L 19 10.666016 L 21.333984 13 L 23 13 L 23 11.699219 L 25 10 L 25 8.6660156 L 26 7.3339844 L 26 4.0996094 C 25.342322 4.0348799 24.675253 4 24 4 z M 10.775391 9 C 6.9262552 12.393463 4.3916668 17.237174 4.0449219 22.705078 L 11 28.666016 L 11 26.666016 L 9.3339844 25.333984 L 11.333984 23.033203 L 12.666016 23.033203 L 14 24.365234 L 14.041016 21.865234 L 16 20 L 17 20 L 17 18.666016 L 19 17.333984 L 19 15.333984 L 17.242188 14.041016 L 14 14 L 14 17 L 12.666016 17 L 11 15.333984 L 11 14 L 13.333984 12 L 15 12 L 15 10.666016 L 14 9 L 10.775391 9 z M 34 10 L 32 12 L 32 13.033203 L 34 13.033203 L 34 12.019531 L 35.033203 12.019531 L 35.033203 14.341797 L 34.365234 15 L 31 15 L 31 16 L 30 16 L 30 18 L 27 18 L 27 20.966797 L 31 20.966797 L 31 20.033203 L 33 20.033203 L 33 20.699219 L 34.666016 22.033203 L 35 22.033203 L 35 21.365234 L 34.666016 20.699219 L 34.666016 20.033203 L 36 20.033203 L 38 22 L 40 22 L 40 22.300781 L 39.333984 23 L 38 23 L 43.544922 28.236328 C 43.837452 26.870691 44 25.455509 44 24 C 44 18.535441 41.823333 13.602825 38.294922 10 L 34.666016 10 L 34 10 z M 38 23 L 34 23 L 33 22 L 28.666016 22 L 26 24.666016 L 26 27.333984 L 28.666016 30 L 30.666016 30 L 32 31.333984 L 32 32 L 33 32.666016 L 33 36.666016 L 36.052734 39.955078 C 37.548805 38.825102 38.875551 37.492675 40 35.992188 L 40 31.333984 L 41 30 L 41 27.333984 L 38 24.300781 L 38 23 z M 13 28 L 11.333984 29.333984 L 11.333984 32.666016 L 14.041016 35.380859 L 14.013672 41.328125 C 14.962125 41.874156 15.96065 42.33787 17 42.724609 L 17 41.333984 L 19 39.333984 L 19 38 L 21 36 L 21 34.666016 L 22 33.333984 L 22 30.365234 L 20.666016 29.033203 L 18 29.033203 L 16.666016 28 L 13 28 z"/>
 <path style="opacity:0.2;fill:#f4f4f7" d="M 24 4 C 21.099415 4 18.354343 4.623282 15.871094 5.7246094 L 16.748047 6.3613281 C 18.995234 5.4879113 21.436486 5 24 5 C 24.675253 5 25.342322 5.0348799 26 5.0996094 L 26 4.0996094 C 25.342322 4.0348799 24.675253 4 24 4 z M 10.775391 9 C 6.9262548 12.393463 4.3916668 17.237174 4.0449219 22.705078 L 4.1269531 22.775391 C 4.6868043 17.689466 7.146046 13.199691 10.775391 10 L 14 10 L 15 11.666016 L 15 10.666016 L 14 9 L 10.775391 9 z M 34 10 L 32 12 L 32 13 L 34 11 L 34.666016 11 L 38.294922 11 C 41.710738 14.487856 43.852656 19.223941 43.986328 24.480469 C 43.990276 24.320179 44 24.161292 44 24 C 44 18.535441 41.823333 13.602825 38.294922 10 L 34.666016 10 L 34 10 z M 14 14 L 14 15 L 17.242188 15.041016 L 19 16.333984 L 19 15.333984 L 17.242188 14.041016 L 14 14 z M 35.033203 14.341797 L 34.365234 15 L 31 15 L 31 16 L 34.365234 16 L 35.033203 15.341797 L 35.033203 14.341797 z M 31 16 L 30 16 L 30 17 L 31 17 L 31 16 z M 11 15.333984 L 11 16.333984 L 12.666016 18 L 14 18 L 14 17 L 12.666016 17 L 11 15.333984 z M 27 18 L 27 19 L 30 19 L 30 18 L 27 18 z M 34.666016 21.033203 L 34.666016 21.699219 L 34.833984 22.033203 L 35 22.033203 L 35 21.365234 L 34.833984 21.033203 L 34.666016 21.033203 z M 28.666016 22 L 26 24.666016 L 26 25.666016 L 28.666016 23 L 33 23 L 34 24 L 38 24 L 38 23 L 35 23 L 35 23.033203 L 34.666016 23.033203 L 34.625 23 L 34 23 L 33 22 L 28.666016 22 z M 38 23 L 39.058594 24 L 39.333984 24 L 40 23.300781 L 40 23 L 39.333984 23 L 38 23 z M 38 24.300781 L 38 25.300781 L 41 28.333984 L 41 27.333984 L 38 24.300781 z M 9.8476562 25.744141 L 9.3339844 26.333984 L 11 27.666016 L 11 26.666016 L 9.8476562 25.744141 z M 13 28 L 11.333984 29.333984 L 11.333984 30.333984 L 13 29 L 16.666016 29 L 18 30.033203 L 20.666016 30.033203 L 22 31.365234 L 22 30.365234 L 20.666016 29.033203 L 18 29.033203 L 16.666016 28 L 13 28 z M 14.037109 36.376953 L 14.013672 41.328125 C 14.014931 41.32885 14.016318 41.329353 14.017578 41.330078 L 14.041016 36.380859 L 14.037109 36.376953 z"/>
 <path style="fill:#f4f4f7;opacity:0.1" d="M 24 4 C 12.92 4 4 12.92 4 24 C 4 24.167874 4.007647 24.333141 4.0117188 24.5 C 4.2763904 13.653863 13.087874 5 24 5 C 34.912126 5 43.72361 13.653863 43.988281 24.5 C 43.992353 24.333141 44 24.167874 44 24 C 44 12.92 35.08 4 24 4 z"/>
 <path style="opacity:0.2" d="m 18.170043,25.000268 c -0.192026,0.0045 -0.376154,0.07582 -0.519451,0.201162 L 5.2716443,35.045147 c -0.5138261,0.448779 -0.2575864,1.281349 0.4237628,1.376883 l 4.8000399,0.6777 -2.2496526,3.89629 c -0.5027322,0.870848 -0.2048449,1.97756 0.6659128,2.480343 l 0.4823474,0.279283 c 0.8707574,0.502785 1.9773534,0.204867 2.4800854,-0.665981 l 2.335577,-4.046672 3.423299,2.775251 c 0.527017,0.428726 1.325308,0.06188 1.325967,-0.609345 l 0.04101,-15.413749 c 0.0013,-0.446779 -0.374189,-0.806375 -0.829954,-0.794882 z"/>
 <path style="fill:#f4f4f7" d="m 18.170043,24.000493 c -0.192026,0.0045 -0.376154,0.07582 -0.519451,0.201162 L 5.2716443,34.045372 c -0.5138261,0.448779 -0.2575864,1.281349 0.4237628,1.376883 l 4.8000399,0.6777 -2.2496526,3.89629 c -0.5027322,0.870848 -0.2048449,1.97756 0.6659128,2.480343 l 0.4823474,0.279283 c 0.8707574,0.502785 1.9773534,0.204867 2.4800854,-0.665981 l 2.335577,-4.046672 3.423299,2.775251 c 0.527017,0.428726 1.325308,0.06188 1.325967,-0.609345 l 0.04101,-15.413749 c 0.0013,-0.446779 -0.374189,-0.806375 -0.829954,-0.794882 z"/>
</svg>
