<svg xmlns="http://www.w3.org/2000/svg" width="48" height="48" version="1">
 <path style="opacity:0.2;fill-rule:evenodd" d="M 8,4.9997362 A 4.0004,4.0004 0 0 0 4.2167969,10.300517 l 11.0000001,32 a 4.0004,4.0004 0 0 0 6.724609,1.410157 l 14.394532,-15.625 a 4.0004,4.0004 0 0 0 0.767578,-1.214844 l 6.605468,-16.375 A 4.0004,4.0004 0 0 0 40,4.9997362 l -15.341797,0 -16.658203,0 z"/>
 <path style="fill:#4f4f4f;fill-rule:evenodd" d="M 8 4 A 4.0004 4.0004 0 0 0 4.2167969 9.3007812 L 15.216797 41.300781 A 4.0004 4.0004 0 0 0 21.941406 42.710938 L 36.335938 27.085938 A 4.0004 4.0004 0 0 0 37.103516 25.871094 L 43.708984 9.4960938 A 4.0004 4.0004 0 0 0 40 4 L 24.658203 4 L 8 4 z"/>
 <path style="opacity:0.2" d="M 8,8.9999995 C 8.4717066,10.606787 17.797964,37.517599 19.083984,40.999999 L 23,36.722655 23,8.9999995 l -15,0 z m 19.417969,0 c -0.06598,0.6629739 -0.395175,5.6513235 -0.769531,11.6601555 -0.398473,6.396267 -0.759998,12.02223 -0.802735,12.501953 -0.0184,0.206133 -0.02711,0.363172 -0.0293,0.488282 l 2.638672,-2.88086 c 0.808183,-3.426176 4.320178,-19.947061 4.621094,-21.7695305 l -5.658203,0 z m 7.222656,0 C 34.228814,10.558226 30.217436,27.063847 29.671875,29.439452 L 31.144531,27.83203 C 32.26639,24.55635 36.678919,10.719433 37.142578,8.9999995 l -2.501953,0 z m 3.777344,0 C 37.896786,10.290716 32.98062,24.609013 32.431641,26.427733 l 0.96289,-1.052734 C 34.905303,21.872621 39.609225,10.246339 40,8.9999995 l -1.582031,0 z"/>
 <path style="fill:#feab07" d="M 8 8 C 8.4717066 9.6067872 17.797964 36.5176 19.083984 40 L 23 35.722656 L 23 8 L 8 8 z M 27.417969 8 C 27.351989 8.6629739 27.022794 13.651324 26.648438 19.660156 C 26.249965 26.056423 25.88844 31.682386 25.845703 32.162109 C 25.827303 32.368242 25.818596 32.525281 25.816406 32.650391 L 28.455078 29.769531 C 29.263261 26.343355 32.775256 9.8224694 33.076172 8 L 27.417969 8 z M 34.640625 8 C 34.228814 9.5582262 30.217436 26.063848 29.671875 28.439453 L 31.144531 26.832031 C 32.26639 23.556351 36.678919 9.7194336 37.142578 8 L 34.640625 8 z M 38.417969 8 C 37.896786 9.2907168 32.98062 23.609014 32.431641 25.427734 L 33.394531 24.375 C 34.905303 20.872622 39.609225 9.2463392 40 8 L 38.417969 8 z"/>
 <path style="fill:#f4f4f7;opacity:0.2" d="M 8 8 C 8.0227366 8.0774482 8.2759024 8.8104311 8.3378906 9 L 23 9 L 23 8 L 8 8 z M 27.417969 8 C 27.351989 8.6629739 27.022794 13.651324 26.648438 19.660156 C 26.249965 26.056423 25.88844 31.682386 25.845703 32.162109 C 25.827303 32.368242 25.818596 32.525281 25.816406 32.650391 L 25.882812 32.578125 C 25.951357 31.671611 26.268577 26.757657 26.648438 20.660156 C 27.022794 14.651324 27.351989 9.6629739 27.417969 9 L 32.876953 9 C 32.924993 8.7501672 33.055781 8.1234959 33.076172 8 L 27.417969 8 z M 34.640625 8 C 34.228814 9.5582262 30.217436 26.063848 29.671875 28.439453 L 30.001953 28.078125 C 30.912798 24.224475 34.256238 10.454459 34.640625 9 L 36.837891 9 C 36.918625 8.7293491 37.106426 8.1340657 37.142578 8 L 34.640625 8 z M 38.417969 8 C 37.896786 9.2907168 32.98062 23.609014 32.431641 25.427734 L 32.964844 24.84375 C 34.109145 21.346337 37.943096 10.17603 38.417969 9 L 39.621094 9 C 39.732258 8.7033693 39.962318 8.1201838 40 8 L 38.417969 8 z"/>
 <path style="opacity:0.1;fill:#f4f4f7;fill-rule:evenodd" d="M 8 4 A 4.0004 4.0004 0 0 0 4.0332031 8.5195312 A 4.0004 4.0004 0 0 1 8 5 L 24.658203 5 L 40 5 A 4.0004 4.0004 0 0 1 43.964844 8.4824219 A 4.0004 4.0004 0 0 0 40 4 L 24.658203 4 L 8 4 z"/>
</svg>
