<svg xmlns="http://www.w3.org/2000/svg" width="48" height="48" version="1">
 <rect fill="#4f4f4f" width="40" height="40" x="4" y="4" rx="2" ry="2"/>
 <path fill="#fff" opacity=".1" d="m6 4c-1.108 0-2 0.892-2 2v1c0-1.108 0.892-2 2-2h36c1.108 0 2 0.892 2 2v-1c0-1.108-0.892-2-2-2h-36z"/>
 <path opacity=".2" d="m6 45c-1.108 0-2-0.892-2-2v-1c0 1.108 0.892 2 2 2h36c1.108 0 2-0.892 2-2v1c0 1.108-0.892 2-2 2h-36z"/>
 <path style="opacity:0.2" d="m 10,11 v 6 2 h 6 v -2 h 22 v -6 z m 0,11 v 6 h 28 v -6 z m 0,9 v 2 6 H 38 V 33 H 16 v -2 z"/>
 <path style="fill:#f4f4f7" d="M 10 10 L 10 16 L 10 18 L 16 18 L 16 16 L 38 16 L 38 10 L 10 10 z M 10 21 L 10 27 L 38 27 L 38 21 L 10 21 z M 10 30 L 10 32 L 10 38 L 38 38 L 38 32 L 16 32 L 16 30 L 10 30 z"/>
</svg>
