<svg xmlns="http://www.w3.org/2000/svg" width="48" height="48" version="1">
 <rect style="opacity:0.2" width="40" height="40" x="4" y="5" rx="3" ry="3"/>
 <rect style="fill:#b2bfd9" width="40" height="40" x="4" y="4" rx="3" ry="3"/>
 <path style="opacity:0.2;fill:#f4f4f7" d="M 7,4 C 5.338,4 4,5.338 4,7 V 8 C 4,6.338 5.338,5 7,5 h 34 c 1.662,0 3,1.338 3,3 V 7 C 44,5.338 42.662,4 41,4 Z"/>
 <path style="opacity:0.1" d="m 10.033203,11.003348 c -0.091829,0.02879 0.0038,0.241755 0.332031,0.625614 1.248204,1.459579 1.713969,2.623087 2.205078,5.517127 0.630358,3.714635 1.515619,5.479198 3.091797,6.158381 0.4317,0.186017 1.628439,0.314118 2.824219,0.428154 1.742694,0.166201 2.457672,0.345564 3.181641,0.793747 0.518842,0.321191 0.518842,0.630908 0,0.952104 -0.703686,0.435621 -1.406196,0.617751 -2.863281,0.742916 -1.933226,0.166065 -3.07037,0.315367 -3.726563,0.750736 -1.249318,0.828882 -1.99792,2.620751 -2.613281,6.254178 -0.417116,2.462845 -0.743004,3.304328 -1.830078,4.742931 -0.336437,0.445228 -0.611328,0.861292 -0.611328,0.924734 -2e-6,0.223428 0.238889,0.110069 1.039062,-0.496581 1.475603,-1.118732 2.211291,-1.393789 5.041016,-1.884659 3.176086,-0.550945 5.151661,-1.375968 5.890625,-2.457487 0.448604,-0.656552 0.650412,-1.857245 0.794921,-3.571862 0.131084,-1.555294 0.335485,-2.355573 0.775391,-3.036179 C 23.720596,27.20563 23.86062,27.087294 24,27.071834 c 0.13938,0.01546 0.279404,0.133796 0.435547,0.375368 0.439906,0.680606 0.644307,1.480885 0.775391,3.036179 0.144509,1.714617 0.346317,2.91531 0.794921,3.571862 0.738964,1.081519 2.714539,1.906542 5.890625,2.457487 2.829725,0.49087 3.565413,0.765927 5.041016,1.884659 0.800173,0.60665 1.039063,0.720009 1.039062,0.496581 0,-0.06344 -0.274891,-0.479506 -0.611328,-0.924734 -1.087074,-1.438603 -1.412962,-2.280086 -1.830078,-4.742931 -0.615361,-3.633427 -1.363963,-5.425296 -2.613281,-6.254178 -0.656193,-0.435369 -1.793337,-0.584671 -3.726563,-0.750736 -1.457085,-0.125165 -2.159595,-0.307295 -2.863281,-0.742916 -0.518842,-0.321196 -0.518842,-0.630913 0,-0.952104 0.723969,-0.448183 1.438947,-0.627546 3.181641,-0.793747 1.19578,-0.114036 2.392519,-0.242137 2.824219,-0.428154 1.576178,-0.679183 2.46144,-2.443746 3.091797,-6.158381 0.491109,-2.89404 0.956874,-4.057548 2.205078,-5.517127 0.328231,-0.383859 0.423861,-0.596825 0.332031,-0.625614 -0.09183,-0.02879 -0.37245,0.127844 -0.798828,0.480941 -0.671238,0.555874 -2.176009,1.369133 -2.900391,1.567943 -0.267528,0.07343 -1.307304,0.27685 -2.310547,0.451615 -3.783992,0.659168 -5.620515,1.549772 -6.28125,3.045954 -0.134833,0.305319 -0.283872,1.068125 -0.357422,1.837739 -0.187533,1.962302 -0.424619,3.537032 -0.80664,4.142733 -0.197316,0.312854 -0.359034,0.47592 -0.511719,0.502446 -0.152685,-0.02653 -0.314403,-0.189592 -0.511719,-0.502446 -0.382021,-0.605701 -0.619107,-2.180431 -0.80664,-4.142733 -0.07355,-0.769614 -0.222589,-1.53242 -0.357422,-1.837739 -0.660735,-1.496182 -2.497258,-2.386786 -6.28125,-3.045954 -1.003243,-0.174765 -2.043019,-0.378183 -2.310547,-0.451615 -0.724382,-0.19881 -2.229153,-1.012069 -2.900391,-1.567943 -0.426378,-0.353097 -0.706998,-0.509734 -0.798828,-0.480941 z"/>
 <path style="fill:#32434a" d="m 10.033203,10.003348 c -0.091829,0.02879 0.0038,0.241755 0.332031,0.625614 1.248204,1.459579 1.713969,2.623087 2.205078,5.517127 0.630358,3.714635 1.515619,5.479198 3.091797,6.158381 0.4317,0.186017 1.628439,0.314118 2.824219,0.428154 1.742694,0.166201 2.457672,0.345564 3.181641,0.793747 0.518842,0.321191 0.518842,0.630908 0,0.952104 -0.703686,0.435621 -1.406196,0.617751 -2.863281,0.742916 -1.933226,0.166065 -3.07037,0.315367 -3.726563,0.750736 -1.249318,0.828882 -1.99792,2.620751 -2.613281,6.254178 -0.417116,2.462845 -0.743004,3.304328 -1.830078,4.742931 -0.336437,0.445228 -0.611328,0.861292 -0.611328,0.924734 -2e-6,0.223428 0.238889,0.110069 1.039062,-0.496581 1.475603,-1.118732 2.211291,-1.393789 5.041016,-1.884659 3.176086,-0.550945 5.151661,-1.375968 5.890625,-2.457487 0.448604,-0.656552 0.650412,-1.857245 0.794921,-3.571862 0.131084,-1.555294 0.335485,-2.355573 0.775391,-3.036179 C 23.720596,26.20563 23.86062,26.087294 24,26.071834 c 0.13938,0.01546 0.279404,0.133796 0.435547,0.375368 0.439906,0.680606 0.644307,1.480885 0.775391,3.036179 0.144509,1.714617 0.346317,2.91531 0.794921,3.571862 0.738964,1.081519 2.714539,1.906542 5.890625,2.457487 2.829725,0.49087 3.565413,0.765927 5.041016,1.884659 0.800173,0.60665 1.039063,0.720009 1.039062,0.496581 0,-0.06344 -0.274891,-0.479506 -0.611328,-0.924734 -1.087074,-1.438603 -1.412962,-2.280086 -1.830078,-4.742931 -0.615361,-3.633427 -1.363963,-5.425296 -2.613281,-6.254178 -0.656193,-0.435369 -1.793337,-0.584671 -3.726563,-0.750736 -1.457085,-0.125165 -2.159595,-0.307295 -2.863281,-0.742916 -0.518842,-0.321196 -0.518842,-0.630913 0,-0.952104 0.723969,-0.448183 1.438947,-0.627546 3.181641,-0.793747 1.19578,-0.114036 2.392519,-0.242137 2.824219,-0.428154 1.576178,-0.679183 2.46144,-2.443746 3.091797,-6.158381 0.491109,-2.89404 0.956874,-4.057548 2.205078,-5.517127 0.328231,-0.383859 0.423861,-0.596825 0.332031,-0.625614 -0.09183,-0.028793 -0.37245,0.127844 -0.798828,0.480941 -0.671238,0.555874 -2.176009,1.369133 -2.900391,1.567943 -0.267528,0.07343 -1.307304,0.27685 -2.310547,0.451615 -3.783992,0.659168 -5.620515,1.549772 -6.28125,3.045954 -0.134833,0.305319 -0.283872,1.068125 -0.357422,1.837739 -0.187533,1.962302 -0.424619,3.537032 -0.80664,4.142733 C 24.314403,21.843127 24.152685,22.006193 24,22.032719 23.847315,22.006189 23.685597,21.843127 23.488281,21.530273 23.10626,20.924572 22.869174,19.349842 22.681641,17.38754 22.608091,16.617926 22.459052,15.85512 22.324219,15.549801 21.663484,14.053619 19.826961,13.163015 16.042969,12.503847 15.039726,12.329082 13.99995,12.125664 13.732422,12.052232 13.00804,11.853422 11.503269,11.040163 10.832031,10.484289 10.405653,10.131192 10.125033,9.9745552 10.033203,10.003348 Z"/>
</svg>
