<svg xmlns="http://www.w3.org/2000/svg" width="48" height="48" version="1.1">
 <circle style="opacity:0.2" cx="24" cy="25" r="20"/>
 <circle style="fill:#8767d9" cx="24" cy="24" r="20"/>
 <path style="opacity:0.2;fill-rule:evenodd" d="m 21.482422,12 c -2.471767,-0.0086 -5.307812,0.468559 -8.53125,1.802734 4.421272,0.344251 6.318134,0.962389 6.425781,1.431641 -7.645956,-1.314043 -8.822937,6.71473 -9.070567,11.562755 0,0 1.511012,-0.740662 2.410411,-1.054942 0.277126,-0.09684 0.585852,-0.189114 0.919922,-0.279297 -0.79943,0.82514 -1.469723,1.536298 -1.972657,1.925781 -0.178209,0.353254 -0.356435,0.804804 -0.570312,1.185547 -1.4656604,3.394959 -2.0587549,6.27851 -2.0878906,8.623047 1.0735456,1.229457 2.2935566,2.322875 3.6328126,3.255859 0.02144,-0.03214 0.06115,-0.07782 0.07422,-0.103516 -0.02505,0.04048 -0.04086,0.07244 -0.06445,0.111329 C 15.986007,42.76415 19.944861,43.998396 24,44 28.471735,43.99738 32.813597,42.496227 36.332031,39.736328 34.718209,38.109835 30.893777,33.90637 31,30.248047 31.06067,28.158787 32.246013,26.279619 36.111328,25.210938 37.955531,24.993328 39.914588,24.90933 42,25 41.652638,22.308041 39.044713,19.489474 34.919922,18.621094 34.212637,18.284292 30.030979,12.029762 21.482422,12 Z"/>
 <path style="fill:#f4f4f7;fill-rule:evenodd" d="m 21.482422,11 c -2.471767,-0.0086 -5.307812,0.468559 -8.53125,1.802734 4.421272,0.344251 6.318134,0.962389 6.425781,1.431641 -7.199504,-1.237315 -9.8078573,8.338756 -10.2946531,13.508689 -0.030187,0.320596 0.067919,0.311898 0.05346,0.594977 0,0 2.6816384,-3.281572 3.5810374,-3.595853 0.277126,-0.09684 0.585852,-0.189114 0.919922,-0.279297 -0.79943,0.82514 -1.469724,1.536298 -1.972657,1.925781 -0.178209,0.353254 -0.356435,0.804804 -0.570312,1.185547 C 9.5823646,31.075093 8.993751,34.03727 9,36.419922 c 7.829e-4,0.298497 0.2552674,2.015597 0.2714605,2.288776 0.9296525,1.050619 1.7407265,0.533999 2.8691645,1.367474 0.243177,-0.28278 0.492669,-0.57001 0.572266,-0.726563 -0.181407,0.293122 -0.32096,0.540528 -0.472657,0.802735 C 15.654906,42.645688 19.771916,43.992724 24,44 28.708872,43.992312 33.26403,42.323378 36.863281,39.287109 35.683045,38.146881 30.8829,33.280993 31,29.248047 31.06067,27.158787 32.246013,25.279619 36.111328,24.210938 37.955531,23.993328 39.914588,23.90933 42,24 41.652638,21.308041 39.044713,18.489474 34.919922,17.621094 34.212637,17.284292 30.030979,11.029762 21.482422,11 Z"/>
 <path style="fill:#3f3f3f;fill-rule:evenodd" d="m 28,16.224889 c 0,0 3.539095,-1.390996 4,2.745877 -3.489709,0.361316 -4,-2.745877 -4,-2.745877 z"/>
 <path style="opacity:0.1;fill-rule:evenodd" d="m 10.899386,44.54 c 0,0 6.637935,-18.750706 25.686552,-19.469765 0,0 -16.39762,-2.654858 -27.3144775,14.638386 C 9.2109335,42.155204 10.899386,44.54 10.899386,44.54 Z"/>
 <path style="fill:#ffb039;fill-rule:evenodd" d="m 10.899386,43.540077 c 0,0 6.637935,-18.750706 25.686552,-19.469765 0,0 -16.39762,-2.654858 -27.3144775,14.638386 -0.060527,2.446583 1.6279255,4.831379 1.6279255,4.831379 z"/>
 <path style="fill:#ffb039;fill-rule:evenodd" d="m 12.966507,12.803647 c 0,0 4.7511,0.276322 6.447373,1.442988 0.708243,-0.145703 1.3096,-0.630621 1.411826,-1.291065 -0.60775,-0.251521 -6.170601,-0.704554 -7.859199,-0.151923 z"/>
 <path style="opacity:0.1;fill-rule:evenodd" d="m 9.0588428,29.674348 c 0,0 6.1487282,-7.14438 18.1570992,-7.997899 0,0 -16.54762,0.738795 -17.9199433,5.354794 -0.3815249,1.109979 -0.237156,2.643105 -0.2371559,2.643105 z"/>
 <path style="fill:#ffb039;fill-rule:evenodd" d="m 9.0588428,28.674425 c 0,0 6.1487282,-7.14438 18.1570992,-7.997899 0,0 -16.54762,0.738795 -17.9199433,5.354794 -0.3815249,1.109979 -0.237156,2.643105 -0.2371559,2.643105 z"/>
 <path style="fill:#f4f4f7;opacity:0.1" d="M 24 4 A 20 20 0 0 0 4 24 A 20 20 0 0 0 4.0214844 24.582031 A 20 20 0 0 1 24 5 A 20 20 0 0 1 43.978516 24.417969 A 20 20 0 0 0 44 24 A 20 20 0 0 0 24 4 z"/>
</svg>
