<svg xmlns="http://www.w3.org/2000/svg" width="48" height="48" version="1.1">
 <path style="opacity:0.2" d="M 4,35 V 43 C 4,44.108 4.892,45 6,45 H 42 C 43.108,45 44,44.108 44,43 V 35 C 44,36.108 43.108,37 42,37 H 6 C 4.892,37 4,36.108 4,35 Z"/>
 <path style="fill:#a8a8a8" d="M 4,34 V 42 C 4,43.108 4.892,44 6,44 H 42 C 43.108,44 44,43.108 44,42 V 34 C 44,35.108 43.108,36 42,36 H 6 C 4.892,36 4,35.108 4,34 Z"/>
 <rect style="opacity:0.1" width="40" height="32" x="4" y="5" rx="2" ry="2"/>
 <rect style="fill:#b2bfd9" width="40" height="32" x="4" y="4" rx="2" ry="2"/>
 <path style="opacity:0.1" d="M 24.334,9.0016 C 23.04,8.9866 22.115,9.0776 22.09,9.3219 22.039,9.8224 21.768,10.852 21.727,11.947 21.524,11.156 21.401,10.341 21.367,9.4996 19.502,9.6271 16.315,11.398 16.303,12.234 16.296,12.718 16.733,16.675 17.258,18.617 16.285,16.706 15.866,14.757 15.422,12.809 14.86,13.413 12.129,13.387 14.025,21.629 13.246,20.348 13.119,18.919 12.729,17.549 11.394,19.764 10.539,23.595 11.232,28.336 14.33,21.767 19.447,16.931 25.619,12.963 25.775,12.892 25.801,13.011 25.744,13.07 20.922,16.749 18.026,20.176 17.402,20.863 16.923,21.389 14.702,23.759 13.258,26.715 12.867,27.514 12.557,28.361 12.307,29.178 15.829,28.669 17.872,27.276 19.107,25.52 16.871,22.587 17.461,23.045 19.344,24.91 20.23,25.787 21.638,26.591 22.607,23.859 23.352,21.762 24.227,21.182 24.227,21.182 22.899,20.633 20.426,18.732 24.416,20.404 25.681,18.447 27.445,17.123 29.064,15.615 25.444,15.61 26.472,14.047 29.656,15.164 31.171,12.291 34.851,12.337 39,13.016 35.953,11.46 32.561,9.4275 31.578,10.713 L 31.436,9.7516 C 29.676,9.3469 26.491,9.0264 24.334,9.0016 Z M 11.232,28.336 C 10.296,30.321 9.5388,32.457 9,34.783 L 9.3984,35 C 9.3984,35 9.7578,34.229 10.076,33.996 10.394,33.764 11.412,33.332 11.412,33.332 11.412,33.332 11.631,31.38 12.307,29.178 12.111,29.206 11.93,29.243 11.725,29.266 L 11.35,29.16 C 11.298,28.878 11.273,28.612 11.232,28.336 Z"/>
 <path style="opacity:0.2;fill:#f4f4f7" d="M 6 4 C 4.892 4 4 4.892 4 6 L 4 7 C 4 5.892 4.892 5 6 5 L 42 5 C 43.108 5 44 5.892 44 7 L 44 6 C 44 4.892 43.108 4 42 4 L 6 4 z"/>
 <path style="fill:#434343" d="M 11.232,27.336 C 10.296,29.321 9.5388,31.457 9,33.783 L 9.3984,34 C 9.3984,34 9.7578,33.229 10.076,32.996 10.394,32.764 11.412,32.332 11.412,32.332 11.412,32.332 11.631,30.38 12.307,28.178 12.111,28.206 11.93,28.243 11.725,28.266 L 11.35,28.16 C 11.298,27.878 11.273,27.612 11.232,27.336 Z"/>
 <path style="fill:#4976a8" d="M 24.334,8.0016 C 23.04,7.9866 22.115,8.0776 22.09,8.3219 22.039,8.8224 21.768,9.8525 21.727,10.947 21.524,10.156 21.401,9.3412 21.367,8.4996 19.502,8.6271 16.315,10.398 16.303,11.234 16.296,11.718 16.733,15.675 17.258,17.617 16.285,15.706 15.866,13.757 15.422,11.809 14.86,12.413 12.129,12.387 14.025,20.629 13.246,19.348 13.119,17.919 12.729,16.549 11.394,18.764 10.539,22.595 11.232,27.336 14.33,20.767 19.447,15.931 25.619,11.963 25.775,11.892 25.801,12.011 25.744,12.07 20.922,15.749 18.026,19.176 17.402,19.863 16.923,20.389 14.702,22.759 13.258,25.715 12.867,26.514 12.557,27.361 12.307,28.178 15.829,27.669 17.872,26.276 19.107,24.52 16.871,21.587 17.461,22.045 19.344,23.91 20.23,24.787 21.638,25.591 22.607,22.859 23.352,20.762 24.227,20.182 24.227,20.182 22.899,19.633 20.426,17.732 24.416,19.404 25.681,17.447 27.445,16.123 29.064,14.615 25.444,14.61 26.472,13.047 29.656,14.164 31.171,11.291 34.851,11.337 39,12.016 35.953,10.46 32.561,8.4275 31.578,9.7125 L 31.436,8.7516 C 29.676,8.3469 26.491,8.0264 24.334,8.0016 Z"/>
</svg>
