<svg xmlns="http://www.w3.org/2000/svg" width="48" height="48" version="1">
 <path style="fill:#4f4f4f" d="M 7,9 15.362731,6 H 33.854908 L 37,11 40,18.83926 V 29.934566 L 38,39 35.064011,42 H 8.0369844 L 6,40 4,37.97155 V 11.798009 Z"/>
 <path style="opacity:0.2" d="m 33.939453,4.0074291 c -0.709347,-0.075954 -1.500748,0.3925681 -1.738281,1.0273437 -0.09182,0.2441938 -0.09375,0.2868334 -0.09375,2.9257813 0,2.0777959 -0.01102,2.9965809 -0.05273,3.0507819 -0.04862,0.06321 -0.384191,0.07164 -3.476563,0.08984 -1.895768,0.0111 -3.262471,0.04061 -3.560547,0.06641 -2.35751,0.203712 -3.883558,0.462825 -5.394531,0.841797 -3.295117,0.826466 -6.041731,2.391613 -7.705078,4.390625 -1.647453,1.979911 -2.4885966,4.010484 -2.839844,7.208984 -0.076917,0.700709 -0.1063349,3.035437 -0.044922,3.599609 0.1187562,1.090831 0.3921151,2.268911 0.8398438,3.628907 0.5170611,1.570578 1.1853751,2.989187 2.4238281,5.142578 0.730161,1.269581 1.144675,1.847883 1.408203,1.96289 v 0.002 c 0.169458,0.0736 0.50427,0.0733 0.679688,0 0.200654,-0.08381 0.407987,-0.305532 0.466796,-0.501953 0.04194,-0.140058 0.03152,-0.351875 -0.0625,-1.214843 -0.208985,-1.921138 -0.272135,-3.349063 -0.203124,-4.679688 0.253616,-4.892895 1.82302,-7.664316 5.240234,-9.136719 1.657335,-0.71411 3.395708,-1.123267 6.095703,-1.330078 0.90717,-0.0695 6.050171,-0.105968 6.113281,-0.04297 0.03781,0.0378 0.05637,0.965798 0.07227,3.013672 l 0.02148,2.761719 0.113282,0.238281 c 0.298566,0.629505 1.113957,1.040907 1.80664,0.91211 0.144052,-0.02679 0.352706,-0.09108 0.462891,-0.142578 0.156214,-0.07302 1.767082,-1.259063 5.902343,-5.390625 5.087941,-5.083395 5.309513,-5.310594 5.445313,-5.59961 C 45.986606,16.560883 46,16.490304 46,16.142195 46,15.794075 45.986583,15.72545 45.859375,15.454695 45.723635,15.165799 45.500703,14.936699 40.435547,9.8726635 35.558011,4.9962099 34.733295,4.2841689 34.480469,4.1656322 34.322224,4.0914984 34.094407,4.0240301 33.939453,4.0074291 Z M 9.4941406,7.0132885 C 8.841492,7.0317877 8.5465589,7.0650383 8.4199219,7.0875072 6.7536941,7.3828655 5.4520748,8.0505773 4.2890625,9.208601 2.9441506,10.547737 2.2260317,12.042237 2.046875,13.874617 c -0.062764,0.644272 -0.062966,23.551609 0,24.21875 0.09619,1.019847 0.3114439,1.785999 0.7519531,2.669922 0.3856119,0.773771 0.7542431,1.270002 1.4648438,1.980469 0.7106107,0.710467 1.206552,1.079309 1.9804687,1.464843 0.8618959,0.429356 1.661236,0.660032 2.5839844,0.748047 h 0.00195 c 0.5832928,0.05533 23.6789789,0.05885 24.2617189,0.0039 1.194766,-0.112635 2.244095,-0.451676 3.166015,-1.021485 1.573,-0.972218 2.790219,-2.471689 3.335938,-4.109375 0.381391,-1.144613 0.419964,-1.555066 0.402344,-6.015625 -0.01201,-3.061444 -0.01832,-3.325958 -0.08789,-3.453125 -1.039855,-0.673706 -1.795139,-0.06742 -3.015625,0.554688 -0.457946,0.25023 -0.676301,0.417103 -0.78125,0.595703 C 36.025121,31.65809 36.02382,31.236394 36,34.499617 c -0.02405,3.295483 -0.02529,3.141763 -0.121094,3.478516 -0.492248,1.611583 -2.334101,3.182596 -4.332031,2.988281 -3.776142,0.02302 -6.82446,0.128906 -10.699219,0.128906 C 12.310538,41.10493 9.7315612,41.094141 9.5,41.058211 8.9645218,40.975031 8.3294828,40.720808 7.8554688,40.400008 7.5723837,40.208417 6.9705142,39.614284 6.7578125,39.316023 6.4152855,38.835719 6.1493528,38.205706 6.0488281,37.638289 6.0178961,37.463783 6.0052088,34.214083 6.0058594,26.316023 c 9.01e-4,-11.275038 0.0028,-11.574137 0.083984,-11.941406 0.3746605,-1.694044 1.8700945,-3.050019 3.5976562,-3.259766 0.2185478,-0.02652 0.515178,-0.04679 1.455078,-0.04687 h 1.667969 l 0.400391,-0.216797 c 1.076832,-0.584271 2.019633,-1.3797457 3.152343,-2.1015624 0.956926,-0.6573693 1.096214,-1.7177764 -0.787109,-1.71875 H 12.712891 C 11.157379,6.9916488 10.146789,6.9947892 9.4941406,7.0132885 Z"/>
 <path style="fill:#ef3e51" d="M 8.8292929,43.95689 C 7.9057102,43.869016 7.1072769,43.637721 6.2447679,43.20806 5.4708512,42.822526 4.9734627,42.455317 4.262852,41.74485 3.5522513,41.034383 3.1849585,40.537105 2.7993466,39.763334 2.3588374,38.879411 2.1427922,38.113047 2.0466019,37.0932 1.9836359,36.426059 1.9848379,13.519372 2.0476019,12.8751 2.2267586,11.04272 2.9445668,9.5489642 4.2894787,8.209828 5.452491,7.0518043 6.7535972,6.3834225 8.419825,6.0880642 8.673099,6.0431264 9.6015447,5.9523804 12.712568,6.0308161 h 2.863534 c 1.883323,9.736e-4 1.744638,1.0612756 0.787712,1.7186449 -1.13271,0.7218167 -2.076975,1.517937 -3.153807,2.1022084 l -0.400388,0.2172526 -1.667227,1.3e-4 c -0.9399,8e-5 -1.2368247,0.02062 -1.4553725,0.04714 -1.7275617,0.209747 -3.2230906,1.564095 -3.5977511,3.258139 -0.081185,0.367269 -0.083387,0.667961 -0.084288,11.942999 -6.506e-4,7.89806 0.013414,11.147685 0.044346,11.322191 0.1005247,0.567417 0.366522,1.196436 0.709049,1.67674 0.2127017,0.298261 0.8148294,0.893171 1.0979144,1.084762 0.4740141,0.3208 1.1089971,0.574913 1.6444753,0.658093 0.2315612,0.03593 2.8091529,0.04554 11.3462709,0.03593 3.874759,0 6.924601,-0.104463 10.700743,-0.127479 1.99793,0.194315 3.838176,-1.378307 4.330424,-2.98989 0.0958,-0.336753 0.0973,-0.182888 0.121347,-3.478371 0.02382,-3.263223 0.02633,-2.841421 0.112537,-2.988175 0.104949,-0.1786 0.322187,-0.344099 0.780133,-0.594329 1.220486,-0.622111 1.976107,-1.229814 3.015962,-0.556108 0.06957,0.127167 0.07638,0.39243 0.08839,3.453874 0.01762,4.460559 -0.02212,4.871771 -0.403511,6.016384 -0.545719,1.637686 -1.762597,3.136656 -3.335597,4.108874 -0.921921,0.569809 -1.971264,0.908133 -3.16603,1.020768 -0.582787,0.05495 -23.6827307,0.05134 -24.2624449,-0.004 z"/>
 <path style="fill:#ef3e51" d="m 13.705009,36.944096 c -0.263528,-0.115007 -0.678529,-0.693249 -1.40869,-1.96283 -1.238453,-2.153391 -1.907121,-3.571841 -2.4241825,-5.142419 -0.4477287,-1.359996 -0.7200988,-2.538362 -0.838855,-3.629193 -0.061413,-0.564172 -0.032707,-2.899613 0.04421,-3.600322 0.3512474,-3.1985 1.1927305,-5.228138 2.8401835,-7.208049 1.663347,-1.999012 4.410202,-3.56424 7.705319,-4.390706 1.510973,-0.378972 3.03794,-0.639056 5.39545,-0.842768 0.298076,-0.0258 1.664097,-0.0555 3.559865,-0.0666 3.092372,-0.0182 3.426855,-0.0269 3.475476,-0.09011 0.04171,-0.0542 0.05381,-0.971447 0.05381,-3.0492428 0,-2.6389479 10e-4,-2.6834804 0.09282,-2.9276741 0.237533,-0.6347756 1.029257,-1.1020318 1.738604,-1.0260776 0.154954,0.016601 0.383554,0.082905 0.541799,0.1570388 0.252826,0.1185367 1.077297,0.8316272 5.954833,5.7080808 5.065156,5.0640349 5.287075,5.2924479 5.422815,5.5813439 0.127208,0.270755 0.141531,0.340409 0.141531,0.688529 0,0.348109 -0.0143,0.417763 -0.141531,0.688528 -0.1358,0.289016 -0.356389,0.515889 -5.44433,5.599284 -4.135262,4.131562 -5.746707,5.318679 -5.902921,5.391703 -0.110185,0.0515 -0.3182,0.115566 -0.462252,0.142358 -0.692683,0.128797 -1.509003,-0.283546 -1.807569,-0.913051 L 32.12914,25.815235 32.10764,23.0525 c -0.0159,-2.047874 -0.03471,-2.975708 -0.07252,-3.01351 -0.06311,-0.063 -5.205598,-0.0263 -6.112768,0.0432 -2.699995,0.206811 -4.438319,0.616434 -6.095654,1.330544 -3.417214,1.472403 -4.98677,4.243263 -5.240386,9.136158 -0.06901,1.330625 -0.007,2.759125 0.201985,4.680263 0.09402,0.862968 0.104953,1.07336 0.06301,1.213418 -0.05881,0.196421 -0.264979,0.419023 -0.465633,0.502838 -0.175418,0.0733 -0.511102,0.0726 -0.68056,-10e-4 z"/>
 <path style="fill:#f4f4f7;opacity:0.2" d="M 33.939453 3.0078125 C 33.230106 2.9318583 32.438705 3.4003806 32.201172 4.0351562 C 32.109352 4.27935 32.107422 4.3219896 32.107422 6.9609375 C 32.107422 9.0387333 32.096398 9.9575186 32.054688 10.011719 C 32.006067 10.074929 31.670497 10.083363 28.578125 10.101562 C 26.682357 10.112664 25.315654 10.142169 25.017578 10.167969 C 22.660068 10.371681 21.13402 10.630794 19.623047 11.009766 C 16.32793 11.836232 13.581316 13.401379 11.917969 15.400391 C 10.270516 17.380302 9.4293724 19.410875 9.078125 22.609375 C 9.0241542 23.101045 9.0078538 24.241506 9.015625 25.166016 C 9.0279528 24.546883 9.0457922 23.903925 9.078125 23.609375 C 9.4293724 20.410875 10.270516 18.380302 11.917969 16.400391 C 13.581316 14.401379 16.32793 12.836232 19.623047 12.009766 C 21.13402 11.630794 22.660068 11.371681 25.017578 11.167969 C 25.315654 11.142169 26.682357 11.112663 28.578125 11.101562 C 31.670497 11.083363 32.006068 11.074929 32.054688 11.011719 C 32.096397 10.957518 32.107422 10.038733 32.107422 7.9609375 C 32.107422 5.3219896 32.109352 5.27935 32.201172 5.0351562 C 32.438705 4.4003807 33.230106 3.9318585 33.939453 4.0078125 C 34.094407 4.0244135 34.322224 4.0918818 34.480469 4.1660156 C 34.733295 4.2845523 35.558011 4.9965933 40.435547 9.8730469 C 45.500703 14.937082 45.723635 15.166182 45.859375 15.455078 C 45.897329 15.535862 45.909327 15.58499 45.929688 15.642578 C 45.977366 15.506876 46 15.386443 46 15.142578 C 46 14.794458 45.986583 14.725833 45.859375 14.455078 C 45.723635 14.166182 45.500703 13.937082 40.435547 8.8730469 C 35.558011 3.9965933 34.733295 3.2845523 34.480469 3.1660156 C 34.322224 3.0918818 34.094407 3.0244135 33.939453 3.0078125 z M 9.4941406 6.0136719 C 8.841492 6.0321711 8.5465589 6.0654217 8.4199219 6.0878906 C 6.7536941 6.3832489 5.4520748 7.0509607 4.2890625 8.2089844 C 2.9441506 9.5481206 2.2260317 11.04262 2.046875 12.875 C 2.0141981 13.210429 2.0006287 19.352344 2.0019531 25.476562 C 2.0032178 19.837542 2.0167848 14.183876 2.046875 13.875 C 2.2260317 12.04262 2.9441506 10.54812 4.2890625 9.2089844 C 5.4520748 8.0509607 6.7536941 7.3832489 8.4199219 7.0878906 C 8.5465589 7.0654217 8.841492 7.0321711 9.4941406 7.0136719 C 10.146789 6.9951726 11.157379 6.9920272 12.712891 7.03125 L 15.576172 7.03125 C 16.198513 7.0315717 16.582542 7.1531089 16.806641 7.3320312 C 17.285751 6.7204944 17.094195 6.0320348 15.576172 6.03125 L 12.712891 6.03125 C 11.157379 5.9920322 10.146789 5.9951726 9.4941406 6.0136719 z M 6.0058594 25.550781 C 6.0058179 25.948631 6.0058937 25.887382 6.0058594 26.316406 C 6.0052088 34.214466 6.0178961 37.464166 6.0488281 37.638672 C 6.1493528 38.206089 6.4152855 38.836102 6.7578125 39.316406 C 6.9705142 39.614667 7.5723836 40.2088 7.8554688 40.400391 C 8.3294828 40.721191 8.9645218 40.975414 9.5 41.058594 C 9.7315612 41.094524 12.310538 41.105313 20.847656 41.095703 C 24.722415 41.095703 27.770733 40.989817 31.546875 40.966797 C 33.544805 41.161112 35.386658 39.590099 35.878906 37.978516 C 35.97471 37.641763 35.97595 37.795483 36 34.5 C 36.02382 31.236777 36.025123 31.65848 36.111328 31.511719 C 36.216277 31.333119 36.434632 31.166246 36.892578 30.916016 C 38.113064 30.293908 38.868348 29.687622 39.908203 30.361328 C 39.976692 30.486519 39.984428 30.79762 39.996094 33.726562 C 39.99559 33.400711 39.997604 33.19681 39.996094 32.814453 C 39.984084 29.753009 39.977773 29.488495 39.908203 29.361328 C 38.868348 28.687622 38.113064 29.293905 36.892578 29.916016 C 36.434632 30.166246 36.216277 30.333119 36.111328 30.511719 C 36.025121 30.658473 36.02382 30.236777 36 33.5 C 35.975953 36.795483 35.974706 36.641763 35.878906 36.978516 C 35.386658 38.590099 33.544805 40.161112 31.546875 39.966797 C 27.770733 39.989813 24.722415 40.095703 20.847656 40.095703 C 12.310538 40.105313 9.7315612 40.094524 9.5 40.058594 C 8.9645218 39.975414 8.3294828 39.721191 7.8554688 39.400391 C 7.5723836 39.2088 6.9705142 38.614667 6.7578125 38.316406 C 6.4152855 37.836102 6.1493528 37.206089 6.0488281 36.638672 C 6.0185364 36.467778 6.0057651 33.097552 6.0058594 25.550781 z M 14.570312 32.107422 C 14.542153 33.285486 14.608649 34.570027 14.789062 36.228516 C 14.803791 36.3637 14.803708 36.398452 14.814453 36.503906 C 14.823528 36.483253 14.845487 36.463652 14.851562 36.443359 C 14.893505 36.303301 14.883083 36.091484 14.789062 35.228516 C 14.657888 34.02267 14.589958 33.022546 14.570312 32.107422 z"/>
</svg>
