<svg xmlns="http://www.w3.org/2000/svg" width="48" height="48" version="1">
 <rect style="opacity:0.2" width="40" height="40" x="4" y="5" rx="2" ry="2"/>
 <rect style="fill:#b2bfd9" width="40" height="40" x="4" y="4" rx="2" ry="2"/>
 <path style="opacity:0.2;fill:#f4f4f7" d="M 6,4 C 4.892,4 4,4.892 4,6 V 7 C 4,5.892 4.892,5 6,5 h 36 c 1.108,0 2,0.892 2,2 V 6 C 44,4.892 43.108,4 42,4 Z"/>
 <path style="opacity:0.1" d="m 25,13.021147 c 0,0.04188 -0.0057,0.107371 -0.01586,0.196191 -0.01076,0.0891 -0.02379,0.188321 -0.03965,0.298221 -0.01586,0.109901 -0.03965,0.225142 -0.07136,0.345161 -0.03143,0.1203 -0.06853,0.233012 -0.110724,0.337572 -0.04219,0.10456 -0.08948,0.18832 -0.142156,0.251 -0.05296,0.06268 -0.110724,0.09416 -0.173873,0.09416 -0.07391,0 -0.165944,-0.0208 -0.276668,-0.06268 -0.111007,-0.0416 -0.240137,-0.08629 -0.387675,-0.133511 -0.147537,-0.04694 -0.321693,-0.09163 -0.521619,-0.133511 -0.200492,-0.0416 -0.421656,-0.06296 -0.664059,-0.06296 -0.453372,0 -0.840764,0.0683 -1.162174,0.204061 -0.321693,0.13604 -0.598361,0.347971 -0.830003,0.635512 -0.231925,0.287821 -0.426753,0.651252 -0.585052,1.090573 -0.158014,0.439321 -0.295074,0.957343 -0.411178,1.553504 l -0.268739,1.412405 h 3.378572 c 0.115821,0 0.207855,0.03935 0.276668,0.11777 0.06853,0.07842 0.102794,0.206591 0.102794,0.384512 0,0.115241 -0.01076,0.23526 -0.03172,0.360901 -0.02124,0.12564 -0.04729,0.248751 -0.07901,0.368771 -0.03143,0.1203 -0.07108,0.23526 -0.11837,0.345441 -0.04729,0.109901 -0.100246,0.106759 -0.158298,0.19052 -0.05805,0.08376 -0.124033,0.15178 -0.19766,0.20406 -0.07391,0.05256 -0.14757,0.07624 -0.221448,0.07842 h -3.39358 l -2.703527,13.771163 c -0.179254,0.878642 -0.421657,1.639795 -0.727209,2.283177 -0.305835,0.643381 -0.679917,1.177144 -1.122529,1.600725 -0.442611,0.423581 -0.954036,0.737542 -1.533707,0.941603 C 12.230527,39.89797 11.576946,40 10.849737,40 10.375409,40 9.9880179,39.963179 9.6875631,39.890099 9.3871082,39.816739 9.2002089,39.748718 9.1262987,39.685758 9.0843879,39.633196 9.0526717,39.575857 9.0314331,39.513458 9.0104777,39.450497 9,39.366737 9,39.262177 c 0,-0.04188 0.00793,-0.112431 0.023504,-0.211931 0.015858,-0.0995 0.034548,-0.204061 0.05522,-0.313681 0.021239,-0.110181 0.047574,-0.225422 0.079007,-0.345441 0.031716,-0.120582 0.068813,-0.233012 0.1107237,-0.337291 0.042194,-0.104841 0.089485,-0.188602 0.1421568,-0.251282 0.052955,-0.06296 0.1161042,-0.09416 0.1897312,-0.09416 0.07391,0 0.1449886,0.0076 0.2135183,0.02361 0.06853,0.01574 0.1421568,0.0312 0.221164,0.04694 0.07901,0.01574 0.173873,0.0312 0.284597,0.04722 0.110723,0.01574 0.250332,0.02333 0.418824,0.02333 0.442612,0 0.824906,-0.06802 1.146316,-0.204061 0.32141,-0.13604 0.595246,-0.347971 0.822074,-0.635512 0.226545,-0.287821 0.416276,-0.651252 0.569194,-1.090854 0.152634,-0.439321 0.292525,-0.967743 0.418824,-1.584985 l 2.593087,-13.237401 h -2.02361 c -0.105627,0 -0.187466,-0.03373 -0.245235,-0.10203 -0.05805,-0.06802 -0.08694,-0.09636 -0.08694,-0.28468 0,-0.08376 0.0054,-0.18579 0.01586,-0.306091 0.01048,-0.1203 0.02888,-0.24313 0.05522,-0.368771 0.02605,-0.125641 0.0606,-0.24566 0.102795,-0.360901 0.04191,-0.11496 0.09487,-0.219801 0.158298,-0.313961 0.06315,-0.09416 0.128847,-0.16977 0.19766,-0.227671 0.06853,-0.05734 0.155466,-0.08629 0.260809,-0.08629 h 1.992178 l 0.39532,-1.961626 c 0.168493,-0.857842 0.411179,-1.608595 0.727208,-2.251977 0.31603,-0.643382 0.698041,-1.174333 1.146316,-1.592855 0.447992,-0.41824 0.964514,-0.729672 1.549283,-0.933733 C 21.118157,12.10203 21.76381,12 22.470063,12 c 0.231641,0 0.474327,0.01321 0.727208,0.03935 0.253164,0.02614 0.487354,0.06268 0.703704,0.1099 0.215784,0.04694 0.405515,0.10203 0.569194,0.16471 0.163112,0.06296 0.276667,0.125641 0.339817,0.188321 0.06315,0.05256 0.110723,0.125641 0.142157,0.219801 0.032,0.095 0.04786,0.194785 0.04786,0.299064 z"/>
 <path style="fill:#e57025" d="m 25,12.021147 c 0,0.04188 -0.0057,0.107371 -0.01586,0.196191 -0.01076,0.0891 -0.02379,0.188321 -0.03965,0.298221 -0.01586,0.109901 -0.03965,0.225142 -0.07136,0.345161 -0.03143,0.1203 -0.06853,0.233012 -0.110724,0.337572 -0.04219,0.10456 -0.08948,0.18832 -0.142156,0.251 -0.05296,0.06268 -0.110724,0.09416 -0.173873,0.09416 -0.07391,0 -0.165944,-0.0208 -0.276668,-0.06268 -0.111007,-0.0416 -0.240137,-0.08629 -0.387675,-0.133511 -0.147537,-0.04694 -0.321693,-0.09163 -0.521619,-0.133511 -0.200492,-0.0416 -0.421656,-0.06296 -0.664059,-0.06296 -0.453372,0 -0.840764,0.0683 -1.162174,0.204061 -0.321693,0.13604 -0.598361,0.347971 -0.830003,0.635512 -0.231925,0.287821 -0.426753,0.651252 -0.585052,1.090573 -0.158014,0.439321 -0.295074,0.957343 -0.411178,1.553504 l -0.268739,1.412405 h 3.378572 c 0.115821,0 0.207855,0.03935 0.276668,0.11777 0.06853,0.07842 0.102794,0.206591 0.102794,0.384512 0,0.115241 -0.01076,0.23526 -0.03172,0.360901 -0.02124,0.12564 -0.04729,0.248751 -0.07901,0.368771 -0.03143,0.1203 -0.07108,0.23526 -0.11837,0.345441 -0.04729,0.109901 -0.100246,0.106759 -0.158298,0.19052 -0.05805,0.08376 -0.124033,0.15178 -0.19766,0.20406 -0.07391,0.05256 -0.14757,0.07624 -0.221448,0.07842 h -3.39358 l -2.703527,13.771163 c -0.179254,0.878642 -0.421657,1.639795 -0.727209,2.283177 -0.305835,0.643381 -0.679917,1.177144 -1.122529,1.600725 -0.442611,0.423581 -0.954036,0.737542 -1.533707,0.941603 C 12.230527,38.89797 11.576946,39 10.849737,39 10.375409,39 9.9880179,38.963179 9.6875631,38.890099 9.3871082,38.816739 9.2002089,38.748718 9.1262987,38.685758 9.0843879,38.633196 9.0526717,38.575857 9.0314331,38.513458 9.0104777,38.450497 9,38.366737 9,38.262177 c 0,-0.04188 0.00793,-0.112431 0.023504,-0.211931 0.015858,-0.0995 0.034548,-0.204061 0.05522,-0.313681 0.021239,-0.110181 0.047574,-0.225422 0.079007,-0.345441 0.031716,-0.120582 0.068813,-0.233012 0.1107237,-0.337291 0.042194,-0.104841 0.089485,-0.188602 0.1421568,-0.251282 0.052955,-0.06296 0.1161042,-0.09416 0.1897312,-0.09416 0.07391,0 0.1449886,0.0076 0.2135183,0.02361 0.06853,0.01574 0.1421568,0.0312 0.221164,0.04694 0.07901,0.01574 0.173873,0.0312 0.284597,0.04722 0.110723,0.01574 0.250332,0.02333 0.418824,0.02333 0.442612,0 0.824906,-0.06802 1.146316,-0.204061 0.32141,-0.13604 0.595246,-0.347971 0.822074,-0.635512 0.226545,-0.287821 0.416276,-0.651252 0.569194,-1.090854 0.152634,-0.439321 0.292525,-0.967743 0.418824,-1.584985 l 2.593087,-13.237401 h -2.02361 c -0.105627,0 -0.187466,-0.03373 -0.245235,-0.10203 -0.05805,-0.06802 -0.08694,-0.09636 -0.08694,-0.28468 0,-0.08376 0.0054,-0.18579 0.01586,-0.306091 0.01048,-0.1203 0.02888,-0.24313 0.05522,-0.368771 0.02605,-0.125641 0.0606,-0.24566 0.102795,-0.360901 0.04191,-0.11496 0.09487,-0.219801 0.158298,-0.313961 0.06315,-0.09416 0.128847,-0.16977 0.19766,-0.227671 0.06853,-0.05734 0.155466,-0.08629 0.260809,-0.08629 h 1.992178 l 0.39532,-1.961626 c 0.168493,-0.857842 0.411179,-1.608595 0.727208,-2.251977 0.31603,-0.643382 0.698041,-1.174333 1.146316,-1.592855 0.447992,-0.41824 0.964514,-0.729672 1.549283,-0.933733 C 21.118157,11.10203 21.76381,11 22.470063,11 c 0.231641,0 0.474327,0.01321 0.727208,0.03935 0.253164,0.02614 0.487354,0.06268 0.703704,0.1099 0.215784,0.04694 0.405515,0.10203 0.569194,0.16471 0.163112,0.06296 0.276667,0.125641 0.339817,0.188321 0.06315,0.05256 0.110723,0.125641 0.142157,0.219801 0.032,0.095 0.04786,0.194785 0.04786,0.299064 z"/>
 <path style="opacity:0.1" d="m 39.000001,24.070662 c 0,0.623157 -0.05637,1.311337 -0.168841,2.064261 -0.112465,0.753203 -0.294227,1.111088 -0.544737,1.874337 -0.251057,0.763528 -0.565912,1.506127 -0.944283,2.228074 -0.378925,0.722227 -0.842268,1.36101 -1.38948,1.916354 -0.547765,0.555903 -1.177196,1.002691 -1.888572,1.340083 -0.711375,0.337393 -1.512122,0.506228 -2.40251,0.506228 -0.921187,0 -1.709558,-0.17665 -2.364564,-0.529669 -0.655005,-0.353022 -1.238515,-0.862039 -1.74998,-1.526779 l -0.276356,1.470804 c -0.02062,0.17665 -0.130616,0.301394 -0.330252,0.373952 -0.199636,0.07256 -0.504041,0.109115 -0.913212,0.109115 -0.429796,0 -0.716601,-0.04158 -0.859867,-0.124464 -0.143265,-0.08316 -0.194686,-0.202883 -0.153714,-0.358322 l 4.08402,-20.915943 c 0.02035,-0.08316 0.05362,-0.155998 0.09982,-0.21823 0.04592,-0.06251 0.122642,-0.114139 0.23016,-0.155999 0.107517,-0.0413 0.245833,-0.07256 0.414671,-0.09349 C 30.011141,12.010324 30.223426,12 30.479434,12 c 0.245558,0 0.445194,0.01033 0.598634,0.03098 0.153715,0.02093 0.276355,0.05219 0.368474,0.09349 0.09212,0.04158 0.148491,0.09349 0.168838,0.155999 0.02034,0.06223 0.02556,0.135069 0.01569,0.21823 l -1.22834,6.663731 c -0.05142,0.270138 -0.112742,0.550879 -0.184237,0.841388 -0.07177,0.290789 -0.14574,0.579065 -0.222735,0.86483 -0.07672,0.285765 -0.153714,0.555903 -0.230434,0.810133 -0.07672,0.254789 -0.14574,0.475252 -0.207336,0.662227 0.163614,-0.363625 0.422096,-0.740087 0.775172,-1.129665 0.353076,-0.389578 0.767747,-0.7479 1.243465,-1.075247 0.475993,-0.327067 0.995431,-0.599715 1.558318,-0.817946 0.562887,-0.218231 1.130998,-0.327067 1.704334,-0.327067 0.613757,0 1.140895,0.08316 1.581142,0.249207 0.440244,0.166324 0.813669,0.387067 1.120821,0.662227 0.30688,0.27516 0.555187,0.589669 0.744649,0.94269 0.189187,0.353299 0.335204,0.716645 0.437497,1.090595 0.102293,0.37395 0.174063,0.745389 0.215034,1.114037 0.04097,0.369206 0.0616,0.709389 0.0616,1.020829 z m -2.656045,0.21823 c 0,-0.280462 -0.02556,-0.602227 -0.07644,-0.966131 -0.0517,-0.363346 -0.151239,-0.701017 -0.299455,-1.012735 -0.148489,-0.311719 -0.363525,-0.573763 -0.645106,-0.786692 -0.281306,-0.212928 -0.657755,-0.319532 -1.128521,-0.319532 -0.552712,0 -1.115873,0.161301 -1.688935,0.483066 -0.573336,0.322044 -1.105424,0.766319 -1.596816,1.332268 -0.491116,0.566227 -0.928886,1.230966 -1.312485,1.994215 -0.383874,0.76325 -0.662704,1.196761 -0.836768,2.100382 l -0.506515,2.586675 c 0.480942,0.716646 0.997907,1.246315 1.550619,1.58901 0.552712,0.342694 1.176919,0.514321 1.873172,0.514321 0.532088,0 1.013306,-0.124464 1.4431,-0.37395 0.429798,-0.249486 0.818894,-0.581576 1.166747,-0.997108 0.348126,-0.415252 0.649781,-0.890504 0.906062,-1.425476 0.255732,-0.534972 0.468019,-1.095898 0.636856,-1.682776 0.168838,-0.586879 0.296706,-0.776207 0.383875,-1.368109 0.08717,-0.591902 0.130614,-1.147804 0.130614,-1.667428 z"/>
 <path style="fill:#3f8caa" d="m 39.000001,23.070662 c 0,0.623157 -0.05637,1.311337 -0.168841,2.064261 -0.112465,0.753203 -0.294227,1.111088 -0.544737,1.874337 -0.251057,0.763528 -0.565912,1.506127 -0.944283,2.228074 -0.378925,0.722227 -0.842268,1.36101 -1.38948,1.916354 -0.547765,0.555903 -1.177196,1.002691 -1.888572,1.340083 -0.711375,0.337393 -1.512122,0.506228 -2.40251,0.506228 -0.921187,0 -1.709558,-0.17665 -2.364564,-0.529669 -0.655005,-0.353022 -1.238515,-0.862039 -1.74998,-1.526779 l -0.276356,1.470804 c -0.02062,0.17665 -0.130616,0.301394 -0.330252,0.373952 -0.199636,0.07256 -0.504041,0.109115 -0.913212,0.109115 -0.429796,0 -0.716601,-0.04158 -0.859867,-0.124464 -0.143265,-0.08316 -0.194686,-0.202883 -0.153714,-0.358322 l 4.08402,-20.915943 c 0.02035,-0.08316 0.05362,-0.155998 0.09982,-0.21823 0.04592,-0.06251 0.122642,-0.114139 0.23016,-0.155999 0.107517,-0.0413 0.245833,-0.07256 0.414671,-0.09349 C 30.011141,11.010324 30.223426,11 30.479434,11 c 0.245558,0 0.445194,0.01033 0.598634,0.03098 0.153715,0.02093 0.276355,0.05219 0.368474,0.09349 0.09212,0.04158 0.148491,0.09349 0.168838,0.155999 0.02034,0.06223 0.02556,0.135069 0.01569,0.21823 l -1.22834,6.663731 c -0.05142,0.270138 -0.112742,0.550879 -0.184237,0.841388 -0.07177,0.290789 -0.14574,0.579065 -0.222735,0.86483 -0.07672,0.285765 -0.153714,0.555903 -0.230434,0.810133 -0.07672,0.254789 -0.14574,0.475252 -0.207336,0.662227 0.163614,-0.363625 0.422096,-0.740087 0.775172,-1.129665 0.353076,-0.389578 0.767747,-0.7479 1.243465,-1.075247 0.475993,-0.327067 0.995431,-0.599715 1.558318,-0.817946 0.562887,-0.218231 1.130998,-0.327067 1.704334,-0.327067 0.613757,0 1.140895,0.08316 1.581142,0.249207 0.440244,0.166324 0.813669,0.387067 1.120821,0.662227 0.30688,0.27516 0.555187,0.589669 0.744649,0.94269 0.189187,0.353299 0.335204,0.716645 0.437497,1.090595 0.102293,0.37395 0.174063,0.745389 0.215034,1.114037 0.04097,0.369206 0.0616,0.709389 0.0616,1.020829 z m -2.656045,0.21823 c 0,-0.280462 -0.02556,-0.602227 -0.07644,-0.966131 -0.0517,-0.363346 -0.151239,-0.701017 -0.299455,-1.012735 -0.148489,-0.311719 -0.363525,-0.573763 -0.645106,-0.786692 -0.281306,-0.212928 -0.657755,-0.319532 -1.128521,-0.319532 -0.552712,0 -1.115873,0.161301 -1.688935,0.483066 -0.573336,0.322044 -1.105424,0.766319 -1.596816,1.332268 -0.491116,0.566227 -0.928886,1.230966 -1.312485,1.994215 -0.383874,0.76325 -0.662704,1.196761 -0.836768,2.100382 l -0.506515,2.586675 c 0.480942,0.716646 0.997907,1.246315 1.550619,1.58901 0.552712,0.342694 1.176919,0.514321 1.873172,0.514321 0.532088,0 1.013306,-0.124464 1.4431,-0.37395 0.429798,-0.249486 0.818894,-0.581576 1.166747,-0.997108 0.348126,-0.415252 0.649781,-0.890504 0.906062,-1.425476 0.255732,-0.534972 0.468019,-1.095898 0.636856,-1.682776 0.168838,-0.586879 0.296706,-0.776207 0.383875,-1.368109 0.08717,-0.591902 0.130614,-1.147804 0.130614,-1.667428 z"/>
</svg>
