<svg xmlns="http://www.w3.org/2000/svg" width="48" height="48" version="1">
 <path style="opacity:0.2" transform="rotate(45)" d="m 27.78853,-16.44215 h 13.719406 c 5.700414,0 10.289555,4.589141 10.289555,10.2895545 V 7.5668106 c 0,5.7004134 -4.589141,10.2895544 -10.289555,10.2895544 H 27.78853 c -5.700413,0 -10.289554,-4.589141 -10.289554,-10.2895544 V -6.1525955 c 0,-5.7004135 4.589141,-10.2895545 10.289554,-10.2895545 z"/>
 <path style="fill:#3f3f3f" transform="rotate(45)" d="m 27.896867,-14.469941 12.49624,0.407722 c 5.697381,0.185892 8.27444,2.903858 8.483928,8.6004206 l 0.465968,12.6709777 c 0.106213,2.8882197 0.567696,5.1452037 -1.338396,7.0107697 -1.853377,1.813972 -4.393537,2.929309 -7.203778,2.929309 l -13.719406,0 c -5.700413,0 -10.289555,-4.589142 -10.289555,-10.2895549 V -6.8597031 c 0,-2.8691216 1.162564,-5.4567259 3.044245,-7.3193659 1.85687,-1.838081 5.230969,-0.383201 8.060754,-0.290872 z"/>
 <path style="fill:#f4f4f7;opacity:0.1" d="M 24 4 C 21.369793 4 18.74001 5.0080371 16.724609 7.0234375 L 7.0234375 16.724609 C 4.8800797 18.867967 3.8873561 21.705438 4.0234375 24.5 C 4.1432709 22.039106 5.1359945 19.612052 7.0234375 17.724609 L 16.724609 8.0234375 C 20.75541 3.9926366 27.24459 3.9926366 31.275391 8.0234375 L 40.976562 17.724609 C 42.864006 19.612052 43.856729 22.039106 43.976562 24.5 C 44.112644 21.705438 43.11992 18.867967 40.976562 16.724609 L 31.275391 7.0234375 C 29.25999 5.0080371 26.630207 4 24 4 z"/>
 <path style="opacity:0.2" d="M 24 5 C 24 5 24.010832 11.012953 23.982422 13.779297 C 23.979122 14.088356 23.822706 14.467564 23.607422 14.689453 C 22.17373 16.170032 20.697448 17.607396 19.257812 19.082031 C 19.075547 19.268919 19.00198 19.587494 19 19.845703 C 18.97821 22.983181 18.998 26.12229 19 29.259766 C 19 29.374016 18.98619 29.487324 19 29.601562 C 19.05746 29.640563 19.075358 29.679812 19.132812 29.71875 C 22.214818 26.636748 24.925256 23.553258 28 20.478516 C 28 23.306936 28.01917 26.166588 28 29.025391 C 27.9987 29.231421 27.813999 29.477623 27.662109 29.632812 C 26.453608 30.866402 25.634647 32.089695 24.400391 33.296875 C 24.112464 33.578855 23.990206 33.862081 23.992188 34.269531 C 24.006022 37.380866 24.017511 40.82259 24.021484 43.998047 C 26.644496 43.992552 29.2655 42.986453 31.275391 40.976562 L 40.976562 31.275391 C 42.864006 29.387948 43.856729 26.960894 43.976562 24.5 C 43.856729 22.039303 42.864006 19.612052 40.976562 17.724609 L 31.275391 8.0234375 C 29.25999 6.0080371 26.630207 5 24 5 z"/>
 <path style="fill:#1e84d4" d="m 24,4 c 0,0 0.01083,6.012953 -0.01758,8.779297 -0.0033,0.309059 -0.159716,0.688267 -0.375,0.910156 -1.433692,1.480579 -2.909974,2.917943 -4.34961,4.392578 -0.182265,0.186888 -0.25583,0.505463 -0.25781,0.763672 -0.02179,3.137478 -0.002,6.276587 0,9.414063 0,0.11425 -0.01381,0.227557 0,0.341796 0.05746,0.039 0.07536,0.07825 0.132814,0.117188 C 22.21482,25.636748 24.925256,22.553258 28,19.478516 c 0,2.82842 0.01917,5.688072 0,8.546875 -0.0013,0.20603 -0.185997,0.452231 -0.337887,0.607421 -1.208501,1.23359 -2.027462,2.456883 -3.261718,3.664063 -0.287927,0.28198 -0.410185,0.565206 -0.408203,0.972656 0.01519,3.41616 0.03123,7.265481 0.0332,10.681641 l 0.123047,0.04102 c 2.580403,-0.03728 5.14955,-1.038223 7.126953,-3.015626 l 9.701171,-9.701171 c 4.030801,-4.030801 4.030801,-10.519981 0,-14.550782 L 31.275391,7.0234375 C 29.25999,5.0080371 26.630207,4 24,4 Z"/>
 <path style="fill:#f4f4f7;opacity:0.2" d="M 24 4 C 24 4 24.010832 10.012953 23.982422 12.779297 C 23.979122 13.088356 23.822706 13.467564 23.607422 13.689453 C 22.17373 15.170032 20.697448 16.607396 19.257812 18.082031 C 19.075547 18.268919 19.00198 18.587494 19 18.845703 C 18.997685 19.178979 19.001447 19.512395 19 19.845703 C 19.00198 19.587494 19.075547 19.268919 19.257812 19.082031 C 20.697448 17.607396 22.17373 16.170032 23.607422 14.689453 C 23.822706 14.467564 23.979122 14.088356 23.982422 13.779297 C 24.010832 11.012953 24 5 24 5 C 26.630207 5 29.25999 6.0080371 31.275391 8.0234375 L 40.976562 17.724609 C 42.864006 19.612052 43.856729 22.039303 43.976562 24.5 C 44.112644 21.705662 43.11992 18.867967 40.976562 16.724609 L 31.275391 7.0234375 C 29.25999 5.0080371 26.630207 4 24 4 z M 28 28.025391 C 27.9987 28.231421 27.813999 28.477623 27.662109 28.632812 C 26.453608 29.866402 25.634647 31.089695 24.400391 32.296875 C 24.112464 32.578855 23.990206 32.862081 23.992188 33.269531 C 23.993554 33.576855 23.994724 33.916764 23.996094 34.230469 C 24.00246 33.84509 24.122342 33.56918 24.400391 33.296875 C 25.634647 32.089695 26.453608 30.866402 27.662109 29.632812 C 27.813999 29.477623 27.9987 29.231421 28 29.025391 C 28.002243 28.690905 27.998715 28.359848 28 28.025391 z"/>
</svg>
