<svg xmlns="http://www.w3.org/2000/svg" width="48" height="48" version="1">
 <rect style="fill:#29679e" width="40" height="40" x="-44.2" y="-44.2" rx="2" ry="2" transform="matrix(0,-1,-1,0,0,0)"/>
 <path style="opacity:0.1;fill:#f4f4f7" d="M 6,4 C 4.892,4 4,4.892 4,6 L 4,7 C 4,5.892 4.892,5 6,5 l 36,0 c 1.108,0 2,0.892 2,2 L 44,6 C 44,4.892 43.108,4 42,4 L 6,4 Z"/>
 <path style="opacity:0.2" d="M 6,45 C 4.892,45 4,44.108 4,43 l 0,-1 c 0,1.108 0.892,2 2,2 l 36,0 c 1.108,0 2,-0.892 2,-2 l 0,1 c 0,1.108 -0.892,2 -2,2 L 6,45 Z"/>
 <path style="opacity:0.2" d="M 9.5996,9 C 8.7132,9 8,9.7132 8,10.6 L 8,39.4 C 8,40.287 8.7132,41 9.5996,41 l 28.8,0 c 0.887,0 1.6,-0.713 1.6,-1.6 l 0,-28.8 c 0,-0.8868 -0.713,-1.6 -1.6,-1.6 l -28.8,0 z M 17,16 l 8,4.5 8,4.5 -8,4.5 -8,4.5 0,-18 z"/>
 <path style="fill:#f4f4f7" d="M 9.5996,8 C 8.7132,8 8,8.7132 8,9.5996 l 0,28.8 c 0,0.887 0.7132,1.6 1.5996,1.6 l 28.8,0 c 0.887,0 1.6,-0.713 1.6,-1.6 l 0,-28.8 c 0,-0.8868 -0.713,-1.6 -1.6,-1.6 l -28.8,0 z"/>
 <path style="fill:#29679e" d="m 17,15 8,4.5 8,4.5 -8,4.5 -8,4.5 0,-18 z"/>
</svg>
