<svg xmlns="http://www.w3.org/2000/svg" width="48" height="48" version="1">
 <path style="opacity:0.2" d="M 7,5 C 5.338,5 4,6.338 4,8 v 9 16 9 c 0,1.662 1.338,3 3,3 H 16 25.400391 32 c 6.648,0 12,-5.352 12,-12 V 27.800781 17 8 C 44,6.338 42.662,5 41,5 H 32 16 Z"/>
 <path style="fill:#b2bfd9" d="M 7 4 C 5.338 4 4 5.338 4 7 L 4 16 L 4 32 L 4 41 C 4 42.662 5.338 44 7 44 L 16 44 L 25.400391 44 L 32 44 C 38.648 44 44 38.648 44 32 L 44 26.800781 L 44 16 L 44 7 C 44 5.338 42.662 4 41 4 L 32 4 L 16 4 L 7 4 z"/>
 <path style="opacity:0.1" d="m 12,11 c -1.108,0 -2,0.892 -2,2 v 21 c 0,3 4,5 6,5 h 2 V 37 34 13 c 0,-1.108 -0.892,-2 -2,-2 z m 10,0 c -1.108,0 -2,0.892 -2,2 v 4 c 0,1.108 0.892,2 2,2 h 12 c 3,0 5,-4 5,-6 v -2 h -2 -3 z m -1.066406,9.999711 C 20.42118,20.988737 19.99928,21.353266 20,21.806352 v 5.195312 5.193359 c 5e-4,0.619968 0.75976,1.00719 1.367188,0.697266 l 5.08789,-2.597656 5.089844,-2.597656 c 0.606296,-0.310366 0.606296,-1.084166 0,-1.394532 l -5.089844,-2.597656 -5.08789,-2.597656 c -0.132094,-0.0673 -0.281174,-0.104232 -0.433594,-0.107422 z"/>
 <path style="fill:#f04242" d="m 12,10 c -1.108,0 -2,0.892 -2,2 v 21 c 0,3 4,5 6,5 h 2 V 36 33 12 c 0,-1.108 -0.892,-2 -2,-2 z"/>
 <path style="fill:#f04242" d="m 20,16 c 0,1.108 0.892,2 2,2 h 12 c 3,0 5,-4 5,-6 V 10 H 37 34 22 c -1.108,0 -2,0.892 -2,2 z"/>
 <path style="fill:#14a4df" d="m 20.932665,20.000218 a 0.91151724,0.80574518 0 0 0 -0.932664,0.806561 v 5.194458 5.194458 a 0.91151724,0.80574518 0 0 0 1.366692,0.696653 l 5.089065,-2.597229 5.089066,-2.597229 a 0.91151724,0.80574518 0 0 0 0,-1.394996 l -5.089066,-2.597229 -5.089065,-2.597229 a 0.91151724,0.80574518 0 0 0 -0.434028,-0.108218 z"/>
 <path style="fill:#f4f4f7;opacity:0.2" d="M 7 4 C 5.338 4 4 5.338 4 7 L 4 8 C 4 6.338 5.338 5 7 5 L 16 5 L 32 5 L 41 5 C 42.662 5 44 6.338 44 8 L 44 7 C 44 5.338 42.662 4 41 4 L 32 4 L 16 4 L 7 4 z"/>
</svg>
