<svg xmlns="http://www.w3.org/2000/svg" width="48" height="48" version="1">
 <path opacity=".2" d="m43.979 24.418a20 20 0 0 1 -19.979 19.582 20 20 0 0 1 -19.978 -19.418 20 20 0 0 0 -0.022 0.418 20 20 0 0 0 20 20 20 20 0 0 0 20 -20 20 20 0 0 0 -0.021 -0.582z"/>
 <circle style="fill:#cba606" cx="24" cy="24" r="20"/>
 <circle style="opacity:0.2" cx="24" cy="25" r="17"/>
 <circle style="fill:#e4d487" cx="24" cy="24" r="17"/>
 <path fill="#fff" opacity=".2" d="m24 4c-11.079 0-19.998 8.92-19.998 20 0 0.16772-0.004 0.33329 0 0.5 0.2642-10.846 9.087-19.5 19.998-19.5s19.734 8.6536 19.998 19.5c0.004-0.16671 0-0.33228 0-0.5 0-11.08-8.919-20-19.998-20z"/>
 <path style="opacity:0.4" d="m 22.39435,7.09129 a 17,17 0 0 0 -6.1523,1.78466 c 0.08585,0.272085 -0.01445,0.57902 -0.32725,0.85 -0.21165,0.18343 -0.38505,0.469115 -0.38505,0.635885 0,0.509745 0.4607,1.292425 0.82875,1.406155 0.48875,0.1513 0.3247,0.67286 -0.3043,0.96101 -0.2907,0.13345 -0.64855,0.51765 -0.79475,0.8534 -0.14705,0.3366 -0.36295,0.6681 -0.48025,0.73695 -0.11645,0.0697 -0.2125,0.33235 -0.2125,0.5848 0,0.35275 0.1615,0.5236 0.69105,0.73525 0.3791,0.15215 0.833,0.26265 1.00895,0.24565 1.01235,-0.0952 1.0829,0.4947 0.19805,1.6473 -0.47005,0.612 -0.69615,0.76585 -1.0166,0.6885 -0.29835,-0.0714 -0.46155,0.01275 -0.59755,0.30855 -0.1428,0.31365 -0.3774,0.4199 -1.00725,0.46325 -0.61965,0.04335 -0.89675,0.16915 -1.1288,0.5083 -0.17,0.24735 -0.4148,0.44795 -0.54485,0.44795 -0.13039,0 -0.43656,0.1666 -0.68068,0.3689 -0.49674,0.41225 -0.69071,0.4539 -0.864875,0.18445 -0.23018,-0.357 -0.726835,-0.1768 -1.46591,0.53125 -0.65365,0.6256 -0.732785,0.79305 -0.634185,1.3362 0.17544,0.96645 0.699635,1.8241 1.298205,2.1233 0.522325,0.26095 0.532525,0.289 0.215815,0.6239 -0.182155,0.19295 -0.4947,0.3995 -0.69394,0.45985 -0.57545,0.1751 -0.251515,0.3944 0.775285,0.5253 1.05094,0.13345 1.37751,0.51425 0.88655,1.0336 -0.273785,0.28985 -0.2584,0.34425 0.180965,0.61965 0.8585,0.5389 1.54122,0.2091 0.73542,-0.3553 -0.517905,-0.36295 -0.15572,-0.51085 0.60435,-0.24735 0.60605,0.20995 0.7259,0.19805 1.08375,-0.11305 0.73525,-0.63665 1.53425,0.30515 0.8619,1.01575 -0.42755,0.45305 -0.29835,0.99875 0.25585,1.0744 0.2448,0.03315 0.7531,0.26095 1.1305,0.5066 0.3774,0.2448 0.7888,0.44625 0.9129,0.44625 0.1241,0 0.4743,0.24905 0.7786,0.55335 0.6171,0.61625 0.95965,0.69445 1.1339,0.2601 0.2091,-0.5219 0.12495,-0.79135 -0.4386,-1.4059 -0.44795,-0.4896 -1.1764,-1.7901 -1.1764,-2.10205 0,-0.1921 0.74035,-0.0289 1.15515,0.25415 0.25925,0.17765 0.67915,0.4063 0.9333,0.51 0.2703,0.1105 0.5508,0.4539 0.67915,0.8296 0.19975,0.5899 0.2788,0.6409 0.986,0.6409 h 0.7684 l 0.11645,1.38125 c 0.1394,1.66175 0.27285,1.99835 0.8432,2.1352 0.4199,0.10115 0.86785,0.7514 0.86785,1.2597 0,0.13515 -0.30175,0.46665 -0.67065,0.7361 -0.4573,0.33405 -0.6545,0.61795 -0.6239,0.8959 0.03825,0.34765 -0.0408,0.40205 -0.53295,0.3655 -0.31705,-0.0238 -0.86785,0.08755 -1.22145,0.24735 -0.41905,0.1887 -0.87295,0.24905 -1.2988,0.17255 -0.4896,-0.08755 -0.65535,-0.05355 -0.65535,0.1377 0,0.1411 -0.1717,0.4046 -0.3808,0.5865 -0.5168,0.44795 -0.30345,0.6851 0.49045,0.5423 0.493,-0.0884 0.6851,-0.0493 0.7701,0.1632 0.18105,0.45135 -0.27795,1.09735 -0.7038,0.9911 -0.2703,-0.068 -0.3995,0.02465 -0.48365,0.3434 -0.0289,0.11305 -0.08245,0.2091 -0.1462,0.2907 a 17,17 0 0 0 2.69025,0.79475 c -0.085,-0.16235 -0.1819,-0.31025 -0.27625,-0.37655 -0.43775,-0.3094 -0.1445,-1.1135 0.45815,-1.258 0.61455,-0.1479 0.51765,-0.54655 -0.15045,-0.62305 -0.58565,-0.0663 -1.2087,-0.6596 -1.0132,-0.96305 0.13175,-0.20315 0.6919,-0.1734 1.82495,0.0952 0.5117,0.1207 0.86105,-0.1224 2.0468,-1.4195 0.68595,-0.7514 1.2138,-1.0642 1.79265,-1.0642 0.221,0 1.00895,-0.20315 1.75185,-0.45135 1.4025,-0.47005 1.95075,-0.45305 1.8989,0.0595 -0.1071,1.0659 0.57885,1.0302 1.6966,-0.0867 0.4658,-0.46495 0.89165,-0.80155 0.9469,-0.74885 0.21335,0.20485 -0.17085,1.2019 -0.61965,1.60565 -0.56865,0.5117 -0.5967,0.8347 -0.09605,1.09055 0.2737,0.1411 0.39015,0.42585 0.4335,1.0659 l 0.0578,0.8738 h 0.7106 c 0.24905,0 0.4556,0.034 0.6222,0.09775 a 17,17 0 0 0 8.2365,-14.0301 c -0.2601,-0.5559 -0.2414,-0.89165 0,-1.2699 a 17,17 0 0 0 -0.0765,-0.95285 c -0.1547,-0.0076 -0.3128,-0.01445 -0.4947,-0.0068 -0.8568,0.0357 -1.59035,-0.30175 -1.59035,-0.73185 0,-0.09095 -0.3043,-0.4658 -0.67575,-0.83215 -0.4216,-0.4148 -0.6375,-0.782 -0.5746,-0.9724 0.0578,-0.1734 -0.0663,-0.45305 -0.2856,-0.6426 -0.21335,-0.1853 -0.38845,-0.4828 -0.38845,-0.6613 0,-0.28475 -0.18105,-0.32045 -1.4909,-0.289 l -1.4909,0.03655 0.0255,1.46965 c 0.0442,2.5738 0.42755,3.2419 1.6099,2.81095 0.54145,-0.19805 1.8717,-0.04845 2.24995,0.2516 0.13685,0.1088 0.3349,0.5032 0.43945,0.8772 0.1054,0.37315 0.4947,1.02 0.867,1.43565 0.7531,0.8432 0.81175,1.17215 0.37995,2.16155 -0.37655,0.8636 -0.78285,0.76415 -0.7021,-0.17255 l 0.0595,-0.697 -0.6375,0.119 c -0.35275,0.06715 -0.79475,0.32725 -0.9928,0.5848 -0.2822,0.36635 -0.41395,0.4199 -0.6256,0.25245 -0.1479,-0.1173 -0.26775,-0.36465 -0.26775,-0.54825 0,-0.1836 -0.1819,-0.3876 -0.4029,-0.45475 -0.22185,-0.06715 -0.5253,-0.4012 -0.67405,-0.74375 -0.23885,-0.5474 -0.2329,-0.71485 0.04505,-1.37955 0.28135,-0.67405 0.2839,-0.7854 0.02465,-1.03445 -0.238,-0.2278 -0.36125,-0.23545 -0.67405,-0.0476 -0.3145,0.18785 -0.46325,0.17425 -0.83725,-0.0765 -0.24905,-0.16745 -0.6851,-0.306 -0.9673,-0.306 -0.57375,0 -0.74715,-0.2788 -0.74715,-1.2019 0,-0.85255 -0.5083,-1.16195 -1.7187,-1.0506 -0.8398,0.07735 -1.0251,0.0221 -1.70255,-0.4998 -0.41905,-0.32215 -1.08035,-1.09735 -1.47135,-1.72465 -0.391,-0.6273 -0.81175,-1.28265 -0.935,-1.45605 -0.1768,-0.25075 -0.13345,-0.4913 0.2125,-1.17385 l 0.4369,-0.8585 -0.9231,0.12495 c -1.6422,0.22185 -1.97455,0.43435 -1.2682,0.81345 0.2754,0.14705 0.2873,0.2227 0.0748,0.46835 -0.1394,0.1598 -0.20485,0.41395 -0.1445,0.5644 0.06035,0.1496 -0.01615,0.5032 -0.16915,0.78455 -0.15385,0.2822 -0.2822,0.67745 -0.2873,0.8806 -0.01615,0.63325 -1.10075,1.1373 -2.30945,1.07015 -1.8309,-0.10115 -1.97965,-0.07225 -2.6299,0.53125 -0.8126,0.7548 -0.91715,1.10585 -0.5389,1.80625 0.36635,0.68 1.01745,0.95115 2.14455,0.89505 1.0081,-0.05015 1.122,0.0391 0.89165,0.7055 -0.19635,0.5661 -0.85425,0.7837 -1.3005,0.4301 -0.3434,-0.27285 -1.52745,-0.06205 -1.8904,0.33745 -0.15215,0.1666 -0.37825,0.6052 -0.5015,0.9724 -0.2125,0.6341 -0.27455,0.6732 -1.22655,0.765 -0.9503,0.09265 -1.0421,0.06205 -1.7255,-0.5678 -0.76245,-0.7021 -0.89165,-1.2393 -0.52445,-2.1641 0.1632,-0.4097 0.2839,-0.47685 0.7191,-0.39695 0.8619,0.15725 1.2019,-0.14195 1.2019,-1.0625 0,-0.44625 -0.0867,-0.8636 -0.19295,-0.9265 -0.1054,-0.0629 -0.1921,-0.2992 -0.1921,-0.52615 0,-0.22695 -0.1088,-0.51935 -0.24055,-0.6477 -0.19295,-0.187 -0.1649,-0.2873 0.1428,-0.5049 0.2108,-0.14875 0.5576,-0.24905 0.7701,-0.22355 0.21165,0.0255 0.7973,-0.0663 1.30135,-0.20315 0.72845,-0.19635 0.94265,-0.3451 1.04125,-0.72845 0.187,-0.7276 0.64345,-1.31155 1.02595,-1.31155 0.60435,0 0.6171,-1.4212 0.02975,-3.4884 -0.0867,-0.30515 -0.32555,-0.49895 -0.74715,-0.6035 -0.3417,-0.085 -0.71315,-0.3179 -0.82535,-0.51833 -0.11135,-0.20043 -0.3162,-0.36363 -0.45475,-0.36363 -0.13855,0 -0.4097,-0.16592 -0.60095,-0.36856 -0.19295,-0.204 -0.5916,-0.36856 -0.89505,-0.36856 -0.71825,0 -0.73015,-0.49453 -0.01785,-0.75531 0.75225,-0.27574 1.92355,0.08568 2.2066,0.680595 0.38335,0.806735 0.8092,0.470135 0.94605,-0.74868 0.16915,-1.507475 0.68935,-1.94072 2.329,-1.94072 H 23.2979 L 22.7811,7.642515 C 22.62045,7.481355 22.487,7.28441 22.39435,7.09129 Z m 6.1115,0.534565 C 28.4727,7.655775 28.4404,7.680255 28.4081,7.71383 28.0137,8.11639 27.8284,8.173765 27.21895,8.080775 26.15475,7.91851 26.2916,8.346995 27.4697,8.86439 c 0.63665,0.279735 1.04635,0.598655 1.18575,0.921315 0.6715,1.55686 1.1339,2.395045 1.36595,2.480045 0.4692,0.17255 0.74885,-0.17374 0.8534,-1.05893 0.11985,-1.01558 0.46325,-1.230885 1.08035,-0.675665 0.2397,0.215475 0.5746,0.391765 0.74375,0.391765 0.52785,0 0.918,0.211905 0.918,0.4981 0,0.15079 0.1785,0.514165 0.39695,0.80818 0.32215,0.43265 0.5406,0.53635 1.1424,0.53635 0.73865,0 1.1917,0.13855 2.1165,0.6494 0.01445,0.0076 0.0289,0.0102 0.04335,0.01785 A 17,17 0 0 0 28.50585,7.625855 Z M 7.0034,23.927155 a 17,17 0 0 0 -0.00331,0.0731 17,17 0 0 0 0.33201,3.2657 c 0.61591,0.25075 0.78608,0.1513 0.85,-0.4216 0.033065,-0.29665 0.187935,-0.6324 0.345355,-0.74885 0.243185,-0.17935 0.199325,-0.27115 -0.29886,-0.61115 -0.32249,-0.22015 -0.640305,-0.60435 -0.705585,-0.8534 -0.06324,-0.2414 -0.2771,-0.5049 -0.519605,-0.7038 z m 5.350835,5.61935 c -0.15895,-0.01615 -0.350455,0.06885 -0.562955,0.27285 -0.449565,0.4301 -0.38165,1.29455 0.12784,1.63625 0.583865,0.39185 0.809115,0.27795 0.883065,-0.44455 0.09095,-0.8908 -0.09945,-1.428 -0.44795,-1.46455 z m 2.8849,2.5704 c -0.1734,0.0059 -0.36465,0.13005 -0.5559,0.39185 -0.20315,0.2771 -0.2584,0.63495 -0.18105,1.1781 0.09605,0.6681 0.0544,0.8109 -0.29495,0.99025 -0.44965,0.2295 -0.5457,0.9129 -0.17765,1.2648 0.3655,0.3502 0.714,0.2584 0.8398,-0.221 0.1785,-0.6834 1.17895,-0.7633 1.86235,-0.1496 0.29155,0.2618 0.52955,0.3944 0.52955,0.2941 0,-0.1003 -0.30345,-0.46495 -0.67405,-0.80835 -0.56695,-0.527 -0.67235,-0.7514 -0.67235,-1.4297 0,-0.9571 -0.29325,-1.52235 -0.67575,-1.51045 z m -4.737815,2.1947 a 17,17 0 0 0 0.393465,0.4964 c -0.115855,-0.17935 -0.248115,-0.35105 -0.393465,-0.4964 z m 5.728915,2.6095 c -0.08585,0.02975 -0.1224,0.1377 -0.1224,0.32725 0,0.1921 -0.1224,0.39355 -0.272,0.44795 -0.1989,0.0731 -0.2448,0.30345 -0.1683,0.8534 0.01445,0.10285 0.0187,0.1853 0.0238,0.27115 a 17,17 0 0 0 0.7072,0.36295 c -0.0119,-0.2941 0.04165,-0.64005 0.1955,-1.07355 0.26095,-0.7361 0.2703,-0.92055 0.0578,-1.04975 -0.1989,-0.1207 -0.3349,-0.16915 -0.4216,-0.1394 z"/>
 <path style="opacity:0.2" d="M 4.0839844,23.314453 A 20,20 0 0 0 4,25 20,20 0 0 0 4.234375,27.923828 C 7.8758572,29.745776 15.535221,33 24,33 32.460364,33 40.115929,29.750245 43.759766,27.927734 A 20,20 0 0 0 44,25 20,20 0 0 0 43.916016,23.314453 C 43.75947,23.406302 34.18881,29 24,29 13.81119,29 4.2405305,23.406302 4.0839844,23.314453 Z"/>
 <path style="fill:#cba606" d="M 4.0839844 22.314453 A 20 20 0 0 0 4 24 A 20 20 0 0 0 4.234375 26.923828 C 7.8758572 28.745776 15.535221 32 24 32 C 32.460364 32 40.115929 28.750245 43.759766 26.927734 A 20 20 0 0 0 44 24 A 20 20 0 0 0 43.916016 22.314453 C 43.75947 22.406302 34.18881 28 24 28 C 13.81119 28 4.2405305 22.406302 4.0839844 22.314453 z"/>
 <circle style="opacity:0.2" cx="36" cy="37" r="11"/>
 <circle style="fill:#4f4f4f" cx="36" cy="36" r="11"/>
 <path style="fill:#f4f4f7" d="m 34.488,29.999 -0.13345,1.5804 a 4.7567,4.7143 0 0 0 -1.3902,0.79689 l -1.4493,-0.67635 -1.5135,2.5982 1.3159,0.9057 a 4.7567,4.7143 0 0 0 -0.07265,0.7952 4.7567,4.7143 0 0 0 0.06922,0.79855 l -1.314,0.903 1.5135,2.5982 1.4459,-0.67466 a 4.7567,4.7143 0 0 0 1.393,0.792 l 0.133,1.584 h 3.027 l 0.13344,-1.5804 a 4.7567,4.7143 0 0 0 1.3902,-0.79688 l 1.4493,0.67634 1.5135,-2.5982 -1.3159,-0.9057 a 4.7567,4.7143 0 0 0 0.07265,-0.79519 4.7567,4.7143 0 0 0 -0.06922,-0.79855 l 1.313,-0.901 -1.5135,-2.5982 -1.446,0.67467 a 4.7567,4.7143 0 0 0 -1.393,-0.792 l -0.13344,-1.5837 h -3.027 z m 1.5135,4.2857 a 1.7297,1.7143 0 0 1 1.73,1.714 1.7297,1.7143 0 0 1 -1.73,1.714 1.7297,1.7143 0 0 1 -1.729,-1.714 1.7297,1.7143 0 0 1 1.729,-1.714 z"/>
</svg>
