<svg xmlns="http://www.w3.org/2000/svg" width="48" height="48" version="1">
 <rect style="fill:#4454ba" width="40" height="40" x="4" y="4" rx="2" ry="2"/>
 <path style="opacity:0.1;fill:#f4f4f7" d="M 4,7 V 6 C 4,4.892 4.892,4 6,4 h 36 c 1.108,0 2,0.892 2,2 V 7 C 44,5.892 43.108,5 42,5 H 6 C 4.892,5 4,5.892 4,7 Z"/>
 <path style="opacity:0.2" d="m 4,42 v 1 c 0,1.108 0.892,2 2,2 h 36 c 1.108,0 2,-0.892 2,-2 v -1 c 0,1.108 -0.892,2 -2,2 H 6 C 4.892,44 4,43.108 4,42 Z"/>
 <path style="opacity:0.2" d="m 16.888672,16.999904 -0.44336,0.339844 -0.443359,0.339844 v 4.933593 L 16,27.548732 20.525391,30.999904 23,29.105373 l -0.0039,-5.710938 -0.0059,-5.71289 -0.435546,-0.341797 -0.439454,-0.339844 h -2.613281 z m 7.996094,0 -0.439454,0.339844 -0.435546,0.341797 -0.0059,5.71289 L 24,29.105373 26.474609,30.999904 31,27.548732 l -0.002,-4.935547 v -4.933593 l -0.443359,-0.339844 -0.44336,-0.339844 h -2.613281 z m 16.115234,0 -1.517578,0.04687 c -1.109949,-0.0076 -2.500289,-0.01172 -2.511719,-0.0078 L 36,19.91006 c 0,0 -0.999765,-2.910899 -1.230469,-2.855468 l -0.183593,-0.01172 c -0.100545,-0.0066 -0.72061,-0.01172 -1.378907,-0.01172 H 32 v 5.130859 5.431641 l -0.0957,0.07422 c -0.08408,0.06043 -0.09962,0.08057 -0.08008,0.09961 l 3.152343,2.16211 0.0078,-2.103516 c 0.0088,-1.93424 0.01186,-2.093608 0.03906,-2.00586 L 36,28.767482 l 1.009766,-3.0625 0.0098,2.783203 0.0098,2.783203 2.962891,1.998047 0.0078,-7.757812 0.0098,-7.460938 z m -34,0.0059 1.0234375,1.013672 v 7.177735 c 0,3.9484 0.00679,7.450976 0.013672,7.783203 v 0.002 c 0.00889,0.427532 0.018494,1.02639 0.033203,1.017578 0.049224,-0.02937 7.1198255,-5.934798 7.1289065,-5.949219 0.0054,-0.0088 -0.0409,-0.05163 -0.103516,-0.0957 l -0.115234,-0.08203 v -5.095703 -5.095703 l -0.431641,-0.332032 -0.433594,-0.335937 -3.617187,-0.0059 C 8.1352812,17.003956 6.9882527,16.994753 7,17.005763 Z m 5.644531,1.972657 0.171875,0.07813 0.169922,0.07617 v 2.792969 5 l -2.957031,2.166016 c -0.03518,0.0121 -0.03887,-3.676863 -0.03125,-6.597656 l 0.00586,-3.50586 1.31836,-0.0039 z m 7.816407,0.03516 c 0.131263,-0.01068 0.154378,-0.0067 0.339843,0.08008 l 0.195313,0.0918 L 21,23.693263 c 7.53e-4,1.983722 -0.01018,4.506613 -0.02344,4.50586 L 18.003906,26.07217 V 23.029201 L 18,19.183498 l 0.183594,-0.08008 0.18164,-0.08008 h 0.978516 c 0.537964,0 1.040123,-0.0035 1.117188,-0.0098 z m 6.078124,0 c 0.07707,0.0063 0.579224,0.0098 1.117188,0.0098 h 0.978516 l 0.18164,0.08008 0.183594,0.08008 -0.0039,3.845703 v 3.042969 l -2.972656,2.126953 C 26.010177,28.199876 25.999247,25.676985 26,23.693263 l 0.0039,-4.507812 0.195313,-0.0918 c 0.185465,-0.08678 0.20858,-0.09076 0.339843,-0.08008 z"/>
 <path style="fill:#f4f4f7" d="M 16.888672 16 L 16.445312 16.339844 L 16.001953 16.679688 L 16.001953 21.613281 L 16 26.548828 L 20.525391 30 L 23 28.105469 L 22.996094 22.394531 L 22.990234 16.681641 L 22.554688 16.339844 L 22.115234 16 L 19.501953 16 L 16.888672 16 z M 24.884766 16 L 24.445312 16.339844 L 24.009766 16.681641 L 24.003906 22.394531 L 24 28.105469 L 26.474609 30 L 31 26.548828 L 30.998047 21.613281 L 30.998047 16.679688 L 30.554688 16.339844 L 30.111328 16 L 27.498047 16 L 24.884766 16 z M 41 16 L 39.482422 16.046875 C 38.372473 16.039275 36.982133 16.035152 36.970703 16.039062 L 36 18.910156 C 36 18.910156 35.000235 15.999257 34.769531 16.054688 L 34.585938 16.042969 C 34.485393 16.036369 33.865328 16.03125 33.207031 16.03125 L 32 16.03125 L 32 21.162109 L 32 26.59375 L 31.904297 26.667969 C 31.820217 26.728399 31.804679 26.748538 31.824219 26.767578 L 34.976562 28.929688 L 34.984375 26.826172 C 34.993175 24.891932 34.996238 24.732564 35.023438 24.820312 L 36 27.767578 L 37.009766 24.705078 L 37.019531 27.488281 L 37.029297 30.271484 L 39.992188 32.269531 L 40 24.511719 L 40.009766 17.050781 L 41 16 z M 7 16.005859 L 8.0234375 17.019531 L 8.0234375 24.197266 C 8.0234375 28.145666 8.0302274 31.648242 8.0371094 31.980469 L 8.0371094 31.982422 C 8.0459994 32.409954 8.0556035 33.008812 8.0703125 33 C 8.1195365 32.97063 15.190138 27.065202 15.199219 27.050781 C 15.204619 27.041981 15.158319 26.999148 15.095703 26.955078 L 14.980469 26.873047 L 14.980469 21.777344 L 14.980469 16.681641 L 14.548828 16.349609 L 14.115234 16.013672 L 10.498047 16.007812 C 8.1352812 16.004052 6.9882527 15.994849 7 16.005859 z M 12.644531 17.978516 L 12.816406 18.056641 L 12.986328 18.132812 L 12.986328 20.925781 L 12.986328 25.925781 L 10.029297 28.091797 C 9.9941169 28.103897 9.9904269 24.414934 9.9980469 21.494141 L 10.003906 17.988281 L 11.322266 17.984375 L 12.644531 17.978516 z M 20.460938 18.013672 C 20.592201 18.002992 20.615316 18.00697 20.800781 18.09375 L 20.996094 18.185547 L 21 22.693359 C 21.000753 24.677081 20.989823 27.199972 20.976562 27.199219 L 18.003906 25.072266 L 18.003906 22.029297 L 18 18.183594 L 18.183594 18.103516 L 18.365234 18.023438 L 19.34375 18.023438 C 19.881714 18.023438 20.383873 18.019972 20.460938 18.013672 z M 26.539062 18.013672 C 26.616128 18.019972 27.118286 18.023438 27.65625 18.023438 L 28.634766 18.023438 L 28.816406 18.103516 L 29 18.183594 L 28.996094 22.029297 L 28.996094 25.072266 L 26.023438 27.199219 C 26.010177 27.199972 25.999247 24.677081 26 22.693359 L 26.003906 18.185547 L 26.199219 18.09375 C 26.384684 18.00697 26.407799 18.002992 26.539062 18.013672 z"/>
</svg>
