<svg xmlns="http://www.w3.org/2000/svg" width="48" height="48" version="1.1">
 <circle style="opacity:0.2" cx="24" cy="25" r="20"/>
 <path style="fill:#3584e4" d="m 41.32053,14 a 19.999842,20 0 0 1 0,19.999999 L 24,24 Z"/>
 <path style="fill:#a347ba" d="M 41.32053,33.999999 A 19.999842,20 0 0 1 24,44 V 24 Z"/>
 <path style="fill:#33d17a" d="M 24,3.9999999 A 19.999842,20 0 0 1 41.32053,14 L 24,24 Z"/>
 <path style="fill:#f6d32d" d="M 6.6794704,14 A 19.999842,20 0 0 1 24,3.9999999 V 24 Z"/>
 <path style="fill:#ff7800" d="M 6.6794704,33.999999 A 19.999842,20 0 0 1 6.6794704,14 L 24,24 Z"/>
 <path style="fill:#ed333b" d="M 24,44 A 19.999842,20 0 0 1 6.6794704,33.999999 L 24,24 Z"/>
 <path style="opacity:0.2" d="M 34.096945,13.013033 21.946196,25.162182 C 20.973098,26.621636 21.459647,28.081091 20,29.540545 L 21.459647,31 c 1.459647,-1.459455 3.432765,-0.956754 4.37894,-1.94594 l 12.15075,-12.149148 z"/>
 <path style="fill:#f4f4f7" d="M 34.096945,12.013033 21.946196,24.162182 C 20.973098,25.621636 21.459647,27.081091 20,28.540545 L 21.459647,30 c 1.459647,-1.459455 3.432765,-0.956754 4.37894,-1.94594 l 12.15075,-12.149148 z"/>
 <path style="opacity:0.2;fill:#f4f4f7" d="M 24 4 A 20 20 0 0 0 4 24 A 20 20 0 0 0 4.0214844 24.582031 A 20 20 0 0 1 24 5 A 20 20 0 0 1 43.978516 24.417969 A 20 20 0 0 0 44 24 A 20 20 0 0 0 24 4 z"/>
 <path style="opacity:0.1" d="m 40.923584,7.0000007 a 3.0766517,3.0766614 0 0 0 -2.187085,0.916244 l -0.0015,-0.00147 L 35.570737,11.079292 33.5924,9.1011932 c -0.461303,-0.4613033 -0.922605,0 -0.922605,0 l -1.464663,1.4646688 c 0,0 -0.461547,0.461304 0,0.922607 l 8.306126,8.306399 c 0.461548,0.461548 0.922849,0 0.922849,0 l 1.464665,-1.464425 c 0.461302,-0.461548 0,-0.922851 0,-0.922851 l -1.978092,-1.978098 3.146398,-3.146408 0.01811,-0.01811 -4.89e-4,-4.9e-4 a 3.0761623,3.0761719 0 0 0 0.915292,-2.187826 c 0,-1.6993586 -1.377299,-3.0766614 -3.076162,-3.0766614 z" font-weight="400" overflow="visible"/>
 <path style="fill:#3f3f3f" d="m 40.923584,6.0000007 a 3.0766517,3.0766614 0 0 0 -2.187085,0.916244 l -0.0015,-0.00147 L 35.570737,10.079292 33.5924,8.1011932 c -0.461303,-0.4613033 -0.922605,0 -0.922605,0 l -1.464663,1.464669 c 0,0 -0.461547,0.4613038 0,0.9226068 l 8.306126,8.306399 c 0.461548,0.461548 0.922849,0 0.922849,0 l 1.464665,-1.464425 c 0.461302,-0.461548 0,-0.922851 0,-0.922851 l -1.978092,-1.978098 3.146398,-3.146408 0.01811,-0.01811 -4.89e-4,-4.9e-4 A 3.0761623,3.0761719 0 0 0 43.999991,9.07666 c 0,-1.6993586 -1.377299,-3.0766614 -3.076162,-3.0766614 z" font-weight="400" overflow="visible"/>
</svg>
