<svg xmlns="http://www.w3.org/2000/svg" width="48" height="48" version="1">
 <path style="opacity:0.2" d="M 21.35156,6.0000494 C 17.666412,5.9932902 13.615572,6.6810252 9.6901224,7.8130004 8.571303,8.1356323 6.8562374,8.7092431 6.7727659,8.7887003 c -0.043483,0.04139 0.026057,0.070009 0.2626265,0.1081185 0.6104139,0.098335 1.5079539,0.3756135 2.1810465,0.6737563 2.4523601,1.0862559 4.7464511,3.6620979 6.2974421,6.7226849 0.285293,0.562974 0.504541,1.048924 0.504541,1.118178 0,0.0201 -0.178043,0.06135 -0.470013,0.108941 -2.96426,0.483158 -5.7765436,2.348886 -8.3534226,5.146806 -1.0795768,1.172178 -2.2244701,2.715842 -3.1207979,4.207703 -0.6056464,1.008043 -1.1502921,2.062204 -1.0654203,2.062204 0.00573,0 0.2929992,-0.06882 0.6383762,-0.152945 3.6833433,-0.897171 7.0470866,-1.067403 9.4108966,-0.47626 0.996304,0.249155 1.843565,0.417655 2.441262,0.862694 0.256473,0.190966 0.519119,0.432187 0.519119,0.476753 -1.173677,1.162714 -2.459999,2.429202 -3.281107,3.651314 C 10.779107,37.01964 9.9620333,40.159837 10,44 c 1.515848,-1.162994 3.911021,-3.136994 5.746139,-3.810669 2.162257,-0.77019 4.088266,-1.022578 6.754257,-1.160294 0.741526,-0.03831 3.499604,-0.02845 3.52877,0.0382 7.579516,-0.05631 11.062878,-3.006204 14.362974,-6.654642 2.288349,-2.255804 3.48355,-5.461164 4.244697,-8.509424 0.238425,-0.981863 0.339518,-1.662053 0.359525,-2.41933 0.02369,-0.896766 -0.0656,-1.403173 -0.348728,-1.978032 -0.134729,-0.273549 -0.191146,-0.354802 -0.370815,-0.53369 -0.139828,-0.139218 -0.280654,-0.246849 -0.413947,-0.31641 -0.218409,-0.113979 -0.569405,-0.216073 -0.742836,-0.216073 -0.100187,0 -0.112613,-0.0092 -0.168911,-0.125052 l -0.06072,-0.125052 0.101884,-0.218649 c 0.509396,-1.092928 0.851148,-2.461011 1.001353,-4.201271 0.04138,-0.479479 0.06818,-1.29351 0.04642,-1.409489 -0.02264,-0.120674 -0.0078,-0.116225 -0.583351,-0.175303 -1.372234,-0.140851 -3.035064,-0.105634 -4.782944,0.101269 l -0.508596,0.06017 -0.263067,-0.232569 C 36.506115,10.87951 34.802369,9.4537828 33.054428,8.6092876 30.50949,7.3797356 27.768174,6.5211891 24.618962,6.1748587 23.573476,6.0598828 22.479664,6.00212 21.35156,6.0000494 Z"/>
 <path style="fill:#5856c2" d="M 21.35156,5.0000494 C 17.666412,4.9932902 13.615572,5.6810252 9.6901224,6.8130004 8.571303,7.1356323 6.8562374,7.7092431 6.7727659,7.7887003 c -0.043483,0.04139 0.026057,0.070009 0.2626265,0.1081185 0.6104139,0.098335 1.5079539,0.3756135 2.1810465,0.6737563 2.4523601,1.0862559 4.7464511,3.6620979 6.2974421,6.7226849 0.285293,0.562974 0.504541,1.048924 0.504541,1.118178 0,0.0201 -0.178043,0.06135 -0.470013,0.108941 -2.96426,0.483158 -5.7765436,2.348886 -8.3534226,5.146806 -1.0795768,1.172178 -2.2244701,2.715842 -3.1207979,4.207703 -0.6056464,1.008043 -1.1502921,2.062204 -1.0654203,2.062204 0.00573,0 0.2929992,-0.06882 0.6383762,-0.152945 3.6833433,-0.897171 7.0470866,-1.067403 9.4108966,-0.47626 0.996304,0.249155 1.843565,0.417655 2.441262,0.862694 0.256473,0.190966 0.519119,0.432187 0.519119,0.476753 -1.173677,1.162714 -2.459999,2.429202 -3.281107,3.651314 C 10.779107,36.01964 9.9620333,39.159837 10,43 c 1.515848,-1.162994 3.911021,-3.136994 5.746139,-3.810669 2.162257,-0.77019 4.088266,-1.022578 6.754257,-1.160294 0.741526,-0.03831 3.499604,-0.02845 3.52877,0.0382 7.579516,-0.05631 11.062878,-3.006204 14.362974,-6.654642 2.288349,-2.255804 3.48355,-5.461164 4.244697,-8.509424 0.238425,-0.981863 0.339518,-1.662053 0.359525,-2.41933 0.02369,-0.896766 -0.0656,-1.403173 -0.348728,-1.978032 -0.134729,-0.273549 -0.191146,-0.354802 -0.370815,-0.53369 -0.139828,-0.139218 -0.280654,-0.246849 -0.413947,-0.31641 -0.218409,-0.113979 -0.569405,-0.216073 -0.742836,-0.216073 -0.100187,0 -0.112613,-0.0092 -0.168911,-0.125052 l -0.06072,-0.125052 0.101884,-0.218649 c 0.509396,-1.092928 0.851148,-2.461011 1.001353,-4.201271 0.04138,-0.479479 0.06818,-1.29351 0.04642,-1.409489 -0.02264,-0.120674 -0.0078,-0.116225 -0.583351,-0.175303 -1.372234,-0.140851 -3.035064,-0.105634 -4.782944,0.101269 l -0.508596,0.06017 -0.263067,-0.232569 C 36.506115,9.87951 34.802369,8.4537828 33.054428,7.6092876 30.50949,6.3797356 27.768174,5.5211891 24.618962,5.1748587 23.573476,5.0598828 22.479664,5.00212 21.35156,5.0000494 Z"/>
 <path style="fill:#f4f4f7;opacity:0.1" d="M 21.351562 5 C 17.666415 4.9932408 13.614903 5.6805248 9.6894531 6.8125 C 8.5706337 7.1351319 6.856909 7.7096053 6.7734375 7.7890625 C 6.7299545 7.8304525 6.7985867 7.8583749 7.0351562 7.8964844 C 7.4017461 7.9555404 7.8632748 8.0863394 8.3261719 8.2402344 C 8.7897315 8.0901747 9.2763224 7.9316338 9.6894531 7.8125 C 13.614903 6.6805248 17.666415 5.9932408 21.351562 6 C 22.479667 6.0020706 23.573655 6.0608053 24.619141 6.1757812 C 27.768353 6.5221117 30.509749 7.379823 33.054688 8.609375 C 34.802628 9.4538702 36.506355 10.879101 37.902344 12.113281 L 38.166016 12.345703 L 38.673828 12.285156 C 40.421708 12.078253 42.084797 12.044696 43.457031 12.185547 C 43.867252 12.227654 43.97205 12.239287 44.009766 12.285156 C 44.027725 11.899465 44.055302 11.435518 44.041016 11.359375 C 44.018376 11.238701 44.032582 11.244625 43.457031 11.185547 C 42.084797 11.044696 40.421708 11.078253 38.673828 11.285156 L 38.166016 11.345703 L 37.902344 11.113281 C 36.506355 9.8791012 34.802628 8.4538702 33.054688 7.609375 C 30.509749 6.379823 27.768353 5.5221117 24.619141 5.1757812 C 23.573655 5.0608053 22.479667 5.0020706 21.351562 5 z M 15.609375 16.505859 C 15.575624 16.511759 15.586513 16.513389 15.548828 16.519531 C 12.584568 17.002689 9.7721915 18.870049 7.1953125 21.667969 C 6.1157357 22.840147 4.9705466 24.383139 4.0742188 25.875 C 3.4685724 26.883043 2.9229407 27.9375 3.0078125 27.9375 C 3.0126832 27.9375 3.2762824 27.873225 3.5507812 27.806641 C 3.7172017 27.50291 3.8738659 27.208469 4.0742188 26.875 C 4.9705466 25.383139 6.1157357 23.840147 7.1953125 22.667969 C 9.7721915 19.870049 12.584568 18.002689 15.548828 17.519531 C 15.840798 17.47194 16.017578 17.432209 16.017578 17.412109 C 16.017578 17.356026 15.815582 16.928096 15.609375 16.505859 z M 43.199219 17.455078 C 43.13137 17.628828 43.067428 17.809272 42.992188 17.970703 L 42.890625 18.189453 L 42.951172 18.314453 C 43.00747 18.430305 43.018954 18.439453 43.119141 18.439453 C 43.292572 18.439453 43.644872 18.542271 43.863281 18.65625 C 43.996574 18.725811 44.137516 18.833438 44.277344 18.972656 C 44.457013 19.151544 44.513708 19.23231 44.648438 19.505859 C 44.839014 19.892803 44.935021 20.257816 44.974609 20.722656 C 44.978616 20.643715 44.993974 20.564596 44.996094 20.484375 C 45.019784 19.587609 44.931565 19.080718 44.648438 18.505859 C 44.513708 18.23231 44.457013 18.151544 44.277344 17.972656 C 44.137516 17.833438 43.996574 17.725811 43.863281 17.65625 C 43.66951 17.555129 43.385126 17.474495 43.199219 17.455078 z M 15.501953 29.171875 C 14.481545 30.188487 13.439878 31.254593 12.738281 32.298828 C 10.780073 36.01982 9.9620333 39.159837 10 43 C 10.005854 42.995509 10.013651 42.98889 10.019531 42.984375 C 10.127187 39.595172 10.956366 36.684829 12.738281 33.298828 C 13.559389 32.076716 14.843901 30.809198 16.017578 29.646484 C 16.017578 29.602093 15.757464 29.362481 15.501953 29.171875 z"/>
 <path style="fill:#f4f4f7" d="M 30.548828 16.986328 C 30.37589 16.975279 30.204007 16.979582 30.033203 17 C 27.187187 17.340223 25.737709 19.408992 25.146484 22.458984 C 24.914857 24.464065 25.127634 26.855399 25.691406 28.519531 C 25.744256 28.675427 25.76631 28.780565 25.75 28.796875 C 25.73369 28.813185 25.63516 28.807293 25.490234 28.783203 C 25.402138 28.768561 25.179938 28.767737 25 28.761719 L 25 31 L 41 31 L 42.214844 29.345703 L 42.361328 28.464844 C 43.316103 25.501621 43.257808 21.395578 42.451172 20.302734 C 42.403072 20.237564 42.313283 20.158243 42.251953 20.126953 C 41.73974 19.865641 41.022421 20.498273 40.109375 22.013672 C 38.392062 25.541435 37.961558 26.480243 37.087891 27.857422 C 36.876121 28.087164 36.758133 28.117302 36.554688 27.988281 C 36.016002 27.646657 35.704141 26.448085 35.535156 23.623047 C 35.479646 22.695167 35.426458 22.711449 35.324219 22.201172 C 35.062508 20.894969 34.596225 19.853568 33.873047 18.960938 C 32.9962 17.878629 31.759393 17.063671 30.548828 16.986328 z"/>
 <path style="fill:#3f3f3f" d="M 40.007812 22.222656 C 38.664944 24.983371 38.096813 26.160741 37.462891 27.232422 A 1.9631563 3.0242382 9.5616122 0 0 38.632812 27.998047 A 1.9631563 3.0242382 9.5616122 0 0 40.966797 25.119141 A 1.9631563 3.0242382 9.5616122 0 0 40.007812 22.222656 z"/>
 <path style="opacity:0.2" d="m 21.443049,11 -0.04675,0.146283 c -0.08453,0.264603 -0.235552,0.918014 -0.2841,1.229006 C 21.029149,12.907303 21,13.303811 21,13.902317 c 0,1.036243 0.103185,1.728635 0.394097,2.644688 C 21.511052,16.91528 21.548297,17 21.593378,17 c 0.01543,0 0.152213,-0.101468 0.303958,-0.225474 1.46817,-1.199829 3.301326,-2.246156 4.967794,-2.83551 0.06809,-0.02408 0.1286,-0.0571 0.134441,-0.0734 0.01706,-0.04758 -0.478074,-0.608017 -0.803654,-0.909626 -0.58829,-0.544976 -1.132419,-0.904112 -1.895076,-1.250878 -0.275337,-0.12519 -0.627328,-0.268726 -0.782205,-0.318925 C 22.94024,11.198712 22.240931,11.056484 21.714309,11.0192 Z"/>
 <path style="fill:#f3a993" d="m 21.443049,10 -0.04675,0.146283 c -0.08453,0.264603 -0.235552,0.918014 -0.2841,1.229006 C 21.029149,11.907303 21,12.303811 21,12.902317 c 0,1.036243 0.103185,1.728635 0.394097,2.644688 C 21.511052,15.91528 21.548297,16 21.593378,16 c 0.01543,0 0.152213,-0.101468 0.303958,-0.225474 1.46817,-1.199829 3.301326,-2.246156 4.967794,-2.83551 0.06809,-0.02408 0.1286,-0.0571 0.134441,-0.0734 0.01706,-0.04758 -0.478074,-0.608017 -0.803654,-0.909626 -0.58829,-0.544976 -1.132419,-0.904112 -1.895076,-1.250878 -0.275337,-0.12519 -0.627328,-0.268726 -0.782205,-0.318925 C 22.94024,10.198712 22.240931,10.056484 21.714309,10.0192 Z"/>
 <path style="fill:#fcb9a4" d="m 41.868381,30.601551 c -0.394733,0.0027 -0.857437,0.185877 -1.157002,0.463218 -0.196732,0.182143 -0.28784,0.338767 -0.291676,0.501526 -0.0082,0.348885 0.408297,0.478485 1.020263,0.317434 0.421448,-0.110911 0.826825,-0.39388 0.966881,-0.674931 0.175681,-0.352549 0.0033,-0.579169 -0.460532,-0.605383 -0.02564,-0.0015 -0.05162,-0.002 -0.07793,-0.0019 z"/>
 <path style="fill:#fcb9a4" d="m 41.904224,30.61761 c 0.46347,0.0037 0.658074,0.237696 0.488647,0.58768 -0.119925,0.247735 -0.543848,0.544598 -0.951645,0.666437 -0.180306,0.05387 -0.538523,0.0798 -0.659422,0.04774 -0.224469,-0.05953 -0.350756,-0.188462 -0.350756,-0.358155 0,-0.237529 0.308757,-0.565577 0.708089,-0.752317 0.311651,-0.145738 0.502472,-0.193458 0.765087,-0.191381 z"/>
 <path style="fill:#fcb9a4" d="m 25.432113,31.510119 c 0.400228,0.0021 0.590706,0.127079 0.903362,0.592614 0.511919,0.762227 1.042199,1.269732 1.734927,1.660447 0.550613,0.310556 1.181247,0.494932 1.797297,0.525476 0.205399,0.01018 0.410574,0.03843 0.529587,0.07289 0.168638,0.04883 0.217428,0.07932 0.369061,0.230951 0.147935,0.147935 0.183696,0.203938 0.233582,0.365443 0.0324,0.104907 0.05892,0.238621 0.05892,0.297102 0,0.05848 -0.02651,0.19214 -0.05892,0.297046 -0.04985,0.161396 -0.08568,0.217541 -0.233089,0.364951 -0.14741,0.14741 -0.203555,0.183294 -0.364951,0.233143 -0.181324,0.056 -0.490935,0.07251 -0.760099,0.0405 -0.663112,-0.07885 -0.901183,-0.128459 -1.403025,-0.292279 -0.951517,-0.310615 -1.786526,-0.827047 -2.528842,-1.563988 -0.498489,-0.494884 -1.071032,-1.264385 -1.17728,-1.582294 -0.151612,-0.453648 0.05305,-0.937255 0.487058,-1.150919 0.165688,-0.08157 0.213354,-0.09213 0.412412,-0.09109 z"/>
 <path style="fill:#fcb9a4" d="m 25.838717,37.887743 c 0.01379,0.0011 0.03105,0.0021 0.04297,0.0032 0.133739,0.01266 0.296599,0.02417 0.409344,0.02954 -0.06861,-0.004 -0.15535,-0.01095 -0.261862,-0.02011 -0.0519,-0.0045 -0.118243,-0.0086 -0.190449,-0.01266 z"/>
 <path style="opacity:0.2" d="m 23.026949,29.216376 c -1.073259,0.404223 -1.747786,1.205778 -1.965324,2.335398 -0.06823,0.354311 -0.08277,1.088121 -0.02865,1.446471 0.30685,2.03182 1.703301,3.971579 3.757165,5.260831 1.025993,0.692002 1.648838,0.877852 2.79523,1.261939 1.12811,0.322682 2.326367,0.478075 3.660753,0.47898 1.308637,8.81e-4 2.341029,-0.12688 3.481379,-0.430835 2.522835,-0.672454 4.644255,-2.164856 5.876519,-4.134083 0.891053,-1.76142 1.87169,-3.265171 1.140077,-4.345658 -1.181682,-1.745172 -4.4105,-0.373295 -5.66118,0.159222 -1.128605,0.481984 -1.538217,0.616414 -2.129799,0.698869 -1.331873,0.185632 -2.054259,-0.01178 -4.552113,-1.243775 -1.94479,-0.930715 -4.297693,-2.220519 -6.374055,-1.487359 z"/>
 <path style="fill:#f3a993" d="m 23.026949,28.216376 c -1.073259,0.404223 -1.747786,1.205778 -1.965324,2.335398 -0.06823,0.354311 -0.08277,1.088121 -0.02865,1.446471 0.30685,2.03182 1.703301,3.971579 3.757165,5.260831 1.025993,0.692002 1.648838,0.877852 2.79523,1.261939 1.12811,0.322682 2.326367,0.478075 3.660753,0.47898 1.308637,8.81e-4 2.341029,-0.12688 3.481379,-0.430835 2.522835,-0.672454 4.644255,-2.164856 5.876519,-4.134083 0.891053,-1.76142 1.87169,-3.265171 1.140077,-4.345658 -1.181682,-1.745172 -4.4105,-0.373295 -5.66118,0.159222 -1.128605,0.481984 -1.538217,0.616414 -2.129799,0.698869 -1.331873,0.185632 -2.054259,-0.01178 -4.552113,-1.243775 -1.94479,-0.930715 -4.297693,-2.220519 -6.374055,-1.487359 z"/>
 <path style="opacity:0.1" d="M 43.048828 24.152344 C 43.005613 25.570846 42.791332 27.130292 42.361328 28.464844 L 42.214844 29.345703 L 41.703125 30.041016 C 40.491886 28.378125 37.319641 29.721095 36.082031 30.248047 C 34.953426 30.730031 34.544707 30.864816 33.953125 30.947266 C 33.643435 30.990396 33.36947 31.0064 33.095703 31 L 32.990234 31 C 32.121624 30.956232 31.245026 30.612939 29.400391 29.703125 C 28.23064 29.143319 26.913717 28.461444 25.597656 28.160156 C 25.287233 27.106913 25.116818 25.825989 25.080078 24.548828 C 25.023794 26.141316 25.205276 27.82884 25.597656 29.160156 C 26.913717 29.461444 28.23064 30.143319 29.400391 30.703125 C 31.245026 31.612939 32.121624 31.956232 32.990234 32 L 33.095703 32 C 33.36947 32.0064 33.643435 31.990396 33.953125 31.947266 C 34.544707 31.864816 34.953426 31.730031 36.082031 31.248047 C 37.319641 30.721095 40.491886 29.378125 41.703125 31.041016 L 42.214844 30.345703 L 42.361328 29.464844 C 42.896264 27.804625 43.103354 25.799104 43.048828 24.152344 z"/>
 <path style="opacity:0.2" d="m 40.10695,35.053297 c -0.460096,-0.141572 -0.696088,-0.321056 -0.913251,-0.694568 -0.50989,-0.877004 -0.138876,-2.294631 0.923347,-3.528076 0.395382,-0.459112 0.764384,-0.774855 1.267345,-1.084424 1.149662,-0.707616 2.300899,-0.833298 2.98985,-0.326401 0.264436,0.194557 0.395507,0.383615 0.5055,0.72912 0.08956,0.281348 0.0957,0.331175 0.0825,0.670007 -0.02602,0.668149 -0.224397,1.22535 -0.69273,1.945722 -0.575725,0.885549 -1.472977,1.670836 -2.333725,2.042501 -0.646434,0.279125 -1.394426,0.379787 -1.828839,0.246119 z"/>
 <path style="fill:#4f4f4f" d="m 40.10695,34.053297 c -0.460096,-0.141572 -0.696088,-0.321056 -0.913251,-0.694568 -0.50989,-0.877004 -0.138876,-2.294631 0.923347,-3.528076 0.395382,-0.459112 0.764384,-0.774855 1.267345,-1.084424 1.149662,-0.707616 2.300899,-0.833298 2.98985,-0.326401 0.264436,0.194557 0.395507,0.383615 0.5055,0.72912 0.08956,0.281348 0.0957,0.331175 0.0825,0.670007 -0.02602,0.668149 -0.224397,1.22535 -0.69273,1.945722 -0.575725,0.885549 -1.472977,1.670836 -2.333725,2.042501 -0.646434,0.279125 -1.394426,0.379787 -1.828839,0.246119 z"/>
 <ellipse style="fill:#3f3f3f" cx="32.877" cy="23.193" rx="1.97" ry="3.02" transform="matrix(0.99818724,0.06018496,-0.12149517,0.99259202,0,0)"/>
 <path style="fill:none;stroke:#000000;stroke-width:2;stroke-linecap:round;opacity:0.5" d="m 25,32 c 1.390058,2 3,3 6,3"/>
 <path style="fill:#f4f4f7;opacity:0.1" d="M 21.443359 10 L 21.396484 10.146484 C 21.311954 10.411087 21.159876 11.064008 21.111328 11.375 C 21.028278 11.907014 21 12.303838 21 12.902344 C 21 13.089094 21.008428 13.254139 21.015625 13.421875 C 21.029566 13.069381 21.053563 12.745038 21.111328 12.375 C 21.159876 12.064008 21.311954 11.411087 21.396484 11.146484 L 21.443359 11 L 21.714844 11.019531 C 22.241466 11.056815 22.941135 11.199244 23.519531 11.386719 C 23.674408 11.436918 24.025444 11.579888 24.300781 11.705078 C 25.063438 12.051844 25.607022 12.410102 26.195312 12.955078 C 26.250259 13.00598 26.313672 13.078689 26.375 13.140625 C 26.537959 13.075727 26.704888 12.99616 26.865234 12.939453 C 26.933324 12.915373 26.994159 12.881534 27 12.865234 C 27.01706 12.817654 26.520892 12.256687 26.195312 11.955078 C 25.607022 11.410102 25.063438 11.051844 24.300781 10.705078 C 24.025444 10.579888 23.674408 10.436918 23.519531 10.386719 C 22.941135 10.199244 22.241466 10.056815 21.714844 10.019531 L 21.443359 10 z"/>
</svg>
