<svg xmlns="http://www.w3.org/2000/svg" width="48" height="48" version="1">
 <path style="fill:#4f4f4f" d="m 24,4 c 7.373083,0 13.789693,3.9498766 17.257898,9.857697 1.743687,2.970237 0.732052,6.837396 0.732052,10.544313 0,11.08 -7.110955,18.291457 -18.190955,18.291457 -6.001508,0 -11.168294,-1.310481 -14.8281112,-5.470252 C 5.8739367,33.703206 4,29.078492 4,24 4,12.92 12.92,4 24,4 Z"/>
 <path style="opacity:0.2" d="M 4.0117188 24.5 C 4.0076187 24.667 4 24.832 4 25 C 4 29.857992 5.716454 34.300046 8.5761719 37.757812 C 8.917281 37.773192 9.2520543 37.814346 9.5859375 37.857422 C 6.2428299 34.377746 4.1382348 29.697703 4.0117188 24.5 z M 43.988281 24.5 C 43.987691 24.524261 43.985051 24.548026 43.984375 24.572266 C 43.988093 24.715265 44 24.85618 44 25 C 44 24.832 43.992281 24.667 43.988281 24.5 z M 9.7148438 39.009766 C 9.78491 39.081211 9.8526988 39.154223 9.9238281 39.224609 C 9.8527797 39.154292 9.7848318 39.081136 9.7148438 39.009766 z M 11.130859 40.322266 C 11.217711 40.395206 11.304468 40.467586 11.392578 40.539062 C 11.304643 40.467659 11.217566 40.395097 11.130859 40.322266 z M 12.712891 41.525391 C 12.797934 41.583454 12.884716 41.638537 12.970703 41.695312 C 12.884838 41.638597 12.798022 41.583109 12.712891 41.525391 z M 14.400391 42.5625 C 14.456343 42.593038 14.514034 42.620373 14.570312 42.650391 C 14.513784 42.62086 14.456318 42.593035 14.400391 42.5625 z M 16.076172 43.373047 C 16.138436 43.399811 16.199126 43.428929 16.261719 43.455078 C 16.199229 43.428957 16.1381 43.400211 16.076172 43.373047 z M 17.900391 44.052734 C 17.985066 44.079656 18.06913 44.106987 18.154297 44.132812 C 18.069264 44.107009 17.984893 44.079719 17.900391 44.052734 z M 19.798828 44.554688 C 19.972821 44.591624 20.146603 44.62775 20.322266 44.660156 C 20.146826 44.627676 19.97262 44.591644 19.798828 44.554688 z M 20.769531 44.738281 C 20.95717 44.768511 21.146557 44.793352 21.335938 44.818359 C 21.146571 44.793338 20.957205 44.768359 20.769531 44.738281 z M 21.841797 44.882812 C 22.060219 44.906049 22.281443 44.923249 22.501953 44.939453 C 22.281043 44.923604 22.060511 44.906098 21.841797 44.882812 z M 22.898438 44.96875 C 23.263506 44.988407 23.629858 45 24 45 C 23.630145 45 23.263201 44.988383 22.898438 44.96875 z"/>
 <path style="opacity:0.2" d="M 30.474609,8.015625 C 29.709974,8.039777 28.97638,8.1449995 28.302734,8.3535156 25.630538,9.1926422 23.126216,11.37834 21.603516,13.365234 l -0.826172,1.078125 c 0,0 -1.21724,-0.479847 -1.855469,-0.470703 -0.990984,0.02013 -1.571321,0.461707 -2.193359,1.126953 -0.433443,0.463612 -0.729611,0.998884 -0.916016,1.652344 -0.799368,2.802258 -2.173333,3.704293 -6.3515625,4.890625 -1.6970905,0.481858 -2.7406931,1.491572 -3.2246094,3.121094 -0.312894,1.053649 -0.3167955,2.75857 -0.00781,3.498047 0.336233,0.804719 1.2438954,2.084717 1.40625,1.984375 0.074733,-0.04619 0.1873855,-0.438347 0.2519532,-0.871094 0.064569,-0.432749 0.2236795,-1.041876 0.3535156,-1.353516 l 0.2363281,-0.566406 0.640625,0.626953 c 0.4761568,0.464954 0.9312955,0.705064 1.7695315,0.9375 0.620327,0.172011 1.183788,0.3125 1.253906,0.3125 0.245865,0 0.12403,-0.33947 -0.367187,-1.017578 -0.490585,-0.677231 -0.632075,-1.128906 -0.351563,-1.128906 0.07977,0 0.429207,0.117073 0.775391,0.261719 0.464076,0.193903 0.871243,0.232698 1.548828,0.148437 0.505456,-0.06286 0.978722,-0.149973 1.052734,-0.195312 0.07401,-0.04534 -0.171239,-0.344206 -0.544922,-0.664063 -0.373683,-0.31986 -0.631635,-0.630148 -0.574218,-0.6875 0.05741,-0.05735 0.574845,-0.103515 1.15039,-0.103516 1.222026,0 1.731668,-0.34617 2.244141,-1.527343 0.167558,-0.386196 0.372541,-0.703125 0.455078,-0.703125 0.08254,0 0.184224,0.36016 0.226562,0.800781 0.04384,0.456218 0.337162,1.328222 0.681641,2.025391 0.547877,1.108819 0.605336,1.349128 0.597656,2.544922 -0.0047,0.726151 -0.06536,1.832006 -0.134765,2.457031 -0.177901,1.601998 -0.264537,1.646776 -2.791016,1.513672 -1.238795,-0.06526 -2.783203,-0.40625 -2.783203,-0.40625 0,0 3.074736,3.066074 3.921875,3.574218 0.487152,0.292212 1.386067,0.662612 1.996094,0.822266 1.087955,0.284739 1.116731,0.282794 1.568359,-0.04492 0.588738,-0.427219 1.542347,-2.386451 3.208984,-6.595703 0.719588,-1.817391 1.377495,-3.469927 1.462891,-3.671875 0.08756,-0.207062 0.355848,-0.407545 0.615234,-0.460937 1.296174,-0.266802 2.800312,-0.560526 3.523438,-1.273438 1.585947,-1.376126 1.302536,-2.181675 1.203125,-3.34375 0,0 1.193287,-0.863508 2.892578,-0.253906 1.786842,0.627754 2.742596,1.450427 3.326172,3.736328 1.198008,3.878696 0.03027,9.072136 -2.625,11.800781 -1.426199,1.465607 -3.958505,2.899321 -6.408203,3.626953 -1.200869,0.356693 -1.86632,0.441516 -3.847657,0.492188 -2.42638,0.06205 -3.630235,-0.07657 -5.707031,-0.658203 -3.394329,-0.798088 -6.434353,-2.487191 -9.8808591,-2.642579 0.3599975,0.435285 0.7435217,0.849026 1.1386719,1.251954 0.069988,0.07137 0.1379359,0.144526 0.2089843,0.214843 0.3867269,0.382685 0.7900829,0.747492 1.2070309,1.097657 0.08811,0.07401 0.176226,0.148197 0.265625,0.220703 0.420774,0.341147 0.854504,0.668064 1.302735,0.974609 0.0892,0.06102 0.181248,0.118131 0.271484,0.177734 0.464469,0.306681 0.93896,0.599357 1.429688,0.867188 0.06308,0.03444 0.127911,0.06583 0.191406,0.09961 0.475473,0.252857 0.963346,0.486527 1.460937,0.701172 0.06989,0.03016 0.138676,0.06241 0.208985,0.0918 0.528385,0.220744 1.068609,0.416133 1.61914,0.591797 0.09098,0.02905 0.181893,0.05816 0.273438,0.08594 0.535322,0.162327 1.081188,0.302115 1.634765,0.419922 0.184123,0.0392 0.368694,0.07721 0.554688,0.111328 0.136533,0.02503 0.272651,0.05 0.410156,0.07227 0.192735,0.03123 0.387453,0.05632 0.582032,0.08203 0.168233,0.02221 0.336307,0.04642 0.505859,0.06445 0.243932,0.02597 0.489795,0.04532 0.736328,0.0625 0.10097,0.007 0.201347,0.01789 0.302734,0.02344 C 23.251366,44.988997 23.624248,45 24,45 c 11.08,0 20,-8.92 20,-20 0,-0.438674 -0.01891,-0.873493 -0.04687,-1.304688 -0.0064,-0.09979 -0.01366,-0.199454 -0.02148,-0.298828 -0.02946,-0.368659 -0.06792,-0.733213 -0.117188,-1.095703 -0.008,-0.05975 -0.01492,-0.120111 -0.02344,-0.179687 -0.06382,-0.439518 -0.140443,-0.875205 -0.232422,-1.304688 -9.52e-4,-0.0045 -9.51e-4,-0.0092 -0.002,-0.01367 -0.102989,-0.485655 -0.231797,-0.961872 -0.369141,-1.433593 -0.09409,-0.319525 -0.19925,-0.634668 -0.308594,-0.947266 -0.05782,-0.16686 -0.119573,-0.3313 -0.18164,-0.496094 -0.448224,-1.18007 -0.998209,-2.309058 -1.648438,-3.371093 -0.003,-0.005 -0.0048,-0.01068 -0.0078,-0.01563 -0.891986,-0.144947 -1.658204,-0.249999 -1.658204,-0.25 0,0 0.506492,-0.291198 1.085938,-0.654296 -0.01533,-0.02223 -0.03341,-0.04229 -0.04883,-0.06445 -0.617069,-0.886832 -1.305322,-1.718819 -2.054688,-2.492187 -0.03595,-0.0371 -0.06728,-0.07842 -0.103515,-0.115234 C 35.358982,10.763557 32.299115,10.79232 28.648438,13.117188 30.563144,9.7102902 33.301255,9.1757285 36.351562,9.2695312 36.169506,9.126603 35.982021,8.9901652 35.794922,8.8535156 34.32639,8.4011813 32.747694,8.0703913 31.248047,8.0175781 30.987104,8.0083886 30.729488,8.0075743 30.474609,8.015625 Z M 18.974609,16 19,18.263672 17,19 c 0.843525,-0.797863 1.507312,-1.791729 1.974609,-3 z M 10,23 v 1 C 9.333333,23.643235 8.6666666,23.658669 8,23.833984 Z"/>
 <path style="fill:#f04339" d="M 30.474609 7.015625 C 29.709974 7.039777 28.97638 7.1449995 28.302734 7.3535156 C 25.630538 8.1926422 23.126216 10.37834 21.603516 12.365234 L 20.777344 13.443359 C 20.777344 13.443359 19.560104 12.963512 18.921875 12.972656 C 17.930891 12.992786 17.350554 13.434363 16.728516 14.099609 C 16.295073 14.563221 15.998905 15.098493 15.8125 15.751953 C 15.013132 18.554211 13.639167 19.456246 9.4609375 20.642578 C 7.763847 21.124436 6.7202444 22.13415 6.2363281 23.763672 C 5.9234341 24.817321 5.9195326 26.522242 6.2285156 27.261719 C 6.5647486 28.066438 7.472411 29.346436 7.6347656 29.246094 C 7.7094986 29.199904 7.8221511 28.807747 7.8867188 28.375 C 7.9512877 27.942251 8.1103983 27.333124 8.2402344 27.021484 L 8.4765625 26.455078 L 9.1171875 27.082031 C 9.5933443 27.546985 10.048483 27.787095 10.886719 28.019531 C 11.507046 28.191542 12.070507 28.332031 12.140625 28.332031 C 12.38649 28.332031 12.264655 27.992561 11.773438 27.314453 C 11.282853 26.637222 11.141363 26.185547 11.421875 26.185547 C 11.501645 26.185547 11.851082 26.30262 12.197266 26.447266 C 12.661342 26.641169 13.068509 26.679964 13.746094 26.595703 C 14.25155 26.532843 14.724816 26.44573 14.798828 26.400391 C 14.872838 26.355051 14.627589 26.056185 14.253906 25.736328 C 13.880223 25.416468 13.622271 25.10618 13.679688 25.048828 C 13.737098 24.991478 14.254533 24.945313 14.830078 24.945312 C 16.052104 24.945312 16.561746 24.599142 17.074219 23.417969 C 17.241777 23.031773 17.44676 22.714844 17.529297 22.714844 C 17.611837 22.714844 17.713521 23.075004 17.755859 23.515625 C 17.799699 23.971843 18.093021 24.843847 18.4375 25.541016 C 18.985377 26.649835 19.042836 26.890144 19.035156 28.085938 C 19.030456 28.812089 18.969796 29.917944 18.900391 30.542969 C 18.72249 32.144967 18.635854 32.189745 16.109375 32.056641 C 14.87058 31.991381 13.326172 31.650391 13.326172 31.650391 C 13.326172 31.650391 16.400908 34.716465 17.248047 35.224609 C 17.735199 35.516821 18.634114 35.887221 19.244141 36.046875 C 20.332096 36.331614 20.360872 36.329669 20.8125 36.001953 C 21.401238 35.574734 22.354847 33.615502 24.021484 29.40625 C 24.741072 27.588859 25.398979 25.936323 25.484375 25.734375 C 25.571935 25.527313 25.840223 25.32683 26.099609 25.273438 C 27.395783 25.006636 28.899921 24.712912 29.623047 24 C 31.208994 22.623874 30.925583 21.818325 30.826172 20.65625 C 30.826172 20.65625 32.019459 19.792742 33.71875 20.402344 C 35.505592 21.030098 36.461346 21.852771 37.044922 24.138672 C 38.24293 28.017368 37.075192 33.210808 34.419922 35.939453 C 32.993723 37.40506 30.461417 38.838774 28.011719 39.566406 C 26.81085 39.923099 26.145399 40.007922 24.164062 40.058594 C 21.737682 40.120644 20.533827 39.982024 18.457031 39.400391 C 15.062702 38.602303 12.022678 36.9132 8.5761719 36.757812 C 8.9361694 37.193097 9.3196936 37.606838 9.7148438 38.009766 C 9.7848318 38.081136 9.8527797 38.154292 9.9238281 38.224609 C 10.310555 38.607294 10.713911 38.972101 11.130859 39.322266 C 11.218969 39.396276 11.307085 39.470463 11.396484 39.542969 C 11.817258 39.884116 12.250988 40.211033 12.699219 40.517578 C 12.788419 40.578598 12.880467 40.635709 12.970703 40.695312 C 13.435172 41.001993 13.909663 41.294669 14.400391 41.5625 C 14.463471 41.59694 14.528302 41.628329 14.591797 41.662109 C 15.06727 41.914966 15.555143 42.148636 16.052734 42.363281 C 16.122624 42.393441 16.19141 42.425688 16.261719 42.455078 C 16.790104 42.675822 17.330328 42.871211 17.880859 43.046875 C 17.971839 43.075925 18.062752 43.105033 18.154297 43.132812 C 18.689619 43.295139 19.235485 43.434927 19.789062 43.552734 C 19.973185 43.591934 20.157756 43.629944 20.34375 43.664062 C 20.480283 43.689093 20.616401 43.714058 20.753906 43.736328 C 20.946641 43.767558 21.141359 43.792649 21.335938 43.818359 C 21.504171 43.840569 21.672245 43.864782 21.841797 43.882812 C 22.085729 43.908783 22.331592 43.928133 22.578125 43.945312 C 22.679095 43.952312 22.779472 43.9632 22.880859 43.96875 C 23.251366 43.988997 23.624248 44 24 44 C 35.08 44 44 35.08 44 24 C 44 23.561326 43.981085 23.126507 43.953125 22.695312 C 43.946725 22.595523 43.939461 22.495858 43.931641 22.396484 C 43.902181 22.027825 43.863721 21.663271 43.814453 21.300781 C 43.806453 21.241031 43.799536 21.18067 43.791016 21.121094 C 43.727196 20.681576 43.650573 20.245889 43.558594 19.816406 C 43.557642 19.811906 43.557643 19.807204 43.556641 19.802734 C 43.453652 19.317079 43.324844 18.840862 43.1875 18.369141 C 43.09341 18.049616 42.98825 17.734473 42.878906 17.421875 C 42.821086 17.255015 42.759333 17.090575 42.697266 16.925781 C 42.249042 15.745711 41.699057 14.616723 41.048828 13.554688 C 41.045828 13.549687 41.044016 13.544013 41.041016 13.539062 C 40.14903 13.394115 39.382812 13.289063 39.382812 13.289062 C 39.382812 13.289062 39.889304 12.997864 40.46875 12.634766 C 40.45342 12.612536 40.435342 12.592472 40.419922 12.570312 C 39.802853 11.68348 39.1146 10.851493 38.365234 10.078125 C 38.329284 10.041025 38.297954 9.999705 38.261719 9.9628906 C 35.358982 9.7635569 32.299115 9.79232 28.648438 12.117188 C 30.563144 8.7102902 33.301255 8.1757285 36.351562 8.2695312 C 36.169506 8.126603 35.982021 7.9901652 35.794922 7.8535156 C 34.32639 7.4011813 32.747694 7.0703913 31.248047 7.0175781 C 30.987104 7.0083886 30.729488 7.0075743 30.474609 7.015625 z M 18.974609 15 L 19 17.263672 L 17 18 C 17.843525 17.202137 18.507312 16.208271 18.974609 15 z M 10 22 L 10 23 C 9.333333 22.643235 8.6666666 22.658669 8 22.833984 L 10 22 z"/>
 <path style="fill:#ff9e18" d="m 35.304688,21.193359 c 0.819257,0.597693 1.36107,1.460105 1.740234,2.945313 1.198008,3.878696 0.03027,9.072136 -2.625,11.800781 -1.426199,1.465607 -3.958505,2.899321 -6.408203,3.626953 -1.200869,0.356693 -1.86632,0.441516 -3.847657,0.492188 -2.42638,0.06205 -3.630235,-0.07657 -5.707031,-0.658203 -3.394329,-0.798088 -6.434353,-2.487191 -9.8808591,-2.642579 0,0 3.9128681,2.468058 6.7128901,3.363282 8.060746,2.831921 15.039221,2.760143 19.626954,-1.419922 6.416882,-6.38648 4.125325,-16.392217 0.388672,-17.507813 z"/>
 <path style="opacity:0.74;fill:#fe7e40" d="M 30.474609,7.015625 C 29.709974,7.039777 28.97638,7.1449995 28.302734,7.3535156 25.630538,8.1926422 23.126216,10.37834 21.603516,12.365234 l -0.826172,1.078125 C 25.574311,9.6895938 30.322959,7.1156519 36.351562,8.2695312 36.169506,8.126603 35.982021,7.9901652 35.794922,7.8535156 34.32639,7.4011813 32.747694,7.0703913 31.248047,7.0175781 30.987104,7.0083886 30.729488,7.0075743 30.474609,7.015625 Z m 5.574219,2.8730469 c -2.256305,0.032974 -4.662383,0.4848641 -7.40039,2.2285161 3.120521,-0.969742 7.048954,-1.255507 10.630859,-1.015626 -0.295656,-0.3496 -0.595553,-0.694725 -0.914063,-1.023437 -0.03595,-0.0371 -0.06728,-0.07842 -0.103515,-0.1152344 -0.725685,-0.049833 -1.460789,-0.08521 -2.212891,-0.074219 z m -5.697266,7.5585941 c -0.0682,3.399737 -1.235923,6.089803 -4.517578,7.882812 -2.045077,1.837117 -5.092359,8.874301 -6.134765,8.832031 -1.213352,-0.0492 -6.373047,-2.511718 -6.373047,-2.511718 0,0 3.074736,3.066074 3.921875,3.574218 0.487152,0.292212 1.386067,0.662612 1.996094,0.822266 1.087955,0.284739 1.116731,0.282792 1.568359,-0.04492 0.588738,-0.427219 1.542347,-2.386451 3.208984,-6.595703 0.719588,-1.817391 1.377495,-3.469927 1.462891,-3.671875 0.08756,-0.207062 0.355848,-0.407545 0.615234,-0.460937 0.602204,-0.123957 1.245088,-0.256723 1.837891,-0.431641 -0.0029,-0.0016 -0.0029,-0.0043 -0.0059,-0.0059 0.34169,-0.100405 0.668084,-0.213524 0.957031,-0.34961 0.13595,-0.06403 0.261512,-0.133895 0.378906,-0.208984 0.0074,-0.0048 0.01615,-0.0088 0.02344,-0.01367 0.0012,-8.13e-4 0.0027,-0.0011 0.0039,-0.002 0.12188,-0.07993 0.232137,-0.167087 0.328125,-0.261719 1.585947,-1.376126 1.302536,-2.181675 1.203125,-3.34375 0,0 0.0057,-0.0038 0.0059,-0.0039 z"/>
 <path style="opacity:0.1;fill:#f4f4f7" d="M 24,4 C 12.920985,4 4.0017778,12.92 4.0017778,24 c 0,0.168 -0.004,0.333 0,0.5 C 4.2661543,13.654 13.08897,5 24,5 c 10.91103,0 19.734246,8.654 19.998223,19.5 0.004,-0.167 0,-0.332 0,-0.5 C 43.998223,12.92 35.079015,4 24,4 Z"/>
</svg>
