<svg xmlns="http://www.w3.org/2000/svg" width="48" height="48" version="1">
 <path style="opacity:0.2" d="m 23.99939,3.9999997 c -1.10005,0 -2.200835,0.4100214 -3.023149,1.2323158 L 4.2322781,21.978145 c -1.644629,1.644587 -1.642296,4.39682 0.0024,6.041409 L 20.978641,44.765383 c 1.644629,1.644589 4.399315,1.646922 6.043944,0.0024 L 43.766548,28.021955 c 1.644628,-1.644589 1.644629,-4.399178 0,-6.043766 L 27.022541,5.2323155 C 26.200227,4.4100212 25.099441,3.9999997 23.99939,3.9999997 Z"/>
 <path style="fill:#e3b56f" d="M 23.99939,3 C 22.89934,3 21.798555,3.4100214 20.976241,4.2323158 L 4.2322781,20.978145 c -1.644629,1.644587 -1.642296,4.39682 0.0024,6.041409 L 20.978641,43.765383 c 1.644629,1.644589 4.399315,1.646922 6.043944,0.0024 L 43.766548,27.021955 c 1.644628,-1.644589 1.644629,-4.399178 0,-6.043766 L 27.022541,4.2323158 C 26.200227,3.4100215 25.099441,3 23.99939,3 Z"/>
 <path style="opacity:0.5;fill:#f4f4f7" d="M 18.019125,7.191406 15.191,10.019531 20.999594,15.828125 V 30 h 4 V 19.828125 l 4.585938,4.585937 2.828124,-2.828124 z"/>
 <path style="opacity:0.2" d="m 22.999594,12 a 4,4 0 0 0 -4,4 4,4 0 0 0 4,4 4,4 0 0 0 4,-4 4,4 0 0 0 -4,-4 z m 8,8 a 4,4 0 0 0 -4,4 4,4 0 0 0 4,4 4,4 0 0 0 4,-4 4,4 0 0 0 -4,-4 z m -8,7 a 4,4 0 0 0 -4,4 4,4 0 0 0 4,4 4,4 0 0 0 4,-4 4,4 0 0 0 -4,-4 z"/>
 <path style="fill:#f4f4f7" d="m 22.999594,11 a 4,4 0 0 0 -4,4 4,4 0 0 0 4,4 4,4 0 0 0 4,-4 4,4 0 0 0 -4,-4 z m 8,8 a 4,4 0 0 0 -4,4 4,4 0 0 0 4,4 4,4 0 0 0 4,-4 4,4 0 0 0 -4,-4 z m -8,7 a 4,4 0 0 0 -4,4 4,4 0 0 0 4,4 4,4 0 0 0 4,-4 4,4 0 0 0 -4,-4 z"/>
 <path style="opacity:0.2;fill:#f4f4f7" d="M 24,3 C 22.89995,3 21.798876,3.4101275 20.976562,4.2324219 L 4.2324219,20.978516 C 3.2862751,21.924638 2.9037262,23.234678 3.046875,24.492188 3.1538236,23.568432 3.5371786,22.673741 4.2324219,21.978516 L 20.976562,5.2324219 C 21.798876,4.4101275 22.89995,4 24,4 c 1.100051,0 2.201124,0.4101276 3.023438,1.2324219 L 43.765625,21.978516 c 0.696999,0.696981 1.081282,1.594754 1.1875,2.521484 0.144413,-1.259969 -0.23987,-2.573878 -1.1875,-3.521484 L 27.023438,4.2324219 C 26.201124,3.4101276 25.100051,3 24,3 Z"/>
</svg>
