<svg xmlns="http://www.w3.org/2000/svg" width="48" height="48" version="1.1">
 <path style="opacity:0.2" d="m 28.414062,26.528014 -2.828124,2.828124 3.511718,3.511719 a 4.0004,4.0004 0 0 0 1.074219,3.902344 l 7,7 a 4.0004,4.0004 0 1 0 5.65625,-5.65625 l -7,-7 a 4.0004,4.0004 0 0 0 -2.869141,-1.212891 4.0004,4.0004 0 0 0 -1.03125,0.140625 z"/>
 <path style="fill:#2b5fa9" d="m 28.414062,25.528014 -2.828124,2.828124 3.511718,3.511719 a 4.0004,4.0004 0 0 0 1.074219,3.902344 l 7,7 a 4.0004,4.0004 0 1 0 5.65625,-5.65625 l -7,-7 a 4.0004,4.0004 0 0 0 -2.869141,-1.212891 4.0004,4.0004 0 0 0 -1.03125,0.140625 z"/>
 <path style="opacity:0.1;fill:#f4f4f7" d="M 28.414062 25.585938 L 25.585938 28.414062 L 26.085938 28.914062 L 28.414062 26.585938 L 31.927734 30.099609 A 4.0004 4.0004 0 0 1 32.958984 29.958984 A 4.0004 4.0004 0 0 1 35.828125 31.171875 L 42.828125 38.171875 A 4.0004 4.0004 0 0 1 44.023438 40.542969 A 4.0004 4.0004 0 0 0 42.828125 37.171875 L 35.828125 30.171875 A 4.0004 4.0004 0 0 0 32.958984 28.958984 A 4.0004 4.0004 0 0 0 31.927734 29.099609 L 28.414062 25.585938 z M 28.96875 32.796875 A 4.0004 4.0004 0 0 0 28.996094 33.470703 A 4.0004 4.0004 0 0 1 29.097656 32.925781 L 28.96875 32.796875 z"/>
 <path style="opacity:0.2" d="M 8.5878906,5 C 6.0920526,5 4,7.0572654 4,9.5605469 V 13 h 4 v 2 H 4 V 26.439453 C 4,28.942735 6.0920526,31 8.5878906,31 H 25.412109 C 27.907947,31 30,28.942735 30,26.439453 V 9.5605469 C 30,7.0572654 27.907947,5 25.412109,5 Z"/>
 <path style="fill:#4c8fe8" d="M 8.5878906 4 C 6.0920526 4 4 6.0572654 4 8.5605469 L 4 12 L 8 12 L 8 14 L 4 14 L 4 25.439453 C 4 27.942735 6.0920526 30 8.5878906 30 L 25.412109 30 C 27.907947 30 30 27.942735 30 25.439453 L 30 8.5605469 C 30 6.0572654 27.907947 4 25.412109 4 L 8.5878906 4 z"/>
 <path style="opacity:0.2" d="M 11.176232,8.9999996 C 9.4483441,8.9999996 8,10.424261 8,12.157302 V 23.842698 C 8,25.57574 9.4483441,27 11.176232,27 H 22.823768 C 24.551656,27 26,25.57574 26,23.842698 V 12.157302 C 26,10.424261 24.551656,8.9999996 22.823768,8.9999996 Z"/>
 <path style="fill:#f4f4f7" d="M 11.176232,7.9999996 C 9.4483441,7.9999996 8,9.4242606 8,11.157302 V 22.842698 C 8,24.57574 9.4483441,26 11.176232,26 H 22.823768 C 24.551656,26 26,24.57574 26,22.842698 V 11.157302 C 26,9.4242606 24.551656,7.9999996 22.823768,7.9999996 Z"/>
 <path style="fill:none;stroke:#feae12;stroke-width:2" d="M 20,20 14,13 M 8,13 H 20"/>
 <circle style="fill:#feae12" cx="21" cy="13" r="2"/>
 <circle style="fill:#feae12" cx="14" cy="13" r="2"/>
 <circle style="fill:#feae12" cx="20" cy="20" r="2"/>
 <path style="opacity:0.2;fill:#f4f4f7" d="M 8.5878906 4 C 6.0920526 4 4 6.0572654 4 8.5605469 L 4 9.5605469 C 4 7.0572654 6.0920526 5 8.5878906 5 L 25.412109 5 C 27.907947 5 30 7.0572654 30 9.5605469 L 30 8.5605469 C 30 6.0572654 27.907947 4 25.412109 4 L 8.5878906 4 z M 4 14 L 4 15 L 8 15 L 8 14 L 4 14 z"/>
</svg>
