<svg xmlns="http://www.w3.org/2000/svg" width="48" height="48" version="1">
 <circle fill="#eb5555" cx="24" cy="24" r="20"/>
 <path fill="#fff" opacity=".2" d="m24 4a20 20 0 0 0 -20 20 20 20 0 0 0 0.0215 0.582 20 20 0 0 1 19.978 -19.582 20 20 0 0 1 19.979 19.418 20 20 0 0 0 0.021 -0.418 20 20 0 0 0 -20 -20z"/>
 <path opacity=".2" d="m43.979 24.418a20 20 0 0 1 -19.979 19.582 20 20 0 0 1 -19.978 -19.418 20 20 0 0 0 -0.022 0.418 20 20 0 0 0 20 20 20 20 0 0 0 20 -20 20 20 0 0 0 -0.021 -0.582z"/>
 <path style="opacity:0.2" d="m 24,12 c -2.762,0 -5,2.239 -5,5 0,2.761 2.238,5 5,5 2.762,0 5,-2.239 5,-5 0,-2.761 -2.238,-5 -5,-5 z m 0,13 c -9.999,0.006 -10,6.4 -10,6.4 V 34 c 0,0 1.846142,4 10,4 8.153858,0 10,-4 10,-4 v -2.6 c 0,0 0,-6.404 -9.998,-6.4 z"/>
 <path style="fill:#f4f4f7" d="m 24,11 c -2.762,0 -5,2.239 -5,5 0,2.761 2.238,5 5,5 2.762,0 5,-2.239 5,-5 0,-2.761 -2.238,-5 -5,-5 z m 0,13 c -9.999,0.006 -10,6.4 -10,6.4 V 33 c 0,0 1.846142,4 10,4 8.153858,0 10,-4 10,-4 v -2.6 c 0,0 0,-6.404 -9.998,-6.4 z"/>
</svg>
