<svg xmlns="http://www.w3.org/2000/svg" width="48" height="48" version="1">
 <rect style="opacity:0.2" width="14" height="12" x="29" y="29" ry="1"/>
 <rect style="fill:#55b65a" width="14" height="12" x="25" y="8" ry="1"/>
 <rect style="fill:#fec006" width="14" height="12" x="27" y="18" ry="1"/>
 <rect style="fill:#fe6c06" width="14" height="12" x="29" y="28" ry="1"/>
 <path style="opacity:0.2;fill:#f4f4f7" d="m 29.9995,28 c -0.554,0 -1,0.446 -1,1 v 1 c 0,-0.554 0.446,-1 1,-1 h 12 c 0.554,0 1,0.446 1,1 v -1 c 0,-0.554 -0.446,-1 -1,-1 z"/>
 <path style="opacity:0.2;fill:#f4f4f7" d="m 27.9995,18 c -0.554,0 -1,0.446 -1,1 v 1 c 0,-0.554 0.446,-1 1,-1 h 12 c 0.554,0 1,0.446 1,1 v -1 c 0,-0.554 -0.446,-1 -1,-1 z"/>
 <path style="opacity:0.2;fill:#f4f4f7" d="m 25.999981,8 c -0.554,0 -1,0.446 -1,1 v 1 c 0,-0.554 0.446,-1 1,-1 h 12 c 0.554,0 1,0.446 1,1 V 9 c 0,-0.554 -0.446,-1 -1,-1 z"/>
 <path style="fill:#3f89db" d="m 6.9995003,4 c -1.108,0 -2,0.892 -2,2 v 36 c 0,1.108 0.892,2 2,2 H 10.978016 34.9995 c 1.108,0 2,-0.892 2,-2 V 6 c 0,-1.108 -0.892,-2 -2,-2 h -14.021484 -10 z"/>
 <path style="opacity:0.2;fill:#f4f4f7" d="m 6.9995003,4 c -1.108,0 -2,0.892 -2,2 v 1 c 0,-1.108 0.892,-2 2,-2 H 34.9995 c 1.108,0 2,0.892 2,2 V 6 c 0,-1.108 -0.892,-2 -2,-2 h -14.021 z"/>
 <path style="opacity:0.2" d="m 4.9995003,42 v 1 c 0,1.108 0.892,2 2,2 H 34.9995 c 1.108,0 2,-0.892 2,-2 v -1 c 0,1.108 -0.892,2 -2,2 H 6.9995003 c -1.108,0 -2,-0.892 -2,-2 z"/>
 <path style="opacity:0.2" d="m 20.9995,13 c -6.627,0 -11.9999997,5.373 -11.9999997,12 0,6.627 5.3729997,12 11.9999997,12 h 7.5 c 0,0 1.4063,0 1.5,-1.5 0,-1.5 -1.5,-1.5 -1.5,-1.5 h -7.5 c -4.9706,0 -9,-4.0294 -9,-9 0,-4.9706 4.0294,-9 9,-9 4.971,0 9,4.029 9,9 v 1.5 c 0,0.828 -0.672,1.5 -1.5,1.5 -0.828,0 -1.5,-0.672 -1.5,-1.5 V 25 c 0,-3.314 -2.686,-6 -6,-6 -3.314,0 -6,2.686 -6,6 0,3.314 2.686,6 6,6 1.569,0 2.986,-0.616 4.055,-1.603 0.855,1.017 2.116,1.604 3.445,1.603 2.485,0 4.5,-2.015 4.5,-4.5 V 25 c 0,-6.627 -5.373,-12 -12,-12 z m 0,9 c 1.6568,0 3,1.3432 3,3 0,1.657 -1.343,3 -3,3 -1.657,0 -3,-1.343 -3,-3 0,-1.6568 1.3432,-3 3,-3 z"/>
 <path style="fill:#f4f4f7" d="m 20.9995,12 c -6.627,0 -11.9999997,5.373 -11.9999997,12 0,6.627 5.3729997,12 11.9999997,12 h 7.5 c 0,0 1.4063,0 1.5,-1.5 0,-1.5 -1.5,-1.5 -1.5,-1.5 h -7.5 c -4.9706,0 -9,-4.0294 -9,-9 0,-4.9706 4.0294,-9 9,-9 4.971,0 9,4.029 9,9 v 1.5 c 0,0.828 -0.672,1.5 -1.5,1.5 -0.828,0 -1.5,-0.672 -1.5,-1.5 V 24 c 0,-3.314 -2.686,-6 -6,-6 -3.314,0 -6,2.686 -6,6 0,3.314 2.686,6 6,6 1.569,0 2.986,-0.616 4.055,-1.603 0.855,1.017 2.116,1.604 3.445,1.603 2.485,0 4.5,-2.015 4.5,-4.5 V 24 c 0,-6.627 -5.373,-12 -12,-12 z m 0,9 c 1.6568,0 3,1.3432 3,3 0,1.657 -1.343,3 -3,3 -1.657,0 -3,-1.343 -3,-3 0,-1.6568 1.3432,-3 3,-3 z"/>
</svg>
