<svg xmlns="http://www.w3.org/2000/svg" width="48" height="48" version="1">
 <rect style="opacity:0.2" width="40" height="40" x="4" y="5" rx="2" ry="2"/>
 <rect style="fill:#b2bfd9" width="40" height="40" x="4" y="4" rx="2" ry="2"/>
 <path style="opacity:0.1" d="M 23 4 L 23 23 L 4 23 L 4 25 L 23 25 L 23 44 L 25 44 L 42 44 C 43.108 44 44 43.108 44 42 L 44 25 L 44 23 L 25 23 L 25 4 L 23 4 z"/>
 <path style="opacity:0.1" d="M 10 9 L 10 21 L 12 21 L 12 16.451172 L 19 13.205078 L 10 9 z M 13.703125 29 L 9 31.412109 L 10.025391 33.814453 L 12.003906 32.691406 L 11.996094 38 L 9 38 L 9 41 L 18 41 L 18 38 L 15 38 L 15 29 L 13.703125 29 z M 35.013672 29.005859 C 34.765646 29.040089 34.551503 29.218749 34.482422 29.476562 L 34.339844 30.011719 A 5 5 0 0 0 32.380859 30.271484 L 32.103516 29.789062 C 31.925577 29.480864 31.534762 29.376749 31.226562 29.554688 L 30.669922 29.875 C 30.361723 30.052939 30.257608 30.445707 30.435547 30.753906 L 30.714844 31.238281 A 5 5 0 0 0 29.513672 32.800781 L 28.974609 32.65625 C 28.630858 32.56414 28.279608 32.765624 28.1875 33.109375 L 28.021484 33.730469 C 27.929374 34.07422 28.132812 34.42547 28.476562 34.517578 L 29.011719 34.660156 A 5 5 0 0 0 29.271484 36.619141 L 28.789062 36.896484 C 28.480864 37.074423 28.376749 37.465238 28.554688 37.773438 L 28.875 38.330078 C 29.052939 38.638277 29.445707 38.742392 29.753906 38.564453 L 30.238281 38.285156 A 5 5 0 0 0 31.800781 39.486328 L 31.65625 40.025391 C 31.56414 40.369142 31.765624 40.718439 32.109375 40.810547 L 32.730469 40.978516 C 33.07422 41.070626 33.42547 40.867188 33.517578 40.523438 L 33.660156 39.988281 A 5 5 0 0 0 35.619141 39.728516 L 35.896484 40.210938 C 36.074423 40.519137 36.465238 40.623252 36.773438 40.445312 L 37.330078 40.125 C 37.638277 39.947061 37.742392 39.554293 37.564453 39.246094 L 37.285156 38.761719 A 5 5 0 0 0 38.486328 37.199219 L 39.025391 37.34375 C 39.369142 37.43586 39.718439 37.234376 39.810547 36.890625 L 39.978516 36.269531 C 40.070626 35.92578 39.867188 35.57453 39.523438 35.482422 L 38.988281 35.339844 A 5 5 0 0 0 38.728516 33.380859 L 39.210938 33.103516 C 39.519137 32.925577 39.623252 32.534762 39.445312 32.226562 L 39.125 31.669922 C 38.947061 31.361723 38.554293 31.257608 38.246094 31.435547 L 37.761719 31.714844 A 5 5 0 0 0 36.199219 30.513672 L 36.34375 29.974609 C 36.43586 29.630858 36.234376 29.279608 35.890625 29.1875 L 35.269531 29.021484 C 35.183591 28.998454 35.096347 28.994449 35.013672 29.005859 z"/>
 <path fill="#fff" opacity=".2" d="m4 7v-1c0-1.108 0.892-2 2-2h36c1.108 0 2 0.892 2 2v1c0-1.108-0.892-2-2-2h-36c-1.108 0-2 0.892-2 2z"/>
 <path style="fill:#21a286" d="M 10,7.9999995 V 20 h 2 v -4.549455 l 7,-3.245332 z"/>
 <path style="fill:#2a74d0" d="M 9.0000285,40 H 18 V 37 H 15 V 28 H 13.703919 L 9,30.411538 l 1.0245,2.40277 1.9802,-1.122 L 11.9953,37 H 8.9999715 Z" font-weight="800" letter-spacing="0" word-spacing="0"/>
 <path style="fill:#cc1319" d="M 35.013672 28.005859 C 34.765646 28.040092 34.551503 28.218749 34.482422 28.476562 L 33.671875 31.503906 L 32.103516 28.789062 C 31.925577 28.480863 31.534762 28.376749 31.226562 28.554688 L 30.669922 28.875 C 30.361723 29.052939 30.257608 29.445707 30.435547 29.753906 L 32.001953 32.46875 L 28.974609 31.65625 C 28.630858 31.564142 28.279608 31.765624 28.1875 32.109375 L 28.021484 32.730469 C 27.929376 33.07422 28.132811 33.42547 28.476562 33.517578 L 31.503906 34.328125 L 28.789062 35.896484 C 28.480863 36.074423 28.376749 36.465238 28.554688 36.773438 L 28.875 37.330078 C 29.052939 37.638277 29.445707 37.742392 29.753906 37.564453 L 32.466797 35.998047 L 31.65625 39.025391 C 31.564142 39.369142 31.765624 39.718439 32.109375 39.810547 L 32.730469 39.978516 C 33.07422 40.070624 33.42547 39.867189 33.517578 39.523438 L 34.328125 36.496094 L 35.896484 39.210938 C 36.074423 39.519137 36.465238 39.623251 36.773438 39.445312 L 37.330078 39.125 C 37.638277 38.947061 37.742392 38.554293 37.564453 38.246094 L 35.998047 35.53125 L 39.025391 36.34375 C 39.369142 36.435858 39.718439 36.234376 39.810547 35.890625 L 39.978516 35.269531 C 40.070624 34.92578 39.867189 34.57453 39.523438 34.482422 L 36.496094 33.671875 L 39.210938 32.103516 C 39.519137 31.925577 39.623251 31.534762 39.445312 31.226562 L 39.125 30.669922 C 38.947061 30.361723 38.554293 30.257608 38.246094 30.435547 L 35.533203 32.001953 L 36.34375 28.974609 C 36.435858 28.630858 36.234376 28.279608 35.890625 28.1875 L 35.269531 28.021484 C 35.183593 27.998457 35.096347 27.994448 35.013672 28.005859 z"/>
 <circle style="fill:#ed333b" cx="12.445" cy="46.445" r="5" transform="rotate(-30)"/>
 <path style="fill:#cc1319" d="m 33,33 a 1,1 0 0 1 -1,1 1,1 0 0 1 -1,-1 1,1 0 0 1 1,-1 1,1 0 0 1 1,1 z"/>
 <path style="fill:#cc1319" d="m 36,31 a 1,1 0 0 1 -1,1 1,1 0 0 1 -1,-1 1,1 0 0 1 1,-1 1,1 0 0 1 1,1 z"/>
 <path style="fill:#cc1319" d="m 37,35 a 1,1 0 0 1 -1,1 1,1 0 0 1 -1,-1 1,1 0 0 1 1,-1 1,1 0 0 1 1,1 z"/>
 <path style="fill:#cc1319" d="m 34,37 a 1,1 0 0 1 -1,1 1,1 0 0 1 -1,-1 1,1 0 0 1 1,-1 1,1 0 0 1 1,1 z"/>
</svg>
