<svg xmlns="http://www.w3.org/2000/svg" width="48" height="48" version="1">
 <path style="opacity:0.2" d="M 33.528257,6 C 31.255127,6 29.22784,6.9368268 27.718503,8.1972656 27.546122,8.0585161 27.430295,7.8851807 27.232732,7.765625 26.095249,7.0772771 24.69967,6.9031249 23.580664,7.0605469 22.016273,7.2807058 20.740641,8.2736605 19.78423,9.3828125 19.086728,9.1282478 18.360024,8.9556539 17.626545,9.0273438 17.05149,9.0835338 16.52146,9.2215242 16.04047,9.4042969 14.273147,10.075899 12.794205,11.77546 12.292809,13.449219 c -0.464421,0.142561 -0.999887,0.140716 -1.387083,0.36914 -1.5929495,0.94031 -2.8518418,3.007454 -2.9029265,4.791016 -0.051084,1.783562 0.6048914,3.069969 1.3168514,4.083984 0.4583587,0.652822 1.0997351,1.082434 1.6933741,1.566407 -0.316546,0.694427 -0.615698,1.40468 -0.784258,2.195312 -0.9367476,4.394052 0.84483,8.511994 3.495996,11.730469 C 16.376328,41.404505 20.225414,44 24.878006,44 c 5.032208,0 9.286759,-3.369502 10.755345,-8.279245 0.579776,-1.517041 0.236261,-3.268891 -0.02278,-4.71829 -0.708844,-3.937893 -1.830192,-7.846614 3.029024,-14.561106 0.878036,-1.583152 1.754439,-3.343997 1.172485,-5.917969 C 39.5211,9.236452 38.590446,7.7984797 37.344199,7.0078125 36.097953,6.2171453 34.773736,6 33.528257,6 Z"/>
 <path style="fill:#569c3b" d="M 33.528257,5 C 31.255127,5 29.22784,5.9368268 27.718503,7.1972656 27.546122,7.0585161 27.430295,6.8851807 27.232732,6.765625 26.095249,6.0772771 24.69967,5.9031249 23.580664,6.0605469 22.016273,6.2807058 20.740641,7.2736605 19.78423,8.3828125 19.086728,8.1282478 18.360024,7.9556539 17.626545,8.0273438 17.05149,8.0835338 16.52146,8.2215242 16.04047,8.4042969 14.273147,9.0758986 12.794205,10.77546 12.292809,12.449219 c -0.464421,0.142561 -0.999887,0.140716 -1.387083,0.36914 -1.5929495,0.94031 -2.8518418,3.007454 -2.9029265,4.791016 -0.051084,1.783562 0.6048914,3.069969 1.3168514,4.083984 0.4583587,0.652822 1.0997351,1.082434 1.6933741,1.566407 -0.316546,0.694427 -0.615698,1.40468 -0.784258,2.195312 -0.9367476,4.394052 0.84483,8.511994 3.495996,11.730469 C 16.376328,40.404505 20.225414,43 24.878006,43 c 5.032208,0 9.286759,-3.369502 10.755345,-8.279245 0.579776,-1.517041 0.236261,-3.268891 -0.02278,-4.71829 -0.708844,-3.937893 -1.830192,-7.846614 3.029024,-14.561106 0.878036,-1.583152 1.754439,-3.343997 1.172485,-5.9179685 C 39.5211,8.236452 38.590446,6.7984797 37.344199,6.0078125 36.097953,5.2171453 34.773736,5 33.528257,5 Z"/>
 <path style="opacity:0.2" d="m 33.557133,10 c -5.923526,0 -7.033571,9 -3.701257,9 3.331834,0 9.625026,-9 3.701257,-9 z m -9.402559,1.021484 c -3.388109,0.476268 -2.196641,6.857298 -0.392587,6.976563 1.80332,0.119267 3.78192,-7.45283 0.392587,-6.976563 z m -6.129046,1.986328 c -0.173052,0.01689 -0.358452,0.06149 -0.556653,0.136719 -3.171799,1.203939 -0.481915,6.173863 1.294951,5.839844 1.667152,-0.312652 1.857494,-6.229984 -0.738298,-5.976563 z M 13.855511,17 c -0.283193,-0.0081 -0.589969,0.07153 -0.916037,0.263672 -2.607365,1.537354 0.878128,5.251759 2.412164,4.675781 C 16.693922,21.435255 15.837863,17.05693 13.855511,17 Z m 12.162387,3.001953 C 21.349981,19.919336 15.192737,22.369154 14.142627,27.289062 13.005319,32.613253 18.825268,40 24.896778,40 c 2.98687,0 6.431785,-2.822135 7.076334,-6.396484 0.492271,-2.72564 -6.192784,-1.633618 -5.966933,0.169922 0.184419,1.473424 -0.58664,2.239685 -1.650428,2.263671 -1.452386,-0.176008 -2.164448,-1.014428 -2.355523,-2.28125 -0.260105,-3.326558 10.216715,-5.697337 9.386933,-10.855468 -0.303492,-1.886582 -2.568513,-2.848867 -5.369263,-2.898438 z"/>
 <path style="fill:#f4f4f7" d="m 33.557133,9 c -5.923526,0 -7.033571,9 -3.701257,9 3.331834,0 9.625026,-9 3.701257,-9 z m -9.402559,1.021484 c -3.388109,0.476268 -2.196641,6.857298 -0.392587,6.976563 1.80332,0.119267 3.78192,-7.4528297 0.392587,-6.976563 z m -6.129046,1.986328 c -0.173052,0.01689 -0.358452,0.06149 -0.556653,0.136719 -3.171799,1.203939 -0.481915,6.173863 1.294951,5.839844 1.667152,-0.312652 1.857494,-6.229984 -0.738298,-5.976563 z M 13.855511,16 c -0.283193,-0.0081 -0.589969,0.07153 -0.916037,0.263672 -2.607365,1.537354 0.878128,5.251759 2.412164,4.675781 C 16.693922,20.435255 15.837863,16.05693 13.855511,16 Z m 12.162387,3.001953 C 21.349981,18.919336 15.192737,21.369154 14.142627,26.289062 13.005319,31.613253 18.825268,39 24.896778,39 c 2.98687,0 6.431785,-2.822135 7.076334,-6.396484 0.492271,-2.72564 -6.192784,-1.633618 -5.966933,0.169922 0.184419,1.473424 -0.58664,2.239685 -1.650428,2.263671 -1.452386,-0.176008 -2.164448,-1.014428 -2.355523,-2.28125 -0.260105,-3.326558 10.216715,-5.697337 9.386933,-10.855468 -0.303492,-1.886582 -2.568513,-2.848867 -5.369263,-2.898438 z"/>
 <path style="opacity:0.2;fill:#f4f4f7" d="M 33.527344 5 C 31.254214 5 29.228087 5.9368268 27.71875 7.1972656 C 27.546369 7.0585161 27.429985 6.8851807 27.232422 6.765625 C 26.094939 6.0772771 24.699084 5.9031249 23.580078 6.0605469 C 22.015687 6.2807058 20.741567 7.2736605 19.785156 8.3828125 C 19.087654 8.1282478 18.360432 7.9556539 17.626953 8.0273438 C 17.051898 8.0835337 16.522006 8.2215242 16.041016 8.4042969 C 14.273693 9.0758986 12.794365 10.77546 12.292969 12.449219 C 11.828548 12.59178 11.293446 12.589935 10.90625 12.818359 C 9.3133005 13.758669 8.0530378 15.825813 8.0019531 17.609375 C 7.9944055 17.872894 8.0080747 18.122696 8.0292969 18.365234 C 8.1800237 16.640166 9.3848447 14.716437 10.90625 13.818359 C 11.293446 13.589935 11.828548 13.59178 12.292969 13.449219 C 12.794365 11.77546 14.273693 10.075899 16.041016 9.4042969 C 16.522006 9.2215242 17.051898 9.0835337 17.626953 9.0273438 C 18.360432 8.9556539 19.087654 9.1282478 19.785156 9.3828125 C 20.741567 8.2736605 22.015687 7.2807058 23.580078 7.0605469 C 24.699084 6.9031249 26.094939 7.0772771 27.232422 7.765625 C 27.429985 7.8851807 27.546369 8.0585161 27.71875 8.1972656 C 29.228087 6.9368268 31.254214 6 33.527344 6 C 34.772823 6 36.097504 6.2171453 37.34375 7.0078125 C 38.589997 7.7984797 39.52152 9.2364995 39.8125 10.523438 C 39.89913 10.906601 39.943901 11.266011 39.970703 11.615234 C 40.017504 10.976353 39.985739 10.289669 39.8125 9.5234375 C 39.52152 8.236499 38.589997 6.7984797 37.34375 6.0078125 C 36.097504 5.2171453 34.772823 5 33.527344 5 z M 10.697266 24.005859 C 10.5089 24.468738 10.337866 24.942168 10.228516 25.455078 C 10.020158 26.432433 9.9538713 27.394716 9.9941406 28.337891 C 10.021603 27.716708 10.093233 27.089655 10.228516 26.455078 C 10.397076 25.664446 10.697126 24.954193 11.013672 24.259766 C 10.909125 24.174532 10.803514 24.089237 10.697266 24.005859 z M 34.984375 25.53125 C 34.903251 27.513728 35.296931 29.255358 35.611328 31.001953 C 35.737149 31.705953 35.877536 32.482434 35.927734 33.267578 C 36.001674 32.152722 35.790626 31.005167 35.611328 30.001953 C 35.350899 28.555174 35.039118 27.110746 34.984375 25.53125 z"/>
</svg>
