<svg xmlns="http://www.w3.org/2000/svg" width="48" height="48" version="1">
 <rect style="opacity:0.2" width="32" height="35" x="8" y="10" rx="3.171" ry="3.115"/>
 <path style="fill:#989898" d="M 24 3 A 4 4 0 0 0 20 7 A 4 4 0 0 0 24 11 A 4 4 0 0 0 28 7 A 4 4 0 0 0 24 3 z M 24 5 A 2 2 0 0 1 26 7 A 2 2 0 0 1 24 9 A 2 2 0 0 1 22 7 A 2 2 0 0 1 24 5 z"/>
 <rect style="fill:#c48f61" width="32" height="35" x="8" y="9" rx="3.171" ry="3.115"/>
 <path style="opacity:0.1;fill:#f4f4f7" d="M 11.171875 9 C 9.4149158 9 8 10.389649 8 12.115234 L 8 13.115234 C 8 11.389649 9.4149158 10 11.171875 10 L 36.828125 10 C 38.585084 10 40 11.389649 40 13.115234 L 40 12.115234 C 40 10.389649 38.585084 9 36.828125 9 L 11.171875 9 z"/>
 <rect style="fill:#f4f4f7" width="26" height="30" x="11" y="11"/>
 <path style="fill:#989898" d="M 17.333984 7 C 16.595317 7 16 7.6363054 16 8.4277344 L 16 10.572266 L 16 12 L 32 12 L 32 10.572266 L 32 8.4277344 C 32 7.6363054 31.404683 7 30.666016 7 L 26 7 A 2 2 0 0 1 24 9 A 2 2 0 0 1 22 7 L 17.333984 7 z"/>
 <path style="fill:none;stroke:#5f5f5f;stroke-width:3;stroke-linecap:round" d="M 15.419966,26.499995 17.526319,28.007057 20.5,24.496472"/>
 <path style="fill:none;stroke:#c8c8c8;stroke-width:3;stroke-linecap:round" d="m 25.5,17.49985 h 7.9"/>
 <path style="fill:none;stroke:#5f5f5f;stroke-width:3;stroke-linecap:round" d="m 15.419966,17.499995 2.106352,1.507062 2.973681,-3.510585"/>
 <path style="fill:none;stroke:#5f5f5f;stroke-width:3;stroke-linecap:round" d="m 15.419966,35.500005 2.106352,1.507053 2.973681,-3.510586"/>
 <path style="fill:none;stroke:#c8c8c8;stroke-width:3;stroke-linecap:round" d="m 25.5,26.49985 h 7.9"/>
 <path style="fill:none;stroke:#c8c8c8;stroke-width:3;stroke-linecap:round" d="m 25.5,35.49985 h 7.9"/>
 <rect style="opacity:0.2" width="26" height="1" x="11" y="41"/>
 <path style="opacity:0.1;fill:#f4f4f7" d="M 24 3 A 4 4 0 0 0 20 7 L 17.333984 7 C 16.595317 7 16 7.6363054 16 8.4277344 L 16 9.4277344 C 16 8.6363054 16.595317 8 17.333984 8 L 20 8 A 4 4 0 0 1 24 4 A 4 4 0 0 1 28 8 L 30.666016 8 C 31.404683 8 32 8.6363054 32 9.4277344 L 32 8.4277344 C 32 7.6363054 31.404683 7 30.666016 7 L 28 7 A 4 4 0 0 0 24 3 z M 25.935547 7.4960938 A 2 2 0 0 1 24 9 A 2 2 0 0 1 22.064453 7.5039062 A 2 2 0 0 0 22 8 A 2 2 0 0 0 24 10 A 2 2 0 0 0 26 8 A 2 2 0 0 0 25.935547 7.4960938 z"/>
</svg>
