<svg xmlns="http://www.w3.org/2000/svg" width="48" height="48" version="1">
 <path id="ellipse856" style="opacity:0.2" d="M 23.995798,5 A 9.2852572,10 0 0 0 15.56597,10.841797 10.252114,9.0569205 23.678628 0 0 6.1280798,15 10.252114,9.0569205 23.678628 0 0 7.1322355,25 9.0569205,10.252114 66.321372 0 0 6.1280798,35 9.0569205,10.252114 66.321372 0 0 15.56597,39.160156 9.2852572,10 0 0 0 23.995798,45 9.2852572,10 0 0 0 32.429533,39.158203 C 36.360648,39.66891 40.046421,38.044553 41.86547,35 c 1.888239,-3.169465 1.338746,-7.107699 -1.049089,-10.068359 0.01668,0.02068 0.03625,0.03977 0.05275,0.06055 A 9.0569201,10.252114 66.32137 0 0 41.86547,15 9.0569201,10.252114 66.32137 0 0 34.144802,10.744141 9.0569201,10.252114 66.32137 0 0 32.429533,10.841797 9.2852572,10 0 0 0 23.995798,5 Z m 4.292081,7.205078 a 9.0569201,10.252114 66.32137 0 1 0.002,0 9.0569201,10.252114 66.32137 0 0 0,0.002 9.0569201,10.252114 66.32137 0 0 -0.77363,0.478516 9.0569201,10.252114 66.32137 0 1 0.771676,-0.480469 z m -1.08816,0.705078 a 9.0569201,10.252114 66.32137 0 0 -0.498171,0.373047 9.0569201,10.252114 66.32137 0 1 0.498171,-0.373047 z m -0.830284,0.658203 a 9.0569201,10.252114 66.32137 0 0 -0.408305,0.367188 9.0569201,10.252114 66.32137 0 1 0.408305,-0.367188 z m -0.738466,0.707032 a 9.0569201,10.252114 66.32137 0 0 -0.363371,0.392578 9.0569201,10.252114 66.32137 0 1 0.363371,-0.392578 z m -0.656413,0.755859 a 9.0569201,10.252114 66.32137 0 0 -0.318438,0.417969 9.0569201,10.252114 66.32137 0 1 0.318438,-0.417969 z m -0.57436,0.804688 a 9.0569201,10.252114 66.32137 0 0 -0.27546,0.439453 9.0569201,10.252114 66.32137 0 1 0.27546,-0.439453 z m 14.108971,6.955078 c 0.05651,0.03914 0.108574,0.08113 0.164104,0.121093 -0.05551,-0.03989 -0.107621,-0.08202 -0.164104,-0.121093 z m 0.836146,0.638672 c 0.09217,0.07749 0.176746,0.160394 0.265691,0.240234 -0.0891,-0.07985 -0.173355,-0.162741 -0.265691,-0.240234 z m 0.769722,0.714843 c 0.07384,0.07517 0.141743,0.153657 0.212944,0.230469 -0.07119,-0.07672 -0.139106,-0.15539 -0.212944,-0.230469 z m -16.039139,0.859375 c 0.33894,0.0031 0.672853,0.02712 1.002202,0.06836 -0.01026,-0.0013 -0.02099,-7.06e-4 -0.03126,-0.002 a 9.2852572,10 0 0 0 -0.970944,-0.06641 z m 1.291337,0.117188 c 0.158445,0.02533 0.318998,0.04429 0.474727,0.07813 0.09054,0.01967 0.178084,0.04782 0.267644,0.07031 -0.01344,-0.0034 -0.02756,-0.0045 -0.04103,-0.0078 a 9.2852572,10 0 0 0 -0.226618,-0.0625 9.2852572,10 0 0 0 -0.427841,-0.06836 c -0.01583,-0.0026 -0.03103,-0.0072 -0.04689,-0.0098 z m 1.08816,0.24414 c 0.230719,0.06817 0.45669,0.145961 0.679857,0.232422 -0.02687,-0.01042 -0.05507,-0.01718 -0.08205,-0.02734 a 9.2852572,10 0 0 0 -0.550918,-0.189453 c -0.01584,-0.0048 -0.03101,-0.01093 -0.04689,-0.01563 z m 0.988526,0.353516 c 0.254081,0.109604 0.501915,0.232766 0.744326,0.365234 -0.04312,-0.02358 -0.08934,-0.04158 -0.132845,-0.06445 a 9.2852572,10 0 0 0 -0.576315,-0.283203 c -0.01201,-0.0052 -0.02313,-0.01238 -0.03517,-0.01758 z m 0.927966,0.460938 c 0.02555,0.01473 0.05078,0.02994 0.07619,0.04492 0.267619,0.157795 0.526751,0.329199 0.777536,0.513672 a 9.2852572,10 0 0 0 -0.777536,-0.513672 9.2852572,10 0 0 0 -0.04493,-0.02344 c -0.01092,-0.0064 -0.02032,-0.01517 -0.03126,-0.02148 z m 1.000248,0.675781 c 0.197277,0.151309 0.392864,0.305599 0.578269,0.472656 a 9.2852572,10 0 0 0 -0.578269,-0.472656 z m 0.908429,0.798828 c 0.108201,0.107411 0.218991,0.211441 0.322346,0.324219 a 9.2852572,10 0 0 0 -0.294995,-0.294922 9.2852572,10 0 0 0 -0.02735,-0.0293 z m 0.713068,0.785156 c 0.07668,0.09478 0.1552,0.187289 0.228572,0.285156 a 9.2852572,10 0 0 0 -0.191454,-0.232421 c -0.01336,-0.01675 -0.02365,-0.03608 -0.03712,-0.05273 z m 0.42198,0.566406 c 0.02139,0.03066 0.0434,0.06086 0.06447,0.0918 -0.0092,-0.01351 -0.02004,-0.02561 -0.0293,-0.03906 a 9.2852572,10 0 0 0 -0.03516,-0.05273 z m 0.160195,0.240235 a 9.0569201,10.252114 66.32137 0 0 0.0078,0 c 0.0619,0.09449 0.124741,0.188291 0.18364,0.285156 a 9.2852572,10 0 0 0 -0.191454,-0.285156 z m 0.347743,0.566406 c 0.107239,0.18962 0.213076,0.380489 0.30867,0.578125 A 9.2852572,10 0 0 0 31.923548,29.8125 Z m 0.429795,0.847656 c 0.09413,0.209767 0.183101,0.42106 0.263737,0.638672 a 9.2852572,10 0 0 0 -0.263737,-0.638672 z m 0.355556,0.90625 c 0.07394,0.217485 0.145094,0.435898 0.205129,0.660156 a 9.2852572,10 0 0 0 -0.205129,-0.660156 z m 0.28132,0.986328 c 0.04859,0.20764 0.09458,0.416332 0.130892,0.628907 a 9.2852572,10 0 0 0 -0.130892,-0.628907 z m 0.187546,1.021485 c 0.02563,0.192771 0.0492,0.385876 0.06447,0.582031 a 9.2852572,10 0 0 0 -0.06447,-0.582031 z"/>
 <ellipse style="fill:#278df2" cx="23.999" cy="24" rx="16.503" ry="16"/>
 <ellipse id="ellipse8" style="fill:#34e0c4" cx="32.676" cy="-18.58" rx="9.072" ry="10.237" transform="matrix(0.51165103,0.85919336,-0.87259818,0.48843875,0,0)"/>
 <ellipse id="ellipse10" style="fill:#ffc107" cx="23.999" cy="34" rx="9.283" ry="10"/>
 <ellipse id="ellipse14" style="fill:#fb8300" cx="32.676" cy="1.893" rx="9.072" ry="10.237" transform="matrix(0.51165103,0.85919336,-0.87259818,0.48843875,0,0)"/>
 <ellipse id="ellipse18" style="fill:#fa3e30" cx="9.224" cy="22.675" rx="9.072" ry="10.237" transform="matrix(-0.51165103,0.85919336,0.87259818,0.48843875,0,0)"/>
 <path style="fill:#a544c9" d="M 23.998821,4 A 9.2829514,10 0 0 0 14.715869,14 9.2829514,10 0 0 0 23.998821,24 9.0565567,10.249979 66.278874 0 1 28.289767,11.205078 9.0565567,10.249979 66.278874 0 1 32.429625,9.841797 9.2829514,10 0 0 0 23.998821,4 Z m 0,20 A 9.2829514,10 0 0 0 32.822459,17.083984 9.2829514,10 0 0 1 31.575465,19.753906 10.249979,9.0565567 23.721126 0 0 23.998821,24 Z m 8.823638,-6.916016 a 9.2829514,10 0 0 0 0.223614,-0.882812 9.2829514,10 0 0 1 -0.223614,0.882812 z m -0.284048,-6.976562 a 9.2829514,10 0 0 1 0.310236,0.912109 9.2829514,10 0 0 0 -0.310236,-0.912109 z m 0.324339,0.953125 a 9.2829514,10 0 0 1 0.189367,0.791015 9.2829514,10 0 0 0 -0.189367,-0.791015 z m 0.241743,1.035156 a 9.2829514,10 0 0 1 0.09065,0.638672 9.2829514,10 0 0 0 -0.09065,-0.638672 z m 0.134974,1.037109 A 9.2829514,10 0 0 1 33.281772,14 a 9.2829514,10 0 0 0 -0.0423,-0.867188 z m 0.02215,1.308594 a 9.2829514,10 0 0 1 -0.04029,0.65625 9.2829514,10 0 0 0 0.04029,-0.65625 z m -0.07252,0.886719 a 9.2829514,10 0 0 1 -0.120872,0.775391 9.2829514,10 0 0 0 0.120872,-0.775391 z"/>
 <path style="fill:#009688" d="M 31.718497,19.744141 C 28.419739,19.834623 25.531065,21.427149 23.998821,24 c 5.126832,0 9.282951,4.477152 9.282951,10 -0.0036,1.435898 -0.294259,2.854115 -0.852147,4.158203 C 36.359764,38.66891 40.04507,37.044553 41.863667,34 44.427616,29.695265 42.506426,23.966581 37.572718,21.205078 35.772638,20.19784 33.732093,19.688616 31.718497,19.744141 Z m 0.711128,18.414062 z M 23.998821,24 Z"/>
 <path id="ellipse980" style="fill:#03a9f4" d="m 34.144999,9.7441405 a 9.0565567,10.249979 66.278874 0 0 -5.854727,1.4619145 9.0565567,10.249979 66.278874 0 0 -4.290948,12.793457 c 1.532334,-2.572508 4.420665,-4.164896 7.719173,-4.255372 2.013596,-0.05552 4.054141,0.4537 5.854221,1.460938 1.326219,0.742313 2.432505,1.700308 3.294765,2.786133 A 9.0565567,10.249979 66.278874 0 0 41.86417,14 9.0565567,10.249979 66.278874 0 0 34.144999,9.7441405 Z M 23.999324,24 a 9.0565567,10.249979 66.278874 0 0 7.590243,4.246582 C 29.90942,25.67887 27.137193,24.00018 23.999324,24 Z"/>
 <path style="fill:#ffc107" d="m 23.999324,23.999512 c -15.9995493,16.000325 -7.999775,8.000163 0,0 z m 0,4.88e-4 c 1.628754,3.233879 4.429558,4.634072 7.590243,4.246582 C 29.90942,25.67887 27.137193,24.00018 23.999324,24 Z"/>
 <path id="ellipse880" style="opacity:0.2;fill:#f4f4f7" d="M 23.998047,4 A 9.2829514,10 0 0 0 15.570312,9.8417969 10.249979,9.0565571 23.721124 0 0 6.1347656,14 10.249979,9.0565571 23.721124 0 0 5.03125,18.626953 10.249979,9.0565571 23.721124 0 1 6.1347656,15 10.249979,9.0565571 23.721124 0 1 15.570312,10.841797 9.2829514,10 0 0 1 23.998047,5 9.2829514,10 0 0 1 32.429688,10.841797 9.0565567,10.249979 66.278874 0 1 34.144531,10.744141 9.0565567,10.249979 66.278874 0 1 41.863281,15 9.0565567,10.249979 66.278874 0 1 42.972656,18.679688 9.0565567,10.249979 66.278874 0 0 41.863281,14 9.0565567,10.249979 66.278874 0 0 34.144531,9.7441406 9.0565567,10.249979 66.278874 0 0 32.429688,9.8417969 9.2829514,10 0 0 0 23.998047,4 Z m 4.291015,8.205078 a 9.0565567,10.249979 66.278874 0 0 -0.771484,0.480469 9.0565567,10.249979 66.278874 0 1 0.773438,-0.478516 9.0565567,10.249979 66.278874 0 0 0,-0.002 9.0565567,10.249979 66.278874 0 1 -0.002,0 z M 6.7773438,24.503906 a 9.0565571,10.249979 66.278876 0 0 -1.75,5.824219 A 9.0565571,10.249979 66.278876 0 1 7.1386719,25 10.249979,9.0565571 23.721124 0 1 6.7773438,24.503906 Z m 34.4394532,0.002 a 9.0565567,10.249979 66.278874 0 1 -0.349609,0.486329 c -0.01649,-0.02078 -0.03605,-0.03987 -0.05273,-0.06055 1.300335,1.612676 2.051174,3.515244 2.164063,5.425781 0.121382,-2.019743 -0.516337,-4.075037 -1.761719,-5.851563 z m -15.847656,0.615235 c 0.01585,0.0026 0.03105,0.0072 0.04687,0.0098 a 9.2829514,10 0 0 1 0.427734,0.06836 c -0.15569,-0.03384 -0.316203,-0.05279 -0.474609,-0.07813 z m 0.474609,0.07813 a 9.2829514,10 0 0 1 0.226562,0.0625 c 0.01347,0.0033 0.02758,0.0044 0.04102,0.0078 -0.08954,-0.02249 -0.177068,-0.05064 -0.267578,-0.07031 z m 2.529297,0.980469 c 0.01094,0.0063 0.02034,0.01508 0.03125,0.02148 a 9.2829514,10 0 0 1 0.04492,0.02344 c -0.0254,-0.01498 -0.05062,-0.03019 -0.07617,-0.04492 z m 2.621094,2.259765 c 0.01346,0.01665 0.02375,0.03599 0.03711,0.05273 a 9.2829514,10 0 0 1 0.191406,0.232421 C 31.149307,28.626786 31.070802,28.53428 30.994142,28.4395 Z m 0.421875,0.566406 a 9.2829514,10 0 0 1 0.03516,0.05273 c 0.0093,0.01345 0.0201,0.02555 0.0293,0.03906 -0.02106,-0.03094 -0.04306,-0.06114 -0.06445,-0.0918 z m 0.160156,0.240235 a 9.2829514,10 0 0 1 0.191406,0.285156 c -0.05888,-0.09687 -0.121704,-0.190666 -0.183594,-0.285156 a 9.0565567,10.249979 66.278874 0 1 -0.0078,0 z"/>
</svg>
