<svg xmlns="http://www.w3.org/2000/svg" width="48" height="48" version="1.1">
 <rect style="opacity:0.2" width="32" height="40" x="-39" y="-45" rx="2.909" ry="2.963" transform="scale(-1)"/>
 <rect style="fill:#b2bfd9" width="32" height="40" x="-39" y="-44" rx="2.909" ry="2.963" transform="scale(-1)"/>
 <path style="opacity:0.2;fill:#f4f4f7" d="M 9.9082031 4 C 8.2965667 4 7 5.3214092 7 6.9628906 L 7 7.9628906 C 7 6.3214092 8.2965667 5 9.9082031 5 L 36.091797 5 C 37.703433 5 39 6.3214092 39 7.9628906 L 39 6.9628906 C 39 5.3214092 37.703433 4 36.091797 4 L 9.9082031 4 z"/>
 <path style="opacity:0.1" d="M 36.726562,8 12,32.726562 V 37.091797 40 h 2.908203 4.365235 L 44,15.273438 41.839844,13.150391 38.849609,10.160156 Z M 12.0625,13 v 0.589844 l 3.710938,4.59375 L 12,22.447266 V 23 h 7.849609 L 20,20.210938 h -0.523438 l -0.451171,1.402343 c -0.174431,0.03479 -0.650728,0.06498 -1.427735,0.08984 -0.771721,0.01993 -1.432703,0.0293 -1.982422,0.0293 h -2.068359 l 3.494141,-3.929688 v -0.380859 l -3.066407,-3.75 h 2.109375 c 1.025438,0 1.433386,0.03392 2.025391,0.103516 l 0.333984,1.61914 h 0.523438 V 13 Z"/>
 <path style="opacity:0.2" d="M 7 7 L 7 9 A 1 1 0 0 0 8 8 A 1 1 0 0 0 7 7 z M 11 7 A 1 1 0 0 0 10 8 A 1 1 0 0 0 11 9 A 1 1 0 0 0 12 8 A 1 1 0 0 0 11 7 z M 15 7 A 1 1 0 0 0 14 8 A 1 1 0 0 0 15 9 A 1 1 0 0 0 16 8 A 1 1 0 0 0 15 7 z M 19 7 A 1 1 0 0 0 18 8 A 1 1 0 0 0 19 9 A 1 1 0 0 0 20 8 A 1 1 0 0 0 19 7 z M 23 7 A 1 1 0 0 0 22 8 A 1 1 0 0 0 23 9 A 1 1 0 0 0 24 8 A 1 1 0 0 0 23 7 z M 27 7 A 1 1 0 0 0 26 8 A 1 1 0 0 0 27 9 A 1 1 0 0 0 28 8 A 1 1 0 0 0 27 7 z M 31 7 A 1 1 0 0 0 30 8 A 1 1 0 0 0 31 9 A 1 1 0 0 0 32 8 A 1 1 0 0 0 31 7 z M 35 7 A 1 1 0 0 0 34 8 A 1 1 0 0 0 35 9 A 1 1 0 0 0 36 8 A 1 1 0 0 0 35 7 z M 39 7 A 1 1 0 0 0 38 8 A 1 1 0 0 0 39 9 L 39 7 z"/>
 <path style="opacity:0.2" d="M 34.199219,37 C 32.426419,37 31,38.426419 31,40.199219 v 3.886719 C 31,44.406054 31.059782,44.708789 31.146484,45 L 39,37.146484 C 38.708789,37.059782 38.406054,37 38.085938,37 Z" clip-path="url(#clipPath1609-7)"/>
 <path style="fill:#f4f4f7" d="M 34.199219,36 C 32.426419,36 31,37.426419 31,39.199219 v 3.886719 C 31,43.406054 31.059782,43.708789 31.146484,44 L 39,36.146484 C 38.708789,36.059782 38.406054,36 38.085938,36 Z" clip-path="url(#clipPath1609-7)"/>
 <path style="fill:#e8ddc7" d="M 12.000001,39 V 31.727273 L 19.272728,39 Z"/>
 <path style="fill:#535353" d="m 12,39 10e-7,-2.909091 L 14.909092,39 Z"/>
 <path style="fill:#2bbd6d" d="M 18.545456,38.272727 12.727274,32.454545 37.435258,7.7465643 43.25344,13.564746 Z"/>
 <path style="fill:#71ec8c" d="M 14.141009,33.868276 12.000001,31.727273 36.727277,7.0000044 38.848993,9.1602953 Z"/>
 <path style="fill:#26a269" d="M 17.131727,36.858992 19.272728,39 44,14.272728 41.839709,12.151012 Z"/>
 <path style="fill:#4f4f4f" d="m 17.041291,16.422073 v 0.380313 l -3.495206,3.929903 h 2.069376 c 0.549719,0 1.210439,-0.0099 1.98216,-0.02983 0.777007,-0.02486 1.252725,-0.05469 1.427156,-0.08948 l 0.451932,-1.401938 H 20 l -0.150645,2.788963 h -7.849356 v -0.551827 l 3.772709,-4.265473 -3.70928,-4.593586 v -0.589113 h 6.902718 v 2.393737 h -0.52329 L 18.109853,12.77554 c -0.592005,-0.0696 -1.001165,-0.104399 -2.026603,-0.104399 h -2.109019 z"/>
</svg>
