<svg xmlns="http://www.w3.org/2000/svg" width="48" height="48" version="1.1">
 <rect style="fill:#3363c1" width="40" height="40" x="4" y="4" rx="2" ry="2"/>
 <path style="opacity:0.1;fill:#f4f4f7" d="M 6,4 C 4.892,4 4,4.892 4,6 V 7 C 4,5.892 4.892,5 6,5 h 36 c 1.108,0 2,0.892 2,2 V 6 C 44,4.892 43.108,4 42,4 Z"/>
 <path style="opacity:0.2" d="M 6,45 C 4.892,45 4,44.108 4,43 v -1 c 0,1.108 0.892,2 2,2 h 36 c 1.108,0 2,-0.892 2,-2 v 1 c 0,1.108 -0.892,2 -2,2 z"/>
 <path style="opacity:0.2" d="m 15,9 v 4 h 7 v 17 h 4 V 13 h 7 V 9 Z m -0.318359,5 c -0.0613,0.0075 -0.125529,0.02186 -0.171875,0.06836 L 12.382812,16.1875 c -0.08918,0.08925 -0.09877,0.224023 -0.0332,0.332031 l 2.259766,3.720703 c -0.531575,0.866181 -0.939617,1.813034 -1.216797,2.816407 L 9.2207031,23.919922 C 9.0940237,23.945924 9,24.067256 9,24.197266 v 2.992187 c 0,0.126759 0.097814,0.23442 0.2207031,0.263672 l 4.0449219,0.980469 c 0.254466,1.128882 0.684815,2.18868 1.255859,3.15625 l -0.890625,1.351562 -0.06055,-0.01953 -0.859374,1.414063 -0.546876,0.830078 c -0.02254,0.0343 -0.02162,0.0746 -0.02734,0.113281 l -0.0078,0.01367 c -0.06578,0.107258 -0.04478,0.244727 0.04492,0.333984 l 2.113281,2.117188 c 0.09269,0.09076 0.234612,0.103713 0.34375,0.0332 l 2.009766,-1.3125 1.699219,-1.027344 c 0.908683,0.544979 1.900877,0.96097 2.955078,1.224609 l 0.859375,4.119141 C 22.181216,40.908265 22.287403,41 22.417969,41 h 0.160156 2.84375 0.160156 c 0.130566,0 0.236761,-0.09174 0.263672,-0.21875 l 0.859375,-4.119141 c 1.0542,-0.263639 2.046395,-0.67963 2.955078,-1.224609 l 1.699219,1.027344 2.009766,1.3125 c 0.109138,0.07051 0.251058,0.05756 0.34375,-0.0332 l 2.113281,-2.117188 c 0.0897,-0.08925 0.110705,-0.226726 0.04492,-0.333984 l -0.0078,-0.01367 c -0.0057,-0.03868 -0.0048,-0.07898 -0.02734,-0.113281 l -0.546876,-0.830078 -0.859374,-1.414063 -0.06055,0.01953 -0.890625,-1.351562 c 0.571044,-0.967569 1.001393,-2.027368 1.255859,-3.15625 l 4.044922,-0.978516 C 38.902205,27.425821 39,27.316212 39,27.189453 v -2.992187 c 0,-0.13001 -0.09402,-0.251342 -0.220703,-0.277344 L 34.607422,23.056641 C 34.330242,22.053268 33.9222,21.106415 33.390625,20.240234 l 2.259766,-3.720703 c 0.06556,-0.108008 0.05598,-0.242776 -0.0332,-0.332031 L 33.490234,14.068359 C 33.443884,14.021849 33.379655,14.00749 33.318359,14 v 0.002 c -0.06055,-0.006 -0.117306,0.0011 -0.171875,0.03711 l -3.679687,2.400391 c -0.50916,-0.291122 -0.873664,-0.546521 -1.429688,-0.753906 v 3.416015 A 8,8 0 0 1 32,26 a 8,8 0 0 1 -8,8 8,8 0 0 1 -8,-8 8,8 0 0 1 3.962891,-6.894531 v -3.419922 c -0.556024,0.207385 -0.920528,0.462784 -1.429688,0.753906 l -3.679687,-2.400391 c -0.05457,-0.036 -0.111326,-0.04311 -0.171875,-0.03711 z"/>
 <path style="fill:#f4f4f7" d="M 14.681641 13 C 14.620341 13.0075 14.556112 13.021859 14.509766 13.068359 L 12.382812 15.1875 C 12.293632 15.27675 12.284039 15.411523 12.349609 15.519531 L 14.609375 19.240234 C 14.0778 20.106415 13.669758 21.053268 13.392578 22.056641 L 9.2207031 22.919922 C 9.0940237 22.945924 9 23.067256 9 23.197266 L 9 26.189453 C 9 26.316212 9.0978144 26.423873 9.2207031 26.453125 L 13.265625 27.433594 C 13.520091 28.562476 13.95044 29.622274 14.521484 30.589844 L 13.630859 31.941406 L 13.570312 31.921875 L 12.710938 33.335938 L 12.164062 34.166016 C 12.141523 34.200316 12.142439 34.240617 12.136719 34.279297 L 12.128906 34.292969 C 12.063126 34.400227 12.084128 34.537696 12.173828 34.626953 L 14.287109 36.744141 C 14.379799 36.834901 14.521721 36.847854 14.630859 36.777344 L 16.640625 35.464844 L 18.339844 34.4375 C 19.248527 34.982479 20.240721 35.39847 21.294922 35.662109 L 22.154297 39.78125 C 22.181216 39.908265 22.287403 40 22.417969 40 L 22.578125 40 L 25.421875 40 L 25.582031 40 C 25.712597 40 25.818792 39.908256 25.845703 39.78125 L 26.705078 35.662109 C 27.759278 35.39847 28.751473 34.982479 29.660156 34.4375 L 31.359375 35.464844 L 33.369141 36.777344 C 33.478279 36.847854 33.620199 36.834901 33.712891 36.744141 L 35.826172 34.626953 C 35.915872 34.537703 35.936877 34.400227 35.871094 34.292969 L 35.863281 34.279297 C 35.857581 34.240617 35.858488 34.200316 35.835938 34.166016 L 35.289062 33.335938 L 34.429688 31.921875 L 34.369141 31.941406 L 33.478516 30.589844 C 34.04956 29.622275 34.479909 28.562476 34.734375 27.433594 L 38.779297 26.455078 C 38.902205 26.425821 39 26.316212 39 26.189453 L 39 23.197266 C 39 23.067256 38.90598 22.945924 38.779297 22.919922 L 34.607422 22.056641 C 34.330242 21.053268 33.9222 20.106415 33.390625 19.240234 L 35.650391 15.519531 C 35.715951 15.411523 35.706367 15.276755 35.617188 15.1875 L 33.490234 13.068359 C 33.443884 13.021849 33.379655 13.00749 33.318359 13 L 33.318359 13.001953 C 33.257809 12.995953 33.201053 13.003042 33.146484 13.039062 L 29.466797 15.439453 C 28.957637 15.148331 28.593133 14.892932 28.037109 14.685547 L 28.037109 18.101562 A 8 8 0 0 1 32 25 A 8 8 0 0 1 24 33 A 8 8 0 0 1 16 25 A 8 8 0 0 1 19.962891 18.105469 L 19.962891 14.685547 C 19.406867 14.892932 19.042363 15.148331 18.533203 15.439453 L 14.853516 13.039062 C 14.798946 13.003063 14.74219 12.995953 14.681641 13.001953 L 14.681641 13 z"/>
 <rect style="fill:#f4f4f7" width="4" height="18" x="22" y="11"/>
 <rect style="fill:#f4f4f7" width="4" height="18" x="8" y="-33" transform="rotate(90)"/>
</svg>
