<svg xmlns="http://www.w3.org/2000/svg" width="48" height="48" version="1">
 <path style="fill:#6655e4" d="m24 4h-18c-1.108 0-2 0.892-2 2v18h20z"/>
 <path style="fill:#21d789" d="m24 4h18c1.108 0 2 0.892 2 2v18h-20z"/>
 <path style="fill:#2086e7" d="m24 44h-18c-1.108 0-2-0.892-2-2v-18h20z"/>
 <path style="fill:#6655e4" d="m24 44h18c1.108 0 2-0.892 2-2v-18h-20z"/>
 <path fill="#fff" opacity=".2" d="m6 4c-1.108 0-2 0.892-2 2v1c0-1.108 0.892-2 2-2h36c1.108 0 2 0.892 2 2v-1c0-1.108-0.892-2-2-2h-36z"/>
 <path opacity=".2" d="m6 45c-1.108 0-2-0.892-2-2v-1c0 1.108 0.892 2 2 2h36c1.108 0 2-0.892 2-2v1c0 1.108-0.892 2-2 2h-36z"/>
 <rect style="fill:#3f3f3f" width="28" height="28" x="10" y="10"/>
 <path style="opacity:0.2;fill:none;stroke:#000000;stroke-width:2;stroke-linecap:round" d="m 16,32.9999 8,0"/>
 <path style="fill:none;stroke:#f4f4f7;stroke-width:2;stroke-linecap:round" d="m 16,32 8,0"/>
 <path style="opacity:0.2;fill:none;stroke:#000000;stroke-width:1.99999988;stroke-linecap:round;stroke-linejoin:bevel" d="m 18.999898,21.9999 1.999998,0 m -0.999999,0 c 0,0 0.490904,3 -2.000001,3 -1.999998,0 -1.999998,-2.000001 -1.999998,-4.000002 0,-1.999998 0,-3.999999 1.999998,-3.999999 2.000001,0 1.992378,0.999999 1.992378,0.999999"/>
 <path style="fill:none;stroke:#f4f4f7;stroke-width:1.99999988;stroke-linecap:round;stroke-linejoin:bevel" d="m 18.999898,21 1.999998,0 m -0.999999,0 c 0,0 0.490904,3 -2.000001,3 -1.999998,0 -1.999998,-2.000001 -1.999998,-4.000002 0,-1.999998 0,-3.999999 1.999998,-3.999999 2.000001,0 1.992378,0.999999 1.992378,0.999999"/>
 <path style="opacity:0.2;fill-rule:evenodd" d="m 26,16 c -1.662,0 -3,1.338 -3,3 l 0,4 c 0,1.662 1.338,3 3,3 1.662,0 3,-1.338 3,-3 l 0,-4 c 0,-1.662 -1.338,-3 -3,-3 z m 0,2 c 0.554,0 1,0 1,1.798828 l 0,2.402344 C 27,24.000001 26.554,24 26,24 c -0.554,0 -1,1e-6 -1,-1.798828 l 0,-2.402344 C 25,18 25.446,18 26,18 Z"/>
 <path style="fill:#f4f4f7;fill-rule:evenodd" d="m 26,15 c -1.662,0 -3,1.338 -3,3 l 0,4 c 0,1.662 1.338,3 3,3 1.662,0 3,-1.338 3,-3 l 0,-4 c 0,-1.662 -1.338,-3 -3,-3 z m 0,2 c 0.554,0 1,0 1,1.798828 l 0,2.402344 C 27,23.000001 26.554,23 26,23 c -0.554,0 -1,1e-6 -1,-1.798828 l 0,-2.402344 C 25,17 25.446,17 26,17 Z"/>
</svg>
