<svg xmlns="http://www.w3.org/2000/svg" width="48" height="48" version="1.1">
 <path style="opacity:0.2" d="M 17.538552,7 A 3.231091,3.2730545 0 0 0 14.747914,8.623579 L 3.4402257,28.259944 a 3.231091,3.2730545 0 0 0 0.1025388,3.464488 l 6.4615365,9.818182 A 3.231091,3.2730545 0 0 0 12.6924,43 l 22.615376,0 a 3.231091,3.2730545 0 0 0 2.6881,-1.457386 l 6.461536,-9.818182 a 3.231091,3.2730545 0 0 0 0.102539,-3.464488 L 33.252263,8.623579 A 3.231091,3.2730545 0 0 0 30.461624,7 L 17.538552,7 Z"/>
 <path style="fill:#306ed2" d="M 17.217624,30 16.43478,29.738813 10.492488,40.54116 10.904973,41.453125 C 11.434804,41.809723 12.056758,41.999964 12.692874,42 l 22.614429,0 c 1.08022,8.4e-5 2.089026,-0.546663 2.688376,-1.457031 l 6.461799,-9.81836 C 44.604664,30.498832 44.723647,30.255439 44.811702,30 l -0.05423,-0.757576 -12.905223,0 L 31.407241,30 Z M 3.4345673,30.539062 c 0.023887,0.04354 0.04875,0.08652 0.074574,0.128907 -0.025823,-0.04239 -0.050687,-0.08537 -0.074574,-0.128907 z"/>
 <path style="fill:#05ab5f" d="M 17.53829,6 C 16.389274,5.9998438 15.326616,6.6178286 14.747375,7.6230469 L 3.4401603,27.259766 c -0.6219281,1.079986 -0.5821375,2.424536 0.1025387,3.464843 l 6.461798,9.81836 c 0.237656,0.360832 0.543746,0.670212 0.900476,0.910156 L 30.729606,6 Z"/>
 <path style="opacity:0.2;fill:#f4f4f7" d="M 17.53829,6 C 16.389274,5.9998438 15.326616,6.6178286 14.747375,7.6230469 L 3.4401603,27.259766 c -0.3832601,0.665536 -0.5143549,1.4307 -0.3989684,2.164062 0.059728,-0.403236 0.1888994,-0.799275 0.3989684,-1.164062 L 14.747375,8.6230469 C 15.326616,7.6178286 16.389274,6.9998438 17.53829,7 L 30.17105,7 30.730351,6 17.53829,6 Z"/>
 <path style="opacity:0.2" d="M 17.539062 7 C 17.479962 7.0009619 17.420284 7.0035725 17.361328 7.0078125 L 30.583984 31 L 44.275391 31 L 44.457031 30.724609 A 3.231091 3.2730545 0 0 0 44.953125 29.447266 C 44.895246 29.034058 44.772496 28.629012 44.560547 28.259766 L 33.251953 8.6230469 C 32.672712 7.6178286 31.609954 6.9998438 30.460938 7 L 17.539062 7 z"/>
 <path style="fill:#ffbc3b" d="m 17.53829,6 c -0.0591,9.619e-4 -0.118156,0.00357 -0.177112,0.00781 L 30.583068,30 44.811702,30 c 0.317685,-0.906498 0.225638,-1.908665 -0.251686,-2.740234 L 33.252801,7.6230469 C 32.67356,6.6178286 31.610903,5.9998438 30.461886,6 Z m 27.267819,24.013672 c -0.03922,0.112144 -0.08516,0.221154 -0.136097,0.328125 0.05121,-0.106794 0.09664,-0.216331 0.136097,-0.328125 z m -0.156605,0.371094 c -0.05761,0.116592 -0.120964,0.230837 -0.192026,0.339843 0.07065,-0.109297 0.13477,-0.222781 0.192026,-0.339843 z M 3.4345673,30.539062 c 0.023887,0.04354 0.04875,0.08652 0.074574,0.128907 -0.025823,-0.04239 -0.050687,-0.08537 -0.074574,-0.128907 z"/>
 <path style="opacity:0.2" d="M 23.994496,18.044922 10.904973,41.453125 c 0.136185,0.0902 0.278902,0.169857 0.426934,0.238281 L 24.272282,18.548828 23.994496,18.044922 Z M 10.004497,40.542969 c 0.118338,0.179103 0.25385,0.345929 0.404562,0.498047 -0.150064,-0.151929 -0.286232,-0.318388 -0.404562,-0.498047 z m 0.410155,0.503906 c 0.146824,0.147382 0.307271,0.280152 0.479135,0.396484 -0.172197,-0.11698 -0.332811,-0.249072 -0.479135,-0.396484 z"/>
 <path style="opacity:0.2" d="m 24.076383,17.001651 a 1.7777874,1.7501822 0 0 0 -1.612695,0.866459 l -3.110817,5.250022 -3.110818,5.250022 A 1.7777874,1.7501822 0 0 0 17.778367,31 l 6.221634,0 6.221634,0 a 1.7777874,1.7501822 0 0 0 1.536313,-2.631846 L 28.647131,23.118132 25.536315,17.86811 a 1.7777874,1.7501822 0 0 0 -1.459932,-0.866459 z"/>
 <path style="fill:#f4f4f7" d="m 24.076383,16.001651 a 1.7777874,1.7501822 0 0 0 -1.612695,0.866459 l -3.110817,5.250022 -3.110818,5.250022 A 1.7777874,1.7501822 0 0 0 17.778367,30 l 6.221634,0 6.221634,0 a 1.7777874,1.7501822 0 0 0 1.536313,-2.631846 L 28.647131,22.118132 25.536315,16.86811 a 1.7777874,1.7501822 0 0 0 -1.459932,-0.866459 z"/>
 <path style="opacity:0.2;fill:#f4f4f7" d="M 17.53829,6 A 3.231091,3.2730545 0 0 0 17.361178,6.00781 L 17.90743,7 30.461886,7 a 3.231091,3.2730545 0 0 1 2.790915,1.6230469 L 44.560016,28.259766 a 3.231091,3.2730545 0 0 1 0.398969,1.152343 3.231091,3.2730545 0 0 0 -0.398969,-2.152343 L 33.252801,7.6230469 A 3.231091,3.2730545 0 0 0 30.461886,6 L 17.53829,6 Z"/>
</svg>
