<svg xmlns="http://www.w3.org/2000/svg" width="48" height="48" version="1.1">
 <path style="opacity:0.2" d="m 24,5 a 17,17 0 0 0 -17,17 17,17 0 0 0 17,17 17,17 0 0 0 0.0039,0 c -0.008,1.734988 -0.0044,4.109529 -0.0039,5.78125 2.28e-4,0.06782 0.0057,0.13441 0.0098,0.21875 0.0593,-0.02304 0.097,-0.03665 0.132812,-0.05273 3.4431,-1.5417 5.503766,-3.489641 8.322266,-5.931641 0.56082,-0.48579 1.097181,-0.995231 1.613281,-1.525391 0.221,-0.2267 0.440659,-0.457113 0.662109,-0.683593 0.3421,-0.34864 0.638448,-0.738309 0.960938,-1.105469 0.37243,-0.42341 0.707289,-0.873222 1.037109,-1.326172 0.72913,-1.0011 1.380435,-2.045137 1.927735,-3.148438 0.27687,-0.557739 0.540128,-1.119912 0.773437,-1.695312 0.0078,-0.01087 0.01843,-0.01951 0.02344,-0.03125 0.430935,-1.067698 0.747696,-2.162957 0.980468,-3.277344 A 17,17 0 0 0 41,22 17,17 0 0 0 24,5 Z"/>
 <path style="fill:#119184" d="M 24 4 A 17 17 0 0 0 7 21 A 17 17 0 0 0 24 38 A 17 17 0 0 0 24.003906 38 C 23.995913 39.734988 23.999522 42.109529 24 43.78125 C 24.000228 43.84907 24.005666 43.91566 24.009766 44 C 24.069066 43.97696 24.106766 43.963346 24.142578 43.947266 C 27.585678 42.405566 29.646344 40.457625 32.464844 38.015625 C 33.025664 37.529835 33.562025 37.020394 34.078125 36.490234 C 34.299125 36.263534 34.518784 36.033121 34.740234 35.806641 C 35.082334 35.458001 35.378682 35.068332 35.701172 34.701172 C 36.073602 34.277762 36.408461 33.82795 36.738281 33.375 C 37.467411 32.3739 38.118716 31.329863 38.666016 30.226562 C 38.942886 29.668823 39.206144 29.10665 39.439453 28.53125 C 39.447253 28.52038 39.457881 28.51174 39.462891 28.5 C 39.893826 27.432302 40.210587 26.337043 40.443359 25.222656 A 17 17 0 0 0 41 21 A 17 17 0 0 0 24 4 z"/>
 <path style="opacity:0.2" d="M 24,12 A 10,10 0 0 0 14,22 10,10 0 0 0 24,32 h 5 v -2 h -5 a 8,8 0 0 1 -8,-8 8,8 0 0 1 8,-8 8,8 0 0 1 8,8 h 0.02734 c 0.02632,0.289358 0.06734,0.905048 -0.07813,1.59375 -0.09263,0.438551 -0.259332,0.814813 -0.466797,1.039062 C 31.274964,24.857063 31.051882,25 30.5,25 c -0.551882,0 -0.774957,-0.142938 -0.982422,-0.367188 -0.207465,-0.224249 -0.374169,-0.600511 -0.466797,-1.039062 -0.07137,-0.337896 -0.08953,-0.675311 -0.09375,-0.980469 A 5,5 0 0 0 29,22 5,5 0 0 0 28.988281,21.771484 c 1.26e-4,-0.001 0.002,-0.02734 0.002,-0.02734 h -0.0039 A 5,5 0 0 0 24,17 a 5,5 0 0 0 -5,5 5,5 0 0 0 5,5 5,5 0 0 0 3.634766,-1.572266 c 0.117656,0.195263 0.250989,0.386075 0.416015,0.564454 C 28.606569,26.592937 29.481222,27 30.5,27 c 1.018778,0 1.893435,-0.407062 2.449219,-1.007812 0.555784,-0.600751 0.817324,-1.32488 0.957031,-1.986329 0.279414,-1.322898 0.08398,-2.550781 0.08398,-2.550781 l -0.01758,0.002 A 10,10 0 0 0 24,12 Z m 0,7 a 3,3 0 0 1 2.986328,2.742188 c -0.01972,0.165717 -0.03342,0.347898 -0.0332,0.767578 A 3,3 0 0 1 24,25 3,3 0 0 1 21,22 3,3 0 0 1 24,19 Z"/>
 <path style="fill:#f4f4f7" d="M 24 11 A 10 10 0 0 0 14 21 A 10 10 0 0 0 24 31 L 29 31 L 29 29 L 24 29 A 8 8 0 0 1 16 21 A 8 8 0 0 1 24 13 A 8 8 0 0 1 32 21 L 32.027344 21 C 32.053663 21.289358 32.094684 21.905048 31.949219 22.59375 C 31.856589 23.032301 31.689887 23.408563 31.482422 23.632812 C 31.274964 23.857063 31.051882 24 30.5 24 C 29.948118 24 29.725043 23.857062 29.517578 23.632812 C 29.310113 23.408563 29.143409 23.032301 29.050781 22.59375 C 28.979413 22.255854 28.961248 21.918439 28.957031 21.613281 A 5 5 0 0 0 29 21 A 5 5 0 0 0 28.988281 20.771484 C 28.988407 20.770472 28.990234 20.744141 28.990234 20.744141 L 28.986328 20.744141 A 5 5 0 0 0 24 16 A 5 5 0 0 0 19 21 A 5 5 0 0 0 24 26 A 5 5 0 0 0 27.634766 24.427734 C 27.752422 24.622997 27.885755 24.813809 28.050781 24.992188 C 28.606569 25.592937 29.481222 26 30.5 26 C 31.518778 26 32.393435 25.592938 32.949219 24.992188 C 33.505003 24.391437 33.766543 23.667308 33.90625 23.005859 C 34.185664 21.682961 33.990234 20.455078 33.990234 20.455078 L 33.972656 20.457031 A 10 10 0 0 0 24 11 z M 24 18 A 3 3 0 0 1 26.986328 20.742188 C 26.96661 20.907905 26.952906 21.090086 26.953125 21.509766 A 3 3 0 0 1 24 24 A 3 3 0 0 1 21 21 A 3 3 0 0 1 24 18 z"/>
 <path style="fill:#f4f4f7;opacity:0.2" d="M 24 4 A 17 17 0 0 0 7 21 A 17 17 0 0 0 7.0214844 21.419922 A 17 17 0 0 1 24 5 A 17 17 0 0 1 40.980469 21.611328 A 17 17 0 0 0 41 21 A 17 17 0 0 0 24 4 z"/>
</svg>
