<svg xmlns="http://www.w3.org/2000/svg" width="48" height="48" version="1">
 <path style="opacity:0.2" d="M 24,5 A 20,20 0 0 0 4,25 v 17 c 0,1.662 1.338,3 3,3 H 24 A 20,20 0 0 0 44,25 20,20 0 0 0 24,5 Z"/>
 <path style="fill:#b2b2b2" d="M 24 4 A 20 20 0 0 0 4 24 L 4 41 C 4 42.662 5.338 44 7 44 L 24 44 A 20 20 0 0 0 44 24 A 20 20 0 0 0 24 4 z"/>
 <path style="opacity:0.1" d="M 8,25 A 16,16 0 0 0 24,41 V 31 a 6,6 0 0 1 -6,-6 z m 31.951172,0 a 16,16 0 0 1 0.02734,0.580078 A 16,16 0 0 0 40,25 Z"/>
 <path style="fill:#797979" d="M 8 24 A 16 16 0 0 0 24 40 L 24 30 A 6 6 0 0 1 18 24 L 8 24 z M 39.951172 24 A 16 16 0 0 1 39.978516 24.580078 A 16 16 0 0 0 40 24 L 39.951172 24 z"/>
 <path style="opacity:0.1" d="M 12.580078,13.8125 C 9.6489072,16.799143 8.0051427,20.815292 8,25 h 10 c 0.0042,-1.566697 0.621092,-3.069598 1.71875,-4.1875 -0.02362,0.02259 -0.04706,0.04538 -0.07031,0.06836 z"/>
 <path style="fill:#ffc107" d="M 12.580078,12.8125 C 9.6489072,15.799143 8.0051427,19.815292 8,24 h 10 c 0.0042,-1.566697 0.621092,-3.069598 1.71875,-4.1875 -0.02362,0.02259 -0.04706,0.04538 -0.07031,0.06836 z"/>
 <path style="opacity:0.1" d="m 28.929688,28.416016 a 6,6 0 0 1 -0.07031,0.09375 c 0.0229,-0.03168 0.04806,-0.06166 0.07031,-0.09375 z m -0.806641,0.939453 A 6,6 0 0 1 24,31 v 10 c 4.285347,-0.0028 8.265503,-1.717107 11.1875,-4.580078 z"/>
 <path style="fill:#f65c51" d="M 28.929688 27.416016 A 6 6 0 0 1 28.859375 27.509766 C 28.882275 27.478087 28.907433 27.448104 28.929688 27.416016 z M 28.123047 28.355469 A 6 6 0 0 1 24 30 L 24 40 C 28.285347 39.997228 32.265503 38.282893 35.1875 35.419922 L 28.123047 28.355469 z"/>
 <path style="opacity:0.1" d="m 24,9 a 16,16 0 0 0 -11.419922,4.8125 l 7.06836,7.068359 A 6,6 0 0 1 24,19 a 6,6 0 0 1 6,6 6,6 0 0 1 -1.876953,4.355469 l 7.072265,7.072265 A 16,16 0 0 0 40,25 16,16 0 0 0 24,9 Z"/>
 <path style="fill:#3d9260" d="M 24 8 A 16 16 0 0 0 12.580078 12.8125 L 19.648438 19.880859 A 6 6 0 0 1 24 18 A 6 6 0 0 1 30 24 A 6 6 0 0 1 28.123047 28.355469 L 35.195312 35.427734 A 16 16 0 0 0 40 24 A 16 16 0 0 0 24 8 z"/>
 <path style="opacity:0.2" d="m 8.737682,43.933386 9.05515,-11.493259 C 17.922129,32.286362 18,32.089096 18,31.873828 18,31.391535 17.608437,31 17.125046,31 16.909797,31 16.71218,31.0765 16.559374,31.207018 L 5.066694,40.263315 A 2.5491947,2.6027288 0 0 0 4,42.37475 c 0,1.451377 1.175421,2.625231 2.625597,2.625231 a 2.6373512,2.6927366 0 0 0 2.112085,-1.066595 z"/>
 <path style="fill:#f4f4f7" d="m 8.737682,42.933386 9.05515,-11.493259 C 17.922129,31.286362 18,31.089096 18,30.873828 18,30.391535 17.608437,30 17.125046,30 16.909797,30 16.71218,30.0765 16.559374,30.207018 L 5.066694,39.263315 A 2.5491947,2.6027288 0 0 0 4,41.37475 c 0,1.451377 1.175421,2.625231 2.625597,2.625231 a 2.6373512,2.6927366 0 0 0 2.112085,-1.066595 z"/>
 <circle style="opacity:0.2" cx="24" cy="25" r="2"/>
 <circle style="fill:#f4f4f7" cx="24" cy="24" r="2"/>
 <path style="fill:#f4f4f7;opacity:0.2" d="M 24 4 A 20 20 0 0 0 4 24 L 4 25 A 20 20 0 0 1 24 5 A 20 20 0 0 1 43.978516 24.582031 A 20 20 0 0 0 44 24 A 20 20 0 0 0 24 4 z"/>
</svg>
