<svg xmlns="http://www.w3.org/2000/svg" width="48" height="48" version="1">
 <path opacity=".05" d="m6 5c-1.108 0-2 0.892-2 2v17h40v-17c0-1.108-0.892-2-2-2h-36z"/>
 <rect fill="#fabd7f" width="40" height="40" x="4" y="4" rx="2" ry="2"/>
 <path fill="#3f3f3f" d="m22 12c-0.554 0-1 0.446-1 1v16h-4l7 9 7-9h-4v-16c0-0.554-0.446-1-1-1h-4z"/>
 <path fill="#fff" opacity=".2" d="m4 7v-1c0-1.108 0.892-2 2-2h36c1.108 0 2 0.892 2 2v1c0-1.108-0.892-2-2-2h-36c-1.108 0-2 0.892-2 2z"/>
 <path opacity=".2" d="m4 42v1c0 1.108 0.892 2 2 2h36c1.108 0 2-0.892 2-2v-1c0 1.108-0.892 2-2 2h-36c-1.108 0-2-0.892-2-2z"/>
 <rect style="opacity:0.2" width="22" height="22" x="-48" y="-47" rx="1.179" ry="1.179" transform="matrix(0,-1,-1,0,0,0)"/>
 <rect style="fill:#b2bfd9" width="22" height="22" x="-47" y="-47" rx="1.179" ry="1.179" transform="matrix(0,-1,-1,0,0,0)"/>
 <path style="fill:#3f3f3f" d="m 28,28 v 4 h 16 v -4 z m 0,6 v 4 h 16 v -4 z m 0,6 v 4 h 16 v -4 z"/>
</svg>
