<svg xmlns="http://www.w3.org/2000/svg" width="48" height="48" version="1.1">
 <path style="opacity:0.2" d="M 5,9 C 3.338,9 2,10.338 2,12 v 26 c 0,1.662 1.338,3 3,3 1.662,0 3,-1.338 3,-3 v -1 h 4 v 4 h 4 v -4 h 2 v 4 h 4 v -4 h 2 v 4 h 4 v -4 h 14 c 2.216,0 4,-1.784 4,-4 V 17 c 0,-2.216 -1.784,-4 -4,-4 H 8 V 12 C 8,10.338 6.662,9 5,9 Z"/>
 <rect style="fill:#4f4f4f" width="42" height="24" x="4" y="12" rx="4" ry="4"/>
 <circle style="opacity:0.2" cx="17" cy="25" r="8"/>
 <circle style="fill:#f4f4f7" cx="17" cy="24" r="8"/>
 <circle style="opacity:0.2" cx="35" cy="25" r="6"/>
 <circle style="fill:#f4f4f7" cx="35" cy="24" r="6"/>
 <rect style="fill:#34ae72" width="2" height="12" x="16" y="18"/>
 <rect style="fill:#34ae72" width="2" height="12" x="23" y="-23" transform="rotate(90)"/>
 <rect style="fill:#34ae72" width="2" height="12" x="3.95" y="-34.99" transform="rotate(135)"/>
 <rect style="fill:#34ae72" width="2" height="12" x="27.99" y="-10.95" transform="matrix(0.70710678,0.70710678,0.70710678,-0.70710678,0,0)"/>
 <circle style="fill:#34ae72" cx="17" cy="24" r="3"/>
 <rect style="fill:#4f4f4f" width="4" height="5" x="12" y="35"/>
 <rect style="fill:#34ae72" width="2" height="8" x="34" y="20"/>
 <rect style="fill:#34ae72" width="2" height="8" x="23" y="-39" transform="rotate(90)"/>
 <rect style="fill:#34ae72" width="2" height="8" x="-8.78" y="-45.72" transform="rotate(135)"/>
 <rect style="fill:#34ae72" width="2" height="8" x="40.72" y="3.78" transform="matrix(0.70710678,0.70710678,0.70710678,-0.70710678,0,0)"/>
 <rect style="fill:#4f4f4f" width="4" height="5" x="18" y="35"/>
 <rect style="fill:#4f4f4f" width="4" height="5" x="24" y="35"/>
 <rect style="fill:#4f4f4f" width="6" height="32" x="2" y="8" rx="3" ry="3"/>
 <path style="opacity:0.1;fill:#f4f4f7" d="M 5 8 C 3.338 8 2 9.338 2 11 L 2 12 C 2 10.338 3.338 9 5 9 C 6.662 9 8 10.338 8 12 L 8 11 C 8 9.338 6.662 8 5 8 z M 8 12 L 8 13 L 42 13 C 44.216 13 46 14.784 46 17 L 46 16 C 46 13.784 44.216 12 42 12 L 8 12 z"/>
</svg>
