<svg width="48" height="48" version="1.1" xmlns="http://www.w3.org/2000/svg">
 <g transform="matrix(1.9971556,0,0,2,2.0085332,2)">
  <rect x="2" y="2.5" width="18" height="18" rx="1" ry="1" style="opacity:.2"/>
  <rect x="2" y="2" width="18" height="18" rx="1" ry="1" style="fill:#5d5544"/>
  <path d="m6.9804688 5.4998052a1.0001 1.0001 0 0 0-0.8378907 0.4863281l-2.7089843 4.5136717h-1.4335938a1.0001 1.0001 0 1 0 0 2h2a1.0001 1.0001 0 0 0 0.8574219-0.486328l1.4238281-2.3730468 0.7226562 7.9492188a1.0001 1.0001 0 0 0 1.890625 0.357422l3.0039068-6.009766 1.173828 2.933594a1.0001 1.0001 0 0 0 1.759765 0.183594l1.703125-2.554688h3.464844a1.0001 1.0001 0 1 0 0-2h-4a1.0001 1.0001 0 0 0-0.832031 0.445312l-0.945313 1.419922-1.294922-3.2363276a1.0001 1.0001 0 0 0-1.822265-0.0761718l-2.4277346 4.8554684-0.6816406-7.4980466a1.0001 1.0001 0 0 0-1.015625-0.9101562z" style="opacity:.2"/>
  <path d="m2 11h2l3-5 1 11 4-8 2 5 2-3h4" style="fill:none;stroke-linecap:round;stroke-linejoin:round;stroke-width:2;stroke:#ffbe23"/>
  <rect x="15" y="3" width="4" height="1" style="fill:#ffbe23;opacity:.5"/>
  <rect x="15" y="5" width="4" height="1" style="fill:#ffbe23"/>
  <rect x="15" y="7" width="4" height="1" style="fill:#ffbe23"/>
  <path d="m3 2c-0.554 0-1 0.446-1 1v0.5c0-0.554 0.446-1 1-1h16c0.554 0 1 0.446 1 1v-0.5c0-0.554-0.446-1-1-1z" style="fill:#f4f4f7;opacity:.1"/>
 </g>
</svg>
