<svg xmlns="http://www.w3.org/2000/svg" width="48" height="48" version="1">
 <path style="opacity:0.2" d="M 44,41 V 9 C 44,7.892 43.108,7 42,7 H 6 C 4.892,7 4,7.892 4,9 v 32 c 0,1.108 0.892,2 2,2 h 36 c 1.108,0 2,-0.892 2,-2 z"/>
 <path style="fill:#f28b42" d="M 44,40 V 8 C 44,6.892 43.108,6 42,6 H 6 C 4.892,6 4,6.892 4,8 v 32 c 0,1.108 0.892,2 2,2 h 36 c 1.108,0 2,-0.892 2,-2 z"/>
 <path style="fill:none;stroke:#f4f4f7;stroke-width:2" d="m 11,30 8,-10 8,6 10,-8"/>
 <g style="opacity:0.1" transform="translate(0,1)">
  <circle cx="11" cy="30" r="3"/>
  <circle cx="19" cy="20" r="3"/>
  <circle cx="27" cy="26" r="3"/>
  <circle cx="37" cy="18" r="3"/>
 </g>
 <circle style="fill:#3f3f3f" cx="11" cy="30" r="3"/>
 <circle style="fill:#3f3f3f" cx="19" cy="20" r="3"/>
 <circle style="fill:#3f3f3f" cx="27" cy="26" r="3"/>
 <circle style="fill:#3f3f3f" cx="37" cy="18" r="3"/>
 <path style="opacity:0.2;fill:#f4f4f7" d="M 6,6 C 4.892,6 4,6.892 4,8 V 9 C 4,7.892 4.892,7 6,7 h 36 c 1.108,0 2,0.892 2,2 V 8 C 44,6.892 43.108,6 42,6 Z"/>
</svg>
