<svg xmlns="http://www.w3.org/2000/svg" width="48" height="48" version="1">
 <rect style="fill:#0078d7" width="40" height="40" x="4" y="4" rx="20" ry="20"/>
 <path style="opacity:0.2;fill:#f4f4f7" d="M 24,4 C 12.921,4 4.002,12.92 4.002,24 c 0,0.16772 -0.004,0.33329 0,0.5 C 4.2662,13.654 13.089,5 24,5 c 10.911,0 19.734,8.6536 19.998,19.5 0.004,-0.16671 0,-0.33228 0,-0.5 C 43.998,12.92 35.079,4 24,4 Z"/>
 <path style="opacity:0.2" d="M 4.0117,24.5 C 4.0076,24.667 4,24.832 4,25 4,36.08 12.92,45 24,45 35.08,45 44,36.08 44,25 44,24.832 43.992,24.667 43.988,24.5 43.724,35.346 34.912,44 24,44 13.088,44 4.276,35.346 4.012,24.5 Z"/>
 <g style="opacity:0.2" transform="translate(0,1.0194785)">
  <g transform="matrix(0.8660254,-0.5,0.5,0.8660254,-8.775749,15.212294)">
   <path d="m 20.373838,10.456565 a 14,14 0 0 0 -9.899495,17.146429 14,14 0 0 0 17.146428,9.899495 14,14 0 0 0 10.264321,-15.173631 l -2.929849,0.785051 A 11,11 0 0 1 26.844314,34.604711 11,11 0 0 1 13.372121,26.826537 11,11 0 0 1 21.150295,13.354343 11,11 0 0 1 33.921853,19.2497 l 2.92419,-0.783534 A 14,14 0 0 0 20.373838,10.456565 Z"/>
   <path d="m 30,22 8,0 -2,4 -6,0 z"/>
  </g>
  <path d="m 24,20 a 4,4 0 0 0 -4,4 4,4 0 0 0 4,4 4,4 0 0 0 4,-4 4,4 0 0 0 -4,-4 z m 0,2 a 2,2 0 0 1 2,2 2,2 0 0 1 -2,2 2,2 0 0 1 -2,-2 2,2 0 0 1 2,-2 z"/>
 </g>
 <g>
  <g style="fill:#71c1ff" transform="matrix(0.8660254,-0.5,0.5,0.8660254,-8.775749,15.212294)">
   <path style="fill:#71c1ff" d="m 20.373838,10.456565 a 14,14 0 0 0 -9.899495,17.146429 14,14 0 0 0 17.146428,9.899495 14,14 0 0 0 10.264321,-15.173631 l -2.929849,0.785051 A 11,11 0 0 1 26.844314,34.604711 11,11 0 0 1 13.372121,26.826537 11,11 0 0 1 21.150295,13.354343 11,11 0 0 1 33.921853,19.2497 l 2.92419,-0.783534 A 14,14 0 0 0 20.373838,10.456565 Z"/>
   <path style="fill:#71c1ff" d="m 30,22 8,0 -2,4 -6,0 z"/>
  </g>
  <path style="fill:#cae8ff" d="m 24,20 a 4,4 0 0 0 -4,4 4,4 0 0 0 4,4 4,4 0 0 0 4,-4 4,4 0 0 0 -4,-4 z m 0,2 a 2,2 0 0 1 2,2 2,2 0 0 1 -2,2 2,2 0 0 1 -2,-2 2,2 0 0 1 2,-2 z"/>
 </g>
</svg>
