<svg xmlns="http://www.w3.org/2000/svg" width="48" height="48" version="1">
 <path style="opacity:0.2" d="M 24.054836,7.0011039 C 22.323402,6.9853 20.667665,7.2415258 19.121645,7.6632133 12.929821,9.3235532 8.4374437,14.293406 6.8190003,20.249151 3.4882007,21.091988 1.8115254,25.071978 3.9600589,27.944463 l 4.5065996,6.019532 0.00195,0.002 c 0.6885923,0.916778 1.7010205,1.465314 2.7982795,1.746094 0.198386,1.149827 0.567632,2.288104 1.360003,3.185546 0.207516,0.235605 0.436871,0.451815 0.684893,0.644532 4.470943,3.466136 10.222234,4.183936 15.32009,2.787109 6.302132,-1.593311 10.888006,-6.607959 12.533552,-12.636719 3.34311,-0.834782 5.029866,-4.83211 2.868726,-7.708984 l -4.5066,-5.994141 c -0.611519,-0.812796 -1.456118,-1.419173 -2.422566,-1.740234 -0.0026,-6.77e-4 -0.0052,-0.0013 -0.0078,-0.002 -0.07241,-0.02338 -0.147252,-0.03845 -0.22308,-0.04492 -0.05916,-0.01638 -0.120337,-0.02291 -0.180029,-0.03711 -0.202492,-1.076041 -0.552217,-2.143329 -1.297384,-3 C 35.184137,10.920134 34.948166,10.69665 34.692211,10.497198 31.521283,8.0343467 27.707559,7.0131579 24.060706,7.0011039 Z"/>
 <path style="fill:#d54747" d="M 24.054836,6.0008977 C 22.323402,5.9850938 20.667665,6.2413196 19.121645,6.6630071 12.929821,8.323347 8.4374437,13.2932 6.8190003,19.248945 3.4882007,20.091782 1.8115254,24.071772 3.9600589,26.944257 l 4.5065996,6.019532 0.00195,0.002 c 0.6885923,0.916778 1.7010205,1.465314 2.7982795,1.746094 0.198386,1.149827 0.567632,2.288104 1.360003,3.185546 0.207516,0.235605 0.436871,0.451815 0.684893,0.644532 4.470943,3.466136 10.222234,4.183936 15.32009,2.787109 6.302132,-1.593311 10.888006,-6.607959 12.533552,-12.636719 3.34311,-0.834782 5.029866,-4.83211 2.868726,-7.708984 l -4.5066,-5.994141 c -0.611519,-0.812796 -1.456118,-1.419173 -2.422566,-1.740234 -0.0026,-6.77e-4 -0.0052,-0.0013 -0.0078,-0.002 -0.07241,-0.02338 -0.147252,-0.03845 -0.22308,-0.04492 -0.05916,-0.01638 -0.120337,-0.02291 -0.180029,-0.03711 -0.202492,-1.076041 -0.552217,-2.143329 -1.297384,-3 C 35.184137,9.9199281 34.948166,9.6964433 34.692211,9.4969915 31.521283,7.0341405 27.707559,6.0129517 24.060706,6.0008977 Z"/>
 <path style="opacity:0.2" d="m 24.026,12 c 2.735,0.006 5.4086,0.75849 7.5749,2.4457 1.5229,1.7544 -1.3789,3.6333 -2.6858,1.9226 -3.9343,-2.3806 -9.3832,-1.4425 -12.3433,2.1166 -1.5749,1.7662 -2.4622,4.1231 -2.4518,6.4891 H 17 L 12.5,31 8,24.974 h 3 C 10.917,19.325 14.98,13.951 20.435,12.488 21.605,12.167 22.811,11.987 24.026,12 Z M 35.5003,19.0001 40,25 h -3 c 0.0737,5.7169 -4.093,11.151 -9.6433,12.537 -3.7452,1.0459 -7.88015,0.48285 -10.95805,-1.90995 -1.5705,-1.7837 1.3716,-3.6445 2.6907,-1.9181 3.8119,2.3127 9.04995,1.37905 12.05905,-1.92415 1.742,-1.795 2.744,-4.283 2.731,-6.785 H 31 l 4.4997,-5.9999 z"/>
 <path style="fill:#ffad87" d="m 24.026,11 c 2.735,0.006 5.4086,0.75849 7.5749,2.4457 1.5229,1.7544 -1.3789,3.6333 -2.6858,1.9226 -3.9343,-2.3806 -9.3832,-1.4425 -12.3433,2.1166 -1.5749,1.7662 -2.4622,4.1231 -2.4518,6.4891 H 17 L 12.5,30 8,23.974 h 3 C 10.917,18.325 14.98,12.951 20.435,11.488 21.605,11.167 22.811,10.987 24.026,11 Z M 35.5003,18.0001 40,24 h -3 c 0.0737,5.7169 -4.093,11.151 -9.6433,12.537 -3.7452,1.0459 -7.88015,0.48285 -10.95805,-1.90995 -1.5705,-1.7837 1.3716,-3.6445 2.6907,-1.9181 3.8119,2.3127 9.04995,1.37905 12.05905,-1.92415 1.742,-1.795 2.744,-4.283 2.731,-6.785 H 31 l 4.4997,-5.9999 z"/>
 <path style="fill:#f4f4f7;opacity:0.2" d="M 24.054688 6 C 22.323253 5.9841961 20.667114 6.2404219 19.121094 6.6621094 C 12.92927 8.3224493 8.4368028 13.292302 6.8183594 19.248047 C 4.3243705 19.879134 2.7590565 22.269829 3.03125 24.636719 C 3.2285163 22.629638 4.6771454 20.79182 6.8183594 20.25 C 8.4368028 14.294255 12.92927 9.3244024 19.121094 7.6640625 C 20.667114 7.242375 22.323253 6.9861492 24.054688 7.0019531 L 24.060547 7.0019531 C 27.7074 7.0140071 31.520478 8.0351956 34.691406 10.498047 C 34.947361 10.697499 35.183928 10.920982 35.396484 11.166016 C 36.141651 12.022687 36.490867 13.089975 36.693359 14.166016 C 36.753051 14.180216 36.81584 14.186745 36.875 14.203125 C 36.950828 14.209595 37.025246 14.224667 37.097656 14.248047 C 37.100256 14.248747 37.102869 14.249323 37.105469 14.25 C 38.071917 14.571061 38.915825 15.177438 39.527344 15.990234 L 44.033203 21.984375 C 44.579714 22.711881 44.878935 23.510953 44.96875 24.3125 C 45.082319 23.190211 44.808173 22.014049 44.033203 20.982422 L 39.527344 14.988281 C 38.915825 14.175485 38.071917 13.569108 37.105469 13.248047 C 37.102869 13.24737 37.100256 13.246794 37.097656 13.246094 C 37.025246 13.222714 36.950828 13.207642 36.875 13.201172 C 36.81584 13.184792 36.753051 13.178263 36.693359 13.164062 C 36.490867 12.088021 36.141651 11.020733 35.396484 10.164062 C 35.183928 9.9190286 34.947361 9.6955456 34.691406 9.4960938 C 31.520478 7.0332428 27.7074 6.012054 24.060547 6 L 24.054688 6 z"/>
</svg>
