<svg xmlns="http://www.w3.org/2000/svg" width="48" height="48" version="1.1">
 <rect style="opacity:.2" width="40" height="40" x="4" y="5" rx="4" ry="4"/>
 <rect style="fill:#4cc4de" width="40" height="40" x="4" y="4" rx="4" ry="4"/>
 <path style="opacity:0.1" d="m 24.439453,5.0020298 c -0.461034,0.00908 -0.918486,0.051369 -1.369141,0.1347657 -0.252573,0.046717 -0.503652,0.024295 -0.75,0.097656 -0.26676,0.079592 -0.527737,0.2575908 -0.785156,0.3710938 -3.072415,1.3564955 -5.355318,3.8413986 -6.265625,7.0917975 -3.46e-4,6.92e-4 -0.372622,1.395301 -0.09375,2.386719 0.01315,0.982075 -0.103293,2.002804 0.289063,2.916015 0.08581,0.199668 0.122738,0.552268 0.08398,0.785156 -0.05743,0.348813 -0.350042,0.651458 -0.447266,0.990235 -0.216245,0.754725 -0.308233,1.537582 -0.402343,2.314453 -0.08754,0.721849 -0.33316,1.517 -0.308594,2.240234 0.0073,0.210395 0.05445,0.398634 0.02539,0.609375 -0.140819,1.013566 -0.464001,2.009896 -0.654297,3.017578 -0.07992,0.423558 -0.158069,0.852377 -0.19336,1.283204 -0.04809,0.596233 0.15688,1.248085 0.712891,1.527343 -0.03875,0.869264 -0.151289,2.345771 0.414062,3.080078 0.41104,0.533255 0.782269,1.09624 1.056641,1.712891 0.115216,0.258496 0.190918,0.595758 0.46875,0.726562 0.315891,0.149147 0.83633,-0.0047 1.154297,-0.06836 l 1.361328,-1.207031 c -0.321933,2.76732 -0.675848,5.531468 -0.986328,8.298828 0.206328,0.686169 0.79071,1.60335 1.537109,1.6875 2.168495,0.0037 4.337365,-0.0037 6.50586,0 -1.165676,-1.064995 -2.155316,-2.337947 -3.087891,-3.601562 -0.276078,-0.999485 0.381733,-1.932541 0.582031,-2.888672 0.531905,-1.949298 1.039324,-3.910623 1.75586,-5.802735 0.446512,-0.936213 0.414613,-1.999009 0.83789,-2.927734 0.195329,-0.501975 0.513537,-0.936024 0.806641,-1.382813 -0.185846,0.854842 -0.678348,1.624975 -0.917969,2.404297 0.379627,-0.302055 0.979772,-1.288593 0.556641,-0.378906 -0.389851,0.207771 -0.925946,1.292907 -0.171875,0.708984 0.0026,-0.0049 0.007,-0.0069 0.0098,-0.01172 l -0.296874,0.568359 c -0.306426,0.178844 -0.533114,0.427173 -0.501954,0.953125 -0.295163,1.038471 -0.750172,2.021747 -0.916015,3.09375 -0.05526,0.136485 -0.06613,0.225374 -0.05273,0.291016 l -0.06055,0.341797 -0.0098,0.002 c -0.07459,0.171313 -0.08768,0.277887 -0.05273,0.333984 l -0.111329,0.625 c -0.247819,0.817337 -0.273469,1.806713 -0.492187,2.652344 0.05736,0.785325 -0.732625,1.738914 -0.0039,2.330078 0.77842,0.91831 1.543213,1.957362 2.478515,2.689453 2.293725,0.0065 4.587135,-0.0065 6.88086,0 -0.7674,-1.225675 -1.594971,-2.533368 -1.585938,-4.037109 -0.04854,-1.016121 -0.02163,-2.063973 -0.185547,-3.072266 l 0.02539,0.002 c 0.03568,-0.63632 -0.195925,-1.271878 -0.591797,-1.908203 0.371972,0.07851 0.742972,0.08233 1.111328,-0.132813 1.447044,-0.659913 2.500106,-2.144636 2.638672,-3.728515 0.03359,-1.153427 -1.149998,-1.68684 -1.953125,-2.248047 C 31.262607,29.040213 30.022195,28.231416 28.9375,27.218827 28.700386,27.01545 28.48432,26.789331 28.267578,26.56453 l 0.115234,-0.103515 c -0.421551,-0.414224 -0.900354,-0.900553 -1.115234,-1.189453 0,0 -0.07716,-0.97639 -0.208984,-1.19336 0.459133,-0.111773 0.919396,-0.24999 1.357422,-0.425781 0.357411,-0.143262 0.676039,-0.363611 1.029296,-0.511719 0.273335,-0.114886 0.645238,-0.121607 0.88086,-0.310547 0.249807,-0.200707 0.139565,-0.784133 0.146484,-1.070312 0.01349,-0.571666 0.04282,-1.142832 0.05078,-1.714844 0.0073,-0.529449 0.662401,-1.060845 0.916015,-1.505859 0.856678,-1.500795 0.179299,-3.378558 0.130859,-4.998047 -0.01695,-0.575819 0.314247,-1.233016 0.488282,-1.777344 0.121097,-0.37892 0.242185,-0.759061 0.363281,-1.138672 C 32.597986,7.7612109 30.17065,6.0306619 27.578125,5.3887486 27.284031,5.3157376 26.9853,5.3695479 26.683594,5.3145298 26.39954,5.2629729 26.112085,5.100618 25.824219,5.0684361 c -0.459998,-0.051561 -0.92373,-0.07549 -1.384766,-0.066406 z m 3.675781,21.6953132 c 0.07682,0.09029 0.155415,0.179775 0.230469,0.271484 l -0.05273,0.101563 c -0.08167,-0.103686 -0.169667,-0.203226 -0.253907,-0.304688 z M 14.298828,29.00789 v 1.605468 c 0,0 -1.028981,-0.531346 0,-1.605468 z m 3.296875,8.49414 c -0.463137,0.131301 -0.260911,1.303536 -0.07617,0.429688 0.17919,-0.1995 1.261382,-0.381807 0.31836,-0.414063 -0.09526,-0.03277 -0.176025,-0.03438 -0.242188,-0.01563 z m 0.552735,0.529297 c -0.631279,0.41664 -1.566115,0.834395 -1.447266,1.748047 -0.175697,0.61861 1.083386,1.326087 1.158203,0.599609 0.164255,-0.42349 -0.589334,0.251333 -0.824219,-0.322265 -0.390663,-0.954017 0.732816,-1.370869 1.107422,-1.925782 z"/>
 <path style="fill:#3c3c3c" d="m 24.438777,4.0037648 c -0.461034,0.00908 -0.918485,0.051389 -1.36914,0.1347858 -0.252574,0.046717 -0.503653,0.02431 -0.75,0.097671 -0.26676,0.079592 -0.527737,0.2576464 -0.785156,0.3711494 -3.072415,1.3564955 -5.355319,3.8405098 -6.265626,7.090908 -3.46e-4,6.92e-4 -0.372622,1.395659 -0.09375,2.387077 0.01315,0.982076 -0.103293,2.003242 0.289063,2.916453 0.08581,0.199668 0.122734,0.552387 0.08398,0.785275 -0.05743,0.348813 -0.350041,0.651605 -0.447265,0.990382 -0.216246,0.754725 -0.308234,1.53793 -0.402344,2.314801 -0.08754,0.721849 -0.333159,1.517337 -0.308593,2.240571 0.0073,0.210395 0.05445,0.398724 0.02539,0.609465 -0.140819,1.013566 -0.464,2.008397 -0.654296,3.016079 -0.07992,0.423558 -0.158068,0.85257 -0.193359,1.283396 -0.04809,0.596234 0.156879,1.248314 0.71289,1.527572 -0.03875,0.869264 -0.151289,2.346233 0.414063,3.08054 0.41104,0.533255 0.782268,1.096497 1.05664,1.713148 0.115216,0.258496 0.190918,0.595868 0.46875,0.726672 0.315891,0.149146 0.83633,-0.0047 1.154297,-0.06837 l 11.007812,-9.759276 c -0.421551,-0.414224 -0.900354,-0.898779 -1.115234,-1.187679 0,0 -0.07716,-0.976569 -0.208984,-1.193539 0.459133,-0.111773 0.919395,-0.250054 1.357421,-0.425845 0.357411,-0.143262 0.676039,-0.363688 1.029297,-0.511796 0.273335,-0.114886 0.645238,-0.121652 0.88086,-0.310592 0.249807,-0.200707 0.139565,-0.784295 0.146484,-1.070474 0.01349,-0.571666 0.04282,-1.143089 0.05078,-1.715101 0.0073,-0.529449 0.662402,-1.061071 0.916016,-1.506085 0.856678,-1.500795 0.179299,-3.379308 0.130859,-4.998797 -0.01695,-0.575819 0.314246,-1.23133 0.488281,-1.775658 0.121097,-0.37892 0.242185,-0.759231 0.363281,-1.1388423 0.176111,-2.8638658 -2.251225,-4.5952008 -4.84375,-5.2371141 -0.294094,-0.073011 -0.592825,-0.019212 -0.894531,-0.07423 -0.284054,-0.051557 -0.571503,-0.2139483 -0.859369,-0.2461302 -0.459998,-0.051561 -0.92373,-0.0755 -1.384766,-0.066416 z M 14.298152,28.009321 v 1.60571 c 0,0 -1.028981,-0.531588 0,-1.60571 z"/>
 <path style="fill:#e2a67f" d="m 21.231746,20.312853 c -0.02829,-0.0048 -0.07344,-5.26e-4 -0.144531,0.01758 -0.877813,0.136634 0.547039,1.07983 -0.07227,1.717055 -0.568752,1.153137 -1.291936,2.230248 -2.011717,3.29151 -1.057197,1.702309 -0.929181,3.857568 -0.345705,5.69812 0.21228,0.759178 0.155335,-0.330387 0.214844,-0.609465 -0.277127,-0.915683 -0.562193,-1.876975 -0.386719,-2.851991 -0.0869,-0.529988 0.955668,-1.991835 0.40625,-0.800901 -0.335676,0.983462 -0.288322,2.084494 0.04492,3.061006 0.160012,-0.879958 0.445481,-1.735735 0.673828,-2.594139 -0.22762,-0.523709 0.27246,-1.117706 0.222657,-0.20511 -0.344273,1.450705 -0.703263,2.9041 -0.798828,4.397145 -0.369586,3.632802 -0.878192,7.251235 -1.285157,10.878585 0.206328,0.686169 0.790711,1.603604 1.53711,1.687754 2.168495,0.0037 4.337364,-0.0037 6.505859,0 -1.165676,-1.064995 -2.155315,-2.338487 -3.08789,-3.602103 -0.276078,-0.999484 0.381734,-1.932974 0.582032,-2.889105 0.531905,-1.949298 1.039323,-3.909541 1.755859,-5.801653 0.446512,-0.936213 0.414614,-1.999449 0.837891,-2.928174 0.195329,-0.501975 0.513536,-0.93623 0.80664,-1.383019 -0.185846,0.854842 -0.678348,1.625335 -0.917969,2.404657 0.379627,-0.302055 0.979772,-1.28865 0.556641,-0.378963 -0.389851,0.207771 -0.925946,1.293013 -0.171875,0.70909 0.0026,-0.0049 0.007,-0.0069 0.0098,-0.01172 l -0.296875,0.568445 c -0.306426,0.178844 -0.533113,0.427316 -0.501953,0.953268 -0.295163,1.038471 -0.750173,2.022211 -0.916016,3.094214 -0.05526,0.136485 -0.06613,0.225418 -0.05273,0.29106 l -0.234375,1.302929 c -0.247819,0.817337 -0.27347,1.805158 -0.492188,2.650789 0.05736,0.785325 -0.732619,1.739264 -0.0039,2.330428 0.77842,0.91831 1.543213,1.957766 2.478515,2.689857 2.293725,0.0065 4.587135,-0.0065 6.88086,0 -0.7674,-1.225675 -1.594971,-2.533974 -1.585938,-4.037715 -0.04854,-1.016121 -0.02163,-2.062481 -0.185546,-3.070774 l 0.02539,0.002 c 0.03724,-0.664144 -0.210128,-1.328341 -0.638672,-1.992486 l 2.59375,-4.201802 -4.839844,-4.82299 -0.101562,0.195342 c -0.322161,-0.408991 -0.662497,-0.802894 -1.035156,-1.164238 0.0096,0.55643 -0.655508,1.99461 -0.416016,0.711045 0.117866,-1.025768 0.296728,-2.193003 -0.455116,-3.039566 -0.60946,-0.730124 -1.35264,-1.717302 -2.427734,-1.578362 -0.74363,0.545869 -1.206805,-0.276298 -2.003907,-0.425845 -0.365055,-0.0173 -1.093474,0.778946 -0.726562,-0.08009 0.01725,-0.06934 0.08877,-0.16718 0.0039,-0.181668 z"/>
 <path style="fill:#f55588" d="m 27.307918,24.569352 c -0.07357,0.315428 0.309222,0.47367 0.451395,0.714789 0.922741,1.026699 1.744452,2.143538 2.359152,3.383482 0.584304,1.024405 0.862093,2.276655 0.427734,3.408714 -0.283273,0.749141 -0.617691,1.560167 -1.266013,2.060369 -0.556662,0.167042 -1.156032,0.174681 -1.712179,0.371598 l -3.242511,0.861497 c -0.164723,0.378327 -0.06234,0.475704 0.30716,0.292113 1.381213,-0.418722 2.789323,-0.747654 4.204703,-1.023634 1.007339,-0.179767 1.989068,0.780698 2.961246,0.212899 1.447044,-0.659913 2.501222,-2.144487 2.639788,-3.728366 0.03359,-1.153427 -1.150225,-1.686033 -1.953352,-2.24724 -1.221768,-0.832911 -2.462071,-1.643121 -3.546766,-2.65571 -0.587539,-0.503944 -1.084228,-1.103633 -1.630357,-1.650511 z m -9.470703,11.951011 c -0.762099,-0.262197 -0.529491,1.412809 -0.31836,0.414125 0.17919,-0.1995 1.261382,-0.381869 0.31836,-0.414125 z m 0.310547,0.513749 c -0.631278,0.41664 -1.566402,0.832917 -1.447553,1.746569 -0.175697,0.61861 1.085283,1.325973 1.1601,0.599495 0.164255,-0.42349 -0.589413,0.252148 -0.824298,-0.32145 -0.390663,-0.954017 0.731121,-1.371276 1.105727,-1.926189 l 0.006,-0.09842 z"/>
 <path style="fill:#e2a57d" d="m 23.069196,19.453662 1.278098,1.185549 c 0.908123,0.341695 1.83664,0.77098 2.8269,0.737497 0.586788,-0.0055 0.995891,-0.502668 1.171493,-1.017239 0.579918,-1.519956 1.305549,-2.99426 1.697905,-4.578668 0.07202,-0.438629 0.160722,-0.910114 0.04228,-1.343974 0.02998,0.160547 -0.175772,0.656784 -0.54055,0.417482 -0.216124,-0.05992 -0.437914,-0.101918 -0.650301,-0.173642 -0.01233,0.521699 -0.194547,-0.215627 -0.02528,-0.496416 0.225877,-0.46352 0.589522,-0.969772 1.164897,-0.936832 0.558866,-0.06133 0.461175,-0.664275 0.383589,-1.062209 -0.126475,-0.648437 -0.24606,-1.299975 -0.375283,-1.946485 -0.13396,-0.223254 -0.415019,-0.6598873 -0.525341,-0.7303876 -0.18248,0.6694656 -0.311727,1.3509716 -0.348508,2.0445436 -0.118783,1.211904 -0.576215,2.133587 -1.090095,3.001082 -0.306209,0.542107 -0.758822,1.072881 -1.416088,1.153232 -0.480755,0.03627 -0.833137,0.173509 -1.04735,0.62887 -0.415118,0.475554 -0.923733,1.060543 -0.727297,1.743311 0.129046,0.535526 -0.288057,-0.572424 -0.06092,-0.820272 0.172258,-0.519294 0.589763,-0.896562 0.891122,-1.33856 -0.471284,-6.2e-5 -0.832056,0.399846 -1.076729,0.75957 -0.204134,0.615955 -0.431253,1.373121 -0.01163,1.952341 0.09823,0.189941 0.402398,0.560748 0.05138,0.242446 -0.45928,-0.436141 -0.644048,-1.080611 -0.587557,-1.700642 -0.02223,-0.330434 0.228874,-0.837813 -0.19048,-0.456094 -0.123822,0.102523 -0.316375,0.168194 -0.400274,0.292121 l 0.0075,2.048192 -0.441486,0.395183"/>
 <path style="fill:#f89dba" d="m 18.186201,26.703645 c 0.05674,0.06436 -0.08269,0.405218 -0.12352,0.87757 -0.02768,0.324243 -0.06816,0.645372 -0.07612,0.972038 -0.01938,0.772026 0.06297,1.545436 0.288213,2.286319 0.101375,0.333241 0.277832,0.639144 0.432836,0.948854 v 0.403142 c -0.461899,-0.87134 -0.905117,-1.699079 -1.044206,-2.691189 -0.04602,-0.326321 -0.06262,-0.656794 -0.05225,-0.985882 0.01903,-0.609039 0.290634,-1.483148 0.57504,-1.810852"/>
 <path style="fill:#040606" d="m 18.186201,26.703645 -0.0035,0.0028 0.01246,0.05087 c 0,0.124922 -0.10276,0.428749 -0.136667,0.823587 -0.02802,0.324243 -0.06816,0.645372 -0.07646,0.972384 -0.0017,0.07128 -0.0028,0.142917 -0.0028,0.214203 0,0.701086 0.08684,1.400789 0.291326,2.0735 0.101376,0.333587 0.278524,0.639836 0.433183,0.949546 l 0.0038,-0.0021 h -0.0042 v 0.403142 h 0.0042 l 0.0038,-0.0017 c -0.4619,-0.871686 -0.904771,-1.698733 -1.04386,-2.69015 -0.03702,-0.264033 -0.05501,-0.531179 -0.05501,-0.79798 0,-0.06229 10e-4,-0.124576 0.0028,-0.186864 0.01903,-0.608347 0.29098,-1.482456 0.574002,-1.80843 l -0.0031,-0.0028 -0.0035,0.0028 0.0035,-0.0028 -0.0035,-0.0028 c -0.285098,0.329435 -0.556702,1.203198 -0.576078,1.813621 -0.0021,0.06229 -0.0028,0.124575 -0.0028,0.18721 0,0.267147 0.01799,0.534639 0.05501,0.799364 0.139435,0.993148 0.582998,1.821233 1.044899,2.692573 l 0.0083,-0.0021 v -0.403142 -10e-4 l -6.92e-4,-6.92e-4 c -0.155004,-0.310057 -0.331461,-0.61596 -0.432491,-0.948509 -0.204481,-0.671672 -0.29098,-1.370337 -0.29098,-2.070731 0,-0.07128 10e-4,-0.142917 0.0028,-0.214203 0.0083,-0.326319 0.04844,-0.647103 0.07647,-0.971692 0.03356,-0.394145 0.136667,-0.695897 0.136667,-0.824279 l -0.01453,-0.05641 -0.0031,-0.0038 -0.0035,0.0038 0.0035,0.0028"/>
 <path style="fill:#f89dba" d="m 21.974129,20.354762 1.346604,0.74019 0.229047,-0.09066 -1.308198,-0.855077 -0.267453,0.20555"/>
 <path style="fill:#040606" d="m 21.974129,20.354762 -0.0021,0.0038 1.348334,0.741228 0.231123,-0.0917 0.0076,-0.0031 -1.317886,-0.86096 -0.275066,0.211433 0.0059,0.0031 0.0021,-0.0038 0.0024,0.0035 0.265031,-0.20382 1.298858,0.848847 -0.219706,0.0872 -1.344528,-0.739497 -0.0021,0.0038 0.0024,0.0035 -0.0024,-0.0035"/>
 <path style="fill:#f89dba" d="m 21.338887,20.177934 0.109679,-0.267147 -0.36779,0.214894 0.258111,0.05225"/>
 <path style="fill:#040606" d="m 21.338887,20.177934 0.0038,0.0017 0.110026,-0.267492 0.0048,-0.01176 -0.388896,0.227351 0.269183,0.05433 0.0035,6.92e-4 0.0014,-0.0031 -0.0038,-0.0017 6.93e-4,-0.0042 -0.246693,-0.05018 0.346683,-0.202782 -0.104835,0.255727 0.0042,0.0014 6.93e-4,-0.0042 -6.93e-4,0.0042"/>
 <path style="fill:#f4f4f7" d="m 21.403587,20.562043 1.905728,-1.580732 -0.04636,-2.905391 -1.859365,4.486123"/>
 <path style="fill:#040606" d="m 21.403587,20.562043 0.0028,0.0031 1.907458,-1.581771 -0.04671,-2.907813 -0.0083,-0.0014 -1.859019,4.486123 0.0066,0.0048 -0.0028,-0.0031 0.0042,0.0014 1.851061,-4.466745 0.04602,2.882553 -1.903998,1.579348 0.0028,0.0035 0.0042,0.0014 -0.0042,-0.0014"/>
 <path style="fill:#e2a57d" d="m 22.364063,20.042284 0.496154,-0.410063 1.084341,1.185204 -0.27887,0.131842 -1.301625,-0.906983"/>
 <path style="fill:#f03a25" d="m 26.307343,18.919023 c 0,0 1.022409,-0.495882 1.502992,-0.58101 0,0 0.193756,-0.06194 0.371597,0.06194 0,0 0.06989,0.06194 0.240119,0.03876 0.100684,-0.01349 0.199292,-0.09343 0.300667,-0.05295 0.114524,0.04603 0.151891,0.207627 0.125596,0.316285 l -0.185797,0.294484 c -0.03529,0.05641 0.0052,0.262648 -0.0062,0.34639 -0.0173,0.124231 -0.06747,0.222508 -0.157773,0.309365 -0.134591,0.12942 -0.288904,0.156412 -0.469166,0.163679 -0.389934,0.01591 -0.682644,-0.03219 -0.993346,-0.282719 -0.258803,-0.209357 -0.398583,-0.499342 -0.72866,-0.614229"/>
 <path style="fill:#f4f4f7" d="m 27.034966,19.167829 c 0,0 0.499613,0.362309 0.548744,0.313517 0,0 0.05882,0.0955 -0.09549,0.0955 0,0 -0.325579,-0.129767 -0.45325,-0.409025"/>
 <path style="fill:#f4f4f7" d="m 28.449384,19.428401 c 0,0 -0.02318,0.0782 0.05294,0.03842 0.07612,-0.03945 0.05986,-0.164372 0.05986,-0.164372 0,0 0.0021,0.06021 -0.112794,0.125961"/>
 <path style="fill:#de9262" d="m 29.236518,13.911064 c 0,0 0.133553,-0.242923 0.473318,-0.242923 0,0 0.306549,0.03944 0.461208,-0.115234 0,0 0.07612,0.239809 -0.07266,0.388609 0,0 -0.151545,0.133227 -0.861868,-0.03045"/>
 <path style="fill:#e2a57d" d="m 29.236518,13.911064 c 0.02227,-0.01665 0.04195,-0.05871 0.0688,-0.07959 0.105031,-0.106889 0.256015,-0.16078 0.404508,-0.159157 0.01729,0.0012 0.07562,0.0068 0.107613,0.0043 0.126435,-0.0035 0.262882,-0.02956 0.356707,-0.120896 -0.01502,-2.91e-4 0.0097,0.04708 0.0069,0.06494 0.01626,0.110969 -0.0024,0.23605 -0.08545,0.317715 -0.0068,0.0076 -0.06005,0.0294 -0.08472,0.0326 -0.15604,0.0316 -0.316947,0.0145 -0.47319,-0.0066 -0.100831,-0.01479 -0.200862,-0.03468 -0.300152,-0.05756 -0.0079,0.01304 0.02258,0.01184 0.04167,0.01824 0.206457,0.04409 0.417406,0.08137 0.629299,0.06907 0.06585,-0.0063 0.136143,-0.0128 0.193054,-0.04949 0.0918,-0.09056 0.107328,-0.230772 0.08369,-0.352059 -0.006,-0.01573 -0.0052,-0.06847 -0.02655,-0.03351 -0.09537,0.08447 -0.228079,0.106779 -0.351484,0.109066 -0.05802,0.0013 -0.115881,-0.0098 -0.173723,-2.01e-4 -0.161521,0.01694 -0.318628,0.10534 -0.40349,0.245899 0.0045,7.1e-4 0.0061,0.0036 0.0065,-0.0028"/>
 <path style="fill:#f4f4f7" d="m 28.896753,14.621148 c 0.107258,0.03079 0.215207,0.05952 0.323157,0.08789 0.166769,0.04395 0.382668,0.128382 0.553935,0.07094 0.138051,-0.04637 0.126287,-0.200706 0.130785,-0.318707 0.0042,-0.10416 0.0083,-0.259187 -0.103798,-0.310402 l -0.260879,-0.03392 c 0,0 0.0031,0.337394 -0.230777,0.401066 0,0 -0.197216,0.05779 -0.363984,-0.10935 0,0 -0.04844,0.07267 -0.04844,0.212472"/>
 <path style="fill:#040606" d="m 28.896753,14.621148 -0.0014,0.0045 c 0.107604,0.03079 0.215553,0.05918 0.323503,0.08755 0.126633,0.03356 0.281984,0.09066 0.425571,0.09066 0.04532,0 0.08927,-0.0059 0.130785,-0.01972 0.141858,-0.0481 0.129402,-0.205551 0.133554,-0.32286 l 0.0017,-0.06367 c 0,-0.0955 -0.01419,-0.207281 -0.10795,-0.250537 l -3.46e-4,-3.46e-4 -0.261571,-0.03392 -0.0048,-6.92e-4 v 0.0048 6.92e-4 c 0,0.01626 -0.0038,0.336009 -0.227663,0.395875 -3.46e-4,3.46e-4 -0.03252,0.0097 -0.08235,0.0097 -0.07231,0 -0.179916,-0.01972 -0.277832,-0.117656 l -0.0038,-0.0038 -0.0028,0.0045 c -3.46e-4,6.92e-4 -0.04913,0.07405 -0.04913,0.214895 v 0.0035 l 0.0031,0.001 0.0014,-0.0045 h 0.0042 c 0,-0.138764 0.04809,-0.209704 0.04775,-0.21005 l -0.0035,-0.0024 -0.0031,0.0031 c 0.0993,0.09966 0.210017,0.120078 0.283714,0.120078 0.05086,0 0.08442,-0.0097 0.08477,-0.0097 0.231815,-0.06402 0.233545,-0.387916 0.233891,-0.404527 v -3.46e-4 l -0.0045,-3.46e-4 -3.46e-4,0.0045 0.260879,0.03392 3.46e-4,-0.0045 -0.0017,0.0038 c 0.08823,0.04014 0.10276,0.147761 0.10276,0.242923 l -0.0017,0.06333 c -0.0042,0.119385 0.0069,0.270261 -0.127671,0.315247 -0.04048,0.01349 -0.08338,0.01903 -0.128018,0.01903 -0.141165,0 -0.29617,-0.05675 -0.423149,-0.09031 -0.108296,-0.02837 -0.215899,-0.0571 -0.323503,-0.08789 l -10e-4,0.0042 h 0.0042 -0.0042"/>
 <path style="fill:#f4f4f7" d="m 29.042416,14.232539 c 0,0 0.26676,0.248807 0.327655,-0.06056 h 0.103106 c 0,0 -0.091,0.485847 -0.473318,0.170255 l 0.04256,-0.109697"/>
 <path style="fill:#040606" d="m 29.042416,14.232539 -0.0031,0.0031 c 3.46e-4,3.46e-4 0.101722,0.0955 0.196524,0.09585 0.05951,3.46e-4 0.115215,-0.03911 0.138397,-0.158835 l -0.0042,-6.92e-4 v 0.0042 h 0.103106 v -0.0042 l -0.0042,-0.001 c -3.46e-4,3.46e-4 -0.05259,0.27476 -0.237697,0.273376 -0.0602,0 -0.135629,-0.02837 -0.228701,-0.105544 l -0.0028,0.0035 0.0038,0.0014 0.04256,-0.10935 -0.0038,-0.0017 -0.0031,0.0031 0.0031,-0.0031 -0.0042,-0.0014 -0.04256,0.10935 -0.001,0.0031 0.0024,0.0021 c 0.09411,0.07751 0.171266,0.107273 0.234237,0.107273 0.194794,-0.001 0.245655,-0.280296 0.246001,-0.280296 l 0.001,-0.0052 h -0.108296 -0.0035 l -6.92e-4,0.0035 c -0.02353,0.118002 -0.07508,0.151568 -0.130093,0.151914 -0.08927,3.46e-4 -0.190296,-0.09343 -0.190642,-0.09343 l -0.0045,-0.0042 -0.0024,0.0059 0.0042,0.0014"/>
 <path style="fill:#3c3c3c" d="m 27.554993,17.099866 c 0,0 0.0031,0.265416 0.356718,0.100699 0,0 0.112794,-0.0699 0.408618,-0.04603 0,0 0.02768,0.02491 -0.0093,0.03357 0,0 -0.280254,-0.01211 -0.3626,0.04603 0,0 -0.396162,0.155374 -0.393394,-0.134265"/>
 <path style="fill:#3c3c3c" d="m 28.305105,17.444526 c 0,0 0.380938,0.106582 0.527293,-0.103467 0,0 0.12525,-0.02457 0.05501,0.09412 0,0 -0.274372,0.128037 -0.582306,0.0093"/>
 <path style="fill:#f4f4f7" d="m 28.497477,20.589726 1.005801,-0.835351 -0.01592,-1.713959 -0.947328,2.145131 -0.04256,0.404179"/>
 <path style="fill:#3f3f3f" d="m 26.335369,18.95951 c 0.422969,-0.0031 0.846759,-0.01071 1.269003,0.01891 0.04864,0.0063 0.09911,0.0087 0.145794,0.02438 0.01267,-0.0186 -0.01518,0.0089 0.01887,-0.02081 -0.04738,0.0063 0.0252,0.07543 0.07065,0.081 0.136032,0.04695 0.278313,-0.0071 0.403044,-0.06241 0.134856,-0.04615 0.286671,-0.02773 0.411864,0.03803 0.01491,-0.03251 0.05377,-0.07389 -0.0075,-0.08025 -0.154171,-0.06857 -0.340209,-0.07364 -0.491781,0.0046 0.02964,0.06623 0.01108,-0.03418 -0.02859,0.01113 -0.100395,0.03701 -0.234846,0.0674 -0.322345,-0.01352 -0.07076,-0.05264 -0.165807,-0.04521 -0.249669,-0.05535 -0.406285,-0.02352 -0.813578,-0.01869 -1.220342,-0.01481 3.33e-4,0.02307 6.67e-4,0.04614 0.001,0.06921"/>
 <path style="opacity:0.2;fill-rule:evenodd" d="m 30.347656,20.011719 c -0.126841,0.02062 -0.250827,0.06685 -0.365234,0.132812 -0.245419,0.148463 -0.391516,0.347194 -0.457031,0.611328 l -0.261719,0.791016 a 27.965338,28.214042 0 0 1 -0.736328,2.046875 c -0.408951,0.148198 -0.817656,0.313529 -1.226563,0.478516 l -0.523437,0.246093 c -0.261798,0.115414 -0.425421,0.298366 -0.523438,0.5625 a 1.0794244,1.089024 0 0 0 0.01758,0.791016 c 0.06551,0.131938 0.162955,0.248767 0.277344,0.347656 -0.212406,-0.01627 -0.407934,0.01634 -0.636719,0.115235 a 1.0298009,1.0389592 0 0 0 0.146485,-0.544922 v -0.09961 c -0.0325,-0.280393 -0.146451,-0.511855 -0.359375,-0.693359 -0.212407,-0.181504 -0.458406,-0.246986 -0.736328,-0.230469 -0.310934,0.01627 -0.653788,0.149364 -1.0625,0.347656 -0.752149,0.37954 -1.440636,0.989519 -2.029297,1.814454 -0.06551,0.08236 -0.130551,0.165047 -0.179688,0.263672 a 3.1385765,3.1664887 0 0 0 -0.294922,0.578124 c -0.163533,0.37954 -0.29386,0.72576 -0.359375,1.072266 -0.179649,0.874471 -0.0328,1.534088 0.441407,1.962891 0.163532,0.148463 0.35985,0.246402 0.572265,0.3125 0.343436,0.09889 0.70337,0.06669 1.095703,-0.08203 0.425331,-0.164989 0.916083,-0.493736 1.439454,-0.972657 l 0.818359,-0.726562 c 0.114906,0.610367 0.391791,0.99052 0.849609,1.138672 0.490329,0.148455 0.933785,-0.01636 1.375,-0.478516 0.278432,-0.296918 0.620623,-0.808278 1.029297,-1.550781 0.09802,0.69324 0.391952,1.137157 0.882813,1.318359 0.719631,0.296918 1.423678,-0.115124 2.126953,-1.220703 0.114396,0.148463 0.277874,0.247302 0.441406,0.296875 0.408952,0.164987 0.802301,0.08208 1.162109,-0.214844 0.277922,-0.21456 0.603815,-0.609955 0.947266,-1.1875 l -0.210938,2.541016 c -2.4862,0.412589 -5.464334,1.039134 -8.882812,1.880859 a 200.23323,202.01396 0 0 0 -8.75,2.34375 c -0.474467,0.132196 -0.947678,0.263133 -1.421875,0.41211 l -3.320313,0.974609 -1.292968,0.394531 c -0.261798,0.08237 -0.4727407,0.248741 -0.6035159,0.496094 -0.1143965,0.264126 -0.1480463,0.510608 -0.066406,0.791016 0.098273,0.264127 0.2623859,0.480032 0.5078121,0.595703 0.245164,0.131938 0.506059,0.164658 0.767578,0.08203 l 1.308594,-0.396484 c 1.09584,-0.329967 2.224572,-0.675878 3.402344,-1.00586 a 257.59265,259.88349 0 0 1 8.634766,-2.34375 51.310141,51.766456 0 0 1 1.685546,-0.412109 c 2.94353,-0.726031 5.560672,-1.287234 7.833985,-1.683594 -0.06551,0.742556 -0.131515,1.435785 -0.212891,2.095703 -0.196546,1.848165 -0.360403,3.283412 -0.507812,4.306641 -0.146892,0.09889 -0.259648,0.214818 -0.341797,0.363281 a 1.0180322,1.0270858 0 0 0 -0.130859,0.511719 v 0.04883 c 0.01638,0.280394 0.03195,0.511855 0.06445,0.693359 0.06552,0.429113 0.229129,0.741285 0.523437,0.90625 C 33.384996,40.933134 33.564229,41 33.744141,41 c 0.179912,0 0.344778,-0.04993 0.492187,-0.132812 0.261288,-0.13194 0.440299,-0.361183 0.554688,-0.691407 l 0.130859,-0.480469 0.212891,-1.36914 c 0.146892,-1.006667 0.310322,-2.39191 0.490234,-4.140625 l 0.01758,-0.181641 0.244141,-2.410156 0.90039,-0.09766 c 1.815457,-0.214552 3.189261,-0.249376 4.154297,-0.117188 0.522831,0.08262 0.849172,0.198148 0.996094,0.330078 v 0.09961 l -0.03125,0.230468 c 0,0.231086 0.06599,0.44676 0.212891,0.644532 0.147408,0.181504 0.342962,0.313708 0.572265,0.363281 0.277922,0.0661 0.522661,0.01565 0.767578,-0.132813 0.261797,-0.148462 0.409094,-0.346302 0.47461,-0.626953 0.09853,-0.412589 0.08214,-0.792225 -0.01563,-1.138671 -0.09853,-0.363016 -0.295289,-0.675601 -0.589844,-0.939454 -0.458343,-0.429114 -1.144119,-0.727422 -2.076172,-0.859375 -1.226571,-0.181769 -2.944546,-0.13132 -5.152344,0.132813 l 0.181641,-2.490234 0.06445,-0.660157 c 0.0325,-0.791887 0.04958,-1.336056 0.0332,-1.666015 -0.01638,-0.824936 -0.294725,-1.338028 -0.867187,-1.519532 -0.375939,-0.115414 -0.736634,-0.04902 -1.080078,0.214844 -0.179904,0.148462 -0.374967,0.362981 -0.587891,0.660156 L 33.728516,24.1875 c -0.08189,-0.395807 -0.276949,-0.709452 -0.587891,-0.957031 -0.441455,-0.346749 -1.096053,-0.46307 -1.962891,-0.347657 l 0.294922,-1.5 0.04883,-0.347656 c 0,-0.231085 -0.08237,-0.444807 -0.21289,-0.642578 -0.164043,-0.181504 -0.343481,-0.297183 -0.572266,-0.363281 -0.130903,-0.03305 -0.261831,-0.0382 -0.388672,-0.01758 z m -19.125,3.808593 c -0.128787,-0.01239 -0.259853,0.0032 -0.390625,0.05273 -0.261805,0.08236 -0.474438,0.248749 -0.605469,0.496094 L 7.4453125,29.533203 6.2851562,31.693359 6.0234375,30.423828 C 5.9579224,30.143435 5.8110716,29.92776 5.5820312,29.779297 5.3532682,29.61431 5.0904218,29.565664 4.8125,29.615234 c -0.2781842,0.0661 -0.4895648,0.213971 -0.6367188,0.445313 -0.1635331,0.231054 -0.2136955,0.494997 -0.1484374,0.775391 l 0.6386718,3.21875 c 0.032758,0.3132 0.1313891,0.559519 0.2949219,0.757812 0.1635328,0.214553 0.3751757,0.346012 0.6367187,0.412109 0.6216436,0.132195 1.1625067,-0.197183 1.6367188,-1.005859 0.2618354,-0.428879 0.9475737,-1.700247 2.0761719,-3.8125 l -0.1464844,0.529297 c -0.2126616,0.775627 -0.326618,1.368816 -0.359375,1.814453 -0.032757,0.36325 -3.617e-4,0.660859 0.097656,0.908203 0.114389,0.264134 0.2948427,0.461657 0.5566406,0.560547 0.2615206,0.115414 0.5224138,0.115414 0.7675776,0 0.196292,-0.08262 0.360214,-0.197394 0.47461,-0.378906 0.114403,-0.181512 0.164062,-0.363572 0.164062,-0.578125 l -0.0332,-0.28125 v -0.03125 c 0,-0.131931 0.0324,-0.363393 0.09766,-0.69336 0.131007,0.528275 0.425732,0.890916 0.867187,1.105469 0.376224,0.197773 0.834074,0.230493 1.357422,0.08203 0.540012,-0.164942 1.144403,-0.49528 1.847656,-0.990234 0.605227,0.461912 1.406059,0.445869 2.371094,-0.04883 0.310919,-0.131938 0.62336,-0.347459 0.966797,-0.611328 0.588586,-0.478415 1.112033,-1.088421 1.537109,-1.814453 a 1.0142092,1.0232288 0 0 0 0.146485,-0.445313 v -0.06641 c -10e-7,-0.181511 -0.04897,-0.363256 -0.13086,-0.511719 -0.09802,-0.148455 -0.21342,-0.279756 -0.376953,-0.378906 -0.228785,-0.148456 -0.472577,-0.181334 -0.734375,-0.115234 0.06526,-0.230821 0.113281,-0.463439 0.113281,-0.677735 v -0.01563 c -0.01638,-0.478142 -0.163484,-0.841754 -0.441406,-1.138672 -0.32705,-0.346488 -0.866131,-0.511412 -1.324219,-0.445312 -0.736033,0.08236 -1.391613,0.626372 -1.980468,1.632812 L 14.9375,28.212891 14.740234,27.865234 v -0.01563 C 14.52755,27.569215 14.248933,27.437347 13.921875,27.404297 a 1.2754449,1.2867878 0 0 0 -0.685547,0.148437 c -0.376179,0.24736 -0.703046,0.626166 -0.964844,0.972657 a 9.4262238,9.5100538 0 0 0 -0.638672,0.941406 c -0.09805,-0.692997 -0.752625,-0.97252 -1.390624,-0.791016 l 1.783203,-3.333984 c 0.13077,-0.247617 0.148296,-0.510365 0.06641,-0.791016 -0.08164,-0.263869 -0.246769,-0.47939 -0.492188,-0.611328 -0.122571,-0.0661 -0.248166,-0.106747 -0.376953,-0.119141 z m 20.445313,1.076172 a 51.23668,51.692341 0 0 0 -0.261719,1.56836 l -0.703125,-0.0332 c 0.03301,-0.37954 0.08148,-0.842996 0.146484,-1.404297 a 4.6586909,4.7001219 0 0 1 0.81836,-0.13086 z m -4.580078,1.369141 h 0.261718 l -0.08203,0.166016 z m -1.896485,0.330078 -0.441406,0.396485 -0.605469,0.527343 -0.818359,0.744141 c 0.2943,-0.495211 0.637862,-0.941525 1.095703,-1.271484 0.06551,-0.06584 0.14883,-0.116443 0.230469,-0.166016 0.163533,-0.08236 0.342771,-0.180888 0.539062,-0.230469 z m -10.826172,3.152344 c -0.06526,0.231342 -0.09886,0.462282 -0.115234,0.693359 -0.458088,0.37954 -0.866608,0.642692 -1.193359,0.824219 0.130776,-0.412589 0.358233,-0.840728 0.685547,-1.269531 0.245164,-0.01653 0.426763,-0.115859 0.623046,-0.248047 z"/>
 <path style="fill:#ff89be;fill-rule:evenodd" d="m 36.280436,25.991982 0.06551,-0.659933 c 0.0325,-0.791887 0.04888,-1.336626 0.0325,-1.666585 -0.01638,-0.824936 -0.294301,-1.336626 -0.866763,-1.51813 -0.375939,-0.115414 -0.735755,-0.04931 -1.079199,0.214553 -0.179904,0.148462 -0.37645,0.363015 -0.589374,0.66019 l -0.113879,0.164987 C 33.647341,22.791257 33.4508,22.477815 33.139858,22.230236 32.698403,21.883487 32.044317,21.768074 31.177479,21.883487 l 0.294301,-1.501416 0.04888,-0.346491 c 0,-0.231085 -0.08189,-0.445638 -0.212407,-0.643409 -0.164043,-0.181504 -0.343437,-0.296918 -0.572222,-0.363016 -0.261806,-0.0661 -0.523859,-0.01652 -0.752674,0.115414 -0.245419,0.148463 -0.392318,0.346491 -0.457833,0.610625 l -0.261289,0.791585 a 27.965338,28.214042 0 0 1 -0.736265,2.046457 c -0.408951,0.148198 -0.817664,0.313443 -1.226571,0.47843 l -0.523348,0.247601 c -0.261798,0.115414 -0.425331,0.296918 -0.523348,0.561052 a 1.0794244,1.089024 0 0 0 0.01638,0.791887 c 0.06551,0.131938 0.163532,0.247602 0.277921,0.346491 -0.212406,-0.01627 -0.408952,0.01652 -0.637737,0.115414 a 1.0298009,1.0389592 0 0 0 0.146892,-0.54427 v -0.09915 c -0.0325,-0.280393 -0.146892,-0.511478 -0.359816,-0.692982 -0.212407,-0.181504 -0.457833,-0.247602 -0.735755,-0.231085 -0.310934,0.01627 -0.654371,0.148198 -1.063083,0.346491 -0.752149,0.37954 -1.439233,0.989878 -2.027894,1.814813 -0.06551,0.08236 -0.130775,0.165245 -0.179912,0.263869 a 3.1385765,3.1664887 0 0 0 -0.2943,0.577576 c -0.163533,0.37954 -0.294301,0.726032 -0.359816,1.072538 -0.179649,0.874471 -0.0325,1.534465 0.44171,1.963268 0.163532,0.148463 0.359815,0.247602 0.57223,0.3137 0.343436,0.09889 0.703507,0.0661 1.09584,-0.08262 0.425331,-0.164988 0.915637,-0.494697 1.439008,-0.973618 l 0.817664,-0.726031 c 0.114906,0.610367 0.392828,0.99018 0.850646,1.138332 0.490329,0.148455 0.932278,-0.01627 1.373493,-0.478429 0.278432,-0.296918 0.621876,-0.808676 1.03055,-1.551179 0.09802,0.69324 0.392319,1.138635 0.88318,1.319837 0.719631,0.296918 1.423116,-0.115414 2.126391,-1.220993 0.114396,0.148463 0.277922,0.247345 0.441454,0.296918 0.408952,0.164987 0.801248,0.08237 1.161056,-0.214553 0.277922,-0.21456 0.605243,-0.610625 0.948694,-1.18817 l -0.212406,2.541131 c -2.4862,0.412589 -5.462787,1.039489 -8.881265,1.881214 a 200.23323,202.01396 0 0 0 -8.750084,2.342838 c -0.474467,0.132196 -0.948694,0.263869 -1.422891,0.412846 l -3.320205,0.973391 -1.291861,0.396065 c -0.261798,0.08237 -0.4744674,0.247601 -0.6052426,0.494954 -0.1143965,0.264126 -0.1471541,0.511478 -0.065514,0.791886 0.098273,0.264127 0.261543,0.478687 0.5069696,0.594358 0.245164,0.131938 0.50697,0.164987 0.76849,0.08236 l 1.308503,-0.396064 c 1.09584,-0.329967 2.224139,-0.676458 3.401911,-1.00644 a 257.59265,259.88349 0 0 1 8.635395,-2.343066 51.310141,51.766456 0 0 1 1.684952,-0.412589 c 2.94353,-0.726031 5.560759,-1.286787 7.834072,-1.683147 -0.06551,0.742556 -0.13103,1.435546 -0.212406,2.095464 -0.196546,1.848165 -0.359816,3.283634 -0.507225,4.306863 -0.146892,0.09889 -0.261288,0.214553 -0.343437,0.363016 a 1.0180322,1.0270858 0 0 0 -0.13103,0.511221 v 0.04957 c 0.01638,0.280394 0.03301,0.511479 0.06551,0.692983 0.06552,0.429113 0.229041,0.742555 0.523349,0.90752 C 33.385002,39.933897 33.564906,40 33.744818,40 c 0.179912,0 0.343437,-0.04931 0.490846,-0.132195 0.261288,-0.131939 0.441454,-0.362759 0.555843,-0.692983 l 0.131031,-0.478686 0.212923,-1.369448 c 0.146892,-1.006667 0.310425,-2.392904 0.490337,-4.141619 l 0.01638,-0.181769 0.245419,-2.408936 0.899296,-0.09915 c 1.815457,-0.214552 3.189474,-0.247601 4.15451,-0.115413 0.522831,0.08262 0.850121,0.198036 0.997043,0.329966 v 0.09915 l -0.0325,0.231085 c 0,0.231085 0.06551,0.445637 0.212407,0.643409 0.147408,0.181504 0.343436,0.313442 0.572739,0.363015 0.277922,0.0661 0.523349,0.01627 0.768266,-0.132195 0.261797,-0.148463 0.408951,-0.346491 0.474467,-0.627142 0.09853,-0.412589 0.08189,-0.791887 -0.01587,-1.138333 -0.09853,-0.363015 -0.294301,-0.676715 -0.588856,-0.940568 -0.458343,-0.429114 -1.14524,-0.726032 -2.077293,-0.857985 -1.226571,-0.181769 -2.944055,-0.132195 -5.151853,0.131938 z m -21.916064,2.755685 c -0.06526,0.231342 -0.09802,0.462162 -0.114396,0.693239 -0.458088,0.37954 -0.867063,0.643409 -1.193814,0.824936 0.130776,-0.412589 0.359561,-0.841725 0.686874,-1.270528 0.245164,-0.01653 0.425076,-0.115414 0.621359,-0.247602 z M 7.4462358,28.533114 10.226504,23.368493 c 0.13103,-0.247345 0.343437,-0.412589 0.605242,-0.494954 0.261543,-0.09915 0.523348,-0.0661 0.76849,0.0661 0.245419,0.131938 0.408952,0.346491 0.490591,0.61036 0.08189,0.280651 0.06551,0.54427 -0.06526,0.791887 l -1.782699,3.333245 c 0.637999,-0.181504 1.292086,0.09889 1.390133,0.791887 a 9.4262238,9.5100538 0 0 1 0.637738,-0.940871 c 0.261798,-0.346491 0.588856,-0.726031 0.965035,-0.973391 a 1.2754449,1.2867878 0 0 1 0.686874,-0.14872 c 0.327058,0.03305 0.60498,0.165244 0.817664,0.445638 v 0.01652 l 0.19629,0.346492 0.212662,-0.396065 c 0.588856,-1.00644 1.242987,-1.550952 1.97902,-1.633309 0.458088,-0.0661 0.997793,0.09915 1.324843,0.445638 0.277922,0.296918 0.425331,0.66019 0.44171,1.138332 v 0.01652 c 0,0.214296 -0.04914,0.445638 -0.114397,0.676458 0.261798,-0.0661 0.50697,-0.03305 0.735755,0.115406 0.163533,0.09915 0.278177,0.231085 0.376195,0.37954 0.08189,0.148463 0.13103,0.329967 0.13103,0.511478 v 0.06584 a 1.0142092,1.0232288 0 0 1 -0.147154,0.445894 c -0.425076,0.726032 -0.948694,1.336399 -1.53728,1.814814 -0.343437,0.263869 -0.654117,0.478686 -0.965036,0.610624 -0.965035,0.494697 -1.766358,0.511222 -2.371585,0.04931 -0.703253,0.494954 -1.308203,0.824936 -1.848215,0.989878 -0.523348,0.148462 -0.981152,0.115413 -1.357376,-0.08236 -0.441455,-0.214553 -0.735755,-0.577312 -0.866763,-1.105587 -0.06526,0.329967 -0.09802,0.561309 -0.09802,0.69324 v 0.03305 l 0.03276,0.280393 c 0,0.214553 -0.04913,0.396064 -0.163533,0.577576 -0.114396,0.181512 -0.278176,0.296918 -0.474467,0.37954 -0.2451643,0.115414 -0.5069697,0.115414 -0.7684903,0 -0.2617979,-0.09889 -0.4417095,-0.296918 -0.5560985,-0.561052 -0.098018,-0.247344 -0.1307752,-0.54427 -0.098018,-0.90752 0.032757,-0.445637 0.147154,-1.039488 0.3598156,-1.815115 l 0.1471564,-0.528 C 8.182518,31.519462 7.4956592,32.78999 7.2338238,33.218869 6.7596117,34.027545 6.2199145,34.357504 5.5982709,34.225309 5.3367279,34.159212 5.1238039,34.027273 4.9602711,33.81272 4.7967383,33.614427 4.6987281,33.367082 4.6659706,33.053882 l -0.6379999,-3.21784 c -0.065258,-0.280393 -0.016379,-0.54427 0.1471541,-0.775324 0.147154,-0.231342 0.3598156,-0.37954 0.6379998,-0.445638 0.2779218,-0.04957 0.5397272,0 0.7684902,0.164987 0.2290404,0.148463 0.3761944,0.363016 0.4417095,0.643409 l 0.261543,1.270831 z m 17.3030242,-2.541132 -0.604725,0.528003 -0.817889,0.742812 c 0.2943,-0.495211 0.638,-0.940871 1.095841,-1.27083 0.06551,-0.06584 0.147408,-0.115414 0.229047,-0.164987 0.163533,-0.08236 0.343437,-0.181504 0.539728,-0.231085 z m 6.656825,-0.528003 -0.703252,-0.03305 c 0.03301,-0.37954 0.08189,-0.841422 0.146891,-1.402723 a 4.6586909,4.7001219 0 0 1 0.818189,-0.131681 51.23668,51.692341 0 0 0 -0.261798,1.567438 z m -4.056237,-0.198028 -0.08138,0.164987 -0.179904,-0.164987 z"/>
 <path style="fill:#f4f4f7;fill-rule:evenodd" d="m 18.290029,26.783793 v -0.01652 c 0,-0.296918 -0.09802,-0.528003 -0.261543,-0.709507 l -0.01612,-0.01627 c -0.229041,-0.214553 -0.50697,-0.296918 -0.817889,-0.263869 -0.539473,0.0661 -1.046667,0.511479 -1.537281,1.336399 -0.245419,0.429113 -0.441709,0.858212 -0.588856,1.303577 -0.147154,0.478687 -0.229047,0.907823 -0.229047,1.303577 v 0.03305 c -0.768791,0.627142 -1.406476,1.023229 -1.880973,1.20443 -0.261543,0.09915 -0.441709,0.132196 -0.539727,0.08262 -0.06526,-0.03305 -0.09827,-0.115671 -0.09827,-0.280394 0.03276,-0.412846 0.19629,-0.858211 0.458088,-1.369675 a 6.4222006,6.479315 0 0 1 0.687129,-1.056277 0.45859797,0.4626764 0 0 0 0.457833,0 c 0.277922,-0.181504 0.425331,-0.395808 0.474467,-0.626885 0.0325,-0.181769 -0.01638,-0.329967 -0.130775,-0.478686 A 0.46627387,0.47042058 0 0 0 13.874487,27.03107 C 13.759836,27.0148 13.64544,27.0476 13.514672,27.11343 l -0.359816,0.280651 c -0.09802,0.09915 -0.22904,0.263869 -0.392318,0.461905 l -0.523349,0.775627 c -0.441709,0.726031 -0.686873,1.418983 -0.76879,2.046155 v 0.01652 c -0.01638,0.197779 0.01638,0.37954 0.09827,0.577319 0.09802,0.247602 0.261543,0.429113 0.474467,0.544527 a 1.667261,1.6820884 0 0 0 0.981152,0.01627 c 0.539727,-0.148463 1.226571,-0.544527 2.044235,-1.188171 l 0.130775,0.181504 c 0.44171,0.461906 1.063083,0.478687 1.929846,0.03305 0.245419,-0.09889 0.50697,-0.280651 0.817664,-0.511479 0.539727,-0.445637 1.013909,-1.006137 1.406775,-1.666358 l 0.06551,-0.231342 c 0,-0.148462 -0.06551,-0.28065 -0.196545,-0.362758 -0.09802,-0.04931 -0.212662,-0.08262 -0.327058,-0.04931 -0.114397,0.03279 -0.19629,0.09889 -0.261798,0.197771 -0.343437,0.594101 -0.752149,1.072538 -1.226346,1.452335 -0.245419,0.181247 -0.44171,0.313442 -0.621621,0.395807 h -0.0325 c -0.229041,0.132196 -0.425331,0.198036 -0.588856,0.231078 -0.163533,0.03305 -0.277922,0 -0.343437,-0.0661 -0.03276,-0.03279 -0.04888,-0.08236 -0.08164,-0.148198 l 1.259328,-1.138635 c 0.866014,-0.824633 1.291337,-1.550951 1.291337,-2.177821 z m 22.308105,2.095766 c 1.112182,0.09915 1.880972,0.346492 2.322711,0.775628 0.408952,0.37954 0.555844,0.874471 0.408952,1.484854 -0.03301,0.115413 -0.08189,0.214552 -0.179911,0.264126 -0.09853,0.06584 -0.212924,0.08236 -0.327313,0.06584 -0.114397,-0.03305 -0.196028,-0.09889 -0.261288,-0.198028 -0.04888,-0.09915 -0.08189,-0.214561 -0.04888,-0.3137 0.065,-0.296661 0.01587,-0.527738 -0.164042,-0.692982 -0.310425,-0.280394 -0.915637,-0.461905 -1.831349,-0.544527 -1.242987,-0.09889 -2.960396,0.01652 -5.184835,0.329966 l -0.2943,3.069385 c -0.179912,1.715969 -0.343437,3.085416 -0.490846,4.10857 l -0.212407,1.336625 -0.163533,0.560787 c -0.09802,0.165245 -0.22904,0.264126 -0.42533,0.264126 -0.261289,0 -0.425331,-0.181504 -0.474468,-0.544527 a 13.327893,13.446422 0 0 1 -0.04888,-0.643409 v -0.01652 c 0,-0.131938 0.0325,-0.231077 0.114396,-0.313442 0.08189,-0.08262 0.179904,-0.115414 0.294301,-0.132196 0.229048,-1.534465 0.506714,-4.059261 0.850646,-7.557222 -2.469558,0.395808 -5.479128,1.022927 -9.011695,1.880911 -3.107318,0.791887 -6.476471,1.683147 -10.10761,2.739123 l -3.31998,0.973617 -1.275745,0.395808 -0.310679,-0.03279 c -0.09802,-0.04957 -0.179904,-0.132195 -0.212662,-0.247601 -0.0325,-0.115414 -0.01638,-0.214553 0.03276,-0.329967 0.04914,-0.09915 0.130775,-0.165244 0.245164,-0.198036 l 1.275745,-0.396065 3.320205,-0.973617 c 3.64703,-1.055975 7.032525,-1.99662 10.139843,-2.755685 3.64733,-0.874471 6.738232,-1.51813 9.305538,-1.930749 0.164043,-1.880911 0.277922,-3.233872 0.327313,-4.075521 l 0.04888,-1.254041 c -0.196545,0.296917 -0.523348,0.808676 -0.965035,1.518129 -0.392319,0.660191 -0.703253,1.105587 -0.932278,1.336626 -0.245419,0.263869 -0.490846,0.329967 -0.719377,0.247345 -0.13103,-0.04931 -0.229302,-0.131939 -0.2943,-0.263869 -0.04939,-0.131939 -0.08189,-0.313443 -0.08189,-0.527746 0,-0.297175 0.09802,-0.99018 0.261288,-2.062717 l 0.09853,-0.577319 c 0.01638,-0.132196 0,-0.231085 -0.04939,-0.264126 -0.244909,-0.181247 -0.882654,-0.131939 -1.945962,0.165244 l -0.01638,0.148463 c -0.163533,1.18817 -0.245419,2.095463 -0.245419,2.755684 0,0.247602 0.01638,0.461905 0.03301,0.61036 0.163532,-0.181504 0.359305,-0.478686 0.588863,-0.874471 0.04888,-0.09915 0.146892,-0.165244 0.244909,-0.198293 a 0.38694367,0.39038487 0 0 1 0.327313,0.04957 c 0.09802,0.06584 0.163533,0.148462 0.196028,0.263869 0.03301,0.09889 0,0.214295 -0.04888,0.313699 -0.2943,0.527738 -0.555843,0.890731 -0.768265,1.105284 -0.310934,0.296918 -0.588856,0.395807 -0.867288,0.280393 -0.179911,-0.06584 -0.310934,-0.198036 -0.408952,-0.412589 -0.09802,-0.263869 -0.146891,-0.643409 -0.146891,-1.171381 0,-0.511478 0.04888,-1.188171 0.146891,-2.029669 -0.326803,0.792114 -0.719376,1.584228 -1.144714,2.409164 -0.425331,0.775627 -0.752149,1.303576 -1.014209,1.584227 -0.24542,0.280393 -0.506715,0.37954 -0.752149,0.313442 -0.163533,-0.0661 -0.294301,-0.165244 -0.359816,-0.346491 -0.06551,-0.165244 -0.09802,-0.396064 -0.09802,-0.676458 0,-0.231342 0.01587,-0.511478 0.04888,-0.858211 l -1.798816,1.584227 c -1.096065,0.940872 -1.864855,1.204431 -2.339052,0.758838 -0.31068,-0.296918 -0.392574,-0.791887 -0.229048,-1.501416 0.06551,-0.280393 0.163787,-0.577576 0.2943,-0.874471 0.130776,-0.280651 0.261798,-0.511478 0.392573,-0.69324 0.556106,-0.758838 1.144715,-1.28709 1.815457,-1.633536 0.212407,-0.09915 0.392319,-0.181511 0.588347,-0.231084 l 0.261798,-0.0661 c 0.114396,0 0.229047,0.03305 0.310934,0.09915 0.08138,0.08237 0.13103,0.181512 0.146891,0.296918 v 0.03305 c 0,0.115406 -0.0325,0.198028 -0.114396,0.280393 a 0.38387031,0.38728418 0 0 1 -0.261288,0.148463 l -0.196545,0.04957 a 1.3732677,1.3854806 0 0 0 -0.457834,0.198036 c -0.506715,0.280651 -0.981451,0.726031 -1.406475,1.319837 -0.179911,0.263869 -0.327058,0.577576 -0.458088,0.940569 -0.09802,0.313699 -0.147154,0.577576 -0.147154,0.808676 0,0.08236 0.01612,0.148463 0.03276,0.181504 0.245165,-0.01627 0.637738,-0.263869 1.21023,-0.758838 l 0.850647,-0.759065 1.193588,-1.039186 A 2.2049493,2.2245585 0 0 1 26.139486,25.6781 c 0.179911,-0.08236 0.343437,-0.08236 0.506715,0 0.179911,0.09915 0.278439,0.296918 0.278439,0.594093 l -0.01638,0.313442 -0.01638,0.0661 -0.08189,0.841725 c 0.196545,-0.263869 0.392828,-0.643674 0.638255,-1.105586 a 57.889382,58.404208 0 0 0 1.0792,-2.243919 c -0.441455,0.181504 -0.817665,0.329966 -1.144715,0.478686 l -0.327313,0.01627 c -0.114397,-0.03305 -0.179912,-0.115414 -0.229048,-0.214553 -0.04888,-0.09889 -0.04888,-0.214295 -0.01638,-0.329966 0.03301,-0.115407 0.114907,-0.197772 0.212924,-0.247345 l 0.604725,-0.247602 c 0.458343,-0.198036 0.916162,-0.37954 1.357601,-0.528002 0.310935,-0.758839 0.588864,-1.501417 0.834306,-2.260482 l 0.196545,-0.643409 0.06551,-0.247601 c 0.0325,-0.115414 0.09802,-0.198036 0.196028,-0.247602 a 0.35060305,0.35372106 0 0 1 0.310934,-0.04931 c 0.09802,0.01627 0.179905,0.0661 0.24542,0.148463 0.04888,0.0661 0.08138,0.164987 0.08138,0.263869 v 0.08236 l -0.146891,0.758838 c -0.114397,0.610625 -0.212407,1.18817 -0.310935,1.749018 1.128599,-0.263869 1.880972,-0.247602 2.322712,0.08236 0.244909,0.198293 0.375939,0.478686 0.375939,0.825162 l -0.114396,0.824634 -0.196028,1.336625 0.408442,-0.643409 c 0.654371,-1.055975 1.079724,-1.699407 1.27597,-1.947008 0.146891,-0.181512 0.2943,-0.296918 0.408952,-0.363016 l 0.392318,-0.01627 c 0.114396,0.04932 0.212407,0.115414 0.277922,0.214553 0.08189,0.09889 0.13103,0.263869 0.147409,0.461905 0.0325,0.296918 0.01638,0.924082 -0.03301,1.8977 -0.04888,0.808374 -0.146892,2.128513 -0.310425,3.894017 l 0.752149,-0.09889 c 1.84799,-0.231342 3.336621,-0.297175 4.432162,-0.214553 z M 17.423491,26.6519 l 0.0325,0.132196 c 0,0.148462 -0.06526,0.346491 -0.19629,0.561051 -0.179904,0.296918 -0.458088,0.62715 -0.834005,0.989878 l -0.621614,0.577576 c 0.130775,-0.462162 0.327058,-0.907823 0.572485,-1.353188 0.343437,-0.561052 0.638,-0.890731 0.89952,-0.92378 z m -7.196313,1.831376 -0.163533,0.495211 -0.3270579,1.105283 c -0.1965452,0.726032 -0.3106794,1.270529 -0.3436918,1.666585 -0.032502,0.280394 0,0.511222 0.065514,0.660191 0.032757,0.131938 0.1143965,0.214296 0.2126616,0.247345 0.1143965,0.04957 0.2126616,0.04957 0.3270581,0 0.098018,-0.03305 0.179911,-0.115414 0.229048,-0.247345 a 0.34625537,0.34933471 0 0 0 0,-0.313699 c -0.0325,-0.148463 0.01638,-0.561052 0.179904,-1.220993 a 21.011296,21.198156 0 0 1 0.621621,-2.112026 c 0.03276,-0.115414 0.03276,-0.231342 -0.01638,-0.329967 -0.04914,-0.09915 -0.130775,-0.181504 -0.245164,-0.214553 -0.09827,-0.03305 -0.212662,-0.01627 -0.310679,0.01627 -0.114652,0.04983 -0.180167,0.132196 -0.229303,0.247602 z m 1.095841,-4.999604 c 0.09802,0.04957 0.163533,0.132196 0.196283,0.247602 0.04914,0.115414 0.03276,0.214553 -0.03276,0.313442 L 9.2787469,28.219384 6.7272574,32.922077 A 3.8395277,3.8736737 0 0 1 6.3674418,33.417288 C 6.1384014,33.598535 5.9421111,33.6809 5.7294495,33.631584 A 0.56711011,0.57215357 0 0 1 5.3860126,33.383982 1.0021406,1.011053 0 0 1 5.2552373,32.971393 l -0.654371,-3.250585 v -0.09889 c 0,-0.09915 0.032757,-0.181511 0.098273,-0.263869 0.048879,-0.08262 0.1307752,-0.132195 0.2290478,-0.148462 0.1307753,-0.01652 0.2290404,0 0.3270581,0.06584 0.098018,0.06636 0.1635328,0.148463 0.1799041,0.263869 l 0.5724844,2.871316 C 6.3019342,31.931925 7.1689894,30.347894 8.6246382,27.625334 L 10.750805,23.64896 c 0.04913,-0.09915 0.147154,-0.165245 0.245419,-0.198294 z"/>
 <path style="fill:#f4f4f7;opacity:0.2" d="m8 4c-2.216 0-4 1.784-4 4v1c0-2.216 1.784-4 4-4h32c2.216 0 4 1.784 4 4v-1c0-2.216-1.784-4-4-4z"/>
</svg>
