<svg xmlns="http://www.w3.org/2000/svg" width="48" height="48" version="1">
 <defs>
  <linearGradient id="linearGradient2911-977-39">
   <stop style="stop-color:#ffffe0" offset="0"/>
   <stop style="stop-color:#ffe588;stop-opacity:0" offset="1"/>
  </linearGradient>
 </defs>
 <path style="opacity:0.2" d="M 5,8 C 3.338,8 2,9.3794333 2,11.091797 V 25 38.908203 C 2,40.620567 3.338,42 5,42 h 38 c 1.662,0 3,-1.379433 3,-3.091797 V 25 11.091797 C 46,9.3794333 44.662,8 43,8 Z"/>
 <path style="fill:#8dc5ff" d="M 5,7 C 3.338,7 2,8.3794334 2,10.091797 V 24 H 46 V 10.091797 C 46,8.3794334 44.662,7 43,7 Z"/>
 <path style="fill:#ffd948" d="M 5,41 C 3.338,41 2,39.620567 2,37.908203 V 24 H 46 V 37.908203 C 46,39.620567 44.662,41 43,41 Z"/>
 <path style="opacity:0.1;fill-rule:evenodd" d="m 17.926414,13.00118 c -3.866279,0.07168 -7.212852,3.407003 -5.284412,10.635962 -3.378533,0.630708 -5.9464532,4.284798 -3.9298613,11.562786 4.4942343,-4.416 5.5032253,-1.526079 9.0707133,-2.211252 0.89226,1.745184 2.845355,3.544171 6.235626,5.011324 0.49118,-1.311414 2.563342,-3.28316 3.933767,-5.250379 3.912866,1.713885 5.797807,-1.01902 9.661559,4.395073 3.986119,-6.197998 2.461138,-10.23511 -0.794956,-11.815557 2.999748,-8.278886 -5.745489,-11.601865 -12.085494,-8.5991 -1.633001,-2.470403 -4.321585,-3.774938 -6.806942,-3.728857 z m -0.246104,8.710789 c 1.003896,0.03165 1.925301,0.345657 3.111465,0.363482 4.385551,3.509231 6.723256,2.493535 9.239666,3.091051 -1.17612,0.420571 -2.309223,1.065325 -3.303857,1.952603 -0.913465,-0.339245 -2.117536,-0.612407 -3.675944,-0.801419 -1.223341,-0.148373 -2.33482,0.03839 -3.256003,0.463412 -1.664972,-2.208033 -4.106298,-3.338917 -6.342077,-3.238991 1.857494,-1.530657 3.099325,-1.865684 4.22675,-1.830138 z"/>
 <path style="fill:#777f23;fill-rule:evenodd" d="m 17.926414,12.00118 c -3.866279,0.07168 -7.212852,3.407003 -5.284412,10.635962 -3.378533,0.630708 -5.9464532,4.284798 -3.9298613,11.562786 4.4942343,-4.416 5.5032253,-1.526079 9.0707133,-2.211252 0.89226,1.745184 2.845355,3.544171 6.235626,5.011324 0.49118,-1.311414 2.563342,-3.28316 3.933767,-5.250379 3.912866,1.713885 5.797807,-1.01902 9.661559,4.395073 3.986119,-6.197998 2.461138,-10.23511 -0.794956,-11.815557 2.999748,-8.278886 -5.745489,-11.601865 -12.085494,-8.5991 -1.633001,-2.470403 -4.321585,-3.774938 -6.806942,-3.728857 z m -0.246104,8.710789 c 1.003896,0.03165 1.925301,0.345657 3.111465,0.363482 4.385551,3.509231 6.723256,2.493535 9.239666,3.091051 -1.17612,0.420571 -2.309223,1.065325 -3.303857,1.952603 -0.913465,-0.339245 -2.117536,-0.612407 -3.675944,-0.801419 -1.223341,-0.148373 -2.33482,0.03839 -3.256003,0.463412 -1.664972,-2.208033 -4.106298,-3.338917 -6.342077,-3.238991 1.857494,-1.530657 3.099325,-1.865684 4.22675,-1.830138 z"/>
 <path style="opacity:0.1" d="m 29.05048,37.909554 c -1.410843,0.965059 -5.03952,-6.080313 -7.580474,-7.461455 -2.770533,0.677337 -6.179106,6.393522 -7.573397,5.348005 -1.594558,-1.195689 0.363465,-8.568474 1.28165,-10.180608 1.18339,-2.077775 -6.8122174,-2.24214 -6.1377937,-4.000201 0.665352,-1.734437 7.2288517,-3.336218 9.2955627,-3.635219 0.749503,-2.060757 2.69091,-5.305563 5.346654,-4.953666 2.655748,0.351898 4.136635,4.332006 4.68825,6.373301 2.759799,0.486385 7.281581,2.416156 7.620412,4.282554 0.334274,1.841307 -9.131001,1.522184 -7.925005,3.657939 0.880433,1.559212 2.040686,9.541644 0.984138,10.56935 z"/>
 <path style="fill:#ff793f" d="m 29.05048,36.909554 c -1.410843,0.965059 -5.03952,-6.080313 -7.580474,-7.461455 -2.770533,0.677337 -6.179106,6.393522 -7.573397,5.348005 -1.594558,-1.195689 0.363465,-8.568474 1.28165,-10.180608 1.18339,-2.077775 -6.8122174,-2.24214 -6.1377937,-4.000201 0.665352,-1.734437 7.2288517,-3.336218 9.2955627,-3.635219 0.749503,-2.060757 2.69091,-5.305563 5.346654,-4.953666 2.655748,0.351898 4.136635,4.332006 4.68825,6.373301 2.759799,0.486385 7.281581,2.416156 7.620412,4.282554 0.334274,1.841307 -9.131001,1.522184 -7.925005,3.657939 0.880433,1.559212 2.040686,9.541644 0.984138,10.56935 z"/>
 <ellipse style="opacity:0.2" cx="25.726" cy="19.349" rx="5.002" ry="3.998" transform="matrix(0.99396227,0.10972243,-0.13285527,0.99113545,0,0)"/>
 <path style="fill:none;stroke:#ffffe0;stroke-width:0.5;stroke-linecap:round" d="m 24,23 2.067352,-4.504639"/>
 <path style="fill:none;stroke:#ffffe0;stroke-width:0.5;stroke-linecap:round" d="M 21,23 19.047564,19.56723"/>
 <path style="fill:none;stroke:#ffffe0;stroke-width:0.5;stroke-linecap:round" d="m 22.414738,21 0.20865,-6.188546"/>
 <path style="opacity:0.2;fill:#f4f4f7" d="M 5 7 C 3.338 7 2 8.3794333 2 10.091797 L 2 11.091797 C 2 9.3794333 3.338 8 5 8 L 43 8 C 44.662 8 46 9.3794333 46 11.091797 L 46 10.091797 C 46 8.3794333 44.662 7 43 7 L 5 7 z"/>
</svg>
