<svg xmlns="http://www.w3.org/2000/svg" width="48" height="48" version="1">
 <circle style="opacity:0.2" cx="24" cy="25" r="17"/>
 <circle style="fill:#8e8e8e" cx="24" cy="24" r="17"/>
 <path style="opacity:0.1" d="M 8.734375 13.185547 C 8.5855971 14.369238 8.9485232 15.606726 9.8574219 16.515625 C 11.419519 18.077722 22.437903 26.562097 24 25 C 24.215816 24.784184 24.226507 24.374579 24.103516 23.847656 C 24.075424 23.904408 24.042888 23.957112 24 24 C 22.437903 25.562097 11.419519 17.077722 9.8574219 15.515625 C 9.2039002 14.862103 8.8410798 14.036679 8.734375 13.185547 z"/>
 <path style="fill:#ff4c4c" d="M 32.485281,38.142136 C 30.923184,36.580038 22.437903,25.562097 24,24 c 1.562097,-1.562097 12.580038,6.923184 14.142136,8.485281 1.562097,1.562098 1.562097,4.094757 0,5.656855 -1.562098,1.562097 -4.094757,1.562097 -5.656855,0 z"/>
 <path style="fill:#db4cb7" d="m 40,28 c -2.209139,0 -16,-1.790861 -16,-4 0,-2.209139 13.790861,-4 16,-4 2.209139,0 4,1.790861 4,4 0,2.209139 -1.790861,4 -4,4 z"/>
 <path style="fill:#924ab4" d="M 38.142136,15.514719 C 36.580038,17.076816 25.562097,25.562097 24,24 22.437903,22.437903 30.923184,11.419962 32.485281,9.8578644 c 1.562097,-1.5620972 4.094757,-1.5620972 5.656855,0 1.562097,1.5620976 1.562097,4.0947566 0,5.6568546 z"/>
 <path style="opacity:0.1;fill:#f4f4f7" d="M 35.314453 8.6855469 C 34.290764 8.6855469 33.265423 9.0763733 32.484375 9.8574219 C 30.965166 11.376632 22.901394 21.837341 23.896484 23.847656 C 24.663718 20.560662 31.138094 12.203704 32.484375 10.857422 C 34.046472 9.2953248 36.58048 9.2953248 38.142578 10.857422 C 38.795777 11.510621 39.158703 12.334863 39.265625 13.185547 C 39.413974 12.002238 39.051154 10.765998 38.142578 9.8574219 C 37.361529 9.0763733 36.338142 8.6855469 35.314453 8.6855469 z"/>
 <path style="fill:#6c48b3" d="m 28,8 c 0,2.209139 -1.790861,16 -4,16 -2.209139,0 -4,-13.790861 -4,-16 0,-2.209139 1.790861,-4 4,-4 2.209139,0 4,1.790861 4,4 z"/>
 <path style="fill:#476bd7" d="M 9.8578644,15.514719 C 11.419962,17.076816 22.437903,25.562097 24,24 25.562097,22.437903 17.076816,11.419962 15.514719,9.8578644 c -1.562098,-1.5620972 -4.094757,-1.5620972 -5.6568546,0 -1.5620972,1.5620976 -1.5620972,4.0947566 0,5.6568546 z"/>
 <path style="opacity:0.1" d="M 4.0507812 24.5 C 4.0299176 24.665505 4 24.828834 4 25 C 4 27.209139 5.790861 29 8 29 C 10.209139 29 24 27.209139 24 25 C 24 24.830141 23.893715 24.664289 23.742188 24.5 C 21.922984 26.472413 10.03928 28 8 28 C 5.9620269 28 4.2991923 26.470577 4.0507812 24.5 z"/>
 <path style="fill:#47b1b1" d="m 8,28 c 2.209139,0 16,-1.790861 16,-4 0,-2.209139 -13.790861,-4 -16,-4 -2.209139,0 -4,1.790861 -4,4 0,2.209139 1.790861,4 4,4 z"/>
 <path style="opacity:0.1;fill:#f4f4f7" d="M 12.685547 8.6855469 C 11.661858 8.6855469 10.638471 9.0763733 9.8574219 9.8574219 C 8.9488463 10.765998 8.5860259 12.002238 8.734375 13.185547 C 8.8412972 12.334863 9.2042233 11.510621 9.8574219 10.857422 C 11.419519 9.2953248 13.953527 9.2953248 15.515625 10.857422 C 16.861906 12.203704 23.336282 20.560662 24.103516 23.847656 C 25.098606 21.837341 17.034834 11.376632 15.515625 9.8574219 C 14.734576 9.0763733 13.709236 8.6855469 12.685547 8.6855469 z"/>
 <path style="opacity:0.1" d="M 24.103516 25.152344 C 23.336282 28.439338 16.861906 36.796296 15.515625 38.142578 C 13.953527 39.704675 11.41952 39.704675 9.8574219 38.142578 C 9.2042234 37.489379 8.8412972 36.665137 8.734375 35.814453 C 8.5860259 36.997762 8.9488464 38.234002 9.8574219 39.142578 C 11.41952 40.704675 13.953527 40.704675 15.515625 39.142578 C 17.034834 37.623368 25.098606 27.162659 24.103516 25.152344 z"/>
 <path style="fill:#8bdb4c" d="M 15.514719,38.142136 C 17.076816,36.580038 25.562097,25.562097 24,24 22.437903,22.437903 11.419962,30.923184 9.8578643,32.485281 c -1.5620971,1.562098 -1.5620971,4.094757 0,5.656855 1.5620977,1.562097 4.0947567,1.562097 5.6568547,0 z"/>
 <path style="opacity:0.1" d="M 20.039062 40.378906 C 20.026991 40.583349 20 40.870284 20 41 C 20 43.209139 21.790861 45 24 45 C 26.209139 45 28 43.209139 28 41 C 28 40.870284 27.973009 40.583349 27.960938 40.378906 C 27.767409 42.407616 26.079407 44 24 44 C 21.920593 44 20.232591 42.407616 20.039062 40.378906 z"/>
 <path style="opacity:0.1;fill:#f4f4f7" d="M 24 4 C 21.790861 4 20 5.790861 20 8 C 20 8.1297163 20.026991 8.4166511 20.039062 8.6210938 C 20.232591 6.5923837 21.920593 5 24 5 C 26.079407 5 27.767409 6.5923837 27.960938 8.6210938 C 27.973009 8.4166511 28 8.1297163 28 8 C 28 5.790861 26.209139 4 24 4 z"/>
 <path style="fill:#ffdb4c" d="m 28,40 c 0,-2.209139 -1.790861,-16 -4,-16 -2.209139,0 -4,13.790861 -4,16 0,2.209139 1.790861,4 4,4 2.209139,0 4,-1.790861 4,-4 z"/>
 <path style="opacity:0.1" d="M 23.896484 25.152344 C 22.901394 27.162659 30.965166 37.623368 32.484375 39.142578 C 34.046473 40.704675 36.58048 40.704675 38.142578 39.142578 C 39.051154 38.234002 39.413974 36.997762 39.265625 35.814453 C 39.158703 36.665137 38.795777 37.489379 38.142578 38.142578 C 36.58048 39.704675 34.046473 39.704675 32.484375 38.142578 C 31.138094 36.796296 24.663718 28.439338 23.896484 25.152344 z"/>
 <path style="fill:#ff4c4c" d="M 24 24 C 23.271993 24.728007 24.749268 27.518186 26.667969 30.439453 C 26.375836 28.270591 25.830871 26.317427 25.205078 25.144531 C 24.458748 24.78184 24 24.397839 24 24 z"/>
 <path style="opacity:0.1" d="M 24.257812 24.5 C 24.106285 24.664289 24 24.830141 24 25 C 24 27.209139 37.790861 29 40 29 C 42.209139 29 44 27.209139 44 25 C 44 24.828834 43.970082 24.665505 43.949219 24.5 C 43.700808 26.470577 42.037973 28 40 28 C 37.96072 28 26.077016 26.472413 24.257812 24.5 z"/>
 <path style="fill:#db4cb7" d="m 24,24 c -0.05127,0.339677 0.426589,0.751721 1.093894,1.099001 C 24.792952,24.413464 24.382075,23.991272 24,24 Z"/>
 <path style="opacity:0.1" d="M 39.265625,13.185547 C 39.15892,14.036679 38.7961,14.862103 38.142578,15.515625 36.58048,17.077722 25.562097,25.562097 24,24 c -0.04289,-0.04289 0.02809,0.05675 0,0 -0.232588,0.241018 -0.239641,0.81754 -0.05242,1.295435 -0.0143,-0.393818 0.158701,-0.631146 0.310228,-0.795435 0.190077,0.206085 0.511326,0.406425 0.898438,0.601562 3.289792,-0.771249 11.640577,-7.240186 12.986328,-8.585937 0.908899,-0.908899 1.271825,-2.146387 1.123047,-3.330078 z"/>
 <path style="opacity:0.1" d="m 19.480614,16.898469 c -0.523146,0.220065 -0.767142,0.818392 -0.547077,1.341538 l 0.515937,1.226492 a 7.1711866,7.1711866 0 0 0 -1.032456,1.044284 l -1.231492,-0.502198 c -0.525529,-0.21431 -1.120998,0.03619 -1.335308,0.56171 l -0.773598,1.897019 c -0.21431,0.52553 0.03619,1.121 0.561708,1.335308 l 1.226251,0.500062 a 7.1711866,7.1711866 0 0 0 0.0093,1.47217 l -1.222803,0.514384 c -0.523147,0.220066 -0.767142,0.818393 -0.547076,1.341539 l 0.794463,1.888613 c 0.220066,0.523146 0.818393,0.767142 1.341539,0.547076 l 1.226491,-0.515936 a 7.1711866,7.1711866 0 0 0 1.044285,1.032456 l -0.502198,1.231492 c -0.21431,0.525529 0.03619,1.120998 0.56171,1.335307 l 1.897018,0.773599 c 0.525531,0.21431 1.121,-0.03619 1.335309,-0.561708 l 0.500063,-1.226251 a 7.1711866,7.1711866 0 0 0 1.47217,-0.0093 l 0.514383,1.222804 c 0.220066,0.523147 0.818393,0.767142 1.341538,0.547076 l 1.888614,-0.794463 c 0.523145,-0.220066 0.767142,-0.818393 0.547076,-1.341539 l -0.515936,-1.226491 a 7.1711866,7.1711866 0 0 0 1.032457,-1.044284 l 1.231492,0.502196 c 0.525527,0.214311 1.120998,-0.03618 1.335308,-0.561709 l 0.773598,-1.897018 c 0.214309,-0.525532 -0.03619,-1.121 -0.56171,-1.335309 l -1.226251,-0.500061 a 7.1711866,7.1711866 0 0 0 -0.0093,-1.472171 l 1.222802,-0.514382 c 0.523147,-0.220067 0.767143,-0.818394 0.547076,-1.341539 l -0.794463,-1.888614 c -0.220066,-0.523145 -0.818393,-0.767142 -1.341539,-0.547075 l -1.226491,0.515935 a 7.1711866,7.1711866 0 0 0 -1.044283,-1.032457 l 0.502197,-1.231492 c 0.21431,-0.525527 -0.03619,-1.120998 -0.56171,-1.335306 l -1.897019,-0.7736 c -0.525532,-0.214309 -1.121,0.03619 -1.335308,0.56171 l -0.500063,1.226249 a 7.1711866,7.1711866 0 0 0 -1.472168,0.0093 l -0.514377,-1.222812 c -0.220065,-0.523146 -0.818392,-0.767142 -1.341538,-0.547077 z"/>
 <path style="fill:#4f4f4f" d="m 19.480614,15.898464 c -0.523146,0.220065 -0.767142,0.818392 -0.547077,1.341538 l 0.515937,1.226492 a 7.1711866,7.1711866 0 0 0 -1.032456,1.044284 L 17.185526,19.00858 c -0.525529,-0.21431 -1.120998,0.03619 -1.335308,0.56171 l -0.773598,1.897019 c -0.21431,0.52553 0.03619,1.121 0.561708,1.335308 l 1.226251,0.500062 a 7.1711866,7.1711866 0 0 0 0.0093,1.47217 l -1.222803,0.514384 c -0.523147,0.220066 -0.767142,0.818393 -0.547076,1.341539 l 0.794463,1.888613 c 0.220066,0.523146 0.818393,0.767142 1.341539,0.547076 l 1.226491,-0.515936 a 7.1711866,7.1711866 0 0 0 1.044285,1.032456 l -0.502198,1.231492 c -0.21431,0.525529 0.03619,1.120998 0.56171,1.335307 l 1.897018,0.773599 c 0.525531,0.21431 1.121,-0.03619 1.335309,-0.561708 L 23.30268,31.13542 a 7.1711866,7.1711866 0 0 0 1.47217,-0.0093 l 0.514383,1.222804 c 0.220066,0.523147 0.818393,0.767142 1.341538,0.547076 l 1.888614,-0.794463 c 0.523145,-0.220066 0.767142,-0.818393 0.547076,-1.341539 l -0.515936,-1.226491 a 7.1711866,7.1711866 0 0 0 1.032457,-1.044284 l 1.231492,0.502196 c 0.525527,0.214311 1.120998,-0.03618 1.335308,-0.561709 l 0.773598,-1.897018 c 0.214309,-0.525532 -0.03619,-1.121 -0.56171,-1.335309 l -1.226251,-0.500061 a 7.1711866,7.1711866 0 0 0 -0.0093,-1.472171 l 1.222802,-0.514382 c 0.523147,-0.220067 0.767143,-0.818394 0.547076,-1.341539 l -0.794463,-1.888614 c -0.220066,-0.523145 -0.818393,-0.767142 -1.341539,-0.547075 l -1.226491,0.515935 a 7.1711866,7.1711866 0 0 0 -1.044283,-1.032457 l 0.502197,-1.231492 c 0.21431,-0.525527 -0.03619,-1.120998 -0.56171,-1.335306 l -1.897019,-0.7736 c -0.525532,-0.214309 -1.121,0.03619 -1.335308,0.56171 l -0.500063,1.226249 a 7.1711866,7.1711866 0 0 0 -1.472168,0.0093 l -0.514377,-1.222812 c -0.220065,-0.523146 -0.818392,-0.767142 -1.341538,-0.547077 z"/>
 <circle style="opacity:0.2" cx="24" cy="25" r="4"/>
 <circle style="fill:#f4f4f7" cx="24" cy="24" r="4"/>
</svg>
