<svg xmlns="http://www.w3.org/2000/svg" width="48" height="48" version="1">
 <rect style="opacity:0.2" width="40" height="40" x="4" y="5" rx="12" ry="12"/>
 <rect style="fill:#b2bfd9" width="40" height="40" x="4" y="4" rx="12" ry="12"/>
 <path style="opacity:0.1" d="m 15.876953,10.550703 c -0.803509,1.69906 -1.310341,3.496714 -1.353515,5.449219 H 13 v 2.5 c 0,2.169887 -0.07934,2.021072 0.46875,1.771484 2.032333,-0.925985 4.554685,0.877971 4.554688,3.257813 0,1.172471 -0.282083,1.738856 -1.580079,3.185547 -2.227946,2.483188 -2.306494,2.971523 -0.914062,5.583984 1.344356,2.522279 3.34632,4.428722 6.34375,6.03711 l 2.089844,1.11914 2.15625,-1.089844 c 3.040495,-1.534835 6.605352,-5.520627 7.615234,-8.03125 l -0.53125,-1.675781 c 0.01453,0.04578 -0.190585,-0.381316 -0.474609,-0.794922 -0.03187,-0.04641 -0.08127,-0.100435 -0.115235,-0.148437 -0.392229,0.361843 -0.851459,1.158902 -1.417969,2.330078 -1.287555,2.661826 -3.145019,4.615429 -5.552734,5.84375 L 24,36.636641 V 17.240156 c 3.037259,0.845964 6.247669,0.821625 9.283203,1.460938 l 0.294922,1.511719 c 0.332016,0.01884 0.67585,0.08161 1.003906,0.248047 0.14915,0.0696 0.284741,0.154848 0.417969,0.242187 v -4.703125 h -1.523438 c -0.04317,-1.952505 -0.550006,-3.750159 -1.353515,-5.449219 l -5.054688,4.15625 0.375,0.570313 L 24,14.499922 l -3.443359,0.777344 0.375,-0.570313 z M 33.589844,21.17961 c -0.521451,-0.04725 -0.950904,0.237308 -1.365235,0.478515 -1.510398,1.122672 -1.446256,2.284752 0.234375,4.226563 0.792386,0.915536 1.556604,2.02754 1.697266,2.470703 l 0.255859,0.804687 0.65625,-0.810547 c 1.593373,-1.967727 1.048081,-6.099579 -0.923828,-6.998047 -0.197097,-0.1033 -0.38087,-0.156124 -0.554687,-0.171874 z m -18.785156,0.04297 c -0.310695,-0.03426 -0.619083,0.02612 -0.955079,0.128906 -1.932859,0.880678 -2.486173,4.659331 -1.011718,6.91211 l 0.574218,0.875 0.544922,-1.056641 c 0.300188,-0.581316 1.10229,-1.678838 1.783203,-2.439453 1.477853,-1.650822 1.48775,-2.900361 0.0293,-3.984375 -0.341395,-0.272353 -0.654149,-0.401289 -0.964843,-0.435547 z"/>
 <path style="opacity:0.2;fill:#f4f4f7" d="M 16,4 C 9.352,4 4,9.352 4,16 v 1 C 4,10.352 9.352,5 16,5 h 16 c 6.648,0 12,5.352 12,12 V 16 C 44,9.352 38.648,4 32,4 Z"/>
 <path style="fill:#134057" d="M 15.876953 9.5507812 C 15.073444 11.249841 14.566612 13.047495 14.523438 15 L 13 15 L 13 17.5 C 13 19.669887 12.92066 19.521072 13.46875 19.271484 C 15.501083 18.345499 18.023435 20.149455 18.023438 22.529297 C 18.023438 23.701768 17.741355 24.268153 16.443359 25.714844 C 14.215413 28.198032 14.136865 28.686367 15.529297 31.298828 C 16.873653 33.821107 18.875617 35.72755 21.873047 37.335938 L 23.962891 38.455078 L 26.119141 37.365234 C 29.159636 35.830399 32.724493 31.844607 33.734375 29.333984 L 33.203125 27.658203 C 33.217655 27.703979 33.01254 27.276887 32.728516 26.863281 C 32.696648 26.816874 32.647242 26.762846 32.613281 26.714844 C 32.221052 27.076687 31.761822 27.873746 31.195312 29.044922 C 29.907757 31.706748 28.050293 33.660351 25.642578 34.888672 L 24 35.636719 L 24 16.240234 C 27.037259 17.086198 30.247669 17.061859 33.283203 17.701172 L 33.578125 19.212891 C 33.910141 19.231732 34.253975 19.294498 34.582031 19.460938 C 34.731181 19.530535 34.866772 19.615786 35 19.703125 L 35 15 L 33.476562 15 C 33.433392 13.047495 32.926556 11.249841 32.123047 9.5507812 L 27.068359 13.707031 L 27.443359 14.277344 L 24 13.5 L 20.556641 14.277344 L 20.931641 13.707031 L 15.876953 9.5507812 z M 33.589844 20.179688 C 33.068393 20.132435 32.63894 20.416996 32.224609 20.658203 C 30.714211 21.780875 30.778353 22.942955 32.458984 24.884766 C 33.25137 25.800302 34.015588 26.912306 34.15625 27.355469 L 34.412109 28.160156 L 35.068359 27.349609 C 36.661732 25.381882 36.11644 21.25003 34.144531 20.351562 C 33.947434 20.248262 33.763661 20.195438 33.589844 20.179688 z M 14.804688 20.222656 C 14.493993 20.188398 14.185605 20.248778 13.849609 20.351562 C 11.91675 21.23224 11.363436 25.010893 12.837891 27.263672 L 13.412109 28.138672 L 13.957031 27.082031 C 14.257219 26.500715 15.059321 25.403193 15.740234 24.642578 C 17.218087 22.991756 17.227984 21.742217 15.769531 20.658203 C 15.428136 20.38585 15.115382 20.256914 14.804688 20.222656 z"/>
</svg>
