<svg xmlns="http://www.w3.org/2000/svg" width="48" height="48" version="1">
 <rect style="opacity:0.2" width="40" height="40" x="4" y="5" rx="12" ry="12"/>
 <rect style="fill:#2a5083" width="40" height="40" x="4" y="4" rx="12" ry="12"/>
 <path opacity=".2" d="m24 11c-7.6437 0-14 5.725-14 13.027 0 7.3023 6.3563 13.129 14 13.129h0.0039c1.0716-0.0023 2.122-0.20728 3.1641-0.4375 2.1493 1.4152 4.4631 2.6931 7.4434 2.1562 1.3659-0.24846 1.9112-1.9133 0.95898-2.9238-1.02-1.078-1.358-1.749-1.389-3.186 2.329-2.393 3.815-5.442 3.818-8.738 0-7.302-6.356-13.027-14-13.027zm0 4c5.6456 0 9.9988 4.0452 10 9.0254-0.0026 2.096-0.94653 4.1665-2.6836 5.9512a4.0004 4.0004 0 0 0 -1.1328 2.875c0.0079 0.36618 0.20546 0.75845 0.2793 1.1426-0.36473-0.21472-0.64969-0.3248-1.0938-0.61719a4.0004 4.0004 0 0 0 -3.063 -0.565c-0.975 0.216-1.738 0.342-2.305 0.344-5.6114 0-10-4.1478-10-9.1289-0.000001-4.9811 4.3537-9.0273 10-9.0273z"/>
 <path fill="#fff" d="m24 10c-7.6437 0-14 5.725-14 13.027 0 7.3023 6.3563 13.129 14 13.129h0.0039c1.0716-0.0023 2.122-0.20728 3.1641-0.4375 2.1493 1.4152 4.4631 2.6931 7.4434 2.1562 1.3659-0.24846 1.9112-1.9133 0.95898-2.9238-1.02-1.078-1.358-1.748-1.389-3.185 2.329-2.393 3.815-5.443 3.818-8.739 0-7.302-6.356-13.027-14-13.027zm0 4c5.6456 0 9.9988 4.0452 10 9.0254-0.0026 2.096-0.94653 4.1665-2.6836 5.9512a4.0004 4.0004 0 0 0 -1.1328 2.875c0.0079 0.36618 0.20546 0.75845 0.2793 1.1426-0.36473-0.21472-0.64969-0.3248-1.0938-0.61719a4.0004 4.0004 0 0 0 -3.063 -0.565c-0.975 0.216-1.738 0.342-2.305 0.344-5.6114 0-10-4.1478-10-9.1289 0-4.981 4.354-9.027 10-9.027z"/>
 <path fill="none" stroke="#000" stroke-linecap="round" stroke-linejoin="round" stroke-width="4" opacity=".2" d="m20 27s2 2 4 2 4-2 4-2"/>
 <path fill="none" stroke="#fff" stroke-linecap="round" stroke-linejoin="round" stroke-width="4" d="m20 26s2 2 4 2 4-2 4-2"/>
 <path style="fill:#f4f4f7;opacity:0.1" d="M 16 4 C 9.352 4 4 9.352 4 16 L 4 17 C 4 10.352 9.352 5 16 5 L 32 5 C 38.648 5 44 10.352 44 17 L 44 16 C 44 9.352 38.648 4 32 4 L 16 4 z"/>
</svg>
