<svg xmlns="http://www.w3.org/2000/svg" width="48" height="48" version="1.1">
 <path style="opacity:0.2" d="m 20.714551,21.841256 c -2.456224,-0.61139 -4.105684,-1.862575 -4.53496,-4.664754 -0.109093,-0.712121 -0.274263,-1.294767 -0.367042,-1.294767 -0.09278,0 -0.766218,0.301934 -1.496527,0.670961 -0.752644,0.380312 -1.508595,0.543767 -2.226464,0.503174 C 10.767724,16.981125 9.5750091,16.214557 8.7698177,14.836139 8.444936,14.279971 8.1786159,13.428436 8.1779907,12.943838 8.1768539,12.071364 8.1622572,11.664187 6.6834285,11.868956 5.3452912,12.054245 5.1088737,11.991067 4.4098115,11.261373 3.9807095,10.813468 3.8246512,9.4057444 3.8246512,9.1015528 3.8246512,8.7973612 3.1936129,8.6716521 2.6607089,8.0977436 1.9978684,7.3838991 1.6619959,7.0850954 2.4868002,7.0827865 5.903112,7.3312389 9.0863687,7.9820566 12.530406,8.0001697 c 4.524249,-0.037068 7.656425,-0.5287384 12.112059,-0.9929404 0.423157,0.1472327 1.99661,0.7506879 2.168675,3.9857157 0.1396,2.624632 -1.113416,5.56471 -1.81114,9.007225 -0.486072,2.082718 -2.513179,2.182403 -4.285449,1.84109 z"/>
 <path style="fill:#f48e06" d="m 20.714551,20.841086 c -2.456224,-0.61139 -4.105684,-1.862575 -4.53496,-4.664754 -0.109093,-0.712121 -0.274263,-1.294767 -0.367042,-1.294767 -0.09278,0 -0.766218,0.301934 -1.496527,0.670961 -0.752644,0.380312 -1.508595,0.543767 -2.226464,0.503174 C 10.767724,15.980955 9.5750091,15.214387 8.7698177,13.835969 8.444936,13.279801 8.1786159,12.428266 8.1779907,11.943668 8.1768539,11.071194 8.1622572,10.664017 6.6834285,10.868786 5.3452912,11.054075 5.1088737,10.990897 4.4098115,10.261203 3.9807095,9.8132981 3.8246512,8.4055747 3.8246512,8.1013831 3.8246512,7.7971915 3.1936129,7.6714824 2.6607089,7.0975739 1.9978684,6.3837294 1.6619959,6.0849257 2.4868002,6.0826168 5.903112,6.3310692 9.0863687,6.9818869 12.530406,7 17.054655,6.962932 20.186831,6.4712616 24.642465,6.0070596 25.065622,6.1542923 26.639075,6.7577475 26.81114,9.9927753 26.95074,12.617407 25.697724,15.557485 25,19 c -0.486072,2.082718 -2.513179,2.182403 -4.285449,1.84109 z"/>
 <path style="opacity:0.2" d="m 24.634066,7.0000119 c 0,0 0.437637,1.2100126 0.589863,4.0592121 0.140587,2.631328 -0.173418,6.031043 -0.876073,9.482338 0,0 -0.275981,1.072799 -1.342061,7.474807 -0.428439,2.567326 -0.85168,6.395585 -0.940471,8.140401 -0.139564,2.742559 -0.08125,3.322843 0.429316,4.282736 0.755578,1.420536 2.797332,2.525875 4.420497,2.532652 l 1.251726,0.0051 -0.145342,-2.349556 c -0.255675,-4.133162 1.427429,-8.867742 4.287466,-10.870553 2.570439,-1.800013 3.125214,-0.564368 2.171625,4.838062 -0.85215,4.827737 -0.737775,6.29781 0.585838,7.526851 1.128339,1.047716 2.76691,1.15414 5.197856,0.338307 2.509872,-0.842326 6.170471,-4.685525 5.693359,-5.977522 -0.251476,-0.680986 -0.549786,-0.59066 -2.049984,0.619456 -1.760491,1.420076 -2.739307,1.672025 -3.426928,0.882476 -0.499604,-0.573665 -0.48409,-0.779158 0.304546,-4.062929 0.571392,-2.379208 1.234744,-4.316619 1.244544,-6.208016 0.01324,-2.997463 -0.527527,-4.23225 -3.369685,-4.663819 -2.172284,-0.306565 -5.393441,0.310958 -7.980335,2.160445 -0.793581,0.567366 -1.510013,0.961682 -1.592049,0.876437 -0.08204,-0.08525 0.339777,-2.732417 0.937341,-5.882722 0.597564,-3.150302 1.086706,-6.114345 1.086706,-6.586286 0,-0.872243 -1.205303,-2.258559 -4.746179,-5.4598376 C 25.655777,7.5162808 25.270575,7.1468836 24.634066,7.0000167 Z"/>
 <path style="fill:#9b9c9c" d="m 24.634066,5.9999984 c 0,0 0.437637,1.2100126 0.589863,4.0592116 0.140587,2.631328 -0.173418,6.031043 -0.876073,9.482338 0,0 -0.275981,1.072799 -1.342061,7.474807 -0.428439,2.567326 -0.85168,6.395585 -0.940471,8.140401 -0.139564,2.742559 -0.08125,3.322843 0.429316,4.282736 0.755578,1.420536 2.797332,2.525875 4.420497,2.532652 l 1.251726,0.0051 -0.145342,-2.349556 c -0.255675,-4.133162 1.427429,-8.867742 4.287466,-10.870553 2.570439,-1.800013 3.125214,-0.564368 2.171625,4.838062 -0.85215,4.827737 -0.737775,6.29781 0.585838,7.526851 1.128339,1.047716 2.76691,1.15414 5.197856,0.338307 2.509872,-0.842326 6.170471,-4.685525 5.693359,-5.977522 -0.251476,-0.680986 -0.549786,-0.59066 -2.049984,0.619456 -1.760491,1.420076 -2.739307,1.672025 -3.426928,0.882476 -0.499604,-0.573665 -0.48409,-0.779158 0.304546,-4.062929 0.571392,-2.379208 1.234744,-4.316619 1.244544,-6.208016 0.01324,-2.997463 -0.527527,-4.23225 -3.369685,-4.663819 -2.172284,-0.306565 -5.393441,0.310958 -7.980335,2.160445 -0.793581,0.567366 -1.510013,0.961682 -1.592049,0.876437 -0.08204,-0.08525 0.339777,-2.732417 0.937341,-5.882722 0.597564,-3.150302 1.086706,-6.114345 1.086706,-6.586286 0,-0.872243 -1.205303,-2.258559 -4.746179,-5.4598371 C 25.655777,6.5162673 25.270575,6.1468701 24.634066,6.0000032 Z"/>
 <path style="fill:#f4f4f7;opacity:0.2" d="M 24.642578 6.0078125 C 20.186944 6.4720145 17.055499 6.962932 12.53125 7 C 9.0872127 6.9818869 5.9026399 6.3304836 2.4863281 6.0820312 C 1.6615238 6.0843402 1.9973158 6.3838117 2.6601562 7.0976562 C 2.6608345 7.0983867 2.6614308 7.0988804 2.6621094 7.0996094 C 6.0111845 7.3571857 9.1471126 7.9822019 12.53125 8 C 17.055499 7.962932 20.186944 7.4720145 24.642578 7.0078125 C 25.065735 7.1550452 25.197076 7.9055967 25.369141 11.140625 C 25.389035 11.514659 25.379115 11.902955 25.380859 12.285156 C 25.406439 11.553839 25.406297 10.839205 25.369141 10.140625 C 25.197076 6.9055972 25.065735 6.1550452 24.642578 6.0078125 z"/>
 <path style="fill:#f4f4f7;opacity:0.2" d="M 24.634766 6 C 24.634766 6 24.753958 6.3583478 24.890625 7.0878906 C 25.382526 7.2696087 25.758593 7.6097546 26.365234 8.1582031 C 29.405591 10.906966 30.717322 12.312928 31.029297 13.208984 C 31.044819 13.069688 31.111328 12.67819 31.111328 12.617188 C 31.111328 11.744945 29.90611 10.359481 26.365234 7.1582031 C 25.655369 6.5164325 25.271275 6.1468669 24.634766 6 z M 25.238281 12.306641 C 25.167871 14.502764 24.864032 17.004684 24.347656 19.541016 C 24.347656 19.541016 24.071939 20.613617 23.005859 27.015625 C 22.57742 29.582951 22.153244 33.411434 22.064453 35.15625 C 22.012695 36.173353 22.003884 36.836699 22.019531 37.388672 C 22.030285 37.017227 22.039031 36.655824 22.064453 36.15625 C 22.153244 34.411434 22.57742 30.582951 23.005859 28.015625 C 24.071939 21.613617 24.347656 20.541016 24.347656 20.541016 C 24.94628 17.600702 25.244606 14.728842 25.238281 12.306641 z M 37.798828 21.978516 C 35.69165 21.916625 32.94322 22.592636 30.679688 24.210938 C 30.001137 24.696063 29.404888 25.03374 29.1875 25.074219 C 29.107988 25.636775 29.059365 26.056296 29.087891 26.085938 C 29.169927 26.171183 29.886107 25.778303 30.679688 25.210938 C 33.266582 23.36145 36.487872 22.744216 38.660156 23.050781 C 41.272782 23.447497 41.93311 24.539635 42.013672 27.039062 C 42.018369 26.930508 42.028736 26.82107 42.029297 26.712891 C 42.042537 23.715428 41.502314 22.48235 38.660156 22.050781 C 38.388621 22.012461 38.099854 21.987357 37.798828 21.978516 z M 34.892578 30.421875 C 34.844548 31.254233 34.70942 32.298608 34.480469 33.595703 C 34.065958 35.944055 33.884268 37.489295 33.955078 38.607422 C 34.002024 37.598247 34.176439 36.318141 34.480469 34.595703 C 34.815463 32.697841 34.951873 31.340328 34.892578 30.421875 z M 45.59375 35.060547 C 45.313106 35.027111 44.845827 35.34524 43.908203 36.101562 C 42.147712 37.521639 41.16809 37.773924 40.480469 36.984375 C 40.359719 36.845725 40.27177 36.728279 40.214844 36.583984 C 40.101052 37.363714 40.187259 37.6477 40.480469 37.984375 C 41.16809 38.773924 42.147712 38.521639 43.908203 37.101562 C 45.250992 36.018419 45.629731 35.837606 45.875 36.298828 C 45.994336 35.976518 46.034837 35.693117 45.957031 35.482422 C 45.862728 35.227052 45.762137 35.080608 45.59375 35.060547 z M 28.019531 39.021484 C 27.990489 39.562245 27.988818 40.098875 28.021484 40.626953 L 28.103516 41.976562 L 28.166016 41.976562 L 28.021484 39.626953 C 28.009162 39.427749 28.022932 39.223109 28.019531 39.021484 z"/>
</svg>
