<svg xmlns="http://www.w3.org/2000/svg" width="48" height="48" version="1">
 <path style="fill:#0f7b9f" d="m 24.104736,4.500004 v 0.0019 A 4.4549177,4.4342022 0 0 0 21.771973,5.0922403 L 8.664699,12.625637 A 4.4549177,4.4342022 0 0 0 6.450001,16.18096 4.4549177,4.4342022 0 0 0 6.452001,16.2 c -3.44e-4,0.0058 -0.0016,0.01136 -0.002,0.01714 0.0019,0.01778 0.0037,0.03556 0.0058,0.05332 -0.002,0.033 -0.0045,0.06598 -0.0058,0.09902 v 15.162011 c -2.26e-4,1.584559 0.848417,3.048813 2.226123,3.840966 l 13.097753,7.533398 c 0.684249,0.393598 1.462455,0.591606 2.226123,0.594141 0.768689,0 1.537378,-0.197957 2.226123,-0.594141 l 13.097753,-7.533398 c 1.377706,-0.792153 2.226349,-2.256407 2.226123,-3.840966 V 16.369485 c -0.0013,-0.03304 -0.0037,-0.06602 -0.0058,-0.09902 a 4.4549177,4.4342022 0 0 0 0.0058,-0.05332 4.4549177,4.4342022 0 0 0 -2.214697,-3.591504 L 26.228027,5.0922403 A 4.4549177,4.4342022 0 0 0 24.104736,4.500004 Z m 17.374803,12.242724 c -0.0082,0.04409 -0.01714,0.0877 -0.02666,0.131396 a 4.4549177,4.4342022 0 0 0 0.02666,-0.131396 z m -0.131395,0.519873 c -0.0096,0.03028 -0.01647,0.06138 -0.02666,0.09141 a 4.4549177,4.4342022 0 0 0 0.02666,-0.09141 z m -0.458936,1.005468 c -0.02222,0.03572 -0.04723,0.06965 -0.07046,0.104737 a 4.4549177,4.4342022 0 0 0 0.07046,-0.104737 z m -0.293262,0.413233 c -0.0325,0.04098 -0.06696,0.08011 -0.100927,0.11997 a 4.4549177,4.4342022 0 0 0 0.100927,-0.11997 z m -0.32373,0.36372 c -0.04424,0.04469 -0.08899,0.08851 -0.135206,0.131396 a 4.4549177,4.4342022 0 0 0 0.135206,-0.131396 z m -0.382764,0.342773 c -0.04733,0.03787 -0.09381,0.07632 -0.142822,0.112354 a 4.4549177,4.4342022 0 0 0 0.142822,-0.112354 z m -14.145117,8.154199 c -0.01785,0.0075 -0.03538,0.01556 -0.05332,0.02285 a 4.4549177,4.4342022 0 0 0 0.05332,-0.02285 z m -1.13496,0.310401 c -0.01972,0.0026 -0.03926,0.0052 -0.05904,0.0076 a 4.4549177,4.4342022 0 0 0 0.05904,-0.0076 z"/>
 <path style="opacity:0.2" d="m 24.108302,5.0009966 a 4.5656761,4.5479 0 0 0 -2.39104,0.6067 L 8.283038,13.333697 A 4.5656761,4.5479 0 0 0 6,17.272697 v 15.453 a 4.5656761,4.5479 0 0 0 2.282838,3.9386 l 13.434224,7.7264 a 4.5656761,4.5479 0 0 0 4.565676,0 l 13.434224,-7.7264 A 4.5656761,4.5479 0 0 0 42,32.725297 v -15.453 a 4.5656761,4.5479 0 0 0 -2.283038,-3.939 L 26.282738,5.6072966 a 4.5656761,4.5479 0 0 0 -2.175036,-0.6067 z"/>
 <path style="fill:#0f9f98" d="m 41.994141,16.072266 c -0.113807,1.495925 -0.961464,2.839753 -2.265625,3.591796 l -13.44336,7.726563 C 25.590014,27.788545 24.8019,27.997362 24,27.996094 V 44 c 0.788399,0 1.576798,-0.203033 2.283203,-0.609375 L 39.716797,35.664062 C 41.129829,34.851597 42.000232,33.349798 42,31.724609 V 16.173828 c -0.0013,-0.03389 -0.0038,-0.06771 -0.0059,-0.101562 z M 24,44 Z"/>
 <path style="fill:#67a1fd" d="m 6.0019531,16 c -3.53e-4,0.0059 -0.00162,0.01165 -0.00195,0.01758 0.0019,0.01824 0.00376,0.03647 0.00586,0.05469 -0.0021,0.03385 -0.00456,0.06767 -0.00586,0.101562 v 15.550781 c -2.32e-4,1.625189 0.8701711,3.126988 2.2832031,3.939453 L 21.716797,43.390625 C 22.418591,43.794315 23.216751,43.9974 24,44 V 27.996094 c -0.0039,5e-6 -0.0078,5e-6 -0.01172,0 -0.123234,-9.02e-4 -0.246382,-0.0068 -0.36914,-0.01758 -0.03388,-0.0022 -0.06774,-0.0048 -0.101563,-0.0078 -0.12508,-0.01376 -0.249535,-0.03266 -0.373047,-0.05664 -0.02282,-0.0037 -0.0456,-0.0076 -0.06836,-0.01172 -0.111011,-0.02326 -0.221113,-0.05062 -0.330078,-0.08203 -0.04446,-0.0117 -0.08873,-0.02407 -0.132813,-0.03711 -0.08487,-0.02814 -0.16889,-0.05875 -0.251953,-0.0918 -0.06302,-0.02272 -0.12554,-0.04681 -0.1875,-0.07227 -0.06918,-0.0315 -0.137562,-0.06471 -0.205078,-0.09961 -0.08596,-0.04033 -0.170638,-0.08332 -0.253906,-0.128906 L 8.2714844,19.664062 C 8.1404702,19.587729 8.0133594,19.504944 7.890625,19.416016 h -0.00195 c -0.00587,-0.0045 -0.01173,-0.0091 -0.017578,-0.01367 -0.1119399,-0.08101 -0.2201244,-0.167032 -0.3242188,-0.257813 -0.053933,-0.04887 -0.1066821,-0.09901 -0.1582031,-0.15039 -0.056712,-0.05263 -0.112068,-0.10668 -0.1660157,-0.16211 -0.058546,-0.06477 -0.1152101,-0.131206 -0.1699218,-0.199219 -0.042063,-0.04861 -0.083088,-0.0981 -0.1230469,-0.148437 -0.054299,-0.07265 -0.1064052,-0.146906 -0.15625,-0.222656 -0.034854,-0.04945 -0.068715,-0.09959 -0.1015625,-0.150391 -0.049538,-0.08248 -0.096436,-0.166511 -0.140625,-0.251953 -0.026913,-0.04771 -0.052959,-0.09589 -0.078125,-0.144531 -0.04127,-0.08795 -0.079702,-0.177184 -0.1152344,-0.267578 -0.02241,-0.05039 -0.043898,-0.101178 -0.064453,-0.152344 -0.021622,-0.064 -0.041809,-0.128467 -0.060547,-0.19336 -0.029249,-0.08513 -0.055953,-0.171105 -0.080078,-0.257812 -0.00764,-0.03767 -0.014804,-0.07543 -0.021484,-0.113281 -0.026177,-0.108529 -0.048327,-0.217978 -0.06641,-0.328127 C 6.0246094,16.26893 6.0102722,16.134683 6.0019531,16 Z"/>
 <path style="fill:#216bcc" d="M 24.107504,4 V 4.00195 A 4.5691466,4.5479 0 0 0 21.715061,4.6074219 L 8.2712563,12.333984 A 4.5691466,4.5479 0 0 0 6,15.980469 4.5691466,4.5479 0 0 0 8.2712563,19.664062 l 13.4438047,7.726563 a 4.5691466,4.5479 0 0 0 4.569877,0 L 39.728744,19.664062 A 4.5691466,4.5479 0 0 0 42,16.017578 4.5691466,4.5479 0 0 0 39.728744,12.333984 L 26.284938,4.6074219 A 4.5691466,4.5479 0 0 0 24.107504,4 Z"/>
 <path style="opacity:0.1;fill:#f4f4f7" d="M 24.107422,4 V 4.00195 A 4.5691466,4.5479 0 0 0 21.714844,4.6074219 L 8.2714844,12.333984 A 4.5691466,4.5479 0 0 0 6,15.980469 4.5691466,4.5479 0 0 0 6.0625,16.494141 4.5691466,4.5479 0 0 1 8.2714844,13.333984 L 21.714844,5.6074219 A 4.5691466,4.5479 0 0 1 24.107422,5.0019531 V 5 a 4.5691466,4.5479 0 0 1 2.177734,0.6074219 l 13.44336,7.7265621 A 4.5691466,4.5479 0 0 1 41.9375,16.501953 4.5691466,4.5479 0 0 0 42,16.017578 4.5691466,4.5479 0 0 0 39.728516,12.333984 L 26.285156,4.6074219 A 4.5691466,4.5479 0 0 0 24.107422,4 Z"/>
 <path style="opacity:0.1" d="M 6.0625,16.493878 A 4.5691466,4.5479 0 0 0 6,16.980206 4.5691466,4.5479 0 0 0 8.2714844,20.663799 l 13.4433596,7.726563 a 4.5691466,4.5479 0 0 0 4.570312,0 l 13.44336,-7.726563 A 4.5691466,4.5479 0 0 0 42,17.017315 4.5691466,4.5479 0 0 0 41.9375,16.503643 4.5691466,4.5479 0 0 1 39.728516,19.663799 l -13.44336,7.726563 a 4.5691466,4.5479 0 0 1 -4.570312,0 L 8.2714844,19.663799 A 4.5691466,4.5479 0 0 1 6.0625,16.493878 Z"/>
 <path style="opacity:0.2" d="m 22,9 v 4 h 4 V 9 Z m 0,6 v 10 h 4 V 15 Z M 10.310547,24.759766 C 8.9144775,24.730072 8,25.526172 8,27.041016 v 2.917968 c 0,2.42375 2.3415,5.740875 5.25,7.4375 L 22,42.5 V 39.583984 L 13.25,34.478516 C 12.21996,33.877659 11.5,32.858368 11.5,32 v -2.916016 c 0,-0.858368 0.71996,-1.038357 1.75,-0.4375 L 22,33.75 v -2.916016 l -8.75,-5.105468 c -1.090687,-0.636235 -2.101812,-0.950934 -2.939453,-0.96875 z m 27.378906,0.09961 C 36.851812,24.877191 35.840688,25.193844 34.75,25.830078 L 33,26.849609 31.25,27.871094 c -2.9085,1.696625 -5.25,5.01375 -5.25,7.4375 v 2.916015 c 0,2.42375 2.3415,3.009125 5.25,1.3125 L 33,38.517578 v -2.917969 l -1.75,1.021485 c -1.030041,0.600856 -1.75,0.420867 -1.75,-0.4375 L 33,34.142578 36.5,32.099609 40,30.058594 v -2.916016 c 0,-1.514844 -0.914478,-2.312897 -2.310547,-2.283202 z m -1.933594,3.535156 C 36.21826,28.376011 36.5,28.647114 36.5,29.183594 l -7,4.083984 c 0,-0.858367 0.719959,-1.879612 1.75,-2.480469 L 33,29.767578 34.75,28.746094 c 0.386265,-0.225322 0.728419,-0.340451 1.005859,-0.351562 z"/>
 <path style="fill:#f4f4f7" d="m 22,8 v 4 h 4 V 8 Z m 0,6 v 10 h 4 V 14 Z M 10.310547,23.759766 C 8.9144775,23.730072 8,24.526172 8,26.041016 v 2.917968 c 0,2.42375 2.3415,5.740875 5.25,7.4375 L 22,41.5 V 38.583984 L 13.25,33.478516 C 12.21996,32.877659 11.5,31.858368 11.5,31 v -2.916016 c 0,-0.858368 0.71996,-1.038357 1.75,-0.4375 L 22,32.75 v -2.916016 l -8.75,-5.105468 c -1.090687,-0.636235 -2.101812,-0.950934 -2.939453,-0.96875 z m 27.378906,0.09961 C 36.851812,23.877191 35.840688,24.193844 34.75,24.830078 L 33,25.849609 31.25,26.871094 c -2.9085,1.696625 -5.25,5.01375 -5.25,7.4375 v 2.916015 c 0,2.42375 2.3415,3.009125 5.25,1.3125 L 33,37.517578 v -2.917969 l -1.75,1.021485 c -1.030041,0.600856 -1.75,0.420867 -1.75,-0.4375 L 33,33.142578 36.5,31.099609 40,29.058594 v -2.916016 c 0,-1.514844 -0.914478,-2.312897 -2.310547,-2.283202 z m -1.933594,3.535156 C 36.21826,27.376011 36.5,27.647114 36.5,28.183594 l -7,4.083984 c 0,-0.858367 0.719959,-1.879612 1.75,-2.480469 L 33,28.767578 34.75,27.746094 c 0.386265,-0.225322 0.728419,-0.340451 1.005859,-0.351562 z"/>
</svg>
