<svg xmlns="http://www.w3.org/2000/svg" width="48" height="48" version="1.1">
 <rect style="opacity:0.2" width="40" height="40" x="4" y="5" rx="20"/>
 <rect style="fill:#3f3f3f" width="40" height="40" x="4" y="4" rx="20"/>
 <path style="opacity:0.2" d="m 22.195312,11.009948 c -2.479513,0.164642 -4.353694,2.25979 -4.185546,4.679687 0.05683,0.819113 0.340724,1.570099 0.787109,2.199219 l 2.070313,2.976562 c 0.396623,0.721812 1.199918,1.188131 2.091796,1.128907 0.846995,-0.0562 1.549435,-0.57192 1.869141,-1.28125 l 1.726563,-3.402344 -0.0078,0.002 c 0.33296,-0.6668 0.498485,-1.425711 0.443359,-2.21875 -0.168066,-2.419888 -2.315408,-4.248625 -4.794922,-4.083984 z m 10.957032,4.990234 c -0.640429,-0.0122 -1.294173,0.10446 -1.925782,0.361328 -0.868548,0.353303 -1.582943,0.92899 -2.105468,1.636719 l -2.564453,3.328125 c -0.02981,0.03645 -0.05827,0.07328 -0.08594,0.111328 l -0.01172,0.01563 h 0.002 c -0.470193,0.658358 -0.60676,1.539044 -0.285157,2.349609 0.351336,0.885544 1.153741,1.450785 2.03125,1.529297 v -0.002 l 4.1875,0.628906 -0.0039,-0.0078 c 0.824542,0.117526 1.689864,0.0241 2.517578,-0.3125 2.526355,-1.027476 3.750958,-3.937614 2.734375,-6.5 -0.762497,-1.92173 -2.568949,-3.102069 -4.490234,-3.138672 z m -17.357422,4.003906 c -1.688784,-0.07172 -3.25459,1.004392 -3.683594,2.644532 -0.49029,1.874368 0.690331,3.775621 2.636719,4.246093 0.637606,0.154142 1.278533,0.13505 1.869141,-0.02539 l 2.929687,-0.81836 c 0.66146,-0.119972 1.223236,-0.597785 1.398437,-1.267578 0.167537,-0.640406 -0.06249,-1.286476 -0.541015,-1.697265 l -2.246094,-2.113282 v 0.0059 c -0.441402,-0.409777 -0.997238,-0.718907 -1.634765,-0.873047 -0.243309,-0.05881 -0.487261,-0.09132 -0.728516,-0.101563 z m 5.789062,6.996094 c -0.439472,3.4e-4 -0.874371,0.114692 -1.251953,0.332031 l -3.734375,1.853516 0.0059,0.0039 c -0.73378,0.370675 -1.378303,0.92391 -1.851563,1.640625 -1.444504,2.187778 -0.746968,5.075555 1.558594,6.451172 2.305641,1.375618 5.346431,0.717076 6.791015,-1.470703 0.493373,-0.747245 0.737088,-1.575925 0.751954,-2.398438 l 0.125,-3.810547 c 0.121755,-0.863206 -0.2835,-1.756068 -1.111328,-2.25 -0.399921,-0.238578 -0.843731,-0.351902 -1.283204,-0.351562 z m 5.371094,0.0059 c -0.393032,0.02733 -0.783154,0.166311 -1.121094,0.425782 -0.656538,0.504244 -0.939928,1.325085 -0.798828,2.09375 l 0.431641,3.6875 0.0039,-0.0039 c 0.09054,0.727509 0.36383,1.44173 0.830078,2.06836 1.423946,1.914084 4.108718,2.291092 5.996094,0.841797 1.887453,-1.449295 2.263866,-4.175759 0.839844,-6.089844 -0.491681,-0.660901 -1.134316,-1.139428 -1.841797,-1.421875 L 28.09375,27.254088 c -0.349666,-0.191006 -0.74564,-0.275375 -1.138672,-0.248047 z"/>
 <path style="fill:#39e11e" d="M 22.195312 10.009766 C 19.715799 10.174408 17.841618 12.269556 18.009766 14.689453 C 18.066596 15.508566 18.35049 16.259552 18.796875 16.888672 L 20.867188 19.865234 C 21.263811 20.587046 22.067106 21.053365 22.958984 20.994141 C 23.805979 20.937941 24.508419 20.422221 24.828125 19.712891 L 26.554688 16.310547 L 26.546875 16.3125 C 26.879835 15.6457 27.04536 14.886789 26.990234 14.09375 C 26.822168 11.673862 24.674826 9.8451246 22.195312 10.009766 z M 33.152344 15 C 32.511915 14.987799 31.858171 15.10446 31.226562 15.361328 C 30.358014 15.714631 29.643619 16.290318 29.121094 16.998047 L 26.556641 20.326172 C 26.526831 20.362622 26.498373 20.399453 26.470703 20.4375 L 26.458984 20.453125 L 26.460938 20.453125 C 25.990745 21.111483 25.854178 21.992169 26.175781 22.802734 C 26.527117 23.688278 27.329522 24.253519 28.207031 24.332031 L 28.207031 24.330078 L 32.394531 24.958984 L 32.390625 24.951172 C 33.215167 25.068698 34.080489 24.975271 34.908203 24.638672 C 37.434558 23.611196 38.659161 20.701058 37.642578 18.138672 C 36.880081 16.216942 35.073629 15.036603 33.152344 15 z M 15.794922 19.003906 C 14.106138 18.932186 12.540332 20.008298 12.111328 21.648438 C 11.621038 23.522806 12.801659 25.424059 14.748047 25.894531 C 15.385653 26.048673 16.02658 26.029581 16.617188 25.869141 L 19.546875 25.050781 C 20.208335 24.930809 20.770111 24.452996 20.945312 23.783203 C 21.112849 23.142797 20.88282 22.496727 20.404297 22.085938 L 18.158203 19.972656 L 18.158203 19.978516 C 17.716801 19.568739 17.160965 19.259609 16.523438 19.105469 C 16.280129 19.04666 16.036177 19.014152 15.794922 19.003906 z M 21.583984 26 C 21.144512 26.00034 20.709613 26.114692 20.332031 26.332031 L 16.597656 28.185547 L 16.603516 28.189453 C 15.869736 28.560128 15.225213 29.113363 14.751953 29.830078 C 13.307449 32.017856 14.004985 34.905633 16.310547 36.28125 C 18.616188 37.656868 21.656978 36.998326 23.101562 34.810547 C 23.594935 34.063302 23.83865 33.234622 23.853516 32.412109 L 23.978516 28.601562 C 24.100271 27.738356 23.695016 26.845494 22.867188 26.351562 C 22.467267 26.112984 22.023457 25.99966 21.583984 26 z M 26.955078 26.005859 C 26.562046 26.033187 26.171924 26.17217 25.833984 26.431641 C 25.177446 26.935885 24.894056 27.756726 25.035156 28.525391 L 25.466797 32.212891 L 25.470703 32.208984 C 25.561243 32.936493 25.834533 33.650714 26.300781 34.277344 C 27.724727 36.191428 30.409499 36.568436 32.296875 35.119141 C 34.184328 33.669846 34.560741 30.943382 33.136719 29.029297 C 32.645038 28.368396 32.002403 27.889869 31.294922 27.607422 L 28.09375 26.253906 C 27.744084 26.0629 27.34811 25.978531 26.955078 26.005859 z"/>
 <path style="fill:#f4f4f7;opacity:0.1" d="M 24 4 C 12.92 4 4 12.92 4 24 C 4 24.167874 4.007647 24.333141 4.0117188 24.5 C 4.2763904 13.653863 13.087874 5 24 5 C 34.912126 5 43.72361 13.653863 43.988281 24.5 C 43.992353 24.333141 44 24.167874 44 24 C 44 12.92 35.08 4 24 4 z"/>
 <path style="fill:#f4f4f7;opacity:0.2" d="M 22.195312 10.009766 C 19.715799 10.174408 17.841618 12.269556 18.009766 14.689453 C 18.014288 14.754639 18.029743 14.816564 18.037109 14.880859 C 18.283356 12.820082 19.997818 11.155681 22.195312 11.009766 C 24.611318 10.849342 26.697481 12.586559 26.958984 14.914062 C 26.991995 14.645726 27.009652 14.37309 26.990234 14.09375 C 26.822168 11.673862 24.674827 9.8451242 22.195312 10.009766 z M 33.152344 15 C 32.511915 14.987799 31.858171 15.10446 31.226562 15.361328 C 30.358014 15.714631 29.643619 16.290318 29.121094 16.998047 L 26.556641 20.326172 C 26.526831 20.362622 26.498373 20.399453 26.470703 20.4375 L 26.458984 20.453125 L 26.460938 20.453125 C 26.070363 21.000002 25.927138 21.698694 26.068359 22.384766 C 26.138767 22.050686 26.263028 21.730235 26.460938 21.453125 L 26.458984 21.453125 L 26.470703 21.4375 C 26.498373 21.399452 26.526831 21.362622 26.556641 21.326172 L 29.121094 17.998047 C 29.643619 17.290318 30.358014 16.714631 31.226562 16.361328 C 31.858171 16.10446 32.511915 15.9878 33.152344 16 C 35.073629 16.036603 36.880081 17.216942 37.642578 19.138672 C 37.821046 19.588515 37.907721 20.048602 37.953125 20.507812 C 38.032455 19.726383 37.951985 18.918559 37.642578 18.138672 C 36.880081 16.216942 35.073629 15.036603 33.152344 15 z M 15.794922 19.003906 C 14.106138 18.932186 12.540332 20.008298 12.111328 21.648438 C 11.98674 22.124736 11.972478 22.602741 12.048828 23.058594 C 12.067165 22.921839 12.075483 22.785474 12.111328 22.648438 C 12.540332 21.008297 14.106138 19.932186 15.794922 20.003906 C 16.036177 20.014149 16.280129 20.046659 16.523438 20.105469 C 17.160965 20.259609 17.716801 20.568739 18.158203 20.978516 L 18.158203 20.972656 L 20.404297 23.085938 C 20.643106 23.290943 20.821466 23.555403 20.917969 23.847656 C 20.924975 23.824863 20.939227 23.806467 20.945312 23.783203 C 21.112849 23.142797 20.88282 22.496726 20.404297 22.085938 L 18.158203 19.972656 L 18.158203 19.978516 C 17.716801 19.568739 17.160965 19.259609 16.523438 19.105469 C 16.280129 19.04666 16.036177 19.014152 15.794922 19.003906 z M 21.583984 26 C 21.144512 26.00034 20.709613 26.114692 20.332031 26.332031 L 16.597656 28.185547 L 16.603516 28.189453 C 15.869736 28.560128 15.225213 29.113363 14.751953 29.830078 C 14.143998 30.750858 13.93578 31.793026 14.046875 32.796875 C 14.125801 32.119034 14.345096 31.446284 14.751953 30.830078 C 15.225213 30.113363 15.869736 29.560128 16.603516 29.189453 L 16.597656 29.185547 L 20.332031 27.332031 C 20.709613 27.114692 21.144512 27.00034 21.583984 27 C 22.023457 26.99966 22.467267 27.112984 22.867188 27.351562 C 23.482727 27.71883 23.861456 28.307255 23.966797 28.939453 L 23.978516 28.601562 C 24.100271 27.738356 23.695016 26.845494 22.867188 26.351562 C 22.467267 26.112984 22.023457 25.99966 21.583984 26 z M 26.955078 26.005859 C 26.562046 26.033187 26.171924 26.17217 25.833984 26.431641 C 25.177446 26.935885 24.894056 27.756726 25.035156 28.525391 L 25.058594 28.720703 C 25.155622 28.225989 25.406696 27.759813 25.833984 27.431641 C 26.171924 27.17217 26.562046 27.033189 26.955078 27.005859 C 27.34811 26.978531 27.744084 27.0629 28.09375 27.253906 L 31.294922 28.607422 C 32.002403 28.889869 32.645038 29.368396 33.136719 30.029297 C 33.623084 30.68304 33.88309 31.433336 33.960938 32.193359 C 34.097086 31.107616 33.837033 29.970618 33.136719 29.029297 C 32.645038 28.368396 32.002403 27.889869 31.294922 27.607422 L 28.09375 26.253906 C 27.744084 26.0629 27.34811 25.978531 26.955078 26.005859 z"/>
</svg>
