<svg xmlns="http://www.w3.org/2000/svg" width="48" height="48" version="1">
 <rect style="fill:#f1502f" width="3" height="20" x="33.77" y="-3.03" transform="rotate(45)"/>
 <rect style="fill:#f1502f" width="3" height="20" x="18" y="-31" transform="rotate(90)"/>
 <path style="opacity:0.2" d="m 31,5.999191 a 15,15 0 0 0 -15,15 15,15 0 0 0 15,15 15,15 0 0 0 15,-15 15,15 0 0 0 -15,-15 z m -23.5,9 c -3.0354923,0 -5.5,2.464391 -5.5,5.5 0,3.035493 2.4645077,5.5 5.5,5.5 3.03561,0 5.5,-2.464507 5.5,-5.5 0,-3.035609 -2.46439,-5.5 -5.5,-5.5 z m 6,17 c -1.408209,0 -2.817228,0.535919 -3.890625,1.609375 -2.1469129,2.146795 -2.1469129,5.634456 0,7.78125 2.146793,2.146912 5.634455,2.146912 7.78125,0 2.146912,-2.146794 2.146912,-5.634455 0,-7.78125 C 16.317228,32.53511 14.908209,31.999191 13.5,31.999191 Z"/>
 <path style="fill:#f1502f" d="m 9.6101847,32.610184 c -2.1469129,2.146795 -2.1469129,5.632838 0,7.779632 2.1467933,2.146912 5.6328363,2.146912 7.7796313,0 2.146912,-2.146794 2.146912,-5.632837 0,-7.779632 -2.146795,-2.146912 -5.632838,-2.146912 -7.7796313,0 z"/>
 <path style="fill:#f1502f" d="M 7.5000008,25 C 4.4645085,25 2.0000004,22.535492 2.0000004,19.499999 2.0000004,16.46439 4.4645085,14 7.5000008,14 10.535611,14 13,16.46439 13,19.499999 13,22.535492 10.535611,25 7.5000008,25 Z"/>
 <circle style="fill:#f1502f" cx="31" cy="20" r="15"/>
 <path style="opacity:0.2" d="m 31,10.000518 c -6.07102,0 -11,4.928981 -11,11 0,6.071019 4.92898,11 11,11 6.071019,0 11,-4.928981 11,-11 0,-6.071019 -4.928981,-11 -11,-11 z m 3.451172,5 c 0.194166,0 0.388302,0.0758 0.539062,0.226562 l 1.783204,1.783204 c 0.301518,0.30152 0.301518,0.776605 0,1.078125 l -1.498047,1.488281 -2.851563,-2.851563 1.488281,-1.498047 c 0.150759,-0.150762 0.344897,-0.226562 0.539063,-0.226562 z m -2.570313,2.267578 2.851563,2.851563 -6.88086,6.880859 H 25 V 24.148956 Z M 7.5,18.000518 c -1.3798834,0 -2.5,1.120227 -2.5,2.5 0,1.379772 1.1201166,2.5 2.5,2.5 1.3797733,0 2.5,-1.120228 2.5,-2.5 0,-1.379773 -1.1202267,-2.5 -2.5,-2.5 z m 6,17 c -0.640079,0 -1.279641,0.244486 -1.767578,0.732422 -0.975873,0.975874 -0.975873,2.559282 0,3.535156 0.975874,0.975872 2.559283,0.975872 3.535156,0 0.975873,-0.975874 0.975873,-2.559282 0,-3.535156 C 14.779642,35.245004 14.140079,35.000518 13.5,35.000518 Z"/>
 <path style="fill:#f4f4f7" d="m 11.731905,34.731904 c -0.975873,0.975874 -0.975873,2.560318 0,3.536192 0.975874,0.975872 2.560318,0.975872 3.536191,0 0.975873,-0.975874 0.975873,-2.560318 0,-3.536192 -0.975873,-0.975872 -2.560317,-0.975872 -3.536191,0 z"/>
 <path style="fill:#f4f4f7" d="M 7.500011,22 C 6.1201276,22 4.999956,20.879718 4.999956,19.499946 4.999956,18.120173 6.1201276,17 7.500011,17 8.8797843,17 9.999956,18.120173 9.999956,19.499946 9.999956,20.879718 8.8797843,22 7.500011,22 Z"/>
 <path style="fill:#f4f4f7" d="M 31 9 C 24.92898 9 20 13.928981 20 20 C 20 26.071019 24.92898 31 31 31 C 37.071019 31 42 26.071019 42 20 C 42 13.928981 37.071019 9 31 9 z M 34.451172 14 C 34.645338 14 34.839474 14.075801 34.990234 14.226562 L 36.773438 16.009766 C 37.074957 16.311286 37.074957 16.786371 36.773438 17.087891 L 35.275391 18.576172 L 32.423828 15.724609 L 33.912109 14.226562 C 34.062868 14.0758 34.257006 14 34.451172 14 z M 31.880859 16.267578 L 34.732422 19.119141 L 27.851562 26 L 25 26 L 25 23.148438 L 31.880859 16.267578 z"/>
 <path style="fill:#f4f4f7;opacity:0.2" d="M 31 5 A 15 15 0 0 0 16 20 A 15 15 0 0 0 16.019531 20.414062 A 15 15 0 0 1 31 6 A 15 15 0 0 1 45.980469 20.585938 A 15 15 0 0 0 46 20 A 15 15 0 0 0 31 5 z M 7.5 14 C 4.4645077 14 2 16.464391 2 19.5 C 2 19.668627 2.0105043 19.835222 2.0253906 20 C 2.2784765 17.198481 4.6331348 15 7.5 15 C 10.366976 15 12.721535 17.198481 12.974609 20 C 12.989495 19.835222 13 19.668627 13 19.5 C 13 16.464391 10.53561 14 7.5 14 z M 13.5 31 C 12.091791 31 10.682772 31.535919 9.609375 32.609375 C 8.4087024 33.809982 7.8791918 35.429716 8.0214844 37 C 8.1332664 35.761829 8.6626662 34.556032 9.609375 33.609375 C 10.682772 32.535919 12.091791 32 13.5 32 C 14.908209 32 16.317228 32.535919 17.390625 33.609375 C 18.337333 34.556032 18.866734 35.761829 18.978516 37 C 19.120808 35.429716 18.591297 33.809982 17.390625 32.609375 C 16.317228 31.535919 14.908209 31 13.5 31 z"/>
</svg>
