<svg xmlns="http://www.w3.org/2000/svg" width="48" height="48" version="1.0">
 <rect style="opacity:0.2" width="42" height="33" x="3" y="8" rx="3" ry="3"/>
 <rect style="fill:#2769bc" width="42" height="33" x="3" y="7" rx="3" ry="3"/>
 <path style="opacity:0.3" d="M 6 7 L 6 10 L 9 10 L 9 7 L 6 7 z M 39 7 L 39 10 L 42 10 L 42 7 L 39 7 z M 6 13 L 6 16 L 9 16 L 9 13 L 6 13 z M 39 13 L 39 16 L 42 16 L 42 13 L 39 13 z M 6 19 L 6 22 L 9 22 L 9 19 L 6 19 z M 39 19 L 39 22 L 42 22 L 42 19 L 39 19 z M 6 25 L 6 28 L 9 28 L 9 25 L 6 25 z M 39 25 L 39 28 L 42 28 L 42 25 L 39 25 z M 6 31 L 6 34 L 9 34 L 9 31 L 6 31 z M 39 31 L 39 34 L 42 34 L 42 31 L 39 31 z M 6 37 L 6 40 L 9 40 L 9 37 L 6 37 z M 39 37 L 39 40 L 42 40 L 42 37 L 39 37 z"/>
 <path style="opacity:0.2" d="m 24,13 a 8,8 0 0 0 -8,8 8,8 0 0 0 8,8 8,8 0 0 0 8,-8 8,8 0 0 0 -8,-8 z m -3,4 h 0.707031 0.07422 c 0.136514,-0.0012 0.269873,0.03057 0.388672,0.09961 l 5.464844,3.201172 C 27.877265,20.438289 28,20.718759 28,21 c 0,0.281241 -0.122736,0.561706 -0.365234,0.699219 l -5.464844,3.201172 C 22.051123,24.969351 21.917764,25.0008 21.78125,25 H 21.707031 21 Z"/>
 <path style="fill:#f4f4f7" d="M 24 12 A 8 8 0 0 0 16 20 A 8 8 0 0 0 24 28 A 8 8 0 0 0 32 20 A 8 8 0 0 0 24 12 z M 21 16 L 21.707031 16 L 21.78125 16 C 21.917764 15.9988 22.051123 16.030569 22.169922 16.099609 L 27.634766 19.300781 C 27.877265 19.438289 28 19.718759 28 20 C 28 20.281241 27.877264 20.561706 27.634766 20.699219 L 22.169922 23.900391 C 22.051123 23.969351 21.917764 24.0008 21.78125 24 L 21.707031 24 L 21 24 L 21 16 z"/>
 <rect style="opacity:0.5;fill:#f4f4f7" width="24" height="2" x="12" y="33" rx="1" ry="1"/>
 <rect style="opacity:0.2" width="6" height="6" x="15" y="32" rx="3" ry="3"/>
 <rect style="fill:#f4f4f7" width="6" height="6" x="15" y="31" rx="3" ry="3"/>
 <path style="opacity:0.1;fill:#f4f4f7" d="M 6 7 C 4.338 7 3 8.338 3 10 L 3 11 C 3 9.338 4.338 8 6 8 L 42 8 C 43.662 8 45 9.338 45 11 L 45 10 C 45 8.338 43.662 7 42 7 L 6 7 z"/>
</svg>
