<svg xmlns="http://www.w3.org/2000/svg" width="48" height="48" version="1">
 <rect style="opacity:0.2" width="28" height="28" x="-45" y="-38" rx="3" ry="3" transform="matrix(0,-1,-1,0,0,0)"/>
 <rect style="fill:#cecece" width="28" height="28" x="-44" y="-38" rx="3" ry="3" transform="matrix(0,-1,-1,0,0,0)"/>
 <path style="opacity:0.2;fill:#f4f4f7" d="M 13 16 C 11.338 16 10 17.338 10 19 L 10 20 C 10 18.338 11.338 17 13 17 L 35 17 C 36.662 17 38 18.338 38 20 L 38 19 C 38 17.338 36.662 16 35 16 L 13 16 z"/>
 <path style="fill:#4f4f4f" d="m 24,20 -8,6 h 4 v 8 h -4 l 8,6 8,-6 h -4 v -8 h 4 z"/>
 <rect style="fill:#7e7e7e" width="8" height="24" x="20" y="-30" transform="scale(1,-1)"/>
 <rect style="opacity:0.2" width="8" height="24" x="-13" y="-36" rx="4" ry="4" transform="matrix(0,-1,-1,0,0,0)"/>
 <rect style="fill:#db4539" width="8" height="24" x="-12" y="-36" rx="4" ry="4" transform="matrix(0,-1,-1,0,0,0)"/>
 <rect style="opacity:0.1" width="8" height="1" x="20" y="30"/>
 <path style="opacity:0.2;fill:#f4f4f7" d="M 16 4 C 13.784 4 12 5.784 12 8 C 12 8.1712619 12.028141 8.3345228 12.048828 8.5 C 12.295816 6.5243261 13.955262 5 16 5 L 32 5 C 34.044738 5 35.704184 6.5243261 35.951172 8.5 C 35.971859 8.3345228 36 8.1712619 36 8 C 36 5.784 34.216 4 32 4 L 16 4 z"/>
 <path style="opacity:0.1" d="M 17.333984 25 L 16 26 L 20 26 L 20 25 L 17.333984 25 z M 28 25 L 28 26 L 32 26 L 30.666016 25 L 28 25 z M 16 34 L 24 40 L 32 34 L 30.666016 34 L 24 39 L 17.333984 34 L 16 34 z"/>
 <path style="opacity:0.2" d="M 46,44 C 46,34 39,27 29,27 c -1.5,0 -3,1.5 -3,3 v 14 c 0,1.5 1.5,3 3,3 h 14 c 1.5,0 3,-1.5 3,-3 z"/>
 <path style="fill:#426bcd" d="M 46,43 C 46,33 39,26 29,26 c -1.5,0 -3,1.5 -3,3 v 14 c 0,1.5 1.5,3 3,3 h 14 c 1.5,0 3,-1.5 3,-3 z"/>
 <path style="fill:#f4f4f7" d="m 30,30 v 1 c 0,0.55016 0.45347,1 1,1 4.9706,0 9,4.0294 9,9 0,0.55016 0.45347,1 1,1 h 1 V 41 C 42,34.925 37.075,30 31,30 Z m 0,4 v 1 c 0,0.55016 0.45347,1 1,1 2.7614,0 5,2.2386 5,5 0,0.55016 0.45347,1 1,1 h 1 v -1 c 0,-3.866 -3.134,-7 -7,-7 z m 2,4 c -1.1046,0 -2,0.89543 -2,2 0,1.10457 0.89543,2 2,2 1.10457,0 2,-0.89543 2,-2 0,-1.10457 -0.8954,-2 -2,-2 z"/>
</svg>
