<svg xmlns="http://www.w3.org/2000/svg" width="48" height="48" version="1">
 <path style="opacity:0.2" d="M 44,25 A 20,20 0 0 1 24,45 20,20 0 0 1 4,25 20,20 0 0 1 24,5 20,20 0 0 1 44,25 Z"/>
 <path style="fill:#4f4f4f" d="m44 24a20 20 0 0 1 -20 20 20 20 0 0 1 -20 -20 20 20 0 0 1 20 -20 20 20 0 0 1 20 20z"/>
 <path style="opacity:0.2" d="m 11.900391,17 -3.5996098,5 h 7.8749998 l -5.77539,11 H 14.5 h 4.099609 4.09961 l 5.77539,-11 h 4.09961 l -5.773438,11 h 4.09961 l 8.40039,-16 h -16.40039 -4.09961 z"/>
 <path style="fill:#f4f4f7" d="m 27,16 h 4.1 l -8.4,16 h -4.1 z"/>
 <path style="fill:#f4f4f7" d="m 35.2,16 h 4.1 l -8.4,16 h -4.1 z"/>
 <path style="fill:#f4f4f7" d="M 11.900391 16 L 8.3007812 21 L 16.175781 21 L 18.800781 16 L 11.900391 16 z M 27 16 L 24.375 21 L 36.300781 21 L 39.300781 16 L 27 16 z"/>
 <path style="fill:#4485e8" d="M 22.9,16 H 27 l -8.4,16 h -4.1 z"/>
 <path style="fill:#69b0ec" d="m 18.8,16 h 4.1 l -8.4,16 h -4.1 z"/>
 <path style="fill:#f4f4f7;opacity:0.1" d="M 24 4 A 20 20 0 0 0 4 24 A 20 20 0 0 0 4.0214844 24.582031 A 20 20 0 0 1 24 5 A 20 20 0 0 1 43.978516 24.417969 A 20 20 0 0 0 44 24 A 20 20 0 0 0 24 4 z"/>
</svg>
