<svg xmlns="http://www.w3.org/2000/svg" height="48" width="48" version="1.1">
 <g transform="matrix(2,0,0,2,2,2)">
  <path style="opacity:.2" d="m1 17.5v-12h2v-2h2v-2h12v2h2v2h2v12h-2v2h-2v2h-12v-2h-2v-2z"/>
  <path style="fill:#e41a00" d="m1 17v-12h2v-2h2v-2h12v2h2v2h2v12h-2v2h-2v2h-12v-2h-2v-2z"/>
  <path style="opacity:.2" d="m5 5.5v12h3l0.5-2s0.5 1 1.5 1c1.20185 0 2-1 2-3v-8zm11 0v8c0 2.083612-0.524765 3.291129-1.349609 4h2.349609v-12z"/>
  <path style="fill:#f4f4f7" d="m5 5v12h3l0.5-2s0.5 1 1.5 1c1.20185 0 2-1 2-3v-8zm11 0v8c0 2.083612-0.524765 3.291129-1.349609 4h2.349609v-12z"/>
  <path style="opacity:.2;fill:#f4f4f7" d="m5 1v0.5h12v-0.5zm-2 2v0.5h2v-0.5zm14 0v0.5h2v-0.5zm-16 2v0.5h2v-0.5zm18 0v0.5h2v-0.5z"/>
 </g>
</svg>
