<svg xmlns="http://www.w3.org/2000/svg" width="48" height="48" version="1.1">
 <circle style="opacity:0.2" cx="24" cy="25" r="20"/>
 <circle style="fill:#2e6cb9" cx="24" cy="24" r="20"/>
 <path style="opacity:0.1;fill:#f4f4f7" d="M 24,4 A 20,20 0 0 0 4,24 20,20 0 0 0 4.0215,24.582 20,20 0 0 1 24,5 20,20 0 0 1 43.979,24.418 20,20 0 0 0 44,24 20,20 0 0 0 24,4 Z"/>
 <path style="opacity:0.2;fill:none;stroke:#000000;stroke-width:6" d="M 33,15 C 33,25 27,34 20,34 M 17,15 v 22"/>
 <path style="fill:none;stroke:#f4f4f7;stroke-width:6" d="M 33,14 C 33,24 27,33 20,33 M 17,14 v 22"/>
</svg>
