<svg xmlns="http://www.w3.org/2000/svg" width="48" height="48" version="1">
 <path style="fill:#b2bfd9" transform="matrix(0,-1,-1,0,0,0)" d="m -24.5,-39.25 c 11.08,0 15.625,3.92 15.625,15 0,11.08 -1.98121,19.1242964 -13.06121,19.1242964 -1.402836,0 -4.834838,0.9827155 -6.154704,0.7104597 -2.585018,-0.5332256 -4.984592,-1.5623105 -7.095646,-2.9841809 -0.643659,-0.433528 -1.166689,-1.5602313 -1.753783,-2.0638674 -4.269383,-3.6624688 -5.746336,-9.1952488 -5.746336,-15.2871768 0,-11.08 7.106679,-14.499531 18.186679,-14.499531 z"/>
 <path style="fill:#6298df" d="M 23.5 15 C 14.387302 15 7 22.387302 7 31.5 C 7.0056881 32.742743 7.1601102 33.978747 7.4433594 35.1875 A 20 20 0 0 0 18.216797 43.140625 C 19.83157 43.11204 21.467982 43.003176 23 43 C 22.203839 40.545675 19.072681 36.265415 19 32 C 20.160503 24.801861 23.938322 18.656518 30.443359 16.552734 C 28.269365 15.536377 25.899831 15.006481 23.5 15 z"/>
 <path style="fill:#999999" d="M 26.167969,20.898438 C 22.29877,23.717007 19.007215,28.213041 19,33 c 0.0051,4.168199 2.7444,8.146312 5.800781,10.980469 3.584577,-0.140141 6.911053,-1.228188 9.763672,-3.001953 C 28.116044,40.744317 23.007301,35.452657 23,29 c 0.0056,-3.001693 1.135877,-5.892309 3.167969,-8.101562 z"/>
 <path style="fill:#3a62bf" d="M 27.5,16 C 18.387302,16 11,23.387302 11,32.5 c 0.0069,2.962181 0.811054,5.867888 2.328125,8.412109 C 16.415132,42.858831 20.065647,44 24,44 23.840415,43.508046 23.571357,42.926587 23.267578,42.302734 21.161229,39.658622 20.009799,36.380524 20,33 c 0.0069,-4.249889 3.005734,-9.262217 6.167969,-12.101562 3.426024,-3.170488 7.251953,-3.78125 7.251953,-3.78125 C 31.531896,16.384652 29.525146,16.005945 27.5,16 Z"/>
 <path style="opacity:0.2" d="M 24,5 C 12.92,5 4,13.92 4,25 c 0,2.588885 0.5028968,5.051552 1.390625,7.318359 A 15,15 0 0 1 5,29 15,15 0 0 1 20,14 15,15 0 0 1 35,29 15,15 0 0 1 20,44 15,15 0 0 1 16.738281,43.628906 C 18.989832,44.502845 21.432321,45 24,45 35.08,45 44,36.08 44,25 44,13.92 35.08,5 24,5 Z"/>
 <path style="fill:#e63b40" d="M 24 4 C 12.92 4 4 12.92 4 24 C 4 26.588885 4.5028968 29.051552 5.390625 31.318359 A 15 15 0 0 1 5 28 A 15 15 0 0 1 20 13 A 15 15 0 0 1 35 28 A 15 15 0 0 1 20 43 A 15 15 0 0 1 16.738281 42.628906 C 18.989832 43.502845 21.432321 44 24 44 C 35.08 44 44 35.08 44 24 C 44 12.92 35.08 4 24 4 z"/>
 <path style="fill:#f4f4f7;opacity:0.2" d="M 24 4 C 12.92 4 4 12.92 4 24 C 4 24.114787 4.013658 24.225559 4.015625 24.339844 C 4.362711 13.568832 13.141647 5 24 5 C 34.912126 5 43.72361 13.653863 43.988281 24.5 C 43.992353 24.333141 44 24.167874 44 24 C 44 12.92 35.08 4 24 4 z M 34.980469 28.414062 A 15 15 0 0 1 20 43 A 15 15 0 0 1 16.738281 42.628906 C 18.344321 43.25229 20.051648 43.67286 21.828125 43.869141 A 15 15 0 0 0 35 29 A 15 15 0 0 0 34.980469 28.414062 z M 5.0214844 28.554688 A 15 15 0 0 0 5 29 A 15 15 0 0 0 5.0917969 30.441406 C 5.1913759 30.733724 5.2785382 31.032146 5.390625 31.318359 A 15 15 0 0 1 5.0214844 28.554688 z"/>
</svg>
