<svg width="48" height="48" version="1.1" xmlns="http://www.w3.org/2000/svg">
 <g transform="matrix(2,0,0,2,2,2)">
  <rect x="1" y="1.5" width="20" height="20" rx="5" ry="5" style="opacity:.2"/>
  <rect x="1" y="1" width="20" height="20" rx="5" ry="5" style="fill:#3f3f3f"/>
  <path d="m9.8110351 2.75-0.05127 0.4907226c-0.08785 0.8311234-0.3641286 2.5247173-0.4321289 2.6489259-0.0421212 0.0769387-0.1866567 0.1182162-0.4150391 0.1196287-0.4237977 0.002625-0.6911901 0.2056193-0.6567382 0.5004883 0.017696 0.1514564 0.087108 0.21626 0.2954101 0.2734375 0.3587145 0.098464 0.3540834 0.088514 0.1879883 0.3393555-0.1583298 0.2391159-0.1806179 0.3836921-0.207519 1.315918l-0.0195313 0.6274415-0.4199219 0.0195313c-0.2310402 0.01055-0.4335076 0.032964-0.4492187 0.048829-0.015711 0.015864 0.012012 0.4551545 0.061035 0.9765627 0.049025 0.521407 0.068239 1.035025 0.041504 1.142578-0.035755 0.143844-0.1774123 0.257276-0.5346676 0.427245-0.26712 0.127086-0.6048588 0.256304-0.7495118 0.288086-0.1446531 0.03178-0.4051117 0.124402-0.5810546 0.205078-0.1759427 0.08067-0.4162572 0.147976-0.5322266 0.148926-0.3481448 0.177246-0.5025949 0.455788-0.7500003 0.693359-0.119307 0.114566-0.3407244 0.347757-0.4077148 0.554199l-0.1904297 0.588379v4.341309s0 1 1 1h12c1 0 1-1 1-1s0.01312-0.381211 0-1c-0.02615-1.236844 0 0 0-2-0.143325-0.275887-0.162321-0.745314-0.288624-1.092285-0.126254-0.346972-0.434722-1.144179-0.683543-1.77002-0.248821-0.62584-0.491868-1.267378-0.541993-1.425781-0.108635-0.343323-0.235463-0.459001-0.566406-0.527344-0.304979-0.06298-0.398289-0.327977-0.336914-0.9497067 0.047319-0.4793427 0.01889-0.5398303-0.573731-1.2426758-0.308833-0.3662735-0.372288-0.406985-0.659179-0.4077149-0.189691-4.834e-4 -0.460417-0.0780125-0.668946-0.1928711-0.192358-0.10595-0.461421-0.2466-0.598144-0.3125l-0.249024-0.1196289 0.119629-0.4125976c0.140523-0.4860889 0.554583-1.4325706 0.9375-2.1484375 0.259386-0.4849251 0.265975-0.5176903 0.13916-0.6591798-0.13944-0.1555767-1.279653-0.7651812-1.748047-0.9350584-0.149611-0.0542609-0.341753-0.1306697-0.427246-0.1684571-0.363274-0.1605666-1.344173-0.3857422-1.679687-0.3857422zm2.8955079 5.3735351c0.02977-0.019836 0.08357-0.010637 0.178223 0.012213 0.302925 0.073109 0.330096 0.095335 0.332031 0.2880859 9.5e-4 0.094566 0.07022 0.2607488 0.153809 0.3686524 0.08359 0.1079037 0.152857 0.3056191 0.153808 0.4394531 3e-3 0.4145752 0.162999 0.7610703 0.527344 1.1425785 0.365328 0.382517 0.400853 0.615235 0.09521 0.615235-0.262954 0-0.26212 0.207069 0 0.637207 0.291905 0.479013 0.741804 1.806011 0.673829 1.984863-0.07652 0.20136-0.160795 0.152525-0.590819-0.346685-0.269381-0.312726-0.596068-0.579079-0.964355-0.786133-0.619693-0.348398-0.984508-0.644501-0.983887-0.79834 2.32e-4 -0.05602 0.210064-0.37744 0.466309-0.71289 0.256245-0.335451 0.466309-0.641995 0.466309-0.683595s-0.139075-0.171393-0.310059-0.2856444c-0.322635-0.215584-0.396117-0.3417968-0.195313-0.3417968 0.156773 0 0.146771-0.1035413-0.04639-0.4858398-0.131489-0.2602449-0.144392-0.3579926-0.07568-0.510254 0.04678-0.1036692 0.08301-0.2766058 0.08301-0.3833008 0-0.085907 0.0069-0.1339726 0.03662-0.1538086zm1.00586 0.3076173c0.02565-0.026666 0.091-0.013545 0.192871 0.041504 0.09474 0.051194 0.141096 0.1333018 0.11475 0.2026368-0.06196 0.1630296-0.161773 0.145871-0.263673-0.046386-0.055-0.1037775-0.06959-0.1710882-0.04395-0.1977538z" style="opacity:.2"/>
  <path d="m9.8110351 2.25-0.05127 0.4907226c-0.08785 0.8311234-0.3641286 2.5247173-0.4321289 2.6489259-0.0421212 0.0769387-0.1866567 0.1182162-0.4150391 0.1196287-0.4237977 0.002625-0.6911901 0.2056193-0.6567382 0.5004883 0.017696 0.1514564 0.087108 0.21626 0.2954101 0.2734375 0.3587145 0.098464 0.3540834 0.088514 0.1879883 0.3393555-0.1583298 0.2391159-0.1806179 0.3836921-0.207519 1.315918l-0.0195313 0.6274415-0.4199219 0.0195313c-0.2310402 0.01055-0.4335076 0.032964-0.4492187 0.048829-0.015711 0.015864 0.012012 0.4551545 0.061035 0.9765625 0.049025 0.5214072 0.068239 1.0350252 0.041504 1.1425782-0.035755 0.143844-0.1774123 0.257276-0.5346676 0.427245-0.26712 0.127086-0.6048588 0.256304-0.7495118 0.288086-0.1446531 0.03178-0.4051117 0.124402-0.5810546 0.205078-0.1759427 0.08067-0.4162572 0.147976-0.5322266 0.148926-0.3481448 0.177246-0.5025949 0.455788-0.7500003 0.693359-0.119307 0.114566-0.3407244 0.347757-0.4077148 0.554199l-0.1904297 0.588379v4.341309s0 1 1 1h12c1 0 1-1 1-1s0.01312-0.381211 0-1c-0.02615-1.236844 0 0 0-2-0.143325-0.275887-0.162321-0.745314-0.288624-1.092285-0.126254-0.346972-0.434722-1.144179-0.683543-1.77002-0.248821-0.62584-0.491868-1.267378-0.541993-1.425781-0.108635-0.343323-0.235463-0.459001-0.566406-0.527344-0.304979-0.06298-0.398289-0.3279766-0.336914-0.9497067 0.047319-0.4793427 0.01889-0.5398303-0.573731-1.2426758-0.308833-0.3662735-0.372288-0.406985-0.659179-0.4077149-0.189691-4.834e-4 -0.460417-0.0780125-0.668946-0.1928711-0.192358-0.10595-0.461421-0.2466-0.598144-0.3125l-0.249024-0.1196289 0.119629-0.4125976c0.140523-0.4860889 0.554583-1.4325706 0.9375-2.1484375 0.259386-0.4849251 0.265975-0.5176903 0.13916-0.6591798-0.13944-0.1555767-1.279653-0.7651812-1.748047-0.9350584-0.149611-0.0542609-0.341753-0.1306697-0.427246-0.1684571-0.363274-0.1605666-1.344173-0.3857422-1.679687-0.3857422zm2.8955079 5.3735351c0.02977-0.019836 0.08357-0.010637 0.178223 0.012213 0.302925 0.073109 0.330096 0.095335 0.332031 0.2880859 9.5e-4 0.094566 0.07022 0.2607488 0.153809 0.3686524 0.08359 0.1079037 0.152857 0.3056191 0.153808 0.4394531 3e-3 0.4145752 0.162999 0.7610703 0.527344 1.1425781 0.365328 0.3825174 0.400853 0.6152354 0.09521 0.6152354-0.262954 0-0.26212 0.207069 0 0.637207 0.291905 0.479013 0.741804 1.806011 0.673829 1.984863-0.07652 0.20136-0.160795 0.152525-0.590819-0.346685-0.269381-0.312726-0.596068-0.579079-0.964355-0.786133-0.619693-0.348398-0.984508-0.644501-0.983887-0.79834 2.32e-4 -0.05602 0.210064-0.37744 0.466309-0.71289 0.256245-0.335451 0.466309-0.6419947 0.466309-0.6835947s-0.139075-0.1713934-0.310059-0.2856447c-0.322635-0.215584-0.396117-0.3417968-0.195313-0.3417968 0.156773 0 0.146771-0.1035413-0.04639-0.4858398-0.131489-0.2602449-0.144392-0.3579926-0.07568-0.510254 0.04678-0.1036692 0.08301-0.2766058 0.08301-0.3833008 0-0.085907 0.0069-0.1339726 0.03662-0.1538086zm1.00586 0.3076173c0.02565-0.026666 0.091-0.013545 0.192871 0.041504 0.09474 0.051194 0.141096 0.1333018 0.11475 0.2026368-0.06196 0.1630296-0.161773 0.145871-0.263673-0.046386-0.055-0.1037775-0.06959-0.1710882-0.04395-0.1977538z" style="fill:#d92113"/>
  <path d="m9.5498048 5.4555664c0.6348822 0.096574 2.7832202 0.920809 3.1274412 1.2353516 0.108413 0.099066 0.118504 0.1695024 0.05371 0.427246-0.04288 0.1705834-0.100093 0.310655-0.126953 0.3100586-0.026859-5.984e-4 -0.468491-0.2869931-0.981444-0.637207-0.883654-0.6033059-1.761999-1.0905201-2.1533207-1.1938476-0.1317375-0.034785-0.1531719-0.0683625-0.0878901-0.1342774 0.019267-0.019454 0.07776-0.02112 0.1684566-0.00732z" style="fill:#f1d204"/>
  <path d="m6 1c-2.77 0-5 2.23-5 5v0.5c0-2.77 2.23-5 5-5h10c2.77 0 5 2.23 5 5v-0.5c0-2.77-2.23-5-5-5z" style="fill:#f4f4f7;opacity:.1"/>
  <path d="m9.8105469 2.25-0.0507813 0.4902344c-0.08785 0.8311234-0.3636403 2.526182-0.4316406 2.6503906-0.0421212 0.0769387-0.1876332 0.1177281-0.4160156 0.1191406-0.4237977 0.00263-0.6907019 0.205131-0.65625 0.5 0.010419 0.089177 0.051162 0.1442266 0.1152344 0.1894532 0.1122665-0.1148677 0.2955619-0.1879328 0.5410156-0.1894532 0.2283824-0.0014125 0.3738944-0.0422019 0.4160156-0.1191406 0.0680003-0.1242086 0.3437906-1.8192672 0.4316406-2.6503906l0.0507813-0.4902344h0.3652341c0.335514 0 1.314461 0.2261521 1.677735 0.3867188 0.08549 0.037787 0.278123 0.1137078 0.427734 0.1679687 0.452974 0.1642846 1.502398 0.7239155 1.699219 0.9023437 0.125915-0.2537815 0.149187-0.3567773 0.04883-0.46875-0.139442-0.1555767-1.279655-0.7637165-1.748049-0.9335937-0.149611-0.0542609-0.342241-0.1301814-0.427734-0.1679687-0.363274-0.1605667-1.342221-0.3867188-1.677735-0.3867188zm-1.171875 4.5683594c-0.0689325 0.1841453-0.0878414 0.4406001-0.1074219 1.1191406l-0.019531 0.6289062-0.4199219 0.019531c-0.2310402 0.01055-0.4335077 0.032963-0.4492188 0.048828-0.00798 0.00806 0.019714 0.314218 0.03125 0.4960938 0.038117-0.015525 0.2030291-0.035107 0.4179688-0.044922l0.4199217-0.0195308 0.0195312-0.6289062c0.0269011-0.9322259 0.0487014-1.0753372 0.2070312-1.3144531 0.1409226-0.2128253 0.1152322-0.2418323-0.0996093-0.3046875zm4.3242191 0.203125c-0.0019 0.0064-8e-3 0.01914-0.0098 0.025391l-0.119141 0.4121094 0.248047 0.1191406c0.136723 0.0659 0.405298 0.20655 0.597657 0.3125 0.05188 0.028574 0.11255 0.04697 0.169921 0.070312 0.02348 0.00898 0.02683-0.00439 0.05664 0.011719 0.01 0.00538 0.01263 0.013523 0.02148 0.019531 0.149662 0.052627 0.300967 0.091489 0.421875 0.091797 0.286891 7.299e-4 0.349371 0.04193 0.658203 0.4082031 0.398574 0.4727062 0.5316 0.656666 0.56836 0.8710937 0.0029-0.045311 9.42e-4 -0.079095 0.0059-0.1289062 0.04732-0.4793427 0.0184-0.539342-0.574219-1.2421875-0.308834-0.3662735-0.371314-0.4074732-0.658205-0.4082031-0.189691-4.834e-4 -0.461392-0.0785008-0.669921-0.1933594-0.192359-0.10595-0.460934-0.2466-0.597657-0.3125zm0.75 1.4101562c-0.02564 0.026666-0.01203 0.093488 0.04297 0.1972656 0.1019 0.1922571 0.201712 0.2099046 0.263672 0.046875 0.02635-0.069335-0.01854-0.1519309-0.113281-0.203125-0.101871-0.055049-0.167709-0.067682-0.193359-0.041016zm-1.101563 0.109375c-0.01173 0.041536-0.01085 0.086919-0.02539 0.1191406-0.06824 0.1512202-0.05476 0.2515445 0.07422 0.5078126 0.01642-0.00373 0.02419-0.011719 0.04883-0.011719 0.156773 0 0.146286-0.1020765-0.04687-0.484375-0.02904-0.05748-0.03291-0.086895-0.05078-0.1308594zm0.123047 0.8125c0.08231 0.1991454 0.09442 0.3027344-0.02539 0.3027344-0.200804 0-0.127322 0.1262129 0.195313 0.3417969 0.05588 0.037338 0.05624 0.056713 0.101562 0.09375 0.06967-0.1038751 0.208985-0.2879926 0.208985-0.3066417 0-0.0416-0.139563-0.172858-0.310547-0.2871093-0.09277-0.0619909-0.118948-0.0981959-0.169922-0.1445312zm2.847656 0.3808594c-0.06137 0.62173 0.03291 0.886239 0.337891 0.949219 0.330943 0.06834 0.457771 0.184021 0.566406 0.527344 0.05013 0.158402 0.292195 0.799941 0.541016 1.425781 0.248821 0.625841 0.55734 1.424512 0.683594 1.771484 0.126303 0.346971 0.145737 0.81591 0.289062 1.091797 2e-3 -0.184622 0 0 0-0.5-0.143325-0.275887-0.162759-0.744826-0.289062-1.091797-0.126254-0.346972-0.434773-1.145643-0.683594-1.771484-0.248821-0.62584-0.490891-1.267379-0.541016-1.425781-0.108635-0.343323-0.235463-0.459001-0.566406-0.527344-0.202466-0.04181-0.305327-0.1840743-0.337891-0.449219zm-1.435547 0.755859c-0.235063 0-0.247244 0.175203-0.0625 0.517578 0.02211-0.0048 0.03435-0.01758 0.0625-0.01758 0.271567 0 0.259133-0.190723 0-0.5zm-6.4179684 0.289063c-0.046194 0.131768-0.1823457 0.240899-0.5175781 0.400391-0.26712 0.127086-0.605347 0.25728-0.75 0.289062-0.1446531 0.03178-0.4041352 0.124402-0.5800781 0.205078-0.1759427 0.08067-0.4172337 0.147488-0.5332032 0.148438-0.3481448 0.177246-0.5025945 0.455788-0.75 0.693359-0.119307 0.114566-0.3392596 0.348245-0.40625 0.554687l-0.1914062 0.587891v0.5l0.1914062-0.587891c0.06699-0.206442 0.286943-0.440121 0.40625-0.554687 0.2474055-0.237571 0.4018552-0.516113 0.75-0.693359 0.1159695-9.5e-4 0.3572605-0.06777 0.5332032-0.148438 0.1759429-0.08068 0.435425-0.173298 0.5800781-0.205078 0.144653-0.03178 0.48288-0.161976 0.75-0.289062 0.3572553-0.169969 0.4994013-0.281938 0.5351563-0.425782 0.011105-0.04467-0.013984-0.318355-0.017578-0.474609zm4.7226564 0.642578c-0.04782 0.07869-0.169837 0.239359-0.169922 0.259766-6.21e-4 0.153839 0.364682 0.448477 0.984375 0.796875 0.368287 0.207054 0.695463 0.474383 0.964844 0.787109 0.430024 0.49921 0.513323 0.547063 0.589843 0.345703 0.0196-0.05157-0.01024-0.209685-0.06055-0.404297-0.07562 0.05543-0.200487-0.05969-0.529297-0.441406-0.269381-0.312726-0.596557-0.580055-0.964844-0.787109-0.38172-0.214608-0.651992-0.402747-0.814453-0.556641z" style="fill:#f4f4f7;opacity:.2"/>
 </g>
</svg>
