<svg xmlns="http://www.w3.org/2000/svg" height="48" width="48" version="1.1" xmlns:xlink="http://www.w3.org/1999/xlink">
 <g transform="matrix(2 0 0 2 .99999992 2)">
  <g style="opacity:.2" transform="matrix(1.2,0,0,1.25,1.4,1.5)">
   <path d="m3 2.4 6.6666667-2.4 3.3333333 2.4v13.6h-10z"/>
   <path d="m9.6666667 0v16h3.3333333v-13.6z"/>
  </g>
  <g transform="matrix(1.2,0,0,1.25,1.4,1)">
   <path d="m3 2.4 6.6666667-2.4 3.3333333 2.4v13.6h-10z" style="fill:#b79f32"/>
   <path d="m9.6666667 0v16h3.3333333v-13.6z" style="fill:#987e2e"/>
  </g>
  <path style="opacity:.2;fill:#f4f4f7" d="m13 1-8 3v0.5l8-3 4 3v-0.5z"/>
 </g>
</svg>
