<svg width="48" height="48" version="1.1" xmlns="http://www.w3.org/2000/svg">
 <g transform="matrix(1.9982036,0,0,1.9982389,2.0388166,2.0018953)">
  <path d="m16 8.5c2 4 4 13-2 13-5 0-9.9148657-5.20203-11-9-2-7-1-11 3-11s8 3 10 7z" style="opacity:.2"/>
  <path d="m16 8c2 4 4 13-2 13-5 0-9.9148657-5.20203-11-9-2-7-1-11 3-11s8 3 10 7z" style="fill:#4c4c4c"/>
  <path d="M 6,1 C 3.2270842,1 1.8992832,2.9261115 2.0097656,6.4375 2.0394863,3.2480404 3.3633929,1.5 6,1.5 c 4,0 8,3 10,7 0.9684,1.936799 1.928045,5.042367 1.988281,7.734375 C 18.049231,13.435687 17.029185,10.05837 16,8 14,4 10,1 6,1 Z" style="fill:#f4f4f7;opacity:.1"/>
  <path d="m16.988281 1.4998967c-0.199103 0.00251-0.392924 0.064398-0.55664 0.1777344l-13 8.9999999c-0.6251371 0.43235-0.5585433 1.376479 0.1210938 1.716797l4.5527344 2.275391-6.7050782 5.029297c-1.0175618 0.749019 0.00351 2.305198 1.0957032 1.669922l14-8c0.752538-0.428328 0.642129-1.545608-0.179688-1.81836l-3.9375-1.3125 8.134766-4.8808594c0.629492-0.3774727 0.651451-1.281875 0.04102-1.6894531l-3-2c-0.167581-0.1117508-0.365-0.1702954-0.566411-0.1679688z" style="opacity:.2"/>
  <path d="m16.988281 1c-0.199103 0.00251-0.392924 0.064398-0.55664 0.1777344l-13 8.9999996c-0.6251371 0.43235-0.5585433 1.376479 0.1210938 1.716797l4.5527344 2.275391-6.7050782 5.029297c-1.0175618 0.749019 0.00351 2.305198 1.0957032 1.669922l14-8c0.752538-0.428328 0.642129-1.545608-0.179688-1.81836l-3.9375-1.3124998 8.134766-4.8808593c0.629492-0.3774727 0.651451-1.281875 0.04102-1.6894531l-3-2c-0.167581-0.1117508-0.365-0.17029538-0.566411-0.1679688z" style="fill:#059dd2"/>
  <path d="m16.988281 1c-0.199103 0.00251-0.392924 0.064398-0.55664 0.1777344l-13 8.9999996c-0.3695946 0.255615-0.4922548 0.689419-0.3945312 1.072266 0.0561305-0.220389 0.1828998-0.4259 0.3945312-0.572266l13-8.9999996c0.163716-0.1133363 0.357537-0.1752244 0.55664-0.1777344 0.201411-0.00233 0.398826 0.056218 0.566407 0.1679688l3 2c0.219281 0.1464116 0.354885 0.3568066 0.412109 0.5839843 0.100755-0.3901545-0.03432-0.8317405-0.412109-1.0839843l-3-2c-0.167581-0.1117509-0.364996-0.17029538-0.566407-0.1679688zm-4.074219 8.9160156-0.535156 0.3222654 3.9375 1.3125c0.354273 0.117579 0.566806 0.39451 0.644532 0.703125 0.122137-0.475371-0.101353-1.02285-0.644532-1.203125zm-5.2089839 4.5546874-6.3046875 4.728516c-0.3943203 0.290256-0.47845979 0.700415-0.375 1.058593 0.0512-0.202823 0.1592287-0.399766 0.375-0.558593l6.7050782-5.029297z" style="fill:#f4f4f7;opacity:.2"/>
  <path d="m 9,6.5 c -3,0 -5,2 -5,2 L 4.546875,9.046875 C 5.3295125,8.4577027 6.9135132,7.5 9,7.5 c 2.086487,0 3.670488,0.9577027 4.453125,1.546875 L 14,8.5 c 0,0 -2,-2 -5,-2 z m 0,2 C 7.3402354,8.5 6.019862,9.1020231 5.1464844,9.6464844 L 5.7890625,10.289063 C 6.6286556,9.8693325 7.7145186,9.5 9,9.5 c 1.285481,0 2.371344,0.3693325 3.210938,0.789063 L 12.853516,9.6464844 C 11.980138,9.1020231 10.659765,8.5 9,8.5 Z m 0,2 c -0.9576545,0 -1.8024846,0.205198 -2.5195312,0.480469 L 9,13.5 11.519531,10.980469 C 10.802485,10.705198 9.9576546,10.5 9,10.5 Z" style="opacity:.2"/>
  <path d="M 9,6 C 6,6 4,8 4,8 L 4.546875,8.546875 C 5.3295125,7.9577027 6.9135132,7 9,7 c 2.086487,0 3.670488,0.9577027 4.453125,1.546875 L 14,8 C 14,8 12,6 9,6 Z M 9,8 C 7.3402354,8 6.019862,8.6020231 5.1464844,9.1464844 L 5.7890625,9.7890625 C 6.6286556,9.3693325 7.7145186,9 9,9 c 1.285481,0 2.371344,0.3693325 3.210938,0.7890625 L 12.853516,9.1464844 C 11.980138,8.6020231 10.659765,8 9,8 Z m 0,2 C 8.0423455,10 7.1975154,10.205198 6.4804688,10.480469 L 9,13 11.519531,10.480469 C 10.802485,10.205198 9.9576546,10 9,10 Z" style="fill:#f4f4f7"/>
 </g>
</svg>
