<svg width="48" height="48" version="1.1" xmlns="http://www.w3.org/2000/svg">
 <g transform="matrix(2,0,0,2,2,2)">
  <rect x="1" y="1.5" width="20" height="20" rx="5" ry="5" style="opacity:.2"/>
  <rect x="1" y="1" width="20" height="20" rx="5" ry="5" style="fill:#d92113"/>
  <path d="m9.8110351 2.75-0.05127 0.4907226c-0.08785 0.8311234-0.3641286 2.5247173-0.4321289 2.6489259-0.0421212 0.0769387-0.1866567 0.1182162-0.4150391 0.1196287-0.4237977 0.002625-0.6911901 0.2056193-0.6567382 0.5004883 0.017696 0.1514564 0.087108 0.21626 0.2954101 0.2734375 0.3587145 0.098464 0.3540834 0.088514 0.1879883 0.3393555-0.1583298 0.2391159-0.1806179 0.3836921-0.207519 1.315918l-0.0195313 0.6274415-0.4199219 0.0195313c-0.2310402 0.01055-0.4335076 0.032964-0.4492187 0.048829-0.015711 0.015864 0.012012 0.4551545 0.061035 0.9765627 0.049025 0.521407 0.068239 1.035025 0.041504 1.142578-0.035755 0.143844-0.1774123 0.257276-0.5346676 0.427245-0.26712 0.127086-0.6048588 0.256304-0.7495118 0.288086-0.1446531 0.03178-0.4051117 0.124402-0.5810546 0.205078-0.1759427 0.08067-0.4162572 0.147976-0.5322266 0.148926-0.3481448 0.177246-0.5025949 0.455788-0.7500003 0.693359-0.119307 0.114566-0.3407244 0.347757-0.4077148 0.554199l-0.1904297 0.588379v4.341309s0 1 1 1h12c1 0 1-1 1-1s0.01312-0.381211 0-1c-0.02615-1.236844 0 0 0-2-0.143325-0.275887-0.162321-0.745314-0.288624-1.092285-0.126254-0.346972-0.434722-1.144179-0.683543-1.77002-0.248821-0.62584-0.491868-1.267378-0.541993-1.425781-0.108635-0.343323-0.235463-0.459001-0.566406-0.527344-0.304979-0.06298-0.398289-0.327977-0.336914-0.9497067 0.047319-0.4793427 0.01889-0.5398303-0.573731-1.2426758-0.308833-0.3662735-0.372288-0.406985-0.659179-0.4077149-0.189691-4.834e-4 -0.460417-0.0780125-0.668946-0.1928711-0.192358-0.10595-0.461421-0.2466-0.598144-0.3125l-0.249024-0.1196289 0.119629-0.4125976c0.140523-0.4860889 0.554583-1.4325706 0.9375-2.1484375 0.259386-0.4849251 0.265975-0.5176903 0.13916-0.6591798-0.13944-0.1555767-1.279653-0.7651812-1.748047-0.9350584-0.149611-0.0542609-0.341753-0.1306697-0.427246-0.1684571-0.363274-0.1605666-1.344173-0.3857422-1.679687-0.3857422zm2.8955079 5.3735351c0.02977-0.019836 0.08357-0.010637 0.178223 0.012213 0.302925 0.073109 0.330096 0.095335 0.332031 0.2880859 9.5e-4 0.094566 0.07022 0.2607488 0.153809 0.3686524 0.08359 0.1079037 0.152857 0.3056191 0.153808 0.4394531 3e-3 0.4145752 0.162999 0.7610703 0.527344 1.1425785 0.365328 0.382517 0.400853 0.615235 0.09521 0.615235-0.262954 0-0.26212 0.207069 0 0.637207 0.291905 0.479013 0.741804 1.806011 0.673829 1.984863-0.07652 0.20136-0.160795 0.152525-0.590819-0.346685-0.269381-0.312726-0.596068-0.579079-0.964355-0.786133-0.619693-0.348398-0.984508-0.644501-0.983887-0.79834 2.32e-4 -0.05602 0.210064-0.37744 0.466309-0.71289 0.256245-0.335451 0.466309-0.641995 0.466309-0.683595s-0.139075-0.171393-0.310059-0.2856444c-0.322635-0.215584-0.396117-0.3417968-0.195313-0.3417968 0.156773 0 0.146771-0.1035413-0.04639-0.4858398-0.131489-0.2602449-0.144392-0.3579926-0.07568-0.510254 0.04678-0.1036692 0.08301-0.2766058 0.08301-0.3833008 0-0.085907 0.0069-0.1339726 0.03662-0.1538086zm1.00586 0.3076173c0.02565-0.026666 0.091-0.013545 0.192871 0.041504 0.09474 0.051194 0.141096 0.1333018 0.11475 0.2026368-0.06196 0.1630296-0.161773 0.145871-0.263673-0.046386-0.055-0.1037775-0.06959-0.1710882-0.04395-0.1977538z" style="opacity:.1"/>
  <path d="m9.8110351 2.25-0.05127 0.4907226c-0.08785 0.8311234-0.3641286 2.5247173-0.4321289 2.6489259-0.0421212 0.0769387-0.1866567 0.1182162-0.4150391 0.1196287-0.4237977 0.002625-0.6911901 0.2056193-0.6567382 0.5004883 0.017696 0.1514564 0.087108 0.21626 0.2954101 0.2734375 0.3587145 0.098464 0.3540834 0.088514 0.1879883 0.3393555-0.1583298 0.2391159-0.1806179 0.3836921-0.207519 1.315918l-0.0195313 0.6274415-0.4199219 0.0195313c-0.2310402 0.01055-0.4335076 0.032964-0.4492187 0.048829-0.015711 0.015864 0.012012 0.4551545 0.061035 0.9765625 0.049025 0.5214072 0.068239 1.0350252 0.041504 1.1425782-0.035755 0.143844-0.1774123 0.257276-0.5346676 0.427245-0.26712 0.127086-0.6048588 0.256304-0.7495118 0.288086-0.1446531 0.03178-0.4051117 0.124402-0.5810546 0.205078-0.1759427 0.08067-0.4162572 0.147976-0.5322266 0.148926-0.3481448 0.177246-0.5025949 0.455788-0.7500003 0.693359-0.119307 0.114566-0.3407244 0.347757-0.4077148 0.554199l-0.1904297 0.588379v4.341309s0 1 1 1h12c1 0 1-1 1-1s0.01312-0.381211 0-1c-0.02615-1.236844 0 0 0-2-0.143325-0.275887-0.162321-0.745314-0.288624-1.092285-0.126254-0.346972-0.434722-1.144179-0.683543-1.77002-0.248821-0.62584-0.491868-1.267378-0.541993-1.425781-0.108635-0.343323-0.235463-0.459001-0.566406-0.527344-0.304979-0.06298-0.398289-0.3279766-0.336914-0.9497067 0.047319-0.4793427 0.01889-0.5398303-0.573731-1.2426758-0.308833-0.3662735-0.372288-0.406985-0.659179-0.4077149-0.189691-4.834e-4 -0.460417-0.0780125-0.668946-0.1928711-0.192358-0.10595-0.461421-0.2466-0.598144-0.3125l-0.249024-0.1196289 0.119629-0.4125976c0.140523-0.4860889 0.554583-1.4325706 0.9375-2.1484375 0.259386-0.4849251 0.265975-0.5176903 0.13916-0.6591798-0.13944-0.1555767-1.279653-0.7651812-1.748047-0.9350584-0.149611-0.0542609-0.341753-0.1306697-0.427246-0.1684571-0.363274-0.1605666-1.344173-0.3857422-1.679687-0.3857422zm2.8955079 5.3735351c0.02977-0.019836 0.08357-0.010637 0.178223 0.012213 0.302925 0.073109 0.330096 0.095335 0.332031 0.2880859 9.5e-4 0.094566 0.07022 0.2607488 0.153809 0.3686524 0.08359 0.1079037 0.152857 0.3056191 0.153808 0.4394531 3e-3 0.4145752 0.162999 0.7610703 0.527344 1.1425781 0.365328 0.3825174 0.400853 0.6152354 0.09521 0.6152354-0.262954 0-0.26212 0.207069 0 0.637207 0.291905 0.479013 0.741804 1.806011 0.673829 1.984863-0.07652 0.20136-0.160795 0.152525-0.590819-0.346685-0.269381-0.312726-0.596068-0.579079-0.964355-0.786133-0.619693-0.348398-0.984508-0.644501-0.983887-0.79834 2.32e-4 -0.05602 0.210064-0.37744 0.466309-0.71289 0.256245-0.335451 0.466309-0.6419947 0.466309-0.6835947s-0.139075-0.1713934-0.310059-0.2856447c-0.322635-0.215584-0.396117-0.3417968-0.195313-0.3417968 0.156773 0 0.146771-0.1035413-0.04639-0.4858398-0.131489-0.2602449-0.144392-0.3579926-0.07568-0.510254 0.04678-0.1036692 0.08301-0.2766058 0.08301-0.3833008 0-0.085907 0.0069-0.1339726 0.03662-0.1538086zm1.00586 0.3076173c0.02565-0.026666 0.091-0.013545 0.192871 0.041504 0.09474 0.051194 0.141096 0.1333018 0.11475 0.2026368-0.06196 0.1630296-0.161773 0.145871-0.263673-0.046386-0.055-0.1037775-0.06959-0.1710882-0.04395-0.1977538z" style="fill:#3f3f3f"/>
  <path d="m9.5498048 5.4555664c0.6348822 0.096574 2.7832202 0.920809 3.1274412 1.2353516 0.108413 0.099066 0.118504 0.1695024 0.05371 0.427246-0.04288 0.1705834-0.100093 0.310655-0.126953 0.3100586-0.026859-5.984e-4 -0.468491-0.2869931-0.981444-0.637207-0.883654-0.6033059-1.761999-1.0905201-2.1533207-1.1938476-0.1317375-0.034785-0.1531719-0.0683625-0.0878901-0.1342774 0.019267-0.019454 0.07776-0.02112 0.1684566-0.00732z" style="fill:#f1d204"/>
  <path d="m6 1c-2.77 0-5 2.23-5 5v0.5c0-2.77 2.23-5 5-5h10c2.77 0 5 2.23 5 5v-0.5c0-2.77-2.23-5-5-5z" style="fill:#f4f4f7;opacity:.2"/>
 </g>
</svg>
