<svg xmlns="http://www.w3.org/2000/svg" width="48" height="48" version="1">
 <path style="opacity:0.2" d="M 15.476496,5.0006902 C 15.06472,4.9941602 14.652467,5.0339202 14.246437,5.1239436 12.373236,5.5392612 10.688265,6.8170243 9.875924,8.7843778 9.7384057,9.117422 9.4135855,10.098908 9.4412121,11.161411 c -0.5561544,0.234291 -1.0998679,0.500292 -1.5380617,0.886251 -1.6191871,1.426119 -2.3680338,3.48576 -1.9318366,5.673576 0.042776,0.214663 0.049068,0.08898 0.085773,0.230855 -0.5994669,0.519719 -1.0998195,1.101498 -1.3509211,1.588602 -1.3251245,2.570592 -0.5329601,4.758004 0.3235973,6.782856 0.8565572,2.024852 2.1786938,4.264244 4.0605607,7.123271 1.7373883,2.639545 3.1088313,4.380166 4.7915783,5.988557 4.772952,4.562067 10.652611,6.562097 16.413789,5.084697 4.635515,-1.188745 8.612213,-4.164028 10.918483,-8.301028 2.232436,-4.004583 3.063649,-9.14411 2.705741,-14.168286 -0.179807,-2.524061 -0.382739,-4.368533 -1.171579,-6.217455 -0.394421,-0.924461 -1.004152,-1.92033 -2.023457,-2.69397 -1.019303,-0.773641 -2.374357,-1.139484 -3.452354,-1.138628 h -0.0019 c -1.658546,0.0018 -3.776941,0.98718 -4.906593,2.380945 C 29.858888,10.450702 27.969781,7.7673378 25.332567,6.2371383 23.659258,5.2662303 21.223212,4.7545306 19.041914,6.2469203 17.948172,5.4610172 16.711822,5.0202945 15.476496,5.0006902 Z"/>
 <path style="fill:#3f3f3f" d="m 15.476496,4.0006905 c -0.411776,-0.00653 -0.824029,0.03323 -1.230059,0.1232534 -1.873201,0.4153176 -3.558172,1.6930807 -4.370513,3.6604342 -0.1375183,0.3330442 -0.4623385,1.3145306 -0.4347119,2.3770329 -0.5561544,0.234291 -1.0998679,0.500292 -1.5380617,0.886251 -1.6191871,1.426119 -2.3680338,3.48576 -1.9318366,5.673576 0.042776,0.214663 0.049068,0.08898 0.085773,0.230855 -0.5994669,0.519719 -1.0998195,1.101498 -1.3509211,1.588602 -1.3251245,2.570592 -0.5329601,4.758004 0.3235973,6.782856 0.8565572,2.024852 2.1786938,4.264244 4.0605607,7.123271 1.7373883,2.639545 3.1088313,4.380166 4.7915783,5.988557 4.772952,4.562067 10.652611,6.562097 16.413789,5.084697 4.635515,-1.188745 8.612213,-4.164028 10.918483,-8.301028 2.232436,-4.004583 3.063649,-9.14411 2.705741,-14.168286 -0.179807,-2.524061 -0.382739,-4.368533 -1.171579,-6.217455 -0.394421,-0.924461 -1.004152,-1.92033 -2.023457,-2.69397 -1.019303,-0.773641 -2.374357,-1.139484 -3.452354,-1.138628 h -0.0019 c -1.658546,0.0018 -3.776941,0.98718 -4.906593,2.380945 C 29.858888,9.4507026 27.969781,6.7673381 25.332567,5.2371386 23.659258,4.2662306 21.223212,3.7545309 19.041914,5.2469206 17.948172,4.4610175 16.711822,4.0202948 15.476496,4.0006905 Z"/>
 <path style="opacity:0.2;fill:#f4f4f7" d="m 106.53763,-10.516129 c -1.108,0 -2,0.892 -2,2 v 1 c 0,-1.108 0.892,-2 2,-2 h 36 c 1.108,0 2,0.892 2,2 v -1 c 0,-1.108 -0.892,-2 -2,-2 z"/>
 <path style="opacity:0.2" d="m 29.28924,40.589262 c 3.613288,-0.923275 6.693136,-3.246453 8.437768,-6.364747 1.643656,-2.937832 2.51784,-7.640843 2.212944,-11.90549 C 39.604632,17.628849 38.868696,15.998737 37.272176,16 c -1.477568,0.0016 -2.373416,1.046206 -3.134104,4.046129 -0.156192,0.615965 -0.37216,1.256367 -0.479928,1.423125 -0.257224,0.398021 -0.873672,0.398021 -1.334912,0 -0.19324,-0.166758 -1.12536,-1.536858 -2.071376,-3.044672 -3.25056,-5.180896 -5.317264,-7.77373 -6.947616,-8.7163185 -0.882504,-0.510219 -1.798456,-0.539635 -2.294903,-0.0737 -0.642104,0.6026275 -0.44596,1.6667485 0.645111,3.4998965 4.934792,8.291071 4.91424,8.249338 4.10872,8.342512 -0.438488,0.05069 -0.08379,0.517833 -4.687183,-6.172625 -2.01428,-2.927485 -3.86704,-5.5161145 -4.117248,-5.7525035 -1.053552,-0.9953665 -2.881352,-0.5875249 -3.4432,0.7682935 -0.416641,1.005405 -0.313441,1.205439 3.834424,7.432259 2.503384,3.758122 3.850792,5.899149 3.8242,6.076638 -0.06888,0.45941 -0.450016,0.602219 -0.789824,0.295908 -0.160984,-0.145111 -1.716688,-2.18807 -3.45712,-4.539915 -1.740424,-2.351847 -3.343112,-4.426383 -3.56152,-4.610086 -0.873296,-0.734496 -1.991417,-0.704292 -2.882657,0.07789 -0.5305837,0.46564 -0.7872317,1.202462 -0.6528237,1.874186 0.05592,0.279619 1.5694237,2.512342 4.0510407,5.976202 3.376944,4.71359 3.9558,5.590198 3.921624,5.938891 -0.03488,0.355793 -0.09278,0.409081 -0.444528,0.409081 -0.360872,0 -0.546784,-0.188708 -1.725832,-1.751777 -4.889793,-6.482392 -5.183225,-6.804976 -6.1897767,-6.804976 -0.6682,0 -0.993344,0.174522 -1.250232,0.671061 -0.714784,1.381622 0.535424,4.326435 4.1773687,9.839596 1.663,2.517458 2.767432,3.899888 4.223512,5.28663 4.175192,3.976391 8.149759,5.259161 12.695847,4.097545 z"/>
 <path style="fill:#ffca34" d="m 29.28924,39.589262 c 3.613288,-0.923275 6.693136,-3.246453 8.437768,-6.364747 1.643656,-2.937832 2.51784,-7.640843 2.212944,-11.90549 C 39.604632,16.628849 38.868696,14.998737 37.272176,15 c -1.477568,0.0016 -2.373416,1.046206 -3.134104,4.046129 -0.156192,0.615965 -0.37216,1.256367 -0.479928,1.423125 -0.257224,0.398021 -0.873672,0.398021 -1.334912,0 -0.19324,-0.166758 -1.12536,-1.536858 -2.071376,-3.044672 -3.25056,-5.180896 -5.317264,-7.7737302 -6.947616,-8.7163182 -0.882504,-0.510219 -1.798456,-0.539635 -2.294903,-0.0737 -0.642104,0.602627 -0.44596,1.6667482 0.645111,3.4998962 4.934792,8.291071 4.91424,8.249338 4.10872,8.342512 -0.438488,0.05069 -0.08379,0.517833 -4.687183,-6.172625 -2.01428,-2.927485 -3.86704,-5.5161142 -4.117248,-5.7525032 -1.053552,-0.9953665 -2.881352,-0.5875249 -3.4432,0.768293 -0.416641,1.0054052 -0.313441,1.2054392 3.834424,7.4322592 2.503384,3.758122 3.850792,5.899149 3.8242,6.076638 -0.06888,0.45941 -0.450016,0.602219 -0.789824,0.295908 -0.160984,-0.145111 -1.716688,-2.18807 -3.45712,-4.539915 -1.740424,-2.351847 -3.343112,-4.426383 -3.56152,-4.610086 -0.873296,-0.734496 -1.991417,-0.704292 -2.882657,0.07789 -0.5305837,0.46564 -0.7872317,1.202462 -0.6528237,1.874186 0.05592,0.279619 1.5694237,2.512342 4.0510407,5.976202 3.376944,4.71359 3.9558,5.590198 3.921624,5.938891 -0.03488,0.355793 -0.09278,0.409081 -0.444528,0.409081 -0.360872,0 -0.546784,-0.188708 -1.725832,-1.751777 -4.889793,-6.482392 -5.183225,-6.804976 -6.1897767,-6.804976 -0.6682,0 -0.993344,0.174522 -1.250232,0.671061 -0.714784,1.381622 0.535424,4.326435 4.1773687,9.839596 1.663,2.517458 2.767432,3.899888 4.223512,5.28663 4.175192,3.976391 8.149759,5.259161 12.695847,4.097545 z"/>
 <path style="opacity:0.1;fill:#f4f4f7" d="M 15.476562 4 C 15.064787 3.99347 14.652124 4.0330235 14.246094 4.1230469 C 12.372893 4.5383645 10.687341 5.8178027 9.875 7.7851562 C 9.7374817 8.1182004 9.4137796 9.0996071 9.4414062 10.162109 C 8.8852518 10.3964 8.3405376 10.660916 7.9023438 11.046875 C 6.4617451 12.3157 5.7160841 14.088021 5.875 16.003906 C 6.0036188 14.478435 6.7165422 13.091284 7.9023438 12.046875 C 8.3405376 11.660916 8.8852518 11.3964 9.4414062 11.162109 C 9.4137797 10.099606 9.7374817 9.1182004 9.875 8.7851562 C 10.687341 6.8178027 12.372893 5.5383645 14.246094 5.1230469 C 14.652124 5.0330235 15.064787 4.99347 15.476562 5 C 16.711888 5.0196043 17.947274 5.4601906 19.041016 6.2460938 C 21.222314 4.7537041 23.658722 5.2654201 25.332031 6.2363281 C 27.969245 7.7665276 29.858137 10.449907 32.363281 14.380859 C 33.492933 12.987094 35.612938 12.0018 37.271484 12 L 37.273438 12 C 38.351434 11.999144 39.705306 12.365031 40.724609 13.138672 C 41.743914 13.912312 42.353626 14.909523 42.748047 15.833984 C 43.536887 17.682906 43.740115 19.52672 43.919922 22.050781 C 43.957296 22.575422 43.973175 23.10122 43.984375 23.626953 C 43.993668 22.768454 43.981043 21.908779 43.919922 21.050781 C 43.740115 18.52672 43.536887 16.682906 42.748047 14.833984 C 42.353626 13.909523 41.743914 12.912312 40.724609 12.138672 C 39.705306 11.365031 38.351434 10.999144 37.273438 11 L 37.271484 11 C 35.612938 11.0018 33.492933 11.987094 32.363281 13.380859 C 29.858137 9.449908 27.969245 6.7665276 25.332031 5.2363281 C 23.658722 4.2654201 21.222314 3.753704 19.041016 5.2460938 C 17.947274 4.4601906 16.711888 4.0196043 15.476562 4 z M 5.890625 17.117188 C 5.3726701 17.593338 4.9322618 18.104098 4.7070312 18.541016 C 4.0941279 19.729979 3.945288 20.834013 4.0351562 21.880859 C 4.094317 21.133735 4.2855932 20.358558 4.7070312 19.541016 C 4.9581328 19.053912 5.4571737 18.470891 6.0566406 17.951172 C 6.0199356 17.809297 6.0134791 17.935366 5.9707031 17.720703 C 5.9302003 17.517555 5.910945 17.317721 5.890625 17.117188 z"/>
 <path style="fill:#f4f4f7;opacity:0.2" d="M 15.554688 8 C 14.712603 7.9956391 13.86678 8.4729263 13.515625 9.3203125 C 13.358216 9.7001598 13.275957 9.9679574 13.457031 10.486328 C 13.477265 10.431232 13.491052 10.37961 13.515625 10.320312 C 14.077473 8.9644941 15.905432 8.5573679 16.958984 9.5527344 C 17.209192 9.7891234 19.061892 12.377202 21.076172 15.304688 C 25.679565 21.995146 25.325184 21.527252 25.763672 21.476562 C 26.154319 21.431377 26.346827 21.400663 25.892578 20.453125 C 25.84908 20.460048 25.814455 20.470688 25.763672 20.476562 C 25.325184 20.527252 25.679565 20.995145 21.076172 14.304688 C 19.061892 11.377202 17.209192 8.7891234 16.958984 8.5527344 C 16.563902 8.1794719 16.059938 8.0026165 15.554688 8 z M 22.011719 8.3046875 C 21.610362 8.291798 21.257989 8.4017981 21.009766 8.6347656 C 20.660214 8.9628267 20.568179 9.4347296 20.724609 10.085938 C 20.784923 9.9148248 20.874296 9.7619066 21.009766 9.6347656 C 21.506213 9.1688306 22.422183 9.1987654 23.304688 9.7089844 C 24.935039 10.651573 27.001393 13.242932 30.251953 18.423828 C 31.197969 19.931642 32.129026 21.301992 32.322266 21.46875 C 32.783506 21.866771 33.400979 21.866771 33.658203 21.46875 C 33.765971 21.301992 33.98248 20.66284 34.138672 20.046875 C 34.89936 17.046952 35.793916 16.0016 37.271484 16 C 38.868004 15.998737 39.604133 17.628183 39.939453 22.318359 C 39.967335 22.708348 39.9759 23.104365 39.984375 23.5 C 39.997954 22.767443 39.990801 22.036576 39.939453 21.318359 C 39.604133 16.628183 38.868004 14.998737 37.271484 15 C 35.793916 15.0016 34.89936 16.046952 34.138672 19.046875 C 33.98248 19.66284 33.765971 20.301992 33.658203 20.46875 C 33.400979 20.866771 32.783506 20.866771 32.322266 20.46875 C 32.129026 20.301992 31.197969 18.931642 30.251953 17.423828 C 27.001393 12.242932 24.935039 9.6515724 23.304688 8.7089844 C 22.863436 8.4538749 22.413076 8.317577 22.011719 8.3046875 z M 11.931641 13.445312 C 11.431543 13.458824 10.928042 13.661643 10.482422 14.052734 C 9.9518382 14.518374 9.6956701 15.25601 9.8300781 15.927734 C 9.8325103 15.939896 9.8768589 16.005898 9.8847656 16.025391 C 9.9902485 15.656532 10.187349 15.311691 10.482422 15.052734 C 11.373662 14.270552 12.491938 14.240113 13.365234 14.974609 C 13.583642 15.158312 15.18731 17.234091 16.927734 19.585938 C 18.668166 21.937782 20.223782 23.979889 20.384766 24.125 C 20.724574 24.431311 21.104948 24.287535 21.173828 23.828125 C 21.180912 23.780843 21.074433 23.575279 20.890625 23.255859 C 20.742307 23.317149 20.55904 23.282095 20.384766 23.125 C 20.223782 22.979889 18.668166 20.937782 16.927734 18.585938 C 15.18731 16.234091 13.583642 14.158312 13.365234 13.974609 C 12.928586 13.607361 12.431738 13.431801 11.931641 13.445312 z M 9.4433594 19.695312 C 8.7751594 19.695312 8.4502474 19.868695 8.1933594 20.365234 C 8.0063333 20.726741 7.9611051 21.203321 8.0507812 21.796875 C 8.0829233 21.640592 8.1269049 21.493686 8.1933594 21.365234 C 8.4502474 20.868695 8.7751594 20.695312 9.4433594 20.695312 C 10.449911 20.695312 10.743019 21.017608 15.632812 27.5 C 16.811861 29.063069 16.99655 29.251953 17.357422 29.251953 C 17.70917 29.251953 17.767854 29.19759 17.802734 28.841797 C 17.813052 28.736527 17.726005 28.530832 17.564453 28.238281 C 17.510031 28.247955 17.442174 28.251953 17.357422 28.251953 C 16.99655 28.251953 16.811861 28.063069 15.632812 26.5 C 10.743019 20.017608 10.449911 19.695312 9.4433594 19.695312 z"/>
</svg>
