<svg xmlns="http://www.w3.org/2000/svg" width="48" height="48" version="1.1">
 <path style="opacity:0.2" d="m 26.296686,5.00178 c -2.08734,-0.0328 -4.091022,0.38852 -5.961153,1.19721 -4.274587,1.8484 -7.835626,5.60358 -10.555072,10.30804 -2.71762,4.70128 -4.2044934,9.62661 -3.6739618,14.23361 0.5305315,4.60701 3.1773978,8.81744 8.2991298,11.77085 5.121731,2.95341 10.094997,3.13712 14.354038,1.2929 4.25904,-1.84423 7.784715,-5.59113 10.502335,-10.29241 2.719446,-4.70446 4.171923,-9.62485 3.623179,-14.22385 C 42.336436,14.68912 39.696226,10.4881 34.646599,7.51337 32.117335,6.02338 29.608446,5.23171 27.19711,5.04475 26.895693,5.02135 26.594878,5.00645 26.296686,5.00175 Z"/>
 <path style="fill:#daf8e0" d="M 26.296686,4.00214 C 24.209346,3.96934 22.205664,4.39066 20.335533,5.19935 16.060946,7.04775 12.499907,10.80293 9.780461,15.50739 7.062841,20.20867 5.5759676,25.134 6.1064992,29.741 c 0.5305315,4.60701 3.1773978,8.81744 8.2991298,11.77085 5.121731,2.95341 10.094997,3.13712 14.354038,1.2929 4.25904,-1.84423 7.784715,-5.59113 10.502335,-10.29241 2.719446,-4.70446 4.171923,-9.62485 3.623179,-14.22385 C 42.336436,13.68948 39.696226,9.48846 34.646599,6.51373 32.117335,5.02374 29.608446,4.23207 27.19711,4.04511 26.895693,4.02171 26.594878,4.00681 26.296686,4.00211 Z"/>
 <path style="fill:#3aa24e" d="m 25.549507,6.01494 c -1.510417,0.0764 -2.958506,0.44072 -4.352644,1.04138 -3.717702,1.60175 -7.060242,5.01661 -9.658799,9.49558 -2.6004232,4.48217 -3.9075135,9.03281 -3.4470062,13.01718 0.4605071,3.98438 2.5886802,7.48122 7.2949672,10.18519 4.706284,2.70397 8.814755,2.79011 12.51335,1.19441 3.698595,-1.59572 7.006511,-4.9995 9.606934,-9.48168 2.598557,-4.47895 3.872029,-9.01309 3.395142,-12.99532 C 40.424563,14.48946 38.288374,10.98213 33.648375,8.25866 31.332922,6.8996 29.151038,6.1979 27.081509,6.0368 26.564126,5.9965 26.052979,5.9895 25.549507,6.0149 Z"/>
 <path style="opacity:0.2" d="M 25 6.0683594 C 24.320826 6.1347161 23.654664 6.2578287 23 6.4355469 L 23 14.042969 L 15.095703 18.599609 L 11.539062 16.548828 C 11.538325 16.550098 11.537846 16.551464 11.537109 16.552734 C 11.19737 17.13832 10.884374 17.724039 10.589844 18.310547 L 14 20.275391 L 14 30.011719 L 8.9628906 32.917969 C 9.2135657 33.527495 9.5196031 34.120875 9.8808594 34.697266 L 15.345703 31.542969 L 23 35.958984 L 23 41.976562 C 23.678484 41.973746 24.347737 41.93575 25 41.822266 L 25 35.958984 L 33.097656 31.289062 L 36.419922 33.205078 C 36.784375 32.657955 37.139513 32.093602 37.480469 31.507812 L 34 29.501953 L 34 20.791016 L 40.648438 17.035156 C 40.495075 16.373426 40.270889 15.73163 40.009766 15.101562 L 33.353516 18.859375 L 25 14.041016 L 25 6.0683594 z M 24 15.775391 L 32 20.388672 L 32 29.611328 L 24 34.224609 L 16 29.611328 L 16 20.388672 L 24 15.775391 z"/>
 <path style="opacity:0.2" d="m 25.548828,6.015625 c -1.510417,0.0764 -2.957424,0.4403556 -4.351562,1.0410156 -3.717702,1.60175 -7.0616,5.0171234 -9.660157,9.4960934 -2.3664473,4.078883 -3.6448224,8.207946 -3.5117184,11.921875 0.1075651,-3.448616 1.3556524,-7.205612 3.5117184,-10.921875 2.598557,-4.47897 5.942455,-7.8943434 9.660157,-9.4960934 1.394138,-0.60066 2.841145,-0.9646156 4.351562,-1.0410156 0.503472,-0.0254 1.01582,-0.018816 1.533203,0.021484 2.069529,0.1611 4.250953,0.8616431 6.566407,2.2207031 4.639998,2.7234709 6.777018,6.2326239 7.253906,10.2148439 0.04457,0.372197 0.05793,0.753422 0.07227,1.134766 0.02103,-0.724756 0.01089,-1.440355 -0.07227,-2.134766 C 40.425456,14.490436 38.288436,10.981283 33.648438,8.2578125 31.332984,6.8987525 29.15156,6.1982094 27.082031,6.0371094 26.564648,5.9968094 26.0523,5.990225 25.548828,6.015625 Z"/>
 <path style="fill:none;stroke:#daf8e0;stroke-width:2.00005102" d="m 23.999999,13.620168 8.999407,5.189918 10e-7,10.379836 L 24,34.379841 l -8.999407,-5.189918 10e-7,-10.379838 z"/>
 <path style="fill:none;stroke:#daf8e0;stroke-width:2" d="m 33.194099,19.0971 7.334273,-4.14086"/>
 <path style="fill:none;stroke:#daf8e0;stroke-width:2" d="M 24,14 V 5"/>
 <path style="fill:none;stroke:#daf8e0;stroke-width:2" d="m 24,34 v 9"/>
 <path style="fill:none;stroke:#daf8e0;stroke-width:2" d="M 15.690734,29.19121 8.858977,33.13106"/>
 <path style="fill:none;stroke:#daf8e0;stroke-width:2" d="m 33.194099,29.19121 4.842175,2.79246"/>
 <path style="fill:none;stroke:#daf8e0;stroke-width:2" d="M 15.690735,19.0971 10.848559,16.30464"/>
 <path style="opacity:0.2;fill:#f4f4f7" d="m 26.296875,4.0019531 c -2.08734,-0.0328 -4.090807,0.3885756 -5.960937,1.1972657 C 16.06135,7.0476187 12.500696,10.803352 9.78125,15.507812 7.3244065,19.757969 5.8892382,24.188659 6.0253906,28.404297 6.1269966,24.491454 7.5179473,20.423157 9.78125,16.507812 c 2.719446,-4.70446 6.2801,-8.4601933 10.554688,-10.3085932 1.87013,-0.8086901 3.873597,-1.2300657 5.960937,-1.1972657 0.298192,0.0047 0.598974,0.019569 0.900391,0.042969 2.411336,0.18696 4.919954,0.97876 7.449218,2.46875 5.049627,2.9747299 7.689537,7.1763799 8.238282,11.7753899 0.05441,0.456025 0.07407,0.917087 0.08984,1.378907 0.01912,-0.799935 0.0037,-1.594986 -0.08984,-2.378907 -0.548745,-4.59901 -3.188655,-8.8006599 -8.238282,-11.7753899 -2.529264,-1.48999 -5.037882,-2.28179 -7.449218,-2.46875 -0.301417,-0.0234 -0.602199,-0.038269 -0.900391,-0.042969 z"/>
</svg>
