<svg xmlns="http://www.w3.org/2000/svg" width="48" height="48" version="1.1">
 <circle style="opacity:0.2" cx="24" cy="25" r="20"/>
 <circle style="fill:#b2bfd9" cx="24" cy="24" r="20"/>
 <path style="opacity:0.1" d="m 22.595703,11.005859 c -2.043024,0.06764 -4.349474,0.703234 -6.589844,2.326172 -2.325927,1.684921 -3.344416,2.145021 -4.472656,2.705078 0.989218,0.07548 6.817798,-0.742777 8.017578,2.597657 -4.218383,1.397552 -5.902802,3.65517 -5.417969,6.285156 1.16e-4,6.25e-4 -1.15e-4,0.0013 0,0.002 0.01976,0.125097 0.04572,0.250948 0.07617,0.378906 7.54e-4,0.0032 0.0012,0.0066 0.002,0.0098 0.0061,0.02329 0.01114,0.04697 0.01758,0.07031 0.09324,0.366742 0.219147,0.741597 0.404296,1.13086 0.270761,0.569253 0.583948,1.049214 0.925782,1.474609 0.0032,0.004 0.0066,0.0077 0.0098,0.01172 1.975908,2.447762 5.05395,2.850758 8.386719,5.080078 C 27.012072,35.122975 28.027446,36.165562 30,39 29.589808,35.083695 27.428946,30.036383 26.542969,27.8125 l -0.0039,-0.01172 c 2.771652,2.035476 6.055882,2.922241 9.927735,3.199219 -1.546941,-1.101179 -2.780852,-1.993297 -3.816406,-2.757812 -3.106664,-2.293547 -4.429579,-3.446677 -7.085938,-5.710938 -2.376171,0.119772 -2.116353,0.09934 -3.517578,0.179688 1.844701,2.603125 2.573815,6.425315 -0.798828,7.126953 -3.156979,0.656767 -6.601767,-2.067638 -5.736328,-4.986329 0.93977,-3.169354 5.39676,-2.559598 9.652343,-3.109374 4.255583,-0.549777 8.143706,-4.723345 10.482422,-7.8125 -3.106331,1.059869 -6.991858,2.038781 -11.332031,3.273437 -0.355746,0.1012 -0.739907,0.223307 -1.101562,0.328125 -0.0892,-0.181698 -0.180455,-0.364809 -0.263672,-0.568359 -0.788874,-1.929583 -1.024584,-4.664833 4.658203,-4.88086 -0.236266,-0.130508 -0.496503,-0.242488 -0.765625,-0.34375 -1.133823,-0.463409 -2.594718,-0.787093 -4.246094,-0.732422 z"/>
 <path style="opacity:0.2;fill:#f4f4f7" d="M 24,4 A 20,20 0 0 0 4,24 20,20 0 0 0 4.0215,24.582 20,20 0 0 1 24,5 20,20 0 0 1 43.979,24.418 20,20 0 0 0 44,24 20,20 0 0 0 24,4 Z"/>
 <path style="fill:#3aaaff" d="M 19.615748,17.790126 C 18.551588,14.25728 12.537856,15.114544 11.53264,15.037847 12.66088,14.47779 13.674073,14.684921 16,13 c 4.480739,-3.2458762 7.624375,-3.2890178 10,-2 -6.494613,0.246888 -3.650648,3.867396 -2.694051,5.731734 -1.21651,0.353358 -3.136863,0.886777 -3.690201,1.058392 z"/>
 <path style="fill:#008bff" d="m 35.647138,12.92877 c -2.338716,3.089156 -6.227072,7.262821 -10.482655,7.812598 -4.255583,0.549776 -8.712529,-0.05927 -9.652299,3.110085 -0.865439,2.918691 2.57834,5.643728 5.735319,4.986961 3.372643,-0.701638 2.64427,-4.524285 0.799569,-7.127411 C 23.448297,21.630653 22.623829,22.119772 25,22 l 1.54341,4.812483 C 27.429387,29.036366 29.589808,34.083695 30,38 28.027446,35.165562 27.012887,34.123912 23.955893,32.079062 20.040084,29.459742 16.468792,29.371068 14.633262,25.512007 12.801696,21.661284 15.625958,18.887461 19.964107,17.686201 26.16364,15.969509 31.505363,14.34193 35.647138,12.92877 Z"/>
 <path style="fill:#3aaaff" d="m 22.047072,21.711003 c 1.401225,-0.08035 1.140575,-0.05955 3.516746,-0.179322 C 29.10563,24.550696 30.279599,25.595284 36.467361,30 30.247829,29.555078 25.541963,27.536926 22.047072,21.711003 Z"/>
 <path style="fill:#00ccff" d="m 11.53264,15.037847 c 1.12824,-0.560057 2.147845,-1.021706 4.473772,-2.706627 4.480739,-3.2458762 9.224655,-2.5379958 11.60028,-1.248978 -6.494613,0.246888 -5.6578,1.54093 -5.681768,2.555381 -4.315038,-0.909555 -5.574937,0.327979 -10.392284,1.400224 z"/>
 <path style="fill:#008bff" d="m 27.606692,11.082242 c -6.494613,0.246888 -5.25734,3.785154 -4.300743,5.649492 -0.757884,0.22014 -1.079813,0.47093 -2.092949,0.739063 -4.087898,-7.283942 3.057243,-8.2315383 6.393692,-6.388555 z"/>
 <path style="fill:#00ccff" d="m 15.802738,27.326601 c -3.178108,-4.092205 -2.191371,-7.843069 4.031825,-9.791893 6.141263,-1.92317 11.6708,-3.192778 15.812575,-4.605938 -11.177123,4.258727 -25.573005,7.104389 -19.8444,14.397831 z"/>
</svg>
