<svg xmlns="http://www.w3.org/2000/svg" xmlns:xlink="http://www.w3.org/1999/xlink" width="48" height="48" version="1">
 <defs>
  <linearGradient id="linearGradient939">
   <stop style="stop-color:#00ffec" offset="0"/>
   <stop style="stop-color:#f4f4f7;stop-opacity:0" offset="1"/>
  </linearGradient>
  <linearGradient id="linearGradient940" x1="22.26" x2="21.73" y1="32.569" y2="30.835" gradientTransform="matrix(1.1631932,0.71996165,-0.67156989,1.2470102,13.839308,-27.700175)" gradientUnits="userSpaceOnUse" xlink:href="#linearGradient938"/>
  <linearGradient id="linearGradient938">
   <stop style="stop-color:#2bb5fe" offset="0"/>
   <stop style="stop-color:#2bb5fe;stop-opacity:0" offset="1"/>
  </linearGradient>
  <linearGradient id="linearGradient941" x1="-17.139" x2="-17.115" y1="28.185" y2="25.295" gradientTransform="matrix(1.2465271,0,0,1.1126096,3.1765718,-4.4649809)" gradientUnits="userSpaceOnUse" xlink:href="#linearGradient939"/>
  <linearGradient id="linearGradient967" x1="-17.139" x2="-17.115" y1="28.185" y2="25.295" gradientTransform="matrix(1.0318994,0,0,0.92103985,47.612354,0.58017691)" gradientUnits="userSpaceOnUse" xlink:href="#linearGradient939"/>
 </defs>
 <rect style="opacity:0.2" width="40" height="40" x="4" y="5" rx="12" ry="12"/>
 <rect style="fill:#10798b" width="40" height="40" x="4" y="4" rx="12" ry="12"/>
 <ellipse id="ellipse1121" style="opacity:0.2" cx="24.168" cy="23.992" rx="13.391" ry="13.008"/>
 <path style="opacity:0.1;fill:#f4f4f7" d="m 16,3.999999 c -6.648,0 -12,5.352 -12,12 v 1 c 0,-6.648 5.352,-12 12,-12 h 16 c 6.648,0 12,5.352 12,12 v -1 c 0,-6.648 -5.352,-12 -12,-12 z"/>
 <ellipse id="ellipse24" style="fill:#fcd0b8" cx="24.168" cy="22.992" rx="13.391" ry="13.008"/>
 <path style="fill:#f4f4f7" d="m 16.321804,23.348068 c 1.513489,-0.85975 4.113231,-0.0466 4.978323,1.559761 -0.08938,0.977515 -0.40448,1.975636 -0.634975,2.863226 -10e-4,0.0045 -0.0022,0.009 -0.0034,0.01353 -0.01246,0.02653 -0.02072,0.0553 -0.03383,0.08156 -0.258674,0.708529 -0.734017,1.301952 -1.348241,1.683157 -1.498965,0.927789 -3.415686,0.377197 -4.281114,-1.22978 -0.443364,-0.763358 -0.578427,-1.716762 -0.698456,-2.458435 0.171042,-0.996796 1.178966,-2.034237 2.021652,-2.512931 z"/>
 <ellipse id="ellipse28" style="fill:#006280" cx="-18.481" cy="26.142" rx="2.396" ry="2.858" transform="scale(-1,1)"/>
 <ellipse id="ellipse34" style="fill:#f4f4f7;stroke:#f4f4f7;stroke-width:0.6716826;stroke-linecap:round;stroke-linejoin:round;stroke-opacity:0" cx="26.427" cy="13.32" rx=".807" ry="1.233" transform="matrix(0.87274678,0.48817318,-0.44247193,0.89678235,0,0)"/>
 <path style="fill:#26a7b4" d="M 18.817724,25.974535 A 2.8941365,2.6559022 0 0 0 16.300773,27.319186 2.3959781,2.8585 0 0 0 18.482283,29 a 2.3959781,2.8585 0 0 0 2.341245,-2.278895 2.8941365,2.6559022 0 0 0 -2.005804,-0.74657 z"/>
 <path id="ellipse942" style="fill:#84fafe" d="M 18.995714,27.26144 A 2.8941365,2.6559022 0 0 0 16.805076,28.183309 2.3959781,2.8585 0 0 0 18.482283,29 2.3959781,2.8585 0 0 0 20.510906,27.659473 2.8941365,2.6559022 0 0 0 18.995714,27.26144 Z"/>
 <ellipse id="ellipse885" style="fill:#3f3f3f" cx="-18.495" cy="26.115" rx=".639" ry=".768" transform="scale(-1,1)"/>
 <path style="fill:#534735" d="m 17.61543,23.003111 c 1.410231,-0.05871 3.597631,0.95558 4.246449,2.160347 -0.01813,0.198265 -0.561752,-0.255629 -0.05764,0.7125 0.134192,0.257718 -0.0587,0.582554 -0.110017,0.802992 -0.72512,-1.483612 -3.295604,-3.092979 -4.782889,-2.711971 -0.938841,0.240509 -2.184435,0.9767 -2.611328,1.893554 0.171043,-0.996796 1.178473,-2.034652 2.021159,-2.513346 0.378372,-0.214937 0.824193,-0.324506 1.294271,-0.344076 z"/>
 <path style="fill:#f4f4f7" d="m 31.540075,23.348068 c -1.513489,-0.85975 -4.113231,-0.0466 -4.978323,1.559761 0.08938,0.977515 0.40448,1.975636 0.634975,2.863226 0.001,0.0045 0.0022,0.009 0.0034,0.01353 0.01246,0.02653 0.02072,0.0553 0.03383,0.08156 0.258674,0.708529 0.734017,1.301952 1.348242,1.683157 1.498964,0.927789 3.415685,0.377197 4.281113,-1.22978 0.443364,-0.763358 0.578427,-1.716762 0.698456,-2.458435 -0.171042,-0.996796 -1.178966,-2.034237 -2.021652,-2.512931 z"/>
 <ellipse id="ellipse955" style="fill:#006280" cx="-30.938" cy="26.242" rx="2.397" ry="2.759" transform="scale(-1,1)"/>
 <ellipse id="ellipse957" style="fill:#f4f4f7;stroke:#f4f4f7;stroke-width:0.65963709;stroke-linecap:round;stroke-linejoin:round;stroke-opacity:0" cx="37.766" cy="7.93" rx=".801" ry="1.198" transform="matrix(0.88008622,0.4748139,-0.4554192,0.89027712,0,0)"/>
 <path style="fill:#26a7b4" d="m 31.274195,26.080376 a 2.895618,2.5629899 0 0 0 -2.51824,1.29761 A 2.3972047,2.7585001 0 0 0 30.938582,29 2.3972047,2.7585001 0 0 0 33.281026,26.800828 2.895618,2.5629899 0 0 0 31.274195,26.080376 Z"/>
 <path style="fill:#84fafe" d="M 31.452276,27.322261 A 2.895618,2.5629899 0 0 0 29.260516,28.21188 2.3972047,2.7585001 0 0 0 30.938582,29 2.3972047,2.7585001 0 0 0 32.968243,27.70637 2.895618,2.5629899 0 0 0 31.452276,27.322261 Z"/>
 <ellipse id="ellipse963" style="fill:#3f3f3f" cx="-30.951" cy="26.216" rx=".639" ry=".741" transform="scale(-1,1)"/>
 <path style="fill:#534735" d="M 30.246449,23.003111 C 28.836218,22.944405 26.648818,23.958691 26,25.163458 c 0.01813,0.198265 0.561752,-0.255629 0.05765,0.7125 -0.134192,0.257718 0.0587,0.582554 0.110017,0.802992 0.72512,-1.483612 3.295604,-3.092979 4.782889,-2.711971 0.938841,0.240509 2.184435,0.9767 2.611328,1.893554 -0.171043,-0.996796 -1.178473,-2.034652 -2.021159,-2.513346 -0.378372,-0.214937 -0.824193,-0.324506 -1.294271,-0.344076 z"/>
 <path style="opacity:0.1" d="M 23.793873,5.0000008 C 19.545658,4.9982715 4.337782,7.5144328 8.8166906,33.500418 c 0.267472,2.174151 0.460125,3.254426 2.0889874,4.654615 l 1.992178,1.7125 c -1.016769,5.251963 0.650004,4.50947 1.705409,5.132467 0.246622,-1.578479 1.883208,-2.70042 -0.689133,-5.204957 1.285084,-1.014153 3.484362,-2.407875 2.482456,-4.223407 -1.790506,-3.244537 -2.887786,-6.302324 -3.010297,-8.806331 -0.05171,-1.056891 0.889624,-6.1887 2.293318,-6.556206 0.251532,-0.06585 1.028547,1.88068 1.276517,2.859387 0.299452,-1.947757 2.42048,-8.42399 2.482983,-7.424188 0.0636,1.017431 -0.378036,2.678132 -0.132047,4.434319 0.395006,2.820073 1.608023,5.715369 2.357064,5.3042 1.627271,-0.893256 2.990894,1.282368 4.930415,0.970675 0.798862,-0.128382 0.505284,-8.575887 0.958306,-8.18585 0.158317,0.136305 0.441378,1.148824 1.088603,2.329346 -9.23e-4,0.02085 5.39e-4,0.02631 0.0055,0.01001 0.319911,0.582106 0.726918,1.203773 1.2541,1.782564 1.314495,1.54786 2.263278,2.078966 4.571745,3.047688 0.103919,0.639644 0.153793,1.162566 0.140804,1.428054 -0.122509,2.504007 -1.219615,5.561794 -3.010122,8.806331 -1.00191,1.815532 1.197369,3.209254 2.482454,4.223407 -2.57239,2.504538 -0.935806,3.626479 -0.689182,5.204958 1.055403,-0.622997 2.722002,0.119496 1.705233,-5.132467 l 2.353505,-2.022996 c 1.355715,-0.82178 1.355387,-2.338085 1.596577,-3.606879 0.816596,-4.449686 1.066514,-8.227826 0.896971,-11.435831 0.01238,-0.0099 0.02362,-0.01976 0.03625,-0.02969 C 40.31956,12.371037 34.896347,8.1030791 30.360521,6.330538 27.728818,5.1790837 25.257677,4.9758611 24,5.0022444 c -0.06561,-0.00138 -0.134054,-0.00222 -0.206127,-0.00224 z M 16.956126,23.068486 c 0,0 -0.06365,-0.02665 0,0 0.09937,0.0416 0,0 0,0 z"/>
 <path style="fill:#c9d6e1" d="M 23.793873,4.0000008 C 19.545658,3.9982715 4.337782,6.5144328 8.8166906,32.500418 c 0.267472,2.174151 0.460125,3.254426 2.0889874,4.654615 l 1.992178,1.7125 c -1.016769,5.251963 0.650004,4.50947 1.705409,5.132467 0.246622,-1.578479 1.883208,-2.70042 -0.689133,-5.204957 1.285084,-1.014153 3.484362,-2.407875 2.482456,-4.223407 -1.790506,-3.244537 -2.887786,-6.302324 -3.010297,-8.806331 -0.05171,-1.056891 0.889624,-6.1887 2.293318,-6.556206 0.251532,-0.06585 1.028547,1.88068 1.276517,2.859387 0.299452,-1.947757 2.42048,-8.42399 2.482983,-7.424188 0.0636,1.017431 -0.378036,2.678132 -0.132047,4.434319 0.395006,2.820073 1.608023,5.715369 2.357064,5.3042 1.627271,-0.893256 2.990894,1.282368 4.930415,0.970675 0.798862,-0.128382 0.505284,-8.575887 0.958306,-8.18585 0.158317,0.136305 0.441378,1.148824 1.088603,2.329346 -9.23e-4,0.02085 5.39e-4,0.02631 0.0055,0.01001 0.319911,0.582106 0.726918,1.203773 1.2541,1.782564 1.521556,1.35802 2.239111,2.068854 4.571745,3.047718 0.103919,0.639644 0.153793,1.162566 0.140804,1.428054 -0.122509,2.504007 -1.219615,5.561794 -3.010122,8.806331 -1.00191,1.815532 1.197369,3.209254 2.482454,4.223407 -2.57239,2.504538 -0.935806,3.626479 -0.689182,5.204958 1.055403,-0.622997 2.722002,0.119496 1.705233,-5.132467 l 2.353505,-2.022996 c 1.355715,-0.82178 1.355387,-2.338085 1.596577,-3.606879 0.816596,-4.449686 1.066514,-8.227826 0.896971,-11.435831 0.01238,-0.0099 0.02362,-0.01976 0.03625,-0.02969 C 40.31956,11.371037 34.896347,7.1030791 30.360521,5.330538 27.728818,4.1790837 25.257677,3.9758611 24,4.0022444 c -0.06561,-0.00138 -0.134054,-0.00222 -0.206127,-0.00224 z M 16.956126,22.068486 c 0,0 -0.06365,-0.02665 0,0 0.09937,0.0416 0,0 0,0 z"/>
 <path style="opacity:0.2;fill:#f4f4f7" d="M 23.792969,4 C 20.043936,3.9984739 7.7685897,5.9687249 8.0117188,24.289062 8.2214495,6.8979999 20.113371,4.9985022 23.792969,5 c 0.07207,2e-5 0.141421,5.731e-4 0.207031,0.00195 1.257677,-0.026383 3.729625,0.1766707 6.361328,1.328125 4.384946,1.7135792 9.581064,5.776852 9.621094,15.441406 3.89e-4,-3.08e-4 0.0016,3.09e-4 0.002,0 C 40.31865,11.370384 34.897154,7.1026192 30.361328,5.3300781 27.729625,4.1786238 25.257677,3.9755698 24,4.0019531 23.93439,4.0005731 23.865042,4.00002 23.792969,4 Z M 19.40625,15.548828 c -0.07393,0.827009 -0.223202,1.852181 -0.15625,2.941406 0.04596,-1.131209 0.23323,-2.14539 0.189453,-2.845703 -0.0036,-0.0579 -0.01653,-0.08562 -0.0332,-0.0957 z m 20.560547,7.238281 c -0.0059,0.0049 -0.01139,0.01067 -0.01758,0.01563 0.0304,0.575171 0.03062,1.190325 0.0332,1.802735 0.01313,-0.630241 -2.75e-4,-1.225657 -0.01563,-1.81836 z m -5.386719,3.341797 c -0.203558,2.435067 -1.270312,5.351502 -2.976562,8.44336 -0.276096,0.500304 -0.293893,0.965218 -0.169922,1.402343 0.04093,-0.132478 0.09416,-0.26506 0.169922,-0.402343 1.790507,-3.244537 2.887256,-6.302634 3.009765,-8.806641 0.007,-0.142451 -0.0053,-0.367773 -0.0332,-0.636719 z m -21.160156,0.002 c -0.02768,0.268048 -0.04016,0.492626 -0.0332,0.634766 0.122511,2.504007 1.219259,5.562104 3.009765,8.806641 0.07576,0.137283 0.12899,0.269865 0.169922,0.402343 0.123972,-0.437125 0.106173,-0.902039 -0.169922,-1.402343 -1.7058,-3.091044 -2.772581,-6.006724 -2.976562,-8.441407 z m 1.019531,13.25586 c -0.177595,0.135936 -0.367718,0.283772 -0.525391,0.408203 0.847372,0.825036 1.23314,1.49913 1.367188,2.089844 0.141759,-0.694064 0.0076,-1.478405 -0.841797,-2.498047 z m 19.123047,0 c -0.849609,1.019794 -0.985518,1.803913 -0.84375,2.498047 0.134055,-0.590714 0.519799,-1.264808 1.367188,-2.089844 C 33.928631,39.67078 33.739655,39.522313 33.5625,39.386719 Z M 12.763672,39.75 c -0.154213,1.017587 -0.208206,1.808061 -0.148438,2.347656 0.02908,-0.597749 0.101462,-1.291711 0.283204,-2.230468 z m 22.472656,0 -0.134766,0.117188 c 0.181742,0.938757 0.254112,1.632719 0.283204,2.230468 0.05975,-0.539595 0.0058,-1.330069 -0.148438,-2.347656 z"/>
 <path style="opacity:0.5;fill:#f4f4f7" d="m 26.882812,9.9082031 0.455079,8.2187499 c 0.04759,-0.637399 0.110572,-1.048758 0.214843,-0.958984 0.158317,0.136305 0.440666,1.147603 1.087891,2.328125 -9.23e-4,0.02085 8.98e-4,0.02802 0.0059,0.01172 0.319911,0.582106 0.726725,1.202459 1.253907,1.78125 0.647551,0.67496 1.186138,1.162196 1.980457,1.656248 C 30.191806,19.600903 28.631794,15.6359 26.882812,9.9082031 Z m -9.21345,2.6087669 c -1.395864,2.969963 -2.036647,4.262576 -2.929128,7.692014 0.280508,-0.531651 0.595692,-0.909998 0.939454,-1 0.0998,-0.02613 0.286935,0.305206 0.486328,0.726563 0.372686,-2.871727 0.510703,-4.048014 1.503346,-7.418577 z m 4.135326,3.609983 0.447265,8.056641 c 0.895895,-0.127644 1.743106,0.507361 2.689453,0.902344 -1.024147,-2.48343 -2.042834,-5.376649 -3.136718,-8.958985 z m 14.355911,1.863968 c 1.793867,3.941178 2.153036,12.333109 -2.375443,19.929001 0.311305,0.724448 2.661967,2.836322 2.564771,1.329483 3.723713,-13.013959 2.818047,-17.072757 -0.189328,-21.258484 z m -2.375443,19.929001 c -0.0841,0.157961 -0.153861,0.30087 -0.236328,0.457031 0.01525,0.01168 0.02976,0.02356 0.04492,0.03516 0.06412,-0.162748 0.129702,-0.320153 0.191406,-0.492187 z M 11.296875,19.279297 c -0.57409,6.060845 0.211391,12.474478 1.858932,19.461094 l 0.758325,0.05465 c 1.20324,0.544031 0.0064,-0.03339 0,-3e-6 0.188204,0.791996 -0.218508,-0.804613 0,0 l -7e-5,-1.21e-4 c 0.03459,-0.733071 1.1539,1.123484 0,0 0.463666,-0.365912 1.044348,-0.783279 1.552735,-1.25 C 13.265639,32.783442 11.743962,26.9118 11.296875,19.279297 Z"/>
 <path style="fill:#b96b6b" d="m 26.024377,32.878691 c -0.557255,0.544386 -1.391535,0.751018 -2.180352,0.540022 -0.78794,-0.212058 -1.406431,-0.807881 -1.616687,-1.557436 v 0 c 0.306605,0.471869 1.186289,0.925558 1.745592,1.07636 0.558907,0.147999 1.550943,0.195918 2.051447,-0.05895 z"/>
 <path style="opacity:0.1" d="m 13.947266,10.008234 c -0.09932,0.02007 -0.192341,0.08124 -0.253907,0.181641 0,0 -0.358198,1.133091 -0.646484,1.597656 -0.28828,0.464569 -0.991839,0.734508 -1.037109,1.15625 -0.07691,0.7164 0.35735,0.707625 0.847656,0.851563 0.513997,0.123389 0.989942,0.124206 1.458984,0.101562 0.02975,0.104777 0.08228,0.201846 0.169922,0.267578 0.184605,0.124098 0.355238,0.157829 0.5625,0.421876 0.143765,0.108127 0.322294,0.104674 0.46875,0.01953 0.173575,0.574526 0.359717,1.149832 0.703125,1.714843 0.302205,0.451303 0.455095,0.90295 1.027344,0.558594 0.336881,-0.20272 0.303109,-1.027429 0.585937,-1.496094 0.282842,-0.468655 1.097657,-1.257812 1.097657,-1.257812 0.122802,-0.201057 0.07371,-0.475114 -0.109375,-0.605469 -0.731368,-0.374717 -1.602344,-0.313567 -2.503907,-0.298828 -0.0061,-0.155815 -0.06776,-0.305689 -0.191406,-0.398437 l -0.560547,-0.421875 c -0.06924,-0.05207 -0.148161,-0.07085 -0.226562,-0.07617 -0.288467,-0.852955 -0.559798,-1.679615 -1.097656,-2.244141 -0.08854,-0.07007 -0.195603,-0.092337 -0.294922,-0.07227 z m 21.105468,0 c -0.09932,-0.02007 -0.206378,0.0022 -0.294922,0.07227 -0.537858,0.564526 -0.809189,1.391186 -1.097656,2.244141 -0.0784,0.0053 -0.157324,0.0241 -0.226562,0.07617 l -0.560547,0.421875 c -0.123651,0.09275 -0.185352,0.242622 -0.191406,0.398437 -0.901563,-0.01474 -1.772539,-0.07589 -2.503907,0.298828 -0.183081,0.130355 -0.232177,0.404412 -0.109375,0.605469 0,0 0.814815,0.789157 1.097657,1.257812 0.282828,0.468665 0.249056,1.293374 0.585937,1.496094 0.572249,0.344356 0.725139,-0.107291 1.027344,-0.558594 0.343408,-0.565011 0.52955,-1.140317 0.703125,-1.714843 0.146456,0.08514 0.324985,0.0886 0.46875,-0.01953 0.207262,-0.264047 0.377895,-0.297778 0.5625,-0.421876 0.08764,-0.06573 0.140167,-0.162801 0.169922,-0.267578 0.469042,0.02264 0.944987,0.02183 1.458984,-0.101562 0.490306,-0.143938 0.924566,-0.135163 0.847656,-0.851563 -0.04527,-0.421742 -0.748829,-0.691681 -1.037109,-1.15625 -0.288286,-0.464565 -0.646484,-1.597656 -0.646484,-1.597656 -0.06157,-0.100405 -0.154587,-0.16157 -0.253907,-0.181641 z M 16.730469,37.004328 c -0.05877,-0.007 -0.119102,-0.0028 -0.179688,0.01563 -0.784421,0.36384 -1.369835,1.0915 -1.982422,1.839844 -0.0877,-0.02455 -0.181333,-0.03401 -0.27539,-0.0078 l -0.759766,0.210938 c -0.167834,0.04652 -0.286864,0.175172 -0.347656,0.330078 -0.979639,-0.356422 -1.910266,-0.748101 -2.839844,-0.648437 -0.245477,0.06171 -0.3941031,0.315735 -0.330078,0.564453 0,0 0.616199,1.10318 0.761719,1.68164 0.145502,0.578464 -0.180129,1.395051 0.117187,1.726563 0.505041,0.563132 0.830796,0.167441 1.31836,-0.171875 0.572196,-0.438016 0.975237,-0.945099 1.365234,-1.457031 0.130286,0.141661 0.324398,0.212559 0.519531,0.158203 0.318527,-0.186988 0.514807,-0.156098 0.759766,-0.210938 0.11904,-0.03299 0.212166,-0.110556 0.28125,-0.205078 0.50373,0.200094 1.023402,0.378645 1.626953,0.449219 0.585844,0.04105 1.058742,0.216356 1.224609,-0.533203 0.09765,-0.441261 -0.577581,-0.980229 -0.730468,-1.556641 -0.152894,-0.57641 -0.150391,-1.851562 -0.150391,-1.851562 -0.04835,-0.186446 -0.202602,-0.313007 -0.378906,-0.333985 z m 14.539062,0 c -0.176304,0.02098 -0.330553,0.147539 -0.378906,0.333985 0,0 0.0025,1.275152 -0.150391,1.851562 -0.152887,0.576412 -0.828118,1.11538 -0.730468,1.556641 0.165867,0.749559 0.638765,0.574253 1.224609,0.533203 0.603551,-0.07057 1.123223,-0.249125 1.626953,-0.449219 0.06908,0.09452 0.16221,0.172084 0.28125,0.205078 0.244959,0.05484 0.441239,0.02395 0.759766,0.210938 0.195133,0.05436 0.389245,-0.01654 0.519531,-0.158203 0.389997,0.511932 0.793038,1.019015 1.365234,1.457031 0.487564,0.339316 0.813319,0.735007 1.31836,0.171875 0.297316,-0.331512 -0.02831,-1.148099 0.117187,-1.726563 0.14552,-0.57846 0.761719,-1.68164 0.761719,-1.68164 0.06403,-0.248718 -0.0846,-0.502743 -0.330078,-0.564453 -0.929578,-0.09966 -1.860205,0.292015 -2.839844,0.648437 -0.06079,-0.154906 -0.179822,-0.283554 -0.347656,-0.330078 l -0.759766,-0.210938 c -0.09406,-0.0262 -0.187687,-0.01674 -0.27539,0.0078 -0.612587,-0.748344 -1.198001,-1.476004 -1.982422,-1.839844 -0.06059,-0.01846 -0.12092,-0.02262 -0.179688,-0.01563 z"/>
 <g>
  <path style="fill:#ff616f" d="m 10.345657,37.743498 c -0.245477,0.06171 -0.3948521,0.317319 -0.330827,0.566037 0,0 0.616545,1.102755 0.762065,1.681215 0.145502,0.578464 -0.178817,1.395297 0.118499,1.726809 0.505041,0.563132 0.82936,0.166309 1.316924,-0.173007 0.825323,-0.631783 1.304717,-1.403953 1.889358,-2.133336 0.857981,0.328517 1.645443,0.748661 2.664805,0.867856 0.585844,0.04105 1.058037,0.216538 1.223904,-0.533021 0.09765,-0.441261 -0.577057,-0.980493 -0.729944,-1.556905 -0.152894,-0.57641 -0.15062,-1.851119 -0.15062,-1.851119 -0.06447,-0.248594 -0.317069,-0.392485 -0.559413,-0.318662 -1.062916,0.493015 -1.731409,1.638991 -2.646869,2.625005 -1.268211,-0.37923 -2.399666,-1.025049 -3.557882,-0.900872 z"/>
  <path style="fill:#e53c64" d="m 13.532929,38.063006 c -0.284633,0.0789 -0.453551,0.382308 -0.377122,0.677385 0.261537,0.382028 0.194447,0.743617 0.288141,1.115181 0.0765,0.294651 0.368768,0.469274 0.652941,0.390115 0.318527,-0.186988 0.516046,-0.156622 0.761005,-0.211462 0.284266,-0.07879 0.453187,-0.381571 0.377373,-0.676412 -0.178794,-0.348734 -0.380407,-0.691127 -0.28814,-1.115182 -0.07608,-0.295175 -0.368655,-0.470349 -0.653193,-0.391088 z"/>
  <path style="fill:#ff616f" d="m 37.654343,37.743498 c 0.245477,0.06171 0.394852,0.317319 0.330827,0.566037 0,0 -0.616545,1.102755 -0.762065,1.681215 -0.145502,0.578464 0.178817,1.395297 -0.118499,1.726809 -0.505041,0.563132 -0.82936,0.166309 -1.316924,-0.173007 -0.825323,-0.631783 -1.304717,-1.403953 -1.889358,-2.133336 -0.857981,0.328517 -1.645443,0.748661 -2.664805,0.867856 -0.585844,0.04105 -1.058037,0.216538 -1.223904,-0.533021 -0.09765,-0.441261 0.577057,-0.980493 0.729944,-1.556905 0.152894,-0.57641 0.15062,-1.851119 0.15062,-1.851119 0.06447,-0.248594 0.317069,-0.392485 0.559413,-0.318662 1.062916,0.493015 1.731409,1.638991 2.646869,2.625005 1.268211,-0.37923 2.399666,-1.025049 3.557882,-0.900872 z"/>
  <path style="fill:#e53c64" d="m 34.467071,38.063006 c 0.284633,0.0789 0.453551,0.382308 0.377122,0.677385 -0.261537,0.382028 -0.194447,0.743617 -0.288141,1.115181 -0.0765,0.294651 -0.368768,0.469274 -0.652941,0.390115 -0.318527,-0.186988 -0.516046,-0.156622 -0.761005,-0.211462 -0.284266,-0.07879 -0.453187,-0.381571 -0.377373,-0.676412 0.178794,-0.348734 0.380407,-0.691127 0.28814,-1.115182 0.07608,-0.295175 0.368655,-0.470349 0.653193,-0.391088 z"/>
  <path style="fill:#ff616f" d="m 18.82264,12.520348 c 0.183081,0.130355 0.232687,0.403233 0.109885,0.60429 0,0 -0.816291,0.789011 -1.099133,1.257666 -0.282828,0.468664 -0.249339,1.293565 -0.58622,1.496285 -0.572249,0.344356 -0.724774,-0.107731 -1.026979,-0.559034 -0.495286,-0.814898 -0.668139,-1.647901 -0.939112,-2.475329 -0.794131,0.02744 -1.556612,0.15792 -2.423277,-0.05013 -0.490306,-0.143938 -0.925853,-0.133553 -0.848943,-0.849953 0.04527,-0.421742 0.749377,-0.692646 1.037657,-1.157215 0.288286,-0.464565 0.647696,-1.596736 0.647696,-1.596736 0.123131,-0.2008101 0.370301,-0.2507595 0.547389,-0.1106168 0.728744,0.7648762 0.950161,1.9879018 1.418702,3.1449788 1.143688,0.05385 2.251192,-0.171032 3.162335,0.295794 z"/>
  <path style="fill:#e53c64" d="m 16.127883,11.822625 c 0.210202,0.157669 0.262229,0.478992 0.116153,0.71738 -0.321964,0.258575 -0.369626,0.600189 -0.551485,0.901153 -0.146013,0.237988 -0.434305,0.303002 -0.644058,0.145244 -0.207262,-0.264047 -0.377254,-0.297907 -0.561859,-0.422005 -0.209933,-0.157459 -0.262141,-0.478226 -0.116634,-0.716594 0.244921,-0.254498 0.506691,-0.496342 0.551485,-0.901154 0.145818,-0.238583 0.434517,-0.303992 0.644539,-0.146031 z"/>
  <path style="fill:#ff616f" d="m 30.17736,12.520348 c -0.183081,0.130355 -0.232687,0.403233 -0.109885,0.60429 0,0 0.816291,0.789011 1.099133,1.257666 0.282828,0.468664 0.249339,1.293565 0.58622,1.496285 0.572249,0.344356 0.724774,-0.107731 1.026979,-0.559034 0.495286,-0.814898 0.668139,-1.647901 0.939112,-2.475329 0.794131,0.02744 1.556612,0.15792 2.423277,-0.05013 0.490306,-0.143938 0.925853,-0.133553 0.848943,-0.849953 -0.04527,-0.421742 -0.749377,-0.692646 -1.037657,-1.157215 C 35.665196,10.322363 35.305786,9.190192 35.305786,9.190192 35.182655,8.9893819 34.935485,8.9394325 34.758397,9.0795752 c -0.728744,0.7648762 -0.950161,1.9879018 -1.418702,3.1449788 -1.143688,0.05385 -2.251192,-0.171032 -3.162335,0.295794 z"/>
  <path style="fill:#e53c64" d="m 32.872117,11.822625 c -0.210202,0.157669 -0.262229,0.478992 -0.116153,0.71738 0.321964,0.258575 0.369626,0.600189 0.551485,0.901153 0.146013,0.237988 0.434305,0.303002 0.644058,0.145244 0.207262,-0.264047 0.377254,-0.297907 0.561859,-0.422005 0.209933,-0.157459 0.262141,-0.478226 0.116634,-0.716594 -0.244921,-0.254498 -0.506691,-0.496342 -0.551485,-0.901154 -0.145818,-0.238583 -0.434517,-0.303992 -0.644539,-0.146031 z"/>
 </g>
</svg>
