<svg xmlns="http://www.w3.org/2000/svg" width="48" height="48" version="1">
 <path fill="#b2bfd9" d="m40 42v-36c0-1.108-0.892-2-2-2h-28c-1.108 0-2 0.892-2 2v36c0 1.108 0.892 2 2 2h28c1.108 0 2-0.892 2-2z"/>
 <path fill="#fff" opacity=".1" d="m10 4c-1.108 0-2 0.892-2 2v1c0-1.108 0.892-2 2-2h28c1.108 0 2 0.892 2 2v-1c0-1.108-0.892-2-2-2z"/>
 <path fill="#4c4c4c" d="m13 9h22v2h-22z"/>
 <path fill="#4c4c4c" d="m13 14h22v2h-22z"/>
 <path fill="#4c4c4c" d="m13 19h22v2h-22z"/>
 <path opacity=".5" d="m38 44c1.108 0 2-0.892 2-2v-17h-32v17c0 1.108 0.892 2 2 2z"/>
 <path fill="#b2bfd9" d="m13 29h22v2h-22z"/>
 <path fill="#b2bfd9" d="m13 34h22v2h-22z"/>
 <path fill="#b2bfd9" d="m13 39h22v2h-22z"/>
 <path opacity=".2" d="m8 42v1c0 1.108 0.892 2 2 2h28c1.108 0 2-0.892 2-2v-1c0 1.108-0.892 2-2 2h-28c-1.108 0-2-0.892-2-2z"/>
</svg>
