<svg xmlns="http://www.w3.org/2000/svg" width="48" height="48" version="1">
 <rect style="fill:#4f4f4f" width="40" height="28" x="4" y="10" rx="2" ry="2"/>
 <path fill="#fff" opacity=".1" d="m6 10c-1.108 0-2 0.892-2 2v1c0-1.108 0.892-2 2-2h36c1.108 0 2 0.892 2 2v-1c0-1.108-0.892-2-2-2h-36z"/>
 <path opacity=".2" d="m4 36v1c0 1.108 0.892 2 2 2h36c1.108 0 2-0.892 2-2v-1c0 1.108-0.892 2-2 2h-36c-1.108 0-2-0.892-2-2z"/>
 <circle style="opacity:.2" cx="9" cy="19" r="2"/>
 <circle style="opacity:.2" cx="15" cy="19" r="2"/>
 <circle style="opacity:.2" cx="21" cy="19" r="2"/>
 <circle style="opacity:.2" cx="27" cy="19" r="2"/>
 <circle style="opacity:.2" cx="33" cy="19" r="2"/>
 <circle style="opacity:.2" cx="39" cy="19" r="2"/>
 <circle style="opacity:.2" cx="12" cy="27" r="2"/>
 <circle style="opacity:.2" cx="18" cy="27" r="2"/>
 <circle style="opacity:.2" cx="24" cy="27" r="2"/>
 <circle style="opacity:.2" cx="30" cy="27" r="2"/>
 <circle style="opacity:.2" cx="36" cy="27" r="2"/>
 <rect style="opacity:.2" width="30" height="4" x="9" y="32" rx="1" ry="1"/>
 <circle style="fill:#b2bfd9" cx="9" cy="18" r="2"/>
 <circle style="fill:#b2bfd9" cx="15" cy="18" r="2"/>
 <circle style="fill:#b2bfd9" cx="21" cy="18" r="2"/>
 <circle style="fill:#b2bfd9" cx="27" cy="18" r="2"/>
 <circle style="fill:#b2bfd9" cx="33" cy="18" r="2"/>
 <circle style="fill:#b2bfd9" cx="39" cy="18" r="2"/>
 <circle style="fill:#b2bfd9" cx="12" cy="26" r="2"/>
 <circle style="fill:#b2bfd9" cx="18" cy="26" r="2"/>
 <circle style="fill:#b2bfd9" cx="24" cy="26" r="2"/>
 <circle style="fill:#b2bfd9" cx="30" cy="26" r="2"/>
 <circle style="fill:#b2bfd9" cx="36" cy="26" r="2"/>
 <rect style="fill:#b2bfd9" width="30" height="4" x="9" y="31" rx="1" ry="1"/>
 <circle style="fill:#f57f17" cx="36" cy="36" r="11"/>
 <path style="fill:#f4f4f7" d="m36 31c-4.7 0-7 3-8 5 1 2 3.3 5 8 5s7-3 8-5c-1-2-3.3-5-8-5zm0 2c1.6332 0 3 1.3668 3 3s-1.3668 3-3 3-3-1.3668-3-3 1.3668-3 3-3zm0 2c-0.5286 0-1 0.4714-1 1s0.4714 1 1 1 1-0.4714 1-1-0.4714-1-1-1z"/>
 <path style="opacity:.2" d="m46.979 36.414a11 11 0 0 1 -10.979 10.586 11 11 0 0 1 -10.979 -10.414 11 11 0 0 0 -0.021 0.414 11 11 0 0 0 11 11 11 11 0 0 0 11 -11 11 11 0 0 0 -0.021 -0.586z"/>
</svg>
