<svg xmlns="http://www.w3.org/2000/svg" width="48" height="48" version="1">
 <path style="opacity:.2" d="m43.99975 41.0003v-22s0.00025-2-2-2h-36c-1.99975 0-2 2-2 2v21.9997c0 1.108 0.892 2 2 2h36c1.108 0 2-0.892 2-2z"/>
 <path style="fill:#4877b1" d="m3.99975 36v-27.9999997c0-1.108 1.00025-2 2-2h13c2 0 2 1.601856 2 3.9999997h21.00025s2.00025 0 2.00025 2v24c0 1.108-0.892 2-2 2h-36c-1.108 0-2-0.892-2-2z"/>
 <path style="opacity:.2" d="m43.99975 39.0003v-22c0-1.108-0.89878-2.1224-2-2h-36c-2 0-2 1.9167-2 1.9167v22.083c0 1.108 0.892 2 2 2h36c1.108 0 2-0.892 2-2z"/>
 <rect style="fill:#dcdcdc" width="36" height="16" x="6" y="13" rx="2" ry="2"/>
 <path style="fill:#5294e2" d="m43.99975 40v-22s0.00025-2-2-2h-36c-1.99975 0-2 2-2 2v21.9997c0 1.108 0.892 2 2 2h36c1.108 0 2-0.892 2-2z"/>
 <path style="opacity:.1;fill:#f4f4f7" d="m5.99975 6.0000003c-0.99975 0-2 0.892-2 2v1c0-1.108 1.00025-2 2-2h13c2 0 2 1.601856 2 3.9999997h21.10352s1.89648 0 1.89648 2v-1c0-2-1.89648-2-1.89648-2h-21.10352c0-2.3981437 0-3.9999997-2-3.9999997z"/>
 <circle opacity=".2" cx="36" cy="37" r="11"/>
 <circle fill="#5db41e" cx="36" cy="36" r="11"/>
 <path style="fill:#f4f4f7" d="m36 30a6 6 0 0 0 -6 6 6 6 0 0 0 6 6 6 6 0 0 0 6 -6 6 6 0 0 0 -6 -6zm0 2a4 4 0 0 1 4 4 4 4 0 0 1 -4 4 4 4 0 0 1 -4 -4 4 4 0 0 1 4 -4z"/>
 <path style="fill:#f4f4f7" d="m36 28v6l4-3z"/>
 <path style="fill:#f4f4f7" d="m36 38v6l-4-3z"/>
</svg>
