<svg xmlns="http://www.w3.org/2000/svg" width="48" height="48" version="1">
 <path style="fill:#3c79ff" d="m40 42v-36c0-1.108-0.892-2-2-2h-28c-1.108 0-2 0.892-2 2v36c0 1.108 0.892 2 2 2h28c1.108 0 2-0.892 2-2z"/>
 <path fill="#fff" opacity=".2" d="m10 4c-1.108 0-2 0.892-2 2v1c0-1.108 0.892-2 2-2h28c1.108 0 2 0.892 2 2v-1c0-1.108-0.892-2-2-2z"/>
 <path opacity=".2" d="m8 42v1c0 1.108 0.892 2 2 2h28c1.108 0 2-0.892 2-2v-1c0 1.108-0.892 2-2 2h-28c-1.108 0-2-0.892-2-2z"/>
 <path style="opacity:0.1" d="m 24,16.978284 a 8,8 0 0 1 8,8 8,8 0 0 1 -1.382812,4.496094 l 4.943359,4.943359 a 1.50015,1.50015 0 1 1 -2.121094,2.121094 L 28.490234,31.589612 A 8,8 0 0 1 24,32.978284 a 8,8 0 0 1 -8,-8 8,8 0 0 1 8,-8 z m 0,3 a 5,5 0 0 0 -5,5 5,5 0 0 0 5,5 5,5 0 0 0 5,-5 5,5 0 0 0 -5,-5 z"/>
 <path style="fill:#f4f4f7" d="m 24,15.978284 a 8,8 0 0 1 8,8 8,8 0 0 1 -1.382812,4.496094 l 4.943359,4.943359 a 1.50015,1.50015 0 1 1 -2.121094,2.121094 L 28.490234,30.589612 A 8,8 0 0 1 24,31.978284 a 8,8 0 0 1 -8,-8 8,8 0 0 1 8,-8 z m 0,3 a 5,5 0 0 0 -5,5 5,5 0 0 0 5,5 5,5 0 0 0 5,-5 5,5 0 0 0 -5,-5 z"/>
</svg>
