<svg xmlns="http://www.w3.org/2000/svg" width="48" height="48" version="1.1">
 <path style="opacity:0.2" d="M 6,14 39,9 44,39 12,47 Z"/>
 <path style="fill:#969696" d="M 6,13 39,8 44,38 12,46 Z"/>
 <path style="opacity:0.2" d="M 5,13 40,10 44,39 8,45 Z"/>
 <path style="fill:#a8a8a8" d="M 5,12 40,9 44,38 8,44 Z"/>
 <rect style="opacity:0.2" width="40" height="34" x="4" y="8" rx="2" ry="2"/>
 <rect style="fill:#3aa5cc" width="40" height="34" x="4" y="7" rx="2" ry="2"/>
 <circle style="opacity:0.2" cx="35.5" cy="35.5" r="8.5"/>
 <circle style="fill:#f4f4f7" cx="35.5" cy="34.5" r="8.5"/>
 <circle style="opacity:0.2" cx="35.5" cy="35.5" r="6.5"/>
 <circle style="fill:#4a94d8" cx="35.5" cy="34.5" r="6.5"/>
 <path style="opacity:0.2;fill:#f4f4f7" d="M 6,7 C 4.892,7 4,7.892 4,9 V 10 C 4,8.892 4.892,8 6,8 H 42 C 43.108,8 44,8.892 44,10 V 9 C 44,7.892 43.108,7 42,7 Z"/>
</svg>
