<svg xmlns="http://www.w3.org/2000/svg" width="48" height="48" version="1">
 <path style="opacity:0.2" d="m 12.429688,4.7226562 c -0.09079,0.0093 -0.177907,0.050559 -0.246094,0.1191407 L 9.0292969,7.9960938 c -0.1326728,0.133053 -0.1583589,0.3388979 -0.060547,0.5 l 3.693359,6.0859372 c -0.655257,1.101607 -1.179331,2.288044 -1.554687,3.541016 L 4.3242188,19.535156 C 4.1355097,19.574216 4,19.741893 4,19.935547 v 4.460937 c 0,0.188703 0.128717,0.352532 0.3105469,0.396485 l 6.5839841,1.609375 c 0.351053,1.451149 0.894292,2.825473 1.613281,4.089844 L 8.6972656,36.302734 C 8.5909559,36.465124 8.612648,36.679617 8.75,36.816406 l 3.15625,3.15625 c 0.132674,0.132306 0.338219,0.157907 0.5,0.06055 l 5.972656,-3.626953 c 1.172896,0.676828 2.43655,1.209108 3.773438,1.570312 l 1.392578,6.699219 C 23.584122,44.865587 23.752904,45 23.945312,45 h 4.462891 c 0.1876,0 0.351708,-0.128451 0.396485,-0.3125 l 1.640624,-6.710938 c 1.378086,-0.37191 2.681351,-0.927176 3.882813,-1.634765 l 5.884766,3.857422 c 0.161793,0.106516 0.374381,0.08657 0.511718,-0.05078 l 3.15625,-3.15625 c 0.133482,-0.133427 0.156667,-0.339309 0.05859,-0.5 L 39.923828,31.40625 C 38.120793,28.933106 38.343783,29.185175 37.685547,28.482422 L 21.058594,11.009766 18.722656,8.7402344 c -0.382344,0.1337552 -0.229634,0.04889 -0.04883,-0.033203 L 12.697266,4.7871094 c -0.08111,-0.05307 -0.174858,-0.073793 -0.265625,-0.064453 z m 6.24414,3.984375 0.04492,0.029297 c 0.0021,0.0019 0.0034,0.0034 0.0039,0.00391 0.392221,-0.213652 0.153165,-0.1249164 -0.04883,-0.033203 z"/>
 <path id="path5692_2_-3" style="fill:#8e8e8e" d="M 12.429688 3.7226562 C 12.338897 3.7319563 12.251781 3.7732149 12.183594 3.8417969 L 9.0292969 6.9960938 C 8.8966241 7.1291468 8.870938 7.3349917 8.96875 7.4960938 L 12.662109 13.582031 C 12.006852 14.683638 11.482778 15.870075 11.107422 17.123047 L 4.3242188 18.535156 C 4.1355097 18.574216 4 18.741893 4 18.935547 L 4 23.396484 C 4 23.585187 4.128717 23.749016 4.3105469 23.792969 L 10.894531 25.402344 C 11.245584 26.853493 11.788823 28.227817 12.507812 29.492188 L 8.6972656 35.302734 C 8.5909559 35.465124 8.612648 35.679617 8.75 35.816406 L 11.90625 38.972656 C 12.038924 39.104962 12.244469 39.130563 12.40625 39.033203 L 18.378906 35.40625 C 19.551802 36.083078 20.815456 36.615358 22.152344 36.976562 L 23.544922 43.675781 C 23.584122 43.865587 23.752904 44 23.945312 44 L 28.408203 44 C 28.595803 44 28.759911 43.871549 28.804688 43.6875 L 30.445312 36.976562 C 31.823398 36.604652 33.126663 36.049386 34.328125 35.341797 L 40.212891 39.199219 C 40.374684 39.305735 40.587272 39.285787 40.724609 39.148438 L 43.880859 35.992188 C 44.014341 35.858761 44.037526 35.652879 43.939453 35.492188 L 39.923828 30.40625 C 38.120793 27.933106 38.343783 28.185175 37.685547 27.482422 L 21.058594 10.009766 L 18.722656 7.7402344 C 18.340312 7.8739896 18.493022 7.7891248 18.673828 7.7070312 L 12.697266 3.7871094 C 12.616156 3.7340394 12.522408 3.7133163 12.431641 3.7226562 L 12.429688 3.7226562 z M 18.673828 7.7070312 L 18.71875 7.7363281 C 18.72085 7.7382281 18.722112 7.7397294 18.722656 7.7402344 C 19.114877 7.5265824 18.875821 7.615318 18.673828 7.7070312 z"/>
 <path style="fill:#f4f4f7;opacity:0.1" d="M 12.429688 3.7226562 C 12.338896 3.7319563 12.251781 3.7732149 12.183594 3.8417969 L 9.0292969 6.9960938 C 8.8966241 7.1291468 8.870938 7.3349916 8.96875 7.4960938 L 9.1796875 7.8457031 L 12.183594 4.8417969 C 12.251781 4.7732152 12.338897 4.7319562 12.429688 4.7226562 L 12.431641 4.7226562 C 12.522408 4.7133163 12.616156 4.7340394 12.697266 4.7871094 L 18.673828 8.7070312 C 18.875823 8.6153179 19.114877 8.5265824 18.722656 8.7402344 L 21.058594 11.009766 L 37.685547 28.482422 C 38.343783 29.185175 38.120793 28.933106 39.923828 31.40625 L 43.693359 36.179688 L 43.880859 35.992188 C 44.014341 35.858761 44.037526 35.652878 43.939453 35.492188 L 39.923828 30.40625 C 38.120793 27.933106 38.343783 28.185175 37.685547 27.482422 L 21.058594 10.009766 L 18.722656 7.7402344 C 18.340312 7.8739896 18.493022 7.7891249 18.673828 7.7070312 L 12.697266 3.7871094 C 12.616156 3.7340394 12.522408 3.7133163 12.431641 3.7226562 L 12.429688 3.7226562 z M 18.673828 7.7070312 L 18.71875 7.7363281 C 18.72085 7.7382281 18.722112 7.7397294 18.722656 7.7402344 C 19.114877 7.5265824 18.875821 7.615318 18.673828 7.7070312 z M 18.722656 8.7402344 C 18.722156 8.7397244 18.72085 8.7382281 18.71875 8.7363281 L 18.673828 8.7070312 C 18.493024 8.7891243 18.340312 8.8739896 18.722656 8.7402344 z M 12.373047 14.105469 C 11.854328 15.057878 11.424484 16.064664 11.107422 17.123047 L 4.3242188 18.535156 C 4.1355097 18.574216 4 18.741893 4 18.935547 L 4 19.935547 C 4 19.741893 4.1355097 19.574216 4.3242188 19.535156 L 11.107422 18.123047 C 11.482778 16.870075 12.006852 15.683638 12.662109 14.582031 L 12.373047 14.105469 z M 12.216797 29.935547 L 8.6972656 35.302734 C 8.5909559 35.465124 8.612648 35.679617 8.75 35.816406 L 8.9101562 35.976562 L 12.507812 30.492188 C 12.404504 30.310515 12.3128 30.121662 12.216797 29.935547 z"/>
 <ellipse id="ellipse896" style="opacity:0.1" cx="27" cy="22" rx="14" ry="14"/>
 <ellipse id="ellipse8" style="fill:#365ee6" cx="27" cy="21" rx="14" ry="14"/>
 <path style="opacity:0.1" class="ColorScheme-Text" d="m 26.853494,12.001037 a 10.00151,10.000235 0 0 1 7.217887,2.929758 10.00151,10.000235 0 0 1 0,14.140958 10.00151,10.000235 0 0 1 -14.142762,0 10.00151,10.000235 0 0 1 0,-14.140958 10.00151,10.000235 0 0 1 6.924875,-2.929758 z m 0.273477,1.250031 a 8.7513214,8.7502071 0 0 0 -5.850491,2.143604 l 1.755635,1.755413 a 6.2505453,10.000873 45.008322 0 1 6.780809,-3.427816 8.7513214,8.7502071 0 0 0 -2.685953,-0.471201 z m 3.784752,1.633338 a 5.0004363,8.750764 45.007184 0 0 -6.993244,3.151929 l 3.081522,3.081129 5.689334,-5.688612 a 5.0004363,8.750764 45.007184 0 0 -1.777612,-0.544446 z m -10.526491,1.386751 a 8.7513214,8.7502071 0 0 0 -1.670175,8.513384 6.2505453,10.000873 45.008322 0 1 3.438019,-6.745765 z m 13.190467,0.03907 -5.691776,5.691053 3.08396,3.083568 a 5.0004363,8.750764 45.007184 0 0 2.607816,-8.774624 z M 23.032115,18.91771 A 5.0004363,8.750764 45.007184 0 0 20.4243,27.692328 l 5.691777,-5.691051 z m 12.252827,0.300298 a 6.2505453,10.000873 45.008322 0 1 -3.43802,6.745765 l 1.767845,1.76762 a 8.7513214,8.7502071 0 0 0 1.670175,-8.513385 z m -8.284941,3.667078 -5.689337,5.688612 a 5.0004363,8.750764 45.007184 0 0 8.770856,-2.607485 z m 3.967882,3.967379 a 6.2505453,10.000873 45.008322 0 1 -6.780808,3.427816 8.7513214,8.7502071 0 0 0 8.536446,-1.672403 z"/>
 <path style="fill:#fafafa" class="ColorScheme-Text" d="m 26.853494,11.001037 a 10.00151,10.000235 0 0 1 7.217887,2.929758 10.00151,10.000235 0 0 1 0,14.140958 10.00151,10.000235 0 0 1 -14.142762,0 10.00151,10.000235 0 0 1 0,-14.140958 10.00151,10.000235 0 0 1 6.924875,-2.929758 z m 0.273477,1.250031 a 8.7513214,8.7502071 0 0 0 -5.850491,2.143604 l 1.755635,1.755413 a 6.2505453,10.000873 45.008322 0 1 6.780809,-3.427816 8.7513214,8.7502071 0 0 0 -2.685953,-0.471201 z m 3.784752,1.633338 a 5.0004363,8.750764 45.007184 0 0 -6.993244,3.151929 l 3.081522,3.081129 5.689334,-5.688612 a 5.0004363,8.750764 45.007184 0 0 -1.777612,-0.544446 z m -10.526491,1.386751 a 8.7513214,8.7502071 0 0 0 -1.670175,8.513384 6.2505453,10.000873 45.008322 0 1 3.438019,-6.745765 z m 13.190467,0.03907 -5.691776,5.691053 3.08396,3.083568 a 5.0004363,8.750764 45.007184 0 0 2.607816,-8.774624 z M 23.032115,17.91771 A 5.0004363,8.750764 45.007184 0 0 20.4243,26.692328 l 5.691777,-5.691051 z m 12.252827,0.300298 a 6.2505453,10.000873 45.008322 0 1 -3.43802,6.745765 l 1.767845,1.76762 a 8.7513214,8.7502071 0 0 0 1.670175,-8.513385 z m -8.284941,3.667078 -5.689337,5.688612 a 5.0004363,8.750764 45.007184 0 0 8.770856,-2.607485 z m 3.967882,3.967379 a 6.2505453,10.000873 45.008322 0 1 -6.780808,3.427816 8.7513214,8.7502071 0 0 0 8.536446,-1.672403 z"/>
 <path id="ellipse900" style="opacity:0.1;fill:#f4f4f7" d="M 27 7 A 14 14.000002 0 0 0 13 21 A 14 14.000002 0 0 0 13.021484 21.585938 A 14 14.000002 0 0 1 27 8 A 14 14.000002 0 0 1 40.978516 21.414062 A 14 14.000002 0 0 0 41 21 A 14 14.000002 0 0 0 27 7 z"/>
</svg>
