<svg xmlns="http://www.w3.org/2000/svg" width="48" height="48" version="1">
 <path style="fill:#1891d1" d="m24 4c-0.482 0-0.957 0.0235-1.43 0.0566-0.059 0.0044-0.118 0.0088-0.177 0.0137-7.145 0.5638-13.196 4.8533-16.252 10.934-0.0011 0.001-0.0017 0.003-0.0023 0.004-0.1978 0.393-0.4002 0.785-0.5723 1.193-0.9363 2.114-1.4447 4.358-1.5371 6.707-0.0041 0.076-0.0046 0.153-0.0078 0.229-0.0062 0.224-0.0191 0.447-0.0176 0.674-0.0006 0.063-0.0039 0.125-0.0039 0.189 0 2.326 0.4133 4.546 1.1367 6.619 0.2912 0.929 0.6266 1.868 1.0313 2.819 1.008 2.368 1.1332 3.014 0.9746 4.992-0.1105 1.378-0.4841 2.785-0.9512 3.578-0.4234 0.718-0.7695 1.46-0.7695 1.648 0 0.584 3.3772 0.38 6.3611-0.385 3.496-0.895 3.802-0.893 6.668 0.006 1.311 0.412 2.808 0.634 4.496 0.696 0.071 0.003 0.142 0.003 0.213 0.006 0.231 0.006 0.453 0.021 0.692 0.021 0.019 0 0.037-0.002 0.056-0.002 0.031 0 0.061 0.002 0.092 0.002 0.558 0 1.11-0.028 1.656-0.072 4.945-0.352 8.916-2.182 12.49-5.75 2.945-2.94 4.77-6.57 5.491-10.367 0.066-0.348 0.121-0.698 0.17-1.051 0.029-0.217 0.06-0.433 0.082-0.651 0.048-0.466 0.077-0.94 0.093-1.416 0.004-0.12 0.009-0.239 0.01-0.359 0.002-0.112 0.008-0.222 0.008-0.334 0-10.895-8.627-19.695-19.449-19.986-0.084-0.0028-0.168-0.0049-0.252-0.0062-0.1-0.0014-0.199-0.0078-0.299-0.0078z"/>
 <path opacity=".2" d="m4.0156 24.357c-0.00559 0.15066-0.012733 0.30095-0.011719 0.45312-0.0006 0.064-0.0039 0.126-0.0039 0.19 0 2.3255 0.41333 4.5464 1.1367 6.6191 0.29113 0.92921 0.62654 1.8676 1.0312 2.8184 0.65135 1.5302 0.93206 2.3437 1.0078 3.2598 0.056-1.422-0.1437-2.23-1.0077-4.259-0.4047-0.951-0.7401-1.89-1.0313-2.819-0.6859-1.965-1.0807-4.067-1.1211-6.262zm39.973 0.14648c-0.0019 0.06312-0.004 0.12623-0.0059 0.18945-0.01611 0.47586-0.04526 0.94934-0.09375 1.416-0.02206 0.2176-0.05278 0.43349-0.08203 0.65039-0.04838 0.35333-0.10347 0.70369-0.16992 1.0508-0.72117 3.7978-2.5454 7.4272-5.4902 10.367-3.5744 3.5684-7.5458 5.3984-12.49 5.75-0.547 0.045-1.099 0.073-1.657 0.073-0.03082 0-0.06101-0.0018-0.0918-0.002-0.01938 0.0001-0.03723 0.002-0.05664 0.002-0.23869 0-0.46034-0.01518-0.69141-0.02148-0.07082-0.0029-0.14226-0.0023-0.21289-0.0059-1.6884-0.06119-3.1848-0.28382-4.4961-0.69531-2.8666-0.89956-3.1721-0.9009-6.668-0.0059-2.4736 0.63331-5.1883 0.87322-6.0547 0.60742-0.17738 0.36386-0.30664 0.66896-0.30664 0.77734 0 0.58356 3.3772 0.37926 6.3613-0.38477 3.4959-0.89504 3.8014-0.89366 6.668 0.0059 1.3113 0.41149 2.8077 0.63412 4.4961 0.69531 0.07063 0.0036 0.14206 0.003 0.21289 0.0059 0.23106 0.0063 0.45272 0.02148 0.69141 0.02148 0.01941 0 0.03726-0.0019 0.05664-0.002 0.03079 0.000138 0.06098 0.002 0.0918 0.002 0.55848 0 1.1096-0.02781 1.6562-0.07227 4.9445-0.35163 8.9159-2.1816 12.49-5.75 2.9449-2.94 4.7691-6.5693 5.4902-10.367 0.06645-0.34709 0.12155-0.69745 0.16992-1.0508 0.02925-0.2169 0.05997-0.43279 0.08203-0.65039 0.04849-0.46667 0.07764-0.94016 0.09375-1.416 0.0036-0.11992 0.0084-0.23941 0.0098-0.35938 0.003-0.113 0.009-0.223 0.009-0.335 0-0.1663-0.0077-0.33079-0.01172-0.49609z"/>
 <path fill="#fff" opacity=".2" d="m24 4c-0.482 0-0.957 0.0235-1.43 0.0566-0.059 0.0044-0.118 0.0088-0.177 0.0137-7.145 0.5638-13.196 4.8533-16.252 10.934-0.0011 0.001-0.0017 0.003-0.0023 0.004-0.1978 0.393-0.4002 0.785-0.5723 1.193-0.9363 2.114-1.4447 4.358-1.5371 6.707-0.0041 0.076-0.0046 0.153-0.0078 0.229-0.0062 0.224-0.0191 0.447-0.0176 0.674-0.0006 0.063-0.0039 0.125-0.0039 0.189 0 0.12 0.0134 0.238 0.0156 0.357 0.0027-0.073 0.0039-0.147 0.0059-0.22 0.0032-0.076 0.0037-0.153 0.0078-0.229 0.0924-2.349 0.6008-4.593 1.5371-6.707 0.1721-0.408 0.3745-0.8 0.5723-1.193 0.0006-0.001 0.0012-0.003 0.0019-0.004 3.0569-6.0804 9.1074-10.37 16.252-10.934 0.059-0.0046 0.118-0.009 0.177-0.0134 0.473-0.0331 0.948-0.0566 1.43-0.0566 0.1 0 0.199 0.0064 0.299 0.0078 0.084 0.0013 0.168 0.0034 0.252 0.0059 10.657 0.2865 19.179 8.8263 19.437 19.49 0.002-0.057 0.004-0.113 0.004-0.17 0.002-0.112 0.008-0.222 0.008-0.334 0-10.895-8.627-19.695-19.449-19.986-0.084-0.0028-0.168-0.0049-0.252-0.0062-0.1-0.0014-0.199-0.0078-0.299-0.0078zm-16.824 33.697c-0.0093 0.237-0.0106 0.45-0.0332 0.733-0.1105 1.378-0.4841 2.785-0.9512 3.578-0.4234 0.718-0.7695 1.46-0.7695 1.648 0 0.1 0.1278 0.168 0.3066 0.223 0.1315-0.27 0.2826-0.565 0.4629-0.871 0.4671-0.793 0.8407-2.2 0.9512-3.578 0.0561-0.7 0.0747-1.231 0.0332-1.733z"/>
 <path style="opacity:0.2;fill-rule:evenodd" d="m 16,29 v 7 h 3 v -7 z"/>
 <path style="fill:#b2bfd9;fill-rule:evenodd" d="m 16,28 v 7 h 3 v -7 z"/>
 <path style="opacity:0.2;fill-rule:evenodd" d="m 33,22 v 6 h 3 v -6 z"/>
 <path style="fill:#b2bfd9;fill-rule:evenodd" d="m 33,21 v 6 h 3 v -6 z"/>
 <path style="opacity:0.2;fill-rule:evenodd" d="m 31.916529,16.000383 a 1.0527368,0.9001016 0 0 0 -0.265214,0.03692 L 13.756579,20.537356 A 1.0527368,0.9001016 0 0 0 13,21.400452 v 7.200093 a 1.0527368,0.9001016 0 0 0 0.756579,0.863097 L 31.651315,33.9637 A 1.0527368,0.9001016 0 0 0 33,33.100603 v -11.571829 -4.62838 a 1.0527368,0.9001016 0 0 0 -1.083471,-0.900011 z"/>
 <path style="fill:#f4f4f7;fill-rule:evenodd" d="m 31.916529,15 a 1.0527368,0.9001016 0 0 0 -0.265214,0.03692 L 13.756579,19.536973 A 1.0527368,0.9001016 0 0 0 13,20.400069 v 7.200093 a 1.0527368,0.9001016 0 0 0 0.756579,0.863097 l 17.894736,4.500058 A 1.0527368,0.9001016 0 0 0 33,32.10022 V 20.528391 15.900011 A 1.0527368,0.9001016 0 0 0 31.916529,15 Z"/>
</svg>
