<svg xmlns="http://www.w3.org/2000/svg" width="48" height="48" version="1.1">
 <path style="opacity:0.1" d="m 16.534706,5.9998505 a 1.5133066,1.50015 0 1 0 0,3 h 14.930588 a 1.5133066,1.50015 0 1 0 0,-3 z"/>
 <rect style="opacity:0.2" width="6.752" height="9.645" x="33.39" y="-18.96" rx="1.929" ry="1.929" transform="rotate(45)"/>
 <path style="opacity:0.2" d="M 24,45 C 33.940351,45 42,36.940352 42,27 42,17.059648 33.940351,9 24,9 14.059648,9 6,17.059648 6,27 c 0,9.940352 8.059648,18 18,18 z m 0,0"/>
 <rect style="fill:#434449" width="6.752" height="9.645" x="32.69" y="-19.67" rx="1.929" ry="1.929" transform="rotate(45)"/>
 <path style="opacity:0.1;fill:#f4f4f7" d="M 37.023438 10 C 36.530326 10 36.036051 10.188559 35.658203 10.566406 L 31.566406 14.658203 C 31.059059 15.165551 30.900335 15.879501 31.074219 16.523438 C 31.159186 16.207564 31.317586 15.907024 31.566406 15.658203 L 35.658203 11.566406 C 36.413898 10.810711 37.631024 10.810711 38.386719 11.566406 L 40.433594 13.613281 C 40.681941 13.861628 40.840665 14.161355 40.925781 14.476562 C 41.098868 13.833094 40.940468 13.120156 40.433594 12.613281 L 38.386719 10.566406 C 38.008871 10.188559 37.516549 10 37.023438 10 z"/>
 <path style="fill:#66686e" d="M 24,44 C 33.940351,44 42,35.940352 42,26 42,16.059648 33.940351,8 24,8 14.059648,8 6,16.059648 6,26 c 0,9.940352 8.059648,18 18,18 z m 0,0"/>
 <path style="opacity:0.2" d="M 23.998234,42 C 32.281526,42 39,35.285058 39,27.001767 39,18.718475 32.281526,12 23.998234,12 15.714942,12 9,18.718475 9,27.001767 9,35.285058 15.714942,42 23.998234,42 Z m 0,0"/>
 <path style="fill:#eef8ff" d="M 23.998234,41 C 32.281526,41 39,34.285058 39,26.001767 39,17.718475 32.281526,11 23.998234,11 15.714942,11 9,17.718475 9,26.001767 9,34.285058 15.714942,41 23.998234,41 Z m 0,0"/>
 <path style="fill:#5ddf49;fill-opacity:0.95294118" d="M 24 11 L 24 26 L 39 26 C 38.998933 17.718272 32.281728 11.001067 24 11 z"/>
 <rect style="opacity:0.1" width="15" height="2" x="24" y="26"/>
 <rect style="fill:#3f3f3f" width="15" height="2" x="24" y="25"/>
 <path style="opacity:0.1" d="m 24,29 c 1.104001,0 2,-0.891999 2,-1.996 0,-1.104001 -0.895999,-2 -2,-2 -1.104001,0 -2,0.895999 -2,2 0,1.104001 0.895999,1.996 2,1.996 z m 0,0"/>
 <path style="fill:#66686e" d="m 24,28 c 1.104001,0 2,-0.891999 2,-1.996 0,-1.104001 -0.895999,-2 -2,-2 -1.104001,0 -2,0.895999 -2,2 0,1.104001 0.895999,1.996 2,1.996 z m 0,0"/>
 <path style="fill:#999ca1" d="M 24.000001,27 C 24.551999,27 25,26.551999 25,25.999999 c 0,-0.552 -0.448001,-1 -0.999999,-1 -0.552,0 -1.000001,0.448 -1.000001,1 C 23,26.551999 23.448001,27 24.000001,27 Z m 0,0"/>
 <path style="fill:#434449" d="m 16.534706,4.99985 a 1.5133066,1.50015 0 1 0 0,3 h 14.930588 a 1.5133066,1.50015 0 1 0 0,-3 z"/>
 <path style="fill:#f4f4f7;opacity:0.2" d="M 23.998047 11 C 15.714755 11 9 17.718661 9 26.001953 C 9 26.170783 9.0198551 26.33447 9.0253906 26.501953 C 9.2914448 18.452076 15.883585 12 23.998047 12 C 32.112509 12 38.708417 18.452076 38.974609 26.501953 C 38.980148 26.33447 39 26.170783 39 26.001953 C 39 17.718661 32.281339 11 23.998047 11 z"/>
 <path style="opacity:0.1;fill:#f4f4f7" d="M 16.535156 5 A 1.5133066 1.50015 0 0 0 15.087891 7.0019531 A 1.5133066 1.50015 0 0 1 16.535156 6 L 31.464844 6 A 1.5133066 1.50015 0 0 1 32.912109 6.9980469 A 1.5133066 1.50015 0 0 0 31.464844 5 L 16.535156 5 z"/>
 <path style="fill:#f4f4f7;opacity:0.1" d="M 24 8 C 14.059648 8 6 16.059648 6 26 C 6 26.168837 6.0207706 26.332279 6.0253906 26.5 C 6.2927741 16.793039 14.228485 9 24 9 C 33.771514 9 41.707226 16.793039 41.974609 26.5 C 41.979229 26.332279 42 26.168837 42 26 C 42 16.059648 33.940351 8 24 8 z"/>
</svg>
