<svg xmlns="http://www.w3.org/2000/svg" width="48" height="48" version="1">
 <rect style="opacity:0.2" width="40" height="40" x="4" y="5" rx="2" ry="2"/>
 <rect style="fill:#b2bfd9" width="40" height="40" x="4" y="4" rx="2" ry="2"/>
 <path style="opacity:0.1" d="m 11.978516,10.980482 a 2.0002,2.0002 0 0 0 -1.392578,3.433593 l 3.644531,3.644532 A 12,12 0 0 0 12,25.000013 a 12,12 0 0 0 2.226562,6.945312 l -3.640624,3.640626 a 2.0002,2.0002 0 1 0 2.828124,2.828124 l 3.644532,-3.644531 A 12,12 0 0 0 24,37.000013 12,12 0 0 0 30.945312,34.773451 l 3.640626,3.640624 a 2.0002,2.0002 0 1 0 2.828124,-2.828124 L 33.769531,31.941419 A 12,12 0 0 0 36,25.000013 12,12 0 0 0 33.773438,18.054701 l 3.640624,-3.640626 a 2.0002,2.0002 0 0 0 -1.453124,-3.433593 2.0002,2.0002 0 0 0 -1.375,0.605469 l -3.644532,3.644531 A 12,12 0 0 0 24,13.000013 12,12 0 0 0 17.054688,15.226575 L 13.414062,11.585951 A 2.0002,2.0002 0 0 0 11.978516,10.980482 Z M 24,17.000013 a 8,8 0 0 1 4.056641,1.115234 L 24,22.171888 19.943359,18.115247 A 8,8 0 0 1 24,17.000013 Z m -6.884766,3.943359 4.056641,4.056641 -4.056641,4.056641 A 8,8 0 0 1 16,25.000013 8,8 0 0 1 17.115234,20.943372 Z m 13.769532,0 A 8,8 0 0 1 32,25.000013 8,8 0 0 1 30.884766,29.056654 L 26.828125,25.000013 Z M 24,27.828138 28.056641,31.884779 A 8,8 0 0 1 24,33.000013 8,8 0 0 1 19.943359,31.884779 Z"/>
 <path style="opacity:0.2;fill:#f4f4f7" d="M 6,4 C 4.892,4 4,4.892 4,6 V 7 C 4,5.892 4.892,5 6,5 h 36 c 1.108,0 2,0.892 2,2 V 6 C 44,4.892 43.108,4 42,4 Z"/>
 <path style="fill:#4f4f4f" d="M 24,12 A 12,12 0 0 0 12,24 12,12 0 0 0 24,36 12,12 0 0 0 36,24 12,12 0 0 0 24,12 Z m 0,4 a 8,8 0 0 1 8,8 8,8 0 0 1 -8,8 8,8 0 0 1 -8,-8 8,8 0 0 1 8,-8 z"/>
 <path style="fill:none;stroke:#4f4f4f;stroke-width:4;stroke-linecap:round" d="m 12,12 24,24 v 0"/>
 <path style="fill:none;stroke:#4f4f4f;stroke-width:4;stroke-linecap:round" d="M 36,12 12,36"/>
</svg>
