<svg xmlns="http://www.w3.org/2000/svg" width="48" height="48" version="1">
 <path opacity=".2" d="m4 40v1c0 1.108 0.892 2 2 2h36c1.108 0 2-0.892 2-2v-1c0 1.108-0.892 2-2 2h-36c-1.108 0-2-0.892-2-2z"/>
 <rect style="fill:#3b555e" width="40" height="36" x="4" y="6" rx="2" ry="2"/>
 <path style="opacity:0.2" d="m 25.492188,13.999887 c -1.70953,0.01251 -3.093981,0.762112 -4.267579,1.732422 -1.173597,0.97031 -2.209793,2.163552 -3.43164,3.308594 C 15.349275,21.330986 12.262417,23.509653 6,23.509653 v 2 c 6.747583,0 10.5411,-2.555344 13.160156,-5.009766 1.309528,-1.227211 2.350019,-2.409808 3.337891,-3.226562 0.987871,-0.816755 1.849795,-1.264949 3.009765,-1.273438 1.157424,-0.0085 1.920778,0.412801 2.806641,1.210938 0.885864,0.798136 1.801697,1.981728 2.988281,3.220703 2.37317,2.477948 5.949937,5.078125 12.697266,5.078125 v -2 c -6.257671,0 -9.061124,-2.175334 -11.251953,-4.462891 -1.095414,-1.143779 -2.006818,-2.341212 -3.095703,-3.322266 -1.088886,-0.981053 -2.44808,-1.737139 -4.160156,-1.724609 z"/>
 <path style="opacity:.1;fill:#f4f4f7" d="m6 6c-1.108 0-2 0.892-2 2v1c0-1.108 0.892-2 2-2h36c1.108 0 2 0.892 2 2v-1c0-1.108-0.892-2-2-2h-36z"/>
 <path style="opacity:0.2" d="m 6,24.490121 v 2 c 6.134439,0 9.189556,3.281464 11.65625,6.810547 1.233347,1.764542 2.266669,3.5768 3.421875,5.033203 1.155206,1.456404 2.559513,2.650828 4.414063,2.666016 1.857269,0.01359 3.234905,-1.198458 4.298828,-2.662109 1.063923,-1.463651 1.97075,-3.278968 3.080078,-5.044922 C 35.089749,29.760947 37.870484,26.490121 44,26.490121 v -2 c -6.875484,0 -10.476923,4.004697 -12.822266,7.738282 -1.172671,1.866792 -2.09308,3.680559 -3.003906,4.933593 -0.910826,1.253035 -1.653785,1.845299 -2.666016,1.837891 -1.01495,-0.0083 -1.857018,-0.639578 -2.863281,-1.908203 -1.006262,-1.268626 -2.049628,-3.08042 -3.347656,-4.9375 C 16.700819,28.440023 12.875561,24.490121 6,24.490121 Z"/>
 <path style="fill:none;stroke:#7e7e7e;stroke-width:2" d="M 6,24.490012 C 19.01,24.490012 19.761,38.953 25.5,39 31.239,39.042 30.994996,24.490012 43.999996,24.490012"/>
 <path style="fill:none;stroke:#1588e4;stroke-width:2" d="m 6,23.510012 c 13.01,0 13.761,-9.468012 19.5,-9.510012 5.739,-0.042 5.494996,9.510012 18.499996,9.510012"/>
 <path style="opacity:0.2" d="m 25.492188,8.9998868 c -1.854551,0.015188 -3.258857,1.2096102 -4.414063,2.6660162 -1.155206,1.456405 -2.188528,3.268658 -3.421875,5.033203 C 15.189556,20.228195 12.134439,23.509653 6,23.509653 v 2 c 6.875561,0 10.700819,-3.949896 13.296875,-7.664063 1.298028,-1.857083 2.341394,-3.668872 3.347656,-4.9375 1.006263,-1.268628 1.848332,-1.899891 2.863281,-1.908203 1.01223,-0.0074 1.75519,0.584854 2.666016,1.837891 0.910827,1.253036 1.831235,3.066798 3.003906,4.933593 2.345343,3.733591 5.946781,7.738282 12.822266,7.738282 v -2 c -6.129515,0 -8.910251,-3.270819 -11.128906,-6.802735 C 31.761766,14.940961 30.854938,13.12565 29.791016,11.661996 28.727093,10.198343 27.349458,8.9862947 25.492188,8.9998868 Z"/>
 <path style="fill:none;stroke:#e95656;stroke-width:2" d="M 6,23.510012 C 19.01,23.510012 19.761,9.047 25.5,9 31.239,8.958 30.994996,23.510012 43.999996,23.510012"/>
 <path style="opacity:0.2" d="m 6,9 v 15 2 15 H 8 V 26 h 3 v 2 h 2 v -2 h 11 v 2 h 2 v -2 h 13 v 2 h 2 v -2 h 3 v -2 h -3 v -2 h -2 v 2 H 26 v -2 h -2 v 2 H 13 v -2 h -2 v 2 H 8 V 9 Z"/>
 <rect style="fill:#f4f4f7" width="2" height="32" x="6" y="8"/>
 <rect style="fill:#f4f4f7" width="38" height="2" x="6" y="23"/>
 <rect style="fill:#f4f4f7" width="2" height="6" x="11" y="21"/>
 <rect style="fill:#f4f4f7" width="2" height="6" x="24" y="21"/>
 <rect style="fill:#f4f4f7" width="2" height="6" x="39" y="21"/>
</svg>
