<svg xmlns="http://www.w3.org/2000/svg" width="48" height="48" version="1">
 <rect style="fill:#3f51b5" width="40" height="40" x="4" y="4" rx="20" ry="20"/>
 <path style="opacity:0.1;fill-rule:evenodd" d="m 36.242188,11.005142 c -0.233386,-0.0242 -0.599713,0.03176 -1.275391,0.203125 -1.344968,0.341114 -1.628601,0.444325 -1.613281,0.738282 0.0086,0.164961 0.09582,0.312604 0.332031,0.578125 l -0.984375,0.984375 -0.269531,-0.267578 c -0.147526,-0.147485 -0.385678,-0.147485 -0.533203,0 L 21.570312,23.567642 c -0.21025,-0.07628 -0.440019,-0.07584 -0.65039,0 l -0.449219,-0.449218 c -0.154482,-0.15444 -0.401884,-0.154714 -0.556641,0 l -8.796874,8.794921 c -0.154757,0.154714 -0.156436,0.404154 -0.002,0.558594 l 0.38086,0.38086 -2.214844,2.214843 c -0.3760589,0.375956 -0.3760589,0.981466 0,1.357422 l 2.292969,2.292969 c 0.376059,0.375956 0.981363,0.375956 1.357422,0 l 2.216797,-2.214844 0.380859,0.38086 c 0.154482,0.154439 0.401884,0.154714 0.556641,0 l 8.796874,-8.794922 c 0.154757,-0.154714 0.156436,-0.404154 0.002,-0.558594 l -0.449219,-0.449219 c 0.07558,-0.209654 0.07562,-0.436843 0,-0.646484 L 34.765625,16.106705 c 0.147525,-0.147485 0.147525,-0.385718 0,-0.533203 l -0.267578,-0.267578 0.986328,-0.986329 c 0.257724,0.227436 0.402369,0.313842 0.576172,0.333985 0.282898,0.03278 0.348517,-0.304223 0.708984,-1.644531 0.356025,-1.323783 0.265802,-1.415924 -0.04492,-1.726563 -0.148398,-0.14836 -0.249036,-0.253139 -0.482421,-0.277344 z"/>
 <path fill="#fff" style="opacity:0.1" d="m24 4c-11.08 0-20 8.92-20 20 0 0.168 0.008 0.333 0.0117 0.5 0.2647-10.846 9.0763-19.5 19.988-19.5s19.724 8.6539 19.988 19.5c0.004-0.16686 0.0117-0.33213 0.0117-0.5 0-11.08-8.92-20-20-20z"/>
 <path opacity=".2" d="m4.0117 24.5c-0.0041 0.167-0.0117 0.332-0.0117 0.5 0 11.08 8.92 20 20 20s20-8.92 20-20c0-0.168-0.008-0.333-0.012-0.5-0.264 10.846-9.076 19.5-19.988 19.5s-19.724-8.654-19.988-19.5z"/>
 <rect style="fill:#b6b6b6" width="2.486" height="2.542" x="13.74" y="31.97" transform="matrix(0.70720361,-0.70700994,0.70720361,0.70700994,0,0)"/>
 <rect style="fill:#d5d5d5" width="18.071" height="4.052" x="-3.8" y="31.21" rx=".377" ry=".377" transform="matrix(0.70720361,-0.70700994,0.70720361,0.70700994,0,0)"/>
 <rect style="fill:#b6b6b6" width="17.875" height="5.162" x="-18.49" y="30.66" rx=".96" ry=".96" transform="matrix(0.70720361,-0.70700994,0.70720361,0.70700994,0,0)"/>
 <rect style="fill:#3f3f3f" width="13.229" height="7.028" x="-14.4" y="29.72" rx=".395" ry=".394" transform="matrix(0.70720361,-0.70700994,0.70720361,0.70700994,0,0)"/>
 <path style="fill:#d5d5d5;fill-rule:evenodd" d="m 36.725355,10.282238 c 0.310724,0.310639 0.400275,0.403791 0.04425,1.727574 -0.360467,1.340308 -0.426849,1.676732 -0.709747,1.643948 -0.302344,-0.03504 -0.306901,-0.03087 -1.491488,-1.215129 -1.194445,-1.194117 -1.200642,-1.206619 -1.215461,-1.49108 -0.01532,-0.293957 0.269856,-0.398004 1.614824,-0.739118 1.351357,-0.3427346 1.460823,-0.2229103 1.75762,0.07381 z"/>
 <path style="fill:#3f3f3f" d="m 31.513951,12.626779 -0.624845,0.624845 2.891203,2.83942 0.625708,-0.624844 z"/>
 <circle style="opacity:0.2" cx="36" cy="37" r="11"/>
 <circle style="fill:#ec407a" cx="36" cy="36" r="11"/>
 <path style="fill:#f4f4f7" d="M 36 30 C 32.6863 30 30 32.6863 30 36 C 30 39.3137 32.6863 42 36 42 C 37.295399 42 38.492017 41.58476 39.472656 40.886719 L 43.03125 44.445312 A 11 11 0 0 0 44.451172 43.037109 L 40.886719 39.472656 C 41.58476 38.492017 42 37.295399 42 36 C 42 32.6863 39.3137 30 36 30 z M 36 32 C 38.2091 32 40 33.7909 40 36 C 40 38.2091 38.2091 40 36 40 C 33.7909 40 32 38.2091 32 36 C 32 33.7909 33.7909 32 36 32 z"/>
</svg>
