<svg xmlns="http://www.w3.org/2000/svg" width="48" height="48" version="1.1">
 <circle style="opacity:0.2" cx="24" cy="25" r="20"/>
 <circle style="fill:#b2bfd9" cx="24" cy="24" r="20"/>
 <path style="opacity:0.1" d="m 15.539062,29 c -0.243369,0 -0.487946,0.0174 -0.734374,0.04492 -0.05865,0.0075 -0.104418,0.01454 -0.167969,0.02539 -0.816136,0.11917 -1.678517,0.471503 -2.69336,1.34961 -0.138255,0.11404 -0.277122,0.233737 -0.419921,0.367187 -0.02441,0.02376 -0.04962,0.05179 -0.07422,0.07617 -0.526362,0.502143 -1.075637,1.12298 -1.6464846,1.9375 -0.021491,0.02882 -0.040875,0.04887 -0.0625,0.07813 -3.209e-4,4.64e-4 3.209e-4,0.0015 0,0.002 7.454e-4,-6.35e-4 0.00121,-0.0013 0.00195,-0.002 l 2.7734375,1.490235 c 0.502595,-0.335301 1.003008,-1.018992 1.650391,-1.490235 0.431002,-0.312869 1.021415,-0.517578 1.373046,-0.517578 0.359938,0 0.606132,0.06518 0.835938,0.195313 0.20858,0.118133 0.383344,0.262701 0.8125,0.666015 0.310561,0.293026 0.544809,0.506971 0.767578,0.683594 3.16e-4,2.51e-4 0.0016,-2.51e-4 0.002,0 0.222286,0.176137 0.431651,0.316433 0.691407,0.462891 C 19.381233,34.784454 20.19719,35 21.136719,35 c 0.234651,0 0.461799,-0.01429 0.68164,-0.04102 0.659525,-0.08016 1.255092,-0.279051 1.804688,-0.589843 0.520525,-0.293487 0.838891,-0.560433 1.460937,-1.146485 0.214117,-0.201657 0.364957,-0.337817 0.488282,-0.439453 0.123324,-0.101636 0.219467,-0.167496 0.324218,-0.226562 0.228883,-0.129208 0.476001,-0.19336 0.835938,-0.19336 0.359937,0 0.606131,0.06415 0.835937,0.19336 0.208579,0.118133 0.383344,0.262701 0.8125,0.666015 0.6202,0.586052 0.941336,0.852998 1.460938,1.146485 C 30.573669,34.784454 31.389519,35 32.328125,35 c 0.234882,0 0.461669,-0.01429 0.681641,-0.04102 0.0019,-2.25e-4 0.004,2.28e-4 0.0059,0 0.671465,-0.08038 1.290371,-0.279743 1.837891,-0.589843 0.36906,-0.185537 0.73485,-0.460479 1.085937,-0.765625 a 7.0750754,7.0750754 0 0 0 0.07227,-0.06055 c 0.05793,-0.05153 0.115053,-0.101059 0.171875,-0.154297 a 7.0750754,7.0750754 0 0 0 0.18164,-0.166016 c 0.0016,-0.0015 0.06062,-0.07339 0.06641,-0.08008 0.980757,-0.984036 1.710354,-2.065976 1.787109,-2.173828 0.0022,-0.0025 0.04046,-0.04831 0.04102,-0.04883 l -2.771485,-1.429688 c 0.104289,-0.106135 -0.0507,0.04566 -0.09961,0.0918 -0.3544,0.468842 -1.320413,1.574817 -1.826172,1.820313 a 2.2611446,2.2611446 0 0 1 -0.970703,0.205078 2.8979568,2.8979568 0 0 1 -0.847656,-0.164063 2.9441026,2.9441026 0 0 1 -1.064453,-0.666015 C 30.058566,30.191292 29.738352,29.923316 29.21875,29.628906 28.485955,29.214516 27.671951,29 26.732422,29 c -0.234882,0 -0.461742,0.01438 -0.681641,0.04102 -0.659697,0.0799 -1.256352,0.277098 -1.80664,0.58789 -0.519602,0.295333 -0.839816,0.562386 -1.460938,1.148438 -0.428234,0.403314 -0.603921,0.548805 -0.8125,0.666015 -0.114441,0.06507 -0.231865,0.113837 -0.367187,0.146485 -0.135323,0.03265 -0.28729,0.04883 -0.466797,0.04883 -0.359937,0 -0.607055,-0.06425 -0.835938,-0.195313 -0.208579,-0.11721 -0.384267,-0.262701 -0.8125,-0.666015 C 18.867158,30.191292 18.546945,29.923316 18.027344,29.628906 17.294548,29.214516 16.478592,29 15.539062,29 Z"/>
 <path style="opacity:0.1" d="m 14,15 v 3 h 2 l 0.0059,6.714844 v 0.0039 H 16 l 0.0059,0.0059 c 0.0033,1.460086 0.725155,2.217995 2.169922,2.271485 0.01013,0.0027 0.02078,0.0039 0.03125,0.0039 H 24 v -2.998047 h -5 v -0.0039 -6.503906 C 19,16.840571 18.713098,15 16.3125,15 Z m 9.429688,0 C 22.245988,15 21,15.852694 21,17.238281 v 1.609375 c 0.0017,-0.003 0.0041,-0.0049 0.0059,-0.0078 V 19 H 24 v -1 h 2 v 9 h 3 v -9 h 2 v 1 h 2.984375 v -0.158203 c 0.002,0.0028 0.0039,0.005 0.0059,0.0078 C 33.996864,18.225083 34,17.7552 34,17.443359 34,16.131939 33.006673,15 31.304688,15 Z"/>
 <path style="opacity:0.2;fill:#f4f4f7" d="M 24,4 A 20,20 0 0 0 4,24 20,20 0 0 0 4.0215,24.582 20,20 0 0 1 24,5 20,20 0 0 1 43.979,24.418 20,20 0 0 0 44,24 20,20 0 0 0 24,4 Z"/>
 <path style="fill:#005bea" d="M 15.539062 28 C 15.295693 28 15.051116 28.017402 14.804688 28.044922 C 14.746035 28.052382 14.70027 28.059465 14.636719 28.070312 C 13.820583 28.189482 12.958202 28.541815 11.943359 29.419922 C 11.805104 29.533962 11.666237 29.653659 11.523438 29.787109 C 11.499024 29.810869 11.473817 29.838899 11.449219 29.863281 C 10.922857 30.365424 10.373582 30.986261 9.8027344 31.800781 C 9.7812433 31.829605 9.7618597 31.849649 9.7402344 31.878906 C 9.7399135 31.87937 9.7405553 31.880395 9.7402344 31.880859 C 9.7409798 31.880224 9.7414421 31.879541 9.7421875 31.878906 L 12.515625 33.369141 C 13.01822 33.03384 13.518633 32.350149 14.166016 31.878906 C 14.597018 31.566037 15.187431 31.361328 15.539062 31.361328 C 15.899 31.361328 16.145194 31.426506 16.375 31.556641 C 16.58358 31.674774 16.758344 31.819342 17.1875 32.222656 C 17.498061 32.515682 17.732309 32.729627 17.955078 32.90625 C 17.955394 32.906501 17.956715 32.905999 17.957031 32.90625 C 18.179317 33.082387 18.388682 33.222683 18.648438 33.369141 C 19.381233 33.784454 20.19719 34 21.136719 34 C 21.37137 34 21.598518 33.985706 21.818359 33.958984 C 22.477884 33.878821 23.073451 33.679933 23.623047 33.369141 C 24.143572 33.075654 24.461938 32.808708 25.083984 32.222656 C 25.298101 32.020999 25.448941 31.884839 25.572266 31.783203 C 25.69559 31.681567 25.791733 31.615707 25.896484 31.556641 C 26.125367 31.427433 26.372485 31.363281 26.732422 31.363281 C 27.092359 31.363281 27.338553 31.427429 27.568359 31.556641 C 27.776938 31.674774 27.951703 31.819342 28.380859 32.222656 C 29.001059 32.808708 29.322195 33.075654 29.841797 33.369141 C 30.573669 33.784454 31.389519 34 32.328125 34 C 32.563007 34 32.789794 33.985706 33.009766 33.958984 C 33.011667 33.958759 33.013724 33.959212 33.015625 33.958984 C 33.68709 33.878604 34.305996 33.679241 34.853516 33.369141 C 35.222576 33.183604 35.588366 32.908662 35.939453 32.603516 A 7.0750754 7.0750754 0 0 0 36.011719 32.542969 C 36.069652 32.49144 36.126772 32.44191 36.183594 32.388672 A 7.0750754 7.0750754 0 0 0 36.365234 32.222656 C 36.366844 32.221111 36.425858 32.14927 36.431641 32.142578 C 37.412398 31.158542 38.141995 30.076602 38.21875 29.96875 C 38.220911 29.966258 38.259213 29.920435 38.259766 29.919922 L 35.488281 28.490234 C 35.59257 28.384099 35.437582 28.535891 35.388672 28.582031 C 35.034272 29.050873 34.068259 30.156848 33.5625 30.402344 A 2.2611446 2.2611446 0 0 1 32.591797 30.607422 A 2.8979568 2.8979568 0 0 1 31.744141 30.443359 A 2.9441026 2.9441026 0 0 1 30.679688 29.777344 C 30.058566 29.191292 29.738352 28.923316 29.21875 28.628906 C 28.485955 28.214516 27.671951 28 26.732422 28 C 26.49754 28 26.27068 28.014381 26.050781 28.041016 C 25.391084 28.12092 24.794429 28.318114 24.244141 28.628906 C 23.724539 28.924239 23.404325 29.191292 22.783203 29.777344 C 22.354969 30.180658 22.179282 30.326149 21.970703 30.443359 C 21.856262 30.508425 21.738838 30.557196 21.603516 30.589844 C 21.468193 30.622492 21.316226 30.638672 21.136719 30.638672 C 20.776782 30.638672 20.529664 30.574417 20.300781 30.443359 C 20.092202 30.326149 19.916514 30.180658 19.488281 29.777344 C 18.867158 29.191292 18.546945 28.923316 18.027344 28.628906 C 17.294548 28.214516 16.478592 28 15.539062 28 z"/>
 <path style="fill:#3f3f3f" d="M 23.429688 14 C 22.245988 14 21 14.852694 21 16.238281 L 21 17.847656 C 21.001703 17.844688 21.004149 17.842802 21.005859 17.839844 L 21.005859 18 L 24 18 L 24 17 L 26 17 L 26 26 L 29 26 L 29 17 L 31 17 L 31 18 L 33.984375 18 L 33.984375 17.841797 C 33.986332 17.844636 33.988281 17.84676 33.990234 17.849609 C 33.996864 17.225083 34 16.7552 34 16.443359 C 34 15.131939 33.006672 14 31.304688 14 L 23.429688 14 z"/>
 <path style="fill:#3f3f3f;fill-rule:evenodd" d="m 16.005434,23.718311 v -0.0025 L 16,17 h -2 v -3 h 2.312798 c 2.400598,0 2.687611,1.841198 2.687611,2.494768 V 22.9983 l -8.18e-4,0.0034 H 24 V 26 h -5.792316 c -0.01047,-3e-6 -0.02089,-0.0014 -0.03102,-0.0041 -1.444767,-0.05349 -2.167966,-0.810696 -2.171231,-2.270782 l -0.0049,-0.0058 z"/>
</svg>
