<svg xmlns="http://www.w3.org/2000/svg" width="48" height="48" version="1">
 <rect style="fill:#009d8b" width="40" height="40" x="4" y="4" rx="2" ry="2"/>
 <path style="fill:#0ac6b0" d="M 6,4 C 4.892,4 4,4.892 4,6 V 8 H 44 V 6 C 44,4.892 43.108,4 42,4 Z"/>
 <path style="opacity:0.2;fill:#f4f4f7" d="M 6,4 C 4.892,4 4,4.892 4,6 V 7 C 4,5.892 4.892,5 6,5 h 36 c 1.108,0 2,0.892 2,2 V 6 C 44,4.892 43.108,4 42,4 Z"/>
 <path style="opacity:0.2" d="m 4,42 v 1 c 0,1.108 0.892,2 2,2 h 36 c 1.108,0 2,-0.892 2,-2 v -1 c 0,1.108 -0.892,2 -2,2 H 6 C 4.892,44 4,43.108 4,42 Z"/>
 <path style="opacity:0.2;fill:none;stroke:#000000;stroke-width:6;stroke-linecap:round;stroke-linejoin:round" d="m 13,24.000139 7,8 15,-15"/>
 <path style="fill:none;stroke:#f4f4f7;stroke-width:6;stroke-linecap:round;stroke-linejoin:round" d="m 13,23 7,8 15,-15"/>
 <rect style="opacity:0.1" width="40" height="1" x="4" y="8"/>
</svg>
