<svg xmlns="http://www.w3.org/2000/svg" width="48" height="48" version="1.1">
 <circle style="opacity:0.2" cx="24" cy="25" r="20"/>
 <circle style="fill:#b2bfd9" cx="24" cy="24" r="20"/>
 <path style="opacity:0.2;fill:#f4f4f7" d="M 24,4 A 20,20 0 0 0 4,24 20,20 0 0 0 4.0215,24.582 20,20 0 0 1 24,5 20,20 0 0 1 43.979,24.418 20,20 0 0 0 44,24 20,20 0 0 0 24,4 Z"/>
 <path style="opacity:0.1" d="m 23.177734,11.00067 c -0.233452,0.0016 -0.547665,0.02942 -0.947265,0.08203 -3.66663,0.482741 -6.904715,2.294926 -9.208985,5.15625 -1.5114,1.876779 -2.541488,4.26392 -2.917968,6.761719 -0.1004,0.66597 -0.1384598,2.449486 -0.06836,3.195312 0.24338,2.590483 1.159305,4.97822 2.708985,7.066407 1.598983,0.777059 3.235307,-0.431992 3.693359,-1.736328 C 14.869201,29.713357 14.004184,27.397635 14,25.00067 c 0.0016,-5.189139 3.958107,-9.463474 9.033731,-9.950695 1.358433,0.01387 0.918073,-1.248665 0.90963,-1.902821 -0.02401,-1.844406 -0.03093,-1.89516 -0.304687,-2.074218 -0.07544,-0.04919 -0.227487,-0.07391 -0.46094,-0.07227 z m 10.589844,4.337891 c -1.015393,0.135234 -1.685077,2.116843 -1.646484,3.847656 1.217619,1.694641 1.874601,3.727737 1.878906,5.814453 -0.0016,5.244021 -4.04227,9.554088 -9.19568,9.964971 -0.941799,0.04695 -0.738237,0.617733 -0.757445,1.337763 0,1.700376 0.03841,2.273353 0.162109,2.457032 0.05479,0.08135 0.172419,0.172675 0.261719,0.203125 0.16391,0.0558 0.296045,0.05108 1.146485,-0.03906 1.888069,-0.200199 3.903325,-0.879992 5.603515,-1.892578 3.60736,-2.148448 6.037031,-5.801119 6.675781,-10.039062 0.1004,-0.66598 0.13846,-2.45144 0.06836,-3.197266 -0.16426,-1.7483 -0.611942,-3.342875 -1.363282,-4.855469 -0.72449,-1.458522 -1.743759,-2.885004 -2.568359,-3.595703 -0.09117,-0.01673 -0.179032,-0.01739 -0.265625,-0.0059 z"/>
 <path style="fill:#3c79e5" d="m 23.177734,10 c -0.233452,0.0016 -0.547665,0.02942 -0.947265,0.08203 -3.66663,0.482741 -6.904715,2.294926 -9.208985,5.15625 -1.5114,1.876779 -2.541488,4.26392 -2.917968,6.761719 -0.1004,0.66597 -0.1384598,2.449486 -0.06836,3.195312 0.24338,2.590483 1.159305,4.97822 2.708985,7.066407 1.598983,0.777059 3.235307,-0.431992 3.693359,-1.736328 C 14.869201,28.712687 14.004184,26.396965 14,24 c 0.0016,-5.189139 3.958107,-9.463474 9.033731,-9.950695 1.358433,0.01387 0.918073,-1.248665 0.90963,-1.902821 -0.02401,-1.844406 -0.03093,-1.89516 -0.304687,-2.074218 -0.07544,-0.04919 -0.227487,-0.07391 -0.46094,-0.07227 z m 10.589844,4.337891 c -1.015393,0.135234 -1.685077,2.116843 -1.646484,3.847656 C 33.338713,19.880188 33.995695,21.913284 34,24 c -0.0016,5.244021 -4.04227,9.554088 -9.19568,9.964971 -0.941799,0.04695 -0.738237,0.617733 -0.757445,1.337763 0,1.700376 0.03841,2.273353 0.162109,2.457032 0.05479,0.08135 0.172419,0.172675 0.261719,0.203125 0.16391,0.0558 0.296045,0.05108 1.146485,-0.03906 1.888069,-0.200199 3.903325,-0.879992 5.603515,-1.892578 3.60736,-2.148448 6.037031,-5.801119 6.675781,-10.039062 0.1004,-0.66598 0.13846,-2.45144 0.06836,-3.197266 -0.16426,-1.7483 -0.611942,-3.342875 -1.363282,-4.855469 -0.72449,-1.458522 -1.743759,-2.885004 -2.568359,-3.595703 -0.09117,-0.01673 -0.179032,-0.01739 -0.265625,-0.0059 z"/>
 <path style="opacity:0.1" d="m 32.201172,14.583982 c -0.559847,-0.0345 -1.143843,0.08541 -1.65625,0.34961 -0.49855,0.257047 -1.066653,0.844289 -1.351563,1.396484 -0.36397,0.705409 -2.335937,5.647407 -2.335937,5.853516 2e-4,0.202814 0.128482,0.441927 0.294922,0.550781 0.13574,0.08879 2.842477,1.184773 3.091797,1.251953 0.20183,0.05441 0.522942,-0.03966 0.664062,-0.195312 0.04407,-0.0486 0.368663,-0.79993 0.720703,-1.669922 0.849464,-1.590559 1.271724,-4.398116 2.951172,-4.75586 0.402585,-0.06957 0.82386,-0.0064 1.238281,0.185547 -0.176738,-0.27552 -0.365069,-0.546462 -0.5625,-0.8125 C 34.306789,15.459414 33.62811,14.899566 32.75,14.66992 c -0.177415,-0.0464 -0.362213,-0.07444 -0.548828,-0.08594 z M 17.755859,26.01367 c -0.20183,-0.05441 -0.522942,0.03966 -0.664062,0.195312 -0.04407,0.0486 -0.368663,0.79993 -0.720703,1.669922 -0.849464,1.590559 -1.271724,4.398116 -2.951172,4.75586 -0.402585,0.06957 -0.82386,0.0064 -1.238281,-0.185547 0.176738,0.27552 0.365069,0.546462 0.5625,0.8125 0.94907,1.278865 1.627749,1.838713 2.505859,2.068359 0.70966,0.185596 1.521868,0.08859 2.205078,-0.263672 0.49855,-0.257047 1.066653,-0.844289 1.351563,-1.396484 0.36397,-0.705409 2.335937,-5.647407 2.335937,-5.853516 -2e-4,-0.202814 -0.128482,-0.441927 -0.294922,-0.550781 -0.13574,-0.08879 -2.842477,-1.184773 -3.091797,-1.251953 z"/>
 <path style="fill:#759ef8" d="M 32.201172 13.583984 C 31.641325 13.549481 31.057329 13.669397 30.544922 13.933594 C 30.046372 14.190641 29.478269 14.777883 29.193359 15.330078 C 28.829389 16.035487 26.857422 20.977485 26.857422 21.183594 C 26.857622 21.386408 26.985904 21.625521 27.152344 21.734375 C 27.288084 21.823165 29.994821 22.919148 30.244141 22.986328 C 30.445971 23.040738 30.767083 22.946668 30.908203 22.791016 C 30.952273 22.742416 31.276866 21.991086 31.628906 21.121094 C 32.47837 19.530535 32.90063 16.722978 34.580078 16.365234 C 34.982663 16.295664 35.403938 16.358834 35.818359 16.550781 C 35.641621 16.275261 35.45329 16.004319 35.255859 15.738281 C 34.306789 14.459416 33.62811 13.899568 32.75 13.669922 C 32.572585 13.623523 32.387787 13.595485 32.201172 13.583984 z M 17.755859 25.013672 C 17.554029 24.959262 17.232917 25.053332 17.091797 25.208984 C 17.047727 25.257584 16.723134 26.008914 16.371094 26.878906 C 15.52163 28.469465 15.09937 31.277022 13.419922 31.634766 C 13.017337 31.704336 12.596062 31.641166 12.181641 31.449219 C 12.358379 31.724739 12.54671 31.995681 12.744141 32.261719 C 13.693211 33.540584 14.37189 34.100432 15.25 34.330078 C 15.95966 34.515674 16.771868 34.418668 17.455078 34.066406 C 17.953628 33.809359 18.521731 33.222117 18.806641 32.669922 C 19.170611 31.964513 21.142578 27.022515 21.142578 26.816406 C 21.142378 26.613592 21.014096 26.374479 20.847656 26.265625 C 20.711916 26.176835 18.005179 25.080852 17.755859 25.013672 z"/>
</svg>
