<svg xmlns="http://www.w3.org/2000/svg" width="48" height="48" version="1.1">
 <circle style="opacity:0.2" cx="24" cy="25" r="20"/>
 <circle style="fill:#8bc34a" cx="24" cy="24" r="20"/>
 <path style="opacity:0.2;fill:#f4f4f7" d="M 24 4 A 20 20 0 0 0 4 24 A 20 20 0 0 0 4.0215 24.582 A 20 20 0 0 1 24 5 A 20 20 0 0 1 43.979 24.418 A 20 20 0 0 0 44 24 A 20 20 0 0 0 24 4 z"/>
 <circle style="opacity:0.2" cx="24" cy="25" r="14"/>
 <circle style="fill:#f4f4f7" cx="24" cy="24" r="14"/>
 <path style="opacity:0.2" d="M 4.0996094,23 A 20,20 0 0 0 4,25 20,20 0 0 0 4.1210938,27 H 43.900391 A 20,20 0 0 0 44,25 20,20 0 0 0 43.878906,23 Z"/>
 <path style="fill:#4f4f4f" d="M 4.0996094 22 A 20 20 0 0 0 4 24 A 20 20 0 0 0 4.1210938 26 L 43.900391 26 A 20 20 0 0 0 44 24 A 20 20 0 0 0 43.878906 22 L 4.0996094 22 z"/>
 <rect style="opacity:0.2" width="12" height="12" x="2" y="19" rx="2" ry="2"/>
 <rect style="fill:#4f4f4f" width="12" height="12" x="2" y="18" rx="2" ry="2"/>
</svg>
