<svg xmlns="http://www.w3.org/2000/svg" width="48" height="48" version="1">
 <path style="opacity:0.2" d="M 24,5 C 16.533333,5 8,17 8,26.5 8,36 13,45 24,45 35,45 40,36 40,26.5 40,17 31.466667,5 24,5 Z"/>
 <path style="fill:#b2bfd9" d="M 24,4 C 16.533333,4 8,16 8,25.5 8,35 13,44 24,44 35,44 40,35 40,25.5 40,16 31.466667,4 24,4 Z"/>
 <circle style="opacity:0.1" cx="24" cy="31" r="10"/>
 <circle style="fill:#ffb001" cx="24" cy="29.889" r="10"/>
 <path style="opacity:0.2;fill:#f4f4f7" d="M 24 4 C 16.533333 4 8 16 8 25.5 C 8 25.707932 8.0147301 25.91373 8.0195312 26.121094 C 8.2386536 16.683389 16.631194 5 24 5 C 31.368806 5 39.761346 16.683389 39.980469 26.121094 C 39.98527 25.91373 40 25.707932 40 25.5 C 40 16 31.466667 4 24 4 z"/>
</svg>
