<svg xmlns="http://www.w3.org/2000/svg" width="48" height="48" version="1.1">
 <path style="opacity:0.2" d="M 9.7441409,8.9998446 C 9.3618111,9.0002684 8.9962814,9.1597313 8.7324222,9.4392977 L 3.3867189,15.097501 c -0.1555286,0.164932 -0.2619908,0.365106 -0.3242188,0.580077 -0.037059,0.128023 -0.062529,0.258862 -0.0625,0.394533 -10e-7,6.48e-4 -10e-8,0.0013 0,0.002 v 21.625 c 0,1.414577 0.9064454,2.511554 1.7070313,2.916016 0.8005859,0.40446 1.5585938,0.384766 1.5585938,0.384766 H 38.253908 c 0.38233,-4.25e-4 0.749812,-0.159887 1.013671,-0.439454 l 5.345703,-5.658203 c 0.06954,-0.07374 0.128021,-0.154516 0.179688,-0.240235 0.052,-0.08627 0.09238,-0.178279 0.125,-0.273436 C 44.9686,34.240863 45.00003,34.086741 45,33.927626 v -21.627 C 45,10.886048 44.091602,9.7890708 43.291015,9.3846102 42.490431,8.9801488 41.732424,8.9998446 41.732424,8.9998446 Z"/>
 <path style="fill:#4cdb5d" d="M 9.7447924,8.000151 C 9.3624626,8.0005748 8.9969328,8.1589564 8.7330735,8.4385228 L 3.3864583,14.096833 c -0.2481512,0.263155 -0.3865365,0.612722 -0.3864582,0.976204 l 4.1155867,10.76782 C 7.6206224,27.162207 4.9582755,36.408161 5.7588613,36.812623 6.5594472,37.217083 10,35 10,35 l 26,1 c 0.38233,-4.25e-4 1.736141,-0.720433 2,-1 l 6.613542,-1.097 C 44.861693,33.639844 45.000079,33.290275 45,32.926793 V 11.300832 C 45,9.8862537 44.092514,8.7895682 43.291927,8.3851077 42.491341,7.9806463 41.733334,8.000151 41.733334,8.000151 Z"/>
 <path style="fill:#31ae3e" d="m 3.061524,14.678274 c -0.036822,0.127641 -0.061552,0.259992 -0.061523,0.395218 v 21.624887 c 0,1.414577 0.9071556,2.512802 1.7077414,2.917264 0.8005859,0.40446 1.5585938,0.384189 1.5585938,0.384189 H 38.254794 c 0.382331,-4.25e-4 0.748481,-0.15977 1.012341,-0.439336 l 5.346945,-5.658059 c 0.139276,-0.147697 0.238841,-0.323544 0.303888,-0.512865 z"/>
 <path style="opacity:0.1" d="M 3.0625,14.677734 C 3.0256783,14.805376 2.9999709,14.938992 3,15.074219 v 1 c -2.91e-5,-0.135227 0.025678,-0.268843 0.0625,-0.396485 l 41.318359,18.470704 0.232422,-0.246094 c 0.139276,-0.147697 0.23964,-0.324351 0.304688,-0.513672 z"/>
 <path style="opacity:0.2" d="M 19,16 V 34 H 19.113281 22 29 V 31 H 22 V 16 Z"/>
 <path style="fill:#f4f4f7" d="M 19,15 V 33 H 19.113281 22 29 V 30 H 22 V 15 Z"/>
 <path style="opacity:0.2;fill:#f4f4f7" d="M 9.7441406,8 C 9.3618108,8.0004238 8.9962812,8.1598867 8.7324219,8.4394531 L 3.3867188,14.097656 C 3.1385675,14.360811 2.9999217,14.708784 3,15.072266 l 0.1464844,0.382812 C 3.208991,15.325486 3.2865665,15.203864 3.3867188,15.097656 L 8.7324219,9.4394531 C 8.9962812,9.1598867 9.3618108,9.0004238 9.7441406,9 H 41.732422 c 0,0 0.758008,-0.019696 1.558594,0.3847656 C 44.091603,9.7892261 45,10.886203 45,12.300781 v -1 C 45,9.8862029 44.091603,8.7892261 43.291016,8.3847656 42.49043,7.9803042 41.732422,8 41.732422,8 Z"/>
</svg>
