<svg xmlns="http://www.w3.org/2000/svg" height="48" width="48" version="1.1">
 <circle cx="24" cy="25" r="20" style="opacity:.2"/>
 <circle cx="24" cy="24" r="20" style="fill:#b2bfd9"/>
 <path d="m24 4a20 20 0 0 0 -20 20 20 20 0 0 0 0.0215 0.582 20 20 0 0 1 19.9785 -19.582 20 20 0 0 1 19.979 19.418 20 20 0 0 0 0.021 -0.418 20 20 0 0 0 -20 -20z" style="opacity:.2;fill:#f4f4f7"/>
 <path style="opacity:.2" d="m13 21c-1.75 0-2 2-2 2v6s0 2 2 2h2c2 0 2-2 2-2v-2.75s-0.25-1.25-2-1.25h-2v-2h4v-2zm6 0v10h2v-10zm6 0c-2 0-2 2-2 2v2l2 1-2 1v2s0 2 2 2h2c2 0 2-2 2-2v-2l-2-1 2-1v-2s0-2-2-2zm8 0c-0.9695 0-2 1.0305-2 2v6c0 0.9695 1.0305 2 2 2h2c0.9695 0 2-1.0305 2-2v-6c0-0.9695-1.0305-2-2-2zm-8 2h2v2h-2zm8 0h2v6h-2zm-20 4h2v2h-2zm12 0h2v2h-2z"/>
 <path style="fill:#4f4f4f" d="m13 20c-1.75 0-2 2-2 2v6s0 2 2 2h2c2 0 2-2 2-2v-2.75s-0.25-1.25-2-1.25h-2v-2h4v-2zm0 6h2v2h-2z"/>
 <rect style="fill:#4f4f4f" height="10" width="2" y="20" x="19"/>
 <path style="fill:#4f4f4f" d="m25 20c-2 0-2 2-2 2v2l2 1-2 1v2s0 2 2 2h2c2 0 2-2 2-2v-2l-2-1 2-1v-2s0-2-2-2zm0 2h2v2h-2zm0 4h2v2h-2z"/>
 <path style="fill:#4f4f4f" d="m33 20c-0.9695 0-2 1.0305-2 2v6c0 0.9695 1.0305 2 2 2h2c0.9695 0 2-1.0305 2-2v-6c0-0.9695-1.0305-2-2-2zm0 2h2v6h-2z"/>
</svg>
