<svg width="48" height="48" version="1.1" xmlns="http://www.w3.org/2000/svg">
 <g transform="matrix(2,0,0,2,2,2)">
  <path d="m4 20.5c0 1 2 1 2 1h9s1 0 1-1-1-1-1-1-4 0-4-3c0-4 5-4 5-4s2 0 2-4c0-5-2-6-2-6s-2.5-1-10-1c-1 0-2 0-2 1s1 1 2 1 1 2 1 2v12.25c0 1.75-1 1.75-1 1.75s-2 0-2 1z" style="opacity:.2"/>
  <path d="m4 20c0 1 2 1 2 1h9s1 0 1-1-1-1-1-1-4 0-4-3c0-4 5-4 5-4s2 0 2-4c0-5-2-6-2-6s-2.5-1-10-1c-1 0-2 0-2 1s1 1 2 1 1 2 1 2v12.25c0 1.75-1 1.75-1 1.75s-2 0-2 1z" style="fill:#ec4040"/>
  <path d="m10 11.5s6 0 6-3.5-6-3.5-6-3.5 1 2 1 3.5-1 3.5-1 3.5z" style="opacity:.1"/>
  <path d="m10 11s6 0 6-3.5-6-3.5-6-3.5 1 2 1 3.5-1 3.5-1 3.5z" style="fill:#4f4f4f"/>
  <path d="M 6,1 C 5,1 4,1 4,2 4,2.094633 4.0161398,2.1724303 4.0332031,2.25 4.1964504,1.5078803 5.094633,1.5 6,1.5 c 7.5,0 10,1 10,1 0,0 1.906704,0.9839035 1.986328,5.71875 C 17.988008,8.1393183 18,8.0828263 18,8 18,3 16,2 16,2 16,2 13.5,1 6,1 Z m 5.021484,15.242188 C 11.016351,16.329719 11,16.408313 11,16.5 c 0,3 4,3 4,3 0,0 0.811562,0.0081 0.966797,0.75 C 15.983037,20.172383 16,20.094706 16,20 c 0,-1 -1,-1 -1,-1 0,0 -3.761818,-0.0089 -3.978516,-2.757812 z M 7,17.25 C 7,19 6,19 6,19 6,19 4,19 4,20 4,20.09462 4.032033,20.172441 4.064453,20.25 4.3746874,19.507838 6,19.5 6,19.5 c 0,0 1,0 1,-1.75 z" style="fill:#f4f4f7;opacity:.2"/>
 </g>
 <circle cx="36" cy="36" r="11" style="opacity:.2"/>
 <circle cx="36" cy="35" r="11" style="fill:#42cd68"/>
 <path d="m33 30v10h2v-4l2 4h2l-2-4s2 0 2-2v-2c0-2-2-2-2-2zm3 2c0.552284 0 1 0.447716 1 1s-0.447716 1-1 1-1-0.447716-1-1 0.447716-1 1-1z" style="fill:#f4f4f7"/>
</svg>
