<svg xmlns="http://www.w3.org/2000/svg" width="48" height="48" version="1.1">
 <path style="opacity:0.2" d="m 24,5 0,20 20,0 A 20,20 0 0 0 24,5 Z m 0,20 -20,0 a 20,20 0 0 0 20,20 l 0,-20 z"/>
 <path style="fill:#b2bfd9" d="M 24 4 L 24 24 L 44 24 A 20 20 0 0 0 24 4 z M 24 24 L 4 24 A 20 20 0 0 0 24 44 L 24 24 z"/>
 <path style="fill:#f4f4f7;opacity:0.2" d="M 24 4 L 24 5 A 20 20 0 0 1 43.949219 24 L 44 24 A 20 20 0 0 0 24 4 z M 4 24 A 20 20 0 0 0 4.0507812 25 L 24 25 L 24 24 L 4 24 z"/>
 <circle style="opacity:0.2" cx="24" cy="25" r="16"/>
 <circle style="fill:#f4f4f7" cx="24" cy="24" r="16"/>
 <circle style="fill:#3ca2e4" cx="24" cy="24" r="12"/>
 <path style="opacity:0.2;fill:none;stroke:#000000;stroke-width:4;stroke-linecap:round;stroke-linejoin:round" d="m 20,17.9998 8,0 0,7 -8,0 0,7 8,0"/>
 <path style="fill:none;stroke:#ffc34c;stroke-width:4;stroke-linecap:round;stroke-linejoin:round" d="m 20,17 8,0 0,7 -8,0 0,7 8,0"/>
 <path style="opacity:0.2;fill:#f4f4f7;fill-rule:evenodd" d="M 20 15 A 2.0002 2.0002 0 0 0 18.037109 17.5 A 2.0002 2.0002 0 0 1 20 16 L 28 16 A 2.0002 2.0002 0 0 1 30 18 L 30 17 A 2.0002 2.0002 0 0 0 28 15 L 20 15 z M 20 22 A 2.0002 2.0002 0 0 0 18 24 L 18 25 A 2.0002 2.0002 0 0 1 20 23 L 26 23 L 26 22 L 20 22 z M 22 29 L 22 30 L 28 30 A 2.0002 2.0002 0 0 1 29.962891 31.5 A 2.0002 2.0002 0 0 0 28 29 L 22 29 z"/>
</svg>
