<svg width="48" height="48" version="1.1" xmlns="http://www.w3.org/2000/svg">
 <path d="m4 29s-1-24 22-24c19 0 18 28 18 28s0 12-22 12c-17.135303 0-18-16-18-16z" style="opacity:.2"/>
 <path d="m4 28s-1-24 22-24c19 0 18 28 18 28s0 12-22 12c-17.135303 0-18-16-18-16z" style="fill:#e04970"/>
 <path d="m11 18a3 4 0 0 0-3 4 3 4 0 0 0 3 4 3 4 0 0 0 3-4 3 4 0 0 0-3-4zm26 3a3 4 0 0 0-3 4 3 4 0 0 0 3 4 3 4 0 0 0 3-4 3 4 0 0 0-3-4zm-20.130859 5.427734c-1.427942 1.428572-1.427735 3.28711-1.427735 4.28711 0 4.142135 3.558594 7.285156 8.558594 7.285156s5.836669-1.115559 8-4c0.848528-1.131371 0.999117-4.999999-1-7-1.17342 0.974141-2.999049 2-6.990234 2-4.293342 0-6.653609-0.755345-7.140625-2.572266z" style="opacity:.2"/>
 <path d="m16.869105 25.428571c-1.427942 1.428572-1.427942 3.285715-1.427942 4.285715 0 4.142135 3.558837 7.285714 8.558837 7.285714s5.836669-1.115559 8-4c0.848528-1.131371 0.999117-4.999999-1-7-1.17342 0.974141-3 2-6.991185 2-4.293342 0-6.652694-0.754508-7.13971-2.571429z" style="fill:#60010d"/>
 <ellipse cx="11" cy="21" rx="3" ry="4" style="fill:#60010d"/>
 <ellipse cx="37" cy="24" rx="3" ry="4" style="fill:#60010d"/>
 <circle cx="11" cy="19" r="1" style="fill:#f4f4f7"/>
 <circle cx="37" cy="22" r="1" style="fill:#f4f4f7"/>
 <ellipse cx="25.164316" cy="34.5" rx="3.8356833" ry="1.5" style="fill:#d52f45"/>
 <path d="M 26 4 C 3 4 4 28 4 28 C 4 28 4.0019349 28.017252 4.0019531 28.017578 C 4.1044453 23.581932 5.7388736 5 26 5 C 42.499033 5 43.914599 26.091961 44.001953 31.650391 C 44.04526 29.761379 44.30986 4 26 4 z " style="fill:#f4f4f7;opacity:.2"/>
</svg>
