<svg width="48" height="48" version="1.1" xmlns="http://www.w3.org/2000/svg">
 <path d="m24 5c-6.328257 0.7031397-8.695652 2.9166285-9.546875 11.105469-0.307844-0.06608-0.624971-0.105469-0.953125-0.105469-2.493 0-4.5 2.007-4.5 4.5v14c0 2.493 2.007 4.5 4.5 4.5 0.528221 0 1.025978-0.107702 1.496094-0.273438 0.501456 2.511688 1.003906 4.273438 1.003906 4.273438s0 2 4 2c5 0 6-2 6-2v-2c0-1 0.528595-1 1-1 1 0 1 2 1 2s1 1 4 1c4 0 5-2 5-2s1-3 1-7c0-4.518609-0.460791-8.82376-1.359375-13.277344 0.837746-0.816351 1.359375-1.955116 1.359375-3.222656 0-2.04611-1.361618-3.744478-3.224609-4.294922-1.244284-4.4613322-2.281434-8.205078-10.775391-8.205078z" style="opacity:.2"/>
 <rect x="9" y="15" width="9" height="23" ry="4.5" style="fill:#a20109"/>
 <path d="m13.5 15c-2.493 0-4.5 2.007-4.5 4.5v1c0-2.493 2.007-4.5 4.5-4.5s4.5 2.007 4.5 4.5v-1c0-2.493-2.007-4.5-4.5-4.5z" style="fill:#f4f4f7;opacity:.1"/>
 <path d="m14 29c0 6 2 13 2 13s0 2 4 2c5 0 6-2 6-2v-2c0-1 0.528595-1 1-1 1 0 1 2 1 2s1 1 4 1c4 0 5-2 5-2s1-3 1-7c0-6.741249-1-13-3-20-1.373606-4.8076197-2-9-11-9-9 1-10 5-10 25z" style="fill:#d6000a"/>
 <path d="m25.5 13c-2.493 0-4.5 2.007-4.5 4.5s2.007 4.5 4.5 4.5h8c1.316664 0 2.487128-0.569264 3.308594-1.464844-0.448133-2.355528-1.02512-4.75074-1.726563-7.234375-0.493689-0.185277-1.022066-0.300781-1.582031-0.300781h-8z" style="opacity:.2"/>
 <path d="m24 4c-9 1-10 5-10 25 0 0.062936 0.007377 0.12826 0.007812 0.191406 0.030926-19.234238 1.126449-23.206324 9.992188-24.191406 9 0 9.626394 4.1923803 11 9 1.938862 6.786019 2.929013 12.87903 2.988281 19.386719 0.002151-0.131126 0.011719-0.253293 0.011719-0.386719 0-6.741249-1-13-3-20-1.373606-4.8076197-2-9-11-9z" style="fill:#f4f4f7;opacity:.2"/>
 <rect x="21" y="12" width="17" height="9" ry="4.5" style="fill:#84ddd1"/>
 <path d="m25.5 12c-2.493 0-4.5 2.007-4.5 4.5 0 0.17157 0.032266 0.33353 0.050781 0.5 0.250526-2.252432 2.127789-4 4.449219-4h8c2.32143 0 4.198693 1.747568 4.449219 4 0.018515-0.16647 0.050781-0.32843 0.050781-0.5 0-2.493-2.007-4.5-4.5-4.5h-8z" style="fill:#f4f4f7;opacity:.2"/>
</svg>
