<svg width="48" height="48" version="1.1" xmlns="http://www.w3.org/2000/svg">
 <path d="M 22.5,6 A 17.5,17.5 0 0 0 5,23.5 17.5,17.5 0 0 0 8.869141,34.46875 L 6,38 l 9,5 2.248047,-2.810547 A 17.5,17.5 0 0 0 22.5,41 17.5,17.5 0 0 0 24.074219,40.916016 L 25,44 33,41 32.052734,38.15625 a 17.5,17.5 0 0 0 5.773438,-6.214844 L 41,33 43,24 H 39.974609 A 17.5,17.5 0 0 0 40,23.5 17.5,17.5 0 0 0 37.617188,14.728516 L 39,13 32,6 30.4375,7.9238281 A 17.5,17.5 0 0 0 22.5,6 Z" style="opacity:.2"/>
 <path d="M 22.5 5 A 17.5 17.5 0 0 0 5 22.5 A 17.5 17.5 0 0 0 8.8691406 33.46875 L 6 37 L 15 42 L 17.248047 39.189453 A 17.5 17.5 0 0 0 22.5 40 A 17.5 17.5 0 0 0 24.074219 39.916016 L 25 43 L 33 40 L 32.052734 37.15625 A 17.5 17.5 0 0 0 37.826172 30.941406 L 41 32 L 43 23 L 39.974609 23 A 17.5 17.5 0 0 0 40 22.5 A 17.5 17.5 0 0 0 37.617188 13.728516 L 39 12 L 32 5 L 30.4375 6.9238281 A 17.5 17.5 0 0 0 22.5 5 z " style="fill:#38aff1"/>
 <path d="M 18.634766,6.449219 C 10.667122,8.2535951 5.007948,15.330602 5,23.5 c 0.0062,0.162871 0.01465,0.325647 0.02539,0.488281 1.804703,2.004713 4.358462,4.058551 7.974609,5.589844 V 35 l 5,1 0.664062,-4.652344 c 2.317931,0.462667 4.343408,0.529841 6.101563,0.328125 L 26,36 31,34 29.722656,30.167969 C 34,28 35,25 35,25 35,25 37,10 23,7.0000002 21.451249,6.6681249 19.998496,6.4960444 18.634766,6.449219 Z" style="opacity:.2"/>
 <path d="M 22.5 5 A 17.5 17.5 0 0 0 5 22.5 A 17.5 17.5 0 0 0 5.0214844 22.908203 A 17.5 17.5 0 0 1 22.5 6 A 17.5 17.5 0 0 1 30.4375 7.9238281 L 32 6 L 38.554688 12.554688 L 39 12 L 32 5 L 30.4375 6.9238281 A 17.5 17.5 0 0 0 22.5 5 z M 37.939453 14.326172 L 37.617188 14.728516 A 17.5 17.5 0 0 1 39.974609 23 A 17.5 17.5 0 0 0 40 22.5 A 17.5 17.5 0 0 0 37.939453 14.326172 z M 39.974609 23 A 17.5 17.5 0 0 1 40 23.5 A 17.5 17.5 0 0 1 39.974609 24 L 42.777344 24 L 43 23 L 39.974609 23 z M 8.4804688 33.947266 L 6 37 L 6.5605469 37.310547 L 8.8691406 34.46875 A 17.5 17.5 0 0 1 8.4804688 33.947266 z M 32.320312 37.960938 A 17.5 17.5 0 0 1 32.052734 38.15625 L 32.703125 40.111328 L 33 40 L 32.320312 37.960938 z " style="fill:#f4f4f7;opacity:.2"/>
 <path d="M 18.634766,5.4492188 C 10.667122,7.2535949 5.007948,14.330602 5,22.5 c 0.00619,0.162871 0.014654,0.325647 0.025391,0.488281 C 6.830094,24.992994 9.3838529,27.046832 13,28.578125 V 34 l 5,1 0.664062,-4.652344 c 2.317931,0.462667 4.343408,0.529841 6.101563,0.328125 L 26,35 31,33 29.722656,29.167969 C 34,27 35,24 35,24 35,24 37,9 23,6 21.451249,5.6681247 19.998496,5.4960442 18.634766,5.4492188 Z" style="fill:#3f3f3f"/>
 <path d="m16.875 16.75c-0.625 0-0.875 0.25-0.875 0.25s0 5 3 5c4 0 4-1 4-1s0-1-3-3c-1.5-1-2.5-1.25-3.125-1.25zm17.025391 2.140625c-0.21755-0.03771-0.884827 0.101593-2.900391 1.109375-2 1-2 2-2 2s0 1 3 1c1.795055 0 2-4 2-4s0.03092-0.08675-0.09961-0.109375z" style="opacity:.2"/>
 <path d="m16.875 15.75c-0.625 0-0.875 0.25-0.875 0.25s0 5 3 5c4 0 4-1 4-1s0-1-3-3c-1.5-1-2.5-1.25-3.125-1.25zm17.025391 2.140625c-0.21755-0.03771-0.884827 0.101593-2.900391 1.109375-2 1-2 2-2 2s0 1 3 1c1.795055 0 2-4 2-4s0.03092-0.086749-0.099609-0.109375z" style="fill:#1bffe1"/>
 <path d="m16.875 15.75c-0.625 0-0.875 0.25-0.875 0.25s0.006262 0.400928 0.070312 0.957031c0.074539-0.059109 0.287655-0.207031 0.804688-0.207031 0.625 0 1.625 0.25 3.125 1.25 1.63843 1.092286 2.367585 1.875352 2.705078 2.371094 0.278886-0.199355 0.294922-0.371094 0.294922-0.371094s0-1-3-3c-1.5-1-2.5-1.25-3.125-1.25zm17.025391 2.140625c-0.21755-0.03771-0.884827 0.101593-2.900391 1.109375-2 1-2 2-2 2s0.014811 0.18132 0.244141 0.388672c0.246254-0.376764 0.741093-0.881289 1.755859-1.388672 2.011817-1.005908 2.67962-1.146356 2.898438-1.109375 0.075423-0.50881 0.101562-0.890625 0.101562-0.890625s0.03092-0.08675-0.099609-0.109375z" style="fill:#f4f4f7;opacity:.2"/>
 <path d="m18.634766 5.4492188c-7.967644 1.804376-13.626818 8.8813832-13.634766 17.050781 0.0057936 0.152442 0.0136605 0.304795 0.0234375 0.457031 0.2532197-7.936916 5.8218495-14.743784 13.611328-16.507812 1.36373 0.0468253 2.816483 0.2189059 4.365234 0.5507812 10.279822 2.2028189 11.927285 10.858901 12.080078 15.3125 0.065329-3.930725-0.873018-13.910987-12.080078-16.3125-1.548751-0.3318753-3.001504-0.5039559-4.365234-0.5507812zm11.36914 24.564453c-0.095158 0.05082-0.182635 0.104314-0.28125 0.154297l0.982422 2.949219 0.294922-0.117188-0.996094-2.986328z" style="fill:#f4f4f7;opacity:.1"/>
 <path d="m24 8a2 1 0 0 0-2 1 2 1 0 0 0 2 1 2 1 0 0 0 2-1 2 1 0 0 0-2-1zm3 4a3 1.5 0 0 0-3 1.5 3 1.5 0 0 0 3 1.5 3 1.5 0 0 0 3-1.5 3 1.5 0 0 0-3-1.5zm0.5 5a1.5 1 0 0 0-1.5 1 1.5 1 0 0 0 1.5 1 1.5 1 0 0 0 1.5-1 1.5 1 0 0 0-1.5-1z" style="opacity:.2"/>
 <path d="m24 7a2 1 0 0 0-2 1 2 1 0 0 0 2 1 2 1 0 0 0 2-1 2 1 0 0 0-2-1zm3 4a3 1.5 0 0 0-3 1.5 3 1.5 0 0 0 3 1.5 3 1.5 0 0 0 3-1.5 3 1.5 0 0 0-3-1.5zm0.5 5a1.5 1 0 0 0-1.5 1 1.5 1 0 0 0 1.5 1 1.5 1 0 0 0 1.5-1 1.5 1 0 0 0-1.5-1z" style="fill:#df563d"/>
 <path d="m24 7a2 1 0 0 0-2 1 2 1 0 0 0 0.269531 0.5 2 1 0 0 1 1.730469-0.5 2 1 0 0 1 1.730469 0.5 2 1 0 0 0 0.269531-0.5 2 1 0 0 0-2-1zm3 4a3 1.5 0 0 0-3 1.5 3 1.5 0 0 0 0.175781 0.5 3 1.5 0 0 1 2.824219-1 3 1.5 0 0 1 2.824219 1 3 1.5 0 0 0 0.175781-0.5 3 1.5 0 0 0-3-1.5zm0.5 5a1.5 1 0 0 0-1.5 1 1.5 1 0 0 0 0.203125 0.5 1.5 1 0 0 1 1.296875-0.5 1.5 1 0 0 1 1.296875 0.5 1.5 1 0 0 0 0.203125-0.5 1.5 1 0 0 0-1.5-1z" style="fill:#f4f4f7;opacity:.1"/>
</svg>
