<svg xmlns="http://www.w3.org/2000/svg" width="48" height="48" version="1.1">
 <rect style="opacity:.2" width="40" height="40" x="4" y="5" rx="2" ry="2"/>
 <rect style="fill:#3f3f3f" width="40" height="40" x="4" y="4" rx="2" ry="2"/>
 <path style="opacity:0.2" d="m 16,8 a 3,3 0 0 0 -3,3 3,3 0 0 0 2,2.824219 V 22.712891 23 37.162109 L 24,43 33,37.162109 V 23 17 13.826172 a 3,3 0 0 0 0.246094,-0.101563 3,3 0 0 0 0.03125,-0.01172 3,3 0 0 0 0.01367,-0.0078 3,3 0 0 0 0.236328,-0.126953 3,3 0 0 0 0.01367,-0.0078 3,3 0 0 0 0.0059,-0.0039 3,3 0 0 0 0.205078,-0.136718 3,3 0 0 0 0.05469,-0.03906 3,3 0 0 0 0.175781,-0.144531 3,3 0 0 0 0.05859,-0.05078 3,3 0 0 0 0.162109,-0.164062 3,3 0 0 0 0.03125,-0.03125 3,3 0 0 0 0.0098,-0.01367 3,3 0 0 0 0.154297,-0.191406 3,3 0 0 0 0.02344,-0.02734 3,3 0 0 0 0.0098,-0.01563 3,3 0 0 0 0.107421,-0.160156 3,3 0 0 0 0.07031,-0.117188 3,3 0 0 0 0.07422,-0.142578 3,3 0 0 0 0.05664,-0.115234 3,3 0 0 0 0.06055,-0.152344 3,3 0 0 0 0.05078,-0.138672 3,3 0 0 0 0.03906,-0.142578 3,3 0 0 0 0.03711,-0.140625 3,3 0 0 0 0.02539,-0.142578 3,3 0 0 0 0.02539,-0.164062 3,3 0 0 0 0.01172,-0.140626 A 3,3 0 0 0 35,11 a 3,3 0 0 0 -0.01367,-0.263672 3,3 0 0 0 -0.01367,-0.107422 3,3 0 0 0 -0.0293,-0.199218 3,3 0 0 0 -0.02148,-0.0918 3,3 0 0 0 -0.04883,-0.195313 3,3 0 0 0 -0.0332,-0.09766 3,3 0 0 0 -0.06445,-0.1816408 3,3 0 0 0 -0.05078,-0.1113281 3,3 0 0 0 -0.07617,-0.15625 3,3 0 0 0 -0.07422,-0.1308593 3,3 0 0 0 -0.07031,-0.1132813 3,3 0 0 0 -0.105468,-0.1484375 3,3 0 0 0 -0.07031,-0.09375 3,3 0 0 0 -0.117187,-0.1328125 3,3 0 0 0 -0.0918,-0.095703 3,3 0 0 0 -0.0957,-0.091797 3,3 0 0 0 -0.132813,-0.1171875 3,3 0 0 0 -0.09375,-0.070312 3,3 0 0 0 -0.148437,-0.1054687 3,3 0 0 0 -0.113282,-0.070313 3,3 0 0 0 -0.130859,-0.074219 3,3 0 0 0 -0.15625,-0.076172 3,3 0 0 0 -0.111328,-0.050781 3,3 0 0 0 -0.181641,-0.064453 3,3 0 0 0 -0.09766,-0.033203 3,3 0 0 0 -0.195313,-0.048828 3,3 0 0 0 -0.0918,-0.021484 A 3,3 0 0 0 32.371094,8.0273438 3,3 0 0 0 32.263672,8.0136719 3,3 0 0 0 32,8 a 3,3 0 0 0 -0.263672,0.013672 3,3 0 0 0 -0.107422,0.013672 3,3 0 0 0 -0.199218,0.029297 3,3 0 0 0 -0.0918,0.021484 3,3 0 0 0 -0.195313,0.048828 3,3 0 0 0 -0.09766,0.033203 3,3 0 0 0 -0.181641,0.064453 3,3 0 0 0 -0.111328,0.050781 3,3 0 0 0 -0.15625,0.076172 3,3 0 0 0 -0.130859,0.074219 3,3 0 0 0 -0.113282,0.070313 3,3 0 0 0 -0.148437,0.1054687 3,3 0 0 0 -0.09375,0.070312 3,3 0 0 0 -0.132813,0.1171875 3,3 0 0 0 -0.0957,0.091797 3,3 0 0 0 -0.0918,0.095703 3,3 0 0 0 -0.117187,0.1328125 3,3 0 0 0 -0.07031,0.09375 3,3 0 0 0 -0.105468,0.1484375 3,3 0 0 0 -0.07031,0.1132813 3,3 0 0 0 -0.07422,0.1308593 3,3 0 0 0 -0.07617,0.15625 3,3 0 0 0 -0.05078,0.1113281 3,3 0 0 0 -0.06445,0.1816408 3,3 0 0 0 -0.0332,0.09766 3,3 0 0 0 -0.04883,0.195313 3,3 0 0 0 -0.02148,0.0918 3,3 0 0 0 -0.0293,0.199218 3,3 0 0 0 -0.01367,0.107422 A 3,3 0 0 0 29,11 a 3,3 0 0 0 0.01367,0.263672 3,3 0 0 0 0.01367,0.107422 3,3 0 0 0 0.0293,0.199218 3,3 0 0 0 0.02148,0.0918 3,3 0 0 0 0.04883,0.195313 3,3 0 0 0 0.0293,0.08594 3,3 0 0 0 0.07813,0.214844 3,3 0 0 0 0.01563,0.03516 3,3 0 0 0 0.113281,0.232422 3,3 0 0 0 0.02344,0.04102 3,3 0 0 0 0.136719,0.21875 3,3 0 0 0 0.01367,0.02148 3,3 0 0 0 0.171875,0.22461 3,3 0 0 0 0.203125,0.21875 3,3 0 0 0 0.002,0.002 3,3 0 0 0 0.464844,0.36914 3,3 0 0 0 0.01367,0.0078 3,3 0 0 0 0.248047,0.140625 3,3 0 0 0 0.0059,0.0039 3,3 0 0 0 0.269532,0.119141 A 3,3 0 0 0 31,13.824219 V 17 h -6 v -3.173828 a 3,3 0 0 0 0.246094,-0.101563 3,3 0 0 0 0.03125,-0.01172 3,3 0 0 0 0.01367,-0.0078 3,3 0 0 0 0.236328,-0.126953 3,3 0 0 0 0.01367,-0.0078 3,3 0 0 0 0.0059,-0.0039 3,3 0 0 0 0.205078,-0.136718 3,3 0 0 0 0.05469,-0.03906 3,3 0 0 0 0.175781,-0.144531 3,3 0 0 0 0.05859,-0.05078 3,3 0 0 0 0.162109,-0.164062 3,3 0 0 0 0.03125,-0.03125 3,3 0 0 0 0.0098,-0.01367 3,3 0 0 0 0.154297,-0.191406 3,3 0 0 0 0.02344,-0.02734 3,3 0 0 0 0.0098,-0.01563 3,3 0 0 0 0.107421,-0.160156 3,3 0 0 0 0.07031,-0.117188 3,3 0 0 0 0.07422,-0.142578 3,3 0 0 0 0.05664,-0.115234 3,3 0 0 0 0.06055,-0.152344 3,3 0 0 0 0.05078,-0.138672 3,3 0 0 0 0.03906,-0.142578 3,3 0 0 0 0.03711,-0.140625 3,3 0 0 0 0.02539,-0.142578 3,3 0 0 0 0.02539,-0.164062 3,3 0 0 0 0.01172,-0.140626 A 3,3 0 0 0 27,11 a 3,3 0 0 0 -0.01367,-0.263672 3,3 0 0 0 -0.01367,-0.107422 3,3 0 0 0 -0.0293,-0.199218 3,3 0 0 0 -0.02148,-0.0918 3,3 0 0 0 -0.04883,-0.195313 3,3 0 0 0 -0.0332,-0.09766 3,3 0 0 0 -0.06445,-0.1816408 3,3 0 0 0 -0.05078,-0.1113281 3,3 0 0 0 -0.07617,-0.15625 3,3 0 0 0 -0.07422,-0.1308593 3,3 0 0 0 -0.07031,-0.1132813 3,3 0 0 0 -0.105468,-0.1484375 3,3 0 0 0 -0.07031,-0.09375 3,3 0 0 0 -0.117187,-0.1328125 3,3 0 0 0 -0.0918,-0.095703 3,3 0 0 0 -0.0957,-0.091797 3,3 0 0 0 -0.132813,-0.1171875 3,3 0 0 0 -0.09375,-0.070312 3,3 0 0 0 -0.148437,-0.1054687 3,3 0 0 0 -0.113282,-0.070313 3,3 0 0 0 -0.130859,-0.074219 3,3 0 0 0 -0.15625,-0.076172 3,3 0 0 0 -0.111328,-0.050781 3,3 0 0 0 -0.181641,-0.064453 3,3 0 0 0 -0.09766,-0.033203 3,3 0 0 0 -0.195313,-0.048828 3,3 0 0 0 -0.0918,-0.021484 A 3,3 0 0 0 24.371094,8.0273438 3,3 0 0 0 24.263672,8.0136719 3,3 0 0 0 24,8 a 3,3 0 0 0 -3,3 3,3 0 0 0 2,2.824219 V 17 H 17 V 13.826172 A 3,3 0 0 0 19,11 3,3 0 0 0 16,8 Z"/>
 <path style="fill:#f4f4f7;opacity:0.1" d="m6 4c-1.108 0-2 0.892-2 2v1c0-1.108 0.892-2 2-2h36c1.108 0 2 0.892 2 2v-1c0-1.108-0.892-2-2-2h-36z"/>
 <rect style="fill:#fae71d" width="2" height="9" x="15" y="12.71"/>
 <rect style="fill:#fae71d" width="2" height="9" x="23" y="12.71"/>
 <rect style="fill:#fae71d" width="2" height="9" x="31" y="12.71"/>
 <circle style="fill:#fae71d" cx="24" cy="10" r="3"/>
 <circle style="fill:#fae71d" cx="16" cy="10" r="3"/>
 <circle style="fill:#fae71d" cx="32" cy="10" r="3"/>
 <path style="fill:#f4f4f7" d="M 15,21.712528 H 33 V 36.162951 L 24,42 15,36.162951 Z"/>
 <rect style="opacity:0.675" width="2" height="5" x="19" y="27"/>
 <rect style="opacity:0.675" width="2" height="5" x="27" y="27"/>
 <rect style="fill:#fae71d" width="18" height="6" x="15" y="16"/>
 <path style="opacity:0.2" d="M 24 7 L 24 42 L 33 36.162109 L 33 22 L 33 16 L 33 12.826172 A 3 3 0 0 0 35 10 A 3 3 0 0 0 32 7 A 3 3 0 0 0 29 10 A 3 3 0 0 0 31 12.824219 L 31 16 L 25 16 L 25 12.826172 A 3 3 0 0 0 27 10 A 3 3 0 0 0 24 7 z"/>
</svg>
