<svg xmlns="http://www.w3.org/2000/svg" height="48" width="48" version="1.1">
 <g>
  <rect style="opacity:.2" rx="2" ry="2" height="40" width="40" y="5" x="4"/>
  <rect style="fill:#811623" rx="2" ry="2" height="40" width="40" y="4" x="4"/>
  <path style="opacity:.2" d="m6 5c-1.108 0-2 0.892-2 2v20l12-2 4 6-4 14h26c0.554 0 1.052562-0.224438 1.414062-0.585938l-15.414062-15.414062 4-8 12-4v-10c0-1.108-0.892-2-2-2h-12l-4 10-6 2z"/>
  <path style="fill:#581118" d="m6 4c-1.108 0-2 0.892-2 2v20l12-2 4 6-4 14h26c0.554 0 1.052562-0.224438 1.414062-0.585938l-15.414062-15.414062 4-8 12-4v-10c0-1.108-0.892-2-2-2h-12l-4 10-6 2z"/>
  <path style="opacity:.2" d="m30 5-1.652344 4 11.652344 10-6 16-18 4-7.0078124-12 6.3320314-14-3.324219-2.855469-8 18.855469 12 16 24-6 4-10v-13.109375zm-4 10-6 2-4 8 4 6 8-2 4-8zm0 2 4 4-4 7-6 1-2-4 3-6z"/>
  <path style="fill:#d12b43" d="m30 4-1.652344 4 11.652344 10-6 16-18 4-7.0078124-12 6.3320314-14-3.324219-2.8554688-8 18.855469 12 16 24-6 4-10v-13.109375zm-4 10-6 2-4 8 4 6 8-2 4-8zm0 2 4 4-4 7-6 1-2-4 3-6z"/>
  <path style="opacity:.1;fill:#f4f4f7" d="m6 4c-1.108 0-2 0.892-2 2v1c0-1.108 0.892-2 2-2h36c1.108 0 2 0.892 2 2v-1c0-1.108-0.892-2-2-2z"/>
 </g>
</svg>
