<svg xmlns="http://www.w3.org/2000/svg" width="48" height="48" version="1.1">
 <path style="opacity:0.2" d="m 4.0334429,17.878893 c 1.2658158,-2.85932 4.2657818,-1.303225 5.349384,-3.054257 1.0256301,-1.657353 -2.3824738,-4.234221 -4.4866618,-4.119429 0.7460651,-0.7117096 5.5533239,0.158639 7.0473899,0.202535 1.813469,0.05328 -1.009755,-3.5242227 -1.009755,-3.5242227 0.663427,-1.3059634 4.134884,-0.4675782 5.511096,1.3520486 1.564667,2.0688031 3.929766,-3.4599919 2.51195,-4.4052024 2.945324,0.138883 3.37724,4.484759 4.89292,4.6286345 2.486139,0.235996 2.987025,-0.9816988 3.43822,-2.508631 1.753604,1.734299 0.361796,3.993876 1.25996,4.120945 2.939933,1.642447 5.095965,-2.837945 6.713773,-1.3590526 -2.406338,1.6346706 -4.581587,6.3616536 -1.062409,6.3764416 1.716933,0.103883 2.143281,0.366549 4.151969,2.033306 -4.57152,-1.57701 -4.651882,2.25548 -2.554252,1.818487 4.374536,-0.911335 5.451916,2.704798 4.96855,2.801471 -1.293692,-0.646846 -8.39497,-0.921501 -7.751168,0.193058 3.308233,5.727261 -3.104536,8.134267 -8.475993,9.487155 L 13.358943,32 C 11.31393,30.767951 4.333775,27.16923 4.0334429,21.92883 3.9919039,21.204026 6.4947321,22.091798 7.020758,21.268172 8.4492902,19.031447 6.8319178,17.848082 4.0334429,17.878893 Z"/>
 <path style="fill:#ff3c3c" d="M 4.0334429,16.878893 C 5.2992587,14.019573 8.2992247,15.575668 9.3828269,13.824636 10.408457,12.167283 7.0003531,9.5904154 4.8961651,9.7052074 5.6422302,8.9934974 10.449489,9.8638456 11.943555,9.9077421 13.757024,9.9610231 10.9338,6.3835193 10.9338,6.3835193 c 0.663427,-1.3059634 4.134884,-0.4675782 5.511096,1.3520486 1.564667,2.0688027 3.929766,-3.4599919 2.51195,-4.4052024 2.945324,0.138883 3.37724,4.484759 4.89292,4.6286345 2.486139,0.235996 2.987025,-0.9816988 3.43822,-2.508631 1.753604,1.734299 0.361796,3.9938762 1.25996,4.1209449 2.939933,1.6424471 5.095965,-2.8379449 6.713773,-1.3590525 -2.406338,1.634671 -4.581587,6.3616536 -1.062409,6.3764416 1.716933,0.103883 2.143281,0.366549 4.151969,2.033306 -4.57152,-1.57701 -4.651882,2.25548 -2.554252,1.818487 4.374536,-0.911335 5.451916,2.704798 4.96855,2.801471 -1.293692,-0.646846 -8.39497,-0.921501 -7.751168,0.193058 3.308233,5.727261 -3.104536,8.134267 -8.475993,9.487155 L 13.358943,31 C 11.31393,29.767951 4.333775,26.16923 4.0334429,20.92883 3.9919039,20.204026 6.4947321,21.091798 7.020758,20.268172 8.4492902,18.031447 6.8319178,16.848082 4.0334429,16.878893 Z"/>
 <path style="opacity:0.2;fill:#f4f4f7" d="M 18.957031 3.3300781 C 19.247855 3.5239605 19.372715 3.9161663 19.384766 4.390625 C 21.944958 4.9093679 22.411337 8.8224568 23.849609 8.9589844 C 26.335748 9.1949804 26.835914 7.9781041 27.287109 6.4511719 C 28.020716 7.1767026 28.195967 7.9863708 28.226562 8.7011719 C 28.253518 7.8589987 28.420643 6.5722265 27.287109 5.4511719 C 26.835914 6.9781041 26.335748 8.1949804 23.849609 7.9589844 C 22.333929 7.8151089 21.902355 3.4689611 18.957031 3.3300781 z M 19.341797 5.0097656 C 19.066505 6.841796 17.55733 9.2066378 16.445312 7.7363281 C 15.069101 5.9167013 11.597021 5.0768491 10.933594 6.3828125 C 10.933594 6.3828125 11.117707 6.6188665 11.361328 6.9648438 C 12.521681 6.3317951 15.259554 7.1685189 16.445312 8.7363281 C 17.780688 10.501962 19.689599 6.7397285 19.341797 5.0097656 z M 34.628906 7.9140625 C 33.092229 7.7584398 31.12127 11.009407 28.548828 9.5722656 C 28.346704 9.5436699 28.268454 9.3939888 28.236328 9.1796875 C 28.214271 9.9376653 28.114602 10.510833 28.548828 10.572266 C 31.003763 11.94376 32.909274 9.0561718 34.414062 8.9238281 C 34.687102 8.6515878 34.972519 8.4093492 35.261719 8.2128906 C 35.059493 8.0280291 34.848432 7.9362943 34.628906 7.9140625 z M 6.1015625 9.4296875 C 5.5226218 9.4474907 5.0830006 9.5271506 4.8964844 9.7050781 C 5.6564059 9.6636213 6.5842717 9.980127 7.4140625 10.470703 C 9.0777842 10.580345 11.070803 10.882567 11.943359 10.908203 C 12.636385 10.928564 12.649233 10.417131 12.404297 9.7792969 C 12.307324 9.8649719 12.16092 9.9145952 11.943359 9.9082031 C 10.82281 9.8752808 7.8383846 9.3762779 6.1015625 9.4296875 z M 32.408203 13.447266 C 32.196636 14.636562 32.629266 15.581293 34.199219 15.587891 C 35.257191 15.651903 35.82609 15.7799 36.576172 16.255859 C 37.072874 16.278947 37.653863 16.380413 38.351562 16.621094 C 36.342874 14.954337 35.916152 14.691774 34.199219 14.587891 C 33.108435 14.583307 32.567528 14.124864 32.408203 13.447266 z M 9.4667969 13.634766 C 9.4407205 13.698318 9.4207007 13.762994 9.3828125 13.824219 C 8.2992103 15.575251 5.2990189 14.019586 4.0332031 16.878906 C 4.2602021 16.876407 4.4653201 16.89481 4.6757812 16.908203 C 6.1216852 15.405241 8.4542505 16.324716 9.3828125 14.824219 C 9.608443 14.459614 9.609233 14.049925 9.4667969 13.634766 z M 34.617188 18.03125 C 34.21559 18.750484 34.711361 19.667548 35.796875 19.441406 C 38.650576 18.846903 40.083767 20.170346 40.613281 21.195312 C 40.6547 21.211664 40.731872 21.225311 40.765625 21.242188 C 41.248991 21.145515 40.171411 17.530071 35.796875 18.441406 C 35.221081 18.56136 34.81692 18.354506 34.617188 18.03125 z M 7.46875 19.294922 C 7.3875137 19.593999 7.2461863 19.915751 7.0214844 20.267578 C 6.4954585 21.091204 3.9916641 20.204883 4.0332031 20.929688 C 4.0486614 21.199414 4.093311 21.461727 4.1425781 21.722656 C 4.6184698 21.410478 6.5643894 21.983275 7.0214844 21.267578 C 7.5284346 20.473821 7.645638 19.81618 7.46875 19.294922 z M 33.287109 21.992188 C 33.028308 22.105361 32.906645 22.25026 33.013672 22.435547 C 33.526951 23.324144 33.783677 24.124119 33.869141 24.861328 C 33.98094 24.01749 33.807176 23.065894 33.287109 21.992188 z"/>
 <circle style="opacity:0.2" cx="22" cy="23" r="13"/>
 <circle style="fill:#f4f4f7" cx="22" cy="22" r="13"/>
 <circle style="opacity:0.2" cx="28" cy="29" r="16"/>
 <circle style="fill:#4f4f4f" cx="28" cy="28" r="16"/>
 <path style="opacity:0.1" d="M 28 12 A 16 16 0 0 0 12 28 A 16 16 0 0 0 12.021484 28.580078 A 16 16 0 0 1 28 13 A 16 16 0 0 1 31.796875 13.478516 A 13 13 0 0 0 30.541016 12.210938 A 16 16 0 0 0 28 12 z"/>
</svg>
