<svg xmlns="http://www.w3.org/2000/svg" height="48" width="48" version="1.1">
 <rect style="opacity:.2" rx="8" ry="8" height="40" width="40" y="5" x="4"/>
 <rect style="fill:#5c29a1" rx="8" ry="8" height="40" width="40" y="4" x="4"/>
 <path style="opacity:.2" d="m16 14c-5 0-6 6-6 6v10h7v6h14v-6h7v-10s-1-6-6-6zm1.5 5a4.5 4.5 0 0 1 4.5 4.5 4.5 4.5 0 0 1 -4.5 4.5 4.5 4.5 0 0 1 -4.5 -4.5 4.5 4.5 0 0 1 4.5 -4.5zm13 0a4.5 4.5 0 0 1 4.5 4.5 4.5 4.5 0 0 1 -4.5 4.5 4.5 4.5 0 0 1 -4.5 -4.5 4.5 4.5 0 0 1 4.5 -4.5z"/>
 <path style="fill:#efe3b7" d="m16 13c-5 0-6 6-6 6v10h7v6h14v-6h7v-10s-1-6-6-6h-16zm1.5 5a4.5 4.5 0 0 1 4.5 4.5 4.5 4.5 0 0 1 -4.5 4.5 4.5 4.5 0 0 1 -4.5 -4.5 4.5 4.5 0 0 1 4.5 -4.5zm13 0a4.5 4.5 0 0 1 4.5 4.5 4.5 4.5 0 0 1 -4.5 4.5 4.5 4.5 0 0 1 -4.5 -4.5 4.5 4.5 0 0 1 4.5 -4.5z"/>
 <path style="opacity:.2;fill:#f4f4f7" d="m12 4c-4.432 0-8 3.568-8 8v1c0-4.432 3.568-8 8-8h24c4.432 0 8 3.568 8 8v-1c0-4.432-3.568-8-8-8h-24z"/>
</svg>
