<svg width="48" height="48" version="1.1" xmlns="http://www.w3.org/2000/svg">
 <path d="m24 15s-20 0-20 26c0 4 4 4 4 4h32s4 0 4-4c0-26-20-26-20-26z" style="opacity:.2"/>
 <path d="m24 14s-20 0-20 26c0 4 4 4 4 4h16 16s4 0 4-4c0-26-20-26-20-26z" style="fill:#f7941d"/>
 <path d="M 24 14 C 24 14 4 14 4 40 C 4 40.097225 4.0129667 40.180882 4.0175781 40.273438 C 4.3948345 15.016253 24 15 24 15 C 24 15 43.605166 15.016253 43.982422 40.273438 C 43.987033 40.180882 44 40.097225 44 40 C 44 14 24 14 24 14 z " style="fill:#f9f9f9;opacity:.2"/>
 <rect x="22" y="14" width="4" height="30" style="fill:#f4f4f7;opacity:.3"/>
 <circle cx="24" cy="16" r="8" style="opacity:.2"/>
 <circle cx="24" cy="15" r="8" style="fill:#dfb189"/>
 <path d="m30 16s1 0 2 1v-8c0-3-5.018576-4-8-4s-8 1-8 4v8c1-1 2-1 2-1v-3s2 1 6 1 6-1 6-1z" style="opacity:.1"/>
 <path d="m30 15s1 0 2 1v-8c0-3-5.018576-4-8-4s-8 1-8 4v8c1-1 2-1 2-1v-3s2 1 6 1 6-1 6-1z" style="fill:#674b42"/>
 <path d="m21.5 15a1.5 1.5 0 0 0-1.5 1.5 1.5 1.5 0 0 0 1.5 1.5 1.5 1.5 0 0 0 1.5-1.5 1.5 1.5 0 0 0-1.5-1.5zm5 0a1.5 1.5 0 0 0-1.5 1.5 1.5 1.5 0 0 0 1.5 1.5 1.5 1.5 0 0 0 1.5-1.5 1.5 1.5 0 0 0-1.5-1.5z" style="opacity:.1"/>
 <path d="m21.5 14a1.5 1.5 0 0 0-1.5 1.5 1.5 1.5 0 0 0 1.5 1.5 1.5 1.5 0 0 0 1.5-1.5 1.5 1.5 0 0 0-1.5-1.5zm5 0a1.5 1.5 0 0 0-1.5 1.5 1.5 1.5 0 0 0 1.5 1.5 1.5 1.5 0 0 0 1.5-1.5 1.5 1.5 0 0 0-1.5-1.5z" style="fill:#3f3f3f"/>
 <path d="m24 4c-2.981424 0-8 1-8 4v1c0-3 5.018576-4 8-4s8 1 8 4v-1c0-3-5.018576-4-8-4z" style="fill:#f9f9f9;opacity:.1"/>
</svg>
