<svg xmlns="http://www.w3.org/2000/svg" width="48" height="48" version="1">
 <rect style="opacity:0.2" width="40" height="40" x="4" y="5" rx="12" ry="12"/>
 <rect style="fill:#fbce02" width="40" height="40" x="4" y="4" rx="12" ry="12"/>
 <path style="opacity:0.2;fill:#f4f4f7" d="M 16,4 C 9.352,4 4,9.352 4,16 v 1 C 4,10.352 9.352,5 16,5 h 16 c 6.648,0 12,5.352 12,12 V 16 C 44,9.352 38.648,4 32,4 Z"/>
 <path style="opacity:0.1" d="m 25.572266,6.9999823 c -0.157291,-0.030666 0.685168,3.1063427 0.640625,4.7324217 -0.195145,5.955073 -1.014215,9.477892 -1.71875,3.162109 l -0.576172,-0.939453 -0.375,2.833984 c -0.18399,1.096128 -0.459266,1.488759 -1.017578,1.44336 -0.169504,-0.01378 -0.552149,-0.959087 -0.742188,-0.816406 -0.179623,0.134871 -0.165891,1.348916 -0.365234,1.625 -0.228832,0.316929 -0.471807,0.727442 -0.728516,1.232422 -1.108874,2.181294 -1.647949,2.561223 -2.072265,1.458984 -0.02997,-0.07791 0.328522,-0.698671 0.177734,-0.847656 -0.185426,-0.183207 -0.892075,0.09837 -1.013672,-0.04297 -0.468059,-0.543928 -0.732422,-1.115457 -0.732422,-0.791016 0,0.08591 0.186852,2.334528 0.416016,3.539063 0.382541,2.010723 0.305633,2.425205 -0.929688,5.05664 -1.239848,2.641074 -1.301602,2.987704 -0.802734,4.421875 1.136137,3.266202 3.910285,7.261584 5.980469,8.611329 1.109447,0.723337 2.342427,1.317735 2.738281,1.320312 1.410481,0.01 5.438507,-4.226755 7.02539,-7.388672 C 32.314783,33.94113 33,32.335222 33,32.040998 c 0,-0.294234 -0.508488,-1.644891 -1.130859,-3 -1.05343,-2.293689 -1.093099,-2.586721 -0.558594,-4.242188 0.128824,-0.398978 1.550316,-2.127421 1.652344,-2.591797 0.0571,-0.259892 -1.193346,0.767432 -1.148438,0.488281 0.228259,-1.418987 0.281489,-3.081075 -0.01953,-4.929687 l -0.41211,-1.816406 -1.126953,2.316406 c -1.327509,1.659581 -1.876317,0.856529 -2.361328,-3.464844 -0.211893,-1.887898 -0.487897,-4.475382 -0.824219,-5.1152338 0,0 -1.403671,-2.6671473 -1.498046,-2.6855469 z m -7.015625,3.9999997 c -0.190286,0.02575 -1.156962,2.060819 -1.314453,2.496094 -0.411577,1.137546 -0.301781,2.345789 0.36914,4.048828 0.436685,1.108475 0.851525,1.544365 1.373047,1.439453 1.558973,-0.742166 0.81106,-2.802286 0.978516,-3.966797 -0.06906,0.0488 -0.6099,0.969893 -0.832032,0.396484 -0.250924,-0.647724 -0.83789,-1.180174 -0.83789,-1.664062 0,-0.593679 0.508324,-2.783096 0.263672,-2.75 z M 15.998047,22.42967 C 15.760923,22.42967 15,23.56731 15,23.921857 c 0,0.354557 0.719908,0.884766 0.957031,0.884766 0.237123,0 0.835938,-0.370052 0.835938,-0.72461 0,-0.354557 -0.557799,-1.652343 -0.794922,-1.652343 z"/>
 <path style="fill:#33bdc9" d="M 25.572266 6 C 25.414975 5.969334 26.257434 9.1063427 26.212891 10.732422 C 26.017746 16.687495 25.198676 20.210314 24.494141 13.894531 L 23.917969 12.955078 L 23.542969 15.789062 C 23.358979 16.88519 23.083703 17.277821 22.525391 17.232422 C 22.355887 17.218642 21.973242 16.273335 21.783203 16.416016 C 21.60358 16.550887 21.617312 17.764932 21.417969 18.041016 C 21.189137 18.357945 20.946162 18.768458 20.689453 19.273438 C 19.580579 21.454732 19.041504 21.834661 18.617188 20.732422 C 18.587218 20.654512 18.94571 20.033751 18.794922 19.884766 C 18.609496 19.701559 17.902847 19.983137 17.78125 19.841797 C 17.313191 19.297869 17.048828 18.72634 17.048828 19.050781 C 17.048828 19.136691 17.23568 21.385309 17.464844 22.589844 C 17.847385 24.600567 17.770477 25.015049 16.535156 27.646484 C 15.295308 30.287558 15.233554 30.634188 15.732422 32.068359 C 16.868559 35.334561 19.642707 39.329943 21.712891 40.679688 C 22.822338 41.403025 24.055318 41.997423 24.451172 42 C 25.861653 42.01 29.889679 37.773245 31.476562 34.611328 C 32.314783 32.941148 33 31.33524 33 31.041016 C 33 30.746782 32.491512 29.396125 31.869141 28.041016 C 30.815711 25.747327 30.776042 25.454295 31.310547 23.798828 C 31.439371 23.39985 32.860863 21.671407 32.962891 21.207031 C 33.019991 20.947139 31.769545 21.974463 31.814453 21.695312 C 32.042712 20.276325 32.095942 18.614237 31.794922 16.765625 L 31.382812 14.949219 L 30.255859 17.265625 C 28.92835 18.925206 28.379542 18.122154 27.894531 13.800781 C 27.682638 11.912883 27.406634 9.3253984 27.070312 8.6855469 C 27.070312 8.6855469 25.666641 6.0183996 25.572266 6 z M 18.556641 10 C 18.366355 10.02575 17.399679 12.060819 17.242188 12.496094 C 16.830611 13.63364 16.940407 14.841883 17.611328 16.544922 C 18.048013 17.653397 18.462853 18.089287 18.984375 17.984375 C 20.543348 17.242209 19.795435 15.182089 19.962891 14.017578 C 19.893831 14.066378 19.352991 14.987471 19.130859 14.414062 C 18.879935 13.766338 18.292969 13.233888 18.292969 12.75 C 18.292969 12.156321 18.801293 9.9669034 18.556641 10 z M 15.998047 21.429688 C 15.760923 21.429688 15 22.567328 15 22.921875 C 15 23.276432 15.719908 23.806641 15.957031 23.806641 C 16.194154 23.806641 16.792969 23.436589 16.792969 23.082031 C 16.792969 22.727474 16.23517 21.429688 15.998047 21.429688 z"/>
 <path style="opacity:0.3;fill:#f4f4f7" d="m 26.923828,18.451172 c 0.08113,0.146473 0.08231,0.302628 0.183594,0.451172 0.238737,0.350123 0.616568,0.759184 1.207031,0.99414 0.506482,0.201539 1.061919,0.125962 1.519531,0.0098 -0.026,0.469601 0.07345,1.050539 0.0059,1.470703 -0.03052,0.189729 -0.01176,0.508201 0.07813,0.857422 -0.161921,0.221068 -0.292026,0.27486 -0.509766,0.949219 -0.282299,0.874335 -0.528096,1.76011 -0.396484,2.757812 0.131612,0.997703 0.502839,1.766047 1.039062,2.933594 0.292222,0.636265 0.562242,1.281607 0.746094,1.769531 0.05755,0.152726 0.08691,0.246809 0.125,0.359375 -0.05699,0.149591 -0.114769,0.300681 -0.208984,0.521485 -0.254607,0.596697 -0.621597,1.388772 -1.023438,2.189453 -0.649775,1.294699 -1.976412,3.073118 -3.240234,4.402344 -0.631912,0.664612 -1.255661,1.227145 -1.71875,1.570312 -0.152082,0.112698 -0.251711,0.139659 -0.363281,0.185547 -0.05673,-0.02542 -0.08423,-0.0335 -0.148438,-0.06445 -0.403969,-0.19477 -0.933331,-0.491261 -1.414062,-0.804688 -1.242347,-0.810001 -4.213083,-4.801741 -5.183594,-7.591797 -0.224595,-0.645676 -0.206538,-0.554895 -0.171875,-0.746093 0.03466,-0.191199 0.285435,-0.86829 0.896484,-2.169922 0.628041,-1.33783 1.038555,-2.215558 1.228516,-3.248047 0.12362,-0.671911 -0.01407,-1.320775 -0.09375,-1.972656 0.443943,-0.07216 0.820276,-0.231549 1.068359,-0.40625 1.108236,-0.780423 1.331318,-1.523912 1.923828,-2.689453 0.224107,-0.440848 0.424064,-0.771608 0.566406,-0.96875 0.05689,-0.0788 0.01417,-0.07287 0.05664,-0.140626 0.321547,-0.07743 0.580463,-0.168043 0.880859,-0.34375 0.322635,0.270021 0.750479,0.531659 1.382813,0.511719 0.82645,-0.02606 1.307139,-0.475489 1.564453,-0.787109 z"/>
 <rect style="opacity:0.2" width="8.322" height="8.322" x="37.51" y="-7.79" transform="matrix(0.54075758,0.84117848,-0.54075758,0.84117848,0,0)"/>
 <rect style="fill:#f4f4f7" width="8.322" height="8.322" x="36.92" y="-8.39" transform="matrix(0.54075758,0.84117848,-0.54075758,0.84117848,0,0)"/>
</svg>
