<svg xmlns="http://www.w3.org/2000/svg" width="48" height="48" version="1">
 <rect style="opacity:0.2" width="36" height="40" x="-42" y="5" rx="2" ry="2" transform="scale(-1,1)"/>
 <rect style="fill:#b2bfd9" width="36" height="40" x="-42" y="4" rx="2" ry="2" transform="scale(-1,1)"/>
 <rect style="fill:#65424f" width="28" height="28" x="-38" y="8" rx="0" ry="0" transform="scale(-1,1)"/>
 <path style="fill:#f4f4f7;opacity:0.2" d="M 8 4 C 6.892 4 6 4.892 6 6 L 6 7 C 6 5.892 6.892 5 8 5 L 40 5 C 41.108 5 42 5.892 42 7 L 42 6 C 42 4.892 41.108 4 40 4 L 8 4 z"/>
 <path style="opacity:0.2;fill-rule:evenodd" d="m 26.679688,11.98043 c -0.221551,-0.0029 -0.429698,0.0088 -0.615235,0.02148 -2.069095,0.141799 -4.059652,2.152967 -4.064453,5.214844 -0.01957,2.6776 1.675218,4.273056 2.878906,5.923828 l 0.01758,0.02344 0.01953,0.02344 c 1.177678,1.430449 2.337233,2.511128 3.091796,3.585938 0.742382,1.057458 1.133057,2.056798 0.992188,3.636718 -0.230458,1.017751 -0.797272,1.310834 -1.498047,1.494141 -0.713622,0.186668 -1.40625,0.105469 -1.40625,0.105469 l -0.06641,-0.0098 -0.06836,0 c -0.656573,0 -1.035598,-0.252244 -1.384766,-0.773438 C 24.227004,30.70533 24,29.885814 24,28.999961 l -2,0 c 0,1.204369 0.273433,2.383593 0.914062,3.339844 0.630374,0.94094 1.712121,1.622482 2.990235,1.644531 0.0698,0.0097 0.989505,0.146869 2.103515,-0.144531 1.155403,-0.302228 2.589801,-1.23192 2.970704,-3.060547 l 0.01172,-0.05273 0.0059,-0.05273 C 31.203005,28.589905 30.5757,26.949325 29.644573,25.623017 28.718451,24.303837 27.545364,23.229882 26.476604,21.935517 25.146265,20.117103 23.985521,19.043767 24,17.228477 l 0,-0.0039 0,-0.002 c 0.0022,-2.211051 1.388454,-3.168912 2.201172,-3.224609 0.648619,-0.04445 0.977933,-0.01714 1.201172,0.193359 C 27.625582,14.401903 28,15.122993 28,16.999961 l 2,0 C 30,14.876929 29.637957,13.54962 28.775391,12.736289 28.128465,12.126291 27.344339,11.989196 26.679688,11.98043 Z M 17,11.999961 l 0,22 2,0 0,-22 -2,0 z"/>
 <path style="fill:none;stroke:#f4f4f7;stroke-width:2.00021625" d="m 29.000276,16 c 0,-4 -1.476226,-4.095308 -2.866994,-4 -1.441377,0.09878 -3.130428,1.583175 -3.133006,4.220815 -0.01797,2.252912 1.415133,3.586174 2.687213,5.33074 2.251072,2.73423 4.681045,4.314533 4.312787,8.02417 C 29.397671,32.468693 25.960924,32 25.960924,32 23.998821,32 23.000276,30.090222 23.000276,28"/>
 <rect style="fill:#f4f4f7" width="2" height="22" x="17" y="11"/>
</svg>
