<svg xmlns="http://www.w3.org/2000/svg" width="48" height="48" version="1">
 <path style="opacity:0.2" d="m 36.003609,43 2.00025,-32 c 0.06912,-1.1058417 -0.798369,-1.7111452 -1.6875,-2 l -11.8125,-4 -11.8125,4 c -0.885485,0.2998466 -1.756624,0.8941583 -1.6875,2 l 2.00025,32 c 0.06912,1.105842 0.752625,2 1.6875,2 l 19.6245,0 c 0.934875,0 1.618376,-0.894158 1.6875,-2 z"/>
 <path style="fill:#ffd787" d="m 36.003609,42 2.00025,-32 c 0.06912,-1.1058417 -0.798369,-1.7111452 -1.6875,-2 l -11.8125,-4 -11.8125,4 c -0.885485,0.2998466 -1.756624,0.8941583 -1.6875,2 l 2.00025,32 c 0.06912,1.105842 0.752625,2 1.6875,2 l 19.6245,0 c 0.934875,0 1.618376,-0.894158 1.6875,-2 z"/>
 <path style="opacity:0.2" d="m 23,10.999688 0.75,3.5 0.75,3.499999 0.75,-3.499999 0.75,-3.5 -1.5,0 z m -2.375,1 -0.8125,0.660156 L 19,13.32 l 1.5,2.339844 1.5,2.339843 -0.6875,-2.999999 z m 7.75,0 -0.6875,3 L 27,17.999687 28.5,15.659844 30,13.32 29.1875,12.659844 Z M 19.5,17.999687 c -1.932997,0 -3.5,2.462434 -3.5,5.5 0,3.037567 1.567003,5.5 3.5,5.5 1.932997,0 3.5,-2.462433 3.5,-5.5 0,-3.037566 -1.567003,-5.5 -3.5,-5.5 z m 10,0 c -1.932997,0 -3.5,2.462434 -3.5,5.5 0,3.037567 1.567003,5.5 3.5,5.5 1.932997,0 3.5,-2.462433 3.5,-5.5 0,-3.037566 -1.567003,-5.5 -3.5,-5.5 z m -5.042969,8.001977 c -0.342343,0.01545 -0.639329,0.216993 -0.748047,0.509766 l -0.832031,2.25 -0.832031,2.248047 c -0.244031,0.660135 0.556066,1.238444 1.21875,0.880859 1.135873,-0.773986 1.332024,-0.615568 2.472656,0 0.662685,0.357585 1.462781,-0.220724 1.21875,-0.880859 l -0.832031,-2.248047 -0.832031,-2.25 c -0.118575,-0.319388 -0.46056,-0.527111 -0.833985,-0.509766 z M 20,34 c -1.662,0 -3,1.338 -3,3 l 0,3 c 0,1.662 1.338,3 3,3 l 9,0 c 1.662,0 3,-1.338 3,-3 l 0,-3 c 0,-1.662 -1.338,-3 -3,-3 z m 0,1 0,3 -2,0 0,-1 c 0,-1.125297 0.874703,-2 2,-2 z m 1,0 3,0 0,3 -3,0 z m 4,0 3,0 0,3 -3,0 z m 4,0 c 1.125297,0 2,0.874703 2,2 l 0,1 -2,0 z m -11,4 2,0 0,3 c -1.125297,0 -2,-0.874703 -2,-2 z m 3,0 3,0 0,3 -3,0 z m 4,0 3,0 0,3 -3,0 z m 4,0 2,0 0,1 c 0,1.125297 -0.874703,2 -2,2 z"/>
 <path style="fill:#593333" d="m 23,9.9996875 0.75,3.5000005 0.75,3.499999 0.75,-3.499999 0.75,-3.5000005 -1.5,0 z M 20.625,10.999688 19.8125,11.659844 19,12.32 l 1.5,2.339844 1.5,2.339843 -0.6875,-2.999999 z m 7.75,0 -0.6875,3 L 27,16.999687 28.5,14.659844 30,12.32 29.1875,11.659844 Z M 19.5,16.999687 c -1.932997,0 -3.5,2.462434 -3.5,5.5 0,3.037567 1.567003,5.5 3.5,5.5 1.932997,0 3.5,-2.462433 3.5,-5.5 0,-3.037566 -1.567003,-5.5 -3.5,-5.5 z m 10,0 c -1.932997,0 -3.5,2.462434 -3.5,5.5 0,3.037567 1.567003,5.5 3.5,5.5 1.932997,0 3.5,-2.462433 3.5,-5.5 0,-3.037566 -1.567003,-5.5 -3.5,-5.5 z m -5.042969,8.001977 c -0.342343,0.01545 -0.639329,0.216993 -0.748047,0.509766 l -0.832031,2.25 -0.832031,2.248047 c -0.244031,0.660135 0.556066,1.238444 1.21875,0.880859 1.135873,-0.773986 1.332024,-0.615568 2.472656,0 0.662685,0.357585 1.462781,-0.220724 1.21875,-0.880859 l -0.832031,-2.248047 -0.832031,-2.25 c -0.118575,-0.319388 -0.46056,-0.527111 -0.833985,-0.509766 z M 20,33 c -1.662,0 -3,1.338 -3,3 l 0,3 c 0,1.662 1.338,3 3,3 l 9,0 c 1.662,0 3,-1.338 3,-3 l 0,-3 c 0,-1.662 -1.338,-3 -3,-3 z m 0,1 0,3 -2,0 0,-1 c 0,-1.125297 0.874703,-2 2,-2 z m 1,0 3,0 0,3 -3,0 z m 4,0 3,0 0,3 -3,0 z m 4,0 c 1.125297,0 2,0.874703 2,2 l 0,1 -2,0 z m -11,4 2,0 0,3 c -1.125297,0 -2,-0.874703 -2,-2 z m 3,0 3,0 0,3 -3,0 z m 4,0 3,0 0,3 -3,0 z m 4,0 2,0 0,1 c 0,1.125297 -0.874703,2 -2,2 z"/>
 <path style="opacity:0.2;fill:#f4f4f7" d="m 24.503906,4 -11.8125,4 c -0.885485,0.2998466 -1.756624,0.8941583 -1.6875,2 l 0.0332,0.542969 C 11.199207,9.7274697 11.937834,9.2551779 12.691406,9 l 11.8125,-4 11.8125,4 c 0.756205,0.2456706 1.492295,0.7242868 1.654297,1.541016 L 38.003906,10 c 0.06912,-1.1058417 -0.798369,-1.7111452 -1.6875,-2 l -11.8125,-4 z"/>
</svg>
