<svg width="48" height="48" version="1.1" xmlns="http://www.w3.org/2000/svg">
 <path d="m11 10h11l4 6.25 5-6.25h13l-13 15 8 15h-12l-4-6-5 6h-14l14-16z" style="opacity:.2"/>
 <path d="m11 9h11l4 6.25 5-6.25h13l-13 15 8 15h-12l-4-6-5 6h-14l14-16z" style="fill:#88bfe1"/>
 <path d="m11 9 0.5 1h10.5l4 6.25 5-6.25h12.132812l0.867188-1h-13l-5 6.25-4-6.25h-11zm6.681641 14.363281-13.681641 15.636719h0.875l13.125-15-0.318359-0.636719zm13.648437 1.25586-0.330078 0.380859 7.466797 14h0.533203l-7.669922-14.380859z" style="fill:#f4f4f7;opacity:.2"/>
 <circle cx="36" cy="36" r="11" style="opacity:.2"/>
 <circle cx="36" cy="35" r="11" style="fill:#d07336"/>
 <path d="m36 30s-0.708746-0.014031-1.447266 0.355469c-0.73851 0.3692-1.552734 1.311231-1.552734 2.644531h2c0-1 1-1 1-1s1 0 1 1c0 0.444093-0.104735 0.724011-0.294922 1h-1.705078v2h1.705078c0.190187 0.275989 0.294922 0.555907 0.294922 1 0 1-1 1-1 1s-1 0-1-1h-2c0 1.3333 0.814224 2.275331 1.552734 2.644531 0.73852 0.3695 1.447266 0.355469 1.447266 0.355469s0.708736 0.013831 1.447266-0.355469c0.73851-0.3692 1.552734-1.311231 1.552734-2.644531 0-0.772562-0.232346-1.449056-0.568359-2 0.336013-0.550944 0.568359-1.227438 0.568359-2 0-1.3333-0.814224-2.275331-1.552734-2.644531-0.73853-0.3693-1.447266-0.355469-1.447266-0.355469z" style="fill-rule:evenodd;fill:#f4f4f7"/>
</svg>
