<svg width="48" height="48" version="1.1" xmlns="http://www.w3.org/2000/svg">
 <path d="m25 45c22 0 20-20 20-20s-3-20-20-20c-17 0-22 19-22 19s-2 21 22 21z" style="opacity:.2"/>
 <path d="m25 44c22 0 20-20 20-20s-3-20-20-20-22 19-22 19-2 21 22 21z" style="fill:#4f4f4f"/>
 <path d="M 25 4 C 8.0000003 4 3 23 3 23 C 3 23 2.9474146 23.647439 2.9707031 24.667969 C 2.9827682 24.341615 3 24 3 24 C 3 24 8.0000003 5 25 5 C 42 5 45 25 45 25 C 45 25 45.02562 25.323041 45.039062 25.785156 C 45.065213 24.683681 45 24 45 24 C 45 24 42 4 25 4 z " style="fill:#f4f4f7;opacity:.1"/>
 <path d="m12 9c-9 0-10 10-10 10s0 10 8 10c10 0 10-10 10-10s2-10-8-10zm27 1c-8 0-8 8-8 8s0 8 8 8 7-8 7-8-1-8-7-8z" style="opacity:.2"/>
 <path d="m10 28c10 0 10-10 10-10s2-10-8-10c-9 0-10 10-10 10s0 10 8 10z" style="fill:#efefef"/>
 <circle cx="9" cy="17" r="2" style="fill:#4f4f4f"/>
 <path d="m39 25c-8 0-8-8-8-8s0-8 8-8c6 0 7 8 7 8s1 8-7 8z" style="fill:#efefef"/>
 <circle cx="41" cy="17" r="2" style="fill:#4f4f4f"/>
 <path d="m12 8c-9 0-10 10-10 10s0.0111313 0.296333 0.0410156 0.703125c0.2054227-1.441364 1.7359617-9.703125 9.9589844-9.703125 6.765024 0 8.032675 4.570241 8.148438 7.53125 0.117508-2.770995-0.544957-8.53125-8.148438-8.53125zm27 1c-8 0-8 8-8 8s0.00997 0.206682 0.035156 0.5c0.146659-1.707996 1.137346-7.5 7.964844-7.5 6 0 7 8 7 8s0.014285 0.129492 0.025391 0.310547c0.036606-0.77964-0.025391-1.310547-0.025391-1.310547s-1-8-7-8z" style="fill:#f4f4f7;opacity:.2"/>
</svg>
