<svg width="48" height="48" version="1.1" xmlns="http://www.w3.org/2000/svg">
 <g>
  <path d="m24 4c-11.023 0-20 8.978-20 20 0 11.024 8.978 20 20 20s20-8.977 20-20c0-11.022-8.977-20-20-20z" style="fill:#522f17"/>
  <path d="m24 9a16 16 0 0 0-16 16 16 16 0 0 0 16 16 16 16 0 0 0 16-16 16 16 0 0 0-16-16zm-6.418 4.7109h6.1309l7.0391 17.902 3.0957-1.0078 1.0312 3.4668-6.676 1.928-4.49-11.383-6.584 10.375h-4.1289l9.1953-14.85-1.0312-2.9336h-3.582v-3.498z" style="opacity:.2"/>
  <path d="m24 8a16 16 0 0 0-16 16 16 16 0 0 0 16 16 16 16 0 0 0 16-16 16 16 0 0 0-16-16zm-6.418 4.7109h6.1309l7.0391 17.902 3.0957-1.0078 1.0312 3.4668-6.676 1.928-4.49-11.383-6.584 10.375h-4.1289l9.1953-14.85-1.0312-2.9336h-3.582v-3.498z" style="fill:#a38976"/>
  <path d="m24 4c-11.023 0-20 8.978-20 20 0 0.168 0.0076 0.333 0.0117 0.5 0.2673-10.792 9.1333-19.5 19.988-19.5s19.721 8.708 19.988 19.5c4e-3 -0.167 0.012-0.332 0.012-0.5 0-11.022-8.977-20-20-20z" style="fill:#f4f4f7;opacity:.1"/>
  <path d="m4.0117 24.5c-0.0041 0.167-0.0117 0.332-0.0117 0.5 0 11.024 8.978 20 20 20s20-8.977 20-20c0-0.168-8e-3 -0.333-0.012-0.5-0.267 10.793-9.133 19.5-19.988 19.5s-19.721-8.707-19.988-19.5z" style="opacity:.2"/>
  <circle cx="36" cy="36" r="11" style="opacity:.2"/>
  <circle cx="36" cy="35" r="11" style="fill:#42a1cd"/>
  <path d="m36 30.000001s-0.70875-0.014-1.44727 0.3555c-0.73851 0.3692-1.55273 1.3112-1.55273 2.6445h2c0-1 1-1 1-1s1 0 1 1c0 0.5278-0.1396 0.8229-0.40625 1.1562-0.26665 0.3334-0.69336 0.668-1.19336 1.043s-1.07329 0.7904-1.55664 1.3946c-0.48335 0.6041-0.84375 1.434-0.84375 2.4062v0.999999h6v-1.999999h-3.64844c0.0313-0.044 0.0187-0.1112 0.0547-0.1562 0.26665-0.3334 0.69336-0.668 1.19336-1.043s1.07329-0.7904 1.55664-1.3946c0.48335-0.6041 0.84375-1.434 0.84375-2.4062 0-1.3333-0.81422-2.2753-1.55273-2.6445-0.73853-0.3693-1.44728-0.3555-1.44728-0.3555z" style="fill-rule:evenodd;fill:#f4f4f7"/>
 </g>
</svg>
