<svg width="48" height="48" version="1.1" xmlns="http://www.w3.org/2000/svg">
 <circle cx="24.000637" cy="24" r="15" style="fill:#00c923"/>
 <path d="m38.980637 24.414a15 15 0 0 1-14.98 14.586 15 15 0 0 1-14.98-14.414 15 15 0 0 0-0.02 0.414 15 15 0 0 0 15 15 15 15 0 0 0 15-15 15 15 0 0 0-0.02-0.586z" style="opacity:.2"/>
 <path d="m24.000637 9a15 15 0 0 0-15 15 15 15 0 0 0 0.0195 0.586 15 15 0 0 1 14.98-14.586 15 15 0 0 1 14.98 14.414 15 15 0 0 0 0.02-0.414 15 15 0 0 0-15-15z" style="fill:#f4f4f7;opacity:.1"/>
 <path d="m9.5787372 11.002a22.519 7.8728 29.364 0 0-5.1758 1.9082 22.519 7.8728 29.364 0 0 15.605 17.875 22.519 7.8728 29.364 0 0 23.592 4.3047 22.519 7.8728 29.364 0 0-4.6562-9.8574c-0.02538 0.31177-0.06913 0.61774-0.11328 0.92383a18.015 6.748 29.307 0 1 1.418 5.732 18.015 6.748 29.307 0 1-19.105-3.045 18.015 6.748 29.307 0 1-12.262-14.682 18.015 6.748 29.307 0 1 5.5229998-1.683c0.25464-0.21232 0.51664-0.41598 0.78516-0.61133a22.519 7.8728 29.364 0 0-5.6108998-0.866z" style="fill:#005ea1"/>
 <path d="m9.5787372 11.002a22.519 7.8728 29.364 0 0-5.1758 1.9082 22.519 7.8728 29.364 0 0-0.3457 2.1055 22.519 7.8728 29.364 0 1 0.3457-1.1055 22.519 7.8728 29.364 0 1 5.1758-1.9082 22.519 7.8728 29.364 0 1 3.7499998 0.44141 18.015 6.748 29.307 0 1 1.0762 0.03516c0.25464-0.21232 0.51664-0.41598 0.78516-0.61133a22.519 7.8728 29.364 0 0-5.6108998-0.866zm-1.0215 5.143a18.015 6.748 29.307 0 0 12.586 13.699 18.015 6.748 29.307 0 0 19.105 3.045 18.015 6.748 29.307 0 0 0.32-2.022 18.015 6.748 29.307 0 1-0.32 1.022 18.015 6.748 29.307 0 1-19.105-3.045 18.015 6.748 29.307 0 1-12.586-12.699zm30.387 9.0879c-0.02538 0.31177-0.06913 0.61774-0.11328 0.92383a18.015 6.748 29.307 0 1 0.10352 0.15625c0.0025-0.02694 0.0076-0.05306 0.0098-0.08008a22.519 7.8728 29.364 0 1 4.9961 7.7637 22.519 7.8728 29.364 0 0-4.9961-8.7637z" style="fill:#f4f4f7;opacity:.1"/>
 <path d="m13.338637 12.443a18.015 6.748 29.307 0 0-4.4569998 1.7188 18.015 6.748 29.307 0 0-0.32422 1.9824 18.015 6.748 29.307 0 1 0.32422-0.98242 18.015 6.748 29.307 0 1 5.5233998-1.6836c0.25464-0.21232 0.51664-0.41598 0.78516-0.61133a22.519 7.8728 29.364 0 0-1.8516-0.42383zm-9.2812998 2.5723a22.519 7.8728 29.364 0 0 15.951 16.77 22.519 7.8728 29.364 0 0 23.592 4.3047 22.519 7.8728 29.364 0 0 0.33984-2.0938 22.519 7.8728 29.364 0 1-0.33984 1.0938 22.519 7.8728 29.364 0 1-23.592-4.305 22.519 7.8728 29.364 0 1-15.951-15.769zm34.877 11.297c-0.02596 0.28387-0.06319 0.5642-0.10352 0.84375a18.015 6.748 29.307 0 1 1.7383 3.7109 18.015 6.748 29.307 0 0-1.6348-4.5547z" style="opacity:.2"/>
</svg>
