<svg width="48" height="48" version="1" xmlns="http://www.w3.org/2000/svg">
 <path d="m24 5.0002076c-1.893179 0.026691-3.243329 1.1515686-3.876953 3.0136719l0.02344-0.083984-2.974609 9.0703129h-10.03125c-0.02187-3.46e-4 -0.042583-3.46e-4 -0.064453 0-1.197906 0.0383-2.2780475 0.590003-3.0390625 1.503906-1.645849 1.863555-1.2970123 4.795729 0.7929687 6.185547l7.8867189 5.685547-3.060547 9.378906c-0.0034 0.01038-0.00657 0.02081-0.00977 0.03125-0.467655 1.515362-0.027888 3.076558 1.1484376 4.144532 0.0085 0.0079 0.01864 0.01574 0.02734 0.02344 1.413575 1.239545 3.399732 1.397086 4.996093 0.371094 0.03037-0.01938 0.06057-0.03961 0.08984-0.06055l8.0918063-5.7636724 8.091797 5.763672c0.02927 0.02094 0.05947 0.04117 0.08984 0.06055 1.596361 1.025992 3.582518 0.868451 4.996093-0.371094 0.0087-0.0077 0.01879-0.01556 0.02734-0.02344 1.176326-1.067974 1.616093-2.62917 1.148438-4.144532-0.0032-0.01044-0.0064-0.02087-0.0098-0.03125l-3.060547-9.378906 7.886719-5.685547c2.089981-1.389818 2.438818-4.321992 0.792969-6.185547-0.761015-0.913903-1.841157-1.465606-3.039063-1.503906-0.02187-3.46e-4 -0.04258-3.46e-4 -0.06445 0h-10.03125l-2.974609-9.0703129 0.02344 0.083984c-0.633588-1.8621029-1.983738-2.9869805-3.876917-3.0136715z" style="opacity:.2"/>
 <path d="m24 4c-1.893179 0.026691-3.243329 1.1515686-3.876953 3.0136719l0.023437-0.0839844-2.974609 9.0703125h-10.03125c-0.02187-3.46e-4 -0.0425831-3.46e-4 -0.0644531 0-1.197906 0.0383-2.2780475 0.590003-3.0390625 1.503906-1.645849 1.863555-1.2970123 4.795729 0.7929687 6.185547l7.8867189 5.685547-3.060547 9.378906c-0.0034 0.01038-0.0065656 0.02081-0.0097656 0.03125-0.467655 1.515362-0.0278885 3.076558 1.1484376 4.144532 0.00855 0.00788 0.018644 0.015737 0.027344 0.023437 1.413575 1.239545 3.399732 1.397086 4.996093 0.371094 0.03037-0.01938 0.060574-0.039607 0.089844-0.060547l8.091797-5.763672 8.091797 5.763672c0.02927 0.02094 0.059474 0.041167 0.089844 0.060547 1.596361 1.025992 3.582518 0.868451 4.996093-0.371094 0.0087-0.0077 0.018794-0.015557 0.027344-0.023437 1.176326-1.067974 1.616093-2.62917 1.148438-4.144532-0.0032-0.01044-0.006366-0.02087-0.009766-0.03125l-3.060547-9.378906 7.886719-5.685547c2.089981-1.389818 2.438818-4.321992 0.792969-6.185547-0.761015-0.913903-1.841157-1.465606-3.039063-1.503906-0.02187-3.46e-4 -0.042583-3.46e-4 -0.064453 0h-10.03125l-2.974609-9.0703125 0.023437 0.0839844c-0.633624-1.8621033-1.983774-2.9869809-3.876953-3.0136719z" style="fill:#c5b441"/>
 <path d="m24 4c-1.893179 0.026691-3.243329 1.1515686-3.876953 3.0136719l0.023437-0.0839844-2.974609 9.0703125h-10.03125c-0.02187-3.46e-4 -0.0425831-3.46e-4 -0.0644531 0-1.197906 0.0383-2.2780475 0.590003-3.0390625 1.503906-0.8267686 0.93613-1.1477749 2.14068-1 3.285156 0.0910091-0.81813 0.4129481-1.620451 1-2.285156 0.761015-0.913903 1.8411565-1.465606 3.0390625-1.503906 0.02187-3.46e-4 0.0425831-3.46e-4 0.0644531 0h10.03125l2.974609-9.0703125-0.023437 0.0839844c0.633624-1.8621033 1.983774-2.9869809 3.876953-3.0136719 1.893179 0.026691 3.243365 1.151569 3.876953 3.0136719l-0.023437-0.0839844 2.974609 9.0703125h10.03125c0.02187-3.46e-4 0.042583-3.46e-4 0.064453 0 1.197906 0.0383 2.278048 0.590003 3.039063 1.503906 0.587051 0.664705 0.908991 1.467026 1 2.285156 0.147775-1.144476-0.173232-2.349026-1-3.285156-0.761015-0.913903-1.841157-1.465606-3.039063-1.503906-0.02187-3.46e-4 -0.042583-3.46e-4 -0.064453 0h-10.03125l-2.974609-9.0703125 0.023437 0.0839844c-0.633624-1.8621033-1.983774-2.9869809-3.876953-3.0136719zm-11.546875 26.183594-2.796875 8.570312c-0.0034 0.01038-0.0065656 0.02081-0.0097656 0.03125-0.1785131 0.578443-0.2229084 1.162792-0.1464844 1.72461 0.0291582-0.241167 0.0721045-0.483594 0.1464844-0.72461 0.0032-0.01044 0.0063656-0.02087 0.0097656-0.03125l3.060547-9.378906-0.263672-0.191406zm23.09375 0-0.263672 0.191406 3.060547 9.378906c0.0034 0.01038 0.006566 0.02081 0.009766 0.03125 0.074379 0.241016 0.117326 0.483443 0.146484 0.72461 0.076424-0.561818 0.032029-1.146167-0.146484-1.72461-0.0032-0.01044-0.006366-0.02087-0.009766-0.03125l-2.796875-8.570312z" style="fill:#f4f4f7;opacity:.2"/>
 <path d="m24 4v20l7-8h-0.171875l-2.974609-9.0703125 0.023437 0.0839844c-0.63363-1.8621029-1.983774-2.9869809-3.876953-3.0136719zm0 20 12.232422 19.570312c0.332636-0.162864 0.653109-0.360958 0.945312-0.617187 0.0087-0.0077 0.018794-0.015557 0.027344-0.023437 1.176326-1.067974 1.616093-2.62917 1.148438-4.144532-0.0032-0.01044-0.006366-0.02087-0.009766-0.03125l-3.060547-9.378906 7.886719-5.685547c1.17324-0.780194 1.775625-2.0475 1.80664-3.337891l-20.976562 3.648438zm0 0-12.816406 19.222656c1.378278 0.976201 3.168357 1.044034 4.634765 0.101563 0.03037-0.01938 0.060574-0.039607 0.089844-0.060547l8.091797-5.763672v-13.5zm0 0-20.548828-5.603516c-0.9046563 1.808674-0.4020927 4.108621 1.3789062 5.292969l7.8867189 5.685547 11.283203-5.375z" style="opacity:.2"/>
 <circle cx="36" cy="36" r="11" style="opacity:.2"/>
 <circle cx="36" cy="35" r="11" style="fill:#ca6734"/>
 <path d="m36 30.000001s-0.70875-0.014-1.44727 0.3555c-0.73851 0.3692-1.55273 1.3112-1.55273 2.6445h2c0-1 1-1 1-1s1 0 1 1c0 0.5278-0.1396 0.8229-0.40625 1.1562-0.26665 0.3334-0.69336 0.668-1.19336 1.043s-1.07329 0.7904-1.55664 1.3946c-0.48335 0.6041-0.84375 1.434-0.84375 2.4062v0.999999h6v-1.999999h-3.64844c0.0313-0.044 0.0187-0.1112 0.0547-0.1562 0.26665-0.3334 0.69336-0.668 1.19336-1.043s1.07329-0.7904 1.55664-1.3946c0.48335-0.6041 0.84375-1.434 0.84375-2.4062 0-1.3333-0.81422-2.2753-1.55273-2.6445-0.73853-0.3693-1.44728-0.3555-1.44728-0.3555z" style="fill-rule:evenodd;fill:#f4f4f7"/>
</svg>
