<svg xmlns="http://www.w3.org/2000/svg" width="48" height="48" version="1.1">
 <rect style="opacity:.2" width="40" height="40" x="4" y="5" rx="2" ry="2"/>
 <rect style="fill:#f79042" width="40" height="40" x="4" y="4" rx="2" ry="2"/>
 <path style="fill:#f4f4f7;opacity:0.2" d="m6 4c-1.108 0-2 0.892-2 2v1c0-1.108 0.892-2 2-2h36c1.108 0 2 0.892 2 2v-1c0-1.108-0.892-2-2-2h-36z"/>
 <path style="opacity:0.2" d="m 27.045259,8.3091292 c -0.06074,0.069144 -0.04242,0.5904309 0.0078,1.1074218 0.01158,-0.3678514 0.01178,-0.7356879 0.0293,-1.1035156 -0.01384,-0.014761 -0.02701,-0.015399 -0.03711,-0.00391 z m 0.0078,1.1074218 c -0.112025,3.559438 0.0277,7.119111 0.203125,10.673829 0.15329,6.433808 -0.079,11.5731 0.08203,18.005859 1.037275,0.05016 2.393994,-0.0999 3.05664,0.203125 0.307509,-0.100601 0.447448,2.394721 0.884766,1.023438 -0.07016,-0.669925 -0.247904,-1.047361 -0.5625,-0.902344 1.572072,-1.328892 0.357417,3.104869 0.863281,2.527344 0.166284,-1.710858 -0.196182,-3.456007 0.166016,-5.146485 0.556864,1.227634 0.597745,2.637209 0.58789,3.994141 0.097,-0.470581 0.201156,-0.970484 0.195313,-1.132813 0.201872,-0.764917 1.86557,-0.672555 1.851562,0.181641 0.147527,-1.08677 -0.123691,-0.31962 0.896485,-0.666016 0.604365,-0.258716 1.793549,-0.324852 1.86914,0.226563 0.196279,-0.477574 0.198195,1.039847 0.408204,-0.08594 0.848669,-0.178235 1.747,-0.654065 1.347656,-1.853515 -0.179451,-1.402456 0.248942,-2.783055 -1.564453,-2.300782 -1.625889,0.03546 -3.273973,-0.145634 -4.884766,0.05469 -0.896294,0.923507 -0.658854,-0.06366 -0.986328,-0.402344 -1.42946,0.653914 -0.552546,-1.812225 -0.246094,-2.398437 -0.130069,-6.647364 -0.01724,-12.002407 -0.05273,-18.654297 0.170085,-0.781875 -0.541885,-0.860619 -0.736328,-1.470703 -0.235825,1.161759 -2.649038,0.819782 -2.13086,-0.576173 -0.583542,0.02756 -0.646925,-2.1240484 -0.804687,-0.375 -0.205358,0.624564 -0.36835,-0.153802 -0.44336,-0.925781 z m 3.378907,1.876954 c 0.03214,-0.158333 0.02657,-0.343183 -0.03516,-0.558595 -0.03712,0.234524 -0.0127,0.408437 0.03516,0.558595 z m 1.902343,28.501953 c -0.145768,0.707148 -0.277959,1.339902 -0.0039,0.605469 0.0023,-0.199121 0.0024,-0.40304 0.0039,-0.605469 z M 10.767915,11.002489 c -2.0264429,0.06108 -1.3823102,2.379815 -1.3613279,3.740235 0.0342,2.691938 0.055678,5.389517 -0.064453,8.076171 -0.1647798,2.155029 0.1805117,4.334762 -0.035156,6.5 0.04453,1.588207 -0.070756,2.753477 0.054687,4.226563 0.021134,0.987554 0.1238257,2.285011 -0.0625,3.103516 0.059168,-0.673798 -0.4157674,-3.04149 -0.2421875,-1.404297 -0.187327,1.002806 0.080862,2.439801 0.84375,2.822265 0.096981,0.686024 0.2397834,1.297145 0.4824224,0.677735 0.852939,0.516418 0.763703,-1.727607 1.265625,-0.279297 0.35017,-0.437926 1.574669,-0.866588 1.523437,0.199218 0.945428,-1.299356 3.057108,-0.695235 4.542969,-0.783203 0.521895,0.178497 2.795467,-1.276043 3.652344,-2.248047 2.098805,-2.601323 1.581977,-5.962511 1.5625,-8.992187 -0.01638,-3.761559 0.314776,-7.561556 -0.355469,-11.291016 -0.86724,-3.132445 -4.767876,-4.6255 -8.019531,-4.234375 -1.119442,0.02804 -2.229931,-0.03599 -3.345704,-0.0957 -0.159808,-0.01696 -0.30631,-0.02165 -0.441406,-0.01758 z m 6.947266,26.878906 c -0.0233,0.247136 0.101452,0.02027 0,0 z M 14.879243,14.52788 c 0.105605,0.0044 0.220084,0.01829 0.341797,0.04297 2.304554,-0.10349 4.230133,2.119705 3.542969,4.158204 -0.108237,0.704224 0.127087,2.08122 -0.267578,1.363281 -0.155776,-0.491838 0.43524,-1.64654 -0.197266,-1.892578 -0.137165,1.884933 -0.08025,3.795906 0.289063,5.660156 0.08596,1.284269 -0.440013,2.226794 -0.433594,3.585937 -0.243825,1.513729 0.45076,2.824671 0.02344,4.15625 -0.281026,1.11161 -0.136395,-1.403969 -0.232422,-1.84375 -0.334444,-1.591536 -0.586284,1.029164 -0.05273,1.560547 0.187091,0.681094 -0.456076,0.04371 -0.328125,0.917969 0.03233,0.560427 -0.165786,1.998673 -0.269531,0.751953 -0.298051,0.26485 -0.597629,0.655371 -0.625,0.794922 -1.095973,0.429597 -2.498382,0.751968 -3.029297,-0.357422 -0.411456,-1.544067 -0.03628,-3.078226 -0.171875,-4.623047 0.500304,-0.06174 0.113484,-1.841554 0.0059,-0.855468 -0.124402,-1.225604 0.461912,-2.078023 0.544922,-2.878907 -0.244297,-0.306598 -0.491433,-2.08657 -0.21289,-2.677734 -0.01554,-0.874326 0.407675,-2.281435 -0.08789,-2.466797 0.287995,-0.942425 -0.305555,-2.169404 0.02734,-2.847656 0.103889,0.962583 0.210605,1.017152 0.263672,-0.04297 -0.533055,-0.485677 -0.714929,-2.572353 0.86914,-2.505859 z"/>
 <path style="fill:#f4f4f7" d="m 27.045259,7.3085935 c -0.06074,0.069144 -0.04242,0.5904309 0.0078,1.1074218 0.01158,-0.3678514 0.01178,-0.7356879 0.0293,-1.1035156 -0.01384,-0.014761 -0.02701,-0.015399 -0.03711,-0.00391 z m 0.0078,1.1074218 c -0.112025,3.5594377 0.0277,7.1191107 0.203125,10.6738287 0.15329,6.433808 -0.079,11.5731 0.08203,18.005859 1.037275,0.05016 2.393994,-0.0999 3.05664,0.203125 0.307509,-0.100601 0.447448,2.394721 0.884766,1.023438 -0.07016,-0.669925 -0.247904,-1.047361 -0.5625,-0.902344 1.572072,-1.328892 0.357417,3.104869 0.863281,2.527344 0.166284,-1.710858 -0.196182,-3.456007 0.166016,-5.146485 0.556864,1.227634 0.597745,2.637209 0.58789,3.994141 0.097,-0.470581 0.201156,-0.970484 0.195313,-1.132813 0.201872,-0.764917 1.86557,-0.672555 1.851562,0.181641 0.147527,-1.08677 -0.123691,-0.31962 0.896485,-0.666016 0.604365,-0.258716 1.793549,-0.324852 1.86914,0.226563 0.196279,-0.477574 0.198195,1.039847 0.408204,-0.08594 0.848669,-0.178235 1.747,-0.654065 1.347656,-1.853515 -0.179451,-1.402456 0.248942,-2.783055 -1.564453,-2.300782 -1.625889,0.03546 -3.273973,-0.145634 -4.884766,0.05469 -0.896294,0.923507 -0.658854,-0.06366 -0.986328,-0.402344 -1.42946,0.653914 -0.552546,-1.812225 -0.246094,-2.398437 -0.130069,-6.647364 -0.01724,-12.002407 -0.05273,-18.654297 0.170085,-0.781875 -0.541885,-0.860619 -0.736328,-1.470703 -0.235825,1.161759 -2.649038,0.819782 -2.13086,-0.5761724 -0.583542,0.02756 -0.646925,-2.1240487 -0.804687,-0.375 -0.205358,0.6245633 -0.36835,-0.1538028 -0.44336,-0.9257813 z m 3.378907,1.8769537 c 0.03214,-0.158333 0.02657,-0.3431824 -0.03516,-0.5585943 -0.03712,0.2345235 -0.0127,0.4084363 0.03516,0.5585943 z m 1.902343,28.501953 c -0.145768,0.707148 -0.277959,1.339902 -0.0039,0.605469 0.0023,-0.199121 0.0024,-0.40304 0.0039,-0.605469 z M 10.767915,10.001953 c -2.0264429,0.06108 -1.3823102,2.379815 -1.3613279,3.740235 0.0342,2.691938 0.055678,5.389517 -0.064453,8.076171 -0.1647798,2.155029 0.1805117,4.334762 -0.035156,6.5 0.04453,1.588207 -0.070756,2.753477 0.054687,4.226563 0.021134,0.987554 0.1238257,2.285011 -0.0625,3.103516 0.059168,-0.673798 -0.4157674,-3.04149 -0.2421875,-1.404297 -0.187327,1.002806 0.080862,2.439801 0.84375,2.822265 0.096981,0.686024 0.2397834,1.297145 0.4824224,0.677735 0.852939,0.516418 0.763703,-1.727607 1.265625,-0.279297 0.35017,-0.437926 1.574669,-0.866588 1.523437,0.199218 0.945428,-1.299356 3.057108,-0.695235 4.542969,-0.783203 0.521895,0.178497 2.795467,-1.276043 3.652344,-2.248047 2.098805,-2.601323 1.581977,-5.962511 1.5625,-8.992187 -0.01638,-3.761559 0.314776,-7.561556 -0.355469,-11.291016 -0.86724,-3.132445 -4.767876,-4.6255001 -8.019531,-4.234375 -1.119442,0.02804 -2.229931,-0.03599 -3.345704,-0.0957 -0.159808,-0.01697 -0.30631,-0.02165 -0.441406,-0.01758 z m 6.947266,26.878906 c -0.0233,0.247136 0.101452,0.02027 0,0 z M 14.879243,13.527344 c 0.105605,0.0044 0.220084,0.01829 0.341797,0.04297 2.304554,-0.10349 4.230133,2.119705 3.542969,4.158204 -0.108237,0.704224 0.127087,2.08122 -0.267578,1.363281 -0.155776,-0.491838 0.43524,-1.64654 -0.197266,-1.892578 -0.137165,1.884933 -0.08025,3.795906 0.289063,5.660156 0.08596,1.284269 -0.440013,2.226794 -0.433594,3.585937 -0.243825,1.513729 0.45076,2.824671 0.02344,4.15625 -0.281026,1.11161 -0.136395,-1.403969 -0.232422,-1.84375 -0.334444,-1.591536 -0.586284,1.029164 -0.05273,1.560547 0.187091,0.681094 -0.456076,0.04371 -0.328125,0.917969 0.03233,0.560427 -0.165786,1.998673 -0.269531,0.751953 -0.298051,0.26485 -0.597629,0.655371 -0.625,0.794922 -1.095973,0.429597 -2.498382,0.751968 -3.029297,-0.357422 -0.411456,-1.544067 -0.03628,-3.078226 -0.171875,-4.623047 0.500304,-0.06174 0.113484,-1.841554 0.0059,-0.855468 -0.124402,-1.225604 0.461912,-2.078023 0.544922,-2.878907 -0.244297,-0.306598 -0.491433,-2.08657 -0.21289,-2.677734 -0.01554,-0.874326 0.407675,-2.281435 -0.08789,-2.466797 0.287995,-0.942425 -0.305555,-2.169404 0.02734,-2.847656 0.103889,0.962583 0.210605,1.017152 0.263672,-0.04297 -0.533055,-0.485677 -0.714929,-2.572353 0.86914,-2.505859 z"/>
</svg>
