<svg width="48" height="48" version="1.1" xmlns="http://www.w3.org/2000/svg">
 <g transform="matrix(2,0,0,2,2,2)">
  <path d="m4 15.5-1-3-1 1-1-7s4 4 10 4 10-4 10-4l-1 7-1-1-1 3-2-3h-10z" style="opacity:.2"/>
  <path d="m4 15-1-3-1 1-1-7s4 4 10 4 10-4 10-4l-1 7-1-1-1 3-2-3h-10z" style="fill:#323232"/>
  <path d="M 1,6 1.082031,6.5703125 C 1.3008924,6.7844858 5.1701426,10.5 11,10.5 c 5.829857,0 9.699108,-3.7155142 9.917969,-3.9296875 L 21,6 C 21,6 17,10 11,10 5,10 1,6 1,6 Z" style="fill:#f4f4f7;opacity:.1"/>
  <path d="m6 17.5 2 4 3-3 3 3 2-4v-1h-10z" style="opacity:.2"/>
  <path d="m6 17 2 4 3-3 3 3 2-4v-1h-10z" style="fill:#b2bfd9"/>
  <path d="m5 1.5v16s2 1 6 1 6-1 6-1v-16l-4 5h-4z" style="opacity:.1"/>
  <path d="m5 1v16s2 1 6 1 6-1 6-1v-16l-4 5h-4z" style="fill:#9966ff"/>
  <circle cx="8.5" cy="14" r="2.5" style="opacity:.2"/>
  <circle cx="8.5" cy="13.5" r="2.5" style="fill:#15b7ff"/>
  <circle cx="13.5" cy="14" r="2.5" style="opacity:.2"/>
  <circle cx="13.5" cy="13.5" r="2.5" style="fill:#15b7ff"/>
  <path d="M 8.5,11 A 2.5,2.5 0 0 0 6,13.5 2.5,2.5 0 0 0 6.0136719,13.738281 2.5,2.5 0 0 1 8.5,11.5 2.5,2.5 0 0 1 10.986328,13.761719 2.5,2.5 0 0 0 11,13.5 2.5,2.5 0 0 0 8.5,11 Z" style="fill:#f4f4f7;opacity:.2"/>
  <path d="M 13.5,11 A 2.5,2.5 0 0 0 11,13.5 2.5,2.5 0 0 0 11.013672,13.738281 2.5,2.5 0 0 1 13.5,11.5 2.5,2.5 0 0 1 15.986328,13.761719 2.5,2.5 0 0 0 16,13.5 2.5,2.5 0 0 0 13.5,11 Z" style="fill:#f4f4f7;opacity:.2"/>
  <path d="m5 1v0.5l4 5h4l4-5v-0.5l-4 5h-4z" style="fill:#f4f4f7;opacity:.2"/>
 </g>
</svg>
