<svg xmlns="http://www.w3.org/2000/svg" width="48" height="48" version="1">
 <rect style="fill:#4f4f4f" width="40" height="40" x="4" y="4" rx="2" ry="2"/>
 <path style="opacity:0.1;fill:#f4f4f7" d="M 6,4 C 4.892,4 4,4.892 4,6 L 4,7 C 4,5.892 4.892,5 6,5 l 36,0 c 1.108,0 2,0.892 2,2 L 44,6 C 44,4.892 43.108,4 42,4 L 6,4 Z"/>
 <path style="opacity:0.2" d="M 6,45 C 4.892,45 4,44.108 4,43 l 0,-1 c 0,1.108 0.892,2 2,2 l 36,0 c 1.108,0 2,-0.892 2,-2 l 0,1 c 0,1.108 -0.892,2 -2,2 L 6,45 Z"/>
 <path style="opacity:0.2" d="m 15,9 c -0.554,0 -1,0.446 -1,1 l 0,9 0,9 c 0,0.554 0.446,1 1,1 l 9,0 A 9.9999999,9.9999999 0 0 0 34,19 9.9999999,9.9999999 0 0 0 24,9 L 15,9 Z M 20.400391,15 24,15 a 3.9999999,3.9999999 0 0 1 4,4 3.9999999,3.9999999 0 0 1 -4,4 l -3.599609,0 C 20.178791,23 20,22.821209 20,22.599609 L 20,19 20,15.400391 C 20,15.178791 20.178791,15 20.400391,15 Z"/>
 <path style="fill:#f4f4f7" d="M 15 8 C 14.446 8 14 8.446 14 9 L 14 18 L 14 27 C 14 27.554 14.446 28 15 28 L 24 28 A 9.9999999 9.9999999 0 0 0 34 18 A 9.9999999 9.9999999 0 0 0 24 8 L 15 8 z M 20.400391 14 L 24 14 A 3.9999999 3.9999999 0 0 1 28 18 A 3.9999999 3.9999999 0 0 1 24 22 L 20.400391 22 C 20.178791 22 20 21.821209 20 21.599609 L 20 18 L 20 14.400391 C 20 14.178791 20.178791 14 20.400391 14 z"/>
 <g style="opacity:0.2;stroke:#000000" transform="translate(0,1)">
  <path style="fill:none;stroke:#000000;stroke-width:1.999874;stroke-linecap:round" d="M 11.013835,40.985723 9.01396,37.985911 M 7.0140842,36.985972 c 0,0 3.9997508,0.464471 3.9997508,-1.999872 0,-2.464346 -3.9997508,-1.999875 -3.9997508,-1.999875 m 9.83e-5,7.999596 0,-7.999498"/>
  <path style="fill:none;stroke:#000000;stroke-width:1.999874;stroke-linecap:round;stroke-linejoin:bevel" d="m 15.014179,37.98601 3.999748,0 m -3.999648,2.999811 0,-5.999622 m 3.999648,5.999622 0,-5.999622 m -3.999748,0 c 0,0 0,-1.999876 1.999874,-1.999876 1.999874,0 1.999874,1.999876 1.999874,1.999876"/>
  <path style="fill:none;stroke:#000000;stroke-width:1.999874;stroke-linecap:round;stroke-linejoin:round" d="m 23.000037,33.000465 0,7.999498 3.999747,0 0,0"/>
  <path style="fill:none;stroke:#000000;stroke-width:1.999874;stroke-linecap:round;stroke-linejoin:round" d="m 31.000037,33.000465 0,7.999498 3.999747,0 0,0"/>
  <path style="fill:none;stroke:#000000;stroke-width:1.999874;stroke-linecap:round" d="m 39.008333,40.985821 0,-3.999751 m 2.999811,-3.999747 -2.999811,3.999747 m -2.999811,-3.999747 2.999811,3.999747"/>
 </g>
 <g>
  <path style="fill:none;stroke:#f07400;stroke-width:1.999874;stroke-linecap:round" d="M 11.013835,40.985723 9.01396,37.985911 M 7.0140842,36.985972 c 0,0 3.9997508,0.464471 3.9997508,-1.999872 0,-2.464346 -3.9997508,-1.999875 -3.9997508,-1.999875 m 9.83e-5,7.999596 0,-7.999498"/>
  <path style="fill:none;stroke:#f07400;stroke-width:1.999874;stroke-linecap:round;stroke-linejoin:bevel" d="m 15.014179,37.98601 3.999748,0 m -3.999648,2.999811 0,-5.999622 m 3.999648,5.999622 0,-5.999622 m -3.999748,0 c 0,0 0,-1.999876 1.999874,-1.999876 1.999874,0 1.999874,1.999876 1.999874,1.999876"/>
  <path style="fill:none;stroke:#f07400;stroke-width:1.999874;stroke-linecap:round;stroke-linejoin:round" d="m 23.000037,33.000465 0,7.999498 3.999747,0 0,0"/>
  <path style="fill:none;stroke:#f07400;stroke-width:1.999874;stroke-linecap:round;stroke-linejoin:round" d="m 31.000037,33.000465 0,7.999498 3.999747,0 0,0"/>
  <path style="fill:none;stroke:#f07400;stroke-width:1.999874;stroke-linecap:round" d="m 39.008333,40.985821 0,-3.999751 m 2.999811,-3.999747 -2.999811,3.999747 m -2.999811,-3.999747 2.999811,3.999747"/>
 </g>
</svg>
