<svg width="48" height="48" version="1.1" xmlns="http://www.w3.org/2000/svg">
 <circle cx="24" cy="25" r="20" style="opacity:.2"/>
 <circle cx="24" cy="24" r="20" style="fill:#ff8dcb"/>
 <path d="M 24,4 A 20,20 0 0 0 4,24 20,20 0 0 0 4.0215,24.582 20,20 0 0 1 24,5 20,20 0 0 1 43.979,24.418 20,20 0 0 0 44,24 20,20 0 0 0 24,4 Z" style="fill:#f4f4f7;opacity:.2"/>
 <circle cx="24" cy="25" r="14" style="opacity:.2"/>
 <circle cx="24" cy="24" r="14" style="fill:#fdcfea"/>
 <path d="M 19.401622,18 C 16.427229,18 14,20.233333 14,23 c 0,1.4396 0.651081,2.752934 1.696489,3.666667 L 23.865352,34 32.302797,26.666667 C 33.348548,25.753332 34,24.440001 34,23 c 0,-2.766666 -2.42723,-5 -5.401622,-5 -1.96007,0 -3.657273,0.961332 -4.598736,2.416 C 23.056752,18.961333 21.359549,18 19.399478,18 Z" style="opacity:.1"/>
 <path d="M 19.401622,17 C 16.427229,17 14,19.233333 14,22 c 0,1.4396 0.651081,2.752934 1.696489,3.666667 L 23.865352,33 32.302797,25.666667 C 33.348548,24.753332 34,23.440001 34,22 c 0,-2.766666 -2.42723,-5 -5.401622,-5 -1.96007,0 -3.657273,0.961332 -4.598736,2.416 C 23.056752,17.961333 21.359549,17 19.399478,17 Z" style="fill:#03adee"/>
 <path d="m19.525316 18.243027c-2.40569 9.74e-4 -4.280878 1.787314-4.280878 3.930751 0 1.118387 0.498721 2.1397 1.318654 2.863612l0.0038 0.0038 7.313403 6.631222 7.556612-6.635062c0.820103-0.723506 1.318656-1.744918 1.318656-2.863612 0-2.144019-1.876143-3.930751-4.282777-3.930751-1.588744 0-2.923398 0.782047-3.65575 1.925069l-0.817036 1.274464-0.817036-1.274424c-0.733563-1.14318-2.067879-1.924417-3.65575-1.925069z" style="fill:none;opacity:.3;stroke-dasharray:0.97775154, 0.48887577;stroke-width:.48887578;stroke:#000000"/>
 <path d="M 24 10 A 14 14 0 0 0 10 24 A 14 14 0 0 0 10.021484 24.585938 A 14 14 0 0 1 24 11 A 14 14 0 0 1 37.978516 24.414062 A 14 14 0 0 0 38 24 A 14 14 0 0 0 24 10 z " style="fill:#f4f4f7;opacity:.2"/>
</svg>
