<svg xmlns="http://www.w3.org/2000/svg" width="48" height="48" version="1">
 <circle style="opacity:0.2" cx="24" cy="25" r="20"/>
 <circle style="fill:#4f4f4f" cx="24" cy="24" r="20"/>
 <path style="opacity:0.2" d="m 20.506572,9.3355568 c 0.03184,-0.0039 0.05171,-0.0039 0.05672,8.17e-4 0.07955,0.06757 -1.172148,1.3702352 -1.585355,1.6499022 -0.242257,0.163969 -0.662642,0.364095 -0.934198,0.44481 -0.268592,0.07982 -0.646827,0.146845 -0.847772,0.150714 -0.402961,0.234354 -0.966842,0.555502 -1.624514,0.927173 0.504484,-0.114048 1.08884,-0.166985 1.583193,-0.12401 0.69083,0.06015 2.301695,0.456741 2.489842,0.613075 0.04894,0.04062 -0.327131,0.106129 -0.835619,0.145299 -0.508487,0.03921 -1.225277,0.10613 -1.592917,0.148544 -0.719421,0.08314 -2.327464,0.0507 -2.645946,-0.05326 -0.06402,-0.02082 -0.109526,-0.04265 -0.1399,-0.06616 -0.52399,0.327125 -1.025042,0.680546 -1.500549,1.058168 0.685138,-0.25784 1.49606,-0.373153 2.525763,-0.371632 1.159257,0.0013 1.44072,0.09464 0.84048,0.27738 -0.229155,0.06973 -0.893068,0.319934 -1.475162,0.555807 -0.582093,0.235887 -1.359233,0.480995 -1.726873,0.544749 -0.367637,0.06372 -0.941334,0.119922 -1.275037,0.125031 l -0.166367,0.0025 c -0.129169,0.129323 -0.256121,0.260215 -0.379457,0.393778 -0.326067,0.344966 -0.629939,0.704556 -0.913672,1.075447 0.376216,-0.25489 0.82063,-0.479193 1.306634,-0.651976 0.814682,-0.289627 2.219416,-0.59568 2.324554,-0.506395 0.02084,0.01775 -0.322708,0.276167 -0.763508,0.574454 -0.440799,0.298299 -1.077122,0.734593 -1.414124,0.969586 -0.614649,0.428567 -1.786765,1.025217 -2.183306,1.11136 -0.123409,0.02682 -0.216884,0.04279 -0.291683,0.04892 -0.340575,0.602717 -0.631711,1.226418 -0.870458,1.865418 0.1305379,-0.155708 0.289209,-0.314086 0.500722,-0.504493 0.55912,-0.503369 0.955434,-0.749523 1.834635,-1.140006 0.616779,-0.27392 1.12136,-0.462041 1.12136,-0.418083 0,0.04394 -0.165701,0.227752 -0.368384,0.408364 -0.405186,0.361057 -0.967579,1.050798 -1.296102,1.589672 -0.240281,0.394135 -1.182305,1.193901 -1.8427368,1.564562 -0.2220625,0.124649 -0.3685414,0.199157 -0.4604815,0.222809 -0.1969613,0.889319 -0.2960531,1.79492 -0.2962741,2.700777 0.063614,-0.351812 0.1680756,-0.723419 0.3068081,-1.036291 0.2568187,-0.579192 0.4251712,-0.782268 1.1391843,-1.371984 0.460903,-0.380675 0.962532,-0.798437 1.114609,-0.928526 l 0.276559,-0.236589 -0.08129,0.236589 c -0.804919,2.342988 -1.291274,3.268768 -2.1949162,4.178903 -0.3445076,0.346972 -0.435581,0.431377 -0.5023445,0.357585 0.026898,0.272233 0.061933,0.544019 0.1074961,0.814541 0.0866,0.548477 0.2147825,1.090404 0.3789176,1.62344 -0.015858,-0.486191 0.067382,-1.007913 0.2522528,-1.439507 0.2072752,-0.483879 1.5503422,-2.371826 1.6336972,-2.296474 0.07494,0.06769 -0.180535,3.141654 -0.294384,3.542061 -0.144873,0.509537 -0.581719,1.315191 -0.850743,1.568881 -0.07045,0.06641 -0.127062,0.113026 -0.163937,0.139359 0.359183,0.786536 0.800872,1.54436 1.315547,2.263258 -0.181119,-0.643994 -0.222039,-1.4433 -0.06914,-2.177101 0.289582,-1.389763 0.778578,-2.324292 0.783224,-1.497042 8.3e-4,0.140037 0.152539,0.765385 0.337327,1.389826 0.525818,1.776874 0.54304,2.409897 0.09183,3.378129 l -0.0956,0.20498 c 0.472467,0.522181 0.985466,1.016571 1.536201,1.477054 -0.0076,-0.01277 -0.01677,-0.02593 -0.02323,-0.03755 -0.281013,-0.507889 -0.43762,-1.734613 -0.343807,-2.691058 l 0.07778,-0.795371 0.489111,0.777006 c 0.268901,0.427418 0.602037,0.912154 0.740551,1.07707 0.589633,0.702039 0.779361,1.205612 0.83832,2.225978 l 0.04402,0.758372 c 0.18145,0.112517 0.364677,0.222911 0.551498,0.328696 0.47043,0.272349 0.95776,0.520854 1.458688,0.745679 -0.650461,-0.649217 -1.151589,-1.60819 -1.347416,-2.660265 l -0.09047,-0.485873 0.679783,0.539627 c 2.119004,1.681791 2.690371,2.320268 2.822038,3.153954 0.01611,0.102043 0.02514,0.174303 0.02513,0.228747 0.739197,0.222311 1.496911,0.398236 2.265678,0.526651 -0.09202,-0.03333 -0.182183,-0.07292 -0.27764,-0.120433 -0.676057,-0.336487 -1.762306,-1.511077 -1.933753,-2.091214 l -0.07104,-0.240101 0.549069,0.22471 c 0.301894,0.123627 0.87007,0.314585 1.262611,0.424022 0.392542,0.109449 0.90118,0.304174 1.130272,0.432935 0.519118,0.291748 1.313387,1.132752 1.313387,1.39063 0,0.149221 -0.06125,0.179118 -0.532592,0.163397 1.149166,0.102681 2.310677,0.101663 3.45969,-0.0051 -0.01971,4.09e-4 -0.04057,0.0013 -0.05996,0.0013 l -0.753515,0.009 0.172038,-0.349475 c 0.406126,-0.825487 1.053999,-1.265638 2.462834,-1.672596 0.4236,-0.122349 0.986906,-0.316103 1.251538,-0.430763 l 0.481008,-0.208505 -0.07698,0.219041 c -0.247016,0.703227 -1.518823,1.959324 -2.264328,2.27917 0.391056,-0.06258 0.779752,-0.136641 1.164573,-0.22443 0.398446,-0.08698 0.791685,-0.189042 1.179699,-0.303563 -0.01651,-0.06603 -0.01401,-0.158351 0.0024,-0.282233 0.09636,-0.726075 0.412155,-1.115217 1.960492,-2.415031 l 1.500279,-1.259367 -0.06887,0.408082 c -0.03793,0.224456 -0.19501,0.752052 -0.34894,1.172676 -0.252867,0.690979 -0.628575,1.252687 -1.118929,1.678266 0.760962,-0.328606 1.492084,-0.709434 2.184925,-1.137567 l -0.05698,-0.197432 c -0.21359,-0.738234 0.220953,-2.049108 1.000093,-3.016496 0.160407,-0.199156 0.475054,-0.660137 0.698961,-1.024401 l 0.407009,-0.662499 0.03537,1.23021 c 0.0198,0.688987 -0.02056,1.447923 -0.09157,1.725788 -0.07088,0.277482 -0.253255,0.596383 -0.498554,0.902869 0.713522,-0.558656 1.37113,-1.170874 1.963463,-1.827615 -0.06143,0.03627 -0.112515,0.05824 -0.133958,0.047 -0.191698,-0.100635 -0.439219,-1.031041 -0.437801,-1.645853 9.7e-4,-0.389347 0.146372,-1.116341 0.389448,-1.946183 0.21341,-0.728515 0.392399,-1.452189 0.397828,-1.608305 0.01022,-0.279986 0.0129,-0.278414 0.22443,0.112132 0.251365,0.464021 0.657914,2.066068 0.657914,2.592208 0,0.200931 -0.08288,0.685833 -0.1842,1.077605 -0.0438,0.169258 -0.08812,0.309462 -0.136385,0.434008 0.460968,-0.606293 0.869535,-1.242317 1.215893,-1.904037 1.455164,-2.709296 1.804665,-5.826035 1.110019,-8.74916 -1.27e-4,0.301416 -0.02644,0.299552 -0.59255,-0.03538 -0.712436,-0.421505 -1.440976,-1.104566 -2.178724,-2.042594 -0.368324,-0.468338 -0.827939,-1.011029 -1.021156,-1.206162 -0.193218,-0.195145 -0.324289,-0.35489 -0.291416,-0.35489 0.219219,0 2.172568,0.945078 2.574915,1.245868 0.535897,0.400611 0.945065,0.852269 1.201308,1.312854 -0.261568,-0.785845 -0.601107,-1.551282 -1.017656,-2.284317 -0.02312,0.0051 -0.05083,0.009 -0.08749,0.009 -0.51955,-0.0025 -2.339591,-0.934184 -3.272255,-1.675277 -0.217777,-0.173052 -0.661541,-0.484046 -0.98606,-0.691134 -0.657979,-0.419869 -0.57987,-0.454288 0.527736,-0.232539 1.198345,0.239921 2.274304,0.724886 2.998668,1.310145 -0.441391,-0.613687 -0.939829,-1.194808 -1.488127,-1.738751 l -0.282502,-8.18e-4 c -0.923303,-0.0025 -1.95944,-0.227853 -2.936009,-0.638195 -0.490184,-0.205963 -1.132124,-0.450955 -1.426548,-0.54448 -0.717486,-0.227891 -0.500316,-0.326307 0.724617,-0.328134 1.209614,-0.0013 2.038958,0.13037 2.753437,0.469934 -0.52941,-0.427162 -1.090837,-0.824861 -1.680145,-1.189432 -0.0051,0.009 -0.01149,0.0175 -0.02031,0.02542 -0.0387,0.03282 -0.258664,0.09093 -0.489116,0.128837 -0.674724,0.11111 -1.450723,0.09655 -2.758569,-0.0521 -0.674002,-0.07663 -1.413647,-0.139757 -1.64342,-0.140165 -0.229774,-4.35e-4 -0.41754,-0.03461 -0.41754,-0.07587 0,-0.04125 0.438569,-0.199603 0.974709,-0.351632 1.230581,-0.348965 2.548852,-0.382476 3.439975,-0.0945 -0.675293,-0.42167 -1.202359,-0.756228 -1.595077,-1.012242 -0.04349,0.01724 -0.115619,0.01967 -0.228214,0.01967 -0.828523,0 -1.481428,-0.278033 -2.315104,-0.986047 -0.867838,-0.7370332 -1.37504,-1.3765192 -0.983891,-1.2404662 0.113422,0.03947 0.557141,0.148608 0.986052,0.242528 1.750326,0.383306 2.325279,0.7600592 2.557632,1.6763742 0.0015,0.0064 0.0015,0.0076 0.003,0.01405 0.676993,0.350291 1.511701,0.805372 2.034761,1.100568 -0.02313,-0.01902 -0.04878,-0.03831 -0.07049,-0.05696 -0.645661,-0.557059 -0.959576,-1.059419 -1.239116,-1.982362 l -0.198777,-0.6560252 0.239018,0.107279 c 0.131417,0.05888 0.535001,0.2767932 0.896924,0.4845062 1.410745,0.809688 2.141214,1.833308 1.897294,2.658642 -0.0401,0.135567 -0.0945,0.246308 -0.120944,0.246308 -0.03972,0 -0.102937,-0.01916 -0.174737,-0.04623 1.915468,1.290644 3.501053,2.931911 4.626423,4.81305 -0.184175,-0.410853 -0.294876,-0.898385 -0.295733,-1.375777 -9.7e-4,-0.571109 0.07868,-0.930735 0.375401,-1.695278 l 0.376499,-0.970109 0.31761,0.796189 c 0.852893,2.139796 0.880761,2.814505 0.159347,3.852916 l -0.228223,0.328682 -0.248199,-0.245222 c -0.06679,-0.06591 -0.129858,-0.141301 -0.189589,-0.222821 0.443892,0.812384 0.803417,1.665789 1.068959,2.552234 0.0076,-0.178109 0.0332,-0.349347 0.07995,-0.516932 0.160548,-0.576089 0.60029,-1.469711 0.829408,-1.685279 0.0848,-0.07982 0.325413,-0.386587 0.534479,-0.681681 0.369538,-0.521581 0.380024,-0.528222 0.382693,-0.236577 0.0013,0.164993 0.04176,0.771439 0.0894,1.347682 0.139961,1.692149 -0.215158,2.712641 -1.104349,3.173136 -0.251518,0.130255 -0.372629,0.186896 -0.452373,0.1453 0.116347,0.691146 0.178786,1.397501 0.178786,2.116603 0,0.0811 -0.0025,0.161966 -0.0039,0.242796 0.27738,-0.63347 1.400043,-2.042275 1.85165,-2.307816 0.149769,-0.08812 0.453037,-0.287623 0.674121,-0.44374 0.308415,-0.217763 0.383459,-0.242092 0.322195,-0.104213 -0.04394,0.09885 -0.15521,0.567008 -0.247393,1.040607 -0.327738,1.683988 -0.902907,2.646881 -1.921599,3.216623 -0.3354,0.187585 -0.677965,0.341096 -0.761349,0.341096 -0.02478,0 -0.04585,-0.01392 -0.0645,-0.03615 -0.124138,0.803291 -0.323511,1.586019 -0.592551,2.342376 0.354314,-0.477176 0.795117,-0.898628 1.207783,-1.111361 0.214891,-0.110727 0.683573,-0.374493 1.041693,-0.585808 0.358134,-0.211301 0.887505,-0.499383 1.176188,-0.640354 l 0.52476,-0.256295 -0.664121,1.13864 c -0.365221,0.626191 -0.840047,1.363633 -1.055192,1.63883 -0.476996,0.61011 -1.276889,1.143556 -2.075544,1.384423 -0.669703,0.201966 -0.849714,0.244289 -0.86154,0.06028 -0.450228,0.875053 -0.996751,1.704728 -1.628574,2.478505 0.249935,-0.222388 0.50692,-0.424686 0.717864,-0.554467 0.700915,-0.431212 1.946732,-0.9149 2.665936,-1.034938 0.34434,-0.05747 0.815001,-0.165733 1.046009,-0.240637 0.59121,-0.191697 0.613407,-0.17563 0.236053,0.171226 -0.183997,0.169117 -0.556434,0.558477 -0.827518,0.865052 -0.503433,0.569359 -1.649084,1.411946 -2.321315,1.707168 -0.205989,0.09042 -0.681938,0.222195 -1.057618,0.292757 -0.375695,0.07062 -0.783304,0.109833 -0.905845,0.08749 -0.122604,-0.02236 -0.311978,-0.04113 -0.420777,-0.04189 -0.162616,-0.0011 -0.174634,-0.0281 -0.06833,-0.210113 -2.639896,2.682794 -6.382517,4.525352 -10.618628,4.997239 0.421745,0.06896 0.853177,0.163549 1.192662,0.27277 0.583823,0.187841 3.843304,1.535534 3.84347,1.589135 1.52e-4,0.05517 -2.162412,-0.04138 -2.852016,-0.127202 -0.978923,-0.121967 -2.257534,-0.482692 -2.780176,-0.7843 C 25.348195,39.908198 24.999,39.635402 24.788856,39.426898 L 24.55362,39.193554 c -0.183003,0.0051 -0.366525,0.009 -0.550957,0.009 -0.204548,0 -0.407859,-0.0039 -0.610645,-0.01022 l -0.579046,0.460201 c -0.630186,0.500661 -0.838974,0.60356 -1.655304,0.816726 -1.364464,0.356281 -1.475907,0.373166 -2.939521,0.446434 -0.735277,0.03678 -1.39938,0.07382 -1.475972,0.08212 -0.07659,0.0076 -0.139361,-0.0051 -0.139361,-0.03078 0,-0.06143 0.987748,-0.480099 1.336883,-0.566625 0.153182,-0.03793 0.457477,-0.171582 0.676275,-0.297087 0.742538,-0.425923 2.098107,-0.836661 3.187992,-1.024668 -6.108003,-0.693611 -11.186499,-4.236515 -13.3998837,-9.037868 0.103958,0.25415 0.1774394,0.460969 0.1774394,0.514224 0,0.188825 -0.1595001,0.182682 -0.8515535,-0.03218 C 6.93547,30.276026 6.1876988,29.816258 5.7354907,29.296235 5.3490484,28.851844 3.8891524,26.441781 4.0067265,26.442331 c 0.073653,4.2e-4 1.490929,0.745934 2.3599344,1.241551 0.9281629,0.529345 1.445759,1.065051 1.8362555,1.897293 C 7.7887456,28.585753 7.4960668,27.540178 7.340829,26.45772 7.3038077,26.730375 7.097948,26.646543 6.4601073,26.323225 5.4469687,25.809677 4.8097335,24.794166 4.5071795,23.210585 4.4211264,22.760154 4.3013136,22.280923 4.2408835,22.145943 c -0.060434,-0.13498 -0.068952,-0.245234 -0.018902,-0.245234 0.1616325,0 1.8414023,1.454065 2.2332685,1.93322 0.4045839,0.494709 0.6486711,0.980352 0.777553,1.557257 -0.014381,-0.246844 -0.021612,-0.495207 -0.021612,-0.745142 0,-4.747802 2.628974,-8.964419 6.690086,-11.622234 -0.208084,0.08952 -0.415823,0.150651 -0.473445,0.136934 -0.161885,-0.03857 -0.203879,-0.714517 -0.06833,-1.1003 0.178205,-0.507187 1.147023,-1.407678 2.045834,-1.901878 0.444244,-0.2442642 0.82404,-0.4309042 0.844262,-0.4145692 0.06311,0.05095 -0.308398,1.1888432 -0.521521,1.5969612 -0.185687,0.35558 -0.758011,0.938054 -1.25991,1.325817 0.299055,-0.179322 0.605059,-0.350853 0.917724,-0.513419 0.30146,-0.120434 0.882992,-0.392106 1.457337,-0.660074 -0.01226,-0.02568 -0.01756,-0.05747 -0.01756,-0.0977 0,-0.667402 0.824457,-1.372749 1.909447,-1.6336932 0.389661,-0.09374 0.952385,-0.234686 1.250188,-0.313025 0.223353,-0.05875 0.425442,-0.101786 0.520979,-0.112387 z m -8.339715,1.9202422 -0.03942,1.229943 c -0.03545,1.10053 -0.07171,1.288128 -0.343269,1.78331 -0.178887,0.326206 -0.521178,0.723968 -0.833727,0.968769 -0.291649,0.228441 -0.565974,0.415911 -0.609566,0.41646 -0.171625,0.0025 -0.333073,-0.828961 -0.271428,-1.396838 0.09264,-0.853379 0.429619,-1.37542 1.669618,-2.584634 z m 23.616643,0.04113 0.714887,0.736497 c 0.39328,0.404978 0.843789,0.955537 1.001183,1.223722 0.318389,0.542514 0.417302,1.33643 0.248734,1.996145 -0.05645,0.221148 -0.153039,0.402143 -0.214712,0.402143 -0.06169,0 -0.377354,-0.223472 -0.701656,-0.496676 -0.906011,-0.763227 -1.297299,-1.889683 -1.126495,-3.244172 z M 8.4468128,14.124636 c 0.060151,-0.0051 0.2070682,0.231889 0.3891802,0.631976 0.307478,0.675526 0.345267,0.868795 0.35164,1.79764 0.0066,0.967862 -0.01529,1.077107 -0.312477,1.561039 -0.175769,0.286205 -0.3743054,0.578068 -0.4410384,0.648463 -0.099311,0.104725 -0.156349,0.09093 -0.3146391,-0.07509 -0.2883453,-0.302426 -0.6517068,-1.194221 -0.6495354,-1.594002 0.00244,-0.447673 0.4685365,-1.886464 0.9566134,-2.953023 0.00489,-0.01022 0.011621,-0.01635 0.020257,-0.01699 z m -2.6173201,3.519649 0.4866805,0.637646 c 0.2676563,0.350675 0.6487488,0.914375 0.8469618,1.252624 0.3376361,0.576165 0.360573,0.677582 0.3597429,1.608305 -5.53e-4,0.630967 -0.052716,1.071233 -0.1431414,1.20643 -0.0783,0.117113 -0.1724754,0.212821 -0.2090394,0.212821 -0.2224291,0 -0.8045433,-0.423305 -1.002256,-0.728667 C 5.68621,21.08867 5.5662145,20.18584 5.7341561,18.565785 Z m 31.6066033,3.556646 c 0,-0.02656 0.451836,0.319194 1.004145,0.768093 1.08403,0.88108 1.425369,1.350031 1.733093,2.381277 0.122861,0.411543 0.156743,0.767684 0.10613,1.111641 -0.04099,0.278364 -0.110983,0.506114 -0.155823,0.506114 -0.10038,0 -1.120261,-1.152765 -1.427897,-1.613976 -0.200268,-0.300227 -0.539346,-1.119763 -1.081667,-2.614084 -0.09796,-0.26996 -0.177981,-0.512526 -0.177981,-0.539065 z m 0.355962,3.453212 c 0.153613,-0.05722 1.424807,1.712302 1.648548,2.327522 0.293484,0.806943 0.28982,1.667513 -0.01022,2.348046 -0.229922,0.5219 -0.237202,0.527609 -0.457519,0.358401 -0.272323,-0.209168 -0.609371,-0.755755 -0.828055,-1.343364 -0.12816,-0.344391 -0.350815,-2.552654 -0.368388,-3.653887 -2.68e-4,-0.02095 0.0051,-0.03295 0.01545,-0.03679 z M 5.2428855,31.112228 c 0.085287,0.0039 0.2386194,0.03449 0.4556208,0.09502 0.2685769,0.07497 0.7614478,0.184278 1.0954318,0.242808 0.9013092,0.157956 2.4053429,0.831324 3.1382999,1.405203 0.530833,0.41563 1.212107,1.190492 1.212107,1.378485 0,0.02631 -0.138038,0.06589 -0.30654,0.088 C 10.262588,34.397224 8.970343,34.139472 8.4543749,33.846408 7.0855584,33.068922 6.729641,32.787352 6.0779639,31.96585 5.8670889,31.700014 5.562673,31.409135 5.4016905,31.319557 5.1472526,31.177961 5.1007369,31.10648 5.2428855,31.112138 Z m 34.6160705,4.163233 c 0.126691,-6.9e-4 0.207993,0.0051 0.229028,0.01763 0.01865,0.0115 -0.522296,0.347304 -1.202114,0.746484 -1.227795,0.720979 -1.560118,0.860902 -2.842564,1.198882 -0.766751,0.202068 -1.9217,0.174776 -2.586258,-0.06105 l -0.399713,-0.1418 0.434553,-0.324085 c 0.239094,-0.1783 0.760624,-0.459128 1.158898,-0.623879 0.398274,-0.164762 0.803137,-0.33328 0.899637,-0.374596 0.307917,-0.131851 3.422037,-0.432986 4.308533,-0.437532 z m -31.7578425,0.03589 c 0.3106813,-0.0039 0.9719675,0.03525 2.1857345,0.121583 1.508384,0.107152 2.540094,0.372284 3.454019,0.887479 0.825983,0.465604 1.020978,0.657314 0.815904,0.80186 -0.08693,0.0613 -0.37638,0.147714 -0.643325,0.192286 -0.982487,0.164047 -1.829659,0.06513 -3.078611,-0.359743 -0.535535,-0.18217 -2.8299839,-1.418217 -2.9578861,-1.593453 -0.022467,-0.03078 0.037755,-0.04802 0.2241646,-0.04994 z m 8.1803705,2.862002 c 0.745053,0 2.197598,0.254635 2.632984,0.461569 0.20839,0.09911 -0.519447,0.522538 -1.316357,0.765934 -0.433189,0.132311 -0.90246,0.185797 -1.652604,0.188249 -0.913796,0.0025 -1.252426,-0.04814 -2.649997,-0.398912 -1.424136,-0.357406 -1.561508,-0.409487 -1.236144,-0.46858 1.725942,-0.313459 3.535206,-0.54826 4.222118,-0.54826 z m 15.400616,0.01839 c 0.590751,0.0051 1.212266,0.05939 1.83329,0.16475 0.593879,0.100767 1.448101,0.235988 1.898367,0.300599 l 0.818871,0.117495 -0.484518,0.11507 c -0.266447,0.06322 -0.985857,0.244009 -1.598586,0.401875 -1.929887,0.497201 -4.012561,0.352948 -4.950785,-0.342731 l -0.358121,-0.26549 0.286821,-0.110983 c 0.670637,-0.259513 1.570076,-0.388734 2.554661,-0.380547 z"/>
 <path style="opacity:0.1;fill:#f4f4f7" d="M 24 4 A 20 20 0 0 0 4 24 A 20 20 0 0 0 4.0214844 24.582031 A 20 20 0 0 1 24 5 A 20 20 0 0 1 43.978516 24.417969 A 20 20 0 0 0 44 24 A 20 20 0 0 0 24 4 z"/>
 <path style="fill:#d47f00" d="m 20.506572,8.3355564 c 0.03184,-0.0039 0.05171,-0.0039 0.05672,8.17e-4 0.07955,0.06757 -1.172148,1.370235 -1.585355,1.649902 -0.242257,0.1639696 -0.662642,0.3640956 -0.934198,0.4448106 -0.268592,0.07982 -0.646827,0.146845 -0.847772,0.150714 -0.402961,0.234354 -0.966842,0.555502 -1.624514,0.927173 0.504484,-0.114048 1.08884,-0.166985 1.583193,-0.12401 0.69083,0.06015 2.301695,0.456741 2.489842,0.613075 0.04894,0.04062 -0.327131,0.106129 -0.835619,0.145299 -0.508487,0.03921 -1.225277,0.10613 -1.592917,0.148544 -0.719421,0.08314 -2.327464,0.0507 -2.645946,-0.05326 -0.06402,-0.02082 -0.109526,-0.04265 -0.1399,-0.06616 -0.52399,0.327125 -1.025042,0.680546 -1.500549,1.058168 0.685138,-0.25784 1.49606,-0.373153 2.525763,-0.371632 1.159257,0.0013 1.44072,0.09464 0.84048,0.27738 -0.229155,0.06973 -0.893068,0.319934 -1.475162,0.555807 -0.582093,0.235887 -1.359233,0.480995 -1.726873,0.544749 -0.367637,0.06372 -0.941334,0.119922 -1.275037,0.125031 l -0.166367,0.0025 c -0.129169,0.129323 -0.256121,0.260215 -0.379457,0.393778 -0.326067,0.344966 -0.629939,0.704556 -0.913672,1.075447 0.376216,-0.25489 0.82063,-0.479193 1.306634,-0.651976 0.814682,-0.289627 2.219416,-0.59568 2.324554,-0.506395 0.02084,0.01775 -0.322708,0.276167 -0.763508,0.574454 -0.440799,0.298299 -1.077122,0.734593 -1.414124,0.969586 -0.614649,0.428567 -1.786765,1.025217 -2.183306,1.11136 -0.123409,0.02682 -0.216884,0.04279 -0.291683,0.04892 -0.340575,0.602717 -0.631711,1.226418 -0.870458,1.865418 0.1305379,-0.155708 0.289209,-0.314086 0.500722,-0.504493 0.55912,-0.503369 0.955434,-0.749523 1.834635,-1.140006 0.616779,-0.27392 1.12136,-0.462041 1.12136,-0.418083 0,0.04394 -0.165701,0.227752 -0.368384,0.408364 -0.405186,0.361057 -0.967579,1.050798 -1.296102,1.589672 -0.240281,0.394135 -1.182305,1.193901 -1.8427368,1.564562 -0.2220625,0.124649 -0.3685414,0.199157 -0.4604815,0.222809 -0.1969613,0.889319 -0.2960531,1.79492 -0.2962741,2.700777 0.063614,-0.351812 0.1680756,-0.723419 0.3068081,-1.036291 0.2568187,-0.579192 0.4251712,-0.782268 1.1391843,-1.371984 0.460903,-0.380675 0.962532,-0.798437 1.114609,-0.928526 l 0.276559,-0.236589 -0.08129,0.236589 c -0.804919,2.342988 -1.291274,3.268768 -2.1949162,4.178903 -0.3445076,0.346972 -0.435581,0.431377 -0.5023445,0.357585 0.026898,0.272233 0.061933,0.544019 0.1074961,0.814541 0.0866,0.548477 0.2147825,1.090404 0.3789176,1.62344 -0.015858,-0.486191 0.067382,-1.007913 0.2522528,-1.439507 0.2072752,-0.483879 1.5503422,-2.371826 1.6336972,-2.296474 0.07494,0.06769 -0.180535,3.141654 -0.294384,3.542061 -0.144873,0.509537 -0.581719,1.315191 -0.850743,1.568881 -0.07045,0.06641 -0.127062,0.113026 -0.163937,0.139359 0.359183,0.786536 0.800872,1.54436 1.315547,2.263258 -0.181119,-0.643994 -0.222039,-1.4433 -0.06914,-2.177101 0.289582,-1.389763 0.778578,-2.324292 0.783224,-1.497042 8.3e-4,0.140037 0.152539,0.765385 0.337327,1.389826 0.525818,1.776874 0.54304,2.409897 0.09183,3.378129 l -0.0956,0.20498 c 0.472467,0.522181 0.985466,1.016571 1.536201,1.477054 -0.0076,-0.01277 -0.01677,-0.02593 -0.02323,-0.03755 -0.281013,-0.507889 -0.43762,-1.734613 -0.343807,-2.691058 l 0.07778,-0.795371 0.489111,0.777006 c 0.268901,0.427418 0.602037,0.912154 0.740551,1.07707 0.589633,0.702039 0.779361,1.205612 0.83832,2.225978 l 0.04402,0.758372 c 0.18145,0.112517 0.364677,0.222911 0.551498,0.328696 0.47043,0.272349 0.95776,0.520854 1.458688,0.745679 -0.650461,-0.649217 -1.151589,-1.60819 -1.347416,-2.660265 l -0.09047,-0.485873 0.679783,0.539627 c 2.119004,1.681791 2.690371,2.320268 2.822038,3.153954 0.01611,0.102043 0.02514,0.174303 0.02513,0.228747 0.739197,0.222311 1.496911,0.398236 2.265678,0.526651 -0.09202,-0.03333 -0.182183,-0.07292 -0.27764,-0.120433 -0.676057,-0.336487 -1.762306,-1.511077 -1.933753,-2.091214 l -0.07104,-0.240101 0.549069,0.22471 c 0.301894,0.123627 0.87007,0.314585 1.262611,0.424022 0.392542,0.109449 0.90118,0.304174 1.130272,0.432935 0.519118,0.291748 1.313387,1.132752 1.313387,1.39063 0,0.149221 -0.06125,0.179118 -0.532592,0.163397 1.149166,0.102681 2.310677,0.101663 3.45969,-0.0051 -0.01971,4.09e-4 -0.04057,0.0013 -0.05996,0.0013 l -0.753515,0.009 0.172038,-0.349475 c 0.406126,-0.825487 1.053999,-1.265638 2.462834,-1.672596 0.4236,-0.122349 0.986906,-0.316103 1.251538,-0.430763 l 0.481008,-0.208505 -0.07698,0.219041 c -0.247016,0.703227 -1.518823,1.959324 -2.264328,2.27917 0.391056,-0.06258 0.779752,-0.136641 1.164573,-0.22443 0.398446,-0.08698 0.791685,-0.189042 1.179699,-0.303563 -0.01651,-0.06603 -0.01401,-0.158351 0.0024,-0.282233 0.09636,-0.726075 0.412155,-1.115217 1.960492,-2.415031 l 1.500279,-1.259367 -0.06887,0.408082 c -0.03793,0.224456 -0.19501,0.752052 -0.34894,1.172676 -0.252867,0.690979 -0.628575,1.252687 -1.118929,1.678266 0.760962,-0.328606 1.492084,-0.709434 2.184925,-1.137567 l -0.05698,-0.197432 c -0.21359,-0.738234 0.220953,-2.049108 1.000093,-3.016496 0.160407,-0.199156 0.475054,-0.660137 0.698961,-1.024401 l 0.407009,-0.662499 0.03537,1.23021 c 0.0198,0.688987 -0.02056,1.447923 -0.09157,1.725788 -0.07088,0.277482 -0.253255,0.596383 -0.498554,0.902869 0.713522,-0.558656 1.37113,-1.170874 1.963463,-1.827615 -0.06143,0.03627 -0.112515,0.05824 -0.133958,0.047 -0.191698,-0.100635 -0.439219,-1.031041 -0.437801,-1.645853 9.7e-4,-0.389347 0.146372,-1.116341 0.389448,-1.946183 0.21341,-0.728515 0.392399,-1.452189 0.397828,-1.608305 0.01022,-0.279986 0.0129,-0.278414 0.22443,0.112132 0.251365,0.464021 0.657914,2.066068 0.657914,2.592208 0,0.200931 -0.08288,0.685833 -0.1842,1.077605 -0.0438,0.169258 -0.08812,0.309462 -0.136385,0.434008 0.460968,-0.606293 0.869535,-1.242317 1.215893,-1.904037 1.455164,-2.709296 1.804665,-5.826035 1.110019,-8.74916 -1.27e-4,0.301416 -0.02644,0.299552 -0.59255,-0.03538 -0.712436,-0.421505 -1.440976,-1.104566 -2.178724,-2.042594 -0.368324,-0.468338 -0.827939,-1.011029 -1.021156,-1.206162 -0.193218,-0.195145 -0.324289,-0.35489 -0.291416,-0.35489 0.219219,0 2.172568,0.945078 2.574915,1.245868 0.535897,0.400611 0.945065,0.852269 1.201308,1.312854 -0.261568,-0.785845 -0.601107,-1.551282 -1.017656,-2.284317 -0.02312,0.0051 -0.05083,0.009 -0.08749,0.009 -0.51955,-0.0025 -2.339591,-0.934184 -3.272255,-1.675277 -0.217777,-0.173052 -0.661541,-0.484046 -0.98606,-0.691134 -0.657979,-0.419869 -0.57987,-0.454288 0.527736,-0.232539 1.198345,0.239921 2.274304,0.724886 2.998668,1.310145 -0.441391,-0.613687 -0.939829,-1.194808 -1.488127,-1.738751 l -0.282502,-8.18e-4 c -0.923303,-0.0025 -1.95944,-0.227853 -2.936009,-0.638195 -0.490184,-0.205963 -1.132124,-0.450955 -1.426548,-0.54448 -0.717486,-0.227891 -0.500316,-0.326307 0.724617,-0.328134 1.209614,-0.0013 2.038958,0.13037 2.753437,0.469934 -0.52941,-0.427162 -1.090837,-0.824861 -1.680145,-1.189432 -0.0051,0.009 -0.01149,0.0175 -0.02031,0.02542 -0.0387,0.03282 -0.258664,0.09093 -0.489116,0.128837 -0.674724,0.11111 -1.450723,0.09655 -2.758569,-0.0521 -0.674002,-0.07663 -1.413647,-0.139757 -1.64342,-0.140165 -0.229774,-4.35e-4 -0.41754,-0.03461 -0.41754,-0.07587 0,-0.04125 0.438569,-0.199603 0.974709,-0.351632 1.230581,-0.348965 2.548852,-0.382476 3.439975,-0.0945 -0.675293,-0.42167 -1.202359,-0.756228 -1.595077,-1.012242 -0.04349,0.01724 -0.115619,0.01967 -0.228214,0.01967 -0.828523,0 -1.481428,-0.278033 -2.315104,-0.9860476 -0.867838,-0.737033 -1.37504,-1.376519 -0.983891,-1.240466 0.113422,0.03947 0.557141,0.148608 0.986052,0.242528 1.750326,0.383306 2.325279,0.760059 2.557632,1.6763746 0.0015,0.0064 0.0015,0.0076 0.003,0.01405 0.676993,0.350291 1.511701,0.805372 2.034761,1.100568 -0.02313,-0.01902 -0.04878,-0.03831 -0.07049,-0.05696 -0.645661,-0.557059 -0.959576,-1.059419 -1.239116,-1.9823626 l -0.198777,-0.656025 0.239018,0.107279 c 0.131417,0.05888 0.535001,0.276793 0.896924,0.484506 1.410745,0.8096886 2.141214,1.8333086 1.897294,2.6586426 -0.0401,0.135567 -0.0945,0.246308 -0.120944,0.246308 -0.03972,0 -0.102937,-0.01916 -0.174737,-0.04623 1.915468,1.290644 3.501053,2.931911 4.626423,4.81305 -0.184175,-0.410853 -0.294876,-0.898385 -0.295733,-1.375777 -9.7e-4,-0.571109 0.07868,-0.930735 0.375401,-1.695278 l 0.376499,-0.970109 0.31761,0.796189 c 0.852893,2.139796 0.880761,2.814505 0.159347,3.852916 l -0.228223,0.328682 -0.248199,-0.245222 c -0.06679,-0.06591 -0.129858,-0.141301 -0.189589,-0.222821 0.443892,0.812384 0.803417,1.665789 1.068959,2.552234 0.0076,-0.178109 0.0332,-0.349347 0.07995,-0.516932 0.160548,-0.576089 0.60029,-1.469711 0.829408,-1.685279 0.0848,-0.07982 0.325413,-0.386587 0.534479,-0.681681 0.369538,-0.521581 0.380024,-0.528222 0.382693,-0.236577 0.0013,0.164993 0.04176,0.771439 0.0894,1.347682 0.139961,1.692149 -0.215158,2.712641 -1.104349,3.173136 -0.251518,0.130255 -0.372629,0.186896 -0.452373,0.1453 0.116347,0.691146 0.178786,1.397501 0.178786,2.116603 0,0.0811 -0.0025,0.161966 -0.0039,0.242796 0.27738,-0.63347 1.400043,-2.042275 1.85165,-2.307816 0.149769,-0.08812 0.453037,-0.287623 0.674121,-0.44374 0.308415,-0.217763 0.383459,-0.242092 0.322195,-0.104213 -0.04394,0.09885 -0.15521,0.567008 -0.247393,1.040607 -0.327738,1.683988 -0.902907,2.646881 -1.921599,3.216623 -0.3354,0.187585 -0.677965,0.341096 -0.761349,0.341096 -0.02478,0 -0.04585,-0.01392 -0.0645,-0.03615 -0.124138,0.803291 -0.323511,1.586019 -0.592551,2.342376 0.354314,-0.477176 0.795117,-0.898628 1.207783,-1.111361 0.214891,-0.110727 0.683573,-0.374493 1.041693,-0.585808 0.358134,-0.211301 0.887505,-0.499383 1.176188,-0.640354 l 0.52476,-0.256295 -0.664121,1.13864 c -0.365221,0.626191 -0.840047,1.363633 -1.055192,1.63883 -0.476996,0.61011 -1.276889,1.143556 -2.075544,1.384423 -0.669703,0.201966 -0.849714,0.244289 -0.86154,0.06028 -0.450228,0.875053 -0.996751,1.704728 -1.628574,2.478505 0.249935,-0.222388 0.50692,-0.424686 0.717864,-0.554467 0.700915,-0.431212 1.946732,-0.9149 2.665936,-1.034938 0.34434,-0.05747 0.815001,-0.165733 1.046009,-0.240637 0.59121,-0.191697 0.613407,-0.17563 0.236053,0.171226 -0.183997,0.169117 -0.556434,0.558477 -0.827518,0.865052 -0.503433,0.569359 -1.649084,1.411946 -2.321315,1.707168 -0.205989,0.09042 -0.681938,0.222195 -1.057618,0.292757 -0.375695,0.07062 -0.783304,0.109833 -0.905845,0.08749 -0.122604,-0.02236 -0.311978,-0.04113 -0.420777,-0.04189 -0.162616,-0.0011 -0.174634,-0.0281 -0.06833,-0.210113 -2.639896,2.682794 -6.382517,4.525352 -10.618628,4.997239 0.421745,0.06896 0.853177,0.163549 1.192662,0.27277 0.583823,0.187841 3.843304,1.535534 3.84347,1.589135 1.52e-4,0.05517 -2.162412,-0.04138 -2.852016,-0.127202 -0.978923,-0.121967 -2.257534,-0.482692 -2.780176,-0.7843 C 25.348195,38.908198 24.999,38.635402 24.788856,38.426898 L 24.55362,38.193554 c -0.183003,0.0051 -0.366525,0.009 -0.550957,0.009 -0.204548,0 -0.407859,-0.0039 -0.610645,-0.01022 l -0.579046,0.460201 c -0.630186,0.500661 -0.838974,0.60356 -1.655304,0.816726 -1.364464,0.356281 -1.475907,0.373166 -2.939521,0.446434 -0.735277,0.03678 -1.39938,0.07382 -1.475972,0.08212 -0.07659,0.0076 -0.139361,-0.0051 -0.139361,-0.03078 0,-0.06143 0.987748,-0.480099 1.336883,-0.566625 0.153182,-0.03793 0.457477,-0.171582 0.676275,-0.297087 0.742538,-0.425923 2.098107,-0.836661 3.187992,-1.024668 -6.108003,-0.693611 -11.186499,-4.236515 -13.3998837,-9.037868 0.103958,0.25415 0.1774394,0.460969 0.1774394,0.514224 0,0.188825 -0.1595001,0.182682 -0.8515535,-0.03218 C 6.93547,29.276026 6.1876988,28.816258 5.7354907,28.296235 5.3490484,27.851844 3.8891524,25.441781 4.0067265,25.442331 c 0.073653,4.2e-4 1.490929,0.745934 2.3599344,1.241551 0.9281629,0.529345 1.445759,1.065051 1.8362555,1.897293 C 7.7887456,27.585753 7.4960668,26.540178 7.340829,25.45772 7.3038077,25.730375 7.097948,25.646543 6.4601073,25.323225 5.4469687,24.809677 4.8097335,23.794166 4.5071795,22.210585 4.4211264,21.760154 4.3013136,21.280923 4.2408835,21.145943 c -0.060434,-0.13498 -0.068952,-0.245234 -0.018902,-0.245234 0.1616325,0 1.8414023,1.454065 2.2332685,1.93322 0.4045839,0.494709 0.6486711,0.980352 0.777553,1.557257 -0.014381,-0.246844 -0.021612,-0.495207 -0.021612,-0.745142 0,-4.747802 2.628974,-8.964419 6.690086,-11.622234 -0.208084,0.08952 -0.415823,0.150651 -0.473445,0.136934 -0.161885,-0.03857 -0.203879,-0.714517 -0.06833,-1.1003 0.178205,-0.507187 1.147023,-1.4076786 2.045834,-1.9018786 0.444244,-0.244264 0.82404,-0.430904 0.844262,-0.414569 0.06311,0.05095 -0.308398,1.188843 -0.521521,1.5969616 -0.185687,0.35558 -0.758011,0.938054 -1.25991,1.325817 0.299055,-0.179322 0.605059,-0.350853 0.917724,-0.513419 0.30146,-0.120434 0.882992,-0.392106 1.457337,-0.660074 -0.01226,-0.02568 -0.01756,-0.05747 -0.01756,-0.0977 0,-0.6674026 0.824457,-1.3727496 1.909447,-1.6336936 0.389661,-0.09374 0.952385,-0.234686 1.250188,-0.313025 0.223353,-0.05875 0.425442,-0.101786 0.520979,-0.112387 z m -8.339715,1.9202426 -0.03942,1.229943 c -0.03545,1.10053 -0.07171,1.288128 -0.343269,1.78331 -0.178887,0.326206 -0.521178,0.723968 -0.833727,0.968769 -0.291649,0.228441 -0.565974,0.415911 -0.609566,0.41646 -0.171625,0.0025 -0.333073,-0.828961 -0.271428,-1.396838 0.09264,-0.853379 0.429619,-1.37542 1.669618,-2.584634 z m 23.616643,0.04113 0.714887,0.736497 c 0.39328,0.404978 0.843789,0.955537 1.001183,1.223722 0.318389,0.542514 0.417302,1.33643 0.248734,1.996145 -0.05645,0.221148 -0.153039,0.402143 -0.214712,0.402143 -0.06169,0 -0.377354,-0.223472 -0.701656,-0.496676 -0.906011,-0.763227 -1.297299,-1.889683 -1.126495,-3.244172 z M 8.4468128,13.124636 c 0.060151,-0.0051 0.2070682,0.231889 0.3891802,0.631976 0.307478,0.675526 0.345267,0.868795 0.35164,1.79764 0.0066,0.967862 -0.01529,1.077107 -0.312477,1.561039 -0.175769,0.286205 -0.3743054,0.578068 -0.4410384,0.648463 -0.099311,0.104725 -0.156349,0.09093 -0.3146391,-0.07509 -0.2883453,-0.302426 -0.6517068,-1.194221 -0.6495354,-1.594002 0.00244,-0.447673 0.4685365,-1.886464 0.9566134,-2.953023 0.00489,-0.01022 0.011621,-0.01635 0.020257,-0.01699 z m -2.6173201,3.519649 0.4866805,0.637646 c 0.2676563,0.350675 0.6487488,0.914375 0.8469618,1.252624 0.3376361,0.576165 0.360573,0.677582 0.3597429,1.608305 -5.53e-4,0.630967 -0.052716,1.071233 -0.1431414,1.20643 -0.0783,0.117113 -0.1724754,0.212821 -0.2090394,0.212821 -0.2224291,0 -0.8045433,-0.423305 -1.002256,-0.728667 C 5.68621,20.08867 5.5662145,19.18584 5.7341561,17.565785 Z m 31.6066033,3.556646 c 0,-0.02656 0.451836,0.319194 1.004145,0.768093 1.08403,0.88108 1.425369,1.350031 1.733093,2.381277 0.122861,0.411543 0.156743,0.767684 0.10613,1.111641 -0.04099,0.278364 -0.110983,0.506114 -0.155823,0.506114 -0.10038,0 -1.120261,-1.152765 -1.427897,-1.613976 -0.200268,-0.300227 -0.539346,-1.119763 -1.081667,-2.614084 -0.09796,-0.26996 -0.177981,-0.512526 -0.177981,-0.539065 z m 0.355962,3.453212 c 0.153613,-0.05722 1.424807,1.712302 1.648548,2.327522 0.293484,0.806943 0.28982,1.667513 -0.01022,2.348046 -0.229922,0.5219 -0.237202,0.527609 -0.457519,0.358401 -0.272323,-0.209168 -0.609371,-0.755755 -0.828055,-1.343364 -0.12816,-0.344391 -0.350815,-2.552654 -0.368388,-3.653887 -2.68e-4,-0.02095 0.0051,-0.03295 0.01545,-0.03679 z M 5.2428855,30.112228 c 0.085287,0.0039 0.2386194,0.03449 0.4556208,0.09502 0.2685769,0.07497 0.7614478,0.184278 1.0954318,0.242808 0.9013092,0.157956 2.4053429,0.831324 3.1382999,1.405203 0.530833,0.41563 1.212107,1.190492 1.212107,1.378485 0,0.02631 -0.138038,0.06589 -0.30654,0.088 C 10.262588,33.397224 8.970343,33.139472 8.4543749,32.846408 7.0855584,32.068922 6.729641,31.787352 6.0779639,30.96585 5.8670889,30.700014 5.562673,30.409135 5.4016905,30.319557 5.1472526,30.177961 5.1007369,30.10648 5.2428855,30.112138 Z m 34.6160705,4.163233 c 0.126691,-6.9e-4 0.207993,0.0051 0.229028,0.01763 0.01865,0.0115 -0.522296,0.347304 -1.202114,0.746484 -1.227795,0.720979 -1.560118,0.860902 -2.842564,1.198882 -0.766751,0.202068 -1.9217,0.174776 -2.586258,-0.06105 l -0.399713,-0.1418 0.434553,-0.324085 c 0.239094,-0.1783 0.760624,-0.459128 1.158898,-0.623879 0.398274,-0.164762 0.803137,-0.33328 0.899637,-0.374596 0.307917,-0.131851 3.422037,-0.432986 4.308533,-0.437532 z m -31.7578425,0.03589 c 0.3106813,-0.0039 0.9719675,0.03525 2.1857345,0.121583 1.508384,0.107152 2.540094,0.372284 3.454019,0.887479 0.825983,0.465604 1.020978,0.657314 0.815904,0.80186 -0.08693,0.0613 -0.37638,0.147714 -0.643325,0.192286 -0.982487,0.164047 -1.829659,0.06513 -3.078611,-0.359743 -0.535535,-0.18217 -2.8299839,-1.418217 -2.9578861,-1.593453 -0.022467,-0.03078 0.037755,-0.04802 0.2241646,-0.04994 z m 8.1803705,2.862002 c 0.745053,0 2.197598,0.254635 2.632984,0.461569 0.20839,0.09911 -0.519447,0.522538 -1.316357,0.765934 -0.433189,0.132311 -0.90246,0.185797 -1.652604,0.188249 -0.913796,0.0025 -1.252426,-0.04814 -2.649997,-0.398912 -1.424136,-0.357406 -1.561508,-0.409487 -1.236144,-0.46858 1.725942,-0.313459 3.535206,-0.54826 4.222118,-0.54826 z m 15.400616,0.01839 c 0.590751,0.0051 1.212266,0.05939 1.83329,0.16475 0.593879,0.100767 1.448101,0.235988 1.898367,0.300599 l 0.818871,0.117495 -0.484518,0.11507 c -0.266447,0.06322 -0.985857,0.244009 -1.598586,0.401875 -1.929887,0.497201 -4.012561,0.352948 -4.950785,-0.342731 l -0.358121,-0.26549 0.286821,-0.110983 c 0.670637,-0.259513 1.570076,-0.388734 2.554661,-0.380547 z"/>
 <path style="opacity:0.2" d="m 15.886749,17.001363 c -0.984316,-0.02532 -2.148633,0.303422 -3.00344,0.860153 -0.854813,0.556729 -1.917048,1.416379 -2.331438,1.530249 -0.414474,0.113876 -0.156735,0.303698 -0.156735,0.303698 0,0 -0.5688435,0.469389 -1.1128208,0.924811 -0.5439772,0.455566 -1.3734999,1.18766 -1.5418837,1.37742 -0.1683186,0.189766 0,0.442812 0,0.442812 0,0 -0.3279226,0.362973 -0.5231042,0.578007 h -0.021551 c -0.605947,0.766279 -1.3591807,1.500231 -1.9082527,2.329662 -1.0624472,1.307053 -2.0302344,2.697137 -3.2875235,3.83052 0.5433378,0.702924 1.6028256,-1.417816 2.4901326,-0.474161 0.9214496,-0.258544 1.9628302,0.151395 2.7448275,-0.950283 0.7119622,1.171922 2.2346422,0.787247 2.9838488,0.0627 1.560652,0.98675 2.542243,-1.623788 4.02026,-0.438893 1.177429,-0.121863 2.265134,-0.34763 3.512832,-0.254715 0.54406,-0.65984 2.957123,-1.772905 2.255028,-0.21161 -0.819972,0.567559 -0.325604,2.674994 -1.820088,1.655647 -0.904923,-0.303902 -1.656219,0.899132 -0.41143,0.409504 -0.09715,-0.02369 -1.107167,1.66616 -0.521145,1.248103 0.369029,-0.796591 1.433426,-0.688242 0.720982,0.205731 0.09097,2.189261 0.57135,-1.50273 1.698619,-0.203772 0.194583,0.704106 0.04064,1.221311 0.58188,0.280187 -0.662425,-1.196773 0.10509,-1.787023 1.359679,-1.929955 1.411857,-0.139108 -0.510521,2.034315 -0.89535,2.625522 -1.275488,1.25678 1.543528,1.625106 2.352989,1.765371 1.235749,0.03831 2.454014,0.134656 3.56181,-0.405585 2.449601,-0.488845 -0.431666,-2.274551 -0.672003,-3.550334 -0.433383,-1.172718 3.127586,-0.03567 1.847518,0.979673 -0.149827,0.709098 0.692778,1.664282 0.476084,0.405584 0.650348,-1.35525 1.662094,0.732061 1.630048,0.822925 0.395185,-0.662587 -0.534697,-2.379316 0.752329,-1.150135 0.576258,1.110096 0.233801,-1.014409 -0.501553,-1.012982 0.651371,-0.158944 1.256316,0.274577 0.366369,-0.530983 -0.968105,0.229113 -2.20576,0.575395 -1.998375,-0.932648 -1.120211,-0.691672 -0.535316,-2.113151 0.6289,-1.252022 0.983951,1.272881 2.303513,0.519654 3.497157,1.005144 0.659648,-0.144554 1.717287,0.09961 2.478377,-0.305657 0.801349,0.670371 1.815133,1.434896 2.821236,0.675974 0.769666,1.379043 2.230267,0.642411 3.017155,0.119519 1.076471,1.16626 2.272257,0.554531 3.485402,0.766104 0.526713,0.211276 2.411923,1.371109 1.054045,0.06074 -1.650546,-1.799589 -3.072044,-3.794775 -4.664835,-5.644877 h -0.002 c -0.269597,-0.308648 -0.513308,-0.603478 -0.513308,-0.603478 0,0 0.08207,-0.0779 0.0529,-0.223366 -0.02917,-0.145534 -0.07186,-0.17504 -0.385961,-0.456527 -0.314031,-0.281563 -0.569551,-0.550358 -1.126536,-1.024738 -0.556912,-0.474517 -1.199024,-1.040413 -1.199024,-1.040413 0,0 0.06877,-0.08845 -0.06074,-0.195934 -0.129511,-0.107555 -0.298348,-0.189968 -0.97176,-0.591722 -0.673556,-0.401754 -1.035679,-0.775008 -1.64768,-1.091356 -0.611999,-0.316342 -1.280262,-0.657628 -2.002294,-0.736713 -0.722103,-0.07916 -1.413804,-0.08474 -2.025804,0.364438 -0.612006,0.449106 -0.945775,0.932494 -1.185311,1.612541 -0.239612,0.680048 -0.518643,1.619206 -1.150045,1.926036 -0.631407,0.306761 -0.938189,0.348818 -1.106944,0.354642 -0.465846,0.01621 -1.045623,-0.312759 -1.285229,-0.613275 -0.239542,-0.300515 -0.428181,-0.927067 -0.480002,-1.199119 -0.05184,-0.272048 -0.06661,-0.560373 -0.06661,-0.560373 0,0 0.07091,-0.162228 0.342859,-0.20965 0.272026,-0.04748 0.420451,-0.06613 0.640655,-0.03135 0.220134,0.03473 0.452574,0.146952 0.452574,0.146952 0,0 0.05548,-0.032 0.04898,-0.231203 -0.0065,-0.199351 -0.0094,-0.651477 -0.51135,-0.901299 -0.501897,-0.249899 -1.10022,-0.323416 -1.226454,-0.348764 -0.126386,-0.02526 -0.415969,-0.215411 -0.717064,-0.272349 -0.301171,-0.05692 -0.937778,-0.109513 -1.326372,0.096 -0.388525,0.205668 -0.709272,0.390805 -0.867923,0.738673 -0.158653,0.347936 -0.182789,0.662509 -0.182204,0.811169 0.0018,0.45713 -0.06456,1.52736 -0.595594,1.982857 -0.53104,0.455491 -0.854785,0.595642 -1.230373,0.595642 -0.375587,0 -1.061481,-0.292492 -1.320495,-0.532942 -0.259014,-0.240384 -0.596574,-0.694204 -0.946289,-1.820232 -0.349716,-1.126095 -1.386236,-1.936032 -2.370623,-1.961305 z"/>
 <path style="fill:#ffc107" d="m 15.886749,16.001364 c -0.984316,-0.02532 -2.148633,0.303422 -3.00344,0.860153 -0.854813,0.556729 -1.917048,1.416379 -2.331438,1.530249 -0.414474,0.113876 -0.156735,0.303698 -0.156735,0.303698 0,0 -0.5688435,0.469389 -1.1128208,0.924811 -0.5439772,0.455566 -1.3734999,1.18766 -1.5418837,1.37742 -0.1683186,0.189766 0,0.442812 0,0.442812 0,0 -0.3279226,0.362973 -0.5231042,0.578007 h -0.021551 c -0.605947,0.766279 -1.3591807,1.500231 -1.9082527,2.329662 -1.0624472,1.307053 -2.0302344,2.697137 -3.2875235,3.83052 0.5433378,0.702924 1.6028256,-1.417816 2.4901326,-0.474161 0.9214496,-0.258544 1.9628302,0.151395 2.7448275,-0.950283 0.7119622,1.171922 2.2346422,0.787247 2.9838488,0.0627 1.560652,0.98675 2.542243,-1.623788 4.02026,-0.438893 1.177429,-0.121863 2.265134,-0.34763 3.512832,-0.254715 0.54406,-0.65984 2.957123,-1.772905 2.255028,-0.21161 -0.819972,0.567559 -0.325604,2.674994 -1.820088,1.655647 -0.904923,-0.303902 -1.656219,0.899132 -0.41143,0.409504 -0.09715,-0.02369 -1.107167,1.66616 -0.521145,1.248103 0.369029,-0.796591 1.433426,-0.688242 0.720982,0.205731 0.09097,2.189261 0.57135,-1.50273 1.698619,-0.203772 0.194583,0.704106 0.04064,1.221311 0.58188,0.280187 -0.662425,-1.196773 0.10509,-1.787023 1.359679,-1.929955 1.411857,-0.139108 -0.510521,2.034315 -0.89535,2.625522 -1.275488,1.25678 1.543528,1.625106 2.352989,1.765371 1.235749,0.03831 2.454014,0.134656 3.56181,-0.405585 2.449601,-0.488845 -0.431666,-2.274551 -0.672003,-3.550334 -0.433383,-1.172718 3.127586,-0.03567 1.847518,0.979673 -0.149827,0.709098 0.692778,1.664282 0.476084,0.405584 0.650348,-1.35525 1.662094,0.732061 1.630048,0.822925 0.395185,-0.662587 -0.534697,-2.379316 0.752329,-1.150135 0.576258,1.110096 0.233801,-1.014409 -0.501553,-1.012982 0.651371,-0.158944 1.256316,0.274577 0.366369,-0.530983 -0.968105,0.229113 -2.20576,0.575395 -1.998375,-0.932648 -1.120211,-0.691672 -0.535316,-2.113151 0.6289,-1.252022 0.983951,1.272881 2.303513,0.519654 3.497157,1.005144 0.659648,-0.144554 1.717287,0.09961 2.478377,-0.305657 0.801349,0.670371 1.815133,1.434896 2.821236,0.675974 0.769666,1.379043 2.230267,0.642411 3.017155,0.119519 1.076471,1.16626 2.272257,0.554531 3.485402,0.766104 0.526713,0.211276 2.411923,1.371109 1.054045,0.06074 C 43.867018,25.8638 42.44552,23.868614 40.852729,22.018512 h -0.002 c -0.269597,-0.308648 -0.513308,-0.603478 -0.513308,-0.603478 0,0 0.08207,-0.0779 0.0529,-0.223366 -0.02917,-0.145534 -0.07186,-0.17504 -0.385961,-0.456527 C 39.690329,20.453578 39.434809,20.184783 38.877824,19.710403 38.320912,19.235886 37.6788,18.66999 37.6788,18.66999 c 0,0 0.06877,-0.08845 -0.06074,-0.195934 -0.129511,-0.107555 -0.298348,-0.189968 -0.97176,-0.591722 -0.673556,-0.401754 -1.035679,-0.775008 -1.64768,-1.091356 -0.611999,-0.316342 -1.280262,-0.657628 -2.002294,-0.736713 -0.722103,-0.07916 -1.413804,-0.08474 -2.025804,0.364438 -0.612006,0.449106 -0.945775,0.932494 -1.185311,1.612541 -0.239612,0.680048 -0.518643,1.619206 -1.150045,1.926036 -0.631407,0.306761 -0.938189,0.348818 -1.106944,0.354642 -0.465846,0.01621 -1.045623,-0.312759 -1.285229,-0.613275 -0.239542,-0.300515 -0.428181,-0.927067 -0.480002,-1.199119 -0.05184,-0.272048 -0.06661,-0.560373 -0.06661,-0.560373 0,0 0.07091,-0.162228 0.342859,-0.20965 0.272026,-0.04748 0.420451,-0.06613 0.640655,-0.03135 0.220134,0.03473 0.452574,0.146952 0.452574,0.146952 0,0 0.05548,-0.032 0.04898,-0.231203 -0.0065,-0.199351 -0.0094,-0.651477 -0.51135,-0.901299 -0.501897,-0.249899 -1.10022,-0.323416 -1.226454,-0.348764 -0.126386,-0.02526 -0.415969,-0.215411 -0.717064,-0.272349 -0.301171,-0.05692 -0.937778,-0.109513 -1.326372,0.096 -0.388525,0.205668 -0.709272,0.390805 -0.867923,0.738673 -0.158653,0.347936 -0.182789,0.662509 -0.182204,0.811169 0.0018,0.45713 -0.06456,1.52736 -0.595594,1.982857 -0.53104,0.455491 -0.854785,0.595642 -1.230373,0.595642 -0.375587,0 -1.061481,-0.292492 -1.320495,-0.532942 -0.259014,-0.240384 -0.596574,-0.694204 -0.946289,-1.820232 -0.349716,-1.126095 -1.386236,-1.936032 -2.370623,-1.961305 z"/>
 <path style="fill:#f4f4f7;opacity:0.2" d="M 15.886719 16.001953 C 14.902403 15.976633 13.737619 16.304597 12.882812 16.861328 C 12.027999 17.418057 10.967124 18.278708 10.552734 18.392578 C 10.13826 18.506454 10.394531 18.695312 10.394531 18.695312 C 10.394531 18.695312 9.8271804 19.165672 9.2832031 19.621094 C 8.7392259 20.07666 7.9086182 20.808287 7.7402344 20.998047 C 7.5719158 21.187813 7.7402344 21.441406 7.7402344 21.441406 C 7.7402344 21.441406 7.4119785 21.802544 7.2167969 22.017578 L 7.1953125 22.017578 C 6.5893655 22.783857 5.8361814 23.518225 5.2871094 24.347656 C 4.2246622 25.654709 3.2572891 27.044351 2 28.177734 C 2.3414793 28.619511 2.8864894 27.948279 3.4648438 27.621094 C 4.0881049 26.877408 4.6745432 26.101253 5.2871094 25.347656 C 5.8361814 24.518225 6.5893655 23.783857 7.1953125 23.017578 L 7.2167969 23.017578 C 7.4119785 22.802544 7.7402344 22.441406 7.7402344 22.441406 C 7.7402344 22.441406 7.5719158 22.187813 7.7402344 21.998047 C 7.9086182 21.808287 8.7392259 21.07666 9.2832031 20.621094 C 9.8271804 20.165672 10.394531 19.695312 10.394531 19.695312 C 10.394531 19.695312 10.13826 19.506454 10.552734 19.392578 C 10.967124 19.278708 12.027999 18.418057 12.882812 17.861328 C 13.737619 17.304597 14.902403 16.976633 15.886719 17.001953 C 16.871106 17.027226 17.908096 17.836796 18.257812 18.962891 C 18.607527 20.088919 18.944111 20.542819 19.203125 20.783203 C 19.462139 21.023653 20.147851 21.316406 20.523438 21.316406 C 20.899026 21.316406 21.222866 21.176194 21.753906 20.720703 C 22.28494 20.265206 22.351409 19.195411 22.349609 18.738281 C 22.349024 18.589621 22.37455 18.273717 22.533203 17.925781 C 22.691854 17.577913 23.011866 17.393168 23.400391 17.1875 C 23.788985 16.981987 24.425391 17.034877 24.726562 17.091797 C 25.027657 17.148735 25.316973 17.338021 25.443359 17.363281 C 25.565928 17.387893 26.132705 17.462511 26.625 17.695312 C 26.643971 17.697609 26.659678 17.694105 26.679688 17.697266 C 26.899822 17.731996 27.132812 17.845703 27.132812 17.845703 C 27.132812 17.845703 27.188141 17.812484 27.181641 17.613281 C 27.175141 17.41393 27.171872 16.962713 26.669922 16.712891 C 26.168025 16.462992 25.569593 16.388629 25.443359 16.363281 C 25.316973 16.338021 25.027657 16.148735 24.726562 16.091797 C 24.425391 16.034877 23.788985 15.981987 23.400391 16.1875 C 23.011866 16.393168 22.691854 16.577913 22.533203 16.925781 C 22.37455 17.273717 22.349024 17.589621 22.349609 17.738281 C 22.351409 18.195411 22.28494 19.265206 21.753906 19.720703 C 21.222866 20.176194 20.899026 20.316406 20.523438 20.316406 C 20.147851 20.316406 19.462139 20.023653 19.203125 19.783203 C 18.944111 19.542819 18.607527 19.088919 18.257812 17.962891 C 17.908096 16.836796 16.871106 16.027226 15.886719 16.001953 z M 32.460938 16.013672 C 31.933072 15.999762 31.429703 16.081085 30.970703 16.417969 C 30.358697 16.867075 30.024692 17.351203 29.785156 18.03125 C 29.545544 18.711298 29.266168 19.650201 28.634766 19.957031 C 28.003359 20.263792 27.696099 20.306676 27.527344 20.3125 C 27.061498 20.32871 26.481793 19.999735 26.242188 19.699219 C 26.063188 19.474657 25.935912 19.101588 25.849609 18.796875 C 25.735737 18.860805 25.697266 18.939453 25.697266 18.939453 C 25.697266 18.939453 25.711832 19.227952 25.763672 19.5 C 25.815493 19.772052 26.002645 20.398704 26.242188 20.699219 C 26.481793 20.999735 27.061498 21.32871 27.527344 21.3125 C 27.696099 21.306676 28.003359 21.263792 28.634766 20.957031 C 29.266168 20.650201 29.545544 19.711298 29.785156 19.03125 C 30.024692 18.351203 30.358697 17.867075 30.970703 17.417969 C 31.582703 16.968791 32.273991 16.975527 32.996094 17.054688 C 33.718126 17.133772 34.386048 17.474674 34.998047 17.791016 C 35.610048 18.107364 35.972928 18.481058 36.646484 18.882812 C 37.319896 19.284566 37.487676 19.367054 37.617188 19.474609 C 37.746697 19.582093 37.679688 19.669922 37.679688 19.669922 C 37.679687 19.669922 38.320041 20.236421 38.876953 20.710938 C 39.433938 21.185318 39.689875 21.452812 40.003906 21.734375 C 40.318007 22.015862 40.361455 22.045872 40.390625 22.191406 C 40.419795 22.336872 40.337891 22.414062 40.337891 22.414062 C 40.337891 22.414062 40.581966 22.70893 40.851562 23.017578 L 40.853516 23.017578 C 42.172513 24.549656 43.379994 26.177246 44.691406 27.714844 C 45.361852 28.039372 46.749696 28.853072 45.517578 27.664062 C 43.867032 25.864473 42.446307 23.86768 40.853516 22.017578 L 40.851562 22.017578 C 40.581966 21.70893 40.337891 21.414063 40.337891 21.414062 C 40.337891 21.414062 40.419795 21.336872 40.390625 21.191406 C 40.361455 21.045872 40.318007 21.015862 40.003906 20.734375 C 39.689875 20.452812 39.433938 20.185318 38.876953 19.710938 C 38.320041 19.236421 37.679687 18.669922 37.679688 18.669922 C 37.679688 18.669922 37.746697 18.582093 37.617188 18.474609 C 37.487676 18.367054 37.319896 18.284566 36.646484 17.882812 C 35.972928 17.481058 35.610048 17.107364 34.998047 16.791016 C 34.386048 16.474674 33.718126 16.133772 32.996094 16.054688 C 32.815568 16.034897 32.636893 16.018308 32.460938 16.013672 z M 19.802734 26.134766 C 19.274008 26.881861 19.531016 28.482782 18.1875 27.566406 C 17.282577 27.262504 16.530602 28.46619 17.775391 27.976562 C 17.725559 27.964411 17.439645 28.397684 17.248047 28.771484 C 17.429283 28.593715 17.788306 28.432344 18.1875 28.566406 C 19.681984 29.585753 19.187841 27.479668 20.007812 26.912109 C 20.253372 26.366043 20.106066 26.160352 19.802734 26.134766 z M 28.132812 26.208984 C 27.809785 26.493733 27.85627 27.174573 28.535156 27.59375 C 28.327771 29.101793 29.565098 28.754504 30.533203 28.525391 C 30.712265 28.687473 30.793458 28.770979 30.863281 28.847656 C 30.73853 28.477548 30.496621 28.056003 30.167969 28.056641 C 30.81934 27.897697 31.42315 28.330951 30.533203 27.525391 C 29.565098 27.754504 28.327771 28.101793 28.535156 26.59375 C 28.352435 26.480929 28.229688 26.347566 28.132812 26.208984 z M 26.185547 28.546875 C 25.976526 28.603754 25.864727 28.746092 25.962891 29.011719 C 26.093847 29.706876 26.988948 30.548253 27.398438 31.253906 C 28.123571 30.652737 26.759481 29.533049 26.185547 28.546875 z M 21.857422 28.582031 C 21.507481 29.189714 20.916838 29.901806 20.720703 30.203125 C 20.252556 30.664406 20.338662 31.005206 20.671875 31.259766 C 20.689977 31.240385 20.700588 31.222945 20.720703 31.203125 C 21.079108 30.652513 22.767284 28.731142 21.857422 28.582031 z M 30.625 29.019531 C 30.620389 29.019336 30.614046 29.021659 30.609375 29.021484 C 30.632033 29.042542 30.643767 29.047198 30.667969 29.070312 C 30.940299 29.594925 31.002457 29.389568 30.919922 29.035156 C 30.858376 29.040096 30.755948 29.025089 30.625 29.019531 z M 17.148438 29.021484 C 17.070111 29.227717 17.048819 29.370914 17.253906 29.224609 C 17.279144 29.170131 17.312798 29.130036 17.34375 29.083984 C 17.234553 29.089917 17.173054 29.065897 17.148438 29.021484 z M 27.806641 29.056641 C 27.771415 29.330815 27.865124 29.621367 27.986328 29.810547 C 28.181537 29.54017 28.05273 29.278754 27.806641 29.056641 z M 20.148438 29.261719 C 20.047166 29.426671 20.005612 29.62298 20.033203 29.851562 C 20.093047 29.76933 20.152842 29.686941 20.255859 29.507812 C 20.207534 29.420506 20.181909 29.342632 20.148438 29.261719 z M 30.017578 29.677734 C 29.959025 29.728403 29.952626 29.867164 29.970703 30.052734 C 30.002916 29.937663 30.019502 29.812777 30.017578 29.677734 z M 18.019531 29.693359 C 18.013706 29.692335 18.006004 29.696049 18 29.695312 C 18.033491 30.071651 18.092286 30.167304 18.177734 30.076172 C 18.251763 29.85503 18.172677 29.7203 18.019531 29.693359 z"/>
</svg>
