<svg xmlns="http://www.w3.org/2000/svg" width="48" height="48" version="1.1">
 <path style="opacity:0.2" d="m 16,5 a 4,4 0 0 0 -4,4 4,4 0 0 0 4,4 4,4 0 0 0 4,-4 4,4 0 0 0 -4,-4 z m 16,0 a 4,4 0 0 0 -4,4 4,4 0 0 0 4,4 4,4 0 0 0 4,-4 4,4 0 0 0 -4,-4 z M 7,18 a 5,7 0 0 0 -5,7 5,7 0 0 0 5,7 5,7 0 0 0 5,-7 5,7 0 0 0 -5,-7 z m 34,0 a 5,7 0 0 0 -5,7 5,7 0 0 0 5,7 5,7 0 0 0 5,-7 5,7 0 0 0 -5,-7 z"/>
 <path style="fill:#868686" d="M 16 4 A 4 4 0 0 0 12 8 A 4 4 0 0 0 16 12 A 4 4 0 0 0 20 8 A 4 4 0 0 0 16 4 z M 32 4 A 4 4 0 0 0 28 8 A 4 4 0 0 0 32 12 A 4 4 0 0 0 36 8 A 4 4 0 0 0 32 4 z M 7 17 A 5 7 0 0 0 2 24 A 5 7 0 0 0 7 31 A 5 7 0 0 0 12 24 A 5 7 0 0 0 7 17 z M 41 17 A 5 7 0 0 0 36 24 A 5 7 0 0 0 41 31 A 5 7 0 0 0 46 24 A 5 7 0 0 0 41 17 z"/>
 <path style="opacity:0.1;fill:#f4f4f7" d="M 16 4 A 4 4 0 0 0 12 8 A 4 4 0 0 0 12.035156 8.5058594 A 4 4 0 0 1 16 5 A 4 4 0 0 1 19.964844 8.4941406 A 4 4 0 0 0 20 8 A 4 4 0 0 0 16 4 z M 32 4 A 4 4 0 0 0 28 8 A 4 4 0 0 0 28.035156 8.5058594 A 4 4 0 0 1 32 5 A 4 4 0 0 1 35.964844 8.4941406 A 4 4 0 0 0 36 8 A 4 4 0 0 0 32 4 z M 7 17 A 5 7 0 0 0 2 24 A 5 7 0 0 0 2.015625 24.451172 A 5 7 0 0 1 7 18 A 5 7 0 0 1 11.984375 24.548828 A 5 7 0 0 0 12 24 A 5 7 0 0 0 7 17 z M 41 17 A 5 7 0 0 0 36 24 A 5 7 0 0 0 36.015625 24.451172 A 5 7 0 0 1 41 18 A 5 7 0 0 1 45.984375 24.548828 A 5 7 0 0 0 46 24 A 5 7 0 0 0 41 17 z"/>
 <circle style="opacity:0.2" cx="24" cy="25" r="19"/>
 <circle style="fill:#b2bfd9" cx="24" cy="24" r="19"/>
 <path style="fill:#3f3f3f" d="M 40,24 C 40,32.836556 32.836556,36 24,36 15.163444,36 8,32.836556 8,24 8,15.163444 15.163444,8 24,8 c 8.836556,0 16,7.163444 16,16 z"/>
 <path style="fill:#84bd08" d="M 21.158203 10.951172 C 18.896051 11.014929 17.904602 11.461471 15.519531 14.009766 L 15.306641 20.527344 L 15.392578 22.326172 L 15.433594 29.181641 C 15.732165 31.541235 15.827777 33.45702 16.144531 34.916016 C 18.466256 35.662279 21.142867 36 24 36 C 26.96603 36 29.733826 35.631937 32.115234 34.824219 C 32.729568 32.035434 32.195482 27.916963 32.611328 24.542969 L 32.779297 20.171875 L 32.480469 15.271484 C 31.717992 12.086935 27.267865 10.784878 23.941406 10.951172 C 22.805912 10.951172 21.912254 10.929919 21.158203 10.951172 z"/>
 <circle style="opacity:0.2" cx="17" cy="27" r="3"/>
 <circle style="fill:#f4f4f7" cx="17" cy="26" r="3"/>
 <circle style="fill:#3f3f3f" cx="16" cy="26" r="1"/>
 <path style="opacity:0.5;fill:none;stroke:#000000;stroke-width:2;stroke-linecap:round;stroke-linejoin:round" d="m 18,32 c 0,0 1.708108,1 5.854054,1 C 28,33 30,32 30,32"/>
 <path style="fill:#2e2e2e" d="m 15.022396,15.729182 0.305508,6.445537 C 16.252332,18.854184 13.901406,13.515732 18.442779,13 c 2.324078,-0.263929 2.597061,2.116133 4.186466,2 1.486141,-0.108589 1.508387,-3.710055 5.35769,-3 4.310873,0.795197 4.004821,6.069546 4.773315,10.174719 l 0.236919,-6.09657 c 0.06416,-2.628611 -0.969394,-3.479839 -2.401998,-4.578773 -1.765669,-1.143576 -3.837919,-1.470747 -6.594756,-1.470747 -2.784951,-0.1845465 -5.860519,0.512608 -7.836183,2.397026 -1.175187,1.074979 -1.214532,1.769809 -1.141836,3.303527 z"/>
 <circle style="opacity:0.2" cx="-31" cy="27" r="3" transform="scale(-1,1)"/>
 <circle style="fill:#f4f4f7" cx="-31" cy="26" r="3" transform="scale(-1,1)"/>
 <circle style="fill:#3f3f3f" cx="-32" cy="26" r="1" transform="scale(-1,1)"/>
 <path style="opacity:0.2" d="M 8.0253906 23.492188 C 8.0200434 23.662241 8 23.828648 8 24 C 8 32.836556 15.163444 36 24 36 C 32.836556 36 40 32.836556 40 24 C 40 23.828648 39.979957 23.662241 39.974609 23.492188 C 39.705101 31.943864 32.665788 35 24 35 C 15.334212 35 8.2948993 31.943864 8.0253906 23.492188 z"/>
 <path style="opacity:0.2;fill:#f4f4f7" d="M 24 5 A 19 19 0 0 0 5 24 A 19 19 0 0 0 5.0214844 24.591797 A 19 19 0 0 1 24 6 A 19 19 0 0 1 42.978516 24.408203 A 19 19 0 0 0 43 24 A 19 19 0 0 0 24 5 z"/>
 <rect style="opacity:0.2" width="24" height="4" x="12" y="41" rx="2" ry="2"/>
 <rect style="fill:#868686" width="24" height="4" x="12" y="40" rx="2" ry="2"/>
</svg>
