<svg width="48" height="48" version="1.1" xmlns="http://www.w3.org/2000/svg">
 <path d="m12 21.0004 12 24 12-24-12-16z" style="opacity:.2"/>
 <path d="m12 20.0004 12 24 12-24-12-16z" style="fill:#3f3f3f"/>
 <path d="m24 17.0004v10a6 6 0 0 0 6-6 6 6 0 0 0-0.39062-2.129z" style="opacity:.2"/>
 <path d="m24 16.0004v10a6 6 0 0 0 6-6 6 6 0 0 0-0.39062-2.129l-5.6094-1.8711z" style="fill:#e33755"/>
 <path d="M 24,5.0004 12.3008,20.602 24,44 V 17 L 35.5704,20.8554 35.6993,20.6015 24.0001,4.9999 Z" style="opacity:.2"/>
 <path d="m24 17.0004v-13l-12 16z" style="fill:#4f4f4f"/>
 <path d="m24 4.0004v12l12 4zm0 11.9996-12 4.0004 12 24z" style="fill:#5e5e5e"/>
 <path d="m24 4.0004-12 16 1-0.33204 11-14.668 11 14.668 1 0.33204z" style="fill:#f4f4f7;opacity:.1"/>
</svg>
