<svg width="48" height="48" version="1.1" xmlns="http://www.w3.org/2000/svg">
 <path d="m16 5.0000001c-0.899815-2.418e-4 -1.752233 0.4033839-2.322266 1.0996094l-8.9999996 11c-0.6865377 0.839611-0.8665042 1.984377-0.4707032 2.994141l8.9999998 23c0.450158 1.149503 1.558465 1.905942 2.792969 1.90625h16c1.234504-3.08e-4 2.342811-0.756747 2.792969-1.90625l9-23c0.395801-1.009764 0.215835-2.15453-0.470703-2.994141l-9-11c-0.570033-0.6962255-1.422451-1.0998512-2.322266-1.0996094l-8 17z" style="opacity:.2"/>
 <path d="m16 4c-0.899815-2.418e-4 -1.752233 0.4033839-2.322266 1.0996094l-8.9999996 11c-0.6865377 0.839611-0.8665042 1.984377-0.4707032 2.994141l8.9999998 23c0.450158 1.149503 1.558465 1.905942 2.792969 1.90625h16c1.234504-3.08e-4 2.342811-0.756747 2.792969-1.90625l9-23c0.395801-1.009764 0.215835-2.15453-0.470703-2.994141l-9-11c-0.570033-0.6962255-1.422451-1.0998512-2.322266-1.0996094l-8 17-8-17z" style="fill:#4f4f4f"/>
 <path d="m16 4c-0.899815-2.418e-4 -1.752233 0.4033839-2.322266 1.0996094l-8.9999996 11c-0.5522174 0.675342-0.7701354 1.547529-0.6308594 2.388672 0.0866379-0.500953 0.2976456-0.981163 0.6308594-1.388672l8.9999996-11c0.570033-0.6962255 1.422451-1.0998512 2.322266-1.0996094l8 17 8-17c0.899815-2.418e-4 1.752233 0.4033839 2.322266 1.0996094l9 11c0.333214 0.407509 0.544221 0.887719 0.630859 1.388672 0.139276-0.841143-0.078642-1.71333-0.630859-2.388672l-9-11c-0.570033-0.6962255-1.422451-1.0998512-2.322266-1.0996094l-8 17-8-17z" style="fill:#f4f4f7;opacity:.1"/>
 <path d="m16 5-4 6 4 3-2 2 10 12 10-12-2-2 4-3-4-6h-8z" style="opacity:.2"/>
 <path d="m16 4-4 6 4 3-2 2 10 12 10-12-2-2 4-3-4-6h-8-8z" style="fill:#696969"/>
 <path d="m16 4-4 6 0.445312 0.333984 3.554688-5.333984h8 8l3.554688 5.333984 0.445312-0.333984-4-6h-8-8zm-0.572266 9.572266-1.427734 1.427734 0.455078 0.544922 1.544922-1.544922-0.572266-0.427734zm17.144532 0-0.572266 0.427734 1.544922 1.544922 0.455078-0.544922-1.427734-1.427734z" style="fill:#f4f4f7;opacity:.1"/>
 <path d="m16 4h16l-8 23z" style="fill:#b2bfd9"/>
 <path d="m20 9 2 5-1 5v15l3 3 3-3v-15l-1-5 2-5z" style="opacity:.2"/>
 <path d="m20 8 2 5-1 5v15l3 3 3-3v-15l-1-5 2-5h-8z" style="fill:#d32a2c"/>
 <path d="m20 8 2 5h4l2-5z" style="opacity:.2"/>
 <path d="m16 5 1 8 7-4 7 4 1-8z" style="opacity:.2"/>
 <path d="m16 4 1 8 7-4 7 4 1-8z" style="fill:#f4f4f7"/>
</svg>
