<svg xmlns="http://www.w3.org/2000/svg" width="48" height="48" version="1">
 <circle style="opacity:0.2" cx="-24" cy="25" r="20" transform="scale(-1,1)"/>
 <circle style="fill:#aa3131" cx="-24" cy="24" r="20" transform="scale(-1,1)"/>
 <path style="opacity:0.2" d="M 27.32,9.3519 C 25.63,8.9899 23.866,8.9053 22.142,9.1069 19.64,9.3993 17.217,10.292 15.115,11.697 13.036,13.086 11.33,14.916 10.1,17.074 9.629,17.901 9.227,18.783 8.906,19.697 8.682,20.337 8.477,21.077 8.336,21.75 7.607,25.257 8.071,28.874 9.663,32.089 L 9.791,32.322 C 9.791,32.322 23.293,13.09 23.361,12.989 23.78,12.362 24.209,11.901 24.691,11.56 24.807,11.479 25.091,11.316 25.217,11.26 25.798,11 26.412,10.923 27.102,11.028 27.473,11.083 27.828,11.183 28.146,11.307 28.795,11.561 29.291,11.935 29.664,12.451 29.745,12.563 29.909,12.845 29.969,12.974 30.216,13.51 30.357,14.123 30.406,14.877 L 32.598,38.466 32.735,38.396 C 33.505,37.901 34.276,37.3 34.958,36.664 36.718,35.023 38.072,33.006 38.934,30.741 39.146,30.184 39.589,28.575 39.659,28.263 40.299,25.218 40.035,22.071 38.896,19.164 38.432,17.98 37.812,16.828 37.078,15.785 35.088,12.962 32.27,10.875 29,9.8039 28.477,9.6329 27.862,9.4679 27.32,9.3519 Z M 26.883,13.612 C 25.673,13.486 24.898,14.341 24.236,15.24 L 12.444,36.045 C 12.444,36.045 12.483,36.102 12.649,36.27 14.559,38.194 16.921,39.595 19.531,40.351 20.247,40.558 21.489,40.809 22.169,40.89 24.191,41.13 26.22,40.977 28.19,40.435 L 28.337,40.388 28.521,18.188 C 28.415,16.214 28.51,14.158 26.883,13.612 Z"/>
 <path style="fill:#f7b400" d="M 27.32,8.3519 C 25.63,7.9899 23.866,7.9053 22.142,8.1069 19.64,8.3993 17.217,9.2924 15.115,10.697 13.036,12.086 11.33,13.916 10.1,16.074 9.629,16.901 9.227,17.783 8.906,18.697 8.682,19.337 8.477,20.077 8.336,20.75 7.607,24.257 8.071,27.874 9.663,31.089 L 9.791,31.322 C 9.791,31.322 23.293,12.09 23.361,11.989 23.78,11.362 24.209,10.901 24.691,10.56 24.807,10.479 25.091,10.316 25.217,10.26 25.798,9.9997 26.412,9.9231 27.102,10.028 27.473,10.083 27.828,10.183 28.146,10.307 28.795,10.561 29.291,10.935 29.664,11.451 29.745,11.563 29.909,11.845 29.969,11.974 30.216,12.51 30.357,13.123 30.406,13.877 L 32.598,37.466 32.735,37.396 C 33.505,36.901 34.276,36.3 34.958,35.664 36.718,34.023 38.072,32.006 38.934,29.741 39.146,29.184 39.589,27.575 39.659,27.263 40.299,24.218 40.035,21.071 38.896,18.164 38.432,16.98 37.812,15.828 37.078,14.785 35.088,11.962 32.27,9.8749 29,8.8039 28.477,8.6329 27.862,8.4679 27.32,8.3519 Z M 26.883,12.612 C 25.673,12.486 24.898,13.341 24.236,14.24 L 12.444,35.045 C 12.444,35.045 12.483,35.102 12.649,35.27 14.559,37.194 16.921,38.595 19.531,39.351 20.247,39.558 21.489,39.809 22.169,39.89 24.191,40.13 26.22,39.977 28.19,39.435 L 28.337,39.388 28.521,17.188 C 28.415,15.214 28.51,13.158 26.883,12.612 Z"/>
 <path style="opacity:0.1;fill:#f4f4f7" d="M 24,4 A 20,20 0 0 1 44,24 20,20 0 0 1 43.978,24.582 20,20 0 0 0 24,5 20,20 0 0 0 4.021,24.418 20,20 0 0 1 4,24 20,20 0 0 1 24,4 Z"/>
 <path style="opacity:0.2;fill:#f4f4f7" d="M 23.441,8.0098 C 24.744,7.9655 26.053,8.0801 27.32,8.3516 27.862,8.4676 28.477,8.6337 29,8.8047 32.27,9.8757 35.088,11.962 37.078,14.785 37.812,15.828 38.432,16.98 38.897,18.164 39.689,20.187 40.049,22.325 39.984,24.465 39.925,22.662 39.565,20.871 38.897,19.164 38.432,17.98 37.812,16.828 37.078,15.785 35.088,12.962 32.27,10.876 29,9.8047 28.477,9.6337 27.862,9.4676 27.32,9.3516 25.63,8.9896 23.867,8.9058 22.143,9.1074 19.641,9.3998 17.217,10.292 15.115,11.697 13.036,13.086 11.33,14.916 10.1,17.074 9.629,17.901 9.227,18.783 8.906,19.697 8.682,20.337 8.477,21.077 8.336,21.75 8.156,22.615 8.049,23.487 8.014,24.357 7.987,23.156 8.087,21.947 8.336,20.75 8.477,20.077 8.682,19.337 8.906,18.697 9.227,17.783 9.629,16.901 10.1,16.074 11.33,13.916 13.036,12.086 15.115,10.697 17.217,9.2927 19.641,8.3998 22.143,8.1074 22.574,8.057 23.007,8.0245 23.441,8.0098 Z M 26.449,12.609 C 26.588,12.596 26.732,12.596 26.883,12.611 28.51,13.157 28.415,15.214 28.521,17.188 L 28.514,18.043 C 28.419,16.114 28.47,14.144 26.883,13.611 25.673,13.485 24.898,14.341 24.236,15.24 L 12.801,35.414 C 12.751,35.365 12.698,35.319 12.648,35.27 12.482,35.102 12.443,35.045 12.443,35.045 L 24.236,14.24 C 24.816,13.454 25.481,12.701 26.449,12.609 Z"/>
</svg>
