<svg width="48" height="48" version="1.1" xmlns="http://www.w3.org/2000/svg">
 <path d="m4.0000012 45 4-18h7.9999988l4 18z" style="opacity:.2"/>
 <path d="m4.0000012 44 4-18h7.9999988l4 18z" style="fill:#5c5c5c"/>
 <path d="m28 45 4-18h8l3.999999 18z" style="opacity:.2"/>
 <path d="m28 44 4-18h8l3.999999 18z" style="fill:#5c5c5c"/>
 <rect x="3.9999995" y="12.999999" width="15.999999" height="18" ry="2" style="opacity:.2"/>
 <rect x="9.999999" y="3.9999998" width="7.9999995" height="10" ry="2" style="fill:#5c5c5c"/>
 <rect x="27.999998" y="12.999999" width="15.999999" height="18" ry="2" style="opacity:.2"/>
 <rect x="3.9999995" y="11.999999" width="15.999999" height="18" ry="2" style="fill:#838181"/>
 <rect x="21.999998" y="14.999999" width="3.9999998" height="14" ry="2" style="opacity:.2"/>
 <rect x="29.999998" y="3.9999998" width="7.9999995" height="10" ry="2" style="fill:#5c5c5c"/>
 <rect x="12" y="17" width="24" height="10" ry="2" style="opacity:.2"/>
 <rect x="27.999998" y="11.999999" width="15.999999" height="18" ry="2" style="fill:#838181"/>
 <rect x="21.999998" y="13.999999" width="3.9999998" height="14" ry="2" style="fill:#674f4f"/>
 <path d="m24 14c-1.108 0-2 0.892-2 2v1c0-1.108 0.892-2 2-2s2 0.892 2 2v-1c0-1.108-0.892-2-2-2z" style="fill:#f4f4f7;opacity:.1"/>
 <circle cx="36" cy="37" r="11" style="opacity:.2"/>
 <rect x="12" y="15.999999" width="24" height="10" ry="2" style="fill:#6f6d6d"/>
 <path d="m12 4c-1.108 0-1.999999 0.892-1.999999 2v1c0-1.108 0.891999-2 1.999999-2h4c1.108 0 2 0.892 2 2v-1c0-1.108-0.892-2-2-2z" style="fill:#f4f4f7;opacity:.1"/>
 <path d="m6.0000012 12c-1.108 0-2 0.892-2 2v1c0-1.108 0.892-2 2-2h11.999999c1.108 0 2 0.892 2 2v-1c0-1.108-0.892-2-2-2z" style="fill:#f4f4f7;opacity:.2"/>
 <path d="m32 4c-1.108 0-2 0.892-2 2v1c0-1.108 0.892-2 2-2h4c1.108 0 2 0.892 2 2v-1c0-1.108-0.892-2-2-2z" style="fill:#f4f4f7;opacity:.1"/>
 <path d="m30 12c-1.108 0-2 0.892-2 2v1c0-1.108 0.892-2 2-2h12c1.108 0 1.999999 0.892 1.999999 2v-1c0-1.108-0.891999-2-1.999999-2z" style="fill:#f4f4f7;opacity:.2"/>
 <path d="m14 16c-1.108 0-2 0.892-2 2v1c0-1.108 0.892-2 2-2h20c1.108 0 2 0.892 2 2v-1c0-1.108-0.892-2-2-2z" style="fill:#f4f4f7;opacity:.2"/>
 <circle cx="36.374001" cy="36.296001" r="11" style="fill:#07b3ff"/>
 <path d="m 33,30 v 7.050781 A 2.5,2.5 0 0 0 32.5,37 2.5,2.5 0 0 0 30,39.5 2.5,2.5 0 0 0 32.5,42 2.5,2.5 0 0 0 35,39.5 2.5,2.5 0 0 0 34.998,39.4668 H 35 V 33 h 5 v 4.050781 A 2.5,2.5 0 0 0 39.5,37 2.5,2.5 0 0 0 37,39.5 2.5,2.5 0 0 0 39.5,42 2.5,2.5 0 0 0 42,39.5 2.5,2.5 0 0 0 41.998,39.42383 H 42 V 30 Z" style="fill:#f4f4f7"/>
</svg>
