<svg width="48" height="48" version="1.1" xmlns="http://www.w3.org/2000/svg">
 <path d="m24.181246 17.004316a3.8649504 3.893329 0 0 0-3.528678 1.942668l-5.066579 8.840851-5.068465 8.840851a3.8649504 3.893329 0 0 0 1.181257 5.17031s4.868839 3.201031 12.301314 3.201031c7.432476 0 12.301315-3.201031 12.301315-3.201031a3.8649504 3.893329 0 0 0 1.181259-5.17031l-5.068467-8.840851-5.066578-8.840851a3.8649504 3.893329 0 0 0-3.166378-1.942668z" style="opacity:.2"/>
 <path d="m24.181246 16.004316a3.8649504 3.893329 0 0 0-3.528678 1.942668l-5.066579 8.840851-5.068465 8.840851a3.8649504 3.893329 0 0 0 1.181257 5.17031s4.868839 3.201031 12.301314 3.201031c7.432476 0 12.301315-3.201031 12.301315-3.201031a3.8649504 3.893329 0 0 0 1.181259-5.17031l-5.068467-8.840851-5.066578-8.840851a3.8649504 3.893329 0 0 0-3.166378-1.942668z" style="fill:#1d4d85"/>
 <path d="m24.155367 13.003703a3.3128149 3.3371394 0 0 0-3.024581 1.665144l-4.342782 7.577872-4.344399 7.577874a3.3128149 3.3371394 0 0 0 1.012506 4.431694s4.173291 2.743741 10.543983 2.743741c6.370695 0 10.543986-2.743741 10.543986-2.743741a3.3128149 3.3371394 0 0 0 1.012507-4.431694l-4.3444-7.577874-4.342781-7.577872a3.3128149 3.3371394 0 0 0-2.714039-1.665144z" style="opacity:.2"/>
 <path d="m24.155367 12.003703a3.3128149 3.3371394 0 0 0-3.024581 1.665144l-4.342782 7.577872-4.344399 7.577874a3.3128149 3.3371394 0 0 0 1.012506 4.431694s4.173291 2.743741 10.543983 2.743741c6.370695 0 10.543986-2.743741 10.543986-2.743741a3.3128149 3.3371394 0 0 0 1.012507-4.431694l-4.3444-7.577874-4.342781-7.577872a3.3128149 3.3371394 0 0 0-2.714039-1.665144z" style="fill:#2a83c0"/>
 <path d="m24.129488 9.0030896a2.7606791 2.7809495 0 0 0-2.520484 1.3876204l-3.618985 6.314893-3.620332 6.314895a2.7606791 2.7809495 0 0 0 0.843755 3.693078s3.477742 2.286451 8.786652 2.286451c5.308913 0 8.786655-2.286451 8.786655-2.286451a2.7606791 2.7809495 0 0 0 0.843756-3.693078l-3.620333-6.314895-3.618985-6.314893a2.7606791 2.7809495 0 0 0-2.261699-1.3876204z" style="opacity:.2"/>
 <path d="m24.129488 8.0030896a2.7606791 2.7809495 0 0 0-2.520484 1.38762l-3.618985 6.3148934-3.620332 6.314895a2.7606791 2.7809495 0 0 0 0.843755 3.693078s3.477742 2.286451 8.786652 2.286451c5.308913 0 8.786655-2.286451 8.786655-2.286451a2.7606791 2.7809495 0 0 0 0.843756-3.693078l-3.620333-6.314895-3.618985-6.3148934a2.7606791 2.7809495 0 0 0-2.261699-1.38762z" style="fill:#5bb9db"/>
 <path d="m21.000096 25.000027a2 2 0 0 1-2 2 2 2 0 0 1-2-2 2 2 0 0 1 2-2 2 2 0 0 1 2 2z" style="opacity:.2"/>
 <path d="m24 5c-0.721208 0.010674-1.23555 0.4606299-1.47693 1.205475l9e-3 -0.03359-1.133181 3.928359h-3.821416c-0.0083-1.39e-4 -0.01622-1.39e-4 -0.02455 0-0.456344 0.01531-0.867825 0.236002-1.157735 0.601566-0.626987 0.745426-0.494098 1.618084 0.302083 2.174013l3.004454 2.274233-1.165919 3.75158c-0.0013 0.0041-0.0025 0.0083-0.0037 0.0125-0.178153 0.60615-0.01067 1.23063 0.4375 1.657822 0.0031 0.0032 7e-3 0.0063 0.01045 0.0094 0.538503 0.49582 1.295132 0.558837 1.903267 0.148439 0.01157-0.0078 0.02308-0.01585 0.03422-0.02422l3.082595-2.30548 3.08258 2.30548c0.01114 0.0083 0.02265 0.01647 0.03422 0.02422 0.608135 0.410398 1.364766 0.347381 1.903267-0.148439 0.0032-0.0031 7e-3 -0.0062 0.01045-0.0094 0.448123-0.427192 0.615652-1.051672 0.437498-1.657822-0.0012-0.0042-0.0025-0.0083-0.0037-0.0125l-1.165986-3.75158 3.004454-2.274232c0.796181-0.55593 0.92907-1.428588 0.302083-2.174014-0.289909-0.365563-0.701391-0.586246-1.157735-0.601566-0.0083-1.38e-4 -0.01622-1.38e-4 -0.02455 0h-3.821416l-1.133181-3.9283587 9e-3 0.03359c-0.241573-0.7448454-0.755914-1.1947986-1.477122-1.2054753z" style="opacity:.2"/>
 <path d="m24 4c-0.721208 0.010674-1.23555 0.4606299-1.47693 1.205475l9e-3 -0.03359-1.133181 3.9283583h-3.821416c-0.0083-1.383e-4 -0.01622-1.383e-4 -0.02455 0-0.456344 0.015314-0.867825 0.2360025-1.157735 0.6015663-0.626987 0.7454264-0.494098 1.6180844 0.302083 2.1740134l3.004454 2.274233-1.165919 3.75158c-0.0013 0.0041-0.0025 0.0083-0.0037 0.0125-0.178153 0.60615-0.01067 1.23063 0.4375 1.657822 0.0031 0.0032 7e-3 0.0063 0.01045 0.0094 0.538503 0.49582 1.295132 0.558837 1.903267 0.148439 0.01157-0.0078 0.02308-0.01585 0.03422-0.02422l3.082595-2.30548 3.08258 2.30548c0.01114 0.0083 0.02265 0.01647 0.03422 0.02422 0.608135 0.410398 1.364766 0.347381 1.903267-0.148439 0.0032-0.0031 7e-3 -0.0062 0.01045-0.0094 0.448123-0.427192 0.615652-1.051672 0.437498-1.657822-0.0012-0.0042-0.0025-0.0083-0.0037-0.0125l-1.165986-3.75158 3.004454-2.274232c0.796181-0.55593 0.92907-1.428588 0.302083-2.1740141-0.289909-0.3655638-0.701391-0.5862463-1.157735-0.6015663-0.0083-1.383e-4 -0.01622-1.383e-4 -0.02455 0h-3.821416l-1.133181-3.9283583 9e-3 0.03359c-0.241573-0.7448454-0.755914-1.1947986-1.477122-1.2054753z" style="fill:#b2bfd9"/>
 <path d="m24.000096 4.0000266c-0.721208 0.010674-1.235182 0.460233-1.476562 1.2050781l0.0078-0.033203-1.132812 3.9277344h-3.820313c-0.0083-1.383e-4 -0.01706-1.383e-4 -0.02539 0-0.456344 0.015314-0.868293 0.2359987-1.158203 0.6015625-0.40439 0.4807814-0.48901 1.0149034-0.287109 1.4824224 0.06554-0.163502 0.155559-0.326022 0.287109-0.482422 0.28991-0.365564 0.701859-0.586253 1.158203-0.601563 0.0083-1.39e-4 0.01709-1.39e-4 0.02539 0h3.820313l1.132812-3.9277343-0.0078 0.033203c0.24138-0.7448451 0.755354-1.1944041 1.476562-1.2050781 0.721208 0.010677 1.234989 0.4602327 1.476562 1.2050781l-0.0078-0.033203 1.132812 3.9277343h3.820313c0.0083-1.38e-4 0.01709-1.38e-4 0.02539 0 0.456344 0.01532 0.868294 0.236 1.158203 0.601563 0.13155 0.1564 0.221569 0.31892 0.287109 0.482422 0.201901-0.46752 0.117281-1.001641-0.287109-1.4824224-0.28992-0.3655639-0.70187-0.5862426-1.158214-0.6015626-0.0083-1.383e-4 -0.01706-1.383e-4 -0.02539 0h-3.820314l-1.132812-3.9277344 0.0078 0.033203c-0.24156-0.7448453-0.755342-1.1944013-1.47655-1.205078zm-4.550781 10.958984-0.914063 2.94336c-0.0013 0.0041-0.0027 0.0075-0.0039 0.01172-0.0963 0.327646-0.0837 0.658588 0.01172 0.962891l1.158203-3.726562zm9.101562 0-0.251953 0.191407 1.158203 3.726562c0.09542-0.304303 0.108017-0.635245 0.01172-0.962891-0.0012-0.0042-0.0027-0.0075-0.0039-0.01172z" style="fill:#f4f4f7;opacity:.2"/>
 <path d="m21.000096 24.000027a2 2 0 0 1-2 2 2 2 0 0 1-2-2 2 2 0 0 1 2-2 2 2 0 0 1 2 2z" style="fill:#f4f4f7"/>
 <path d="m32.000096 32.000027a2 2 0 0 1-2 2 2 2 0 0 1-2-2 2 2 0 0 1 2-2 2 2 0 0 1 2 2z" style="opacity:.2"/>
 <path d="m32.000096 31.000027a2 2 0 0 1-2 2 2 2 0 0 1-2-2 2 2 0 0 1 2-2 2 2 0 0 1 2 2z" style="fill:#f4f4f7"/>
 <path d="m21.000096 41.000027a2 2 0 0 1-2 2 2 2 0 0 1-2-2 2 2 0 0 1 2-2 2 2 0 0 1 2 2z" style="opacity:.2"/>
 <path d="m21.000096 40.000027a2 2 0 0 1-2 2 2 2 0 0 1-2-2 2 2 0 0 1 2-2 2 2 0 0 1 2 2z" style="fill:#f4f4f7"/>
 <path d="m27.000096 24.000027a1 1 0 0 1-1 1 1 1 0 0 1-1-1 1 1 0 0 1 1-1 1 1 0 0 1 1 1z" style="opacity:.2"/>
 <path d="m27.000096 23.000027a1 1 0 0 1-1 1 1 1 0 0 1-1-1 1 1 0 0 1 1-1 1 1 0 0 1 1 1z" style="fill:#f4f4f7"/>
 <path d="m23.000096 34.000027a1 1 0 0 1-1 1 1 1 0 0 1-1-1 1 1 0 0 1 1-1 1 1 0 0 1 1 1z" style="opacity:.2"/>
 <path d="m23.000096 33.000027a1 1 0 0 1-1 1 1 1 0 0 1-1-1 1 1 0 0 1 1-1 1 1 0 0 1 1 1z" style="fill:#f4f4f7"/>
 <path d="m30.000096 40.000027a1 1 0 0 1-1 1 1 1 0 0 1-1-1 1 1 0 0 1 1-1 1 1 0 0 1 1 1z" style="opacity:.2"/>
 <path d="m30.000096 39.000027a1 1 0 0 1-1 1 1 1 0 0 1-1-1 1 1 0 0 1 1-1 1 1 0 0 1 1 1z" style="fill:#f4f4f7"/>
 <path d="m17.000096 31.000027a1 1 0 0 1-1 1 1 1 0 0 1-1-1 1 1 0 0 1 1-1 1 1 0 0 1 1 1z" style="opacity:.2"/>
 <path d="m17.000096 30.000027a1 1 0 0 1-1 1 1 1 0 0 1-1-1 1 1 0 0 1 1-1 1 1 0 0 1 1 1z" style="fill:#f4f4f7"/>
 <path d="m36.000096 38.000027a1 1 0 0 1-1 1 1 1 0 0 1-1-1 1 1 0 0 1 1-1 1 1 0 0 1 1 1z" style="opacity:.2"/>
 <path d="m36.000096 37.000027a1 1 0 0 1-1 1 1 1 0 0 1-1-1 1 1 0 0 1 1-1 1 1 0 0 1 1 1z" style="fill:#f4f4f7"/>
</svg>
