<svg xmlns="http://www.w3.org/2000/svg" width="48" height="48" version="1">
 <circle style="opacity:0.2" cx="24" cy="25" r="20"/>
 <circle style="fill:#4f4f4f" cx="24" cy="24" r="20"/>
 <path style="opacity:0.1;fill:#f4f4f7" d="M 24,4 A 20,20 0 0 0 4,24 20,20 0 0 0 4.0214844,24.582031 20,20 0 0 1 24,5 20,20 0 0 1 43.978516,24.417969 20,20 0 0 0 44,24 20,20 0 0 0 24,4 Z"/>
 <path style="opacity:0.2" d="m 24,12 a 2,2 0 0 0 -2,2 2,2 0 0 0 2,2 2,2 0 0 0 2,-2 2,2 0 0 0 -2,-2 z m -14,2 9,6 4,22 V 25 h 2 v 17 l 4,-22 9,-6 -13,4.109375 V 22 h -2 v -3.890625 z"/>
 <path style="fill:#f68220" d="m 24,11 a 2,2 0 0 0 -2,2 2,2 0 0 0 2,2 2,2 0 0 0 2,-2 2,2 0 0 0 -2,-2 z m -14,2 9,6 4,22 V 24 h 2 v 17 l 4,-22 9,-6 -13,4.109375 V 21 h -2 v -3.890625 z"/>
 <path style="opacity:0.2;fill:#f4f4f7" d="m 24,11 a 2,2 0 0 0 -2,2 2,2 0 0 0 0.06445,0.496094 A 2,2 0 0 1 24,12 2,2 0 0 1 25.935547,13.503906 2,2 0 0 0 26,13 2,2 0 0 0 24,11 Z M 10,13 12.853516,14.902344 23,18.109375 v -1 z m 28,0 -13,4.109375 v 1 l 10.146484,-3.207031 z m -15,8 v 1 h 2 v -1 z"/>
</svg>
