<svg xmlns="http://www.w3.org/2000/svg" width="48" height="48" version="1">
 <circle style="opacity:0.2" cx="24" cy="23" r="19"/>
 <circle style="fill:#949494" cx="24" cy="22" r="19"/>
 <path style="opacity:0.2;fill:#f4f4f7" d="M 24 3 A 19 19 0 0 0 5 22 A 19 19 0 0 0 5.0214844 22.591797 A 19 19 0 0 1 24 4 A 19 19 0 0 1 42.978516 22.408203 A 19 19 0 0 0 43 22 A 19 19 0 0 0 24 3 z"/>
 <path style="opacity:0.1" d="M 7,47 C 11.058899,13.104721 36.929806,6.4328488 44,3.0000031 38.71381,19.39974 30.14161,31.094051 12.201413,36.78972 18.48112,24.793061 28.10007,16.808655 38.627384,8.610579 29.616871,16.257742 20.601598,23.899593 14.725743,35.04712 23.117803,32.24677 40.19329,16.191582 34.49226,15.84256 36.434528,15.632913 38.750166,14.206587 40.894772,6.2039155 34.357705,8.6005085 15.068347,17.503941 7,47 Z"/>
 <path style="fill:#3f3f3f" d="M 7,45.999998 C 11.058899,12.104719 36.929806,5.4328468 44,2.0000011 38.71381,18.399738 30.14161,30.094049 12.201413,35.789718 18.48112,23.793059 28.10007,15.808653 38.627384,7.610577 29.616871,15.25774 20.601598,22.899591 14.725743,34.047118 23.117803,31.246768 40.19329,15.19158 34.49226,14.842558 36.434528,14.632911 38.750166,13.206585 40.894772,5.2039135 34.357705,7.6005065 15.068347,16.503939 7,45.999998 Z"/>
</svg>
