<svg xmlns="http://www.w3.org/2000/svg" width="48" height="48" version="1">
 <circle style="opacity:0.2" cx="14" cy="19" r="11"/>
 <circle style="fill:#cccccc" cx="14" cy="18" r="11"/>
 <path style="opacity:0.2;fill:#f4f4f7" d="M 14 7 A 11 11 0 0 0 3 18 A 11 11 0 0 0 3.0214844 18.585938 A 11 11 0 0 1 14 8 A 11 11 0 0 1 24.978516 18.414062 A 11 11 0 0 0 25 18 A 11 11 0 0 0 14 7 z"/>
 <circle style="fill:#478be5" cx="14" cy="16" r="4"/>
 <circle style="fill:#3f3f3f" cx="14" cy="16" r="1"/>
 <circle style="opacity:0.2" cx="31" cy="25" r="14"/>
 <circle style="fill:#b2bfd9" cx="31" cy="24" r="14"/>
 <circle style="fill:#478be5" cx="33" cy="22" r="6"/>
 <circle style="fill:#3f3f3f" cx="33" cy="22" r="2"/>
 <path style="opacity:0.2;fill:#f4f4f7" d="M 31 10 A 14 14 0 0 0 17 24 A 14 14 0 0 0 17.021484 24.585938 A 14 14 0 0 1 31 11 A 14 14 0 0 1 44.978516 24.414062 A 14 14 0 0 0 45 24 A 14 14 0 0 0 31 10 z"/>
</svg>
