<svg xmlns="http://www.w3.org/2000/svg" width="48" height="48" version="1">
 <path style="opacity:0.2" d="M 44,6.9999997 C 42.527822,20.412016 39.659609,32.557984 35.642629,43.999234 h 8.356728 z M 35.642629,43.999234 C 35.54587,32.417314 33.733599,25.869179 33,23.148525 v 18.857681 z"/>
 <path style="opacity:0.2" d="M 13.445479,23.467112 4.0002006,43.998936 c 3.3020106,-0.11138 6.3161864,0.558531 10.5263884,-2.055824 z"/>
 <path style="fill:#197279" d="M 32.657,22.148308 44,6 42.257229,32.746829 35.643017,42.943252 C 34.30778,31.515721 33.352956,24.873654 32.657,22.148308 Z"/>
 <path style="fill:#197279" d="M 13.445479,22.467112 4.0002006,42.998936 c 3.3020106,-0.11138 6.3161864,0.558531 10.5263884,-2.055824 z"/>
 <path style="fill:#029a9b" d="m 44,6 c -1.472178,13.412016 -4.340391,25.557984 -8.357371,36.999234 h 8.356728 z M 35.642629,42.999234 C 35.54587,31.417314 33.733599,24.869179 33,22.148525 v 18.857681 z"/>
 <path style="opacity:0.2;fill:#f4f4f7" d="M 44 6 C 42.527822 19.412016 39.659558 31.55875 35.642578 43 L 35.976562 43 C 39.81313 31.848809 42.570283 20.025184 44 7 L 44 6 z M 35.642578 43 C 35.545819 31.41808 33.733599 24.869091 33 22.148438 L 33 23.148438 C 33.710849 25.784718 35.420976 32.057186 35.615234 42.978516 L 35.642578 43 z"/>
 <path style="opacity:0.2" d="m 4,7.1525842 h 8.493691 L 14.407763,23.157976 4,43.999532 Z"/>
 <path style="fill:#029a9b" d="m 4,6.1525845 h 8.493691 L 14.407763,22.157976 4,42.999532 Z"/>
 <path style="opacity:0.2" d="M 16.140625 6 L 4 7.1523438 L 19.845703 36 L 28.214844 36 L 44 7 L 31.859375 7 L 24.089844 25.753906 L 16.140625 6 z"/>
 <path style="fill:#28c4c6" d="M 44,6 H 31.86 L 19.845466,35 h 8.369984 z"/>
 <path style="opacity:0.2;fill:#f4f4f7" d="M 31.859375 6 L 19.845703 35 L 20.259766 35 L 31.859375 7 L 43.455078 7 L 44 6 L 31.859375 6 z"/>
 <path style="fill:#92dbdc" d="M 4,6.1525845 16.139671,5 28.21545,35 h -8.369984 z"/>
 <path style="opacity:0.2;fill:#f4f4f7" d="M 16.140625 5 L 4 6.1523438 L 4.5214844 7.1035156 L 16.140625 6 L 27.8125 35 L 28.214844 35 L 16.140625 5 z"/>
</svg>
