<svg xmlns="http://www.w3.org/2000/svg" width="48" height="48" version="1.1">
 <path style="opacity:.2" d="m15.99 5.002a12 12 0 0 0 -12 12 12 12 0 0 0 3.0742188 7.998047 12 12 0 0 0 -3.0742188 8.001953 12 12 0 0 0 12 12 12 12 0 0 0 11.628906 -9.095703 11 11 0 0 0 1.371094 0.0957 11 11 0 0 0 11 -11 11 11 0 0 0 -11 -11 11 11 0 0 0 -1.367188 0.09961 12 12 0 0 0 -11.632812 -9.099607z"/>
 <circle style="fill:#5f81d4" cx="28.99" cy="24.002" r="11"/>
 <circle style="fill:#5f81d4" cx="15.99" cy="16.002" r="12"/>
 <path style="opacity:.2;fill:#f4f4f7" transform="translate(-2.01 .002)" d="m18 4a12 12 0 0 0 -12 12 12 12 0 0 0 0.0195312 0.40625 12 12 0 0 1 11.980469 -11.40625 12 12 0 0 1 11.632812 9.099609 11 11 0 0 1 1.367188 -0.099609 11 11 0 0 1 10.978516 10.585938 11 11 0 0 0 0.021484 -0.585938 11 11 0 0 0 -11 -11 11 11 0 0 0 -1.367188 0.099609 12 12 0 0 0 -11.632812 -9.099609z"/>
 <circle style="fill:#5f81d4" cx="15.99" cy="32.002" r="12"/>
 <path style="opacity:.2" d="m22.99 10.002a7 7 0 0 0 -7 7 7 7 0 0 0 7 7 7 7 0 0 0 7 -7 7 7 0 0 0 -7 -7zm-12 8a7 7 0 0 0 -7 7 7 7 0 0 0 7 7 7 7 0 0 0 7 -7 7 7 0 0 0 -7 -7zm12 8a7 7 0 0 0 -7 7 7 7 0 0 0 7 7 7 7 0 0 0 7 -7 7 7 0 0 0 -7 -7z"/>
 <circle style="fill:#f2f2f2" cx="10.99" cy="24.002" r="7"/>
 <circle style="fill:#f2f2f2" cx="22.99" cy="32.002" r="7"/>
 <circle style="fill:#f2f2f2" cx="22.99" cy="16.002" r="7"/>
 <path style="opacity:.2" d="m11.450777 11.080151c0.485455-0.237379 0.95183 0.14172 0.95183 0.14172l11.137178 6.43832 10.768318 6.231411s0.681897 0.325247 0.681897 1.102578c0 0.779458-0.687549 1.033136-0.687549 1.033136l-10.787398 6.23141-11.388032 6.577916s-0.332115 0.288399-0.760332 0.103454c-0.488988-0.212579-0.361794-0.753239-0.361794-0.753239v-13.227398-13.01411c0.000706 0-0.0537-0.620731 0.445882-0.865198z"/>
 <path style="fill:#ffbf00" d="m11.450777 10.080149c0.485455-0.2373794 0.95183 0.14172 0.95183 0.14172l11.137178 6.43832 10.768318 6.231411s0.681897 0.325247 0.681897 1.102578c0 0.779458-0.687549 1.033136-0.687549 1.033136l-10.787398 6.23141-11.388032 6.577916s-0.332115 0.288399-0.760332 0.103454c-0.488988-0.212579-0.361794-0.753239-0.361794-0.753239v-13.227398-13.01411c0.000706 0-0.0537-0.620731 0.445882-0.865198z"/>
</svg>
