<svg xmlns="http://www.w3.org/2000/svg" width="48" height="48" version="1">
 <rect opacity=".2" width="40" height="40" x="4" y="5" rx="20" ry="20"/>
 <rect fill="#4f4f4f" width="40" height="40" x="4" y="4" rx="20" ry="20"/>
 <path style="opacity:0.2" d="M 24,9 C 15.136,9 8,16.136 8,25 c 0,2.921802 0.7875211,5.64739 2.144531,8 H 37.855469 C 39.212479,30.64739 40,27.921802 40,25 40,16.136 32.864,9 24,9 Z"/>
 <path fill="#fff" opacity=".1" d="m24 4c-11.08 0-20 8.92-20 20 0 0.168 0.0076 0.333 0.0117 0.5 0.2647-10.846 9.0763-19.5 19.988-19.5s19.724 8.654 19.988 19.5c0.004-0.167 0.012-0.332 0.012-0.5 0-11.08-8.92-20-20-20z"/>
 <path style="fill:#ffe485" d="M 24 8 C 15.136 8 8 15.136 8 24 C 8 26.921802 8.7875211 29.64739 10.144531 32 L 37.855469 32 C 39.212479 29.64739 40 26.921802 40 24 C 40 15.136 32.864 8 24 8 z"/>
 <path style="fill:none;stroke:#3f3f3f;stroke-width:4;stroke-linecap:round" d="M 24,32 18,22"/>
 <circle style="fill:#4f4f4f" cx="24" cy="32" r="4"/>
 <path style="opacity:0.3;fill:none;stroke:#000000;stroke-width:2;stroke-linecap:round" d="m 11,19.999857 c 0,0 4,-5 13,-5 9,0 13,5 13,5"/>
 <path style="fill:none;stroke:#e93232;stroke-width:2;stroke-linecap:round" d="M 29.385103,15.660317 C 34.615155,17.018801 37,19.999857 37,19.999857"/>
 <path style="fill:#f4f4f7;opacity:0.2" d="M 24 8 C 15.136 8 8 15.136 8 24 C 8 24.199683 8.0122443 24.395957 8.0195312 24.59375 C 8.2356936 15.920846 15.273168 9 24 9 C 32.726832 9 39.764306 15.920846 39.980469 24.59375 C 39.987756 24.395957 40 24.199683 40 24 C 40 15.136 32.864 8 24 8 z"/>
 <path style="opacity:0.2" d="M 24 28 A 4 4 0 0 0 20 32 A 4 4 0 0 0 20.035156 32.494141 A 4 4 0 0 1 24 29 A 4 4 0 0 1 27.964844 32.505859 A 4 4 0 0 0 28 32 A 4 4 0 0 0 24 28 z"/>
</svg>
