<svg xmlns="http://www.w3.org/2000/svg" width="48" height="48" version="1.1">
 <path style="opacity:0.2" d="M 17.943602,8.0002672 C 11.790906,8.0343607 7.3277305,11.351016 4.9089714,14.835214 2.7526874,17.941324 2.196543,21.079544 2.1883779,21.12594 2.0642877,21.760613 2.0000783,22.404508 2.0008855,23.051195 v 8.818721 c -0.039203,2.768574 1.2251961,5.767868 3.2420569,7.57813 2.0168607,1.810261 4.4376961,2.551402 6.7575396,2.551402 2.089003,0 4.223147,-0.721853 6.107176,-2.16323 1.459094,1.108949 3.122614,1.962516 5.042766,2.126167 0.322104,0.02783 0.645411,0.04051 0.968711,0.03706 a 7.000418,6.9916952 0 0 0 0.03125,0 c 2.171376,-0.03247 4.085704,-0.93057 5.724378,-2.172983 1.887862,1.450547 4.029628,2.172983 6.124754,2.172983 2.319844,0 4.74068,-0.741141 6.757539,-2.551402 2.016862,-1.810262 3.281261,-4.809556 3.242058,-7.57813 v -8.947461 -0.0039 c 1.22e-4,-0.649688 -0.06549,-1.297652 -0.1914,-1.935008 -0.0066,-0.03703 -0.571246,-3.202867 -2.767466,-6.306331 C 40.571077,11.188062 36.068355,7.9663145 29.943118,8.0002672 27.779644,8.0122551 25.80164,8.4741365 24.050778,9.1881903 22.242615,8.4486833 20.186892,7.9878321 17.943602,8.0002672 Z"/>
 <path style="fill:#f540ae" d="M 17.943602,7.0002668 C 11.790906,7.0343603 7.3277305,10.351016 4.9089714,13.835214 2.7526874,16.941324 2.196543,20.079544 2.1883779,20.12594 2.0642877,20.760613 2.0000783,21.404508 2.0008855,22.051195 v 8.818721 c -0.039203,2.768574 1.2251961,5.767868 3.2420569,7.57813 2.0168607,1.810261 4.4376961,2.551402 6.7575396,2.551402 2.089003,0 4.223147,-0.721853 6.107176,-2.16323 1.459094,1.108949 3.122614,1.962516 5.042766,2.126167 0.322104,0.02783 0.645411,0.04051 0.968711,0.03706 a 7.000418,6.9916952 0 0 0 0.03125,0 c 2.171376,-0.03247 4.085704,-0.93057 5.724378,-2.172983 1.887862,1.450547 4.029628,2.172983 6.124754,2.172983 2.319844,0 4.74068,-0.741141 6.757539,-2.551402 2.016862,-1.810262 3.281261,-4.809556 3.242058,-7.57813 v -8.947461 -0.0039 c 1.22e-4,-0.649688 -0.06549,-1.297652 -0.1914,-1.935008 -0.0066,-0.03703 -0.571246,-3.202867 -2.767466,-6.306331 C 40.571077,10.188062 36.068355,6.9663141 29.943118,7.0002668 27.779644,7.0122547 25.80164,7.4741361 24.050778,8.1881899 22.242615,7.4486829 20.186892,6.9878317 17.943602,7.0002668 Z"/>
 <path style="opacity:0.2" d="m 17.982422,14.99986 c -3.505671,0.01945 -6.06759,2.022428 -7.322266,3.832031 -1.2546749,1.809604 -1.6035154,3.646485 -1.6035154,3.646485 A 3.0003,3.0003 0 0 0 9,23.06236 v 8.9375 a 3.0003,3.0003 0 1 0 6,0 v -8.476562 c 0.02584,-0.104804 0.13812,-0.621922 0.589844,-1.273438 0.495324,-0.714401 0.933405,-1.241708 2.427734,-1.25 1.505762,-0.0084 1.923359,0.505422 2.408203,1.191406 C 20.865454,22.81334 20.973344,23.300469 21,23.40611 v 8.59375 a 3.0003,3.0003 0 0 0 2.746094,3.03125 3.0003,3.0003 0 0 0 0.298828,0.01172 A 3.0003,3.0003 0 0 0 27,31.99986 v -8.476562 c 0.02584,-0.104804 0.13812,-0.621922 0.589844,-1.273438 0.495324,-0.714401 0.933405,-1.241708 2.427734,-1.25 1.505762,-0.0084 1.923359,0.505422 2.408203,1.191406 C 32.865454,22.81334 32.973344,23.300469 33,23.40611 v 8.59375 a 3.0003,3.0003 0 1 0 6,0 v -9.0625 a 3.0003,3.0003 0 0 0 -0.05859,-0.591797 c 0,0 -0.352031,-1.829128 -1.617187,-3.619141 -1.26516,-1.790012 -3.847559,-3.745955 -7.341797,-3.726562 -2.51605,0.01396 -4.535907,1.05402 -5.945313,2.306641 -1.421958,-1.267715 -3.489527,-2.320878 -6.054687,-2.306641 z"/>
 <path style="fill:none;stroke:#f4f4f7;stroke-width:6;stroke-linecap:round;stroke-linejoin:round" d="m 12,31.000273 v -8.938119 c 0,0 1,-5.034135 6,-5.061881 5,-0.02775 6,4.938119 6,4.938119 v 9.061881 0"/>
 <path style="fill:none;stroke:#f4f4f7;stroke-width:6;stroke-linecap:round;stroke-linejoin:round" d="m 24,31.000273 v -8.938119 c 0,0 1,-5.034135 6,-5.061881 5,-0.02775 6,4.938119 6,4.938119 v 9.061881 0"/>
 <path style="opacity:0.2;fill:#f4f4f7" d="M 17.943359 7 C 11.790663 7.0340935 7.3269622 10.351739 4.9082031 13.835938 C 2.7519191 16.942048 2.1956651 20.078604 2.1875 20.125 C 2.0634098 20.759673 1.9991928 21.404094 2 22.050781 L 2 23.050781 C 1.9991928 22.404094 2.0634098 21.759673 2.1875 21.125 C 2.1956651 21.078604 2.7519191 17.942048 4.9082031 14.835938 C 7.3269622 11.351739 11.790663 8.0340935 17.943359 8 C 20.186649 7.9875649 22.242618 8.447993 24.050781 9.1875 C 25.801643 8.4734462 27.779885 8.0119879 29.943359 8 C 36.068596 7.9660473 40.571845 11.188583 43.041016 14.677734 C 45.237236 17.781198 45.801994 20.947345 45.808594 20.984375 C 45.934504 21.621731 46.000122 22.268281 46 22.917969 L 46 21.921875 L 46 21.917969 C 46.000122 21.268281 45.934504 20.621731 45.808594 19.984375 C 45.801994 19.947345 45.237236 16.781198 43.041016 13.677734 C 40.571845 10.188583 36.068596 6.9660473 29.943359 7 C 27.779885 7.0119879 25.801643 7.4734462 24.050781 8.1875 C 22.242618 7.447993 20.186649 6.9875649 17.943359 7 z"/>
</svg>
