<svg xmlns="http://www.w3.org/2000/svg" width="48" height="48" version="1">
 <path style="opacity:0.2" d="M 24,5 C 12.92,5 4,13.92 4,25 4,36.08 12.92,45 24,45 35.08,45 44,36.08 44,25 44,13.92 35.08,5 24,5 Z"/>
 <path style="fill:#b2bfd9" d="M 24,4 C 12.92,4 4,12.92 4,24 4,35.08 12.92,44 24,44 35.08,44 44,35.08 44,24 44,12.92 35.08,4 24,4 Z"/>
 <path style="opacity:0.2;fill:#f4f4f7" d="M 24,4 C 12.920985,4 4.0017778,12.92 4.0017778,24 c 0,0.168 -0.004,0.333 0,0.5 C 4.2661543,13.654 13.08897,5 24,5 c 10.91103,0 19.734246,8.654 19.998223,19.5 0.004,-0.167 0,-0.332 0,-0.5 C 43.998223,12.92 35.079015,4 24,4 Z"/>
 <path style="opacity:0.1" d="m 17.291067,14 -1.354668,0.783244 -0.433339,0.250012 -1.497164,0.865279 -0.0059,0.0039 0.0059,0.0039 v 1.392662 16.7009 L 17.004128,36 20.002359,33.999897 V 22.169215 L 24,25.098348 27.997642,22.169215 V 33.999897 L 30.995873,36 l 2.99823,-2.000103 v -16.7009 -1.392649 L 34,15.902448 33.994103,15.898548 32.49694,15.033269 32.063601,14.783257 30.708934,14.000013 29.50847,14.693408 24,18.243654 18.491531,14.693395 Z"/>
 <path style="fill:#8b8b8b" d="m 17.291067,12.999999 -1.354668,0.783244 -0.433339,0.250012 -1.497164,0.865279 -0.0059,0.0039 0.0059,0.0039 v 1.392662 16.7009 l 2.998232,2.000103 2.998231,-2.000103 V 21.169214 L 24,24.098347 27.997642,21.169214 v 11.830682 l 2.998231,2.000103 2.99823,-2.000103 v -16.7009 -1.392649 L 34,14.902447 33.994103,14.898547 32.49694,14.033268 32.063601,13.783256 30.708934,13.000012 29.50847,13.693407 24,17.243653 18.491531,13.693394 Z"/>
 <path style="opacity:0.2" d="m 17.291067,12.999999 -1.354668,0.783244 -0.433339,0.250012 -1.497164,0.865279 -0.0059,0.0039 0.0059,0.0039 v 1.392662 16.7009 l 2.998232,2.000103 2.998231,-2.000103 V 21.169214 L 24,24.098347 v -6.854694 l -5.508469,-3.550259 z"/>
</svg>
