<svg xmlns="http://www.w3.org/2000/svg" width="48" height="48" version="1">
 <path style="opacity:0.2" d="m 19.833984,5.0016256 c -2.442495,0.067621 -4.61224,1.6227599 -5.460937,3.9140625 L 4.3730469,35.915689 a 2.0002,2.0002 0 0 0 0,0.002 c -0.6364444,1.719563 -0.4913061,3.510221 0.2402343,4.882812 0.7315406,1.372592 1.9498882,2.324734 3.3046876,2.826172 1.3547992,0.501438 2.8987642,0.569483 4.3476562,0.0039 1.448431,-0.56539 2.724678,-1.82815 3.361328,-3.546875 v -0.002 l 4.335938,-11.703125 c 1.4236,1.272549 3.406783,1.804714 5.279297,1.435547 L 23.28125,36.18522 c -0.597528,1.775271 -0.379645,3.596724 0.427734,4.957031 0.80738,1.360307 2.094958,2.262351 3.496094,2.69336 1.401137,0.431007 2.971956,0.409619 4.404297,-0.261719 1.432341,-0.671339 2.635113,-2.057151 3.138672,-3.861328 l -0.01367,0.05078 8,-26 a 2.0002,2.0002 0 0 0 0,-0.002 c 0.857016,-2.793713 -0.463,-5.5286279 -2.539063,-6.8359383 -2.076061,-1.3073103 -5.114543,-1.3160521 -7.263671,0.6640626 l -6,5.5371097 -1.197266,-3.8906254 C 24.944365,6.6688414 22.518934,4.9276723 19.833984,5.0016256 Z"/>
 <path style="fill:#2d6375" d="M 19.833984 4.0019531 C 17.391489 4.0695741 15.221744 5.624713 14.373047 7.9160156 L 4.3730469 34.916016 A 2.0002 2.0002 0 0 0 4.3730469 34.917969 C 3.7366025 36.637532 3.8817408 38.42819 4.6132812 39.800781 C 5.3448218 41.173373 6.5631694 42.125515 7.9179688 42.626953 C 9.272768 43.128391 10.816733 43.196436 12.265625 42.630859 C 13.714056 42.065469 14.990303 40.802709 15.626953 39.083984 L 15.626953 39.082031 L 19.962891 27.378906 C 21.386491 28.651455 23.369674 29.18362 25.242188 28.814453 L 23.28125 35.185547 C 22.683722 36.960818 22.901605 38.782271 23.708984 40.142578 C 24.516364 41.502885 25.803942 42.404929 27.205078 42.835938 C 28.606215 43.266945 30.177034 43.245557 31.609375 42.574219 C 33.041716 41.90288 34.244488 40.517068 34.748047 38.712891 L 34.734375 38.763672 L 42.734375 12.763672 A 2.0002 2.0002 0 0 0 42.734375 12.761719 C 43.591391 9.9680066 42.271375 7.2330916 40.195312 5.9257812 C 38.119251 4.6184709 35.080769 4.6097291 32.931641 6.5898438 L 26.931641 12.126953 L 25.734375 8.2363281 C 24.944365 5.6691689 22.518934 3.9279998 19.833984 4.0019531 z"/>
 <path style="opacity:0.2" d="m 19.943359,9.0016256 c -0.822265,0.022765 -1.534598,0.5333208 -1.820312,1.3046874 L 8.1230469,37.304361 c -0.2893366,0.781736 -0.191067,1.21447 0.021484,1.613281 0.2125516,0.398811 0.6389791,0.766042 1.1601563,0.958984 0.5211772,0.192901 1.0848785,0.193625 1.5058595,0.0293 0.42098,-0.164328 0.77707,-0.4292 1.066406,-1.210938 a 2.0002,2.0002 0 0 0 0,-0.002 l 5.898438,-15.925781 a 2.0002,2.0002 0 0 1 3.787109,0.107422 l 0.527344,1.712891 c 0.456444,1.482396 2.124691,1.932416 3.265625,0.882812 l 2.103515,-1.941406 a 2.0002,2.0002 0 0 1 3.269532,2.056641 l -3.638672,11.826171 a 2.0002,2.0002 0 0 1 -0.01563,0.05078 c -0.275848,0.819554 -0.157985,1.247445 0.07422,1.638671 0.232202,0.391228 0.688087,0.742712 1.232421,0.910157 0.544335,0.167448 1.119306,0.134484 1.53125,-0.05859 0.411944,-0.193078 0.751908,-0.481555 0.984375,-1.314453 a 2.0002,2.0002 0 0 1 0.01367,-0.05078 l 8,-25.998047 c 0.340152,-1.10885 -0.105424,-1.813139 -0.845703,-2.279298 -0.740279,-0.4661586 -1.568883,-0.565207 -2.421875,0.220704 l -8.333984,7.691406 a 2.0002,2.0002 0 0 1 -3.267578,-0.882812 l -2.13086,-6.927735 C 21.643124,9.5440538 20.850902,8.9766286 19.943359,9.0016256 Z"/>
 <path style="fill:#6acf96" d="M 19.943359 8.0019531 C 19.121094 8.0247177 18.408761 8.5352739 18.123047 9.3066406 L 8.1230469 36.304688 C 7.8337103 37.086424 7.9319799 37.519158 8.1445312 37.917969 C 8.3570828 38.31678 8.7835103 38.684011 9.3046875 38.876953 C 9.8258647 39.069854 10.389566 39.070578 10.810547 38.90625 C 11.231527 38.741922 11.587617 38.47705 11.876953 37.695312 A 2.0002 2.0002 0 0 0 11.876953 37.693359 L 17.775391 21.767578 A 2.0002 2.0002 0 0 1 21.5625 21.875 L 22.089844 23.587891 C 22.546288 25.070287 24.214535 25.520307 25.355469 24.470703 L 27.458984 22.529297 A 2.0002 2.0002 0 0 1 30.728516 24.585938 L 27.089844 36.412109 A 2.0002 2.0002 0 0 1 27.074219 36.462891 C 26.798371 37.282445 26.916234 37.710336 27.148438 38.101562 C 27.38064 38.49279 27.836525 38.844274 28.380859 39.011719 C 28.925194 39.179167 29.500165 39.146203 29.912109 38.953125 C 30.324053 38.760047 30.664017 38.47157 30.896484 37.638672 A 2.0002 2.0002 0 0 1 30.910156 37.587891 L 38.910156 11.589844 C 39.250308 10.480994 38.804732 9.7767059 38.064453 9.3105469 C 37.324174 8.8443879 36.49557 8.7453395 35.642578 9.53125 L 27.308594 17.222656 A 2.0002 2.0002 0 0 1 24.041016 16.339844 L 21.910156 9.4121094 C 21.643124 8.5443813 20.850902 7.9769561 19.943359 8.0019531 z"/>
 <path style="opacity:0.2;fill:#f4f4f7" d="M 19.943359 8.0019531 C 19.121094 8.0247177 18.408761 8.5352739 18.123047 9.3066406 L 8.1230469 36.304688 C 7.8974214 36.914287 7.9111768 37.309974 8.0273438 37.644531 C 8.055014 37.53506 8.0762695 37.431072 8.1230469 37.304688 L 18.123047 10.306641 C 18.408761 9.535274 19.121094 9.0247181 19.943359 9.0019531 C 20.850902 8.9769561 21.643131 9.5444222 21.910156 10.412109 L 24.041016 17.339844 A 2.0002 2.0002 0 0 0 27.308594 18.222656 L 35.642578 10.53125 C 36.49557 9.745339 37.324174 9.8443883 38.064453 10.310547 C 38.495178 10.581777 38.818657 10.937098 38.953125 11.402344 C 39.187433 10.403442 38.760994 9.749164 38.064453 9.3105469 C 37.324174 8.8443879 36.49557 8.7453395 35.642578 9.53125 L 27.308594 17.222656 A 2.0002 2.0002 0 0 1 24.041016 16.339844 L 21.910156 9.4121094 C 21.643124 8.5443813 20.850902 7.9769561 19.943359 8.0019531 z M 30.75 24.498047 A 2.0002 2.0002 0 0 1 30.728516 24.585938 L 27.089844 36.412109 A 2.0002 2.0002 0 0 1 27.074219 36.462891 C 26.870777 37.067324 26.883305 37.456574 26.996094 37.777344 C 27.020302 37.674697 27.03458 37.580658 27.074219 37.462891 A 2.0002 2.0002 0 0 0 27.089844 37.412109 L 30.728516 25.585938 A 2.0002 2.0002 0 0 0 30.75 24.498047 z"/>
 <path style="opacity:0.2" d="M 36.970703,3.9721712 A 2.0002,2.0002 0 0 0 35,5.999515 v 3 h -3 a 2.0002,2.0002 0 1 0 0,4 h 3 v 3 a 2.0002,2.0002 0 1 0 4,0 v -3 h 3 a 2.0002,2.0002 0 1 0 0,-4 h -3 v -3 A 2.0002,2.0002 0 0 0 36.970703,3.9721712 Z"/>
 <path style="fill:none;stroke:#ffce51;stroke-width:4;stroke-linecap:round" d="M 37,4.9999996 V 15 M 32,9.9999996 h 10 v 0 0"/>
 <path style="opacity:0.2;fill:#f4f4f7" d="M 36.970703 2.9726562 A 2.0002 2.0002 0 0 0 35 5 L 35 6 A 2.0002 2.0002 0 0 1 36.970703 3.9726562 A 2.0002 2.0002 0 0 1 39 6 L 39 5 A 2.0002 2.0002 0 0 0 36.970703 2.9726562 z M 32 8 A 2.0002 2.0002 0 0 0 30.037109 10.5 A 2.0002 2.0002 0 0 1 32 9 L 35 9 L 35 8 L 32 8 z M 39 8 L 39 9 L 42 9 A 2.0002 2.0002 0 0 1 43.962891 10.5 A 2.0002 2.0002 0 0 0 42 8 L 39 8 z"/>
 <path style="opacity:0.1;fill:#f4f4f7" d="M 19.833984 4.0019531 C 17.391489 4.0695741 15.221744 5.624713 14.373047 7.9160156 L 4.3730469 34.916016 A 2.0002 2.0002 0 0 0 4.3730469 34.917969 C 4.035116 35.831 3.9244983 36.762684 3.9980469 37.642578 C 4.0436575 37.071315 4.1607468 36.491567 4.3730469 35.917969 A 2.0002 2.0002 0 0 0 4.3730469 35.916016 L 14.373047 8.9160156 C 15.221744 6.624713 17.391489 5.0695741 19.833984 5.0019531 C 22.518934 4.9279998 24.944363 6.6692169 25.734375 9.2363281 L 26.931641 13.126953 L 32.931641 7.5898438 C 35.080769 5.6097291 38.119251 5.6184709 40.195312 6.9257812 C 41.701929 7.8745073 42.797671 9.5785358 42.964844 11.507812 C 43.162249 9.1770949 41.958169 7.0358632 40.195312 5.9257812 C 38.119251 4.6184709 35.080769 4.6097291 32.931641 6.5898438 L 26.931641 12.126953 L 25.734375 8.2363281 C 24.944365 5.6691689 22.518934 3.9279998 19.833984 4.0019531 z M 25.242188 29.814453 C 25.136164 29.835356 25.028486 29.842269 24.921875 29.857422 L 23.28125 35.185547 C 22.988144 36.056373 22.894158 36.938315 22.966797 37.771484 C 23.005947 37.247309 23.103057 36.714963 23.28125 36.185547 L 25.242188 29.814453 z"/>
</svg>
