<svg xmlns="http://www.w3.org/2000/svg" width="48" height="48" version="1">
 <circle style="opacity:0.2" cx="24" cy="25" r="20"/>
 <circle style="fill:#b2bfd9" cx="24" cy="24" r="20"/>
 <g style="opacity:0.1" transform="translate(0,1)">
  <path d="m18 27.5 0.000002-7l6-3.5 6 3.5-0.000002 7-6 3.5-6-3.5z"/>
  <path d="m25 10v5.743l6 3.257 5-3z"/>
  <path d="m23 10v5.743l-6 3.257-5-3z"/>
  <path d="m36.974 17.474-4.974 2.871 0.18 6.825 5.098 2.83z"/>
  <path d="m11.304 17.474 4.9738 2.8716-0.17958 6.8245l-5.098 2.83z"/>
  <path d="m25 38v-5.743l6-3.257 5 3z"/>
  <path d="m23 38v-5.743l-6-3.257-5 3z"/>
 </g>
 <g>
  <path fill="#d6ac12" d="m18 27.5 0.000002-7l6-3.5 6 3.5-0.000002 7-6 3.5-6-3.5z"/>
  <path fill="#8fb635" d="m25 10v5.743l6 3.257 5-3z"/>
  <path fill="#3895bd" d="m23 10v5.743l-6 3.257-5-3z"/>
  <path fill="#d18c3b" d="m36.974 17.474-4.974 2.871 0.18 6.825 5.098 2.83z"/>
  <path fill="#3941bf" d="m11.304 17.474 4.9738 2.8716-0.17958 6.8245l-5.098 2.83z"/>
  <path fill="#a02c35" d="m25 38v-5.743l6-3.257 5 3z"/>
  <path fill="#bb3a84" d="m23 38v-5.743l-6-3.257-5 3z"/>
 </g>
 <path style="opacity:0.2;fill:#f4f4f7" d="M 24 4 A 20 20 0 0 0 4 24 A 20 20 0 0 0 4.0214844 24.582031 A 20 20 0 0 1 24 5 A 20 20 0 0 1 43.978516 24.417969 A 20 20 0 0 0 44 24 A 20 20 0 0 0 24 4 z"/>
</svg>
