<svg xmlns="http://www.w3.org/2000/svg" width="48" height="48" version="1">
 <rect fill="#02a8f3" width="40" height="40" x="4" y="4" rx="20" ry="20"/>
 <path style="opacity:0.2" d="m 24,11 c -7.732,0 -14,6.268 -14,14 0,7.732 6.268,14 14,14 7.732,0 14,-6.268 14,-14 0,-7.732 -6.268,-14 -14,-14 z m -1.402344,2.675782 c 0.16322,-0.017 0.370476,0.0098 0.535156,0 0.0196,0.07808 -0.11852,0.355178 -0.304688,0.761718 -1.185386,2.589588 -1.25249,5.625102 -0.15234,7.246094 0.19908,0.293896 0.378906,0.573014 0.378906,0.609374 0,0.03634 -0.214272,0.07422 -0.457032,0.07422 -0.569884,0 -1.109058,-0.34621 -2.210938,-1.21875 -0.489494,-0.38761 -1.124554,-0.71244 -1.371094,-0.76172 -0.387146,-0.07734 -0.491348,-0.04386 -0.992186,0.457032 -0.465986,0.465902 -0.609376,0.71801 -0.609376,1.144532 0,1.617432 1.919072,2.899672 5.488282,3.65625 4.84712,1.02732 6.042082,1.951206 6.17578,4.5 0.16786,3.196116 -1.534702,5.606954 -5.261718,7.472656 -0.444844,0.222758 -0.727422,0.306926 -0.914062,0.378906 -0.0827,-0.0074 -0.1441,0.0074 -0.226562,0 -0.03172,-0.09882 -0.07812,-0.32734 -0.07812,-0.761718 0,-1.697554 -0.66754,-3.444742 -1.67578,-4.421876 -0.270646,-0.262326 -1.030754,-0.81704 -1.679688,-1.21875 -0.64891,-0.401686 -1.30332,-0.867326 -1.44922,-1.066406 -0.24178,-0.330372 -0.259978,-0.534218 -0.07422,-1.144532 0.338544,-1.114664 0.740072,-1.737112 1.523438,-2.441406 0.410688,-0.369236 0.823082,-0.676194 0.914062,-0.683594 0.091,-0.0074 -0.521608,-0.19386 -1.445312,-0.382812 -0.923652,-0.18932 -2.277978,-0.58701 -2.976562,-0.839844 -1.277422,-0.462218 -2.998728,-1.430544 -3.656252,-2.132812 -0.02782,-0.02976 -0.05396,-0.05176 -0.07812,-0.07812 0.942074,-3.752632 3.585094,-6.826424 7.089844,-8.308594 0.733326,-0.31017 1.491058,-0.52428 2.289062,-0.6875 0.39749,-0.08124 0.80833,-0.11062 1.21875,-0.15234 z m 11.4375,5.71875 c 0.286552,0.17712 1.366928,2.518338 1.675782,3.660156 0.398758,1.474094 0.369894,4.02392 0,5.48828 -0.14078,0.557344 -0.318886,1.079632 -0.378906,1.144532 -0.06002,0.0649 -0.279126,-0.307992 -0.535156,-0.761718 -0.256058,-0.453654 -1.07421,-1.419546 -1.753908,-2.13672 -1.961928,-2.07023 -2.271036,-3.148558 -1.449218,-4.80078 0.414446,-0.83316 2.21963,-2.73063 2.441406,-2.59375 z"/>
 <path style="fill:#f4f4f7" d="m 24,10 c -7.732,0 -14,6.268 -14,14 0,7.732 6.268,14 14,14 7.732,0 14,-6.268 14,-14 0,-7.732 -6.268,-14 -14,-14 z m -1.402344,2.675782 c 0.16322,-0.017 0.370476,0.0098 0.535156,0 0.0196,0.07808 -0.11852,0.355178 -0.304688,0.761718 -1.185386,2.589588 -1.25249,5.625102 -0.15234,7.246094 0.19908,0.293896 0.378906,0.573014 0.378906,0.609374 0,0.03634 -0.214272,0.07422 -0.457032,0.07422 -0.569884,0 -1.109058,-0.34621 -2.210938,-1.21875 -0.489494,-0.38761 -1.124554,-0.71244 -1.371094,-0.76172 -0.387146,-0.07734 -0.491348,-0.04386 -0.992186,0.457032 -0.465986,0.465902 -0.609376,0.71801 -0.609376,1.144532 0,1.617432 1.919072,2.899672 5.488282,3.65625 4.84712,1.02732 6.042082,1.951206 6.17578,4.5 0.16786,3.196116 -1.534702,5.606954 -5.261718,7.472656 -0.444844,0.222758 -0.727422,0.306926 -0.914062,0.378906 -0.0827,-0.0074 -0.1441,0.0074 -0.226562,0 -0.03172,-0.09882 -0.07812,-0.32734 -0.07812,-0.761718 0,-1.697554 -0.66754,-3.444742 -1.67578,-4.421876 -0.270646,-0.262326 -1.030754,-0.81704 -1.679688,-1.21875 -0.64891,-0.401686 -1.30332,-0.867326 -1.44922,-1.066406 -0.24178,-0.330372 -0.259978,-0.534218 -0.07422,-1.144532 0.338544,-1.114664 0.740072,-1.737112 1.523438,-2.441406 0.410688,-0.369236 0.823082,-0.676194 0.914062,-0.683594 0.091,-0.0074 -0.521608,-0.19386 -1.445312,-0.382812 -0.923652,-0.18932 -2.277978,-0.58701 -2.976562,-0.839844 -1.277422,-0.462218 -2.998728,-1.430544 -3.656252,-2.132812 -0.02782,-0.02976 -0.05396,-0.05176 -0.07812,-0.07812 0.942074,-3.752632 3.585094,-6.826424 7.089844,-8.308594 0.733326,-0.31017 1.491058,-0.52428 2.289062,-0.6875 0.39749,-0.08124 0.80833,-0.11062 1.21875,-0.15234 z m 11.4375,5.71875 c 0.286552,0.17712 1.366928,2.518338 1.675782,3.660156 0.398758,1.474094 0.369894,4.02392 0,5.48828 -0.14078,0.557344 -0.318886,1.079632 -0.378906,1.144532 -0.06002,0.0649 -0.279126,-0.307992 -0.535156,-0.761718 -0.256058,-0.453654 -1.07421,-1.419546 -1.753908,-2.13672 -1.961928,-2.07023 -2.271036,-3.148558 -1.449218,-4.80078 0.414446,-0.83316 2.21963,-2.73063 2.441406,-2.59375 z"/>
 <path fill="#fff" opacity=".2" d="m24 4c-11.08 0-20 8.92-20 20 0 0.168 0.0076 0.333 0.0117 0.5 0.2647-10.846 9.0763-19.5 19.988-19.5s19.724 8.654 19.988 19.5c0.004-0.167 0.012-0.332 0.012-0.5 0-11.08-8.92-20-20-20z"/>
 <path opacity=".2" d="m4.0117 24.5c-0.0041 0.167-0.0117 0.332-0.0117 0.5 0 11.08 8.92 20 20 20s20-8.92 20-20c0-0.16787-0.0076-0.33314-0.01172-0.5-0.264 10.846-9.076 19.5-19.988 19.5s-19.724-8.654-19.988-19.5z"/>
 <circle opacity=".2" cx="36" cy="37" r="11"/>
 <circle fill="#cc5e55" cx="36" cy="36" r="11"/>
 <rect style="fill:#f4f4f7" width="4" height="10" x="34" y="28"/>
 <circle style="fill:#f4f4f7" cx="36" cy="42" r="2"/>
</svg>
