<svg width="48" height="48" version="1.1" xmlns="http://www.w3.org/2000/svg">
 <circle cx="24" cy="25" r="20" style="opacity:.2"/>
 <circle cx="24" cy="24" r="20" style="fill:#c21d1e"/>
 <path d="M 24,4 A 20,20 0 0 0 4,24 20,20 0 0 0 4.0215,24.582 20,20 0 0 1 24,5 20,20 0 0 1 43.979,24.418 20,20 0 0 0 44,24 20,20 0 0 0 24,4 Z" style="fill:#f4f4f7;opacity:.1"/>
 <path d="M 39.417969,15.75 24,25 39.416016,34.25 A 18,18 0 0 0 42,25 18,18 0 0 0 39.417969,15.75 Z" style="opacity:.2"/>
 <path d="M 39.417969 14.75 L 24 24 L 39.416016 33.25 A 18 18 0 0 0 42 24 A 18 18 0 0 0 39.417969 14.75 z " style="fill:#b2bfd9"/>
 <circle cx="24" cy="25" r="10" style="opacity:.1"/>
 <circle cx="24" cy="24" r="10" style="fill:#951612"/>
 <path d="m21 20c-0.554 0-1 0.446-1 1v8c0 0.554 0.446 1 1 1s1-0.446 1-1v-8c0-0.554-0.446-1-1-1zm6 0c-0.554 0-1 0.446-1 1v8c0 0.554 0.446 1 1 1s1-0.446 1-1v-8c0-0.554-0.446-1-1-1zm-3 2c-0.554 0-1 0.446-1 1v6c0 0.554 0.446 1 1 1s1-0.446 1-1v-6c0-0.554-0.446-1-1-1z" style="opacity:.2"/>
 <rect x="20" y="19" width="2" height="10" ry="1" style="fill:#f4f4f7"/>
 <rect x="23" y="21" width="2" height="8" ry="1" style="fill:#cccccc"/>
 <rect x="26" y="19" width="2" height="10" ry="1" style="fill:#f4f4f7"/>
</svg>
