<svg xmlns="http://www.w3.org/2000/svg" width="48" height="48" version="1.1">
 <defs>
  <clipPath id="clipPath922">
   <circle cx="24" cy="24" r="20"/>
  </clipPath>
  <clipPath id="clipPath934">
   <circle cx="24" cy="24" r="20"/>
  </clipPath>
  <clipPath id="clipPath942">
   <circle cx="24" cy="23" r="20"/>
  </clipPath>
  <clipPath id="clipPath833">
   <path d="m2 31h12v-10l10 10 10-10v10h12v-29h-44z"/>
  </clipPath>
 </defs>
 <circle style="opacity:.2" cx="24" cy="25" r="20"/>
 <circle style="fill:#ff6600" cx="24" cy="24" r="20" clip-path="url(#clipPath833)"/>
 <path style="fill:#4d4d4d" d="m3 31h11v-10l10 10 10-10v10h11v16h-42z" clip-path="url(#clipPath934)"/>
 <path style="opacity:.2" transform="translate(0,1)" d="m3 30h8v-17l13 13 13-13v17h8v5h-13v-10l-8 8-8-8v10h-13z" clip-path="url(#clipPath942)"/>
 <path style="fill:#f2f2f2" d="m3 30h8v-17l13 13 13-13v17h8v5h-13v-10l-8 8-8-8v10h-13z" clip-path="url(#clipPath922)"/>
 <path style="fill:#f4f4f7;opacity:.2" d="M 24,4 A 20,20 0 0 0 4,24 20,20 0 0 0 4.0215,24.582 20,20 0 0 1 24,5 20,20 0 0 1 43.979,24.418 20,20 0 0 0 44,24 20,20 0 0 0 24,4 Z"/>
</svg>
