<svg xmlns="http://www.w3.org/2000/svg" width="48" height="48" version="1.1">
 <path style="opacity:0.2" d="M 25.99966,5.0000006 C 14.953927,5.0000933 5.9997167,13.954607 6,25.000342 6.0000945,36.04581 14.954193,44.999908 25.99966,45 30.879127,44.9909 35.586935,43.19824 39.236667,39.959608 L 24.909328,25.848833 40.126831,10.860874 C 36.380275,7.1126914 31.299237,5.0047464 25.99966,5.0000006 Z"/>
 <path style="fill:#3f3f3f" d="M 25.99966,4.0000006 C 14.953927,4.0000933 5.9997167,12.954607 6,24.000342 6.0000945,35.04581 14.954193,43.999908 25.99966,44 30.879127,43.9909 35.586935,42.19824 39.236667,38.959608 L 24.909328,24.848833 40.126831,9.8608739 C 36.380275,6.1126914 31.299237,4.0047464 25.99966,4.0000006 Z"/>
 <path style="opacity:0.1;fill:#f4f4f7" d="M 26 4 C 14.954267 4.0000927 5.9997167 12.954265 6 24 C 6.0000014 24.167668 6.0076148 24.33332 6.0117188 24.5 C 6.2776106 13.686019 15.121939 5.0000913 26 5 C 31.060523 5.0045317 35.907307 6.9459036 39.597656 10.382812 L 40.126953 9.8613281 C 36.380397 6.1131456 31.299577 4.0047458 26 4 z M 25.417969 25.349609 L 24.910156 25.849609 L 38.679688 39.410156 C 38.864113 39.257978 39.056911 39.118192 39.236328 38.958984 L 25.417969 25.349609 z"/>
 <circle style="opacity:0.2" cx="26" cy="25" r="11"/>
 <circle style="fill:#ececec" cx="26" cy="24" r="11"/>
 <circle style="opacity:0.1" cx="26" cy="25" r="4"/>
 <circle style="fill:#d64043" cx="26" cy="24" r="4"/>
</svg>
