<svg xmlns="http://www.w3.org/2000/svg" width="48" height="48" version="1.1">
 <path style="opacity:0.2" d="M 36.343561,9.0034936 C 34.534014,9.1815917 32.915484,10.113869 31.189264,10.835384 29.92542,11.364676 29.229594,12.649258 29,14 28.303933,13.232947 27.34761,12.382923 26.538873,11.806014 23.811618,9.8605358 20.589602,8.8084803 17.279108,9.0288824 9.8143026,9.0335734 4.1180066,17.857393 3.9998113,23.725019 c 0.051063,6.900036 2.3246039,11.230273 3.8417969,14.828939 0.8610619,2.040481 3.2163138,2.993015 5.2539058,2.124837 L 16.47442,39.239451 C 18.007878,38.584866 19.074295,36.665562 19,35 c 0.565732,0.66235 0.955669,1.754759 1.642389,2.339207 2.50266,2.131901 5.820573,3.659875 9.578125,3.659875 3.466104,0 6.677378,-1.549396 9.271485,-4.060235 2.594106,-2.510839 4.53932,-6.222792 4.507812,-10.567547 C 43.947018,19.297418 41.693285,14.561961 39.925592,11.159579 39.232062,9.8245231 37.848049,8.9914627 36.343561,9.0034936 Z"/>
 <path style="fill:#4a5579" d="M 36.343561,8.0034941 C 34.534014,8.1815922 32.915484,9.1138692 31.189264,9.8353846 29.92542,10.364676 29.229594,11.649258 29,13 28.303933,12.232947 27.34761,11.382923 26.538873,10.806014 23.811618,8.8605363 20.589602,7.8084808 17.279108,8.0288829 9.8143026,8.0335739 4.1180066,16.857393 3.9998113,22.725019 c 0.051063,6.900036 2.3246039,11.230273 3.8417969,14.828939 0.8610619,2.040481 3.2163138,2.993015 5.2539058,2.124837 L 16.47442,38.239451 C 18.007878,37.584866 19.074295,35.665562 19,34 c 0.565732,0.66235 0.955669,1.754759 1.642389,2.339207 2.50266,2.131901 5.820573,3.659875 9.578125,3.659875 3.466104,0 6.677378,-1.549396 9.271485,-4.060235 2.594106,-2.510839 4.53932,-6.222792 4.507812,-10.567547 C 43.947018,18.297418 41.693285,13.561961 39.925592,10.159579 39.232062,8.8245236 37.848049,7.9914632 36.343561,8.0034941 Z"/>
 <path style="opacity:0.2" d="M 17.541804,13.018975 C 13.213573,13.306492 7.9525559,17.271761 8.0003229,23.695226 8.0454359,29.791658 9.9083537,33.160093 11.527129,37 l 3.379522,-1.440305 c -1.92926,-2.905139 -4.804575,-8.791726 -4.638717,-12.679326 0.11013,-2.561755 1.013724,-4.356346 2.583405,-5.802101 3.78289,-3.485622 8.997466,-2.666679 12.061196,1.050591 1.740845,2.191117 2.03939,5.409663 0.443172,7.76021 -2.708129,3.988435 -8.856819,2.049404 -9.280088,-2.571294 -0.200357,-2.195206 1.933241,-3.884873 3.893019,-3.903951 -2.010199,-1.15279 -5.120368,0.974285 -4.951857,3.582369 0.496247,7.686629 8.962968,7.836519 11.574237,3.454281 4.661273,-7.825616 -3.253471,-13.818487 -9.045233,-13.432861 z"/>
 <path style="opacity:0.2" d="m 36.378397,13 -3.646885,1.525682 c 2.196741,4.220376 4.745927,7.454823 4.749963,12.666554 0.0013,1.913544 -0.765429,4.082048 -2.582817,5.694524 -1.651927,1.464655 -3.80562,2.329886 -6.37364,1.973216 -2.6864,-0.372945 -4.533383,-1.602983 -5.686234,-3.003899 -1.810663,-2.388202 -2.110646,-5.43821 -0.648395,-7.671809 0.834035,-1.273437 2.686399,-2.355654 4.521276,-2.196983 3.236593,0.278013 5.0486,2.070859 5.020351,4.781829 -0.02825,2.758433 -1.984196,3.817595 -4.178245,3.629089 2.052801,0.905917 5.153527,-0.27937 5.141421,-3.318529 -0.01614,-4.09561 -2.777874,-6.06747 -5.758876,-6.083743 -3.079203,-0.01762 -4.782249,1.128326 -5.769638,2.681132 -0.98739,1.552806 -1.253743,3.600612 -1.143435,5.274115 0.112999,1.699271 1.345218,3.753857 3.211034,5.341923 C 25.097403,35.881166 27.599508,37 30.219991,37 c 4.219948,0 9.825469,-4.292253 9.779731,-10.599763 -0.04708,-6.308866 -1.885994,-10.054585 -3.62267,-13.397525 z"/>
 <path style="fill:#f9f9f9" d="M 17.541804,12.018975 C 13.213573,12.306492 7.9525559,16.271761 8.0003229,22.695226 8.0454359,28.791658 9.9083537,32.160093 11.527129,36 l 3.379522,-1.440305 c -1.92926,-2.905139 -4.804575,-8.791726 -4.638717,-12.679326 0.11013,-2.561755 1.013724,-4.356346 2.583405,-5.802101 3.78289,-3.485622 8.997466,-2.666679 12.061196,1.050591 1.740845,2.191117 2.03939,5.409663 0.443172,7.76021 -2.708129,3.988435 -8.856819,2.049404 -9.280088,-2.571294 -0.200357,-2.195206 1.933241,-3.884873 3.893019,-3.903951 -2.010199,-1.15279 -5.120368,0.974285 -4.951857,3.582369 0.496247,7.686629 8.962968,7.836519 11.574237,3.454281 4.661273,-7.825616 -3.253471,-13.818487 -9.045233,-13.432861 z"/>
 <path style="fill:#4696e2" d="m 36.378397,12 -3.646885,1.525682 c 2.196741,4.220376 4.745927,7.454823 4.749963,12.666554 0.0013,1.913544 -0.765429,4.082048 -2.582817,5.694524 -1.651927,1.464655 -3.80562,2.329886 -6.37364,1.973216 -2.6864,-0.372945 -4.533383,-1.602983 -5.686234,-3.003899 -1.810663,-2.388202 -2.110646,-5.43821 -0.648395,-7.671809 0.834035,-1.273437 2.686399,-2.355654 4.521276,-2.196983 3.236593,0.278013 5.0486,2.070859 5.020351,4.781829 -0.02825,2.758433 -1.984196,3.817595 -4.178245,3.629089 2.052801,0.905917 5.153527,-0.27937 5.141421,-3.318529 -0.01614,-4.09561 -2.777874,-6.06747 -5.758876,-6.083743 -3.079203,-0.01762 -4.782249,1.128326 -5.769638,2.681132 -0.98739,1.552806 -1.253743,3.600612 -1.143435,5.274115 0.112999,1.699271 1.345218,3.753857 3.211034,5.341923 C 25.097403,34.881166 27.599508,36 30.219991,36 c 4.219948,0 9.825469,-4.292253 9.779731,-10.599763 -0.04708,-6.308866 -1.885994,-10.054585 -3.62267,-13.397525 z"/>
 <path style="fill:#f9f9f9" d="m 26.124571,19.481467 c 0.21717,0.74548 0.309152,1.524248 0.265919,2.294301 l 1.473201,0.435274 c 0.182395,-0.968368 0.175772,-1.891879 0.01579,-2.759502 z"/>
 <path style="opacity:0.1;fill:#f4f4f7" d="M 36.34375 8.0039062 C 34.534203 8.1820044 32.915673 9.1144221 31.189453 9.8359375 C 29.925609 10.365229 29.229594 11.649258 29 13 C 28.303933 12.232947 27.347799 11.38355 26.539062 10.806641 C 23.811808 8.8611629 20.589791 7.8088948 17.279297 8.0292969 C 9.8144915 8.0339879 4.1181953 16.856983 4 22.724609 C 4.0018497 22.974554 4.0119907 23.213743 4.0195312 23.457031 C 4.2976651 17.592572 9.9248592 9.0339185 17.279297 9.0292969 C 20.589791 8.8088948 23.811808 9.8611624 26.539062 11.806641 C 27.347799 12.38355 28.303933 13.232947 29 14 C 29.229594 12.649258 29.925609 11.365229 31.189453 10.835938 C 32.915673 10.114422 34.534203 9.1820043 36.34375 9.0039062 C 37.848238 8.9918754 39.232251 9.8251003 39.925781 11.160156 C 41.638815 14.457332 43.801848 19.012578 43.982422 25.728516 C 43.984597 25.608163 44.00088 25.492447 44 25.371094 C 43.947207 18.297212 41.693474 13.562538 39.925781 10.160156 C 39.232251 8.8251008 37.848238 7.9918753 36.34375 8.0039062 z"/>
</svg>
