<svg xmlns="http://www.w3.org/2000/svg" width="48" height="48" version="1">
 <circle style="opacity:0.2" cx="36.5" cy="33.5" r="9.5"/>
 <circle style="fill:#fcbd1e" cx="36.5" cy="32.5" r="9.5"/>
 <rect style="opacity:0.2" width="38" height="38" x="2" y="5" rx="19" ry="19"/>
 <rect style="fill:#ff7000" width="38" height="38" x="2" y="4" rx="19" ry="19"/>
 <path style="opacity:0.2" d="m 17.294922,9.872703 c -0.06514,1.022625 -0.141075,2.484204 -0.201172,4.119141 -1.985843,0.01 -3.962604,-0.0419 -5.914062,-0.177735 l -0.279297,3.990235 c 2.022286,0.140759 4.061406,0.19683 6.103515,0.189453 -0.0071,1.171934 0.0023,2.380304 0.03711,3.605468 -2.477603,0.996192 -4.877703,2.659583 -6.480469,4.697266 C 9.6785767,27.417827 8.9744445,28.707038 9,30.261375 c 0.025555,1.554337 1.065511,3.107101 2.568359,3.955078 2.409528,1.359566 5.147087,0.891305 7.396485,-0.277344 0.09346,0.214323 0.178291,0.438935 0.28125,0.642578 L 22.816406,32.777 c -0.164488,-0.325343 -0.314605,-0.745633 -0.458984,-1.203125 1.0633,-0.925431 2.060933,-1.956279 2.992187,-3.009766 1.222529,-1.382992 2.092826,-2.66314 3.021485,-3.953125 0.524269,0.204407 1.187589,0.310939 1.533203,0.632813 0.647995,0.603484 1.11403,1.431841 1.199219,3.052734 0.03968,0.755027 -0.228927,1.276751 -0.966797,1.955078 -0.73787,0.678327 -1.936641,1.332875 -3.205078,1.826172 -2.536875,0.986595 -5.208985,1.361328 -5.208985,1.361328 l 0.53125,3.962891 c 0,0 3.034733,-0.392374 6.128906,-1.595703 1.547088,-0.601665 3.143316,-1.39808 4.460938,-2.609375 1.317622,-1.211296 2.363962,-3.017288 2.253906,-5.111328 -0.127399,-2.424054 -1.033854,-4.435018 -2.466797,-5.769532 -0.54927,-0.511541 -1.189617,-0.839096 -1.828125,-1.162109 0.215895,-0.354336 0.738282,-1.164063 0.738282,-1.164063 l -3.460938,-2.003906 c 0,0 -0.633765,1.023748 -1.353516,2.126953 -1.966321,-0.160731 -3.938192,0.01939 -5.699218,0.353516 -0.01484,-0.871682 -0.02778,-1.733289 -0.02148,-2.576172 4.068004,-0.188266 8.115494,-0.621019 12.035157,-1.244141 l -0.628907,-3.951172 c -3.695661,0.587512 -7.500829,0.997589 -11.308593,1.185547 0.05694,-1.47806 0.123724,-2.81407 0.183593,-3.753906 z m 6.40039,14.283203 c -0.485433,0.614695 -0.808523,1.152335 -1.34375,1.757812 -0.297618,0.336684 -0.60754,0.658928 -0.916015,0.980469 -0.09296,-0.757833 -0.163713,-1.548368 -0.226563,-2.355469 0.785324,-0.158309 1.632387,-0.287864 2.486328,-0.382812 z m -6.427734,1.779297 c 0.114628,1.403031 0.280365,2.76593 0.525391,4.050781 -0.167877,0.105872 -0.342039,0.235857 -0.50586,0.326172 -1.610168,0.887696 -2.691696,1.021223 -3.753906,0.421875 C 12.885695,30.368677 13.002636,30.357256 13,30.196922 c -0.0026,-0.160335 0.160436,-0.735302 0.705078,-1.427735 0.75948,-0.965567 2.141146,-2.041391 3.5625,-2.833984 z"/>
 <path style="fill:none;stroke:#b2bfd9;stroke-width:4" d="m 29.810007,17.988406 c 0,0 -10.137648,17.505494 -17.259112,13.487235 -4.3007121,-2.426662 1.221955,-7.663252 5.890228,-9.273235 4.528962,-1.561937 14.234709,-3.100459 14.659884,4.989432 0.299474,5.698137 -11.112361,7.228916 -11.112361,7.228916"/>
 <path style="fill:none;stroke:#b2bfd9;stroke-width:4" d="m 19.29153,9.000406 c -0.30826,4.8392 -0.935207,18.38816 1.740294,23.680054"/>
 <path style="fill:none;stroke:#b2bfd9;stroke-width:4" d="m 11.040168,14.808974 c 7.183967,0.500035 14.637722,-0.01728 21.686746,-1.137886"/>
 <circle style="opacity:0.2" cx="33" cy="41" r="5"/>
 <circle style="fill:#b2bfd9" cx="33" cy="40" r="5"/>
 <path style="opacity:0.2;fill:#f4f4f7" d="M 21,4 C 10.474,4 2,12.474 2,23 2,23.168928 2.021052,23.332155 2.025391,23.5 2.2913905,13.209362 10.642928,5 21,5 31.357072,5 39.708609,13.209362 39.974609,23.5 39.978948,23.332155 40,23.168928 40,23 40,12.474 31.526,4 21,4 Z"/>
</svg>
