<svg xmlns="http://www.w3.org/2000/svg" width="48" height="48" version="1">
 <circle style="opacity:.2" cx="24" cy="25" r="20"/>
 <circle style="fill:#8d348e" cx="24" cy="24" r="20"/>
 <circle style="opacity:.3" cx="25.5" cy="22.5" r="14.5"/>
 <circle style="opacity:.2" cx="24" cy="25" r="10"/>
 <circle style="fill:#f4f4f7" cx="24" cy="24" r="10"/>
 <path style="fill:#691f69" transform="matrix(1.010363 0 0 1 .56408064 -.65825653)" d="m27.154517 24.658257-3.464101 2-3.464102 1.999999v-4-3.999999l3.464102 2z"/>
 <path style="fill:#f4f4f7;opacity:.1" d="M 24 4 A 20 20 0 0 0 4 24 A 20 20 0 0 0 4.0214844 24.582031 A 20 20 0 0 1 24 5 A 20 20 0 0 1 43.978516 24.417969 A 20 20 0 0 0 44 24 A 20 20 0 0 0 24 4 z"/>
</svg>
