<svg xmlns="http://www.w3.org/2000/svg" width="48" height="48" version="1.1">
 <path style="opacity:0.2" d="M 24.000007,9.9999988 A 14,14 0 0 0 12.498054,16.02539 11,11 0 0 0 3.343757,21.755858 l -0.01953,0.0059 c -0.844638,1.557144 -1.324219,3.342241 -1.324219,5.238241 0.0011,2.246338 0.687196,4.339591 1.855469,6.089844 l -0.0039,0.002 c 0.01503,0.02258 0.03364,0.042 0.04883,0.06445 0.199795,0.294667 0.413748,0.578043 0.640625,0.851562 0.03608,0.04357 0.07072,0.08791 0.107422,0.13086 0.22936,0.26803 0.470601,0.524586 0.724609,0.769531 0.02985,0.02879 0.05774,0.05946 0.08789,0.08789 0.574057,0.541247 1.206677,1.0205 1.888672,1.429687 0.03079,0.01847 0.06278,0.03456 0.09375,0.05273 0.29863,0.17522 0.605648,0.337255 0.921875,0.484375 0.06769,0.03153 0.136726,0.05968 0.205078,0.08984 0.283006,0.124683 0.571865,0.238775 0.867188,0.339844 0.0846,0.02906 0.168517,0.05892 0.253906,0.08594 0.295148,0.09299 0.596567,0.16989 0.902344,0.238281 0.08121,0.01829 0.160433,0.04212 0.242188,0.05859 0.381597,0.07628 0.768487,0.137717 1.164062,0.173828 v 0.05075 h 1 11 13 c 0.382539,0 0.75697,-0.0318 1.126953,-0.07813 0.08806,-0.01118 0.174293,-0.02728 0.261719,-0.04102 0.31106,-0.0483 0.616352,-0.110152 0.916016,-0.189453 0.05934,-0.01579 0.118809,-0.0299 0.177734,-0.04687 0.732834,-0.210156 1.425008,-0.510236 2.068359,-0.888672 0.0573,-0.03368 0.113377,-0.06858 0.169922,-0.103515 0.302,-0.186753 0.594226,-0.387341 0.871094,-0.607422 0.0088,-0.007 0.01861,-0.01253 0.02734,-0.01953 0.0029,-0.0023 0.0049,-0.0055 0.0078,-0.0078 0.299089,-0.240153 0.581689,-0.499584 0.847659,-0.77539 0.0332,-0.03452 0.063,-0.07234 0.0957,-0.107422 0.23645,-0.253127 0.45779,-0.519695 0.66406,-0.798828 0.0271,-0.0368 0.0554,-0.07211 0.082,-0.109376 1.05547,-1.474521 1.68362,-3.274953 1.68362,-5.226572 0,-4.831384 -3.810091,-8.761534 -8.587894,-8.978516 A 14,14 0 0 0 24.000007,9.9999988 Z"/>
 <circle style="fill:#056ab6" cx="24" cy="23" r="14"/>
 <path style="opacity:0.1;fill:#f4f4f7" d="M 24 9 A 14 14 0 0 0 10 23 A 14 14 0 0 0 10.021484 23.585938 A 14 14 0 0 1 24 10 A 14 14 0 0 1 37.978516 23.414062 A 14 14 0 0 0 38 23 A 14 14 0 0 0 24 9 z"/>
 <path style="fill:#138fe6" d="m 37,19 c -1.273417,0.06309 -2.379569,0.299231 -3.419918,0.679698 l -0.002,0.002 c -3.333573,1.390163 -6.797419,2.837274 -9.806598,4.093691 L 3.8515625,32.091795 C 5.6940982,34.859122 8.6893707,36.644655 12,36.949219 V 37 h 1 24 c 4.970563,0 9,-4.029437 9,-9 0,-4.970563 -4.029437,-9 -9,-9 z"/>
 <path style="fill:#1581d9" d="m 13,15 a 11,11 0 0 0 -9.65625,5.755859 l -0.019531,0.0059 C 2.4795814,22.318903 2,24.104 2,26 2.0027,31.685647 6.337895,36.432343 12,36.949219 V 37 h 1 24 c 3.326614,-0.0024 6.380613,-1.839609 7.941406,-4.777344 l -15.433594,-9.199218 -11.085937,-6.607422 -0.03516,0.0098 A 11,11 0 0 0 13,15 Z"/>
 <path style="fill:#38afec" d="m 27.886719,22.056641 c -1.379777,0.576145 -2.852377,1.191471 -4.115235,1.71875 L 3.8554688,32.089844 c 0.014822,0.02221 0.029942,0.04431 0.044922,0.06641 0.200158,0.295864 0.4150054,0.579121 0.640625,0.851562 0.036114,0.04354 0.070648,0.08789 0.1074219,0.13086 0.2300718,0.269252 0.4713789,0.525267 0.7246094,0.769531 0.029814,0.02875 0.05775,0.05947 0.087891,0.08789 0.5776299,0.544696 1.2116601,1.023529 1.8886719,1.429687 0.030696,0.01842 0.062856,0.03461 0.09375,0.05273 0.2992347,0.17556 0.6070188,0.337694 0.921875,0.484375 0.067585,0.03144 0.1367337,0.05973 0.2050781,0.08984 0.2836288,0.125168 0.5730212,0.238787 0.8671875,0.339844 0.084461,0.02891 0.1684964,0.05903 0.2539062,0.08594 0.2959679,0.09366 0.5977662,0.169685 0.9023442,0.238281 0.08128,0.01818 0.160201,0.04221 0.242188,0.05859 0.383026,0.07716 0.770728,0.137643 1.164062,0.173828 V 37 h 1 24 c 0.38023,-2.74e-4 0.755669,-0.03101 1.126953,-0.07813 0.08796,-0.01101 0.174568,-0.02748 0.261719,-0.04102 0.309869,-0.04868 0.615449,-0.109468 0.916016,-0.189453 0.05929,-0.01569 0.118934,-0.03001 0.177734,-0.04687 0.726678,-0.209406 1.421397,-0.508474 2.068359,-0.888672 0.0572,-0.03365 0.113537,-0.06865 0.169922,-0.103515 0.301322,-0.186165 0.593271,-0.386661 0.871094,-0.607422 0.0088,-0.007 0.01861,-0.01253 0.02734,-0.01953 0.0029,-0.0023 0.0049,-0.0055 0.0078,-0.0078 0.297933,-0.239164 0.581068,-0.49861 0.847656,-0.77539 0.03327,-0.03451 0.06298,-0.07239 0.0957,-0.107422 0.235144,-0.252087 0.457623,-0.518656 0.664063,-0.798828 0.02709,-0.03666 0.05548,-0.07229 0.08203,-0.109376 0.227475,-0.318798 0.438208,-0.652323 0.625,-1.003906 L 29.507812,23.023438 Z"/>
 <path style="opacity:0.2;fill:#f4f4f7" d="M 37 19 C 35.726583 19.06309 34.620427 19.299221 33.580078 19.679688 L 33.578125 19.681641 C 30.244552 21.071804 26.780663 22.518974 23.771484 23.775391 L 3.8515625 32.091797 C 4.0287126 32.357861 4.2261109 32.606046 4.4238281 32.853516 L 23.771484 24.775391 C 26.780663 23.518974 30.244552 22.071804 33.578125 20.681641 L 33.580078 20.679688 C 34.620427 20.299221 35.726583 20.06309 37 20 C 41.801713 20 45.713592 23.763498 45.974609 28.5 C 45.983788 28.333443 46 28.16885 46 28 C 46 23.029437 41.970563 19 37 19 z"/>
 <path style="opacity:0.1;fill:#f4f4f7" d="M 13 15 A 11 11 0 0 0 3.34375 20.755859 L 3.3242188 20.761719 C 2.4795812 22.318863 2 24.104 2 26 C 2.0000906 26.190839 2.0176047 26.377807 2.0273438 26.566406 C 2.0952953 24.833884 2.5450532 23.198161 3.3242188 21.761719 L 3.34375 21.755859 A 11 11 0 0 1 13 16 A 11 11 0 0 1 18.386719 17.425781 L 18.421875 17.416016 L 29.507812 24.023438 L 44.488281 32.953125 C 44.645857 32.714703 44.805628 32.478219 44.941406 32.222656 L 29.507812 23.023438 L 18.421875 16.416016 L 18.386719 16.425781 A 11 11 0 0 0 13 15 z"/>
</svg>
