<svg xmlns="http://www.w3.org/2000/svg" width="48" height="48" version="1.1">
 <path style="fill:#0364b8" d="M 41.033756,3.9999994 H 16.965599 C 15.87999,3.9999999 14.999946,4.8980495 15,6.0058136 v 2.2799 L 16,28 H 29 L 42,27 42.999453,8.2857136 v -2.28 C 42.999414,4.8979659 42.119349,3.9999842 41.033756,3.9999994 Z"/>
 <path style="opacity:0.2" d="m 46,24.999998 a 0.94349909,0.95142855 0 0 1 -0.472656,0.824219 l -0.01758,0.01172 -0.0059,0.002 -15.353515,8.820312 a 2.1203513,2.1381714 0 0 1 -2.06836,0.130859 l 0.01172,0.01367 -15.597656,-8.958984 v -0.01563 h -0.01367 l -0.04297,-0.02734 A 0.92179578,0.92954284 0 0 1 12,25.027342 V 42.85742 a 2.1221647,2.14 0 0 0 2.125,2.142578 h 29.75 a 2.1287379,2.1466285 0 0 0 0.523438,-0.07227 0.90231663,0.90989998 0 0 0 0.255859,-0.08398 0.20084064,0.20252857 0 0 0 0.08398,-0.0293 1.4839852,1.4964571 0 0 0 0.326172,-0.185547 c 0.02833,-0.01429 0.04248,-0.0144 0.05664,-0.04297 v 0.0059 A 2.1215413,2.1393714 0 0 0 46,42.85742 Z"/>
 <path style="fill:#0a2767" d="m 45.504021,26.007828 a 16.067081,16.202114 0 0 0 0.495974,-2.007215 0.94338576,0.95131427 0 0 0 -0.472188,-0.823985 v -6.86e-4 l -0.01816,-0.01043 -0.0057,-0.0033 -15.35345,-8.820086 a 2.1232555,2.1411 0 0 0 -0.20587,-0.118229 v -8.5e-5 a 2.125423,2.1432857 0 0 0 -1.888854,0 l -8.4e-5,8.5e-5 a 2.1120779,2.1298285 0 0 0 -0.2058,0.118229 l -15.353492,8.8202 -0.0057,0.0033 -0.01806,0.01043 v 6.86e-4 a 0.94349909,0.95142855 0 0 0 -0.472189,0.823986 16.07,16.205057 0 0 0 0.495961,2.007142 l 16.279907,12.007143 z"/>
 <rect style="fill:#0078d4" width="10" height="9" x="15" y="8"/>
 <rect style="fill:#28a8ea" width="9" height="9" x="25" y="8"/>
 <rect style="fill:#50d9ff" width="9" height="9" x="34" y="8"/>
 <rect style="fill:#0364b8" width="10" height="9" x="15" y="17"/>
 <rect style="fill:#0078d4" width="9" height="9" x="25" y="17"/>
 <rect style="fill:#28a8ea" width="9" height="9" x="34" y="17"/>
 <rect style="fill:#064a8c" width="10" height="9" x="15" y="26"/>
 <rect style="fill:#0364b8" width="9" height="9" x="25" y="26"/>
 <rect style="fill:#0078d4" width="9" height="9" x="34" y="26"/>
 <rect style="opacity:0.1" width="28" height="1" x="15" y="26"/>
 <path style="fill:#1490df" d="m 45.527807,24.82397 v 7e-4 l -0.01877,0.01086 -0.0049,0.0027 -15.353818,8.820285 a 2.1203513,2.1381714 0 0 1 -2.068969,0.130258 l 5.347458,7.229842 11.693227,2.567143 -4.26e-4,0.0064 a 2.1215413,2.1393714 0 0 0 0.878305,-1.735057 V 24.000085 a 0.94349909,0.95142855 0 0 1 -0.472189,0.823885 z"/>
 <path style="fill:#28a8ea" d="m 12.495861,24.842856 v -0.01429 h -0.01416 l -0.0425,-0.02857 a 0.92179578,0.92954284 0 0 1 -0.439167,-0.8 v 17.857143 a 2.1221647,2.14 0 0 0 2.124999,2.142857 h 29.74997 a 2.1287379,2.1466285 0 0 0 0.524166,-0.07143 0.90231663,0.90989998 0 0 0 0.255,-0.08571 0.20084064,0.20252857 0 0 0 0.085,-0.02857 1.4839852,1.4964571 0 0 0 0.325833,-0.185714 c 0.02833,-0.01429 0.0425,-0.01429 0.05666,-0.04286 z"/>
 <path style="opacity:0.1" d="M 3.833346,13.999794 H 22.166667 A 1.8333321,1.8333321 0 0 1 24,15.833127 V 34.16664 A 1.8333459,1.8333459 0 0 1 22.166653,36 H 3.833332 A 1.8333321,1.8333321 0 0 1 2,34.166654 V 15.83314 a 1.8333459,1.8333459 0 0 1 1.833346,-1.833346 z"/>
 <rect style="opacity:0.1" width="28" height="1" x="15" y="17"/>
 <path style="fill:#0087f0" d="M 3.833346,12.999897 H 22.166667 A 1.8333321,1.8333321 0 0 1 24,14.83323 v 18.333513 a 1.8333459,1.8333459 0 0 1 -1.833347,1.83336 H 3.833332 A 1.8333321,1.8333321 0 0 1 2,33.166757 V 14.833243 a 1.8333459,1.8333459 0 0 1 1.833346,-1.833346 z"/>
 <path style="fill:#f4f4f7" d="m 6.831698,20.4569 a 6.2397276,5.8520057 0 0 1 2.450157,-2.538599 7.4093239,6.9489261 0 0 1 3.894103,-0.91543 6.8895879,6.4614853 0 0 1 3.602293,0.86821 6.1765157,5.7927217 0 0 1 2.384751,2.425378 8.3520384,7.8330626 0 0 1 0.835169,3.567237 8.8063095,8.2591063 0 0 1 -0.860329,3.732382 6.3256514,5.9325904 0 0 1 -2.455214,2.510231 7.1615655,6.7165628 0 0 1 -3.738089,0.89182 A 7.0563171,6.6178543 0 0 1 9.261755,30.120473 6.273751,5.883915 0 0 1 6.846799,27.690407 8.1460482,7.6398721 0 0 1 6.001559,24.165644 9.0359071,8.4744373 0 0 1 6.831698,20.4569 Z m 2.611155,5.959546 a 4.0533562,3.8014903 0 0 0 1.378526,1.670362 3.5984435,3.3748448 0 0 0 2.153319,0.608696 3.7798714,3.5449992 0 0 0 2.299245,-0.627604 3.8840902,3.6427421 0 0 0 1.33828,-1.675092 6.9026899,6.4737731 0 0 0 0.427651,-2.330967 7.5548333,7.0853939 0 0 0 -0.402492,-2.359293 3.9823699,3.7349149 0 0 0 -1.293005,-1.736433 3.5624504,3.3410882 0 0 0 -2.279099,-0.660576 3.7201813,3.4890181 0 0 0 -2.203637,0.613412 4.0902596,3.8361006 0 0 0 -1.408686,1.684525 7.1267215,6.6838839 0 0 0 -0.01013,4.81297 z"/>
 <path style="fill:#f4f4f7;opacity:0.1" d="M 16.964844 4 A 1.9655999 2.0057142 0 0 0 15 6.0058594 L 15 7.0058594 A 1.9655999 2.0057142 0 0 1 16.964844 5 L 41.033203 5 A 1.96567 2.0057857 0 0 1 43 7.0058594 L 43 6.0058594 A 1.96567 2.0057857 0 0 0 41.033203 4 L 16.964844 4 z"/>
</svg>
