<svg width="48" height="48" version="1.1" xmlns="http://www.w3.org/2000/svg">
 <g transform="matrix(2,0,0,2,2,2)">
  <rect x="1" y="1.5" width="20" height="20" rx="1" ry="1" style="opacity:.2"/>
  <rect x="1" y="1" width="20" height="20" rx="1" ry="1" style="fill:#b2bfd9"/>
  <path d="m2 1c-0.554 0-1 0.446-1 1v0.5c0-0.554 0.446-1 1-1h18c0.554 0 1 0.446 1 1v-0.5c0-0.554-0.446-1-1-1z" style="fill:#f4f4f7;opacity:.2"/>
  <path d="m14.470703 1.5429688c-0.043915 0.0166862-0.107418 0.0705857-0.210937 0.1679687-0.138275 0.1300775-0.48047 0.3864575-0.759766 0.5703125l-0.507812 0.3339844 0.292968-0.3066406c0.161133-0.1689991 0.292969-0.3702307 0.292969-0.4472657 0-0.1086555-0.08183-0.067585-0.367187 0.1835938-0.202314 0.1780829-0.725346 0.540642-1.16211 0.8066406-0.694755 0.4231201-0.803341 0.5185883-0.863281 0.7578125-0.03768 0.1503906-0.103514 0.2685219-0.146485 0.2636719-0.04297-0.00485-0.155609-0.1679754-0.25-0.3632813-0.15021-0.3108069-0.225935-0.3758288-0.615234-0.5214844-0.2446289-0.0915275-0.5957991-0.1857864-0.7792968-0.2109374-0.3169062-0.0434367-0.3397802-0.0327318-0.4667968 0.2128906-0.2216022 0.4285311-0.10125 1.1305545 0.3359375 1.9628906 0.0354694 0.0675283-1.2129148 0.4575242-2.3652344 0.7382812-1.3446046 0.3276065-1.6501641 0.2996281-3.046875-0.2695312-1.3307526-0.5422812-1.9385899-0.71875-2.4765625-0.71875h-0.375l0.00781 7.714844c0.00693 7.547622 0.00991 7.70122 0.1445313 7.11914 0.1201041-0.519322 0.3467348-0.996406 0.4765624-1.003906 0.023186-0.0013 0.080616 0.536819 0.1289063 1.195313 0.040793 0.556262 0.1012224 0.987701 0.1601563 1.255859 0.0283924 0.002401 0.053002 0.015625 0.0820337 0.015625h1.5v-2e-3c0-0.276138 0.066295-0.847426 0.1484375-1.269531 0.082143-0.422104 0.1750011-1.106698 0.2050781-1.521485l0.054687-0.753906 0.3398438-0.05078c1.0539502-0.15805 2.4241305-1.377895 3.28125-2.921875 0.9768734-1.7597 2.5073796-3.620899 3.3007816-4.011719 0.341188-0.168065 0.474491-0.181802 1.990233-0.201172 1.605093-0.02051 1.628577-0.02276 1.933594-0.224609 0.291903-0.1931719 0.328371-0.199456 0.664063-0.105469 0.314676 0.088105 0.757656 0.08283 1.558593-0.019531 0.08594-0.010984 0.182051-0.081055 0.212891-0.15625 0.04-0.097524 0.144131-0.1367188 0.363281-0.1367188 0.302695 0 0.308245-0.00547 0.390625-0.3710938 0.04599-0.2041016 0.09347-0.5638225 0.105469-0.7988281 0.021202-0.4147947 0.014782-0.4305454-0.236327-0.5507354-0.467503-0.223765-2.723108-2.0973438-3.308594-2.7480469-0.31545-0.3505886-0.83789-0.8469358-1.160156-1.1035156s-0.585938-0.4919735-0.585938-0.5234375c0-0.031463 0.28125-0.2679382 0.625-0.5253907 0.34375-0.2574523 0.704552-0.5439687 0.800782-0.6367187 0.242171-0.2334365 0.4316-0.6220211 0.375-0.7695313-0.01944-0.050663-0.04398-0.071374-0.08789-0.054687z" style="opacity:.1"/>
  <path d="m1.9658136 20.712886c-0.0706699-0.169136-0.1560409-0.779073-0.2077632-1.484375-0.0482898-0.658494-0.1067701-1.196156-0.1299563-1.194806-0.1298276 0.0075-0.356214 0.484809-0.4763181 1.004131-0.134618 0.58208-0.1377542 0.427755-0.1446883-7.119867l-0.0070877-7.714844h0.374211c0.5379726 0 1.1465989 0.1766159 2.4773515 0.7188971 1.3967109 0.5691593 1.7022704 0.5960839 3.046875 0.2684774 1.1523196-0.2807571 2.3999757-0.6698336 2.3645063-0.7373619-0.4371875-0.8323361-0.5573883-1.5353392-0.3357861-1.9638703 0.1270166-0.2456224 0.1504462-0.2562935 0.4673524-0.2128568 0.1834976 0.025151 0.5337829 0.1206155 0.7784119 0.212143 0.389299 0.1456555 0.466187 0.2107078 0.616398 0.5215147 0.09439 0.1953059 0.206774 0.3590711 0.249743 0.3639229 0.04297 0.00485 0.108954-0.1142255 0.146635-0.2646161 0.05994-0.2392242 0.167872-0.3339511 0.862627-0.7570712 0.436764-0.2659986 0.959645-0.629338 1.161959-0.8074209 0.285354-0.2511793 0.367841-0.2923782 0.367841-0.1837227 0 0.077035-0.131836 0.2783363-0.292969 0.4473353l-0.292968 0.3072711 0.507812-0.3342819c0.279296-0.183855 0.620945-0.4407088 0.75922-0.5707863 0.207038-0.1947659 0.259739-0.21479034 0.298621-0.1134652 0.0566 0.1475102-0.13291 0.5365594-0.375081 0.7699959-0.09623 0.09275-0.456197 0.379279-0.799947 0.6367314-0.34375 0.2574525-0.625 0.4938381-0.625 0.5253014 0 0.031464 0.263671 0.2671349 0.585937 0.5237147s0.844034 0.7533539 1.159484 1.1039425c0.585486 0.6507031 2.840935 2.5237679 3.308438 2.7475329 0.251109 0.12019 0.258004 0.1362372 0.236803 0.5510777-0.012 0.2350056-0.05946 0.5942749-0.10545 0.7983766-0.082376 0.3656233-0.088139 0.3710937-0.390835 0.3710937-0.21915 0-0.323301 0.039195-0.363301 0.1367188-0.03084 0.075195-0.126389 0.1457046-0.212327 0.1566882-0.800937 0.1023618-1.244829 0.1080353-1.559505 0.019931-0.335692-0.093987-0.371868-0.08827-0.663771 0.1049016-0.305017 0.2018507-0.328259 0.2045562-1.933351 0.2250649-1.515744 0.019366-1.64913 0.03283-1.990318 0.2008952-0.793401 0.3908203-2.3243796 2.2506443-3.301253 4.0103443-0.8571195 1.54398-2.2271699 2.76417-3.2811201 2.92222l-0.3391718 0.05086-0.054685 0.754156c-0.030077 0.414787-0.1218932 1.099515-0.2040362 1.521619-0.082143 0.422105-0.1493509 0.993393-0.1493509 1.269531v0.50207h-1.4142229z" style="fill:#3f3f3f"/>
 </g>
</svg>
