<svg xmlns="http://www.w3.org/2000/svg" width="48" height="48" version="1.1">
 <path style="opacity:0.2" d="m 22,5 a 6.0006,6.0006 0 0 0 -5.914062,5 H 12 a 6.0006,6.0006 0 0 0 -6,6 v 4 A 6.0006,6.0006 0 0 0 11.099609,25.925781 6.0006,6.0006 0 0 0 11,27 v 13 a 6.0006,6.0006 0 0 0 6,6 h 5 A 6.0006,6.0006 0 0 0 24,45.648438 6.0006,6.0006 0 0 0 26,46 h 5 a 6.0006,6.0006 0 0 0 6,-6 V 27 A 6.0006,6.0006 0 0 0 36.898438,25.925781 6.0006,6.0006 0 0 0 42,20 V 16 A 6.0006,6.0006 0 0 0 36,10 H 31.910156 A 6.0006,6.0006 0 0 0 26,5 Z"/>
 <path style="fill:#556765" d="M 22,4 A 6.0006,6.0006 0 0 0 16.085938,9 H 12 a 6.0006,6.0006 0 0 0 -6,6 v 4 A 6.0006,6.0006 0 0 0 11.099609,24.925781 6.0006,6.0006 0 0 0 11,26 v 13 a 6.0006,6.0006 0 0 0 6,6 h 5 A 6.0006,6.0006 0 0 0 24,44.648438 6.0006,6.0006 0 0 0 26,45 h 5 a 6.0006,6.0006 0 0 0 6,-6 V 26 A 6.0006,6.0006 0 0 0 36.898438,24.925781 6.0006,6.0006 0 0 0 42,19 V 15 A 6.0006,6.0006 0 0 0 36,9 H 31.910156 A 6.0006,6.0006 0 0 0 26,4 Z"/>
 <path style="opacity:0.2" d="m 22,11 v 5 H 12 v 4 h 10 v 7 h -5 v 13 h 5 v -9 h 4 v 9 h 5 V 27 H 26 V 20 H 36 V 16 H 26 v -5 z"/>
 <path style="fill:#eb3a49" d="m 22,10 v 5 H 12 v 4 h 10 v 7 h -5 v 13 h 5 v -9 h 4 v 9 h 5 V 26 H 26 V 19 H 36 V 15 H 26 v -5 z"/>
 <path style="opacity:0.1;fill:#f4f4f7" d="M 22,4 A 6.0006,6.0006 0 0 0 16.085938,9 H 12 a 6.0006,6.0006 0 0 0 -6,6 v 1 a 6.0006,6.0006 0 0 1 6,-6 h 4.085938 A 6.0006,6.0006 0 0 1 22,5 h 4 a 6.0006,6.0006 0 0 1 5.910156,5 H 36 a 6.0006,6.0006 0 0 1 6,6 V 15 A 6.0006,6.0006 0 0 0 36,9 H 31.910156 A 6.0006,6.0006 0 0 0 26,4 Z m 14.994141,21.90625 a 6.0006,6.0006 0 0 1 -0.0957,0.01953 A 6.0006,6.0006 0 0 1 37,27 v -1 a 6.0006,6.0006 0 0 0 -0.0059,-0.09375 z m -25.990235,0.0039 A 6.0006,6.0006 0 0 0 11,26 v 1 a 6.0006,6.0006 0 0 1 0.09961,-1.074219 6.0006,6.0006 0 0 1 -0.0957,-0.01563 z"/>
 <path style="fill:#f4f4f7;opacity:0.2" d="M 22 10 L 22 11 L 26 11 L 26 10 L 22 10 z M 12 15 L 12 16 L 22 16 L 22 15 L 12 15 z M 26 15 L 26 16 L 36 16 L 36 15 L 26 15 z M 17 26 L 17 27 L 22 27 L 22 26 L 17 26 z M 26 26 L 26 27 L 31 27 L 31 26 L 26 26 z"/>
</svg>
