<svg xmlns="http://www.w3.org/2000/svg" width="48" height="48" version="1.1">
 <path style="opacity:0.2" d="M 24,45 C 35.045703,45 44,36.045703 44,25 44,13.954297 35.045703,5 24,5 12.954297,5 4,13.954297 4,25 4,36.045703 12.954297,45 24,45 Z"/>
 <circle style="fill:#ff395d" cx="24" cy="24" r="20"/>
 <path style="fill:#f4f4f7;fill-opacity:0.7" d="m 31.433385,14.512636 -7.369935,5.389067 c -0.02115,0.01547 -0.06347,0.04641 -0.06347,0.04641 l -7.502952,-5.388228 c -0.413574,-0.304102 -0.894946,-0.440725 -1.365597,-0.44077 -1.093455,-1.34e-4 -2.129881,0.737011 -2.129881,1.82371 v 4.086258 L 13,32.176245 C 13,33.262854 14.036521,34 15.129882,34 c 0.470745,0 0.951975,-0.136623 1.365596,-0.440815 L 24,28.123755 c 3.734077,2.745826 7.431835,5.43543 7.431835,5.43543 C 31.845409,33.863286 32.32683,34 32.797432,34 33.890935,34 35,33.262944 35,32.176246 V 20.029082 15.860289 c 0,-1.086609 -1.107642,-1.788423 -2.201002,-1.788423 -0.470745,0 -0.951975,0.136623 -1.365597,0.44077 z"/>
 <polygon style="fill:#f4f4f7;fill-opacity:0.6" transform="matrix(1.032874,0,0,1.00707,12.999984,13.984925)" points="10.65 5.92 5.32 9.99 10.65 14.04 15.95 9.99"/>
 <polyline style="fill:#f4f4f7;fill-opacity:0.6" transform="matrix(1.032874,0,0,1.00707,12.999984,13.984925)" points="0 5.99 0 13.99 5.32 9.99 0 5.99"/>
 <polyline style="fill:#f4f4f7;fill-opacity:0.6" transform="matrix(1.032874,0,0,1.00707,12.999984,13.984925)" points="15.95 9.99 21.3 14.04 21.3 5.92 15.95 9.99"/>
 <path style="fill:#f4f4f7" d="m 31.333317,14.582844 -7.333334,5.365268 5.471095,4.094633 5.528905,-4.094633 v -4.087823 c 0,-1.553337 -2.095237,-2.55489 -3.666666,-1.277445 z"/>
 <path style="fill:#f4f4f7" d="m 16.504547,14.527909 c -1.376294,-1.00995 -3.500351,-0.171322 -3.500351,1.382015 v 4.10465 l 5.4895,4.029318 5.506289,-4.09578 z"/>
 <path style="fill:#f4f4f7;opacity:0.2" d="M 24 4 C 12.954297 4 4 12.954297 4 24 C 4 24.167672 4.0076161 24.333316 4.0117188 24.5 C 4.2778837 13.686056 13.121969 5 24 5 C 34.878031 5 43.722116 13.686056 43.988281 24.5 C 43.992384 24.333316 44 24.167672 44 24 C 44 12.954297 35.045703 4 24 4 z"/>
 <path style="opacity:0.2" d="M 24 28.123047 L 16.496094 33.558594 C 16.082473 33.862786 15.599651 34 15.128906 34 C 14.036219 34 13.001275 33.263244 13 32.177734 L 13 33.175781 C 13 34.26239 14.035545 35 15.128906 35 C 15.599651 35 16.082473 34.862786 16.496094 34.558594 L 24 29.123047 C 27.734077 31.868873 31.431641 34.558594 31.431641 34.558594 C 31.845215 34.862695 32.326273 35 32.796875 35 C 33.890378 35 35 34.262479 35 33.175781 L 35 32.175781 C 35 33.262479 33.890378 34 32.796875 34 C 32.326273 34 31.845215 33.862695 31.431641 33.558594 C 31.431641 33.558594 27.734077 30.868873 24 28.123047 z"/>
</svg>
