<svg width="48" height="48" version="1.1" xmlns="http://www.w3.org/2000/svg">
 <rect x="4" y="5" width="40" height="40" rx="4" ry="4" style="opacity:.2"/>
 <rect x="4" y="4" width="40" height="40" rx="4" ry="4" style="fill:#292d96"/>
 <path d="M 8,4 C 5.784,4 4,5.784 4,8 v 32 c 0,1.108 0.4469219,2.107078 1.1699219,2.830078 L 42.830078,5.1699219 C 42.107078,4.4469219 41.108,4 40,4 Z" style="fill:#0072c0"/>
 <path d="m7 41c0 0.554 0.446 1 1 1h4c0.554 0 1-0.446 1-1v-4c0-0.554-0.446-1-1-1h-4c-0.554 0-1 0.446-1 1zm0-7c0 0.554 0.446 1 1 1h4c0.554 0 1-0.446 1-1v-4c0-0.554-0.446-1-1-1h-4c-0.554 0-1 0.446-1 1zm0-7c0 0.554 0.446 1 1 1h4c0.554 0 1-0.446 1-1v-4c0-0.554-0.446-1-1-1h-4c-0.554 0-1 0.446-1 1zm0-7c0 0.554 0.446 1 1 1h4c0.554 0 1-0.446 1-1v-4c0-0.554-0.446-1-1-1h-4c-0.554 0-1 0.446-1 1zm0-7c0 0.554 0.446 1 1 1h4c0.554 0 1-0.446 1-1v-4c0-0.554-0.446-1-1-1h-4c-0.554 0-1 0.446-1 1z" style="opacity:.2"/>
 <path d="m7 40c0 0.554 0.446 1 1 1h4c0.554 0 1-0.446 1-1v-4c0-0.554-0.446-1-1-1h-4c-0.554 0-1 0.446-1 1zm0-7c0 0.554 0.446 1 1 1h4c0.554 0 1-0.446 1-1v-4c0-0.554-0.446-1-1-1h-4c-0.554 0-1 0.446-1 1zm0-7c0 0.554 0.446 1 1 1h4c0.554 0 1-0.446 1-1v-4c0-0.554-0.446-1-1-1h-4c-0.554 0-1 0.446-1 1zm0-7c0 0.554 0.446 1 1 1h4c0.554 0 1-0.446 1-1v-4c0-0.554-0.446-1-1-1h-4c-0.554 0-1 0.446-1 1zm0-7c0 0.554 0.446 1 1 1h4c0.554 0 1-0.446 1-1v-4c0-0.554-0.446-1-1-1h-4c-0.554 0-1 0.446-1 1z" style="fill:#f4f4f7"/>
 <path d="m8 4c-2.216 0-4 1.784-4 4v1c0-2.216 1.784-4 4-4h32c2.216 0 4 1.784 4 4v-1c0-2.216-1.784-4-4-4z" style="fill:#f4f4f7;opacity:.2"/>
 <path d="m33 11v1h8v-1zm0 2v1h5v-1zm0 2v1h8v-1zm0 2v1h7v-1zm0 2v1h8v-1zm0 2v1h3v-1zm0 2v1h8v-1zm0 2v1h7v-1zm0 2v1h8v-1zm0 2v1h6v-1z" style="opacity:.2"/>
 <path d="m33 10v1h8v-1h-8zm0 2v1h5v-1h-5zm0 2v1h8v-1h-8zm0 2v1h7v-1h-7zm0 2v1h8v-1h-8zm0 2v1h3v-1h-3zm0 2v1h8v-1h-8zm0 2v1h7v-1h-7zm0 2v1h8v-1h-8zm0 2v1h6v-1h-6z" style="fill:#ffbb1f"/>
</svg>
