<svg xmlns="http://www.w3.org/2000/svg" width="48" height="48" version="1">
 <path style="opacity:.2" d="m23.24 5.0216045c-0.41409 0.00669-0.83323 0.033577-1.2539 0.080078-6.593 0.7288-11.396 6.1674005-10.943 12.24l-1.543 0.172 0.883 7.986 5.1465-0.56836-0.88281-7.9883-1.9062 0.21094c-0.353-5.203 3.771-9.8493005 9.426-10.474 5.651-0.625 10.714 2.999 11.512 8.1480005l-1.678 0.186 0.883 7.986 4.969-0.549-0.883-7.986-1.596 0.176c-0.842-5.6270005-6.066-9.7175005-12.133-9.6195005z"/>
 <path style="opacity:.2" d="m22.695 9.0007541c-0.69956 0.028292-1.3142 0.4185869-1.7968 0.9968506-0.48258 0.5782623-0.86378 1.3484543-1.1848 2.2524003-0.64214 1.807892-1.0369 4.16533-1.2555 6.603878-0.21861 2.438653-0.25601 4.953226-0.15624 7.055586 0.09976 2.102255 0.29459 3.738506 0.70682 4.651982 0.36054 0.79896 0.77941 1.712171 0.95978 2.536915 0.18037 0.824722 0.14264 1.481976-0.31993 2.013628-0.46257 0.531609-1.4831 0.809574-3.4448 0.920003-1.9617 0.110481-4.8284-0.139101-8.8929-0.933359-0.65465-0.127933-1.2008-0.139367-1.6759 0.02587-0.47509 0.165234-0.84702 0.532733-1.0732 0.996849-0.45244 0.928247-0.49311 2.405411-0.55987 4.169784-0.021586 0.570512 0.17794 1.114341 0.52825 1.559907 0.35031 0.445557 0.84079 0.810789 1.449 1.130119 1.2164 0.638744 2.9198 1.099199 5.0351 1.426597 4.2307 0.65484 10.105 0.758047 16.778 0.352176l0.0056-0.002h0.0074c2.4559-0.212364 6.3407-0.361336 9.6908-1.255487 1.675-0.447092 3.2239-1.076963 4.4064-2.039464 1.1825-0.962554 1.9924-2.298884 2.0721-4.003326 0.07412-1.584579-0.0038-2.446228-0.30691-3.208711-0.30309-0.762494-0.95262-1.16919-1.6201-1.183908-1.3349-0.02929-2.9079 0.68806-4.9496 1.191165-2.3429 0.577342-3.9958 0.864348-5.1207 0.774789-1.1249-0.08955-1.6872-0.524073-2.0349-0.993654-0.34771-0.469592-0.50395-1.164213-0.57661-2.047406-0.07266-0.883181-0.06418-1.92892-0.17484-3.030342-0.212-2.110302-0.612-7.053046-1.519-11.46742-0.454-2.207716-1.03-4.284134-1.803-5.845948-0.386-0.781014-0.821-1.437822-1.343-1.9121896-0.521-0.4743677-1.149-0.7617418-1.83-0.7342115z"/>
 <path style="fill:#974fa4" d="m22.695 8.0007572c-0.69956 0.028292-1.3142 0.4185869-1.7968 0.9968506-0.48258 0.5782627-0.86378 1.3484542-1.1848 2.2524002-0.64214 1.807892-1.0369 4.16533-1.2555 6.603878-0.21861 2.438653-0.25601 4.953226-0.15624 7.055586 0.09976 2.102255 0.29459 3.738506 0.70682 4.651982 0.36054 0.79896 0.77941 1.712171 0.95978 2.536915 0.18037 0.824722 0.14264 1.481976-0.31993 2.013628-0.46257 0.531609-1.4831 0.809574-3.4448 0.920003-1.9617 0.110481-4.8284-0.139101-8.8929-0.933359-0.65465-0.127933-1.2008-0.139367-1.6759 0.02587-0.47509 0.165234-0.84702 0.532733-1.0732 0.996849-0.45244 0.928247-0.49311 2.405411-0.55987 4.169784-0.021586 0.570512 0.17794 1.114341 0.52825 1.559907 0.35031 0.445557 0.84079 0.810789 1.449 1.130119 1.2164 0.638744 2.9198 1.099199 5.0351 1.426597 4.2307 0.65484 10.105 0.758047 16.778 0.352176l0.0056-0.002h0.0074c2.4559-0.212364 6.3407-0.361336 9.6908-1.255487 1.675-0.447092 3.2239-1.076963 4.4064-2.039464 1.1825-0.962554 1.9924-2.298884 2.0721-4.003326 0.07412-1.584579-0.0038-2.446228-0.30691-3.208711-0.30309-0.762494-0.95262-1.16919-1.6201-1.183908-1.3349-0.02929-2.9079 0.68806-4.9496 1.191165-2.3429 0.577342-3.9958 0.864348-5.1207 0.774789-1.1249-0.08955-1.6872-0.524073-2.0349-0.993654-0.34771-0.469592-0.50395-1.164213-0.57661-2.047406-0.07266-0.883181-0.06418-1.92892-0.17484-3.030342-0.212-2.110302-0.612-7.053046-1.519-11.46742-0.454-2.207716-1.03-4.284134-1.803-5.845948-0.386-0.7810134-0.821-1.4378217-1.343-1.9121895-0.521-0.4743677-1.149-0.7617418-1.83-0.7342115z"/>
 <path style="opacity:.2;fill:#f4f4f7" d="m22.695312 8c-0.699559 0.028292-1.314274 0.4197832-1.796874 0.9980469-0.48258 0.5782627-0.864527 1.3480071-1.185547 2.2519531-0.64214 1.807892-1.03726 4.164968-1.25586 6.603516-0.167459 1.868052-0.224626 3.777884-0.199219 5.515625 0.006244-1.459432 0.063105-2.997233 0.199219-4.515625 0.2186-2.438548 0.61372-4.795624 1.25586-6.603516 0.32102-0.903946 0.702967-1.673691 1.185547-2.2519531 0.4826-0.5782637 1.097315-0.9697549 1.796874-0.9980469v0.0019531c0.681001-0.0275303 1.309079 0.2600073 1.830079 0.734375 0.522 0.4743679 0.95775 1.1310949 1.34375 1.9121099 0.773 1.561813 1.348734 3.637987 1.802734 5.845703 0.907 4.414374 1.307531 9.356494 1.519531 11.466797 0.11066 1.101422 0.101168 2.148068 0.173828 3.03125 0.07266 0.883193 0.228462 1.577283 0.576172 2.046874 0.3477 0.469582 0.910256 0.904591 2.035156 0.994141 1.1249 0.089559 2.778194-0.198048 5.121094-0.775391 2.0417-0.503104 3.614319-1.220696 4.949219-1.191406 0.66748 0.014718 1.318004 0.4211 1.621094 1.183594 0.195801 0.492545 0.288823 1.049525 0.316406 1.792969 0.039381-1.30719-0.042966-2.105122-0.316406-2.792969-0.30309-0.762494-0.953614-1.168876-1.621094-1.183594-1.3349-0.02929-2.907519 0.688302-4.949219 1.191406-2.3429 0.577343-3.996194 0.86495-5.121094 0.775391-1.1249-0.08955-1.687456-0.52456-2.035156-0.994141-0.34771-0.469591-0.503512-1.163681-0.576172-2.046874-0.07266-0.883182-0.063168-1.929829-0.173828-3.03125-0.212-2.110303-0.612531-7.052423-1.519531-11.466797-0.454-2.207716-1.029734-4.283889-1.802734-5.845703-0.386-0.7810139-0.82175-1.4377421-1.34375-1.9121099-0.521-0.4743677-1.149078-0.7619053-1.830079-0.734375v-0.0019531zm-2.685546 25.359375c-0.05914 0.273753-0.165211 0.526546-0.361328 0.751953-0.46257 0.531609-1.483613 0.809493-3.445313 0.919922-1.9617 0.110481-4.828078-0.137383-8.8925781-0.931641-0.65465-0.127933-1.2006813-0.139846-1.6757813 0.025391-0.47509 0.165234-0.8460856 0.531978-1.0722656 0.996094-0.45244 0.928247-0.4937869 2.405549-0.5605469 4.169922-0.0053716 0.141969 0.0025084 0.282359 0.0234375 0.419922 0.0589066-1.500884 0.1365121-2.76796 0.5371094-3.589844 0.22618-0.464116 0.5971756-0.83086 1.0722656-0.996094 0.4751-0.165237 1.0211313-0.153324 1.6757813-0.025391 4.0645001 0.794258 6.9308781 1.042122 8.8925781 0.931641 1.9617-0.110429 2.982743-0.388313 3.445313-0.919922 0.411058-0.472447 0.476167-1.051756 0.361328-1.751953z"/>
 <path style="fill:#4d4d4d" d="m23.24 4.0216076c-0.41409 0.00669-0.83323 0.033577-1.2539 0.080078-6.593 0.7288-11.396 6.1674004-10.943 12.24l-1.543 0.172 0.883 7.986 5.1465-0.56836-0.88281-7.9883-1.9062 0.21094c-0.353-5.203 3.771-9.8493004 9.426-10.474 5.651-0.625 10.714 2.999 11.512 8.1480004l-1.678 0.186 0.883 7.986 4.969-0.549-0.883-7.986-1.596 0.176c-0.842-5.6270004-6.066-9.7175004-12.133-9.6195004z"/>
 <path style="opacity:.2" d="m21.981 20.714108a4.4862 8.5035 2.78 1 1 -8.9622 -0.42745 4.4862 8.5035 2.78 1 1 8.9622 0.42745z"/>
 <path style="fill:#f4f4f7" d="m21.981 19.714108a4.4862 8.5035 2.78 1 1 -8.9622 -0.42745 4.4862 8.5035 2.78 1 1 8.9622 0.42745z"/>
 <path style="fill:#4d4d4d" d="m19.991 21.560108a1.9859247 2.5111312 8.8384 1 1 -3.9815 -0.11991 1.9859247 2.5111312 8.8384 0 1 3.9815 0.11991z"/>
 <path style="opacity:.2" d="m34.91 20.051108a8.5397173 4.9290677 83.102 0 1 -9.82 0.89768 8.5397173 4.9290677 83.102 0 1 9.82 -0.89768z"/>
 <path style="fill:#f4f4f7" d="m34.91 19.051108a8.5397173 4.9290677 83.102 0 1 -9.82 0.89768 8.5397173 4.9290677 83.102 0 1 9.82 -0.89768z"/>
 <path style="fill:#4d4d4d" d="m31.93 21.669108a1.9056 2.5726 20.557 1 1 -3.8596 -0.33872 1.9056 2.5726 20.557 0 1 3.8596 0.33872z"/>
 <path style="opacity:.1;fill:#f4f4f7" d="m23.240234 4.0214844c-0.41409 0.00669-0.833236 0.0335771-1.253906 0.0800781-6.473445 0.7155842-11.207959 5.9735205-10.949219 11.91211 0.279848-5.51861 4.841582-10.236962 10.949219-10.91211 0.42067-0.0465005 0.839816-0.0733876 1.253906-0.0800776 6.067-0.098 11.290813 3.9921402 12.132813 9.6191406l1.595703-0.175781 0.775391 6.998047 0.109375-0.011719-0.884766-7.986328-1.595703 0.175781c-0.842-5.6270004-6.065813-9.7171406-12.132813-9.6191406zm10.230469 9.8300776l-1.470703 0.16211 0.109375 0.988281 1.568359-0.173828c-0.051492-0.332247-0.121011-0.657747-0.207031-0.976563zm-18.824219 2.091797l-1.90625 0.210938c-0.002357-0.03475 0.000006-0.068816-0.001953-0.103516-0.019344 0.36441-0.02324 0.732175 0.001953 1.103516l1.90625-0.210938 0.773438 7 0.109375-0.011718-0.882813-7.988282zm-3.625 0.400391l-1.521484 0.169922 0.109375 0.988281 1.433594-0.160156c-0.024988-0.334969-0.0279-0.667621-0.021485-0.998047z"/>
</svg>
