<svg xmlns="http://www.w3.org/2000/svg" width="48" height="48" version="1.1">
 <path style="opacity:0.2" d="M 31.414062,3.0175781 A 6.9228108,9.9996156 78.27122 0 0 28.744141,3.3144531 6.9228108,9.9996156 78.27122 0 0 23.001953,6.0351562 19,19 0 0 1 24,6 19,19 0 0 1 38.572266,12.835938 6.9228108,9.9996156 78.27122 0 0 39.941406,8.0605469 6.9228108,9.9996156 78.27122 0 0 31.414062,3.0175781 Z"/>
 <path style="opacity:0.2;fill-rule:evenodd" d="M 24,7 A 18,18 0 0 0 6,25 18,18 0 0 0 24,43 18,18 0 0 0 42,25 18,18 0 0 0 24,7 Z m 0,9 a 9.0000001,9.0000001 0 0 1 9,9 9.0000001,9.0000001 0 0 1 -9,9 9.0000001,9.0000001 0 0 1 -9,-9 9.0000001,9.0000001 0 0 1 9,-9 z"/>
 <path style="fill:#ff5e13;fill-rule:evenodd" d="M 24 6 A 18 18 0 0 0 6 24 A 18 18 0 0 0 24 42 A 18 18 0 0 0 42 24 A 18 18 0 0 0 24 6 z M 24 15 A 9.0000001 9.0000001 0 0 1 33 24 A 9.0000001 9.0000001 0 0 1 24 33 A 9.0000001 9.0000001 0 0 1 15 24 A 9.0000001 9.0000001 0 0 1 24 15 z"/>
 <path style="opacity:0.2" d="m 8.5885185,31 c 4.9426635,5.764706 6.0151985,0.617647 9.4368115,0.523765 4.494147,3.593883 7.471745,6.328 17.252067,6.369176 0.538517,0.881178 0.840027,1.805178 0.679522,2.684706 C 35.06289,42.529412 31.012757,45 24.016527,45 19.825389,45 16.940794,42.560706 16.265772,45 H 8.7055229 C 3.2048417,43.502824 7.6374873,32.429647 8.5915188,31 Z"/>
 <path style="fill:#f4f4f7;fill-rule:evenodd;opacity:0.2" d="M 24 6 A 18 18 0 0 0 6 24 A 18 18 0 0 0 6.0214844 24.414062 A 18 18 0 0 1 24 7 A 18 18 0 0 1 41.978516 24.585938 A 18 18 0 0 0 42 24 A 18 18 0 0 0 24 6 z M 32.978516 24.423828 A 9.0000001 9.0000001 0 0 1 24 33 A 9.0000001 9.0000001 0 0 1 15.021484 24.576172 A 9.0000001 9.0000001 0 0 0 15 25 A 9.0000001 9.0000001 0 0 0 24 34 A 9.0000001 9.0000001 0 0 0 33 25 A 9.0000001 9.0000001 0 0 0 32.978516 24.423828 z"/>
 <path style="fill:#6798d7" d="m 8.5885185,30 c 4.9426635,5.764706 6.0151985,0.617647 9.4368115,0.523765 4.494147,3.593883 7.471745,6.328 17.252067,6.369176 0.538517,0.881178 0.840027,1.805178 0.679522,2.684706 C 35.06289,41.529412 31.012757,44 24.016527,44 19.825389,44 16.940794,41.560706 16.265772,44 H 8.7055229 C 3.2048417,42.502824 7.6374873,31.429647 8.5915188,30 Z"/>
 <path style="fill:#6798d7" d="M 31.414062 2.0175781 A 6.9228108 9.9996156 78.27122 0 0 28.744141 2.3144531 A 6.9228108 9.9996156 78.27122 0 0 23.001953 5.0351562 A 19 19 0 0 1 24 5 A 19 19 0 0 1 38.572266 11.835938 A 6.9228108 9.9996156 78.27122 0 0 39.941406 7.0605469 A 6.9228108 9.9996156 78.27122 0 0 31.414062 2.0175781 z"/>
 <path style="fill:#f4f4f7;opacity:0.2" d="M 31.414062 2.0175781 A 6.9228108 9.9996156 78.27122 0 0 28.744141 2.3144531 A 6.9228108 9.9996156 78.27122 0 0 23.001953 5.0351562 A 19 19 0 0 1 24 5 A 19 19 0 0 1 24.412109 5.0214844 A 6.9228108 9.9996156 78.27122 0 1 28.744141 3.3144531 A 6.9228108 9.9996156 78.27122 0 1 31.414062 3.0175781 A 6.9228108 9.9996156 78.27122 0 1 39.941406 8.0605469 A 6.9228108 9.9996156 78.27122 0 1 40.001953 8.5214844 A 6.9228108 9.9996156 78.27122 0 0 39.941406 7.0605469 A 6.9228108 9.9996156 78.27122 0 0 31.414062 2.0175781 z"/>
 <path style="fill:#f4f4f7;opacity:0.2" d="M 8.5878906 30 C 8.5878906 30 8.5898438 30.001953 8.5898438 30.001953 C 8.5898438 30.001953 8.5917969 30 8.5917969 30 L 8.5878906 30 z M 8.5898438 30.001953 C 7.9615261 30.945296 5.8486963 36.040508 6.0253906 39.853516 C 6.1992309 36.201208 8.0153138 31.86454 8.5898438 31.001953 C 8.5898438 31.001953 8.5878906 31 8.5878906 31 L 8.5917969 31 C 8.5917969 31 8.5898438 31.001953 8.5898438 31.001953 C 13.530827 36.763005 14.604231 31.617307 18.025391 31.523438 C 22.519538 35.117321 25.497022 37.851402 35.277344 37.892578 C 35.620335 38.453816 35.848842 39.032043 35.941406 39.605469 C 35.945692 39.596387 35.952881 39.587185 35.957031 39.578125 C 36.117536 38.698597 35.815861 37.773756 35.277344 36.892578 C 25.497022 36.851402 22.519538 34.117321 18.025391 30.523438 C 14.604231 30.617307 13.530827 35.763005 8.5898438 30.001953 z"/>
</svg>
