<svg xmlns="http://www.w3.org/2000/svg" width="48" height="48" version="1">
 <rect style="fill:#aedeec" width="40" height="40" x="4" y="4" rx="2" ry="2"/>
 <path fill="#fff" opacity=".2" d="m6 4c-1.108 0-2 0.892-2 2v1c0-1.108 0.892-2 2-2h36c1.108 0 2 0.892 2 2v-1c0-1.108-0.892-2-2-2h-36z"/>
 <path opacity=".2" d="m6 45c-1.108 0-2-0.892-2-2v-1c0 1.108 0.892 2 2 2h36c1.108 0 2-0.892 2-2v1c0 1.108-0.892 2-2 2h-36z"/>
 <path style="opacity:0.2" d="m 11,15.0001 0,2 0.008,0 4.5918,7.9492 -4.5996,7.9648 0,2.0859 16,0 0,-4 -2,0 0,2 -11.738,0 4.041,-7 0.60547,-1.0488 0,-0.002 L 17.3032,23.9004 13.3188,17 l 9.6816,0 0,1 2,0 0,-3 -14,0 z"/>
 <path style="fill:#e37739" d="m 11,14 0,2 0.008,0 4.5918,7.9492 -4.5996,7.9648 0,2.0859 16,0 0,-4 -2,0 0,2 -11.738,0 4.041,-7 0.60547,-1.0488 0,-0.002 -0.60547,-1.0488 -3.9844,-6.9004 9.6816,0 0,1 2,0 0,-3 -14,0 z"/>
 <rect style="fill:#f4f4f7" width="2" height="40" x="32" y="4"/>
</svg>
