<svg xmlns="http://www.w3.org/2000/svg" width="48" height="48" version="1">
 <rect style="opacity:0.2" width="40" height="40" x="4" y="5" rx="2" ry="2"/>
 <rect style="fill:#3f3f3f" width="40" height="40" x="4" y="4" rx="2" ry="2"/>
 <path style="opacity:0.2;fill:#20ee03" d="M 6.4550781,4 V 4.125 5.2050781 H 7.1757812 V 4.125 4 Z M 11.365234,4 V 4.171875 5.21875 6.265625 7.3125 v 1.046875 1.0488281 1.0468749 1.013672 1.046875 1.048828 1.046875 1.080078 h 0.720704 V 14.611328 13.564453 12.515625 11.46875 10.421875 9.375 8.328125 7.2792969 6.2324219 5.1855469 4.1386719 4 Z m 2.455078,0 v 0.1640625 1.046875 h 0.71875 V 4.1328125 4 Z m 4.910157,0 V 4.171875 5.21875 6.265625 7.3125 v 1.046875 1.0488281 1.0468749 1.046875 1.046875 1.046875 1.048828 1.046875 h 0.71875 V 14.611328 13.564453 12.515625 11.46875 10.421875 9.375 8.328125 7.2792969 6.2324219 5.1855469 4.1386719 4 Z m 4.910156,0 V 4.171875 5.1855469 6.2324219 7.3125 8.328125 9.375 v 1.046875 1.080078 1.046875 1.046875 1.048828 1.046875 1.046875 h 0.71875 V 15.658203 14.611328 13.564453 12.515625 11.46875 10.421875 9.375 8.328125 7.2792969 6.2324219 5.1855469 4.1386719 4 Z m 2.455078,0 v 0.1582031 1.046875 1.046875 h 0.71875 V 5.171875 4.125 4 Z m 7.365235,0 V 4.171875 5.21875 6.265625 7.3125 v 1.046875 1.0488281 1.0468749 1.013672 1.046875 1.048828 1.046875 1.080078 h 0.71875 V 14.611328 13.564453 12.515625 11.46875 10.421875 9.375 8.328125 7.2792969 6.2324219 5.1855469 4.1386719 4 Z m 2.453124,0 v 0.1640625 1.046875 h 0.720704 V 4.1328125 4 Z m 2.455079,0 V 4.171875 5.1855469 6.2324219 7.3125 8.328125 9.375 v 1.046875 1.080078 1.046875 1.046875 1.048828 1.046875 1.046875 h 0.720703 V 15.658203 14.611328 13.564453 12.515625 11.46875 10.421875 9.375 8.328125 7.2792969 6.2324219 5.1855469 4.1386719 4 Z m 2.455078,0 v 0.171875 h 0.720703 V 4 Z M 4.7207031,4.4707031 C 4.2830308,4.8370102 4,5.382023 4,6 V 6.2519531 H 4.7207031 V 5.171875 Z m 38.5585939,0 v 0.7402344 1.0488281 1.046875 1.046875 H 44 V 6 C 44,5.382023 43.716969,4.8370102 43.279297,4.4707031 Z M 8.9101562,5.1796875 v 1.0800781 1.046875 1.046875 H 9.6308594 V 7.2734375 6.2265625 5.1796875 Z m 22.0957028,0 v 1.0800781 1.046875 1.046875 h 0.71875 V 7.2734375 6.2265625 5.1796875 Z m -14.730468,0.011719 v 1.0800782 1.0488281 1.046875 1.046875 1.0468752 1.046874 1.048829 h 0.71875 V 11.476562 10.427734 9.3808594 8.3339844 7.2871094 6.2402344 5.1914062 Z m 24.548828,1.0488282 v 1.0800781 1.046875 1.046875 1.0468752 1.046874 1.048829 1.046875 1.046875 1.046875 1.046875 1.048828 h 0.720703 V 16.712891 15.664062 14.617188 13.570312 12.523438 11.476562 10.427734 9.3808594 8.3339844 7.2871094 6.2402344 Z M 6.4550781,7.2734375 v 1.0800781 1.015625 1.0781254 1.048828 H 7.1757812 V 10.416016 9.3691406 8.3203125 7.2734375 Z m 22.0957029,0 v 1.0800781 1.015625 1.0781254 1.048828 h 0.71875 V 10.416016 9.3691406 8.3203125 7.2734375 Z m -14.730469,0.00586 V 8.328125 9.4082031 h 0.71875 V 8.328125 7.2792969 Z m 7.365235,0 V 8.328125 9.4082031 h 0.71875 V 8.328125 7.2792969 Z M 4,8.3203125 V 9.4003906 10.447266 H 4.7207031 V 9.3691406 8.3203125 Z m 22.095703,0 v 1.0800781 1.0468754 h 0.71875 V 9.3691406 8.3203125 Z m 4.910156,2.1015625 v 1.046875 1.080078 1.046875 1.048828 h 0.71875 V 13.564453 12.515625 11.46875 10.421875 Z m 12.273438,0 v 1.080078 1.046875 1.046875 1.048828 H 44 V 13.564453 12.515625 11.46875 10.421875 Z m -29.458985,1.054687 v 1.080079 1.046875 1.046875 1.046875 h 0.71875 v -1.080078 -1.046876 -1.046874 -1.046876 z m 7.365235,0 v 1.080079 1.046875 1.046875 1.046875 h 0.71875 v -1.080078 -1.046876 -1.046874 -1.046876 z m 14.728515,0 v 1.080079 1.046875 1.046875 1.046875 h 0.720704 V 14.617188 13.570312 12.523438 11.476562 Z M 4,12.515625 v 1.080078 1.048828 1.046875 1.046875 h 0.7207031 v -1.080078 -1.046875 -1.046875 -1.048828 z m 22.095703,0 v 1.048828 1.046875 1.046875 1.080078 h 0.71875 V 15.658203 14.611328 13.564453 12.515625 Z M 6.4550781,13.564453 v 1.080078 h 0.7207031 v -1.080078 z m 22.0957029,0 v 1.080078 h 0.71875 V 13.564453 Z M 16.275391,14.625 v 1.080078 1.046875 h 0.71875 V 15.671875 14.625 Z m -9.8203129,2.087891 v 1.080078 1.046875 h 0.7207031 v -1.080078 -1.046875 z m 2.4550781,0 v 1.046875 1.080078 h 0.7207032 v -1.080078 -1.046875 z m 19.6406248,0 v 1.080078 1.046875 h 0.71875 v -1.080078 -1.046875 z m 2.455078,0 v 1.046875 1.080078 h 0.71875 v -1.080078 -1.046875 z m 12.273438,0 v 1.080078 1.046875 1.046875 H 44 v -1.080078 -1.046875 -1.046875 z m -31.914063,1.046875 v 1.080078 1.046875 1.046875 1.046875 1.048828 1.046875 1.046875 h 0.720704 v -1.080078 -1.046875 -1.046875 -1.048828 -1.046875 -1.046875 -1.046875 z m 7.365235,0 v 1.080078 1.046875 1.046875 1.046875 1.048828 1.046875 1.046875 h 0.71875 v -1.080078 -1.046875 -1.046875 -1.048828 -1.046875 -1.046875 -1.046875 z m 14.730469,0 v 1.080078 1.013672 1.080078 1.046875 1.048828 1.046875 1.046875 h 0.71875 v -1.080078 -1.046875 -1.046875 -1.048828 -1.046875 -1.046875 -1.046875 z m -12.275391,0.0059 v 1.080078 1.046875 1.048828 1.046875 1.046875 h 0.71875 V 21.955078 20.908203 19.861328 18.8125 17.765625 Z m 14.728515,0 v 1.080078 1.046875 1.048828 1.046875 1.046875 h 0.720704 V 21.955078 20.908203 19.861328 18.8125 17.765625 Z M 4,18.806641 v 1.080078 h 0.7207031 v -1.080078 z m 19.640625,0 v 1.080078 1.046875 h 0.71875 v -1.080078 -1.046875 z m 2.455078,0 v 1.080078 h 0.71875 v -1.080078 z m -9.820312,0.01367 v 1.080079 1.046875 1.046875 1.046875 1.046875 1.048828 h 0.71875 V 24.05664 23.009765 21.960937 20.914061 19.867187 18.820311 Z m 24.548828,1.041016 v 1.046875 1.046875 1.080078 1.013672 1.048828 1.046875 1.080078 h 0.720703 V 26.144531 25.097656 24.048828 23.001953 21.955078 20.908203 19.861328 Z M 6.4550781,20.908203 v 1.080078 1.013672 1.080078 1.046875 h 0.7207031 v -1.080078 -1.046875 -1.046875 -1.046875 z m 2.4550781,0 v 1.046875 1.046875 1.046875 1.080078 1.048828 h 0.7207032 v -1.080078 -1.048828 -1.046875 -1.046875 -1.046875 z m 19.6406248,0 v 1.080078 1.013672 1.046875 1.080078 h 0.71875 v -1.080078 -1.046875 -1.046875 -1.046875 z m 2.455078,0 v 1.046875 1.046875 1.046875 1.048828 1.080078 h 0.71875 V 25.097656 24.048828 23.001953 21.955078 20.908203 Z M 4,21.955078 v 1.080078 1.046875 h 0.7207031 v -1.080078 -1.046875 z m 22.095703,0 v 1.080078 1.046875 h 0.71875 v -1.080078 -1.046875 z m 17.183594,0 v 1.046875 1.080078 H 44 v -1.080078 -1.046875 z m -19.638672,1.046875 v 1.080078 1.046875 1.048828 1.046875 1.046875 h 0.71875 v -1.080078 -1.046875 -1.046875 -1.048828 -1.046875 z m 14.728516,0 v 1.080078 1.046875 1.048828 1.046875 1.046875 h 0.720703 v -1.080078 -1.046875 -1.046875 -1.048828 -1.046875 z m -24.548829,2.101563 v 1.080078 1.046875 1.046875 1.046875 h 0.71875 v -1.078125 -1.048828 -1.046875 -1.046875 z m 7.365235,0 v 1.046875 1.080078 1.046875 1.046875 h 0.71875 v -1.078125 -1.048828 -1.046875 -1.046875 z m 14.728515,0 v 1.080078 1.046875 1.046875 1.046875 h 0.720704 v -1.078125 -1.048828 -1.046875 -1.046875 z m -9.818359,1.046875 v 1.080078 1.015625 1.078125 1.048828 h 0.71875 v -1.080078 -1.046875 -1.048828 -1.046875 z m 17.183594,0 v 1.080078 1.015625 1.078125 1.048828 1.013672 1.080078 1.046875 1.046875 1.048828 H 44 v -1.080078 -1.046875 -1.048828 -1.046875 -1.046875 -1.046875 -1.046875 -1.048828 -1.046875 z m -31.914063,1.041015 v 1.080078 1.046875 1.046875 h 0.720704 v -1.080078 -1.046875 -1.046875 z m 7.365235,0 v 1.080078 1.046875 1.046875 h 0.71875 v -1.080078 -1.046875 -1.046875 z m 14.730469,0 v 1.080078 1.046875 1.046875 h 0.71875 v -1.080078 -1.046875 -1.046875 z m -27.0058599,0.0059 v 1.048828 1.046875 1.080078 1.046875 1.046875 1.046875 1.046875 1.048828 1.046875 1.046875 V 38.75 h 0.7207031 v -1.080078 -1.046875 -1.046875 -1.046875 -1.046875 -1.048828 -1.046875 -1.046875 -1.046875 -1.046875 -1.048828 z m 22.0957029,0 v 1.048828 1.046875 1.080078 1.013672 1.080078 1.046875 1.046875 1.048828 1.046875 1.046875 V 38.75 h 0.71875 v -1.080078 -1.046875 -1.046875 -1.046875 -1.046875 -1.048828 -1.046875 -1.046875 -1.046875 -1.046875 -1.048828 z m -12.27539,0.0078 v 1.080078 1.046875 1.046875 1.046875 1.015625 1.046875 1.080078 h 0.71875 v -1.080078 -1.046875 -1.048828 -1.046875 -1.046875 -1.046875 -1.046875 z m -7.3652348,1.041016 v 1.046875 1.046875 1.046875 1.046875 1.048828 1.046875 1.046875 1.080078 H 9.6308594 V 35.5762 34.529325 33.48245 32.433622 31.386747 30.339872 29.292997 28.246122 Z m 22.0957028,0 v 1.046875 1.046875 1.046875 1.046875 1.048828 1.046875 1.046875 1.080078 h 0.71875 V 35.5762 34.529325 33.48245 32.433622 31.386747 30.339872 29.292997 28.246122 Z m 9.81836,1.046875 v 1.080078 h 0.720703 v -1.080078 z m -17.183594,1.046875 v 1.080078 1.046875 1.046875 h 0.71875 v -1.080078 -1.046875 -1.046875 z m -9.820313,1.052734 v 1.080078 1.048828 1.046875 1.046875 1.046875 1.015625 1.080078 h 0.71875 v -1.080078 -1.048828 -1.046875 -1.046875 -1.046875 -1.046875 -1.048828 z m 7.365235,0 v 1.080078 1.048828 1.013672 1.046875 1.080078 1.015625 1.080078 h 0.71875 v -1.080078 -1.048828 -1.046875 -1.046875 -1.046875 -1.046875 -1.048828 z m 14.728515,0 v 1.080078 1.048828 1.046875 1.046875 1.046875 1.015625 1.080078 h 0.720704 v -1.080078 -1.048828 -1.046875 -1.046875 -1.046875 -1.046875 -1.048828 z m -24.548828,1.041016 v 1.048828 1.078125 h 0.720704 V 33.48245 32.433622 Z m 22.095704,0 v 1.048828 1.078125 h 0.71875 V 33.482422 32.433594 Z M 4,32.441406 v 1.080078 1.046875 1.046875 1.046875 1.046875 1.048828 1.046876 1.046874 1.046876 h 0.7207031 v -1.080079 -1.046875 -1.046875 -1.046875 -1.048828 -1.046875 -1.046875 -1.046875 -1.046875 z m 22.095703,0 v 1.046875 1.046875 1.080078 1.013672 1.048828 1.046875 1.080079 1.046874 1.046876 h 0.71875 v -1.080079 -1.046875 -1.046875 -1.046875 -1.048828 -1.046875 -1.046875 -1.046875 -1.046875 z m 14.728516,0 v 1.046875 1.080078 h 0.720703 v -1.080078 -1.046875 z m -17.183594,3.140625 v 1.046875 1.080078 h 0.71875 v -1.080078 -1.046875 z m 14.728516,0 v 1.046875 1.080078 h 0.720703 v -1.080078 -1.046875 z m -19.638672,1.046875 v 1.080078 1.048828 1.046876 h 0.71875 v -1.080079 -1.046875 -1.048828 z m 14.730469,0 v 1.080078 1.048828 1.046876 h 0.71875 v -1.080079 -1.046875 -1.048828 z m 7.363281,0.0078 v 1.080078 1.046875 1.046875 1.015625 1.046875 1.046875 V 44 h 0.720703 v -1.080078 -1.046875 -1.046875 -1.048828 -1.046875 -1.046875 -1.046875 z m 2.455078,1.041015 v 1.080078 1.046876 1.046874 H 44 V 39.771484 38.724609 37.677734 Z M 8.9101562,38.724609 v 1.046875 1.080078 1.046876 h 0.7207032 v -1.080079 -1.046875 -1.046875 z m 22.0957028,0 v 1.046875 1.080078 1.046876 h 0.71875 v -1.080079 -1.046875 -1.046875 z m -7.365234,1.052735 v 1.080078 1.015625 1.046875 V 44 h 0.71875 v -1.080078 -1.046875 -1.046875 -1.048828 z m 14.728516,0 v 1.080078 1.015625 1.046875 V 44 h 0.720703 V 42.919922 41.873047 40.826172 39.777344 Z M 6.4550781,40.818359 v 1.080079 h 0.7207031 v -1.080079 z m 22.0957029,0 v 1.080079 h 0.71875 v -1.080079 z m -14.730469,0.0078 V 41.90625 42.919922 44 h 0.71875 v -1.080078 -1.046875 -1.046875 z m -2.455078,1.046875 V 42.953125 44 h 0.720704 v -1.080078 -1.046875 z m 7.365235,0 V 42.919922 44 h 0.71875 v -1.080078 -1.046875 z m 24.548828,1.046875 v 0.609375 c 0.200878,-0.168124 0.366233,-0.37487 0.488281,-0.609375 z"/>
 <path style="opacity:0.2" d="m 18,13 v 14 h -6 l 6,6 6,6 6,-6 6,-6 H 30 V 13 Z"/>
 <path style="fill:#20ee03" d="m 18,12 v 14 h -6 l 6,6 6,6 6,-6 6,-6 H 30 V 12 Z"/>
 <path style="opacity:0.1;fill:#f4f4f7" d="M 6,4 C 4.892,4 4,4.892 4,6 V 7 C 4,5.892 4.892,5 6,5 h 36 c 1.108,0 2,0.892 2,2 V 6 C 44,4.892 43.108,4 42,4 Z"/>
 <path style="opacity:0.2;fill:#f4f4f7" d="m 18,12 v 1 h 12 v -1 z m -6,14 1,1 h 5 v -1 z m 18,0 v 1 h 5 l 1,-1 z"/>
</svg>
