<svg xmlns="http://www.w3.org/2000/svg" width="48" height="48" version="1">
 <rect style="opacity:0.2" width="40" height="40" x="4" y="5" rx="2" ry="2"/>
 <rect style="fill:#762276" width="40" height="40" x="4" y="4" rx="2" ry="2"/>
 <path style="opacity:0.2" d="M 35.882812,12 22.064454,34.180867 18.740235,29 H 14 l 6.392579,10 3.388671,-0.01753 16.810546,-26.982467 z"/>
 <path style="fill:#ff8118" d="M 35.882812,11 22.064454,33.180867 18.740235,28 H 14 l 6.392579,10 3.388671,-0.01753 16.810546,-26.982467 z"/>
 <path style="opacity:0.2" d="M 29.882812,12 16.064454,34.180867 12.740235,29 H 8 l 6.392579,10 3.388671,-0.01753 16.810546,-26.982469 z"/>
 <path style="fill:#abe619" d="M 29.882812,11 16.064454,33.180867 12.740235,28 H 8 l 6.392579,10 3.388671,-0.01753 16.810546,-26.982469 z"/>
 <path style="fill:#f4f4f7;opacity:0.1" d="M 6 4 C 4.892 4 4 4.892 4 6 L 4 7 C 4 5.892 4.892 5 6 5 L 42 5 C 43.108 5 44 5.892 44 7 L 44 6 C 44 4.892 43.108 4 42 4 L 6 4 z"/>
 <path style="opacity:0.2;fill:none;stroke:#000000;stroke-width:2;stroke-linecap:round;stroke-linejoin:round" d="m 41,29.999512 c 0,0 -3,-0.535501 -3,2 0,2.535501 3,1.464499 3,4 0,2.535501 -3,2 -3,2"/>
 <path style="fill:none;stroke:#f4f4f7;stroke-width:2;stroke-linecap:round;stroke-linejoin:round" d="m 41,29 c 0,0 -3,-0.535501 -3,2 0,2.535501 3,1.464499 3,4 0,2.535501 -3,2 -3,2"/>
 <path style="opacity:0.2;fill:none;stroke:#000000;stroke-width:2;stroke-linecap:round;stroke-linejoin:round" d="m 34,33.999512 h -2 m 3,-4 c -3.386848,0 -3,1 -3,8"/>
 <path style="fill:none;stroke:#f4f4f7;stroke-width:2;stroke-linecap:round;stroke-linejoin:round" d="m 34,33 h -2 m 3,-4 c -3.386848,0 -3,1 -3,8"/>
</svg>
