<svg xmlns="http://www.w3.org/2000/svg" width="48" height="48" version="1">
 <path style="opacity:0.2" d="M 16,5 C 9.352,5 4,10.352 4,17 v 8 8 10 c 0,1.108 0.892,2 2,2 h 10 8 8 c 6.648,0 12,-5.352 12,-12 V 25 17 7 C 44,5.892 43.108,5 42,5 H 32 24 Z"/>
 <path style="fill:#e23a3d" d="M 16 4 C 9.352 4 4 9.352 4 16 L 4 24 L 4 32 L 4 42 C 4 43.108 4.892 44 6 44 L 16 44 L 24 44 L 32 44 C 38.648 44 44 38.648 44 32 L 44 24 L 44 16 L 44 6 C 44 4.892 43.108 4 42 4 L 32 4 L 24 4 L 16 4 z"/>
 <path style="opacity:0.2" d="m 21.445312,15.003906 c -0.751731,-0.0068 -1.74461,-0.0058 -2.796874,0.0059 l -3.826172,0.04297 0.390625,0.47461 c 0.49086,0.596128 1.013503,1.740729 2.951171,6.472656 2.859301,6.9826 3.247242,7.779297 3.785157,7.779297 0.08312,0 0.247538,-0.152937 0.365234,-0.339844 0.481242,-0.764249 3.682724,-8.222755 3.679688,-8.572265 -0.0019,-0.207675 -0.451749,-1.413073 -1,-2.679688 -1.002703,-2.316527 -1.447837,-2.951542 -2.197266,-3.138672 -0.0883,-0.02205 -0.599831,-0.03809 -1.351563,-0.04492 z m -7.117187,0.9375 c -0.194154,0.0059 -0.379534,0.152067 -0.5625,0.4375 L 7,33 h 8.341797 c 0,0 2.892416,-7.2308 3.150391,-7.933594 0.08643,-0.235554 -2.245164,-6.207452 -3.113282,-7.974609 -0.382729,-0.779081 -0.727192,-1.160202 -1.050781,-1.150391 z m 17.716797,3.128906 c -0.62921,-0.02745 -1.523541,0.211384 -3.105469,0.761719 -1.22425,0.425904 -2.133522,0.884715 -2.263672,1.019531 -0.245595,0.254395 -3.777343,8.658995 -3.777343,8.984376 0,0.378197 0.361602,0.570127 0.910156,0.482421 0.298324,-0.04769 3.175577,-1.105446 6.636718,-2.351562 4.523309,-1.628525 6.478281,-2.265625 6.955079,-2.265625 0.446896,0 0.664062,-0.06455 0.664062,-0.197266 0,-0.254517 -4.456237,-5.660761 -5.082031,-6.107422 -0.277855,-0.198321 -0.559974,-0.309702 -0.9375,-0.326172 z m 5.376953,7.289063 c -0.326014,-0.03828 -0.667755,0.04398 -1.498047,0.308594 -2.635437,0.839915 -4.951172,1.779924 -4.951172,2.007812 0,0.250827 1.660156,4.324219 1.660156,4.324219 H 41 c 0,0 -2.314147,-5.931673 -2.527344,-6.203125 -0.08123,-0.103455 -0.400886,-0.266372 -0.710937,-0.361328 -0.122578,-0.03754 -0.231173,-0.06341 -0.339844,-0.07617 z"/>
 <path style="fill:#f4f4f7" d="m 15.341852,32 c 0,0 2.89222,-7.231195 3.150194,-7.933989 0.08643,-0.235554 -2.244183,-6.206928 -3.112301,-7.974085 -0.612367,-1.246529 -1.126584,-1.473375 -1.614493,-0.712221 L 7,32 Z"/>
 <path style="fill:#f4f4f7" d="m 41,32 c 0,0 -2.314421,-5.931879 -2.527618,-6.203331 -0.08123,-0.103455 -0.401429,-0.26579 -0.71148,-0.360746 -0.490311,-0.15016 -0.729495,-0.119815 -1.836551,0.233003 -2.635437,0.839915 -4.952567,1.778748 -4.952567,2.006636 0,0.250827 1.660054,4.324438 1.660054,4.324438 z"/>
 <path style="fill:#f4f4f7" d="m 30.444498,26.966629 c 4.523308,-1.628525 6.47953,-2.265664 6.956328,-2.265664 0.446896,0 0.663346,-0.06428 0.663346,-0.196993 0,-0.254517 -4.456725,-5.660327 -5.082519,-6.106988 -0.740947,-0.528857 -1.51187,-0.445997 -4.042955,0.43454 -1.22425,0.425904 -2.132201,0.884676 -2.262351,1.019492 -0.245595,0.254394 -3.778824,8.659778 -3.778824,8.985158 0,0.378197 0.363234,0.570544 0.911788,0.482838 0.298324,-0.04769 3.174045,-1.106267 6.635187,-2.352383 z"/>
 <path style="fill:#f4f4f7" d="m 22.313481,28.439101 c 0.481242,-0.764249 3.683248,-8.221771 3.680212,-8.571281 -0.0019,-0.207674 -0.451851,-1.413912 -1.000102,-2.680527 -1.002703,-2.316527 -1.447396,-2.95196 -2.196825,-3.13909 -0.176591,-0.0441 -2.042958,-0.06106 -4.147487,-0.03772 l -3.826429,0.04245 0.390753,0.474547 c 0.49086,0.596128 1.012774,1.741172 2.950443,6.473099 2.859301,6.9826 3.246461,7.778342 3.784376,7.778342 0.08312,0 0.247363,-0.152923 0.365059,-0.33983 z"/>
 <path style="fill:#f4f4f7;opacity:0.2" d="M 16 4 C 9.352 4 4 9.352 4 16 L 4 17 C 4 10.352 9.352 5 16 5 L 24 5 L 32 5 L 42 5 C 43.108 5 44 5.892 44 7 L 44 6 C 44 4.892 43.108 4 42 4 L 32 4 L 24 4 L 16 4 z"/>
</svg>
