<svg xmlns="http://www.w3.org/2000/svg" width="48" height="48" version="1">
 <rect style="fill:#b2bfd9" width="40" height="40" x="4" y="4" rx="3" ry="3"/>
 <path style="opacity:0.2;fill:#f4f4f7" d="M 7,4 C 5.338,4 4,5.338 4,7 V 8 C 4,6.338 5.338,5 7,5 h 34 c 1.662,0 3,1.338 3,3 V 7 C 44,5.338 42.662,4 41,4 Z"/>
 <path style="opacity:0.2" d="m 4,41 v 1 c 0,1.662 1.338,3 3,3 h 34 c 1.662,0 3,-1.338 3,-3 v -1 c 0,1.662 -1.338,3 -3,3 H 7 C 5.338,44 4,42.662 4,41 Z"/>
 <path style="opacity:0.1;fill:none;stroke:#000000;stroke-width:4;stroke-linejoin:round" d="m 9,25 h 25.146341 c 0,0 2.853659,0 2.853659,4 0,4 -2.781923,4 -2.781923,4 H 9 M 9,17 h 25.146341 c 0,0 2.853659,0 2.853659,4 0,4 -2.781923,4 -2.781923,4 H 9"/>
 <path style="fill:none;stroke:#1f75e6;stroke-width:4;stroke-linejoin:round" d="m 9,24 h 25.146341 c 0,0 2.853659,0 2.853659,4 0,4 -2.781923,4 -2.781923,4 H 9 M 9,16 h 25.146341 c 0,0 2.853659,0 2.853659,4 0,4 -2.781923,4 -2.781923,4 H 9"/>
</svg>
