<svg xmlns="http://www.w3.org/2000/svg" width="48" height="48" version="1.1">
 <circle style="opacity:0.2" cx="24" cy="25" r="20"/>
 <circle style="fill:#b2bfd9" cx="24" cy="24" r="20"/>
 <path style="opacity:0.1" d="m 24,13 c -6.627417,0 -13,5.372583 -13,12 0,6.627417 6.372583,12 13,12 1.726792,-0.0044 3.432285,-0.381522 5,-1.105469 V 30 h 10 l -4,-4 h -6 v 3.888672 C 27.685098,31.236233 25.882785,31.997287 24,32 c -3.865993,0 -8,-3.134007 -8,-7 0,-3.865993 4.134007,-7 8,-7 1.881645,6.57e-4 3.683794,0.758827 5,2.103516 V 14.107422 C 27.432435,13.382802 25.726936,13.00506 24,13 Z m 5,7.103516 v 4 h 6 l 4,-4 z"/>
 <path style="opacity:0.2;fill:#f4f4f7" d="M 24,4 A 20,20 0 0 0 4,24 20,20 0 0 0 4.0215,24.582 20,20 0 0 1 24,5 20,20 0 0 1 43.979,24.418 20,20 0 0 0 44,24 20,20 0 0 0 24,4 Z"/>
 <path style="fill:#003079" d="m 24,12 c -6.627417,0 -13,5.372583 -13,12 0,6.627417 6.372583,12 13,12 1.726792,-0.0044 3.432285,-0.381522 5,-1.105469 V 28.888672 C 27.685098,30.236233 25.882785,30.997287 24,31 c -3.865993,0 -8,-3.134007 -8,-7 0,-3.865993 4.134007,-7 8,-7 1.881645,6.57e-4 3.683794,0.758827 5,2.103516 V 13.107422 C 27.432435,12.382802 25.726936,12.00506 24,12 Z"/>
 <path style="fill:#003079" d="m 29,19.103516 h 10 l -4,4 h -6 z"/>
 <path style="fill:#ff2f2f" d="M 29,29 H 39 L 35,25 H 29 Z"/>
</svg>
