<svg xmlns="http://www.w3.org/2000/svg" width="48" height="48" version="1">
 <circle style="opacity:0.2" cx="12" cy="15" r="8"/>
 <circle style="fill:#8d533f" cx="12" cy="14" r="8"/>
 <path style="opacity:0.2" d="m 11.244398,6.0429595 a 8,8 0 0 0 -2.8951996,0.83984 c 0.0404,0.12804 -0.0068,0.27248 -0.154,0.4 -0.0996,0.08632 -0.1812,0.22076 -0.1812,0.29924 0,0.23988 0.2168,0.6082 0.39,0.66172 0.23,0.0712 0.1528,0.31664 -0.1432,0.45224 -0.1368,0.0628 -0.3052,0.2436 -0.374,0.4016 -0.0692,0.1584 -0.1708,0.3144 -0.226,0.3468 -0.0548,0.0328 -0.1,0.1564 -0.1,0.2752 0,0.166 0.076,0.2464 0.3252,0.3460005 0.1784,0.0716 0.392,0.1236 0.4748,0.1156 0.4764,-0.0448 0.5096,0.2328 0.0932,0.7752 -0.2212,0.288 -0.3276,0.3604 -0.4784,0.324 -0.1404,-0.0336 -0.2172,0.006 -0.2812,0.1452 -0.0672,0.1476 -0.1776,0.1976 -0.474,0.218 -0.2916,0.0204 -0.422,0.0796 -0.5312,0.2392 -0.08,0.1164 -0.1952,0.2108 -0.2564,0.2108 -0.06136,0 -0.20544,0.0784 -0.32032,0.1736 -0.23376,0.194 -0.32504,0.2136 -0.407,0.0868 -0.10832,-0.168 -0.34204,-0.0832 -0.68984,0.25 -0.3076,0.2944 -0.34484,0.3732 -0.29844,0.6288 0.08256,0.4548 0.32924,0.8584 0.61092,0.9992 0.2458,0.1228 0.2506,0.136 0.10156,0.2936 -0.08572,0.0908 -0.2328,0.188 -0.32656,0.216399 -0.2708,0.0824 -0.11836,0.1856 0.36484,0.247201 0.49456,0.0628 0.64824,0.241999 0.4172,0.4864 -0.12884,0.1364 -0.1216,0.162 0.08516,0.2916 0.404,0.2536 0.72528,0.0984 0.34608,-0.1672 -0.24372,-0.1708 -0.07328,-0.2404 0.2844,-0.1164 0.2852,0.0988 0.3416,0.0932 0.51,-0.0532 0.346,-0.2996 0.722,0.1436 0.4056,0.478 -0.2012,0.2132 -0.1404,0.469999 0.1204,0.5056 0.1152,0.0156 0.3544,0.1228 0.532,0.2384 0.1776,0.115199 0.3712,0.21 0.4296,0.21 0.0584,0 0.2232,0.117199 0.3664,0.2604 0.2904,0.29 0.4516,0.3268 0.5336,0.1224 0.0984,-0.2456 0.0588,-0.3724 -0.2064,-0.6616 -0.2108,-0.2304 -0.5536,-0.8424 -0.5536,-0.9892 0,-0.0904 0.3484,-0.0136 0.5436,0.1196 0.122,0.0836 0.3196,0.1912 0.4392,0.24 0.1272,0.052 0.2592,0.2136 0.3195996,0.3904 0.094,0.2776 0.1312,0.3016 0.464,0.3016 h 0.3616 l 0.0548,0.649999 c 0.0656,0.782 0.1284,0.9404 0.3968,1.0048 0.1976,0.0476 0.4084,0.3536 0.4084,0.5928 0,0.0636 -0.142,0.2196 -0.3156,0.3464 -0.2152,0.157201 -0.308,0.2908 -0.2936,0.4216 0.018,0.1636 -0.0192,0.1892 -0.2508,0.172001 -0.1492,-0.0112 -0.4084,0.0412 -0.5748,0.116399 -0.1972,0.0888 -0.4107996,0.1172 -0.6111996,0.0812 -0.2304,-0.0412 -0.3084,-0.0252 -0.3084,0.0648 0,0.0664 -0.0808,0.1904 -0.1792,0.275999 -0.2432,0.2108 -0.1428,0.3224 0.2308,0.2552 0.232,-0.0416 0.3224,-0.0232 0.3624,0.0768 0.0852,0.2124 -0.1308,0.5164 -0.3312,0.4664 -0.1272,-0.032 -0.188,0.0116 -0.2276,0.161601 -0.0136,0.0532 -0.0388,0.0984 -0.0688,0.136799 A 8,8 0 0 0 10.424398,21.8428 c -0.04,-0.0764 -0.0856,-0.146001 -0.13,-0.1772 -0.206,-0.1456 -0.068,-0.524 0.2156,-0.592 0.2892,-0.0696 0.2436,-0.2572 -0.0708,-0.2932 -0.2756,-0.0312 -0.5687996,-0.3104 -0.4767996,-0.4532 0.062,-0.0956 0.3255996,-0.0816 0.8587996,0.0448 0.2408,0.0568 0.4052,-0.0576 0.9632,-0.668 0.3228,-0.3536 0.5712,-0.500801 0.8436,-0.500801 0.104,0 0.4748,-0.0956 0.8244,-0.212399 0.66,-0.2212 0.918,-0.213201 0.8936,0.028 -0.0504,0.501599 0.2724,0.4848 0.7984,-0.0408 0.2192,-0.2188 0.4196,-0.3772 0.4456,-0.3524 0.1004,0.0964 -0.0804,0.5656 -0.2916,0.7556 -0.2676,0.2408 -0.2808,0.3928 -0.0452,0.5132 0.1288,0.0664 0.1836,0.2004 0.204,0.5016 l 0.0272,0.4112 h 0.3344 c 0.1172,0 0.2144,0.016 0.2928,0.046 a 8,8 0 0 0 3.876,-6.6024 c -0.1224,-0.2616 -0.1136,-0.4196 0,-0.5976 a 8,8 0 0 0 -0.036,-0.4484 c -0.0728,-0.0036 -0.1472,-0.0068 -0.2328,-0.0032 -0.4032,0.0168 -0.7484,-0.142 -0.7484,-0.3444 0,-0.0428 -0.1432,-0.2192 -0.318,-0.3916 -0.1984,-0.1952 -0.3,-0.368 -0.2704,-0.4576 0.0272,-0.0816 -0.0312,-0.2132 -0.1344,-0.3024 -0.1004,-0.0872 -0.1828,-0.2272 -0.1828,-0.3112 0,-0.134 -0.0852,-0.1508 -0.7016,-0.136 l -0.7016,0.0172 0.012,0.6916 c 0.0208,1.2112 0.2012,1.5256 0.7576,1.3228 0.2548,-0.0932 0.8808,-0.0228 1.0588,0.1184 0.0644,0.0512 0.1576,0.2368 0.2068,0.4128 0.0496,0.1756 0.2328,0.48 0.408,0.6756 0.3544,0.3968 0.382,0.5516 0.1788,1.0172 -0.1772,0.4064 -0.3684,0.3596 -0.3304,-0.0812 l 0.028,-0.328 -0.3,0.056 c -0.166,0.0316 -0.374,0.154 -0.4672,0.2752 -0.1328,0.1724 -0.1948,0.1976 -0.2944,0.1188 -0.0696,-0.0552 -0.126,-0.1716 -0.126,-0.258 0,-0.0864 -0.0856,-0.1824 -0.1896,-0.214 -0.1044,-0.0316 -0.2472,-0.1888 -0.3172,-0.35 -0.1124,-0.2576 -0.1096,-0.3364 0.0212,-0.6492 0.1324,-0.3172 0.1336,-0.3696 0.0116,-0.4868 -0.112,-0.1072 -0.17,-0.1108 -0.3172,-0.0224 -0.148,0.0884 -0.218,0.082 -0.394,-0.036 -0.1172,-0.0788 -0.3224,-0.144 -0.4552,-0.144 -0.27,0 -0.3516,-0.1312 -0.3516,-0.5656 0,-0.4012 -0.2392,-0.5468 -0.8088,-0.4944 -0.3952,0.0364 -0.4824,0.0104 -0.8012,-0.2352 -0.1972,-0.1516 -0.5084,-0.5164 -0.6924,-0.8116 -0.184,-0.2952 -0.382,-0.6036 -0.44,-0.6852 -0.0832,-0.118 -0.0628,-0.2312 0.1,-0.5524 l 0.2056,-0.4040005 -0.4344,0.0588 c -0.7728,0.1044 -0.9292,0.2044 -0.5968,0.3828005 0.1296,0.0692 0.1352,0.1048 0.0352,0.220399 -0.0656,0.0752 -0.0964,0.194801 -0.068,0.265601 0.0284,0.0704 -0.0076,0.2368 -0.0796,0.3692 -0.0724,0.1328 -0.1328,0.3188 -0.1352,0.4144 -0.0076,0.298 -0.518,0.5352 -1.0868,0.5036 -0.8616,-0.0476 -0.9316,-0.034 -1.2375996,0.25 -0.3824,0.3552 -0.4316,0.5204 -0.2536,0.85 0.1724,0.32 0.4788,0.4476 1.0091996,0.4212 0.4744,-0.0236 0.528,0.0184 0.4196,0.332 -0.0924,0.2664 -0.402,0.3688 -0.612,0.2024 -0.1616,-0.1284 -0.7187996,-0.0292 -0.8895996,0.1588 -0.0716,0.0784 -0.178,0.2848 -0.236,0.4576 -0.1,0.2984 -0.1292,0.3168 -0.5772,0.36 -0.4472,0.0436 -0.4904,0.0292 -0.812,-0.2672 -0.3588,-0.3304 -0.4196,-0.5832 -0.2468,-1.0184 0.0768,-0.1928 0.1336,-0.2244 0.3384,-0.1868 0.4056,0.074 0.5656,-0.0668 0.5656,-0.5 0,-0.21 -0.0408,-0.4064 -0.0908,-0.436 -0.0496,-0.0296 -0.0904,-0.1408 -0.0904,-0.2476 0,-0.1068 -0.0512,-0.2444 -0.1132,-0.3048 -0.0908,-0.088 -0.0776,-0.1352 0.0672,-0.2376 0.0992,-0.07 0.2624,-0.1172 0.3624,-0.105201 0.0996,0.012 0.3752,-0.0312 0.6124,-0.0956 0.3428,-0.0924 0.4436,-0.1624 0.49,-0.3428 0.088,-0.342401 0.3027996,-0.617201 0.4827996,-0.617201 0.2844,0 0.2904,-0.6687995 0.014,-1.6415995 -0.0408,-0.1436 -0.1532,-0.2348 -0.3515996,-0.284 -0.1608,-0.04 -0.3356,-0.1496 -0.3884,-0.24392 -0.0524,-0.09432 -0.1488,-0.17112 -0.214,-0.17112 -0.0652,0 -0.1928,-0.07808 -0.2828,-0.17344 -0.0908,-0.096 -0.2784,-0.17344 -0.4212,-0.17344 -0.338,0 -0.3436,-0.23272 -0.0084,-0.35544 0.354,-0.12976 0.9052,0.04032 1.0384,0.32028 0.1804,0.37964 0.3808,0.22124 0.4451996,-0.35232 0.0796,-0.7094 0.3244,-0.91328 1.096,-0.91328 h 0.5548 l -0.2432,-0.24296 c -0.0756,-0.07584 -0.1384,-0.16852 -0.182,-0.259399 z m 2.876,0.25156 c -0.0156,0.01408 -0.0308,0.0256 -0.046,0.0414 -0.1856,0.18944 -0.2728,0.21644 -0.5596,0.17268 -0.5008,-0.07636 -0.4364,0.12528 0.118,0.36876 0.2996,0.13164 0.4924,0.28172 0.558,0.43356 0.316,0.73264 0.5336,1.12708 0.6428,1.16708 0.2208,0.0812 0.3524,-0.08176 0.4016,-0.49832 0.0564,-0.47792 0.218,-0.57924 0.5084,-0.31796 0.1128,0.1014 0.2704,0.18436 0.35,0.18436 0.2484,0 0.432,0.09972 0.432,0.2344 0,0.07096 0.084,0.24196 0.1868,0.38032 0.1516,0.2036 0.2544,0.2524 0.5376,0.2524 0.3476,0 0.5608,0.0652 0.996,0.3056 0.0068,0.0036 0.0136,0.0048 0.0204,0.0084 a 8,8 0 0 0 -4.146,-2.73268 z M 4.0015984,13.96572 a 8,8 0 0 0 -0.00156,0.0344 8,8 0 0 0 0.15624,1.5368 c 0.28984,0.118 0.36992,0.0712 0.4,-0.1984 0.01556,-0.1396 0.08844,-0.2976 0.16252,-0.3524 0.11444,-0.0844 0.0938,-0.1276 -0.14064,-0.2876 -0.15176,-0.1036 -0.30132,-0.2844 -0.33204,-0.4016 -0.02976,-0.1136 -0.1304,-0.237601 -0.24452,-0.3312 z m 2.51804,2.6444 c -0.0748,-0.0076 -0.16492,0.0324 -0.26492,0.1284 -0.21156,0.202399 -0.1796,0.6092 0.06016,0.769999 0.27476,0.1844 0.38076,0.1308 0.41556,-0.2092 0.0428,-0.4192 -0.0468,-0.672 -0.2108,-0.689199 z m 1.3576,1.2096 c -0.0816,0.0028 -0.1716,0.0612 -0.2616,0.1844 -0.0956,0.130399 -0.1216,0.2988 -0.0852,0.5544 0.0452,0.3144 0.0256,0.3816 -0.1388,0.465999 -0.2116,0.108001 -0.2568,0.4296 -0.0836,0.595201 0.172,0.1648 0.336,0.1216 0.3952,-0.104 0.084,-0.3216 0.5548,-0.3592 0.8764,-0.0704 0.1372,0.1232 0.2492,0.1856 0.2492,0.1384 0,-0.0472 -0.1428,-0.218799 -0.3172,-0.3804 -0.2668,-0.247999 -0.3164,-0.3536 -0.3164,-0.6728 0,-0.4504 -0.138,-0.7164 -0.318,-0.710799 z m -2.22956,1.0328 a 8,8 0 0 0 0.18516,0.2336 c -0.05452,-0.0844 -0.11676,-0.1652 -0.18516,-0.2336 z m 2.69596,1.227999 c -0.0404,0.014 -0.0576,0.0648 -0.0576,0.154 0,0.0904 -0.0576,0.185201 -0.128,0.2108 -0.0936,0.0344 -0.1152,0.1428 -0.0792,0.401601 0.0068,0.0484 0.0088,0.0872 0.0112,0.1276 a 8,8 0 0 0 0.3328,0.1708 c -0.0056,-0.1384 0.0196,-0.3012 0.092,-0.505201 0.1228,-0.346399 0.1272,-0.433199 0.0272,-0.494 -0.0936,-0.0568 -0.1576,-0.0796 -0.1984,-0.0656 z"/>
 <circle style="opacity:0.2" cx="24" cy="25" r="18"/>
 <path style="opacity:0.1;fill:#f4f4f7" d="M 12,6 A 8,8 0 0 0 4,14 8,8 0 0 0 4.0214844,14.576172 8,8 0 0 1 12,7 8,8 0 0 1 19.978516,14.423828 8,8 0 0 0 20,14 8,8 0 0 0 12,6 Z"/>
 <circle style="fill:#bb694b" cx="24" cy="24" r="18"/>
 <path style="opacity:0.2" d="m 22.299896,6.0966588 a 18,18 0 0 0 -6.5142,1.88964 c 0.0909,0.28809 -0.0153,0.61308 -0.3465,0.9 -0.2241,0.19422 -0.4077,0.49671 -0.4077,0.67329 0,0.5397302 0.4878,1.3684502 0.8775,1.4888702 0.5175,0.1602 0.3438,0.71244 -0.3222,1.01754 -0.3078,0.1413 -0.6867,0.5481 -0.8415,0.9036 -0.1557,0.3564 -0.3843,0.7074 -0.5085,0.7803 -0.1233,0.0738 -0.225,0.3519 -0.225,0.6192 0,0.3735 0.171,0.5544 0.7317,0.7785 0.4014,0.1611 0.882,0.2781 1.0683,0.2601 1.0719,-0.1008 1.1466,0.5238 0.2097,1.7442 -0.4977,0.648 -0.7371,0.8109 -1.0764,0.729 -0.3159,-0.0756 -0.4887,0.0135 -0.6327,0.3267 -0.1512,0.3321 -0.3996,0.4446 -1.0665,0.4905 -0.6561,0.0459 -0.9495,0.1791 -1.1952,0.5382 -0.18,0.2619 -0.4392,0.4743 -0.5769,0.4743 -0.13806,0 -0.46224,0.1764 -0.72072,0.3906 -0.52596,0.4365 -0.73134,0.4806 -0.9157496,0.1953 -0.24372,-0.378 -0.76959,-0.1872 -1.55214,0.5625 -0.6921,0.6624 -0.77589,0.8397 -0.67149,1.4148 0.18576,1.0233 0.74079,1.9314 1.37457,2.2482 0.55305,0.2763 0.56385,0.306 0.22851,0.6606 -0.19287,0.2043 -0.5238,0.423 -0.73476,0.4869 -0.6093,0.1854 -0.26631,0.4176 0.82089,0.5562 1.1127596,0.1413 1.4585396,0.5445 0.9386996,1.0944 -0.2898896,0.3069 -0.2735996,0.3645 0.19161,0.6561 0.909,0.5706 1.63188,0.2214 0.77868,-0.3762 -0.54837,-0.3843 -0.16488,-0.5409 0.6399,-0.2619 0.6417,0.2223 0.7686,0.2097 1.1475,-0.1197 0.7785,-0.6741 1.6245,0.3231 0.9126,1.0755 -0.4527,0.4797 -0.3159,1.0575 0.2709,1.1376 0.2592,0.0351 0.7974,0.2763 1.197,0.5364 0.3996,0.2592 0.8352,0.4725 0.9666,0.4725 0.1314,0 0.5022,0.2637 0.8244,0.5859 0.6534,0.6525 1.0161,0.7353 1.2006,0.2754 0.2214,-0.5526 0.1323,-0.8379 -0.4644,-1.4886 -0.4743,-0.5184 -1.2456,-1.8954 -1.2456,-2.2257 0,-0.2034 0.7839,-0.0306 1.2231,0.2691 0.2745,0.1881 0.7191,0.4302 0.9882,0.54 0.2862,0.117 0.5832,0.4806 0.7191,0.8784 0.2115,0.6246 0.2952,0.6786 1.044,0.6786 h 0.8136 l 0.1233,1.4625 c 0.1476,1.7595 0.2889,2.1159 0.8928,2.2608 0.4446,0.1071 0.9189,0.7956 0.9189,1.3338 0,0.1431 -0.3195,0.4941 -0.7101,0.7794 -0.4842,0.3537 -0.693,0.6543 -0.6606,0.9486 0.0405,0.3681 -0.0432,0.4257 -0.5643,0.387 -0.3357,-0.0252 -0.9189,0.0927 -1.2933,0.2619 -0.4437,0.1998 -0.9243,0.2637 -1.3752,0.1827 -0.5184,-0.0927 -0.6939,-0.0567 -0.6939,0.1458 0,0.1494 -0.1818,0.4284 -0.4032,0.621 -0.5472,0.4743 -0.3213,0.7254 0.5193,0.5742 0.522,-0.0936 0.7254,-0.0522 0.8154,0.1728 0.1917,0.4779 -0.2943,1.1619 -0.7452,1.0494 -0.2862,-0.072 -0.423,0.0261 -0.5121,0.3636 -0.0306,0.1197 -0.0873,0.2214 -0.1548,0.3078 a 18,18 0 0 0 2.8485,0.8415 c -0.09,-0.1719 -0.1926,-0.3285 -0.2925,-0.3987 -0.4635,-0.3276 -0.153,-1.179 0.4851,-1.332 0.6507,-0.1566 0.5481,-0.5787 -0.1593,-0.6597 -0.6201,-0.0702 -1.2798,-0.6984 -1.0728,-1.0197 0.1395,-0.2151 0.7326,-0.1836 1.9323,0.1008 0.5418,0.1278 0.9117,-0.1296 2.1672,-1.503 0.7263,-0.7956 1.2852,-1.1268 1.8981,-1.1268 0.234,0 1.0683,-0.2151 1.8549,-0.4779 1.485,-0.4977 2.0655,-0.4797 2.0106,0.063 -0.1134,1.1286 0.6129,1.0908 1.7964,-0.0918 0.4932,-0.4923 0.9441,-0.8487 1.0026,-0.7929 0.2259,0.2169 -0.1809,1.2726 -0.6561,1.7001 -0.6021,0.5418 -0.6318,0.8838 -0.1017,1.1547 0.2898,0.1494 0.4131,0.4509 0.459,1.1286 l 0.0612,0.9252 h 0.7524 c 0.2637,0 0.4824,0.036 0.6588,0.1035 a 18,18 0 0 0 8.721,-14.8554 c -0.2754,-0.5886 -0.2556,-0.9441 0,-1.3446 a 18,18 0 0 0 -0.081,-1.0089 c -0.1638,-0.0081 -0.3312,-0.0153 -0.5238,-0.0072 -0.9072,0.0378 -1.6839,-0.3195 -1.6839,-0.7749 0,-0.0963 -0.3222,-0.4932 -0.7155,-0.8811 -0.4464,-0.4392 -0.675,-0.828 -0.6084,-1.0296 0.0612,-0.1836 -0.0702,-0.4797 -0.3024,-0.6804 -0.2259,-0.1962 -0.4113,-0.5112 -0.4113,-0.7002 0,-0.3015 -0.1917,-0.3393 -1.5786,-0.306 l -1.5786,0.0387 0.027,1.5561 c 0.0468,2.7252 0.4527,3.4326 1.7046,2.9763 0.5733,-0.2097 1.9818,-0.0513 2.3823,0.2664 0.1449,0.1152 0.3546,0.5328 0.4653,0.9288 0.1116,0.3951 0.5238,1.08 0.918,1.5201 0.7974,0.8928 0.8595,1.2411 0.4023,2.2887 -0.3987,0.9144 -0.8289,0.8091 -0.7434,-0.1827 l 0.063,-0.738 -0.675,0.126 c -0.3735,0.0711 -0.8415,0.3465 -1.0512,0.6192 -0.2988,0.3879 -0.4383,0.4446 -0.6624,0.2673 -0.1566,-0.1242 -0.2835,-0.3861 -0.2835,-0.5805 0,-0.1944 -0.1926,-0.4104 -0.4266,-0.4815 -0.2349,-0.0711 -0.5562,-0.4248 -0.7137,-0.7875 -0.2529,-0.5796 -0.2466,-0.7569 0.0477,-1.4607 0.2979,-0.7137 0.3006,-0.8316 0.0261,-1.0953 -0.252,-0.2412 -0.3825,-0.2493 -0.7137,-0.0504 -0.333,0.1989 -0.4905,0.1845 -0.8865,-0.081 -0.2637,-0.1773 -0.7254,-0.324 -1.0242,-0.324 -0.6075,0 -0.7911,-0.2952 -0.7911,-1.2726 0,-0.9027 -0.5382,-1.2303 -1.8198,-1.1124 -0.8892,0.0819 -1.0854,0.0234 -1.8027,-0.5292 -0.4437,-0.3411 -1.1439,-1.1619 -1.5579,-1.8261 -0.414,-0.6642 -0.8595,-1.3581 -0.99,-1.5417 -0.1872,-0.2655 -0.1413,-0.5202 0.225,-1.2429 l 0.4626,-0.909 -0.9774,0.1323 c -1.7388,0.2349 -2.0907,0.4599 -1.3428,0.8613 0.2916,0.1557 0.3042,0.2358 0.0792,0.4959 -0.1476,0.1692 -0.2169,0.4383 -0.153,0.5976 0.0639,0.1584 -0.0171,0.5328 -0.1791,0.8307 -0.1629,0.2988 -0.2988,0.7173 -0.3042,0.9324 -0.0171,0.6705 -1.1655,1.2042 -2.4453,1.1331 -1.9386,-0.1071 -2.0961,-0.0765 -2.7846,0.5625 -0.8604,0.7992 -0.9711,1.1709 -0.5706,1.9125 0.3879,0.72 1.0773,1.0071 2.2707,0.9477 1.0674,-0.0531 1.188,0.0414 0.9441,0.747 -0.2079,0.5994 -0.9045,0.8298 -1.377,0.4554 -0.3636,-0.2889 -1.6173,-0.0657 -2.0016,0.3573 -0.1611,0.1764 -0.4005,0.6408 -0.531,1.0296 -0.225,0.6714 -0.2907,0.7128 -1.2987,0.81 -1.0062,0.0981 -1.1034,0.0657 -1.827,-0.6012 -0.8073,-0.7434 -0.9441,-1.3122 -0.5553,-2.2914 0.1728,-0.4338 0.3006,-0.5049 0.7614,-0.4203 0.9126,0.1665 1.2726,-0.1503 1.2726,-1.125 0,-0.4725 -0.0918,-0.9144 -0.2043,-0.981 -0.1116,-0.0666 -0.2034,-0.3168 -0.2034,-0.5571 0,-0.2403 -0.1152,-0.5499 -0.2547,-0.6858 -0.2043,-0.198 -0.1746,-0.3042 0.1512,-0.5346 0.2232,-0.1575 0.5904,-0.2637 0.8154,-0.2367 0.2241,0.027 0.8442,-0.0702 1.3779,-0.2151 0.7713,-0.2079 0.9981,-0.3654 1.1025,-0.7713 0.198,-0.7704 0.6813,-1.3887 1.0863,-1.3887 0.6399,0 0.6534,-1.5048 0.0315,-3.6936 -0.0918,-0.3231 -0.3447,-0.5283 -0.7911,-0.639 -0.3618,-0.09 -0.7551,-0.3366 -0.8739,-0.54882 -0.1179,-0.21222 -0.3348,-0.38502 -0.4815,-0.38502 -0.1467,0 -0.4338,-0.17568 -0.6363,-0.39024 -0.2043,-0.216 -0.6264,-0.39024 -0.9477,-0.39024 -0.7605,0 -0.7731,-0.5236202 -0.0189,-0.7997402 0.7965,-0.29196 2.0367,0.09072 2.3364,0.7206302 0.4059,0.85419 0.8568,0.49779 1.0017,-0.7927202 0.1791,-1.59615 0.7299,-2.05488 2.466,-2.05488 h 1.2483 l -0.5472,-0.54666 c -0.1701,-0.17064 -0.3114,-0.37917 -0.4095,-0.58365 z m 6.471,0.56601 c -0.0351,0.03168 -0.0693,0.0576 -0.1035,0.09315 -0.4176,0.42624 -0.6138,0.48699 -1.2591,0.38853 -1.1268,-0.17181 -0.9819,0.28188 0.2655,0.82971 0.6741,0.29619 1.1079,0.63387 1.2555,0.97551 0.711,1.6484402 1.2006,2.5359302 1.4463,2.6259302 0.4968,0.1827 0.7929,-0.18396 0.9036,-1.12122 0.1269,-1.0753202 0.4905,-1.3032902 1.1439,-0.7154102 0.2538,0.22815 0.6084,0.4148102 0.7875,0.4148102 0.5589,0 0.972,0.22437 0.972,0.5274 0,0.15966 0.189,0.54441 0.4203,0.85572 0.3411,0.4581 0.5724,0.5679 1.2096,0.5679 0.7821,0 1.2618,0.1467 2.241,0.6876 0.0153,0.0081 0.0306,0.0108 0.0459,0.0189 a 18,18 0 0 0 -9.3285,-6.1485302 z M 6.0035964,23.922869 a 18,18 0 0 0 -0.00351,0.0774 18,18 0 0 0 0.35154,3.4578 c 0.65214,0.2655 0.83232,0.1602 0.9,-0.4464 0.03501,-0.3141 0.19899,-0.6696 0.36567,-0.7929 0.25749,-0.1899 0.21105,-0.2871 -0.31644,-0.6471 -0.34146,-0.2331 -0.67797,-0.6399 -0.74709,-0.9036 -0.06696,-0.2556 -0.2934,-0.5346 -0.55017,-0.7452 z m 5.6655896,5.9499 c -0.1683,-0.0171 -0.37107,0.0729 -0.59607,0.2889 -0.47601,0.4554 -0.4041,1.3707 0.13536,1.7325 0.61821,0.4149 0.85671,0.2943 0.93501,-0.4707 0.0963,-0.9432 -0.1053,-1.512 -0.4743,-1.5507 z m 3.0546,2.7216 c -0.1836,0.0063 -0.3861,0.1377 -0.5886,0.4149 -0.2151,0.2934 -0.2736,0.6723 -0.1917,1.2474 0.1017,0.7074 0.0576,0.8586 -0.3123,1.0485 -0.4761,0.243 -0.5778,0.9666 -0.1881,1.3392 0.387,0.3708 0.756,0.2736 0.8892,-0.234 0.189,-0.7236 1.2483,-0.8082 1.9719,-0.1584 0.3087,0.2772 0.5607,0.4176 0.5607,0.3114 0,-0.1062 -0.3213,-0.4923 -0.7137,-0.8559 -0.6003,-0.558 -0.7119,-0.7956 -0.7119,-1.5138 0,-1.0134 -0.3105,-1.6119 -0.7155,-1.5993 z m -5.0165096,2.3238 a 18,18 0 0 0 0.4166096,0.5256 c -0.12267,-0.1899 -0.2627096,-0.3717 -0.4166096,-0.5256 z m 6.0659096,2.763 c -0.0909,0.0315 -0.1296,0.1458 -0.1296,0.3465 0,0.2034 -0.1296,0.4167 -0.288,0.4743 -0.2106,0.0774 -0.2592,0.3213 -0.1782,0.9036 0.0153,0.1089 0.0198,0.1962 0.0252,0.2871 a 18,18 0 0 0 0.7488,0.3843 c -0.0126,-0.3114 0.0441,-0.6777 0.207,-1.1367 0.2763,-0.7794 0.2862,-0.9747 0.0612,-1.1115 -0.2106,-0.1278 -0.3546,-0.1791 -0.4464,-0.1476 z"/>
 <circle style="opacity:0.2" cx="32" cy="29" r="6"/>
 <circle style="fill:#eea788" cx="32" cy="28" r="6"/>
 <path style="opacity:0.2" d="m 31.433299,22.032219 a 6,6 0 0 0 -2.1714,0.62988 c 0.0303,0.09603 -0.0051,0.20436 -0.1155,0.3 -0.0747,0.06474 -0.1359,0.16557 -0.1359,0.22443 0,0.17991 0.1626,0.45615 0.2925,0.49629 0.1725,0.0534 0.1146,0.23748 -0.1074,0.33918 -0.1026,0.0471 -0.2289,0.1827 -0.2805,0.3012 -0.0519,0.118801 -0.1281,0.2358 -0.1695,0.2601 -0.0411,0.0246 -0.075,0.1173 -0.075,0.2064 0,0.1245 0.057,0.1848 0.2439,0.2595 0.1338,0.0537 0.294,0.0927 0.3561,0.0867 0.3573,-0.0336 0.3822,0.1746 0.0699,0.5814 -0.1659,0.216 -0.2457,0.2703 -0.3588,0.243 -0.1053,-0.0252 -0.1629,0.0045 -0.2109,0.1089 -0.0504,0.1107 -0.1332,0.1482 -0.3555,0.1635 -0.2187,0.0153 -0.3165,0.0597 -0.3984,0.1794 -0.06,0.0873 -0.1464,0.1581 -0.1923,0.1581 -0.04602,0 -0.15408,0.0588 -0.24024,0.1302 -0.17532,0.1455 -0.24378,0.1602 -0.30525,0.0651 -0.08124,-0.126 -0.25653,-0.0624 -0.51738,0.1875 -0.2307,0.2208 -0.25863,0.2799 -0.22383,0.4716 0.06192,0.3411 0.24693,0.6438 0.45819,0.7494 0.18435,0.0921 0.18795,0.102 0.07617,0.2202 -0.06429,0.0681 -0.1746,0.141 -0.24492,0.1623 -0.2031,0.0618 -0.08877,0.1392 0.27363,0.1854 0.37092,0.0471 0.48618,0.1815 0.3129,0.3648 -0.09663,0.1023 -0.0912,0.1215 0.06387,0.2187 0.303,0.1902 0.54396,0.0738 0.25956,-0.1254 -0.18279,-0.1281 -0.05496,-0.1803 0.2133,-0.0873 0.2139,0.0741 0.2562,0.0699 0.3825,-0.0399 0.2595,-0.2247 0.5415,0.1077 0.3042,0.3585 -0.1509,0.1599 -0.1053,0.3525 0.0903,0.3792 0.0864,0.0117 0.2658,0.0921 0.399,0.1788 0.1332,0.0864 0.2784,0.1575 0.3222,0.1575 0.0438,0 0.1674,0.0879 0.2748,0.1953 0.2178,0.2175 0.3387,0.2451 0.4002,0.0918 0.0738,-0.1842 0.0441,-0.2793 -0.1548,-0.4962 -0.1581,-0.1728 -0.4152,-0.6318 -0.4152,-0.7419 0,-0.0678 0.2613,-0.0102 0.4077,0.0897 0.0915,0.0627 0.2397,0.1434 0.3294,0.18 0.0954,0.039 0.1944,0.1602 0.2397,0.2928 0.0705,0.2082 0.0984,0.2262 0.348,0.2262 h 0.2712 l 0.0411,0.4875 c 0.0492,0.5865 0.0963,0.7053 0.2976,0.753601 0.1482,0.0357 0.3063,0.2652 0.3063,0.444599 0,0.0477 -0.1065,0.1647 -0.2367,0.2598 -0.1614,0.1179 -0.231,0.2181 -0.2202,0.316201 0.0135,0.122699 -0.0144,0.141899 -0.1881,0.128999 -0.1119,-0.0084 -0.3063,0.0309 -0.4311,0.0873 -0.1479,0.0666 -0.3081,0.0879 -0.4584,0.0609 -0.1728,-0.0309 -0.2313,-0.0189 -0.2313,0.0486 0,0.0498 -0.0606,0.1428 -0.1344,0.207 -0.1824,0.158101 -0.1071,0.2418 0.1731,0.1914 0.174,-0.0312 0.2418,-0.0174 0.2718,0.0576 0.0639,0.1593 -0.0981,0.3873 -0.2484,0.3498 -0.0954,-0.024 -0.141,0.0087 -0.1707,0.1212 -0.0102,0.0399 -0.0291,0.0738 -0.0516,0.1026 a 6,6 0 0 0 0.9495,0.2805 c -0.03,-0.0573 -0.0642,-0.1095 -0.0975,-0.1329 -0.1545,-0.109199 -0.051,-0.393 0.1617,-0.444 0.2169,-0.0522 0.1827,-0.1929 -0.0531,-0.2199 -0.2067,-0.0234 -0.4266,-0.2328 -0.3576,-0.3399 0.0465,-0.0717 0.2442,-0.0612 0.6441,0.0336 0.1806,0.0426 0.3039,-0.0432 0.7224,-0.501 0.2421,-0.2652 0.4284,-0.375599 0.6327,-0.375599 0.078,0 0.3561,-0.0717 0.6183,-0.159301 0.495,-0.1659 0.6885,-0.1599 0.6702,0.021 -0.0378,0.3762 0.2043,0.3636 0.5988,-0.0306 0.1644,-0.164099 0.3147,-0.282899 0.3342,-0.264299 0.0753,0.0723 -0.0603,0.424199 -0.2187,0.566699 -0.2007,0.1806 -0.2106,0.294601 -0.0339,0.3849 0.0966,0.0498 0.1377,0.150301 0.153,0.3762 l 0.0204,0.308401 h 0.2508 c 0.0879,0 0.1608,0.012 0.2196,0.0345 a 6,6 0 0 0 2.907,-4.9518 c -0.0918,-0.196199 -0.0852,-0.314699 0,-0.4482 a 6,6 0 0 0 -0.027,-0.336299 c -0.0546,-0.0027 -0.1104,-0.0051 -0.1746,-0.0024 -0.3024,0.0126 -0.5613,-0.106501 -0.5613,-0.2583 0,-0.0321 -0.1074,-0.1644 -0.2385,-0.293701 -0.1488,-0.1464 -0.225,-0.276 -0.2028,-0.343199 0.0204,-0.0612 -0.0234,-0.159901 -0.1008,-0.2268 -0.0753,-0.0654 -0.1371,-0.1704 -0.1371,-0.233401 0,-0.100499 -0.0639,-0.113099 -0.5262,-0.101999 l -0.5262,0.0129 0.009,0.5187 c 0.0156,0.9084 0.1509,1.144199 0.5682,0.9921 0.1911,-0.0699 0.6606,-0.0171 0.7941,0.0888 0.0483,0.0384 0.1182,0.177599 0.1551,0.309599 0.0372,0.1317 0.1746,0.36 0.306,0.5067 0.2658,0.297601 0.2865,0.4137 0.1341,0.762901 -0.1329,0.3048 -0.2763,0.2697 -0.2478,-0.0609 l 0.021,-0.245999 -0.225,0.042 c -0.1245,0.0237 -0.2805,0.115501 -0.3504,0.2064 -0.0996,0.1293 -0.1461,0.148201 -0.2208,0.0891 -0.0522,-0.0414 -0.0945,-0.128701 -0.0945,-0.193501 0,-0.0648 -0.0642,-0.1368 -0.1422,-0.160499 -0.0783,-0.0237 -0.1854,-0.141601 -0.2379,-0.262501 -0.0843,-0.193199 -0.0822,-0.2523 0.0159,-0.4869 0.0993,-0.2379 0.1002,-0.2772 0.0087,-0.365099 -0.084,-0.0804 -0.1275,-0.0831 -0.2379,-0.0168 -0.111,0.0663 -0.1635,0.0615 -0.2955,-0.027 -0.0879,-0.0591 -0.2418,-0.108 -0.3414,-0.108 -0.2025,0 -0.2637,-0.0984 -0.2637,-0.424199 0,-0.300901 -0.1794,-0.4101 -0.6066,-0.370801 -0.2964,0.0273 -0.3618,0.0078 -0.6009,-0.1764 -0.1479,-0.1137 -0.3813,-0.3873 -0.5193,-0.6087 -0.138,-0.2214 -0.2865,-0.4527 -0.33,-0.5139 -0.0624,-0.0885 -0.0471,-0.1734 0.075,-0.4143 l 0.1542,-0.303 -0.3258,0.0441 c -0.5796,0.0783 -0.6969,0.1533 -0.4476,0.2871 0.0972,0.0519 0.1014,0.0786 0.0264,0.1653 -0.0492,0.0564 -0.0723,0.1461 -0.051,0.1992 0.0213,0.0528 -0.0057,0.1776 -0.0597,0.2769 -0.0543,0.0996 -0.0996,0.2391 -0.1014,0.3108 -0.0057,0.2235 -0.3885,0.4014 -0.8151,0.3777 -0.6462,-0.0357 -0.6987,-0.0255 -0.9282,0.1875 -0.2868,0.2664 -0.3237,0.3903 -0.1902,0.6375 0.1293,0.24 0.3591,0.3357 0.7569,0.3159 0.3558,-0.0177 0.396,0.0138 0.3147,0.249 -0.0693,0.1998 -0.3015,0.2766 -0.459,0.1518 -0.1212,-0.0963 -0.5391,-0.0219 -0.6672,0.1191 -0.0537,0.0588 -0.1335,0.2136 -0.177,0.3432 -0.075,0.2238 -0.0969,0.2376 -0.4329,0.27 -0.3354,0.0327 -0.3678,0.0219 -0.609,-0.2004 -0.2691,-0.2478 -0.3147,-0.4374 -0.1851,-0.7638 0.0576,-0.1446 0.1002,-0.1683 0.2538,-0.1401 0.3042,0.0555 0.4242,-0.0501 0.4242,-0.375 0,-0.1575 -0.0306,-0.304799 -0.0681,-0.327 -0.0372,-0.0222 -0.0678,-0.1056 -0.0678,-0.1857 0,-0.0801 -0.0384,-0.1833 -0.0849,-0.2286 -0.0681,-0.066 -0.0582,-0.1014 0.0504,-0.1782 0.0744,-0.0525 0.1968,-0.0879 0.2718,-0.0789 0.0747,0.009 0.2814,-0.0234 0.4593,-0.0717 0.2571,-0.0693 0.3327,-0.1218 0.3675,-0.2571 0.066,-0.2568 0.2271,-0.4629 0.3621,-0.4629 0.2133,0 0.2178,-0.5016 0.0105,-1.2312 -0.0306,-0.1077 -0.1149,-0.1761 -0.2637,-0.213 -0.1206,-0.03 -0.2517,-0.1122 -0.2913,-0.18294 -0.0393,-0.07074 -0.1116,-0.12834 -0.1605,-0.12834 -0.0489,0 -0.1446,-0.05856 -0.2121,-0.13008 -0.0681,-0.072 -0.2088,-0.13008 -0.3159,-0.13008 -0.2535,0 -0.2577,-0.17454 -0.0063,-0.26658 0.2655,-0.09732 0.6789,0.03024 0.7788,0.24021 0.1353,0.28473 0.2856,0.16593 0.3339,-0.26424 0.0597,-0.53205 0.2433,-0.68496 0.822,-0.68496 h 0.4161 l -0.1824,-0.18222 c -0.0567,-0.05688 -0.1038,-0.12639 -0.1365,-0.19455 z m 2.157,0.18867 c -0.0117,0.01056 -0.0231,0.0192 -0.0345,0.03105 -0.1392,0.14208 -0.2046,0.16233 -0.4197,0.12951 -0.3756,-0.05727 -0.3273,0.09396 0.0885,0.27657 0.2247,0.09873 0.3693,0.21129 0.4185,0.32517 0.237,0.54948 0.4002,0.84531 0.4821,0.87531 0.1656,0.0609 0.2643,-0.06132 0.3012,-0.37374 0.0423,-0.35844 0.1635,-0.43443 0.3813,-0.23847 0.0846,0.07605 0.2028,0.13827 0.2625,0.13827 0.1863,0 0.324,0.07479 0.324,0.1758 0,0.05322 0.063,0.18147 0.1401,0.28524 0.1137,0.1527 0.1908,0.1893 0.4032,0.1893 0.2607,0 0.4206,0.0489 0.747,0.2292 0.0051,0.0027 0.0102,0.0036 0.0153,0.0063 a 6,6 0 0 0 -3.1095,-2.04951 z m -7.5891,5.7534 a 6,6 0 0 0 -0.0012,0.0258 6,6 0 0 0 0.11718,1.1526 c 0.21738,0.0885 0.27744,0.0534 0.3,-0.1488 0.01167,-0.1047 0.06633,-0.2232 0.12189,-0.2643 0.08583,-0.0633 0.07035,-0.0957 -0.10548,-0.2157 -0.11382,-0.0777 -0.22599,-0.2133 -0.24903,-0.3012 -0.02232,-0.0852 -0.0978,-0.1782 -0.18339,-0.2484 z m 1.88853,1.9833 c -0.0561,-0.0057 -0.12369,0.0243 -0.19869,0.0963 -0.15867,0.1518 -0.1347,0.456901 0.04512,0.5775 0.20607,0.1383 0.28557,0.0981 0.31167,-0.1569 0.0321,-0.3144 -0.0351,-0.504 -0.1581,-0.5169 z m 1.0182,0.9072 c -0.0612,0.0021 -0.1287,0.0459 -0.1962,0.1383 -0.0717,0.0978 -0.0912,0.2241 -0.0639,0.4158 0.0339,0.2358 0.0192,0.2862 -0.1041,0.3495 -0.1587,0.081 -0.1926,0.3222 -0.0627,0.4464 0.129,0.1236 0.252,0.0912 0.2964,-0.078 0.063,-0.2412 0.4161,-0.2694 0.6573,-0.0528 0.1029,0.0924 0.1869,0.139199 0.1869,0.103799 0,-0.0354 -0.1071,-0.1641 -0.2379,-0.2853 -0.2001,-0.186 -0.2373,-0.2652 -0.2373,-0.5046 0,-0.3378 -0.1035,-0.5373 -0.2385,-0.5331 z m -1.67217,0.7746 a 6,6 0 0 0 0.13887,0.1752 c -0.04089,-0.0633 -0.08757,-0.123899 -0.13887,-0.1752 z m 2.02197,0.921 c -0.0303,0.0105 -0.0432,0.0486 -0.0432,0.1155 0,0.0678 -0.0432,0.1389 -0.096,0.158101 -0.0702,0.0258 -0.0864,0.107099 -0.0594,0.301199 0.0051,0.0363 0.0066,0.0654 0.0084,0.0957 a 6,6 0 0 0 0.2496,0.1281 c -0.0042,-0.1038 0.0147,-0.2259 0.069,-0.3789 0.0921,-0.2598 0.0954,-0.3249 0.0204,-0.3705 -0.0702,-0.0426 -0.1182,-0.0597 -0.1488,-0.0492 z"/>
 <path style="opacity:0.2;fill:#f4f4f7" d="M 24,6 A 18,18 0 0 0 6,24 18,18 0 0 0 6.0214844,24.585938 18,18 0 0 1 24,7 18,18 0 0 1 41.978516,24.414062 18,18 0 0 0 42,24 18,18 0 0 0 24,6 Z"/>
 <path style="opacity:0.2;fill:#f4f4f7" d="m 32,22 a 6,6 0 0 0 -6,6 6,6 0 0 0 0.02539,0.498047 A 6,6 0 0 1 32,23 6,6 0 0 1 37.974609,28.501953 6,6 0 0 0 38,28 6,6 0 0 0 32,22 Z"/>
</svg>
