<svg xmlns="http://www.w3.org/2000/svg" width="48" height="48" version="1">
 <path style="opacity:0.2" d="m 24.107422,5.0018151 c -0.837807,-0.020189 -1.664616,0.188479 -2.390625,0.6054688 L 8.2832031,13.333846 C 6.8703751,14.146271 5.9998971,15.648305 6,17.2733 v 15.453124 c -5e-7,1.127956 0.4271632,2.189983 1.15625,3.009766 a 4.5656761,4.5479 0 0 0 0.085937,0.09961 c 0.074725,0.07928 0.1537546,0.154461 0.234375,0.228515 a 4.5656761,4.5479 0 0 0 0.15625,0.136719 c 0.074186,0.06216 0.1480635,0.123985 0.2265625,0.18164 a 4.5656761,4.5479 0 0 0 0.4238281,0.28125 l 13.4335934,7.726563 a 4.5656761,4.5479 0 0 0 4.566407,0 L 39.716797,36.663924 A 4.5656761,4.5479 0 0 0 42,32.726424 V 17.2733 a 4.5656761,4.5479 0 0 0 -0.03711,-0.541016 c -0.0069,-0.05778 -0.01627,-0.114619 -0.02539,-0.171875 a 4.5656761,4.5479 0 0 0 -0.06836,-0.341797 c -0.01858,-0.07758 -0.03797,-0.154221 -0.06055,-0.230469 A 4.5656761,4.5479 0 0 0 41.72265,15.73619 C 41.69092,15.64839 41.662,15.559985 41.62499,15.474471 a 4.5656761,4.5479 0 0 0 -0.01563,-0.03516 l -0.002,0.002 C 41.22227,14.57121 40.571016,13.82513 39.716735,13.333889 L 26.283203,5.6072839 C 25.620645,5.2267837 24.872004,5.0193978 24.107422,5.0018151 Z"/>
 <path style="fill:#add439" d="m 24.107422,4.0019531 c -0.0661,-0.00159 -0.131351,0.00657 -0.197266,0.00781 L 23.953125,13.580078 24,24 l 9.046875,-5.169922 8.353516,-4.771484 c -0.393912,-0.702487 -0.95982,-1.308414 -1.683594,-1.72461 L 26.283203,4.6074219 C 25.620645,4.2269217 24.872004,4.0195358 24.107422,4.0019531 Z"/>
 <path style="fill:#ac1248" d="M 6.6796875,13.896484 C 6.2457517,14.600737 5.9999459,15.418669 6,16.273438 V 24 31.726562 c -4e-7,0.856048 0.2482142,1.671975 0.6855469,2.375 L 15,29.25 24,24 15,18.75 Z"/>
 <path style="fill:#3471b9" d="M 41.314453,13.898438 33,18.75 24,24 l 9,5.25 8.324219,4.855469 A 4.5656761,4.5479 0 0 0 42,31.726562 V 16.273438 a 4.5656761,4.5479 0 0 0 -0.03711,-0.541016 c -0.0069,-0.05778 -0.01627,-0.114619 -0.02539,-0.171875 A 4.5656761,4.5479 0 0 0 41.86914,15.21875 c -0.01858,-0.07758 -0.03797,-0.154221 -0.06055,-0.230469 a 4.5656761,4.5479 0 0 0 -0.08594,-0.251953 c -0.03173,-0.0878 -0.06065,-0.176205 -0.09766,-0.261719 a 4.5656761,4.5479 0 0 0 -0.01563,-0.03516 l -0.002,0.002 c -0.0834,-0.188435 -0.185245,-0.367495 -0.292969,-0.542968 z"/>
 <path style="fill:#86b02f" d="m 24.089844,4.0019531 c -0.83177,-0.016859 -1.652133,0.1914053 -2.373047,0.6054688 L 8.2832031,12.333984 C 7.5592847,12.750263 6.9809203,13.348627 6.5859375,14.050781 L 14.953125,18.830078 24,24 24.046875,13.580078 Z"/>
 <path style="fill:#2e90e8" d="m 24,24 -0.04687,10.419922 -0.04297,9.578125 a 4.5656761,4.5479 0 0 0 2.373047,-0.607422 l 13.433594,-7.726563 a 4.5656761,4.5479 0 0 0 1.695312,-1.714843 l -8.365234,-4.779297 z"/>
 <path style="fill:#eb2f6a" d="m 24,24 -9.046875,5.169922 -8.3535156,4.771484 c 0.1599395,0.281425 0.3402175,0.551577 0.5566406,0.794922 a 4.5656761,4.5479 0 0 0 0.085937,0.09961 c 0.074725,0.07928 0.1537546,0.154461 0.234375,0.228515 a 4.5656761,4.5479 0 0 0 0.15625,0.136719 c 0.074186,0.06216 0.1480635,0.123985 0.2265625,0.18164 a 4.5656761,4.5479 0 0 0 0.4238281,0.28125 l 13.4335934,7.726563 a 4.5656761,4.5479 0 0 0 2.373047,0.601563 l -0.04297,-9.572266 z"/>
 <path style="opacity:0.2;fill:#f4f4f7" d="m 24,24 -9.046875,5.169922 -8.3535156,4.771484 c 0.1436635,0.252787 0.3081553,0.493459 0.4960937,0.716797 L 14.953125,30.169922 24,25 l 9.046875,5.169922 7.861328,4.492187 a 4.5656761,4.5479 0 0 0 0.503906,-0.71289 l -8.365234,-4.779297 z"/>
 <path style="opacity:0.2" d="M 24,12.369235 35,18.69736 V 31.300875 L 24,37.629 13,31.300875 V 18.69736 Z"/>
 <path style="opacity:0.2" d="M 24.085938,5.0019531 24.046875,13.580078 24,24 23.953125,13.580078 23.914062,5.0097656 c -0.0013,2.98e-5 -0.0026,-2.45e-5 -0.0039,0 l 0.04297,9.5703124 0.04297,9.417969 -9.042969,-5.167969 -7.8613281,-4.490234 C 6.9028244,14.562882 6.7287506,14.796905 6.5859375,15.050781 L 14.953125,19.830078 24,25 l 9.046875,-5.169922 8.353516,-4.771484 c -0.142296,-0.253765 -0.315436,-0.488719 -0.501953,-0.712891 l -7.851563,4.484375 -9.042969,5.167969 0.04297,-9.417969 0.04297,-9.5781249 c -0.0013,-2.64e-5 -0.0026,2.54e-5 -0.0039,0 z"/>
 <path style="fill:#f4f4f7" d="m 24,11.369141 11,6.328125 V 30.300781 L 24,36.628906 13,30.300781 V 17.697266 Z"/>
 <path style="opacity:0.2;fill:#f4f4f7" d="m 24.107422,4.0019531 c -0.837807,-0.020189 -1.664616,0.188479 -2.390625,0.6054688 L 8.2832031,12.333984 C 6.8703751,13.146409 5.9998971,14.648442 6,16.273438 v 1 C 5.9998971,15.648442 6.8703751,14.146409 8.2832031,13.333984 L 21.716797,5.6074219 c 0.726009,-0.4169898 1.552818,-0.6256578 2.390625,-0.6054688 0.764582,0.017583 1.513223,0.2249686 2.175781,0.6054688 l 13.433594,7.7265621 c 0.854281,0.491241 1.505535,1.237321 1.890625,2.107422 l 0.002,-0.002 a 4.5656761,4.5479 0 0 1 0.01563,0.03516 c 0.03701,0.08551 0.06593,0.173919 0.09766,0.261719 a 4.5656761,4.5479 0 0 1 0.08594,0.251953 c 0.02258,0.07625 0.04197,0.152889 0.06055,0.230469 a 4.5656761,4.5479 0 0 1 0.06836,0.341797 c 0.0091,0.05726 0.01849,0.114095 0.02539,0.171875 A 4.5656761,4.5479 0 0 1 42,17.273438 v -1 a 4.5656761,4.5479 0 0 0 -0.03711,-0.541016 c -0.0069,-0.05778 -0.01627,-0.114619 -0.02539,-0.171875 A 4.5656761,4.5479 0 0 0 41.86914,15.21875 c -0.01858,-0.07758 -0.03797,-0.154221 -0.06055,-0.230469 a 4.5656761,4.5479 0 0 0 -0.08594,-0.251953 c -0.03173,-0.0878 -0.06065,-0.176205 -0.09766,-0.261719 a 4.5656761,4.5479 0 0 0 -0.01563,-0.03516 l -0.002,0.002 C 41.22227,13.571348 40.571016,12.825268 39.716735,12.334027 L 26.283203,4.6074219 C 25.620645,4.2269217 24.872004,4.0195358 24.107422,4.0019531 Z"/>
 <path style="fill:#cedbe6" d="m 24,11.369141 11,6.328125 v 12.603515 l -11,6.328125 z"/>
 <path style="fill:#dee5c0" d="m 24,11.369141 -11,6.328125 11,6.328125 11,-6.328125 z"/>
 <path style="opacity:0.1" d="M 34.130859 18.197266 L 24 24.025391 L 24 25.025391 L 35 18.697266 L 34.130859 18.197266 z"/>
</svg>
