<svg xmlns="http://www.w3.org/2000/svg" width="48" height="48" version="1">
 <path style="opacity:0.2" d="M 3.7519531,13.001768 A 1.8377124,1.8073633 1.1995551 0 0 2.0683594,15.29669 1.8377124,1.8073633 1.1995551 0 0 2.9628906,16.396299 L 20.236328,25.892393 9.9042969,31.572081 c -1.081455,-0.919025 -2.1205153,-1.893445 -3.2695313,-2.730469 -1.388086,0.317337 -0.3868303,2.079704 -0.3496094,3.044922 0.10443,0.500779 0.2081531,1.001204 0.3125,1.501953 l -3.6328124,1.996094 a 1.8073928,1.8377424 88.800445 1 0 1.7929687,3.154296 l 3.6523437,-2.007812 c 0.6597951,0.924224 0.9131888,2.157926 0.2617188,3.164062 -0.669264,1.279765 -2.2212939,1.405966 -3.4980469,1.355469 -1.155308,0.934451 0.8949229,2.335583 1.6855469,2.902344 3.540292,2.217675 8.53107,0.705958 10.806641,-2.595703 1.479163,-2.010815 1.930515,-4.94557 0.490234,-7.085938 -1.248734,-0.919029 -1.31738,1.458014 -2.375,1.763672 -1.401025,1.001882 -3.50629,0.254003 -4.078125,-1.314453 L 24,27.960753 36.296875,34.720518 c -0.571835,1.568456 -2.6771,2.316335 -4.078125,1.314453 -1.05762,-0.305658 -1.126266,-2.682701 -2.375,-1.763672 -1.440281,2.140368 -0.988929,5.075123 0.490234,7.085938 2.275571,3.301661 7.266349,4.813378 10.806641,2.595703 0.790624,-0.566761 2.840855,-1.967893 1.685547,-2.902344 -1.276753,0.0505 -2.828783,-0.0757 -3.498047,-1.355469 -0.65147,-1.006136 -0.398076,-2.239838 0.261719,-3.164062 l 3.652344,2.007812 a 1.8377422,1.8073926 1.1995551 1 0 1.792968,-3.154296 l -3.632812,-1.996094 c 0.104347,-0.500749 0.20807,-1.001174 0.3125,-1.501953 0.03722,-0.965218 1.038476,-2.727585 -0.34961,-3.044922 -1.149016,0.837024 -2.188076,1.811444 -3.269531,2.730469 L 27.763672,25.892393 45.037109,16.396299 a 1.8073633,1.8377124 88.800445 0 0 0.894532,-1.099609 1.8073633,1.8377124 88.800445 0 0 -2.6875,-2.054687 L 24,23.822081 4.7558594,13.242003 A 1.8377124,1.8073633 1.1995551 0 0 3.7519531,13.001768 Z"/>
 <path style="fill:#005a5a" d="m 45.930697,14.297849 a 1.8073633,1.8377124 88.800445 0 0 -2.686331,-2.055593 l -33.3409823,18.33 c -1.081455,-0.919025 -2.120567,-1.892855 -3.269583,-2.729879 -1.388086,0.317337 -0.38635,2.078476 -0.349129,3.043694 0.10443,0.500779 0.208507,1.001385 0.312854,1.502134 l -3.631989,1.996888 a 1.8073633,1.8377124 88.800445 1 0 1.792246,3.154164 l 3.651774,-2.008125 c 0.659795,0.924224 0.913973,2.158346 0.262503,3.164483 -0.669264,1.279764 -2.221302,1.406549 -3.498055,1.356052 -1.155308,0.934451 0.894174,2.334369 1.684798,2.90113 3.5402923,2.217675 8.5319543,0.706535 10.8075253,-2.595126 1.479163,-2.010815 1.929614,-4.944884 0.489333,-7.085252 -1.248734,-0.919029 -1.316261,1.45775 -2.373881,1.763408 -1.401025,1.001882 -3.507257,0.2536 -4.079092,-1.314856 L 45.036611,15.396422 a 1.8073633,1.8377124 88.800445 0 0 0.894086,-1.098573 z"/>
 <path style="fill:#f4f4f7;opacity:0.1" d="M 44.064453 12.001953 A 1.8073633 1.8377124 88.800445 0 0 43.244141 12.242188 L 9.9042969 30.572266 C 8.8228419 29.653241 7.7837816 28.678821 6.6347656 27.841797 C 5.850041 28.021197 5.8417348 28.66568 5.9785156 29.363281 C 6.0728449 29.11719 6.2660202 28.926098 6.6347656 28.841797 C 7.7837816 29.678821 8.8228419 30.653241 9.9042969 31.572266 L 43.244141 13.242188 A 1.8073633 1.8377124 88.800445 0 1 45.927734 14.310547 A 1.8073633 1.8377124 88.800445 0 0 45.931641 14.296875 A 1.8073633 1.8377124 88.800445 0 0 44.064453 12.001953 z M 6.4101562 32.492188 L 2.9648438 34.384766 A 1.8073633 1.8377124 88.800445 0 0 2.0742188 36.474609 A 1.8073633 1.8377124 88.800445 0 1 2.9648438 35.384766 L 6.5976562 33.388672 C 6.5353602 33.08972 6.4723924 32.791104 6.4101562 32.492188 z M 17.564453 33.068359 C 16.847734 33.172536 16.640566 34.786809 15.78125 35.035156 C 14.632166 35.856873 13.022374 35.49051 12.160156 34.470703 L 11.703125 34.720703 C 12.27496 36.289159 14.380225 37.037038 15.78125 36.035156 C 16.83887 35.729498 16.907516 33.352455 18.15625 34.271484 C 18.673164 35.039658 18.93813 35.911417 19.007812 36.804688 C 19.112222 35.57136 18.865159 34.324977 18.15625 33.271484 C 17.922112 33.099166 17.72985 33.044319 17.564453 33.068359 z M 8.9980469 37.902344 C 8.9407625 38.175301 8.8355064 38.442599 8.671875 38.695312 C 8.002611 39.975077 6.4505811 40.101278 5.1738281 40.050781 C 4.7393585 40.402195 4.7575851 40.820372 4.9921875 41.234375 C 5.0407524 41.171865 5.1007429 41.109895 5.1738281 41.050781 C 6.4505811 41.101278 8.002611 40.975077 8.671875 39.695312 C 9.0334847 39.136839 9.1089836 38.509315 8.9980469 37.902344 z"/>
 <path style="fill:#008080" d="m 2.0693022,14.297849 a 1.8377124,1.8073633 1.1995551 0 1 2.6863313,-2.055593 l 33.3409825,18.33 c 1.081455,-0.919025 2.120567,-1.892855 3.269583,-2.729879 1.388086,0.317337 0.38635,2.078476 0.349129,3.043694 -0.10443,0.500779 -0.208507,1.001385 -0.312854,1.502134 l 3.631989,1.996888 a 1.8377124,1.8073633 1.1995551 1 1 -1.792246,3.154164 l -3.651774,-2.008125 c -0.659795,0.924224 -0.913973,2.158346 -0.262503,3.164483 0.669264,1.279764 2.221302,1.406549 3.498055,1.356052 1.155308,0.934451 -0.894174,2.334369 -1.684798,2.90113 -3.540292,2.217675 -8.531954,0.706535 -10.807525,-2.595126 -1.479163,-2.010815 -1.929614,-4.944884 -0.489333,-7.085252 1.248734,-0.919029 1.316261,1.45775 2.373881,1.763408 1.401025,1.001882 3.507257,0.2536 4.079092,-1.314856 L 2.9633883,15.396422 A 1.8377124,1.8073633 1.1995551 0 1 2.0693022,14.297849 Z"/>
 <path style="fill:#f4f4f7;opacity:0.1" d="M 3.7519531 12.001953 A 1.8377124 1.8073633 1.1995551 0 0 2.0683594 14.296875 A 1.8377124 1.8073633 1.1995551 0 0 2.0722656 14.310547 A 1.8377124 1.8073633 1.1995551 0 1 4.7558594 13.242188 L 38.095703 31.572266 C 39.177158 30.653241 40.216218 29.678821 41.365234 28.841797 C 41.73398 28.926098 41.927155 29.11719 42.021484 29.363281 C 42.158265 28.66568 42.149959 28.021197 41.365234 27.841797 C 40.216218 28.678821 39.177158 29.653241 38.095703 30.572266 L 4.7558594 12.242188 A 1.8377124 1.8073633 1.1995551 0 0 3.7519531 12.001953 z M 41.589844 32.492188 C 41.527608 32.791104 41.46464 33.08972 41.402344 33.388672 L 45.035156 35.384766 A 1.8377124 1.8073633 1.1995551 0 1 45.925781 36.474609 A 1.8377124 1.8073633 1.1995551 0 0 45.035156 34.384766 L 41.589844 32.492188 z M 30.435547 33.068359 C 30.27015 33.044319 30.077888 33.099166 29.84375 33.271484 C 29.134841 34.324977 28.887778 35.57136 28.992188 36.804688 C 29.06187 35.911417 29.326836 35.039658 29.84375 34.271484 C 31.092484 33.352455 31.16113 35.729498 32.21875 36.035156 C 33.619775 37.037038 35.72504 36.289159 36.296875 34.720703 L 35.839844 34.470703 C 34.977626 35.49051 33.367834 35.856873 32.21875 35.035156 C 31.359434 34.786809 31.152266 33.172536 30.435547 33.068359 z M 39.001953 37.902344 C 38.891016 38.509315 38.966515 39.136839 39.328125 39.695312 C 39.997389 40.975077 41.549419 41.101278 42.826172 41.050781 C 42.899257 41.109895 42.959248 41.171865 43.007812 41.234375 C 43.242415 40.820372 43.260642 40.402195 42.826172 40.050781 C 41.549419 40.101278 39.997389 39.975077 39.328125 38.695312 C 39.164494 38.442599 39.059238 38.175301 39.001953 37.902344 z"/>
 <path style="opacity:0.2" d="m 9.1327951,5.0011914 a 1.1787305,1.1257677 0 0 0 -1.1327945,1.12613 V 29.027754 c 0,0.768562 0.3181416,1.29212 0.7159571,1.944464 0.3978154,0.652343 0.9326436,1.374726 1.5708603,2.156418 1.276431,1.563386 2.966438,3.358953 4.718368,5.07588 1.751932,1.716925 3.561158,3.349136 5.086962,4.574557 0.762903,0.612711 1.452051,1.122066 2.05524,1.502121 C 22.750578,44.661248 23.114615,45 24,45 c 0.885385,0 1.249421,-0.338752 1.852611,-0.718806 0.603189,-0.380055 1.292338,-0.88941 2.05524,-1.502121 1.525805,-1.225421 3.335031,-2.857632 5.086962,-4.574557 1.751931,-1.716927 3.441938,-3.512494 4.718368,-5.07588 0.638217,-0.781692 1.173046,-1.504075 1.57086,-2.156418 0.397816,-0.652344 0.715958,-1.175902 0.715958,-1.944464 V 6.1273214 A 1.1787305,1.1257677 0 0 0 37.92739,5.3919272 L 35.326015,8.2763682 32.008684,5.3053018 A 1.1787305,1.1257677 0 0 0 31.202025,5.0011914 H 24 16.797974 A 1.1787305,1.1257677 0 0 0 15.991316,5.3053018 L 12.673984,8.2763682 10.072609,5.3919272 A 1.1787305,1.1257677 0 0 0 9.1327951,5.0011914 Z"/>
 <path style="fill:#b2bfd9" d="m 9.1327951,4.0011931 a 1.1787305,1.1257677 0 0 0 -1.1327945,1.12613 V 28.027756 c 0,0.768562 0.3181416,1.29212 0.7159571,1.944464 0.3978154,0.652343 0.9326436,1.374726 1.5708603,2.156418 1.276431,1.563386 2.966438,3.358953 4.718368,5.07588 1.751932,1.716925 3.561158,3.349136 5.086962,4.574557 0.762903,0.612711 1.452051,1.122066 2.05524,1.502121 0.60319,0.380054 0.967227,0.718806 1.852612,0.718806 0.885385,0 1.249421,-0.338752 1.852611,-0.718806 0.603189,-0.380055 1.292338,-0.88941 2.05524,-1.502121 1.525805,-1.225421 3.335031,-2.857632 5.086962,-4.574557 1.751931,-1.716927 3.441938,-3.512494 4.718368,-5.07588 0.638217,-0.781692 1.173046,-1.504075 1.57086,-2.156418 0.397816,-0.652344 0.715958,-1.175902 0.715958,-1.944464 V 5.1273231 A 1.1787305,1.1257677 0 0 0 37.92739,4.3919289 L 35.326015,7.2763699 32.008684,4.3053035 A 1.1787305,1.1257677 0 0 0 31.202025,4.0011931 H 24 16.797974 A 1.1787305,1.1257677 0 0 0 15.991316,4.3053035 L 12.673984,7.2763699 10.072609,4.3919289 A 1.1787305,1.1257677 0 0 0 9.1327951,4.0011931 Z"/>
 <path style="fill:#008080" d="m 12,13.000002 v 14.703125 c 0.02351,0.0265 0.01009,-0.01375 0.132812,0.1875 0.25221,0.413576 0.685424,1.015095 1.251954,1.708984 1.131341,1.385679 2.745205,3.106792 4.419922,4.748047 1.674188,1.640735 3.414023,3.206595 4.791015,4.3125 0.575759,0.46241 1.019131,0.772671 1.404297,1.03125 0.385167,-0.258579 0.828541,-0.568842 1.404297,-1.03125 1.376992,-1.105904 3.116829,-2.671765 4.791015,-4.3125 1.674718,-1.641255 3.288583,-3.362369 4.419922,-4.748047 0.566531,-0.69389 0.999747,-1.295414 1.251954,-1.708984 C 35.98991,27.689377 35.97649,27.729617 36,27.703127 V 13.000002 Z"/>
 <path style="opacity:0.3" d="m 24,13.000002 v 26.691406 c 0.385167,-0.258579 0.828541,-0.568842 1.404297,-1.03125 1.376992,-1.105904 3.116829,-2.671765 4.791015,-4.3125 1.674718,-1.641255 3.288583,-3.362369 4.419922,-4.748047 0.566531,-0.69389 0.999747,-1.295414 1.251954,-1.708984 C 35.98991,27.689377 35.97649,27.729617 36,27.703127 V 13.000002 Z"/>
 <path style="opacity:0.2;fill:#f4f4f7" d="M 38.789062,4.000002 A 1.1787305,1.1257677 0 0 0 37.927734,4.3925801 L 35.326172,7.2773458 32.007812,4.3046895 A 1.1787305,1.1257677 0 0 0 31.201172,4.0019551 H 24 16.798828 a 1.1787305,1.1257677 0 0 0 -0.80664,0.3027344 L 12.673828,7.2773458 10.072266,4.3925801 A 1.1787305,1.1257677 0 0 0 9.1328125,4.0019551 1.1787305,1.1257677 0 0 0 8,5.1269551 v 0.9628907 a 1.1787305,1.1257677 0 0 1 1.1328125,-1.0878907 1.1787305,1.1257677 0 0 1 0.9394535,0.390625 l 2.601562,2.8828125 3.31836,-2.9707031 a 1.1787305,1.1257677 0 0 1 0.80664,-0.3027344 H 24 31.201172 a 1.1787305,1.1257677 0 0 1 0.80664,0.3027344 l 3.31836,2.9707031 2.601562,-2.8828125 A 1.1787305,1.1257677 0 0 1 40,6.1269551 v -1 A 1.1787305,1.1257677 0 0 0 38.789062,4.000002 Z"/>
</svg>
