<svg xmlns="http://www.w3.org/2000/svg" width="48" height="48" version="1.1">
 <path style="opacity:0.2" d="m 5.0804152,8.162946 -0.1576438,4.422707 1.7370079,0.639371 -1.7904663,0.801508 1.6864762,0.842479 -1.7102788,1.123827 1.7206192,0.196475 -1.5782088,1.272305 0.026339,0.729902 c -1.9441164,1.72999 -2.6351632,3.895221 -2.9387269,6.27431 -0.9255717,7.423279 6.7624097,15.058442 17.1716581,17.053685 10.409289,1.995186 19.598052,-2.405134 20.523734,-9.828414 0.0405,-0.333477 0.06361,-0.670143 0.06926,-1.009298 2.21452,-2.713036 4.49838,-5.084874 6.159817,-8.129766 -3.290641,-0.375375 -6.168536,-0.338106 -8.945893,-0.200182 1.54774,-1.396168 3.39826,-3.221503 4.945999,-5.188909 -2.156218,1.08938 -4.225318,1.639444 -5.525847,2.08704 1.425625,-1.756632 2.724752,-3.330409 3.525901,-5.08704 l -5.87729,3.074102 1.877396,-4.074102 c -2.927682,1.906294 -4.923307,2.694063 -6.991843,3.569355 -2.015434,-0.953574 -4.1853,-1.662813 -6.409156,-2.094884 -2.960471,-0.56701 -6.241356,-0.628704 -9.000821,-0.180085 C 9.559316,10.432335 7.5503492,9.595289 5.0804152,8.162946 Z"/>
 <path style="fill:#3f3f3f" d="m 5.0804152,7.162946 -0.1576438,4.422707 1.7370079,0.639371 -1.7904663,0.801508 1.6864762,0.842479 -1.7102788,1.123827 1.7206192,0.196475 -1.5782088,1.272305 0.026339,0.729902 c -1.9441164,1.72999 -2.6351632,3.895221 -2.9387269,6.27431 -0.9255717,7.423279 6.7624097,15.058442 17.1716581,17.053685 10.409289,1.995186 19.598052,-2.405134 20.523734,-9.828414 0.0405,-0.333477 0.06361,-0.670143 0.06926,-1.009298 2.21452,-2.713036 4.49838,-5.084874 6.159817,-8.129766 -3.290641,-0.375375 -6.168536,-0.338106 -8.945893,-0.200182 1.54774,-1.396168 3.39826,-3.221503 4.945999,-5.188909 -2.156218,1.08938 -4.225318,1.639444 -5.525847,2.08704 1.425625,-1.756632 2.724752,-3.330409 3.525901,-5.08704 l -5.87729,3.074102 1.877396,-4.074102 c -2.927682,1.906294 -4.923307,2.694063 -6.991843,3.569355 -2.015434,-0.953574 -4.1853,-1.662813 -6.409156,-2.094884 -2.960471,-0.56701 -6.241356,-0.628704 -9.000821,-0.180085 C 9.559316,9.4323353 7.5503492,8.595289 5.0804152,7.162946 Z"/>
 <path style="opacity:0.2" d="m 22.058594,15.570251 a 0.50005,0.50005 0 0 0 -0.462891,0.431641 l -0.371094,2.451172 a 0.50079507,0.50079507 0 1 0 0.990235,0.150391 l 0.36914,-2.451172 a 0.50005,0.50005 0 0 0 -0.52539,-0.582032 z m 2.355468,2.636719 a 0.50005,0.50005 0 0 0 -0.416015,0.210938 l -1.619141,2.220703 a 0.50043486,0.50043486 0 0 0 0.808594,0.589844 l 1.619141,-2.220704 A 0.50005,0.50005 0 0 0 24.414062,18.20697 Z m -5.318359,0.460938 a 0.50005,0.50005 0 0 0 -0.05078,0.002 0.50005,0.50005 0 0 0 -0.410156,0.726562 l 1.248046,2.542969 a 0.50007744,0.50007744 0 1 0 0.898438,-0.439453 l -1.248047,-2.544922 a 0.50005,0.50005 0 0 0 -0.4375,-0.287109 z m -8.505859,12.724609 a 0.50005,0.50005 0 0 0 -0.08789,0.986328 l 4.53125,1.111328 a 0.50070888,0.50070888 0 1 0 0.238281,-0.972656 l -4.533203,-1.109375 a 0.50005,0.50005 0 0 0 -0.148437,-0.01563 z m 6.982422,0.140625 a 0.50005,0.50005 0 0 0 -0.460938,0.587891 c 0.178166,0.997235 0.33798,1.406035 0.50586,2.072265 -0.698238,0.918524 -1.376693,1.964467 -2.113282,2.654297 a 0.50022138,0.50022138 0 1 0 0.683594,0.730469 c 0.60186,-0.563654 1.147384,-1.464805 1.726562,-2.167969 0.370592,1.184838 0.724344,2.009569 1.050782,2.634766 a 0.50005,0.50005 0 1 0 0.884765,-0.462891 c -0.388558,-0.74417 -0.760266,-1.683575 -1.158203,-3.148437 0.390934,-0.538834 0.819446,-0.86658 1.19336,-1.498047 a 0.50005,0.50005 0 0 0 -0.265625,-0.726563 l -1.84961,-0.648437 a 0.50005,0.50005 0 0 0 -0.197265,-0.02734 z m 0.728515,1.273438 0.328125,0.115234 c -0.07368,0.115889 -0.156219,0.176989 -0.230468,0.289063 -0.03309,-0.152066 -0.06377,-0.237831 -0.09766,-0.404297 z m 3.011719,1.144531 a 0.50005,0.50005 0 0 0 -0.05859,0.99414 l 5.917969,0.949219 a 0.50043169,0.50043169 0 1 0 0.158203,-0.988281 l -5.917969,-0.947266 a 0.50005,0.50005 0 0 0 -0.09961,-0.0078 z m -10.783203,0.171875 a 0.50038131,0.50038131 0 0 0 0.03906,1 l 4.023438,0.04492 a 0.50005,0.50005 0 1 0 0.01172,-0.998047 l -4.023438,-0.04687 a 0.50005,0.50005 0 0 0 -0.05078,0 z m 10.455078,1.578125 a 0.50005,0.50005 0 0 0 -0.193359,0.953125 l 3.714843,1.798828 a 0.50010128,0.50010128 0 1 0 0.435547,-0.900391 l -3.714844,-1.798828 a 0.50005,0.50005 0 0 0 -0.242187,-0.05273 z"/>
 <path style="opacity:0.2" d="M 10.111328,20.007235 C 5.1226506,19.791985 3,23.798251 3,23.798251 c 0,0 0.2810107,5.257381 6.84375,6.88086 C 16.406488,32.302589 19,27.237704 19,27.237704 c 0,0 0.0805,-5.039386 -6.574219,-6.855469 -0.83184,-0.22701 -1.601785,-0.344249 -2.314453,-0.375 z m 19,4 C 24.122651,23.791985 22,27.798251 22,27.798251 c 0,0 0.28101,5.25738 6.84375,6.88086 C 35.406488,36.302588 38,31.237704 38,31.237704 c 0,0 0.0805,-5.039386 -6.574219,-6.855469 -0.83184,-0.22701 -1.601785,-0.344249 -2.314453,-0.375 z"/>
 <path style="fill:#ffd357" d="m 22,26.798657 c 0,0 2.771764,-5.231716 9.426486,-3.415633 6.654722,1.816083 6.573468,6.855829 6.573468,6.855829 0,0 -2.592791,5.063673 -9.155529,3.440195 C 22.281685,32.055569 22,26.798657 22,26.798657 Z"/>
 <path style="fill:#9f3820" d="M 33.931641 24.373047 A 6 6 0 0 0 30 30 A 6 6 0 0 0 31.523438 33.984375 C 36.115757 33.883836 38 30.238281 38 30.238281 C 38 30.238281 38.043123 26.578367 33.931641 24.373047 z"/>
 <path style="fill:none;stroke:#a3cbcb;stroke-linecap:round" d="M 15.152518,32.004009 10.620212,30.894057"/>
 <path style="fill:none;stroke:#a3cbcb;stroke-linecap:round" d="M 14.597542,33.668938 10.573964,33.62269"/>
 <path style="fill:none;stroke:#a3cbcb;stroke-linecap:round" d="m 21.332275,33.45177 5.919103,0.948994"/>
 <path style="fill:none;stroke:#a3cbcb;stroke-linecap:round" d="m 21.008378,35.204311 3.715274,1.799064"/>
 <path style="fill:none;stroke:#a3cbcb;stroke-linecap:round;stroke-linejoin:round" d="m 19.407336,36.813804 c -0.564442,-1.081023 -1.119807,-1.953253 -1.803673,-5.781003 l 1.849921,0.647472 c -1.134827,1.9165 -2.349444,3.354256 -3.607346,4.532306"/>
 <path style="fill:none;stroke:#356373;stroke-linecap:round" d="M 20.332297,20.719492 19.0836,18.17585"/>
 <path style="fill:none;stroke:#356373;stroke-linecap:round" d="m 21.719737,17.528378 0.369984,-2.451145"/>
 <path style="fill:none;stroke:#356373;stroke-linecap:round" d="M 22.783442,19.933275 24.402123,17.71337"/>
 <path style="opacity:0.1;fill:#f4f4f7" d="M 5.0800781 7.1621094 L 4.921875 11.585938 L 4.9570312 11.599609 L 5.0800781 8.1621094 C 7.5500121 9.5944524 9.5585243 10.432034 13.597656 14.457031 C 16.357121 14.008412 19.639138 14.069709 22.599609 14.636719 C 24.823465 15.06879 26.992379 15.778848 29.007812 16.732422 C 30.913654 15.925973 32.791318 15.153859 35.359375 13.552734 L 36 12.162109 C 33.072318 14.068403 31.076348 14.85713 29.007812 15.732422 C 26.992379 14.778848 24.823465 14.06879 22.599609 13.636719 C 19.639138 13.069709 16.357121 13.008412 13.597656 13.457031 C 9.5585243 9.4320346 7.5500121 8.5944524 5.0800781 7.1621094 z M 5.4335938 12.773438 L 4.8691406 13.027344 L 5.9257812 13.554688 L 6.6601562 13.224609 L 5.4335938 12.773438 z M 40 13.162109 L 34.730469 15.917969 L 34.123047 17.236328 L 39.240234 14.560547 C 39.523948 14.102971 39.782347 13.639345 40 13.162109 z M 5.6914062 14.4375 L 4.8457031 14.992188 L 6.1425781 15.140625 L 6.5566406 14.869141 L 5.6914062 14.4375 z M 5.4804688 16.064453 L 4.9882812 16.460938 L 5.0136719 17.191406 C 3.0695555 18.921396 2.3797356 21.087708 2.0761719 23.466797 C 2.0023755 24.05866 2.0024269 24.650597 2.0351562 25.242188 C 2.0467519 24.983595 2.0439625 24.725123 2.0761719 24.466797 C 2.3797356 22.087708 3.0695555 19.921396 5.0136719 18.191406 L 4.9882812 17.460938 L 6.5664062 16.189453 L 5.4804688 16.064453 z M 42 16.162109 C 40.325964 17.007878 38.816522 17.490581 37.566406 17.890625 C 37.214595 18.3355 36.850873 18.786374 36.474609 19.25 C 37.494274 18.899068 38.990816 18.474563 40.626953 17.787109 C 41.099524 17.259809 41.562179 16.718645 42 16.162109 z M 41.333984 21.259766 C 40.249502 21.244823 39.206593 21.269852 38.175781 21.308594 C 37.791348 21.675448 37.414055 22.027389 37.054688 22.351562 C 39.67063 22.221654 42.388158 22.194531 45.443359 22.503906 C 45.634509 22.192314 45.822251 21.878492 46 21.552734 C 44.35468 21.365047 42.811958 21.28013 41.333984 21.259766 z"/>
 <g>
  <path style="fill:#ffd357" d="m 3,22.798658 c 0,0 2.7717638,-5.231718 9.426487,-3.415634 6.654721,1.816082 6.573466,6.855829 6.573466,6.855829 0,0 -2.59279,5.063673 -9.1555285,3.440195 C 3.2816852,28.055569 3,22.798658 3,22.798658 Z"/>
  <path style="fill:#9f3820" d="M 14.931641,20.373048 A 6,6 0 0 0 11,26.000001 6,6 0 0 0 12.523438,29.984376 C 17.115757,29.883837 19,26.238282 19,26.238282 c 0,0 0.04312,-3.659914 -4.068359,-5.865234 z"/>
 </g>
 <path style="opacity:0.2;fill:#f4f4f7" d="M 10.111328 19.007812 C 5.1226507 18.792562 3 22.798828 3 22.798828 C 3 22.798828 3.0227015 23.112586 3.1367188 23.591797 C 3.4650801 23.033103 5.5374646 19.810461 10.111328 20.007812 C 10.823996 20.038564 11.593941 20.155803 12.425781 20.382812 C 17.4003 21.740366 18.609898 24.895815 18.904297 26.404297 C 18.953697 26.320745 19 26.238281 19 26.238281 C 19 26.238281 19.080502 21.198895 12.425781 19.382812 C 11.593941 19.155803 10.823996 19.038563 10.111328 19.007812 z M 29.111328 23.007812 C 24.122651 22.792562 22 26.798828 22 26.798828 C 22 26.798828 22.022702 27.112586 22.136719 27.591797 C 22.46508 27.033103 24.537465 23.810461 29.111328 24.007812 C 29.823996 24.038563 30.593941 24.155803 31.425781 24.382812 C 36.4003 25.740366 37.609898 28.895815 37.904297 30.404297 C 37.953697 30.320745 38 30.238281 38 30.238281 C 38 30.238281 38.080503 25.198895 31.425781 23.382812 C 30.593941 23.155803 29.823996 23.038563 29.111328 23.007812 z"/>
</svg>
