<svg width="48" height="48" version="1.1" xmlns="http://www.w3.org/2000/svg">
 <path d="m4 40v1c0 1.108 0.892 2 2 2h36c1.108 0 2-0.892 2-2v-1c0 1.108-0.892 2-2 2h-36c-1.108 0-2-0.892-2-2z" style="opacity:.2"/>
 <rect x="4" y="6" width="40" height="36" rx="2" ry="2" style="fill:#022254"/>
 <path d="m6 6c-1.108 0-2 0.892-2 2v1c0-1.108 0.892-2 2-2h36c1.108 0 2 0.892 2 2v-1c0-1.108-0.892-2-2-2z" style="fill:#f4f4f7;opacity:.1"/>
 <path d="m9 11c-1 0-1 1-1 1v5s0 1 1 1h2c1 0 1-1 1-1v-1h-1v1h-2v-5h2v1h1v-1s0-1-1-1zm6 0 1 7h1l-1-7zm-1.5 2a0.5 0.5 0 0 0-0.5 0.5 0.5 0.5 0 0 0 0.5 0.5 0.5 0.5 0 0 0 0.5-0.5 0.5 0.5 0 0 0-0.5-0.5zm0 3a0.5 0.5 0 0 0-0.5 0.5 0.5 0.5 0 0 0 0.5 0.5 0.5 0.5 0 0 0 0.5-0.5 0.5 0.5 0 0 0-0.5-0.5zm4.5 1v1h3v-1z" style="opacity:.2"/>
 <path d="m9 10c-1 0-1 1-1 1v5s0 1 1 1h2c1 0 1-1 1-1v-1h-1v1h-2v-5h2v1h1v-1s0-1-1-1zm6 0 1 7h1l-1-7zm-1.5 2a0.5 0.5 0 0 0-0.5 0.5 0.5 0.5 0 0 0 0.5 0.5 0.5 0.5 0 0 0 0.5-0.5 0.5 0.5 0 0 0-0.5-0.5zm0 3a0.5 0.5 0 0 0-0.5 0.5 0.5 0.5 0 0 0 0.5 0.5 0.5 0.5 0 0 0 0.5-0.5 0.5 0.5 0 0 0-0.5-0.5zm4.5 1v1h3v-1z" style="fill:#f4f4f7"/>
</svg>
