<svg xmlns="http://www.w3.org/2000/svg" width="48" height="48" version="1.1">
 <rect style="opacity:0.2" width="40" height="40" x="4" y="5" rx="2" ry="2"/>
 <rect style="fill:#b2bfd9" width="40" height="40" x="4" y="4" rx="2" ry="2"/>
 <path style="opacity:0.2;fill:#f4f4f7" d="M 6,4 C 4.892,4 4,4.892 4,6 V 7 C 4,5.892 4.892,5 6,5 h 36 c 1.108,0 2,0.892 2,2 V 6 C 44,4.892 43.108,4 42,4 Z"/>
 <path style="opacity:0.1" d="m 10,13.999973 h 3 v 22 c -3,0 -3,3 -3,3 h 3 4 3 c 0,0 0,-3 -3,-3 V 20.232395 l 9.868604,16.837254 c 0.879287,1.960579 1.276156,1.930324 3.281705,1.930324 H 31 33 c 0,0 2,0 2,-3 v -22 h 3 c 0,0 0,-3 -3,-3 h -4 c -3,0 -3,3 -3,3 h 3 V 29.767551 L 21.229232,13.097219 C 20.203651,10.704458 19.429569,10.999973 17,10.999973 h -4 c -3,0 -3,3 -3,3 z"/>
 <path style="fill:#3f3f3f" d="m 10,13 h 3 v 22 c -3,0 -3,3 -3,3 h 3 4 3 c 0,0 0,-3 -3,-3 V 19.232422 l 9.868604,16.837254 C 27.747891,38.030255 28.14476,38 30.150309,38 H 31 33 c 0,0 2,0 2,-3 V 13 h 3 c 0,0 0,-3 -3,-3 h -4 c -3,0 -3,3 -3,3 h 3 V 28.767578 L 21.229232,12.097246 C 20.203651,9.7044848 19.429569,10 17,10 h -4 c -3,0 -3,3 -3,3 z"/>
</svg>
