<svg xmlns="http://www.w3.org/2000/svg" width="48" height="48" version="1.1">
 <path style="opacity:0.2" d="M 44,24.999816 C 44,36.045517 35.045712,44.999882 24.000397,45 12.962596,45.000119 3.9985041,36.034848 4.0000004,24.997045 4.0014975,13.952545 12.955329,4.9999958 24.00018,4.9999958 c 3.303306,0 6.419644,0.8009867 9.165639,2.2195788 0.14013,0.072391 0.181013,0.2538459 0.08573,0.3795392 L 31.156424,10.36307 c -0.103197,0.13614 -0.287136,0.181535 -0.442156,0.109752 C 28.680274,9.5309613 26.414956,9.0036936 24.027064,8.9997653 15.189672,8.985225 7.999994,16.162622 8.0001099,25.000027 c 1.129e-4,8.811374 7.1224311,15.958842 15.9242381,15.999684 8.867004,0.04114 16.047371,-7.081048 16.075462,-15.948102 0.0042,-1.340514 -0.156437,-2.643093 -0.463003,-3.888064 -0.03403,-0.13818 0.0029,-0.284215 0.0973,-0.390755 l 2.632772,-2.973226 c 0.12621,-0.142527 0.359465,-0.101178 0.427296,0.0767 C 43.537996,20.089204 44,22.490237 44,24.999816 Z"/>
 <path style="fill:#b2bfd9" d="M 24,42 C 33.941133,42 42,33.941133 42,24 42,14.058867 33.941133,6 24,6 14.058867,6 6,14.058867 6,24 c 0,9.941133 8.058867,18 18,18 z"/>
 <path style="opacity:0.1" class="st0" d="M 41.936492,13.803798 22.399203,35.914924 c -0.09617,0.108838 -0.263969,0.113973 -0.366586,0.01121 l -8.958776,-8.970945 c -0.08229,-0.08241 -0.09756,-0.210569 -0.03693,-0.310072 l 2.428715,-3.986188 c 0.08499,-0.139485 0.277828,-0.162485 0.393109,-0.04688 l 5.371677,5.386515 c 0.07715,0.07735 0.204686,0.06862 0.270612,-0.01853 L 36.540043,8.0996528 c 0.08411,-0.1111945 0.24316,-0.1324589 0.353978,-0.047981 1.982049,1.5109072 3.698406,3.3543632 5.065263,5.4473012 0.06199,0.09492 0.05225,0.219894 -0.02279,0.304825 z"/>
 <path style="fill:#0bbe5b" class="st0" d="M 41.936492,12.8038 22.399203,34.914926 c -0.09617,0.108838 -0.263969,0.113973 -0.366586,0.01121 l -8.958776,-8.970945 c -0.08229,-0.08241 -0.09756,-0.210569 -0.03693,-0.310072 l 2.428715,-3.986188 c 0.08499,-0.139485 0.277828,-0.162485 0.393109,-0.04688 l 5.371677,5.386515 c 0.07715,0.07735 0.204686,0.06862 0.270612,-0.01853 L 36.540043,7.0996548 c 0.08411,-0.1111945 0.24316,-0.1324589 0.353978,-0.047981 1.982049,1.5109072 3.698406,3.3543632 5.065263,5.4473012 0.06199,0.09492 0.05225,0.219894 -0.02279,0.304825 z"/>
 <path style="fill:#3f3f3f" d="M 44,23.999818 C 44,35.045519 35.045712,43.999884 24.000397,44.000002 12.962596,44.000121 3.9985041,35.03485 4.0000004,23.997047 4.0014975,12.952547 12.955329,3.9999978 24.00018,3.9999978 c 3.303306,0 6.419644,0.8009867 9.165639,2.2195788 0.14013,0.072391 0.181013,0.2538459 0.08573,0.3795392 l -2.095125,2.7639565 c -0.103197,0.13614 -0.287136,0.181535 -0.442156,0.1097522 C 28.680274,8.5309633 26.414956,8.0036956 24.027064,7.9997673 15.189672,7.985227 7.999994,15.162624 8.0001099,24.000029 c 1.129e-4,8.811374 7.1224311,15.958842 15.9242381,15.999684 8.867004,0.04114 16.047371,-7.081048 16.075462,-15.948102 0.0042,-1.340514 -0.156437,-2.643093 -0.463003,-3.888064 -0.03403,-0.13818 0.0029,-0.284215 0.0973,-0.390755 l 2.632772,-2.973226 c 0.12621,-0.142527 0.359465,-0.101178 0.427296,0.0767 C 43.537996,19.089206 44,21.490239 44,23.999818 Z"/>
 <path style="fill:#f4f4f7;opacity:0.1" d="M 24 4 C 12.955149 4 4.0014971 12.951594 4 23.996094 C 3.9999773 24.163645 4.0076338 24.329521 4.0117188 24.496094 C 4.2797945 13.683792 13.123126 5 24 5 C 27.192388 5 30.20714 5.7533089 32.884766 7.0839844 L 33.251953 6.5996094 C 33.347236 6.4739161 33.306146 6.291141 33.166016 6.21875 C 30.420021 4.8001579 27.303306 4 24 4 z M 42.501953 16.716797 C 42.419384 16.702041 42.330683 16.727565 42.267578 16.798828 L 39.634766 19.773438 C 39.540366 19.879978 39.503079 20.025883 39.537109 20.164062 C 39.584226 20.355404 39.620002 20.550149 39.660156 20.744141 L 42.267578 17.798828 C 42.393788 17.656301 42.625528 17.699075 42.693359 17.876953 C 43.497781 19.986567 43.943412 22.269771 43.984375 24.652344 C 43.991346 24.435276 44 24.218762 44 24 C 44 21.490421 43.53718 19.089893 42.693359 16.876953 C 42.659444 16.788014 42.584522 16.731553 42.501953 16.716797 z M 39.982422 24.388672 C 39.774053 33.096563 32.676841 40.040611 23.923828 40 C 15.290683 39.959941 8.2912642 33.078023 8.0253906 24.5 C 8.0201891 24.66749 7.9999978 24.831261 8 25 C 8.0001129 33.811374 15.122021 40.959158 23.923828 41 C 32.790832 41.04114 39.971909 33.917835 40 25.050781 C 40.000697 24.82846 39.990707 24.608816 39.982422 24.388672 z"/>
</svg>
