<svg width="48" height="48" version="1" xmlns="http://www.w3.org/2000/svg">
 <rect x="4" y="4" width="40" height="40" rx="2" ry="2" style="fill:#b2bfd9"/>
 <path d="m14.478516 16.957031a1.50015 1.50015 0 0 0-1.478516 1.521485v5.646484l-3.1582031-6.316406a1.50015 1.50015 0 0 0-2.8417969 0.669922v12a1.50015 1.50015 0 1 0 3 0v-5.644532l3.158203 6.316407a1.50015 1.50015 0 0 0 2.841797-0.671875v-12a1.50015 1.50015 0 0 0-1.521484-1.521485zm16.0625 0.02149a1.50015 1.50015 0 0 0-1.541016 1.499995v12a1.50015 1.50015 0 1 0 3 0v-7.5l1.800781 2.40039a1.50015 1.50015 0 0 0 2.398438 0l1.800781-2.40039v7.5a1.50015 1.50015 0 1 0 3 0v-12a1.50015 1.50015 0 0 0-2.699219-0.900391l-3.300781 4.400391-3.300781-4.400391a1.50015 1.50015 0 0 0-1.158203-0.599609zm-8.025391 0.021479c-1.375 0-2.596185 0.569633-3.371094 1.441406s-1.128906 1.975261-1.128906 3.058594c0 1.75 0.530938 3.156693 1.605469 3.873047s2.144531 0.626953 2.894531 0.626953 1.18 0.0894 1.230469 0.123047c0.05047 0.03365 0.269531 0.126953 0.269531 1.376953 0 0.416667-0.146003 0.813179-0.371094 1.066406s-0.503906 0.433594-1.128906 0.433594c-0.75 0-1.258964-0.18124-1.580078-0.341797-0.321115-0.160557-0.359375-0.21875-0.359375-0.21875a1.50015 1.50015 0 1 0-2.121094 2.121094s0.459787 0.441807 1.138672 0.78125 1.671875 0.658203 2.921875 0.658203c1.375 0 2.596185-0.569633 3.371094-1.441406s1.128906-1.975261 1.128906-3.058594c0-1.75-0.530938-3.156693-1.605469-3.873047s-2.144531-0.626953-2.894531-0.626953-1.18-0.0894-1.230469-0.123047c-0.05047-0.033646-0.269531-0.126953-0.269531-1.376953 0-0.416667 0.146003-0.813179 0.371094-1.066406s0.503906-0.433594 1.128906-0.433594c0.75 0 1.25701 0.18124 1.578125 0.341797s0.361328 0.21875 0.361328 0.21875a1.50015 1.50015 0 1 0 2.121094-2.121094s-0.46174-0.441807-1.140625-0.78125c-0.678886-0.339443-1.669922-0.658203-2.919922-0.658203z" style="opacity:.1"/>
 <path d="m6 4c-1.108 0-2 0.892-2 2v1c0-1.108 0.892-2 2-2h36c1.108 0 2 0.892 2 2v-1c0-1.108-0.892-2-2-2h-36z" fill="#fff" style="opacity:.2"/>
 <path d="m6 45c-1.108 0-2-0.892-2-2v-1c0 1.108 0.892 2 2 2h36c1.108 0 2-0.892 2-2v1c0 1.108-0.892 2-2 2h-36z" opacity=".2"/>
 <path d="m14.478516 15.957031a1.50015 1.50015 0 0 0-1.478516 1.521485v5.646484l-3.1582031-6.316406a1.50015 1.50015 0 0 0-2.8417969 0.669922v12a1.50015 1.50015 0 1 0 3 0v-5.644532l3.158203 6.316407a1.50015 1.50015 0 0 0 2.841797-0.671875v-12a1.50015 1.50015 0 0 0-1.521484-1.521485zm16.0625 0.021485a1.50015 1.50015 0 0 0-1.541016 1.5v12a1.50015 1.50015 0 1 0 3 0v-7.5l1.800781 2.40039a1.50015 1.50015 0 0 0 2.398438 0l1.800781-2.40039v7.5a1.50015 1.50015 0 1 0 3 0v-12a1.50015 1.50015 0 0 0-2.699219-0.900391l-3.300781 4.400391-3.300781-4.400391a1.50015 1.50015 0 0 0-1.158203-0.599609zm-8.025391 0.021484c-1.375 0-2.596185 0.569633-3.371094 1.441406s-1.128906 1.975261-1.128906 3.058594c0 1.75 0.530938 3.156693 1.605469 3.873047s2.144531 0.626953 2.894531 0.626953 1.18 0.0894 1.230469 0.123047c0.05047 0.03365 0.269531 0.126953 0.269531 1.376953 0 0.416667-0.146003 0.813179-0.371094 1.066406s-0.503906 0.433594-1.128906 0.433594c-0.75 0-1.258964-0.18124-1.580078-0.341797-0.321115-0.160557-0.359375-0.21875-0.359375-0.21875a1.50015 1.50015 0 1 0-2.121094 2.121094s0.459787 0.441807 1.138672 0.78125 1.671875 0.658203 2.921875 0.658203c1.375 0 2.596185-0.569633 3.371094-1.441406s1.128906-1.975261 1.128906-3.058594c0-1.75-0.530938-3.156693-1.605469-3.873047s-2.144531-0.626953-2.894531-0.626953-1.18-0.0894-1.230469-0.123047c-0.050469-0.033646-0.269531-0.126953-0.269531-1.376953 0-0.416667 0.146003-0.813179 0.371094-1.066406s0.503906-0.433594 1.128906-0.433594c0.75 0 1.25701 0.18124 1.578125 0.341797s0.361328 0.21875 0.361328 0.21875a1.50015 1.50015 0 1 0 2.121094-2.121094s-0.46174-0.441807-1.140625-0.78125c-0.678886-0.339443-1.669922-0.658203-2.919922-0.658203z" style="fill:#4c4c4c"/>
</svg>
