<svg xmlns="http://www.w3.org/2000/svg" width="48" height="48" version="1">
 <rect style="fill:#355681" width="40" height="40" x="4" y="4" rx="2" ry="2"/>
 <path style="opacity:0.1;fill:#f4f4f7" d="M 6,4 C 4.892,4 4,4.892 4,6 L 4,7 C 4,5.892 4.892,5 6,5 l 36,0 c 1.108,0 2,0.892 2,2 L 44,6 C 44,4.892 43.108,4 42,4 L 6,4 Z"/>
 <path style="opacity:0.2" d="m 4,42 0,1 c 0,1.108 0.892,2 2,2 l 36,0 c 1.108,0 2,-0.892 2,-2 l 0,-1 c 0,1.108 -0.892,2 -2,2 L 6,44 C 4.892,44 4,43.108 4,42 Z"/>
 <path style="opacity:0.2;fill:none;stroke:#000000;stroke-width:4;stroke-linejoin:round" d="m 24,21 c 0,-3 -2,-10 7,-10 9,0 9,14 0,14 l -14,0 c -9,0 -9,14 0,14 9,0 7.041425,-8 7,-10"/>
 <path style="fill:none;stroke:#f4f4f7;stroke-width:4;stroke-linejoin:round" d="m 24,20 c 0,-3 -2,-10 7,-10 9,0 9,14 0,14 l -14,0 c -9,0 -9,14 0,14 9,0 7.041425,-8 7,-10"/>
</svg>
