<svg xmlns="http://www.w3.org/2000/svg" width="48" height="48" version="1.1">
 <path style="opacity:.2" d="m16 5-8.0586 5.643-1.9375 1.357-0.0039 26 10 7v-22.85l16 22.85 8.059-5.641 1.941-1.359v-26l-10-7v22.85z"/>
 <path style="fill:#6ba63f" d="m42 11-10-7v40l10-7z"/>
 <path style="fill:#42afe6" d="m6.003 11 9.997-7v40l-10-7z"/>
 <path style="fill:#96ca6b" d="m16 4 24.058 34.359-8.058 5.641-24.058-34.358z"/>
 <path style="fill:#569e41" d="m32 26.85v17.15l8.059-5.641-8.059-11.509z"/>
 <path style="fill:#70be63" d="m16 4l-8.0586 5.6426 8.0586 11.507v-17.15z"/>
 <path style="opacity:.2;fill:#f4f4f7" d="m16 4l-8.0586 5.6426-1.9375 1.3574v1l1.9375-1.357 8.0586-5.643 16 22.85v-1l-16-22.85zm16 0v1l10 7v-1l-10-7z"/>
</svg>
