<svg xmlns="http://www.w3.org/2000/svg" width="48" height="48" version="1">
 <path style="opacity:0.2" d="m 26.289062,5.0037721 c -0.503803,0.021109 -1.002397,0.139522 -1.464843,0.3125 -4.148037,1.0953437 -7.938942,2.8744486 -11.457031,4.7597659 -0.02493,0.01332 -0.04967,0.02699 -0.07422,0.04101 -0.664061,0.380293 -1.712624,0.904755 -2.740235,1.955079 -1.0276107,1.050326 -1.977983,3.239527 -1.3535152,5.232422 l -0.076172,-0.300782 c 0.5707021,2.8152 1.2459311,5.796266 2.4414061,8.736328 -0.01569,0.01309 -0.05677,0.02023 -0.07226,0.0332 -0.404917,0.338429 -0.709088,0.711302 -0.980469,1.146484 -0.9653559,1.503224 -1.0548052,3.169883 -0.9394534,4.357422 0.1163225,1.197531 0.3617227,2.107964 0.4238282,2.625 0.00184,0.01499 0.00379,0.02996 0.00586,0.04492 0.08682,0.641843 0.167299,1.671151 0.707031,2.892578 0.53069,1.200965 1.973239,2.696967 3.810547,3.011718 0.572008,0.14295 1.421375,0.154038 2.404297,-0.419921 1.624442,2.326319 3.843936,4.459448 7.054688,5.355468 0.0039,0.0013 0.0078,0.0026 0.01172,0.0039 0.373735,0.102593 0.808481,0.150943 1.25586,0.173828 1.936615,0.203411 3.725572,-0.497608 4.966797,-1.457032 1.26857,-0.980561 2.123124,-2.179136 2.732421,-3.355468 0.0046,-0.0091 0.0092,-0.01821 0.01367,-0.02734 0.469655,-0.930302 0.807299,-1.900392 1.117188,-2.875 0.02019,-4.48e-4 0.04037,-0.0011 0.06055,-0.002 2.565953,-0.144545 4.367182,-1.718409 4.6875,-4.367188 0.239618,-1.981759 0.216615,-3.95343 0.04102,-5.863281 -0.06879,-1.113731 -0.37352,-1.978828 -0.925781,-2.912109 C 37.638666,23.597027 37.232451,23.009791 36.628906,22.529163 35.242581,18.223484 33.121793,14.094168 31.818359,9.7869753 31.804869,9.7331853 31.789887,9.6797797 31.773438,9.626819 31.499193,8.7454994 31.083607,7.8252429 30.306641,6.9041628 29.529676,5.9830825 28.129359,4.9266624 26.289062,5.0037721 Z m -0.01953,5.2382809 0.101563,0.02344 0.154297,0.09961 c 1.277428,1.422112 2.079364,3.173374 2.896484,4.865235 0.268374,1.047578 1.726721,2.512942 0.488281,3.353515 -0.287088,1.057733 -1.179923,1.137738 -1.876953,0.298828 -0.98399,-1.118787 0.240244,-2.850603 -0.324219,-3.93164 -0.304597,1.139199 -1.29466,3.476515 -2.623046,1.566406 -0.887061,-1.529698 -1.1128,-3.354151 -2.128907,-4.83789 -0.01272,-1.159753 2.353723,-0.91894 3.3125,-1.437501 z m -4.162109,1.22461 0.130859,0.04297 c 1.065165,1.613712 1.909043,4.0001 0.488281,5.662109 -1.79879,0.147999 -2.739425,-1.618718 -3.248046,-3.005859 -0.595441,-1.494396 -0.569644,0.404244 -0.394532,1 -0.134043,0.738676 1.485435,2.560194 0.310547,2.521484 -1.539876,-0.215128 -2.82892,-1.054335 -3.769531,-2.220703 -0.868476,1.123844 0.941335,2.297489 1.765625,3.03125 0.648596,1.211906 -1.762287,0.697243 -2.318359,0.181641 -0.945697,0.4432 1.418884,1.216771 1.634765,1.896484 -0.825927,1.087801 -2.82214,-0.134509 -2.427734,-1.507813 -0.169468,-1.542344 -0.522716,-3.570647 1.017578,-4.599609 2.162611,-1.197057 4.463254,-2.194702 6.810547,-3.001953 z"/>
 <path style="fill:#4f4f4f" d="M 26.289062 4.0039062 C 25.785259 4.0250153 25.286665 4.1434282 24.824219 4.3164062 C 20.676182 5.4117499 16.885277 7.1908548 13.367188 9.0761719 C 13.342258 9.0894939 13.317519 9.1031665 13.292969 9.1171875 C 12.628908 9.49748 11.580345 10.021942 10.552734 11.072266 C 9.5251233 12.122592 8.574751 14.311793 9.1992188 16.304688 L 9.1230469 16.003906 C 9.693749 18.819106 10.368978 21.800172 11.564453 24.740234 C 11.548763 24.753324 11.507687 24.760468 11.492188 24.773438 C 11.087271 25.111867 10.7831 25.48474 10.511719 25.919922 C 9.5463631 27.423146 9.4569138 29.089805 9.5722656 30.277344 C 9.6885881 31.474875 9.9339883 32.385308 9.9960938 32.902344 C 9.9979337 32.917334 9.9998831 32.932306 10.001953 32.947266 C 10.088773 33.589109 10.169252 34.618417 10.708984 35.839844 C 11.239674 37.040809 12.682223 38.536811 14.519531 38.851562 C 15.091539 38.994512 15.940906 39.0056 16.923828 38.431641 C 18.54827 40.75796 20.767764 42.891089 23.978516 43.787109 C 23.982416 43.788409 23.986314 43.789716 23.990234 43.791016 C 24.363969 43.893609 24.798715 43.941959 25.246094 43.964844 C 27.182709 44.168255 28.971666 43.467236 30.212891 42.507812 C 31.481461 41.527251 32.336015 40.328676 32.945312 39.152344 C 32.949913 39.143244 32.954514 39.13413 32.958984 39.125 C 33.428639 38.194698 33.766283 37.224608 34.076172 36.25 C 34.096362 36.249552 34.116539 36.248947 34.136719 36.248047 C 36.702672 36.103502 38.503901 34.529638 38.824219 31.880859 C 39.063837 29.8991 39.040834 27.927429 38.865234 26.017578 C 38.796444 24.903847 38.491714 24.03875 37.939453 23.105469 C 37.638666 22.597161 37.232451 22.009925 36.628906 21.529297 C 35.242581 17.223618 33.121793 13.094302 31.818359 8.7871094 C 31.804869 8.7333194 31.789887 8.6799138 31.773438 8.6269531 C 31.499193 7.7456335 31.083607 6.825377 30.306641 5.9042969 C 29.529676 4.9832166 28.129359 3.9267965 26.289062 4.0039062 z M 26.269531 9.2421875 L 26.371094 9.265625 L 26.525391 9.3652344 C 27.802819 10.787346 28.604755 12.538608 29.421875 14.230469 C 29.690249 15.278047 31.148596 16.743411 29.910156 17.583984 C 29.623068 18.641717 28.730233 18.721722 28.033203 17.882812 C 27.049213 16.764025 28.273447 15.032209 27.708984 13.951172 C 27.404387 15.090371 26.414324 17.427687 25.085938 15.517578 C 24.198877 13.98788 23.973138 12.163427 22.957031 10.679688 C 22.944316 9.5199351 25.310754 9.7607481 26.269531 9.2421875 z M 22.107422 10.466797 L 22.238281 10.509766 C 23.303446 12.123478 24.147324 14.509866 22.726562 16.171875 C 20.927772 16.319874 19.987137 14.553157 19.478516 13.166016 C 18.883075 11.67162 18.908872 13.57026 19.083984 14.166016 C 18.949941 14.904692 20.569419 16.72621 19.394531 16.6875 C 17.854655 16.472372 16.565611 15.633165 15.625 14.466797 C 14.756524 15.590641 16.566335 16.764286 17.390625 17.498047 C 18.039221 18.709953 15.628338 18.19529 15.072266 17.679688 C 14.126569 18.122888 16.49115 18.896459 16.707031 19.576172 C 15.881104 20.663973 13.884891 19.441663 14.279297 18.068359 C 14.109829 16.526015 13.756581 14.497712 15.296875 13.46875 C 17.459486 12.271693 19.760129 11.274048 22.107422 10.466797 z"/>
 <path style="opacity:0.2" d="m 26.429688,8.0029211 c -0.180694,0.00758 -0.368857,0.046734 -0.564454,0.1230469 -3.887886,0.9916907 -7.542339,2.713357 -11.044922,4.591797 -1.359039,0.778882 -3.289903,1.851261 -2.716796,3.681641 0.577087,2.84887 1.226135,5.724038 2.351562,8.421874 0.645938,-0.560542 -0.277289,-2.404683 -0.384766,-3.34375 -0.462099,-1.981701 -1.214365,-4.008462 -0.935546,-6.060546 0.682575,-1.530536 2.469127,-2.167099 3.849609,-2.994141 2.887678,-1.392057 5.85689,-2.9022584 9.115234,-3.21875 1.812528,-0.1090647 2.173052,2.255019 3.013672,3.414063 0.704626,1.206279 1.091756,3.182265 1.791016,3.974609 C 30.546208,14.488725 29.435391,12.584642 28.916016,10.51464 28.582181,9.4409971 27.694545,7.9498822 26.429688,8.0029211 Z M 23.626953,18.850577 c -2.874297,0.04929 -5.628648,2.000265 -6.714844,4.548829 -1.533825,3.706179 -0.799136,7.948484 0.845703,11.501953 1.406528,2.978185 3.62899,6.014195 7.046876,6.96875 0.231644,0.06364 0.471513,0.101489 0.71289,0.101562 2.183644,0.275233 3.87987,-1.503729 4.769531,-3.222656 1.912694,-3.791593 2.235697,-8.249336 1.294922,-12.337891 -0.733076,-3.346927 -3.168182,-6.572636 -6.720703,-7.460937 -0.411,-0.07437 -0.823761,-0.106651 -1.234375,-0.09961 z m 10.517578,5.763672 c -0.139086,-0.02049 -0.282596,-0.01262 -0.43164,0.0293 0.40601,3.183036 0.102959,6.397675 0.259765,9.585938 0.86813,-0.04894 1.761784,-0.838135 1.869141,-1.726563 0.211705,-1.752256 0.199008,-3.542788 0.0332,-5.300781 -0.05252,-0.914526 -0.756865,-2.44443 -1.730469,-2.587891 z m -5.595703,0.13086 c 0.69763,0.0054 0.01369,0.504086 -0.611328,0.61914 -1.254576,0.562696 1.417591,0.609763 -0.107422,1.103516 -1.282466,0.376035 -0.10822,0.747114 0.583984,0.833984 -0.44065,0.603289 -2.615963,0.257213 -3.685546,0.494141 -2.149447,0.03388 -3.923442,1.294645 -5.847657,2.027344 -0.90608,0.283212 0.602945,-0.667699 0.552735,-0.855469 -1.172689,-0.06783 -0.201691,-0.57721 0.378906,-0.789063 0.591954,-1.218622 -2.159,-0.119467 -2.28125,-0.796875 1.804797,-0.701485 3.703267,0.486122 5.568359,0.146485 2.113405,-0.08019 3.117698,-2.297358 5.0625,-2.753906 0.160271,-0.02195 0.287058,-0.03007 0.386719,-0.0293 z m -14.708984,3.117187 c -0.227939,0.0268 -0.545159,0.286368 -0.763672,0.644531 -0.989545,1.515646 -0.259181,3.378925 -0.0625,5.017579 0.175381,1.297537 0.41316,3.129637 2.060547,3.373046 0.889115,0.247655 0.361974,-0.684514 0.277343,-1.064453 -0.983418,-2.280228 -1.421682,-4.751941 -1.285156,-7.21875 0.141146,-0.572355 0.0014,-0.77875 -0.226562,-0.751953 z m 16.195312,0.816406 c 1.799732,-0.03689 0.947253,2.27193 0.97461,3.490235 0.09854,2.154453 -0.440893,4.270199 -1.189454,6.283203 -0.713481,1.659989 -2.743692,1.911356 -4.355468,2.183594 -0.462503,0.0337 -0.933763,0.08754 -1.396485,0.0293 -2.185779,-0.220301 -2.980226,-2.465893 -4.138671,-3.927734 -0.814382,-1.204527 -2.11409,-2.33127 -2.236329,-3.808594 0.2399,-0.867531 1.041571,-2.01768 2.06836,-2.03125 1.394278,0.183415 2.845266,0.33478 4.15625,-0.318359 1.776538,-0.912345 3.609196,-2.045257 5.720703,-1.861328 0.144594,-0.02433 0.276502,-0.0366 0.396484,-0.03906 z m -1.179687,0.59961 c -2.634546,-0.10812 -4.300801,2.661572 -6.957031,2.388672 -1.424656,-0.241564 -3.556851,-0.05588 -3.369141,1.832031 -0.419062,0.829351 1.782508,3.281898 1.707031,1.449219 -0.213288,-1.754568 2.184675,-1.522287 3.248047,-2.34961 1.787341,-0.716053 3.72788,-0.961497 5.625,-1.251953 0.395555,0.4471 1.432505,1.905819 1.59375,0.390625 -0.186738,-0.664528 0.456774,-1.796881 -0.341797,-2.1875 -0.485231,-0.16639 -0.986605,-0.283917 -1.505859,-0.271484 z m -2.830078,7.308594 c -0.967178,0.05194 -2.05958,0.830133 -0.697266,1.423828 0.625695,0.248203 1.292277,-0.143119 1.746094,-0.53711 0.06617,-0.68798 -0.468522,-0.917881 -1.048828,-0.886718 z"/>
 <path style="fill:#ffb925" d="m 24.805102,40.869196 c -3.417886,-0.954555 -5.640558,-3.99084 -7.047086,-6.969025 -1.64484,-3.553469 -2.380342,-7.795436 -0.846517,-11.501616 1.241366,-2.912644 4.661418,-5.044463 7.949422,-4.449507 3.552521,0.888301 5.987423,4.1146 6.720499,7.461527 0.940775,4.088555 0.617596,8.5467 -1.295098,12.338293 -0.889661,1.718927 -2.584591,3.498038 -4.768235,3.222805 -0.241377,-7.3e-5 -0.481341,-0.03884 -0.712985,-0.102477 z m 0.658943,-1.235397 c 1.611776,-0.272238 3.643434,-0.521949 4.356915,-2.181938 0.74856,-2.013004 1.287448,-4.130028 1.188904,-6.284481 -0.02918,-1.299525 0.941495,-3.839364 -1.372007,-3.450171 -2.111507,-0.183929 -3.942488,0.948159 -5.719026,1.860504 -1.310984,0.653139 -2.763142,0.501676 -4.15742,0.318261 -1.026789,0.01357 -1.827255,1.164485 -2.067155,2.032016 0.122239,1.477324 1.420283,2.604111 2.234665,3.808638 1.158445,1.461841 1.954174,3.707265 4.139953,3.927567 0.462722,0.05824 0.932668,0.0033 1.395171,-0.0304 z m -0.136012,-2.624338 c -2.179702,-0.949912 1.922544,-2.371065 1.746101,-0.536451 -0.453817,0.393991 -1.120406,0.784654 -1.746101,0.536451 z m -6.446361,-8.188155 c 1.924215,-0.732699 3.697252,-1.992151 5.846699,-2.026034 1.069583,-0.236928 3.24449,0.109558 3.68514,-0.493731 -0.692204,-0.08687 -1.866686,-0.459173 -0.58422,-0.835208 1.525013,-0.493753 -1.146238,-0.540184 0.108338,-1.10288 0.71431,-0.13149 1.506104,-0.764989 0.22394,-0.589392 -1.944802,0.456548 -2.94884,2.673419 -5.062245,2.753608 -1.865092,0.339637 -3.763421,-0.847538 -5.568218,-0.146053 0.12225,0.677408 2.87401,-0.42226 2.282056,0.796362 -0.580597,0.211853 -1.552914,0.720586 -0.380225,0.788418 0.05021,0.18777 -1.457341,1.138122 -0.551261,0.85491 z m -3.807274,7.075507 c -1.647387,-0.243409 -1.88593,-2.075722 -2.061311,-3.37326 -0.196681,-1.638654 -0.926285,-3.501267 0.06326,-5.016913 0.437027,-0.716327 1.271415,-1.037707 0.989124,0.107004 -0.136526,2.466809 0.303633,4.938152 1.287051,7.21838 0.08463,0.379939 0.610985,1.312443 -0.27813,1.064788 z M 33.97172,33.228736 c -0.156806,-3.188263 0.146937,-6.402449 -0.259073,-9.585485 1.192352,-0.335308 2.101415,1.513125 2.16144,2.558297 0.165805,1.757993 0.180255,3.547324 -0.03145,5.29958 -0.107357,0.888428 -1.002787,1.678667 -1.870917,1.727608 z M 14.454702,23.819432 c -1.125427,-2.697837 -1.774087,-5.571937 -2.351174,-8.420807 -0.573107,-1.830379 1.358458,-2.902557 2.717498,-3.681439 3.502582,-1.8784399 7.156162,-3.6011417 11.044048,-4.5928324 1.564769,-0.6105068 2.66906,1.1615215 3.050585,2.3885418 0.519375,2.0700026 1.630903,3.9744776 1.988992,6.0785176 -0.69926,-0.792344 -1.086521,-2.76844 -1.791147,-3.974719 -0.84062,-1.159043 -1.201687,-3.5229211 -3.014215,-3.4138564 -3.258344,0.3164916 -6.228047,1.8273874 -9.115725,3.2194444 -1.380482,0.827042 -3.166181,1.463623 -3.848756,2.994159 -0.278819,2.052084 0.472896,4.078194 0.934995,6.059896 0.107476,0.939066 1.030837,2.782553 0.384899,3.343095 z"/>
 <path style="fill:#f4f4f7" d="m 28.855466,28.277739 c -2.634546,-0.10812 -4.301214,2.661144 -6.957445,2.388244 -1.424655,-0.241564 -3.557211,-0.05561 -3.369501,1.832297 -0.419062,0.829351 1.784016,3.282027 1.708539,1.449348 -0.213288,-1.754568 2.184668,-1.522145 3.24804,-2.349468 1.787341,-0.716053 3.727485,-0.961326 5.624605,-1.251782 0.395555,0.4471 1.431249,1.905774 1.592494,0.39058 -0.186738,-0.664528 0.457667,-1.79721 -0.340904,-2.187829 -0.485231,-0.16639 -0.986574,-0.283823 -1.505828,-0.27139 z"/>
 <path style="fill:#f4f4f7;opacity:0.1" d="M 26.289062 4.0039062 C 25.785259 4.0250153 25.286665 4.1434282 24.824219 4.3164062 C 20.676182 5.4117499 16.885276 7.1908548 13.367188 9.0761719 C 13.342257 9.0894939 13.317519 9.1031665 13.292969 9.1171875 C 12.628908 9.49748 11.580345 10.021942 10.552734 11.072266 C 9.6615402 11.98316 8.831363 13.750776 9.0332031 15.503906 C 9.1613263 14.107556 9.8320559 12.808875 10.552734 12.072266 C 11.580345 11.021942 12.628908 10.49748 13.292969 10.117188 C 13.317519 10.103168 13.342258 10.089492 13.367188 10.076172 C 16.885277 8.1908546 20.676182 6.4117499 24.824219 5.3164062 C 25.286665 5.1434282 25.785259 5.0250153 26.289062 5.0039062 C 28.129359 4.9267965 29.529676 5.9832166 30.306641 6.9042969 C 31.083607 7.825377 31.499193 8.7456335 31.773438 9.6269531 C 31.789887 9.6799138 31.804869 9.7333194 31.818359 9.7871094 C 33.121793 14.094302 35.242581 18.223618 36.628906 22.529297 C 37.232451 23.009925 37.638653 23.597222 37.939453 24.105469 C 38.491714 25.03875 38.796444 25.903847 38.865234 27.017578 C 38.936129 27.788661 38.972421 28.571543 38.986328 29.359375 C 39.006946 28.231814 38.96606 27.11417 38.865234 26.017578 C 38.796444 24.903847 38.491714 24.03875 37.939453 23.105469 C 37.638666 22.597161 37.232451 22.009925 36.628906 21.529297 C 35.242581 17.223618 33.121793 13.094302 31.818359 8.7871094 C 31.804869 8.7333194 31.789887 8.6799138 31.773438 8.6269531 C 31.499193 7.7456335 31.083607 6.825377 30.306641 5.9042969 C 29.529676 4.9832166 28.129359 3.9267965 26.289062 4.0039062 z M 23.234375 11.134766 C 23.069352 11.273461 22.954421 11.441711 22.957031 11.679688 C 23.973138 13.163426 24.198877 14.98788 25.085938 16.517578 C 26.414323 18.427687 27.404387 16.090371 27.708984 14.951172 C 27.758612 15.046216 27.779997 15.151613 27.804688 15.255859 C 27.871349 14.780746 27.903404 14.323517 27.708984 13.951172 C 27.404387 15.090371 26.414323 17.427687 25.085938 15.517578 C 24.287349 14.140447 24.020206 12.526016 23.234375 11.134766 z M 19.144531 12.611328 C 19.136971 12.614533 19.128652 12.615932 19.121094 12.619141 C 18.958531 12.628809 18.957483 13.260386 19.021484 13.763672 C 19.085169 13.523704 19.222074 13.522417 19.478516 14.166016 C 19.987137 15.553157 20.927772 17.319874 22.726562 17.171875 C 23.390031 16.395748 23.545839 15.461091 23.429688 14.521484 C 23.355469 15.108756 23.151923 15.674288 22.726562 16.171875 C 20.927772 16.319874 19.987137 14.553157 19.478516 13.166016 C 19.331653 12.797429 19.22289 12.63755 19.144531 12.611328 z M 15.625 14.466797 C 15.330351 14.848085 15.358269 15.233792 15.537109 15.607422 C 15.564223 15.560556 15.588889 15.513526 15.625 15.466797 C 16.565611 16.633165 17.854655 17.472372 19.394531 17.6875 C 20.000514 17.707466 19.860269 17.231972 19.603516 16.666016 C 19.546225 16.68139 19.479052 16.690285 19.394531 16.6875 C 17.854655 16.472372 16.565611 15.633165 15.625 14.466797 z M 14.142578 16.673828 C 14.078278 17.474763 14.197842 18.327031 14.279297 19.068359 C 13.884891 20.441663 15.881104 21.663973 16.707031 20.576172 C 16.64243 20.372773 16.377356 20.161966 16.074219 19.953125 C 15.15552 20.13431 13.966086 19.158945 14.279297 18.068359 C 14.231277 17.631323 14.172848 17.15511 14.142578 16.673828 z M 27.685547 17.119141 C 27.59891 17.753956 27.591592 18.380705 28.033203 18.882812 C 28.730233 19.721722 29.623068 19.641717 29.910156 18.583984 C 30.468969 18.204699 30.46741 17.696125 30.285156 17.158203 C 30.207869 17.311113 30.098327 17.456266 29.910156 17.583984 C 29.623068 18.641717 28.730233 18.721722 28.033203 17.882812 C 27.829989 17.65176 27.735602 17.391353 27.685547 17.119141 z M 15.072266 17.679688 C 14.300864 18.041204 15.71778 18.622454 16.388672 19.193359 C 17.111498 19.314997 17.766563 19.20049 17.390625 18.498047 C 17.300508 18.417827 17.173341 18.314705 17.064453 18.224609 C 16.463805 18.313632 15.415785 17.998206 15.072266 17.679688 z M 11.287109 24.976562 C 10.987797 25.262305 10.731724 25.567125 10.511719 25.919922 C 9.6114298 27.321825 9.4835137 28.850617 9.5625 30.015625 C 9.618342 29.040916 9.85215 27.946983 10.511719 26.919922 C 10.7831 26.48474 11.087271 26.111867 11.492188 25.773438 C 11.507677 25.760468 11.548763 25.753324 11.564453 25.740234 C 11.461168 25.486221 11.382896 25.231054 11.287109 24.976562 z"/>
</svg>
