<svg width="48" height="48" version="1.1" xmlns="http://www.w3.org/2000/svg">
 <path d="m7.9996705 10.999998c-1.781126 7e-4 -2.672952 2.154074-1.413946 3.414062l10.049938 10.050782-11.99118 11.066406c-1.335185 1.234774-0.463194 3.466452 1.355356 3.46875h9.9991595c0.530353-1.02e-4 1.038951-0.210866 1.413945-0.585938l6.585385-6.585938 6.585384 6.585938c0.374994 0.375072 0.883592 0.585836 1.413945 0.585938h9.999161c1.818549-0.0022 2.690538-2.233976 1.355353-3.46875l-11.991179-11.066406 10.049938-10.050782c1.259005-1.259988 0.367181-3.413362-1.413945-3.414062h-7.999328c-0.502473 5.28e-4 -0.986338 0.19018-1.355356 0.53125l-6.643973 6.132812-6.643974-6.132812c-0.369018-0.341064-0.852885-0.530722-1.355356-0.53125z" style="opacity:.2"/>
 <path d="m7.9996705 9.9999978c-1.781126 7.002e-4 -2.672952 2.1540742-1.413946 3.4140622l10.049938 10.050782-11.99118 11.066406c-1.335185 1.234774-0.463194 3.466452 1.355356 3.46875h9.9991595c0.530353-1.02e-4 1.038951-0.210866 1.413945-0.585938l6.585385-6.585938 6.585384 6.585938c0.374994 0.375072 0.883592 0.585836 1.413945 0.585938h9.999161c1.818549-0.0022 2.690538-2.233976 1.355353-3.46875l-11.991179-11.066406 10.049938-10.050782c1.259005-1.259988 0.367181-3.413362-1.413945-3.4140622h-7.999328c-0.502473 5.282e-4 -0.986338 0.1901802-1.355356 0.5312502l-6.643973 6.132812-6.643974-6.132812c-0.369018-0.341064-0.852885-0.530722-1.355356-0.5312502z" style="fill:#3e9e90"/>
 <path d="m13.999167 24.999998c0-6 3.999664-10 9.999161-10 5.999496 0 9.99916 4 9.99916 10 0 4-5.999497 12-9.99916 12-3.999664 0-9.999161-8-9.999161-12z" style="opacity:.2"/>
 <path d="m7.9996705 9.9999978c-1.402588 5.502e-4 -2.238097 1.3327282-1.921715 2.5156262 0.211903-0.824188 0.916464-1.515232 1.921715-1.515626h7.9993275c0.502471 5.28e-4 0.986338 0.19018 1.355356 0.53125l6.643974 6.132812 6.643973-6.132812c0.369018-0.341066 0.852883-0.530722 1.355356-0.53125h7.999328c1.005251 3.94e-4 1.709812 0.691438 1.921715 1.515626 0.31638-1.182898-0.519127-2.515076-1.921715-2.5156262h-7.999328c-0.502473 5.282e-4 -0.986338 0.1901802-1.355356 0.5312502l-6.643973 6.132812-6.643974-6.132812c-0.369018-0.341064-0.852885-0.530722-1.355356-0.5312502zm8.1165035 13.945312-11.471692 10.585938c-0.593569 0.54893-0.730548 1.289706-0.562454 1.949218 0.09149-0.341318 0.262601-0.671914 0.562454-0.949218l11.99118-11.066406zm15.764305 0-0.519487 0.519532 11.991179 11.066406c0.299855 0.277304 0.470962 0.607892 0.562454 0.949218 0.168083-0.659524 0.03112-1.400288-0.562454-1.949218z" style="fill:#f4f4f7;opacity:.1"/>
 <path d="m13.999167 23.999998c0-6 3.999664-10 9.999161-10 5.999496 0 9.99916 4 9.99916 10 0 4-5.999497 12-9.99916 12-3.999664 0-9.999161-8-9.999161-12z" style="fill:#67c3b5"/>
 <path d="m15.998998 22.999998s0 4 1.999833 4h3.999664s-1.999831-4-3.999664-4zm13.998826 0c-1.999833 0-3.999664 4-3.999664 4h3.999664c1.999833 0 1.999833-4 1.999833-4z" style="opacity:.1"/>
 <path d="m15.998998 21.999998s0 4 1.999833 4h3.999664s-1.999831-4-3.999664-4zm13.998826 0c-1.999833 0-3.999664 4-3.999664 4h3.999664c1.999833 0 1.999833-4 1.999833-4z" style="fill:#393939"/>
 <path d="m23.998328 13.999998c-5.999497 0-9.999161 4-9.999161 10 0 0.15516 0.02537 0.325698 0.04296 0.492188 0.227257-5.70689 4.133627-9.492188 9.956198-9.492188s9.72894 3.785298 9.956197 9.492188c0.01751-0.16648 0.04296-0.337034 0.04296-0.492188 0-6-3.999664-10-9.99916-10z" style="fill:#f4f4f7;opacity:.2"/>
</svg>
