<svg xmlns="http://www.w3.org/2000/svg" width="48" height="48" version="1">
 <circle style="opacity:0.2" cx="24" cy="25" r="20"/>
 <circle style="fill:#ff5722" cx="24" cy="24" r="20"/>
 <path style="opacity:0.2" d="m 18,19 c -2.2091,0 -4,1.7909 -4,4 0,2.2091 1.7909,4 4,4 2.2091,0 4,-1.7909 4,-4 h -4 z m 7,0 v 2 h 9 v -2 z m 0,5 v 2 h 9 v -2 z m -11,5 v 2 h 16 v -2 z"/>
 <path style="fill:#f4f4f7" d="m 18,18 c -2.2091,0 -4,1.7909 -4,4 0,2.2091 1.7909,4 4,4 2.2091,0 4,-1.7909 4,-4 h -4 z m 7,0 v 2 h 9 v -2 z m 0,5 v 2 h 9 v -2 z m -11,5 v 2 h 16 v -2 z"/>
 <path style="opacity:0.2;fill:#f4f4f7" d="M 24 4 A 20 20 0 0 0 4 24 A 20 20 0 0 0 4.0214844 24.582031 A 20 20 0 0 1 24 5 A 20 20 0 0 1 43.978516 24.417969 A 20 20 0 0 0 44 24 A 20 20 0 0 0 24 4 z"/>
</svg>
