<svg xmlns="http://www.w3.org/2000/svg" width="48" height="48" version="1.1">
 <path style="opacity:0.2" d="M 6.8574219,10 C 5.2745647,10 4,11.344832 4,13.015625 v 23.96875 C 4,38.655168 5.2745647,40 6.8574219,40 H 24 24.099609 41.142578 C 42.725435,40 44,38.655168 44,36.984375 V 13.015625 C 44,11.344832 42.725435,9.9985143 41.142578,10 H 24.099609 24 Z"/>
 <path style="fill:#b2bfd9" d="M 6.8574219,9 C 5.2745647,9 4,10.344832 4,12.015625 v 23.96875 C 4,37.655168 5.2745647,39 6.8574219,39 H 24.1 V 9 Z"/>
 <path style="opacity:0.2;fill:#f4f4f7" d="M 6.8574219 9 C 5.2745647 9 4 10.344832 4 12.015625 L 4 13.015625 C 4 11.344832 5.2745647 10 6.8574219 10 L 24.099609 10 L 24.099609 9 L 6.8574219 9 z"/>
 <path style="fill:#51495d" d="M 24,9 V 39 H 41.142857 C 42.725714,39 44,37.654611 44,35.983818 V 12.016182 C 44,10.345389 42.725714,8.9985143 41.142857,9 Z"/>
 <circle style="opacity:0.2" cx="36" cy="25" r="10"/>
 <circle style="fill:#b2bfd9" cx="36" cy="24" r="10"/>
 <circle style="fill:#3ea5e6" cx="36" cy="24" r="7"/>
 <path style="opacity:0.2" d="M 36 17 A 7 7 0 0 0 29 24 A 7 7 0 0 0 29.023438 24.541016 A 7 7 0 0 1 36 18 A 7 7 0 0 1 42.976562 24.458984 A 7 7 0 0 0 43 24 A 7 7 0 0 0 36 17 z"/>
 <path style="opacity:0.1;fill:#f4f4f7" d="M 24 9 L 24 10 L 41.142578 10 C 42.725435 9.9985143 44 11.344832 44 13.015625 L 44 12.015625 C 44 10.344832 42.725435 8.9985143 41.142578 9 L 24 9 z"/>
</svg>
