<svg xmlns="http://www.w3.org/2000/svg" width="48" height="48" version="1.1">
 <rect style="fill:#325f78" width="40" height="40" x="4" y="4" rx="2" ry="2"/>
 <path style="opacity:0.2" d="m 38.166016,13.996094 c -0.852667,0 -1.546698,0.217057 -2.082032,0.65039 -0.535213,0.432934 -0.802734,1.01806 -0.802734,1.75586 0,0.565533 0.165394,1.053977 0.496094,1.464844 0.335073,0.410866 0.767968,0.704139 1.298828,0.880859 -0.639627,0.22532 -1.134315,0.561599 -1.482422,1.007812 -0.343753,0.441767 -0.515625,0.987286 -0.515625,1.636719 0,0.539007 0.140995,1.005244 0.423828,1.398438 0.28718,0.3932 0.660301,0.68164 1.117188,0.867187 0.456906,0.185553 0.969035,0.279297 1.539062,0.279297 l 0,-0.002 c 0.88332,0 1.616139,-0.221762 2.199219,-0.667969 0.58308,-0.4462 0.875,-1.072886 0.875,-1.876953 0,-0.614113 -0.17835,-1.161025 -0.535156,-1.642578 -0.356787,-0.48154 -0.835067,-0.819279 -1.435547,-1.013672 0.543906,-0.198807 0.971863,-0.495479 1.285156,-0.888672 0.317647,-0.397633 0.476563,-0.879812 0.476563,-1.445312 0,-0.742194 -0.264062,-1.32732 -0.794922,-1.75586 -0.526467,-0.432953 -1.213967,-0.648437 -2.0625,-0.648437 z M 11.21875,14 C 10.522083,14 9.9302927,14.208906 9.4433594,14.628906 8.9560127,15.044173 8.5928356,15.623034 8.3535156,16.365234 8.1185423,17.103034 8,17.97996 8,18.996094 c 0,0.73336 0.063266,1.401113 0.1894531,2.001953 0.13054,0.59642 0.3218388,1.121125 0.5742188,1.576172 0.25676,0.450646 0.592486,0.802867 1.0058593,1.054687 C 10.187265,23.876313 10.670483,24 11.21875,24 l 0,-0.002 c 0.544,0 1.019068,-0.122474 1.427734,-0.369141 0.41338,-0.25182 0.742655,-0.6055 0.986328,-1.060547 0.248021,-0.455046 0.432848,-0.981705 0.554688,-1.578125 0.12184,-0.5964 0.183594,-1.26074 0.183594,-1.99414 0,-0.764274 -0.06673,-1.449428 -0.197266,-2.054688 -0.13054,-0.609693 -0.323351,-1.132939 -0.580078,-1.570312 -0.25238,-0.44178 -0.581655,-0.779519 -0.986328,-1.013672 C 12.207129,14.118855 11.745257,14 11.21875,14 Z m 7.824219,0.134766 c -0.22626,0.15904 -0.565038,0.320908 -1.017578,0.484375 -0.448187,0.159046 -0.835763,0.271624 -1.16211,0.33789 l 0,0.875 c 0.29156,-0.03976 0.643268,-0.127225 1.056641,-0.259765 0.417733,-0.132534 0.764929,-0.275055 1.039062,-0.429688 l 0,7.873047 -2.298828,0 0,0.794922 5.431641,0 0,-0.794922 -2.050781,0 0,-8.880859 -0.998047,0 z m 10.939453,0 c -0.22626,0.15904 -0.565038,0.320908 -1.017578,0.484375 -0.448187,0.159046 -0.835763,0.271624 -1.16211,0.33789 l 0,0.875 c 0.29156,-0.03976 0.643268,-0.127225 1.056641,-0.259765 0.417733,-0.132534 0.764929,-0.275055 1.039063,-0.429688 l 0,7.873047 -2.298829,0 0,0.794922 5.431641,0 0,-0.794922 -2.050781,0 0,-8.880859 -0.998047,0 z m 8.175781,0.675781 c 0.552633,0 0.995472,0.144474 1.326172,0.431641 0.3307,0.282746 0.496094,0.660092 0.496094,1.132812 0,0.521333 -0.152438,0.954228 -0.457031,1.298828 -0.304567,0.3446 -0.760402,0.584257 -1.365235,0.716797 -0.600507,-0.13696 -1.055847,-0.376617 -1.369141,-0.716797 -0.308946,-0.34462 -0.464843,-0.777515 -0.464843,-1.298828 0,-0.468307 0.168853,-0.845652 0.503906,-1.132812 0.3394,-0.287167 0.781811,-0.431641 1.330078,-0.431641 z m -26.939453,0.08398 c 1.383733,0 2.074219,1.3543 2.074219,4.0625 0,1.365134 -0.179856,2.399096 -0.541016,3.101563 -0.35678,0.698 -0.86745,1.046875 -1.533203,1.046875 -0.674433,0 -1.201511,-0.352221 -1.5800781,-1.054688 -0.3742134,-0.706866 -0.5625,-1.736024 -0.5625,-3.08789 -0.00435,-1.294467 0.1854394,-2.295087 0.5683593,-3.001953 0.3829138,-0.711267 0.9084658,-1.066407 1.5742188,-1.066407 z m 13.509766,1.900391 c -0.256734,0 -0.45451,0.0744 -0.59375,0.224609 -0.13924,0.145787 -0.208985,0.318772 -0.208985,0.517578 0,0.203227 0.06975,0.379084 0.208985,0.529297 0.139246,0.145787 0.337023,0.21875 0.59375,0.21875 0.256726,0 0.452997,-0.07296 0.58789,-0.21875 0.13924,-0.150213 0.208985,-0.32607 0.208985,-0.529297 0,-0.198806 -0.06974,-0.371791 -0.208985,-0.517578 -0.134893,-0.150213 -0.331164,-0.224609 -0.58789,-0.224609 z m 13.429687,2.371094 c 0.61352,0.13254 1.108209,0.384752 1.482422,0.755859 0.378567,0.37108 0.568359,0.824295 0.568359,1.363281 0,1.201667 -0.684448,1.802735 -2.050781,1.802735 -0.670127,0 -1.182256,-0.15703 -1.539062,-0.470703 -0.35246,-0.313687 -0.529297,-0.754306 -0.529297,-1.324219 0,-0.55666 0.189792,-1.016633 0.568359,-1.378907 0.37856,-0.362266 0.87776,-0.611086 1.5,-0.748046 z m -13.429687,3.228515 c -0.256734,0 -0.45451,0.07296 -0.59375,0.21875 -0.13924,0.145794 -0.208985,0.320211 -0.208985,0.523438 0,0.198806 0.06975,0.373231 0.208985,0.523437 0.139246,0.145794 0.337023,0.21875 0.59375,0.21875 0.256726,0 0.452997,-0.07296 0.58789,-0.21875 0.13924,-0.150206 0.208985,-0.324631 0.208985,-0.523437 0,-0.203227 -0.06974,-0.377644 -0.208985,-0.523438 -0.134893,-0.145786 -0.331164,-0.21875 -0.58789,-0.21875 z m -10.369141,6.603516 c -0.431333,0 -0.796323,0.125573 -1.097656,0.378906 -0.3017,0.249207 -0.527621,0.597642 -0.675781,1.042969 -0.145467,0.44266 -0.21875,0.968452 -0.21875,1.578125 -1e-6,0.440027 0.03907,0.840665 0.117187,1.201172 0.08081,0.357853 0.199229,0.672286 0.355469,0.945312 0.158933,0.27038 0.36714,0.481719 0.623047,0.632813 C 13.721497,34.925784 14.019962,35 14.359375,35 l 0,-0.0059 c 0.336667,0 0.631432,-0.07208 0.884766,-0.21875 0.255906,-0.151094 0.460474,-0.363686 0.611328,-0.636719 0.153546,-0.273027 0.268323,-0.587459 0.34375,-0.945313 0.07543,-0.35784 0.113281,-0.757239 0.113281,-1.197265 0,-0.45858 -0.04223,-0.869269 -0.123047,-1.232422 -0.08081,-0.365807 -0.200442,-0.680933 -0.359375,-0.94336 -0.15624,-0.265073 -0.358855,-0.466928 -0.609375,-0.607421 -0.247827,-0.14314 -0.535381,-0.214844 -0.861328,-0.214844 z m 6.837891,0 c -0.431334,0 -0.798276,0.125573 -1.09961,0.378906 -0.3017,0.249207 -0.525668,0.597642 -0.673828,1.042969 -0.145467,0.44266 -0.21875,0.968452 -0.21875,1.578125 0,0.440027 0.03907,0.840665 0.117188,1.201172 0.08081,0.357853 0.199228,0.672286 0.355468,0.945312 0.158934,0.27038 0.367141,0.481719 0.623047,0.632813 C 20.559388,34.925784 20.857852,35 21.197266,35 l 0,-0.0059 c 0.336666,0 0.631432,-0.07208 0.884765,-0.21875 0.255907,-0.151094 0.458522,-0.363686 0.609375,-0.636719 0.153547,-0.273027 0.268324,-0.587459 0.34375,-0.945313 0.07543,-0.35784 0.113282,-0.757239 0.113282,-1.197265 0,-0.45858 -0.04028,-0.869269 -0.121094,-1.232422 -0.08081,-0.365807 -0.200442,-0.680933 -0.359375,-0.94336 -0.15624,-0.265073 -0.360808,-0.466928 -0.611328,-0.607421 -0.247827,-0.14314 -0.533429,-0.214844 -0.859375,-0.214844 z M 26.115234,29 c -0.376666,0 -0.711906,0.08333 -1.003906,0.25 -0.290927,0.1617 -0.512469,0.379317 -0.666016,0.652344 -0.153546,0.273026 -0.230468,0.576156 -0.230468,0.910156 0,0.25182 0.04951,0.488971 0.146484,0.708984 0.09697,0.21736 0.225092,0.400382 0.386719,0.548828 0.161627,0.145787 0.349693,0.260877 0.5625,0.345704 0.2155,0.08483 0.439468,0.126953 0.673828,0.126953 0.27746,0 0.542449,-0.06668 0.792969,-0.199219 -0.20742,0.262427 -0.344763,0.437917 -0.41211,0.525391 l -1.527343,2.015625 0.789062,0 1.441406,-1.939454 c 0.167014,-0.225313 0.29466,-0.402063 0.38086,-0.529296 0.0889,-0.129887 0.181583,-0.287103 0.28125,-0.472657 0.09967,-0.188206 0.170531,-0.371228 0.210937,-0.548828 0.0431,-0.1776 0.06445,-0.368152 0.06445,-0.572265 0,-0.238567 -0.04149,-0.466234 -0.125,-0.683594 -0.08351,-0.217367 -0.203135,-0.412385 -0.359375,-0.582031 -0.15624,-0.169647 -0.355216,-0.303564 -0.597656,-0.404297 C 26.681388,29.051617 26.411548,29 26.115234,29 Z m -1.277343,5.884766 -0.0039,0 0,0.0039 0.0039,-0.0039 z M 9.4746094,29.074219 C 9.334536,29.169645 9.1239033,29.267154 8.84375,29.365234 8.56629,29.460628 8.3270333,29.528559 8.125,29.568359 l 0,0.523438 C 8.3054867,30.067937 8.5233902,30.01702 8.7792969,29.9375 9.0379035,29.857973 9.2521683,29.772461 9.421875,29.679688 l 0,4.722656 -1.421875,0 0,0.478515 3.361328,0 0,-0.478515 -1.267578,0 0,-5.328125 -0.6191406,0 z m 23.4042966,0 c -0.140073,0.09543 -0.350706,0.192935 -0.630859,0.291015 -0.27746,0.09539 -0.516717,0.163325 -0.71875,0.203125 l 0,0.523438 c 0.180487,-0.02386 0.39839,-0.07478 0.654297,-0.154297 0.2586,-0.07953 0.472871,-0.165039 0.642578,-0.257812 l 0,4.722656 -1.421875,0 0,0.478515 3.361328,0 0,-0.478515 -1.269531,0 0,-5.328125 -0.617188,0 z m 3.433594,0.0078 -0.113281,3.072266 0.542969,0.06445 c 0.12392,-0.129887 0.280189,-0.233674 0.46875,-0.310547 0.188566,-0.07687 0.382691,-0.115234 0.582031,-0.115234 0.272073,0 0.498467,0.0604 0.68164,0.179687 0.183174,0.116634 0.314458,0.267572 0.392579,0.453125 0.07812,0.1829 0.117187,0.391033 0.117187,0.626953 0,0.429434 -0.120841,0.763387 -0.363281,1.001954 -0.239747,0.235919 -0.56273,0.355468 -0.966797,0.355468 -0.452567,0 -0.939085,-0.14466 -1.458985,-0.433594 l -0.230468,0.511719 c 0.58452,0.32074 1.163295,0.482422 1.734375,0.482422 0.27746,0 0.534431,-0.04087 0.771484,-0.123047 0.237053,-0.08217 0.44526,-0.202981 0.623047,-0.359375 0.180487,-0.159046 0.320255,-0.360902 0.419922,-0.607422 0.102367,-0.249173 0.152344,-0.529703 0.152344,-0.839843 0,-0.32604 -0.06649,-0.620386 -0.201172,-0.882813 -0.131994,-0.26508 -0.333396,-0.476978 -0.605469,-0.638672 -0.272073,-0.164346 -0.593844,-0.248047 -0.962891,-0.248047 -0.404093,0 -0.762951,0.105047 -1.078125,0.314454 l 0.06445,-1.980469 2.480469,0 0.05273,-0.523438 -3.103516,0 z m -10.177734,0.44336 c 0.3906,0 0.692703,0.120114 0.908203,0.361328 0.2155,0.24122 0.324219,0.539324 0.324219,0.894531 -10e-7,0.180253 -0.02937,0.345701 -0.08594,0.494141 -0.05388,0.145793 -0.122784,0.264648 -0.208984,0.357421 -0.0862,0.09015 -0.185689,0.166869 -0.298828,0.230469 -0.113141,0.06094 -0.226704,0.104326 -0.339844,0.13086 -0.110447,0.02387 -0.221585,0.03516 -0.332032,0.03516 -0.385213,0 -0.686103,-0.112571 -0.904296,-0.337891 -0.218194,-0.22796 -0.328125,-0.523558 -0.328125,-0.886718 0,-0.357854 0.11235,-0.65973 0.335937,-0.90625 0.226273,-0.249167 0.536394,-0.373047 0.929688,-0.373047 z m -11.775391,0.01172 c 0.8566,0 1.285156,0.812567 1.285156,2.4375 0,0.81906 -0.112351,1.439855 -0.335937,1.861329 -0.220894,0.41882 -0.537072,0.626953 -0.949219,0.626953 -0.417533,0 -0.742203,-0.21134 -0.976563,-0.632813 -0.231666,-0.424133 -0.347656,-1.040429 -0.347656,-1.851562 -0.0027,-0.77668 0.114509,-1.376662 0.351563,-1.800782 0.237053,-0.426773 0.560509,-0.640625 0.972656,-0.640625 z m 6.837891,0 c 0.8566,0 1.285156,0.812567 1.285156,2.4375 0,0.81906 -0.112351,1.439855 -0.335938,1.861329 -0.220893,0.41882 -0.537072,0.626953 -0.949218,0.626953 -0.417534,0 -0.744156,-0.21134 -0.978516,-0.632813 -0.231667,-0.424133 -0.347656,-1.040429 -0.347656,-1.851562 -0.0027,-0.77668 0.114509,-1.376662 0.351562,-1.800782 0.237054,-0.426773 0.562463,-0.640625 0.97461,-0.640625 z m -3.390625,4.523438 c -0.142767,0 -0.250746,0.04213 -0.326172,0.126953 -0.07543,0.08482 -0.113281,0.187354 -0.113281,0.306641 0,0.116633 0.03785,0.219167 0.113281,0.30664 0.07811,0.08483 0.186092,0.126953 0.326172,0.126953 0.140073,0 0.247579,-0.04213 0.320312,-0.126953 0.07543,-0.08482 0.111328,-0.187354 0.111328,-0.30664 0,-0.119287 -0.0359,-0.221821 -0.111328,-0.306641 -0.07273,-0.08483 -0.180239,-0.126953 -0.320312,-0.126953 z m 11.703125,0 c -0.142767,0 -0.252699,0.04213 -0.328125,0.126953 -0.07543,0.08482 -0.113282,0.187354 -0.113282,0.306641 0,0.116633 0.03786,0.219167 0.113282,0.30664 0.07812,0.08483 0.188051,0.126953 0.328125,0.126953 0.140073,0 0.245626,-0.04213 0.318359,-0.126953 0.07543,-0.08482 0.113281,-0.187354 0.113281,-0.30664 0,-0.119287 -0.03785,-0.221821 -0.113281,-0.306641 -0.07273,-0.08483 -0.178286,-0.126953 -0.318359,-0.126953 z"/>
 <path style="opacity:0.1;fill:#f4f4f7" d="M 6,4 C 4.892,4 4,4.892 4,6 L 4,7 C 4,5.892 4.892,5 6,5 l 36,0 c 1.108,0 2,0.892 2,2 L 44,6 C 44,4.892 43.108,4 42,4 L 6,4 Z"/>
 <path style="opacity:0.06000001" d="M 6,45 C 4.892,45 4,44.108 4,43 l 0,-1 c 0,1.108 0.892,2 2,2 l 36,0 c 1.108,0 2,-0.892 2,-2 l 0,1 c 0,1.108 -0.892,2 -2,2 L 6,45 Z"/>
 <path style="opacity:0.2" d="M 6,45 C 4.892,45 4,44.108 4,43 l 0,-1 c 0,1.108 0.892,2 2,2 l 36,0 c 1.108,0 2,-0.892 2,-2 l 0,1 c 0,1.108 -0.892,2 -2,2 L 6,45 Z"/>
 <path style="fill:#f4f4f7" d="M 38.166016 12.996094 C 37.313349 12.996094 36.619318 13.213151 36.083984 13.646484 C 35.548771 14.079418 35.28125 14.664544 35.28125 15.402344 C 35.28125 15.967877 35.446644 16.456321 35.777344 16.867188 C 36.112417 17.278054 36.545312 17.571327 37.076172 17.748047 C 36.436545 17.973367 35.941857 18.309646 35.59375 18.755859 C 35.249997 19.197626 35.078125 19.743145 35.078125 20.392578 C 35.078125 20.931585 35.21912 21.397822 35.501953 21.791016 C 35.789133 22.184216 36.162254 22.472656 36.619141 22.658203 C 37.076047 22.843756 37.588176 22.9375 38.158203 22.9375 L 38.158203 22.935547 C 39.041523 22.935547 39.774342 22.713785 40.357422 22.267578 C 40.940502 21.821378 41.232422 21.194692 41.232422 20.390625 C 41.232422 19.776512 41.054072 19.2296 40.697266 18.748047 C 40.340479 18.266507 39.862199 17.928768 39.261719 17.734375 C 39.805625 17.535568 40.233582 17.238896 40.546875 16.845703 C 40.864522 16.44807 41.023438 15.965891 41.023438 15.400391 C 41.023438 14.658197 40.759376 14.073071 40.228516 13.644531 C 39.702049 13.211578 39.014549 12.996094 38.166016 12.996094 z M 11.21875 13 C 10.522083 13 9.9302927 13.208906 9.4433594 13.628906 C 8.9560127 14.044173 8.5928356 14.623034 8.3535156 15.365234 C 8.1185423 16.103034 8 16.97996 8 17.996094 C 8 18.729454 8.0632665 19.397207 8.1894531 19.998047 C 8.3199931 20.594467 8.5112919 21.119172 8.7636719 21.574219 C 9.0204319 22.024865 9.3561579 22.377086 9.7695312 22.628906 C 10.187265 22.876313 10.670483 23 11.21875 23 L 11.21875 22.998047 C 11.76275 22.998047 12.237818 22.875573 12.646484 22.628906 C 13.059864 22.377086 13.389139 22.023406 13.632812 21.568359 C 13.880833 21.113313 14.06566 20.586654 14.1875 19.990234 C 14.30934 19.393834 14.371094 18.729494 14.371094 17.996094 C 14.371094 17.23182 14.304368 16.546666 14.173828 15.941406 C 14.043288 15.331713 13.850477 14.808467 13.59375 14.371094 C 13.34137 13.929314 13.012095 13.591575 12.607422 13.357422 C 12.207129 13.118855 11.745257 13 11.21875 13 z M 19.042969 13.134766 C 18.816709 13.293806 18.477931 13.455674 18.025391 13.619141 C 17.577204 13.778187 17.189628 13.890765 16.863281 13.957031 L 16.863281 14.832031 C 17.154841 14.792271 17.506549 14.704806 17.919922 14.572266 C 18.337655 14.439732 18.684851 14.297211 18.958984 14.142578 L 18.958984 22.015625 L 16.660156 22.015625 L 16.660156 22.810547 L 22.091797 22.810547 L 22.091797 22.015625 L 20.041016 22.015625 L 20.041016 13.134766 L 19.042969 13.134766 z M 29.982422 13.134766 C 29.756162 13.293806 29.417384 13.455674 28.964844 13.619141 C 28.516657 13.778187 28.129081 13.890765 27.802734 13.957031 L 27.802734 14.832031 C 28.094294 14.792271 28.446002 14.704806 28.859375 14.572266 C 29.277108 14.439732 29.624304 14.297211 29.898438 14.142578 L 29.898438 22.015625 L 27.599609 22.015625 L 27.599609 22.810547 L 33.03125 22.810547 L 33.03125 22.015625 L 30.980469 22.015625 L 30.980469 13.134766 L 29.982422 13.134766 z M 38.158203 13.810547 C 38.710836 13.810547 39.153675 13.955021 39.484375 14.242188 C 39.815075 14.524934 39.980469 14.90228 39.980469 15.375 C 39.980469 15.896333 39.828031 16.329228 39.523438 16.673828 C 39.218871 17.018428 38.763036 17.258085 38.158203 17.390625 C 37.557696 17.253665 37.102356 17.014008 36.789062 16.673828 C 36.480116 16.329208 36.324219 15.896313 36.324219 15.375 C 36.324219 14.906693 36.493072 14.529348 36.828125 14.242188 C 37.167525 13.955021 37.609936 13.810547 38.158203 13.810547 z M 11.21875 13.894531 C 12.602483 13.894531 13.292969 15.248831 13.292969 17.957031 C 13.292969 19.322165 13.113113 20.356127 12.751953 21.058594 C 12.395173 21.756594 11.884503 22.105469 11.21875 22.105469 C 10.544317 22.105469 10.017239 21.753248 9.6386719 21.050781 C 9.2644585 20.343915 9.0761719 19.314757 9.0761719 17.962891 C 9.0718185 16.668424 9.2616113 15.667804 9.6445312 14.960938 C 10.027445 14.249671 10.552997 13.894531 11.21875 13.894531 z M 24.728516 15.794922 C 24.471782 15.794922 24.274006 15.869318 24.134766 16.019531 C 23.995526 16.165318 23.925781 16.338303 23.925781 16.537109 C 23.925781 16.740336 23.995526 16.916193 24.134766 17.066406 C 24.274012 17.212193 24.471789 17.285156 24.728516 17.285156 C 24.985242 17.285156 25.181513 17.212193 25.316406 17.066406 C 25.455646 16.916193 25.525391 16.740336 25.525391 16.537109 C 25.525391 16.338303 25.455646 16.165318 25.316406 16.019531 C 25.181513 15.869318 24.985242 15.794922 24.728516 15.794922 z M 38.158203 18.166016 C 38.771723 18.298556 39.266412 18.550768 39.640625 18.921875 C 40.019192 19.292955 40.208984 19.74617 40.208984 20.285156 C 40.208984 21.486823 39.524536 22.087891 38.158203 22.087891 C 37.488076 22.087891 36.975947 21.930861 36.619141 21.617188 C 36.266681 21.303501 36.089844 20.862882 36.089844 20.292969 C 36.089844 19.736309 36.279636 19.276336 36.658203 18.914062 C 37.036763 18.551796 37.535963 18.302976 38.158203 18.166016 z M 24.728516 21.394531 C 24.471782 21.394531 24.274006 21.467495 24.134766 21.613281 C 23.995526 21.759075 23.925781 21.933492 23.925781 22.136719 C 23.925781 22.335525 23.995526 22.50995 24.134766 22.660156 C 24.274012 22.80595 24.471789 22.878906 24.728516 22.878906 C 24.985242 22.878906 25.181513 22.80595 25.316406 22.660156 C 25.455646 22.50995 25.525391 22.335525 25.525391 22.136719 C 25.525391 21.933492 25.455646 21.759075 25.316406 21.613281 C 25.181513 21.467495 24.985242 21.394531 24.728516 21.394531 z M 14.359375 27.998047 C 13.928042 27.998047 13.563052 28.12362 13.261719 28.376953 C 12.960019 28.62616 12.734098 28.974595 12.585938 29.419922 C 12.440471 29.862582 12.367188 30.388374 12.367188 30.998047 C 12.367187 31.438074 12.406255 31.838712 12.484375 32.199219 C 12.565188 32.557072 12.683604 32.871505 12.839844 33.144531 C 12.998777 33.414911 13.206984 33.62625 13.462891 33.777344 C 13.721497 33.925784 14.019962 34 14.359375 34 L 14.359375 33.994141 C 14.696042 33.994141 14.990807 33.922057 15.244141 33.775391 C 15.500047 33.624297 15.704615 33.411705 15.855469 33.138672 C 16.009015 32.865645 16.123792 32.551213 16.199219 32.193359 C 16.274645 31.835519 16.3125 31.43612 16.3125 30.996094 C 16.3125 30.537514 16.270266 30.126825 16.189453 29.763672 C 16.10864 29.397865 15.989011 29.082739 15.830078 28.820312 C 15.673838 28.555239 15.471223 28.353384 15.220703 28.212891 C 14.972876 28.069751 14.685322 27.998047 14.359375 27.998047 z M 21.197266 27.998047 C 20.765932 27.998047 20.39899 28.12362 20.097656 28.376953 C 19.795956 28.62616 19.571988 28.974595 19.423828 29.419922 C 19.278361 29.862582 19.205078 30.388374 19.205078 30.998047 C 19.205078 31.438074 19.244146 31.838712 19.322266 32.199219 C 19.403079 32.557072 19.521494 32.871505 19.677734 33.144531 C 19.836668 33.414911 20.044875 33.62625 20.300781 33.777344 C 20.559388 33.925784 20.857852 34 21.197266 34 L 21.197266 33.994141 C 21.533932 33.994141 21.828698 33.922057 22.082031 33.775391 C 22.337938 33.624297 22.540553 33.411705 22.691406 33.138672 C 22.844953 32.865645 22.95973 32.551213 23.035156 32.193359 C 23.110583 31.835519 23.148438 31.43612 23.148438 30.996094 C 23.148438 30.537514 23.108157 30.126825 23.027344 29.763672 C 22.94653 29.397865 22.826902 29.082739 22.667969 28.820312 C 22.511729 28.555239 22.307161 28.353384 22.056641 28.212891 C 21.808814 28.069751 21.523212 27.998047 21.197266 27.998047 z M 26.115234 28 C 25.738568 28 25.403328 28.083333 25.111328 28.25 C 24.820401 28.4117 24.598859 28.629317 24.445312 28.902344 C 24.291766 29.17537 24.214844 29.4785 24.214844 29.8125 C 24.214844 30.06432 24.264355 30.301471 24.361328 30.521484 C 24.458301 30.738844 24.58642 30.921866 24.748047 31.070312 C 24.909674 31.216099 25.09774 31.331189 25.310547 31.416016 C 25.526047 31.500842 25.750015 31.542969 25.984375 31.542969 C 26.261835 31.542969 26.526824 31.47629 26.777344 31.34375 C 26.569924 31.606177 26.432581 31.781667 26.365234 31.869141 L 24.837891 33.884766 L 25.626953 33.884766 L 27.068359 31.945312 C 27.235373 31.719999 27.363019 31.543249 27.449219 31.416016 C 27.538119 31.286129 27.630802 31.128913 27.730469 30.943359 C 27.830142 30.755153 27.901 30.572131 27.941406 30.394531 C 27.984506 30.216931 28.005859 30.026379 28.005859 29.822266 C 28.005859 29.583699 27.964366 29.356032 27.880859 29.138672 C 27.797353 28.921305 27.677724 28.726287 27.521484 28.556641 C 27.365244 28.386994 27.166268 28.253077 26.923828 28.152344 C 26.681388 28.051617 26.411548 28 26.115234 28 z M 24.837891 33.884766 L 24.833984 33.884766 L 24.833984 33.888672 L 24.837891 33.884766 z M 9.4746094 28.074219 C 9.334536 28.169645 9.1239033 28.267154 8.84375 28.365234 C 8.56629 28.460628 8.3270333 28.528559 8.125 28.568359 L 8.125 29.091797 C 8.3054867 29.067937 8.5233902 29.01702 8.7792969 28.9375 C 9.0379035 28.857973 9.2521683 28.772461 9.421875 28.679688 L 9.421875 33.402344 L 8 33.402344 L 8 33.880859 L 11.361328 33.880859 L 11.361328 33.402344 L 10.09375 33.402344 L 10.09375 28.074219 L 9.4746094 28.074219 z M 32.878906 28.074219 C 32.738833 28.169645 32.5282 28.267154 32.248047 28.365234 C 31.970587 28.460628 31.73133 28.528559 31.529297 28.568359 L 31.529297 29.091797 C 31.709784 29.067937 31.927687 29.01702 32.183594 28.9375 C 32.442194 28.857973 32.656465 28.772461 32.826172 28.679688 L 32.826172 33.402344 L 31.404297 33.402344 L 31.404297 33.880859 L 34.765625 33.880859 L 34.765625 33.402344 L 33.496094 33.402344 L 33.496094 28.074219 L 32.878906 28.074219 z M 36.3125 28.082031 L 36.199219 31.154297 L 36.742188 31.21875 C 36.866108 31.088863 37.022377 30.985076 37.210938 30.908203 C 37.399504 30.83133 37.593629 30.792969 37.792969 30.792969 C 38.065042 30.792969 38.291436 30.85337 38.474609 30.972656 C 38.657783 31.08929 38.789067 31.240228 38.867188 31.425781 C 38.945308 31.608681 38.984375 31.816814 38.984375 32.052734 C 38.984375 32.482168 38.863534 32.816121 38.621094 33.054688 C 38.381347 33.290607 38.058364 33.410156 37.654297 33.410156 C 37.20173 33.410156 36.715212 33.265496 36.195312 32.976562 L 35.964844 33.488281 C 36.549364 33.809021 37.128139 33.970703 37.699219 33.970703 C 37.976679 33.970703 38.23365 33.92983 38.470703 33.847656 C 38.707756 33.765483 38.915963 33.644675 39.09375 33.488281 C 39.274237 33.329235 39.414005 33.127379 39.513672 32.880859 C 39.616039 32.631686 39.666016 32.351156 39.666016 32.041016 C 39.666016 31.714976 39.59953 31.42063 39.464844 31.158203 C 39.33285 30.893123 39.131448 30.681225 38.859375 30.519531 C 38.587302 30.355185 38.265531 30.271484 37.896484 30.271484 C 37.492391 30.271484 37.133533 30.376531 36.818359 30.585938 L 36.882812 28.605469 L 39.363281 28.605469 L 39.416016 28.082031 L 36.3125 28.082031 z M 26.134766 28.525391 C 26.525366 28.525391 26.827469 28.645505 27.042969 28.886719 C 27.258469 29.127939 27.367188 29.426043 27.367188 29.78125 C 27.367187 29.961503 27.337817 30.126951 27.28125 30.275391 C 27.22737 30.421184 27.158466 30.540039 27.072266 30.632812 C 26.986066 30.722959 26.886577 30.799681 26.773438 30.863281 C 26.660297 30.924221 26.546734 30.967607 26.433594 30.994141 C 26.323147 31.018007 26.212009 31.029297 26.101562 31.029297 C 25.716349 31.029297 25.415459 30.916726 25.197266 30.691406 C 24.979072 30.463446 24.869141 30.167848 24.869141 29.804688 C 24.869141 29.446834 24.981491 29.144958 25.205078 28.898438 C 25.431351 28.649271 25.741472 28.525391 26.134766 28.525391 z M 14.359375 28.537109 C 15.215975 28.537109 15.644531 29.349676 15.644531 30.974609 C 15.644531 31.793669 15.53218 32.414464 15.308594 32.835938 C 15.0877 33.254758 14.771522 33.462891 14.359375 33.462891 C 13.941842 33.462891 13.617172 33.251551 13.382812 32.830078 C 13.151146 32.405945 13.035156 31.789649 13.035156 30.978516 C 13.032463 30.201836 13.149665 29.601854 13.386719 29.177734 C 13.623772 28.750961 13.947228 28.537109 14.359375 28.537109 z M 21.197266 28.537109 C 22.053866 28.537109 22.482422 29.349676 22.482422 30.974609 C 22.482422 31.793669 22.370071 32.414464 22.146484 32.835938 C 21.925591 33.254758 21.609412 33.462891 21.197266 33.462891 C 20.779732 33.462891 20.45311 33.251551 20.21875 32.830078 C 19.987083 32.405945 19.871094 31.789649 19.871094 30.978516 C 19.8684 30.201836 19.985603 29.601854 20.222656 29.177734 C 20.45971 28.750961 20.785119 28.537109 21.197266 28.537109 z M 17.806641 33.060547 C 17.663874 33.060547 17.555895 33.102673 17.480469 33.1875 C 17.405042 33.27232 17.367188 33.374854 17.367188 33.494141 C 17.367188 33.610774 17.405042 33.713308 17.480469 33.800781 C 17.558582 33.885608 17.666561 33.927734 17.806641 33.927734 C 17.946714 33.927734 18.05422 33.885608 18.126953 33.800781 C 18.20238 33.715961 18.238281 33.613427 18.238281 33.494141 C 18.238281 33.374854 18.20238 33.27232 18.126953 33.1875 C 18.05422 33.102673 17.946714 33.060547 17.806641 33.060547 z M 29.509766 33.060547 C 29.366999 33.060547 29.257067 33.102673 29.181641 33.1875 C 29.106214 33.27232 29.068359 33.374854 29.068359 33.494141 C 29.068359 33.610774 29.106214 33.713308 29.181641 33.800781 C 29.259761 33.885608 29.369692 33.927734 29.509766 33.927734 C 29.649839 33.927734 29.755392 33.885608 29.828125 33.800781 C 29.903552 33.715961 29.941406 33.613427 29.941406 33.494141 C 29.941406 33.374854 29.903552 33.27232 29.828125 33.1875 C 29.755392 33.102673 29.649839 33.060547 29.509766 33.060547 z"/>
</svg>
