<svg xmlns="http://www.w3.org/2000/svg" width="48" height="48" version="1.1">
 <path style="opacity:0.2" d="M 24,5.0000004 C 12.964693,5.0000004 4,13.96469 4,25 4,36.03531 12.964693,45.000003 24,45 35.035307,45 44.00001,36.03531 44,25 44,13.96469 35.035307,5.0000004 24,5.0000004 Z"/>
 <path style="fill:#b2bfd9" d="M 24,4.0000004 C 12.964693,4.0000004 4,12.96469 4,24 4,35.03531 12.964693,44.000003 24,44 35.035307,44 44.00001,35.03531 44,24 44,12.96469 35.035307,4.0000004 24,4.0000004 Z"/>
 <path style="opacity:0.1" d="m 20.472656,9.4375 c -0.59447,0.1444436 -1.179548,0.3251196 -1.751953,0.5410156 l 0.763672,1.8398434 c 0.456552,-0.167244 0.922127,-0.308742 1.394531,-0.423828 z m -2.677734,0.921875 c -0.552685,0.252934 -1.089482,0.539311 -1.607422,0.857422 l 1.095703,1.667969 c 0.413557,-0.248834 0.840651,-0.474444 1.279297,-0.675782 z m -6.587891,5.835937 c -0.317411,0.523735 -0.602449,1.066418 -0.853515,1.625 l 1.84375,0.761719 c 0.203617,-0.441481 0.43184,-0.871193 0.683593,-1.287109 z m -1.2460935,2.544922 c -0.2103016,0.5702 -0.3857553,1.152654 -0.5253906,1.744141 l 1.9589841,0.404297 c 0.115576,-0.467786 0.25707,-0.928784 0.423828,-1.38086 z m 1.4335935,8.38086 -1.957031,0.40625 c 0.1444436,0.59447 0.3251196,1.179548 0.5410156,1.751953 l 1.8398434,-0.763672 c -0.167244,-0.456552 -0.308742,-0.922127 -0.423828,-1.394531 z m 0.814453,2.316406 -1.849609,0.767578 c 0.252975,0.552685 0.539311,1.089482 0.857422,1.607422 l 1.667969,-1.095703 C 12.635932,30.303207 12.410322,29.876146 12.208984,29.4375 Z m 5.085938,5.681641 -1.09961,1.673828 c 0.523735,0.317411 1.066418,0.602449 1.625,0.853515 l 0.761719,-1.84375 c -0.441481,-0.203617 -0.871193,-0.43184 -1.287109,-0.683593 z m 2.21289,1.0625 -0.767578,1.857421 c 0.5702,0.210302 1.152654,0.385756 1.744141,0.525391 l 0.404297,-1.958984 c -0.467786,-0.115576 -0.928784,-0.25707 -1.38086,-0.423828 z"/>
 <path style="opacity:0.2;fill:#f4f4f7" d="M 24,4 C 12.964693,4 4,12.96469 4,24 4,24.167832 4.0076,24.33315 4.011719,24.5 4.2786829,13.696117 13.132525,5 24,5 34.867475,5 43.721317,13.696117 43.988281,24.5 43.992404,24.33315 44,24.167832 44,24 44,12.96469 35.035307,4 24,4 Z"/>
 <path style="opacity:0.1;fill:none;stroke:#000000;stroke-width:4;stroke-linecap:round;stroke-linejoin:round" d="m 15,23.4999 9,1.4999"/>
 <path style="fill:none;stroke:#4f4f4f;stroke-width:4;stroke-linecap:round;stroke-linejoin:round" d="M 15,22.5001 24,24"/>
 <path style="opacity:0.1" d="m 24,9 a 2,2 0 0 0 -2,2 2,2 0 0 0 2,2 2,2 0 0 0 2,-2 2,2 0 0 0 -2,-2 z m -9.900391,4.599609 a 1.5,1.5 0 0 0 -1.5,1.5 1.5,1.5 0 0 0 1.5,1.5 1.5,1.5 0 0 0 1.5,-1.5 1.5,1.5 0 0 0 -1.5,-1.5 z M 10,23 a 2,2 0 0 0 -2,2 2,2 0 0 0 2,2 2,2 0 0 0 2,-2 2,2 0 0 0 -2,-2 z m 28,0 a 2,2 0 0 0 -2,2 2,2 0 0 0 2,2 2,2 0 0 0 2,-2 2,2 0 0 0 -2,-2 z M 14.099609,33.400391 a 1.5,1.5 0 0 0 -1.5,1.5 1.5,1.5 0 0 0 1.5,1.5 1.5,1.5 0 0 0 1.5,-1.5 1.5,1.5 0 0 0 -1.5,-1.5 z m 19.800782,0 a 1.5,1.5 0 0 0 -1.5,1.5 1.5,1.5 0 0 0 1.5,1.5 1.5,1.5 0 0 0 1.5,-1.5 1.5,1.5 0 0 0 -1.5,-1.5 z M 24,37 a 2,2 0 0 0 -2,2 2,2 0 0 0 2,2 2,2 0 0 0 2,-2 2,2 0 0 0 -2,-2 z"/>
 <circle style="fill:#00b487" cx="24" cy="10" r="2"/>
 <circle style="fill:#00b487" cx="24" cy="38" r="2"/>
 <path style="opacity:0.1;fill:none;stroke:#000000;stroke-width:4;stroke-linecap:round;stroke-linejoin:round" d="M 24,24.9998 40,8.9997995"/>
 <circle style="fill:#00b487" cx="24" cy="-38" r="2" transform="rotate(90)"/>
 <circle style="fill:#00b487" cx="24" cy="-10" r="2" transform="rotate(90)"/>
 <path style="fill:none;stroke:#4f4f4f;stroke-width:4;stroke-linecap:round;stroke-linejoin:round" d="M 24,24 40,8"/>
 <circle style="fill:#00b487" cx="14.101" cy="33.899" r="1.5"/>
 <circle style="fill:#00b487" cx="-14.101" cy="14.101" r="1.5" transform="rotate(-90)"/>
 <circle style="fill:#00b487" cx="-33.899" cy="33.899" r="1.5" transform="rotate(-90)"/>
 <path style="opacity:0.1" d="m 24,21 c -2.207062,0 -4,1.792938 -4,4 0,2.207061 1.792938,4 4,4 2.207061,0 4,-1.792939 4,-4 0,-2.207062 -1.792939,-4 -4,-4 z"/>
 <path style="fill:#8d8d8d" d="m 24,20 c -2.207062,0 -4,1.792938 -4,4 0,2.207061 1.792938,4 4,4 2.207061,0 4,-1.792939 4,-4 0,-2.207062 -1.792939,-4 -4,-4 z"/>
 <path style="opacity:0.1" d="m 27.527344,9.4375 c 0.59447,0.1444436 1.179548,0.3251196 1.751953,0.5410156 l -0.763672,1.8398434 c -0.456552,-0.167244 -0.922127,-0.308742 -1.394531,-0.423828 z m 2.677734,0.921875 c 0.552685,0.252934 1.089482,0.539311 1.607422,0.857422 l -1.095703,1.667969 C 30.30324,12.635932 29.876146,12.410322 29.4375,12.208984 Z m 6.587891,5.835937 c 0.317411,0.523735 0.602449,1.066418 0.853515,1.625 l -1.84375,0.761719 c -0.203617,-0.441481 -0.43184,-0.871193 -0.683593,-1.287109 z m 1.246093,2.544922 c 0.210302,0.5702 0.385756,1.152654 0.525391,1.744141 l -1.958984,0.404297 c -0.115576,-0.467786 -0.25707,-0.928784 -0.423828,-1.38086 z m -1.433593,8.38086 1.957031,0.40625 c -0.144444,0.59447 -0.32512,1.179548 -0.541016,1.751953 l -1.839843,-0.763672 c 0.167244,-0.456552 0.308742,-0.922127 0.423828,-1.394531 z m -0.814453,2.316406 1.849609,0.767578 C 37.38765,30.757763 37.101314,31.29456 36.783203,31.8125 l -1.667969,-1.095703 c 0.248834,-0.41359 0.474444,-0.840651 0.675782,-1.279297 z m -5.085938,5.681641 1.09961,1.673828 c -0.523735,0.317411 -1.066418,0.602449 -1.625,0.853515 l -0.761719,-1.84375 c 0.441481,-0.203617 0.871193,-0.43184 1.287109,-0.683593 z m -2.21289,1.0625 0.767578,1.857421 c -0.5702,0.210302 -1.152654,0.385756 -1.744141,0.525391 l -0.404297,-1.958984 c 0.467786,-0.115576 0.928784,-0.25707 1.38086,-0.423828 z"/>
</svg>
