<svg xmlns="http://www.w3.org/2000/svg" width="48" height="48" version="1.1">
 <path style="opacity:0.2" d="M 6.0290303,7.7314672 V 38.785833 c 0,0 -0.2860861,1.677172 0.9379193,2.02993 L 18,44 30,40.500001 40.29683,43.512335 c 1.821105,0.634802 1.692106,-1.266864 1.692106,-1.266864 V 10.943988 C 42.15728,9.3172526 40.348929,8.9818973 40.348929,8.9818973 L 30,6.0000015 18,9.500001 7.594682,6.4512219 c 0,0 -1.5656517,-0.434488 -1.5656517,1.2802453 z"/>
 <path style="fill:#ffc107" d="M 6.0290303,6.7314662 V 37.785832 c 0,0 -0.2860861,1.677172 0.9379193,2.02993 L 18,42.999999 30,39.5 40.29683,42.512334 c 1.821105,0.634802 1.692106,-1.266864 1.692106,-1.266864 V 9.9439868 C 42.15728,8.3172516 40.348929,7.9818963 40.348929,7.9818963 L 30,5.0000005 18,8.5 7.594682,5.4512209 c 0,0 -1.5656517,-0.434488 -1.5656517,1.2802453 z"/>
 <path style="fill:#0c7bd4" d="M 28.685547 5.3828125 L 24.242188 6.6796875 C 22.995161 7.9614798 22.285156 9.2331635 22.285156 11.476562 C 22.285156 14.283382 23.416499 14.876699 23.785156 16.226562 C 24.48527 18.790267 24.754797 20.597373 25.591797 22.705078 C 26.743583 25.606465 25.773043 30.183814 27 33.068359 C 27.699943 34.714019 28.071429 35.011364 30 35.875 C 30.428571 36.306818 31.070871 37.169745 31.285156 37.601562 C 31.758518 38.555423 31.633558 39.362013 31.976562 40.078125 L 40.296875 42.511719 C 42.11798 43.146521 41.988281 41.246094 41.988281 41.246094 L 41.988281 40.761719 C 41.101897 32.632726 35.556712 31.37438 33.246094 29.429688 C 30.644065 27.239764 32.306442 25.143709 31.285156 22.056641 C 31.042371 21.322766 30.428571 18.818537 30 18.386719 C 28.071429 17.091264 27.000279 15.79581 26.357422 13.636719 C 25.049942 9.2453021 29.035768 6.9061843 28.685547 5.3828125 z M 14.287109 37.140625 C 14.100752 37.126292 13.910969 37.133671 13.714844 37.169922 C 11.925858 37.500565 11.999442 39.545099 10.285156 39.113281 C 9.4102725 38.892994 8.2167233 39.216783 7.453125 39.957031 L 18 43 L 24.617188 41.070312 C 23.285989 39.039135 19.000095 36.004551 18 37.818359 C 16.6875 38.385121 15.591611 37.240954 14.287109 37.140625 z"/>
 <path style="fill:#4caf50" d="M 7.0996094 5.4042969 C 6.6409224 5.4277145 6.0292969 5.6607136 6.0292969 6.7324219 L 6.0292969 16.458984 C 6.4405296 16.267994 6.9963278 16.011719 7.2851562 16.011719 C 8.2154562 16.011719 8.7855179 16.226886 9.734375 16.103516 C 10.319975 16.027213 10.720825 15.469263 11.265625 15.332031 C 11.780339 15.202486 12.455376 15.242954 12.949219 14.994141 C 13.623362 14.654732 14.571383 13.637188 15.091797 11.447266 C 15.242354 10.813616 14.908203 10.120384 14.908203 9.4726562 C 14.908203 8.9491018 15.056111 8.1966368 15.431641 7.7480469 L 7.59375 5.4511719 C 7.59375 5.4511719 7.3748216 5.3902463 7.0996094 5.4042969 z"/>
 <path style="fill:#81c784" d="M 23.785714,19.03409 23.357143,17.306818 21,19.25 l 0.428572,1.727272 z"/>
 <path style="fill:#4d7687" d="M 12,33.931817 18,33.5 20.785715,31.772727 V 27.670454 L 18,29.397726 12,30.045454 Z"/>
 <path style="fill:#df5050" d="M 20.357143,24.215908 19.714286,21.020455 18,22.272728 15.428572,22.920455 14.357143,17.522727 9.8571428,18.602273 11.571428,27.778408 18,26.15909 Z"/>
 <path style="fill:#ff8a65" d="m 36.857143,11.477273 v 3.886364 L 40.5,16.443181 v -3.886362 z"/>
 <path style="fill:#00bcd4" d="m 18,10.181819 5.357143,-1.7272731 v 1.7272731 l -1.285715,0.431818 v 0.573584 L 18,12.556819 17.357143,12.340909 V 9.9659095 Z"/>
 <path style="fill:#b89b00" d="m 34.071428,24.647727 3.642858,2.375 L 39,25.295454 35.357143,22.920455 Z"/>
 <path style="fill:#b89b00" d="M 38.785156 18.169922 L 37.5 19.898438 L 41.142578 22.273438 L 41.988281 21.136719 L 41.988281 20.257812 L 38.785156 18.169922 z"/>
 <path style="fill:#b89b00" d="m 35.785714,22.272728 3.642857,2.374999 1.285714,-1.727272 -3.642856,-2.375 z"/>
 <path style="fill:#646464" d="M 9.1289062 19.335938 L 8.4863281 19.552734 L 9.9433594 27.972656 L 9.7421875 34.996094 L 10.472656 34.884766 L 10.671875 27.929688 L 9.1289062 19.335938 z M 10.472656 34.884766 L 10.457031 35.400391 L 9.7285156 35.443359 L 9.7421875 34.996094 L 9.6425781 35.011719 L 6.0292969 37.558594 L 6.0292969 37.785156 C 6.0292969 37.785156 5.9533179 38.265319 6.0644531 38.765625 L 9.8574219 36.091797 L 10.285156 35.960938 L 18 35.443359 L 21.857422 33.068359 L 21.642578 31.988281 L 18 34.363281 L 10.5 34.880859 L 10.472656 34.884766 z"/>
 <ellipse style="fill:#222222;stroke:#f4f4f7;stroke-width:0.34415337;stroke-linecap:round;stroke-linejoin:round" cx="10.093" cy="35.465" rx=".579" ry=".583"/>
 <ellipse style="fill:#222222;stroke:#f4f4f7;stroke-width:0.34415337;stroke-linecap:round;stroke-linejoin:round" cx="21.857" cy="32.442" rx=".579" ry=".583"/>
 <ellipse style="fill:#222222;stroke:#f4f4f7;stroke-width:0.34415337;stroke-linecap:round;stroke-linejoin:round" cx="8.786" cy="19.487" rx=".579" ry=".583"/>
 <ellipse style="fill:#222222;stroke:#f4f4f7;stroke-width:0.34415337;stroke-linecap:round;stroke-linejoin:round" cx="10.286" cy="27.951" rx=".579" ry=".583"/>
 <path style="fill:#f4f4f7;opacity:0.3" d="M 6.0290303,6.7314662 V 37.785832 c 0,0 -0.2860861,1.677172 0.9379193,2.02993 L 18,42.999999 V 8.5 L 7.594682,5.4512209 c 0,0 -1.5656517,-0.434488 -1.5656517,1.2802453 z"/>
 <path style="fill:#f4f4f7;opacity:0.3" d="m 30,39.5 10.29683,3.012334 c 1.821105,0.634802 1.692106,-1.266864 1.692106,-1.266864 V 9.9439868 C 42.15728,8.3172516 40.348929,7.9818963 40.348929,7.9818963 L 30,5.0000005 Z"/>
 <path style="fill:#f4f4f7;opacity:0.2" d="M 30 5 L 18 8.5 L 7.59375 5.4511719 C 7.59375 5.4511719 6.0292969 5.0176886 6.0292969 6.7324219 L 6.0292969 7.7324219 C 6.0292969 6.0176886 7.59375 6.4511719 7.59375 6.4511719 L 18 9.5 L 30 6 L 40.349609 8.9824219 C 40.349609 8.9824219 42.156625 9.316624 41.988281 10.943359 L 41.988281 9.9433594 C 42.156625 8.3166242 40.349609 7.9824219 40.349609 7.9824219 L 30 5 z M 6.0292969 37.785156 C 6.0292969 37.785156 5.9922021 38.114327 6.0292969 38.496094 L 6.0292969 37.785156 z"/>
 <g>
  <path style="opacity:0.1" d="M 37.181641,3.0019531 C 35.53704,3.0525981 34.076743,4.5704926 33.517578,5.5585938 L 22.433594,25.539062 22.115234,31.011719 22,33 23.582031,31.857422 27.933594,28.712891 28.074219,28.611328 39.396484,8.4648438 C 40.672237,6.3275254 39.736369,3.8295667 38.341797,3.2246094 37.951582,3.0553365 37.561164,2.9902658 37.181641,3.0019531 Z"/>
  <path style="fill:#b1a390" d="M 22.433594 24.539062 L 22.115234 30.011719 L 23.582031 30.857422 L 27.933594 27.712891 L 22.433594 24.539062 z"/>
  <path style="fill:#505050" d="M 22.115234,30.011719 22,32 23.582031,30.857422 Z"/>
  <path style="fill:#a15f34" d="m 37.181641,2.0019531 c -1.644601,0.050645 -3.104898,1.5685395 -3.664063,2.5566407 l -11.083984,19.9804682 5.5,3.173829 0.140625,-0.101563 L 39.396484,7.4648438 C 40.672237,5.3275254 39.736369,2.8295667 38.341797,2.2246094 37.951582,2.0553365 37.561164,1.9902658 37.181641,2.0019531 Z"/>
 </g>
</svg>
