<svg xmlns="http://www.w3.org/2000/svg" width="48" height="48" version="1">
 <path style="opacity:0.2" d="M 7.2727271,7 H 36.727272 C 38.534623,7 40,8.3889507 40,10.102041 V 41.897959 C 40,43.611049 38.534623,45 36.727272,45 H 7.2727271 C 5.4653761,45 3.9999998,43.611049 3.9999998,41.897959 V 10.102041 C 3.9999998,8.3889507 5.4653761,7 7.2727271,7 Z m 0,0"/>
 <path style="fill:#269ea3" d="M 7.2727271,6 H 36.727272 C 38.534623,6 40,7.3889507 40,9.102041 V 40.897959 C 40,42.611049 38.534623,44 36.727272,44 H 7.2727271 C 5.4653761,44 3.9999998,42.611049 3.9999998,40.897959 V 9.102041 C 3.9999998,7.3889507 5.4653761,6 7.2727271,6 Z m 0,0"/>
 <path style="fill:#f4f4f7;opacity:0.2" d="M 7.2734375 6 C 5.4660865 6 4 7.3884722 4 9.1015625 L 4 10.101562 C 4 8.3884722 5.4660865 7 7.2734375 7 L 36.726562 7 C 38.533914 7 40 8.3884722 40 10.101562 L 40 9.1015625 C 40 7.3884722 38.533914 6 36.726562 6 L 7.2734375 6 z"/>
 <path style="opacity:0.2" d="m 22.853285,20 -0.714034,7.635425 c -0.114756,1.227959 -0.172134,3.269262 -0.172134,4.49722 0,2.341541 0.27095,3.766481 0.812852,4.273233 0.557838,0.492455 1.190588,0.737093 1.896652,0.737093 1.577888,0 2.313092,-1.160445 2.609544,-3.142971 h 0.911669 c -0.5419,4.55282 -2.156898,7 -5.245733,7 -3.23706,0 -4.854793,-1.850674 -4.854793,-5.552025 0,-1.866561 0.180102,-5.003971 0.5419,-7.788721 L 19.550877,20 h -2.438554 c -1.348377,0 -2.398708,0.250829 -3.154182,0.709923 C 13.218606,21.151543 12.52848,22.640189 11.887762,24 H 11 c 0.525963,-1.801431 1.150742,-3.614773 1.872746,-4.663225 0.723596,-1.064337 1.413724,-1.412231 2.07038,-1.771247 C 15.599782,17.189039 16.578392,17 17.875766,17 H 30 v 3 z"/>
 <path style="fill:#f4f4f7" d="m 22.853285,19 -0.714034,7.635425 c -0.114756,1.227959 -0.172134,3.269262 -0.172134,4.49722 0,2.341541 0.27095,3.766481 0.812852,4.273233 0.557838,0.492455 1.190588,0.737093 1.896652,0.737093 1.577888,0 2.313092,-1.160445 2.609544,-3.142971 h 0.911669 c -0.5419,4.55282 -2.156898,7 -5.245733,7 -3.23706,0 -4.854793,-1.850674 -4.854793,-5.552025 0,-1.866561 0.180102,-5.003971 0.5419,-7.788721 L 19.550877,19 h -2.438554 c -1.348377,0 -2.398708,0.250829 -3.154182,0.709923 C 13.218606,20.151543 12.52848,21.640189 11.887762,23 H 11 c 0.525963,-1.801431 1.150742,-3.614773 1.872746,-4.663225 0.723596,-1.064337 1.413724,-1.412231 2.07038,-1.771247 C 15.599782,16.189039 16.578392,16 17.875766,16 H 30 v 3 z"/>
 <path style="opacity:0.2" d="m 36,41 c 0,2.209375 1.790624,4 4,4 2.209377,0 4,-1.790625 4,-4 0,-2.209375 -1.790623,-4 -4,-4 -2.209376,0 -4,1.790625 -4,4 z m 0,0"/>
 <path style="fill:#ed43c1" d="m 36,40 c 0,2.209375 1.790624,4 4,4 2.209377,0 4,-1.790625 4,-4 0,-2.209375 -1.790623,-4 -4,-4 -2.209376,0 -4,1.790625 -4,4 z m 0,0"/>
 <path style="fill:#ed43c1" d="m 44,38 h -8 v 2 h 8 z m 0,0"/>
 <path style="fill:#d5bf91" d="m 40,14 -4,6 h 8 z m 0,0"/>
 <path style="fill:#3f3f3f" d="m 40,14 -2,3 h 4 z"/>
 <path style="fill:#f59e2b" d="M 36,20 V 35 H 38.400001 41.6 43.200001 44 V 20 H 43.200001 41.6 38.400001 Z"/>
 <path style="fill:#c7c7c7" d="m 44,35 h -8 v 3 h 8 z m 0,0"/>
 <path style="fill:#3f3f3f" d="m 9.9999999,10 c 0,1.104166 -0.895833,2 -2,2 C 6.8958334,12 6,11.104166 6,10 6,8.8958333 6.8958334,8 7.9999999,8 c 1.104167,0 2,0.8958333 2,2 z m 0,0"/>
 <path style="fill:none;stroke:#bbbbbb;stroke-width:2;stroke-linecap:round" d="M 7.9999999,10 V 4"/>
 <path style="fill:#3f3f3f" d="m 17,10 c 0,1.104166 -0.895833,2 -2,2 -1.104166,0 -2,-0.895834 -2,-2 0,-1.1041667 0.895834,-2 2,-2 1.104167,0 2,0.8958333 2,2 z m 0,0"/>
 <path style="fill:none;stroke:#bbbbbb;stroke-width:2;stroke-linecap:round" d="M 15,10 V 4"/>
 <path style="fill:#3f3f3f" d="m 24,10 c 0,1.104166 -0.895833,2 -2,2 -1.104166,0 -2,-0.895834 -2,-2 0,-1.1041667 0.895834,-2 2,-2 1.104167,0 2,0.8958333 2,2 z m 0,0"/>
 <path style="fill:none;stroke:#bbbbbb;stroke-width:2;stroke-linecap:round" d="M 22,10 V 4"/>
 <path style="fill:#3f3f3f" d="m 31,10 c 0,1.104166 -0.895833,2 -2,2 -1.104166,0 -2,-0.895834 -2,-2 0,-1.1041667 0.895834,-2 2,-2 1.104167,0 2,0.8958333 2,2 z m 0,0"/>
 <path style="fill:none;stroke:#bbbbbb;stroke-width:2;stroke-linecap:round" d="M 29,10 V 4"/>
 <path style="fill:#3f3f3f" d="m 38,10 c 0,1.104166 -0.895833,2 -2,2 -1.104166,0 -2,-0.895834 -2,-2 0,-1.1041667 0.895834,-2 2,-2 1.104167,0 2,0.8958333 2,2 z m 0,0"/>
 <path style="fill:none;stroke:#bbbbbb;stroke-width:2;stroke-linecap:round" d="M 36,10 V 4"/>
 <rect style="opacity:0.2;fill:#4f4f4f" width="8" height="1" x="36" y="38"/>
 <rect style="opacity:0.2;fill:#4f4f4f" width="8" height="1" x="36" y="20"/>
 <rect style="opacity:0.2;fill:#f4f4f7" width="8" height="1" x="36" y="35"/>
</svg>
