<svg xmlns="http://www.w3.org/2000/svg" width="48" height="48" version="1">
 <rect style="opacity:0.2" width="40" height="40" x="4" y="5" rx="12" ry="12"/>
 <path style="fill:#4d8ee4" d="M 15.876238,6.3514851 31.009901,6.2277228 c 6.647778,-0.054365 8.988539,4.7660282 9.648515,11.3811882 l 1.485148,14.886139 c 0.304316,3.050255 0.718526,5.360198 -1.159657,7.476865 C 38.78883,42.445713 35.582602,44 32,44 H 16 C 9.352,44 4,38.648 4,32 V 16 C 4,12.291244 5.665676,8.9858362 8.2928061,6.7879976 10.374846,5.0461777 12.937092,6.3755213 15.876238,6.3514851 Z"/>
 <path style="fill:#f4f4f7;opacity:0.2" d="M 8.3359375 6.7558594 C 8.3218365 6.767341 8.3070259 6.7753491 8.2929688 6.7871094 C 8.1784321 6.8829299 8.0756669 6.9918243 7.9648438 7.0917969 C 8.0887592 6.9800115 8.2073921 6.8624487 8.3359375 6.7558594 z M 7.5136719 7.5136719 C 5.3446556 9.682674 4 12.675986 4 16 L 4 17 C 4 13.675986 5.3446556 10.682674 7.5136719 8.5136719 L 39.958984 40.958984 C 40.135308 40.802097 40.315585 40.649258 40.482422 40.482422 L 8.03125 8.03125 L 7.5136719 7.5136719 z M 41.078125 39.845703 C 40.962629 39.979318 40.843873 40.109944 40.722656 40.238281 C 40.808076 40.147841 40.901785 40.065734 40.984375 39.972656 C 41.021253 39.931096 41.042997 39.887416 41.078125 39.845703 z"/>
 <path style="fill:#a54adb" d="M 16 4 C 12.676 4 9.6768125 5.3388125 7.5078125 7.5078125 L 40.492188 40.492188 C 42.661187 38.323188 44 35.324 44 32 L 44 16 C 44 9.352 38.648 4 32 4 L 16 4 z"/>
 <path style="fill:#f4f4f7;opacity:0.2" d="M 16 4 C 13.076011 4 10.403632 5.0380849 8.3261719 6.7636719 C 8.2014724 6.8672502 8.0871282 6.9813662 7.9667969 7.0898438 C 7.9661143 7.0904607 7.9655269 7.0911806 7.9648438 7.0917969 C 5.8179929 9.0280569 4.3702145 11.721317 4.0625 14.769531 C 4.34953 11.940109 5.6157826 9.4115487 7.5136719 7.5136719 L 8.03125 8.03125 C 10.14857 6.1502137 12.932 5 16 5 L 32 5 C 38.647999 5 44 10.352001 44 17 L 44 16 C 44 9.3520005 38.647999 4 32 4 L 16 4 z"/>
 <path style="opacity:0.2" d="m 16,14 4,5.5 4,5.5 4,-5.5 4,-5.5 h -8 z m 8,11 4,5.5 4,5.5 4,-5.5 4,-5.5 h -8 z m 0,0 H 16 8 l 4,5.5 4,5.5 4,-5.5 z"/>
 <path style="fill:#f4f4f7" transform="matrix(1.6925333,0,0,1.3436288,-10.612778,-4.5944316)" d="m 15.723637,13.094712 4.726642,0 4.726643,-10e-7 -2.363322,4.093393 -2.363321,4.093393 -2.363321,-4.093393 z"/>
 <path style="fill:#f4f4f7" transform="matrix(1.6925333,0,0,1.3436288,-18.612778,6.4055686)" d="m 15.723637,13.094712 4.726642,0 4.726643,-10e-7 -2.363322,4.093393 -2.363321,4.093393 -2.363321,-4.093393 z"/>
 <path style="fill:#f4f4f7" transform="matrix(1.6925333,0,0,1.3436288,-2.6127778,6.4055683)" d="m 15.723637,13.094712 4.726642,0 4.726643,-10e-7 -2.363322,4.093393 -2.363321,4.093393 -2.363321,-4.093393 z"/>
</svg>
