<svg xmlns="http://www.w3.org/2000/svg" width="48" height="48" version="1.1">
 <path style="opacity:0.2" d="m 17.779218,42.743122 c -6.71893,-1.05085 -11.7277405,-5.33255 -13.3608805,-11.42131 -0.58406,-2.17756 -0.55339,-5.5502 0.0721,-7.92486 2.06195,-7.82851 9.1620705,-14.1551 18.0164505,-16.05364 2.2735,-0.48748 6.76993,-0.44972 8.86335,0.0744 6.65881,1.66723 10.88159,5.65157 12.29826,11.60384 0.53003,2.22693 0.41392,5.59524 -0.27256,7.90708 -1.03739,3.49358 -2.67303,6.19633 -5.41724,8.95148 -5.36044,5.38183 -13.02325,7.98535 -20.19945,6.86298 z"/>
 <path style="fill:#4f4f4f" d="m 17.779218,41.743124 c -6.71893,-1.05085 -11.7277405,-5.33255 -13.3608805,-11.42131 -0.58406,-2.17756 -0.55339,-5.5502 0.0721,-7.92486 2.06195,-7.82851 9.1620705,-14.1551003 18.0164505,-16.0536403 2.2735,-0.48748 6.76993,-0.44972 8.86335,0.0744 6.65881,1.66723 10.88159,5.6515703 12.29826,11.6038403 0.53003,2.22693 0.41392,5.59524 -0.27256,7.90708 -1.03739,3.49358 -2.67303,6.19633 -5.41724,8.95148 -5.36044,5.38183 -13.02325,7.98535 -20.19945,6.86298 z"/>
 <path style="opacity:0.2" d="M 37.310547,12.962891 26.451172,15.474609 20,14 v 2.964844 l -9,2.082031 v 4.103516 L 23.005859,20.375 A 2.5,2.5 0 0 1 25.5,18 a 2.5,2.5 0 0 1 2.15625,1.238281 l 10.988281,-2.480469 c -0.299833,-1.420491 -0.769918,-2.670098 -1.333984,-3.794921 z m 1.662109,6.33789 -4.041015,0.933594 c -0.09252,0.599999 -0.200448,1.1805 -0.34961,1.716797 -0.749419,2.694459 -2.065081,4.667547 -5.914062,6.349609 C 24.487645,30.127644 16.688598,31.421392 11,32.699219 v 4.091797 c 2.527801,-0.588592 5.747866,-1.174703 9,-1.867188 V 37 h 6 v -3.542969 c 1.536747,-0.444903 2.992593,-0.934146 4.269531,-1.492187 4.720059,-2.062736 7.173347,-5.374319 8.166016,-8.94336 0.253105,-0.910018 0.424097,-1.831945 0.546875,-2.759765 0.01284,-0.0958 0.01871,-0.192411 0.01758,-0.289063 -0.0031,-0.229353 -0.01593,-0.449803 -0.02734,-0.671875 z M 20,23.708984 11,25.810547 V 30 l 9,-2.099609 z"/>
 <path style="fill:#ff4b4b" d="m 38.972656,18.300781 -4.041015,0.933594 c -0.09252,0.599999 -0.200448,1.1805 -0.34961,1.716797 -0.749419,2.694459 -2.065081,4.667547 -5.914062,6.349609 C 24.487645,29.127644 16.688598,30.421392 11,31.699219 v 4.091797 c 5.385463,-1.25399 13.856914,-2.460778 19.269531,-4.826172 4.720059,-2.062736 7.173347,-5.374319 8.166016,-8.94336 0.253105,-0.910018 0.424097,-1.831945 0.546875,-2.759765 0.01284,-0.0958 0.01871,-0.192411 0.01758,-0.289063 -0.0031,-0.229353 -0.01593,-0.449803 -0.02734,-0.671875 z"/>
 <path style="fill:#ff4b4b;stroke:#f4f4f7;stroke-width:0;stroke-linecap:square" d="m 11,24.809616 9,-2.099808 v 4.190383 l -9,2.099808 z"/>
 <path style="fill:#ff4b4b" d="M 37.310547 11.962891 L 11 18.046875 L 11 22.150391 L 23.005859 19.375 A 2.5 2.5 0 0 1 25.5 17 A 2.5 2.5 0 0 1 27.65625 18.238281 L 38.644531 15.757812 C 38.344698 14.337321 37.874613 13.087714 37.310547 11.962891 z"/>
 <rect style="fill:#ff4b4b" width="6" height="4" x="20" y="32"/>
 <path style="fill:#ff4b4b" d="m 20,13 7,1.6 -1,1.4 -3.43862,1 H 20 Z"/>
 <path style="opacity:0.2;fill:#f4f4f7" d="M 37.310547 11.962891 L 26.451172 14.474609 L 20 13 L 20 14 L 26.451172 15.474609 L 37.310547 12.962891 C 37.745583 13.830411 38.121915 14.775381 38.410156 15.8125 L 38.644531 15.757812 C 38.344698 14.337321 37.874613 13.087714 37.310547 11.962891 z M 20 15.964844 L 11 18.046875 L 11 19.046875 L 20 16.964844 L 20 15.964844 z M 38.972656 18.300781 L 34.931641 19.234375 C 34.839121 19.834374 34.731193 20.414875 34.582031 20.951172 C 33.832612 23.645631 32.51695 25.618719 28.667969 27.300781 C 24.487645 29.127644 16.688598 30.421392 11 31.699219 L 11 32.699219 C 16.688598 31.421392 24.487645 30.127644 28.667969 28.300781 C 32.51695 26.618719 33.832612 24.645631 34.582031 21.951172 C 34.731193 21.414875 34.839121 20.834374 34.931641 20.234375 L 38.972656 19.300781 C 38.972954 19.306582 38.972356 19.312561 38.972656 19.318359 C 38.975208 19.299385 38.97991 19.280698 38.982422 19.261719 C 38.995262 19.165919 39.00113 19.069308 39 18.972656 C 38.9969 18.743303 38.984066 18.522853 38.972656 18.300781 z M 20 22.708984 L 11 24.810547 L 11 25.810547 L 20 23.708984 L 20 22.708984 z"/>
 <path style="fill:#f4f4f7;opacity:0.1" d="M 27.005859 6.0019531 C 25.335887 5.9879331 23.644562 6.10001 22.507812 6.34375 C 13.653433 8.24229 6.5521844 14.567974 4.4902344 22.396484 C 4.1280789 23.7714 3.9712007 25.479296 4.0117188 27.097656 C 4.0455817 25.795281 4.2022538 24.489797 4.4902344 23.396484 C 6.5521844 15.567974 13.653433 9.24229 22.507812 7.34375 C 24.781312 6.85627 29.277674 6.8938488 31.371094 7.4179688 C 38.029904 9.0851987 42.251299 13.069214 43.667969 19.021484 C 43.858245 19.820931 43.962995 20.769766 43.990234 21.761719 C 44.024126 20.414574 43.921531 19.086829 43.667969 18.021484 C 42.251299 12.069214 38.029904 8.0851987 31.371094 6.4179688 C 30.324384 6.1559088 28.675832 6.0159731 27.005859 6.0019531 z"/>
</svg>
