<svg xmlns="http://www.w3.org/2000/svg" width="48" height="48" version="1">
 <rect style="opacity:0.2" width="40" height="40" x="4" y="5" rx="12" ry="12"/>
 <rect style="fill:#7843b1" width="40" height="40" x="4" y="4" rx="12" ry="12"/>
 <path style="opacity:0.2" d="M 13.5,12.5 12.257812,16.257812 8.5,17.5 12.257812,18.742188 13.5,22.5 14.742188,18.742188 18.5,17.5 14.742188,16.257812 Z m 9,0.09961 -0.744141,2.25586 L 19.5,15.599609 21.755859,16.345703 22.5,18.599609 23.244141,16.345703 25.5,15.599609 23.244141,14.855469 Z M 28.5,15 28.126953,16.126953 27,16.5 28.126953,16.873047 28.5,18 28.873047,16.873047 30,16.5 28.873047,16.126953 Z m 2.496094,4 c 1.115424,1.351585 1.791015,3.079469 1.791015,4.96875 0,4.318199 -3.499979,7.818359 -7.818359,7.818359 -1.88928,0 -3.61713,-0.675591 -4.96875,-1.791015 C 20.94545,34.026115 24.558753,37 28.876953,37 33.914973,37 38,32.914972 38,27.876953 38,23.558572 35.026114,19.945359 30.996094,19 Z"/>
 <path style="fill:#f4f4f7;opacity:0.1" d="M 16 4 C 9.352 4 4 9.352 4 16 L 4 17 C 4 10.352 9.352 5 16 5 L 32 5 C 38.648 5 44 10.352 44 17 L 44 16 C 44 9.352 38.648 4 32 4 L 16 4 z"/>
 <path style="fill:#f4f4f7" d="m 30.995516,17.999945 c 1.115424,1.351585 1.791864,3.07908 1.791864,4.968361 0,4.318199 -3.50064,7.819019 -7.81902,7.819019 -1.88928,0 -3.61674,-0.676422 -4.96836,-1.791846 C 20.94545,33.0255 24.55958,36 28.87778,36 33.9158,36 38,31.915799 38,26.87778 38,22.559399 35.0255,18.945359 30.99548,18 Z"/>
 <path style="fill:#f4f4f7" d="M 13.5,21.5 12.258191,17.741808 8.5,16.5 12.258191,15.258191 13.5,11.499999 14.741809,15.258191 18.5,16.5 14.741809,17.741808 Z"/>
 <path style="fill:#f4f4f7" d="M 22.5,17.6 21.754915,15.345084 19.5,14.6 21.754915,13.854915 22.5,11.599999 23.245085,13.854915 25.5,14.6 23.245085,15.345084 Z"/>
 <path style="fill:#f4f4f7" d="M 28.5,17 28.127458,15.872542 27,15.5 28.127458,15.127458 28.5,13.999999 28.872542,15.127458 30,15.5 28.872542,15.872542 Z"/>
</svg>
