<svg xmlns="http://www.w3.org/2000/svg" width="48" height="48" version="1.1">
 <path style="opacity:0.2" d="m 8.5,4.99985 a 1.50015,1.50015 0 0 0 -1.5,1.5 v 37 a 1.50015,1.50015 0 0 0 1.5,1.5 h 5 a 1.50015,1.50015 0 1 0 0,-3 H 10 v -34 h 3.5 a 1.50015,1.50015 0 1 0 0,-3 z m 25,0 a 1.50015,1.50015 0 1 0 0,3 H 37 v 34 h -3.5 a 1.50015,1.50015 0 1 0 0,3 h 5 a 1.50015,1.50015 0 0 0 1.5,-1.5 v -37 a 1.50015,1.50015 0 0 0 -1.5,-1.5 z"/>
 <path style="opacity:0.2" d="m 3,9 v 5 H 6 V 9 Z m 38,0 v 5 h 3 V 9 Z M 3,36 v 5 h 3 v -5 z m 38,0 v 5 h 3 v -5 z"/>
 <path style="fill:#ee7cf3" d="m 9,15 h 30 c 0,0 0,0.380327 0,0.850141 V 32.149859 C 39,32.619673 39,33 39,33 H 9 c 0,0 0,-0.380327 0,-0.850141 V 15.850141 C 9,15.380327 9,15 9,15 Z m 0,0"/>
 <path style="opacity:0.2" d="m 9,9 v 8 h 6 V 33 H 9 v 8 H 39 V 33 H 32 V 17 h 7 V 9 Z m 4,3 h 3 v 2 h -3 z m 6,0 h 3 v 2 h -3 z m 6,0 h 3 v 2 h -3 z m 6,0 h 3 v 2 H 31 Z M 18,17 H 29 V 33 H 18 Z m -5,19 h 3 v 2 h -3 z m 6,0 h 3 v 2 h -3 z m 6,0 h 3 v 2 h -3 z m 6,0 h 3 v 2 h -3 z"/>
 <path style="fill:#3382e3" d="m 9,8 v 8 h 6 V 32 H 9 v 8 H 39 V 32 H 32 V 16 h 7 V 8 Z m 4,3 h 3 v 2 h -3 z m 6,0 h 3 v 2 h -3 z m 6,0 h 3 v 2 h -3 z m 6,0 h 3 v 2 H 31 Z M 18,16 H 29 V 32 H 18 Z m -5,19 h 3 v 2 h -3 z m 6,0 h 3 v 2 h -3 z m 6,0 h 3 v 2 h -3 z m 6,0 h 3 v 2 h -3 z"/>
 <path style="fill:#f4f4f7;opacity:0.2" d="M 9 8 L 9 9 L 39 9 L 39 8 L 9 8 z M 13 13 L 13 14 L 16 14 L 16 13 L 13 13 z M 19 13 L 19 14 L 22 14 L 22 13 L 19 13 z M 25 13 L 25 14 L 28 14 L 28 13 L 25 13 z M 31 13 L 31 14 L 34 14 L 34 13 L 31 13 z M 9 32 L 9 33 L 15 33 L 15 32 L 9 32 z M 18 32 L 18 33 L 29 33 L 29 32 L 18 32 z M 32 32 L 32 33 L 39 33 L 39 32 L 32 32 z M 13 37 L 13 38 L 16 38 L 16 37 L 13 37 z M 19 37 L 19 38 L 22 38 L 22 37 L 19 37 z M 25 37 L 25 38 L 28 38 L 28 37 L 25 37 z M 31 37 L 31 38 L 34 38 L 34 37 L 31 37 z"/>
 <path style="fill:#195eb3" d="M 3 8 L 3 13 L 6 13 L 6 8 L 3 8 z M 41 8 L 41 13 L 44 13 L 44 8 L 41 8 z M 3 35 L 3 40 L 6 40 L 6 35 L 3 35 z M 41 35 L 41 40 L 44 40 L 44 35 L 41 35 z"/>
 <path style="fill:none;stroke:#f5d12b;stroke-width:3;stroke-linecap:round;stroke-linejoin:round" d="m 13.5,5.5 h -5 v 37 h 5"/>
 <path style="fill:none;stroke:#f5d12b;stroke-width:3;stroke-linecap:round;stroke-linejoin:round" d="m 33.5,5.5 h 5 v 37 h -5"/>
 <path style="opacity:0.2;fill:#f4f4f7" d="M 8.5 4 A 1.50015 1.50015 0 0 0 7 5.5 L 7 6.5 A 1.50015 1.50015 0 0 1 8.5 5 L 13.5 5 A 1.50015 1.50015 0 0 1 14.933594 6 A 1.50015 1.50015 0 0 0 13.5 4 L 8.5 4 z M 33.5 4 A 1.50015 1.50015 0 0 0 32.066406 6 A 1.50015 1.50015 0 0 1 33.5 5 L 38.5 5 A 1.50015 1.50015 0 0 1 40 6.5 L 40 5.5 A 1.50015 1.50015 0 0 0 38.5 4 L 33.5 4 z M 10 41 L 10 42 L 13.5 42 A 1.50015 1.50015 0 0 1 14.933594 43 A 1.50015 1.50015 0 0 0 13.5 41 L 10 41 z M 33.5 41 A 1.50015 1.50015 0 0 0 32.066406 43 A 1.50015 1.50015 0 0 1 33.5 42 L 37 42 L 37 41 L 33.5 41 z"/>
</svg>
