<svg xmlns="http://www.w3.org/2000/svg" width="48" height="48" version="1.1">
 <rect style="fill:#a448ba" width="40" height="40" x="4" y="4" rx="3" ry="3"/>
 <path style="opacity:0.2" d="m 4,41 v 1 c 0,1.662 1.338,3 3,3 h 34 c 1.662,0 3,-1.338 3,-3 v -1 c 0,1.662 -1.338,3 -3,3 H 7 C 5.338,44 4,42.662 4,41 Z"/>
 <g style="opacity:0.2" transform="translate(0,1)">
  <g style="font-weight:bold;font-size:322.10223389px;line-height:1.25;font-family:Montserrat;letter-spacing:0px;word-spacing:0px" transform="matrix(0.05063422,0,0,0.0487581,-6.6195991,-51.863008)">
   <path d="m 812.20261,1309.7929 c -27.70079,0 -55.72369,7.4083 -74.72772,20.9366 l 18.03773,35.1092 c 12.56198,-9.9852 31.56602,-16.1051 49.92584,-16.1051 27.05659,0 42.19199,20.5695 42.19199,42.1503 l -50.00981,-0.2354 c -52.82417,-0.2486 -74.40225,20.4714 -74.40225,51.0712 0,29.9555 22.04572,51.6578 62.6306,51.6578 25.44607,0 52.4405,-7.5298 61.78146,-23.3128 l 0.003,21.3432 53.33034,-0.01 -0.006,-104.013 c -0.003,-52.5026 -35.93005,-78.5921 -88.75482,-78.5921 z m -11.67969,151.6087 c -17.71562,0 -28.34499,-8.3747 -28.34499,-20.9367 0,-11.5956 7.40547,-16.9671 30.91845,-16.8163 l 44.53407,0.2354 0.003,9.9969 c 0.003,16.8142 -30.36157,27.5207 -47.11089,27.5207 z"/>
  </g>
  <g style="font-size:40px;line-height:1000%;letter-spacing:0px;word-spacing:0px" transform="matrix(0.34081859,0,0,0.34615385,5.2507249,-57.275119)">
   <path d="m 55.305889,221.92387 c -0.944974,0.77446 -1.612023,1.05106 -2.445832,1.05106 -1.278503,0 -1.667605,-0.77447 -1.667605,-3.20851 v -10.78724 c 0,-2.8766 -0.277936,-4.48085 -1.111745,-5.80851 -1.22291,-1.99149 -4.573306,-3.04255 -7.852936,-3.04255 -5.225182,0 -9.33863,2.71064 -9.33863,6.19575 0,1.27234 1.056163,2.37871 2.39025,2.37871 1.334086,0 2.501413,-1.10637 2.501413,-2.3234 0,-0.22127 -0.05563,-0.49787 -0.111176,-0.8851 -0.111177,-0.49787 -0.16676,-0.94042 -0.16676,-1.32766 0,-1.49362 1.778783,-2.71064 4.002271,-2.71064 2.723757,0 4.672684,1.60425 4.672684,4.59149 v 4.39862 c -7.655771,2.24877 -9.953459,2.84819 -12.343697,4.95032 -1.22292,1.10637 -2.001135,2.98723 -2.001135,4.81276 0,3.48511 2.445832,5.91915 5.836637,5.91915 2.445831,0 5.172972,-1.1617 8.563777,-4.0383 0.277937,2.93191 1.790584,4.0383 4.069655,4.0383 1.889959,0 3.057287,-0.66383 5.002829,-2.76596 z m -9.128066,-3.1532 c 0,1.65958 -0.277936,2.26809 -1.445263,2.93191 -1.389682,0.77448 -3.338597,1.21703 -4.505924,1.21703 -1.945553,0 -3.501982,-1.88085 -3.501982,-4.25958 v -0.22127 c 0.05563,-3.31915 2.949483,-4.39712 9.453169,-6.6652 z"/>
  </g>
  <path d="m 35.028369,27.004129 c -0.31009,-0.02752 -0.701073,0.08253 -1.17295,0.330123 -0.471876,0.247594 -0.950493,0.618983 -1.435851,1.114169 -0.485358,0.481431 -0.93701,1.066026 -1.354958,1.753782 -0.404466,0.687759 -0.701074,1.451171 -0.889824,2.290234 -0.148303,0.618982 -0.202231,1.15543 -0.161786,1.609352 0.04044,0.440162 0.134822,0.804676 0.283126,1.093531 0.148304,0.275107 0.330312,0.474557 0.546028,0.598351 C 31.057868,35.931227 31.260101,36 31.448852,36 c 0.404465,-0.02752 0.80893,-0.116917 1.213395,-0.268227 0.350536,-0.137548 0.721296,-0.350755 1.112279,-0.639613 0.390984,-0.302615 0.748261,-0.729021 1.071833,-1.27923 -0.01349,0.371389 0.0068,0.680882 0.06067,0.928472 0.06741,0.247593 0.134822,0.447034 0.202231,0.598351 0.08089,0.178817 0.182011,0.316364 0.303349,0.412654 0.121341,0.08254 0.262904,0.137561 0.42469,0.165063 0.161786,0.04126 0.330312,0.05503 0.505582,0.04126 0.188748,-0.01377 0.370759,-0.04815 0.546025,-0.103168 0.17527,-0.05502 0.330317,-0.123794 0.465137,-0.206324 0.202235,-0.137548 0.451652,-0.371389 0.74826,-0.701512 0.31009,-0.343876 0.62018,-0.715265 0.930274,-1.114169 0.323572,-0.412654 0.633662,-0.818433 0.930269,-1.217331 0.296606,-0.412653 0.539282,-0.756533 0.728033,-1.031635 0.161795,-0.220081 0.25617,-0.412653 0.283129,-0.57772 0.04043,-0.165057 0.03369,-0.288858 -0.02022,-0.371388 -0.05393,-0.08252 -0.134822,-0.110032 -0.242684,-0.08253 -0.107854,0.01377 -0.215709,0.08254 -0.323571,0.206332 -0.08089,0.110039 -0.21571,0.281981 -0.404461,0.515815 -0.175271,0.233841 -0.377503,0.502064 -0.6067,0.80468 -0.229198,0.30261 -0.478615,0.618981 -0.74826,0.949105 -0.256161,0.316364 -0.505583,0.612104 -0.748259,0.887203 -0.24268,0.261349 -0.471878,0.481434 -0.687595,0.660246 -0.215711,0.165064 -0.39098,0.247594 -0.525802,0.247594 -0.161788,0 -0.289867,-0.03437 -0.384241,-0.103161 -0.08089,-0.08253 -0.141565,-0.185694 -0.182011,-0.309493 -0.04045,-0.123795 -0.06741,-0.254471 -0.08089,-0.392019 0,-0.151311 0.0068,-0.288859 0.02023,-0.412657 0.04044,-0.206325 0.07416,-0.378263 0.101115,-0.515818 0.02698,-0.137547 0.0472,-0.254471 0.06067,-0.350754 0.02698,-0.110046 0.04719,-0.213206 0.06067,-0.309493 0.02694,-0.110039 0.05393,-0.226959 0.08089,-0.350753 0.13482,-0.632739 0.24268,-1.148557 0.323572,-1.547458 0.08089,-0.398897 0.141561,-0.715268 0.182007,-0.949105 0.04045,-0.233834 0.06067,-0.392023 0.06067,-0.474553 0,-0.0963 -0.0068,-0.158192 -0.02022,-0.185694 -0.02698,-0.01377 -0.08089,-0.02063 -0.161783,-0.02063 -0.06741,0 -0.168525,0.0068 -0.30335,0.02063 -0.121338,0.01377 -0.276385,0.04126 -0.465136,0.08253 0.28313,-0.440166 0.390986,-0.79092 0.323575,-1.052269 -0.05393,-0.275103 -0.175269,-0.481432 -0.364021,-0.618983 -0.229197,-0.151303 -0.525805,-0.261349 -0.889823,-0.330123 z m -0.476258,1.290576 c 0.0514,0.0028 0.09539,0.01963 0.132462,0.05055 0.04045,0.05503 0.0674,0.130676 0.08089,0.226959 0.01349,0.08253 0.0068,0.199447 -0.02023,0.350758 -0.01348,0.137547 -0.07416,0.316367 -0.18201,0.536452 0.107858,-0.02748 0.215715,-0.04814 0.323573,-0.0619 0.107857,-0.01377 0.195491,-0.03437 0.262902,-0.0619 0.08089,-0.02748 0.155044,-0.04813 0.222455,-0.0619 0.05393,-0.01375 0.06067,0.09629 0.02023,0.330123 -0.02696,0.220085 -0.07416,0.502065 -0.141563,0.845944 -0.06741,0.343884 -0.148304,0.701516 -0.242679,1.072901 -0.09438,0.371389 -0.175269,0.694634 -0.24268,0.96974 -0.01349,0.06877 -0.07416,0.178813 -0.182009,0.330123 -0.09438,0.151307 -0.222455,0.316368 -0.384242,0.495184 -0.148303,0.178817 -0.323571,0.350758 -0.525805,0.515818 -0.18875,0.165063 -0.384242,0.302615 -0.586474,0.412653 -0.18875,0.09628 -0.377501,0.151294 -0.566251,0.165063 -0.18875,0 -0.357278,-0.07566 -0.505581,-0.226959 -0.08089,-0.08254 -0.134821,-0.254467 -0.161787,-0.515817 -0.02696,-0.275103 -0.02023,-0.591477 0.02023,-0.949106 0.05393,-0.357636 0.141564,-0.735902 0.262903,-1.134799 0.12134,-0.412654 0.283125,-0.797799 0.485359,-1.155431 0.485357,-0.866579 0.910047,-1.458049 1.274064,-1.774419 0.283127,-0.24759 0.502043,-0.367775 0.656245,-0.360042 z"/>
  <g transform="matrix(0.380854,0,0,0.37418042,3.812672,-62.803201)">
   <path style="fill-rule:evenodd" transform="translate(0,172)" d="m 37,68 c -2.704645,-0.03825 -2.704645,4.03825 0,4 h 9.880859 c 0.01107,0.001 0.285634,0.0327 0.585938,0.197266 0.306304,0.16789 0.485897,0.188343 0.537109,0.939453 v -0.01953 l 0.246094,5.9948 c -0.460676,-0.176436 -0.769531,-0.251953 -0.769531,-0.251953 l -0.236328,-0.05859 H 38 c -4.333333,0 -5.896484,4.367188 -5.896484,4.367188 L 32,83.477223 V 85 c 0,3.03333 1.431289,5.127712 2.939453,6.070312 C 36.447617,92.012912 38,92 38,92 h 7.591797 l 3.392578,-2.203125 0.01953,0.320313 c 0.08969,2.735348 4.223189,2.492675 3.992188,-0.234376 l -1,-17.009765 v -0.0098 c -0.140818,-2.06533 -1.461734,-3.545828 -2.607422,-4.173828 -1.145688,-0.62799 -2.257813,-0.685547 -2.257813,-0.685547 L 47.064453,68 Z m 1,14.801442 h 8.644531 c 0.106906,0.0312 0.525263,0.141312 1.03711,0.482422 0.558515,0.372213 0.877827,0.68942 0.894531,1.355469 L 48.714844,85.201172 44.408203,88 H 38 C 38,88 37.552383,87.9871 37.060547,87.679688 36.568711,87.372288 36,86.96667 36,85 v -0.763011 c 0.102847,-0.30497 0.534758,-1.435547 2,-1.435547 z"/>
  </g>
 </g>
 <g>
  <g style="font-weight:bold;font-size:322.10223389px;line-height:1.25;font-family:Montserrat;letter-spacing:0px;word-spacing:0px;fill:#f4f4f7" transform="matrix(0.05063422,0,0,0.0487581,-6.6195991,-51.863008)">
   <path style="fill:#f4f4f7" d="m 812.20261,1309.7929 c -27.70079,0 -55.72369,7.4083 -74.72772,20.9366 l 18.03773,35.1092 c 12.56198,-9.9852 31.56602,-16.1051 49.92584,-16.1051 27.05659,0 42.19199,20.5695 42.19199,42.1503 l -50.00981,-0.2354 c -52.82417,-0.2486 -74.40225,20.4714 -74.40225,51.0712 0,29.9555 22.04572,51.6578 62.6306,51.6578 25.44607,0 52.4405,-7.5298 61.78146,-23.3128 l 0.003,21.3432 53.33034,-0.01 -0.006,-104.013 c -0.003,-52.5026 -35.93005,-78.5921 -88.75482,-78.5921 z m -11.67969,151.6087 c -17.71562,0 -28.34499,-8.3747 -28.34499,-20.9367 0,-11.5956 7.40547,-16.9671 30.91845,-16.8163 l 44.53407,0.2354 0.003,9.9969 c 0.003,16.8142 -30.36157,27.5207 -47.11089,27.5207 z"/>
  </g>
  <g style="font-size:40px;line-height:1000%;letter-spacing:0px;word-spacing:0px;fill:#f4f4f7" transform="matrix(0.34081859,0,0,0.34615385,5.2507249,-57.275119)">
   <path style="fill:#f4f4f7" d="m 55.305889,221.92387 c -0.944974,0.77446 -1.612023,1.05106 -2.445832,1.05106 -1.278503,0 -1.667605,-0.77447 -1.667605,-3.20851 v -10.78724 c 0,-2.8766 -0.277936,-4.48085 -1.111745,-5.80851 -1.22291,-1.99149 -4.573306,-3.04255 -7.852936,-3.04255 -5.225182,0 -9.33863,2.71064 -9.33863,6.19575 0,1.27234 1.056163,2.37871 2.39025,2.37871 1.334086,0 2.501413,-1.10637 2.501413,-2.3234 0,-0.22127 -0.05563,-0.49787 -0.111176,-0.8851 -0.111177,-0.49787 -0.16676,-0.94042 -0.16676,-1.32766 0,-1.49362 1.778783,-2.71064 4.002271,-2.71064 2.723757,0 4.672684,1.60425 4.672684,4.59149 v 4.39862 c -7.655771,2.24877 -9.953459,2.84819 -12.343697,4.95032 -1.22292,1.10637 -2.001135,2.98723 -2.001135,4.81276 0,3.48511 2.445832,5.91915 5.836637,5.91915 2.445831,0 5.172972,-1.1617 8.563777,-4.0383 0.277937,2.93191 1.790584,4.0383 4.069655,4.0383 1.889959,0 3.057287,-0.66383 5.002829,-2.76596 z m -9.128066,-3.1532 c 0,1.65958 -0.277936,2.26809 -1.445263,2.93191 -1.389682,0.77448 -3.338597,1.21703 -4.505924,1.21703 -1.945553,0 -3.501982,-1.88085 -3.501982,-4.25958 v -0.22127 c 0.05563,-3.31915 2.949483,-4.39712 9.453169,-6.6652 z"/>
  </g>
  <path style="fill:#f4f4f7" d="m 35.028369,27.004129 c -0.31009,-0.02752 -0.701073,0.08253 -1.17295,0.330123 -0.471876,0.247594 -0.950493,0.618983 -1.435851,1.114169 -0.485358,0.481431 -0.93701,1.066026 -1.354958,1.753782 -0.404466,0.687759 -0.701074,1.451171 -0.889824,2.290234 -0.148303,0.618982 -0.202231,1.15543 -0.161786,1.609352 0.04044,0.440162 0.134822,0.804676 0.283126,1.093531 0.148304,0.275107 0.330312,0.474557 0.546028,0.598351 C 31.057868,35.931227 31.260101,36 31.448852,36 c 0.404465,-0.02752 0.80893,-0.116917 1.213395,-0.268227 0.350536,-0.137548 0.721296,-0.350755 1.112279,-0.639613 0.390984,-0.302615 0.748261,-0.729021 1.071833,-1.27923 -0.01349,0.371389 0.0068,0.680882 0.06067,0.928472 0.06741,0.247593 0.134822,0.447034 0.202231,0.598351 0.08089,0.178817 0.182011,0.316364 0.303349,0.412654 0.121341,0.08254 0.262904,0.137561 0.42469,0.165063 0.161786,0.04126 0.330312,0.05503 0.505582,0.04126 0.188748,-0.01377 0.370759,-0.04815 0.546025,-0.103168 0.17527,-0.05502 0.330317,-0.123794 0.465137,-0.206324 0.202235,-0.137548 0.451652,-0.371389 0.74826,-0.701512 0.31009,-0.343876 0.62018,-0.715265 0.930274,-1.114169 0.323572,-0.412654 0.633662,-0.818433 0.930269,-1.217331 0.296606,-0.412653 0.539282,-0.756533 0.728033,-1.031635 0.161795,-0.220081 0.25617,-0.412653 0.283129,-0.57772 0.04043,-0.165057 0.03369,-0.288858 -0.02022,-0.371388 -0.05393,-0.08252 -0.134822,-0.110032 -0.242684,-0.08253 -0.107854,0.01377 -0.215709,0.08254 -0.323571,0.206332 -0.08089,0.110039 -0.21571,0.281981 -0.404461,0.515815 -0.175271,0.233841 -0.377503,0.502064 -0.6067,0.80468 -0.229198,0.30261 -0.478615,0.618981 -0.74826,0.949105 -0.256161,0.316364 -0.505583,0.612104 -0.748259,0.887203 -0.24268,0.261349 -0.471878,0.481434 -0.687595,0.660246 -0.215711,0.165064 -0.39098,0.247594 -0.525802,0.247594 -0.161788,0 -0.289867,-0.03437 -0.384241,-0.103161 -0.08089,-0.08253 -0.141565,-0.185694 -0.182011,-0.309493 -0.04045,-0.123795 -0.06741,-0.254471 -0.08089,-0.392019 0,-0.151311 0.0068,-0.288859 0.02023,-0.412657 0.04044,-0.206325 0.07416,-0.378263 0.101115,-0.515818 0.02698,-0.137547 0.0472,-0.254471 0.06067,-0.350754 0.02698,-0.110046 0.04719,-0.213206 0.06067,-0.309493 0.02694,-0.110039 0.05393,-0.226959 0.08089,-0.350753 0.13482,-0.632739 0.24268,-1.148557 0.323572,-1.547458 0.08089,-0.398897 0.141561,-0.715268 0.182007,-0.949105 0.04045,-0.233834 0.06067,-0.392023 0.06067,-0.474553 0,-0.0963 -0.0068,-0.158192 -0.02022,-0.185694 -0.02698,-0.01377 -0.08089,-0.02063 -0.161783,-0.02063 -0.06741,0 -0.168525,0.0068 -0.30335,0.02063 -0.121338,0.01377 -0.276385,0.04126 -0.465136,0.08253 0.28313,-0.440166 0.390986,-0.79092 0.323575,-1.052269 -0.05393,-0.275103 -0.175269,-0.481432 -0.364021,-0.618983 -0.229197,-0.151303 -0.525805,-0.261349 -0.889823,-0.330123 z m -0.476258,1.290576 c 0.0514,0.0028 0.09539,0.01963 0.132462,0.05055 0.04045,0.05503 0.0674,0.130676 0.08089,0.226959 0.01349,0.08253 0.0068,0.199447 -0.02023,0.350758 -0.01348,0.137547 -0.07416,0.316367 -0.18201,0.536452 0.107858,-0.02748 0.215715,-0.04814 0.323573,-0.0619 0.107857,-0.01377 0.195491,-0.03437 0.262902,-0.0619 0.08089,-0.02748 0.155044,-0.04813 0.222455,-0.0619 0.05393,-0.01375 0.06067,0.09629 0.02023,0.330123 -0.02696,0.220085 -0.07416,0.502065 -0.141563,0.845944 -0.06741,0.343884 -0.148304,0.701516 -0.242679,1.072901 -0.09438,0.371389 -0.175269,0.694634 -0.24268,0.96974 -0.01349,0.06877 -0.07416,0.178813 -0.182009,0.330123 -0.09438,0.151307 -0.222455,0.316368 -0.384242,0.495184 -0.148303,0.178817 -0.323571,0.350758 -0.525805,0.515818 -0.18875,0.165063 -0.384242,0.302615 -0.586474,0.412653 -0.18875,0.09628 -0.377501,0.151294 -0.566251,0.165063 -0.18875,0 -0.357278,-0.07566 -0.505581,-0.226959 -0.08089,-0.08254 -0.134821,-0.254467 -0.161787,-0.515817 -0.02696,-0.275103 -0.02023,-0.591477 0.02023,-0.949106 0.05393,-0.357636 0.141564,-0.735902 0.262903,-1.134799 0.12134,-0.412654 0.283125,-0.797799 0.485359,-1.155431 0.485357,-0.866579 0.910047,-1.458049 1.274064,-1.774419 0.283127,-0.24759 0.502043,-0.367775 0.656245,-0.360042 z"/>
  <g style="fill:#f4f4f7" transform="matrix(0.380854,0,0,0.37418042,3.812672,-62.803201)">
   <path style="fill:#f4f4f7;fill-rule:evenodd" transform="translate(0,172)" d="m 37,68 c -2.704645,-0.03825 -2.704645,4.03825 0,4 h 9.880859 c 0.01107,0.001 0.285634,0.0327 0.585938,0.197266 0.306304,0.16789 0.485897,0.188343 0.537109,0.939453 v -0.01953 l 0.246094,5.9948 c -0.460676,-0.176436 -0.769531,-0.251953 -0.769531,-0.251953 l -0.236328,-0.05859 H 38 c -4.333333,0 -5.896484,4.367188 -5.896484,4.367188 L 32,83.477223 V 85 c 0,3.03333 1.431289,5.127712 2.939453,6.070312 C 36.447617,92.012912 38,92 38,92 h 7.591797 l 3.392578,-2.203125 0.01953,0.320313 c 0.08969,2.735348 4.223189,2.492675 3.992188,-0.234376 l -1,-17.009765 v -0.0098 c -0.140818,-2.06533 -1.461734,-3.545828 -2.607422,-4.173828 -1.145688,-0.62799 -2.257813,-0.685547 -2.257813,-0.685547 L 47.064453,68 Z m 1,14.801442 h 8.644531 c 0.106906,0.0312 0.525263,0.141312 1.03711,0.482422 0.558515,0.372213 0.877827,0.68942 0.894531,1.355469 L 48.714844,85.201172 44.408203,88 H 38 C 38,88 37.552383,87.9871 37.060547,87.679688 36.568711,87.372288 36,86.96667 36,85 v -0.763011 c 0.102847,-0.30497 0.534758,-1.435547 2,-1.435547 z"/>
  </g>
 </g>
 <path style="opacity:0.3" d="M 7 4 C 5.338 4 4 5.338 4 7 L 4 41 C 4 42.662 5.338 44 7 44 L 12 44 L 12 4 L 7 4 z"/>
 <path style="opacity:0.1;fill:#f4f4f7" d="M 7,4 C 5.338,4 4,5.338 4,7 V 8 C 4,6.338 5.338,5 7,5 h 34 c 1.662,0 3,1.338 3,3 V 7 C 44,5.338 42.662,4 41,4 Z"/>
</svg>
