<svg xmlns="http://www.w3.org/2000/svg" width="48" height="48" version="1">
 <path style="opacity:0.2" d="M 6,5 C 4.892,5 4,5.892 4,7 V 43 C 4,44.108 4.892,45 6,45 H 28 L 44,29 V 7 C 44,5.892 43.108,5 42,5 Z"/>
 <path style="fill:#fecd38" d="M 6,4 C 4.892,4 4,4.892 4,6 V 42 C 4,43.108 4.892,44 6,44 H 28 L 44,28 V 6 C 44,4.892 43.108,4 42,4 Z"/>
 <path style="fill:#ffe69b" d="M 44,28 H 30 C 28.895,28 28,28.895 28,30 V 44 Z"/>
 <path style="opacity:0.2;fill:#f4f4f7" d="M 6,4 C 4.892,4 4,4.892 4,6 V 7 C 4,5.892 4.892,5 6,5 H 42 C 43.108,5 44,5.892 44,7 V 6 C 44,4.892 43.108,4 42,4 Z"/>
 <path style="opacity:0.2;fill:#f4f4f7" d="M 30,28 C 28.895,28 28,28.895 28,30 V 31 C 28,29.895 28.895,29 30,29 H 43 L 44,28 Z"/>
 <rect style="opacity:0.1" width="32" height="4" x="8" y="15" rx="2" ry="2"/>
 <rect style="fill:#4f4f4f" width="32" height="4" x="8" y="14" rx="2" ry="2"/>
 <rect style="opacity:0.1" width="22" height="4" x="8" y="23" rx="2" ry="2"/>
 <rect style="fill:#4f4f4f" width="22" height="4" x="8" y="22" rx="2" ry="2"/>
 <rect style="opacity:0.1" width="14" height="4" x="8" y="31" rx="2" ry="2"/>
 <rect style="fill:#4f4f4f" width="14" height="4" x="8" y="30" rx="2" ry="2"/>
</svg>
