<svg xmlns="http://www.w3.org/2000/svg" width="48" height="48" version="1.1">
 <g transform="translate(0,-284.3)">
  <circle style="fill:#f4f4f7" cx="24" cy="308.3" r="18"/>
  <polygon style="opacity:0.1" class="st1" transform="matrix(0.52858771,0,0,0.52858771,4.1015801,287.92145)" points="29.55 32.88 20.62 38.83 20.62 48.01 43.32 32.88 20.62 17.74 20.62 26.92"/>
  <polygon style="fill:#20aa73" class="st1" transform="matrix(0.52858771,0,0,0.52858771,4.1015801,286.92145)" points="20.62 26.92 29.55 32.88 20.62 38.83 20.62 48.01 43.32 32.88 20.62 17.74"/>
  <polygon style="opacity:0.1" class="st2" transform="matrix(0.52856442,0,0,0.52856442,3.7238726,289.99207)" points="55.39 50.05 46.46 44.1 55.39 38.14 55.39 28.96 32.69 44.1 55.39 59.23"/>
  <polygon style="fill:#3989da" class="st2" transform="matrix(0.52856442,0,0,0.52856442,3.7238726,288.99207)" points="55.39 59.23 55.39 50.05 46.46 44.1 55.39 38.14 55.39 28.96 32.69 44.1"/>
  <path style="opacity:0.2" d="m 41.498045,299.64571 -3.363281,2.23828 A 15.999997,15.999997 0 0 1 39.999997,309.3 15.999997,15.999997 0 0 1 24,325.3 15.999997,15.999997 0 0 1 11.689455,319.47773 L 8.3378931,321.7082 C 12.004295,326.32726 17.658236,329.3 24,329.3 c 11.027911,0 19.999997,-8.97156 19.999997,-20 0,-3.50142 -0.914002,-6.7889 -2.501952,-9.65429 z"/>
  <path style="fill:#20aa73" d="m 41.498045,298.64571 -3.363281,2.23828 A 15.999997,15.999997 0 0 1 39.999997,308.3 15.999997,15.999997 0 0 1 24,324.3 15.999997,15.999997 0 0 1 11.689455,318.47773 L 8.3378931,320.7082 C 12.004295,325.32726 17.658236,328.3 24,328.3 c 11.027911,0 19.999997,-8.97156 19.999997,-20 0,-3.50142 -0.914002,-6.7889 -2.501952,-9.65429 z"/>
  <path style="opacity:0.2" d="m 24,289.3 c -11.028432,0 -19.9999968,8.97157 -19.9999968,20 0,3.25471 0.7840526,6.32821 2.1699215,9.04688 l 3.3789057,-2.24805 A 15.999997,15.999997 0 0 1 8.0000026,309.3 15.999997,15.999997 0 0 1 24,293.3 a 15.999997,15.999997 0 0 1 11.855467,5.29493 l 3.371093,-2.24219 C 35.555638,292.04145 30.092097,289.3 24,289.3 Z"/>
  <path style="fill:#3989da" d="m 24,288.30001 c -11.028432,0 -19.9999968,8.97156 -19.9999968,19.99999 0,3.25471 0.7840526,6.32821 2.1699215,9.04688 l 3.3789057,-2.24805 A 15.999997,15.999997 0 0 1 8.0000026,308.3 15.999997,15.999997 0 0 1 24,292.3 a 15.999997,15.999997 0 0 1 11.855467,5.29493 l 3.371093,-2.24219 C 35.555638,291.04145 30.092097,288.30001 24,288.30001 Z"/>
  <path style="opacity:0.2;fill:#f4f4f7" d="m 24,288.30001 c -11.028432,0 -19.9999968,8.97156 -19.9999968,19.99999 0,0.15027 0.010347,0.29779 0.013672,0.44727 C 4.3083629,297.97418 13.156992,289.3 24,289.3 c 5.790284,0 11.008898,2.48061 14.66406,6.42774 l 0.5625,-0.375 C 35.555638,291.04145 30.092097,288.30001 24,288.30001 Z M 8.0175807,308.95039 a 15.999997,15.999997 0 0 0 -0.017578,0.34961 15.999997,15.999997 0 0 0 1.222656,6.01563 l 0.3261718,-0.2168 a 15.999997,15.999997 0 0 1 -1.5312498,-6.14844 z"/>
 </g>
</svg>
