<svg xmlns="http://www.w3.org/2000/svg" width="48" height="48" version="1">
 <rect style="opacity:0.2" width="40" height="40" x="4" y="5" rx="2" ry="2"/>
 <rect style="fill:#b2bfd9" width="40" height="40" x="4" y="4" rx="2" ry="2"/>
 <path style="opacity:0.1" transform="translate(0,0.599656)" d="m 13.609375,8.4746094 c -0.0062,0.5381214 -0.01349,1.0769599 -0.01953,1.6152346 2.73852,1.153816 7.197939,3.778973 9.261718,7.595703 C 22.337618,11.250429 13.62553,8.3757676 13.609375,8.4746094 Z m 20.78125,0 c -0.01615,-0.098842 -8.728243,2.7758196 -9.242187,9.2109376 2.063779,-3.81673 6.523198,-6.441887 9.261718,-7.595703 -0.006,-0.5382747 -0.01334,-1.0771132 -0.01953,-1.6152346 z M 11.080078,10.707031 c -0.02083,1.018254 -0.04166,2.036434 -0.0625,3.054688 C 13.702952,14.314988 20.328214,16.83609 23,21.640625 22.404978,13.495208 11.105896,10.549588 11.080078,10.707031 Z m 25.839844,0 C 36.894104,10.549588 25.595022,13.495208 25,21.640625 c 2.671937,-4.804535 9.297048,-7.325637 11.982422,-7.878906 -0.02084,-1.018254 -0.04167,-2.036434 -0.0625,-3.054688 z M 9.8398438,15.021484 c -0.1439615,-0.0134 -0.2242223,-0.01036 -0.2265626,0.0039 -0.04771,1.899261 -0.095019,3.798004 -0.1425781,5.697265 5.7205749,0.333706 6.0641979,3.939532 5.7187499,6.246094 L 9.2832031,28.890625 9,39.527344 19.367188,35.455078 C 20.578067,34.953372 21.78897,34.469531 23,34.027344 v -7.332032 c 0,-3.275242 -1.64638,-6.4019 -4.541016,-8.396484 -3.417544,-2.354549 -7.61141,-3.183533 -8.6191402,-3.277344 z m 28.3203122,0 c -1.00773,0.09381 -5.201596,0.922795 -8.61914,3.277344 C 26.646531,20.293412 25.000151,23.42007 25,26.695312 v 7.332032 c 1.21103,0.442187 2.421933,0.926028 3.632812,1.427734 L 39,39.527344 38.716797,28.890625 32.810547,26.96875 c -0.345448,-2.306562 -0.0018,-5.912388 5.71875,-6.246094 -0.04741,-1.899261 -0.09487,-3.798004 -0.142578,-5.697265 -0.0023,-0.01427 -0.0826,-0.01731 -0.226563,-0.0039 z"/>
 <path style="fill:#f4f4f7;opacity:0.2" d="M 6 4 C 4.892 4 4 4.892 4 6 L 4 7 C 4 5.892 4.892 5 6 5 L 42 5 C 43.108 5 44 5.892 44 7 L 44 6 C 44 4.892 43.108 4 42 4 L 6 4 z"/>
 <path style="fill:#43599b" d="M 13.609375 8.0761719 C 13.603185 8.6142933 13.595883 9.1511787 13.589844 9.6894531 C 16.328364 10.84327 20.787783 13.468427 22.851562 17.285156 C 22.337618 10.850038 13.62553 7.9773301 13.609375 8.0761719 z M 34.390625 8.0761719 C 34.37447 7.9773301 25.662382 10.850038 25.148438 17.285156 C 27.212217 13.468427 31.671636 10.84327 34.410156 9.6894531 C 34.404117 9.1511787 34.396815 8.6142933 34.390625 8.0761719 z M 11.080078 10.306641 C 11.059243 11.324894 11.038414 12.343075 11.017578 13.361328 C 13.702952 13.914597 20.328214 16.435699 23 21.240234 C 22.404978 13.094818 11.105896 10.149198 11.080078 10.306641 z M 36.919922 10.306641 C 36.894104 10.149198 25.595022 13.094818 25 21.240234 C 27.671937 16.435699 34.297048 13.914597 36.982422 13.361328 C 36.961586 12.343075 36.940757 11.324894 36.919922 10.306641 z M 9.8398438 14.623047 C 9.6958823 14.609645 9.6156215 14.610732 9.6132812 14.625 C 9.5655708 16.524261 9.5182626 18.423005 9.4707031 20.322266 C 15.191278 20.655971 15.534901 24.261797 15.189453 26.568359 L 9.2832031 28.490234 L 9 39.126953 L 19.367188 35.054688 C 20.578067 34.552981 21.78897 34.071093 23 33.628906 L 23 26.294922 C 23 23.01968 21.35362 19.893021 18.458984 17.898438 C 15.04144 15.543889 10.847574 14.716857 9.8398438 14.623047 z M 38.160156 14.623047 C 37.152426 14.716857 32.95856 15.543889 29.541016 17.898438 C 26.646531 19.893021 25.000151 23.01968 25 26.294922 L 25 33.628906 C 26.21103 34.071093 27.421933 34.552981 28.632812 35.054688 L 39 39.126953 L 38.716797 28.490234 L 32.810547 26.568359 C 32.465099 24.261797 32.808722 20.655971 38.529297 20.322266 C 38.481888 18.423005 38.434429 16.524261 38.386719 14.625 C 38.384379 14.610732 38.304118 14.609645 38.160156 14.623047 z"/>
</svg>
