<svg xmlns="http://www.w3.org/2000/svg" width="48" height="48" version="1">
 <path style="opacity:0.2" d="m 27.765625,4.9648438 c -0.752069,0.00138 -1.480743,0.040536 -2.177734,0.1171874 -2.099475,0.2308869 -3.928374,0.8033455 -5.625,1.6230469 -1.165294,0.5629969 -2.29981,1.5131507 -3.230469,2.3359375 L 16.556641,9.1953125 16.216797,9.15625 c -1.165254,-0.137936 -2.272677,-0.1622604 -3.1875,-0.068359 -0.383701,0.039386 -0.373582,0.036739 -0.388672,0.1171875 -0.0145,0.077319 0.0037,0.6198004 0.03125,0.9394529 0.100137,1.160173 0.326418,2.072164 0.666016,2.800781 l 0.06836,0.146485 -0.04102,0.08203 c -0.03753,0.07727 -0.04454,0.08398 -0.111328,0.08398 -0.115621,1e-6 -0.350487,0.06854 -0.496094,0.144532 -0.08886,0.04637 -0.18217,0.118127 -0.27539,0.210937 -0.119779,0.119259 -0.158227,0.173103 -0.248047,0.355469 -0.188755,0.383239 -0.248212,0.720515 -0.232422,1.318359 0.01334,0.504851 0.08128,0.958706 0.240235,1.613282 0.507431,2.032173 1.304512,4.168006 2.830078,5.671875 1.229888,1.35971 2.515373,2.560052 4.277343,3.373046 C 18.214692,27.824436 17.542265,31.388549 17,38 h 14 c 0,-5.251656 -0.295755,-8.589002 -1.125,-10.683594 0.542478,0.110482 1.074834,0.244743 1.626953,0.441406 1.223412,0.449116 2.821465,1.765687 3.832031,2.541016 0.02531,-2.560109 -0.520699,-4.654104 -1.826172,-7.134766 -0.547405,-0.814741 -1.405049,-1.65845 -2.1875,-2.433593 0,-0.02971 0.176675,-0.19105 0.347657,-0.31836 0.398465,-0.296693 0.962751,-0.410067 1.626953,-0.576171 1.575874,-0.394096 3.817875,-0.279755 6.273437,0.318359 0.230251,0.05608 0.421982,0.101562 0.425782,0.101562 0.05658,0 -0.307174,-0.702971 -0.710938,-1.375 -0.597552,-0.994574 -1.36036,-2.023235 -2.080078,-2.804687 -1.71792,-1.86528 -3.592186,-3.109535 -5.568359,-3.431641 -0.194647,-0.03173 -0.314454,-0.05887 -0.314454,-0.07226 10e-7,-0.04617 0.147695,-0.370778 0.337891,-0.746094 1.033994,-2.0403917 2.562359,-3.7562982 4.197266,-4.4804689 0.448728,-0.1987618 1.048135,-0.3836617 1.455078,-0.4492187 0.157714,-0.025406 0.202818,-0.044673 0.173828,-0.072266 C 37.428728,6.7712472 36.284942,6.3889161 35.539062,6.1738281 32.922095,5.4191779 30.222391,4.9603338 27.765625,4.9648438 Z"/>
 <path style="fill:#0063da" d="M 23.382273,23 C 29.437137,22.947328 31,24.906099 31,37 H 17 c 0.996663,-12.151593 2.418503,-14.054377 6.382273,-14 z"/>
 <path style="fill:#0063da" d="m 27.765628,3.9646968 c 2.456766,-0.00451 5.157326,0.4539839 7.774293,1.2086341 0.745879,0.215088 1.889257,0.5974952 1.944904,0.6504667 0.02899,0.027593 -0.01737,0.046673 -0.175084,0.072079 -0.406943,0.065557 -1.005303,0.2504091 -1.454031,0.4491709 -1.634907,0.7241707 -3.164301,2.4413989 -4.198295,4.4817905 -0.190196,0.375316 -0.336361,0.699283 -0.336361,0.745452 0,0.0134 0.118695,0.0409 0.313342,0.07263 1.976173,0.322106 3.851029,1.565925 5.568949,3.431205 0.719718,0.781452 1.48298,1.810561 2.080532,2.805135 0.403764,0.672029 0.766862,1.374803 0.71028,1.374803 -0.0038,0 -0.195333,-0.04588 -0.425584,-0.101963 -2.455562,-0.598114 -4.698058,-0.711602 -6.273932,-0.317507 -0.664202,0.166104 -1.229043,0.278437 -1.627508,0.57513 -0.170982,0.12731 -0.346079,0.288124 -0.346079,0.317835 0.782451,0.775143 1.639999,1.619468 2.187405,2.43421 1.305472,2.480661 1.850188,4.574126 1.824877,7.134235 -1.010566,-0.775329 -2.607348,-2.09133 -3.83076,-2.540446 -1.441505,-0.51346 -2.725511,-0.681719 -4.502839,-0.77353 -0.49435,-0.02554 -2.333069,-0.01897 -2.352513,0.02547 -5.053011,-0.03754 -7.375253,-2.004136 -9.575317,-4.436429 -1.525566,-1.503869 -2.322367,-3.640776 -2.829799,-5.672949 -0.15895,-0.654576 -0.226345,-1.108036 -0.239683,-1.612887 -0.01579,-0.597844 0.04373,-0.935449 0.232485,-1.318688 0.08982,-0.182366 0.127431,-0.236535 0.24721,-0.355794 0.09322,-0.09281 0.187103,-0.164566 0.275965,-0.21094 0.145606,-0.07599 0.379603,-0.144049 0.495224,-0.144049 0.06679,0 0.07508,-0.0061 0.112608,-0.08337 l 0.04048,-0.08337 -0.06792,-0.145766 c -0.339598,-0.728618 -0.567432,-1.640674 -0.667569,-2.8008472 -0.02759,-0.3196527 -0.04545,-0.8623401 -0.03095,-0.9396595 0.01509,-0.080449 0.0052,-0.077483 0.388901,-0.1168686 0.914823,-0.093901 2.023376,-0.070423 3.18863,0.067513 l 0.339064,0.040113 0.175378,-0.155046 c 0.930659,-0.8227868 2.06649,-1.7732717 3.231784,-2.3362686 1.696626,-0.8197014 3.52417,-1.3920658 5.623645,-1.6229527 0.696991,-0.076651 1.426199,-0.1151592 2.178268,-0.1165396 z"/>
 <path style="fill:#f4f4f7" d="m 21.314468,12.003823 c 0.114865,-0.0071 0.22903,-0.0043 0.342478,0.0088 1.890326,0.218408 2.853069,1.546469 3.245761,3.504433 0.153847,1.287176 0.01252,2.822309 -0.361937,3.890611 -0.0351,0.100079 -0.04975,0.167573 -0.03892,0.178043 0.01083,0.01047 0.07628,0.0066 0.172536,-0.0088 0.05851,-0.0094 0.206097,-0.0099 0.325611,-0.01379 V 22 H 14.372796 l -0.8069,-2.061988 -0.0973,-0.565473 c -0.634162,-1.902262 -0.595443,-4.538166 -0.05967,-5.239724 0.03195,-0.04184 0.09159,-0.09276 0.132321,-0.112845 0.340212,-0.167751 0.816656,0.238372 1.423101,1.211193 1.14064,2.264672 1.426582,2.867347 2.006871,3.751437 0.140658,0.147484 0.219026,0.166831 0.354154,0.08401 0.357795,-0.219307 0.564933,-0.988739 0.677173,-2.802292 0.03687,-0.59566 0.07219,-0.585207 0.140105,-0.912783 0.173829,-0.838526 0.483534,-1.507061 0.963869,-2.080091 0.582403,-0.694797 1.40389,-1.217964 2.207948,-1.267615 z"/>
 <path style="fill:#ffc77b" d="m 27.704635,6.9979996 0.03117,0.097522 c 0.05635,0.176402 0.157035,0.6120094 0.1894,0.8193374 0.05537,0.3546761 0.0748,0.6190147 0.0748,1.0180188 0,0.6908287 -0.06879,1.1524232 -0.262731,1.7631252 -0.07797,0.245517 -0.1028,0.301997 -0.132854,0.301997 -0.01029,0 -0.101475,-0.06765 -0.202639,-0.150316 -0.97878,-0.799886 -2.200884,-1.4974375 -3.311863,-1.8903402 -0.04539,-0.016053 -0.08573,-0.038067 -0.08963,-0.048933 -0.01137,-0.03172 0.318716,-0.4053448 0.535769,-0.6064174 0.392194,-0.3633174 0.754946,-0.6027414 1.263385,-0.8339188 0.183558,-0.08346 0.418218,-0.1791507 0.52147,-0.2126167 0.385597,-0.1249833 0.851803,-0.219802 1.202884,-0.244658 z"/>
 <path style="fill:#fcb9a4" d="m 14.087746,21.032366 c 0.263155,0.0018 0.571625,0.123918 0.771335,0.308812 0.131154,0.121429 0.191893,0.225845 0.19445,0.334351 0.0055,0.23259 -0.272198,0.31899 -0.680175,0.211623 -0.280965,-0.07394 -0.551217,-0.262587 -0.644587,-0.449954 -0.117121,-0.235033 -0.0022,-0.386113 0.307021,-0.403589 0.01709,-10e-4 0.03441,-0.0013 0.05195,-0.0013 z"/>
 <path style="fill:#fcb9a4" d="m 14.063851,21.043072 c -0.30898,0.0025 -0.438716,0.158464 -0.325765,0.391787 0.07995,0.165157 0.362565,0.363066 0.63443,0.444292 0.120204,0.03591 0.359015,0.0532 0.439615,0.03183 0.149646,-0.03969 0.233837,-0.125641 0.233837,-0.23877 0,-0.158353 -0.205838,-0.377051 -0.472059,-0.501545 -0.207768,-0.09716 -0.334982,-0.128972 -0.510058,-0.127587 z"/>
 <path style="fill:#fcb9a4" d="m 25.045259,21.638078 c -0.266819,0.0014 -0.393804,0.08472 -0.602241,0.395077 -0.34128,0.508151 -0.6948,0.846488 -1.156618,1.106964 -0.367076,0.207038 -0.787498,0.329955 -1.198199,0.350318 -0.136932,0.0068 -0.273716,0.02562 -0.353058,0.04859 -0.112425,0.03255 -0.144952,0.05288 -0.24604,0.153967 -0.09862,0.09862 -0.122464,0.135959 -0.155722,0.243629 -0.0216,0.06994 -0.03928,0.159081 -0.03928,0.198068 0,0.03899 0.01767,0.128093 0.03928,0.198031 0.03323,0.107597 0.05712,0.145027 0.155393,0.2433 0.09827,0.09827 0.135703,0.122196 0.243301,0.155429 0.120882,0.03733 0.32729,0.04834 0.506732,0.027 0.442075,-0.05257 0.600789,-0.08564 0.935351,-0.194853 0.634344,-0.207076 1.191017,-0.551364 1.685894,-1.042658 0.332326,-0.329923 0.714022,-0.842924 0.784854,-1.054863 0.101075,-0.302432 -0.03537,-0.624837 -0.324706,-0.76728 -0.110458,-0.05438 -0.142236,-0.06142 -0.274941,-0.06073 z"/>
 <path style="fill:#fcb9a4" d="m 24.77419,25.889828 c -0.0092,7.34e-4 -0.0207,0.0014 -0.02865,0.0021 -0.08916,0.0084 -0.197733,0.01611 -0.272896,0.01969 0.04574,-0.0027 0.103567,-0.0073 0.174575,-0.01341 0.0346,-0.003 0.07883,-0.0057 0.126966,-0.0084 z"/>
 <path style="opacity:0.2" d="m 26.648702,20.157365 c 0.715506,0.293981 1.165191,0.87693 1.310216,1.698471 0.04549,0.257681 0.05518,0.791361 0.0191,1.051979 -0.204567,1.477687 -1.135534,2.88842 -2.504777,3.826059 -0.683995,0.503274 -1.099225,0.638438 -1.863487,0.917774 -0.752073,0.234677 -1.550911,0.34769 -2.440502,0.348349 -0.872425,6.4e-4 -1.560686,-0.09228 -2.32092,-0.313335 -1.68189,-0.489057 -3.09617,-1.574441 -3.917679,-3.006605 -0.594036,-1.281033 -1.247794,-2.37467 -0.760052,-3.160479 0.787788,-1.269216 2.940334,-0.271487 3.774121,0.115798 0.752403,0.350534 1.025478,0.448301 1.419866,0.508268 0.887915,0.135005 1.369506,-0.0086 3.034742,-0.904564 1.296527,-0.676883 2.865129,-1.614922 4.249372,-1.081715 z"/>
 <path style="fill:#ffc77b" d="m 26.648702,19.157365 c 0.715506,0.293981 1.165191,0.87693 1.310216,1.698471 0.04549,0.257681 0.05518,0.791361 0.0191,1.051979 -0.204567,1.477687 -1.135534,2.88842 -2.504777,3.826059 -0.683995,0.503274 -1.099225,0.638438 -1.863487,0.917774 -0.752073,0.234677 -1.550911,0.34769 -2.440502,0.348349 -0.872425,6.4e-4 -1.560686,-0.09228 -2.32092,-0.313335 -1.68189,-0.489057 -3.09617,-1.574441 -3.917679,-3.006605 -0.594036,-1.281033 -1.247794,-2.37467 -0.760052,-3.160479 0.787788,-1.269216 2.940334,-0.271487 3.774121,0.115798 0.752403,0.350534 1.025478,0.448301 1.419866,0.508268 0.887915,0.135005 1.369506,-0.0086 3.034742,-0.904564 1.296527,-0.676883 2.865129,-1.614922 4.249372,-1.081715 z"/>
 <path style="fill:#4f4f4f" d="m 15.24038,22.960965 c 0.306731,-0.09438 0.464059,-0.214038 0.608834,-0.463046 0.339927,-0.584669 0.09258,-1.529754 -0.615564,-2.352051 -0.263588,-0.306074 -0.50959,-0.51657 -0.844897,-0.722949 -0.766441,-0.471744 -1.533933,-0.555532 -1.993234,-0.217601 -0.17629,0.129705 -0.263671,0.255744 -0.337,0.48608 -0.05971,0.187566 -0.0638,0.220784 -0.055,0.446672 0.01735,0.445432 0.149598,0.8169 0.46182,1.297148 0.383817,0.590366 0.981985,1.113891 1.555817,1.361667 0.430956,0.186084 0.929618,0.253192 1.219226,0.16408 z"/>
 <ellipse style="fill:#3f3f3f" cx="-20.041" cy="18.243" rx="1.477" ry="2.017" transform="matrix(-0.99856635,0.0535279,0.13639029,0.99065518,0,0)"/>
 <path style="opacity:0.5;fill:none;stroke:#000000;stroke-linecap:round" d="m 25.507121,21.49995 c -0.926705,1.333333 -2,2 -4,2"/>
 <path style="fill:#3f3f3f" d="m6.0293 32c-1.1242 0-2.0293 0.892-2.0293 2v8c0 1.1077 0.90509 2 2.0293 2h1.9414c1.1242 0 2.0293-0.892 2.0293-2v-8c0-1.108-0.9051-2-2.0293-2h-1.9414zm34 0c-1.124 0-2.029 0.892-2.029 2v8c0 1.1077 0.90509 2 2.0293 2h1.9414c1.125 0 2.03-0.892 2.03-2v-8c0-1.1077-0.90509-2-2.0293-2h-1.9414z"/>
 <path style="opacity:0.2" d="m 10,31 c -3.8659932,0 -7,3.134007 -7,7 0.00255,1.038323 0.2360509,2.063076 0.6835938,3 C 3.6835938,41 4,44 14,44 H 24 34 C 44,44 44.316406,41 44.316406,41 44.763949,40.063076 44.9975,39.038323 45,38 c 0,-3.865993 -3.134007,-7 -7,-7 -3.427069,0.0522 -8.58224,2.304688 -14,2.304688 -5.41776,0 -10.572931,-2.252492 -14,-2.304688 z"/>
 <path opacity=".2" d="m4 42v1c0 1.1077 0.90509 2 2.0293 2h1.9414c1.1242 0 2.0293-0.892 2.0293-2v-1c0 1.1077-0.90509 2-2.0293 2h-1.9414c-1.1242 0-2.0293-0.892-2.0293-2zm34 0v1c0 1.1077 0.90509 2 2.0293 2h1.9414c1.125 0 2.03-0.892 2.03-2v-1c0 1.1077-0.90509 2-2.0293 2h-1.941c-1.125 0-2.03-0.892-2.03-2z"/>
 <path style="fill:#3f3f3f" d="m 27.535534,26.464466 a 5,5 0 0 0 -7.071068,0 5,5 0 0 0 0,7.071068 5,5 0 0 0 7.071068,0 5,5 0 0 0 0,-7.071068 z M 26.12132,27.87868 a 3,3 0 0 1 0.868681,1.887904 l -2.173788,-0.582797 -0.582868,-2.17103 a 3,3 0 0 1 1.888682,0.866205 z m 0.35214,3.818659 a 3,3 0 0 1 -0.35214,0.424264 3,3 0 0 1 -3.412638,0.584212 l 1.59099,-1.59099 2.173788,0.582797 z m -4.17087,-4.168041 0.582868,2.17103 -1.589576,1.589576 a 3,3 0 0 1 0.582798,-3.411224 3,3 0 0 1 0.423988,-0.349417 z"/>
 <path fill="#fff" opacity=".1" d="m6.0293 32c-1.1242 0-2.0293 0.892-2.0293 2v1c0-1.1077 0.90509-2 2.0293-2h1.9414c1.1242 0 2.0293 0.892 2.0293 2v-1c0-1.108-0.9051-2-2.0293-2h-1.9414zm34 0c-1.124 0-2.029 0.892-2.029 2v1c0-1.1077 0.90509-2 2.0293-2h1.9414c1.125 0 2.03 0.892 2.03 2v-1c0-1.1077-0.90509-2-2.0293-2h-1.9414z"/>
 <path style="opacity:0.2" d="m 20.927734,26.001844 a 1.2974568,2.3571413 43.486771 0 0 -1.958984,0.994141 1.2974568,2.3571413 43.486771 0 0 -0.896484,2.36914 1.5581297,0.8782675 46.563462 0 0 0.591796,0.982422 1.5581297,0.8782675 46.563462 0 0 1.697266,0.488282 1.5581297,0.8782675 46.563462 0 0 -0.21875,-1.44336 1.2974568,2.3571413 43.486771 0 0 0.01172,-0.0078 1.5581297,0.8782675 46.563462 0 0 1.431641,0.246093 1.5581297,0.8782675 46.563462 0 0 -0.25,-1.486328 1.2974568,2.3571413 43.486771 0 0 0.01953,-0.0332 1.5581297,0.8782675 46.563462 0 0 1.484375,0.289063 1.5581297,0.8782675 46.563462 0 0 -0.47461,-1.748047 1.5581297,0.8782675 46.563462 0 0 -1.349609,-0.644532 1.2974568,2.3571413 43.486771 0 0 -0.08789,-0.0059 z m 6.144532,0 a 2.3571413,1.2974568 46.513228 0 0 -0.08789,0.0059 0.8782675,1.5581297 43.436539 0 0 -1.349609,0.644532 0.8782675,1.5581297 43.436539 0 0 -0.47461,1.748047 0.8782675,1.5581297 43.436539 0 0 1.484375,-0.289063 2.3571413,1.2974568 46.513228 0 0 0.01953,0.0332 0.8782675,1.5581297 43.436539 0 0 -0.25,1.486328 0.8782675,1.5581297 43.436539 0 0 1.431641,-0.246093 2.3571413,1.2974568 46.513228 0 0 0.01172,0.0078 0.8782675,1.5581297 43.436539 0 0 -0.21875,1.44336 0.8782675,1.5581297 43.436539 0 0 1.697266,-0.488282 0.8782675,1.5581297 43.436539 0 0 0.591796,-0.982422 2.3571413,1.2974568 46.513228 0 0 -0.896484,-2.36914 2.3571413,1.2974568 46.513228 0 0 -1.958984,-0.994141 z"/>
 <path style="fill:#f4f4f7" d="m 29.030652,25.996761 a 2.3571413,1.2974568 46.513228 0 0 -2.047159,-0.988613 0.8782675,1.5581297 43.436539 0 0 -1.349104,0.645016 0.8782675,1.5581297 43.436539 0 0 -0.474038,1.74679 0.8782675,1.5581297 43.436539 0 0 1.484115,-0.288045 2.3571413,1.2974568 46.513228 0 0 0.02,0.03291 0.8782675,1.5581297 43.436539 0 0 -0.251019,1.48652 0.8782675,1.5581297 43.436539 0 0 1.432111,-0.246897 2.3571413,1.2974568 46.513228 0 0 0.011,0.0073 0.8782675,1.5581297 43.436539 0 0 -0.217017,1.443313 0.8782675,1.5581297 43.436539 0 0 1.697132,-0.486592 0.8782675,1.5581297 43.436539 0 0 0.591046,-0.982441 2.3571413,1.2974568 46.513228 0 0 -0.897071,-2.369173 z"/>
 <path style="fill:#f4f4f7" d="m 18.969349,25.99676 a 1.2974568,2.3571413 43.486771 0 1 2.047159,-0.988613 1.5581297,0.8782675 46.563462 0 1 1.349104,0.645016 1.5581297,0.8782675 46.563462 0 1 0.474038,1.74679 1.5581297,0.8782675 46.563462 0 1 -1.484115,-0.288045 1.2974568,2.3571413 43.486771 0 1 -0.02,0.03291 1.5581297,0.8782675 46.563462 0 1 0.251019,1.48652 1.5581297,0.8782675 46.563462 0 1 -1.432111,-0.246897 1.2974568,2.3571413 43.486771 0 1 -0.011,0.0073 1.5581297,0.8782675 46.563462 0 1 0.217017,1.443313 1.5581297,0.8782675 46.563462 0 1 -1.697132,-0.486592 1.5581297,0.8782675 46.563462 0 1 -0.591045,-0.982441 1.2974568,2.3571413 43.486771 0 1 0.89707,-2.369173 z"/>
 <path style="fill:#00a5ff" d="m 10,30 c -3.8659932,0 -7,3.134007 -7,7 0.00255,1.038323 0.2360509,2.063076 0.6835938,3 C 3.6835938,40 4,43 14,43 H 24 34 C 44,43 44.316406,40 44.316406,40 44.763949,39.063076 44.9975,38.038323 45,37 c 0,-3.865993 -3.134007,-7 -7,-7 -3.427069,0.0522 -8.58224,2.304688 -14,2.304688 -5.41776,0 -10.572931,-2.252492 -14,-2.304688 z"/>
 <path style="opacity:0.3" d="M 7.9707031,32.010413 C 6.5876035,31.89379 5.3495396,32.766121 5.0625,34.156917 4.7344554,35.746396 5.7261835,38 7.3828125,38 H 24 40.617188 C 42.273817,38 43.265544,35.746396 42.9375,34.156917 42.609454,32.567436 41.038866,31.656293 39.429688,32.122894 39.429688,32.122894 29.234635,36 24,36 18.765365,36 8.5703125,32.122894 8.5703125,32.122894 8.3691651,32.064574 8.1682888,32.027074 7.9707031,32.010413 Z"/>
 <path style="opacity:0.2" d="m 8,34 a 2,2 0 0 0 -2,2 2,2 0 0 0 2,2 2,2 0 0 0 2,-2 2,2 0 0 0 -2,-2 z m 32,0 a 2,2 0 0 0 -2,2 2,2 0 0 0 2,2 2,2 0 0 0 2,-2 2,2 0 0 0 -2,-2 z m -28,2 a 1,1 0 0 0 -1,1 1,1 0 0 0 1,1 1,1 0 0 0 1,-1 1,1 0 0 0 -1,-1 z m 24,0 a 1,1 0 0 0 -1,1 1,1 0 0 0 1,1 1,1 0 0 0 1,-1 1,1 0 0 0 -1,-1 z"/>
 <circle style="fill:#f4f4f7" cx="8" cy="35" r="2"/>
 <circle style="fill:#f4f4f7" cx="40" cy="35" r="2"/>
 <circle style="fill:#f4f4f7" cx="12" cy="36" r="1"/>
 <circle style="fill:#f4f4f7" cx="36" cy="36" r="1"/>
 <path style="opacity:0.3;fill:#f4f4f7" d="M 7 38 C 10.010254 40.417198 12.602978 41.96839 10.445312 42.845703 C 11.471206 42.941722 12.638959 43 14 43 L 24 43 L 34 43 C 35.361041 43 36.528794 42.941722 37.554688 42.845703 C 35.397022 41.96839 37.989746 40.417198 41 38 L 24 38 L 7 38 z"/>
 <path style="opacity:0.4" d="m 15,40 c -1.108,0 -2,0.892 -2,2 v 1 h 1 10 10 c 0.259551,0 1,0 1,0 0,0 0,-0.638714 0,-1 0,-1.108 -0.892,-2 -2,-2 z"/>
 <path style="fill:#3f3f3f" d="M 14.865234 15.085938 A 2.0251743 1.4658085 76.827624 0 0 14.025391 17.078125 A 2.0251743 1.4658085 76.827624 0 0 15.775391 18.998047 A 2.0251743 1.4658085 76.827624 0 0 16.667969 18.464844 C 16.255383 17.779022 15.887954 17.063249 14.964844 15.230469 C 14.929733 15.174146 14.899472 15.138459 14.865234 15.085938 z"/>
 <path style="fill:#f4f4f7;opacity:0.1" d="M 27.765625 3.9648438 C 27.013556 3.9662242 26.284882 4.0053802 25.587891 4.0820312 C 23.488416 4.3129181 21.659517 4.8853767 19.962891 5.7050781 C 18.797597 6.268075 17.663081 7.2182288 16.732422 8.0410156 L 16.556641 8.1953125 L 16.216797 8.15625 C 15.051543 8.018314 13.94412 7.9939896 13.029297 8.0878906 C 12.645596 8.1272762 12.655715 8.1246291 12.640625 8.2050781 C 12.626125 8.2823975 12.644285 8.8248785 12.671875 9.1445312 C 12.67235 9.1500339 12.673347 9.1546648 12.673828 9.1601562 C 12.700576 9.1312644 12.761843 9.1153439 13.029297 9.0878906 C 13.94412 8.9939896 15.051543 9.018314 16.216797 9.15625 L 16.556641 9.1953125 L 16.732422 9.0410156 C 17.663081 8.2182288 18.797597 7.268075 19.962891 6.7050781 C 21.659517 5.8853767 23.488416 5.3129181 25.587891 5.0820312 C 26.284882 5.0053802 27.013556 4.9662242 27.765625 4.9648438 C 30.222391 4.9603338 32.922095 5.4191779 35.539062 6.1738281 C 35.696279 6.2191643 35.770591 6.2549952 35.949219 6.3105469 C 36.38602 6.1263974 36.929339 5.9578956 37.310547 5.8964844 C 37.468261 5.8710784 37.513365 5.8518118 37.484375 5.8242188 C 37.428728 5.7712472 36.284942 5.3889161 35.539062 5.1738281 C 32.922095 4.4191779 30.222391 3.9603338 27.765625 3.9648438 z M 31.744141 11.669922 C 31.716455 11.722781 31.68522 11.77286 31.658203 11.826172 C 31.468007 12.201488 31.320313 12.526097 31.320312 12.572266 C 31.320312 12.585666 31.440119 12.612801 31.634766 12.644531 C 33.610939 12.966637 35.485205 14.210892 37.203125 16.076172 C 37.922843 16.857624 38.685651 17.886285 39.283203 18.880859 C 39.335591 18.968054 39.369731 19.038373 39.419922 19.125 C 39.470487 19.136947 39.517609 19.141935 39.568359 19.154297 C 39.79861 19.21038 39.990341 19.255859 39.994141 19.255859 C 40.050723 19.255859 39.686967 18.552888 39.283203 17.880859 C 38.685651 16.886285 37.922843 15.857624 37.203125 15.076172 C 35.517166 13.245594 33.679829 12.019591 31.744141 11.669922 z M 13.087891 12.306641 C 12.97368 12.332474 12.854656 12.351802 12.757812 12.402344 C 12.66895 12.448718 12.575642 12.520471 12.482422 12.613281 C 12.362643 12.73254 12.324195 12.786384 12.234375 12.96875 C 12.04562 13.351989 11.986163 13.689265 12.001953 14.287109 C 12.00527 14.41267 12.024575 14.537069 12.035156 14.660156 C 12.068402 14.410939 12.125555 14.189692 12.234375 13.96875 C 12.324195 13.786384 12.362643 13.73254 12.482422 13.613281 C 12.575642 13.520471 12.66895 13.448718 12.757812 13.402344 C 12.903419 13.326354 13.138285 13.257813 13.253906 13.257812 C 13.320696 13.257812 13.327706 13.251098 13.365234 13.173828 L 13.40625 13.091797 L 13.337891 12.945312 C 13.245627 12.747357 13.163336 12.532973 13.087891 12.306641 z M 31.873047 20.292969 C 31.802999 20.331201 31.730164 20.365799 31.667969 20.412109 C 31.496987 20.539419 31.320312 20.700758 31.320312 20.730469 C 32.102763 21.505612 32.960407 22.349321 33.507812 23.164062 C 34.63639 25.308588 35.195853 27.163815 35.310547 29.28125 C 35.317018 29.286222 35.32756 29.293899 35.333984 29.298828 C 35.359295 26.738719 34.813285 24.644724 33.507812 22.164062 C 33.088509 21.539984 32.483153 20.907374 31.873047 20.292969 z"/>
 <path style="opacity:0.2;fill:#f4f4f7" d="M 10 30 C 6.1340068 30 3 33.134007 3 37 C 3.0003886 37.158232 3.0162881 37.315317 3.0273438 37.472656 C 3.298144 33.854167 6.3122539 31 10 31 C 13.427069 31.052196 18.58224 33.304688 24 33.304688 C 29.41776 33.304688 34.572931 31.0522 38 31 C 41.687746 31 44.701856 33.854167 44.972656 37.472656 C 44.983708 37.315317 44.999619 37.158232 45 37 C 45 33.134007 41.865993 30 38 30 C 34.572931 30.0522 29.41776 32.304688 24 32.304688 C 18.58224 32.304688 13.427069 30.052196 10 30 z"/>
</svg>
