<svg xmlns="http://www.w3.org/2000/svg" width="48" height="48" version="1.1">
 <path style="opacity:0.2" d="M 6.3417969,8 C 4.490281,8 3,9.5162819 3,11.396484 V 38.605469 C 3,40.485672 4.490281,42 6.3417969,42 H 28.820312 c 2.322898,0 3.921212,-1.271579 5.158204,-2.4375 l 8.822265,-9.234375 C 44.206035,28.931101 44.998525,27.018582 45,25.021484 44.998487,23.02573 44.206035,21.113936 42.800781,19.716797 L 33.888672,10.490234 C 32.476005,9.0556793 30.515648,8 28.050781,8 Z M 38,22 c 1.656621,-0.0015 3,1.342978 3,3 0,1.658476 -1.343379,3.001455 -3,3 -1.65662,0 -3,-1.341524 -3,-3 0,-1.657022 1.34338,-3 3,-3 z"/>
 <path style="fill:#69e683" d="M 6.3417969 7 C 4.490281 7 3 8.5162819 3 10.396484 L 3 37.605469 C 3 39.485672 4.490281 41 6.3417969 41 L 28.820312 41 C 31.14321 41 32.741524 39.728421 33.978516 38.5625 L 42.800781 29.328125 C 44.206035 27.931101 44.998525 26.018582 45 24.021484 C 44.998487 22.02573 44.206035 20.113936 42.800781 18.716797 L 33.888672 9.4902344 C 32.476005 8.0556793 30.515648 7 28.050781 7 L 6.3417969 7 z M 38 21 C 39.656621 20.9985 41 22.342978 41 24 C 41 25.658476 39.656621 27.001455 38 27 C 36.34338 27 35 25.658476 35 24 C 35 22.342978 36.34338 21 38 21 z"/>
 <path style="opacity:0.1" d="m 14,14 v 8 h 3 v 2 h -6 v 4 H 8 v 8 h 8 v -8 h -3 v -2 h 10 v 2 h -3 v 8 h 8 v -8 h -3 v -4 h -6 v -2 h 3 v -8 z"/>
 <path style="fill:#176642" d="M 14 13 L 14 21 L 17 21 L 17 23 L 11 23 L 11 27 L 8 27 L 8 35 L 16 35 L 16 27 L 13 27 L 13 25 L 23 25 L 23 27 L 20 27 L 20 35 L 28 35 L 28 27 L 25 27 L 25 23 L 19 23 L 19 21 L 22 21 L 22 13 L 14 13 z"/>
 <path style="fill:#f4f4f7;opacity:0.2" d="M 6.3417969 7 C 4.490281 7 3 8.5162823 3 10.396484 L 3 11.396484 C 3 9.5162823 4.490281 8 6.3417969 8 L 28.050781 8 C 30.515648 8 32.476005 9.0556797 33.888672 10.490234 L 42.800781 19.716797 C 44.088003 20.996586 44.852667 22.709063 44.974609 24.521484 C 44.985789 24.35519 44.999876 24.189227 45 24.021484 C 44.998487 22.02573 44.206035 20.113936 42.800781 18.716797 L 33.888672 9.4902344 C 32.476005 8.0556793 30.515648 7 28.050781 7 L 6.3417969 7 z M 35.050781 24.5 C 35.023277 24.663247 35 24.828926 35 25 C 35 26.658476 36.34338 28 38 28 C 39.656621 28.001455 41 26.658476 41 25 C 41 24.828926 40.976723 24.663274 40.949219 24.5 C 40.710317 25.918998 39.485589 27.001305 38 27 C 36.514412 27 35.289683 25.91877 35.050781 24.5 z"/>
</svg>
