<svg xmlns="http://www.w3.org/2000/svg" width="48" height="48" version="1.1">
 <path style="opacity:0.2" d="M 23.98247,7 C 13.397655,7.0196842 4.8081296,15.817829 4.8081472,26.674 H 8 C 7.9997288,17.082799 14.583878,10.073009 23.934897,10 c 0.0434,-1.702e-4 0.0868,-1.702e-4 0.130206,0 C 33.466766,9.9999994 40,17.031133 40,26.674 h 3.188637 C 43.188637,15.803907 34.615936,7 24.017529,7 h -0.03468 z"/>
 <circle style="opacity:0.2" cx="29.742" cy="23.074" r="15" transform="rotate(12.584)"/>
 <path style="fill:#3d3846" d="M 23.98247,6 C 13.397655,6.0196842 4.8081296,14.817829 4.8081472,25.674 H 8 C 7.9997288,16.082799 14.583878,9.0730089 23.934897,9 c 0.0434,-1.702e-4 0.0868,-1.702e-4 0.130206,0 C 33.466766,8.9999994 40,16.031133 40,25.674 h 3.188637 C 43.188637,14.803907 34.615936,6 24.017529,6 h -0.03468 z"/>
 <path style="fill:#f4f4f7;opacity:0.1" d="M 23.982422 6 C 13.397607 6.0196842 4.8085761 14.817657 4.8085938 25.673828 L 4.8339844 25.673828 C 5.3421119 15.28241 13.724553 7.0190762 23.982422 7 L 24.017578 7 C 34.288619 7 42.656882 15.269422 43.164062 25.673828 L 43.189453 25.673828 C 43.189453 14.803735 34.615985 6 24.017578 6 L 23.982422 6 z"/>
 <path style="fill:#c01c28" d="m 9.8432872,4.9995201 c 0,0 -3.3238946,7.3914079 3.2264678,15.4434799 l 7.041214,-3.311776 C 10.573985,13.060794 9.8432872,5.0004799 9.8432872,5.0004799 Z"/>
 <path style="fill:#c01c28" d="m 38.161682,4.9995201 c 0,0 3.323895,7.3914079 -3.226468,15.4434799 L 27.894,17.131224 C 37.430984,13.060794 38.161682,5.0004799 38.161682,5.0004799 Z"/>
 <path style="fill:#f4f4f7;opacity:0.1" d="M 9.84375 5 C 9.84375 5 8.9178213 7.0922639 9.0175781 10.248047 C 9.1100323 7.6598471 9.84375 6 9.84375 6 C 9.84375 6 10.541389 13.43366 19.056641 17.626953 L 20.111328 17.130859 C 10.574344 13.060429 9.84375 5 9.84375 5 z M 38.162109 5 C 38.162109 5 37.431515 13.060429 27.894531 17.130859 L 28.949219 17.626953 C 37.46447 13.43366 38.162109 6 38.162109 6 C 38.162109 6 38.895827 7.6598471 38.988281 10.248047 C 39.088038 7.0922639 38.162109 5 38.162109 5 z"/>
 <circle style="fill:#e8303a" cx="29.524" cy="22.098" r="15" transform="rotate(12.584)"/>
 <path style="opacity:0.2" d="M 10.490234,18.999998 C 10.002599,19.000608 9,19.449217 9,19.449217 v 0.05078 c 0,0 -0.3243303,0.116123 -0.4921875,0.158203 -0.8194428,0.205206 -1.7506709,0.09042 -2.5,0.455078 -0.4156555,0.202286 -0.7677238,0.537114 -1,0.910157 -0.3385998,0.543823 -0.465109,0.987251 -0.5625,1.603515 C 4.1814504,24.296286 4.00756,25.867491 4,28.189451 v 0.621094 c 0.00698,2.32196 0.1814504,3.891213 0.4453125,5.560547 0.097416,0.616254 0.2239002,1.061657 0.5625,1.605468 0.2322762,0.373033 0.5843445,0.707871 1,0.910157 0.7493921,0.364656 1.6806076,0.249871 2.5,0.455078 C 8.6756697,37.38388 9,37.499998 9,37.499998 v 0.05078 c 0,0 1.002641,0.448609 1.490234,0.449219 0.487594,6.22e-4 0.7696,-0.154558 1.011719,-0.529297 C 11.744069,37.095964 12.0086,36.646679 12,35.271482 v -0.4375 -12.667968 -0.4375 c 0.0085,-1.375233 -0.255931,-1.824505 -0.498047,-2.199219 -0.242119,-0.374714 -0.524125,-0.529918 -1.011719,-0.529297 z m 27.017578,0 c -0.487594,-6.21e-4 -0.767646,0.154583 -1.009765,0.529297 C 36.255931,19.904009 35.991497,20.353281 36,21.728514 v 0.4375 12.667968 0.4375 c -0.0086,1.375197 0.255931,1.824482 0.498047,2.199219 0.242119,0.374739 0.522172,0.529919 1.009765,0.529297 C 37.995405,37.999388 39,37.550779 39,37.550779 v -0.05078 c 0,0 0.324329,-0.116118 0.492188,-0.158203 0.819392,-0.205207 1.750608,-0.09042 2.5,-0.455078 0.415655,-0.202286 0.767724,-0.537124 1,-0.910157 0.338599,-0.54381 0.465084,-0.989214 0.5625,-1.605468 C 43.81855,32.701758 43.99302,31.132505 44,28.810545 v -0.621094 c -0.0076,-2.32196 -0.181451,-3.893165 -0.445312,-5.5625 -0.09739,-0.616264 -0.2239,-1.059692 -0.5625,-1.603515 -0.232276,-0.373043 -0.584344,-0.707871 -1,-0.910157 -0.74933,-0.364657 -1.680559,-0.249872 -2.5,-0.455078 C 39.324329,19.616121 39,19.499998 39,19.499998 v -0.05078 c 0,0 -1.004552,-0.448609 -1.492188,-0.449219 z"/>
 <circle style="opacity:0.4" cx="22" cy="31" r="1"/>
 <circle style="opacity:0.4" cx="26" cy="31" r="1"/>
 <path style="opacity:0.2" d="m 18,21 a 4,4 0 0 0 -4,4 4,4 0 0 0 4,4 4,4 0 0 0 4,-4 4,4 0 0 0 -4,-4 z m 12,0 a 4,4 0 0 0 -4,4 4,4 0 0 0 4,4 4,4 0 0 0 4,-4 4,4 0 0 0 -4,-4 z"/>
 <circle style="fill:#f6f5f4" cx="30" cy="24" r="4"/>
 <circle style="fill:#241f31" cx="30" cy="23" r="2"/>
 <circle style="fill:#f6f5f4" cx="18" cy="24" r="4"/>
 <circle style="fill:#241f31" cx="18" cy="23" r="2"/>
 <path style="fill:#3d3846" d="m 38.999799,18.5 v 18 c 0,0 0.324337,-0.116121 0.492195,-0.158206 0.819392,-0.205207 1.751269,-0.09055 2.500661,-0.455208 0.415656,-0.202286 0.767724,-0.536165 1,-0.909197 0.3386,-0.543811 0.463771,-0.989389 0.561187,-1.605643 0.263862,-1.669334 0.438977,-3.239319 0.445957,-5.561279 V 27.18978 c -0.0076,-2.32196 -0.182095,-3.892532 -0.445957,-5.561867 -0.09739,-0.616264 -0.222587,-1.061232 -0.561187,-1.605056 -0.232276,-0.373043 -0.584344,-0.706921 -1,-0.909207 -0.749329,-0.364657 -1.681219,-0.250002 -2.500661,-0.455208 -0.167858,-0.04208 -0.492195,-0.158207 -0.492195,-0.158207 z"/>
 <path style="fill:#f4f4f7;opacity:0.2" d="M 24.732422 13.017578 A 15 15 0 0 0 9.359375 24.732422 A 15 15 0 0 0 9.0195312 28.253906 A 15 15 0 0 1 9.359375 25.732422 A 15 15 0 0 1 27.267578 14.359375 A 15 15 0 0 1 38.980469 28.746094 A 15 15 0 0 0 27.267578 13.359375 A 15 15 0 0 0 24.732422 13.017578 z"/>
 <path style="fill:#9a9996" d="M 37.508659,18.000191 C 37.021065,17.99957 36.740851,18.15491 36.498732,18.529624 36.256616,18.904338 35.991497,19.35315 36,20.728383 l 7.22e-4,0.438506 H 36 V 33.8333 h 7.22e-4 L 36,34.272429 c -0.0086,1.375197 0.256616,1.824021 0.498732,2.198758 0.242119,0.374739 0.522333,0.529433 1.009927,0.528811 0.487593,-6.1e-4 1.49114,-0.448405 1.49114,-0.448405 V 18.449027 c 0,0 -1.003505,-0.448417 -1.49114,-0.449027 z"/>
 <path style="fill:#3d3846" d="m 9.0000004,18.5 v 18 c 0,0 -0.3243377,-0.116121 -0.4921949,-0.158206 C 7.6884131,36.136587 6.7565361,36.251242 6.007144,35.886586 5.5914885,35.6843 5.2394203,35.350421 5.0071441,34.977389 4.6685443,34.433578 4.5433726,33.988 4.4459567,33.371746 4.1820946,31.702412 4.0069802,30.132427 4.0000004,27.810467 V 27.18978 c 0.00756,-2.32196 0.1820942,-3.892532 0.4459563,-5.561867 0.097391,-0.616264 0.2225876,-1.061232 0.5611874,-1.605056 0.2322762,-0.373043 0.5843444,-0.706921 0.9999999,-0.909207 0.7493291,-0.364657 1.6812187,-0.250002 2.5006615,-0.455208 0.1678572,-0.04208 0.4921949,-0.158207 0.4921949,-0.158207 z"/>
 <path style="fill:#9a9996" d="m 10.49114,18.000191 c 0.487594,-6.21e-4 0.767808,0.154719 1.009927,0.529433 0.242116,0.374714 0.507235,0.823526 0.498732,2.198759 l -7.22e-4,0.438506 h 7.22e-4 V 33.8333 h -7.22e-4 l 7.22e-4,0.439129 c 0.0086,1.375197 -0.256616,1.824021 -0.498732,2.198758 -0.242119,0.374739 -0.522333,0.529433 -1.009927,0.528811 C 10.003547,36.999388 9,36.551593 9,36.551593 V 18.449027 c 0,0 1.003505,-0.448417 1.49114,-0.449027 z"/>
 <path style="opacity:0.4" d="m 19.773216,32.377994 c -3.908967,0.05821 -2.956254,1.746868 -3.691071,3.083546 -0.359603,0.654121 0.519505,-0.07481 1.508288,-0.985422 1.554823,2.403512 4.407792,4.677515 9.409567,2.874144 -4.458879,-0.317329 -7.178156,-1.884991 -8.808935,-3.442892 0.818874,-0.777288 1.582151,-1.529339 1.582151,-1.529339 z"/>
 <path style="fill:#f4f4f7;opacity:0.1" d="M 10.490234 18 C 10.002599 18.00061 9 18.449219 9 18.449219 L 9 18.5 C 9 18.5 8.6756697 18.616123 8.5078125 18.658203 C 7.6883697 18.863409 6.7571416 18.748624 6.0078125 19.113281 C 5.592157 19.315567 5.2400887 19.650395 5.0078125 20.023438 C 4.6692127 20.56726 4.5427035 21.010689 4.4453125 21.626953 C 4.1814504 23.296288 4.00756 24.867493 4 27.189453 L 4 27.810547 C 4.0002049 27.878714 4.0034146 27.933109 4.0039062 28 C 4.0206598 25.788284 4.1891968 24.247281 4.4453125 22.626953 C 4.5427035 22.010689 4.6692127 21.56726 5.0078125 21.023438 C 5.2400887 20.650395 5.592157 20.315567 6.0078125 20.113281 C 6.7571416 19.748623 7.6883697 19.863409 8.5078125 19.658203 C 8.6756697 19.616123 9 19.5 9 19.5 L 9 19.449219 C 9 19.449219 10.002599 19.00061 10.490234 19 C 10.977828 18.999379 11.259834 19.154583 11.501953 19.529297 C 11.744069 19.904011 12.0085 20.353283 12 21.728516 L 12 21.166016 L 12 20.728516 C 12.008503 19.353283 11.744069 18.904011 11.501953 18.529297 C 11.259834 18.154583 10.977828 17.999379 10.490234 18 z M 37.507812 18 C 37.020218 17.999379 36.740166 18.154583 36.498047 18.529297 C 36.255931 18.904011 35.991497 19.353283 36 20.728516 L 36 21.166016 L 36 21.728516 C 35.991497 20.353283 36.255931 19.904011 36.498047 19.529297 C 36.740166 19.154583 37.020218 18.999379 37.507812 19 C 37.995449 19.00061 39 19.449219 39 19.449219 L 39 19.5 C 39 19.5 39.324329 19.616123 39.492188 19.658203 C 40.311628 19.863409 41.242857 19.748624 41.992188 20.113281 C 42.407843 20.315567 42.759912 20.650395 42.992188 21.023438 C 43.330787 21.567261 43.457298 22.010689 43.554688 22.626953 C 43.810802 24.24728 43.979306 25.788284 43.996094 28 C 43.996585 27.933109 43.999795 27.878714 44 27.810547 L 44 27.189453 C 43.9924 24.867493 43.818548 23.296288 43.554688 21.626953 C 43.457298 21.010689 43.330787 20.56726 42.992188 20.023438 C 42.759912 19.650395 42.407843 19.315567 41.992188 19.113281 C 41.242857 18.748624 40.311629 18.863409 39.492188 18.658203 C 39.324329 18.616123 39 18.5 39 18.5 L 39 18.449219 C 39 18.449219 37.995449 18.00061 37.507812 18 z"/>
</svg>
