<svg xmlns="http://www.w3.org/2000/svg" width="48" height="48" version="1">
 <path style="opacity:0.2" d="M 44,25 A 20,20 0 0 1 24,45 20,20 0 0 1 4,25 20,20 0 0 1 24,5 20,20 0 0 1 44,25 Z"/>
 <path style="fill:#3f3f3f" d="m44 24a20 20 0 0 1 -20 20 20 20 0 0 1 -20 -20 20 20 0 0 1 20 -20 20 20 0 0 1 20 20z"/>
 <path style="opacity:0.2" d="M 24,5 A 20,20 0 0 0 19.599609,5.515625 L 24,24 28.402344,5.5078125 A 20,20 0 0 0 24,5 Z M 38.677734,11.443359 24.865234,24.5 43.078125,19.068359 a 20,20 0 0 0 -4.400391,-7.625 z m -29.3515621,0.0039 A 20,20 0 0 0 4.9023438,19.0625 L 23.134766,24.5 Z M 23.134766,25.5 4.921875,30.931641 a 20,20 0 0 0 4.4003906,7.625 z m 1.730468,0 13.808594,13.052734 A 20,20 0 0 0 43.097656,30.9375 Z M 24,26 19.597656,44.492188 A 20,20 0 0 0 24,45 20,20 0 0 0 28.400391,44.484375 Z"/>
 <path style="fill:#ff5454" d="M 24,4 A 20,20 0 0 0 19.599609,4.515625 L 24,23 28.402344,4.5078125 A 20,20 0 0 0 24,4 Z"/>
 <path style="fill:#fff129" d="M 38.677734,10.443359 24.865234,23.5 43.078125,18.068359 a 20,20 0 0 0 -4.400391,-7.625 z"/>
 <path style="fill:#c552da" d="M 9.3261719,10.447266 A 20,20 0 0 0 4.9023438,18.0625 L 23.134766,23.5 Z"/>
 <path style="fill:#336eef" d="M 23.134766,24.5 4.921875,29.931641 a 20,20 0 0 0 4.4003906,7.625 z"/>
 <path style="fill:#45cb32" d="M 24.865234,24.5 38.673828,37.552734 A 20,20 0 0 0 43.097656,29.9375 Z"/>
 <path style="fill:#00d4ea" d="M 24,25 19.597656,43.492188 A 20,20 0 0 0 24,44 20,20 0 0 0 28.400391,43.484375 Z"/>
 <path style="fill:#f4f4f7;opacity:0.1" d="M 24 4 A 20 20 0 0 0 4 24 A 20 20 0 0 0 4.0214844 24.582031 A 20 20 0 0 1 24 5 A 20 20 0 0 1 43.978516 24.417969 A 20 20 0 0 0 44 24 A 20 20 0 0 0 24 4 z"/>
 <path style="opacity:0.1;fill:#f4f4f7" d="M 24 4 A 20 20 0 0 0 19.599609 4.515625 L 19.826172 5.4667969 A 20 20 0 0 1 24 5 A 20 20 0 0 1 28.173828 5.4667969 L 28.402344 4.5078125 A 20 20 0 0 0 24 4 z M 38.677734 10.443359 L 24.865234 23.5 L 26.410156 23.039062 L 38.677734 11.443359 A 20 20 0 0 1 42.748047 18.166016 L 43.078125 18.068359 A 20 20 0 0 0 38.677734 10.443359 z M 9.3261719 10.447266 A 20 20 0 0 0 4.9023438 18.0625 L 5.2148438 18.15625 A 20 20 0 0 1 9.3261719 11.447266 L 21.589844 23.039062 L 23.134766 23.5 L 9.3261719 10.447266 z M 23.134766 24.5 L 4.921875 29.931641 A 20 20 0 0 0 5.2519531 30.833984 L 21.589844 25.960938 L 23.134766 24.5 z M 24.865234 24.5 L 26.410156 25.960938 L 42.785156 30.84375 A 20 20 0 0 0 43.097656 29.9375 L 24.865234 24.5 z M 24 25 L 19.597656 43.492188 A 20 20 0 0 0 19.826172 43.533203 L 24 26 L 28.173828 43.533203 A 20 20 0 0 0 28.400391 43.484375 L 24 25 z"/>
</svg>
