<svg xmlns="http://www.w3.org/2000/svg" width="48" height="48" version="1">
 <path style="opacity:0.2" d="m 13.894531,13.999976 -6.8378902,7.978516 c -1.4096807,1.644587 -1.4077879,4.396426 0.00195,6.041015 L 21.410156,44.765601 c 1.409681,1.644589 3.770007,1.646475 5.179688,0.002 L 40.943359,28.02146 c 1.409679,-1.644589 1.40968,-4.39838 0,-6.042968 l -6.83789,-7.978516 z"/>
 <path style="fill:#4f4f4f" d="m 13.894531,12.99999 -6.8378902,7.978516 c -1.4096807,1.644587 -1.4077879,4.396426 0.00195,6.041015 L 21.410156,43.765615 c 1.409681,1.644589 3.770007,1.646475 5.179688,0.002 L 40.943359,27.021474 c 1.409679,-1.644589 1.40968,-4.39838 0,-6.042968 l -6.83789,-7.978516 z"/>
 <path style="opacity:0.2" d="m 23.999448,3.9999715 c -0.995283,0 -1.991232,0.3709717 -2.73523,1.1149523 L 6.1149184,20.265913 c -1.4879976,1.487959 -1.4858868,3.978075 0.00217,5.466037 L 21.266389,40.882938 c 1.487998,1.487961 3.980333,1.490072 5.468331,0.0022 l 15.1493,-15.150987 c 1.487996,-1.487962 1.487997,-3.980209 0,-5.468169 L 26.73468,5.1149238 C 25.990682,4.3709433 24.994732,3.9999715 23.999448,3.9999715 Z"/>
 <path style="fill:#b2bfd9" d="m 23.999448,2.9999859 c -0.995283,0 -1.991232,0.3709717 -2.73523,1.1149523 L 6.1149184,19.265927 c -1.4879976,1.487959 -1.4858868,3.978075 0.00217,5.466037 L 21.266389,39.882952 c 1.487998,1.487961 3.980333,1.490072 5.468331,0.0022 l 15.1493,-15.150987 c 1.487996,-1.487962 1.487997,-3.980209 0,-5.468169 L 26.73468,4.1149382 C 25.990682,3.3709577 24.994732,2.9999859 23.999448,2.9999859 Z"/>
 <path style="fill:#008f23" d="M 23.599609 5 L 23.394531 5.1347656 L 23.308594 5.3945312 L 23.267578 5.6757812 L 23.132812 6.1210938 L 23.039062 5.9726562 L 23.082031 6.515625 L 23.054688 6.6347656 L 23.054688 6.8398438 L 23.132812 7.0019531 L 23.203125 7.2207031 L 23.337891 7.3964844 L 23.394531 7.4726562 L 23.4375 7.6777344 L 23.267578 7.8046875 L 23.337891 7.9882812 L 23.173828 8.1914062 L 23.203125 8.3535156 L 23.246094 8.515625 L 23.380859 8.6777344 L 23.5 8.8261719 L 23.664062 8.9667969 L 23.691406 9.0878906 L 23.634766 9.2636719 L 23.5 9.3828125 L 23.4375 9.4824219 L 23.457031 9.7363281 L 23.664062 9.8691406 L 23.783203 9.9960938 L 23.855469 10.25 L 23.634766 10.509766 L 23.599609 10.693359 L 23.691406 10.898438 L 23.826172 11.060547 L 23.826172 11.222656 L 23.925781 11.349609 L 24.017578 11.455078 L 24.087891 11.574219 L 24.046875 11.779297 L 24.179688 11.96875 L 24.300781 11.998047 L 24.34375 12.089844 L 24.300781 12.251953 L 24.414062 12.484375 L 24.535156 12.576172 L 24.626953 12.765625 L 24.535156 13.089844 L 24.669922 13.384766 L 24.796875 13.441406 L 24.861328 13.576172 L 24.888672 13.957031 L 24.818359 14.119141 L 24.753906 14.308594 L 24.945312 15.267578 L 25.285156 15.486328 L 25.257812 19.642578 L 24.861328 24.132812 L 24.626953 26.732422 L 24.244141 29.888672 L 24.095703 30.269531 L 22.833984 28.121094 L 22.402344 25.238281 L 21.841797 20.558594 L 21.175781 16.21875 L 21.226562 20.179688 L 21.458984 23.455078 L 21.863281 26.578125 L 19.050781 22.144531 L 15.011719 16.119141 L 14.083984 14.837891 L 14.005859 14.837891 L 14.275391 15.605469 L 14.779297 16.853516 L 15.515625 18.515625 L 16.804688 21.263672 L 17.583984 22.644531 L 18.546875 24.308594 L 20.539062 27.443359 L 22.337891 30.291016 L 22.615234 32.841797 L 23.472656 38.669922 L 23.470703 38.666016 L 22.480469 35.603516 L 20.382812 30.466797 L 18.710938 27.013672 L 16.492188 23.427734 L 15.367188 21.955078 L 14.466797 21.060547 L 13 19.707031 L 13.609375 20.453125 L 14.59375 21.455078 L 15.175781 22.103516 L 15.558594 22.765625 L 16.017578 23.498047 L 16.769531 24.78125 L 17.421875 25.970703 L 18.087891 27.443359 L 18.902344 29.410156 L 20.496094 33.511719 L 22.167969 37.837891 L 23.173828 40.896484 L 23.175781 40.90625 C 23.611144 40.99893 24.057147 41.008583 24.498047 40.953125 L 24.144531 38.332031 L 24.195312 37.634766 L 24.492188 36.591797 L 24.804688 35.632812 L 25.144531 34.878906 L 26.25 36.724609 L 27.326172 38.677734 L 27.433594 39.185547 L 29.193359 37.425781 L 29.828125 32.679688 L 31.421875 24.998047 L 32.449219 19.785156 L 34.533203 15.675781 L 34.84375 14.824219 L 34.957031 14.322266 L 35 13.511719 L 34.873047 12.865234 L 34.574219 12.279297 L 34.029297 11.736328 L 34.058594 11.884766 L 34.326172 12.160156 L 34.574219 12.738281 L 34.603516 13.203125 L 34.263672 14.132812 L 33.824219 15.132812 L 32.880859 16.818359 L 33.40625 12.927734 L 33.550781 10.931641 L 33.492188 10.873047 L 33.363281 10.849609 L 32.306641 17.839844 L 32.109375 18.191406 L 30.373047 21.439453 L 28.15625 25.808594 L 26.292969 29.599609 L 25.257812 32.242188 L 24.669922 31.242188 L 25.037109 30.488281 L 27.064453 26.619141 L 29.119141 23.208984 L 29.976562 21.546875 L 30.685547 20.164062 L 30.876953 19.693359 L 30.917969 19.234375 L 30.833984 18.882812 L 30.748047 18.882812 L 30.685547 19.191406 L 30.330078 20.001953 L 29.472656 21.439453 L 27.021484 25.189453 L 25.626953 27.246094 L 24.669922 28.931641 L 25.257812 23.130859 L 25.476562 20.658203 L 25.570312 15.429688 L 25.554688 15.429688 L 25.597656 15.253906 L 25.732422 14.929688 L 25.837891 14.632812 L 25.966797 14.414062 L 25.966797 13.984375 L 25.923828 13.441406 L 26.115234 13.089844 L 26.029297 12.576172 L 26.029297 12.1875 L 26.101562 11.96875 L 26.25 11.482422 L 26.355469 11.222656 L 26.158203 10.898438 L 26.328125 10.574219 L 26.058594 10.382812 L 25.894531 9.8984375 L 26.128906 9.5175781 L 25.802734 9.4121094 L 25.662109 9.1582031 L 25.662109 8.9394531 L 25.513672 8.6933594 L 25.363281 8.5585938 L 25.378906 8.3535156 L 25.378906 8.1289062 L 25.306641 7.515625 L 25.257812 7.1640625 L 25.037109 7.0019531 L 24.931641 6.8105469 L 24.683594 6.6914062 L 24.535156 6.4238281 L 24.5625 6.1210938 L 24.535156 5.8105469 L 24.371094 5.5429688 L 24.087891 5.4863281 L 23.826172 5.3945312 L 23.691406 5.2050781 L 23.599609 5 z M 31.308594 21.96875 L 31.025391 23.146484 L 29.742188 28.248047 L 29.119141 31.144531 L 28.466797 34.646484 L 27.744141 36.929688 L 27.490234 36.337891 L 25.845703 33.306641 L 26.398438 32.03125 L 28.197266 28.283203 L 29.162109 26.267578 L 30.451172 23.560547 L 31.308594 21.96875 z M 32.902344 25.767578 L 32.667969 27.119141 L 32.001953 29.367188 L 31.335938 31.03125 L 30.599609 33.195312 L 30.210938 35.322266 L 30 36.619141 L 31.253906 35.365234 L 31.378906 34.349609 L 31.734375 32.658203 L 32.505859 29.634766 L 32.859375 27.394531 L 32.902344 25.767578 z M 13.460938 27.21875 L 13.517578 27.275391 L 13.501953 27.246094 L 13.460938 27.21875 z M 13.517578 27.275391 L 14.359375 28.867188 L 15.132812 30.650391 L 16.294922 33.279297 L 16.804688 34.441406 L 17.306641 35.921875 L 20.511719 39.128906 L 20.220703 38.353516 L 19.681641 37.337891 L 18.505859 35.103516 L 16.847656 32.130859 L 15.677734 30.220703 L 14.59375 28.572266 L 14.005859 27.761719 L 13.517578 27.275391 z M 23.365234 31.933594 L 23.904297 32.828125 L 23.791016 34.914062 L 23.705078 34.976562 L 23.365234 31.933594 z M 24.273438 33.433594 L 24.583984 33.949219 L 24.34375 34.511719 L 24.166016 34.638672 L 24.273438 33.433594 z"/>
 <path style="fill:#f4f4f7;opacity:0.2" d="M 24 3 C 23.004717 3 22.00767 3.3712538 21.263672 4.1152344 L 6.1152344 19.265625 C 5.2459421 20.134895 4.8998706 21.344347 5.046875 22.498047 C 5.1508551 21.677385 5.4968566 20.883987 6.1152344 20.265625 L 21.263672 5.1152344 C 22.00767 4.3712538 23.004717 4 24 4 C 24.995284 4 25.990377 4.3712539 26.734375 5.1152344 L 41.884766 20.265625 C 42.503471 20.884315 42.848932 21.678442 42.953125 22.5 C 43.099519 21.345695 42.754058 20.134895 41.884766 19.265625 L 26.734375 4.1152344 C 25.990377 3.3712539 24.995284 3 24 3 z"/>
</svg>
