<svg xmlns="http://www.w3.org/2000/svg" width="48" height="48" version="1">
 <path style="fill:#b2bfd9" d="M 4,13.5 V 41 c 0,1.108 0.892,2 2,2 h 36 c 1.108,0 2,-0.892 2,-2 V 13.5 Z"/>
 <path style="opacity:0.2" d="M 44,15 V 7 C 44,5.892 43.108,5 42,5 H 6 C 4.892,5 4,5.892 4,7 v 8 z"/>
 <path style="fill:#f54b3e" d="M 44,14 V 6 C 44,4.892 43.108,4 42,4 H 6 C 4.892,4 4,4.892 4,6 v 8 z"/>
 <path style="opacity:0.2;fill:#f4f4f7" d="M 6,4 C 4.892,4 4,4.892 4,6 V 7 C 4,5.892 4.892,5 6,5 h 36 c 1.108,0 2,0.892 2,2 V 6 C 44,4.892 43.108,4 42,4 Z"/>
 <path style="opacity:0.2" d="m 4,41 v 1 c 0,1.108 0.892,2 2,2 h 36 c 1.108,0 2,-0.892 2,-2 v -1 c 0,1.108 -0.892,2 -2,2 H 6 C 4.892,43 4,42.108 4,41 Z"/>
 <circle style="opacity:0.2" cx="12" cy="10" r="2"/>
 <circle style="fill:#f4f4f7" cx="12" cy="9" r="2"/>
 <circle style="opacity:0.2" cx="36" cy="10" r="2"/>
 <circle style="fill:#f4f4f7" cx="36" cy="9" r="2"/>
 <path style="fill:#4f4f4f" d="M 18.96079,32 H 17.03362 V 20.817927 q 0,-0.963585 0.0224,-1.546219 0.0224,-0.582633 0.06722,-1.210084 -0.358544,0.358544 -0.64986,0.605042 -0.291316,0.246498 -0.739495,0.627452 L 14.030813,20.683473 13,19.361344 17.32493,16 h 1.635854 z"/>
 <path style="fill:#4f4f4f" d="M 35.334869,28.090223 H 33.01732 V 32 H 31.12317 V 28.090223 H 23.502 V 26.118568 L 30.989465,16 h 2.027855 v 10.029431 h 2.317549 z M 31.12317,26.029431 v -4.413832 c 0,-0.772516 0.01486,-1.426184 0.04457,-1.961003 0.02971,-0.549675 0.052,-1.069637 0.06685,-1.559888 h -0.08914 l -5.727019,7.934723 z"/>
 <path style="fill:#4f4f4f" d="m 20,39.809263 q 0,1.035422 -0.764967,1.613079 -0.764967,0.577656 -2.062084,0.577656 -0.665188,0 -1.230598,-0.09809 Q 15.376941,41.803818 15,41.629428 v -0.93733 q 0.399113,0.174387 0.986697,0.316077 0.59867,0.141689 1.230598,0.141689 0.886917,0 1.330377,-0.337875 0.454545,-0.337874 0.454545,-0.915531 0,-0.381471 -0.166296,-0.643052 -0.166298,-0.26158 -0.576498,-0.479564 -0.399113,-0.228883 -1.119733,-0.479564 -1.008869,-0.359673 -1.529934,-0.882833 -0.509977,-0.523161 -0.509977,-1.427793 0,-0.621254 0.321507,-1.057221 0.321508,-0.446867 0.886918,-0.686649 Q 16.8847,34 17.627495,34 q 0.654101,0 1.197338,0.119891 0.543237,0.119891 0.986697,0.316077 l -0.310422,0.839237 q -0.410199,-0.174387 -0.898004,-0.294278 -0.476718,-0.119891 -0.997783,-0.119891 -0.742793,0 -1.119733,0.316076 -0.37694,0.305177 -0.37694,0.817439 0,0.39237 0.166296,0.653951 0.166298,0.26158 0.543238,0.468665 0.376941,0.207084 1.019955,0.446866 0.698449,0.250681 1.175166,0.544959 0.487805,0.283379 0.731707,0.686649 Q 20,39.19891 20,39.809265 Z"/>
 <path style="fill:#4f4f4f" d="m 26,42 h -4 v -8 h 4 v 0.885155 h -3.097744 v 2.498599 h 2.917293 v 0.87395 h -2.917293 v 2.857142 H 26 Z"/>
 <path style="fill:#4f4f4f" d="m 30.067833,34 q 1.53173,0 2.231949,0.616246 Q 33,35.232493 33,36.352942 q 0,0.661064 -0.295405,1.243697 -0.284463,0.571429 -0.973742,0.929972 -0.678336,0.358544 -1.849015,0.358544 H 28.984682 V 42 H 28 v -8 z m -0.08752,0.862745 h -0.995624 v 3.159665 h 0.787746 q 1.115975,0 1.663021,-0.369748 0.547045,-0.369748 0.547045,-1.254903 0,-0.773109 -0.4814,-1.154061 -0.4814,-0.380953 -1.520788,-0.380953 z"/>
</svg>
