<svg xmlns="http://www.w3.org/2000/svg" width="48" height="48" version="1">
 <path style="opacity:.2" d="m38 18.5v-11.8125c0-0.934875-0.7582-1.6875-1.7-1.6875h-30.6c-0.9418 0-1.7 0.752625-1.7 1.6875v23.625c0 0.934875 0.7582 1.6875 1.7 1.6875h18.7z"/>
 <g style="opacity:.2" transform="translate(0,1)">
  <path d="M 41,23 V 11.6875 C 41,10.752625 40.2418,10 39.3,10 H 8.7 C 7.7582,10 7,10.752625 7,11.6875 v 23.625 C 7,36.247375 7.7582,37 8.7,37 H 27 Z"/>
  <path style="opacity:.2" d="m38 25.084693v-12.084693h-28v21h19.090235z"/>
 </g>
 <path style="opacity:.2" d="m44 30v-11.3125c0-0.934875-0.7582-1.6875-1.7-1.6875h-30.6c-0.9418 0-1.7 0.752625-1.7 1.6875v23.625c0 0.934875 0.7582 1.6875 1.7 1.6875h18.3z"/>
 <path style="fill:#ff9212" d="m38 17.5v-11.8125c0-0.934875-0.7582-1.6875-1.7-1.6875h-30.6c-0.9418 0-1.7 0.752625-1.7 1.6875v23.625c0 0.934875 0.7582 1.6875 1.7 1.6875h18.7z"/>
 <path style="opacity:.3" d="M 35,19.084693 V 7 H 7 v 21 h 19.090235 z"/>
 <path style="fill:#cfff3d" d="M 41,23 V 11.6875 C 41,10.752625 40.2418,10 39.3,10 H 8.7 C 7.7582,10 7,10.752625 7,11.6875 v 23.625 C 7,36.247375 7.7582,37 8.7,37 H 27 Z"/>
 <path style="opacity:.3" d="m38 25.084693v-12.084693h-28v21h19.090235z"/>
 <path style="fill:#39ddff" d="m44 29v-11.3125c0-0.934875-0.7582-1.6875-1.7-1.6875h-30.6c-0.9418 0-1.7 0.752625-1.7 1.6875v23.625c0 0.934875 0.7582 1.6875 1.7 1.6875h18.3z"/>
 <path style="opacity:.3" d="m41 31.084693v-12.084693h-28v21h19.090235z"/>
 <path style="fill:#93edff" d="m44 29.102941h-12.25c-0.966525 0-1.75 0.77775-1.75 1.737133v12.159926z"/>
 <path style="fill:#f4f4f7;opacity:.2" d="M 5.6992188 4 C 4.7574188 4 4 4.752625 4 5.6875 L 4 6.6875 C 4 5.752625 4.7574188 5 5.6992188 5 L 36.300781 5 C 37.242581 5 38 5.752625 38 6.6875 L 38 5.6875 C 38 4.752625 37.242581 4 36.300781 4 L 5.6992188 4 z"/>
 <g style="fill:#f4f4f7;opacity:.2">
  <path style="fill:#f4f4f7" d="m8.6992188 10c-0.9418 0-1.6992188 0.752625-1.6992188 1.6875v1c0-0.934875 0.7574188-1.6875 1.6992188-1.6875h30.601562c0.9418 0 1.699219 0.752625 1.699219 1.6875v-1c0-0.934875-0.757419-1.6875-1.699219-1.6875h-30.601562z"/>
 </g>
 <path style="fill:#f4f4f7;opacity:.2" d="m11.699219 16c-0.9418 0-1.699219 0.752625-1.699219 1.6875v1c0-0.934875 0.757419-1.6875 1.699219-1.6875h30.601562c0.9418 0 1.699219 0.752625 1.699219 1.6875v-1c0-0.934875-0.757419-1.6875-1.699219-1.6875h-30.601562z"/>
 <path style="fill:#f4f4f7;opacity:.2" d="m31.75 29.103516c-0.966525 0-1.75 0.776945-1.75 1.736328v1c0-0.959383 0.783475-1.736328 1.75-1.736328h11.242188l1.007812-1h-12.25z"/>
</svg>
