<svg xmlns="http://www.w3.org/2000/svg" width="48" height="48" version="1">
 <rect fill="#b2bfd9" width="32" height="40" x="-40" y="4" rx="2" ry="2" transform="scale(-1,1)"/>
 <circle fill="#3f3f3f" cx="-28" cy="24" r="13" transform="rotate(-90)"/>
 <circle style="opacity:0.2" cx="-29" cy="-24" r="10" transform="matrix(0,-1,-1,0,0,0)"/>
 <circle style="fill:#fec006" cx="-28" cy="-24" r="10" transform="matrix(0,-1,-1,0,0,0)"/>
 <circle fill="#3f3f3f" cx="-28" cy="-24" r="5" transform="matrix(0,-1,-1,0,0,0)"/>
 <circle style="fill:#3f3f3f" cx="10" cy="-14" r="2" transform="rotate(90)"/>
 <circle style="fill:#3f3f3f" cx="10" cy="-34" r="2" transform="rotate(90)"/>
 <path opacity=".2" d="m8 42v1c0 1.108 0.892 2 2 2h28c1.108 0 2-0.892 2-2v-1c0 1.108-0.892 2-2 2h-28c-1.108 0-2-0.892-2-2z"/>
 <path fill="#fff" opacity=".1" d="m10 4c-1.108 0-2 0.892-2 2v1c0-1.108 0.892-2 2-2h28c1.108 0 2 0.892 2 2v-1c0-1.108-0.892-2-2-2h-28z"/>
</svg>
