<svg xmlns="http://www.w3.org/2000/svg" width="48" height="48" version="1.1">
 <circle style="opacity:0.2" cx="24" cy="25" r="20"/>
 <circle style="fill:#ef4246" cx="24" cy="24" r="20"/>
 <path style="fill:#f4f4f7;opacity:0.2" d="M 24 4 C 12.954427 4 4 12.954425 4 24 C 4 24.16767 4.0076161 24.333318 4.0117188 24.5 C 4.2778875 13.686175 13.122097 5 24 5 C 34.877903 5 43.722112 13.686175 43.988281 24.5 C 43.992384 24.333318 44 24.16767 44 24 C 44 12.954425 35.045573 4 24 4 z"/>
 <path style="opacity:0.1" d="m 24.525391,4.3829535 c -1.292318,0.023438 -2.6556,0.1588533 -3.652344,0.3691406 -1.352865,0.286459 -5.044923,0.5345051 -6.740235,4.7089844 0.283041,-0.2314453 0.578876,-0.4373449 0.884766,-0.6230469 2.141232,-1.2999141 4.743165,-1.575358 6.417969,-2.1621094 -0.88151,4.4583328 2.070963,5.6790358 3.185547,6.5800778 -0.09766,-0.400553 -0.18363,-0.781969 -0.253906,-1.144531 -0.491939,-2.5379308 -0.261069,-4.1673175 1.416015,-5.1835936 3.244792,3.3020836 5.962239,2.0585935 7.671875,1.578125 C 31.914713,7.8653753 29.889974,8.0593856 27.634766,5.3653754 27.50586,5.2117296 31.455729,6.4135529 32.375,6.8380316 31.811198,5.9799588 29.194009,5.1563913 27.757812,4.6837348 27.039713,4.4474065 25.817708,4.3595158 24.525391,4.3829535 Z"/>
 <path style="fill:#2dba72" d="m 20.873698,3.751301 c -1.352865,0.286459 -5.045573,0.535157 -6.740885,4.7096363 2.264322,-1.8515626 5.389322,-2.1145834 7.303384,-2.7851564 -0.88151,4.4583331 2.070313,5.6783851 3.184897,6.5794271 -0.78125,-3.2044272 -0.753907,-5.1653647 1.16276,-6.3268231 3.244792,3.3020837 5.962239,2.0585935 7.671875,1.578125 C 31.915364,6.8658848 29.889323,7.058593 27.634115,4.3645828 27.505209,4.210937 31.455729,5.4140624 32.375,5.8385411 31.811198,4.9804683 29.19401,4.1562495 27.757813,3.683593 26.321614,3.2109365 22.867187,3.3307283 20.873698,3.751303 Z m 0,0"/>
 <path style="fill:#f4f4f7;opacity:0.2" d="M 24.525391 3.3828125 C 23.233073 3.4062502 21.869791 3.5416658 20.873047 3.7519531 C 19.520182 4.0384121 15.828125 4.2864582 14.132812 8.4609375 C 14.415854 8.2294922 14.711688 8.0235926 15.017578 7.8378906 C 15.020576 7.8360709 15.024344 7.8358001 15.027344 7.8339844 C 16.894698 5.2206807 19.724596 4.9951289 20.873047 4.7519531 C 21.869791 4.5416658 23.233073 4.4062505 24.525391 4.3828125 C 25.817708 4.3593748 27.039713 4.4472654 27.757812 4.6835938 C 27.832488 4.7081697 27.936972 4.7431024 28.017578 4.7695312 C 27.889899 4.6334129 27.764006 4.5196216 27.634766 4.3652344 C 27.50586 4.2115886 31.455729 5.4134119 32.375 5.8378906 C 31.811198 4.9798178 29.194009 4.1562502 27.757812 3.6835938 C 27.039713 3.4472654 25.817708 3.3593748 24.525391 3.3828125 z M 27.634766 5.3652344 C 29.108826 7.1261067 30.481266 7.6496879 31.6875 7.9824219 C 32.352966 7.844162 32.951939 7.6472594 33.455078 7.5058594 C 32.246918 7.0033955 30.738244 6.9944231 29.056641 5.7226562 C 28.251068 5.4845623 27.582904 5.3034194 27.634766 5.3652344 z M 21.435547 6.6757812 C 21.395433 6.6898347 21.34194 6.7011291 21.300781 6.7148438 C 21.274757 7.0771204 21.274361 7.4165656 21.300781 7.7304688 C 21.323938 7.3981946 21.361054 7.0525357 21.435547 6.6757812 z M 24.162109 9.5800781 C 24.098866 10.290929 24.177136 11.11554 24.359375 12.068359 C 24.438187 12.125306 24.554271 12.201839 24.621094 12.255859 C 24.523438 11.855306 24.437464 11.47389 24.367188 11.111328 C 24.259569 10.556123 24.19297 10.051416 24.162109 9.5800781 z"/>
 <path style="opacity:0.2" d="m 33,18 -10.505859,5.292969 -0.339844,0.169922 -0.0098,0.01367 c -0.347567,0.18297 -0.680474,0.402886 -0.972656,0.695313 -1.562501,1.561194 -1.562501,4.095056 0,5.65625 1.561198,1.562505 4.095051,1.562505 5.65625,0 0.404026,-0.403688 0.699449,-0.872923 0.894531,-1.373047 z"/>
 <path style="fill:#f4f4f7" d="M 33 17 L 22.494141 22.292969 L 22.154297 22.462891 L 22.144531 22.476562 C 21.796964 22.659532 21.464057 22.879448 21.171875 23.171875 C 19.609374 24.733069 19.609374 27.266931 21.171875 28.828125 C 22.733073 30.39063 25.266926 30.39063 26.828125 28.828125 C 27.232151 28.424437 27.527574 27.955202 27.722656 27.455078 L 33 17 z"/>
 <path style="fill:#4a4a4a" d="m 25.414158,24.585839 c 0.781123,0.781118 0.781123,2.047195 0,2.828313 -0.781122,0.781131 -2.047193,0.781131 -2.828315,0 -0.781124,-0.781118 -0.781124,-2.047195 0,-2.828313 0.781122,-0.781118 2.047193,-0.781118 2.828315,0 z m 0,0"/>
 <path style="fill:#259a5e" d="m 24.953125,3.0348119 -0.84375,-0.278646 c 0,0 -1.082031,1.0429689 -1.238282,1.1744788 -0.26953,0.2304692 2.246095,0.6054688 2.557292,0.4388025 L 25.161458,3.2887183 Z m 0,0"/>
</svg>
