<svg xmlns="http://www.w3.org/2000/svg" width="48" height="48" version="1.1">
 <path style="opacity:.2" d="m 4,30.412109 v 1 C 4,38.939698 10.060302,45 17.58789,45 H 30.414062 C 37.941651,45 44,38.939698 44,31.412109 v -1 C 44,37.939698 37.941651,44 30.414062,44 H 17.58789 C 10.060302,44 4,37.939698 4,30.412109 Z"/>
 <rect style="fill:#4bae4f" width="40" height="40" x="4" y="4" ry="13.588"/>
 <path style="opacity:.2" d="m9.840944 10.117531 1.02974 0.773023c-3.266236 1.505787 5.122067 8.380764 5.122067 8.380764s1.632501-1.469465 4.02431-1.624164c2.37241-2.431141 12.246124-0.58078 11.876199 1.414436-3.319035 0.05189-4.370194-0.372237-4.370194-0.372237s0.16385 0.188963 0.231498 0.837526c-0.24256 0.199842-3.674697-0.569281-4.39222-0.514486-2.041644 0.155905-3.419575 0.207549-4.884287 0.369686 1.007658 0.332297 9.037288 1.76228 11.604748 4.244261-0.684872 0.264141-0.984393 0.155333-1.213071 0.239641-0.201098 0.07414-0.404543 0.483824-0.845839 0.485798-0.316195 0.0014-0.20812-0.279934-0.861124-0.588662-4.063043 0.161573-5.380341-2.317454-5.781295-2.621416-1.793655-0.428084-4.815368-1.396078-4.815368-1.396078s2.558474 2.041602 3.96123 3.17475c0.116657 0.09424 2.039767 0.451709 4.484523 1.644144 1.314131-1.075765 4.856874 0.749672 4.198589 2.421256-0.586365 1.48893-4.52047-0.04519-4.375839-2.070804-0.89811-0.279695-2.55717-1.081779-3.618612-1.464395 1.017628 0.793582 5.015645 4.124757 5.81897 5.066953 3.519308-0.432215 8.832248 0.446084 12.127925 2.558294-0.751604 0.198496-4.327935 0.877664-5.044286 0.686501-1.331087-0.503431-3.314967-2.134285-3.526351-2.317059-0.764605-0.128887-2.480726-0.375509-3.139935-0.450497 0.668621 0.678464 2.876745 3.229587 3.57007 4.302737 0.287211-0.0607 1.751867 0.291335 2.15777 0.567187 1.503751-1.534306 3.942026 1.157959 5.440869 2.458214-0.393755 0.79942-6.578141-0.430953-5.751606-2.222379-0.441959-0.05901-1.326469-0.544549-1.652633-0.570318 0.333404 0.436643 1.060515 1.029303 2.0188 2.034459 0.921757-0.262203 4.396098 3.497839 4.489325 4.320687-2.599948-0.633454-3.88403-1.184602-4.286556-1.654762-0.794499-0.927997-0.493709-2.260515-0.418016-2.502716-1.022401-0.913692-1.212881-1.185363-1.547287-1.366712-0.0087 0.0095 0.0014 0.281471 0.01678 0.41363 1.679516 1.238192 0.867991 4.665111-0.0976 4.786638-0.420244 0.05288-1.388879-4.834869-0.179333-5.016987 0.02785-0.09684 0.04385-0.3855 0.04533-0.396893-0.638312-0.694856-4.178291-4.458656-4.408492-4.617155 0.114646 0.297018 0.30263 0.78541 0.475166 1.388371 2.09039 1.366184 2.436252 3.552148 2.278705 6.119636-0.501281-0.877453-5.412308-4.875402-3.264437-6.647686 0.0153-0.273315-0.06634-0.893662 0.114582-1.242366-0.681135-0.680747-2.802042-2.774408-2.99235-2.772716 0.236876 0.485565 0.383958 0.762778 0.501438 1.287812 1.616647 0.806864 1.147023 2.891028 0.410669 2.93529-0.775765 0.0466-2.495013-2.345253-0.877948-2.852519-0.130641-0.602193-0.368229-1.420683-0.464021-1.776261-0.699672-0.535101-3.016881-2.387139-3.55161-2.818868 0.657498 1.094061 1.299756 2.797005 1.62093 3.773409 1.937079 2.194531 1.401236 5.589047 1.205372 9.090404-2.272688-1.687257-3.683687-7.44566-2.238048-8.879027-0.482594-1.665062-1.212033-4.482457-1.212033-4.482457-3.124745-2.425317-4.853513-4.243105-4.853513-4.243105s2.081964 2.699689 2.319099 4.146853c1.823391 0.353541 3.346681 3.52989 1.896839 4.07195-2.119187 0.792292-4.393965-2.56975-2.58611-3.821958 0 0-1.600782-2.948637-2.839884-5.534801-4.887546-5.36481-4.417732-6.975493-2.951744-7.154826z"/>
 <path style="fill:#b2bfd9" d="m9.840942 9.1146706 1.02974 0.773023c-3.266236 1.5057874 5.122067 8.3807644 5.122067 8.3807644s1.632501-1.469465 4.02431-1.624164c2.37241-2.431141 12.246124-0.58078 11.876199 1.414436-3.319035 0.05189-4.370194-0.372237-4.370194-0.372237s0.16385 0.188963 0.231498 0.837526c-0.24256 0.199842-3.674697-0.569281-4.39222-0.514486-2.041644 0.155905-3.419575 0.207549-4.884287 0.369686 1.007658 0.332297 9.037288 1.76228 11.604748 4.244261-0.684872 0.264141-0.984393 0.155333-1.213071 0.239641-0.201098 0.07414-0.404543 0.483824-0.845839 0.485798-0.316195 0.0014-0.20812-0.279934-0.861124-0.588662-4.063043 0.161573-5.380341-2.317454-5.781295-2.621416-1.793655-0.428084-4.815368-1.396078-4.815368-1.396078s2.558474 2.041602 3.96123 3.17475c0.116657 0.09424 2.039767 0.451709 4.484523 1.644144 1.314131-1.075765 4.856874 0.749672 4.198589 2.421256-0.586365 1.48893-4.52047-0.04519-4.375839-2.070804-0.89811-0.279695-2.55717-1.081779-3.618612-1.464395 1.017628 0.793582 5.015645 4.124757 5.81897 5.066953 3.519308-0.432215 8.832248 0.446084 12.127925 2.558294-0.751604 0.198496-4.327935 0.877664-5.044286 0.686501-1.331087-0.503431-3.314967-2.134285-3.526351-2.317059-0.764605-0.128887-2.480726-0.375509-3.139935-0.450497 0.668621 0.678464 2.876745 3.229587 3.57007 4.302737 0.287211-0.0607 1.751867 0.291335 2.15777 0.567187 1.503751-1.534306 3.942026 1.157959 5.440869 2.458214-0.393755 0.79942-6.578141-0.430953-5.751606-2.222379-0.441959-0.05901-1.326469-0.544549-1.652633-0.570318 0.333404 0.436643 1.060515 1.029303 2.0188 2.034459 0.921757-0.262203 4.396098 3.497839 4.489325 4.320687-2.599948-0.633454-3.88403-1.184602-4.286556-1.654762-0.794499-0.927997-0.493709-2.260515-0.418016-2.502716-1.022401-0.913692-1.212881-1.185363-1.547287-1.366712-0.0087 0.0095 0.0014 0.281471 0.01678 0.41363 1.679516 1.238192 0.867991 4.665111-0.0976 4.786638-0.420244 0.05288-1.388879-4.834869-0.179333-5.016987 0.02785-0.09684 0.04385-0.3855 0.04533-0.396893-0.638312-0.694856-4.178291-4.458656-4.408492-4.617155 0.114646 0.297018 0.30263 0.78541 0.475166 1.388371 2.09039 1.366184 2.436252 3.552148 2.278705 6.119636-0.501281-0.877453-5.412308-4.875402-3.264437-6.647686 0.0153-0.273315-0.06634-0.893662 0.114582-1.242366-0.681135-0.680747-2.802042-2.774408-2.99235-2.772716 0.236876 0.485565 0.383958 0.762778 0.501438 1.287812 1.616647 0.806864 1.147023 2.891028 0.410669 2.93529-0.775765 0.0466-2.495013-2.345253-0.877948-2.852519-0.130641-0.602193-0.368229-1.420683-0.464021-1.776261-0.699672-0.535101-3.016881-2.387139-3.55161-2.818868 0.657498 1.094061 1.299756 2.797005 1.62093 3.773409 1.937079 2.194531 1.401236 5.589047 1.205372 9.090404-2.272688-1.687257-3.683687-7.44566-2.238048-8.879027-0.482594-1.665062-1.212033-4.482457-1.212033-4.482457-3.124745-2.425317-4.853513-4.243105-4.853513-4.243105s2.081964 2.699689 2.319099 4.146853c1.823391 0.353541 3.346681 3.52989 1.896839 4.07195-2.119187 0.792292-4.393965-2.56975-2.58611-3.821958 0 0-1.600782-2.948637-2.839884-5.534801-4.887546-5.36481-4.417732-6.9754934-2.951744-7.1548264z"/>
 <path style="fill:#f4f4f7;opacity:.2" d="M 17.58789,4 C 10.060302,4 4,10.060302 4,17.587891 v 1 C 4,11.060302 10.060302,5 17.58789,5 H 30.414062 C 37.941651,5 44,11.060302 44,18.587891 v -1 C 44,10.060302 37.941651,4 30.414062,4 Z"/>
</svg>
