<svg xmlns="http://www.w3.org/2000/svg" width="48" height="48" version="1.1">
 <path style="opacity:0.2" d="m 24.057082,5.000086 c -0.141216,-0.00393 -0.277644,0.04675 -0.375408,0.1394518 -1.410581,1.3377633 -2.84422,2.8387777 -4.139914,4.2674987 -0.0015,0.00179 -0.003,0.0036 -0.0045,0.0054 -3.192909,3.6189065 -5.619796,7.3373125 -7.378556,11.3186295 -1.638344,3.708727 -2.5962378,6.917111 -3.4680535,11.590752 -0.1909169,1.023451 -0.3838399,2.263615 -0.5169326,3.261549 -0.066545,0.498968 -0.1182147,0.936729 -0.147483,1.260483 -0.014627,0.16188 -0.023168,0.29468 -0.025323,0.40211 -0.00108,0.05371 -0.00125,0.0985 0.00446,0.154343 0.00286,0.02789 0.00556,0.05772 0.020863,0.108311 0.015307,0.0506 0.00282,0.153296 0.2264365,0.278904 0.1206713,0.06778 0.1369118,0.05439 0.1668491,0.06092 0.029934,0.0064 0.053124,0.01134 0.077464,0.01474 0.048684,0.0072 0.1003756,0.01172 0.1593998,0.01739 0.1180484,0.01134 0.2642238,0.0223 0.4186093,0.02986 1.2241934,0.06089 3.0294404,0.343603 4.2263174,0.662056 0.808027,0.214983 1.340007,0.392832 2.128801,0.710797 0.182239,0.07347 0.349356,0.140638 0.473728,0.189547 0.06219,0.02419 0.113241,0.0435 0.151951,0.0582 0.01822,0.0068 0.03435,0.01209 0.04916,0.01739 9.29e-4,3.51e-4 0.0021,0.001 0.003,0.0014 2.38e-4,8.6e-5 0.0012,-1.33e-4 0.0015,0 5.25e-4,1.73e-4 9.68e-4,0.0012 0.0015,0.0013 0.0056,0.0026 0.01126,0.0049 0.02086,0.0094 -5.67e-4,-0.0012 -0.0026,-0.0034 -0.0045,-0.0042 0.0028,9.45e-4 0.0039,0.0016 0.0074,0.0027 0.0063,0.002 0.01312,0.0053 0.02831,0.0094 0.006,0.0016 0.01058,0.0045 0.01788,0.0079 -0.0035,-7.45e-4 -0.01674,-5.56e-4 -0.01935,-0.0013 0.03496,0.01701 0.07645,0.03829 0.132584,0.06637 0.133522,0.06675 0.316963,0.159159 0.51693,0.261322 1.931716,0.986654 3.376341,2.004113 5.683257,4.012965 0.303935,0.264646 0.587152,0.504753 0.801466,0.682371 0.107156,0.08882 0.196152,0.161879 0.266658,0.216608 0.03526,0.02721 0.06505,0.04966 0.09683,0.07174 0.01587,0.01096 0.03126,0.0223 0.0581,0.03791 0.01342,0.0076 0.02989,0.01663 0.05959,0.02986 0.02971,0.01285 0.05927,0.03859 0.196643,0.04467 0.164574,0.0072 0.198725,-0.02532 0.232396,-0.03923 0.03368,-0.01361 0.05096,-0.02305 0.06555,-0.03099 0.02918,-0.01625 0.04557,-0.02759 0.06257,-0.03923 0.03398,-0.02305 0.06467,-0.04668 0.102791,-0.07582 0.07624,-0.05828 0.173611,-0.137275 0.290495,-0.232899 0.233735,-0.19102 0.542995,-0.450768 0.875922,-0.737685 1.908322,-1.644583 2.832067,-2.339782 4.16077,-3.141047 2.901658,-1.749837 5.487337,-2.526524 9.456701,-2.831008 l 0.321785,-0.02419 C 39.801327,37.82722 40.00023,37.630586 40,37.394663 v -0.171844 c 3e-6,-0.358468 -0.09385,-1.098837 -0.220458,-2.015959 -0.12665,-0.917115 -0.288601,-1.960979 -0.435018,-2.753827 -0.870786,-4.715545 -1.860794,-8.036832 -3.520195,-11.792365 -1.494889,-3.383215 -3.635028,-6.800766 -6.192739,-9.894315 -0.0057,-0.007 -0.01172,-0.01368 -0.01788,-0.02033 C 27.892079,8.8938619 26.226749,6.9498568 24.410145,5.1476612 24.319244,5.0571197 24.191879,5.0038807 24.057082,5.000086 Z"/>
 <path style="fill:#0278dc" d="m 24.057082,4.0012136 c -0.141216,-0.00393 -0.277644,0.046748 -0.375408,0.1394479 -1.410581,1.3377259 -2.84422,2.8386984 -4.139914,4.2673796 -0.0015,0.00179 -0.003,0.0036 -0.0045,0.0054 C 16.344391,12.032251 13.917504,15.750554 12.158744,19.731759 10.5204,23.440383 9.5625062,26.648677 8.6906905,31.322188 8.4997736,32.34561 8.3068506,33.58574 8.1737579,34.583647 c -0.066545,0.498953 -0.1182147,0.936702 -0.147483,1.260447 -0.014627,0.161875 -0.023168,0.294671 -0.025323,0.402098 -0.00108,0.05371 -0.00125,0.0985 0.00446,0.154339 0.00286,0.02789 0.00556,0.05772 0.020863,0.108308 0.015307,0.0506 0.00282,0.153293 0.2264365,0.278896 0.1206713,0.06778 0.1369118,0.05439 0.1668491,0.06092 0.029934,0.0065 0.053124,0.0113 0.077464,0.01489 0.048684,0.0072 0.1003756,0.01187 0.1593998,0.01757 0.1180484,0.01145 0.2642238,0.02211 0.4186093,0.02982 1.2241934,0.06091 3.0294404,0.343611 4.2263174,0.662039 0.808027,0.21497 1.340007,0.392821 2.128801,0.710778 0.182239,0.07347 0.349356,0.140635 0.473728,0.189541 0.06219,0.02419 0.113241,0.0435 0.151951,0.0582 0.01822,0.0068 0.03435,0.01209 0.04916,0.01739 9.29e-4,3.51e-4 0.0021,0.001 0.003,0.0014 2.38e-4,8.7e-5 0.0012,-1.33e-4 0.0015,0 5.25e-4,1.73e-4 9.68e-4,0.0012 0.0015,0.0013 0.0056,0.0026 0.01126,0.0049 0.02086,0.0094 -5.67e-4,-0.0012 -0.0026,-0.0034 -0.0045,-0.0042 0.0028,9.45e-4 0.0039,0.0016 0.0074,0.0027 0.0063,0.002 0.01312,0.0053 0.02831,0.0094 0.006,0.0016 0.01058,0.0045 0.01788,0.0079 -0.0035,-7.45e-4 -0.01674,-5.56e-4 -0.01935,-0.0013 0.03496,0.01701 0.07645,0.03829 0.132584,0.06637 0.133522,0.06675 0.316963,0.159154 0.51693,0.261314 1.931716,0.986627 3.376341,2.004057 5.683257,4.012853 0.303935,0.264639 0.587152,0.504739 0.801466,0.682352 0.107156,0.08882 0.196152,0.161875 0.266658,0.216602 0.03526,0.02721 0.06505,0.04966 0.09683,0.07173 0.01587,0.01096 0.03126,0.0223 0.0581,0.03791 0.01342,0.0076 0.02989,0.01663 0.05959,0.02986 0.02971,0.01285 0.05927,0.03859 0.196643,0.04467 0.164574,0.0072 0.198725,-0.02532 0.232396,-0.03923 0.03368,-0.01361 0.05096,-0.02305 0.06555,-0.03099 0.02918,-0.01625 0.04557,-0.02759 0.06257,-0.03923 0.03398,-0.02305 0.06467,-0.04668 0.102791,-0.07582 0.07624,-0.05828 0.173611,-0.137271 0.290495,-0.232892 0.233735,-0.191015 0.542995,-0.450756 0.875922,-0.737665 1.908322,-1.644537 2.832067,-2.339716 4.16077,-3.140959 2.901658,-1.749788 5.487337,-2.526455 9.456701,-2.830932 l 0.321785,-0.02438 C 39.801327,36.827544 40.00023,36.630917 40,36.395007 v -0.171842 c 3e-6,-0.358458 -0.09385,-1.098806 -0.220458,-2.015903 -0.12665,-0.917089 -0.288601,-1.960924 -0.435018,-2.75375 C 38.473738,26.737981 37.48373,23.416787 35.824329,19.661358 34.32944,16.278238 32.189301,12.860782 29.63159,9.7673203 29.62589,9.7603703 29.61987,9.7536383 29.61371,9.7469863 27.892079,7.8948808 26.226749,5.95093 24.410145,4.1487847 24.319244,4.0582456 24.191879,4.0050082 24.057082,4.0012136 Z"/>
 <path style="fill:#48a0f8;fill-rule:evenodd" d="m 24.056814,4.0007688 c -0.141217,-0.00393 -0.277232,0.047923 -0.374995,0.1406234 -1.19453,1.1328328 -2.389667,2.3795441 -3.519493,3.6034748 L 24.011893,29.643056 27.822397,7.7800229 C 26.710619,6.5509629 25.593063,5.3225277 24.410325,4.1492046 24.319425,4.0586655 24.191611,4.0045634 24.056814,4.0007688 Z M 24.011893,29.643056 35.720744,19.516218 c -0.803108,-1.778831 -1.794162,-3.559585 -2.919889,-5.300721 z m 0,0 14.488117,-2.044899 c -0.356423,-1.44683 -0.75944,-2.79892 -1.214831,-4.113234 z m 0,0 15.488105,7.208903 0.04297,-0.0039 c 0.258667,-0.01966 0.457256,-0.217216 0.457025,-0.453126 v -0.148436 c 4e-6,-0.357316 -0.09409,-1.093616 -0.220701,-2.00779 -0.06377,-0.460304 -0.143563,-0.906499 -0.218747,-1.382796 l -0.281247,-1.015614 z m 0,0 5.675717,10.03309 0.306637,-0.105468 c 1.077441,-0.633949 2.122369,-1.134843 3.212854,-1.527326 z m 0,0 -2.402317,12.531108 c 0.29102,0.243539 0.564028,0.462899 0.884756,0.74218 0.303935,0.264639 0.586457,0.504019 0.800772,0.681632 0.107156,0.08882 0.197069,0.162068 0.267575,0.216795 0.03526,0.02721 0.06393,0.05027 0.0957,0.07227 0.01587,0.01096 0.03175,0.02161 0.05859,0.03711 0.0034,0.0019 0.0116,0.0056 0.01563,0.0078 l 0.279294,0.04883 0.79296,-0.466792 c 0.22474,-0.184814 0.495702,-0.408696 0.798819,-0.669914 0.292688,-0.25223 0.45369,-0.366745 0.70507,-0.578119 z m 0,0 -9.109272,8.443265 c 0.173166,0.06466 0.330459,0.117902 0.527338,0.197262 0.182239,0.07347 0.350232,0.140545 0.474604,0.189451 0.06219,0.02419 0.111679,0.04389 0.150389,0.05859 0.01822,0.0068 0.03598,0.01229 0.05078,0.01758 0,0 0.002,0.002 0.002,0.002 0,0 0.002,0 0.002,0 0,0 0.002,0 0.002,0 0.0056,0.0026 0.0099,0.0052 0.01953,0.0098 -5.67e-4,-0.0012 -0.002,-0.0031 -0.0039,-0.0039 0.0028,9.45e-4 0.0043,8.23e-4 0.0078,0.002 0.0063,0.002 0.01215,0.0056 0.02734,0.0098 0.006,0.0016 0.01224,0.0044 0.01953,0.0078 -0.0035,-7.45e-4 -0.01692,7.94e-4 -0.01953,0 0.03496,0.01701 0.07668,0.03832 0.132811,0.06641 0.133522,0.06675 0.315652,0.157604 0.515619,0.259763 0.5141,0.262577 0.994291,0.531349 1.464828,0.816397 z m 0,0 -15.3631076,1.9824 c -0.1753699,0.966897 -0.3522976,2.074137 -0.474604,2.988247 -0.066545,0.497362 -0.1191674,0.933132 -0.1484358,1.255846 -0.014342,0.158221 -0.023032,0.286619 -0.02539,0.392573 -4.67e-5,0.0021 4.19e-5,0.0057 0,0.0078 -5.867e-4,0.04366 0.00101,0.08349 0.00586,0.130859 0.00286,0.02789 0.00422,0.05683 0.019531,0.107419 0.015307,0.0506 0.00294,0.153691 0.2265599,0.279294 0.1206714,0.06778 0.1380296,0.05402 0.1679669,0.06055 0.029934,0.0065 0.051831,0.01203 0.076171,0.01563 0.048684,0.0072 0.1011302,0.01187 0.1601544,0.01758 0.1180485,0.01145 0.2635785,0.02159 0.4179641,0.0293 0.223743,0.01113 0.4829723,0.03573 0.7382728,0.06055 z m 0,0 -13.288913,-6.158133 c -0.437183,1.258478 -0.8250605,2.555151 -1.1699079,3.939408 z m 0,0 -8.76162,-15.515449 c -1.063786,1.635556 -1.985678,3.308985 -2.785124,5.027287 z"/>
 <path style="opacity:0.2;fill:#f4f4f7" d="m 24.056814,4.0007688 c -0.141217,-0.00393 -0.277232,0.047923 -0.374995,0.1406234 -1.410582,1.337726 -2.844885,2.8388486 -4.140578,4.2675298 -0.0015,0.00179 -0.0024,0.0021 -0.0039,0.00391 -3.192909,3.618806 -5.620063,7.337027 -7.378823,11.318232 -1.638343,3.708624 -2.5968948,6.918153 -3.4687104,11.591665 -0.1909169,1.023422 -0.3825265,2.263775 -0.5156192,3.261681 -0.066552,0.49895 -0.1191744,0.936004 -0.1484428,1.259748 -0.014627,0.161875 -0.023236,0.294913 -0.02539,0.402339 -0.00108,0.05371 1.459e-4,0.09845 0.00586,0.154296 0.00286,0.02789 0.00422,0.05683 0.019531,0.107419 0.00632,0.02088 0.0139,0.05522 0.029297,0.0918 0.030368,-0.295018 0.065493,-0.613381 0.1191392,-1.015613 0.1330927,-0.997907 0.3247023,-2.23826 0.5156192,-3.261681 0.8718156,-4.673512 1.830368,-7.883042 3.468711,-11.591666 1.75876,-3.981205 4.185914,-7.699426 7.378822,-11.318231 0.0015,-0.0018 0.0024,-0.00211 0.0039,-0.00391 1.295694,-1.4286811 2.729996,-2.9298038 4.140578,-4.2675297 0.09777,-0.0927 0.233779,-0.1445541 0.374995,-0.1406234 0.134797,0.00379 0.262611,0.057896 0.353512,0.1484358 1.816606,1.8021453 3.481432,3.745487 5.203066,5.5975923 0.0062,0.0067 0.01183,0.01453 0.01758,0.02148 2.55771,3.093462 4.698399,6.509346 6.19329,9.892466 1.6594,3.755429 2.648705,7.077419 3.519491,11.792835 0.146417,0.792826 0.308892,1.836788 0.435542,2.753875 0.07599,0.550447 0.130742,0.998194 0.16992,1.376938 0.02991,-0.05836 0.05085,-0.121178 0.05078,-0.189451 v -0.171873 c 4e-6,-0.358457 -0.09409,-1.098505 -0.220701,-2.015602 -0.12665,-0.917088 -0.289125,-1.961049 -0.435542,-2.753875 -0.870786,-4.715531 -1.860091,-8.037406 -3.519491,-11.792836 -1.49489,-3.383119 -3.635579,-6.799004 -6.19329,-9.892465 -0.0057,-0.00695 -0.01142,-0.014832 -0.01758,-0.021484 -1.721628,-1.8521024 -3.386454,-3.7954441 -5.20306,-5.5975894 -0.0909,-0.090539 -0.218714,-0.1446412 -0.353511,-0.1484358 z"/>
</svg>
