<svg xmlns="http://www.w3.org/2000/svg" width="48" height="48" version="1">
 <rect style="opacity:0.2" width="40" height="40" x="4" y="5" rx="12" ry="12"/>
 <rect style="fill:#4f4f4f" width="40" height="40" x="4" y="4" rx="12" ry="12"/>
 <path style="opacity:0.1;fill:#f4f4f7" d="M 16,4 C 9.352,4 4,9.352 4,16 v 1 C 4,10.352 9.352,5 16,5 h 16 c 6.648,0 12,5.352 12,12 V 16 C 44,9.352 38.648,4 32,4 Z"/>
 <path style="opacity:0.3" d="M 9 10 L 9 38 L 15 38 L 15 10 L 9 10 z M 17 10 L 17 38 L 23 38 L 23 10 L 17 10 z M 25 10 L 25 38 L 31 38 L 31 10 L 25 10 z M 33 10 L 33 38 L 39 38 L 39 10 L 33 10 z"/>
 <rect style="fill:#0079de" width="6" height="12" x="25" y="26"/>
 <rect style="fill:#e84e36" width="6" height="18" x="33" y="20"/>
 <rect style="fill:#ffd827" width="6" height="4" x="9" y="34"/>
 <rect style="fill:#00d890" width="6" height="23" x="17" y="15"/>
 <path style="opacity:0.2" d="M 9 38 L 9 39 L 15 39 L 15 38 L 9 38 z M 17 38 L 17 39 L 23 39 L 23 38 L 17 38 z M 25 38 L 25 39 L 31 39 L 31 38 L 25 38 z M 33 38 L 33 39 L 39 39 L 39 38 L 33 38 z"/>
 <path style="opacity:0.2;fill:#f4f4f7" d="m 17,15 v 1 h 6 v -1 z m 16,5 v 1 h 6 v -1 z m -8,6 v 1 h 6 V 26 Z M 9,34 v 1 h 6 v -1 z"/>
</svg>
