<svg xmlns="http://www.w3.org/2000/svg" width="48" height="48" version="1">
 <path style="fill:#2c5a98" d="m 44,6.8219375 c -2.554917,1.3202822 -5.62022,3.0545691 -8.964844,3.078125 -8.453195,0.059535 -18.499552,-2.8451958 -25.4433591,-3 C 7.3485962,6.8500529 5.4372951,7.626492 4,8.6031875 L 4,42 c 0,1.108 0.892,2 2,2 l 36,0 c 1.108,0 2,-0.892 2,-2 z"/>
 <path style="opacity:0.2" d="m 6,4.9990973 c -1.108,0 -2,0.892 -2,2 l 0,2.703125 C 5.4372951,8.7255268 7.3485962,7.9490877 9.5917969,7.9990973 16.535604,8.1539015 26.581961,11.058632 35.035156,10.999097 38.37978,10.975541 41.445083,9.2412545 44,7.9209723 l 0,-0.921875 c 0,-1.108 -0.892,-2 -2,-2 l -36,0 z"/>
 <path style="fill:#28bae4" d="M 6 4 C 4.892 4 4 4.892 4 6 L 4 8.703125 C 5.4372951 7.7264295 7.3485962 6.9499904 9.5917969 7 C 16.535604 7.1548042 26.581961 10.059535 35.035156 10 C 38.37978 9.9764441 41.445083 8.2421572 44 6.921875 L 44 6 C 44 4.892 43.108 4 42 4 L 6 4 z"/>
 <path fill="#fff" opacity=".2" d="m4 7v-1c0-1.108 0.892-2 2-2h36c1.108 0 2 0.892 2 2v1c0-1.108-0.892-2-2-2h-36c-1.108 0-2 0.892-2 2z"/>
 <path opacity=".2" d="m4 42v1c0 1.108 0.892 2 2 2h36c1.108 0 2-0.892 2-2v-1c0 1.108-0.892 2-2 2h-36c-1.108 0-2-0.892-2-2z"/>
 <path style="opacity:0.2" d="m 21.976562,13 -0.300781,0.01172 0.744141,0.537109 0.785156,0.707031 -0.0918,0.392579 c -0.051,0.436691 -0.109093,0.762322 -0.126953,0.898437 l -0.03125,0.246094 -0.242187,-0.171875 -0.441407,-0.171875 0.173828,0.287109 0.173829,0.285156 -0.44336,0 -0.443359,0 0,-0.28125 0,-0.279296 -0.423828,0.166015 -0.425782,0.166016 0.146485,0.238281 0.144531,0.238281 -0.572266,0.550781 -0.570312,0.408204 0.210938,0.236328 0.210937,0.236328 -0.373047,-0.21875 -0.375,-0.21875 0.490234,-0.548828 0.488282,-0.548828 -0.257813,-0.02539 c -0.141528,-0.01324 -0.519022,-0.05449 -0.839843,-0.0918 l -0.583985,-0.06836 -0.03906,0.523437 -0.03711,0.523438 -0.691406,0.652344 -0.689453,0.65039 -0.642578,2.59961 c -0.353064,1.429447 -0.699695,2.667317 -0.771485,2.99414 L 16,24.517578 c 0.642852,0.270057 1.357397,0.39603 1.968023,0.431636 0.160498,-0.100714 0.380719,-0.539424 0.488281,-0.97461 0.107562,-0.435185 0.27658,-0.589843 0.376953,-0.589843 l 0.183594,0 0.02539,0.9375 c 0.0141,0.516189 0.238398,1.692274 0.498047,2.613281 0.259658,0.921007 0.470703,1.985288 0.470703,2.365234 l 0,0.691407 -0.289063,0.18164 -0.289062,0.181641 0.461664,0.265625 0.16211,0.265625 -0.408203,-0.160157 -0.40625,-0.158203 -0.644532,1.34961 -0.642578,1.347656 -1.394531,0.908203 -0.896485,0.910156 0.22461,1.007813 0.222656,1.009765 -0.04687,1.609376 -0.04492,1.611328 0.205078,0.33789 L 16.431641,41 l 0.517578,0 1.017578,0 0.636719,-0.333984 L 19,40.140625 18.466797,39.632812 C 18.355801,39.352841 18.20186,38.308698 18.125,37.314453 l -0.138672,-1.806641 0.777344,-1.349609 0.779297,-1.349609 1.189453,-1.173828 1.189453,-1.175782 0.177734,-1.52539 0.177735,-1.525391 -0.34375,0.197266 -0.341797,0.195312 0.324219,-0.357422 0.324218,-0.357421 0.671875,0.351562 c 0.368718,0.193471 1.085445,0.66555 1.59375,1.050781 l 0.923829,0.701172 0,0.726563 0,0.724609 0.705078,1.5625 c 0.387028,0.859146 0.786817,1.922277 0.890625,2.363281 0.103753,0.441005 0.306255,0.953593 0.449218,1.138672 l 0.259766,0.335938 0.798828,-0.232422 c 0.439282,-0.127931 1.080501,-0.383732 1.423828,-0.570313 0.343328,-0.186581 1.789366,-0.688775 3.214844,-1.115234 l 2.591797,-0.775391 0.11914,-0.361328 L 36,32.625 l -0.984375,0 c -0.540933,0 -1.380952,0.08094 -1.867187,0.179688 l -0.882813,0.179687 0.152344,0.25 0.152343,0.25 -0.443359,-0.171875 -0.441406,-0.171875 -1.142578,0.464844 c -0.628486,0.25536 -1.383107,0.46289 -1.675781,0.46289 l -0.53125,0 -0.455079,-1.154297 -0.455078,-1.154296 -0.18164,-1.574219 -0.183594,-1.576172 -1.123047,-1.529297 c -0.617809,-0.841347 -1.527859,-1.893457 -2.023438,-2.33789 L 23,24 c 0.334189,0.0026 0.368371,0.03823 0.702402,-0.0098 l -0.207031,-0.24414 -0.07031,-0.361328 0.355469,0.07227 0.355469,0.07227 -0.07617,-0.472656 -0.07617,-0.472657 0.431641,-0.167968 C 24.569278,22.356008 24.698239,22.121552 24.774668,22 l -0.355469,0 -0.425781,0 0,-0.581336 c 0,-0.238241 0.08154,-0.433594 0.18164,-0.433594 0.100045,0 0.648661,0.227912 0.852286,0.50586 l 0.36914,0.305945 c 0.402012,-0.302302 0.866936,-0.458531 1.329766,-0.640625 l 0.1875,-1.326172 c 0.103197,-0.729234 -0.03679,-1.451461 0.05695,-1.605469 l 0.171875,-0.279297 -0.425781,-0.43164 C 26.483522,17.276807 26.13191,17.026754 25.933591,16.958984 l -0.361328,-0.123046 0.367187,-0.449219 0.07617,-0.394531 0.03516,-0.890626 c -0.07621,-0.426996 -0.182797,-0.515853 -0.378906,-0.755859 -0.514259,-0.298644 -0.690805,-0.364317 -1.25,-0.310547 l -0.880859,-0.01172 -0.699219,-0.496094 C 22.542163,13.304873 22.142195,12.9936 21.976562,13 Z M 25,17.609375 l 0.267578,0 c 0.147079,0 0.267578,0.136488 0.267578,0.304687 l 0,0.306641 0.263672,-0.166015 0.265625,-0.166016 0.205078,0.33789 0.207031,0.337891 -0.328124,-0.205078 -0.09766,0.0059 -0.03906,0.603516 0,1.048828 -0.476563,0.01758 0,0.002 -0.548828,-0.02344 c -0.01781,-0.119119 0.06082,-1.13549 0.0098,-1.572266 z"/>
 <path style="fill:#f4f4f7" d="m 21.976562,12 -0.300781,0.01172 0.744141,0.537109 0.785156,0.707031 -0.0918,0.392579 c -0.051,0.436691 -0.109093,0.762322 -0.126953,0.898437 l -0.03125,0.246094 -0.242187,-0.171875 -0.441407,-0.171875 0.173828,0.287109 0.173829,0.285156 -0.44336,0 -0.443359,0 0,-0.28125 0,-0.279296 -0.423828,0.166015 -0.425782,0.166016 0.146485,0.238281 0.144531,0.238281 -0.572266,0.550781 -0.570312,0.408204 0.210938,0.236328 0.210937,0.236328 -0.373047,-0.21875 -0.375,-0.21875 0.490234,-0.548828 0.488282,-0.548828 -0.257813,-0.02539 c -0.141528,-0.01324 -0.519022,-0.05449 -0.839843,-0.0918 l -0.583985,-0.06836 -0.03906,0.523437 -0.03711,0.523438 -0.691406,0.652344 -0.689453,0.65039 -0.642578,2.59961 c -0.353064,1.429447 -0.699695,2.667317 -0.771485,2.99414 L 16,23.517578 c 0.642852,0.270057 1.357397,0.39603 1.968023,0.431636 0.160498,-0.100714 0.380719,-0.539424 0.488281,-0.97461 0.107562,-0.435185 0.27658,-0.589843 0.376953,-0.589843 l 0.183594,0 0.02539,0.9375 c 0.0141,0.516189 0.238398,1.692274 0.498047,2.613281 0.259658,0.921007 0.470703,1.985288 0.470703,2.365234 l 0,0.691407 -0.289063,0.18164 -0.289062,0.181641 0.461664,0.265625 0.16211,0.265625 -0.408203,-0.160157 -0.40625,-0.158203 -0.644532,1.34961 -0.642578,1.347656 -1.394531,0.908203 -0.896485,0.910156 0.22461,1.007813 0.222656,1.009765 -0.04687,1.609376 -0.04492,1.611328 0.205078,0.33789 L 16.431641,40 l 0.517578,0 1.017578,0 0.636719,-0.333984 L 19,39.140625 18.466797,38.632812 C 18.355801,38.352841 18.20186,37.308698 18.125,36.314453 l -0.138672,-1.806641 0.777344,-1.349609 0.779297,-1.349609 1.189453,-1.173828 1.189453,-1.175782 0.177734,-1.52539 0.177735,-1.525391 -0.34375,0.197266 -0.341797,0.195312 0.324219,-0.357422 0.324218,-0.357421 0.671875,0.351562 c 0.368718,0.193471 1.085445,0.66555 1.59375,1.050781 l 0.923829,0.701172 0,0.726563 0,0.724609 0.705078,1.5625 c 0.387028,0.859146 0.786817,1.922277 0.890625,2.363281 0.103753,0.441005 0.306255,0.953593 0.449218,1.138672 l 0.259766,0.335938 0.798828,-0.232422 c 0.439282,-0.127931 1.080501,-0.383732 1.423828,-0.570313 0.343328,-0.186581 1.789366,-0.688775 3.214844,-1.115234 l 2.591797,-0.775391 0.11914,-0.361328 L 36,31.625 l -0.984375,0 c -0.540933,0 -1.380952,0.08094 -1.867187,0.179688 l -0.882813,0.179687 0.152344,0.25 0.152343,0.25 -0.443359,-0.171875 -0.441406,-0.171875 -1.142578,0.464844 c -0.628486,0.25536 -1.383107,0.46289 -1.675781,0.46289 l -0.53125,0 -0.455079,-1.154297 -0.455078,-1.154296 -0.18164,-1.574219 -0.183594,-1.576172 -1.123047,-1.529297 c -0.617809,-0.841347 -1.527859,-1.893457 -2.023438,-2.33789 L 23,23 c 0.334189,0.0026 0.368371,0.03823 0.702402,-0.0098 l -0.207031,-0.24414 -0.07031,-0.361328 0.355469,0.07227 0.355469,0.07227 -0.07617,-0.472656 -0.07617,-0.472657 0.431641,-0.167968 C 24.569278,21.356008 24.698239,21.121552 24.774668,21 l -0.355469,0 -0.425781,0 0,-0.581336 c 0,-0.238241 0.08154,-0.433594 0.18164,-0.433594 0.100045,0 0.648661,0.227912 0.852286,0.50586 l 0.36914,0.305945 c 0.402012,-0.302302 0.866936,-0.458531 1.329766,-0.640625 l 0.1875,-1.326172 c 0.103197,-0.729234 -0.03679,-1.451461 0.05695,-1.605469 l 0.171875,-0.279297 -0.425781,-0.43164 C 26.483522,16.276807 26.13191,16.026754 25.933591,15.958984 l -0.361328,-0.123046 0.367187,-0.449219 0.07617,-0.394531 0.03516,-0.890626 c -0.07621,-0.426996 -0.182797,-0.515853 -0.378906,-0.755859 -0.514259,-0.298644 -0.690805,-0.364317 -1.25,-0.310547 l -0.880859,-0.01172 -0.699219,-0.496094 C 22.542163,12.304873 22.142195,11.9936 21.976562,12 Z M 25,16.609375 l 0.267578,0 c 0.147079,0 0.267578,0.136488 0.267578,0.304687 l 0,0.306641 0.263672,-0.166015 0.265625,-0.166016 0.205078,0.33789 0.207031,0.337891 -0.328124,-0.205078 -0.09766,0.0059 -0.03906,0.603516 0,1.048828 -0.476563,0.01758 0,0.002 -0.548828,-0.02344 c -0.01781,-0.119119 0.06082,-1.13549 0.0098,-1.572266 z"/>
</svg>
