<svg xmlns="http://www.w3.org/2000/svg" width="48" height="48" version="1.1">
 <circle style="opacity:0.2" cx="24" cy="25" r="20"/>
 <circle style="fill:#2ec14a" cx="24" cy="24" r="20"/>
 <path style="opacity:0.2;fill:#f4f4f7" d="M 24,4 A 20,20 0 0 0 4,24 20,20 0 0 0 4.0214844,24.582031 20,20 0 0 1 24,5 20,20 0 0 1 43.978516,24.417969 20,20 0 0 0 44,24 20,20 0 0 0 24,4 Z"/>
 <path style="opacity:0.2" d="m 34,14 -24,12.5625 7.646484,2.513672 11.302735,-9.554688 -8.373047,10.552735 4.359375,1.439453 L 29.542969,33 Z M 20.015625,31.994141 20,37 l 2.652344,-4.105469 -0.84961,-0.310547 z"/>
 <path style="fill:#f4f4f7" d="m 34,13 -24,12.5625 7.646484,2.513672 11.302735,-9.554688 -8.373047,10.552735 4.359375,1.439453 L 29.542969,32 Z M 20.015625,30.994141 20,36 l 2.652344,-4.105469 -0.84961,-0.310547 z"/>
</svg>
