<svg xmlns="http://www.w3.org/2000/svg" width="48" height="48" version="1">
 <rect style="opacity:0.2" width="40" height="40" x="4" y="5" rx="12" ry="12"/>
 <rect style="fill:#00539b" width="40" height="40" x="4" y="4" rx="12" ry="12"/>
 <path style="fill:#f4f4f7;opacity:0.1" d="M 16 4 C 9.352 4 4 9.352 4 16 L 4 17 C 4 10.352 9.352 5 16 5 L 32 5 C 38.648 5 44 10.352 44 17 L 44 16 C 44 9.352 38.648 4 32 4 L 16 4 z"/>
 <path style="opacity:0.2" d="m 17.103842,13 -1.539063,9 h 7.375 l 0.560547,-3.5 4.5,6.5 -6.5,6 0.480469,-3 h -7.441407 l -1.539062,9 h 7.951172 C 28.939381,36.632366 33.855048,31.988501 34.832357,25.587891 35.693864,19.945695 33.374468,13.650614 24.455404,13 Z"/>
 <path style="fill:#ffcb05" d="m 17.103842,12 -1.539063,9 h 7.375 l 0.560547,-3.5 4.5,6.5 -6.5,6 0.480469,-3 h -7.441407 l -1.539062,9 h 7.951172 C 28.939381,35.632366 33.855048,30.988501 34.832357,24.587891 35.693864,18.945695 33.374468,12.650614 24.455404,12 Z"/>
 <path style="opacity:0.2;fill:#f4f4f7" d="M 17.103516 12 L 15.564453 21 L 15.736328 21 L 17.103516 13 L 24.455078 13 C 31.986675 13.549403 34.802393 18.124313 34.980469 22.931641 C 35.17174 17.7762 32.508468 12.587466 24.455078 12 L 17.103516 12 z M 27.578125 24.390625 L 21.6875 29.826172 L 21.5 31 L 28 25 L 27.578125 24.390625 z M 14.539062 27 L 13 36 L 13.171875 36 L 14.539062 28 L 21.820312 28 L 21.980469 27 L 14.539062 27 z"/>
</svg>
