<svg xmlns="http://www.w3.org/2000/svg" width="48" height="48" version="1">
 <rect style="opacity:0.2" width="40" height="40" x="4" y="5" rx="12" ry="12"/>
 <rect style="fill:#b2bfd9" width="40" height="40" x="4" y="4" rx="12" ry="12"/>
 <path style="opacity:0.2;fill:#f4f4f7" d="M 16,4 C 9.352,4 4,9.352 4,16 v 1 C 4,10.352 9.352,5 16,5 h 16 c 6.648,0 12,5.352 12,12 V 16 C 44,9.352 38.648,4 32,4 Z"/>
 <path style="fill:#3084e9" d="M 17 12 A 5 5 0 0 0 12 17 A 5 5 0 0 0 17 22 L 31 22 L 31 12 L 17 12 z"/>
 <path style="fill:#aeaeae" d="M 17 26 L 17 36 L 31 36 A 5 5 0 0 0 36 31 A 5 5 0 0 0 31 26 L 17 26 z"/>
 <path style="opacity:0.1" d="M 17 12 A 5 5 0 0 0 12 17 A 5 5 0 0 0 12.027344 17.515625 A 5 5 0 0 1 17 13 L 31 13 L 31 12 L 17 12 z M 17 26 L 17 27 L 31 27 A 5 5 0 0 1 35.972656 31.484375 A 5 5 0 0 0 36 31 A 5 5 0 0 0 31 26 L 17 26 z"/>
 <path style="opacity:0.2" d="M 31 13 A 5 5 0 0 0 26 18 A 5 5 0 0 0 31 23 A 5 5 0 0 0 36 18 A 5 5 0 0 0 31 13 z M 17 27 A 5 5 0 0 0 12 32 A 5 5 0 0 0 17 37 A 5 5 0 0 0 22 32 A 5 5 0 0 0 17 27 z"/>
 <circle style="fill:#f4f4f7" cx="31" cy="17" r="5"/>
 <circle style="fill:#f4f4f7" cx="17" cy="31" r="5"/>
</svg>
