<svg xmlns="http://www.w3.org/2000/svg" width="48" height="48" version="1.1">
 <path style="opacity:0.2" d="m 37.419922,9.0082035 c -0.238409,0.019675 -0.466859,0.066671 -0.683594,0.140625 h -0.002 l -0.0098,-0.019531 -0.146484,0.072266 C 36.455986,9.2506857 36.338047,9.3086779 36.224609,9.375391 L 18.824219,17.939844 25.728516,33.6 c 6.06576,-2.655103 11.787739,-6.296019 17.916015,-8.742186 0.04021,-0.01254 0.07975,-0.02668 0.119141,-0.04102 0.08803,-0.03198 0.174009,-0.06846 0.257812,-0.109375 0.04818,-0.02358 0.09391,-0.05163 0.140625,-0.07813 0.07689,-0.04172 0.151787,-0.08731 0.22461,-0.136718 0.112337,-0.07928 0.22034,-0.165991 0.322265,-0.263672 0.0994,-0.09948 0.193232,-0.207656 0.28125,-0.324219 0.05722,-0.0733 0.110221,-0.151258 0.16211,-0.230469 0.04331,-0.06422 0.08498,-0.130641 0.125,-0.199219 0.05667,-0.100041 0.107097,-0.206757 0.15625,-0.314453 0.02634,-0.05487 0.05173,-0.110871 0.07617,-0.167968 0.04918,-0.121054 0.09046,-0.247735 0.130859,-0.376954 0.01982,-0.06023 0.0387,-0.121435 0.05664,-0.183593 0.03325,-0.121889 0.06001,-0.248919 0.08594,-0.376953 0.01769,-0.07944 0.03397,-0.160185 0.04883,-0.242188 0.02069,-0.127569 0.03495,-0.25994 0.04883,-0.392578 0.0098,-0.08294 0.01827,-0.166938 0.02539,-0.251953 0.0095,-0.134655 0.01275,-0.273135 0.01563,-0.41211 0.003,-0.09787 0.0043,-0.196852 0.0039,-0.296875 -0.0015,-0.119283 -0.0094,-0.241417 -0.01563,-0.363281 -0.0043,-0.117931 -0.01079,-0.237107 -0.01953,-0.357422 -0.0036,-0.0418 -0.0095,-0.0849 -0.01367,-0.126953 -0.0438,-0.454043 -0.118318,-0.921429 -0.222656,-1.396484 -0.0044,-0.01997 -0.0092,-0.04055 -0.01367,-0.06055 -0.110136,-0.489924 -0.251368,-0.985542 -0.421875,-1.480469 l -0.0059,-0.01953 c -0.0027,-0.0078 -0.007,-0.01561 -0.0098,-0.02344 -0.174306,-0.495075 -0.377001,-0.986773 -0.605469,-1.46875 -0.01346,-0.02852 -0.02345,-0.05745 -0.03711,-0.08594 -0.248276,-0.517996 -0.525045,-1.021808 -0.826172,-1.503906 -0.211357,-0.336097 -0.433905,-0.660457 -0.666016,-0.970704 -0.02189,-0.02948 -0.04243,-0.06066 -0.06445,-0.08984 -0.227762,-0.301473 -0.463989,-0.5886 -0.707031,-0.859375 -0.0334,-0.03724 -0.06796,-0.07086 -0.101563,-0.107422 -0.212586,-0.231511 -0.429765,-0.449994 -0.650319,-0.654285 -0.03849,-0.03562 -0.07658,-0.07271 -0.115234,-0.107422 -0.251652,-0.226606 -0.506789,-0.434108 -0.763672,-0.621094 -0.02022,-0.01468 -0.04031,-0.0266 -0.06055,-0.04101 C 40.385094,9.9651379 40.164022,9.824278 39.943359,9.6996098 39.87486,9.6607017 39.806704,9.6221159 39.738281,9.5863285 39.49553,9.4572439 39.254156,9.3482994 39.015625,9.2601566 c -0.02292,-0.00826 -0.04548,-0.011656 -0.06836,-0.019531 -0.22369,-0.07612 -0.444139,-0.133515 -0.660157,-0.171875 -0.05962,-0.010814 -0.118635,-0.019415 -0.177734,-0.027344 -0.236577,-0.034444 -0.4669,-0.045536 -0.689452,-0.033203 z"/>
 <circle style="opacity:0.2" cx="24" cy="25" r="17"/>
 <path style="fill:#e3954f" d="m 37.419922,8.0078125 c -0.238409,0.019675 -0.466859,0.066671 -0.683594,0.140625 h -0.002 l -0.0098,-0.019531 -0.146484,0.072266 C 36.455986,8.2502947 36.338047,8.3082869 36.224609,8.375 l -17.40039,8.564453 6.904297,15.660156 c 6.06576,-2.655103 11.787739,-6.296019 17.916015,-8.742186 0.04021,-0.01254 0.07975,-0.02668 0.119141,-0.04102 0.08803,-0.03198 0.174009,-0.06846 0.257812,-0.109375 0.04818,-0.02358 0.09391,-0.05163 0.140625,-0.07813 0.07689,-0.04172 0.151787,-0.08731 0.22461,-0.136718 0.112337,-0.07928 0.22034,-0.165991 0.322265,-0.263672 0.0994,-0.09948 0.193232,-0.207656 0.28125,-0.324219 0.05722,-0.0733 0.110221,-0.151258 0.16211,-0.230469 0.04331,-0.06422 0.08498,-0.130641 0.125,-0.199219 0.05667,-0.100041 0.107097,-0.206757 0.15625,-0.314453 0.02634,-0.05487 0.05173,-0.110871 0.07617,-0.167968 0.04918,-0.121054 0.09046,-0.247735 0.130859,-0.376954 0.01982,-0.06023 0.0387,-0.121435 0.05664,-0.183593 0.03325,-0.121889 0.06001,-0.248919 0.08594,-0.376953 0.01769,-0.07944 0.03397,-0.160185 0.04883,-0.242188 0.02069,-0.127569 0.03495,-0.25994 0.04883,-0.392578 0.0098,-0.08294 0.01827,-0.166938 0.02539,-0.251953 0.0095,-0.134655 0.01275,-0.273135 0.01563,-0.41211 0.003,-0.09787 0.0043,-0.196852 0.0039,-0.296875 -0.0015,-0.119283 -0.0094,-0.241417 -0.01563,-0.363281 -0.0043,-0.117931 -0.01079,-0.237107 -0.01953,-0.357422 -0.0036,-0.0418 -0.0095,-0.0849 -0.01367,-0.126953 -0.0438,-0.454043 -0.118318,-0.921429 -0.222656,-1.396484 -0.0044,-0.01997 -0.0092,-0.04055 -0.01367,-0.06055 -0.110136,-0.489924 -0.251368,-0.985542 -0.421875,-1.480469 l -0.0059,-0.01953 c -0.0027,-0.0078 -0.007,-0.01561 -0.0098,-0.02344 -0.174306,-0.495075 -0.377001,-0.986773 -0.605469,-1.46875 -0.01346,-0.02852 -0.02345,-0.05745 -0.03711,-0.08594 -0.248276,-0.517996 -0.525045,-1.021808 -0.826172,-1.503906 -0.211357,-0.336097 -0.433905,-0.660457 -0.666016,-0.970704 -0.02189,-0.02948 -0.04243,-0.06066 -0.06445,-0.08984 -0.227762,-0.301473 -0.463989,-0.5886 -0.707031,-0.859375 -0.0334,-0.03724 -0.06796,-0.07086 -0.101563,-0.107422 C 41.982655,10.313399 41.765476,10.094916 41.544922,9.890625 41.506428,9.8550041 41.46834,9.8179179 41.429688,9.7832031 41.178036,9.556597 40.922899,9.3490948 40.666016,9.1621094 40.645799,9.1474331 40.625702,9.1355128 40.605469,9.1210938 40.385094,8.9647469 40.164022,8.823887 39.943359,8.6992188 39.87486,8.6603107 39.806704,8.6217249 39.738281,8.5859375 39.49553,8.4568529 39.254156,8.3479084 39.015625,8.2597656 c -0.02292,-0.00826 -0.04548,-0.011656 -0.06836,-0.019531 -0.22369,-0.07612 -0.444139,-0.133515 -0.660157,-0.171875 -0.05962,-0.010814 -0.118635,-0.019415 -0.177734,-0.027344 -0.236577,-0.034444 -0.4669,-0.045536 -0.689452,-0.033203 z"/>
 <path style="opacity:0.1;fill:#f4f4f7" d="M 37.419922 8.0078125 C 37.181513 8.0274875 36.953063 8.0744835 36.736328 8.1484375 L 36.734375 8.1484375 L 36.724609 8.1289062 L 36.578125 8.2011719 C 36.456067 8.2502941 36.338047 8.3082869 36.224609 8.375 L 18.824219 16.939453 L 19.185547 17.761719 L 36.224609 9.375 C 36.338047 9.3082869 36.456067 9.2502941 36.578125 9.2011719 L 36.724609 9.1289062 L 36.734375 9.1484375 L 36.736328 9.1484375 C 36.953063 9.0744835 37.181513 9.0274875 37.419922 9.0078125 C 37.642474 8.9954796 37.872798 9.0065716 38.109375 9.0410156 C 38.168474 9.0489446 38.227489 9.0575454 38.287109 9.0683594 C 38.503127 9.1067194 38.723576 9.1641144 38.947266 9.2402344 C 38.970146 9.2481094 38.992705 9.2515056 39.015625 9.2597656 C 39.254156 9.3479084 39.49553 9.4568529 39.738281 9.5859375 C 39.806704 9.6217249 39.87486 9.6603107 39.943359 9.6992188 C 40.164022 9.823887 40.385097 9.9647416 40.605469 10.121094 C 40.625709 10.135504 40.645796 10.147429 40.666016 10.162109 C 40.922899 10.349095 41.178036 10.556597 41.429688 10.783203 C 41.468341 10.817915 41.506432 10.855005 41.544922 10.890625 C 41.765476 11.094916 41.982726 11.313411 42.195312 11.544922 C 42.228915 11.581484 42.263475 11.615104 42.296875 11.652344 C 42.539917 11.923119 42.776144 12.210246 43.003906 12.511719 C 43.025926 12.540899 43.046469 12.572083 43.068359 12.601562 C 43.30047 12.91181 43.523018 13.236169 43.734375 13.572266 C 44.035502 14.054364 44.312271 14.558176 44.560547 15.076172 C 44.574207 15.104662 44.584196 15.133589 44.597656 15.162109 C 44.826124 15.644086 45.028819 16.135784 45.203125 16.630859 C 45.205925 16.638689 45.210191 16.646497 45.212891 16.654297 L 45.21875 16.673828 C 45.389257 17.168755 45.530489 17.664373 45.640625 18.154297 C 45.645095 18.174297 45.649897 18.194874 45.654297 18.214844 C 45.758635 18.689899 45.833153 19.157285 45.876953 19.611328 C 45.881123 19.653381 45.887025 19.696481 45.890625 19.738281 C 45.899079 19.854663 45.905858 19.96983 45.910156 20.083984 C 45.915885 19.975648 45.919582 19.866503 45.921875 19.755859 C 45.924875 19.657989 45.926181 19.559007 45.925781 19.458984 C 45.924281 19.339701 45.916386 19.217567 45.910156 19.095703 C 45.905856 18.977772 45.899365 18.858596 45.890625 18.738281 C 45.887025 18.696481 45.881123 18.653381 45.876953 18.611328 C 45.833153 18.157285 45.758635 17.689899 45.654297 17.214844 C 45.649897 17.194874 45.645095 17.174297 45.640625 17.154297 C 45.530489 16.664373 45.389257 16.168755 45.21875 15.673828 L 45.212891 15.654297 C 45.210191 15.646497 45.205925 15.638689 45.203125 15.630859 C 45.028819 15.135784 44.826124 14.644086 44.597656 14.162109 C 44.584196 14.133589 44.574207 14.104662 44.560547 14.076172 C 44.312271 13.558176 44.035502 13.054364 43.734375 12.572266 C 43.523018 12.236169 43.30047 11.91181 43.068359 11.601562 C 43.046469 11.572083 43.025926 11.540899 43.003906 11.511719 C 42.776144 11.210246 42.539917 10.923119 42.296875 10.652344 C 42.263475 10.615104 42.228915 10.581484 42.195312 10.544922 C 41.982726 10.313411 41.765476 10.094916 41.544922 9.890625 C 41.506428 9.8550041 41.468339 9.8179179 41.429688 9.7832031 C 41.178036 9.556597 40.922899 9.3490948 40.666016 9.1621094 C 40.645799 9.1474331 40.625702 9.1355128 40.605469 9.1210938 C 40.385094 8.9647468 40.164022 8.8238869 39.943359 8.6992188 C 39.87486 8.6603106 39.806704 8.6217249 39.738281 8.5859375 C 39.49553 8.4568529 39.254156 8.3479084 39.015625 8.2597656 C 38.992705 8.2515056 38.970146 8.2481094 38.947266 8.2402344 C 38.723576 8.1641144 38.503127 8.1067194 38.287109 8.0683594 C 38.227489 8.0575454 38.168474 8.0489446 38.109375 8.0410156 C 37.872798 8.0065716 37.642474 7.9954796 37.419922 8.0078125 z"/>
 <circle style="fill:#edd448" cx="24" cy="24" r="17"/>
 <path style="fill:#e3954f" d="M 32.595703 10.167969 L 21.214844 15.773438 A 9 4.5 0 0 0 24 16 A 9 4.5 0 0 0 33 11.5 A 9 4.5 0 0 0 32.595703 10.167969 z M 36.746094 21.988281 A 5.3087169 8.6040628 27.886738 0 0 29.867188 26.830078 A 5.3087169 8.6040628 27.886738 0 0 28.148438 31.390625 L 40.205078 25.376953 A 5.3087169 8.6040628 27.886738 0 0 38.609375 22.630859 A 5.3087169 8.6040628 27.886738 0 0 36.746094 21.988281 z"/>
 <ellipse style="opacity:0.3" cx="24" cy="11.5" rx="9" ry="4.5"/>
 <path style="fill:#f4f4f7;opacity:0.2" d="M 24 7 A 17 17 0 0 0 7 24 A 17 17 0 0 0 7.0214844 24.580078 A 17 17 0 0 1 24 8 A 17 17 0 0 1 40.978516 24.419922 A 17 17 0 0 0 41 24 A 17 17 0 0 0 24 7 z"/>
 <path style="opacity:0.1" d="m 10.634766,22.337611 a 8.5651264,4.6567281 64.809931 0 0 -1.0488285,0.148437 l -5.4707031,2.69336 a 8.5651264,4.6567281 64.80993 0 0 -0.4550782,0.224609 l -0.044922,0.02148 0.00195,0.002 a 8.5651264,4.6567281 64.80993 0 0 -0.4296875,0.34375 8.5651264,4.6567281 64.80993 0 0 0.9453125,10.65625 8.5651264,4.6567281 64.80993 0 0 7.1425785,4.28711 l 5.484375,-2.699219 -0.0039,-0.0078 a 8.5651264,4.6567281 64.809931 0 0 0.611329,-0.447265 8.5651264,4.6567281 64.809931 0 0 -0.945313,-10.65625 8.5651264,4.6567281 64.809931 0 0 -5.787109,-4.566406 z"/>
 <path style="fill:#e3954f" d="M 10.634766 21.337891 A 8.5651264 4.6567281 64.809931 0 0 9.5859375 21.486328 L 4.1152344 24.179688 A 8.5651264 4.6567281 64.80993 0 0 3.6601562 24.404297 L 3.6152344 24.425781 L 3.6171875 24.427734 A 8.5651264 4.6567281 64.80993 0 0 3.1875 24.771484 A 8.5651264 4.6567281 64.80993 0 0 4.1328125 35.427734 A 8.5651264 4.6567281 64.80993 0 0 11.275391 39.714844 L 16.759766 37.015625 L 16.755859 37.007812 A 8.5651264 4.6567281 64.809931 0 0 17.367188 36.560547 A 8.5651264 4.6567281 64.809931 0 0 16.421875 25.904297 A 8.5651264 4.6567281 64.809931 0 0 10.634766 21.337891 z"/>
 <ellipse style="opacity:0.2" cx="-10.418" cy="28.824" rx="4.856" ry="8.454" transform="matrix(0.70812504,-0.70608705,0.51863379,0.85499649,0,0)"/>
 <path style="opacity:0.3" d="M 36.746094 21.988281 A 5.3087169 8.6040628 27.886738 0 0 29.867188 26.830078 A 5.3087169 8.6040628 27.886738 0 0 29.753906 37.335938 A 5.3087169 8.6040628 27.886738 0 0 35.1875 36.771484 A 17 17 0 0 0 39.867188 30.048828 A 5.3087169 8.6040628 27.886738 0 0 38.609375 22.630859 A 5.3087169 8.6040628 27.886738 0 0 36.746094 21.988281 z"/>
 <path style="opacity:0.1" d="m 39.947266,25.505859 -11.544922,5.757813 c -0.104312,0.377822 -0.18916,0.754417 -0.253906,1.126953 l 12.05664,-6.013672 c -0.0661,-0.307063 -0.152251,-0.598156 -0.257812,-0.871094 z"/>
</svg>
