<svg xmlns="http://www.w3.org/2000/svg" width="48" height="48" version="1">
 <path style="opacity:0.2" d="M 7 5 C 5.338 5 4 6.338 4 8 L 4 42 C 4 43.662 5.338 45 7 45 L 21 45 C 22.662 45 24 43.662 24 42 C 24 43.662 25.338 45 27 45 L 41 45 C 42.662 45 44 43.662 44 42 L 44 8 C 44 6.338 42.662 5 41 5 L 27 5 C 25.338 5 24 6.338 24 8 C 24 6.338 22.662 5 21 5 L 7 5 z"/>
 <rect style="fill:#ffe658" width="20" height="40" x="24" y="4" rx="3" ry="3"/>
 <rect style="fill:#fff689" width="20" height="40" x="4" y="4" rx="3" ry="3"/>
 <path style="opacity:0.1" d="m 13.886719,17.216875 -0.871094,0.779297 0.01953,2.068359 L 7,19.884844 7.921875,21.130937 h 5.121094 l 0.01367,2.058594 h -2.808594 l -1.1933595,-0.570312 0.050781,5.86914 1.3066402,-0.673828 v -0.779297 h 2.673829 l 0.01562,1.996094 -5.9746089,-0.04883 1.6132813,1.636719 0.6914062,-0.597657 h 3.6777344 l 0.0098,1.376954 c 0,0.494551 0.460937,0.986328 0.460937,0.986328 l 1.279297,-0.935547 c 0,0 -0.613281,-0.385396 -0.613281,-0.830078 l -0.01563,-0.597657 h 6.570312 l -1.80664,-1.832031 -0.869141,0.882813 -3.921875,-0.03125 -0.05273,-2.00586 h 1.984375 l 0.544922,0.857422 0.949218,-0.96289 -0.384765,-0.441407 v -2.935547 l 0.84375,-0.517578 -2.021485,-1.091797 0.01172,1.246094 h -2.03125 l -0.04102,-2.058594 h 5.69336 l -1.804688,-1.830078 -0.871093,0.882813 -3.046876,-0.08984 z m 19.5,0.337891 c 0,1.95009 -0.03861,3.781719 -0.308594,5.490234 L 27,23.017656 l 0.662109,1.025391 h 5.22461 c -0.65499,2.923546 -2.163673,5.455744 -5.65625,7.544922 l 0.232422,1.423828 c 3.722554,-1.766834 6.100632,-4.523297 6.855468,-8.96875 h 6.615235 l -2.333985,-2.333985 -1.02539,1.357422 -3.117188,-0.01367 c 0.08069,-0.730492 0.121094,-1.502825 0.121094,-2.320312 l 1.160156,-0.263672 z m 3.044922,1.689453 -0.660157,0.330078 c 0.690018,0.636532 1.622523,1.153221 1.654297,2.11914 L 38.75,20.699297 c -0.532208,-0.785339 -1.445643,-1.095506 -2.318359,-1.455078 z m -26.019532,4.595703 h 2.648438 l 0.0078,1.039062 h -2.65625 z m 3.652344,0 h 2.021485 l 0.0098,1.039062 h -2.003906 z m 20.580078,0.798828 c 0,4.516094 5.064453,8.40625 5.064453,8.40625 L 41,30.992266 c 0,0 -5.626953,-2.712358 -5.626953,-6.189454 z m -24.232422,0.888672 h 2.66211 l 0.0059,0.857422 h -2.667969 z m 3.697266,0 h 1.992187 l 0.0098,0.857422 h -1.978516 z"/>
 <path style="fill:#c58c00" d="m 13.886719,16.216797 -0.871094,0.779297 0.01953,2.068539 L 7,18.884946 7.921875,20.131039 h 5.121094 l 0.01367,2.058414 h -2.808012 l -1.1933596,-0.570312 0.050781,5.86914 1.3066406,-0.673828 v -0.779297 h 2.673247 l 0.01562,1.996094 -5.9746091,-0.04883 1.6132813,1.636719 0.6914062,-0.597657 h 3.6777346 l 0.0098,1.376954 c 0,0.494552 0.460937,0.986328 0.460937,0.986328 l 1.279297,-0.935547 c 0,0 -0.613281,-0.385396 -0.613281,-0.830078 l -0.01563,-0.597657 h 6.570312 l -1.80664,-1.832031 -0.869141,0.882813 -3.921875,-0.03125 -0.05273,-2.00586 h 1.984199 l 0.544922,0.857422 0.949219,-0.96289 -0.384766,-0.441407 v -2.935547 l 0.84375,-0.517578 -2.021484,-1.091797 0.01172,1.246094 h -2.031074 l -0.04102,-2.058414 h 5.69336 l -1.804688,-1.830078 -0.871093,0.882813 -3.046876,-0.08984 z m -3.474027,6.623047 h 2.647855 l 0.0078,1.039062 H 10.41268 Z m 3.651761,0 h 2.021309 l 0.0098,1.039062 h -2.00373 z m -3.651761,1.6875 h 2.661527 l 0.0059,0.857422 h -2.667386 z m 3.696683,0 h 1.992012 l 0.0098,0.857422 h -1.978341 z"/>
 <path style="fill:#c58c00" d="M 33.386719 16.554688 C 33.386719 18.504778 33.348112 20.336407 33.078125 22.044922 L 27 22.017578 L 27.662109 23.042969 L 32.886719 23.042969 C 32.231729 25.966515 30.723046 28.498713 27.230469 30.587891 L 27.462891 32.011719 C 31.185445 30.244885 33.563523 27.488422 34.318359 23.042969 L 40.933594 23.042969 L 38.599609 20.708984 L 37.574219 22.066406 L 34.457031 22.052734 C 34.537724 21.322242 34.578125 20.549909 34.578125 19.732422 L 35.738281 19.46875 L 33.386719 16.554688 z M 36.431641 18.244141 L 35.771484 18.574219 C 36.461502 19.210751 37.394007 19.72744 37.425781 20.693359 L 38.75 19.699219 C 38.217792 18.91388 37.304357 18.603713 36.431641 18.244141 z M 34.644531 23.638672 C 34.644531 28.154766 39.708984 32.044922 39.708984 32.044922 L 41 29.992188 C 41 29.992188 35.373047 27.27983 35.373047 23.802734 L 34.644531 23.638672 z"/>
 <path style="fill:#f4f4f7;opacity:0.2" d="M 7 4 C 5.338 4 4 5.338 4 7 L 4 8 C 4 6.338 5.338 5 7 5 L 21 5 C 22.662 5 24 6.338 24 8 C 24 6.338 25.338 5 27 5 L 41 5 C 42.662 5 44 6.338 44 8 L 44 7 C 44 5.338 42.662 4 41 4 L 27 4 C 25.338 4 24 5.338 24 7 C 24 5.338 22.662 4 21 4 L 7 4 z"/>
</svg>
