<svg xmlns="http://www.w3.org/2000/svg" width="48" height="48" version="1">
 <rect style="fill:#976e2e" width="40" height="36" x="-44" y="-42" rx="2" ry="2" transform="matrix(0,-1,-1,0,0,0)"/>
 <path style="opacity:0.1" d="m 13,9 c -1.662,0 -3,1.338 -3,3 v 9 3 3 h 3 22 3 V 24 21 12 C 38,10.338 36.662,9 35,9 Z m 0,3 h 22 v 9 3 H 13 v -3 z"/>
 <path fill="#fff" opacity=".1" d="m8 4c-1.108 0-2 0.892-2 2v1c0-1.108 0.892-2 2-2h32c1.108 0 2 0.892 2 2v-1c0-1.108-0.892-2-2-2z"/>
 <path opacity=".2" d="m6 42v1c0 1.108 0.892 2 2 2h32c1.108 0 2-0.892 2-2v-1c0 1.108-0.892 2-2 2h-32c-1.108 0-2-0.892-2-2z"/>
 <path style="fill:#c3c3c3" d="M 13 8 C 11.338 8 10 9.338 10 11 L 10 20 L 10 23 L 10 26 L 13 26 L 35 26 L 38 26 L 38 23 L 38 20 L 38 11 C 38 9.338 36.662 8 35 8 L 13 8 z M 13 11 L 35 11 L 35 20 L 35 23 L 13 23 L 13 20 L 13 11 z"/>
 <path style="opacity:0.2;fill:#f4f4f7" d="M 13 8 C 11.338 8 10 9.338 10 11 L 10 12 C 10 10.338 11.338 9 13 9 L 35 9 C 36.662 9 38 10.338 38 12 L 38 11 C 38 9.338 36.662 8 35 8 L 13 8 z M 13 23 L 13 24 L 35 24 L 35 23 L 13 23 z"/>
 <rect style="fill:#a4a4a4" width="2" height="9" x="23" y="25"/>
 <path style="fill:none;stroke:#c3c3c3;stroke-width:2;stroke-linecap:round" d="m 21.002874,27 1,-5"/>
 <path style="opacity:0.2;fill:none;stroke:#000000;stroke-width:2;stroke-linecap:round" d="m 19.002874,28.000032 1,-5"/>
 <path style="fill:none;stroke:#c3c3c3;stroke-width:2;stroke-linecap:round" d="m 25.002874,27 1,-5"/>
 <path style="fill:none;stroke:#c3c3c3;stroke-width:2;stroke-linecap:round" d="m 29.002874,27 1,-5"/>
 <path style="opacity:0.2" d="M 19.988281,33 C 18.999835,33 18,33.999889 18,35.019531 V 43 h 6 a 2,2 0 0 1 2,-2 2,2 0 0 1 0.171875,0.0078 A 3,3 0 0 1 29,39 3,3 0 0 1 30,39.173828 V 33 Z"/>
 <path style="fill:#ffb22b" d="M 19.988281 32 C 18.999835 32 18 32.999889 18 34.019531 L 18 42 L 24 42 A 2 2 0 0 1 26 40 A 2 2 0 0 1 26.171875 40.007812 A 3 3 0 0 1 29 38 A 3 3 0 0 1 30 38.173828 L 30 32 L 19.988281 32 z"/>
 <path style="opacity:0.2" d="M 29 33 A 2 2 0 0 0 27 35 A 2 2 0 0 0 29 37 A 2 2 0 0 0 30 36.728516 L 30 33.269531 A 2 2 0 0 0 29 33 z"/>
 <circle style="opacity:0.2" cx="21" cy="40" r="1"/>
 <path style="opacity:0.2" d="M 19.988281 32 C 18.999835 32 18 32.999889 18 34.019531 L 18 35.496094 A 2.5 2.5 0 0 0 19.5 36 A 2.5 2.5 0 0 0 22 33.5 A 2.5 2.5 0 0 0 21.498047 32 L 19.988281 32 z"/>
 <path style="opacity:0.1" d="M 29 33 A 2 2 0 0 0 27 35 A 2 2 0 0 0 27.064453 35.496094 A 2 2 0 0 1 29 34 A 2 2 0 0 1 30 34.269531 L 30 33.269531 A 2 2 0 0 0 29 33 z"/>
 <path style="opacity:0.1" d="M 21 39 A 1 1 0 0 0 20 40 A 1 1 0 0 0 20.134766 40.5 A 1 1 0 0 1 21 40 A 1 1 0 0 1 21.865234 40.5 A 1 1 0 0 0 22 40 A 1 1 0 0 0 21 39 z"/>
 <path style="opacity:0.1" d="M 19.988281 32 C 18.999835 32 18 32.999889 18 34.019531 L 18 35.019531 C 18 33.999889 18.999835 33 19.988281 33 L 21.498047 33 A 2.5 2.5 0 0 1 21.947266 33.996094 A 2.5 2.5 0 0 0 22 33.5 A 2.5 2.5 0 0 0 21.498047 32 L 19.988281 32 z"/>
 <path style="fill:none;stroke:#eaeaea;stroke-width:2;stroke-linecap:round" d="m 19.002874,27 1,-5"/>
 <path style="opacity:0.2;fill:none;stroke:#000000;stroke-width:2;stroke-linecap:round" d="m 23.002874,28.000032 1,-5"/>
 <path style="fill:none;stroke:#eaeaea;stroke-width:2;stroke-linecap:round" d="m 23.002874,27 1,-5"/>
 <path style="opacity:0.2;fill:none;stroke:#000000;stroke-width:2;stroke-linecap:round" d="m 27.002874,28.000032 1,-5"/>
 <path style="fill:none;stroke:#eaeaea;stroke-width:2;stroke-linecap:round" d="m 27.002874,27 1,-5"/>
</svg>
