<svg xmlns="http://www.w3.org/2000/svg" width="48" height="48" version="1">
 <rect style="opacity:0.2" width="26" height="40" x="11" y="5" rx="2" ry="2"/>
 <path style="fill:#b2bfd9" d="M 13 4 C 11.892 4 11 4.892 11 6 L 11 8 L 37 8 L 37 6 C 37 4.892 36.108 4 35 4 L 13 4 z M 11 38 L 11 42 C 11 43.108 11.892 44 13 44 L 35 44 C 36.108 44 37 43.108 37 42 L 37 38 L 11 38 z"/>
 <rect style="fill:#333333" width="6" height="1" x="21" y="6" rx=".5" ry=".5"/>
 <rect style="fill:#3f3f3f" width="26" height="30" x="11" y="8"/>
 <path style="fill:#f4f4f7;opacity:0.2" d="M 13 4 C 11.892 4 11 4.892 11 6 L 11 7 C 11 5.892 11.892 5 13 5 L 35 5 C 36.108 5 37 5.892 37 7 L 37 6 C 37 4.892 36.108 4 35 4 L 13 4 z"/>
 <rect style="fill:#4d4d4d" width="4" height="4" x="22" y="39" rx="1" ry="1"/>
 <rect style="fill:#4d4d4d" width="4" height="2" x="29" y="40" rx="1" ry="1"/>
 <rect style="fill:#4d4d4d" width="4" height="2" x="15" y="40" rx="1" ry="1"/>
 <circle style="fill:#333333" cx="28.5" cy="6.5" r=".5"/>
 <path style="opacity:0.2" d="M 26,14 22,14.605 V 29.074 L 26,28 V 22.41 L 30,29 34,27.5 29,21.5 34.002,15.002 30.121,14 26,20.559 Z M 17.855,17.924 C 17.761,17.924 17.666,17.961 17.594,18.033 L 16.021,19.605 C 15.876,19.751 15.911,19.958 16.021,20.131 L 17.648,22.686 C 17.528,22.936 17.424,23.193 17.336,23.457 17.332,23.468 17.326,23.479 17.322,23.49 L 14.371,24.146 C 14.171,24.191 14,24.312 14,24.518 V 25.5 26.482 C 14,26.688 14.171,26.809 14.371,26.854 L 17.322,27.51 C 17.329,27.529 17.339,27.547 17.346,27.566 17.431,27.822 17.532,28.073 17.648,28.316 L 16.021,30.869 C 15.911,31.042 15.876,31.249 16.021,31.395 L 17.594,32.967 C 17.739,33.112 17.972,33.112 18.117,32.967 L 20.668,31.342 C 20.919,31.464 21.177,31.569 21.441,31.658 21.459,31.664 21.475,31.674 21.492,31.68 L 22.146,34.629 C 22.146,34.834 22.312,35 22.518,35 H 24.738 C 24.943,35 25.065,34.829 25.109,34.629 L 25.764,31.59 C 26.064,31.477 26.356,31.342 26.637,31.186 L 29.127,32.967 C 29.272,33.112 29.505,33.112 29.65,32.967 L 31.223,31.395 C 31.368,31.249 31.333,31.042 31.223,30.869 L 30.275,29.432 30.176,29.469 C 29.951,29.553 29.697,29.466 29.572,29.26 L 28.576,27.619 C 27.746,29.604 25.786,31 23.5,31 20.462,31 18,28.538 18,25.5 18,23.169 19.453,21.182 21.5,20.381 V 19.285 L 21.492,19.32 C 21.47,19.328 21.45,19.34 21.428,19.348 21.167,19.434 20.912,19.537 20.664,19.656 L 18.117,18.033 C 18.045,17.961 17.95,17.924 17.855,17.924 Z"/>
 <path style="fill:#f4f4f7" d="M 26,13 22,13.605 V 28.074 L 26,27 V 21.41 L 30,28 34,26.5 29,20.5 34.002,14.002 30.121,13 26,19.559 Z M 17.855,16.924 C 17.761,16.924 17.666,16.961 17.594,17.033 L 16.021,18.605 C 15.876,18.751 15.911,18.958 16.021,19.131 L 17.648,21.686 C 17.528,21.936 17.424,22.193 17.336,22.457 17.332,22.468 17.326,22.479 17.322,22.49 L 14.371,23.146 C 14.171,23.191 14,23.312 14,23.518 V 24.5 25.482 C 14,25.688 14.171,25.809 14.371,25.854 L 17.322,26.51 C 17.329,26.529 17.339,26.547 17.346,26.566 17.431,26.822 17.532,27.073 17.648,27.316 L 16.021,29.869 C 15.911,30.042 15.876,30.249 16.021,30.395 L 17.594,31.967 C 17.739,32.112 17.972,32.112 18.117,31.967 L 20.668,30.342 C 20.919,30.464 21.177,30.569 21.441,30.658 21.459,30.664 21.475,30.674 21.492,30.68 L 22.146,33.629 C 22.146,33.834 22.312,34 22.518,34 H 24.738 C 24.943,34 25.065,33.829 25.109,33.629 L 25.764,30.59 C 26.064,30.477 26.356,30.342 26.637,30.186 L 29.127,31.967 C 29.272,32.112 29.505,32.112 29.65,31.967 L 31.223,30.395 C 31.368,30.249 31.333,30.042 31.223,29.869 L 30.275,28.432 30.176,28.469 C 29.951,28.553 29.697,28.466 29.572,28.26 L 28.576,26.619 C 27.746,28.604 25.786,30 23.5,30 20.462,30 18,27.538 18,24.5 18,22.169 19.453,20.182 21.5,19.381 V 18.285 L 21.492,18.32 C 21.47,18.328 21.45,18.34 21.428,18.348 21.167,18.434 20.912,18.537 20.664,18.656 L 18.117,17.033 C 18.045,16.961 17.95,16.924 17.855,16.924 Z"/>
 <rect style="opacity:0.2" width="26" height="1" x="11" y="8"/>
 <rect style="opacity:0.2;fill:#f4f4f7" width="26" height="1" x="11" y="38"/>
</svg>
