<svg xmlns="http://www.w3.org/2000/svg" width="48" height="48" version="1.1">
 <rect style="fill:#4d5a98" width="40" height="40" x="4" y="4" rx="3" ry="3"/>
 <path style="opacity:0.1" d="m 10.080957,37.803822 c -0.1908558,-0.35039 -0.03099,-1.344355 0.340276,-2.115691 0.396512,-0.823781 1.244116,-1.65101 2.57447,-2.512584 1.840744,-1.192115 6.053495,-5.109805 8.903691,-8.280078 0.539719,-0.60033 0.629581,-0.760887 0.575247,-1.027811 -0.05823,-0.286046 0.101485,-0.485764 1.667732,-2.085503 0.952669,-0.97304 1.712801,-1.825529 1.689183,-1.894421 -0.02362,-0.06889 -0.167142,-0.114856 -0.318941,-0.102144 -0.151798,0.01271 -1.331257,0.10591 -2.621019,0.207105 -2.333625,0.183096 -2.348228,0.18589 -3.004475,0.574871 -0.362698,0.214984 -0.748769,0.374156 -0.857935,0.353715 -0.352575,-0.06602 -0.288473,-0.465314 0.140241,-0.873583 0.394757,-0.375932 0.40482,-0.407113 0.40482,-1.254457 0,-0.804864 0.02223,-0.886121 0.301405,-1.101887 0.447876,-0.346147 0.679239,-0.292802 0.975369,0.224888 0.279897,0.489314 0.34846,0.502241 1.090547,0.205612 0.300555,-0.120138 0.415382,-0.119842 0.646457,0.0017 0.254107,0.133619 0.60212,0.04288 3.638223,-0.948636 1.846482,-0.603013 3.542281,-1.187544 3.768441,-1.298957 0.508968,-0.250734 0.89709,-0.696477 1.705039,-1.958174 0.494858,-0.772773 0.784957,-1.091868 1.359074,-1.494921 0.69401,-0.487224 0.737627,-0.502081 0.886533,-0.301997 0.101217,0.136005 0.156611,0.524029 0.156611,1.097034 v 0.886595 l 0.696648,0.657408 c 0.77376,0.730176 0.771088,0.711965 0.253002,1.7246 -0.189903,0.371182 -0.326607,0.927608 -0.428002,1.742099 l -0.148978,1.196726 0.730743,3.034625 c 0.401909,1.669043 0.861473,3.590973 1.021253,4.270953 0.159779,0.679981 0.33856,1.35141 0.397291,1.492066 l 0.106783,0.255736 0.469786,-0.235482 c 0.817949,-0.409999 1.095034,0.01547 0.419007,0.643398 -0.544449,0.505712 -2.371022,1.833076 -2.80484,2.038267 -0.334036,0.157996 -0.392543,0.158713 -0.547247,0.0067 -0.154705,-0.152003 -0.13612,-0.216075 0.173839,-0.599295 0.190884,-0.236002 0.347063,-0.464353 0.347063,-0.507446 0,-0.132475 -3.732625,-6.316315 -4.138845,-6.856823 -0.315615,-0.419953 -0.454672,-0.514055 -0.801661,-0.542498 -0.571475,-0.04684 -1.038666,0.207435 -2.926676,1.5929 -1.82884,1.342049 -1.917648,1.394892 -2.341298,1.393139 -0.388329,-0.0016 -0.763126,0.27702 -2.525413,1.877408 -3.448959,3.132105 -5.948353,5.816219 -6.769829,7.270161 -1.162591,2.057683 -2.530499,3.071711 -4.595625,3.406731 -0.414539,0.06725 -0.494747,0.04588 -0.60799,-0.162025 z"/>
 <path style="opacity:0.2" d="m 4,41 v 1 c 0,1.662 1.338,3 3,3 h 34 c 1.662,0 3,-1.338 3,-3 v -1 c 0,1.662 -1.338,3 -3,3 H 7 C 5.338,44 4,42.662 4,41 Z"/>
 <path style="opacity:0.1;fill:#f4f4f7" d="M 7,4 C 5.338,4 4,5.338 4,7 V 8 C 4,6.338 5.338,5 7,5 h 34 c 1.662,0 3,1.338 3,3 V 7 C 44,5.338 42.662,4 41,4 Z"/>
 <path style="fill:#3f3f3f" d="m 10.080957,36.803847 c -0.1908558,-0.35039 -0.03099,-1.344355 0.340276,-2.115691 0.396512,-0.823781 1.244116,-1.65101 2.57447,-2.512584 1.840744,-1.192115 6.053495,-5.109805 8.903691,-8.280078 0.539719,-0.60033 0.629581,-0.760887 0.575247,-1.027811 -0.05823,-0.286046 0.101485,-0.485764 1.667732,-2.085503 0.952669,-0.97304 1.712801,-1.825529 1.689183,-1.894421 -0.02362,-0.06889 -0.167142,-0.114856 -0.318941,-0.102144 -0.151798,0.01271 -1.331257,0.10591 -2.621019,0.207105 -2.333625,0.183096 -2.348228,0.18589 -3.004475,0.574871 -0.362698,0.214984 -0.748769,0.374156 -0.857935,0.353715 -0.352575,-0.06602 -0.288473,-0.465314 0.140241,-0.873583 0.394757,-0.375932 0.40482,-0.407113 0.40482,-1.254457 0,-0.804864 0.02223,-0.886121 0.301405,-1.101887 0.447876,-0.346147 0.679239,-0.292802 0.975369,0.224888 0.279897,0.489314 0.34846,0.502241 1.090547,0.205612 0.300555,-0.120138 0.415382,-0.119842 0.646457,0.0017 0.254107,0.133619 0.60212,0.04288 3.638223,-0.948636 1.846482,-0.603013 3.542281,-1.187544 3.768441,-1.298957 0.508968,-0.250734 0.89709,-0.696477 1.705039,-1.958174 0.494858,-0.772773 0.784957,-1.091868 1.359074,-1.494921 0.69401,-0.487224 0.737627,-0.502081 0.886533,-0.301997 0.101217,0.136005 0.156611,0.524029 0.156611,1.097034 v 0.886595 l 0.696648,0.657408 c 0.77376,0.730176 0.771088,0.711965 0.253002,1.7246 -0.189903,0.371182 -0.326607,0.927608 -0.428002,1.742099 l -0.148978,1.196726 0.730743,3.034625 c 0.401909,1.669043 0.861473,3.590973 1.021253,4.270953 0.159779,0.679981 0.33856,1.35141 0.397291,1.492066 l 0.106783,0.255736 0.469786,-0.235482 c 0.817949,-0.409999 1.095034,0.01547 0.419007,0.643398 -0.544449,0.505712 -2.371022,1.833076 -2.80484,2.038267 -0.334036,0.157996 -0.392543,0.158713 -0.547247,0.0067 -0.154705,-0.152003 -0.13612,-0.216075 0.173839,-0.599295 0.190884,-0.236002 0.347063,-0.464353 0.347063,-0.507446 0,-0.132475 -3.732625,-6.316315 -4.138845,-6.856823 -0.315615,-0.419953 -0.454672,-0.514055 -0.801661,-0.542498 -0.571475,-0.04684 -1.038666,0.207435 -2.926676,1.5929 -1.82884,1.342049 -1.917648,1.394892 -2.341298,1.393139 -0.388329,-0.0016 -0.763126,0.27702 -2.525413,1.877408 -3.448959,3.132105 -5.948353,5.816219 -6.769829,7.270161 -1.162591,2.057683 -2.530499,3.071711 -4.595625,3.406731 -0.414539,0.06725 -0.494747,0.04588 -0.60799,-0.162025 z"/>
 <path style="fill:#f44336" d="m 22.471369,22.846252 c 0.0012,0.0072 0.0019,0.01427 0.0034,0.02151 0.05433,0.266923 -0.03559,0.427456 -0.575308,1.027786 -1.332813,1.482488 -2.962461,3.125802 -4.509297,4.580036 0.326948,0.358607 0.747316,0.817053 1.122019,1.211303 1.010072,-1.035092 2.203459,-2.182057 3.542332,-3.397928 1.329045,-1.206947 1.868652,-1.661733 2.220354,-1.811907 -0.594798,-0.571957 -1.268679,-1.166622 -1.803451,-1.630803 z"/>
 <path style="fill:#f44336" d="m 34.524016,18.630617 c -0.85089,0.656605 -1.762304,1.562715 -2.387026,2.176527 l 0.353228,0.815731 c 0.429602,0.991916 0.433303,1.0917 0.0534,1.481311 l -0.300055,0.307765 0.420031,0.738022 c 0.231039,0.405922 0.470809,0.738021 0.532858,0.738021 0.06205,0 0.242288,-0.08336 0.400593,-0.185273 0.34453,-0.221802 0.387039,-0.18647 0.829114,0.689068 l 0.339599,0.672386 -0.223644,0.430695 c -0.219729,0.423184 -0.219852,0.437138 -0.0078,0.788731 0.188358,0.312338 0.269108,0.353821 0.634738,0.325107 0.380271,-0.02986 0.436994,0.0039 0.612395,0.365279 0.216293,0.445651 0.395515,0.494955 0.702435,0.193396 0.151731,-0.149081 0.276358,-0.218726 0.172703,-0.866221 l -0.03262,-0.07815 c -0.05873,-0.140656 -0.237463,-0.812088 -0.397243,-1.492068 -0.159779,-0.679981 -0.619345,-2.60191 -1.021254,-4.270954 z"/>
 <path style="fill:#f44336" d="m 28.961737,15.255299 c -0.710642,0.247689 -1.680275,0.574933 -2.735562,0.919563 -2.325057,0.759304 -3.072154,0.989393 -3.409398,0.995956 l -1.082919,0.343986 -1.598574,1.028005 0.800739,-0.08759 -0.224091,0.315449 1.074429,-0.05071 0.472312,-0.487332 c 0.42367,-0.08271 0.680453,-0.111916 1.07443,-0.143565 0.142716,-0.01146 -0.439835,0.544281 -0.298937,0.53804 0.395044,-0.0175 0.815094,-0.04055 1.24892,-0.06564 0.230449,-0.01333 0.797849,-0.739661 1.026171,-0.801901 0.362247,-0.09875 0.735651,-0.09334 1.114198,-0.03447 0.855122,-0.244373 2.433095,-2.329913 2.538282,-2.469803 z"/>
</svg>
