<svg xmlns="http://www.w3.org/2000/svg" width="48" height="48" version="1">
 <circle style="opacity:0.2" cx="24" cy="25" r="20"/>
 <circle style="fill:#7160bd" cx="24" cy="24" r="20"/>
 <path style="opacity:0.2;fill:none;stroke:#080808;stroke-width:4" d="m 24,5 v 15 c -10,5 -9,18 0,18 9,0 10,-13 0,-18"/>
 <path style="fill:none;stroke:#b2bfd9;stroke-width:4" d="m 24,4 v 15 c -10,5 -9,18 0,18 9,0 10,-13 0,-18"/>
 <rect style="opacity:0.2" width="8" height="4" x="20" y="15" rx="2" ry="2"/>
 <rect style="fill:#f4f4f7" width="8" height="4" x="20" y="14" rx="2" ry="2"/>
 <rect style="opacity:0.2" width="8" height="4" x="20" y="11" rx="2" ry="2"/>
 <rect style="fill:#f4f4f7" width="8" height="4" x="20" y="10" rx="2" ry="2"/>
 <rect style="opacity:0.2" width="8" height="4" x="20" y="7" rx="2" ry="2"/>
 <rect style="fill:#f4f4f7" width="8" height="4" x="20" y="6" rx="2" ry="2"/>
 <path style="opacity:0.1;fill:#f4f4f7" d="M 24 4 A 20 20 0 0 0 4 24 A 20 20 0 0 0 4.0214844 24.582031 A 20 20 0 0 1 24 5 A 20 20 0 0 1 43.978516 24.417969 A 20 20 0 0 0 44 24 A 20 20 0 0 0 24 4 z"/>
</svg>
