<svg xmlns="http://www.w3.org/2000/svg" width="48" height="48" version="1.1">
 <circle style="opacity:0.2" cx="35" cy="9" r="4"/>
 <path style="opacity:0.2" d="m 31.589117,14.202859 c -0.711665,0.03945 -1.348568,0.45463 -1.671875,1.089844 l -5.587164,11.578125 -6.146484,7.02539 -7.962891,-0.884765 C 7.5696628,32.717182 7.1282567,36.693744 9.7792969,36.988015 l 9.0000001,1 c 0.650801,0.07215 1.295707,-0.178812 1.726562,-0.671875 l 7,-8 c 0.109078,-0.124705 0.20224,-0.262479 0.277344,-0.410156 l 4.117188,-8.095703 2.279297,5.017578 c 0.578365,1.270333 2.247125,1.572645 3.234374,0.585937 l 6,-6 c 1.96336,-1.885016 -0.943108,-4.791484 -2.828124,-2.828124 l -3.958985,3.958984 -3.106196,-6.171875 C 33.17966,14.621857 32.412621,14.15729 31.589117,14.202859 Z"/>
 <path style="fill:#548536" d="m 31.589117,13.203125 c -0.711665,0.03945 -1.348568,0.45463 -1.671875,1.089844 l -5.587164,11.578125 -6.146484,7.02539 -7.962891,-0.884765 C 7.5696628,31.717448 7.1282567,35.69401 9.7792969,35.988281 l 9.0000001,1 c 0.650801,0.07215 1.295707,-0.178812 1.726562,-0.671875 l 7,-8 c 0.109078,-0.124705 0.20224,-0.262479 0.277344,-0.410156 l 4.117188,-8.095703 2.279297,5.017578 c 0.578365,1.270333 2.247125,1.572645 3.234374,0.585937 l 6,-6 c 1.96336,-1.885016 -0.943108,-4.791484 -2.828124,-2.828124 l -3.958985,3.958984 -3.106196,-6.171875 c -0.341097,-0.750924 -1.108136,-1.215491 -1.93164,-1.169922 z"/>
 <path style="opacity:0.1;fill:#f4f4f7" d="M 31.589844 13.203125 C 30.878179 13.242575 30.241276 13.657755 29.917969 14.292969 L 24.330078 25.871094 L 18.183594 32.896484 L 10.220703 32.011719 C 8.5574946 31.827099 7.764354 33.323628 8.0585938 34.537109 C 8.2593836 33.6422 9.0044004 32.876707 10.220703 33.011719 L 18.183594 33.896484 L 24.330078 26.871094 L 29.917969 15.292969 C 30.241276 14.657755 30.878179 14.242575 31.589844 14.203125 C 32.413348 14.157556 33.180387 14.622123 33.521484 15.373047 L 36.626953 21.544922 L 40.585938 17.585938 C 41.864279 16.254466 43.607814 17.164216 43.988281 18.474609 C 44.478997 16.736989 42.17559 14.930217 40.585938 16.585938 L 36.626953 20.544922 L 33.521484 14.373047 C 33.180387 13.622123 32.413348 13.157556 31.589844 13.203125 z"/>
 <circle style="fill:#75b74a" cx="35" cy="8" r="4"/>
 <path style="opacity:0.2" d="m 27.029297,12.999734 c -0.173123,-0.0021 -0.34579,0.01822 -0.513672,0.06055 l -8,2 C 17.625357,15.282582 17.000533,16.082131 17,16.999734 v 9 c -0.03825,2.704645 4.03825,2.704645 4,0 v -7.4375 l 4.140625,-1.037109 0.132813,2.363281 c -0.497233,1.475096 -0.967943,2.943686 -1.328126,4.390625 -1.088775,3.799537 0.106164,6.085221 2.414063,6.650391 0.08954,0.09606 0.188326,0.183068 0.294922,0.259765 l 5.738281,4.119141 3.779297,8.503906 c 1.083333,2.437499 4.739583,0.812499 3.65625,-1.625 l -4,-9 c -0.144559,-0.324871 -0.373109,-0.605334 -0.662109,-0.8125 l -4.574219,-3.283203 c 0.947143,-1.614148 1.336881,-3.934861 1.888672,-5.875 0.42845,-1.506208 0.859364,-3.013104 1.291015,-4.519531 0.391215,-1.238031 0.28237,-2.191731 0.0047,-2.894166 -0.619193,-1.47577 -1.4731,-1.624653 -2.872835,-1.949591 l -3.32329,-0.771478 c -6.09e-4,0.002 -0.0013,0.0039 -0.002,0.0059 -0.177895,-0.05474 -0.36262,-0.08432 -0.548762,-0.08793 z"/>
 <path style="fill:#75b74a" d="m 27.029297,12 c -0.173123,-0.0021 -0.34579,0.01822 -0.513672,0.06055 l -8,2 C 17.625357,14.282848 17.000533,15.082397 17,16 v 9 c -0.03825,2.704645 4.03825,2.704645 4,0 v -7.4375 l 4.140625,-1.037109 0.132813,2.363281 c -0.497233,1.475096 -0.967943,2.943686 -1.328126,4.390625 -1.088775,3.799537 0.106164,6.085221 2.414063,6.650391 0.08954,0.09606 0.188326,0.183068 0.294922,0.259765 l 5.738281,4.119141 3.779297,8.503906 c 1.083333,2.437499 4.739583,0.812499 3.65625,-1.625 l -4,-9 C 35.683566,31.862629 35.455016,31.582166 35.166016,31.375 l -4.574219,-3.283203 c 0.947143,-1.614148 1.336881,-3.934861 1.888672,-5.875 0.42845,-1.506208 0.859364,-3.013104 1.291015,-4.519531 0.391215,-1.238031 0.28237,-2.191731 0.0047,-2.894166 -0.619193,-1.47577 -1.4731,-1.624653 -2.872835,-1.949591 l -3.32329,-0.771478 c -6.09e-4,0.002 -0.0013,0.0039 -0.002,0.0059 C 27.400164,12.033195 27.215439,12.003612 27.029297,12 Z"/>
 <path style="opacity:0.2;fill:#f4f4f7" d="M 35 4 A 4 4 0 0 0 31 8 A 4 4 0 0 0 31.035156 8.4941406 A 4 4 0 0 1 35 5 A 4 4 0 0 1 38.964844 8.5058594 A 4 4 0 0 0 39 8 A 4 4 0 0 0 35 4 z"/>
 <path style="opacity:0.2;fill:#f4f4f7" d="M 27.029297 12 C 26.856174 11.9979 26.683507 12.018217 26.515625 12.060547 L 18.515625 14.060547 C 17.625357 14.282845 17.000533 15.082397 17 16 L 17 17 C 17.000533 16.082397 17.625357 15.282845 18.515625 15.060547 L 26.515625 13.060547 C 26.683507 13.018217 26.856174 12.9979 27.029297 13 C 27.215439 13.00361 27.40023 13.033151 27.578125 13.087891 C 27.578825 13.085891 27.579469 13.084031 27.580078 13.082031 L 30.904297 13.853516 C 32.304032 14.178454 33.156198 14.326964 33.775391 15.802734 C 33.877901 16.062059 33.944551 16.367785 33.984375 16.697266 C 34.075709 15.933967 33.972425 15.301181 33.775391 14.802734 C 33.156198 13.326964 32.304032 13.178454 30.904297 12.853516 L 27.580078 12.082031 C 27.579469 12.084031 27.578825 12.085891 27.578125 12.087891 C 27.40023 12.033155 27.215439 12.003612 27.029297 12 z M 25.224609 19.037109 C 24.745956 20.462047 24.293355 21.881127 23.945312 23.279297 C 23.606572 24.461412 23.511967 25.478507 23.580078 26.361328 C 23.624308 25.723351 23.727205 25.040436 23.945312 24.279297 C 24.305496 22.832358 24.776204 21.363768 25.273438 19.888672 L 25.224609 19.037109 z M 30.962891 28.357422 C 30.848325 28.613432 30.726981 28.861413 30.591797 29.091797 L 35.166016 32.375 C 35.455016 32.582166 35.683566 32.862629 35.828125 33.1875 L 39.828125 42.1875 C 39.884031 42.313288 39.919505 42.435627 39.951172 42.556641 C 40.065835 42.152247 40.051003 41.688975 39.828125 41.1875 L 35.828125 32.1875 C 35.683566 31.862629 35.455016 31.582166 35.166016 31.375 L 30.962891 28.357422 z"/>
</svg>
