<svg xmlns="http://www.w3.org/2000/svg" width="48" height="48" version="1">
 <circle style="opacity:0.2" cx="24" cy="25" r="20"/>
 <circle style="fill:#7bb034" cx="24" cy="24" r="20"/>
 <path style="opacity:0.2;fill:#f4f4f7" d="M 24,4 A 20,20 0 0 0 4,24 20,20 0 0 0 4.0215,24.582 20,20 0 0 1 24,5 20,20 0 0 1 43.979,24.418 20,20 0 0 0 44,24 20,20 0 0 0 24,4 Z"/>
 <path style="opacity:0.2" d="m 32.550316,10.99997 c -0.704397,0 -1.304459,0.5042 -1.426403,1.19865 -0.009,0.0507 -0.01519,0.1026 -0.01819,0.15467 l -4.153249,1.283825 c -0.249323,-0.32149 -0.607238,-0.54067 -1.004228,-0.61074 -0.09394,-0.0168 -0.1904,-0.0253 -0.28688,-0.0253 -0.797348,0 -1.476161,0.57073 -1.614045,1.35686 -0.118325,0.66835 0.196697,1.33923 0.774303,1.68657 L 21.40923,35.71975 c -0.490082,0.0279 -0.940119,0.27533 -1.227958,0.66967 l -4.57952,-2.47905 c 0.007,-0.0268 0.01189,-0.0529 0.01609,-0.0786 0.06186,-0.3494 -0.01599,-0.70023 -0.218423,-0.98716 -0.107572,-0.15295 -0.246885,-0.28105 -0.408553,-0.37625 l 0.642186,-3.65045 c 0.194638,-0.0364 0.378322,-0.11572 0.536603,-0.23254 l 5.531931,3.10182 0.169254,-0.96256 -2.530729,-1.41933 0.379901,-2.1313 c 0.529198,-0.0658 0.940029,-0.51893 0.940029,-1.0661 0,-0.59247 -0.481467,-1.07459 -1.073205,-1.07459 -0.522441,0 -0.966272,0.3749 -1.056586,0.9008 0,0 -0.009,0.0706 -0.01239,0.11964 -0.003,0.0178 -0.004,0.0356 -0.004,0.0541 l 0.002,0.0379 c 1.79e-4,0.005 6.39e-4,0.01 9.09e-4,0.0147 l -2.013054,0.65481 c -0.01049,-0.0168 -0.02139,-0.0328 -0.03238,-0.0483 -0.201993,-0.28959 -0.504792,-0.4826 -0.851065,-0.54313 -0.07315,-0.0133 -0.150815,-0.0198 -0.230984,-0.0198 -0.641727,0 -1.187644,0.45874 -1.297994,1.08963 -0.09724,0.54246 0.164526,1.09167 0.632632,1.36713 l -0.640777,3.64567 c -0.54139,0.096 -0.966982,0.51476 -1.061882,1.06591 -0.06276,0.3471 0.01449,0.6977 0.217193,0.98681 0.202233,0.28899 0.505112,0.48194 0.852474,0.54331 0.33384,0.0597 0.704887,-0.0208 0.990787,-0.22493 l 4.78698,2.59108 c -0.02109,0.36776 0.07985,0.72884 0.290937,1.03088 0.251861,0.35966 0.628025,0.59959 1.058704,0.67498 0.09674,0.0173 0.19047,0.0255 0.2867,0.0255 0.797109,0 1.475862,-0.57047 1.613865,-1.35492 0.009,-0.0504 0.01479,-0.10002 0.01819,-0.14653 l 4.291616,-1.63631 c 0.214555,0.23704 0.499936,0.39604 0.819405,0.45271 0.08285,0.0142 0.167814,0.0216 0.252211,0.0216 0.704387,0 1.30445,-0.50426 1.426393,-1.19883 0.06706,-0.38105 -0.01839,-0.76562 -0.240878,-1.08397 -0.08325,-0.11827 -0.181057,-0.22165 -0.291647,-0.30864 l 3.505351,-19.88997 c 0.553821,-0.13494 0.978185,-0.58147 1.078152,-1.15281 0.139212,-0.78734 -0.387866,-1.54124 -1.175081,-1.68054 l -10e-4,-3.7e-4 c -0.08165,-0.014 -0.168624,-0.0214 -0.250962,-0.0214 z m -1.9e-4,0.92221 c 0.03128,0 0.06246,0.003 0.09284,0.008 0.08635,0.0151 0.167045,0.0539 0.248664,0.1207 0.143919,0.1248 0.210927,0.30819 0.178807,0.49074 -0.03258,0.184 -0.160589,0.33876 -0.33409,0.40315 -0.08565,0.0324 -0.182675,0.0417 -0.276965,0.025 -0.274688,-0.0481 -0.462899,-0.30298 -0.433318,-0.57747 l 0.007,-0.0375 c 0.04587,-0.25069 0.263534,-0.4327 0.517324,-0.4327 z m -1.039776,1.53065 c 0.07086,0.0736 0.149616,0.13929 0.235582,0.1968 l -3.491919,19.81068 c -0.600562,0.10052 -1.075864,0.56299 -1.183926,1.17564 -0.006,0.0378 -0.01109,0.0761 -0.01429,0.11415 l -4.248983,1.62144 c -0.07985,-0.10704 -0.171182,-0.20257 -0.272718,-0.28582 l 3.439446,-19.836825 c 0.661414,-0.12685 1.186534,-0.65 1.30402,-1.3204 0.01009,-0.0563 0.01729,-0.11306 0.02139,-0.16972 z m -5.849192,0.470445 c 0.04327,0 0.08465,0.004 0.126461,0.0119 0.169883,0.0297 0.324426,0.12335 0.435256,0.26422 0.125811,0.15936 0.178778,0.35443 0.150166,0.55039 l -0.005,0.0347 c -0.05467,0.27183 -0.262375,0.48779 -0.535363,0.55375 -0.117117,0.0294 -0.204232,0.0285 -0.293946,0.0124 -0.09744,-0.0174 -0.18964,-0.0547 -0.273428,-0.11114 -0.236771,-0.15911 -0.358284,-0.44279 -0.309515,-0.72223 0.06136,-0.3442 0.358135,-0.59393 0.705866,-0.59393 z m -6.07436,11.895815 c 0.1595,0 0.289168,0.12971 0.289168,0.28882 0,0.15984 -0.129668,0.28989 -0.289168,0.28989 -0.15937,0 -0.289168,-0.13005 -0.289168,-0.28989 0,-0.15911 0.129798,-0.28882 0.289168,-0.28882 z m -0.807552,0.99159 c 0.03578,0.0399 0.07795,0.0809 0.131587,0.12653 0.04127,0.0337 0.08285,0.0635 0.124862,0.0894 L 18.6924,28.94218 16.677927,27.81219 c 0.004,-0.02 0.009,-0.0402 0.01239,-0.0607 0.01449,-0.0849 0.02009,-0.17382 0.01609,-0.26564 z m -3.390288,0.31537 c 0.02368,0 0.04817,0.002 0.06936,0.006 0.106004,0.0188 0.194928,0.0759 0.256629,0.1637 0.05826,0.0832 0.08265,0.18327 0.06986,0.2798 l -0.01309,0.0396 c -0.02508,0.10789 -0.09444,0.19676 -0.195787,0.25113 l -0.09124,0.0359 c -0.07605,0.0213 -0.123663,0.02 -0.162538,0.0135 -0.05337,-0.009 -0.106723,-0.0315 -0.153694,-0.0634 -0.130278,-0.0882 -0.196846,-0.24436 -0.169433,-0.39731 l 3.6e-4,-10e-4 c 0.03288,-0.1898 0.196686,-0.32758 0.389625,-0.32758 z m -1.070207,6.07818 c 0.02219,0 0.04607,0.003 0.06956,0.007 0.05337,0.01 0.106733,0.0321 0.155632,0.0649 0.04277,0.0298 0.07585,0.062 0.101526,0.0986 0.05806,0.0825 0.08195,0.18201 0.06776,0.28193 -0.008,0.0181 -0.01549,0.0366 -0.01999,0.0529 -0.03408,0.11635 -0.11052,0.2059 -0.217013,0.2529 -0.08774,0.0391 -0.162618,0.0416 -0.227087,0.0315 -0.103955,-0.0178 -0.194408,-0.0757 -0.25575,-0.16423 -0.06076,-0.0863 -0.08405,-0.19113 -0.06526,-0.29697 0.02568,-0.15077 0.139273,-0.26913 0.314463,-0.31359 0.03088,-0.008 0.05766,-0.0147 0.07625,-0.0147 z m 14.187463,1.14661 c 0.296894,0 0.537662,0.2408 0.537662,0.53801 0,0.29708 -0.240768,0.538 -0.537662,0.538 -0.297023,0 -0.537841,-0.24092 -0.537841,-0.538 0,-0.29721 0.240818,-0.53801 0.537841,-0.53801 z m -0.008,0.008 c 0.03308,-4.5e-4 0.06316,0.003 0.09164,0.007 0.06016,0.0109 0.117036,0.032 0.168734,0.0621 -0.05167,-0.0302 -0.108602,-0.0514 -0.168734,-0.0623 -0.02838,-0.005 -0.05856,-0.007 -0.09164,-0.007 z m -0.109651,0.0127 c -0.04947,0.0104 -0.09614,0.0277 -0.139012,0.0506 0.04297,-0.0229 0.08954,-0.0402 0.139012,-0.0506 z m -0.05447,1.01619 c 0.02379,0.008 0.04807,0.0143 0.07285,0.0188 0.02668,0.005 0.05636,0.007 0.08575,0.007 -0.02948,-4.5e-4 -0.05896,-0.003 -0.08575,-0.007 -0.02478,-0.004 -0.04907,-0.0106 -0.07285,-0.0186 z m -6.831719,1.25138 c 0.04177,0 0.08465,0.004 0.12592,0.0113 0.15938,0.0279 0.30256,0.11069 0.413161,0.23803 l 0.03398,0.0393 c 0.03788,0.0509 0.06846,0.10523 0.09164,0.16334 0.04527,0.11055 0.06256,0.22398 0.05187,0.33803 l -0.01149,0.0131 v 0.0552 c -0.07545,0.37766 -0.437875,0.63856 -0.829668,0.56897 -0.188472,-0.0331 -0.352728,-0.13822 -0.463199,-0.29661 -0.07565,-0.1074 -0.119515,-0.23516 -0.12664,-0.36757 -0.003,-0.0679 -8.1e-4,-0.12184 0.007,-0.16884 0.01339,-0.076 0.04057,-0.15149 0.08115,-0.22422 0.125931,-0.22738 0.365061,-0.36924 0.626097,-0.37006 z"/>
 <path style="fill:#f4f4f7" d="m 32.550316,9.999985 c -0.704397,0 -1.304459,0.5042 -1.426403,1.19865 -0.009,0.0507 -0.01519,0.1026 -0.01819,0.15467 l -4.153249,1.283825 c -0.249323,-0.32149 -0.607238,-0.54067 -1.004228,-0.61074 -0.09394,-0.0168 -0.1904,-0.0253 -0.28688,-0.0253 -0.797348,0 -1.476161,0.57073 -1.614045,1.35686 -0.118325,0.66835 0.196697,1.33923 0.774303,1.68657 L 21.40923,34.719765 c -0.490082,0.0279 -0.940119,0.27533 -1.227958,0.66967 l -4.57952,-2.47905 c 0.007,-0.0268 0.01189,-0.0529 0.01609,-0.0786 0.06186,-0.3494 -0.01599,-0.70023 -0.218423,-0.98716 -0.107572,-0.15295 -0.246885,-0.28105 -0.408553,-0.37625 l 0.642186,-3.65045 c 0.194638,-0.0364 0.378322,-0.11572 0.536603,-0.23254 l 5.531931,3.10182 0.169254,-0.96256 -2.530729,-1.41933 0.379901,-2.1313 c 0.529198,-0.0658 0.940029,-0.51893 0.940029,-1.0661 0,-0.59247 -0.481467,-1.07459 -1.073205,-1.07459 -0.522441,0 -0.966272,0.3749 -1.056586,0.9008 0,0 -0.009,0.0706 -0.01239,0.11964 -0.003,0.0178 -0.004,0.0356 -0.004,0.0541 l 0.002,0.0379 c 1.79e-4,0.005 6.39e-4,0.01 9.09e-4,0.0147 l -2.013054,0.65481 c -0.01049,-0.0168 -0.02139,-0.0328 -0.03238,-0.0483 -0.201993,-0.28959 -0.504792,-0.4826 -0.851065,-0.54313 -0.07315,-0.0133 -0.150815,-0.0198 -0.230984,-0.0198 -0.641727,0 -1.187644,0.45874 -1.297994,1.08963 -0.09724,0.54246 0.164526,1.09167 0.632632,1.36713 l -0.640777,3.64567 c -0.54139,0.096 -0.966982,0.51476 -1.061882,1.06591 -0.06276,0.3471 0.01449,0.6977 0.217193,0.98681 0.202233,0.28899 0.505112,0.48194 0.852474,0.54331 0.33384,0.0597 0.704887,-0.0208 0.990787,-0.22493 l 4.78698,2.59108 c -0.02109,0.36776 0.07985,0.72884 0.290937,1.03088 0.251861,0.35966 0.628025,0.59959 1.058704,0.67498 0.09674,0.0173 0.19047,0.0255 0.2867,0.0255 0.797109,0 1.475862,-0.57047 1.613865,-1.35492 0.009,-0.0504 0.01479,-0.10002 0.01819,-0.14653 l 4.291616,-1.63631 c 0.214555,0.23704 0.499936,0.39604 0.819405,0.45271 0.08285,0.0142 0.167814,0.0216 0.252211,0.0216 0.704387,0 1.30445,-0.50426 1.426393,-1.19883 0.06706,-0.38105 -0.01839,-0.76562 -0.240878,-1.08397 -0.08325,-0.11827 -0.181057,-0.22165 -0.291647,-0.30864 l 3.505351,-19.88997 c 0.553821,-0.13494 0.978185,-0.58147 1.078152,-1.15281 0.139212,-0.78734 -0.387866,-1.54124 -1.175081,-1.68054 l -10e-4,-3.7e-4 c -0.08165,-0.014 -0.168624,-0.0214 -0.250962,-0.0214 z m -1.9e-4,0.92221 c 0.03128,0 0.06246,0.003 0.09284,0.008 0.08635,0.0151 0.167045,0.0539 0.248664,0.1207 0.143919,0.1248 0.210927,0.30819 0.178807,0.49074 -0.03258,0.184 -0.160589,0.33876 -0.33409,0.40315 -0.08565,0.0324 -0.182675,0.0417 -0.276965,0.025 -0.274688,-0.0481 -0.462899,-0.30298 -0.433318,-0.57747 l 0.007,-0.0375 c 0.04587,-0.25069 0.263534,-0.4327 0.517324,-0.4327 z m -1.039776,1.53065 c 0.07086,0.0736 0.149616,0.13929 0.235582,0.1968 l -3.491919,19.81068 c -0.600562,0.10052 -1.075864,0.56299 -1.183926,1.17564 -0.006,0.0378 -0.01109,0.0761 -0.01429,0.11415 l -4.248983,1.62144 c -0.07985,-0.10704 -0.171182,-0.20257 -0.272718,-0.28582 L 25.973542,15.24891 c 0.661414,-0.12685 1.186534,-0.65 1.30402,-1.3204 0.01009,-0.0563 0.01729,-0.11306 0.02139,-0.16972 z m -5.849192,0.470445 c 0.04327,0 0.08465,0.004 0.126461,0.0119 0.169883,0.0297 0.324426,0.12335 0.435256,0.26422 0.125811,0.15936 0.178778,0.35443 0.150166,0.55039 l -0.005,0.0347 c -0.05467,0.27183 -0.262375,0.48779 -0.535363,0.55375 -0.117117,0.0294 -0.204232,0.0285 -0.293946,0.0124 -0.09744,-0.0174 -0.18964,-0.0547 -0.273428,-0.11114 -0.236771,-0.15911 -0.358284,-0.44279 -0.309515,-0.72223 0.06136,-0.3442 0.358135,-0.59393 0.705866,-0.59393 z m -6.07436,11.895815 c 0.1595,0 0.289168,0.12971 0.289168,0.28882 0,0.15984 -0.129668,0.28989 -0.289168,0.28989 -0.15937,0 -0.289168,-0.13005 -0.289168,-0.28989 0,-0.15911 0.129798,-0.28882 0.289168,-0.28882 z m -0.807552,0.99159 c 0.03578,0.0399 0.07795,0.0809 0.131587,0.12653 0.04127,0.0337 0.08285,0.0635 0.124862,0.0894 l -0.343295,1.91557 -2.014473,-1.12999 c 0.004,-0.02 0.009,-0.0402 0.01239,-0.0607 0.01449,-0.0849 0.02009,-0.17382 0.01609,-0.26564 z m -3.390288,0.31537 c 0.02368,0 0.04817,0.002 0.06936,0.006 0.106004,0.0188 0.194928,0.0759 0.256629,0.1637 0.05826,0.0832 0.08265,0.18327 0.06986,0.2798 l -0.01309,0.0396 c -0.02508,0.10789 -0.09444,0.19676 -0.195787,0.25113 l -0.09124,0.0359 c -0.07605,0.0213 -0.123663,0.02 -0.162538,0.0135 -0.05337,-0.009 -0.106723,-0.0315 -0.153694,-0.0634 -0.130278,-0.0882 -0.196846,-0.24436 -0.169433,-0.39731 l 3.6e-4,-0.001 c 0.03288,-0.1898 0.196686,-0.32758 0.389625,-0.32758 z m -1.070207,6.07818 c 0.02219,0 0.04607,0.003 0.06956,0.007 0.05337,0.01 0.106733,0.0321 0.155632,0.0649 0.04277,0.0298 0.07585,0.062 0.101526,0.0986 0.05806,0.0825 0.08195,0.18201 0.06776,0.28193 -0.008,0.0181 -0.01549,0.0366 -0.01999,0.0529 -0.03408,0.11635 -0.11052,0.2059 -0.217013,0.2529 -0.08774,0.0391 -0.162618,0.0416 -0.227087,0.0315 -0.103955,-0.0178 -0.194408,-0.0757 -0.25575,-0.16423 -0.06076,-0.0863 -0.08405,-0.19113 -0.06526,-0.29697 0.02568,-0.15077 0.139273,-0.26913 0.314463,-0.31359 0.03088,-0.008 0.05766,-0.0147 0.07625,-0.0147 z m 14.187463,1.14661 c 0.296894,0 0.537662,0.2408 0.537662,0.53801 0,0.29708 -0.240768,0.538 -0.537662,0.538 -0.297023,0 -0.537841,-0.24092 -0.537841,-0.538 0,-0.29721 0.240818,-0.53801 0.537841,-0.53801 z m -0.008,0.008 c 0.03308,-4.5e-4 0.06316,0.003 0.09164,0.007 0.06016,0.0109 0.117036,0.032 0.168734,0.0621 -0.05167,-0.0302 -0.108602,-0.0514 -0.168734,-0.0623 -0.02838,-0.005 -0.05856,-0.007 -0.09164,-0.007 z m -0.109651,0.0127 c -0.04947,0.0104 -0.09614,0.0277 -0.139012,0.0506 0.04297,-0.0229 0.08954,-0.0402 0.139012,-0.0506 z m -0.05447,1.01619 c 0.02379,0.008 0.04807,0.0143 0.07285,0.0188 0.02668,0.005 0.05636,0.007 0.08575,0.007 -0.02948,-4.5e-4 -0.05896,-0.003 -0.08575,-0.007 -0.02478,-0.004 -0.04907,-0.0106 -0.07285,-0.0186 z m -6.831719,1.25138 c 0.04177,0 0.08465,0.004 0.12592,0.0113 0.15938,0.0279 0.30256,0.11069 0.413161,0.23803 l 0.03398,0.0393 c 0.03788,0.0509 0.06846,0.10523 0.09164,0.16334 0.04527,0.11055 0.06256,0.22398 0.05187,0.33803 l -0.01149,0.0131 v 0.0552 c -0.07545,0.37766 -0.437875,0.63856 -0.829668,0.56897 -0.188472,-0.0331 -0.352728,-0.13822 -0.463199,-0.29661 -0.07565,-0.1074 -0.119515,-0.23516 -0.12664,-0.36757 -0.003,-0.0679 -8.1e-4,-0.12184 0.007,-0.16884 0.01339,-0.076 0.04057,-0.15149 0.08115,-0.22422 0.125931,-0.22738 0.365061,-0.36924 0.626097,-0.37006 z"/>
</svg>
