<svg xmlns="http://www.w3.org/2000/svg" width="48" height="48" version="1">
 <rect style="opacity:0.2" width="44" height="32" x="2" y="10" rx="3" ry="3"/>
 <path style="fill:#ff8915" d="M 2,35 V 38 C 2,39.662 3.338,41 5,41 H 43 C 44.662,41 46,39.662 46,38 V 35 L 44,37 H 5 Z"/>
 <rect style="opacity:0.2" width="44" height="32" x="2" y="7" rx="3" ry="3"/>
 <rect style="fill:#b2bfd9" width="44" height="32" x="2" y="6" rx="3" ry="3"/>
 <g style="opacity:0.1">
  <rect width="9" height="9" x="37" y="29" rx="3" ry="3"/>
  <rect width="3" height="3" x="43" y="29"/>
  <rect width="3" height="3" x="37" y="35"/>
 </g>
 <path style="fill:#ff8915" d="M 30,10 A 1,1 0 0 0 29,11 1,1 0 0 0 30,12 1,1 0 0 0 31,11 1,1 0 0 0 30,10 Z M 30,14 A 1,1 0 0 0 29,15 1,1 0 0 0 30,16 1,1 0 0 0 31,15 1,1 0 0 0 30,14 Z M 36,20 A 1,1 0 0 0 35,21 1,1 0 0 0 36,22 1,1 0 0 0 37,21 1,1 0 0 0 36,20 Z M 40,20 A 1,1 0 0 0 39,21 1,1 0 0 0 40,22 1,1 0 0 0 41,21 1,1 0 0 0 40,20 Z"/>
 <path style="fill:#ff8915" d="M 30,16 C 32.774,16 35,18.227 35,21 H 37 C 37,17.146 33.855,14 30,14 Z"/>
 <rect style="fill:#ff8915" width="10" height="2" x="7" y="9" ry="0"/>
 <path style="fill:#9c9891" d="M 7,13 V 15 H 19 V 13 Z M 7,17 V 19 H 17 V 17 Z M 7,21 V 23 H 19 V 21 Z M 7,25 V 27 H 19 V 25 Z M 29,25 V 27 H 37 V 25 Z M 7,29 V 31 H 15 V 29 Z M 29,29 V 31 H 39 V 29 Z M 7,33 V 35 H 19 V 33 Z M 29,33 V 35 H 39 V 33 Z"/>
 <circle style="fill:#ff8915" cx="31" cy="20" r="2"/>
 <path style="fill:#ff8915" d="M 29,14 H 30 V 15.014 H 29 Z M 36,21 H 37 V 22 H 36 Z M 40,21 H 41 V 22 H 40 Z M 29,10 H 30 V 11 H 29 Z"/>
 <path style="fill:#ff8915" d="M 30,12 C 35,12 39,16 39,21 H 41 C 41,15 36,10 30,10 Z"/>
 <path style="opacity:0.2;fill:#f4f4f7" d="M 5,6 C 3.338,6 2,7.338 2,9 V 10 C 2,8.338 3.338,7 5,7 H 43 C 44.662,7 46,8.338 46,10 V 9 C 46,7.338 44.662,6 43,6 Z"/>
 <path style="opacity:0.1" d="M 40,30 C 38.338,30 37,31.338 37,33 V 39 L 46,30 Z"/>
 <path style="fill:#fafafa" d="M 40,29 C 38.338,29 37,30.338 37,32 V 38 L 46,29 Z"/>
</svg>
