<svg xmlns="http://www.w3.org/2000/svg" width="48" height="48" version="1">
 <rect style="fill:#8e8e8e" width="40" height="40" x="4" y="4" rx="2" ry="2"/>
 <path fill="#fff" style="opacity:0.1" d="m6 4c-1.108 0-2 0.892-2 2v1c0-1.108 0.892-2 2-2h36c1.108 0 2 0.892 2 2v-1c0-1.108-0.892-2-2-2h-36z"/>
 <path opacity=".2" d="m6 45c-1.108 0-2-0.892-2-2v-1c0 1.108 0.892 2 2 2h36c1.108 0 2-0.892 2-2v1c0 1.108-0.892 2-2 2h-36z"/>
 <path style="fill:#3f3f3f" d="M 23,18 V 28 H 9 v 2 H 25 V 20 H 39 V 18 H 25 Z"/>
 <path style="opacity:0.2" d="m 24,17 a 3,3 0 0 0 -3,3 3,3 0 0 0 3,3 3,3 0 0 0 3,-3 3,3 0 0 0 -3,-3 z m 15,0 a 3,3 0 0 0 -3,3 3,3 0 0 0 3,3 3,3 0 0 0 3,-3 3,3 0 0 0 -3,-3 z M 9,27 a 3,3 0 0 0 -3,3 3,3 0 0 0 3,3 3,3 0 0 0 3,-3 3,3 0 0 0 -3,-3 z m 15,0 a 3,3 0 0 0 -3,3 3,3 0 0 0 3,3 3,3 0 0 0 3,-3 3,3 0 0 0 -3,-3 z"/>
 <path style="fill:#f4f4f7" d="M 24 16 A 3 3 0 0 0 21 19 A 3 3 0 0 0 24 22 A 3 3 0 0 0 27 19 A 3 3 0 0 0 24 16 z M 39 16 A 3 3 0 0 0 36 19 A 3 3 0 0 0 39 22 A 3 3 0 0 0 42 19 A 3 3 0 0 0 39 16 z M 9 26 A 3 3 0 0 0 6 29 A 3 3 0 0 0 9 32 A 3 3 0 0 0 12 29 A 3 3 0 0 0 9 26 z M 24 26 A 3 3 0 0 0 21 29 A 3 3 0 0 0 24 32 A 3 3 0 0 0 27 29 A 3 3 0 0 0 24 26 z"/>
</svg>
