<svg xmlns="http://www.w3.org/2000/svg" width="48" height="48" x="0" y="0" version="1.1">
 <rect style="opacity:0.2" width="40" height="40" x="4" y="5" rx="2" ry="2"/>
 <rect style="fill:#e83d5e" width="40" height="40" x="4" y="4" rx="2" ry="2"/>
 <path fill="#fff" opacity=".2" d="m6 4c-1.108 0-2 0.892-2 2v1c0-1.108 0.892-2 2-2h36c1.108 0 2 0.892 2 2v-1c0-1.108-0.892-2-2-2h-36z"/>
 <path style="opacity:0.2" d="M 3.5,31 C 2.669,31 2,31.669 2,32.5 V 37 41.5 C 2,42.331 2.669,43 3.5,43 H 8 12.5 C 13.331,43 14,42.331 14,41.5 V 37 32.5 C 14,31.669 13.331,31 12.5,31 H 8 Z m 16,0 C 18.669,31 18,31.669 18,32.5 v 4.5 4.5 c 0,0.831 0.669,1.5 1.5,1.5 H 24 28.5 C 29.331,43 30,42.331 30,41.5 V 37 32.5 C 30,31.669 29.331,31 28.5,31 H 24 Z m 16,0 C 34.669,31 34,31.669 34,32.5 v 4.5 4.5 c 0,0.831 0.669,1.5 1.5,1.5 H 40 44.5 C 45.331,43 46,42.331 46,41.5 V 37 32.5 C 46,31.669 45.331,31 44.5,31 H 40 Z M 5,34 h 2 v 2.625 L 11,34 v 6 L 7,37.375 V 40 H 5 v -3 z m 17,0 5,3 -5,3 z m 15,0 4,2.625 V 34 h 2 v 3 3 H 41 V 37.375 L 37,40 Z"/>
 <path style="fill:#f4f4f7" d="M 19.5,30 C 18.669,30 18,30.669 18,31.5 v 4.5 4.5 c 0,0.831 0.669,1.5 1.5,1.5 H 24 28.5 C 29.331,42 30,41.331 30,40.5 V 36 31.5 C 30,30.669 29.331,30 28.5,30 H 24 Z m 2.5,3 5,3 -5,3 z"/>
 <path style="fill:#f4f4f7" d="M 35.5,30 C 34.669,30 34,30.669 34,31.5 v 4.5 4.5 c 0,0.831 0.669,1.5 1.5,1.5 H 40 44.5 C 45.331,42 46,41.331 46,40.5 V 36 31.5 C 46,30.669 45.331,30 44.5,30 H 40 Z m 1.5,3 4,2.625 V 33 h 2 v 3 3 H 41 V 36.375 L 37,39 Z"/>
 <path style="fill:#f4f4f7" d="m 12.5,30 c 0.831,0 1.5,0.669 1.5,1.5 V 36 40.5 C 14,41.331 13.331,42 12.5,42 H 8 3.5 C 2.669,42 2,41.331 2,40.5 V 36 31.5 C 2,30.669 2.669,30 3.5,30 H 8 Z M 11,33 7,35.625 V 33 H 5 v 3 3 H 7 V 36.375 L 11,39 Z"/>
 <path style="opacity:0.2" d="M 20,9.9772423 V 13 19.263672 C 19.518613,19.091194 19.011349,19.002027 18.5,19 16.014719,19 14,21.014719 14,23.5 14,25.985281 16.014719,28 18.5,28 20.985281,28 23,25.985281 23,23.5 V 13 h 8 v 6.263672 C 30.518613,19.091194 30.011349,19.002027 29.5,19 27.014719,19 25,21.014719 25,23.5 25,25.985281 27.014719,28 29.5,28 31.985281,28 34,25.985281 34,23.5 V 13 10.044177 C 34,8 31.994645,8 31.994645,8 H 31 V 8.00781 H 23 V 8 H 22.155288 C 20,8 20,10 20,9.9772423 Z"/>
 <path style="fill:#ff8fa0" d="M 20,8.9772423 V 12 18.263672 C 19.518613,18.091194 19.011349,18.002027 18.5,18 16.014719,18 14,20.014719 14,22.5 14,24.985281 16.014719,27 18.5,27 20.985281,27 23,24.985281 23,22.5 V 12 h 8 v 6.263672 C 30.518613,18.091194 30.011349,18.002027 29.5,18 27.014719,18 25,20.014719 25,22.5 25,24.985281 27.014719,27 29.5,27 31.985281,27 34,24.985281 34,22.5 V 12 9.0441767 C 34,7 31.994645,7 31.994645,7 H 31 v 0.00781 H 23 V 7 H 22.155288 C 20,7 20,9 20,8.9772423 Z"/>
 <path style="opacity:0.2;fill:#f4f4f7" d="M 22.15625 7 C 20.000962 7 20 8.9993202 20 8.9765625 L 20 9.9765625 C 20 9.9993202 20.000962 8 22.15625 8 L 23 8 L 23 8.0078125 L 31 8.0078125 L 31 8 L 31.994141 8 C 31.994141 8 34 8.0007449 34 10.044922 L 34 9.0449219 C 34 7.0007452 31.994141 7 31.994141 7 L 31 7 L 31 7.0078125 L 23 7.0078125 L 23 7 L 22.15625 7 z M 18.5 18 C 16.014719 18 14 20.014719 14 22.5 C 14 22.671403 14.032122 22.83358 14.050781 23 C 14.302677 20.753391 16.186122 19 18.5 19 C 19.011349 19.002027 19.518613 19.091194 20 19.263672 L 20 18.263672 C 19.518613 18.091194 19.011349 18.002027 18.5 18 z M 29.5 18 C 27.014719 18 25 20.014719 25 22.5 C 25 22.671403 25.032122 22.83358 25.050781 23 C 25.302677 20.753391 27.186122 19 29.5 19 C 30.011349 19.002027 30.518613 19.091194 31 19.263672 L 31 18.263672 C 30.518613 18.091194 30.011349 18.002027 29.5 18 z"/>
</svg>
