<svg xmlns="http://www.w3.org/2000/svg" width="48" height="48" version="1.1">
 <path style="opacity:0.2" d="M 4.2519531,9.0008345 C 3.2399357,15.227783 5.4788532,20.250423 7.1308594,22.649272 6.2386993,25.067318 6.1887849,27.291884 6,28.422709 6.0834765,32.735338 18.643724,45.303222 24.183594,44.989115 29.313605,45.416533 41.740631,33.141008 42,28.422709 41.780624,26.358761 41.362906,24.524987 40.708984,22.889506 42.370695,20.591156 44.79255,15.427672 43.748047,9.0008345 38.240645,9.156343 33.54513,11.365459 30.146484,14.258646 28.422316,13.743053 26.481269,13.322179 24.275391,13.000834 21.691188,13.17201 19.494432,13.54606 17.605469,14.061381 14.227113,11.268065 9.6304569,9.1527033 4.2519531,9.0008345 Z"/>
 <path style="fill:#d79f87" d="M 30,13.375 C 33.409058,10.422684 38.163495,8.1576628 43.747194,8 c 1.059558,6.519469 -1.450093,11.753051 -3.112572,14"/>
 <path style="fill:#946e5d" d="M 32,13.902217 C 35.045471,11.820225 38.036547,10.337937 42,10 c -0.239321,6.842031 -1.639773,7.734403 -3.077968,10"/>
 <path style="fill:#d79f87" d="M 18,13.375 C 14.590942,10.422684 9.8365054,8.1576628 4.2528062,8 3.1932477,14.519469 5.7028987,19.753051 7.3653784,22"/>
 <path style="fill:#f4f4f7;opacity:0.2" d="M 4.2519531 8 C 4.0452153 9.2720588 3.9798416 10.490948 4.0117188 11.650391 C 4.0325705 10.79488 4.1038006 9.9115831 4.2519531 9 C 9.6304569 9.1518688 14.227113 11.267231 17.605469 14.060547 C 19.494432 13.545226 21.691188 13.171176 24.275391 13 C 26.481269 13.321345 28.422316 13.742219 30.146484 14.257812 C 33.54513 11.364625 38.240645 9.1555085 43.748047 9 C 43.896404 9.9128423 43.969629 10.797019 43.990234 11.654297 C 44.02246 10.493035 43.954906 9.2728067 43.748047 8 C 38.240645 8.1555085 33.54513 10.364626 30.146484 13.257812 C 28.422316 12.74222 26.481269 12.321345 24.275391 12 C 21.691188 12.171176 19.494432 12.545226 17.605469 13.060547 C 14.227113 10.267231 9.6304569 8.1518688 4.2519531 8 z M 6.9140625 22.302734 C 6.2355425 24.461274 6.1715609 26.394222 6 27.421875 C 6.0030408 27.578973 6.0272894 27.74975 6.0625 27.927734 C 6.2155488 26.71991 6.3304684 24.817759 7.1308594 22.648438 C 7.0608175 22.546731 6.9859219 22.413766 6.9140625 22.302734 z M 40.939453 22.537109 C 40.863237 22.650011 40.782585 22.786873 40.708984 22.888672 C 41.308542 24.388187 41.700026 26.064401 41.931641 27.921875 C 41.966998 27.747334 41.991298 27.58017 42 27.421875 C 41.80878 25.622823 41.457143 24.007511 40.939453 22.537109 z"/>
 <path style="fill:#d79f87" d="M 6,27.42175 C 6.5130323,24.348676 5.95007,13.213867 24.27551,12 36.681077,13.807201 41.061395,18.59109 42,27.42175 41.740631,32.140049 29.313683,44.416534 24.183672,43.989116 18.643802,44.303223 6.0834765,31.734379 6,27.42175 Z"/>
 <path style="fill:#946e5d" d="M 16,13.902217 C 12.954529,11.820225 9.9634531,10.337937 6,10 c 0.2393208,6.842031 1.6397726,7.734403 3.0779679,10"/>
 <path style="fill:#946e5d" d="m 28,35.000893 a 4,3.9991074 0 1 1 -8,0 4,3.9991074 0 1 1 8,0 z"/>
 <path style="opacity:0.1" d="m 19.533203,29.013156 c -2.996066,0.108309 -7.182117,0.894231 -8.199219,4.310547 -1.091709,3.66692 1.260834,3.758889 1.646485,6.238281 0.38565,2.479397 -2.28125,1.851562 -2.28125,1.851562 l 0.269531,0.550782 c 0,0 2.597804,0.490479 2.681641,-2.166016 0.08384,-2.656494 -2.394832,-3.857468 -0.785157,-6.474609 1.609675,-2.617137 7.59961,-1.083985 7.59961,-1.083985 l 2.234375,-3.113281 c 0,0 -1.368376,-0.178266 -3.166016,-0.113281 z m 8.933594,0 c -1.79764,-0.06499 -3.166016,0.113281 -3.166016,0.113281 l 2.234375,3.113281 c 0,0 5.989935,-1.533152 7.59961,1.083985 1.609675,2.617141 -0.868997,3.818115 -0.785157,6.474609 0.08384,2.656495 2.681641,2.166016 2.681641,2.166016 l 0.269531,-0.550782 c 0,0 -2.6669,0.627835 -2.28125,-1.851562 0.385651,-2.479392 2.738194,-2.571361 1.646485,-6.238281 -1.017102,-3.416316 -5.203153,-4.202238 -8.199219,-4.310547 z"/>
 <path style="fill:#4a3025" d="m 22.7,28.127861 c 0,0 -9.738365,-1.270137 -11.365727,4.195968 -1.091709,3.66692 1.260448,3.760159 1.646099,6.239551 C 13.366022,41.042777 10.7,40.413088 10.7,40.413088 l 0.26828,0.550977 c 0,0 2.598953,0.491945 2.68279,-2.16455 0.08384,-2.656494 -2.395124,-3.858545 -0.785449,-6.475686 1.609675,-2.617137 7.599471,-1.082843 7.599471,-1.082843 z"/>
 <path style="opacity:0.1" d="m 15.5,15 c -4.140207,0 -7.5005391,3.360998 -7.5,7.5 -9.592e-4,4.139361 3.359528,7.5 7.5,7.5 4.140208,0 7.500539,-3.361002 7.5,-7.5 9.59e-4,-4.139361 -3.359527,-7.5 -7.5,-7.5 z m 0,2 c 3.036347,0 5.500703,2.464469 5.5,5.5 3.95e-4,3.035265 -2.463848,5.5 -5.5,5.5 C 12.463654,28 9.9992972,25.535531 10,22.5 9.9996052,19.464732 12.463848,17 15.5,17 Z"/>
 <path style="fill:#1b65cf" d="M 15.5 14 C 11.359793 14 7.9994609 17.360998 8 21.5 C 7.9990408 25.639361 11.359528 29 15.5 29 C 19.640208 29 23.000539 25.638998 23 21.5 C 23.000959 17.360639 19.640473 14 15.5 14 z M 15.5 16 C 18.536347 16 21.000703 18.464469 21 21.5 C 21.000395 24.535265 18.536152 27 15.5 27 C 12.463654 27 9.9992972 24.535531 10 21.5 C 9.9996052 18.464732 12.463848 16 15.5 16 z"/>
 <path style="opacity:0.2" d="m 13.830044,21.000953 c 1.503096,0.01355 2.593265,0.170117 3.468213,0.575054 1.166599,0.539914 1.906243,1.515875 2.683421,3.086559 a 0.18973328,0.18153878 0 0 1 -0.0541,0.220518 c -0.897054,0.674465 -1.735421,1.02517 -2.521126,1.101176 -0.785705,0.07601 -1.511442,-0.12705 -2.163188,-0.527542 -1.303488,-0.800978 -2.336477,-2.369584 -3.225143,-4.166465 a 0.18973328,0.18153878 0 0 1 0.163777,-0.258808 c 0.600076,-0.02328 1.14711,-0.035 1.648144,-0.03049 z"/>
 <path style="fill:#aef766" d="m 13.830044,20.000953 c 1.503096,0.01355 2.593265,0.170117 3.468213,0.575054 1.166599,0.539914 1.906243,1.515875 2.683421,3.086559 a 0.18973328,0.18153878 0 0 1 -0.0541,0.220518 c -0.897054,0.674465 -1.735421,1.02517 -2.521126,1.101176 -0.785705,0.07601 -1.511442,-0.12705 -2.163188,-0.527542 -1.303488,-0.800978 -2.336477,-2.369584 -3.225143,-4.166465 a 0.18973328,0.18153878 0 0 1 0.163777,-0.258808 c 0.600076,-0.02328 1.14711,-0.035 1.648144,-0.03049 z"/>
 <path style="opacity:0.2" d="m 32.169956,21.000953 c -1.503096,0.01355 -2.593265,0.170117 -3.468213,0.575054 -1.166599,0.539914 -1.906243,1.515875 -2.683421,3.086559 a 0.18973328,0.18153878 0 0 0 0.0541,0.220518 c 0.897054,0.674465 1.735421,1.02517 2.521126,1.101176 0.785705,0.07601 1.511442,-0.12705 2.163188,-0.527542 1.303488,-0.800978 2.336477,-2.369584 3.225143,-4.166465 a 0.18973328,0.18153878 0 0 0 -0.163777,-0.258808 c -0.600076,-0.02328 -1.14711,-0.035 -1.648144,-0.03049 z"/>
 <path style="fill:#263742" d="m 16.946536,21 c 0.135252,1.494225 0.0784,2.151757 -0.946536,3 0.07124,-1.379257 0.108019,-2.047963 0.946536,-3 z"/>
 <path style="fill:#4a3025" d="m 25.3,28.127861 c 0,0 9.738365,-1.270137 11.365727,4.195968 1.091709,3.66692 -1.260448,3.760159 -1.646099,6.239551 C 34.633978,41.042777 37.3,40.413088 37.3,40.413088 l -0.26828,0.550977 c 0,0 -2.598953,0.491945 -2.68279,-2.16455 -0.08384,-2.656494 2.395124,-3.858545 0.785449,-6.475686 -1.609675,-2.617137 -7.599471,-1.082843 -7.599471,-1.082843 z"/>
 <path style="fill:#383838" d="m 28,31 a 4,3.9999999 0 1 1 -8,0 4,3.9999999 0 1 1 8,0 z"/>
 <path style="fill:#aef766" d="m 32.169956,20.000953 c -1.503096,0.01355 -2.593265,0.170117 -3.468213,0.575054 -1.166599,0.539914 -1.906243,1.515875 -2.683421,3.086559 a 0.18973328,0.18153878 0 0 0 0.0541,0.220518 c 0.897054,0.674465 1.735421,1.02517 2.521126,1.101176 0.785705,0.07601 1.511442,-0.12705 2.163188,-0.527542 1.303488,-0.800978 2.336477,-2.369584 3.225143,-4.166465 a 0.18973328,0.18153878 0 0 0 -0.163777,-0.258808 c -0.600076,-0.02328 -1.14711,-0.035 -1.648144,-0.03049 z"/>
 <path style="fill:#263742" d="M 29.053464,21 C 28.918212,22.494225 28.975064,23.151757 30,24 29.92876,22.620743 29.891981,21.952037 29.053464,21 Z"/>
 <path style="opacity:0.1" d="M 43.961643,20.819128 A 16.825105,3.8908432 18.541581 1 1 12.038421,10.181058 16.825105,3.8908432 18.541581 1 1 43.961643,20.819128 Z"/>
 <path style="fill:#3f3f3f" d="M 43.961643,19.819128 A 16.825105,3.8908432 18.541581 1 1 12.038421,9.1810577 16.825105,3.8908432 18.541581 1 1 43.961643,19.819128 Z"/>
 <path style="opacity:0.1" d="M 24.343585,5 C 27.911478,5.1183415 33.993268,6.1470951 39,9.2986407 L 36.435785,16.940457 C 31.14804,17.392506 25.049225,15.207424 22,12.529964 Z"/>
 <path style="fill:#484848" d="M 24.343585,4 C 27.911478,4.1183415 33.993268,5.1470951 39,8.2986407 L 36.435785,15.940457 C 31.14804,16.392506 25.049225,14.207424 22,11.529964 Z"/>
 <path style="opacity:0.2" d="m 24.458019,4.005584 c 4.450887,3.4781794 11.563646,4.8869347 14.478966,4.4800029 l 0.06286,-0.18715 C 34.044492,5.1792325 28.039989,4.1413309 24.458019,4.005584 Z"/>
 <path style="fill:#1b65cf" d="m 8.185788,20.599609 c -0.9410353,0.298633 -1.531107,0.580739 -1.8710937,0.896485 -0.1699934,0.157873 -0.2817318,0.333834 -0.3085938,0.52539 -0.026862,0.191557 0.037209,0.378552 0.1484375,0.53711 0.2224564,0.317115 0.625012,0.569844 1.1386719,0.824218 0.5136599,0.254375 1.1412543,0.50015 1.8085938,0.744141 l 0.140625,-0.380859 C 8.5807953,23.504189 7.9637295,23.261633 7.4748505,23.019531 6.9859716,22.777429 6.6269356,22.526266 6.4865693,22.326172 c -0.070183,-0.100047 -0.088521,-0.175865 -0.078125,-0.25 0.010396,-0.07414 0.056546,-0.167028 0.1816406,-0.283203 0.2501888,-0.232351 0.8033294,-0.516137 1.71875,-0.806641 z"/>
 <path style="opacity:0.1" d="m 24,33 a 4,4 0 1 1 -8,0 4,4 0 1 1 8,0 z"/>
 <path style="fill:#79503c" d="m 24,32 a 4,4 0 1 1 -8,0 4,4 0 1 1 8,0 z"/>
 <path style="opacity:0.1" d="m 32,33 a 4,4 0 1 1 -8,0 4,4 0 1 1 8,0 z"/>
 <path style="fill:#79503c" d="m 32,32 a 4,4 0 1 1 -8,0 4,4 0 1 1 8,0 z"/>
 <path style="opacity:0.2;fill:#f4f4f7" d="M 22.550781 9.7597656 L 22 11.529297 C 25.049225 14.206757 31.147802 16.393455 36.435547 15.941406 L 36.958984 14.378906 C 35.414104 14.504115 31.622899 14.01545 29.197266 13.337891 C 26.591785 12.610097 23.754168 11.067263 22.550781 9.7597656 z"/>
 <path style="opacity:0.3;fill:#1b65cf" d="m 15.5,16 c 3.036347,0 5.500703,2.464469 5.5,5.5 3.95e-4,3.035265 -2.463848,5.5 -5.5,5.5 C 12.463654,27 9.9992972,24.535531 10,21.5 9.9996052,18.464732 12.463848,16 15.5,16 Z"/>
</svg>
