<svg xmlns="http://www.w3.org/2000/svg" width="48" height="48" version="1">
 <path style="opacity:0.3" d="M 5.1425781,7 C 3.4014353,7 2,8.379433 2,10.091797 V 12.1 H 46 V 10.091797 C 46,8.379433 44.598565,7 42.857422,7 Z M 2,18.9 V 37.908203 C 2,39.620567 3.4014353,41 5.1425781,41 H 42.857422 C 44.598565,41 46,39.620567 46,37.908203 V 18.9 Z"/>
 <path style="fill:#2cb978" d="M 5.1425781,6 C 3.4014353,6 2,7.379433 2,9.091797 V 12.1 H 46 V 9.091797 C 46,7.379433 44.598565,6 42.857422,6 Z M 2,17.9 V 36.908203 C 2,38.620567 3.4014353,40 5.1425781,40 H 42.857422 C 44.598565,40 46,38.620567 46,36.908203 V 17.9 Z"/>
 <path style="opacity:0.2" d="M 5.7519531,32 6.2539062,34.111328 4.6230469,32.746094 4.0117188,33.826172 6.109375,34.515625 4,35.177734 4.5996094,36.279297 6.2558594,34.902344 5.7519531,37 H 7.1796875 L 6.71875,34.933594 8.3242188,36.316406 8.9414062,35.224609 6.859375,34.521484 9,33.927734 8.3925781,32.835938 6.703125,34.119141 7.1796875,32 Z m 6.9999999,0 0.501953,2.111328 -1.630859,-1.365234 -0.611328,1.080078 2.097656,0.689453 L 11,35.177734 11.599609,36.279297 13.255859,34.902344 12.751953,37 h 1.427735 L 13.71875,34.933594 15.324219,36.316406 15.941406,35.224609 13.859375,34.521484 16,33.927734 15.392578,32.835938 13.703125,34.119141 14.179688,32 Z m 7,0 0.501953,2.111328 -1.630859,-1.365234 -0.611328,1.080078 2.097656,0.689453 L 18,35.177734 18.599609,36.279297 20.255859,34.902344 19.751953,37 h 1.427735 L 20.71875,34.933594 22.324219,36.316406 22.941406,35.224609 20.859375,34.521484 23,33.927734 22.392578,32.835938 20.703125,34.119141 21.179688,32 Z m 7,0 0.501953,2.111328 -1.630859,-1.365234 -0.611328,1.080078 2.097656,0.689453 L 25,35.177734 25.599609,36.279297 27.255859,34.902344 26.751953,37 h 1.427735 L 27.71875,34.933594 29.324219,36.316406 29.941406,35.224609 27.859375,34.521484 30,33.927734 29.392578,32.835938 27.703125,34.119141 28.179688,32 Z m 7,0 0.501953,2.111328 -1.630859,-1.365234 -0.611328,1.080078 2.097656,0.689453 L 32,35.177734 32.599609,36.279297 34.255859,34.902344 33.751953,37 h 1.427735 L 34.71875,34.933594 36.324219,36.316406 36.941406,35.224609 34.859375,34.521484 37,33.927734 36.392578,32.835938 34.703125,34.119141 35.179688,32 Z m 7,0 0.501953,2.111328 -1.630859,-1.365234 -0.611328,1.080078 2.097656,0.689453 L 39,35.177734 39.599609,36.279297 41.255859,34.902344 40.751953,37 h 1.427735 L 41.71875,34.933594 43.324219,36.316406 43.941406,35.224609 41.859375,34.521484 44,33.927734 43.392578,32.835938 41.703125,34.119141 42.179688,32 Z"/>
 <path style="opacity:0.2;fill:#f4f4f7" d="M 5.1425781,6 C 3.4014353,6 2,7.379433 2,9.091797 v 1 C 2,8.379433 3.4014353,7 5.1425781,7 H 42.857422 C 44.598565,7 46,8.379433 46,10.091797 v -1 C 46,7.379433 44.598565,6 42.857422,6 Z"/>
 <rect style="opacity:0.1" width="44" height="1" x="2" y="19"/>
 <path style="opacity:0.2" d="m 9,22 -3,3 3,3 z m 1,0 v 6 h 1 v -6 z m 2,0 v 6 h 2 v -6 z m 3,0 v 6 h 1 v -6 z m 2,0 v 6 h 1 v -6 z m 2,0 v 6 h 2 v -6 z m 3,0 v 6 h 2 v -6 z m 3,0 v 6 h 1 v -6 z m 2,0 v 6 h 1 v -6 z m 2,0 v 6 h 1 v -6 z m 2,0 v 6 h 1 v -6 z m 2,0 v 6 h 2 v -6 z m 3,0 v 6 h 1 v -6 z m 2,0 v 6 h 2 v -6 z m 3,0 v 6 h 1 v -6 z"/>
 <path style="fill:#b2f5c0" d="M 5.7519531,31 6.2539062,33.111328 4.6230469,31.746094 4.0117188,32.826172 6.109375,33.515625 4,34.177734 4.5996094,35.279297 6.2558594,33.902344 5.7519531,36 H 7.1796875 L 6.71875,33.933594 8.3242188,35.316406 8.9414062,34.224609 6.859375,33.521484 9,32.927734 8.3925781,31.835938 6.703125,33.119141 7.1796875,31 Z m 6.9999999,0 0.501953,2.111328 -1.630859,-1.365234 -0.611328,1.080078 2.097656,0.689453 L 11,34.177734 11.599609,35.279297 13.255859,33.902344 12.751953,36 h 1.427735 L 13.71875,33.933594 15.324219,35.316406 15.941406,34.224609 13.859375,33.521484 16,32.927734 15.392578,31.835938 13.703125,33.119141 14.179688,31 Z m 7,0 0.501953,2.111328 -1.630859,-1.365234 -0.611328,1.080078 2.097656,0.689453 L 18,34.177734 18.599609,35.279297 20.255859,33.902344 19.751953,36 h 1.427735 L 20.71875,33.933594 22.324219,35.316406 22.941406,34.224609 20.859375,33.521484 23,32.927734 22.392578,31.835938 20.703125,33.119141 21.179688,31 Z m 7,0 0.501953,2.111328 -1.630859,-1.365234 -0.611328,1.080078 2.097656,0.689453 L 25,34.177734 25.599609,35.279297 27.255859,33.902344 26.751953,36 h 1.427735 L 27.71875,33.933594 29.324219,35.316406 29.941406,34.224609 27.859375,33.521484 30,32.927734 29.392578,31.835938 27.703125,33.119141 28.179688,31 Z m 7,0 0.501953,2.111328 -1.630859,-1.365234 -0.611328,1.080078 2.097656,0.689453 L 32,34.177734 32.599609,35.279297 34.255859,33.902344 33.751953,36 h 1.427735 L 34.71875,33.933594 36.324219,35.316406 36.941406,34.224609 34.859375,33.521484 37,32.927734 36.392578,31.835938 34.703125,33.119141 35.179688,31 Z m 7,0 0.501953,2.111328 -1.630859,-1.365234 -0.611328,1.080078 2.097656,0.689453 L 39,34.177734 39.599609,35.279297 41.255859,33.902344 40.751953,36 h 1.427735 L 41.71875,33.933594 43.324219,35.316406 43.941406,34.224609 41.859375,33.521484 44,32.927734 43.392578,31.835938 41.703125,33.119141 42.179688,31 Z"/>
 <rect style="fill:#3f3f3f" width="44" height="7" x="2" y="12"/>
 <path style="opacity:0.2" d="M 16,4 C 9.9248678,4 5,8.9248678 5,15 c 0,4.662125 2.9052024,8.636893 7,10.238281 V 44.822266 L 13,46 h 2.75 l 3.255859,-3.535156 -0.75,-0.78711 0.75,-0.785156 -1.5,-1.570312 1.5,-1.572266 -0.75,-0.785156 0.75,-0.78711 -1.125,-1.177734 1.125,-1.177734 v -1.179688 l -0.75,-0.785156 0.75,-0.785156 V 29.033203 L 21,28.966797 V 24.789062 C 24.559247,22.967538 27,19.272898 27,15 27,8.9248678 22.075132,4 16,4 Z m 0,3.03125 c 1.656822,2e-7 2.999955,1.3361372 3,2.984375 C 18.999955,11.663863 17.656822,13 16,13 c -1.656822,0 -2.999955,-1.336137 -3,-2.984375 4.5e-5,-1.6482378 1.343178,-2.9843748 3,-2.984375 z"/>
 <path style="fill:#b2bfd9" d="m 12,22.999993 8.999997,2e-6 3e-6,4.967265 -1.994999,0.06548 v 2.038684 l -0.75,0.785715 0.75,0.785715 v 1.178572 l -1.124999,1.178571 1.124999,1.178571 -0.75,0.785715 0.749997,0.785713 -1.499999,1.571428 1.500002,1.571429 -0.75,0.785714 0.75,0.785714 -3.254999,3.535715 L 13.000094,45 12,43.82142 Z"/>
 <path style="opacity:0.2" d="m 13.293556,25.226181 c 0.634908,-0.486057 1.718376,-0.134456 1.706221,0.553638 L 15.000001,44.999996 13.000094,45 V 25.779819 c -0.0037,-0.207393 0.102131,-0.407111 0.293462,-0.553638 z"/>
 <path style="fill:#b2bfd9" d="M 16,3 C 9.9248678,3 5,7.9248678 5,14 5,20.075132 9.9248678,25 16,25 22.075132,25 27,20.075132 27,14 27,7.9248678 22.075132,3 16,3 Z m 0,3.031625 c 1.656822,2e-7 2.999955,1.3361372 3,2.984375 -4.5e-5,1.648238 -1.343178,2.984375 -3,2.984375 -1.656822,0 -2.999955,-1.336137 -3,-2.984375 4.5e-5,-1.6482378 1.343178,-2.9843748 3,-2.984375 z"/>
 <path style="opacity:0.2;fill:#f4f4f7" d="M 16 3 C 9.9248678 3 5 7.9248678 5 14 C 5 14.168757 5.0178711 14.333099 5.0253906 14.5 C 5.2885682 8.6585867 10.093625 4 16 4 C 21.906375 4 26.711432 8.6585867 26.974609 14.5 C 26.982129 14.333099 27 14.168757 27 14 C 27 7.9248678 22.075132 3 16 3 z M 13.050781 9.515625 C 13.02293 9.6789982 13.000005 9.8443639 13 10.015625 C 13.000045 11.663863 14.343178 13 16 13 C 17.656822 13 18.999955 11.663863 19 10.015625 C 18.999995 9.8443639 18.97707 9.6789982 18.949219 9.515625 C 18.70903 10.924576 17.484669 12 16 12 C 14.515331 12 13.29097 10.924576 13.050781 9.515625 z"/>
</svg>
