<svg xmlns="http://www.w3.org/2000/svg" width="48" height="48" version="1">
 <rect fill="#b2bfd9" width="40" height="40" x="4" y="4" rx="2" ry="2"/>
 <path opacity=".1" transform="matrix(0,-1,-1,0,0,0)" d="m-42-44h36c1.108 0 2 0.892 2 2v18h-40v-18c0-1.108 0.892-2 2-2z"/>
 <path fill="#fff" opacity=".2" d="m6 4c-1.108 0-2 0.892-2 2v1c0-1.108 0.892-2 2-2h36c1.108 0 2 0.892 2 2v-1c0-1.108-0.892-2-2-2h-36z"/>
 <path opacity=".2" d="m6 45c-1.108 0-2-0.892-2-2v-1c0 1.108 0.892 2 2 2h36c1.108 0 2-0.892 2-2v1c0 1.108-0.892 2-2 2h-36z"/>
 <path fill="#c2352a" d="m20 3c-1 0-1 1.0286-1 1.0286v16.971l2.5-1.543 2.5 1.543v-16.971c0-1.029-1-1.029-1-1.029z"/>
</svg>
