<svg xmlns="http://www.w3.org/2000/svg" width="48" height="48" version="1">
 <rect fill="#d3d3d3" width="27.907" height="28" x="4.09" y="-44" rx="1.595" ry="1.6" transform="rotate(90)"/>
 <path opacity=".2" d="m21 25v-2h12v2zm0-4v-2h18v2zm0-4v-2h18v2zm0-4v-2h18v2z"/>
 <path fill="#fff" opacity=".4" d="m44 6.0867v-0.4984c0-0.8834-0.707-1.5884-1.594-1.5884h-24.812c-0.887 0-1.594 0.705-1.594 1.5884v0.49833c0-0.88344 0.70735-1.5884 1.5938-1.5884h24.812c0.8864 0 1.5938 0.70499 1.5938 1.5884z"/>
 <path opacity=".2" d="m16 30.406v0.998c0 0.884 0.713 1.596 1.6 1.596h24.8c0.887 0 1.6-0.712 1.6-1.596v-0.998c0 0.884-0.713 1.594-1.6 1.594h-24.8c-0.887 0-1.6-0.71-1.6-1.594z"/>
 <rect fill="#b2bfd9" width="28" height="28" x="16" y="-32" rx="1.6" ry="1.6" transform="rotate(90)"/>
 <path fill="#fff" opacity=".4" d="m32 18v-0.5c0-0.8864-0.70736-1.5938-1.5938-1.5938h-24.812c-0.8866 0-1.594 0.708-1.594 1.594v0.5c0-0.8864 0.70735-1.5938 1.5938-1.5938h24.812c0.887 0 1.594 0.708 1.594 1.594z"/>
 <path opacity=".2" d="m4 42.4v1c0 0.887 0.7132 1.6 1.5996 1.6h24.8c0.887 0 1.6-0.713 1.6-1.6v-1c0 0.887-0.713 1.6-1.6 1.6h-24.8c-0.8868 0-1.6-0.713-1.6-1.6z"/>
 <path opacity=".5" d="m9 37v-2h12v2zm0-4v-2h18v2zm0-4v-2h18v2zm0-4v-2h18v2z"/>
</svg>
