<svg xmlns="http://www.w3.org/2000/svg" width="48" height="48" version="1">
 <rect style="opacity:0.2" width="28.8" height="36" x="-44.27" y="-33.51" rx="1.8" ry="1.8" transform="matrix(-0.25881905,-0.96592583,-0.96592583,0.25881905,0,0)"/>
 <rect style="fill:#1b4cb0" width="28.8" height="36" x="-43.3" y="-33.77" rx="1.8" ry="1.8" transform="matrix(-0.25881905,-0.96592583,-0.96592583,0.25881905,0,0)"/>
 <path style="fill:#f4f4f7;opacity:0.1" d="M 34.992188 5.6738281 C 34.872615 5.6811252 34.751262 5.7001601 34.630859 5.7324219 L 3.3359375 14.119141 C 2.3727163 14.377235 1.8044057 15.360998 2.0625 16.324219 L 2.0742188 16.369141 C 2.2409117 15.779907 2.6991023 15.28978 3.3359375 15.119141 L 34.630859 6.7324219 C 35.594081 6.4743275 36.577843 7.0426382 36.835938 8.0058594 L 43.345703 32.302734 C 43.431135 32.000745 43.444877 31.674042 43.357422 31.347656 L 36.835938 7.0058594 C 36.610105 6.1630408 35.829195 5.6227488 34.992188 5.6738281 z"/>
 <rect style="opacity:0.2" width="28" height="36" x="-44.09" y="-38.74" rx="1.75" ry="1.8" transform="matrix(-0.14376775,-0.98961146,-0.98961146,0.14376775,0,0)"/>
 <rect style="fill:#b2bfd9" width="28" height="36" x="-43.1" y="-38.88" rx="1.75" ry="1.8" transform="matrix(-0.14376775,-0.98961146,-0.98961146,0.14376775,0,0)"/>
 <rect style="opacity:0.2" width="28" height="36" x="-43" y="-46" rx="1.75" ry="1.8" transform="matrix(0,-1,-1,0,0,0)"/>
 <path style="fill:#f4f4f7;opacity:0.2" d="M 39.234375 9.5957031 C 39.114867 9.5895856 38.992496 9.5953606 38.869141 9.6132812 L 6.8066406 14.271484 C 5.8198001 14.41485 5.1379609 15.30229 5.2773438 16.261719 L 5.3203125 16.560547 C 5.5014525 15.902183 6.0687451 15.378684 6.8066406 15.271484 L 38.869141 10.613281 C 39.855981 10.469916 40.762961 11.126509 40.902344 12.085938 L 44.380859 36.033203 C 44.441971 35.81109 44.458989 35.574061 44.423828 35.332031 L 40.902344 11.085938 C 40.780384 10.246438 40.070929 9.6385259 39.234375 9.5957031 z"/>
 <rect style="fill:#3e8ff2" width="28" height="36" x="-42" y="-46" rx="1.75" ry="1.8" transform="matrix(0,-1,-1,0,0,0)"/>
 <path style="opacity:0.2;fill-rule:evenodd" d="m 16.646484,15 c 0.09692,0.257459 -0.05143,0.664652 0.638672,0.361328 0.338052,0.680571 0.40377,-0.09932 0.472656,-0.361328 z m 1.990235,0 c 0.183708,0.397338 0.154946,1.045654 0.919922,0.587891 0.830519,0.535929 0.899706,2.533525 1.017578,3.277343 0.646022,0.08716 -0.474825,2.773609 0.93164,3.109375 0.261533,-1.378813 1.277966,-2.470056 2.294922,-3.324218 -0.470756,0.1996 -1.070736,-0.272199 -0.421875,-0.853516 0.848388,0.887472 0.340464,-0.08272 -0.01953,-0.664063 0.352,-0.416691 0.891145,-0.657539 0.671875,-1.46289 C 23.551067,15.317368 23.655389,15.118277 23.990234,15 Z m 14.875,0 c -0.710834,0.72022 -1.623696,1.689083 -1.314453,2.886719 0.28981,0.204289 0.126219,-2.078242 1.126953,-2.236328 C 33.463973,15.304294 33.678479,15.11259 33.933594,15 Z m 3.847656,0 c 0.08767,0.08864 0.124257,0.236606 0.05273,0.503906 -0.295956,0.09405 -1.744015,-0.506933 -1.74414,0.886719 -0.997709,0.178897 0.317068,2.058896 -0.392578,2.146484 0.242354,-0.774359 -1.020529,-2.172541 -0.65625,-0.722656 -0.02311,0.736921 1.140211,3.120259 0.113281,1.992188 0.198904,-1.5746 -0.348482,0.821266 -0.921875,-0.203125 1.189799,0.04496 0.326038,-4.001501 -0.03516,-1.595704 0.223838,1.065063 0.15226,1.044612 -0.701172,0.607422 -0.74062,0.828976 -1.37156,0.507042 -1.933594,1.333985 -0.376295,0.717431 -1.145337,1.14481 -1.197266,-0.308594 1.400524,0.752502 0.622923,-1.09671 -0.320312,-0.972656 0.09778,-0.696979 -0.522059,-0.288919 -0.927735,-0.04687 -0.558014,1.114209 -1.844224,2.386279 -1.542968,3.759765 0.419259,-0.340763 0.623661,-0.278995 0.679687,0.570313 0.653139,0.286621 0.228871,-2.011417 0.822266,-2.519531 1.055506,-1.308316 -0.307504,1.16478 0.384765,1.388671 C 30.340843,21.579321 29.02789,22.095284 29,22.8125 c -0.250539,1.040958 -1.778177,0.304589 -2.306641,1.625 -1.082128,0.249329 0.289183,1.778156 -1.044921,1.521484 -0.607428,0.904095 0.784205,1.960444 1.001953,0.337891 0.220694,-1.467922 1.711316,0.426464 1.539062,0.02539 -0.958277,-1.084253 0.07641,-1.029617 0.404297,-0.140625 0.525771,1.83996 0.935554,-1.998122 1.617188,-0.638672 0.04257,-1.176525 0.799959,0.256685 0.75,0.769531 -0.674021,-0.397127 -2.363504,0.729483 -0.816407,0.837891 0.89429,0.348629 -0.478692,1.739284 -1.203125,0.888671 -0.643677,1.190427 -1.207101,-0.879472 -1.859375,-0.74414 -1.460361,-0.03387 -2.187598,1.757727 -2.273437,3.189453 -0.125796,0.820993 0.475728,1.697737 1.162109,1.839844 1.407496,-0.634058 1.813866,0.307514 1.996094,1.615234 0.09232,1.508511 0.265512,2.951037 0.8125,4.4375 1.732004,0.196078 1.205826,-2.321226 2.197265,-3.109375 -0.449632,-1.502231 0.560249,-2.551159 1.113282,-3.84375 -1.286205,0.25156 -1.645732,-1.716607 -1.894532,-2.796875 0.802822,0.01679 0.75903,3.547884 2.103516,1.847656 1.047198,-0.602393 0.519003,-1.329845 -0.298828,-1.27539 -0.751968,-1.284447 0.382004,-0.727822 0.773438,-0.302735 1.576267,-0.116008 1.879323,1.249202 2.322265,2.638672 -0.01738,-0.866008 1.39476,-3.123956 1.804688,-1.359375 0.617993,-0.0329 0.33444,1.95721 0.734375,0.580078 0.378744,0.911698 1.153033,0.302226 0.589843,-0.419921 -0.466583,-1.251142 1.617486,-0.595174 1.509766,-2.013672 -0.476093,-0.547466 0.478087,-1.766097 -0.236328,-1.462891 -0.144938,-1.054157 0.705489,-0.811097 0.912109,0.02539 0.04091,-0.900708 1.191874,-1.594542 1.337891,-2.738282 0.499223,-1.199317 -0.779386,-0.55398 -0.357422,-1.443359 0.213776,-1.558367 1.698997,-0.373149 2.021484,-1.328125 1.301184,-1.007979 -0.01845,0.957618 0.01758,1.931641 0.573796,1.168834 0.366285,-1.9481 1.111328,-1.851563 C 45.345197,21.612377 45.581538,20.397645 46,20.095703 v -1.089844 c -0.193346,-0.10672 -0.536754,-0.554232 -0.976562,-0.75 -0.09723,0.899628 -0.549347,-0.06597 -1.039063,0.285157 -0.154466,-0.729431 -1.006914,-0.455952 -1.394531,-1.0625 -0.526785,-1.053799 -1.029676,0.436877 -1.595703,0.05078 C 40.527654,18.64815 40.745454,16.744921 40.162109,16.761719 39.509704,17.364841 38.633616,15.79505 38.25,17.005859 37.312307,16.858698 38.98464,15.920838 38.753906,15 Z m -24.017578,0.181641 -0.140625,0.05859 c -0.972166,0.962323 0.346688,0.538862 0.140625,-0.05859 z m 28.173828,0.06055 c -0.521728,1.022655 1.016073,0.593457 0,0 z m -25.8125,0.111328 c 0.172186,0.671655 0.704012,0.06715 0,0 z m 26.332031,0 c -0.161354,0.45511 0.266036,0.311999 0,0 z m 0.394532,0.296875 c -0.145229,0.273145 0.631197,0.271272 0,0 z m -28.121094,0.03711 -0.01758,0.234375 -0.04687,0.300781 c -0.803464,0.959351 1.048282,0.01568 0.06445,-0.535156 z m -0.66211,0.03711 c -0.490049,1.159897 0.95648,0.685439 0,0 z m 1.304688,0.04883 c 0.01172,0.345098 0.132518,0.397655 0.359375,0.580078 0.445356,-0.206178 -0.01933,-0.557036 -0.359375,-0.580078 z m 1.341797,0.08789 c -0.318468,0.563193 0.28589,0.91071 0.683593,0.839844 1.236513,-0.416537 -0.136784,-0.582374 -0.683593,-0.839844 z m -0.447266,0.40625 c -0.242915,0.467988 0.418674,0.213407 0,0 z m 0.287109,0.765625 -0.09375,0.02344 c -0.635576,1.162853 0.676145,0.4141 0.09375,-0.02344 z m -3.042968,0.05273 c -0.06964,-0.0061 -0.15048,-0.0034 -0.248047,0.0098 -0.130218,-0.03872 -0.154681,0.174747 -0.150391,0.261719 -0.473646,1.884415 1.443002,-0.179846 0.398438,-0.271484 z m 3.882812,0.04687 c -1.567576,1.483934 1.209838,1.437048 1.216797,2.457032 -0.42452,0.781735 0.899038,2.314614 0.611328,1.671875 0.99196,0.270941 -0.509197,-1.009268 0.189453,-1.253907 0.50732,1.326483 0.853733,-0.746247 -0.230468,-0.423828 0.464824,-0.931786 -0.668556,-1.58938 -1.214844,-1.476562 -0.330945,0.954995 -0.141703,-1.473194 -0.410156,-0.40625 -0.201103,1.411396 -0.398848,-0.411204 -0.16211,-0.56836 z m -1.644531,0.03711 c -0.08347,0.270529 0.249482,0.502241 -0.203125,0.484375 0.368923,1.273415 0.807204,-0.590838 0.203125,-0.484375 z m 2.361328,0.06055 c -0.555488,0.503249 0.844692,0.501881 0,0 z m -3.953125,0.285156 c -0.753374,0.748775 -0.0073,1.074683 0.392578,1.248047 -1.693955,0.516276 1.855524,1.030234 0.751953,-0.271484 -0.148888,-1.561715 -1.038079,0.02942 -1.144531,-0.976563 z m 2.199219,0.839844 c -0.4325,0.591411 0.72951,0.884711 0.08984,1.679687 -0.09491,-0.562718 -0.966035,-0.04939 -1.419922,-0.566406 -0.01124,1.177095 -0.155166,0.45408 -0.820313,0.416016 -0.03594,-0.61407 -0.864558,-0.549131 -1.433594,-0.904297 C 11.660913,19.440945 10.327233,19.565567 10,20.513672 v 0.83789 c 0.468333,1.023468 0.678957,2.799645 0,3.316407 v 0.01758 c 0.477675,0.03576 0.580233,-1.667672 1.402344,-1.839844 0.562048,0.03401 0.979274,1.576342 1.402344,2.337891 0.03168,1.455121 0.328774,2.703184 1.226562,3.871094 0.540213,0.981331 -0.07883,-0.295767 0.429688,0.166015 0.564057,1.317892 1.505682,1.753072 2.636718,2.203125 0.757776,1.52816 0.629258,-0.651654 -0.164062,-0.419922 0.141407,-0.986993 -0.02796,-0.598971 -0.66211,-0.291015 -1.468108,-0.975132 0.602027,-2.888317 1.337891,-1.648438 -0.08998,-0.455007 0.550074,-1.230985 0.517578,-1.806641 -0.0086,-0.445198 1.525044,-2.029634 1.228516,-1.314453 1.062735,-0.281525 -1.085688,-0.830956 -0.09766,-1.222656 1.603084,-0.137201 0.793798,-1.118517 0.25586,-2.066406 -0.421863,0.281953 -0.813816,-0.72232 -1.541016,-0.994141 0.05094,0.50322 -0.04716,1.00536 -0.05078,2.191406 -0.07722,1.684589 -0.673052,-0.581708 -1.318359,-0.630859 -1.034557,-0.410758 -0.410072,-1.952796 -0.02344,-2.283203 -1.020574,-0.686805 1.561051,-0.46201 0.572266,-1.816406 -0.149239,1.30277 -0.871003,0.419513 -1.216797,-0.765625 z m -0.322266,0.753906 c -0.399016,0.325711 0.643755,0.343419 0,0 z m 1.001953,0.109375 c -0.129137,0.277859 0.105992,0.318254 0,0 z m -5.777343,0.285156 c -0.262605,0.237463 0.240274,0.138063 0,0 z m 13.845703,0.628906 -0.125,0.03711 -0.269532,0.111328 c -0.904018,0.930206 0.994589,0.559143 0.394532,-0.148438 z m -7.673828,0.408204 c -0.358427,1.415173 0.718362,0.571649 0,0 z m 1.037109,0.03711 c -0.443611,0.43238 0.261661,0.197273 0,0 z m -7.853516,1.705078 c -0.1084,0.598165 0.312381,0.231589 0,0 z m 15.759766,0.234375 c -0.276756,0.588521 0.373285,0.945882 0.121094,1.570313 0.663993,0.716826 0.09616,-0.992368 -0.121094,-1.570313 z m 1.431641,0.333984 c -0.196062,0.776479 0.398137,0.313099 0,0 z m -1.716797,0.591797 c -0.754529,0.617889 0.253283,1.018019 0,0 z m 16.367187,0.01367 c -0.176857,0.364651 0.246874,0.199383 0,0 z m -31.232422,0.111328 c -0.128693,0.293763 0.109399,0.300992 0,0 z m 31.339844,0.529297 c -0.348552,0.382289 0.276071,0.257272 0,0 z m -21.949219,0.705078 c -0.553131,0.723272 1.118482,0.416288 0,0 z M 32.035156,25 l 0.197266,0.0625 0.06641,0.138672 C 31.567509,25.575543 33.042076,27.169163 32,27.164062 31.747108,26.684886 30.994223,25.102154 32.035156,25 Z m 10.017578,0.396484 c -0.637011,0.551794 0.647576,0.273751 0,0 z M 41.875,26.125 c -0.03969,0.311684 -0.101021,0.701135 -0.359375,0.876953 C 40.157806,27.889051 42.393917,27.25605 41.875,26.125 Z m -12.898438,0.814453 c -0.295384,0.243134 0.24381,0.155134 0,0 z M 14.34375,29.570312 c 0.188554,0.467367 0.401051,0.287735 0,0 z m 25.455078,0.642579 c -0.187634,0.460418 0.109897,0.399626 0,0 z m -21.054687,0.136718 c -0.250609,0.233341 0.223737,0.151674 0,0 z m 21.197265,0.517579 c -0.0739,0.268674 0.06903,0.342359 0,0 z m 0.269532,0.667968 c -0.163976,0.451945 0.255482,0.299598 0,0 z m -21.449219,0.04883 c -0.288641,0.133391 -0.719831,0.421086 -0.480469,0.837891 -0.901695,1.484653 0.133516,2.826454 0.873047,3.951172 -0.200997,1.951144 -0.60725,3.965123 -0.337891,5.919922 0.563683,0.138222 0.74594,-1.786084 0.773438,-2.423828 0.693783,-0.188619 0.686395,-1.424906 1.164062,-1.458985 0.413657,-1.130263 1.507109,-1.800416 1.675782,-3.058594 0.655045,-0.909224 0.492886,-1.643421 -0.589844,-1.753906 -1.142706,0.106105 -0.370794,-1.11942 -1.5625,-1.347656 -0.306588,-1.114573 -1.520576,0.06612 -1.515625,-0.666016 z m 18.890625,0.246094 c -0.0099,0.871851 0.490873,0.839646 0,0 z m 1.736328,0.08789 c -0.257811,0.208054 -0.413317,0.563774 -0.716797,0.703125 -0.08398,1.29236 1.1882,0.259073 0.716797,-0.703125 z m -2.34375,0.197265 c 0.269065,0.245848 0.442086,0.562743 0.583984,0.914063 0.91585,1.560867 0.12918,-0.71875 -0.583984,-0.914063 z m 2.71875,0.865235 c -0.431913,0.912715 0.487058,0.261888 0,0 z m 1.359375,0.03711 c -0.135841,0.326135 0.454906,0.280528 0,0 z m 0.572265,0.148438 c -0.253525,0.199959 0.145038,0.645478 0.257813,0.808593 0.982126,0.388091 0.59066,-0.663587 -0.257813,-0.808593 z m 1.109376,0.9375 c -0.08427,0.186685 0.372113,0.218481 0,0 z m -1.609376,0.580078 c -0.374386,0.544633 -0.806572,0.423516 -1.154296,0.964844 -1.159241,0.141134 -0.995254,2.447841 -0.34961,2.617187 1.097788,-0.780812 2.031408,-0.472162 2.552735,0.650391 1.759518,-0.439476 0.784769,-3.051094 -0.04687,-4.121094 -0.02222,1.026462 -0.712298,0.386732 -1.001954,-0.111328 z m -9.177734,0.384765 c -0.140753,0.225614 -0.580162,0.34708 -0.5,0.689453 -0.228657,1.725029 0.663473,0.195751 0.5,-0.689453 z m 13.558594,3.642579 c -0.47244,0.619388 0.45956,0.435071 0,0 z m -0.25,0.628906 -0.07813,0.103515 -0.134766,0.25586 c -0.608125,1.094712 0.292161,0.316099 0.212891,-0.359375 z m -2.71875,0.199218 c -0.241505,0.622262 0.586926,-0.02768 0,0 z m -23.308594,2.951172 c -0.186188,0.401015 0.455935,0.404737 0,0 z m -7.660156,0.494141 C 11.692698,42.989079 11.745455,43 11.800781,43 h 32.398438 c 0.05533,0 0.108083,-0.01092 0.162109,-0.01563 z"/>
 <path style="fill:#91b4de;fill-rule:evenodd" d="M 16.646484 14 C 16.743405 14.257459 16.595057 14.664652 17.285156 14.361328 C 17.623208 15.041899 17.688926 14.262012 17.757812 14 L 16.646484 14 z M 18.636719 14 C 18.820427 14.397338 18.791665 15.045654 19.556641 14.587891 C 20.38716 15.12382 20.456347 17.121416 20.574219 17.865234 C 21.220241 17.952394 20.099394 20.638843 21.505859 20.974609 C 21.767392 19.595796 22.783825 18.504553 23.800781 17.650391 C 23.330025 17.849991 22.730045 17.378192 23.378906 16.796875 C 24.227294 17.684347 23.71937 16.71415 23.359375 16.132812 C 23.711375 15.716121 24.25052 15.475273 24.03125 14.669922 C 23.551067 14.317368 23.655389 14.118277 23.990234 14 L 18.636719 14 z M 33.511719 14 C 32.800885 14.72022 31.888023 15.689083 32.197266 16.886719 C 32.487076 17.091008 32.323485 14.808477 33.324219 14.650391 C 33.463973 14.304294 33.678479 14.11259 33.933594 14 L 33.511719 14 z M 37.359375 14 C 37.447041 14.08864 37.483632 14.236606 37.412109 14.503906 C 37.116153 14.597956 35.668094 13.996973 35.667969 15.390625 C 34.67026 15.569522 35.985037 17.449521 35.275391 17.537109 C 35.517745 16.76275 34.254862 15.364568 34.619141 16.814453 C 34.596031 17.551374 35.759352 19.934712 34.732422 18.806641 C 34.931326 17.232041 34.38394 19.627907 33.810547 18.603516 C 35.000346 18.648476 34.136585 14.602015 33.775391 17.007812 C 33.999229 18.072875 33.927651 18.052424 33.074219 17.615234 C 32.333599 18.44421 31.702659 18.122276 31.140625 18.949219 C 30.76433 19.66665 29.995288 20.094029 29.943359 18.640625 C 31.343883 19.393127 30.566282 17.543915 29.623047 17.667969 C 29.720827 16.97099 29.100988 17.37905 28.695312 17.621094 C 28.137298 18.735303 26.851088 20.007373 27.152344 21.380859 C 27.571603 21.040096 27.776005 21.101864 27.832031 21.951172 C 28.48517 22.237793 28.060902 19.939755 28.654297 19.431641 C 29.709803 18.123325 28.346793 20.596421 29.039062 20.820312 C 30.340843 20.579321 29.02789 21.095284 29 21.8125 C 28.749461 22.853458 27.221823 22.117089 26.693359 23.4375 C 25.611231 23.686829 26.982542 25.215656 25.648438 24.958984 C 25.04101 25.863079 26.432643 26.919428 26.650391 25.296875 C 26.871085 23.828953 28.361707 25.723339 28.189453 25.322266 C 27.231176 24.238013 28.265859 24.292649 28.59375 25.181641 C 29.119521 27.021601 29.529304 23.183519 30.210938 24.542969 C 30.253508 23.366444 31.010897 24.799654 30.960938 25.3125 C 30.286917 24.915373 28.597434 26.041983 30.144531 26.150391 C 31.038821 26.49902 29.665839 27.889675 28.941406 27.039062 C 28.297729 28.229489 27.734305 26.15959 27.082031 26.294922 C 25.62167 26.261052 24.894433 28.052649 24.808594 29.484375 C 24.682798 30.305368 25.284322 31.182112 25.970703 31.324219 C 27.378199 30.690161 27.784569 31.631733 27.966797 32.939453 C 28.059117 34.447964 28.232309 35.89049 28.779297 37.376953 C 30.511301 37.573031 29.985123 35.055727 30.976562 34.267578 C 30.52693 32.765347 31.536811 31.716419 32.089844 30.423828 C 30.803639 30.675388 30.444112 28.707221 30.195312 27.626953 C 30.998134 27.643743 30.954342 31.174837 32.298828 29.474609 C 33.346026 28.872216 32.817831 28.144764 32 28.199219 C 31.248032 26.914772 32.382004 27.471397 32.773438 27.896484 C 34.349705 27.780476 34.652761 29.145686 35.095703 30.535156 C 35.078323 29.669148 36.490463 27.4112 36.900391 29.175781 C 37.518384 29.142881 37.234831 31.132991 37.634766 29.755859 C 38.01351 30.667557 38.787799 30.058085 38.224609 29.335938 C 37.758026 28.084796 39.842095 28.740764 39.734375 27.322266 C 39.258282 26.7748 40.212462 25.556169 39.498047 25.859375 C 39.353109 24.805218 40.203536 25.048278 40.410156 25.884766 C 40.451066 24.984058 41.60203 24.290224 41.748047 23.146484 C 42.24727 21.947167 40.968661 22.592504 41.390625 21.703125 C 41.604401 20.144758 43.089622 21.329976 43.412109 20.375 C 44.713293 19.367021 43.393657 21.332618 43.429688 22.306641 C 44.003484 23.475475 43.795973 20.358541 44.541016 20.455078 C 45.345197 20.612377 45.581538 19.397645 46 19.095703 L 46 18.005859 C 45.806654 17.899139 45.463246 17.451627 45.023438 17.255859 C 44.926207 18.155487 44.474091 17.189892 43.984375 17.541016 C 43.829909 16.811585 42.977461 17.085064 42.589844 16.478516 C 42.063059 15.424717 41.560168 16.915393 40.994141 16.529297 C 40.527654 17.64815 40.745454 15.744921 40.162109 15.761719 C 39.509704 16.364841 38.633616 14.79505 38.25 16.005859 C 37.312307 15.858698 38.98464 14.920838 38.753906 14 L 37.359375 14 z M 13.341797 14.181641 L 13.201172 14.240234 C 12.229006 15.202557 13.54786 14.779096 13.341797 14.181641 z M 41.515625 14.242188 C 40.993897 15.264843 42.531698 14.835645 41.515625 14.242188 z M 15.703125 14.353516 C 15.875311 15.025171 16.407137 14.420666 15.703125 14.353516 z M 42.035156 14.353516 C 41.873802 14.808626 42.301192 14.665515 42.035156 14.353516 z M 42.429688 14.650391 C 42.284459 14.923536 43.060885 14.921663 42.429688 14.650391 z M 14.308594 14.6875 L 14.291016 14.921875 L 14.244141 15.222656 C 13.440677 16.182007 15.292423 15.238332 14.308594 14.6875 z M 13.646484 14.724609 C 13.156435 15.884506 14.602964 15.410048 13.646484 14.724609 z M 14.951172 14.773438 C 14.962892 15.118536 15.08369 15.171093 15.310547 15.353516 C 15.755903 15.147338 15.291216 14.79648 14.951172 14.773438 z M 16.292969 14.861328 C 15.974501 15.424521 16.578859 15.772038 16.976562 15.701172 C 18.213075 15.284635 16.839778 15.118798 16.292969 14.861328 z M 15.845703 15.267578 C 15.602788 15.735566 16.264377 15.480985 15.845703 15.267578 z M 16.132812 16.033203 L 16.039062 16.056641 C 15.403486 17.219494 16.715207 16.470741 16.132812 16.033203 z M 13.089844 16.085938 C 13.020204 16.079838 12.939364 16.082503 12.841797 16.095703 C 12.711579 16.056983 12.687116 16.27045 12.691406 16.357422 C 12.21776 18.241837 14.134408 16.177576 13.089844 16.085938 z M 16.972656 16.132812 C 15.40508 17.616746 18.182494 17.56986 18.189453 18.589844 C 17.764933 19.371579 19.088491 20.904458 18.800781 20.261719 C 19.792741 20.53266 18.291584 19.252451 18.990234 19.007812 C 19.497554 20.334295 19.843967 18.261565 18.759766 18.583984 C 19.22459 17.652198 18.09121 16.994604 17.544922 17.107422 C 17.213977 18.062417 17.403219 15.634228 17.134766 16.701172 C 16.933663 18.112568 16.735918 16.289968 16.972656 16.132812 z M 15.328125 16.169922 C 15.244655 16.440451 15.577607 16.672163 15.125 16.654297 C 15.493923 17.927712 15.932204 16.063459 15.328125 16.169922 z M 17.689453 16.230469 C 17.133965 16.733718 18.534145 16.73235 17.689453 16.230469 z M 13.736328 16.515625 C 12.982954 17.2644 13.729056 17.590308 14.128906 17.763672 C 12.434951 18.279948 15.98443 18.793906 14.880859 17.492188 C 14.731971 15.930473 13.84278 17.521613 13.736328 16.515625 z M 15.935547 17.355469 C 15.503047 17.94688 16.665057 18.24018 16.025391 19.035156 C 15.930481 18.472438 15.059356 18.985769 14.605469 18.46875 C 14.594229 19.645845 14.450303 18.92283 13.785156 18.884766 C 13.749216 18.270696 12.920598 18.335635 12.351562 17.980469 C 11.660913 18.440945 10.327233 18.565567 10 19.513672 L 10 20.351562 C 10.468333 21.37503 10.678957 23.151207 10 23.667969 L 10 23.685547 C 10.477675 23.721311 10.580233 22.017875 11.402344 21.845703 C 11.964392 21.879713 12.381618 23.422045 12.804688 24.183594 C 12.836367 25.638715 13.133462 26.886778 14.03125 28.054688 C 14.571463 29.036019 13.952419 27.758921 14.460938 28.220703 C 15.024995 29.538595 15.96662 29.973775 17.097656 30.423828 C 17.855432 31.951988 17.726914 29.772174 16.933594 30.003906 C 17.075001 29.016913 16.905631 29.404935 16.271484 29.712891 C 14.803376 28.737759 16.873511 26.824574 17.609375 28.064453 C 17.519395 27.609446 18.159449 26.833468 18.126953 26.257812 C 18.118353 25.812614 19.651997 24.228178 19.355469 24.943359 C 20.418204 24.661834 18.269781 24.112403 19.257812 23.720703 C 20.860896 23.583502 20.05161 22.602186 19.513672 21.654297 C 19.091809 21.93625 18.699856 20.931977 17.972656 20.660156 C 18.023596 21.163376 17.925495 21.665516 17.921875 22.851562 C 17.844655 24.536151 17.248823 22.269854 16.603516 22.220703 C 15.568959 21.809945 16.193444 20.267907 16.580078 19.9375 C 15.559504 19.250695 18.141129 19.47549 17.152344 18.121094 C 17.003105 19.423864 16.281341 18.540607 15.935547 17.355469 z M 15.613281 18.109375 C 15.214265 18.435086 16.257036 18.452794 15.613281 18.109375 z M 16.615234 18.21875 C 16.486097 18.496609 16.721226 18.537004 16.615234 18.21875 z M 10.837891 18.503906 C 10.575286 18.741369 11.078165 18.641969 10.837891 18.503906 z M 24.683594 19.132812 L 24.558594 19.169922 L 24.289062 19.28125 C 23.385044 20.211456 25.283651 19.840393 24.683594 19.132812 z M 17.009766 19.541016 C 16.651339 20.956189 17.728128 20.112665 17.009766 19.541016 z M 18.046875 19.578125 C 17.603264 20.010505 18.308536 19.775398 18.046875 19.578125 z M 10.193359 21.283203 C 10.084959 21.881368 10.50574 21.514792 10.193359 21.283203 z M 25.953125 21.517578 C 25.676369 22.106099 26.32641 22.46346 26.074219 23.087891 C 26.738212 23.804717 26.17038 22.095523 25.953125 21.517578 z M 27.384766 21.851562 C 27.188704 22.628041 27.782903 22.164661 27.384766 21.851562 z M 25.667969 22.443359 C 24.91344 23.061248 25.921252 23.461378 25.667969 22.443359 z M 42.035156 22.457031 C 41.858299 22.821682 42.28203 22.656414 42.035156 22.457031 z M 10.802734 22.568359 C 10.674041 22.862122 10.912133 22.869351 10.802734 22.568359 z M 42.142578 23.097656 C 41.794026 23.479945 42.418649 23.354928 42.142578 23.097656 z M 20.193359 23.802734 C 19.640228 24.526006 21.311841 24.219022 20.193359 23.802734 z M 32.035156 24 L 32.232422 24.0625 L 32.298828 24.201172 C 31.567509 24.575543 33.042076 26.169163 32 26.164062 C 31.747108 25.684886 30.994223 24.102154 32.035156 24 z M 42.052734 24.396484 C 41.415723 24.948278 42.70031 24.670235 42.052734 24.396484 z M 41.875 25.125 C 41.83531 25.436684 41.773979 25.826135 41.515625 26.001953 C 40.157806 26.889051 42.393917 26.25605 41.875 25.125 z M 28.976562 25.939453 C 28.681178 26.182587 29.220372 26.094587 28.976562 25.939453 z M 14.34375 28.570312 C 14.532304 29.037679 14.744801 28.858047 14.34375 28.570312 z M 39.798828 29.212891 C 39.611194 29.673309 39.908725 29.612517 39.798828 29.212891 z M 18.744141 29.349609 C 18.493532 29.58295 18.967878 29.501283 18.744141 29.349609 z M 39.941406 29.867188 C 39.867506 30.135862 40.010436 30.209547 39.941406 29.867188 z M 40.210938 30.535156 C 40.046962 30.987101 40.46642 30.834754 40.210938 30.535156 z M 18.761719 30.583984 C 18.473078 30.717375 18.041888 31.00507 18.28125 31.421875 C 17.379555 32.906528 18.414766 34.248329 19.154297 35.373047 C 18.9533 37.324191 18.547047 39.33817 18.816406 41.292969 C 19.380089 41.431191 19.562346 39.506885 19.589844 38.869141 C 20.283627 38.680522 20.276239 37.444235 20.753906 37.410156 C 21.167563 36.279893 22.261015 35.60974 22.429688 34.351562 C 23.084733 33.442338 22.922574 32.708141 21.839844 32.597656 C 20.697138 32.703761 21.46905 31.478236 20.277344 31.25 C 19.970756 30.135427 18.756768 31.316115 18.761719 30.583984 z M 37.652344 30.830078 C 37.642444 31.701929 38.143217 31.669724 37.652344 30.830078 z M 39.388672 30.917969 C 39.130861 31.126023 38.975355 31.481743 38.671875 31.621094 C 38.587895 32.913454 39.860075 31.880167 39.388672 30.917969 z M 37.044922 31.115234 C 37.313987 31.361082 37.487008 31.677977 37.628906 32.029297 C 38.544756 33.590164 37.758086 31.310547 37.044922 31.115234 z M 39.763672 31.980469 C 39.331759 32.893184 40.25073 32.242357 39.763672 31.980469 z M 41.123047 32.017578 C 40.987206 32.343713 41.577953 32.298106 41.123047 32.017578 z M 41.695312 32.166016 C 41.441787 32.365975 41.84035 32.811494 41.953125 32.974609 C 42.935251 33.3627 42.543785 32.311022 41.695312 32.166016 z M 42.804688 33.103516 C 42.720418 33.290201 43.176801 33.321997 42.804688 33.103516 z M 41.195312 33.683594 C 40.820926 34.228227 40.38874 34.10711 40.041016 34.648438 C 38.881775 34.789572 39.045762 37.096279 39.691406 37.265625 C 40.789194 36.484813 41.722814 36.793463 42.244141 37.916016 C 44.003659 37.47654 43.02891 34.864922 42.197266 33.794922 C 42.175046 34.821384 41.484968 34.181654 41.195312 33.683594 z M 32.017578 34.068359 C 31.876825 34.293973 31.437416 34.415439 31.517578 34.757812 C 31.288921 36.482841 32.181051 34.953563 32.017578 34.068359 z M 45.576172 37.710938 C 45.103732 38.330326 46.035732 38.146009 45.576172 37.710938 z M 45.326172 38.339844 L 45.248047 38.443359 L 45.113281 38.699219 C 44.505156 39.793931 45.405442 39.015318 45.326172 38.339844 z M 42.607422 38.539062 C 42.365917 39.161324 43.194348 38.511382 42.607422 38.539062 z M 19.298828 41.490234 C 19.11264 41.891249 19.754763 41.894971 19.298828 41.490234 z M 11.638672 41.984375 C 11.692698 41.989079 11.745455 42 11.800781 42 L 44.199219 42 C 44.254545 42 44.307302 41.989079 44.361328 41.984375 L 11.638672 41.984375 z"/>
 <path style="fill:#3c3c3c" d="m 23.375,18.015625 c -1.621711,-0.08876 -3.074452,0.189838 -4.322266,0.851563 -6.53e-4,6.49e-4 -0.0013,0.0013 -0.002,0.002 -1.08979,0.58489 -1.802341,1.374598 -1.966797,2.34375 C 17.028539,21.463602 17,21.728354 17,22.009766 c 0,0.798452 0.131407,1.579395 0.394531,2.332031 6.49e-4,6.53e-4 0.0013,0.0013 0.002,0.002 0.302761,0.854257 0.719975,1.501157 1.263672,1.953125 0.129035,0.166788 0.31165,0.351602 0.601563,0.351563 0.120022,-2.48e-4 0.235892,-0.04396 0.326172,-0.123047 0,0 0.01616,-0.01436 0.04883,-0.04297 0.10772,-0.09408 0.169646,-0.23003 0.169922,-0.373047 -1.6e-5,-0.293516 -0.110447,-0.400581 -0.214844,-0.546875 -0.0032,-0.0046 -0.0064,-0.0092 -0.0098,-0.01367 -0.658243,-0.858162 -1,-1.973937 -1,-3.410156 0,-0.238842 0.02297,-0.487362 0.06641,-0.744141 0.139534,-0.689346 0.472268,-1.149148 1.083984,-1.49414 0.613523,-0.346012 1.533768,-0.548819 2.763672,-0.548829 1.142098,1.9e-5 2.283536,0.118927 3.427734,0.355469 6.51e-4,1e-6 0.0013,1e-6 0.002,0 1.160199,0.236605 2.356899,0.59924 3.589844,1.089844 1.118452,0.447733 2.180371,0.979048 3.185547,1.59375 0.0013,6.57e-4 0.0026,0.0013 0.0039,0.002 1.007981,0.602458 1.968685,1.275086 2.88086,2.017578 l 0.002,0.002 c 1.64114,1.384573 2.390603,2.762596 2.390625,4.185547 -2.1e-5,1.137783 -0.4775,1.84173 -1.640625,2.357422 l -0.0078,0.0039 c -0.870967,0.30236 -1.759606,0.556709 -2.656663,0.769532 -0.890588,2e-6 -1.556897,-0.117276 -1.980469,-0.302735 -0.02466,-0.01051 -0.05014,-0.019 -0.07617,-0.02539 -0.184821,-0.04759 -0.174843,-0.07551 -0.166016,-0.05664 -0.03561,-0.09677 -0.100459,-0.180045 -0.185547,-0.238281 -0.024,-0.01721 -0.0495,-0.03224 -0.07617,-0.04492 -0.0032,-0.0013 -0.0065,-0.0026 -0.0098,-0.0039 -0.01154,-0.005 -0.02327,-0.0096 -0.03516,-0.01367 -0.0039,-0.0014 -0.0078,-0.0027 -0.01172,-0.0039 -0.01224,-0.0037 -0.02462,-0.007 -0.03711,-0.0098 -0.156146,-0.03874 -0.321384,5.66e-4 -0.443359,0.105469 -0.132466,0.06629 -0.262394,0.129867 -0.367187,0.21289 -0.138949,0.110083 -0.318392,0.270849 -0.31836,0.576172 -2.8e-5,0.200465 0.10902,0.378542 0.214844,0.480469 0.105824,0.101927 0.213018,0.160543 0.328125,0.210937 0.207969,0.09107 0.447949,0.160815 0.730469,0.222657 0.0084,0.0022 0.01688,0.0041 0.02539,0.0059 0.278267,0.04569 0.592129,0.08187 0.945313,0.111328 C 32.568589,32.984787 32.943286,33 33.331665,33 c 1.87178,3e-6 2.094749,-0.241422 3.471069,-0.738281 h 0.002 c 1.008853,-0.348607 1.808204,-0.831105 2.359374,-1.47461 0.552847,-0.645516 0.835924,-1.452491 0.835938,-2.339843 -2.7e-5,-1.943632 -1.173001,-3.753562 -3.333984,-5.394532 -0.798965,-0.640371 -1.639563,-1.216244 -2.521485,-1.726562 -0.884583,-0.526104 -1.824384,-1.008392 -2.822265,-1.445313 -0.0026,-6.72e-4 -0.0052,-0.0013 -0.0078,-0.002 C 30.001361,19.32579 28.686714,18.894905 27.3692,18.587844 l -0.0059,-0.002 C 26.060678,18.26456 24.732545,18.07438 23.380878,18.015531 Z"/>
 <path style="fill:#3c3c3c" d="M 31.347656 24 A 0.49629376 0.49629376 0 0 0 30.962891 24.193359 C 30.957891 24.198159 30.966278 24.189719 30.955078 24.199219 A 0.49629376 0.49629376 0 0 0 30.8125 24.396484 C 29.948063 26.567087 28.486999 29.154894 26.429688 32.140625 C 25.302827 33.777341 24.315369 35.044927 23.482422 35.931641 C 22.65277 36.814846 21.964338 37.303099 21.539062 37.4375 C 21.241933 37.49796 20.974337 37.53514 20.75 37.546875 A 0.49629376 0.49629376 0 0 0 20.720703 37.548828 C 20.529937 37.570108 20.383912 37.553629 20.263672 37.511719 A 0.49629376 0.49629376 0 0 0 20.261719 37.509766 C 19.833619 37.361493 19.523416 37.169517 19.304688 36.943359 A 0.49629376 0.49629376 0 0 0 19.265625 36.90625 C 19.087562 36.757214 18.999442 36.603516 18.621094 36.603516 C 18.49626 36.603516 18.313361 36.641116 18.175781 36.779297 C 18.038201 36.917475 17.999996 37.100299 18 37.224609 C 17.999993 37.504287 18.123143 37.676891 18.255859 37.84375 C 18.548916 38.218907 18.974747 38.483882 19.433594 38.710938 A 0.49629376 0.49629376 0 0 0 19.630859 38.855469 C 19.630859 38.855469 19.632812 38.857422 19.632812 38.857422 A 0.49629376 0.49629376 0 0 0 19.671875 38.871094 A 0.49629376 0.49629376 0 0 0 19.855469 38.896484 C 20.084323 38.951817 20.317389 39 20.576172 39 C 20.922637 39 21.255882 38.96894 21.574219 38.90625 C 21.909737 38.8433 22.225087 38.738313 22.515625 38.59375 C 24.518523 37.691224 26.497212 35.506374 28.589844 32.074219 L 28.589844 32.072266 C 29.848891 30.020601 30.949044 27.877447 31.890625 25.644531 C 31.891339 25.643131 31.889919 25.642025 31.890625 25.640625 C 32.041585 25.342884 32.004769 25.114652 31.966797 24.8125 A 0.49629376 0.49629376 0 0 0 31.964844 24.808594 C 31.946004 24.666755 31.928232 24.552803 31.888672 24.433594 C 31.868892 24.373994 31.847292 24.31169 31.785156 24.226562 C 31.779656 24.219062 31.753034 24.215331 31.746094 24.207031 C 31.736394 24.191651 31.722716 24.168029 31.722656 24.167969 C 31.722266 24.167531 31.49681 24.021703 31.496094 24.021484 C 31.495735 24.021375 31.412539 24.003966 31.412109 24.003906 C 31.411669 24.003851 31.365506 24 31.347656 24 z"/>
 <path style="fill:#f4f4f7;opacity:0.2" d="M 11.800781 14 C 10.803581 14 10 14.7805 10 15.75 L 10 16.75 C 10 15.7805 10.803581 15 11.800781 15 L 44.199219 15 C 45.196419 15 46 15.7805 46 16.75 L 46 15.75 C 46 14.7805 45.196419 14 44.199219 14 L 11.800781 14 z"/>
</svg>
