<svg xmlns="http://www.w3.org/2000/svg" width="48" height="48" version="1.1">
 <path style="opacity:0.2" d="M 7.0769233,45 H 40.923077 C 42.627692,45 44,43.5728 44,41.8 V 34 H 4.0000002 v 7.8 c 0,1.7728 1.3723077,3.2 3.0769231,3.2 z"/>
 <path style="fill:#b2bfd9" d="M 7.0769233,44 H 40.923077 C 42.627692,44 44,42.5728 44,40.8 V 33 H 4.0000002 v 7.8 c 0,1.7728 1.3723077,3.2 3.0769231,3.2 z"/>
 <path style="fill:#3f3f3f" d="M 7.0769233,4 H 40.923077 C 42.627692,4 44,5.4272 44,7.2 V 33 H 4.0000002 V 7.2 c 0,-1.7728 1.3723077,-3.2 3.0769231,-3.2 z"/>
 <rect style="fill:#7e7e7e" width="19" height="3" x="21" y="37"/>
 <rect style="fill:#f04113" width="13" height="3" x="8" y="37"/>
 <rect style="opacity:0.2;fill:#f4f4f7" width="6" height="3" x="18" y="37"/>
 <path style="opacity:0.2" d="m 24,9 c -6.071408,0 -11,4.928592 -11,11 0,6.071408 4.928592,11 11,11 6.071408,0 11,-4.928592 11,-11 C 35,13.928592 30.071408,9 24,9 Z m 0,1 c 5.526442,0 10,4.473558 10,10 0,5.526442 -4.473558,10 -10,10 C 18.473558,30 14,25.526442 14,20 14,14.473558 18.473558,10 24,10 Z M 21.007812,15 21,25 30,20.005859 Z"/>
 <path style="fill:#f4f4f7" d="M 30,19.006714 21,24 21.0081,14 Z"/>
 <path style="fill:#f4f4f7" d="M 24 8 C 17.928592 8 13 12.928592 13 19 C 13 25.071408 17.928592 30 24 30 C 30.071408 30 35 25.071408 35 19 C 35 12.928592 30.071408 8 24 8 z M 24 9 C 29.526442 9 34 13.473558 34 19 C 34 24.526442 29.526442 29 24 29 C 18.473558 29 14 24.526442 14 19 C 14 13.473558 18.473558 9 24 9 z"/>
 <rect style="opacity:0.1" width="32" height="1" x="8" y="40"/>
 <path style="opacity:0.1;fill:#f4f4f7" d="M 7.0761719 4 C 5.3715565 4 4 5.4264187 4 7.1992188 L 4 8.1992188 C 4 6.4264187 5.3715565 5 7.0761719 5 L 40.923828 5 C 42.628443 5 44 6.4264188 44 8.1992188 L 44 7.1992188 C 44 5.4264187 42.628443 4 40.923828 4 L 7.0761719 4 z"/>
 <rect style="opacity:0.2;fill:#f4f4f7" width="40" height="1" x="4" y="33"/>
</svg>
