<svg xmlns="http://www.w3.org/2000/svg" width="48" height="48" version="1">
 <rect style="fill:#4f4f4f" width="40" height="40" x="4" y="4" rx="2" ry="2"/>
 <path fill="#fff" style="opacity:0.1" d="m6 4c-1.108 0-2 0.892-2 2v1c0-1.108 0.892-2 2-2h36c1.108 0 2 0.892 2 2v-1c0-1.108-0.892-2-2-2h-36z"/>
 <path opacity=".2" d="m6 45c-1.108 0-2-0.892-2-2v-1c0 1.108 0.892 2 2 2h36c1.108 0 2-0.892 2-2v1c0 1.108-0.892 2-2 2h-36z"/>
 <path style="opacity:0.3" d="M 23 14 L 23 23 L 23 24 L 23 33 L 9 33 L 9 35 L 25 35 L 25 25 L 39 25 L 39 23 L 25 23 L 25 14 L 23 14 z"/>
 <path style="opacity:0.2" d="m 24,12 a 3,3 0 0 0 -3,3 3,3 0 0 0 3,3 3,3 0 0 0 3,-3 3,3 0 0 0 -3,-3 z m 0,10 a 3,3 0 0 0 -3,3 3,3 0 0 0 3,3 3,3 0 0 0 3,-3 3,3 0 0 0 -3,-3 z m 15,0 a 3,3 0 0 0 -3,3 3,3 0 0 0 3,3 3,3 0 0 0 3,-3 3,3 0 0 0 -3,-3 z M 9,32 a 3,3 0 0 0 -3,3 3,3 0 0 0 3,3 3,3 0 0 0 3,-3 3,3 0 0 0 -3,-3 z m 15,0 a 3,3 0 0 0 -3,3 3,3 0 0 0 3,3 3,3 0 0 0 3,-3 3,3 0 0 0 -3,-3 z"/>
 <path style="fill:#f4f4f7" d="M 24 11 A 3 3 0 0 0 21 14 A 3 3 0 0 0 24 17 A 3 3 0 0 0 27 14 A 3 3 0 0 0 24 11 z M 24 21 A 3 3 0 0 0 21 24 A 3 3 0 0 0 24 27 A 3 3 0 0 0 27 24 A 3 3 0 0 0 24 21 z M 39 21 A 3 3 0 0 0 36 24 A 3 3 0 0 0 39 27 A 3 3 0 0 0 42 24 A 3 3 0 0 0 39 21 z M 9 31 A 3 3 0 0 0 6 34 A 3 3 0 0 0 9 37 A 3 3 0 0 0 12 34 A 3 3 0 0 0 9 31 z M 24 31 A 3 3 0 0 0 21 34 A 3 3 0 0 0 24 37 A 3 3 0 0 0 27 34 A 3 3 0 0 0 24 31 z"/>
</svg>
