<svg xmlns="http://www.w3.org/2000/svg" width="48" height="48" version="1">
 <rect style="opacity:.2" width="28" height="28" x="-33" y="-32" rx="4" ry="4" transform="matrix(0,-1,-1,0,0,0)"/>
 <rect style="fill:#db7da0" width="28" height="28" x="-32" y="-32" rx="4" ry="4" transform="matrix(0,-1,-1,0,0,0)"/>
 <rect style="opacity:.2" width="28" height="28" x="-39" y="-38" rx="4" ry="4" transform="matrix(0,-1,-1,0,0,0)"/>
 <rect style="fill:#a6eb7d" width="28" height="28" x="-38" y="-38" rx="4" ry="4" transform="matrix(0,-1,-1,0,0,0)"/>
 <rect style="opacity:.2" width="28" height="28" x="-45" y="-44" rx="4" ry="4" transform="matrix(0,-1,-1,0,0,0)"/>
 <rect style="fill:#5fa6fa" width="28" height="28" x="-44" y="-44" rx="4" ry="4" transform="matrix(0,-1,-1,0,0,0)"/>
 <path style="opacity:.1;fill:#f4f4f7" d="m8 4c-2.216 0-4 1.784-4 4v1c0-2.216 1.784-4 4-4h20c2.216 0 4 1.784 4 4v-1c0-2.216-1.784-4-4-4h-20z"/>
 <path style="opacity:.1;fill:#f4f4f7" d="m14 10c-2.216 0-4 1.784-4 4v1c0-2.216 1.784-4 4-4h20c2.216 0 4 1.784 4 4v-1c0-2.216-1.784-4-4-4h-20z"/>
 <path style="opacity:.1;fill:#f4f4f7" d="m20 16c-2.216 0-4 1.784-4 4v1c0-2.216 1.784-4 4-4h20c2.216 0 4 1.784 4 4v-1c0-2.216-1.784-4-4-4h-20z"/>
 <path style="opacity:.2;stroke-linejoin:bevel;stroke:#000000;stroke-linecap:round;stroke-width:1.99999988;fill:none" d="m21.014148 31.985657s4.000003 0.4645 4.000003-1.999998c0-2.464501-4.000003-2.000001-4.000003-2.000001m0.000099 8.0001v-8.000002"/>
 <path style="stroke-linejoin:bevel;stroke:#f4f4f7;stroke-linecap:round;stroke-width:1.99999988;fill:none" d="m21.014148 30.985657s4.000003 0.4645 4.000003-1.999998c0-2.464501-4.000003-2.000001-4.000003-2.000001m0.000099 8.0001v-8.000002"/>
 <path style="opacity:.2;stroke-linejoin:bevel;stroke:#000000;stroke-linecap:round;stroke-width:1.99999988;fill:none" d="m28.0142 35.992171s4.043783 0.350249 4-3.999999c-0.04378-4.350263-4-4.000002-4-4.000002m-0.0141 7.993587v-7.999998"/>
 <path style="stroke-linejoin:bevel;stroke:#f4f4f7;stroke-linecap:round;stroke-width:1.99999988;fill:none" d="m28.0142 34.992171s4.043783 0.350249 4-3.999999c-0.04378-4.350263-4-4.000002-4-4.000002m-0.0141 7.993587v-7.999998"/>
 <path style="opacity:.2;stroke-linejoin:bevel;stroke:#000000;stroke-linecap:round;stroke-width:1.99999988;fill:none" d="m35.014242 31.985661h3.999999m-3.999999-4.000003h3.999999m-3.999901 8.0001v-7.999998"/>
 <path style="stroke-linejoin:bevel;stroke:#f4f4f7;stroke-linecap:round;stroke-width:1.99999988;fill:none" d="m35.014242 30.985661h3.999999m-3.999999-4.000003h3.999999m-3.999901 8.0001v-7.999998"/>
</svg>
