<svg xmlns="http://www.w3.org/2000/svg" width="48" height="48" version="1.1">
 <rect style="opacity:.2" width="40" height="40" x="4" y="5" rx="3" ry="3"/>
 <rect style="fill:#0b4d9c" width="40" height="40" x="4" y="4" rx="3" ry="3"/>
 <path style="fill:#f4f4f7;opacity:.1" d="m7 4c-1.662 0-3 1.3379999-3 3v1c0-1.6620001 1.338-3 3-3h34c1.662 0 3 1.3379999 3 3v-1c0-1.6620001-1.338-3-3-3h-34z"/>
 <path style="opacity:0.2" d="m 23,13 c -5.54,0 -10,4.46 -10,10 v 4 c 0,5.54 4.46,10 10,10 h 2 c 1.391243,0 2.714522,-0.282008 3.916016,-0.791016 L 33.529297,41 37,37.919922 32.671875,33.423828 C 34.12534,31.688252 35,29.451198 35,27 V 23 C 35,17.46 30.54,13 25,13 Z m 0.455078,4 h 1.089844 C 27.56674,17 30,19.972681 30,23.666016 v 2.667968 C 30,30.027316 27.56674,33 24.544922,33 H 23.455078 C 20.433259,33 18,30.027316 18,26.333984 V 23.666016 C 18,19.972681 20.433259,17 23.455078,17 Z"/>
 <path style="fill:#f4f4f7" d="m 23,12 c -5.54,0 -10,4.46 -10,10 v 4 c 0,5.54 4.46,10 10,10 h 2 c 5.54,0 10,-4.46 10,-10 V 22 C 35,16.46 30.54,12 25,12 Z m 0.455078,4 h 1.089844 C 27.56674,16 30,18.972681 30,22.666016 v 2.667968 C 30,29.027316 27.56674,32 24.544922,32 H 23.455078 C 20.433259,32 18,29.027316 18,25.333984 V 22.666016 C 18,18.972681 20.433259,16 23.455078,16 Z"/>
 <path style="opacity:0.1" d="m 4,8 v 9 h 16 c 1.108,0 2,-0.892 2,-2 V 10 C 22,8.892 21.108,8 20,8 Z"/>
 <path style="fill:#f4f4f7" d="M 27,33.216497 28.224989,34.489691 33.528462,40 37,36.920491 31.696526,31.410182 30.33879,30 Z"/>
 <path style="fill:#e46200" d="M 4 7 L 4 16 L 20 16 C 21.108 16 22 15.108 22 14 L 22 9 C 22 7.892 21.108 7 20 7 L 4 7 z"/>
 <path style="opacity:0.1" d="m 6,10 v 5 h 1 v -1.978516 h 0.9003906 c 0.5,0 0.9014758,-0.06893 1.2070313,-0.208984 0.311111,-0.140055 0.5368922,-0.334599 0.6757812,-0.582031 C 9.9276501,11.978368 10,11.886153 10,11.554688 10,11.059822 9.833333,10.677025 9.5,10.40625 9.166666,10.135475 8.6579425,10 7.9746094,10 Z m 5,0 v 5 h 1.599609 c 0.736508,0 1.320209,-0.219361 1.751953,-0.658203 C 14.783309,13.902954 15,13.274025 15,12.457031 15,11.644707 14.788774,11.033878 14.367188,10.623047 13.950679,10.207547 13.389626,10 12.683594,10 Z m 5,0 v 5 h 1 v -2 h 2 v -1 h -2 v -1 h 3 v -1 z m -9,1 h 0.9394531 c 0.3673471,0 0.6346195,0.0401 0.8046875,0.121094 C 8.9142086,11.20209 9,11.325125 9,11.490234 9,11.652228 8.8944779,11.778798 8.6835938,11.869141 8.4795119,11.956368 8.1659092,12 7.7441406,12 H 7 Z m 5,0 h 0.603516 c 0.465249,0 0.814251,0.118473 1.046875,0.353516 C 13.883015,11.584285 14,11.955929 14,12.46875 14,12.985843 13.878738,13.368956 13.634766,13.621094 13.396468,13.87323 13.018265,14 12.501953,14 H 12 Z"/>
 <path style="fill:#f4f4f7" d="M 6 9 L 6 14 L 7 14 L 7 12.021484 L 7.9003906 12.021484 C 8.4003906 12.021484 8.8018664 11.952554 9.1074219 11.8125 C 9.4185329 11.672445 9.6443141 11.477901 9.7832031 11.230469 C 9.9276501 10.978368 10 10.886153 10 10.554688 C 10 10.059822 9.833333 9.677025 9.5 9.40625 C 9.166666 9.135475 8.6579425 9 7.9746094 9 L 6 9 z M 11 9 L 11 14 L 12.599609 14 C 13.336117 14 13.919818 13.780639 14.351562 13.341797 C 14.783309 12.902954 15 12.274025 15 11.457031 C 15 10.644707 14.788774 10.033878 14.367188 9.6230469 C 13.950679 9.2075473 13.389626 9 12.683594 9 L 11 9 z M 16 9 L 16 14 L 17 14 L 17 12 L 19 12 L 19 11 L 17 11 L 17 10 L 20 10 L 20 9 L 16 9 z M 7 10 L 7.9394531 10 C 8.3068002 10 8.5740726 10.0401 8.7441406 10.121094 C 8.9142086 10.20209 9 10.325125 9 10.490234 C 9 10.652228 8.8944779 10.778798 8.6835938 10.869141 C 8.4795119 10.956368 8.1659092 11 7.7441406 11 L 7 11 L 7 10 z M 12 10 L 12.603516 10 C 13.068765 10 13.417767 10.118473 13.650391 10.353516 C 13.883015 10.584285 14 10.955929 14 11.46875 C 14 11.985843 13.878738 12.368956 13.634766 12.621094 C 13.396468 12.87323 13.018265 13 12.501953 13 L 12 13 L 12 10 z"/>
</svg>
