<svg xmlns="http://www.w3.org/2000/svg" width="48" height="48" version="1">
 <rect style="opacity:0.2" width="40" height="40" x="4" y="5" rx="2" ry="2"/>
 <rect style="fill:#b2bfd9" width="40" height="40" x="4" y="4" rx="2" ry="2"/>
 <path style="opacity:0.2;fill:#f4f4f7" d="M 6,4 C 4.892,4 4,4.892 4,6 V 7 C 4,5.892 4.892,5 6,5 h 36 c 1.108,0 2,0.892 2,2 V 6 C 44,4.892 43.108,4 42,4 Z"/>
 <path style="opacity:0.1" d="m 23.126953,10.999556 c -0.224393,-0.0047 -0.462521,0.0223 -0.699219,0.08203 -0.547055,0.196478 -0.833869,0.705727 -1.951172,3.455078 -0.720857,1.773801 -1.763396,4.516433 -2.316406,6.095703 -0.971189,2.773438 -1.010116,2.989457 -1.113281,6.324219 -0.09794,3.16588 -0.06983,3.479631 0.330078,3.779297 0.239868,0.179772 0.803632,0.29459 1.251953,0.25586 0.778652,-0.06731 0.869098,-0.179375 2.052735,-2.509766 l 1.240234,-2.480469 2.052734,-0.0039 c 4.793645,-0.0078 9.789199,-2.828157 11.521485,-6.560547 1.571118,-3.41738 -0.678211,-6.780523 -4.628906,-7.941406 -1.892944,-0.512341 -4.663651,-0.507867 -5.632813,0.0098 -0.415574,0.221976 -0.613457,0.317595 -0.828125,0.265625 -0.05269,-0.468135 -0.606117,-0.757232 -1.279297,-0.771484 z m 5.521485,3 c 2.760031,0.0054 2.654388,2.045774 1.710937,5.060547 -0.746512,1.656103 -2.673096,3.793076 -4.015625,4.455078 -0.789906,0.38946 -1.447053,0.484375 -3.349609,0.484375 -1.301684,0 -2.428147,-0.101608 -2.503907,-0.226562 -0.329096,-0.542406 3.224506,-7.201007 4.470704,-8.376954 1.104852,-1.042569 2.039453,-1.396484 3.6875,-1.396484 z m -12.279297,16.955078 -0.753907,0.710938 c -1.19934,1.12784 -1.452583,1.959957 -1.126953,3.710937 0.2532,1.3615 0.23569,1.543388 -0.21289,2.148438 -0.26959,0.36363 -0.837979,0.776968 -1.261719,0.917968 -0.42373,0.14099 -0.685241,0.343689 -0.582031,0.449219 0.25741,0.26323 2.113665,0.02059 3.578125,-0.466797 2.69466,-0.89681 3.814928,-2.230657 3.955078,-4.710937 l 0.06055,-1.982422 c -1.0953,0.3516 -2.60781,0.436076 -3.65625,-0.777344 z"/>
 <path style="fill:#296694" d="M 23.126953 10 C 22.90256 9.9952493 22.664432 10.022303 22.427734 10.082031 C 21.880679 10.278509 21.593865 10.787758 20.476562 13.537109 C 19.755705 15.31091 18.713166 18.053542 18.160156 19.632812 C 17.188967 22.40625 17.15004 22.622269 17.046875 25.957031 C 16.948932 29.122911 16.977045 29.436662 17.376953 29.736328 C 17.616821 29.9161 18.180585 30.030918 18.628906 29.992188 C 19.407558 29.924874 19.498004 29.812813 20.681641 27.482422 L 21.921875 25.001953 L 23.974609 24.998047 C 28.768254 24.990242 33.763808 22.16989 35.496094 18.4375 C 37.067212 15.02012 34.817883 11.656977 30.867188 10.496094 C 28.974244 9.9837521 26.203537 9.9882267 25.234375 10.505859 C 24.818801 10.727835 24.620918 10.823454 24.40625 10.771484 C 24.35356 10.303349 23.800133 10.014252 23.126953 10 z M 28.648438 13 C 31.408469 13.005358 31.302826 15.045774 30.359375 18.060547 C 29.612863 19.71665 27.686279 21.853623 26.34375 22.515625 C 25.553844 22.905085 24.896697 23 22.994141 23 C 21.692457 23 20.565994 22.898392 20.490234 22.773438 C 20.161138 22.231032 23.71474 15.572431 24.960938 14.396484 C 26.06579 13.353915 27.000391 13 28.648438 13 z M 16.369141 29.955078 L 15.615234 30.666016 C 14.415894 31.793856 14.162651 32.625973 14.488281 34.376953 C 14.741481 35.738453 14.723971 35.920341 14.275391 36.525391 C 14.005801 36.889021 13.437412 37.302359 13.013672 37.443359 C 12.589942 37.584349 12.328431 37.787048 12.431641 37.892578 C 12.689051 38.155808 14.545306 37.913171 16.009766 37.425781 C 18.704426 36.528971 19.824694 35.195124 19.964844 32.714844 L 20.025391 30.732422 C 18.930091 31.084022 17.417581 31.168498 16.369141 29.955078 z"/>
</svg>
