<svg width="48" height="48" version="1.1" xmlns="http://www.w3.org/2000/svg">
 <g transform="matrix(2,0,0,2,2,2)">
  <circle cx="11" cy="11.5" r="10" style="opacity:.2"/>
  <circle cx="11" cy="11" r="10" style="fill:#bf1515"/>
  <path d="M 11,1 A 10,10 0 0 0 1,11 10,10 0 0 0 1.0098,11.293 10,10 0 0 1 11,1.5 10,10 0 0 1 20.99,11.207 10,10 0 0 0 21,11 10,10 0 0 0 11,1 Z" style="fill:#f4f4f7;opacity:.1"/>
  <path d="m13.988281 19.457885c-0.05436-0.02193-0.09766-0.172578-0.09766-0.339773v-0.300369l-0.449219-0.05229c-0.24707-0.02875-0.639708-0.105813-0.872529-0.171239-0.303668-0.08534-0.701123-0.112262-1.40625-0.09525-1.6492731 0.03976-1.7016051 0.03276-1.8464371-0.247314-0.1192813-0.230665-0.1171238-0.251075 0.044742-0.423374 0.093536-0.09956 0.3500156-0.258438 0.569954-0.353054l0.3998941-0.172024-0.202235-0.166317c-0.2805792-0.230748-0.378541-0.45075-0.378541-0.850126 0-0.5593 0.197214-1.085409 0.525144-1.400931 0.454779-0.437573 1.003661-0.944179 1.226472-1.132005 0.181604-0.153091 0.201509-0.224473 0.201509-0.722656 0-0.316442-0.0334-0.552787-0.07813-0.552787-0.04297 0-0.07813 0.101708-0.07813 0.226016 0 0.127693-0.05041 0.24536-0.11587 0.270481-0.06373 0.02445-0.09926 0.08974-0.07895 0.145077 0.04726 0.128781-0.035 0.249584-0.245311 0.360239-0.100275 0.05276-0.187286 0.197493-0.218384 0.363257-0.02843 0.151556-0.09739 0.275555-0.153233 0.275555-0.05585 0-0.165171 0.07031-0.242943 0.15625-0.151011 0.166865-0.389355 0.206589-0.46875 0.07813-0.083492-0.135093-0.1905146-0.08539-0.239913 0.111438-0.073226 0.291753-0.2955742 0.449861-0.5926235 0.421401l-0.261214-0.02503 0.234375-0.141209c0.213261-0.128489 0.2167796-0.136838 0.039063-0.09267-0.1074212 0.0267-0.3455336 0.06854-0.5291374 0.09297-0.1836037 0.02445-0.3526707 0.07494-0.3757045 0.1122-0.066565 0.1077-0.3169705 0.07868-0.4229585-0.04904-0.1196587-0.14418-0.028952-0.296443 0.565235-0.948842l0.4169648-0.457785-0.159224-0.164113c-0.1539326-0.158659-0.5303393-0.257016-1.168844-0.305429-0.188326-0.01428-0.3539914-0.082012-0.4296875-0.175679-0.0677562-0.083841-0.1847163-0.174011-0.2599117-0.200376-0.1632387-0.057235-0.1782096-0.23365-0.0302488-0.356446 0.058559-0.0486 0.3134412-0.126465 0.5664062-0.173034 0.5313578-0.09782 0.6978982-0.198149 0.5749089-0.346342-0.05713-0.06884-0.2214846-0.0865-0.5378898-0.05781-0.3929492 0.03563-0.4784847 0.01845-0.6218216-0.124885-0.091409-0.09141-0.2376145-0.166198-0.3249006-0.166198-0.087286 0-0.1777429-0.06152-0.2010154-0.136719-0.0232725-0.075196-0.0749035-0.197766-0.1147356-0.272378-0.1113415-0.208562-0.0859909-0.576136 0.0473679-0.686814 0.1064868-0.088376 0.1021487-0.118195-0.0390625-0.2685073-0.0873688-0.0930001-0.1602067-0.2019812-0.1618618-0.2421804-0.0016551-0.0401993-0.1139431-0.1434024-0.2495289-0.2293399-0.1355856-0.0859375-0.3363798-0.3010432-0.4462093-0.4780129-0.1098294-0.1769693-0.2940373-0.4582194-0.4093506-0.625-0.2151843-0.3112257-0.4536347-1.2284834-0.3470616-1.3350565 0.0833939-0.0833939 1.2038634 0.322743 2.0335357 0.7370962 0.6275133 0.3133914 0.7141403 0.3374347 0.8854447 0.2457555 0.1636696-0.0875934 0.1852118-0.1451502 0.1560548-0.4169518-0.0186047-0.1734319-0.1170118-0.5013138-0.2186828-0.7286266-0.1445655-0.3232149-0.1659796-0.4435224-0.0982494-0.5519758 0.0587442-0.0940643 0.0616458-0.1832827 0.0090194-0.277321-0.0933687-0.1668406-0.1021433-0.6213762-0.0147261-0.7628204 0.034574-0.055941 0.053604-0.20916 0.04229-0.3404852-0.013862-0.1609023 0.031985-0.2863364 0.140581-0.3846144 0.2289469-0.207194 0.4856172-0.069598 0.7498181 0.4019619 0.1156869 0.2064844 0.3537383 0.5863635 0.5290031 0.844176 0.1752652 0.2578125 0.5094885 0.75 0.742719 1.09375s0.4633469 0.625 0.5113703 0.625c0.04802 0 0.150087-0.1333122 0.226808-0.2962494 0.07672-0.1629371 0.200045-0.3175048 0.274052-0.3434837 0.07401-0.025979 0.228525-0.1339489 0.343373-0.239933 0.114847-0.105985 0.308206-0.2006507 0.429687-0.2103696 0.12148-0.00973 0.283416-0.04505 0.359855-0.078513 0.07644-0.033462 0.34689-0.045802 0.601001-0.027423 0.42291 0.03059 0.495184 0.064439 0.853767 0.3998512 0.259626 0.24285 0.46052 0.366432 0.595669 0.366432 0.168539 0 0.195299 0.02718 0.154211 0.1566349-0.03304 0.1041025-0.0086 0.17241 0.07286 0.203671 0.06741 0.02587 0.122575 0.1290906 0.122575 0.2293794 0 0.1002887 0.03515 0.2040711 0.07813 0.2306272 0.154948 0.095764 0.07242 0.2478688-0.225249 0.4151707-0.318767 0.1791577-0.568363 0.6509542-0.678228 1.2820184-0.06676 0.38345 0.274898 1.1254145 0.819633 1.7799795 0.362625 0.435739 0.396344 0.510246 0.396344 0.875799 0 0.340152 0.05434 0.486729 0.365563 0.986067 0.20106 0.322587 0.644321 0.936426 0.985022 1.364084 0.922201 1.157574 0.953258 1.221795 0.846921 1.751292-0.134671 0.670576-0.109625 0.895171 0.144524 1.295919 0.164607 0.259559 0.200231 0.366858 0.1218 0.366858-0.06097 0-0.132584-0.03515-0.15914-0.07813-0.09359-0.151426-0.195313-0.07554-0.195313 0.145714 0 0.510699-0.519203 0.791786-1.462524 0.791786-0.529062 0-0.803101 0.148132-0.803101 0.434117 0 0.183387-0.08421 0.22338-0.292968 0.139142zm1.3175-3.765943c-0.295973-0.328008-0.617437-0.666691-0.714363-0.752628-0.09693-0.08594-0.345389-0.358299-0.552139-0.605249l-0.375911-0.448999-0.156937 0.354779c-0.08631 0.195128-0.223322 0.449912-0.304462 0.566186-0.08114 0.116275-0.169306 0.324972-0.195924 0.463775-0.05744 0.2995-0.04363 0.309139 0.940146 0.656143 0.377642 0.133205 0.913777 0.356628 1.191413 0.496498l0.504789 0.254309 0.100762-0.194217c0.0952-0.183495 0.07105-0.227143-0.437374-0.790597zm-5.5245302-1.888221c0.4038872-0.29005 0.7858772-0.795335 0.9474362-1.253241 0.125344-0.355264 0.157494-1.364784 0.04566-1.433898-0.06854-0.04236-1.1674909 1.450742-1.7042791 2.315553-0.3357528 0.540926-0.308816 0.728303 0.095272 0.662729 0.1495726-0.02427 0.4267305-0.155286 0.615907-0.291143zm-0.8012602-1.293411c0.3265235-0.166771 0.63845-0.5194 0.9098101-1.028525 0.1379533-0.258826 0.2508243-0.507047 0.2508243-0.551602 0-0.04456-0.4833984 0.20956-1.0742187 0.564702-0.9069224 0.545149-1.0780774 0.678186-1.0989949 0.85424-0.042472 0.357468 0.4689009 0.43887 1.0125792 0.161185zm0.3512219-1.811757c0.1961-0.07383 0.3551805-0.169396 0.3535118-0.212365-0.00392-0.100933-1.108052-0.336572-1.6144118-0.344543-0.4767585-0.0075-0.946516 0.114495-1.0024861 0.26035-0.076268 0.19875 0.152469 0.385812 0.5435556 0.444522 0.5248091 0.07878 1.29315 0.01268 1.7198305-0.147964zm2.5323705-1.154206c0.322128-0.3323521 0.263605-0.4104015-0.375459-0.5007326-0.259572-0.0366902-0.542604-0.1045226-0.628958-0.1507384-0.141592-0.075777-0.131849-0.020853 0.09922 0.5593293 0.140924 0.3538472 0.282469 0.7136707 0.314544 0.7996077 0.05135 0.137592 0.07451 0.120764 0.19393-0.140907 0.07459-0.1634379 0.253114-0.4183887 0.396727-0.566559zm-2.7581142 0.2312563c0.1396483-0.0281235 0.2539062-0.0778531 0.2539062-0.1105094 0-0.07972-1.8723411-1.1872295-2.4597984-1.454997-0.257186-0.1172274-0.6087485-0.2155634-0.78125-0.2185245-0.2998605-0.00515-0.3147389 0.00609-0.3386705 0.255899-0.056709 0.5919404 0.7984663 1.3452584 1.8219064 1.6049045 0.1820565 0.046188 1.1348678-0.00245 1.5039063-0.076773zm1.2251382-0.4026961c-0.242715-1.1008143-0.6268046-1.8943364-1.2505359-2.5835818-0.7348631-0.81205-1.1013775-0.771953-1.1831124 0.129434-0.055467 0.6117011 0.00221 0.8119451 0.3423067 1.1883895 0.5228767 0.5787621 1.7610326 1.4770169 2.0395666 1.4796606 0.06765 6.25e-4 0.0841-0.067304 0.05178-0.2139023z" style="opacity:.2"/>
  <path d="m13.988281 18.957885c-0.05436-0.02193-0.09766-0.172578-0.09766-0.339773v-0.300369l-0.449219-0.05229c-0.24707-0.02875-0.639708-0.105813-0.872529-0.171239-0.303668-0.08534-0.701123-0.112262-1.40625-0.09525-1.6492731 0.03976-1.7016051 0.03276-1.8464371-0.247314-0.1192813-0.230665-0.1171238-0.251075 0.044742-0.423374 0.093536-0.09956 0.3500156-0.258438 0.569954-0.353054l0.3998941-0.172024-0.202235-0.166317c-0.2805792-0.230748-0.378541-0.45075-0.378541-0.850126 0-0.5593 0.197214-1.085409 0.525144-1.400931 0.454779-0.437573 1.003661-0.944179 1.226472-1.132005 0.181604-0.153091 0.201509-0.224473 0.201509-0.722656 0-0.316442-0.0334-0.552787-0.07813-0.552787-0.04297 0-0.07813 0.101708-0.07813 0.226016 0 0.127693-0.05041 0.24536-0.11587 0.270481-0.06373 0.02445-0.09926 0.08974-0.07895 0.145077 0.04726 0.128781-0.035 0.249584-0.245311 0.360239-0.100275 0.05276-0.187286 0.197493-0.218384 0.363257-0.02843 0.151556-0.09739 0.275555-0.153233 0.275555-0.05585 0-0.165171 0.07031-0.242943 0.15625-0.151011 0.166865-0.389355 0.206589-0.46875 0.07813-0.083492-0.135093-0.1905146-0.08539-0.239913 0.111438-0.073226 0.291753-0.2955742 0.449861-0.5926235 0.421401l-0.261214-0.02503 0.234375-0.141209c0.213261-0.128489 0.2167796-0.136838 0.039063-0.09267-0.1074212 0.0267-0.3455336 0.06854-0.5291374 0.09297-0.1836037 0.02445-0.3526707 0.07494-0.3757045 0.1122-0.066565 0.1077-0.3169705 0.07868-0.4229585-0.04904-0.1196587-0.14418-0.028952-0.296443 0.565235-0.948842l0.4169648-0.457785-0.159224-0.164113c-0.1539326-0.158659-0.5303393-0.257016-1.168844-0.305429-0.188326-0.01428-0.3539914-0.082012-0.4296875-0.175679-0.0677562-0.083841-0.1847163-0.174011-0.2599117-0.200376-0.1632387-0.057235-0.1782096-0.23365-0.0302488-0.356446 0.058559-0.0486 0.3134412-0.126465 0.5664062-0.173034 0.5313578-0.09782 0.6978982-0.198149 0.5749089-0.346342-0.05713-0.06884-0.2214846-0.0865-0.5378898-0.05781-0.3929492 0.03563-0.4784847 0.01845-0.6218216-0.124885-0.091409-0.09141-0.2376145-0.166198-0.3249006-0.166198-0.087286 0-0.1777429-0.06152-0.2010154-0.136719-0.0232725-0.075196-0.0749035-0.197766-0.1147356-0.272378-0.1113415-0.208562-0.0859909-0.5761361 0.0473679-0.6868142 0.1064868-0.0883758 0.1021487-0.1181945-0.0390625-0.2685071-0.0873688-0.0930001-0.1602067-0.2019812-0.1618618-0.2421804-0.0016551-0.0401993-0.1139431-0.1434024-0.2495289-0.2293399-0.1355856-0.0859375-0.3363798-0.3010432-0.4462093-0.4780129-0.1098294-0.1769693-0.2940373-0.4582194-0.4093506-0.625-0.2151843-0.3112257-0.4536347-1.2284834-0.3470616-1.3350565 0.0833939-0.0833939 1.2038634 0.322743 2.0335357 0.7370962 0.6275133 0.3133914 0.7141403 0.3374347 0.8854447 0.2457555 0.1636696-0.0875934 0.1852118-0.1451502 0.1560548-0.4169518-0.0186047-0.1734319-0.1170118-0.5013138-0.2186828-0.7286266-0.1445655-0.3232149-0.1659796-0.4435224-0.0982494-0.5519758 0.0587442-0.0940643 0.0616458-0.1832827 0.0090194-0.277321-0.0933687-0.1668406-0.1021433-0.6213762-0.0147261-0.7628204 0.034574-0.055941 0.053604-0.20916 0.04229-0.3404852-0.013862-0.1609023 0.031985-0.2863364 0.140581-0.3846144 0.2289469-0.207194 0.4856172-0.069598 0.7498181 0.4019619 0.1156869 0.2064844 0.3537383 0.5863635 0.5290031 0.844176 0.1752652 0.2578125 0.5094885 0.75 0.742719 1.09375s0.4633469 0.625 0.5113703 0.625c0.04802 0 0.150087-0.1333122 0.226808-0.2962494 0.07672-0.1629371 0.200045-0.3175048 0.274052-0.3434837 0.07401-0.025979 0.228525-0.1339489 0.343373-0.239933 0.114847-0.105985 0.308206-0.2006507 0.429687-0.2103696 0.12148-0.00973 0.283416-0.04505 0.359855-0.078513 0.07644-0.033462 0.34689-0.045802 0.601001-0.027423 0.42291 0.03059 0.495184 0.064439 0.853767 0.3998512 0.259626 0.24285 0.46052 0.366432 0.595669 0.366432 0.168539 0 0.195299 0.02718 0.154211 0.1566349-0.03304 0.1041025-0.0086 0.17241 0.07286 0.203671 0.06741 0.02587 0.122575 0.1290906 0.122575 0.2293794 0 0.1002887 0.03515 0.2040711 0.07813 0.2306272 0.154948 0.095764 0.07242 0.2478688-0.225249 0.4151707-0.318767 0.1791577-0.568363 0.6509542-0.678228 1.2820184-0.06676 0.38345 0.274898 1.1254145 0.819633 1.7799795 0.362625 0.435739 0.396344 0.510246 0.396344 0.875799 0 0.340152 0.05434 0.486729 0.365563 0.986067 0.20106 0.322587 0.644321 0.936426 0.985022 1.364084 0.922201 1.157574 0.953258 1.221795 0.846921 1.751292-0.134671 0.670576-0.109625 0.895171 0.144524 1.295919 0.164607 0.259559 0.200231 0.366858 0.1218 0.366858-0.06097 0-0.132584-0.03515-0.15914-0.07813-0.09359-0.151426-0.195313-0.07554-0.195313 0.145714 0 0.510699-0.519203 0.791786-1.462524 0.791786-0.529062 0-0.803101 0.148132-0.803101 0.434117 0 0.183387-0.08421 0.22338-0.292968 0.139142zm1.3175-3.765943c-0.295973-0.328008-0.617437-0.666691-0.714363-0.752628-0.09693-0.08594-0.345389-0.358299-0.552139-0.605249l-0.375911-0.448999-0.156937 0.354779c-0.08631 0.195128-0.223322 0.449912-0.304462 0.566186-0.08114 0.116275-0.169306 0.324972-0.195924 0.463775-0.05744 0.2995-0.04363 0.309139 0.940146 0.656143 0.377642 0.133205 0.913777 0.356628 1.191413 0.496498l0.504789 0.254309 0.100762-0.194217c0.0952-0.183495 0.07105-0.227143-0.437374-0.790597zm-5.5245302-1.888221c0.4038872-0.29005 0.7858772-0.795335 0.9474362-1.253241 0.125344-0.355264 0.157494-1.364784 0.04566-1.433898-0.06854-0.04236-1.1674909 1.450742-1.7042791 2.315553-0.3357528 0.540926-0.308816 0.728303 0.095272 0.662729 0.1495726-0.02427 0.4267305-0.155286 0.615907-0.291143zm-0.8012602-1.293411c0.3265235-0.166771 0.63845-0.5194 0.9098101-1.028525 0.1379533-0.258826 0.2508243-0.507047 0.2508243-0.551602 0-0.04456-0.4833984 0.20956-1.0742187 0.564702-0.9069224 0.545149-1.0780774 0.678186-1.0989949 0.85424-0.042472 0.357468 0.4689009 0.43887 1.0125792 0.161185zm0.3512219-1.811757c0.1961-0.07383 0.3551805-0.169396 0.3535118-0.2123646-0.00392-0.1009329-1.108052-0.3365726-1.6144118-0.344543-0.4767585-0.00751-0.946516 0.114495-1.0024861 0.26035-0.076268 0.1987496 0.152469 0.3858116 0.5435556 0.4445216 0.5248091 0.07878 1.29315 0.01268 1.7198305-0.147964zm2.5323705-1.154206c0.322128-0.3323521 0.263605-0.4104015-0.375459-0.5007326-0.259572-0.0366902-0.542604-0.1045226-0.628958-0.1507384-0.141592-0.075777-0.131849-0.020853 0.09922 0.5593293 0.140924 0.3538472 0.282469 0.7136706 0.314544 0.7996081 0.05135 0.1375914 0.07451 0.120764 0.19393-0.1409077 0.07459-0.1634376 0.253114-0.4183884 0.396727-0.5665587zm-2.7581142 0.2312563c0.1396483-0.0281235 0.2539062-0.0778531 0.2539062-0.1105094 0-0.07972-1.8723411-1.1872295-2.4597984-1.454997-0.257186-0.1172274-0.6087485-0.2155634-0.78125-0.2185245-0.2998605-0.00515-0.3147389 0.00609-0.3386705 0.255899-0.056709 0.5919404 0.7984663 1.3452584 1.8219064 1.6049045 0.1820565 0.046188 1.1348678-0.00245 1.5039063-0.076773zm1.2251382-0.4026961c-0.242715-1.1008143-0.6268046-1.8943364-1.2505359-2.5835818-0.7348631-0.81205-1.1013775-0.771953-1.1831124 0.129434-0.055467 0.6117011 0.00221 0.8119451 0.3423067 1.1883895 0.5228767 0.5787621 1.7610326 1.4770169 2.0395666 1.4796606 0.06765 6.25e-4 0.0841-0.067304 0.05178-0.2139023z" style="fill:#f4f4f7"/>
 </g>
</svg>
