<svg xmlns="http://www.w3.org/2000/svg" width="48" height="48" version="1.1">
 <rect style="opacity:0.2" width="34" height="36" x="7" y="9" rx="3" ry="3"/>
 <rect style="fill:#b2bfd9" width="34" height="36" x="7" y="8" rx="3" ry="3"/>
 <rect style="opacity:0.1" width="40" height="8" x="4" y="5" rx="3.333" ry="3"/>
 <rect style="fill:#2ea881" width="40" height="8" x="4" y="4" rx="3.333" ry="3"/>
 <circle style="fill:#ff4f4f" cx="12" cy="24" r="4"/>
 <rect style="fill:#ff4f4f" width="19" height="2" x="18" y="23"/>
 <rect style="opacity:0.3" width="22" height="2" x="15" y="16"/>
 <path style="opacity:0.2;fill:#f4f4f7" d="M 7.3339844 4 C 5.4873178 4 4 5.338 4 7 L 4 8 C 4 6.338 5.4873178 5 7.3339844 5 L 40.666016 5 C 42.512682 5 44 6.338 44 8 L 44 7 C 44 5.338 42.512682 4 40.666016 4 L 7.3339844 4 z"/>
 <circle style="opacity:0.2" cx="12" cy="25" r="2"/>
 <circle style="fill:#f4f4f7" cx="12" cy="24" r="2"/>
 <rect style="opacity:0.3" width="2" height="2" x="11" y="16"/>
 <rect style="opacity:0.3" width="22" height="2" x="15" y="30"/>
 <rect style="opacity:0.3" width="2" height="2" x="11" y="30"/>
 <rect style="opacity:0.3" width="22" height="2" x="15" y="34"/>
 <rect style="opacity:0.3" width="2" height="2" x="11" y="34"/>
 <rect style="opacity:0.3" width="22" height="2" x="15" y="38"/>
 <rect style="opacity:0.3" width="2" height="2" x="11" y="38"/>
</svg>
