<svg xmlns="http://www.w3.org/2000/svg" width="48" height="48" version="1.1">
 <circle style="opacity:0.2" cx="24" cy="25" r="20"/>
 <circle style="fill:#48b9c7" cx="24" cy="24" r="20"/>
 <path style="opacity:0.2;fill:#f4f4f7" d="M 24,4 A 20,20 0 0 0 4,24 20,20 0 0 0 4.0215,24.582 20,20 0 0 1 24,5 20,20 0 0 1 43.979,24.418 20,20 0 0 0 44,24 20,20 0 0 0 24,4 Z"/>
 <path style="opacity:0.2" d="m 20.060547,10.001953 c -1.786606,0.04232 -3.822602,1.016887 -4.861328,1.736328 -1.038723,0.71944 -3.157669,2.158128 -3.199219,3.554688 0,0.93104 0.49804,1.692007 0.955078,2.623047 0.457039,0.931039 6.607393,13.458226 8.435547,15.447265 0.955627,1.01568 2.285329,0.720102 2.576172,-0.210937 0.290843,-0.931041 -0.04208,-1.946562 -0.416016,-2.919922 l -1.99414,-5.291016 c 2.326742,-0.846401 3.989153,-2.581914 4.986328,-4.740234 v -0.08398 c 0.498588,-1.057999 0.622521,-2.538961 0.207031,-4.44336 -0.415489,-1.9044 -1.538327,-3.55528 -3.117188,-4.613281 -1.038724,-0.67712 -1.78566,-1.1009139 -3.572265,-1.058594 z m -1.490235,3.861328 c 0.09883,0.0108 0.206719,0.0365 0.326172,0.07617 0.290843,0.08464 0.540302,0.295565 0.748047,0.464844 1.038724,0.8464 1.829184,2.115814 2.203125,3.427734 a 5.3182681,5.4169592 0 0 1 0.08203,2.03125 c 0,0.33856 -0.0403,0.593082 -0.248047,0.931641 -0.207746,0.33856 -0.707738,0.591148 -0.957032,0.548828 -0.249295,-0.04232 -0.456317,-0.210275 -0.664062,-0.421875 -0.872528,-0.888719 -1.662282,-2.667272 -1.953125,-3.513672 -0.272664,-0.7935 -1.019574,-3.706877 0.46289,-3.544922 z M 32.052734,17 c -0.590411,0.0098 -1.265253,0.167433 -1.535156,0.417969 -0.35987,0.334048 -0.680932,1.001697 -0.880859,2.33789 -0.679754,4.885452 -0.918959,8.893255 -0.199219,9.185547 0.599784,0.250536 1.039999,-0.167205 3.199219,-4.175781 l 1.11914,-2.212891 c 0.439841,-0.960388 1.000215,-2.295536 1.160157,-2.921875 0.159943,-0.626341 0.120451,-1.128573 -0.359375,-1.58789 A 3.5987004,3.7580404 0 0 0 32.595703,17.041016 C 32.435761,17.009699 32.249538,16.996738 32.052734,17 Z m -2.300781,14 c -0.142446,-0.0025 -0.295389,0.01684 -0.460937,0.0625 -0.639358,0.162354 -1.09737,0.690671 -1.234375,1.177734 -0.137006,0.487062 -0.04532,1.095642 0.457031,1.460938 0.502353,0.365297 1.370981,0.365051 1.736328,0.162109 C 30.615347,33.660338 30.842254,33.336 30.933594,32.970703 31.173352,32.118344 30.749077,31.017202 29.751953,31 Z M 15.613281,35 C 14.719733,35 14,35.669 14,36.5 14,37.331 14.719733,38 15.613281,38 H 32.386719 C 33.280267,38 34,37.331 34,36.5 34,35.669 33.280267,35 32.386719,35 Z"/>
 <g>
  <rect style="fill:#f4f4f7" width="20" height="3" x="14" y="34" rx="1.613" ry="1.5"/>
  <path style="fill:#f4f4f7" d="m 26.542139,19.202024 c -0.997175,2.15832 -2.659134,3.893439 -4.985876,4.73984 l 1.99435,5.289999 c 0.373941,0.97336 0.706333,1.989039 0.41549,2.92008 -0.290843,0.931039 -1.620409,1.227279 -2.576036,0.211599 C 19.561913,30.374503 13.412665,17.847784 12.955626,16.916745 12.498588,15.985705 12,15.223945 12,14.292905 c 0.04155,-1.39656 2.160547,-2.835439 3.19927,-3.554879 1.038726,-0.719441 3.074624,-1.6928005 4.86123,-1.7351205 1.786605,-0.04232 2.534487,0.3808799 3.573211,1.0579995 1.578861,1.058001 2.700683,2.70848 3.116172,4.61288 0.41549,1.904399 0.290844,3.3856 -0.207744,4.443599 m -4.695034,-2.285279 c -0.373941,-1.31192 -1.16337,-2.58152 -2.202094,-3.42792 -0.207745,-0.169279 -0.457039,-0.38088 -0.747882,-0.465519 -1.911253,-0.634801 -1.080273,2.623839 -0.789431,3.470239 0.290843,0.8464 1.080274,2.62384 1.952802,3.512559 0.207745,0.2116 0.415489,0.38088 0.664784,0.4232 0.249294,0.04232 0.74788,-0.2116 0.955626,-0.55016 0.207744,-0.338559 0.249294,-0.59248 0.249294,-0.93104 a 5.3182681,5.4169592 0 0 0 -0.0831,-2.031359 z"/>
  <path style="fill:#f4f4f7" d="m 30.934553,31.97073 c -0.09134,0.365297 -0.31968,0.690005 -0.685027,0.892948 -0.365347,0.202942 -1.233048,0.202942 -1.735401,-0.162355 -0.502353,-0.365296 -0.59369,-0.974124 -0.456684,-1.461186 0.137005,-0.487063 0.59369,-1.014714 1.233048,-1.177068 1.324384,-0.365297 1.918074,0.933536 1.644064,1.907661 z"/>
  <path style="fill:#f4f4f7" d="m 29.437564,27.942053 c -0.71974,-0.292292 -0.479826,-4.300869 0.199928,-9.186321 0.199927,-1.336193 0.519812,-2.004289 0.879682,-2.338337 0.35987,-0.334048 1.43948,-0.501072 2.079249,-0.375804 a 3.5987004,3.7580404 0 0 1 1.959293,1.002144 c 0.479826,0.459317 0.519812,0.960388 0.359869,1.586729 -0.159942,0.626339 -0.719739,1.962532 -1.15958,2.92292 l -1.119597,2.213068 c -2.15922,4.008576 -2.59906,4.426137 -3.198844,4.175601 z"/>
 </g>
</svg>
