<svg width="48" height="48" version="1.1" xmlns="http://www.w3.org/2000/svg">
 <g transform="matrix(2,0,0,2,2,2)">
  <path d="M 15.947266,2.3183594 14.994141,8.0019531 6,12 7,20 6.7929688,20.058594 A 10,10 0 0 0 11,21 10,10 0 0 0 21,11 10,10 0 0 0 15.947266,2.3183594 Z" style="fill:#56aad4"/>
  <path d="M 11,1 A 10,10 0 0 0 1,11 10,10 0 0 0 6.7929688,20.058594 L 7,20 6,12 14.994141,8.0019531 15.947266,2.3183594 A 10,10 0 0 0 11,1 Z" style="fill:#f37b21"/>
  <path d="m14.666016 2.205079c0.08538 0.033589 0.173592 0.061839 0.257812 0.097656-0.08549-0.033735-0.17143-0.06629-0.257812-0.097656zm0.333984 0.1347657v2.1601562h-11.128906a10 10 0 0 0-0.8554688 1h11.984375v3.00781c-0.0014-0.00187-0.0025-0.00399-0.0039-0.00586h-2e-3a5 5 0 0 0-3.9941-2.00195 5 5 0 0 0-2.9902344 1h-6.1699218a10 10 0 0 0-0.3769532 1h5.5449219a5 5 0 0 0-0.90625 2.0000001h-5.0507813a10 10 0 0 0-0.050781 1 10 10 0 0 0 0.060547 1h4.9394528v2h-4.5273438a10 10 0 0 0 1.5390626 3h2.9882812v2.650391c0.3235266 0.18851 0.6573857 0.358699 1 0.509765v-6.167968c0.00249 0.0033 0.00531 0.0064 0.00781 0.0098a5 5 0 0 0 0.4589844 0.53125l-0.00195 2e-3 6.1093756 6.109375c0.362934-0.09442 0.720269-0.209188 1.070312-0.34375l-4.359375-4.357422c0.0045 6.92e-4 0.0091 0.0013 0.01367 2e-3a5 5 0 0 0 0.701173 0.054559h8.650391c0.18851-0.323527 0.358699-0.657386 0.509765-1h-6.167968c0.0033-0.0025 0.0064-0.0053 0.0098-0.0078a5 5 0 0 0 0.53125-0.458985l2e-3 2e-3 6.109375-6.1074217c-0.09448-0.3637004-0.2092-0.7216427-0.343832-1.0723246l-4.357422 4.3574223c4.89e-4 -0.0032-4.82e-4 -0.0066 0-0.0098a5 5 0 0 0 0.056641-0.703091v-8.6503907c-0.323527-0.1885099-0.657386-0.3587-1-0.5097656zm5.300781 5.515625 0.0059-0.00586c-0.02129-0.05452-0.0481-0.1061163-0.07031-0.1601563 0.02198 0.055146 0.04346 0.1104868 0.06445 0.1660157zm0.34375 1.0722656c0.01194 0.037041 0.02365 0.074151 0.03516 0.1113281-0.0099-0.039717-0.0149-0.081564-0.02539-0.1210937zm-6 11.873047 0.0059 0.0059c0.05453-0.0213 0.106106-0.04809 0.160156-0.07031-0.05515 0.02198-0.110487 0.04346-0.166016 0.06445zm-1.070312 0.34375c-0.03769 0.01194-0.07545 0.02366-0.113281 0.03516 0.04037-0.01008 0.08289-0.01476 0.123046-0.02539zm2.890625-18.009766c0.0703 0.045904 0.14385 0.087155 0.21289 0.1347656-0.0704-0.045814-0.141364-0.090739-0.21289-0.1347656zm0.951172 0.6972656c0.05438 0.045492 0.104833 0.095956 0.158203 0.1425782-0.05223-0.048086-0.104964-0.095615-0.158203-0.1425782zm0.673828 0.6230469c0.08262 0.083124 0.160584 0.1698694 0.240234 0.2558594-0.07858-0.086685-0.158665-0.1719848-0.240234-0.2558594zm0.621094 0.6894531c0.07862 0.095571 0.155453 0.1925928 0.230468 0.2910157-0.07478-0.09795-0.150235-0.1959966-0.228515-0.2910157zm0.582031 0.78125c0.06137 0.091352 0.12325 0.1819107 0.18164 0.2753907-0.05903-0.092789-0.119583-0.1845988-0.18164-0.2753907zm0.501953 0.8378907c0.04808 0.083304 0.09496 0.1672968 0.140625 0.2519531-0.04305-0.08601-0.09323-0.1674041-0.138672-0.2519531zm1.123047 3.5566402c0.048 0.3867 0.08203 0.779688 0.08203 1.179688-4e-3 -0.394503-0.03144-0.788421-0.08203-1.179688zm-0.05859 2.757813c-0.02366 0.14862-0.04021 0.298992-0.07031 0.445313 0.02678-0.147892 0.05022-0.296366 0.07031-0.445313zm-0.244141 1.125c-0.02524 0.08999-0.04461 0.182544-0.07227 0.271484 0.02536-0.09015 0.04945-0.180655 0.07227-0.271484zm-0.322265 0.962891c-0.03359 0.08538-0.06183 0.173592-0.09766 0.257812 0.03374-0.08549 0.06629-0.17143 0.09766-0.257812zm-0.927735 1.798828c-0.04591 0.07032-0.08715 0.14384-0.134765 0.21289 0.04581-0.0704 0.09074-0.141364 0.134765-0.21289zm-0.699218 0.951172c-0.03994 0.04775-0.08418 0.0917-0.125 0.138672 0.0421-0.04583 0.08377-0.09206 0.125-0.138672zm-0.634766 0.6875c-0.07465 0.0739-0.153519 0.143323-0.230469 0.214843 0.07795-0.0704 0.154779-0.142023 0.230469-0.214843zm-0.669922 0.603515c-0.10294 0.08494-0.208083 0.167227-0.314453 0.248047 0.106463-0.08057 0.211302-0.163274 0.314453-0.248047zm-0.767578 0.56836c-0.09989 0.06749-0.198331 0.137253-0.300781 0.201171 0.101465-0.06524 0.201742-0.132305 0.300781-0.201171zm-0.859375 0.521484c-0.08456 0.04544-0.165933 0.09561-0.251953 0.138672 0.08465-0.04501 0.168638-0.09124 0.251953-0.138672zm-8.6445312 0.408203c0.044805 0.0166 0.089728 0.03287 0.1347656 0.04883-0.044171-0.01796-0.090906-0.03026-0.1347656-0.04883zm0.9355468 0.341797c0.065574 0.01825 0.1313327 0.03583 0.1972656 0.05273-0.065182-0.0188-0.1326356-0.03266-0.1972656-0.05273zm0.96875 0.25c0.093542 0.01566 0.187301 0.02998 0.28125 0.04297-0.09337-0.01627-0.18881-0.02414-0.28125-0.04297zm3.1835934 0.121094c-0.387008 0.048-0.778691 0.08203-1.179691 0.08203 0.394503-4e-3 0.78842-0.03144 1.179687-0.08203z" style="opacity:.1"/>
  <path d="m14.666016 1.7050781c0.08538 0.033589 0.173592 0.061839 0.257812 0.097656-0.08549-0.033735-0.17143-0.06629-0.257812-0.097656zm0.333984 0.1347657v2.1601562h-11.128906a10 10 0 0 0-0.8554688 1h11.984375v3.00781c-0.0014-0.00187-0.0025-0.00399-0.0039-0.00586h-2e-3a5 5 0 0 0-3.9941-2.00195 5 5 0 0 0-2.9902344 1h-6.1699218a10 10 0 0 0-0.3769532 1h5.5449219a5 5 0 0 0-0.90625 2h-5.0507813a10 10 0 0 0-0.0507812 1 10 10 0 0 0 0.0605469 1h4.9394531v2h-4.5273438a10 10 0 0 0 1.5390626 3h2.9882812v2.650391c0.3235266 0.18851 0.6573857 0.358699 1 0.509765v-6.167968c0.00249 0.0033 0.00531 0.0064 0.00781 0.0098a5 5 0 0 0 0.4589844 0.53125l-0.00195 2e-3 6.1093756 6.109375c0.362934-0.09442 0.720269-0.209188 1.070312-0.34375l-4.359375-4.357422c0.0045 6.92e-4 0.0091 0.0013 0.01367 2e-3a5 5 0 0 0 0.701173 0.054559h8.650391c0.18851-0.323527 0.358699-0.657386 0.509765-1h-6.167968c0.0033-0.0025 0.0064-0.0053 0.0098-0.0078a5 5 0 0 0 0.53125-0.458985l2e-3 2e-3 6.109375-6.1074216c-0.094482-0.3637004-0.2092-0.7216427-0.343832-1.0723246l-4.357422 4.3574222c4.89e-4 -0.0032-4.82e-4 -0.0066 0-0.0098a5 5 0 0 0 0.056641-0.703091v-8.6503906c-0.323527-0.1885099-0.657386-0.3587-1-0.5097656zm5.300781 5.515625 0.0059-0.00586c-0.02129-0.05452-0.0481-0.1061163-0.07031-0.1601563 0.02198 0.055146 0.04346 0.1104868 0.06445 0.1660157zm0.34375 1.0722656c0.01194 0.037041 0.02365 0.074151 0.03516 0.1113281-0.0099-0.039717-0.0149-0.081564-0.02539-0.1210937zm-6 11.873047 0.0059 0.0059c0.05453-0.0213 0.106106-0.04809 0.160156-0.07031-0.05515 0.02198-0.110487 0.04346-0.166016 0.06445zm-1.070312 0.34375c-0.03769 0.01194-0.07545 0.02366-0.113281 0.03516 0.04037-0.01008 0.08289-0.01476 0.123046-0.02539zm2.890625-18.009765c0.0703 0.045904 0.14385 0.087155 0.21289 0.1347656-0.0704-0.045814-0.141364-0.090739-0.21289-0.1347656zm0.951172 0.6972656c0.05438 0.045492 0.104833 0.095956 0.158203 0.1425782-0.05223-0.048086-0.104964-0.095615-0.158203-0.1425782zm0.673828 0.6230469c0.08262 0.083124 0.160584 0.1698694 0.240234 0.2558594-0.07858-0.086685-0.158665-0.1719848-0.240234-0.2558594zm0.621094 0.6894531c0.07862 0.095571 0.155453 0.1925928 0.230468 0.2910157-0.07478-0.09795-0.150235-0.1959966-0.228515-0.2910157zm0.582031 0.78125c0.06137 0.091352 0.12325 0.1819107 0.18164 0.2753907-0.05903-0.092789-0.119583-0.1845988-0.18164-0.2753907zm0.501953 0.8378907c0.04808 0.083304 0.09496 0.1672968 0.140625 0.2519531-0.04305-0.08601-0.09323-0.1674041-0.138672-0.2519531zm1.123047 3.5566406c0.048 0.3866995 0.082031 0.7796875 0.082031 1.1796875-4e-3 -0.394503-0.031441-0.788421-0.082031-1.1796875zm-0.05859 2.7578125c-0.02366 0.14862-0.04021 0.298992-0.07031 0.445313 0.02678-0.147892 0.05022-0.296366 0.07031-0.445313zm-0.244141 1.125c-0.02524 0.08999-0.04461 0.182544-0.07227 0.271484 0.02536-0.09015 0.04945-0.180655 0.07227-0.271484zm-0.322265 0.962891c-0.03359 0.08538-0.06183 0.173592-0.09766 0.257812 0.03374-0.08549 0.06629-0.17143 0.09766-0.257812zm-0.927735 1.798828c-0.04591 0.07032-0.08715 0.14384-0.134765 0.21289 0.04581-0.0704 0.09074-0.141364 0.134765-0.21289zm-0.699218 0.951172c-0.03994 0.04775-0.08418 0.0917-0.125 0.138672 0.0421-0.04583 0.08377-0.09206 0.125-0.138672zm-0.634766 0.6875c-0.07465 0.0739-0.153519 0.143323-0.230469 0.214843 0.07795-0.0704 0.154779-0.142023 0.230469-0.214843zm-0.669922 0.603515c-0.10294 0.08494-0.208083 0.167227-0.314453 0.248047 0.106463-0.08057 0.211302-0.163274 0.314453-0.248047zm-0.767578 0.56836c-0.09989 0.06749-0.198331 0.137253-0.300781 0.201171 0.101465-0.06524 0.201742-0.132305 0.300781-0.201171zm-0.859375 0.521484c-0.08456 0.04544-0.165933 0.09561-0.251953 0.138672 0.08465-0.04501 0.168638-0.09124 0.251953-0.138672zm-8.6445312 0.408203c0.044805 0.0166 0.089728 0.03287 0.1347656 0.04883-0.044171-0.01796-0.090906-0.03026-0.1347656-0.04883zm0.9355468 0.341797c0.065574 0.01825 0.1313327 0.03583 0.1972656 0.05273-0.065182-0.0188-0.1326356-0.03266-0.1972656-0.05273zm0.96875 0.25c0.093542 0.01566 0.187301 0.02998 0.28125 0.04297-0.09337-0.01627-0.18881-0.02414-0.28125-0.04297zm3.1835934 0.121094c-0.387008 0.048-0.778691 0.082031-1.179691 0.082031 0.394503-4e-3 0.78842-0.03144 1.179687-0.08203z" style="fill:#f4f4f7"/>
  <path d="M 11,1 A 10,10 0 0 0 1,11 10,10 0 0 0 1.0098,11.293 10,10 0 0 1 11,1.5 10,10 0 0 1 20.99,11.207 10,10 0 0 0 21,11 10,10 0 0 0 11,1 Z" style="fill:#f4f4f7;opacity:.2"/>
  <path d="M 20.99,11.207 A 10,10 0 0 1 11,21 10,10 0 0 1 1.0098,11.293 10,10 0 0 0 1,11.5 a 10,10 0 0 0 10,10 10,10 0 0 0 10,-10 10,10 0 0 0 -0.0098,-0.29297 z" style="opacity:.2"/>
 </g>
</svg>
