<svg xmlns="http://www.w3.org/2000/svg" width="48" height="48" version="1.1">
 <circle style="opacity:0.2" cx="24" cy="25" r="20"/>
 <circle style="fill:#ff6c37" cx="24" cy="24" r="20"/>
 <path style="opacity:0.2;fill:#f4f4f7" d="M 24,4 A 20,20 0 0 0 4,24 20,20 0 0 0 4.0215,24.582 20,20 0 0 1 24,5 20,20 0 0 1 43.979,24.418 20,20 0 0 0 44,24 20,20 0 0 0 24,4 Z"/>
 <path style="opacity:0.2" d="m 32.909662,13.002689 c -0.705535,0.03008 -1.401381,0.312119 -1.947985,0.841388 -1.200151,1.166801 -1.24661,3.092774 -0.09399,4.307689 l -0.0129,-0.02426 c 0.903085,0.938252 2.305748,1.178112 3.470251,0.600727 L 32.257263,16.64808 c -0.0713,-0.0842 -0.0713,-0.204969 0,-0.289169 l 2.661202,-2.682744 c -0.588194,-0.48115 -1.303267,-0.703551 -2.008803,-0.673478 z m 2.294457,0.949594 -2.530353,2.563344 1.984844,2.007395 c 0.166358,-0.108259 0.308928,-0.238939 0.45152,-0.371256 1.152622,-1.154772 1.187197,-3.008625 0.09399,-4.199483 z m -0.136377,1.542857 c 0.06324,-2.4e-4 0.123202,0.02946 0.160336,0.08209 0.213888,0.408981 0.155161,0.901119 -0.141907,1.249956 -0.03565,0.04811 -0.108293,0.08395 -0.167706,0.08395 -0.04753,0.01203 -0.107277,0.01203 -0.154808,0 l -0.01106,-0.0112 c -0.08318,-0.0842 -0.07212,-0.22922 0.01106,-0.313423 0.178241,-0.204489 0.203602,-0.5038 0.08478,-0.744377 0,-0.01203 -0.0129,-0.01223 -0.0129,-0.02426 -0.04753,-0.10826 0.01284,-0.241055 0.119791,-0.28917 0.03565,-0.02255 0.07448,-0.03344 0.112419,-0.03358 z m -5.937944,2.104405 c -1.27609,-0.104312 -3.372303,1.305343 -8.790811,6.781483 l 1.568339,1.589498 7.344106,-7.434445 c 0.261419,-0.264635 0.60655,-0.409603 0.974913,-0.421627 -0.335685,-0.276665 -0.671184,-0.480137 -1.096547,-0.514909 z m 1.118663,0.975713 c -0.261419,0 -0.522269,0.09815 -0.724274,0.296631 l -7.320148,7.361689 0.985972,1.046606 7.736651,-6.904615 c 0.213888,-0.192461 0.332749,-0.455684 0.344629,-0.744377 0.01188,-0.276663 -0.09471,-0.554812 -0.296713,-0.759303 -0.202005,-0.198475 -0.464698,-0.296631 -0.726117,-0.296631 z m 1.140778,1.861877 c -0.05941,0.0842 -0.129582,0.156262 -0.20088,0.21641 l -7.736651,6.891554 1.378517,1.395475 c 3.196444,-3.091418 6.309477,-6.266071 6.559014,-8.503439 z m -11.335908,4.184558 -1.936927,1.960753 -0.03502,0.04851 c -0.03565,0.03609 -0.0469,0.07315 -0.03502,0.121265 0.01188,0.07218 0.08167,0.120231 0.152964,0.108206 l 3.315443,-0.72199 z m 1.877954,1.960753 -1.105762,1.119364 c -0.02377,0.03609 -0.02377,0.08517 0,0.121265 0.03565,0.02406 0.07124,0.02406 0.10689,0 l 1.818978,-0.470134 z m 1.164736,1.143618 -3.005831,0.649231 -6.203327,6.290828 2.019859,2.106271 c 0.05941,0.06015 0.166442,0.06015 0.237739,0 0.07129,-0.04811 0.119602,-0.144432 0.09583,-0.240663 L 15.906719,35.08775 c -0.03565,-0.168403 0.04825,-0.337427 0.202724,-0.421627 h 0.01106 v -0.02426 c 3.018204,-1.455493 5.846346,-3.295438 8.413008,-5.460634 z m -9.529829,7.240423 -1.557282,1.589496 c -0.01188,0.03609 -0.01188,0.08248 0,0.130593 0.01188,0.03609 0.05936,0.0738 0.10689,0.08582 L 15.586051,37 Z"/>
 <path style="fill:#f4f4f7" d="m 32.909662,12.002687 c -0.705535,0.03008 -1.401381,0.312119 -1.947985,0.841388 -1.200151,1.166801 -1.24661,3.092774 -0.09399,4.307689 l -0.0129,-0.02426 c 0.903085,0.938252 2.305748,1.178112 3.470251,0.600727 l -2.067775,-2.080153 c -0.0713,-0.0842 -0.0713,-0.204969 0,-0.289169 l 2.661202,-2.682744 c -0.588194,-0.48115 -1.303267,-0.703551 -2.008803,-0.673478 z m 2.294457,0.949594 -2.530353,2.563344 1.984844,2.007395 c 0.166358,-0.108259 0.308928,-0.238939 0.45152,-0.371256 1.152622,-1.154772 1.187197,-3.008625 0.09399,-4.199483 z m -0.136377,1.542857 c 0.06324,-2.4e-4 0.123202,0.02946 0.160336,0.08209 0.213888,0.408981 0.155161,0.901119 -0.141907,1.249956 -0.03565,0.04811 -0.108293,0.08395 -0.167706,0.08395 -0.04753,0.01203 -0.107277,0.01203 -0.154808,0 l -0.01106,-0.0112 c -0.08318,-0.0842 -0.07212,-0.22922 0.01106,-0.313423 0.178241,-0.204489 0.203602,-0.5038 0.08478,-0.744377 0,-0.01203 -0.0129,-0.01223 -0.0129,-0.02426 -0.04753,-0.10826 0.01284,-0.241055 0.119791,-0.28917 0.03565,-0.02255 0.07448,-0.03344 0.112419,-0.03358 z m -5.937944,2.104405 c -1.27609,-0.104312 -3.372303,1.305343 -8.790811,6.781483 l 1.568339,1.589498 7.344106,-7.434445 c 0.261419,-0.264635 0.60655,-0.409603 0.974913,-0.421627 -0.335685,-0.276665 -0.671184,-0.480137 -1.096547,-0.514909 z m 1.118663,0.975713 c -0.261419,0 -0.522269,0.09815 -0.724274,0.296631 l -7.320148,7.361689 0.985972,1.046606 7.736651,-6.904615 c 0.213888,-0.192461 0.332749,-0.455684 0.344629,-0.744377 0.01188,-0.276663 -0.09471,-0.554812 -0.296713,-0.759303 -0.202005,-0.198475 -0.464698,-0.296631 -0.726117,-0.296631 z m 1.140778,1.861877 c -0.05941,0.0842 -0.129582,0.156262 -0.20088,0.21641 l -7.736651,6.891554 1.378517,1.395475 c 3.196444,-3.091418 6.309477,-6.266071 6.559014,-8.503439 z m -11.335908,4.184558 -1.936927,1.960753 -0.03502,0.04851 c -0.03565,0.03609 -0.0469,0.07315 -0.03502,0.121265 0.01188,0.07218 0.08167,0.120231 0.152964,0.108206 l 3.315443,-0.72199 z m 1.877954,1.960753 -1.105762,1.119364 c -0.02377,0.03609 -0.02377,0.08517 0,0.121265 0.03565,0.02406 0.07124,0.02406 0.10689,0 l 1.818978,-0.470134 z m 1.164736,1.143618 -3.005831,0.649231 -6.203327,6.290828 2.019859,2.106271 c 0.05941,0.06015 0.166442,0.06015 0.237739,0 0.07129,-0.04811 0.119602,-0.144432 0.09583,-0.240663 l -0.333572,-1.443981 c -0.03565,-0.168403 0.04825,-0.337427 0.202724,-0.421627 h 0.01106 v -0.02426 c 3.018204,-1.455493 5.846346,-3.295438 8.413008,-5.460634 z m -9.529829,7.240423 -1.557282,1.589496 c -0.01188,0.03609 -0.01188,0.08248 0,0.130593 0.01188,0.03609 0.05936,0.0738 0.10689,0.08582 l 3.470251,0.227604 z"/>
</svg>
