<svg xmlns="http://www.w3.org/2000/svg" width="48" height="48" version="1">
 <path style="opacity:0.2" d="M 24,5 C 18.46,5 13.460703,7.2307031 9.8457031,10.845703 L 24,25 9.8457031,39.154297 C 13.460703,42.769297 18.46,45 24,45 35.08,45 44,36.08 44,25 44,13.92 35.08,5 24,5 Z"/>
 <path style="fill:#fc66cc" d="M 24 4 C 18.46 4 13.460703 6.2307031 9.8457031 9.8457031 L 24 24 L 9.8457031 38.154297 C 13.460703 41.769297 18.46 44 24 44 C 35.08 44 44 35.08 44 24 C 44 12.92 35.08 4 24 4 z"/>
 <path style="fill:#f4f4f7;opacity:0.2" d="M 24 4 C 18.46 4 13.460703 6.2307031 9.8457031 9.8457031 L 10.369141 10.369141 C 13.93744 7.0447178 18.715806 5 24 5 C 34.912126 5 43.72361 13.653863 43.988281 24.5 C 43.992353 24.333141 44 24.167874 44 24 C 44 12.92 35.08 4 24 4 z M 23.5 24.5 L 9.8457031 38.154297 C 10.012624 38.321217 10.1964 38.469925 10.369141 38.630859 L 24 25 L 23.5 24.5 z"/>
 <path style="opacity:0.2" d="m 24,15.000031 a 10,10 0 0 0 -10,10 10,10 0 0 0 10,10 v 3.955078 l 0.08789,0.08789 6.8125,-6.810547 a 10,10 0 0 0 0.171875,-0.171875 l 0.08789,-0.08789 -0.0039,-0.0039 A 10,10 0 0 0 34,25.000031 a 10,10 0 0 0 -10,-10 z"/>
 <path style="fill:#f4f4f7" d="M 34,24 A 10,10 0 0 1 24,34 10,10 0 0 1 14,24 10,10 0 0 1 24,14 10,10 0 0 1 34,24 Z"/>
 <path style="fill:#f4f4f7" d="M 24.087891 23.902344 L 24 23.990234 L 24 37.955078 L 24.087891 38.042969 L 31.160156 30.972656 L 24.087891 23.902344 z"/>
</svg>
