<svg xmlns="http://www.w3.org/2000/svg" width="48" height="48" version="1">
 <rect style="opacity:0.2" width="40" height="36" x="4" y="6" rx="2" ry="2"/>
 <rect style="fill:#1e88e5" width="40" height="36" x="4" y="5" rx="2" ry="2"/>
 <rect style="opacity:0.2" width="20" height="15" x="26" y="10" rx="1" ry="1"/>
 <rect style="fill:#ebebeb" width="20" height="15" x="26" y="9" rx="1" ry="1"/>
 <rect style="opacity:0.2" width="20" height="15" x="2" y="10" rx="1" ry="1"/>
 <rect style="fill:#ebebeb" width="20" height="15" x="2" y="9" rx="1" ry="1"/>
 <rect style="opacity:0.2" width="20" height="15" x="14" y="29" rx="1" ry="1"/>
 <rect style="fill:#ebebeb" width="20" height="15" x="14" y="28" rx="1" ry="1"/>
 <path style="opacity:0.2;fill:#f4f4f7" d="M 6 5 C 4.892 5 4 5.892 4 7 L 4 8 C 4 6.892 4.892 6 6 6 L 42 6 C 43.108 6 44 6.892 44 8 L 44 7 C 44 5.892 43.108 5 42 5 L 6 5 z"/>
</svg>
