<svg xmlns="http://www.w3.org/2000/svg" width="48" height="48" version="1">
 <rect style="fill:#b2bfd9" width="40" height="40" x="4" y="4" rx="2" ry="2"/>
 <path fill="#fff" opacity=".2" d="m6 4c-1.108 0-2 0.892-2 2v1c0-1.108 0.892-2 2-2h36c1.108 0 2 0.892 2 2v-1c0-1.108-0.892-2-2-2h-36z"/>
 <path opacity=".2" d="m6 45c-1.108 0-2-0.892-2-2v-1c0 1.108 0.892 2 2 2h36c1.108 0 2-0.892 2-2v1c0 1.108-0.892 2-2 2h-36z"/>
 <path style="opacity:0.2" d="m 14,13 c -1.108,0 -2,0.892 -2,2 v 20 c 0,1.108 0.892,2 2,2 1.108,0 2,-0.892 2,-2 V 15 c 0,-1.108 -0.892,-2 -2,-2 z"/>
 <path style="opacity:0.2" d="m 24,13 c -1.108,0 -2,0.892 -2,2 v 20 c 0,1.108 0.892,2 2,2 1.108,0 2,-0.892 2,-2 V 15 c 0,-1.108 -0.892,-2 -2,-2 z"/>
 <path style="opacity:0.2" d="m 34,13 c -1.108,0 -2,0.892 -2,2 v 20 c 0,1.108 0.892,2 2,2 1.108,0 2,-0.892 2,-2 V 15 c 0,-1.108 -0.892,-2 -2,-2 z"/>
 <path style="fill:#4f4f4f" d="m 12,20 v 15 c 0,1.108 0.892,2 2,2 1.108,0 2,-0.892 2,-2 V 20 Z"/>
 <path style="fill:#4f4f4f" d="m 32,20 v 15 c 0,1.108 0.892,2 2,2 1.108,0 2,-0.892 2,-2 V 20 Z"/>
 <path style="fill:#4f4f4f" d="m 22,28 v 7 c 0,1.108 0.892,2 2,2 1.108,0 2,-0.892 2,-2 v -7 z"/>
 <rect style="opacity:0.1" width="10" height="6" x="9" y="19" rx="2" ry="2"/>
 <rect style="fill:#818181" width="10" height="6" x="9" y="18" rx="2" ry="2"/>
 <rect style="opacity:0.1" width="10" height="6" x="19" y="27" rx="2" ry="2"/>
 <rect style="fill:#818181" width="10" height="6" x="19" y="26" rx="2" ry="2"/>
 <rect style="opacity:0.1" width="10" height="6" x="29" y="19" rx="2" ry="2"/>
 <rect style="fill:#818181" width="10" height="6" x="29" y="18" rx="2" ry="2"/>
</svg>
