<svg xmlns="http://www.w3.org/2000/svg" width="48" height="48" version="1.1">
 <g transform="translate(0,-1074.5197)">
  <path style="opacity:0.2" d="m 24,1079.5197 a 20,20 0 0 0 -20,20 20,20 0 0 0 20,20 20,20 0 0 0 9.019531,-2.1523 l -5.433593,-5.4336 -0.363282,-0.3633 -0.40039,-0.4004 A 12,12 0 0 1 24,1111.5197 a 12,12 0 0 1 -12,-12 12,12 0 0 1 12,-12 12,12 0 0 1 12,12 12,12 0 0 1 -0.349609,2.8223 l 0.365234,0.3652 0.398437,0.3984 5.419922,5.42 A 20,20 0 0 0 44,1099.5197 a 20,20 0 0 0 -20,-20 z"/>
  <path style="fill:#90ae24" transform="translate(0,1074.5197)" d="M 24 4 A 20 20 0 0 0 4 24 A 20 20 0 0 0 24 44 A 20 20 0 0 0 33.019531 41.847656 L 27.585938 36.414062 L 27.222656 36.050781 L 26.822266 35.650391 A 12 12 0 0 1 24 36 A 12 12 0 0 1 12 24 A 12 12 0 0 1 24 12 A 12 12 0 0 1 36 24 A 12 12 0 0 1 35.650391 26.822266 L 36.015625 27.1875 L 36.414062 27.585938 L 41.833984 33.005859 A 20 20 0 0 0 44 24 A 20 20 0 0 0 24 4 z"/>
  <path style="opacity:0.2" d="m 21,1096.5197 v 5.9805 l 0.978516,0.998 4.021484,4.0215 0.181641,0.1816 2.455078,2.4551 0.363281,0.3633 10,10 h 6 v -6 l -10,-10 -0.398438,-0.3984 -2.578124,-2.5782 -0.02344,-0.023 -5,-5 z"/>
  <path style="fill:#ee7913" transform="translate(0,1074.5197)" d="M 21 21 L 21 26.980469 L 21.978516 27.978516 L 26.181641 32.181641 L 26.181641 26.023438 L 32.023438 26.023438 L 27 21 L 21 21 z"/>
  <path style="fill:#609a30" transform="translate(0,1074.5197)" d="M 28.636719 28.535156 L 28.636719 34.636719 L 39 45 L 45 45 L 45 39 L 34.601562 28.601562 L 34.53125 28.535156 L 28.636719 28.535156 z"/>
  <path style="fill:#f0e64a" transform="translate(0,1074.5197)" d="M 26 26 L 26 32 L 29 35 L 29 29 L 35 29 L 32 26 L 26 26 z"/>
  <path style="fill:#f4f4f7;opacity:0.2" transform="translate(0,1074.5197)" d="M 21 21 L 45 45 L 45 39 L 35 29 L 34.601562 28.601562 L 32.023438 26.023438 L 32 26 L 27 21 L 21 21 z"/>
  <path style="opacity:0.2;fill:#f4f4f7" transform="translate(0,1074.5197)" d="M 24 4 A 20 20 0 0 0 4 24 A 20 20 0 0 0 4.0214844 24.417969 A 20 20 0 0 1 24 5 A 20 20 0 0 1 43.978516 24.578125 A 20 20 0 0 0 44 24 A 20 20 0 0 0 24 4 z M 35.978516 24.390625 A 12 12 0 0 1 35.650391 26.822266 L 35.8125 26.984375 A 12 12 0 0 0 36 25 A 12 12 0 0 0 35.978516 24.390625 z M 12.019531 24.59375 A 12 12 0 0 0 12 25 A 12 12 0 0 0 24 37 A 12 12 0 0 0 26.822266 36.650391 L 27.222656 37.050781 L 27.585938 37.414062 L 32.335938 42.164062 A 20 20 0 0 0 33.019531 41.847656 L 27.585938 36.414062 L 27.222656 36.050781 L 26.822266 35.650391 A 12 12 0 0 1 24 36 A 12 12 0 0 1 12.019531 24.59375 z"/>
 </g>
</svg>
