<svg xmlns="http://www.w3.org/2000/svg" width="48" height="48" version="1">
 <path style="opacity:0.2" d="M 32.000002,44 H 10.769232 C 9.2350785,44 8.0000017,42.662 8.0000017,41 V 11 c 0,-1.662 1.2350768,-3 2.7692303,-3 h 30.461539 c 1.534154,0 2.769231,1.338 2.769231,3 v 21 z"/>
 <path style="fill:#b2bfd9" d="M 32.000002,43 H 10.769232 C 9.2350784,43 8.0000016,41.662 8.0000016,40 V 10 c 0,-1.6619999 1.2350768,-3 2.7692304,-3 h 30.461539 c 1.534154,0 2.769231,1.3380001 2.769231,3 v 21 z"/>
 <path style="fill:#b0b0b0" d="m 11.000002,9 c -0.552285,0 -1,0.447715 -1,1 0,0.552285 0.447715,1 1,1 0.552284,0 1,-0.447715 1,-1 0,-0.552285 -0.447716,-1 -1,-1 z m 3,0 v 2 h 24 V 9 Z m 27,0 c -0.552285,0 -1,0.447715 -1,1 0,0.552285 0.447715,1 1,1 0.552285,0 1,-0.447715 1,-1 0,-0.552285 -0.447715,-1 -1,-1 z m -30,6 c -0.552285,0 -1,0.447715 -1,1 0,0.552285 0.447715,1 1,1 0.552284,0 1,-0.447715 1,-1 0,-0.552285 -0.447716,-1 -1,-1 z m 3,0 v 2 h 24 v -2 z m 27,0 c -0.552285,0 -1,0.447715 -1,1 0,0.552285 0.447715,1 1,1 0.552285,0 1,-0.447715 1,-1 0,-0.552285 -0.447715,-1 -1,-1 z m -30,6 c -0.552285,0 -1,0.447715 -1,1 0,0.552285 0.447715,1 1,1 0.552284,0 1,-0.447715 1,-1 0,-0.552285 -0.447716,-1 -1,-1 z m 3,0 v 2 h 24 v -2 z m 27,0 c -0.552285,0 -1,0.447715 -1,1 0,0.552285 0.447715,1 1,1 0.552285,0 1,-0.447715 1,-1 0,-0.552285 -0.447715,-1 -1,-1 z m -30,6 c -0.552285,0 -1,0.447715 -1,1 0,0.552285 0.447715,1 1,1 0.552284,0 1,-0.447715 1,-1 0,-0.552285 -0.447716,-1 -1,-1 z m 3,0 v 2 h 24 v -2 z m 27,0 c -0.552285,0 -1,0.447715 -1,1 0,0.552285 0.447715,1 1,1 0.552285,0 1,-0.447715 1,-1 0,-0.552285 -0.447715,-1 -1,-1 z m -30,6 c -0.552285,0 -1,0.447715 -1,1 0,0.552285 0.447715,1 1,1 0.552284,0 1,-0.447715 1,-1 0,-0.552285 -0.447716,-1 -1,-1 z m 3,0 v 2 h 20 v -2 z m -3,6 c -0.552285,0 -1,0.447715 -1,1 0,0.552285 0.447715,1 1,1 0.552284,0 1,-0.447715 1,-1 0,-0.552285 -0.447716,-1 -1,-1 z m 3,0 v 2 h 19 v -2 z"/>
 <circle style="opacity:0.3;fill:#328fff" cx="-25" cy="17" r="12" transform="scale(-1,1)"/>
 <path style="opacity:0.2;fill:#f4f4f7" d="M 10.769533,7 C 9.2353792,7 8.0000017,8.3379999 8.0000017,10 v 1 c 0,-1.662 1.2353775,-3 2.7695313,-3 h 30.460938 c 1.534154,0 2.769531,1.338 2.769531,3 v -1 c 0,-1.6620001 -1.235377,-3 -2.769531,-3 z"/>
 <path style="fill:#fafafa" d="m 34.769533,31 c -1.534154,0 -2.769531,1.337999 -2.769531,3 v 9 l 12,-12 z"/>
 <path style="opacity:0.1" d="m 16.292971,25.292938 -5,5 1.414062,1.414062 5,-5 z"/>
 <path style="fill:none;stroke:#6e6e6e;stroke-width:2" d="m 12.000002,30 5,-5"/>
 <path style="opacity:0.1" d="M 11.638745,29.000974 A 2.2944236,2.2938699 0 0 0 10.06298,29.695339 L 4.7102345,35.046793 A 2.2944236,2.2938699 0 1 0 7.953248,38.29089 l 5.352746,-5.353321 a 2.2944236,2.2938699 0 0 0 -1.667249,-3.936595 z"/>
 <path style="fill:#4f4f4f" d="m 11.638745,28.000977 a 2.2944236,2.2938699 0 0 0 -1.575765,0.694365 l -5.3527455,5.351454 a 2.2944236,2.2938699 0 1 0 3.2430135,3.244097 l 5.352746,-5.353321 a 2.2944236,2.2938699 0 0 0 -1.667249,-3.936595 z"/>
 <path style="opacity:0.1" d="m 25.001955,4.9999998 c -7.170754,0 -13.001953,5.8312002 -13.001953,13.0019532 0,7.170754 5.831199,12.998047 13.001953,12.998047 7.170753,0 12.998047,-5.827293 12.998047,-12.998047 0,-7.170753 -5.827294,-13.0019532 -12.998047,-13.0019532 z m -0.002,3 c 5.530828,0 10,4.4691722 10,10.0000002 0,5.530829 -4.469172,10 -10,10 -5.530829,0 -10,-4.469171 -10,-10 0,-5.530828 4.469171,-10.0000002 10,-10.0000002 z"/>
 <path style="fill:#328fff" d="M 25.001955,3.9999998 C 17.831201,3.9999998 12.000002,9.8312 12.000002,17.001953 12.000002,24.172707 17.831201,30 25.001955,30 32.172708,30 38.000002,24.172707 38.000002,17.001953 38.000002,9.8312 32.172708,3.9999998 25.001955,3.9999998 Z m -0.002,3 c 5.530828,0 10,4.4691722 10,10.0000002 0,5.530829 -4.469172,10 -10,10 -5.530829,0 -10,-4.469171 -10,-10 0,-5.530828 4.469171,-10.0000002 10,-10.0000002 z"/>
</svg>
