<svg xmlns="http://www.w3.org/2000/svg" width="48" height="48" version="1.1">
 <path style="opacity:0.2" d="m 19.898307,5.0005298 c -0.425,0.0462 -0.799,0.3931 -0.877,0.8125 l -0.845,4.2812002 c -1.517,0.5923 -2.943,1.4062 -4.195001,2.4062 l -4.1635002,-1.4062 c -0.4326,-0.1489 -0.9572,0.0441 -1.1896,0.4374 l -4.0072,6.9378 c -0.2257,0.399 -0.1289,0.951 0.2192,1.25 l 3.3184,2.906 c -0.11686,0.77924 -0.18783,1.5632 -0.18783,2.375 0,0.81174 0.07103,1.5957 0.18783,2.375 l -3.3184,2.906 c -0.3481,0.299 -0.4449,0.851 -0.2192,1.25 l 4.0071,6.9374 c 0.2324,0.39342 0.75706,0.58638 1.1896,0.43749 l 4.1637002,-1.4062 c 1.251401,0.99995 2.677601,1.8138 4.195001,2.4062 l 0.84526,4.2812 c 0.08565,0.44814 0.51346,0.80628 0.97048,0.81248 h 8.0143 c 0.45701,-0.006 0.88479,-0.36434 0.97048,-0.81248 l 0.84526,-4.2812 c 1.5174,-0.59236 2.9436,-1.4063 4.195,-2.4062 l 4.1637,1.4062 c 0.43256,0.14889 0.95722,-0.0441 1.1896,-0.43749 l 4.0071,-6.9374 c 0.22571,-0.399 0.1289,-0.95119 -0.21914,-1.25 l -3.317,-2.906 c 0.11686,-0.77924 0.18784,-1.5632 0.18784,-2.375 0,-0.81174 -0.07103,-1.5957 -0.18784,-2.375 l 3.3184,-2.9062 c 0.34804,-0.29878 0.44485,-0.85097 0.21914,-1.25 l -4.007,-6.9378 c -0.232,-0.3934 -0.757,-0.5863 -1.189,-0.4374 l -4.1637,1.4062 c -1.252,-1 -2.678,-1.8139 -4.195,-2.4062 l -0.845,-4.2812002 c -0.086,-0.4481 -0.514,-0.8063 -0.971,-0.8125 h -8.0143 c -0.03126,-0.001 -0.06261,-0.001 -0.09387,0 z"/>
 <path style="fill:#00cc5c" d="m 19.898307,4.0007398 c -0.425,0.0462 -0.799,0.3931 -0.877,0.8125 l -0.845,4.2812 c -1.517,0.5923 -2.943,1.4062002 -4.195001,2.4062002 l -4.1635002,-1.4062 c -0.4326,-0.1489002 -0.9572,0.0441 -1.1896,0.4374 l -4.0072,6.9378 c -0.2257,0.399 -0.1289,0.951 0.2192,1.25 l 3.3184,2.906 c -0.11686,0.77924 -0.18783,1.5632 -0.18783,2.375 0,0.81174 0.07103,1.5957 0.18783,2.375 l -3.3184,2.906 c -0.3481,0.299 -0.4449,0.851 -0.2192,1.25 l 4.0071,6.9374 c 0.2324,0.39342 0.75706,0.58638 1.1896,0.43749 l 4.1637002,-1.4062 c 1.251401,0.99995 2.677601,1.8138 4.195001,2.4062 l 0.84526,4.2812 c 0.08565,0.44814 0.51346,0.80628 0.97048,0.81248 h 8.0143 c 0.45701,-0.006 0.88479,-0.36434 0.97048,-0.81248 l 0.84526,-4.2812 c 1.5174,-0.59236 2.9436,-1.4063 4.195,-2.4062 l 4.1637,1.4062 c 0.43256,0.14889 0.95722,-0.0441 1.1896,-0.43749 l 4.0071,-6.9374 c 0.22571,-0.399 0.1289,-0.95119 -0.21914,-1.25 l -3.317,-2.906 c 0.11686,-0.77924 0.18784,-1.5632 0.18784,-2.375 0,-0.81174 -0.07103,-1.5957 -0.18784,-2.375 l 3.3184,-2.9062 c 0.34804,-0.29878 0.44485,-0.85097 0.21914,-1.25 l -4.007,-6.9378 c -0.232,-0.3934 -0.757,-0.5863002 -1.189,-0.4374 l -4.1637,1.4062 c -1.252,-1 -2.678,-1.8139002 -4.195,-2.4062002 l -0.845,-4.2812 c -0.086,-0.4481 -0.514,-0.8063 -0.971,-0.8125 h -8.0143 c -0.03126,-0.001 -0.06261,-0.001 -0.09387,0 z"/>
 <path style="opacity:.2" d="m18.035156 15c-5.55862 0-7.035156 3-7.035156 9s1.450556 9 7.035156 9h1.585938l2.310547 4 2.677734-1-2.181641-4c2.07799-1 2.572266-4 2.572266-8 0-6-1.406224-9-6.964844-9zm10.992188 1v4h-2.027344v2h2.027344v6c0 4 0.90859 5 3.84375 5h2.193359l-0.128906-2h-1.474609c-1.350701 0-1.460938-1-1.460938-3v-6h3v-2h-3v-4zm-11.015625 2c3.229341 0 3.98829 2 3.988281 6 0 4-0.73447 6-3.988281 6-3.25381 0-4.011719-2-4.011719-6s0.782379-6 4.011719-6z"/>
 <path style="fill:#f4f4f7" d="m18.035156 14c-5.55862 0-7.035156 3-7.035156 9s1.450556 9 7.035156 9h1.585938l2.310547 4 2.677734-1-2.181641-4c2.07799-1 2.572266-4 2.572266-8 0-6-1.406224-9-6.964844-9zm10.992188 1v4h-2.027344v2h2.027344v6c0 4 0.90859 5 3.84375 5h2.193359l-0.128906-2h-1.474609c-1.350701 0-1.460938-1-1.460938-3v-6h3v-2h-3v-4zm-11.015625 2c3.229341 0 3.98829 2 3.988281 6 0 4-0.73447 6-3.988281 6-3.25381 0-4.011719-2-4.011719-6s0.782379-6 4.011719-6z"/>
 <path style="fill:#f4f4f7;opacity:0.2" d="M 19.898438 4 C 19.473437 4.0462 19.099484 4.3931 19.021484 4.8125 L 18.175781 9.09375 C 16.658781 9.68605 15.23247 10.5 13.980469 11.5 L 9.8183594 10.09375 C 9.3857594 9.9448498 8.8613063 10.13795 8.6289062 10.53125 L 4.6210938 17.46875 C 4.4513614 17.768808 4.4641447 18.15659 4.6289062 18.457031 L 8.6289062 11.53125 C 8.8613063 11.13795 9.3857594 10.94485 9.8183594 11.09375 L 13.980469 12.5 C 15.23247 11.5 16.658781 10.68605 18.175781 10.09375 L 19.021484 5.8125 C 19.099484 5.3931 19.473437 5.0462 19.898438 5 L 19.900391 5 C 19.931651 4.999 19.962881 4.999 19.994141 5 L 28.007812 5 C 28.464813 5.0062 28.892516 5.3644 28.978516 5.8125 L 29.824219 10.09375 C 31.341219 10.68605 32.767531 11.5 34.019531 12.5 L 38.183594 11.09375 C 38.615594 10.94485 39.139094 11.13785 39.371094 11.53125 L 43.371094 18.457031 C 43.535832 18.156629 43.548646 17.768831 43.378906 17.46875 L 39.371094 10.53125 C 39.139094 10.13785 38.615594 9.9448498 38.183594 10.09375 L 34.019531 11.5 C 32.767531 10.5 31.341219 9.68605 29.824219 9.09375 L 28.978516 4.8125 C 28.892516 4.3644 28.464813 4.0062 28.007812 4 L 19.994141 4 C 19.962881 3.999 19.931651 3.999 19.900391 4 L 19.898438 4 z M 8.0527344 22.533203 C 8.005059 23.01585 7.9707031 23.501722 7.9707031 24 C 7.9707031 24.168952 7.9862611 24.333246 7.9921875 24.5 C 8.0147467 23.865832 8.0657055 23.241788 8.1582031 22.625 L 8.0527344 22.533203 z M 39.947266 22.533203 L 39.841797 22.625 C 39.934255 23.241836 39.985239 23.86586 40.007812 24.5 C 40.013736 24.333239 40.029297 24.168965 40.029297 24 C 40.029297 23.501759 39.994947 23.015859 39.947266 22.533203 z M 8.0527344 26.466797 L 4.8398438 29.28125 C 4.4917438 29.58025 4.3953937 30.13225 4.6210938 30.53125 L 4.6289062 30.544922 C 4.6832357 30.445849 4.7535206 30.355397 4.8398438 30.28125 L 8.1582031 27.375 C 8.1130943 27.07403 8.0827345 26.770489 8.0527344 26.466797 z M 39.947266 26.466797 C 39.917266 26.770484 39.886929 27.074053 39.841797 27.375 L 43.158203 30.28125 C 43.244511 30.35535 43.314819 30.445858 43.369141 30.544922 L 43.376953 30.53125 C 43.602663 30.13225 43.506243 29.58006 43.158203 29.28125 L 39.947266 26.466797 z"/>
</svg>
