<svg xmlns="http://www.w3.org/2000/svg" width="48" height="48" version="1">
 <circle style="opacity:0.2" cx="24" cy="25" r="20"/>
 <circle style="fill:#787784" cx="24" cy="24" r="20"/>
 <path style="opacity:0.2" d="m 24,11.000062 a 14,14 0 0 0 -14,14 14,14 0 0 0 14,14 14,14 0 0 0 9.552734,-3.789062 l 4.251954,4.25 a 20,20 0 0 0 4.623046,-6.689454 l -4.769531,-4.771484 a 14,14 0 0 0 0.341797,-3 14,14 0 0 0 -14,-14 z m 0,7 a 7,7 0 0 1 7,7 7,7 0 0 1 -7,7 7,7 0 0 1 -7,-7 7,7 0 0 1 7,-7 z"/>
 <path style="fill:#f4f4f7" d="m 24,10 c -7.731986,0 -14,6.268014 -14,14 0,7.731986 6.268014,14 14,14 3.549437,-0.0064 6.963944,-1.360748 9.552734,-3.789062 l 4.251954,4.25 c 1.982834,-1.889718 3.556366,-4.166587 4.623046,-6.689454 L 37.658203,27 C 37.879954,26.015246 37.994552,25.009398 38,24 38,16.268014 31.731986,10 24,10 Z m 0,7 c 3.865993,0 7,3.134007 7,7 0,3.865993 -3.134007,6.5 -7,6.5 -3.865993,0 -7,-2.634007 -7,-6.5 0,-3.865993 3.134007,-7 7,-7 z"/>
 <path style="opacity:0.1" d="m 37.066406,9.8733279 -13.095703,13.6757811 -4.132812,-4.228516 -5.720703,5.59375 5.693359,5.820313 C 20.979507,31.610869 22.426675,32.137 24,32.137 c 1.536385,0 2.951059,-0.502622 4.105469,-1.341797 L 41.990234,16.297156 A 20,20 0 0 0 37.066406,9.8733279 Z"/>
 <path style="fill:#94c000" d="M 37.066406 8.8730469 L 23.970703 22.548828 L 19.837891 18.320312 L 14.117188 23.914062 L 19.810547 29.734375 C 20.979507 30.610588 22.426675 31.136719 24 31.136719 C 25.536385 31.136719 26.951059 30.634097 28.105469 29.794922 L 41.990234 15.296875 A 20 20 0 0 0 37.066406 8.8730469 z"/>
 <path style="opacity:0.1;fill:#f4f4f7" d="M 24 4 A 20 20 0 0 0 4 24 A 20 20 0 0 0 4.0214844 24.582031 A 20 20 0 0 1 24 5 A 20 20 0 0 1 43.978516 24.417969 A 20 20 0 0 0 44 24 A 20 20 0 0 0 24 4 z"/>
</svg>
