<svg xmlns="http://www.w3.org/2000/svg" width="48" height="48" version="1.1">
 <circle style="opacity:0.2" cx="24" cy="25" r="20"/>
 <circle style="fill:#4f4f4f" cx="24" cy="24" r="20"/>
 <path style="fill:#f4f4f7;opacity:0.1" d="M 24 4 A 20 20 0 0 0 4 24 A 20 20 0 0 0 4.0214844 24.582031 A 20 20 0 0 1 24 5 A 20 20 0 0 1 43.978516 24.417969 A 20 20 0 0 0 44 24 A 20 20 0 0 0 24 4 z"/>
 <path style="opacity:0.2" d="m 24,8 -2,17 2,17 2,-17 z m -10.414062,8.818359 -1.929688,0.527344 c -1.581937,0.433111 -2.8214239,0.918712 -3.8222656,1.605469 -1.0008417,0.686757 -1.9781963,1.868786 -1.8164063,3.347656 0.1617901,1.478871 1.1953328,2.352287 2.2597657,2.97461 1.0644323,0.62232 2.3839212,1.08994 4.0390622,1.496093 1.606994,0.394338 3.414438,0.679658 5.308594,0.882813 L 21,42 V 27.923828 23.927734 A 15,3.5 0 0 1 9,20.5 15,3.5 0 0 1 13.886719,17.919922 Z m 21.037109,0.03906 -0.314453,1.105469 A 15,3.5 0 0 1 39,20.5 15,3.5 0 0 1 27,23.925781 V 27.927734 42 l 3.375,-14.345703 c 1.808641,-0.195665 3.540156,-0.465836 5.09375,-0.833985 1.677963,-0.397618 3.020169,-0.857805 4.105469,-1.46289 1.085299,-0.605085 2.118697,-1.402322 2.378906,-2.853516 0.260209,-1.451193 -0.669476,-2.745582 -1.650391,-3.457031 -0.980914,-0.711449 -2.19775,-1.202699 -3.755859,-1.644531 z"/>
 <path style="fill:#d95656" d="M 24 7 L 22 24 L 24 41 L 26 24 L 24 7 z M 13.585938 15.818359 L 11.65625 16.345703 C 10.074313 16.778814 8.8348261 17.264415 7.8339844 17.951172 C 6.8331427 18.637929 5.8557881 19.819958 6.0175781 21.298828 C 6.1793682 22.777699 7.2129109 23.651115 8.2773438 24.273438 C 9.3417761 24.895758 10.661265 25.363378 12.316406 25.769531 C 13.9234 26.163869 15.730844 26.449189 17.625 26.652344 L 21 41 L 21 26.923828 L 21 22.927734 A 15 3.5 0 0 1 9 19.5 A 15 3.5 0 0 1 13.886719 16.919922 L 13.585938 15.818359 z M 34.623047 15.857422 L 34.308594 16.962891 A 15 3.5 0 0 1 39 19.5 A 15 3.5 0 0 1 27 22.925781 L 27 26.927734 L 27 41 L 30.375 26.654297 C 32.183641 26.458632 33.915156 26.188461 35.46875 25.820312 C 37.146713 25.422694 38.488919 24.962507 39.574219 24.357422 C 40.659518 23.752337 41.692916 22.9551 41.953125 21.503906 C 42.213334 20.052713 41.283649 18.758324 40.302734 18.046875 C 39.32182 17.335426 38.104984 16.844176 36.546875 16.402344 L 34.623047 15.857422 z"/>
 <path style="opacity:0.1;fill:#f4f4f7" d="M 24 7 L 22 24 L 22.058594 24.5 L 24 8 L 25.941406 24.5 L 26 24 L 24 7 z M 13.585938 15.818359 L 11.65625 16.345703 C 10.074313 16.778814 8.8348261 17.264415 7.8339844 17.951172 C 6.8331427 18.637929 5.8557881 19.819958 6.0175781 21.298828 C 6.0246947 21.363878 6.0423161 21.421638 6.0527344 21.484375 C 6.2422781 20.387545 7.0253491 19.506041 7.8339844 18.951172 C 8.8348261 18.264415 10.074313 17.778814 11.65625 17.345703 L 13.585938 16.818359 L 13.628906 16.976562 A 15 3.5 0 0 1 13.886719 16.919922 L 13.585938 15.818359 z M 34.623047 15.857422 L 34.308594 16.962891 A 15 3.5 0 0 1 34.574219 17.027344 L 34.623047 16.857422 L 36.546875 17.402344 C 38.104984 17.844176 39.32182 18.335426 40.302734 19.046875 C 41.053666 19.591519 41.769195 20.478897 41.949219 21.515625 C 41.949987 21.511423 41.95237 21.50812 41.953125 21.503906 C 42.213334 20.052713 41.283649 18.758324 40.302734 18.046875 C 39.32182 17.335426 38.104984 16.844176 36.546875 16.402344 L 34.623047 15.857422 z M 38.826172 19.998047 A 15 3.5 0 0 1 27 22.925781 L 27 23.925781 A 15 3.5 0 0 0 39 20.5 A 15 3.5 0 0 0 38.826172 19.998047 z M 9.171875 20.003906 A 15 3.5 0 0 0 9 20.5 A 15 3.5 0 0 0 21 23.927734 L 21 22.927734 A 15 3.5 0 0 1 9.171875 20.003906 z"/>
</svg>
