<svg xmlns="http://www.w3.org/2000/svg" width="48" height="48" version="1.1">
 <circle style="opacity:0.2" cx="24" cy="25" r="20"/>
 <circle style="fill:#4f4f4f" cx="24" cy="24" r="20"/>
 <path style="opacity:0.1" d="M 19,14.109375 A 12,12 0 0 0 12,25 12,12 0 0 0 24,37 12,12 0 0 0 36,25 12,12 0 0 0 29,14.117188 v 0.234374 A 10,10 0 0 1 34,23 10,10 0 0 1 24,33 10,10 0 0 1 14,23 10,10 0 0 1 19,14.355469 Z"/>
 <path style="fill:#ffb16a" d="M 19,13.109375 A 12,12 0 0 0 12,24 12,12 0 0 0 24,36 12,12 0 0 0 36,24 12,12 0 0 0 29,13.117188 v 0.234374 A 10,10 0 0 1 34,22 10,10 0 0 1 24,32 10,10 0 0 1 14,22 10,10 0 0 1 19,13.355469 Z"/>
 <path style="opacity:0.2" d="m 20,26 2,2 v 13 l 2,6 2,-6 V 28 l 2,-2 h -2 -4 z"/>
 <path style="opacity:0.2;fill:#f4f4f7" d="M 19 13.109375 A 12 12 0 0 0 12 24 A 12 12 0 0 0 12.021484 24.408203 A 12 12 0 0 1 15.880859 16.193359 A 10 10 0 0 1 19 13.355469 L 19 13.109375 z M 29 13.117188 L 29 13.351562 A 10 10 0 0 1 32.144531 16.228516 A 12 12 0 0 1 35.978516 24.601562 A 12 12 0 0 0 36 24 A 12 12 0 0 0 29 13.117188 z M 33.978516 22.431641 A 10 10 0 0 1 24 32 A 10 10 0 0 1 14.021484 22.585938 A 10 10 0 0 0 14 23 A 10 10 0 0 0 24 33 A 10 10 0 0 0 34 23 A 10 10 0 0 0 33.978516 22.431641 z"/>
 <path style="fill:#ffb16a" d="m 20,25 2,2 v 13 l 2,6 2,-6 V 27 l 2,-2 h -2 -4 z"/>
 <path style="fill:#f4f4f7;opacity:0.1" d="M 24 4 A 20 20 0 0 0 4 24 A 20 20 0 0 0 4.0214844 24.582031 A 20 20 0 0 1 24 5 A 20 20 0 0 1 43.978516 24.417969 A 20 20 0 0 0 44 24 A 20 20 0 0 0 24 4 z"/>
 <path style="opacity:0.2;fill:#f4f4f7" d="M 20 25 L 21 26 L 22 26 L 26 26 L 27 26 L 28 25 L 26 25 L 22 25 L 20 25 z"/>
</svg>
