<svg xmlns="http://www.w3.org/2000/svg" height="48" width="48" version="1.1">
 <g transform="matrix(2.0000004,0,0,1.9999999,1.9999996,2.0000019)">
  <path style="opacity:.2" d="m10.996359 1.4999991c-5.537983 0-9.996359 4.4583896-9.996359 9.9963889 0 5.538 4.458376 9.99639 9.996359 9.99639 2.046194 0 3.942386-0.610732 5.523379-1.657605l1.04454 1.044545a1.9914736 1.9914255 0 1 0 2.815382 -2.81539l-1.044542-1.044544c1.04687-1.580998 1.657599-3.477195 1.657599-5.523396 0-5.5379993-4.458376-9.9963889-9.996358-9.9963889z"/>
  <path style="fill:#3182cc" d="m10.996359 0.99999922c-5.537983 0-9.996359 4.4583896-9.996359 9.9963888 0 5.538 4.458376 9.99639 9.996359 9.99639 2.046194 0 3.942386-0.610732 5.523379-1.657605l1.04454 1.044545a1.9914736 1.9914255 0 1 0 2.815382 -2.81539l-1.044542-1.044544c1.04687-1.580998 1.657599-3.477195 1.657599-5.523396 0-5.5379992-4.458376-9.9963888-9.996358-9.9963888z"/>
  <path style="opacity:.2" d="m11 4.5000001c-3.866 0-7 3.134-7 6.9999999 0 3.866 3.134 7 7 7s7-3.134 7-7c0-3.8659998-3.134-6.9999999-7-6.9999999zm-0.701172 1.3378911c0.08161-0.0085 0.185238 0.0049 0.267578 0 0.0098 0.03904-0.05926 0.177589-0.152344 0.380859-0.592693 1.294794-0.626245 2.8125508-0.07617 3.6230468 0.09954 0.146948 0.189453 0.286507 0.189453 0.304687 0 0.01817-0.107136 0.03711-0.228516 0.03711-0.284942 0-0.554529-0.173105-1.105469-0.609375-0.244747-0.193805-0.562277-0.35622-0.685547-0.38086-0.193573-0.03867-0.245674-0.02193-0.496093 0.228516-0.232993 0.232951-0.304688 0.359005-0.304688 0.572266 0 0.808716 0.959536 1.449836 2.744141 1.828125 2.42356 0.51366 3.021041 0.975603 3.08789 2.25 0.08393 1.598058-0.767351 2.803477-2.630859 3.736328-0.222422 0.111379-0.363711 0.153463-0.457031 0.189453-0.04135-0.0037-0.07205 0.0037-0.113281 0-0.01586-0.04941-0.03906-0.16367-0.03906-0.380859 0-0.848777-0.33377-1.722371-0.83789-2.210938-0.135323-0.131163-0.515377-0.40852-0.839844-0.609375-0.324455-0.200843-0.65166-0.433663-0.72461-0.533203-0.12089-0.165186-0.129989-0.267109-0.03711-0.572266 0.169272-0.557332 0.370036-0.868556 0.761719-1.220703 0.205344-0.184618 0.411541-0.338097 0.457031-0.341797 0.0455-0.0037-0.260804-0.09693-0.722656-0.191406-0.461826-0.09466-1.138989-0.293505-1.488281-0.419922-0.638711-0.231109-1.499364-0.715272-1.828126-1.066406-0.01391-0.01488-0.02698-0.02588-0.03906-0.03906 0.471037-1.8763158 1.792547-3.4132119 3.544922-4.1542968 0.366663-0.155085 0.745529-0.26214 1.144531-0.34375 0.198745-0.04062 0.404165-0.05531 0.609375-0.07617zm5.71875 2.8593749c0.143276 0.08856 0.683464 1.2591689 0.837891 1.8300779 0.199379 0.737047 0.184947 2.01196 0 2.74414-0.07039 0.278672-0.159443 0.539816-0.189453 0.572266s-0.139563-0.153996-0.267578-0.380859c-0.128029-0.226827-0.537105-0.709773-0.876954-1.06836-0.980964-1.035115-1.135518-1.574279-0.724609-2.40039 0.207223-0.41658 1.109815-1.3653149 1.220703-1.2968749z"/>
  <path style="fill:#f4f4f7" d="m11 4.0000001c-3.866 0-7 3.134-7 6.9999999 0 3.866 3.134 7 7 7s7-3.134 7-7c0-3.8659998-3.134-6.9999999-7-6.9999999zm-0.701172 1.3378911c0.08161-0.0085 0.185238 0.0049 0.267578 0 0.0098 0.03904-0.05926 0.177589-0.152344 0.380859-0.592693 1.294794-0.626245 2.8125509-0.07617 3.6230468 0.09954 0.146948 0.189453 0.286507 0.189453 0.304687 0 0.01817-0.107136 0.03711-0.228516 0.03711-0.284942 0-0.554529-0.173105-1.105469-0.609375-0.244747-0.1938048-0.562277-0.3562199-0.685547-0.3808599-0.193573-0.03867-0.245674-0.0219299-0.496093 0.228516-0.232993 0.2329509-0.304688 0.3590049-0.304688 0.5722659 0 0.808716 0.959536 1.449836 2.744141 1.828125 2.42356 0.51366 3.021041 0.975603 3.08789 2.25 0.08393 1.598058-0.767351 2.803477-2.630859 3.736328-0.222422 0.111379-0.363711 0.153463-0.457031 0.189453-0.04135-0.0037-0.07205 0.0037-0.113281 0-0.01586-0.04941-0.03906-0.16367-0.03906-0.380859 0-0.848777-0.33377-1.722371-0.83789-2.210938-0.135323-0.131163-0.515377-0.40852-0.839844-0.609375-0.324455-0.200843-0.65166-0.433663-0.72461-0.533203-0.12089-0.165186-0.129989-0.267109-0.03711-0.572266 0.169272-0.557332 0.370036-0.868556 0.761719-1.220703 0.205344-0.184618 0.411541-0.338097 0.457031-0.341797 0.0455-0.0037-0.260804-0.09693-0.722656-0.191406-0.461826-0.09466-1.138989-0.293505-1.488281-0.419922-0.638711-0.231109-1.499364-0.715272-1.828126-1.066406-0.01391-0.01488-0.02698-0.02588-0.03906-0.03906 0.471037-1.8763158 1.792547-3.4132119 3.544922-4.1542968 0.366663-0.155085 0.745529-0.26214 1.144531-0.34375 0.198745-0.04062 0.404165-0.05531 0.609375-0.07617zm5.71875 2.8593749c0.143276 0.08856 0.683464 1.2591689 0.837891 1.8300779 0.199379 0.737047 0.184947 2.01196 0 2.74414-0.07039 0.278672-0.159443 0.539816-0.189453 0.572266s-0.139563-0.153996-0.267578-0.380859c-0.128029-0.226827-0.537105-0.709773-0.876954-1.06836-0.980964-1.035115-1.135518-1.574279-0.724609-2.40039 0.207223-0.41658 1.109815-1.3653149 1.220703-1.2968749z"/>
  <path style="opacity:.2;fill:#f4f4f7" d="m10.996094 1c-5.5379832 0-9.996094 4.4580943-9.996094 9.996094 0 0.08438 0.00966 0.166135 0.011719 0.25 0.133014-5.4204528 4.530769-9.746094 9.984375-9.746094 5.46679 0 9.873727 4.3462998 9.986328 9.785156 0.0027-0.09661 0.0098-0.191757 0.0098-0.289062-0.000034-5.5379997-4.458146-9.996094-9.996128-9.996094zm8.529297 15.708984c-0.06327 0.103527-0.122577 0.20955-0.189453 0.310547l1.042968 1.044922a1.9914736 1.9914255 0 0 1 0.603516 1.189453 1.9914736 1.9914255 0 0 0 -0.603516 -1.689453z"/>
 </g>
</svg>
