<svg xmlns="http://www.w3.org/2000/svg" width="48" height="48" version="1.1">
 <rect style="opacity:0.2" width="31.359" height="31.359" x="-48.37" y="-27.19" rx="2.352" ry="2.352" transform="matrix(-0.41352317,-0.9104936,-0.9104936,0.41352317,0,0)"/>
 <rect style="fill:#4f4f4f" width="31.359" height="31.359" x="-47.46" y="-27.61" rx="2.352" ry="2.352" transform="matrix(-0.41352317,-0.9104936,-0.9104936,0.41352317,0,0)"/>
 <path style="fill:#f4f4f7;opacity:0.1" d="M 30.5625 4 C 30.257044 4.0083612 29.94698 4.0781871 29.650391 4.2128906 L 5.3808594 15.234375 C 4.3440373 15.705273 3.8157738 16.825757 4.0585938 17.892578 C 4.2074001 17.18662 4.6706992 16.556912 5.3808594 16.234375 L 29.650391 5.2128906 C 30.836749 4.6740765 32.226811 5.1945006 32.765625 6.3808594 L 43.787109 30.650391 C 43.855025 30.799927 43.906385 30.953558 43.941406 31.107422 C 44.041189 30.634041 44.003387 30.126589 43.787109 29.650391 L 32.765625 5.3808594 C 32.361514 4.4910903 31.478868 3.9749164 30.5625 4 z"/>
 <path style="opacity:0.2" d="m 24.323703,15.658171 c 0.0344,0.878817 -0.421877,1.330061 -0.828329,1.297611 -0.391415,-0.03125 -0.736622,-0.511064 -0.552916,-1.489564 0.427266,-2.287444 -1.093945,-3.616139 -2.546401,-4.443015 2.954022,3.883363 -0.485372,3.893207 -1.851883,8.882763 -0.280913,1.021381 -0.530504,2.062044 -0.538348,3.055936 -0.0052,0.652469 0.09389,1.284782 0.356638,1.878249 0.191532,0.428203 0.68542,0.94254 0.637536,1.456876 -0.04788,0.538946 -0.417365,0.951154 -0.646959,1.422424 -0.354825,0.721055 -1.016596,1.369513 -1.313716,2.009357 -0.168206,0.355606 0.239415,0.625079 0.537763,0.793653 0.450594,0.259629 1.06448,0.34084 1.328452,0.821954 0.181711,0.332227 0.133827,0.682911 -0.02456,1.004064 -0.14365,0.302695 -0.249239,0.754278 0.04788,0.956075 0.221,0.148887 0.508299,0.226406 0.66177,0.486036 0.143649,0.244863 0.07735,0.538945 0.306944,0.730899 0.384293,0.317461 1.016596,0.28793 1.308806,0.956075 0.133827,0.307617 0.22591,0.653379 0.40271,0.956075 0.273793,0.466348 1.036241,0.605391 1.562955,0.557403 0.566004,-0.05783 0.983447,-0.23502 1.524895,-0.398672 1.4058,-0.436817 2.734251,-1.013908 3.990262,-1.807561 1.054658,-0.677989 1.698011,-1.061895 2.64708,-1.619298 0.69492,-0.393751 1.683277,-0.264551 2.450636,-0.461426 0.949068,-0.244864 2.090898,-0.630001 2.762489,-1.298146 0.709654,-0.701368 1.001864,-1.258771 1.217952,-2.551995 -0.306943,0.423282 -1.098857,1.394122 -1.884632,1.653752 -0.863125,0.283008 -1.270314,0.134121 -1.534286,-0.221485 -0.220998,-0.302696 -0.278703,-0.70629 -0.268882,-1.081583 0.51321,-1.691896 2.824675,-0.985607 4.306598,-1.57131 2.704785,-1.061896 3.323582,-3.079626 3.505292,-4.97332 0.08103,-1.033595 0.216089,-1.730041 1.957072,-3.811996 -2.176843,0.937618 -3.079256,1.392652 -3.582643,2.493923 C 39.79364,22.375519 38.206363,23.685907 37.315,22.672 36.182992,21.378776 38.816333,19.54913 40.666587,19.087704 42.143599,18.717332 43.543056,17.237077 43.85,15.809731 44.338495,12.548641 43.128173,10.479596 43,8.4074469 42.93327,7.3286983 43.394277,6.2491085 43.999992,5.0000534 c -5.26592,4.1245354 -0.795597,6.3689116 -4.158469,9.7625476 -1.922693,1.926916 -3.937469,0.903165 -3.189755,-0.744434 0.493565,-1.061895 1.673456,-0.41836 2.067571,-2.874378 -1.098857,1.590998 -4.623794,0.514337 -5.620747,3.100785 C 32.291527,16.296699 31.646007,16.312863 31.237,15.736 30.749396,15.048284 30.724111,13.433544 32.902149,12.259825 34.590337,11.346817 38.157781,11.64459 39.14,5.1563231 37.164512,8.99662 32.806382,8.3863068 28.906975,10.044979 c -2.023371,0.855177 -4.685184,3.149791 -4.584506,5.615653"/>
 <path style="fill:#1684ce" d="m 24.323703,14.658171 c 0.0344,0.878817 -0.421877,1.330061 -0.828329,1.297611 -0.391415,-0.03125 -0.736622,-0.511064 -0.552916,-1.489564 0.427266,-2.287444 -1.093945,-3.616139 -2.546401,-4.443015 2.954022,3.883363 -0.485372,3.893207 -1.851883,8.882763 -0.280913,1.021381 -0.530504,2.062044 -0.538348,3.055936 -0.0052,0.652469 0.09389,1.284782 0.356638,1.878249 0.191532,0.428203 0.68542,0.94254 0.637536,1.456876 -0.04788,0.538946 -0.417365,0.951154 -0.646959,1.422424 -0.354825,0.721055 -1.016596,1.369513 -1.313716,2.009357 -0.168206,0.355606 0.239415,0.625079 0.537763,0.793653 0.450594,0.259629 1.06448,0.34084 1.328452,0.821954 0.181711,0.332227 0.133827,0.682911 -0.02456,1.004064 -0.14365,0.302695 -0.249239,0.754278 0.04788,0.956075 0.221,0.148887 0.508299,0.226406 0.66177,0.486036 0.143649,0.244863 0.07735,0.538945 0.306944,0.730899 0.384293,0.317461 1.016596,0.28793 1.308806,0.956075 0.133827,0.307617 0.22591,0.653379 0.40271,0.956075 0.273793,0.466348 1.036241,0.605391 1.562955,0.557403 0.566004,-0.05783 0.983447,-0.23502 1.524895,-0.398672 1.4058,-0.436817 2.734251,-1.013908 3.990262,-1.807561 1.054658,-0.677989 1.698011,-1.061895 2.64708,-1.619298 0.69492,-0.393751 1.683277,-0.264551 2.450636,-0.461426 0.949068,-0.244864 2.090898,-0.630001 2.762489,-1.298146 0.709654,-0.701368 1.001864,-1.258771 1.217952,-2.551995 -0.306943,0.423282 -1.098857,1.394122 -1.884632,1.653752 -0.863125,0.283008 -1.270314,0.134121 -1.534286,-0.221485 -0.220998,-0.302696 -0.278703,-0.70629 -0.268882,-1.081583 0.51321,-1.691896 2.824675,-0.985607 4.306598,-1.57131 2.704785,-1.061896 3.323582,-3.079626 3.505292,-4.97332 0.08103,-1.033595 0.216089,-1.730041 1.957072,-3.811996 -2.176843,0.937618 -3.079256,1.392652 -3.582643,2.493923 C 39.79364,21.375519 38.206363,22.685907 37.315,21.672 36.182992,20.378776 38.816333,18.54913 40.666587,18.087704 42.143599,17.717332 43.543056,16.237077 43.85,14.809731 44.338495,11.548641 43.128173,9.479596 43,7.4074467 42.93327,6.3286981 43.394277,5.2491083 43.999992,4.0000532 c -5.26592,4.1245354 -0.795597,6.3689118 -4.158469,9.7625478 -1.922693,1.926916 -3.937469,0.903165 -3.189755,-0.744434 0.493565,-1.061895 1.673456,-0.41836 2.067571,-2.874378 -1.098857,1.590998 -4.623794,0.514337 -5.620747,3.100785 C 32.291527,15.296699 31.646007,15.312863 31.237,14.736 30.749396,14.048284 30.724111,12.433544 32.902149,11.259825 34.590337,10.346817 38.157781,10.64459 39.14,4.1563229 37.164512,7.9966198 32.806382,7.3863066 28.906975,9.0449792 26.883604,9.9001562 24.221791,12.19477 24.322469,14.660632"/>
 <path style="fill:#f4f4f7;opacity:0.2" d="M 44 4 C 41.186909 6.2033552 41.151355 7.8688546 41.216797 9.4609375 C 41.280119 8.306879 41.681351 7.0661198 43.318359 5.5839844 C 43.49703 5.0787251 43.729481 4.5578415 44 4 z M 39.140625 4.15625 C 37.165137 7.9965469 32.805657 7.3862493 28.90625 9.0449219 C 26.882879 9.9000989 24.221588 12.194294 24.322266 14.660156 L 24.324219 14.658203 C 24.358619 15.53702 23.902546 15.987528 23.496094 15.955078 C 23.254559 15.935794 23.046044 15.724241 22.953125 15.351562 C 22.946778 15.391407 22.950913 15.426356 22.943359 15.466797 C 22.759653 16.445297 23.104679 16.923828 23.496094 16.955078 C 23.902546 16.987528 24.358619 16.53702 24.324219 15.658203 L 24.322266 15.660156 C 24.221588 13.194294 26.882879 10.900099 28.90625 10.044922 C 32.608235 8.470226 36.720757 8.9335978 38.818359 5.6992188 C 38.941711 5.228098 39.054234 4.7269235 39.140625 4.15625 z M 43.037109 7.7128906 C 43.006824 7.9454149 42.985723 8.1774072 43 8.4082031 C 43.099428 10.01563 43.84166 11.627477 43.945312 13.789062 C 44.07228 11.2504 43.228508 9.4597413 43.037109 7.7128906 z M 20.396484 10.023438 C 20.885962 10.666905 21.186363 11.196927 21.363281 11.667969 C 22.158479 12.287773 22.810805 13.114497 22.964844 14.222656 C 23.238288 12.089452 21.79452 10.819332 20.396484 10.023438 z M 38.71875 10.144531 C 37.619893 11.735529 34.094609 10.657693 33.097656 13.244141 C 32.290591 15.296266 31.645335 15.313191 31.236328 14.736328 C 31.153117 14.618967 31.092553 14.46729 31.044922 14.302734 C 30.894004 14.88857 31.008727 15.41532 31.236328 15.736328 C 31.645335 16.313191 32.290591 16.296266 33.097656 14.244141 C 33.966373 11.990382 36.75366 12.516344 38.183594 11.636719 C 38.405596 11.328033 38.599646 10.886756 38.71875 10.144531 z M 41.232422 10.863281 C 41.169944 11.779995 40.878754 12.715276 39.841797 13.761719 C 38.438056 15.168542 36.990624 14.999285 36.599609 14.166016 C 36.037005 15.723598 37.978248 16.62936 39.841797 14.761719 C 41.25626 13.334316 41.282185 12.109469 41.232422 10.863281 z M 21.492188 13.103516 C 21.149361 14.546996 19.423285 15.699072 18.544922 18.90625 C 18.264009 19.927631 18.013703 20.967045 18.005859 21.960938 C 18.004657 22.111786 18.030335 22.257787 18.041016 22.40625 C 18.114293 21.583392 18.315808 20.739291 18.544922 19.90625 C 19.612346 16.008753 21.930361 15.143735 21.492188 13.103516 z M 43.845703 17.847656 C 41.66886 18.785274 40.767059 19.240526 40.263672 20.341797 C 39.793434 21.375391 38.205816 22.685782 37.314453 21.671875 C 37.255345 21.604348 37.213052 21.535024 37.173828 21.464844 C 36.982827 21.881504 36.987865 22.298775 37.314453 22.671875 C 38.205816 23.685782 39.793434 22.375391 40.263672 21.341797 C 40.665695 20.462282 41.355935 19.985624 42.712891 19.355469 C 42.987115 18.937118 43.32998 18.464384 43.845703 17.847656 z M 18.875 25.755859 C 18.735282 26.089458 18.513382 26.390605 18.353516 26.71875 C 17.998691 27.439805 17.336182 28.088672 17.039062 28.728516 C 16.926093 28.967346 17.078387 29.163659 17.277344 29.320312 C 17.609551 28.810731 18.073774 28.287225 18.353516 27.71875 C 18.58311 27.24748 18.95212 26.835821 19 26.296875 C 19.016947 26.114843 18.956354 25.934073 18.875 25.755859 z M 37.765625 27.853516 C 37.458682 28.276798 36.666634 29.248182 35.880859 29.507812 C 35.017734 29.79082 34.609675 29.642715 34.345703 29.287109 C 34.271231 29.185107 34.220738 29.069192 34.179688 28.949219 C 34.141047 29.02834 34.106335 29.112078 34.078125 29.205078 C 34.068304 29.580371 34.124705 29.984413 34.345703 30.287109 C 34.609675 30.642715 35.017734 30.79082 35.880859 30.507812 C 36.404721 30.334722 36.916986 29.848328 37.300781 29.416016 C 37.508881 29.013016 37.651101 28.53891 37.765625 27.853516 z M 18.890625 31.324219 C 18.886923 31.332025 18.884693 31.339884 18.880859 31.347656 C 18.742289 31.639649 18.648621 32.066123 18.908203 32.277344 C 19.039874 31.975577 19.074892 31.652082 18.90625 31.34375 C 18.902026 31.336051 18.895026 31.331715 18.890625 31.324219 z"/>
</svg>
