<svg xmlns="http://www.w3.org/2000/svg" width="48" height="48" version="1">
 <path style="opacity:0.2" d="m 23.990234,5 c -5.10559,0.0033 -10.222436,1.9607172 -14.1347652,5.873047 l 0.00781,0.0078 C 5.9574893,14.792129 4.0032957,19.904738 4,25.005859 H 14 A 10,10 0 0 1 14,25 a 10,10 0 0 1 2.923828,-7.056641 10,10 0 0 1 0.0059,-0.0059 10,10 0 0 1 0.0059,-0.0059 A 10,10 0 0 1 23.990234,15 10,10 0 0 1 24,15 10,10 0 0 1 31.066406,17.933594 10,10 0 0 1 34,25 a 10,10 0 0 1 0,0.0059 H 44 C 43.996601,19.900707 42.038512,14.785147 38.126953,10.873047 34.214723,6.9607172 29.095924,5.0032985 23.990234,5 Z M 4,25.007812 c 0.00329,5.098422 1.9562197,10.207106 5.8574219,14.117188 l -0.00195,0.002 C 13.767798,43.039182 18.884644,44.997001 23.990234,45 c 5.102275,-0.003 10.217681,-1.958235 14.128907,-5.865234 l 0.0078,0.0078 C 42.039182,35.230349 43.996601,30.113401 44,25.007812 H 34 a 10,10 0 0 1 -2.933594,7.058594 10,10 0 0 1 -0.0039,0.0039 10,10 0 0 1 -0.0039,0.0039 A 10,10 0 0 1 24,35 10,10 0 0 1 23.990234,35 10,10 0 0 1 16.941406,32.074219 10,10 0 0 1 14,25.007812 Z"/>
 <path style="fill:#e647ff" d="M 23.990234 4 C 18.884644 4.0032985 13.767798 5.9607172 9.8554688 9.8730469 L 16.923828 16.943359 A 10 10 0 0 1 23.990234 14 L 23.990234 4 z"/>
 <path style="fill:#ff3636" d="M 23.990234 4 L 23.990234 14 A 10 10 0 0 1 24 14 A 10 10 0 0 1 31.066406 16.933594 L 38.126953 9.8730469 C 34.214723 5.9607172 29.095924 4.0032985 23.990234 4 z"/>
 <path style="fill:#5964ff" d="M 9.8730469 9.8710938 C 5.9607173 13.783623 4.0032985 18.900469 4 24.005859 L 14 24.005859 A 10 10 0 0 1 14 24 A 10 10 0 0 1 16.935547 16.931641 L 9.8730469 9.8710938 z"/>
 <path style="fill:#53bdff" d="M 4 24.007812 C 4.0032985 29.113502 5.9607173 34.230349 9.8730469 38.142578 L 16.941406 31.074219 A 10 10 0 0 1 14 24.007812 L 4 24.007812 z"/>
 <path style="fill:#ff7221" d="M 38.126953 9.8710938 L 31.064453 16.931641 A 10 10 0 0 1 34 24 A 10 10 0 0 1 34 24.005859 L 44 24.005859 C 43.996601 18.900269 42.039182 13.783323 38.126953 9.8710938 z"/>
 <path style="fill:#ffac29" d="M 34 24.007812 A 10 10 0 0 1 31.058594 31.074219 L 38.126953 38.142578 C 42.039182 34.230349 43.996601 29.113401 44 24.007812 L 34 24.007812 z"/>
 <path style="fill:#80ffe5" d="M 16.923828 31.058594 L 9.8554688 38.126953 C 13.767798 42.039182 18.884644 43.997001 23.990234 44 L 23.990234 34 A 10 10 0 0 1 16.923828 31.058594 z"/>
 <path style="fill:#73ff44" d="M 31.066406 31.066406 A 10 10 0 0 1 24 34 A 10 10 0 0 1 23.990234 34 L 23.990234 44 C 29.095924 43.997001 34.214723 42.039182 38.126953 38.126953 L 31.066406 31.066406 z"/>
 <path style="fill:#f4f4f7;opacity:0.2" d="M 23.990234 4 C 18.884644 4.0032985 13.767798 5.9607172 9.8554688 9.8730469 L 9.8632812 9.8808594 C 5.9574894 13.792129 4.0032957 18.904738 4 24.005859 L 4.0488281 24.005859 C 4.2905425 19.242015 6.2130948 14.536179 9.8632812 10.880859 L 9.8554688 10.873047 C 13.767798 6.9607171 18.884644 5.0033 23.990234 5 C 29.095924 5.0032985 34.214723 6.9607171 38.126953 10.873047 C 41.782805 14.529404 43.709142 19.237985 43.951172 24.005859 L 44 24.005859 C 43.996601 18.900707 42.038512 13.785147 38.126953 9.8730469 C 34.214723 5.9607172 29.095924 4.0032985 23.990234 4 z M 4 24.007812 C 4.0001078 24.174623 4.0191557 24.341023 4.0234375 24.507812 C 4.0277066 24.340901 4.0403806 24.174622 4.0488281 24.007812 L 4 24.007812 z M 43.951172 24.007812 C 43.959619 24.174541 43.970338 24.34098 43.974609 24.507812 C 43.978897 24.340933 43.999889 24.17471 44 24.007812 L 43.951172 24.007812 z M 33.976562 24.466797 A 10 10 0 0 1 31.066406 31.066406 A 10 10 0 0 1 31.0625 31.070312 A 10 10 0 0 1 31.058594 31.074219 A 10 10 0 0 1 24 34 A 10 10 0 0 1 23.990234 34 A 10 10 0 0 1 16.941406 31.074219 A 10 10 0 0 1 14.023438 24.542969 A 10 10 0 0 0 14 25 A 10 10 0 0 0 14 25.005859 L 4.0488281 25.005859 C 4.048861 25.006509 4.0487952 25.007163 4.0488281 25.007812 L 14 25.007812 A 10 10 0 0 0 16.941406 32.074219 A 10 10 0 0 0 23.990234 35 A 10 10 0 0 0 24 35 A 10 10 0 0 0 31.058594 32.074219 A 10 10 0 0 0 31.0625 32.070312 A 10 10 0 0 0 31.066406 32.066406 A 10 10 0 0 0 34 25.007812 L 43.951172 25.007812 C 43.951205 25.007163 43.951139 25.006509 43.951172 25.005859 L 34 25.005859 A 10 10 0 0 0 34 25 A 10 10 0 0 0 33.976562 24.466797 z"/>
</svg>
