<svg xmlns="http://www.w3.org/2000/svg" style="enable-background:new" width="48" height="48" version="1.0">
 <path style="opacity:0.2" d="M 7.0761719,5 C 6.2238642,5 5.4545909,5.3422837 4.8984375,5.8984375 4.3422836,6.4545913 4,7.2238642 4,8.0761719 V 41.923828 c 0,0.852308 0.3422836,1.621581 0.8984375,2.177734 C 5.4545909,44.657716 6.2238642,45 7.0761719,45 H 24 40.923828 C 42.628443,45 44,43.628444 44,41.923828 V 25 8.0761719 C 44,7.2238642 43.657716,6.4545913 43.101562,5.8984375 42.545409,5.3422837 41.776136,5 40.923828,5 Z"/>
 <path style="fill:#ff6288" d="m 7.0769231,3.9999995 c -0.8523077,0 -1.6215808,0.343035 -2.1777342,0.8991888 L 24,23.999999 43.100811,4.8991883 C 42.544658,4.3430345 41.775385,3.9999995 40.923077,3.9999995 Z"/>
 <path style="fill:#615dfa" d="M 4.8991889,4.8991883 C 4.343035,5.4553421 4,6.2246148 4,7.0769225 V 40.923077 c 0,0.852308 0.343035,1.621581 0.8991889,2.177735 L 24,23.999999 Z"/>
 <path style="fill:#ace63b" d="M 43.100811,4.8991883 34,13.999999 l 10,10 V 7.0769225 C 44,6.2246148 43.656965,5.4553421 43.100811,4.8991883 Z"/>
 <rect style="fill:#fbfafa" width="14.142" height="14.142" x="0" y="33.94" transform="rotate(-45)"/>
 <path style="fill:#3ede9b" d="M 44,23.999999 24,44.000001 H 40.923077 C 42.627692,44.000001 44,42.627693 44,40.923077 Z"/>
 <path style="fill:#ffb11a" d="M 33.99999,33.999996 H 14 l 10,-10 z"/>
 <path style="fill:#fff477" d="m 14,33.999999 -9.1008111,9.100813 c 0.5561534,0.556154 1.3254265,0.899189 2.1777342,0.899189 H 24 L 34,33.999999 Z"/>
 <path style="opacity:0.1" d="M 5.7324219,5.3183594 C 5.4239691,5.4683213 5.1381311,5.6587437 4.8984375,5.8984375 4.6587437,6.1381313 4.4683213,6.4239691 4.3183594,6.7324219 L 22.585938,25 4.3183594,43.267578 c 0.1499619,0.308453 0.3403843,0.594291 0.5800781,0.833984 0.2396936,0.239694 0.5255316,0.430117 0.8339844,0.580079 L 14.414062,36 h 17.171876 l -9,9 H 24 25.414062 L 44,26.414062 V 25 23.585938 L 35.414062,15 43.681641,6.7324219 C 43.531679,6.4239691 43.341256,6.1381313 43.101562,5.8984375 42.861869,5.6587437 42.576031,5.4683213 42.267578,5.3183594 L 24,23.585938 Z M 34,16.414062 42.585938,25 34,33.585938 25.414062,25 Z m -10,10 L 31.585938,34 H 16.414062 Z"/>
 <path style="fill:#3f3f3f" d="M 5.7324219 4.3183594 C 5.4239691 4.4683213 5.1381311 4.6587437 4.8984375 4.8984375 C 4.6587437 5.1381313 4.4683213 5.4239691 4.3183594 5.7324219 L 22.585938 24 L 4.3183594 42.267578 C 4.4683213 42.576031 4.6587437 42.861869 4.8984375 43.101562 C 5.1381311 43.341256 5.4239691 43.531679 5.7324219 43.681641 L 14.414062 35 L 31.585938 35 L 22.585938 44 L 24 44 L 25.414062 44 L 44 25.414062 L 44 24 L 44 22.585938 L 35.414062 14 L 43.681641 5.7324219 C 43.531679 5.4239691 43.341256 5.1381313 43.101562 4.8984375 C 42.861869 4.6587437 42.576031 4.4683213 42.267578 4.3183594 L 24 22.585938 L 5.7324219 4.3183594 z M 34 15.414062 L 42.585938 24 L 34 32.585938 L 25.414062 24 L 34 15.414062 z M 24 25.414062 L 31.585938 33 L 16.414062 33 L 24 25.414062 z"/>
 <path style="fill:#f4f4f7;opacity:0.2" d="M 7.0761719 4 C 6.2238642 4 5.4545909 4.3422837 4.8984375 4.8984375 C 4.3422836 5.4545913 4 6.2238642 4 7.0761719 L 4 8.0761719 C 4 7.2238642 4.3422836 6.4545913 4.8984375 5.8984375 C 5.4545909 5.3422837 6.2238642 5 7.0761719 5 L 40.923828 5 C 41.776136 5 42.545409 5.3422837 43.101562 5.8984375 C 43.657716 6.4545913 44 7.2238642 44 8.0761719 L 44 7.0761719 C 44 6.2238642 43.657716 5.4545913 43.101562 4.8984375 C 42.545409 4.3422837 41.776136 4 40.923828 4 L 7.0761719 4 z"/>
</svg>
