<svg xmlns="http://www.w3.org/2000/svg" width="48" height="48" version="1">
 <rect style="opacity:0.2" width="40" height="40" x="4" y="5" rx="2" ry="2"/>
 <rect style="fill:#c73638" width="40" height="40" x="4" y="4" rx="2" ry="2"/>
 <path style="opacity:0.3" d="M 4 29 L 4 42 C 4 43.108 4.892 44 6 44 L 42 44 C 43.108 44 44 43.108 44 42 L 44 29 L 4 29 z"/>
 <path style="opacity:0.2;fill:#f4f4f7" d="M 6,4 C 4.892,4 4,4.892 4,6 V 7 C 4,5.892 4.892,5 6,5 h 36 c 1.108,0 2,0.892 2,2 V 6 C 44,4.892 43.108,4 42,4 Z"/>
 <rect style="fill:#2f2f2f" width="30" height="26" x="9" y="9"/>
 <rect style="fill:#f4f4f7" width="4" height="7" x="16" y="18"/>
 <rect style="fill:#f4f4f7" width="4" height="7" x="28" y="18"/>
 <rect style="opacity:0.4" width="10" height="3" x="19" y="38"/>
 <rect style="opacity:0.2" width="30" height="1" x="9" y="9"/>
 <rect style="opacity:0.2" width="4" height="1" x="16" y="25"/>
 <rect style="opacity:0.2" width="4" height="1" x="28" y="25"/>
</svg>
