<svg xmlns="http://www.w3.org/2000/svg" width="48" height="48" version="1.1">
 <path style="opacity:0.2" d="m 20.433781,5.0042676 c -0.259947,-0.010032 -0.51765,-0.00192 -0.774946,0.019512 -0.692479,0.057683 -1.379697,0.2373682 -2.046406,0.556109 -2.429232,1.1613743 -3.201788,2.3544184 -3.958459,4.5425314 -0.250829,-0.0341 -0.484886,-0.124644 -0.739899,-0.1482954 -0.406868,-0.037736 -0.815624,-0.05711 -1.226675,-0.052684 -1.42368,0.015304 -2.8455987,0.2813884 -4.1921125,1.0302654 -1.346514,0.748877 -2.5976849,2.125411 -3.0861578,3.797151 -0.5692341,1.948137 -0.5086727,2.201162 -0.038943,3.994228 0.6197593,2.365734 2.7219856,4.377915 5.0566258,4.952295 0.7797365,0.191833 1.2739875,0.221971 1.7796525,0.245859 -0.106572,0.476982 -0.223547,0.963377 -0.303747,1.346369 -0.170278,0.813139 -0.531692,2.413497 -0.771054,3.418606 -0.7665808,3.218971 -1.005431,4.742214 -0.9969165,6.509401 0.010414,2.174768 1.0023405,4.877755 2.4708745,6.324032 0.592482,0.583505 1.60592,1.298894 2.375465,1.676132 1.146928,0.562235 2.427102,0.951677 3.855264,1.211732 1.647002,0.299903 3.633041,0.444441 5.576502,0.509278 1.94346,0.06484 3.374779,0.170887 5.206552,-0.226345 1.026054,-0.222507 2.03438,-0.551855 2.940125,-0.997094 2.328644,-1.144697 4.335154,-3.434121 5.060519,-5.922072 0.409358,-1.404064 0.533766,-2.141624 0.406946,-3.736662 -0.01333,-0.167644 -0.05835,-0.735889 -0.09736,-1.241 -0.04847,-0.627602 -0.178977,-2.012868 -0.305695,-3.282019 -0.188694,-1.88987 -0.234623,-3.183986 -0.331007,-4.583507 0.993404,0.0618 2.013344,0.01203 3.086158,-0.271226 1.384686,-0.365593 3.064958,-1.141141 4.034396,-2.97567 0.969438,-1.83453 0.58648,-3.948401 -0.06621,-5.289864 -1.183801,-2.433093 -3.763943,-3.828606 -6.18205,-4.257648 -0.418187,-0.0742 -0.785286,-0.04219 -1.172156,-0.06439 -0.02066,-0.524105 0.02131,-1.042305 -0.124615,-1.572716 C 34.559983,7.1267539 31.366188,5.1782236 28.8472,5.2715907 28.46962,5.2890997 27.993647,5.3243237 27.3012,5.6267199 26.608766,5.9291162 25.580612,6.6934173 25.108775,7.9077414 24.813902,8.6665631 24.913247,8.6724251 24.929641,8.8443459 24.589029,7.4614876 23.753848,6.2350944 22.846241,5.7106234 22.009935,5.2273544 21.213623,5.0343647 20.433781,5.0042676 Z"/>
 <path style="fill:#4f4f4f" d="m 20.433781,4.0042679 c -0.259947,-0.010032 -0.51765,-0.00192 -0.774946,0.019512 -0.692479,0.057683 -1.379697,0.2373682 -2.046406,0.556109 -2.429232,1.1613743 -3.201788,2.3544184 -3.958459,4.5425317 -0.250829,-0.0341 -0.484886,-0.1246443 -0.739899,-0.1482957 -0.406868,-0.037736 -0.815624,-0.05711 -1.226675,-0.052684 -1.42368,0.015304 -2.8455987,0.2813883 -4.1921125,1.030265 -1.346514,0.7488771 -2.5976849,2.1254111 -3.0861578,3.7971511 -0.5692341,1.948137 -0.5086727,2.201162 -0.038943,3.994228 0.6197593,2.365734 2.7219856,4.377915 5.0566258,4.952295 0.7797365,0.191833 1.2739875,0.221971 1.7796525,0.245859 -0.106572,0.476982 -0.223547,0.963377 -0.303747,1.346369 -0.170278,0.813139 -0.531692,2.413497 -0.771054,3.418606 -0.7665808,3.218971 -1.005431,4.742214 -0.9969165,6.509401 0.010414,2.174768 1.0023405,4.877755 2.4708745,6.324032 0.592482,0.583505 1.60592,1.298894 2.375465,1.676132 1.146928,0.562235 2.427102,0.951677 3.855264,1.211732 1.647002,0.299903 3.633041,0.444441 5.576502,0.509278 1.94346,0.06484 3.374779,0.170887 5.206552,-0.226345 1.026054,-0.222507 2.03438,-0.551855 2.940125,-0.997094 2.328644,-1.144697 4.335154,-3.434121 5.060519,-5.922072 0.409358,-1.404064 0.533766,-2.141624 0.406946,-3.736662 -0.01333,-0.167644 -0.05835,-0.735889 -0.09736,-1.241 -0.04847,-0.627602 -0.178977,-2.012868 -0.305695,-3.282019 -0.188694,-1.88987 -0.234623,-3.183986 -0.331007,-4.583507 0.993404,0.0618 2.013344,0.01203 3.086158,-0.271226 1.384686,-0.365593 3.064958,-1.141141 4.034396,-2.97567 0.969438,-1.83453 0.58648,-3.948401 -0.06621,-5.289864 -1.183801,-2.433093 -3.763943,-3.828606 -6.18205,-4.257648 -0.418187,-0.0742 -0.785286,-0.04219 -1.172156,-0.06439 -0.02066,-0.524105 0.02131,-1.042305 -0.124615,-1.572716 C 34.559983,6.1267542 31.366188,4.1782239 28.8472,4.271591 28.46962,4.2891 27.993647,4.324324 27.3012,4.6267202 26.608766,4.9291165 25.580612,5.6934176 25.108775,6.9077417 24.813902,7.6665634 24.913247,7.6724254 24.929641,7.8443462 24.589029,6.4614879 23.753848,5.2350947 22.846241,4.7106237 22.009935,4.2273547 21.213623,4.034365 20.433781,4.0042679 Z"/>
 <path style="opacity:0.2" d="m 19.888672,9.0060715 c -0.218991,0.018203 -0.445868,0.076527 -0.66211,0.1796875 -0.740891,0.3534526 -1.666788,1.458106 -1.96875,2.349609 -0.316952,0.935762 -0.342614,2.050081 -0.07227,3.091797 0.129091,0.497414 0.422111,1.216797 0.496094,1.216797 0.02011,0 0.17749,-0.106854 0.349609,-0.236328 0.347021,-0.261041 0.885256,-0.538149 1.394531,-0.720703 0.486519,-0.174398 0.493788,-0.183696 0.419922,-0.542969 -0.0353,-0.17171 -0.06539,-0.608199 -0.06641,-0.970703 -0.0023,-0.823531 0.183996,-1.420187 0.707031,-2.257813 0.508984,-0.815125 0.644531,-1.100743 0.644531,-1.3574214 0,-0.504781 -0.585213,-0.8065623 -1.242187,-0.7519531 z m 9.070312,0.2578125 c -0.110415,0.00511 -0.186302,0.0355 -0.208984,0.09375 -0.02234,0.057367 0.04195,0.5312995 0.142578,1.052734 0.369546,1.914858 0.142153,3.146727 -0.853516,4.609375 -0.204316,0.300144 -0.289464,0.478744 -0.246093,0.521485 0.107333,0.105775 2.029367,1.077343 2.148437,1.085937 0.06009,0.0043 0.211326,-0.104295 0.335938,-0.240234 0.534926,-0.583547 1.127368,-1.524443 1.419922,-2.25586 0.762508,-1.906353 0.337816,-3.446514 -1.199219,-4.3496089 C 29.943963,9.455907 29.290232,9.248556 28.958984,9.263884 Z m -17.355468,4.658203 c -1.8373899,0.01971 -3.1482768,0.735853 -3.5058598,1.957031 -0.1259429,0.430107 -0.1301245,1.391525 -0.00781,1.857422 0.280349,1.067864 1.0523716,1.816887 2.1562502,2.087891 0.526539,0.129264 1.811183,0.131255 2.53125,0.0039 0.809395,-0.143146 2.091673,-0.580843 2.882812,-0.980469 0.364506,-0.184122 0.700642,-0.359136 0.748047,-0.392578 0.07471,-0.0527 0.481755,-1.051341 0.482422,-1.183594 1.34e-4,-0.02644 -0.147471,0.02517 -0.328125,0.117188 -0.412518,0.210132 -2.236994,0.74588 -3.042969,0.892578 -0.851812,0.155041 -1.927583,0.152723 -2.332031,-0.0039 -0.410152,-0.158859 -0.598613,-0.425116 -0.597656,-0.84375 0.0011,-0.462569 0.182098,-0.85184 0.55664,-1.19336 0.485857,-0.443017 0.785701,-0.531807 1.964844,-0.566406 1.065102,-0.03125 1.836118,0.05463 2.976563,0.326172 0.663925,0.15808 1.011923,0.35462 1.070312,0.605469 l 0.03906,0.166015 0.107422,-0.154296 c 0.100719,-0.145835 0.09713,-0.182636 -0.05859,-0.574219 -0.09157,-0.230268 -0.23077,-0.490954 -0.308594,-0.576172 -0.172294,-0.188668 -1.454974,-0.827847 -2.052734,-1.023438 -0.700866,-0.229328 -1.59852,-0.406332 -2.462891,-0.486328 -0.282656,-0.02616 -0.555875,-0.03798 -0.818359,-0.03516 z m 23.066406,2.087891 c -0.642772,0.02533 -1.29852,0.102357 -1.828125,0.226562 -0.841444,0.197339 -1.647928,0.487777 -2.035156,0.732422 l -0.228516,0.144531 0.363281,0.335938 c 0.19968,0.184447 0.412903,0.35291 0.47461,0.375 0.06291,0.02253 0.363568,-0.08215 0.683593,-0.240235 0.881558,-0.435483 1.695053,-0.628225 2.857422,-0.671875 0.86982,-0.03267 1.031831,-0.02061 1.447266,0.109375 0.713188,0.223152 1.094774,0.712079 0.992187,1.275391 -0.102402,0.562296 -0.517587,0.895657 -1.265625,1.015625 -0.452779,0.07262 -1.727049,-0.03377 -2.888671,-0.242188 -0.293927,-0.05274 -0.557508,-0.08243 -0.585938,-0.06445 -0.02843,0.01799 0.01795,0.158785 0.101562,0.3125 0.699619,1.286288 3.50537,2.047323 5.560547,1.50586 1.565556,-0.412467 2.050342,-1.327341 1.404297,-2.652344 -0.532881,-1.092908 -1.625141,-1.779153 -3.302734,-2.076172 -0.477426,-0.08453 -1.107228,-0.111259 -1.75,-0.08594 z m -21.824219,0.542968 c -1.311178,0.03736 -1.773611,0.214358 -1.570312,0.59961 0.235409,0.446099 1.231586,0.489855 3.013671,0.130859 1.100941,-0.221782 1.383128,-0.310851 1.289063,-0.40625 -0.03486,-0.03535 -0.438102,-0.128075 -0.896484,-0.207031 -0.673428,-0.115998 -1.025103,-0.140288 -1.835938,-0.117188 z m 22.324219,1.246094 c -0.985013,-0.03222 -2.171763,0.140176 -2.023438,0.292969 0.01785,0.01839 0.36152,0.08036 0.765625,0.138672 0.404105,0.05831 0.810383,0.117876 0.902344,0.132812 0.09196,0.01494 0.538882,0.03195 0.992188,0.03711 0.740998,0.0085 0.822326,-0.0046 0.802734,-0.109375 -0.01199,-0.06411 -0.172624,-0.194087 -0.355469,-0.291016 -0.286196,-0.151721 -0.43624,-0.179991 -1.083984,-0.201172 z m -3.236328,0.945313 c -0.126072,0 -0.173225,0.04304 -0.203125,0.18164 -0.09833,0.455801 -0.268414,0.793066 -0.523438,1.039063 -0.630412,0.608095 -1.583791,0.570738 -2.910156,-0.115235 l -0.646484,-0.333984 -0.429688,0.458984 c -0.904432,0.968896 -2.142093,1.295002 -3.091797,0.814453 -0.3197,-0.161767 -0.574143,-0.563982 -0.667968,-1.054687 -0.03681,-0.192523 -0.06641,-0.35987 -0.06641,-0.373047 0,-0.0838 -0.191364,0.0057 -0.363281,0.169922 -0.572054,0.546492 -1.575717,0.94993 -2.361328,0.949219 -0.773775,-6.99e-4 -1.163545,-0.248614 -1.439453,-0.914063 -0.0673,-0.162308 -0.144342,-0.294786 -0.169922,-0.294922 -0.02557,-1.32e-4 -0.182761,0.09144 -0.349609,0.203125 -0.823175,0.551019 -1.955679,0.614585 -2.386719,0.134766 -0.252973,-0.281601 -0.372832,-0.152548 -0.375,0.408203 -0.0022,0.570378 -0.116508,1.192906 -0.529297,2.878906 -0.217445,0.888134 -0.546043,2.340382 -0.732422,3.228516 -0.18638,0.888135 -0.545989,2.476083 -0.796875,3.527344 -0.755922,3.16745 -0.897919,4.057722 -0.890625,5.568359 0.0084,1.750526 0.291978,2.523889 1.28125,3.496094 0.498675,0.490072 0.673331,0.612421 1.337891,0.9375 0.86652,0.423872 1.578149,0.64468 2.824218,0.871094 2.519287,0.45776 7.762087,0.631838 9.25586,0.308593 0.826108,-0.178766 1.404611,-0.371347 2.033203,-0.679687 1.622125,-0.795693 2.525182,-1.838594 2.998047,-3.457031 0.175798,-0.601689 0.304208,-1.743012 0.259765,-2.300782 -0.01444,-0.181252 -0.05839,-0.744447 -0.09766,-1.251953 -0.03928,-0.507505 -0.173691,-1.944673 -0.298828,-3.195312 -0.354819,-3.546128 -0.504067,-5.618748 -0.628906,-8.734375 -0.03195,-0.797508 -0.07678,-1.563855 -0.101563,-1.703125 -0.03583,-0.201253 -0.01628,-0.291188 0.0957,-0.441407 0.183682,-0.246414 0.176409,-0.326171 -0.02539,-0.326171 z m -5.613282,3.660156 c 0.716848,-0.004 1.240842,0.391478 1.560547,1.175781 0.107708,0.264234 0.140078,0.489544 0.142579,1.03125 0.003,0.653594 -0.01,0.71884 -0.216797,1.132813 -0.252988,0.506431 -0.739041,0.978065 -1.251953,1.214843 -0.375513,0.17335 -0.640406,0.190074 -0.9375,0.0625 -0.296314,-0.127237 -0.612264,-0.516726 -0.740235,-0.912109 -0.169806,-0.524637 -0.202956,-1.642737 -0.0625,-2.164063 0.06282,-0.233156 0.144458,-0.542497 0.179688,-0.6875 0.126905,-0.52238 0.635956,-0.849615 1.326171,-0.853515 z M 21.617188,22.5549 c 0.371158,0.06862 1.025425,0.742411 1.220703,1.255859 0.32689,0.8595 0.07221,1.919451 -0.642579,2.675781 -0.473789,0.501326 -0.848599,0.625325 -1.257812,0.416016 -0.33011,-0.168848 -0.544928,-0.413399 -0.740234,-0.841797 -0.290937,-0.638162 -0.261341,-1.524091 0.08789,-2.636719 0.195678,-0.623414 0.738356,-0.978897 1.332032,-0.86914 z m 4.410156,0.675781 c -0.165051,-0.0088 -0.314614,0.01687 -0.402344,0.08008 -0.22427,0.161609 -0.406407,1.374054 -0.244141,1.626953 0.05277,0.08224 0.09253,0.07058 0.25,-0.07422 0.268788,-0.247167 0.464204,-0.331237 0.779297,-0.335937 0.36555,-0.0054 0.656669,0.150387 0.8125,0.435547 0.134505,0.246125 0.234375,0.256571 0.234375,0.02539 0,-0.566708 -0.478096,-1.399902 -0.933593,-1.628906 -0.151021,-0.07593 -0.331043,-0.120106 -0.496094,-0.128906 z m -4.996094,0.15039 c -0.224295,0 -0.314457,0.217305 -0.373047,0.900391 -0.05752,0.670615 -0.03398,0.70309 0.353516,0.509766 0.174338,-0.08698 0.410656,-0.158204 0.52539,-0.158204 0.114733,0 0.325539,0.05891 0.46875,0.13086 0.143209,0.07195 0.272943,0.119405 0.289063,0.103516 0.07209,-0.07104 -0.07419,-0.505254 -0.267578,-0.792969 -0.238663,-0.355085 -0.72386,-0.69336 -0.996094,-0.69336 z m -1.810547,10.404297 c 0.07282,-0.01201 0.129697,0.003 0.216797,0.03906 0.106294,0.04405 0.264966,0.188447 0.353516,0.320312 0.35237,0.524737 0.249654,1.29559 -0.242188,1.808594 -0.254183,0.265123 -0.295466,0.282734 -0.658203,0.308594 -0.381589,0.0272 -0.3897,0.02465 -0.638672,-0.220703 C 18.014614,35.807332 17.999421,35.770847 18,35.427946 c 4.42e-4,-0.256828 0.046,-0.461919 0.15625,-0.695312 0.222981,-0.472029 0.369378,-0.63014 0.751953,-0.820313 0.151901,-0.0755 0.23967,-0.114943 0.3125,-0.126953 z m 6.048828,0.214844 0.486328,0.0293 c 1.045677,0.06273 1.4464,0.583898 1.128907,1.470703 -0.302656,0.845366 -1.235095,1.590207 -1.867188,1.492188 -0.431999,-0.06699 -0.721113,-0.791561 -0.626953,-1.566407 0.05793,-0.476751 0.145017,-0.646993 0.556641,-1.083984 z m -6.402343,0.550781 c -0.04378,0.01384 -0.135315,0.125551 -0.203126,0.248047 -0.103979,0.187837 -0.111014,0.24801 -0.04687,0.386719 0.04182,0.09046 0.168563,0.203683 0.28125,0.251953 0.254944,0.1092 0.316839,0.111468 0.412109,0.01758 0.155498,-0.15324 0.09024,-0.483446 -0.142578,-0.71289 -0.120945,-0.119195 -0.257001,-0.205247 -0.300781,-0.191407 z m 6.230468,0.416016 -0.02344,0.248047 c -0.01308,0.135602 0.01187,0.366335 0.05664,0.513672 0.134733,0.443441 0.519697,0.470222 0.949219,0.06641 0.437748,-0.411545 0.146471,-0.824072 -0.583984,-0.826172 z"/>
 <path style="fill:#f4f4f7" d="M 19.888672 8.0058594 C 19.669681 8.0240624 19.442804 8.0823859 19.226562 8.1855469 C 18.485671 8.5389995 17.559774 9.6436529 17.257812 10.535156 C 16.94086 11.470918 16.915198 12.585237 17.185547 13.626953 C 17.314638 14.124367 17.607658 14.84375 17.681641 14.84375 C 17.701751 14.84375 17.859131 14.736896 18.03125 14.607422 C 18.378271 14.346381 18.916506 14.069273 19.425781 13.886719 C 19.9123 13.712321 19.919569 13.703023 19.845703 13.34375 C 19.810403 13.17204 19.780317 12.735551 19.779297 12.373047 C 19.776997 11.549516 19.963293 10.95286 20.486328 10.115234 C 20.995312 9.3001087 21.130859 9.014491 21.130859 8.7578125 C 21.130859 8.2530315 20.545646 7.9512502 19.888672 8.0058594 z M 28.958984 8.2636719 C 28.848569 8.2687812 28.772682 8.2991716 28.75 8.3574219 C 28.72766 8.4147889 28.791947 8.8887214 28.892578 9.4101562 C 29.262124 11.325014 29.034731 12.556883 28.039062 14.019531 C 27.834746 14.319675 27.749598 14.498275 27.792969 14.541016 C 27.900302 14.646791 29.822336 15.618359 29.941406 15.626953 C 30.001496 15.631253 30.152732 15.522658 30.277344 15.386719 C 30.81227 14.803172 31.404712 13.862276 31.697266 13.130859 C 32.459774 11.224506 32.035082 9.6843449 30.498047 8.78125 C 29.943963 8.4556949 29.290232 8.2483439 28.958984 8.2636719 z M 11.603516 12.921875 C 9.7661261 12.941585 8.4552392 13.657728 8.0976562 14.878906 C 7.9717133 15.309013 7.9675317 16.270431 8.0898438 16.736328 C 8.3701928 17.804192 9.1422154 18.553215 10.246094 18.824219 C 10.772633 18.953483 12.057277 18.955474 12.777344 18.828125 C 13.586739 18.684979 14.869017 18.247282 15.660156 17.847656 C 16.024662 17.663534 16.360798 17.48852 16.408203 17.455078 C 16.482913 17.402378 16.889958 16.403737 16.890625 16.271484 C 16.890759 16.245044 16.743154 16.296652 16.5625 16.388672 C 16.149982 16.598804 14.325506 17.134552 13.519531 17.28125 C 12.667719 17.436291 11.591948 17.433973 11.1875 17.277344 C 10.777348 17.118485 10.588887 16.852228 10.589844 16.433594 C 10.590944 15.971025 10.771942 15.581754 11.146484 15.240234 C 11.632341 14.797217 11.932185 14.708427 13.111328 14.673828 C 14.17643 14.642578 14.947446 14.728462 16.087891 15 C 16.751816 15.15808 17.099814 15.35462 17.158203 15.605469 L 17.197266 15.771484 L 17.304688 15.617188 C 17.405407 15.471353 17.401814 15.434552 17.246094 15.042969 C 17.154524 14.812701 17.015324 14.552015 16.9375 14.466797 C 16.765206 14.278129 15.482526 13.63895 14.884766 13.443359 C 14.1839 13.214031 13.286246 13.037027 12.421875 12.957031 C 12.139219 12.930871 11.866 12.919055 11.603516 12.921875 z M 34.669922 15.009766 C 34.02715 15.035096 33.371402 15.112123 32.841797 15.236328 C 32.000353 15.433667 31.193869 15.724105 30.806641 15.96875 L 30.578125 16.113281 L 30.941406 16.449219 C 31.141086 16.633666 31.354309 16.802129 31.416016 16.824219 C 31.478926 16.846749 31.779584 16.742073 32.099609 16.583984 C 32.981167 16.148501 33.794662 15.955759 34.957031 15.912109 C 35.826851 15.879439 35.988862 15.891497 36.404297 16.021484 C 37.117485 16.244636 37.499071 16.733563 37.396484 17.296875 C 37.294082 17.859171 36.878897 18.192532 36.130859 18.3125 C 35.67808 18.38512 34.40381 18.278734 33.242188 18.070312 C 32.948261 18.017572 32.68468 17.987879 32.65625 18.005859 C 32.62782 18.023849 32.6742 18.164644 32.757812 18.318359 C 33.457431 19.604647 36.263182 20.365682 38.318359 19.824219 C 39.883915 19.411752 40.368701 18.496878 39.722656 17.171875 C 39.189775 16.078967 38.097515 15.392722 36.419922 15.095703 C 35.942496 15.011173 35.312694 14.984444 34.669922 15.009766 z M 12.845703 15.552734 C 11.534525 15.590094 11.072092 15.767092 11.275391 16.152344 C 11.5108 16.598443 12.506977 16.642199 14.289062 16.283203 C 15.390003 16.061421 15.67219 15.972352 15.578125 15.876953 C 15.543265 15.841603 15.140023 15.748878 14.681641 15.669922 C 14.008213 15.553924 13.656538 15.529634 12.845703 15.552734 z M 35.169922 16.798828 C 34.184909 16.766608 32.998159 16.939004 33.146484 17.091797 C 33.164334 17.110187 33.508004 17.17216 33.912109 17.230469 C 34.316214 17.288779 34.722492 17.348345 34.814453 17.363281 C 34.906413 17.378221 35.353335 17.395231 35.806641 17.400391 C 36.547639 17.408891 36.628967 17.395822 36.609375 17.291016 C 36.597385 17.226906 36.436751 17.096929 36.253906 17 C 35.96771 16.848279 35.817666 16.820009 35.169922 16.798828 z M 31.933594 17.744141 C 31.807522 17.744141 31.760369 17.787179 31.730469 17.925781 C 31.632139 18.381582 31.462055 18.718847 31.207031 18.964844 C 30.576619 19.572939 29.62324 19.535582 28.296875 18.849609 L 27.650391 18.515625 L 27.220703 18.974609 C 26.316271 19.943505 25.07861 20.269611 24.128906 19.789062 C 23.809206 19.627295 23.554763 19.22508 23.460938 18.734375 C 23.424128 18.541852 23.394531 18.374505 23.394531 18.361328 C 23.394531 18.277528 23.203167 18.367038 23.03125 18.53125 C 22.459196 19.077742 21.455533 19.48118 20.669922 19.480469 C 19.896147 19.47977 19.506377 19.231855 19.230469 18.566406 C 19.163169 18.404098 19.086127 18.27162 19.060547 18.271484 C 19.034977 18.271352 18.877786 18.362921 18.710938 18.474609 C 17.887763 19.025628 16.755259 19.089194 16.324219 18.609375 C 16.071246 18.327774 15.951387 18.456827 15.949219 19.017578 C 15.947019 19.587956 15.832711 20.210484 15.419922 21.896484 C 15.202477 22.784618 14.873879 24.236866 14.6875 25.125 C 14.50112 26.013135 14.141511 27.601083 13.890625 28.652344 C 13.134703 31.819794 12.992706 32.710066 13 34.220703 C 13.0084 35.971229 13.291978 36.744592 14.28125 37.716797 C 14.779925 38.206869 14.954581 38.329218 15.619141 38.654297 C 16.485661 39.078169 17.19729 39.298977 18.443359 39.525391 C 20.962646 39.983151 26.205446 40.157229 27.699219 39.833984 C 28.525327 39.655218 29.10383 39.462637 29.732422 39.154297 C 31.354547 38.358604 32.257604 37.315703 32.730469 35.697266 C 32.906267 35.095577 33.034677 33.954254 32.990234 33.396484 C 32.975794 33.215232 32.931848 32.652037 32.892578 32.144531 C 32.853298 31.637026 32.718887 30.199858 32.59375 28.949219 C 32.238931 25.403091 32.089683 23.330471 31.964844 20.214844 C 31.932894 19.417336 31.888067 18.650989 31.863281 18.511719 C 31.827451 18.310466 31.847004 18.220531 31.958984 18.070312 C 32.142666 17.823898 32.135393 17.744141 31.933594 17.744141 z M 26.320312 21.404297 C 27.03716 21.400297 27.561154 21.795775 27.880859 22.580078 C 27.988567 22.844312 28.020937 23.069622 28.023438 23.611328 C 28.026437 24.264922 28.013471 24.330168 27.806641 24.744141 C 27.553653 25.250572 27.0676 25.722206 26.554688 25.958984 C 26.179175 26.132334 25.914282 26.149058 25.617188 26.021484 C 25.320874 25.894247 25.004924 25.504758 24.876953 25.109375 C 24.707147 24.584738 24.673997 23.466638 24.814453 22.945312 C 24.877273 22.712156 24.958911 22.402815 24.994141 22.257812 C 25.121046 21.735432 25.630097 21.408197 26.320312 21.404297 z M 21.617188 21.554688 C 21.988346 21.623306 22.642613 22.297099 22.837891 22.810547 C 23.164781 23.670047 22.910099 24.729998 22.195312 25.486328 C 21.721523 25.987654 21.346713 26.111653 20.9375 25.902344 C 20.60739 25.733496 20.392572 25.488945 20.197266 25.060547 C 19.906329 24.422385 19.935925 23.536456 20.285156 22.423828 C 20.480834 21.800414 21.023512 21.444931 21.617188 21.554688 z M 26.027344 22.230469 C 25.862293 22.221688 25.71273 22.247337 25.625 22.310547 C 25.40073 22.472156 25.218593 23.684601 25.380859 23.9375 C 25.433629 24.019739 25.473391 24.008081 25.630859 23.863281 C 25.899647 23.616114 26.095063 23.532044 26.410156 23.527344 C 26.775706 23.521944 27.066825 23.677731 27.222656 23.962891 C 27.357161 24.209016 27.457031 24.219462 27.457031 23.988281 C 27.457031 23.421573 26.978935 22.588379 26.523438 22.359375 C 26.372417 22.283449 26.192395 22.239269 26.027344 22.230469 z M 21.03125 22.380859 C 20.806955 22.380859 20.716793 22.598164 20.658203 23.28125 C 20.600683 23.951865 20.624227 23.98434 21.011719 23.791016 C 21.186057 23.704033 21.422375 23.632812 21.537109 23.632812 C 21.651842 23.632812 21.862648 23.691722 22.005859 23.763672 C 22.149068 23.835618 22.278802 23.883077 22.294922 23.867188 C 22.367012 23.796147 22.22073 23.361934 22.027344 23.074219 C 21.788681 22.719134 21.303484 22.380859 21.03125 22.380859 z M 19.220703 32.785156 C 19.293527 32.773146 19.3504 32.788129 19.4375 32.824219 C 19.543794 32.868266 19.702466 33.012666 19.791016 33.144531 C 20.143386 33.669268 20.04067 34.440121 19.548828 34.953125 C 19.294645 35.218248 19.253362 35.235859 18.890625 35.261719 C 18.509036 35.288918 18.500925 35.286367 18.251953 35.041016 C 18.014614 34.80712 17.999421 34.770635 18 34.427734 C 18.000442 34.170906 18.045998 33.965815 18.15625 33.732422 C 18.379231 33.260393 18.525628 33.102282 18.908203 32.912109 C 19.060104 32.836604 19.147873 32.797166 19.220703 32.785156 z M 25.269531 33 L 25.755859 33.029297 C 26.801536 33.092022 27.202259 33.613195 26.884766 34.5 C 26.58211 35.345366 25.649671 36.090207 25.017578 35.992188 C 24.585579 35.925196 24.296465 35.200627 24.390625 34.425781 C 24.448551 33.94903 24.535642 33.778788 24.947266 33.341797 L 25.269531 33 z M 18.867188 33.550781 C 18.823405 33.564621 18.731873 33.676332 18.664062 33.798828 C 18.560083 33.986665 18.553048 34.046838 18.617188 34.185547 C 18.659009 34.276008 18.785751 34.38923 18.898438 34.4375 C 19.153382 34.5467 19.215277 34.548968 19.310547 34.455078 C 19.466045 34.301838 19.40079 33.971632 19.167969 33.742188 C 19.047024 33.622993 18.910968 33.536941 18.867188 33.550781 z M 25.097656 33.966797 L 25.074219 34.214844 C 25.061139 34.350446 25.086089 34.581179 25.130859 34.728516 C 25.265592 35.171957 25.650556 35.198738 26.080078 34.794922 C 26.517826 34.383377 26.226549 33.97085 25.496094 33.96875 L 25.097656 33.966797 z"/>
 <path style="opacity:0.1;fill:#f4f4f7" d="M 20.433594 4.0039062 C 20.173647 3.9938743 19.915499 4.0020055 19.658203 4.0234375 C 18.965724 4.0811205 18.27999 4.2613373 17.613281 4.5800781 C 15.184049 5.7414524 14.410968 6.9349336 13.654297 9.1230469 C 13.403468 9.0889469 13.169075 8.9982608 12.914062 8.9746094 C 12.507195 8.9368734 12.098551 8.917449 11.6875 8.921875 C 10.26382 8.937179 8.8426076 9.2022952 7.4960938 9.9511719 C 6.1495798 10.700049 4.896676 12.076307 4.4082031 13.748047 C 4.0393872 15.010276 3.9586483 15.57791 4.0585938 16.296875 C 4.1123826 15.889655 4.2075056 15.434911 4.4082031 14.748047 C 4.896676 13.076307 6.1495798 11.700049 7.4960938 10.951172 C 8.8426076 10.202295 10.26382 9.937179 11.6875 9.921875 C 12.098551 9.917449 12.507195 9.9368734 12.914062 9.9746094 C 13.169075 9.9982608 13.403468 10.088947 13.654297 10.123047 C 14.410968 7.9349339 15.184049 6.7414524 17.613281 5.5800781 C 18.27999 5.2613373 18.965724 5.0811205 19.658203 5.0234375 C 19.915499 5.0020055 20.173647 4.9938743 20.433594 5.0039062 C 21.213436 5.0340034 22.009397 5.2276685 22.845703 5.7109375 C 23.75331 6.2354085 24.589075 7.4608917 24.929688 8.84375 C 24.913293 8.6718292 24.814502 8.6670248 25.109375 7.9082031 C 25.581212 6.693879 26.608347 5.9293494 27.300781 5.6269531 C 27.993228 5.3245569 28.470076 5.2889934 28.847656 5.2714844 C 31.366644 5.1781173 34.560672 7.1258029 35.869141 10.515625 C 36.015066 11.046036 35.971528 11.565739 35.992188 12.089844 C 36.379058 12.112044 36.747829 12.080097 37.166016 12.154297 C 39.584123 12.583339 42.163855 13.979016 43.347656 16.412109 C 43.656897 17.047687 43.899665 17.858017 43.972656 18.728516 C 44.076454 17.488764 43.773185 16.286691 43.347656 15.412109 C 42.163855 12.979016 39.584123 11.583339 37.166016 11.154297 C 36.747829 11.080097 36.379058 11.112044 35.992188 11.089844 C 35.971528 10.565739 36.015066 10.046036 35.869141 9.515625 C 34.560672 6.1258032 31.366644 4.1781173 28.847656 4.2714844 C 28.470076 4.2889934 27.993228 4.3245569 27.300781 4.6269531 C 26.608347 4.9293494 25.581212 5.693879 25.109375 6.9082031 C 24.814502 7.6670248 24.913293 7.6718292 24.929688 7.84375 C 24.589075 6.4608917 23.75331 5.2354085 22.845703 4.7109375 C 22.009397 4.2276685 21.213436 4.0340034 20.433594 4.0039062 z M 10.984375 23.923828 C 10.958296 24.040054 10.923991 24.183732 10.902344 24.287109 C 10.732066 25.100248 10.370221 26.701922 10.130859 27.707031 C 9.3642786 30.926002 9.1262511 32.447657 9.1347656 34.214844 C 9.1353421 34.335239 9.149743 34.462607 9.15625 34.585938 C 9.2046188 33.058015 9.4563822 31.539247 10.130859 28.707031 C 10.370221 27.701922 10.732066 26.100248 10.902344 25.287109 C 10.982544 24.904117 11.100459 24.418388 11.207031 23.941406 C 11.135499 23.938027 11.056291 23.927898 10.984375 23.923828 z M 36.292969 24.947266 C 36.389353 26.346787 36.434353 27.64138 36.623047 29.53125 C 36.749765 30.800401 36.881217 32.186851 36.929688 32.814453 C 36.968697 33.319564 37.014014 33.887043 37.027344 34.054688 C 37.042376 34.243755 37.040911 34.389131 37.048828 34.556641 C 37.07393 34.118497 37.075008 33.654173 37.027344 33.054688 C 37.014014 32.887043 36.968697 32.319564 36.929688 31.814453 C 36.881217 31.186851 36.749765 29.800401 36.623047 28.53125 C 36.479169 27.090234 36.418997 26.008327 36.355469 24.949219 C 36.33475 24.948029 36.313665 24.948553 36.292969 24.947266 z"/>
</svg>
