<svg xmlns="http://www.w3.org/2000/svg" width="48" height="48" version="1.1">
 <path style="opacity:0.2" d="M 24.83212,5.0025268 C 23.942925,4.9716005 23.127754,5.2252152 22.580206,5.7935425 16.682915,12.62475 10.934945,19.362741 5.1508196,26.221277 c -0.9555872,1.149326 -1.6440421,2.464448 -0.7011597,3.972656 2.851093,4.593436 5.5360607,9.153163 8.5975081,14.027344 0.565897,0.849955 2.349473,1.225638 3.581969,-0.03711 C 25.172484,35.64182 34.006281,26.788834 43.157975,17.69198 44.270544,16.588447 44.413141,14.050747 42.775169,13.193933 41.137201,12.337137 28.517145,6.3794555 26.947318,5.5747925 26.260518,5.2227597 25.523724,5.0265423 24.83212,5.0025268 Z"/>
 <path style="fill:#a54923" d="M 24.83212,4.0025217 C 23.942925,3.9715954 23.127754,4.2252101 22.580206,4.7935374 16.682915,11.624745 10.934945,18.362736 5.1508196,25.221272 4.1952324,26.370598 3.5067775,27.68572 4.4496599,29.193928 c 2.851093,4.593436 5.5360607,9.153163 8.5975081,14.027344 0.565897,0.849955 2.349473,1.225638 3.581969,-0.03711 8.543347,-8.542347 17.377144,-17.395333 26.528838,-26.492187 1.112569,-1.103533 1.255166,-3.641233 -0.382806,-4.498047 C 41.137201,11.337132 28.517145,5.3794504 26.947318,4.5747874 26.260518,4.2227546 25.523724,4.0265372 24.83212,4.0025217 Z"/>
 <path style="opacity:0.2" d="m 20.053195,20 c -0.107399,-2.45e-4 -0.21684,0.0051 -0.328125,0.01563 -1.780626,0.173391 -6.744601,0.681641 -6.744601,0.681641 l -0.169922,2.833984 c 0,0 2.691147,-0.204735 3.252173,-0.232422 0.561028,-0.02772 0.931147,0.407792 0.933593,0.861328 0.0026,0.453547 0.011,1.324142 0.01367,1.775645 0.0026,0.451508 -0.42019,1.064448 -0.941404,1.064448 -0.521205,0 -3.427954,0.08594 -3.427954,0.08594 l -0.1875,2.922324 c 0,0 2.828025,0.0043 3.388892,0.01563 0.560869,0.01103 0.996299,0.465699 0.974609,1.027343 -0.0217,0.561645 -0.236328,6.4075 -0.236328,6.4075 L 22.822266,38 c 0.0582,-0.05822 0.119512,-0.11949 0.177734,-0.177734 -0.0071,-0.343502 -0.132439,-5.969964 -0.158203,-7.433594 -0.02579,-1.46393 -1.181641,-2.210938 -1.181641,-2.210938 0,0 1.373552,-1.196156 1.320774,-2.402343 C 22.92819,24.569203 22.88877,24.125997 22.85007,22.626953 22.813791,21.221601 21.664087,20.003754 20.053195,20 Z m -7.969211,0.851562 -2.5507809,0.203126 c -0.4974826,0.586476 -0.9966984,1.172165 -1.4941406,1.759765 l -1.03125,11.566406 c 0.4366393,0.718053 0.877791,1.431432 1.3164063,2.154297 l 2.8085932,0.259766 z"/>
 <path style="fill:#f4f4f7" d="m 20.053195,19 c -0.107399,-2.45e-4 -0.21684,0.0051 -0.328125,0.01563 -1.780626,0.173391 -6.744601,0.681641 -6.744601,0.681641 l -0.169922,2.833984 c 0,0 2.691147,-0.204735 3.252173,-0.232422 0.561028,-0.02772 0.931147,0.407792 0.933593,0.861328 0.0026,0.453547 0.011,1.324142 0.01367,1.775645 0.0026,0.451508 -0.42019,1.064448 -0.941404,1.064448 -0.521205,0 -3.427954,0.08594 -3.427954,0.08594 l -0.1875,2.922324 c 0,0 2.828025,0.0043 3.388892,0.01563 0.560869,0.01103 0.996299,0.465699 0.974609,1.027343 -0.0217,0.561645 -0.236328,6.4075 -0.236328,6.4075 L 22.822266,37 c 0.0582,-0.05822 0.119512,-0.11949 0.177734,-0.177734 -0.0071,-0.343502 -0.132439,-5.969964 -0.158203,-7.433594 -0.02579,-1.46393 -1.181641,-2.210938 -1.181641,-2.210938 0,0 1.373552,-1.196156 1.320774,-2.402343 C 22.92819,23.569203 22.88877,23.125997 22.85007,21.626953 22.813791,20.221601 21.664087,19.003754 20.053195,19 Z m -7.969211,0.851562 -2.5507809,0.203126 c -0.4974826,0.586476 -0.9966984,1.172165 -1.4941406,1.759765 l -1.03125,11.566406 c 0.4366393,0.718053 0.877791,1.431432 1.3164063,2.154297 l 2.8085932,0.259766 z"/>
 <path style="fill:#f4f4f7;opacity:0.1" d="M 24.832031 4.0019531 C 23.942836 3.9710268 23.127626 4.2246415 22.580078 4.7929688 C 16.682787 11.624176 10.934516 18.362167 5.1503906 25.220703 C 4.4042694 26.118095 3.8335316 27.117932 4.0625 28.230469 C 4.2086578 27.510248 4.6352504 26.840284 5.1503906 26.220703 C 10.934516 19.362167 16.682787 12.624176 22.580078 5.7929688 C 23.127626 5.2246415 23.942836 4.9710268 24.832031 5.0019531 C 25.523635 5.0259686 26.260466 5.222186 26.947266 5.5742188 C 28.517093 6.3788818 41.137423 12.336563 42.775391 13.193359 C 43.491051 13.567717 43.849669 14.267141 43.953125 15.023438 C 44.127638 13.931441 43.803571 12.731195 42.775391 12.193359 C 41.137423 11.336563 28.517093 5.3788817 26.947266 4.5742188 C 26.260466 4.222186 25.523635 4.0259686 24.832031 4.0019531 z"/>
</svg>
