<svg xmlns="http://www.w3.org/2000/svg" width="48" height="48" version="1.1">
 <circle style="opacity:0.2" cx="24" cy="25" r="20"/>
 <circle style="fill:#3f3f3f" cx="24" cy="24" r="20"/>
 <path style="opacity:0.1;fill:#f4f4f7" d="M 24,4 A 20,20 0 0 0 4,24 20,20 0 0 0 4.0196,24.586 20,20 0 0 1 24,5 20,20 0 0 1 43.98,24.414 20,20 0 0 0 44,24 20,20 0 0 0 24,4 Z"/>
 <path style="fill:none;stroke:#236ae4;stroke-width:4" d="M 28,39 9,20 35,13 Z"/>
 <circle style="opacity:0.2" cx="9" cy="21" r="7"/>
 <circle style="fill:#71d1ff" cx="9" cy="20" r="7"/>
 <circle style="opacity:0.2" cx="35" cy="14" r="7"/>
 <circle style="fill:#71d1ff" cx="35" cy="13" r="7"/>
 <circle style="opacity:0.2" cx="28" cy="40" r="7"/>
 <circle style="fill:#71d1ff" cx="28" cy="39" r="7"/>
 <path style="opacity:0.2;fill:#f4f4f7" d="M 35 6 A 7 7 0 0 0 28 13 A 7 7 0 0 0 28.023438 13.458984 A 7 7 0 0 1 35 7 A 7 7 0 0 1 41.976562 13.541016 A 7 7 0 0 0 42 13 A 7 7 0 0 0 35 6 z M 9 13 A 7 7 0 0 0 2 20 A 7 7 0 0 0 2.0234375 20.458984 A 7 7 0 0 1 9 14 A 7 7 0 0 1 15.976562 20.541016 A 7 7 0 0 0 16 20 A 7 7 0 0 0 9 13 z M 28 32 A 7 7 0 0 0 21 39 A 7 7 0 0 0 21.023438 39.458984 A 7 7 0 0 1 28 33 A 7 7 0 0 1 34.976562 39.541016 A 7 7 0 0 0 35 39 A 7 7 0 0 0 28 32 z"/>
</svg>
