<svg xmlns="http://www.w3.org/2000/svg" width="48" height="48" version="1">
 <path style="opacity:0.2" d="m 23.966797,15.000567 a 2.1355393,1.4948035 0 0 0 -1.476563,0.4375 L 4.625,27.941973 a 2.1355393,1.4948035 0 0 0 0,2.113281 l 17.865234,12.507813 a 2.1355393,1.4948035 0 0 0 3.017579,0 L 43.375,30.055254 a 2.1355393,1.4948035 0 0 0 0,-2.113281 L 25.507813,15.438067 a 2.1355393,1.4948035 0 0 0 -1.541016,-0.4375 z M 24,19.264239 37.910156,28.998614 24,38.736895 10.089844,28.998614 Z"/>
 <path style="fill:#435779" d="m 23.966797,14.000567 a 2.1355393,1.4948035 0 0 0 -1.476563,0.4375 L 4.625,26.941973 a 2.1355393,1.4948035 0 0 0 0,2.113281 l 17.865234,12.507813 a 2.1355393,1.4948035 0 0 0 3.017579,0 L 43.375,29.055254 a 2.1355393,1.4948035 0 0 0 0,-2.113281 L 25.507813,14.438067 a 2.1355393,1.4948035 0 0 0 -1.541016,-0.4375 z M 24,18.264239 37.910156,27.998614 24,37.736895 10.089844,27.998614 Z"/>
 <path style="opacity:0.2" d="m 23.966797,11.000363 a 2.1355393,1.4948035 0 0 0 -1.476563,0.4375 L 4.625,23.941769 a 2.1355393,1.4948035 0 0 0 0,2.113281 l 17.865234,12.507813 a 2.1355393,1.4948035 0 0 0 3.017579,0 L 43.375,26.05505 a 2.1355393,1.4948035 0 0 0 0,-2.113281 L 25.507813,11.437863 a 2.1355393,1.4948035 0 0 0 -1.541016,-0.4375 z M 24,15.264035 37.910156,24.99841 24,34.736691 10.089844,24.99841 Z"/>
 <path style="fill:#ff9556" d="m 23.966797,10.000363 a 2.1355393,1.4948035 0 0 0 -1.476563,0.4375 L 4.625,22.941769 a 2.1355393,1.4948035 0 0 0 0,2.113281 l 17.865234,12.507813 a 2.1355393,1.4948035 0 0 0 3.017579,0 L 43.375,25.05505 a 2.1355393,1.4948035 0 0 0 0,-2.113281 L 25.507813,10.437863 a 2.1355393,1.4948035 0 0 0 -1.541016,-0.4375 z M 24,14.264035 37.910156,23.99841 24,33.736691 10.089844,23.99841 Z"/>
 <path style="opacity:0.2" d="m 23.966797,7.0005644 a 2.1355393,1.4948035 0 0 0 -1.476563,0.4375 L 4.625,19.941973 a 2.1355393,1.4948035 0 0 0 0,2.113281 l 17.865234,12.507813 a 2.1355393,1.4948035 0 0 0 3.017579,0 L 43.375,22.055254 a 2.1355393,1.4948035 0 0 0 0,-2.113281 L 25.507813,7.4380644 a 2.1355393,1.4948035 0 0 0 -1.541016,-0.4375 z M 24,11.264237 37.910156,20.998614 24,30.736895 10.089844,20.998614 Z"/>
 <path style="fill:#6187ab" d="m 23.966797,6.0005646 a 2.1355393,1.4948035 0 0 0 -1.476563,0.4375 L 4.625,18.941973 a 2.1355393,1.4948035 0 0 0 0,2.113281 l 17.865234,12.507813 a 2.1355393,1.4948035 0 0 0 3.017579,0 L 43.375,21.055254 a 2.1355393,1.4948035 0 0 0 0,-2.113281 L 25.507813,6.4380646 a 2.1355393,1.4948035 0 0 0 -1.541016,-0.4375 z M 24,10.264237 37.910156,19.998614 24,29.736895 10.089844,19.998614 Z"/>
 <path style="opacity:0.2;fill:#f4f4f7" d="M 23.966797 6 A 2.1355393 1.4948035 0 0 0 22.490234 6.4375 L 4.625 18.941406 A 2.1355393 1.4948035 0 0 0 4.125 20.498047 A 2.1355393 1.4948035 0 0 1 4.625 19.941406 L 22.490234 7.4375 A 2.1355393 1.4948035 0 0 1 23.966797 7 A 2.1355393 1.4948035 0 0 1 25.507812 7.4375 L 43.375 19.941406 A 2.1355393 1.4948035 0 0 1 43.875 20.498047 A 2.1355393 1.4948035 0 0 0 43.375 18.941406 L 25.507812 6.4375 A 2.1355393 1.4948035 0 0 0 23.966797 6 z M 10.804688 20.498047 L 10.089844 20.998047 L 24 30.736328 L 37.910156 20.998047 L 37.195312 20.498047 L 24 29.736328 L 10.804688 20.498047 z"/>
</svg>
