<svg xmlns="http://www.w3.org/2000/svg" width="48" height="48" version="1.1">
 <circle style="opacity:0.2" cx="24" cy="25" r="20"/>
 <circle style="fill:#3f3f3f" cx="24" cy="24" r="19.5"/>
 <path style="fill:#0277bd" d="M 4.671875,18.957031 A 20,20 0 0 0 4,24 20,20 0 0 0 24,44 20,20 0 0 0 29.054688,43.337891 Z"/>
 <path style="fill:#558b2f" d="M 9.8515625,9.8828125 A 20,20 0 0 0 4.671875,18.957031 l 24.382813,24.38086 a 20,20 0 0 0 9.064453,-5.189453 z"/>
 <path style="fill:#f9a825" d="M 18.896484,4.6738281 A 20,20 0 0 0 9.8515625,9.8828125 L 38.119141,38.148438 a 20,20 0 0 0 5.197265,-9.054688 z"/>
 <path style="fill:#ef6c00" d="M 24,4 A 20,20 0 0 0 18.896484,4.6738281 L 43.316406,29.09375 A 20,20 0 0 0 44,24 20,20 0 0 0 24,4 Z"/>
 <path style="opacity:0.2" d="m 24,15 a 11,6 0 0 0 -11,6 11,6 0 0 0 0.04883,0.517578 l -0.0039,2.691406 C 13.033558,24.332925 13,20.734208 13,23.648438 13.000412,27.562826 17.920402,34.753482 24,35 27.347873,34.864249 30.338743,32.619107 32.355469,29.978516 33.061809,30.606043 33.980849,31 35,31 c 2.209139,0 4,-1.790861 4,-4 0,-2.209139 -1.790861,-4 -4,-4 l -0.0039,0.0039 c -0.0035,-0.513919 -0.0074,-0.456449 -0.01563,0.01563 l -0.02734,0.02734 -0.002,-1.519531 A 11,6 0 0 0 35,21 11,6 0 0 0 24,15 Z m 11,10 c 1.104569,0 2,0.895431 2,2 0,1.104569 -0.895431,2 -2,2 -0.610814,0 -1.150725,-0.279352 -1.517578,-0.710938 0.650298,-1.124952 1.111723,-2.251238 1.341797,-3.271484 C 34.883171,25.012351 34.939689,25 35,25 Z"/>
 <path style="fill:#f4f4f7" d="m 13.048828,20 -0.0039,3.208375 C 13.033564,23.332316 13,19.734146 13,22.648376 13.000412,26.562765 17.920402,33.753482 24,34 c 6.079598,-0.246518 10.999588,-7.437235 11,-11.351624 0,-2.91423 -0.03356,0.68394 -0.04492,0.559999 L 34.95118,20 H 24 Z"/>
 <ellipse style="fill:#4a342a" cx="24" cy="20" rx="11" ry="6"/>
 <path style="fill:#f4f4f7" d="m 35,22.000009 -4,4 c 0,2.209139 1.790861,4 4,4 2.209139,0 4,-1.790861 4,-4 0,-2.209139 -1.790861,-4 -4,-4 z m 0,2 c 1.104569,0 2,0.895431 2,2 0,1.104569 -0.895431,2 -2,2 -1.104569,0 -2,-0.895431 -2,-2 0,-1.104569 0.895431,-2 2,-2 z"/>
 <path style="opacity:0.2;fill:#f4f4f7" d="M 24,4 A 20,20 0 0 0 4,24 20,20 0 0 0 4.0214844,24.582031 20,20 0 0 1 24,5 20,20 0 0 1 43.978516,24.417969 20,20 0 0 0 44,24 20,20 0 0 0 24,4 Z"/>
</svg>
