<svg xmlns="http://www.w3.org/2000/svg" width="48" height="48" version="1.1">
 <path style="opacity:0.2" d="m 17.610307,5 c -4.677652,0 -8.6010583,1.5181503 -8.6010586,6.180183 -1e-7,2.173234 0.8303828,4.394443 2.1839926,6.152792 0.532115,0.552735 0.49947,0.896283 0.3363,1.539665 -0.289924,1.05132 -0.719176,2.30587 -1.112526,3.228015 -2.7252158,2.623203 -3.3222236,7.269521 -0.8798544,10.282696 0.9640704,1.549085 0.6210754,3.807255 1.9298124,5.342855 1.305085,1.835995 3.284883,3.441599 5.59978,3.631028 C 18.657831,43.565888 21.311452,44.935831 24,45 c 2.688548,-0.06417 5.342168,-1.434112 6.933247,-3.642766 2.314896,-0.189429 4.294695,-1.795033 5.59978,-3.631028 1.308737,-1.5356 0.965741,-3.79377 1.929813,-5.342855 2.442369,-3.013175 1.84536,-7.659493 -0.879855,-10.282696 -0.39335,-0.922145 -0.822603,-2.176695 -1.112526,-3.228015 -0.163171,-0.643382 -0.195816,-0.98693 0.3363,-1.539665 1.35361,-1.758349 2.183992,-3.979558 2.183992,-6.152792 C 38.990751,6.5181503 35.067345,5 30.389692,5 28.625312,5 26,6.5964003 24,6.5964003 22,6.5964003 19.374687,5 17.610307,5 Z"/>
 <path style="fill:#3f3f3f" d="m 17.610307,4 c -4.677652,0 -8.6010583,1.5181503 -8.6010586,6.180183 -1e-7,2.173234 0.8303828,4.394443 2.1839926,6.152792 0.532115,0.552735 0.49947,0.896283 0.3363,1.539665 -0.289924,1.05132 -0.719176,2.30587 -1.112526,3.228015 -2.7252158,2.623203 -3.3222236,7.269521 -0.8798544,10.282696 0.9640704,1.549085 0.6210754,3.807255 1.9298124,5.342855 1.305085,1.835995 3.284883,3.441599 5.59978,3.631028 C 18.657831,42.565888 21.311452,43.935831 24,44 c 2.688548,-0.06417 5.342168,-1.434112 6.933247,-3.642766 2.314896,-0.189429 4.294695,-1.795033 5.59978,-3.631028 1.308737,-1.5356 0.965741,-3.79377 1.929813,-5.342855 2.442369,-3.013175 1.84536,-7.659493 -0.879855,-10.282696 -0.39335,-0.922145 -0.822603,-2.176695 -1.112526,-3.228015 -0.163171,-0.643382 -0.195816,-0.98693 0.3363,-1.539665 1.35361,-1.758349 2.183992,-3.979558 2.183992,-6.152792 C 38.990751,5.5181503 35.067345,4 30.389692,4 28.625312,4 26,5.5964003 24,5.5964003 22,5.5964003 19.374687,4 17.610307,4 Z"/>
 <path style="opacity:0.2" d="m 18.140625,9.0009125 c 0.168012,0.2083519 0.403267,0.4110624 0.154297,0.6503906 -0.343152,-0.2181632 -0.688893,-0.4347755 -1.503906,-0.5898437 0.183661,0.2084589 0.562246,0.4165412 0.332031,0.625 C 16.692155,9.51891 16.216985,9.3977174 15.689453,9.3270844 15.942023,9.5386093 16.152351,9.745276 15.945312,9.9091156 15.48421,9.7647015 14.849254,9.5696312 14.228516,9.7372406 l 0.392578,0.4023434 c 0.04362,0.05388 -0.919188,0.04328 -1.554688,0.05274 0.231942,0.327992 0.467393,0.6437 0.605469,1.207031 -0.06299,0.06497 -0.376899,0.02888 -0.673828,0 0.30445,0.652578 0.8336,0.8184 0.957031,1.097656 -0.185984,0.143411 -0.444505,0.105302 -0.726562,0.0078 0.219204,0.459781 0.679728,0.775325 1.042968,1.148438 -0.09183,0.06637 -0.252932,0.104583 -0.632812,0.05859 0.335578,0.363165 0.740162,0.695587 1.220703,0.99414 -0.08509,0.100101 -0.376983,0.09682 -0.648437,0.103516 0.43527,0.433749 0.996469,0.65766 1.521484,0.941406 -0.261722,0.182028 -0.449997,0.141172 -0.650391,0.138672 0.371335,0.310592 1.003688,0.470718 1.589844,0.658203 -0.11148,0.176388 -0.224564,0.225871 -0.462891,0.275391 0.620413,0.349552 1.509135,0.188558 1.759766,0.367187 -0.06051,0.175699 -0.231034,0.291249 -0.435547,0.386719 0.998804,0.05904 3.730277,-0.03788 4.253906,-2.142578 -1.022479,-1.143642 -2.887205,-2.48655 -6.097656,-4.146485 2.497626,0.851084 4.750602,1.985699 6.636719,3.546875 2.217359,-1.051106 0.689204,-3.701416 -0.392578,-4.753905 -0.05485,0.277916 -0.11655,0.452094 -0.1875,0.503906 -0.352231,-0.384404 -0.640319,-0.7765786 -1.09375,-1.1464845 -0.0015,0.2172551 0.10784,0.452619 -0.16211,0.6249995 C 20.247163,9.730455 19.918726,9.4328133 19.482422,9.1806 c 0.210154,0.3689513 0.03486,0.4818542 -0.07813,0.6347656 -0.333236,-0.290935 -0.64917,-0.586201 -1.263672,-0.8144531 z m 12.130859,0 C 29.656981,9.2291646 29.341049,9.5244306 29.007812,9.8153656 28.894831,9.6624542 28.721488,9.5495513 28.931641,9.1806 28.495338,9.4328133 28.164946,9.730455 27.921875,10.063412 27.651926,9.8910315 27.761241,9.6556676 27.759766,9.4384125 27.306335,9.8083184 27.0202,10.200493 26.667969,10.584897 c -0.07095,-0.05181 -0.134604,-0.22599 -0.189453,-0.503906 -1.081781,1.052489 -2.609939,3.702799 -0.392578,4.753905 1.886116,-1.561176 4.139092,-2.695791 6.636718,-3.546875 -3.21045,1.659935 -5.075177,3.002843 -6.097656,4.146485 0.523629,2.104694 3.255103,2.201622 4.253906,2.142578 -0.204513,-0.09547 -0.375039,-0.21102 -0.435547,-0.386719 0.250631,-0.178629 1.139353,-0.01763 1.759766,-0.367187 -0.238327,-0.04952 -0.349459,-0.099 -0.460937,-0.275391 0.586155,-0.187485 1.216555,-0.347611 1.58789,-0.658203 -0.200395,0.0025 -0.386716,0.04336 -0.648437,-0.138672 0.525015,-0.283746 1.084261,-0.507657 1.519531,-0.941406 -0.271455,-0.0067 -0.563346,-0.0034 -0.648438,-0.103516 0.480542,-0.298553 0.885126,-0.630975 1.220704,-0.99414 -0.37988,0.04599 -0.539032,0.0078 -0.63086,-0.05859 0.363239,-0.373113 0.821812,-0.688657 1.041016,-1.148438 -0.282057,0.09749 -0.540579,0.135599 -0.726563,-0.0078 0.123431,-0.279256 0.65258,-0.445078 0.957031,-1.097656 -0.296928,0.02888 -0.610839,0.06497 -0.673828,0 0.138075,-0.563331 0.373527,-0.879039 0.605469,-1.207031 -0.635499,-0.0095 -1.598306,0.0011 -1.554687,-0.05274 l 0.392578,-0.4023434 c -0.620737,-0.1676094 -1.255695,0.027461 -1.716797,0.171875 -0.207038,-0.1638396 0.0033,-0.3705063 0.255859,-0.5820312 -0.527531,0.070633 -1.002702,0.1918256 -1.433594,0.359375 -0.230214,-0.2084588 0.148371,-0.4165411 0.332032,-0.625 C 30.806081,9.2165276 30.462293,9.4331399 30.119141,9.6513031 29.87017,9.4119749 30.103469,9.2092644 30.271484,9.0009125 Z M 24.15625,17.670834 c -1.771955,-0.04622 -3.472493,1.319525 -3.476562,2.111328 -0.0049,0.962102 1.402492,1.945698 3.490234,1.970703 2.132013,0.01532 3.491173,-0.788379 3.498047,-1.78125 0.0078,-1.1249 -1.939372,-2.318159 -3.511719,-2.300781 z m -5.349609,0.669922 c -2.460372,0.04593 -4.340915,1.753137 -4.253907,4.578125 0.09766,1.237729 6.43353,-4.309869 5.339844,-4.494141 -0.371109,-0.06284 -0.734456,-0.09054 -1.085937,-0.08398 z m 10.375,0.09375 c -0.351482,-0.0066 -0.714828,0.02114 -1.085938,0.08398 -1.093686,0.184272 5.242184,5.733824 5.339844,4.496094 0.08701,-2.824988 -1.793535,-4.534152 -4.253906,-4.580078 z m -1.046875,3.447265 a 4.0775768,3.4521683 56.426594 0 0 -1.810547,0.490235 4.0775768,3.4521683 56.426594 1 0 4.486328,6.808594 4.0775768,3.4521683 56.426594 0 0 -2.675781,-7.298829 z m -7.921875,0.189453 a 3.4521683,4.0775768 33.573406 0 0 -2.677735,7.298829 3.4521683,4.0775768 33.573406 1 0 4.488282,-6.808594 3.4521683,4.0775768 33.573406 0 0 -1.810547,-0.490235 z m 13.726562,2.107422 c -1.720531,-0.462324 -0.579433,7.137284 0.820313,6.513672 1.539689,-1.242068 2.034296,-4.878899 -0.820313,-6.513672 z m -19.878906,0.09375 c -2.854609,1.634772 -2.360001,5.273558 -0.820313,6.515625 1.399747,0.623612 2.540844,-6.97795 0.820313,-6.515625 z m 10.300781,4.892578 a 3.845591,3.556271 0 0 0 -3.958984,3.554688 3.845703,3.5563746 0 0 0 7.691406,0 3.845591,3.556271 0 0 0 -3.732422,-3.554688 z m 8.386719,1.324219 c -0.901144,0.02356 -1.974751,0.878632 -2.996094,2.035157 -1.190049,1.397913 -1.852546,3.946253 -0.984375,4.767578 0.830081,0.637963 3.057142,0.550194 4.703125,-1.740235 1.195207,-1.538315 0.795997,-4.107067 0.113281,-4.789062 -0.253538,-0.19667 -0.535556,-0.28129 -0.835937,-0.273438 z m -17.263672,0.544922 c -0.322731,-0.01387 -0.623317,0.05274 -0.888672,0.214844 -0.709758,0.541725 -0.84097,2.385213 0.169922,4.197265 1.498921,2.159451 3.608168,2.376952 4.476563,1.851563 0.917908,-0.688234 0.416318,-3.02459 -0.683594,-4.353516 -0.946695,-1.101621 -2.106025,-1.868533 -3.074219,-1.910156 z m 8.78125,6.365235 c -1.53526,-0.03852 -3.889918,0.617576 -3.861328,1.457031 -0.02455,0.572544 1.847668,2.223255 3.757812,2.140625 1.844438,0.03189 3.75025,-1.615739 3.72461,-2.345703 -0.0041,-0.751704 -2.076177,-1.319573 -3.621094,-1.251953 z"/>
 <g transform="matrix(0.04724887,0,0,0.04738424,10.614666,7.0625742)">
  <path style="fill:#75a928" d="m 107.39184,68.055583 c 67.94767,35.031357 107.44689,63.368967 129.08717,87.504467 -11.08235,44.41759 -68.89638,46.44464 -90.03559,45.19858 4.32842,-2.01474 7.93988,-4.42778 9.22051,-8.13574 -5.30449,-3.76981 -24.11289,-0.39719 -37.24363,-7.77416 5.04407,-1.04499 7.40348,-2.06302 9.76289,-5.78542 -12.40571,-3.9567 -25.76862,-7.36642 -33.627746,-13.92116 4.241253,0.0524 8.201156,0.9488 13.740366,-2.89271 -11.111694,-5.98819 -22.969108,-10.73351 -32.18139,-19.88738 5.745213,-0.14063 11.939452,-0.0568 13.740371,-2.16953 -10.17044,-6.30068 -18.751242,-13.30787 -25.853592,-20.97215 8.039979,0.97052 11.435284,0.13478 13.378782,-1.26556 -7.687795,-7.87419 -17.417559,-14.52319 -22.056911,-24.22644 5.969606,2.057484 11.431249,2.84506 15.36752,-0.180795 -2.612365,-5.893453 -13.805413,-9.369618 -20.248967,-23.141676 6.284359,0.609377 12.949606,1.371108 14.282753,0 C 61.802068,58.517346 56.796919,51.835885 51.887978,44.913906 65.338021,44.714177 85.715734,44.966253 84.792549,43.82914 l -8.31654,-8.497335 c 13.137617,-3.537241 26.580651,0.568164 36.339661,3.615887 4.38186,-3.457681 -0.0776,-7.82998 -5.42383,-12.294015 11.16496,1.490646 21.25382,4.057389 30.37345,7.593362 4.87238,-4.399329 -3.16389,-8.798658 -7.05098,-13.197987 17.24936,3.272568 24.55716,7.87068 31.81981,12.47481 5.26935,-5.050799 0.30166,-9.343299 -3.2543,-13.740371 13.00566,4.817048 19.70478,11.035551 26.75756,17.175463 2.39119,-3.227053 6.07494,-5.592408 1.62715,-13.378781 9.23416,5.322725 16.18926,11.59506 21.33374,18.621817 5.71336,-3.637941 3.40387,-8.613023 3.43509,-13.197987 9.59665,7.806516 15.68687,16.11395 23.14168,24.226443 1.50169,-1.093437 2.81661,-4.80171 3.97747,-10.666867 22.89539,22.211815 55.24591,78.158241 8.31654,100.340861 C 207.95028,109.95728 160.25292,86.016909 107.39184,68.055583 Z"/>
  <path style="fill:#75a928" d="M 467.92487,68.055583 C 399.9772,103.08694 360.47798,131.42455 338.8377,155.56005 c 11.08235,44.41759 68.89638,46.44464 90.03559,45.19858 -4.32842,-2.01474 -7.93988,-4.42778 -9.22051,-8.13574 5.30449,-3.76981 24.11289,-0.39719 37.24363,-7.77416 -5.04407,-1.04499 -7.40348,-2.06302 -9.76289,-5.78542 12.40571,-3.9567 25.76862,-7.36642 33.62775,-13.92116 -4.24126,0.0524 -8.20116,0.9488 -13.74037,-2.89271 11.11169,-5.98819 22.96911,-10.73351 32.18139,-19.88738 -5.74521,-0.14063 -11.93945,-0.0568 -13.74037,-2.16953 10.17044,-6.30068 18.75124,-13.30787 25.85359,-20.97215 -8.03998,0.97052 -11.43528,0.13478 -13.37878,-1.26556 7.68779,-7.87419 17.41756,-14.52319 22.05691,-24.22644 -5.96961,2.057484 -11.43125,2.84506 -15.36752,-0.180795 2.61237,-5.893453 13.80541,-9.369618 20.24897,-23.141676 -6.28436,0.609377 -12.94961,1.371108 -14.28276,0 2.92231,-11.888563 7.92746,-18.570024 12.8364,-25.492003 -13.45004,-0.199729 -33.82775,0.05235 -32.90457,-1.084766 l 8.31654,-8.497335 c -13.13762,-3.537241 -26.58065,0.568164 -36.33966,3.615887 -4.38186,-3.457681 0.0776,-7.82998 5.42383,-12.294015 -11.16496,1.490646 -21.25382,4.057389 -30.37345,7.593362 -4.87238,-4.399329 3.16389,-8.798658 7.05098,-13.197987 -17.24936,3.272568 -24.55716,7.87068 -31.81981,12.47481 -5.26935,-5.050799 -0.30166,-9.343299 3.2543,-13.740371 -13.00566,4.817048 -19.70478,11.035551 -26.75756,17.175463 -2.39119,-3.227053 -6.07494,-5.592408 -1.62715,-13.378781 -9.23416,5.322725 -16.18926,11.59506 -21.33374,18.621817 -5.71336,-3.637941 -3.40387,-8.613023 -3.43509,-13.197987 -9.59665,7.806516 -15.68687,16.11395 -23.14168,24.226443 -1.50169,-1.093437 -2.81661,-4.80171 -3.97747,-10.666867 -22.89539,22.211815 -55.24591,78.158241 -8.31654,100.340861 39.91877,-32.94716 87.61613,-56.887531 140.47721,-74.848857 z"/>
  <path style="fill:#bc1142" transform="matrix(1.131107,0,0,1.1280497,-43.139135,-68.310983)" d="m 365.2046,521.84937 a 71.956155,66.532319 0 1 1 -143.91231,0 71.956155,66.532319 0 1 1 143.91231,0 z"/>
  <path style="fill:#bc1142" transform="matrix(0.76741684,-1.1613112,2.171115,1.4224368,-560.88858,217.68859)" d="m 262.84091,276.64774 a 61.875,28.125 0 1 1 -123.75,0 61.875,28.125 0 1 1 123.75,0 z"/>
  <path style="fill:#bc1142" transform="matrix(-0.76741684,-1.1613112,-2.171115,1.4224368,1134.8288,213.68859)" d="m 262.84091,276.64774 a 61.875,28.125 0 1 1 -123.75,0 61.875,28.125 0 1 1 123.75,0 z"/>
  <path style="fill:#bc1142" d="M 72.910253,342.0878 C 109.32447,332.33088 85.201845,492.72431 55.576871,479.56357 22.990103,453.35089 12.493801,376.58814 72.910253,342.0878 Z"/>
  <path style="fill:#bc1142" d="m 493.67828,340.0878 c -36.41422,-9.75692 -12.2916,150.63651 17.33338,137.47577 32.58677,-26.21268 43.08307,-102.97543 -17.33338,-137.47577 z"/>
  <path style="fill:#bc1142" d="m 369.97158,220.6534 c 62.83486,-10.61013 115.11594,26.72229 113.01138,94.85796 -2.06693,26.12112 -136.15872,-90.96907 -113.01138,-94.85796 z"/>
  <path style="fill:#bc1142" d="M 196.35975,218.6534 C 133.52489,208.04327 81.24381,245.37569 83.34837,313.51136 85.4153,339.63248 219.50709,222.54229 196.35975,218.6534 Z"/>
  <path style="fill:#bc1142" d="m 286.61932,202.75568 c -37.50259,-0.97548 -73.49548,27.83418 -73.58158,44.54443 -0.10462,20.30426 29.6512,41.09266 73.83726,41.62035 45.12305,0.32321 73.91561,-16.64049 74.0611,-37.59409 0.16484,-23.73996 -41.03879,-48.93744 -74.31678,-48.57069 z"/>
  <path style="fill:#bc1142" d="m 288.90937,619.11675 c 32.69744,-1.42711 76.57083,10.53196 76.6568,26.39598 0.5427,15.4052 -39.78969,50.21055 -78.82634,49.53765 -40.42729,1.74391 -80.06908,-33.11559 -79.54951,-45.19859 -0.60506,-17.71593 49.226,-31.54796 81.71905,-30.73504 z"/>
  <path style="fill:#bc1142" d="m 168.13874,525.10369 c 23.2791,28.04573 33.89066,77.31899 14.46355,91.84353 -18.37917,11.08784 -63.01228,6.52162 -94.736237,-39.05157 -21.395052,-38.24168 -18.637584,-77.15663 -3.615887,-88.58924 22.464424,-13.68429 57.173424,4.79902 83.888574,35.79728 z"/>
  <path style="fill:#bc1142" d="m 405.0209,516.21177 c -25.18682,29.50165 -39.21227,83.30951 -20.83785,100.6428 17.56828,13.46361 64.7292,11.58162 99.56566,-36.75574 25.29599,-32.46471 16.82013,-86.68225 2.37077,-101.07511 -21.46408,-16.60213 -52.27691,4.64489 -81.09858,37.18805 z"/>
 </g>
 <path style="fill:#f4f4f7;opacity:0.2" d="M 18.140625 8 C 18.308637 8.2083519 18.543892 8.4110624 18.294922 8.6503906 C 17.95177 8.4322274 17.606029 8.2156151 16.791016 8.0605469 C 16.974677 8.2690058 17.353262 8.4770881 17.123047 8.6855469 C 16.692155 8.5179975 16.216985 8.3968049 15.689453 8.3261719 C 15.942023 8.5376968 16.152352 8.7443635 15.945312 8.9082031 C 15.48421 8.763789 14.849254 8.5687187 14.228516 8.7363281 L 14.621094 9.1386719 C 14.664714 9.1925529 13.701906 9.1819462 13.066406 9.1914062 C 13.265906 9.4735224 13.46302 9.7562172 13.603516 10.185547 C 14.132702 10.182037 14.653354 10.17852 14.621094 10.138672 L 14.228516 9.7363281 C 14.849254 9.5687187 15.48421 9.763789 15.945312 9.9082031 C 16.152352 9.7443635 15.942023 9.5376968 15.689453 9.3261719 C 16.216985 9.3968049 16.692155 9.5179975 17.123047 9.6855469 C 17.353262 9.4770881 16.974677 9.2690058 16.791016 9.0605469 C 17.606029 9.2156151 17.95177 9.4322274 18.294922 9.6503906 C 18.543892 9.4110624 18.308637 9.2083519 18.140625 9 C 18.755127 9.2282521 19.071061 9.5235181 19.404297 9.8144531 C 19.517287 9.6615417 19.692576 9.5486388 19.482422 9.1796875 C 19.918726 9.4319008 20.247163 9.729554 20.490234 10.0625 C 20.760184 9.8901195 20.650844 9.6547551 20.652344 9.4375 C 21.105775 9.8074059 21.393863 10.19958 21.746094 10.583984 C 21.817044 10.532172 21.878744 10.357994 21.933594 10.080078 C 22.510605 10.641465 23.197702 11.657172 23.392578 12.642578 C 23.715007 11.421531 22.712346 9.8377436 21.933594 9.0800781 C 21.878745 9.3579941 21.817044 9.5321724 21.746094 9.5839844 C 21.393863 9.1995801 21.105775 8.8074059 20.652344 8.4375 C 20.650869 8.6547551 20.760184 8.890119 20.490234 9.0625 C 20.247163 8.7295425 19.918726 8.4319008 19.482422 8.1796875 C 19.692576 8.5486388 19.517278 8.6615417 19.404297 8.8144531 C 19.071061 8.5235181 18.755127 8.2282521 18.140625 8 z M 30.271484 8 C 29.656981 8.2282521 29.34105 8.5235181 29.007812 8.8144531 C 28.894831 8.6615417 28.721488 8.5486388 28.931641 8.1796875 C 28.495338 8.4319008 28.164946 8.7295425 27.921875 9.0625 C 27.651926 8.890119 27.761241 8.6547551 27.759766 8.4375 C 27.306335 8.8074059 27.0202 9.1995801 26.667969 9.5839844 C 26.597016 9.5321727 26.533365 9.3579941 26.478516 9.0800781 C 25.699764 9.8377436 24.697102 11.421531 25.019531 12.642578 C 25.214407 11.657172 25.901505 10.641465 26.478516 10.080078 C 26.533365 10.357994 26.597019 10.532174 26.667969 10.583984 C 27.0202 10.19958 27.306335 9.8074059 27.759766 9.4375 C 27.761241 9.6547551 27.651926 9.8901195 27.921875 10.0625 C 28.164946 9.729543 28.495338 9.4319008 28.931641 9.1796875 C 28.721488 9.5486388 28.894831 9.6615417 29.007812 9.8144531 C 29.34105 9.5235181 29.656981 9.2282521 30.271484 9 C 30.103469 9.2083519 29.87017 9.4110624 30.119141 9.6503906 C 30.462293 9.4322274 30.806081 9.2156041 31.621094 9.0605469 C 31.437433 9.2690058 31.058848 9.4770881 31.289062 9.6855469 C 31.719955 9.5179975 32.195125 9.3968049 32.722656 9.3261719 C 32.470097 9.5376968 32.259759 9.7443635 32.466797 9.9082031 C 32.927899 9.7637891 33.562857 9.5687187 34.183594 9.7363281 L 33.791016 10.138672 C 33.758756 10.178491 34.279408 10.182023 34.808594 10.185547 C 34.949089 9.7562172 35.146203 9.4735224 35.345703 9.1914062 C 34.710204 9.1819463 33.747397 9.1925529 33.791016 9.1386719 L 34.183594 8.7363281 C 33.562857 8.5687187 32.927899 8.763789 32.466797 8.9082031 C 32.259759 8.7443635 32.470053 8.5376968 32.722656 8.3261719 C 32.195125 8.3968051 31.719955 8.5179975 31.289062 8.6855469 C 31.058848 8.4770881 31.437433 8.2690058 31.621094 8.0605469 C 30.806081 8.2156151 30.462293 8.4322274 30.119141 8.6503906 C 29.87017 8.4110624 30.103469 8.2083519 30.271484 8 z M 12.998047 10.398438 C 13.161509 10.748813 13.386593 10.956506 13.582031 11.119141 C 13.480018 10.831535 13.349678 10.616351 13.212891 10.416016 C 13.139819 10.409533 13.073298 10.405756 12.998047 10.398438 z M 35.414062 10.398438 C 35.338811 10.405756 35.272291 10.409533 35.199219 10.416016 C 35.062431 10.616351 34.932091 10.831535 34.830078 11.119141 C 35.025516 10.956506 35.2506 10.748813 35.414062 10.398438 z M 15.689453 11.287109 C 18.64122 12.813294 20.418438 14.062811 21.486328 15.144531 C 21.616688 14.937637 21.720353 14.701916 21.787109 14.433594 C 21.757647 14.40064 21.71056 14.363365 21.679688 14.330078 C 19.9326 13.026018 17.908472 12.043256 15.689453 11.287109 z M 32.722656 11.287109 C 30.503638 12.043256 28.479509 13.026018 26.732422 14.330078 C 26.701549 14.363365 26.654462 14.40064 26.625 14.433594 C 26.691756 14.701916 26.795422 14.937637 26.925781 15.144531 C 27.993672 14.062811 29.77089 12.813294 32.722656 11.287109 z M 24.15625 16.669922 C 22.384295 16.623702 20.683757 17.989447 20.679688 18.78125 C 20.678751 18.965077 20.744721 19.147612 20.841797 19.326172 C 21.291376 18.556584 22.691834 17.631724 24.15625 17.669922 C 25.490378 17.655177 27.082568 18.5138 27.533203 19.460938 C 27.611994 19.304067 27.666782 19.142086 27.667969 18.970703 C 27.675769 17.845803 25.728597 16.652544 24.15625 16.669922 z M 19.568359 17.382812 C 18.778235 17.586607 17.981514 17.602672 17.533203 17.576172 C 17.570033 17.558979 17.596678 17.536307 17.630859 17.517578 C 15.778681 18.007539 14.480348 19.567714 14.552734 21.917969 C 14.556306 21.963236 14.583925 21.982056 14.603516 22.009766 C 14.904644 19.733585 16.62395 18.38059 18.806641 18.339844 C 19.042239 18.335447 19.284271 18.354205 19.529297 18.380859 C 19.973176 17.852323 20.166627 17.470002 19.892578 17.423828 C 19.783319 17.405326 19.676168 17.395245 19.568359 17.382812 z M 29.058594 17.4375 C 28.745156 17.438676 28.424146 17.461959 28.095703 17.517578 C 27.821968 17.563699 28.014233 17.946826 28.457031 18.474609 C 28.702717 18.447795 28.945427 18.429158 29.181641 18.433594 C 31.36433 18.474336 33.083639 19.82894 33.384766 22.105469 C 33.404357 22.077764 33.431975 22.058939 33.435547 22.013672 C 33.5099 19.599571 32.142277 18.009212 30.208984 17.566406 C 29.853917 17.555897 29.484513 17.528778 29.058594 17.4375 z M 28.134766 20.880859 A 4.0775768 3.4521683 56.426594 0 0 27.027344 21.035156 C 26.802277 21.200355 26.528078 21.347346 26.197266 21.460938 A 4.0775768 3.4521683 56.426594 0 0 24.894531 24.710938 A 4.0775768 3.4521683 56.426594 0 1 26.324219 22.371094 A 4.0775768 3.4521683 56.426594 0 1 28.134766 21.880859 A 4.0775768 3.4521683 56.426594 0 1 32.185547 25.871094 A 4.0775768 3.4521683 56.426594 0 0 28.134766 20.880859 z M 20.365234 21.068359 A 3.4521683 4.0775768 33.573406 0 0 20.212891 21.070312 A 3.4521683 4.0775768 33.573406 0 0 16.160156 26.064453 A 3.4521683 4.0775768 33.573406 0 1 20.212891 22.070312 A 3.4521683 4.0775768 33.573406 0 1 22.023438 22.560547 A 3.4521683 4.0775768 33.573406 0 1 23.423828 24.902344 A 3.4521683 4.0775768 33.573406 0 0 22.023438 21.560547 A 3.4521683 4.0775768 33.573406 0 0 20.365234 21.068359 z M 33.939453 23.177734 C 33.244635 22.99103 33.030524 24.127723 33.097656 25.498047 C 33.169891 24.629539 33.424811 24.039445 33.939453 24.177734 C 35.19929 24.899216 35.803821 26.011336 35.957031 27.134766 C 36.089732 25.708647 35.578032 24.116113 33.939453 23.177734 z M 14.060547 23.271484 C 12.422407 24.209611 11.910661 25.802139 12.042969 27.228516 C 12.196613 26.105321 12.801436 24.99255 14.060547 24.271484 C 14.575274 24.133172 14.830158 24.72476 14.902344 25.59375 C 14.969476 24.223046 14.755365 23.084779 14.060547 23.271484 z M 24.361328 28.164062 A 3.845591 3.556271 0 0 0 20.402344 31.71875 A 3.845703 3.5563746 0 0 0 20.445312 32.21875 A 3.845591 3.556271 0 0 1 24.361328 29.164062 A 3.845591 3.556271 0 0 1 28.052734 32.230469 A 3.845703 3.5563746 0 0 0 28.09375 31.71875 A 3.845591 3.556271 0 0 0 24.361328 28.164062 z M 32.748047 29.488281 C 31.846903 29.511839 30.773296 30.366913 29.751953 31.523438 C 28.81804 32.620475 28.221176 34.41571 28.421875 35.539062 C 28.5638 34.518335 29.064418 33.331063 29.751953 32.523438 C 30.773296 31.366912 31.846903 30.511841 32.748047 30.488281 C 33.048428 30.480429 33.330446 30.565049 33.583984 30.761719 C 33.891455 31.068865 34.13236 31.766222 34.205078 32.572266 C 34.329145 31.372686 34.01467 30.191949 33.583984 29.761719 C 33.330446 29.565049 33.048428 29.480429 32.748047 29.488281 z M 15.484375 30.033203 C 15.161644 30.019329 14.861058 30.085942 14.595703 30.248047 C 14.170847 30.57232 13.959693 31.366689 14.070312 32.337891 C 14.144037 31.838928 14.329544 31.451194 14.595703 31.248047 C 14.861058 31.085943 15.161644 31.019333 15.484375 31.033203 C 16.452569 31.074826 17.611899 31.841738 18.558594 32.943359 C 19.146139 33.653238 19.552902 34.647307 19.673828 35.527344 C 19.876187 34.518137 19.387601 32.944975 18.558594 31.943359 C 17.611899 30.841738 16.452569 30.074826 15.484375 30.033203 z M 24.265625 36.398438 C 22.730365 36.359918 20.375707 37.016014 20.404297 37.855469 C 20.398747 37.984906 20.501112 38.173699 20.667969 38.380859 C 21.305946 37.78475 23.037953 37.367635 24.265625 37.398438 C 25.50111 37.344361 27.056175 37.700752 27.638672 38.228516 C 27.792688 38.01189 27.892246 37.807747 27.886719 37.650391 C 27.882657 36.898687 25.810542 36.330818 24.265625 36.398438 z"/>
 <path style="opacity:0.1;fill:#f4f4f7" d="M 17.609375 4 C 12.931723 4 9.0097659 5.5176548 9.0097656 10.179688 C 9.0097656 10.359719 9.0239338 10.540303 9.0351562 10.720703 C 9.2910417 6.4243762 13.091884 5 17.609375 5 C 19.373755 5 22 6.5957031 24 6.5957031 C 26 6.5957031 28.626245 5 30.390625 5 C 34.908116 5 38.708959 6.4243762 38.964844 10.720703 C 38.976066 10.540303 38.990234 10.359719 38.990234 10.179688 C 38.990234 5.5176548 35.068278 4 30.390625 4 C 28.626245 4 26 5.5957031 24 5.5957031 C 22 5.5957031 19.373755 4 17.609375 4 z M 11.537109 17.833984 C 11.533594 17.848084 11.532947 17.858653 11.529297 17.873047 C 11.239373 18.924367 10.811319 20.179417 10.417969 21.101562 C 8.7332074 22.723258 7.8642186 25.117638 8.0214844 27.421875 C 8.1369378 25.442885 8.9761364 23.489423 10.417969 22.101562 C 10.811319 21.179417 11.239373 19.924367 11.529297 18.873047 C 11.638077 18.444126 11.673014 18.147208 11.537109 17.833984 z M 36.462891 17.833984 C 36.326986 18.147208 36.361922 18.444126 36.470703 18.873047 C 36.760626 19.924367 37.188681 21.179417 37.582031 22.101562 C 39.023863 23.489423 39.863062 25.442885 39.978516 27.421875 C 40.135781 25.117638 39.266792 22.723258 37.582031 21.101562 C 37.188681 20.179417 36.760626 18.924367 36.470703 17.873047 C 36.467053 17.858653 36.466406 17.848084 36.462891 17.833984 z"/>
</svg>
