<svg xmlns="http://www.w3.org/2000/svg" width="48" height="48" version="1.1">
 <path style="fill:#48aeff" d="m24 4a20 20 0 0 0 -20 20 20 20 0 0 0 20 20 20 20 0 0 0 20 -20 20 20 0 0 0 -20 -20z"/>
 <path opacity=".2" d="m4.0215 24.418a20 20 0 0 0 -0.0215 0.582 20 20 0 0 0 20 20 20 20 0 0 0 20 -20 20 20 0 0 0 -0.021 -0.418 20 20 0 0 1 -19.979 19.418 20 20 0 0 1 -19.978 -19.582z"/>
 <path fill="#f4f4f7" opacity=".2" d="m24 4a20 20 0 0 0 -20 20 20 20 0 0 0 0.0215 0.418 20 20 0 0 1 19.978 -19.418 20 20 0 0 1 19.979 19.582 20 20 0 0 0 0.021 -0.582 20 20 0 0 0 -20 -20z"/>
 <path style="opacity:0.2" d="m 30,15 c -1.108,0 -2,0.892 -2,2 v 10 h -2.669922 a 1.3306253,0.99030344 0 0 0 -1.152344,1.486328 l 4.669922,6.017578 a 1.3306253,0.99030344 0 0 0 1.080078,0.494141 1.3306253,0.99030344 0 0 0 1.22461,-0.494141 l 4.669922,-6.017578 A 1.3306253,0.99030344 0 0 0 34.669922,27 H 32 V 17 c 0,-1.108 -0.892,-2 -2,-2 z m -12.072266,0.002 a 1.3306253,0.99030344 0 0 0 -1.080078,0.494141 l -4.669922,6.017578 A 1.3306253,0.99030344 0 0 0 13.330078,23 H 16 v 10 c 0,1.108 0.892,2 2,2 1.108,0 2,-0.892 2,-2 V 23 h 2.669922 a 1.3306253,0.99030344 0 0 0 1.152344,-1.486328 l -4.669922,-6.017578 a 1.3306253,0.99030344 0 0 0 -1.22461,-0.494141 z"/>
 <g transform="translate(-5e-7,-2)">
  <rect style="fill:#f4f4f7" width="4" height="18" x="16" y="18" ry="2"/>
  <path style="fill:#f4f4f7" d="m 17.928561,16.001419 a 1.3306253,0.99030344 0 0 0 -1.080712,0.493758 l -4.669403,6.019141 A 1.3306253,0.99030344 0 0 0 13.330597,24 h 9.338807 a 1.3306253,0.99030344 0 0 0 1.152151,-1.485682 l -4.669403,-6.019141 a 1.3306253,0.99030344 0 0 0 -1.223591,-0.493758 z"/>
 </g>
 <g transform="matrix(1,0,0,-1,12,50)">
  <rect style="fill:#f4f4f7" width="4" height="18" x="16" y="18" ry="2"/>
  <path style="fill:#f4f4f7" d="m 17.928561,16.001419 a 1.3306253,0.99030344 0 0 0 -1.080712,0.493758 l -4.669403,6.019141 A 1.3306253,0.99030344 0 0 0 13.330597,24 h 9.338807 a 1.3306253,0.99030344 0 0 0 1.152151,-1.485682 l -4.669403,-6.019141 a 1.3306253,0.99030344 0 0 0 -1.223591,-0.493758 z"/>
 </g>
</svg>
