<svg xmlns="http://www.w3.org/2000/svg" width="48" height="48" version="1">
 <rect style="opacity:0.2" width="40" height="40" x="4" y="5" rx="2" ry="2"/>
 <rect style="fill:#4f4f4f" width="40" height="40" x="4" y="4" rx="2" ry="2"/>
 <path style="opacity:0.1;fill:#f4f4f7" d="M 6 4 C 4.892 4 4 4.892 4 6 L 4 7 C 4 5.892 4.892 5 6 5 L 42 5 C 43.108 5 44 5.892 44 7 L 44 6 C 44 4.892 43.108 4 42 4 L 6 4 z"/>
 <path style="opacity:0.2" d="m 12,9.0429688 c -2.209139,0 -4,1.7908612 -4,4.0000002 0,2.209139 1.790861,4 4,4 2.209139,0 4,-1.790861 4,-4 0,-2.209139 -1.790861,-4.0000002 -4,-4.0000002 z m 12,0.056641 c -2.216,0 -4,1.7839996 -4,3.9999996 0,2.216 1.784,4 4,4 h 12 c 2.216,0 4,-1.784 4,-4 0,-2.216 -1.784,-3.9999996 -4,-3.9999996 z M 12,20.943359 c -2.209139,0 -4,1.790861 -4,4 0,2.209139 1.790861,4 4,4 2.209139,0 4,-1.790861 4,-4 0,-2.209139 -1.790861,-4 -4,-4 z M 24,21 c -2.216,0 -4,1.784 -4,4 0,2.216 1.784,4 4,4 h 12 c 2.216,0 4,-1.784 4,-4 0,-2.216 -1.784,-4 -4,-4 z M 12,32.943359 c -2.209139,0 -4,1.790861 -4,4 0,2.209139 1.790861,4 4,4 2.209139,0 4,-1.790861 4,-4 0,-2.209139 -1.790861,-4 -4,-4 z M 24,33 c -2.216,0 -4,1.784 -4,4 0,2.216 1.784,4 4,4 h 12 c 2.216,0 4,-1.784 4,-4 0,-2.216 -1.784,-4 -4,-4 z"/>
 <g>
  <path style="fill:#f4f4f7" d="m 12,19.943359 c -2.209139,0 -4,1.790861 -4,4 0,2.209139 1.790861,4 4,4 2.209139,0 4,-1.790861 4,-4 0,-2.209139 -1.790861,-4 -4,-4 z M 24,20 c -2.216,0 -4,1.784 -4,4 0,2.216 1.784,4 4,4 h 12 c 2.216,0 4,-1.784 4,-4 0,-2.216 -1.784,-4 -4,-4 z"/>
  <path style="fill:#ff9448" d="m 12,31.943359 c -2.209139,0 -4,1.790861 -4,4 0,2.209139 1.790861,4 4,4 2.209139,0 4,-1.790861 4,-4 0,-2.209139 -1.790861,-4 -4,-4 z M 24,32 c -2.216,0 -4,1.784 -4,4 0,2.216 1.784,4 4,4 h 12 c 2.216,0 4,-1.784 4,-4 0,-2.216 -1.784,-4 -4,-4 z"/>
  <path style="fill:#f4f4f7" d="m 12,8.043359 c -2.209139,0 -4,1.790861 -4,4 0,2.209139 1.790861,4 4,4 2.209139,0 4,-1.790861 4,-4 0,-2.209139 -1.790861,-4 -4,-4 z M 24,8.1 c -2.216,0 -4,1.784 -4,4 0,2.216 1.784,4 4,4 h 12 c 2.216,0 4,-1.784 4,-4 0,-2.216 -1.784,-4 -4,-4 z"/>
 </g>
</svg>
