<svg xmlns="http://www.w3.org/2000/svg" width="48" height="48" version="1">
 <ellipse style="opacity:0.2" cx="38" cy="22" rx="6" ry="8"/>
 <ellipse style="opacity:0.2" cx="10" cy="22" rx="6" ry="8"/>
 <path style="opacity:0.2" d="m 24,5 c -7.256183,-1.473e-4 -12.999916,6.057222 -13,13.529297 6e-6,2.137606 1,3.470413 1,6.148437 0,3.072648 -2.9949631,4.969104 -3,7.808594 -9.27e-5,6.910906 6.715643,12.513616 15,12.513672 8.284357,-5.6e-5 15.000093,-5.602766 15,-12.513672 -0.005,-2.83949 -3,-4.735946 -3,-7.808594 0,-2.678024 0.999994,-4.010831 1,-6.148437 C 36.999916,11.057222 31.256183,4.9998527 24,5 Z"/>
 <ellipse style="fill:#95560b" cx="38" cy="21" rx="6" ry="8"/>
 <path style="opacity:0.1;fill:#f4f4f7" d="M 38 13 A 6 8 0 0 0 32 21 A 6 8 0 0 0 32.015625 21.566406 A 6 8 0 0 1 38 14 A 6 8 0 0 1 43.984375 21.431641 A 6 8 0 0 0 44 21 A 6 8 0 0 0 38 13 z"/>
 <ellipse style="opacity:0.2" cx="38" cy="22" rx="4" ry="6"/>
 <ellipse style="fill:#d5a16a" cx="38" cy="21" rx="4" ry="6"/>
 <path style="opacity:0.2;fill:#f4f4f7" d="M 38 15 A 4 6 0 0 0 34 21 A 4 6 0 0 0 34.015625 21.501953 A 4 6 0 0 1 38 16 A 4 6 0 0 1 41.984375 21.498047 A 4 6 0 0 0 42 21 A 4 6 0 0 0 38 15 z"/>
 <ellipse style="fill:#95560b" cx="10" cy="21" rx="6" ry="8"/>
 <path style="opacity:0.1;fill:#f4f4f7" d="M 10 13 A 6 8 0 0 0 4 21 A 6 8 0 0 0 4.015625 21.566406 A 6 8 0 0 1 10 14 A 6 8 0 0 1 15.984375 21.431641 A 6 8 0 0 0 16 21 A 6 8 0 0 0 10 13 z"/>
 <ellipse style="opacity:0.2" cx="10" cy="22" rx="4" ry="6"/>
 <ellipse style="fill:#d5a16a" cx="10" cy="21" rx="4" ry="6"/>
 <path style="opacity:0.2;fill:#f4f4f7" d="M 10 15 A 4 6 0 0 0 6 21 A 4 6 0 0 0 6.015625 21.501953 A 4 6 0 0 1 10 16 A 4 6 0 0 1 13.984375 21.498047 A 4 6 0 0 0 14 21 A 4 6 0 0 0 10 15 z"/>
 <path style="fill:#bc6b0d" d="M 24 4 C 16.743817 3.9998527 11.000084 10.057222 11 17.529297 C 11.000006 19.666903 12 20.99971 12 23.677734 C 12 26.750382 9.0050369 28.646838 9 31.486328 C 8.9999073 38.397234 15.715643 43.999944 24 44 C 32.284357 43.999944 39.000093 38.397234 39 31.486328 C 38.994963 28.646838 36 26.750382 36 23.677734 C 36 20.99971 36.999994 19.666903 37 17.529297 C 36.999916 10.057222 31.256183 3.9998527 24 4 z"/>
 <path style="opacity:0.1;fill:#f4f4f7" d="M 24 4 C 16.743817 3.9998527 11.000084 10.057222 11 17.529297 C 11 17.689745 11.014968 17.837945 11.025391 17.990234 C 11.296073 10.770147 16.920602 4.9998563 24 5 C 31.079398 4.9998563 36.703927 10.770147 36.974609 17.990234 C 36.985032 17.837945 37 17.689745 37 17.529297 C 36.999916 10.057222 31.256183 3.9998527 24 4 z M 11.974609 24.113281 C 11.712109 26.933632 9.0047932 28.784247 9 31.486328 C 8.9999976 31.6637 9.0224918 31.836143 9.03125 32.011719 C 9.3385073 29.428433 12 27.575622 12 24.677734 C 12 24.477855 11.984919 24.299067 11.974609 24.113281 z M 36.025391 24.113281 C 36.015081 24.299067 36 24.477855 36 24.677734 C 36 27.575622 38.66152 29.428433 38.96875 32.011719 C 38.977508 31.836143 39.000002 31.6637 39 31.486328 C 38.995207 28.784247 36.287891 26.933632 36.025391 24.113281 z"/>
 <path style="opacity:0.2" d="m 19,10 a 6,8 0 0 0 -6,8 6,8 0 0 0 0.01172,0.3125 c -0.0015,0.07639 -0.01172,0.13763 -0.01172,0.216797 10e-7,0.419808 0.06252,0.816101 0.154297,1.238281 a 6,8 0 0 0 0.375,1.498047 C 13.761139,22.168939 14,23.285334 14,24.677734 14,26.86387 12.960285,28.494961 12.203125,29.720703 11.445965,30.946445 11.0013,31.772865 11,32.490234 11.002541,38.103805 16.619089,42.99995 24,43 31.380911,42.99995 36.997459,38.103805 37,32.490234 36.9987,31.772865 36.554035,30.946445 35.796875,29.720703 35.039715,28.494961 34,26.86387 34,24.677734 c 0,-1.406538 0.244513,-2.531613 0.478516,-3.439453 a 6,8 0 0 0 0.359375,-1.433593 C 34.934136,19.369214 34.999999,18.960204 35,18.529297 c -10e-7,-0.07061 -0.0087,-0.124954 -0.0098,-0.193359 A 6,8 0 0 0 35,18 6,8 0 0 0 29,10 6,8 0 0 0 24,13.587891 6,8 0 0 0 19,10 Z"/>
 <path style="fill:#d5a16a" d="M 19 9 A 6 8 0 0 0 13 17 A 6 8 0 0 0 13.011719 17.3125 C 13.010186 17.388893 13.000001 17.45013 13 17.529297 C 13.000001 17.949105 13.062519 18.345398 13.154297 18.767578 A 6 8 0 0 0 13.529297 20.265625 C 13.761139 21.168939 14 22.285334 14 23.677734 C 14 25.86387 12.960285 27.494961 12.203125 28.720703 C 11.445965 29.946445 11.0013 30.772865 11 31.490234 C 11.002541 37.103805 16.619089 41.99995 24 42 C 31.380911 41.99995 36.997459 37.103805 37 31.490234 C 36.9987 30.772865 36.554035 29.946445 35.796875 28.720703 C 35.039715 27.494961 34 25.86387 34 23.677734 C 34 22.271196 34.244513 21.146121 34.478516 20.238281 A 6 8 0 0 0 34.837891 18.804688 C 34.934136 18.369214 34.999999 17.960204 35 17.529297 C 34.999999 17.458683 34.991337 17.404343 34.990234 17.335938 A 6 8 0 0 0 35 17 A 6 8 0 0 0 29 9 A 6 8 0 0 0 24 12.587891 A 6 8 0 0 0 19 9 z"/>
 <path style="opacity:0.25;fill:#009cff" d="m 19,13 a 6,6 0 0 1 6,6 6,6 0 0 1 -6,6 6,6 0 0 1 -6,-6 6,6 0 0 1 6,-6 z"/>
 <path style="opacity:0.2;fill:#f4f4f7" d="M 19 9 A 6 8 0 0 0 13 17 A 6 8 0 0 0 13.011719 17.3125 C 13.010186 17.388893 13.000001 17.45013 13 17.529297 C 13 17.574995 13.008327 17.618858 13.009766 17.664062 A 6 8 0 0 1 19 10 A 6 8 0 0 1 24 13.587891 A 6 8 0 0 1 29 10 A 6 8 0 0 1 34.988281 17.689453 C 34.990295 17.635846 35 17.583501 35 17.529297 C 34.999999 17.458683 34.991337 17.404343 34.990234 17.335938 A 6 8 0 0 0 35 17 A 6 8 0 0 0 29 9 A 6 8 0 0 0 24 12.587891 A 6 8 0 0 0 19 9 z M 34.023438 24.087891 C 34.013695 24.282543 34 24.471141 34 24.677734 C 34 26.86387 35.039715 28.494961 35.796875 29.720703 C 36.454148 30.784741 36.856332 31.541266 36.957031 32.193359 C 36.976782 31.959702 36.999893 31.726751 37 31.490234 C 36.9987 30.772865 36.554035 29.946445 35.796875 28.720703 C 35.088544 27.574008 34.143746 26.066654 34.023438 24.087891 z M 13.976562 24.089844 C 13.855747 26.067648 12.911224 27.574384 12.203125 28.720703 C 11.445965 29.946445 11.0013 30.772865 11 31.490234 C 11.000107 31.726751 11.023218 31.959702 11.042969 32.193359 C 11.143668 31.541266 11.545852 30.784741 12.203125 29.720703 C 12.960285 28.494961 14 26.86387 14 24.677734 C 14 24.471895 13.986208 24.283823 13.976562 24.089844 z"/>
 <path style="fill:#3f3f3f" d="m 16.000239,29 c 3.472648,2.825039 8.521718,3.634804 13.931284,3.983716 -0.07608,1.936304 0.534442,2.829594 -0.867546,4.760217 -0.624656,1.127941 -1.593779,1.10501 -2.734755,1.190072 -3.257569,0.23953 -6.453128,0.0034 -9.18841,-3.76315 C 15.789968,32.958794 16.144214,31.019204 16.000239,29 Z"/>
 <path style="opacity:0.2" d="m 16,29.947453 c -0.162854,2.228093 0.311921,3.090437 2.052818,4.103807 2.810319,1.41798 6.646858,1.752984 10.633954,1.90474 1.27371,-0.05834 1.244998,-2.025059 1.244998,-2.025059 C 24.522202,33.58203 19.472655,32.772493 16.000007,29.947453 Z"/>
 <path style="fill:#f4f4f7" d="m 16,28.947256 c -0.162854,2.228093 0.311921,3.090437 2.052818,4.103807 2.810319,1.41798 6.646858,1.752984 10.633954,1.90474 1.27371,-0.05834 1.244998,-2.025059 1.244998,-2.025059 -5.409568,-0.348911 -10.459115,-1.158448 -13.931763,-3.983488 z"/>
 <path style="fill:#e12640" d="m 21.328614,36.10699 c -0.681231,0.01611 -1.3226,0.07393 -1.662089,0.123468 0.263854,0.952963 0.668875,1.582355 1.13564,2.0695 1.769957,0.744264 3.637815,0.770337 5.527196,0.637282 0.717402,-0.05122 1.366533,-0.06327 1.905146,-0.332413 l -0.631468,-0.849002 c -0.387673,-0.764475 -1.008933,-0.896629 -1.706023,-1.08948 -0.647297,-0.14599 -1.376197,-0.272191 -1.682759,-0.300074 -0.598101,-0.0544 0.534999,0.854606 0.534999,0.854606 -0.444061,0.129855 -1.046285,-0.876973 -1.519634,-0.98757 -0.498809,-0.116557 -1.219778,-0.142428 -1.901008,-0.126317 z"/>
 <ellipse style="fill:#3f3f3f" cx="19.5" cy="20" rx="2.5" ry="4"/>
 <ellipse style="fill:#3f3f3f" cx="27" cy="20" rx="2" ry="3"/>
 <path style="opacity:0.2" d="m 19,10.999999 a 9,9 0 0 0 -9,9 9,9 0 0 0 9,9 9,9 0 0 0 4.326172,-1.109375 l 1.542969,0.414063 1.496093,0.40039 -0.11914,0.119141 c -0.328127,0.328126 -0.328127,0.85742 0,1.185547 l 6.74414,6.74414 c 0.328127,0.328127 0.857421,0.328127 1.185547,0 l 1.578125,-1.578125 c 0.328127,-0.328126 0.328127,-0.85742 0,-1.185547 l -6.74414,-6.74414 C 28.68923,26.925557 28.178984,26.922809 27.849609,27.228515 L 27.447266,25.726561 27.011719,24.099608 A 9,9 0 0 0 28,19.999999 a 9,9 0 0 0 -9,-9 z m 0,3 a 6,6 0 0 1 6,6 6,6 0 0 1 -6,6 6,6 0 0 1 -6,-6 6,6 0 0 1 6,-6 z"/>
 <path style="fill:#dbdbdb" d="M 19 10 A 9 9 0 0 0 10 19 A 9 9 0 0 0 19 28 A 9 9 0 0 0 23.326172 26.890625 L 24.869141 27.304688 L 26.365234 27.705078 L 26.246094 27.824219 C 25.917967 28.152345 25.917967 28.681639 26.246094 29.009766 L 32.990234 35.753906 C 33.318361 36.082033 33.847655 36.082033 34.175781 35.753906 L 35.753906 34.175781 C 36.082033 33.847655 36.082033 33.318361 35.753906 32.990234 L 29.009766 26.246094 C 28.68923 25.925558 28.178984 25.92281 27.849609 26.228516 L 27.447266 24.726562 L 27.011719 23.099609 A 9 9 0 0 0 28 19 A 9 9 0 0 0 19 10 z M 19 13 A 6 6 0 0 1 25 19 A 6 6 0 0 1 19 25 A 6 6 0 0 1 13 19 A 6 6 0 0 1 19 13 z"/>
</svg>
