<svg xmlns="http://www.w3.org/2000/svg" width="48" height="48" version="1">
 <path opacity=".2" d="m4 40v1c0 1.108 0.892 2 2 2h36c1.108 0 2-0.892 2-2v-1c0 1.108-0.892 2-2 2h-36c-1.108 0-2-0.892-2-2z"/>
 <rect style="fill:#4f4f4f" width="40" height="36" x="4" y="6" rx="2" ry="2"/>
 <path style="opacity:.1;fill:#f4f4f7" d="m6 6c-1.108 0-2 0.892-2 2v1c0-1.108 0.892-2 2-2h36c1.108 0 2 0.892 2 2v-1c0-1.108-0.892-2-2-2h-36z"/>
 <path style="opacity:.2" d="m10 11v1h-0.5c-0.831 0-1.5 0.669-1.5 1.5s0.669 1.5 1.5 1.5h0.5v1h-1.9082c0.206 0.582 0.754 1 1.4082 1h0.5v1h1v-1h0.5c0.831 0 1.5-0.669 1.5-1.5s-0.669-1.5-1.5-1.5h-0.5v-1h1.9082c-0.206-0.582-0.754-1-1.408-1h-0.5v-1h-1zm-0.5 2h0.5v1h-0.5c-0.277 0-0.5-0.223-0.5-0.5s0.223-0.5 0.5-0.5zm1.5 2h0.5c0.277 0 0.5 0.223 0.5 0.5s-0.2233 0.51287-0.5 0.5h-0.5zm4 2v1h6v-1z"/>
 <path style="fill:#f4f4f7" d="m10 10v1h-0.5c-0.831 0-1.5 0.669-1.5 1.5s0.669 1.5 1.5 1.5h0.5v1h-1.9082c0.206 0.582 0.754 1 1.4082 1h0.5v1h1v-1h0.5c0.831 0 1.5-0.669 1.5-1.5s-0.669-1.5-1.5-1.5h-0.5v-1h1.908c-0.206-0.582-0.754-1-1.408-1h-0.5v-1zm-0.5 2h0.5v1h-0.5c-0.277 0-0.5-0.223-0.5-0.5s0.223-0.5 0.5-0.5zm1.5 2h0.5c0.277 0 0.5 0.223 0.5 0.5s-0.223 0.513-0.5 0.5h-0.5zm4 2v1h6v-1z"/>
 <circle style="opacity:0.2" cx="36" cy="37" r="11"/>
 <circle style="fill:#bb46da" cx="36" cy="36" r="11"/>
 <path style="fill:#f4f4f7" d="m 30,30 v 1 c 0,0.55016 0.45347,1 1,1 4.9706,0 9,4.0294 9,9 0,0.55016 0.45347,1 1,1 h 1 V 41 C 42,34.925 37.075,30 31,30 Z m 0,4 v 1 c 0,0.55016 0.45347,1 1,1 2.7614,0 5,2.2386 5,5 0,0.55016 0.45347,1 1,1 h 1 v -1 c 0,-3.866 -3.134,-7 -7,-7 z m 2,4 c -1.1046,0 -2,0.89543 -2,2 0,1.10457 0.89543,2 2,2 1.10457,0 2,-0.89543 2,-2 0,-1.10457 -0.8954,-2 -2,-2 z"/>
</svg>
