<svg xmlns="http://www.w3.org/2000/svg" width="48" height="48" version="1">
 <rect style="fill:#115c77" width="40" height="40" x="4" y="4" rx="2" ry="2"/>
 <path style="opacity:0.3" d="M 6 4 C 4.892 4 4 4.892 4 6 L 4 42 C 4 43.108 4.892 44 6 44 L 18 44 L 18 4 L 6 4 z"/>
 <path style="opacity:0.1;fill:#f4f4f7" d="M 6,4 C 4.892,4 4,4.892 4,6 V 7 C 4,5.892 4.892,5 6,5 h 36 c 1.108,0 2,0.892 2,2 V 6 C 44,4.892 43.108,4 42,4 Z"/>
 <path style="opacity:0.2" d="M 6,45 C 4.892,45 4,44.108 4,43 v -1 c 0,1.108 0.892,2 2,2 h 36 c 1.108,0 2,-0.892 2,-2 v 1 c 0,1.108 -0.892,2 -2,2 z"/>
 <rect style="opacity:0.2" width="4" height="44" x="16" y="3" rx="1" ry="1"/>
 <rect style="fill:#b2bfd9" width="4" height="44" x="16" y="2" rx="1" ry="1"/>
 <path style="opacity:0.2;fill:#f4f4f7" d="M 17 2 C 16.446 2 16 2.446 16 3 L 16 4 C 16 3.446 16.446 3 17 3 L 19 3 C 19.554 3 20 3.446 20 4 L 20 3 C 20 2.446 19.554 2 19 2 L 17 2 z"/>
</svg>
