<svg xmlns="http://www.w3.org/2000/svg" width="48" height="48" version="1">
 <path style="opacity:0.2" d="M 24,5 A 20,20 0 0 0 4,25 20,20 0 0 0 5.5585938,32.693359 L 4.1953125,37.78125 a 5.7362744,5.7358584 0 0 0 7.0234375,7.023438 l 5.064453,-1.357422 A 20,20 0 0 0 24,45 20,20 0 0 0 44,25 20,20 0 0 0 24,5 Z"/>
 <circle style="fill:#3a76f0" cx="24" cy="24" r="20"/>
 <path style="fill:#3a76f0" d="M 15.151002,12.00059 A 5.7362744,5.7358584 0 0 0 9.695365,16.251645 L 4.1949177,36.781613 a 5.7362744,5.7358584 0 0 0 7.0239933,7.023484 l 20.531457,-5.500048 a 5.7362744,5.7358584 0 0 0 2.570981,-9.59428 L 19.290341,13.680849 A 5.7362744,5.7358584 0 0 0 15.151002,12.00059 Z"/>
 <path style="opacity:0.2" d="m 24,11 a 14,14 0 0 0 -14,14 14,14 0 0 0 1.880859,6.976562 L 10,39 17.015625,37.121094 A 14,14 0 0 0 24,39 14,14 0 0 0 38,25 14,14 0 0 0 24,11 Z"/>
 <circle style="fill:#f4f4f7" cx="24" cy="24" r="14"/>
 <path style="fill:#f4f4f7" d="m 13.215394,25.999985 8.784609,8.78461 -11.999999,3.21539 z"/>
 <path style="opacity:0.5;fill:#f4f4f7" d="m 22.216797,6.0898438 -0.101563,0.00977 -1.683593,0.2597656 -0.09766,0.019531 -0.544922,0.140625 0.501954,1.9355469 0.482422,-0.125 L 22.375,8.0839844 24.050781,7.9980469 23.949219,6.0019531 Z m 3.501953,1.0917968 -0.138672,0.8945313 1.646484,0.2539062 1.533204,0.3984375 0.507812,0.1875 0.689453,-1.8769531 -0.570312,-0.2109375 -0.09375,-0.029297 -1.626953,-0.4199219 -0.09766,-0.019531 -1.683593,-0.2597656 -0.101563,-0.00977 h -0.0098 z m -8.666016,0.2207032 -0.08984,0.039062 -1.486329,0.7167969 -0.08398,0.046875 -1.341797,0.8164063 1.041016,1.7089846 L 16.390625,9.9375 17.804688,9.2558594 18.474609,9.0097656 17.785156,7.1328125 Z m 13.964844,2.25 0.591797,0.2851562 1.332031,0.8125 1.257813,0.943359 0.486328,-0.65039 0.798828,-0.876953 -0.01367,-0.01172 -0.07227,-0.06055 -1.310547,-0.9824219 -0.07813,-0.052734 -1.402344,-0.8535157 -0.08398,-0.046875 -0.634766,-0.3066406 z m -19.697266,1.5996092 -0.06836,0.06836 -1.097656,1.208985 -0.06055,0.07226 -0.6152344,0.820313 1.5996094,1.199219 0.589844,-0.78711 1.033203,-1.132812 0.955078,-0.871094 -1.34375,-1.478516 z m 24.205079,1.697266 0.80664,0.884765 0.917969,1.22461 0.5625,0.923828 1.708984,-1.041016 -0.580078,-0.951172 -0.05273,-0.07813 -0.982422,-1.310547 -0.06055,-0.07226 -0.839844,-0.925781 z m -27.3203129,2.443359 -0.046875,0.08398 -0.7167969,1.486329 -0.039062,0.08984 -0.5742188,1.560547 -0.029297,0.09375 -0.109375,0.423828 1.9375,0.5 L 8.7285156,19.238281 9.2558594,17.804688 9.9375,16.390625 10.042969,16.21875 8.3359375,15.177734 Z m 30.4765629,2.28125 0.06055,0.128906 0.529296,1.435547 0.398438,1.535157 0.06836,0.4375 1.976563,-0.302735 -0.07422,-0.476562 -0.01953,-0.09766 -0.419922,-1.626953 -0.0293,-0.09375 -0.574219,-1.560547 -0.03906,-0.08984 -0.07617,-0.160157 z M 6.0996094,22.115234 6.0898438,22.216797 6.0019531,23.949219 6,24.035156 l 0.033203,0.9375 0.00391,0.06445 0.039063,0.378907 L 8.0664062,25.216797 8.0292969,24.863281 8,23.994141 8.0839844,22.375 8.2207031,21.484375 6.2441406,21.179688 Z M 39.953125,23.095703 40,24 l -0.08398,1.625 -0.191407,1.25 1.976563,0.302734 0.199219,-1.292968 0.0098,-0.101563 0.08789,-1.732422 v -0.101562 l -0.04883,-0.955078 z m -33.5410156,4.410156 0.083984,0.38086 0.021484,0.07813 0.5429688,1.763672 0.033203,0.0918 0.6777344,1.626954 L 9.6191406,30.677734 8.9589844,29.09375 8.4414062,27.421875 8.3632812,27.072266 Z m 32.8730466,1.214844 h -0.002 l -0.0098,0.03516 -0.529297,1.439453 -0.681641,1.414063 -0.294922,0.482422 1.708984,1.041015 0.31836,-0.52539 0.04687,-0.08398 0.716797,-1.486329 0.03906,-0.08984 0.574219,-1.560547 0.0293,-0.09375 0.01758,-0.07227 -1.683594,-0.435547 -0.240234,-0.08789 z M 6.234375,36.59375 8.1660156,37.113281 9.203125,33.248047 7.2714844,32.730469 Z m 30.095703,-2.425781 -1.03125,1.130859 -1.132812,1.033203 -0.02148,0.01563 0.002,0.002 -0.01953,0.01758 0.183594,0.203124 1.033203,1.378907 0.05469,-0.04297 0.07227,-0.06055 1.208985,-1.097656 0.06836,-0.06836 1.097656,-1.208985 0.06055,-0.07227 0.398438,-0.53125 -1.601563,-1.199219 z m -4.720703,3.894531 -1.414063,0.681641 -1.009765,0.371093 0.689453,1.876954 1.072266,-0.394532 0.08984,-0.03906 1.486329,-0.716797 0.08398,-0.04687 1.03125,-0.628906 -1.039063,-1.707032 z m -24.4921875,0.757812 -0.984375,0.212891 v 0.002 l 0.060547,0.185547 0.3027344,0.701172 0.1289062,0.216797 0.4648438,0.597656 0.1738281,0.173828 0.5976562,0.464844 0.2167969,0.128906 0.7011719,0.302735 0.1855469,0.06055 0.3808593,0.08203 0.1328125,0.01953 L 9.8730469,42 l 0.1367191,0.002 0.171875,-0.0098 -0.115235,-1.996094 -0.091797,0.0059 L 9.7011719,39.980469 9.4804688,39.931641 8.9882812,39.71875 8.5917969,39.408203 8.28125,39.011719 8.0273438,38.425781 Z m 4.6933595,0.765626 0.517578,1.93164 3.863281,-1.035156 -0.517578,-1.931641 z m 5.625,1.013671 0.742187,0.308594 0.08984,0.0332 1.767578,0.542969 0.07813,0.02148 0.902344,0.199219 0.05664,0.01172 0.417968,0.06641 0.31836,-1.974609 -0.361328,-0.05664 -0.01172,-0.002 -0.861328,-0.191406 -1.679688,-0.517578 -0.689453,-0.28711 z M 27.224609,39.669922 25.625,39.916016 24.001953,40 23.671875,39.988281 23.603516,41.986328 23.960938,42 l 0.08594,-0.002 1.736328,-0.08789 0.101563,-0.0098 1.683593,-0.259766 0.09766,-0.01953 0.193359,-0.05078 -0.5,-1.935546 z"/>
 <path style="opacity:0.2;fill:#f4f4f7" d="M 24 4 A 20 20 0 0 0 4 24 A 20 20 0 0 0 4.0214844 24.404297 A 20 20 0 0 1 24 5 A 20 20 0 0 1 43.978516 24.582031 A 20 20 0 0 0 44 24 A 20 20 0 0 0 24 4 z M 5.4042969 32.269531 L 4.1953125 36.78125 A 5.7362744 5.7358584 0 0 0 4.0292969 38.759766 A 5.7362744 5.7358584 0 0 1 4.1953125 37.78125 L 5.5585938 32.693359 A 20 20 0 0 1 5.4042969 32.269531 z"/>
</svg>
