<svg xmlns="http://www.w3.org/2000/svg" width="48" height="48" version="1">
 <path style="opacity:0.2" d="m 24,35 c 0,-2.602169 0,-10 0,-10 0,0 -7.079322,0 -10,0 -5.522847,0 -10,4.477153 -10,10 0,5.522847 4.477153,10 10,10 5.522847,0 10,-4.477153 10,-10 z"/>
 <path style="opacity:0.2" d="m 24,15 c 0,2.602169 0,10 0,10 0,0 -7.079322,0 -10,0 C 8.4771525,25 4,20.522847 4,15 4,9.4771525 8.4771525,5 14,5 19.522847,5 24,9.4771525 24,15 Z"/>
 <path style="opacity:0.2" d="m 24,15 c 0,2.602169 0,10 0,10 0,0 7.079322,0 10,0 5.522847,0 10,-4.477153 10,-10 C 44,9.4771525 39.522847,5 34,5 28.477153,5 24,9.4771525 24,15 Z"/>
 <path style="opacity:0.2" d="m 24,35 c 0,-2.602169 0,-10 0,-10 0,0 7.079322,0 10,0 5.522847,0 10,4.477153 10,10 0,5.522847 -4.477153,10 -10,10 -5.522847,0 -10,-4.477153 -10,-10 z"/>
 <path style="fill:#d32f2f" d="m 24,14 c 0,2.602169 0,10 0,10 0,0 -7.079322,0 -10,0 C 8.4771525,24 4,19.522847 4,14 4,8.4771525 8.4771525,4 14,4 19.522847,4 24,8.4771525 24,14 Z"/>
 <path style="fill:#92dc39" d="m 24,14 c 0,2.602169 0,10 0,10 0,0 7.079322,0 10,0 5.522847,0 10,-4.477153 10,-10 C 44,8.4771525 39.522847,4 34,4 28.477153,4 24,8.4771525 24,14 Z"/>
 <path style="fill:#fdd835" d="m 24,34 c 0,-2.602169 0,-10 0,-10 0,0 7.079322,0 10,0 5.522847,0 10,4.477153 10,10 0,5.522847 -4.477153,10 -10,10 -5.522847,0 -10,-4.477153 -10,-10 z"/>
 <path style="fill:#2f58d3" d="m 24,34 c 0,-2.602169 0,-10 0,-10 0,0 -7.079322,0 -10,0 -5.522847,0 -10,4.477153 -10,10 0,5.522847 4.477153,10 10,10 5.522847,0 10,-4.477153 10,-10 z"/>
 <circle style="opacity:0.2" cx="24" cy="25" r="8"/>
 <circle style="fill:#f4f4f7" cx="24" cy="24" r="8"/>
 <path style="opacity:0.1;fill:#f4f4f7" d="M 14 4 C 8.4771525 4 4 8.4771525 4 14 C 4 14.168968 4.0171075 14.333088 4.0253906 14.5 C 4.2878468 9.2112612 8.6461205 5 14 5 C 19.522847 5 24 9.4771525 24 15 L 24 14 C 24 8.4771525 19.522847 4 14 4 z"/>
 <path style="opacity:0.2;fill:#f4f4f7" d="M 34 4 C 28.477153 4 24 8.4771525 24 14 L 24 15 C 24 9.4771525 28.477153 5 34 5 C 39.353879 5 43.712153 9.2112612 43.974609 14.5 C 43.982892 14.333088 44 14.168968 44 14 C 44 8.4771525 39.522847 4 34 4 z"/>
 <path style="opacity:0.2;fill:#f4f4f7" d="M 24 24 L 24 25 L 34 25 C 39.353879 25 43.712153 29.211262 43.974609 34.5 C 43.982892 34.333088 44 34.168968 44 34 C 44 28.477153 39.522847 24 34 24 L 24 24 z"/>
 <path style="opacity:0.1;fill:#f4f4f7" d="M 14 24 C 8.477153 24 4 28.477153 4 34 C 4 34.168968 4.0171075 34.333088 4.0253906 34.5 C 4.2878468 29.211262 8.6461209 25 14 25 L 24 25 L 24 24 L 14 24 z"/>
</svg>
