<svg xmlns="http://www.w3.org/2000/svg" width="48" height="48" version="1">
 <path style="opacity:0.2" d="m 26,5 c -8.864,0 -16,7.136 -16,16 0,4.943516 2.221646,9.346886 5.722656,12.277344 L 38.277344,10.722656 C 35.346886,7.221646 30.943516,5 26,5 Z"/>
 <path style="fill:#4f4f4f" d="M 26 4 C 17.136 4 10 11.136 10 20 C 10 24.943516 12.221646 29.346886 15.722656 32.277344 L 38.277344 9.7226562 C 35.346886 6.221646 30.943516 4 26 4 z"/>
 <path style="opacity:0.1;fill:#f4f4f7" d="M 26 4 C 17.136 4 10 11.136 10 20 C 10 20.216474 10.009137 20.430207 10.017578 20.644531 C 10.207244 11.947705 17.25603 5 26 5 C 30.687958 5 34.873906 7.0128798 37.794922 10.205078 L 38.277344 9.7226562 C 35.346886 6.2216461 30.943516 4 26 4 z"/>
 <path style="opacity:0.2" d="M 32.277344,16.722656 9.7226562,39.277344 C 12.653114,42.778354 17.056484,45 22,45 30.864,45 38,37.864 38,29 38,24.056484 35.778354,19.653114 32.277344,16.722656 Z"/>
 <path style="fill:#ed6b21" d="M 32.277344 15.722656 L 9.7226562 38.277344 C 12.653114 41.778354 17.056484 44 22 44 C 30.864 44 38 36.864 38 28 C 38 23.056484 35.778354 18.653114 32.277344 15.722656 z"/>
 <path style="fill:#f4f4f7;opacity:0.2" d="M 32.277344 15.722656 L 9.7226562 38.277344 C 9.874148 38.45833 10.045843 38.620903 10.205078 38.794922 L 32.277344 16.722656 C 35.625047 19.524791 37.798101 23.675371 37.982422 28.355469 C 37.985025 28.236086 38 28.12003 38 28 C 38 23.056484 35.778354 18.653114 32.277344 15.722656 z"/>
</svg>
