<svg xmlns="http://www.w3.org/2000/svg" width="48" height="48" version="1">
 <rect style="opacity:0.2" width="40" height="40" x="4" y="5" rx="2" ry="2"/>
 <rect style="fill:#b2bfd9" width="40" height="40" x="4" y="4" rx="2" ry="2"/>
 <path style="opacity:0.2;fill:#f4f4f7" d="M 6 4 C 4.892 4 4 4.892 4 6 L 4 7 C 4 5.892 4.892 5 6 5 L 42 5 C 43.108 5 44 5.892 44 7 L 44 6 C 44 4.892 43.108 4 42 4 L 6 4 z"/>
 <path style="opacity:0.1" d="M 10.999999,13 26.480499,25.140442 10.999999,37 V 32.452973 L 20.738257,25 10.999999,17.499802 Z M 37,16.796708 26.480499,25.140442 37,33.296685 V 28.750187 L 32.268677,24.999824 37,21.249989 Z"/>
 <path style="fill:#d87d00" d="M 10.999999,12 26.480499,24.140442 10.999999,36 V 31.452973 L 20.738257,24 10.999999,16.499802 Z M 37,15.796708 26.480499,24.140442 37,32.296685 V 27.750187 L 32.268677,23.999824 37,20.249989 Z"/>
</svg>
