<svg xmlns="http://www.w3.org/2000/svg" width="48" height="48" version="1">
 <path style="opacity:0.2" d="m 23.99939,3.9999997 c -1.10005,0 -2.200835,0.4100214 -3.023149,1.2323158 L 4.2322781,21.978145 c -1.644629,1.644587 -1.642296,4.39682 0.0024,6.041409 L 20.978641,44.765383 c 1.644629,1.644589 4.399315,1.646922 6.043944,0.0024 L 43.766548,28.021955 c 1.644628,-1.644589 1.644629,-4.399178 0,-6.043766 L 27.022541,5.2323155 C 26.200227,4.4100212 25.099441,3.9999997 23.99939,3.9999997 Z"/>
 <path style="fill:#8d49bc" d="M 24,3 C 22.89995,3 21.798876,3.4101275 20.976562,4.2324219 L 4.2324219,20.978516 C 3.4096223,21.801294 2.9989227,22.900146 3,24 h 42 c 0,-1.099794 -0.412061,-2.19919 -1.234375,-3.021484 L 27.023438,4.2324219 C 26.201124,3.4101276 25.100051,3 24,3 Z m 21,21 c 0,0.549897 -0.102789,1.100124 -0.308594,1.615234 C 44.896985,25.100025 45,24.549897 45,24 Z m -0.308594,1.615234 c -0.205804,0.51511 -0.514624,0.995103 -0.925781,1.40625 0.411157,-0.411147 0.720203,-0.89104 0.925781,-1.40625 z"/>
 <path style="fill:#f4f4f7;opacity:0.1" d="M 24 3 C 22.89995 3 21.798876 3.4101275 20.976562 4.2324219 L 4.2324219 20.978516 C 3.2862751 21.924638 2.9037262 23.234678 3.046875 24.492188 C 3.1538236 23.568432 3.5371786 22.673741 4.2324219 21.978516 L 20.976562 5.2324219 C 21.798876 4.4101275 22.89995 4 24 4 C 25.100051 4 26.201124 4.4101276 27.023438 5.2324219 L 43.765625 21.978516 C 44.462624 22.675497 44.846907 23.57327 44.953125 24.5 C 45.097538 23.240031 44.713255 21.926122 43.765625 20.978516 L 27.023438 4.2324219 C 26.201124 3.4101276 25.100051 3 24 3 z"/>
 <path style="fill:#3a497d" d="M 3 24 C 3.0010761 25.098557 3.4125121 26.197722 4.234375 27.019531 L 20.978516 43.765625 C 22.623145 45.410214 25.378808 45.4121 27.023438 43.767578 L 43.765625 27.021484 C 44.587939 26.19919 45 25.099794 45 24 L 3 24 z"/>
 <path style="opacity:0.2" d="M 3 24 C 3.00033 24.33692 3.0533298 24.670984 3.1308594 25 L 44.869141 25 C 44.946541 24.670889 45 24.337158 45 24 L 3 24 z"/>
 <path style="opacity:0.2" transform="matrix(0.80483352,0,0,1.0138273,-48.410279,21.122276)" d="M 98.666715,3.8248372 84.999292,11.715727 v -15.78178 z"/>
 <path style="fill:#f4f4f7" transform="matrix(0.80483352,0,0,1.0138273,-48.410279,20.122276)" d="M 98.666715,3.8248372 84.999292,11.715727 v -15.78178 z"/>
</svg>
