<svg xmlns="http://www.w3.org/2000/svg" width="48" height="48" version="1">
 <path style="opacity:0.2" d="m 20.710958,38.974835 c -6.61137,-0.125659 -9.29483,-0.236612 -10.9357502,-0.452161 -1.20335,-0.158076 -1.79431,-0.312183 -2.46082,-0.641719 -1.10082,-0.544259 -1.78544,-1.303201 -2.27951,-2.526969 -0.45172,-1.118836 -0.63565,-2.007476 -0.80445,-3.886686 -0.19049,-2.120698 -0.20538,-2.504621 -0.22516,-5.80883 -0.0233,-3.88576 0.0236,-5.15909 0.28455,-7.738247 0.13684,-1.352125 0.33628,-2.250726 0.71103,-3.203634 0.34129,-0.867795 0.65288,-1.346721 1.21955,-1.874493 0.7122,-0.663311 1.49437,-1.066538 2.48179,-1.2794 1.4738402,-0.317725 8.1353702,-0.562695 15.3012502,-0.562695 7.165881,0 13.827411,0.24497 15.301251,0.562695 1.06587,0.229777 1.84815,0.654198 2.61141,1.416801 0.59738,0.596864 0.90506,1.139213 1.27121,2.240835 0.37728,1.135093 0.52197,2.139642 0.73635,5.112325 0.1018,1.411685 0.10178,7.910134 0,9.321124 -0.11911,1.650636 -0.26528,3.12057 -0.36261,3.64654 -0.25022,1.352245 -0.74166,2.618321 -1.29573,3.338169 -0.38014,0.493871 -1.13056,1.082328 -1.75807,1.378621 -0.63541,0.300025 -1.2408,0.448768 -2.21675,0.544677 -3.02421,0.297189 -12.259171,0.51418 -17.579501,0.413047 z"/>
 <path style="fill:#e53935" d="m 20.710958,37.974834 c -6.61137,-0.125659 -9.29483,-0.236612 -10.9357502,-0.452161 -1.20335,-0.158076 -1.79431,-0.312183 -2.46082,-0.641719 -1.10082,-0.544259 -1.78544,-1.303201 -2.27951,-2.526969 -0.45172,-1.118836 -0.63565,-2.007476 -0.80445,-3.886686 -0.19049,-2.120698 -0.20538,-2.504621 -0.22516,-5.80883 -0.0233,-3.88576 0.0236,-5.15909 0.28455,-7.738247 0.13684,-1.352125 0.33628,-2.250726 0.71103,-3.203634 0.34129,-0.867795 0.65288,-1.346721 1.21955,-1.874493 0.7122,-0.663311 1.49437,-1.066538 2.48179,-1.2794 C 10.176028,10.24497 16.837558,10 24.003438,10 c 7.165881,0 13.827411,0.24497 15.301251,0.562695 1.06587,0.229777 1.84815,0.654198 2.61141,1.416801 0.59738,0.596864 0.90506,1.139213 1.27121,2.240835 0.37728,1.135093 0.52197,2.139642 0.73635,5.112325 0.1018,1.411685 0.10178,7.910134 0,9.321124 -0.11911,1.650636 -0.26528,3.12057 -0.36261,3.64654 -0.25022,1.352245 -0.74166,2.618321 -1.29573,3.338169 -0.38014,0.493871 -1.13056,1.082328 -1.75807,1.378621 -0.63541,0.300025 -1.2408,0.448768 -2.21675,0.544677 -3.02421,0.297189 -12.259171,0.51418 -17.579501,0.413047 z"/>
 <path style="opacity:0.2" d="m 24.452263,28.397685 c 5.669439,-3.386921 5.547539,-3.312636 5.547539,-3.380633 0,-0.06363 -9.92357,-6.051366 -9.971956,-6.016909 -0.03268,0.02329 -0.03876,11.951433 -0.0066,11.989072 0.01208,0.01392 0.04644,0.01445 0.0763,0.0011 0.02987,-0.01327 1.98932,-1.17997 4.354226,-2.59276 z"/>
 <path style="fill:#f4f4f7" d="m 24.452263,27.397687 c 5.669439,-3.386921 5.547539,-3.312636 5.547539,-3.380633 0,-0.06363 -9.92357,-6.051366 -9.971956,-6.016909 -0.03268,0.02329 -0.03876,11.951433 -0.0066,11.989072 0.01208,0.01392 0.04644,0.01445 0.0763,0.0011 0.02987,-0.01327 1.98932,-1.17997 4.354226,-2.59276 z"/>
 <path style="fill:#f4f4f7;opacity:0.2" d="M 24.003906 10 C 16.838026 10 10.176965 10.244775 8.703125 10.5625 C 7.715705 10.775362 6.9329031 11.178486 6.2207031 11.841797 C 5.6540331 12.369569 5.34129 12.849002 5 13.716797 C 4.62525 14.669705 4.4259025 15.567797 4.2890625 16.919922 C 4.0281125 19.499079 3.9825594 20.772443 4.0058594 24.658203 C 4.0069096 24.833636 4.0106691 24.854007 4.0117188 25.013672 C 4.0004811 21.753034 4.0474033 20.308414 4.2890625 17.919922 C 4.4259025 16.567797 4.62525 15.669705 5 14.716797 C 5.34129 13.849002 5.6540331 13.369569 6.2207031 12.841797 C 6.9329031 12.178486 7.715705 11.775362 8.703125 11.5625 C 10.176965 11.244775 16.838026 11 24.003906 11 C 31.169787 11 37.830848 11.244775 39.304688 11.5625 C 40.370557 11.792277 41.152756 12.217866 41.916016 12.980469 C 42.513396 13.577333 42.82135 14.119081 43.1875 15.220703 C 43.56478 16.355796 43.709448 17.359348 43.923828 20.332031 C 43.970197 20.975045 43.991969 22.701878 43.996094 24.494141 C 44.001034 22.351559 43.979262 20.100747 43.923828 19.332031 C 43.709448 16.359348 43.56478 15.355796 43.1875 14.220703 C 42.82135 13.119081 42.513396 12.577333 41.916016 11.980469 C 41.152756 11.217866 40.370557 10.792277 39.304688 10.5625 C 37.830848 10.244775 31.169787 10 24.003906 10 z"/>
</svg>
