<svg width="48" height="48" version="1.1" xmlns="http://www.w3.org/2000/svg">
 <path d="M 24 5 A 20 20 0 0 0 4 25 A 20 20 0 0 0 24 45 A 20 20 0 0 0 24.853516 44.970703 C 24.90289 44.986495 24.951734 45 25 45 C 27 45 44 44 44 26 C 44 9 31 5 29 5 C 28.695908 5 28.266529 5.1317134 27.773438 5.3769531 A 20 20 0 0 0 24 5 z " style="opacity:.2"/>
 <path d="M 24 4 A 20 20 0 0 0 4 24 A 20 20 0 0 0 24 44 A 20 20 0 0 0 24.994141 43.964844 L 22 28 L 28 5 L 31.410156 5.4394531 A 20 20 0 0 0 24 4 z " style="fill:#365849"/>
 <path d="M 24 4 A 20 20 0 0 0 4 24 A 20 20 0 0 0 4.0214844 24.417969 A 20 20 0 0 1 24 5 A 20 20 0 0 1 27.894531 5.40625 L 28 5 L 31.410156 5.4394531 A 20 20 0 0 0 24 4 z M 22.109375 28.582031 L 22 29 L 24.808594 43.970703 A 20 20 0 0 0 24.994141 43.964844 L 22.109375 28.582031 z " style="fill:#f4f4f7;opacity:.1"/>
 <path d="M 29 5 C 28.86758 5 28.711837 5.0253141 28.539062 5.0703125 L 30.681641 5.3457031 C 29.919239 5.114127 29.31372 5 29 5 z M 27.921875 5.3027344 C 25.207998 6.5496482 20 11.917679 20 24 C 20 30.04893 22.118617 40.737126 23.982422 44 A 20 20 0 0 0 24 44 A 20 20 0 0 0 24.994141 43.964844 L 22 28 L 27.921875 5.3027344 z " style="opacity:.2"/>
 <path d="m14.066406 5.9648438a3.0003 3.0003 0 0 0-2.615234 4.6171872s2.357375 3.830668 4.148437 6.21875c1.563039 2.084052 3.317547 3.865407 4.753907 5.189453-0.122822 0.001387-0.227244 0.009766-0.353516 0.009766-4.3 0-6.741589-1.415736-8.275391-2.757812-1.533802-1.342077-1.9667965-2.423829-1.9667965-2.423829a3.0003009 3.0003009 0 1 0-5.515625 2.363282s1.0670052 2.418248 3.5332031 4.576171c2.4661984 2.157924 6.5246094 4.242188 12.224609 4.242188 5.954545 0 9.681835-1.374399 11.955078-3.123047 1.136621-0.874324 1.878097-1.826478 2.326172-2.617187 0.448069-0.79071 0.660156-1.671875 0.660156-1.671875a3.0003 3.0003 0 0 0-5.847656-1.324219c-0.0046 3.92e-4 -0.01301 0.0069-0.03125 0.03906-0.08318 0.146791-0.279199 0.444637-0.767578 0.820313-0.17359 0.133531-0.406177 0.278981-0.669922 0.427734a3.0007814 3.0007814 0 0 0-0.824219-0.951172s-3.73639-2.84839-6.40039-6.40039c-1.433842-1.911788-3.851563-5.7812502-3.851563-5.7812502a3.0003 3.0003 0 0 0-2.482422-1.453125z" style="opacity:.2"/>
 <path d="m14.066406 4.9648438a3.0003 3.0003 0 0 0-2.615234 4.6171874s2.357375 3.8306678 4.148437 6.2187498c1.563039 2.084052 3.317547 3.865407 4.753907 5.189453-0.122822 0.001387-0.227244 0.009766-0.353516 0.009766-4.3 0-6.741589-1.415736-8.275391-2.757812-1.533802-1.342077-1.9667965-2.423829-1.9667965-2.423829a3.0003009 3.0003009 0 1 0-5.515625 2.363282s1.0670052 2.418248 3.5332031 4.576171c2.4661984 2.157924 6.5246094 4.242188 12.224609 4.242188 5.954545 0 9.681835-1.374399 11.955078-3.123047 1.136621-0.874324 1.878097-1.826478 2.326172-2.617187 0.448069-0.79071 0.660156-1.671875 0.660156-1.671875a3.0003 3.0003 0 0 0-5.847656-1.324219c-0.004581 3.92e-4 -0.013015 0.006882-0.03125 0.039062-0.083181 0.146791-0.279199 0.444637-0.767578 0.820313-0.17359 0.133531-0.406177 0.278981-0.669922 0.427734a3.0007814 3.0007814 0 0 0-0.824219-0.951172s-3.73639-2.84839-6.40039-6.40039c-1.433842-1.911788-3.851563-5.7812502-3.851563-5.7812502a3.0003 3.0003 0 0 0-2.482422-1.453125z" style="fill:#786764"/>
 <path d="m14.066406 4.9648438a3.0003 3.0003 0 0 0-3.042968 3.4980468 3.0003 3.0003 0 0 1 3.042968-2.4980468 3.0003 3.0003 0 0 1 2.482422 1.453125c0-1e-7 2.417721 3.8694622 3.851563 5.7812502 2.664 3.552 6.40039 6.40039 6.40039 6.40039a3.0007814 3.0007814 0 0 1 0.824219 0.951172c0.263745-0.148753 0.496332-0.294203 0.669922-0.427734 0.488379-0.375676 0.684398-0.673522 0.767578-0.820313 0.01824-0.03216 0.02665-0.03867 0.03125-0.039062a3.0003 3.0003 0 0 1 5.853516 0.287109 3.0003 3.0003 0 0 0-5.853516-1.287109c-0.0046 3.92e-4 -0.01301 0.006902-0.03125 0.039062-0.08318 0.146791-0.279199 0.444637-0.767578 0.820313-0.17359 0.133531-0.406177 0.278981-0.669922 0.427734a3.0007814 3.0007814 0 0 0-0.824219-0.951172s-3.73639-2.84839-6.40039-6.40039c-1.433842-1.911788-3.851563-5.7812502-3.851563-5.7812502a3.0003 3.0003 0 0 0-2.482422-1.453125zm-7.1679685 9.0351562a3.0003009 3.0003009 0 0 0-2.8554687 3.505859 3.0003009 3.0003009 0 0 1 5.7148437-0.6875s0.4329945 1.081752 1.9667965 2.423829c1.533802 1.342076 3.975391 2.757812 8.275391 2.757812 0.126272 0 0.230694-0.008379 0.353516-0.009766-0.340328-0.313716-0.701043-0.656525-1.070313-1.019531-3.845575-0.151535-6.11477-1.46517-7.558594-2.728515-1.533802-1.342077-1.9667965-2.423829-1.9667965-2.423829a3.0003009 3.0003009 0 0 0-2.859375-1.818359z" style="fill:#f4f4f7;opacity:.1"/>
 <path d="m29 4c-2 0-9 5-9 19 0 7.195678 3 21 5 21s19-1 19-19c0-17-13-21-15-21z" style="fill:#afd1dc"/>
 <path d="m24 22s0 7 2 7c1 0 2-1 2-1v4s0 1 1 1 1-1 1-1v-3s1 1 2 1 3-3 3-3 0 1 1 1c2 0 2-6 2-6z" style="fill:#2a3054"/>
 <path d="m24 22-2-3s4.909333-3 8-3c7 0 8 6 8 6z" style="fill:#3f3f3f"/>
 <path d="m31 18c-4.666667 0-6.894531 4.552734-6.894531 4.552734-0.140783 0.28156-0.140783 0.612972 0 0.894532 0 0 2.227864 4.552734 6.894531 4.552734s6.894531-4.552734 6.894531-4.552734c0.140783-0.28156 0.140783-0.612972 0-0.894532 0 0-2.227864-4.552734-6.894531-4.552734z" style="opacity:.1"/>
 <path d="m31 17c-4.666667 0-6.894531 4.552734-6.894531 4.552734-0.140783 0.28156-0.140783 0.612972 0 0.894532 0 0 2.227864 4.552734 6.894531 4.552734s6.894531-4.552734 6.894531-4.552734c0.140783-0.28156 0.140783-0.612972 0-0.894532 0 0-2.227864-4.552734-6.894531-4.552734z" style="fill:#b2bfd9"/>
 <circle cx="31" cy="23" r="4" style="opacity:.1"/>
 <circle cx="31" cy="22" r="4" style="fill:#786764"/>
 <circle cx="31" cy="22" r="2" style="fill:#3f3f3f"/>
 <path d="m42.970703 25c-0.340909 0.0103-0.653068 0.193616-0.828125 0.486328l-6 10c-0.175663 0.292956-0.189657 0.655307-0.03711 0.960938 0 0 1.227864 2.552734 3.894531 2.552734 0.833333 0 1.610281-0.479724 2.113281-1.150391 0.503-0.670666 0.8384-1.531332 1.107422-2.607421 0.538046-2.15218 0.779298-5.200521 0.779298-9.242188 1.84e-4 -0.563907-0.465631-1.016463-1.029297-1z" style="opacity:.1"/>
 <path d="m42.970703 24c-0.340909 0.0103-0.653068 0.193616-0.828125 0.486328l-6 10c-0.175663 0.292956-0.189657 0.655307-0.03711 0.960938 0 0 1.227864 2.552734 3.894531 2.552734 0.833333 0 1.610281-0.479724 2.113281-1.150391 0.503-0.670666 0.8384-1.531332 1.107422-2.607421 0.538046-2.15218 0.779298-5.200521 0.779298-9.242188 1.84e-4 -0.563907-0.465631-1.016463-1.029297-1z" style="fill:#78b2a1"/>
 <path d="M 29 4 C 27 4 20 9 20 23 C 20 23.176061 20.010138 23.372966 20.013672 23.556641 C 20.164515 9.905921 27.021996 5 29 5 C 30.977729 5 43.702966 8.9198209 43.986328 25.445312 C 43.988761 25.29489 44 25.152865 44 25 C 44 8 31 4 29 4 z " style="fill:#f4f4f7;opacity:.2"/>
 <path d="m42.970703 24c-0.340909 0.0103-0.653068 0.193616-0.828125 0.486328l-6 10c-0.175663 0.292956-0.189656 0.655307-0.037109 0.960938 0 0 0.028543 0.047309 0.03125 0.052734 0.002523-0.004355 0.003266-0.009347 0.005859-0.013672l6-10c0.175057-0.292712 0.487216-0.476028 0.828125-0.486328 0.537269-0.015692 0.973014 0.398972 1.013672 0.925781 0.003222-0.315628 0.015625-0.597064 0.015625-0.925781 1.84e-4 -0.563907-0.465631-1.016463-1.029297-1z" style="fill:#f4f4f7;opacity:.1"/>
</svg>
