<svg xmlns="http://www.w3.org/2000/svg" width="48" height="48" version="1.1" xml:space="preserve">
 <path style="opacity:0.2" d="m 44.000001,25 c 0,11.045691 -8.95431,20 -20.000169,20 C 12.954241,45 3.9999994,36.045691 3.9999994,25 c 0,-11.045692 8.9542416,-20.000001 19.9998326,-20.000001 11.045859,0 20.000169,8.95431 20.000169,20.000001"/>
 <path style="fill:#ebd0a1" d="m 44.000001,24 c 0,11.045692 -8.95431,20.000001 -20.000169,20.000001 C 12.954241,44.000001 3.9999994,35.045692 3.9999994,24 c 0,-11.045691 8.9542416,-20.000001 19.9998326,-20.000001 11.045859,0 20.000169,8.95431 20.000169,20.000001"/>
 <path style="opacity:0.1" d="m 17.1875,8.8127278 c -0.04141,0.5917062 -0.459301,1.022975 -0.625,1.5761712 -0.186285,0.62182 -0.231304,1.375852 -0.134766,2.015625 0.09602,0.636586 0.375148,1.254315 0.84375,1.703125 0.309067,0.29556 0.699901,0.434585 1.03711,0.679687 -0.729949,0.981049 -1.136292,2.221318 -1.19336,3.492188 -0.05673,1.264345 0.240258,2.162162 0.84375,3.21875 1.129714,1.978675 4.231031,2.9456 6.623047,3.15625 2.518263,0.221947 3.162129,0.149727 4.472657,0.05664 0.598511,-0.04241 4.796408,-0.59503 5.460937,-1.142578 0.670505,-0.553342 1.006238,-1.552438 0.673828,-2.384765 -0.457207,-1.144178 -2.00744,-1.72451 -3.052734,-2.175783 -1.35454,-0.585045 -3.372294,-1.797801 -4.546875,-2.742186 -0.719474,-0.578193 -1.491696,-1.315786 -2.306641,-1.898438 0.372801,-0.434075 0.657107,-1.046027 0.773438,-1.433593 0.350072,-1.166184 0.1029,-2.56295 0.572265,-3.673829 -0.271313,0.5801237 -1.640757,1.027386 -2.173828,1.378906 -0.7776,0.513238 -1.828235,1.063496 -2.289062,1.910156 -0.07035,0.129224 -0.134587,0.313614 -0.189453,0.507814 -0.486695,-0.07371 -0.969448,-0.09345 -1.40039,0.05077 -0.154405,0.05165 -0.291507,0.126139 -0.435548,0.191406 0.153079,-0.413717 0.277864,-0.832422 0.197266,-1.283202 C 20.135536,10.886434 19.358526,9.9164077 18.320313,9.463109 17.906856,9.2825715 17.574274,8.9994827 17.1875,8.812719 Z m -1.634766,6.5312502 c -2.806311,1.478324 -5.8871706,4.482217 -7.0351559,7.964843 -1.0617397,3.221158 -0.3501413,6.876158 0.8808594,9.53125 0.039466,0.085 0.080209,0.17037 0.1210938,0.253907 1.7101857,3.488691 4.8269007,5.685527 8.3398437,7.11328 1.386867,0.563614 4.766659,0.988887 7.310547,0.699219 4.004694,-0.456048 6.173759,-1.460383 7.199219,-2.1875 -2.94275,-3.265024 -4.238682,-6.381068 -4.802735,-8.326172 -1.322978,-0.175325 -3.763734,-0.835621 -4.808594,-1.43164 -3.43469,-1.959145 -3.712889,-4.837891 -3.712889,-4.837891 0,0 -1.823912,-1.246758 -2.507814,-2.15625 -0.657551,-0.874458 -1.177941,-1.827446 -1.439453,-2.896485 -0.116387,-0.476028 -0.0987,-3.434835 0.455078,-3.726561 z m 17.607422,0.474608 c 1.087714,1.473983 2.045527,3.414279 2.626953,4.546875 0.695947,1.355119 0.740494,2.857585 0.783204,3.964844 0.116112,3.023536 -2.820837,5.897655 -5.988282,5.960939 0.458945,1.31183 1.285788,3.102032 2.75586,5.048827 0.590403,0.74782 1.09375,1.335937 1.09375,1.335937 0,0 2.653297,-2.214887 4.179687,-5.181639 1.377994,-2.678388 1.453911,-5.430865 1.363281,-6.84375 -0.250755,-3.899295 -2.904299,-7.065023 -6.814453,-8.832033 z"/>
 <path style="fill:#b8884a" d="m 39.973769,23.650901 c -0.250755,-3.899295 -2.90366,-7.064712 -6.813813,-8.831723 1.087714,1.473981 2.046576,3.412553 2.628003,4.545148 0.695946,1.355118 0.738945,2.85791 0.781654,3.965169 0.116112,3.023535 -2.819688,5.897776 -5.987133,5.961058 0.458945,1.31183 1.285046,3.102888 2.755118,5.049684 0.590403,0.747819 1.093361,1.335008 1.093361,1.335008 0,0 2.653339,-2.214807 4.179729,-5.181561 1.377993,-2.678386 1.453712,-5.429898 1.363081,-6.842783"/>
 <path style="fill:#845333" d="m 33.946679,28.291761 c 0,0 0.0037,0.02144 0.01476,0.05995 0.0097,0.03862 0.02954,0.09467 0.05414,0.164279 0.02461,0.07006 0.06066,0.152465 0.103225,0.245846 0.01882,0.04733 0.04835,0.09437 0.07413,0.145343 0.02635,0.05095 0.05284,0.104675 0.08715,0.157662 0.03286,0.05356 0.06515,0.110175 0.101925,0.166784 0.03807,0.05575 0.0776,0.113213 0.118137,0.172314 0.03823,0.06052 0.08673,0.116675 0.133197,0.175717 0.04865,0.05763 0.09047,0.121763 0.143038,0.179843 0.105838,0.11565 0.207902,0.240071 0.327343,0.353401 0.05791,0.05836 0.1164,0.116838 0.174892,0.175878 0.06008,0.05752 0.125377,0.110237 0.187921,0.165654 l 0.186184,0.167797 c 0.06574,0.05151 0.131313,0.102925 0.196318,0.153769 0.06529,0.0505 0.129431,0.101737 0.191975,0.153593 0.06414,0.04949 0.131023,0.09411 0.195016,0.140421 0.130879,0.08818 0.248728,0.187371 0.372368,0.263943 0.122775,0.07787 0.237146,0.154898 0.342978,0.226549 0.104813,0.07312 0.205584,0.13234 0.294188,0.187081 0.08817,0.05542 0.165191,0.10395 0.228604,0.143764 0.126391,0.0815 0.197766,0.130749 0.197766,0.130749 0,0 -0.08151,-0.02691 -0.222956,-0.07906 -0.07036,-0.02679 -0.156072,-0.05949 -0.25423,-0.09699 -0.09788,-0.0384 -0.209639,-0.0798 -0.324014,-0.140145 -0.1164,-0.05649 -0.242646,-0.118313 -0.374539,-0.187183 -0.13363,-0.0655 -0.264652,-0.152755 -0.40335,-0.237595 -0.06863,-0.0437 -0.140145,-0.08573 -0.209349,-0.132616 -0.06847,-0.04869 -0.13696,-0.09903 -0.205005,-0.150987 -0.06847,-0.05159 -0.137683,-0.103563 -0.206887,-0.155637 l -0.197476,-0.171417 c -0.06429,-0.05927 -0.131024,-0.11555 -0.192699,-0.176963 -0.06022,-0.06295 -0.120313,-0.125767 -0.179959,-0.188036 -0.124075,-0.119725 -0.220352,-0.262191 -0.324736,-0.388467 -0.09627,-0.133297 -0.184881,-0.265812 -0.258428,-0.397517 -0.03575,-0.06634 -0.07065,-0.130922 -0.104537,-0.19319 -0.03026,-0.06425 -0.05575,-0.128259 -0.08224,-0.188326 -0.05371,-0.119612 -0.08686,-0.236842 -0.1164,-0.338636 -0.02824,-0.102763 -0.04518,-0.193988 -0.0553,-0.269706 -0.011,-0.07528 -0.01331,-0.135107 -0.0139,-0.175948 -8.68e-4,-0.04065 7.24e-4,-0.06192 7.24e-4,-0.06192"/>
 <path style="fill:#845333" d="m 36.039729,25.862089 c 0,0 0.05429,0.03112 0.149121,0.08094 0.0957,0.04922 0.232079,0.116974 0.396546,0.192843 0.08296,0.03605 0.172865,0.07514 0.267984,0.1164 0.09526,0.03996 0.196607,0.07949 0.30157,0.119438 0.103512,0.04387 0.215574,0.07529 0.325606,0.117275 0.110613,0.04054 0.226141,0.07225 0.339938,0.109162 0.11495,0.03301 0.230051,0.06589 0.343556,0.09846 0.1151,0.02489 0.226867,0.05802 0.336319,0.08522 0.110462,0.02133 0.216732,0.04723 0.318077,0.07081 0.1012,0.0229 0.198345,0.03823 0.287528,0.05819 0.08961,0.0168 0.171417,0.03824 0.244963,0.04897 0.0734,0.01187 0.137394,0.02533 0.190383,0.03574 0.105975,0.02171 0.166929,0.03676 0.166929,0.03676 0,0 -0.06124,0.0094 -0.169245,0.0207 -0.107863,0.01 -0.263495,0.02958 -0.449534,0.0232 -0.09309,-0.0019 -0.195016,0.0016 -0.301284,-0.0095 -0.106262,-0.0096 -0.219192,-0.01911 -0.335015,-0.03416 -0.11495,-0.02086 -0.234973,-0.03823 -0.355138,-0.06413 -0.1193,-0.03087 -0.240332,-0.06197 -0.36151,-0.09326 -0.117988,-0.04184 -0.23758,-0.07844 -0.352101,-0.1239 -0.114812,-0.04491 -0.225997,-0.09336 -0.330961,-0.146239 -0.106837,-0.04835 -0.20486,-0.106262 -0.297517,-0.160704 -0.09352,-0.05284 -0.176774,-0.111912 -0.253651,-0.165191 -0.152886,-0.108725 -0.26943,-0.213546 -0.347321,-0.289845 -0.07716,-0.07789 -0.115249,-0.127115 -0.115249,-0.127115"/>
 <path style="fill:#845333" d="m 36.303804,21.386579 c 0,0 0.197331,-0.01448 0.493401,-0.0362 0.07283,-0.0057 0.151728,-0.01213 0.234974,-0.01882 0.08281,-0.0075 0.170113,-0.0155 0.260456,-0.02374 0.179814,-0.02028 0.371065,-0.03981 0.560579,-0.06847 0.09541,-0.01088 0.189657,-0.0278 0.28275,-0.043 0.09352,-0.01419 0.185026,-0.0304 0.27334,-0.04779 0.17663,-0.03461 0.342978,-0.06746 0.484426,-0.102787 0.07166,-0.01623 0.13725,-0.03143 0.19545,-0.0446 0.05719,-0.01679 0.108437,-0.02867 0.150712,-0.03924 0.08484,-0.02013 0.135368,-0.02954 0.135368,-0.02954 0,0 -0.03937,0.03112 -0.111338,0.08194 -0.07153,0.05197 -0.176918,0.1219 -0.313153,0.187631 -0.03373,0.01736 -0.06893,0.03533 -0.1054,0.05386 -0.03779,0.01534 -0.07688,0.03128 -0.116975,0.04749 -0.08049,0.03214 -0.165337,0.06863 -0.256692,0.09251 -0.09092,0.02621 -0.184157,0.05835 -0.282026,0.07616 -0.09686,0.02259 -0.196318,0.04083 -0.296505,0.054 -0.09975,0.01491 -0.200227,0.02403 -0.2994,0.02983 -0.09889,0.0095 -0.196897,0.0038 -0.291147,0.0061 -0.188645,-0.0044 -0.364262,-0.0194 -0.513093,-0.04619 -0.298242,-0.04705 -0.485728,-0.129286 -0.485728,-0.129143"/>
 <path style="fill:#b8884a" d="m 24.441159,13.874794 c 0.767466,-0.01607 1.421427,-1.295905 1.615284,-1.941757 0.350072,-1.166184 0.102213,-2.5615506 0.571582,-3.6724291 -0.271313,0.5801239 -1.639751,1.0274866 -2.172822,1.3790066 -0.777601,0.5132365 -1.828976,1.0619435 -2.289803,1.9086035 -0.199503,0.366432 -0.383371,1.147796 -0.287094,1.472388"/>
 <path style="fill:#b8884a" d="m 17.116064,17.279818 c 0.100896,-2.246948 1.248823,-4.432366 3.460301,-5.172035 1.072758,-0.359048 2.456543,0.160848 3.462892,0.545667 1.291271,0.494126 2.47338,1.748045 3.549802,2.613091 1.17458,0.944384 3.193359,2.155304 4.547898,2.74035 1.045295,0.451272 2.595573,1.033133 3.052781,2.17731 0.332409,0.832327 -0.003,1.830134 -0.673505,2.383474 -0.66453,0.547549 -4.862356,1.101034 -5.460867,1.143454 -1.310527,0.09309 -1.954497,0.165046 -4.472759,-0.0569 C 22.190592,23.44358 19.088659,22.47661 17.958945,20.497935 17.355454,19.441348 17.05934,18.544161 17.116064,17.279818"/>
 <path style="fill:#f2c9c0" d="m 34.305004,22.54089 c 0.776007,-0.64426 1.139688,-2.372181 0.07065,-2.852118 -0.778759,-0.349349 -1.951458,-0.297374 -2.708934,0.09614 -0.55971,0.290425 -1.341075,1.265501 -1.079751,1.961593 0.309823,0.825956 1.411726,0.156215 2.00821,0.34486 0.639772,0.20211 0.981881,1.054126 1.709822,0.449535"/>
 <path style="fill:#3f3f3f" d="m 21.421769,15.060779 c -0.836614,-0.198779 -1.891997,0.74256 -1.194885,1.540609 1.1722,1.343136 2.523171,-1.104539 1.274852,-1.518251 -0.02676,-0.0091 -0.05338,-0.01616 -0.07998,-0.02236"/>
 <path style="fill:#b8884a" d="M 19.692773,13.970781 C 19.663412,12.94981 20.526315,12.065653 20.338669,11.01616 20.136313,9.8867499 19.358872,8.915437 18.320657,8.4621383 17.907201,8.2816007 17.574329,8.0000082 17.187555,7.8132451 c -0.04141,0.5917061 -0.458771,1.021406 -0.624469,1.5746012 -0.186285,0.6218197 -0.232556,1.3768347 -0.136018,2.0166067 0.09603,0.636588 0.376088,1.254788 0.84469,1.703599 0.318685,0.304756 0.725307,0.439544 1.069371,0.699565 0.247208,0.187053 0.470932,0.466039 0.650254,0.710858"/>
 <path style="fill:#3f3f3f" d="m 24.705078,15.169922 c -0.900848,0.05836 -1.798835,0.574679 -2.349609,1.271484 -0.966825,1.223226 -0.183676,2.472997 1.064453,3.019532 1.192389,0.522068 2.808822,0.550977 3.822266,-0.347657 1.4291,-1.267384 -0.08287,-3.338509 -1.470704,-3.792969 -0.01974,-0.0065 -0.04667,0.0064 -0.06836,0.0039 -0.199989,-0.07627 -0.40397,-0.132117 -0.613281,-0.150391 -0.12783,-0.01116 -0.256073,-0.01224 -0.384766,-0.0039 z m 0.002,0.585937 c 0.248592,0.004 0.493551,0.06732 0.714844,0.203125 0.0464,0.02846 0.10493,0.03697 0.167969,0.03906 0.986371,0.507802 1.837955,1.81152 1.042968,2.808594 -0.571436,0.716938 -1.874275,0.42741 -2.595703,0.167968 -0.86244,-0.310113 -1.556491,-1.091279 -1.15039,-2.033203 0.29274,-0.679079 1.074536,-1.197463 1.820312,-1.185547 z"/>
 <path style="fill:#3f3f3f" d="m 28.749887,16.004037 c -0.383227,-0.06876 -0.76877,-0.118713 -1.148232,-0.0018 -0.440993,0.135946 -0.773258,0.459523 -1.10639,0.763412 -0.127984,0.116837 -0.09903,0.253795 0.07702,0.287673 0.192842,0.03706 0.446927,-0.02549 0.593442,-0.158965 0.188355,-0.171852 0.373672,-0.362236 0.591997,-0.496443 0.07977,-0.04923 0.367735,0.0333 0.475884,0.0527 0.198055,0.03548 0.440557,-0.02679 0.593298,-0.158966 0.131458,-0.11365 0.09658,-0.256547 -0.07702,-0.287674 v 0"/>
 <path style="fill:#3f3f3f" d="m 31.238281,13.703125 c -0.288904,-0.02125 -0.590898,0.01647 -0.839843,0.05273 -1.392615,0.203123 -2.543464,1.371461 -2.457032,2.806641 0.231934,1.36033 1.291091,2.130596 2.626953,1.785156 1.245378,-0.322274 2.091757,-1.471849 2.046875,-2.724609 -0.021,-0.587363 -0.207467,-1.184161 -0.617187,-1.613281 -0.195233,-0.204354 -0.470862,-0.285395 -0.759766,-0.306641 z m -0.730469,0.324219 c 0.152909,0.006 0.312203,0.0401 0.478516,0.111328 0.597353,0.255821 0.745267,1.147392 0.791016,1.708984 0.0734,0.900518 -0.340354,1.557934 -1.054688,2.085938 -0.98608,0.72881 -1.816029,-0.859943 -1.941406,-1.595703 -0.05625,-0.935408 0.656204,-2.352518 1.726562,-2.310547 z"/>
 <path style="fill:#843733" d="m 23.670365,21.510653 c 0.363681,0.508748 0.661344,0.71665 1.321674,0.7624 0.458656,0.0317 0.804529,-0.199504 1.284902,0.03779 0.349638,0.172574 0.606328,0.38062 0.987672,0.495139 1.522916,0.457208 3.250402,0.06038 4.744217,-0.316774 0.495575,-0.125232 0.412327,-0.425935 -0.08094,-0.301427 -1.457766,0.36817 -3.336254,0.820021 -4.690504,-0.0666 -0.379896,-0.248584 -0.728957,-0.331542 -1.178635,-0.304033 -0.811044,0.04965 -1.1394,0.04199 -1.600806,-0.603433 -0.125812,-0.176051 -0.933672,0.09266 -0.78759,0.296938 v 0"/>
 <path style="fill:#845333" d="m 32.004778,21.034335 c 0.135077,-0.09976 0.300268,-0.3327 0.313443,-0.50455 0.01062,-0.138119 -0.122775,-0.21905 -0.241635,-0.163743 -0.09816,0.04574 -0.179813,0.243806 -0.225852,0.335883 -0.09614,0.191542 -0.171128,0.57274 0.154044,0.33241"/>
 <path style="fill:#845333" d="m 34.085665,21.529619 c 0.1138,-0.08413 0.252926,-0.280289 0.264075,-0.425213 0.0089,-0.1164 -0.103512,-0.18459 -0.203557,-0.137827 -0.08281,0.03851 -0.151438,0.20515 -0.190383,0.282895 -0.08093,0.161283 -0.144344,0.482544 0.129865,0.280145"/>
 <path style="fill:#b8884a" d="m 27.566618,29.391623 c -1.322978,-0.175326 -3.764217,-0.835526 -4.809077,-1.431547 -3.43469,-1.959145 -3.712648,-4.83631 -3.712648,-4.83631 0,0 -1.823127,-1.246825 -2.507027,-2.156318 -0.657551,-0.874456 -1.178244,-1.827962 -1.439755,-2.896999 -0.116387,-0.476029 -0.1001,-3.434125 0.453675,-3.725852 -2.806311,1.478324 -5.8868457,4.481446 -7.0348307,7.964071 -1.0617395,3.221157 -0.3489864,6.876922 0.8820141,9.532012 0.039466,0.085 0.079628,0.16926 0.1205129,0.252797 1.7101857,3.488691 4.8267547,5.685575 8.3396967,7.113328 1.386868,0.563614 4.767483,0.989406 7.31137,0.699738 4.004693,-0.456048 6.173462,-1.460211 7.198921,-2.187327 -2.942749,-3.265025 -4.238798,-6.382492 -4.802852,-8.327593"/>
 <path style="fill:#845333" d="m 8.5169555,22.308666 c 0,0 0.031389,0.03315 0.095235,0.08948 0.061081,0.05878 0.1606743,0.134643 0.2823743,0.234974 0.1264053,0.09526 0.2789865,0.21123 0.4656627,0.327633 0.045865,0.03011 0.093266,0.0611 0.1419544,0.09295 0.050788,0.02896 0.1029225,0.05864 0.1565336,0.08904 0.1080187,0.05907 0.2163268,0.129575 0.3363329,0.190961 0.2423286,0.11915 0.5001636,0.254954 0.7879666,0.367447 0.280101,0.129141 0.592734,0.222377 0.908928,0.335015 0.157721,0.05777 0.326589,0.09092 0.492635,0.138552 0.08359,0.02215 0.167623,0.04444 0.252116,0.06689 0.08416,0.02346 0.168752,0.0472 0.256082,0.06139 0.173227,0.03373 0.347858,0.0679 0.523169,0.102063 l 0.263379,0.05081 0.26739,0.03142 c 0.356399,0.04155 0.710989,0.10235 1.065577,0.1083 0.353519,0.011 0.700709,0.05617 1.038563,0.03866 0.337331,-0.0081 0.664442,-5.79e-4 0.974136,-0.01225 0.309577,-0.02143 0.602231,-0.04199 0.8724,-0.0608 0.135381,-0.0091 0.265175,-0.01795 0.388511,-0.02635 0.122838,-0.01491 0.239232,-0.0291 0.348654,-0.04241 0.219208,-0.02679 0.410472,-0.05009 0.567861,-0.06935 0.315398,-0.03736 0.496991,-0.05486 0.496991,-0.05486 0,0 -0.176279,0.04257 -0.487147,0.110325 -0.155694,0.03345 -0.344758,0.07398 -0.561635,0.12045 -0.108637,0.0233 -0.224289,0.04806 -0.346164,0.07412 -0.122725,0.0207 -0.252968,0.03445 -0.388365,0.05327 -0.271501,0.03445 -0.565646,0.07181 -0.876743,0.111337 -0.31246,0.02649 -0.64387,0.03648 -0.986357,0.05154 -0.08574,0.0035 -0.172097,0.007 -0.259122,0.01063 -0.08699,0.0038 -0.174761,-0.0038 -0.263033,-0.0053 -0.176513,-0.0065 -0.355226,-0.01318 -0.535345,-0.01984 -0.361147,-0.003 -0.724393,-0.0608 -1.088886,-0.100912 l -0.272819,-0.03461 -0.269242,-0.05459 c -0.179105,-0.03664 -0.357601,-0.07325 -0.534548,-0.10945 -0.177975,-0.03215 -0.347466,-0.09497 -0.518203,-0.141594 -0.168868,-0.05356 -0.339952,-0.09236 -0.500279,-0.156069 -0.322304,-0.12205 -0.635544,-0.23483 -0.916731,-0.379897 -0.289165,-0.12668 -0.544335,-0.283185 -0.782147,-0.420434 -0.1176312,-0.07094 -0.2251292,-0.147963 -0.3288479,-0.217891 -0.051411,-0.03561 -0.10146,-0.07023 -0.1501633,-0.1041 -0.046589,-0.03678 -0.091774,-0.07239 -0.1356133,-0.107138 -0.1779171,-0.134499 -0.3216667,-0.265377 -0.440037,-0.372369 -0.1152,-0.1109 -0.2019069,-0.201385 -0.257096,-0.266825 -0.05684,-0.0637 -0.083927,-0.100187 -0.083927,-0.100187"/>
 <path style="fill:#845333" d="m 10.576026,33.856708 c 0,-1.73e-4 0.207713,-0.0089 0.565979,-0.05892 0.358499,-0.04779 0.866292,-0.146545 1.460965,-0.312749 0.297692,-0.08161 0.615754,-0.185156 0.948063,-0.304149 0.333161,-0.117287 0.675026,-0.265406 1.027125,-0.419855 0.348652,-0.16276 0.70427,-0.340502 1.055066,-0.54031 0.354024,-0.194147 0.699522,-0.416062 1.039633,-0.644999 0.169767,-0.114912 0.335189,-0.236393 0.502305,-0.353792 0.161472,-0.125276 0.322306,-0.250089 0.481835,-0.37399 0.155072,-0.129576 0.30884,-0.258284 0.460755,-0.385426 0.147427,-0.132269 0.293233,-0.263033 0.436475,-0.39174 0.138553,-0.133919 0.274847,-0.265697 0.408202,-0.394693 0.13127,-0.131139 0.255633,-0.263596 0.379027,-0.390451 0.125494,-0.124925 0.235033,-0.257994 0.347698,-0.38088 0.111075,-0.124088 0.221857,-0.241374 0.318395,-0.362234 0.196695,-0.238767 0.383428,-0.453168 0.535171,-0.654265 0.154781,-0.198895 0.293189,-0.370312 0.395836,-0.519447 0.212388,-0.293465 0.337475,-0.459669 0.337475,-0.459669 0,0 -0.103375,0.179669 -0.290857,0.49123 -0.0912,0.157504 -0.215719,0.339662 -0.355255,0.551284 -0.135903,0.214286 -0.305959,0.444337 -0.492693,0.694932 -0.09066,0.127579 -0.195391,0.252059 -0.30053,0.38382 -0.106887,0.130301 -0.21372,0.268419 -0.335015,0.400296 -0.119675,0.13363 -0.240186,0.273037 -0.367952,0.411488 -0.131704,0.134931 -0.266247,0.272586 -0.402988,0.412731 -0.142636,0.134369 -0.287529,0.271053 -0.434232,0.409445 -0.149295,0.135671 -0.306233,0.266536 -0.462782,0.400283 -0.15982,0.129735 -0.324721,0.25614 -0.48822,0.385411 -0.169606,0.121187 -0.337113,0.24686 -0.509948,0.364999 -0.34916,0.230921 -0.703693,0.454471 -1.066823,0.649922 -0.359006,0.202804 -0.729434,0.370036 -1.08799,0.528713 -0.362001,0.151451 -0.717097,0.285211 -1.060611,0.391016 -0.342255,0.1095 -0.671001,0.195796 -0.977293,0.261061 -0.611642,0.136685 -1.132667,0.184476 -1.49535,0.207888 -0.181754,0.01187 -0.325069,0.0091 -0.422345,0.0085 -0.09726,-0.0036 -0.149121,-0.0055 -0.149121,-0.0055"/>
 <path style="fill:#845333" d="m 23.732907,39.896082 c 0,0 0.04228,-0.175883 0.116113,-0.483822 0.07644,-0.306799 0.167362,-0.749673 0.277829,-1.279125 0.05039,-0.265913 0.111337,-0.552472 0.164467,-0.857648 0.02765,-0.152292 0.05589,-0.308666 0.08484,-0.46866 0.02591,-0.160384 0.05241,-0.324273 0.07919,-0.491057 0.06022,-0.332134 0.09685,-0.679151 0.150134,-1.029208 0.04879,-0.350695 0.08151,-0.708847 0.122775,-1.066042 0.02635,-0.358165 0.06471,-0.715911 0.08194,-1.069037 0.0072,-0.353128 0.04329,-0.70071 0.03706,-1.037318 1.45e-4,-0.168246 2.89e-4,-0.333829 4.35e-4,-0.495864 7.24e-4,-0.08109 0.0013,-0.161282 0.002,-0.240461 -0.0018,-0.07924 -0.0074,-0.157097 -0.01088,-0.234134 -0.0075,-0.154158 -0.01491,-0.30415 -0.022,-0.449201 -0.0083,-0.144952 -0.006,-0.286558 -0.02519,-0.41974 -0.03055,-0.267562 -0.05429,-0.51396 -0.07514,-0.732995 -0.007,-0.110062 -0.0291,-0.210216 -0.04518,-0.303916 -0.01665,-0.09365 -0.032,-0.17951 -0.0459,-0.25727 -0.05444,-0.311097 -0.08194,-0.491056 -0.08194,-0.491056 0,0 0.05226,0.172835 0.136959,0.47878 0.02085,0.07656 0.04401,0.161411 0.06935,0.253766 0.02446,0.09269 0.05589,0.192104 0.07297,0.30131 0.04141,0.217282 0.08803,0.463014 0.134064,0.732256 0.04502,0.269317 0.06501,0.564358 0.09787,0.875629 0.007,0.07787 0.01636,0.15694 0.02186,0.237016 0.0031,0.08001 0.0064,0.161123 0.0095,0.243241 0.0053,0.164178 0.01075,0.331802 0.01622,0.502364 0.0083,0.170679 0.0049,0.343963 2.9e-4,0.519448 -0.0044,0.175485 -0.0089,0.353112 -0.01317,0.532231 -0.01436,0.357861 -0.04896,0.719921 -0.07314,1.083052 -0.04502,0.360642 -0.08165,0.722427 -0.134354,1.076277 -0.05487,0.353402 -0.108,0.701317 -0.17605,1.03487 -0.03286,0.166958 -0.065,0.331237 -0.09642,0.491969 -0.03652,0.159531 -0.07228,0.315746 -0.10732,0.467762 -0.06573,0.304757 -0.145936,0.588825 -0.21427,0.851857 -0.142896,0.524993 -0.284489,0.955822 -0.384963,1.25651 -0.04909,0.150613 -0.09455,0.266827 -0.123788,0.346624 -0.03011,0.07935 -0.04619,0.121591 -0.04619,0.121591"/>
 <path style="opacity:0.2;fill:#f4f4f7" d="M 24,4 C 12.954409,4 4,12.954309 4,24 4,24.167671 4.00762,24.333316 4.011719,24.5 4.2778821,13.686066 13.122079,5 24,5 34.878185,5 43.722116,13.686067 43.988281,24.5 43.992384,24.333316 44,24.167671 44,24 44,12.954309 35.045859,4 24,4 Z"/>
</svg>
