<svg xmlns="http://www.w3.org/2000/svg" width="48" height="48" version="1">
 <path fill="#1ed760" d="M24,4L24,4c11,0,20,9,20,20l0,0c0,11-9,20-20,20l0,0C13,44,4,35,4,24l0,0C4,13,13,4,24,4z"/>
 <path fill="#f4f4f7" opacity=".2" d="M24,4C12.9,4,4,12.9,4,24c0,0.2,0,0.3,0,0.5C4.3,13.7,13.1,5,24,5s19.7,8.7,20,19.5c0-0.2,0-0.3,0-0.5 C44,12.9,35.1,4,24,4z"/>
 <path opacity=".2" d="M4,24.5c0,0.2,0,0.3,0,0.5c0,11.1,8.9,20,20,20s20-8.9,20-20c0-0.2,0-0.3,0-0.5C43.7,35.3,34.9,44,24,44 S4.3,35.3,4,24.5L4,24.5z"/>
 <path style="opacity:0.2;fill:none;stroke:#000000;stroke-width:4;stroke-linecap:round" d="M 12,19 C 19.463,17 31,18 37,22"/>
 <path style="fill:none;stroke:#f4f4f7;stroke-width:4;stroke-linecap:round" d="M 12,18 C 19.463,16 32,17 37,21"/>
 <path style="opacity:0.2;fill:none;stroke:#000000;stroke-width:3;stroke-linecap:round" d="M 12.5,25.5 C 21,23.5 29,24.5 34.5,28.5"/>
 <path style="fill:none;stroke:#f4f4f7;stroke-width:3;stroke-linecap:round" d="M 12.5,24.5 C 21,22.5 29,23.5 34.5,27.5"/>
 <path style="opacity:0.2;fill:none;stroke:#000000;stroke-width:3;stroke-linecap:round" d="M 13.5,31.5 C 20,30 26,30 32.5,33.5"/>
 <path style="fill:none;stroke:#f4f4f7;stroke-width:3;stroke-linecap:round" d="M 13.5,30.5 C 20,29 26,29 32.5,32.5"/>
</svg>
