<svg xmlns="http://www.w3.org/2000/svg" width="48" height="48" version="1.1">
 <path style="opacity:0.2;fill-rule:evenodd" d="M 44,25 C 44,36.04614 35.045226,45 24,45 12.95386,45 4.0000001,36.045226 4.0000001,25 4.0000001,13.95386 12.954774,5.0000001 24,5.0000001 35.04614,5.0000001 44,13.954774 44,25"/>
 <path style="fill:#6790eb;fill-rule:evenodd" d="M 44,24 C 44,35.04614 35.045226,44 24,44 12.95386,44 4.0000001,35.045226 4.0000001,24 4.0000001,12.95386 12.954774,4.0000001 24,4.0000001 35.04614,4.0000001 44,12.954774 44,24"/>
 <path style="opacity:0.2" d="m 10.489821,34.966018 c 0,-0.08926 12.948728,-24.720803 13.382813,-25.457268 l 0.299882,-0.508789 0.327532,0.574705 c 0.180144,0.31608 1.500319,2.829055 2.933714,5.584375 1.433398,2.755327 4.323826,8.295065 6.423166,12.310526 2.945851,5.634599 3.776369,7.326586 3.639019,7.413626 -0.09789,0.06202 -1.277518,0.113692 -2.6214,0.114807 L 32.43112,35 31.710539,34.269335 c -1.807817,-1.833106 -4.96757,-3.695292 -8.498773,-4.670331 l -1.581998,-0.436819 1.977501,-0.09919 c 1.8577,-0.09317 3.853054,-0.03036 4.998824,0.152856 0.38296,0.06125 0.503814,0.03615 0.503814,-0.104599 0,-0.347728 -4.747247,-9.00846 -4.937486,-9.00846 -0.138641,0 -1.11724,1.70579 -4.916099,8.569184 -1.866186,3.371645 -3.403363,6.142763 -3.415955,6.158043 -0.05624,0.06824 -5.350546,0.202804 -5.350546,0.135984 z"/>
 <path style="fill:#f4f4f7" d="m 10.489821,33.966018 c 0,-0.08926 12.948728,-24.720803 13.382813,-25.457268 l 0.299882,-0.508789 0.327532,0.574705 c 0.180144,0.31608 1.500319,2.829055 2.933714,5.584375 1.433398,2.755327 4.323826,8.295065 6.423166,12.310526 2.945851,5.634599 3.776369,7.326586 3.639019,7.413626 -0.09789,0.06202 -1.277518,0.113692 -2.6214,0.114807 L 32.43112,34 31.710539,33.269335 c -1.807817,-1.833106 -4.96757,-3.695292 -8.498773,-4.670331 l -1.581998,-0.436819 1.977501,-0.09919 c 1.8577,-0.09317 3.853054,-0.03036 4.998824,0.152856 0.38296,0.06125 0.503814,0.03615 0.503814,-0.104599 0,-0.347728 -4.747247,-9.00846 -4.937486,-9.00846 -0.138641,0 -1.11724,1.70579 -4.916099,8.569184 -1.866186,3.371645 -3.403363,6.142763 -3.415955,6.158043 -0.05624,0.06824 -5.350546,0.202804 -5.350546,0.135984 z"/>
 <path style="fill:#f4f4f7;fill-rule:evenodd;opacity:0.2" d="M 24 4 C 12.954774 4 4 12.95386 4 24 C 4 24.167664 4.0076163 24.333323 4.0117188 24.5 C 4.2778977 13.685652 13.122438 5 24 5 C 34.878462 5 43.722129 13.686498 43.988281 24.5 C 43.992384 24.33331 44 24.167678 44 24 C 44 12.954774 35.04614 4 24 4 z"/>
</svg>
