<svg xmlns="http://www.w3.org/2000/svg" width="48" height="48" version="1.1">
 <rect style="opacity:0.2" width="40" height="40" x="-45" y="-44" rx="3" ry="3" transform="matrix(0,-1,-1,0,0,0)"/>
 <rect style="fill:#597f97" width="40" height="40" x="-44" y="-44" rx="3" ry="3" transform="matrix(0,-1,-1,0,0,0)"/>
 <path style="opacity:0.2;fill:#f4f4f7" d="M 7,4 C 5.338,4 4,5.338 4,7 V 8 C 4,6.338 5.338,5 7,5 h 34 c 1.662,0 3,1.338 3,3 V 7 C 44,5.338 42.662,4 41,4 Z"/>
 <path style="fill:#f4f4f7" d="M 20 9 L 20 17 L 28 17 L 28 9 L 20 9 z M 31 9 L 31 17 L 39 17 L 39 9 L 31 9 z M 9 20 L 9 28 L 17 28 L 17 20 L 9 20 z M 20 20 L 20 28 L 28 28 L 28 20 L 20 20 z M 31 20 L 31 28 L 39 28 L 39 20 L 31 20 z M 9 31 L 9 39 L 17 39 L 17 31 L 9 31 z M 20 31 L 20 39 L 28 39 L 28 31 L 20 31 z"/>
 <path style="opacity:0.2" d="m 20,17 v 1 h 8 v -1 z m 11,0 v 1 h 8 V 17 Z M 9,28 v 1 h 8 v -1 z m 11,0 v 1 h 8 v -1 z m 11,0 v 1 h 8 V 28 Z M 9,39 v 1 h 8 v -1 z m 11,0 v 1 h 8 v -1 z"/>
</svg>
