<svg width="48" height="48" version="1.1" xmlns="http://www.w3.org/2000/svg">
 <rect x="4" y="5" width="40" height="40" ry="14" style="opacity:.2"/>
 <rect x="4" y="4" width="40" height="40" ry="14" style="fill:#971212"/>
 <path d="m8 17s3 5 13 5c0-10-5-13-5-13h16s-5 3-5 13c10 0 13-5 13-5v16s-3-5-13-5c0 10 5 13 5 13h-16s5-3 5-13c-10 0-13 5-13 5z" style="opacity:.2"/>
 <path d="m8 16s3 5 13 5c0-10-5-13-5-13h16s-5 3-5 13c10 0 13-5 13-5v16s-3-5-13-5c0 10 5 13 5 13h-16s5-3 5-13c-10 0-13 5-13 5z" style="fill:#f55500"/>
 <path d="m18 4c-7.756 0-14 6.244-14 14v1c0-7.756 6.244-14 14-14h12c7.756 0 14 6.244 14 14v-1c0-7.756-6.244-14-14-14z" style="fill:#f4f4f7;opacity:.1"/>
 <path d="m16 8s0.487877 0.3278331 1.134766 1h13.730468c0.646889-0.6721669 1.134766-1 1.134766-1h-16zm-8 8v1s3 5 13 5c0-0.34926-0.019478-0.6696-0.03125-1.001953-9.973852-0.01088-12.96875-4.998047-12.96875-4.998047zm32 0s-2.994898 4.987167-12.96875 4.998047c-0.011772 0.332353-0.03125 0.652693-0.03125 1.001953 10 0 13-5 13-5v-1zm-19 12c-0.010904 0-0.020363 0.001941-0.03125 0.001953-0.32529 9.183562-4.96875 11.998047-4.96875 11.998047h1.134766c1.473291-1.530863 3.865234-5.051102 3.865234-12zm6 0c0 6.948898 2.391943 10.469137 3.865234 12h1.134766s-4.64346-2.814485-4.96875-11.998047c-0.010887-1.2e-5 -0.020346-0.001953-0.03125-0.001953z" style="fill:#f4f4f7;opacity:.2"/>
</svg>
