<svg xmlns="http://www.w3.org/2000/svg" width="48" height="48" version="1.1">
 <path style="opacity:0.2" d="M 5.7949219,5 C 4.8005629,5 4.0551571,5.8051166 4,6.8007812 V 23 39.199219 C 4,40.196419 4.8005629,41 5.7949219,41 H 20.050781 C 29.963585,41 38,32.941125 38,23 38,13.058874 29.963585,5 20.050781,5 Z M 15,16 h 5.050781 C 24.00176,16 27,18.986778 27,23 c 0,4.013221 -2.998241,7 -6.949219,7 H 15 v -7 z"/>
 <path style="fill:#b2bfd9" d="M 5.7949219,4 C 4.8005629,4 4.0551571,4.8051166 4,5.8007812 V 22 38.199219 C 4,39.196419 4.8005629,40 5.7949219,40 H 20.050781 C 29.963585,40 38,31.941125 38,22 38,12.058874 29.963585,4 20.050781,4 Z M 15,15 h 5.050781 C 24.00176,15 27,17.986778 27,22 c 0,4.013221 -2.998241,7 -6.949219,7 H 15 v -7 z"/>
 <path style="opacity:0.2" d="M 37,22 25,35 v 6 h 2 10 v 5 h 6 v -5 h 2 V 35 H 43 V 24 22 Z m 0,9 v 4 h -3.519531 z"/>
 <path style="fill:#fe5400" d="M 37,21 25,34 v 6 h 2 10 v 5 h 6 v -5 h 2 V 34 H 43 V 23 21 Z m 0,9 v 4 h -3.519531 z"/>
 <path style="opacity:0.2;fill:#f4f4f7" d="M 5.7949219,4 C 4.8005629,4 4.0551571,4.8051166 4,5.8007812 v 1 C 4.0551571,5.8051166 4.8005629,5 5.7949219,5 H 20.050781 C 29.795207,5 37.707983,12.792342 37.974609,22.5 37.979217,22.332258 38,22.168859 38,22 38,12.058874 29.963585,4 20.050781,4 Z M 26.976562,22.5 C 26.737598,26.257452 23.834968,29 20.050781,29 H 15 v 1 h 5.050781 C 24.001759,30 27,27.013221 27,23 27,22.830581 26.9871,22.665613 26.97656,22.5 Z"/>
 <path style="opacity:0.1;fill:#f4f4f7" d="M 37,21 25,34 v 1 L 37,22 h 6 v -1 z m -2.640625,13 -0.878906,1 H 37 V 34 Z M 43,34 v 1 h 2 v -1 z"/>
</svg>
