<svg xmlns="http://www.w3.org/2000/svg" width="48" height="48" version="1.1">
 <path style="opacity:0.2;fill-rule:evenodd" d="M 23.999999,4 C 18.000001,5.8932295 11.999999,7.792921 6,9.6909993 6.4395007,23.782 9.7965,40.969693 23.999999,46 38.355,41.121538 41.391001,23.630153 42,9.6909993 36,7.791307 29.999999,5.8916147 23.999999,4 Z"/>
 <path style="fill-rule:evenodd;fill:#e6e6e6" d="m24 6.6530579c-5.0775 1.5643072-10.1535 3.1333452-15.231 4.7008071 0.372 11.639269 3.213 25.836308 15.231 29.993077 12.147-4.029039 14.715-18.478385 15.231-29.993077-5.0775-1.5690389-10.1535-3.1380769-15.231-4.7008071"/>
 <path style="fill:#ff9744;fill-rule:evenodd" d="M 24,3 C 18.000002,4.8932295 12,6.792921 6.000001,8.6909993 6.4395017,22.782 9.796501,39.969693 24,45 38.355001,40.121538 41.391002,22.630153 42.000001,8.6909993 36.000001,6.791307 30,4.8916147 24,3 Z"/>
 <path style="fill:#ffd764;fill-rule:evenodd" d="M 24,3 C 18.000002,4.8932295 12,6.792921 6.000001,8.6909993 6.4395017,22.782 9.796501,39.969693 24,45 Z"/>
 <path style="opacity:0.2;fill-rule:evenodd" d="m 24,8.1953125 c 4.569022,1.4412666 9.140107,2.8869705 13.710938,4.3339845 -0.421806,5.91714 -1.263979,12.098562 -3.28125,17.257812 -2.164353,5.535415 -5.364622,9.595723 -10.404297,11.78711 C 19.004886,39.326139 15.747789,35.258112 13.552734,29.759766 11.501972,24.622854 10.646187,18.466922 10.271484,12.535156 14.848679,11.086937 19.424617,9.6396527 24,8.1953125 Z"/>
 <path style="fill:#f4f4f7;fill-rule:evenodd" d="m 24,7.1953125 c 4.569022,1.4412666 9.140107,2.8869705 13.710938,4.3339845 -0.421806,5.91714 -1.263979,12.098562 -3.28125,17.257812 -2.164353,5.535415 -5.364622,9.595723 -10.404297,11.78711 C 19.004886,38.326139 15.747789,34.258112 13.552734,28.759766 11.501972,23.622854 10.646187,17.466922 10.271484,11.535156 14.848679,10.086937 19.424617,8.6396527 24,7.1953125 Z"/>
 <path style="fill:#ec3e3e" d="M 24 7.1953125 C 22.530163 7.6593052 21.059818 8.12531 19.589844 8.5898438 L 22 11 L 22 18 L 14.136719 18 L 13.5 18 L 10.5625 15.0625 C 10.848726 17.948109 11.284206 20.823114 11.941406 23.558594 L 13.5 22 L 14.136719 22 L 22 22 L 22 37 L 20.505859 38.494141 C 21.5719 39.301847 22.739904 39.998604 24.025391 40.574219 C 25.311398 40.015028 26.475344 39.331194 27.535156 38.535156 L 26 37 L 26 22 L 33.835938 22 L 34.5 22 L 36.027344 23.527344 C 36.667729 20.809968 37.097898 17.960392 37.394531 15.105469 L 34.5 18 L 33.835938 18 L 26 18 L 26 11 L 28.410156 8.5898438 C 26.940122 8.1254278 25.469684 7.6589143 24 7.1953125 z"/>
 <path style="fill:#f4f4f7;fill-rule:evenodd;opacity:0.2" d="M 24 3 C 18.000002 4.8932295 11.999999 6.793328 6 8.6914062 C 6.0101323 9.016262 6.029638 9.3497738 6.0429688 9.6777344 C 12.028637 7.784182 18.014333 5.8887075 24 4 C 29.982335 5.8860455 35.96493 7.7797288 41.947266 9.6738281 C 41.964089 9.3473043 41.985892 9.0143184 42 8.6914062 C 36 6.791714 30 4.8916147 24 3 z"/>
</svg>
