<svg xmlns="http://www.w3.org/2000/svg" width="48" height="48" version="1.1">
 <path style="opacity:0.2" d="m 17,7 v 2 h -3 v 2 h -4 v 2 H 8 v 2 H 6 v 3 H 4 v 12 h 2 v 1 h 2 v 2 h 2 v 3 3 2 h 2 v 2 h 4 v -4 h 3 v 4 h 4 v -4 h 4 v 4 h 4 v -4 h 1 v -3 h 2 v -2 h 4 v -2 h 2 v -2 h 2 v -4 h 2 V 16 H 42 V 13 H 40 V 11 H 38 V 9 H 32 V 7 Z"/>
 <path style="fill:#b2bfd9" d="M 17 6 L 17 8 L 14 8 L 14 10 L 10 10 L 10 12 L 8 12 L 8 14 L 6 14 L 6 17 L 4 17 L 4 29 L 6 29 L 6 30 L 8 30 L 8 32 L 10 32 L 10 35 L 10 38 L 10 40 L 12 40 L 12 42 L 16 42 L 16 38 L 19 38 L 19 42 L 23 42 L 23 38 L 27 38 L 27 42 L 31 42 L 31 38 L 32 38 L 32 35 L 34 35 L 34 33 L 38 33 L 38 31 L 40 31 L 40 29 L 42 29 L 42 25 L 44 25 L 44 15 L 42 15 L 42 12 L 40 12 L 40 10 L 38 10 L 38 8 L 32 8 L 32 6 L 17 6 z"/>
 <path style="fill:#3f3f3f" d="M 8 17 L 8 27 L 10 27 L 10 29 L 14 29 L 14 27 L 12 27 L 12 21 L 14 21 L 14 19 L 12 19 L 12 17 L 8 17 z"/>
 <path style="fill:#3f3f3f" d="M 25 17 L 25 19 L 23 19 L 23 29 L 31 29 L 31 27 L 33 27 L 33 19 L 31 19 L 31 17 L 25 17 z"/>
 <rect style="fill:#ea01f5" width="2" height="6" x="12" y="21"/>
 <rect style="fill:#ea01f5" width="4" height="6" x="25" y="21"/>
 <path style="fill:#3f3f3f" d="m 16,30 v 2 h -2 v 2 h 8 v -2 h -2 v -2 z"/>
 <path style="opacity:0.2" d="M 8 17 L 8 18 L 12 18 L 12 17 L 8 17 z M 25 17 L 25 18 L 31 18 L 31 17 L 25 17 z M 12 19 L 12 20 L 14 20 L 14 19 L 12 19 z M 23 19 L 23 20 L 25 20 L 25 19 L 23 19 z M 31 19 L 31 20 L 33 20 L 33 19 L 31 19 z M 12 27 L 12 28 L 14 28 L 14 27 L 12 27 z M 16 30 L 16 31 L 20 31 L 20 30 L 16 30 z M 14 32 L 14 33 L 16 33 L 16 32 L 14 32 z M 20 32 L 20 33 L 22 33 L 22 32 L 20 32 z"/>
 <rect style="opacity:0.2" width="4" height="1" x="25" y="27"/>
 <path style="opacity:0.2;fill:#f4f4f7" d="M 17 6 L 17 7 L 32 7 L 32 6 L 17 6 z M 14 8 L 14 9 L 17 9 L 17 8 L 14 8 z M 32 8 L 32 9 L 38 9 L 38 8 L 32 8 z M 10 10 L 10 11 L 14 11 L 14 10 L 10 10 z M 38 10 L 38 11 L 40 11 L 40 10 L 38 10 z M 8 12 L 8 13 L 10 13 L 10 12 L 8 12 z M 40 12 L 40 13 L 42 13 L 42 12 L 40 12 z M 6 14 L 6 15 L 8 15 L 8 14 L 6 14 z M 42 15 L 42 16 L 44 16 L 44 15 L 42 15 z M 4 17 L 4 18 L 6 18 L 6 17 L 4 17 z M 12 21 L 12 22 L 14 22 L 14 21 L 12 21 z M 25 21 L 25 22 L 29 22 L 29 21 L 25 21 z"/>
</svg>
