<svg width="48" height="48" version="1.1" xmlns="http://www.w3.org/2000/svg">
 <g transform="matrix(2,0,0,2,2,3)">
  <path d="m12 1.5c-10 0-10 9-10 9s0 6 2 8c3 3 6 3 9 3 4 0 7-3.5 7-6v-8l1 1-1-3h1l-2-1h1l-2-1h1s-3-2-7-2z" style="opacity:.2"/>
  <path d="m12 1c-10 0-10 9-10 9s0 6 2 8c3 3 6 3 9 3 4 0 7-3.5 7-6v-8l1 1-1-3h1l-2-1h1l-2-1h1s-3-2-7-2z" style="fill:#4f4f4f"/>
  <path d="m11 10.5c-2 0-3 2-3 2h7s-2-2-4-2zm8 1c-1.266666 0-3 1-3 1h4s0-1-1-1z" style="opacity:.2"/>
  <path d="m11 10c-2 0-3 2-3 2h7s-2-2-4-2zm8 1c-1.266666 0-3 1-3 1h4s0-1-1-1z" style="fill:#f4f4f7"/>
  <path d="m12 1c-10 0-10 9-10 9s0.00879 0.235359 0.00977 0.304688c0.0373333-0.997391 0.6215271-8.804688 9.99023-8.804688 2.707919 0 4.930768 0.9078372 6.101562 1.5h0.898438s-3-2-7-2zm6 2.5 1 0.5h1l-1-0.5zm1 1 1 0.5h1l-1-0.5zm1 1 0.75 2.25 0.25 0.25-0.833984-2.5z" style="fill:#f4f4f7;opacity:.1"/>
 </g>
</svg>
