<svg xmlns="http://www.w3.org/2000/svg" width="48" height="48" version="1">
 <path style="opacity:0.2" d="M 13.353476,5.0047165 C 6.0962181,5.2188739 -0.46673494,12.701103 2.9140231,22.943806 4.4681841,27.338257 7.3867895,30.688536 14.134726,35.822452 18.560137,39.189367 23.99996,45 23.99996,45 c 0,0 5.439823,-5.810633 9.865234,-9.177548 6.747937,-5.133916 9.666542,-8.484195 11.220704,-12.878646 C 50.237528,7.3358777 32.301926,-1.8616574 23.99996,11.299511 21.146159,6.7753593 17.154897,4.8925389 13.353476,5.0047165 Z"/>
 <path style="fill:#e32b90" d="M 13.353476,4.0047165 C 6.0962181,4.2188739 -0.46673494,11.701103 2.9140231,21.943806 4.4681841,26.338257 7.3867895,29.688536 14.134726,34.822452 18.560137,38.189367 23.99996,44 23.99996,44 c 0,0 5.439823,-5.810633 9.865234,-9.177548 6.747937,-5.133916 9.666542,-8.484195 11.220704,-12.878646 C 50.237528,6.3358777 32.301926,-2.8616574 23.99996,10.299511 21.146159,5.7753593 17.154897,3.8925389 13.353476,4.0047165 Z"/>
 <circle style="opacity:0.6;fill:#f4f4f7" cx="18" cy="14" r="6"/>
 <path style="opacity:0.2" d="M 25.984375,11.986328 A 1.0001,1.0001 0 0 0 25,13 v 10 4 a 6,6 0 0 0 1.628906,4.099609 L 24,35 h 3 l 1.669922,-2.478516 A 6,6 0 0 0 31,33 6,6 0 0 0 33.332031,32.527344 L 35,35 h 3 l -2.628906,-3.896484 a 6,6 0 0 0 1.361328,-2.351563 l 3.714844,-1.857422 a 1.0001,1.0001 0 0 0 0.05469,-1.759765 L 37,23.103516 V 23 H 27 V 13 A 1.0001,1.0001 0 0 0 25.984375,11.986328 Z M 37,25.416016 37.894531,25.935547 37,26.382812 Z"/>
 <path style="fill:#fdd557" d="M 25 22 L 25 26 A 6 6 0 0 0 31 32 A 6 6 0 0 0 37 26 L 37 22 L 25 22 z"/>
 <path style="opacity:0.6;fill:#f4f4f7" d="M 31 10 A 1 1 0 0 0 30 11 A 1 1 0 0 0 30.5 11.863281 L 30.5 13.025391 A 6 6 0 0 0 25 19 L 25 22 L 37 22 L 37 19 A 6 6 0 0 0 31.5 13.025391 L 31.5 11.865234 A 1 1 0 0 0 32 11 A 1 1 0 0 0 31 10 z"/>
 <path style="fill:#fdd557" d="m 36.882812,22.035156 -1.003906,1.730469 2.015625,1.169922 -2.341797,1.169922 0.894532,1.789062 4,-2 a 1.0001,1.0001 0 0 0 0.05469,-1.759765 z"/>
 <path style="fill:#2b385f" d="m 27,22 v -2.999667 c 0,-2.209139 1.790861,-4 4,-4 2.209139,0 4,1.790861 4,4 V 22 Z"/>
 <ellipse style="fill:#51c7d0" cx="30.75" cy="19" rx=".75" ry="1"/>
 <ellipse style="fill:#51c7d0" cx="33.25" cy="19" rx=".75" ry="1"/>
 <path style="fill:#fdd557" d="m 27.2,29.256065 h 3 L 27,34 h -3 z"/>
 <path style="fill:#fdd557" d="m 34.8,29.256065 h -3 L 35,34 h 3 z"/>
 <path style="opacity:0.2" d="m 20.023438,13.996094 a 1.0001,1.0001 0 0 0 -0.339844,1.953125 L 23.939453,17.367188 20.648438,20 H 14.699219 7 a 1.0001,1.0001 0 1 0 0,2 h 5.386719 C 11.250988,23.711762 10.196322,25.444011 10,27.390625 v 2.724609 C 10,31.048544 9.9741044,31.061341 10.958984,31 H 12.46875 L 8,35 h 3 l 4.46875,-4 H 19 v 4 h 3 v -4.003906 c 0.994615,-0.0027 1.087334,-0.0782 1,-1.376953 v -4.539063 l -0.8125,-3.75 4.4375,-3.548828 a 1.0001,1.0001 0 0 0 -0.308594,-1.730469 l -6,-2 a 1.0001,1.0001 0 0 0 -0.292968,-0.05469 z"/>
 <path style="fill:#6dba7c" d="m 13.7,19 h 8.2 l 1.1,5.07998 v 4.539215 C 23.097355,30.066977 23.037075,30 21.671827,30 H 10.959752 C 9.974872,30.061341 10,30.047861 10,29.114551 V 26.390093 C 10.27266,23.68656 12.189083,21.393968 13.7,19 Z"/>
 <path style="fill:#6dba7c" d="m 7,19 a 1.0001,1.0001 0 1 0 0,2 h 7.699219 a 1.0001,1.0001 0 1 0 0,-2 z"/>
 <path style="fill:#6dba7c" d="m 13.3,29.256065 h 3 L 11,34 H 8 Z"/>
 <rect style="fill:#6dba7c" width="3" height="5" x="19" y="29"/>
 <path style="fill:#f4f4f7" d="M 22,19 V 15.438737 C 22,13.539576 20.432997,12 18.5,12 16.567003,12 15,13.539576 15,15.438737 V 19 Z"/>
 <path style="fill:#6dba7c" d="m 20.023438,12.996094 a 1.0001,1.0001 0 0 0 -0.339844,1.953125 L 23.939453,16.367188 20.375,19.21875 a 1.0004882,1.0004882 0 1 0 1.25,1.5625 l 5,-4 a 1.0001,1.0001 0 0 0 -0.308594,-1.730469 l -6,-2 a 1.0001,1.0001 0 0 0 -0.292968,-0.05469 z"/>
 <ellipse style="fill:#3f3f3f" cx="-16.75" cy="16" rx=".75" ry="1" transform="scale(-1,1)"/>
 <path style="fill:#fdd557" d="M 25.984375,10.986328 A 1.0001,1.0001 0 0 0 25,12 v 10 a 1.0001,1.0001 0 1 0 2,0 V 12 a 1.0001,1.0001 0 0 0 -1.015625,-1.013672 z"/>
 <path style="fill:#f4f4f7;opacity:0.2" d="M 13.353516 4.0039062 C 7.3207784 4.1819288 1.7875441 9.3919926 2.0273438 17.025391 C 2.2789639 9.9413359 7.5881794 5.1740379 13.353516 5.0039062 C 17.154937 4.8917287 21.146199 6.7746764 24 11.298828 C 31.179608 -0.083057541 45.552384 5.2629228 45.978516 17.009766 C 46.359464 4.5748027 31.380257 -1.4011484 24 10.298828 C 21.146199 5.7746764 17.154937 3.8917287 13.353516 4.0039062 z"/>
 <path style="fill:#ed9433" d="m 27,24 h 8 v 2 c 0,2.232828 -1.767172,4 -4,4 -2.232828,0 -4,-1.767172 -4,-4 z"/>
 <path style="fill:#018c58" d="m 14.798828,21 h 5.488281 L 21,24.294922 V 28 H 12 V 26.564453 C 12.174328,24.935963 13.432083,23.100265 14.798828,21 Z"/>
 <ellipse style="fill:#3f3f3f" cx="-19.25" cy="16" rx=".75" ry="1" transform="scale(-1,1)"/>
</svg>
