<svg xmlns="http://www.w3.org/2000/svg" width="48" height="48" version="1">
 <rect style="opacity:0.2" width="40" height="40" x="4" y="5" rx="12" ry="12"/>
 <rect style="fill:#095660" width="40" height="40" x="4" y="4" rx="12" ry="12"/>
 <path style="opacity:0.2" d="m 25.286712,9.1579272 c -0.209801,0 -0.383414,0.4732037 -0.430688,1.1739648 -0.0733,1.086613 -0.446495,1.709182 -0.995129,1.160548 -0.254199,-0.2542 -0.265521,-0.598238 -0.211092,-1.118978 0.05293,-0.5064013 0.04174,-0.5555662 -0.138884,-0.6128959 -0.107996,-0.034276 -0.19638,-0.1009352 -0.19638,-0.1481963 0,-0.047262 -0.101159,-0.085975 -0.22486,-0.085975 -0.1237,0 -0.250495,-0.041373 -0.281815,-0.09205 -0.03132,-0.050676 -0.116136,-0.092184 -0.188418,-0.092184 -0.156182,0 -0.85778,1.1650252 -1.246038,1.8363412 -0.263786,0.456098 -0.302819,0.483866 -0.894982,0.640024 -0.458705,0.120964 -0.891618,0.1567 -1.671191,0.137804 -1.319914,-0.03199 -1.608005,0.019 -1.739621,0.307865 -0.07211,0.158258 -0.08538,1.043301 -0.04535,3.759221 0.06776,4.596485 -0.01641,3.987172 1.161682,3.973606 0.757407,-0.0087 2.400465,0.142321 2.66902,0.245375 0.229475,0.08806 0.275485,0.300056 0.298688,1.376958 0.02356,1.093507 -0.0496,1.692811 -0.596835,2.741527 -0.267699,0.513016 -0.419437,0.996138 -0.679841,2.16518 -0.267363,1.200284 0.05657,1.638008 0.825473,1.115522 0.383317,-0.260471 0.449293,-0.250079 0.533129,0.08395 0.04089,0.162934 -0.01175,0.354169 -0.173975,0.630982 -0.155366,0.265112 -0.232823,0.534609 -0.232823,0.810761 0,0.228663 -0.102932,0.667205 -0.230257,0.980553 -0.265523,0.653457 -0.28093,0.972834 -0.09731,2.016173 0.154371,0.877157 0.314203,1.230956 0.633412,1.401792 0.363512,0.194546 0.448729,0.06176 0.429203,-0.669313 -0.02743,-1.026773 -0.0112,-1.164516 0.137129,-1.164516 0.351379,0 0.429753,0.821485 0.139423,1.461313 -0.223481,0.492507 -0.233414,1.01453 -0.02618,1.375609 0.146662,0.255543 0.146662,0.301041 0,0.755154 -0.204441,0.633013 -0.198024,0.836901 0.02821,0.896062 0.249037,0.06513 0.23579,0.154797 -0.138209,0.935203 -0.475387,0.991966 -0.417081,1.415719 0.15292,1.110663 0.168744,-0.09031 0.180415,-0.07914 0.119853,0.115129 -0.136592,0.438168 -0.214892,0.592761 -0.494528,0.975424 -0.157389,0.215375 -0.341859,0.391546 -0.409902,0.391546 -0.150443,0 -1.651154,1.544082 -2.399621,2.468996 -0.592425,0.732083 -0.865001,1.378216 -0.95059,2.253179 C 17.67205,44.963775 17.681717,45 17.862314,45 c 0.106628,0 0.342624,-0.130487 0.524356,-0.290049 0.248792,-0.218443 0.356531,-0.264058 0.436221,-0.184368 0.330844,0.330843 0.889498,-0.144836 0.639755,-0.544737 -0.164479,-0.263374 -0.138403,-0.328845 0.184368,-0.46254 0.161948,-0.06708 0.434721,-0.24508 0.606149,-0.395596 0.291336,-0.255797 0.332155,-0.266338 0.624907,-0.160478 0.270233,0.09772 0.369573,0.08832 0.724246,-0.06856 0.346847,-0.153426 0.426454,-0.239062 0.50978,-0.548515 0.09623,-0.357378 0.232031,-0.477927 0.538528,-0.477927 0.101249,0 0.04615,0.08992 -0.168847,0.275608 -0.309264,0.267108 -0.31349,0.27977 -0.140098,0.414626 0.227245,0.17674 0.362727,0.174878 0.75259,-0.01012 0.331016,-0.157078 0.464118,-0.439507 0.360638,-0.765546 -0.04292,-0.135221 -0.02027,-0.190982 0.07761,-0.190982 0.07602,0 0.163114,0.0785 0.193547,0.17438 0.13238,0.417095 0.924868,0.205325 1.598172,-0.427043 0.272707,-0.256127 0.311019,-0.342728 0.268184,-0.606687 -0.04256,-0.262249 0.0045,-0.371546 0.317178,-0.737338 0.316459,-0.370227 0.392374,-0.415935 0.550676,-0.331215 0.13902,0.0744 0.236065,0.06395 0.399374,-0.04306 0.188995,-0.123836 0.229559,-0.12471 0.327571,-0.0066 0.06153,0.07414 0.201643,0.134834 0.311374,0.134834 0.230322,0 0.775817,-0.4408 0.798209,-0.645018 0.05898,-0.537925 -0.159101,-0.598563 -0.648258,-0.180454 -0.175453,0.14997 -0.346486,0.272638 -0.380074,0.272638 -0.03359,0 -0.08594,-0.124388 -0.116343,-0.276418 -0.04357,-0.217862 -0.103543,-0.276417 -0.283436,-0.276417 h -0.228233 l 0.127276,-0.423264 c 0.07007,-0.232822 0.156568,-0.699276 0.192196,-1.036565 0.03563,-0.33729 0.121068,-0.799883 0.189767,-1.027927 0.180854,-0.600347 0.154615,-1.057348 -0.10757,-1.87837 -0.348004,-1.089747 -0.176798,-1.086913 0.415031,0.0068 0.389179,0.719177 0.747203,0.949688 0.980148,0.631117 0.146914,-0.200916 0.169081,-0.675938 0.04629,-0.989596 -0.04557,-0.116407 -0.154853,-0.467818 -0.242945,-0.781068 -0.118204,-0.420326 -0.254445,-0.661687 -0.520037,-0.921031 -0.58471,-0.570953 -0.761267,-1.452948 -0.378184,-1.889707 0.07495,-0.08545 0.177728,-0.498111 0.228368,-0.916983 0.07575,-0.62662 0.068,-0.803156 -0.04387,-0.996344 -0.07478,-0.129139 -0.210063,-0.553513 -0.300712,-0.943031 l -0.164926,-0.70825 0.228233,-0.443239 c 0.12547,-0.243811 0.301138,-0.457484 0.390466,-0.474687 0.08933,-0.0172 0.32248,0.07964 0.518013,0.215141 0.195533,0.135504 0.431005,0.232092 0.523276,0.214601 0.267295,-0.05067 0.262005,-0.546965 -0.0112,-1.060185 -0.129659,-0.243564 -0.235657,-0.484126 -0.235657,-0.534478 0,-0.05035 -0.09816,-0.2994 -0.21811,-0.55351 -0.717967,-1.520961 -0.794231,-2.079183 -0.79497,-2.994055 -4.84e-4,-0.589742 0.02317,-0.681223 0.206773,-0.799829 0.346671,-0.223941 1.673975,-0.515313 2.347388,-0.515313 1.07927,0 0.9957,0.652659 0.973669,-3.816232 -0.01045,-2.119714 -0.04221,-3.382736 -0.07059,-3.539553 -0.04714,-0.260509 -0.09713,-0.295667 -0.579829,-0.406529 -0.563046,-0.129314 -0.614335,-0.12968 -1.67929,-0.01323 -0.458256,0.05011 -0.829403,0.04006 -1.103915,-0.02996 C 27.154845,11.91492 27.13632,11.594298 26.953854,11.043805 26.69916,10.275406 25.955183,9.240471 25.38119,9.1648135 c -0.0085,-0.00418 -0.01749,-0.00688 -0.02699,-0.00688 -0.0053,0 -0.0093,0.00134 -0.01404,0.00202 -0.01802,-0.00139 -0.03583,-0.00202 -0.05345,-0.00202 z m 2.493695,26.3516988 c -0.166576,0 -0.269116,0.219106 -0.194087,0.414626 0.09825,0.256027 0.335265,0.158324 0.335265,-0.138208 0,-0.186797 -0.04583,-0.276418 -0.141178,-0.276418 z m -0.0027,1.308798 c -0.08193,0.003 -0.194994,0.06675 -0.344982,0.187608 -0.218681,0.176207 -0.259479,0.279127 -0.264945,0.668908 -0.0036,0.253382 -0.0012,0.512568 0.0051,0.575914 0.02176,0.217101 0.367478,0.115233 0.568896,-0.167632 0.138086,-0.193925 0.20529,-0.43198 0.213656,-0.757178 0.009,-0.349011 -0.04121,-0.512628 -0.177755,-0.50762 z"/>
 <path style="opacity:0.1;fill:#f4f4f7" d="M 16,4 C 9.352,4 4,9.352 4,16 v 1 C 4,10.352 9.352,5 16,5 h 16 c 6.648,0 12,5.352 12,12 V 16 C 44,9.352 38.648,4 32,4 Z"/>
 <path style="fill:#a0bfba" d="m 25.286712,8.1579272 c -0.209801,0 -0.383414,0.4732037 -0.430688,1.1739646 -0.0733,1.0866132 -0.446495,1.7091822 -0.995129,1.1605482 -0.254199,-0.2542 -0.265521,-0.5982379 -0.211092,-1.1189778 0.05293,-0.5064015 0.04174,-0.5555664 -0.138884,-0.6128961 -0.107996,-0.034276 -0.19638,-0.1009352 -0.19638,-0.1481963 0,-0.047262 -0.101159,-0.085975 -0.22486,-0.085975 -0.1237,0 -0.250495,-0.041373 -0.281815,-0.09205 -0.03132,-0.050676 -0.116136,-0.092184 -0.188418,-0.092184 -0.156182,0 -0.85778,1.1650249 -1.246038,1.8363412 -0.263786,0.456098 -0.302819,0.483866 -0.894982,0.640024 -0.458705,0.120964 -0.891618,0.1567 -1.671191,0.137804 -1.319914,-0.03199 -1.608005,0.019 -1.739621,0.307865 -0.07211,0.158258 -0.08538,1.043301 -0.04535,3.759221 0.06776,4.596485 -0.01641,3.987172 1.161682,3.973606 0.757407,-0.0087 2.400465,0.142321 2.66902,0.245375 0.229475,0.08806 0.275485,0.300056 0.298688,1.376958 0.02356,1.093507 -0.0496,1.692811 -0.596835,2.741527 -0.267699,0.513016 -0.419437,0.996138 -0.679841,2.16518 -0.267363,1.200284 0.05657,1.638008 0.825473,1.115522 0.383317,-0.260471 0.449293,-0.250079 0.533129,0.08395 0.04089,0.162934 -0.01175,0.354169 -0.173975,0.630982 -0.155366,0.265112 -0.232823,0.534609 -0.232823,0.810761 0,0.228663 -0.102932,0.667205 -0.230257,0.980553 -0.265523,0.653457 -0.28093,0.972834 -0.09731,2.016173 0.154371,0.877157 0.314203,1.230956 0.633412,1.401792 0.363512,0.194546 0.448729,0.06176 0.429203,-0.669313 -0.02743,-1.026773 -0.0112,-1.164516 0.137129,-1.164516 0.351379,0 0.429753,0.821485 0.139423,1.461313 -0.223481,0.492507 -0.233414,1.01453 -0.02618,1.375609 0.146662,0.255543 0.146662,0.301041 0,0.755154 -0.204441,0.633013 -0.198024,0.836901 0.02821,0.896062 0.249037,0.06513 0.23579,0.154797 -0.138209,0.935203 -0.475387,0.991966 -0.417081,1.415719 0.15292,1.110663 0.168744,-0.09031 0.180415,-0.07914 0.119853,0.115129 -0.136592,0.438168 -0.214892,0.592761 -0.494528,0.975424 -0.157389,0.215375 -0.341859,0.391546 -0.409902,0.391546 -0.150443,0 -1.651154,1.544082 -2.399621,2.468996 -0.592425,0.732083 -0.865001,1.378216 -0.95059,2.253179 C 17.67205,43.963775 17.681717,44 17.862314,44 c 0.106628,0 0.342624,-0.130487 0.524356,-0.290049 0.248792,-0.218443 0.356531,-0.264058 0.436221,-0.184368 0.330844,0.330843 0.889498,-0.144836 0.639755,-0.544737 -0.164479,-0.263374 -0.138403,-0.328845 0.184368,-0.46254 0.161948,-0.06708 0.434721,-0.24508 0.606149,-0.395596 0.291336,-0.255797 0.332155,-0.266338 0.624907,-0.160478 0.270233,0.09772 0.369573,0.08832 0.724246,-0.06856 0.346847,-0.153426 0.426454,-0.239062 0.50978,-0.548515 0.09623,-0.357378 0.232031,-0.477927 0.538528,-0.477927 0.101249,0 0.04615,0.08992 -0.168847,0.275608 -0.309264,0.267108 -0.31349,0.27977 -0.140098,0.414626 0.227245,0.17674 0.362727,0.174878 0.75259,-0.01012 0.331016,-0.157078 0.464118,-0.439507 0.360638,-0.765546 -0.04292,-0.135221 -0.02027,-0.190982 0.07761,-0.190982 0.07602,0 0.163114,0.0785 0.193547,0.17438 0.13238,0.417095 0.924868,0.205325 1.598172,-0.427043 0.272707,-0.256127 0.311019,-0.342728 0.268184,-0.606687 -0.04256,-0.262249 0.0045,-0.371546 0.317178,-0.737338 0.316459,-0.370227 0.392374,-0.415935 0.550676,-0.331215 0.13902,0.0744 0.236065,0.06395 0.399374,-0.04306 0.188995,-0.123836 0.229559,-0.12471 0.327571,-0.0066 0.06153,0.07414 0.201643,0.134834 0.311374,0.134834 0.230322,0 0.775817,-0.4408 0.798209,-0.645018 0.05898,-0.537925 -0.159101,-0.598563 -0.648258,-0.180454 -0.175453,0.14997 -0.346486,0.272638 -0.380074,0.272638 -0.03359,0 -0.08594,-0.124388 -0.116343,-0.276418 -0.04357,-0.217862 -0.103543,-0.276417 -0.283436,-0.276417 h -0.228233 l 0.127276,-0.423264 c 0.07007,-0.232822 0.156568,-0.699276 0.192196,-1.036565 0.03563,-0.33729 0.121068,-0.799883 0.189767,-1.027927 0.180854,-0.600347 0.154615,-1.057348 -0.10757,-1.87837 -0.348004,-1.089747 -0.176798,-1.086913 0.415031,0.0068 0.389179,0.719177 0.747203,0.949688 0.980148,0.631117 0.146914,-0.200916 0.169081,-0.675938 0.04629,-0.989596 -0.04557,-0.116407 -0.154853,-0.467818 -0.242945,-0.781068 -0.118204,-0.420326 -0.254445,-0.661687 -0.520037,-0.921031 -0.58471,-0.570953 -0.761267,-1.452948 -0.378184,-1.889707 0.07495,-0.08545 0.177728,-0.498111 0.228368,-0.916983 0.07575,-0.62662 0.068,-0.803156 -0.04387,-0.996344 -0.07478,-0.129139 -0.210063,-0.553513 -0.300712,-0.943031 l -0.164926,-0.70825 0.228233,-0.443239 c 0.12547,-0.243811 0.301138,-0.457484 0.390466,-0.474687 0.08933,-0.0172 0.32248,0.07964 0.518013,0.215141 0.195533,0.135504 0.431005,0.232092 0.523276,0.214601 0.267295,-0.05067 0.262005,-0.546965 -0.0112,-1.060185 -0.129659,-0.243564 -0.235657,-0.484126 -0.235657,-0.534478 0,-0.05035 -0.09816,-0.2994 -0.21811,-0.55351 -0.717967,-1.520961 -0.794231,-2.079183 -0.79497,-2.994055 -4.84e-4,-0.589742 0.02317,-0.681223 0.206773,-0.799829 0.346671,-0.223941 1.673975,-0.515313 2.347388,-0.515313 1.07927,0 0.9957,0.652659 0.973669,-3.816232 -0.01045,-2.119714 -0.04221,-3.382736 -0.07059,-3.539553 -0.04714,-0.260509 -0.09713,-0.295667 -0.579829,-0.406529 -0.563046,-0.129314 -0.614335,-0.12968 -1.67929,-0.01323 -0.458256,0.05011 -0.829403,0.04006 -1.103915,-0.02996 C 27.154845,10.91492 27.13632,10.594298 26.953854,10.043805 26.69916,9.2754063 25.955183,8.240471 25.38119,8.1648135 c -0.0085,-0.00418 -0.01749,-0.00688 -0.02699,-0.00688 -0.0053,0 -0.0093,0.00134 -0.01404,0.00202 -0.01802,-0.00139 -0.03583,-0.00202 -0.05345,-0.00202 z m 2.493695,26.3516988 c -0.166576,0 -0.269116,0.219106 -0.194087,0.414626 0.09825,0.256027 0.335265,0.158324 0.335265,-0.138208 0,-0.186797 -0.04583,-0.276418 -0.141178,-0.276418 z m -0.0027,1.308798 c -0.08193,0.003 -0.194994,0.06675 -0.344982,0.187608 -0.218681,0.176207 -0.259479,0.279127 -0.264945,0.668908 -0.0036,0.253382 -0.0012,0.512568 0.0051,0.575914 0.02176,0.217101 0.367478,0.115233 0.568896,-0.167632 0.138086,-0.193925 0.20529,-0.43198 0.213656,-0.757178 0.009,-0.349011 -0.04121,-0.512628 -0.177755,-0.50762 z"/>
 <path style="fill:#cf1717" d="m 21.146484,21.421875 c -0.01938,0.702472 -0.143326,1.080008 -0.591796,1.939453 -0.2677,0.513016 -0.419284,0.995021 -0.679688,2.164063 -0.267363,1.200284 0.05727,1.63772 0.826172,1.115234 0.27478,-0.186718 0.382966,-0.226335 0.455078,-0.115234 v -5.103516 z m -0.427734,7.330078 c -0.03694,0.136267 -0.07487,0.277914 -0.123047,0.396485 -0.265523,0.653456 -0.279323,0.972285 -0.0957,2.015624 0.154371,0.877157 0.313603,1.231508 0.632812,1.402344 0.202195,0.108212 0.311235,0.09799 0.371094,-0.04297 0.02551,-1.574935 0.07655,-3.121866 -0.785156,-3.771485 z m -0.164062,10.431641 c -0.543692,0.521864 -1.374843,1.405482 -1.882813,2.033203 C 18.07945,41.94888 17.806292,42.59574 17.720703,43.470703 17.672418,43.964234 17.682684,44 17.863281,44 c 0.106628,0 0.341706,-0.131454 0.523438,-0.291016 0.248792,-0.218443 0.355857,-0.263283 0.435547,-0.183593 0.330844,0.330843 0.890368,-0.145021 0.640625,-0.544922 -0.164479,-0.263374 -0.139178,-0.329196 0.183593,-0.462891 0.161948,-0.06708 0.435994,-0.244015 0.607422,-0.394531 0.127329,-0.111797 0.197914,-0.160594 0.271485,-0.189453 -0.109184,-0.916626 -0.151261,-1.833351 0.0293,-2.75 z"/>
 <path style="fill:#f4f4f7;opacity:0.2" d="M 25.287109 8.1582031 C 25.077308 8.1582031 24.902743 8.6312704 24.855469 9.3320312 C 24.782169 10.418644 24.409962 11.040822 23.861328 10.492188 C 23.752601 10.38346 23.693876 10.253866 23.660156 10.105469 C 23.657785 10.185977 23.665311 10.230299 23.650391 10.373047 C 23.595962 10.893787 23.607129 11.237988 23.861328 11.492188 C 24.409962 12.040822 24.782169 11.418644 24.855469 10.332031 C 24.902743 9.6312701 25.077308 9.1582031 25.287109 9.1582031 C 25.304729 9.1582031 25.321824 9.1587662 25.339844 9.1601562 C 25.344584 9.1594763 25.348216 9.1582031 25.353516 9.1582031 C 25.363016 9.1582031 25.372359 9.1598825 25.380859 9.1640625 C 25.954852 9.23972 26.698431 10.27457 26.953125 11.042969 C 27.135591 11.593462 27.153985 11.915357 27.554688 12.017578 C 27.8292 12.087598 28.2019 12.096985 28.660156 12.046875 C 29.725111 11.930425 29.774845 11.931233 30.337891 12.060547 C 30.82059 12.171409 30.870829 12.206288 30.917969 12.466797 C 30.946349 12.623614 30.977831 13.886145 30.988281 16.005859 C 30.9918 16.719615 30.992471 17.11581 30.994141 17.591797 C 31.0031 17.018519 30.994203 16.206964 30.988281 15.005859 C 30.977831 12.886145 30.946349 11.623614 30.917969 11.466797 C 30.870829 11.206288 30.82059 11.171409 30.337891 11.060547 C 29.774845 10.931233 29.725111 10.930425 28.660156 11.046875 C 28.2019 11.096985 27.8292 11.087598 27.554688 11.017578 C 27.153985 10.915357 27.135591 10.593462 26.953125 10.042969 C 26.698431 9.27457 25.954852 8.23972 25.380859 8.1640625 C 25.372359 8.1598825 25.363016 8.1582031 25.353516 8.1582031 C 25.348216 8.1582031 25.344584 8.1594763 25.339844 8.1601562 C 25.321824 8.1587662 25.304729 8.1582031 25.287109 8.1582031 z M 22.619141 8.3417969 C 22.462959 8.3417969 21.761305 9.5064181 21.373047 10.177734 C 21.109261 10.633832 21.070679 10.662201 20.478516 10.818359 C 20.019811 10.939323 19.586214 10.975927 18.806641 10.957031 C 17.486727 10.925041 17.199975 10.974807 17.068359 11.263672 C 17.021634 11.366218 17.006635 12.012162 17.007812 13.025391 C 17.017279 12.58392 17.036757 12.333029 17.068359 12.263672 C 17.199975 11.974807 17.486727 11.925041 18.806641 11.957031 C 19.586214 11.975927 20.019811 11.939323 20.478516 11.818359 C 21.070679 11.662201 21.109261 11.633832 21.373047 11.177734 C 21.761305 10.506418 22.462959 9.3417969 22.619141 9.3417969 C 22.691423 9.3417969 22.777274 9.3829178 22.808594 9.4335938 C 22.839914 9.4842708 22.966144 9.5273438 23.089844 9.5273438 C 23.213545 9.5273437 23.314453 9.5660193 23.314453 9.6132812 C 23.314453 9.6605424 23.403723 9.7254896 23.511719 9.7597656 C 23.578709 9.7810281 23.616828 9.8088034 23.642578 9.8515625 C 23.6366 9.7051209 23.630665 9.5617718 23.650391 9.3730469 C 23.703321 8.8666454 23.692343 8.8170953 23.511719 8.7597656 C 23.403723 8.7254896 23.314453 8.6605423 23.314453 8.6132812 C 23.314453 8.5660193 23.213545 8.5273438 23.089844 8.5273438 C 22.966144 8.5273438 22.839914 8.4842708 22.808594 8.4335938 C 22.777274 8.3829178 22.691423 8.3417969 22.619141 8.3417969 z M 27.484375 20.761719 C 27.474694 20.866275 27.46078 20.946392 27.460938 21.138672 C 27.461676 22.053544 27.537892 22.611852 28.255859 24.132812 C 28.375809 24.386922 28.474609 24.635197 28.474609 24.685547 C 28.474609 24.735899 28.581278 24.977139 28.710938 25.220703 C 28.720224 25.238149 28.723754 25.254095 28.732422 25.271484 C 28.98474 25.205578 28.979042 24.724341 28.710938 24.220703 C 28.581278 23.977139 28.474609 23.735899 28.474609 23.685547 C 28.474609 23.635197 28.375809 23.386922 28.255859 23.132812 C 27.712999 21.982802 27.538253 21.381263 27.484375 20.761719 z M 21.138672 21.412109 C 21.09775 22.066238 20.954374 22.595372 20.554688 23.361328 C 20.286988 23.874344 20.135404 24.356349 19.875 25.525391 C 19.756739 26.056307 19.760877 26.429113 19.861328 26.644531 C 19.870048 26.599539 19.864446 26.572771 19.875 26.525391 C 20.135404 25.356349 20.286988 24.874344 20.554688 24.361328 C 21.101922 23.312612 21.175904 22.712648 21.152344 21.619141 C 21.150075 21.513851 21.141527 21.501556 21.138672 21.412109 z M 27.220703 26.455078 L 27.060547 26.767578 L 27.226562 27.476562 C 27.317212 27.86608 27.452564 28.290783 27.527344 28.419922 C 27.542944 28.446862 27.541128 28.486114 27.552734 28.513672 C 27.55765 28.478927 27.566079 28.451035 27.570312 28.416016 C 27.646062 27.789396 27.639214 27.61311 27.527344 27.419922 C 27.452564 27.290783 27.317212 26.86608 27.226562 26.476562 L 27.220703 26.455078 z M 21.080078 27.460938 C 21.06165 27.458036 21.031398 27.472516 21.007812 27.478516 C 20.89588 27.704758 20.826172 27.933522 20.826172 28.167969 C 20.826172 28.396632 20.723028 28.835089 20.595703 29.148438 C 20.37783 29.684628 20.33703 30.016643 20.427734 30.6875 C 20.463573 30.519074 20.514102 30.349259 20.595703 30.148438 C 20.723028 29.835089 20.826172 29.396632 20.826172 29.167969 C 20.826172 28.891817 20.905181 28.622534 21.060547 28.357422 C 21.222772 28.080609 21.275265 27.887543 21.234375 27.724609 C 21.192457 27.557595 21.154966 27.47273 21.080078 27.460938 z M 27.255859 30.464844 C 26.998808 30.929787 27.189076 31.703537 27.720703 32.222656 C 27.986295 32.482 28.12203 32.722252 28.240234 33.142578 C 28.320614 33.428405 28.411725 33.713618 28.462891 33.855469 C 28.581439 33.633893 28.597979 33.21402 28.484375 32.923828 C 28.438805 32.807421 28.328326 32.455828 28.240234 32.142578 C 28.12203 31.722252 27.986295 31.482 27.720703 31.222656 C 27.495099 31.00236 27.351237 30.73431 27.255859 30.464844 z M 21.921875 31.914062 C 21.895406 32.008107 21.87858 32.103689 21.837891 32.193359 C 21.640881 32.627529 21.620434 33.07817 21.757812 33.427734 C 21.782435 33.349259 21.802609 33.271113 21.837891 33.193359 C 22.046792 32.732984 22.059097 32.188846 21.921875 31.914062 z M 26.896484 33.460938 C 26.823205 33.459733 26.868967 33.730517 27.042969 34.275391 C 27.118652 34.512391 27.168022 34.715759 27.205078 34.904297 C 27.27727 34.562593 27.283431 34.242753 27.197266 33.841797 C 27.05679 33.616388 26.943499 33.46171 26.896484 33.460938 z M 21.771484 34.464844 C 21.619914 34.972256 21.634449 35.163905 21.837891 35.21875 C 21.937326 34.894106 21.942096 34.794167 21.8125 34.568359 C 21.794386 34.536798 21.786282 34.498737 21.771484 34.464844 z M 27.644531 34.578125 C 27.569647 34.657339 27.535705 34.792925 27.585938 34.923828 C 27.670853 35.145107 27.85077 35.091942 27.900391 34.884766 C 27.818281 34.809823 27.733016 34.708973 27.644531 34.578125 z M 27.898438 35.898438 C 27.844202 36.094344 27.66905 36.140409 27.585938 35.923828 C 27.582933 35.915999 27.584473 35.90828 27.582031 35.900391 C 27.535616 35.929545 27.490225 35.960226 27.433594 36.005859 C 27.214913 36.182066 27.173435 36.286 27.167969 36.675781 C 27.164369 36.929163 27.167528 37.186654 27.173828 37.25 C 27.177064 37.282282 27.198822 37.293869 27.214844 37.3125 C 27.250621 37.195394 27.31042 37.105109 27.433594 37.005859 C 27.583582 36.885001 27.695414 36.821359 27.777344 36.818359 C 27.807591 36.81725 27.833399 36.826174 27.855469 36.841797 C 27.910987 36.694856 27.949782 36.532053 27.955078 36.326172 C 27.960548 36.114046 27.942803 35.977356 27.898438 35.898438 z M 21.708984 36.140625 C 21.705146 36.148649 21.707043 36.148075 21.703125 36.15625 C 21.304229 36.988606 21.285363 37.412272 21.625 37.349609 C 21.655004 37.280775 21.666949 37.231736 21.703125 37.15625 C 22.077124 36.375844 22.088881 36.285833 21.839844 36.220703 C 21.781811 36.205527 21.73824 36.179647 21.708984 36.140625 z M 26.873047 37.644531 C 26.835605 37.855066 26.806368 38.089863 26.767578 38.21875 L 26.640625 38.642578 L 26.804688 38.642578 C 26.82402 38.63186 26.838018 38.633135 26.859375 38.619141 C 27.04837 38.495305 27.089488 38.495171 27.1875 38.613281 C 27.24903 38.687421 27.388316 38.748047 27.498047 38.748047 C 27.728369 38.748047 28.274483 38.307734 28.296875 38.103516 C 28.344208 37.671818 28.20489 37.56225 27.898438 37.746094 C 27.863291 37.873426 27.812511 37.985224 27.742188 38.083984 C 27.540769 38.366849 27.195588 38.467101 27.173828 38.25 C 27.170678 38.218326 27.170859 38.067283 27.169922 37.962891 C 27.164076 37.940303 27.157226 37.942382 27.152344 37.917969 C 27.109238 37.70243 27.048502 37.645778 26.873047 37.644531 z M 22.001953 38.216797 C 21.985513 38.201009 21.939841 38.22047 21.855469 38.265625 C 21.686815 38.355886 21.568724 38.374986 21.490234 38.341797 C 21.485718 38.348004 21.485094 38.351092 21.480469 38.357422 C 21.32308 38.572797 21.138355 38.748047 21.070312 38.748047 C 20.91987 38.748047 19.420342 40.291883 18.671875 41.216797 C 18.07945 41.94888 17.806292 42.59574 17.720703 43.470703 C 17.679787 43.888914 17.687773 43.974507 17.798828 43.992188 C 17.930174 43.348118 18.193903 42.807446 18.671875 42.216797 C 19.420342 41.291883 20.91987 39.748047 21.070312 39.748047 C 21.138355 39.748047 21.32308 39.572797 21.480469 39.357422 C 21.760105 38.974759 21.838017 38.819027 21.974609 38.380859 C 22.00489 38.283725 22.018394 38.232584 22.001953 38.216797 z"/>
</svg>
