<svg xmlns="http://www.w3.org/2000/svg" width="48" height="48" version="1.1">
 <path style="opacity:0.2" d="m 24.107418,4.9999114 v 0.0019 a 4.5656761,4.5479 0 0 0 -2.390625,0.605472 L 8.283201,13.333846 A 4.5656761,4.5479 0 0 0 5.999998,17.2733 v 15.453124 a 4.5656761,4.5479 0 0 0 2.283203,3.9375 l 13.433592,7.726563 a 4.5656761,4.5479 0 0 0 4.566407,0 l 13.433592,-7.726563 a 4.5656761,4.5479 0 0 0 2.28321,-3.9375 V 17.27335 a 4.5656761,4.5479 0 0 0 -2.28321,-3.939454 L 26.283199,5.6073334 a 4.5656761,4.5479 0 0 0 -2.175781,-0.607422 z"/>
 <path style="fill:#744169" d="m 24.107418,3.9999557 v 0.0019 a 4.5656761,4.5479 0 0 0 -2.390625,0.605472 L 8.283201,12.33389 a 4.5656761,4.5479 0 0 0 -2.283203,3.939454 v 15.453124 a 4.5656761,4.5479 0 0 0 2.283203,3.9375 l 13.433592,7.726563 a 4.5656761,4.5479 0 0 0 4.566407,0 l 13.433592,-7.726563 a 4.5656761,4.5479 0 0 0 2.28321,-3.9375 V 16.273394 A 4.5656761,4.5479 0 0 0 39.716792,12.33394 L 26.283199,4.6073777 a 4.5656761,4.5479 0 0 0 -2.175781,-0.607422 z"/>
 <path style="fill:#f4f4f7;opacity:0.1" d="M 24.107422 4 L 24.107422 4.0019531 A 4.5656761 4.5479 0 0 0 21.716797 4.6074219 L 8.2832031 12.333984 A 4.5656761 4.5479 0 0 0 6 16.273438 L 6 17.273438 A 4.5656761 4.5479 0 0 1 8.2832031 13.333984 L 21.716797 5.6074219 A 4.5656761 4.5479 0 0 1 24.107422 5.0019531 L 24.107422 5 A 4.5656761 4.5479 0 0 1 26.283203 5.6074219 L 39.716797 13.333984 A 4.5656761 4.5479 0 0 1 42 17.273438 L 42 16.273438 A 4.5656761 4.5479 0 0 0 39.716797 12.333984 L 26.283203 4.6074219 A 4.5656761 4.5479 0 0 0 24.107422 4 z"/>
 <path style="fill:#ff4532;opacity:0.7" d="M 24.083984 8 L 24.083984 8.0019531 A 3.5510809 3.6383119 0 0 0 22.224609 8.4863281 L 11.775391 14.667969 A 3.5510809 3.6383119 0 0 0 10 17.818359 L 10 30.181641 A 3.5510809 3.6383119 0 0 0 11.775391 33.332031 L 22.224609 39.511719 A 3.5510809 3.6383119 0 0 0 25.775391 39.511719 L 36.224609 33.332031 A 3.5510809 3.6383119 0 0 0 38 30.181641 L 38 17.818359 A 3.5510809 3.6383119 0 0 0 36.224609 14.667969 L 25.775391 8.4863281 A 3.5510809 3.6383119 0 0 0 24.083984 8 z M 24.058594 9.0019531 L 24.068359 9.0019531 C 24.488853 9.0133341 24.900457 9.1306372 25.267578 9.3476562 L 25.267578 9.3457031 L 35.714844 15.527344 C 36.503996 15.994052 37.000131 16.865425 37 17.818359 L 37 30.181641 C 36.999732 31.134163 36.503656 32.004197 35.714844 32.470703 L 25.267578 38.652344 C 24.478547 39.119181 23.521453 39.119181 22.732422 38.652344 L 12.285156 32.470703 C 11.496346 32.004196 11.000267 31.134162 11 30.181641 L 11 17.818359 C 10.999868 16.865426 11.496005 15.994053 12.285156 15.527344 L 22.732422 9.3457031 L 22.732422 9.3476562 C 23.137213 9.1088079 23.595043 8.9902914 24.058594 9.0019531 z"/>
 <g>
  <path style="opacity:0.2" d="m 20.169271,18 -0.05729,1.820312 0.56771,0.451172 L 20,20.939453 20.364584,25.398438 20.179688,41.175781 C 20.55344,43.282872 24,47 24,47 c 0,0 3.44656,-3.717128 3.820312,-5.824219 L 27.635416,25.398438 28,20.939453 27.320312,20.271484 27.888021,19.820312 27.830729,18 H 24 Z"/>
  <path style="fill:#fee4d2" d="m 20.168124,17 -0.05604,1.819784 0.567427,0.451074 L 20,19.938757 l 0.364275,4.460407 -0.18564,15.777527 C 20.552387,42.283782 24,46 24,46 c 0,0 3.447613,-3.716218 3.821365,-5.823309 L 27.635725,24.399164 28,19.938757 27.320489,19.270858 27.887916,18.819784 27.831876,17 H 24 Z"/>
  <path style="opacity:0.2" d="m 20.168124,17 -0.05604,1.819784 0.567427,0.451074 L 20,19.938757 l 0.364275,4.460407 -0.18564,15.777527 C 20.552387,42.283782 24,46 24,46 V 17 Z"/>
  <path style="opacity:0.1" d="M 22.857422,3.000219 21,4.7365471 22.509766,6.437719 21.130859,7.4279534 21.371094,9.000219 H 24 26.628906 L 26.869141,7.4279534 25.490234,6.437719 27,4.7365471 25.142578,3.000219 24,3.0080315 Z M 24,14.015844 21.773438,15.881078 20.658203,15.970922 19.589844,15.258031 18.341797,15.843969 18,16.884985 l 0.220703,1.341796 1.330078,0.515626 0.917969,-0.742188 h 1.304688 L 24,19.801 26.226562,18.000219 h 1.304688 l 0.917969,0.742188 1.330078,-0.515626 L 30,16.884985 l -0.341797,-1.041016 -1.248047,-0.585938 -1.068359,0.712891 -1.115235,-0.08984 z"/>
  <path style="fill:#d8bbb3" d="m 22,8 v 7 h 2 2 V 8 h -2 z"/>
  <path style="fill:#987d85" d="m 24,13.015835 -2.227,1.865151 -1.115219,0.08938 -1.067816,-0.712662 -1.248922,0.585652 L 18,15.884 18.22109,17.226907 19.549981,17.742 20.469619,17 H 21.773 L 24,18.8 26.227,17 h 1.303381 L 28.450019,17.742 29.77891,17.226907 30,15.884 29.658957,14.843356 28.410035,14.257704 27.342219,14.970366 26.227,14.880986 Z"/>
  <path style="fill:#987d85" d="M 22.857326,2 21,3.7363897 22.509553,5.4383954 21.129936,6.4269341 21.370701,8 H 24 26.629299 L 26.870064,6.4269341 25.490447,5.4383954 27,3.7363897 25.142674,2 24,2.0085969 Z"/>
 </g>
</svg>
