<svg xmlns="http://www.w3.org/2000/svg" height="48" width="48" version="1.1">
 <g>
  <circle cx="24" style="opacity:.2" r="20" cy="25"/>
  <circle cx="24" style="fill:#4f8598" r="20" cy="24"/>
  <path style="opacity:.2" d="m24 5a20 20 0 0 0 -1.310547 0.046875c-0.06663 0.00431-0.132772 0.01066-0.199219 0.015625a20 20 0 0 0 -1.845703 0.2226562c-0.03199 0.00541-0.06377 0.01202-0.0957 0.017578a20 20 0 0 0 -1.396484 0.3125c-0.240477 0.059983-0.481808 0.116947-0.71875 0.1855468a20 20 0 0 0 -1.216797 0.4042969c-0.221103 0.079842-0.444706 0.1548513-0.662109 0.2421875a20 20 0 0 0 -1.148441 0.5136721c-0.219324 0.1046925-0.441427 0.204047-0.65625 0.3164063a20 20 0 0 0 -1.03125 0.5917968c-0.231705 0.1393797-0.46789 0.2715413-0.693359 0.4199219a20 20 0 0 0 -0.953125 0.6855469c-0.206289 0.1538021-0.419094 0.2994743-0.619141 0.4609375a20 20 0 0 0 -0.908203 0.7968751c-0.190109 0.173313-0.387023 0.339092-0.5703126 0.519531a20 20 0 0 0 -0.8339844 0.892578c-0.1634259 0.181706-0.335418 0.355335-0.4921875 0.542969a20 20 0 0 0 -0.8632813 1.136719c-0.102363 0.141895-0.2157539 0.275269-0.3144531 0.419922a20 20 0 0 0 -3.3710937 9.257812 20 20 0 0 0 0 0.0078 20 20 0 0 0 -0.0996094 1.990247c0.0009641 0.555709 0.033358 1.10833 0.080078 1.658203a20 20 0 0 0 0.107422 0.892578c0.046041 0.352659 0.085812 0.705958 0.1503906 1.054688a20 20 0 0 0 0.1191406 0.535156c0.7351051 3.439347 2.3547043 6.654362 4.7558594 9.291016 2.3734284 1.323034 5.3772264 2.715888 8.7871094 3.568359 3.677338 0.919335 8.274143 1.776593 12.28125 1.962891a20 20 0 0 0 13.265625 -14.773438c0.04499-0.212768 0.08078-0.426711 0.119141-0.640625a20 20 0 0 0 0.173828 -1.148437c0.02644-0.216697 0.0528-0.433086 0.07227-0.650391a20 20 0 0 0 0.087886 -1.75 20 20 0 0 0 -0.046875 -1.310547c-0.0043-0.06663-0.01066-0.132772-0.01563-0.199219a20 20 0 0 0 -0.222656 -1.845703c-0.0054-0.03199-0.01202-0.06377-0.01758-0.0957a20 20 0 0 0 -0.3125 -1.396484c-0.05998-0.240477-0.116947-0.481808-0.185547-0.71875a20 20 0 0 0 -0.40429 -1.2168c-0.079842-0.221103-0.154851-0.444706-0.242188-0.662109a20 20 0 0 0 -0.513672 -1.148438c-0.104692-0.219324-0.204047-0.441427-0.316406-0.65625a20 20 0 0 0 -0.591797 -1.03125c-0.139379-0.231705-0.271541-0.46789-0.419921-0.693359a20 20 0 0 0 -0.685547 -0.953125c-0.153802-0.206289-0.299475-0.419094-0.460938-0.619141a20 20 0 0 0 -0.796875 -0.908203c-0.173313-0.190109-0.339092-0.387023-0.519531-0.570313a20 20 0 0 0 -0.892578 -0.833984c-0.181706-0.1634259-0.355335-0.335418-0.542969-0.4921875a20 20 0 0 0 -1.136719 -0.8632813c-0.141895-0.102363-0.275269-0.2157539-0.419922-0.3144531a20 20 0 0 0 -9.257812 -3.3710937c-0.000643-0.0000638-0.0013 0.0000637-0.002 0a20 20 0 0 0 -0.0059 0 20 20 0 0 0 -1.990147 -0.0996094z"/>
  <path style="fill:#c34d58" d="m24 4a20 20 0 0 0 -1.310547 0.046875c-0.06663 0.00431-0.132772 0.01066-0.199219 0.015625a20 20 0 0 0 -1.845703 0.2226562c-0.03199 0.00541-0.06377 0.01202-0.0957 0.017578a20 20 0 0 0 -1.396484 0.3125c-0.240477 0.059983-0.481808 0.116947-0.71875 0.1855468a20 20 0 0 0 -1.216797 0.4042969c-0.221103 0.079842-0.444706 0.1548513-0.662109 0.2421875a20 20 0 0 0 -1.148441 0.5136721c-0.219324 0.1046925-0.441427 0.204047-0.65625 0.3164063a20 20 0 0 0 -1.03125 0.5917968c-0.231705 0.1393797-0.46789 0.2715413-0.693359 0.4199219a20 20 0 0 0 -0.953125 0.6855469c-0.206289 0.1538021-0.419094 0.2994743-0.619141 0.4609375a20 20 0 0 0 -0.908203 0.796875c-0.190109 0.1733132-0.387023 0.3390919-0.5703126 0.5195312a20 20 0 0 0 -0.8339844 0.8925779c-0.1634259 0.181706-0.335418 0.355335-0.4921875 0.542969a20 20 0 0 0 -0.8632813 1.136719c-0.102363 0.141895-0.2157539 0.275269-0.3144531 0.419922a20 20 0 0 0 -3.3710937 9.257812 20 20 0 0 0 0 0.0078 20 20 0 0 0 -0.0996094 1.990247c0.0009641 0.555709 0.033358 1.10833 0.080078 1.658203a20 20 0 0 0 0.107422 0.892578c0.046041 0.352659 0.085812 0.705958 0.1503906 1.054688a20 20 0 0 0 0.1191406 0.535156c0.7351051 3.439347 2.3547043 6.654362 4.7558594 9.291016 2.3734284 1.323034 5.3772264 2.715888 8.7871094 3.568359 3.677338 0.919335 8.274143 1.776593 12.28125 1.962891a20 20 0 0 0 13.265625 -14.773438c0.04499-0.212768 0.08078-0.426711 0.119141-0.640625a20 20 0 0 0 0.173828 -1.148437c0.02644-0.216697 0.0528-0.433086 0.07227-0.650391a20 20 0 0 0 0.087886 -1.75 20 20 0 0 0 -0.046875 -1.310547c-0.0043-0.06663-0.01066-0.132772-0.01563-0.199219a20 20 0 0 0 -0.222656 -1.845703c-0.0054-0.03199-0.01202-0.06377-0.01758-0.0957a20 20 0 0 0 -0.3125 -1.396484c-0.05998-0.240477-0.116947-0.481808-0.185547-0.71875a20 20 0 0 0 -0.40429 -1.2168c-0.079842-0.221103-0.154851-0.444706-0.242188-0.662109a20 20 0 0 0 -0.513672 -1.148438c-0.104692-0.219324-0.204047-0.441427-0.316406-0.65625a20 20 0 0 0 -0.591797 -1.03125c-0.139379-0.231705-0.271541-0.46789-0.419921-0.693359a20 20 0 0 0 -0.685547 -0.953125c-0.153802-0.206289-0.299475-0.419094-0.460938-0.619141a20 20 0 0 0 -0.796875 -0.908203c-0.173313-0.190109-0.339092-0.387023-0.519531-0.5703126a20 20 0 0 0 -0.892578 -0.8339844c-0.181706-0.1634259-0.355335-0.335418-0.542969-0.4921875a20 20 0 0 0 -1.136719 -0.8632813c-0.141895-0.102363-0.275269-0.2157539-0.419922-0.3144531a20 20 0 0 0 -9.257812 -3.3710937c-0.000643-0.0000638-0.0013 0.0000637-0.002 0a20 20 0 0 0 -0.0059 0 20 20 0 0 0 -1.990147 -0.0996094z"/>
  <path style="opacity:.2" d="m24 5a20 20 0 0 0 -1.310547 0.046875c-0.06663 0.00431-0.132772 0.01066-0.199219 0.015625a20 20 0 0 0 -1.845703 0.2226562c-0.03199 0.00541-0.06377 0.01202-0.0957 0.017578a20 20 0 0 0 -1.396484 0.3125c-0.240477 0.059983-0.481808 0.1169471-0.71875 0.1855468a20 20 0 0 0 -1.2168 0.4042971c-0.221103 0.079842-0.444707 0.1548513-0.662109 0.2421875a20 20 0 0 0 -1.148438 0.5136719c-0.219324 0.1046925-0.441427 0.204047-0.65625 0.3164063a20 20 0 0 0 -1.03125 0.5917968c-0.231705 0.1393797-0.46789 0.2715413-0.693359 0.4199219a20 20 0 0 0 -0.953125 0.6855469c-0.206289 0.1538021-0.419094 0.2994743-0.619141 0.4609375a20 20 0 0 0 -0.908203 0.7968751c-0.190109 0.173313-0.387023 0.339092-0.5703126 0.519531a20 20 0 0 0 -0.8339844 0.892578c-0.1634259 0.181706-0.335418 0.355335-0.4921875 0.542969a20 20 0 0 0 -0.8632813 1.136719c-0.102363 0.141895-0.2157539 0.275269-0.3144531 0.419922a20 20 0 0 0 -3.3710937 9.257812 20 20 0 0 0 0 0.0078 20 20 0 0 0 -0.0996094 1.990247c0.0009641 0.555709 0.033358 1.10833 0.080078 1.658203a20 20 0 0 0 0.107422 0.892578c0.046041 0.352659 0.085812 0.705958 0.1503906 1.054688a20 20 0 0 0 0.1191406 0.535156c0.018662 0.08731 0.044653 0.172748 0.064453 0.259766 1.2368911 0.972914 6.5666598 4.962324 14.478516 7.599609 7.922994 2.640998 17.695925 1.460095 20.035156 1.126953a20 20 0 0 0 2.527344 -3.640625l1.316406-2.96289a20 20 0 0 0 0.667969 -2.333985c0.04499-0.212768 0.08078-0.426711 0.119141-0.640625a20 20 0 0 0 0.173828 -1.148437c0.02644-0.216697 0.0528-0.433086 0.07227-0.650391a20 20 0 0 0 0.087886 -1.75 20 20 0 0 0 -0.046875 -1.310547c-0.0043-0.06663-0.01065-0.132772-0.01563-0.199219a20 20 0 0 0 -0.222656 -1.845703c-0.0054-0.03199-0.01202-0.06377-0.01758-0.0957a20 20 0 0 0 -0.3125 -1.396484c-0.05998-0.240477-0.116947-0.481808-0.185547-0.71875a20 20 0 0 0 -0.40429 -1.2168c-0.079842-0.221103-0.154851-0.444706-0.242188-0.662109a20 20 0 0 0 -0.513672 -1.148438c-0.104692-0.219324-0.204047-0.441427-0.316406-0.65625a20 20 0 0 0 -0.591797 -1.03125c-0.139379-0.231705-0.271541-0.46789-0.419921-0.693359a20 20 0 0 0 -0.685547 -0.953125c-0.153802-0.206289-0.299475-0.419094-0.460938-0.619141a20 20 0 0 0 -0.796875 -0.908203c-0.173313-0.190109-0.339092-0.387023-0.519531-0.570313a20 20 0 0 0 -0.892578 -0.833984c-0.181706-0.1634259-0.355335-0.335418-0.542969-0.4921875a20 20 0 0 0 -1.136719 -0.8632813c-0.141895-0.102363-0.275269-0.2157539-0.419922-0.3144531a20 20 0 0 0 -9.257812 -3.3710937h-0.002a20 20 0 0 0 -0.0059 0 20 20 0 0 0 -1.990147 -0.0996094z"/>
  <path style="fill:#ebcf78" d="m24 4a20 20 0 0 0 -1.310547 0.046875c-0.06663 0.00431-0.132772 0.01066-0.199219 0.015625a20 20 0 0 0 -1.845703 0.2226562c-0.03199 0.00541-0.06377 0.01202-0.0957 0.017578a20 20 0 0 0 -1.396484 0.3125c-0.240477 0.059983-0.481808 0.1169471-0.71875 0.1855468a20 20 0 0 0 -1.2168 0.4042971c-0.221103 0.079842-0.444707 0.1548513-0.662109 0.2421875a20 20 0 0 0 -1.148438 0.5136719c-0.219324 0.1046925-0.441427 0.204047-0.65625 0.3164063a20 20 0 0 0 -1.03125 0.5917968c-0.231705 0.1393797-0.46789 0.2715413-0.693359 0.4199219a20 20 0 0 0 -0.953125 0.6855469c-0.206289 0.1538021-0.419094 0.2994743-0.619141 0.4609375a20 20 0 0 0 -0.908203 0.796875c-0.190109 0.1733132-0.387023 0.3390919-0.5703126 0.5195312a20 20 0 0 0 -0.8339844 0.8925779c-0.1634259 0.181706-0.335418 0.355335-0.4921875 0.542969a20 20 0 0 0 -0.8632813 1.136719c-0.102363 0.141895-0.2157539 0.275269-0.3144531 0.419922a20 20 0 0 0 -3.3710937 9.257812 20 20 0 0 0 0 0.0078 20 20 0 0 0 -0.0996094 1.990247c0.0009641 0.555709 0.033358 1.10833 0.080078 1.658203a20 20 0 0 0 0.107422 0.892578c0.046041 0.352659 0.085812 0.705958 0.1503906 1.054688a20 20 0 0 0 0.1191406 0.535156c0.018662 0.08731 0.044653 0.172748 0.064453 0.259766 1.2368911 0.972914 6.5666598 4.962324 14.478516 7.599609 7.922994 2.640998 17.695925 1.460095 20.035156 1.126953a20 20 0 0 0 2.527344 -3.640625l1.316406-2.96289a20 20 0 0 0 0.667969 -2.333985c0.04499-0.212768 0.08078-0.426711 0.119141-0.640625a20 20 0 0 0 0.173828 -1.148437c0.02644-0.216697 0.0528-0.433086 0.07227-0.650391a20 20 0 0 0 0.087886 -1.75 20 20 0 0 0 -0.046875 -1.310547c-0.0043-0.06663-0.01065-0.132772-0.01563-0.199219a20 20 0 0 0 -0.222656 -1.845703c-0.0054-0.03199-0.01202-0.06377-0.01758-0.0957a20 20 0 0 0 -0.3125 -1.396484c-0.05998-0.240477-0.116947-0.481808-0.185547-0.71875a20 20 0 0 0 -0.40429 -1.2168c-0.079842-0.221103-0.154851-0.444706-0.242188-0.662109a20 20 0 0 0 -0.513672 -1.148438c-0.104692-0.219324-0.204047-0.441427-0.316406-0.65625a20 20 0 0 0 -0.591797 -1.03125c-0.139379-0.231705-0.271541-0.46789-0.419921-0.693359a20 20 0 0 0 -0.685547 -0.953125c-0.153802-0.206289-0.299475-0.419094-0.460938-0.619141a20 20 0 0 0 -0.796875 -0.908203c-0.173313-0.190109-0.339092-0.387023-0.519531-0.5703126a20 20 0 0 0 -0.892578 -0.8339844c-0.181706-0.1634259-0.355335-0.335418-0.542969-0.4921875a20 20 0 0 0 -1.136719 -0.8632813c-0.141895-0.102363-0.275269-0.2157539-0.419922-0.3144531a20 20 0 0 0 -9.257812 -3.3710937h-0.002a20 20 0 0 0 -0.0059 0 20 20 0 0 0 -1.990147 -0.0996094z"/>
  <path style="opacity:.2" d="m24 5a20 20 0 0 0 -1.310547 0.046875c-0.06663 0.00431-0.132772 0.01066-0.199219 0.015625a20 20 0 0 0 -1.845703 0.2226562c-0.03199 0.00541-0.06377 0.01202-0.0957 0.017578a20 20 0 0 0 -1.396484 0.3125c-0.240477 0.059983-0.481808 0.1169472-0.71875 0.1855468a20 20 0 0 0 -1.216797 0.4042969c-0.221103 0.079842-0.444708 0.1548513-0.662109 0.2421875a20 20 0 0 0 -1.148441 0.5136721c-0.219324 0.1046925-0.441427 0.204047-0.65625 0.3164063a20 20 0 0 0 -1.03125 0.5917968c-0.231705 0.1393797-0.46789 0.2715413-0.693359 0.4199219a20 20 0 0 0 -0.953125 0.6855469c-0.206289 0.1538021-0.419094 0.2994743-0.619141 0.4609375a20 20 0 0 0 -0.908203 0.7968751c-0.190109 0.173313-0.387023 0.339092-0.5703126 0.519531a20 20 0 0 0 -0.8339844 0.892578c-0.1634259 0.181706-0.335418 0.355335-0.4921875 0.542969a20 20 0 0 0 -0.8632813 1.136719c-0.102363 0.141895-0.2157539 0.275269-0.3144531 0.419922a20 20 0 0 0 -1.5859375 2.835937c1.6906959 2.53265 6.2428904 7.52063 17.115234 10.419922 13.251557 3.533748 19.460701 1.611105 20.732422 1.113281a20 20 0 0 0 0.107422 -0.71289c0.02644-0.216697 0.0528-0.433086 0.07227-0.650391a20 20 0 0 0 0.08789 -1.75 20 20 0 0 0 -0.04687 -1.310547c-0.0043-0.06663-0.01064-0.132772-0.01563-0.199219a20 20 0 0 0 -0.222656 -1.845703c-0.0054-0.03199-0.01202-0.06377-0.01758-0.0957a20 20 0 0 0 -0.3125 -1.396484c-0.05998-0.240477-0.116947-0.481808-0.185547-0.71875a20 20 0 0 0 -0.40429 -1.2168c-0.07984-0.221103-0.154851-0.444706-0.242188-0.662109a20 20 0 0 0 -0.513681 -1.148438c-0.104692-0.219324-0.204047-0.441427-0.316406-0.65625a20 20 0 0 0 -0.591797 -1.03125c-0.139379-0.231705-0.271541-0.46789-0.419921-0.693359a20 20 0 0 0 -0.685547 -0.953125c-0.153802-0.206289-0.299475-0.419094-0.460938-0.619141a20 20 0 0 0 -0.796875 -0.908203c-0.173313-0.190109-0.339092-0.387023-0.519531-0.570313a20 20 0 0 0 -0.892578 -0.833984c-0.181706-0.1634259-0.355335-0.335418-0.542969-0.4921875a20 20 0 0 0 -1.136719 -0.8632813c-0.141895-0.102363-0.275269-0.2157539-0.419922-0.3144531a20 20 0 0 0 -9.257812 -3.3710937h-0.002a20 20 0 0 0 -0.0059 0 20 20 0 0 0 -1.990147 -0.0996094z"/>
  <path style="fill:#2398ba" d="m24 4a20 20 0 0 0 -1.310547 0.046875c-0.06663 0.00431-0.132772 0.01066-0.199219 0.015625a20 20 0 0 0 -1.845703 0.2226562c-0.03199 0.00541-0.06377 0.01202-0.0957 0.017578a20 20 0 0 0 -1.396484 0.3125c-0.240477 0.059983-0.481808 0.1169472-0.71875 0.1855468a20 20 0 0 0 -1.216797 0.4042969c-0.221103 0.079842-0.444708 0.1548513-0.662109 0.2421875a20 20 0 0 0 -1.148441 0.5136721c-0.219324 0.1046925-0.441427 0.204047-0.65625 0.3164063a20 20 0 0 0 -1.03125 0.5917968c-0.231705 0.1393797-0.46789 0.2715413-0.693359 0.4199219a20 20 0 0 0 -0.953125 0.6855469c-0.206289 0.1538021-0.419094 0.2994743-0.619141 0.4609375a20 20 0 0 0 -0.908203 0.796875c-0.190109 0.1733132-0.387023 0.3390919-0.5703126 0.5195312a20 20 0 0 0 -0.8339844 0.8925779c-0.1634259 0.181706-0.335418 0.355335-0.4921875 0.542969a20 20 0 0 0 -0.8632813 1.136719c-0.102363 0.141895-0.2157539 0.275269-0.3144531 0.419922a20 20 0 0 0 -1.5859375 2.835937c1.6906959 2.53265 6.2428904 7.52063 17.115234 10.419922 13.251557 3.533748 19.460701 1.611105 20.732422 1.113281a20 20 0 0 0 0.107422 -0.71289c0.02644-0.216697 0.0528-0.433086 0.07227-0.650391a20 20 0 0 0 0.087886 -1.75 20 20 0 0 0 -0.046875 -1.310547c-0.0043-0.06663-0.01064-0.132772-0.01563-0.199219a20 20 0 0 0 -0.222656 -1.845703c-0.0054-0.03199-0.01202-0.06377-0.01758-0.0957a20 20 0 0 0 -0.3125 -1.396484c-0.05998-0.240477-0.116947-0.481808-0.185547-0.71875a20 20 0 0 0 -0.40429 -1.2168c-0.079842-0.221103-0.154851-0.444706-0.242188-0.662109a20 20 0 0 0 -0.513672 -1.148438c-0.104692-0.219324-0.204047-0.441427-0.316406-0.65625a20 20 0 0 0 -0.591797 -1.03125c-0.139379-0.231705-0.271541-0.46789-0.419921-0.693359a20 20 0 0 0 -0.685547 -0.953125c-0.153802-0.206289-0.299475-0.419094-0.460938-0.619141a20 20 0 0 0 -0.796875 -0.908203c-0.173313-0.190109-0.339092-0.387023-0.519531-0.5703126a20 20 0 0 0 -0.892578 -0.8339844c-0.181706-0.1634259-0.355335-0.335418-0.542969-0.4921875a20 20 0 0 0 -1.136719 -0.8632813c-0.141895-0.102363-0.275269-0.2157539-0.419922-0.3144531a20 20 0 0 0 -9.257812 -3.3710937h-0.002a20 20 0 0 0 -0.0059 0 20 20 0 0 0 -1.990147 -0.0996094z"/>
  <path style="opacity:.2" d="m11.332119 9.4511718c2.015986 1.4944182 5.753439 3.4708492 12.677734 5.4492192 11.085192 3.167198 16.990227 3.809976 19.037109 3.947266-2.397574-7.572173-9.219633-12.985127-17.039062-13.847657h-0.0079c-5.37718-0.5384615-10.603829 1.1571984-14.667881 4.4511718z"/>
  <path style="fill:#4e9588" d="m11.322266 8.5507812c2.015986 1.4944178 5.753439 3.4708488 12.677734 5.4492188 11.085192 3.167198 16.990227 3.809976 19.037109 3.947266-2.397574-7.572173-9.219633-12.985127-17.039062-13.847657h-0.0079c-5.37718-0.5384611-10.603829 1.1571988-14.667881 4.4511722z"/>
  <path style="opacity:.2" d="m24.009853 4.9003906a20 20 0 0 0 -1.310547 0.046875c-0.06663 0.00431-0.132772 0.01066-0.199219 0.015625a20 20 0 0 0 -1.74414 0.2109375c1.750815 0.6501741 11.992618 4.4204231 17.253906 5.4707029a20 20 0 0 0 -0.644531 -0.603515c-0.181706-0.1634263-0.355335-0.3354184-0.542969-0.4921879a20 20 0 0 0 -1.136719 -0.8632813c-0.141895-0.102363-0.275269-0.2157539-0.419922-0.3144531a20 20 0 0 0 -9.257812 -3.3710937h-0.002a20 20 0 0 0 -0.0059 0 20 20 0 0 0 -1.990147 -0.0996094z"/>
  <path style="fill:#8de0a2" d="m24 4a20 20 0 0 0 -1.310547 0.046875c-0.06663 0.00431-0.132772 0.01066-0.199219 0.015625a20 20 0 0 0 -1.74414 0.2109375c1.750815 0.6501741 11.992618 4.4204231 17.253906 5.4707031a20 20 0 0 0 -0.644531 -0.6035156c-0.181706-0.1634259-0.355335-0.335418-0.542969-0.4921875a20 20 0 0 0 -1.136719 -0.8632813c-0.141895-0.102363-0.275269-0.2157539-0.419922-0.3144531a20 20 0 0 0 -9.257812 -3.3710937h-0.002a20 20 0 0 0 -0.0059 0 20 20 0 0 0 -1.990147 -0.0996094z"/>
  <path style="opacity:.2;fill:#f4f4f7" d="m24 4a20 20 0 0 0 -20 20 20 20 0 0 0 0.0215 0.582 20 20 0 0 1 19.9785 -19.582 20 20 0 0 1 19.979 19.418 20 20 0 0 0 0.021 -0.418 20 20 0 0 0 -20 -20z"/>
 </g>
 <circle style="opacity:.2" cx="36" r="11" cy="36"/>
 <circle style="fill:#ff5757" cx="36" r="11" cy="35"/>
 <path d="m36 42s7-4 7-8c0-2 0-4-4-4-2 0-3 4-3 4s-1-4-3-4c-4 0-4 2-4 4 0 4 7 8 7 8z" style="fill:#f4f4f7"/>
</svg>
