<svg width="48" height="48" version="1.1" xmlns="http://www.w3.org/2000/svg">
 <g transform="matrix(2,0,0,2,2,2)">
  <rect x="1" y="1.5" width="20" height="20" rx="1" ry="1" style="opacity:.2"/>
  <rect x="1" y="1" width="20" height="20" rx="1" ry="1" style="fill:#e7b212"/>
  <path d="m4 6.5-2 10h5v-2h3v-4h-3v-2c3 0 3-2 3-2z" style="opacity:.1"/>
  <path d="m4 6-2 10h5v-2h3v-4h-3v-2c3 0 3-2 3-2zm8 0v8h3l5-1h-6l6-1h-6l6-1h-6l6-1h-6l6-1h-6l6-1h-6l6-1h-6l6-1h-6.5zm3 8v1l5-1zm0 1v1h1l4-1z" style="fill:#4f4f4f"/>
  <path d="m12 6.5v8h3l5-1h-6l6-1h-6l6-1h-6l6-1h-6l6-1h-6l6-1h-6l6-1h-6l6-1h-6.5zm3 8v2h1l4-1h-5l5-1z" style="opacity:.1"/>
  <path d="m2 1c-0.554 0-1 0.446-1 1v0.5c0-0.554 0.446-1 1-1h18c0.554 0 1 0.446 1 1v-0.5c0-0.554-0.446-1-1-1z" style="fill:#f4f4f7;opacity:.2"/>
 </g>
</svg>
