<svg width="48" height="48" version="1.1" xmlns="http://www.w3.org/2000/svg">
 <path d="m17 5c-0.997945 3.265e-4 -1.842971 0.7361823-1.980469 1.7246094l-5 36c-0.1669986 1.202269 0.766657 2.27496 1.980469 2.275391h25c1.213812-4.31e-4 2.147467-1.073122 1.980469-2.275391l-5-36c-0.137498-0.9884271-0.982524-1.7242829-1.980469-1.7246094z" style="opacity:.2"/>
 <path d="m17 4c-0.997945 3.265e-4 -1.842971 0.7361823-1.980469 1.7246094l-2.36914 17.0625 8.058593 15.253907 16.728516-7.425782-3.457031-24.890625c-0.137498-0.9884271-0.982524-1.7242829-1.980469-1.7246094h-15z" style="fill:#d8e0e5"/>
 <path d="m12.650391 22.785156-2.63086 18.939453c-0.1669984 1.202269 0.766657 2.27496 1.980469 2.275391h25c1.213812-4.31e-4 2.147467-1.073122 1.980469-2.275391l-1.542969-11.109375c-3.736191 0.583623-8.289953 0.977273-12.4375 0.384766-5.913713-0.844816-10.878112-6.422388-12.349609-8.214844z" style="fill:#a6b9c4"/>
 <path d="m27.03 42.996c1.070018-0.471511 1.99935-0.418153 2.96032-0.03596l-1.945746-7.586417 0.215728-0.647182-0.791001-3.703322s0.316329-0.03305 0.575273-0.323591c-0.274753-1.490549-1.042683-5.069596-1.042683-5.069596s0.530788 0.299275 0.791001 0.215727c0.632674-0.203135 1.466404-0.536101 1.25841-1.546047-0.459598-2.231645-0.503563-3.889718-1.051302-4.299197-0.974179-0.728277-2.867747-1.381622-2.867747-1.381622s0.302951-1.134864 0.203635-1.72582c-0.133925-0.796892-0.598487-1.894-1.402229-1.977502-0.877286-0.09114-1.975744 1.006514-1.941547 1.797729 0.04682 1.083271 1.594094 2.984231 1.594094 2.984231l-1.331969 0.328408-0.07026 0.786184-0.791001 0.323591-0.791 6.256097-1.345729 3.955004-1.186502 0.647183-0.03595 2.085365 0.467409-0.03595 0.107864-0.575273h0.3955l0.287637-0.93482s0.551448 0.149744 0.98799-0.118394c0.187059-0.114898 0.13148-0.755046 0.13148-0.755046l0.588325-0.02542v5.285323l-0.577794 0.898865 0.287636 1.222456-0.3955 0.467409-0.279342 2.876367c0.965-0.384361 1.591493-0.384361 2.965 0.3955l-0.276701-1.402228-0.3955-0.539319 0.503364-1.294365 0.215727-3.05614 1.25811-4.487809 1.402529 2.905808 1.114592 4.674095-0.03595 1.222456 0.683137 1.222456z" style="opacity:.1"/>
 <path d="m27.03 41.995585c1.070018-0.471511 1.99935-0.418153 2.96032-0.03596l-1.945746-7.586417 0.215728-0.647182-0.791001-3.703322s0.316329-0.03305 0.575273-0.323591c-0.274753-1.490549-1.042683-5.069596-1.042683-5.069596s0.530788 0.299275 0.791001 0.215727c0.632674-0.203135 1.466404-0.536101 1.25841-1.546047-0.459598-2.231645-0.503563-3.889718-1.051302-4.299197-0.974179-0.728277-2.867747-1.381622-2.867747-1.381622s0.302951-1.134864 0.203635-1.72582c-0.133925-0.796892-0.598487-1.894-1.402229-1.977502-0.877286-0.09114-1.975744 1.006514-1.941547 1.797729 0.04682 1.083271 1.594094 2.984231 1.594094 2.984231l-1.331969 0.328408-0.07026 0.786184-0.791001 0.323591-0.791 6.256097-1.345729 3.955004-1.186502 0.647183-0.03595 2.085365 0.467409-0.03595 0.107864-0.575273h0.3955l0.287637-0.93482s0.551448 0.149744 0.98799-0.118394c0.187059-0.114898 0.13148-0.755046 0.13148-0.755046l0.588325-0.025424v5.285323l-0.577794 0.898865 0.287636 1.222456-0.3955 0.467409-0.279342 2.876367c0.965-0.384361 1.591493-0.384361 2.965 0.3955l-0.276701-1.402228-0.3955-0.539319 0.503364-1.294365 0.215727-3.05614 1.25811-4.487809 1.402529 2.905808 1.114592 4.674095-0.03595 1.222456 0.683137 1.222456z" style="fill:#173545"/>
 <circle cx="26" cy="23" r="1" style="fill:#f4f4f7"/>
 <path d="m17 4c-0.997945 3.265e-4 -1.842971 0.7361823-1.980469 1.7246094l-5 36c-0.0342676 0.246704-0.01227 0.485244 0.039063 0.712891l4.960937-35.712891c0.137498-0.9884271 0.982524-1.7242829 1.980469-1.7246094h15c0.997945 3.265e-4 1.842971 0.7361823 1.980469 1.7246094l4.960937 35.712891c0.051333-0.227647 0.073331-0.466187 0.039063-0.712891l-5-36c-0.137498-0.9884271-0.982524-1.7242829-1.980469-1.7246094h-15z" style="fill:#f4f4f7;opacity:.2"/>
</svg>
