<svg width="48" height="48" version="1.1" xmlns="http://www.w3.org/2000/svg">
 <g transform="matrix(2,0,0,2.0000304,2,1.9998337)">
  <path d="m11.053711 1.5009119c-0.418904-0.010094-0.832308 0.09424-1.195312 0.3027344l-6.7167975 3.8632811c-0.7064139 0.4062125-1.1416529 1.1572295-1.1416015 1.969727v7.7265636c-2e-7 0.563978 0.2135816 1.094991 0.578125 1.504883a2.2828381 2.27395 0 0 0 0.042969 0.0498c0.037362 0.03964 0.076877 0.07723 0.1171875 0.114257a2.2828381 2.27395 0 0 0 0.078125 0.06836c0.037093 0.03108 0.074032 0.06199 0.1132813 0.09082a2.2828381 2.27395 0 0 0 0.211914 0.140625l6.7167972 3.863281a2.2828381 2.27395 0 0 0 2.283203 0l6.716796-3.863281a2.2828381 2.27395 0 0 0 1.141602-1.968745v-7.7265636a2.2828381 2.27395 0 0 0-0.01855-0.270508c-0.0035-0.02889-0.0081-0.057309-0.0127-0.085937a2.2828381 2.27395 0 0 0-0.03418-0.170899c-0.0093-0.03879-0.01899-0.07711-0.03027-0.1152345a2.2828381 2.27395 0 0 0-0.04297-0.1259765c-0.01587-0.0439-0.03033-0.088102-0.04883-0.1308595a2.2828381 2.27395 0 0 0-0.0078-0.01758l-1e-3 1e-3c-0.192565-0.4350505-0.518192-0.8080905-0.945333-1.053711l-6.716765-3.8633026c-0.331279-0.1902501-0.7056-0.293943-1.087891-0.3027344z" style="opacity:.2"/>
  <path d="m11.039062 1.0019531c-0.02778 4.441e-4 -0.05619 0.00337-0.08398 0.00391v0.00586c-0.38445 0.00741-0.761631 0.1010918-1.095703 0.2929687l-6.718754 3.863277c-0.3619591 0.2081394-0.6501649 0.5063448-0.8476562 0.8574218l4.1835937 2.390625 4.5234375 2.5839844v-0.05664l4.523438-2.4863288 4.175781-2.4277343c-0.196956-0.3512435-0.47991-0.6532302-0.841797-0.8613281l-6.714844-3.8632813c-0.331279-0.1902501-0.7056-0.293943-1.08789-0.3027344-0.0032-7.78e-5 -0.0065-7.7e-6 -0.0098 0-2e-3 -3.97e-5 -0.0039 3.48e-5 -0.0059 0z" style="fill:#8d7cae"/>
  <path d="m2.3398438 5.9492188c-0.2169681 0.3521264-0.3398708 0.7601154-0.3398438 1.1875v7.7265622c-2e-7 0.396277 0.1173308 0.770508 0.3066406 1.103516l-0.00586 0.0039c0.00554 0.0097 0.013896 0.01766 0.019531 0.02734 0.00978 0.01663 0.013244 0.03635 0.023437 0.05273l0.00977-0.0059c0.068297 0.112384 0.1366915 0.225364 0.2246094 0.324219a2.2828381 2.27395 0 0 0 0.042969 0.04883c0.037362 0.03964 0.076877 0.07821 0.1171874 0.115234a2.2828381 2.27395 0 0 0 0.078125 0.06836c0.037093 0.03108 0.074032 0.06101 0.1132813 0.08984a2.2828381 2.27395 0 0 0 0.2128906 0.140625l6.7167969 3.863281a2.2828381 2.27395 0 0 0 1.1855468 0.300782l-0.02149-4.7851-0.023435-5.210938-4.5-2.625z" style="fill:#6e59a4"/>
  <path d="m19.65625 5.9492188-4.15625 2.4257812-4.5 2.625-0.023438 5.210938-0.021484 4.789062a2.2828381 2.27395 0 0 0 1.1875-0.304688l6.716797-3.863281a2.2828381 2.27395 0 0 0 0.800781-0.779297h2e-3a2.2828381 2.27395 0 0 0 0.0098-0.01953 2.2828381 2.27395 0 0 0 0.03516-0.05859h-2e-3a2.2828381 2.27395 0 0 0 0.294884-1.111333v-7.7265622a2.2828381 2.27395 0 0 0-0.01758-0.2695313c-0.0035-0.02889-0.0091-0.05731-0.01367-0.085937a2.2828381 2.27395 0 0 0-0.03516-0.171875c-0.0093-0.03879-0.01802-0.077111-0.0293-0.1152344a2.2828381 2.27395 0 0 0-0.04297-0.125c-0.015862-0.0439005-0.03032-0.0881024-0.04882-0.1308599a2.2828381 2.27395 0 0 0-0.0078-0.017578h-2e-3c-0.0417-0.094218-0.09262-0.1837478-0.146484-0.2714843z" style="fill:#65319e"/>
  <g transform="translate(-1 -.50000047)" style="opacity:.2">
   <path d="m12 6 5 2.9v5.894l-5 3.206-5-3.206v-5.894z"/>
  </g>
  <path d="m11.053711 1.0009809c-0.418904-0.010094-0.832308 0.09424-1.195312 0.3027344l-6.7167975 3.8632811c-0.7064139 0.4062125-1.1416529 1.157229-1.1416015 1.969727v0.5c-5.14e-5 -0.812498 0.4351876-1.5635145 1.1416015-1.969727l6.7167975-3.8632811c0.363004-0.2084949 0.776408-0.3128289 1.195312-0.3027344 0.382291 0.00879 0.756612 0.1124843 1.087891 0.3027344l6.716796 3.8632811c0.427141 0.2456205 0.752768 0.6186605 0.945313 1.053711l1e-3 -1e-3a2.2828381 2.27395 0 0 1 0.0078 0.01758c0.01851 0.042755 0.03297 0.086959 0.04883 0.1308595a2.2828381 2.27395 0 0 1 0.04297 0.1259765c0.01129 0.038125 0.02098 0.076445 0.03027 0.1152345a2.2828381 2.27395 0 0 1 0.03418 0.1708985c0.0046 0.02863 0.0092 0.057047 0.0127 0.085937a2.2828381 2.27395 0 0 1 0.018539 0.27053v-0.5a2.2828381 2.27395 0 0 0-0.01855-0.270508c-0.0035-0.02889-0.0081-0.05731-0.0127-0.085937a2.2828381 2.27395 0 0 0-0.03418-0.170899c-0.0093-0.03879-0.01899-0.077111-0.03027-0.1152345a2.2828381 2.27395 0 0 0-0.04297-0.1259765c-0.01587-0.0439-0.03033-0.088102-0.04883-0.1308595a2.2828381 2.27395 0 0 0-0.0078-0.01758l-1e-3 1e-3c-0.192565-0.4350505-0.518192-0.8080905-0.945333-1.053711l-6.716765-3.8633026c-0.331279-0.1902501-0.7056-0.293943-1.087891-0.3027344z" style="fill:#f4f4f7;opacity:.2"/>
  <g transform="translate(-1,-1.0000005)">
   <path d="m12 6 5 3.1000001v5.6939999l-5 3.206-5-3.206v-5.6939999z" style="fill:#ed75ff"/>
  </g>
  <path d="m11 4.9999994 5 3.1v5.6940016l-5 3.206z" style="fill:#e141ff"/>
  <path d="m11 4.9999994-5 3.1 5 2.9125276 5-2.9125276z" style="fill:#fca2ae"/>
 </g>
</svg>
