<svg width="48" height="48" version="1.1" xmlns="http://www.w3.org/2000/svg">
 <circle cx="24" cy="25" r="20" style="opacity:.2"/>
 <circle cx="24" cy="24" r="20" style="fill:#c4b346"/>
 <path d="m14 8.9998988v4.0000002l-1.693359 1.912109c-2.5079203 1.490072-4.3981012 2.497923-6.306641 4.087891l4 2-7 4 8 1-7 8 8-2v2l4-1-1 3 7-3h4l7 3-1-3 4 1v-2l8 2-7-8 8-1-7-4 4-2c-1.90854-1.589968-3.798721-2.597819-6.306641-4.087891l-1.693359-1.912109v-4.0000002l-4 2.0000002v-1.0000002l-2 1.0000002v-1.0000002l-4 1.0000002-4-1.0000002v1.0000002l-2-1.0000002v1.0000002z" style="opacity:.2"/>
 <path d="M 24 4 A 20 20 0 0 0 4 24 A 20 20 0 0 0 4.0215 24.582 A 20 20 0 0 1 24 5 A 20 20 0 0 1 43.979 24.418 A 20 20 0 0 0 44 24 A 20 20 0 0 0 24 4 z" style="fill:#f4f4f7;opacity:.2"/>
 <path d="m14 8v4l-1.693359 1.912109c-2.5079203 1.490072-4.3981012 2.497923-6.306641 4.087891l4 2-7 4 8 1-7 8 8-2v2l4-1-1 3 7-3h2 2l7 3-1-3 4 1v-2l8 2-7-8 8-1-7-4 4-2c-1.90854-1.589968-3.798721-2.597819-6.306641-4.087891l-1.693359-1.912109v-4l-4 2v-1l-2 1v-1l-4 1-4-1v1l-2-1v1l-4-2z" style="fill:#393939"/>
 <path d="m10 7.9998988-0.9941406 1.5625c-0.069369 2.3731612 0.5957663 4.4813142 1.3945316 6.5429692 1.388869 3.435501 5.14174 4.711399 7.40625 6.824219 1.436709 1.372896 1.823727 2.583472 2.029297 3.792968 0.238126 1.401044 0.381804 2.919948 0.53125 5.257813 0.499739 3.04234 0.772056 7.999496 1.146484 9.652343 0.343016 0.383553 2.486328 0.367188 2.486328 0.367188s2.143312 0.01637 2.486328-0.367188c0.374428-1.652847 0.646745-6.610003 1.146484-9.652343 0.149447-2.337865 0.293124-3.856769 0.53125-5.257813 0.205569-1.209496 0.592588-2.420072 2.029297-3.792968 2.26451-2.11282 6.017381-3.388718 7.40625-6.824219 0.798765-2.061655 1.463902-4.169808 1.394532-6.5429692l-0.994141-1.5625v1.5585938l-6.494141 4.5488284-7.505859-0.107422-7.505859 0.107422-6.494141-4.5488284z" style="opacity:.2"/>
 <path d="m10 7-0.9941406 1.5625c-0.069369 2.373161 0.5957663 4.481314 1.3945316 6.542969 1.388869 3.435501 5.14174 4.711399 7.40625 6.824219 1.436709 1.372896 1.823727 2.583472 2.029297 3.792968 0.238126 1.401044 0.381804 2.919948 0.53125 5.257813 0.499739 3.04234 0.772056 7.999496 1.146484 9.652343 0.343016 0.383553 2.486328 0.367188 2.486328 0.367188s2.143312 0.016365 2.486328-0.367188c0.374428-1.652847 0.646745-6.610003 1.146484-9.652343 0.149447-2.337865 0.293124-3.856769 0.53125-5.257813 0.205569-1.209496 0.592588-2.420072 2.029297-3.792968 2.26451-2.11282 6.017381-3.388718 7.40625-6.824219 0.798765-2.061655 1.463902-4.169808 1.394532-6.542969l-0.994141-1.5625v1.5585938l-6.494141 4.5488282-7.505859-0.107422-7.505859 0.107422-6.494141-4.5488282v-1.5585938z" style="fill:#505050"/>
 <path d="M 16.267912,16.355355 A 3.3358673,3.3358673 0 0 0 16,17.664032 3.3358673,3.3358673 0 0 0 19.335867,20.999899 3.3358673,3.3358673 0 0 0 22,19.664769 Z" style="opacity:.2"/>
 <path d="M 16.267912,15.355456 A 3.3358673,3.3358673 0 0 0 16,16.664133 3.3358673,3.3358673 0 0 0 19.335867,20 3.3358673,3.3358673 0 0 0 22,18.66487 Z" style="fill:#eb9f00"/>
 <path d="M 31.732088,16.355355 A 3.3358673,3.3358673 0 0 1 32,17.664032 3.3358673,3.3358673 0 0 1 28.664133,20.999899 3.3358673,3.3358673 0 0 1 26,19.664769 Z" style="opacity:.2"/>
 <path d="M 31.732088,15.355456 A 3.3358673,3.3358673 0 0 1 32,16.664133 3.3358673,3.3358673 0 0 1 28.664133,20 3.3358673,3.3358673 0 0 1 26,18.66487 Z" style="fill:#eb9f00"/>
 <path d="m27 26.978516c-1.041456 0.41842-1.930161 1.083443-3 1v0.021484c-1.069839 0.083443-1.958544-0.58158-3-1l1.025391 10.908203c0.078129 0.816057 0.095686 0.9251 0.777343 1 0.445444 0.07484 0.787427 0.103247 1.197266 0.091797v-0.021484c0.409839 0.01145 0.751822-0.016957 1.197266-0.091797 0.681657-0.0749 0.699214-0.18199 0.777343-0.998047l1.025391-10.910156z" style="opacity:.4"/>
 <path d="m23 35.978415c-0.434092 0.357713-0.813335 0.828707-1.123047 1.351562l0.148438 1.578125c0.07813 0.816057 0.09569 0.9251 0.777343 1 0.144455 0.02427 0.267949 0.03605 0.396485 0.05078h1.43164c0.178977-0.01539 0.360056-0.0376 0.566407-0.07227 0.681657-0.0749 0.699214-0.18199 0.777343-0.998047l0.146485-1.560547c-0.309468-0.521937-0.687631-0.992408-1.121094-1.349603v2h-2z" style="opacity:.2"/>
 <path d="m23 34.978516c-0.434092 0.357713-0.813335 0.828707-1.123047 1.351562l0.148438 1.578125c0.078129 0.816057 0.095686 0.9251 0.777343 1 0.144455 0.02427 0.267949 0.036053 0.396485 0.050781h0.800781 0.630859c0.178977-0.015394 0.360056-0.037596 0.566407-0.072265 0.681657-0.0749 0.699214-0.18199 0.777343-0.998047l0.146485-1.560547c-0.309468-0.521943-0.687631-0.992414-1.121094-1.349609v2h-1-1v-2z" style="fill:#f4f4f7"/>
 <path d="m27 27.978415c-1.041456 0.41842-1.930161 1.083443-3 1v0.02148c-1.068416 0.08333-1.956428-0.57953-2.996094-0.998047 0.116011 1.405329 0.875666 3.074758 1.996094 3.998047v-2h2v2c1.126557-0.92834 1.890466-2.611397 2-4.021484z" style="opacity:.2"/>
 <path d="m27 26.978516c-1.041456 0.41842-1.930161 1.083443-3 1v0.021484c-1.068416 0.083332-1.956428-0.57953-2.996094-0.998047 0.116011 1.405329 0.875666 3.074758 1.996094 3.998047v-2h1 1v2c1.126557-0.92834 1.890466-2.611397 2-4.021484z" style="fill:#f4f4f7"/>
 <path d="m10 7-0.9941406 1.5625c-0.0096413 0.329836-0.0014975 0.6544251 0.015625 0.9746094l0.9785156-1.5371094v-1zm28 0v1l0.978516 1.5371094c0.017122-0.3201843 0.025266-0.6447734 0.015625-0.9746094l-0.994141-1.5625zm-28 1.5585938v1l6.494141 4.5488282 7.505859-0.107422 7.505859 0.107422 6.494141-4.5488282v-1l-6.494141 4.5488282-7.505859-0.107422-7.505859 0.107422-6.494141-4.5488282z" style="fill:#f4f4f7;opacity:.1"/>
 <path d="m16.267578 15.355469a3.3358673 3.3358673 0 0 0-0.267578 1.308593 3.3358673 3.3358673 0 0 0 0.041016 0.498047 3.3358673 3.3358673 0 0 1 0.226562-0.80664l5.101563 2.945312a3.3358673 3.3358673 0 0 0 0.630859-0.636719l-5.732422-3.308593z" style="fill:#f4f4f7;opacity:.1"/>
 <path d="m31.732422 15.355469-5.732422 3.308593a3.3358673 3.3358673 0 0 0 0.630859 0.636719l5.101563-2.945312a3.3358673 3.3358673 0 0 1 0.226562 0.80664 3.3358673 3.3358673 0 0 0 0.041016-0.498047 3.3358673 3.3358673 0 0 0-0.267578-1.308593z" style="fill:#f4f4f7;opacity:.1"/>
</svg>
