<svg width="48" height="48" version="1.1" xmlns="http://www.w3.org/2000/svg">
 <g transform="matrix(2,0,0,2,2,2)">
  <circle cx="11" cy="11.5" r="10" style="opacity:.2"/>
  <circle cx="11" cy="11" r="10" style="fill:#e4accb"/>
  <circle cx="11" cy="11.5" r="7" style="opacity:.2"/>
  <circle cx="11" cy="11" r="7" style="fill:#b2bfd9"/>
  <path d="M 11,1 A 10,10 0 0 0 1,11 10,10 0 0 0 1.0098,11.293 10,10 0 0 1 11,1.5 10,10 0 0 1 20.99,11.207 10,10 0 0 0 21,11 10,10 0 0 0 11,1 Z" style="fill:#f4f4f7;opacity:.2"/>
  <path d="m1 15.5h4v-4l1 1 1-1v4h4l-1-8-3-1-1 1-1-1-3 1z" style="opacity:.1"/>
  <path d="m1 15h4v-4l1 1 1-1v4h4l-1-8-3-1-1 1-1-1-3 1z" style="fill:#f48b97"/>
  <path d="m12 3.5v4l2-4zm-2 2 1 2v-2zm5 0-1 2 2-1zm-3.5 2a4.5 4 0 0 0-4.5 4 4.5 4 0 0 0 4.5 4 4.5 4 0 0 0 4.5-4 4.5 4 0 0 0-4.5-4zm0 3a1.5 1 0 0 1 1.5 1 1.5 1 0 0 1-1.5 1 1.5 1 0 0 1-1.5-1 1.5 1 0 0 1 1.5-1z" style="opacity:.1"/>
  <path d="m5 6-3 1-1 8h0.0625l0.9375-7.5 3-1 1 1 1-1 3 1 0.9375 7.5h0.0625l-1-8-3-1-1 1z" style="fill:#f4f4f7;opacity:.2"/>
  <path d="m12 3v4l2-4zm-2 2 1 2v-2zm5 0-1 2 2-1zm-3.5 2a4.5 4 0 0 0-4.5 4 4.5 4 0 0 0 4.5 4 4.5 4 0 0 0 4.5-4 4.5 4 0 0 0-4.5-4zm0 3a1.5 1 0 0 1 1.5 1 1.5 1 0 0 1-1.5 1 1.5 1 0 0 1-1.5-1 1.5 1 0 0 1 1.5-1z" style="fill:#a9cc37"/>
  <path d="m13.5 16.5 0.5-10 7-1.25v3.25h-4v1h3v2h-3v2h3l1 3z" style="opacity:.1"/>
  <path d="m 12,3 v 0.5 h 1.75 L 14,3 Z m -2,2 0.25,0.5 H 11 V 5 Z M 15,5 14,7 14.333984,6.8339844 15,5.5 15.666016,6.1660156 16,6 Z M 11.5,7 A 4.5,4 0 0 0 11,7.0273438 V 7.5 L 10.777344,7.0566406 A 4.5,4 0 0 0 7,11 4.5,4 0 0 0 7.0117188,11.210938 4.5,4 0 0 1 11.5,7.5 4.5,4 0 0 1 15.988281,11.283203 4.5,4 0 0 0 16,11 4.5,4 0 0 0 12.222656,7.0546875 L 12,7.5 V 7.0292969 A 4.5,4 0 0 0 11.5,7 Z m -1.451172,4.25 A 1.5,1 0 0 0 10,11.5 a 1.5,1 0 0 0 1.5,1 1.5,1 0 0 0 1.5,-1 A 1.5,1 0 0 0 12.95117,11.25 1.5,1 0 0 1 11.5,12 1.5,1 0 0 1 10.048828,11.25 Z" style="fill:#f4f4f7;opacity:.2"/>
  <path d="m13.5 16 0.5-10 7-1.25v3.25h-4v1h3v2h-3v2h3l1 3z" style="fill:#90ccf2"/>
  <path d="m21 4.75-7 1.25-0.5 10h0.02539l0.47461-9.5 7-1.25zm-4 4.25v0.5h3v-0.5zm0 4v0.5h3l0.833984 2.5h0.166016l-1-3z" style="fill:#f4f4f7;opacity:.2"/>
 </g>
</svg>
