<svg width="48" height="48" version="1.1" xmlns="http://www.w3.org/2000/svg">
 <rect x="4" y="5" width="40" height="40" rx="3" ry="3" style="opacity:.2"/>
 <rect x="4" y="4" width="40" height="40" rx="3" ry="3" style="fill:#b2bfd9"/>
 <path d="m6 28v15.818359c0.31399 0.110953 0.6470826 0.181641 1 0.181641h5v-16h-6zm30 0v16h5c0.352917 0 0.68601-0.070688 1-0.181641v-15.818359h-6z" style="fill:#3ca2e4"/>
 <path d="m9 26a3 3 0 0 0-3 3 3 3 0 0 0 3 3 3 3 0 0 0 3-3 3 3 0 0 0-3-3zm30 0a3 3 0 0 0-3 3 3 3 0 0 0 3 3 3 3 0 0 0 3-3 3 3 0 0 0-3-3zm-35 8v2h40v-2z" style="opacity:.2"/>
 <path d="m9 25a3 3 0 0 0-3 3 3 3 0 0 0 3 3 3 3 0 0 0 3-3 3 3 0 0 0-3-3zm30 0a3 3 0 0 0-3 3 3 3 0 0 0 3 3 3 3 0 0 0 3-3 3 3 0 0 0-3-3zm-35 8v2h40v-2h-40z" style="fill:#4f4f4f"/>
 <path d="m7 4c-1.662 0-3 1.338-3 3v1c0-1.662 1.338-3 3-3h34c1.662 0 3 1.338 3 3v-1c0-1.662-1.338-3-3-3h-34z" style="fill:#f4f4f7;opacity:.2"/>
</svg>
