<svg width="48" height="48" version="1.1" xmlns="http://www.w3.org/2000/svg">
 <rect x="4" y="3.9980471" width="40" height="40" rx="2" ry="2" style="fill:#4f4f4f"/>
 <path d="m6 3.9980466c-1.108 0-2 0.892-2 2v1c0-1.108 0.892-2 2-2h36c1.108 0 2 0.892 2 2v-1c0-1.108-0.892-2-2-2z" style="fill:#f4f4f7;opacity:.1"/>
 <path d="m6 44.998047c-1.108 0-2-0.892-2-2v-1c0 1.108 0.892 2 2 2h36c1.108 0 2-0.892 2-2v1c0 1.108-0.892 2-2 2z" style="opacity:.2"/>
 <path d="m24 9c-6.10435 0-11.405984 3.420235-14.103516 8.447266l1.1035156 0.552734s1-2 5-5l1.34375 2.015625c1.904998-1.272665 4.193295-2.015625 6.65625-2.015625 2.021036 0 3.922875 0.5062 5.59375 1.388672 1.942339 1.025845 3.559586 2.570148 4.6875 4.447266l1.960938-0.414063c0.451702 0.765294 1.757812 3.234344 1.757812 6.578125 0 3-2 5-2 5h-1.101562c-1.011652 2.201449-2.671644 4.039379-4.730469 5.28125-1.862318 1.118247-3.991887 1.717639-6.167969 1.71875-6.627417 0-12-5.372583-12-12 3e-3 -0.333895 0.019951-0.667518 0.050781-1h-4.0136716c-0.0227932 0.332865-0.035169 0.666361-0.0371094 1 0.00655 2.331335 0.5224892 4.633077 1.5117188 6.744141l1.4882812-0.744141s0.839749 3.226499 5 6c3 2 8 2 8 2v2c2.903895-0.002384 5.742045-0.804259 8.222656-2.294922 0.225297-0.135387 0.452789-0.267228 0.671875-0.414062l-0.009765-0.013672c4.282901-2.869769 7.115234-7.734558 7.115234-13.277344 0-2.52314-0.599841-4.901208-1.640625-7.023438-0.002956-0.00603-0.006803-0.011551-0.009766-0.017578-0.017064-0.034688-0.031527-0.070918-0.048828-0.105468l-0.005859 0.001953c-1.365035-2.725768-3.476171-5.003549-6.078125-6.566407-2.403884-1.4438845-5.208436-2.289062-8.216797-2.289062zm0 6v3c3.865993 0 7 3.134007 7 7-6.97e-4 1.430535-0.439668 2.826514-1.257812 4h1.605468s-0.347723 1.660751-2.796875 3l-0.626953-1.210938c-1.157473 0.786838-2.524238 1.208637-3.923828 1.210938v1c0.0098 0-1.115599 0.184621-2 0-1.311988-0.273881-2-1-2-1l0.591797-0.888672c-2.216467-1.2355-3.590735-3.573773-3.591797-6.111328 0-2.420319 1.2284-4.553423 3.095703-5.810547l-1.339844-2.679687c-1.233581 0.762366-2.314883 1.77888-3.130859 3.03125l1.375 0.458984s-1.189853 1.090153-1.746094 4.203125c-0.332918 1.863162 0.796875 4.355469 0.796875 4.355469l-1.050781 0.441406h-0.160156c1.589763 3.642606 5.185748 5.998014 9.160156 6 2.041017 0 3.937336-0.614332 5.519531-1.664062 2.699114-1.790766 4.480469-4.854108 4.480469-8.335938-3e-3 -1.756263-0.468478-3.480764-1.349609-5h-1.650391s-0.376934-0.663825-1-1.380859c-0.53757-0.618644-1.474609-1.042969-1.474609-1.042969l0.861328-1c-1.608294-1.02884-3.477499-1.575775-5.386719-1.576172z" style="opacity:.2"/>
 <path d="m 24,8 v 4 c 2.021036,0 3.922875,0.5062 5.59375,1.388672 l 2.623047,-3.09961 C 29.812913,8.845177 27.008361,8 24,8 Z m -5.244141,7.509766 c -1.233581,0.762366 -2.314883,1.77888 -3.130859,3.03125 L 17,19 c 0,0 -1.189853,1.090153 -1.746094,4.203125 -0.332918,1.863162 0.796875,4.355469 0.796875,4.355469 L 15,28 h -0.160156 c 1.589763,3.642606 5.185748,5.998014 9.160156,6 2.041017,0 3.937336,-0.614332 5.519531,-1.664062 L 30,31 H 28.550781 L 27.923828,29.789062 C 26.766355,30.5759 25.39959,30.997699 24,31 v 1 c 0.0098,0 -1.115599,0.184621 -2,0 -1.311988,-0.273881 -2,-1 -2,-1 l 0.591797,-0.888672 C 18.37533,28.875828 17.001062,26.537555 17,24 c 0,-2.420319 1.2284,-4.553423 3.095703,-5.810547 z m 19.544922,1.34375 -2.15625,0.392578 C 36.506577,17.83656 38,20.463046 38,24 c 0,3 -2,5 -2,5 h -1.101562 c -1.011652,2.201449 -2.671644,4.039379 -4.730469,5.28125 l 2.054687,3.423828 C 36.875951,34.906899 40,29.825312 40,24 40,21.428468 39.378776,19.006356 38.300781,16.853516 Z" style="fill:#d8554a"/>
 <path d="m24 8c-6.10435 0-11.405984 3.420235-14.103516 8.447266l1.1035156 0.552734s1-2 5-5l1.34375 2.015625c1.904998-1.272665 4.193295-2.015625 6.65625-2.015625v-4zm8.216797 2.289062-2.623047 3.09961c1.942339 1.025845 3.559586 2.570148 4.6875 4.447266l4.078125-0.859376c-1.362623-2.780376-3.501539-5.101166-6.142578-6.6875zm-8.216797 3.710938v3c3.865993 0 7 3.134007 7 7-6.97e-4 1.430535-0.439668 2.826514-1.257812 4h1.605468s-0.347723 1.660751-2.796875 3l0.96875 1.335938c2.699114-1.790766 4.480469-4.854108 4.480469-8.335938-3e-3 -1.756263-0.468478-3.480764-1.349609-5h-1.650391s-0.376934-0.663825-1-1.380859c-0.53757-0.618644-1.474609-1.042969-1.474609-1.042969l0.861328-1c-1.608294-1.02884-3.477499-1.575775-5.386719-1.576172zm-15.962891 9c-0.0227932 0.332865-0.035169 0.666361-0.0371094 1 0.00655 2.331335 0.5224892 4.633077 1.5117188 6.744141l1.4882812-0.744141s0.839749 3.226499 5 6c3 2 8 2 8 2v2c3.167636-0.0026 6.263213-0.94544 8.894531-2.708984l-2.46289-3.164063c-1.922614 1.222218-4.153427 1.871884-6.431641 1.873047-6.627417 0-12-5.372583-12-12 3e-3 -0.333895 0.019951-0.667518 0.050781-1h-4.0136716z" style="fill:#2298e2"/>
</svg>
