<svg width="48" height="48" version="1.1" xmlns="http://www.w3.org/2000/svg">
 <path d="m31.875799 38.647469c-9.171946 5.297825-20.125838 4.114623-27.020314-2.124032-0.204883-0.185359-0.3448385-0.427879-0.4028091-0.698004-1.9510382-9.082866 2.4901809-19.169649 11.671523-24.472902 9.171945-5.2978267 20.125838-4.1146226 27.020315 2.124033 0.204888 0.185356 0.344839 0.427878 0.402809 0.698002 1.951037 9.082865-2.490105 19.169605-11.671524 24.472903z" style="opacity:.2"/>
 <path d="m31.875798 37.647469c-9.171945 5.297826-20.125838 4.114623-27.020315-2.124032-0.204883-0.185359-0.344838-0.427879-0.402809-0.698004-0.4497188-2.093622-0.5598085-4.240583-0.3505027-6.370005 0.6987363-7.108759 6.8974379-10.14119 13.96246-14.222031 9.171946-5.2978246 16.605983-6.912456 23.50046-0.673801 0.204888 0.185356 1.337618 0.06687 1.395588 0.336992 0.117863 0.548698 0.799041 0.379038 0.870612 0.933787 1.113188 8.628284-3.328726 17.83417-11.955493 22.817094z" style="fill:#b0a4a4"/>
 <path d="m28.697266 8.0013665c-4.205721-0.043842-8.55954 1.0318102-12.572266 3.3496085-7.0839951 4.091801-11.332234 11.033226-12.013672 18.16211 1.24e-4 0.0013-1.241e-4 0.0026 0 0.0039 0.074611 0.773455 0.1779625 1.545878 0.3417969 2.308594 0.057971 0.270125 0.1974608 0.511906 0.4023438 0.697266 6.8944762 6.238655 17.847585 7.422823 27.019531 2.125 7.082778-4.091093 11.33109-11.030675 12.013672-18.158198-0.074618-0.776048-0.177417-1.551149-0.341797-2.316406-0.05797-0.270124-0.197456-0.511909-0.402344-0.697266-3.878143-3.5092429-9.03991-5.4182401-14.447265-5.4746085zm15.193359 8.5156245c0.298967 3.153524-0.131262 6.367358-1.228516 9.408203 1.101245-3.042434 1.527627-6.25302 1.228516-9.408203zm-1.228516 9.408203c-0.152141 0.421634-0.324383 0.837566-0.501953 1.251953 0.178081-0.414427 0.349322-0.830274 0.501953-1.251953zm-0.642578 1.583985c-0.160687 0.359425-0.337876 0.713621-0.517578 1.066406 0.180288-0.35305 0.356338-0.706703 0.517578-1.066406zm-0.767578 1.552734c-0.170577 0.316425-0.35316 0.627469-0.539062 0.9375 0.186167-0.309819 0.368197-0.621291 0.539062-0.9375zm-37.142578 0.488281c-0.048437 0.516156-0.081197 1.031744-0.091797 1.548828 0.011947-0.51627 0.043395-1.033464 0.091797-1.548828zm-0.091797 1.548828c-0.010477 0.511103-0.00556 1.0212 0.021484 1.53125-0.025263-0.509982-0.03331-1.020211-0.021484-1.53125zm36.341797-0.52539c-0.178318 0.279107-0.363822 0.555147-0.554687 0.828125 0.19123-0.273025 0.376001-0.548967 0.554687-0.828125zm-1.007813 1.453125c-0.1948819 0.260483-0.3950349 0.517563-0.6015619 0.771484 0.206846-0.253944 0.406352-0.510974 0.601562-0.771484zm-35.269531 1.117187c0.027816 0.355936 0.051187 0.712113 0.097656 1.066407-0.04551-0.354293-0.071057-0.710477-0.097656-1.066407zm34.146485 0.269531c-0.20233 0.232536-0.406778 0.463344-0.619141 0.689454 0.212622-0.226123 0.416538-0.456901 0.619141-0.689454zm-1.28125 1.359376c-0.198732 0.195953-0.394971 0.393709-0.601563 0.583984 0.206762-0.190268 0.402645-0.388036 0.601563-0.583984zm-1.425782 1.298828c-0.179064 0.150942-0.352777 0.306438-0.537109 0.453125 0.184554-0.146767 0.357815-0.302096 0.537109-0.453125zm-1.623046 1.259765c-0.140079 0.09967-0.273255 0.205479-0.416016 0.302735 0.142776-0.09723 0.275913-0.203089 0.416016-0.302735z" style="opacity:.1"/>
 <path d="m28.697266 7.0019531c-4.205721-0.043842-8.55954 1.0318102-12.572266 3.3496089-7.0839951 4.091801-11.332234 11.033226-12.013672 18.16211 1.24e-4 0.001286-1.241e-4 0.00262 0 0.003906 0.074611 0.773455 0.1779625 1.545878 0.3417969 2.308594 0.0579706 0.270125 0.1974608 0.511906 0.4023438 0.697266 6.8944762 6.238655 17.847585 7.422823 27.019531 2.125 7.082778-4.091099 11.33109-11.030681 12.013672-18.158204-0.074618-0.776048-0.177417-1.551149-0.341797-2.316406-0.05797-0.270124-0.197456-0.511909-0.402344-0.697266-3.878143-3.5092433-9.03991-5.4182405-14.447265-5.4746089zm15.193359 8.5156249c0.298967 3.153524-0.131262 6.367358-1.228516 9.408203 1.101245-3.042434 1.527627-6.25302 1.228516-9.408203zm-1.228516 9.408203c-0.152141 0.421634-0.324383 0.837566-0.501953 1.251953 0.178081-0.414427 0.349322-0.830274 0.501953-1.251953zm-0.642578 1.583985c-0.160687 0.359425-0.337876 0.713621-0.517578 1.066406 0.180288-0.35305 0.356338-0.706703 0.517578-1.066406zm-0.767578 1.552734c-0.170577 0.316425-0.35316 0.627469-0.539062 0.9375 0.186167-0.309819 0.368197-0.621291 0.539062-0.9375zm-37.142578 0.488281c-0.0484365 0.516156-0.0811974 1.031744-0.0917969 1.548828 0.0119469-0.51627 0.0433945-1.033464 0.0917969-1.548828zm-0.0917969 1.548828c-0.0104769 0.511103-0.0055647 1.0212 0.0214844 1.53125-0.0252627-0.509982-0.0333102-1.020211-0.0214844-1.53125zm36.341797-0.52539c-0.178318 0.279107-0.363822 0.555147-0.554687 0.828125 0.19123-0.273025 0.376001-0.548967 0.554687-0.828125zm-1.007813 1.453125c-0.194882 0.260483-0.395035 0.517563-0.601562 0.771484 0.206846-0.253944 0.406352-0.510974 0.601562-0.771484zm-35.269531 1.117187c0.027816 0.355936 0.0511866 0.712113 0.0976563 1.066407-0.0455105-0.354293-0.0710566-0.710477-0.0976563-1.066407zm34.146485 0.269531c-0.20233 0.232536-0.406778 0.463344-0.619141 0.689454 0.212622-0.226123 0.416538-0.456901 0.619141-0.689454zm-1.28125 1.359376c-0.198732 0.195953-0.394971 0.393709-0.601563 0.583984 0.206762-0.190268 0.402645-0.388036 0.601563-0.583984zm-1.425782 1.298828c-0.179064 0.150942-0.352777 0.306438-0.537109 0.453125 0.184554-0.146767 0.357815-0.302096 0.537109-0.453125zm-1.623046 1.259765c-0.140079 0.099672-0.273255 0.205479-0.416016 0.302735 0.142776-0.09723 0.275913-0.203089 0.416016-0.302735z" style="fill:#c2352a"/>
 <circle transform="rotate(-30)" cx="8.285" cy="33.651" r="12" style="opacity:.1"/>
 <circle transform="rotate(-30)" cx="8.785" cy="32.785" r="12" style="fill:#b47764"/>
 <circle transform="rotate(-30)" cx="8.785" cy="32.785" r="6" style="fill:#3f3f3f;opacity:.95700001"/>
 <path d="m28.697266 7.0019531c-4.205721-0.043842-8.55954 1.0318102-12.572266 3.3496089-7.7907 4.500002-12.15201 12.444346-12.107422 20.296876 0.3152301-7.520395 4.6475811-14.987982 12.107422-19.296876 9.171945-5.2978262 20.125054-4.1136551 27.019531 2.125 0.204888 0.185357 0.344374 0.427142 0.402344 0.697266 0.24388 1.135358 0.388196 2.287934 0.435547 3.44336 0.010446-1.490567-0.12136-2.980691-0.435547-4.44336-0.05797-0.270124-0.197456-0.511909-0.402344-0.697266-3.878143-3.5092433-9.03991-5.4182405-14.447265-5.4746089z" style="fill:#f4f4f7;opacity:.2"/>
</svg>
