<svg xmlns="http://www.w3.org/2000/svg" width="48" height="48" x="0" y="0" version="1.1" xml:space="preserve">
 <path style="opacity:0.2" d="M 31.875799,38.647469 C 22.703853,43.945294 11.749961,42.762092 4.8554847,36.523437 4.6506017,36.338078 4.5106462,36.095558 4.4526756,35.825433 2.5016374,26.742567 6.9428565,16.655784 16.124199,11.352531 c 9.171945,-5.2978267 20.125838,-4.1146226 27.020315,2.124033 0.204888,0.185356 0.344839,0.427878 0.402809,0.698002 1.951037,9.082865 -2.490105,19.169605 -11.671524,24.472903 z"/>
 <path style="fill:#ff5555" d="M 31.875798,37.647469 C 22.703853,42.945295 11.74996,41.762092 4.8554828,35.523437 4.6505998,35.338078 4.5106448,35.095558 4.4526738,34.825433 4.002955,32.731811 3.8928653,30.58485 4.1021711,28.455428 4.8009074,21.346669 10.999609,18.314238 18.064631,14.233397 c 9.171946,-5.2978246 16.605983,-6.912456 23.50046,-0.673801 0.204888,0.185356 1.337618,0.06687 1.395588,0.336992 0.117863,0.548698 0.799041,0.379038 0.870612,0.933787 1.113188,8.628284 -3.328726,17.83417 -11.955493,22.817094 z"/>
 <path style="opacity:0.1" d="M 28.697266,8.0013665 C 24.491545,7.9575245 20.137726,9.0331767 16.125,11.350975 9.0410049,15.442776 4.7927655,22.384201 4.1113281,29.513085 c 1.24e-4,0.0013 -1.241e-4,0.0026 0,0.0039 0.074611,0.773455 0.1779625,1.545878 0.3417969,2.308594 0.057971,0.270125 0.1974608,0.511906 0.4023438,0.697266 6.8944762,6.238655 17.8475852,7.422823 27.0195312,2.125 C 38.957778,30.556752 43.20609,23.61717 43.888672,16.489647 43.814054,15.713599 43.711255,14.938498 43.546875,14.173241 43.488905,13.903117 43.349419,13.661332 43.144531,13.475975 39.266388,9.9667321 34.104621,8.0577349 28.697266,8.0013665 Z m 15.193359,8.5156245 c 0.298967,3.153524 -0.131262,6.367358 -1.228516,9.408203 1.101245,-3.042434 1.527627,-6.25302 1.228516,-9.408203 z m -1.228516,9.408203 c -0.152141,0.421634 -0.324383,0.837566 -0.501953,1.251953 0.178081,-0.414427 0.349322,-0.830274 0.501953,-1.251953 z m -0.642578,1.583985 c -0.160687,0.359425 -0.337876,0.713621 -0.517578,1.066406 0.180288,-0.35305 0.356338,-0.706703 0.517578,-1.066406 z m -0.767578,1.552734 c -0.170577,0.316425 -0.35316,0.627469 -0.539062,0.9375 0.186167,-0.309819 0.368197,-0.621291 0.539062,-0.9375 z M 4.109375,29.550194 c -0.048437,0.516156 -0.081197,1.031744 -0.091797,1.548828 0.011947,-0.51627 0.043395,-1.033464 0.091797,-1.548828 z m -0.091797,1.548828 c -0.010477,0.511103 -0.00556,1.0212 0.021484,1.53125 -0.025263,-0.509982 -0.03331,-1.020211 -0.021484,-1.53125 z m 36.3417969,-0.52539 c -0.178318,0.279107 -0.363822,0.555147 -0.554687,0.828125 0.19123,-0.273025 0.376001,-0.548967 0.554687,-0.828125 z m -1.007813,1.453125 C 39.15668,32.28724 38.956527,32.54432 38.75,32.798241 c 0.206846,-0.253944 0.406352,-0.510974 0.601562,-0.771484 z M 4.0820312,33.143944 c 0.027816,0.355936 0.051187,0.712113 0.097656,1.066407 -0.04551,-0.354293 -0.071057,-0.710477 -0.097656,-1.066407 z m 34.1464848,0.269531 c -0.20233,0.232536 -0.406778,0.463344 -0.619141,0.689454 0.212622,-0.226123 0.416538,-0.456901 0.619141,-0.689454 z m -1.28125,1.359376 c -0.198732,0.195953 -0.394971,0.393709 -0.601563,0.583984 0.206762,-0.190268 0.402645,-0.388036 0.601563,-0.583984 z m -1.425782,1.298828 c -0.179064,0.150942 -0.352777,0.306438 -0.537109,0.453125 0.184554,-0.146767 0.357815,-0.302096 0.537109,-0.453125 z m -1.623046,1.259765 c -0.140079,0.09967 -0.273255,0.205479 -0.416016,0.302735 0.142776,-0.09723 0.275913,-0.203089 0.416016,-0.302735 z"/>
 <path style="fill:#b2bfd9" d="M 28.697266 7.0019531 C 24.491545 6.9581111 20.137726 8.0337633 16.125 10.351562 C 9.0410049 14.443363 4.7927655 21.384788 4.1113281 28.513672 C 4.1114521 28.514958 4.111204 28.516292 4.1113281 28.517578 C 4.1859391 29.291033 4.2892906 30.063456 4.453125 30.826172 C 4.5110956 31.096297 4.6505858 31.338078 4.8554688 31.523438 C 11.749945 37.762093 22.703054 38.946261 31.875 33.648438 C 38.957778 29.557339 43.20609 22.617757 43.888672 15.490234 C 43.814054 14.714186 43.711255 13.939085 43.546875 13.173828 C 43.488905 12.903704 43.349419 12.661919 43.144531 12.476562 C 39.266388 8.9673187 34.104621 7.0583215 28.697266 7.0019531 z M 43.890625 15.517578 C 44.189592 18.671102 43.759363 21.884936 42.662109 24.925781 C 43.763354 21.883347 44.189736 18.672761 43.890625 15.517578 z M 42.662109 24.925781 C 42.509968 25.347415 42.337726 25.763347 42.160156 26.177734 C 42.338237 25.763307 42.509478 25.34746 42.662109 24.925781 z M 42.019531 26.509766 C 41.858844 26.869191 41.681655 27.223387 41.501953 27.576172 C 41.682241 27.223122 41.858291 26.869469 42.019531 26.509766 z M 41.251953 28.0625 C 41.081376 28.378925 40.898793 28.689969 40.712891 29 C 40.899058 28.690181 41.081088 28.378709 41.251953 28.0625 z M 4.109375 28.550781 C 4.0609385 29.066937 4.0281776 29.582525 4.0175781 30.099609 C 4.029525 29.583339 4.0609726 29.066145 4.109375 28.550781 z M 4.0175781 30.099609 C 4.0071012 30.610712 4.0120134 31.120809 4.0390625 31.630859 C 4.0137998 31.120877 4.0057523 30.610648 4.0175781 30.099609 z M 40.359375 29.574219 C 40.181057 29.853326 39.995553 30.129366 39.804688 30.402344 C 39.995918 30.129319 40.180689 29.853377 40.359375 29.574219 z M 39.351562 31.027344 C 39.15668 31.287827 38.956527 31.544907 38.75 31.798828 C 38.956846 31.544884 39.156352 31.287854 39.351562 31.027344 z M 4.0820312 32.144531 C 4.1098472 32.500467 4.1332178 32.856644 4.1796875 33.210938 C 4.134177 32.856645 4.1086309 32.500461 4.0820312 32.144531 z M 38.228516 32.414062 C 38.026186 32.646598 37.821738 32.877406 37.609375 33.103516 C 37.821997 32.877393 38.025913 32.646615 38.228516 32.414062 z M 36.947266 33.773438 C 36.748534 33.969391 36.552295 34.167147 36.345703 34.357422 C 36.552465 34.167154 36.748348 33.969386 36.947266 33.773438 z M 35.521484 35.072266 C 35.34242 35.223208 35.168707 35.378704 34.984375 35.525391 C 35.168929 35.378624 35.34219 35.223295 35.521484 35.072266 z M 33.898438 36.332031 C 33.758359 36.431703 33.625183 36.53751 33.482422 36.634766 C 33.625198 36.537536 33.758335 36.431677 33.898438 36.332031 z"/>
 <circle style="opacity:0.1" cx="8.285" cy="33.651" r="12" transform="rotate(-30)"/>
 <circle style="fill:#1c93e1" cx="8.785" cy="32.785" r="12" transform="rotate(-30)"/>
 <circle style="opacity:0.95700001;fill:#3f3f3f" cx="8.785" cy="32.785" r="6" transform="rotate(-30)"/>
 <path style="fill:#f4f4f7;opacity:0.2" d="M 28.697266 7.0019531 C 24.491545 6.9581111 20.137726 8.0337633 16.125 10.351562 C 8.3343 14.851564 3.97299 22.795908 4.0175781 30.648438 C 4.3328082 23.128043 8.6651592 15.660456 16.125 11.351562 C 25.296945 6.0537358 36.250054 7.2379069 43.144531 13.476562 C 43.349419 13.661919 43.488905 13.903704 43.546875 14.173828 C 43.790755 15.309186 43.935071 16.461762 43.982422 17.617188 C 43.992868 16.126621 43.861062 14.636497 43.546875 13.173828 C 43.488905 12.903704 43.349419 12.661919 43.144531 12.476562 C 39.266388 8.9673187 34.104621 7.0583215 28.697266 7.0019531 z"/>
</svg>
