<svg xmlns="http://www.w3.org/2000/svg" width="48" height="48" version="1">
 <path style="fill:#f37b21" d="M 24,4 C 12.977,4 4,12.978 4,24 4,35.024 12.978,44 24,44 35.022,44 44,35.023 44,24 44,12.978 35.023,4 24,4 Z"/>
 <path style="opacity:0.2" d="M 24,9 A 16,16 0 0 0 8,25 16,16 0 0 0 24,41 16,16 0 0 0 40,25 16,16 0 0 0 24,9 Z m -6.418,4.7109 6.1309,0 7.0391,17.902 3.0957,-1.0078 1.0312,3.4668 -6.676,1.928 -4.49,-11.383 -6.584,10.375 -4.1289,0 9.1953,-14.85 -1.0312,-2.9336 -3.582,0 0,-3.498 z"/>
 <path style="fill:#f4f4f7" d="M 24,8 A 16,16 0 0 0 8,24 16,16 0 0 0 24,40 16,16 0 0 0 40,24 16,16 0 0 0 24,8 Z m -6.418,4.7109 6.1309,0 7.0391,17.902 3.0957,-1.0078 1.0312,3.4668 -6.676,1.928 -4.49,-11.383 -6.584,10.375 -4.1289,0 9.1953,-14.85 -1.0312,-2.9336 -3.582,0 0,-3.498 z"/>
 <path style="opacity:0.2;fill:#f4f4f7" d="M 24,4 C 12.977,4 4,12.978 4,24 4,24.168 4.0076,24.333 4.0117,24.5 4.279,13.708 13.145,5 23.9997,5 c 10.8547,0 19.721,8.708 19.988,19.5 0.004,-0.167 0.012,-0.332 0.012,-0.5 0,-11.022 -8.977,-20 -20,-20 z"/>
 <path style="opacity:0.2" d="M 4.0117,24.5 C 4.0076,24.667 4,24.832 4,25 4,36.024 12.978,45 24,45 35.022,45 44,36.023 44,25 44,24.832 43.992,24.667 43.988,24.5 43.721,35.293 34.855,44 24,44 13.145,44 4.279,35.293 4.012,24.5 Z"/>
 <circle style="opacity:0.2" cx="36" cy="36" r="11"/>
 <circle style="fill:#42a1cd" cx="36" cy="35" r="11"/>
 <path style="fill:#f4f4f7;fill-rule:evenodd" d="m 36,30.000001 c 0,0 -0.70875,-0.014 -1.44727,0.3555 C 33.81422,30.724701 33,31.666701 33,33.000001 l 2,0 c 0,-1 1,-1 1,-1 0,0 1,0 1,1 0,0.5278 -0.1396,0.8229 -0.40625,1.1562 -0.26665,0.3334 -0.69336,0.668 -1.19336,1.043 -0.5,0.375 -1.07329,0.7904 -1.55664,1.3946 C 33.3604,37.197901 33,38.027801 33,39.000001 L 33,40 l 6,0 0,-1.999999 -3.64844,0 c 0.0313,-0.044 0.0187,-0.1112 0.0547,-0.1562 0.26665,-0.3334 0.69336,-0.668 1.19336,-1.043 0.5,-0.375 1.07329,-0.7904 1.55664,-1.3946 0.48335,-0.6041 0.84375,-1.434 0.84375,-2.4062 0,-1.3333 -0.81422,-2.2753 -1.55273,-2.6445 C 36.70875,29.986201 36,30.000001 36,30.000001 Z"/>
</svg>
