<svg width="48" height="48" version="1.1" xmlns="http://www.w3.org/2000/svg">
 <path d="m7.8 10c-0.9972 0-1.8 0.693777-1.8 1.555556v24.888888c0 0.861779 0.8028 1.555556 1.8 1.555556h29.7c0.9972 0 1.8-0.693777 1.8-1.555556v-24.888888c0-0.861779-0.8028-1.555556-1.8-1.555556zm28.8 0c-0.9972 0-1.8 0.693777-1.8 1.555556v24.888888c0 0.861779 0.8028 1.555556 1.8 1.555556h3.6c0.9972 0 1.8-0.693777 1.8-1.555556v-24.888888c0-0.861779-0.8028-1.555556-1.8-1.555556z" style="fill:#5ecff3"/>
 <rect x="4" y="7" width="8" height="36" rx="2" ry="2" style="opacity:.2"/>
 <rect x="36" y="7" width="8" height="36" rx="2" ry="2" style="opacity:.2"/>
 <rect x="4" y="6" width="8" height="36" rx="2" ry="2" style="fill:#868686"/>
 <rect x="36" y="6" width="8" height="36" rx="2" ry="2" style="fill:#868686"/>
 <path d="m12 31h24.000001" style="fill:none;stroke-linecap:round;stroke-linejoin:round;stroke-width:4;stroke:#c48f61"/>
 <path d="m12 28c-2.209139 0-4 1.790861-4 4s1.790861 4 4 4 4-1.790861 4-4-1.790861-4-4-4zm12 0c-2.209139 0-4 1.790861-4 4s1.790861 4 4 4 4-1.790861 4-4-1.790861-4-4-4zm12 0c-2.209139 0-4 1.790861-4 4s1.790861 4 4 4 4-1.790861 4-4-1.790861-4-4-4z" style="opacity:.2"/>
 <path d="m12 27c-2.209139 0-4 1.790861-4 4s1.790861 4 4 4 4-1.790861 4-4-1.790861-4-4-4zm12 0c-2.209139 0-4 1.790861-4 4s1.790861 4 4 4 4-1.790861 4-4-1.790861-4-4-4zm12 0c-2.209139 0-4 1.790861-4 4s1.790861 4 4 4 4-1.790861 4-4-1.790861-4-4-4z" style="fill:#f4f4f7"/>
 <path d="m6 6c-1.108 0-2 0.892-2 2v1c0-1.108 0.892-2 2-2h4c1.108 0 2 0.892 2 2v-1c0-1.108-0.892-2-2-2z" style="fill:#f4f4f7;opacity:.1"/>
 <path d="m38 6c-1.108 0-2 0.892-2 2v1c0-1.108 0.892-2 2-2h4c1.108 0 2 0.892 2 2v-1c0-1.108-0.892-2-2-2z" style="fill:#f4f4f7;opacity:.1"/>
</svg>
