<svg xmlns="http://www.w3.org/2000/svg" width="48" height="48" version="1.1">
 <path style="opacity:0.2" d="m 6,9 a 4.0004,4.0004 0 0 0 -4,4 v 25 a 4.0004,4.0004 0 0 0 4,4 h 12 a 4.0004,4.0004 0 0 0 4,-4 V 27 h -8 v 7 H 10 V 17 h 4 v 6 h 8 V 13 A 4.0004,4.0004 0 0 0 18,9 Z m 24,0 a 4.0004,4.0004 0 0 0 -4,4 v 13 a 4.0004,4.0004 0 0 0 4,4 h 8 v 4 h -4 v -2 h -8 v 6 a 4.0004,4.0004 0 0 0 4,4 h 12 a 4.0004,4.0004 0 0 0 4,-4 V 26 a 4.0004,4.0004 0 0 0 -4,-4 h -8 v -5 h 4 v 3 h 8 V 13 A 4.0004,4.0004 0 0 0 42,9 Z"/>
 <path style="fill:none;stroke:#43c3ff;stroke-width:8;stroke-linejoin:round" d="M 18,22 V 12 H 6 V 37 H 18 V 26"/>
 <path style="fill:none;stroke:#43c3ff;stroke-width:8;stroke-linejoin:round" d="M 42,19 V 12 H 30 V 25 H 42 V 37 H 30 v -6"/>
 <path style="fill:#4572ab" d="M 15 28 L 15 38 L 14 38 L 14 37 L 12.638672 37.033203 L 12 37.488281 L 12 39 L 11 39 L 11 35 L 9 35 L 9 37 L 8 37 L 7 37.552734 L 7 33.037109 L 5.8339844 31.708984 L 5 33.037109 L 5 40.869141 A 4.0004 4.0004 0 0 0 6 41 L 18 41 A 4.0004 4.0004 0 0 0 21 39.638672 L 21 34 L 20 33 L 19 34 L 19 32 L 17 32 L 17 28 L 15 28 z M 2 30 L 2 37 A 4.0004 4.0004 0 0 0 4.0117188 40.464844 L 4.0976562 30 L 2 30 z M 45 30 L 44 31 L 44 35 L 43 35 L 43 40.867188 A 4.0004 4.0004 0 0 0 46 37 L 46 31 L 45 30 z M 26 32 L 26 37 A 4.0004 4.0004 0 0 0 30 41 L 39 41 L 39 39 L 37.726562 38.164062 L 37 38 L 37 36 L 35 36 L 35 40 L 33 40 L 33 39 L 32.482422 38 L 31 38 L 31 39 L 30 39 L 30 35 L 28 35 L 28 32 L 26 32 z M 40 34 L 40 41 L 42 41 L 42 34 L 40 34 z"/>
 <path style="opacity:0.2;fill:#f4f4f7" d="M 6 8 A 4.0004 4.0004 0 0 0 2 12 L 2 13 A 4.0004 4.0004 0 0 1 6 9 L 18 9 A 4.0004 4.0004 0 0 1 22 13 L 22 12 A 4.0004 4.0004 0 0 0 18 8 L 6 8 z M 30 8 A 4.0004 4.0004 0 0 0 26 12 L 26 13 A 4.0004 4.0004 0 0 1 30 9 L 42 9 A 4.0004 4.0004 0 0 1 46 13 L 46 12 A 4.0004 4.0004 0 0 0 42 8 L 30 8 z M 34 21 L 34 22 L 42 22 A 4.0004 4.0004 0 0 1 46 26 L 46 25 A 4.0004 4.0004 0 0 0 42 21 L 34 21 z M 14 26 L 14 27 L 22 27 L 22 26 L 14 26 z M 26 31 L 26 32 L 34 32 L 34 31 L 26 31 z M 10 33 L 10 34 L 14 34 L 14 33 L 10 33 z M 34 33 L 34 34 L 38 34 L 38 33 L 34 33 z"/>
</svg>
