<svg xmlns="http://www.w3.org/2000/svg" width="48" height="48" version="1.1">
 <path style="opacity:0.2" d="M 14.001,4.9992 C 13.14,4.9988 12.375,5.5496 12.102,6.3664 L 6.1027,24.366 C 5.8765,25.046 6.0299,25.792 6.5051,26.328 L 22.504,44.328 C 23.3,45.224 24.7,45.224 25.496,44.328 L 41.495,26.328 C 41.971,25.792 42.123,25.046 41.897,24.366 L 35.898,6.3664 C 35.626,5.5496 34.862,4.9988 34,4.9992 Z"/>
 <path style="fill:#02c0f3" d="M 14.001,4 C 13.14,3.9995 12.375,4.5504 12.102,5.3672 L 6.1027,23.368 C 5.8765,24.046 6.0299,24.794 6.5051,25.328 L 22.504,43.328 C 23.3,44.224 24.7,44.224 25.496,43.328 L 41.495,25.328 C 41.971,24.794 42.123,24.046 41.897,23.368 L 35.898,5.3672 C 35.626,4.5504 34.862,3.9995 34,4 Z"/>
 <path style="fill:#2dd1fd" d="M 24,20 A 21.999,13 0 0 0 6.4229,25.208 C 6.4527,25.246 6.4721,25.292 6.5051,25.328 L 22.504,43.328 C 23.3,44.224 24.7,44.224 25.496,43.328 L 41.495,25.328 C 41.529,25.29 41.547,25.242 41.577,25.204 A 21.999,13 0 0 0 24,20 Z"/>
 <path style="opacity:0.2;fill:#f4f4f7" d="M 14.001,4 C 13.14,3.9995 12.375,4.5504 12.102,5.3672 L 6.1027,23.368 C 5.9775,23.742 5.9775,24.138 6.0753,24.508 6.0873,24.46 6.0873,24.414 6.1027,24.368 L 12.102,6.3672 C 12.375,5.5504 13.14,4.9996 14.001,5 H 34 C 34.862,4.9996 35.626,5.5504 35.898,6.3672 L 41.897,24.368 C 41.913,24.414 41.913,24.46 41.925,24.508 42.023,24.138 42.023,23.742 41.897,23.368 L 35.898,5.3672 C 35.626,4.5504 34.862,3.9995 34,4 Z"/>
 <path style="opacity:0.1" d="M 24,9 C 24,9 22.178,8.965 20.279,9.8888 18.38,10.812 16.001,13.667 16.001,17 H 22 C 22,13 25.026,13 25.026,13 25.026,13 28,13 28,15 28,17 27.114,18.2 26,19 25.124,19.63 24.03,20.061 22.744,20.998 21.459,21.936 19.984,22.974 18.741,24.484 17.499,25.994 16.001,28.07 16.001,30.5 V 33 H 32 V 29 H 22 C 22.08,28.89 22.146,28.722 22.24,28.61 22.926,27.776 24.246,26.418 25.828,25.002 27.014,23.942 28.588,23.026 29.83,21.516 31.074,20.005 32,17.931 32,15.5 32,12.167 29.9,10.625 28,9.7024 26.1,8.779 24,9 24,9 Z"/>
 <path style="fill:#333333" d="M 24,8 C 24,8 22.178,7.965 20.279,8.8888 18.38,9.8118 16.001,12.667 16.001,16 H 22 C 22,12 25.026,12 25.026,12 25.026,12 28,12 28,14 28,16 27.114,17.2 26,18 25.124,18.63 24.03,19.061 22.744,19.998 21.459,20.936 19.984,21.974 18.741,23.484 17.499,24.994 16.001,27.07 16.001,29.5 V 32 H 32 V 28 H 22 C 22.08,27.89 22.146,27.722 22.24,27.61 22.926,26.776 24.246,25.418 25.828,24.002 27.014,22.942 28.588,22.026 29.83,20.516 31.074,19.005 32,16.931 32,14.5 32,11.167 29.9,9.6252 28,8.7024 26.1,7.779 24,8 24,8 Z"/>
</svg>
