<svg xmlns="http://www.w3.org/2000/svg" width="48" height="48" version="1.1">
 <rect style="opacity:0.2" width="40" height="40" x="4" y="5" rx="2" ry="2"/>
 <rect style="fill:#4f4f4f" width="40" height="40" x="4" y="4" rx="2" ry="2"/>
 <path style="fill:#f4f4f7;opacity:.1" d="m4 7v-1c0-1.108 0.892-2 2-2h36c1.108 0 2 0.892 2 2v1c0-1.108-0.892-2-2-2h-36c-1.108 0-2 0.892-2 2z"/>
 <path style="opacity:0.2" d="m 37.207187,19.892995 c 0.363648,-0.385027 0.916521,-0.718195 0.759445,-1.328816 -0.02374,-0.796232 0.04858,-1.603156 -0.03798,-2.392466 -1.461741,0.782277 0.38362,-1.129529 0.02372,-1.746724 -0.0051,-0.735095 0.323344,-3.076647 -0.747202,-1.658764 -2.310993,2.228157 -4.633884,4.450586 -6.75706,6.860964 -2.358505,2.03387 -4.429588,4.373104 -6.635949,6.561932 -1.7915,1.62672 -3.442266,3.404214 -5.173424,5.095552 -0.290268,0.915015 0.868661,1.610685 1.561607,2.354276 0.264577,0.703203 1.268792,1.780386 1.893861,1.936582 0.429281,-0.385745 1.789691,-1.821659 1.612634,-1.473202 -0.27684,0.570231 -1.625721,1.571607 -1.156966,1.852932 0.540894,-0.509238 -0.338379,0.543499 0.44202,0.626543 1.103511,1.734862 2.189519,-1.056898 3.209958,-1.612989 3.878613,-3.853183 7.784658,-7.678699 11.650842,-11.5444 0.236469,-0.754716 0.05876,-1.59825 0.113916,-2.391287 0.07176,-0.58661 -0.01116,-0.836882 -0.461074,-0.289259 -0.228994,0.200609 -1.032597,0.865697 -0.919203,0.710068 0.783811,-0.5519 1.846105,-1.794552 1.220855,-2.039447 -0.19437,0.166321 -0.434042,0.282668 -0.599998,0.478505 z M 23.840953,13.133932 c -1.126926,1.002874 -2.139964,2.118717 -3.272143,3.116099 -1.229468,1.363896 -2.628327,2.564176 -3.882662,3.908176 -2.161079,2.208029 -4.406369,4.348308 -6.543684,6.569793 0.180845,0.706778 -0.395641,2.767422 0.686817,1.453674 0.390743,-0.272414 1.681302,-1.55381 1.600917,-1.169502 -0.68669,0.985214 -1.85969,1.706008 -2.27825,2.824817 -0.0549,2.611248 -0.05312,5.246282 0.01305,7.845424 1.061098,-0.337812 1.887703,-1.828059 2.857416,-2.583303 1.595822,-1.637407 3.260181,-3.207375 4.780944,-4.915624 1.775313,-1.28431 2.894557,-3.27221 4.681268,-4.553111 2.46657,-2.415336 4.99583,-4.819617 7.327463,-7.3417 -0.813886,-0.530978 -1.297577,-1.412456 -2.097967,-2.078977 -0.517556,0.270541 -1.568474,1.557625 -0.721469,0.271146 0.745308,-0.86657 -0.0117,-0.161329 -0.417706,0.07059 0.891037,-0.645561 0.424245,-1.422802 -0.501945,-1.602553 0.0333,-0.835261 -0.918738,-1.136713 -1.230545,-1.193136 0.310739,-1.208434 -0.929812,0.267446 -0.692229,-0.734342 0.03885,-0.241911 -0.367233,-0.03414 -0.309274,0.112521 z m -7.442563,5.2022 c -2.071927,-2.024016 -4.106309,-4.087344 -6.170496,-6.118278 -0.4115753,0.264251 -0.122055,0.984293 -0.208844,1.447123 0.01813,0.853852 -0.036843,1.713754 0.02848,2.5637 0.387621,0.593493 0.597871,0.779963 0.06644,0.355997 0.276969,0.404044 0.359646,0.692509 -0.05697,0.118654 -0.2755031,0.58278 1.288268,1.922359 0.14832,0.886423 -0.3704495,-0.281486 -0.107339,0.854951 -0.186308,1.201448 0.02554,1.503539 -0.05094,3.029966 0.03798,4.519307 0.365579,0.2486 0.733022,1.135209 1.07236,0.408556 1.371427,-1.395397 2.800847,-2.752052 4.134586,-4.172558 -0.199128,-0.344731 -1.012339,-1.278232 -0.194592,-0.455667 0.45106,0.756032 0.864121,-0.296114 1.292208,-0.565989 0.05734,-0.08609 0.196941,-0.10262 0.03683,-0.188716 z m 20.580965,7.746341 c -1.847984,1.847983 -3.695968,3.695967 -5.543952,5.54395 0.555656,0.723426 1.357494,1.346115 1.997105,2.038983 1.399224,1.365662 2.746808,2.799878 4.187628,4.11252 0.509183,0.08563 0.210481,-0.936093 0.232568,-1.291055 -0.415474,-0.40137 -1.486208,-1.559998 -1.408755,-1.543439 0.506381,0.225636 1.723051,1.961535 1.522671,0.670362 0,-1.746819 0,-3.493638 0,-5.240457 -0.223277,-0.425562 -1.492212,-1.670229 -0.455666,-0.759445 0.689171,0.973135 0.39471,-0.414573 0.455675,-0.872787 0,-0.68369 0,-1.367382 0,-2.051072 -0.314178,-0.08507 -0.660577,-1.086804 -0.987274,-0.60756 z"/>
 <path style="fill:#f4f4f7" d="m 37.207187,18.892568 c 0.363648,-0.385027 0.916521,-0.718195 0.759445,-1.328816 -0.02374,-0.796232 0.04858,-1.603156 -0.03798,-2.392466 -1.461741,0.782277 0.38362,-1.129529 0.02372,-1.746724 -0.0051,-0.735095 0.323344,-3.076647 -0.747202,-1.658764 -2.310993,2.228157 -4.633884,4.450586 -6.75706,6.860964 -2.358505,2.03387 -4.429588,4.373104 -6.635949,6.561932 -1.7915,1.62672 -3.442266,3.404214 -5.173424,5.095552 -0.290268,0.915015 0.868661,1.610685 1.561607,2.354276 0.264577,0.703203 1.268792,1.780386 1.893861,1.936582 0.429281,-0.385745 1.789691,-1.821659 1.612634,-1.473202 -0.27684,0.570231 -1.625721,1.571607 -1.156966,1.852932 0.540894,-0.509238 -0.338379,0.543499 0.44202,0.626543 1.103511,1.734862 2.189519,-1.056898 3.209958,-1.612989 3.878613,-3.853183 7.784658,-7.678699 11.650842,-11.5444 0.236469,-0.754716 0.05876,-1.59825 0.113916,-2.391287 0.07176,-0.58661 -0.01116,-0.836882 -0.461074,-0.289259 -0.228994,0.200609 -1.032597,0.865697 -0.919203,0.710068 0.783811,-0.5519 1.846105,-1.794552 1.220855,-2.039447 -0.19437,0.166321 -0.434042,0.282668 -0.599998,0.478505 z M 23.840953,12.133505 c -1.126926,1.002874 -2.139964,2.118717 -3.272143,3.116099 -1.229468,1.363896 -2.628327,2.564176 -3.882662,3.908176 -2.161079,2.208029 -4.406369,4.348308 -6.543684,6.569793 0.180845,0.706778 -0.395641,2.767422 0.686817,1.453674 0.390743,-0.272414 1.681302,-1.55381 1.600917,-1.169502 -0.68669,0.985214 -1.85969,1.706008 -2.27825,2.824817 -0.0549,2.611248 -0.05312,5.246282 0.01305,7.845424 1.061098,-0.337812 1.887703,-1.828059 2.857416,-2.583303 1.595822,-1.637407 3.260181,-3.207375 4.780944,-4.915624 1.775313,-1.28431 2.894557,-3.27221 4.681268,-4.553111 2.46657,-2.415336 4.99583,-4.819617 7.327463,-7.3417 -0.813886,-0.530978 -1.297577,-1.412456 -2.097967,-2.078977 -0.517556,0.270541 -1.568474,1.557625 -0.721469,0.271146 0.745308,-0.86657 -0.0117,-0.161329 -0.417706,0.07059 0.891037,-0.645561 0.424245,-1.422802 -0.501945,-1.602553 0.0333,-0.835261 -0.918738,-1.136713 -1.230545,-1.193136 0.310739,-1.208434 -0.929812,0.267446 -0.692229,-0.734342 0.03885,-0.241911 -0.367233,-0.03414 -0.309274,0.112521 z m -7.442563,5.2022 c -2.071927,-2.024016 -4.106309,-4.087344 -6.170496,-6.118278 -0.4115753,0.264251 -0.122055,0.984293 -0.208844,1.447123 0.01813,0.853852 -0.036843,1.713754 0.02848,2.5637 0.387621,0.593493 0.597871,0.779963 0.06644,0.355997 0.276969,0.404044 0.359646,0.692509 -0.05697,0.118654 -0.2755031,0.58278 1.288268,1.922359 0.14832,0.886423 -0.3704495,-0.281486 -0.107339,0.854951 -0.186308,1.201448 0.02554,1.503539 -0.05094,3.029966 0.03798,4.519307 0.365579,0.2486 0.733022,1.135209 1.07236,0.408556 1.371427,-1.395397 2.800847,-2.752052 4.134586,-4.172558 -0.199128,-0.344731 -1.012339,-1.278232 -0.194592,-0.455667 0.45106,0.756032 0.864121,-0.296114 1.292208,-0.565989 0.05734,-0.08609 0.196941,-0.10262 0.03683,-0.188716 z m 20.580965,7.746341 c -1.847984,1.847983 -3.695968,3.695967 -5.543952,5.54395 0.555656,0.723426 1.357494,1.346115 1.997105,2.038983 1.399224,1.365662 2.746808,2.799878 4.187628,4.11252 0.509183,0.08563 0.210481,-0.936093 0.232568,-1.291055 -0.415474,-0.40137 -1.486208,-1.559998 -1.408755,-1.543439 0.506381,0.225636 1.723051,1.961535 1.522671,0.670362 0,-1.746819 0,-3.493638 0,-5.240457 -0.223277,-0.425562 -1.492212,-1.670229 -0.455666,-0.759445 0.689171,0.973135 0.39471,-0.414573 0.455675,-0.872787 0,-0.68369 0,-1.367382 0,-2.051072 -0.314178,-0.08507 -0.660577,-1.086804 -0.987274,-0.60756 z"/>
</svg>
