<svg width="48" height="48" version="1.1" xmlns="http://www.w3.org/2000/svg">
 <path d="m23.851562 5.0034083c-0.915427 0.04518-1.759992 0.50631-2.292968 1.2519532l-3.769532 5.2773435-4.964843-1.417969c-2.263167-0.6464744-4.3554595 1.445818-3.7089846 3.708985l1.4179686 4.964843-5.2773436 3.769532c-1.6751428 1.196586-1.6751428 3.686226 0 4.882812l5.2773436 3.769532-1.4179686 4.964843c-0.6464753 2.263168 1.4458166 4.35546 3.7089846 3.708985l4.964843-1.417969 3.769532 5.277344c1.196586 1.675143 3.686226 1.675143 4.882812 0l3.769532-5.277344 4.964843 1.417969c2.263168 0.646476 4.355461-1.445817 3.708985-3.708985l-1.417969-4.964843 5.277344-3.769532c1.675143-1.196586 1.675143-3.686226 0-4.882812l-5.277344-3.769532 1.417969-4.964843c0.646475-2.263168-1.445817-4.3554598-3.708985-3.708985l-4.964843 1.417969-3.769532-5.2773435c-0.593913-0.8309318-1.569741-1.3026559-2.589844-1.2519532z" style="opacity:.2"/>
 <path d="m23.851562 4.0039062c-0.915427 0.04518-1.759992 0.50631-2.292968 1.2519532l-3.769532 5.2773436-4.964843-1.4179686c-2.263167-0.6464749-4.3554595 1.4458176-3.7089846 3.7089846l1.4179686 4.964843-5.2773436 3.769532c-1.6751428 1.196586-1.6751428 3.686226 0 4.882812l5.2773436 3.769532-1.4179686 4.964843c-0.6464753 2.263168 1.4458166 4.35546 3.7089846 3.708985l4.964843-1.417969 3.769532 5.277344c1.196586 1.675143 3.686226 1.675143 4.882812 0l3.769532-5.277344 4.964843 1.417969c2.263168 0.646476 4.355461-1.445817 3.708985-3.708985l-1.417969-4.964843 5.277344-3.769532c1.675143-1.196586 1.675143-3.686226 0-4.882812l-5.277344-3.769532 1.417969-4.964843c0.646475-2.263168-1.445817-4.3554599-3.708985-3.7089846l-4.964843 1.4179686-3.769532-5.2773436c-0.593913-0.8309318-1.569741-1.3026559-2.589844-1.2519532z" style="fill:#b39360"/>
 <path d="m24.002244 7.0000041s-1.041709 0.6177468-1.411606 1.0816112c-0.400369 0.5020843-0.490397 1.1918387-0.803488 1.7529117-0.30075 0.538958-0.926778 0.930552-1.027327 1.539966-0.05856 0.354811 0.27818 1.042658 0.27818 1.042658l-1.001451 0.850487-0.403688 1.217948-0.539538 0.877756-0.470967 2.299559-1.81917 6.48967 0.728446 1.329616-0.662458 0.172695s-0.262102-0.211661-0.464495-0.190873c-0.189768 0.01949-0.558949 0.119458-0.558949 0.119458s-0.859704 0.30838-0.595179 1.385449c0.273502 1.113614 1.094606 1.124462 1.094606 1.124462s0.514425-0.156996 0.834544-0.286959c0.167993-0.0682 0.26136-0.477831 0.26136-0.477831l0.359695-0.114263c0.0061 0.0142 0.0053 0.03574 0.01293 0.04804 0.263299 0.422199 0.781196 0.779789 1.238226 0.585602 0.405912-0.172469 0.42107-0.760783 0.513662-1.193279 0.13893-0.648953 0.209608-1.980141 0.209608-1.980141s0.378296 1.504243 0.261359 2.25022c-0.105423 0.672529-0.844892 1.858087-0.844892 1.858087s0.80476 0.549488 1.289978 0.497307c0.17936 0.334163 0.147848 0.42034 0.155267 0.772579 0.0083 0.393508-0.428273 1.09979-0.428273 1.09979l0.66634 1.959367s0.174538 3.273111-0.190198 5.593735c-0.59239 0.446586-0.881871 0.9295-0.762085 1.338706 0.309945 0.537068 0.682239 0.951673 1.190357 0.955662 1.041748-0.639059 1.843654-0.67752 1.905858-1.481535 0.305804-3.952436 0.297589-9.602062 0.297589-9.602062s0.214419 0.112652 0.560241 0.14283v0.0091c0.0459 0.0023 0.08153-0.0043 0.124211-0.0051 0.04306 8.64e-4 0.07912 0.0075 0.12551 0.0051v-0.0091c0.345822-0.03018 0.561532-0.14283 0.561532-0.14283s-0.0082 5.649626 0.297589 9.602062c0.06221 0.804015 0.864117 0.842476 1.905864 1.481535 0.508119-4e-3 0.880407-0.418594 1.190351-0.955662 0.119786-0.409206-0.169695-0.89212-0.762085-1.338706-0.364735-2.320624-0.190197-5.593735-0.190197-5.593735l0.666342-1.959366s-0.436546-0.706282-0.428271-1.09979c0.0074-0.352239-0.02538-0.438416 0.153974-0.772579 0.485218 0.05219 1.289978-0.497307 1.289978-0.497307s-0.739468-1.185558-0.844892-1.858087c-0.116937-0.745977 0.261359-2.25022 0.261359-2.25022s0.07068 1.331188 0.209609 1.980141c0.09259 0.432496 0.107749 1.02081 0.513663 1.193279 0.457029 0.194187 0.974926-0.163403 1.238227-0.585602 0.142772-0.228939 0-0.810236 0-0.810236l0.269123-0.203859v-0.742715l0.741387-1.352989-1.819168-6.48967-0.470969-2.299559-0.539539-0.877756-0.403688-1.217948-1.00145-0.850487s0.33672-0.687847 0.278179-1.042658c-0.100548-0.60941-0.726577-1.001004-1.027326-1.539962-0.313092-0.561073-0.401821-1.2508274-0.80219-1.7529117-0.369898-0.4638644-1.411605-1.0816112-1.411605-1.0816112zm-8.108642 18.926254c0.271455 0.01077 0.568978 0.3392 0.711625 0.785565 0.165422 0.518081 0.06641 1.013137-0.221248 1.106282-0.28791 0.09295-0.655687-0.251725-0.821606-0.769983-0.166012-0.518692-0.06694-1.014685 0.221254-1.107581 0.03491-0.01111 0.07176-0.01591 0.109975-0.01428z" style="opacity:.1"/>
 <path d="m24.002244 6.000502s-1.041709 0.6177468-1.411606 1.0816112c-0.400369 0.5020843-0.490397 1.1918387-0.803488 1.7529118-0.30075 0.538958-0.926778 0.930552-1.027327 1.539966-0.05856 0.354811 0.27818 1.042658 0.27818 1.042658l-1.001451 0.850487-0.403688 1.217948-0.539538 0.877756-0.470967 2.299559-1.81917 6.48967 0.728446 1.329616-0.662458 0.172695s-0.262102-0.211661-0.464495-0.190873c-0.189768 0.01949-0.558949 0.119458-0.558949 0.119458s-0.859704 0.30838-0.595179 1.385449c0.273502 1.113614 1.094606 1.124462 1.094606 1.124462s0.514425-0.156996 0.834544-0.286959c0.167993-0.0682 0.26136-0.477831 0.26136-0.477831l0.359695-0.114263c0.0061 0.0142 0.0053 0.03574 0.01293 0.04804 0.263299 0.422199 0.781196 0.779789 1.238226 0.585602 0.405912-0.172469 0.42107-0.760783 0.513662-1.193279 0.13893-0.648953 0.209608-1.980141 0.209608-1.980141s0.378296 1.504243 0.261359 2.25022c-0.105423 0.672529-0.844892 1.858087-0.844892 1.858087s0.80476 0.549488 1.289978 0.497307c0.17936 0.334163 0.147848 0.42034 0.155267 0.772579 0.0083 0.393508-0.428273 1.09979-0.428273 1.09979l0.66634 1.959367s0.174538 3.273111-0.190198 5.593735c-0.59239 0.446586-0.881871 0.9295-0.762085 1.338706 0.309945 0.537068 0.682239 0.951673 1.190357 0.955662 1.041748-0.639059 1.843654-0.67752 1.905858-1.481535 0.305804-3.952436 0.297589-9.602062 0.297589-9.602062s0.214419 0.112652 0.560241 0.14283v0.0091c0.0459 0.0023 0.08153-0.0043 0.124211-0.0051 0.04306 8.64e-4 0.07912 0.0075 0.12551 0.0051v-0.0091c0.345822-0.03018 0.561532-0.14283 0.561532-0.14283s-0.0082 5.649626 0.297589 9.602062c0.06221 0.804015 0.864117 0.842476 1.905864 1.481535 0.508119-4e-3 0.880407-0.418594 1.190351-0.955662 0.119786-0.409206-0.169695-0.89212-0.762085-1.338706-0.364735-2.320624-0.190197-5.593735-0.190197-5.593735l0.666342-1.959366s-0.436546-0.706282-0.428271-1.09979c0.0074-0.352239-0.02538-0.438416 0.153974-0.772579 0.485218 0.05219 1.289978-0.497307 1.289978-0.497307s-0.739468-1.185558-0.844892-1.858087c-0.116937-0.745977 0.261359-2.25022 0.261359-2.25022s0.07068 1.331188 0.209609 1.980141c0.09259 0.432496 0.107749 1.02081 0.513663 1.193279 0.457029 0.194187 0.974926-0.163403 1.238227-0.585602 0.142772-0.228939 0-0.810236 0-0.810236l0.269123-0.203859v-0.742715l0.741387-1.352989-1.819168-6.48967-0.470969-2.299559-0.539539-0.877756-0.403688-1.217948-1.00145-0.850487s0.33672-0.687847 0.278179-1.042658c-0.100548-0.60941-0.726577-1.001004-1.027326-1.539962-0.313092-0.5610731-0.401821-1.2508275-0.80219-1.7529118-0.369898-0.4638644-1.411605-1.0816112-1.411605-1.0816112zm-8.108642 18.926254c0.271455 0.01077 0.568978 0.3392 0.711625 0.785565 0.165422 0.518081 0.06641 1.013137-0.221248 1.106282-0.28791 0.09295-0.655687-0.251725-0.821606-0.769983-0.166012-0.518692-0.06694-1.014685 0.221254-1.107581 0.03491-0.01111 0.07176-0.01591 0.109975-0.01428z" style="fill:#3f3f3f"/>
 <path d="m23.851562 4.0039062c-0.915427 0.0451801-1.759992 0.50631-2.292968 1.2519532l-3.769532 5.2773436-4.964843-1.4179686c-2.150483-0.6142867-4.1424368 1.2447816-3.7812502 3.3730466 0.2874637-1.663281 1.9780962-2.8881182 3.7812502-2.373047l4.964843 1.417969 3.769532-5.2773436c0.532976-0.7456432 1.377541-1.2067731 2.292968-1.2519532 1.020104-0.0507027 1.995931 0.4210214 2.589844 1.2519532l3.769532 5.2773436 4.964843-1.417969c1.803155-0.5150715 3.493787 0.709765 3.78125 2.373047 0.361187-2.128266-1.630766-3.9873337-3.78125-3.3730466l-4.964843 1.4179686-3.769532-5.2773436c-0.593913-0.8309318-1.56974-1.3026559-2.589844-1.2519532zm-13.554687 13.955078-5.0410156 3.59961c-0.9902793 0.707375-1.3797687 1.864534-1.1992188 2.941406 0.1245936-0.745265 0.513927-1.451889 1.1992188-1.941406l5.2773436-3.769532-0.236328-0.830078zm27.40625 0-0.236328 0.830078 5.277344 3.769532c0.685291 0.489517 1.074625 1.196141 1.199218 1.941406 0.18055-1.076872-0.208939-2.234031-1.199218-2.941406l-5.041016-3.59961zm-27.40625 13.082032-1.1816406 4.134765c-0.131403 0.460013-0.1456021 0.911609-0.0722656 1.335938 0.0189259-0.11152 0.0400773-0.223254 0.0722656-0.335938l1.4179686-4.964843-0.236328-0.169922zm27.40625 0-0.236328 0.169922 1.417969 4.964843c0.032188 0.112684 0.053339 0.224418 0.072265 0.335938 0.073337-0.42433 0.059138-0.875925-0.072265-1.335938l-1.181641-4.134765z" style="fill:#f4f4f7;opacity:.2"/>
</svg>
