<svg width="48" height="48" version="1.1" xmlns="http://www.w3.org/2000/svg">
 <g transform="matrix(2,0,0,2,2,2)">
  <path d="m1 4.5v14.5c0 0.5544 0.445625 1 1 1h18.0005c0.554 0 0.9995-0.4455 0.9995-1v-14.5z" style="fill:#c7c7c7"/>
  <path d="M 2,2 C 1.4456,2 1,2.44575 1,2.99975 V 5 H 21 V 2.99975 C 21,2.44575 20.5545,2 20,2 Z" style="fill:#5294e2"/>
  <path d="m2 2c-0.5544 0-1 0.446-1 1v0.5c0-0.554 0.4456-1 1-1h18c0.5544 0 1 0.446 1 1v-0.5c0-0.554-0.4455-1-1-1z" style="fill:#f4f4f7;opacity:.1"/>
  <path d="m1 19v0.5c0 0.5544 0.445625 1 1 1h18.001c0.5535 0 0.999-0.4455 0.999-1v-0.5c0 0.5544-0.445275 1-0.999 1h-18.001c-0.5544 0-1-0.4455-1-1z" style="opacity:.2"/>
  <rect x="6" y="8.5" width="7" height="10" style="opacity:.1"/>
  <rect x="6" y="8" width="7" height="10" style="fill:#f4b801"/>
  <path d="m8 7.5v5c0 3 3 4 3 4h7s-3-1-3-4v-5z" style="opacity:.2"/>
  <path d="m8 7v5c0 3 3 4 3 4h7s-3-1-3-4v-5z" style="fill:#fecd38"/>
 </g>
 <circle cx="36" cy="36" r="11" style="opacity:.2"/>
 <circle cx="36" cy="35" r="11" style="fill:#333333"/>
 <path d="m36 30.000001s-0.70875-0.014-1.44727 0.3555c-0.73851 0.3692-1.55273 1.3112-1.55273 2.6445h2c0-1 1-1 1-1s1 0 1 1c0 0.5278-0.1396 0.8229-0.40625 1.1562-0.26665 0.3334-0.69336 0.668-1.19336 1.043s-1.07329 0.7904-1.55664 1.3946c-0.48335 0.6041-0.84375 1.434-0.84375 2.4062v0.999999h6v-1.999999h-3.64844c0.0313-0.044 0.0187-0.1112 0.0547-0.1562 0.26665-0.3334 0.69336-0.668 1.19336-1.043s1.07329-0.7904 1.55664-1.3946c0.48335-0.6041 0.84375-1.434 0.84375-2.4062 0-1.3333-0.81422-2.2753-1.55273-2.6445-0.73853-0.3693-1.44728-0.3555-1.44728-0.3555z" style="fill-rule:evenodd;fill:#f4f4f7"/>
</svg>
