<svg xmlns="http://www.w3.org/2000/svg" height="48" width="48" version="1.1">
 <path style="opacity:.2" d="m8 5-4 3 4 3 1-1v-1h30v1l1 1 4-3-4-3-1 1v1h-30v-1z"/>
 <path style="fill:#4f4f4f" d="m8 4-4 3 4 3 1-1v-1h30v1l1 1 4-3-4-3-1 1v1h-30v-1z"/>
 <path style="opacity:.1;fill:#f4f4f7" d="m8 4l-4 3 0.6660156 0.5 3.3339844-2.5 1 1v-1l-1-1zm1 2v1h30v-1h-30zm30 0l1-1 3.333984 2.5 0.666016-0.5-4-3-1 1v1z"/>
 <path style="opacity:.2" d="m10 6h4v4h4v-4h4v4h4v-4h4v4h4v-4h4v31l-14 8-14-8z"/>
 <path style="fill:#df1e3a" d="m10 5h4v4h4v-4h4v4h4v-4h4v4h4v-4h4v31l-14 8-14-8z"/>
 <path style="opacity:.2" d="m18 14v4h12v-4h-2v2h-2v-2h-4v2h-2v-2zm2 5v2h8v-2zm0 3v15h3v-5s0-1 1-1 1 1 1 1v5h3v-15zm3 2h2v4h-2z"/>
 <path style="fill:#f4f4f7" d="m18 13v4h12v-4h-2v2h-2v-2h-4v2h-2v-2h-2zm2 5v2h8v-2h-8zm0 3v15h3v-5s0-1 1-1 1 1 1 1v5h3v-15h-8zm3 2h2v4h-2v-4z"/>
 <path style="opacity:.2;fill:#f4f4f7" d="m10 5v1h4v-1h-4zm8 0v1h4v-1h-4zm8 0v1h4v-1h-4zm8 0v1h4v-1h-4zm-20 4v1h4v-1h-4zm8 0v1h4v-1h-4zm8 0v1h4v-1h-4z"/>
</svg>
