<svg xmlns="http://www.w3.org/2000/svg" width="48" height="48" version="1">
 <path style="fill:#848484" d="m24 14a10 10 0 0 0 -10 10 10 10 0 0 0 10 10 10 10 0 0 0 10 -10 10 10 0 0 0 -10 -10zm0 6c2.209 0 4 1.791 4 4s-1.791 4-4 4-4-1.791-4-4c0-2.2091 1.7909-4 4-4z"/>
 <path style="fill:#b2bfd9" d="m24 4c-11.08 0-20 8.92-20 20s8.92 20 20 20 20-8.92 20-20-8.92-20-20-20zm0 12a8 8 0 0 1 8 8 8 8 0 0 1 -8 8 8 8 0 0 1 -8 -8 8 8 0 0 1 8 -8z"/>
 <path fill="#fff" opacity=".2" d="m24 4c11.07 0 19.982 8.92 19.982 20 0 0.16787-0.008 0.33314-0.01169 0.5-0.264-10.846-9.068-19.5-19.97-19.5s-19.706 8.654-19.97 19.5c-0.004-0.16686-0.011689-0.33213-0.011689-0.5 0-11.08 8.9119-20 19.982-20zm3.9456 20.5c0.02088 0.16551 0.05075 0.32883 0.05075 0.5 0 2.2091-1.7892 4-3.9963 4s-3.9963-1.7909-3.9963-4c0-0.17117 0.02987-0.33449 0.05075-0.5 0.24818 1.9706 1.9095 3.5 3.9456 3.5s3.6974-1.5294 3.9456-3.5z"/>
 <path opacity=".2" d="m4.0118 24.5c-0.0041 0.167-0.0117 0.332-0.0117 0.5 0 11.08 8.92 20 20 20s20-8.92 20-20c0-0.168-0.008-0.333-0.012-0.5-0.264 10.846-9.076 19.5-19.988 19.5s-19.724-8.654-19.988-19.5z"/>
 <circle opacity=".2" cx="36" cy="37" r="11"/>
 <circle style="fill:#20bba3" cx="36" cy="36" r="11"/>
 <path style="fill:#f4f4f7" class="ColorScheme-Text" d="m 37,30.5 6,4.5 -6,4.5 V 37 h -1.5 c -1.3649,0 -2.5716,0.873351 -2.9375,2 C 32.12487,40.3475 34,43 34,43 34,43 30,41.5 30,38.25 30,35.1265 32,33 35,33 h 2 z"/>
</svg>
