<svg xmlns="http://www.w3.org/2000/svg" width="48" height="48" version="1.1">
 <path style="opacity:0.2" d="m 40.001367,38 h -28.7885 C 9.439917,37.98858 8.007087,36.552563 8.001407,34.781392 V 12.711848 c -0.01,1.867698 1.56432,3.40265 3.43043,3.288152 h 23.87746 c 0,0 4.69207,-0.454943 4.69207,3.076152 z"/>
 <path style="fill:#0a455f" d="m 19.906907,9 h -8.70934 A 3.2065239,3.0048461 0 0 0 8.001397,12.004847 3.1030877,2.9079156 0 0 0 11.104487,15 h 8.89551 z"/>
 <path style="opacity:0.1" d="M 11.197263,9 A 3.2065239,3.0048461 0 0 0 8.0019501,12.003906 3.1030877,2.9079156 0 0 0 8.0410126,12.550781 3.2065239,3.0048461 0 0 1 11.197263,10 h 8.708984 l 0.07813,5 h 0.01562 l -0.09375,-6 z"/>
 <path style="opacity:0.2" d="m 17.511719,5 a 0.50005,0.50005 0 0 0 -0.433594,0.7695312 l 1.691406,2.71875 A 10,10 0 0 0 14,17 10,10 0 0 0 24,27 10,10 0 0 0 34,17 10,10 0 0 0 29.228516,8.4902344 L 30.921875,5.7695312 A 0.50005,0.50005 0 0 0 30.488281,5 0.50005,0.50005 0 0 0 30.074219,5.2421875 L 28.351562,8.0097656 A 10,10 0 0 0 24,7 10,10 0 0 0 19.646484,8.0058594 L 17.925781,5.2421875 A 0.50005,0.50005 0 0 0 17.511719,5 Z"/>
 <path style="fill:#3ddc84" d="m 17.511719,4 a 0.50005,0.50005 0 0 0 -0.433594,0.7695312 l 1.691406,2.71875 A 10,10 0 0 0 14,16 10,10 0 0 0 24,26 10,10 0 0 0 34,16 10,10 0 0 0 29.228516,7.4902344 L 30.921875,4.7695312 A 0.50005,0.50005 0 0 0 30.488281,4 0.50005,0.50005 0 0 0 30.074219,4.2421875 L 28.351562,7.0097656 A 10,10 0 0 0 24,6 10,10 0 0 0 19.646484,7.0058594 L 17.925781,4.2421875 A 0.50005,0.50005 0 0 0 17.511719,4 Z"/>
 <path style="opacity:0.2;fill:#f4f4f7" d="m 17.511719,4 a 0.50005,0.50005 0 0 0 -0.433594,0.7695312 l 0.181641,0.2910157 A 0.50005,0.50005 0 0 1 17.511719,5 0.50005,0.50005 0 0 1 17.925781,5.2421875 l 1.720703,2.7636719 A 10,10 0 0 1 24,7 10,10 0 0 1 28.351562,8.0097656 L 30.074219,5.2421875 A 0.50005,0.50005 0 0 1 30.488281,5 0.50005,0.50005 0 0 1 30.740234,5.0605469 L 30.921875,4.7695312 A 0.50005,0.50005 0 0 0 30.488281,4 0.50005,0.50005 0 0 0 30.074219,4.2421875 L 28.351562,7.0097656 A 10,10 0 0 0 24,6 10,10 0 0 0 19.646484,7.0058594 L 17.925781,4.2421875 A 0.50005,0.50005 0 0 0 17.511719,4 Z m 0.822265,3.7871094 A 10,10 0 0 0 14,16 a 10,10 0 0 0 0.02539,0.484375 10,10 0 0 1 4.74414,-7.9960938 z m 11.332032,0 -0.4375,0.703125 a 10,10 0 0 1 4.75,8.0957036 A 10,10 0 0 0 34,16 10,10 0 0 0 29.666016,7.7871094 Z"/>
 <path style="fill:#4285f4" d="m 40.001367,37 h -28.7885 C 9.439917,36.98858 8.007087,35.552563 8.001407,33.781392 V 11.711848 c -0.01,1.867698 1.56432,3.40265 3.43043,3.288152 h 23.87746 c 0,0 4.69207,-0.454943 4.69207,3.076152 z"/>
 <path style="fill:#073042" d="m 24.748997,22.500499 a 1.7294399,1.7499089 0 1 0 0.66362,3.357384 1.7193851,1.7397351 0 0 0 -0.66362,-3.357384 z"/>
 <path style="opacity:0.1" d="m 23.984377,20.000205 a 1.0001,0.99313899 0 0 0 -0.98438,1.005859 v 1.169922 a 3,3 0 0 0 -2,2.824219 3,3 0 0 0 1.08008,2.300781 l -6.91016,14.44336 c -0.26286,0.50833 -0.21746,1.112743 0.11914,1.580078 0.34151,0.462965 0.91537,0.717439 1.50782,0.669922 0.59264,-0.05414 1.10791,-0.410482 1.3457,-0.929688 l 4.62305,-9.34375 c 0.22298,-0.434124 0.68541,-0.718685 1.19335,-0.720703 0.0142,-4.2e-5 0.0269,0.0055 0.041,0.0059 0.0141,-4e-4 0.0268,-0.0059 0.041,-0.0059 0.50794,0.002 0.97037,0.286579 1.19336,0.720703 l 4.62304,9.34375 c 0.23779,0.519206 0.75306,0.875548 1.34571,0.929688 0.59245,0.04752 1.1663,-0.206957 1.50781,-0.669922 0.3366,-0.467335 0.382,-1.071748 0.11914,-1.580078 l -6.9082,-14.439453 a 3,3 0 0 0 1.07816,-2.304688 3,3 0 0 0 -2,-2.826172 v -1.167969 a 1.0001,0.99313899 0 0 0 -1.01562,-1.005859 z m 0.0156,3 a 2,2 0 0 1 2,2 2,2 0 0 1 -2,2 2,2 0 0 1 -2,-2 2,2 0 0 1 2,-2 z"/>
 <path style="fill:#0a455f" d="m 23.984372,19.000205 a 1.0001,0.99313899 0 0 0 -0.984375,1.005859 v 1.169922 a 3,3 0 0 0 -2,2.824219 3,3 0 0 0 1.080078,2.300781 l -6.910156,14.44336 c -0.26286,0.50833 -0.217458,1.112743 0.11914,1.580078 0.341512,0.462965 0.915363,0.717439 1.507813,0.669922 0.59264,-0.05414 1.107913,-0.410482 1.345703,-0.929688 l 4.623047,-9.34375 c 0.22299,-0.434124 0.685419,-0.718685 1.193359,-0.720703 0.01415,-4.2e-5 0.02694,0.0055 0.04102,0.0059 0.0141,-4e-4 0.02682,-0.0059 0.04102,-0.0059 0.50794,0.002 0.970369,0.286579 1.193359,0.720703 l 4.623047,9.34375 c 0.23779,0.519206 0.753063,0.875548 1.345703,0.929688 0.59245,0.04752 1.166303,-0.206957 1.507813,-0.669922 0.336598,-0.467335 0.382,-1.071748 0.11914,-1.580078 L 25.921872,26.304893 a 3,3 0 0 0 1.078125,-2.304688 3,3 0 0 0 -2,-2.826172 v -1.167969 a 1.0001,0.99313899 0 0 0 -1.015625,-1.005859 z m 0.01563,3 a 2,2 0 0 1 2,2 2,2 0 0 1 -2,2 2,2 0 0 1 -2,-2 2,2 0 0 1 2,-2 z"/>
 <path style="opacity:0.2" d="m 20.048827,10.999726 a 0.96727454,0.97228177 0 0 0 -0.76367,0.355469 0.95533287,0.96027828 0 0 0 0.67968,1.644531 0.9433912,0.94827479 0 0 0 0.68164,-0.275391 0.96727454,0.97228177 0 0 0 -0.59765,-1.724609 z m 7.9707,0 a 1.0006939,1.0095172 0 0 0 -0.72461,0.292969 0.98833965,0.99705402 0 0 0 0.7168,1.707031 0.98833965,0.99705402 0 0 0 0.98828,-0.996094 1.0006939,1.0095172 0 0 0 -0.98047,-1.003906 z"/>
 <path style="fill:#f4f4f7" d="m 28.011657,12 a 0.98833965,0.99705402 0 0 1 -0.71653,-1.707453 1.0006939,1.0095172 0 0 1 1.70487,0.710401 A 0.98833965,0.99705402 0 0 1 28.011657,12"/>
 <path style="fill:#f4f4f7" d="m 19.965727,12 a 0.95533287,0.96027828 0 0 1 -0.68067,-1.644475 0.96727454,0.97228177 0 1 1 1.36137,1.368396 A 0.9433912,0.94827479 0 0 1 19.965727,12"/>
 <path style="opacity:0.2" d="m 37.352247,22 h -1.20095 c -0.0836,0 -0.1513,0.05633 -0.1513,0.147937 v 20.686189 c -1.6e-4,0.08771 0.062,0.160396 0.14185,0.165874 h 1.23877 c 1.44817,-0.0057 2.61939,-1.294389 2.61938,-2.882073 V 19 c 4e-5,1.599857 -1.1885,3.011509 -2.64775,3 z"/>
 <path style="fill:#0a455f" d="m 37.352247,21 h -1.20095 c -0.0836,0 -0.1513,0.05633 -0.1513,0.147937 v 20.686189 c -1.6e-4,0.08771 0.062,0.160396 0.14185,0.165874 h 1.23877 c 1.44817,-0.0057 2.61939,-1.294389 2.61938,-2.882073 V 18 c 4e-5,1.599857 -1.1885,3.011509 -2.64775,3 z"/>
</svg>
