<svg xmlns="http://www.w3.org/2000/svg" width="48" height="48" version="1.1">
 <path style="opacity:0.2" d="m 24.111607,4.9999983 c -0.700636,0.00762 -1.374753,0.048059 -1.977458,0.1374195 -2.225625,0.3737353 -4.424681,1.2244464 -6.321686,2.185681 C 10.1388,10.244909 3.8857316,17.560349 4.0015871,23.074219 l 0.010683,-0.0095 c 0.00361,0.193864 0.039751,0.423363 0.1068257,0.685912 0.1806362,0.707058 0.5846917,1.650357 1.1774528,2.764976 1.1855217,2.229239 3.1245925,5.141539 5.5371144,8.208447 3.692837,4.694505 7.423446,8.391145 9.512202,9.567242 l 0.0024,0.0012 c 1.46698,0.964096 2.739816,0.708738 3.186956,0.569816 1.477774,-0.267874 4.767388,-2.400995 8.795287,-5.837959 5.803917,-4.95242 10.959639,-10.752121 11.58343,-13.020499 l 0.02255,0.03791 C 44.90433,16.87717 34.51054,9.2755835 33.178705,8.2968818 30.724114,6.2388954 27.561991,4.9999983 24.111607,4.9999983 Z"/>
 <path style="fill:#0060d6" d="M 24.111607,3.9999995 C 23.410971,4.0076163 22.736854,4.0480589 22.134149,4.137419 19.908524,4.5111543 17.709468,5.3618654 15.812463,6.3231 10.1388,9.24491 3.8857316,16.56035 4.0015871,22.07422 l 0.010683,-0.0095 c 0.00361,0.193864 0.039751,0.423363 0.1068257,0.685912 0.1806362,0.707058 0.5846917,1.650357 1.1774528,2.764976 1.1855217,2.229239 3.1245925,5.141539 5.5371144,8.208447 3.692837,4.694505 7.423446,8.391145 9.512202,9.567242 l 0.0024,0.0012 c 1.46698,0.964096 2.739816,0.708738 3.186956,0.569816 1.477774,-0.267874 4.767388,-2.400995 8.795287,-5.837959 5.803917,-4.95242 10.959639,-10.752121 11.58343,-13.020499 l 0.02255,0.03791 C 44.90433,15.877171 34.51054,8.2755847 33.178705,7.296883 30.724114,5.2388966 27.561991,3.9999995 24.111607,3.9999995 Z"/>
 <path style="fill:#f4f4f7;opacity:0.1" d="M 24.111328 4 C 23.410692 4.0076168 22.737471 4.0473587 22.134766 4.1367188 C 19.909141 4.510454 17.709505 5.361031 15.8125 6.3222656 C 10.138837 9.2440756 3.8860976 16.560349 4.0019531 22.074219 L 4.0117188 22.064453 C 4.0127161 22.118011 4.0350862 22.194963 4.0410156 22.253906 C 4.5052469 16.855611 10.415144 10.101784 15.8125 7.3222656 C 17.709505 6.361031 19.909141 5.510454 22.134766 5.1367188 C 22.737471 5.0473583 23.410692 5.00762 24.111328 5 C 27.561712 5 30.723143 6.2388886 33.177734 8.296875 C 34.423989 9.212688 43.604579 15.928684 43.986328 24.296875 C 44.340328 15.468468 34.473284 8.2489123 33.177734 7.296875 C 30.723143 5.2388886 27.561712 4 24.111328 4 z"/>
 <path style="opacity:0.15;fill:#f4f4f7" d="m 24.408061,4.0059236 a 14,13.958443 0 0 0 -14.407807,13.9515514 14,13.958443 0 1 0 27.999492,0 A 14,13.958443 0 0 0 24.408061,4.0059236 Z"/>
 <path style="opacity:0.15;fill:#f4f4f7" d="M 4.6349301,21.339844 A 14.136451,2.4662196 51.519796 0 0 10.834592,33.724609 14.136451,2.4662196 51.519796 1 0 15.204045,31.298828 14.136451,2.4662196 51.519796 0 0 4.6349301,21.339844 Z"/>
 <path style="opacity:0.15;fill:#f4f4f7" d="M 43.342775,24.091797 A 2.3476858,14.343044 47.18196 0 0 22.741693,43.027344 2.3476858,14.343044 47.18196 1 0 43.928754,24.949219 2.3476858,14.343044 47.18196 0 0 43.342775,24.091797 Z"/>
 <g style="font-size:6.73961735px;line-height:125%;font-family:Monospace;letter-spacing:0px;word-spacing:0px;opacity:0.2" transform="matrix(0.66512889,0.7586351,-0.73870053,0.68307819,0.1376164,0.8877943)">
  <path d="m 21.291758,-14.698858 h 16.301451 v 3.447472 H 31.728952 V 2.9886901 H 27.167863 V -11.251386 h -5.876105 z"/>
 </g>
 <g style="font-size:6.73961735px;line-height:125%;font-family:Monospace;letter-spacing:0px;word-spacing:0px;fill:#f4f4f7" transform="matrix(0.66512889,0.7586351,-0.73870053,0.68307819,0.1376164,-0.1122057)">
  <path style="fill:#f4f4f7" d="m 21.291758,-14.698858 h 16.301451 v 3.447472 H 31.728952 V 2.9886901 H 27.167863 V -11.251386 h -5.876105 z"/>
 </g>
 <g style="font-size:2.85384536px;line-height:125%;font-family:Monospace;letter-spacing:0px;word-spacing:0px;fill:#f4f4f7" transform="matrix(1.4617595,1.8119948,-0.05300002,0.61840833,0,0)">
  <path style="fill:#f4f4f7" d="m 6.6472733,20.51031 h 1.9313615 v 6.029861 h 3.3911702 v 1.459808 H 6.6472733 Z"/>
 </g>
 <g style="font-size:2.20785069px;line-height:125%;font-family:Monospace;letter-spacing:0px;word-spacing:0px;fill:#f4f4f7" transform="matrix(1.9218947,-1.7548377,-0.18683803,0.69091736,0,0)">
  <path style="fill:#f4f4f7" d="m 32.484429,126.84921 q -0.558862,0.27167 -1.160415,0.4075 -0.601553,0.13584 -1.241916,0.13584 -1.447608,0 -2.293664,-0.80725 -0.846055,-0.81112 -0.846055,-2.19664 0,-1.40103 0.861579,-2.2044 0.861579,-0.80336 2.359641,-0.80336 0.578267,0 1.106081,0.10867 0.531695,0.10866 1.001295,0.32212 v 1.19922 q -0.485124,-0.27555 -0.966366,-0.41138 -0.477362,-0.13584 -0.958604,-0.13584 -0.892627,0 -1.377751,0.50065 -0.481242,0.49677 -0.481242,1.42432 0,0.9198 0.465719,1.42044 0.465718,0.50065 1.323416,0.50065 0.232859,0 0.43079,-0.0272 0.201811,-0.031 0.360932,-0.0931 v -1.12549 h -0.912032 v -1.00129 h 2.328592 z"/>
 </g>
</svg>
