<svg width="48" height="48" version="1.1" xmlns="http://www.w3.org/2000/svg">
 <circle cx="24" cy="25" r="20" style="opacity:.2"/>
 <circle cx="24" cy="24" r="20" style="fill:#3f3f3f"/>
 <path d="M 24,4 A 20,20 0 0 0 4,24 20,20 0 0 0 4.0215,24.582 20,20 0 0 1 24,5 20,20 0 0 1 43.979,24.418 20,20 0 0 0 44,24 20,20 0 0 0 24,4 Z" style="fill:#f4f4f7;opacity:.1"/>
 <path d="m26 9.14025v11.279297a5 5 0 0 1 2.576172 2.580078h11.277344a16 16 0 0 0-13.853516-13.859375zm-4 0.00586a16 16 0 0 0-13.859375 13.853515h11.279297a5 5 0 0 1 2.580078-2.576172zm-13.853516 17.853515a16 16 0 0 0 13.853516 13.859375v-11.279297a5 5 0 0 1-2.576172-2.580078zm20.433594 0a5 5 0 0 1-2.580078 2.576172v11.277344a16 16 0 0 0 13.859375-13.853516z" style="opacity:.2"/>
 <path d="m26 8.140625v11.279297a5 5 0 0 1 2.576172 2.580078h11.277344a16 16 0 0 0-13.853516-13.859375zm-4 0.0058594a16 16 0 0 0-13.859375 13.853516h11.279297a5 5 0 0 1 2.580078-2.576172v-11.277344zm-13.853516 17.853516a16 16 0 0 0 13.853516 13.859375v-11.279297a5 5 0 0 1-2.576172-2.580078h-11.277344zm20.433594 0a5 5 0 0 1-2.580078 2.576172v11.277344a16 16 0 0 0 13.859375-13.853516h-11.279297z" style="fill:#e2b322"/>
 <path d="m26 8.140625v1a16 16 0 0 1 13.675781 12.859375h0.177735a16 16 0 0 0-13.853516-13.859375zm-4 0.0058594a16 16 0 0 0-13.859375 13.853516h0.1796875a16 16 0 0 1 13.679688-12.853516v-1zm-13.853516 17.853516a16 16 0 0 0 0.1777344 1h11.099609a5 5 0 0 0 2.576172 2.580078v-1a5 5 0 0 1-2.576172-2.580078h-11.277344zm20.433594 0a5 5 0 0 1-2.580078 2.576172v1a5 5 0 0 0 2.580078-2.576172h11.09961a16 16 0 0 0 0.179687-1h-11.279297z" style="fill:#f4f4f7;opacity:.2"/>
</svg>
