<svg xmlns="http://www.w3.org/2000/svg" width="48" height="48" version="1">
 <circle style="opacity:0.2" cx="24" cy="25" r="20"/>
 <circle style="fill:#4eabab" cx="24" cy="24" r="20"/>
 <path style="opacity:0.2;fill:#f4f4f7" d="M 24 4 A 20 20 0 0 0 4 24 A 20 20 0 0 0 4.0214844 24.582031 A 20 20 0 0 1 24 5 A 20 20 0 0 1 43.978516 24.417969 A 20 20 0 0 0 44 24 A 20 20 0 0 0 24 4 z"/>
 <path style="opacity:0.2" d="m 28.613454,35.985857 c -0.165989,-1.652753 -1.067448,-3.145341 -1.74038,-4.643602 -1.054887,-2.584547 -2.043376,-5.203149 -2.917491,-7.853325 -0.300336,-0.918627 -0.248672,-2.550077 0.767501,-1.19077 1.688543,0.01572 3.417218,0.459228 3.66353,2.428405 0.517609,0.732606 0.761005,3.814951 1.663605,1.818117 0.962056,-1.523321 1.219992,-3.37953 2.147502,-4.903306 0.759242,-1.647475 2.568406,-1.577581 4.077207,-1.273429 -0.588835,1.968079 -1.483537,3.872989 -1.903631,5.9074 -0.492,1.852437 -1.489713,3.527288 -2.124496,5.336997 -0.754088,1.529119 -1.626701,3.149527 -3.018416,4.183127 -0.197939,0.05637 -0.394581,0.259402 -0.614931,0.190386 z m -4.767693,-1.460045 c -0.761497,-1.145211 -1.091169,-2.700501 -1.882193,-3.723609 -1.283863,-0.182159 -2.538359,-0.0052 -2.50273,1.600603 -0.172206,1.623837 -1.825246,2.077184 -3.177607,1.581602 -1.574611,-0.266311 0.994315,-2.88056 -0.520896,-3.201102 -0.3334,-0.663584 0.225132,-2.168236 1.30175,-2.006297 1.072999,-2.645136 1.56165,-5.573501 3.217335,-7.962106 0.427951,-0.07381 2.472143,-1.0343 1.25319,0.155255 -0.748318,1.223804 0.320662,2.505867 0.776298,3.618326 0.905637,1.486893 1.33025,3.301156 2.526423,4.590505 1.099096,0.590647 -0.221225,1.780201 0.847647,2.641653 0.419875,0.811259 1.076859,1.57649 -0.271757,1.570691 -0.578778,0.273429 -0.888701,1.150911 -1.56746,1.134479 z m -2.624275,-5.731666 c -0.119492,-0.923997 -0.858153,-1.46499 -0.851112,-0.15245 -0.08582,0.368528 0.657292,0.133729 0.851112,0.15245 z m 15.536124,5.494959 c -0.697493,-0.569806 -1.573051,-0.559231 -2.186166,-0.490238 0.04704,-1.650927 1.325551,-2.935675 1.28097,-4.639576 0.07344,-1.596127 0.816536,-3.298649 0.29044,-4.849697 -0.83854,-0.905319 1.051784,-2.309915 1.058716,-3.519583 2.349677,1.147502 5.044344,-0.488241 7.421365,0.58658 0.841959,0.404873 2.249404,1.776839 0.641989,1.359571 -0.697879,1.131878 -1.40646,2.216229 -2.868298,1.511479 -1.373531,0.112318 -2.979929,0.0262 -2.692419,1.901643 0.561845,1.11231 3.532882,-0.308881 3.409573,1.901316 1.21682,1.223217 -2.564114,0.615276 -3.325643,1.00755 -1.194435,0.220109 -0.854049,2.201429 0.527051,1.589957 1.421748,0.224626 3.685412,-0.118356 4.640609,0.391829 -1.267181,0.885361 -0.669822,3.493464 -2.909356,3.052543 -1.759853,0.128113 -3.525736,0.166151 -5.288831,0.196626 z M 7.7706047,34.079113 C 5.6805379,33.891887 3.7730557,32.620685 2.7775991,30.788856 1.9814612,28.749242 2.0764916,26.481182 2.0000001,24.321094 2.2587878,22.09867 2.5263934,19.828389 3.6626759,17.849612 5.3346538,14.50812 9.830519,13.135507 13.207113,14.556489 c 1.996207,1.211121 3.485821,3.552641 3.324997,5.923864 -0.194554,1.887374 -2.366891,2.552846 -3.887821,3.141882 -0.919514,-0.354172 1.225049,-0.899151 0.36912,-1.926605 -0.206439,-1.52249 -2.02369,-3.838659 -3.6427591,-2.684259 -2.014667,1.729591 -2.3625765,4.573055 -1.9962717,7.048228 0.6269574,1.750422 2.2394438,3.293645 4.2188278,3.134389 1.06439,0.350168 3.169798,-0.81844 3.595641,-0.0534 -1.153791,1.264725 -0.357015,2.979048 -1.862162,3.993638 -1.372842,1.185453 -3.4754007,0.989729 -5.1990542,0.994242 L 7.770688,34.079035 Z M 29.884802,21.083835 c -1.333385,-0.288507 -4.400753,0.216206 -3.109495,-2.036828 0.459857,-1.147848 -0.134868,-3.310005 1.767291,-2.402831 0.806411,0.138025 3.367185,-0.07971 2.506674,1.059844 -0.752373,0.299653 -3.171793,-0.891955 -2.516111,0.54333 1.229512,-0.24966 1.609541,1.394488 0.146484,0.855306 -1.625414,0.680069 1.150831,1.057023 1.920506,1.00186 1.168528,-0.25482 0.498754,1.510112 -0.715349,0.979319 z m -4.711836,-0.85339 c -1.994134,0.523035 0.105478,-2.175967 -1.507955,-2.428855 -0.775513,0.06474 -0.315885,1.92355 -1.706444,1.760984 -0.739382,0.129231 1.060724,-2.460883 -0.626521,-2.490126 1.060114,-0.340092 1.088735,-1.326302 1.290776,-2.239553 0.981463,0.360744 0.899057,1.155477 1.103931,1.798276 0.659186,0.699006 1.101336,0.411356 1.070664,-0.457287 2.123141,0.04607 0.689535,2.73442 0.645298,4.09191 -0.01096,0.181166 -0.237668,-0.01989 -0.269749,-0.03536 z m -6.028225,-0.330324 c -1.138272,-0.585858 0.393112,-2.90937 -0.284504,-4.096167 -1.193173,-0.0019 -2.092829,0.203282 -2.29526,-1.117349 0.500158,-0.341689 2.860803,-0.01309 3.647519,-0.134473 0.309406,0.690127 2.860862,-0.06678 1.204534,1.171963 -2.172365,-0.179426 -0.780045,2.706542 -1.283822,3.964066 -0.22056,0.291494 -0.670525,0.201113 -0.988467,0.21196 z"/>
 <path style="fill:#f4f4f7" d="m 28.613454,34.985857 c -0.165989,-1.652753 -1.067448,-3.145341 -1.74038,-4.643602 -1.054887,-2.584547 -2.043376,-5.203149 -2.917491,-7.853325 -0.300336,-0.918627 -0.248672,-2.550077 0.767501,-1.19077 1.688543,0.01572 3.417218,0.459228 3.66353,2.428405 0.517609,0.732606 0.761005,3.814951 1.663605,1.818117 0.962056,-1.523321 1.219992,-3.37953 2.147502,-4.903306 0.759242,-1.647475 2.568406,-1.577581 4.077207,-1.273429 -0.588835,1.968079 -1.483537,3.872989 -1.903631,5.9074 -0.492,1.852437 -1.489713,3.527288 -2.124496,5.336997 -0.754088,1.529119 -1.626701,3.149527 -3.018416,4.183127 -0.197939,0.05637 -0.394581,0.259402 -0.614931,0.190386 z m -4.767693,-1.460045 c -0.761497,-1.145211 -1.091169,-2.700501 -1.882193,-3.723609 -1.283863,-0.182159 -2.538359,-0.0052 -2.50273,1.600603 -0.172206,1.623837 -1.825246,2.077184 -3.177607,1.581602 -1.574611,-0.266311 0.994315,-2.88056 -0.520896,-3.201102 -0.3334,-0.663584 0.225132,-2.168236 1.30175,-2.006297 1.072999,-2.645136 1.56165,-5.573501 3.217335,-7.962106 0.427951,-0.07381 2.472143,-1.0343 1.25319,0.155255 -0.748318,1.223804 0.320662,2.505867 0.776298,3.618326 0.905637,1.486893 1.33025,3.301156 2.526423,4.590505 1.099096,0.590647 -0.221225,1.780201 0.847647,2.641653 0.419875,0.811259 1.076859,1.57649 -0.271757,1.570691 -0.578778,0.273429 -0.888701,1.150911 -1.56746,1.134479 z m -2.624275,-5.731666 c -0.119492,-0.923997 -0.858153,-1.46499 -0.851112,-0.15245 -0.08582,0.368528 0.657292,0.133729 0.851112,0.15245 z m 15.536124,5.494959 c -0.697493,-0.569806 -1.573051,-0.559231 -2.186166,-0.490238 0.04704,-1.650927 1.325551,-2.935675 1.28097,-4.639576 0.07344,-1.596127 0.816536,-3.298649 0.29044,-4.849697 -0.83854,-0.905319 1.051784,-2.309915 1.058716,-3.519583 2.349677,1.147502 5.044344,-0.488241 7.421365,0.58658 0.841959,0.404873 2.249404,1.776839 0.641989,1.359571 -0.697879,1.131878 -1.40646,2.216229 -2.868298,1.511479 -1.373531,0.112318 -2.979929,0.0262 -2.692419,1.901643 0.561845,1.11231 3.532882,-0.308881 3.409573,1.901316 1.21682,1.223217 -2.564114,0.615276 -3.325643,1.00755 -1.194435,0.220109 -0.854049,2.201429 0.527051,1.589957 1.421748,0.224626 3.685412,-0.118356 4.640609,0.391829 -1.267181,0.885361 -0.669822,3.493464 -2.909356,3.052543 -1.759853,0.128113 -3.525736,0.166151 -5.288831,0.196626 z M 7.7706047,33.079113 C 5.6805379,32.891887 3.7730557,31.620685 2.7775991,29.788856 1.9814612,27.749242 2.0764916,25.481182 2.0000001,23.321094 2.2587878,21.09867 2.5263934,18.828389 3.6626759,16.849612 5.3346538,13.50812 9.830519,12.135507 13.207113,13.556489 c 1.996207,1.211121 3.485821,3.552641 3.324997,5.923864 -0.194554,1.887374 -2.366891,2.552846 -3.887821,3.141882 -0.919514,-0.354172 1.225049,-0.899151 0.36912,-1.926605 -0.206439,-1.52249 -2.02369,-3.838659 -3.6427591,-2.684259 -2.014667,1.729591 -2.3625765,4.573055 -1.9962717,7.048228 0.6269574,1.750422 2.2394438,3.293645 4.2188278,3.134389 1.06439,0.350168 3.169798,-0.81844 3.595641,-0.0534 -1.153791,1.264725 -0.357015,2.979048 -1.862162,3.993638 -1.372842,1.185453 -3.4754007,0.989729 -5.1990542,0.994242 L 7.770688,33.079035 Z M 29.884802,20.083835 c -1.333385,-0.288507 -4.400753,0.216206 -3.109495,-2.036828 0.459857,-1.147848 -0.134868,-3.310005 1.767291,-2.402831 0.806411,0.138025 3.367185,-0.07971 2.506674,1.059844 -0.752373,0.299653 -3.171793,-0.891955 -2.516111,0.54333 1.229512,-0.24966 1.609541,1.394488 0.146484,0.855306 -1.625414,0.680069 1.150831,1.057023 1.920506,1.00186 1.168528,-0.25482 0.498754,1.510112 -0.715349,0.979319 z m -4.711836,-0.85339 c -1.994134,0.523035 0.105478,-2.175967 -1.507955,-2.428855 -0.775513,0.06474 -0.315885,1.92355 -1.706444,1.760984 -0.739382,0.129231 1.060724,-2.460883 -0.626521,-2.490126 1.060114,-0.340092 1.088735,-1.326302 1.290776,-2.239553 0.981463,0.360744 0.899057,1.155477 1.103931,1.798276 0.659186,0.699006 1.101336,0.411356 1.070664,-0.457287 2.123141,0.04607 0.689535,2.73442 0.645298,4.09191 -0.01096,0.181166 -0.237668,-0.01989 -0.269749,-0.03536 z m -6.028225,-0.330324 c -1.138272,-0.585858 0.393112,-2.90937 -0.284504,-4.096167 -1.193173,-0.0019 -2.092829,0.203282 -2.29526,-1.117349 0.500158,-0.341689 2.860803,-0.01309 3.647519,-0.134473 0.309406,0.690127 2.860862,-0.06678 1.204534,1.171963 -2.172365,-0.179426 -0.780045,2.706542 -1.283822,3.964066 -0.22056,0.291494 -0.670525,0.201113 -0.988467,0.21196 z"/>
</svg>
