<svg xmlns="http://www.w3.org/2000/svg" width="48" height="48" version="1.1">
 <path style="opacity:0.2" d="m 5.5,14.99985 a 1.50015,1.50015 0 1 0 0,3 h 5 a 1.50015,1.50015 0 1 0 0,-3 z m 10.021484,0 a 1.50015,1.50015 0 1 0 0,3 H 16.400391 17.5 a 1.50015,1.50015 0 1 1 0,3 H 16.800781 12.521484 8.5214844 a 1.50015,1.50015 0 1 0 0,3 H 15.521484 17.199219 20.5 a 1.50015,1.50015 0 1 1 0,3 h -2.900391 -0.07813 a 1.50015,1.50015 0 1 0 0,3 H 18 18.5 a 1.50015,1.50015 0 1 1 0,3 H 17 13.521484 a 1.50015,1.50015 0 1 0 0,3 H 27.900391 35.5 36 v -0.01758 C 41.596057,35.715493 45.996977,31.102262 46,25.49985 45.992812,19.90046 41.593042,15.291874 36,15.025241 V 14.99985 H 35.5 20.5 16 Z m -6.9999996,12 a 1.50015,1.50015 0 1 0 0,3 H 12.5 a 1.50015,1.50015 0 1 0 0,-3 z m -5,6 a 1.50015,1.50015 0 1 0 0,3 H 8.5 a 1.50015,1.50015 0 1 0 0,-3 z"/>
 <path style="fill:#4f4f4f" d="M 5.5 14 A 1.50015 1.50015 0 1 0 5.5 17 L 10.5 17 A 1.50015 1.50015 0 1 0 10.5 14 L 5.5 14 z M 15.521484 14 A 1.50015 1.50015 0 1 0 15.521484 17 L 16.400391 17 L 17.5 17 A 1.50015 1.50015 0 1 1 17.5 20 L 16.800781 20 L 12.521484 20 L 8.5214844 20 A 1.50015 1.50015 0 1 0 8.5214844 23 L 15.521484 23 L 17.199219 23 L 20.5 23 A 1.50015 1.50015 0 1 1 20.5 26 L 17.599609 26 L 17.521484 26 A 1.50015 1.50015 0 1 0 17.521484 29 L 18 29 L 18.5 29 A 1.50015 1.50015 0 1 1 18.5 32 L 17 32 L 13.521484 32 A 1.50015 1.50015 0 1 0 13.521484 35 L 27.900391 35 L 35.5 35 L 36 35 L 36 34.982422 C 41.596057 34.715643 45.996977 30.102412 46 24.5 C 45.992812 18.90061 41.593042 14.292024 36 14.025391 L 36 14 L 35.5 14 L 20.5 14 L 16 14 L 15.521484 14 z M 8.5214844 26 A 1.50015 1.50015 0 1 0 8.5214844 29 L 12.5 29 A 1.50015 1.50015 0 1 0 12.5 26 L 8.5214844 26 z M 3.5214844 32 A 1.50015 1.50015 0 1 0 3.5214844 35 L 8.5 35 A 1.50015 1.50015 0 1 0 8.5 32 L 3.5214844 32 z"/>
 <path style="opacity:0.2" d="m 35.5,18.99985 v 0 c -3.040349,0 -5.5,2.42589 -5.5,5.416363 v 2.167274 c 0,2.994116 2.459651,5.416363 5.5,5.416363 3.036652,0 5.5,-2.422247 5.5,-5.416363 V 24.416213 C 41,21.42574 38.536652,18.99985 35.5,18.99985 Z"/>
 <path style="fill:#f4f4f7" d="m 35.5,18 v 0 C 32.459651,18 30,20.42589 30,23.416363 v 2.167274 C 30,28.577753 32.459651,31 35.5,31 38.536652,31 41,28.577753 41,25.583637 V 23.416363 C 41,20.42589 38.536652,18 35.5,18 Z"/>
 <path style="fill:none;stroke:#4f4f4f;stroke-width:3;stroke-linecap:round" d="m 33.5,24.5 h 4"/>
 <path style="opacity:0.1;fill:#f4f4f7" d="M 5.5 14 A 1.50015 1.50015 0 0 0 4.0664062 16 A 1.50015 1.50015 0 0 1 5.5 15 L 10.5 15 A 1.50015 1.50015 0 0 1 11.933594 16 A 1.50015 1.50015 0 0 0 10.5 14 L 5.5 14 z M 15.521484 14 A 1.50015 1.50015 0 0 0 14.087891 16 A 1.50015 1.50015 0 0 1 15.521484 15 L 16 15 L 20.5 15 L 35.5 15 L 36 15 L 36 15.025391 C 41.427797 15.284146 45.718457 19.635463 45.974609 25.009766 C 45.982911 24.839615 45.999907 24.672115 46 24.5 C 45.992812 18.90061 41.593042 14.292024 36 14.025391 L 36 14 L 35.5 14 L 20.5 14 L 16 14 L 15.521484 14 z M 18.933594 19 A 1.50015 1.50015 0 0 1 17.5 20 L 16.800781 20 L 12.521484 20 L 8.5214844 20 A 1.50015 1.50015 0 0 0 7.0878906 22 A 1.50015 1.50015 0 0 1 8.5214844 21 L 12.521484 21 L 16.800781 21 L 17.5 21 A 1.50015 1.50015 0 0 0 18.933594 19 z M 21.933594 25 A 1.50015 1.50015 0 0 1 20.5 26 L 17.599609 26 L 17.521484 26 A 1.50015 1.50015 0 0 0 16.087891 28 A 1.50015 1.50015 0 0 1 17.521484 27 L 17.599609 27 L 20.5 27 A 1.50015 1.50015 0 0 0 21.933594 25 z M 8.5214844 26 A 1.50015 1.50015 0 0 0 7.0878906 28 A 1.50015 1.50015 0 0 1 8.5214844 27 L 12.5 27 A 1.50015 1.50015 0 0 1 13.933594 28 A 1.50015 1.50015 0 0 0 12.5 26 L 8.5214844 26 z M 19.933594 31 A 1.50015 1.50015 0 0 1 18.5 32 L 17 32 L 13.521484 32 A 1.50015 1.50015 0 0 0 12.087891 34 A 1.50015 1.50015 0 0 1 13.521484 33 L 17 33 L 18.5 33 A 1.50015 1.50015 0 0 0 19.933594 31 z M 3.5214844 32 A 1.50015 1.50015 0 0 0 2.0878906 34 A 1.50015 1.50015 0 0 1 3.5214844 33 L 8.5 33 A 1.50015 1.50015 0 0 1 9.9335938 34 A 1.50015 1.50015 0 0 0 8.5 32 L 3.5214844 32 z"/>
</svg>
