<svg width="48" height="48" version="1.1" xmlns="http://www.w3.org/2000/svg">
 <g transform="matrix(2,0,0,2,2,2)">
  <rect x="1" y="1.5" width="20" height="20" rx="1" ry="1" style="opacity:.2"/>
  <rect x="1" y="1" width="20" height="20" rx="1" ry="1" style="fill:#4f4f4f"/>
  <path d="m8.4765625 3.4785156a1.50015 1.50015 0 0 0-0.21875 0.0214844h-3.7578125a1.50015 1.50015 0 1 0 0 3h2.5v11.5a1.50015 1.50015 0 1 0 3 0v-11.5h7.5a1.50015 1.50015 0 1 0 0-3h-8.7539062a1.50015 1.50015 0 0 0-0.2695313-0.0214844zm3.9999995 4a1.50015 1.50015 0 0 0-1.476562 1.5214844v5.908203a1.50015 1.50015 0 0 0 0 0.208985v2.882812a1.50015 1.50015 0 1 0 3 0v-2.822266c0.01825-0.06179 0.05585-0.168491 0.160156-0.316406 0.144075-0.20431 0.209673-0.363758 0.833985-0.361328 0.726986 0.0028 0.765389 0.171172 0.878906 0.339844 0.108354 0.161 0.125101 0.274053 0.126953 0.285156v2.875a1.50015 1.50015 0 1 0 3 0v-3a1.50015 1.50015 0 0 0-0.0059-0.140625s-0.07484-0.864281-0.632813-1.693359c-0.557891-0.829079-1.768374-1.659843-3.355428-1.666016-0.356362-0.00138-0.691154 0.045609-1.005859 0.123047v-2.623047a1.50015 1.50015 0 0 0-1.523438-1.5214844z" style="opacity:.2"/>
  <path d="m4.5 4.5h13" style="fill:none;stroke-linecap:round;stroke-linejoin:round;stroke-width:3;stroke:#f4f4f7"/>
  <path d="m8.5 4.5v13" style="fill:none;stroke-linecap:round;stroke-linejoin:round;stroke-width:3;stroke:#f4f4f7"/>
  <path d="m12.5 8.5v9" style="fill:none;stroke-linecap:round;stroke-linejoin:bevel;stroke-width:3;stroke:#f4f4f7"/>
  <path d="m12.5 14.5s0.326672-2.00846 2.5-2c2.31404 9e-3 2.5 2 2.5 2v3" style="fill:none;stroke-linecap:round;stroke-linejoin:round;stroke-width:3;stroke:#f4f4f7"/>
  <path d="m2 1c-0.554 0-1 0.446-1 1v0.5c0-0.554 0.446-1 1-1h18c0.554 0 1 0.446 1 1v-0.5c0-0.554-0.446-1-1-1z" style="fill:#f4f4f7;opacity:.1"/>
 </g>
</svg>
