<svg xmlns="http://www.w3.org/2000/svg" width="48" height="48" version="1.1">
 <rect width="40" height="40" x="4" y="5" rx="10" ry="10" style="opacity:0.2"/>
 <rect style="fill:#5793fc" width="40" height="40" x="4" y="4" rx="10" ry="10"/>
 <path style="opacity:0.2" d="m 12,18 v 4 h 4 v 10 h 4 V 22 h 4 v -4 z m 13,0 v 14 h 4 v -5.363281 c 0.53042,-2.344083 3.752125,-1.92923 4,-0.0957 V 32 h 4 V 25.404297 C 36.80327,22.962051 35.042869,21.151689 32.996094,21 31.668238,20.901591 30.219641,21.653407 29,22.865234 V 18 Z"/>
 <path style="fill:#f4f4f7" d="m 12,17 v 4 h 4 v 10 h 4 V 21 h 4 v -4 z"/>
 <path style="fill:#f4f4f7" d="m 25,17 v 14 h 4 v -5.363105 c 0.53042,-2.344083 3.752125,-1.929317 4,-0.09579 v 5.458894 h 4 V 24.404215 C 36.80327,21.961969 35.042504,20.151689 32.995729,20 31.667873,19.901591 30.219641,20.654074 29,21.865901 V 17 Z"/>
 <path style="opacity:0.2;fill:#f4f4f7" d="M 14 4 C 8.46 4 4 8.46 4 14 L 4 15 C 4 9.46 8.46 5 14 5 L 34 5 C 39.54 5 44 9.46 44 15 L 44 14 C 44 8.46 39.54 4 34 4 L 14 4 z"/>
</svg>
