<svg xmlns="http://www.w3.org/2000/svg" width="48" height="48" version="1.1">
 <rect style="opacity:0.2" width="40" height="40" x="4" y="5" rx="2" ry="2"/>
 <path style="fill:#00a1f1" d="m 6,4 31.309568,4.6904315 c 1.108,0 2,0.892 2,2.0000005 L 44,42 c 0,1.108 -0.892,2 -2,2 H 6 C 4.892,44 4,43.108 4,42 V 6 C 4,4.892 4.892,4 6,4 Z"/>
 <path style="fill:#008aee" d="M 6 4 C 5.446 4 4.9454844 4.2224844 4.5839844 4.5839844 L 43.416016 43.416016 C 43.777516 43.054516 44 42.554 44 42 L 44 6 C 44 4.892 43.108 4 42 4 L 6 4 z"/>
 <path style="opacity:0.1;fill:#f4f4f7" d="M 6,4 C 4.892,4 4,4.892 4,6 V 7 C 4,5.892 4.892,5 6,5 h 36 c 1.108,0 2,0.892 2,2 V 6 C 44,4.892 43.108,4 42,4 Z"/>
 <path style="opacity:0.2" d="m 24,8.999906 a 16,16 0 0 0 -16,16 16,16 0 0 0 16,16 16,16 0 0 0 8.988281,-2.767578 L 37.878906,43.121 42.121094,38.878812 37.222656,33.980375 A 16,16 0 0 0 40,24.999906 a 16,16 0 0 0 -16,-16 z m 0,3 a 13,13 0 0 1 13,13 h -8.197266 l -2.86914,-4.304688 -2.814453,4.689454 -5.271485,-10.542969 -2.863281,7.158203 H 11.365234 A 13,13 0 0 1 24,11.999906 Z m -5.847656,10.158203 4.728515,9.457031 3.185547,-5.310546 1.13086,1.695312 h 9.4375 a 13,13 0 0 1 -12.634766,10 13,13 0 0 1 -13,-13 h 6.015625 z"/>
 <path style="fill:#f4f4f7" d="M 24 8 A 16 16 0 0 0 8 24 A 16 16 0 0 0 24 40 A 16 16 0 0 0 40 24 A 16 16 0 0 0 24 8 z M 24 11 A 13 13 0 0 1 37 24 A 13 13 0 0 1 24 37 A 13 13 0 0 1 11 24 A 13 13 0 0 1 24 11 z"/>
 <path style="fill:none;stroke:#f4f4f7;stroke-width:3" d="m 10,22.500149 h 6 l 2,-5 5,10 3,-5 2,3 h 10"/>
 <path style="fill:none;stroke:#f4f4f7;stroke-width:6" d="M 40,40 34.694184,34.694184"/>
</svg>
