<svg xmlns="http://www.w3.org/2000/svg" width="48" height="48" version="1">
 <rect style="opacity:0.2" width="30" height="35" x="9" y="10" rx="2" ry="2.059"/>
 <rect style="fill:#518140" width="30" height="35" x="9" y="9" rx="2" ry="2.059"/>
 <rect style="fill:#629c4d" width="12" height="4" x="18" y="4"/>
 <path style="opacity:0.3;fill:none;stroke:#000000;stroke-width:4;stroke-linecap:round" d="m 16.0002,21 c 0,0 -2e-4,4 -2e-4,8 0,4 2e-4,8 2e-4,8"/>
 <rect style="fill:#629c4d" width="36" height="8" x="6" y="6" rx="2" ry="2"/>
 <path style="opacity:0.3;fill:none;stroke:#000000;stroke-width:4;stroke-linecap:round" d="M 24,21 V 37"/>
 <path style="opacity:0.2;fill:#f4f4f7" d="M 8,6 C 6.892,6 6,6.892 6,8 V 9 C 6,7.892 6.892,7 8,7 h 32 c 1.108,0 2,0.892 2,2 V 8 C 42,6.892 41.108,6 40,6 Z"/>
 <path style="opacity:0.2" d="m 6,12 v 1 c 0,1.108 0.892,2 2,2 h 32 c 1.108,0 2,-0.892 2,-2 v -1 c 0,1.108 -0.892,2 -2,2 H 8 C 6.892,14 6,13.108 6,12 Z"/>
 <path style="opacity:0.3;fill:none;stroke:#000000;stroke-width:4;stroke-linecap:round" d="m 32.0002,21 c 0,0 -2e-4,4 -2e-4,8 0,4 2e-4,8 2e-4,8"/>
</svg>
