<svg xmlns="http://www.w3.org/2000/svg" width="48" height="48" version="1">
 <path style="opacity:0.2" d="m 8,5 c 0.5367467,1.1076492 0.9358835,2.1309408 1,3.375 0.1135778,1.4077512 -0.3289726,2.621691 -0.8730469,3.978516 -0.449002,3.114928 0.7968399,3.772932 3.8671879,3.671875 0.773061,-0.05093 1.714546,-0.297965 2.359375,-0.894532 1.0222,-1.229509 0.628368,-2.004363 0.207031,-2.089843 -1.160222,-0.333714 -1.56149,0.959277 -0.480469,0.996093 0.214332,0.860293 -1.945836,1.300054 -2.396484,0.576172 C 9.9872547,11.630449 15,8.3056896 20,11 21.053342,19.140948 21.327945,30.037207 20.59375,39.636719 19.749244,41.56101 19.117676,42.139707 17,43 l 0,2 c 4,-1 10,-1 14,-1 l 0,-2 C 29.118639,41.66716 27.899394,40.097136 27.677734,38.371094 26.946806,28.766012 26.485151,21 28,12 l 7.591797,0 C 36.493092,12.02001 37.771013,12.897467 38,15 l 2,0 C 38.985131,12.61919 39,8 39,8 31,8 19.749806,8.0410336 8,5 Z"/>
 <path style="fill:#fecd38" d="m 17,42 c 2.117676,-0.860293 2.749766,-1.439701 3.594272,-3.363992 C 21.328467,29.036496 21.053342,18.140948 20,10 15,7.3056896 9.987571,10.630126 11.68391,13.612958 12.134558,14.33684 14.295353,13.897109 14.081021,13.036816 13,13 13.400757,11.708219 14.560979,12.041933 c 0.421337,0.08548 0.815195,0.858624 -0.207005,2.088133 -0.644829,0.596567 -1.587411,0.845324 -2.360472,0.896251 C 8.9231544,15.127374 7.6787994,14.468936 8.1278014,11.354008 8.6718757,9.9971836 9.1135778,8.7822252 9,7.374474 8.9358835,6.1304148 8.5367062,5.1082492 7.9999595,4.0006 19.749766,7.0416336 31,7 39,7 c 0,0 -0.01528,4.61919 0.999589,7 L 38,14 C 37.771013,11.897467 36.493332,11.020007 35.592037,11 L 28,11 C 26.485151,20 26.947301,27.76686 27.678229,37.371942 27.899889,39.097984 29.118639,40.66716 31,41 l 0,2 c -4,0 -10,0 -14,1"/>
 <path style="opacity:0.2;fill:#f4f4f7" d="M 8,4 C 8.1830105,4.3776669 8.3411854,4.7470399 8.484375,5.1171875 20.058268,8.0331951 31.110181,8 39,8 c 0,0 -0.0108,3.521663 0.662109,6 L 40,14 C 38.985131,11.61919 39,7 39,7 31,7 19.749806,7.0410336 8,4 Z M 8.9902344,8.2871094 C 8.903698,9.3277236 8.5500367,10.29842 8.1269531,11.353516 c -0.089305,0.619547 -0.092685,1.118124 -0.046875,1.55664 0.014831,-0.18431 0.017306,-0.351504 0.046875,-0.55664 C 8.6710274,10.996691 9.1135778,9.7827512 9,8.375 c -0.00157,-0.03046 -0.0078,-0.057691 -0.00977,-0.087891 z m 5.1718746,3.6992186 c -0.808743,0.02354 -1.000472,0.937178 -0.167968,1.033203 0.161132,-0.0348 0.344932,-0.04222 0.566406,0.02149 0.121511,0.02465 0.236682,0.112399 0.320312,0.246093 0.293487,-0.73426 -0.0058,-1.182294 -0.320312,-1.246093 -0.145028,-0.04171 -0.27854,-0.05818 -0.398438,-0.05469 z M 11.414062,12.875 c -0.130537,0.561344 -0.06183,1.155619 0.269532,1.738281 0.139914,0.224747 0.449611,0.32696 0.796875,0.34961 0.53638,-0.08884 1.091677,-0.282656 1.5625,-0.607422 0.04644,-0.09818 0.06576,-0.203375 0.03711,-0.31836 -0.287577,-0.0098 -0.465245,-0.110824 -0.55664,-0.24414 -0.620311,0.270483 -1.559827,0.270108 -1.839844,-0.179688 C 11.544329,13.368398 11.466609,13.120972 11.414062,12.875 Z m 15.589844,11.494141 c -0.0094,4.457732 0.291488,8.977644 0.673828,14.001953 C 27.899394,40.097136 29.118639,41.66716 31,42 l 0,-1 C 29.118639,40.66716 27.899394,39.097136 27.677734,37.371094 27.323906,32.721452 27.037871,28.505465 27.003906,24.369141 Z M 21,27.958984 c -0.01366,3.60137 -0.142053,7.223385 -0.40625,10.677735 C 19.749244,40.56101 19.117676,41.139707 17,42 l 0,1 c 2.117676,-0.860293 2.749244,-1.43899 3.59375,-3.363281 C 20.882472,35.861714 21.009299,31.888638 21,27.958984 Z"/>
</svg>
