<svg xmlns="http://www.w3.org/2000/svg" width="48" height="48" version="1.1">
 <path style="opacity:0.2" d="m 19.755859,4.0053897 c -0.638501,-0.026158 -1.291364,0.041472 -1.939453,0.2148437 -3.455826,0.9244817 -5.521641,4.4991852 -4.595703,7.9492186 0.359071,1.337898 1.119334,2.471916 2.109375,3.296875 l 0.642578,0.533203 0.654297,-0.519531 c 1.107598,-0.87905 2.363098,-1.544727 3.765625,-1.919922 1.369161,-0.36627 2.754758,-0.420251 4.123047,-0.228516 l 0.828125,0.113281 0.28125,-0.785156 c 0.424753,-1.193958 0.507688,-2.532877 0.154297,-3.8496088 -0.694453,-2.5875257 -2.882391,-4.3959839 -5.390625,-4.7480469 -0.20902,-0.029338 -0.41998,-0.047922 -0.632813,-0.056641 z m 11.738282,4.0800781 c -0.46725,-0.019346 -0.946087,0.029286 -1.419922,0.15625 C 27.836027,8.8414405 26.393227,10.96 26.564453,13.198749 l 0.05078,0.664062 0.621094,0.236328 c 1.656431,0.632066 3.214171,1.63741 4.554688,2.96875 L 32.255859,17.53078 32.875,17.31203 c 2.316909,-0.811585 3.675354,-3.29396 3.029297,-5.705078 C 35.354063,9.5534425 33.518892,8.1693005 31.494141,8.0854678 Z M 10.380859,14.028827 c -0.283635,0.02236 -0.5691276,0.07029 -0.8535152,0.146484 -2.5271192,0.67714 -4.0421429,3.301868 -3.3652344,5.828125 0.6602831,2.46421 3.1725396,3.95283 5.6386716,3.398438 l 0.617188,-0.136719 0.164062,-0.611328 c 0.481557,-1.780286 1.295235,-3.396351 2.371094,-4.751953 l 0.396484,-0.5 -0.261718,-0.583985 c -0.822845,-1.825507 -2.721582,-2.94561 -4.707032,-2.789062 z m 28.152172,16.474609 c -0.287041,-0.01368 -0.57732,-9.62e-4 -0.869141,0.03906 l -0.707031,0.0957 -0.167969,0.691406 c -0.473083,1.934818 -1.322308,3.68898 -2.480468,5.136719 l -0.451172,0.566406 0.367187,0.623047 c 1.0583,1.788347 3.21207,2.744973 5.314453,2.181641 2.526258,-0.676908 4.044476,-3.300453 3.367188,-5.828125 -0.547137,-2.041944 -2.363764,-3.410127 -4.373047,-3.50586 z m -22.665843,6.048828 -0.644532,0.238282 c -2.27441,0.837913 -3.598783,3.295831 -2.958984,5.683593 0.676909,2.526257 3.302959,4.040421 5.830078,3.363282 2.136529,-0.572482 3.538919,-2.531616 3.513672,-4.652344 l -0.0098,-0.697266 -0.648437,-0.259765 c -1.684186,-0.678502 -3.258737,-1.762487 -4.607422,-3.175782 z m 14.148437,4.8125 -0.763672,0.273438 c -0.296918,0.105862 -0.577442,0.207659 -0.859375,0.283203 -0.430902,0.115459 -0.864579,0.203737 -1.298828,0.265625 L 26.251953,42.306171 29,44.99953 Z"/>
 <path style="fill:#134f13" d="m 30.015625,40.365234 -0.763672,0.273438 c -0.296918,0.105862 -0.577442,0.207659 -0.859375,0.283203 -0.430902,0.115459 -0.864579,0.203737 -1.298828,0.265625 L 26.251953,41.30664 29,44 Z"/>
 <path style="fill:#134f13" d="m 31.493691,7.0858969 c -0.46725,-0.019346 -0.944732,0.030291 -1.418567,0.1572546 -2.238192,0.5997227 -3.681607,2.7180465 -3.510381,4.9567955 l 0.05078,0.663418 0.620827,0.235882 c 1.656431,0.632066 3.213314,1.638478 4.553831,2.969818 l 0.465211,0.461935 0.619191,-0.217863 c 2.316909,-0.811585 3.676481,-3.294274 3.030424,-5.705392 C 35.354773,8.5542353 33.518442,7.1697296 31.493691,7.0858969 Z"/>
 <path style="fill:#134f13" d="m 38.533514,29.503404 c -0.287041,-0.01368 -0.577995,-7.15e-4 -0.869815,0.03931 l -0.706007,0.09665 -0.168721,0.691265 c -0.473083,1.934818 -1.321877,3.689244 -2.480037,5.136983 l -0.452106,0.565134 0.368565,0.624104 c 1.0583,1.788347 3.211511,2.745239 5.313894,2.181907 2.526257,-0.676908 4.043519,-3.300576 3.366231,-5.828248 -0.547137,-2.041944 -2.362721,-3.411371 -4.372004,-3.507104 z"/>
 <path style="fill:#134f13" d="m 15.866907,35.552302 -0.643761,0.239158 c -2.27441,0.837913 -3.599789,3.294698 -2.95999,5.68246 0.676909,2.526257 3.302767,4.041732 5.829886,3.364593 2.136529,-0.572482 3.538904,-2.531387 3.513657,-4.652115 l -0.0098,-0.697817 -0.647037,-0.260453 c -1.684186,-0.678502 -3.259202,-1.76292 -4.607887,-3.176215 z"/>
 <path style="fill:#134f13" d="m 10.381015,13.029353 c -0.283635,0.02236 -0.5690459,0.06959 -0.8534335,0.145788 -2.5271192,0.67714 -4.043139,3.301991 -3.3662305,5.828248 0.6602831,2.46421 3.1737377,3.953384 5.63987,3.398992 l 0.617552,-0.137597 0.163806,-0.611 c 0.481557,-1.780286 1.294427,-3.396435 2.370286,-4.752037 l 0.396413,-0.499611 -0.262091,-0.583152 c -0.822845,-1.825507 -2.720722,-2.946179 -4.706172,-2.789631 z"/>
 <path style="fill:#134f13" d="m 19.756119,3.0053867 c -0.638501,-0.026158 -1.291534,0.042502 -1.939623,0.2158742 -3.455826,0.9244817 -5.521128,4.4989355 -4.59519,7.9489691 0.359071,1.337898 1.119358,2.470721 2.109399,3.29568 L 15.972974,15 16.626456,14.480302 c 1.107598,-0.87905 2.362999,-1.543687 3.765526,-1.918882 1.369161,-0.36627 2.75601,-0.422001 4.124299,-0.230266 l 0.828064,0.115133 0.280292,-0.786742 C 26.04939,10.465587 26.131789,9.1273194 25.778398,7.8105873 25.083945,5.2230616 22.897013,3.4150161 20.388779,3.0629531 c -0.20902,-0.029338 -0.419827,-0.048848 -0.63266,-0.057566 z"/>
 <path style="opacity:0.1;fill:#f4f4f7" d="m 19.755859,3.0058594 c -0.638501,-0.026158 -1.291364,0.041472 -1.939453,0.2148437 -3.068893,0.8209718 -5.036177,3.7314131 -4.791015,6.7890629 0.204148,-2.6714904 2.059841,-5.0584356 4.791015,-5.7890629 0.648089,-0.1733717 1.300952,-0.2410017 1.939453,-0.2148437 0.212833,0.00872 0.423793,0.027303 0.632813,0.056641 2.508234,0.352063 4.696172,2.1605212 5.390625,4.7480469 0.104683,0.3900502 0.160841,0.7803226 0.191406,1.1699219 0.05489,-0.7121455 0.0036,-1.443192 -0.191406,-2.1699219 C 25.084844,5.2230212 22.896906,3.414563 20.388672,3.0625 20.179652,3.033162 19.968692,3.0145778 19.755859,3.0058594 Z m 11.738282,4.0800781 c -0.46725,-0.019346 -0.946087,0.029286 -1.419922,0.15625 -2.238192,0.5997227 -3.680992,2.7182821 -3.509766,4.9570315 l 0.01172,0.15625 c 0.196449,-1.908578 1.543696,-3.5896139 3.498047,-4.1132815 0.473835,-0.126964 0.952672,-0.175596 1.419922,-0.15625 2.024751,0.083833 3.859922,1.4679749 4.410156,3.5214845 0.06769,0.252618 0.102069,0.505633 0.126953,0.757812 0.06673,-0.5732 0.03119,-1.167599 -0.126953,-1.757812 C 35.354063,8.5539121 33.518892,7.1697702 31.494141,7.0859375 Z M 10.380859,13.029297 c -0.283635,0.02236 -0.5691277,0.07029 -0.8535152,0.146484 -2.2796072,0.61082 -3.7198351,2.807413 -3.4863282,5.085938 0.2108431,-1.89252 1.5439689,-3.565484 3.4863282,-4.085938 0.2843876,-0.07619 0.5698802,-0.124124 0.8535152,-0.146484 1.966164,-0.155027 3.844229,0.944132 4.679688,2.738281 l 0.289062,-0.365234 -0.261718,-0.583985 c -0.822845,-1.825507 -2.721582,-2.94561 -4.707032,-2.789062 z m 28.152172,16.474609 c -0.287041,-0.01368 -0.57732,-9.62e-4 -0.869141,0.03906 l -0.707031,0.0957 -0.167969,0.691406 c -0.473083,1.934818 -1.322308,3.68898 -2.480468,5.136719 l -0.451172,0.566406 0.33789,0.574219 0.113282,-0.140625 c 1.15816,-1.447739 2.007385,-3.201901 2.480468,-5.136719 l 0.167969,-0.691406 0.707031,-0.0957 c 0.291821,-0.04002 0.5821,-0.05274 0.869141,-0.03906 2.009283,0.09573 3.82591,1.463916 4.373047,3.50586 0.06634,0.247566 0.09577,0.494701 0.121094,0.742187 0.06368,-0.569849 0.03563,-1.1573 -0.121094,-1.742187 -0.547137,-2.041944 -2.363764,-3.410127 -4.373047,-3.50586 z m -22.665843,6.048828 -0.644532,0.238282 c -2.033584,0.74919 -3.296248,2.794506 -3.085937,4.925781 0.202811,-1.745781 1.37383,-3.295026 3.085937,-3.925781 l 0.644532,-0.238282 0.474609,0.5 c 1.348685,1.413295 2.923236,2.49728 4.607422,3.175782 l 0.636719,0.255859 c 0.0052,-0.100028 0.02269,-0.197937 0.02148,-0.298828 l -0.0098,-0.697266 -0.648437,-0.259765 c -1.684186,-0.678502 -3.258737,-1.762487 -4.607422,-3.175782 z m 14.148437,4.8125 -0.763672,0.273438 c -0.296918,0.105862 -0.577442,0.207659 -0.859375,0.283203 -0.430902,0.115459 -0.864579,0.203737 -1.298828,0.265625 l -0.841797,0.119141 0.888672,0.871093 c 0.418523,-0.06149 0.836614,-0.14457 1.251953,-0.255859 0.281933,-0.07554 0.562457,-0.177341 0.859375,-0.283203 l 0.453125,-0.16211 z"/>
 <g style="opacity:0.2" transform="matrix(0.82329256,-0.21835267,0.22060058,0.81490327,-4.8534497,8.2140738)">
  <path transform="rotate(15,26.653467,29.784442)" d="m 26.080078,11.222656 c -1.129182,0.03488 -2.266168,0.199609 -3.394531,0.501953 -9.026904,2.418752 -14.0226678,12.778721 -11.332031,22.820313 1.300302,4.852795 4.228443,9.067138 8.193359,11.726562 3.96493,2.659518 8.668809,3.5361 13.03125,2.367188 4.362441,-1.168913 7.999545,-4.278779 10.103516,-8.564453 2.104005,-4.285587 2.532725,-9.401112 1.232421,-14.253907 C 41.559756,17.033919 33.984355,10.978519 26.080078,11.222656 Z"/>
 </g>
 <g style="fill:#00a000" transform="matrix(0.82329256,-0.21835267,0.22060058,0.81490327,-4.8534497,7.2140741)">
  <path style="fill:#35a535" transform="rotate(15,26.653467,29.784442)" d="m 26.080078,11.222656 c -1.129182,0.03488 -2.266168,0.199609 -3.394531,0.501953 -9.026904,2.418752 -14.0226678,12.778721 -11.332031,22.820313 1.300302,4.852795 4.228443,9.067138 8.193359,11.726562 3.96493,2.659518 8.668809,3.5361 13.03125,2.367188 4.362441,-1.168913 7.999545,-4.278779 10.103516,-8.564453 2.104005,-4.285587 2.532725,-9.401112 1.232421,-14.253907 C 41.559756,17.033919 33.984355,10.978519 26.080078,11.222656 Z"/>
 </g>
 <g style="fill:#00a000;stroke:#155715;stroke-width:1.5" transform="matrix(0.83741455,-0.22162214,0.22438455,0.8271051,-4.9902248,6.838409)">
  <path style="fill:none;stroke:#155715;stroke-width:1.5" d="m 25.875,33.75 -1.542,-4.625 3.164,-2.587 3.615,2.626 -1.487,4.669 z"/>
  <path style="fill:none;stroke:#155715;stroke-width:1.5" d="m 27.501,41.551 c -3.968,-0.16 -5.543,-2.009 -5.543,-2.009 l 3.57,-4.163 4.465,0.168 3.132,4.12 c 0,0 -2.89,1.994 -5.624,1.884 z"/>
  <path style="fill:none;stroke:#155715;stroke-width:1.5" d="m 18.453,33.843 c -0.849,-2.968 0.172,-6.884 0.172,-6.884 l 4,2.167 1.493,4.629 -3.582,4.233 c 0,-10e-4 -1.465,-1.99 -2.083,-4.145 z"/>
  <path style="fill:none;stroke:#155715;stroke-width:1.5" d="m 19.458,25.125 c 0,0 0.5,-1.958 3.039,-3.822 2.237,-1.643 4.465,-1.72 4.465,-1.72 l -0.037,4.981 -3.521,2.75 z"/>
  <path style="fill:none;stroke:#155715;stroke-width:1.5" d="M 32.084,27.834 28.625,24.959 29,19.75 c 0,0 1.834,-0.042 3.959,1.667 2.228,1.791 3.362,4.983 3.362,4.983 z"/>
  <path style="fill:none;stroke:#155715;stroke-width:1.5" d="m 31.292,34.042 1.313,-4.464 4.187,-1.536 c 0,0 0.677,2.663 -0.042,5.667 -0.54,2.256 -2.084,4.361 -2.084,4.361 z"/>
 </g>
 <g style="fill:#f4f4f7;opacity:0.2" transform="matrix(0.82329256,-0.21835267,0.22060058,0.81490327,-4.8534497,7.2140741)">
  <path style="fill:#f4f4f7" transform="matrix(1.1332699,0.30365876,-0.30678488,1.1449368,7.7134375,-6.785866)" d="M 23.171875 10.005859 C 22.209433 10.035286 21.24104 10.174615 20.279297 10.429688 C 13.852349 12.134235 9.8376196 18.515232 10.021484 25.507812 C 10.226904 18.915139 14.160316 13.052556 20.279297 11.429688 C 21.24104 11.174615 22.209433 11.035286 23.171875 11.005859 C 29.908968 10.799893 36.366389 15.909626 38.373047 23.322266 C 38.746489 24.701766 38.937961 26.105434 38.978516 27.5 C 39.026586 25.779453 38.836063 24.032656 38.373047 22.322266 C 36.366389 14.909626 29.908968 9.7998932 23.171875 10.005859 z"/>
 </g>
</svg>
