<svg xmlns="http://www.w3.org/2000/svg" width="48" height="48" version="1.1">
 <g transform="translate(0,-1004.3622)">
  <path style="opacity:0.2" d="m 24,1009.3622 c -3.878,0 -7,3.568 -7,8 0,10 -6,11 -6,18 0,7.732 5.820298,14 13,14 7.179702,0 13,-6.268 13,-14 0,-7 -6,-8 -6,-18 0,-4.432 -3.122,-8 -7,-8 z"/>
  <path style="fill:#4f4f4f" transform="translate(0,1004.3622)" d="m 24,4 c -3.878,0 -7,3.568 -7,8 0,10 -6,11 -6,18 0,7.731986 5.820298,14 13,14 7.179702,0 13,-6.268014 13,-14 0,-7 -6,-8 -6,-18 0,-4.432 -3.122,-8 -7,-8 z"/>
  <path style="opacity:0.1" d="m 24,1021.3622 c -2.386461,0 -4,2.1408 -4,4.8 0,6 -4,6.6 -4,10.8 0,4.6391 3.581722,8.4 8,8.4 4.418278,0 8,-3.7609 8,-8.4 0,-4.2 -4,-4.8 -4,-10.8 0,-2.6592 -1.613539,-4.8 -4,-4.8 z"/>
  <path style="fill:#f4f4f7" d="m 24,1020.3622 c -2.386461,0 -4,2.1408 -4,4.8 0,6 -4,6.6 -4,10.8 0,4.6391 3.581722,8.4 8,8.4 4.418278,0 8,-3.7609 8,-8.4 0,-4.2 -4,-4.8 -4,-10.8 0,-2.6592 -1.613539,-4.8 -4,-4.8 z"/>
  <path style="opacity:0.2" d="m 16.525707,1050.3336 c -0.421851,-0.067 -0.794886,-0.1923 -1.612234,-0.5441 -1.216896,-0.5239 -1.784338,-0.6938 -4.01158,-1.2008 -1.1109592,-0.2528 -1.5249948,-0.3652 -2.4892369,-0.6763 -0.350756,-0.1131 -0.8182592,-0.2575 -1.0388955,-0.3208 -0.5989465,-0.1719 -0.7577379,-0.2387 -0.9771806,-0.4111 -0.29936,-0.2351 -0.4388718,-0.5978 -0.3853659,-1.0017 0.034282,-0.2589 0.1248833,-0.5077 0.3749637,-1.0296 0.3342404,-0.6977 0.6044266,-0.9487 0.6553392,-1.6353 0.029953,-0.404 0.0054,-0.8584 -0.097406,-1.8044 -0.060841,-0.5597 -0.074738,-0.766 -0.075628,-1.1223 -9.174e-4,-0.3865 0.00404,-0.9556 0.043924,-1.1028 0.1498588,-0.5536 0.2639111,-0.873 0.794414,-1.0108 0.153555,-0.04 0.2526244,-0.046 0.9732728,-0.06 0.4486061,-0.01 0.8476629,-0.026 0.9051759,-0.039 0.3108235,-0.07 0.5371193,-0.187 0.7480123,-0.3875 0.200888,-0.191 0.338375,-0.3858 0.600587,-0.851 0.408175,-0.7181 1.213399,-0.711 1.870951,-0.7376 0.186425,0.039 0.248408,0.065 0.452588,0.1821 0.205495,0.1184 0.263612,0.165 0.442302,0.3548 0.449674,0.4777 0.664341,0.7725 1.672904,2.2962 0.799367,1.208 1.043608,1.5944 1.365827,2.1612 0.351012,0.6175 0.983786,1.6081 1.218366,1.9074 0.03975,0.051 0.283124,0.359 0.540827,0.6849 0.257714,0.3262 0.493395,0.6313 0.523746,0.6782 0.483963,0.6734 0.82371,1.4471 0.944566,2.2204 0.04062,0.2694 0.04204,0.315 0.0193,0.6235 -0.02884,0.3916 -0.05391,0.559 -0.09647,0.6445 -0.01708,0.034 -0.05461,0.1279 -0.08339,0.2078 -0.370032,1.0283 -1.292374,1.7998 -2.360919,1.975 -0.227227,0.037 -0.677811,0.037 -0.918758,0 z"/>
  <path style="fill:#eab108" d="m 16.525707,1049.3336 c -0.421851,-0.067 -0.794886,-0.1923 -1.612234,-0.5441 -1.216896,-0.5239 -1.784338,-0.6938 -4.01158,-1.2008 -1.1109592,-0.2528 -1.5249948,-0.3652 -2.4892369,-0.6763 -0.350756,-0.1131 -0.8182592,-0.2575 -1.0388955,-0.3208 -0.5989465,-0.1719 -0.7577379,-0.2387 -0.9771806,-0.4111 -0.29936,-0.2351 -0.4388718,-0.5978 -0.3853659,-1.0017 0.034282,-0.2589 0.1248833,-0.5077 0.3749637,-1.0296 0.3342404,-0.6977 0.6044266,-0.9487 0.6553392,-1.6353 0.029953,-0.404 0.0054,-0.8584 -0.097406,-1.8044 -0.060841,-0.5597 -0.074738,-0.766 -0.075628,-1.1223 -9.174e-4,-0.3865 0.00404,-0.9556 0.043924,-1.1028 0.1498588,-0.5536 0.2639111,-0.873 0.794414,-1.0108 0.153555,-0.04 0.2526244,-0.046 0.9732728,-0.06 0.4486061,-0.01 0.8476629,-0.026 0.9051759,-0.039 0.3108235,-0.07 0.5371193,-0.187 0.7480123,-0.3875 0.200888,-0.191 0.338375,-0.3858 0.600587,-0.851 0.408175,-0.7181 1.213399,-0.711 1.870951,-0.7376 0.186425,0.039 0.248408,0.065 0.452588,0.1821 0.205495,0.1184 0.263612,0.165 0.442302,0.3548 0.449674,0.4777 0.664341,0.7725 1.672904,2.2962 0.799367,1.208 1.043608,1.5944 1.365827,2.1612 0.351012,0.6175 0.983786,1.6081 1.218366,1.9074 0.03975,0.051 0.283124,0.359 0.540827,0.6849 0.257714,0.3262 0.493395,0.6313 0.523746,0.6782 0.483963,0.6734 0.82371,1.4471 0.944566,2.2204 0.04062,0.2694 0.04204,0.315 0.0193,0.6235 -0.02884,0.3916 -0.05391,0.559 -0.09647,0.6445 -0.01708,0.034 -0.05461,0.1279 -0.08339,0.2078 -0.370032,1.0283 -1.292374,1.7998 -2.360919,1.975 -0.227227,0.037 -0.677811,0.037 -0.918758,0 z"/>
  <path style="opacity:0.2" d="m 34.620226,1049.8531 c 0.330904,-0.2324 0.595279,-0.4931 1.141514,-1.1285 0.813205,-0.9461 1.224208,-1.3253 2.905751,-2.6803 0.838813,-0.6756 1.143647,-0.9426 1.832482,-1.6056 0.250603,-0.2411 0.587322,-0.5572 0.748309,-0.7024 0.437006,-0.3939 0.543782,-0.5161 0.657114,-0.7518 0.154648,-0.3213 0.118502,-0.6822 -0.09972,-0.9968 -0.139893,-0.2016 -0.32348,-0.3713 -0.759734,-0.702 -0.58314,-0.4422 -0.749917,-0.8225 -1.086834,-1.3739 -0.198238,-0.3245 -0.371566,-0.7139 -0.688355,-1.5461 -0.187416,-0.4924 -0.263762,-0.6702 -0.415316,-0.9678 -0.164448,-0.3228 -0.198133,-0.3783 -0.295083,-0.4843 -0.364391,-0.3992 -0.768944,-0.534 -1.280004,-0.427 -0.14797,0.031 -0.234941,0.067 -0.855177,0.3572 -0.386626,0.1793 -0.733585,0.333 -0.788164,0.3461 -0.294796,0.072 -0.537759,0.068 -0.803174,-0.01 -0.252867,-0.075 -0.45333,0.02 -0.875685,-0.2585 -0.288934,-0.1892 -0.599051,-0.4253 -0.820967,-0.4866 -0.308331,-0.085 -0.307315,-0.085 -0.595437,-0.053 -0.277353,0.034 -0.481698,0.114 -0.707327,0.2898 -0.142223,0.1105 -0.183934,0.1582 -0.3079,0.3413 -0.124524,0.1848 -0.154138,0.248 -0.225296,0.4811 -0.179049,0.5866 -0.235983,0.9223 -0.444213,2.6154 -0.164882,1.3423 -0.20787,1.7667 -0.24019,2.3744 -0.03519,0.6619 -0.151033,1.7531 -0.223011,2.1009 -0.01208,0.059 -0.08784,0.4179 -0.168159,0.7977 -0.08021,0.3799 -0.150643,0.733 -0.156465,0.7848 -0.124612,0.7643 -0.08342,1.5518 0.144155,2.2475 0.08055,0.2417 0.09884,0.2804 0.250096,0.5282 0.191994,0.3147 0.28492,0.4438 0.357743,0.4972 0.02906,0.021 0.101213,0.084 0.159914,0.1386 0.754975,0.703 1.870902,0.9605 2.856527,0.6597 0.209452,-0.064 0.593527,-0.2528 0.783065,-0.3844 z"/>
  <path style="fill:#eab108" d="m 34.620226,1048.8531 c 0.330904,-0.2324 0.595279,-0.4931 1.141514,-1.1285 0.813205,-0.9461 1.224208,-1.3253 2.905751,-2.6803 0.838813,-0.6756 1.143647,-0.9426 1.832482,-1.6056 0.250603,-0.2411 0.587322,-0.5572 0.748309,-0.7024 0.437006,-0.3939 0.543782,-0.5161 0.657114,-0.7518 0.154648,-0.3213 0.118502,-0.6822 -0.09972,-0.9968 -0.139893,-0.2016 -0.32348,-0.3713 -0.759734,-0.702 -0.58314,-0.4422 -0.749917,-0.8225 -1.086834,-1.3739 -0.198238,-0.3245 -0.371566,-0.7139 -0.688355,-1.5461 -0.187416,-0.4924 -0.263762,-0.6702 -0.415316,-0.9678 -0.164448,-0.3228 -0.198133,-0.3783 -0.295083,-0.4843 -0.364391,-0.3992 -0.768944,-0.534 -1.280004,-0.427 -0.14797,0.031 -0.234941,0.067 -0.855177,0.3572 -0.386626,0.1793 -0.733585,0.333 -0.788164,0.3461 -0.294796,0.072 -0.537759,0.068 -0.803174,-0.01 -0.252867,-0.075 -0.45333,0.02 -0.875685,-0.2585 -0.288934,-0.1892 -0.599051,-0.4253 -0.820967,-0.4866 -0.308331,-0.085 -0.307315,-0.085 -0.595437,-0.053 -0.277353,0.034 -0.481698,0.114 -0.707327,0.2898 -0.142223,0.1105 -0.183934,0.1582 -0.3079,0.3413 -0.124524,0.1848 -0.154138,0.248 -0.225296,0.4811 -0.179049,0.5866 -0.235983,0.9223 -0.444213,2.6154 -0.164882,1.3423 -0.20787,1.7667 -0.24019,2.3744 -0.03519,0.6619 -0.151033,1.7531 -0.223011,2.1009 -0.01208,0.059 -0.08784,0.4179 -0.168159,0.7977 -0.08021,0.3799 -0.150643,0.733 -0.156465,0.7848 -0.124612,0.7643 -0.08342,1.5518 0.144155,2.2475 0.08055,0.2417 0.09884,0.2804 0.250096,0.5282 0.191994,0.3147 0.28492,0.4438 0.357743,0.4972 0.02906,0.021 0.101213,0.084 0.159914,0.1386 0.754975,0.703 1.870902,0.9605 2.856527,0.6597 0.209452,-0.064 0.593527,-0.2528 0.783065,-0.3844 z"/>
  <circle style="opacity:0.1" cx="21" cy="1017.362" r="3"/>
  <circle style="fill:#f4f4f7" cx="21" cy="1016.362" r="3"/>
  <circle style="fill:#323232" cx="21" cy="1016.362" r="1"/>
  <circle style="opacity:0.1" cx="27" cy="1017.362" r="3"/>
  <circle style="fill:#f4f4f7" cx="27" cy="1016.362" r="3"/>
  <path style="opacity:0.1" d="m 28,1020.3622 c 0,2.7614 -1.790861,5 -4,5 -2.209139,0 -4,-2.2386 -4,-5 z"/>
  <path style="fill:#f77d00" d="m 28,1019.3622 c 0,2.7614 -1.790861,5 -4,5 -2.209139,0 -4,-2.2386 -4,-5 z"/>
  <circle style="fill:#323232" cx="27" cy="1016.362" r="1"/>
  <path style="fill:#eab108" d="m 28,1019.8622 c 0,0.5 -1.790861,3.5 -4,3.5 -2.209139,0 -4,-3 -4,-3.5 0,-1.3807 1.790861,-2.5 4,-2.5 2.209139,0 4,1.1193 4,2.5 z"/>
  <path style="fill:#f4f4f7;opacity:0.2" transform="translate(0,1004.3622)" d="M 32.832031 31.001953 C 32.757729 30.995328 32.685077 31.003531 32.541016 31.019531 C 32.263663 31.053531 32.059613 31.132794 31.833984 31.308594 C 31.691761 31.419094 31.65131 31.467291 31.527344 31.650391 C 31.40282 31.835191 31.371939 31.897759 31.300781 32.130859 C 31.121732 32.717459 31.065652 33.054947 30.857422 34.748047 C 30.69254 36.090347 30.649508 36.513394 30.617188 37.121094 C 30.581997 37.782994 30.466509 38.874856 30.394531 39.222656 C 30.382451 39.281656 30.306882 39.639731 30.226562 40.019531 C 30.146352 40.399431 30.074181 40.752888 30.068359 40.804688 C 29.995629 41.250775 29.988879 41.70355 30.033203 42.142578 C 30.044279 42.029901 30.050092 41.91673 30.068359 41.804688 C 30.074181 41.752888 30.146352 41.399431 30.226562 41.019531 C 30.306882 40.639731 30.382451 40.281656 30.394531 40.222656 C 30.466509 39.874856 30.581997 38.782994 30.617188 38.121094 C 30.649508 37.513394 30.69254 37.090347 30.857422 35.748047 C 31.065652 34.054947 31.121732 33.717459 31.300781 33.130859 C 31.371939 32.897759 31.40282 32.835191 31.527344 32.650391 C 31.65131 32.467291 31.691761 32.419094 31.833984 32.308594 C 32.059613 32.132794 32.263663 32.053531 32.541016 32.019531 C 32.829138 31.987531 32.828388 31.987266 33.136719 32.072266 C 33.358635 32.133566 33.67005 32.369394 33.958984 32.558594 C 34.381339 32.837094 34.581117 32.743359 34.833984 32.818359 C 35.099399 32.896359 35.341923 32.900125 35.636719 32.828125 C 35.691298 32.815025 36.039155 32.661722 36.425781 32.482422 C 37.046017 32.192222 37.13328 32.156 37.28125 32.125 C 37.79231 32.018 38.196156 32.151581 38.560547 32.550781 C 38.657497 32.656781 38.691021 32.712356 38.855469 33.035156 C 39.007023 33.332756 39.084068 33.511506 39.271484 34.003906 C 39.588273 34.836106 39.760746 35.224328 39.958984 35.548828 C 40.295901 36.100228 40.463735 36.481628 41.046875 36.923828 C 41.483129 37.254528 41.666748 37.4234 41.806641 37.625 C 41.82494 37.651381 41.833876 37.68005 41.849609 37.707031 C 41.865315 37.678682 41.891113 37.654528 41.90625 37.623047 C 42.060898 37.301747 42.024863 36.9396 41.806641 36.625 C 41.666748 36.4234 41.483129 36.254528 41.046875 35.923828 C 40.463735 35.481628 40.295901 35.100228 39.958984 34.548828 C 39.760746 34.224328 39.588273 33.836106 39.271484 33.003906 C 39.084068 32.511506 39.007023 32.332756 38.855469 32.035156 C 38.691021 31.712356 38.657497 31.656781 38.560547 31.550781 C 38.196156 31.151581 37.79231 31.018 37.28125 31.125 C 37.13328 31.156 37.046017 31.192222 36.425781 31.482422 C 36.039155 31.661722 35.691298 31.815025 35.636719 31.828125 C 35.341923 31.900125 35.099399 31.896359 34.833984 31.818359 C 34.581117 31.743359 34.381339 31.837094 33.958984 31.558594 C 33.67005 31.369394 33.358635 31.133566 33.136719 31.072266 C 32.982553 31.029766 32.906334 31.008578 32.832031 31.001953 z"/>
  <path style="fill:#4f4f4f" d="m 34,1039.3622 c -1.656854,0 -1.939151,-1.3442 -2,-3 -0.06638,-1.8063 0.115905,-2.8506 3,-3 3.237629,-1.2319 2.163923,5.9038 -1,6 z"/>
  <path style="opacity:0.1;fill:#f4f4f7" transform="translate(0,1004.3622)" d="M 24 4 C 20.122 4 17 7.568 17 12 C 17 22 11 23 11 30 C 11 30.18065 11.019093 30.356165 11.025391 30.535156 C 11.292295 23.963685 17 22.766833 17 13 C 17 8.568 20.122 5 24 5 C 27.878 5 31 8.568 31 13 C 31 22.766833 36.707705 23.963685 36.974609 30.535156 C 36.980907 30.356165 37 30.18065 37 30 C 37 23 31 22 31 12 C 31 7.568 27.878 4 24 4 z"/>
  <path style="fill:#f4f4f7;opacity:0.2" transform="translate(0,1004.3622)" d="M 12.804688 31.037109 C 12.147135 31.063709 11.341769 31.055337 10.933594 31.773438 C 10.671382 32.238638 10.534872 32.434 10.333984 32.625 C 10.123091 32.8255 9.896761 32.941719 9.5859375 33.011719 C 9.5284245 33.024719 9.1282936 33.040781 8.6796875 33.050781 C 7.9590391 33.064781 7.8605862 33.071328 7.7070312 33.111328 C 7.1765283 33.249128 7.0619682 33.569447 6.9121094 34.123047 C 6.8722254 34.270247 6.8682232 34.838109 6.8691406 35.224609 C 6.8693295 35.300204 6.8830817 35.395992 6.8847656 35.462891 C 6.8914311 35.32424 6.8974064 35.177311 6.9121094 35.123047 C 7.0619682 34.569447 7.1765283 34.249128 7.7070312 34.111328 C 7.8605862 34.071328 7.9590391 34.064781 8.6796875 34.050781 C 9.1282936 34.040781 9.5284245 34.024719 9.5859375 34.011719 C 9.896761 33.941719 10.123091 33.8255 10.333984 33.625 C 10.534872 33.434 10.671382 33.238638 10.933594 32.773438 C 11.341769 32.055337 12.147135 32.063709 12.804688 32.037109 C 12.991112 32.076109 13.053632 32.10165 13.257812 32.21875 C 13.463308 32.33715 13.520529 32.382466 13.699219 32.572266 C 14.148893 33.049966 14.364484 33.345441 15.373047 34.869141 C 16.172414 36.077141 16.416062 36.46445 16.738281 37.03125 C 17.089293 37.64875 17.722451 38.6382 17.957031 38.9375 C 17.996781 38.9885 18.240344 39.297147 18.498047 39.623047 C 18.755761 39.949247 18.991133 40.253881 19.021484 40.300781 C 19.484172 40.944578 19.809555 41.680769 19.943359 42.419922 C 19.955965 42.32336 19.972052 42.311862 19.984375 42.144531 C 20.007115 41.836031 20.007417 41.790884 19.966797 41.521484 C 19.845941 40.748184 19.505447 39.974181 19.021484 39.300781 C 18.991133 39.253881 18.755761 38.949247 18.498047 38.623047 C 18.240344 38.297147 17.996781 37.9885 17.957031 37.9375 C 17.722451 37.6382 17.089293 36.64875 16.738281 36.03125 C 16.416062 35.46445 16.172414 35.077141 15.373047 33.869141 C 14.364484 32.345441 14.148893 32.049966 13.699219 31.572266 C 13.520529 31.382466 13.463308 31.33715 13.257812 31.21875 C 13.053632 31.10165 12.991112 31.076109 12.804688 31.037109 z M 7.0253906 38.248047 C 6.9554377 38.856283 6.7031003 39.126688 6.3867188 39.787109 C 6.1366383 40.309009 6.0460008 40.557506 6.0117188 40.816406 C 5.9814838 41.044641 6.0184227 41.257026 6.1054688 41.443359 C 6.1636774 41.274088 6.2487045 41.075135 6.3867188 40.787109 C 6.7209591 40.089409 6.990103 39.838944 7.0410156 39.152344 C 7.0587694 38.912885 7.0508795 38.614791 7.0253906 38.248047 z"/>
 </g>
</svg>
