<svg xmlns="http://www.w3.org/2000/svg" width="48" height="48" version="1.1">
 <path style="fill:#61d9e8" d="m 7,4 h 34 c 1.662,0 3,1.338 3,3 v 29 c 0,1.662 -1.338,3 -3,3 H 7 C 5.338,39 4,37.662 4,36 V 7 C 4,5.338 5.338,4 7,4 Z"/>
 <path style="opacity:0.1" d="M 25.5,15 A 3.5,3.5 0 0 0 22,18.5 3.5,3.5 0 0 0 25.5,22 3.5,3.5 0 0 0 29,18.5 3.5,3.5 0 0 0 25.5,15 Z m 17.318359,3.923828 c -0.292281,0 -3.880883,1.36432 -7.974609,3.03125 -14.311929,5.82769 -16.619476,6.763429 -21.929688,8.886719 -2.941868,1.17631 -6.1362945,2.417549 -7.1308589,2.632812 L 4,33.861328 V 42 c 0,1.662 1.338,3 3,3 h 34 c 1.662,0 3,-1.338 3,-3 v -8.089844 l -0.996094,0.650391 c -1.771489,1.85644 -1.811066,1.87466 -6.242187,2.71875 -1.489896,0.28381 -1.564256,0.276764 -1.634766,-0.134766 -0.04061,-0.23701 1.851436,-4.282957 4.203125,-8.992187 2.405929,-4.81786 4.220248,-8.707401 4.148438,-8.894532 -0.07019,-0.182909 -0.367876,-0.333984 -0.660157,-0.333984 z M 17.5,21 A 3.5,3.5 0 0 0 14,24.5 3.5,3.5 0 0 0 17.5,28 3.5,3.5 0 0 0 21,24.5 3.5,3.5 0 0 0 17.5,21 Z m 18.648438,3.046875 c 0.153223,0.0019 0.279296,0.120372 0.279296,0.263672 0,0.32659 -4.058622,7.787724 -5.859375,10.771484 -0.739778,1.22578 -1.465469,2.361981 -1.613281,2.525391 -0.217803,0.2408 -0.819912,-0.265568 -3.175781,-2.673828 -3.352469,-3.42701 -3.921929,-4.103275 -3.773438,-4.490235 0.109658,-0.28577 13.634431,-6.402484 14.142579,-6.396484 z m -16.841797,7.435547 c 0.359524,0.02109 0.818357,0.456179 2.029297,1.857422 3.047809,3.52679 3.732846,4.394899 3.654296,4.630859 -0.08924,0.26812 -0.668179,0.421666 -0.861328,0.228516 -0.07187,-0.07186 -1.42109,-0.181188 -2.998047,-0.242188 -2.489011,-0.09635 -3.931028,-0.252153 -8.433593,-0.908203 -0.487711,-0.07106 -1.090134,-0.254473 -1.337891,-0.408203 -0.247754,-0.15373 -0.742611,-0.348441 -1.099609,-0.431641 -0.6379538,-0.14868 -0.6415632,-0.157449 -0.222657,-0.568359 0.401625,-0.39397 8.079966,-3.883721 9.119141,-4.144531 0.04914,-0.01234 0.09903,-0.01668 0.150391,-0.01367 z"/>
 <path style="opacity:.2;fill:#f4f4f7" d="m7 4c-1.662 0-3 1.338-3 3v1c0-1.662 1.338-3 3-3h34c1.662 0 3 1.338 3 3v-1c0-1.662-1.338-3-3-3z"/>
 <circle style="fill:#3b3b3b" cx="17.5" cy="23.5" r="3.5"/>
 <circle style="fill:#3b3b3b" cx="25.5" cy="17.5" r="3.5"/>
 <path style="fill:#3b3b3b" d="M 42.818359 17.923828 C 42.526078 17.923828 38.937476 19.288148 34.84375 20.955078 C 20.531821 26.782768 18.224273 27.718507 12.914062 29.841797 C 9.9721935 31.018107 6.7777675 32.259346 5.7832031 32.474609 L 4 32.861328 L 4 41 C 4 42.662 5.338 44 7 44 L 41 44 C 42.662 44 44 42.662 44 41 L 44 32.910156 L 43.003906 33.560547 C 41.232417 35.416987 41.19284 35.435207 36.761719 36.279297 C 35.271823 36.563107 35.197463 36.556061 35.126953 36.144531 C 35.086346 35.907521 36.978389 31.861574 39.330078 27.152344 C 41.736007 22.334484 43.550326 18.444942 43.478516 18.257812 C 43.408325 18.074903 43.11064 17.923828 42.818359 17.923828 z M 36.148438 23.046875 C 36.301661 23.048795 36.427734 23.167247 36.427734 23.310547 C 36.427734 23.637137 32.369112 31.098271 30.568359 34.082031 C 29.828581 35.307811 29.10289 36.444012 28.955078 36.607422 C 28.737275 36.848222 28.135166 36.341854 25.779297 33.933594 C 22.426828 30.506584 21.857368 29.830319 22.005859 29.443359 C 22.115517 29.157589 35.64029 23.040875 36.148438 23.046875 z M 19.306641 30.482422 C 19.666165 30.503512 20.124998 30.938601 21.335938 32.339844 C 24.383747 35.866634 25.068784 36.734743 24.990234 36.970703 C 24.900991 37.238823 24.322055 37.392369 24.128906 37.199219 C 24.057039 37.127359 22.707816 37.018031 21.130859 36.957031 C 18.641848 36.860681 17.199831 36.704878 12.697266 36.048828 C 12.209555 35.977768 11.607132 35.794355 11.359375 35.640625 C 11.111621 35.486895 10.616764 35.292184 10.259766 35.208984 C 9.6218126 35.060304 9.6182024 35.051535 10.037109 34.640625 C 10.438734 34.246655 18.117075 30.756904 19.15625 30.496094 C 19.205393 30.483759 19.25528 30.479409 19.306641 30.482422 z"/>
 <path style="opacity:0.2" d="m 37,7 v 2.6328125 l -2.28125,-1.3164063 -0.5,0.8671876 2.279297,1.3164062 -2.279297,1.316406 0.5,0.867188 L 37,11.367188 V 14 h 1 v -2.632812 l 2.28125,1.316406 0.5,-0.867188 L 38.501953,10.5 40.78125,9.1835938 40.28125,8.3164062 38,9.6328125 V 7 Z"/>
 <path style="fill:#f4f4f7" d="M 37 6 L 37 8.6328125 L 34.71875 7.3164062 L 34.21875 8.1835938 L 36.498047 9.5 L 34.21875 10.816406 L 34.71875 11.683594 L 37 10.367188 L 37 13 L 38 13 L 38 10.367188 L 40.28125 11.683594 L 40.78125 10.816406 L 38.501953 9.5 L 40.78125 8.1835938 L 40.28125 7.3164062 L 38 8.6328125 L 38 6 L 37 6 z"/>
</svg>
