<svg xmlns="http://www.w3.org/2000/svg" width="48" height="48" version="1.1">
 <path style="fill:#243a85" d="m24 4a20 20 0 0 0 -20 20 20 20 0 0 0 20 20 20 20 0 0 0 20 -20 20 20 0 0 0 -20 -20z"/>
 <path opacity=".2" d="m4.0215 24.418a20 20 0 0 0 -0.0215 0.582 20 20 0 0 0 20 20 20 20 0 0 0 20 -20 20 20 0 0 0 -0.021 -0.418 20 20 0 0 1 -19.979 19.418 20 20 0 0 1 -19.978 -19.582z"/>
 <path fill="#f4f4f7" style="opacity:.1" d="m24 4a20 20 0 0 0 -20 20 20 20 0 0 0 0.0215 0.418 20 20 0 0 1 19.978 -19.418 20 20 0 0 1 19.979 19.582 20 20 0 0 0 0.021 -0.582 20 20 0 0 0 -20 -20z"/>
 <path style="opacity:.2" d="m23.920812 37.967255c-3.314438-0.431927-6.485351-1.693167-8.393078-3.338371-0.540717-0.466308-1.622013-1.597596-1.527734-1.628858 0.30887 0.05969 0.955175 0.345629 1.58569 0.362642 0.630515 0.01701 1.070972-0.362642 1.380315-0.87066v-5.330808c0-5.878968 0.02571-5.492987-0.390009-5.855993-0.504929-0.440908-1.996526-0.303486-3.002342 0.370162-1.534221 1.027552-3.791557 3.734483-5.0898164 6.103559-0.2305539 0.420716-0.4386995 0.783256-0.4625466 0.805644-0.023849 0.02239-0.028358-0.434514-0.00999-1.015341 0.050561-1.601648 0.3481136-2.721599 1.162381-4.375068 0.742607-1.507956 1.54618-2.624658 3.131156-4.351277 2.629553-2.864545 5.22534-4.843822 7.793305-5.942369 0.606786-0.259578 2.77235-0.90049 2.901857-0.90049 0.02084 0-0.885776 0.529253-1.098026 0.684279-1.272286 0.929262-1.712282 1.717901-1.896974 2.849712-0.136625 0.837254 0.05284 1.855129 0.421703 2.268509 0.1911 0.214164 0.261567 0.251099 0.52756 0.276518 0.364779-0.03821 0.670275-0.04747 1.045737-0.07902v13c0 1 1 1 1.992 1.063077 1.008-0.063076 2.008-0.617903 3.0064-1.265377l0.0016-5.595332 0.0016-5.595331-0.407072-0.773327c-0.436798-0.746497-1.011512-1.352461-1.594528-1.833709 1.022559 0.01899 2.10526 0.671922 3 1 2.607041-2.064176 5.023416-4.311599 8-5-1.296801 2.053613-2.613708 3.501862-4 5.5v12.099524c0.141285 0.169307 0.884905 0.383696 1.231512 0.414952 2.353509-0.333805 3.205853-1.658201 4.768488-3.014476 0.04604 0.04579-0.927624 2.278026-1.459139 3.074673-1.619633 2.427537-3.951498 4.371632-6.107437 5.742425-0.404316 0.257073-0.408854 0.258292-0.549569 0.147747-0.916382-0.757437-1.629357-1.336614-2.498229-2.184327-1.156817 1.101728-2.005315 2.049202-3.213174 3.219456-0.03825-0.005-0.151452-0.01972-0.251571-0.03276z"/>
 <path style="fill:#f4f4f7" d="m23.920812 36.967229c-3.314438-0.431927-6.485351-1.693167-8.393078-3.338371-0.540717-0.466308-1.622013-1.597596-1.527734-1.628858 0.30887 0.05969 0.955175 0.345629 1.58569 0.362642 0.630515 0.01701 1.070972-0.362642 1.380315-0.87066v-5.330808c0-5.878968 0.02571-5.492987-0.390009-5.855993-0.504929-0.440908-1.996526-0.303486-3.002342 0.370162-1.534221 1.027552-3.791557 3.734483-5.0898164 6.103559-0.2305539 0.420716-0.4386995 0.783256-0.4625466 0.805644-0.023849 0.02239-0.028358-0.434514-0.00999-1.015341 0.050561-1.601648 0.3481136-2.721599 1.162381-4.375068 0.742607-1.507956 1.54618-2.624658 3.131156-4.351277 2.629553-2.864545 5.22534-4.843822 7.793305-5.942369 0.606786-0.259578 2.77235-0.90049 2.901857-0.90049 0.02084 0-0.885776 0.529253-1.098026 0.684279-1.272286 0.929262-1.712282 1.717901-1.896974 2.849712-0.136625 0.837254 0.05284 1.855129 0.421703 2.268509 0.1911 0.214164 0.261567 0.251099 0.52756 0.276518 0.364779-0.038208 0.670275-0.047471 1.045737-0.079019v13c0 1 1 1 1.992 1.063077 1.008-0.063077 2.008-0.617904 3.0064-1.265378l0.0016-5.595332 0.0016-5.595331-0.407072-0.773327c-0.436798-0.746497-1.011512-1.352461-1.594528-1.833709 1.022559 0.01899 2.10526 0.671922 3 1 2.607041-2.064176 5.023416-4.311599 8-5-1.296801 2.053613-2.613708 3.501862-4 5.5v12.099524c0.141285 0.169307 0.884905 0.383696 1.231512 0.414952 2.353509-0.333805 3.205853-1.658201 4.768488-3.014476 0.04604 0.04579-0.927624 2.278026-1.459139 3.074673-1.619633 2.427537-3.951498 4.371632-6.107437 5.742425-0.404316 0.257073-0.408854 0.258292-0.549569 0.147747-0.916382-0.757437-1.629357-1.336614-2.498229-2.184327-1.156817 1.101728-2.005315 2.049202-3.213174 3.219456-0.03825-0.005-0.151452-0.01972-0.251571-0.03276z"/>
</svg>
