<svg xmlns="http://www.w3.org/2000/svg" width="48" height="48" version="1">
 <rect style="fill:#b2bfd9" width="40" height="40" x="4" y="4" rx="2" ry="2"/>
 <path style="opacity:0.2;fill:#f4f4f7" d="M 6,4 C 4.892,4 4,4.892 4,6 V 7 C 4,5.892 4.892,5 6,5 h 36 c 1.108,0 2,0.892 2,2 V 6 C 44,4.892 43.108,4 42,4 Z"/>
 <path style="opacity:0.2" d="M 6,45 C 4.892,45 4,44.108 4,43 v -1 c 0,1.108 0.892,2 2,2 h 36 c 1.108,0 2,-0.892 2,-2 v 1 c 0,1.108 -0.892,2 -2,2 z"/>
 <ellipse style="fill:#ffff76;stroke:#ff0000;stroke-width:2.00034738" cx="29" cy="32" rx="8" ry="5"/>
 <path style="fill:none;stroke:#ff0000;stroke-width:2" d="M 29.1923,27.251929 16.261794,16.116473"/>
 <ellipse style="fill:#ffff76;stroke:#ff0000;stroke-width:1.99981272" cx="14" cy="14.5" rx="4" ry="3.5"/>
 <path style="fill:#ffffc6;fill-rule:evenodd;stroke:#ff0000;stroke-width:2" d="m 14.055278,17.748038 c 0,7.675746 0,7.767115 0,7.767115"/>
 <path style="fill:none;stroke:#ff0000;stroke-width:2" d="m 14.08506,25.40286 c -3.941456,4.716812 -3.941456,4.716812 -3.941456,4.716812"/>
 <path style="fill:none;stroke:#ff0000;stroke-width:2" d="M 17.857746,30.101374 C 13.995327,25.356526 13.995327,25.356526 13.995327,25.356526"/>
 <path style="fill:none;stroke:#ff0000;stroke-width:2" d="M 18,21.9965 10,22"/>
 <path style="opacity:0.2" d="M 22.0625,32.496094 A 7,4 0 0 0 22,33 7,4 0 0 0 29,37 7,4 0 0 0 36,33 7,4 0 0 0 35.9375,32.503906 7,4 0 0 1 29,36 7,4 0 0 1 22.0625,32.496094 Z"/>
 <path id="ellipse867" style="opacity:0.2" d="M 11.0625,14.998047 A 3,2.5 0 0 0 11,15.5 3,2.5 0 0 0 14,18 3,2.5 0 0 0 17,15.5 3,2.5 0 0 0 16.9375,15.001953 3,2.5 0 0 1 14,17 3,2.5 0 0 1 11.0625,14.998047 Z"/>
</svg>
