<svg xmlns="http://www.w3.org/2000/svg" width="48" height="48" version="1">
 <rect style="opacity:0.2" width="36" height="36" x="-43" y="-42" rx="18" ry="18" transform="matrix(0,-1,-1,0,0,0)"/>
 <rect style="fill:#d83b2f" width="36" height="36" x="-42" y="-42" rx="18" ry="18" transform="matrix(0,-1,-1,0,0,0)"/>
 <path style="fill:#f4f4f7;opacity:0.1" d="M 24 6 C 14.028 6 6 14.028 6 24 C 6 24.168847 6.020817 24.332297 6.0253906 24.5 C 6.2909344 14.763279 14.196847 7 24 7 C 33.803153 7 41.709066 14.763279 41.974609 24.5 C 41.979183 24.332297 42 24.168847 42 24 C 42 14.028 33.972 6 24 6 z"/>
 <circle style="opacity:0.2" cx="24" cy="25" r="11"/>
 <circle style="fill:#f4f4f7" cx="24" cy="24" r="11"/>
 <rect style="opacity:0.2" width="42" height="8" x="3" y="21" rx="2" ry="2"/>
 <rect style="fill:#3a72e1" width="42" height="8" x="3" y="20" rx="2" ry="2"/>
</svg>
