<svg xmlns="http://www.w3.org/2000/svg" width="48" height="48" version="1">
 <rect style="opacity:0.2" width="40" height="40" x="4" y="5" rx="12" ry="12"/>
 <rect style="fill:#653d32" width="40" height="40" x="4" y="4" rx="12" ry="12"/>
 <path style="opacity:0.2" d="m 16,9 h 16 c 4.501189,0 8,3.498811 8,8 v 16 c 0,4.501189 -3.498811,8 -8,8 H 16 C 11.498811,41 8,37.501189 8,33 V 17 c 0,-4.501189 3.498811,-8 8,-8 z"/>
 <path style="fill:#f4f4f7;opacity:0.1" d="M 16 4 C 9.352 4 4 9.352 4 16 L 4 17 C 4 10.352 9.352 5 16 5 L 32 5 C 38.648 5 44 10.352 44 17 L 44 16 C 44 9.352 38.648 4 32 4 L 16 4 z"/>
 <path style="fill:#346f8a" d="m 16,8 h 16 c 4.501189,0 8,3.498811 8,8 v 16 c 0,4.501189 -3.498811,8 -8,8 H 16 C 11.498811,40 8,36.501189 8,32 V 16 c 0,-4.501189 3.498811,-8 8,-8 z"/>
 <path style="opacity:0.2" d="M 14.355469,13 C 12.758131,13 12,13.5388 12,15.238281 c 0,1.450778 0.679373,2.239624 2.037109,2.238281 h 0.31836 l 6.070312,17.533204 C 20.944916,36.501994 21.065194,37 22.822266,37 H 24 25.177734 c 1.757072,0 1.87735,-0.498006 2.396485,-1.990234 l 6.070312,-17.533204 h 0.31836 C 35.320627,17.477905 36,16.689059 36,15.238281 36,13.5388 35.241869,13 33.644531,13 h -5.191406 c -1.597337,0 -2.394531,0.580251 -2.394531,2.238281 0,1.658032 0.797194,2.238281 2.394531,2.238281 h -0.08008 L 24,31 19.626953,17.476562 h -0.08008 c 1.597337,0 2.394531,-0.580249 2.394531,-2.238281 C 21.941406,13.580251 21.144212,13 19.546875,13 Z"/>
 <path style="fill:#5fd6ff" d="M 14.355469,12 C 12.758131,12 12,12.5388 12,14.238281 c 0,1.450778 0.679373,2.239624 2.037109,2.238281 h 0.31836 l 6.070312,17.533204 C 20.944916,35.501994 21.065194,36 22.822266,36 H 24 25.177734 c 1.757072,0 1.87735,-0.498006 2.396485,-1.990234 l 6.070312,-17.533204 h 0.31836 C 35.320627,16.477905 36,15.689059 36,14.238281 36,12.5388 35.241869,12 33.644531,12 h -5.191406 c -1.597337,0 -2.394531,0.580251 -2.394531,2.238281 0,1.658032 0.797194,2.238281 2.394531,2.238281 h -0.08008 L 24,30 19.626953,16.476562 h -0.08008 c 1.597337,0 2.394531,-0.580249 2.394531,-2.238281 C 21.941406,12.580251 21.144212,12 19.546875,12 Z"/>
 <path style="opacity:0.1;fill:#f4f4f7" d="M 16 8 C 11.498811 8 8 11.498811 8 16 L 8 17 C 8 12.498811 11.498811 9 16 9 L 32 9 C 36.501189 9 40 12.498811 40 17 L 40 16 C 40 11.498811 36.501189 8 32 8 L 16 8 z"/>
 <path style="fill:#f4f4f7;opacity:0.2" d="M 14.355469,12 C 12.758131,12 12,12.5388 12,14.238281 c 0,0.17581 0.0093,0.341907 0.0293,0.498047 C 12.175524,13.435608 12.929732,13 14.355469,13 h 5.191406 c 1.422866,0 2.206171,0.46579 2.361328,1.738281 0.01903,-0.156032 0.0332,-0.3189 0.0332,-0.5 C 21.941406,12.580251 21.144212,12 19.546875,12 Z m 14.097656,0 c -1.597337,0 -2.394531,0.580251 -2.394531,2.238281 0,0.1811 0.01418,0.343968 0.0332,0.5 C 26.246955,13.46579 27.030259,13 28.453125,13 h 5.191406 c 1.425737,0 2.179945,0.435608 2.326172,1.736328 C 35.990655,14.580188 36,14.414091 36,14.238281 36,12.5388 35.241869,12 33.644531,12 Z m -8.509766,5.457031 c -0.128723,0.0094 -0.255253,0.01953 -0.396484,0.01953 h 0.08008 L 24,31 28.373047,17.476562 h 0.08008 c -0.141231,0 -0.267761,-0.01012 -0.396484,-0.01953 L 24,30 Z"/>
</svg>
