<svg xmlns="http://www.w3.org/2000/svg" width="48" height="48" version="1">
 <path style="fill:#8e8e8e" d="M 33,41 25,21 h -2 l -8,20 z"/>
 <rect style="opacity:0.2" width="22" height="3" x="13" y="41" rx="1.5" ry="1.5"/>
 <rect style="fill:#c0c0c0" width="22" height="3" x="13" y="40" rx="1.5" ry="1.5"/>
 <rect style="fill:#c0c0c0" width="32" height="40" x="-37" y="-44" rx="2" ry="2" transform="matrix(0,-1,-1,0,0,0)"/>
 <rect style="fill:#8032f1" width="26" height="34" x="-34" y="-41" rx="0" ry="0" transform="matrix(0,-1,-1,0,0,0)"/>
 <path style="opacity:0.2;fill:#f4f4f7" d="M 6,5 C 4.892,5 4,5.892 4,7 V 8 C 4,6.892 4.892,6 6,6 h 36 c 1.108,0 2,0.892 2,2 V 7 C 44,5.892 43.108,5 42,5 Z"/>
 <path style="opacity:0.2" d="m 4,35 v 1 c 0,1.108 0.892,2 2,2 h 36 c 1.108,0 2,-0.892 2,-2 v -1 c 0,1.108 -0.892,2 -2,2 H 6 C 4.892,37 4,36.108 4,35 Z"/>
 <path style="opacity:0.2" d="M 26.329371,13.306669 A 9,9 0 0 0 15.306668,19.67063 9,9 0 0 0 21.670629,30.693333 9,9 0 0 0 32.693332,24.329372 9,9 0 0 0 26.329371,13.306669 Z m -1.503784,1.748495 -1.166708,4.354213 -2.252521,-3.901482 a 7,7 0 0 1 3.419229,-0.452731 z m 1.931346,0.519525 a 7,7 0 0 1 2.73528,2.099804 l -3.901482,2.252522 z m -7.082441,0.933099 2.252522,3.901482 -4.352326,-1.166202 a 7,7 0 0 1 2.099804,-2.73528 z m 10.817614,2.898571 a 7,7 0 0 1 0.452731,3.419229 L 26.590624,21.65888 Z m -6.233287,1.627716 a 1,1 0 0 1 0.707107,1.224745 1,1 0 0 1 -1.224745,0.707107 1,1 0 0 1 -0.707107,-1.224745 1,1 0 0 1 1.224745,-0.707107 z m -7.203656,0.140339 4.354213,1.166708 -3.901482,2.252521 a 7,7 0 0 1 -0.452731,-3.419229 z m 9.017823,2.416318 4.352326,1.166202 a 7,7 0 0 1 -2.099804,2.73528 z m -3.663717,0.482255 -1.166202,4.352326 a 7,7 0 0 1 -2.73528,-2.099804 z m 1.931852,0.517638 2.252521,3.901482 a 7,7 0 0 1 -3.419229,0.452731 z"/>
 <path style="opacity:0.3" d="m 37,23 c -4.704444,0 0.648715,5 -13,5 v 2 h 6 c 7.043599,0 4.857026,-5.14242 7.460937,-5.070312 C 40,25 39.604254,26.610914 41,27 40.41098,24.932698 39,23 37,23 Z"/>
 <circle style="opacity:0.3" cx="24" cy="21" r="6"/>
 <path style="fill:#f4f4f7" d="m 26.329371,12.306668 a 9,9 0 0 0 -11.022703,6.363961 9,9 0 0 0 6.363961,11.022703 9,9 0 0 0 11.022703,-6.363961 9,9 0 0 0 -6.363961,-11.022703 z m -1.503784,1.748495 -1.166708,4.354213 -2.252521,-3.901482 a 7,7 0 0 1 3.419229,-0.452731 z m 1.931346,0.519525 a 7,7 0 0 1 2.73528,2.099804 l -3.901482,2.252522 z m -7.082441,0.933099 2.252522,3.901482 -4.352326,-1.166202 a 7,7 0 0 1 2.099804,-2.73528 z m 10.817614,2.898571 a 7,7 0 0 1 0.452731,3.419229 l -4.354213,-1.166708 z m -6.233287,1.627716 a 1,1 0 0 1 0.707107,1.224745 1,1 0 0 1 -1.224745,0.707107 1,1 0 0 1 -0.707107,-1.224745 1,1 0 0 1 1.224745,-0.707107 z m -7.203656,0.140339 4.354213,1.166708 -3.901482,2.252521 a 7,7 0 0 1 -0.452731,-3.419229 z m 9.017823,2.416318 4.352326,1.166202 a 7,7 0 0 1 -2.099804,2.73528 z m -3.663717,0.482255 -1.166202,4.352326 a 7,7 0 0 1 -2.73528,-2.099804 z m 1.931852,0.517638 2.252521,3.901482 a 7,7 0 0 1 -3.419229,0.452731 z"/>
 <path style="opacity:0.2;fill:#f4f4f7" d="M 14.5 40 C 13.669 40 13 40.669 13 41.5 C 13 41.67676 13.036139 41.842779 13.091797 42 C 13.297803 41.418077 13.84576 41 14.5 41 L 33.5 41 C 34.15424 41 34.702197 41.418077 34.908203 42 C 34.963861 41.842779 35 41.67676 35 41.5 C 35 40.669 34.331 40 33.5 40 L 14.5 40 z"/>
 <rect style="opacity:0.1" width="34" height="1" x="7" y="8"/>
 <rect style="opacity:0.1;fill:#f4f4f7" width="34" height="1" x="7" y="34"/>
</svg>
