<svg xmlns="http://www.w3.org/2000/svg" width="48" height="48" version="1.1">
 <path style="fill:#4f4f4f" d="m 24.1077,4.0016669 a 4.5656,4.5479 0 0 0 -2.391,0.6067 L 8.2827,12.334367 a 4.5656,4.5479 0 0 0 -2.283,3.939 l 0,15.453 a 4.5656,4.5479 0 0 0 2.2828,3.9386 l 13.434,7.7264 a 4.5656,4.5479 0 0 0 4.5656,0 l 13.434,-7.7264 a 4.5656,4.5479 0 0 0 2.283,-3.939 l 0,-15.453 a 4.5656,4.5479 0 0 0 -2.283,-3.939 L 26.2821,4.6079669 a 4.5656,4.5479 0 0 0 -2.175,-0.6067 z"/>
 <path style="opacity:0.1;fill:#f4f4f7" d="m 24.1067,4.0023669 a 4.5656,4.5479 0 0 0 -2.39,0.6054 L 8.2827,12.334367 a 4.5656,4.5479 0 0 0 -2.283,3.939 l 0,1 a 4.5656,4.5479 0 0 1 2.2832,-3.939 l 13.434,-7.7266001 a 4.5656,4.5479 0 0 1 2.3906,-0.60547 4.5656,4.5479 0 0 1 2.1758,0.60547 l 13.434,7.7266001 a 4.5656,4.5479 0 0 1 2.283,3.939 l 0,-1 a 4.5656,4.5479 0 0 0 -2.283,-3.939 L 26.2833,4.6077669 a 4.5656,4.5479 0 0 0 -2.176,-0.6054 z"/>
 <path style="opacity:0.2" d="m 5.9997,31.726367 0,1 a 4.5656,4.5479 0 0 0 2.2832,3.9375 l 13.434,7.7266 a 4.5656,4.5479 0 0 0 4.5664,0 l 13.434,-7.727 a 4.5656,4.5479 0 0 0 2.283,-3.938 l 0,-1 a 4.5656,4.5479 0 0 1 -2.2832,3.9375 l -13.434,7.7266 a 4.5656,4.5479 0 0 1 -4.5664,0 l -13.434,-7.727 a 4.5656,4.5479 0 0 1 -2.283,-3.938 z"/>
 <path style="opacity:0.2" d="m 24.084234,9.0010632 a 3.5510814,3.6382897 0 0 0 -1.859697,0.485356 L 11.775696,15.667168 A 3.5510814,3.6382897 0 0 0 10,18.818341 l 0,12.362297 a 3.5510814,3.6382897 0 0 0 1.775541,3.150854 l 10.44884,6.181069 a 3.5510814,3.6382897 0 0 0 3.551082,0 L 36.224304,34.331492 A 3.5510814,3.6382897 0 0 0 38,31.180318 L 38,18.818021 A 3.5510814,3.6382897 0 0 0 36.224304,15.666848 L 25.775463,9.4860992 a 3.5510814,3.6382897 0 0 0 -1.691695,-0.485356 z"/>
 <path style="fill:#f05353" d="M 37.599609 16.148438 L 23.927734 24.041016 L 37.564453 31.914062 A 3.5510814 3.6382897 0 0 0 38 30.179688 L 38 17.818359 A 3.5510814 3.6382897 0 0 0 37.599609 16.148438 z"/>
 <path style="fill:#5fcad6" d="M 23.927734 24.041016 L 10.400391 31.851562 A 3.5510814 3.6382897 0 0 0 11.775391 33.332031 L 22.224609 39.511719 A 3.5510814 3.6382897 0 0 0 23.927734 39.998047 L 23.927734 24.041016 z"/>
 <path style="fill:#5c6cd9" d="M 23.927734 24.041016 L 23.927734 39.998047 A 3.5510814 3.6382897 0 0 0 25.775391 39.511719 L 36.224609 33.332031 A 3.5510814 3.6382897 0 0 0 37.564453 31.914062 L 23.927734 24.041016 z"/>
 <path style="fill:#7c9446" d="M 10.433594 16.085938 A 3.5510814 3.6382897 0 0 0 10 17.818359 L 10 30.179688 A 3.5510814 3.6382897 0 0 0 10.400391 31.851562 L 24.072266 23.958984 L 10.433594 16.085938 z"/>
 <path style="fill:#bb53e2" d="M 24.083984 8 L 24.083984 8.0019531 A 3.5510814 3.6382897 0 0 0 24.072266 8.0019531 L 24.072266 23.958984 L 37.599609 16.148438 A 3.5510814 3.6382897 0 0 0 36.224609 14.666016 L 25.775391 8.4863281 A 3.5510814 3.6382897 0 0 0 24.083984 8 z"/>
 <path style="fill:#ffc540" d="M 24.072266 8.0019531 A 3.5510814 3.6382897 0 0 0 22.224609 8.4863281 L 11.775391 14.667969 A 3.5510814 3.6382897 0 0 0 10.433594 16.085938 L 24.072266 23.958984 L 24.072266 8.0019531 z"/>
 <path style="fill:#f4f4f7;opacity:0.2" d="M 24.083984 8 L 24.083984 8.0019531 A 3.5510814 3.6382897 0 0 0 22.224609 8.4863281 L 11.775391 14.667969 A 3.5510814 3.6382897 0 0 0 10 17.818359 L 10 18.818359 A 3.5510814 3.6382897 0 0 1 11.775391 15.667969 L 22.224609 9.4863281 A 3.5510814 3.6382897 0 0 1 24.083984 9.0019531 L 24.083984 9 A 3.5510814 3.6382897 0 0 1 25.775391 9.4863281 L 36.224609 15.666016 A 3.5510814 3.6382897 0 0 1 38 18.818359 L 38 17.818359 A 3.5510814 3.6382897 0 0 0 36.224609 14.666016 L 25.775391 8.4863281 A 3.5510814 3.6382897 0 0 0 24.083984 8 z"/>
 <path style="fill:none;stroke:#3f3f3f;stroke-width:4;stroke-linecap:round;stroke-linejoin:round" d="m 16,18 4,14 4,-14 4,14 4,-14 0,0"/>
</svg>
