<svg xmlns="http://www.w3.org/2000/svg" width="48" height="48" version="1.1">
 <circle style="opacity:0.2" cx="24" cy="25" r="20"/>
 <circle style="fill:#3c4153" cx="24" cy="24" r="20"/>
 <path style="opacity:0.2" d="m 24.003906,8.9999566 c -1.41133,0 -2.045189,0.054486 -3.085937,0.2675781 -0.86025,0.1761781 -2.253092,0.5720743 -2.445313,0.6953125 -0.04874,0.031219 0.510274,0.6143898 2.703125,2.8164068 1.520719,1.527069 2.794201,2.777344 2.828125,2.777344 0.03394,0 1.305463,-1.250275 2.826172,-2.777344 C 29.022929,10.577237 29.58194,9.9940864 29.533203,9.9628472 29.340981,9.839609 27.948151,9.4437128 27.087891,9.2675347 26.047153,9.0544127 25.415236,8.9999566 24.003906,8.9999566 Z m 9.550782,3.1132814 c -0.06627,-0.02705 -6.519532,6.433922 -6.519532,6.527344 0,0.06773 3.229799,3.330078 3.296875,3.330078 0.0229,0 0.326842,-0.288533 0.675781,-0.640625 0.34895,-0.352091 1.05461,-1.046976 1.566407,-1.544922 l 0.929687,-0.90625 0.167969,0.261719 c 0.415823,0.641715 0.950717,1.866793 1.203125,2.755859 0.310618,1.094093 0.414062,1.86895 0.414062,3.138672 0,1.081291 -0.03407,1.441549 -0.210937,2.292969 -0.191128,0.920132 -0.46602,1.746663 -0.855469,2.568359 -0.277901,0.586335 -0.661704,1.244141 -0.726562,1.244141 -0.02736,0 -2.174858,-2.131863 -4.771485,-4.738281 l -4.720703,-4.740235 -4.722656,4.740235 c -2.596616,2.606418 -4.742143,4.738281 -4.769531,4.738281 -0.06485,0 -0.450615,-0.657806 -0.728516,-1.244141 -0.498463,-1.051739 -0.837688,-2.211516 -1.009765,-3.443359 -0.07275,-0.520856 -0.07275,-2.317024 0,-2.837891 0.122156,-0.874443 0.332291,-1.726603 0.628906,-2.546875 0.192131,-0.531351 0.677905,-1.536156 0.93164,-1.927734 l 0.167969,-0.261719 0.890625,0.865235 c 0.489262,0.47532 1.19297,1.170225 1.564453,1.544921 0.371494,0.374698 0.694121,0.681641 0.716797,0.681641 0.06708,0 3.298828,-3.262353 3.298828,-3.330078 0,-0.03407 -1.456554,-1.524117 -3.236328,-3.310547 -3.128445,-3.140148 -3.238849,-3.245209 -3.328125,-3.189453 -0.181238,0.113202 -0.8836,0.700075 -1.300781,1.087891 -3.7666748,3.501544 -5.6405302,8.71051 -4.9746095,13.824218 0.3398301,2.609519 1.3142422,5.100102 2.8378905,7.253907 0.542549,0.766947 0.946672,1.238679 1.744141,2.037109 0.701871,0.702709 1.657455,1.536653 1.763672,1.539062 0.02229,4.99e-4 2.160635,-2.125758 4.751953,-4.726562 2.591307,-2.600805 4.739736,-4.730469 4.773437,-4.730469 0.03374,0 2.162081,2.111855 4.730469,4.691407 2.568388,2.57956 4.703226,4.707628 4.744141,4.730468 0.184369,0.10291 2.164025,-1.745527 3.009765,-2.810547 1.453896,-1.830869 2.503435,-3.975749 3.054688,-6.240234 0.545517,-2.240964 0.603808,-4.695367 0.164062,-6.908203 C 39.04414,18.5529 37.363002,15.530456 34.878906,13.212848 34.462302,12.824169 33.655343,12.154321 33.554688,12.113238 Z M 24.003906,34.53316 c -0.03384,0 -1.285236,1.232801 -2.779297,2.740235 l -2.716797,2.740234 0.238282,0.08984 c 1.121625,0.423814 2.943209,0.784013 4.361328,0.861328 0.855335,0.04657 0.888288,0.04663 1.695312,0.002 0.88627,-0.04891 1.507318,-0.126492 2.355469,-0.292969 0.626617,-0.123004 1.650879,-0.401538 2.105469,-0.572266 l 0.234375,-0.08789 -2.716797,-2.740234 C 25.287199,35.765962 24.037697,34.53316 24.003906,34.53316 Z"/>
 <path style="fill:#f4f4f7;opacity:0.1" d="M 24 4 A 20 20 0 0 0 4 24 A 20 20 0 0 0 4.0214844 24.582031 A 20 20 0 0 1 24 5 A 20 20 0 0 1 43.978516 24.417969 A 20 20 0 0 0 44 24 A 20 20 0 0 0 24 4 z"/>
 <path style="fill:#984ee5" d="m 24.801885,39.966857 c 0.88627,-0.04891 1.507264,-0.126004 2.355415,-0.292481 0.626617,-0.123004 1.652055,-0.401574 2.106645,-0.572302 l 0.233521,-0.08766 -2.716462,-2.740781 C 25.286953,34.7662 24.03689,33.532842 24.003099,33.532842 c -0.03384,0 -1.283855,1.233358 -2.777916,2.740791 l -2.716462,2.740781 0.238162,0.09 c 1.121625,0.423814 2.942313,0.783044 4.360432,0.860359 0.855335,0.04657 0.887546,0.04668 1.69457,0.002 z"/>
 <path style="fill:#d8d9e2" d="m 19.230654,32.155302 c 2.591307,-2.600805 4.739048,-4.72874 4.772749,-4.72874 0.03374,0 2.162676,2.110556 4.731064,4.690108 2.568388,2.579561 4.703271,4.708798 4.744186,4.731638 0.184369,0.10291 2.163862,-1.745937 3.009602,-2.810957 1.453896,-1.830869 2.50429,-3.976234 3.055543,-6.240719 0.545517,-2.240964 0.603799,-4.695223 0.164053,-6.908059 -0.662891,-3.335729 -2.344806,-6.357174 -4.828902,-8.674782 -0.416604,-0.388679 -1.22458,-1.059966 -1.325236,-1.101049 -0.06627,-0.02705 -6.519308,6.433686 -6.519308,6.527108 0,0.06773 3.230802,3.33097 3.297878,3.33097 0.0229,0 0.327155,-0.288088 0.676094,-0.64018 0.348949,-0.352091 1.053191,-1.04757 1.564988,-1.545516 l 0.930538,-0.905346 0.168815,0.26053 c 0.415823,0.641715 0.950722,1.86707 1.20313,2.756136 0.310618,1.094093 0.412327,1.868046 0.412327,3.137768 0,1.081291 -0.03313,1.443379 -0.209993,2.294799 -0.191128,0.920132 -0.466262,1.745581 -0.855711,2.567277 -0.277901,0.586335 -0.662455,1.244158 -0.727313,1.244158 -0.02736,0 -2.174308,-2.132532 -4.770935,-4.73895 l -4.721124,-4.73895 -4.721135,4.73895 c -2.596616,2.606418 -4.743537,4.73895 -4.770925,4.73895 -0.06485,0 -0.449422,-0.657823 -0.727323,-1.244158 -0.498463,-1.051739 -0.839053,-2.211616 -1.011131,-3.443459 -0.07275,-0.520856 -0.07275,-2.316377 0,-2.837244 0.122156,-0.874443 0.332778,-1.72686 0.629393,-2.547132 0.192131,-0.531351 0.677756,-1.536557 0.931491,-1.928135 l 0.168816,-0.26052 0.889583,0.864233 c 0.489262,0.47532 1.193524,1.170809 1.565007,1.545506 0.371494,0.374697 0.693998,0.681283 0.716674,0.681283 0.06708,0 3.298234,-3.262868 3.298234,-3.330593 0,-0.03407 -1.456176,-1.523592 -3.23595,-3.310022 -3.128445,-3.140148 -3.23902,-3.246149 -3.328296,-3.190393 -0.181238,0.113202 -0.882511,0.700329 -1.299692,1.088145 -3.7666747,3.501544 -5.6413587,8.710261 -4.975438,13.823969 0.3398301,2.609519 1.3144846,5.100905 2.838133,7.25471 0.542549,0.766947 0.946142,1.238412 1.743611,2.036842 0.701871,0.702709 1.658257,1.537228 1.764474,1.539638 0.02229,4.98e-4 2.160711,-2.12701 4.752029,-4.727814 z"/>
 <path style="fill:#984ee5" d="M 26.8297,11.779687 C 29.022551,9.5776706 29.58193,8.9950375 29.533193,8.9637983 29.340971,8.8405601 27.947971,8.4442842 27.087711,8.2681061 26.046973,8.0549841 25.414429,8.0000003 24.003099,8.0000003 c -1.41133,0 -2.043875,0.055014 -3.084623,0.2681058 -0.86025,0.1761781 -2.25325,0.572454 -2.445471,0.6956922 -0.04874,0.031219 0.510631,0.6138723 2.703482,2.8158887 1.520719,1.527069 2.792688,2.776494 2.826612,2.776494 0.03394,0 1.305892,-1.249425 2.826601,-2.776494 z"/>
 <path style="fill:#f4f4f7;opacity:0.2" d="M 24.003906 8 C 22.592576 8 21.958717 8.0544863 20.917969 8.2675781 C 20.057719 8.4437562 18.664877 8.8396524 18.472656 8.9628906 C 18.446367 8.9797296 18.667892 9.2270004 19.15625 9.7324219 C 19.689398 9.5676348 20.359997 9.3818501 20.917969 9.2675781 C 21.958717 9.054486 22.592576 9 24.003906 9 C 25.415236 9 26.047153 9.0544561 27.087891 9.2675781 C 27.645869 9.3818501 28.316464 9.5676348 28.849609 9.7324219 C 29.337967 9.2270035 29.559491 8.9797405 29.533203 8.9628906 C 29.340981 8.8396524 27.948151 8.4437562 27.087891 8.2675781 C 26.047153 8.0544561 25.415236 8 24.003906 8 z M 33.554688 11.113281 C 33.488416 11.086231 27.035156 17.547203 27.035156 17.640625 C 27.035156 17.650722 27.397142 18.013822 27.519531 18.144531 C 28.347425 17.242176 33.493383 12.088258 33.554688 12.113281 C 33.655343 12.154364 34.462302 12.824212 34.878906 13.212891 C 37.363002 15.530499 39.04414 18.552943 39.707031 21.888672 C 39.881404 22.766129 39.954229 23.684321 39.972656 24.609375 C 40.023684 23.346187 39.94431 22.082677 39.707031 20.888672 C 39.04414 17.552943 37.363002 14.530499 34.878906 12.212891 C 34.462302 11.824212 33.655343 11.154364 33.554688 11.113281 z M 14.408203 11.140625 C 14.226965 11.253827 13.524603 11.8407 13.107422 12.228516 C 9.7214472 15.376156 7.8706197 19.904335 8.0136719 24.501953 C 8.1479285 20.253944 9.9672421 16.147663 13.107422 13.228516 C 13.524603 12.8407 14.226965 12.253827 14.408203 12.140625 C 14.497479 12.084869 14.607883 12.18993 17.736328 15.330078 C 19.249559 16.848968 20.138957 17.766887 20.488281 18.144531 C 20.610615 18.013955 20.972656 17.650716 20.972656 17.640625 C 20.972656 17.606555 19.516102 16.116508 17.736328 14.330078 C 14.607883 11.18993 14.497479 11.084869 14.408203 11.140625 z M 24.003906 20.662109 L 19.28125 25.402344 C 16.684634 28.008762 14.539107 30.140625 14.511719 30.140625 C 14.446869 30.140625 14.061104 29.482819 13.783203 28.896484 C 13.28474 27.844745 12.945515 26.684968 12.773438 25.453125 C 12.749889 25.28453 12.746585 24.884488 12.738281 24.535156 C 12.721017 25.264726 12.724286 26.101222 12.773438 26.453125 C 12.945514 27.684968 13.28474 28.844745 13.783203 29.896484 C 14.061104 30.482819 14.446869 31.140625 14.511719 31.140625 C 14.539107 31.140625 16.684634 29.008762 19.28125 26.402344 L 24.003906 21.662109 L 28.724609 26.402344 C 31.321236 29.008762 33.468734 31.140625 33.496094 31.140625 C 33.560952 31.140625 33.944755 30.482819 34.222656 29.896484 C 34.612105 29.074788 34.886997 28.248257 35.078125 27.328125 C 35.254992 26.476705 35.289062 26.116447 35.289062 25.035156 C 35.289062 24.830639 35.281192 24.654898 35.275391 24.472656 C 35.262625 25.182909 35.223596 25.627827 35.078125 26.328125 C 34.886997 27.248257 34.612105 28.074788 34.222656 28.896484 C 33.944755 29.482819 33.560952 30.140625 33.496094 30.140625 C 33.468734 30.140625 31.321236 28.008762 28.724609 25.402344 L 24.003906 20.662109 z M 24.003906 33.533203 C 23.970066 33.533203 22.71867 34.766004 21.224609 36.273438 L 18.507812 39.013672 L 18.746094 39.103516 C 18.894596 39.159628 19.081472 39.210299 19.251953 39.263672 L 21.224609 37.273438 C 22.71867 35.766004 23.970066 34.533203 24.003906 34.533203 C 24.037697 34.533203 25.287199 35.765961 26.78125 37.273438 L 28.75 39.259766 C 28.928091 39.205462 29.145543 39.145928 29.263672 39.101562 L 29.498047 39.013672 L 26.78125 36.273438 C 25.287199 34.766005 24.037697 33.533203 24.003906 33.533203 z"/>
</svg>
