<svg xmlns="http://www.w3.org/2000/svg" width="48" height="48" version="1.1">
 <rect style="opacity:.2" width="40" height="40" x="4" y="5" rx="2" ry="2"/>
 <rect style="fill:#b2bfd9" width="40" height="40" x="4" y="4" rx="2" ry="2"/>
 <path style="fill:#f4f4f7;opacity:.2" d="m6 3.9999996c-1.108 0-2 0.892-2 2v1c0-1.108 0.892-2 2-2h36c1.108 0 2 0.892 2 2v-1c0-1.108-0.892-2-2-2z"/>
 <path style="fill:none;opacity:.2;stroke-linecap:round;stroke-width:4;stroke:#000000" d="m16.0002 38.9998 12-12"/>
 <path style="fill:none;stroke-linecap:round;stroke-width:4;stroke:#3f3f3f" d="m16.0002 38 12-12"/>
 <path style="fill:none;opacity:.2;stroke-linecap:round;stroke-width:4;stroke:#000000" d="m38 26.9998-12 12"/>
 <path style="fill:none;stroke-linecap:round;stroke-width:4;stroke:#3f3f3f" d="m38 26-12 12"/>
</svg>
