<svg xmlns="http://www.w3.org/2000/svg" width="48" height="48" version="1.1">
 <circle style="opacity:0.2" cx="24" cy="25" r="20"/>
 <circle style="fill:#248afd" cx="24" cy="24" r="20"/>
 <path style="opacity:0.2;fill:#f4f4f7" d="M 24,4 A 20,20 0 0 0 4,24 20,20 0 0 0 4.0215,24.582 20,20 0 0 1 24,5 20,20 0 0 1 43.979,24.418 20,20 0 0 0 44,24 20,20 0 0 0 24,4 Z"/>
 <path style="opacity:0.2" d="M 20,13 C 20,13 19,18 25,24 31,30 36,29 36,29 36,29 29.575,32.575 23,26 16.425,19.425 20,13 20,13 Z M 14,15 C 14,15 13,22 20,29 27,36 35,35 35,35 35,35 25,39 17.5,31.5 10,24 14,15 14,15 Z"/>
 <path style="fill:#f4f4f7" d="M 20,12 C 20,12 19,17 25,23 31,29 36,28 36,28 36,28 29.575,31.575 23,25 16.425,18.425 20,12 20,12 Z M 14,14 C 14,14 13,21 20,28 27,35 35,34 35,34 35,34 25,38 17.5,30.5 10,23 14,14 14,14 Z"/>
</svg>
