<svg xmlns="http://www.w3.org/2000/svg" width="48" height="48" version="1">
 <path fill="#b2bfd9" d="m24 4c-11.08 0-20 8.92-20 20s8.92 20 20 20 20-8.92 20-20-8.92-20-20-20z"/>
 <path fill="#fff" opacity=".2" d="m24 4c11.07 0 19.982 8.92 19.982 20 0 0.16787-0.008 0.33314-0.01169 0.5-0.264-10.846-9.068-19.5-19.97-19.5s-19.706 8.654-19.97 19.5c-0.004-0.16686-0.011689-0.33213-0.011689-0.5 0-11.08 8.9119-20 19.982-20z"/>
 <path opacity=".2" d="m4.0118 24.5c-0.0041 0.167-0.0117 0.332-0.0117 0.5 0 11.08 8.92 20 20 20s20-8.92 20-20c0-0.168-0.008-0.333-0.012-0.5-0.264 10.846-9.076 19.5-19.988 19.5s-19.724-8.654-19.988-19.5z"/>
 <path fill="none" stroke="#313131" stroke-width="2" d="m14 15v12s0 5 6 5 6-5 6-5v-9s0-2-2-2-2 2-2 2v9s0 5 6 5 6-5 6-5v-12"/>
</svg>
