<svg xmlns="http://www.w3.org/2000/svg" width="48" height="48" version="1">
 <rect fill="#b2bfd9" width="40" height="40" x="4" y="4" rx="20" ry="20"/>
 <path fill="#fff" opacity=".2" d="m24 4c-11.08 0-20 8.92-20 20 0 0.168 0.008 0.333 0.0117 0.5 0.2647-10.846 9.0763-19.5 19.988-19.5s19.724 8.6539 19.988 19.5c0.004-0.16686 0.0117-0.33213 0.0117-0.5 0-11.08-8.92-20-20-20z"/>
 <path opacity=".2" d="m4.0117 24.5c-0.0041 0.167-0.0117 0.332-0.0117 0.5 0 11.08 8.92 20 20 20s20-8.92 20-20c0-0.168-0.008-0.333-0.012-0.5-0.264 10.846-9.076 19.5-19.988 19.5s-19.724-8.654-19.988-19.5z"/>
 <path fill="#ef3939" d="m14 15c-1.108 0-2 0.892-2 2l12 7 12-7c0-1.108-0.892-2-2-2h-20zm1.971 2h16.058l-8.029 4.686-8.029-4.686zm-3.971 2v12c0 1.108 0.892 2 2 2h20c1.108 0 2-0.892 2-2v-12l-12 7-12-7zm2 3.482l8.992 5.247a2.0002 2.0002 0 0 0 2.016 0l8.992-5.247v8.518h-20v-8.518z"/>
</svg>
