<svg xmlns="http://www.w3.org/2000/svg" width="48" height="48" version="1">
 <rect style="opacity:0.2" width="44" height="30" x="2" y="10" rx="2" ry="2.143"/>
 <rect style="fill:#b2bfd9" width="44" height="30" x="2" y="9" rx="2" ry="2.143"/>
 <rect style="fill:#4f4f4f" width="36" height="22" x="6" y="13"/>
 <path style="opacity:0.2" d="M 9.5,18 12,32 h 6 3 6 3 6 l 2.5,-14 h -6 l -1.427734,8 H 27 v -8 h -6 v 8 H 16.927734 L 15.5,18 Z"/>
 <path style="fill:#b2bfd9" d="M 9.5 17 L 12 31 L 18 31 L 21 31 L 27 31 L 30 31 L 36 31 L 38.5 17 L 32.5 17 L 31.072266 25 L 27 25 L 27 17 L 21 17 L 21 25 L 16.927734 25 L 15.5 17 L 9.5 17 z"/>
 <path style="fill:#f4f4f7;opacity:0.2" d="M 4 9 C 2.892 9 2 9.9554353 2 11.142578 L 2 12.142578 C 2 10.955435 2.892 10 4 10 L 44 10 C 45.108 10 46 10.955435 46 12.142578 L 46 11.142578 C 46 9.9554353 45.108 9 44 9 L 4 9 z"/>
 <path style="opacity:0.2;fill:#f4f4f7" d="M 9.5 17 L 9.6777344 18 L 15.5 18 L 16.927734 26 L 21 26 L 21 25 L 16.927734 25 L 15.5 17 L 9.5 17 z M 21 17 L 21 18 L 27 18 L 27 17 L 21 17 z M 32.5 17 L 31.072266 25 L 27 25 L 27 26 L 31.072266 26 L 32.5 18 L 38.322266 18 L 38.5 17 L 32.5 17 z"/>
 <rect style="opacity:0.2" width="36" height="1" x="6" y="13"/>
 <rect style="opacity:0.2;fill:#f4f4f7" width="36" height="1" x="6" y="35"/>
</svg>
