<svg xmlns="http://www.w3.org/2000/svg" width="48" height="48" version="1.1">
 <g transform="translate(0,-1004.3622)">
  <path style="opacity:0.2" d="m 39.213211,1047.2885 c -0.244997,-0.036 -0.51606,-0.1019 -0.602364,-0.1462 -0.0863,-0.045 -1.826668,-0.9998 -3.867476,-2.1224 -2.040808,-1.1228 -3.779277,-2.0769 -3.863265,-2.1204 -0.146779,-0.075 -0.250519,-0.064 -2.674495,0.313 l -2.521791,0.3919 -3.411028,-0.2027 c -1.876066,-0.1115 -3.59425,-0.2104 -3.818189,-0.2199 -0.389573,-0.017 -0.559668,-0.07 -3.937811,-1.2592 -1.941857,-0.683 -3.580239,-1.2733 -3.640848,-1.3116 -0.09969,-0.063 -6.263039,-5.0764 -6.408624,-5.2129 -0.033815,-0.031 -0.5828817,-1.5038 -1.2201473,-3.2711 -0.6372657,-1.7675 -1.1887436,-3.2748 -1.2255066,-3.3498 -0.059924,-0.1221 -0.017409,-0.5185 0.4107605,-3.8287 0.4463884,-3.4511 0.4848334,-3.6999 0.5882471,-3.8061 0.060855,-0.062 1.2896311,-1.5206 2.7306143,-3.2402 l 2.61997,-3.1266 2.777211,-1.3598 2.777209,-1.3596 3.734656,-0.8469 3.734655,-0.8471 3.429523,0.075 3.429521,0.075 3.367423,1.056 3.367423,1.056 2.672214,1.7198 c 1.469718,0.946 2.718691,1.7703 2.775496,1.8321 0.08362,0.09 4.03066,4.8115 4.247392,5.0797 0.03402,0.042 0.344032,1.3078 0.68893,2.8125 L 46,1026.8056 l -0.487902,2.8195 c -0.447574,2.5864 -0.498489,2.8334 -0.615996,2.9887 -1.101232,1.4554 -3.712075,4.7366 -3.819163,4.7998 -0.104112,0.061 -3.464671,2.7578 -3.718882,2.9838 -0.01964,0.018 0.527905,1.5868 1.216775,3.4873 0.688869,1.9004 1.25249,3.4612 1.25249,3.4683 0,0.02 -0.131642,0.011 -0.614111,-0.064 z"/>
  <path style="fill:#fc6500" d="m 39.213211,1046.2885 c -0.244997,-0.036 -0.51606,-0.1019 -0.602364,-0.1462 -0.0863,-0.045 -1.826668,-0.9998 -3.867476,-2.1224 -2.040808,-1.1228 -3.779277,-2.0769 -3.863265,-2.1204 -0.146779,-0.075 -0.250519,-0.064 -2.674495,0.313 l -2.521791,0.3919 -3.411028,-0.2027 c -1.876066,-0.1115 -3.59425,-0.2104 -3.818189,-0.2199 -0.389573,-0.017 -0.559668,-0.07 -3.937811,-1.2592 -1.941857,-0.683 -3.580239,-1.2733 -3.640848,-1.3116 -0.09969,-0.063 -6.263039,-5.0764 -6.408624,-5.2129 -0.033815,-0.031 -0.5828817,-1.5038 -1.2201473,-3.2711 -0.6372657,-1.7675 -1.1887436,-3.2748 -1.2255066,-3.3498 -0.059924,-0.1221 -0.017409,-0.5185 0.4107605,-3.8287 0.4463884,-3.4511 0.4848334,-3.6999 0.5882471,-3.8061 0.060855,-0.062 1.2896311,-1.5206 2.7306143,-3.2402 l 2.61997,-3.1266 2.777211,-1.3598 2.777209,-1.3596 3.734656,-0.8469 3.734655,-0.8471 3.429523,0.075 3.429521,0.075 3.367423,1.056 3.367423,1.056 2.672214,1.7198 c 1.469718,0.946 2.718691,1.7703 2.775496,1.8321 0.08362,0.09 4.03066,4.8115 4.247392,5.0797 0.03402,0.042 0.344032,1.3078 0.68893,2.8125 L 46,1025.8056 l -0.487902,2.8195 c -0.447574,2.5864 -0.498489,2.8334 -0.615996,2.9887 -1.101232,1.4554 -3.712075,4.7366 -3.819163,4.7998 -0.104112,0.061 -3.464671,2.7578 -3.718882,2.9838 -0.01964,0.018 0.527905,1.5868 1.216775,3.4873 0.688869,1.9004 1.25249,3.4612 1.25249,3.4683 0,0.02 -0.131642,0.011 -0.614111,-0.064 z"/>
  <path style="opacity:0.2" d="m 21.597656,1012.3681 -3.49414,0.8027 -3.507813,0.7949 -2.568359,1.2578 -2.3964846,1.1719 -2.3457032,2.8028 c -0.721443,0.8609 -1.3900168,1.6566 -1.8867187,2.2461 -0.2335915,0.2772 -0.4219027,0.4972 -0.5683594,0.6699 -0.069895,0.453 -0.1915899,1.3815 -0.4140625,3.1015 -0.2138622,1.6534 -0.3310145,2.5836 -0.3828125,3.0664 -0.00816,0.076 -0.00413,0.116 -0.00195,0.1641 0.0675,0.1818 0.1513407,0.4096 0.2558594,0.6953 0.2236789,0.6113 0.5222554,1.4321 0.8417968,2.3184 0.3165953,0.878 0.6107751,1.6829 0.828125,2.2656 0.074381,0.1995 0.1226263,0.3276 0.1757813,0.4668 0.1734839,0.1426 0.3832427,0.3145 0.6484375,0.5312 0.59795,0.4886 1.385069,1.1292 2.1699219,1.7676 0.7848529,0.6384 1.5680021,1.2745 2.1601561,1.7539 0.296077,0.2397 0.543791,0.4415 0.71875,0.5821 0.02259,0.018 0.03265,0.025 0.05273,0.041 h 0.0098 c 0.181775,0.068 0.448913,0.1636 0.775391,0.2812 0.652955,0.2352 1.544836,0.5525 2.511719,0.8926 h 0.002 c 1.687932,0.5942 2.580751,0.9063 3.033203,1.0508 0.449965,0.144 0.211749,0.098 0.324218,0.098 h 0.002 c 0.379428,0.016 1.972218,0.1091 3.849609,0.2207 l 3.197266,0.1915 2.310547,-0.3594 c 1.21335,-0.1887 1.832621,-0.285 2.267578,-0.336 0.217478,-0.023 0.388318,-0.047 0.68164,-0.031 0.293323,0.016 0.804022,0.1809 0.94336,0.2519 h 0.0039 0.0059 c 0.170197,0.088 0.18267,0.099 0.390625,0.2129 0.207956,0.1138 0.499076,0.2725 0.84961,0.4649 0.701067,0.3848 1.645093,0.9051 2.666015,1.4668 0.249698,0.1373 0.414128,0.2284 0.652344,0.3594 -0.193554,-0.5404 -0.407663,-1.1344 -0.546875,-1.5333 -0.112269,-0.3218 -0.201878,-0.5846 -0.267578,-0.7832 -0.03285,-0.099 -0.05866,-0.1786 -0.08398,-0.2636 -0.01267,-0.042 -0.02521,-0.08 -0.04492,-0.1621 -0.0099,-0.041 -0.02369,-0.085 -0.04102,-0.2129 -0.0086,-0.064 -0.02152,-0.142 -0.01563,-0.334 0.0029,-0.096 0.06046,-0.4352 0.06055,-0.4356 4.2e-5,-10e-5 0.152284,-0.4061 0.152344,-0.4062 5.9e-5,-10e-5 0.433517,-0.5722 0.433593,-0.5723 l 0.01172,-0.014 0.01172,-0.01 c 0.222736,-0.198 0.387949,-0.3227 0.744141,-0.6113 0.35619,-0.2886 0.80359,-0.6513 1.248046,-1.0079 0.444456,-0.3566 0.88461,-0.708 1.222657,-0.9765 0.169023,-0.1342 0.312225,-0.246 0.421875,-0.332 0.02108,-0.016 0.03598,-0.028 0.05469,-0.043 0.06876,-0.081 0.168557,-0.2008 0.294922,-0.3555 0.26792,-0.3281 0.634901,-0.7845 1.033203,-1.2851 0.732395,-0.9204 1.528786,-1.9424 2.070313,-2.6524 0.0013,-0.01 5.04e-4,-0 0.002,-0.012 0.06972,-0.3383 0.196483,-1.0526 0.419922,-2.3438 l 0.419922,-2.4218 -0.53711,-2.3457 c -0.17058,-0.7442 -0.333688,-1.4302 -0.455078,-1.9258 -0.04051,-0.1653 -0.06618,-0.2692 -0.0957,-0.3848 -0.213706,-0.2565 -0.99505,-1.1952 -1.896485,-2.2734 -0.511744,-0.612 -1.020047,-1.2175 -1.404296,-1.6758 -0.192125,-0.2292 -0.353999,-0.4223 -0.46875,-0.5586 -0.01501,-0.018 -0.02179,-0.025 -0.03516,-0.041 -0.0038,-0.01 -0.0039,-0.01 -0.0078,-0.01 -0.13413,-0.091 -0.337117,-0.2256 -0.583985,-0.3886 -0.493735,-0.3259 -1.169076,-0.7669 -1.898437,-1.2364 l -2.445313,-1.5742 -3.109374,-0.9746 -3.097657,-0.9707 -3.144531,-0.068 z m -17.6367185,15.8926 c 0.015833,0.041 0.029689,0.078 0.048828,0.1289 -0.00964,-0.033 -0.034117,-0.087 -0.048828,-0.1289 z m 0.070312,0.2304 c 0.00907,0.098 0.016482,0.093 0,0 z"/>
  <path style="fill:#fdcb00" transform="translate(0,1004.3622)" d="M 21.597656 7.0058594 L 18.103516 7.8085938 L 14.595703 8.6035156 L 12.027344 9.8613281 L 9.6308594 11.033203 L 7.2851562 13.835938 C 6.5637132 14.696837 5.8951394 15.492531 5.3984375 16.082031 C 5.164846 16.359231 4.9765348 16.579253 4.8300781 16.751953 C 4.7601832 17.204953 4.6384882 18.133516 4.4160156 19.853516 C 4.2021534 21.506916 4.0850011 22.437122 4.0332031 22.919922 C 4.0250442 22.995964 4.0290746 23.035831 4.03125 23.083984 C 4.0987499 23.265822 4.1825907 23.493608 4.2871094 23.779297 C 4.5107883 24.390597 4.8093648 25.211356 5.1289062 26.097656 C 5.4455015 26.975656 5.7396813 27.780581 5.9570312 28.363281 C 6.0314126 28.562781 6.0796575 28.690878 6.1328125 28.830078 C 6.3062964 28.972678 6.5160552 29.144628 6.78125 29.361328 C 7.3792 29.849928 8.166319 30.490506 8.9511719 31.128906 C 9.7360248 31.767306 10.519174 32.403413 11.111328 32.882812 C 11.407405 33.122513 11.655119 33.324244 11.830078 33.464844 C 11.852668 33.482844 11.862732 33.489859 11.882812 33.505859 L 11.892578 33.505859 C 12.074353 33.573359 12.341491 33.669509 12.667969 33.787109 C 13.320924 34.022309 14.212805 34.339588 15.179688 34.679688 L 15.181641 34.679688 C 16.869573 35.273888 17.762392 35.585969 18.214844 35.730469 C 18.664809 35.874469 18.426593 35.828125 18.539062 35.828125 L 18.541016 35.828125 C 18.920444 35.844225 20.513234 35.937228 22.390625 36.048828 L 25.587891 36.240234 L 27.898438 35.880859 C 29.111788 35.692159 29.731059 35.595922 30.166016 35.544922 C 30.383494 35.521922 30.554334 35.497672 30.847656 35.513672 C 31.140979 35.529272 31.651678 35.694625 31.791016 35.765625 L 31.794922 35.765625 L 31.800781 35.765625 C 31.970978 35.853825 31.983451 35.864716 32.191406 35.978516 C 32.399362 36.092316 32.690482 36.250959 33.041016 36.443359 C 33.742083 36.828159 34.686109 37.348456 35.707031 37.910156 C 35.956729 38.047456 36.121159 38.138531 36.359375 38.269531 C 36.165821 37.729131 35.951712 37.135228 35.8125 36.736328 C 35.700231 36.414528 35.610622 36.151725 35.544922 35.953125 C 35.512072 35.853925 35.486267 35.774453 35.460938 35.689453 C 35.448267 35.647053 35.435726 35.609344 35.416016 35.527344 C 35.406156 35.486144 35.39233 35.442453 35.375 35.314453 C 35.36637 35.250453 35.353475 35.172469 35.359375 34.980469 C 35.362305 34.884469 35.419837 34.545322 35.419922 34.544922 C 35.419964 34.544822 35.572206 34.138772 35.572266 34.138672 C 35.572325 34.138572 36.005783 33.566506 36.005859 33.566406 L 36.017578 33.552734 L 36.029297 33.542969 C 36.252033 33.344969 36.417246 33.220241 36.773438 32.931641 C 37.129628 32.643041 37.577028 32.280428 38.021484 31.923828 C 38.46594 31.567228 38.906094 31.215766 39.244141 30.947266 C 39.413164 30.813066 39.556366 30.701234 39.666016 30.615234 C 39.687096 30.599234 39.701993 30.587266 39.720703 30.572266 C 39.78946 30.491066 39.88926 30.371497 40.015625 30.216797 C 40.283545 29.888697 40.650526 29.432241 41.048828 28.931641 C 41.781223 28.011232 42.577614 26.989303 43.119141 26.279297 C 43.120457 26.272845 43.119645 26.274607 43.121094 26.267578 C 43.190812 25.929278 43.317577 25.215028 43.541016 23.923828 L 43.960938 21.501953 L 43.423828 19.15625 C 43.253248 18.41205 43.09014 17.726069 42.96875 17.230469 C 42.92824 17.065169 42.902567 16.961303 42.873047 16.845703 C 42.659341 16.589203 41.877997 15.650466 40.976562 14.572266 C 40.464818 13.960266 39.956515 13.354784 39.572266 12.896484 C 39.380141 12.667284 39.218267 12.474191 39.103516 12.337891 C 39.088506 12.319891 39.081729 12.312875 39.068359 12.296875 C 39.064559 12.286875 39.064447 12.287109 39.060547 12.287109 C 38.926417 12.195809 38.72343 12.061438 38.476562 11.898438 C 37.982827 11.572537 37.307486 11.131609 36.578125 10.662109 L 34.132812 9.0878906 L 31.023438 8.1132812 L 27.925781 7.1425781 L 24.78125 7.0742188 L 21.597656 7.0058594 z M 3.9609375 22.898438 C 3.9767707 22.939579 3.9906261 22.976058 4.0097656 23.027344 C 4.0001284 22.99468 3.9756481 22.940071 3.9609375 22.898438 z M 4.03125 23.128906 C 4.0403243 23.226744 4.0477317 23.221837 4.03125 23.128906 z"/>
  <path style="fill:#3f3f3f" d="m 10.984896,1034.8768 -1.008163,-1.4859 -0.9166521,-0.5173 c -0.5125902,-0.2893 -0.9072123,-0.5411 -0.8952374,-0.5715 0.011778,-0.03 0.5048983,-0.7825 1.0958235,-1.6728 0.5909252,-0.8903 1.065527,-1.6446 1.05467,-1.6763 -0.01087,-0.032 -0.04076,-0.058 -0.06644,-0.058 -0.02569,0 -0.3708918,0.2002 -0.7671216,0.4448 -0.9356634,0.5778 -2.2739082,1.3904 -2.5664194,1.5583 -0.2040354,0.1171 -0.2330159,0.1231 -0.2554485,0.051 -0.013917,-0.044 -0.1680883,-0.8364 -0.3426044,-1.7603 L 6,1027.5093 l 0.3623296,-2.007 c 0.1992817,-1.104 0.3933366,-2.1784 0.4312342,-2.3877 0.065449,-0.3614 0.1289638,-0.4843 1.2668895,-2.4498 l 1.1979856,-2.0693 1.8324811,-0.9146 c 1.007865,-0.5029 1.849008,-0.9151 1.869206,-0.9156 0.135686,0 -0.05473,0.2855 -0.685514,1.0433 -0.39723,0.4772 -0.80235,0.9672 -0.900268,1.0889 -0.139972,0.174 -0.287387,0.5218 -0.689588,1.6269 l -0.511558,1.4056 0.203871,1.2583 0.203871,1.2583 0.338822,0.3147 c 0.186351,0.1729 0.420543,0.3831 0.520423,0.4669 l 0.181603,0.1524 0.411808,-0.1875 0.411808,-0.1875 0.02981,-0.2557 c 0.02386,-0.2047 0.09245,-1.3428 0.09637,-1.5989 9.23e-4,-0.06 2.301524,-2.594 2.378197,-2.6191 0.02353,-0.01 0.462963,0.4188 0.976511,0.9476 l 0.933724,0.9617 0.177634,0.7174 c 0.0977,0.3943 0.198814,0.7973 0.224702,0.8953 0.03937,0.1489 0.106635,0.2172 0.411074,0.4167 l 0.364001,0.2387 0.283866,-0.4712 0.283867,-0.4711 0.01535,-0.993 0.01535,-0.9928 -0.894453,-1.4516 c -0.737517,-1.1969 -0.927475,-1.4722 -1.08266,-1.5691 -0.103512,-0.064 -0.846799,-0.5455 -1.651743,-1.0688 -1.42325,-0.9253 -1.464452,-0.9564 -1.496881,-1.133 -0.01835,-0.1004 -0.02566,-0.1881 -0.01625,-0.1962 0.02341,-0.02 4.443093,0.9552 4.552037,1.0044 0.04793,0.022 0.823116,0.5308 1.722616,1.1316 l 1.635454,1.0921 0.200183,0.5966 c 0.110099,0.328 0.469201,1.397 0.798004,2.3751 L 23,1024.341 l -0.03295,1.0517 c -0.01812,0.5785 -0.0447,1.3194 -0.05906,1.6463 l -0.02612,0.5947 -0.616464,1.8077 -0.616463,1.8076 -0.875377,0.8875 -0.875379,0.8875 -0.555547,1.1242 c -0.305552,0.6184 -0.565822,1.1343 -0.578378,1.1465 -0.01256,0.013 -0.604759,-0.9518 -1.316004,-2.1422 l -1.293172,-2.1643 -0.731199,-0.2376 -0.731199,-0.2375 -0.739986,0.5395 -0.739988,0.5396 -0.059,0.2566 c -0.248438,1.0798 -1.110141,4.5139 -1.132578,4.5134 -0.01544,-3e-4 -0.481764,-0.6692 -1.036254,-1.4865 z"/>
  <path style="fill:#3f3f3f" d="m 31.50873,1017.3646 c -0.279091,0 -0.508729,0.013 -0.508729,0.029 0,0.016 0.166463,0.56 0.367937,1.209 0.375855,1.2104 0.397699,1.3071 0.443026,1.9225 0.01454,0.1976 0.0351,0.4553 0.04693,0.574 0.01184,0.1185 0.13538,1.606 0.274076,3.3045 l 0.251548,3.0863 -0.178337,3.041 -0.178337,3.0411 -0.514361,1.3623 C 31.230561,1035.6837 31,1036.309 31,1036.3261 v 0 c 0,0.017 0.464574,-0.08 1.030599,-0.2142 0.912989,-0.2181 1.060353,-0.2407 1.306552,-0.2064 0.152635,0.021 0.939335,0.1342 1.749578,0.2516 1.69538,0.2458 1.524,0.2275 1.486765,0.1651 -0.01615,-0.027 -0.275867,-0.8418 -0.576309,-1.8105 l -0.546274,-1.7613 -0.05444,-1.3309 c -0.03021,-0.7314 -0.04769,-1.3325 -0.03943,-1.3426 0.0083,-0.01 0.451318,0.044 0.985546,0.116 l 0.972405,0.1317 1.278393,-0.9141 1.278393,-0.916 0.563169,-1.2031 0.565046,-1.2031 -0.07509,-1.7063 -0.07509,-1.7063 -0.495589,-1.3033 -0.497465,-1.3033 -1.07753,-0.6841 -1.079407,-0.6821 -1.466116,-0.094 -1.467994,-0.094 -1.374132,-0.576 -1.376009,-0.576 z m 5.402667,6.2178 0.525624,0.4895 c 0.288791,0.2697 0.621896,0.5815 0.739629,0.6939 l 0.214004,0.2044 -0.133284,0.8689 c -0.07283,0.4778 -0.141832,0.8851 -0.153932,0.9062 -0.0121,0.02 -0.383627,0.2658 -0.825981,0.5465 -0.891857,0.5659 -0.798711,0.5412 -1.573119,0.4207 l -0.50122,-0.079 0.0037,-1.0517 c 0.0036,-0.8839 0.10517,-2.6462 0.163319,-2.8308 0.0099,-0.032 0.219516,-0.066 0.518115,-0.086 0.275661,-0.018 0.618479,-0.045 0.762155,-0.059 z"/>
  <path style="fill:#3f3f3f" d="m 26.681645,1021.3623 c -0.03859,5e-4 -0.519092,0.2806 -1.067088,0.623 l -0.996836,0.623 -0.662658,1.319 -0.662658,1.3172 -0.146202,2.4131 -0.146203,2.4112 0.723418,2.0132 0.725316,2.0132 0.977849,0.9884 0.979746,0.9864 1.038608,0.1442 c 0.570944,0.079 1.040901,0.148 1.044303,0.148 0.0034,0 0.276455,-0.1236 0.607595,-0.2807 0.331141,-0.1572 0.728528,-0.3444 0.882913,-0.4153 l 0.281012,-0.1289 0.508861,-0.8479 0.510759,-0.848 0.358861,-1.7459 0.360759,-1.7459 -0.03988,-1.5864 -0.03797,-1.5882 -0.512657,-1.6075 c -0.281888,-0.8851 -0.529976,-1.6393 -0.550634,-1.6767 -0.02066,-0.037 -0.440552,-0.4855 -0.932278,-0.996 l -0.892406,-0.9287 -1.141139,-0.3019 c -0.627533,-0.1662 -1.172788,-0.3023 -1.211393,-0.3019 z m 1.594937,7.3336 c 0.01944,-0.01 0.327937,0.2497 0.687343,0.573 l 0.655063,0.5884 0.07026,0.3173 c 0.03897,0.174 0.119297,0.5502 0.178482,0.8364 l 0.108227,0.5192 -0.20886,0.9095 -0.208861,0.9075 -0.655063,0.3327 -0.655063,0.3326 -0.581014,-0.1942 -0.582911,-0.1961 -0.336075,-1.0133 -0.337976,-1.0114 0.322786,-1.046 c 0.177301,-0.5749 0.322556,-1.0666 0.322784,-1.0941 3.54e-4,-0.038 1.045677,-0.6906 1.220886,-0.7615 z"/>
  <path style="fill:#f4f4f7;opacity:0.2" transform="translate(0,1004.3622)" d="M 21.394531 5 L 17.660156 5.8476562 L 13.925781 6.6933594 L 11.148438 8.0527344 L 8.3710938 9.4140625 L 5.7519531 12.539062 C 4.3109699 14.258663 3.0823394 15.717297 3.0214844 15.779297 C 2.9180707 15.885497 2.878029 16.134838 2.4316406 19.585938 C 2.0034711 22.896138 1.9615604 23.291962 2.0214844 23.414062 C 2.022789 23.416724 2.0618713 23.526987 2.0644531 23.533203 C 2.1242785 22.992369 2.228712 22.154789 2.4316406 20.585938 C 2.878029 17.134838 2.9180707 16.885497 3.0214844 16.779297 C 3.0823394 16.717297 4.3109699 15.258663 5.7519531 13.539062 L 8.3710938 10.414062 L 11.148438 9.0527344 L 13.925781 7.6933594 L 17.660156 6.8476562 L 21.394531 6 L 24.824219 6.0742188 L 28.253906 6.1503906 L 31.621094 7.2050781 L 34.988281 8.2617188 L 37.660156 9.9824219 C 39.129874 10.928422 40.380695 11.752653 40.4375 11.814453 C 40.52112 11.904453 44.466862 16.626331 44.683594 16.894531 C 44.717614 16.936531 45.028149 18.202331 45.373047 19.707031 L 45.902344 22.013672 L 46 21.443359 L 45.373047 18.707031 C 45.028149 17.202331 44.717614 15.936531 44.683594 15.894531 C 44.466862 15.626331 40.52112 10.904453 40.4375 10.814453 C 40.380695 10.752653 39.129874 9.9284219 37.660156 8.9824219 L 34.988281 7.2617188 L 31.621094 6.2050781 L 28.253906 5.1503906 L 24.824219 5.0742188 L 21.394531 5 z M 37.630859 35.816406 C 37.581204 35.857632 37.376091 36.018559 37.357422 36.035156 C 37.337782 36.053156 37.885349 37.622938 38.574219 39.523438 C 39.056673 40.854396 39.244131 41.370435 39.453125 41.951172 C 39.600664 41.968923 39.828125 42.002428 39.828125 41.990234 C 39.828125 41.983134 39.263088 40.423837 38.574219 38.523438 C 38.039687 37.048737 37.796242 36.322101 37.630859 35.816406 z"/>
  <path style="fill:#f4f4f7;opacity:0.2" transform="translate(0,1004.3622)" d="M 21.597656 7.0058594 L 18.103516 7.8085938 L 14.595703 8.6035156 L 12.027344 9.8613281 L 9.6308594 11.033203 L 7.2851562 13.835938 C 6.5637132 14.696836 5.8951394 15.492531 5.3984375 16.082031 C 5.164846 16.359231 4.9765348 16.579253 4.8300781 16.751953 C 4.7601832 17.204953 4.6384882 18.133516 4.4160156 19.853516 C 4.2021534 21.506916 4.0850011 22.437122 4.0332031 22.919922 C 4.0250442 22.995964 4.0290746 23.035831 4.03125 23.083984 C 4.0521388 23.140257 4.0871809 23.233401 4.1113281 23.298828 C 4.1747735 22.760262 4.2454758 22.171984 4.4160156 20.853516 C 4.6384882 19.133516 4.7601831 18.204953 4.8300781 17.751953 C 4.9765348 17.579253 5.164846 17.359231 5.3984375 17.082031 C 5.8951394 16.492531 6.5637133 15.696838 7.2851562 14.835938 L 9.6308594 12.033203 L 12.027344 10.861328 L 14.595703 9.6035156 L 18.103516 8.8085938 L 21.597656 8.0058594 L 24.78125 8.0742188 L 27.925781 8.1425781 L 31.023438 9.1132812 L 34.132812 10.087891 L 36.578125 11.662109 C 37.307486 12.131609 37.982827 12.572537 38.476562 12.898438 C 38.72343 13.061438 38.926417 13.196109 39.060547 13.287109 C 39.064447 13.287109 39.064559 13.286875 39.068359 13.296875 C 39.081729 13.312875 39.088506 13.319891 39.103516 13.337891 C 39.218267 13.474191 39.380141 13.667284 39.572266 13.896484 C 39.956515 14.354784 40.464818 14.960266 40.976562 15.572266 C 41.877997 16.650466 42.659341 17.589203 42.873047 17.845703 C 42.902567 17.961303 42.92824 18.065169 42.96875 18.230469 C 43.09014 18.726069 43.253248 19.41205 43.423828 20.15625 L 43.861328 22.070312 L 43.960938 21.501953 L 43.423828 19.15625 C 43.253248 18.41205 43.09014 17.726069 42.96875 17.230469 C 42.92824 17.065169 42.902567 16.961303 42.873047 16.845703 C 42.659341 16.589203 41.877998 15.650466 40.976562 14.572266 C 40.464818 13.960266 39.956515 13.354784 39.572266 12.896484 C 39.380141 12.667284 39.218267 12.474191 39.103516 12.337891 C 39.088506 12.319891 39.081729 12.312875 39.068359 12.296875 C 39.064559 12.286875 39.064447 12.287109 39.060547 12.287109 C 38.926417 12.195809 38.72343 12.061437 38.476562 11.898438 C 37.982827 11.572537 37.307486 11.131609 36.578125 10.662109 L 34.132812 9.0878906 L 31.023438 8.1132812 L 27.925781 7.1425781 L 24.78125 7.0742188 L 21.597656 7.0058594 z M 3.9609375 22.898438 C 3.9767707 22.939578 3.9906261 22.976058 4.0097656 23.027344 C 4.0001284 22.99468 3.9756481 22.94007 3.9609375 22.898438 z M 3.9609375 23.898438 C 3.9756485 23.940337 4.0001256 23.994344 4.0097656 24.027344 C 3.9906266 23.976444 3.9767705 23.939437 3.9609375 23.898438 z M 35.419922 35.544922 C 35.419832 35.545322 35.362275 35.884469 35.359375 35.980469 C 35.353485 36.172469 35.3664 36.250453 35.375 36.314453 C 35.39233 36.442353 35.406116 36.486344 35.416016 36.527344 C 35.435726 36.609444 35.448268 36.647453 35.460938 36.689453 C 35.486257 36.774453 35.512072 36.854125 35.544922 36.953125 C 35.610622 37.151725 35.700231 37.414528 35.8125 37.736328 C 35.838758 37.811569 35.885069 37.937937 35.916016 38.025391 C 36.059667 38.104576 36.19749 38.180507 36.359375 38.269531 C 36.165821 37.729131 35.951712 37.135228 35.8125 36.736328 C 35.700231 36.414528 35.610622 36.151725 35.544922 35.953125 C 35.512072 35.853925 35.486266 35.774453 35.460938 35.689453 C 35.449621 35.651586 35.43623 35.610199 35.419922 35.544922 z"/>
  <path style="opacity:0.2" transform="translate(0,1004.3622)" d="M 13.494141 12 C 13.484731 12.0081 13.491416 12.096866 13.509766 12.197266 C 13.542195 12.373866 13.584564 12.404778 15.007812 13.330078 C 15.812758 13.853378 16.554691 14.334437 16.658203 14.398438 C 16.813388 14.495337 17.00467 14.769897 17.742188 15.966797 L 18.621094 17.394531 L 18.636719 16.419922 L 17.742188 14.966797 C 17.00467 13.769897 16.813388 13.495437 16.658203 13.398438 C 16.555204 13.334755 15.815946 12.856219 15.015625 12.335938 C 14.35063 12.192092 13.501965 11.993316 13.494141 12 z M 12.960938 12.402344 C 12.949156 12.402635 12.311647 12.720647 11.871094 12.9375 C 11.68376 13.163593 11.428858 13.468218 11.375 13.535156 C 11.235028 13.709156 11.087748 14.057009 10.685547 15.162109 L 10.173828 16.568359 L 10.285156 17.261719 L 10.685547 16.162109 C 11.087748 15.057009 11.235028 14.709156 11.375 14.535156 C 11.472918 14.413456 11.878161 13.924466 12.275391 13.447266 C 12.906175 12.689466 13.096623 12.402344 12.960938 12.402344 z M 31.298828 13.013672 C 31.176752 13.019056 31 13.021834 31 13.03125 C 31 13.04725 31.165714 13.591234 31.367188 14.240234 C 31.743043 15.450634 31.76522 15.546709 31.810547 16.162109 C 31.825087 16.359709 31.845592 16.617628 31.857422 16.736328 C 31.869262 16.854828 31.994117 18.342516 32.132812 20.041016 L 32.349609 22.707031 L 32.382812 22.123047 L 32.132812 19.037109 C 31.994117 17.338609 31.869262 15.852875 31.857422 15.734375 C 31.845602 15.615675 31.825087 15.355803 31.810547 15.158203 C 31.76522 14.542803 31.743043 14.446728 31.367188 13.236328 C 31.330048 13.116693 31.332723 13.123521 31.298828 13.013672 z M 36.912109 18.220703 L 36.650391 18.242188 C 36.506715 18.256188 36.164333 18.284734 35.888672 18.302734 C 35.590073 18.322734 35.380994 18.356672 35.371094 18.388672 C 35.312945 18.573272 35.210631 20.33485 35.207031 21.21875 L 35.203125 22.271484 L 35.207031 22.271484 L 35.207031 22.21875 C 35.210631 21.33485 35.312945 19.573272 35.371094 19.388672 C 35.380994 19.356672 35.590073 19.322734 35.888672 19.302734 C 36.164333 19.284734 36.506715 19.258141 36.650391 19.244141 L 36.912109 19.220703 L 37.4375 19.708984 C 37.726291 19.978684 38.058048 20.291897 38.175781 20.404297 L 38.257812 20.480469 C 38.258117 20.47847 38.257507 20.478564 38.257812 20.476562 L 38.390625 19.607422 L 38.175781 19.404297 C 38.058048 19.291897 37.726291 18.978684 37.4375 18.708984 L 36.912109 18.220703 z M 22.970703 19.892578 L 22.966797 20.03125 C 22.948677 20.60975 22.922563 21.350834 22.908203 21.677734 L 22.882812 22.271484 L 22.265625 24.080078 L 21.648438 25.886719 L 20.773438 26.773438 L 19.898438 27.662109 L 19.341797 28.785156 C 19.036245 29.403556 18.776232 29.919641 18.763672 29.931641 C 18.751112 29.944641 18.160464 28.981416 17.449219 27.791016 L 16.154297 25.626953 L 15.423828 25.388672 L 14.693359 25.150391 L 13.953125 25.689453 L 13.212891 26.230469 L 13.154297 26.486328 C 12.905859 27.566128 12.043924 31.0005 12.021484 31 C 12.006044 30.9997 11.538865 30.330972 10.984375 29.513672 L 9.9765625 28.029297 L 9.0605469 27.511719 C 8.8124818 27.371714 8.7873495 27.336216 8.6269531 27.234375 C 8.4794241 27.460187 8.1690322 27.926795 8.1640625 27.939453 C 8.1520876 27.969853 8.5479567 28.222419 9.0605469 28.511719 L 9.9765625 29.029297 L 10.984375 30.513672 C 11.538865 31.330972 12.006044 31.9997 12.021484 32 C 12.043921 32.0005 12.905859 28.566128 13.154297 27.486328 L 13.212891 27.230469 L 13.953125 26.689453 L 14.693359 26.150391 L 15.423828 26.388672 L 16.154297 26.626953 L 17.449219 28.791016 C 18.160464 29.981416 18.751112 30.944641 18.763672 30.931641 C 18.776228 30.919441 19.036245 30.403556 19.341797 29.785156 L 19.898438 28.662109 L 20.773438 27.773438 L 21.648438 26.886719 L 22.265625 25.080078 L 22.882812 23.271484 L 22.908203 22.677734 C 22.922563 22.350834 22.948677 21.60975 22.966797 21.03125 L 23 19.978516 L 22.970703 19.892578 z M 40.960938 20.810547 L 40.435547 21.929688 L 39.871094 23.132812 L 38.59375 24.048828 L 37.314453 24.962891 L 36.341797 24.830078 C 35.807569 24.757878 35.365722 24.704844 35.357422 24.714844 C 35.351242 24.7224 35.369635 25.242711 35.386719 25.71875 C 35.419561 25.712668 35.823498 25.760225 36.341797 25.830078 L 37.314453 25.962891 L 38.59375 25.048828 L 39.871094 24.132812 L 40.435547 22.929688 L 41 21.726562 L 40.960938 20.810547 z M 6.0917969 22.636719 L 6 23.146484 L 6.3164062 24.826172 C 6.4909223 25.750072 6.6462393 26.541936 6.6601562 26.585938 C 6.6825889 26.658038 6.7119802 26.652256 6.9160156 26.535156 C 7.2009208 26.371622 8.4852444 25.593539 9.4160156 25.019531 C 9.8833208 24.305916 10.323707 23.61711 10.314453 23.589844 C 10.303583 23.557844 10.273727 23.533203 10.248047 23.533203 C 10.222357 23.533203 9.8786517 23.733916 9.4824219 23.978516 C 8.5467585 24.556316 7.2085268 25.367256 6.9160156 25.535156 C 6.7119802 25.652156 6.6825893 25.657937 6.6601562 25.585938 C 6.6462393 25.541937 6.4909223 24.750072 6.3164062 23.826172 L 6.0917969 22.636719 z M 28.277344 23.333984 C 28.102135 23.404884 27.056995 24.057703 27.056641 24.095703 C 27.056413 24.123203 26.909723 24.614553 26.732422 25.189453 L 26.410156 26.234375 L 26.570312 26.714844 L 26.732422 26.189453 C 26.909723 25.614553 27.056413 25.123203 27.056641 25.095703 C 27.056995 25.057703 28.102135 24.404884 28.277344 24.333984 C 28.296784 24.323984 28.605438 24.58295 28.964844 24.90625 L 29.619141 25.494141 L 29.689453 25.8125 C 29.728336 25.986111 29.808044 26.360525 29.867188 26.646484 L 29.976562 26.167969 L 29.867188 25.648438 C 29.808003 25.362237 29.728423 24.9865 29.689453 24.8125 L 29.619141 24.494141 L 28.964844 23.90625 C 28.605438 23.58295 28.296784 23.323984 28.277344 23.333984 z M 23.052734 24.851562 L 23 25.707031 L 23.722656 27.720703 L 24.449219 29.732422 L 25.425781 30.720703 L 26.40625 31.707031 L 27.445312 31.851562 C 28.016257 31.930562 28.484879 32 28.488281 32 C 28.491681 32 28.766516 31.87585 29.097656 31.71875 C 29.428797 31.56155 29.826084 31.375586 29.980469 31.304688 L 30.261719 31.175781 L 30.769531 30.328125 L 31.28125 29.478516 L 31.638672 27.732422 L 32 25.988281 L 31.978516 25.09375 L 31.638672 26.732422 L 31.28125 28.478516 L 30.769531 29.328125 L 30.261719 30.175781 L 29.980469 30.304688 C 29.826084 30.375587 29.428797 30.56155 29.097656 30.71875 C 28.766516 30.87585 28.491681 31 28.488281 31 C 28.484879 31 28.016258 30.930562 27.445312 30.851562 L 26.40625 30.707031 L 25.425781 29.720703 L 24.449219 28.732422 L 23.722656 26.720703 L 23.052734 24.851562 z M 33.337891 30.542969 C 33.091692 30.508669 32.944239 30.5319 32.03125 30.75 C 31.683809 30.832191 31.585635 30.845968 31.398438 30.882812 C 31.204237 31.403793 31 31.951554 31 31.964844 C 31 31.981844 31.465225 31.8842 32.03125 31.75 C 32.944239 31.5319 33.091692 31.508669 33.337891 31.542969 C 33.490526 31.563969 34.275695 31.677522 35.085938 31.794922 C 36.781318 32.040722 36.611454 32.023338 36.574219 31.960938 C 36.565298 31.946024 36.379176 31.349729 36.255859 30.960938 C 36.053647 30.934352 35.797139 30.898033 35.085938 30.794922 C 34.275695 30.677522 33.490526 30.563969 33.337891 30.542969 z"/>
 </g>
</svg>
