<svg xmlns="http://www.w3.org/2000/svg" width="48" height="48" version="1">
 <path style="fill:#cccccc" transform="matrix(0,-1,-1,0,0,0)" d="m -42,-44 h 36 c 1.108,0 2,0.892 2,2 v 28.339755 l -4.028021,3.9824867 c -0.7879151,0.7790082 -0.4583477,2.3589094 -1.3870403,2.9632224 L -13.58669,-4 H -42 c -1.108,0 -2,-0.892 -2,-2 v -36 c 0,-1.108 0.892,-2 2,-2 z"/>
 <path style="fill:#b2bfd9" d="M 9.9404553,9.3415061 C 9.3278048,10.26472 6.6109632,8.9564894 6.1015762,9.9404553 L 4,14 H 44 V 6 C 44,4.892 43.108,4 42,4 H 13.485114 Z"/>
 <path style="fill:#b2bfd9" d="m 9.6777583,7.2399299 c -0.8865724,0.6645701 -2.5709418,1.0483133 -3.1383537,2 L 4,13.499124 V 42 c 0,1.108 0.892,2 2,2 h 8 V 4 Z"/>
 <path style="fill:#b2bfd9" d="m 38,14 v 30 h 4 c 1.108,0 2,-0.892 2,-2 V 14 Z"/>
 <path style="fill:#d32626" d="M 6,4 C 4.892,4 4,4.892 4,6 v 8 H 14 V 4 Z"/>
 <path style="opacity:0.2;fill:#f4f4f7" d="M 4,7 V 6 C 4,4.892 4.892,4 6,4 h 36 c 1.108,0 2,0.892 2,2 V 7 C 44,5.892 43.108,5 42,5 H 6 C 4.892,5 4,5.892 4,7 Z"/>
 <path style="opacity:0.2" d="m 4,42 v 1 c 0,1.108 0.892,2 2,2 h 36 c 1.108,0 2,-0.892 2,-2 v -1 c 0,1.108 -0.892,2 -2,2 H 6 C 4.892,44 4,43.108 4,42 Z"/>
 <rect style="fill:#ffd000" width="16" height="8" x="14" y="36"/>
 <rect style="fill:#0fa925" width="8" height="8" x="30" y="36"/>
 <rect style="fill:#1268c9" width="6" height="6" x="38" y="14"/>
 <rect style="opacity:0.2" width="24" height="1" x="14" y="36"/>
 <rect style="opacity:0.2;fill:#f4f4f7" width="6" height="1" x="38" y="20"/>
 <rect style="opacity:0.2" width="40" height="1" x="4" y="14"/>
</svg>
