<svg xmlns="http://www.w3.org/2000/svg" width="48" height="48" version="1.1">
 <circle style="opacity:0.2" cx="24" cy="25" r="20"/>
 <path style="fill:#765500" d="M 44,24 C 44,35.045695 35.045695,44 24,44 12.954305,44 4,35.045695 4,24 Z"/>
 <path style="fill:#624600" d="M 44,24 H 4 C 4,12.954305 12.954305,4 24,4 35.045695,4 44,12.954305 44,24 Z"/>
 <circle style="opacity:0.2" cx="24" cy="25" r="16"/>
 <circle style="fill:#ffbd15" cx="24" cy="24" r="16"/>
 <path style="opacity:0.1" d="M 28,14 15,35 h 5 L 33,14 Z"/>
 <path style="fill:#5c4200" d="M 28,13 15,34 h 5 L 33,13 Z"/>
 <path style="opacity:0.1;fill:#f4f4f7" d="M 24,4 A 20,20 0 0 0 4,24 20,20 0 0 0 4.0215,24.582 20,20 0 0 1 24,5 20,20 0 0 1 43.979,24.418 20,20 0 0 0 44,24 20,20 0 0 0 24,4 Z"/>
 <rect style="opacity:0.1" width="5" height="4" x="28" y="31"/>
 <rect style="fill:#956b00" width="5" height="4" x="28" y="30"/>
 <path style="opacity:0.1" d="M 20,14 16.600781,16.054688 28,35 30,31 Z"/>
 <path style="fill:#715100" d="M 20,13 16.600781,15.054688 28,34 30,30 Z"/>
 <path style="opacity:0.1" d="m 15,14 h 5 l -2.25,4 H 15 Z"/>
 <path style="fill:#956b00" d="m 15,13 h 5 l -2.25,4 H 15 Z"/>
 <path style="fill:#f4f4f7;opacity:0.2" d="M 24 8 A 16 16 0 0 0 8 24 A 16 16 0 0 0 8.0214844 24.580078 A 16 16 0 0 1 24 9 A 16 16 0 0 1 39.978516 24.419922 A 16 16 0 0 0 40 24 A 16 16 0 0 0 24 8 z"/>
</svg>
