<svg xmlns="http://www.w3.org/2000/svg" width="48" height="48" version="1">
 <path style="opacity:0.2" d="M 24.123047,5.9997511 C 21.655908,5.9871162 19.143033,6.4595107 16.714844,7.4685011 7.0020879,11.504652 2.4322183,22.572151 6.46875,32.284907 10.504806,41.997663 21.5724,46.567533 31.285156,42.531001 40.997912,38.49542 45.567781,27.427351 41.53125,17.714595 38.504563,10.429933 31.522563,6.0377509 24.123047,5.9997511 Z M 24,14.999751 a 9.9999999,9.9999999 0 0 1 10,10 9.9999999,9.9999999 0 0 1 -10,10 9.9999999,9.9999999 0 0 1 -10,-10 9.9999999,9.9999999 0 0 1 10,-10 z"/>
 <path style="fill:#b2bfd9" d="M 24.123047 5 C 21.655908 4.9873651 19.143033 5.4597596 16.714844 6.46875 C 7.0020879 10.504901 2.4322183 21.5724 6.46875 31.285156 C 10.504806 40.997912 21.5724 45.567782 31.285156 41.53125 C 40.997912 37.495669 45.567781 26.4276 41.53125 16.714844 C 38.504563 9.430182 31.522563 5.0379998 24.123047 5 z M 24 14 A 9.9999999 9.9999999 0 0 1 34 24 A 9.9999999 9.9999999 0 0 1 24 34 A 9.9999999 9.9999999 0 0 1 14 24 A 9.9999999 9.9999999 0 0 1 24 14 z"/>
 <path style="fill:#f4f4f7;opacity:0.2" d="M 24.123047 5 C 21.655908 4.9873651 19.143033 5.4597596 16.714844 6.46875 C 9.2515358 9.5701393 4.8441501 16.823973 5.0253906 24.423828 C 5.2374641 17.195184 9.5804408 10.433462 16.714844 7.46875 C 19.143033 6.4597596 21.655908 5.9873651 24.123047 6 C 31.522563 6.0379998 38.504563 10.430182 41.53125 17.714844 C 42.466287 19.964742 42.92014 22.287036 42.974609 24.578125 C 43.051324 21.965511 42.602856 19.293356 41.53125 16.714844 C 38.504563 9.4301817 31.522563 5.0379998 24.123047 5 z M 33.978516 24.414062 A 9.9999999 9.9999999 0 0 1 24 34 A 9.9999999 9.9999999 0 0 1 14.021484 24.585938 A 9.9999999 9.9999999 0 0 0 14 25 A 9.9999999 9.9999999 0 0 0 24 35 A 9.9999999 9.9999999 0 0 0 34 25 A 9.9999999 9.9999999 0 0 0 33.978516 24.414062 z"/>
 <path style="opacity:0.2" d="M 24.121094,3.9997511 C 21.789756,3.9877321 19.423288,4.4109457 17.130859,5.294673 A 1.7560226,1.7729305 0 0 0 16.115234,7.5817823 L 19.234375,15.84936 A 1.7560226,1.7729305 0 0 0 21.5,16.876704 c 0.797118,-0.307334 1.644804,-0.465648 2.498047,-0.466797 0.852646,0.0032 1.69631,0.163728 2.492187,0.472656 a 1.7560226,1.7729305 0 0 0 2.269532,-1.023437 l 3.125,-8.2792968 A 1.7560226,1.7729305 0 0 0 30.867188,5.2907667 C 28.737761,4.47195 26.458673,4.0118014 24.121094,3.9997511 Z M 5.9414062,16.999751 A 1.7729305,1.7560226 0 0 0 4.2949219,18.13061 C 3.4111949,20.423039 2.98798,22.789507 3,25.120845 c 0.012051,2.337579 0.4721986,4.616667 1.2910156,6.746094 a 1.7729305,1.7560226 0 0 0 2.2890625,1.017578 L 14.859375,29.76147 a 1.7729305,1.7560226 0 0 0 1.023437,-2.271485 c -0.308927,-0.795877 -0.469456,-1.639541 -0.472656,-2.492187 0.0011,-0.853243 0.159463,-1.700929 0.466797,-2.498047 A 1.7729305,1.7560226 0 0 0 14.849609,20.234126 L 6.5820312,17.114985 a 1.7729305,1.7560226 0 0 0 -0.640625,-0.115234 z m 36.1171878,0 a 1.7729305,1.7560226 0 0 0 -0.640625,0.115234 l -8.267578,3.119141 a 1.7729305,1.7560226 0 0 0 -1.027344,2.265625 c 0.307334,0.797118 0.465648,1.644804 0.466797,2.498047 -0.0032,0.852646 -0.163729,1.69631 -0.472656,2.492187 a 1.7729305,1.7560226 0 0 0 1.023437,2.271485 l 8.279297,3.123047 a 1.7729305,1.7560226 0 0 0 2.289062,-1.017578 C 44.5278,29.737513 44.98795,27.458424 45,25.120845 45.01202,22.789507 44.588805,20.423039 43.705078,18.13061 a 1.7729305,1.7560226 0 0 0 -1.646484,-1.130859 z m -14.88086,16.001953 a 1.7560226,1.7729305 0 0 0 -0.6875,0.115235 c -0.795877,0.308927 -1.639541,0.469456 -2.492187,0.472656 C 23.144804,33.588446 22.297118,33.430132 21.5,33.122798 a 1.7560226,1.7729305 0 0 0 -2.265625,1.027344 l -3.119141,8.267578 a 1.7560226,1.7729305 0 0 0 1.015625,2.287109 c 2.292429,0.883727 4.658897,1.306942 6.990235,1.294922 2.337579,-0.01205 4.616668,-0.472199 6.746094,-1.291016 a 1.7560226,1.7729305 0 0 0 1.017578,-2.289062 l -3.125,-8.279297 a 1.7560226,1.7729305 0 0 0 -1.582032,-1.138672 z"/>
 <path style="fill:#e74c3c" d="M 24.121094 3 C 21.789756 2.987981 19.423288 3.4111946 17.130859 4.2949219 A 1.7560226 1.7729305 0 0 0 16.115234 6.5820312 L 19.234375 14.849609 A 1.7560226 1.7729305 0 0 0 21.5 15.876953 C 22.297118 15.569619 23.144804 15.411305 23.998047 15.410156 C 24.850693 15.413356 25.694357 15.573884 26.490234 15.882812 A 1.7560226 1.7729305 0 0 0 28.759766 14.859375 L 31.884766 6.5800781 A 1.7560226 1.7729305 0 0 0 30.867188 4.2910156 C 28.737761 3.4721989 26.458673 3.0120503 24.121094 3 z M 5.9414062 16 A 1.7729305 1.7560226 0 0 0 4.2949219 17.130859 C 3.4111949 19.423288 2.98798 21.789756 3 24.121094 C 3.012051 26.458673 3.4721986 28.737761 4.2910156 30.867188 A 1.7729305 1.7560226 0 0 0 6.5800781 31.884766 L 14.859375 28.761719 A 1.7729305 1.7560226 0 0 0 15.882812 26.490234 C 15.573885 25.694357 15.413356 24.850693 15.410156 23.998047 C 15.411305 23.144804 15.569619 22.297118 15.876953 21.5 A 1.7729305 1.7560226 0 0 0 14.849609 19.234375 L 6.5820312 16.115234 A 1.7729305 1.7560226 0 0 0 5.9414062 16 z M 42.058594 16 A 1.7729305 1.7560226 0 0 0 41.417969 16.115234 L 33.150391 19.234375 A 1.7729305 1.7560226 0 0 0 32.123047 21.5 C 32.430381 22.297118 32.588695 23.144804 32.589844 23.998047 C 32.586644 24.850693 32.426115 25.694357 32.117188 26.490234 A 1.7729305 1.7560226 0 0 0 33.140625 28.761719 L 41.419922 31.884766 A 1.7729305 1.7560226 0 0 0 43.708984 30.867188 C 44.5278 28.737762 44.98795 26.458673 45 24.121094 C 45.01202 21.789756 44.588805 19.423288 43.705078 17.130859 A 1.7729305 1.7560226 0 0 0 42.058594 16 z M 27.177734 32.001953 A 1.7560226 1.7729305 0 0 0 26.490234 32.117188 C 25.694357 32.426115 24.850693 32.586644 23.998047 32.589844 C 23.144804 32.588695 22.297118 32.430381 21.5 32.123047 A 1.7560226 1.7729305 0 0 0 19.234375 33.150391 L 16.115234 41.417969 A 1.7560226 1.7729305 0 0 0 17.130859 43.705078 C 19.423288 44.588805 21.789756 45.01202 24.121094 45 C 26.458673 44.987949 28.737762 44.527801 30.867188 43.708984 A 1.7560226 1.7729305 0 0 0 31.884766 41.419922 L 28.759766 33.140625 A 1.7560226 1.7729305 0 0 0 27.177734 32.001953 z"/>
</svg>
