<svg xmlns="http://www.w3.org/2000/svg" width="48" height="48" version="1">
 <circle style="opacity:0.2" cx="24" cy="25" r="20"/>
 <circle style="fill:#00796b" cx="24" cy="24" r="20"/>
 <path style="opacity:0.1;fill:#f4f4f7" d="M 24 4 A 20 20 0 0 0 4 24 A 20 20 0 0 0 4.0214844 24.582031 A 20 20 0 0 1 24 5 A 20 20 0 0 1 43.978516 24.417969 A 20 20 0 0 0 44 24 A 20 20 0 0 0 24 4 z"/>
 <path style="opacity:0.2" d="m 26.761719,11.000712 c -0.484831,-0.0112 -0.838569,0.163332 -1.15625,0.525391 -0.271761,0.309782 -0.574952,0.863977 -0.673828,1.234375 -0.362721,1.358845 -2.059854,2.233348 -3.556641,1.830078 -0.734428,-0.197872 -1.08273,-0.510726 -2.271484,-2.03125 -0.54107,-0.692091 -1.002797,-0.676521 -2.330078,0.08008 -1.261037,0.71898 -1.413106,1.186759 -0.84375,2.603516 0.235261,0.585618 0.434838,1.334493 0.439453,1.666015 0.01153,0.819663 -0.714084,2.11799 -1.44336,2.585938 -0.597753,0.383555 -1.850431,0.4709 -2.851562,0.201171 -0.952,-0.256491 -1.439894,0.196902 -1.841797,1.705079 -0.3129481,1.174365 -0.31174,1.347476 0.01758,1.722656 0.201205,0.229392 0.853832,0.626008 1.451172,0.882812 0.597372,0.256814 1.258609,0.659278 1.466797,0.896485 0.439538,0.500852 0.719947,1.946369 0.523437,2.705078 -0.142173,0.550919 -0.823512,1.407506 -1.375,1.732422 -0.601077,0.354128 -1.180149,1.139095 -1.162109,1.572265 0.02312,0.554938 0.810585,1.941125 1.3125,2.308594 0.287468,0.210518 0.530988,0.23941 0.900391,0.101563 1.082713,-0.403883 2.826388,-0.690322 3.351562,-0.548828 0.791764,0.213319 1.918818,1.267937 2.052734,1.923828 0.06301,0.308906 0.06193,0.988474 0,1.509765 -0.150333,1.264279 -0.02708,1.913421 0.408204,2.136719 0.197956,0.101282 0.51556,0.266147 0.705078,0.367188 0.189173,0.102325 0.643582,0.224182 1.009765,0.271484 0.954966,0.123885 1.63111,-0.431343 2.15625,-1.779297 0.480164,-1.232478 0.650231,-1.406314 1.740235,-1.753906 1.106855,-0.352982 1.877073,-0.273395 2.513672,0.261719 0.527813,0.443722 0.73475,0.654752 1.546874,1.583984 0.595004,0.680945 1.066628,0.722597 2.109376,0.177734 1.567892,-0.819362 1.726715,-1.315841 0.951171,-2.943359 -0.73828,-1.549004 -0.337981,-3.10381 1.035157,-4.009766 0.525826,-0.346899 0.931549,-0.406256 2.193359,-0.324219 1.905142,0.123899 2.279191,-0.09409 2.677734,-1.568359 0.398076,-1.472461 0.230225,-1.777111 -1.396484,-2.501953 -1.547833,-0.689664 -1.968493,-1.193489 -2.193359,-2.632812 -0.186966,-1.196754 0.109195,-1.789142 1.507812,-2.986329 0.717204,-0.613857 1.120715,-1.094092 1.123047,-1.341797 0.005,-0.552834 -1.256807,-2.546596 -1.685547,-2.662109 -0.198546,-0.0535 -0.801589,0.09105 -1.341797,0.318359 -1.490179,0.627227 -2.285969,0.646899 -3.265625,0.07813 -1.151134,-0.668151 -1.451726,-1.315576 -1.359375,-2.921876 0.10606,-1.844777 -0.04311,-2.220119 -1.035156,-2.613281 -0.330435,-0.131259 -0.620323,-0.229672 -0.878906,-0.289062 v -0.002 c -0.193936,-0.04455 -0.36964,-0.06853 -0.53125,-0.07227 z"/>
 <path style="fill:#18c28c" d="m 26.761719,10.000714 c -0.484831,-0.011198 -0.838569,0.163332 -1.15625,0.525391 -0.271761,0.309782 -0.574952,0.863977 -0.673828,1.234375 -0.362721,1.358845 -2.059854,2.233348 -3.556641,1.830078 -0.734428,-0.197872 -1.08273,-0.510726 -2.271484,-2.03125 -0.54107,-0.692091 -1.002797,-0.676521 -2.330078,0.08008 -1.261037,0.71898 -1.413106,1.186759 -0.84375,2.603516 0.235261,0.585618 0.434838,1.334493 0.439453,1.666015 0.01153,0.819663 -0.714084,2.11799 -1.44336,2.585938 -0.597753,0.383555 -1.850431,0.4709 -2.851562,0.201171 -0.952,-0.256491 -1.439894,0.196902 -1.841797,1.705079 -0.3129481,1.174365 -0.31174,1.347476 0.01758,1.722656 0.201205,0.229392 0.853832,0.626008 1.451172,0.882812 0.597372,0.256814 1.258609,0.659278 1.466797,0.896485 0.439538,0.500852 0.719947,1.946369 0.523437,2.705078 -0.142173,0.550919 -0.823512,1.407506 -1.375,1.732422 -0.601077,0.354128 -1.180149,1.139095 -1.162109,1.572265 0.02312,0.554938 0.810585,1.941125 1.3125,2.308594 0.287468,0.210518 0.530988,0.23941 0.900391,0.101563 1.082713,-0.403883 2.826388,-0.690322 3.351562,-0.548828 0.791764,0.213319 1.918818,1.267937 2.052734,1.923828 0.06301,0.308906 0.06193,0.988474 0,1.509765 -0.150333,1.264279 -0.02708,1.913421 0.408204,2.136719 0.197956,0.101282 0.51556,0.266147 0.705078,0.367188 0.189173,0.102325 0.643582,0.224182 1.009765,0.271484 0.954966,0.123885 1.63111,-0.431343 2.15625,-1.779297 0.480164,-1.232478 0.650231,-1.406314 1.740235,-1.753906 1.106855,-0.352982 1.877073,-0.273395 2.513672,0.261719 0.527813,0.443722 0.73475,0.654752 1.546874,1.583984 0.595004,0.680945 1.066628,0.722597 2.109376,0.177734 1.567892,-0.819362 1.726715,-1.315841 0.951171,-2.943359 -0.73828,-1.549004 -0.337981,-3.10381 1.035157,-4.009766 0.525826,-0.346899 0.931549,-0.406256 2.193359,-0.324219 1.905142,0.123899 2.279191,-0.09409 2.677734,-1.568359 0.398076,-1.472461 0.230225,-1.777111 -1.396484,-2.501953 -1.547833,-0.689664 -1.968493,-1.193489 -2.193359,-2.632812 -0.186966,-1.196754 0.109195,-1.789142 1.507812,-2.986329 0.717204,-0.613857 1.120715,-1.094092 1.123047,-1.341797 0.005,-0.552834 -1.256807,-2.546596 -1.685547,-2.662109 -0.198546,-0.0535 -0.801589,0.09105 -1.341797,0.318359 -1.490179,0.627227 -2.285969,0.646899 -3.265625,0.07813 -1.151134,-0.668151 -1.451726,-1.315576 -1.359375,-2.921876 0.10606,-1.844777 -0.04311,-2.220119 -1.035156,-2.613281 -0.330435,-0.131259 -0.620323,-0.229672 -0.878906,-0.289062 v -0.002 c -0.193936,-0.04455 -0.36964,-0.06853 -0.53125,-0.07227 z"/>
 <circle style="opacity:0.2" cx="24" cy="25" r="6"/>
 <circle style="fill:#f4f4f7" cx="24" cy="24" r="6"/>
 <path style="opacity:0.2;fill:#f4f4f7" d="M 26.761719 10 C 26.276888 9.988802 25.92315 10.163332 25.605469 10.525391 C 25.333708 10.835173 25.030517 11.389368 24.931641 11.759766 C 24.56892 13.118611 22.871787 13.993114 21.375 13.589844 C 20.640572 13.391972 20.29227 13.079118 19.103516 11.558594 C 18.562446 10.866503 18.100718 10.882071 16.773438 11.638672 C 15.745759 12.224603 15.483164 12.67237 15.71875 13.574219 C 15.871502 13.241266 16.203719 12.963497 16.773438 12.638672 C 18.100718 11.882071 18.562446 11.866503 19.103516 12.558594 C 20.29227 14.079118 20.640572 14.391972 21.375 14.589844 C 22.871787 14.993114 24.56892 14.118611 24.931641 12.759766 C 25.030517 12.389368 25.333708 11.835173 25.605469 11.525391 C 25.92315 11.163332 26.276888 10.9888 26.761719 11 C 26.923329 11.00374 27.099033 11.027716 27.292969 11.072266 L 27.292969 11.074219 C 27.551552 11.133609 27.84144 11.232022 28.171875 11.363281 C 28.865937 11.638348 29.142726 11.916658 29.212891 12.683594 C 29.278857 11.130472 29.09967 10.73098 28.171875 10.363281 C 27.84144 10.232022 27.551552 10.133609 27.292969 10.074219 L 27.292969 10.072266 C 27.099033 10.027716 26.923329 10.00374 26.761719 10 z M 29.214844 13.625 C 29.20996 13.751326 29.215275 13.833182 29.207031 13.976562 C 29.11468 15.582862 29.415272 16.230286 30.566406 16.898438 C 31.546062 17.467207 32.341852 17.44754 33.832031 16.820312 C 34.372239 16.593003 34.975282 16.448453 35.173828 16.501953 C 35.498835 16.589518 36.300253 17.754342 36.667969 18.554688 C 36.7813 18.397488 36.858483 18.258786 36.859375 18.164062 C 36.864375 17.611228 35.602568 15.617466 35.173828 15.501953 C 34.975282 15.448453 34.372239 15.593004 33.832031 15.820312 C 32.341852 16.447539 31.546062 16.467207 30.566406 15.898438 C 29.594531 15.334333 29.249566 14.749083 29.214844 13.625 z M 16.287109 16.451172 C 16.08383 17.218107 15.509108 18.119843 14.925781 18.494141 C 14.328028 18.877696 13.07535 18.965041 12.074219 18.695312 C 11.122219 18.438821 10.634325 18.892214 10.232422 20.400391 C 9.9806576 21.345158 9.9433182 21.642701 10.105469 21.917969 C 10.141483 21.763621 10.175637 21.613482 10.232422 21.400391 C 10.634325 19.892214 11.122219 19.438821 12.074219 19.695312 C 13.07535 19.965041 14.328028 19.877696 14.925781 19.494141 C 15.655057 19.026193 16.380671 17.727866 16.369141 16.908203 C 16.367709 16.805333 16.321326 16.617064 16.287109 16.451172 z M 34.226562 22.482422 C 34.164921 22.784057 34.168021 23.104968 34.228516 23.492188 C 34.453382 24.931511 34.874042 25.435336 36.421875 26.125 C 37.29083 26.512196 37.733753 26.784379 37.90625 27.173828 C 38.119372 26.117525 37.846168 25.759648 36.421875 25.125 C 34.874042 24.435336 34.453382 23.931511 34.228516 22.492188 C 34.227969 22.488691 34.227101 22.485908 34.226562 22.482422 z M 13.703125 26.478516 C 13.69586 26.517879 13.70083 26.571037 13.691406 26.607422 C 13.549233 27.158341 12.867894 28.014928 12.316406 28.339844 C 11.715329 28.693972 11.136257 29.478939 11.154297 29.912109 C 11.159994 30.048856 11.214063 30.237251 11.296875 30.447266 C 11.498913 30.045746 11.895869 29.587606 12.316406 29.339844 C 12.867894 29.014928 13.549233 28.158341 13.691406 27.607422 C 13.76942 27.306219 13.755557 26.894128 13.703125 26.478516 z M 31.599609 32.527344 C 31.493972 33.159129 31.584917 33.842806 31.912109 34.529297 C 32.074648 34.870393 32.185632 35.153082 32.261719 35.408203 C 32.466066 34.959073 32.332521 34.411551 31.912109 33.529297 C 31.75179 33.192926 31.654246 32.857558 31.599609 32.527344 z M 18.787109 34.925781 C 18.780143 35.020141 18.781927 35.119135 18.771484 35.207031 C 18.703627 35.777703 18.698932 36.207504 18.746094 36.544922 C 18.755659 36.429512 18.75629 36.334813 18.771484 36.207031 C 18.822944 35.773872 18.821537 35.274042 18.787109 34.925781 z"/>
</svg>
