<svg xmlns="http://www.w3.org/2000/svg" width="48" height="48" version="1.1">
 <path style="opacity:0.2" d="m 24.960266,4.9999994 c -12.09874,0 -18.5672675,8.7812096 -19.7360704,18.3634036 -0.8047432,6.597524 0.6717019,12.773324 2.6012309,16.89132 2.8252285,5.268766 3.5737805,5.571889 8.0073465,3.695404 9.009452,-3.815974 17.979653,-8.220415 24.827885,-11.898947 2.624096,-1.409535 2.466814,-7.08691 2.198988,-10.38495 C 42.191759,13.441775 37.059004,4.9999994 24.960266,4.9999994 Z"/>
 <path style="fill:#f4b932" d="m 24.960266,3.9999998 c -12.09874,0 -18.5672675,8.7812092 -19.7360704,18.3634032 -0.8047432,6.597524 0.6717019,12.773324 2.6012309,16.89132 2.8252285,5.268766 3.5737805,5.571889 8.0073465,3.695404 9.009452,-3.815974 17.979653,-8.220415 24.827885,-11.898947 2.624096,-1.409535 2.466814,-7.08691 2.198988,-10.38495 C 42.191759,12.441775 37.059004,3.9999998 24.960266,3.9999998 Z"/>
 <path style="opacity:0.2;fill:#f4f4f7" d="M 24.960938 4 C 12.862198 4 6.3934123 12.781087 5.2246094 22.363281 C 5.0219818 24.024482 4.9640444 25.658624 5.0214844 27.240234 C 5.0149704 25.97065 5.0640713 24.67942 5.2246094 23.363281 C 6.3934123 13.781087 12.862198 5 24.960938 5 C 37.059675 5 42.191488 13.441561 42.859375 21.666016 C 42.918823 22.39806 42.96698 23.256588 42.986328 24.150391 C 43.000364 22.894853 42.940788 21.668548 42.859375 20.666016 C 42.191488 12.441561 37.059675 4 24.960938 4 z"/>
 <path style="fill:#444444" d="m 22.000379,16.000884 c -0.25589,0.0079 -0.507769,0.06864 -0.741162,0.178758 -3.013834,1.20898 -4.63279,2.581266 -8.097611,3.026867 -2.028791,0.260916 -4.9393725,0.313239 -6.964679,0.06234 C 5.0330586,19.108156 3.9999752,20.05647 4,21.285505 v 8.681023 c 3.346e-4,1.146929 0.9058541,2.066777 2.0008851,2.032547 3.1414633,-0.242247 6.3813299,-0.636972 9.3209559,-1.677377 0,0 8.678159,-2.917902 8.678159,-12.286942 3.58e-4,-1.146913 -0.904584,-2.067354 -1.999621,-2.033872 z"/>
 <circle style="opacity:0.2" cx="21" cy="21" r="2"/>
 <circle style="fill:#f4f4f7" cx="21" cy="20" r="2"/>
</svg>
