<svg xmlns="http://www.w3.org/2000/svg" width="48" height="48" version="1.1">
 <path style="opacity:.2" d="m19.07834 43.810246c-0.0678-0.107825 0.51693-1.036343 1.2994-2.063373 2.00425-2.630671 2.378848-4.841231 1.487638-5.858843-0.36582-0.417708-0.865378-0.88803-3.84741-0.88803-6.456154 0-9.1018804-1.240539-11.1044804-3.375965-2.7542-2.936879-3.66976-8.35362-2.25451-13.338401 1.66008-5.84715 8.0087004-10.1728963 17.4541604-11.8927203 6.15537-0.793825 13.51445-0.74303 18.10905 3.6242283 4.07271 4.003094 4.97485 11.402943 2.1072 17.284376-1.87631 3.848227-5.29212 6.611331-9.55161 7.726443-1.49429 0.391203-1.68234 0.528172-3.96495 2.887979-2.43859 2.521066-5.001748 4.63367-7.281168 5.594042-1.22175 0.51475-2.24009 0.639387-2.45332 0.300266z"/>
 <path style="fill:#ffc933" d="m19.07834 42.810246c-0.0678-0.107825 0.51693-1.036343 1.2994-2.063373 2.00425-2.630671 2.378848-4.841231 1.487638-5.858843-0.36582-0.417708-0.865378-0.88803-3.84741-0.88803-6.456154 0-9.1018804-1.240539-11.1044804-3.375965-2.7542-2.936879-3.66976-8.35362-2.25451-13.338401 1.66008-5.84715 8.0087004-10.1728967 17.4541604-11.8927207 6.15537-0.793825 13.51445-0.74303 18.10905 3.624228 4.07271 4.0030947 4.97485 11.4029437 2.1072 17.2843767-1.87631 3.848227-5.29212 6.611331-9.55161 7.726443-1.49429 0.391203-1.68234 0.528172-3.96495 2.887979-2.43859 2.521066-5.001748 4.63367-7.281168 5.594042-1.22175 0.51475-2.24009 0.639387-2.45332 0.300266z"/>
 <path style="opacity:.2;fill:#f4f4f7" d="m26.892578 5.0097656c-1.627303 0.0386312-3.240454 0.1843563-4.779297 0.3828125-9.44546 1.719824-15.7949979 6.0454279-17.4550779 11.8925779-0.493397 1.737839-0.6968625 3.526636-0.6445312 5.246094 0.0400337-1.406461 0.2462154-2.843149 0.6445312-4.246094 1.66008-5.84715 8.0096179-10.1727539 17.4550779-11.8925779 6.15537-0.793825 13.514775-0.7422583 18.109375 3.6249999 2.376309 2.33569 3.663205 5.827868 3.761719 9.5 0.130243-4.031373-1.170297-7.952874-3.761719-10.4999999-3.44595-3.2754435-8.448168-4.1237061-13.330078-4.0078125zm-4.623047 31.7812504c-0.146005 1.086608-0.743038 2.446254-1.892578 3.955078-0.78247 1.02703-1.366628 1.956628-1.298828 2.064453 0.066207 0.105296 0.230159 0.149888 0.433594 0.167969 0.230202-0.355424 0.515076-0.772823 0.865234-1.232422 1.536902-2.017256 2.108139-3.780361 1.892578-4.955078z"/>
</svg>
