<svg xmlns="http://www.w3.org/2000/svg" width="48" height="48" version="1">
 <ellipse style="opacity:0.2" cx="15.456" cy="31.968" rx="21.465" ry="8.958" transform="matrix(0.97126183,-0.23801355,0.28116226,0.95966024,0,0)"/>
 <path style="fill:#4f4f4f" d="m 22.666666,11 c -9.333333,0 -7.162477,8.261197 -11.941152,10.829477 -4.8480705,2.75048 -2.1770305,5.212769 -1.3921812,7.870537 1.3241092,4.431643 5.0332732,1.300563 15.9999992,-1.333333 10.966193,-2.633291 13.324275,-2.235354 12,-6.666667 -0.794047,-2.628129 1.812155,-5.063845 -3.854856,-5.295777 C 28.872386,16.65652 29.333332,11 22.666666,11 Z"/>
 <path style="opacity:0.1;fill:#f4f4f7" d="M 22.666016 11 C 13.332683 11 15.503284 19.261798 10.724609 21.830078 C 8.2322386 23.244087 7.7332785 24.580811 7.9375 25.908203 C 8.1109254 24.90634 8.856638 23.889844 10.724609 22.830078 C 15.503284 20.261798 13.332683 12 22.666016 12 C 29.332682 12 28.872426 17.65658 33.478516 17.404297 C 36.394124 17.523623 37.110785 18.232057 37.236328 19.244141 C 37.356426 17.714039 37.277224 16.559765 33.478516 16.404297 C 28.872426 16.65658 29.332682 11 22.666016 11 z M 37.191406 20.912109 C 37.154177 21.481325 37.147774 22.0829 37.333984 22.699219 C 37.475043 23.171231 37.563689 23.579245 37.615234 23.951172 C 37.718121 23.367754 37.617766 22.648815 37.333984 21.699219 C 37.253748 21.433652 37.21425 21.171671 37.191406 20.912109 z"/>
 <ellipse style="fill:#2e72de" cx="15.737" cy="30.996" rx="21.465" ry="8.958" transform="matrix(0.97126183,-0.23801355,0.28116226,0.95966024,0,0)"/>
 <ellipse style="opacity:0.2" cx="17.253" cy="38.303" rx="9.694" ry="4.064" transform="matrix(0.97533058,-0.22074931,0.22641316,0.97403136,0,0)"/>
 <ellipse style="fill:#fbfbfb" cx="17.48" cy="37.328" rx="9.694" ry="4.064" transform="matrix(0.97533058,-0.22074931,0.22641316,0.97403136,0,0)"/>
 <path style="opacity:0.1;fill:#f4f4f7" d="M 31.785156 16.005859 A 8.9469122 21.469811 76.769326 0 0 21.480469 17.404297 A 8.9469122 21.469811 76.769326 0 0 3.0527344 30.511719 A 8.9469122 21.469811 76.769326 0 1 21.480469 18.404297 A 8.9469122 21.469811 76.769326 0 1 44.847656 21.890625 A 8.9469122 21.469811 76.769326 0 1 44.947266 22.488281 A 8.9469122 21.469811 76.769326 0 0 44.847656 20.890625 A 8.9469122 21.469811 76.769326 0 0 31.785156 16.005859 z"/>
</svg>
