<svg width="48" height="48" version="1.1" xmlns="http://www.w3.org/2000/svg">
 <path d="m9.9804688 5.9796897a2.0002 2.0001858 0 0 0-1.3945312 3.4335693l6.0000004 5.999957a2.0002 2.0001858 0 1 0 2.828124-2.828104l-6-5.9999578a2.0002 2.0001858 0 0 0-1.4335932-0.6054645z" style="opacity:.2"/>
 <path d="m37.960938 5.9796897a2.0002 2.0001858 0 0 0-1.375 0.6054645l-6 5.9999578a2.0002 2.0001858 0 1 0 2.828124 2.828104l6-5.999957a2.0002 2.0001858 0 0 0-1.453124-3.4335693z" style="opacity:.2"/>
 <path d="m10 7.0001633 6 5.9999577" style="fill:none;stroke-linecap:round;stroke-width:3.9999857;stroke:#434343"/>
 <path d="m9.9804688 4.9806464a2.0002 2.0001858 0 0 0-1.9335938 2.4999823 2.0002 2.0001858 0 0 1 1.9335938-1.4999894 2.0002 2.0001858 0 0 1 1.4335932 0.6054645l6 5.9999572a2.0002 2.0001858 0 0 1 0.550782 0.9414 2.0002 2.0001858 0 0 0-0.550782-1.941393l-6-5.9999571a2.0002 2.0001858 0 0 0-1.4335932-0.6054645z" style="fill:#f4f4f7;opacity:.1"/>
 <path d="m38 7.0001633-6 5.9999577" style="fill:none;stroke-linecap:round;stroke-width:3.9999857;stroke:#434343"/>
 <path d="m37.960938 4.9806464a2.0002 2.0001858 0 0 0-1.375 0.6054645l-6 5.9999571a2.0002 2.0001858 0 0 0-0.550782 1.937487 2.0002 2.0001858 0 0 1 0.550782-0.937494l6-5.9999572a2.0002 2.0001858 0 0 1 1.375-0.6054645 2.0002 2.0001858 0 0 1 1.992186 1.496083 2.0002 2.0001858 0 0 0-1.992186-2.4960759z" style="fill:#f4f4f7;opacity:.1"/>
 <rect x="6" y="10.000142" width="36" height="33.99976" ry="1.9999858" style="opacity:.2"/>
 <rect x="6" y="9.0001488" width="36" height="33.99976" ry="1.9999858" style="fill:#ff57a3"/>
 <ellipse cx="16" cy="22.000057" rx="6" ry="5.9999576" style="opacity:.1"/>
 <ellipse cx="16" cy="21.000065" rx="6" ry="5.9999576" style="fill:#fb3705"/>
 <ellipse cx="32" cy="22.000057" rx="6" ry="5.9999576" style="opacity:.1"/>
 <ellipse cx="32" cy="21.000065" rx="6" ry="5.9999576" style="fill:#fb3705"/>
 <rect x="12" y="30" width="24" height="11.999915" style="opacity:.1"/>
 <ellipse cx="16" cy="21.000065" rx="2" ry="1.9999858" style="fill:#3f3f3f"/>
 <ellipse cx="32" cy="21.000065" rx="2" ry="1.9999858" style="fill:#3f3f3f"/>
 <rect x="12" y="29.000008" width="24" height="11.999915" style="fill:#3f3f3f"/>
 <path d="m8 9.0001491c-1.108 0-2 0.8919937-2 1.9999859v0.999993c0-1.107992 0.892-1.999986 2-1.999986h32c1.108 0 2 0.891994 2 1.999986v-0.999993c0-1.1079922-0.892-1.9999859-2-1.9999859z" style="fill:#f4f4f7;opacity:.2"/>
 <path d="m14 31v3h2v-3h-2zm4 0v3h3v-3h-3zm5 0v3h2v-3h-2zm4 0v3h3v-3h-3zm5 0v3h2v-3h-2zm-18 5v3h2v-3h-2zm4 0v3h3v-3h-3zm5 0v3h2v-3h-2zm4 0v3h3v-3h-3zm5 0v3h2v-3h-2z" style="fill:#f4f4f7"/>
</svg>
