<svg xmlns="http://www.w3.org/2000/svg" width="48" height="48" version="1">
 <path style="fill:#cf4f8c" d="m24 4h-18c-1.108 0-2 0.892-2 2v18h20z"/>
 <path style="fill:#2086e7" d="m24 4h18c1.108 0 2 0.892 2 2v18h-20z"/>
 <path style="fill:#2086e7" d="m24 44h-18c-1.108 0-2-0.892-2-2v-18h20z"/>
 <path style="fill:#6655e4" d="m24 44h18c1.108 0 2-0.892 2-2v-18h-20z"/>
 <path fill="#fff" opacity=".2" d="m6 4c-1.108 0-2 0.892-2 2v1c0-1.108 0.892-2 2-2h36c1.108 0 2 0.892 2 2v-1c0-1.108-0.892-2-2-2h-36z"/>
 <path opacity=".2" d="m6 45c-1.108 0-2-0.892-2-2v-1c0 1.108 0.892 2 2 2h36c1.108 0 2-0.892 2-2v1c0 1.108-0.892 2-2 2h-36z"/>
 <rect style="fill:#3f3f3f" width="28" height="28" x="10" y="10"/>
 <path style="opacity:0.2;fill:none;stroke:#000000;stroke-width:2;stroke-linecap:round" d="m 16,32.9999 h 8"/>
 <path style="fill:none;stroke:#f4f4f7;stroke-width:2;stroke-linecap:round" d="m 16,32 h 8"/>
 <path style="opacity:0.2;fill:none;stroke:#000000;stroke-width:1.99999988;stroke-linecap:round" d="M 19,24.999902 V 20.9999 m 3,-3.999999 -3,3.999999 m -3,-3.999999 3,3.999999"/>
 <path style="fill:none;stroke:#f4f4f7;stroke-width:1.99999988;stroke-linecap:round" d="M 19,24.000002 V 20 M 22,16.000001 19,20 M 16,16.000001 19,20"/>
 <path style="opacity:0.2;fill:none;stroke:#000000;stroke-width:1.99999988;stroke-linecap:round" d="m 25.999998,16.9999 h 3.999999 M 28,24.999902 V 16.9999"/>
 <path style="fill:none;stroke:#f4f4f7;stroke-width:1.99999988;stroke-linecap:round" d="m 25.999998,16 h 3.999999 M 28,24.000002 V 16"/>
</svg>
