<svg xmlns="http://www.w3.org/2000/svg" width="48" height="48" version="1.1">
 <path style="fill:#9aca3c" d="m24 4a20 20 0 0 0 -20 20 20 20 0 0 0 20 20 20 20 0 0 0 20 -20 20 20 0 0 0 -20 -20z"/>
 <path opacity=".2" d="m4.0215 24.418a20 20 0 0 0 -0.0215 0.582 20 20 0 0 0 20 20 20 20 0 0 0 20 -20 20 20 0 0 0 -0.021 -0.418 20 20 0 0 1 -19.979 19.418 20 20 0 0 1 -19.978 -19.582z"/>
 <path fill="#f4f4f7" opacity=".2" d="m24 4a20 20 0 0 0 -20 20 20 20 0 0 0 0.0215 0.418 20 20 0 0 1 19.978 -19.418 20 20 0 0 1 19.979 19.582 20 20 0 0 0 0.021 -0.582 20 20 0 0 0 -20 -20z"/>
 <path style="opacity:.2;stroke-linejoin:round;stroke:#000000;stroke-linecap:round;stroke-width:4;fill:none" d="m17 16.000029 8 9"/>
 <path style="opacity:.2;stroke-linejoin:round;stroke:#000000;stroke-linecap:round;stroke-width:4;fill:none" d="m19 35.000029 14-19"/>
 <g transform="translate(0,1.000029)">
  <path style="stroke-linejoin:round;stroke:#f4f4f7;stroke-linecap:round;fill:none;stroke-width:4" d="m19 33 14-19"/>
  <path style="stroke-linejoin:round;stroke:#f4f4f7;stroke-linecap:round;fill:none;stroke-width:4" d="m17 14 8 9"/>
 </g>
 <circle style="opacity:.2" cx="36" cy="36" r="11"/>
 <circle style="fill:#d939a1" cx="36" cy="35" r="11"/>
 <path style="fill:#f4f4f7" d="m34.48798 28.99887-0.13345 1.5804a4.7567 4.7143 0 0 0 -1.3902 0.79689l-1.4493-0.67635-1.5135 2.5982 1.3159 0.9057a4.7567 4.7143 0 0 0 -0.07265 0.7952 4.7567 4.7143 0 0 0 0.06922 0.79855l-1.314 0.903 1.5135 2.5982 1.4459-0.67466a4.7567 4.7143 0 0 0 1.393 0.792l0.133 1.584h3.027l0.13344-1.5804a4.7567 4.7143 0 0 0 1.3902 -0.79688l1.4493 0.67634 1.5135-2.5982-1.3159-0.9057a4.7567 4.7143 0 0 0 0.07265 -0.79519 4.7567 4.7143 0 0 0 -0.06922 -0.79855l1.313-0.901-1.5135-2.5982-1.446 0.67467a4.7567 4.7143 0 0 0 -1.393 -0.792l-0.13344-1.5837h-3.027zm1.5135 4.2857a1.7297 1.7143 0 0 1 1.73 1.714 1.7297 1.7143 0 0 1 -1.73 1.714 1.7297 1.7143 0 0 1 -1.729 -1.714 1.7297 1.7143 0 0 1 1.729 -1.714z"/>
</svg>
