<svg xmlns="http://www.w3.org/2000/svg" width="48" height="48" version="1.1">
 <rect style="fill:#b2bfd9" width="40" height="40" x="4" y="4" rx="2" ry="2"/>
 <path style="opacity:0.2;fill:#f4f4f7" d="m 6,3.9999996 c -1.108,0 -2,0.892 -2,2 l 0,1 c 0,-1.108 0.892,-2 2,-2 l 36,0 c 1.108,0 2,0.892 2,2 l 0,-1 c 0,-1.108 -0.892,-2 -2,-2 z"/>
 <path style="opacity:0.2" d="M 6,45 C 4.892,45 4,44.108 4,43 l 0,-1 c 0,1.108 0.892,2 2,2 l 36,0 c 1.108,0 2,-0.892 2,-2 l 0,1 c 0,1.108 -0.892,2 -2,2 z"/>
 <rect style="fill:#182d33" width="30" height="30" x="-39" y="-39" rx="1.5" ry="1.5" transform="matrix(0,-1,-1,0,0,0)"/>
 <circle style="opacity:0.2" cx="24" cy="25" r="11"/>
 <circle style="fill:#223f48" cx="24" cy="24" r="11"/>
 <circle style="opacity:0.2" cx="24" cy="25" r="7"/>
 <circle style="fill:#325e6a" cx="24" cy="24" r="7"/>
 <circle style="opacity:0.2" cx="24" cy="25" r="3"/>
 <circle style="fill:#1996b4" cx="24" cy="24" r="3"/>
 <path style="opacity:0.1;fill:#f4f4f7;fill-rule:evenodd" d="M 24,13 A 11,11 0 0 0 13,24 11,11 0 0 0 13.021484,24.585938 11,11 0 0 1 24,14 11,11 0 0 1 34.978516,24.414062 11,11 0 0 0 35,24 11,11 0 0 0 24,13 Z"/>
 <path style="opacity:0.1;fill:#f4f4f7;fill-rule:evenodd" d="m 24,17 a 7,7 0 0 0 -7,7 7,7 0 0 0 0.02344,0.541016 A 7,7 0 0 1 24,18 7,7 0 0 1 30.976562,24.458984 7,7 0 0 0 31,24 7,7 0 0 0 24,17 Z"/>
 <path style="opacity:0.2;fill:#f4f4f7;fill-rule:evenodd" d="m 24,21 a 3,3 0 0 0 -3,3 3,3 0 0 0 0.04297,0.513672 A 3,3 0 0 1 24,22 3,3 0 0 1 26.957031,24.486328 3,3 0 0 0 27,24 3,3 0 0 0 24,21 Z"/>
</svg>
