<svg width="48" height="48" version="1.1" xmlns="http://www.w3.org/2000/svg">
 <g transform="matrix(2,0,0,2,2,2)">
  <path d="m2 4.5-1 2 1 5 4 2 4-2v-2l-4-1zm18 0-4 4-4 1v2l4 2 4-2 1-5zm-10 11-3 2 1 2 3 1 3-1 1-2-3-2z" style="opacity:.2"/>
  <path d="m2 4-1 2 1 5 4 2 4-2v-2l-4-1zm18 0-4 4-4 1v2l4 2 4-2 1-5zm-10 11-3 2 1 2 3 1 3-1 1-2-3-2z" style="fill:#3b8668"/>
  <path d="M 2,4 1,6 1.0722656,6.3574219 2,4.5 l 4,4 4,1 V 9 L 6,8 Z m 18,0 -4,4 -4,1 v 0.5 l 4,-1 4,-4 0.927734,1.8574219 L 21,6 Z M 10,15 7,17 7.1875,17.375 10,15.5 h 2 L 14.8125,17.375 15,17 12,15 Z" style="fill:#f4f4f7;opacity:.1"/>
  <path d="m11 2.5-2 2 1 2-2 3v4l3 5 3-5v-4l-2-3 1-2z" style="opacity:.2"/>
  <path d="m11 2-2 2 1 2-2 3v4l3 5 3-5v-4l-2-3 1-2z" style="fill:#64aca8"/>
  <path d="M 11,2 9,4 9.1660156,4.3339844 11,2.5 12.833984,4.3339844 13,4 Z M 9.8574219,6.2148438 8,9 v 0.5 l 2,-3 z m 2.2851561,0 L 12,6.5 l 2,3 V 9 Z" style="fill:#f4f4f7;opacity:.2"/>
  <rect x="11" y="4.5" width="5" height="1" style="opacity:.2"/>
  <rect x="11" y="4" width="5" height="1" style="fill:#8ab9c1"/>
  <path d="m13.972656 7.4921875a1.0001 1.0001 0 0 0-0.613281 0.2402344l-6 5.0000001a1.0001 1.0001 0 1 0 1.28125 1.535156l6-4.9999999a1.0001 1.0001 0 0 0-0.667969-1.7753906z" style="opacity:.2"/>
  <path d="m14 8-6 5" style="fill:none;stroke-linecap:round;stroke-linejoin:round;stroke-width:2;stroke:#69501b"/>
  <path d="m7.9980469 7.4902344a1.0001 1.0001 0 0 0-0.6386719 1.7773437l6 4.9999999a1.0001 1.0001 0 1 0 1.28125-1.535156l-6-5.0000001a1.0001 1.0001 0 0 0-0.6425781-0.2421875z" style="opacity:.2"/>
  <path d="m8 8 6 5" style="fill:none;stroke-linecap:round;stroke-linejoin:round;stroke-width:2;stroke:#9b7528"/>
 </g>
</svg>
