<svg xmlns="http://www.w3.org/2000/svg" width="48" height="48" version="1.1">
 <path style="fill:#b2bfd9" d="m 24.1077,4.0016669 a 4.5656,4.5479 0 0 0 -2.391,0.6067 L 8.2827,12.334367 a 4.5656,4.5479 0 0 0 -2.283,3.939 l 0,15.453 a 4.5656,4.5479 0 0 0 2.2828,3.9386 l 13.434,7.7264 a 4.5656,4.5479 0 0 0 4.5656,0 l 13.434,-7.7264 a 4.5656,4.5479 0 0 0 2.283,-3.939 l 0,-15.453 a 4.5656,4.5479 0 0 0 -2.283,-3.939 L 26.2821,4.6079669 a 4.5656,4.5479 0 0 0 -2.175,-0.6067 z"/>
 <path style="opacity:0.2;fill:#f4f4f7" d="m 24.1067,4.0023669 a 4.5656,4.5479 0 0 0 -2.39,0.6054 L 8.2827,12.334367 a 4.5656,4.5479 0 0 0 -2.283,3.939 l 0,1 a 4.5656,4.5479 0 0 1 2.2832,-3.939 l 13.434,-7.7266001 a 4.5656,4.5479 0 0 1 2.3906,-0.60547 4.5656,4.5479 0 0 1 2.1758,0.60547 l 13.434,7.7266001 a 4.5656,4.5479 0 0 1 2.283,3.939 l 0,-1 a 4.5656,4.5479 0 0 0 -2.283,-3.939 L 26.2833,4.6077669 a 4.5656,4.5479 0 0 0 -2.176,-0.6054 z"/>
 <path style="opacity:0.2" d="m 5.9997,31.726367 0,1 a 4.5656,4.5479 0 0 0 2.2832,3.9375 l 13.434,7.7266 a 4.5656,4.5479 0 0 0 4.5664,0 l 13.434,-7.727 a 4.5656,4.5479 0 0 0 2.283,-3.938 l 0,-1 a 4.5656,4.5479 0 0 1 -2.2832,3.9375 l -13.434,7.7266 a 4.5656,4.5479 0 0 1 -4.5664,0 l -13.434,-7.727 a 4.5656,4.5479 0 0 1 -2.283,-3.938 z"/>
 <path style="fill:none;stroke:#a81717;stroke-width:4;stroke-linecap:square;stroke-linejoin:round" d="M 16,14 H 32 L 16,34 h 16"/>
</svg>
