<svg xmlns="http://www.w3.org/2000/svg" width="24" height="24" version="1.1">
 <defs>
  <style id="current-color-scheme" type="text/css">
   .ColorScheme-Text { color:#323a41; } .ColorScheme-Highlight { color:#4285f4; } .ColorScheme-NeutralText { color:#ff9800; } .ColorScheme-PositiveText { color:#4caf50; } .ColorScheme-NegativeText { color:#f44336; }
  </style>
 </defs>
 <g transform="translate(4,4)">
  <path style="fill:currentColor" class="ColorScheme-Text" d="M 11.646,1 1,11.646 4.3535,15 15,4.3535 Z M 3.5,2 2.9687,2.9687 2,3.5 2.9687,4.0312 3.5,5 4.0312,4.0312 5,3.5 4.0312,2.9687 Z M 11.646,2.6777 13.322,4.3535 10.078,7.5996 8.4004,5.9219 Z"/>
 </g>
</svg>
