<svg xmlns="http://www.w3.org/2000/svg" width="24" height="24" version="1.1">
 <defs>
  <style id="current-color-scheme" type="text/css">
   .ColorScheme-Text { color:#323a41; } .ColorScheme-Highlight { color:#4285f4; } .ColorScheme-NeutralText { color:#ff9800; } .ColorScheme-PositiveText { color:#4caf50; } .ColorScheme-NegativeText { color:#f44336; }
  </style>
 </defs>
 <g transform="translate(4,4)">
  <path style="fill:currentColor" class="ColorScheme-Text" d="M 2,2 C 2,2 0,2 0,4 V 12 C 0,14 2,14 2,14 H 8 V 9 L 2,6 V 4 L 8,7 14,4 V 6 L 12,7 H 16 V 4 C 16,2 14,2 14,2 Z M 10,8 C 9,8 9,9 9,9 V 14 C 9,14 9,15 10,15 H 15 C 16,15 16,14 16,14 V 9 C 16,9 16,8 15,8 Z M 10,9 H 11 V 10 H 12 V 11 H 13 V 10 H 14 V 9 H 15 V 14 H 14 V 11 H 13 V 12 H 12 V 11 H 11 V 14 H 10 Z"/>
 </g>
</svg>
