<svg xmlns="http://www.w3.org/2000/svg" width="24" height="24" version="1.1">
 <defs>
  <style id="current-color-scheme" type="text/css">
   .ColorScheme-Text { color:#323a41; } .ColorScheme-Highlight { color:#4285f4; } .ColorScheme-NeutralText { color:#ff9800; } .ColorScheme-PositiveText { color:#4caf50; } .ColorScheme-NegativeText { color:#f44336; }
  </style>
 </defs>
 <path style="fill:currentColor" class="ColorScheme-Text" d="m 12,5 a 7,7 0 0 0 -7,7 7,7 0 0 0 7,7 7,7 0 0 0 7,-7 7,7 0 0 0 -7,-7 z m 0,2 c 1.0253,0.0012 2.026234,0.31755 2.865234,0.90625 l -1.71875,2.457031 c 0.4854,0.3409 0.79455,0.879603 0.84375,1.470703 L 17,11.5625 V 12 c 0,2.761 -2.239,5 -5,5 v -3 c -0.5304,-10e-5 -1.039062,-0.210837 -1.414062,-0.585937 l -2.1191411,2.11914 C 7.5288969,14.596203 7.0013,13.3255 7,12 7.0003,10.8248 7.4145219,9.687309 8.1699219,8.787109 L 10.46875,10.714844 C 10.84835,10.262044 11.4091,10.0004 12,10 Z"/>
</svg>
