<svg xmlns="http://www.w3.org/2000/svg" width="24" height="24" version="1.1">
 <defs>
  <style id="current-color-scheme" type="text/css">
   .ColorScheme-Text { color:#323a41; } .ColorScheme-Highlight { color:#4285f4; } .ColorScheme-NeutralText { color:#ff9800; } .ColorScheme-PositiveText { color:#4caf50; } .ColorScheme-NegativeText { color:#f44336; }
  </style>
 </defs>
 <g transform="matrix(1,0,0,1,4,4)">
  <path style="fill:currentColor" class="ColorScheme-Text" d="M 9 1 A 2 2 0 0 0 7 3 A 2 2 0 0 0 9 5 A 2 2 0 0 0 11 3 A 2 2 0 0 0 9 1 z M 4 2 A 1 1 0 0 0 3 3 A 1 1 0 0 0 4 4 A 1 1 0 0 0 5 3 A 1 1 0 0 0 4 2 z M 13 3 A 1 1 0 0 0 12 4 A 1 1 0 0 0 13 5 A 1 1 0 0 0 14 4 A 1 1 0 0 0 13 3 z M 3 5 A 2 2 0 0 0 1 7 A 2 2 0 0 0 3 9 A 2 2 0 0 0 5 7 A 2 2 0 0 0 3 5 z M 8 7 A 1 1 0 0 0 7 8 A 1 1 0 0 0 8 9 A 1 1 0 0 0 9 8 A 1 1 0 0 0 8 7 z M 13 7 A 2 2 0 0 0 11 9 A 2 2 0 0 0 13 11 A 2 2 0 0 0 15 9 A 2 2 0 0 0 13 7 z M 3 10 A 1 1 0 0 0 2 11 A 1 1 0 0 0 3 12 A 1 1 0 0 0 4 11 A 1 1 0 0 0 3 10 z M 7 11 A 2 2 0 0 0 5 13 A 2 2 0 0 0 7 15 A 2 2 0 0 0 9 13 A 2 2 0 0 0 7 11 z M 12 12 A 1 1 0 0 0 11 13 A 1 1 0 0 0 12 14 A 1 1 0 0 0 13 13 A 1 1 0 0 0 12 12 z"/>
 </g>
</svg>
