<svg xmlns="http://www.w3.org/2000/svg" width="24" height="24" version="1.1">
 <defs>
  <style id="current-color-scheme" type="text/css">
   .ColorScheme-Text { color:#323a41; } .ColorScheme-Highlight { color:#4285f4; } .ColorScheme-NeutralText { color:#ff9800; } .ColorScheme-PositiveText { color:#4caf50; } .ColorScheme-NegativeText { color:#f44336; }
  </style>
 </defs>
 <g transform="translate(4,4)">
  <path style="fill:currentColor" class="ColorScheme-Text" d="M 7.5,1.8 C 6,1 5.5,1 4.5,1 3.5,1 2.5,1.8 0.5,1.8 H 0 V 16 H 15 V 1.8 H 14.5 C 12.5,1.8 11.5,1 10.5,1 9.5,1 9,1 7.5,1.8 Z M 7,2.65 V 11.6 C 7,11.6 6,11 5,11 4,11 3,11.6 2,11.6 V 2.65 C 2.5,2.65 4,2 5,2 6,2 7,2.65 7,2.65 Z M 13,2.65 V 11.6 C 12,11.6 11,11 10,11 9,11 8,11.6 8,11.6 V 2.65 C 8,2.65 9,2 10,2 11,2 12,2.65 13,2.65 Z"/>
 </g>
</svg>
